9 <--- number of remaining batches 

-------------------------------------------------------------------------------
bat[       1] ncas =      500000000.
 bitrseed = 0100001010011000001011101100011110011000110110100110010000000000
          cpu time =  17 h. 26 m. 39.34 s.

 date = 2022-06-01
 time = 16h 20m 51s

