[ T-Cross ]
    title = [t-cross] in region mesh
     mesh =  reg            # mesh type is region-wise
      reg =    1            # number of crossing regions
      non     r-from    r-to       area
      1       116       216        1.000000    
   e-type =    3            # e-mesh is log given by emin, emax and ne
     emin =  1.0000000E-02  # minimum value of e-mesh points
     emax =   150.0000      # maximum value of e-mesh points
#    edel =  2.4039514E-02  # mesh width of e-mesh points
       ne =    400          # number of e-mesh points
#    data = ( e(i), i = 1, ne + 1 )
#           1.00000E-02  1.02433E-02  1.04925E-02  1.07478E-02  1.10093E-02
#           1.12772E-02  1.15516E-02  1.18326E-02  1.21205E-02  1.24154E-02
#           1.27175E-02  1.30269E-02  1.33439E-02  1.36686E-02  1.40011E-02
#           1.43418E-02  1.46907E-02  1.50482E-02  1.54143E-02  1.57894E-02
#           1.61735E-02  1.65670E-02  1.69701E-02  1.73830E-02  1.78060E-02
#           1.82392E-02  1.86830E-02  1.91375E-02  1.96032E-02  2.00801E-02
#           2.05687E-02  2.10692E-02  2.15818E-02  2.21069E-02  2.26448E-02
#           2.31957E-02  2.37601E-02  2.43382E-02  2.49304E-02  2.55369E-02
#           2.61583E-02  2.67947E-02  2.74467E-02  2.81145E-02  2.87985E-02
#           2.94992E-02  3.02169E-02  3.09521E-02  3.17052E-02  3.24766E-02
#           3.32668E-02  3.40762E-02  3.49053E-02  3.57546E-02  3.66246E-02
#           3.75157E-02  3.84284E-02  3.93634E-02  4.03212E-02  4.13022E-02
#           4.23071E-02  4.33365E-02  4.43909E-02  4.54710E-02  4.65773E-02
#           4.77106E-02  4.88714E-02  5.00605E-02  5.12785E-02  5.25262E-02
#           5.38042E-02  5.51133E-02  5.64542E-02  5.78278E-02  5.92348E-02
#           6.06760E-02  6.21523E-02  6.36645E-02  6.52135E-02  6.68002E-02
#           6.84255E-02  7.00904E-02  7.17957E-02  7.35426E-02  7.53319E-02
#           7.71648E-02  7.90423E-02  8.09655E-02  8.29354E-02  8.49533E-02
#           8.70203E-02  8.91376E-02  9.13064E-02  9.35279E-02  9.58035E-02
#           9.81345E-02  1.00522E-01  1.02968E-01  1.05473E-01  1.08040E-01
#           1.10668E-01  1.13361E-01  1.16119E-01  1.18944E-01  1.21838E-01
#           1.24803E-01  1.27839E-01  1.30950E-01  1.34136E-01  1.37399E-01
#           1.40742E-01  1.44167E-01  1.47675E-01  1.51268E-01  1.54948E-01
#           1.58718E-01  1.62580E-01  1.66535E-01  1.70587E-01  1.74738E-01
#           1.78989E-01  1.83344E-01  1.87805E-01  1.92375E-01  1.97055E-01
#           2.01850E-01  2.06761E-01  2.11792E-01  2.16945E-01  2.22223E-01
#           2.27630E-01  2.33169E-01  2.38842E-01  2.44653E-01  2.50605E-01
#           2.56703E-01  2.62949E-01  2.69346E-01  2.75900E-01  2.82613E-01
#           2.89489E-01  2.96532E-01  3.03747E-01  3.11138E-01  3.18708E-01
#           3.26462E-01  3.34405E-01  3.42542E-01  3.50876E-01  3.59413E-01
#           3.68158E-01  3.77116E-01  3.86291E-01  3.95690E-01  4.05317E-01
#           4.15179E-01  4.25281E-01  4.35628E-01  4.46227E-01  4.57084E-01
#           4.68205E-01  4.79597E-01  4.91266E-01  5.03219E-01  5.15463E-01
#           5.28005E-01  5.40851E-01  5.54011E-01  5.67490E-01  5.81298E-01
#           5.95441E-01  6.09929E-01  6.24769E-01  6.39970E-01  6.55541E-01
#           6.71491E-01  6.87828E-01  7.04564E-01  7.21706E-01  7.39266E-01
#           7.57253E-01  7.75678E-01  7.94551E-01  8.13883E-01  8.33685E-01
#           8.53969E-01  8.74747E-01  8.96030E-01  9.17831E-01  9.40163E-01
#           9.63038E-01  9.86469E-01  1.01047E+00  1.03506E+00  1.06024E+00
#           1.08604E+00  1.11246E+00  1.13953E+00  1.16725E+00  1.19565E+00
#           1.22474E+00  1.25454E+00  1.28507E+00  1.31633E+00  1.34836E+00
#           1.38117E+00  1.41477E+00  1.44920E+00  1.48446E+00  1.52057E+00
#           1.55757E+00  1.59547E+00  1.63429E+00  1.67405E+00  1.71478E+00
#           1.75650E+00  1.79924E+00  1.84302E+00  1.88786E+00  1.93379E+00
#           1.98084E+00  2.02904E+00  2.07841E+00  2.12898E+00  2.18078E+00
#           2.23384E+00  2.28819E+00  2.34386E+00  2.40089E+00  2.45930E+00
#           2.51914E+00  2.58043E+00  2.64322E+00  2.70753E+00  2.77341E+00
#           2.84088E+00  2.91001E+00  2.98081E+00  3.05333E+00  3.12762E+00
#           3.20372E+00  3.28167E+00  3.36152E+00  3.44330E+00  3.52708E+00
#           3.61290E+00  3.70080E+00  3.79085E+00  3.88308E+00  3.97756E+00
#           4.07434E+00  4.17347E+00  4.27501E+00  4.37903E+00  4.48557E+00
#           4.59471E+00  4.70650E+00  4.82102E+00  4.93832E+00  5.05847E+00
#           5.18155E+00  5.30762E+00  5.43676E+00  5.56904E+00  5.70453E+00
#           5.84333E+00  5.98550E+00  6.13114E+00  6.28031E+00  6.43312E+00
#           6.58964E+00  6.74997E+00  6.91420E+00  7.08243E+00  7.25475E+00
#           7.43126E+00  7.61207E+00  7.79728E+00  7.98700E+00  8.18133E+00
#           8.38038E+00  8.58428E+00  8.79315E+00  9.00709E+00  9.22624E+00
#           9.45072E+00  9.68067E+00  9.91620E+00  1.01575E+01  1.04046E+01
#           1.06578E+01  1.09171E+01  1.11827E+01  1.14548E+01  1.17335E+01
#           1.20190E+01  1.23114E+01  1.26109E+01  1.29178E+01  1.32321E+01
#           1.35540E+01  1.38838E+01  1.42216E+01  1.45676E+01  1.49221E+01
#           1.52851E+01  1.56570E+01  1.60380E+01  1.64282E+01  1.68279E+01
#           1.72374E+01  1.76568E+01  1.80864E+01  1.85264E+01  1.89772E+01
#           1.94389E+01  1.99119E+01  2.03963E+01  2.08926E+01  2.14009E+01
#           2.19216E+01  2.24550E+01  2.30014E+01  2.35610E+01  2.41343E+01
#           2.47215E+01  2.53230E+01  2.59391E+01  2.65702E+01  2.72167E+01
#           2.78789E+01  2.85572E+01  2.92520E+01  2.99637E+01  3.06928E+01
#           3.14396E+01  3.22045E+01  3.29881E+01  3.37907E+01  3.46128E+01
#           3.54550E+01  3.63177E+01  3.72013E+01  3.81064E+01  3.90336E+01
#           3.99833E+01  4.09561E+01  4.19526E+01  4.29734E+01  4.40189E+01
#           4.50900E+01  4.61870E+01  4.73108E+01  4.84619E+01  4.96410E+01
#           5.08488E+01  5.20860E+01  5.33533E+01  5.46514E+01  5.59812E+01
#           5.73432E+01  5.87384E+01  6.01676E+01  6.16315E+01  6.31311E+01
#           6.46671E+01  6.62405E+01  6.78522E+01  6.95031E+01  7.11941E+01
#           7.29263E+01  7.47007E+01  7.65182E+01  7.83800E+01  8.02870E+01
#           8.22405E+01  8.42414E+01  8.62911E+01  8.83906E+01  9.05412E+01
#           9.27442E+01  9.50007E+01  9.73122E+01  9.96799E+01  1.02105E+02
#           1.04589E+02  1.07134E+02  1.09741E+02  1.12411E+02  1.15146E+02
#           1.17948E+02  1.20817E+02  1.23757E+02  1.26768E+02  1.29852E+02
#           1.33012E+02  1.36248E+02  1.39563E+02  1.42959E+02  1.46437E+02
#           1.50000E+02
     unit =    2            # unit is [1/cm^2/(MeV/n)/source]
     axis =  eng            # axis of output
     file = detector-17.out  # file name of output for the above axis
   output = f-curr          # surface crossing forward current spectrum
     part =  neutron  
# kf/name :  2112     
#    used :        main (  %)        temp (  %)       total (  %)
#  memory :         414 (  0)           0 (  0)         414 (  0)

#------------------------------------------------------------------------------
#newpage:
#   no. =    1   reg = 116 - 216

x: Energy [MeV/n]
y:  F-Curr [1/cm^2/(MeV/n)/source]         
p: xlog ylog afac(0.8) form(0.9)
h: n            x            y(neutron ),hh0l   n 
#  e-lower      e-upper      neutron     r.err 
   1.0000E-02   1.0243E-02   7.1843E-03  0.0338
   1.0243E-02   1.0493E-02   6.9495E-03  0.0340
   1.0493E-02   1.0748E-02   7.2231E-03  0.0329
   1.0748E-02   1.1009E-02   6.9904E-03  0.0331
   1.1009E-02   1.1277E-02   7.0259E-03  0.0326
   1.1277E-02   1.1552E-02   6.9611E-03  0.0324
   1.1552E-02   1.1833E-02   6.9309E-03  0.0320
   1.1833E-02   1.2121E-02   6.9817E-03  0.0315
   1.2121E-02   1.2415E-02   6.9175E-03  0.0313
   1.2415E-02   1.2718E-02   7.1604E-03  0.0304
   1.2718E-02   1.3027E-02   7.0582E-03  0.0303
   1.3027E-02   1.3344E-02   6.8148E-03  0.0304
   1.3344E-02   1.3669E-02   6.9856E-03  0.0297
   1.3669E-02   1.4001E-02   7.2467E-03  0.0288
   1.4001E-02   1.4342E-02   7.0452E-03  0.0289
   1.4342E-02   1.4691E-02   7.1071E-03  0.0284
   1.4691E-02   1.5048E-02   6.9355E-03  0.0284
   1.5048E-02   1.5414E-02   6.8773E-03  0.0282
   1.5414E-02   1.5789E-02   7.0392E-03  0.0275
   1.5789E-02   1.6174E-02   6.7575E-03  0.0278
   1.6174E-02   1.6567E-02   6.7494E-03  0.0274
   1.6567E-02   1.6970E-02   7.0654E-03  0.0265
   1.6970E-02   1.7383E-02   6.8104E-03  0.0267
   1.7383E-02   1.7806E-02   6.9986E-03  0.0260
   1.7806E-02   1.8239E-02   6.6108E-03  0.0264
   1.8239E-02   1.8683E-02   6.8413E-03  0.0257
   1.8683E-02   1.9138E-02   6.7184E-03  0.0256
   1.9138E-02   1.9603E-02   6.9325E-03  0.0249
   1.9603E-02   2.0080E-02   6.8811E-03  0.0247
   2.0080E-02   2.0569E-02   6.6276E-03  0.0249
   2.0569E-02   2.1069E-02   6.5860E-03  0.0246
   2.1069E-02   2.1582E-02   7.2021E-03  0.0233
   2.1582E-02   2.2107E-02   6.8406E-03  0.0236
   2.2107E-02   2.2645E-02   6.8826E-03  0.0232
   2.2645E-02   2.3196E-02   6.9750E-03  0.0228
   2.3196E-02   2.3760E-02   6.4355E-03  0.0235
   2.3760E-02   2.4338E-02   6.6286E-03  0.0228
   2.4338E-02   2.4930E-02   7.0284E-03  0.0219
   2.4930E-02   2.5537E-02   6.5219E-03  0.0225
   2.5537E-02   2.6158E-02   6.6856E-03  0.0219
   2.6158E-02   2.6795E-02   6.3540E-03  0.0222
   2.6795E-02   2.7447E-02   6.5221E-03  0.0217
   2.7447E-02   2.8114E-02   6.5619E-03  0.0214
   2.8114E-02   2.8799E-02   6.7773E-03  0.0208
   2.8799E-02   2.9499E-02   6.6506E-03  0.0207
   2.9499E-02   3.0217E-02   6.8075E-03  0.0202
   3.0217E-02   3.0952E-02   6.4445E-03  0.0205
   3.0952E-02   3.1705E-02   6.4401E-03  0.0203
   3.1705E-02   3.2477E-02   6.5270E-03  0.0199
   3.2477E-02   3.3267E-02   6.4491E-03  0.0198
   3.3267E-02   3.4076E-02   6.2441E-03  0.0199
   3.4076E-02   3.4905E-02   6.2911E-03  0.0196
   3.4905E-02   3.5755E-02   6.4172E-03  0.0192
   3.5755E-02   3.6625E-02   6.3959E-03  0.0190
   3.6625E-02   3.7516E-02   6.2686E-03  0.0189
   3.7516E-02   3.8428E-02   6.5097E-03  0.0183
   3.8428E-02   3.9363E-02   6.5369E-03  0.0181
   3.9363E-02   4.0321E-02   6.5947E-03  0.0178
   4.0321E-02   4.1302E-02   6.4176E-03  0.0178
   4.1302E-02   4.2307E-02   6.5080E-03  0.0175
   4.2307E-02   4.3337E-02   6.1980E-03  0.0177
   4.3337E-02   4.4391E-02   6.2423E-03  0.0174
   4.4391E-02   4.5471E-02   6.3829E-03  0.0170
   4.5471E-02   4.6577E-02   6.3235E-03  0.0169
   4.6577E-02   4.7711E-02   6.4380E-03  0.0166
   4.7711E-02   4.8871E-02   6.3747E-03  0.0164
   4.8871E-02   5.0061E-02   6.3494E-03  0.0163
   5.0061E-02   5.1279E-02   6.3374E-03  0.0161
   5.1279E-02   5.2526E-02   6.2646E-03  0.0160
   5.2526E-02   5.3804E-02   6.3145E-03  0.0158
   5.3804E-02   5.5113E-02   6.1569E-03  0.0158
   5.5113E-02   5.6454E-02   6.1911E-03  0.0155
   5.6454E-02   5.7828E-02   6.2086E-03  0.0153
   5.7828E-02   5.9235E-02   6.2573E-03  0.0151
   5.9235E-02   6.0676E-02   6.0990E-03  0.0151
   6.0676E-02   6.2152E-02   5.8931E-03  0.0152
   6.2152E-02   6.3665E-02   6.1982E-03  0.0146
   6.3665E-02   6.5214E-02   6.1872E-03  0.0145
   6.5214E-02   6.6800E-02   6.0919E-03  0.0144
   6.6800E-02   6.8426E-02   6.0087E-03  0.0143
   6.8426E-02   7.0090E-02   6.1087E-03  0.0140
   7.0090E-02   7.1796E-02   6.0644E-03  0.0139
   7.1796E-02   7.3543E-02   5.8660E-03  0.0140
   7.3543E-02   7.5332E-02   6.0329E-03  0.0136
   7.5332E-02   7.7165E-02   5.9665E-03  0.0135
   7.7165E-02   7.9042E-02   5.8951E-03  0.0134
   7.9042E-02   8.0965E-02   5.9246E-03  0.0132
   8.0965E-02   8.2935E-02   5.8255E-03  0.0132
   8.2935E-02   8.4953E-02   5.8353E-03  0.0130
   8.4953E-02   8.7020E-02   5.7862E-03  0.0129
   8.7020E-02   8.9138E-02   5.9076E-03  0.0126
   8.9138E-02   9.1306E-02   5.7876E-03  0.0126
   9.1306E-02   9.3528E-02   5.6537E-03  0.0126
   9.3528E-02   9.5804E-02   5.7646E-03  0.0124
   9.5804E-02   9.8134E-02   5.7701E-03  0.0122
   9.8134E-02   1.0052E-01   5.6481E-03  0.0122
   1.0052E-01   1.0297E-01   5.6653E-03  0.0120
   1.0297E-01   1.0547E-01   5.6009E-03  0.0119
   1.0547E-01   1.0804E-01   5.5895E-03  0.0118
   1.0804E-01   1.1067E-01   5.6233E-03  0.0116
   1.1067E-01   1.1336E-01   5.5529E-03  0.0116
   1.1336E-01   1.1612E-01   5.4580E-03  0.0115
   1.1612E-01   1.1894E-01   5.5234E-03  0.0113
   1.1894E-01   1.2184E-01   5.5397E-03  0.0112
   1.2184E-01   1.2480E-01   5.5856E-03  0.0110
   1.2480E-01   1.2784E-01   5.4305E-03  0.0110
   1.2784E-01   1.3095E-01   5.4436E-03  0.0109
   1.3095E-01   1.3414E-01   5.4731E-03  0.0107
   1.3414E-01   1.3740E-01   5.3272E-03  0.0107
   1.3740E-01   1.4074E-01   5.2880E-03  0.0106
   1.4074E-01   1.4417E-01   5.3102E-03  0.0105
   1.4417E-01   1.4767E-01   5.2314E-03  0.0104
   1.4767E-01   1.5127E-01   5.0993E-03  0.0104
   1.5127E-01   1.5495E-01   5.2858E-03  0.0101
   1.5495E-01   1.5872E-01   5.1289E-03  0.0102
   1.5872E-01   1.6258E-01   5.1013E-03  0.0101
   1.6258E-01   1.6654E-01   5.1652E-03  0.0099
   1.6654E-01   1.7059E-01   5.0573E-03  0.0099
   1.7059E-01   1.7474E-01   5.0018E-03  0.0098
   1.7474E-01   1.7899E-01   4.9549E-03  0.0097
   1.7899E-01   1.8334E-01   4.8028E-03  0.0098
   1.8334E-01   1.8781E-01   4.9194E-03  0.0095
   1.8781E-01   1.9237E-01   4.8141E-03  0.0095
   1.9237E-01   1.9706E-01   4.7908E-03  0.0094
   1.9706E-01   2.0185E-01   4.7763E-03  0.0093
   2.0185E-01   2.0676E-01   4.7345E-03  0.0093
   2.0676E-01   2.1179E-01   4.7270E-03  0.0092
   2.1179E-01   2.1694E-01   4.7649E-03  0.0090
   2.1694E-01   2.2222E-01   4.7035E-03  0.0090
   2.2222E-01   2.2763E-01   4.6152E-03  0.0090
   2.2763E-01   2.3317E-01   4.5457E-03  0.0089
   2.3317E-01   2.3884E-01   4.4793E-03  0.0089
   2.3884E-01   2.4465E-01   4.5213E-03  0.0087
   2.4465E-01   2.5061E-01   4.4186E-03  0.0087
   2.5061E-01   2.5670E-01   4.3915E-03  0.0086
   2.5670E-01   2.6295E-01   4.4030E-03  0.0085
   2.6295E-01   2.6935E-01   4.4189E-03  0.0084
   2.6935E-01   2.7590E-01   4.2877E-03  0.0084
   2.7590E-01   2.8261E-01   4.3007E-03  0.0083
   2.8261E-01   2.8949E-01   4.1878E-03  0.0083
   2.8949E-01   2.9653E-01   4.1159E-03  0.0083
   2.9653E-01   3.0375E-01   4.1112E-03  0.0082
   3.0375E-01   3.1114E-01   4.0601E-03  0.0082
   3.1114E-01   3.1871E-01   4.0731E-03  0.0081
   3.1871E-01   3.2646E-01   4.0013E-03  0.0080
   3.2646E-01   3.3441E-01   3.9227E-03  0.0080
   3.3441E-01   3.4254E-01   3.8383E-03  0.0080
   3.4254E-01   3.5088E-01   3.8365E-03  0.0079
   3.5088E-01   3.5941E-01   3.7924E-03  0.0079
   3.5941E-01   3.6816E-01   3.7403E-03  0.0078
   3.6816E-01   3.7712E-01   3.6851E-03  0.0078
   3.7712E-01   3.8629E-01   3.6325E-03  0.0077
   3.8629E-01   3.9569E-01   3.5690E-03  0.0077
   3.9569E-01   4.0532E-01   3.5559E-03  0.0076
   4.0532E-01   4.1518E-01   3.4655E-03  0.0077
   4.1518E-01   4.2528E-01   3.3699E-03  0.0077
   4.2528E-01   4.3563E-01   3.3980E-03  0.0075
   4.3563E-01   4.4623E-01   3.2759E-03  0.0076
   4.4623E-01   4.5708E-01   3.2497E-03  0.0075
   4.5708E-01   4.6821E-01   3.1772E-03  0.0075
   4.6821E-01   4.7960E-01   3.1691E-03  0.0074
   4.7960E-01   4.9127E-01   3.0729E-03  0.0075
   4.9127E-01   5.0322E-01   3.0200E-03  0.0074
   5.0322E-01   5.1546E-01   2.9883E-03  0.0074
   5.1546E-01   5.2800E-01   2.9433E-03  0.0074
   5.2800E-01   5.4085E-01   2.8393E-03  0.0074
   5.4085E-01   5.5401E-01   2.8091E-03  0.0074
   5.5401E-01   5.6749E-01   2.7178E-03  0.0074
   5.6749E-01   5.8130E-01   2.6835E-03  0.0074
   5.8130E-01   5.9544E-01   2.6408E-03  0.0073
   5.9544E-01   6.0993E-01   2.5782E-03  0.0073
   6.0993E-01   6.2477E-01   2.4999E-03  0.0074
   6.2477E-01   6.3997E-01   2.4772E-03  0.0073
   6.3997E-01   6.5554E-01   2.3817E-03  0.0073
   6.5554E-01   6.7149E-01   2.3005E-03  0.0074
   6.7149E-01   6.8783E-01   2.2519E-03  0.0074
   6.8783E-01   7.0456E-01   2.2184E-03  0.0073
   7.0456E-01   7.2171E-01   2.1246E-03  0.0074
   7.2171E-01   7.3927E-01   2.0677E-03  0.0074
   7.3927E-01   7.5725E-01   2.0390E-03  0.0074
   7.5725E-01   7.7568E-01   1.9599E-03  0.0075
   7.7568E-01   7.9455E-01   1.8992E-03  0.0075
   7.9455E-01   8.1388E-01   1.8476E-03  0.0075
   8.1388E-01   8.3368E-01   1.7349E-03  0.0076
   8.3368E-01   8.5397E-01   1.6773E-03  0.0077
   8.5397E-01   8.7475E-01   1.6162E-03  0.0077
   8.7475E-01   8.9603E-01   1.5804E-03  0.0077
   8.9603E-01   9.1783E-01   1.5184E-03  0.0078
   9.1783E-01   9.4016E-01   1.4368E-03  0.0079
   9.4016E-01   9.6304E-01   1.3660E-03  0.0080
   9.6304E-01   9.8647E-01   1.3064E-03  0.0081
   9.8647E-01   1.0105E+00   1.2258E-03  0.0082
   1.0105E+00   1.0351E+00   1.2096E-03  0.0082
   1.0351E+00   1.0602E+00   1.2358E-03  0.0080
   1.0602E+00   1.0860E+00   1.2277E-03  0.0080
   1.0860E+00   1.1125E+00   1.2376E-03  0.0078
   1.1125E+00   1.1395E+00   1.2461E-03  0.0077
   1.1395E+00   1.1673E+00   1.2598E-03  0.0076
   1.1673E+00   1.1957E+00   1.2765E-03  0.0074
   1.1957E+00   1.2247E+00   1.2966E-03  0.0073
   1.2247E+00   1.2545E+00   1.2936E-03  0.0072
   1.2545E+00   1.2851E+00   1.2887E-03  0.0071
   1.2851E+00   1.3163E+00   1.2792E-03  0.0071
   1.3163E+00   1.3484E+00   1.2836E-03  0.0070
   1.3484E+00   1.3812E+00   1.2955E-03  0.0069
   1.3812E+00   1.4148E+00   1.2865E-03  0.0068
   1.4148E+00   1.4492E+00   1.2651E-03  0.0068
   1.4492E+00   1.4845E+00   1.2455E-03  0.0068
   1.4845E+00   1.5206E+00   1.2433E-03  0.0067
   1.5206E+00   1.5576E+00   1.1964E-03  0.0067
   1.5576E+00   1.5955E+00   1.1923E-03  0.0067
   1.5955E+00   1.6343E+00   1.1824E-03  0.0066
   1.6343E+00   1.6741E+00   1.1752E-03  0.0066
   1.6741E+00   1.7148E+00   1.1775E-03  0.0065
   1.7148E+00   1.7565E+00   1.1607E-03  0.0064
   1.7565E+00   1.7992E+00   1.1276E-03  0.0064
   1.7992E+00   1.8430E+00   1.1067E-03  0.0064
   1.8430E+00   1.8879E+00   1.0698E-03  0.0065
   1.8879E+00   1.9338E+00   1.0422E-03  0.0065
   1.9338E+00   1.9808E+00   1.0287E-03  0.0064
   1.9808E+00   2.0290E+00   1.0234E-03  0.0064
   2.0290E+00   2.0784E+00   9.8639E-04  0.0064
   2.0784E+00   2.1290E+00   9.5113E-04  0.0065
   2.1290E+00   2.1808E+00   9.2445E-04  0.0065
   2.1808E+00   2.2338E+00   8.9408E-04  0.0065
   2.2338E+00   2.2882E+00   8.6357E-04  0.0065
   2.2882E+00   2.3439E+00   8.4213E-04  0.0065
   2.3439E+00   2.4009E+00   8.2030E-04  0.0065
   2.4009E+00   2.4593E+00   7.9994E-04  0.0066
   2.4593E+00   2.5191E+00   7.7324E-04  0.0066
   2.5191E+00   2.5804E+00   7.3860E-04  0.0067
   2.5804E+00   2.6432E+00   7.0129E-04  0.0067
   2.6432E+00   2.7075E+00   6.7527E-04  0.0068
   2.7075E+00   2.7734E+00   6.4588E-04  0.0069
   2.7734E+00   2.8409E+00   6.1717E-04  0.0069
   2.8409E+00   2.9100E+00   5.9710E-04  0.0070
   2.9100E+00   2.9808E+00   5.7971E-04  0.0070
   2.9808E+00   3.0533E+00   5.5153E-04  0.0071
   3.0533E+00   3.1276E+00   5.3157E-04  0.0071
   3.1276E+00   3.2037E+00   5.0441E-04  0.0072
   3.2037E+00   3.2817E+00   4.7487E-04  0.0074
   3.2817E+00   3.3615E+00   4.5483E-04  0.0074
   3.3615E+00   3.4433E+00   4.2703E-04  0.0076
   3.4433E+00   3.5271E+00   4.0863E-04  0.0077
   3.5271E+00   3.6129E+00   3.9082E-04  0.0077
   3.6129E+00   3.7008E+00   3.7422E-04  0.0078
   3.7008E+00   3.7908E+00   3.5154E-04  0.0080
   3.7908E+00   3.8831E+00   3.3675E-04  0.0080
   3.8831E+00   3.9776E+00   3.1683E-04  0.0082
   3.9776E+00   4.0743E+00   3.0280E-04  0.0083
   4.0743E+00   4.1735E+00   2.8324E-04  0.0084
   4.1735E+00   4.2750E+00   2.6889E-04  0.0086
   4.2750E+00   4.3790E+00   2.5662E-04  0.0087
   4.3790E+00   4.4856E+00   2.3761E-04  0.0089
   4.4856E+00   4.5947E+00   2.2529E-04  0.0090
   4.5947E+00   4.7065E+00   2.1370E-04  0.0092
   4.7065E+00   4.8210E+00   2.0050E-04  0.0093
   4.8210E+00   4.9383E+00   1.8934E-04  0.0095
   4.9383E+00   5.0585E+00   1.8049E-04  0.0096
   5.0585E+00   5.1815E+00   1.7139E-04  0.0097
   5.1815E+00   5.3076E+00   1.5926E-04  0.0100
   5.3076E+00   5.4368E+00   1.5012E-04  0.0102
   5.4368E+00   5.5690E+00   1.3934E-04  0.0104
   5.5690E+00   5.7045E+00   1.3050E-04  0.0106
   5.7045E+00   5.8433E+00   1.2429E-04  0.0108
   5.8433E+00   5.9855E+00   1.1880E-04  0.0109
   5.9855E+00   6.1311E+00   1.1098E-04  0.0111
   6.1311E+00   6.2803E+00   1.0828E-04  0.0111
   6.2803E+00   6.4331E+00   9.9833E-05  0.0115
   6.4331E+00   6.5896E+00   9.4561E-05  0.0116
   6.5896E+00   6.7500E+00   9.0188E-05  0.0118
   6.7500E+00   6.9142E+00   8.3096E-05  0.0121
   6.9142E+00   7.0824E+00   7.8085E-05  0.0123
   7.0824E+00   7.2548E+00   7.5667E-05  0.0124
   7.2548E+00   7.4313E+00   7.2108E-05  0.0125
   7.4313E+00   7.6121E+00   6.8299E-05  0.0127
   7.6121E+00   7.7973E+00   6.3108E-05  0.0131
   7.7973E+00   7.9870E+00   6.0380E-05  0.0132
   7.9870E+00   8.1813E+00   5.6605E-05  0.0135
   8.1813E+00   8.3804E+00   5.4411E-05  0.0136
   8.3804E+00   8.5843E+00   5.2457E-05  0.0137
   8.5843E+00   8.7931E+00   4.9075E-05  0.0140
   8.7931E+00   9.0071E+00   4.6671E-05  0.0141
   9.0071E+00   9.2262E+00   4.4289E-05  0.0143
   9.2262E+00   9.4507E+00   4.3941E-05  0.0142
   9.4507E+00   9.6807E+00   4.0306E-05  0.0147
   9.6807E+00   9.9162E+00   3.8983E-05  0.0148
   9.9162E+00   1.0157E+01   3.7149E-05  0.0149
   1.0157E+01   1.0405E+01   3.4232E-05  0.0154
   1.0405E+01   1.0658E+01   3.4260E-05  0.0152
   1.0658E+01   1.0917E+01   3.1803E-05  0.0156
   1.0917E+01   1.1183E+01   3.0687E-05  0.0156
   1.1183E+01   1.1455E+01   2.8322E-05  0.0161
   1.1455E+01   1.1733E+01   2.7972E-05  0.0160
   1.1733E+01   1.2019E+01   2.7000E-05  0.0161
   1.2019E+01   1.2311E+01   2.4727E-05  0.0166
   1.2311E+01   1.2611E+01   2.3582E-05  0.0168
   1.2611E+01   1.2918E+01   2.2546E-05  0.0170
   1.2918E+01   1.3232E+01   2.1009E-05  0.0174
   1.3232E+01   1.3554E+01   2.0320E-05  0.0175
   1.3554E+01   1.3884E+01   1.8994E-05  0.0178
   1.3884E+01   1.4222E+01   1.7883E-05  0.0182
   1.4222E+01   1.4568E+01   1.7094E-05  0.0184
   1.4568E+01   1.4922E+01   1.5684E-05  0.0190
   1.4922E+01   1.5285E+01   1.4692E-05  0.0193
   1.5285E+01   1.5657E+01   1.4243E-05  0.0194
   1.5657E+01   1.6038E+01   1.2847E-05  0.0202
   1.6038E+01   1.6428E+01   1.1934E-05  0.0207
   1.6428E+01   1.6828E+01   1.0995E-05  0.0213
   1.6828E+01   1.7237E+01   1.0578E-05  0.0215
   1.7237E+01   1.7657E+01   1.0062E-05  0.0218
   1.7657E+01   1.8086E+01   9.3808E-06  0.0223
   1.8086E+01   1.8526E+01   8.7557E-06  0.0228
   1.8526E+01   1.8977E+01   7.9909E-06  0.0236
   1.8977E+01   1.9439E+01   7.2358E-06  0.0245
   1.9439E+01   1.9912E+01   6.7933E-06  0.0249
   1.9912E+01   2.0396E+01   4.3016E-06  0.0310
   2.0396E+01   2.0893E+01   4.3364E-06  0.0305
   2.0893E+01   2.1401E+01   3.7377E-06  0.0324
   2.1401E+01   2.1922E+01   3.4300E-06  0.0335
   2.1922E+01   2.2455E+01   3.4048E-06  0.0332
   2.2455E+01   2.3001E+01   3.2250E-06  0.0337
   2.3001E+01   2.3561E+01   2.9769E-06  0.0346
   2.3561E+01   2.4134E+01   2.8434E-06  0.0350
   2.4134E+01   2.4721E+01   2.4727E-06  0.0371
   2.4721E+01   2.5323E+01   2.2810E-06  0.0382
   2.5323E+01   2.5939E+01   2.1359E-06  0.0390
   2.5939E+01   2.6570E+01   2.0440E-06  0.0394
   2.6570E+01   2.7217E+01   1.7851E-06  0.0416
   2.7217E+01   2.7879E+01   1.6158E-06  0.0432
   2.7879E+01   2.8557E+01   1.4300E-06  0.0454
   2.8557E+01   2.9252E+01   1.4795E-06  0.0441
   2.9252E+01   2.9964E+01   1.3741E-06  0.0452
   2.9964E+01   3.0693E+01   1.1220E-06  0.0494
   3.0693E+01   3.1440E+01   9.6146E-07  0.0528
   3.1440E+01   3.2205E+01   7.8698E-07  0.0576
   3.2205E+01   3.2988E+01   8.3720E-07  0.0552
   3.2988E+01   3.3791E+01   6.9522E-07  0.0599
   3.3791E+01   3.4613E+01   6.3492E-07  0.0619
   3.4613E+01   3.5455E+01   5.7471E-07  0.0643
   3.5455E+01   3.6318E+01   4.8919E-07  0.0688
   3.6318E+01   3.7201E+01   3.8025E-07  0.0772
   3.7201E+01   3.8106E+01   4.0657E-07  0.0737
   3.8106E+01   3.9034E+01   3.2788E-07  0.0811
   3.9034E+01   3.9983E+01   2.8429E-07  0.0861
   3.9983E+01   4.0956E+01   2.3642E-07  0.0933
   4.0956E+01   4.1953E+01   1.7060E-07  0.1085
   4.1953E+01   4.2973E+01   1.8418E-07  0.1031
   4.2973E+01   4.4019E+01   1.5111E-07  0.1125
   4.4019E+01   4.5090E+01   1.1018E-07  0.1302
   4.5090E+01   4.6187E+01   8.9328E-08  0.1429
   4.6187E+01   4.7311E+01   6.9409E-08  0.1601
   4.7311E+01   4.8462E+01   5.5599E-08  0.1768
   4.8462E+01   4.9641E+01   4.5797E-08  0.1925
   4.9641E+01   5.0849E+01   2.6494E-08  0.2500
   5.0849E+01   5.2086E+01   1.1316E-08  0.3780
   5.2086E+01   5.3353E+01   1.4203E-08  0.3333
   5.3353E+01   5.4651E+01   1.5407E-08  0.3162
   5.4651E+01   5.5981E+01   6.0163E-09  0.5000
   5.5981E+01   5.7343E+01   5.8734E-09  0.5000
   5.7343E+01   5.8738E+01   2.8670E-09  0.7071
   5.8738E+01   6.0168E+01   0.0000E+00  0.0000
   6.0168E+01   6.1632E+01   0.0000E+00  0.0000
   6.1632E+01   6.3131E+01   0.0000E+00  0.0000
   6.3131E+01   6.4667E+01   0.0000E+00  0.0000
   6.4667E+01   6.6240E+01   0.0000E+00  0.0000
   6.6240E+01   6.7852E+01   0.0000E+00  0.0000
   6.7852E+01   6.9503E+01   0.0000E+00  0.0000
   6.9503E+01   7.1194E+01   0.0000E+00  0.0000
   7.1194E+01   7.2926E+01   0.0000E+00  0.0000
   7.2926E+01   7.4701E+01   0.0000E+00  0.0000
   7.4701E+01   7.6518E+01   0.0000E+00  0.0000
   7.6518E+01   7.8380E+01   0.0000E+00  0.0000
   7.8380E+01   8.0287E+01   0.0000E+00  0.0000
   8.0287E+01   8.2240E+01   0.0000E+00  0.0000
   8.2240E+01   8.4241E+01   0.0000E+00  0.0000
   8.4241E+01   8.6291E+01   0.0000E+00  0.0000
   8.6291E+01   8.8391E+01   0.0000E+00  0.0000
   8.8391E+01   9.0541E+01   0.0000E+00  0.0000
   9.0541E+01   9.2744E+01   0.0000E+00  0.0000
   9.2744E+01   9.5001E+01   0.0000E+00  0.0000
   9.5001E+01   9.7312E+01   0.0000E+00  0.0000
   9.7312E+01   9.9680E+01   0.0000E+00  0.0000
   9.9680E+01   1.0211E+02   0.0000E+00  0.0000
   1.0211E+02   1.0459E+02   0.0000E+00  0.0000
   1.0459E+02   1.0713E+02   0.0000E+00  0.0000
   1.0713E+02   1.0974E+02   0.0000E+00  0.0000
   1.0974E+02   1.1241E+02   0.0000E+00  0.0000
   1.1241E+02   1.1515E+02   0.0000E+00  0.0000
   1.1515E+02   1.1795E+02   0.0000E+00  0.0000
   1.1795E+02   1.2082E+02   0.0000E+00  0.0000
   1.2082E+02   1.2376E+02   0.0000E+00  0.0000
   1.2376E+02   1.2677E+02   0.0000E+00  0.0000
   1.2677E+02   1.2985E+02   0.0000E+00  0.0000
   1.2985E+02   1.3301E+02   0.0000E+00  0.0000
   1.3301E+02   1.3625E+02   0.0000E+00  0.0000
   1.3625E+02   1.3956E+02   0.0000E+00  0.0000
   1.3956E+02   1.4296E+02   0.0000E+00  0.0000
   1.4296E+02   1.4644E+02   0.0000E+00  0.0000
   1.4644E+02   1.5000E+02   0.0000E+00  0.0000

#   sum over                 4.3191E-05
'no. =    1   reg = 116 - 216'
msuc: {\huge [t-cross] in region mesh}
msdr: {\it plotted by \ANGEL \version}
msdl: {\it calculated by \PHITS  3.26}
wt: s(0.7)
\vspace{-3}
  region surface crossing
  area  &=&   1.0000E+00 [cm^2]
e:
 
# Information for Restart Calculation
# This calculation was newly started
# istdev =  2 # 1:Batch variance, 2:History variance
# resc2  = 5.00000000000000000E+08 # Total source weight or Total source weight / maxcas
# resc3  = 5.00000000000000000E+08 # Total history number or Total batch number
# maxcas =   500000000 # History / Batch, only used for istdev=1
# bitrseed = 1101101111010011011000101101110001100110110010110001010100010001 # bit data of rseed
