[ T-Cross ]
    title = [t-cross] in region mesh
     mesh =  reg            # mesh type is region-wise
      reg =    1            # number of crossing regions
      non     r-from    r-to       area
      1       100       200        1.000000    
   e-type =    3            # e-mesh is log given by emin, emax and ne
     emin =  1.0000000E-02  # minimum value of e-mesh points
     emax =   150.0000      # maximum value of e-mesh points
#    edel =  2.4039514E-02  # mesh width of e-mesh points
       ne =    400          # number of e-mesh points
#    data = ( e(i), i = 1, ne + 1 )
#           1.00000E-02  1.02433E-02  1.04925E-02  1.07478E-02  1.10093E-02
#           1.12772E-02  1.15516E-02  1.18326E-02  1.21205E-02  1.24154E-02
#           1.27175E-02  1.30269E-02  1.33439E-02  1.36686E-02  1.40011E-02
#           1.43418E-02  1.46907E-02  1.50482E-02  1.54143E-02  1.57894E-02
#           1.61735E-02  1.65670E-02  1.69701E-02  1.73830E-02  1.78060E-02
#           1.82392E-02  1.86830E-02  1.91375E-02  1.96032E-02  2.00801E-02
#           2.05687E-02  2.10692E-02  2.15818E-02  2.21069E-02  2.26448E-02
#           2.31957E-02  2.37601E-02  2.43382E-02  2.49304E-02  2.55369E-02
#           2.61583E-02  2.67947E-02  2.74467E-02  2.81145E-02  2.87985E-02
#           2.94992E-02  3.02169E-02  3.09521E-02  3.17052E-02  3.24766E-02
#           3.32668E-02  3.40762E-02  3.49053E-02  3.57546E-02  3.66246E-02
#           3.75157E-02  3.84284E-02  3.93634E-02  4.03212E-02  4.13022E-02
#           4.23071E-02  4.33365E-02  4.43909E-02  4.54710E-02  4.65773E-02
#           4.77106E-02  4.88714E-02  5.00605E-02  5.12785E-02  5.25262E-02
#           5.38042E-02  5.51133E-02  5.64542E-02  5.78278E-02  5.92348E-02
#           6.06760E-02  6.21523E-02  6.36645E-02  6.52135E-02  6.68002E-02
#           6.84255E-02  7.00904E-02  7.17957E-02  7.35426E-02  7.53319E-02
#           7.71648E-02  7.90423E-02  8.09655E-02  8.29354E-02  8.49533E-02
#           8.70203E-02  8.91376E-02  9.13064E-02  9.35279E-02  9.58035E-02
#           9.81345E-02  1.00522E-01  1.02968E-01  1.05473E-01  1.08040E-01
#           1.10668E-01  1.13361E-01  1.16119E-01  1.18944E-01  1.21838E-01
#           1.24803E-01  1.27839E-01  1.30950E-01  1.34136E-01  1.37399E-01
#           1.40742E-01  1.44167E-01  1.47675E-01  1.51268E-01  1.54948E-01
#           1.58718E-01  1.62580E-01  1.66535E-01  1.70587E-01  1.74738E-01
#           1.78989E-01  1.83344E-01  1.87805E-01  1.92375E-01  1.97055E-01
#           2.01850E-01  2.06761E-01  2.11792E-01  2.16945E-01  2.22223E-01
#           2.27630E-01  2.33169E-01  2.38842E-01  2.44653E-01  2.50605E-01
#           2.56703E-01  2.62949E-01  2.69346E-01  2.75900E-01  2.82613E-01
#           2.89489E-01  2.96532E-01  3.03747E-01  3.11138E-01  3.18708E-01
#           3.26462E-01  3.34405E-01  3.42542E-01  3.50876E-01  3.59413E-01
#           3.68158E-01  3.77116E-01  3.86291E-01  3.95690E-01  4.05317E-01
#           4.15179E-01  4.25281E-01  4.35628E-01  4.46227E-01  4.57084E-01
#           4.68205E-01  4.79597E-01  4.91266E-01  5.03219E-01  5.15463E-01
#           5.28005E-01  5.40851E-01  5.54011E-01  5.67490E-01  5.81298E-01
#           5.95441E-01  6.09929E-01  6.24769E-01  6.39970E-01  6.55541E-01
#           6.71491E-01  6.87828E-01  7.04564E-01  7.21706E-01  7.39266E-01
#           7.57253E-01  7.75678E-01  7.94551E-01  8.13883E-01  8.33685E-01
#           8.53969E-01  8.74747E-01  8.96030E-01  9.17831E-01  9.40163E-01
#           9.63038E-01  9.86469E-01  1.01047E+00  1.03506E+00  1.06024E+00
#           1.08604E+00  1.11246E+00  1.13953E+00  1.16725E+00  1.19565E+00
#           1.22474E+00  1.25454E+00  1.28507E+00  1.31633E+00  1.34836E+00
#           1.38117E+00  1.41477E+00  1.44920E+00  1.48446E+00  1.52057E+00
#           1.55757E+00  1.59547E+00  1.63429E+00  1.67405E+00  1.71478E+00
#           1.75650E+00  1.79924E+00  1.84302E+00  1.88786E+00  1.93379E+00
#           1.98084E+00  2.02904E+00  2.07841E+00  2.12898E+00  2.18078E+00
#           2.23384E+00  2.28819E+00  2.34386E+00  2.40089E+00  2.45930E+00
#           2.51914E+00  2.58043E+00  2.64322E+00  2.70753E+00  2.77341E+00
#           2.84088E+00  2.91001E+00  2.98081E+00  3.05333E+00  3.12762E+00
#           3.20372E+00  3.28167E+00  3.36152E+00  3.44330E+00  3.52708E+00
#           3.61290E+00  3.70080E+00  3.79085E+00  3.88308E+00  3.97756E+00
#           4.07434E+00  4.17347E+00  4.27501E+00  4.37903E+00  4.48557E+00
#           4.59471E+00  4.70650E+00  4.82102E+00  4.93832E+00  5.05847E+00
#           5.18155E+00  5.30762E+00  5.43676E+00  5.56904E+00  5.70453E+00
#           5.84333E+00  5.98550E+00  6.13114E+00  6.28031E+00  6.43312E+00
#           6.58964E+00  6.74997E+00  6.91420E+00  7.08243E+00  7.25475E+00
#           7.43126E+00  7.61207E+00  7.79728E+00  7.98700E+00  8.18133E+00
#           8.38038E+00  8.58428E+00  8.79315E+00  9.00709E+00  9.22624E+00
#           9.45072E+00  9.68067E+00  9.91620E+00  1.01575E+01  1.04046E+01
#           1.06578E+01  1.09171E+01  1.11827E+01  1.14548E+01  1.17335E+01
#           1.20190E+01  1.23114E+01  1.26109E+01  1.29178E+01  1.32321E+01
#           1.35540E+01  1.38838E+01  1.42216E+01  1.45676E+01  1.49221E+01
#           1.52851E+01  1.56570E+01  1.60380E+01  1.64282E+01  1.68279E+01
#           1.72374E+01  1.76568E+01  1.80864E+01  1.85264E+01  1.89772E+01
#           1.94389E+01  1.99119E+01  2.03963E+01  2.08926E+01  2.14009E+01
#           2.19216E+01  2.24550E+01  2.30014E+01  2.35610E+01  2.41343E+01
#           2.47215E+01  2.53230E+01  2.59391E+01  2.65702E+01  2.72167E+01
#           2.78789E+01  2.85572E+01  2.92520E+01  2.99637E+01  3.06928E+01
#           3.14396E+01  3.22045E+01  3.29881E+01  3.37907E+01  3.46128E+01
#           3.54550E+01  3.63177E+01  3.72013E+01  3.81064E+01  3.90336E+01
#           3.99833E+01  4.09561E+01  4.19526E+01  4.29734E+01  4.40189E+01
#           4.50900E+01  4.61870E+01  4.73108E+01  4.84619E+01  4.96410E+01
#           5.08488E+01  5.20860E+01  5.33533E+01  5.46514E+01  5.59812E+01
#           5.73432E+01  5.87384E+01  6.01676E+01  6.16315E+01  6.31311E+01
#           6.46671E+01  6.62405E+01  6.78522E+01  6.95031E+01  7.11941E+01
#           7.29263E+01  7.47007E+01  7.65182E+01  7.83800E+01  8.02870E+01
#           8.22405E+01  8.42414E+01  8.62911E+01  8.83906E+01  9.05412E+01
#           9.27442E+01  9.50007E+01  9.73122E+01  9.96799E+01  1.02105E+02
#           1.04589E+02  1.07134E+02  1.09741E+02  1.12411E+02  1.15146E+02
#           1.17948E+02  1.20817E+02  1.23757E+02  1.26768E+02  1.29852E+02
#           1.33012E+02  1.36248E+02  1.39563E+02  1.42959E+02  1.46437E+02
#           1.50000E+02
     unit =    2            # unit is [1/cm^2/(MeV/n)/source]
     axis =  eng            # axis of output
     file = detector-01.out  # file name of output for the above axis
   output = f-curr          # surface crossing forward current spectrum
     part =  neutron  
# kf/name :  2112     
#    used :        main (  %)        temp (  %)       total (  %)
#  memory :         414 (  0)           0 (  0)         414 (  0)

#------------------------------------------------------------------------------
#newpage:
#   no. =    1   reg = 100 - 200

x: Energy [MeV/n]
y:  F-Curr [1/cm^2/(MeV/n)/source]         
p: xlog ylog afac(0.8) form(0.9)
h: n            x            y(neutron ),hh0l   n 
#  e-lower      e-upper      neutron     r.err 
   1.0000E-02   1.0243E-02   2.4604E-04  0.0577
   1.0243E-02   1.0493E-02   2.1651E-04  0.0608
   1.0493E-02   1.0748E-02   2.0756E-04  0.0614
   1.0748E-02   1.1009E-02   2.0174E-04  0.0615
   1.1009E-02   1.1277E-02   1.9587E-04  0.0617
   1.1277E-02   1.1552E-02   1.8928E-04  0.0619
   1.1552E-02   1.1833E-02   2.0197E-04  0.0592
   1.1833E-02   1.2121E-02   1.9704E-04  0.0592
   1.2121E-02   1.2415E-02   2.1271E-04  0.0564
   1.2415E-02   1.2718E-02   2.1466E-04  0.0554
   1.2718E-02   1.3027E-02   1.9465E-04  0.0576
   1.3027E-02   1.3344E-02   2.0760E-04  0.0551
   1.3344E-02   1.3669E-02   1.7667E-04  0.0590
   1.3669E-02   1.4001E-02   1.6679E-04  0.0600
   1.4001E-02   1.4342E-02   1.7992E-04  0.0570
   1.4342E-02   1.4691E-02   1.9201E-04  0.0546
   1.4691E-02   1.5048E-02   1.8687E-04  0.0546
   1.5048E-02   1.5414E-02   1.8564E-04  0.0541
   1.5414E-02   1.5789E-02   1.7188E-04  0.0556
   1.5789E-02   1.6174E-02   1.7950E-04  0.0538
   1.6174E-02   1.6567E-02   1.6897E-04  0.0548
   1.6567E-02   1.6970E-02   1.5213E-04  0.0570
   1.6970E-02   1.7383E-02   1.7795E-04  0.0521
   1.7383E-02   1.7806E-02   1.6653E-04  0.0532
   1.7806E-02   1.8239E-02   1.4582E-04  0.0561
   1.8239E-02   1.8683E-02   1.6115E-04  0.0528
   1.8683E-02   1.9138E-02   1.5606E-04  0.0530
   1.9138E-02   1.9603E-02   1.3378E-04  0.0566
   1.9603E-02   2.0080E-02   1.4609E-04  0.0536
   2.0080E-02   2.0569E-02   1.3842E-04  0.0543
   2.0569E-02   2.1069E-02   1.4108E-04  0.0531
   2.1069E-02   2.1582E-02   1.3548E-04  0.0536
   2.1582E-02   2.2107E-02   1.3252E-04  0.0535
   2.2107E-02   2.2645E-02   1.2214E-04  0.0551
   2.2645E-02   2.3196E-02   1.2474E-04  0.0538
   2.3196E-02   2.3760E-02   1.3851E-04  0.0505
   2.3760E-02   2.4338E-02   1.4517E-04  0.0488
   2.4338E-02   2.4930E-02   1.1504E-04  0.0541
   2.4930E-02   2.5537E-02   1.3844E-04  0.0487
   2.5537E-02   2.6158E-02   1.2264E-04  0.0512
   2.6158E-02   2.6795E-02   1.1656E-04  0.0519
   2.6795E-02   2.7447E-02   1.1446E-04  0.0517
   2.7447E-02   2.8114E-02   1.1918E-04  0.0501
   2.8114E-02   2.8799E-02   1.1304E-04  0.0508
   2.8799E-02   2.9499E-02   1.0988E-04  0.0509
   2.9499E-02   3.0217E-02   1.0030E-04  0.0526
   3.0217E-02   3.0952E-02   1.0289E-04  0.0514
   3.0952E-02   3.1705E-02   1.0316E-04  0.0506
   3.1705E-02   3.2477E-02   1.1120E-04  0.0482
   3.2477E-02   3.3267E-02   1.0900E-04  0.0482
   3.3267E-02   3.4076E-02   1.0582E-04  0.0482
   3.4076E-02   3.4905E-02   1.0457E-04  0.0480
   3.4905E-02   3.5755E-02   9.7298E-05  0.0491
   3.5755E-02   3.6625E-02   9.2572E-05  0.0498
   3.6625E-02   3.7516E-02   9.6767E-05  0.0481
   3.7516E-02   3.8428E-02   9.0708E-05  0.0491
   3.8428E-02   3.9363E-02   9.5279E-05  0.0473
   3.9363E-02   4.0321E-02   8.8119E-05  0.0486
   4.0321E-02   4.1302E-02   9.8417E-05  0.0454
   4.1302E-02   4.2307E-02   8.4930E-05  0.0483
   4.2307E-02   4.3337E-02   8.8731E-05  0.0467
   4.3337E-02   4.4391E-02   9.0758E-05  0.0457
   4.4391E-02   4.5471E-02   8.7460E-05  0.0459
   4.5471E-02   4.6577E-02   8.6735E-05  0.0456
   4.6577E-02   4.7711E-02   8.1879E-05  0.0463
   4.7711E-02   4.8871E-02   7.6497E-05  0.0474
   4.8871E-02   5.0061E-02   8.4475E-05  0.0445
   5.0061E-02   5.1279E-02   7.8462E-05  0.0457
   5.1279E-02   5.2526E-02   8.3893E-05  0.0437
   5.2526E-02   5.3804E-02   6.9777E-05  0.0473
   5.3804E-02   5.5113E-02   7.1358E-05  0.0462
   5.5113E-02   5.6454E-02   7.4597E-05  0.0447
   5.6454E-02   5.7828E-02   7.0225E-05  0.0454
   5.7828E-02   5.9235E-02   7.0829E-05  0.0447
   5.9235E-02   6.0676E-02   7.0931E-05  0.0442
   6.0676E-02   6.2152E-02   6.6931E-05  0.0449
   6.2152E-02   6.3665E-02   6.6978E-05  0.0443
   6.3665E-02   6.5214E-02   6.8536E-05  0.0434
   6.5214E-02   6.6800E-02   6.4241E-05  0.0442
   6.6800E-02   6.8426E-02   6.0905E-05  0.0449
   6.8426E-02   7.0090E-02   6.2417E-05  0.0438
   7.0090E-02   7.1796E-02   6.5540E-05  0.0422
   7.1796E-02   7.3543E-02   5.9740E-05  0.0437
   7.3543E-02   7.5332E-02   6.0769E-05  0.0428
   7.5332E-02   7.7165E-02   5.8400E-05  0.0432
   7.7165E-02   7.9042E-02   6.1696E-05  0.0415
   7.9042E-02   8.0965E-02   5.8908E-05  0.0420
   8.0965E-02   8.2935E-02   5.9524E-05  0.0413
   8.2935E-02   8.4953E-02   5.5835E-05  0.0421
   8.4953E-02   8.7020E-02   5.3905E-05  0.0423
   8.7020E-02   8.9138E-02   5.3355E-05  0.0421
   8.9138E-02   9.1306E-02   5.2398E-05  0.0419
   9.1306E-02   9.3528E-02   4.4742E-05  0.0448
   9.3528E-02   9.5804E-02   4.9574E-05  0.0420
   9.5804E-02   9.8134E-02   4.8478E-05  0.0420
   9.8134E-02   1.0052E-01   4.7005E-05  0.0422
   1.0052E-01   1.0297E-01   4.9108E-05  0.0408
   1.0297E-01   1.0547E-01   4.7643E-05  0.0409
   1.0547E-01   1.0804E-01   4.6303E-05  0.0410
   1.0804E-01   1.1067E-01   4.5151E-05  0.0410
   1.1067E-01   1.1336E-01   4.3926E-05  0.0411
   1.1336E-01   1.1612E-01   4.3832E-05  0.0407
   1.1612E-01   1.1894E-01   4.3021E-05  0.0405
   1.1894E-01   1.2184E-01   4.3403E-05  0.0398
   1.2184E-01   1.2480E-01   4.0427E-05  0.0408
   1.2480E-01   1.2784E-01   3.9743E-05  0.0406
   1.2784E-01   1.3095E-01   3.8414E-05  0.0408
   1.3095E-01   1.3414E-01   3.9995E-05  0.0396
   1.3414E-01   1.3740E-01   3.6355E-05  0.0410
   1.3740E-01   1.4074E-01   3.6605E-05  0.0404
   1.4074E-01   1.4417E-01   3.6277E-05  0.0401
   1.4417E-01   1.4767E-01   3.4598E-05  0.0406
   1.4767E-01   1.5127E-01   3.3258E-05  0.0409
   1.5127E-01   1.5495E-01   3.2119E-05  0.0411
   1.5495E-01   1.5872E-01   3.1975E-05  0.0407
   1.5872E-01   1.6258E-01   3.0687E-05  0.0410
   1.6258E-01   1.6654E-01   3.1004E-05  0.0403
   1.6654E-01   1.7059E-01   3.0896E-05  0.0399
   1.7059E-01   1.7474E-01   3.1785E-05  0.0388
   1.7474E-01   1.7899E-01   2.8413E-05  0.0406
   1.7899E-01   1.8334E-01   2.8537E-05  0.0401
   1.8334E-01   1.8781E-01   2.7501E-05  0.0403
   1.8781E-01   1.9237E-01   2.7262E-05  0.0400
   1.9237E-01   1.9706E-01   2.7705E-05  0.0392
   1.9706E-01   2.0185E-01   2.6246E-05  0.0398
   2.0185E-01   2.0676E-01   2.6747E-05  0.0390
   2.0676E-01   2.1179E-01   2.7400E-05  0.0381
   2.1179E-01   2.1694E-01   2.9115E-05  0.0365
   2.1694E-01   2.2222E-01   2.9307E-05  0.0359
   2.2222E-01   2.2763E-01   2.9712E-05  0.0352
   2.2763E-01   2.3317E-01   2.8734E-05  0.0354
   2.3317E-01   2.3884E-01   3.1323E-05  0.0335
   2.3884E-01   2.4465E-01   3.0458E-05  0.0335
   2.4465E-01   2.5061E-01   3.0085E-05  0.0334
   2.5061E-01   2.5670E-01   3.4540E-05  0.0308
   2.5670E-01   2.6295E-01   3.3821E-05  0.0307
   2.6295E-01   2.6935E-01   3.2516E-05  0.0310
   2.6935E-01   2.7590E-01   3.4149E-05  0.0298
   2.7590E-01   2.8261E-01   3.4772E-05  0.0292
   2.8261E-01   2.8949E-01   3.4545E-05  0.0290
   2.8949E-01   2.9653E-01   3.5223E-05  0.0284
   2.9653E-01   3.0375E-01   3.5824E-05  0.0278
   3.0375E-01   3.1114E-01   3.5597E-05  0.0275
   3.1114E-01   3.1871E-01   3.5698E-05  0.0272
   3.1871E-01   3.2646E-01   3.8404E-05  0.0259
   3.2646E-01   3.3441E-01   3.6958E-05  0.0261
   3.3441E-01   3.4254E-01   3.9132E-05  0.0250
   3.4254E-01   3.5088E-01   3.8660E-05  0.0249
   3.5088E-01   3.5941E-01   3.7599E-05  0.0249
   3.5941E-01   3.6816E-01   3.7635E-05  0.0246
   3.6816E-01   3.7712E-01   3.9006E-05  0.0239
   3.7712E-01   3.8629E-01   4.0927E-05  0.0230
   3.8629E-01   3.9569E-01   3.8639E-05  0.0234
   3.9569E-01   4.0532E-01   4.0048E-05  0.0227
   4.0532E-01   4.1518E-01   3.9303E-05  0.0227
   4.1518E-01   4.2528E-01   4.1892E-05  0.0217
   4.2528E-01   4.3563E-01   4.1600E-05  0.0215
   4.3563E-01   4.4623E-01   4.3105E-05  0.0209
   4.4623E-01   4.5708E-01   4.1027E-05  0.0211
   4.5708E-01   4.6821E-01   4.2066E-05  0.0206
   4.6821E-01   4.7960E-01   4.3456E-05  0.0201
   4.7960E-01   4.9127E-01   4.0525E-05  0.0205
   4.9127E-01   5.0322E-01   4.3855E-05  0.0195
   5.0322E-01   5.1546E-01   4.4468E-05  0.0191
   5.1546E-01   5.2800E-01   4.3009E-05  0.0192
   5.2800E-01   5.4085E-01   4.4662E-05  0.0186
   5.4085E-01   5.5401E-01   4.4596E-05  0.0184
   5.5401E-01   5.6749E-01   4.4634E-05  0.0182
   5.6749E-01   5.8130E-01   4.4032E-05  0.0181
   5.8130E-01   5.9544E-01   4.3727E-05  0.0179
   5.9544E-01   6.0993E-01   4.3917E-05  0.0177
   6.0993E-01   6.2477E-01   4.4457E-05  0.0174
   6.2477E-01   6.3997E-01   4.4152E-05  0.0172
   6.3997E-01   6.5554E-01   4.4232E-05  0.0170
   6.5554E-01   6.7149E-01   4.5002E-05  0.0167
   6.7149E-01   6.8783E-01   4.5112E-05  0.0164
   6.8783E-01   7.0456E-01   4.4615E-05  0.0163
   7.0456E-01   7.2171E-01   4.4333E-05  0.0162
   7.2171E-01   7.3927E-01   4.5652E-05  0.0158
   7.3927E-01   7.5725E-01   4.3678E-05  0.0159
   7.5725E-01   7.7568E-01   4.5069E-05  0.0155
   7.7568E-01   7.9455E-01   4.3818E-05  0.0155
   7.9455E-01   8.1388E-01   4.3278E-05  0.0154
   8.1388E-01   8.3368E-01   4.2476E-05  0.0154
   8.3368E-01   8.5397E-01   4.2663E-05  0.0152
   8.5397E-01   8.7475E-01   4.2353E-05  0.0150
   8.7475E-01   8.9603E-01   4.2055E-05  0.0149
   8.9603E-01   9.1783E-01   4.1474E-05  0.0148
   9.1783E-01   9.4016E-01   4.0427E-05  0.0149
   9.4016E-01   9.6304E-01   4.0443E-05  0.0147
   9.6304E-01   9.8647E-01   3.8453E-05  0.0149
   9.8647E-01   1.0105E+00   3.7586E-05  0.0149
   1.0105E+00   1.0351E+00   3.7425E-05  0.0147
   1.0351E+00   1.0602E+00   3.6969E-05  0.0146
   1.0602E+00   1.0860E+00   3.6507E-05  0.0145
   1.0860E+00   1.1125E+00   3.6855E-05  0.0143
   1.1125E+00   1.1395E+00   3.5832E-05  0.0143
   1.1395E+00   1.1673E+00   3.6595E-05  0.0140
   1.1673E+00   1.1957E+00   3.6358E-05  0.0139
   1.1957E+00   1.2247E+00   3.5864E-05  0.0138
   1.2247E+00   1.2545E+00   3.4911E-05  0.0138
   1.2545E+00   1.2851E+00   3.5880E-05  0.0135
   1.2851E+00   1.3163E+00   3.5058E-05  0.0135
   1.3163E+00   1.3484E+00   3.4248E-05  0.0135
   1.3484E+00   1.3812E+00   3.3130E-05  0.0135
   1.3812E+00   1.4148E+00   3.4146E-05  0.0132
   1.4148E+00   1.4492E+00   3.4804E-05  0.0129
   1.4492E+00   1.4845E+00   3.3985E-05  0.0129
   1.4845E+00   1.5206E+00   3.3712E-05  0.0128
   1.5206E+00   1.5576E+00   3.2964E-05  0.0128
   1.5576E+00   1.5955E+00   3.2528E-05  0.0127
   1.5955E+00   1.6343E+00   3.1628E-05  0.0127
   1.6343E+00   1.6741E+00   3.2038E-05  0.0125
   1.6741E+00   1.7148E+00   3.1088E-05  0.0125
   1.7148E+00   1.7565E+00   3.0758E-05  0.0125
   1.7565E+00   1.7992E+00   3.1033E-05  0.0122
   1.7992E+00   1.8430E+00   3.0963E-05  0.0121
   1.8430E+00   1.8879E+00   3.0814E-05  0.0120
   1.8879E+00   1.9338E+00   2.9707E-05  0.0121
   1.9338E+00   1.9808E+00   2.9273E-05  0.0120
   1.9808E+00   2.0290E+00   2.9370E-05  0.0119
   2.0290E+00   2.0784E+00   2.9084E-05  0.0118
   2.0784E+00   2.1290E+00   2.8228E-05  0.0118
   2.1290E+00   2.1808E+00   2.8690E-05  0.0116
   2.1808E+00   2.2338E+00   2.8074E-05  0.0116
   2.2338E+00   2.2882E+00   2.7587E-05  0.0115
   2.2882E+00   2.3439E+00   2.7668E-05  0.0114
   2.3439E+00   2.4009E+00   2.7759E-05  0.0112
   2.4009E+00   2.4593E+00   2.6745E-05  0.0113
   2.4593E+00   2.5191E+00   2.6377E-05  0.0112
   2.5191E+00   2.5804E+00   2.6698E-05  0.0110
   2.5804E+00   2.6432E+00   2.6373E-05  0.0110
   2.6432E+00   2.7075E+00   2.5918E-05  0.0109
   2.7075E+00   2.7734E+00   2.5882E-05  0.0108
   2.7734E+00   2.8409E+00   2.5068E-05  0.0108
   2.8409E+00   2.9100E+00   2.4758E-05  0.0108
   2.9100E+00   2.9808E+00   2.4905E-05  0.0106
   2.9808E+00   3.0533E+00   2.4663E-05  0.0105
   3.0533E+00   3.1276E+00   2.3952E-05  0.0106
   3.1276E+00   3.2037E+00   2.3617E-05  0.0105
   3.2037E+00   3.2817E+00   2.3909E-05  0.0103
   3.2817E+00   3.3615E+00   2.3121E-05  0.0104
   3.3615E+00   3.4433E+00   2.2718E-05  0.0103
   3.4433E+00   3.5271E+00   2.3044E-05  0.0102
   3.5271E+00   3.6129E+00   2.3172E-05  0.0100
   3.6129E+00   3.7008E+00   2.2113E-05  0.0101
   3.7008E+00   3.7908E+00   2.1924E-05  0.0100
   3.7908E+00   3.8831E+00   2.1712E-05  0.0100
   3.8831E+00   3.9776E+00   2.1431E-05  0.0099
   3.9776E+00   4.0743E+00   2.0745E-05  0.0100
   4.0743E+00   4.1735E+00   2.1255E-05  0.0097
   4.1735E+00   4.2750E+00   2.0346E-05  0.0098
   4.2750E+00   4.3790E+00   2.0169E-05  0.0097
   4.3790E+00   4.4856E+00   1.9927E-05  0.0097
   4.4856E+00   4.5947E+00   1.9890E-05  0.0096
   4.5947E+00   4.7065E+00   1.9959E-05  0.0094
   4.7065E+00   4.8210E+00   1.9715E-05  0.0094
   4.8210E+00   4.9383E+00   1.9549E-05  0.0093
   4.9383E+00   5.0585E+00   1.8825E-05  0.0094
   5.0585E+00   5.1815E+00   1.8724E-05  0.0093
   5.1815E+00   5.3076E+00   1.8721E-05  0.0092
   5.3076E+00   5.4368E+00   1.8456E-05  0.0091
   5.4368E+00   5.5690E+00   1.7923E-05  0.0092
   5.5690E+00   5.7045E+00   1.7608E-05  0.0091
   5.7045E+00   5.8433E+00   1.7302E-05  0.0091
   5.8433E+00   5.9855E+00   1.7189E-05  0.0090
   5.9855E+00   6.1311E+00   1.7265E-05  0.0089
   6.1311E+00   6.2803E+00   1.6836E-05  0.0089
   6.2803E+00   6.4331E+00   1.6342E-05  0.0089
   6.4331E+00   6.5896E+00   1.6290E-05  0.0088
   6.5896E+00   6.7500E+00   1.5813E-05  0.0089
   6.7500E+00   6.9142E+00   1.5786E-05  0.0088
   6.9142E+00   7.0824E+00   1.5349E-05  0.0088
   7.0824E+00   7.2548E+00   1.5470E-05  0.0086
   7.2548E+00   7.4313E+00   1.5076E-05  0.0087
   7.4313E+00   7.6121E+00   1.5164E-05  0.0085
   7.6121E+00   7.7973E+00   1.4771E-05  0.0085
   7.7973E+00   7.9870E+00   1.4395E-05  0.0085
   7.9870E+00   8.1813E+00   1.4242E-05  0.0085
   8.1813E+00   8.3804E+00   1.4094E-05  0.0084
   8.3804E+00   8.5843E+00   1.4096E-05  0.0083
   8.5843E+00   8.7931E+00   1.3766E-05  0.0083
   8.7931E+00   9.0071E+00   1.3570E-05  0.0083
   9.0071E+00   9.2262E+00   1.3475E-05  0.0082
   9.2262E+00   9.4507E+00   1.3197E-05  0.0082
   9.4507E+00   9.6807E+00   1.3142E-05  0.0081
   9.6807E+00   9.9162E+00   1.3028E-05  0.0081
   9.9162E+00   1.0157E+01   1.2936E-05  0.0080
   1.0157E+01   1.0405E+01   1.2752E-05  0.0080
   1.0405E+01   1.0658E+01   1.2932E-05  0.0078
   1.0658E+01   1.0917E+01   1.2922E-05  0.0077
   1.0917E+01   1.1183E+01   1.3007E-05  0.0076
   1.1183E+01   1.1455E+01   1.2796E-05  0.0076
   1.1455E+01   1.1733E+01   1.2915E-05  0.0075
   1.1733E+01   1.2019E+01   1.2819E-05  0.0074
   1.2019E+01   1.2311E+01   1.2727E-05  0.0073
   1.2311E+01   1.2611E+01   1.2766E-05  0.0072
   1.2611E+01   1.2918E+01   1.2736E-05  0.0072
   1.2918E+01   1.3232E+01   1.2869E-05  0.0070
   1.3232E+01   1.3554E+01   1.2886E-05  0.0069
   1.3554E+01   1.3884E+01   1.3013E-05  0.0068
   1.3884E+01   1.4222E+01   1.3113E-05  0.0067
   1.4222E+01   1.4568E+01   1.3156E-05  0.0066
   1.4568E+01   1.4922E+01   1.3457E-05  0.0065
   1.4922E+01   1.5285E+01   1.3586E-05  0.0064
   1.5285E+01   1.5657E+01   1.4019E-05  0.0062
   1.5657E+01   1.6038E+01   1.4209E-05  0.0061
   1.6038E+01   1.6428E+01   1.4369E-05  0.0060
   1.6428E+01   1.6828E+01   1.4665E-05  0.0058
   1.6828E+01   1.7237E+01   1.5041E-05  0.0057
   1.7237E+01   1.7657E+01   1.5445E-05  0.0056
   1.7657E+01   1.8086E+01   1.6052E-05  0.0054
   1.8086E+01   1.8526E+01   1.6506E-05  0.0052
   1.8526E+01   1.8977E+01   1.6973E-05  0.0051
   1.8977E+01   1.9439E+01   1.7781E-05  0.0049
   1.9439E+01   1.9912E+01   1.8672E-05  0.0048
   1.9912E+01   2.0396E+01   1.9509E-05  0.0046
   2.0396E+01   2.0893E+01   2.0340E-05  0.0045
   2.0893E+01   2.1401E+01   2.1173E-05  0.0043
   2.1401E+01   2.1922E+01   2.2407E-05  0.0041
   2.1922E+01   2.2455E+01   2.3171E-05  0.0040
   2.2455E+01   2.3001E+01   2.4476E-05  0.0039
   2.3001E+01   2.3561E+01   2.5839E-05  0.0037
   2.3561E+01   2.4134E+01   2.7473E-05  0.0036
   2.4134E+01   2.4721E+01   2.8850E-05  0.0034
   2.4721E+01   2.5323E+01   3.0851E-05  0.0033
   2.5323E+01   2.5939E+01   3.2658E-05  0.0032
   2.5939E+01   2.6570E+01   3.4908E-05  0.0030
   2.6570E+01   2.7217E+01   3.7044E-05  0.0029
   2.7217E+01   2.7879E+01   3.9500E-05  0.0028
   2.7879E+01   2.8557E+01   4.2618E-05  0.0026
   2.8557E+01   2.9252E+01   4.5651E-05  0.0025
   2.9252E+01   2.9964E+01   4.8980E-05  0.0024
   2.9964E+01   3.0693E+01   5.2721E-05  0.0023
   3.0693E+01   3.1440E+01   5.6664E-05  0.0022
   3.1440E+01   3.2205E+01   6.1040E-05  0.0021
   3.2205E+01   3.2988E+01   6.6061E-05  0.0020
   3.2988E+01   3.3791E+01   7.1185E-05  0.0019
   3.3791E+01   3.4613E+01   7.6981E-05  0.0018
   3.4613E+01   3.5455E+01   8.3446E-05  0.0017
   3.5455E+01   3.6318E+01   9.0189E-05  0.0016
   3.6318E+01   3.7201E+01   9.7377E-05  0.0015
   3.7201E+01   3.8106E+01   1.0515E-04  0.0014
   3.8106E+01   3.9034E+01   1.1336E-04  0.0014
   3.9034E+01   3.9983E+01   1.2187E-04  0.0013
   3.9983E+01   4.0956E+01   1.3080E-04  0.0013
   4.0956E+01   4.1953E+01   1.3985E-04  0.0012
   4.1953E+01   4.2973E+01   1.4903E-04  0.0011
   4.2973E+01   4.4019E+01   1.5733E-04  0.0011
   4.4019E+01   4.5090E+01   1.6502E-04  0.0011
   4.5090E+01   4.6187E+01   1.7179E-04  0.0010
   4.6187E+01   4.7311E+01   1.7686E-04  0.0010
   4.7311E+01   4.8462E+01   1.8018E-04  0.0010
   4.8462E+01   4.9641E+01   1.8154E-04  0.0010
   4.9641E+01   5.0849E+01   1.8051E-04  0.0010
   5.0849E+01   5.2086E+01   1.7744E-04  0.0010
   5.2086E+01   5.3353E+01   1.7219E-04  0.0010
   5.3353E+01   5.4651E+01   1.6450E-04  0.0010
   5.4651E+01   5.5981E+01   1.5512E-04  0.0010
   5.5981E+01   5.7343E+01   1.4389E-04  0.0010
   5.7343E+01   5.8738E+01   1.3221E-04  0.0010
   5.8738E+01   6.0168E+01   1.1985E-04  0.0011
   6.0168E+01   6.1632E+01   1.0728E-04  0.0011
   6.1632E+01   6.3131E+01   9.5269E-05  0.0012
   6.3131E+01   6.4667E+01   8.3917E-05  0.0012
   6.4667E+01   6.6240E+01   7.3030E-05  0.0013
   6.6240E+01   6.7852E+01   6.3287E-05  0.0014
   6.7852E+01   6.9503E+01   5.4481E-05  0.0015
   6.9503E+01   7.1194E+01   4.6733E-05  0.0016
   7.1194E+01   7.2926E+01   4.0092E-05  0.0017
   7.2926E+01   7.4701E+01   3.4309E-05  0.0018
   7.4701E+01   7.6518E+01   2.9272E-05  0.0019
   7.6518E+01   7.8380E+01   2.4834E-05  0.0021
   7.8380E+01   8.0287E+01   2.1128E-05  0.0022
   8.0287E+01   8.2240E+01   1.8002E-05  0.0024
   8.2240E+01   8.4241E+01   1.5313E-05  0.0026
   8.4241E+01   8.6291E+01   1.3071E-05  0.0027
   8.6291E+01   8.8391E+01   1.1295E-05  0.0029
   8.8391E+01   9.0541E+01   9.8239E-06  0.0031
   9.0541E+01   9.2744E+01   8.4456E-06  0.0033
   9.2744E+01   9.5001E+01   7.3838E-06  0.0035
   9.5001E+01   9.7312E+01   6.6853E-06  0.0036
   9.7312E+01   9.9680E+01   6.2201E-06  0.0037
   9.9680E+01   1.0211E+02   5.6650E-06  0.0038
   1.0211E+02   1.0459E+02   5.0057E-06  0.0040
   1.0459E+02   1.0713E+02   4.3166E-06  0.0043
   1.0713E+02   1.0974E+02   3.6569E-06  0.0046
   1.0974E+02   1.1241E+02   2.9493E-06  0.0050
   1.1241E+02   1.1515E+02   2.3441E-06  0.0056
   1.1515E+02   1.1795E+02   1.8540E-06  0.0062
   1.1795E+02   1.2082E+02   1.2729E-06  0.0074
   1.2082E+02   1.2376E+02   5.5470E-07  0.0111
   1.2376E+02   1.2677E+02   1.0182E-07  0.0255
   1.2677E+02   1.2985E+02   9.0780E-10  0.2673
   1.2985E+02   1.3301E+02   0.0000E+00  0.0000
   1.3301E+02   1.3625E+02   0.0000E+00  0.0000
   1.3625E+02   1.3956E+02   0.0000E+00  0.0000
   1.3956E+02   1.4296E+02   0.0000E+00  0.0000
   1.4296E+02   1.4644E+02   0.0000E+00  0.0000
   1.4644E+02   1.5000E+02   0.0000E+00  0.0000

#   sum over                 4.0615E-05
'no. =    1   reg = 100 - 200'
msuc: {\huge [t-cross] in region mesh}
msdr: {\it plotted by \ANGEL \version}
msdl: {\it calculated by \PHITS  3.28}
wt: s(0.7)
\vspace{-3}
  region surface crossing
  area  &=&   1.0000E+00 [cm^2]
e:
 
# Information for Restart Calculation
# This calculation was newly started
# istdev =  2 # 1:Batch variance, 2:History variance
# resc2  = 5.00000000000000000E+09 # Total source weight or Total source weight / maxcas
# resc3  = 5.00000000000000000E+09 # Total history number or Total batch number
# maxcas =   500000000 # History / Batch, only used for istdev=1
# bitrseed = 0110100000100010111000001110001111001110100100011111101000111001 # bit data of rseed
