[ T-Cross ]
    title = [t-cross] in region mesh
     mesh =  reg            # mesh type is region-wise
      reg =    1            # number of crossing regions
      non     r-from    r-to       area
      1       125       225        1.000000    
   e-type =    3            # e-mesh is log given by emin, emax and ne
     emin =  1.0000000E-02  # minimum value of e-mesh points
     emax =   150.0000      # maximum value of e-mesh points
#    edel =  2.4039514E-02  # mesh width of e-mesh points
       ne =    400          # number of e-mesh points
#    data = ( e(i), i = 1, ne + 1 )
#           1.00000E-02  1.02433E-02  1.04925E-02  1.07478E-02  1.10093E-02
#           1.12772E-02  1.15516E-02  1.18326E-02  1.21205E-02  1.24154E-02
#           1.27175E-02  1.30269E-02  1.33439E-02  1.36686E-02  1.40011E-02
#           1.43418E-02  1.46907E-02  1.50482E-02  1.54143E-02  1.57894E-02
#           1.61735E-02  1.65670E-02  1.69701E-02  1.73830E-02  1.78060E-02
#           1.82392E-02  1.86830E-02  1.91375E-02  1.96032E-02  2.00801E-02
#           2.05687E-02  2.10692E-02  2.15818E-02  2.21069E-02  2.26448E-02
#           2.31957E-02  2.37601E-02  2.43382E-02  2.49304E-02  2.55369E-02
#           2.61583E-02  2.67947E-02  2.74467E-02  2.81145E-02  2.87985E-02
#           2.94992E-02  3.02169E-02  3.09521E-02  3.17052E-02  3.24766E-02
#           3.32668E-02  3.40762E-02  3.49053E-02  3.57546E-02  3.66246E-02
#           3.75157E-02  3.84284E-02  3.93634E-02  4.03212E-02  4.13022E-02
#           4.23071E-02  4.33365E-02  4.43909E-02  4.54710E-02  4.65773E-02
#           4.77106E-02  4.88714E-02  5.00605E-02  5.12785E-02  5.25262E-02
#           5.38042E-02  5.51133E-02  5.64542E-02  5.78278E-02  5.92348E-02
#           6.06760E-02  6.21523E-02  6.36645E-02  6.52135E-02  6.68002E-02
#           6.84255E-02  7.00904E-02  7.17957E-02  7.35426E-02  7.53319E-02
#           7.71648E-02  7.90423E-02  8.09655E-02  8.29354E-02  8.49533E-02
#           8.70203E-02  8.91376E-02  9.13064E-02  9.35279E-02  9.58035E-02
#           9.81345E-02  1.00522E-01  1.02968E-01  1.05473E-01  1.08040E-01
#           1.10668E-01  1.13361E-01  1.16119E-01  1.18944E-01  1.21838E-01
#           1.24803E-01  1.27839E-01  1.30950E-01  1.34136E-01  1.37399E-01
#           1.40742E-01  1.44167E-01  1.47675E-01  1.51268E-01  1.54948E-01
#           1.58718E-01  1.62580E-01  1.66535E-01  1.70587E-01  1.74738E-01
#           1.78989E-01  1.83344E-01  1.87805E-01  1.92375E-01  1.97055E-01
#           2.01850E-01  2.06761E-01  2.11792E-01  2.16945E-01  2.22223E-01
#           2.27630E-01  2.33169E-01  2.38842E-01  2.44653E-01  2.50605E-01
#           2.56703E-01  2.62949E-01  2.69346E-01  2.75900E-01  2.82613E-01
#           2.89489E-01  2.96532E-01  3.03747E-01  3.11138E-01  3.18708E-01
#           3.26462E-01  3.34405E-01  3.42542E-01  3.50876E-01  3.59413E-01
#           3.68158E-01  3.77116E-01  3.86291E-01  3.95690E-01  4.05317E-01
#           4.15179E-01  4.25281E-01  4.35628E-01  4.46227E-01  4.57084E-01
#           4.68205E-01  4.79597E-01  4.91266E-01  5.03219E-01  5.15463E-01
#           5.28005E-01  5.40851E-01  5.54011E-01  5.67490E-01  5.81298E-01
#           5.95441E-01  6.09929E-01  6.24769E-01  6.39970E-01  6.55541E-01
#           6.71491E-01  6.87828E-01  7.04564E-01  7.21706E-01  7.39266E-01
#           7.57253E-01  7.75678E-01  7.94551E-01  8.13883E-01  8.33685E-01
#           8.53969E-01  8.74747E-01  8.96030E-01  9.17831E-01  9.40163E-01
#           9.63038E-01  9.86469E-01  1.01047E+00  1.03506E+00  1.06024E+00
#           1.08604E+00  1.11246E+00  1.13953E+00  1.16725E+00  1.19565E+00
#           1.22474E+00  1.25454E+00  1.28507E+00  1.31633E+00  1.34836E+00
#           1.38117E+00  1.41477E+00  1.44920E+00  1.48446E+00  1.52057E+00
#           1.55757E+00  1.59547E+00  1.63429E+00  1.67405E+00  1.71478E+00
#           1.75650E+00  1.79924E+00  1.84302E+00  1.88786E+00  1.93379E+00
#           1.98084E+00  2.02904E+00  2.07841E+00  2.12898E+00  2.18078E+00
#           2.23384E+00  2.28819E+00  2.34386E+00  2.40089E+00  2.45930E+00
#           2.51914E+00  2.58043E+00  2.64322E+00  2.70753E+00  2.77341E+00
#           2.84088E+00  2.91001E+00  2.98081E+00  3.05333E+00  3.12762E+00
#           3.20372E+00  3.28167E+00  3.36152E+00  3.44330E+00  3.52708E+00
#           3.61290E+00  3.70080E+00  3.79085E+00  3.88308E+00  3.97756E+00
#           4.07434E+00  4.17347E+00  4.27501E+00  4.37903E+00  4.48557E+00
#           4.59471E+00  4.70650E+00  4.82102E+00  4.93832E+00  5.05847E+00
#           5.18155E+00  5.30762E+00  5.43676E+00  5.56904E+00  5.70453E+00
#           5.84333E+00  5.98550E+00  6.13114E+00  6.28031E+00  6.43312E+00
#           6.58964E+00  6.74997E+00  6.91420E+00  7.08243E+00  7.25475E+00
#           7.43126E+00  7.61207E+00  7.79728E+00  7.98700E+00  8.18133E+00
#           8.38038E+00  8.58428E+00  8.79315E+00  9.00709E+00  9.22624E+00
#           9.45072E+00  9.68067E+00  9.91620E+00  1.01575E+01  1.04046E+01
#           1.06578E+01  1.09171E+01  1.11827E+01  1.14548E+01  1.17335E+01
#           1.20190E+01  1.23114E+01  1.26109E+01  1.29178E+01  1.32321E+01
#           1.35540E+01  1.38838E+01  1.42216E+01  1.45676E+01  1.49221E+01
#           1.52851E+01  1.56570E+01  1.60380E+01  1.64282E+01  1.68279E+01
#           1.72374E+01  1.76568E+01  1.80864E+01  1.85264E+01  1.89772E+01
#           1.94389E+01  1.99119E+01  2.03963E+01  2.08926E+01  2.14009E+01
#           2.19216E+01  2.24550E+01  2.30014E+01  2.35610E+01  2.41343E+01
#           2.47215E+01  2.53230E+01  2.59391E+01  2.65702E+01  2.72167E+01
#           2.78789E+01  2.85572E+01  2.92520E+01  2.99637E+01  3.06928E+01
#           3.14396E+01  3.22045E+01  3.29881E+01  3.37907E+01  3.46128E+01
#           3.54550E+01  3.63177E+01  3.72013E+01  3.81064E+01  3.90336E+01
#           3.99833E+01  4.09561E+01  4.19526E+01  4.29734E+01  4.40189E+01
#           4.50900E+01  4.61870E+01  4.73108E+01  4.84619E+01  4.96410E+01
#           5.08488E+01  5.20860E+01  5.33533E+01  5.46514E+01  5.59812E+01
#           5.73432E+01  5.87384E+01  6.01676E+01  6.16315E+01  6.31311E+01
#           6.46671E+01  6.62405E+01  6.78522E+01  6.95031E+01  7.11941E+01
#           7.29263E+01  7.47007E+01  7.65182E+01  7.83800E+01  8.02870E+01
#           8.22405E+01  8.42414E+01  8.62911E+01  8.83906E+01  9.05412E+01
#           9.27442E+01  9.50007E+01  9.73122E+01  9.96799E+01  1.02105E+02
#           1.04589E+02  1.07134E+02  1.09741E+02  1.12411E+02  1.15146E+02
#           1.17948E+02  1.20817E+02  1.23757E+02  1.26768E+02  1.29852E+02
#           1.33012E+02  1.36248E+02  1.39563E+02  1.42959E+02  1.46437E+02
#           1.50000E+02
     unit =    2            # unit is [1/cm^2/(MeV/n)/source]
     axis =  eng            # axis of output
     file = detector-26.out  # file name of output for the above axis
   output = f-curr          # surface crossing forward current spectrum
     part =  neutron  
# kf/name :  2112     
#    used :        main (  %)        temp (  %)       total (  %)
#  memory :         414 (  0)           0 (  0)         414 (  0)

#------------------------------------------------------------------------------
#newpage:
#   no. =    1   reg = 125 - 225

x: Energy [MeV/n]
y:  F-Curr [1/cm^2/(MeV/n)/source]         
p: xlog ylog afac(0.8) form(0.9)
h: n            x            y(neutron ),hh0l   n 
#  e-lower      e-upper      neutron     r.err 
   1.0000E-02   1.0243E-02   4.7429E-04  0.0414
   1.0243E-02   1.0493E-02   4.7835E-04  0.0407
   1.0493E-02   1.0748E-02   4.5531E-04  0.0412
   1.0748E-02   1.1009E-02   4.3542E-04  0.0417
   1.1009E-02   1.1277E-02   4.5416E-04  0.0403
   1.1277E-02   1.1552E-02   4.3999E-04  0.0405
   1.1552E-02   1.1833E-02   4.2128E-04  0.0408
   1.1833E-02   1.2121E-02   4.4258E-04  0.0394
   1.2121E-02   1.2415E-02   4.3213E-04  0.0394
   1.2415E-02   1.2718E-02   3.9935E-04  0.0405
   1.2718E-02   1.3027E-02   4.2425E-04  0.0388
   1.3027E-02   1.3344E-02   4.0136E-04  0.0394
   1.3344E-02   1.3669E-02   3.8683E-04  0.0397
   1.3669E-02   1.4001E-02   3.7308E-04  0.0400
   1.4001E-02   1.4342E-02   3.7729E-04  0.0393
   1.4342E-02   1.4691E-02   3.3797E-04  0.0409
   1.4691E-02   1.5048E-02   3.4685E-04  0.0399
   1.5048E-02   1.5414E-02   3.4623E-04  0.0395
   1.5414E-02   1.5789E-02   3.2716E-04  0.0402
   1.5789E-02   1.6174E-02   3.2296E-04  0.0400
   1.6174E-02   1.6567E-02   3.1902E-04  0.0397
   1.6567E-02   1.6970E-02   3.2396E-04  0.0389
   1.6970E-02   1.7383E-02   3.0363E-04  0.0398
   1.7383E-02   1.7806E-02   2.9561E-04  0.0398
   1.7806E-02   1.8239E-02   2.8981E-04  0.0397
   1.8239E-02   1.8683E-02   2.8528E-04  0.0395
   1.8683E-02   1.9138E-02   3.0230E-04  0.0379
   1.9138E-02   1.9603E-02   2.6770E-04  0.0398
   1.9603E-02   2.0080E-02   2.9280E-04  0.0377
   2.0080E-02   2.0569E-02   2.7997E-04  0.0380
   2.0569E-02   2.1069E-02   2.7010E-04  0.0383
   2.1069E-02   2.1582E-02   2.5354E-04  0.0390
   2.1582E-02   2.2107E-02   2.5236E-04  0.0387
   2.2107E-02   2.2645E-02   2.4408E-04  0.0388
   2.2645E-02   2.3196E-02   2.3860E-04  0.0388
   2.3196E-02   2.3760E-02   2.3766E-04  0.0385
   2.3760E-02   2.4338E-02   2.4846E-04  0.0371
   2.4338E-02   2.4930E-02   2.1373E-04  0.0395
   2.4930E-02   2.5537E-02   2.1985E-04  0.0385
   2.5537E-02   2.6158E-02   2.0546E-04  0.0394
   2.6158E-02   2.6795E-02   2.3125E-04  0.0367
   2.6795E-02   2.7447E-02   2.0753E-04  0.0383
   2.7447E-02   2.8114E-02   1.9067E-04  0.0394
   2.8114E-02   2.8799E-02   1.9446E-04  0.0386
   2.8799E-02   2.9499E-02   1.9645E-04  0.0380
   2.9499E-02   3.0217E-02   1.8075E-04  0.0391
   3.0217E-02   3.0952E-02   1.9232E-04  0.0374
   3.0952E-02   3.1705E-02   1.8032E-04  0.0382
   3.1705E-02   3.2477E-02   1.7226E-04  0.0386
   3.2477E-02   3.3267E-02   1.7927E-04  0.0374
   3.3267E-02   3.4076E-02   1.6632E-04  0.0383
   3.4076E-02   3.4905E-02   1.7014E-04  0.0375
   3.4905E-02   3.5755E-02   1.6408E-04  0.0377
   3.5755E-02   3.6625E-02   1.6635E-04  0.0370
   3.6625E-02   3.7516E-02   1.5826E-04  0.0375
   3.7516E-02   3.8428E-02   1.5838E-04  0.0370
   3.8428E-02   3.9363E-02   1.6489E-04  0.0358
   3.9363E-02   4.0321E-02   1.4481E-04  0.0378
   4.0321E-02   4.1302E-02   1.3752E-04  0.0383
   4.1302E-02   4.2307E-02   1.4133E-04  0.0373
   4.2307E-02   4.3337E-02   1.3663E-04  0.0375
   4.3337E-02   4.4391E-02   1.3209E-04  0.0377
   4.4391E-02   4.5471E-02   1.3651E-04  0.0367
   4.5471E-02   4.6577E-02   1.2833E-04  0.0373
   4.6577E-02   4.7711E-02   1.3667E-04  0.0358
   4.7711E-02   4.8871E-02   1.2242E-04  0.0373
   4.8871E-02   5.0061E-02   1.2591E-04  0.0364
   5.0061E-02   5.1279E-02   1.1604E-04  0.0375
   5.1279E-02   5.2526E-02   1.2039E-04  0.0363
   5.2526E-02   5.3804E-02   1.1953E-04  0.0360
   5.3804E-02   5.5113E-02   1.1412E-04  0.0364
   5.5113E-02   5.6454E-02   1.0455E-04  0.0376
   5.6454E-02   5.7828E-02   1.1138E-04  0.0360
   5.7828E-02   5.9235E-02   1.0825E-04  0.0361
   5.9235E-02   6.0676E-02   1.0816E-04  0.0356
   6.0676E-02   6.2152E-02   9.9142E-05  0.0367
   6.2152E-02   6.3665E-02   9.3095E-05  0.0375
   6.3665E-02   6.5214E-02   9.9860E-05  0.0358
   6.5214E-02   6.6800E-02   9.3271E-05  0.0366
   6.6800E-02   6.8426E-02   9.4093E-05  0.0360
   6.8426E-02   7.0090E-02   8.9047E-05  0.0366
   7.0090E-02   7.1796E-02   8.6493E-05  0.0367
   7.1796E-02   7.3543E-02   9.1665E-05  0.0352
   7.3543E-02   7.5332E-02   8.0009E-05  0.0372
   7.5332E-02   7.7165E-02   8.1074E-05  0.0365
   7.7165E-02   7.9042E-02   8.0703E-05  0.0361
   7.9042E-02   8.0965E-02   7.9931E-05  0.0359
   8.0965E-02   8.2935E-02   7.5905E-05  0.0363
   8.2935E-02   8.4953E-02   7.6913E-05  0.0357
   8.4953E-02   8.7020E-02   7.1352E-05  0.0366
   8.7020E-02   8.9138E-02   7.3731E-05  0.0356
   8.9138E-02   9.1306E-02   6.9885E-05  0.0361
   9.1306E-02   9.3528E-02   6.7697E-05  0.0362
   9.3528E-02   9.5804E-02   7.2442E-05  0.0347
   9.5804E-02   9.8134E-02   6.0114E-05  0.0376
   9.8134E-02   1.0052E-01   6.5495E-05  0.0355
   1.0052E-01   1.0297E-01   6.0846E-05  0.0364
   1.0297E-01   1.0547E-01   6.3098E-05  0.0354
   1.0547E-01   1.0804E-01   5.7991E-05  0.0365
   1.0804E-01   1.1067E-01   6.0338E-05  0.0353
   1.1067E-01   1.1336E-01   5.6568E-05  0.0360
   1.1336E-01   1.1612E-01   5.4280E-05  0.0363
   1.1612E-01   1.1894E-01   5.5632E-05  0.0355
   1.1894E-01   1.2184E-01   5.3575E-05  0.0358
   1.2184E-01   1.2480E-01   5.1757E-05  0.0359
   1.2480E-01   1.2784E-01   4.9119E-05  0.0364
   1.2784E-01   1.3095E-01   5.0099E-05  0.0356
   1.3095E-01   1.3414E-01   5.0020E-05  0.0352
   1.3414E-01   1.3740E-01   5.0528E-05  0.0346
   1.3740E-01   1.4074E-01   4.2982E-05  0.0371
   1.4074E-01   1.4417E-01   4.5406E-05  0.0357
   1.4417E-01   1.4767E-01   4.6041E-05  0.0350
   1.4767E-01   1.5127E-01   4.3033E-05  0.0358
   1.5127E-01   1.5495E-01   4.4036E-05  0.0349
   1.5495E-01   1.5872E-01   4.2546E-05  0.0351
   1.5872E-01   1.6258E-01   3.9058E-05  0.0362
   1.6258E-01   1.6654E-01   3.7916E-05  0.0363
   1.6654E-01   1.7059E-01   3.9202E-05  0.0352
   1.7059E-01   1.7474E-01   3.6774E-05  0.0360
   1.7474E-01   1.7899E-01   3.5997E-05  0.0359
   1.7899E-01   1.8334E-01   3.7585E-05  0.0348
   1.8334E-01   1.8781E-01   3.6300E-05  0.0349
   1.8781E-01   1.9237E-01   3.5300E-05  0.0351
   1.9237E-01   1.9706E-01   3.4360E-05  0.0351
   1.9706E-01   2.0185E-01   3.3407E-05  0.0351
   2.0185E-01   2.0676E-01   3.3517E-05  0.0347
   2.0676E-01   2.1179E-01   3.4451E-05  0.0337
   2.1179E-01   2.1694E-01   3.7015E-05  0.0322
   2.1694E-01   2.2222E-01   3.8456E-05  0.0311
   2.2222E-01   2.2763E-01   4.2631E-05  0.0293
   2.2763E-01   2.3317E-01   4.3385E-05  0.0287
   2.3317E-01   2.3884E-01   4.2390E-05  0.0287
   2.3884E-01   2.4465E-01   4.5606E-05  0.0273
   2.4465E-01   2.5061E-01   4.4437E-05  0.0273
   2.5061E-01   2.5670E-01   4.6195E-05  0.0265
   2.5670E-01   2.6295E-01   4.9108E-05  0.0254
   2.6295E-01   2.6935E-01   4.8913E-05  0.0251
   2.6935E-01   2.7590E-01   4.9439E-05  0.0247
   2.7590E-01   2.8261E-01   5.3589E-05  0.0234
   2.8261E-01   2.8949E-01   5.4543E-05  0.0229
   2.8949E-01   2.9653E-01   5.5788E-05  0.0224
   2.9653E-01   3.0375E-01   5.9761E-05  0.0214
   3.0375E-01   3.1114E-01   6.1688E-05  0.0208
   3.1114E-01   3.1871E-01   6.1678E-05  0.0205
   3.1871E-01   3.2646E-01   6.4451E-05  0.0199
   3.2646E-01   3.3441E-01   6.5852E-05  0.0194
   3.3441E-01   3.4254E-01   6.7130E-05  0.0190
   3.4254E-01   3.5088E-01   6.9385E-05  0.0185
   3.5088E-01   3.5941E-01   6.9747E-05  0.0182
   3.5941E-01   3.6816E-01   7.2896E-05  0.0176
   3.6816E-01   3.7712E-01   7.1855E-05  0.0175
   3.7712E-01   3.8629E-01   7.7078E-05  0.0167
   3.8629E-01   3.9569E-01   7.9200E-05  0.0163
   3.9569E-01   4.0532E-01   7.8428E-05  0.0161
   4.0532E-01   4.1518E-01   8.3097E-05  0.0155
   4.1518E-01   4.2528E-01   8.1589E-05  0.0155
   4.2528E-01   4.3563E-01   8.6128E-05  0.0149
   4.3563E-01   4.4623E-01   8.9664E-05  0.0144
   4.4623E-01   4.5708E-01   8.8727E-05  0.0143
   4.5708E-01   4.6821E-01   9.0192E-05  0.0140
   4.6821E-01   4.7960E-01   9.4597E-05  0.0135
   4.7960E-01   4.9127E-01   9.5721E-05  0.0133
   4.9127E-01   5.0322E-01   9.4815E-05  0.0132
   5.0322E-01   5.1546E-01   9.8632E-05  0.0128
   5.1546E-01   5.2800E-01   1.0035E-04  0.0125
   5.2800E-01   5.4085E-01   1.0144E-04  0.0123
   5.4085E-01   5.5401E-01   1.0264E-04  0.0121
   5.5401E-01   5.6749E-01   1.0530E-04  0.0118
   5.6749E-01   5.8130E-01   1.0482E-04  0.0117
   5.8130E-01   5.9544E-01   1.0706E-04  0.0114
   5.9544E-01   6.0993E-01   1.0878E-04  0.0112
   6.0993E-01   6.2477E-01   1.0778E-04  0.0111
   6.2477E-01   6.3997E-01   1.0837E-04  0.0109
   6.3997E-01   6.5554E-01   1.1198E-04  0.0106
   6.5554E-01   6.7149E-01   1.0976E-04  0.0106
   6.7149E-01   6.8783E-01   1.1221E-04  0.0103
   6.8783E-01   7.0456E-01   1.1435E-04  0.0101
   7.0456E-01   7.2171E-01   1.1228E-04  0.0101
   7.2171E-01   7.3927E-01   1.1396E-04  0.0099
   7.3927E-01   7.5725E-01   1.1476E-04  0.0097
   7.5725E-01   7.7568E-01   1.1693E-04  0.0095
   7.7568E-01   7.9455E-01   1.1471E-04  0.0095
   7.9455E-01   8.1388E-01   1.1538E-04  0.0094
   8.1388E-01   8.3368E-01   1.1699E-04  0.0092
   8.3368E-01   8.5397E-01   1.1671E-04  0.0091
   8.5397E-01   8.7475E-01   1.1782E-04  0.0089
   8.7475E-01   8.9603E-01   1.1680E-04  0.0089
   8.9603E-01   9.1783E-01   1.1556E-04  0.0088
   9.1783E-01   9.4016E-01   1.1666E-04  0.0087
   9.4016E-01   9.6304E-01   1.1407E-04  0.0087
   9.6304E-01   9.8647E-01   1.1396E-04  0.0086
   9.8647E-01   1.0105E+00   1.1544E-04  0.0084
   1.0105E+00   1.0351E+00   1.1240E-04  0.0084
   1.0351E+00   1.0602E+00   1.1361E-04  0.0083
   1.0602E+00   1.0860E+00   1.1139E-04  0.0082
   1.0860E+00   1.1125E+00   1.0738E-04  0.0083
   1.1125E+00   1.1395E+00   1.0768E-04  0.0082
   1.1395E+00   1.1673E+00   1.0491E-04  0.0082
   1.1673E+00   1.1957E+00   1.0615E-04  0.0080
   1.1957E+00   1.2247E+00   1.0588E-04  0.0080
   1.2247E+00   1.2545E+00   1.0293E-04  0.0080
   1.2545E+00   1.2851E+00   1.0161E-04  0.0079
   1.2851E+00   1.3163E+00   1.0047E-04  0.0079
   1.3163E+00   1.3484E+00   9.8310E-05  0.0079
   1.3484E+00   1.3812E+00   9.8208E-05  0.0078
   1.3812E+00   1.4148E+00   9.6765E-05  0.0077
   1.4148E+00   1.4492E+00   9.5415E-05  0.0077
   1.4492E+00   1.4845E+00   9.4381E-05  0.0077
   1.4845E+00   1.5206E+00   9.3956E-05  0.0076
   1.5206E+00   1.5576E+00   9.0854E-05  0.0076
   1.5576E+00   1.5955E+00   8.8640E-05  0.0076
   1.5955E+00   1.6343E+00   8.6865E-05  0.0076
   1.6343E+00   1.6741E+00   8.5072E-05  0.0076
   1.6741E+00   1.7148E+00   8.3349E-05  0.0076
   1.7148E+00   1.7565E+00   7.9244E-05  0.0077
   1.7565E+00   1.7992E+00   7.9450E-05  0.0076
   1.7992E+00   1.8430E+00   7.7576E-05  0.0076
   1.8430E+00   1.8879E+00   7.6371E-05  0.0075
   1.8879E+00   1.9338E+00   7.3718E-05  0.0076
   1.9338E+00   1.9808E+00   7.1586E-05  0.0076
   1.9808E+00   2.0290E+00   7.1275E-05  0.0075
   2.0290E+00   2.0784E+00   6.9144E-05  0.0075
   2.0784E+00   2.1290E+00   6.7456E-05  0.0076
   2.1290E+00   2.1808E+00   6.4782E-05  0.0076
   2.1808E+00   2.2338E+00   6.3861E-05  0.0076
   2.2338E+00   2.2882E+00   6.1760E-05  0.0076
   2.2882E+00   2.3439E+00   6.0022E-05  0.0076
   2.3439E+00   2.4009E+00   5.9427E-05  0.0076
   2.4009E+00   2.4593E+00   5.8303E-05  0.0076
   2.4593E+00   2.5191E+00   5.6010E-05  0.0076
   2.5191E+00   2.5804E+00   5.4477E-05  0.0076
   2.5804E+00   2.6432E+00   5.3038E-05  0.0076
   2.6432E+00   2.7075E+00   5.1074E-05  0.0077
   2.7075E+00   2.7734E+00   4.9174E-05  0.0077
   2.7734E+00   2.8409E+00   4.7977E-05  0.0077
   2.8409E+00   2.9100E+00   4.6607E-05  0.0078
   2.9100E+00   2.9808E+00   4.5567E-05  0.0078
   2.9808E+00   3.0533E+00   4.3539E-05  0.0078
   3.0533E+00   3.1276E+00   4.3159E-05  0.0078
   3.1276E+00   3.2037E+00   4.1758E-05  0.0078
   3.2037E+00   3.2817E+00   4.0306E-05  0.0079
   3.2817E+00   3.3615E+00   3.8840E-05  0.0079
   3.3615E+00   3.4433E+00   3.7810E-05  0.0079
   3.4433E+00   3.5271E+00   3.7740E-05  0.0078
   3.5271E+00   3.6129E+00   3.6245E-05  0.0079
   3.6129E+00   3.7008E+00   3.5655E-05  0.0079
   3.7008E+00   3.7908E+00   3.4085E-05  0.0079
   3.7908E+00   3.8831E+00   3.3381E-05  0.0079
   3.8831E+00   3.9776E+00   3.2290E-05  0.0080
   3.9776E+00   4.0743E+00   3.2420E-05  0.0079
   4.0743E+00   4.1735E+00   3.2010E-05  0.0078
   4.1735E+00   4.2750E+00   3.1278E-05  0.0078
   4.2750E+00   4.3790E+00   3.0476E-05  0.0078
   4.3790E+00   4.4856E+00   3.0422E-05  0.0078
   4.4856E+00   4.5947E+00   2.9910E-05  0.0077
   4.5947E+00   4.7065E+00   2.8901E-05  0.0078
   4.7065E+00   4.8210E+00   2.7837E-05  0.0078
   4.8210E+00   4.9383E+00   2.7474E-05  0.0078
   4.9383E+00   5.0585E+00   2.7199E-05  0.0077
   5.0585E+00   5.1815E+00   2.6550E-05  0.0077
   5.1815E+00   5.3076E+00   2.5321E-05  0.0078
   5.3076E+00   5.4368E+00   2.4765E-05  0.0078
   5.4368E+00   5.5690E+00   2.3459E-05  0.0079
   5.5690E+00   5.7045E+00   2.2500E-05  0.0080
   5.7045E+00   5.8433E+00   2.2306E-05  0.0080
   5.8433E+00   5.9855E+00   2.1662E-05  0.0080
   5.9855E+00   6.1311E+00   2.0683E-05  0.0081
   6.1311E+00   6.2803E+00   1.9757E-05  0.0082
   6.2803E+00   6.4331E+00   1.9027E-05  0.0082
   6.4331E+00   6.5896E+00   1.8117E-05  0.0083
   6.5896E+00   6.7500E+00   1.7597E-05  0.0084
   6.7500E+00   6.9142E+00   1.6786E-05  0.0084
   6.9142E+00   7.0824E+00   1.5996E-05  0.0086
   7.0824E+00   7.2548E+00   1.5923E-05  0.0085
   7.2548E+00   7.4313E+00   1.4846E-05  0.0087
   7.4313E+00   7.6121E+00   1.4163E-05  0.0088
   7.6121E+00   7.7973E+00   1.3598E-05  0.0089
   7.7973E+00   7.9870E+00   1.3315E-05  0.0089
   7.9870E+00   8.1813E+00   1.2616E-05  0.0090
   8.1813E+00   8.3804E+00   1.2005E-05  0.0091
   8.3804E+00   8.5843E+00   1.1504E-05  0.0092
   8.5843E+00   8.7931E+00   1.0877E-05  0.0093
   8.7931E+00   9.0071E+00   1.0441E-05  0.0094
   9.0071E+00   9.2262E+00   1.0193E-05  0.0094
   9.2262E+00   9.4507E+00   9.6283E-06  0.0096
   9.4507E+00   9.6807E+00   9.0672E-06  0.0098
   9.6807E+00   9.9162E+00   8.5595E-06  0.0099
   9.9162E+00   1.0157E+01   8.2228E-06  0.0100
   1.0157E+01   1.0405E+01   7.9434E-06  0.0101
   1.0405E+01   1.0658E+01   7.5755E-06  0.0102
   1.0658E+01   1.0917E+01   7.0463E-06  0.0104
   1.0917E+01   1.1183E+01   6.7863E-06  0.0105
   1.1183E+01   1.1455E+01   6.2926E-06  0.0108
   1.1455E+01   1.1733E+01   6.1314E-06  0.0108
   1.1733E+01   1.2019E+01   5.6906E-06  0.0111
   1.2019E+01   1.2311E+01   5.5092E-06  0.0111
   1.2311E+01   1.2611E+01   5.2289E-06  0.0113
   1.2611E+01   1.2918E+01   4.9650E-06  0.0115
   1.2918E+01   1.3232E+01   4.5399E-06  0.0118
   1.3232E+01   1.3554E+01   4.3170E-06  0.0120
   1.3554E+01   1.3884E+01   3.9306E-06  0.0124
   1.3884E+01   1.4222E+01   3.7138E-06  0.0126
   1.4222E+01   1.4568E+01   3.5108E-06  0.0128
   1.4568E+01   1.4922E+01   3.3374E-06  0.0130
   1.4922E+01   1.5285E+01   3.0270E-06  0.0135
   1.5285E+01   1.5657E+01   2.9610E-06  0.0135
   1.5657E+01   1.6038E+01   2.7550E-06  0.0138
   1.6038E+01   1.6428E+01   2.4946E-06  0.0143
   1.6428E+01   1.6828E+01   2.3362E-06  0.0146
   1.6828E+01   1.7237E+01   2.2403E-06  0.0148
   1.7237E+01   1.7657E+01   2.0871E-06  0.0151
   1.7657E+01   1.8086E+01   1.8962E-06  0.0157
   1.8086E+01   1.8526E+01   1.7534E-06  0.0161
   1.8526E+01   1.8977E+01   1.5853E-06  0.0167
   1.8977E+01   1.9439E+01   1.5153E-06  0.0169
   1.9439E+01   1.9912E+01   1.4408E-06  0.0171
   1.9912E+01   2.0396E+01   1.3194E-06  0.0177
   2.0396E+01   2.0893E+01   1.2232E-06  0.0182
   2.0893E+01   2.1401E+01   1.0953E-06  0.0190
   2.1401E+01   2.1922E+01   1.0213E-06  0.0194
   2.1922E+01   2.2455E+01   9.1756E-07  0.0202
   2.2455E+01   2.3001E+01   8.1633E-07  0.0212
   2.3001E+01   2.3561E+01   7.3440E-07  0.0221
   2.3561E+01   2.4134E+01   6.6916E-07  0.0228
   2.4134E+01   2.4721E+01   5.5517E-07  0.0248
   2.4721E+01   2.5323E+01   5.0308E-07  0.0257
   2.5323E+01   2.5939E+01   4.4601E-07  0.0270
   2.5939E+01   2.6570E+01   3.8566E-07  0.0287
   2.6570E+01   2.7217E+01   3.3412E-07  0.0304
   2.7217E+01   2.7879E+01   2.8541E-07  0.0325
   2.7879E+01   2.8557E+01   2.6035E-07  0.0337
   2.8557E+01   2.9252E+01   2.0638E-07  0.0373
   2.9252E+01   2.9964E+01   1.8828E-07  0.0386
   2.9964E+01   3.0693E+01   1.6871E-07  0.0403
   3.0693E+01   3.1440E+01   1.2052E-07  0.0471
   3.1440E+01   3.2205E+01   1.0249E-07  0.0505
   3.2205E+01   3.2988E+01   9.6227E-08  0.0515
   3.2988E+01   3.3791E+01   8.0735E-08  0.0556
   3.3791E+01   3.4613E+01   7.5898E-08  0.0566
   3.4613E+01   3.5455E+01   4.9397E-08  0.0693
   3.5455E+01   3.6318E+01   5.4252E-08  0.0654
   3.6318E+01   3.7201E+01   3.6893E-08  0.0783
   3.7201E+01   3.8106E+01   3.4028E-08  0.0806
   3.8106E+01   3.9034E+01   2.8690E-08  0.0867
   3.9034E+01   3.9983E+01   2.3375E-08  0.0949
   3.9983E+01   4.0956E+01   2.0559E-08  0.1000
   4.0956E+01   4.1953E+01   1.3648E-08  0.1213
   4.1953E+01   4.2973E+01   1.0776E-08  0.1348
   4.2973E+01   4.4019E+01   1.1286E-08  0.1302
   4.4019E+01   4.5090E+01   8.7767E-09  0.1459
   4.5090E+01   4.6187E+01   5.8337E-09  0.1768
   4.6187E+01   4.7311E+01   4.8053E-09  0.1925
   4.7311E+01   4.8462E+01   5.2124E-09  0.1826
   4.8462E+01   4.9641E+01   3.9012E-09  0.2085
   4.9641E+01   5.0849E+01   1.6559E-09  0.3162
   5.0849E+01   5.2086E+01   1.6166E-09  0.3162
   5.2086E+01   5.3353E+01   1.4203E-09  0.3333
   5.3353E+01   5.4651E+01   6.1627E-10  0.5000
   5.4651E+01   5.5981E+01   1.3537E-09  0.3333
   5.5981E+01   5.7343E+01   2.9367E-10  0.7071
   5.7343E+01   5.8738E+01   2.8670E-10  0.7071
   5.8738E+01   6.0168E+01   1.3994E-10  1.0000
   6.0168E+01   6.1632E+01   5.4648E-10  0.5000
   6.1632E+01   6.3131E+01   0.0000E+00  0.0000
   6.3131E+01   6.4667E+01   0.0000E+00  0.0000
   6.4667E+01   6.6240E+01   1.2711E-10  1.0000
   6.6240E+01   6.7852E+01   0.0000E+00  0.0000
   6.7852E+01   6.9503E+01   0.0000E+00  0.0000
   6.9503E+01   7.1194E+01   0.0000E+00  0.0000
   7.1194E+01   7.2926E+01   0.0000E+00  0.0000
   7.2926E+01   7.4701E+01   0.0000E+00  0.0000
   7.4701E+01   7.6518E+01   0.0000E+00  0.0000
   7.6518E+01   7.8380E+01   0.0000E+00  0.0000
   7.8380E+01   8.0287E+01   0.0000E+00  0.0000
   8.0287E+01   8.2240E+01   0.0000E+00  0.0000
   8.2240E+01   8.4241E+01   0.0000E+00  0.0000
   8.4241E+01   8.6291E+01   0.0000E+00  0.0000
   8.6291E+01   8.8391E+01   0.0000E+00  0.0000
   8.8391E+01   9.0541E+01   0.0000E+00  0.0000
   9.0541E+01   9.2744E+01   0.0000E+00  0.0000
   9.2744E+01   9.5001E+01   0.0000E+00  0.0000
   9.5001E+01   9.7312E+01   0.0000E+00  0.0000
   9.7312E+01   9.9680E+01   0.0000E+00  0.0000
   9.9680E+01   1.0211E+02   0.0000E+00  0.0000
   1.0211E+02   1.0459E+02   0.0000E+00  0.0000
   1.0459E+02   1.0713E+02   0.0000E+00  0.0000
   1.0713E+02   1.0974E+02   0.0000E+00  0.0000
   1.0974E+02   1.1241E+02   0.0000E+00  0.0000
   1.1241E+02   1.1515E+02   0.0000E+00  0.0000
   1.1515E+02   1.1795E+02   0.0000E+00  0.0000
   1.1795E+02   1.2082E+02   0.0000E+00  0.0000
   1.2082E+02   1.2376E+02   0.0000E+00  0.0000
   1.2376E+02   1.2677E+02   0.0000E+00  0.0000
   1.2677E+02   1.2985E+02   0.0000E+00  0.0000
   1.2985E+02   1.3301E+02   0.0000E+00  0.0000
   1.3301E+02   1.3625E+02   0.0000E+00  0.0000
   1.3625E+02   1.3956E+02   0.0000E+00  0.0000
   1.3956E+02   1.4296E+02   0.0000E+00  0.0000
   1.4296E+02   1.4644E+02   0.0000E+00  0.0000
   1.4644E+02   1.5000E+02   0.0000E+00  0.0000

#   sum over                 2.8707E-06
'no. =    1   reg = 125 - 225'
msuc: {\huge [t-cross] in region mesh}
msdr: {\it plotted by \ANGEL \version}
msdl: {\it calculated by \PHITS  3.28}
wt: s(0.7)
\vspace{-3}
  region surface crossing
  area  &=&   1.0000E+00 [cm^2]
e:
 
# Information for Restart Calculation
# This calculation was newly started
# istdev =  2 # 1:Batch variance, 2:History variance
# resc2  = 5.00000000000000000E+09 # Total source weight or Total source weight / maxcas
# resc3  = 5.00000000000000000E+09 # Total history number or Total batch number
# maxcas =   500000000 # History / Batch, only used for istdev=1
# bitrseed = 0110100000100010111000001110001111001110100100011111101000111001 # bit data of rseed
