[ T-Cross ]
    title = [t-cross] in region mesh
     mesh =  reg            # mesh type is region-wise
      reg =    1            # number of crossing regions
      non     r-from    r-to       area
      1       113       213        1.000000    
   e-type =    3            # e-mesh is log given by emin, emax and ne
     emin =  1.0000000E-02  # minimum value of e-mesh points
     emax =   150.0000      # maximum value of e-mesh points
#    edel =  2.4039514E-02  # mesh width of e-mesh points
       ne =    400          # number of e-mesh points
#    data = ( e(i), i = 1, ne + 1 )
#           1.00000E-02  1.02433E-02  1.04925E-02  1.07478E-02  1.10093E-02
#           1.12772E-02  1.15516E-02  1.18326E-02  1.21205E-02  1.24154E-02
#           1.27175E-02  1.30269E-02  1.33439E-02  1.36686E-02  1.40011E-02
#           1.43418E-02  1.46907E-02  1.50482E-02  1.54143E-02  1.57894E-02
#           1.61735E-02  1.65670E-02  1.69701E-02  1.73830E-02  1.78060E-02
#           1.82392E-02  1.86830E-02  1.91375E-02  1.96032E-02  2.00801E-02
#           2.05687E-02  2.10692E-02  2.15818E-02  2.21069E-02  2.26448E-02
#           2.31957E-02  2.37601E-02  2.43382E-02  2.49304E-02  2.55369E-02
#           2.61583E-02  2.67947E-02  2.74467E-02  2.81145E-02  2.87985E-02
#           2.94992E-02  3.02169E-02  3.09521E-02  3.17052E-02  3.24766E-02
#           3.32668E-02  3.40762E-02  3.49053E-02  3.57546E-02  3.66246E-02
#           3.75157E-02  3.84284E-02  3.93634E-02  4.03212E-02  4.13022E-02
#           4.23071E-02  4.33365E-02  4.43909E-02  4.54710E-02  4.65773E-02
#           4.77106E-02  4.88714E-02  5.00605E-02  5.12785E-02  5.25262E-02
#           5.38042E-02  5.51133E-02  5.64542E-02  5.78278E-02  5.92348E-02
#           6.06760E-02  6.21523E-02  6.36645E-02  6.52135E-02  6.68002E-02
#           6.84255E-02  7.00904E-02  7.17957E-02  7.35426E-02  7.53319E-02
#           7.71648E-02  7.90423E-02  8.09655E-02  8.29354E-02  8.49533E-02
#           8.70203E-02  8.91376E-02  9.13064E-02  9.35279E-02  9.58035E-02
#           9.81345E-02  1.00522E-01  1.02968E-01  1.05473E-01  1.08040E-01
#           1.10668E-01  1.13361E-01  1.16119E-01  1.18944E-01  1.21838E-01
#           1.24803E-01  1.27839E-01  1.30950E-01  1.34136E-01  1.37399E-01
#           1.40742E-01  1.44167E-01  1.47675E-01  1.51268E-01  1.54948E-01
#           1.58718E-01  1.62580E-01  1.66535E-01  1.70587E-01  1.74738E-01
#           1.78989E-01  1.83344E-01  1.87805E-01  1.92375E-01  1.97055E-01
#           2.01850E-01  2.06761E-01  2.11792E-01  2.16945E-01  2.22223E-01
#           2.27630E-01  2.33169E-01  2.38842E-01  2.44653E-01  2.50605E-01
#           2.56703E-01  2.62949E-01  2.69346E-01  2.75900E-01  2.82613E-01
#           2.89489E-01  2.96532E-01  3.03747E-01  3.11138E-01  3.18708E-01
#           3.26462E-01  3.34405E-01  3.42542E-01  3.50876E-01  3.59413E-01
#           3.68158E-01  3.77116E-01  3.86291E-01  3.95690E-01  4.05317E-01
#           4.15179E-01  4.25281E-01  4.35628E-01  4.46227E-01  4.57084E-01
#           4.68205E-01  4.79597E-01  4.91266E-01  5.03219E-01  5.15463E-01
#           5.28005E-01  5.40851E-01  5.54011E-01  5.67490E-01  5.81298E-01
#           5.95441E-01  6.09929E-01  6.24769E-01  6.39970E-01  6.55541E-01
#           6.71491E-01  6.87828E-01  7.04564E-01  7.21706E-01  7.39266E-01
#           7.57253E-01  7.75678E-01  7.94551E-01  8.13883E-01  8.33685E-01
#           8.53969E-01  8.74747E-01  8.96030E-01  9.17831E-01  9.40163E-01
#           9.63038E-01  9.86469E-01  1.01047E+00  1.03506E+00  1.06024E+00
#           1.08604E+00  1.11246E+00  1.13953E+00  1.16725E+00  1.19565E+00
#           1.22474E+00  1.25454E+00  1.28507E+00  1.31633E+00  1.34836E+00
#           1.38117E+00  1.41477E+00  1.44920E+00  1.48446E+00  1.52057E+00
#           1.55757E+00  1.59547E+00  1.63429E+00  1.67405E+00  1.71478E+00
#           1.75650E+00  1.79924E+00  1.84302E+00  1.88786E+00  1.93379E+00
#           1.98084E+00  2.02904E+00  2.07841E+00  2.12898E+00  2.18078E+00
#           2.23384E+00  2.28819E+00  2.34386E+00  2.40089E+00  2.45930E+00
#           2.51914E+00  2.58043E+00  2.64322E+00  2.70753E+00  2.77341E+00
#           2.84088E+00  2.91001E+00  2.98081E+00  3.05333E+00  3.12762E+00
#           3.20372E+00  3.28167E+00  3.36152E+00  3.44330E+00  3.52708E+00
#           3.61290E+00  3.70080E+00  3.79085E+00  3.88308E+00  3.97756E+00
#           4.07434E+00  4.17347E+00  4.27501E+00  4.37903E+00  4.48557E+00
#           4.59471E+00  4.70650E+00  4.82102E+00  4.93832E+00  5.05847E+00
#           5.18155E+00  5.30762E+00  5.43676E+00  5.56904E+00  5.70453E+00
#           5.84333E+00  5.98550E+00  6.13114E+00  6.28031E+00  6.43312E+00
#           6.58964E+00  6.74997E+00  6.91420E+00  7.08243E+00  7.25475E+00
#           7.43126E+00  7.61207E+00  7.79728E+00  7.98700E+00  8.18133E+00
#           8.38038E+00  8.58428E+00  8.79315E+00  9.00709E+00  9.22624E+00
#           9.45072E+00  9.68067E+00  9.91620E+00  1.01575E+01  1.04046E+01
#           1.06578E+01  1.09171E+01  1.11827E+01  1.14548E+01  1.17335E+01
#           1.20190E+01  1.23114E+01  1.26109E+01  1.29178E+01  1.32321E+01
#           1.35540E+01  1.38838E+01  1.42216E+01  1.45676E+01  1.49221E+01
#           1.52851E+01  1.56570E+01  1.60380E+01  1.64282E+01  1.68279E+01
#           1.72374E+01  1.76568E+01  1.80864E+01  1.85264E+01  1.89772E+01
#           1.94389E+01  1.99119E+01  2.03963E+01  2.08926E+01  2.14009E+01
#           2.19216E+01  2.24550E+01  2.30014E+01  2.35610E+01  2.41343E+01
#           2.47215E+01  2.53230E+01  2.59391E+01  2.65702E+01  2.72167E+01
#           2.78789E+01  2.85572E+01  2.92520E+01  2.99637E+01  3.06928E+01
#           3.14396E+01  3.22045E+01  3.29881E+01  3.37907E+01  3.46128E+01
#           3.54550E+01  3.63177E+01  3.72013E+01  3.81064E+01  3.90336E+01
#           3.99833E+01  4.09561E+01  4.19526E+01  4.29734E+01  4.40189E+01
#           4.50900E+01  4.61870E+01  4.73108E+01  4.84619E+01  4.96410E+01
#           5.08488E+01  5.20860E+01  5.33533E+01  5.46514E+01  5.59812E+01
#           5.73432E+01  5.87384E+01  6.01676E+01  6.16315E+01  6.31311E+01
#           6.46671E+01  6.62405E+01  6.78522E+01  6.95031E+01  7.11941E+01
#           7.29263E+01  7.47007E+01  7.65182E+01  7.83800E+01  8.02870E+01
#           8.22405E+01  8.42414E+01  8.62911E+01  8.83906E+01  9.05412E+01
#           9.27442E+01  9.50007E+01  9.73122E+01  9.96799E+01  1.02105E+02
#           1.04589E+02  1.07134E+02  1.09741E+02  1.12411E+02  1.15146E+02
#           1.17948E+02  1.20817E+02  1.23757E+02  1.26768E+02  1.29852E+02
#           1.33012E+02  1.36248E+02  1.39563E+02  1.42959E+02  1.46437E+02
#           1.50000E+02
     unit =    2            # unit is [1/cm^2/(MeV/n)/source]
     axis =  eng            # axis of output
     file = detector-14.out  # file name of output for the above axis
   output = f-curr          # surface crossing forward current spectrum
     part =  neutron  
# kf/name :  2112     
#    used :        main (  %)        temp (  %)       total (  %)
#  memory :         414 (  0)           0 (  0)         414 (  0)

#------------------------------------------------------------------------------
#newpage:
#   no. =    1   reg = 113 - 213

x: Energy [MeV/n]
y:  F-Curr [1/cm^2/(MeV/n)/source]         
p: xlog ylog afac(0.8) form(0.9)
h: n            x            y(neutron ),hh0l   n 
#  e-lower      e-upper      neutron     r.err 
   1.0000E-02   1.0243E-02   3.6928E-04  0.3333
   1.0243E-02   1.0493E-02   7.2076E-04  0.2357
   1.0493E-02   1.0748E-02   2.3477E-04  0.4082
   1.0748E-02   1.1009E-02   2.6698E-04  0.3780
   1.1009E-02   1.1277E-02   4.7730E-04  0.2776
   1.1277E-02   1.1552E-02   3.7373E-04  0.3088
   1.1552E-02   1.1833E-02   3.1980E-04  0.3333
   1.1833E-02   1.2121E-02   2.4265E-04  0.3780
   1.2121E-02   1.2415E-02   3.0472E-04  0.3333
   1.2415E-02   1.2718E-02   2.9725E-04  0.3333
   1.2718E-02   1.3027E-02   4.1953E-04  0.2774
   1.3027E-02   1.3344E-02   1.9760E-04  0.3929
   1.3344E-02   1.3669E-02   1.2303E-04  0.5000
   1.3669E-02   1.4001E-02   3.6037E-04  0.2887
   1.4001E-02   1.4342E-02   1.6613E-04  0.4118
   1.4342E-02   1.4691E-02   2.2314E-04  0.3544
   1.4691E-02   1.5048E-02   3.2938E-04  0.2892
   1.5048E-02   1.5414E-02   1.6318E-04  0.4083
   1.5414E-02   1.5789E-02   2.0335E-04  0.3547
   1.5789E-02   1.6174E-02   2.3403E-04  0.3333
   1.6174E-02   1.6567E-02   2.5111E-04  0.3163
   1.6567E-02   1.6970E-02   1.9800E-04  0.3536
   1.6970E-02   1.7383E-02   1.4508E-04  0.4082
   1.7383E-02   1.7806E-02   2.2705E-04  0.3184
   1.7806E-02   1.8239E-02   2.2860E-04  0.3163
   1.8239E-02   1.8683E-02   1.7528E-04  0.3543
   1.8683E-02   1.9138E-02   7.0053E-05  0.5465
   1.9138E-02   1.9603E-02   2.3597E-04  0.3015
   1.9603E-02   2.0080E-02   2.0920E-04  0.3162
   2.0080E-02   2.0569E-02   3.4712E-04  0.2425
   2.0569E-02   2.1069E-02   9.9742E-05  0.4472
   2.1069E-02   2.1582E-02   1.2268E-04  0.3920
   2.1582E-02   2.2107E-02   2.8616E-04  0.2548
   2.2107E-02   2.2645E-02   1.2991E-04  0.3780
   2.2645E-02   2.3196E-02   1.0874E-04  0.4082
   2.3196E-02   2.3760E-02   1.5743E-04  0.3335
   2.3760E-02   2.4338E-02   1.3826E-04  0.3536
   2.4338E-02   2.4930E-02   1.8541E-04  0.3015
   2.4930E-02   2.5537E-02   1.3163E-04  0.3536
   2.5537E-02   2.6158E-02   1.2856E-04  0.3536
   2.6158E-02   2.6795E-02   1.8804E-04  0.2887
   2.6795E-02   2.7447E-02   1.2228E-04  0.3536
   2.7447E-02   2.8114E-02   8.9743E-05  0.4082
   2.8114E-02   2.8799E-02   1.3138E-04  0.3333
   2.8799E-02   2.9499E-02   1.8507E-04  0.2774
   2.9499E-02   3.0217E-02   2.2010E-04  0.2502
   3.0217E-02   3.0952E-02   1.7364E-04  0.2779
   3.0952E-02   3.1705E-02   1.1825E-04  0.3334
   3.1705E-02   3.2477E-02   1.4232E-04  0.3015
   3.2477E-02   3.3267E-02   1.6412E-04  0.2774
   3.3267E-02   3.4076E-02   1.0905E-04  0.3338
   3.4076E-02   3.4905E-02   1.9431E-04  0.2460
   3.4905E-02   3.5755E-02   1.5281E-04  0.2774
   3.5755E-02   3.6625E-02   1.7003E-04  0.2584
   3.6625E-02   3.7516E-02   1.1208E-04  0.3162
   3.7516E-02   3.8428E-02   1.6405E-04  0.2582
   3.8428E-02   3.9363E-02   1.2725E-04  0.2887
   3.9363E-02   4.0321E-02   1.7722E-04  0.2425
   4.0321E-02   4.1302E-02   7.1238E-05  0.3780
   4.1302E-02   4.2307E-02   1.2705E-04  0.2777
   4.2307E-02   4.3337E-02   6.6122E-05  0.3783
   4.3337E-02   4.4391E-02   1.1646E-04  0.2825
   4.4391E-02   4.5471E-02   4.3470E-05  0.4504
   4.5471E-02   4.6577E-02   5.4135E-05  0.4082
   4.6577E-02   4.7711E-02   1.1448E-04  0.2774
   4.7711E-02   4.8871E-02   6.0202E-05  0.3780
   4.8871E-02   5.0061E-02   8.3983E-05  0.3162
   5.0061E-02   5.1279E-02   1.3105E-04  0.2500
   5.1279E-02   5.2526E-02   8.8039E-05  0.3015
   5.2526E-02   5.3804E-02   1.0931E-04  0.2673
   5.3804E-02   5.5113E-02   1.2084E-04  0.2502
   5.5113E-02   5.6454E-02   8.9364E-05  0.2887
   5.6454E-02   5.7828E-02   7.8518E-05  0.3020
   5.7828E-02   5.9235E-02   1.4186E-04  0.2236
   5.9235E-02   6.0676E-02   8.3015E-05  0.2887
   6.0676E-02   6.2152E-02   4.0559E-05  0.4082
   6.2152E-02   6.3665E-02   2.6409E-05  0.5000
   6.3665E-02   6.5214E-02   4.5101E-05  0.3780
   6.5214E-02   6.6800E-02   4.4071E-05  0.3780
   6.6800E-02   6.8426E-02   7.8540E-05  0.2778
   6.8426E-02   7.0090E-02   7.1965E-05  0.2887
   7.0090E-02   7.1796E-02   7.0289E-05  0.2887
   7.1796E-02   7.3543E-02   6.2831E-05  0.3015
   7.3543E-02   7.5332E-02   8.3653E-05  0.2582
   7.5332E-02   7.7165E-02   4.2031E-05  0.3553
   7.7165E-02   7.9042E-02   7.3399E-05  0.2676
   7.9042E-02   8.0965E-02   1.6571E-05  0.5463
   8.0965E-02   8.2935E-02   7.5253E-05  0.2583
   8.2935E-02   8.4953E-02   6.9282E-05  0.2673
   8.4953E-02   8.7020E-02   7.6890E-05  0.2500
   8.7020E-02   8.9138E-02   9.4075E-05  0.2236
   8.9138E-02   9.1306E-02   8.3948E-05  0.2330
   9.1306E-02   9.3528E-02   9.4318E-05  0.2182
   9.3528E-02   9.5804E-02   5.2612E-05  0.2887
   9.5804E-02   9.8134E-02   5.9944E-05  0.2673
   9.8134E-02   1.0052E-01   3.7630E-05  0.3333
   1.0052E-01   1.0297E-01   4.3153E-05  0.3026
   1.0297E-01   1.0547E-01   7.9332E-05  0.2236
   1.0547E-01   1.0804E-01   7.0726E-05  0.2328
   1.0804E-01   1.1067E-01   4.4471E-05  0.2874
   1.1067E-01   1.1336E-01   7.0415E-05  0.2294
   1.1336E-01   1.1612E-01   8.7714E-05  0.2023
   1.1612E-01   1.1894E-01   8.1139E-05  0.2085
   1.1894E-01   1.2184E-01   6.5397E-05  0.2294
   1.2184E-01   1.2480E-01   7.6807E-05  0.2086
   1.2480E-01   1.2784E-01   1.0145E-04  0.1796
   1.2784E-01   1.3095E-01   7.0557E-05  0.2132
   1.3095E-01   1.3414E-01   1.0017E-04  0.1768
   1.3414E-01   1.3740E-01   1.1901E-04  0.1587
   1.3740E-01   1.4074E-01   1.0622E-04  0.1662
   1.4074E-01   1.4417E-01   1.2351E-04  0.1528
   1.4417E-01   1.4767E-01   1.2919E-04  0.1478
   1.4767E-01   1.5127E-01   1.4120E-04  0.1401
   1.5127E-01   1.5495E-01   1.6002E-04  0.1302
   1.5495E-01   1.5872E-01   1.4939E-04  0.1326
   1.5872E-01   1.6258E-01   1.5174E-04  0.1302
   1.6258E-01   1.6654E-01   1.7094E-04  0.1213
   1.6654E-01   1.7059E-01   1.6660E-04  0.1213
   1.7059E-01   1.7474E-01   1.5622E-04  0.1240
   1.7474E-01   1.7899E-01   1.6137E-04  0.1204
   1.7899E-01   1.8334E-01   2.0361E-04  0.1060
   1.8334E-01   1.8781E-01   1.6612E-04  0.1159
   1.8781E-01   1.9237E-01   1.7538E-04  0.1115
   1.9237E-01   1.9706E-01   2.4041E-04  0.0939
   1.9706E-01   2.0185E-01   1.9659E-04  0.1027
   2.0185E-01   2.0676E-01   2.2350E-04  0.0953
   2.0676E-01   2.1179E-01   2.3438E-04  0.0918
   2.1179E-01   2.1694E-01   2.4288E-04  0.0890
   2.1694E-01   2.2222E-01   2.4535E-04  0.0877
   2.2222E-01   2.2763E-01   2.4807E-04  0.0861
   2.2763E-01   2.3317E-01   2.7997E-04  0.0801
   2.3317E-01   2.3884E-01   2.9837E-04  0.0767
   2.3884E-01   2.4465E-01   3.1083E-04  0.0743
   2.4465E-01   2.5061E-01   3.0484E-04  0.0741
   2.5061E-01   2.5670E-01   3.0965E-04  0.0726
   2.5670E-01   2.6295E-01   3.1591E-04  0.0711
   2.6295E-01   2.6935E-01   4.0799E-04  0.0617
   2.6935E-01   2.7590E-01   3.7131E-04  0.0640
   2.7590E-01   2.8261E-01   3.4704E-04  0.0652
   2.8261E-01   2.8949E-01   3.7209E-04  0.0624
   2.8949E-01   2.9653E-01   3.8206E-04  0.0608
   2.9653E-01   3.0375E-01   3.6804E-04  0.0612
   3.0375E-01   3.1114E-01   4.4487E-04  0.0550
   3.1114E-01   3.1871E-01   4.5996E-04  0.0535
   3.1871E-01   3.2646E-01   4.5730E-04  0.0530
   3.2646E-01   3.3441E-01   4.1820E-04  0.0547
   3.3441E-01   3.4254E-01   4.9192E-04  0.0499
   3.4254E-01   3.5088E-01   4.9663E-04  0.0490
   3.5088E-01   3.5941E-01   4.9280E-04  0.0486
   3.5941E-01   3.6816E-01   5.1220E-04  0.0471
   3.6816E-01   3.7712E-01   4.8576E-04  0.0478
   3.7712E-01   3.8629E-01   5.5747E-04  0.0441
   3.8629E-01   3.9569E-01   5.3864E-04  0.0443
   3.9569E-01   4.0532E-01   5.7529E-04  0.0424
   4.0532E-01   4.1518E-01   5.3619E-04  0.0433
   4.1518E-01   4.2528E-01   5.7559E-04  0.0414
   4.2528E-01   4.3563E-01   5.9474E-04  0.0402
   4.3563E-01   4.4623E-01   5.8787E-04  0.0400
   4.4623E-01   4.5708E-01   5.9329E-04  0.0393
   4.5708E-01   4.6821E-01   5.9969E-04  0.0386
   4.6821E-01   4.7960E-01   6.0216E-04  0.0381
   4.7960E-01   4.9127E-01   6.8743E-04  0.0352
   4.9127E-01   5.0322E-01   6.2005E-04  0.0366
   5.0322E-01   5.1546E-01   6.3916E-04  0.0356
   5.1546E-01   5.2800E-01   6.0755E-04  0.0361
   5.2800E-01   5.4085E-01   6.2796E-04  0.0351
   5.4085E-01   5.5401E-01   6.6082E-04  0.0338
   5.5401E-01   5.6749E-01   6.1235E-04  0.0347
   5.6749E-01   5.8130E-01   6.3377E-04  0.0337
   5.8130E-01   5.9544E-01   6.3768E-04  0.0332
   5.9544E-01   6.0993E-01   6.4770E-04  0.0325
   6.0993E-01   6.2477E-01   6.5294E-04  0.0320
   6.2477E-01   6.3997E-01   6.4002E-04  0.0319
   6.3997E-01   6.5554E-01   6.3857E-04  0.0316
   6.5554E-01   6.7149E-01   6.5179E-04  0.0309
   6.7149E-01   6.8783E-01   6.5693E-04  0.0304
   6.8783E-01   7.0456E-01   6.6481E-04  0.0299
   7.0456E-01   7.2171E-01   6.5674E-04  0.0297
   7.2171E-01   7.3927E-01   6.3789E-04  0.0298
   7.3927E-01   7.5725E-01   6.7261E-04  0.0286
   7.5725E-01   7.7568E-01   5.9703E-04  0.0300
   7.7568E-01   7.9455E-01   6.1730E-04  0.0292
   7.9455E-01   8.1388E-01   6.3846E-04  0.0284
   8.1388E-01   8.3368E-01   6.3009E-04  0.0282
   8.3368E-01   8.5397E-01   6.2408E-04  0.0280
   8.5397E-01   8.7475E-01   6.0140E-04  0.0282
   8.7475E-01   8.9603E-01   5.9721E-04  0.0279
   8.9603E-01   9.1783E-01   6.0120E-04  0.0275
   9.1783E-01   9.4016E-01   6.0684E-04  0.0270
   9.4016E-01   9.6304E-01   5.9970E-04  0.0269
   9.6304E-01   9.8647E-01   5.9776E-04  0.0266
   9.8647E-01   1.0105E+00   5.8116E-04  0.0266
   1.0105E+00   1.0351E+00   5.9413E-04  0.0260
   1.0351E+00   1.0602E+00   5.5206E-04  0.0267
   1.0602E+00   1.0860E+00   5.8604E-04  0.0255
   1.0860E+00   1.1125E+00   5.7879E-04  0.0254
   1.1125E+00   1.1395E+00   5.8579E-04  0.0249
   1.1395E+00   1.1673E+00   5.6218E-04  0.0251
   1.1673E+00   1.1957E+00   5.4557E-04  0.0252
   1.1957E+00   1.2247E+00   5.5904E-04  0.0246
   1.2247E+00   1.2545E+00   5.4086E-04  0.0247
   1.2545E+00   1.2851E+00   5.8600E-04  0.0234
   1.2851E+00   1.3163E+00   5.7153E-04  0.0234
   1.3163E+00   1.3484E+00   5.4177E-04  0.0237
   1.3484E+00   1.3812E+00   5.3313E-04  0.0236
   1.3812E+00   1.4148E+00   5.3705E-04  0.0232
   1.4148E+00   1.4492E+00   5.4083E-04  0.0229
   1.4492E+00   1.4845E+00   5.0956E-04  0.0233
   1.4845E+00   1.5206E+00   5.2601E-04  0.0226
   1.5206E+00   1.5576E+00   5.0455E-04  0.0228
   1.5576E+00   1.5955E+00   5.2220E-04  0.0221
   1.5955E+00   1.6343E+00   5.1768E-04  0.0219
   1.6343E+00   1.6741E+00   5.0139E-04  0.0220
   1.6741E+00   1.7148E+00   4.8937E-04  0.0220
   1.7148E+00   1.7565E+00   4.9340E-04  0.0216
   1.7565E+00   1.7992E+00   4.4971E-04  0.0223
   1.7992E+00   1.8430E+00   4.3181E-04  0.0225
   1.8430E+00   1.8879E+00   3.9297E-04  0.0232
   1.8879E+00   1.9338E+00   3.8335E-04  0.0231
   1.9338E+00   1.9808E+00   3.8317E-04  0.0229
   1.9808E+00   2.0290E+00   3.7206E-04  0.0229
   2.0290E+00   2.0784E+00   3.7141E-04  0.0227
   2.0784E+00   2.1290E+00   3.7620E-04  0.0222
   2.1290E+00   2.1808E+00   3.5792E-04  0.0224
   2.1808E+00   2.2338E+00   3.6668E-04  0.0219
   2.2338E+00   2.2882E+00   3.5363E-04  0.0221
   2.2882E+00   2.3439E+00   3.3737E-04  0.0224
   2.3439E+00   2.4009E+00   3.2928E-04  0.0224
   2.4009E+00   2.4593E+00   3.2199E-04  0.0224
   2.4593E+00   2.5191E+00   3.2277E-04  0.0221
   2.5191E+00   2.5804E+00   3.1252E-04  0.0222
   2.5804E+00   2.6432E+00   3.0059E-04  0.0223
   2.6432E+00   2.7075E+00   2.9647E-04  0.0222
   2.7075E+00   2.7734E+00   2.9850E-04  0.0219
   2.7734E+00   2.8409E+00   2.8504E-04  0.0222
   2.8409E+00   2.9100E+00   2.7814E-04  0.0221
   2.9100E+00   2.9808E+00   2.7131E-04  0.0221
   2.9808E+00   3.0533E+00   2.6896E-04  0.0220
   3.0533E+00   3.1276E+00   2.5528E-04  0.0223
   3.1276E+00   3.2037E+00   2.5809E-04  0.0220
   3.2037E+00   3.2817E+00   2.5632E-04  0.0218
   3.2817E+00   3.3615E+00   2.5486E-04  0.0216
   3.3615E+00   3.4433E+00   2.3656E-04  0.0221
   3.4433E+00   3.5271E+00   2.3081E-04  0.0222
   3.5271E+00   3.6129E+00   2.4417E-04  0.0214
   3.6129E+00   3.7008E+00   2.3148E-04  0.0216
   3.7008E+00   3.7908E+00   2.2524E-04  0.0217
   3.7908E+00   3.8831E+00   2.1839E-04  0.0218
   3.8831E+00   3.9776E+00   2.2818E-04  0.0210
   3.9776E+00   4.0743E+00   2.1332E-04  0.0215
   4.0743E+00   4.1735E+00   2.0597E-04  0.0216
   4.1735E+00   4.2750E+00   1.9777E-04  0.0218
   4.2750E+00   4.3790E+00   1.9008E-04  0.0220
   4.3790E+00   4.4856E+00   1.9213E-04  0.0216
   4.4856E+00   4.5947E+00   1.8306E-04  0.0218
   4.5947E+00   4.7065E+00   1.8374E-04  0.0216
   4.7065E+00   4.8210E+00   1.8215E-04  0.0214
   4.8210E+00   4.9383E+00   1.7529E-04  0.0215
   4.9383E+00   5.0585E+00   1.7733E-04  0.0212
   5.0585E+00   5.1815E+00   1.7272E-04  0.0212
   5.1815E+00   5.3076E+00   1.6979E-04  0.0211
   5.3076E+00   5.4368E+00   1.7066E-04  0.0208
   5.4368E+00   5.5690E+00   1.6716E-04  0.0208
   5.5690E+00   5.7045E+00   1.6237E-04  0.0208
   5.7045E+00   5.8433E+00   1.6438E-04  0.0205
   5.8433E+00   5.9855E+00   1.5824E-04  0.0207
   5.9855E+00   6.1311E+00   1.5596E-04  0.0206
   6.1311E+00   6.2803E+00   1.5586E-04  0.0203
   6.2803E+00   6.4331E+00   1.5014E-04  0.0205
   6.4331E+00   6.5896E+00   1.5624E-04  0.0199
   6.5896E+00   6.7500E+00   1.4354E-04  0.0205
   6.7500E+00   6.9142E+00   1.4181E-04  0.0204
   6.9142E+00   7.0824E+00   1.4149E-04  0.0201
   7.0824E+00   7.2548E+00   1.4235E-04  0.0199
   7.2548E+00   7.4313E+00   1.3198E-04  0.0204
   7.4313E+00   7.6121E+00   1.3228E-04  0.0201
   7.6121E+00   7.7973E+00   1.3257E-04  0.0199
   7.7973E+00   7.9870E+00   1.2351E-04  0.0204
   7.9870E+00   8.1813E+00   1.2465E-04  0.0201
   8.1813E+00   8.3804E+00   1.2437E-04  0.0198
   8.3804E+00   8.5843E+00   1.1956E-04  0.0200
   8.5843E+00   8.7931E+00   1.2106E-04  0.0196
   8.7931E+00   9.0071E+00   1.1732E-04  0.0197
   9.0071E+00   9.2262E+00   1.0865E-04  0.0203
   9.2262E+00   9.4507E+00   1.0668E-04  0.0202
   9.4507E+00   9.6807E+00   1.0595E-04  0.0201
   9.6807E+00   9.9162E+00   1.0562E-04  0.0199
   9.9162E+00   1.0157E+01   1.0358E-04  0.0199
   1.0157E+01   1.0405E+01   1.0094E-04  0.0199
   1.0405E+01   1.0658E+01   9.6787E-05  0.0201
   1.0658E+01   1.0917E+01   9.5856E-05  0.0200
   1.0917E+01   1.1183E+01   8.8893E-05  0.0205
   1.1183E+01   1.1455E+01   8.5350E-05  0.0207
   1.1455E+01   1.1733E+01   8.6492E-05  0.0203
   1.1733E+01   1.2019E+01   8.2922E-05  0.0205
   1.2019E+01   1.2311E+01   8.0646E-05  0.0205
   1.2311E+01   1.2611E+01   7.7406E-05  0.0207
   1.2611E+01   1.2918E+01   7.3243E-05  0.0210
   1.2918E+01   1.3232E+01   7.1646E-05  0.0210
   1.3232E+01   1.3554E+01   6.7470E-05  0.0214
   1.3554E+01   1.3884E+01   6.5392E-05  0.0215
   1.3884E+01   1.4222E+01   6.5260E-05  0.0213
   1.4222E+01   1.4568E+01   6.2463E-05  0.0215
   1.4568E+01   1.4922E+01   5.8781E-05  0.0219
   1.4922E+01   1.5285E+01   5.6928E-05  0.0220
   1.5285E+01   1.5657E+01   5.5562E-05  0.0220
   1.5657E+01   1.6038E+01   5.2600E-05  0.0223
   1.6038E+01   1.6428E+01   5.0729E-05  0.0225
   1.6428E+01   1.6828E+01   4.7925E-05  0.0228
   1.6828E+01   1.7237E+01   4.4847E-05  0.0233
   1.7237E+01   1.7657E+01   4.3799E-05  0.0233
   1.7657E+01   1.8086E+01   4.1643E-05  0.0236
   1.8086E+01   1.8526E+01   4.0018E-05  0.0238
   1.8526E+01   1.8977E+01   3.7559E-05  0.0243
   1.8977E+01   1.9439E+01   3.5432E-05  0.0247
   1.9439E+01   1.9912E+01   3.6303E-05  0.0241
   1.9912E+01   2.0396E+01   3.0095E-05  0.0262
   2.0396E+01   2.0893E+01   3.1173E-05  0.0254
   2.0893E+01   2.1401E+01   2.9252E-05  0.0259
   2.1401E+01   2.1922E+01   2.8519E-05  0.0259
   2.1922E+01   2.2455E+01   2.5123E-05  0.0273
   2.2455E+01   2.3001E+01   2.4600E-05  0.0273
   2.3001E+01   2.3561E+01   2.1407E-05  0.0289
   2.3561E+01   2.4134E+01   2.1683E-05  0.0284
   2.4134E+01   2.4721E+01   1.9635E-05  0.0294
   2.4721E+01   2.5323E+01   1.7856E-05  0.0305
   2.5323E+01   2.5939E+01   1.6360E-05  0.0315
   2.5939E+01   2.6570E+01   1.5179E-05  0.0323
   2.6570E+01   2.7217E+01   1.4540E-05  0.0326
   2.7217E+01   2.7879E+01   1.2564E-05  0.0347
   2.7879E+01   2.8557E+01   1.1396E-05  0.0360
   2.8557E+01   2.9252E+01   9.7579E-06  0.0384
   2.9252E+01   2.9964E+01   8.4724E-06  0.0407
   2.9964E+01   3.0693E+01   8.9295E-06  0.0392
   3.0693E+01   3.1440E+01   7.7801E-06  0.0415
   3.1440E+01   3.2205E+01   6.6148E-06  0.0445
   3.2205E+01   3.2988E+01   5.1432E-06  0.0498
   3.2988E+01   3.3791E+01   5.2827E-06  0.0486
   3.3791E+01   3.4613E+01   4.2449E-06  0.0535
   3.4613E+01   3.5455E+01   3.3010E-06  0.0600
   3.5455E+01   3.6318E+01   3.2806E-06  0.0594
   3.6318E+01   3.7201E+01   3.0103E-06  0.0613
   3.7201E+01   3.8106E+01   2.4306E-06  0.0674
   3.8106E+01   3.9034E+01   1.8551E-06  0.0762
   3.9034E+01   3.9983E+01   1.6742E-06  0.0793
   3.9983E+01   4.0956E+01   1.3363E-06  0.0877
   4.0956E+01   4.1953E+01   1.0738E-06  0.0967
   4.1953E+01   4.2973E+01   9.1110E-07  0.1037
   4.2973E+01   4.4019E+01   7.0774E-07  0.1162
   4.4019E+01   4.5090E+01   5.3221E-07  0.1325
   4.5090E+01   4.6187E+01   6.1072E-07  0.1222
   4.6187E+01   4.7311E+01   3.6484E-07  0.1562
   4.7311E+01   4.8462E+01   3.9961E-07  0.1474
   4.8462E+01   4.9641E+01   3.9012E-07  0.1474
   4.9641E+01   5.0849E+01   2.8978E-07  0.1690
   5.0849E+01   5.2086E+01   2.9906E-07  0.1644
   5.2086E+01   5.3353E+01   2.0516E-07  0.1961
   5.3353E+01   5.4651E+01   1.0785E-07  0.2673
   5.4651E+01   5.5981E+01   8.2725E-08  0.3015
   5.5981E+01   5.7343E+01   2.2025E-08  0.5774
   5.7343E+01   5.8738E+01   7.1674E-09  1.0000
   5.8738E+01   6.0168E+01   1.3994E-08  0.7071
   6.0168E+01   6.1632E+01   0.0000E+00  0.0000
   6.1632E+01   6.3131E+01   0.0000E+00  0.0000
   6.3131E+01   6.4667E+01   0.0000E+00  0.0000
   6.4667E+01   6.6240E+01   0.0000E+00  0.0000
   6.6240E+01   6.7852E+01   0.0000E+00  0.0000
   6.7852E+01   6.9503E+01   0.0000E+00  0.0000
   6.9503E+01   7.1194E+01   0.0000E+00  0.0000
   7.1194E+01   7.2926E+01   0.0000E+00  0.0000
   7.2926E+01   7.4701E+01   0.0000E+00  0.0000
   7.4701E+01   7.6518E+01   0.0000E+00  0.0000
   7.6518E+01   7.8380E+01   0.0000E+00  0.0000
   7.8380E+01   8.0287E+01   0.0000E+00  0.0000
   8.0287E+01   8.2240E+01   0.0000E+00  0.0000
   8.2240E+01   8.4241E+01   0.0000E+00  0.0000
   8.4241E+01   8.6291E+01   0.0000E+00  0.0000
   8.6291E+01   8.8391E+01   0.0000E+00  0.0000
   8.8391E+01   9.0541E+01   0.0000E+00  0.0000
   9.0541E+01   9.2744E+01   0.0000E+00  0.0000
   9.2744E+01   9.5001E+01   0.0000E+00  0.0000
   9.5001E+01   9.7312E+01   0.0000E+00  0.0000
   9.7312E+01   9.9680E+01   0.0000E+00  0.0000
   9.9680E+01   1.0211E+02   0.0000E+00  0.0000
   1.0211E+02   1.0459E+02   0.0000E+00  0.0000
   1.0459E+02   1.0713E+02   0.0000E+00  0.0000
   1.0713E+02   1.0974E+02   0.0000E+00  0.0000
   1.0974E+02   1.1241E+02   0.0000E+00  0.0000
   1.1241E+02   1.1515E+02   0.0000E+00  0.0000
   1.1515E+02   1.1795E+02   0.0000E+00  0.0000
   1.1795E+02   1.2082E+02   0.0000E+00  0.0000
   1.2082E+02   1.2376E+02   0.0000E+00  0.0000
   1.2376E+02   1.2677E+02   0.0000E+00  0.0000
   1.2677E+02   1.2985E+02   0.0000E+00  0.0000
   1.2985E+02   1.3301E+02   0.0000E+00  0.0000
   1.3301E+02   1.3625E+02   0.0000E+00  0.0000
   1.3625E+02   1.3956E+02   0.0000E+00  0.0000
   1.3956E+02   1.4296E+02   0.0000E+00  0.0000
   1.4296E+02   1.4644E+02   0.0000E+00  0.0000
   1.4644E+02   1.5000E+02   0.0000E+00  0.0000

#   sum over                 2.1734E-05
'no. =    1   reg = 113 - 213'
msuc: {\huge [t-cross] in region mesh}
msdr: {\it plotted by \ANGEL \version}
msdl: {\it calculated by \PHITS  3.26}
wt: s(0.7)
\vspace{-3}
  region surface crossing
  area  &=&   1.0000E+00 [cm^2]
e:
 
# Information for Restart Calculation
# This calculation was newly started
# istdev =  2 # 1:Batch variance, 2:History variance
# resc2  = 1.00000000000000000E+08 # Total source weight or Total source weight / maxcas
# resc3  = 1.00000000000000000E+08 # Total history number or Total batch number
# maxcas =   100000000 # History / Batch, only used for istdev=1
# bitrseed = 1101111110010001010110101011011001110100110101001100011110000101 # bit data of rseed
