[ T-Cross ]
    title = [t-cross] in region mesh
     mesh =  reg            # mesh type is region-wise
      reg =    1            # number of crossing regions
      non     r-from    r-to       area
      1       100       200        1.000000    
   e-type =    3            # e-mesh is log given by emin, emax and ne
     emin =  1.0000000E-02  # minimum value of e-mesh points
     emax =   150.0000      # maximum value of e-mesh points
#    edel =  2.4039514E-02  # mesh width of e-mesh points
       ne =    400          # number of e-mesh points
#    data = ( e(i), i = 1, ne + 1 )
#           1.00000E-02  1.02433E-02  1.04925E-02  1.07478E-02  1.10093E-02
#           1.12772E-02  1.15516E-02  1.18326E-02  1.21205E-02  1.24154E-02
#           1.27175E-02  1.30269E-02  1.33439E-02  1.36686E-02  1.40011E-02
#           1.43418E-02  1.46907E-02  1.50482E-02  1.54143E-02  1.57894E-02
#           1.61735E-02  1.65670E-02  1.69701E-02  1.73830E-02  1.78060E-02
#           1.82392E-02  1.86830E-02  1.91375E-02  1.96032E-02  2.00801E-02
#           2.05687E-02  2.10692E-02  2.15818E-02  2.21069E-02  2.26448E-02
#           2.31957E-02  2.37601E-02  2.43382E-02  2.49304E-02  2.55369E-02
#           2.61583E-02  2.67947E-02  2.74467E-02  2.81145E-02  2.87985E-02
#           2.94992E-02  3.02169E-02  3.09521E-02  3.17052E-02  3.24766E-02
#           3.32668E-02  3.40762E-02  3.49053E-02  3.57546E-02  3.66246E-02
#           3.75157E-02  3.84284E-02  3.93634E-02  4.03212E-02  4.13022E-02
#           4.23071E-02  4.33365E-02  4.43909E-02  4.54710E-02  4.65773E-02
#           4.77106E-02  4.88714E-02  5.00605E-02  5.12785E-02  5.25262E-02
#           5.38042E-02  5.51133E-02  5.64542E-02  5.78278E-02  5.92348E-02
#           6.06760E-02  6.21523E-02  6.36645E-02  6.52135E-02  6.68002E-02
#           6.84255E-02  7.00904E-02  7.17957E-02  7.35426E-02  7.53319E-02
#           7.71648E-02  7.90423E-02  8.09655E-02  8.29354E-02  8.49533E-02
#           8.70203E-02  8.91376E-02  9.13064E-02  9.35279E-02  9.58035E-02
#           9.81345E-02  1.00522E-01  1.02968E-01  1.05473E-01  1.08040E-01
#           1.10668E-01  1.13361E-01  1.16119E-01  1.18944E-01  1.21838E-01
#           1.24803E-01  1.27839E-01  1.30950E-01  1.34136E-01  1.37399E-01
#           1.40742E-01  1.44167E-01  1.47675E-01  1.51268E-01  1.54948E-01
#           1.58718E-01  1.62580E-01  1.66535E-01  1.70587E-01  1.74738E-01
#           1.78989E-01  1.83344E-01  1.87805E-01  1.92375E-01  1.97055E-01
#           2.01850E-01  2.06761E-01  2.11792E-01  2.16945E-01  2.22223E-01
#           2.27630E-01  2.33169E-01  2.38842E-01  2.44653E-01  2.50605E-01
#           2.56703E-01  2.62949E-01  2.69346E-01  2.75900E-01  2.82613E-01
#           2.89489E-01  2.96532E-01  3.03747E-01  3.11138E-01  3.18708E-01
#           3.26462E-01  3.34405E-01  3.42542E-01  3.50876E-01  3.59413E-01
#           3.68158E-01  3.77116E-01  3.86291E-01  3.95690E-01  4.05317E-01
#           4.15179E-01  4.25281E-01  4.35628E-01  4.46227E-01  4.57084E-01
#           4.68205E-01  4.79597E-01  4.91266E-01  5.03219E-01  5.15463E-01
#           5.28005E-01  5.40851E-01  5.54011E-01  5.67490E-01  5.81298E-01
#           5.95441E-01  6.09929E-01  6.24769E-01  6.39970E-01  6.55541E-01
#           6.71491E-01  6.87828E-01  7.04564E-01  7.21706E-01  7.39266E-01
#           7.57253E-01  7.75678E-01  7.94551E-01  8.13883E-01  8.33685E-01
#           8.53969E-01  8.74747E-01  8.96030E-01  9.17831E-01  9.40163E-01
#           9.63038E-01  9.86469E-01  1.01047E+00  1.03506E+00  1.06024E+00
#           1.08604E+00  1.11246E+00  1.13953E+00  1.16725E+00  1.19565E+00
#           1.22474E+00  1.25454E+00  1.28507E+00  1.31633E+00  1.34836E+00
#           1.38117E+00  1.41477E+00  1.44920E+00  1.48446E+00  1.52057E+00
#           1.55757E+00  1.59547E+00  1.63429E+00  1.67405E+00  1.71478E+00
#           1.75650E+00  1.79924E+00  1.84302E+00  1.88786E+00  1.93379E+00
#           1.98084E+00  2.02904E+00  2.07841E+00  2.12898E+00  2.18078E+00
#           2.23384E+00  2.28819E+00  2.34386E+00  2.40089E+00  2.45930E+00
#           2.51914E+00  2.58043E+00  2.64322E+00  2.70753E+00  2.77341E+00
#           2.84088E+00  2.91001E+00  2.98081E+00  3.05333E+00  3.12762E+00
#           3.20372E+00  3.28167E+00  3.36152E+00  3.44330E+00  3.52708E+00
#           3.61290E+00  3.70080E+00  3.79085E+00  3.88308E+00  3.97756E+00
#           4.07434E+00  4.17347E+00  4.27501E+00  4.37903E+00  4.48557E+00
#           4.59471E+00  4.70650E+00  4.82102E+00  4.93832E+00  5.05847E+00
#           5.18155E+00  5.30762E+00  5.43676E+00  5.56904E+00  5.70453E+00
#           5.84333E+00  5.98550E+00  6.13114E+00  6.28031E+00  6.43312E+00
#           6.58964E+00  6.74997E+00  6.91420E+00  7.08243E+00  7.25475E+00
#           7.43126E+00  7.61207E+00  7.79728E+00  7.98700E+00  8.18133E+00
#           8.38038E+00  8.58428E+00  8.79315E+00  9.00709E+00  9.22624E+00
#           9.45072E+00  9.68067E+00  9.91620E+00  1.01575E+01  1.04046E+01
#           1.06578E+01  1.09171E+01  1.11827E+01  1.14548E+01  1.17335E+01
#           1.20190E+01  1.23114E+01  1.26109E+01  1.29178E+01  1.32321E+01
#           1.35540E+01  1.38838E+01  1.42216E+01  1.45676E+01  1.49221E+01
#           1.52851E+01  1.56570E+01  1.60380E+01  1.64282E+01  1.68279E+01
#           1.72374E+01  1.76568E+01  1.80864E+01  1.85264E+01  1.89772E+01
#           1.94389E+01  1.99119E+01  2.03963E+01  2.08926E+01  2.14009E+01
#           2.19216E+01  2.24550E+01  2.30014E+01  2.35610E+01  2.41343E+01
#           2.47215E+01  2.53230E+01  2.59391E+01  2.65702E+01  2.72167E+01
#           2.78789E+01  2.85572E+01  2.92520E+01  2.99637E+01  3.06928E+01
#           3.14396E+01  3.22045E+01  3.29881E+01  3.37907E+01  3.46128E+01
#           3.54550E+01  3.63177E+01  3.72013E+01  3.81064E+01  3.90336E+01
#           3.99833E+01  4.09561E+01  4.19526E+01  4.29734E+01  4.40189E+01
#           4.50900E+01  4.61870E+01  4.73108E+01  4.84619E+01  4.96410E+01
#           5.08488E+01  5.20860E+01  5.33533E+01  5.46514E+01  5.59812E+01
#           5.73432E+01  5.87384E+01  6.01676E+01  6.16315E+01  6.31311E+01
#           6.46671E+01  6.62405E+01  6.78522E+01  6.95031E+01  7.11941E+01
#           7.29263E+01  7.47007E+01  7.65182E+01  7.83800E+01  8.02870E+01
#           8.22405E+01  8.42414E+01  8.62911E+01  8.83906E+01  9.05412E+01
#           9.27442E+01  9.50007E+01  9.73122E+01  9.96799E+01  1.02105E+02
#           1.04589E+02  1.07134E+02  1.09741E+02  1.12411E+02  1.15146E+02
#           1.17948E+02  1.20817E+02  1.23757E+02  1.26768E+02  1.29852E+02
#           1.33012E+02  1.36248E+02  1.39563E+02  1.42959E+02  1.46437E+02
#           1.50000E+02
     unit =    2            # unit is [1/cm^2/(MeV/n)/source]
     axis =  eng            # axis of output
     file = detector-01.out  # file name of output for the above axis
   output = f-curr          # surface crossing forward current spectrum
     part =  neutron  
# kf/name :  2112     
#    used :        main (  %)        temp (  %)       total (  %)
#  memory :         414 (  0)           0 (  0)         414 (  0)

#------------------------------------------------------------------------------
#newpage:
#   no. =    1   reg = 100 - 200

x: Energy [MeV/n]
y:  F-Curr [1/cm^2/(MeV/n)/source]         
p: xlog ylog afac(0.8) form(0.9)
h: n            x            y(neutron ),hh0l   n 
#  e-lower      e-upper      neutron     r.err 
   1.0000E-02   1.0243E-02   0.0000E+00  0.0000
   1.0243E-02   1.0493E-02   0.0000E+00  0.0000
   1.0493E-02   1.0748E-02   7.8342E-07  1.0000
   1.0748E-02   1.1009E-02   0.0000E+00  0.0000
   1.1009E-02   1.1277E-02   7.4664E-07  1.0000
   1.1277E-02   1.1552E-02   0.0000E+00  0.0000
   1.1552E-02   1.1833E-02   0.0000E+00  0.0000
   1.1833E-02   1.2121E-02   0.0000E+00  0.0000
   1.2121E-02   1.2415E-02   0.0000E+00  0.0000
   1.2415E-02   1.2718E-02   0.0000E+00  0.0000
   1.2718E-02   1.3027E-02   0.0000E+00  0.0000
   1.3027E-02   1.3344E-02   0.0000E+00  0.0000
   1.3344E-02   1.3669E-02   0.0000E+00  0.0000
   1.3669E-02   1.4001E-02   0.0000E+00  0.0000
   1.4001E-02   1.4342E-02   0.0000E+00  0.0000
   1.4342E-02   1.4691E-02   0.0000E+00  0.0000
   1.4691E-02   1.5048E-02   1.1191E-06  0.7071
   1.5048E-02   1.5414E-02   0.0000E+00  0.0000
   1.5414E-02   1.5789E-02   0.0000E+00  0.0000
   1.5789E-02   1.6174E-02   5.2061E-07  1.0000
   1.6174E-02   1.6567E-02   0.0000E+00  0.0000
   1.6567E-02   1.6970E-02   0.0000E+00  0.0000
   1.6970E-02   1.7383E-02   0.0000E+00  0.0000
   1.7383E-02   1.7806E-02   4.7288E-07  1.0000
   1.7806E-02   1.8239E-02   4.6165E-07  1.0000
   1.8239E-02   1.8683E-02   0.0000E+00  0.0000
   1.8683E-02   1.9138E-02   4.3997E-07  1.0000
   1.9138E-02   1.9603E-02   0.0000E+00  0.0000
   1.9603E-02   2.0080E-02   4.1932E-07  1.0000
   2.0080E-02   2.0569E-02   4.0936E-07  1.0000
   2.0569E-02   2.1069E-02   3.9964E-07  1.0000
   2.1069E-02   2.1582E-02   0.0000E+00  0.0000
   2.1582E-02   2.2107E-02   0.0000E+00  0.0000
   2.2107E-02   2.2645E-02   3.7183E-07  1.0000
   2.2645E-02   2.3196E-02   0.0000E+00  0.0000
   2.3196E-02   2.3760E-02   0.0000E+00  0.0000
   2.3760E-02   2.4338E-02   0.0000E+00  0.0000
   2.4338E-02   2.4930E-02   0.0000E+00  0.0000
   2.4930E-02   2.5537E-02   3.2972E-07  1.0000
   2.5537E-02   2.6158E-02   3.2189E-07  1.0000
   2.6158E-02   2.6795E-02   0.0000E+00  0.0000
   2.6795E-02   2.7447E-02   3.0678E-07  1.0000
   2.7447E-02   2.8114E-02   8.9847E-07  0.5774
   2.8114E-02   2.8799E-02   8.7713E-07  0.5774
   2.8799E-02   2.9499E-02   2.8543E-07  1.0000
   2.9499E-02   3.0217E-02   5.5731E-07  0.7071
   3.0217E-02   3.0952E-02   2.7203E-07  1.0000
   3.0952E-02   3.1705E-02   5.3114E-07  0.7071
   3.1705E-02   3.2477E-02   7.7779E-07  0.5774
   3.2477E-02   3.3267E-02   0.0000E+00  0.0000
   3.3267E-02   3.4076E-02   2.4709E-07  1.0000
   3.4076E-02   3.4905E-02   2.4122E-07  1.0000
   3.4905E-02   3.5755E-02   5.3402E-07  0.6347
   3.5755E-02   3.6625E-02   4.5980E-07  0.7071
   3.6625E-02   3.7516E-02   6.7332E-07  0.5774
   3.7516E-02   3.8428E-02   8.7644E-07  0.5000
   3.8428E-02   3.9363E-02   4.2781E-07  0.7071
   3.9363E-02   4.0321E-02   6.2647E-07  0.5774
   4.0321E-02   4.1302E-02   0.0000E+00  0.0000
   4.1302E-02   4.2307E-02   1.9902E-07  1.0000
   4.2307E-02   4.3337E-02   7.7718E-07  0.5000
   4.3337E-02   4.4391E-02   1.8968E-07  1.0000
   4.4391E-02   4.5471E-02   3.7035E-07  0.7071
   4.5471E-02   4.6577E-02   3.6155E-07  0.7071
   4.6577E-02   4.7711E-02   7.0593E-07  0.5000
   4.7711E-02   4.8871E-02   5.1900E-07  0.5262
   4.8871E-02   5.0061E-02   1.0092E-06  0.4082
   5.0061E-02   5.1279E-02   1.3136E-06  0.3536
   5.1279E-02   5.2526E-02   9.6181E-07  0.4082
   5.2526E-02   5.3804E-02   3.1299E-07  0.7071
   5.3804E-02   5.5113E-02   7.6388E-07  0.4472
   5.5113E-02   5.6454E-02   1.4915E-06  0.3162
   5.6454E-02   5.7828E-02   8.7363E-07  0.4082
   5.7828E-02   5.9235E-02   4.2644E-07  0.5774
   5.9235E-02   6.0676E-02   8.3262E-07  0.4082
   6.0676E-02   6.2152E-02   6.7737E-07  0.4472
   6.2152E-02   6.3665E-02   1.4335E-06  0.3018
   6.3665E-02   6.5214E-02   1.2911E-06  0.3162
   6.5214E-02   6.6800E-02   1.8025E-06  0.2625
   6.6800E-02   6.8426E-02   1.1075E-06  0.3333
   6.8426E-02   7.0090E-02   7.2079E-07  0.4082
   7.0090E-02   7.1796E-02   8.2094E-07  0.3780
   7.1796E-02   7.3543E-02   8.2663E-07  0.3677
   7.3543E-02   7.5332E-02   1.5648E-06  0.2673
   7.5332E-02   7.7165E-02   1.9641E-06  0.2357
   7.7165E-02   7.9042E-02   1.4537E-06  0.2656
   7.9042E-02   8.0965E-02   1.2999E-06  0.2800
   8.0965E-02   8.2935E-02   1.5567E-06  0.2531
   8.2935E-02   8.4953E-02   1.4478E-06  0.2573
   8.4953E-02   8.7020E-02   1.0421E-06  0.2995
   8.7020E-02   8.9138E-02   1.1510E-06  0.2847
   8.9138E-02   9.1306E-02   2.3404E-06  0.1976
   9.1306E-02   9.3528E-02   1.0353E-06  0.2917
   9.3528E-02   9.5804E-02   1.4219E-06  0.2418
   9.5804E-02   9.8134E-02   1.8837E-06  0.2103
   9.8134E-02   1.0052E-01   2.4012E-06  0.1851
   1.0052E-01   1.0297E-01   2.1368E-06  0.1952
   1.0297E-01   1.0547E-01   2.0076E-06  0.1989
   1.0547E-01   1.0804E-01   1.7925E-06  0.2085
   1.0804E-01   1.1067E-01   2.5070E-06  0.1723
   1.1067E-01   1.1336E-01   1.8242E-06  0.1981
   1.1336E-01   1.1612E-01   1.5223E-06  0.2163
   1.1612E-01   1.1894E-01   2.2719E-06  0.1748
   1.1894E-01   1.2184E-01   2.4349E-06  0.1680
   1.2184E-01   1.2480E-01   2.8650E-06  0.1528
   1.2480E-01   1.2784E-01   2.2037E-06  0.1720
   1.2784E-01   1.3095E-01   3.0620E-06  0.1442
   1.3095E-01   1.3414E-01   1.7506E-06  0.1871
   1.3414E-01   1.3740E-01   2.8351E-06  0.1454
   1.3740E-01   1.4074E-01   2.3683E-06  0.1580
   1.4074E-01   1.4417E-01   2.7809E-06  0.1442
   1.4417E-01   1.4767E-01   3.1722E-06  0.1335
   1.4767E-01   1.5127E-01   3.0586E-06  0.1342
   1.5127E-01   1.5495E-01   3.0293E-06  0.1326
   1.5495E-01   1.5872E-01   3.7621E-06  0.1182
   1.5872E-01   1.6258E-01   3.9053E-06  0.1149
   1.6258E-01   1.6654E-01   3.0069E-06  0.1286
   1.6654E-01   1.7059E-01   3.4616E-06  0.1181
   1.7059E-01   1.7474E-01   3.0912E-06  0.1235
   1.7474E-01   1.7899E-01   3.2441E-06  0.1192
   1.7899E-01   1.8334E-01   3.5702E-06  0.1126
   1.8334E-01   1.8781E-01   3.6783E-06  0.1094
   1.8781E-01   1.9237E-01   4.5104E-06  0.0972
   1.9237E-01   1.9706E-01   3.7540E-06  0.1059
   1.9706E-01   2.0185E-01   4.0669E-06  0.1001
   2.0185E-01   2.0676E-01   4.0975E-06  0.0988
   2.0676E-01   2.1179E-01   4.0562E-06  0.0986
   2.1179E-01   2.1694E-01   4.7937E-06  0.0896
   2.1694E-01   2.2222E-01   4.0144E-06  0.0967
   2.2222E-01   2.2763E-01   4.2992E-06  0.0921
   2.2763E-01   2.3317E-01   3.9284E-06  0.0951
   2.3317E-01   2.3884E-01   4.9661E-06  0.0837
   2.3884E-01   2.4465E-01   3.9604E-06  0.0927
   2.4465E-01   2.5061E-01   4.2762E-06  0.0877
   2.5061E-01   2.5670E-01   4.7187E-06  0.0822
   2.5670E-01   2.6295E-01   5.1338E-06  0.0787
   2.6295E-01   2.6935E-01   5.2926E-06  0.0762
   2.6935E-01   2.7590E-01   4.5197E-06  0.0817
   2.7590E-01   2.8261E-01   6.0421E-06  0.0700
   2.8261E-01   2.8949E-01   5.1411E-06  0.0750
   2.8949E-01   2.9653E-01   4.1756E-06  0.0821
   2.9653E-01   3.0375E-01   5.1963E-06  0.0727
   3.0375E-01   3.1114E-01   4.5088E-06  0.0771
   3.1114E-01   3.1871E-01   4.5856E-06  0.0756
   3.1871E-01   3.2646E-01   5.4253E-06  0.0688
   3.2646E-01   3.3441E-01   5.4609E-06  0.0676
   3.3441E-01   3.4254E-01   4.6619E-06  0.0721
   3.4254E-01   3.5088E-01   5.1497E-06  0.0680
   3.5088E-01   3.5941E-01   4.7085E-06  0.0702
   3.5941E-01   3.6816E-01   5.2387E-06  0.0660
   3.6816E-01   3.7712E-01   4.4847E-06  0.0703
   3.7712E-01   3.8629E-01   4.9166E-06  0.0663
   3.8629E-01   3.9569E-01   4.9643E-06  0.0654
   3.9569E-01   4.0532E-01   5.0187E-06  0.0641
   4.0532E-01   4.1518E-01   5.5791E-06  0.0602
   4.1518E-01   4.2528E-01   4.3698E-06  0.0669
   4.2528E-01   4.3563E-01   4.9072E-06  0.0625
   4.3563E-01   4.4623E-01   5.1168E-06  0.0606
   4.4623E-01   4.5708E-01   4.7234E-06  0.0623
   4.5708E-01   4.6821E-01   4.9266E-06  0.0603
   4.6821E-01   4.7960E-01   4.6465E-06  0.0613
   4.7960E-01   4.9127E-01   4.7295E-06  0.0601
   4.9127E-01   5.0322E-01   4.5092E-06  0.0608
   5.0322E-01   5.1546E-01   4.5827E-06  0.0595
   5.1546E-01   5.2800E-01   4.6412E-06  0.0585
   5.2800E-01   5.4085E-01   4.8584E-06  0.0565
   5.4085E-01   5.5401E-01   5.1040E-06  0.0545
   5.5401E-01   5.6749E-01   4.9035E-06  0.0549
   5.6749E-01   5.8130E-01   4.4290E-06  0.0571
   5.8130E-01   5.9544E-01   4.7075E-06  0.0547
   5.9544E-01   6.0993E-01   4.6477E-06  0.0545
   6.0993E-01   6.2477E-01   4.1875E-06  0.0567
   6.2477E-01   6.3997E-01   4.8569E-06  0.0520
   6.3997E-01   6.5554E-01   4.4375E-06  0.0537
   6.5554E-01   6.7149E-01   4.3340E-06  0.0537
   6.7149E-01   6.8783E-01   4.1887E-06  0.0540
   6.8783E-01   7.0456E-01   4.7135E-06  0.0503
   7.0456E-01   7.2171E-01   4.3669E-06  0.0517
   7.2171E-01   7.3927E-01   4.7463E-06  0.0490
   7.3927E-01   7.5725E-01   4.6750E-06  0.0487
   7.5725E-01   7.7568E-01   4.9156E-06  0.0470
   7.7568E-01   7.9455E-01   4.7919E-06  0.0470
   7.9455E-01   8.1388E-01   4.5575E-06  0.0476
   8.1388E-01   8.3368E-01   4.7187E-06  0.0462
   8.3368E-01   8.5397E-01   4.4703E-06  0.0469
   8.5397E-01   8.7475E-01   4.6797E-06  0.0453
   8.7475E-01   8.9603E-01   4.9049E-06  0.0437
   8.9603E-01   9.1783E-01   4.6466E-06  0.0444
   9.1783E-01   9.4016E-01   4.8072E-06  0.0431
   9.4016E-01   9.6304E-01   4.9673E-06  0.0419
   9.6304E-01   9.8647E-01   4.6081E-06  0.0430
   9.8647E-01   1.0105E+00   4.7584E-06  0.0418
   1.0105E+00   1.0351E+00   4.8140E-06  0.0411
   1.0351E+00   1.0602E+00   4.8386E-06  0.0405
   1.0602E+00   1.0860E+00   4.9738E-06  0.0395
   1.0860E+00   1.1125E+00   4.7234E-06  0.0400
   1.1125E+00   1.1395E+00   4.9287E-06  0.0387
   1.1395E+00   1.1673E+00   5.1549E-06  0.0373
   1.1673E+00   1.1957E+00   5.1711E-06  0.0369
   1.1957E+00   1.2247E+00   5.1510E-06  0.0365
   1.2247E+00   1.2545E+00   5.0903E-06  0.0363
   1.2545E+00   1.2851E+00   4.6616E-06  0.0374
   1.2851E+00   1.3163E+00   5.3361E-06  0.0345
   1.3163E+00   1.3484E+00   4.8952E-06  0.0356
   1.3484E+00   1.3812E+00   5.1021E-06  0.0345
   1.3812E+00   1.4148E+00   4.9412E-06  0.0346
   1.4148E+00   1.4492E+00   5.0329E-06  0.0339
   1.4492E+00   1.4845E+00   4.9946E-06  0.0336
   1.4845E+00   1.5206E+00   4.8395E-06  0.0338
   1.5206E+00   1.5576E+00   4.7192E-06  0.0338
   1.5576E+00   1.5955E+00   4.9071E-06  0.0327
   1.5955E+00   1.6343E+00   5.0809E-06  0.0318
   1.6343E+00   1.6741E+00   4.9965E-06  0.0317
   1.6741E+00   1.7148E+00   4.8570E-06  0.0317
   1.7148E+00   1.7565E+00   4.9396E-06  0.0311
   1.7565E+00   1.7992E+00   4.6219E-06  0.0318
   1.7992E+00   1.8430E+00   4.8639E-06  0.0306
   1.8430E+00   1.8879E+00   4.8216E-06  0.0304
   1.8879E+00   1.9338E+00   4.9285E-06  0.0297
   1.9338E+00   1.9808E+00   5.0147E-06  0.0290
   1.9808E+00   2.0290E+00   4.6410E-06  0.0298
   2.0290E+00   2.0784E+00   4.9537E-06  0.0285
   2.0784E+00   2.1290E+00   4.6639E-06  0.0290
   2.1290E+00   2.1808E+00   4.7230E-06  0.0285
   2.1808E+00   2.2338E+00   4.6212E-06  0.0285
   2.2338E+00   2.2882E+00   4.6342E-06  0.0281
   2.2882E+00   2.3439E+00   4.6611E-06  0.0277
   2.3439E+00   2.4009E+00   4.5467E-06  0.0277
   2.4009E+00   2.4593E+00   4.6610E-06  0.0270
   2.4593E+00   2.5191E+00   4.6970E-06  0.0266
   2.5191E+00   2.5804E+00   4.3558E-06  0.0273
   2.5804E+00   2.6432E+00   4.5317E-06  0.0264
   2.6432E+00   2.7075E+00   4.1102E-06  0.0274
   2.7075E+00   2.7734E+00   4.4492E-06  0.0260
   2.7734E+00   2.8409E+00   4.4903E-06  0.0256
   2.8409E+00   2.9100E+00   4.3568E-06  0.0257
   2.9100E+00   2.9808E+00   4.4916E-06  0.0250
   2.9808E+00   3.0533E+00   4.1101E-06  0.0258
   3.0533E+00   3.1276E+00   4.2363E-06  0.0251
   3.1276E+00   3.2037E+00   4.1035E-06  0.0252
   3.2037E+00   3.2817E+00   4.1146E-06  0.0249
   3.2817E+00   3.3615E+00   4.2078E-06  0.0243
   3.3615E+00   3.4433E+00   4.0284E-06  0.0246
   3.4433E+00   3.5271E+00   3.8561E-06  0.0248
   3.5271E+00   3.6129E+00   4.1740E-06  0.0235
   3.6129E+00   3.7008E+00   3.8237E-06  0.0243
   3.7008E+00   3.7908E+00   3.7274E-06  0.0243
   3.7908E+00   3.8831E+00   3.7761E-06  0.0239
   3.8831E+00   3.9776E+00   3.7192E-06  0.0238
   3.9776E+00   4.0743E+00   3.8501E-06  0.0231
   4.0743E+00   4.1735E+00   3.6019E-06  0.0236
   4.1735E+00   4.2750E+00   3.5106E-06  0.0236
   4.2750E+00   4.3790E+00   3.5512E-06  0.0232
   4.3790E+00   4.4856E+00   3.5726E-06  0.0228
   4.4856E+00   4.5947E+00   3.5442E-06  0.0227
   4.5947E+00   4.7065E+00   3.4574E-06  0.0227
   4.7065E+00   4.8210E+00   3.4001E-06  0.0226
   4.8210E+00   4.9383E+00   3.4792E-06  0.0221
   4.9383E+00   5.0585E+00   3.5664E-06  0.0215
   5.0585E+00   5.1815E+00   3.8070E-06  0.0206
   5.1815E+00   5.3076E+00   3.7641E-06  0.0205
   5.3076E+00   5.4368E+00   3.7316E-06  0.0203
   5.4368E+00   5.5690E+00   3.6877E-06  0.0202
   5.5690E+00   5.7045E+00   3.6350E-06  0.0201
   5.7045E+00   5.8433E+00   3.5506E-06  0.0201
   5.8433E+00   5.9855E+00   3.6699E-06  0.0195
   5.9855E+00   6.1311E+00   3.4736E-06  0.0198
   6.1311E+00   6.2803E+00   3.3804E-06  0.0199
   6.2803E+00   6.4331E+00   3.4094E-06  0.0196
   6.4331E+00   6.5896E+00   3.5141E-06  0.0190
   6.5896E+00   6.7500E+00   3.4259E-06  0.0190
   6.7500E+00   6.9142E+00   3.4471E-06  0.0188
   6.9142E+00   7.0824E+00   3.3143E-06  0.0189
   7.0824E+00   7.2548E+00   3.3668E-06  0.0185
   7.2548E+00   7.4313E+00   3.3886E-06  0.0183
   7.4313E+00   7.6121E+00   3.3274E-06  0.0182
   7.6121E+00   7.7973E+00   3.3483E-06  0.0179
   7.7973E+00   7.9870E+00   3.2508E-06  0.0180
   7.9870E+00   8.1813E+00   3.3968E-06  0.0174
   8.1813E+00   8.3804E+00   3.3253E-06  0.0174
   8.3804E+00   8.5843E+00   3.3187E-06  0.0172
   8.5843E+00   8.7931E+00   3.2471E-06  0.0171
   8.7931E+00   9.0071E+00   3.2923E-06  0.0168
   9.0071E+00   9.2262E+00   3.2450E-06  0.0168
   9.2262E+00   9.4507E+00   3.4072E-06  0.0162
   9.4507E+00   9.6807E+00   3.2431E-06  0.0164
   9.6807E+00   9.9162E+00   3.1983E-06  0.0163
   9.9162E+00   1.0157E+01   3.2751E-06  0.0159
   1.0157E+01   1.0405E+01   3.2667E-06  0.0157
   1.0405E+01   1.0658E+01   3.2553E-06  0.0156
   1.0658E+01   1.0917E+01   3.2389E-06  0.0154
   1.0917E+01   1.1183E+01   3.1921E-06  0.0153
   1.1183E+01   1.1455E+01   3.0663E-06  0.0155
   1.1455E+01   1.1733E+01   3.1358E-06  0.0151
   1.1733E+01   1.2019E+01   3.0966E-06  0.0150
   1.2019E+01   1.2311E+01   3.1179E-06  0.0148
   1.2311E+01   1.2611E+01   3.0557E-06  0.0148
   1.2611E+01   1.2918E+01   3.0245E-06  0.0147
   1.2918E+01   1.3232E+01   3.0236E-06  0.0145
   1.3232E+01   1.3554E+01   3.1017E-06  0.0141
   1.3554E+01   1.3884E+01   3.0855E-06  0.0140
   1.3884E+01   1.4222E+01   3.0927E-06  0.0138
   1.4222E+01   1.4568E+01   3.1015E-06  0.0136
   1.4568E+01   1.4922E+01   3.0100E-06  0.0137
   1.4922E+01   1.5285E+01   3.0288E-06  0.0135
   1.5285E+01   1.5657E+01   3.3751E-06  0.0126
   1.5657E+01   1.6038E+01   3.8275E-06  0.0117
   1.6038E+01   1.6428E+01   3.9131E-06  0.0114
   1.6428E+01   1.6828E+01   3.8051E-06  0.0115
   1.6828E+01   1.7237E+01   3.8590E-06  0.0112
   1.7237E+01   1.7657E+01   3.8490E-06  0.0111
   1.7657E+01   1.8086E+01   3.7553E-06  0.0111
   1.8086E+01   1.8526E+01   3.7316E-06  0.0110
   1.8526E+01   1.8977E+01   3.7138E-06  0.0109
   1.8977E+01   1.9439E+01   3.6757E-06  0.0109
   1.9439E+01   1.9912E+01   3.6886E-06  0.0107
   1.9912E+01   2.0396E+01   3.6308E-06  0.0107
   2.0396E+01   2.0893E+01   3.6211E-06  0.0105
   2.0893E+01   2.1401E+01   3.6555E-06  0.0104
   2.1401E+01   2.1922E+01   3.6336E-06  0.0103
   2.1922E+01   2.2455E+01   3.5038E-06  0.0103
   2.2455E+01   2.3001E+01   3.5856E-06  0.0101
   2.3001E+01   2.3561E+01   3.5123E-06  0.0101
   2.3561E+01   2.4134E+01   3.5105E-06  0.0100
   2.4134E+01   2.4721E+01   3.4880E-06  0.0099
   2.4721E+01   2.5323E+01   3.5202E-06  0.0097
   2.5323E+01   2.5939E+01   3.3422E-06  0.0099
   2.5939E+01   2.6570E+01   2.8597E-06  0.0105
   2.6570E+01   2.7217E+01   2.7896E-06  0.0105
   2.7217E+01   2.7879E+01   2.7490E-06  0.0105
   2.7879E+01   2.8557E+01   1.0582E-06  0.0167
   2.8557E+01   2.9252E+01   2.8784E-10  1.0000
   2.9252E+01   2.9964E+01   0.0000E+00  0.0000
   2.9964E+01   3.0693E+01   0.0000E+00  0.0000
   3.0693E+01   3.1440E+01   0.0000E+00  0.0000
   3.1440E+01   3.2205E+01   0.0000E+00  0.0000
   3.2205E+01   3.2988E+01   0.0000E+00  0.0000
   3.2988E+01   3.3791E+01   0.0000E+00  0.0000
   3.3791E+01   3.4613E+01   0.0000E+00  0.0000
   3.4613E+01   3.5455E+01   0.0000E+00  0.0000
   3.5455E+01   3.6318E+01   0.0000E+00  0.0000
   3.6318E+01   3.7201E+01   0.0000E+00  0.0000
   3.7201E+01   3.8106E+01   0.0000E+00  0.0000
   3.8106E+01   3.9034E+01   0.0000E+00  0.0000
   3.9034E+01   3.9983E+01   0.0000E+00  0.0000
   3.9983E+01   4.0956E+01   0.0000E+00  0.0000
   4.0956E+01   4.1953E+01   0.0000E+00  0.0000
   4.1953E+01   4.2973E+01   0.0000E+00  0.0000
   4.2973E+01   4.4019E+01   0.0000E+00  0.0000
   4.4019E+01   4.5090E+01   0.0000E+00  0.0000
   4.5090E+01   4.6187E+01   0.0000E+00  0.0000
   4.6187E+01   4.7311E+01   0.0000E+00  0.0000
   4.7311E+01   4.8462E+01   0.0000E+00  0.0000
   4.8462E+01   4.9641E+01   0.0000E+00  0.0000
   4.9641E+01   5.0849E+01   0.0000E+00  0.0000
   5.0849E+01   5.2086E+01   0.0000E+00  0.0000
   5.2086E+01   5.3353E+01   0.0000E+00  0.0000
   5.3353E+01   5.4651E+01   0.0000E+00  0.0000
   5.4651E+01   5.5981E+01   0.0000E+00  0.0000
   5.5981E+01   5.7343E+01   0.0000E+00  0.0000
   5.7343E+01   5.8738E+01   0.0000E+00  0.0000
   5.8738E+01   6.0168E+01   0.0000E+00  0.0000
   6.0168E+01   6.1632E+01   0.0000E+00  0.0000
   6.1632E+01   6.3131E+01   0.0000E+00  0.0000
   6.3131E+01   6.4667E+01   0.0000E+00  0.0000
   6.4667E+01   6.6240E+01   0.0000E+00  0.0000
   6.6240E+01   6.7852E+01   0.0000E+00  0.0000
   6.7852E+01   6.9503E+01   0.0000E+00  0.0000
   6.9503E+01   7.1194E+01   0.0000E+00  0.0000
   7.1194E+01   7.2926E+01   0.0000E+00  0.0000
   7.2926E+01   7.4701E+01   0.0000E+00  0.0000
   7.4701E+01   7.6518E+01   0.0000E+00  0.0000
   7.6518E+01   7.8380E+01   0.0000E+00  0.0000
   7.8380E+01   8.0287E+01   0.0000E+00  0.0000
   8.0287E+01   8.2240E+01   0.0000E+00  0.0000
   8.2240E+01   8.4241E+01   0.0000E+00  0.0000
   8.4241E+01   8.6291E+01   0.0000E+00  0.0000
   8.6291E+01   8.8391E+01   0.0000E+00  0.0000
   8.8391E+01   9.0541E+01   0.0000E+00  0.0000
   9.0541E+01   9.2744E+01   0.0000E+00  0.0000
   9.2744E+01   9.5001E+01   0.0000E+00  0.0000
   9.5001E+01   9.7312E+01   0.0000E+00  0.0000
   9.7312E+01   9.9680E+01   0.0000E+00  0.0000
   9.9680E+01   1.0211E+02   0.0000E+00  0.0000
   1.0211E+02   1.0459E+02   0.0000E+00  0.0000
   1.0459E+02   1.0713E+02   0.0000E+00  0.0000
   1.0713E+02   1.0974E+02   0.0000E+00  0.0000
   1.0974E+02   1.1241E+02   0.0000E+00  0.0000
   1.1241E+02   1.1515E+02   0.0000E+00  0.0000
   1.1515E+02   1.1795E+02   0.0000E+00  0.0000
   1.1795E+02   1.2082E+02   0.0000E+00  0.0000
   1.2082E+02   1.2376E+02   0.0000E+00  0.0000
   1.2376E+02   1.2677E+02   0.0000E+00  0.0000
   1.2677E+02   1.2985E+02   0.0000E+00  0.0000
   1.2985E+02   1.3301E+02   0.0000E+00  0.0000
   1.3301E+02   1.3625E+02   0.0000E+00  0.0000
   1.3625E+02   1.3956E+02   0.0000E+00  0.0000
   1.3956E+02   1.4296E+02   0.0000E+00  0.0000
   1.4296E+02   1.4644E+02   0.0000E+00  0.0000
   1.4644E+02   1.5000E+02   0.0000E+00  0.0000

#   sum over                 6.6275E-07
'no. =    1   reg = 100 - 200'
msuc: {\huge [t-cross] in region mesh}
msdr: {\it plotted by \ANGEL \version}
msdl: {\it calculated by \PHITS  3.26}
wt: s(0.7)
\vspace{-3}
  region surface crossing
  area  &=&   1.0000E+00 [cm^2]
e:
 
# Information for Restart Calculation
# This calculation was newly started
# istdev =  2 # 1:Batch variance, 2:History variance
# resc2  = 5.00000000000000000E+09 # Total source weight or Total source weight / maxcas
# resc3  = 5.00000000000000000E+09 # Total history number or Total batch number
# maxcas =   100000000 # History / Batch, only used for istdev=1
# bitrseed = 0110100000100010111000001110001111001110100100011111101000111001 # bit data of rseed
