[ T-Cross ]
    title = [t-cross] in region mesh
     mesh =  reg            # mesh type is region-wise
      reg =    1            # number of crossing regions
      non     r-from    r-to       area
      1       107       207        1.000000    
   e-type =    3            # e-mesh is log given by emin, emax and ne
     emin =  1.0000000E-02  # minimum value of e-mesh points
     emax =   150.0000      # maximum value of e-mesh points
#    edel =  2.4039514E-02  # mesh width of e-mesh points
       ne =    400          # number of e-mesh points
#    data = ( e(i), i = 1, ne + 1 )
#           1.00000E-02  1.02433E-02  1.04925E-02  1.07478E-02  1.10093E-02
#           1.12772E-02  1.15516E-02  1.18326E-02  1.21205E-02  1.24154E-02
#           1.27175E-02  1.30269E-02  1.33439E-02  1.36686E-02  1.40011E-02
#           1.43418E-02  1.46907E-02  1.50482E-02  1.54143E-02  1.57894E-02
#           1.61735E-02  1.65670E-02  1.69701E-02  1.73830E-02  1.78060E-02
#           1.82392E-02  1.86830E-02  1.91375E-02  1.96032E-02  2.00801E-02
#           2.05687E-02  2.10692E-02  2.15818E-02  2.21069E-02  2.26448E-02
#           2.31957E-02  2.37601E-02  2.43382E-02  2.49304E-02  2.55369E-02
#           2.61583E-02  2.67947E-02  2.74467E-02  2.81145E-02  2.87985E-02
#           2.94992E-02  3.02169E-02  3.09521E-02  3.17052E-02  3.24766E-02
#           3.32668E-02  3.40762E-02  3.49053E-02  3.57546E-02  3.66246E-02
#           3.75157E-02  3.84284E-02  3.93634E-02  4.03212E-02  4.13022E-02
#           4.23071E-02  4.33365E-02  4.43909E-02  4.54710E-02  4.65773E-02
#           4.77106E-02  4.88714E-02  5.00605E-02  5.12785E-02  5.25262E-02
#           5.38042E-02  5.51133E-02  5.64542E-02  5.78278E-02  5.92348E-02
#           6.06760E-02  6.21523E-02  6.36645E-02  6.52135E-02  6.68002E-02
#           6.84255E-02  7.00904E-02  7.17957E-02  7.35426E-02  7.53319E-02
#           7.71648E-02  7.90423E-02  8.09655E-02  8.29354E-02  8.49533E-02
#           8.70203E-02  8.91376E-02  9.13064E-02  9.35279E-02  9.58035E-02
#           9.81345E-02  1.00522E-01  1.02968E-01  1.05473E-01  1.08040E-01
#           1.10668E-01  1.13361E-01  1.16119E-01  1.18944E-01  1.21838E-01
#           1.24803E-01  1.27839E-01  1.30950E-01  1.34136E-01  1.37399E-01
#           1.40742E-01  1.44167E-01  1.47675E-01  1.51268E-01  1.54948E-01
#           1.58718E-01  1.62580E-01  1.66535E-01  1.70587E-01  1.74738E-01
#           1.78989E-01  1.83344E-01  1.87805E-01  1.92375E-01  1.97055E-01
#           2.01850E-01  2.06761E-01  2.11792E-01  2.16945E-01  2.22223E-01
#           2.27630E-01  2.33169E-01  2.38842E-01  2.44653E-01  2.50605E-01
#           2.56703E-01  2.62949E-01  2.69346E-01  2.75900E-01  2.82613E-01
#           2.89489E-01  2.96532E-01  3.03747E-01  3.11138E-01  3.18708E-01
#           3.26462E-01  3.34405E-01  3.42542E-01  3.50876E-01  3.59413E-01
#           3.68158E-01  3.77116E-01  3.86291E-01  3.95690E-01  4.05317E-01
#           4.15179E-01  4.25281E-01  4.35628E-01  4.46227E-01  4.57084E-01
#           4.68205E-01  4.79597E-01  4.91266E-01  5.03219E-01  5.15463E-01
#           5.28005E-01  5.40851E-01  5.54011E-01  5.67490E-01  5.81298E-01
#           5.95441E-01  6.09929E-01  6.24769E-01  6.39970E-01  6.55541E-01
#           6.71491E-01  6.87828E-01  7.04564E-01  7.21706E-01  7.39266E-01
#           7.57253E-01  7.75678E-01  7.94551E-01  8.13883E-01  8.33685E-01
#           8.53969E-01  8.74747E-01  8.96030E-01  9.17831E-01  9.40163E-01
#           9.63038E-01  9.86469E-01  1.01047E+00  1.03506E+00  1.06024E+00
#           1.08604E+00  1.11246E+00  1.13953E+00  1.16725E+00  1.19565E+00
#           1.22474E+00  1.25454E+00  1.28507E+00  1.31633E+00  1.34836E+00
#           1.38117E+00  1.41477E+00  1.44920E+00  1.48446E+00  1.52057E+00
#           1.55757E+00  1.59547E+00  1.63429E+00  1.67405E+00  1.71478E+00
#           1.75650E+00  1.79924E+00  1.84302E+00  1.88786E+00  1.93379E+00
#           1.98084E+00  2.02904E+00  2.07841E+00  2.12898E+00  2.18078E+00
#           2.23384E+00  2.28819E+00  2.34386E+00  2.40089E+00  2.45930E+00
#           2.51914E+00  2.58043E+00  2.64322E+00  2.70753E+00  2.77341E+00
#           2.84088E+00  2.91001E+00  2.98081E+00  3.05333E+00  3.12762E+00
#           3.20372E+00  3.28167E+00  3.36152E+00  3.44330E+00  3.52708E+00
#           3.61290E+00  3.70080E+00  3.79085E+00  3.88308E+00  3.97756E+00
#           4.07434E+00  4.17347E+00  4.27501E+00  4.37903E+00  4.48557E+00
#           4.59471E+00  4.70650E+00  4.82102E+00  4.93832E+00  5.05847E+00
#           5.18155E+00  5.30762E+00  5.43676E+00  5.56904E+00  5.70453E+00
#           5.84333E+00  5.98550E+00  6.13114E+00  6.28031E+00  6.43312E+00
#           6.58964E+00  6.74997E+00  6.91420E+00  7.08243E+00  7.25475E+00
#           7.43126E+00  7.61207E+00  7.79728E+00  7.98700E+00  8.18133E+00
#           8.38038E+00  8.58428E+00  8.79315E+00  9.00709E+00  9.22624E+00
#           9.45072E+00  9.68067E+00  9.91620E+00  1.01575E+01  1.04046E+01
#           1.06578E+01  1.09171E+01  1.11827E+01  1.14548E+01  1.17335E+01
#           1.20190E+01  1.23114E+01  1.26109E+01  1.29178E+01  1.32321E+01
#           1.35540E+01  1.38838E+01  1.42216E+01  1.45676E+01  1.49221E+01
#           1.52851E+01  1.56570E+01  1.60380E+01  1.64282E+01  1.68279E+01
#           1.72374E+01  1.76568E+01  1.80864E+01  1.85264E+01  1.89772E+01
#           1.94389E+01  1.99119E+01  2.03963E+01  2.08926E+01  2.14009E+01
#           2.19216E+01  2.24550E+01  2.30014E+01  2.35610E+01  2.41343E+01
#           2.47215E+01  2.53230E+01  2.59391E+01  2.65702E+01  2.72167E+01
#           2.78789E+01  2.85572E+01  2.92520E+01  2.99637E+01  3.06928E+01
#           3.14396E+01  3.22045E+01  3.29881E+01  3.37907E+01  3.46128E+01
#           3.54550E+01  3.63177E+01  3.72013E+01  3.81064E+01  3.90336E+01
#           3.99833E+01  4.09561E+01  4.19526E+01  4.29734E+01  4.40189E+01
#           4.50900E+01  4.61870E+01  4.73108E+01  4.84619E+01  4.96410E+01
#           5.08488E+01  5.20860E+01  5.33533E+01  5.46514E+01  5.59812E+01
#           5.73432E+01  5.87384E+01  6.01676E+01  6.16315E+01  6.31311E+01
#           6.46671E+01  6.62405E+01  6.78522E+01  6.95031E+01  7.11941E+01
#           7.29263E+01  7.47007E+01  7.65182E+01  7.83800E+01  8.02870E+01
#           8.22405E+01  8.42414E+01  8.62911E+01  8.83906E+01  9.05412E+01
#           9.27442E+01  9.50007E+01  9.73122E+01  9.96799E+01  1.02105E+02
#           1.04589E+02  1.07134E+02  1.09741E+02  1.12411E+02  1.15146E+02
#           1.17948E+02  1.20817E+02  1.23757E+02  1.26768E+02  1.29852E+02
#           1.33012E+02  1.36248E+02  1.39563E+02  1.42959E+02  1.46437E+02
#           1.50000E+02
     unit =    2            # unit is [1/cm^2/(MeV/n)/source]
     axis =  eng            # axis of output
     file = detector-08.out  # file name of output for the above axis
   output = f-curr          # surface crossing forward current spectrum
     part =  neutron  
# kf/name :  2112     
#    used :        main (  %)        temp (  %)       total (  %)
#  memory :         414 (  0)           0 (  0)         414 (  0)

#------------------------------------------------------------------------------
#newpage:
#   no. =    1   reg = 107 - 207

x: Energy [MeV/n]
y:  F-Curr [1/cm^2/(MeV/n)/source]         
p: xlog ylog afac(0.8) form(0.9)
h: n            x            y(neutron ),hh0l   n 
#  e-lower      e-upper      neutron     r.err 
   1.0000E-02   1.0243E-02   1.0882E-05  0.3813
   1.0243E-02   1.0493E-02   1.1224E-05  0.3780
   1.0493E-02   1.0748E-02   1.2495E-05  0.3536
   1.0748E-02   1.1009E-02   1.2214E-05  0.3536
   1.1009E-02   1.1277E-02   1.6148E-05  0.3019
   1.1277E-02   1.1552E-02   1.9752E-05  0.2679
   1.1552E-02   1.1833E-02   1.9996E-05  0.2642
   1.1833E-02   1.2121E-02   8.2987E-06  0.4083
   1.2121E-02   1.2415E-02   1.4883E-05  0.3015
   1.2415E-02   1.2718E-02   1.0557E-05  0.3536
   1.2718E-02   1.3027E-02   1.3086E-05  0.3121
   1.3027E-02   1.3344E-02   1.2593E-05  0.3162
   1.3344E-02   1.3669E-02   7.3812E-06  0.4082
   1.3669E-02   1.4001E-02   1.1778E-05  0.3167
   1.4001E-02   1.4342E-02   9.1247E-06  0.3546
   1.4342E-02   1.4691E-02   6.8512E-06  0.4082
   1.4691E-02   1.5048E-02   1.1160E-05  0.3162
   1.5048E-02   1.5414E-02   6.0735E-06  0.4120
   1.5414E-02   1.5789E-02   1.0349E-05  0.3113
   1.5789E-02   1.6174E-02   8.4602E-06  0.3437
   1.6174E-02   1.6567E-02   6.0840E-06  0.4082
   1.6567E-02   1.6970E-02   4.9490E-06  0.4472
   1.6970E-02   1.7383E-02   8.0107E-06  0.3427
   1.7383E-02   1.7806E-02   9.7255E-06  0.3084
   1.7806E-02   1.8239E-02   1.2401E-05  0.2693
   1.8239E-02   1.8683E-02   7.0933E-06  0.3537
   1.8683E-02   1.9138E-02   9.7608E-06  0.2965
   1.9138E-02   1.9603E-02   5.1498E-06  0.4082
   1.9603E-02   2.0080E-02   9.0593E-06  0.3017
   2.0080E-02   2.0569E-02   8.8546E-06  0.3018
   2.0569E-02   2.1069E-02   9.4523E-06  0.2889
   2.1069E-02   2.1582E-02   8.2424E-06  0.3036
   2.1582E-02   2.2107E-02   6.0668E-06  0.3536
   2.2107E-02   2.2645E-02   5.7892E-06  0.3449
   2.2645E-02   2.3196E-02   7.1637E-06  0.3164
   2.3196E-02   2.3760E-02   6.9281E-06  0.3168
   2.3760E-02   2.4338E-02   6.8515E-06  0.3163
   2.4338E-02   2.4930E-02   3.3471E-06  0.4472
   2.4930E-02   2.5537E-02   6.5809E-06  0.3162
   2.5537E-02   2.6158E-02   5.1345E-06  0.3536
   2.6158E-02   2.6795E-02   9.3933E-06  0.2582
   2.6795E-02   2.7447E-02   5.9703E-06  0.3171
   2.7447E-02   2.8114E-02   4.7715E-06  0.3536
   2.8114E-02   2.8799E-02   8.1736E-06  0.2673
   2.8799E-02   2.9499E-02   4.5489E-06  0.3536
   2.9499E-02   3.0217E-02   4.5250E-06  0.3427
   3.0217E-02   3.0952E-02   3.0648E-06  0.4104
   3.0952E-02   3.1705E-02   7.6417E-06  0.2590
   3.1705E-02   3.2477E-02   5.6121E-06  0.3019
   3.2477E-02   3.3267E-02   4.4689E-06  0.3338
   3.3267E-02   3.4076E-02   6.0990E-06  0.2788
   3.4076E-02   3.4905E-02   6.7365E-06  0.2673
   3.4905E-02   3.5755E-02   3.7545E-06  0.3536
   3.5755E-02   3.6625E-02   2.2906E-06  0.4472
   3.6625E-02   3.7516E-02   3.1369E-06  0.3780
   3.7516E-02   3.8428E-02   3.3385E-06  0.3564
   3.8428E-02   3.9363E-02   4.2317E-06  0.3163
   3.9363E-02   4.0321E-02   2.5027E-06  0.4082
   4.0321E-02   4.1302E-02   6.8540E-06  0.2427
   4.1302E-02   4.2307E-02   5.4992E-06  0.2675
   4.2307E-02   4.3337E-02   2.3273E-06  0.4082
   4.3337E-02   4.4391E-02   2.6471E-06  0.3780
   4.4391E-02   4.5471E-02   2.9586E-06  0.3536
   4.5471E-02   4.6577E-02   4.3225E-06  0.2887
   4.6577E-02   4.7711E-02   3.1548E-06  0.3283
   4.7711E-02   4.8871E-02   2.6248E-06  0.3548
   4.8871E-02   5.0061E-02   1.3159E-06  0.5003
   5.0061E-02   5.1279E-02   4.0089E-06  0.2796
   5.1279E-02   5.2526E-02   2.0747E-06  0.3810
   5.2526E-02   5.3804E-02   1.2478E-06  0.5000
   5.3804E-02   5.5113E-02   2.8048E-06  0.3269
   5.5113E-02   5.6454E-02   3.5152E-06  0.2892
   5.6454E-02   5.7828E-02   2.3239E-06  0.3536
   5.7828E-02   5.9235E-02   2.4393E-06  0.3341
   5.9235E-02   6.0676E-02   4.0506E-06  0.2586
   6.0676E-02   6.2152E-02   2.6300E-06  0.3114
   6.2152E-02   6.3665E-02   3.3906E-06  0.2776
   6.3665E-02   6.5214E-02   2.8325E-06  0.2954
   6.5214E-02   6.6800E-02   2.9698E-06  0.2891
   6.6800E-02   6.8426E-02   2.1047E-06  0.3365
   6.8426E-02   7.0090E-02   2.1191E-06  0.3337
   7.0090E-02   7.1796E-02   3.0419E-06  0.2774
   7.1796E-02   7.3543E-02   2.0562E-06  0.3333
   7.3543E-02   7.5332E-02   8.9308E-07  0.5000
   7.5332E-02   7.7165E-02   2.6108E-06  0.2887
   7.7165E-02   7.9042E-02   2.1243E-06  0.3162
   7.9042E-02   8.0965E-02   1.2430E-06  0.4083
   8.0965E-02   8.2935E-02   2.8147E-06  0.2673
   8.2935E-02   8.4953E-02   1.9779E-06  0.3162
   8.4953E-02   8.7020E-02   1.7901E-06  0.3247
   8.7020E-02   8.9138E-02   2.4318E-06  0.2774
   8.9138E-02   9.1306E-02   2.7617E-06  0.2582
   9.1306E-02   9.3528E-02   2.2494E-06  0.2796
   9.3528E-02   9.5804E-02   2.1052E-06  0.2887
   9.5804E-02   9.8134E-02   2.3632E-06  0.2676
   9.8134E-02   1.0052E-01   1.6696E-06  0.3162
   1.0052E-01   1.0297E-01   2.1206E-06  0.2774
   1.0297E-01   1.0547E-01   3.1313E-06  0.2219
   1.0547E-01   1.0804E-01   1.5442E-06  0.3163
   1.0804E-01   1.1067E-01   3.5990E-06  0.2043
   1.1067E-01   1.1336E-01   1.6190E-06  0.3016
   1.1336E-01   1.1612E-01   2.1928E-06  0.2557
   1.1612E-01   1.1894E-01   1.5521E-06  0.3015
   1.1894E-01   1.2184E-01   3.7192E-06  0.1915
   1.2184E-01   1.2480E-01   3.1272E-06  0.2050
   1.2480E-01   1.2784E-01   4.1930E-06  0.1768
   1.2784E-01   1.3095E-01   3.5369E-06  0.1892
   1.3095E-01   1.3414E-01   4.5811E-06  0.1634
   1.3414E-01   1.3740E-01   3.7702E-06  0.1788
   1.3740E-01   1.4074E-01   4.0093E-06  0.1703
   1.4074E-01   1.4417E-01   4.3780E-06  0.1624
   1.4417E-01   1.4767E-01   5.5555E-06  0.1429
   1.4767E-01   1.5127E-01   5.4279E-06  0.1429
   1.5127E-01   1.5495E-01   4.4356E-06  0.1549
   1.5495E-01   1.5872E-01   3.4383E-06  0.1724
   1.5872E-01   1.6258E-01   5.1329E-06  0.1409
   1.6258E-01   1.6654E-01   4.4250E-06  0.1502
   1.6654E-01   1.7059E-01   5.9480E-06  0.1272
   1.7059E-01   1.7474E-01   6.3832E-06  0.1223
   1.7474E-01   1.7899E-01   5.2065E-06  0.1334
   1.7899E-01   1.8334E-01   8.1301E-06  0.1056
   1.8334E-01   1.8781E-01   8.0128E-06  0.1055
   1.8781E-01   1.9237E-01   7.2373E-06  0.1092
   1.9237E-01   1.9706E-01   8.2864E-06  0.1011
   1.9706E-01   2.0185E-01   8.1296E-06  0.1005
   2.0185E-01   2.0676E-01   7.4010E-06  0.1044
   2.0676E-01   2.1179E-01   8.2894E-06  0.0973
   2.1179E-01   2.1694E-01   8.9423E-06  0.0927
   2.1694E-01   2.2222E-01   1.0124E-05  0.0859
   2.2222E-01   2.2763E-01   9.5004E-06  0.0879
   2.2763E-01   2.3317E-01   1.0106E-05  0.0839
   2.3317E-01   2.3884E-01   1.0448E-05  0.0817
   2.3884E-01   2.4465E-01   9.2179E-06  0.0861
   2.4465E-01   2.5061E-01   1.1047E-05  0.0775
   2.5061E-01   2.5670E-01   1.2947E-05  0.0708
   2.5670E-01   2.6295E-01   1.3530E-05  0.0686
   2.6295E-01   2.6935E-01   1.4379E-05  0.0656
   2.6935E-01   2.7590E-01   1.3938E-05  0.0657
   2.7590E-01   2.8261E-01   1.3045E-05  0.0672
   2.8261E-01   2.8949E-01   1.5461E-05  0.0609
   2.8949E-01   2.9653E-01   1.6164E-05  0.0591
   2.9653E-01   3.0375E-01   1.5944E-05  0.0586
   3.0375E-01   3.1114E-01   1.7448E-05  0.0553
   3.1114E-01   3.1871E-01   1.7460E-05  0.0548
   3.1871E-01   3.2646E-01   2.0245E-05  0.0502
   3.2646E-01   3.3441E-01   1.9091E-05  0.0511
   3.3441E-01   3.4254E-01   2.3233E-05  0.0458
   3.4254E-01   3.5088E-01   2.1445E-05  0.0471
   3.5088E-01   3.5941E-01   2.3039E-05  0.0449
   3.5941E-01   3.6816E-01   2.3591E-05  0.0438
   3.6816E-01   3.7712E-01   2.6155E-05  0.0411
   3.7712E-01   3.8629E-01   2.7349E-05  0.0397
   3.8629E-01   3.9569E-01   2.8279E-05  0.0386
   3.9569E-01   4.0532E-01   2.9246E-05  0.0375
   4.0532E-01   4.1518E-01   3.1232E-05  0.0359
   4.1518E-01   4.2528E-01   3.1297E-05  0.0354
   4.2528E-01   4.3563E-01   3.4252E-05  0.0334
   4.3563E-01   4.4623E-01   3.6619E-05  0.0320
   4.4623E-01   4.5708E-01   3.6393E-05  0.0316
   4.5708E-01   4.6821E-01   3.6900E-05  0.0310
   4.6821E-01   4.7960E-01   3.9114E-05  0.0298
   4.7960E-01   4.9127E-01   3.7391E-05  0.0301
   4.9127E-01   5.0322E-01   4.1994E-05  0.0281
   5.0322E-01   5.1546E-01   4.7235E-05  0.0261
   5.1546E-01   5.2800E-01   4.5048E-05  0.0265
   5.2800E-01   5.4085E-01   4.9573E-05  0.0249
   5.4085E-01   5.5401E-01   4.8993E-05  0.0248
   5.5401E-01   5.6749E-01   5.3810E-05  0.0234
   5.6749E-01   5.8130E-01   5.2525E-05  0.0234
   5.8130E-01   5.9544E-01   5.4935E-05  0.0226
   5.9544E-01   6.0993E-01   5.7680E-05  0.0217
   6.0993E-01   6.2477E-01   5.9279E-05  0.0212
   6.2477E-01   6.3997E-01   6.1596E-05  0.0206
   6.3997E-01   6.5554E-01   6.3864E-05  0.0199
   6.5554E-01   6.7149E-01   6.4851E-05  0.0196
   6.7149E-01   6.8783E-01   6.4934E-05  0.0193
   6.8783E-01   7.0456E-01   6.9680E-05  0.0184
   7.0456E-01   7.2171E-01   7.1630E-05  0.0179
   7.2171E-01   7.3927E-01   7.6517E-05  0.0172
   7.3927E-01   7.5725E-01   7.7620E-05  0.0168
   7.5725E-01   7.7568E-01   7.8945E-05  0.0165
   7.7568E-01   7.9455E-01   8.1219E-05  0.0161
   7.9455E-01   8.1388E-01   8.2229E-05  0.0158
   8.1388E-01   8.3368E-01   8.5823E-05  0.0152
   8.3368E-01   8.5397E-01   8.7270E-05  0.0149
   8.5397E-01   8.7475E-01   8.8644E-05  0.0146
   8.7475E-01   8.9603E-01   8.8818E-05  0.0145
   8.9603E-01   9.1783E-01   9.0269E-05  0.0142
   9.1783E-01   9.4016E-01   9.0770E-05  0.0140
   9.4016E-01   9.6304E-01   9.2848E-05  0.0136
   9.6304E-01   9.8647E-01   9.1492E-05  0.0136
   9.8647E-01   1.0105E+00   9.2322E-05  0.0133
   1.0105E+00   1.0351E+00   9.3462E-05  0.0131
   1.0351E+00   1.0602E+00   9.1164E-05  0.0131
   1.0602E+00   1.0860E+00   9.5354E-05  0.0127
   1.0860E+00   1.1125E+00   9.6328E-05  0.0124
   1.1125E+00   1.1395E+00   9.6488E-05  0.0123
   1.1395E+00   1.1673E+00   1.0284E-04  0.0117
   1.1673E+00   1.1957E+00   1.0354E-04  0.0116
   1.1957E+00   1.2247E+00   1.0619E-04  0.0113
   1.2247E+00   1.2545E+00   1.0830E-04  0.0110
   1.2545E+00   1.2851E+00   1.1074E-04  0.0108
   1.2851E+00   1.3163E+00   1.1389E-04  0.0105
   1.3163E+00   1.3484E+00   1.1413E-04  0.0104
   1.3484E+00   1.3812E+00   1.1586E-04  0.0102
   1.3812E+00   1.4148E+00   1.1872E-04  0.0099
   1.4148E+00   1.4492E+00   1.2026E-04  0.0097
   1.4492E+00   1.4845E+00   1.2118E-04  0.0096
   1.4845E+00   1.5206E+00   1.2452E-04  0.0093
   1.5206E+00   1.5576E+00   1.2321E-04  0.0093
   1.5576E+00   1.5955E+00   1.2386E-04  0.0091
   1.5955E+00   1.6343E+00   1.2525E-04  0.0090
   1.6343E+00   1.6741E+00   1.2381E-04  0.0089
   1.6741E+00   1.7148E+00   1.2478E-04  0.0088
   1.7148E+00   1.7565E+00   1.2171E-04  0.0088
   1.7565E+00   1.7992E+00   1.1614E-04  0.0088
   1.7992E+00   1.8430E+00   1.0469E-04  0.0092
   1.8430E+00   1.8879E+00   9.8702E-05  0.0093
   1.8879E+00   1.9338E+00   9.6045E-05  0.0093
   1.9338E+00   1.9808E+00   9.4343E-05  0.0092
   1.9808E+00   2.0290E+00   9.3878E-05  0.0091
   2.0290E+00   2.0784E+00   9.4317E-05  0.0090
   2.0784E+00   2.1290E+00   9.8653E-05  0.0086
   2.1290E+00   2.1808E+00   1.0295E-04  0.0083
   2.1808E+00   2.2338E+00   1.1002E-04  0.0080
   2.2338E+00   2.2882E+00   1.0675E-04  0.0080
   2.2882E+00   2.3439E+00   1.0234E-04  0.0081
   2.3439E+00   2.4009E+00   1.0018E-04  0.0081
   2.4009E+00   2.4593E+00   9.9378E-05  0.0080
   2.4593E+00   2.5191E+00   9.9061E-05  0.0080
   2.5191E+00   2.5804E+00   1.0073E-04  0.0078
   2.5804E+00   2.6432E+00   1.0242E-04  0.0076
   2.6432E+00   2.7075E+00   1.0112E-04  0.0076
   2.7075E+00   2.7734E+00   1.0066E-04  0.0075
   2.7734E+00   2.8409E+00   1.0164E-04  0.0074
   2.8409E+00   2.9100E+00   1.0050E-04  0.0074
   2.9100E+00   2.9808E+00   9.9365E-05  0.0073
   2.9808E+00   3.0533E+00   1.0109E-04  0.0072
   3.0533E+00   3.1276E+00   9.9322E-05  0.0072
   3.1276E+00   3.2037E+00   9.9526E-05  0.0071
   3.2037E+00   3.2817E+00   9.8599E-05  0.0070
   3.2817E+00   3.3615E+00   9.9937E-05  0.0069
   3.3615E+00   3.4433E+00   9.9551E-05  0.0069
   3.4433E+00   3.5271E+00   9.9866E-05  0.0068
   3.5271E+00   3.6129E+00   9.8514E-05  0.0067
   3.6129E+00   3.7008E+00   9.9591E-05  0.0066
   3.7008E+00   3.7908E+00   9.8558E-05  0.0066
   3.7908E+00   3.8831E+00   9.9344E-05  0.0065
   3.8831E+00   3.9776E+00   9.6915E-05  0.0065
   3.9776E+00   4.0743E+00   9.6141E-05  0.0064
   4.0743E+00   4.1735E+00   9.5102E-05  0.0064
   4.1735E+00   4.2750E+00   9.4377E-05  0.0063
   4.2750E+00   4.3790E+00   9.2111E-05  0.0063
   4.3790E+00   4.4856E+00   9.1327E-05  0.0063
   4.4856E+00   4.5947E+00   8.9083E-05  0.0063
   4.5947E+00   4.7065E+00   8.9318E-05  0.0062
   4.7065E+00   4.8210E+00   8.8462E-05  0.0062
   4.8210E+00   4.9383E+00   8.7529E-05  0.0061
   4.9383E+00   5.0585E+00   8.6651E-05  0.0061
   5.0585E+00   5.1815E+00   8.6448E-05  0.0060
   5.1815E+00   5.3076E+00   8.7981E-05  0.0059
   5.3076E+00   5.4368E+00   8.5099E-05  0.0059
   5.4368E+00   5.5690E+00   8.5450E-05  0.0058
   5.5690E+00   5.7045E+00   8.3854E-05  0.0058
   5.7045E+00   5.8433E+00   8.4406E-05  0.0057
   5.8433E+00   5.9855E+00   8.4219E-05  0.0057
   5.9855E+00   6.1311E+00   8.4901E-05  0.0056
   6.1311E+00   6.2803E+00   8.3694E-05  0.0056
   6.2803E+00   6.4331E+00   8.3654E-05  0.0055
   6.4331E+00   6.5896E+00   8.3328E-05  0.0055
   6.5896E+00   6.7500E+00   8.3000E-05  0.0054
   6.7500E+00   6.9142E+00   8.2725E-05  0.0054
   6.9142E+00   7.0824E+00   8.2794E-05  0.0053
   7.0824E+00   7.2548E+00   8.2313E-05  0.0052
   7.2548E+00   7.4313E+00   8.1253E-05  0.0052
   7.4313E+00   7.6121E+00   8.0702E-05  0.0052
   7.6121E+00   7.7973E+00   8.0566E-05  0.0051
   7.7973E+00   7.9870E+00   8.0179E-05  0.0051
   7.9870E+00   8.1813E+00   7.8922E-05  0.0050
   8.1813E+00   8.3804E+00   7.8037E-05  0.0050
   8.3804E+00   8.5843E+00   7.7804E-05  0.0050
   8.5843E+00   8.7931E+00   7.6367E-05  0.0050
   8.7931E+00   9.0071E+00   7.5636E-05  0.0049
   9.0071E+00   9.2262E+00   7.5019E-05  0.0049
   9.2262E+00   9.4507E+00   7.3301E-05  0.0049
   9.4507E+00   9.6807E+00   7.1803E-05  0.0049
   9.6807E+00   9.9162E+00   7.1587E-05  0.0048
   9.9162E+00   1.0157E+01   7.7017E-05  0.0046
   1.0157E+01   1.0405E+01   7.4711E-05  0.0046
   1.0405E+01   1.0658E+01   7.2508E-05  0.0047
   1.0658E+01   1.0917E+01   6.9926E-05  0.0047
   1.0917E+01   1.1183E+01   6.6131E-05  0.0048
   1.1183E+01   1.1455E+01   6.4682E-05  0.0048
   1.1455E+01   1.1733E+01   6.3268E-05  0.0048
   1.1733E+01   1.2019E+01   6.2286E-05  0.0047
   1.2019E+01   1.2311E+01   6.0913E-05  0.0047
   1.2311E+01   1.2611E+01   5.9629E-05  0.0047
   1.2611E+01   1.2918E+01   5.8231E-05  0.0047
   1.2918E+01   1.3232E+01   5.6536E-05  0.0047
   1.3232E+01   1.3554E+01   5.5158E-05  0.0047
   1.3554E+01   1.3884E+01   5.3601E-05  0.0048
   1.3884E+01   1.4222E+01   5.2309E-05  0.0048
   1.4222E+01   1.4568E+01   5.0182E-05  0.0048
   1.4568E+01   1.4922E+01   4.8933E-05  0.0048
   1.4922E+01   1.5285E+01   4.7216E-05  0.0048
   1.5285E+01   1.5657E+01   4.5567E-05  0.0049
   1.5657E+01   1.6038E+01   4.3752E-05  0.0049
   1.6038E+01   1.6428E+01   4.1754E-05  0.0050
   1.6428E+01   1.6828E+01   3.9897E-05  0.0050
   1.6828E+01   1.7237E+01   3.8297E-05  0.0050
   1.7237E+01   1.7657E+01   3.6306E-05  0.0051
   1.7657E+01   1.8086E+01   3.4225E-05  0.0052
   1.8086E+01   1.8526E+01   3.1873E-05  0.0053
   1.8526E+01   1.8977E+01   3.0343E-05  0.0054
   1.8977E+01   1.9439E+01   2.8101E-05  0.0056
   1.9439E+01   1.9912E+01   2.6646E-05  0.0056
   1.9912E+01   2.0396E+01   2.4813E-05  0.0058
   2.0396E+01   2.0893E+01   2.2426E-05  0.0060
   2.0893E+01   2.1401E+01   2.0184E-05  0.0062
   2.1401E+01   2.1922E+01   1.8272E-05  0.0065
   2.1922E+01   2.2455E+01   1.6282E-05  0.0068
   2.2455E+01   2.3001E+01   1.4258E-05  0.0072
   2.3001E+01   2.3561E+01   1.2467E-05  0.0076
   2.3561E+01   2.4134E+01   1.0577E-05  0.0081
   2.4134E+01   2.4721E+01   8.8630E-06  0.0088
   2.4721E+01   2.5323E+01   7.3351E-06  0.0095
   2.5323E+01   2.5939E+01   6.0793E-06  0.0103
   2.5939E+01   2.6570E+01   5.0444E-06  0.0112
   2.6570E+01   2.7217E+01   5.3267E-06  0.0108
   2.7217E+01   2.7879E+01   1.1113E-05  0.0074
   2.7879E+01   2.8557E+01   1.3615E-05  0.0066
   2.8557E+01   2.9252E+01   1.3241E-05  0.0066
   2.9252E+01   2.9964E+01   1.2750E-05  0.0066
   2.9964E+01   3.0693E+01   1.2327E-05  0.0067
   3.0693E+01   3.1440E+01   1.1746E-05  0.0068
   3.1440E+01   3.2205E+01   1.0091E-05  0.0072
   3.2205E+01   3.2988E+01   2.1063E-06  0.0156
   3.2988E+01   3.3791E+01   4.9836E-10  1.0000
   3.3791E+01   3.4613E+01   1.4596E-09  0.5774
   3.4613E+01   3.5455E+01   0.0000E+00  0.0000
   3.5455E+01   3.6318E+01   4.6369E-10  1.0000
   3.6318E+01   3.7201E+01   4.5267E-10  1.0000
   3.7201E+01   3.8106E+01   0.0000E+00  0.0000
   3.8106E+01   3.9034E+01   0.0000E+00  0.0000
   3.9034E+01   3.9983E+01   0.0000E+00  0.0000
   3.9983E+01   4.0956E+01   0.0000E+00  0.0000
   4.0956E+01   4.1953E+01   0.0000E+00  0.0000
   4.1953E+01   4.2973E+01   0.0000E+00  0.0000
   4.2973E+01   4.4019E+01   0.0000E+00  0.0000
   4.4019E+01   4.5090E+01   0.0000E+00  0.0000
   4.5090E+01   4.6187E+01   0.0000E+00  0.0000
   4.6187E+01   4.7311E+01   0.0000E+00  0.0000
   4.7311E+01   4.8462E+01   0.0000E+00  0.0000
   4.8462E+01   4.9641E+01   0.0000E+00  0.0000
   4.9641E+01   5.0849E+01   0.0000E+00  0.0000
   5.0849E+01   5.2086E+01   0.0000E+00  0.0000
   5.2086E+01   5.3353E+01   0.0000E+00  0.0000
   5.3353E+01   5.4651E+01   0.0000E+00  0.0000
   5.4651E+01   5.5981E+01   0.0000E+00  0.0000
   5.5981E+01   5.7343E+01   0.0000E+00  0.0000
   5.7343E+01   5.8738E+01   0.0000E+00  0.0000
   5.8738E+01   6.0168E+01   0.0000E+00  0.0000
   6.0168E+01   6.1632E+01   0.0000E+00  0.0000
   6.1632E+01   6.3131E+01   0.0000E+00  0.0000
   6.3131E+01   6.4667E+01   0.0000E+00  0.0000
   6.4667E+01   6.6240E+01   0.0000E+00  0.0000
   6.6240E+01   6.7852E+01   0.0000E+00  0.0000
   6.7852E+01   6.9503E+01   0.0000E+00  0.0000
   6.9503E+01   7.1194E+01   0.0000E+00  0.0000
   7.1194E+01   7.2926E+01   0.0000E+00  0.0000
   7.2926E+01   7.4701E+01   0.0000E+00  0.0000
   7.4701E+01   7.6518E+01   0.0000E+00  0.0000
   7.6518E+01   7.8380E+01   0.0000E+00  0.0000
   7.8380E+01   8.0287E+01   0.0000E+00  0.0000
   8.0287E+01   8.2240E+01   0.0000E+00  0.0000
   8.2240E+01   8.4241E+01   0.0000E+00  0.0000
   8.4241E+01   8.6291E+01   0.0000E+00  0.0000
   8.6291E+01   8.8391E+01   0.0000E+00  0.0000
   8.8391E+01   9.0541E+01   0.0000E+00  0.0000
   9.0541E+01   9.2744E+01   0.0000E+00  0.0000
   9.2744E+01   9.5001E+01   0.0000E+00  0.0000
   9.5001E+01   9.7312E+01   0.0000E+00  0.0000
   9.7312E+01   9.9680E+01   0.0000E+00  0.0000
   9.9680E+01   1.0211E+02   0.0000E+00  0.0000
   1.0211E+02   1.0459E+02   0.0000E+00  0.0000
   1.0459E+02   1.0713E+02   0.0000E+00  0.0000
   1.0713E+02   1.0974E+02   0.0000E+00  0.0000
   1.0974E+02   1.1241E+02   0.0000E+00  0.0000
   1.1241E+02   1.1515E+02   0.0000E+00  0.0000
   1.1515E+02   1.1795E+02   0.0000E+00  0.0000
   1.1795E+02   1.2082E+02   0.0000E+00  0.0000
   1.2082E+02   1.2376E+02   0.0000E+00  0.0000
   1.2376E+02   1.2677E+02   0.0000E+00  0.0000
   1.2677E+02   1.2985E+02   0.0000E+00  0.0000
   1.2985E+02   1.3301E+02   0.0000E+00  0.0000
   1.3301E+02   1.3625E+02   0.0000E+00  0.0000
   1.3625E+02   1.3956E+02   0.0000E+00  0.0000
   1.3956E+02   1.4296E+02   0.0000E+00  0.0000
   1.4296E+02   1.4644E+02   0.0000E+00  0.0000
   1.4644E+02   1.5000E+02   0.0000E+00  0.0000

#   sum over                 9.8662E-06
'no. =    1   reg = 107 - 207'
msuc: {\huge [t-cross] in region mesh}
msdr: {\it plotted by \ANGEL \version}
msdl: {\it calculated by \PHITS  3.26}
wt: s(0.7)
\vspace{-3}
  region surface crossing
  area  &=&   1.0000E+00 [cm^2]
e:
 
# Information for Restart Calculation
# This calculation was newly started
# istdev =  2 # 1:Batch variance, 2:History variance
# resc2  = 2.50000000000000000E+09 # Total source weight or Total source weight / maxcas
# resc3  = 2.50000000000000000E+09 # Total history number or Total batch number
# maxcas =   100000000 # History / Batch, only used for istdev=1
# bitrseed = 1100001110001001100010001100011001110101000011000110100101010100 # bit data of rseed
