[ T-Cross ]
    title = [t-cross] in region mesh
     mesh =  reg            # mesh type is region-wise
      reg =    1            # number of crossing regions
      non     r-from    r-to       area
      1       126       226        1.000000    
   e-type =    3            # e-mesh is log given by emin, emax and ne
     emin =  1.0000000E-02  # minimum value of e-mesh points
     emax =   150.0000      # maximum value of e-mesh points
#    edel =  2.4039514E-02  # mesh width of e-mesh points
       ne =    400          # number of e-mesh points
#    data = ( e(i), i = 1, ne + 1 )
#           1.00000E-02  1.02433E-02  1.04925E-02  1.07478E-02  1.10093E-02
#           1.12772E-02  1.15516E-02  1.18326E-02  1.21205E-02  1.24154E-02
#           1.27175E-02  1.30269E-02  1.33439E-02  1.36686E-02  1.40011E-02
#           1.43418E-02  1.46907E-02  1.50482E-02  1.54143E-02  1.57894E-02
#           1.61735E-02  1.65670E-02  1.69701E-02  1.73830E-02  1.78060E-02
#           1.82392E-02  1.86830E-02  1.91375E-02  1.96032E-02  2.00801E-02
#           2.05687E-02  2.10692E-02  2.15818E-02  2.21069E-02  2.26448E-02
#           2.31957E-02  2.37601E-02  2.43382E-02  2.49304E-02  2.55369E-02
#           2.61583E-02  2.67947E-02  2.74467E-02  2.81145E-02  2.87985E-02
#           2.94992E-02  3.02169E-02  3.09521E-02  3.17052E-02  3.24766E-02
#           3.32668E-02  3.40762E-02  3.49053E-02  3.57546E-02  3.66246E-02
#           3.75157E-02  3.84284E-02  3.93634E-02  4.03212E-02  4.13022E-02
#           4.23071E-02  4.33365E-02  4.43909E-02  4.54710E-02  4.65773E-02
#           4.77106E-02  4.88714E-02  5.00605E-02  5.12785E-02  5.25262E-02
#           5.38042E-02  5.51133E-02  5.64542E-02  5.78278E-02  5.92348E-02
#           6.06760E-02  6.21523E-02  6.36645E-02  6.52135E-02  6.68002E-02
#           6.84255E-02  7.00904E-02  7.17957E-02  7.35426E-02  7.53319E-02
#           7.71648E-02  7.90423E-02  8.09655E-02  8.29354E-02  8.49533E-02
#           8.70203E-02  8.91376E-02  9.13064E-02  9.35279E-02  9.58035E-02
#           9.81345E-02  1.00522E-01  1.02968E-01  1.05473E-01  1.08040E-01
#           1.10668E-01  1.13361E-01  1.16119E-01  1.18944E-01  1.21838E-01
#           1.24803E-01  1.27839E-01  1.30950E-01  1.34136E-01  1.37399E-01
#           1.40742E-01  1.44167E-01  1.47675E-01  1.51268E-01  1.54948E-01
#           1.58718E-01  1.62580E-01  1.66535E-01  1.70587E-01  1.74738E-01
#           1.78989E-01  1.83344E-01  1.87805E-01  1.92375E-01  1.97055E-01
#           2.01850E-01  2.06761E-01  2.11792E-01  2.16945E-01  2.22223E-01
#           2.27630E-01  2.33169E-01  2.38842E-01  2.44653E-01  2.50605E-01
#           2.56703E-01  2.62949E-01  2.69346E-01  2.75900E-01  2.82613E-01
#           2.89489E-01  2.96532E-01  3.03747E-01  3.11138E-01  3.18708E-01
#           3.26462E-01  3.34405E-01  3.42542E-01  3.50876E-01  3.59413E-01
#           3.68158E-01  3.77116E-01  3.86291E-01  3.95690E-01  4.05317E-01
#           4.15179E-01  4.25281E-01  4.35628E-01  4.46227E-01  4.57084E-01
#           4.68205E-01  4.79597E-01  4.91266E-01  5.03219E-01  5.15463E-01
#           5.28005E-01  5.40851E-01  5.54011E-01  5.67490E-01  5.81298E-01
#           5.95441E-01  6.09929E-01  6.24769E-01  6.39970E-01  6.55541E-01
#           6.71491E-01  6.87828E-01  7.04564E-01  7.21706E-01  7.39266E-01
#           7.57253E-01  7.75678E-01  7.94551E-01  8.13883E-01  8.33685E-01
#           8.53969E-01  8.74747E-01  8.96030E-01  9.17831E-01  9.40163E-01
#           9.63038E-01  9.86469E-01  1.01047E+00  1.03506E+00  1.06024E+00
#           1.08604E+00  1.11246E+00  1.13953E+00  1.16725E+00  1.19565E+00
#           1.22474E+00  1.25454E+00  1.28507E+00  1.31633E+00  1.34836E+00
#           1.38117E+00  1.41477E+00  1.44920E+00  1.48446E+00  1.52057E+00
#           1.55757E+00  1.59547E+00  1.63429E+00  1.67405E+00  1.71478E+00
#           1.75650E+00  1.79924E+00  1.84302E+00  1.88786E+00  1.93379E+00
#           1.98084E+00  2.02904E+00  2.07841E+00  2.12898E+00  2.18078E+00
#           2.23384E+00  2.28819E+00  2.34386E+00  2.40089E+00  2.45930E+00
#           2.51914E+00  2.58043E+00  2.64322E+00  2.70753E+00  2.77341E+00
#           2.84088E+00  2.91001E+00  2.98081E+00  3.05333E+00  3.12762E+00
#           3.20372E+00  3.28167E+00  3.36152E+00  3.44330E+00  3.52708E+00
#           3.61290E+00  3.70080E+00  3.79085E+00  3.88308E+00  3.97756E+00
#           4.07434E+00  4.17347E+00  4.27501E+00  4.37903E+00  4.48557E+00
#           4.59471E+00  4.70650E+00  4.82102E+00  4.93832E+00  5.05847E+00
#           5.18155E+00  5.30762E+00  5.43676E+00  5.56904E+00  5.70453E+00
#           5.84333E+00  5.98550E+00  6.13114E+00  6.28031E+00  6.43312E+00
#           6.58964E+00  6.74997E+00  6.91420E+00  7.08243E+00  7.25475E+00
#           7.43126E+00  7.61207E+00  7.79728E+00  7.98700E+00  8.18133E+00
#           8.38038E+00  8.58428E+00  8.79315E+00  9.00709E+00  9.22624E+00
#           9.45072E+00  9.68067E+00  9.91620E+00  1.01575E+01  1.04046E+01
#           1.06578E+01  1.09171E+01  1.11827E+01  1.14548E+01  1.17335E+01
#           1.20190E+01  1.23114E+01  1.26109E+01  1.29178E+01  1.32321E+01
#           1.35540E+01  1.38838E+01  1.42216E+01  1.45676E+01  1.49221E+01
#           1.52851E+01  1.56570E+01  1.60380E+01  1.64282E+01  1.68279E+01
#           1.72374E+01  1.76568E+01  1.80864E+01  1.85264E+01  1.89772E+01
#           1.94389E+01  1.99119E+01  2.03963E+01  2.08926E+01  2.14009E+01
#           2.19216E+01  2.24550E+01  2.30014E+01  2.35610E+01  2.41343E+01
#           2.47215E+01  2.53230E+01  2.59391E+01  2.65702E+01  2.72167E+01
#           2.78789E+01  2.85572E+01  2.92520E+01  2.99637E+01  3.06928E+01
#           3.14396E+01  3.22045E+01  3.29881E+01  3.37907E+01  3.46128E+01
#           3.54550E+01  3.63177E+01  3.72013E+01  3.81064E+01  3.90336E+01
#           3.99833E+01  4.09561E+01  4.19526E+01  4.29734E+01  4.40189E+01
#           4.50900E+01  4.61870E+01  4.73108E+01  4.84619E+01  4.96410E+01
#           5.08488E+01  5.20860E+01  5.33533E+01  5.46514E+01  5.59812E+01
#           5.73432E+01  5.87384E+01  6.01676E+01  6.16315E+01  6.31311E+01
#           6.46671E+01  6.62405E+01  6.78522E+01  6.95031E+01  7.11941E+01
#           7.29263E+01  7.47007E+01  7.65182E+01  7.83800E+01  8.02870E+01
#           8.22405E+01  8.42414E+01  8.62911E+01  8.83906E+01  9.05412E+01
#           9.27442E+01  9.50007E+01  9.73122E+01  9.96799E+01  1.02105E+02
#           1.04589E+02  1.07134E+02  1.09741E+02  1.12411E+02  1.15146E+02
#           1.17948E+02  1.20817E+02  1.23757E+02  1.26768E+02  1.29852E+02
#           1.33012E+02  1.36248E+02  1.39563E+02  1.42959E+02  1.46437E+02
#           1.50000E+02
     unit =    2            # unit is [1/cm^2/(MeV/n)/source]
     axis =  eng            # axis of output
     file = detector-27.out  # file name of output for the above axis
   output = f-curr          # surface crossing forward current spectrum
     part =  neutron  
# kf/name :  2112     
#    used :        main (  %)        temp (  %)       total (  %)
#  memory :         414 (  0)           0 (  0)         414 (  0)

#------------------------------------------------------------------------------
#newpage:
#   no. =    1   reg = 126 - 226

x: Energy [MeV/n]
y:  F-Curr [1/cm^2/(MeV/n)/source]         
p: xlog ylog afac(0.8) form(0.9)
h: n            x            y(neutron ),hh0l   n 
#  e-lower      e-upper      neutron     r.err 
   1.0000E-02   1.0243E-02   2.3838E-05  0.1857
   1.0243E-02   1.0493E-02   2.4074E-05  0.1826
   1.0493E-02   1.0748E-02   2.4286E-05  0.1796
   1.0748E-02   1.1009E-02   1.9120E-05  0.2000
   1.1009E-02   1.1277E-02   2.7626E-05  0.1644
   1.1277E-02   1.1552E-02   2.0409E-05  0.1890
   1.1552E-02   1.1833E-02   2.5617E-05  0.1667
   1.1833E-02   1.2121E-02   2.5704E-05  0.1644
   1.2121E-02   1.2415E-02   2.7806E-05  0.1562
   1.2415E-02   1.2718E-02   2.7145E-05  0.1562
   1.2718E-02   1.3027E-02   2.0683E-05  0.1768
   1.3027E-02   1.3344E-02   2.0192E-05  0.1768
   1.3344E-02   1.3669E-02   2.1561E-05  0.1690
   1.3669E-02   1.4001E-02   2.5859E-05  0.1525
   1.4001E-02   1.4342E-02   1.6439E-05  0.1890
   1.4342E-02   1.4691E-02   2.3499E-05  0.1562
   1.4691E-02   1.5048E-02   2.1262E-05  0.1622
   1.5048E-02   1.5414E-02   2.4581E-05  0.1491
   1.5414E-02   1.5789E-02   2.1331E-05  0.1581
   1.5789E-02   1.6174E-02   1.7701E-05  0.1715
   1.6174E-02   1.6567E-02   1.6264E-05  0.1768
   1.6567E-02   1.6970E-02   2.0839E-05  0.1543
   1.6970E-02   1.7383E-02   2.0828E-05  0.1525
   1.7383E-02   1.7806E-02   2.0807E-05  0.1508
   1.7806E-02   1.8239E-02   1.9389E-05  0.1543
   1.8239E-02   1.8683E-02   1.6675E-05  0.1644
   1.8683E-02   1.9138E-02   2.2439E-05  0.1400
   1.9138E-02   1.9603E-02   2.1906E-05  0.1400
   1.9603E-02   2.0080E-02   2.1385E-05  0.1400
   2.0080E-02   2.0569E-02   1.7193E-05  0.1543
   2.0569E-02   2.1069E-02   1.8383E-05  0.1474
   2.1069E-02   2.1582E-02   1.7947E-05  0.1474
   2.1582E-02   2.2107E-02   1.7520E-05  0.1474
   2.2107E-02   2.2645E-02   2.1194E-05  0.1325
   2.2645E-02   2.3196E-02   1.4520E-05  0.1581
   2.3196E-02   2.3760E-02   1.9491E-05  0.1348
   2.3760E-02   2.4338E-02   1.6952E-05  0.1429
   2.4338E-02   2.4930E-02   1.3510E-05  0.1581
   2.4930E-02   2.5537E-02   1.9124E-05  0.1313
   2.5537E-02   2.6158E-02   1.3841E-05  0.1525
   2.6158E-02   2.6795E-02   1.7283E-05  0.1348
   2.6795E-02   2.7447E-02   1.4725E-05  0.1443
   2.7447E-02   2.8114E-02   1.5873E-05  0.1374
   2.8114E-02   2.8799E-02   1.2865E-05  0.1508
   2.8799E-02   2.9499E-02   1.7411E-05  0.1280
   2.9499E-02   3.0217E-02   2.1735E-05  0.1132
   3.0217E-02   3.0952E-02   1.5234E-05  0.1336
   3.0952E-02   3.1705E-02   1.4341E-05  0.1361
   3.1705E-02   3.2477E-02   1.2963E-05  0.1414
   3.2477E-02   3.3267E-02   1.3668E-05  0.1361
   3.3267E-02   3.4076E-02   1.2849E-05  0.1387
   3.4076E-02   3.4905E-02   1.8092E-05  0.1155
   3.4905E-02   3.5755E-02   1.2952E-05  0.1348
   3.5755E-02   3.6625E-02   1.8392E-05  0.1118
   3.6625E-02   3.7516E-02   1.4589E-05  0.1240
   3.7516E-02   3.8428E-02   1.5776E-05  0.1179
   3.8428E-02   3.9363E-02   1.5187E-05  0.1187
   3.9363E-02   4.0321E-02   1.5035E-05  0.1179
   4.0321E-02   4.1302E-02   1.5901E-05  0.1132
   4.1302E-02   4.2307E-02   1.3533E-05  0.1213
   4.2307E-02   4.3337E-02   1.4378E-05  0.1162
   4.3337E-02   4.4391E-02   1.5933E-05  0.1091
   4.4391E-02   4.5471E-02   1.4629E-05  0.1125
   4.5471E-02   4.6577E-02   1.3197E-05  0.1170
   4.6577E-02   4.7711E-02   1.4824E-05  0.1091
   4.7711E-02   4.8871E-02   1.4300E-05  0.1098
   4.8871E-02   5.0061E-02   1.3456E-05  0.1118
   5.0061E-02   5.1279E-02   1.5435E-05  0.1031
   5.1279E-02   5.2526E-02   1.5389E-05  0.1021
   5.2526E-02   5.3804E-02   1.3302E-05  0.1085
   5.3804E-02   5.5113E-02   1.6347E-05  0.0967
   5.5113E-02   5.6454E-02   1.3125E-05  0.1066
   5.6454E-02   5.7828E-02   1.4997E-05  0.0985
   5.7828E-02   5.9235E-02   1.6631E-05  0.0925
   5.9235E-02   6.0676E-02   1.6375E-05  0.0921
   6.0676E-02   6.2152E-02   1.6799E-05  0.0898
   6.2152E-02   6.3665E-02   1.5342E-05  0.0928
   6.3665E-02   6.5214E-02   1.4590E-05  0.0941
   6.5214E-02   6.6800E-02   1.2857E-05  0.0990
   6.6800E-02   6.8426E-02   1.5874E-05  0.0880
   6.8426E-02   7.0090E-02   1.4536E-05  0.0909
   7.0090E-02   7.1796E-02   1.6419E-05  0.0845
   7.1796E-02   7.3543E-02   1.5113E-05  0.0870
   7.3543E-02   7.5332E-02   1.3972E-05  0.0894
   7.5332E-02   7.7165E-02   1.6149E-05  0.0822
   7.7165E-02   7.9042E-02   1.3635E-05  0.0884
   7.9042E-02   8.0965E-02   1.4663E-05  0.0842
   8.0965E-02   8.2935E-02   1.3909E-05  0.0854
   8.2935E-02   8.4953E-02   1.3678E-05  0.0851
   8.4953E-02   8.7020E-02   1.4998E-05  0.0803
   8.7020E-02   8.9138E-02   1.6058E-05  0.0767
   8.9138E-02   9.1306E-02   1.5308E-05  0.0776
   9.1306E-02   9.3528E-02   1.4134E-05  0.0798
   9.3528E-02   9.5804E-02   1.4853E-05  0.0769
   9.5804E-02   9.8134E-02   1.3385E-05  0.0801
   9.8134E-02   1.0052E-01   1.4491E-05  0.0760
   1.0052E-01   1.0297E-01   1.5046E-05  0.0737
   1.0297E-01   1.0547E-01   1.5088E-05  0.0727
   1.0547E-01   1.0804E-01   1.4028E-05  0.0745
   1.0804E-01   1.1067E-01   1.6054E-05  0.0688
   1.1067E-01   1.1336E-01   1.3518E-05  0.0741
   1.1336E-01   1.1612E-01   1.4502E-05  0.0707
   1.1612E-01   1.1894E-01   1.4512E-05  0.0698
   1.1894E-01   1.2184E-01   1.4720E-05  0.0685
   1.2184E-01   1.2480E-01   1.4101E-05  0.0692
   1.2480E-01   1.2784E-01   1.5215E-05  0.0658
   1.2784E-01   1.3095E-01   1.3889E-05  0.0680
   1.3095E-01   1.3414E-01   1.4563E-05  0.0657
   1.3414E-01   1.3740E-01   1.5688E-05  0.0625
   1.3740E-01   1.4074E-01   1.4298E-05  0.0647
   1.4074E-01   1.4417E-01   1.7113E-05  0.0584
   1.4417E-01   1.4767E-01   1.6592E-05  0.0586
   1.4767E-01   1.5127E-01   1.5363E-05  0.0602
   1.5127E-01   1.5495E-01   1.5705E-05  0.0588
   1.5495E-01   1.5872E-01   1.5597E-05  0.0583
   1.5872E-01   1.6258E-01   1.4916E-05  0.0589
   1.6258E-01   1.6654E-01   1.6179E-05  0.0559
   1.6654E-01   1.7059E-01   1.5301E-05  0.0568
   1.7059E-01   1.7474E-01   1.4938E-05  0.0568
   1.7474E-01   1.7899E-01   1.6418E-05  0.0535
   1.7899E-01   1.8334E-01   1.6441E-05  0.0529
   1.8334E-01   1.8781E-01   1.6409E-05  0.0523
   1.8781E-01   1.9237E-01   1.5582E-05  0.0530
   1.9237E-01   1.9706E-01   1.6451E-05  0.0510
   1.9706E-01   2.0185E-01   1.6602E-05  0.0501
   2.0185E-01   2.0676E-01   1.5231E-05  0.0517
   2.0676E-01   2.1179E-01   1.4988E-05  0.0515
   2.1179E-01   2.1694E-01   1.5486E-05  0.0501
   2.1694E-01   2.2222E-01   1.5497E-05  0.0494
   2.2222E-01   2.2763E-01   1.6202E-05  0.0478
   2.2763E-01   2.3317E-01   1.5925E-05  0.0476
   2.3317E-01   2.3884E-01   1.6393E-05  0.0464
   2.3884E-01   2.4465E-01   1.6451E-05  0.0457
   2.4465E-01   2.5061E-01   1.6967E-05  0.0445
   2.5061E-01   2.5670E-01   1.5318E-05  0.0463
   2.5670E-01   2.6295E-01   1.5979E-05  0.0448
   2.6295E-01   2.6935E-01   1.6881E-05  0.0430
   2.6935E-01   2.7590E-01   1.5809E-05  0.0439
   2.7590E-01   2.8261E-01   1.6297E-05  0.0428
   2.8261E-01   2.8949E-01   1.6375E-05  0.0421
   2.8949E-01   2.9653E-01   1.6270E-05  0.0418
   2.9653E-01   3.0375E-01   1.5219E-05  0.0427
   3.0375E-01   3.1114E-01   1.5804E-05  0.0414
   3.1114E-01   3.1871E-01   1.5323E-05  0.0415
   3.1871E-01   3.2646E-01   1.5166E-05  0.0412
   3.2646E-01   3.3441E-01   1.6190E-05  0.0394
   3.3441E-01   3.4254E-01   1.6813E-05  0.0382
   3.4254E-01   3.5088E-01   1.6534E-05  0.0381
   3.5088E-01   3.5941E-01   1.6118E-05  0.0381
   3.5941E-01   3.6816E-01   1.6010E-05  0.0378
   3.6816E-01   3.7712E-01   1.5986E-05  0.0374
   3.7712E-01   3.8629E-01   1.6740E-05  0.0361
   3.8629E-01   3.9569E-01   1.5896E-05  0.0366
   3.9569E-01   4.0532E-01   1.6287E-05  0.0357
   4.0532E-01   4.1518E-01   1.6549E-05  0.0350
   4.1518E-01   4.2528E-01   1.5720E-05  0.0355
   4.2528E-01   4.3563E-01   1.5018E-05  0.0359
   4.3563E-01   4.4623E-01   1.6228E-05  0.0341
   4.4623E-01   4.5708E-01   1.5971E-05  0.0340
   4.5708E-01   4.6821E-01   1.6311E-05  0.0332
   4.6821E-01   4.7960E-01   1.4572E-05  0.0347
   4.7960E-01   4.9127E-01   1.5648E-05  0.0331
   4.9127E-01   5.0322E-01   1.4440E-05  0.0340
   5.0322E-01   5.1546E-01   1.5878E-05  0.0321
   5.1546E-01   5.2800E-01   1.4464E-05  0.0332
   5.2800E-01   5.4085E-01   1.4759E-05  0.0325
   5.4085E-01   5.5401E-01   1.5290E-05  0.0316
   5.5401E-01   5.6749E-01   1.5297E-05  0.0311
   5.6749E-01   5.8130E-01   1.3500E-05  0.0328
   5.8130E-01   5.9544E-01   1.4042E-05  0.0317
   5.9544E-01   6.0993E-01   1.4136E-05  0.0312
   6.0993E-01   6.2477E-01   1.4367E-05  0.0306
   6.2477E-01   6.3997E-01   1.4591E-05  0.0300
   6.3997E-01   6.5554E-01   1.4026E-05  0.0303
   6.5554E-01   6.7149E-01   1.3655E-05  0.0303
   6.7149E-01   6.8783E-01   1.3784E-05  0.0298
   6.8783E-01   7.0456E-01   1.3899E-05  0.0293
   7.0456E-01   7.2171E-01   1.3720E-05  0.0292
   7.2171E-01   7.3927E-01   1.2870E-05  0.0297
   7.3927E-01   7.5725E-01   1.2053E-05  0.0304
   7.5725E-01   7.7568E-01   1.2755E-05  0.0292
   7.7568E-01   7.9455E-01   1.2060E-05  0.0296
   7.9455E-01   8.1388E-01   1.1784E-05  0.0296
   8.1388E-01   8.3368E-01   1.1524E-05  0.0296
   8.3368E-01   8.5397E-01   1.1349E-05  0.0295
   8.5397E-01   8.7475E-01   1.1079E-05  0.0295
   8.7475E-01   8.9603E-01   1.0656E-05  0.0297
   8.9603E-01   9.1783E-01   1.0715E-05  0.0293
   9.1783E-01   9.4016E-01   1.0505E-05  0.0292
   9.4016E-01   9.6304E-01   9.5913E-06  0.0302
   9.6304E-01   9.8647E-01   9.1330E-06  0.0306
   9.8647E-01   1.0105E+00   8.6494E-06  0.0310
   1.0105E+00   1.0351E+00   8.6067E-06  0.0307
   1.0351E+00   1.0602E+00   8.2831E-06  0.0310
   1.0602E+00   1.0860E+00   8.7376E-06  0.0298
   1.0860E+00   1.1125E+00   7.8565E-06  0.0310
   1.1125E+00   1.1395E+00   7.6846E-06  0.0310
   1.1395E+00   1.1673E+00   7.6969E-06  0.0306
   1.1673E+00   1.1957E+00   7.8309E-06  0.0300
   1.1957E+00   1.2247E+00   7.6655E-06  0.0299
   1.2247E+00   1.2545E+00   6.7586E-06  0.0315
   1.2545E+00   1.2851E+00   6.7357E-06  0.0312
   1.2851E+00   1.3163E+00   6.2431E-06  0.0320
   1.3163E+00   1.3484E+00   6.2072E-06  0.0317
   1.3484E+00   1.3812E+00   6.2975E-06  0.0311
   1.3812E+00   1.4148E+00   6.0467E-06  0.0314
   1.4148E+00   1.4492E+00   5.5952E-06  0.0322
   1.4492E+00   1.4845E+00   5.0425E-06  0.0335
   1.4845E+00   1.5206E+00   5.1166E-06  0.0329
   1.5206E+00   1.5576E+00   4.6166E-06  0.0342
   1.5576E+00   1.5955E+00   4.6600E-06  0.0337
   1.5955E+00   1.6343E+00   4.2196E-06  0.0349
   1.6343E+00   1.6741E+00   4.0439E-06  0.0353
   1.6741E+00   1.7148E+00   3.9724E-06  0.0352
   1.7148E+00   1.7565E+00   3.6767E-06  0.0361
   1.7565E+00   1.7992E+00   3.7625E-06  0.0353
   1.7992E+00   1.8430E+00   3.4493E-06  0.0364
   1.8430E+00   1.8879E+00   3.0819E-06  0.0380
   1.8879E+00   1.9338E+00   2.9695E-06  0.0383
   1.9338E+00   1.9808E+00   2.6397E-06  0.0401
   1.9808E+00   2.0290E+00   2.8592E-06  0.0381
   2.0290E+00   2.0784E+00   2.4024E-06  0.0411
   2.0784E+00   2.1290E+00   2.3057E-06  0.0414
   2.1290E+00   2.1808E+00   2.2626E-06  0.0413
   2.1808E+00   2.2338E+00   2.1259E-06  0.0421
   2.2338E+00   2.2882E+00   1.8583E-06  0.0445
   2.2882E+00   2.3439E+00   1.8501E-06  0.0441
   2.3439E+00   2.4009E+00   1.8412E-06  0.0436
   2.4009E+00   2.4593E+00   1.6331E-06  0.0458
   2.4593E+00   2.5191E+00   1.5208E-06  0.0469
   2.5191E+00   2.5804E+00   1.3868E-06  0.0485
   2.5804E+00   2.6432E+00   1.2742E-06  0.0500
   2.6432E+00   2.7075E+00   1.1444E-06  0.0521
   2.7075E+00   2.7734E+00   1.0262E-06  0.0544
   2.7734E+00   2.8409E+00   9.7215E-07  0.0552
   2.8409E+00   2.9100E+00   9.2591E-07  0.0559
   2.9100E+00   2.9808E+00   8.3895E-07  0.0580
   2.9808E+00   3.0533E+00   7.7214E-07  0.0598
   3.0533E+00   3.1276E+00   7.8611E-07  0.0585
   3.1276E+00   3.2037E+00   6.7545E-07  0.0624
   3.2037E+00   3.2817E+00   6.5940E-07  0.0624
   3.2817E+00   3.3615E+00   5.8363E-07  0.0655
   3.3615E+00   3.4433E+00   5.2086E-07  0.0685
   3.4433E+00   3.5271E+00   5.3952E-07  0.0665
   3.5271E+00   3.6129E+00   4.8242E-07  0.0695
   3.6129E+00   3.7008E+00   4.5731E-07  0.0705
   3.7008E+00   3.7908E+00   3.9759E-07  0.0747
   3.7908E+00   3.8831E+00   3.9898E-07  0.0737
   3.8831E+00   3.9776E+00   3.5775E-07  0.0769
   3.9776E+00   4.0743E+00   2.8106E-07  0.0857
   4.0743E+00   4.1735E+00   2.9456E-07  0.0828
   4.1735E+00   4.2750E+00   3.0726E-07  0.0801
   4.2750E+00   4.3790E+00   1.9997E-07  0.0981
   4.3790E+00   4.4856E+00   2.7406E-07  0.0828
   4.4856E+00   4.5947E+00   2.4739E-07  0.0861
   4.5947E+00   4.7065E+00   2.0932E-07  0.0925
   4.7065E+00   4.8210E+00   1.8688E-07  0.0967
   4.8210E+00   4.9383E+00   1.8414E-07  0.0962
   4.9383E+00   5.0585E+00   1.5147E-07  0.1048
   5.0585E+00   5.1815E+00   1.8363E-07  0.0941
   5.1815E+00   5.3076E+00   1.3960E-07  0.1066
   5.3076E+00   5.4368E+00   1.2700E-07  0.1104
   5.4368E+00   5.5690E+00   1.2700E-07  0.1091
   5.5690E+00   5.7045E+00   1.1365E-07  0.1140
   5.7045E+00   5.8433E+00   9.6545E-08  0.1222
   5.8433E+00   5.9855E+00   1.0410E-07  0.1162
   5.9855E+00   6.1311E+00   8.5146E-08  0.1270
   6.1311E+00   6.2803E+00   8.3124E-08  0.1270
   6.2803E+00   6.4331E+00   9.1620E-08  0.1195
   6.4331E+00   6.5896E+00   7.9222E-08  0.1270
   6.5896E+00   6.7500E+00   6.4866E-08  0.1387
   6.7500E+00   6.9142E+00   5.7236E-08  0.1459
   6.9142E+00   7.0824E+00   3.6855E-08  0.1796
   7.0824E+00   7.2548E+00   5.1067E-08  0.1508
   7.2548E+00   7.4313E+00   4.7588E-08  0.1543
   7.4313E+00   7.6121E+00   4.4246E-08  0.1581
   7.6121E+00   7.7973E+00   4.6434E-08  0.1525
   7.7973E+00   7.9870E+00   4.1115E-08  0.1601
   7.9870E+00   8.1813E+00   4.8371E-08  0.1459
   8.1813E+00   8.3804E+00   3.2151E-08  0.1768
   8.3804E+00   8.5843E+00   1.6675E-08  0.2425
   8.5843E+00   8.7931E+00   1.9630E-08  0.2195
   8.7931E+00   9.0071E+00   1.4490E-08  0.2519
   9.0071E+00   9.2262E+00   1.5515E-08  0.2425
   9.2262E+00   9.4507E+00   1.6928E-08  0.2294
   9.4507E+00   9.6807E+00   1.3916E-08  0.2500
   9.6807E+00   9.9162E+00   1.1463E-08  0.2696
   9.9162E+00   1.0157E+01   9.1184E-09  0.3015
   1.0157E+01   1.0405E+01   8.0926E-09  0.3162
   1.0405E+01   1.0658E+01   5.5303E-09  0.3780
   1.0658E+01   1.0917E+01   3.0851E-09  0.5000
   1.0917E+01   1.1183E+01   1.5059E-09  0.7071
   1.1183E+01   1.1455E+01   5.8805E-09  0.3536
   1.1455E+01   1.1733E+01   2.8704E-09  0.5000
   1.1733E+01   1.2019E+01   6.3051E-09  0.3333
   1.2019E+01   1.2311E+01   1.0259E-09  0.7454
   1.2311E+01   1.2611E+01   2.6707E-09  0.5000
   1.2611E+01   1.2918E+01   0.0000E+00  0.0000
   1.2918E+01   1.3232E+01   6.3633E-10  1.0000
   1.3232E+01   1.3554E+01   1.2424E-09  0.7071
   1.3554E+01   1.3884E+01   1.2129E-09  0.7071
   1.3884E+01   1.4222E+01   1.1841E-09  0.7071
   1.4222E+01   1.4568E+01   0.0000E+00  0.0000
   1.4568E+01   1.4922E+01   0.0000E+00  0.0000
   1.4922E+01   1.5285E+01   0.0000E+00  0.0000
   1.5285E+01   1.5657E+01   0.0000E+00  0.0000
   1.5657E+01   1.6038E+01   0.0000E+00  0.0000
   1.6038E+01   1.6428E+01   0.0000E+00  0.0000
   1.6428E+01   1.6828E+01   0.0000E+00  0.0000
   1.6828E+01   1.7237E+01   0.0000E+00  0.0000
   1.7237E+01   1.7657E+01   0.0000E+00  0.0000
   1.7657E+01   1.8086E+01   0.0000E+00  0.0000
   1.8086E+01   1.8526E+01   0.0000E+00  0.0000
   1.8526E+01   1.8977E+01   0.0000E+00  0.0000
   1.8977E+01   1.9439E+01   0.0000E+00  0.0000
   1.9439E+01   1.9912E+01   0.0000E+00  0.0000
   1.9912E+01   2.0396E+01   0.0000E+00  0.0000
   2.0396E+01   2.0893E+01   0.0000E+00  0.0000
   2.0893E+01   2.1401E+01   0.0000E+00  0.0000
   2.1401E+01   2.1922E+01   0.0000E+00  0.0000
   2.1922E+01   2.2455E+01   0.0000E+00  0.0000
   2.2455E+01   2.3001E+01   0.0000E+00  0.0000
   2.3001E+01   2.3561E+01   0.0000E+00  0.0000
   2.3561E+01   2.4134E+01   0.0000E+00  0.0000
   2.4134E+01   2.4721E+01   0.0000E+00  0.0000
   2.4721E+01   2.5323E+01   0.0000E+00  0.0000
   2.5323E+01   2.5939E+01   0.0000E+00  0.0000
   2.5939E+01   2.6570E+01   0.0000E+00  0.0000
   2.6570E+01   2.7217E+01   0.0000E+00  0.0000
   2.7217E+01   2.7879E+01   0.0000E+00  0.0000
   2.7879E+01   2.8557E+01   0.0000E+00  0.0000
   2.8557E+01   2.9252E+01   0.0000E+00  0.0000
   2.9252E+01   2.9964E+01   0.0000E+00  0.0000
   2.9964E+01   3.0693E+01   0.0000E+00  0.0000
   3.0693E+01   3.1440E+01   0.0000E+00  0.0000
   3.1440E+01   3.2205E+01   0.0000E+00  0.0000
   3.2205E+01   3.2988E+01   0.0000E+00  0.0000
   3.2988E+01   3.3791E+01   0.0000E+00  0.0000
   3.3791E+01   3.4613E+01   0.0000E+00  0.0000
   3.4613E+01   3.5455E+01   0.0000E+00  0.0000
   3.5455E+01   3.6318E+01   0.0000E+00  0.0000
   3.6318E+01   3.7201E+01   0.0000E+00  0.0000
   3.7201E+01   3.8106E+01   0.0000E+00  0.0000
   3.8106E+01   3.9034E+01   0.0000E+00  0.0000
   3.9034E+01   3.9983E+01   0.0000E+00  0.0000
   3.9983E+01   4.0956E+01   0.0000E+00  0.0000
   4.0956E+01   4.1953E+01   0.0000E+00  0.0000
   4.1953E+01   4.2973E+01   0.0000E+00  0.0000
   4.2973E+01   4.4019E+01   0.0000E+00  0.0000
   4.4019E+01   4.5090E+01   0.0000E+00  0.0000
   4.5090E+01   4.6187E+01   0.0000E+00  0.0000
   4.6187E+01   4.7311E+01   0.0000E+00  0.0000
   4.7311E+01   4.8462E+01   0.0000E+00  0.0000
   4.8462E+01   4.9641E+01   0.0000E+00  0.0000
   4.9641E+01   5.0849E+01   0.0000E+00  0.0000
   5.0849E+01   5.2086E+01   0.0000E+00  0.0000
   5.2086E+01   5.3353E+01   0.0000E+00  0.0000
   5.3353E+01   5.4651E+01   0.0000E+00  0.0000
   5.4651E+01   5.5981E+01   0.0000E+00  0.0000
   5.5981E+01   5.7343E+01   0.0000E+00  0.0000
   5.7343E+01   5.8738E+01   0.0000E+00  0.0000
   5.8738E+01   6.0168E+01   0.0000E+00  0.0000
   6.0168E+01   6.1632E+01   0.0000E+00  0.0000
   6.1632E+01   6.3131E+01   0.0000E+00  0.0000
   6.3131E+01   6.4667E+01   0.0000E+00  0.0000
   6.4667E+01   6.6240E+01   0.0000E+00  0.0000
   6.6240E+01   6.7852E+01   0.0000E+00  0.0000
   6.7852E+01   6.9503E+01   0.0000E+00  0.0000
   6.9503E+01   7.1194E+01   0.0000E+00  0.0000
   7.1194E+01   7.2926E+01   0.0000E+00  0.0000
   7.2926E+01   7.4701E+01   0.0000E+00  0.0000
   7.4701E+01   7.6518E+01   0.0000E+00  0.0000
   7.6518E+01   7.8380E+01   0.0000E+00  0.0000
   7.8380E+01   8.0287E+01   0.0000E+00  0.0000
   8.0287E+01   8.2240E+01   0.0000E+00  0.0000
   8.2240E+01   8.4241E+01   0.0000E+00  0.0000
   8.4241E+01   8.6291E+01   0.0000E+00  0.0000
   8.6291E+01   8.8391E+01   0.0000E+00  0.0000
   8.8391E+01   9.0541E+01   0.0000E+00  0.0000
   9.0541E+01   9.2744E+01   0.0000E+00  0.0000
   9.2744E+01   9.5001E+01   0.0000E+00  0.0000
   9.5001E+01   9.7312E+01   0.0000E+00  0.0000
   9.7312E+01   9.9680E+01   0.0000E+00  0.0000
   9.9680E+01   1.0211E+02   0.0000E+00  0.0000
   1.0211E+02   1.0459E+02   0.0000E+00  0.0000
   1.0459E+02   1.0713E+02   0.0000E+00  0.0000
   1.0713E+02   1.0974E+02   0.0000E+00  0.0000
   1.0974E+02   1.1241E+02   0.0000E+00  0.0000
   1.1241E+02   1.1515E+02   0.0000E+00  0.0000
   1.1515E+02   1.1795E+02   0.0000E+00  0.0000
   1.1795E+02   1.2082E+02   0.0000E+00  0.0000
   1.2082E+02   1.2376E+02   0.0000E+00  0.0000
   1.2376E+02   1.2677E+02   0.0000E+00  0.0000
   1.2677E+02   1.2985E+02   0.0000E+00  0.0000
   1.2985E+02   1.3301E+02   0.0000E+00  0.0000
   1.3301E+02   1.3625E+02   0.0000E+00  0.0000
   1.3625E+02   1.3956E+02   0.0000E+00  0.0000
   1.3956E+02   1.4296E+02   0.0000E+00  0.0000
   1.4296E+02   1.4644E+02   0.0000E+00  0.0000
   1.4644E+02   1.5000E+02   0.0000E+00  0.0000

#   sum over                 1.4619E-07
'no. =    1   reg = 126 - 226'
msuc: {\huge [t-cross] in region mesh}
msdr: {\it plotted by \ANGEL \version}
msdl: {\it calculated by \PHITS  3.26}
wt: s(0.7)
\vspace{-3}
  region surface crossing
  area  &=&   1.0000E+00 [cm^2]
e:
 
# Information for Restart Calculation
# This calculation was newly started
# istdev =  2 # 1:Batch variance, 2:History variance
# resc2  = 5.00000000000000000E+09 # Total source weight or Total source weight / maxcas
# resc3  = 5.00000000000000000E+09 # Total history number or Total batch number
# maxcas =   100000000 # History / Batch, only used for istdev=1
# bitrseed = 0110100000100010111000001110001111001110100100011111101000111001 # bit data of rseed
