[ T-Cross ]
    title = [t-cross] in region mesh
     mesh =  reg            # mesh type is region-wise
      reg =    1            # number of crossing regions
      non     r-from    r-to       area
      1       107       207        1.000000    
   e-type =    3            # e-mesh is log given by emin, emax and ne
     emin =  1.0000000E-02  # minimum value of e-mesh points
     emax =   150.0000      # maximum value of e-mesh points
#    edel =  2.4039514E-02  # mesh width of e-mesh points
       ne =    400          # number of e-mesh points
#    data = ( e(i), i = 1, ne + 1 )
#           1.00000E-02  1.02433E-02  1.04925E-02  1.07478E-02  1.10093E-02
#           1.12772E-02  1.15516E-02  1.18326E-02  1.21205E-02  1.24154E-02
#           1.27175E-02  1.30269E-02  1.33439E-02  1.36686E-02  1.40011E-02
#           1.43418E-02  1.46907E-02  1.50482E-02  1.54143E-02  1.57894E-02
#           1.61735E-02  1.65670E-02  1.69701E-02  1.73830E-02  1.78060E-02
#           1.82392E-02  1.86830E-02  1.91375E-02  1.96032E-02  2.00801E-02
#           2.05687E-02  2.10692E-02  2.15818E-02  2.21069E-02  2.26448E-02
#           2.31957E-02  2.37601E-02  2.43382E-02  2.49304E-02  2.55369E-02
#           2.61583E-02  2.67947E-02  2.74467E-02  2.81145E-02  2.87985E-02
#           2.94992E-02  3.02169E-02  3.09521E-02  3.17052E-02  3.24766E-02
#           3.32668E-02  3.40762E-02  3.49053E-02  3.57546E-02  3.66246E-02
#           3.75157E-02  3.84284E-02  3.93634E-02  4.03212E-02  4.13022E-02
#           4.23071E-02  4.33365E-02  4.43909E-02  4.54710E-02  4.65773E-02
#           4.77106E-02  4.88714E-02  5.00605E-02  5.12785E-02  5.25262E-02
#           5.38042E-02  5.51133E-02  5.64542E-02  5.78278E-02  5.92348E-02
#           6.06760E-02  6.21523E-02  6.36645E-02  6.52135E-02  6.68002E-02
#           6.84255E-02  7.00904E-02  7.17957E-02  7.35426E-02  7.53319E-02
#           7.71648E-02  7.90423E-02  8.09655E-02  8.29354E-02  8.49533E-02
#           8.70203E-02  8.91376E-02  9.13064E-02  9.35279E-02  9.58035E-02
#           9.81345E-02  1.00522E-01  1.02968E-01  1.05473E-01  1.08040E-01
#           1.10668E-01  1.13361E-01  1.16119E-01  1.18944E-01  1.21838E-01
#           1.24803E-01  1.27839E-01  1.30950E-01  1.34136E-01  1.37399E-01
#           1.40742E-01  1.44167E-01  1.47675E-01  1.51268E-01  1.54948E-01
#           1.58718E-01  1.62580E-01  1.66535E-01  1.70587E-01  1.74738E-01
#           1.78989E-01  1.83344E-01  1.87805E-01  1.92375E-01  1.97055E-01
#           2.01850E-01  2.06761E-01  2.11792E-01  2.16945E-01  2.22223E-01
#           2.27630E-01  2.33169E-01  2.38842E-01  2.44653E-01  2.50605E-01
#           2.56703E-01  2.62949E-01  2.69346E-01  2.75900E-01  2.82613E-01
#           2.89489E-01  2.96532E-01  3.03747E-01  3.11138E-01  3.18708E-01
#           3.26462E-01  3.34405E-01  3.42542E-01  3.50876E-01  3.59413E-01
#           3.68158E-01  3.77116E-01  3.86291E-01  3.95690E-01  4.05317E-01
#           4.15179E-01  4.25281E-01  4.35628E-01  4.46227E-01  4.57084E-01
#           4.68205E-01  4.79597E-01  4.91266E-01  5.03219E-01  5.15463E-01
#           5.28005E-01  5.40851E-01  5.54011E-01  5.67490E-01  5.81298E-01
#           5.95441E-01  6.09929E-01  6.24769E-01  6.39970E-01  6.55541E-01
#           6.71491E-01  6.87828E-01  7.04564E-01  7.21706E-01  7.39266E-01
#           7.57253E-01  7.75678E-01  7.94551E-01  8.13883E-01  8.33685E-01
#           8.53969E-01  8.74747E-01  8.96030E-01  9.17831E-01  9.40163E-01
#           9.63038E-01  9.86469E-01  1.01047E+00  1.03506E+00  1.06024E+00
#           1.08604E+00  1.11246E+00  1.13953E+00  1.16725E+00  1.19565E+00
#           1.22474E+00  1.25454E+00  1.28507E+00  1.31633E+00  1.34836E+00
#           1.38117E+00  1.41477E+00  1.44920E+00  1.48446E+00  1.52057E+00
#           1.55757E+00  1.59547E+00  1.63429E+00  1.67405E+00  1.71478E+00
#           1.75650E+00  1.79924E+00  1.84302E+00  1.88786E+00  1.93379E+00
#           1.98084E+00  2.02904E+00  2.07841E+00  2.12898E+00  2.18078E+00
#           2.23384E+00  2.28819E+00  2.34386E+00  2.40089E+00  2.45930E+00
#           2.51914E+00  2.58043E+00  2.64322E+00  2.70753E+00  2.77341E+00
#           2.84088E+00  2.91001E+00  2.98081E+00  3.05333E+00  3.12762E+00
#           3.20372E+00  3.28167E+00  3.36152E+00  3.44330E+00  3.52708E+00
#           3.61290E+00  3.70080E+00  3.79085E+00  3.88308E+00  3.97756E+00
#           4.07434E+00  4.17347E+00  4.27501E+00  4.37903E+00  4.48557E+00
#           4.59471E+00  4.70650E+00  4.82102E+00  4.93832E+00  5.05847E+00
#           5.18155E+00  5.30762E+00  5.43676E+00  5.56904E+00  5.70453E+00
#           5.84333E+00  5.98550E+00  6.13114E+00  6.28031E+00  6.43312E+00
#           6.58964E+00  6.74997E+00  6.91420E+00  7.08243E+00  7.25475E+00
#           7.43126E+00  7.61207E+00  7.79728E+00  7.98700E+00  8.18133E+00
#           8.38038E+00  8.58428E+00  8.79315E+00  9.00709E+00  9.22624E+00
#           9.45072E+00  9.68067E+00  9.91620E+00  1.01575E+01  1.04046E+01
#           1.06578E+01  1.09171E+01  1.11827E+01  1.14548E+01  1.17335E+01
#           1.20190E+01  1.23114E+01  1.26109E+01  1.29178E+01  1.32321E+01
#           1.35540E+01  1.38838E+01  1.42216E+01  1.45676E+01  1.49221E+01
#           1.52851E+01  1.56570E+01  1.60380E+01  1.64282E+01  1.68279E+01
#           1.72374E+01  1.76568E+01  1.80864E+01  1.85264E+01  1.89772E+01
#           1.94389E+01  1.99119E+01  2.03963E+01  2.08926E+01  2.14009E+01
#           2.19216E+01  2.24550E+01  2.30014E+01  2.35610E+01  2.41343E+01
#           2.47215E+01  2.53230E+01  2.59391E+01  2.65702E+01  2.72167E+01
#           2.78789E+01  2.85572E+01  2.92520E+01  2.99637E+01  3.06928E+01
#           3.14396E+01  3.22045E+01  3.29881E+01  3.37907E+01  3.46128E+01
#           3.54550E+01  3.63177E+01  3.72013E+01  3.81064E+01  3.90336E+01
#           3.99833E+01  4.09561E+01  4.19526E+01  4.29734E+01  4.40189E+01
#           4.50900E+01  4.61870E+01  4.73108E+01  4.84619E+01  4.96410E+01
#           5.08488E+01  5.20860E+01  5.33533E+01  5.46514E+01  5.59812E+01
#           5.73432E+01  5.87384E+01  6.01676E+01  6.16315E+01  6.31311E+01
#           6.46671E+01  6.62405E+01  6.78522E+01  6.95031E+01  7.11941E+01
#           7.29263E+01  7.47007E+01  7.65182E+01  7.83800E+01  8.02870E+01
#           8.22405E+01  8.42414E+01  8.62911E+01  8.83906E+01  9.05412E+01
#           9.27442E+01  9.50007E+01  9.73122E+01  9.96799E+01  1.02105E+02
#           1.04589E+02  1.07134E+02  1.09741E+02  1.12411E+02  1.15146E+02
#           1.17948E+02  1.20817E+02  1.23757E+02  1.26768E+02  1.29852E+02
#           1.33012E+02  1.36248E+02  1.39563E+02  1.42959E+02  1.46437E+02
#           1.50000E+02
     unit =    2            # unit is [1/cm^2/(MeV/n)/source]
     axis =  eng            # axis of output
     file = detector-08.out  # file name of output for the above axis
   output = f-curr          # surface crossing forward current spectrum
     part =  neutron  
# kf/name :  2112     
#    used :        main (  %)        temp (  %)       total (  %)
#  memory :         414 (  0)           0 (  0)         414 (  0)

#------------------------------------------------------------------------------
#newpage:
#   no. =    1   reg = 107 - 207

x: Energy [MeV/n]
y:  F-Curr [1/cm^2/(MeV/n)/source]         
p: xlog ylog afac(0.8) form(0.9)
h: n            x            y(neutron ),hh0l   n 
#  e-lower      e-upper      neutron     r.err 
   1.0000E-02   1.0243E-02   2.1819E-03  0.0354
   1.0243E-02   1.0493E-02   2.0940E-03  0.0357
   1.0493E-02   1.0748E-02   2.0562E-03  0.0356
   1.0748E-02   1.1009E-02   1.8833E-03  0.0368
   1.1009E-02   1.1277E-02   2.0278E-03  0.0350
   1.1277E-02   1.1552E-02   1.9986E-03  0.0348
   1.1552E-02   1.1833E-02   2.0132E-03  0.0343
   1.1833E-02   1.2121E-02   1.9084E-03  0.0348
   1.2121E-02   1.2415E-02   1.8945E-03  0.0345
   1.2415E-02   1.2718E-02   1.8480E-03  0.0345
   1.2718E-02   1.3027E-02   1.8462E-03  0.0341
   1.3027E-02   1.3344E-02   1.8004E-03  0.0342
   1.3344E-02   1.3669E-02   1.9192E-03  0.0327
   1.3669E-02   1.4001E-02   1.8247E-03  0.0331
   1.4001E-02   1.4342E-02   1.8149E-03  0.0328
   1.4342E-02   1.4691E-02   1.7474E-03  0.0330
   1.4691E-02   1.5048E-02   1.8242E-03  0.0319
   1.5048E-02   1.5414E-02   1.7359E-03  0.0323
   1.5414E-02   1.5789E-02   1.8188E-03  0.0312
   1.5789E-02   1.6174E-02   1.7146E-03  0.0318
   1.6174E-02   1.6567E-02   1.6525E-03  0.0320
   1.6567E-02   1.6970E-02   1.7680E-03  0.0306
   1.6970E-02   1.7383E-02   1.7221E-03  0.0306
   1.7383E-02   1.7806E-02   1.6824E-03  0.0306
   1.7806E-02   1.8239E-02   1.7248E-03  0.0299
   1.8239E-02   1.8683E-02   1.6667E-03  0.0300
   1.8683E-02   1.9138E-02   1.6569E-03  0.0297
   1.9138E-02   1.9603E-02   1.6456E-03  0.0295
   1.9603E-02   2.0080E-02   1.6501E-03  0.0291
   2.0080E-02   2.0569E-02   1.5472E-03  0.0297
   2.0569E-02   2.1069E-02   1.6749E-03  0.0282
   2.1069E-02   2.1582E-02   1.5779E-03  0.0287
   2.1582E-02   2.2107E-02   1.5885E-03  0.0282
   2.2107E-02   2.2645E-02   1.5184E-03  0.0285
   2.2645E-02   2.3196E-02   1.4220E-03  0.0291
   2.3196E-02   2.3760E-02   1.4507E-03  0.0285
   2.3760E-02   2.4338E-02   1.4252E-03  0.0284
   2.4338E-02   2.4930E-02   1.4081E-03  0.0283
   2.4930E-02   2.5537E-02   1.4543E-03  0.0275
   2.5537E-02   2.6158E-02   1.4481E-03  0.0272
   2.6158E-02   2.6795E-02   1.3837E-03  0.0275
   2.6795E-02   2.7447E-02   1.3637E-03  0.0274
   2.7447E-02   2.8114E-02   1.4333E-03  0.0264
   2.8114E-02   2.8799E-02   1.3198E-03  0.0271
   2.8799E-02   2.9499E-02   1.3269E-03  0.0267
   2.9499E-02   3.0217E-02   1.3205E-03  0.0265
   3.0217E-02   3.0952E-02   1.3523E-03  0.0259
   3.0952E-02   3.1705E-02   1.2749E-03  0.0263
   3.1705E-02   3.2477E-02   1.2227E-03  0.0266
   3.2477E-02   3.3267E-02   1.2602E-03  0.0258
   3.3267E-02   3.4076E-02   1.1987E-03  0.0262
   3.4076E-02   3.4905E-02   1.2266E-03  0.0256
   3.4905E-02   3.5755E-02   1.2242E-03  0.0253
   3.5755E-02   3.6625E-02   1.2044E-03  0.0252
   3.6625E-02   3.7516E-02   1.1812E-03  0.0251
   3.7516E-02   3.8428E-02   1.2177E-03  0.0245
   3.8428E-02   3.9363E-02   1.2161E-03  0.0242
   3.9363E-02   4.0321E-02   1.1696E-03  0.0244
   4.0321E-02   4.1302E-02   1.1636E-03  0.0241
   4.1302E-02   4.2307E-02   1.1235E-03  0.0243
   4.2307E-02   4.3337E-02   1.1242E-03  0.0240
   4.3337E-02   4.4391E-02   1.1212E-03  0.0237
   4.4391E-02   4.5471E-02   1.0473E-03  0.0243
   4.5471E-02   4.6577E-02   1.0350E-03  0.0241
   4.6577E-02   4.7711E-02   1.0548E-03  0.0236
   4.7711E-02   4.8871E-02   1.0590E-03  0.0233
   4.8871E-02   5.0061E-02   1.0420E-03  0.0232
   5.0061E-02   5.1279E-02   9.9616E-04  0.0234
   5.1279E-02   5.2526E-02   1.0377E-03  0.0227
   5.2526E-02   5.3804E-02   9.6332E-04  0.0233
   5.3804E-02   5.5113E-02   9.9072E-04  0.0227
   5.5113E-02   5.6454E-02   9.4315E-04  0.0229
   5.6454E-02   5.7828E-02   9.4562E-04  0.0226
   5.7828E-02   5.9235E-02   9.9834E-04  0.0218
   5.9235E-02   6.0676E-02   9.0844E-04  0.0225
   6.0676E-02   6.2152E-02   9.3803E-04  0.0219
   6.2152E-02   6.3665E-02   9.0139E-04  0.0221
   6.3665E-02   6.5214E-02   8.9037E-04  0.0220
   6.5214E-02   6.6800E-02   9.0084E-04  0.0216
   6.6800E-02   6.8426E-02   8.6595E-04  0.0217
   6.8426E-02   7.0090E-02   8.4686E-04  0.0217
   7.0090E-02   7.1796E-02   8.4421E-04  0.0215
   7.1796E-02   7.3543E-02   8.4464E-04  0.0212
   7.3543E-02   7.5332E-02   8.2159E-04  0.0213
   7.5332E-02   7.7165E-02   8.0416E-04  0.0212
   7.7165E-02   7.9042E-02   7.7481E-04  0.0214
   7.9042E-02   8.0965E-02   7.5584E-04  0.0214
   8.0965E-02   8.2935E-02   7.7995E-04  0.0208
   8.2935E-02   8.4953E-02   7.8737E-04  0.0205
   8.4953E-02   8.7020E-02   7.6310E-04  0.0205
   8.7020E-02   8.9138E-02   7.1231E-04  0.0210
   8.9138E-02   9.1306E-02   7.2378E-04  0.0206
   9.1306E-02   9.3528E-02   7.1995E-04  0.0204
   9.3528E-02   9.5804E-02   6.9650E-04  0.0205
   9.5804E-02   9.8134E-02   6.8332E-04  0.0204
   9.8134E-02   1.0052E-01   6.9331E-04  0.0200
   1.0052E-01   1.0297E-01   6.4004E-04  0.0206
   1.0297E-01   1.0547E-01   6.4663E-04  0.0203
   1.0547E-01   1.0804E-01   6.5312E-04  0.0199
   1.0804E-01   1.1067E-01   6.3400E-04  0.0200
   1.1067E-01   1.1336E-01   6.0964E-04  0.0201
   1.1336E-01   1.1612E-01   6.1473E-04  0.0198
   1.1612E-01   1.1894E-01   5.9003E-04  0.0200
   1.1894E-01   1.2184E-01   5.9928E-04  0.0196
   1.2184E-01   1.2480E-01   5.7195E-04  0.0198
   1.2480E-01   1.2784E-01   5.6956E-04  0.0196
   1.2784E-01   1.3095E-01   5.3769E-04  0.0200
   1.3095E-01   1.3414E-01   5.4748E-04  0.0195
   1.3414E-01   1.3740E-01   5.3137E-04  0.0196
   1.3740E-01   1.4074E-01   5.2141E-04  0.0195
   1.4074E-01   1.4417E-01   5.3414E-04  0.0191
   1.4417E-01   1.4767E-01   5.0202E-04  0.0194
   1.4767E-01   1.5127E-01   4.8661E-04  0.0195
   1.5127E-01   1.5495E-01   4.8184E-04  0.0194
   1.5495E-01   1.5872E-01   4.6523E-04  0.0195
   1.5872E-01   1.6258E-01   4.4596E-04  0.0197
   1.6258E-01   1.6654E-01   4.3891E-04  0.0196
   1.6654E-01   1.7059E-01   4.3759E-04  0.0194
   1.7059E-01   1.7474E-01   4.3111E-04  0.0193
   1.7474E-01   1.7899E-01   4.1861E-04  0.0193
   1.7899E-01   1.8334E-01   4.0571E-04  0.0194
   1.8334E-01   1.8781E-01   4.1371E-04  0.0190
   1.8781E-01   1.9237E-01   3.9128E-04  0.0193
   1.9237E-01   1.9706E-01   3.8462E-04  0.0192
   1.9706E-01   2.0185E-01   3.8025E-04  0.0191
   2.0185E-01   2.0676E-01   3.9604E-04  0.0185
   2.0676E-01   2.1179E-01   4.0585E-04  0.0180
   2.1179E-01   2.1694E-01   4.0732E-04  0.0178
   2.1694E-01   2.2222E-01   4.1807E-04  0.0174
   2.2222E-01   2.2763E-01   4.1526E-04  0.0172
   2.2763E-01   2.3317E-01   4.2571E-04  0.0168
   2.3317E-01   2.3884E-01   4.1928E-04  0.0167
   2.3884E-01   2.4465E-01   4.3280E-04  0.0163
   2.4465E-01   2.5061E-01   4.4291E-04  0.0159
   2.5061E-01   2.5670E-01   4.4989E-04  0.0156
   2.5670E-01   2.6295E-01   4.6560E-04  0.0151
   2.6295E-01   2.6935E-01   4.5969E-04  0.0150
   2.6935E-01   2.7590E-01   4.7267E-04  0.0147
   2.7590E-01   2.8261E-01   4.7337E-04  0.0145
   2.8261E-01   2.8949E-01   4.9020E-04  0.0140
   2.8949E-01   2.9653E-01   4.9037E-04  0.0139
   2.9653E-01   3.0375E-01   4.9920E-04  0.0136
   3.0375E-01   3.1114E-01   5.0179E-04  0.0134
   3.1114E-01   3.1871E-01   5.2225E-04  0.0130
   3.1871E-01   3.2646E-01   5.3416E-04  0.0127
   3.2646E-01   3.3441E-01   5.2342E-04  0.0127
   3.3441E-01   3.4254E-01   5.2914E-04  0.0124
   3.4254E-01   3.5088E-01   5.3894E-04  0.0122
   3.5088E-01   3.5941E-01   5.4528E-04  0.0120
   3.5941E-01   3.6816E-01   5.4636E-04  0.0118
   3.6816E-01   3.7712E-01   5.4975E-04  0.0116
   3.7712E-01   3.8629E-01   5.6242E-04  0.0114
   3.8629E-01   3.9569E-01   5.6516E-04  0.0112
   3.9569E-01   4.0532E-01   5.5443E-04  0.0112
   4.0532E-01   4.1518E-01   5.7248E-04  0.0109
   4.1518E-01   4.2528E-01   5.7857E-04  0.0107
   4.2528E-01   4.3563E-01   5.8016E-04  0.0105
   4.3563E-01   4.4623E-01   5.7616E-04  0.0104
   4.4623E-01   4.5708E-01   5.8797E-04  0.0102
   4.5708E-01   4.6821E-01   5.9741E-04  0.0100
   4.6821E-01   4.7960E-01   6.0325E-04  0.0098
   4.7960E-01   4.9127E-01   6.0932E-04  0.0097
   4.9127E-01   5.0322E-01   6.1328E-04  0.0095
   5.0322E-01   5.1546E-01   6.0882E-04  0.0094
   5.1546E-01   5.2800E-01   6.0737E-04  0.0093
   5.2800E-01   5.4085E-01   6.1353E-04  0.0092
   5.4085E-01   5.5401E-01   6.1778E-04  0.0090
   5.5401E-01   5.6749E-01   6.2101E-04  0.0089
   5.6749E-01   5.8130E-01   6.2663E-04  0.0088
   5.8130E-01   5.9544E-01   6.3482E-04  0.0086
   5.9544E-01   6.0993E-01   6.2784E-04  0.0085
   6.0993E-01   6.2477E-01   6.3476E-04  0.0084
   6.2477E-01   6.3997E-01   6.4180E-04  0.0083
   6.3997E-01   6.5554E-01   6.3236E-04  0.0082
   6.5554E-01   6.7149E-01   6.3174E-04  0.0081
   6.7149E-01   6.8783E-01   6.3228E-04  0.0080
   6.8783E-01   7.0456E-01   6.3668E-04  0.0079
   7.0456E-01   7.2171E-01   6.3422E-04  0.0078
   7.2171E-01   7.3927E-01   6.3568E-04  0.0077
   7.3927E-01   7.5725E-01   6.3118E-04  0.0077
   7.5725E-01   7.7568E-01   6.3846E-04  0.0075
   7.7568E-01   7.9455E-01   6.3396E-04  0.0075
   7.9455E-01   8.1388E-01   6.3362E-04  0.0074
   8.1388E-01   8.3368E-01   6.2927E-04  0.0073
   8.3368E-01   8.5397E-01   6.2929E-04  0.0072
   8.5397E-01   8.7475E-01   6.1915E-04  0.0072
   8.7475E-01   8.9603E-01   6.2363E-04  0.0071
   8.9603E-01   9.1783E-01   6.1203E-04  0.0071
   9.1783E-01   9.4016E-01   6.0253E-04  0.0070
   9.4016E-01   9.6304E-01   5.9316E-04  0.0070
   9.6304E-01   9.8647E-01   5.7939E-04  0.0070
   9.8647E-01   1.0105E+00   5.7190E-04  0.0070
   1.0105E+00   1.0351E+00   5.5802E-04  0.0070
   1.0351E+00   1.0602E+00   5.5966E-04  0.0069
   1.0602E+00   1.0860E+00   5.4387E-04  0.0069
   1.0860E+00   1.1125E+00   5.4955E-04  0.0068
   1.1125E+00   1.1395E+00   5.4851E-04  0.0067
   1.1395E+00   1.1673E+00   5.4895E-04  0.0066
   1.1673E+00   1.1957E+00   5.5126E-04  0.0065
   1.1957E+00   1.2247E+00   5.5084E-04  0.0064
   1.2247E+00   1.2545E+00   5.4786E-04  0.0064
   1.2545E+00   1.2851E+00   5.4158E-04  0.0063
   1.2851E+00   1.3163E+00   5.4183E-04  0.0063
   1.3163E+00   1.3484E+00   5.3662E-04  0.0062
   1.3484E+00   1.3812E+00   5.3529E-04  0.0062
   1.3812E+00   1.4148E+00   5.3800E-04  0.0061
   1.4148E+00   1.4492E+00   5.3040E-04  0.0060
   1.4492E+00   1.4845E+00   5.2422E-04  0.0060
   1.4845E+00   1.5206E+00   5.2051E-04  0.0059
   1.5206E+00   1.5576E+00   5.1555E-04  0.0059
   1.5576E+00   1.5955E+00   5.1107E-04  0.0059
   1.5955E+00   1.6343E+00   5.1038E-04  0.0058
   1.6343E+00   1.6741E+00   4.9592E-04  0.0058
   1.6741E+00   1.7148E+00   4.9854E-04  0.0057
   1.7148E+00   1.7565E+00   4.9423E-04  0.0057
   1.7565E+00   1.7992E+00   4.8886E-04  0.0056
   1.7992E+00   1.8430E+00   4.9179E-04  0.0056
   1.8430E+00   1.8879E+00   4.7972E-04  0.0056
   1.8879E+00   1.9338E+00   4.7104E-04  0.0055
   1.9338E+00   1.9808E+00   4.6946E-04  0.0055
   1.9808E+00   2.0290E+00   4.6779E-04  0.0054
   2.0290E+00   2.0784E+00   4.6624E-04  0.0054
   2.0784E+00   2.1290E+00   4.5988E-04  0.0053
   2.1290E+00   2.1808E+00   4.5435E-04  0.0053
   2.1808E+00   2.2338E+00   4.5216E-04  0.0053
   2.2338E+00   2.2882E+00   4.4116E-04  0.0053
   2.2882E+00   2.3439E+00   4.3603E-04  0.0052
   2.3439E+00   2.4009E+00   4.3440E-04  0.0052
   2.4009E+00   2.4593E+00   4.3050E-04  0.0051
   2.4593E+00   2.5191E+00   4.2410E-04  0.0051
   2.5191E+00   2.5804E+00   4.1892E-04  0.0051
   2.5804E+00   2.6432E+00   4.1860E-04  0.0050
   2.6432E+00   2.7075E+00   4.1136E-04  0.0050
   2.7075E+00   2.7734E+00   4.0872E-04  0.0050
   2.7734E+00   2.8409E+00   4.0304E-04  0.0049
   2.8409E+00   2.9100E+00   4.0043E-04  0.0049
   2.9100E+00   2.9808E+00   3.9772E-04  0.0049
   2.9808E+00   3.0533E+00   3.9218E-04  0.0048
   3.0533E+00   3.1276E+00   3.8463E-04  0.0048
   3.1276E+00   3.2037E+00   3.8113E-04  0.0048
   3.2037E+00   3.2817E+00   3.8039E-04  0.0047
   3.2817E+00   3.3615E+00   3.7601E-04  0.0047
   3.3615E+00   3.4433E+00   3.7271E-04  0.0047
   3.4433E+00   3.5271E+00   3.6584E-04  0.0047
   3.5271E+00   3.6129E+00   3.6194E-04  0.0046
   3.6129E+00   3.7008E+00   3.6050E-04  0.0046
   3.7008E+00   3.7908E+00   3.5440E-04  0.0046
   3.7908E+00   3.8831E+00   3.4896E-04  0.0045
   3.8831E+00   3.9776E+00   3.4390E-04  0.0045
   3.9776E+00   4.0743E+00   3.4081E-04  0.0045
   4.0743E+00   4.1735E+00   3.3788E-04  0.0045
   4.1735E+00   4.2750E+00   3.3343E-04  0.0044
   4.2750E+00   4.3790E+00   3.2913E-04  0.0044
   4.3790E+00   4.4856E+00   3.2335E-04  0.0044
   4.4856E+00   4.5947E+00   3.2484E-04  0.0043
   4.5947E+00   4.7065E+00   3.2271E-04  0.0043
   4.7065E+00   4.8210E+00   3.1847E-04  0.0043
   4.8210E+00   4.9383E+00   3.2168E-04  0.0042
   4.9383E+00   5.0585E+00   3.1689E-04  0.0042
   5.0585E+00   5.1815E+00   3.1270E-04  0.0042
   5.1815E+00   5.3076E+00   3.0731E-04  0.0041
   5.3076E+00   5.4368E+00   3.0478E-04  0.0041
   5.4368E+00   5.5690E+00   2.9867E-04  0.0041
   5.5690E+00   5.7045E+00   2.9764E-04  0.0041
   5.7045E+00   5.8433E+00   2.9029E-04  0.0041
   5.8433E+00   5.9855E+00   2.8679E-04  0.0040
   5.9855E+00   6.1311E+00   2.8357E-04  0.0040
   6.1311E+00   6.2803E+00   2.7910E-04  0.0040
   6.2803E+00   6.4331E+00   2.7559E-04  0.0040
   6.4331E+00   6.5896E+00   2.7294E-04  0.0039
   6.5896E+00   6.7500E+00   2.6909E-04  0.0039
   6.7500E+00   6.9142E+00   2.6438E-04  0.0039
   6.9142E+00   7.0824E+00   2.6049E-04  0.0039
   7.0824E+00   7.2548E+00   2.5845E-04  0.0039
   7.2548E+00   7.4313E+00   2.5355E-04  0.0039
   7.4313E+00   7.6121E+00   2.5103E-04  0.0038
   7.6121E+00   7.7973E+00   2.4714E-04  0.0038
   7.7973E+00   7.9870E+00   2.4373E-04  0.0038
   7.9870E+00   8.1813E+00   2.4064E-04  0.0038
   8.1813E+00   8.3804E+00   2.3662E-04  0.0038
   8.3804E+00   8.5843E+00   2.3297E-04  0.0037
   8.5843E+00   8.7931E+00   2.2970E-04  0.0037
   8.7931E+00   9.0071E+00   2.2540E-04  0.0037
   9.0071E+00   9.2262E+00   2.2285E-04  0.0037
   9.2262E+00   9.4507E+00   2.2034E-04  0.0037
   9.4507E+00   9.6807E+00   2.1569E-04  0.0037
   9.6807E+00   9.9162E+00   2.1396E-04  0.0036
   9.9162E+00   1.0157E+01   2.1053E-04  0.0036
   1.0157E+01   1.0405E+01   2.1026E-04  0.0036
   1.0405E+01   1.0658E+01   2.0628E-04  0.0036
   1.0658E+01   1.0917E+01   2.0596E-04  0.0035
   1.0917E+01   1.1183E+01   2.0471E-04  0.0035
   1.1183E+01   1.1455E+01   2.0198E-04  0.0035
   1.1455E+01   1.1733E+01   1.9952E-04  0.0035
   1.1733E+01   1.2019E+01   1.9901E-04  0.0034
   1.2019E+01   1.2311E+01   1.9590E-04  0.0034
   1.2311E+01   1.2611E+01   1.9378E-04  0.0034
   1.2611E+01   1.2918E+01   1.9282E-04  0.0034
   1.2918E+01   1.3232E+01   1.9049E-04  0.0033
   1.3232E+01   1.3554E+01   1.8885E-04  0.0033
   1.3554E+01   1.3884E+01   1.8766E-04  0.0033
   1.3884E+01   1.4222E+01   1.8584E-04  0.0033
   1.4222E+01   1.4568E+01   1.8379E-04  0.0032
   1.4568E+01   1.4922E+01   1.8279E-04  0.0032
   1.4922E+01   1.5285E+01   1.8123E-04  0.0032
   1.5285E+01   1.5657E+01   1.8017E-04  0.0032
   1.5657E+01   1.6038E+01   1.7932E-04  0.0031
   1.6038E+01   1.6428E+01   1.7916E-04  0.0031
   1.6428E+01   1.6828E+01   1.7626E-04  0.0031
   1.6828E+01   1.7237E+01   1.7568E-04  0.0030
   1.7237E+01   1.7657E+01   1.7493E-04  0.0030
   1.7657E+01   1.8086E+01   1.7306E-04  0.0030
   1.8086E+01   1.8526E+01   1.7226E-04  0.0030
   1.8526E+01   1.8977E+01   1.7156E-04  0.0029
   1.8977E+01   1.9439E+01   1.7002E-04  0.0029
   1.9439E+01   1.9912E+01   1.7062E-04  0.0029
   1.9912E+01   2.0396E+01   1.7034E-04  0.0028
   2.0396E+01   2.0893E+01   1.7033E-04  0.0028
   2.0893E+01   2.1401E+01   1.6913E-04  0.0028
   2.1401E+01   2.1922E+01   1.6687E-04  0.0028
   2.1922E+01   2.2455E+01   1.6559E-04  0.0027
   2.2455E+01   2.3001E+01   1.6427E-04  0.0027
   2.3001E+01   2.3561E+01   1.6288E-04  0.0027
   2.3561E+01   2.4134E+01   1.6105E-04  0.0027
   2.4134E+01   2.4721E+01   1.5970E-04  0.0027
   2.4721E+01   2.5323E+01   1.5698E-04  0.0027
   2.5323E+01   2.5939E+01   1.5575E-04  0.0026
   2.5939E+01   2.6570E+01   1.5307E-04  0.0026
   2.6570E+01   2.7217E+01   1.5041E-04  0.0026
   2.7217E+01   2.7879E+01   1.4791E-04  0.0026
   2.7879E+01   2.8557E+01   1.4514E-04  0.0026
   2.8557E+01   2.9252E+01   1.4266E-04  0.0026
   2.9252E+01   2.9964E+01   1.3925E-04  0.0026
   2.9964E+01   3.0693E+01   1.3554E-04  0.0026
   3.0693E+01   3.1440E+01   1.3233E-04  0.0026
   3.1440E+01   3.2205E+01   1.2819E-04  0.0026
   3.2205E+01   3.2988E+01   1.2486E-04  0.0026
   3.2988E+01   3.3791E+01   1.2039E-04  0.0026
   3.3791E+01   3.4613E+01   1.1611E-04  0.0026
   3.4613E+01   3.5455E+01   1.1178E-04  0.0027
   3.5455E+01   3.6318E+01   1.0731E-04  0.0027
   3.6318E+01   3.7201E+01   1.0260E-04  0.0027
   3.7201E+01   3.8106E+01   9.7697E-05  0.0027
   3.8106E+01   3.9034E+01   9.2672E-05  0.0028
   3.9034E+01   3.9983E+01   8.8242E-05  0.0028
   3.9983E+01   4.0956E+01   8.2718E-05  0.0029
   4.0956E+01   4.1953E+01   7.8188E-05  0.0029
   4.1953E+01   4.2973E+01   7.3805E-05  0.0030
   4.2973E+01   4.4019E+01   6.9305E-05  0.0030
   4.4019E+01   4.5090E+01   6.4880E-05  0.0031
   4.5090E+01   4.6187E+01   6.0770E-05  0.0032
   4.6187E+01   4.7311E+01   5.6157E-05  0.0033
   4.7311E+01   4.8462E+01   5.2264E-05  0.0033
   4.8462E+01   4.9641E+01   4.8871E-05  0.0034
   4.9641E+01   5.0849E+01   4.5268E-05  0.0035
   5.0849E+01   5.2086E+01   4.1692E-05  0.0036
   5.2086E+01   5.3353E+01   3.8672E-05  0.0037
   5.3353E+01   5.4651E+01   3.5743E-05  0.0038
   5.4651E+01   5.5981E+01   3.2825E-05  0.0039
   5.5981E+01   5.7343E+01   3.0490E-05  0.0040
   5.7343E+01   5.8738E+01   2.7745E-05  0.0041
   5.8738E+01   6.0168E+01   2.5754E-05  0.0043
   6.0168E+01   6.1632E+01   2.3597E-05  0.0044
   6.1632E+01   6.3131E+01   2.1812E-05  0.0045
   6.3131E+01   6.4667E+01   2.0002E-05  0.0047
   6.4667E+01   6.6240E+01   1.8348E-05  0.0048
   6.6240E+01   6.7852E+01   1.6803E-05  0.0050
   6.7852E+01   6.9503E+01   1.5309E-05  0.0051
   6.9503E+01   7.1194E+01   1.3826E-05  0.0053
   7.1194E+01   7.2926E+01   1.2674E-05  0.0055
   7.2926E+01   7.4701E+01   1.1529E-05  0.0057
   7.4701E+01   7.6518E+01   1.0687E-05  0.0059
   7.6518E+01   7.8380E+01   1.0072E-05  0.0060
   7.8380E+01   8.0287E+01   9.2118E-06  0.0062
   8.0287E+01   8.2240E+01   8.3268E-06  0.0064
   8.2240E+01   8.4241E+01   7.7509E-06  0.0066
   8.4241E+01   8.6291E+01   7.5931E-06  0.0065
   8.6291E+01   8.8391E+01   7.2753E-06  0.0066
   8.8391E+01   9.0541E+01   6.7454E-06  0.0068
   9.0541E+01   9.2744E+01   5.8549E-06  0.0072
   9.2744E+01   9.5001E+01   4.9613E-06  0.0077
   9.5001E+01   9.7312E+01   4.0085E-06  0.0085
   9.7312E+01   9.9680E+01   3.1341E-06  0.0095
   9.9680E+01   1.0211E+02   2.4833E-06  0.0105
   1.0211E+02   1.0459E+02   1.4593E-06  0.0136
   1.0459E+02   1.0713E+02   5.5906E-07  0.0216
   1.0713E+02   1.0974E+02   7.3657E-08  0.0589
   1.0974E+02   1.1241E+02   7.4904E-10  0.5774
   1.1241E+02   1.1515E+02   0.0000E+00  0.0000
   1.1515E+02   1.1795E+02   0.0000E+00  0.0000
   1.1795E+02   1.2082E+02   0.0000E+00  0.0000
   1.2082E+02   1.2376E+02   0.0000E+00  0.0000
   1.2376E+02   1.2677E+02   0.0000E+00  0.0000
   1.2677E+02   1.2985E+02   0.0000E+00  0.0000
   1.2985E+02   1.3301E+02   0.0000E+00  0.0000
   1.3301E+02   1.3625E+02   0.0000E+00  0.0000
   1.3625E+02   1.3956E+02   0.0000E+00  0.0000
   1.3956E+02   1.4296E+02   0.0000E+00  0.0000
   1.4296E+02   1.4644E+02   0.0000E+00  0.0000
   1.4644E+02   1.5000E+02   0.0000E+00  0.0000

#   sum over                 6.3149E-05
'no. =    1   reg = 107 - 207'
msuc: {\huge [t-cross] in region mesh}
msdr: {\it plotted by \ANGEL \version}
msdl: {\it calculated by \PHITS  3.26}
wt: s(0.7)
\vspace{-3}
  region surface crossing
  area  &=&   1.0000E+00 [cm^2]
e:
 
# Information for Restart Calculation
# This calculation was newly started
# istdev =  2 # 1:Batch variance, 2:History variance
# resc2  = 1.50000000000000000E+09 # Total source weight or Total source weight / maxcas
# resc3  = 1.50000000000000000E+09 # Total history number or Total batch number
# maxcas =   500000000 # History / Batch, only used for istdev=1
# bitrseed = 0000010101110101110110100110011001100101000001100111100100101101 # bit data of rseed
