[ T-Cross ]
    title = [t-cross] in region mesh
     mesh =  reg            # mesh type is region-wise
      reg =    1            # number of crossing regions
      non     r-from    r-to       area
      1       126       226        1.000000    
   e-type =    3            # e-mesh is log given by emin, emax and ne
     emin =  1.0000000E-02  # minimum value of e-mesh points
     emax =   150.0000      # maximum value of e-mesh points
#    edel =  2.4039514E-02  # mesh width of e-mesh points
       ne =    400          # number of e-mesh points
#    data = ( e(i), i = 1, ne + 1 )
#           1.00000E-02  1.02433E-02  1.04925E-02  1.07478E-02  1.10093E-02
#           1.12772E-02  1.15516E-02  1.18326E-02  1.21205E-02  1.24154E-02
#           1.27175E-02  1.30269E-02  1.33439E-02  1.36686E-02  1.40011E-02
#           1.43418E-02  1.46907E-02  1.50482E-02  1.54143E-02  1.57894E-02
#           1.61735E-02  1.65670E-02  1.69701E-02  1.73830E-02  1.78060E-02
#           1.82392E-02  1.86830E-02  1.91375E-02  1.96032E-02  2.00801E-02
#           2.05687E-02  2.10692E-02  2.15818E-02  2.21069E-02  2.26448E-02
#           2.31957E-02  2.37601E-02  2.43382E-02  2.49304E-02  2.55369E-02
#           2.61583E-02  2.67947E-02  2.74467E-02  2.81145E-02  2.87985E-02
#           2.94992E-02  3.02169E-02  3.09521E-02  3.17052E-02  3.24766E-02
#           3.32668E-02  3.40762E-02  3.49053E-02  3.57546E-02  3.66246E-02
#           3.75157E-02  3.84284E-02  3.93634E-02  4.03212E-02  4.13022E-02
#           4.23071E-02  4.33365E-02  4.43909E-02  4.54710E-02  4.65773E-02
#           4.77106E-02  4.88714E-02  5.00605E-02  5.12785E-02  5.25262E-02
#           5.38042E-02  5.51133E-02  5.64542E-02  5.78278E-02  5.92348E-02
#           6.06760E-02  6.21523E-02  6.36645E-02  6.52135E-02  6.68002E-02
#           6.84255E-02  7.00904E-02  7.17957E-02  7.35426E-02  7.53319E-02
#           7.71648E-02  7.90423E-02  8.09655E-02  8.29354E-02  8.49533E-02
#           8.70203E-02  8.91376E-02  9.13064E-02  9.35279E-02  9.58035E-02
#           9.81345E-02  1.00522E-01  1.02968E-01  1.05473E-01  1.08040E-01
#           1.10668E-01  1.13361E-01  1.16119E-01  1.18944E-01  1.21838E-01
#           1.24803E-01  1.27839E-01  1.30950E-01  1.34136E-01  1.37399E-01
#           1.40742E-01  1.44167E-01  1.47675E-01  1.51268E-01  1.54948E-01
#           1.58718E-01  1.62580E-01  1.66535E-01  1.70587E-01  1.74738E-01
#           1.78989E-01  1.83344E-01  1.87805E-01  1.92375E-01  1.97055E-01
#           2.01850E-01  2.06761E-01  2.11792E-01  2.16945E-01  2.22223E-01
#           2.27630E-01  2.33169E-01  2.38842E-01  2.44653E-01  2.50605E-01
#           2.56703E-01  2.62949E-01  2.69346E-01  2.75900E-01  2.82613E-01
#           2.89489E-01  2.96532E-01  3.03747E-01  3.11138E-01  3.18708E-01
#           3.26462E-01  3.34405E-01  3.42542E-01  3.50876E-01  3.59413E-01
#           3.68158E-01  3.77116E-01  3.86291E-01  3.95690E-01  4.05317E-01
#           4.15179E-01  4.25281E-01  4.35628E-01  4.46227E-01  4.57084E-01
#           4.68205E-01  4.79597E-01  4.91266E-01  5.03219E-01  5.15463E-01
#           5.28005E-01  5.40851E-01  5.54011E-01  5.67490E-01  5.81298E-01
#           5.95441E-01  6.09929E-01  6.24769E-01  6.39970E-01  6.55541E-01
#           6.71491E-01  6.87828E-01  7.04564E-01  7.21706E-01  7.39266E-01
#           7.57253E-01  7.75678E-01  7.94551E-01  8.13883E-01  8.33685E-01
#           8.53969E-01  8.74747E-01  8.96030E-01  9.17831E-01  9.40163E-01
#           9.63038E-01  9.86469E-01  1.01047E+00  1.03506E+00  1.06024E+00
#           1.08604E+00  1.11246E+00  1.13953E+00  1.16725E+00  1.19565E+00
#           1.22474E+00  1.25454E+00  1.28507E+00  1.31633E+00  1.34836E+00
#           1.38117E+00  1.41477E+00  1.44920E+00  1.48446E+00  1.52057E+00
#           1.55757E+00  1.59547E+00  1.63429E+00  1.67405E+00  1.71478E+00
#           1.75650E+00  1.79924E+00  1.84302E+00  1.88786E+00  1.93379E+00
#           1.98084E+00  2.02904E+00  2.07841E+00  2.12898E+00  2.18078E+00
#           2.23384E+00  2.28819E+00  2.34386E+00  2.40089E+00  2.45930E+00
#           2.51914E+00  2.58043E+00  2.64322E+00  2.70753E+00  2.77341E+00
#           2.84088E+00  2.91001E+00  2.98081E+00  3.05333E+00  3.12762E+00
#           3.20372E+00  3.28167E+00  3.36152E+00  3.44330E+00  3.52708E+00
#           3.61290E+00  3.70080E+00  3.79085E+00  3.88308E+00  3.97756E+00
#           4.07434E+00  4.17347E+00  4.27501E+00  4.37903E+00  4.48557E+00
#           4.59471E+00  4.70650E+00  4.82102E+00  4.93832E+00  5.05847E+00
#           5.18155E+00  5.30762E+00  5.43676E+00  5.56904E+00  5.70453E+00
#           5.84333E+00  5.98550E+00  6.13114E+00  6.28031E+00  6.43312E+00
#           6.58964E+00  6.74997E+00  6.91420E+00  7.08243E+00  7.25475E+00
#           7.43126E+00  7.61207E+00  7.79728E+00  7.98700E+00  8.18133E+00
#           8.38038E+00  8.58428E+00  8.79315E+00  9.00709E+00  9.22624E+00
#           9.45072E+00  9.68067E+00  9.91620E+00  1.01575E+01  1.04046E+01
#           1.06578E+01  1.09171E+01  1.11827E+01  1.14548E+01  1.17335E+01
#           1.20190E+01  1.23114E+01  1.26109E+01  1.29178E+01  1.32321E+01
#           1.35540E+01  1.38838E+01  1.42216E+01  1.45676E+01  1.49221E+01
#           1.52851E+01  1.56570E+01  1.60380E+01  1.64282E+01  1.68279E+01
#           1.72374E+01  1.76568E+01  1.80864E+01  1.85264E+01  1.89772E+01
#           1.94389E+01  1.99119E+01  2.03963E+01  2.08926E+01  2.14009E+01
#           2.19216E+01  2.24550E+01  2.30014E+01  2.35610E+01  2.41343E+01
#           2.47215E+01  2.53230E+01  2.59391E+01  2.65702E+01  2.72167E+01
#           2.78789E+01  2.85572E+01  2.92520E+01  2.99637E+01  3.06928E+01
#           3.14396E+01  3.22045E+01  3.29881E+01  3.37907E+01  3.46128E+01
#           3.54550E+01  3.63177E+01  3.72013E+01  3.81064E+01  3.90336E+01
#           3.99833E+01  4.09561E+01  4.19526E+01  4.29734E+01  4.40189E+01
#           4.50900E+01  4.61870E+01  4.73108E+01  4.84619E+01  4.96410E+01
#           5.08488E+01  5.20860E+01  5.33533E+01  5.46514E+01  5.59812E+01
#           5.73432E+01  5.87384E+01  6.01676E+01  6.16315E+01  6.31311E+01
#           6.46671E+01  6.62405E+01  6.78522E+01  6.95031E+01  7.11941E+01
#           7.29263E+01  7.47007E+01  7.65182E+01  7.83800E+01  8.02870E+01
#           8.22405E+01  8.42414E+01  8.62911E+01  8.83906E+01  9.05412E+01
#           9.27442E+01  9.50007E+01  9.73122E+01  9.96799E+01  1.02105E+02
#           1.04589E+02  1.07134E+02  1.09741E+02  1.12411E+02  1.15146E+02
#           1.17948E+02  1.20817E+02  1.23757E+02  1.26768E+02  1.29852E+02
#           1.33012E+02  1.36248E+02  1.39563E+02  1.42959E+02  1.46437E+02
#           1.50000E+02
     unit =    2            # unit is [1/cm^2/(MeV/n)/source]
     axis =  eng            # axis of output
     file = detector-27.out  # file name of output for the above axis
   output = f-curr          # surface crossing forward current spectrum
     part =  neutron  
# kf/name :  2112     
#    used :        main (  %)        temp (  %)       total (  %)
#  memory :         414 (  0)           0 (  0)         414 (  0)

#------------------------------------------------------------------------------
#newpage:
#   no. =    1   reg = 126 - 226

x: Energy [MeV/n]
y:  F-Curr [1/cm^2/(MeV/n)/source]         
p: xlog ylog afac(0.8) form(0.9)
h: n            x            y(neutron ),hh0l   n 
#  e-lower      e-upper      neutron     r.err 
   1.0000E-02   1.0243E-02   3.7894E-04  0.0466
   1.0243E-02   1.0493E-02   3.5550E-04  0.0475
   1.0493E-02   1.0748E-02   4.1599E-04  0.0434
   1.0748E-02   1.1009E-02   3.7782E-04  0.0450
   1.1009E-02   1.1277E-02   4.1737E-04  0.0423
   1.1277E-02   1.1552E-02   3.7393E-04  0.0442
   1.1552E-02   1.1833E-02   3.5936E-04  0.0446
   1.1833E-02   1.2121E-02   3.6749E-04  0.0435
   1.2121E-02   1.2415E-02   3.5266E-04  0.0439
   1.2415E-02   1.2718E-02   3.5289E-04  0.0433
   1.2718E-02   1.3027E-02   3.6131E-04  0.0423
   1.3027E-02   1.3344E-02   3.4958E-04  0.0425
   1.3344E-02   1.3669E-02   3.6406E-04  0.0411
   1.3669E-02   1.4001E-02   3.3978E-04  0.0421
   1.4001E-02   1.4342E-02   3.4169E-04  0.0415
   1.4342E-02   1.4691E-02   3.3186E-04  0.0416
   1.4691E-02   1.5048E-02   3.3516E-04  0.0409
   1.5048E-02   1.5414E-02   3.4250E-04  0.0399
   1.5414E-02   1.5789E-02   3.2370E-04  0.0406
   1.5789E-02   1.6174E-02   3.2069E-04  0.0403
   1.6174E-02   1.6567E-02   3.2324E-04  0.0397
   1.6567E-02   1.6970E-02   3.2350E-04  0.0392
   1.6970E-02   1.7383E-02   3.3374E-04  0.0381
   1.7383E-02   1.7806E-02   3.0832E-04  0.0392
   1.7806E-02   1.8239E-02   3.0607E-04  0.0388
   1.8239E-02   1.8683E-02   3.1548E-04  0.0378
   1.8683E-02   1.9138E-02   3.2338E-04  0.0369
   1.9138E-02   1.9603E-02   2.9766E-04  0.0380
   1.9603E-02   2.0080E-02   3.0149E-04  0.0373
   2.0080E-02   2.0569E-02   3.1030E-04  0.0363
   2.0569E-02   2.1069E-02   3.0932E-04  0.0359
   2.1069E-02   2.1582E-02   3.2226E-04  0.0348
   2.1582E-02   2.2107E-02   2.9709E-04  0.0358
   2.2107E-02   2.2645E-02   2.9561E-04  0.0355
   2.2645E-02   2.3196E-02   2.8568E-04  0.0356
   2.3196E-02   2.3760E-02   2.7712E-04  0.0358
   2.3760E-02   2.4338E-02   2.8922E-04  0.0346
   2.4338E-02   2.4930E-02   2.7526E-04  0.0350
   2.4930E-02   2.5537E-02   2.8719E-04  0.0339
   2.5537E-02   2.6158E-02   2.7521E-04  0.0342
   2.6158E-02   2.6795E-02   2.7339E-04  0.0339
   2.6795E-02   2.7447E-02   2.7825E-04  0.0332
   2.7447E-02   2.8114E-02   2.7044E-04  0.0333
   2.8114E-02   2.8799E-02   2.7630E-04  0.0325
   2.8799E-02   2.9499E-02   2.7972E-04  0.0319
   2.9499E-02   3.0217E-02   2.7698E-04  0.0317
   3.0217E-02   3.0952E-02   2.6741E-04  0.0319
   3.0952E-02   3.1705E-02   2.7221E-04  0.0312
   3.1705E-02   3.2477E-02   2.6834E-04  0.0311
   3.2477E-02   3.3267E-02   2.7943E-04  0.0301
   3.3267E-02   3.4076E-02   2.4734E-04  0.0316
   3.4076E-02   3.4905E-02   2.5642E-04  0.0307
   3.4905E-02   3.5755E-02   2.4798E-04  0.0308
   3.5755E-02   3.6625E-02   2.4370E-04  0.0307
   3.6625E-02   3.7516E-02   2.6664E-04  0.0290
   3.7516E-02   3.8428E-02   2.4475E-04  0.0299
   3.8428E-02   3.9363E-02   2.6011E-04  0.0287
   3.9363E-02   4.0321E-02   2.5832E-04  0.0284
   4.0321E-02   4.1302E-02   2.5901E-04  0.0281
   4.1302E-02   4.2307E-02   2.6390E-04  0.0275
   4.2307E-02   4.3337E-02   2.4695E-04  0.0280
   4.3337E-02   4.4391E-02   2.5151E-04  0.0275
   4.4391E-02   4.5471E-02   2.3869E-04  0.0279
   4.5471E-02   4.6577E-02   2.5779E-04  0.0265
   4.6577E-02   4.7711E-02   2.5484E-04  0.0263
   4.7711E-02   4.8871E-02   2.4103E-04  0.0267
   4.8871E-02   5.0061E-02   2.3430E-04  0.0268
   5.0061E-02   5.1279E-02   2.4318E-04  0.0260
   5.1279E-02   5.2526E-02   2.4125E-04  0.0258
   5.2526E-02   5.3804E-02   2.3396E-04  0.0259
   5.3804E-02   5.5113E-02   2.3115E-04  0.0257
   5.5113E-02   5.6454E-02   2.2566E-04  0.0257
   5.6454E-02   5.7828E-02   2.2685E-04  0.0253
   5.7828E-02   5.9235E-02   2.2587E-04  0.0251
   5.9235E-02   6.0676E-02   2.2259E-04  0.0250
   6.0676E-02   6.2152E-02   2.2177E-04  0.0247
   6.2152E-02   6.3665E-02   2.1902E-04  0.0246
   6.3665E-02   6.5214E-02   2.2711E-04  0.0238
   6.5214E-02   6.6800E-02   2.2752E-04  0.0235
   6.6800E-02   6.8426E-02   2.1387E-04  0.0240
   6.8426E-02   7.0090E-02   2.1984E-04  0.0234
   7.0090E-02   7.1796E-02   2.1356E-04  0.0234
   7.1796E-02   7.3543E-02   2.1433E-04  0.0231
   7.3543E-02   7.5332E-02   2.1628E-04  0.0227
   7.5332E-02   7.7165E-02   2.1343E-04  0.0226
   7.7165E-02   7.9042E-02   2.1785E-04  0.0221
   7.9042E-02   8.0965E-02   2.1059E-04  0.0222
   8.0965E-02   8.2935E-02   2.0610E-04  0.0222
   8.2935E-02   8.4953E-02   2.0487E-04  0.0220
   8.4953E-02   8.7020E-02   2.0968E-04  0.0215
   8.7020E-02   8.9138E-02   2.0663E-04  0.0214
   8.9138E-02   9.1306E-02   2.0297E-04  0.0213
   9.1306E-02   9.3528E-02   2.1093E-04  0.0207
   9.3528E-02   9.5804E-02   2.0645E-04  0.0206
   9.5804E-02   9.8134E-02   1.9889E-04  0.0208
   9.8134E-02   1.0052E-01   2.0396E-04  0.0203
   1.0052E-01   1.0297E-01   2.0157E-04  0.0201
   1.0297E-01   1.0547E-01   2.0309E-04  0.0198
   1.0547E-01   1.0804E-01   2.0333E-04  0.0196
   1.0804E-01   1.1067E-01   1.9873E-04  0.0196
   1.1067E-01   1.1336E-01   2.0255E-04  0.0191
   1.1336E-01   1.1612E-01   1.9470E-04  0.0193
   1.1612E-01   1.1894E-01   1.9595E-04  0.0190
   1.1894E-01   1.2184E-01   2.0104E-04  0.0185
   1.2184E-01   1.2480E-01   1.9673E-04  0.0185
   1.2480E-01   1.2784E-01   1.8393E-04  0.0189
   1.2784E-01   1.3095E-01   1.9129E-04  0.0183
   1.3095E-01   1.3414E-01   1.8662E-04  0.0183
   1.3414E-01   1.3740E-01   1.9696E-04  0.0176
   1.3740E-01   1.4074E-01   1.8971E-04  0.0178
   1.4074E-01   1.4417E-01   1.9017E-04  0.0175
   1.4417E-01   1.4767E-01   1.8901E-04  0.0174
   1.4767E-01   1.5127E-01   1.9042E-04  0.0171
   1.5127E-01   1.5495E-01   1.8688E-04  0.0171
   1.5495E-01   1.5872E-01   1.8111E-04  0.0171
   1.5872E-01   1.6258E-01   1.8593E-04  0.0167
   1.6258E-01   1.6654E-01   1.8459E-04  0.0165
   1.6654E-01   1.7059E-01   1.8534E-04  0.0163
   1.7059E-01   1.7474E-01   1.8586E-04  0.0161
   1.7474E-01   1.7899E-01   1.8083E-04  0.0161
   1.7899E-01   1.8334E-01   1.8352E-04  0.0158
   1.8334E-01   1.8781E-01   1.8041E-04  0.0158
   1.8781E-01   1.9237E-01   1.8164E-04  0.0155
   1.9237E-01   1.9706E-01   1.7335E-04  0.0157
   1.9706E-01   2.0185E-01   1.7941E-04  0.0152
   2.0185E-01   2.0676E-01   1.7707E-04  0.0152
   2.0676E-01   2.1179E-01   1.8006E-04  0.0149
   2.1179E-01   2.1694E-01   1.7636E-04  0.0148
   2.1694E-01   2.2222E-01   1.7653E-04  0.0147
   2.2222E-01   2.2763E-01   1.7726E-04  0.0144
   2.2763E-01   2.3317E-01   1.6694E-04  0.0147
   2.3317E-01   2.3884E-01   1.7165E-04  0.0143
   2.3884E-01   2.4465E-01   1.6685E-04  0.0144
   2.4465E-01   2.5061E-01   1.7213E-04  0.0140
   2.5061E-01   2.5670E-01   1.6495E-04  0.0141
   2.5670E-01   2.6295E-01   1.6997E-04  0.0137
   2.6295E-01   2.6935E-01   1.6653E-04  0.0137
   2.6935E-01   2.7590E-01   1.6300E-04  0.0137
   2.7590E-01   2.8261E-01   1.6127E-04  0.0136
   2.8261E-01   2.8949E-01   1.6409E-04  0.0133
   2.8949E-01   2.9653E-01   1.6299E-04  0.0132
   2.9653E-01   3.0375E-01   1.6014E-04  0.0132
   3.0375E-01   3.1114E-01   1.5818E-04  0.0131
   3.1114E-01   3.1871E-01   1.5421E-04  0.0131
   3.1871E-01   3.2646E-01   1.5540E-04  0.0129
   3.2646E-01   3.3441E-01   1.5342E-04  0.0128
   3.3441E-01   3.4254E-01   1.5614E-04  0.0125
   3.4254E-01   3.5088E-01   1.5509E-04  0.0124
   3.5088E-01   3.5941E-01   1.5078E-04  0.0125
   3.5941E-01   3.6816E-01   1.5353E-04  0.0122
   3.6816E-01   3.7712E-01   1.5241E-04  0.0121
   3.7712E-01   3.8629E-01   1.4502E-04  0.0123
   3.8629E-01   3.9569E-01   1.4859E-04  0.0120
   3.9569E-01   4.0532E-01   1.4590E-04  0.0119
   4.0532E-01   4.1518E-01   1.4348E-04  0.0119
   4.1518E-01   4.2528E-01   1.3863E-04  0.0120
   4.2528E-01   4.3563E-01   1.3986E-04  0.0118
   4.3563E-01   4.4623E-01   1.4001E-04  0.0116
   4.4623E-01   4.5708E-01   1.3807E-04  0.0116
   4.5708E-01   4.6821E-01   1.3783E-04  0.0114
   4.6821E-01   4.7960E-01   1.3360E-04  0.0115
   4.7960E-01   4.9127E-01   1.3425E-04  0.0113
   4.9127E-01   5.0322E-01   1.2929E-04  0.0114
   5.0322E-01   5.1546E-01   1.2803E-04  0.0113
   5.1546E-01   5.2800E-01   1.2673E-04  0.0112
   5.2800E-01   5.4085E-01   1.2489E-04  0.0112
   5.4085E-01   5.5401E-01   1.2343E-04  0.0111
   5.5401E-01   5.6749E-01   1.1917E-04  0.0112
   5.6749E-01   5.8130E-01   1.1869E-04  0.0110
   5.8130E-01   5.9544E-01   1.1621E-04  0.0110
   5.9544E-01   6.0993E-01   1.1440E-04  0.0110
   6.0993E-01   6.2477E-01   1.1013E-04  0.0111
   6.2477E-01   6.3997E-01   1.0937E-04  0.0110
   6.3997E-01   6.5554E-01   1.0789E-04  0.0109
   6.5554E-01   6.7149E-01   1.0512E-04  0.0109
   6.7149E-01   6.8783E-01   1.0249E-04  0.0109
   6.8783E-01   7.0456E-01   9.9920E-05  0.0109
   7.0456E-01   7.2171E-01   9.7885E-05  0.0109
   7.2171E-01   7.3927E-01   9.4090E-05  0.0110
   7.3927E-01   7.5725E-01   9.3268E-05  0.0109
   7.5725E-01   7.7568E-01   8.9858E-05  0.0110
   7.7568E-01   7.9455E-01   8.7014E-05  0.0110
   7.9455E-01   8.1388E-01   8.3995E-05  0.0111
   8.1388E-01   8.3368E-01   8.2591E-05  0.0111
   8.3368E-01   8.5397E-01   8.0338E-05  0.0111
   8.5397E-01   8.7475E-01   7.7005E-05  0.0112
   8.7475E-01   8.9603E-01   7.3128E-05  0.0113
   8.9603E-01   9.1783E-01   7.1006E-05  0.0114
   9.1783E-01   9.4016E-01   6.8379E-05  0.0114
   9.4016E-01   9.6304E-01   6.3371E-05  0.0117
   9.6304E-01   9.8647E-01   6.0440E-05  0.0119
   9.8647E-01   1.0105E+00   5.7813E-05  0.0120
   1.0105E+00   1.0351E+00   5.6228E-05  0.0120
   1.0351E+00   1.0602E+00   5.6671E-05  0.0118
   1.0602E+00   1.0860E+00   5.6054E-05  0.0118
   1.0860E+00   1.1125E+00   5.5548E-05  0.0117
   1.1125E+00   1.1395E+00   5.5669E-05  0.0115
   1.1395E+00   1.1673E+00   5.5934E-05  0.0114
   1.1673E+00   1.1957E+00   5.5721E-05  0.0112
   1.1957E+00   1.2247E+00   5.4676E-05  0.0112
   1.2247E+00   1.2545E+00   5.3868E-05  0.0112
   1.2545E+00   1.2851E+00   5.3263E-05  0.0111
   1.2851E+00   1.3163E+00   5.4428E-05  0.0108
   1.3163E+00   1.3484E+00   5.2711E-05  0.0109
   1.3484E+00   1.3812E+00   5.1599E-05  0.0109
   1.3812E+00   1.4148E+00   5.1123E-05  0.0108
   1.4148E+00   1.4492E+00   5.0374E-05  0.0107
   1.4492E+00   1.4845E+00   4.8786E-05  0.0108
   1.4845E+00   1.5206E+00   4.7838E-05  0.0108
   1.5206E+00   1.5576E+00   4.6458E-05  0.0108
   1.5576E+00   1.5955E+00   4.5539E-05  0.0108
   1.5955E+00   1.6343E+00   4.4607E-05  0.0107
   1.6343E+00   1.6741E+00   4.3774E-05  0.0107
   1.6741E+00   1.7148E+00   4.2346E-05  0.0108
   1.7148E+00   1.7565E+00   4.1700E-05  0.0107
   1.7565E+00   1.7992E+00   3.9514E-05  0.0109
   1.7992E+00   1.8430E+00   3.8436E-05  0.0109
   1.8430E+00   1.8879E+00   3.7492E-05  0.0109
   1.8879E+00   1.9338E+00   3.5970E-05  0.0110
   1.9338E+00   1.9808E+00   3.4656E-05  0.0111
   1.9808E+00   2.0290E+00   3.2447E-05  0.0113
   2.0290E+00   2.0784E+00   3.2260E-05  0.0112
   2.0784E+00   2.1290E+00   3.0938E-05  0.0113
   2.1290E+00   2.1808E+00   2.8931E-05  0.0116
   2.1808E+00   2.2338E+00   2.7772E-05  0.0116
   2.2338E+00   2.2882E+00   2.6391E-05  0.0118
   2.2882E+00   2.3439E+00   2.4784E-05  0.0120
   2.3439E+00   2.4009E+00   2.4143E-05  0.0121
   2.4009E+00   2.4593E+00   2.3326E-05  0.0121
   2.4593E+00   2.5191E+00   2.1371E-05  0.0125
   2.5191E+00   2.5804E+00   2.0404E-05  0.0126
   2.5804E+00   2.6432E+00   1.9301E-05  0.0128
   2.6432E+00   2.7075E+00   1.7922E-05  0.0132
   2.7075E+00   2.7734E+00   1.7053E-05  0.0133
   2.7734E+00   2.8409E+00   1.6020E-05  0.0136
   2.8409E+00   2.9100E+00   1.4641E-05  0.0141
   2.9100E+00   2.9808E+00   1.3903E-05  0.0143
   2.9808E+00   3.0533E+00   1.3546E-05  0.0143
   3.0533E+00   3.1276E+00   1.1961E-05  0.0150
   3.1276E+00   3.2037E+00   1.1409E-05  0.0152
   3.2037E+00   3.2817E+00   1.0086E-05  0.0160
   3.2817E+00   3.3615E+00   9.7513E-06  0.0160
   3.3615E+00   3.4433E+00   9.1358E-06  0.0164
   3.4433E+00   3.5271E+00   8.2456E-06  0.0170
   3.5271E+00   3.6129E+00   7.5428E-06  0.0176
   3.6129E+00   3.7008E+00   7.3705E-06  0.0176
   3.7008E+00   3.7908E+00   6.5391E-06  0.0184
   3.7908E+00   3.8831E+00   6.2645E-06  0.0186
   3.8831E+00   3.9776E+00   5.5674E-06  0.0195
   3.9776E+00   4.0743E+00   5.1355E-06  0.0201
   4.0743E+00   4.1735E+00   4.7250E-06  0.0207
   4.1735E+00   4.2750E+00   4.3764E-06  0.0212
   4.2750E+00   4.3790E+00   4.0071E-06  0.0219
   4.3790E+00   4.4856E+00   3.6473E-06  0.0227
   4.4856E+00   4.5947E+00   3.3169E-06  0.0235
   4.5947E+00   4.7065E+00   2.9877E-06  0.0245
   4.7065E+00   4.8210E+00   2.8364E-06  0.0248
   4.8210E+00   4.9383E+00   2.6394E-06  0.0254
   4.9383E+00   5.0585E+00   2.2871E-06  0.0270
   5.0585E+00   5.1815E+00   2.0053E-06  0.0285
   5.1815E+00   5.3076E+00   1.9116E-06  0.0288
   5.3076E+00   5.4368E+00   1.7144E-06  0.0301
   5.4368E+00   5.5690E+00   1.5951E-06  0.0308
   5.5690E+00   5.7045E+00   1.3786E-06  0.0327
   5.7045E+00   5.8433E+00   1.2637E-06  0.0338
   5.8433E+00   5.9855E+00   1.1901E-06  0.0344
   5.9855E+00   6.1311E+00   1.0753E-06  0.0357
   6.1311E+00   6.2803E+00   9.1905E-07  0.0382
   6.2803E+00   6.4331E+00   8.5730E-07  0.0391
   6.4331E+00   6.5896E+00   7.3727E-07  0.0416
   6.5896E+00   6.7500E+00   6.6862E-07  0.0432
   6.7500E+00   6.9142E+00   5.7480E-07  0.0460
   6.9142E+00   7.0824E+00   5.7184E-07  0.0456
   7.0824E+00   7.2548E+00   5.2344E-07  0.0471
   7.2548E+00   7.4313E+00   4.5775E-07  0.0498
   7.4313E+00   7.6121E+00   4.3693E-07  0.0503
   7.6121E+00   7.7973E+00   3.8335E-07  0.0531
   7.7973E+00   7.9870E+00   3.3735E-07  0.0559
   7.9870E+00   8.1813E+00   2.8199E-07  0.0604
   8.1813E+00   8.3804E+00   2.6625E-07  0.0613
   8.3804E+00   8.5843E+00   2.4473E-07  0.0632
   8.5843E+00   8.7931E+00   2.0348E-07  0.0686
   8.7931E+00   9.0071E+00   2.1361E-07  0.0661
   9.0071E+00   9.2262E+00   1.8526E-07  0.0701
   9.2262E+00   9.4507E+00   1.4745E-07  0.0776
   9.4507E+00   9.6807E+00   1.5700E-07  0.0743
   9.6807E+00   9.9162E+00   1.3671E-07  0.0786
   9.9162E+00   1.0157E+01   9.9474E-08  0.0907
   1.0157E+01   1.0405E+01   1.2179E-07  0.0810
   1.0405E+01   1.0658E+01   6.9523E-08  0.1063
   1.0658E+01   1.0917E+01   9.1781E-08  0.0915
   1.0917E+01   1.1183E+01   7.4919E-08  0.0999
   1.1183E+01   1.1455E+01   7.0566E-08  0.1013
   1.1455E+01   1.1733E+01   6.3149E-08  0.1057
   1.1733E+01   1.2019E+01   5.7446E-08  0.1098
   1.2019E+01   1.2311E+01   4.1377E-08  0.1283
   1.2311E+01   1.2611E+01   4.3733E-08  0.1229
   1.2611E+01   1.2918E+01   4.2368E-08  0.1231
   1.2918E+01   1.3232E+01   4.2634E-08  0.1217
   1.3232E+01   1.3554E+01   3.6652E-08  0.1296
   1.3554E+01   1.3884E+01   3.6388E-08  0.1286
   1.3884E+01   1.4222E+01   2.6643E-08  0.1482
   1.4222E+01   1.4568E+01   3.2657E-08  0.1322
   1.4568E+01   1.4922E+01   2.7085E-08  0.1443
   1.4922E+01   1.5285E+01   2.6441E-08  0.1443
   1.5285E+01   1.5657E+01   2.0436E-08  0.1622
   1.5657E+01   1.6038E+01   2.0738E-08  0.1586
   1.6038E+01   1.6428E+01   1.9989E-08  0.1601
   1.6428E+01   1.6828E+01   1.7763E-08  0.1672
   1.6828E+01   1.7237E+01   1.7829E-08  0.1650
   1.7237E+01   1.7657E+01   1.3352E-08  0.1890
   1.7657E+01   1.8086E+01   1.4897E-08  0.1768
   1.8086E+01   1.8526E+01   1.3635E-08  0.1826
   1.8526E+01   1.8977E+01   1.0427E-08  0.2052
   1.8977E+01   1.9439E+01   9.0962E-09  0.2182
   1.9439E+01   1.9912E+01   6.9773E-09  0.2443
   1.9912E+01   2.0396E+01   9.0821E-09  0.2132
   2.0396E+01   2.0893E+01   9.6724E-09  0.2041
   2.0893E+01   2.1401E+01   7.4754E-09  0.2294
   2.1401E+01   2.1922E+01   4.6092E-09  0.2887
   2.1922E+01   2.2455E+01   5.9996E-09  0.2500
   2.2455E+01   2.3001E+01   3.6607E-09  0.3162
   2.3001E+01   2.3561E+01   6.7901E-09  0.2294
   2.3561E+01   2.4134E+01   2.4422E-09  0.3780
   2.4134E+01   2.4721E+01   5.4495E-09  0.2500
   2.4721E+01   2.5323E+01   3.6576E-09  0.3015
   2.5323E+01   2.5939E+01   3.5707E-09  0.3015
   2.5939E+01   2.6570E+01   2.8521E-09  0.3333
   2.6570E+01   2.7217E+01   1.8562E-09  0.4082
   2.7217E+01   2.7879E+01   1.2081E-09  0.5000
   2.7879E+01   2.8557E+01   2.9485E-09  0.3162
   2.8557E+01   2.9252E+01   2.8784E-09  0.3162
   2.9252E+01   2.9964E+01   1.4050E-09  0.4472
   2.9964E+01   3.0693E+01   8.2300E-10  0.5774
   3.0693E+01   3.1440E+01   1.0713E-09  0.5000
   3.1440E+01   3.2205E+01   7.8437E-10  0.5774
   3.2205E+01   3.2988E+01   5.1049E-10  0.7071
   3.2988E+01   3.3791E+01   0.0000E+00  0.0000
   3.3791E+01   3.4613E+01   4.8653E-10  0.7071
   3.4613E+01   3.5455E+01   0.0000E+00  0.0000
   3.5455E+01   3.6318E+01   2.3184E-10  1.0000
   3.6318E+01   3.7201E+01   0.0000E+00  0.0000
   3.7201E+01   3.8106E+01   0.0000E+00  0.0000
   3.8106E+01   3.9034E+01   2.1571E-10  1.0000
   3.9034E+01   3.9983E+01   2.1059E-10  1.0000
   3.9983E+01   4.0956E+01   0.0000E+00  0.0000
   4.0956E+01   4.1953E+01   0.0000E+00  0.0000
   4.1953E+01   4.2973E+01   0.0000E+00  0.0000
   4.2973E+01   4.4019E+01   0.0000E+00  0.0000
   4.4019E+01   4.5090E+01   0.0000E+00  0.0000
   4.5090E+01   4.6187E+01   0.0000E+00  0.0000
   4.6187E+01   4.7311E+01   0.0000E+00  0.0000
   4.7311E+01   4.8462E+01   0.0000E+00  0.0000
   4.8462E+01   4.9641E+01   0.0000E+00  0.0000
   4.9641E+01   5.0849E+01   0.0000E+00  0.0000
   5.0849E+01   5.2086E+01   0.0000E+00  0.0000
   5.2086E+01   5.3353E+01   0.0000E+00  0.0000
   5.3353E+01   5.4651E+01   0.0000E+00  0.0000
   5.4651E+01   5.5981E+01   0.0000E+00  0.0000
   5.5981E+01   5.7343E+01   0.0000E+00  0.0000
   5.7343E+01   5.8738E+01   0.0000E+00  0.0000
   5.8738E+01   6.0168E+01   0.0000E+00  0.0000
   6.0168E+01   6.1632E+01   0.0000E+00  0.0000
   6.1632E+01   6.3131E+01   0.0000E+00  0.0000
   6.3131E+01   6.4667E+01   0.0000E+00  0.0000
   6.4667E+01   6.6240E+01   0.0000E+00  0.0000
   6.6240E+01   6.7852E+01   0.0000E+00  0.0000
   6.7852E+01   6.9503E+01   0.0000E+00  0.0000
   6.9503E+01   7.1194E+01   0.0000E+00  0.0000
   7.1194E+01   7.2926E+01   0.0000E+00  0.0000
   7.2926E+01   7.4701E+01   0.0000E+00  0.0000
   7.4701E+01   7.6518E+01   0.0000E+00  0.0000
   7.6518E+01   7.8380E+01   0.0000E+00  0.0000
   7.8380E+01   8.0287E+01   0.0000E+00  0.0000
   8.0287E+01   8.2240E+01   0.0000E+00  0.0000
   8.2240E+01   8.4241E+01   0.0000E+00  0.0000
   8.4241E+01   8.6291E+01   0.0000E+00  0.0000
   8.6291E+01   8.8391E+01   0.0000E+00  0.0000
   8.8391E+01   9.0541E+01   0.0000E+00  0.0000
   9.0541E+01   9.2744E+01   0.0000E+00  0.0000
   9.2744E+01   9.5001E+01   0.0000E+00  0.0000
   9.5001E+01   9.7312E+01   0.0000E+00  0.0000
   9.7312E+01   9.9680E+01   0.0000E+00  0.0000
   9.9680E+01   1.0211E+02   0.0000E+00  0.0000
   1.0211E+02   1.0459E+02   0.0000E+00  0.0000
   1.0459E+02   1.0713E+02   0.0000E+00  0.0000
   1.0713E+02   1.0974E+02   0.0000E+00  0.0000
   1.0974E+02   1.1241E+02   0.0000E+00  0.0000
   1.1241E+02   1.1515E+02   0.0000E+00  0.0000
   1.1515E+02   1.1795E+02   0.0000E+00  0.0000
   1.1795E+02   1.2082E+02   0.0000E+00  0.0000
   1.2082E+02   1.2376E+02   0.0000E+00  0.0000
   1.2376E+02   1.2677E+02   0.0000E+00  0.0000
   1.2677E+02   1.2985E+02   0.0000E+00  0.0000
   1.2985E+02   1.3301E+02   0.0000E+00  0.0000
   1.3301E+02   1.3625E+02   0.0000E+00  0.0000
   1.3625E+02   1.3956E+02   0.0000E+00  0.0000
   1.3956E+02   1.4296E+02   0.0000E+00  0.0000
   1.4296E+02   1.4644E+02   0.0000E+00  0.0000
   1.4644E+02   1.5000E+02   0.0000E+00  0.0000

#   sum over                 1.4549E-06
'no. =    1   reg = 126 - 226'
msuc: {\huge [t-cross] in region mesh}
msdr: {\it plotted by \ANGEL \version}
msdl: {\it calculated by \PHITS  3.26}
wt: s(0.7)
\vspace{-3}
  region surface crossing
  area  &=&   1.0000E+00 [cm^2]
e:
 
# Information for Restart Calculation
# This calculation was newly started
# istdev =  2 # 1:Batch variance, 2:History variance
# resc2  = 5.00000000000000000E+09 # Total source weight or Total source weight / maxcas
# resc3  = 5.00000000000000000E+09 # Total history number or Total batch number
# maxcas =   500000000 # History / Batch, only used for istdev=1
# bitrseed = 0110100000100010111000001110001111001110100100011111101000111001 # bit data of rseed
