[ T-Cross ]
    title = [t-cross] in region mesh
     mesh =  reg            # mesh type is region-wise
      reg =    1            # number of crossing regions
      non     r-from    r-to       area
      1       110       210        1.000000    
   e-type =    3            # e-mesh is log given by emin, emax and ne
     emin =  1.0000000E-02  # minimum value of e-mesh points
     emax =   150.0000      # maximum value of e-mesh points
#    edel =  2.4039514E-02  # mesh width of e-mesh points
       ne =    400          # number of e-mesh points
#    data = ( e(i), i = 1, ne + 1 )
#           1.00000E-02  1.02433E-02  1.04925E-02  1.07478E-02  1.10093E-02
#           1.12772E-02  1.15516E-02  1.18326E-02  1.21205E-02  1.24154E-02
#           1.27175E-02  1.30269E-02  1.33439E-02  1.36686E-02  1.40011E-02
#           1.43418E-02  1.46907E-02  1.50482E-02  1.54143E-02  1.57894E-02
#           1.61735E-02  1.65670E-02  1.69701E-02  1.73830E-02  1.78060E-02
#           1.82392E-02  1.86830E-02  1.91375E-02  1.96032E-02  2.00801E-02
#           2.05687E-02  2.10692E-02  2.15818E-02  2.21069E-02  2.26448E-02
#           2.31957E-02  2.37601E-02  2.43382E-02  2.49304E-02  2.55369E-02
#           2.61583E-02  2.67947E-02  2.74467E-02  2.81145E-02  2.87985E-02
#           2.94992E-02  3.02169E-02  3.09521E-02  3.17052E-02  3.24766E-02
#           3.32668E-02  3.40762E-02  3.49053E-02  3.57546E-02  3.66246E-02
#           3.75157E-02  3.84284E-02  3.93634E-02  4.03212E-02  4.13022E-02
#           4.23071E-02  4.33365E-02  4.43909E-02  4.54710E-02  4.65773E-02
#           4.77106E-02  4.88714E-02  5.00605E-02  5.12785E-02  5.25262E-02
#           5.38042E-02  5.51133E-02  5.64542E-02  5.78278E-02  5.92348E-02
#           6.06760E-02  6.21523E-02  6.36645E-02  6.52135E-02  6.68002E-02
#           6.84255E-02  7.00904E-02  7.17957E-02  7.35426E-02  7.53319E-02
#           7.71648E-02  7.90423E-02  8.09655E-02  8.29354E-02  8.49533E-02
#           8.70203E-02  8.91376E-02  9.13064E-02  9.35279E-02  9.58035E-02
#           9.81345E-02  1.00522E-01  1.02968E-01  1.05473E-01  1.08040E-01
#           1.10668E-01  1.13361E-01  1.16119E-01  1.18944E-01  1.21838E-01
#           1.24803E-01  1.27839E-01  1.30950E-01  1.34136E-01  1.37399E-01
#           1.40742E-01  1.44167E-01  1.47675E-01  1.51268E-01  1.54948E-01
#           1.58718E-01  1.62580E-01  1.66535E-01  1.70587E-01  1.74738E-01
#           1.78989E-01  1.83344E-01  1.87805E-01  1.92375E-01  1.97055E-01
#           2.01850E-01  2.06761E-01  2.11792E-01  2.16945E-01  2.22223E-01
#           2.27630E-01  2.33169E-01  2.38842E-01  2.44653E-01  2.50605E-01
#           2.56703E-01  2.62949E-01  2.69346E-01  2.75900E-01  2.82613E-01
#           2.89489E-01  2.96532E-01  3.03747E-01  3.11138E-01  3.18708E-01
#           3.26462E-01  3.34405E-01  3.42542E-01  3.50876E-01  3.59413E-01
#           3.68158E-01  3.77116E-01  3.86291E-01  3.95690E-01  4.05317E-01
#           4.15179E-01  4.25281E-01  4.35628E-01  4.46227E-01  4.57084E-01
#           4.68205E-01  4.79597E-01  4.91266E-01  5.03219E-01  5.15463E-01
#           5.28005E-01  5.40851E-01  5.54011E-01  5.67490E-01  5.81298E-01
#           5.95441E-01  6.09929E-01  6.24769E-01  6.39970E-01  6.55541E-01
#           6.71491E-01  6.87828E-01  7.04564E-01  7.21706E-01  7.39266E-01
#           7.57253E-01  7.75678E-01  7.94551E-01  8.13883E-01  8.33685E-01
#           8.53969E-01  8.74747E-01  8.96030E-01  9.17831E-01  9.40163E-01
#           9.63038E-01  9.86469E-01  1.01047E+00  1.03506E+00  1.06024E+00
#           1.08604E+00  1.11246E+00  1.13953E+00  1.16725E+00  1.19565E+00
#           1.22474E+00  1.25454E+00  1.28507E+00  1.31633E+00  1.34836E+00
#           1.38117E+00  1.41477E+00  1.44920E+00  1.48446E+00  1.52057E+00
#           1.55757E+00  1.59547E+00  1.63429E+00  1.67405E+00  1.71478E+00
#           1.75650E+00  1.79924E+00  1.84302E+00  1.88786E+00  1.93379E+00
#           1.98084E+00  2.02904E+00  2.07841E+00  2.12898E+00  2.18078E+00
#           2.23384E+00  2.28819E+00  2.34386E+00  2.40089E+00  2.45930E+00
#           2.51914E+00  2.58043E+00  2.64322E+00  2.70753E+00  2.77341E+00
#           2.84088E+00  2.91001E+00  2.98081E+00  3.05333E+00  3.12762E+00
#           3.20372E+00  3.28167E+00  3.36152E+00  3.44330E+00  3.52708E+00
#           3.61290E+00  3.70080E+00  3.79085E+00  3.88308E+00  3.97756E+00
#           4.07434E+00  4.17347E+00  4.27501E+00  4.37903E+00  4.48557E+00
#           4.59471E+00  4.70650E+00  4.82102E+00  4.93832E+00  5.05847E+00
#           5.18155E+00  5.30762E+00  5.43676E+00  5.56904E+00  5.70453E+00
#           5.84333E+00  5.98550E+00  6.13114E+00  6.28031E+00  6.43312E+00
#           6.58964E+00  6.74997E+00  6.91420E+00  7.08243E+00  7.25475E+00
#           7.43126E+00  7.61207E+00  7.79728E+00  7.98700E+00  8.18133E+00
#           8.38038E+00  8.58428E+00  8.79315E+00  9.00709E+00  9.22624E+00
#           9.45072E+00  9.68067E+00  9.91620E+00  1.01575E+01  1.04046E+01
#           1.06578E+01  1.09171E+01  1.11827E+01  1.14548E+01  1.17335E+01
#           1.20190E+01  1.23114E+01  1.26109E+01  1.29178E+01  1.32321E+01
#           1.35540E+01  1.38838E+01  1.42216E+01  1.45676E+01  1.49221E+01
#           1.52851E+01  1.56570E+01  1.60380E+01  1.64282E+01  1.68279E+01
#           1.72374E+01  1.76568E+01  1.80864E+01  1.85264E+01  1.89772E+01
#           1.94389E+01  1.99119E+01  2.03963E+01  2.08926E+01  2.14009E+01
#           2.19216E+01  2.24550E+01  2.30014E+01  2.35610E+01  2.41343E+01
#           2.47215E+01  2.53230E+01  2.59391E+01  2.65702E+01  2.72167E+01
#           2.78789E+01  2.85572E+01  2.92520E+01  2.99637E+01  3.06928E+01
#           3.14396E+01  3.22045E+01  3.29881E+01  3.37907E+01  3.46128E+01
#           3.54550E+01  3.63177E+01  3.72013E+01  3.81064E+01  3.90336E+01
#           3.99833E+01  4.09561E+01  4.19526E+01  4.29734E+01  4.40189E+01
#           4.50900E+01  4.61870E+01  4.73108E+01  4.84619E+01  4.96410E+01
#           5.08488E+01  5.20860E+01  5.33533E+01  5.46514E+01  5.59812E+01
#           5.73432E+01  5.87384E+01  6.01676E+01  6.16315E+01  6.31311E+01
#           6.46671E+01  6.62405E+01  6.78522E+01  6.95031E+01  7.11941E+01
#           7.29263E+01  7.47007E+01  7.65182E+01  7.83800E+01  8.02870E+01
#           8.22405E+01  8.42414E+01  8.62911E+01  8.83906E+01  9.05412E+01
#           9.27442E+01  9.50007E+01  9.73122E+01  9.96799E+01  1.02105E+02
#           1.04589E+02  1.07134E+02  1.09741E+02  1.12411E+02  1.15146E+02
#           1.17948E+02  1.20817E+02  1.23757E+02  1.26768E+02  1.29852E+02
#           1.33012E+02  1.36248E+02  1.39563E+02  1.42959E+02  1.46437E+02
#           1.50000E+02
     unit =    2            # unit is [1/cm^2/(MeV/n)/source]
     axis =  eng            # axis of output
     file = detector-11.out  # file name of output for the above axis
   output = f-curr          # surface crossing forward current spectrum
     part =  neutron  
# kf/name :  2112     
#    used :        main (  %)        temp (  %)       total (  %)
#  memory :         414 (  0)           0 (  0)         414 (  0)

#------------------------------------------------------------------------------
#newpage:
#   no. =    1   reg = 110 - 210

x: Energy [MeV/n]
y:  F-Curr [1/cm^2/(MeV/n)/source]         
p: xlog ylog afac(0.8) form(0.9)
h: n            x            y(neutron ),hh0l   n 
#  e-lower      e-upper      neutron     r.err 
   1.0000E-02   1.0243E-02   3.2880E-05  0.5000
   1.0243E-02   1.0493E-02   5.6174E-05  0.3780
   1.0493E-02   1.0748E-02   5.4839E-05  0.3780
   1.0748E-02   1.1009E-02   1.1724E-04  0.2531
   1.1009E-02   1.1277E-02   6.3465E-05  0.3379
   1.1277E-02   1.1552E-02   7.2891E-05  0.3162
   1.1552E-02   1.1833E-02   1.4232E-04  0.2208
   1.1833E-02   1.2121E-02   9.7257E-05  0.2673
   1.2121E-02   1.2415E-02   8.2405E-05  0.2854
   1.2415E-02   1.2718E-02   6.6208E-05  0.3162
   1.2718E-02   1.3027E-02   5.2797E-05  0.3469
   1.3027E-02   1.3344E-02   5.7683E-05  0.3285
   1.3344E-02   1.3669E-02   8.4002E-05  0.2671
   1.3669E-02   1.4001E-02   9.2118E-05  0.2533
   1.4001E-02   1.4342E-02   1.0568E-04  0.2357
   1.4342E-02   1.4691E-02   3.8213E-05  0.3758
   1.4691E-02   1.5048E-02   6.7925E-05  0.2856
   1.5048E-02   1.5414E-02   4.6431E-05  0.3379
   1.5414E-02   1.5789E-02   7.4658E-05  0.2673
   1.5789E-02   1.6174E-02   6.2473E-05  0.2887
   1.6174E-02   1.6567E-02   5.0824E-05  0.3162
   1.6567E-02   1.6970E-02   8.9310E-05  0.2357
   1.6970E-02   1.7383E-02   5.8126E-05  0.2887
   1.7383E-02   1.7806E-02   5.5110E-05  0.2881
   1.7806E-02   1.8239E-02   6.0794E-05  0.2741
   1.8239E-02   1.8683E-02   5.0525E-05  0.2964
   1.8683E-02   1.9138E-02   5.5734E-05  0.2766
   1.9138E-02   1.9603E-02   4.1590E-05  0.3147
   1.9603E-02   2.0080E-02   2.9353E-05  0.3780
   2.0080E-02   2.0569E-02   5.2470E-05  0.2736
   2.0569E-02   2.1069E-02   3.9142E-05  0.3113
   2.1069E-02   2.1582E-02   4.2916E-05  0.3015
   2.1582E-02   2.2107E-02   6.0941E-05  0.2461
   2.2107E-02   2.2645E-02   4.0901E-05  0.3015
   2.2645E-02   2.3196E-02   2.7278E-05  0.3543
   2.3196E-02   2.3760E-02   1.7719E-05  0.4472
   2.3760E-02   2.4338E-02   3.6916E-05  0.3005
   2.4338E-02   2.4930E-02   3.5463E-05  0.3049
   2.4930E-02   2.5537E-02   4.1215E-05  0.2800
   2.5537E-02   2.6158E-02   5.8383E-05  0.2308
   2.6158E-02   2.6795E-02   3.7709E-05  0.2887
   2.6795E-02   2.7447E-02   5.8288E-05  0.2294
   2.7447E-02   2.8114E-02   3.5427E-05  0.2843
   2.8114E-02   2.8799E-02   2.6738E-05  0.3284
   2.8799E-02   2.9499E-02   3.2825E-05  0.2917
   2.9499E-02   3.0217E-02   2.9259E-05  0.3049
   3.0217E-02   3.0952E-02   4.0870E-05  0.2521
   3.0952E-02   3.1705E-02   2.1246E-05  0.3423
   3.1705E-02   3.2477E-02   3.6297E-05  0.2673
   3.2477E-02   3.3267E-02   2.2780E-05  0.3333
   3.3267E-02   3.4076E-02   4.6948E-05  0.2294
   3.4076E-02   3.4905E-02   2.8625E-05  0.2835
   3.4905E-02   3.5755E-02   2.8701E-05  0.2847
   3.5755E-02   3.6625E-02   2.1792E-05  0.3178
   3.6625E-02   3.7516E-02   2.6949E-05  0.2804
   3.7516E-02   3.8428E-02   2.5198E-05  0.2917
   3.8428E-02   3.9363E-02   2.9269E-05  0.2664
   3.9363E-02   4.0321E-02   4.0721E-05  0.2250
   4.0321E-02   4.1302E-02   1.2232E-05  0.4082
   4.1302E-02   4.2307E-02   2.4235E-05  0.2848
   4.2307E-02   4.3337E-02   2.3315E-05  0.2887
   4.3337E-02   4.4391E-02   2.6555E-05  0.2673
   4.4391E-02   4.5471E-02   2.5253E-05  0.2671
   4.5471E-02   4.6577E-02   1.6270E-05  0.3333
   4.6577E-02   4.7711E-02   2.3231E-05  0.2742
   4.7711E-02   4.8871E-02   2.4160E-05  0.2556
   4.8871E-02   5.0061E-02   2.2134E-05  0.2743
   5.0061E-02   5.1279E-02   2.0181E-05  0.2824
   5.1279E-02   5.2526E-02   2.0322E-05  0.2764
   5.2526E-02   5.3804E-02   2.0864E-05  0.2710
   5.3804E-02   5.5113E-02   1.0888E-05  0.3717
   5.5113E-02   5.6454E-02   1.0440E-05  0.3780
   5.6454E-02   5.7828E-02   1.5981E-05  0.2928
   5.7828E-02   5.9235E-02   1.8685E-05  0.2745
   5.9235E-02   6.0676E-02   9.2036E-06  0.3621
   6.0676E-02   6.2152E-02   1.6464E-05  0.2853
   6.2152E-02   6.3665E-02   9.2579E-06  0.3780
   6.3665E-02   6.5214E-02   1.5494E-05  0.2887
   6.5214E-02   6.6800E-02   1.4223E-05  0.2945
   6.6800E-02   6.8426E-02   1.5997E-05  0.2774
   6.8426E-02   7.0090E-02   1.7580E-05  0.2581
   7.0090E-02   7.1796E-02   2.0672E-05  0.2357
   7.1796E-02   7.3543E-02   1.5850E-05  0.2635
   7.3543E-02   7.5332E-02   7.5984E-06  0.3691
   7.5332E-02   7.7165E-02   6.5471E-06  0.4082
   7.7165E-02   7.9042E-02   1.5979E-05  0.2582
   7.9042E-02   8.0965E-02   1.3732E-05  0.2735
   8.0965E-02   8.2935E-02   1.0294E-05  0.3122
   8.2935E-02   8.4953E-02   1.6994E-05  0.2406
   8.4953E-02   8.7020E-02   1.1611E-05  0.2887
   8.7020E-02   8.9138E-02   1.1516E-05  0.2846
   8.9138E-02   9.1306E-02   1.1205E-05  0.2854
   9.1306E-02   9.3528E-02   1.1833E-05  0.2692
   9.3528E-02   9.5804E-02   1.1426E-05  0.2774
   9.5804E-02   9.8134E-02   6.2457E-06  0.3645
   9.8134E-02   1.0052E-01   1.1727E-05  0.2673
   1.0052E-01   1.0297E-01   1.0920E-05  0.2707
   1.0297E-01   1.0547E-01   1.3836E-05  0.2383
   1.0547E-01   1.0804E-01   9.7290E-06  0.2784
   1.0804E-01   1.1067E-01   1.0107E-05  0.2718
   1.1067E-01   1.1336E-01   1.0027E-05  0.2696
   1.1336E-01   1.1612E-01   5.3874E-06  0.3577
   1.1612E-01   1.1894E-01   7.0790E-06  0.3162
   1.1894E-01   1.2184E-01   6.7600E-06  0.3116
   1.2184E-01   1.2480E-01   1.0120E-05  0.2582
   1.2480E-01   1.2784E-01   5.5985E-06  0.3379
   1.2784E-01   1.3095E-01   7.8053E-06  0.2856
   1.3095E-01   1.3414E-01   6.5661E-06  0.3034
   1.3414E-01   1.3740E-01   1.0418E-05  0.2425
   1.3740E-01   1.4074E-01   6.8848E-06  0.2894
   1.4074E-01   1.4417E-01   7.7780E-06  0.2713
   1.4417E-01   1.4767E-01   7.2200E-06  0.2767
   1.4767E-01   1.5127E-01   5.0097E-06  0.3333
   1.5127E-01   1.5495E-01   7.6077E-06  0.2673
   1.5495E-01   1.5872E-01   5.9184E-06  0.2976
   1.5872E-01   1.6258E-01   9.4359E-06  0.2332
   1.6258E-01   1.6654E-01   3.6264E-06  0.3697
   1.6654E-01   1.7059E-01   7.4659E-06  0.2519
   1.7059E-01   1.7474E-01   6.2643E-06  0.2774
   1.7474E-01   1.7899E-01   7.5963E-06  0.2479
   1.7899E-01   1.8334E-01   6.8887E-06  0.2582
   1.8334E-01   1.8781E-01   7.2588E-06  0.2473
   1.8781E-01   1.9237E-01   4.3769E-06  0.3162
   1.9237E-01   1.9706E-01   9.4689E-06  0.2118
   1.9706E-01   2.0185E-01   4.8548E-06  0.2884
   2.0185E-01   2.0676E-01   5.5754E-06  0.2643
   2.0676E-01   2.1179E-01   6.4344E-06  0.2435
   2.1179E-01   2.1694E-01   3.3611E-06  0.3322
   2.1694E-01   2.2222E-01   6.6856E-06  0.2355
   2.2222E-01   2.2763E-01   9.9316E-06  0.1910
   2.2763E-01   2.3317E-01   8.1251E-06  0.2073
   2.3317E-01   2.3884E-01   7.5010E-06  0.2156
   2.3884E-01   2.4465E-01   6.8137E-06  0.2219
   2.4465E-01   2.5061E-01   9.0717E-06  0.1925
   2.5061E-01   2.5670E-01   1.0204E-05  0.1771
   2.5670E-01   2.6295E-01   9.8759E-06  0.1785
   2.6295E-01   2.6935E-01   9.6415E-06  0.1785
   2.6935E-01   2.7590E-01   4.9220E-06  0.2481
   2.7590E-01   2.8261E-01   1.0621E-05  0.1650
   2.8261E-01   2.8949E-01   1.1718E-05  0.1561
   2.8949E-01   2.9653E-01   1.3530E-05  0.1435
   2.9653E-01   3.0375E-01   1.0301E-05  0.1615
   3.0375E-01   3.1114E-01   1.1837E-05  0.1493
   3.1114E-01   3.1871E-01   1.0682E-05  0.1565
   3.1871E-01   3.2646E-01   1.3604E-05  0.1360
   3.2646E-01   3.3441E-01   1.7443E-05  0.1199
   3.3441E-01   3.4254E-01   1.4114E-05  0.1302
   3.4254E-01   3.5088E-01   1.3997E-05  0.1301
   3.5088E-01   3.5941E-01   1.1970E-05  0.1382
   3.5941E-01   3.6816E-01   1.8427E-05  0.1099
   3.6816E-01   3.7712E-01   1.8480E-05  0.1095
   3.7712E-01   3.8629E-01   2.2955E-05  0.0969
   3.8629E-01   3.9569E-01   2.0941E-05  0.0997
   3.9569E-01   4.0532E-01   1.9816E-05  0.1010
   4.0532E-01   4.1518E-01   1.6742E-05  0.1094
   4.1518E-01   4.2528E-01   1.9816E-05  0.0992
   4.2528E-01   4.3563E-01   2.1689E-05  0.0937
   4.3563E-01   4.4623E-01   2.1057E-05  0.0942
   4.4623E-01   4.5708E-01   2.2309E-05  0.0904
   4.5708E-01   4.6821E-01   2.6335E-05  0.0820
   4.6821E-01   4.7960E-01   3.2086E-05  0.0734
   4.7960E-01   4.9127E-01   2.9450E-05  0.0758
   4.9127E-01   5.0322E-01   2.9950E-05  0.0744
   5.0322E-01   5.1546E-01   3.2054E-05  0.0710
   5.1546E-01   5.2800E-01   3.4094E-05  0.0678
   5.2800E-01   5.4085E-01   3.3501E-05  0.0676
   5.4085E-01   5.5401E-01   3.8501E-05  0.0625
   5.5401E-01   5.6749E-01   3.1831E-05  0.0676
   5.6749E-01   5.8130E-01   3.2970E-05  0.0661
   5.8130E-01   5.9544E-01   3.5710E-05  0.0623
   5.9544E-01   6.0993E-01   4.3813E-05  0.0558
   6.0993E-01   6.2477E-01   3.8208E-05  0.0589
   6.2477E-01   6.3997E-01   4.1421E-05  0.0559
   6.3997E-01   6.5554E-01   4.4197E-05  0.0535
   6.5554E-01   6.7149E-01   4.4323E-05  0.0528
   6.7149E-01   6.8783E-01   4.2360E-05  0.0533
   6.8783E-01   7.0456E-01   4.6534E-05  0.0504
   7.0456E-01   7.2171E-01   4.7254E-05  0.0494
   7.2171E-01   7.3927E-01   5.3151E-05  0.0460
   7.3927E-01   7.5725E-01   5.2645E-05  0.0458
   7.5725E-01   7.7568E-01   5.2236E-05  0.0453
   7.7568E-01   7.9455E-01   5.8244E-05  0.0424
   7.9455E-01   8.1388E-01   5.3893E-05  0.0435
   8.1388E-01   8.3368E-01   5.8519E-05  0.0414
   8.3368E-01   8.5397E-01   6.0171E-05  0.0403
   8.5397E-01   8.7475E-01   6.0792E-05  0.0396
   8.7475E-01   8.9603E-01   6.1858E-05  0.0387
   8.9603E-01   9.1783E-01   6.4851E-05  0.0374
   9.1783E-01   9.4016E-01   6.8030E-05  0.0361
   9.4016E-01   9.6304E-01   6.6685E-05  0.0360
   9.6304E-01   9.8647E-01   6.2954E-05  0.0366
   9.8647E-01   1.0105E+00   6.4973E-05  0.0356
   1.0105E+00   1.0351E+00   6.8855E-05  0.0341
   1.0351E+00   1.0602E+00   6.6574E-05  0.0344
   1.0602E+00   1.0860E+00   6.4834E-05  0.0343
   1.0860E+00   1.1125E+00   6.8223E-05  0.0331
   1.1125E+00   1.1395E+00   6.5437E-05  0.0334
   1.1395E+00   1.1673E+00   6.6967E-05  0.0326
   1.1673E+00   1.1957E+00   6.8491E-05  0.0319
   1.1957E+00   1.2247E+00   6.8723E-05  0.0314
   1.2247E+00   1.2545E+00   6.8858E-05  0.0310
   1.2545E+00   1.2851E+00   6.9571E-05  0.0305
   1.2851E+00   1.3163E+00   6.9959E-05  0.0301
   1.3163E+00   1.3484E+00   6.5956E-05  0.0306
   1.3484E+00   1.3812E+00   6.6621E-05  0.0300
   1.3812E+00   1.4148E+00   7.1911E-05  0.0286
   1.4148E+00   1.4492E+00   7.2517E-05  0.0282
   1.4492E+00   1.4845E+00   6.8776E-05  0.0285
   1.4845E+00   1.5206E+00   6.7765E-05  0.0284
   1.5206E+00   1.5576E+00   6.8695E-05  0.0279
   1.5576E+00   1.5955E+00   6.4650E-05  0.0283
   1.5955E+00   1.6343E+00   6.4784E-05  0.0280
   1.6343E+00   1.6741E+00   6.4626E-05  0.0277
   1.6741E+00   1.7148E+00   6.4877E-05  0.0273
   1.7148E+00   1.7565E+00   6.5786E-05  0.0268
   1.7565E+00   1.7992E+00   6.3814E-05  0.0269
   1.7992E+00   1.8430E+00   6.3135E-05  0.0267
   1.8430E+00   1.8879E+00   6.3342E-05  0.0263
   1.8879E+00   1.9338E+00   6.4831E-05  0.0257
   1.9338E+00   1.9808E+00   6.2355E-05  0.0259
   1.9808E+00   2.0290E+00   6.2772E-05  0.0255
   2.0290E+00   2.0784E+00   6.1437E-05  0.0255
   2.0784E+00   2.1290E+00   6.0272E-05  0.0254
   2.1290E+00   2.1808E+00   6.0641E-05  0.0250
   2.1808E+00   2.2338E+00   5.6741E-05  0.0255
   2.2338E+00   2.2882E+00   6.1845E-05  0.0242
   2.2882E+00   2.3439E+00   5.8525E-05  0.0246
   2.3439E+00   2.4009E+00   5.8966E-05  0.0242
   2.4009E+00   2.4593E+00   5.7918E-05  0.0241
   2.4593E+00   2.5191E+00   5.7467E-05  0.0239
   2.5191E+00   2.5804E+00   5.6066E-05  0.0239
   2.5804E+00   2.6432E+00   5.5162E-05  0.0238
   2.6432E+00   2.7075E+00   5.6052E-05  0.0234
   2.7075E+00   2.7734E+00   5.6184E-05  0.0231
   2.7734E+00   2.8409E+00   5.2468E-05  0.0236
   2.8409E+00   2.9100E+00   5.3442E-05  0.0231
   2.9100E+00   2.9808E+00   5.4108E-05  0.0227
   2.9808E+00   3.0533E+00   5.2076E-05  0.0228
   3.0533E+00   3.1276E+00   5.3058E-05  0.0223
   3.1276E+00   3.2037E+00   4.9416E-05  0.0229
   3.2037E+00   3.2817E+00   4.8034E-05  0.0229
   3.2817E+00   3.3615E+00   4.8114E-05  0.0226
   3.3615E+00   3.4433E+00   4.9202E-05  0.0221
   3.4433E+00   3.5271E+00   4.9701E-05  0.0217
   3.5271E+00   3.6129E+00   4.7464E-05  0.0220
   3.6129E+00   3.7008E+00   4.9503E-05  0.0213
   3.7008E+00   3.7908E+00   4.8441E-05  0.0213
   3.7908E+00   3.8831E+00   4.6768E-05  0.0214
   3.8831E+00   3.9776E+00   4.7383E-05  0.0210
   3.9776E+00   4.0743E+00   4.8951E-05  0.0204
   4.0743E+00   4.1735E+00   4.8878E-05  0.0202
   4.1735E+00   4.2750E+00   4.8788E-05  0.0200
   4.2750E+00   4.3790E+00   4.7275E-05  0.0200
   4.3790E+00   4.4856E+00   4.8266E-05  0.0196
   4.4856E+00   4.5947E+00   4.6806E-05  0.0197
   4.5947E+00   4.7065E+00   4.6605E-05  0.0195
   4.7065E+00   4.8210E+00   4.7159E-05  0.0191
   4.8210E+00   4.9383E+00   4.5182E-05  0.0193
   4.9383E+00   5.0585E+00   4.3191E-05  0.0195
   5.0585E+00   5.1815E+00   4.2462E-05  0.0194
   5.1815E+00   5.3076E+00   4.0852E-05  0.0196
   5.3076E+00   5.4368E+00   3.8298E-05  0.0200
   5.4368E+00   5.5690E+00   3.8152E-05  0.0198
   5.5690E+00   5.7045E+00   3.5869E-05  0.0202
   5.7045E+00   5.8433E+00   3.5777E-05  0.0200
   5.8433E+00   5.9855E+00   3.3917E-05  0.0203
   5.9855E+00   6.1311E+00   3.1983E-05  0.0206
   6.1311E+00   6.2803E+00   3.0299E-05  0.0209
   6.2803E+00   6.4331E+00   3.0912E-05  0.0205
   6.4331E+00   6.5896E+00   2.9497E-05  0.0207
   6.5896E+00   6.7500E+00   2.9351E-05  0.0205
   6.7500E+00   6.9142E+00   2.8255E-05  0.0207
   6.9142E+00   7.0824E+00   2.6758E-05  0.0210
   7.0824E+00   7.2548E+00   2.4822E-05  0.0215
   7.2548E+00   7.4313E+00   2.4791E-05  0.0213
   7.4313E+00   7.6121E+00   2.4618E-05  0.0211
   7.6121E+00   7.7973E+00   2.3256E-05  0.0215
   7.7973E+00   7.9870E+00   2.2541E-05  0.0215
   7.9870E+00   8.1813E+00   2.1698E-05  0.0217
   8.1813E+00   8.3804E+00   2.0974E-05  0.0218
   8.3804E+00   8.5843E+00   2.0523E-05  0.0218
   8.5843E+00   8.7931E+00   1.9381E-05  0.0222
   8.7931E+00   9.0071E+00   1.8677E-05  0.0223
   9.0071E+00   9.2262E+00   1.7501E-05  0.0228
   9.2262E+00   9.4507E+00   1.7441E-05  0.0225
   9.4507E+00   9.6807E+00   1.6872E-05  0.0227
   9.6807E+00   9.9162E+00   1.6233E-05  0.0228
   9.9162E+00   1.0157E+01   1.5499E-05  0.0231
   1.0157E+01   1.0405E+01   1.5039E-05  0.0232
   1.0405E+01   1.0658E+01   1.3643E-05  0.0240
   1.0658E+01   1.0917E+01   1.3061E-05  0.0243
   1.0917E+01   1.1183E+01   1.3276E-05  0.0238
   1.1183E+01   1.1455E+01   1.2670E-05  0.0241
   1.1455E+01   1.1733E+01   1.2764E-05  0.0237
   1.1733E+01   1.2019E+01   1.2292E-05  0.0238
   1.2019E+01   1.2311E+01   1.1444E-05  0.0244
   1.2311E+01   1.2611E+01   1.0732E-05  0.0249
   1.2611E+01   1.2918E+01   1.0246E-05  0.0252
   1.2918E+01   1.3232E+01   9.5406E-06  0.0258
   1.3232E+01   1.3554E+01   9.3357E-06  0.0258
   1.3554E+01   1.3884E+01   8.6060E-06  0.0265
   1.3884E+01   1.4222E+01   8.5802E-06  0.0263
   1.4222E+01   1.4568E+01   7.5118E-06  0.0277
   1.4568E+01   1.4922E+01   7.7643E-06  0.0269
   1.4922E+01   1.5285E+01   7.5701E-06  0.0270
   1.5285E+01   1.5657E+01   6.8027E-06  0.0281
   1.5657E+01   1.6038E+01   6.3784E-06  0.0287
   1.6038E+01   1.6428E+01   5.9802E-06  0.0293
   1.6428E+01   1.6828E+01   5.5787E-06  0.0299
   1.6828E+01   1.7237E+01   5.0543E-06  0.0311
   1.7237E+01   1.7657E+01   4.4261E-06  0.0328
   1.7657E+01   1.8086E+01   3.8445E-06  0.0348
   1.8086E+01   1.8526E+01   3.3405E-06  0.0369
   1.8526E+01   1.8977E+01   2.8225E-06  0.0396
   1.8977E+01   1.9439E+01   2.6083E-06  0.0407
   1.9439E+01   1.9912E+01   1.9128E-06  0.0470
   1.9912E+01   2.0396E+01   1.3953E-06  0.0544
   2.0396E+01   2.0893E+01   8.9469E-07  0.0671
   2.0893E+01   2.1401E+01   5.4295E-07  0.0851
   2.1401E+01   2.1922E+01   3.4953E-07  0.1048
   2.1922E+01   2.2455E+01   1.5374E-07  0.1562
   2.2455E+01   2.3001E+01   5.8571E-08  0.2500
   2.3001E+01   2.3561E+01   0.0000E+00  0.0000
   2.3561E+01   2.4134E+01   0.0000E+00  0.0000
   2.4134E+01   2.4721E+01   0.0000E+00  0.0000
   2.4721E+01   2.5323E+01   0.0000E+00  0.0000
   2.5323E+01   2.5939E+01   0.0000E+00  0.0000
   2.5939E+01   2.6570E+01   0.0000E+00  0.0000
   2.6570E+01   2.7217E+01   0.0000E+00  0.0000
   2.7217E+01   2.7879E+01   0.0000E+00  0.0000
   2.7879E+01   2.8557E+01   0.0000E+00  0.0000
   2.8557E+01   2.9252E+01   0.0000E+00  0.0000
   2.9252E+01   2.9964E+01   0.0000E+00  0.0000
   2.9964E+01   3.0693E+01   0.0000E+00  0.0000
   3.0693E+01   3.1440E+01   0.0000E+00  0.0000
   3.1440E+01   3.2205E+01   0.0000E+00  0.0000
   3.2205E+01   3.2988E+01   0.0000E+00  0.0000
   3.2988E+01   3.3791E+01   0.0000E+00  0.0000
   3.3791E+01   3.4613E+01   0.0000E+00  0.0000
   3.4613E+01   3.5455E+01   0.0000E+00  0.0000
   3.5455E+01   3.6318E+01   0.0000E+00  0.0000
   3.6318E+01   3.7201E+01   0.0000E+00  0.0000
   3.7201E+01   3.8106E+01   0.0000E+00  0.0000
   3.8106E+01   3.9034E+01   0.0000E+00  0.0000
   3.9034E+01   3.9983E+01   0.0000E+00  0.0000
   3.9983E+01   4.0956E+01   0.0000E+00  0.0000
   4.0956E+01   4.1953E+01   0.0000E+00  0.0000
   4.1953E+01   4.2973E+01   0.0000E+00  0.0000
   4.2973E+01   4.4019E+01   0.0000E+00  0.0000
   4.4019E+01   4.5090E+01   0.0000E+00  0.0000
   4.5090E+01   4.6187E+01   0.0000E+00  0.0000
   4.6187E+01   4.7311E+01   0.0000E+00  0.0000
   4.7311E+01   4.8462E+01   0.0000E+00  0.0000
   4.8462E+01   4.9641E+01   0.0000E+00  0.0000
   4.9641E+01   5.0849E+01   0.0000E+00  0.0000
   5.0849E+01   5.2086E+01   0.0000E+00  0.0000
   5.2086E+01   5.3353E+01   0.0000E+00  0.0000
   5.3353E+01   5.4651E+01   0.0000E+00  0.0000
   5.4651E+01   5.5981E+01   0.0000E+00  0.0000
   5.5981E+01   5.7343E+01   0.0000E+00  0.0000
   5.7343E+01   5.8738E+01   0.0000E+00  0.0000
   5.8738E+01   6.0168E+01   0.0000E+00  0.0000
   6.0168E+01   6.1632E+01   0.0000E+00  0.0000
   6.1632E+01   6.3131E+01   0.0000E+00  0.0000
   6.3131E+01   6.4667E+01   0.0000E+00  0.0000
   6.4667E+01   6.6240E+01   0.0000E+00  0.0000
   6.6240E+01   6.7852E+01   0.0000E+00  0.0000
   6.7852E+01   6.9503E+01   0.0000E+00  0.0000
   6.9503E+01   7.1194E+01   0.0000E+00  0.0000
   7.1194E+01   7.2926E+01   0.0000E+00  0.0000
   7.2926E+01   7.4701E+01   0.0000E+00  0.0000
   7.4701E+01   7.6518E+01   0.0000E+00  0.0000
   7.6518E+01   7.8380E+01   0.0000E+00  0.0000
   7.8380E+01   8.0287E+01   0.0000E+00  0.0000
   8.0287E+01   8.2240E+01   0.0000E+00  0.0000
   8.2240E+01   8.4241E+01   0.0000E+00  0.0000
   8.4241E+01   8.6291E+01   0.0000E+00  0.0000
   8.6291E+01   8.8391E+01   0.0000E+00  0.0000
   8.8391E+01   9.0541E+01   0.0000E+00  0.0000
   9.0541E+01   9.2744E+01   0.0000E+00  0.0000
   9.2744E+01   9.5001E+01   0.0000E+00  0.0000
   9.5001E+01   9.7312E+01   0.0000E+00  0.0000
   9.7312E+01   9.9680E+01   0.0000E+00  0.0000
   9.9680E+01   1.0211E+02   0.0000E+00  0.0000
   1.0211E+02   1.0459E+02   0.0000E+00  0.0000
   1.0459E+02   1.0713E+02   0.0000E+00  0.0000
   1.0713E+02   1.0974E+02   0.0000E+00  0.0000
   1.0974E+02   1.1241E+02   0.0000E+00  0.0000
   1.1241E+02   1.1515E+02   0.0000E+00  0.0000
   1.1515E+02   1.1795E+02   0.0000E+00  0.0000
   1.1795E+02   1.2082E+02   0.0000E+00  0.0000
   1.2082E+02   1.2376E+02   0.0000E+00  0.0000
   1.2376E+02   1.2677E+02   0.0000E+00  0.0000
   1.2677E+02   1.2985E+02   0.0000E+00  0.0000
   1.2985E+02   1.3301E+02   0.0000E+00  0.0000
   1.3301E+02   1.3625E+02   0.0000E+00  0.0000
   1.3625E+02   1.3956E+02   0.0000E+00  0.0000
   1.3956E+02   1.4296E+02   0.0000E+00  0.0000
   1.4296E+02   1.4644E+02   0.0000E+00  0.0000
   1.4644E+02   1.5000E+02   0.0000E+00  0.0000

#   sum over                 3.0687E-06
'no. =    1   reg = 110 - 210'
msuc: {\huge [t-cross] in region mesh}
msdr: {\it plotted by \ANGEL \version}
msdl: {\it calculated by \PHITS  3.26}
wt: s(0.7)
\vspace{-3}
  region surface crossing
  area  &=&   1.0000E+00 [cm^2]
e:
 
# Information for Restart Calculation
# This calculation was newly started
# istdev =  2 # 1:Batch variance, 2:History variance
# resc2  = 5.00000000000000000E+08 # Total source weight or Total source weight / maxcas
# resc3  = 5.00000000000000000E+08 # Total history number or Total batch number
# maxcas =   500000000 # History / Batch, only used for istdev=1
# bitrseed = 1101101111010011011000101101110001100110110010110001010100010001 # bit data of rseed
