[ T-Cross ]
    title = [t-cross] in region mesh
     mesh =  reg            # mesh type is region-wise
      reg =    1            # number of crossing regions
      non     r-from    r-to       area
      1       113       213        1.000000    
   e-type =    3            # e-mesh is log given by emin, emax and ne
     emin =  1.0000000E-02  # minimum value of e-mesh points
     emax =   150.0000      # maximum value of e-mesh points
#    edel =  2.4039514E-02  # mesh width of e-mesh points
       ne =    400          # number of e-mesh points
#    data = ( e(i), i = 1, ne + 1 )
#           1.00000E-02  1.02433E-02  1.04925E-02  1.07478E-02  1.10093E-02
#           1.12772E-02  1.15516E-02  1.18326E-02  1.21205E-02  1.24154E-02
#           1.27175E-02  1.30269E-02  1.33439E-02  1.36686E-02  1.40011E-02
#           1.43418E-02  1.46907E-02  1.50482E-02  1.54143E-02  1.57894E-02
#           1.61735E-02  1.65670E-02  1.69701E-02  1.73830E-02  1.78060E-02
#           1.82392E-02  1.86830E-02  1.91375E-02  1.96032E-02  2.00801E-02
#           2.05687E-02  2.10692E-02  2.15818E-02  2.21069E-02  2.26448E-02
#           2.31957E-02  2.37601E-02  2.43382E-02  2.49304E-02  2.55369E-02
#           2.61583E-02  2.67947E-02  2.74467E-02  2.81145E-02  2.87985E-02
#           2.94992E-02  3.02169E-02  3.09521E-02  3.17052E-02  3.24766E-02
#           3.32668E-02  3.40762E-02  3.49053E-02  3.57546E-02  3.66246E-02
#           3.75157E-02  3.84284E-02  3.93634E-02  4.03212E-02  4.13022E-02
#           4.23071E-02  4.33365E-02  4.43909E-02  4.54710E-02  4.65773E-02
#           4.77106E-02  4.88714E-02  5.00605E-02  5.12785E-02  5.25262E-02
#           5.38042E-02  5.51133E-02  5.64542E-02  5.78278E-02  5.92348E-02
#           6.06760E-02  6.21523E-02  6.36645E-02  6.52135E-02  6.68002E-02
#           6.84255E-02  7.00904E-02  7.17957E-02  7.35426E-02  7.53319E-02
#           7.71648E-02  7.90423E-02  8.09655E-02  8.29354E-02  8.49533E-02
#           8.70203E-02  8.91376E-02  9.13064E-02  9.35279E-02  9.58035E-02
#           9.81345E-02  1.00522E-01  1.02968E-01  1.05473E-01  1.08040E-01
#           1.10668E-01  1.13361E-01  1.16119E-01  1.18944E-01  1.21838E-01
#           1.24803E-01  1.27839E-01  1.30950E-01  1.34136E-01  1.37399E-01
#           1.40742E-01  1.44167E-01  1.47675E-01  1.51268E-01  1.54948E-01
#           1.58718E-01  1.62580E-01  1.66535E-01  1.70587E-01  1.74738E-01
#           1.78989E-01  1.83344E-01  1.87805E-01  1.92375E-01  1.97055E-01
#           2.01850E-01  2.06761E-01  2.11792E-01  2.16945E-01  2.22223E-01
#           2.27630E-01  2.33169E-01  2.38842E-01  2.44653E-01  2.50605E-01
#           2.56703E-01  2.62949E-01  2.69346E-01  2.75900E-01  2.82613E-01
#           2.89489E-01  2.96532E-01  3.03747E-01  3.11138E-01  3.18708E-01
#           3.26462E-01  3.34405E-01  3.42542E-01  3.50876E-01  3.59413E-01
#           3.68158E-01  3.77116E-01  3.86291E-01  3.95690E-01  4.05317E-01
#           4.15179E-01  4.25281E-01  4.35628E-01  4.46227E-01  4.57084E-01
#           4.68205E-01  4.79597E-01  4.91266E-01  5.03219E-01  5.15463E-01
#           5.28005E-01  5.40851E-01  5.54011E-01  5.67490E-01  5.81298E-01
#           5.95441E-01  6.09929E-01  6.24769E-01  6.39970E-01  6.55541E-01
#           6.71491E-01  6.87828E-01  7.04564E-01  7.21706E-01  7.39266E-01
#           7.57253E-01  7.75678E-01  7.94551E-01  8.13883E-01  8.33685E-01
#           8.53969E-01  8.74747E-01  8.96030E-01  9.17831E-01  9.40163E-01
#           9.63038E-01  9.86469E-01  1.01047E+00  1.03506E+00  1.06024E+00
#           1.08604E+00  1.11246E+00  1.13953E+00  1.16725E+00  1.19565E+00
#           1.22474E+00  1.25454E+00  1.28507E+00  1.31633E+00  1.34836E+00
#           1.38117E+00  1.41477E+00  1.44920E+00  1.48446E+00  1.52057E+00
#           1.55757E+00  1.59547E+00  1.63429E+00  1.67405E+00  1.71478E+00
#           1.75650E+00  1.79924E+00  1.84302E+00  1.88786E+00  1.93379E+00
#           1.98084E+00  2.02904E+00  2.07841E+00  2.12898E+00  2.18078E+00
#           2.23384E+00  2.28819E+00  2.34386E+00  2.40089E+00  2.45930E+00
#           2.51914E+00  2.58043E+00  2.64322E+00  2.70753E+00  2.77341E+00
#           2.84088E+00  2.91001E+00  2.98081E+00  3.05333E+00  3.12762E+00
#           3.20372E+00  3.28167E+00  3.36152E+00  3.44330E+00  3.52708E+00
#           3.61290E+00  3.70080E+00  3.79085E+00  3.88308E+00  3.97756E+00
#           4.07434E+00  4.17347E+00  4.27501E+00  4.37903E+00  4.48557E+00
#           4.59471E+00  4.70650E+00  4.82102E+00  4.93832E+00  5.05847E+00
#           5.18155E+00  5.30762E+00  5.43676E+00  5.56904E+00  5.70453E+00
#           5.84333E+00  5.98550E+00  6.13114E+00  6.28031E+00  6.43312E+00
#           6.58964E+00  6.74997E+00  6.91420E+00  7.08243E+00  7.25475E+00
#           7.43126E+00  7.61207E+00  7.79728E+00  7.98700E+00  8.18133E+00
#           8.38038E+00  8.58428E+00  8.79315E+00  9.00709E+00  9.22624E+00
#           9.45072E+00  9.68067E+00  9.91620E+00  1.01575E+01  1.04046E+01
#           1.06578E+01  1.09171E+01  1.11827E+01  1.14548E+01  1.17335E+01
#           1.20190E+01  1.23114E+01  1.26109E+01  1.29178E+01  1.32321E+01
#           1.35540E+01  1.38838E+01  1.42216E+01  1.45676E+01  1.49221E+01
#           1.52851E+01  1.56570E+01  1.60380E+01  1.64282E+01  1.68279E+01
#           1.72374E+01  1.76568E+01  1.80864E+01  1.85264E+01  1.89772E+01
#           1.94389E+01  1.99119E+01  2.03963E+01  2.08926E+01  2.14009E+01
#           2.19216E+01  2.24550E+01  2.30014E+01  2.35610E+01  2.41343E+01
#           2.47215E+01  2.53230E+01  2.59391E+01  2.65702E+01  2.72167E+01
#           2.78789E+01  2.85572E+01  2.92520E+01  2.99637E+01  3.06928E+01
#           3.14396E+01  3.22045E+01  3.29881E+01  3.37907E+01  3.46128E+01
#           3.54550E+01  3.63177E+01  3.72013E+01  3.81064E+01  3.90336E+01
#           3.99833E+01  4.09561E+01  4.19526E+01  4.29734E+01  4.40189E+01
#           4.50900E+01  4.61870E+01  4.73108E+01  4.84619E+01  4.96410E+01
#           5.08488E+01  5.20860E+01  5.33533E+01  5.46514E+01  5.59812E+01
#           5.73432E+01  5.87384E+01  6.01676E+01  6.16315E+01  6.31311E+01
#           6.46671E+01  6.62405E+01  6.78522E+01  6.95031E+01  7.11941E+01
#           7.29263E+01  7.47007E+01  7.65182E+01  7.83800E+01  8.02870E+01
#           8.22405E+01  8.42414E+01  8.62911E+01  8.83906E+01  9.05412E+01
#           9.27442E+01  9.50007E+01  9.73122E+01  9.96799E+01  1.02105E+02
#           1.04589E+02  1.07134E+02  1.09741E+02  1.12411E+02  1.15146E+02
#           1.17948E+02  1.20817E+02  1.23757E+02  1.26768E+02  1.29852E+02
#           1.33012E+02  1.36248E+02  1.39563E+02  1.42959E+02  1.46437E+02
#           1.50000E+02
     unit =    2            # unit is [1/cm^2/(MeV/n)/source]
     axis =  eng            # axis of output
     file = detector-14.out  # file name of output for the above axis
   output = f-curr          # surface crossing forward current spectrum
     part =  neutron  
# kf/name :  2112     
#    used :        main (  %)        temp (  %)       total (  %)
#  memory :         414 (  0)           0 (  0)         414 (  0)

#------------------------------------------------------------------------------
#newpage:
#   no. =    1   reg = 113 - 213

x: Energy [MeV/n]
y:  F-Curr [1/cm^2/(MeV/n)/source]         
p: xlog ylog afac(0.8) form(0.9)
h: n            x            y(neutron ),hh0l   n 
#  e-lower      e-upper      neutron     r.err 
   1.0000E-02   1.0243E-02   1.1946E-03  0.0261
   1.0243E-02   1.0493E-02   1.1811E-03  0.0260
   1.0493E-02   1.0748E-02   1.0968E-03  0.0266
   1.0748E-02   1.1009E-02   1.1076E-03  0.0262
   1.1009E-02   1.1277E-02   1.1319E-03  0.0256
   1.1277E-02   1.1552E-02   1.0550E-03  0.0262
   1.1552E-02   1.1833E-02   1.0363E-03  0.0261
   1.1833E-02   1.2121E-02   1.0357E-03  0.0258
   1.2121E-02   1.2415E-02   9.9502E-04  0.0260
   1.2415E-02   1.2718E-02   9.6253E-04  0.0261
   1.2718E-02   1.3027E-02   9.3884E-04  0.0261
   1.3027E-02   1.3344E-02   9.4221E-04  0.0258
   1.3344E-02   1.3669E-02   8.8639E-04  0.0263
   1.3669E-02   1.4001E-02   8.9897E-04  0.0257
   1.4001E-02   1.4342E-02   8.7430E-04  0.0258
   1.4342E-02   1.4691E-02   8.3294E-04  0.0261
   1.4691E-02   1.5048E-02   8.5644E-04  0.0255
   1.5048E-02   1.5414E-02   8.2751E-04  0.0256
   1.5414E-02   1.5789E-02   8.1370E-04  0.0255
   1.5789E-02   1.6174E-02   7.5628E-04  0.0261
   1.6174E-02   1.6567E-02   7.5084E-04  0.0259
   1.6567E-02   1.6970E-02   7.0547E-04  0.0264
   1.6970E-02   1.7383E-02   6.9887E-04  0.0262
   1.7383E-02   1.7806E-02   7.4161E-04  0.0251
   1.7806E-02   1.8239E-02   6.9003E-04  0.0258
   1.8239E-02   1.8683E-02   6.8111E-04  0.0256
   1.8683E-02   1.9138E-02   6.8349E-04  0.0253
   1.9138E-02   1.9603E-02   6.9697E-04  0.0247
   1.9603E-02   2.0080E-02   6.2652E-04  0.0258
   2.0080E-02   2.0569E-02   6.4877E-04  0.0250
   2.0569E-02   2.1069E-02   6.0555E-04  0.0256
   2.1069E-02   2.1582E-02   5.9164E-04  0.0256
   2.1582E-02   2.2107E-02   6.0800E-04  0.0249
   2.2107E-02   2.2645E-02   5.7650E-04  0.0253
   2.2645E-02   2.3196E-02   5.3610E-04  0.0259
   2.3196E-02   2.3760E-02   5.4480E-04  0.0254
   2.3760E-02   2.4338E-02   5.0778E-04  0.0260
   2.4338E-02   2.4930E-02   5.5080E-04  0.0247
   2.4930E-02   2.5537E-02   5.3071E-04  0.0248
   2.5537E-02   2.6158E-02   4.8397E-04  0.0257
   2.6158E-02   2.6795E-02   4.9420E-04  0.0251
   2.6795E-02   2.7447E-02   4.7153E-04  0.0254
   2.7447E-02   2.8114E-02   4.9166E-04  0.0246
   2.8114E-02   2.8799E-02   4.7968E-04  0.0246
   2.8799E-02   2.9499E-02   4.5830E-04  0.0248
   2.9499E-02   3.0217E-02   4.4450E-04  0.0249
   3.0217E-02   3.0952E-02   4.4239E-04  0.0246
   3.0952E-02   3.1705E-02   4.3134E-04  0.0247
   3.1705E-02   3.2477E-02   4.0165E-04  0.0253
   3.2477E-02   3.3267E-02   4.0160E-04  0.0250
   3.3267E-02   3.4076E-02   3.9740E-04  0.0248
   3.4076E-02   3.4905E-02   3.7978E-04  0.0251
   3.4905E-02   3.5755E-02   3.7762E-04  0.0249
   3.5755E-02   3.6625E-02   3.6655E-04  0.0249
   3.6625E-02   3.7516E-02   3.6904E-04  0.0245
   3.7516E-02   3.8428E-02   3.6643E-04  0.0244
   3.8428E-02   3.9363E-02   3.4279E-04  0.0249
   3.9363E-02   4.0321E-02   3.4692E-04  0.0244
   4.0321E-02   4.1302E-02   3.3440E-04  0.0246
   4.1302E-02   4.2307E-02   3.0900E-04  0.0252
   4.2307E-02   4.3337E-02   3.2495E-04  0.0243
   4.3337E-02   4.4391E-02   3.1116E-04  0.0246
   4.4391E-02   4.5471E-02   3.1409E-04  0.0242
   4.5471E-02   4.6577E-02   2.8969E-04  0.0249
   4.6577E-02   4.7711E-02   2.9802E-04  0.0242
   4.7711E-02   4.8871E-02   2.8896E-04  0.0243
   4.8871E-02   5.0061E-02   2.7694E-04  0.0245
   5.0061E-02   5.1279E-02   2.8380E-04  0.0239
   5.1279E-02   5.2526E-02   2.7181E-04  0.0242
   5.2526E-02   5.3804E-02   2.7315E-04  0.0238
   5.3804E-02   5.5113E-02   2.6627E-04  0.0239
   5.5113E-02   5.6454E-02   2.4757E-04  0.0244
   5.6454E-02   5.7828E-02   2.4874E-04  0.0241
   5.7828E-02   5.9235E-02   2.4516E-04  0.0240
   5.9235E-02   6.0676E-02   2.4820E-04  0.0235
   6.0676E-02   6.2152E-02   2.3712E-04  0.0238
   6.2152E-02   6.3665E-02   2.2909E-04  0.0239
   6.3665E-02   6.5214E-02   2.2687E-04  0.0237
   6.5214E-02   6.6800E-02   2.1344E-04  0.0242
   6.6800E-02   6.8426E-02   2.2160E-04  0.0234
   6.8426E-02   7.0090E-02   2.2715E-04  0.0229
   7.0090E-02   7.1796E-02   2.0095E-04  0.0241
   7.1796E-02   7.3543E-02   2.0145E-04  0.0237
   7.3543E-02   7.5332E-02   1.9141E-04  0.0241
   7.5332E-02   7.7165E-02   1.9090E-04  0.0238
   7.7165E-02   7.9042E-02   1.8588E-04  0.0238
   7.9042E-02   8.0965E-02   1.9099E-04  0.0233
   8.0965E-02   8.2935E-02   1.8847E-04  0.0231
   8.2935E-02   8.4953E-02   1.8429E-04  0.0231
   8.4953E-02   8.7020E-02   1.7018E-04  0.0237
   8.7020E-02   8.9138E-02   1.6506E-04  0.0238
   8.9138E-02   9.1306E-02   1.6862E-04  0.0233
   9.1306E-02   9.3528E-02   1.6633E-04  0.0232
   9.3528E-02   9.5804E-02   1.6607E-04  0.0229
   9.5804E-02   9.8134E-02   1.5839E-04  0.0232
   9.8134E-02   1.0052E-01   1.5088E-04  0.0234
   1.0052E-01   1.0297E-01   1.5327E-04  0.0230
   1.0297E-01   1.0547E-01   1.5244E-04  0.0228
   1.0547E-01   1.0804E-01   1.4057E-04  0.0234
   1.0804E-01   1.1067E-01   1.4253E-04  0.0230
   1.1067E-01   1.1336E-01   1.4171E-04  0.0228
   1.1336E-01   1.1612E-01   1.3577E-04  0.0230
   1.1612E-01   1.1894E-01   1.3825E-04  0.0225
   1.1894E-01   1.2184E-01   1.3361E-04  0.0226
   1.2184E-01   1.2480E-01   1.2790E-04  0.0229
   1.2480E-01   1.2784E-01   1.2725E-04  0.0226
   1.2784E-01   1.3095E-01   1.2594E-04  0.0225
   1.3095E-01   1.3414E-01   1.2238E-04  0.0225
   1.3414E-01   1.3740E-01   1.2173E-04  0.0223
   1.3740E-01   1.4074E-01   1.2221E-04  0.0220
   1.4074E-01   1.4417E-01   1.1483E-04  0.0224
   1.4417E-01   1.4767E-01   1.2006E-04  0.0217
   1.4767E-01   1.5127E-01   1.1129E-04  0.0223
   1.5127E-01   1.5495E-01   1.0995E-04  0.0221
   1.5495E-01   1.5872E-01   1.1204E-04  0.0217
   1.5872E-01   1.6258E-01   1.0637E-04  0.0220
   1.6258E-01   1.6654E-01   1.0648E-04  0.0217
   1.6654E-01   1.7059E-01   1.0254E-04  0.0218
   1.7059E-01   1.7474E-01   1.0452E-04  0.0214
   1.7474E-01   1.7899E-01   9.8772E-05  0.0217
   1.7899E-01   1.8334E-01   1.0284E-04  0.0210
   1.8334E-01   1.8781E-01   9.5175E-05  0.0216
   1.8781E-01   1.9237E-01   9.5486E-05  0.0213
   1.9237E-01   1.9706E-01   9.5357E-05  0.0211
   1.9706E-01   2.0185E-01   9.2532E-05  0.0211
   2.0185E-01   2.0676E-01   9.8604E-05  0.0202
   2.0676E-01   2.1179E-01   1.0244E-04  0.0196
   2.1179E-01   2.1694E-01   1.0400E-04  0.0192
   2.1694E-01   2.2222E-01   1.0978E-04  0.0185
   2.2222E-01   2.2763E-01   1.1211E-04  0.0181
   2.2763E-01   2.3317E-01   1.1254E-04  0.0178
   2.3317E-01   2.3884E-01   1.1674E-04  0.0173
   2.3884E-01   2.4465E-01   1.1961E-04  0.0169
   2.4465E-01   2.5061E-01   1.3033E-04  0.0160
   2.5061E-01   2.5670E-01   1.3150E-04  0.0157
   2.5670E-01   2.6295E-01   1.3936E-04  0.0151
   2.6295E-01   2.6935E-01   1.3725E-04  0.0150
   2.6935E-01   2.7590E-01   1.4681E-04  0.0144
   2.7590E-01   2.8261E-01   1.5196E-04  0.0139
   2.8261E-01   2.8949E-01   1.5596E-04  0.0136
   2.8949E-01   2.9653E-01   1.5953E-04  0.0133
   2.9653E-01   3.0375E-01   1.6655E-04  0.0128
   3.0375E-01   3.1114E-01   1.7120E-04  0.0125
   3.1114E-01   3.1871E-01   1.7523E-04  0.0122
   3.1871E-01   3.2646E-01   1.7538E-04  0.0121
   3.2646E-01   3.3441E-01   1.8233E-04  0.0117
   3.3441E-01   3.4254E-01   1.8975E-04  0.0113
   3.4254E-01   3.5088E-01   1.9238E-04  0.0111
   3.5088E-01   3.5941E-01   1.9900E-04  0.0108
   3.5941E-01   3.6816E-01   2.0346E-04  0.0106
   3.6816E-01   3.7712E-01   2.0912E-04  0.0103
   3.7712E-01   3.8629E-01   2.1651E-04  0.0100
   3.8629E-01   3.9569E-01   2.1588E-04  0.0099
   3.9569E-01   4.0532E-01   2.2190E-04  0.0096
   4.0532E-01   4.1518E-01   2.3020E-04  0.0093
   4.1518E-01   4.2528E-01   2.2641E-04  0.0093
   4.2528E-01   4.3563E-01   2.3449E-04  0.0090
   4.3563E-01   4.4623E-01   2.3741E-04  0.0089
   4.4623E-01   4.5708E-01   2.4358E-04  0.0087
   4.5708E-01   4.6821E-01   2.4721E-04  0.0085
   4.6821E-01   4.7960E-01   2.5196E-04  0.0083
   4.7960E-01   4.9127E-01   2.5732E-04  0.0081
   4.9127E-01   5.0322E-01   2.5605E-04  0.0080
   5.0322E-01   5.1546E-01   2.6155E-04  0.0079
   5.1546E-01   5.2800E-01   2.6478E-04  0.0077
   5.2800E-01   5.4085E-01   2.6415E-04  0.0076
   5.4085E-01   5.5401E-01   2.6893E-04  0.0075
   5.5401E-01   5.6749E-01   2.6734E-04  0.0074
   5.6749E-01   5.8130E-01   2.7071E-04  0.0073
   5.8130E-01   5.9544E-01   2.7289E-04  0.0072
   5.9544E-01   6.0993E-01   2.7219E-04  0.0071
   6.0993E-01   6.2477E-01   2.7392E-04  0.0070
   6.2477E-01   6.3997E-01   2.7271E-04  0.0069
   6.3997E-01   6.5554E-01   2.7245E-04  0.0068
   6.5554E-01   6.7149E-01   2.6922E-04  0.0068
   6.7149E-01   6.8783E-01   2.6730E-04  0.0067
   6.8783E-01   7.0456E-01   2.6568E-04  0.0067
   7.0456E-01   7.2171E-01   2.6447E-04  0.0066
   7.2171E-01   7.3927E-01   2.6007E-04  0.0066
   7.3927E-01   7.5725E-01   2.5546E-04  0.0066
   7.5725E-01   7.7568E-01   2.5180E-04  0.0065
   7.7568E-01   7.9455E-01   2.4620E-04  0.0065
   7.9455E-01   8.1388E-01   2.4689E-04  0.0064
   8.1388E-01   8.3368E-01   2.4201E-04  0.0064
   8.3368E-01   8.5397E-01   2.3534E-04  0.0064
   8.5397E-01   8.7475E-01   2.3422E-04  0.0064
   8.7475E-01   8.9603E-01   2.2789E-04  0.0064
   8.9603E-01   9.1783E-01   2.2613E-04  0.0063
   9.1783E-01   9.4016E-01   2.2091E-04  0.0063
   9.4016E-01   9.6304E-01   2.1941E-04  0.0063
   9.6304E-01   9.8647E-01   2.1497E-04  0.0063
   9.8647E-01   1.0105E+00   2.1714E-04  0.0062
   1.0105E+00   1.0351E+00   2.2067E-04  0.0060
   1.0351E+00   1.0602E+00   2.2960E-04  0.0058
   1.0602E+00   1.0860E+00   2.3356E-04  0.0057
   1.0860E+00   1.1125E+00   2.4237E-04  0.0056
   1.1125E+00   1.1395E+00   2.5277E-04  0.0054
   1.1395E+00   1.1673E+00   2.6442E-04  0.0052
   1.1673E+00   1.1957E+00   2.7957E-04  0.0050
   1.1957E+00   1.2247E+00   2.8696E-04  0.0049
   1.2247E+00   1.2545E+00   2.9455E-04  0.0047
   1.2545E+00   1.2851E+00   3.0510E-04  0.0046
   1.2851E+00   1.3163E+00   3.1348E-04  0.0045
   1.3163E+00   1.3484E+00   3.2591E-04  0.0043
   1.3484E+00   1.3812E+00   3.3926E-04  0.0042
   1.3812E+00   1.4148E+00   3.4977E-04  0.0041
   1.4148E+00   1.4492E+00   3.5518E-04  0.0040
   1.4492E+00   1.4845E+00   3.6106E-04  0.0039
   1.4845E+00   1.5206E+00   3.6584E-04  0.0039
   1.5206E+00   1.5576E+00   3.7364E-04  0.0038
   1.5576E+00   1.5955E+00   3.8398E-04  0.0037
   1.5955E+00   1.6343E+00   3.9316E-04  0.0036
   1.6343E+00   1.6741E+00   4.0761E-04  0.0035
   1.6741E+00   1.7148E+00   4.1867E-04  0.0034
   1.7148E+00   1.7565E+00   4.2778E-04  0.0033
   1.7565E+00   1.7992E+00   4.3373E-04  0.0033
   1.7992E+00   1.8430E+00   4.3896E-04  0.0032
   1.8430E+00   1.8879E+00   4.4407E-04  0.0031
   1.8879E+00   1.9338E+00   4.5325E-04  0.0031
   1.9338E+00   1.9808E+00   4.6524E-04  0.0030
   1.9808E+00   2.0290E+00   4.7411E-04  0.0029
   2.0290E+00   2.0784E+00   4.7700E-04  0.0029
   2.0784E+00   2.1290E+00   4.7777E-04  0.0029
   2.1290E+00   2.1808E+00   4.7765E-04  0.0028
   2.1808E+00   2.2338E+00   4.8127E-04  0.0028
   2.2338E+00   2.2882E+00   4.8806E-04  0.0027
   2.2882E+00   2.3439E+00   4.9433E-04  0.0027
   2.3439E+00   2.4009E+00   5.0668E-04  0.0026
   2.4009E+00   2.4593E+00   5.1310E-04  0.0026
   2.4593E+00   2.5191E+00   5.1333E-04  0.0025
   2.5191E+00   2.5804E+00   5.1241E-04  0.0025
   2.5804E+00   2.6432E+00   5.1242E-04  0.0025
   2.6432E+00   2.7075E+00   5.1232E-04  0.0024
   2.7075E+00   2.7734E+00   5.1330E-04  0.0024
   2.7734E+00   2.8409E+00   5.1689E-04  0.0024
   2.8409E+00   2.9100E+00   5.2095E-04  0.0023
   2.9100E+00   2.9808E+00   5.2860E-04  0.0023
   2.9808E+00   3.0533E+00   5.2781E-04  0.0023
   3.0533E+00   3.1276E+00   5.2250E-04  0.0023
   3.1276E+00   3.2037E+00   5.2259E-04  0.0022
   3.2037E+00   3.2817E+00   5.2042E-04  0.0022
   3.2817E+00   3.3615E+00   5.1328E-04  0.0022
   3.3615E+00   3.4433E+00   5.1388E-04  0.0022
   3.4433E+00   3.5271E+00   5.1064E-04  0.0021
   3.5271E+00   3.6129E+00   5.1164E-04  0.0021
   3.6129E+00   3.7008E+00   5.0990E-04  0.0021
   3.7008E+00   3.7908E+00   5.0400E-04  0.0021
   3.7908E+00   3.8831E+00   4.9873E-04  0.0021
   3.8831E+00   3.9776E+00   4.9644E-04  0.0021
   3.9776E+00   4.0743E+00   4.9476E-04  0.0020
   4.0743E+00   4.1735E+00   4.8793E-04  0.0020
   4.1735E+00   4.2750E+00   4.8150E-04  0.0020
   4.2750E+00   4.3790E+00   4.7544E-04  0.0020
   4.3790E+00   4.4856E+00   4.7007E-04  0.0020
   4.4856E+00   4.5947E+00   4.6457E-04  0.0020
   4.5947E+00   4.7065E+00   4.5670E-04  0.0020
   4.7065E+00   4.8210E+00   4.5471E-04  0.0019
   4.8210E+00   4.9383E+00   4.4845E-04  0.0019
   4.9383E+00   5.0585E+00   4.3708E-04  0.0019
   5.0585E+00   5.1815E+00   4.3175E-04  0.0019
   5.1815E+00   5.3076E+00   4.2435E-04  0.0019
   5.3076E+00   5.4368E+00   4.1425E-04  0.0019
   5.4368E+00   5.5690E+00   4.0694E-04  0.0019
   5.5690E+00   5.7045E+00   3.9822E-04  0.0019
   5.7045E+00   5.8433E+00   3.8954E-04  0.0019
   5.8433E+00   5.9855E+00   3.8242E-04  0.0019
   5.9855E+00   6.1311E+00   3.7535E-04  0.0019
   6.1311E+00   6.2803E+00   3.6654E-04  0.0019
   6.2803E+00   6.4331E+00   3.5937E-04  0.0019
   6.4331E+00   6.5896E+00   3.5085E-04  0.0019
   6.5896E+00   6.7500E+00   3.4327E-04  0.0019
   6.7500E+00   6.9142E+00   3.3373E-04  0.0019
   6.9142E+00   7.0824E+00   3.2675E-04  0.0019
   7.0824E+00   7.2548E+00   3.2038E-04  0.0019
   7.2548E+00   7.4313E+00   3.1123E-04  0.0019
   7.4313E+00   7.6121E+00   3.0343E-04  0.0019
   7.6121E+00   7.7973E+00   2.9461E-04  0.0019
   7.7973E+00   7.9870E+00   2.8719E-04  0.0019
   7.9870E+00   8.1813E+00   2.7863E-04  0.0019
   8.1813E+00   8.3804E+00   2.6999E-04  0.0019
   8.3804E+00   8.5843E+00   2.6166E-04  0.0019
   8.5843E+00   8.7931E+00   2.5363E-04  0.0019
   8.7931E+00   9.0071E+00   2.4652E-04  0.0019
   9.0071E+00   9.2262E+00   2.3781E-04  0.0020
   9.2262E+00   9.4507E+00   2.2985E-04  0.0020
   9.4507E+00   9.6807E+00   2.2326E-04  0.0020
   9.6807E+00   9.9162E+00   2.1684E-04  0.0020
   9.9162E+00   1.0157E+01   2.0950E-04  0.0020
   1.0157E+01   1.0405E+01   2.0558E-04  0.0020
   1.0405E+01   1.0658E+01   2.0291E-04  0.0020
   1.0658E+01   1.0917E+01   1.9790E-04  0.0020
   1.0917E+01   1.1183E+01   1.9247E-04  0.0020
   1.1183E+01   1.1455E+01   1.8560E-04  0.0020
   1.1455E+01   1.1733E+01   1.8017E-04  0.0020
   1.1733E+01   1.2019E+01   1.7333E-04  0.0020
   1.2019E+01   1.2311E+01   1.6644E-04  0.0020
   1.2311E+01   1.2611E+01   1.6030E-04  0.0020
   1.2611E+01   1.2918E+01   1.5360E-04  0.0021
   1.2918E+01   1.3232E+01   1.5030E-04  0.0021
   1.3232E+01   1.3554E+01   1.4426E-04  0.0021
   1.3554E+01   1.3884E+01   1.3879E-04  0.0021
   1.3884E+01   1.4222E+01   1.3356E-04  0.0021
   1.4222E+01   1.4568E+01   1.2830E-04  0.0021
   1.4568E+01   1.4922E+01   1.2313E-04  0.0021
   1.4922E+01   1.5285E+01   1.1748E-04  0.0022
   1.5285E+01   1.5657E+01   1.1323E-04  0.0022
   1.5657E+01   1.6038E+01   1.0815E-04  0.0022
   1.6038E+01   1.6428E+01   1.0383E-04  0.0022
   1.6428E+01   1.6828E+01   9.9828E-05  0.0022
   1.6828E+01   1.7237E+01   9.5293E-05  0.0023
   1.7237E+01   1.7657E+01   9.2027E-05  0.0023
   1.7657E+01   1.8086E+01   8.8160E-05  0.0023
   1.8086E+01   1.8526E+01   8.5019E-05  0.0023
   1.8526E+01   1.8977E+01   8.2256E-05  0.0023
   1.8977E+01   1.9439E+01   8.0408E-05  0.0023
   1.9439E+01   1.9912E+01   7.9063E-05  0.0023
   1.9912E+01   2.0396E+01   7.9733E-05  0.0023
   2.0396E+01   2.0893E+01   7.7041E-05  0.0023
   2.0893E+01   2.1401E+01   7.4087E-05  0.0023
   2.1401E+01   2.1922E+01   7.0865E-05  0.0023
   2.1922E+01   2.2455E+01   6.8085E-05  0.0023
   2.2455E+01   2.3001E+01   6.4884E-05  0.0024
   2.3001E+01   2.3561E+01   6.1735E-05  0.0024
   2.3561E+01   2.4134E+01   5.8932E-05  0.0024
   2.4134E+01   2.4721E+01   5.6376E-05  0.0025
   2.4721E+01   2.5323E+01   5.3805E-05  0.0025
   2.5323E+01   2.5939E+01   5.1500E-05  0.0025
   2.5939E+01   2.6570E+01   4.8834E-05  0.0025
   2.6570E+01   2.7217E+01   4.6570E-05  0.0026
   2.7217E+01   2.7879E+01   4.4195E-05  0.0026
   2.7879E+01   2.8557E+01   4.1900E-05  0.0027
   2.8557E+01   2.9252E+01   3.9593E-05  0.0027
   2.9252E+01   2.9964E+01   3.7589E-05  0.0027
   2.9964E+01   3.0693E+01   3.5602E-05  0.0028
   3.0693E+01   3.1440E+01   3.3314E-05  0.0028
   3.1440E+01   3.2205E+01   3.1535E-05  0.0029
   3.2205E+01   3.2988E+01   2.9795E-05  0.0029
   3.2988E+01   3.3791E+01   2.7872E-05  0.0030
   3.3791E+01   3.4613E+01   2.6257E-05  0.0030
   3.4613E+01   3.5455E+01   2.4662E-05  0.0031
   3.5455E+01   3.6318E+01   2.2986E-05  0.0032
   3.6318E+01   3.7201E+01   2.1649E-05  0.0032
   3.7201E+01   3.8106E+01   2.0268E-05  0.0033
   3.8106E+01   3.9034E+01   1.8780E-05  0.0034
   3.9034E+01   3.9983E+01   1.7394E-05  0.0035
   3.9983E+01   4.0956E+01   1.6198E-05  0.0036
   4.0956E+01   4.1953E+01   1.4944E-05  0.0037
   4.1953E+01   4.2973E+01   1.3744E-05  0.0038
   4.2973E+01   4.4019E+01   1.2668E-05  0.0039
   4.4019E+01   4.5090E+01   1.1608E-05  0.0040
   4.5090E+01   4.6187E+01   1.0709E-05  0.0041
   4.6187E+01   4.7311E+01   9.6381E-06  0.0043
   4.7311E+01   4.8462E+01   8.8928E-06  0.0044
   4.8462E+01   4.9641E+01   8.0240E-06  0.0046
   4.9641E+01   5.0849E+01   7.3018E-06  0.0048
   5.0849E+01   5.2086E+01   6.5788E-06  0.0050
   5.2086E+01   5.3353E+01   5.8604E-06  0.0052
   5.3353E+01   5.4651E+01   5.3166E-06  0.0054
   5.4651E+01   5.5981E+01   4.6828E-06  0.0057
   5.5981E+01   5.7343E+01   4.1716E-06  0.0059
   5.7343E+01   5.8738E+01   3.6756E-06  0.0062
   5.8738E+01   6.0168E+01   3.2338E-06  0.0066
   6.0168E+01   6.1632E+01   2.8560E-06  0.0069
   6.1632E+01   6.3131E+01   2.5249E-06  0.0073
   6.3131E+01   6.4667E+01   2.1950E-06  0.0077
   6.4667E+01   6.6240E+01   1.8899E-06  0.0082
   6.6240E+01   6.7852E+01   1.6215E-06  0.0087
   6.7852E+01   6.9503E+01   1.3778E-06  0.0094
   6.9503E+01   7.1194E+01   1.1849E-06  0.0100
   7.1194E+01   7.2926E+01   1.0062E-06  0.0107
   7.2926E+01   7.4701E+01   8.6307E-07  0.0114
   7.4701E+01   7.6518E+01   7.1647E-07  0.0124
   7.6518E+01   7.8380E+01   6.0502E-07  0.0133
   7.8380E+01   8.0287E+01   5.0298E-07  0.0144
   8.0287E+01   8.2240E+01   4.1649E-07  0.0157
   8.2240E+01   8.4241E+01   3.5663E-07  0.0167
   8.4241E+01   8.6291E+01   2.9293E-07  0.0183
   8.6291E+01   8.8391E+01   2.5368E-07  0.0194
   8.8391E+01   9.0541E+01   2.1147E-07  0.0210
   9.0541E+01   9.2744E+01   1.7431E-07  0.0228
   9.2744E+01   9.5001E+01   1.4642E-07  0.0246
   9.5001E+01   9.7312E+01   1.2754E-07  0.0260
   9.7312E+01   9.9680E+01   1.0381E-07  0.0285
   9.9680E+01   1.0211E+02   8.8567E-08  0.0305
   1.0211E+02   1.0459E+02   7.1006E-08  0.0337
   1.0459E+02   1.0713E+02   5.7845E-08  0.0369
   1.0713E+02   1.0974E+02   4.2046E-08  0.0427
   1.0974E+02   1.1241E+02   3.2433E-08  0.0481
   1.1241E+02   1.1515E+02   2.1206E-08  0.0587
   1.1515E+02   1.1795E+02   1.3350E-08  0.0731
   1.1795E+02   1.2082E+02   6.8298E-09  0.1010
   1.2082E+02   1.2376E+02   3.4699E-09  0.1400
   1.2376E+02   1.2677E+02   1.9262E-09  0.1857
   1.2677E+02   1.2985E+02   7.1327E-10  0.3015
   1.2985E+02   1.3301E+02   6.9633E-10  0.3015
   1.3301E+02   1.3625E+02   3.7080E-10  0.4082
   1.3625E+02   1.3956E+02   6.0331E-11  1.0000
   1.3956E+02   1.4296E+02   5.8898E-11  1.0000
   1.4296E+02   1.4644E+02   0.0000E+00  0.0000
   1.4644E+02   1.5000E+02   0.0000E+00  0.0000

#   sum over                 3.9380E-05
'no. =    1   reg = 113 - 213'
msuc: {\huge [t-cross] in region mesh}
msdr: {\it plotted by \ANGEL \version}
msdl: {\it calculated by \PHITS  3.28}
wt: s(0.7)
\vspace{-3}
  region surface crossing
  area  &=&   1.0000E+00 [cm^2]
e:
 
# Information for Restart Calculation
# This calculation was newly started
# istdev =  2 # 1:Batch variance, 2:History variance
# resc2  = 5.00000000000000000E+09 # Total source weight or Total source weight / maxcas
# resc3  = 5.00000000000000000E+09 # Total history number or Total batch number
# maxcas =   500000000 # History / Batch, only used for istdev=1
# bitrseed = 0110100000100010111000001110001111001110100100011111101000111001 # bit data of rseed
