[ T-Cross ]
    title = [t-cross] in region mesh
     mesh =  reg            # mesh type is region-wise
      reg =    1            # number of crossing regions
      non     r-from    r-to       area
      1       106       206        1.000000    
   e-type =    3            # e-mesh is log given by emin, emax and ne
     emin =  1.0000000E-02  # minimum value of e-mesh points
     emax =   150.0000      # maximum value of e-mesh points
#    edel =  2.4039514E-02  # mesh width of e-mesh points
       ne =    400          # number of e-mesh points
#    data = ( e(i), i = 1, ne + 1 )
#           1.00000E-02  1.02433E-02  1.04925E-02  1.07478E-02  1.10093E-02
#           1.12772E-02  1.15516E-02  1.18326E-02  1.21205E-02  1.24154E-02
#           1.27175E-02  1.30269E-02  1.33439E-02  1.36686E-02  1.40011E-02
#           1.43418E-02  1.46907E-02  1.50482E-02  1.54143E-02  1.57894E-02
#           1.61735E-02  1.65670E-02  1.69701E-02  1.73830E-02  1.78060E-02
#           1.82392E-02  1.86830E-02  1.91375E-02  1.96032E-02  2.00801E-02
#           2.05687E-02  2.10692E-02  2.15818E-02  2.21069E-02  2.26448E-02
#           2.31957E-02  2.37601E-02  2.43382E-02  2.49304E-02  2.55369E-02
#           2.61583E-02  2.67947E-02  2.74467E-02  2.81145E-02  2.87985E-02
#           2.94992E-02  3.02169E-02  3.09521E-02  3.17052E-02  3.24766E-02
#           3.32668E-02  3.40762E-02  3.49053E-02  3.57546E-02  3.66246E-02
#           3.75157E-02  3.84284E-02  3.93634E-02  4.03212E-02  4.13022E-02
#           4.23071E-02  4.33365E-02  4.43909E-02  4.54710E-02  4.65773E-02
#           4.77106E-02  4.88714E-02  5.00605E-02  5.12785E-02  5.25262E-02
#           5.38042E-02  5.51133E-02  5.64542E-02  5.78278E-02  5.92348E-02
#           6.06760E-02  6.21523E-02  6.36645E-02  6.52135E-02  6.68002E-02
#           6.84255E-02  7.00904E-02  7.17957E-02  7.35426E-02  7.53319E-02
#           7.71648E-02  7.90423E-02  8.09655E-02  8.29354E-02  8.49533E-02
#           8.70203E-02  8.91376E-02  9.13064E-02  9.35279E-02  9.58035E-02
#           9.81345E-02  1.00522E-01  1.02968E-01  1.05473E-01  1.08040E-01
#           1.10668E-01  1.13361E-01  1.16119E-01  1.18944E-01  1.21838E-01
#           1.24803E-01  1.27839E-01  1.30950E-01  1.34136E-01  1.37399E-01
#           1.40742E-01  1.44167E-01  1.47675E-01  1.51268E-01  1.54948E-01
#           1.58718E-01  1.62580E-01  1.66535E-01  1.70587E-01  1.74738E-01
#           1.78989E-01  1.83344E-01  1.87805E-01  1.92375E-01  1.97055E-01
#           2.01850E-01  2.06761E-01  2.11792E-01  2.16945E-01  2.22223E-01
#           2.27630E-01  2.33169E-01  2.38842E-01  2.44653E-01  2.50605E-01
#           2.56703E-01  2.62949E-01  2.69346E-01  2.75900E-01  2.82613E-01
#           2.89489E-01  2.96532E-01  3.03747E-01  3.11138E-01  3.18708E-01
#           3.26462E-01  3.34405E-01  3.42542E-01  3.50876E-01  3.59413E-01
#           3.68158E-01  3.77116E-01  3.86291E-01  3.95690E-01  4.05317E-01
#           4.15179E-01  4.25281E-01  4.35628E-01  4.46227E-01  4.57084E-01
#           4.68205E-01  4.79597E-01  4.91266E-01  5.03219E-01  5.15463E-01
#           5.28005E-01  5.40851E-01  5.54011E-01  5.67490E-01  5.81298E-01
#           5.95441E-01  6.09929E-01  6.24769E-01  6.39970E-01  6.55541E-01
#           6.71491E-01  6.87828E-01  7.04564E-01  7.21706E-01  7.39266E-01
#           7.57253E-01  7.75678E-01  7.94551E-01  8.13883E-01  8.33685E-01
#           8.53969E-01  8.74747E-01  8.96030E-01  9.17831E-01  9.40163E-01
#           9.63038E-01  9.86469E-01  1.01047E+00  1.03506E+00  1.06024E+00
#           1.08604E+00  1.11246E+00  1.13953E+00  1.16725E+00  1.19565E+00
#           1.22474E+00  1.25454E+00  1.28507E+00  1.31633E+00  1.34836E+00
#           1.38117E+00  1.41477E+00  1.44920E+00  1.48446E+00  1.52057E+00
#           1.55757E+00  1.59547E+00  1.63429E+00  1.67405E+00  1.71478E+00
#           1.75650E+00  1.79924E+00  1.84302E+00  1.88786E+00  1.93379E+00
#           1.98084E+00  2.02904E+00  2.07841E+00  2.12898E+00  2.18078E+00
#           2.23384E+00  2.28819E+00  2.34386E+00  2.40089E+00  2.45930E+00
#           2.51914E+00  2.58043E+00  2.64322E+00  2.70753E+00  2.77341E+00
#           2.84088E+00  2.91001E+00  2.98081E+00  3.05333E+00  3.12762E+00
#           3.20372E+00  3.28167E+00  3.36152E+00  3.44330E+00  3.52708E+00
#           3.61290E+00  3.70080E+00  3.79085E+00  3.88308E+00  3.97756E+00
#           4.07434E+00  4.17347E+00  4.27501E+00  4.37903E+00  4.48557E+00
#           4.59471E+00  4.70650E+00  4.82102E+00  4.93832E+00  5.05847E+00
#           5.18155E+00  5.30762E+00  5.43676E+00  5.56904E+00  5.70453E+00
#           5.84333E+00  5.98550E+00  6.13114E+00  6.28031E+00  6.43312E+00
#           6.58964E+00  6.74997E+00  6.91420E+00  7.08243E+00  7.25475E+00
#           7.43126E+00  7.61207E+00  7.79728E+00  7.98700E+00  8.18133E+00
#           8.38038E+00  8.58428E+00  8.79315E+00  9.00709E+00  9.22624E+00
#           9.45072E+00  9.68067E+00  9.91620E+00  1.01575E+01  1.04046E+01
#           1.06578E+01  1.09171E+01  1.11827E+01  1.14548E+01  1.17335E+01
#           1.20190E+01  1.23114E+01  1.26109E+01  1.29178E+01  1.32321E+01
#           1.35540E+01  1.38838E+01  1.42216E+01  1.45676E+01  1.49221E+01
#           1.52851E+01  1.56570E+01  1.60380E+01  1.64282E+01  1.68279E+01
#           1.72374E+01  1.76568E+01  1.80864E+01  1.85264E+01  1.89772E+01
#           1.94389E+01  1.99119E+01  2.03963E+01  2.08926E+01  2.14009E+01
#           2.19216E+01  2.24550E+01  2.30014E+01  2.35610E+01  2.41343E+01
#           2.47215E+01  2.53230E+01  2.59391E+01  2.65702E+01  2.72167E+01
#           2.78789E+01  2.85572E+01  2.92520E+01  2.99637E+01  3.06928E+01
#           3.14396E+01  3.22045E+01  3.29881E+01  3.37907E+01  3.46128E+01
#           3.54550E+01  3.63177E+01  3.72013E+01  3.81064E+01  3.90336E+01
#           3.99833E+01  4.09561E+01  4.19526E+01  4.29734E+01  4.40189E+01
#           4.50900E+01  4.61870E+01  4.73108E+01  4.84619E+01  4.96410E+01
#           5.08488E+01  5.20860E+01  5.33533E+01  5.46514E+01  5.59812E+01
#           5.73432E+01  5.87384E+01  6.01676E+01  6.16315E+01  6.31311E+01
#           6.46671E+01  6.62405E+01  6.78522E+01  6.95031E+01  7.11941E+01
#           7.29263E+01  7.47007E+01  7.65182E+01  7.83800E+01  8.02870E+01
#           8.22405E+01  8.42414E+01  8.62911E+01  8.83906E+01  9.05412E+01
#           9.27442E+01  9.50007E+01  9.73122E+01  9.96799E+01  1.02105E+02
#           1.04589E+02  1.07134E+02  1.09741E+02  1.12411E+02  1.15146E+02
#           1.17948E+02  1.20817E+02  1.23757E+02  1.26768E+02  1.29852E+02
#           1.33012E+02  1.36248E+02  1.39563E+02  1.42959E+02  1.46437E+02
#           1.50000E+02
     unit =    2            # unit is [1/cm^2/(MeV/n)/source]
     axis =  eng            # axis of output
     file = detector-07.out  # file name of output for the above axis
   output = f-curr          # surface crossing forward current spectrum
     part =  neutron  
# kf/name :  2112     
#    used :        main (  %)        temp (  %)       total (  %)
#  memory :         414 (  0)           0 (  0)         414 (  0)

#------------------------------------------------------------------------------
#newpage:
#   no. =    1   reg = 106 - 206

x: Energy [MeV/n]
y:  F-Curr [1/cm^2/(MeV/n)/source]         
p: xlog ylog afac(0.8) form(0.9)
h: n            x            y(neutron ),hh0l   n 
#  e-lower      e-upper      neutron     r.err 
   1.0000E-02   1.0243E-02   1.2401E-04  0.0811
   1.0243E-02   1.0493E-02   1.1436E-04  0.0834
   1.0493E-02   1.0748E-02   1.1680E-04  0.0814
   1.0748E-02   1.1009E-02   1.0677E-04  0.0844
   1.1009E-02   1.1277E-02   1.1088E-04  0.0818
   1.1277E-02   1.1552E-02   1.0637E-04  0.0825
   1.1552E-02   1.1833E-02   1.1524E-04  0.0782
   1.1833E-02   1.2121E-02   9.5652E-05  0.0849
   1.2121E-02   1.2415E-02   9.9064E-05  0.0825
   1.2415E-02   1.2718E-02   9.2132E-05  0.0845
   1.2718E-02   1.3027E-02   1.0465E-04  0.0782
   1.3027E-02   1.3344E-02   1.0900E-04  0.0758
   1.3344E-02   1.3669E-02   8.9561E-05  0.0827
   1.3669E-02   1.4001E-02   8.9867E-05  0.0814
   1.4001E-02   1.4342E-02   9.8492E-05  0.0769
   1.4342E-02   1.4691E-02   9.6006E-05  0.0768
   1.4691E-02   1.5048E-02   9.1549E-05  0.0779
   1.5048E-02   1.5414E-02   8.0358E-05  0.0820
   1.5414E-02   1.5789E-02   7.6708E-05  0.0828
   1.5789E-02   1.6174E-02   7.8353E-05  0.0812
   1.6174E-02   1.6567E-02   7.8795E-05  0.0799
   1.6567E-02   1.6970E-02   6.8858E-05  0.0843
   1.6970E-02   1.7383E-02   7.7277E-05  0.0787
   1.7383E-02   1.7806E-02   6.9681E-05  0.0819
   1.7806E-02   1.8239E-02   7.1566E-05  0.0801
   1.8239E-02   1.8683E-02   7.4379E-05  0.0775
   1.8683E-02   1.9138E-02   7.9483E-05  0.0740
   1.9138E-02   1.9603E-02   6.9586E-05  0.0781
   1.9603E-02   2.0080E-02   5.6627E-05  0.0858
   2.0080E-02   2.0569E-02   5.7718E-05  0.0838
   2.0569E-02   2.1069E-02   6.2722E-05  0.0796
   2.1069E-02   2.1582E-02   5.7412E-05  0.0821
   2.1582E-02   2.2107E-02   5.4698E-05  0.0830
   2.2107E-02   2.2645E-02   6.0428E-05  0.0781
   2.2645E-02   2.3196E-02   5.6952E-05  0.0795
   2.3196E-02   2.3760E-02   5.5344E-05  0.0797
   2.3760E-02   2.4338E-02   4.4770E-05  0.0875
   2.4338E-02   2.4930E-02   5.3647E-05  0.0791
   2.4930E-02   2.5537E-02   4.4936E-05  0.0853
   2.5537E-02   2.6158E-02   6.3175E-05  0.0710
   2.6158E-02   2.6795E-02   4.9438E-05  0.0793
   2.6795E-02   2.7447E-02   4.6512E-05  0.0809
   2.7447E-02   2.8114E-02   4.7515E-05  0.0790
   2.8114E-02   2.8799E-02   4.3619E-05  0.0813
   2.8799E-02   2.9499E-02   4.0974E-05  0.0829
   2.9499E-02   3.0217E-02   4.3128E-05  0.0800
   3.0217E-02   3.0952E-02   4.5961E-05  0.0766
   3.0952E-02   3.1705E-02   4.0735E-05  0.0804
   3.1705E-02   3.2477E-02   3.8809E-05  0.0814
   3.2477E-02   3.3267E-02   4.2813E-05  0.0766
   3.3267E-02   3.4076E-02   4.0474E-05  0.0776
   3.4076E-02   3.4905E-02   3.6230E-05  0.0812
   3.4905E-02   3.5755E-02   4.0350E-05  0.0761
   3.5755E-02   3.6625E-02   3.3353E-05  0.0825
   3.6625E-02   3.7516E-02   3.4847E-05  0.0799
   3.7516E-02   3.8428E-02   3.8355E-05  0.0751
   3.8428E-02   3.9363E-02   3.5151E-05  0.0776
   3.9363E-02   4.0321E-02   3.6551E-05  0.0753
   4.0321E-02   4.1302E-02   3.3463E-05  0.0776
   4.1302E-02   4.2307E-02   3.3176E-05  0.0772
   4.2307E-02   4.3337E-02   2.7255E-05  0.0841
   4.3337E-02   4.4391E-02   3.4181E-05  0.0743
   4.4391E-02   4.5471E-02   3.1272E-05  0.0766
   4.5471E-02   4.6577E-02   3.3653E-05  0.0730
   4.6577E-02   4.7711E-02   2.8450E-05  0.0785
   4.7711E-02   4.8871E-02   2.7820E-05  0.0783
   4.8871E-02   5.0061E-02   2.7569E-05  0.0779
   5.0061E-02   5.1279E-02   2.8167E-05  0.0760
   5.1279E-02   5.2526E-02   2.7606E-05  0.0759
   5.2526E-02   5.3804E-02   2.3403E-05  0.0816
   5.3804E-02   5.5113E-02   2.2803E-05  0.0814
   5.5113E-02   5.6454E-02   2.4086E-05  0.0782
   5.6454E-02   5.7828E-02   3.1148E-05  0.0680
   5.7828E-02   5.9235E-02   2.6154E-05  0.0735
   5.9235E-02   6.0676E-02   2.3944E-05  0.0759
   6.0676E-02   6.2152E-02   2.4362E-05  0.0743
   6.2152E-02   6.3665E-02   2.1973E-05  0.0772
   6.3665E-02   6.5214E-02   2.5355E-05  0.0711
   6.5214E-02   6.6800E-02   2.4041E-05  0.0721
   6.6800E-02   6.8426E-02   1.9803E-05  0.0786
   6.8426E-02   7.0090E-02   2.1187E-05  0.0750
   7.0090E-02   7.1796E-02   2.1531E-05  0.0735
   7.1796E-02   7.3543E-02   2.0539E-05  0.0744
   7.3543E-02   7.5332E-02   2.1018E-05  0.0725
   7.5332E-02   7.7165E-02   2.1517E-05  0.0708
   7.7165E-02   7.9042E-02   1.9232E-05  0.0742
   7.9042E-02   8.0965E-02   1.8674E-05  0.0744
   8.0965E-02   8.2935E-02   2.0143E-05  0.0706
   8.2935E-02   8.4953E-02   1.8093E-05  0.0736
   8.4953E-02   8.7020E-02   1.7704E-05  0.0737
   8.7020E-02   8.9138E-02   1.7299E-05  0.0737
   8.9138E-02   9.1306E-02   1.8234E-05  0.0705
   9.1306E-02   9.3528E-02   1.9667E-05  0.0674
   9.3528E-02   9.5804E-02   1.9682E-05  0.0665
   9.5804E-02   9.8134E-02   1.7440E-05  0.0696
   9.8134E-02   1.0052E-01   1.7654E-05  0.0686
   1.0052E-01   1.0297E-01   2.0050E-05  0.0636
   1.0297E-01   1.0547E-01   1.9361E-05  0.0639
   1.0547E-01   1.0804E-01   1.9130E-05  0.0635
   1.0804E-01   1.1067E-01   2.0425E-05  0.0608
   1.1067E-01   1.1336E-01   2.2698E-05  0.0569
   1.1336E-01   1.1612E-01   2.2405E-05  0.0567
   1.1612E-01   1.1894E-01   2.3987E-05  0.0541
   1.1894E-01   1.2184E-01   2.3253E-05  0.0543
   1.2184E-01   1.2480E-01   2.3211E-05  0.0537
   1.2480E-01   1.2784E-01   2.5487E-05  0.0506
   1.2784E-01   1.3095E-01   2.3769E-05  0.0518
   1.3095E-01   1.3414E-01   2.7061E-05  0.0480
   1.3414E-01   1.3740E-01   3.0491E-05  0.0447
   1.3740E-01   1.4074E-01   3.2119E-05  0.0430
   1.4074E-01   1.4417E-01   3.3932E-05  0.0413
   1.4417E-01   1.4767E-01   3.4160E-05  0.0407
   1.4767E-01   1.5127E-01   3.3020E-05  0.0409
   1.5127E-01   1.5495E-01   3.7913E-05  0.0377
   1.5495E-01   1.5872E-01   3.7087E-05  0.0377
   1.5872E-01   1.6258E-01   3.8122E-05  0.0367
   1.6258E-01   1.6654E-01   4.2262E-05  0.0345
   1.6654E-01   1.7059E-01   4.2150E-05  0.0341
   1.7059E-01   1.7474E-01   4.3101E-05  0.0333
   1.7474E-01   1.7899E-01   4.4773E-05  0.0323
   1.7899E-01   1.8334E-01   4.5143E-05  0.0318
   1.8334E-01   1.8781E-01   4.9407E-05  0.0300
   1.8781E-01   1.9237E-01   5.0274E-05  0.0294
   1.9237E-01   1.9706E-01   5.1681E-05  0.0286
   1.9706E-01   2.0185E-01   5.3752E-05  0.0278
   2.0185E-01   2.0676E-01   5.4198E-05  0.0273
   2.0676E-01   2.1179E-01   5.6783E-05  0.0264
   2.1179E-01   2.1694E-01   5.8988E-05  0.0256
   2.1694E-01   2.2222E-01   6.0140E-05  0.0250
   2.2222E-01   2.2763E-01   6.2034E-05  0.0243
   2.2763E-01   2.3317E-01   6.2939E-05  0.0239
   2.3317E-01   2.3884E-01   6.4704E-05  0.0232
   2.3884E-01   2.4465E-01   6.6389E-05  0.0227
   2.4465E-01   2.5061E-01   6.9431E-05  0.0219
   2.5061E-01   2.5670E-01   7.0391E-05  0.0215
   2.5670E-01   2.6295E-01   7.3835E-05  0.0207
   2.6295E-01   2.6935E-01   7.7220E-05  0.0200
   2.6935E-01   2.7590E-01   8.0009E-05  0.0195
   2.7590E-01   2.8261E-01   7.9007E-05  0.0193
   2.8261E-01   2.8949E-01   8.4427E-05  0.0185
   2.8949E-01   2.9653E-01   8.3033E-05  0.0184
   2.9653E-01   3.0375E-01   8.9593E-05  0.0175
   3.0375E-01   3.1114E-01   8.8815E-05  0.0174
   3.1114E-01   3.1871E-01   9.1801E-05  0.0169
   3.1871E-01   3.2646E-01   9.4523E-05  0.0164
   3.2646E-01   3.3441E-01   9.6018E-05  0.0161
   3.3441E-01   3.4254E-01   9.9397E-05  0.0157
   3.4254E-01   3.5088E-01   1.0051E-04  0.0154
   3.5088E-01   3.5941E-01   1.0306E-04  0.0150
   3.5941E-01   3.6816E-01   1.0330E-04  0.0148
   3.6816E-01   3.7712E-01   1.0948E-04  0.0142
   3.7712E-01   3.8629E-01   1.1040E-04  0.0140
   3.8629E-01   3.9569E-01   1.1222E-04  0.0137
   3.9569E-01   4.0532E-01   1.1587E-04  0.0133
   4.0532E-01   4.1518E-01   1.1704E-04  0.0131
   4.1518E-01   4.2528E-01   1.1756E-04  0.0129
   4.2528E-01   4.3563E-01   1.2072E-04  0.0126
   4.3563E-01   4.4623E-01   1.1932E-04  0.0125
   4.4623E-01   4.5708E-01   1.2338E-04  0.0122
   4.5708E-01   4.6821E-01   1.2411E-04  0.0120
   4.6821E-01   4.7960E-01   1.2688E-04  0.0117
   4.7960E-01   4.9127E-01   1.2528E-04  0.0116
   4.9127E-01   5.0322E-01   1.2736E-04  0.0114
   5.0322E-01   5.1546E-01   1.2819E-04  0.0112
   5.1546E-01   5.2800E-01   1.3145E-04  0.0110
   5.2800E-01   5.4085E-01   1.3298E-04  0.0108
   5.4085E-01   5.5401E-01   1.3471E-04  0.0106
   5.5401E-01   5.6749E-01   1.3690E-04  0.0104
   5.6749E-01   5.8130E-01   1.3549E-04  0.0103
   5.8130E-01   5.9544E-01   1.3591E-04  0.0101
   5.9544E-01   6.0993E-01   1.3871E-04  0.0099
   6.0993E-01   6.2477E-01   1.3972E-04  0.0098
   6.2477E-01   6.3997E-01   1.3768E-04  0.0097
   6.3997E-01   6.5554E-01   1.4023E-04  0.0095
   6.5554E-01   6.7149E-01   1.3722E-04  0.0095
   6.7149E-01   6.8783E-01   1.4206E-04  0.0092
   6.8783E-01   7.0456E-01   1.3933E-04  0.0092
   7.0456E-01   7.2171E-01   1.3825E-04  0.0091
   7.2171E-01   7.3927E-01   1.3839E-04  0.0090
   7.3927E-01   7.5725E-01   1.3463E-04  0.0090
   7.5725E-01   7.7568E-01   1.3566E-04  0.0089
   7.7568E-01   7.9455E-01   1.3250E-04  0.0089
   7.9455E-01   8.1388E-01   1.2916E-04  0.0089
   8.1388E-01   8.3368E-01   1.2876E-04  0.0088
   8.3368E-01   8.5397E-01   1.2687E-04  0.0088
   8.5397E-01   8.7475E-01   1.2444E-04  0.0087
   8.7475E-01   8.9603E-01   1.2075E-04  0.0088
   8.9603E-01   9.1783E-01   1.1618E-04  0.0088
   9.1783E-01   9.4016E-01   1.1073E-04  0.0089
   9.4016E-01   9.6304E-01   1.0708E-04  0.0090
   9.6304E-01   9.8647E-01   1.0560E-04  0.0089
   9.8647E-01   1.0105E+00   1.0264E-04  0.0089
   1.0105E+00   1.0351E+00   1.0317E-04  0.0088
   1.0351E+00   1.0602E+00   1.0425E-04  0.0086
   1.0602E+00   1.0860E+00   1.0748E-04  0.0084
   1.0860E+00   1.1125E+00   1.1196E-04  0.0081
   1.1125E+00   1.1395E+00   1.1386E-04  0.0080
   1.1395E+00   1.1673E+00   1.1610E-04  0.0078
   1.1673E+00   1.1957E+00   1.2150E-04  0.0075
   1.1957E+00   1.2247E+00   1.2476E-04  0.0073
   1.2247E+00   1.2545E+00   1.2422E-04  0.0073
   1.2545E+00   1.2851E+00   1.2622E-04  0.0071
   1.2851E+00   1.3163E+00   1.3010E-04  0.0069
   1.3163E+00   1.3484E+00   1.3022E-04  0.0068
   1.3484E+00   1.3812E+00   1.3388E-04  0.0067
   1.3812E+00   1.4148E+00   1.3826E-04  0.0065
   1.4148E+00   1.4492E+00   1.3976E-04  0.0064
   1.4492E+00   1.4845E+00   1.3997E-04  0.0063
   1.4845E+00   1.5206E+00   1.4149E-04  0.0062
   1.5206E+00   1.5576E+00   1.4181E-04  0.0061
   1.5576E+00   1.5955E+00   1.4034E-04  0.0061
   1.5955E+00   1.6343E+00   1.4229E-04  0.0059
   1.6343E+00   1.6741E+00   1.4257E-04  0.0059
   1.6741E+00   1.7148E+00   1.4312E-04  0.0058
   1.7148E+00   1.7565E+00   1.4271E-04  0.0057
   1.7565E+00   1.7992E+00   1.3555E-04  0.0058
   1.7992E+00   1.8430E+00   1.3091E-04  0.0058
   1.8430E+00   1.8879E+00   1.2968E-04  0.0057
   1.8879E+00   1.9338E+00   1.2790E-04  0.0057
   1.9338E+00   1.9808E+00   1.2873E-04  0.0056
   1.9808E+00   2.0290E+00   1.3047E-04  0.0055
   2.0290E+00   2.0784E+00   1.3159E-04  0.0054
   2.0784E+00   2.1290E+00   1.3407E-04  0.0053
   2.1290E+00   2.1808E+00   1.3571E-04  0.0052
   2.1808E+00   2.2338E+00   1.3680E-04  0.0051
   2.2338E+00   2.2882E+00   1.3540E-04  0.0051
   2.2882E+00   2.3439E+00   1.3380E-04  0.0051
   2.3439E+00   2.4009E+00   1.3257E-04  0.0050
   2.4009E+00   2.4593E+00   1.3530E-04  0.0049
   2.4593E+00   2.5191E+00   1.3176E-04  0.0049
   2.5191E+00   2.5804E+00   1.3322E-04  0.0048
   2.5804E+00   2.6432E+00   1.3190E-04  0.0048
   2.6432E+00   2.7075E+00   1.3186E-04  0.0048
   2.7075E+00   2.7734E+00   1.3057E-04  0.0047
   2.7734E+00   2.8409E+00   1.3115E-04  0.0047
   2.8409E+00   2.9100E+00   1.3087E-04  0.0046
   2.9100E+00   2.9808E+00   1.3107E-04  0.0046
   2.9808E+00   3.0533E+00   1.2890E-04  0.0045
   3.0533E+00   3.1276E+00   1.2871E-04  0.0045
   3.1276E+00   3.2037E+00   1.2869E-04  0.0044
   3.2037E+00   3.2817E+00   1.2725E-04  0.0044
   3.2817E+00   3.3615E+00   1.2726E-04  0.0044
   3.3615E+00   3.4433E+00   1.2703E-04  0.0043
   3.4433E+00   3.5271E+00   1.2617E-04  0.0043
   3.5271E+00   3.6129E+00   1.2577E-04  0.0042
   3.6129E+00   3.7008E+00   1.2479E-04  0.0042
   3.7008E+00   3.7908E+00   1.2387E-04  0.0042
   3.7908E+00   3.8831E+00   1.2248E-04  0.0042
   3.8831E+00   3.9776E+00   1.2234E-04  0.0041
   3.9776E+00   4.0743E+00   1.2055E-04  0.0041
   4.0743E+00   4.1735E+00   1.1895E-04  0.0041
   4.1735E+00   4.2750E+00   1.1804E-04  0.0040
   4.2750E+00   4.3790E+00   1.1741E-04  0.0040
   4.3790E+00   4.4856E+00   1.1438E-04  0.0040
   4.4856E+00   4.5947E+00   1.1314E-04  0.0040
   4.5947E+00   4.7065E+00   1.1226E-04  0.0039
   4.7065E+00   4.8210E+00   1.1138E-04  0.0039
   4.8210E+00   4.9383E+00   1.0981E-04  0.0039
   4.9383E+00   5.0585E+00   1.0951E-04  0.0038
   5.0585E+00   5.1815E+00   1.0794E-04  0.0038
   5.1815E+00   5.3076E+00   1.0798E-04  0.0038
   5.3076E+00   5.4368E+00   1.0646E-04  0.0038
   5.4368E+00   5.5690E+00   1.0474E-04  0.0038
   5.5690E+00   5.7045E+00   1.0438E-04  0.0037
   5.7045E+00   5.8433E+00   1.0326E-04  0.0037
   5.8433E+00   5.9855E+00   1.0221E-04  0.0037
   5.9855E+00   6.1311E+00   1.0195E-04  0.0036
   6.1311E+00   6.2803E+00   1.0056E-04  0.0036
   6.2803E+00   6.4331E+00   9.9980E-05  0.0036
   6.4331E+00   6.5896E+00   9.9064E-05  0.0036
   6.5896E+00   6.7500E+00   9.7655E-05  0.0035
   6.7500E+00   6.9142E+00   9.6533E-05  0.0035
   6.9142E+00   7.0824E+00   9.5124E-05  0.0035
   7.0824E+00   7.2548E+00   9.4663E-05  0.0035
   7.2548E+00   7.4313E+00   9.3523E-05  0.0034
   7.4313E+00   7.6121E+00   9.3421E-05  0.0034
   7.6121E+00   7.7973E+00   9.1640E-05  0.0034
   7.7973E+00   7.9870E+00   9.0898E-05  0.0034
   7.9870E+00   8.1813E+00   9.0089E-05  0.0034
   8.1813E+00   8.3804E+00   8.9065E-05  0.0033
   8.3804E+00   8.5843E+00   8.7874E-05  0.0033
   8.5843E+00   8.7931E+00   8.6810E-05  0.0033
   8.7931E+00   9.0071E+00   8.4977E-05  0.0033
   9.0071E+00   9.2262E+00   8.2787E-05  0.0033
   9.2262E+00   9.4507E+00   8.1361E-05  0.0033
   9.4507E+00   9.6807E+00   7.9876E-05  0.0033
   9.6807E+00   9.9162E+00   7.9765E-05  0.0033
   9.9162E+00   1.0157E+01   8.1528E-05  0.0032
   1.0157E+01   1.0405E+01   8.0206E-05  0.0032
   1.0405E+01   1.0658E+01   7.8607E-05  0.0032
   1.0658E+01   1.0917E+01   7.7274E-05  0.0032
   1.0917E+01   1.1183E+01   7.5654E-05  0.0031
   1.1183E+01   1.1455E+01   7.4759E-05  0.0031
   1.1455E+01   1.1733E+01   7.3801E-05  0.0031
   1.1733E+01   1.2019E+01   7.2848E-05  0.0031
   1.2019E+01   1.2311E+01   7.2512E-05  0.0031
   1.2311E+01   1.2611E+01   7.1691E-05  0.0030
   1.2611E+01   1.2918E+01   7.0646E-05  0.0030
   1.2918E+01   1.3232E+01   6.9337E-05  0.0030
   1.3232E+01   1.3554E+01   6.8747E-05  0.0030
   1.3554E+01   1.3884E+01   6.7584E-05  0.0030
   1.3884E+01   1.4222E+01   6.6712E-05  0.0030
   1.4222E+01   1.4568E+01   6.6081E-05  0.0030
   1.4568E+01   1.4922E+01   6.5276E-05  0.0029
   1.4922E+01   1.5285E+01   6.4249E-05  0.0029
   1.5285E+01   1.5657E+01   6.3263E-05  0.0029
   1.5657E+01   1.6038E+01   6.1941E-05  0.0029
   1.6038E+01   1.6428E+01   6.1248E-05  0.0029
   1.6428E+01   1.6828E+01   6.0612E-05  0.0029
   1.6828E+01   1.7237E+01   5.9148E-05  0.0029
   1.7237E+01   1.7657E+01   5.8414E-05  0.0029
   1.7657E+01   1.8086E+01   5.7368E-05  0.0028
   1.8086E+01   1.8526E+01   5.6123E-05  0.0028
   1.8526E+01   1.8977E+01   5.5063E-05  0.0028
   1.8977E+01   1.9439E+01   5.3933E-05  0.0028
   1.9439E+01   1.9912E+01   5.3094E-05  0.0028
   1.9912E+01   2.0396E+01   5.2596E-05  0.0028
   2.0396E+01   2.0893E+01   5.1193E-05  0.0028
   2.0893E+01   2.1401E+01   4.9893E-05  0.0028
   2.1401E+01   2.1922E+01   4.8609E-05  0.0028
   2.1922E+01   2.2455E+01   4.7354E-05  0.0028
   2.2455E+01   2.3001E+01   4.5862E-05  0.0028
   2.3001E+01   2.3561E+01   4.4700E-05  0.0028
   2.3561E+01   2.4134E+01   4.3352E-05  0.0028
   2.4134E+01   2.4721E+01   4.1898E-05  0.0029
   2.4721E+01   2.5323E+01   4.0448E-05  0.0029
   2.5323E+01   2.5939E+01   3.9230E-05  0.0029
   2.5939E+01   2.6570E+01   3.7701E-05  0.0029
   2.6570E+01   2.7217E+01   3.6154E-05  0.0029
   2.7217E+01   2.7879E+01   3.5958E-05  0.0029
   2.7879E+01   2.8557E+01   3.7947E-05  0.0028
   2.8557E+01   2.9252E+01   3.6867E-05  0.0028
   2.9252E+01   2.9964E+01   3.5167E-05  0.0028
   2.9964E+01   3.0693E+01   3.3680E-05  0.0029
   3.0693E+01   3.1440E+01   3.1824E-05  0.0029
   3.1440E+01   3.2205E+01   2.9792E-05  0.0030
   3.2205E+01   3.2988E+01   2.8252E-05  0.0030
   3.2988E+01   3.3791E+01   2.6271E-05  0.0031
   3.3791E+01   3.4613E+01   2.4393E-05  0.0032
   3.4613E+01   3.5455E+01   2.2166E-05  0.0033
   3.5455E+01   3.6318E+01   1.9901E-05  0.0034
   3.6318E+01   3.7201E+01   1.7900E-05  0.0036
   3.7201E+01   3.8106E+01   1.5634E-05  0.0038
   3.8106E+01   3.9034E+01   1.3531E-05  0.0040
   3.9034E+01   3.9983E+01   1.1556E-05  0.0043
   3.9983E+01   4.0956E+01   9.8349E-06  0.0046
   4.0956E+01   4.1953E+01   8.4350E-06  0.0049
   4.1953E+01   4.2973E+01   7.3482E-06  0.0052
   4.2973E+01   4.4019E+01   6.6465E-06  0.0054
   4.4019E+01   4.5090E+01   6.3258E-06  0.0054
   4.5090E+01   4.6187E+01   5.8809E-06  0.0056
   4.6187E+01   4.7311E+01   1.8068E-06  0.0099
   4.7311E+01   4.8462E+01   5.2124E-10  0.5774
   4.8462E+01   4.9641E+01   0.0000E+00  0.0000
   4.9641E+01   5.0849E+01   1.6559E-10  1.0000
   5.0849E+01   5.2086E+01   0.0000E+00  0.0000
   5.2086E+01   5.3353E+01   0.0000E+00  0.0000
   5.3353E+01   5.4651E+01   0.0000E+00  0.0000
   5.4651E+01   5.5981E+01   0.0000E+00  0.0000
   5.5981E+01   5.7343E+01   0.0000E+00  0.0000
   5.7343E+01   5.8738E+01   0.0000E+00  0.0000
   5.8738E+01   6.0168E+01   0.0000E+00  0.0000
   6.0168E+01   6.1632E+01   0.0000E+00  0.0000
   6.1632E+01   6.3131E+01   0.0000E+00  0.0000
   6.3131E+01   6.4667E+01   0.0000E+00  0.0000
   6.4667E+01   6.6240E+01   0.0000E+00  0.0000
   6.6240E+01   6.7852E+01   0.0000E+00  0.0000
   6.7852E+01   6.9503E+01   0.0000E+00  0.0000
   6.9503E+01   7.1194E+01   0.0000E+00  0.0000
   7.1194E+01   7.2926E+01   0.0000E+00  0.0000
   7.2926E+01   7.4701E+01   0.0000E+00  0.0000
   7.4701E+01   7.6518E+01   0.0000E+00  0.0000
   7.6518E+01   7.8380E+01   0.0000E+00  0.0000
   7.8380E+01   8.0287E+01   0.0000E+00  0.0000
   8.0287E+01   8.2240E+01   0.0000E+00  0.0000
   8.2240E+01   8.4241E+01   0.0000E+00  0.0000
   8.4241E+01   8.6291E+01   0.0000E+00  0.0000
   8.6291E+01   8.8391E+01   0.0000E+00  0.0000
   8.8391E+01   9.0541E+01   0.0000E+00  0.0000
   9.0541E+01   9.2744E+01   0.0000E+00  0.0000
   9.2744E+01   9.5001E+01   0.0000E+00  0.0000
   9.5001E+01   9.7312E+01   0.0000E+00  0.0000
   9.7312E+01   9.9680E+01   0.0000E+00  0.0000
   9.9680E+01   1.0211E+02   0.0000E+00  0.0000
   1.0211E+02   1.0459E+02   0.0000E+00  0.0000
   1.0459E+02   1.0713E+02   0.0000E+00  0.0000
   1.0713E+02   1.0974E+02   0.0000E+00  0.0000
   1.0974E+02   1.1241E+02   0.0000E+00  0.0000
   1.1241E+02   1.1515E+02   0.0000E+00  0.0000
   1.1515E+02   1.1795E+02   0.0000E+00  0.0000
   1.1795E+02   1.2082E+02   0.0000E+00  0.0000
   1.2082E+02   1.2376E+02   0.0000E+00  0.0000
   1.2376E+02   1.2677E+02   0.0000E+00  0.0000
   1.2677E+02   1.2985E+02   0.0000E+00  0.0000
   1.2985E+02   1.3301E+02   0.0000E+00  0.0000
   1.3301E+02   1.3625E+02   0.0000E+00  0.0000
   1.3625E+02   1.3956E+02   0.0000E+00  0.0000
   1.3956E+02   1.4296E+02   0.0000E+00  0.0000
   1.4296E+02   1.4644E+02   0.0000E+00  0.0000
   1.4644E+02   1.5000E+02   0.0000E+00  0.0000

#   sum over                 1.6054E-05
'no. =    1   reg = 106 - 206'
msuc: {\huge [t-cross] in region mesh}
msdr: {\it plotted by \ANGEL \version}
msdl: {\it calculated by \PHITS  3.26}
wt: s(0.7)
\vspace{-3}
  region surface crossing
  area  &=&   1.0000E+00 [cm^2]
e:
 
# Information for Restart Calculation
# This calculation was newly started
# istdev =  2 # 1:Batch variance, 2:History variance
# resc2  = 5.00000000000000000E+09 # Total source weight or Total source weight / maxcas
# resc3  = 5.00000000000000000E+09 # Total history number or Total batch number
# maxcas =   100000000 # History / Batch, only used for istdev=1
# bitrseed = 0110100000100010111000001110001111001110100100011111101000111001 # bit data of rseed
