[ T-Cross ]
    title = [t-cross] in region mesh
     mesh =  reg            # mesh type is region-wise
      reg =    1            # number of crossing regions
      non     r-from    r-to       area
      1       125       225        1.000000    
   e-type =    3            # e-mesh is log given by emin, emax and ne
     emin =  1.0000000E-02  # minimum value of e-mesh points
     emax =   150.0000      # maximum value of e-mesh points
#    edel =  2.4039514E-02  # mesh width of e-mesh points
       ne =    400          # number of e-mesh points
#    data = ( e(i), i = 1, ne + 1 )
#           1.00000E-02  1.02433E-02  1.04925E-02  1.07478E-02  1.10093E-02
#           1.12772E-02  1.15516E-02  1.18326E-02  1.21205E-02  1.24154E-02
#           1.27175E-02  1.30269E-02  1.33439E-02  1.36686E-02  1.40011E-02
#           1.43418E-02  1.46907E-02  1.50482E-02  1.54143E-02  1.57894E-02
#           1.61735E-02  1.65670E-02  1.69701E-02  1.73830E-02  1.78060E-02
#           1.82392E-02  1.86830E-02  1.91375E-02  1.96032E-02  2.00801E-02
#           2.05687E-02  2.10692E-02  2.15818E-02  2.21069E-02  2.26448E-02
#           2.31957E-02  2.37601E-02  2.43382E-02  2.49304E-02  2.55369E-02
#           2.61583E-02  2.67947E-02  2.74467E-02  2.81145E-02  2.87985E-02
#           2.94992E-02  3.02169E-02  3.09521E-02  3.17052E-02  3.24766E-02
#           3.32668E-02  3.40762E-02  3.49053E-02  3.57546E-02  3.66246E-02
#           3.75157E-02  3.84284E-02  3.93634E-02  4.03212E-02  4.13022E-02
#           4.23071E-02  4.33365E-02  4.43909E-02  4.54710E-02  4.65773E-02
#           4.77106E-02  4.88714E-02  5.00605E-02  5.12785E-02  5.25262E-02
#           5.38042E-02  5.51133E-02  5.64542E-02  5.78278E-02  5.92348E-02
#           6.06760E-02  6.21523E-02  6.36645E-02  6.52135E-02  6.68002E-02
#           6.84255E-02  7.00904E-02  7.17957E-02  7.35426E-02  7.53319E-02
#           7.71648E-02  7.90423E-02  8.09655E-02  8.29354E-02  8.49533E-02
#           8.70203E-02  8.91376E-02  9.13064E-02  9.35279E-02  9.58035E-02
#           9.81345E-02  1.00522E-01  1.02968E-01  1.05473E-01  1.08040E-01
#           1.10668E-01  1.13361E-01  1.16119E-01  1.18944E-01  1.21838E-01
#           1.24803E-01  1.27839E-01  1.30950E-01  1.34136E-01  1.37399E-01
#           1.40742E-01  1.44167E-01  1.47675E-01  1.51268E-01  1.54948E-01
#           1.58718E-01  1.62580E-01  1.66535E-01  1.70587E-01  1.74738E-01
#           1.78989E-01  1.83344E-01  1.87805E-01  1.92375E-01  1.97055E-01
#           2.01850E-01  2.06761E-01  2.11792E-01  2.16945E-01  2.22223E-01
#           2.27630E-01  2.33169E-01  2.38842E-01  2.44653E-01  2.50605E-01
#           2.56703E-01  2.62949E-01  2.69346E-01  2.75900E-01  2.82613E-01
#           2.89489E-01  2.96532E-01  3.03747E-01  3.11138E-01  3.18708E-01
#           3.26462E-01  3.34405E-01  3.42542E-01  3.50876E-01  3.59413E-01
#           3.68158E-01  3.77116E-01  3.86291E-01  3.95690E-01  4.05317E-01
#           4.15179E-01  4.25281E-01  4.35628E-01  4.46227E-01  4.57084E-01
#           4.68205E-01  4.79597E-01  4.91266E-01  5.03219E-01  5.15463E-01
#           5.28005E-01  5.40851E-01  5.54011E-01  5.67490E-01  5.81298E-01
#           5.95441E-01  6.09929E-01  6.24769E-01  6.39970E-01  6.55541E-01
#           6.71491E-01  6.87828E-01  7.04564E-01  7.21706E-01  7.39266E-01
#           7.57253E-01  7.75678E-01  7.94551E-01  8.13883E-01  8.33685E-01
#           8.53969E-01  8.74747E-01  8.96030E-01  9.17831E-01  9.40163E-01
#           9.63038E-01  9.86469E-01  1.01047E+00  1.03506E+00  1.06024E+00
#           1.08604E+00  1.11246E+00  1.13953E+00  1.16725E+00  1.19565E+00
#           1.22474E+00  1.25454E+00  1.28507E+00  1.31633E+00  1.34836E+00
#           1.38117E+00  1.41477E+00  1.44920E+00  1.48446E+00  1.52057E+00
#           1.55757E+00  1.59547E+00  1.63429E+00  1.67405E+00  1.71478E+00
#           1.75650E+00  1.79924E+00  1.84302E+00  1.88786E+00  1.93379E+00
#           1.98084E+00  2.02904E+00  2.07841E+00  2.12898E+00  2.18078E+00
#           2.23384E+00  2.28819E+00  2.34386E+00  2.40089E+00  2.45930E+00
#           2.51914E+00  2.58043E+00  2.64322E+00  2.70753E+00  2.77341E+00
#           2.84088E+00  2.91001E+00  2.98081E+00  3.05333E+00  3.12762E+00
#           3.20372E+00  3.28167E+00  3.36152E+00  3.44330E+00  3.52708E+00
#           3.61290E+00  3.70080E+00  3.79085E+00  3.88308E+00  3.97756E+00
#           4.07434E+00  4.17347E+00  4.27501E+00  4.37903E+00  4.48557E+00
#           4.59471E+00  4.70650E+00  4.82102E+00  4.93832E+00  5.05847E+00
#           5.18155E+00  5.30762E+00  5.43676E+00  5.56904E+00  5.70453E+00
#           5.84333E+00  5.98550E+00  6.13114E+00  6.28031E+00  6.43312E+00
#           6.58964E+00  6.74997E+00  6.91420E+00  7.08243E+00  7.25475E+00
#           7.43126E+00  7.61207E+00  7.79728E+00  7.98700E+00  8.18133E+00
#           8.38038E+00  8.58428E+00  8.79315E+00  9.00709E+00  9.22624E+00
#           9.45072E+00  9.68067E+00  9.91620E+00  1.01575E+01  1.04046E+01
#           1.06578E+01  1.09171E+01  1.11827E+01  1.14548E+01  1.17335E+01
#           1.20190E+01  1.23114E+01  1.26109E+01  1.29178E+01  1.32321E+01
#           1.35540E+01  1.38838E+01  1.42216E+01  1.45676E+01  1.49221E+01
#           1.52851E+01  1.56570E+01  1.60380E+01  1.64282E+01  1.68279E+01
#           1.72374E+01  1.76568E+01  1.80864E+01  1.85264E+01  1.89772E+01
#           1.94389E+01  1.99119E+01  2.03963E+01  2.08926E+01  2.14009E+01
#           2.19216E+01  2.24550E+01  2.30014E+01  2.35610E+01  2.41343E+01
#           2.47215E+01  2.53230E+01  2.59391E+01  2.65702E+01  2.72167E+01
#           2.78789E+01  2.85572E+01  2.92520E+01  2.99637E+01  3.06928E+01
#           3.14396E+01  3.22045E+01  3.29881E+01  3.37907E+01  3.46128E+01
#           3.54550E+01  3.63177E+01  3.72013E+01  3.81064E+01  3.90336E+01
#           3.99833E+01  4.09561E+01  4.19526E+01  4.29734E+01  4.40189E+01
#           4.50900E+01  4.61870E+01  4.73108E+01  4.84619E+01  4.96410E+01
#           5.08488E+01  5.20860E+01  5.33533E+01  5.46514E+01  5.59812E+01
#           5.73432E+01  5.87384E+01  6.01676E+01  6.16315E+01  6.31311E+01
#           6.46671E+01  6.62405E+01  6.78522E+01  6.95031E+01  7.11941E+01
#           7.29263E+01  7.47007E+01  7.65182E+01  7.83800E+01  8.02870E+01
#           8.22405E+01  8.42414E+01  8.62911E+01  8.83906E+01  9.05412E+01
#           9.27442E+01  9.50007E+01  9.73122E+01  9.96799E+01  1.02105E+02
#           1.04589E+02  1.07134E+02  1.09741E+02  1.12411E+02  1.15146E+02
#           1.17948E+02  1.20817E+02  1.23757E+02  1.26768E+02  1.29852E+02
#           1.33012E+02  1.36248E+02  1.39563E+02  1.42959E+02  1.46437E+02
#           1.50000E+02
     unit =    2            # unit is [1/cm^2/(MeV/n)/source]
     axis =  eng            # axis of output
     file = detector-26.out  # file name of output for the above axis
   output = f-curr          # surface crossing forward current spectrum
     part =  neutron  
# kf/name :  2112     
#    used :        main (  %)        temp (  %)       total (  %)
#  memory :         414 (  0)           0 (  0)         414 (  0)

#------------------------------------------------------------------------------
#newpage:
#   no. =    1   reg = 125 - 225

x: Energy [MeV/n]
y:  F-Curr [1/cm^2/(MeV/n)/source]         
p: xlog ylog afac(0.8) form(0.9)
h: n            x            y(neutron ),hh0l   n 
#  e-lower      e-upper      neutron     r.err 
   1.0000E-02   1.0243E-02   7.8020E-04  0.0340
   1.0243E-02   1.0493E-02   7.8890E-04  0.0335
   1.0493E-02   1.0748E-02   8.0015E-04  0.0329
   1.0748E-02   1.1009E-02   7.3265E-04  0.0339
   1.1009E-02   1.1277E-02   7.5254E-04  0.0330
   1.1277E-02   1.1552E-02   6.7695E-04  0.0344
   1.1552E-02   1.1833E-02   6.7168E-04  0.0342
   1.1833E-02   1.2121E-02   6.3528E-04  0.0347
   1.2121E-02   1.2415E-02   6.6514E-04  0.0335
   1.2415E-02   1.2718E-02   6.1850E-04  0.0344
   1.2718E-02   1.3027E-02   6.1232E-04  0.0341
   1.3027E-02   1.3344E-02   6.1511E-04  0.0336
   1.3344E-02   1.3669E-02   5.9153E-04  0.0339
   1.3669E-02   1.4001E-02   5.6442E-04  0.0343
   1.4001E-02   1.4342E-02   5.4440E-04  0.0344
   1.4342E-02   1.4691E-02   5.4232E-04  0.0341
   1.4691E-02   1.5048E-02   5.4307E-04  0.0336
   1.5048E-02   1.5414E-02   5.4863E-04  0.0331
   1.5414E-02   1.5789E-02   5.2989E-04  0.0333
   1.5789E-02   1.6174E-02   5.1088E-04  0.0335
   1.6174E-02   1.6567E-02   5.2873E-04  0.0325
   1.6567E-02   1.6970E-02   5.1400E-04  0.0326
   1.6970E-02   1.7383E-02   4.6786E-04  0.0337
   1.7383E-02   1.7806E-02   4.7571E-04  0.0331
   1.7806E-02   1.8239E-02   4.8074E-04  0.0325
   1.8239E-02   1.8683E-02   4.3573E-04  0.0338
   1.8683E-02   1.9138E-02   4.2230E-04  0.0339
   1.9138E-02   1.9603E-02   4.2464E-04  0.0334
   1.9603E-02   2.0080E-02   4.1472E-04  0.0334
   2.0080E-02   2.0569E-02   4.1842E-04  0.0328
   2.0569E-02   2.1069E-02   4.2755E-04  0.0321
   2.1069E-02   2.1582E-02   4.0742E-04  0.0324
   2.1582E-02   2.2107E-02   3.7804E-04  0.0333
   2.2107E-02   2.2645E-02   3.8242E-04  0.0328
   2.2645E-02   2.3196E-02   3.7024E-04  0.0329
   2.3196E-02   2.3760E-02   3.5995E-04  0.0330
   2.3760E-02   2.4338E-02   3.5030E-04  0.0330
   2.4338E-02   2.4930E-02   3.3017E-04  0.0335
   2.4930E-02   2.5537E-02   3.5574E-04  0.0319
   2.5537E-02   2.6158E-02   3.5130E-04  0.0318
   2.6158E-02   2.6795E-02   3.2804E-04  0.0325
   2.6795E-02   2.7447E-02   3.1982E-04  0.0325
   2.7447E-02   2.8114E-02   3.1646E-04  0.0323
   2.8114E-02   2.8799E-02   3.0322E-04  0.0326
   2.8799E-02   2.9499E-02   3.1562E-04  0.0316
   2.9499E-02   3.0217E-02   3.0429E-04  0.0318
   3.0217E-02   3.0952E-02   2.8611E-04  0.0324
   3.0952E-02   3.1705E-02   2.8241E-04  0.0322
   3.1705E-02   3.2477E-02   2.6876E-04  0.0326
   3.2477E-02   3.3267E-02   2.7086E-04  0.0321
   3.3267E-02   3.4076E-02   2.5248E-04  0.0328
   3.4076E-02   3.4905E-02   2.6796E-04  0.0315
   3.4905E-02   3.5755E-02   2.6070E-04  0.0315
   3.5755E-02   3.6625E-02   2.4307E-04  0.0323
   3.6625E-02   3.7516E-02   2.4406E-04  0.0318
   3.7516E-02   3.8428E-02   2.3847E-04  0.0318
   3.8428E-02   3.9363E-02   2.2488E-04  0.0324
   3.9363E-02   4.0321E-02   2.0643E-04  0.0333
   4.0321E-02   4.1302E-02   2.1959E-04  0.0320
   4.1302E-02   4.2307E-02   2.0583E-04  0.0326
   4.2307E-02   4.3337E-02   2.1479E-04  0.0316
   4.3337E-02   4.4391E-02   2.2326E-04  0.0306
   4.4391E-02   4.5471E-02   2.0964E-04  0.0312
   4.5471E-02   4.6577E-02   2.1084E-04  0.0307
   4.6577E-02   4.7711E-02   1.9667E-04  0.0314
   4.7711E-02   4.8871E-02   1.9380E-04  0.0313
   4.8871E-02   5.0061E-02   1.8651E-04  0.0315
   5.0061E-02   5.1279E-02   1.8762E-04  0.0310
   5.1279E-02   5.2526E-02   1.7354E-04  0.0319
   5.2526E-02   5.3804E-02   1.6816E-04  0.0320
   5.3804E-02   5.5113E-02   1.7518E-04  0.0310
   5.5113E-02   5.6454E-02   1.7771E-04  0.0304
   5.6454E-02   5.7828E-02   1.5941E-04  0.0317
   5.7828E-02   5.9235E-02   1.5367E-04  0.0319
   5.9235E-02   6.0676E-02   1.6168E-04  0.0308
   6.0676E-02   6.2152E-02   1.5632E-04  0.0309
   6.2152E-02   6.3665E-02   1.4904E-04  0.0312
   6.3665E-02   6.5214E-02   1.4845E-04  0.0309
   6.5214E-02   6.6800E-02   1.5053E-04  0.0304
   6.6800E-02   6.8426E-02   1.3757E-04  0.0314
   6.8426E-02   7.0090E-02   1.4390E-04  0.0303
   7.0090E-02   7.1796E-02   1.3213E-04  0.0313
   7.1796E-02   7.3543E-02   1.2835E-04  0.0314
   7.3543E-02   7.5332E-02   1.3154E-04  0.0306
   7.5332E-02   7.7165E-02   1.2971E-04  0.0304
   7.7165E-02   7.9042E-02   1.1990E-04  0.0313
   7.9042E-02   8.0965E-02   1.2389E-04  0.0304
   8.0965E-02   8.2935E-02   1.1716E-04  0.0309
   8.2935E-02   8.4953E-02   1.1427E-04  0.0309
   8.4953E-02   8.7020E-02   1.1000E-04  0.0311
   8.7020E-02   8.9138E-02   1.1512E-04  0.0300
   8.9138E-02   9.1306E-02   1.0894E-04  0.0305
   9.1306E-02   9.3528E-02   1.0287E-04  0.0310
   9.3528E-02   9.5804E-02   9.9419E-05  0.0312
   9.5804E-02   9.8134E-02   1.0019E-04  0.0307
   9.8134E-02   1.0052E-01   9.4136E-05  0.0313
   1.0052E-01   1.0297E-01   9.5084E-05  0.0308
   1.0297E-01   1.0547E-01   9.2975E-05  0.0307
   1.0547E-01   1.0804E-01   8.3504E-05  0.0320
   1.0804E-01   1.1067E-01   9.3295E-05  0.0300
   1.1067E-01   1.1336E-01   9.0312E-05  0.0301
   1.1336E-01   1.1612E-01   8.8527E-05  0.0300
   1.1612E-01   1.1894E-01   8.5724E-05  0.0302
   1.1894E-01   1.2184E-01   8.2570E-05  0.0304
   1.2184E-01   1.2480E-01   8.0723E-05  0.0303
   1.2480E-01   1.2784E-01   7.9036E-05  0.0303
   1.2784E-01   1.3095E-01   7.7444E-05  0.0303
   1.3095E-01   1.3414E-01   7.2158E-05  0.0310
   1.3414E-01   1.3740E-01   7.2666E-05  0.0305
   1.3740E-01   1.4074E-01   6.6981E-05  0.0314
   1.4074E-01   1.4417E-01   6.7809E-05  0.0308
   1.4417E-01   1.4767E-01   6.9569E-05  0.0301
   1.4767E-01   1.5127E-01   6.7222E-05  0.0302
   1.5127E-01   1.5495E-01   6.6585E-05  0.0300
   1.5495E-01   1.5872E-01   6.4354E-05  0.0302
   1.5872E-01   1.6258E-01   5.8855E-05  0.0311
   1.6258E-01   1.6654E-01   5.8197E-05  0.0309
   1.6654E-01   1.7059E-01   6.2048E-05  0.0296
   1.7059E-01   1.7474E-01   5.6174E-05  0.0307
   1.7474E-01   1.7899E-01   5.3579E-05  0.0311
   1.7899E-01   1.8334E-01   5.6383E-05  0.0299
   1.8334E-01   1.8781E-01   5.2814E-05  0.0306
   1.8781E-01   1.9237E-01   5.1831E-05  0.0305
   1.9237E-01   1.9706E-01   5.2279E-05  0.0300
   1.9706E-01   2.0185E-01   5.1445E-05  0.0299
   2.0185E-01   2.0676E-01   4.9950E-05  0.0299
   2.0676E-01   2.1179E-01   5.6538E-05  0.0278
   2.1179E-01   2.1694E-01   5.5312E-05  0.0278
   2.1694E-01   2.2222E-01   5.8855E-05  0.0266
   2.2222E-01   2.2763E-01   6.1467E-05  0.0257
   2.2763E-01   2.3317E-01   6.3086E-05  0.0251
   2.3317E-01   2.3884E-01   6.1572E-05  0.0251
   2.3884E-01   2.4465E-01   6.8935E-05  0.0234
   2.4465E-01   2.5061E-01   7.0735E-05  0.0229
   2.5061E-01   2.5670E-01   7.1262E-05  0.0225
   2.5670E-01   2.6295E-01   7.3723E-05  0.0218
   2.6295E-01   2.6935E-01   7.7840E-05  0.0210
   2.6935E-01   2.7590E-01   7.9245E-05  0.0206
   2.7590E-01   2.8261E-01   8.2134E-05  0.0200
   2.8261E-01   2.8949E-01   8.1472E-05  0.0198
   2.8949E-01   2.9653E-01   8.7419E-05  0.0189
   2.9653E-01   3.0375E-01   8.9652E-05  0.0184
   3.0375E-01   3.1114E-01   8.9074E-05  0.0183
   3.1114E-01   3.1871E-01   9.2042E-05  0.0178
   3.1871E-01   3.2646E-01   9.7648E-05  0.0170
   3.2646E-01   3.3441E-01   9.8858E-05  0.0167
   3.3441E-01   3.4254E-01   1.0029E-04  0.0164
   3.4254E-01   3.5088E-01   1.0697E-04  0.0157
   3.5088E-01   3.5941E-01   1.1052E-04  0.0153
   3.5941E-01   3.6816E-01   1.1224E-04  0.0150
   3.6816E-01   3.7712E-01   1.1119E-04  0.0148
   3.7712E-01   3.8629E-01   1.1734E-04  0.0143
   3.8629E-01   3.9569E-01   1.2036E-04  0.0139
   3.9569E-01   4.0532E-01   1.1857E-04  0.0139
   4.0532E-01   4.1518E-01   1.2319E-04  0.0134
   4.1518E-01   4.2528E-01   1.2619E-04  0.0131
   4.2528E-01   4.3563E-01   1.3229E-04  0.0127
   4.3563E-01   4.4623E-01   1.3223E-04  0.0125
   4.4623E-01   4.5708E-01   1.3600E-04  0.0122
   4.5708E-01   4.6821E-01   1.3652E-04  0.0120
   4.6821E-01   4.7960E-01   1.4305E-04  0.0116
   4.7960E-01   4.9127E-01   1.4377E-04  0.0114
   4.9127E-01   5.0322E-01   1.4734E-04  0.0112
   5.0322E-01   5.1546E-01   1.4949E-04  0.0109
   5.1546E-01   5.2800E-01   1.5098E-04  0.0108
   5.2800E-01   5.4085E-01   1.5260E-04  0.0106
   5.4085E-01   5.5401E-01   1.5758E-04  0.0103
   5.5401E-01   5.6749E-01   1.5749E-04  0.0102
   5.6749E-01   5.8130E-01   1.6002E-04  0.0100
   5.8130E-01   5.9544E-01   1.6017E-04  0.0098
   5.9544E-01   6.0993E-01   1.6174E-04  0.0097
   6.0993E-01   6.2477E-01   1.6396E-04  0.0095
   6.2477E-01   6.3997E-01   1.6380E-04  0.0094
   6.3997E-01   6.5554E-01   1.6308E-04  0.0093
   6.5554E-01   6.7149E-01   1.6648E-04  0.0091
   6.7149E-01   6.8783E-01   1.6540E-04  0.0090
   6.8783E-01   7.0456E-01   1.6914E-04  0.0088
   7.0456E-01   7.2171E-01   1.7068E-04  0.0086
   7.2171E-01   7.3927E-01   1.6933E-04  0.0086
   7.3927E-01   7.5725E-01   1.6910E-04  0.0085
   7.5725E-01   7.7568E-01   1.6921E-04  0.0084
   7.7568E-01   7.9455E-01   1.6902E-04  0.0083
   7.9455E-01   8.1388E-01   1.6711E-04  0.0082
   8.1388E-01   8.3368E-01   1.6870E-04  0.0081
   8.3368E-01   8.5397E-01   1.6658E-04  0.0080
   8.5397E-01   8.7475E-01   1.6551E-04  0.0080
   8.7475E-01   8.9603E-01   1.6507E-04  0.0079
   8.9603E-01   9.1783E-01   1.6446E-04  0.0078
   9.1783E-01   9.4016E-01   1.6377E-04  0.0077
   9.4016E-01   9.6304E-01   1.6422E-04  0.0076
   9.6304E-01   9.8647E-01   1.6104E-04  0.0076
   9.8647E-01   1.0105E+00   1.5782E-04  0.0076
   1.0105E+00   1.0351E+00   1.5504E-04  0.0076
   1.0351E+00   1.0602E+00   1.5209E-04  0.0075
   1.0602E+00   1.0860E+00   1.4957E-04  0.0075
   1.0860E+00   1.1125E+00   1.4589E-04  0.0075
   1.1125E+00   1.1395E+00   1.4307E-04  0.0075
   1.1395E+00   1.1673E+00   1.4172E-04  0.0074
   1.1673E+00   1.1957E+00   1.4231E-04  0.0073
   1.1957E+00   1.2247E+00   1.3919E-04  0.0073
   1.2247E+00   1.2545E+00   1.3479E-04  0.0074
   1.2545E+00   1.2851E+00   1.2925E-04  0.0074
   1.2851E+00   1.3163E+00   1.2697E-04  0.0074
   1.3163E+00   1.3484E+00   1.2355E-04  0.0074
   1.3484E+00   1.3812E+00   1.2115E-04  0.0074
   1.3812E+00   1.4148E+00   1.2021E-04  0.0073
   1.4148E+00   1.4492E+00   1.1599E-04  0.0074
   1.4492E+00   1.4845E+00   1.1551E-04  0.0073
   1.4845E+00   1.5206E+00   1.1511E-04  0.0072
   1.5206E+00   1.5576E+00   1.1065E-04  0.0073
   1.5576E+00   1.5955E+00   1.0561E-04  0.0074
   1.5955E+00   1.6343E+00   1.0190E-04  0.0074
   1.6343E+00   1.6741E+00   9.8894E-05  0.0074
   1.6741E+00   1.7148E+00   9.6526E-05  0.0074
   1.7148E+00   1.7565E+00   9.3247E-05  0.0075
   1.7565E+00   1.7992E+00   9.0828E-05  0.0075
   1.7992E+00   1.8430E+00   8.9153E-05  0.0075
   1.8430E+00   1.8879E+00   8.4990E-05  0.0075
   1.8879E+00   1.9338E+00   8.3787E-05  0.0075
   1.9338E+00   1.9808E+00   8.1593E-05  0.0075
   1.9808E+00   2.0290E+00   7.8737E-05  0.0075
   2.0290E+00   2.0784E+00   7.6308E-05  0.0076
   2.0784E+00   2.1290E+00   7.4438E-05  0.0076
   2.1290E+00   2.1808E+00   7.1802E-05  0.0076
   2.1808E+00   2.2338E+00   7.0011E-05  0.0076
   2.2338E+00   2.2882E+00   6.6491E-05  0.0077
   2.2882E+00   2.3439E+00   6.4516E-05  0.0078
   2.3439E+00   2.4009E+00   6.3030E-05  0.0077
   2.4009E+00   2.4593E+00   6.2487E-05  0.0077
   2.4593E+00   2.5191E+00   6.1031E-05  0.0077
   2.5191E+00   2.5804E+00   5.8992E-05  0.0077
   2.5804E+00   2.6432E+00   5.6922E-05  0.0078
   2.6432E+00   2.7075E+00   5.5199E-05  0.0078
   2.7075E+00   2.7734E+00   5.3656E-05  0.0078
   2.7734E+00   2.8409E+00   5.2064E-05  0.0078
   2.8409E+00   2.9100E+00   5.0905E-05  0.0078
   2.9100E+00   2.9808E+00   4.9870E-05  0.0078
   2.9808E+00   3.0533E+00   4.9094E-05  0.0078
   3.0533E+00   3.1276E+00   4.7529E-05  0.0078
   3.1276E+00   3.2037E+00   4.6604E-05  0.0078
   3.2037E+00   3.2817E+00   4.4928E-05  0.0079
   3.2817E+00   3.3615E+00   4.3863E-05  0.0079
   3.3615E+00   3.4433E+00   4.2794E-05  0.0079
   3.4433E+00   3.5271E+00   4.2358E-05  0.0078
   3.5271E+00   3.6129E+00   4.1356E-05  0.0078
   3.6129E+00   3.7008E+00   4.0747E-05  0.0078
   3.7008E+00   3.7908E+00   3.9841E-05  0.0078
   3.7908E+00   3.8831E+00   3.8714E-05  0.0078
   3.8831E+00   3.9776E+00   3.8379E-05  0.0077
   3.9776E+00   4.0743E+00   3.8394E-05  0.0076
   4.0743E+00   4.1735E+00   3.7330E-05  0.0077
   4.1735E+00   4.2750E+00   3.7246E-05  0.0076
   4.2750E+00   4.3790E+00   3.6073E-05  0.0076
   4.3790E+00   4.4856E+00   3.5667E-05  0.0076
   4.4856E+00   4.5947E+00   3.5209E-05  0.0075
   4.5947E+00   4.7065E+00   3.4815E-05  0.0075
   4.7065E+00   4.8210E+00   3.4059E-05  0.0075
   4.8210E+00   4.9383E+00   3.3031E-05  0.0075
   4.9383E+00   5.0585E+00   3.1651E-05  0.0076
   5.0585E+00   5.1815E+00   3.0873E-05  0.0076
   5.1815E+00   5.3076E+00   2.9285E-05  0.0077
   5.3076E+00   5.4368E+00   2.8577E-05  0.0077
   5.4368E+00   5.5690E+00   2.7608E-05  0.0077
   5.5690E+00   5.7045E+00   2.6010E-05  0.0079
   5.7045E+00   5.8433E+00   2.5178E-05  0.0079
   5.8433E+00   5.9855E+00   2.4119E-05  0.0080
   5.9855E+00   6.1311E+00   2.2884E-05  0.0081
   6.1311E+00   6.2803E+00   2.1781E-05  0.0082
   6.2803E+00   6.4331E+00   2.1083E-05  0.0083
   6.4331E+00   6.5896E+00   1.9973E-05  0.0084
   6.5896E+00   6.7500E+00   1.8880E-05  0.0085
   6.7500E+00   6.9142E+00   1.8215E-05  0.0086
   6.9142E+00   7.0824E+00   1.7045E-05  0.0088
   7.0824E+00   7.2548E+00   1.6124E-05  0.0089
   7.2548E+00   7.4313E+00   1.5497E-05  0.0090
   7.4313E+00   7.6121E+00   1.4748E-05  0.0091
   7.6121E+00   7.7973E+00   1.4034E-05  0.0092
   7.7973E+00   7.9870E+00   1.3107E-05  0.0094
   7.9870E+00   8.1813E+00   1.2726E-05  0.0095
   8.1813E+00   8.3804E+00   1.1930E-05  0.0096
   8.3804E+00   8.5843E+00   1.1193E-05  0.0098
   8.5843E+00   8.7931E+00   1.0289E-05  0.0101
   8.7931E+00   9.0071E+00   1.0065E-05  0.0101
   9.0071E+00   9.2262E+00   9.4030E-06  0.0104
   9.2262E+00   9.4507E+00   8.8121E-06  0.0106
   9.4507E+00   9.6807E+00   8.1738E-06  0.0109
   9.6807E+00   9.9162E+00   7.6553E-06  0.0111
   9.9162E+00   1.0157E+01   7.0992E-06  0.0114
   1.0157E+01   1.0405E+01   6.6282E-06  0.0116
   1.0405E+01   1.0658E+01   6.2061E-06  0.0119
   1.0658E+01   1.0917E+01   5.7072E-06  0.0122
   1.0917E+01   1.1183E+01   5.4530E-06  0.0124
   1.1183E+01   1.1455E+01   4.9711E-06  0.0128
   1.1455E+01   1.1733E+01   4.5679E-06  0.0132
   1.1733E+01   1.2019E+01   4.1287E-06  0.0137
   1.2019E+01   1.2311E+01   3.9785E-06  0.0138
   1.2311E+01   1.2611E+01   3.6803E-06  0.0142
   1.2611E+01   1.2918E+01   3.3181E-06  0.0148
   1.2918E+01   1.3232E+01   2.9547E-06  0.0155
   1.3232E+01   1.3554E+01   2.8422E-06  0.0156
   1.3554E+01   1.3884E+01   2.5074E-06  0.0164
   1.3884E+01   1.4222E+01   2.3496E-06  0.0167
   1.4222E+01   1.4568E+01   2.0698E-06  0.0176
   1.4568E+01   1.4922E+01   1.9244E-06  0.0180
   1.4922E+01   1.5285E+01   1.6890E-06  0.0190
   1.5285E+01   1.5657E+01   1.5251E-06  0.0198
   1.5657E+01   1.6038E+01   1.4192E-06  0.0203
   1.6038E+01   1.6428E+01   1.2023E-06  0.0218
   1.6428E+01   1.6828E+01   1.0631E-06  0.0229
   1.6828E+01   1.7237E+01   9.8401E-07  0.0235
   1.7237E+01   1.7657E+01   8.9652E-07  0.0243
   1.7657E+01   1.8086E+01   7.7901E-07  0.0258
   1.8086E+01   1.8526E+01   6.8426E-07  0.0272
   1.8526E+01   1.8977E+01   6.0589E-07  0.0285
   1.8977E+01   1.9439E+01   5.3904E-07  0.0299
   1.9439E+01   1.9912E+01   5.0838E-07  0.0304
   1.9912E+01   2.0396E+01   4.1787E-07  0.0331
   2.0396E+01   2.0893E+01   3.5779E-07  0.0354
   2.0893E+01   2.1401E+01   2.8940E-07  0.0389
   2.1401E+01   2.1922E+01   2.4113E-07  0.0421
   2.1922E+01   2.2455E+01   2.1832E-07  0.0437
   2.2455E+01   2.3001E+01   1.6839E-07  0.0491
   2.3001E+01   2.3561E+01   1.5645E-07  0.0504
   2.3561E+01   2.4134E+01   1.2947E-07  0.0547
   2.4134E+01   2.4721E+01   9.8773E-08  0.0619
   2.4721E+01   2.5323E+01   9.1624E-08  0.0635
   2.5323E+01   2.5939E+01   6.2758E-08  0.0758
   2.5939E+01   2.6570E+01   5.7394E-08  0.0783
   2.6570E+01   2.7217E+01   4.4687E-08  0.0877
   2.7217E+01   2.7879E+01   3.7249E-08  0.0949
   2.7879E+01   2.8557E+01   2.5226E-08  0.1140
   2.8557E+01   2.9252E+01   2.3347E-08  0.1170
   2.9252E+01   2.9964E+01   1.5299E-08  0.1429
   2.9964E+01   3.0693E+01   1.4631E-08  0.1443
   3.0693E+01   3.1440E+01   9.8199E-09  0.1741
   3.1440E+01   3.2205E+01   4.9386E-09  0.2425
   3.2205E+01   3.2988E+01   6.2393E-09  0.2132
   3.2988E+01   3.3791E+01   4.7068E-09  0.2425
   3.3791E+01   3.4613E+01   3.2435E-09  0.2887
   3.4613E+01   3.5455E+01   1.0555E-09  0.5000
   3.5455E+01   3.6318E+01   1.8032E-09  0.3780
   3.6318E+01   3.7201E+01   5.0297E-10  0.7071
   3.7201E+01   3.8106E+01   2.4551E-10  1.0000
   3.8106E+01   3.9034E+01   7.1904E-10  0.5774
   3.9034E+01   3.9983E+01   2.3399E-10  1.0000
   3.9983E+01   4.0956E+01   4.5686E-10  0.7071
   4.0956E+01   4.1953E+01   2.2300E-10  1.0000
   4.1953E+01   4.2973E+01   0.0000E+00  0.0000
   4.2973E+01   4.4019E+01   0.0000E+00  0.0000
   4.4019E+01   4.5090E+01   0.0000E+00  0.0000
   4.5090E+01   4.6187E+01   0.0000E+00  0.0000
   4.6187E+01   4.7311E+01   0.0000E+00  0.0000
   4.7311E+01   4.8462E+01   0.0000E+00  0.0000
   4.8462E+01   4.9641E+01   0.0000E+00  0.0000
   4.9641E+01   5.0849E+01   0.0000E+00  0.0000
   5.0849E+01   5.2086E+01   0.0000E+00  0.0000
   5.2086E+01   5.3353E+01   0.0000E+00  0.0000
   5.3353E+01   5.4651E+01   0.0000E+00  0.0000
   5.4651E+01   5.5981E+01   0.0000E+00  0.0000
   5.5981E+01   5.7343E+01   0.0000E+00  0.0000
   5.7343E+01   5.8738E+01   0.0000E+00  0.0000
   5.8738E+01   6.0168E+01   0.0000E+00  0.0000
   6.0168E+01   6.1632E+01   0.0000E+00  0.0000
   6.1632E+01   6.3131E+01   0.0000E+00  0.0000
   6.3131E+01   6.4667E+01   0.0000E+00  0.0000
   6.4667E+01   6.6240E+01   0.0000E+00  0.0000
   6.6240E+01   6.7852E+01   0.0000E+00  0.0000
   6.7852E+01   6.9503E+01   0.0000E+00  0.0000
   6.9503E+01   7.1194E+01   0.0000E+00  0.0000
   7.1194E+01   7.2926E+01   0.0000E+00  0.0000
   7.2926E+01   7.4701E+01   0.0000E+00  0.0000
   7.4701E+01   7.6518E+01   0.0000E+00  0.0000
   7.6518E+01   7.8380E+01   0.0000E+00  0.0000
   7.8380E+01   8.0287E+01   0.0000E+00  0.0000
   8.0287E+01   8.2240E+01   0.0000E+00  0.0000
   8.2240E+01   8.4241E+01   0.0000E+00  0.0000
   8.4241E+01   8.6291E+01   0.0000E+00  0.0000
   8.6291E+01   8.8391E+01   0.0000E+00  0.0000
   8.8391E+01   9.0541E+01   0.0000E+00  0.0000
   9.0541E+01   9.2744E+01   0.0000E+00  0.0000
   9.2744E+01   9.5001E+01   0.0000E+00  0.0000
   9.5001E+01   9.7312E+01   0.0000E+00  0.0000
   9.7312E+01   9.9680E+01   0.0000E+00  0.0000
   9.9680E+01   1.0211E+02   0.0000E+00  0.0000
   1.0211E+02   1.0459E+02   0.0000E+00  0.0000
   1.0459E+02   1.0713E+02   0.0000E+00  0.0000
   1.0713E+02   1.0974E+02   0.0000E+00  0.0000
   1.0974E+02   1.1241E+02   0.0000E+00  0.0000
   1.1241E+02   1.1515E+02   0.0000E+00  0.0000
   1.1515E+02   1.1795E+02   0.0000E+00  0.0000
   1.1795E+02   1.2082E+02   0.0000E+00  0.0000
   1.2082E+02   1.2376E+02   0.0000E+00  0.0000
   1.2376E+02   1.2677E+02   0.0000E+00  0.0000
   1.2677E+02   1.2985E+02   0.0000E+00  0.0000
   1.2985E+02   1.3301E+02   0.0000E+00  0.0000
   1.3301E+02   1.3625E+02   0.0000E+00  0.0000
   1.3625E+02   1.3956E+02   0.0000E+00  0.0000
   1.3956E+02   1.4296E+02   0.0000E+00  0.0000
   1.4296E+02   1.4644E+02   0.0000E+00  0.0000
   1.4644E+02   1.5000E+02   0.0000E+00  0.0000

#   sum over                 3.3343E-06
'no. =    1   reg = 125 - 225'
msuc: {\huge [t-cross] in region mesh}
msdr: {\it plotted by \ANGEL \version}
msdl: {\it calculated by \PHITS  3.28}
wt: s(0.7)
\vspace{-3}
  region surface crossing
  area  &=&   1.0000E+00 [cm^2]
e:
 
# Information for Restart Calculation
# This calculation was newly started
# istdev =  2 # 1:Batch variance, 2:History variance
# resc2  = 4.50000000000000000E+09 # Total source weight or Total source weight / maxcas
# resc3  = 4.50000000000000000E+09 # Total history number or Total batch number
# maxcas =   500000000 # History / Batch, only used for istdev=1
# bitrseed = 0100111111101111000100100111100101111100111000110000100001000100 # bit data of rseed
