6 <--- number of remaining batches 

-------------------------------------------------------------------------------
bat[       4] ncas =     2000000000.
 bitrseed = 0000010101110101110110100110011001100101000001100111100100101101
          cpu time = -21.266 s.

 date = 2022-05-30
 time = 20h 49m 53s

