[ T-Cross ]
    title = [t-cross] in region mesh
     mesh =  reg            # mesh type is region-wise
      reg =    1            # number of crossing regions
      non     r-from    r-to       area
      1       106       206        1.000000    
   e-type =    3            # e-mesh is log given by emin, emax and ne
     emin =  1.0000000E-02  # minimum value of e-mesh points
     emax =   150.0000      # maximum value of e-mesh points
#    edel =  2.4039514E-02  # mesh width of e-mesh points
       ne =    400          # number of e-mesh points
#    data = ( e(i), i = 1, ne + 1 )
#           1.00000E-02  1.02433E-02  1.04925E-02  1.07478E-02  1.10093E-02
#           1.12772E-02  1.15516E-02  1.18326E-02  1.21205E-02  1.24154E-02
#           1.27175E-02  1.30269E-02  1.33439E-02  1.36686E-02  1.40011E-02
#           1.43418E-02  1.46907E-02  1.50482E-02  1.54143E-02  1.57894E-02
#           1.61735E-02  1.65670E-02  1.69701E-02  1.73830E-02  1.78060E-02
#           1.82392E-02  1.86830E-02  1.91375E-02  1.96032E-02  2.00801E-02
#           2.05687E-02  2.10692E-02  2.15818E-02  2.21069E-02  2.26448E-02
#           2.31957E-02  2.37601E-02  2.43382E-02  2.49304E-02  2.55369E-02
#           2.61583E-02  2.67947E-02  2.74467E-02  2.81145E-02  2.87985E-02
#           2.94992E-02  3.02169E-02  3.09521E-02  3.17052E-02  3.24766E-02
#           3.32668E-02  3.40762E-02  3.49053E-02  3.57546E-02  3.66246E-02
#           3.75157E-02  3.84284E-02  3.93634E-02  4.03212E-02  4.13022E-02
#           4.23071E-02  4.33365E-02  4.43909E-02  4.54710E-02  4.65773E-02
#           4.77106E-02  4.88714E-02  5.00605E-02  5.12785E-02  5.25262E-02
#           5.38042E-02  5.51133E-02  5.64542E-02  5.78278E-02  5.92348E-02
#           6.06760E-02  6.21523E-02  6.36645E-02  6.52135E-02  6.68002E-02
#           6.84255E-02  7.00904E-02  7.17957E-02  7.35426E-02  7.53319E-02
#           7.71648E-02  7.90423E-02  8.09655E-02  8.29354E-02  8.49533E-02
#           8.70203E-02  8.91376E-02  9.13064E-02  9.35279E-02  9.58035E-02
#           9.81345E-02  1.00522E-01  1.02968E-01  1.05473E-01  1.08040E-01
#           1.10668E-01  1.13361E-01  1.16119E-01  1.18944E-01  1.21838E-01
#           1.24803E-01  1.27839E-01  1.30950E-01  1.34136E-01  1.37399E-01
#           1.40742E-01  1.44167E-01  1.47675E-01  1.51268E-01  1.54948E-01
#           1.58718E-01  1.62580E-01  1.66535E-01  1.70587E-01  1.74738E-01
#           1.78989E-01  1.83344E-01  1.87805E-01  1.92375E-01  1.97055E-01
#           2.01850E-01  2.06761E-01  2.11792E-01  2.16945E-01  2.22223E-01
#           2.27630E-01  2.33169E-01  2.38842E-01  2.44653E-01  2.50605E-01
#           2.56703E-01  2.62949E-01  2.69346E-01  2.75900E-01  2.82613E-01
#           2.89489E-01  2.96532E-01  3.03747E-01  3.11138E-01  3.18708E-01
#           3.26462E-01  3.34405E-01  3.42542E-01  3.50876E-01  3.59413E-01
#           3.68158E-01  3.77116E-01  3.86291E-01  3.95690E-01  4.05317E-01
#           4.15179E-01  4.25281E-01  4.35628E-01  4.46227E-01  4.57084E-01
#           4.68205E-01  4.79597E-01  4.91266E-01  5.03219E-01  5.15463E-01
#           5.28005E-01  5.40851E-01  5.54011E-01  5.67490E-01  5.81298E-01
#           5.95441E-01  6.09929E-01  6.24769E-01  6.39970E-01  6.55541E-01
#           6.71491E-01  6.87828E-01  7.04564E-01  7.21706E-01  7.39266E-01
#           7.57253E-01  7.75678E-01  7.94551E-01  8.13883E-01  8.33685E-01
#           8.53969E-01  8.74747E-01  8.96030E-01  9.17831E-01  9.40163E-01
#           9.63038E-01  9.86469E-01  1.01047E+00  1.03506E+00  1.06024E+00
#           1.08604E+00  1.11246E+00  1.13953E+00  1.16725E+00  1.19565E+00
#           1.22474E+00  1.25454E+00  1.28507E+00  1.31633E+00  1.34836E+00
#           1.38117E+00  1.41477E+00  1.44920E+00  1.48446E+00  1.52057E+00
#           1.55757E+00  1.59547E+00  1.63429E+00  1.67405E+00  1.71478E+00
#           1.75650E+00  1.79924E+00  1.84302E+00  1.88786E+00  1.93379E+00
#           1.98084E+00  2.02904E+00  2.07841E+00  2.12898E+00  2.18078E+00
#           2.23384E+00  2.28819E+00  2.34386E+00  2.40089E+00  2.45930E+00
#           2.51914E+00  2.58043E+00  2.64322E+00  2.70753E+00  2.77341E+00
#           2.84088E+00  2.91001E+00  2.98081E+00  3.05333E+00  3.12762E+00
#           3.20372E+00  3.28167E+00  3.36152E+00  3.44330E+00  3.52708E+00
#           3.61290E+00  3.70080E+00  3.79085E+00  3.88308E+00  3.97756E+00
#           4.07434E+00  4.17347E+00  4.27501E+00  4.37903E+00  4.48557E+00
#           4.59471E+00  4.70650E+00  4.82102E+00  4.93832E+00  5.05847E+00
#           5.18155E+00  5.30762E+00  5.43676E+00  5.56904E+00  5.70453E+00
#           5.84333E+00  5.98550E+00  6.13114E+00  6.28031E+00  6.43312E+00
#           6.58964E+00  6.74997E+00  6.91420E+00  7.08243E+00  7.25475E+00
#           7.43126E+00  7.61207E+00  7.79728E+00  7.98700E+00  8.18133E+00
#           8.38038E+00  8.58428E+00  8.79315E+00  9.00709E+00  9.22624E+00
#           9.45072E+00  9.68067E+00  9.91620E+00  1.01575E+01  1.04046E+01
#           1.06578E+01  1.09171E+01  1.11827E+01  1.14548E+01  1.17335E+01
#           1.20190E+01  1.23114E+01  1.26109E+01  1.29178E+01  1.32321E+01
#           1.35540E+01  1.38838E+01  1.42216E+01  1.45676E+01  1.49221E+01
#           1.52851E+01  1.56570E+01  1.60380E+01  1.64282E+01  1.68279E+01
#           1.72374E+01  1.76568E+01  1.80864E+01  1.85264E+01  1.89772E+01
#           1.94389E+01  1.99119E+01  2.03963E+01  2.08926E+01  2.14009E+01
#           2.19216E+01  2.24550E+01  2.30014E+01  2.35610E+01  2.41343E+01
#           2.47215E+01  2.53230E+01  2.59391E+01  2.65702E+01  2.72167E+01
#           2.78789E+01  2.85572E+01  2.92520E+01  2.99637E+01  3.06928E+01
#           3.14396E+01  3.22045E+01  3.29881E+01  3.37907E+01  3.46128E+01
#           3.54550E+01  3.63177E+01  3.72013E+01  3.81064E+01  3.90336E+01
#           3.99833E+01  4.09561E+01  4.19526E+01  4.29734E+01  4.40189E+01
#           4.50900E+01  4.61870E+01  4.73108E+01  4.84619E+01  4.96410E+01
#           5.08488E+01  5.20860E+01  5.33533E+01  5.46514E+01  5.59812E+01
#           5.73432E+01  5.87384E+01  6.01676E+01  6.16315E+01  6.31311E+01
#           6.46671E+01  6.62405E+01  6.78522E+01  6.95031E+01  7.11941E+01
#           7.29263E+01  7.47007E+01  7.65182E+01  7.83800E+01  8.02870E+01
#           8.22405E+01  8.42414E+01  8.62911E+01  8.83906E+01  9.05412E+01
#           9.27442E+01  9.50007E+01  9.73122E+01  9.96799E+01  1.02105E+02
#           1.04589E+02  1.07134E+02  1.09741E+02  1.12411E+02  1.15146E+02
#           1.17948E+02  1.20817E+02  1.23757E+02  1.26768E+02  1.29852E+02
#           1.33012E+02  1.36248E+02  1.39563E+02  1.42959E+02  1.46437E+02
#           1.50000E+02
     unit =    2            # unit is [1/cm^2/(MeV/n)/source]
     axis =  eng            # axis of output
     file = detector-07.out  # file name of output for the above axis
   output = f-curr          # surface crossing forward current spectrum
     part =  neutron  
# kf/name :  2112     
#    used :        main (  %)        temp (  %)       total (  %)
#  memory :         414 (  0)           0 (  0)         414 (  0)

#------------------------------------------------------------------------------
#newpage:
#   no. =    1   reg = 106 - 206

x: Energy [MeV/n]
y:  F-Curr [1/cm^2/(MeV/n)/source]         
p: xlog ylog afac(0.8) form(0.9)
h: n            x            y(neutron ),hh0l   n 
#  e-lower      e-upper      neutron     r.err 
   1.0000E-02   1.0243E-02   7.9850E-04  0.1014
   1.0243E-02   1.0493E-02   8.5584E-04  0.0967
   1.0493E-02   1.0748E-02   8.2515E-04  0.0973
   1.0748E-02   1.1009E-02   7.2768E-04  0.1022
   1.1009E-02   1.1277E-02   7.0706E-04  0.1025
   1.1277E-02   1.1552E-02   6.7537E-04  0.1037
   1.1552E-02   1.1833E-02   8.1660E-04  0.0932
   1.1833E-02   1.2121E-02   7.0369E-04  0.0992
   1.2121E-02   1.2415E-02   8.0473E-04  0.0916
   1.2415E-02   1.2718E-02   7.8457E-04  0.0918
   1.2718E-02   1.3027E-02   6.5388E-04  0.0994
   1.3027E-02   1.3344E-02   6.3497E-04  0.0994
   1.3344E-02   1.3669E-02   7.5037E-04  0.0904
   1.3669E-02   1.4001E-02   6.7226E-04  0.0944
   1.4001E-02   1.4342E-02   7.2800E-04  0.0898
   1.4342E-02   1.4691E-02   6.8380E-04  0.0913
   1.4691E-02   1.5048E-02   6.1457E-04  0.0952
   1.5048E-02   1.5414E-02   6.6736E-04  0.0902
   1.5414E-02   1.5789E-02   5.4745E-04  0.0985
   1.5789E-02   1.6174E-02   5.8308E-04  0.0945
   1.6174E-02   1.6567E-02   6.4661E-04  0.0884
   1.6567E-02   1.6970E-02   5.8219E-04  0.0922
   1.6970E-02   1.7383E-02   6.3549E-04  0.0873
   1.7383E-02   1.7806E-02   6.0243E-04  0.0885
   1.7806E-02   1.8239E-02   5.0915E-04  0.0951
   1.8239E-02   1.8683E-02   4.9314E-04  0.0954
   1.8683E-02   1.9138E-02   6.0502E-04  0.0851
   1.9138E-02   1.9603E-02   5.5807E-04  0.0875
   1.9603E-02   2.0080E-02   5.6256E-04  0.0863
   2.0080E-02   2.0569E-02   4.8907E-04  0.0913
   2.0569E-02   2.1069E-02   5.7207E-04  0.0835
   2.1069E-02   2.1582E-02   6.0633E-04  0.0801
   2.1582E-02   2.2107E-02   6.3757E-04  0.0772
   2.2107E-02   2.2645E-02   5.8430E-04  0.0797
   2.2645E-02   2.3196E-02   5.1652E-04  0.0836
   2.3196E-02   2.3760E-02   5.5037E-04  0.0802
   2.3760E-02   2.4338E-02   5.0337E-04  0.0828
   2.4338E-02   2.4930E-02   5.2057E-04  0.0805
   2.4930E-02   2.5537E-02   4.5283E-04  0.0851
   2.5537E-02   2.6158E-02   4.5756E-04  0.0838
   2.6158E-02   2.6795E-02   5.1432E-04  0.0779
   2.6795E-02   2.7447E-02   4.7877E-04  0.0799
   2.7447E-02   2.8114E-02   4.9224E-04  0.0779
   2.8114E-02   2.8799E-02   4.0097E-04  0.0854
   2.8799E-02   2.9499E-02   4.6036E-04  0.0787
   2.9499E-02   3.0217E-02   4.6256E-04  0.0776
   3.0217E-02   3.0952E-02   4.2787E-04  0.0795
   3.0952E-02   3.1705E-02   4.4432E-04  0.0773
   3.1705E-02   3.2477E-02   3.8938E-04  0.0814
   3.2477E-02   3.3267E-02   4.0536E-04  0.0790
   3.3267E-02   3.4076E-02   3.9495E-04  0.0790
   3.4076E-02   3.4905E-02   3.9070E-04  0.0784
   3.4905E-02   3.5755E-02   3.7948E-04  0.0787
   3.5755E-02   3.6625E-02   3.7562E-04  0.0780
   3.6625E-02   3.7516E-02   4.4505E-04  0.0708
   3.7516E-02   3.8428E-02   4.0790E-04  0.0733
   3.8428E-02   3.9363E-02   3.9961E-04  0.0730
   3.9363E-02   4.0321E-02   3.9139E-04  0.0728
   4.0321E-02   4.1302E-02   3.8228E-04  0.0727
   4.1302E-02   4.2307E-02   3.4998E-04  0.0753
   4.2307E-02   4.3337E-02   3.7763E-04  0.0716
   4.3337E-02   4.4391E-02   3.4871E-04  0.0736
   4.4391E-02   4.5471E-02   3.6326E-04  0.0712
   4.5471E-02   4.6577E-02   4.0076E-04  0.0670
   4.6577E-02   4.7711E-02   3.5120E-04  0.0709
   4.7711E-02   4.8871E-02   3.5575E-04  0.0694
   4.8871E-02   5.0061E-02   3.1428E-04  0.0730
   5.0061E-02   5.1279E-02   3.4157E-04  0.0692
   5.1279E-02   5.2526E-02   2.8400E-04  0.0750
   5.2526E-02   5.3804E-02   3.2338E-04  0.0694
   5.3804E-02   5.5113E-02   3.0862E-04  0.0702
   5.5113E-02   5.6454E-02   3.0725E-04  0.0695
   5.6454E-02   5.7828E-02   3.0894E-04  0.0685
   5.7828E-02   5.9235E-02   2.8426E-04  0.0706
   5.9235E-02   6.0676E-02   2.9345E-04  0.0687
   6.0676E-02   6.2152E-02   2.9447E-04  0.0677
   6.2152E-02   6.3665E-02   2.7330E-04  0.0695
   6.3665E-02   6.5214E-02   2.7027E-04  0.0690
   6.5214E-02   6.6800E-02   3.1542E-04  0.0631
   6.6800E-02   6.8426E-02   2.7681E-04  0.0666
   6.8426E-02   7.0090E-02   2.5343E-04  0.0687
   7.0090E-02   7.1796E-02   2.5951E-04  0.0671
   7.1796E-02   7.3543E-02   2.8356E-04  0.0634
   7.3543E-02   7.5332E-02   2.4199E-04  0.0678
   7.5332E-02   7.7165E-02   2.6261E-04  0.0643
   7.7165E-02   7.9042E-02   2.4589E-04  0.0657
   7.9042E-02   8.0965E-02   2.3863E-04  0.0659
   8.0965E-02   8.2935E-02   2.6143E-04  0.0622
   8.2935E-02   8.4953E-02   2.4094E-04  0.0640
   8.4953E-02   8.7020E-02   2.5676E-04  0.0613
   8.7020E-02   8.9138E-02   2.3343E-04  0.0635
   8.9138E-02   9.1306E-02   2.3288E-04  0.0628
   9.1306E-02   9.3528E-02   2.0977E-04  0.0654
   9.3528E-02   9.5804E-02   2.1011E-04  0.0646
   9.5804E-02   9.8134E-02   1.9375E-04  0.0665
   9.8134E-02   1.0052E-01   2.1491E-04  0.0623
   1.0052E-01   1.0297E-01   1.9559E-04  0.0645
   1.0297E-01   1.0547E-01   1.9691E-04  0.0636
   1.0547E-01   1.0804E-01   2.2240E-04  0.0591
   1.0804E-01   1.1067E-01   1.6419E-04  0.0680
   1.1067E-01   1.1336E-01   1.7870E-04  0.0644
   1.1336E-01   1.1612E-01   1.6712E-04  0.0657
   1.1612E-01   1.1894E-01   1.7771E-04  0.0630
   1.1894E-01   1.2184E-01   1.6194E-04  0.0652
   1.2184E-01   1.2480E-01   1.8223E-04  0.0608
   1.2480E-01   1.2784E-01   1.4710E-04  0.0669
   1.2784E-01   1.3095E-01   1.6270E-04  0.0627
   1.3095E-01   1.3414E-01   1.7539E-04  0.0598
   1.3414E-01   1.3740E-01   1.5627E-04  0.0626
   1.3740E-01   1.4074E-01   1.5791E-04  0.0615
   1.4074E-01   1.4417E-01   1.4971E-04  0.0623
   1.4417E-01   1.4767E-01   1.5921E-04  0.0597
   1.4767E-01   1.5127E-01   1.3805E-04  0.0634
   1.5127E-01   1.5495E-01   1.4108E-04  0.0619
   1.5495E-01   1.5872E-01   1.4088E-04  0.0612
   1.5872E-01   1.6258E-01   1.2522E-04  0.0642
   1.6258E-01   1.6654E-01   1.3792E-04  0.0605
   1.6654E-01   1.7059E-01   1.2883E-04  0.0619
   1.7059E-01   1.7474E-01   1.2360E-04  0.0623
   1.7474E-01   1.7899E-01   1.1987E-04  0.0625
   1.7899E-01   1.8334E-01   1.1804E-04  0.0622
   1.8334E-01   1.8781E-01   1.2811E-04  0.0590
   1.8781E-01   1.9237E-01   1.1037E-04  0.0630
   1.9237E-01   1.9706E-01   1.2230E-04  0.0590
   1.9706E-01   2.0185E-01   1.1125E-04  0.0612
   2.0185E-01   2.0676E-01   1.0873E-04  0.0611
   2.0676E-01   2.1179E-01   1.0583E-04  0.0612
   2.1179E-01   2.1694E-01   1.0775E-04  0.0600
   2.1694E-01   2.2222E-01   1.1106E-04  0.0583
   2.2222E-01   2.2763E-01   1.1346E-04  0.0570
   2.2763E-01   2.3317E-01   1.2487E-04  0.0537
   2.3317E-01   2.3884E-01   1.3383E-04  0.0512
   2.3884E-01   2.4465E-01   1.3775E-04  0.0499
   2.4465E-01   2.5061E-01   1.3242E-04  0.0503
   2.5061E-01   2.5670E-01   1.4563E-04  0.0474
   2.5670E-01   2.6295E-01   1.2952E-04  0.0496
   2.6295E-01   2.6935E-01   1.4164E-04  0.0469
   2.6935E-01   2.7590E-01   1.4104E-04  0.0465
   2.7590E-01   2.8261E-01   1.4102E-04  0.0459
   2.8261E-01   2.8949E-01   1.4321E-04  0.0450
   2.8949E-01   2.9653E-01   1.5407E-04  0.0429
   2.9653E-01   3.0375E-01   1.5485E-04  0.0422
   3.0375E-01   3.1114E-01   1.6114E-04  0.0409
   3.1114E-01   3.1871E-01   1.6761E-04  0.0396
   3.1871E-01   3.2646E-01   1.5749E-04  0.0403
   3.2646E-01   3.3441E-01   1.6415E-04  0.0391
   3.3441E-01   3.4254E-01   1.7052E-04  0.0379
   3.4254E-01   3.5088E-01   1.6304E-04  0.0383
   3.5088E-01   3.5941E-01   1.6615E-04  0.0375
   3.5941E-01   3.6816E-01   1.7123E-04  0.0365
   3.6816E-01   3.7712E-01   1.7684E-04  0.0355
   3.7712E-01   3.8629E-01   1.6862E-04  0.0359
   3.8629E-01   3.9569E-01   1.8230E-04  0.0341
   3.9569E-01   4.0532E-01   1.8074E-04  0.0339
   4.0532E-01   4.1518E-01   1.7687E-04  0.0338
   4.1518E-01   4.2528E-01   1.8461E-04  0.0327
   4.2528E-01   4.3563E-01   1.8379E-04  0.0324
   4.3563E-01   4.4623E-01   1.8681E-04  0.0317
   4.4623E-01   4.5708E-01   1.8246E-04  0.0317
   4.5708E-01   4.6821E-01   1.9331E-04  0.0304
   4.6821E-01   4.7960E-01   1.8888E-04  0.0304
   4.7960E-01   4.9127E-01   1.9497E-04  0.0296
   4.9127E-01   5.0322E-01   1.9090E-04  0.0296
   5.0322E-01   5.1546E-01   2.0136E-04  0.0285
   5.1546E-01   5.2800E-01   1.9881E-04  0.0283
   5.2800E-01   5.4085E-01   1.9666E-04  0.0281
   5.4085E-01   5.5401E-01   2.0337E-04  0.0273
   5.5401E-01   5.6749E-01   1.9961E-04  0.0272
   5.6749E-01   5.8130E-01   2.0479E-04  0.0266
   5.8130E-01   5.9544E-01   2.1282E-04  0.0257
   5.9544E-01   6.0993E-01   2.1098E-04  0.0255
   6.0993E-01   6.2477E-01   2.0548E-04  0.0256
   6.2477E-01   6.3997E-01   2.1715E-04  0.0246
   6.3997E-01   6.5554E-01   2.0489E-04  0.0250
   6.5554E-01   6.7149E-01   2.1470E-04  0.0241
   6.7149E-01   6.8783E-01   2.1444E-04  0.0239
   6.8783E-01   7.0456E-01   2.0465E-04  0.0241
   7.0456E-01   7.2171E-01   2.0945E-04  0.0236
   7.2171E-01   7.3927E-01   2.1592E-04  0.0229
   7.3927E-01   7.5725E-01   2.1943E-04  0.0225
   7.5725E-01   7.7568E-01   2.2345E-04  0.0220
   7.7568E-01   7.9455E-01   2.2552E-04  0.0216
   7.9455E-01   8.1388E-01   2.2428E-04  0.0215
   8.1388E-01   8.3368E-01   2.1946E-04  0.0214
   8.3368E-01   8.5397E-01   2.3575E-04  0.0204
   8.5397E-01   8.7475E-01   2.2738E-04  0.0205
   8.7475E-01   8.9603E-01   2.3390E-04  0.0200
   8.9603E-01   9.1783E-01   2.2366E-04  0.0202
   9.1783E-01   9.4016E-01   2.3471E-04  0.0195
   9.4016E-01   9.6304E-01   2.3576E-04  0.0192
   9.6304E-01   9.8647E-01   2.4105E-04  0.0188
   9.8647E-01   1.0105E+00   2.4055E-04  0.0186
   1.0105E+00   1.0351E+00   2.4127E-04  0.0183
   1.0351E+00   1.0602E+00   2.4687E-04  0.0179
   1.0602E+00   1.0860E+00   2.4010E-04  0.0179
   1.0860E+00   1.1125E+00   2.4124E-04  0.0177
   1.1125E+00   1.1395E+00   2.4065E-04  0.0175
   1.1395E+00   1.1673E+00   2.4551E-04  0.0171
   1.1673E+00   1.1957E+00   2.4544E-04  0.0169
   1.1957E+00   1.2247E+00   2.4855E-04  0.0166
   1.2247E+00   1.2545E+00   2.5348E-04  0.0163
   1.2545E+00   1.2851E+00   2.5649E-04  0.0160
   1.2851E+00   1.3163E+00   2.5770E-04  0.0157
   1.3163E+00   1.3484E+00   2.5488E-04  0.0156
   1.3484E+00   1.3812E+00   2.6084E-04  0.0153
   1.3812E+00   1.4148E+00   2.4824E-04  0.0155
   1.4148E+00   1.4492E+00   2.5949E-04  0.0149
   1.4492E+00   1.4845E+00   2.6004E-04  0.0147
   1.4845E+00   1.5206E+00   2.6318E-04  0.0145
   1.5206E+00   1.5576E+00   2.6421E-04  0.0143
   1.5576E+00   1.5955E+00   2.6418E-04  0.0141
   1.5955E+00   1.6343E+00   2.6454E-04  0.0139
   1.6343E+00   1.6741E+00   2.5761E-04  0.0139
   1.6741E+00   1.7148E+00   2.6320E-04  0.0136
   1.7148E+00   1.7565E+00   2.6867E-04  0.0133
   1.7565E+00   1.7992E+00   2.6260E-04  0.0133
   1.7992E+00   1.8430E+00   2.6380E-04  0.0131
   1.8430E+00   1.8879E+00   2.6275E-04  0.0130
   1.8879E+00   1.9338E+00   2.5817E-04  0.0130
   1.9338E+00   1.9808E+00   2.6552E-04  0.0126
   1.9808E+00   2.0290E+00   2.6350E-04  0.0125
   2.0290E+00   2.0784E+00   2.7108E-04  0.0122
   2.0784E+00   2.1290E+00   2.6829E-04  0.0121
   2.1290E+00   2.1808E+00   2.6564E-04  0.0120
   2.1808E+00   2.2338E+00   2.6587E-04  0.0119
   2.2338E+00   2.2882E+00   2.6704E-04  0.0117
   2.2882E+00   2.3439E+00   2.6077E-04  0.0117
   2.3439E+00   2.4009E+00   2.6370E-04  0.0115
   2.4009E+00   2.4593E+00   2.6542E-04  0.0113
   2.4593E+00   2.5191E+00   2.5747E-04  0.0114
   2.5191E+00   2.5804E+00   2.6034E-04  0.0112
   2.5804E+00   2.6432E+00   2.6309E-04  0.0110
   2.6432E+00   2.7075E+00   2.6466E-04  0.0108
   2.7075E+00   2.7734E+00   2.6263E-04  0.0107
   2.7734E+00   2.8409E+00   2.5624E-04  0.0107
   2.8409E+00   2.9100E+00   2.5588E-04  0.0106
   2.9100E+00   2.9808E+00   2.5123E-04  0.0106
   2.9808E+00   3.0533E+00   2.5596E-04  0.0104
   3.0533E+00   3.1276E+00   2.5670E-04  0.0102
   3.1276E+00   3.2037E+00   2.5214E-04  0.0102
   3.2037E+00   3.2817E+00   2.4783E-04  0.0102
   3.2817E+00   3.3615E+00   2.4730E-04  0.0101
   3.3615E+00   3.4433E+00   2.5004E-04  0.0099
   3.4433E+00   3.5271E+00   2.4575E-04  0.0098
   3.5271E+00   3.6129E+00   2.4476E-04  0.0097
   3.6129E+00   3.7008E+00   2.4377E-04  0.0096
   3.7008E+00   3.7908E+00   2.3905E-04  0.0096
   3.7908E+00   3.8831E+00   2.3671E-04  0.0096
   3.8831E+00   3.9776E+00   2.3375E-04  0.0095
   3.9776E+00   4.0743E+00   2.3549E-04  0.0094
   4.0743E+00   4.1735E+00   2.3365E-04  0.0093
   4.1735E+00   4.2750E+00   2.2947E-04  0.0093
   4.2750E+00   4.3790E+00   2.2783E-04  0.0092
   4.3790E+00   4.4856E+00   2.2316E-04  0.0092
   4.4856E+00   4.5947E+00   2.2549E-04  0.0090
   4.5947E+00   4.7065E+00   2.2613E-04  0.0089
   4.7065E+00   4.8210E+00   2.2747E-04  0.0088
   4.8210E+00   4.9383E+00   2.2810E-04  0.0086
   4.9383E+00   5.0585E+00   2.2489E-04  0.0086
   5.0585E+00   5.1815E+00   2.2652E-04  0.0085
   5.1815E+00   5.3076E+00   2.2453E-04  0.0084
   5.3076E+00   5.4368E+00   2.2252E-04  0.0083
   5.4368E+00   5.5690E+00   2.1690E-04  0.0083
   5.5690E+00   5.7045E+00   2.1558E-04  0.0083
   5.7045E+00   5.8433E+00   2.1389E-04  0.0082
   5.8433E+00   5.9855E+00   2.1142E-04  0.0082
   5.9855E+00   6.1311E+00   2.0705E-04  0.0081
   6.1311E+00   6.2803E+00   2.0762E-04  0.0080
   6.2803E+00   6.4331E+00   2.0380E-04  0.0080
   6.4331E+00   6.5896E+00   2.0195E-04  0.0080
   6.5896E+00   6.7500E+00   2.0110E-04  0.0079
   6.7500E+00   6.9142E+00   1.9981E-04  0.0078
   6.9142E+00   7.0824E+00   1.9653E-04  0.0078
   7.0824E+00   7.2548E+00   1.9301E-04  0.0078
   7.2548E+00   7.4313E+00   1.9045E-04  0.0077
   7.4313E+00   7.6121E+00   1.8761E-04  0.0077
   7.6121E+00   7.7973E+00   1.8545E-04  0.0076
   7.7973E+00   7.9870E+00   1.8197E-04  0.0076
   7.9870E+00   8.1813E+00   1.8064E-04  0.0075
   8.1813E+00   8.3804E+00   1.7914E-04  0.0075
   8.3804E+00   8.5843E+00   1.7736E-04  0.0074
   8.5843E+00   8.7931E+00   1.7685E-04  0.0074
   8.7931E+00   9.0071E+00   1.7029E-04  0.0074
   9.0071E+00   9.2262E+00   1.7232E-04  0.0073
   9.2262E+00   9.4507E+00   1.6762E-04  0.0073
   9.4507E+00   9.6807E+00   1.6715E-04  0.0072
   9.6807E+00   9.9162E+00   1.6746E-04  0.0071
   9.9162E+00   1.0157E+01   1.6341E-04  0.0071
   1.0157E+01   1.0405E+01   1.6178E-04  0.0071
   1.0405E+01   1.0658E+01   1.6371E-04  0.0069
   1.0658E+01   1.0917E+01   1.6001E-04  0.0069
   1.0917E+01   1.1183E+01   1.5963E-04  0.0069
   1.1183E+01   1.1455E+01   1.5856E-04  0.0068
   1.1455E+01   1.1733E+01   1.5957E-04  0.0067
   1.1733E+01   1.2019E+01   1.5757E-04  0.0067
   1.2019E+01   1.2311E+01   1.5803E-04  0.0066
   1.2311E+01   1.2611E+01   1.5691E-04  0.0065
   1.2611E+01   1.2918E+01   1.5626E-04  0.0065
   1.2918E+01   1.3232E+01   1.5489E-04  0.0064
   1.3232E+01   1.3554E+01   1.5634E-04  0.0063
   1.3554E+01   1.3884E+01   1.5600E-04  0.0062
   1.3884E+01   1.4222E+01   1.5273E-04  0.0062
   1.4222E+01   1.4568E+01   1.5334E-04  0.0061
   1.4568E+01   1.4922E+01   1.5210E-04  0.0061
   1.4922E+01   1.5285E+01   1.5085E-04  0.0060
   1.5285E+01   1.5657E+01   1.5037E-04  0.0060
   1.5657E+01   1.6038E+01   1.4800E-04  0.0060
   1.6038E+01   1.6428E+01   1.4576E-04  0.0059
   1.6428E+01   1.6828E+01   1.4478E-04  0.0059
   1.6828E+01   1.7237E+01   1.4478E-04  0.0058
   1.7237E+01   1.7657E+01   1.4344E-04  0.0058
   1.7657E+01   1.8086E+01   1.4087E-04  0.0057
   1.8086E+01   1.8526E+01   1.4011E-04  0.0057
   1.8526E+01   1.8977E+01   1.3837E-04  0.0057
   1.8977E+01   1.9439E+01   1.3551E-04  0.0057
   1.9439E+01   1.9912E+01   1.3414E-04  0.0056
   1.9912E+01   2.0396E+01   1.3078E-04  0.0056
   2.0396E+01   2.0893E+01   1.2857E-04  0.0056
   2.0893E+01   2.1401E+01   1.2651E-04  0.0056
   2.1401E+01   2.1922E+01   1.2251E-04  0.0056
   2.1922E+01   2.2455E+01   1.2012E-04  0.0056
   2.2455E+01   2.3001E+01   1.1620E-04  0.0056
   2.3001E+01   2.3561E+01   1.1260E-04  0.0056
   2.3561E+01   2.4134E+01   1.0955E-04  0.0056
   2.4134E+01   2.4721E+01   1.0531E-04  0.0057
   2.4721E+01   2.5323E+01   1.0109E-04  0.0057
   2.5323E+01   2.5939E+01   9.5646E-05  0.0058
   2.5939E+01   2.6570E+01   9.1080E-05  0.0059
   2.6570E+01   2.7217E+01   8.7063E-05  0.0060
   2.7217E+01   2.7879E+01   8.2177E-05  0.0061
   2.7879E+01   2.8557E+01   7.8011E-05  0.0061
   2.8557E+01   2.9252E+01   7.3173E-05  0.0063
   2.9252E+01   2.9964E+01   6.9164E-05  0.0064
   2.9964E+01   3.0693E+01   6.4690E-05  0.0065
   3.0693E+01   3.1440E+01   5.9578E-05  0.0067
   3.1440E+01   3.2205E+01   5.6312E-05  0.0068
   3.2205E+01   3.2988E+01   5.1585E-05  0.0070
   3.2988E+01   3.3791E+01   4.8610E-05  0.0072
   3.3791E+01   3.4613E+01   4.3902E-05  0.0074
   3.4613E+01   3.5455E+01   4.0422E-05  0.0077
   3.5455E+01   3.6318E+01   3.6791E-05  0.0079
   3.6318E+01   3.7201E+01   3.3172E-05  0.0083
   3.7201E+01   3.8106E+01   3.0528E-05  0.0085
   3.8106E+01   3.9034E+01   2.6628E-05  0.0090
   3.9034E+01   3.9983E+01   2.3727E-05  0.0094
   3.9983E+01   4.0956E+01   2.1243E-05  0.0098
   4.0956E+01   4.1953E+01   1.8268E-05  0.0105
   4.1953E+01   4.2973E+01   1.6719E-05  0.0108
   4.2973E+01   4.4019E+01   1.5151E-05  0.0112
   4.4019E+01   4.5090E+01   1.4048E-05  0.0115
   4.5090E+01   4.6187E+01   1.3709E-05  0.0115
   4.6187E+01   4.7311E+01   1.3982E-05  0.0113
   4.7311E+01   4.8462E+01   1.3933E-05  0.0112
   4.8462E+01   4.9641E+01   1.4033E-05  0.0110
   4.9641E+01   5.0849E+01   1.2807E-05  0.0114
   5.0849E+01   5.2086E+01   1.3354E-05  0.0110
   5.2086E+01   5.3353E+01   1.5400E-05  0.0101
   5.3353E+01   5.4651E+01   1.5818E-05  0.0099
   5.4651E+01   5.5981E+01   1.6749E-05  0.0095
   5.5981E+01   5.7343E+01   1.7811E-05  0.0091
   5.7343E+01   5.8738E+01   1.8791E-05  0.0087
   5.8738E+01   6.0168E+01   1.9088E-05  0.0086
   6.0168E+01   6.1632E+01   1.4547E-05  0.0097
   6.1632E+01   6.3131E+01   1.0374E-05  0.0113
   6.3131E+01   6.4667E+01   5.0338E-06  0.0161
   6.4667E+01   6.6240E+01   1.6741E-06  0.0276
   6.6240E+01   6.7852E+01   2.6556E-07  0.0684
   6.7852E+01   6.9503E+01   1.2115E-09  1.0000
   6.9503E+01   7.1194E+01   0.0000E+00  0.0000
   7.1194E+01   7.2926E+01   0.0000E+00  0.0000
   7.2926E+01   7.4701E+01   0.0000E+00  0.0000
   7.4701E+01   7.6518E+01   0.0000E+00  0.0000
   7.6518E+01   7.8380E+01   0.0000E+00  0.0000
   7.8380E+01   8.0287E+01   0.0000E+00  0.0000
   8.0287E+01   8.2240E+01   0.0000E+00  0.0000
   8.2240E+01   8.4241E+01   0.0000E+00  0.0000
   8.4241E+01   8.6291E+01   0.0000E+00  0.0000
   8.6291E+01   8.8391E+01   0.0000E+00  0.0000
   8.8391E+01   9.0541E+01   0.0000E+00  0.0000
   9.0541E+01   9.2744E+01   0.0000E+00  0.0000
   9.2744E+01   9.5001E+01   0.0000E+00  0.0000
   9.5001E+01   9.7312E+01   0.0000E+00  0.0000
   9.7312E+01   9.9680E+01   0.0000E+00  0.0000
   9.9680E+01   1.0211E+02   0.0000E+00  0.0000
   1.0211E+02   1.0459E+02   0.0000E+00  0.0000
   1.0459E+02   1.0713E+02   0.0000E+00  0.0000
   1.0713E+02   1.0974E+02   0.0000E+00  0.0000
   1.0974E+02   1.1241E+02   0.0000E+00  0.0000
   1.1241E+02   1.1515E+02   0.0000E+00  0.0000
   1.1515E+02   1.1795E+02   0.0000E+00  0.0000
   1.1795E+02   1.2082E+02   0.0000E+00  0.0000
   1.2082E+02   1.2376E+02   0.0000E+00  0.0000
   1.2376E+02   1.2677E+02   0.0000E+00  0.0000
   1.2677E+02   1.2985E+02   0.0000E+00  0.0000
   1.2985E+02   1.3301E+02   0.0000E+00  0.0000
   1.3301E+02   1.3625E+02   0.0000E+00  0.0000
   1.3625E+02   1.3956E+02   0.0000E+00  0.0000
   1.3956E+02   1.4296E+02   0.0000E+00  0.0000
   1.4296E+02   1.4644E+02   0.0000E+00  0.0000
   1.4644E+02   1.5000E+02   0.0000E+00  0.0000

#   sum over                 3.6264E-05
'no. =    1   reg = 106 - 206'
msuc: {\huge [t-cross] in region mesh}
msdr: {\it plotted by \ANGEL \version}
msdl: {\it calculated by \PHITS  3.26}
wt: s(0.7)
\vspace{-3}
  region surface crossing
  area  &=&   1.0000E+00 [cm^2]
e:
 
# Information for Restart Calculation
# This calculation was newly started
# istdev =  2 # 1:Batch variance, 2:History variance
# resc2  = 5.00000000000000000E+08 # Total source weight or Total source weight / maxcas
# resc3  = 5.00000000000000000E+08 # Total history number or Total batch number
# maxcas =   500000000 # History / Batch, only used for istdev=1
# bitrseed = 1101101111010011011000101101110001100110110010110001010100010001 # bit data of rseed
