[ T-Cross ]
    title = [t-cross] in region mesh
     mesh =  reg            # mesh type is region-wise
      reg =    1            # number of crossing regions
      non     r-from    r-to       area
      1       111       211        1.000000    
   e-type =    3            # e-mesh is log given by emin, emax and ne
     emin =  1.0000000E-02  # minimum value of e-mesh points
     emax =   150.0000      # maximum value of e-mesh points
#    edel =  2.4039514E-02  # mesh width of e-mesh points
       ne =    400          # number of e-mesh points
#    data = ( e(i), i = 1, ne + 1 )
#           1.00000E-02  1.02433E-02  1.04925E-02  1.07478E-02  1.10093E-02
#           1.12772E-02  1.15516E-02  1.18326E-02  1.21205E-02  1.24154E-02
#           1.27175E-02  1.30269E-02  1.33439E-02  1.36686E-02  1.40011E-02
#           1.43418E-02  1.46907E-02  1.50482E-02  1.54143E-02  1.57894E-02
#           1.61735E-02  1.65670E-02  1.69701E-02  1.73830E-02  1.78060E-02
#           1.82392E-02  1.86830E-02  1.91375E-02  1.96032E-02  2.00801E-02
#           2.05687E-02  2.10692E-02  2.15818E-02  2.21069E-02  2.26448E-02
#           2.31957E-02  2.37601E-02  2.43382E-02  2.49304E-02  2.55369E-02
#           2.61583E-02  2.67947E-02  2.74467E-02  2.81145E-02  2.87985E-02
#           2.94992E-02  3.02169E-02  3.09521E-02  3.17052E-02  3.24766E-02
#           3.32668E-02  3.40762E-02  3.49053E-02  3.57546E-02  3.66246E-02
#           3.75157E-02  3.84284E-02  3.93634E-02  4.03212E-02  4.13022E-02
#           4.23071E-02  4.33365E-02  4.43909E-02  4.54710E-02  4.65773E-02
#           4.77106E-02  4.88714E-02  5.00605E-02  5.12785E-02  5.25262E-02
#           5.38042E-02  5.51133E-02  5.64542E-02  5.78278E-02  5.92348E-02
#           6.06760E-02  6.21523E-02  6.36645E-02  6.52135E-02  6.68002E-02
#           6.84255E-02  7.00904E-02  7.17957E-02  7.35426E-02  7.53319E-02
#           7.71648E-02  7.90423E-02  8.09655E-02  8.29354E-02  8.49533E-02
#           8.70203E-02  8.91376E-02  9.13064E-02  9.35279E-02  9.58035E-02
#           9.81345E-02  1.00522E-01  1.02968E-01  1.05473E-01  1.08040E-01
#           1.10668E-01  1.13361E-01  1.16119E-01  1.18944E-01  1.21838E-01
#           1.24803E-01  1.27839E-01  1.30950E-01  1.34136E-01  1.37399E-01
#           1.40742E-01  1.44167E-01  1.47675E-01  1.51268E-01  1.54948E-01
#           1.58718E-01  1.62580E-01  1.66535E-01  1.70587E-01  1.74738E-01
#           1.78989E-01  1.83344E-01  1.87805E-01  1.92375E-01  1.97055E-01
#           2.01850E-01  2.06761E-01  2.11792E-01  2.16945E-01  2.22223E-01
#           2.27630E-01  2.33169E-01  2.38842E-01  2.44653E-01  2.50605E-01
#           2.56703E-01  2.62949E-01  2.69346E-01  2.75900E-01  2.82613E-01
#           2.89489E-01  2.96532E-01  3.03747E-01  3.11138E-01  3.18708E-01
#           3.26462E-01  3.34405E-01  3.42542E-01  3.50876E-01  3.59413E-01
#           3.68158E-01  3.77116E-01  3.86291E-01  3.95690E-01  4.05317E-01
#           4.15179E-01  4.25281E-01  4.35628E-01  4.46227E-01  4.57084E-01
#           4.68205E-01  4.79597E-01  4.91266E-01  5.03219E-01  5.15463E-01
#           5.28005E-01  5.40851E-01  5.54011E-01  5.67490E-01  5.81298E-01
#           5.95441E-01  6.09929E-01  6.24769E-01  6.39970E-01  6.55541E-01
#           6.71491E-01  6.87828E-01  7.04564E-01  7.21706E-01  7.39266E-01
#           7.57253E-01  7.75678E-01  7.94551E-01  8.13883E-01  8.33685E-01
#           8.53969E-01  8.74747E-01  8.96030E-01  9.17831E-01  9.40163E-01
#           9.63038E-01  9.86469E-01  1.01047E+00  1.03506E+00  1.06024E+00
#           1.08604E+00  1.11246E+00  1.13953E+00  1.16725E+00  1.19565E+00
#           1.22474E+00  1.25454E+00  1.28507E+00  1.31633E+00  1.34836E+00
#           1.38117E+00  1.41477E+00  1.44920E+00  1.48446E+00  1.52057E+00
#           1.55757E+00  1.59547E+00  1.63429E+00  1.67405E+00  1.71478E+00
#           1.75650E+00  1.79924E+00  1.84302E+00  1.88786E+00  1.93379E+00
#           1.98084E+00  2.02904E+00  2.07841E+00  2.12898E+00  2.18078E+00
#           2.23384E+00  2.28819E+00  2.34386E+00  2.40089E+00  2.45930E+00
#           2.51914E+00  2.58043E+00  2.64322E+00  2.70753E+00  2.77341E+00
#           2.84088E+00  2.91001E+00  2.98081E+00  3.05333E+00  3.12762E+00
#           3.20372E+00  3.28167E+00  3.36152E+00  3.44330E+00  3.52708E+00
#           3.61290E+00  3.70080E+00  3.79085E+00  3.88308E+00  3.97756E+00
#           4.07434E+00  4.17347E+00  4.27501E+00  4.37903E+00  4.48557E+00
#           4.59471E+00  4.70650E+00  4.82102E+00  4.93832E+00  5.05847E+00
#           5.18155E+00  5.30762E+00  5.43676E+00  5.56904E+00  5.70453E+00
#           5.84333E+00  5.98550E+00  6.13114E+00  6.28031E+00  6.43312E+00
#           6.58964E+00  6.74997E+00  6.91420E+00  7.08243E+00  7.25475E+00
#           7.43126E+00  7.61207E+00  7.79728E+00  7.98700E+00  8.18133E+00
#           8.38038E+00  8.58428E+00  8.79315E+00  9.00709E+00  9.22624E+00
#           9.45072E+00  9.68067E+00  9.91620E+00  1.01575E+01  1.04046E+01
#           1.06578E+01  1.09171E+01  1.11827E+01  1.14548E+01  1.17335E+01
#           1.20190E+01  1.23114E+01  1.26109E+01  1.29178E+01  1.32321E+01
#           1.35540E+01  1.38838E+01  1.42216E+01  1.45676E+01  1.49221E+01
#           1.52851E+01  1.56570E+01  1.60380E+01  1.64282E+01  1.68279E+01
#           1.72374E+01  1.76568E+01  1.80864E+01  1.85264E+01  1.89772E+01
#           1.94389E+01  1.99119E+01  2.03963E+01  2.08926E+01  2.14009E+01
#           2.19216E+01  2.24550E+01  2.30014E+01  2.35610E+01  2.41343E+01
#           2.47215E+01  2.53230E+01  2.59391E+01  2.65702E+01  2.72167E+01
#           2.78789E+01  2.85572E+01  2.92520E+01  2.99637E+01  3.06928E+01
#           3.14396E+01  3.22045E+01  3.29881E+01  3.37907E+01  3.46128E+01
#           3.54550E+01  3.63177E+01  3.72013E+01  3.81064E+01  3.90336E+01
#           3.99833E+01  4.09561E+01  4.19526E+01  4.29734E+01  4.40189E+01
#           4.50900E+01  4.61870E+01  4.73108E+01  4.84619E+01  4.96410E+01
#           5.08488E+01  5.20860E+01  5.33533E+01  5.46514E+01  5.59812E+01
#           5.73432E+01  5.87384E+01  6.01676E+01  6.16315E+01  6.31311E+01
#           6.46671E+01  6.62405E+01  6.78522E+01  6.95031E+01  7.11941E+01
#           7.29263E+01  7.47007E+01  7.65182E+01  7.83800E+01  8.02870E+01
#           8.22405E+01  8.42414E+01  8.62911E+01  8.83906E+01  9.05412E+01
#           9.27442E+01  9.50007E+01  9.73122E+01  9.96799E+01  1.02105E+02
#           1.04589E+02  1.07134E+02  1.09741E+02  1.12411E+02  1.15146E+02
#           1.17948E+02  1.20817E+02  1.23757E+02  1.26768E+02  1.29852E+02
#           1.33012E+02  1.36248E+02  1.39563E+02  1.42959E+02  1.46437E+02
#           1.50000E+02
     unit =    2            # unit is [1/cm^2/(MeV/n)/source]
     axis =  eng            # axis of output
     file = detector-12.out  # file name of output for the above axis
   output = f-curr          # surface crossing forward current spectrum
     part =  neutron  
# kf/name :  2112     
#    used :        main (  %)        temp (  %)       total (  %)
#  memory :         414 (  0)           0 (  0)         414 (  0)

#------------------------------------------------------------------------------
#newpage:
#   no. =    1   reg = 111 - 211

x: Energy [MeV/n]
y:  F-Curr [1/cm^2/(MeV/n)/source]         
p: xlog ylog afac(0.8) form(0.9)
h: n            x            y(neutron ),hh0l   n 
#  e-lower      e-upper      neutron     r.err 
   1.0000E-02   1.0243E-02   5.7282E-04  0.1194
   1.0243E-02   1.0493E-02   6.1340E-04  0.1141
   1.0493E-02   1.0748E-02   5.8074E-04  0.1161
   1.0748E-02   1.1009E-02   6.2214E-04  0.1107
   1.1009E-02   1.1277E-02   5.0893E-04  0.1210
   1.1277E-02   1.1552E-02   5.2622E-04  0.1176
   1.1552E-02   1.1833E-02   6.2123E-04  0.1069
   1.1833E-02   1.2121E-02   5.0712E-04  0.1170
   1.2121E-02   1.2415E-02   4.8148E-04  0.1181
   1.2415E-02   1.2718E-02   7.5025E-04  0.0938
   1.2718E-02   1.3027E-02   4.1359E-04  0.1244
   1.3027E-02   1.3344E-02   5.9542E-04  0.1028
   1.3344E-02   1.3669E-02   5.6142E-04  0.1047
   1.3669E-02   1.4001E-02   4.8296E-04  0.1114
   1.4001E-02   1.4342E-02   5.9386E-04  0.0994
   1.4342E-02   1.4691E-02   5.3556E-04  0.1032
   1.4691E-02   1.5048E-02   5.6214E-04  0.0996
   1.5048E-02   1.5414E-02   5.4453E-04  0.0999
   1.5414E-02   1.5789E-02   5.8316E-04  0.0953
   1.5789E-02   1.6174E-02   5.2156E-04  0.0998
   1.6174E-02   1.6567E-02   4.5916E-04  0.1047
   1.6567E-02   1.6970E-02   4.8693E-04  0.1009
   1.6970E-02   1.7383E-02   4.5614E-04  0.1030
   1.7383E-02   1.7806E-02   4.2963E-04  0.1046
   1.7806E-02   1.8239E-02   4.2241E-04  0.1044
   1.8239E-02   1.8683E-02   4.5375E-04  0.0995
   1.8683E-02   1.9138E-02   3.4909E-04  0.1121
   1.9138E-02   1.9603E-02   3.7951E-04  0.1062
   1.9603E-02   2.0080E-02   3.9416E-04  0.1031
   2.0080E-02   2.0569E-02   4.1524E-04  0.0991
   2.0569E-02   2.1069E-02   5.0354E-04  0.0891
   2.1069E-02   2.1582E-02   3.1602E-04  0.1111
   2.1582E-02   2.2107E-02   3.9560E-04  0.0978
   2.2107E-02   2.2645E-02   3.8203E-04  0.0984
   2.2645E-02   2.3196E-02   3.3496E-04  0.1040
   2.3196E-02   2.3760E-02   4.0155E-04  0.0936
   2.3760E-02   2.4338E-02   4.2949E-04  0.0897
   2.4338E-02   2.4930E-02   3.0451E-04  0.1052
   2.4930E-02   2.5537E-02   3.4512E-04  0.0976
   2.5537E-02   2.6158E-02   3.4568E-04  0.0964
   2.6158E-02   2.6795E-02   2.8697E-04  0.1045
   2.6795E-02   2.7447E-02   3.4457E-04  0.0942
   2.7447E-02   2.8114E-02   2.9782E-04  0.1001
   2.8114E-02   2.8799E-02   3.3375E-04  0.0935
   2.8799E-02   2.9499E-02   2.9809E-04  0.0977
   2.9499E-02   3.0217E-02   3.4645E-04  0.0894
   3.0217E-02   3.0952E-02   3.0515E-04  0.0944
   3.0952E-02   3.1705E-02   3.3777E-04  0.0886
   3.1705E-02   3.2477E-02   3.0768E-04  0.0916
   3.2477E-02   3.3267E-02   3.0170E-04  0.0913
   3.3267E-02   3.4076E-02   2.7275E-04  0.0950
   3.4076E-02   3.4905E-02   3.0926E-04  0.0881
   3.4905E-02   3.5755E-02   3.1467E-04  0.0863
   3.5755E-02   3.6625E-02   2.8317E-04  0.0901
   3.6625E-02   3.7516E-02   2.5401E-04  0.0939
   3.7516E-02   3.8428E-02   3.1129E-04  0.0837
   3.8428E-02   3.9363E-02   2.6952E-04  0.0891
   3.9363E-02   4.0321E-02   2.3377E-04  0.0938
   4.0321E-02   4.1302E-02   2.6501E-04  0.0875
   4.1302E-02   4.2307E-02   2.8290E-04  0.0837
   4.2307E-02   4.3337E-02   2.2856E-04  0.0921
   4.3337E-02   4.4391E-02   2.6865E-04  0.0839
   4.4391E-02   4.5471E-02   2.3303E-04  0.0890
   4.5471E-02   4.6577E-02   2.5821E-04  0.0835
   4.6577E-02   4.7711E-02   2.4733E-04  0.0843
   4.7711E-02   4.8871E-02   2.5363E-04  0.0824
   4.8871E-02   5.0061E-02   1.8699E-04  0.0948
   5.0061E-02   5.1279E-02   2.2408E-04  0.0855
   5.1279E-02   5.2526E-02   2.4221E-04  0.0811
   5.2526E-02   5.3804E-02   2.4149E-04  0.0804
   5.3804E-02   5.5113E-02   2.1038E-04  0.0851
   5.5113E-02   5.6454E-02   2.1387E-04  0.0833
   5.6454E-02   5.7828E-02   2.0432E-04  0.0841
   5.7828E-02   5.9235E-02   2.3692E-04  0.0774
   5.9235E-02   6.0676E-02   1.8873E-04  0.0855
   6.0676E-02   6.2152E-02   1.8426E-04  0.0855
   6.2152E-02   6.3665E-02   1.9617E-04  0.0820
   6.3665E-02   6.5214E-02   1.8691E-04  0.0830
   6.5214E-02   6.6800E-02   1.8027E-04  0.0834
   6.6800E-02   6.8426E-02   1.9009E-04  0.0804
   6.8426E-02   7.0090E-02   1.8380E-04  0.0807
   7.0090E-02   7.1796E-02   1.7959E-04  0.0806
   7.1796E-02   7.3543E-02   1.6235E-04  0.0838
   7.3543E-02   7.5332E-02   1.6594E-04  0.0818
   7.5332E-02   7.7165E-02   1.8151E-04  0.0774
   7.7165E-02   7.9042E-02   1.6315E-04  0.0806
   7.9042E-02   8.0965E-02   1.5740E-04  0.0812
   8.0965E-02   8.2935E-02   1.5633E-04  0.0804
   8.2935E-02   8.4953E-02   1.6166E-04  0.0781
   8.4953E-02   8.7020E-02   1.6483E-04  0.0764
   8.7020E-02   8.9138E-02   1.5097E-04  0.0789
   8.9138E-02   9.1306E-02   1.3310E-04  0.0832
   9.1306E-02   9.3528E-02   1.4051E-04  0.0799
   9.3528E-02   9.5804E-02   1.4096E-04  0.0787
   9.5804E-02   9.8134E-02   1.6486E-04  0.0721
   9.8134E-02   1.0052E-01   1.4898E-04  0.0749
   1.0052E-01   1.0297E-01   1.5046E-04  0.0737
   1.0297E-01   1.0547E-01   1.3507E-04  0.0767
   1.0547E-01   1.0804E-01   1.4092E-04  0.0743
   1.0804E-01   1.1067E-01   1.3809E-04  0.0741
   1.1067E-01   1.1336E-01   1.2627E-04  0.0765
   1.1336E-01   1.1612E-01   1.0567E-04  0.0825
   1.1612E-01   1.1894E-01   1.2352E-04  0.0756
   1.1894E-01   1.2184E-01   1.3834E-04  0.0705
   1.2184E-01   1.2480E-01   1.2638E-04  0.0729
   1.2480E-01   1.2784E-01   1.2053E-04  0.0738
   1.2784E-01   1.3095E-01   1.2557E-04  0.0715
   1.3095E-01   1.3414E-01   1.0345E-04  0.0777
   1.3414E-01   1.3740E-01   1.1939E-04  0.0715
   1.3740E-01   1.4074E-01   1.1062E-04  0.0733
   1.4074E-01   1.4417E-01   1.0726E-04  0.0737
   1.4417E-01   1.4767E-01   1.1804E-04  0.0694
   1.4767E-01   1.5127E-01   8.5885E-05  0.0804
   1.5127E-01   1.5495E-01   9.1122E-05  0.0769
   1.5495E-01   1.5872E-01   1.0703E-04  0.0701
   1.5872E-01   1.6258E-01   8.8717E-05  0.0762
   1.6258E-01   1.6654E-01   1.0280E-04  0.0701
   1.6654E-01   1.7059E-01   8.8858E-05  0.0743
   1.7059E-01   1.7474E-01   9.1301E-05  0.0725
   1.7474E-01   1.7899E-01   8.3191E-05  0.0751
   1.7899E-01   1.8334E-01   8.4714E-05  0.0735
   1.8334E-01   1.8781E-01   7.7307E-05  0.0761
   1.8781E-01   1.9237E-01   8.1920E-05  0.0731
   1.9237E-01   1.9706E-01   8.6850E-05  0.0700
   1.9706E-01   2.0185E-01   7.4302E-05  0.0748
   2.0185E-01   2.0676E-01   7.6720E-05  0.0727
   2.0676E-01   2.1179E-01   8.5634E-05  0.0680
   2.1179E-01   2.1694E-01   9.3410E-05  0.0642
   2.1694E-01   2.2222E-01   9.1563E-05  0.0643
   2.2222E-01   2.2763E-01   8.7722E-05  0.0648
   2.2763E-01   2.3317E-01   1.0384E-04  0.0588
   2.3317E-01   2.3884E-01   1.0058E-04  0.0591
   2.3884E-01   2.4465E-01   9.5489E-05  0.0599
   2.4465E-01   2.5061E-01   1.0857E-04  0.0556
   2.5061E-01   2.5670E-01   1.1175E-04  0.0541
   2.5670E-01   2.6295E-01   1.1820E-04  0.0520
   2.6295E-01   2.6935E-01   1.1501E-04  0.0520
   2.6935E-01   2.7590E-01   1.1230E-04  0.0520
   2.7590E-01   2.8261E-01   1.2116E-04  0.0495
   2.8261E-01   2.8949E-01   1.2081E-04  0.0489
   2.8949E-01   2.9653E-01   1.2999E-04  0.0466
   2.9653E-01   3.0375E-01   1.3800E-04  0.0447
   3.0375E-01   3.1114E-01   1.3044E-04  0.0454
   3.1114E-01   3.1871E-01   1.3251E-04  0.0446
   3.1871E-01   3.2646E-01   1.4173E-04  0.0425
   3.2646E-01   3.3441E-01   1.4986E-04  0.0409
   3.3441E-01   3.4254E-01   1.5252E-04  0.0401
   3.4254E-01   3.5088E-01   1.5842E-04  0.0388
   3.5088E-01   3.5941E-01   1.6339E-04  0.0377
   3.5941E-01   3.6816E-01   1.6311E-04  0.0374
   3.6816E-01   3.7712E-01   1.7286E-04  0.0359
   3.7712E-01   3.8629E-01   1.6803E-04  0.0359
   3.8629E-01   3.9569E-01   1.8196E-04  0.0341
   3.9569E-01   4.0532E-01   1.9888E-04  0.0323
   4.0532E-01   4.1518E-01   1.8724E-04  0.0328
   4.1518E-01   4.2528E-01   1.8944E-04  0.0322
   4.2528E-01   4.3563E-01   1.9074E-04  0.0318
   4.3563E-01   4.4623E-01   1.9619E-04  0.0310
   4.4623E-01   4.5708E-01   2.0453E-04  0.0299
   4.5708E-01   4.6821E-01   2.1091E-04  0.0291
   4.6821E-01   4.7960E-01   2.1545E-04  0.0285
   4.7960E-01   4.9127E-01   2.2288E-04  0.0277
   4.9127E-01   5.0322E-01   2.1861E-04  0.0276
   5.0322E-01   5.1546E-01   2.3690E-04  0.0262
   5.1546E-01   5.2800E-01   2.2862E-04  0.0263
   5.2800E-01   5.4085E-01   2.2814E-04  0.0261
   5.4085E-01   5.5401E-01   2.5016E-04  0.0246
   5.5401E-01   5.6749E-01   2.4931E-04  0.0243
   5.6749E-01   5.8130E-01   2.4021E-04  0.0245
   5.8130E-01   5.9544E-01   2.6616E-04  0.0230
   5.9544E-01   6.0993E-01   2.6164E-04  0.0229
   6.0993E-01   6.2477E-01   2.6869E-04  0.0223
   6.2477E-01   6.3997E-01   2.7534E-04  0.0218
   6.3997E-01   6.5554E-01   2.7449E-04  0.0216
   6.5554E-01   6.7149E-01   2.7061E-04  0.0215
   6.7149E-01   6.8783E-01   2.7171E-04  0.0212
   6.8783E-01   7.0456E-01   2.8517E-04  0.0204
   7.0456E-01   7.2171E-01   2.8367E-04  0.0202
   7.2171E-01   7.3927E-01   2.9411E-04  0.0196
   7.3927E-01   7.5725E-01   2.9468E-04  0.0194
   7.5725E-01   7.7568E-01   2.8935E-04  0.0193
   7.7568E-01   7.9455E-01   3.0279E-04  0.0187
   7.9455E-01   8.1388E-01   3.0411E-04  0.0184
   8.1388E-01   8.3368E-01   3.0858E-04  0.0180
   8.3368E-01   8.5397E-01   3.0603E-04  0.0179
   8.5397E-01   8.7475E-01   3.1784E-04  0.0174
   8.7475E-01   8.9603E-01   3.2090E-04  0.0171
   8.9603E-01   9.1783E-01   3.1032E-04  0.0171
   9.1783E-01   9.4016E-01   3.2900E-04  0.0165
   9.4016E-01   9.6304E-01   3.3093E-04  0.0162
   9.6304E-01   9.8647E-01   3.2094E-04  0.0163
   9.8647E-01   1.0105E+00   3.2991E-04  0.0159
   1.0105E+00   1.0351E+00   3.3077E-04  0.0156
   1.0351E+00   1.0602E+00   3.2647E-04  0.0156
   1.0602E+00   1.0860E+00   3.3516E-04  0.0152
   1.0860E+00   1.1125E+00   3.1672E-04  0.0154
   1.1125E+00   1.1395E+00   3.3141E-04  0.0149
   1.1395E+00   1.1673E+00   3.2860E-04  0.0148
   1.1673E+00   1.1957E+00   3.3945E-04  0.0144
   1.1957E+00   1.2247E+00   3.3233E-04  0.0143
   1.2247E+00   1.2545E+00   3.3628E-04  0.0141
   1.2545E+00   1.2851E+00   3.3002E-04  0.0140
   1.2851E+00   1.3163E+00   3.3878E-04  0.0137
   1.3163E+00   1.3484E+00   3.3330E-04  0.0136
   1.3484E+00   1.3812E+00   3.4127E-04  0.0133
   1.3812E+00   1.4148E+00   3.3061E-04  0.0134
   1.4148E+00   1.4492E+00   3.4562E-04  0.0129
   1.4492E+00   1.4845E+00   3.4056E-04  0.0129
   1.4845E+00   1.5206E+00   3.4582E-04  0.0126
   1.5206E+00   1.5576E+00   3.4194E-04  0.0125
   1.5576E+00   1.5955E+00   3.3680E-04  0.0125
   1.5955E+00   1.6343E+00   3.3303E-04  0.0124
   1.6343E+00   1.6741E+00   3.3433E-04  0.0122
   1.6741E+00   1.7148E+00   3.3493E-04  0.0121
   1.7148E+00   1.7565E+00   3.3001E-04  0.0120
   1.7565E+00   1.7992E+00   3.3007E-04  0.0119
   1.7992E+00   1.8430E+00   3.2127E-04  0.0119
   1.8430E+00   1.8879E+00   3.2779E-04  0.0116
   1.8879E+00   1.9338E+00   3.2258E-04  0.0116
   1.9338E+00   1.9808E+00   3.2686E-04  0.0114
   1.9808E+00   2.0290E+00   3.2063E-04  0.0113
   2.0290E+00   2.0784E+00   3.1650E-04  0.0113
   2.0784E+00   2.1290E+00   3.1856E-04  0.0111
   2.1290E+00   2.1808E+00   3.1600E-04  0.0110
   2.1808E+00   2.2338E+00   3.1617E-04  0.0109
   2.2338E+00   2.2882E+00   3.1419E-04  0.0108
   2.2882E+00   2.3439E+00   3.0522E-04  0.0108
   2.3439E+00   2.4009E+00   3.1374E-04  0.0105
   2.4009E+00   2.4593E+00   3.0142E-04  0.0106
   2.4593E+00   2.5191E+00   3.0882E-04  0.0104
   2.5191E+00   2.5804E+00   2.9800E-04  0.0104
   2.5804E+00   2.6432E+00   3.0016E-04  0.0103
   2.6432E+00   2.7075E+00   3.0008E-04  0.0101
   2.7075E+00   2.7734E+00   2.9201E-04  0.0102
   2.7734E+00   2.8409E+00   2.9070E-04  0.0101
   2.8409E+00   2.9100E+00   2.8948E-04  0.0100
   2.9100E+00   2.9808E+00   2.8894E-04  0.0099
   2.9808E+00   3.0533E+00   2.8265E-04  0.0098
   3.0533E+00   3.1276E+00   2.7896E-04  0.0098
   3.1276E+00   3.2037E+00   2.7681E-04  0.0097
   3.2037E+00   3.2817E+00   2.6848E-04  0.0097
   3.2817E+00   3.3615E+00   2.6990E-04  0.0096
   3.3615E+00   3.4433E+00   2.6058E-04  0.0097
   3.4433E+00   3.5271E+00   2.6199E-04  0.0095
   3.5271E+00   3.6129E+00   2.5770E-04  0.0095
   3.6129E+00   3.7008E+00   2.4961E-04  0.0095
   3.7008E+00   3.7908E+00   2.5115E-04  0.0094
   3.7908E+00   3.8831E+00   2.4661E-04  0.0093
   3.8831E+00   3.9776E+00   2.4547E-04  0.0093
   3.9776E+00   4.0743E+00   2.4320E-04  0.0092
   4.0743E+00   4.1735E+00   2.3686E-04  0.0092
   4.1735E+00   4.2750E+00   2.3214E-04  0.0092
   4.2750E+00   4.3790E+00   2.3162E-04  0.0091
   4.3790E+00   4.4856E+00   2.2587E-04  0.0091
   4.4856E+00   4.5947E+00   2.2724E-04  0.0090
   4.5947E+00   4.7065E+00   2.2512E-04  0.0089
   4.7065E+00   4.8210E+00   2.2521E-04  0.0088
   4.8210E+00   4.9383E+00   2.1879E-04  0.0088
   4.9383E+00   5.0585E+00   2.1364E-04  0.0088
   5.0585E+00   5.1815E+00   2.1157E-04  0.0087
   5.1815E+00   5.3076E+00   2.0618E-04  0.0088
   5.3076E+00   5.4368E+00   1.9984E-04  0.0088
   5.4368E+00   5.5690E+00   1.9434E-04  0.0088
   5.5690E+00   5.7045E+00   1.9190E-04  0.0087
   5.7045E+00   5.8433E+00   1.8943E-04  0.0087
   5.8433E+00   5.9855E+00   1.8295E-04  0.0087
   5.9855E+00   6.1311E+00   1.8091E-04  0.0087
   6.1311E+00   6.2803E+00   1.7778E-04  0.0087
   6.2803E+00   6.4331E+00   1.7656E-04  0.0086
   6.4331E+00   6.5896E+00   1.7293E-04  0.0086
   6.5896E+00   6.7500E+00   1.7118E-04  0.0085
   6.7500E+00   6.9142E+00   1.6561E-04  0.0086
   6.9142E+00   7.0824E+00   1.6541E-04  0.0085
   7.0824E+00   7.2548E+00   1.6161E-04  0.0085
   7.2548E+00   7.4313E+00   1.5908E-04  0.0084
   7.4313E+00   7.6121E+00   1.5999E-04  0.0083
   7.6121E+00   7.7973E+00   1.5494E-04  0.0083
   7.7973E+00   7.9870E+00   1.5238E-04  0.0083
   7.9870E+00   8.1813E+00   1.4881E-04  0.0083
   8.1813E+00   8.3804E+00   1.4695E-04  0.0083
   8.3804E+00   8.5843E+00   1.4325E-04  0.0083
   8.5843E+00   8.7931E+00   1.4078E-04  0.0082
   8.7931E+00   9.0071E+00   1.3710E-04  0.0082
   9.0071E+00   9.2262E+00   1.3290E-04  0.0083
   9.2262E+00   9.4507E+00   1.2927E-04  0.0083
   9.4507E+00   9.6807E+00   1.2615E-04  0.0083
   9.6807E+00   9.9162E+00   1.2171E-04  0.0083
   9.9162E+00   1.0157E+01   1.1716E-04  0.0084
   1.0157E+01   1.0405E+01   1.1471E-04  0.0084
   1.0405E+01   1.0658E+01   1.1202E-04  0.0084
   1.0658E+01   1.0917E+01   1.0870E-04  0.0084
   1.0917E+01   1.1183E+01   1.0848E-04  0.0083
   1.1183E+01   1.1455E+01   1.0545E-04  0.0083
   1.1455E+01   1.1733E+01   1.0203E-04  0.0084
   1.1733E+01   1.2019E+01   9.9621E-05  0.0084
   1.2019E+01   1.2311E+01   9.5655E-05  0.0085
   1.2311E+01   1.2611E+01   9.3234E-05  0.0085
   1.2611E+01   1.2918E+01   9.1098E-05  0.0085
   1.2918E+01   1.3232E+01   8.7802E-05  0.0085
   1.3232E+01   1.3554E+01   8.5224E-05  0.0085
   1.3554E+01   1.3884E+01   8.1304E-05  0.0086
   1.3884E+01   1.4222E+01   7.9810E-05  0.0086
   1.4222E+01   1.4568E+01   7.4701E-05  0.0088
   1.4568E+01   1.4922E+01   7.2048E-05  0.0088
   1.4922E+01   1.5285E+01   6.9440E-05  0.0089
   1.5285E+01   1.5657E+01   6.7942E-05  0.0089
   1.5657E+01   1.6038E+01   6.5091E-05  0.0090
   1.6038E+01   1.6428E+01   6.2082E-05  0.0091
   1.6428E+01   1.6828E+01   5.9179E-05  0.0092
   1.6828E+01   1.7237E+01   5.6040E-05  0.0093
   1.7237E+01   1.7657E+01   5.3363E-05  0.0095
   1.7657E+01   1.8086E+01   5.0290E-05  0.0096
   1.8086E+01   1.8526E+01   4.9146E-05  0.0096
   1.8526E+01   1.8977E+01   4.6225E-05  0.0098
   1.8977E+01   1.9439E+01   4.3502E-05  0.0100
   1.9439E+01   1.9912E+01   4.2168E-05  0.0100
   1.9912E+01   2.0396E+01   3.9578E-05  0.0102
   2.0396E+01   2.0893E+01   3.5764E-05  0.0106
   2.0893E+01   2.1401E+01   3.4631E-05  0.0107
   2.1401E+01   2.1922E+01   3.2226E-05  0.0109
   2.1922E+01   2.2455E+01   2.9983E-05  0.0112
   2.2455E+01   2.3001E+01   2.9033E-05  0.0112
   2.3001E+01   2.3561E+01   2.6542E-05  0.0116
   2.3561E+01   2.4134E+01   2.4045E-05  0.0120
   2.4134E+01   2.4721E+01   2.2333E-05  0.0123
   2.4721E+01   2.5323E+01   2.0190E-05  0.0128
   2.5323E+01   2.5939E+01   1.8321E-05  0.0133
   2.5939E+01   2.6570E+01   1.6301E-05  0.0139
   2.6570E+01   2.7217E+01   1.5614E-05  0.0141
   2.7217E+01   2.7879E+01   1.3594E-05  0.0149
   2.7879E+01   2.8557E+01   1.2652E-05  0.0153
   2.8557E+01   2.9252E+01   1.1312E-05  0.0160
   2.9252E+01   2.9964E+01   1.0001E-05  0.0168
   2.9964E+01   3.0693E+01   9.4480E-06  0.0170
   3.0693E+01   3.1440E+01   8.4335E-06  0.0178
   3.1440E+01   3.2205E+01   8.0005E-06  0.0181
   3.2205E+01   3.2988E+01   7.1698E-06  0.0189
   3.2988E+01   3.3791E+01   6.8600E-06  0.0191
   3.3791E+01   3.4613E+01   6.3054E-06  0.0196
   3.4613E+01   3.5455E+01   5.7994E-06  0.0202
   3.5455E+01   3.6318E+01   5.5179E-06  0.0205
   3.6318E+01   3.7201E+01   5.0202E-06  0.0212
   3.7201E+01   3.8106E+01   4.5695E-06  0.0220
   3.8106E+01   3.9034E+01   4.2344E-06  0.0226
   3.9034E+01   3.9983E+01   3.9675E-06  0.0230
   3.9983E+01   4.0956E+01   3.4580E-06  0.0244
   4.0956E+01   4.1953E+01   3.0928E-06  0.0255
   4.1953E+01   4.2973E+01   2.3277E-06  0.0290
   4.2973E+01   4.4019E+01   2.1290E-06  0.0300
   4.4019E+01   4.5090E+01   1.9085E-06  0.0313
   4.5090E+01   4.6187E+01   1.9124E-06  0.0309
   4.6187E+01   4.7311E+01   1.7815E-06  0.0316
   4.7311E+01   4.8462E+01   1.3378E-06  0.0360
   4.8462E+01   4.9641E+01   1.1025E-06  0.0392
   4.9641E+01   5.0849E+01   7.0044E-07  0.0486
   5.0849E+01   5.2086E+01   4.2677E-07  0.0615
   5.2086E+01   5.3353E+01   1.5308E-07  0.1015
   5.3353E+01   5.4651E+01   2.3110E-08  0.2582
   5.4651E+01   5.5981E+01   1.3537E-08  0.3333
   5.5981E+01   5.7343E+01   8.8101E-09  0.4082
   5.7343E+01   5.8738E+01   2.8670E-09  0.7071
   5.8738E+01   6.0168E+01   0.0000E+00  0.0000
   6.0168E+01   6.1632E+01   1.3662E-09  1.0000
   6.1632E+01   6.3131E+01   0.0000E+00  0.0000
   6.3131E+01   6.4667E+01   0.0000E+00  0.0000
   6.4667E+01   6.6240E+01   0.0000E+00  0.0000
   6.6240E+01   6.7852E+01   0.0000E+00  0.0000
   6.7852E+01   6.9503E+01   0.0000E+00  0.0000
   6.9503E+01   7.1194E+01   0.0000E+00  0.0000
   7.1194E+01   7.2926E+01   0.0000E+00  0.0000
   7.2926E+01   7.4701E+01   0.0000E+00  0.0000
   7.4701E+01   7.6518E+01   0.0000E+00  0.0000
   7.6518E+01   7.8380E+01   0.0000E+00  0.0000
   7.8380E+01   8.0287E+01   0.0000E+00  0.0000
   8.0287E+01   8.2240E+01   0.0000E+00  0.0000
   8.2240E+01   8.4241E+01   0.0000E+00  0.0000
   8.4241E+01   8.6291E+01   0.0000E+00  0.0000
   8.6291E+01   8.8391E+01   0.0000E+00  0.0000
   8.8391E+01   9.0541E+01   0.0000E+00  0.0000
   9.0541E+01   9.2744E+01   0.0000E+00  0.0000
   9.2744E+01   9.5001E+01   0.0000E+00  0.0000
   9.5001E+01   9.7312E+01   0.0000E+00  0.0000
   9.7312E+01   9.9680E+01   0.0000E+00  0.0000
   9.9680E+01   1.0211E+02   0.0000E+00  0.0000
   1.0211E+02   1.0459E+02   0.0000E+00  0.0000
   1.0459E+02   1.0713E+02   0.0000E+00  0.0000
   1.0713E+02   1.0974E+02   0.0000E+00  0.0000
   1.0974E+02   1.1241E+02   0.0000E+00  0.0000
   1.1241E+02   1.1515E+02   0.0000E+00  0.0000
   1.1515E+02   1.1795E+02   0.0000E+00  0.0000
   1.1795E+02   1.2082E+02   0.0000E+00  0.0000
   1.2082E+02   1.2376E+02   0.0000E+00  0.0000
   1.2376E+02   1.2677E+02   0.0000E+00  0.0000
   1.2677E+02   1.2985E+02   0.0000E+00  0.0000
   1.2985E+02   1.3301E+02   0.0000E+00  0.0000
   1.3301E+02   1.3625E+02   0.0000E+00  0.0000
   1.3625E+02   1.3956E+02   0.0000E+00  0.0000
   1.3956E+02   1.4296E+02   0.0000E+00  0.0000
   1.4296E+02   1.4644E+02   0.0000E+00  0.0000
   1.4644E+02   1.5000E+02   0.0000E+00  0.0000

#   sum over                 2.1241E-05
'no. =    1   reg = 111 - 211'
msuc: {\huge [t-cross] in region mesh}
msdr: {\it plotted by \ANGEL \version}
msdl: {\it calculated by \PHITS  3.26}
wt: s(0.7)
\vspace{-3}
  region surface crossing
  area  &=&   1.0000E+00 [cm^2]
e:
 
# Information for Restart Calculation
# This calculation was newly started
# istdev =  2 # 1:Batch variance, 2:History variance
# resc2  = 5.00000000000000000E+08 # Total source weight or Total source weight / maxcas
# resc3  = 5.00000000000000000E+08 # Total history number or Total batch number
# maxcas =   500000000 # History / Batch, only used for istdev=1
# bitrseed = 1101101111010011011000101101110001100110110010110001010100010001 # bit data of rseed
