[ T-Cross ]
    title = [t-cross] in region mesh
     mesh =  reg            # mesh type is region-wise
      reg =    1            # number of crossing regions
      non     r-from    r-to       area
      1       114       214        1.000000    
   e-type =    3            # e-mesh is log given by emin, emax and ne
     emin =  1.0000000E-02  # minimum value of e-mesh points
     emax =   150.0000      # maximum value of e-mesh points
#    edel =  2.4039514E-02  # mesh width of e-mesh points
       ne =    400          # number of e-mesh points
#    data = ( e(i), i = 1, ne + 1 )
#           1.00000E-02  1.02433E-02  1.04925E-02  1.07478E-02  1.10093E-02
#           1.12772E-02  1.15516E-02  1.18326E-02  1.21205E-02  1.24154E-02
#           1.27175E-02  1.30269E-02  1.33439E-02  1.36686E-02  1.40011E-02
#           1.43418E-02  1.46907E-02  1.50482E-02  1.54143E-02  1.57894E-02
#           1.61735E-02  1.65670E-02  1.69701E-02  1.73830E-02  1.78060E-02
#           1.82392E-02  1.86830E-02  1.91375E-02  1.96032E-02  2.00801E-02
#           2.05687E-02  2.10692E-02  2.15818E-02  2.21069E-02  2.26448E-02
#           2.31957E-02  2.37601E-02  2.43382E-02  2.49304E-02  2.55369E-02
#           2.61583E-02  2.67947E-02  2.74467E-02  2.81145E-02  2.87985E-02
#           2.94992E-02  3.02169E-02  3.09521E-02  3.17052E-02  3.24766E-02
#           3.32668E-02  3.40762E-02  3.49053E-02  3.57546E-02  3.66246E-02
#           3.75157E-02  3.84284E-02  3.93634E-02  4.03212E-02  4.13022E-02
#           4.23071E-02  4.33365E-02  4.43909E-02  4.54710E-02  4.65773E-02
#           4.77106E-02  4.88714E-02  5.00605E-02  5.12785E-02  5.25262E-02
#           5.38042E-02  5.51133E-02  5.64542E-02  5.78278E-02  5.92348E-02
#           6.06760E-02  6.21523E-02  6.36645E-02  6.52135E-02  6.68002E-02
#           6.84255E-02  7.00904E-02  7.17957E-02  7.35426E-02  7.53319E-02
#           7.71648E-02  7.90423E-02  8.09655E-02  8.29354E-02  8.49533E-02
#           8.70203E-02  8.91376E-02  9.13064E-02  9.35279E-02  9.58035E-02
#           9.81345E-02  1.00522E-01  1.02968E-01  1.05473E-01  1.08040E-01
#           1.10668E-01  1.13361E-01  1.16119E-01  1.18944E-01  1.21838E-01
#           1.24803E-01  1.27839E-01  1.30950E-01  1.34136E-01  1.37399E-01
#           1.40742E-01  1.44167E-01  1.47675E-01  1.51268E-01  1.54948E-01
#           1.58718E-01  1.62580E-01  1.66535E-01  1.70587E-01  1.74738E-01
#           1.78989E-01  1.83344E-01  1.87805E-01  1.92375E-01  1.97055E-01
#           2.01850E-01  2.06761E-01  2.11792E-01  2.16945E-01  2.22223E-01
#           2.27630E-01  2.33169E-01  2.38842E-01  2.44653E-01  2.50605E-01
#           2.56703E-01  2.62949E-01  2.69346E-01  2.75900E-01  2.82613E-01
#           2.89489E-01  2.96532E-01  3.03747E-01  3.11138E-01  3.18708E-01
#           3.26462E-01  3.34405E-01  3.42542E-01  3.50876E-01  3.59413E-01
#           3.68158E-01  3.77116E-01  3.86291E-01  3.95690E-01  4.05317E-01
#           4.15179E-01  4.25281E-01  4.35628E-01  4.46227E-01  4.57084E-01
#           4.68205E-01  4.79597E-01  4.91266E-01  5.03219E-01  5.15463E-01
#           5.28005E-01  5.40851E-01  5.54011E-01  5.67490E-01  5.81298E-01
#           5.95441E-01  6.09929E-01  6.24769E-01  6.39970E-01  6.55541E-01
#           6.71491E-01  6.87828E-01  7.04564E-01  7.21706E-01  7.39266E-01
#           7.57253E-01  7.75678E-01  7.94551E-01  8.13883E-01  8.33685E-01
#           8.53969E-01  8.74747E-01  8.96030E-01  9.17831E-01  9.40163E-01
#           9.63038E-01  9.86469E-01  1.01047E+00  1.03506E+00  1.06024E+00
#           1.08604E+00  1.11246E+00  1.13953E+00  1.16725E+00  1.19565E+00
#           1.22474E+00  1.25454E+00  1.28507E+00  1.31633E+00  1.34836E+00
#           1.38117E+00  1.41477E+00  1.44920E+00  1.48446E+00  1.52057E+00
#           1.55757E+00  1.59547E+00  1.63429E+00  1.67405E+00  1.71478E+00
#           1.75650E+00  1.79924E+00  1.84302E+00  1.88786E+00  1.93379E+00
#           1.98084E+00  2.02904E+00  2.07841E+00  2.12898E+00  2.18078E+00
#           2.23384E+00  2.28819E+00  2.34386E+00  2.40089E+00  2.45930E+00
#           2.51914E+00  2.58043E+00  2.64322E+00  2.70753E+00  2.77341E+00
#           2.84088E+00  2.91001E+00  2.98081E+00  3.05333E+00  3.12762E+00
#           3.20372E+00  3.28167E+00  3.36152E+00  3.44330E+00  3.52708E+00
#           3.61290E+00  3.70080E+00  3.79085E+00  3.88308E+00  3.97756E+00
#           4.07434E+00  4.17347E+00  4.27501E+00  4.37903E+00  4.48557E+00
#           4.59471E+00  4.70650E+00  4.82102E+00  4.93832E+00  5.05847E+00
#           5.18155E+00  5.30762E+00  5.43676E+00  5.56904E+00  5.70453E+00
#           5.84333E+00  5.98550E+00  6.13114E+00  6.28031E+00  6.43312E+00
#           6.58964E+00  6.74997E+00  6.91420E+00  7.08243E+00  7.25475E+00
#           7.43126E+00  7.61207E+00  7.79728E+00  7.98700E+00  8.18133E+00
#           8.38038E+00  8.58428E+00  8.79315E+00  9.00709E+00  9.22624E+00
#           9.45072E+00  9.68067E+00  9.91620E+00  1.01575E+01  1.04046E+01
#           1.06578E+01  1.09171E+01  1.11827E+01  1.14548E+01  1.17335E+01
#           1.20190E+01  1.23114E+01  1.26109E+01  1.29178E+01  1.32321E+01
#           1.35540E+01  1.38838E+01  1.42216E+01  1.45676E+01  1.49221E+01
#           1.52851E+01  1.56570E+01  1.60380E+01  1.64282E+01  1.68279E+01
#           1.72374E+01  1.76568E+01  1.80864E+01  1.85264E+01  1.89772E+01
#           1.94389E+01  1.99119E+01  2.03963E+01  2.08926E+01  2.14009E+01
#           2.19216E+01  2.24550E+01  2.30014E+01  2.35610E+01  2.41343E+01
#           2.47215E+01  2.53230E+01  2.59391E+01  2.65702E+01  2.72167E+01
#           2.78789E+01  2.85572E+01  2.92520E+01  2.99637E+01  3.06928E+01
#           3.14396E+01  3.22045E+01  3.29881E+01  3.37907E+01  3.46128E+01
#           3.54550E+01  3.63177E+01  3.72013E+01  3.81064E+01  3.90336E+01
#           3.99833E+01  4.09561E+01  4.19526E+01  4.29734E+01  4.40189E+01
#           4.50900E+01  4.61870E+01  4.73108E+01  4.84619E+01  4.96410E+01
#           5.08488E+01  5.20860E+01  5.33533E+01  5.46514E+01  5.59812E+01
#           5.73432E+01  5.87384E+01  6.01676E+01  6.16315E+01  6.31311E+01
#           6.46671E+01  6.62405E+01  6.78522E+01  6.95031E+01  7.11941E+01
#           7.29263E+01  7.47007E+01  7.65182E+01  7.83800E+01  8.02870E+01
#           8.22405E+01  8.42414E+01  8.62911E+01  8.83906E+01  9.05412E+01
#           9.27442E+01  9.50007E+01  9.73122E+01  9.96799E+01  1.02105E+02
#           1.04589E+02  1.07134E+02  1.09741E+02  1.12411E+02  1.15146E+02
#           1.17948E+02  1.20817E+02  1.23757E+02  1.26768E+02  1.29852E+02
#           1.33012E+02  1.36248E+02  1.39563E+02  1.42959E+02  1.46437E+02
#           1.50000E+02
     unit =    2            # unit is [1/cm^2/(MeV/n)/source]
     axis =  eng            # axis of output
     file = detector-15.out  # file name of output for the above axis
   output = f-curr          # surface crossing forward current spectrum
     part =  neutron  
# kf/name :  2112     
#    used :        main (  %)        temp (  %)       total (  %)
#  memory :         414 (  0)           0 (  0)         414 (  0)

#------------------------------------------------------------------------------
#newpage:
#   no. =    1   reg = 114 - 214

x: Energy [MeV/n]
y:  F-Curr [1/cm^2/(MeV/n)/source]         
p: xlog ylog afac(0.8) form(0.9)
h: n            x            y(neutron ),hh0l   n 
#  e-lower      e-upper      neutron     r.err 
   1.0000E-02   1.0243E-02   2.3130E-04  0.0873
   1.0243E-02   1.0493E-02   1.9633E-04  0.0938
   1.0493E-02   1.0748E-02   2.0241E-04  0.0913
   1.0748E-02   1.1009E-02   1.7528E-04  0.0968
   1.1009E-02   1.1277E-02   1.8293E-04  0.0938
   1.1277E-02   1.1552E-02   1.9970E-04  0.0888
   1.1552E-02   1.1833E-02   1.8353E-04  0.0913
   1.1833E-02   1.2121E-02   2.0068E-04  0.0864
   1.2121E-02   1.2415E-02   1.6798E-04  0.0931
   1.2415E-02   1.2718E-02   1.6679E-04  0.0924
   1.2718E-02   1.3027E-02   1.4419E-04  0.0985
   1.3027E-02   1.3344E-02   1.6170E-04  0.0915
   1.3344E-02   1.3669E-02   1.6738E-04  0.0891
   1.3669E-02   1.4001E-02   1.5676E-04  0.0909
   1.4001E-02   1.4342E-02   1.4458E-04  0.0935
   1.4342E-02   1.4691E-02   1.8805E-04  0.0811
   1.4691E-02   1.5048E-02   1.4403E-04  0.0914
   1.5048E-02   1.5414E-02   1.3956E-04  0.0917
   1.5414E-02   1.5789E-02   1.4171E-04  0.0902
   1.5789E-02   1.6174E-02   1.4014E-04  0.0895
   1.6174E-02   1.6567E-02   1.6671E-04  0.0810
   1.6567E-02   1.6970E-02   1.3751E-04  0.0884
   1.6970E-02   1.7383E-02   1.3315E-04  0.0886
   1.7383E-02   1.7806E-02   1.3665E-04  0.0862
   1.7806E-02   1.8239E-02   1.1449E-04  0.0929
   1.8239E-02   1.8683E-02   1.2568E-04  0.0881
   1.8683E-02   1.9138E-02   1.1743E-04  0.0897
   1.9138E-02   1.9603E-02   1.2465E-04  0.0864
   1.9603E-02   2.0080E-02   9.7391E-05  0.0961
   2.0080E-02   2.0569E-02   1.1237E-04  0.0885
   2.0569E-02   2.1069E-02   9.2515E-05  0.0967
   2.1069E-02   2.1582E-02   1.0780E-04  0.0884
   2.1582E-02   2.2107E-02   9.2873E-05  0.0941
   2.2107E-02   2.2645E-02   1.1473E-04  0.0837
   2.2645E-02   2.3196E-02   9.9724E-05  0.0886
   2.3196E-02   2.3760E-02   1.0989E-04  0.0834
   2.3760E-02   2.4338E-02   8.8831E-05  0.0915
   2.4338E-02   2.4930E-02   9.0043E-05  0.0899
   2.4930E-02   2.5537E-02   7.5273E-05  0.0972
   2.5537E-02   2.6158E-02   8.3018E-05  0.0913
   2.6158E-02   2.6795E-02   8.1991E-05  0.0909
   2.6795E-02   2.7447E-02   7.9932E-05  0.0909
   2.7447E-02   2.8114E-02   8.4139E-05  0.0877
   2.8114E-02   2.8799E-02   7.1042E-05  0.0938
   2.8799E-02   2.9499E-02   7.3197E-05  0.0918
   2.9499E-02   3.0217E-02   7.7906E-05  0.0879
   3.0217E-02   3.0952E-02   7.6189E-05  0.0877
   3.0952E-02   3.1705E-02   6.8488E-05  0.0916
   3.1705E-02   3.2477E-02   6.4782E-05  0.0928
   3.2477E-02   3.3267E-02   7.1167E-05  0.0876
   3.3267E-02   3.4076E-02   7.2736E-05  0.0855
   3.4076E-02   3.4905E-02   7.5821E-05  0.0828
   3.4905E-02   3.5755E-02   6.4316E-05  0.0887
   3.5755E-02   3.6625E-02   5.7590E-05  0.0929
   3.6625E-02   3.7516E-02   5.7774E-05  0.0915
   3.7516E-02   3.8428E-02   6.4351E-05  0.0857
   3.8428E-02   3.9363E-02   6.8190E-05  0.0819
   3.9363E-02   4.0321E-02   5.9340E-05  0.0872
   4.0321E-02   4.1302E-02   5.8190E-05  0.0867
   4.1302E-02   4.2307E-02   5.1693E-05  0.0911
   4.2307E-02   4.3337E-02   5.2495E-05  0.0894
   4.3337E-02   4.4391E-02   5.6585E-05  0.0849
   4.4391E-02   4.5471E-02   5.8360E-05  0.0827
   4.5471E-02   4.6577E-02   4.7537E-05  0.0906
   4.6577E-02   4.7711E-02   5.1510E-05  0.0858
   4.7711E-02   4.8871E-02   5.1054E-05  0.0854
   4.8871E-02   5.0061E-02   4.2924E-05  0.0919
   5.0061E-02   5.1279E-02   5.1678E-05  0.0829
   5.1279E-02   5.2526E-02   5.0881E-05  0.0823
   5.2526E-02   5.3804E-02   5.0980E-05  0.0815
   5.3804E-02   5.5113E-02   4.5755E-05  0.0848
   5.5113E-02   5.6454E-02   4.8144E-05  0.0818
   5.6454E-02   5.7828E-02   4.3443E-05  0.0849
   5.7828E-02   5.9235E-02   3.9857E-05  0.0875
   5.9235E-02   6.0676E-02   3.8742E-05  0.0878
   6.0676E-02   6.2152E-02   4.0480E-05  0.0849
   6.2152E-02   6.3665E-02   4.6231E-05  0.0786
   6.3665E-02   6.5214E-02   3.4927E-05  0.0891
   6.5214E-02   6.6800E-02   3.3985E-05  0.0895
   6.6800E-02   6.8426E-02   4.0240E-05  0.0813
   6.8426E-02   7.0090E-02   3.7073E-05  0.0836
   7.0090E-02   7.1796E-02   3.9544E-05  0.0798
   7.1796E-02   7.3543E-02   3.8186E-05  0.0803
   7.3543E-02   7.5332E-02   3.1827E-05  0.0868
   7.5332E-02   7.7165E-02   3.4068E-05  0.0829
   7.7165E-02   7.9042E-02   3.4781E-05  0.0811
   7.9042E-02   8.0965E-02   3.3095E-05  0.0825
   8.0965E-02   8.2935E-02   3.1994E-05  0.0827
   8.2935E-02   8.4953E-02   3.6718E-05  0.0763
   8.4953E-02   8.7020E-02   2.9672E-05  0.0836
   8.7020E-02   8.9138E-02   3.4976E-05  0.0764
   8.9138E-02   9.1306E-02   3.5732E-05  0.0747
   9.1306E-02   9.3528E-02   2.9893E-05  0.0806
   9.3528E-02   9.5804E-02   3.4941E-05  0.0737
   9.5804E-02   9.8134E-02   3.1645E-05  0.0763
   9.8134E-02   1.0052E-01   3.2091E-05  0.0750
   1.0052E-01   1.0297E-01   3.1662E-05  0.0745
   1.0297E-01   1.0547E-01   3.1714E-05  0.0737
   1.0547E-01   1.0804E-01   3.4620E-05  0.0695
   1.0804E-01   1.1067E-01   3.9358E-05  0.0646
   1.1067E-01   1.1336E-01   3.3163E-05  0.0695
   1.1336E-01   1.1612E-01   3.7688E-05  0.0644
   1.1612E-01   1.1894E-01   3.7529E-05  0.0637
   1.1894E-01   1.2184E-01   3.7914E-05  0.0627
   1.2184E-01   1.2480E-01   4.1479E-05  0.0591
   1.2480E-01   1.2784E-01   4.6272E-05  0.0554
   1.2784E-01   1.3095E-01   4.8005E-05  0.0537
   1.3095E-01   1.3414E-01   4.8960E-05  0.0525
   1.3414E-01   1.3740E-01   4.9619E-05  0.0516
   1.3740E-01   1.4074E-01   4.8966E-05  0.0513
   1.4074E-01   1.4417E-01   5.2421E-05  0.0490
   1.4417E-01   1.4767E-01   5.3168E-05  0.0481
   1.4767E-01   1.5127E-01   5.4079E-05  0.0471
   1.5127E-01   1.5495E-01   6.4020E-05  0.0428
   1.5495E-01   1.5872E-01   6.0552E-05  0.0434
   1.5872E-01   1.6258E-01   7.0448E-05  0.0398
   1.6258E-01   1.6654E-01   6.4307E-05  0.0412
   1.6654E-01   1.7059E-01   6.8248E-05  0.0395
   1.7059E-01   1.7474E-01   6.9232E-05  0.0387
   1.7474E-01   1.7899E-01   7.2180E-05  0.0375
   1.7899E-01   1.8334E-01   7.5074E-05  0.0363
   1.8334E-01   1.8781E-01   7.9593E-05  0.0348
   1.8781E-01   1.9237E-01   8.0041E-05  0.0343
   1.9237E-01   1.9706E-01   8.3202E-05  0.0332
   1.9706E-01   2.0185E-01   9.2353E-05  0.0312
   2.0185E-01   2.0676E-01   9.0542E-05  0.0312
   2.0676E-01   2.1179E-01   9.2858E-05  0.0304
   2.1179E-01   2.1694E-01   9.5613E-05  0.0296
   2.1694E-01   2.2222E-01   9.8874E-05  0.0287
   2.2222E-01   2.2763E-01   1.0038E-04  0.0282
   2.2763E-01   2.3317E-01   1.0927E-04  0.0267
   2.3317E-01   2.3884E-01   1.0932E-04  0.0264
   2.3884E-01   2.4465E-01   1.1353E-04  0.0255
   2.4465E-01   2.5061E-01   1.1578E-04  0.0250
   2.5061E-01   2.5670E-01   1.1948E-04  0.0243
   2.5670E-01   2.6295E-01   1.2162E-04  0.0238
   2.6295E-01   2.6935E-01   1.2575E-04  0.0231
   2.6935E-01   2.7590E-01   1.3092E-04  0.0224
   2.7590E-01   2.8261E-01   1.3003E-04  0.0222
   2.8261E-01   2.8949E-01   1.3384E-04  0.0216
   2.8949E-01   2.9653E-01   1.4324E-04  0.0207
   2.9653E-01   3.0375E-01   1.4628E-04  0.0202
   3.0375E-01   3.1114E-01   1.4714E-04  0.0199
   3.1114E-01   3.1871E-01   1.5425E-04  0.0192
   3.1871E-01   3.2646E-01   1.5268E-04  0.0191
   3.2646E-01   3.3441E-01   1.5768E-04  0.0185
   3.3441E-01   3.4254E-01   1.5846E-04  0.0183
   3.4254E-01   3.5088E-01   1.6675E-04  0.0176
   3.5088E-01   3.5941E-01   1.7497E-04  0.0170
   3.5941E-01   3.6816E-01   1.7192E-04  0.0169
   3.6816E-01   3.7712E-01   1.8020E-04  0.0163
   3.7712E-01   3.8629E-01   1.8078E-04  0.0161
   3.8629E-01   3.9569E-01   1.8574E-04  0.0157
   3.9569E-01   4.0532E-01   1.9078E-04  0.0153
   4.0532E-01   4.1518E-01   1.9604E-04  0.0149
   4.1518E-01   4.2528E-01   1.9539E-04  0.0148
   4.2528E-01   4.3563E-01   1.9792E-04  0.0145
   4.3563E-01   4.4623E-01   2.0007E-04  0.0142
   4.4623E-01   4.5708E-01   2.0125E-04  0.0140
   4.5708E-01   4.6821E-01   2.1169E-04  0.0135
   4.6821E-01   4.7960E-01   2.1237E-04  0.0133
   4.7960E-01   4.9127E-01   2.1500E-04  0.0131
   4.9127E-01   5.0322E-01   2.1873E-04  0.0128
   5.0322E-01   5.1546E-01   2.1596E-04  0.0127
   5.1546E-01   5.2800E-01   2.1630E-04  0.0126
   5.2800E-01   5.4085E-01   2.1802E-04  0.0124
   5.4085E-01   5.5401E-01   2.2550E-04  0.0120
   5.5401E-01   5.6749E-01   2.2363E-04  0.0119
   5.6749E-01   5.8130E-01   2.2524E-04  0.0117
   5.8130E-01   5.9544E-01   2.2735E-04  0.0116
   5.9544E-01   6.0993E-01   2.2647E-04  0.0114
   6.0993E-01   6.2477E-01   2.2640E-04  0.0113
   6.2477E-01   6.3997E-01   2.2240E-04  0.0113
   6.3997E-01   6.5554E-01   2.2302E-04  0.0111
   6.5554E-01   6.7149E-01   2.2522E-04  0.0109
   6.7149E-01   6.8783E-01   2.2372E-04  0.0108
   6.8783E-01   7.0456E-01   2.2432E-04  0.0107
   7.0456E-01   7.2171E-01   2.2044E-04  0.0106
   7.2171E-01   7.3927E-01   2.1488E-04  0.0107
   7.3927E-01   7.5725E-01   2.1394E-04  0.0105
   7.5725E-01   7.7568E-01   2.1420E-04  0.0104
   7.7568E-01   7.9455E-01   2.0978E-04  0.0104
   7.9455E-01   8.1388E-01   2.0938E-04  0.0103
   8.1388E-01   8.3368E-01   2.0271E-04  0.0103
   8.3368E-01   8.5397E-01   1.9837E-04  0.0103
   8.5397E-01   8.7475E-01   1.9096E-04  0.0104
   8.7475E-01   8.9603E-01   1.8617E-04  0.0104
   8.9603E-01   9.1783E-01   1.8258E-04  0.0104
   9.1783E-01   9.4016E-01   1.7473E-04  0.0105
   9.4016E-01   9.6304E-01   1.6722E-04  0.0106
   9.6304E-01   9.8647E-01   1.5899E-04  0.0107
   9.8647E-01   1.0105E+00   1.5647E-04  0.0106
   1.0105E+00   1.0351E+00   1.6186E-04  0.0103
   1.0351E+00   1.0602E+00   1.6335E-04  0.0102
   1.0602E+00   1.0860E+00   1.6502E-04  0.0100
   1.0860E+00   1.1125E+00   1.7145E-04  0.0097
   1.1125E+00   1.1395E+00   1.7900E-04  0.0094
   1.1395E+00   1.1673E+00   1.8546E-04  0.0091
   1.1673E+00   1.1957E+00   1.9087E-04  0.0088
   1.1957E+00   1.2247E+00   1.9650E-04  0.0086
   1.2247E+00   1.2545E+00   1.9925E-04  0.0084
   1.2545E+00   1.2851E+00   2.0161E-04  0.0083
   1.2851E+00   1.3163E+00   2.0338E-04  0.0081
   1.3163E+00   1.3484E+00   2.1335E-04  0.0079
   1.3484E+00   1.3812E+00   2.1567E-04  0.0077
   1.3812E+00   1.4148E+00   2.2237E-04  0.0075
   1.4148E+00   1.4492E+00   2.2117E-04  0.0074
   1.4492E+00   1.4845E+00   2.2207E-04  0.0073
   1.4845E+00   1.5206E+00   2.2304E-04  0.0072
   1.5206E+00   1.5576E+00   2.2278E-04  0.0071
   1.5576E+00   1.5955E+00   2.2142E-04  0.0071
   1.5955E+00   1.6343E+00   2.2192E-04  0.0070
   1.6343E+00   1.6741E+00   2.2354E-04  0.0069
   1.6741E+00   1.7148E+00   2.2458E-04  0.0067
   1.7148E+00   1.7565E+00   2.1564E-04  0.0068
   1.7565E+00   1.7992E+00   2.0611E-04  0.0069
   1.7992E+00   1.8430E+00   1.9801E-04  0.0069
   1.8430E+00   1.8879E+00   1.9281E-04  0.0069
   1.8879E+00   1.9338E+00   1.8903E-04  0.0069
   1.9338E+00   1.9808E+00   1.8852E-04  0.0068
   1.9808E+00   2.0290E+00   1.9368E-04  0.0066
   2.0290E+00   2.0784E+00   1.9329E-04  0.0065
   2.0784E+00   2.1290E+00   1.9552E-04  0.0064
   2.1290E+00   2.1808E+00   1.9664E-04  0.0063
   2.1808E+00   2.2338E+00   1.9693E-04  0.0062
   2.2338E+00   2.2882E+00   1.9407E-04  0.0062
   2.2882E+00   2.3439E+00   1.8778E-04  0.0062
   2.3439E+00   2.4009E+00   1.8561E-04  0.0062
   2.4009E+00   2.4593E+00   1.8508E-04  0.0062
   2.4593E+00   2.5191E+00   1.8304E-04  0.0061
   2.5191E+00   2.5804E+00   1.8121E-04  0.0061
   2.5804E+00   2.6432E+00   1.7697E-04  0.0061
   2.6432E+00   2.7075E+00   1.7583E-04  0.0060
   2.7075E+00   2.7734E+00   1.7114E-04  0.0060
   2.7734E+00   2.8409E+00   1.7200E-04  0.0059
   2.8409E+00   2.9100E+00   1.6875E-04  0.0059
   2.9100E+00   2.9808E+00   1.6798E-04  0.0059
   2.9808E+00   3.0533E+00   1.6629E-04  0.0058
   3.0533E+00   3.1276E+00   1.6102E-04  0.0059
   3.1276E+00   3.2037E+00   1.5724E-04  0.0059
   3.2037E+00   3.2817E+00   1.5417E-04  0.0059
   3.2817E+00   3.3615E+00   1.5361E-04  0.0058
   3.3615E+00   3.4433E+00   1.4958E-04  0.0058
   3.4433E+00   3.5271E+00   1.4914E-04  0.0058
   3.5271E+00   3.6129E+00   1.4751E-04  0.0057
   3.6129E+00   3.7008E+00   1.4313E-04  0.0057
   3.7008E+00   3.7908E+00   1.3776E-04  0.0058
   3.7908E+00   3.8831E+00   1.3700E-04  0.0057
   3.8831E+00   3.9776E+00   1.3260E-04  0.0058
   3.9776E+00   4.0743E+00   1.2975E-04  0.0058
   4.0743E+00   4.1735E+00   1.2631E-04  0.0058
   4.1735E+00   4.2750E+00   1.2361E-04  0.0058
   4.2750E+00   4.3790E+00   1.1791E-04  0.0058
   4.3790E+00   4.4856E+00   1.1513E-04  0.0058
   4.4856E+00   4.5947E+00   1.1176E-04  0.0058
   4.5947E+00   4.7065E+00   1.0856E-04  0.0058
   4.7065E+00   4.8210E+00   1.0387E-04  0.0059
   4.8210E+00   4.9383E+00   1.0164E-04  0.0059
   4.9383E+00   5.0585E+00   9.9786E-05  0.0059
   5.0585E+00   5.1815E+00   9.7100E-05  0.0059
   5.1815E+00   5.3076E+00   9.3803E-05  0.0059
   5.3076E+00   5.4368E+00   9.0484E-05  0.0060
   5.4368E+00   5.5690E+00   8.7499E-05  0.0060
   5.5690E+00   5.7045E+00   8.5545E-05  0.0060
   5.7045E+00   5.8433E+00   8.3057E-05  0.0060
   5.8433E+00   5.9855E+00   7.9895E-05  0.0061
   5.9855E+00   6.1311E+00   7.6274E-05  0.0061
   6.1311E+00   6.2803E+00   7.4678E-05  0.0061
   6.2803E+00   6.4331E+00   7.1365E-05  0.0062
   6.4331E+00   6.5896E+00   6.8149E-05  0.0063
   6.5896E+00   6.7500E+00   6.5440E-05  0.0063
   6.7500E+00   6.9142E+00   6.2488E-05  0.0064
   6.9142E+00   7.0824E+00   5.9117E-05  0.0065
   7.0824E+00   7.2548E+00   5.6421E-05  0.0066
   7.2548E+00   7.4313E+00   5.3101E-05  0.0067
   7.4313E+00   7.6121E+00   5.0168E-05  0.0068
   7.6121E+00   7.7973E+00   4.7477E-05  0.0069
   7.7973E+00   7.9870E+00   4.3586E-05  0.0071
   7.9870E+00   8.1813E+00   4.1691E-05  0.0072
   8.1813E+00   8.3804E+00   3.9155E-05  0.0073
   8.3804E+00   8.5843E+00   3.6388E-05  0.0075
   8.5843E+00   8.7931E+00   3.4396E-05  0.0077
   8.7931E+00   9.0071E+00   3.2089E-05  0.0078
   9.0071E+00   9.2262E+00   3.0135E-05  0.0080
   9.2262E+00   9.4507E+00   2.8514E-05  0.0081
   9.4507E+00   9.6807E+00   2.6457E-05  0.0084
   9.6807E+00   9.9162E+00   2.5391E-05  0.0084
   9.9162E+00   1.0157E+01   2.4919E-05  0.0084
   1.0157E+01   1.0405E+01   2.3422E-05  0.0086
   1.0405E+01   1.0658E+01   2.1979E-05  0.0088
   1.0658E+01   1.0917E+01   2.0533E-05  0.0090
   1.0917E+01   1.1183E+01   1.9076E-05  0.0092
   1.1183E+01   1.1455E+01   1.7861E-05  0.0094
   1.1455E+01   1.1733E+01   1.6892E-05  0.0095
   1.1733E+01   1.2019E+01   1.5933E-05  0.0097
   1.2019E+01   1.2311E+01   1.4855E-05  0.0099
   1.2311E+01   1.2611E+01   1.4107E-05  0.0101
   1.2611E+01   1.2918E+01   1.3303E-05  0.0103
   1.2918E+01   1.3232E+01   1.2461E-05  0.0105
   1.3232E+01   1.3554E+01   1.1718E-05  0.0107
   1.3554E+01   1.3884E+01   1.1289E-05  0.0108
   1.3884E+01   1.4222E+01   1.0330E-05  0.0111
   1.4222E+01   1.4568E+01   1.0007E-05  0.0112
   1.4568E+01   1.4922E+01   9.2044E-06  0.0115
   1.4922E+01   1.5285E+01   8.8275E-06  0.0116
   1.5285E+01   1.5657E+01   8.1753E-06  0.0119
   1.5657E+01   1.6038E+01   7.7075E-06  0.0121
   1.6038E+01   1.6428E+01   7.1667E-06  0.0124
   1.6428E+01   1.6828E+01   6.7742E-06  0.0126
   1.6828E+01   1.7237E+01   6.3031E-06  0.0130
   1.7237E+01   1.7657E+01   6.0775E-06  0.0130
   1.7657E+01   1.8086E+01   5.4738E-06  0.0136
   1.8086E+01   1.8526E+01   5.0713E-06  0.0139
   1.8526E+01   1.8977E+01   4.6551E-06  0.0144
   1.8977E+01   1.9439E+01   4.3088E-06  0.0148
   1.9439E+01   1.9912E+01   3.7521E-06  0.0157
   1.9912E+01   2.0396E+01   3.7208E-06  0.0155
   2.0396E+01   2.0893E+01   3.4002E-06  0.0161
   2.0893E+01   2.1401E+01   3.1920E-06  0.0164
   2.1401E+01   2.1922E+01   2.8507E-06  0.0171
   2.1922E+01   2.2455E+01   2.5947E-06  0.0177
   2.2455E+01   2.3001E+01   2.4725E-06  0.0179
   2.3001E+01   2.3561E+01   2.2079E-06  0.0188
   2.3561E+01   2.4134E+01   1.9484E-06  0.0197
   2.4134E+01   2.4721E+01   1.7674E-06  0.0205
   2.4721E+01   2.5323E+01   1.5707E-06  0.0215
   2.5323E+01   2.5939E+01   1.4346E-06  0.0222
   2.5939E+01   2.6570E+01   1.2573E-06  0.0234
   2.6570E+01   2.7217E+01   1.1184E-06  0.0245
   2.7217E+01   2.7879E+01   9.6187E-07  0.0261
   2.7879E+01   2.8557E+01   8.0635E-07  0.0282
   2.8557E+01   2.9252E+01   7.5090E-07  0.0289
   2.9252E+01   2.9964E+01   5.8767E-07  0.0322
   2.9964E+01   3.0693E+01   5.3495E-07  0.0334
   3.0693E+01   3.1440E+01   4.4364E-07  0.0362
   3.1440E+01   3.2205E+01   3.4501E-07  0.0406
   3.2205E+01   3.2988E+01   2.8021E-07  0.0445
   3.2988E+01   3.3791E+01   2.5135E-07  0.0464
   3.3791E+01   3.4613E+01   1.8086E-07  0.0541
   3.4613E+01   3.5455E+01   1.3733E-07  0.0613
   3.5455E+01   3.6318E+01   7.0057E-08  0.0848
   3.6318E+01   3.7201E+01   4.8712E-08  0.1005
   3.7201E+01   3.8106E+01   3.5066E-08  0.1170
   3.8106E+01   3.9034E+01   2.1102E-08  0.1491
   3.9034E+01   3.9983E+01   1.4650E-08  0.1768
   3.9983E+01   4.0956E+01   7.5978E-09  0.2425
   4.0956E+01   4.1953E+01   4.3631E-09  0.3162
   4.1953E+01   4.2973E+01   2.9816E-09  0.3780
   4.2973E+01   4.4019E+01   4.1583E-10  1.0000
   4.4019E+01   4.5090E+01   0.0000E+00  0.0000
   4.5090E+01   4.6187E+01   0.0000E+00  0.0000
   4.6187E+01   4.7311E+01   0.0000E+00  0.0000
   4.7311E+01   4.8462E+01   0.0000E+00  0.0000
   4.8462E+01   4.9641E+01   0.0000E+00  0.0000
   4.9641E+01   5.0849E+01   0.0000E+00  0.0000
   5.0849E+01   5.2086E+01   0.0000E+00  0.0000
   5.2086E+01   5.3353E+01   0.0000E+00  0.0000
   5.3353E+01   5.4651E+01   0.0000E+00  0.0000
   5.4651E+01   5.5981E+01   0.0000E+00  0.0000
   5.5981E+01   5.7343E+01   0.0000E+00  0.0000
   5.7343E+01   5.8738E+01   0.0000E+00  0.0000
   5.8738E+01   6.0168E+01   0.0000E+00  0.0000
   6.0168E+01   6.1632E+01   0.0000E+00  0.0000
   6.1632E+01   6.3131E+01   0.0000E+00  0.0000
   6.3131E+01   6.4667E+01   0.0000E+00  0.0000
   6.4667E+01   6.6240E+01   0.0000E+00  0.0000
   6.6240E+01   6.7852E+01   0.0000E+00  0.0000
   6.7852E+01   6.9503E+01   0.0000E+00  0.0000
   6.9503E+01   7.1194E+01   0.0000E+00  0.0000
   7.1194E+01   7.2926E+01   0.0000E+00  0.0000
   7.2926E+01   7.4701E+01   0.0000E+00  0.0000
   7.4701E+01   7.6518E+01   0.0000E+00  0.0000
   7.6518E+01   7.8380E+01   0.0000E+00  0.0000
   7.8380E+01   8.0287E+01   0.0000E+00  0.0000
   8.0287E+01   8.2240E+01   0.0000E+00  0.0000
   8.2240E+01   8.4241E+01   0.0000E+00  0.0000
   8.4241E+01   8.6291E+01   0.0000E+00  0.0000
   8.6291E+01   8.8391E+01   0.0000E+00  0.0000
   8.8391E+01   9.0541E+01   0.0000E+00  0.0000
   9.0541E+01   9.2744E+01   0.0000E+00  0.0000
   9.2744E+01   9.5001E+01   0.0000E+00  0.0000
   9.5001E+01   9.7312E+01   0.0000E+00  0.0000
   9.7312E+01   9.9680E+01   0.0000E+00  0.0000
   9.9680E+01   1.0211E+02   0.0000E+00  0.0000
   1.0211E+02   1.0459E+02   0.0000E+00  0.0000
   1.0459E+02   1.0713E+02   0.0000E+00  0.0000
   1.0713E+02   1.0974E+02   0.0000E+00  0.0000
   1.0974E+02   1.1241E+02   0.0000E+00  0.0000
   1.1241E+02   1.1515E+02   0.0000E+00  0.0000
   1.1515E+02   1.1795E+02   0.0000E+00  0.0000
   1.1795E+02   1.2082E+02   0.0000E+00  0.0000
   1.2082E+02   1.2376E+02   0.0000E+00  0.0000
   1.2376E+02   1.2677E+02   0.0000E+00  0.0000
   1.2677E+02   1.2985E+02   0.0000E+00  0.0000
   1.2985E+02   1.3301E+02   0.0000E+00  0.0000
   1.3301E+02   1.3625E+02   0.0000E+00  0.0000
   1.3625E+02   1.3956E+02   0.0000E+00  0.0000
   1.3956E+02   1.4296E+02   0.0000E+00  0.0000
   1.4296E+02   1.4644E+02   0.0000E+00  0.0000
   1.4644E+02   1.5000E+02   0.0000E+00  0.0000

#   sum over                 8.0314E-06
'no. =    1   reg = 114 - 214'
msuc: {\huge [t-cross] in region mesh}
msdr: {\it plotted by \ANGEL \version}
msdl: {\it calculated by \PHITS  3.26}
wt: s(0.7)
\vspace{-3}
  region surface crossing
  area  &=&   1.0000E+00 [cm^2]
e:
 
# Information for Restart Calculation
# This calculation was newly started
# istdev =  2 # 1:Batch variance, 2:History variance
# resc2  = 2.30000000000000000E+09 # Total source weight or Total source weight / maxcas
# resc3  = 2.30000000000000000E+09 # Total history number or Total batch number
# maxcas =   100000000 # History / Batch, only used for istdev=1
# bitrseed = 0011111101000011101100100100001010010001000101110100111110110011 # bit data of rseed
