[ T-Cross ]
    title = [t-cross] in region mesh
     mesh =  reg            # mesh type is region-wise
      reg =    1            # number of crossing regions
      non     r-from    r-to       area
      1       107       207        1.000000    
   e-type =    3            # e-mesh is log given by emin, emax and ne
     emin =  1.0000000E-02  # minimum value of e-mesh points
     emax =   150.0000      # maximum value of e-mesh points
#    edel =  2.4039514E-02  # mesh width of e-mesh points
       ne =    400          # number of e-mesh points
#    data = ( e(i), i = 1, ne + 1 )
#           1.00000E-02  1.02433E-02  1.04925E-02  1.07478E-02  1.10093E-02
#           1.12772E-02  1.15516E-02  1.18326E-02  1.21205E-02  1.24154E-02
#           1.27175E-02  1.30269E-02  1.33439E-02  1.36686E-02  1.40011E-02
#           1.43418E-02  1.46907E-02  1.50482E-02  1.54143E-02  1.57894E-02
#           1.61735E-02  1.65670E-02  1.69701E-02  1.73830E-02  1.78060E-02
#           1.82392E-02  1.86830E-02  1.91375E-02  1.96032E-02  2.00801E-02
#           2.05687E-02  2.10692E-02  2.15818E-02  2.21069E-02  2.26448E-02
#           2.31957E-02  2.37601E-02  2.43382E-02  2.49304E-02  2.55369E-02
#           2.61583E-02  2.67947E-02  2.74467E-02  2.81145E-02  2.87985E-02
#           2.94992E-02  3.02169E-02  3.09521E-02  3.17052E-02  3.24766E-02
#           3.32668E-02  3.40762E-02  3.49053E-02  3.57546E-02  3.66246E-02
#           3.75157E-02  3.84284E-02  3.93634E-02  4.03212E-02  4.13022E-02
#           4.23071E-02  4.33365E-02  4.43909E-02  4.54710E-02  4.65773E-02
#           4.77106E-02  4.88714E-02  5.00605E-02  5.12785E-02  5.25262E-02
#           5.38042E-02  5.51133E-02  5.64542E-02  5.78278E-02  5.92348E-02
#           6.06760E-02  6.21523E-02  6.36645E-02  6.52135E-02  6.68002E-02
#           6.84255E-02  7.00904E-02  7.17957E-02  7.35426E-02  7.53319E-02
#           7.71648E-02  7.90423E-02  8.09655E-02  8.29354E-02  8.49533E-02
#           8.70203E-02  8.91376E-02  9.13064E-02  9.35279E-02  9.58035E-02
#           9.81345E-02  1.00522E-01  1.02968E-01  1.05473E-01  1.08040E-01
#           1.10668E-01  1.13361E-01  1.16119E-01  1.18944E-01  1.21838E-01
#           1.24803E-01  1.27839E-01  1.30950E-01  1.34136E-01  1.37399E-01
#           1.40742E-01  1.44167E-01  1.47675E-01  1.51268E-01  1.54948E-01
#           1.58718E-01  1.62580E-01  1.66535E-01  1.70587E-01  1.74738E-01
#           1.78989E-01  1.83344E-01  1.87805E-01  1.92375E-01  1.97055E-01
#           2.01850E-01  2.06761E-01  2.11792E-01  2.16945E-01  2.22223E-01
#           2.27630E-01  2.33169E-01  2.38842E-01  2.44653E-01  2.50605E-01
#           2.56703E-01  2.62949E-01  2.69346E-01  2.75900E-01  2.82613E-01
#           2.89489E-01  2.96532E-01  3.03747E-01  3.11138E-01  3.18708E-01
#           3.26462E-01  3.34405E-01  3.42542E-01  3.50876E-01  3.59413E-01
#           3.68158E-01  3.77116E-01  3.86291E-01  3.95690E-01  4.05317E-01
#           4.15179E-01  4.25281E-01  4.35628E-01  4.46227E-01  4.57084E-01
#           4.68205E-01  4.79597E-01  4.91266E-01  5.03219E-01  5.15463E-01
#           5.28005E-01  5.40851E-01  5.54011E-01  5.67490E-01  5.81298E-01
#           5.95441E-01  6.09929E-01  6.24769E-01  6.39970E-01  6.55541E-01
#           6.71491E-01  6.87828E-01  7.04564E-01  7.21706E-01  7.39266E-01
#           7.57253E-01  7.75678E-01  7.94551E-01  8.13883E-01  8.33685E-01
#           8.53969E-01  8.74747E-01  8.96030E-01  9.17831E-01  9.40163E-01
#           9.63038E-01  9.86469E-01  1.01047E+00  1.03506E+00  1.06024E+00
#           1.08604E+00  1.11246E+00  1.13953E+00  1.16725E+00  1.19565E+00
#           1.22474E+00  1.25454E+00  1.28507E+00  1.31633E+00  1.34836E+00
#           1.38117E+00  1.41477E+00  1.44920E+00  1.48446E+00  1.52057E+00
#           1.55757E+00  1.59547E+00  1.63429E+00  1.67405E+00  1.71478E+00
#           1.75650E+00  1.79924E+00  1.84302E+00  1.88786E+00  1.93379E+00
#           1.98084E+00  2.02904E+00  2.07841E+00  2.12898E+00  2.18078E+00
#           2.23384E+00  2.28819E+00  2.34386E+00  2.40089E+00  2.45930E+00
#           2.51914E+00  2.58043E+00  2.64322E+00  2.70753E+00  2.77341E+00
#           2.84088E+00  2.91001E+00  2.98081E+00  3.05333E+00  3.12762E+00
#           3.20372E+00  3.28167E+00  3.36152E+00  3.44330E+00  3.52708E+00
#           3.61290E+00  3.70080E+00  3.79085E+00  3.88308E+00  3.97756E+00
#           4.07434E+00  4.17347E+00  4.27501E+00  4.37903E+00  4.48557E+00
#           4.59471E+00  4.70650E+00  4.82102E+00  4.93832E+00  5.05847E+00
#           5.18155E+00  5.30762E+00  5.43676E+00  5.56904E+00  5.70453E+00
#           5.84333E+00  5.98550E+00  6.13114E+00  6.28031E+00  6.43312E+00
#           6.58964E+00  6.74997E+00  6.91420E+00  7.08243E+00  7.25475E+00
#           7.43126E+00  7.61207E+00  7.79728E+00  7.98700E+00  8.18133E+00
#           8.38038E+00  8.58428E+00  8.79315E+00  9.00709E+00  9.22624E+00
#           9.45072E+00  9.68067E+00  9.91620E+00  1.01575E+01  1.04046E+01
#           1.06578E+01  1.09171E+01  1.11827E+01  1.14548E+01  1.17335E+01
#           1.20190E+01  1.23114E+01  1.26109E+01  1.29178E+01  1.32321E+01
#           1.35540E+01  1.38838E+01  1.42216E+01  1.45676E+01  1.49221E+01
#           1.52851E+01  1.56570E+01  1.60380E+01  1.64282E+01  1.68279E+01
#           1.72374E+01  1.76568E+01  1.80864E+01  1.85264E+01  1.89772E+01
#           1.94389E+01  1.99119E+01  2.03963E+01  2.08926E+01  2.14009E+01
#           2.19216E+01  2.24550E+01  2.30014E+01  2.35610E+01  2.41343E+01
#           2.47215E+01  2.53230E+01  2.59391E+01  2.65702E+01  2.72167E+01
#           2.78789E+01  2.85572E+01  2.92520E+01  2.99637E+01  3.06928E+01
#           3.14396E+01  3.22045E+01  3.29881E+01  3.37907E+01  3.46128E+01
#           3.54550E+01  3.63177E+01  3.72013E+01  3.81064E+01  3.90336E+01
#           3.99833E+01  4.09561E+01  4.19526E+01  4.29734E+01  4.40189E+01
#           4.50900E+01  4.61870E+01  4.73108E+01  4.84619E+01  4.96410E+01
#           5.08488E+01  5.20860E+01  5.33533E+01  5.46514E+01  5.59812E+01
#           5.73432E+01  5.87384E+01  6.01676E+01  6.16315E+01  6.31311E+01
#           6.46671E+01  6.62405E+01  6.78522E+01  6.95031E+01  7.11941E+01
#           7.29263E+01  7.47007E+01  7.65182E+01  7.83800E+01  8.02870E+01
#           8.22405E+01  8.42414E+01  8.62911E+01  8.83906E+01  9.05412E+01
#           9.27442E+01  9.50007E+01  9.73122E+01  9.96799E+01  1.02105E+02
#           1.04589E+02  1.07134E+02  1.09741E+02  1.12411E+02  1.15146E+02
#           1.17948E+02  1.20817E+02  1.23757E+02  1.26768E+02  1.29852E+02
#           1.33012E+02  1.36248E+02  1.39563E+02  1.42959E+02  1.46437E+02
#           1.50000E+02
     unit =    2            # unit is [1/cm^2/(MeV/n)/source]
     axis =  eng            # axis of output
     file = detector-08.out  # file name of output for the above axis
   output = f-curr          # surface crossing forward current spectrum
     part =  neutron  
# kf/name :  2112     
#    used :        main (  %)        temp (  %)       total (  %)
#  memory :         414 (  0)           0 (  0)         414 (  0)

#------------------------------------------------------------------------------
#newpage:
#   no. =    1   reg = 107 - 207

x: Energy [MeV/n]
y:  F-Curr [1/cm^2/(MeV/n)/source]         
p: xlog ylog afac(0.8) form(0.9)
h: n            x            y(neutron ),hh0l   n 
#  e-lower      e-upper      neutron     r.err 
   1.0000E-02   1.0243E-02   1.2379E-04  0.1192
   1.0243E-02   1.0493E-02   1.1530E-04  0.1223
   1.0493E-02   1.0748E-02   1.5501E-04  0.1041
   1.0748E-02   1.1009E-02   1.2804E-04  0.1133
   1.1009E-02   1.1277E-02   1.2109E-04  0.1152
   1.1277E-02   1.1552E-02   9.0215E-05  0.1318
   1.1552E-02   1.1833E-02   1.2143E-04  0.1116
   1.1833E-02   1.2121E-02   1.1859E-04  0.1122
   1.2121E-02   1.2415E-02   1.1783E-04  0.1108
   1.2415E-02   1.2718E-02   9.7733E-05  0.1206
   1.2718E-02   1.3027E-02   9.0442E-05  0.1237
   1.3027E-02   1.3344E-02   1.2384E-04  0.1046
   1.3344E-02   1.3669E-02   1.0170E-04  0.1141
   1.3669E-02   1.4001E-02   9.2629E-05  0.1181
   1.4001E-02   1.4342E-02   9.1080E-05  0.1179
   1.4342E-02   1.4691E-02   1.0044E-04  0.1103
   1.4691E-02   1.5048E-02   7.7222E-05  0.1248
   1.5048E-02   1.5414E-02   7.9188E-05  0.1210
   1.5414E-02   1.5789E-02   9.7719E-05  0.1080
   1.5789E-02   1.6174E-02   6.8777E-05  0.1277
   1.6174E-02   1.6567E-02   8.2338E-05  0.1153
   1.6567E-02   1.6970E-02   8.9591E-05  0.1092
   1.6970E-02   1.7383E-02   8.4299E-05  0.1107
   1.7383E-02   1.7806E-02   7.5848E-05  0.1157
   1.7806E-02   1.8239E-02   7.9082E-05  0.1119
   1.8239E-02   1.8683E-02   6.8541E-05  0.1186
   1.8683E-02   1.9138E-02   6.5702E-05  0.1204
   1.9138E-02   1.9603E-02   9.3204E-05  0.0992
   1.9603E-02   2.0080E-02   7.3850E-05  0.1105
   2.0080E-02   2.0569E-02   7.7243E-05  0.1066
   2.0569E-02   2.1069E-02   7.7073E-05  0.1054
   2.1069E-02   2.1582E-02   6.2443E-05  0.1163
   2.1582E-02   2.2107E-02   5.6665E-05  0.1202
   2.2107E-02   2.2645E-02   6.0797E-05  0.1145
   2.2645E-02   2.3196E-02   6.9879E-05  0.1055
   2.3196E-02   2.3760E-02   6.4932E-05  0.1083
   2.3760E-02   2.4338E-02   5.9918E-05  0.1115
   2.4338E-02   2.4930E-02   5.6473E-05  0.1133
   2.4930E-02   2.5537E-02   5.6666E-05  0.1111
   2.5537E-02   2.6158E-02   5.8446E-05  0.1089
   2.6158E-02   2.6795E-02   5.6826E-05  0.1092
   2.6795E-02   2.7447E-02   5.7931E-05  0.1065
   2.7447E-02   2.8114E-02   5.9782E-05  0.1035
   2.8114E-02   2.8799E-02   5.1529E-05  0.1105
   2.8799E-02   2.9499E-02   4.9332E-05  0.1118
   2.9499E-02   3.0217E-02   4.5450E-05  0.1146
   3.0217E-02   3.0952E-02   4.0882E-05  0.1196
   3.0952E-02   3.1705E-02   4.3997E-05  0.1134
   3.1705E-02   3.2477E-02   4.1889E-05  0.1151
   3.2477E-02   3.3267E-02   4.6238E-05  0.1085
   3.3267E-02   3.4076E-02   3.7884E-05  0.1182
   3.4076E-02   3.4905E-02   3.9117E-05  0.1149
   3.4905E-02   3.5755E-02   3.8772E-05  0.1141
   3.5755E-02   3.6625E-02   3.5564E-05  0.1180
   3.6625E-02   3.7516E-02   2.8306E-05  0.1306
   3.7516E-02   3.8428E-02   4.3812E-05  0.1037
   3.8428E-02   3.9363E-02   4.2925E-05  0.1034
   3.9363E-02   4.0321E-02   3.7159E-05  0.1101
   4.0321E-02   4.1302E-02   3.6064E-05  0.1097
   4.1302E-02   4.2307E-02   4.8925E-05  0.0937
   4.2307E-02   4.3337E-02   3.0044E-05  0.1175
   4.3337E-02   4.4391E-02   3.7504E-05  0.1039
   4.4391E-02   4.5471E-02   3.8289E-05  0.1017
   4.5471E-02   4.6577E-02   4.1253E-05  0.0968
   4.6577E-02   4.7711E-02   3.7419E-05  0.1008
   4.7711E-02   4.8871E-02   2.5621E-05  0.1199
   4.8871E-02   5.0061E-02   3.2404E-05  0.1053
   5.0061E-02   5.1279E-02   2.6197E-05  0.1153
   5.1279E-02   5.2526E-02   3.0573E-05  0.1061
   5.2526E-02   5.3804E-02   2.6162E-05  0.1134
   5.3804E-02   5.5113E-02   2.4698E-05  0.1144
   5.5113E-02   5.6454E-02   2.4737E-05  0.1138
   5.6454E-02   5.7828E-02   2.5765E-05  0.1100
   5.7828E-02   5.9235E-02   2.4956E-05  0.1105
   5.9235E-02   6.0676E-02   2.6060E-05  0.1070
   6.0676E-02   6.2152E-02   2.8597E-05  0.1007
   6.2152E-02   6.3665E-02   2.8322E-05  0.1001
   6.3665E-02   6.5214E-02   2.5114E-05  0.1050
   6.5214E-02   6.6800E-02   2.6078E-05  0.1020
   6.6800E-02   6.8426E-02   2.1715E-05  0.1102
   6.8426E-02   7.0090E-02   2.1110E-05  0.1105
   7.0090E-02   7.1796E-02   2.3751E-05  0.1032
   7.1796E-02   7.3543E-02   2.0604E-05  0.1092
   7.3543E-02   7.5332E-02   1.8218E-05  0.1147
   7.5332E-02   7.7165E-02   2.3519E-05  0.0998
   7.7165E-02   7.9042E-02   1.6712E-05  0.1171
   7.9042E-02   8.0965E-02   2.1701E-05  0.1014
   8.0965E-02   8.2935E-02   1.7569E-05  0.1112
   8.2935E-02   8.4953E-02   1.9783E-05  0.1032
   8.4953E-02   8.7020E-02   2.5731E-05  0.0899
   8.7020E-02   8.9138E-02   2.2141E-05  0.0958
   8.9138E-02   9.1306E-02   1.8268E-05  0.1041
   9.1306E-02   9.3528E-02   1.6926E-05  0.1066
   9.3528E-02   9.5804E-02   2.0303E-05  0.0965
   9.5804E-02   9.8134E-02   1.9913E-05  0.0961
   9.8134E-02   1.0052E-01   1.6682E-05  0.1038
   1.0052E-01   1.0297E-01   1.7865E-05  0.0993
   1.0297E-01   1.0547E-01   2.1818E-05  0.0886
   1.0547E-01   1.0804E-01   2.0940E-05  0.0894
   1.0804E-01   1.1067E-01   2.2329E-05  0.0856
   1.1067E-01   1.1336E-01   2.4751E-05  0.0804
   1.1336E-01   1.1612E-01   2.6773E-05  0.0764
   1.1612E-01   1.1894E-01   2.3967E-05  0.0797
   1.1894E-01   1.2184E-01   2.4256E-05  0.0783
   1.2184E-01   1.2480E-01   3.0150E-05  0.0694
   1.2480E-01   1.2784E-01   3.1540E-05  0.0670
   1.2784E-01   1.3095E-01   3.3225E-05  0.0645
   1.3095E-01   1.3414E-01   2.9287E-05  0.0679
   1.3414E-01   1.3740E-01   3.3136E-05  0.0631
   1.3740E-01   1.4074E-01   3.4426E-05  0.0611
   1.4074E-01   1.4417E-01   3.3623E-05  0.0611
   1.4417E-01   1.4767E-01   3.5356E-05  0.0589
   1.4767E-01   1.5127E-01   3.6962E-05  0.0567
   1.5127E-01   1.5495E-01   3.9723E-05  0.0541
   1.5495E-01   1.5872E-01   4.2134E-05  0.0520
   1.5872E-01   1.6258E-01   3.8383E-05  0.0538
   1.6258E-01   1.6654E-01   4.5731E-05  0.0487
   1.6654E-01   1.7059E-01   4.4137E-05  0.0491
   1.7059E-01   1.7474E-01   4.5555E-05  0.0476
   1.7474E-01   1.7899E-01   4.9236E-05  0.0453
   1.7899E-01   1.8334E-01   5.0618E-05  0.0441
   1.8334E-01   1.8781E-01   5.3602E-05  0.0424
   1.8781E-01   1.9237E-01   5.0547E-05  0.0431
   1.9237E-01   1.9706E-01   5.5116E-05  0.0408
   1.9706E-01   2.0185E-01   5.8202E-05  0.0393
   2.0185E-01   2.0676E-01   6.3159E-05  0.0372
   2.0676E-01   2.1179E-01   6.2887E-05  0.0368
   2.1179E-01   2.1694E-01   6.6737E-05  0.0354
   2.1694E-01   2.2222E-01   6.4875E-05  0.0354
   2.2222E-01   2.2763E-01   6.8335E-05  0.0341
   2.2763E-01   2.3317E-01   7.4902E-05  0.0322
   2.3317E-01   2.3884E-01   7.6350E-05  0.0315
   2.3884E-01   2.4465E-01   7.4019E-05  0.0316
   2.4465E-01   2.5061E-01   8.0636E-05  0.0299
   2.5061E-01   2.5670E-01   7.8873E-05  0.0299
   2.5670E-01   2.6295E-01   7.7962E-05  0.0297
   2.6295E-01   2.6935E-01   8.6236E-05  0.0279
   2.6935E-01   2.7590E-01   8.8473E-05  0.0272
   2.7590E-01   2.8261E-01   9.1059E-05  0.0265
   2.8261E-01   2.8949E-01   8.9285E-05  0.0264
   2.8949E-01   2.9653E-01   9.6297E-05  0.0252
   2.9653E-01   3.0375E-01   9.9780E-05  0.0244
   3.0375E-01   3.1114E-01   9.9593E-05  0.0242
   3.1114E-01   3.1871E-01   1.0418E-04  0.0233
   3.1871E-01   3.2646E-01   1.0342E-04  0.0231
   3.2646E-01   3.3441E-01   1.0739E-04  0.0224
   3.3441E-01   3.4254E-01   1.1016E-04  0.0219
   3.4254E-01   3.5088E-01   1.1169E-04  0.0215
   3.5088E-01   3.5941E-01   1.2207E-04  0.0203
   3.5941E-01   3.6816E-01   1.1741E-04  0.0204
   3.6816E-01   3.7712E-01   1.2317E-04  0.0197
   3.7712E-01   3.8629E-01   1.2069E-04  0.0197
   3.8629E-01   3.9569E-01   1.2823E-04  0.0189
   3.9569E-01   4.0532E-01   1.2817E-04  0.0186
   4.0532E-01   4.1518E-01   1.3165E-04  0.0182
   4.1518E-01   4.2528E-01   1.3230E-04  0.0179
   4.2528E-01   4.3563E-01   1.3176E-04  0.0177
   4.3563E-01   4.4623E-01   1.3432E-04  0.0174
   4.4623E-01   4.5708E-01   1.3835E-04  0.0169
   4.5708E-01   4.6821E-01   1.3892E-04  0.0167
   4.6821E-01   4.7960E-01   1.4281E-04  0.0162
   4.7960E-01   4.9127E-01   1.4357E-04  0.0160
   4.9127E-01   5.0322E-01   1.4646E-04  0.0156
   5.0322E-01   5.1546E-01   1.4631E-04  0.0155
   5.1546E-01   5.2800E-01   1.4988E-04  0.0151
   5.2800E-01   5.4085E-01   1.5127E-04  0.0149
   5.4085E-01   5.5401E-01   1.4634E-04  0.0149
   5.5401E-01   5.6749E-01   1.5064E-04  0.0145
   5.6749E-01   5.8130E-01   1.5397E-04  0.0142
   5.8130E-01   5.9544E-01   1.5220E-04  0.0141
   5.9544E-01   6.0993E-01   1.5269E-04  0.0139
   6.0993E-01   6.2477E-01   1.5467E-04  0.0137
   6.2477E-01   6.3997E-01   1.5227E-04  0.0136
   6.3997E-01   6.5554E-01   1.5298E-04  0.0134
   6.5554E-01   6.7149E-01   1.5257E-04  0.0133
   6.7149E-01   6.8783E-01   1.5168E-04  0.0131
   6.8783E-01   7.0456E-01   1.4755E-04  0.0132
   7.0456E-01   7.2171E-01   1.4429E-04  0.0131
   7.2171E-01   7.3927E-01   1.4720E-04  0.0129
   7.3927E-01   7.5725E-01   1.4521E-04  0.0128
   7.5725E-01   7.7568E-01   1.4374E-04  0.0127
   7.7568E-01   7.9455E-01   1.4161E-04  0.0126
   7.9455E-01   8.1388E-01   1.3909E-04  0.0126
   8.1388E-01   8.3368E-01   1.3681E-04  0.0125
   8.3368E-01   8.5397E-01   1.3236E-04  0.0126
   8.5397E-01   8.7475E-01   1.2722E-04  0.0127
   8.7475E-01   8.9603E-01   1.2290E-04  0.0128
   8.9603E-01   9.1783E-01   1.1859E-04  0.0128
   9.1783E-01   9.4016E-01   1.1688E-04  0.0128
   9.4016E-01   9.6304E-01   1.1041E-04  0.0130
   9.6304E-01   9.8647E-01   1.0876E-04  0.0129
   9.8647E-01   1.0105E+00   1.0570E-04  0.0129
   1.0105E+00   1.0351E+00   1.0868E-04  0.0126
   1.0351E+00   1.0602E+00   1.0844E-04  0.0125
   1.0602E+00   1.0860E+00   1.1431E-04  0.0120
   1.0860E+00   1.1125E+00   1.1743E-04  0.0117
   1.1125E+00   1.1395E+00   1.2016E-04  0.0114
   1.1395E+00   1.1673E+00   1.2494E-04  0.0111
   1.1673E+00   1.1957E+00   1.3157E-04  0.0106
   1.1957E+00   1.2247E+00   1.3272E-04  0.0105
   1.2247E+00   1.2545E+00   1.3582E-04  0.0102
   1.2545E+00   1.2851E+00   1.3842E-04  0.0100
   1.2851E+00   1.3163E+00   1.4375E-04  0.0097
   1.3163E+00   1.3484E+00   1.4333E-04  0.0096
   1.3484E+00   1.3812E+00   1.4656E-04  0.0094
   1.3812E+00   1.4148E+00   1.5427E-04  0.0090
   1.4148E+00   1.4492E+00   1.5599E-04  0.0089
   1.4492E+00   1.4845E+00   1.5745E-04  0.0087
   1.4845E+00   1.5206E+00   1.5769E-04  0.0086
   1.5206E+00   1.5576E+00   1.5973E-04  0.0084
   1.5576E+00   1.5955E+00   1.6183E-04  0.0083
   1.5955E+00   1.6343E+00   1.5990E-04  0.0082
   1.6343E+00   1.6741E+00   1.6445E-04  0.0080
   1.6741E+00   1.7148E+00   1.6575E-04  0.0079
   1.7148E+00   1.7565E+00   1.6122E-04  0.0079
   1.7565E+00   1.7992E+00   1.5381E-04  0.0080
   1.7992E+00   1.8430E+00   1.4857E-04  0.0080
   1.8430E+00   1.8879E+00   1.4510E-04  0.0079
   1.8879E+00   1.9338E+00   1.4271E-04  0.0079
   1.9338E+00   1.9808E+00   1.4807E-04  0.0077
   1.9808E+00   2.0290E+00   1.5030E-04  0.0075
   2.0290E+00   2.0784E+00   1.5188E-04  0.0074
   2.0784E+00   2.1290E+00   1.5490E-04  0.0072
   2.1290E+00   2.1808E+00   1.5768E-04  0.0070
   2.1808E+00   2.2338E+00   1.6107E-04  0.0069
   2.2338E+00   2.2882E+00   1.5784E-04  0.0069
   2.2882E+00   2.3439E+00   1.5649E-04  0.0069
   2.3439E+00   2.4009E+00   1.5578E-04  0.0068
   2.4009E+00   2.4593E+00   1.5985E-04  0.0066
   2.4593E+00   2.5191E+00   1.6046E-04  0.0065
   2.5191E+00   2.5804E+00   1.6058E-04  0.0065
   2.5804E+00   2.6432E+00   1.6141E-04  0.0064
   2.6432E+00   2.7075E+00   1.6062E-04  0.0063
   2.7075E+00   2.7734E+00   1.6320E-04  0.0062
   2.7734E+00   2.8409E+00   1.5960E-04  0.0062
   2.8409E+00   2.9100E+00   1.6120E-04  0.0061
   2.9100E+00   2.9808E+00   1.6339E-04  0.0060
   2.9808E+00   3.0533E+00   1.6182E-04  0.0059
   3.0533E+00   3.1276E+00   1.6091E-04  0.0059
   3.1276E+00   3.2037E+00   1.5965E-04  0.0058
   3.2037E+00   3.2817E+00   1.6127E-04  0.0058
   3.2817E+00   3.3615E+00   1.6090E-04  0.0057
   3.3615E+00   3.4433E+00   1.6010E-04  0.0056
   3.4433E+00   3.5271E+00   1.6190E-04  0.0056
   3.5271E+00   3.6129E+00   1.6230E-04  0.0055
   3.6129E+00   3.7008E+00   1.6114E-04  0.0054
   3.7008E+00   3.7908E+00   1.5974E-04  0.0054
   3.7908E+00   3.8831E+00   1.5939E-04  0.0053
   3.8831E+00   3.9776E+00   1.5923E-04  0.0053
   3.9776E+00   4.0743E+00   1.5698E-04  0.0053
   4.0743E+00   4.1735E+00   1.5695E-04  0.0052
   4.1735E+00   4.2750E+00   1.5275E-04  0.0052
   4.2750E+00   4.3790E+00   1.5079E-04  0.0052
   4.3790E+00   4.4856E+00   1.4957E-04  0.0051
   4.4856E+00   4.5947E+00   1.4684E-04  0.0051
   4.5947E+00   4.7065E+00   1.4554E-04  0.0051
   4.7065E+00   4.8210E+00   1.4680E-04  0.0050
   4.8210E+00   4.9383E+00   1.4389E-04  0.0050
   4.9383E+00   5.0585E+00   1.4205E-04  0.0050
   5.0585E+00   5.1815E+00   1.4198E-04  0.0049
   5.1815E+00   5.3076E+00   1.4015E-04  0.0049
   5.3076E+00   5.4368E+00   1.3871E-04  0.0048
   5.4368E+00   5.5690E+00   1.3706E-04  0.0048
   5.5690E+00   5.7045E+00   1.3700E-04  0.0048
   5.7045E+00   5.8433E+00   1.3625E-04  0.0047
   5.8433E+00   5.9855E+00   1.3516E-04  0.0047
   5.9855E+00   6.1311E+00   1.3398E-04  0.0047
   6.1311E+00   6.2803E+00   1.3361E-04  0.0046
   6.2803E+00   6.4331E+00   1.3175E-04  0.0046
   6.4331E+00   6.5896E+00   1.3179E-04  0.0045
   6.5896E+00   6.7500E+00   1.2947E-04  0.0045
   6.7500E+00   6.9142E+00   1.2923E-04  0.0045
   6.9142E+00   7.0824E+00   1.2742E-04  0.0044
   7.0824E+00   7.2548E+00   1.2614E-04  0.0044
   7.2548E+00   7.4313E+00   1.2594E-04  0.0044
   7.4313E+00   7.6121E+00   1.2450E-04  0.0043
   7.6121E+00   7.7973E+00   1.2305E-04  0.0043
   7.7973E+00   7.9870E+00   1.2083E-04  0.0043
   7.9870E+00   8.1813E+00   1.2035E-04  0.0043
   8.1813E+00   8.3804E+00   1.1782E-04  0.0043
   8.3804E+00   8.5843E+00   1.1699E-04  0.0042
   8.5843E+00   8.7931E+00   1.1482E-04  0.0042
   8.7931E+00   9.0071E+00   1.1239E-04  0.0042
   9.0071E+00   9.2262E+00   1.0991E-04  0.0042
   9.2262E+00   9.4507E+00   1.0780E-04  0.0042
   9.4507E+00   9.6807E+00   1.0589E-04  0.0042
   9.6807E+00   9.9162E+00   1.0579E-04  0.0042
   9.9162E+00   1.0157E+01   1.1004E-04  0.0040
   1.0157E+01   1.0405E+01   1.0775E-04  0.0040
   1.0405E+01   1.0658E+01   1.0570E-04  0.0040
   1.0658E+01   1.0917E+01   1.0269E-04  0.0040
   1.0917E+01   1.1183E+01   9.9527E-05  0.0040
   1.1183E+01   1.1455E+01   9.7973E-05  0.0040
   1.1455E+01   1.1733E+01   9.6743E-05  0.0040
   1.1733E+01   1.2019E+01   9.5111E-05  0.0040
   1.2019E+01   1.2311E+01   9.4466E-05  0.0040
   1.2311E+01   1.2611E+01   9.3149E-05  0.0039
   1.2611E+01   1.2918E+01   9.2653E-05  0.0039
   1.2918E+01   1.3232E+01   9.1293E-05  0.0039
   1.3232E+01   1.3554E+01   8.9917E-05  0.0039
   1.3554E+01   1.3884E+01   8.8144E-05  0.0039
   1.3884E+01   1.4222E+01   8.7310E-05  0.0038
   1.4222E+01   1.4568E+01   8.5898E-05  0.0038
   1.4568E+01   1.4922E+01   8.5028E-05  0.0038
   1.4922E+01   1.5285E+01   8.3917E-05  0.0038
   1.5285E+01   1.5657E+01   8.3019E-05  0.0038
   1.5657E+01   1.6038E+01   8.1084E-05  0.0037
   1.6038E+01   1.6428E+01   7.9985E-05  0.0037
   1.6428E+01   1.6828E+01   7.8258E-05  0.0037
   1.6828E+01   1.7237E+01   7.6854E-05  0.0037
   1.7237E+01   1.7657E+01   7.5794E-05  0.0037
   1.7657E+01   1.8086E+01   7.3612E-05  0.0037
   1.8086E+01   1.8526E+01   7.2576E-05  0.0037
   1.8526E+01   1.8977E+01   7.0777E-05  0.0037
   1.8977E+01   1.9439E+01   6.9220E-05  0.0037
   1.9439E+01   1.9912E+01   6.8510E-05  0.0037
   1.9912E+01   2.0396E+01   6.7131E-05  0.0037
   2.0396E+01   2.0893E+01   6.5682E-05  0.0037
   2.0893E+01   2.1401E+01   6.3557E-05  0.0037
   2.1401E+01   2.1922E+01   6.1820E-05  0.0037
   2.1922E+01   2.2455E+01   6.0363E-05  0.0037
   2.2455E+01   2.3001E+01   5.8405E-05  0.0037
   2.3001E+01   2.3561E+01   5.5891E-05  0.0037
   2.3561E+01   2.4134E+01   5.4500E-05  0.0037
   2.4134E+01   2.4721E+01   5.2021E-05  0.0038
   2.4721E+01   2.5323E+01   5.0161E-05  0.0038
   2.5323E+01   2.5939E+01   4.7843E-05  0.0038
   2.5939E+01   2.6570E+01   4.6100E-05  0.0039
   2.6570E+01   2.7217E+01   4.4093E-05  0.0039
   2.7217E+01   2.7879E+01   4.2861E-05  0.0039
   2.7879E+01   2.8557E+01   4.1467E-05  0.0039
   2.8557E+01   2.9252E+01   3.8954E-05  0.0040
   2.9252E+01   2.9964E+01   3.5979E-05  0.0041
   2.9964E+01   3.0693E+01   3.3411E-05  0.0042
   3.0693E+01   3.1440E+01   3.0614E-05  0.0044
   3.1440E+01   3.2205E+01   2.7453E-05  0.0046
   3.2205E+01   3.2988E+01   2.4774E-05  0.0047
   3.2988E+01   3.3791E+01   2.1882E-05  0.0050
   3.3791E+01   3.4613E+01   1.9024E-05  0.0053
   3.4613E+01   3.5455E+01   1.6364E-05  0.0056
   3.5455E+01   3.6318E+01   1.3936E-05  0.0060
   3.6318E+01   3.7201E+01   1.1790E-05  0.0065
   3.7201E+01   3.8106E+01   9.7146E-06  0.0070
   3.8106E+01   3.9034E+01   8.2238E-06  0.0076
   3.9034E+01   3.9983E+01   6.5301E-06  0.0084
   3.9983E+01   4.0956E+01   5.3613E-06  0.0091
   4.0956E+01   4.1953E+01   4.3426E-06  0.0100
   4.1953E+01   4.2973E+01   3.5865E-06  0.0109
   4.2973E+01   4.4019E+01   2.9570E-06  0.0119
   4.4019E+01   4.5090E+01   2.4824E-06  0.0128
   4.5090E+01   4.6187E+01   2.1226E-06  0.0137
   4.6187E+01   4.7311E+01   1.3774E-06  0.0168
   4.7311E+01   4.8462E+01   3.4749E-07  0.0330
   4.8462E+01   4.9641E+01   1.6593E-08  0.1491
   4.9641E+01   5.0849E+01   0.0000E+00  0.0000
   5.0849E+01   5.2086E+01   0.0000E+00  0.0000
   5.2086E+01   5.3353E+01   0.0000E+00  0.0000
   5.3353E+01   5.4651E+01   0.0000E+00  0.0000
   5.4651E+01   5.5981E+01   0.0000E+00  0.0000
   5.5981E+01   5.7343E+01   0.0000E+00  0.0000
   5.7343E+01   5.8738E+01   0.0000E+00  0.0000
   5.8738E+01   6.0168E+01   0.0000E+00  0.0000
   6.0168E+01   6.1632E+01   0.0000E+00  0.0000
   6.1632E+01   6.3131E+01   0.0000E+00  0.0000
   6.3131E+01   6.4667E+01   0.0000E+00  0.0000
   6.4667E+01   6.6240E+01   0.0000E+00  0.0000
   6.6240E+01   6.7852E+01   0.0000E+00  0.0000
   6.7852E+01   6.9503E+01   0.0000E+00  0.0000
   6.9503E+01   7.1194E+01   0.0000E+00  0.0000
   7.1194E+01   7.2926E+01   0.0000E+00  0.0000
   7.2926E+01   7.4701E+01   0.0000E+00  0.0000
   7.4701E+01   7.6518E+01   0.0000E+00  0.0000
   7.6518E+01   7.8380E+01   0.0000E+00  0.0000
   7.8380E+01   8.0287E+01   0.0000E+00  0.0000
   8.0287E+01   8.2240E+01   0.0000E+00  0.0000
   8.2240E+01   8.4241E+01   0.0000E+00  0.0000
   8.4241E+01   8.6291E+01   0.0000E+00  0.0000
   8.6291E+01   8.8391E+01   0.0000E+00  0.0000
   8.8391E+01   9.0541E+01   0.0000E+00  0.0000
   9.0541E+01   9.2744E+01   0.0000E+00  0.0000
   9.2744E+01   9.5001E+01   0.0000E+00  0.0000
   9.5001E+01   9.7312E+01   0.0000E+00  0.0000
   9.7312E+01   9.9680E+01   0.0000E+00  0.0000
   9.9680E+01   1.0211E+02   0.0000E+00  0.0000
   1.0211E+02   1.0459E+02   0.0000E+00  0.0000
   1.0459E+02   1.0713E+02   0.0000E+00  0.0000
   1.0713E+02   1.0974E+02   0.0000E+00  0.0000
   1.0974E+02   1.1241E+02   0.0000E+00  0.0000
   1.1241E+02   1.1515E+02   0.0000E+00  0.0000
   1.1515E+02   1.1795E+02   0.0000E+00  0.0000
   1.1795E+02   1.2082E+02   0.0000E+00  0.0000
   1.2082E+02   1.2376E+02   0.0000E+00  0.0000
   1.2376E+02   1.2677E+02   0.0000E+00  0.0000
   1.2677E+02   1.2985E+02   0.0000E+00  0.0000
   1.2985E+02   1.3301E+02   0.0000E+00  0.0000
   1.3301E+02   1.3625E+02   0.0000E+00  0.0000
   1.3625E+02   1.3956E+02   0.0000E+00  0.0000
   1.3956E+02   1.4296E+02   0.0000E+00  0.0000
   1.4296E+02   1.4644E+02   0.0000E+00  0.0000
   1.4644E+02   1.5000E+02   0.0000E+00  0.0000

#   sum over                 1.9329E-05
'no. =    1   reg = 107 - 207'
msuc: {\huge [t-cross] in region mesh}
msdr: {\it plotted by \ANGEL \version}
msdl: {\it calculated by \PHITS  3.26}
wt: s(0.7)
\vspace{-3}
  region surface crossing
  area  &=&   1.0000E+00 [cm^2]
e:
 
# Information for Restart Calculation
# This calculation was newly started
# istdev =  2 # 1:Batch variance, 2:History variance
# resc2  = 2.30000000000000000E+09 # Total source weight or Total source weight / maxcas
# resc3  = 2.30000000000000000E+09 # Total history number or Total batch number
# maxcas =   100000000 # History / Batch, only used for istdev=1
# bitrseed = 0011111101000011101100100100001010010001000101110100111110110011 # bit data of rseed
