[ T-Cross ]
    title = [t-cross] in region mesh
     mesh =  reg            # mesh type is region-wise
      reg =    1            # number of crossing regions
      non     r-from    r-to       area
      1       105       205        1.000000    
   e-type =    3            # e-mesh is log given by emin, emax and ne
     emin =  1.0000000E-02  # minimum value of e-mesh points
     emax =   150.0000      # maximum value of e-mesh points
#    edel =  2.4039514E-02  # mesh width of e-mesh points
       ne =    400          # number of e-mesh points
#    data = ( e(i), i = 1, ne + 1 )
#           1.00000E-02  1.02433E-02  1.04925E-02  1.07478E-02  1.10093E-02
#           1.12772E-02  1.15516E-02  1.18326E-02  1.21205E-02  1.24154E-02
#           1.27175E-02  1.30269E-02  1.33439E-02  1.36686E-02  1.40011E-02
#           1.43418E-02  1.46907E-02  1.50482E-02  1.54143E-02  1.57894E-02
#           1.61735E-02  1.65670E-02  1.69701E-02  1.73830E-02  1.78060E-02
#           1.82392E-02  1.86830E-02  1.91375E-02  1.96032E-02  2.00801E-02
#           2.05687E-02  2.10692E-02  2.15818E-02  2.21069E-02  2.26448E-02
#           2.31957E-02  2.37601E-02  2.43382E-02  2.49304E-02  2.55369E-02
#           2.61583E-02  2.67947E-02  2.74467E-02  2.81145E-02  2.87985E-02
#           2.94992E-02  3.02169E-02  3.09521E-02  3.17052E-02  3.24766E-02
#           3.32668E-02  3.40762E-02  3.49053E-02  3.57546E-02  3.66246E-02
#           3.75157E-02  3.84284E-02  3.93634E-02  4.03212E-02  4.13022E-02
#           4.23071E-02  4.33365E-02  4.43909E-02  4.54710E-02  4.65773E-02
#           4.77106E-02  4.88714E-02  5.00605E-02  5.12785E-02  5.25262E-02
#           5.38042E-02  5.51133E-02  5.64542E-02  5.78278E-02  5.92348E-02
#           6.06760E-02  6.21523E-02  6.36645E-02  6.52135E-02  6.68002E-02
#           6.84255E-02  7.00904E-02  7.17957E-02  7.35426E-02  7.53319E-02
#           7.71648E-02  7.90423E-02  8.09655E-02  8.29354E-02  8.49533E-02
#           8.70203E-02  8.91376E-02  9.13064E-02  9.35279E-02  9.58035E-02
#           9.81345E-02  1.00522E-01  1.02968E-01  1.05473E-01  1.08040E-01
#           1.10668E-01  1.13361E-01  1.16119E-01  1.18944E-01  1.21838E-01
#           1.24803E-01  1.27839E-01  1.30950E-01  1.34136E-01  1.37399E-01
#           1.40742E-01  1.44167E-01  1.47675E-01  1.51268E-01  1.54948E-01
#           1.58718E-01  1.62580E-01  1.66535E-01  1.70587E-01  1.74738E-01
#           1.78989E-01  1.83344E-01  1.87805E-01  1.92375E-01  1.97055E-01
#           2.01850E-01  2.06761E-01  2.11792E-01  2.16945E-01  2.22223E-01
#           2.27630E-01  2.33169E-01  2.38842E-01  2.44653E-01  2.50605E-01
#           2.56703E-01  2.62949E-01  2.69346E-01  2.75900E-01  2.82613E-01
#           2.89489E-01  2.96532E-01  3.03747E-01  3.11138E-01  3.18708E-01
#           3.26462E-01  3.34405E-01  3.42542E-01  3.50876E-01  3.59413E-01
#           3.68158E-01  3.77116E-01  3.86291E-01  3.95690E-01  4.05317E-01
#           4.15179E-01  4.25281E-01  4.35628E-01  4.46227E-01  4.57084E-01
#           4.68205E-01  4.79597E-01  4.91266E-01  5.03219E-01  5.15463E-01
#           5.28005E-01  5.40851E-01  5.54011E-01  5.67490E-01  5.81298E-01
#           5.95441E-01  6.09929E-01  6.24769E-01  6.39970E-01  6.55541E-01
#           6.71491E-01  6.87828E-01  7.04564E-01  7.21706E-01  7.39266E-01
#           7.57253E-01  7.75678E-01  7.94551E-01  8.13883E-01  8.33685E-01
#           8.53969E-01  8.74747E-01  8.96030E-01  9.17831E-01  9.40163E-01
#           9.63038E-01  9.86469E-01  1.01047E+00  1.03506E+00  1.06024E+00
#           1.08604E+00  1.11246E+00  1.13953E+00  1.16725E+00  1.19565E+00
#           1.22474E+00  1.25454E+00  1.28507E+00  1.31633E+00  1.34836E+00
#           1.38117E+00  1.41477E+00  1.44920E+00  1.48446E+00  1.52057E+00
#           1.55757E+00  1.59547E+00  1.63429E+00  1.67405E+00  1.71478E+00
#           1.75650E+00  1.79924E+00  1.84302E+00  1.88786E+00  1.93379E+00
#           1.98084E+00  2.02904E+00  2.07841E+00  2.12898E+00  2.18078E+00
#           2.23384E+00  2.28819E+00  2.34386E+00  2.40089E+00  2.45930E+00
#           2.51914E+00  2.58043E+00  2.64322E+00  2.70753E+00  2.77341E+00
#           2.84088E+00  2.91001E+00  2.98081E+00  3.05333E+00  3.12762E+00
#           3.20372E+00  3.28167E+00  3.36152E+00  3.44330E+00  3.52708E+00
#           3.61290E+00  3.70080E+00  3.79085E+00  3.88308E+00  3.97756E+00
#           4.07434E+00  4.17347E+00  4.27501E+00  4.37903E+00  4.48557E+00
#           4.59471E+00  4.70650E+00  4.82102E+00  4.93832E+00  5.05847E+00
#           5.18155E+00  5.30762E+00  5.43676E+00  5.56904E+00  5.70453E+00
#           5.84333E+00  5.98550E+00  6.13114E+00  6.28031E+00  6.43312E+00
#           6.58964E+00  6.74997E+00  6.91420E+00  7.08243E+00  7.25475E+00
#           7.43126E+00  7.61207E+00  7.79728E+00  7.98700E+00  8.18133E+00
#           8.38038E+00  8.58428E+00  8.79315E+00  9.00709E+00  9.22624E+00
#           9.45072E+00  9.68067E+00  9.91620E+00  1.01575E+01  1.04046E+01
#           1.06578E+01  1.09171E+01  1.11827E+01  1.14548E+01  1.17335E+01
#           1.20190E+01  1.23114E+01  1.26109E+01  1.29178E+01  1.32321E+01
#           1.35540E+01  1.38838E+01  1.42216E+01  1.45676E+01  1.49221E+01
#           1.52851E+01  1.56570E+01  1.60380E+01  1.64282E+01  1.68279E+01
#           1.72374E+01  1.76568E+01  1.80864E+01  1.85264E+01  1.89772E+01
#           1.94389E+01  1.99119E+01  2.03963E+01  2.08926E+01  2.14009E+01
#           2.19216E+01  2.24550E+01  2.30014E+01  2.35610E+01  2.41343E+01
#           2.47215E+01  2.53230E+01  2.59391E+01  2.65702E+01  2.72167E+01
#           2.78789E+01  2.85572E+01  2.92520E+01  2.99637E+01  3.06928E+01
#           3.14396E+01  3.22045E+01  3.29881E+01  3.37907E+01  3.46128E+01
#           3.54550E+01  3.63177E+01  3.72013E+01  3.81064E+01  3.90336E+01
#           3.99833E+01  4.09561E+01  4.19526E+01  4.29734E+01  4.40189E+01
#           4.50900E+01  4.61870E+01  4.73108E+01  4.84619E+01  4.96410E+01
#           5.08488E+01  5.20860E+01  5.33533E+01  5.46514E+01  5.59812E+01
#           5.73432E+01  5.87384E+01  6.01676E+01  6.16315E+01  6.31311E+01
#           6.46671E+01  6.62405E+01  6.78522E+01  6.95031E+01  7.11941E+01
#           7.29263E+01  7.47007E+01  7.65182E+01  7.83800E+01  8.02870E+01
#           8.22405E+01  8.42414E+01  8.62911E+01  8.83906E+01  9.05412E+01
#           9.27442E+01  9.50007E+01  9.73122E+01  9.96799E+01  1.02105E+02
#           1.04589E+02  1.07134E+02  1.09741E+02  1.12411E+02  1.15146E+02
#           1.17948E+02  1.20817E+02  1.23757E+02  1.26768E+02  1.29852E+02
#           1.33012E+02  1.36248E+02  1.39563E+02  1.42959E+02  1.46437E+02
#           1.50000E+02
     unit =    2            # unit is [1/cm^2/(MeV/n)/source]
     axis =  eng            # axis of output
     file = detector-06.out  # file name of output for the above axis
   output = f-curr          # surface crossing forward current spectrum
     part =  neutron  
# kf/name :  2112     
#    used :        main (  %)        temp (  %)       total (  %)
#  memory :         414 (  0)           0 (  0)         414 (  0)

#------------------------------------------------------------------------------
#newpage:
#   no. =    1   reg = 105 - 205

x: Energy [MeV/n]
y:  F-Curr [1/cm^2/(MeV/n)/source]         
p: xlog ylog afac(0.8) form(0.9)
h: n            x            y(neutron ),hh0l   n 
#  e-lower      e-upper      neutron     r.err 
   1.0000E-02   1.0243E-02   1.0821E-03  0.0870
   1.0243E-02   1.0493E-02   1.0327E-03  0.0875
   1.0493E-02   1.0748E-02   8.1135E-04  0.0978
   1.0748E-02   1.1009E-02   9.9121E-04  0.0875
   1.1009E-02   1.1277E-02   8.7861E-04  0.0914
   1.1277E-02   1.1552E-02   9.9733E-04  0.0851
   1.1552E-02   1.1833E-02   1.0011E-03  0.0837
   1.1833E-02   1.2121E-02   8.7512E-04  0.0889
   1.2121E-02   1.2415E-02   7.8160E-04  0.0928
   1.2415E-02   1.2718E-02   8.2567E-04  0.0889
   1.2718E-02   1.3027E-02   9.2101E-04  0.0835
   1.3027E-02   1.3344E-02   8.3360E-04  0.0863
   1.3344E-02   1.3669E-02   7.4694E-04  0.0904
   1.3669E-02   1.4001E-02   6.8659E-04  0.0932
   1.4001E-02   1.4342E-02   8.4203E-04  0.0828
   1.4342E-02   1.4691E-02   9.2850E-04  0.0784
   1.4691E-02   1.5048E-02   7.2383E-04  0.0873
   1.5048E-02   1.5414E-02   7.2778E-04  0.0862
   1.5414E-02   1.5789E-02   6.5294E-04  0.0899
   1.5789E-02   1.6174E-02   6.4088E-04  0.0896
   1.6174E-02   1.6567E-02   6.7655E-04  0.0861
   1.6567E-02   1.6970E-02   6.0374E-04  0.0903
   1.6970E-02   1.7383E-02   6.1350E-04  0.0885
   1.7383E-02   1.7806E-02   7.6070E-04  0.0783
   1.7806E-02   1.8239E-02   6.1833E-04  0.0860
   1.8239E-02   1.8683E-02   5.3433E-04  0.0914
   1.8683E-02   1.9138E-02   6.0610E-04  0.0844
   1.9138E-02   1.9603E-02   5.6922E-04  0.0861
   1.9603E-02   2.0080E-02   5.3074E-04  0.0883
   2.0080E-02   2.0569E-02   5.2130E-04  0.0876
   2.0569E-02   2.1069E-02   5.3196E-04  0.0862
   2.1069E-02   2.1582E-02   5.8297E-04  0.0813
   2.1582E-02   2.2107E-02   4.7190E-04  0.0891
   2.2107E-02   2.2645E-02   5.4576E-04  0.0822
   2.2645E-02   2.3196E-02   4.3967E-04  0.0902
   2.3196E-02   2.3760E-02   5.0417E-04  0.0833
   2.3760E-02   2.4338E-02   5.4163E-04  0.0795
   2.4338E-02   2.4930E-02   5.0147E-04  0.0815
   2.4930E-02   2.5537E-02   4.4345E-04  0.0854
   2.5537E-02   2.6158E-02   5.1924E-04  0.0783
   2.6158E-02   2.6795E-02   4.8727E-04  0.0801
   2.6795E-02   2.7447E-02   4.6205E-04  0.0812
   2.7447E-02   2.8114E-02   4.4035E-04  0.0820
   2.8114E-02   2.8799E-02   4.5972E-04  0.0793
   2.8799E-02   2.9499E-02   4.4777E-04  0.0789
   2.9499E-02   3.0217E-02   4.3508E-04  0.0797
   3.0217E-02   3.0952E-02   4.1959E-04  0.0803
   3.0952E-02   3.1705E-02   4.1266E-04  0.0798
   3.1705E-02   3.2477E-02   4.0604E-04  0.0794
   3.2477E-02   3.3267E-02   3.9183E-04  0.0802
   3.3267E-02   3.4076E-02   3.2505E-04  0.0868
   3.4076E-02   3.4905E-02   3.6220E-04  0.0812
   3.4905E-02   3.5755E-02   3.6312E-04  0.0802
   3.5755E-02   3.6625E-02   3.5632E-04  0.0800
   3.6625E-02   3.7516E-02   3.0859E-04  0.0848
   3.7516E-02   3.8428E-02   2.8931E-04  0.0862
   3.8428E-02   3.9363E-02   3.0972E-04  0.0827
   3.9363E-02   4.0321E-02   3.2023E-04  0.0805
   4.0321E-02   4.1302E-02   3.3126E-04  0.0779
   4.1302E-02   4.2307E-02   3.4377E-04  0.0758
   4.2307E-02   4.3337E-02   2.7985E-04  0.0828
   4.3337E-02   4.4391E-02   2.9892E-04  0.0790
   4.4391E-02   4.5471E-02   2.7088E-04  0.0824
   4.5471E-02   4.6577E-02   2.5901E-04  0.0833
   4.6577E-02   4.7711E-02   2.8810E-04  0.0777
   4.7711E-02   4.8871E-02   2.8118E-04  0.0779
   4.8871E-02   5.0061E-02   2.8036E-04  0.0770
   5.0061E-02   5.1279E-02   2.6546E-04  0.0782
   5.1279E-02   5.2526E-02   2.8365E-04  0.0749
   5.2526E-02   5.3804E-02   2.6019E-04  0.0770
   5.3804E-02   5.5113E-02   2.5272E-04  0.0773
   5.5113E-02   5.6454E-02   2.2861E-04  0.0803
   5.6454E-02   5.7828E-02   2.1952E-04  0.0808
   5.7828E-02   5.9235E-02   2.5985E-04  0.0737
   5.9235E-02   6.0676E-02   2.3635E-04  0.0764
   6.0676E-02   6.2152E-02   1.8445E-04  0.0852
   6.2152E-02   6.3665E-02   2.2571E-04  0.0761
   6.3665E-02   6.5214E-02   1.9835E-04  0.0801
   6.5214E-02   6.6800E-02   2.2619E-04  0.0741
   6.6800E-02   6.8426E-02   1.8687E-04  0.0807
   6.8426E-02   7.0090E-02   2.1213E-04  0.0748
   7.0090E-02   7.1796E-02   1.9604E-04  0.0770
   7.1796E-02   7.3543E-02   1.9983E-04  0.0753
   7.3543E-02   7.5332E-02   1.9665E-04  0.0746
   7.5332E-02   7.7165E-02   1.7913E-04  0.0777
   7.7165E-02   7.9042E-02   1.8154E-04  0.0762
   7.9042E-02   8.0965E-02   1.9447E-04  0.0726
   8.0965E-02   8.2935E-02   1.9302E-04  0.0722
   8.2935E-02   8.4953E-02   1.6686E-04  0.0767
   8.4953E-02   8.7020E-02   1.5187E-04  0.0791
   8.7020E-02   8.9138E-02   1.6986E-04  0.0743
   8.9138E-02   9.1306E-02   1.5362E-04  0.0770
   9.1306E-02   9.3528E-02   1.6244E-04  0.0741
   9.3528E-02   9.5804E-02   1.6516E-04  0.0725
   9.5804E-02   9.8134E-02   1.4587E-04  0.0762
   9.8134E-02   1.0052E-01   1.8135E-04  0.0676
   1.0052E-01   1.0297E-01   1.3065E-04  0.0787
   1.0297E-01   1.0547E-01   1.3954E-04  0.0754
   1.0547E-01   1.0804E-01   1.2621E-04  0.0782
   1.0804E-01   1.1067E-01   1.4412E-04  0.0724
   1.1067E-01   1.1336E-01   1.2602E-04  0.0765
   1.1336E-01   1.1612E-01   1.2598E-04  0.0754
   1.1612E-01   1.1894E-01   1.1789E-04  0.0770
   1.1894E-01   1.2184E-01   1.2733E-04  0.0732
   1.2184E-01   1.2480E-01   1.3524E-04  0.0704
   1.2480E-01   1.2784E-01   1.2675E-04  0.0718
   1.2784E-01   1.3095E-01   1.2162E-04  0.0722
   1.3095E-01   1.3414E-01   1.3007E-04  0.0692
   1.3414E-01   1.3740E-01   9.9727E-05  0.0778
   1.3740E-01   1.4074E-01   1.1778E-04  0.0709
   1.4074E-01   1.4417E-01   9.7175E-05  0.0772
   1.4417E-01   1.4767E-01   9.6267E-05  0.0762
   1.4767E-01   1.5127E-01   1.0205E-04  0.0737
   1.5127E-01   1.5495E-01   9.4138E-05  0.0755
   1.5495E-01   1.5872E-01   9.9545E-05  0.0727
   1.5872E-01   1.6258E-01   9.3380E-05  0.0743
   1.6258E-01   1.6654E-01   1.1979E-04  0.0645
   1.6654E-01   1.7059E-01   9.5994E-05  0.0713
   1.7059E-01   1.7474E-01   8.6599E-05  0.0743
   1.7474E-01   1.7899E-01   8.5951E-05  0.0736
   1.7899E-01   1.8334E-01   8.4999E-05  0.0730
   1.8334E-01   1.8781E-01   8.7519E-05  0.0710
   1.8781E-01   1.9237E-01   9.0494E-05  0.0691
   1.9237E-01   1.9706E-01   8.0675E-05  0.0724
   1.9706E-01   2.0185E-01   7.0335E-05  0.0765
   2.0185E-01   2.0676E-01   9.0275E-05  0.0668
   2.0676E-01   2.1179E-01   8.5240E-05  0.0680
   2.1179E-01   2.1694E-01   9.4277E-05  0.0637
   2.1694E-01   2.2222E-01   8.2084E-05  0.0675
   2.2222E-01   2.2763E-01   8.4260E-05  0.0660
   2.2763E-01   2.3317E-01   9.3927E-05  0.0615
   2.3317E-01   2.3884E-01   9.8887E-05  0.0594
   2.3884E-01   2.4465E-01   1.0678E-04  0.0564
   2.4465E-01   2.5061E-01   1.1415E-04  0.0540
   2.5061E-01   2.5670E-01   1.0175E-04  0.0564
   2.5670E-01   2.6295E-01   1.1599E-04  0.0522
   2.6295E-01   2.6935E-01   1.1027E-04  0.0530
   2.6935E-01   2.7590E-01   1.2068E-04  0.0500
   2.7590E-01   2.8261E-01   1.3196E-04  0.0473
   2.8261E-01   2.8949E-01   1.3854E-04  0.0456
   2.8949E-01   2.9653E-01   1.2134E-04  0.0481
   2.9653E-01   3.0375E-01   1.4887E-04  0.0429
   3.0375E-01   3.1114E-01   1.4927E-04  0.0424
   3.1114E-01   3.1871E-01   1.4310E-04  0.0427
   3.1871E-01   3.2646E-01   1.4674E-04  0.0416
   3.2646E-01   3.3441E-01   1.5173E-04  0.0405
   3.3441E-01   3.4254E-01   1.4751E-04  0.0406
   3.4254E-01   3.5088E-01   1.5523E-04  0.0390
   3.5088E-01   3.5941E-01   1.5001E-04  0.0392
   3.5941E-01   3.6816E-01   1.7138E-04  0.0364
   3.6816E-01   3.7712E-01   1.6569E-04  0.0365
   3.7712E-01   3.8629E-01   1.7836E-04  0.0348
   3.8629E-01   3.9569E-01   1.7295E-04  0.0349
   3.9569E-01   4.0532E-01   1.8234E-04  0.0335
   4.0532E-01   4.1518E-01   1.8829E-04  0.0326
   4.1518E-01   4.2528E-01   1.9169E-04  0.0320
   4.2528E-01   4.3563E-01   2.0441E-04  0.0306
   4.3563E-01   4.4623E-01   1.9224E-04  0.0312
   4.4623E-01   4.5708E-01   2.0198E-04  0.0300
   4.5708E-01   4.6821E-01   2.0946E-04  0.0291
   4.6821E-01   4.7960E-01   2.0624E-04  0.0290
   4.7960E-01   4.9127E-01   2.1449E-04  0.0281
   4.9127E-01   5.0322E-01   2.2817E-04  0.0269
   5.0322E-01   5.1546E-01   2.2274E-04  0.0269
   5.1546E-01   5.2800E-01   2.1645E-04  0.0270
   5.2800E-01   5.4085E-01   2.2791E-04  0.0260
   5.4085E-01   5.5401E-01   2.2181E-04  0.0260
   5.5401E-01   5.6749E-01   2.2727E-04  0.0254
   5.6749E-01   5.8130E-01   2.3602E-04  0.0246
   5.8130E-01   5.9544E-01   2.3118E-04  0.0246
   5.9544E-01   6.0993E-01   2.4784E-04  0.0235
   6.0993E-01   6.2477E-01   2.3905E-04  0.0236
   6.2477E-01   6.3997E-01   2.4491E-04  0.0230
   6.3997E-01   6.5554E-01   2.5571E-04  0.0223
   6.5554E-01   6.7149E-01   2.5072E-04  0.0222
   6.7149E-01   6.8783E-01   2.4981E-04  0.0220
   6.8783E-01   7.0456E-01   2.5579E-04  0.0215
   7.0456E-01   7.2171E-01   2.5888E-04  0.0211
   7.2171E-01   7.3927E-01   2.6096E-04  0.0208
   7.3927E-01   7.5725E-01   2.5170E-04  0.0209
   7.5725E-01   7.7568E-01   2.6320E-04  0.0202
   7.7568E-01   7.9455E-01   2.5886E-04  0.0201
   7.9455E-01   8.1388E-01   2.7088E-04  0.0194
   8.1388E-01   8.3368E-01   2.5534E-04  0.0198
   8.3368E-01   8.5397E-01   2.5359E-04  0.0196
   8.5397E-01   8.7475E-01   2.6135E-04  0.0191
   8.7475E-01   8.9603E-01   2.6300E-04  0.0188
   8.9603E-01   9.1783E-01   2.6714E-04  0.0184
   9.1783E-01   9.4016E-01   2.5877E-04  0.0185
   9.4016E-01   9.6304E-01   2.6796E-04  0.0179
   9.6304E-01   9.8647E-01   2.6876E-04  0.0177
   9.8647E-01   1.0105E+00   2.6658E-04  0.0176
   1.0105E+00   1.0351E+00   2.7094E-04  0.0172
   1.0351E+00   1.0602E+00   2.6603E-04  0.0172
   1.0602E+00   1.0860E+00   2.6848E-04  0.0169
   1.0860E+00   1.1125E+00   2.7288E-04  0.0166
   1.1125E+00   1.1395E+00   2.6284E-04  0.0166
   1.1395E+00   1.1673E+00   2.6177E-04  0.0165
   1.1673E+00   1.1957E+00   2.5690E-04  0.0164
   1.1957E+00   1.2247E+00   2.6211E-04  0.0161
   1.2247E+00   1.2545E+00   2.6457E-04  0.0158
   1.2545E+00   1.2851E+00   2.6000E-04  0.0158
   1.2851E+00   1.3163E+00   2.5037E-04  0.0159
   1.3163E+00   1.3484E+00   2.5913E-04  0.0154
   1.3484E+00   1.3812E+00   2.5756E-04  0.0153
   1.3812E+00   1.4148E+00   2.6134E-04  0.0150
   1.4148E+00   1.4492E+00   2.5509E-04  0.0150
   1.4492E+00   1.4845E+00   2.5922E-04  0.0147
   1.4845E+00   1.5206E+00   2.5814E-04  0.0145
   1.5206E+00   1.5576E+00   2.5689E-04  0.0144
   1.5576E+00   1.5955E+00   2.5293E-04  0.0143
   1.5955E+00   1.6343E+00   2.4363E-04  0.0144
   1.6343E+00   1.6741E+00   2.4840E-04  0.0141
   1.6741E+00   1.7148E+00   2.3902E-04  0.0142
   1.7148E+00   1.7565E+00   2.4711E-04  0.0138
   1.7565E+00   1.7992E+00   2.4133E-04  0.0138
   1.7992E+00   1.8430E+00   2.4003E-04  0.0137
   1.8430E+00   1.8879E+00   2.4391E-04  0.0134
   1.8879E+00   1.9338E+00   2.4035E-04  0.0134
   1.9338E+00   1.9808E+00   2.3450E-04  0.0134
   1.9808E+00   2.0290E+00   2.3997E-04  0.0131
   2.0290E+00   2.0784E+00   2.3873E-04  0.0129
   2.0784E+00   2.1290E+00   2.2487E-04  0.0132
   2.1290E+00   2.1808E+00   2.3060E-04  0.0129
   2.1808E+00   2.2338E+00   2.2846E-04  0.0128
   2.2338E+00   2.2882E+00   2.2445E-04  0.0127
   2.2882E+00   2.3439E+00   2.2397E-04  0.0126
   2.3439E+00   2.4009E+00   2.3008E-04  0.0123
   2.4009E+00   2.4593E+00   2.2010E-04  0.0124
   2.4593E+00   2.5191E+00   2.1867E-04  0.0123
   2.5191E+00   2.5804E+00   2.1473E-04  0.0122
   2.5804E+00   2.6432E+00   2.1258E-04  0.0122
   2.6432E+00   2.7075E+00   2.1306E-04  0.0120
   2.7075E+00   2.7734E+00   2.1318E-04  0.0119
   2.7734E+00   2.8409E+00   2.0549E-04  0.0119
   2.8409E+00   2.9100E+00   2.0707E-04  0.0117
   2.9100E+00   2.9808E+00   2.0544E-04  0.0117
   2.9808E+00   3.0533E+00   2.0564E-04  0.0115
   3.0533E+00   3.1276E+00   1.9725E-04  0.0116
   3.1276E+00   3.2037E+00   1.9657E-04  0.0115
   3.2037E+00   3.2817E+00   1.9759E-04  0.0113
   3.2817E+00   3.3615E+00   1.8951E-04  0.0114
   3.3615E+00   3.4433E+00   1.9053E-04  0.0113
   3.4433E+00   3.5271E+00   1.8736E-04  0.0112
   3.5271E+00   3.6129E+00   1.8280E-04  0.0112
   3.6129E+00   3.7008E+00   1.8365E-04  0.0111
   3.7008E+00   3.7908E+00   1.7855E-04  0.0111
   3.7908E+00   3.8831E+00   1.7394E-04  0.0111
   3.8831E+00   3.9776E+00   1.7382E-04  0.0110
   3.9776E+00   4.0743E+00   1.7090E-04  0.0109
   4.0743E+00   4.1735E+00   1.6720E-04  0.0109
   4.1735E+00   4.2750E+00   1.6858E-04  0.0108
   4.2750E+00   4.3790E+00   1.6492E-04  0.0107
   4.3790E+00   4.4856E+00   1.6110E-04  0.0107
   4.4856E+00   4.5947E+00   1.5900E-04  0.0107
   4.5947E+00   4.7065E+00   1.5528E-04  0.0107
   4.7065E+00   4.8210E+00   1.5506E-04  0.0106
   4.8210E+00   4.9383E+00   1.5091E-04  0.0106
   4.9383E+00   5.0585E+00   1.5031E-04  0.0105
   5.0585E+00   5.1815E+00   1.4942E-04  0.0104
   5.1815E+00   5.3076E+00   1.5122E-04  0.0102
   5.3076E+00   5.4368E+00   1.4712E-04  0.0102
   5.4368E+00   5.5690E+00   1.4461E-04  0.0102
   5.5690E+00   5.7045E+00   1.3782E-04  0.0103
   5.7045E+00   5.8433E+00   1.3903E-04  0.0101
   5.8433E+00   5.9855E+00   1.3617E-04  0.0101
   5.9855E+00   6.1311E+00   1.3080E-04  0.0102
   6.1311E+00   6.2803E+00   1.2986E-04  0.0101
   6.2803E+00   6.4331E+00   1.2773E-04  0.0101
   6.4331E+00   6.5896E+00   1.2293E-04  0.0102
   6.5896E+00   6.7500E+00   1.2309E-04  0.0100
   6.7500E+00   6.9142E+00   1.2016E-04  0.0100
   6.9142E+00   7.0824E+00   1.1900E-04  0.0100
   7.0824E+00   7.2548E+00   1.1493E-04  0.0100
   7.2548E+00   7.4313E+00   1.1307E-04  0.0100
   7.4313E+00   7.6121E+00   1.0999E-04  0.0100
   7.6121E+00   7.7973E+00   1.0808E-04  0.0100
   7.7973E+00   7.9870E+00   1.0734E-04  0.0099
   7.9870E+00   8.1813E+00   1.0389E-04  0.0099
   8.1813E+00   8.3804E+00   1.0416E-04  0.0098
   8.3804E+00   8.5843E+00   1.0195E-04  0.0098
   8.5843E+00   8.7931E+00   9.9094E-05  0.0098
   8.7931E+00   9.0071E+00   9.8017E-05  0.0097
   9.0071E+00   9.2262E+00   9.7748E-05  0.0096
   9.2262E+00   9.4507E+00   9.4231E-05  0.0097
   9.4507E+00   9.6807E+00   9.3642E-05  0.0096
   9.6807E+00   9.9162E+00   9.2093E-05  0.0096
   9.9162E+00   1.0157E+01   9.1584E-05  0.0095
   1.0157E+01   1.0405E+01   9.0702E-05  0.0094
   1.0405E+01   1.0658E+01   8.9289E-05  0.0094
   1.0658E+01   1.0917E+01   8.9448E-05  0.0093
   1.0917E+01   1.1183E+01   8.9501E-05  0.0092
   1.1183E+01   1.1455E+01   8.7238E-05  0.0092
   1.1455E+01   1.1733E+01   8.5457E-05  0.0092
   1.1733E+01   1.2019E+01   8.6040E-05  0.0090
   1.2019E+01   1.2311E+01   8.5024E-05  0.0090
   1.2311E+01   1.2611E+01   8.4046E-05  0.0089
   1.2611E+01   1.2918E+01   8.3573E-05  0.0088
   1.2918E+01   1.3232E+01   8.2776E-05  0.0088
   1.3232E+01   1.3554E+01   8.2572E-05  0.0087
   1.3554E+01   1.3884E+01   8.2352E-05  0.0086
   1.3884E+01   1.4222E+01   8.1574E-05  0.0085
   1.4222E+01   1.4568E+01   8.0844E-05  0.0085
   1.4568E+01   1.4922E+01   8.0829E-05  0.0084
   1.4922E+01   1.5285E+01   8.0344E-05  0.0083
   1.5285E+01   1.5657E+01   8.0409E-05  0.0082
   1.5657E+01   1.6038E+01   8.1985E-05  0.0080
   1.6038E+01   1.6428E+01   7.9331E-05  0.0080
   1.6428E+01   1.6828E+01   8.0985E-05  0.0079
   1.6828E+01   1.7237E+01   8.0293E-05  0.0078
   1.7237E+01   1.7657E+01   8.0748E-05  0.0077
   1.7657E+01   1.8086E+01   8.1745E-05  0.0075
   1.8086E+01   1.8526E+01   8.1394E-05  0.0075
   1.8526E+01   1.8977E+01   8.2558E-05  0.0073
   1.8977E+01   1.9439E+01   8.3828E-05  0.0072
   1.9439E+01   1.9912E+01   8.5905E-05  0.0070
   1.9912E+01   2.0396E+01   8.7502E-05  0.0069
   2.0396E+01   2.0893E+01   8.8772E-05  0.0067
   2.0893E+01   2.1401E+01   8.9713E-05  0.0066
   2.1401E+01   2.1922E+01   9.0520E-05  0.0065
   2.1922E+01   2.2455E+01   9.1865E-05  0.0064
   2.2455E+01   2.3001E+01   9.4021E-05  0.0062
   2.3001E+01   2.3561E+01   9.5422E-05  0.0061
   2.3561E+01   2.4134E+01   9.7192E-05  0.0060
   2.4134E+01   2.4721E+01   9.9645E-05  0.0058
   2.4721E+01   2.5323E+01   1.0111E-04  0.0057
   2.5323E+01   2.5939E+01   1.0384E-04  0.0056
   2.5939E+01   2.6570E+01   1.0590E-04  0.0055
   2.6570E+01   2.7217E+01   1.0935E-04  0.0053
   2.7217E+01   2.7879E+01   1.1331E-04  0.0052
   2.7879E+01   2.8557E+01   1.1708E-04  0.0050
   2.8557E+01   2.9252E+01   1.1995E-04  0.0049
   2.9252E+01   2.9964E+01   1.2509E-04  0.0047
   2.9964E+01   3.0693E+01   1.3009E-04  0.0046
   3.0693E+01   3.1440E+01   1.3379E-04  0.0045
   3.1440E+01   3.2205E+01   1.3903E-04  0.0043
   3.2205E+01   3.2988E+01   1.4483E-04  0.0042
   3.2988E+01   3.3791E+01   1.4970E-04  0.0041
   3.3791E+01   3.4613E+01   1.5637E-04  0.0039
   3.4613E+01   3.5455E+01   1.6185E-04  0.0038
   3.5455E+01   3.6318E+01   1.7037E-04  0.0037
   3.6318E+01   3.7201E+01   1.7636E-04  0.0036
   3.7201E+01   3.8106E+01   1.8436E-04  0.0035
   3.8106E+01   3.9034E+01   1.8827E-04  0.0034
   3.9034E+01   3.9983E+01   1.9680E-04  0.0033
   3.9983E+01   4.0956E+01   2.0252E-04  0.0032
   4.0956E+01   4.1953E+01   2.0957E-04  0.0031
   4.1953E+01   4.2973E+01   2.1344E-04  0.0030
   4.2973E+01   4.4019E+01   2.1897E-04  0.0030
   4.4019E+01   4.5090E+01   2.2292E-04  0.0029
   4.5090E+01   4.6187E+01   2.2604E-04  0.0028
   4.6187E+01   4.7311E+01   2.2878E-04  0.0028
   4.7311E+01   4.8462E+01   2.2894E-04  0.0028
   4.8462E+01   4.9641E+01   2.2921E-04  0.0027
   4.9641E+01   5.0849E+01   2.2602E-04  0.0027
   5.0849E+01   5.2086E+01   2.2489E-04  0.0027
   5.2086E+01   5.3353E+01   2.2124E-04  0.0027
   5.3353E+01   5.4651E+01   2.1479E-04  0.0027
   5.4651E+01   5.5981E+01   2.0810E-04  0.0027
   5.5981E+01   5.7343E+01   2.0176E-04  0.0027
   5.7343E+01   5.8738E+01   1.9279E-04  0.0027
   5.8738E+01   6.0168E+01   1.8188E-04  0.0028
   6.0168E+01   6.1632E+01   1.7284E-04  0.0028
   6.1632E+01   6.3131E+01   1.6088E-04  0.0029
   6.3131E+01   6.4667E+01   1.5014E-04  0.0029
   6.4667E+01   6.6240E+01   1.3914E-04  0.0030
   6.6240E+01   6.7852E+01   1.2794E-04  0.0031
   6.7852E+01   6.9503E+01   1.1618E-04  0.0032
   6.9503E+01   7.1194E+01   1.0614E-04  0.0033
   7.1194E+01   7.2926E+01   9.5216E-05  0.0035
   7.2926E+01   7.4701E+01   8.5470E-05  0.0036
   7.4701E+01   7.6518E+01   7.5612E-05  0.0038
   7.6518E+01   7.8380E+01   6.7156E-05  0.0040
   7.8380E+01   8.0287E+01   5.8649E-05  0.0042
   8.0287E+01   8.2240E+01   5.0890E-05  0.0045
   8.2240E+01   8.4241E+01   4.4834E-05  0.0047
   8.4241E+01   8.6291E+01   4.1478E-05  0.0049
   8.6291E+01   8.8391E+01   3.7615E-05  0.0050
   8.8391E+01   9.0541E+01   3.3204E-05  0.0053
   9.0541E+01   9.2744E+01   2.8111E-05  0.0057
   9.2744E+01   9.5001E+01   2.3734E-05  0.0061
   9.5001E+01   9.7312E+01   1.9882E-05  0.0066
   9.7312E+01   9.9680E+01   1.6642E-05  0.0071
   9.9680E+01   1.0211E+02   1.3811E-05  0.0077
   1.0211E+02   1.0459E+02   1.1569E-05  0.0083
   1.0459E+02   1.0713E+02   9.5499E-06  0.0091
   1.0713E+02   1.0974E+02   8.0870E-06  0.0097
   1.0974E+02   1.1241E+02   6.8799E-06  0.0104
   1.1241E+02   1.1515E+02   4.8211E-06  0.0123
   1.1515E+02   1.1795E+02   1.7961E-06  0.0199
   1.1795E+02   1.2082E+02   2.3765E-07  0.0542
   1.2082E+02   1.2376E+02   0.0000E+00  0.0000
   1.2376E+02   1.2677E+02   0.0000E+00  0.0000
   1.2677E+02   1.2985E+02   0.0000E+00  0.0000
   1.2985E+02   1.3301E+02   0.0000E+00  0.0000
   1.3301E+02   1.3625E+02   0.0000E+00  0.0000
   1.3625E+02   1.3956E+02   0.0000E+00  0.0000
   1.3956E+02   1.4296E+02   0.0000E+00  0.0000
   1.4296E+02   1.4644E+02   0.0000E+00  0.0000
   1.4644E+02   1.5000E+02   0.0000E+00  0.0000

#   sum over                 8.2692E-05
'no. =    1   reg = 105 - 205'
msuc: {\huge [t-cross] in region mesh}
msdr: {\it plotted by \ANGEL \version}
msdl: {\it calculated by \PHITS  3.26}
wt: s(0.7)
\vspace{-3}
  region surface crossing
  area  &=&   1.0000E+00 [cm^2]
e:
 
# Information for Restart Calculation
# This calculation was newly started
# istdev =  2 # 1:Batch variance, 2:History variance
# resc2  = 5.00000000000000000E+08 # Total source weight or Total source weight / maxcas
# resc3  = 5.00000000000000000E+08 # Total history number or Total batch number
# maxcas =   500000000 # History / Batch, only used for istdev=1
# bitrseed = 1101101111010011011000101101110001100110110010110001010100010001 # bit data of rseed
