[ T-Cross ]
    title = [t-cross] in region mesh
     mesh =  reg            # mesh type is region-wise
      reg =    1            # number of crossing regions
      non     r-from    r-to       area
      1       118       218        1.000000    
   e-type =    3            # e-mesh is log given by emin, emax and ne
     emin =  1.0000000E-02  # minimum value of e-mesh points
     emax =   150.0000      # maximum value of e-mesh points
#    edel =  2.4039514E-02  # mesh width of e-mesh points
       ne =    400          # number of e-mesh points
#    data = ( e(i), i = 1, ne + 1 )
#           1.00000E-02  1.02433E-02  1.04925E-02  1.07478E-02  1.10093E-02
#           1.12772E-02  1.15516E-02  1.18326E-02  1.21205E-02  1.24154E-02
#           1.27175E-02  1.30269E-02  1.33439E-02  1.36686E-02  1.40011E-02
#           1.43418E-02  1.46907E-02  1.50482E-02  1.54143E-02  1.57894E-02
#           1.61735E-02  1.65670E-02  1.69701E-02  1.73830E-02  1.78060E-02
#           1.82392E-02  1.86830E-02  1.91375E-02  1.96032E-02  2.00801E-02
#           2.05687E-02  2.10692E-02  2.15818E-02  2.21069E-02  2.26448E-02
#           2.31957E-02  2.37601E-02  2.43382E-02  2.49304E-02  2.55369E-02
#           2.61583E-02  2.67947E-02  2.74467E-02  2.81145E-02  2.87985E-02
#           2.94992E-02  3.02169E-02  3.09521E-02  3.17052E-02  3.24766E-02
#           3.32668E-02  3.40762E-02  3.49053E-02  3.57546E-02  3.66246E-02
#           3.75157E-02  3.84284E-02  3.93634E-02  4.03212E-02  4.13022E-02
#           4.23071E-02  4.33365E-02  4.43909E-02  4.54710E-02  4.65773E-02
#           4.77106E-02  4.88714E-02  5.00605E-02  5.12785E-02  5.25262E-02
#           5.38042E-02  5.51133E-02  5.64542E-02  5.78278E-02  5.92348E-02
#           6.06760E-02  6.21523E-02  6.36645E-02  6.52135E-02  6.68002E-02
#           6.84255E-02  7.00904E-02  7.17957E-02  7.35426E-02  7.53319E-02
#           7.71648E-02  7.90423E-02  8.09655E-02  8.29354E-02  8.49533E-02
#           8.70203E-02  8.91376E-02  9.13064E-02  9.35279E-02  9.58035E-02
#           9.81345E-02  1.00522E-01  1.02968E-01  1.05473E-01  1.08040E-01
#           1.10668E-01  1.13361E-01  1.16119E-01  1.18944E-01  1.21838E-01
#           1.24803E-01  1.27839E-01  1.30950E-01  1.34136E-01  1.37399E-01
#           1.40742E-01  1.44167E-01  1.47675E-01  1.51268E-01  1.54948E-01
#           1.58718E-01  1.62580E-01  1.66535E-01  1.70587E-01  1.74738E-01
#           1.78989E-01  1.83344E-01  1.87805E-01  1.92375E-01  1.97055E-01
#           2.01850E-01  2.06761E-01  2.11792E-01  2.16945E-01  2.22223E-01
#           2.27630E-01  2.33169E-01  2.38842E-01  2.44653E-01  2.50605E-01
#           2.56703E-01  2.62949E-01  2.69346E-01  2.75900E-01  2.82613E-01
#           2.89489E-01  2.96532E-01  3.03747E-01  3.11138E-01  3.18708E-01
#           3.26462E-01  3.34405E-01  3.42542E-01  3.50876E-01  3.59413E-01
#           3.68158E-01  3.77116E-01  3.86291E-01  3.95690E-01  4.05317E-01
#           4.15179E-01  4.25281E-01  4.35628E-01  4.46227E-01  4.57084E-01
#           4.68205E-01  4.79597E-01  4.91266E-01  5.03219E-01  5.15463E-01
#           5.28005E-01  5.40851E-01  5.54011E-01  5.67490E-01  5.81298E-01
#           5.95441E-01  6.09929E-01  6.24769E-01  6.39970E-01  6.55541E-01
#           6.71491E-01  6.87828E-01  7.04564E-01  7.21706E-01  7.39266E-01
#           7.57253E-01  7.75678E-01  7.94551E-01  8.13883E-01  8.33685E-01
#           8.53969E-01  8.74747E-01  8.96030E-01  9.17831E-01  9.40163E-01
#           9.63038E-01  9.86469E-01  1.01047E+00  1.03506E+00  1.06024E+00
#           1.08604E+00  1.11246E+00  1.13953E+00  1.16725E+00  1.19565E+00
#           1.22474E+00  1.25454E+00  1.28507E+00  1.31633E+00  1.34836E+00
#           1.38117E+00  1.41477E+00  1.44920E+00  1.48446E+00  1.52057E+00
#           1.55757E+00  1.59547E+00  1.63429E+00  1.67405E+00  1.71478E+00
#           1.75650E+00  1.79924E+00  1.84302E+00  1.88786E+00  1.93379E+00
#           1.98084E+00  2.02904E+00  2.07841E+00  2.12898E+00  2.18078E+00
#           2.23384E+00  2.28819E+00  2.34386E+00  2.40089E+00  2.45930E+00
#           2.51914E+00  2.58043E+00  2.64322E+00  2.70753E+00  2.77341E+00
#           2.84088E+00  2.91001E+00  2.98081E+00  3.05333E+00  3.12762E+00
#           3.20372E+00  3.28167E+00  3.36152E+00  3.44330E+00  3.52708E+00
#           3.61290E+00  3.70080E+00  3.79085E+00  3.88308E+00  3.97756E+00
#           4.07434E+00  4.17347E+00  4.27501E+00  4.37903E+00  4.48557E+00
#           4.59471E+00  4.70650E+00  4.82102E+00  4.93832E+00  5.05847E+00
#           5.18155E+00  5.30762E+00  5.43676E+00  5.56904E+00  5.70453E+00
#           5.84333E+00  5.98550E+00  6.13114E+00  6.28031E+00  6.43312E+00
#           6.58964E+00  6.74997E+00  6.91420E+00  7.08243E+00  7.25475E+00
#           7.43126E+00  7.61207E+00  7.79728E+00  7.98700E+00  8.18133E+00
#           8.38038E+00  8.58428E+00  8.79315E+00  9.00709E+00  9.22624E+00
#           9.45072E+00  9.68067E+00  9.91620E+00  1.01575E+01  1.04046E+01
#           1.06578E+01  1.09171E+01  1.11827E+01  1.14548E+01  1.17335E+01
#           1.20190E+01  1.23114E+01  1.26109E+01  1.29178E+01  1.32321E+01
#           1.35540E+01  1.38838E+01  1.42216E+01  1.45676E+01  1.49221E+01
#           1.52851E+01  1.56570E+01  1.60380E+01  1.64282E+01  1.68279E+01
#           1.72374E+01  1.76568E+01  1.80864E+01  1.85264E+01  1.89772E+01
#           1.94389E+01  1.99119E+01  2.03963E+01  2.08926E+01  2.14009E+01
#           2.19216E+01  2.24550E+01  2.30014E+01  2.35610E+01  2.41343E+01
#           2.47215E+01  2.53230E+01  2.59391E+01  2.65702E+01  2.72167E+01
#           2.78789E+01  2.85572E+01  2.92520E+01  2.99637E+01  3.06928E+01
#           3.14396E+01  3.22045E+01  3.29881E+01  3.37907E+01  3.46128E+01
#           3.54550E+01  3.63177E+01  3.72013E+01  3.81064E+01  3.90336E+01
#           3.99833E+01  4.09561E+01  4.19526E+01  4.29734E+01  4.40189E+01
#           4.50900E+01  4.61870E+01  4.73108E+01  4.84619E+01  4.96410E+01
#           5.08488E+01  5.20860E+01  5.33533E+01  5.46514E+01  5.59812E+01
#           5.73432E+01  5.87384E+01  6.01676E+01  6.16315E+01  6.31311E+01
#           6.46671E+01  6.62405E+01  6.78522E+01  6.95031E+01  7.11941E+01
#           7.29263E+01  7.47007E+01  7.65182E+01  7.83800E+01  8.02870E+01
#           8.22405E+01  8.42414E+01  8.62911E+01  8.83906E+01  9.05412E+01
#           9.27442E+01  9.50007E+01  9.73122E+01  9.96799E+01  1.02105E+02
#           1.04589E+02  1.07134E+02  1.09741E+02  1.12411E+02  1.15146E+02
#           1.17948E+02  1.20817E+02  1.23757E+02  1.26768E+02  1.29852E+02
#           1.33012E+02  1.36248E+02  1.39563E+02  1.42959E+02  1.46437E+02
#           1.50000E+02
     unit =    2            # unit is [1/cm^2/(MeV/n)/source]
     axis =  eng            # axis of output
     file = detector-19.out  # file name of output for the above axis
   output = f-curr          # surface crossing forward current spectrum
     part =  neutron  
# kf/name :  2112     
#    used :        main (  %)        temp (  %)       total (  %)
#  memory :         414 (  0)           0 (  0)         414 (  0)

#------------------------------------------------------------------------------
#newpage:
#   no. =    1   reg = 118 - 218

x: Energy [MeV/n]
y:  F-Curr [1/cm^2/(MeV/n)/source]         
p: xlog ylog afac(0.8) form(0.9)
h: n            x            y(neutron ),hh0l   n 
#  e-lower      e-upper      neutron     r.err 
   1.0000E-02   1.0243E-02   3.2007E-03  0.0504
   1.0243E-02   1.0493E-02   2.9064E-03  0.0523
   1.0493E-02   1.0748E-02   3.1697E-03  0.0495
   1.0748E-02   1.1009E-02   2.9535E-03  0.0507
   1.1009E-02   1.1277E-02   2.8198E-03  0.0512
   1.1277E-02   1.1552E-02   3.0616E-03  0.0486
   1.1552E-02   1.1833E-02   3.0252E-03  0.0483
   1.1833E-02   1.2121E-02   2.7523E-03  0.0500
   1.2121E-02   1.2415E-02   2.7761E-03  0.0492
   1.2415E-02   1.2718E-02   2.6156E-03  0.0500
   1.2718E-02   1.3027E-02   2.7115E-03  0.0486
   1.3027E-02   1.3344E-02   2.3996E-03  0.0511
   1.3344E-02   1.3669E-02   2.5057E-03  0.0493
   1.3669E-02   1.4001E-02   2.4724E-03  0.0491
   1.4001E-02   1.4342E-02   2.3984E-03  0.0493
   1.4342E-02   1.4691E-02   2.3308E-03  0.0493
   1.4691E-02   1.5048E-02   2.1265E-03  0.0510
   1.5048E-02   1.5414E-02   2.0367E-03  0.0515
   1.5414E-02   1.5789E-02   2.2800E-03  0.0481
   1.5789E-02   1.6174E-02   2.2858E-03  0.0475
   1.6174E-02   1.6567E-02   2.1681E-03  0.0482
   1.6567E-02   1.6970E-02   2.0432E-03  0.0490
   1.6970E-02   1.7383E-02   1.9664E-03  0.0495
   1.7383E-02   1.7806E-02   1.9302E-03  0.0493
   1.7806E-02   1.8239E-02   2.0761E-03  0.0470
   1.8239E-02   1.8683E-02   2.0291E-03  0.0469
   1.8683E-02   1.9138E-02   1.8663E-03  0.0484
   1.9138E-02   1.9603E-02   1.6839E-03  0.0502
   1.9603E-02   2.0080E-02   1.7229E-03  0.0490
   2.0080E-02   2.0569E-02   1.7245E-03  0.0486
   2.0569E-02   2.1069E-02   1.7141E-03  0.0481
   2.1069E-02   2.1582E-02   1.5768E-03  0.0495
   2.1582E-02   2.2107E-02   1.5946E-03  0.0487
   2.2107E-02   2.2645E-02   1.4837E-03  0.0498
   2.2645E-02   2.3196E-02   1.5237E-03  0.0484
   2.3196E-02   2.3760E-02   1.6611E-03  0.0460
   2.3760E-02   2.4338E-02   1.5048E-03  0.0477
   2.4338E-02   2.4930E-02   1.5471E-03  0.0465
   2.4930E-02   2.5537E-02   1.3866E-03  0.0486
   2.5537E-02   2.6158E-02   1.4197E-03  0.0474
   2.6158E-02   2.6795E-02   1.3096E-03  0.0488
   2.6795E-02   2.7447E-02   1.4477E-03  0.0458
   2.7447E-02   2.8114E-02   1.3344E-03  0.0472
   2.8114E-02   2.8799E-02   1.1515E-03  0.0501
   2.8799E-02   2.9499E-02   1.2457E-03  0.0476
   2.9499E-02   3.0217E-02   1.2182E-03  0.0475
   3.0217E-02   3.0952E-02   1.1909E-03  0.0476
   3.0952E-02   3.1705E-02   1.1223E-03  0.0485
   3.1705E-02   3.2477E-02   1.1687E-03  0.0468
   3.2477E-02   3.3267E-02   1.0514E-03  0.0488
   3.3267E-02   3.4076E-02   1.2325E-03  0.0446
   3.4076E-02   3.4905E-02   1.0739E-03  0.0473
   3.4905E-02   3.5755E-02   1.0477E-03  0.0472
   3.5755E-02   3.6625E-02   1.1078E-03  0.0453
   3.6625E-02   3.7516E-02   9.4058E-04  0.0486
   3.7516E-02   3.8428E-02   1.0093E-03  0.0464
   3.8428E-02   3.9363E-02   9.5918E-04  0.0470
   3.9363E-02   4.0321E-02   9.5710E-04  0.0465
   4.0321E-02   4.1302E-02   9.3473E-04  0.0465
   4.1302E-02   4.2307E-02   8.7910E-04  0.0474
   4.2307E-02   4.3337E-02   8.9863E-04  0.0462
   4.3337E-02   4.4391E-02   8.7416E-04  0.0464
   4.4391E-02   4.5471E-02   8.6201E-04  0.0462
   4.5471E-02   4.6577E-02   7.8663E-04  0.0477
   4.6577E-02   4.7711E-02   8.2650E-04  0.0460
   4.7711E-02   4.8871E-02   7.9081E-04  0.0465
   4.8871E-02   5.0061E-02   7.9750E-04  0.0457
   5.0061E-02   5.1279E-02   8.3514E-04  0.0442
   5.1279E-02   5.2526E-02   7.3406E-04  0.0465
   5.2526E-02   5.3804E-02   6.8897E-04  0.0474
   5.3804E-02   5.5113E-02   7.1595E-04  0.0460
   5.5113E-02   5.6454E-02   6.8181E-04  0.0466
   5.6454E-02   5.7828E-02   7.1870E-04  0.0448
   5.7828E-02   5.9235E-02   7.4351E-04  0.0436
   5.9235E-02   6.0676E-02   7.0975E-04  0.0440
   6.0676E-02   6.2152E-02   6.3775E-04  0.0459
   6.2152E-02   6.3665E-02   6.3060E-04  0.0456
   6.3665E-02   6.5214E-02   5.7805E-04  0.0471
   6.5214E-02   6.6800E-02   6.4255E-04  0.0440
   6.6800E-02   6.8426E-02   6.3709E-04  0.0438
   6.8426E-02   7.0090E-02   6.0452E-04  0.0444
   7.0090E-02   7.1796E-02   5.7760E-04  0.0449
   7.1796E-02   7.3543E-02   5.8212E-04  0.0442
   7.3543E-02   7.5332E-02   5.0628E-04  0.0468
   7.5332E-02   7.7165E-02   5.5912E-04  0.0440
   7.7165E-02   7.9042E-02   5.0683E-04  0.0456
   7.9042E-02   8.0965E-02   4.8032E-04  0.0463
   8.0965E-02   8.2935E-02   5.2514E-04  0.0438
   8.2935E-02   8.4953E-02   5.0657E-04  0.0441
   8.4953E-02   8.7020E-02   4.8696E-04  0.0444
   8.7020E-02   8.9138E-02   4.9554E-04  0.0434
   8.9138E-02   9.1306E-02   4.3686E-04  0.0457
   9.1306E-02   9.3528E-02   4.4143E-04  0.0449
   9.3528E-02   9.5804E-02   4.7277E-04  0.0429
   9.5804E-02   9.8134E-02   4.2960E-04  0.0445
   9.8134E-02   1.0052E-01   4.4270E-04  0.0433
   1.0052E-01   1.0297E-01   3.9213E-04  0.0455
   1.0297E-01   1.0547E-01   4.0265E-04  0.0443
   1.0547E-01   1.0804E-01   3.9656E-04  0.0441
   1.0804E-01   1.1067E-01   3.7395E-04  0.0449
   1.1067E-01   1.1336E-01   3.5616E-04  0.0455
   1.1336E-01   1.1612E-01   3.4612E-04  0.0456
   1.1612E-01   1.1894E-01   3.4732E-04  0.0449
   1.1894E-01   1.2184E-01   3.3982E-04  0.0449
   1.2184E-01   1.2480E-01   3.5609E-04  0.0434
   1.2480E-01   1.2784E-01   3.6853E-04  0.0421
   1.2784E-01   1.3095E-01   3.1441E-04  0.0450
   1.3095E-01   1.3414E-01   3.3978E-04  0.0429
   1.3414E-01   1.3740E-01   3.3014E-04  0.0429
   1.3740E-01   1.4074E-01   2.9001E-04  0.0452
   1.4074E-01   1.4417E-01   3.0339E-04  0.0436
   1.4417E-01   1.4767E-01   2.9332E-04  0.0439
   1.4767E-01   1.5127E-01   2.6595E-04  0.0455
   1.5127E-01   1.5495E-01   2.8900E-04  0.0432
   1.5495E-01   1.5872E-01   2.6250E-04  0.0448
   1.5872E-01   1.6258E-01   2.7641E-04  0.0431
   1.6258E-01   1.6654E-01   2.5655E-04  0.0442
   1.6654E-01   1.7059E-01   2.3740E-04  0.0454
   1.7059E-01   1.7474E-01   2.6418E-04  0.0426
   1.7474E-01   1.7899E-01   2.5683E-04  0.0426
   1.7899E-01   1.8334E-01   2.3620E-04  0.0438
   1.8334E-01   1.8781E-01   2.3849E-04  0.0432
   1.8781E-01   1.9237E-01   2.3569E-04  0.0429
   1.9237E-01   1.9706E-01   2.2189E-04  0.0436
   1.9706E-01   2.0185E-01   2.2610E-04  0.0428
   2.0185E-01   2.0676E-01   2.2562E-04  0.0422
   2.0676E-01   2.1179E-01   2.3471E-04  0.0409
   2.1179E-01   2.1694E-01   2.5130E-04  0.0391
   2.1694E-01   2.2222E-01   2.5027E-04  0.0387
   2.2222E-01   2.2763E-01   2.7084E-04  0.0368
   2.2763E-01   2.3317E-01   2.5507E-04  0.0374
   2.3317E-01   2.3884E-01   2.7640E-04  0.0356
   2.3884E-01   2.4465E-01   2.8469E-04  0.0345
   2.4465E-01   2.5061E-01   3.0538E-04  0.0330
   2.5061E-01   2.5670E-01   2.9017E-04  0.0335
   2.5670E-01   2.6295E-01   3.3408E-04  0.0308
   2.6295E-01   2.6935E-01   3.4953E-04  0.0298
   2.6935E-01   2.7590E-01   3.3812E-04  0.0299
   2.7590E-01   2.8261E-01   3.6234E-04  0.0285
   2.8261E-01   2.8949E-01   3.5978E-04  0.0283
   2.8949E-01   2.9653E-01   3.7752E-04  0.0273
   2.9653E-01   3.0375E-01   3.8932E-04  0.0265
   3.0375E-01   3.1114E-01   3.9471E-04  0.0260
   3.1114E-01   3.1871E-01   3.9434E-04  0.0257
   3.1871E-01   3.2646E-01   4.2929E-04  0.0244
   3.2646E-01   3.3441E-01   4.3047E-04  0.0240
   3.3441E-01   3.4254E-01   4.4337E-04  0.0234
   3.4254E-01   3.5088E-01   4.5032E-04  0.0230
   3.5088E-01   3.5941E-01   4.6933E-04  0.0222
   3.5941E-01   3.6816E-01   4.7846E-04  0.0217
   3.6816E-01   3.7712E-01   4.9135E-04  0.0212
   3.7712E-01   3.8629E-01   5.0782E-04  0.0206
   3.8629E-01   3.9569E-01   5.3577E-04  0.0198
   3.9569E-01   4.0532E-01   5.2591E-04  0.0197
   4.0532E-01   4.1518E-01   5.1747E-04  0.0197
   4.1518E-01   4.2528E-01   5.5546E-04  0.0188
   4.2528E-01   4.3563E-01   5.7741E-04  0.0182
   4.3563E-01   4.4623E-01   5.7047E-04  0.0181
   4.4623E-01   4.5708E-01   5.8085E-04  0.0177
   4.5708E-01   4.6821E-01   6.1106E-04  0.0170
   4.6821E-01   4.7960E-01   6.1769E-04  0.0167
   4.7960E-01   4.9127E-01   6.2833E-04  0.0164
   4.9127E-01   5.0322E-01   6.4416E-04  0.0160
   5.0322E-01   5.1546E-01   6.4424E-04  0.0158
   5.1546E-01   5.2800E-01   6.3805E-04  0.0157
   5.2800E-01   5.4085E-01   6.6490E-04  0.0152
   5.4085E-01   5.5401E-01   6.8851E-04  0.0147
   5.5401E-01   5.6749E-01   6.8877E-04  0.0146
   5.6749E-01   5.8130E-01   6.9266E-04  0.0144
   5.8130E-01   5.9544E-01   7.0161E-04  0.0141
   5.9544E-01   6.0993E-01   7.0433E-04  0.0139
   6.0993E-01   6.2477E-01   6.9802E-04  0.0138
   6.2477E-01   6.3997E-01   7.3288E-04  0.0133
   6.3997E-01   6.5554E-01   7.4271E-04  0.0131
   6.5554E-01   6.7149E-01   7.4225E-04  0.0129
   6.7149E-01   6.8783E-01   7.3177E-04  0.0128
   6.8783E-01   7.0456E-01   7.5161E-04  0.0125
   7.0456E-01   7.2171E-01   7.6536E-04  0.0122
   7.2171E-01   7.3927E-01   7.6581E-04  0.0121
   7.3927E-01   7.5725E-01   7.6104E-04  0.0120
   7.5725E-01   7.7568E-01   7.7497E-04  0.0117
   7.7568E-01   7.9455E-01   7.6774E-04  0.0116
   7.9455E-01   8.1388E-01   7.6591E-04  0.0115
   8.1388E-01   8.3368E-01   7.7654E-04  0.0113
   8.3368E-01   8.5397E-01   7.8577E-04  0.0111
   8.5397E-01   8.7475E-01   7.8036E-04  0.0110
   8.7475E-01   8.9603E-01   7.7819E-04  0.0109
   8.9603E-01   9.1783E-01   7.6623E-04  0.0108
   9.1783E-01   9.4016E-01   7.7870E-04  0.0106
   9.4016E-01   9.6304E-01   7.7612E-04  0.0105
   9.6304E-01   9.8647E-01   7.6755E-04  0.0105
   9.8647E-01   1.0105E+00   7.5811E-04  0.0104
   1.0105E+00   1.0351E+00   7.4831E-04  0.0103
   1.0351E+00   1.0602E+00   7.3664E-04  0.0103
   1.0602E+00   1.0860E+00   7.3968E-04  0.0101
   1.0860E+00   1.1125E+00   7.1917E-04  0.0102
   1.1125E+00   1.1395E+00   7.2973E-04  0.0100
   1.1395E+00   1.1673E+00   7.1578E-04  0.0099
   1.1673E+00   1.1957E+00   7.1134E-04  0.0099
   1.1957E+00   1.2247E+00   7.1607E-04  0.0097
   1.2247E+00   1.2545E+00   7.0182E-04  0.0097
   1.2545E+00   1.2851E+00   6.7180E-04  0.0098
   1.2851E+00   1.3163E+00   6.6878E-04  0.0097
   1.3163E+00   1.3484E+00   6.5895E-04  0.0096
   1.3484E+00   1.3812E+00   6.5935E-04  0.0095
   1.3812E+00   1.4148E+00   6.5320E-04  0.0095
   1.4148E+00   1.4492E+00   6.3732E-04  0.0094
   1.4492E+00   1.4845E+00   6.3054E-04  0.0094
   1.4845E+00   1.5206E+00   6.3430E-04  0.0092
   1.5206E+00   1.5576E+00   6.1443E-04  0.0093
   1.5576E+00   1.5955E+00   6.0862E-04  0.0092
   1.5955E+00   1.6343E+00   5.8827E-04  0.0093
   1.6343E+00   1.6741E+00   5.7246E-04  0.0093
   1.6741E+00   1.7148E+00   5.4803E-04  0.0094
   1.7148E+00   1.7565E+00   5.4398E-04  0.0093
   1.7565E+00   1.7992E+00   5.2327E-04  0.0094
   1.7992E+00   1.8430E+00   5.2333E-04  0.0092
   1.8430E+00   1.8879E+00   5.0935E-04  0.0093
   1.8879E+00   1.9338E+00   5.0024E-04  0.0092
   1.9338E+00   1.9808E+00   4.9803E-04  0.0091
   1.9808E+00   2.0290E+00   4.8518E-04  0.0091
   2.0290E+00   2.0784E+00   4.7360E-04  0.0091
   2.0784E+00   2.1290E+00   4.5677E-04  0.0092
   2.1290E+00   2.1808E+00   4.3756E-04  0.0093
   2.1808E+00   2.2338E+00   4.3413E-04  0.0092
   2.2338E+00   2.2882E+00   4.2276E-04  0.0092
   2.2882E+00   2.3439E+00   4.0547E-04  0.0093
   2.3439E+00   2.4009E+00   3.9723E-04  0.0093
   2.4009E+00   2.4593E+00   3.9166E-04  0.0092
   2.4593E+00   2.5191E+00   3.8324E-04  0.0092
   2.5191E+00   2.5804E+00   3.7346E-04  0.0092
   2.5804E+00   2.6432E+00   3.5429E-04  0.0094
   2.6432E+00   2.7075E+00   3.5105E-04  0.0093
   2.7075E+00   2.7734E+00   3.4242E-04  0.0093
   2.7734E+00   2.8409E+00   3.3783E-04  0.0093
   2.8409E+00   2.9100E+00   3.2037E-04  0.0094
   2.9100E+00   2.9808E+00   3.1497E-04  0.0094
   2.9808E+00   3.0533E+00   3.0207E-04  0.0094
   3.0533E+00   3.1276E+00   2.9668E-04  0.0094
   3.1276E+00   3.2037E+00   2.8009E-04  0.0096
   3.2037E+00   3.2817E+00   2.7451E-04  0.0096
   3.2817E+00   3.3615E+00   2.6820E-04  0.0095
   3.3615E+00   3.4433E+00   2.6002E-04  0.0096
   3.4433E+00   3.5271E+00   2.5194E-04  0.0096
   3.5271E+00   3.6129E+00   2.4676E-04  0.0096
   3.6129E+00   3.7008E+00   2.3861E-04  0.0096
   3.7008E+00   3.7908E+00   2.3213E-04  0.0097
   3.7908E+00   3.8831E+00   2.2980E-04  0.0096
   3.8831E+00   3.9776E+00   2.1835E-04  0.0097
   3.9776E+00   4.0743E+00   2.1683E-04  0.0096
   4.0743E+00   4.1735E+00   2.0980E-04  0.0097
   4.1735E+00   4.2750E+00   2.0675E-04  0.0096
   4.2750E+00   4.3790E+00   1.9876E-04  0.0097
   4.3790E+00   4.4856E+00   1.9986E-04  0.0096
   4.4856E+00   4.5947E+00   1.9502E-04  0.0096
   4.5947E+00   4.7065E+00   1.9268E-04  0.0095
   4.7065E+00   4.8210E+00   1.8658E-04  0.0096
   4.8210E+00   4.9383E+00   1.8208E-04  0.0096
   4.9383E+00   5.0585E+00   1.7614E-04  0.0096
   5.0585E+00   5.1815E+00   1.7206E-04  0.0096
   5.1815E+00   5.3076E+00   1.6763E-04  0.0096
   5.3076E+00   5.4368E+00   1.6181E-04  0.0097
   5.4368E+00   5.5690E+00   1.5993E-04  0.0096
   5.5690E+00   5.7045E+00   1.5346E-04  0.0097
   5.7045E+00   5.8433E+00   1.4900E-04  0.0098
   5.8433E+00   5.9855E+00   1.4406E-04  0.0098
   5.9855E+00   6.1311E+00   1.3845E-04  0.0099
   6.1311E+00   6.2803E+00   1.3308E-04  0.0100
   6.2803E+00   6.4331E+00   1.2915E-04  0.0100
   6.4331E+00   6.5896E+00   1.2327E-04  0.0101
   6.5896E+00   6.7500E+00   1.2084E-04  0.0101
   6.7500E+00   6.9142E+00   1.1518E-04  0.0102
   6.9142E+00   7.0824E+00   1.1336E-04  0.0102
   7.0824E+00   7.2548E+00   1.0759E-04  0.0103
   7.2548E+00   7.4313E+00   1.0229E-04  0.0105
   7.4313E+00   7.6121E+00   1.0069E-04  0.0104
   7.6121E+00   7.7973E+00   9.6608E-05  0.0105
   7.7973E+00   7.9870E+00   9.1587E-05  0.0107
   7.9870E+00   8.1813E+00   8.8623E-05  0.0107
   8.1813E+00   8.3804E+00   8.4792E-05  0.0108
   8.3804E+00   8.5843E+00   8.1043E-05  0.0110
   8.5843E+00   8.7931E+00   7.7998E-05  0.0110
   8.7931E+00   9.0071E+00   7.5160E-05  0.0111
   9.0071E+00   9.2262E+00   7.1266E-05  0.0113
   9.2262E+00   9.4507E+00   7.0410E-05  0.0112
   9.4507E+00   9.6807E+00   6.5414E-05  0.0115
   9.6807E+00   9.9162E+00   6.2685E-05  0.0116
   9.9162E+00   1.0157E+01   6.1252E-05  0.0116
   1.0157E+01   1.0405E+01   5.7366E-05  0.0119
   1.0405E+01   1.0658E+01   5.4700E-05  0.0120
   1.0658E+01   1.0917E+01   5.2460E-05  0.0121
   1.0917E+01   1.1183E+01   5.0107E-05  0.0122
   1.1183E+01   1.1455E+01   4.8044E-05  0.0124
   1.1455E+01   1.1733E+01   4.5784E-05  0.0125
   1.1733E+01   1.2019E+01   4.2065E-05  0.0129
   1.2019E+01   1.2311E+01   4.0324E-05  0.0130
   1.2311E+01   1.2611E+01   3.8343E-05  0.0132
   1.2611E+01   1.2918E+01   3.6658E-05  0.0133
   1.2918E+01   1.3232E+01   3.4362E-05  0.0136
   1.3232E+01   1.3554E+01   3.2844E-05  0.0137
   1.3554E+01   1.3884E+01   3.1148E-05  0.0139
   1.3884E+01   1.4222E+01   2.8801E-05  0.0143
   1.4222E+01   1.4568E+01   2.6951E-05  0.0146
   1.4568E+01   1.4922E+01   2.5267E-05  0.0149
   1.4922E+01   1.5285E+01   2.4506E-05  0.0150
   1.5285E+01   1.5657E+01   2.2677E-05  0.0154
   1.5657E+01   1.6038E+01   2.1211E-05  0.0157
   1.6038E+01   1.6428E+01   1.9787E-05  0.0161
   1.6428E+01   1.6828E+01   1.8611E-05  0.0164
   1.6828E+01   1.7237E+01   1.7697E-05  0.0166
   1.7237E+01   1.7657E+01   1.6214E-05  0.0171
   1.7657E+01   1.8086E+01   1.5074E-05  0.0176
   1.8086E+01   1.8526E+01   1.4172E-05  0.0179
   1.8526E+01   1.8977E+01   1.3009E-05  0.0185
   1.8977E+01   1.9439E+01   1.2297E-05  0.0188
   1.9439E+01   1.9912E+01   1.1675E-05  0.0190
   1.9912E+01   2.0396E+01   1.1018E-05  0.0194
   2.0396E+01   2.0893E+01   1.0245E-05  0.0198
   2.0893E+01   2.1401E+01   9.2144E-06  0.0207
   2.1401E+01   2.1922E+01   8.6960E-06  0.0210
   2.1922E+01   2.2455E+01   8.0244E-06  0.0216
   2.2455E+01   2.3001E+01   7.0102E-06  0.0229
   2.3001E+01   2.3561E+01   6.2897E-06  0.0238
   2.3561E+01   2.4134E+01   5.7984E-06  0.0245
   2.4134E+01   2.4721E+01   5.0306E-06  0.0260
   2.4721E+01   2.5323E+01   4.6451E-06  0.0268
   2.5323E+01   2.5939E+01   3.9927E-06  0.0285
   2.5939E+01   2.6570E+01   3.6000E-06  0.0297
   2.6570E+01   2.7217E+01   3.1030E-06  0.0316
   2.7217E+01   2.7879E+01   2.7393E-06  0.0332
   2.7879E+01   2.8557E+01   2.5092E-06  0.0343
   2.8557E+01   2.9252E+01   2.1185E-06  0.0369
   2.9252E+01   2.9964E+01   1.8041E-06  0.0395
   2.9964E+01   3.0693E+01   1.5829E-06  0.0416
   3.0693E+01   3.1440E+01   1.3177E-06  0.0451
   3.1440E+01   3.2205E+01   1.1635E-06  0.0474
   3.2205E+01   3.2988E+01   1.0414E-06  0.0495
   3.2988E+01   3.3791E+01   8.3974E-07  0.0545
   3.3791E+01   3.4613E+01   7.2979E-07  0.0577
   3.4613E+01   3.5455E+01   6.5308E-07  0.0603
   3.5455E+01   3.6318E+01   4.8919E-07  0.0688
   3.6318E+01   3.7201E+01   4.7983E-07  0.0687
   3.7201E+01   3.8106E+01   4.3087E-07  0.0716
   3.8106E+01   3.9034E+01   3.5161E-07  0.0783
   3.9034E+01   3.9983E+01   2.4428E-07  0.0928
   3.9983E+01   4.0956E+01   2.3848E-07  0.0928
   4.0956E+01   4.1953E+01   2.3081E-07  0.0933
   4.1953E+01   4.2973E+01   1.7634E-07  0.1054
   4.2973E+01   4.4019E+01   1.3198E-07  0.1204
   4.4019E+01   4.5090E+01   9.3369E-08  0.1414
   4.5090E+01   4.6187E+01   6.1983E-08  0.1715
   4.6187E+01   4.7311E+01   6.7630E-08  0.1622
   4.7311E+01   4.8462E+01   4.5174E-08  0.1961
   4.8462E+01   4.9641E+01   4.0708E-08  0.2041
   4.9641E+01   5.0849E+01   1.4903E-08  0.3333
   5.0849E+01   5.2086E+01   1.2933E-08  0.3536
   5.2086E+01   5.3353E+01   2.2094E-08  0.2673
   5.3353E+01   5.4651E+01   1.2325E-08  0.3536
   5.4651E+01   5.5981E+01   6.0163E-09  0.5000
   5.5981E+01   5.7343E+01   5.8734E-09  0.5000
   5.7343E+01   5.8738E+01   5.7339E-09  0.5000
   5.8738E+01   6.0168E+01   2.7989E-09  0.7071
   6.0168E+01   6.1632E+01   1.3662E-09  1.0000
   6.1632E+01   6.3131E+01   0.0000E+00  0.0000
   6.3131E+01   6.4667E+01   0.0000E+00  0.0000
   6.4667E+01   6.6240E+01   0.0000E+00  0.0000
   6.6240E+01   6.7852E+01   0.0000E+00  0.0000
   6.7852E+01   6.9503E+01   0.0000E+00  0.0000
   6.9503E+01   7.1194E+01   0.0000E+00  0.0000
   7.1194E+01   7.2926E+01   0.0000E+00  0.0000
   7.2926E+01   7.4701E+01   0.0000E+00  0.0000
   7.4701E+01   7.6518E+01   0.0000E+00  0.0000
   7.6518E+01   7.8380E+01   0.0000E+00  0.0000
   7.8380E+01   8.0287E+01   0.0000E+00  0.0000
   8.0287E+01   8.2240E+01   0.0000E+00  0.0000
   8.2240E+01   8.4241E+01   0.0000E+00  0.0000
   8.4241E+01   8.6291E+01   0.0000E+00  0.0000
   8.6291E+01   8.8391E+01   0.0000E+00  0.0000
   8.8391E+01   9.0541E+01   0.0000E+00  0.0000
   9.0541E+01   9.2744E+01   0.0000E+00  0.0000
   9.2744E+01   9.5001E+01   0.0000E+00  0.0000
   9.5001E+01   9.7312E+01   0.0000E+00  0.0000
   9.7312E+01   9.9680E+01   0.0000E+00  0.0000
   9.9680E+01   1.0211E+02   0.0000E+00  0.0000
   1.0211E+02   1.0459E+02   0.0000E+00  0.0000
   1.0459E+02   1.0713E+02   0.0000E+00  0.0000
   1.0713E+02   1.0974E+02   0.0000E+00  0.0000
   1.0974E+02   1.1241E+02   0.0000E+00  0.0000
   1.1241E+02   1.1515E+02   0.0000E+00  0.0000
   1.1515E+02   1.1795E+02   0.0000E+00  0.0000
   1.1795E+02   1.2082E+02   0.0000E+00  0.0000
   1.2082E+02   1.2376E+02   0.0000E+00  0.0000
   1.2376E+02   1.2677E+02   0.0000E+00  0.0000
   1.2677E+02   1.2985E+02   0.0000E+00  0.0000
   1.2985E+02   1.3301E+02   0.0000E+00  0.0000
   1.3301E+02   1.3625E+02   0.0000E+00  0.0000
   1.3625E+02   1.3956E+02   0.0000E+00  0.0000
   1.3956E+02   1.4296E+02   0.0000E+00  0.0000
   1.4296E+02   1.4644E+02   0.0000E+00  0.0000
   1.4644E+02   1.5000E+02   0.0000E+00  0.0000

#   sum over                 1.9667E-05
'no. =    1   reg = 118 - 218'
msuc: {\huge [t-cross] in region mesh}
msdr: {\it plotted by \ANGEL \version}
msdl: {\it calculated by \PHITS  3.26}
wt: s(0.7)
\vspace{-3}
  region surface crossing
  area  &=&   1.0000E+00 [cm^2]
e:
 
# Information for Restart Calculation
# This calculation was newly started
# istdev =  2 # 1:Batch variance, 2:History variance
# resc2  = 5.00000000000000000E+08 # Total source weight or Total source weight / maxcas
# resc3  = 5.00000000000000000E+08 # Total history number or Total batch number
# maxcas =   500000000 # History / Batch, only used for istdev=1
# bitrseed = 1101101111010011011000101101110001100110110010110001010100010001 # bit data of rseed
