[ T-Cross ]
    title = [t-cross] in region mesh
     mesh =  reg            # mesh type is region-wise
      reg =    1            # number of crossing regions
      non     r-from    r-to       area
      1       114       214        1.000000    
   e-type =    3            # e-mesh is log given by emin, emax and ne
     emin =  1.0000000E-02  # minimum value of e-mesh points
     emax =   150.0000      # maximum value of e-mesh points
#    edel =  2.4039514E-02  # mesh width of e-mesh points
       ne =    400          # number of e-mesh points
#    data = ( e(i), i = 1, ne + 1 )
#           1.00000E-02  1.02433E-02  1.04925E-02  1.07478E-02  1.10093E-02
#           1.12772E-02  1.15516E-02  1.18326E-02  1.21205E-02  1.24154E-02
#           1.27175E-02  1.30269E-02  1.33439E-02  1.36686E-02  1.40011E-02
#           1.43418E-02  1.46907E-02  1.50482E-02  1.54143E-02  1.57894E-02
#           1.61735E-02  1.65670E-02  1.69701E-02  1.73830E-02  1.78060E-02
#           1.82392E-02  1.86830E-02  1.91375E-02  1.96032E-02  2.00801E-02
#           2.05687E-02  2.10692E-02  2.15818E-02  2.21069E-02  2.26448E-02
#           2.31957E-02  2.37601E-02  2.43382E-02  2.49304E-02  2.55369E-02
#           2.61583E-02  2.67947E-02  2.74467E-02  2.81145E-02  2.87985E-02
#           2.94992E-02  3.02169E-02  3.09521E-02  3.17052E-02  3.24766E-02
#           3.32668E-02  3.40762E-02  3.49053E-02  3.57546E-02  3.66246E-02
#           3.75157E-02  3.84284E-02  3.93634E-02  4.03212E-02  4.13022E-02
#           4.23071E-02  4.33365E-02  4.43909E-02  4.54710E-02  4.65773E-02
#           4.77106E-02  4.88714E-02  5.00605E-02  5.12785E-02  5.25262E-02
#           5.38042E-02  5.51133E-02  5.64542E-02  5.78278E-02  5.92348E-02
#           6.06760E-02  6.21523E-02  6.36645E-02  6.52135E-02  6.68002E-02
#           6.84255E-02  7.00904E-02  7.17957E-02  7.35426E-02  7.53319E-02
#           7.71648E-02  7.90423E-02  8.09655E-02  8.29354E-02  8.49533E-02
#           8.70203E-02  8.91376E-02  9.13064E-02  9.35279E-02  9.58035E-02
#           9.81345E-02  1.00522E-01  1.02968E-01  1.05473E-01  1.08040E-01
#           1.10668E-01  1.13361E-01  1.16119E-01  1.18944E-01  1.21838E-01
#           1.24803E-01  1.27839E-01  1.30950E-01  1.34136E-01  1.37399E-01
#           1.40742E-01  1.44167E-01  1.47675E-01  1.51268E-01  1.54948E-01
#           1.58718E-01  1.62580E-01  1.66535E-01  1.70587E-01  1.74738E-01
#           1.78989E-01  1.83344E-01  1.87805E-01  1.92375E-01  1.97055E-01
#           2.01850E-01  2.06761E-01  2.11792E-01  2.16945E-01  2.22223E-01
#           2.27630E-01  2.33169E-01  2.38842E-01  2.44653E-01  2.50605E-01
#           2.56703E-01  2.62949E-01  2.69346E-01  2.75900E-01  2.82613E-01
#           2.89489E-01  2.96532E-01  3.03747E-01  3.11138E-01  3.18708E-01
#           3.26462E-01  3.34405E-01  3.42542E-01  3.50876E-01  3.59413E-01
#           3.68158E-01  3.77116E-01  3.86291E-01  3.95690E-01  4.05317E-01
#           4.15179E-01  4.25281E-01  4.35628E-01  4.46227E-01  4.57084E-01
#           4.68205E-01  4.79597E-01  4.91266E-01  5.03219E-01  5.15463E-01
#           5.28005E-01  5.40851E-01  5.54011E-01  5.67490E-01  5.81298E-01
#           5.95441E-01  6.09929E-01  6.24769E-01  6.39970E-01  6.55541E-01
#           6.71491E-01  6.87828E-01  7.04564E-01  7.21706E-01  7.39266E-01
#           7.57253E-01  7.75678E-01  7.94551E-01  8.13883E-01  8.33685E-01
#           8.53969E-01  8.74747E-01  8.96030E-01  9.17831E-01  9.40163E-01
#           9.63038E-01  9.86469E-01  1.01047E+00  1.03506E+00  1.06024E+00
#           1.08604E+00  1.11246E+00  1.13953E+00  1.16725E+00  1.19565E+00
#           1.22474E+00  1.25454E+00  1.28507E+00  1.31633E+00  1.34836E+00
#           1.38117E+00  1.41477E+00  1.44920E+00  1.48446E+00  1.52057E+00
#           1.55757E+00  1.59547E+00  1.63429E+00  1.67405E+00  1.71478E+00
#           1.75650E+00  1.79924E+00  1.84302E+00  1.88786E+00  1.93379E+00
#           1.98084E+00  2.02904E+00  2.07841E+00  2.12898E+00  2.18078E+00
#           2.23384E+00  2.28819E+00  2.34386E+00  2.40089E+00  2.45930E+00
#           2.51914E+00  2.58043E+00  2.64322E+00  2.70753E+00  2.77341E+00
#           2.84088E+00  2.91001E+00  2.98081E+00  3.05333E+00  3.12762E+00
#           3.20372E+00  3.28167E+00  3.36152E+00  3.44330E+00  3.52708E+00
#           3.61290E+00  3.70080E+00  3.79085E+00  3.88308E+00  3.97756E+00
#           4.07434E+00  4.17347E+00  4.27501E+00  4.37903E+00  4.48557E+00
#           4.59471E+00  4.70650E+00  4.82102E+00  4.93832E+00  5.05847E+00
#           5.18155E+00  5.30762E+00  5.43676E+00  5.56904E+00  5.70453E+00
#           5.84333E+00  5.98550E+00  6.13114E+00  6.28031E+00  6.43312E+00
#           6.58964E+00  6.74997E+00  6.91420E+00  7.08243E+00  7.25475E+00
#           7.43126E+00  7.61207E+00  7.79728E+00  7.98700E+00  8.18133E+00
#           8.38038E+00  8.58428E+00  8.79315E+00  9.00709E+00  9.22624E+00
#           9.45072E+00  9.68067E+00  9.91620E+00  1.01575E+01  1.04046E+01
#           1.06578E+01  1.09171E+01  1.11827E+01  1.14548E+01  1.17335E+01
#           1.20190E+01  1.23114E+01  1.26109E+01  1.29178E+01  1.32321E+01
#           1.35540E+01  1.38838E+01  1.42216E+01  1.45676E+01  1.49221E+01
#           1.52851E+01  1.56570E+01  1.60380E+01  1.64282E+01  1.68279E+01
#           1.72374E+01  1.76568E+01  1.80864E+01  1.85264E+01  1.89772E+01
#           1.94389E+01  1.99119E+01  2.03963E+01  2.08926E+01  2.14009E+01
#           2.19216E+01  2.24550E+01  2.30014E+01  2.35610E+01  2.41343E+01
#           2.47215E+01  2.53230E+01  2.59391E+01  2.65702E+01  2.72167E+01
#           2.78789E+01  2.85572E+01  2.92520E+01  2.99637E+01  3.06928E+01
#           3.14396E+01  3.22045E+01  3.29881E+01  3.37907E+01  3.46128E+01
#           3.54550E+01  3.63177E+01  3.72013E+01  3.81064E+01  3.90336E+01
#           3.99833E+01  4.09561E+01  4.19526E+01  4.29734E+01  4.40189E+01
#           4.50900E+01  4.61870E+01  4.73108E+01  4.84619E+01  4.96410E+01
#           5.08488E+01  5.20860E+01  5.33533E+01  5.46514E+01  5.59812E+01
#           5.73432E+01  5.87384E+01  6.01676E+01  6.16315E+01  6.31311E+01
#           6.46671E+01  6.62405E+01  6.78522E+01  6.95031E+01  7.11941E+01
#           7.29263E+01  7.47007E+01  7.65182E+01  7.83800E+01  8.02870E+01
#           8.22405E+01  8.42414E+01  8.62911E+01  8.83906E+01  9.05412E+01
#           9.27442E+01  9.50007E+01  9.73122E+01  9.96799E+01  1.02105E+02
#           1.04589E+02  1.07134E+02  1.09741E+02  1.12411E+02  1.15146E+02
#           1.17948E+02  1.20817E+02  1.23757E+02  1.26768E+02  1.29852E+02
#           1.33012E+02  1.36248E+02  1.39563E+02  1.42959E+02  1.46437E+02
#           1.50000E+02
     unit =    2            # unit is [1/cm^2/(MeV/n)/source]
     axis =  eng            # axis of output
     file = detector-15.out  # file name of output for the above axis
   output = f-curr          # surface crossing forward current spectrum
     part =  neutron  
# kf/name :  2112     
#    used :        main (  %)        temp (  %)       total (  %)
#  memory :         414 (  0)           0 (  0)         414 (  0)

#------------------------------------------------------------------------------
#newpage:
#   no. =    1   reg = 114 - 214

x: Energy [MeV/n]
y:  F-Curr [1/cm^2/(MeV/n)/source]         
p: xlog ylog afac(0.8) form(0.9)
h: n            x            y(neutron ),hh0l   n 
#  e-lower      e-upper      neutron     r.err 
   1.0000E-02   1.0243E-02   3.6168E-04  0.1508
   1.0243E-02   1.0493E-02   3.8519E-04  0.1443
   1.0493E-02   1.0748E-02   4.2305E-04  0.1361
   1.0748E-02   1.1009E-02   3.9770E-04  0.1387
   1.1009E-02   1.1277E-02   3.7332E-04  0.1414
   1.1277E-02   1.1552E-02   3.3530E-04  0.1474
   1.1552E-02   1.1833E-02   3.2733E-04  0.1474
   1.1833E-02   1.2121E-02   3.5429E-04  0.1400
   1.2121E-02   1.2415E-02   3.4588E-04  0.1400
   1.2415E-02   1.2718E-02   4.3697E-04  0.1231
   1.2718E-02   1.3027E-02   3.4903E-04  0.1361
   1.3027E-02   1.3344E-02   4.4801E-04  0.1187
   1.3344E-02   1.3669E-02   3.2033E-04  0.1387
   1.3669E-02   1.4001E-02   3.1873E-04  0.1374
   1.4001E-02   1.4342E-02   3.7574E-04  0.1250
   1.4342E-02   1.4691E-02   4.1267E-04  0.1179
   1.4691E-02   1.5048E-02   3.0775E-04  0.1348
   1.5048E-02   1.5414E-02   3.1136E-04  0.1325
   1.5414E-02   1.5789E-02   2.4531E-04  0.1474
   1.5789E-02   1.6174E-02   3.1236E-04  0.1291
   1.6174E-02   1.6567E-02   2.3887E-04  0.1459
   1.6567E-02   1.6970E-02   3.8701E-04  0.1132
   1.6970E-02   1.7383E-02   3.2454E-04  0.1222
   1.7383E-02   1.7806E-02   3.2629E-04  0.1204
   1.7806E-02   1.8239E-02   2.9084E-04  0.1260
   1.8239E-02   1.8683E-02   3.1998E-04  0.1187
   1.8683E-02   1.9138E-02   3.2118E-04  0.1170
   1.9138E-02   1.9603E-02   3.1785E-04  0.1162
   1.9603E-02   2.0080E-02   3.5223E-04  0.1091
   2.0080E-02   2.0569E-02   2.9065E-04  0.1187
   2.0569E-02   2.1069E-02   3.0772E-04  0.1140
   2.1069E-02   2.1582E-02   3.4333E-04  0.1066
   2.1582E-02   2.2107E-02   2.7423E-04  0.1179
   2.2107E-02   2.2645E-02   2.6028E-04  0.1195
   2.2645E-02   2.3196E-02   2.8314E-04  0.1132
   2.3196E-02   2.3760E-02   3.0476E-04  0.1078
   2.3760E-02   2.4338E-02   3.1482E-04  0.1048
   2.4338E-02   2.4930E-02   2.7695E-04  0.1104
   2.4930E-02   2.5537E-02   2.6048E-04  0.1125
   2.5537E-02   2.6158E-02   2.8326E-04  0.1066
   2.6158E-02   2.6795E-02   2.7025E-04  0.1078
   2.6795E-02   2.7447E-02   2.6383E-04  0.1078
   2.7447E-02   2.8114E-02   2.8751E-04  0.1021
   2.8114E-02   2.8799E-02   2.8945E-04  0.1005
   2.8799E-02   2.9499E-02   3.5108E-04  0.0902
   2.9499E-02   3.0217E-02   3.1766E-04  0.0937
   3.0217E-02   3.0952E-02   2.9380E-04  0.0962
   3.0952E-02   3.1705E-02   2.5761E-04  0.1015
   3.1705E-02   3.2477E-02   2.8001E-04  0.0962
   3.2477E-02   3.3267E-02   3.0626E-04  0.0909
   3.3267E-02   3.4076E-02   2.8416E-04  0.0933
   3.4076E-02   3.4905E-02   2.6776E-04  0.0949
   3.4905E-02   3.5755E-02   2.9201E-04  0.0898
   3.5755E-02   3.6625E-02   2.6898E-04  0.0925
   3.6625E-02   3.7516E-02   2.9402E-04  0.0874
   3.7516E-02   3.8428E-02   2.6074E-04  0.0917
   3.8428E-02   3.9363E-02   2.6096E-04  0.0905
   3.9363E-02   4.0321E-02   2.4015E-04  0.0933
   4.0321E-02   4.1302E-02   2.7114E-04  0.0867
   4.1302E-02   4.2307E-02   2.6470E-04  0.0867
   4.2307E-02   4.3337E-02   2.9144E-04  0.0816
   4.3337E-02   4.4391E-02   2.5417E-04  0.0864
   4.4391E-02   4.5471E-02   2.3702E-04  0.0884
   4.5471E-02   4.6577E-02   2.2958E-04  0.0887
   4.6577E-02   4.7711E-02   2.6119E-04  0.0822
   4.7711E-02   4.8871E-02   3.0668E-04  0.0750
   4.8871E-02   5.0061E-02   2.7080E-04  0.0788
   5.0061E-02   5.1279E-02   2.5287E-04  0.0806
   5.1279E-02   5.2526E-02   2.3244E-04  0.0830
   5.2526E-02   5.3804E-02   2.5509E-04  0.0783
   5.3804E-02   5.5113E-02   2.5208E-04  0.0778
   5.5113E-02   5.6454E-02   2.4013E-04  0.0788
   5.6454E-02   5.7828E-02   2.2423E-04  0.0806
   5.7828E-02   5.9235E-02   2.7434E-04  0.0720
   5.9235E-02   6.0676E-02   2.5950E-04  0.0731
   6.0676E-02   6.2152E-02   2.6417E-04  0.0716
   6.2152E-02   6.3665E-02   2.3938E-04  0.0743
   6.3665E-02   6.5214E-02   2.3499E-04  0.0741
   6.5214E-02   6.6800E-02   2.5966E-04  0.0697
   6.6800E-02   6.8426E-02   2.3626E-04  0.0722
   6.8426E-02   7.0090E-02   2.2224E-04  0.0735
   7.0090E-02   7.1796E-02   2.5801E-04  0.0674
   7.1796E-02   7.3543E-02   2.4043E-04  0.0690
   7.3543E-02   7.5332E-02   2.3472E-04  0.0690
   7.5332E-02   7.7165E-02   2.4442E-04  0.0668
   7.7165E-02   7.9042E-02   2.2796E-04  0.0684
   7.9042E-02   8.0965E-02   2.4647E-04  0.0650
   8.0965E-02   8.2935E-02   2.5178E-04  0.0635
   8.2935E-02   8.4953E-02   2.3292E-04  0.0652
   8.4953E-02   8.7020E-02   2.2738E-04  0.0652
   8.7020E-02   8.9138E-02   2.2293E-04  0.0651
   8.9138E-02   9.1306E-02   2.4622E-04  0.0614
   9.1306E-02   9.3528E-02   2.7188E-04  0.0575
   9.3528E-02   9.5804E-02   2.2587E-04  0.0624
   9.5804E-02   9.8134E-02   2.4196E-04  0.0595
   9.8134E-02   1.0052E-01   2.2700E-04  0.0607
   1.0052E-01   1.0297E-01   2.5432E-04  0.0567
   1.0297E-01   1.0547E-01   2.5626E-04  0.0558
   1.0547E-01   1.0804E-01   2.4783E-04  0.0563
   1.0804E-01   1.1067E-01   2.3510E-04  0.0569
   1.1067E-01   1.1336E-01   2.6814E-04  0.0526
   1.1336E-01   1.1612E-01   2.5742E-04  0.0531
   1.1612E-01   1.1894E-01   2.5060E-04  0.0531
   1.1894E-01   1.2184E-01   2.5847E-04  0.0517
   1.2184E-01   1.2480E-01   2.5705E-04  0.0512
   1.2480E-01   1.2784E-01   2.4567E-04  0.0518
   1.2784E-01   1.3095E-01   2.4177E-04  0.0516
   1.3095E-01   1.3414E-01   2.5423E-04  0.0497
   1.3414E-01   1.3740E-01   2.6290E-04  0.0483
   1.3740E-01   1.4074E-01   2.5187E-04  0.0487
   1.4074E-01   1.4417E-01   2.5464E-04  0.0479
   1.4417E-01   1.4767E-01   2.4232E-04  0.0485
   1.4767E-01   1.5127E-01   2.2766E-04  0.0494
   1.5127E-01   1.5495E-01   2.2606E-04  0.0490
   1.5495E-01   1.5872E-01   2.4668E-04  0.0464
   1.5872E-01   1.6258E-01   2.4704E-04  0.0458
   1.6258E-01   1.6654E-01   2.2348E-04  0.0476
   1.6654E-01   1.7059E-01   2.4531E-04  0.0449
   1.7059E-01   1.7474E-01   2.4768E-04  0.0441
   1.7474E-01   1.7899E-01   2.3145E-04  0.0451
   1.7899E-01   1.8334E-01   2.3468E-04  0.0442
   1.8334E-01   1.8781E-01   2.2686E-04  0.0445
   1.8781E-01   1.9237E-01   2.4729E-04  0.0421
   1.9237E-01   1.9706E-01   2.4313E-04  0.0419
   1.9706E-01   2.0185E-01   2.4987E-04  0.0409
   2.0185E-01   2.0676E-01   2.4678E-04  0.0406
   2.0676E-01   2.1179E-01   2.5166E-04  0.0397
   2.1179E-01   2.1694E-01   2.4180E-04  0.0401
   2.1694E-01   2.2222E-01   2.3340E-04  0.0403
   2.2222E-01   2.2763E-01   2.3230E-04  0.0399
   2.2763E-01   2.3317E-01   2.3725E-04  0.0390
   2.3317E-01   2.3884E-01   2.3902E-04  0.0384
   2.3884E-01   2.4465E-01   2.2818E-04  0.0388
   2.4465E-01   2.5061E-01   2.4023E-04  0.0374
   2.5061E-01   2.5670E-01   2.2862E-04  0.0379
   2.5670E-01   2.6295E-01   2.2703E-04  0.0376
   2.6295E-01   2.6935E-01   2.2758E-04  0.0371
   2.6935E-01   2.7590E-01   2.2126E-04  0.0371
   2.7590E-01   2.8261E-01   2.3507E-04  0.0356
   2.8261E-01   2.8949E-01   2.4287E-04  0.0346
   2.8949E-01   2.9653E-01   2.4533E-04  0.0340
   2.9653E-01   3.0375E-01   2.3479E-04  0.0344
   3.0375E-01   3.1114E-01   2.5168E-04  0.0328
   3.1114E-01   3.1871E-01   2.3275E-04  0.0337
   3.1871E-01   3.2646E-01   2.2465E-04  0.0339
   3.2646E-01   3.3441E-01   2.3517E-04  0.0327
   3.3441E-01   3.4254E-01   2.3696E-04  0.0322
   3.4254E-01   3.5088E-01   2.3613E-04  0.0319
   3.5088E-01   3.5941E-01   2.3146E-04  0.0318
   3.5941E-01   3.6816E-01   2.2253E-04  0.0321
   3.6816E-01   3.7712E-01   2.4783E-04  0.0300
   3.7712E-01   3.8629E-01   2.2734E-04  0.0310
   3.8629E-01   3.9569E-01   2.3258E-04  0.0302
   3.9569E-01   4.0532E-01   2.2249E-04  0.0306
   4.0532E-01   4.1518E-01   2.1781E-04  0.0305
   4.1518E-01   4.2528E-01   2.2452E-04  0.0297
   4.2528E-01   4.3563E-01   2.1745E-04  0.0298
   4.3563E-01   4.4623E-01   2.2738E-04  0.0288
   4.4623E-01   4.5708E-01   2.1461E-04  0.0293
   4.5708E-01   4.6821E-01   2.1562E-04  0.0289
   4.6821E-01   4.7960E-01   2.1577E-04  0.0285
   4.7960E-01   4.9127E-01   2.0019E-04  0.0293
   4.9127E-01   5.0322E-01   2.1233E-04  0.0281
   5.0322E-01   5.1546E-01   2.0582E-04  0.0282
   5.1546E-01   5.2800E-01   2.1241E-04  0.0274
   5.2800E-01   5.4085E-01   2.1173E-04  0.0271
   5.4085E-01   5.5401E-01   1.9773E-04  0.0277
   5.5401E-01   5.6749E-01   1.9867E-04  0.0273
   5.6749E-01   5.8130E-01   1.9757E-04  0.0271
   5.8130E-01   5.9544E-01   1.9882E-04  0.0267
   5.9544E-01   6.0993E-01   1.9479E-04  0.0267
   6.0993E-01   6.2477E-01   1.8450E-04  0.0270
   6.2477E-01   6.3997E-01   1.8591E-04  0.0266
   6.3997E-01   6.5554E-01   1.8457E-04  0.0264
   6.5554E-01   6.7149E-01   1.8445E-04  0.0261
   6.7149E-01   6.8783E-01   1.7530E-04  0.0264
   6.8783E-01   7.0456E-01   1.8261E-04  0.0256
   7.0456E-01   7.2171E-01   1.7010E-04  0.0262
   7.2171E-01   7.3927E-01   1.8281E-04  0.0250
   7.3927E-01   7.5725E-01   1.6834E-04  0.0257
   7.5725E-01   7.7568E-01   1.6293E-04  0.0258
   7.7568E-01   7.9455E-01   1.6150E-04  0.0256
   7.9455E-01   8.1388E-01   1.5653E-04  0.0257
   8.1388E-01   8.3368E-01   1.4998E-04  0.0259
   8.3368E-01   8.5397E-01   1.5815E-04  0.0250
   8.5397E-01   8.7475E-01   1.4978E-04  0.0254
   8.7475E-01   8.9603E-01   1.4387E-04  0.0256
   8.9603E-01   9.1783E-01   1.3394E-04  0.0262
   9.1783E-01   9.4016E-01   1.2735E-04  0.0265
   9.4016E-01   9.6304E-01   1.3019E-04  0.0259
   9.6304E-01   9.8647E-01   1.2769E-04  0.0259
   9.8647E-01   1.0105E+00   1.1008E-04  0.0275
   1.0105E+00   1.0351E+00   1.1299E-04  0.0268
   1.0351E+00   1.0602E+00   1.1142E-04  0.0267
   1.0602E+00   1.0860E+00   1.0970E-04  0.0266
   1.0860E+00   1.1125E+00   1.0839E-04  0.0264
   1.1125E+00   1.1395E+00   1.0810E-04  0.0261
   1.1395E+00   1.1673E+00   1.0460E-04  0.0263
   1.1673E+00   1.1957E+00   1.0915E-04  0.0254
   1.1957E+00   1.2247E+00   1.0911E-04  0.0251
   1.2247E+00   1.2545E+00   1.0510E-04  0.0253
   1.2545E+00   1.2851E+00   1.0294E-04  0.0252
   1.2851E+00   1.3163E+00   1.0542E-04  0.0246
   1.3163E+00   1.3484E+00   1.0204E-04  0.0247
   1.3484E+00   1.3812E+00   1.0053E-04  0.0246
   1.3812E+00   1.4148E+00   1.0427E-04  0.0239
   1.4148E+00   1.4492E+00   1.0150E-04  0.0239
   1.4492E+00   1.4845E+00   9.8809E-05  0.0240
   1.4845E+00   1.5206E+00   9.1423E-05  0.0246
   1.5206E+00   1.5576E+00   9.4062E-05  0.0240
   1.5576E+00   1.5955E+00   8.9611E-05  0.0243
   1.5955E+00   1.6343E+00   8.8101E-05  0.0242
   1.6343E+00   1.6741E+00   9.0384E-05  0.0236
   1.6741E+00   1.7148E+00   8.6126E-05  0.0239
   1.7148E+00   1.7565E+00   8.5998E-05  0.0236
   1.7565E+00   1.7992E+00   7.8807E-05  0.0244
   1.7992E+00   1.8430E+00   7.9037E-05  0.0241
   1.8430E+00   1.8879E+00   8.0995E-05  0.0235
   1.8879E+00   1.9338E+00   7.3977E-05  0.0243
   1.9338E+00   1.9808E+00   7.2985E-05  0.0241
   1.9808E+00   2.0290E+00   7.3617E-05  0.0237
   2.0290E+00   2.0784E+00   6.9924E-05  0.0241
   2.0784E+00   2.1290E+00   6.6879E-05  0.0243
   2.1290E+00   2.1808E+00   6.8186E-05  0.0238
   2.1808E+00   2.2338E+00   6.3438E-05  0.0244
   2.2338E+00   2.2882E+00   6.4433E-05  0.0239
   2.2882E+00   2.3439E+00   5.9813E-05  0.0246
   2.3439E+00   2.4009E+00   5.5201E-05  0.0252
   2.4009E+00   2.4593E+00   5.7793E-05  0.0243
   2.4593E+00   2.5191E+00   5.2610E-05  0.0252
   2.5191E+00   2.5804E+00   5.4068E-05  0.0246
   2.5804E+00   2.6432E+00   5.0013E-05  0.0252
   2.6432E+00   2.7075E+00   4.9913E-05  0.0250
   2.7075E+00   2.7734E+00   4.5631E-05  0.0258
   2.7734E+00   2.8409E+00   4.3095E-05  0.0262
   2.8409E+00   2.9100E+00   4.2332E-05  0.0261
   2.9100E+00   2.9808E+00   3.9885E-05  0.0266
   2.9808E+00   3.0533E+00   3.7807E-05  0.0270
   3.0533E+00   3.1276E+00   3.8875E-05  0.0263
   3.1276E+00   3.2037E+00   3.6663E-05  0.0268
   3.2037E+00   3.2817E+00   3.3663E-05  0.0276
   3.2817E+00   3.3615E+00   3.1711E-05  0.0281
   3.3615E+00   3.4433E+00   3.0127E-05  0.0285
   3.4433E+00   3.5271E+00   2.9077E-05  0.0287
   3.5271E+00   3.6129E+00   2.8386E-05  0.0287
   3.6129E+00   3.7008E+00   2.8258E-05  0.0284
   3.7008E+00   3.7908E+00   2.5676E-05  0.0294
   3.7908E+00   3.8831E+00   2.4611E-05  0.0297
   3.8831E+00   3.9776E+00   2.3582E-05  0.0300
   3.9776E+00   4.0743E+00   2.3043E-05  0.0299
   4.0743E+00   4.1735E+00   2.2475E-05  0.0300
   4.1735E+00   4.2750E+00   2.2138E-05  0.0298
   4.2750E+00   4.3790E+00   1.8344E-05  0.0324
   4.3790E+00   4.4856E+00   1.8227E-05  0.0321
   4.4856E+00   4.5947E+00   1.8216E-05  0.0317
   4.5947E+00   4.7065E+00   1.6978E-05  0.0325
   4.7065E+00   4.8210E+00   1.6313E-05  0.0327
   4.8210E+00   4.9383E+00   1.4953E-05  0.0338
   4.9383E+00   5.0585E+00   1.5214E-05  0.0331
   5.0585E+00   5.1815E+00   1.4528E-05  0.0335
   5.1815E+00   5.3076E+00   1.3833E-05  0.0339
   5.3076E+00   5.4368E+00   1.3768E-05  0.0335
   5.4368E+00   5.5690E+00   1.2640E-05  0.0346
   5.5690E+00   5.7045E+00   1.1159E-05  0.0364
   5.7045E+00   5.8433E+00   1.1182E-05  0.0359
   5.8433E+00   5.9855E+00   9.8612E-06  0.0378
   5.9855E+00   6.1311E+00   1.0643E-05  0.0359
   6.1311E+00   6.2803E+00   8.9425E-06  0.0387
   6.2803E+00   6.4331E+00   9.5547E-06  0.0370
   6.4331E+00   6.5896E+00   9.4555E-06  0.0368
   6.5896E+00   6.7500E+00   8.6820E-06  0.0379
   6.7500E+00   6.9142E+00   8.9812E-06  0.0368
   6.9142E+00   7.0824E+00   8.6193E-06  0.0371
   7.0824E+00   7.2548E+00   7.8980E-06  0.0383
   7.2548E+00   7.4313E+00   7.6708E-06  0.0384
   7.4313E+00   7.6121E+00   7.2397E-06  0.0391
   7.6121E+00   7.7973E+00   7.3863E-06  0.0382
   7.7973E+00   7.9870E+00   7.1160E-06  0.0385
   7.9870E+00   8.1813E+00   6.9624E-06  0.0384
   8.1813E+00   8.3804E+00   6.5961E-06  0.0390
   8.3804E+00   8.5843E+00   6.0912E-06  0.0401
   8.5843E+00   8.7931E+00   6.2721E-06  0.0391
   8.7931E+00   9.0071E+00   5.8707E-06  0.0399
   9.0071E+00   9.2262E+00   5.6354E-06  0.0402
   9.2262E+00   9.4507E+00   5.8713E-06  0.0389
   9.4507E+00   9.6807E+00   6.0580E-06  0.0379
   9.6807E+00   9.9162E+00   5.4598E-06  0.0394
   9.9162E+00   1.0157E+01   5.4628E-06  0.0389
   1.0157E+01   1.0405E+01   5.3816E-06  0.0387
   1.0405E+01   1.0658E+01   5.2221E-06  0.0389
   1.0658E+01   1.0917E+01   5.0634E-06  0.0390
   1.0917E+01   1.1183E+01   4.8565E-06  0.0393
   1.1183E+01   1.1455E+01   4.5243E-06  0.0403
   1.1455E+01   1.1733E+01   4.5389E-06  0.0397
   1.1733E+01   1.2019E+01   4.3225E-06  0.0402
   1.2019E+01   1.2311E+01   3.9907E-06  0.0414
   1.2311E+01   1.2611E+01   3.8291E-06  0.0417
   1.2611E+01   1.2918E+01   3.6958E-06  0.0420
   1.2918E+01   1.3232E+01   3.1562E-06  0.0449
   1.3232E+01   1.3554E+01   3.4291E-06  0.0425
   1.3554E+01   1.3884E+01   3.1748E-06  0.0437
   1.3884E+01   1.4222E+01   3.0846E-06  0.0438
   1.4222E+01   1.4568E+01   2.9160E-06  0.0445
   1.4568E+01   1.4922E+01   2.8580E-06  0.0444
   1.4922E+01   1.5285E+01   2.5395E-06  0.0465
   1.5285E+01   1.5657E+01   2.3340E-06  0.0480
   1.5657E+01   1.6038E+01   2.2418E-06  0.0484
   1.6038E+01   1.6428E+01   1.9963E-06  0.0507
   1.6428E+01   1.6828E+01   1.8188E-06  0.0524
   1.6828E+01   1.7237E+01   1.8806E-06  0.0509
   1.7237E+01   1.7657E+01   1.5188E-06  0.0560
   1.7657E+01   1.8086E+01   1.5247E-06  0.0552
   1.8086E+01   1.8526E+01   1.2657E-06  0.0599
   1.8526E+01   1.8977E+01   1.2202E-06  0.0603
   1.8977E+01   1.9439E+01   1.0764E-06  0.0634
   1.9439E+01   1.9912E+01   9.5568E-07  0.0665
   1.9912E+01   2.0396E+01   5.7795E-07  0.0845
   2.0396E+01   2.0893E+01   5.5616E-07  0.0851
   2.0893E+01   2.1401E+01   4.4459E-07  0.0941
   2.1401E+01   2.1922E+01   3.9562E-07  0.0985
   2.1922E+01   2.2455E+01   3.2623E-07  0.1072
   2.2455E+01   2.3001E+01   2.2696E-07  0.1270
   2.3001E+01   2.3561E+01   2.1800E-07  0.1280
   2.3561E+01   2.4134E+01   1.5351E-07  0.1508
   2.4134E+01   2.4721E+01   1.6349E-07  0.1443
   2.4721E+01   2.5323E+01   9.9752E-08  0.1826
   2.5323E+01   2.5939E+01   1.0387E-07  0.1768
   2.5939E+01   2.6570E+01   6.9718E-08  0.2132
   2.6570E+01   2.7217E+01   4.9499E-08  0.2500
   2.7217E+01   2.7879E+01   3.6243E-08  0.2887
   2.7879E+01   2.8557E+01   3.2433E-08  0.3015
   2.8557E+01   2.9252E+01   8.6353E-09  0.5774
   2.9252E+01   2.9964E+01   2.8101E-08  0.3162
   2.9964E+01   3.0693E+01   1.0973E-08  0.5000
   3.0693E+01   3.1440E+01   5.3563E-09  0.7071
   3.1440E+01   3.2205E+01   2.6146E-09  1.0000
   3.2205E+01   3.2988E+01   5.1049E-09  0.7071
   3.2988E+01   3.3791E+01   2.4918E-09  1.0000
   3.3791E+01   3.4613E+01   0.0000E+00  0.0000
   3.4613E+01   3.5455E+01   0.0000E+00  0.0000
   3.5455E+01   3.6318E+01   0.0000E+00  0.0000
   3.6318E+01   3.7201E+01   0.0000E+00  0.0000
   3.7201E+01   3.8106E+01   0.0000E+00  0.0000
   3.8106E+01   3.9034E+01   0.0000E+00  0.0000
   3.9034E+01   3.9983E+01   0.0000E+00  0.0000
   3.9983E+01   4.0956E+01   0.0000E+00  0.0000
   4.0956E+01   4.1953E+01   0.0000E+00  0.0000
   4.1953E+01   4.2973E+01   0.0000E+00  0.0000
   4.2973E+01   4.4019E+01   0.0000E+00  0.0000
   4.4019E+01   4.5090E+01   0.0000E+00  0.0000
   4.5090E+01   4.6187E+01   0.0000E+00  0.0000
   4.6187E+01   4.7311E+01   0.0000E+00  0.0000
   4.7311E+01   4.8462E+01   0.0000E+00  0.0000
   4.8462E+01   4.9641E+01   0.0000E+00  0.0000
   4.9641E+01   5.0849E+01   0.0000E+00  0.0000
   5.0849E+01   5.2086E+01   0.0000E+00  0.0000
   5.2086E+01   5.3353E+01   0.0000E+00  0.0000
   5.3353E+01   5.4651E+01   0.0000E+00  0.0000
   5.4651E+01   5.5981E+01   0.0000E+00  0.0000
   5.5981E+01   5.7343E+01   0.0000E+00  0.0000
   5.7343E+01   5.8738E+01   0.0000E+00  0.0000
   5.8738E+01   6.0168E+01   0.0000E+00  0.0000
   6.0168E+01   6.1632E+01   0.0000E+00  0.0000
   6.1632E+01   6.3131E+01   0.0000E+00  0.0000
   6.3131E+01   6.4667E+01   0.0000E+00  0.0000
   6.4667E+01   6.6240E+01   0.0000E+00  0.0000
   6.6240E+01   6.7852E+01   0.0000E+00  0.0000
   6.7852E+01   6.9503E+01   0.0000E+00  0.0000
   6.9503E+01   7.1194E+01   0.0000E+00  0.0000
   7.1194E+01   7.2926E+01   0.0000E+00  0.0000
   7.2926E+01   7.4701E+01   0.0000E+00  0.0000
   7.4701E+01   7.6518E+01   0.0000E+00  0.0000
   7.6518E+01   7.8380E+01   0.0000E+00  0.0000
   7.8380E+01   8.0287E+01   0.0000E+00  0.0000
   8.0287E+01   8.2240E+01   0.0000E+00  0.0000
   8.2240E+01   8.4241E+01   0.0000E+00  0.0000
   8.4241E+01   8.6291E+01   0.0000E+00  0.0000
   8.6291E+01   8.8391E+01   0.0000E+00  0.0000
   8.8391E+01   9.0541E+01   0.0000E+00  0.0000
   9.0541E+01   9.2744E+01   0.0000E+00  0.0000
   9.2744E+01   9.5001E+01   0.0000E+00  0.0000
   9.5001E+01   9.7312E+01   0.0000E+00  0.0000
   9.7312E+01   9.9680E+01   0.0000E+00  0.0000
   9.9680E+01   1.0211E+02   0.0000E+00  0.0000
   1.0211E+02   1.0459E+02   0.0000E+00  0.0000
   1.0459E+02   1.0713E+02   0.0000E+00  0.0000
   1.0713E+02   1.0974E+02   0.0000E+00  0.0000
   1.0974E+02   1.1241E+02   0.0000E+00  0.0000
   1.1241E+02   1.1515E+02   0.0000E+00  0.0000
   1.1515E+02   1.1795E+02   0.0000E+00  0.0000
   1.1795E+02   1.2082E+02   0.0000E+00  0.0000
   1.2082E+02   1.2376E+02   0.0000E+00  0.0000
   1.2376E+02   1.2677E+02   0.0000E+00  0.0000
   1.2677E+02   1.2985E+02   0.0000E+00  0.0000
   1.2985E+02   1.3301E+02   0.0000E+00  0.0000
   1.3301E+02   1.3625E+02   0.0000E+00  0.0000
   1.3625E+02   1.3956E+02   0.0000E+00  0.0000
   1.3956E+02   1.4296E+02   0.0000E+00  0.0000
   1.4296E+02   1.4644E+02   0.0000E+00  0.0000
   1.4644E+02   1.5000E+02   0.0000E+00  0.0000

#   sum over                 3.1228E-06
'no. =    1   reg = 114 - 214'
msuc: {\huge [t-cross] in region mesh}
msdr: {\it plotted by \ANGEL \version}
msdl: {\it calculated by \PHITS  3.26}
wt: s(0.7)
\vspace{-3}
  region surface crossing
  area  &=&   1.0000E+00 [cm^2]
e:
 
# Information for Restart Calculation
# This calculation was newly started
# istdev =  2 # 1:Batch variance, 2:History variance
# resc2  = 5.00000000000000000E+08 # Total source weight or Total source weight / maxcas
# resc3  = 5.00000000000000000E+08 # Total history number or Total batch number
# maxcas =   500000000 # History / Batch, only used for istdev=1
# bitrseed = 1101101111010011011000101101110001100110110010110001010100010001 # bit data of rseed
