[ T-Cross ]
    title = [t-cross] in region mesh
     mesh =  reg            # mesh type is region-wise
      reg =    1            # number of crossing regions
      non     r-from    r-to       area
      1       126       226        1.000000    
   e-type =    3            # e-mesh is log given by emin, emax and ne
     emin =  1.0000000E-02  # minimum value of e-mesh points
     emax =   150.0000      # maximum value of e-mesh points
#    edel =  2.4039514E-02  # mesh width of e-mesh points
       ne =    400          # number of e-mesh points
#    data = ( e(i), i = 1, ne + 1 )
#           1.00000E-02  1.02433E-02  1.04925E-02  1.07478E-02  1.10093E-02
#           1.12772E-02  1.15516E-02  1.18326E-02  1.21205E-02  1.24154E-02
#           1.27175E-02  1.30269E-02  1.33439E-02  1.36686E-02  1.40011E-02
#           1.43418E-02  1.46907E-02  1.50482E-02  1.54143E-02  1.57894E-02
#           1.61735E-02  1.65670E-02  1.69701E-02  1.73830E-02  1.78060E-02
#           1.82392E-02  1.86830E-02  1.91375E-02  1.96032E-02  2.00801E-02
#           2.05687E-02  2.10692E-02  2.15818E-02  2.21069E-02  2.26448E-02
#           2.31957E-02  2.37601E-02  2.43382E-02  2.49304E-02  2.55369E-02
#           2.61583E-02  2.67947E-02  2.74467E-02  2.81145E-02  2.87985E-02
#           2.94992E-02  3.02169E-02  3.09521E-02  3.17052E-02  3.24766E-02
#           3.32668E-02  3.40762E-02  3.49053E-02  3.57546E-02  3.66246E-02
#           3.75157E-02  3.84284E-02  3.93634E-02  4.03212E-02  4.13022E-02
#           4.23071E-02  4.33365E-02  4.43909E-02  4.54710E-02  4.65773E-02
#           4.77106E-02  4.88714E-02  5.00605E-02  5.12785E-02  5.25262E-02
#           5.38042E-02  5.51133E-02  5.64542E-02  5.78278E-02  5.92348E-02
#           6.06760E-02  6.21523E-02  6.36645E-02  6.52135E-02  6.68002E-02
#           6.84255E-02  7.00904E-02  7.17957E-02  7.35426E-02  7.53319E-02
#           7.71648E-02  7.90423E-02  8.09655E-02  8.29354E-02  8.49533E-02
#           8.70203E-02  8.91376E-02  9.13064E-02  9.35279E-02  9.58035E-02
#           9.81345E-02  1.00522E-01  1.02968E-01  1.05473E-01  1.08040E-01
#           1.10668E-01  1.13361E-01  1.16119E-01  1.18944E-01  1.21838E-01
#           1.24803E-01  1.27839E-01  1.30950E-01  1.34136E-01  1.37399E-01
#           1.40742E-01  1.44167E-01  1.47675E-01  1.51268E-01  1.54948E-01
#           1.58718E-01  1.62580E-01  1.66535E-01  1.70587E-01  1.74738E-01
#           1.78989E-01  1.83344E-01  1.87805E-01  1.92375E-01  1.97055E-01
#           2.01850E-01  2.06761E-01  2.11792E-01  2.16945E-01  2.22223E-01
#           2.27630E-01  2.33169E-01  2.38842E-01  2.44653E-01  2.50605E-01
#           2.56703E-01  2.62949E-01  2.69346E-01  2.75900E-01  2.82613E-01
#           2.89489E-01  2.96532E-01  3.03747E-01  3.11138E-01  3.18708E-01
#           3.26462E-01  3.34405E-01  3.42542E-01  3.50876E-01  3.59413E-01
#           3.68158E-01  3.77116E-01  3.86291E-01  3.95690E-01  4.05317E-01
#           4.15179E-01  4.25281E-01  4.35628E-01  4.46227E-01  4.57084E-01
#           4.68205E-01  4.79597E-01  4.91266E-01  5.03219E-01  5.15463E-01
#           5.28005E-01  5.40851E-01  5.54011E-01  5.67490E-01  5.81298E-01
#           5.95441E-01  6.09929E-01  6.24769E-01  6.39970E-01  6.55541E-01
#           6.71491E-01  6.87828E-01  7.04564E-01  7.21706E-01  7.39266E-01
#           7.57253E-01  7.75678E-01  7.94551E-01  8.13883E-01  8.33685E-01
#           8.53969E-01  8.74747E-01  8.96030E-01  9.17831E-01  9.40163E-01
#           9.63038E-01  9.86469E-01  1.01047E+00  1.03506E+00  1.06024E+00
#           1.08604E+00  1.11246E+00  1.13953E+00  1.16725E+00  1.19565E+00
#           1.22474E+00  1.25454E+00  1.28507E+00  1.31633E+00  1.34836E+00
#           1.38117E+00  1.41477E+00  1.44920E+00  1.48446E+00  1.52057E+00
#           1.55757E+00  1.59547E+00  1.63429E+00  1.67405E+00  1.71478E+00
#           1.75650E+00  1.79924E+00  1.84302E+00  1.88786E+00  1.93379E+00
#           1.98084E+00  2.02904E+00  2.07841E+00  2.12898E+00  2.18078E+00
#           2.23384E+00  2.28819E+00  2.34386E+00  2.40089E+00  2.45930E+00
#           2.51914E+00  2.58043E+00  2.64322E+00  2.70753E+00  2.77341E+00
#           2.84088E+00  2.91001E+00  2.98081E+00  3.05333E+00  3.12762E+00
#           3.20372E+00  3.28167E+00  3.36152E+00  3.44330E+00  3.52708E+00
#           3.61290E+00  3.70080E+00  3.79085E+00  3.88308E+00  3.97756E+00
#           4.07434E+00  4.17347E+00  4.27501E+00  4.37903E+00  4.48557E+00
#           4.59471E+00  4.70650E+00  4.82102E+00  4.93832E+00  5.05847E+00
#           5.18155E+00  5.30762E+00  5.43676E+00  5.56904E+00  5.70453E+00
#           5.84333E+00  5.98550E+00  6.13114E+00  6.28031E+00  6.43312E+00
#           6.58964E+00  6.74997E+00  6.91420E+00  7.08243E+00  7.25475E+00
#           7.43126E+00  7.61207E+00  7.79728E+00  7.98700E+00  8.18133E+00
#           8.38038E+00  8.58428E+00  8.79315E+00  9.00709E+00  9.22624E+00
#           9.45072E+00  9.68067E+00  9.91620E+00  1.01575E+01  1.04046E+01
#           1.06578E+01  1.09171E+01  1.11827E+01  1.14548E+01  1.17335E+01
#           1.20190E+01  1.23114E+01  1.26109E+01  1.29178E+01  1.32321E+01
#           1.35540E+01  1.38838E+01  1.42216E+01  1.45676E+01  1.49221E+01
#           1.52851E+01  1.56570E+01  1.60380E+01  1.64282E+01  1.68279E+01
#           1.72374E+01  1.76568E+01  1.80864E+01  1.85264E+01  1.89772E+01
#           1.94389E+01  1.99119E+01  2.03963E+01  2.08926E+01  2.14009E+01
#           2.19216E+01  2.24550E+01  2.30014E+01  2.35610E+01  2.41343E+01
#           2.47215E+01  2.53230E+01  2.59391E+01  2.65702E+01  2.72167E+01
#           2.78789E+01  2.85572E+01  2.92520E+01  2.99637E+01  3.06928E+01
#           3.14396E+01  3.22045E+01  3.29881E+01  3.37907E+01  3.46128E+01
#           3.54550E+01  3.63177E+01  3.72013E+01  3.81064E+01  3.90336E+01
#           3.99833E+01  4.09561E+01  4.19526E+01  4.29734E+01  4.40189E+01
#           4.50900E+01  4.61870E+01  4.73108E+01  4.84619E+01  4.96410E+01
#           5.08488E+01  5.20860E+01  5.33533E+01  5.46514E+01  5.59812E+01
#           5.73432E+01  5.87384E+01  6.01676E+01  6.16315E+01  6.31311E+01
#           6.46671E+01  6.62405E+01  6.78522E+01  6.95031E+01  7.11941E+01
#           7.29263E+01  7.47007E+01  7.65182E+01  7.83800E+01  8.02870E+01
#           8.22405E+01  8.42414E+01  8.62911E+01  8.83906E+01  9.05412E+01
#           9.27442E+01  9.50007E+01  9.73122E+01  9.96799E+01  1.02105E+02
#           1.04589E+02  1.07134E+02  1.09741E+02  1.12411E+02  1.15146E+02
#           1.17948E+02  1.20817E+02  1.23757E+02  1.26768E+02  1.29852E+02
#           1.33012E+02  1.36248E+02  1.39563E+02  1.42959E+02  1.46437E+02
#           1.50000E+02
     unit =    2            # unit is [1/cm^2/(MeV/n)/source]
     axis =  eng            # axis of output
     file = detector-27.out  # file name of output for the above axis
   output = f-curr          # surface crossing forward current spectrum
     part =  neutron  
# kf/name :  2112     
#    used :        main (  %)        temp (  %)       total (  %)
#  memory :         414 (  0)           0 (  0)         414 (  0)

#------------------------------------------------------------------------------
#newpage:
#   no. =    1   reg = 126 - 226

x: Energy [MeV/n]
y:  F-Curr [1/cm^2/(MeV/n)/source]         
p: xlog ylog afac(0.8) form(0.9)
h: n            x            y(neutron ),hh0l   n 
#  e-lower      e-upper      neutron     r.err 
   1.0000E-02   1.0243E-02   4.0093E-04  0.0451
   1.0243E-02   1.0493E-02   4.1457E-04  0.0439
   1.0493E-02   1.0748E-02   4.0484E-04  0.0439
   1.0748E-02   1.1009E-02   3.9897E-04  0.0436
   1.1009E-02   1.1277E-02   4.0867E-04  0.0426
   1.1277E-02   1.1552E-02   3.9983E-04  0.0426
   1.1552E-02   1.1833E-02   3.6127E-04  0.0443
   1.1833E-02   1.2121E-02   3.7312E-04  0.0431
   1.2121E-02   1.2415E-02   3.6273E-04  0.0431
   1.2415E-02   1.2718E-02   3.5544E-04  0.0430
   1.2718E-02   1.3027E-02   3.6711E-04  0.0418
   1.3027E-02   1.3344E-02   3.5684E-04  0.0419
   1.3344E-02   1.3669E-02   3.4554E-04  0.0421
   1.3669E-02   1.4001E-02   3.1763E-04  0.0434
   1.4001E-02   1.4342E-02   3.5480E-04  0.0406
   1.4342E-02   1.4691E-02   2.8855E-04  0.0445
   1.4691E-02   1.5048E-02   3.1565E-04  0.0420
   1.5048E-02   1.5414E-02   3.0102E-04  0.0424
   1.5414E-02   1.5789E-02   2.7056E-04  0.0443
   1.5789E-02   1.6174E-02   3.1461E-04  0.0406
   1.6174E-02   1.6567E-02   3.0365E-04  0.0408
   1.6567E-02   1.6970E-02   2.6809E-04  0.0429
   1.6970E-02   1.7383E-02   2.8334E-04  0.0412
   1.7383E-02   1.7806E-02   2.7905E-04  0.0411
   1.7806E-02   1.8239E-02   2.6541E-04  0.0416
   1.8239E-02   1.8683E-02   2.4062E-04  0.0432
   1.8683E-02   1.9138E-02   2.3679E-04  0.0430
   1.9138E-02   1.9603E-02   2.4936E-04  0.0414
   1.9603E-02   2.0080E-02   2.4600E-04  0.0412
   2.0080E-02   2.0569E-02   2.4196E-04  0.0409
   2.0569E-02   2.1069E-02   2.3821E-04  0.0409
   2.1069E-02   2.1582E-02   2.4891E-04  0.0395
   2.1582E-02   2.2107E-02   2.1792E-04  0.0417
   2.2107E-02   2.2645E-02   2.2629E-04  0.0404
   2.2645E-02   2.3196E-02   2.1632E-04  0.0408
   2.3196E-02   2.3760E-02   2.0657E-04  0.0413
   2.3760E-02   2.4338E-02   2.1592E-04  0.0399
   2.4338E-02   2.4930E-02   2.0691E-04  0.0403
   2.4930E-02   2.5537E-02   1.9020E-04  0.0415
   2.5537E-02   2.6158E-02   1.9124E-04  0.0409
   2.6158E-02   2.6795E-02   1.8835E-04  0.0407
   2.6795E-02   2.7447E-02   1.8889E-04  0.0401
   2.7447E-02   2.8114E-02   1.8657E-04  0.0400
   2.8114E-02   2.8799E-02   1.8488E-04  0.0396
   2.8799E-02   2.9499E-02   1.7234E-04  0.0406
   2.9499E-02   3.0217E-02   1.7703E-04  0.0396
   3.0217E-02   3.0952E-02   1.6271E-04  0.0408
   3.0952E-02   3.1705E-02   1.6650E-04  0.0399
   3.1705E-02   3.2477E-02   1.5666E-04  0.0406
   3.2477E-02   3.3267E-02   1.7074E-04  0.0384
   3.3267E-02   3.4076E-02   1.4629E-04  0.0410
   3.4076E-02   3.4905E-02   1.5794E-04  0.0389
   3.4905E-02   3.5755E-02   1.4060E-04  0.0408
   3.5755E-02   3.6625E-02   1.5752E-04  0.0381
   3.6625E-02   3.7516E-02   1.4503E-04  0.0392
   3.7516E-02   3.8428E-02   1.3138E-04  0.0407
   3.8428E-02   3.9363E-02   1.3518E-04  0.0397
   3.9363E-02   4.0321E-02   1.4814E-04  0.0374
   4.0321E-02   4.1302E-02   1.3140E-04  0.0393
   4.1302E-02   4.2307E-02   1.2784E-04  0.0393
   4.2307E-02   4.3337E-02   1.1986E-04  0.0402
   4.3337E-02   4.4391E-02   1.2151E-04  0.0394
   4.4391E-02   4.5471E-02   1.2582E-04  0.0382
   4.5471E-02   4.6577E-02   1.1342E-04  0.0398
   4.6577E-02   4.7711E-02   1.1102E-04  0.0398
   4.7711E-02   4.8871E-02   1.1526E-04  0.0386
   4.8871E-02   5.0061E-02   1.1050E-04  0.0389
   5.0061E-02   5.1279E-02   1.1164E-04  0.0382
   5.1279E-02   5.2526E-02   1.0887E-04  0.0383
   5.2526E-02   5.3804E-02   1.0347E-04  0.0388
   5.3804E-02   5.5113E-02   1.0263E-04  0.0385
   5.5113E-02   5.6454E-02   1.0699E-04  0.0372
   5.6454E-02   5.7828E-02   9.8151E-05  0.0384
   5.7828E-02   5.9235E-02   1.0157E-04  0.0373
   5.9235E-02   6.0676E-02   1.0110E-04  0.0369
   6.0676E-02   6.2152E-02   8.8666E-05  0.0390
   6.2152E-02   6.3665E-02   9.7557E-05  0.0367
   6.3665E-02   6.5214E-02   8.9406E-05  0.0379
   6.5214E-02   6.6800E-02   8.7509E-05  0.0378
   6.6800E-02   6.8426E-02   8.4302E-05  0.0381
   6.8426E-02   7.0090E-02   8.2134E-05  0.0382
   7.0090E-02   7.1796E-02   8.2184E-05  0.0377
   7.1796E-02   7.3543E-02   7.9525E-05  0.0379
   7.3543E-02   7.5332E-02   8.1752E-05  0.0369
   7.5332E-02   7.7165E-02   7.3516E-05  0.0384
   7.7165E-02   7.9042E-02   7.5847E-05  0.0374
   7.9042E-02   8.0965E-02   7.3104E-05  0.0377
   8.0965E-02   8.2935E-02   7.1648E-05  0.0376
   8.2935E-02   8.4953E-02   7.0290E-05  0.0375
   8.4953E-02   8.7020E-02   6.9976E-05  0.0371
   8.7020E-02   8.9138E-02   6.6706E-05  0.0375
   8.9138E-02   9.1306E-02   6.4313E-05  0.0377
   9.1306E-02   9.3528E-02   6.5392E-05  0.0370
   9.3528E-02   9.5804E-02   6.0090E-05  0.0382
   9.5804E-02   9.8134E-02   6.1124E-05  0.0374
   9.8134E-02   1.0052E-01   6.0829E-05  0.0371
   1.0052E-01   1.0297E-01   5.9842E-05  0.0369
   1.0297E-01   1.0547E-01   5.4396E-05  0.0382
   1.0547E-01   1.0804E-01   5.9440E-05  0.0361
   1.0804E-01   1.1067E-01   5.5205E-05  0.0371
   1.1067E-01   1.1336E-01   5.5434E-05  0.0365
   1.1336E-01   1.1612E-01   5.1725E-05  0.0373
   1.1612E-01   1.1894E-01   5.3430E-05  0.0363
   1.1894E-01   1.2184E-01   5.0591E-05  0.0369
   1.2184E-01   1.2480E-01   5.2450E-05  0.0358
   1.2480E-01   1.2784E-01   4.8536E-05  0.0367
   1.2784E-01   1.3095E-01   4.8850E-05  0.0362
   1.3095E-01   1.3414E-01   4.3673E-05  0.0378
   1.3414E-01   1.3740E-01   4.7200E-05  0.0359
   1.3740E-01   1.4074E-01   4.1506E-05  0.0379
   1.4074E-01   1.4417E-01   4.4593E-05  0.0361
   1.4417E-01   1.4767E-01   4.4240E-05  0.0358
   1.4767E-01   1.5127E-01   4.0565E-05  0.0369
   1.5127E-01   1.5495E-01   4.1573E-05  0.0360
   1.5495E-01   1.5872E-01   3.7875E-05  0.0373
   1.5872E-01   1.6258E-01   4.0490E-05  0.0356
   1.6258E-01   1.6654E-01   3.7129E-05  0.0368
   1.6654E-01   1.7059E-01   3.8168E-05  0.0359
   1.7059E-01   1.7474E-01   3.7243E-05  0.0358
   1.7474E-01   1.7899E-01   3.5414E-05  0.0363
   1.7899E-01   1.8334E-01   3.5911E-05  0.0357
   1.8334E-01   1.8781E-01   3.5281E-05  0.0355
   1.8781E-01   1.9237E-01   3.2239E-05  0.0368
   1.9237E-01   1.9706E-01   3.2383E-05  0.0362
   1.9706E-01   2.0185E-01   3.0252E-05  0.0370
   2.0185E-01   2.0676E-01   3.4361E-05  0.0343
   2.0676E-01   2.1179E-01   3.2865E-05  0.0347
   2.1179E-01   2.1694E-01   3.3720E-05  0.0338
   2.1694E-01   2.2222E-01   3.4732E-05  0.0330
   2.2222E-01   2.2763E-01   3.5684E-05  0.0321
   2.2763E-01   2.3317E-01   3.6383E-05  0.0314
   2.3317E-01   2.3884E-01   3.8182E-05  0.0303
   2.3884E-01   2.4465E-01   3.7280E-05  0.0303
   2.4465E-01   2.5061E-01   3.8779E-05  0.0293
   2.5061E-01   2.5670E-01   4.1858E-05  0.0279
   2.5670E-01   2.6295E-01   4.0116E-05  0.0282
   2.6295E-01   2.6935E-01   4.1909E-05  0.0272
   2.6935E-01   2.7590E-01   4.3032E-05  0.0265
   2.7590E-01   2.8261E-01   4.1891E-05  0.0266
   2.8261E-01   2.8949E-01   4.5798E-05  0.0251
   2.8949E-01   2.9653E-01   4.7508E-05  0.0244
   2.9653E-01   3.0375E-01   4.6585E-05  0.0243
   3.0375E-01   3.1114E-01   4.7774E-05  0.0237
   3.1114E-01   3.1871E-01   4.7763E-05  0.0234
   3.1871E-01   3.2646E-01   4.8386E-05  0.0230
   3.2646E-01   3.3441E-01   5.0760E-05  0.0222
   3.3441E-01   3.4254E-01   5.0761E-05  0.0219
   3.4254E-01   3.5088E-01   5.1846E-05  0.0215
   3.5088E-01   3.5941E-01   5.2085E-05  0.0211
   3.5941E-01   3.6816E-01   5.3226E-05  0.0207
   3.6816E-01   3.7712E-01   5.3116E-05  0.0204
   3.7712E-01   3.8629E-01   5.4737E-05  0.0199
   3.8629E-01   3.9569E-01   5.6490E-05  0.0193
   3.9569E-01   4.0532E-01   5.5639E-05  0.0193
   4.0532E-01   4.1518E-01   5.9937E-05  0.0183
   4.1518E-01   4.2528E-01   5.5301E-05  0.0189
   4.2528E-01   4.3563E-01   5.4970E-05  0.0187
   4.3563E-01   4.4623E-01   5.7928E-05  0.0180
   4.4623E-01   4.5708E-01   5.9335E-05  0.0176
   4.5708E-01   4.6821E-01   5.7215E-05  0.0177
   4.6821E-01   4.7960E-01   5.9066E-05  0.0172
   4.7960E-01   4.9127E-01   6.0292E-05  0.0168
   4.9127E-01   5.0322E-01   5.9789E-05  0.0167
   5.0322E-01   5.1546E-01   5.9770E-05  0.0165
   5.1546E-01   5.2800E-01   6.0396E-05  0.0162
   5.2800E-01   5.4085E-01   6.0277E-05  0.0160
   5.4085E-01   5.5401E-01   6.1488E-05  0.0157
   5.5401E-01   5.6749E-01   5.9091E-05  0.0158
   5.6749E-01   5.8130E-01   5.9901E-05  0.0155
   5.8130E-01   5.9544E-01   5.9090E-05  0.0154
   5.9544E-01   6.0993E-01   6.1123E-05  0.0150
   6.0993E-01   6.2477E-01   6.1429E-05  0.0147
   6.2477E-01   6.3997E-01   5.8992E-05  0.0149
   6.3997E-01   6.5554E-01   6.0194E-05  0.0145
   6.5554E-01   6.7149E-01   5.8260E-05  0.0146
   6.7149E-01   6.8783E-01   6.0515E-05  0.0142
   6.8783E-01   7.0456E-01   5.7315E-05  0.0144
   7.0456E-01   7.2171E-01   5.8004E-05  0.0141
   7.2171E-01   7.3927E-01   5.5448E-05  0.0143
   7.3927E-01   7.5725E-01   5.5635E-05  0.0141
   7.5725E-01   7.7568E-01   5.5465E-05  0.0139
   7.7568E-01   7.9455E-01   5.4720E-05  0.0139
   7.9455E-01   8.1388E-01   5.2413E-05  0.0140
   8.1388E-01   8.3368E-01   5.2318E-05  0.0138
   8.3368E-01   8.5397E-01   5.0363E-05  0.0139
   8.5397E-01   8.7475E-01   4.8571E-05  0.0140
   8.7475E-01   8.9603E-01   4.7707E-05  0.0140
   8.9603E-01   9.1783E-01   4.6198E-05  0.0140
   9.1783E-01   9.4016E-01   4.5886E-05  0.0139
   9.4016E-01   9.6304E-01   4.2713E-05  0.0142
   9.6304E-01   9.8647E-01   4.3271E-05  0.0140
   9.8647E-01   1.0105E+00   4.0671E-05  0.0142
   1.0105E+00   1.0351E+00   3.9991E-05  0.0142
   1.0351E+00   1.0602E+00   3.9976E-05  0.0140
   1.0602E+00   1.0860E+00   3.9647E-05  0.0139
   1.0860E+00   1.1125E+00   3.8408E-05  0.0140
   1.1125E+00   1.1395E+00   3.9085E-05  0.0137
   1.1395E+00   1.1673E+00   3.8957E-05  0.0135
   1.1673E+00   1.1957E+00   3.9391E-05  0.0133
   1.1957E+00   1.2247E+00   3.8614E-05  0.0133
   1.2247E+00   1.2545E+00   3.7980E-05  0.0132
   1.2545E+00   1.2851E+00   3.7646E-05  0.0131
   1.2851E+00   1.3163E+00   3.7593E-05  0.0130
   1.3163E+00   1.3484E+00   3.7115E-05  0.0129
   1.3484E+00   1.3812E+00   3.7224E-05  0.0127
   1.3812E+00   1.4148E+00   3.6383E-05  0.0127
   1.4148E+00   1.4492E+00   3.6279E-05  0.0126
   1.4492E+00   1.4845E+00   3.6442E-05  0.0124
   1.4845E+00   1.5206E+00   3.5775E-05  0.0124
   1.5206E+00   1.5576E+00   3.3741E-05  0.0126
   1.5576E+00   1.5955E+00   3.4188E-05  0.0123
   1.5955E+00   1.6343E+00   3.3984E-05  0.0122
   1.6343E+00   1.6741E+00   3.2300E-05  0.0124
   1.6741E+00   1.7148E+00   3.3026E-05  0.0121
   1.7148E+00   1.7565E+00   3.1593E-05  0.0122
   1.7565E+00   1.7992E+00   3.0801E-05  0.0122
   1.7992E+00   1.8430E+00   2.9946E-05  0.0123
   1.8430E+00   1.8879E+00   2.9621E-05  0.0122
   1.8879E+00   1.9338E+00   2.9328E-05  0.0121
   1.9338E+00   1.9808E+00   2.8810E-05  0.0121
   1.9808E+00   2.0290E+00   2.8985E-05  0.0119
   2.0290E+00   2.0784E+00   2.7841E-05  0.0120
   2.0784E+00   2.1290E+00   2.7064E-05  0.0120
   2.1290E+00   2.1808E+00   2.6075E-05  0.0121
   2.1808E+00   2.2338E+00   2.5056E-05  0.0122
   2.2338E+00   2.2882E+00   2.4722E-05  0.0121
   2.2882E+00   2.3439E+00   2.4415E-05  0.0120
   2.3439E+00   2.4009E+00   2.3807E-05  0.0120
   2.4009E+00   2.4593E+00   2.2904E-05  0.0121
   2.4593E+00   2.5191E+00   2.2703E-05  0.0120
   2.5191E+00   2.5804E+00   2.2112E-05  0.0121
   2.5804E+00   2.6432E+00   2.1328E-05  0.0121
   2.6432E+00   2.7075E+00   2.1264E-05  0.0120
   2.7075E+00   2.7734E+00   2.0496E-05  0.0121
   2.7734E+00   2.8409E+00   2.0158E-05  0.0120
   2.8409E+00   2.9100E+00   1.9588E-05  0.0121
   2.9100E+00   2.9808E+00   1.9177E-05  0.0120
   2.9808E+00   3.0533E+00   1.9269E-05  0.0119
   3.0533E+00   3.1276E+00   1.8730E-05  0.0119
   3.1276E+00   3.2037E+00   1.8489E-05  0.0118
   3.2037E+00   3.2817E+00   1.7909E-05  0.0119
   3.2817E+00   3.3615E+00   1.7294E-05  0.0119
   3.3615E+00   3.4433E+00   1.6810E-05  0.0120
   3.4433E+00   3.5271E+00   1.6749E-05  0.0119
   3.5271E+00   3.6129E+00   1.6141E-05  0.0119
   3.6129E+00   3.7008E+00   1.5726E-05  0.0119
   3.7008E+00   3.7908E+00   1.5545E-05  0.0119
   3.7908E+00   3.8831E+00   1.5092E-05  0.0119
   3.8831E+00   3.9776E+00   1.4574E-05  0.0120
   3.9776E+00   4.0743E+00   1.4574E-05  0.0118
   4.0743E+00   4.1735E+00   1.3601E-05  0.0121
   4.1735E+00   4.2750E+00   1.3432E-05  0.0120
   4.2750E+00   4.3790E+00   1.3063E-05  0.0120
   4.3790E+00   4.4856E+00   1.2464E-05  0.0122
   4.4856E+00   4.5947E+00   1.2079E-05  0.0122
   4.5947E+00   4.7065E+00   1.2008E-05  0.0121
   4.7065E+00   4.8210E+00   1.1679E-05  0.0121
   4.8210E+00   4.9383E+00   1.1124E-05  0.0123
   4.9383E+00   5.0585E+00   1.0418E-05  0.0126
   5.0585E+00   5.1815E+00   1.0204E-05  0.0125
   5.1815E+00   5.3076E+00   9.8491E-06  0.0126
   5.3076E+00   5.4368E+00   9.5346E-06  0.0127
   5.4368E+00   5.5690E+00   9.3565E-06  0.0126
   5.5690E+00   5.7045E+00   8.7743E-06  0.0129
   5.7045E+00   5.8433E+00   8.4414E-06  0.0130
   5.8433E+00   5.9855E+00   8.0992E-06  0.0131
   5.9855E+00   6.1311E+00   8.0124E-06  0.0130
   6.1311E+00   6.2803E+00   7.6836E-06  0.0131
   6.2803E+00   6.4331E+00   7.1463E-06  0.0135
   6.4331E+00   6.5896E+00   7.0440E-06  0.0134
   6.5896E+00   6.7500E+00   6.7165E-06  0.0136
   6.7500E+00   6.9142E+00   6.4989E-06  0.0136
   6.9142E+00   7.0824E+00   6.1887E-06  0.0138
   7.0824E+00   7.2548E+00   5.8435E-06  0.0140
   7.2548E+00   7.4313E+00   5.6722E-06  0.0141
   7.4313E+00   7.6121E+00   5.3004E-06  0.0144
   7.6121E+00   7.7973E+00   5.0317E-06  0.0146
   7.7973E+00   7.9870E+00   4.8337E-06  0.0147
   7.9870E+00   8.1813E+00   4.7142E-06  0.0147
   8.1813E+00   8.3804E+00   4.3966E-06  0.0151
   8.3804E+00   8.5843E+00   4.2285E-06  0.0152
   8.5843E+00   8.7931E+00   4.0510E-06  0.0153
   8.7931E+00   9.0071E+00   3.7991E-06  0.0156
   9.0071E+00   9.2262E+00   3.5588E-06  0.0160
   9.2262E+00   9.4507E+00   3.5023E-06  0.0159
   9.4507E+00   9.6807E+00   3.2960E-06  0.0162
   9.6807E+00   9.9162E+00   3.1555E-06  0.0164
   9.9162E+00   1.0157E+01   2.9908E-06  0.0166
   1.0157E+01   1.0405E+01   2.8827E-06  0.0167
   1.0405E+01   1.0658E+01   2.8895E-06  0.0165
   1.0658E+01   1.0917E+01   2.8154E-06  0.0165
   1.0917E+01   1.1183E+01   2.7460E-06  0.0165
   1.1183E+01   1.1455E+01   2.6500E-06  0.0166
   1.1455E+01   1.1733E+01   2.4519E-06  0.0171
   1.1733E+01   1.2019E+01   2.3237E-06  0.0173
   1.2019E+01   1.2311E+01   2.1861E-06  0.0177
   1.2311E+01   1.2611E+01   2.0586E-06  0.0180
   1.2611E+01   1.2918E+01   1.8807E-06  0.0186
   1.2918E+01   1.3232E+01   1.8020E-06  0.0188
   1.3232E+01   1.3554E+01   1.7196E-06  0.0190
   1.3554E+01   1.3884E+01   1.5668E-06  0.0197
   1.3884E+01   1.4222E+01   1.4524E-06  0.0202
   1.4222E+01   1.4568E+01   1.3717E-06  0.0205
   1.4568E+01   1.4922E+01   1.2146E-06  0.0215
   1.4922E+01   1.5285E+01   1.1602E-06  0.0218
   1.5285E+01   1.5657E+01   1.0369E-06  0.0228
   1.5657E+01   1.6038E+01   9.8846E-07  0.0230
   1.6038E+01   1.6428E+01   8.8949E-07  0.0240
   1.6428E+01   1.6828E+01   7.9509E-07  0.0251
   1.6828E+01   1.7237E+01   7.4377E-07  0.0256
   1.7237E+01   1.7657E+01   6.7484E-07  0.0266
   1.7657E+01   1.8086E+01   6.2844E-07  0.0272
   1.8086E+01   1.8526E+01   5.8772E-07  0.0278
   1.8526E+01   1.8977E+01   5.6181E-07  0.0281
   1.8977E+01   1.9439E+01   4.9807E-07  0.0295
   1.9439E+01   1.9912E+01   4.4345E-07  0.0309
   1.9912E+01   2.0396E+01   4.0374E-07  0.0320
   2.0396E+01   2.0893E+01   3.7077E-07  0.0330
   2.0893E+01   2.1401E+01   3.2459E-07  0.0348
   2.1401E+01   2.1922E+01   2.9499E-07  0.0361
   2.1922E+01   2.2455E+01   2.7523E-07  0.0369
   2.2455E+01   2.3001E+01   2.3648E-07  0.0393
   2.3001E+01   2.3561E+01   2.2514E-07  0.0398
   2.3561E+01   2.4134E+01   2.1003E-07  0.0408
   2.4134E+01   2.4721E+01   1.8154E-07  0.0433
   2.4721E+01   2.5323E+01   1.8122E-07  0.0428
   2.5323E+01   2.5939E+01   1.4672E-07  0.0470
   2.5939E+01   2.6570E+01   1.2517E-07  0.0503
   2.6570E+01   2.7217E+01   1.2251E-07  0.0503
   2.7217E+01   2.7879E+01   1.1205E-07  0.0519
   2.7879E+01   2.8557E+01   9.9954E-08  0.0543
   2.8557E+01   2.9252E+01   8.5202E-08  0.0581
   2.9252E+01   2.9964E+01   7.6153E-08  0.0607
   2.9964E+01   3.0693E+01   6.9132E-08  0.0630
   3.0693E+01   3.1440E+01   6.4276E-08  0.0645
   3.1440E+01   3.2205E+01   4.6539E-08  0.0750
   3.2205E+01   3.2988E+01   4.5178E-08  0.0752
   3.2988E+01   3.3791E+01   3.7876E-08  0.0811
   3.3791E+01   3.4613E+01   3.5030E-08  0.0833
   3.4613E+01   3.5455E+01   2.8973E-08  0.0905
   3.5455E+01   3.6318E+01   2.6662E-08  0.0933
   3.6318E+01   3.7201E+01   2.3765E-08  0.0976
   3.7201E+01   3.8106E+01   2.2538E-08  0.0990
   3.8106E+01   3.9034E+01   1.7257E-08  0.1118
   3.9034E+01   3.9983E+01   1.4320E-08  0.1213
   3.9983E+01   4.0956E+01   1.2952E-08  0.1260
   4.0956E+01   4.1953E+01   1.1842E-08  0.1302
   4.1953E+01   4.2973E+01   1.0189E-08  0.1387
   4.2973E+01   4.4019E+01   5.9297E-09  0.1796
   4.4019E+01   4.5090E+01   5.2287E-09  0.1890
   4.5090E+01   4.6187E+01   5.6514E-09  0.1796
   4.6187E+01   4.7311E+01   4.0934E-09  0.2085
   4.7311E+01   4.8462E+01   3.9961E-09  0.2085
   4.8462E+01   4.9641E+01   3.0531E-09  0.2357
   4.9641E+01   5.0849E+01   1.8215E-09  0.3015
   5.0849E+01   5.2086E+01   1.9399E-09  0.2887
   5.2086E+01   5.3353E+01   2.5251E-09  0.2500
   5.3353E+01   5.4651E+01   2.0029E-09  0.2774
   5.4651E+01   5.5981E+01   1.0529E-09  0.3780
   5.5981E+01   5.7343E+01   1.3215E-09  0.3333
   5.7343E+01   5.8738E+01   2.8670E-10  0.7071
   5.8738E+01   6.0168E+01   2.7989E-10  0.7071
   6.0168E+01   6.1632E+01   5.4648E-10  0.5000
   6.1632E+01   6.3131E+01   2.6675E-10  0.7071
   6.3131E+01   6.4667E+01   1.3021E-10  1.0000
   6.4667E+01   6.6240E+01   3.8134E-10  0.5774
   6.6240E+01   6.7852E+01   2.4819E-10  0.7071
   6.7852E+01   6.9503E+01   0.0000E+00  0.0000
   6.9503E+01   7.1194E+01   1.1827E-10  1.0000
   7.1194E+01   7.2926E+01   1.1546E-10  1.0000
   7.2926E+01   7.4701E+01   1.1272E-10  1.0000
   7.4701E+01   7.6518E+01   1.1004E-10  1.0000
   7.6518E+01   7.8380E+01   1.0743E-10  1.0000
   7.8380E+01   8.0287E+01   0.0000E+00  0.0000
   8.0287E+01   8.2240E+01   0.0000E+00  0.0000
   8.2240E+01   8.4241E+01   0.0000E+00  0.0000
   8.4241E+01   8.6291E+01   0.0000E+00  0.0000
   8.6291E+01   8.8391E+01   0.0000E+00  0.0000
   8.8391E+01   9.0541E+01   0.0000E+00  0.0000
   9.0541E+01   9.2744E+01   0.0000E+00  0.0000
   9.2744E+01   9.5001E+01   0.0000E+00  0.0000
   9.5001E+01   9.7312E+01   0.0000E+00  0.0000
   9.7312E+01   9.9680E+01   0.0000E+00  0.0000
   9.9680E+01   1.0211E+02   0.0000E+00  0.0000
   1.0211E+02   1.0459E+02   0.0000E+00  0.0000
   1.0459E+02   1.0713E+02   0.0000E+00  0.0000
   1.0713E+02   1.0974E+02   0.0000E+00  0.0000
   1.0974E+02   1.1241E+02   0.0000E+00  0.0000
   1.1241E+02   1.1515E+02   0.0000E+00  0.0000
   1.1515E+02   1.1795E+02   0.0000E+00  0.0000
   1.1795E+02   1.2082E+02   0.0000E+00  0.0000
   1.2082E+02   1.2376E+02   0.0000E+00  0.0000
   1.2376E+02   1.2677E+02   0.0000E+00  0.0000
   1.2677E+02   1.2985E+02   0.0000E+00  0.0000
   1.2985E+02   1.3301E+02   0.0000E+00  0.0000
   1.3301E+02   1.3625E+02   0.0000E+00  0.0000
   1.3625E+02   1.3956E+02   0.0000E+00  0.0000
   1.3956E+02   1.4296E+02   0.0000E+00  0.0000
   1.4296E+02   1.4644E+02   0.0000E+00  0.0000
   1.4644E+02   1.5000E+02   0.0000E+00  0.0000

#   sum over                 1.2694E-06
'no. =    1   reg = 126 - 226'
msuc: {\huge [t-cross] in region mesh}
msdr: {\it plotted by \ANGEL \version}
msdl: {\it calculated by \PHITS  3.28}
wt: s(0.7)
\vspace{-3}
  region surface crossing
  area  &=&   1.0000E+00 [cm^2]
e:
 
# Information for Restart Calculation
# This calculation was newly started
# istdev =  2 # 1:Batch variance, 2:History variance
# resc2  = 5.00000000000000000E+09 # Total source weight or Total source weight / maxcas
# resc3  = 5.00000000000000000E+09 # Total history number or Total batch number
# maxcas =   500000000 # History / Batch, only used for istdev=1
# bitrseed = 0110100000100010111000001110001111001110100100011111101000111001 # bit data of rseed
