[ T-Cross ]
    title = [t-cross] in region mesh
     mesh =  reg            # mesh type is region-wise
      reg =    1            # number of crossing regions
      non     r-from    r-to       area
      1       104       204        1.000000    
   e-type =    3            # e-mesh is log given by emin, emax and ne
     emin =  1.0000000E-02  # minimum value of e-mesh points
     emax =   150.0000      # maximum value of e-mesh points
#    edel =  2.4039514E-02  # mesh width of e-mesh points
       ne =    400          # number of e-mesh points
#    data = ( e(i), i = 1, ne + 1 )
#           1.00000E-02  1.02433E-02  1.04925E-02  1.07478E-02  1.10093E-02
#           1.12772E-02  1.15516E-02  1.18326E-02  1.21205E-02  1.24154E-02
#           1.27175E-02  1.30269E-02  1.33439E-02  1.36686E-02  1.40011E-02
#           1.43418E-02  1.46907E-02  1.50482E-02  1.54143E-02  1.57894E-02
#           1.61735E-02  1.65670E-02  1.69701E-02  1.73830E-02  1.78060E-02
#           1.82392E-02  1.86830E-02  1.91375E-02  1.96032E-02  2.00801E-02
#           2.05687E-02  2.10692E-02  2.15818E-02  2.21069E-02  2.26448E-02
#           2.31957E-02  2.37601E-02  2.43382E-02  2.49304E-02  2.55369E-02
#           2.61583E-02  2.67947E-02  2.74467E-02  2.81145E-02  2.87985E-02
#           2.94992E-02  3.02169E-02  3.09521E-02  3.17052E-02  3.24766E-02
#           3.32668E-02  3.40762E-02  3.49053E-02  3.57546E-02  3.66246E-02
#           3.75157E-02  3.84284E-02  3.93634E-02  4.03212E-02  4.13022E-02
#           4.23071E-02  4.33365E-02  4.43909E-02  4.54710E-02  4.65773E-02
#           4.77106E-02  4.88714E-02  5.00605E-02  5.12785E-02  5.25262E-02
#           5.38042E-02  5.51133E-02  5.64542E-02  5.78278E-02  5.92348E-02
#           6.06760E-02  6.21523E-02  6.36645E-02  6.52135E-02  6.68002E-02
#           6.84255E-02  7.00904E-02  7.17957E-02  7.35426E-02  7.53319E-02
#           7.71648E-02  7.90423E-02  8.09655E-02  8.29354E-02  8.49533E-02
#           8.70203E-02  8.91376E-02  9.13064E-02  9.35279E-02  9.58035E-02
#           9.81345E-02  1.00522E-01  1.02968E-01  1.05473E-01  1.08040E-01
#           1.10668E-01  1.13361E-01  1.16119E-01  1.18944E-01  1.21838E-01
#           1.24803E-01  1.27839E-01  1.30950E-01  1.34136E-01  1.37399E-01
#           1.40742E-01  1.44167E-01  1.47675E-01  1.51268E-01  1.54948E-01
#           1.58718E-01  1.62580E-01  1.66535E-01  1.70587E-01  1.74738E-01
#           1.78989E-01  1.83344E-01  1.87805E-01  1.92375E-01  1.97055E-01
#           2.01850E-01  2.06761E-01  2.11792E-01  2.16945E-01  2.22223E-01
#           2.27630E-01  2.33169E-01  2.38842E-01  2.44653E-01  2.50605E-01
#           2.56703E-01  2.62949E-01  2.69346E-01  2.75900E-01  2.82613E-01
#           2.89489E-01  2.96532E-01  3.03747E-01  3.11138E-01  3.18708E-01
#           3.26462E-01  3.34405E-01  3.42542E-01  3.50876E-01  3.59413E-01
#           3.68158E-01  3.77116E-01  3.86291E-01  3.95690E-01  4.05317E-01
#           4.15179E-01  4.25281E-01  4.35628E-01  4.46227E-01  4.57084E-01
#           4.68205E-01  4.79597E-01  4.91266E-01  5.03219E-01  5.15463E-01
#           5.28005E-01  5.40851E-01  5.54011E-01  5.67490E-01  5.81298E-01
#           5.95441E-01  6.09929E-01  6.24769E-01  6.39970E-01  6.55541E-01
#           6.71491E-01  6.87828E-01  7.04564E-01  7.21706E-01  7.39266E-01
#           7.57253E-01  7.75678E-01  7.94551E-01  8.13883E-01  8.33685E-01
#           8.53969E-01  8.74747E-01  8.96030E-01  9.17831E-01  9.40163E-01
#           9.63038E-01  9.86469E-01  1.01047E+00  1.03506E+00  1.06024E+00
#           1.08604E+00  1.11246E+00  1.13953E+00  1.16725E+00  1.19565E+00
#           1.22474E+00  1.25454E+00  1.28507E+00  1.31633E+00  1.34836E+00
#           1.38117E+00  1.41477E+00  1.44920E+00  1.48446E+00  1.52057E+00
#           1.55757E+00  1.59547E+00  1.63429E+00  1.67405E+00  1.71478E+00
#           1.75650E+00  1.79924E+00  1.84302E+00  1.88786E+00  1.93379E+00
#           1.98084E+00  2.02904E+00  2.07841E+00  2.12898E+00  2.18078E+00
#           2.23384E+00  2.28819E+00  2.34386E+00  2.40089E+00  2.45930E+00
#           2.51914E+00  2.58043E+00  2.64322E+00  2.70753E+00  2.77341E+00
#           2.84088E+00  2.91001E+00  2.98081E+00  3.05333E+00  3.12762E+00
#           3.20372E+00  3.28167E+00  3.36152E+00  3.44330E+00  3.52708E+00
#           3.61290E+00  3.70080E+00  3.79085E+00  3.88308E+00  3.97756E+00
#           4.07434E+00  4.17347E+00  4.27501E+00  4.37903E+00  4.48557E+00
#           4.59471E+00  4.70650E+00  4.82102E+00  4.93832E+00  5.05847E+00
#           5.18155E+00  5.30762E+00  5.43676E+00  5.56904E+00  5.70453E+00
#           5.84333E+00  5.98550E+00  6.13114E+00  6.28031E+00  6.43312E+00
#           6.58964E+00  6.74997E+00  6.91420E+00  7.08243E+00  7.25475E+00
#           7.43126E+00  7.61207E+00  7.79728E+00  7.98700E+00  8.18133E+00
#           8.38038E+00  8.58428E+00  8.79315E+00  9.00709E+00  9.22624E+00
#           9.45072E+00  9.68067E+00  9.91620E+00  1.01575E+01  1.04046E+01
#           1.06578E+01  1.09171E+01  1.11827E+01  1.14548E+01  1.17335E+01
#           1.20190E+01  1.23114E+01  1.26109E+01  1.29178E+01  1.32321E+01
#           1.35540E+01  1.38838E+01  1.42216E+01  1.45676E+01  1.49221E+01
#           1.52851E+01  1.56570E+01  1.60380E+01  1.64282E+01  1.68279E+01
#           1.72374E+01  1.76568E+01  1.80864E+01  1.85264E+01  1.89772E+01
#           1.94389E+01  1.99119E+01  2.03963E+01  2.08926E+01  2.14009E+01
#           2.19216E+01  2.24550E+01  2.30014E+01  2.35610E+01  2.41343E+01
#           2.47215E+01  2.53230E+01  2.59391E+01  2.65702E+01  2.72167E+01
#           2.78789E+01  2.85572E+01  2.92520E+01  2.99637E+01  3.06928E+01
#           3.14396E+01  3.22045E+01  3.29881E+01  3.37907E+01  3.46128E+01
#           3.54550E+01  3.63177E+01  3.72013E+01  3.81064E+01  3.90336E+01
#           3.99833E+01  4.09561E+01  4.19526E+01  4.29734E+01  4.40189E+01
#           4.50900E+01  4.61870E+01  4.73108E+01  4.84619E+01  4.96410E+01
#           5.08488E+01  5.20860E+01  5.33533E+01  5.46514E+01  5.59812E+01
#           5.73432E+01  5.87384E+01  6.01676E+01  6.16315E+01  6.31311E+01
#           6.46671E+01  6.62405E+01  6.78522E+01  6.95031E+01  7.11941E+01
#           7.29263E+01  7.47007E+01  7.65182E+01  7.83800E+01  8.02870E+01
#           8.22405E+01  8.42414E+01  8.62911E+01  8.83906E+01  9.05412E+01
#           9.27442E+01  9.50007E+01  9.73122E+01  9.96799E+01  1.02105E+02
#           1.04589E+02  1.07134E+02  1.09741E+02  1.12411E+02  1.15146E+02
#           1.17948E+02  1.20817E+02  1.23757E+02  1.26768E+02  1.29852E+02
#           1.33012E+02  1.36248E+02  1.39563E+02  1.42959E+02  1.46437E+02
#           1.50000E+02
     unit =    2            # unit is [1/cm^2/(MeV/n)/source]
     axis =  eng            # axis of output
     file = detector-05.out  # file name of output for the above axis
   output = f-curr          # surface crossing forward current spectrum
     part =  neutron  
# kf/name :  2112     
#    used :        main (  %)        temp (  %)       total (  %)
#  memory :         414 (  0)           0 (  0)         414 (  0)

#------------------------------------------------------------------------------
#newpage:
#   no. =    1   reg = 104 - 204

x: Energy [MeV/n]
y:  F-Curr [1/cm^2/(MeV/n)/source]         
p: xlog ylog afac(0.8) form(0.9)
h: n            x            y(neutron ),hh0l   n 
#  e-lower      e-upper      neutron     r.err 
   1.0000E-02   1.0243E-02   1.3139E-03  0.0250
   1.0243E-02   1.0493E-02   1.3416E-03  0.0244
   1.0493E-02   1.0748E-02   1.3481E-03  0.0240
   1.0748E-02   1.1009E-02   1.3174E-03  0.0240
   1.1009E-02   1.1277E-02   1.2678E-03  0.0242
   1.1277E-02   1.1552E-02   1.2454E-03  0.0241
   1.1552E-02   1.1833E-02   1.1904E-03  0.0244
   1.1833E-02   1.2121E-02   1.2072E-03  0.0239
   1.2121E-02   1.2415E-02   1.2034E-03  0.0237
   1.2415E-02   1.2718E-02   1.1515E-03  0.0239
   1.2718E-02   1.3027E-02   1.1916E-03  0.0232
   1.3027E-02   1.3344E-02   1.0844E-03  0.0241
   1.3344E-02   1.3669E-02   1.0856E-03  0.0238
   1.3669E-02   1.4001E-02   1.0671E-03  0.0237
   1.4001E-02   1.4342E-02   1.0197E-03  0.0239
   1.4342E-02   1.4691E-02   1.0409E-03  0.0234
   1.4691E-02   1.5048E-02   1.0204E-03  0.0234
   1.5048E-02   1.5414E-02   9.8161E-04  0.0235
   1.5414E-02   1.5789E-02   9.8462E-04  0.0232
   1.5789E-02   1.6174E-02   9.4744E-04  0.0234
   1.6174E-02   1.6567E-02   9.4804E-04  0.0231
   1.6567E-02   1.6970E-02   9.3622E-04  0.0230
   1.6970E-02   1.7383E-02   8.9186E-04  0.0232
   1.7383E-02   1.7806E-02   8.7391E-04  0.0232
   1.7806E-02   1.8239E-02   8.1983E-04  0.0237
   1.8239E-02   1.8683E-02   8.4396E-04  0.0230
   1.8683E-02   1.9138E-02   8.4055E-04  0.0228
   1.9138E-02   1.9603E-02   8.0855E-04  0.0230
   1.9603E-02   2.0080E-02   8.0029E-04  0.0228
   2.0080E-02   2.0569E-02   7.7191E-04  0.0230
   2.0569E-02   2.1069E-02   7.9579E-04  0.0223
   2.1069E-02   2.1582E-02   7.5431E-04  0.0227
   2.1582E-02   2.2107E-02   7.5636E-04  0.0224
   2.2107E-02   2.2645E-02   7.1251E-04  0.0228
   2.2645E-02   2.3196E-02   7.0882E-04  0.0226
   2.3196E-02   2.3760E-02   6.7001E-04  0.0229
   2.3760E-02   2.4338E-02   6.9382E-04  0.0223
   2.4338E-02   2.4930E-02   6.7017E-04  0.0224
   2.4930E-02   2.5537E-02   6.5470E-04  0.0224
   2.5537E-02   2.6158E-02   6.3316E-04  0.0225
   2.6158E-02   2.6795E-02   6.3564E-04  0.0222
   2.6795E-02   2.7447E-02   6.0827E-04  0.0224
   2.7447E-02   2.8114E-02   6.0977E-04  0.0221
   2.8114E-02   2.8799E-02   5.7993E-04  0.0224
   2.8799E-02   2.9499E-02   5.8032E-04  0.0221
   2.9499E-02   3.0217E-02   5.5445E-04  0.0224
   3.0217E-02   3.0952E-02   5.6362E-04  0.0219
   3.0952E-02   3.1705E-02   5.4256E-04  0.0221
   3.1705E-02   3.2477E-02   5.5206E-04  0.0216
   3.2477E-02   3.3267E-02   5.2940E-04  0.0218
   3.3267E-02   3.4076E-02   5.0142E-04  0.0221
   3.4076E-02   3.4905E-02   4.9745E-04  0.0220
   3.4905E-02   3.5755E-02   4.9538E-04  0.0217
   3.5755E-02   3.6625E-02   4.7064E-04  0.0220
   3.6625E-02   3.7516E-02   4.8482E-04  0.0215
   3.7516E-02   3.8428E-02   4.7127E-04  0.0215
   3.8428E-02   3.9363E-02   4.7954E-04  0.0211
   3.9363E-02   4.0321E-02   4.4744E-04  0.0215
   4.0321E-02   4.1302E-02   4.5331E-04  0.0211
   4.1302E-02   4.2307E-02   4.4598E-04  0.0211
   4.2307E-02   4.3337E-02   4.4016E-04  0.0210
   4.3337E-02   4.4391E-02   4.2453E-04  0.0211
   4.4391E-02   4.5471E-02   4.0816E-04  0.0212
   4.5471E-02   4.6577E-02   3.8747E-04  0.0216
   4.6577E-02   4.7711E-02   3.8269E-04  0.0214
   4.7711E-02   4.8871E-02   3.7381E-04  0.0214
   4.8871E-02   5.0061E-02   3.7536E-04  0.0211
   5.0061E-02   5.1279E-02   3.6565E-04  0.0211
   5.1279E-02   5.2526E-02   3.5278E-04  0.0213
   5.2526E-02   5.3804E-02   3.5942E-04  0.0208
   5.3804E-02   5.5113E-02   3.3570E-04  0.0213
   5.5113E-02   5.6454E-02   3.3261E-04  0.0211
   5.6454E-02   5.7828E-02   3.1468E-04  0.0215
   5.7828E-02   5.9235E-02   3.1367E-04  0.0212
   5.9235E-02   6.0676E-02   3.1727E-04  0.0209
   6.0676E-02   6.2152E-02   3.2185E-04  0.0205
   6.2152E-02   6.3665E-02   3.0550E-04  0.0207
   6.3665E-02   6.5214E-02   3.0802E-04  0.0204
   6.5214E-02   6.6800E-02   3.0351E-04  0.0203
   6.6800E-02   6.8426E-02   2.8734E-04  0.0206
   6.8426E-02   7.0090E-02   2.7064E-04  0.0210
   7.0090E-02   7.1796E-02   2.7598E-04  0.0206
   7.1796E-02   7.3543E-02   2.7972E-04  0.0202
   7.3543E-02   7.5332E-02   2.6038E-04  0.0207
   7.5332E-02   7.7165E-02   2.6396E-04  0.0203
   7.7165E-02   7.9042E-02   2.5345E-04  0.0204
   7.9042E-02   8.0965E-02   2.5477E-04  0.0202
   8.0965E-02   8.2935E-02   2.4391E-04  0.0203
   8.2935E-02   8.4953E-02   2.3502E-04  0.0205
   8.4953E-02   8.7020E-02   2.4498E-04  0.0198
   8.7020E-02   8.9138E-02   2.3393E-04  0.0200
   8.9138E-02   9.1306E-02   2.2232E-04  0.0203
   9.1306E-02   9.3528E-02   2.1563E-04  0.0204
   9.3528E-02   9.5804E-02   2.2384E-04  0.0198
   9.5804E-02   9.8134E-02   2.1839E-04  0.0198
   9.8134E-02   1.0052E-01   2.1232E-04  0.0198
   1.0052E-01   1.0297E-01   2.0194E-04  0.0201
   1.0297E-01   1.0547E-01   1.9903E-04  0.0200
   1.0547E-01   1.0804E-01   2.0486E-04  0.0195
   1.0804E-01   1.1067E-01   1.9126E-04  0.0199
   1.1067E-01   1.1336E-01   1.8279E-04  0.0201
   1.1336E-01   1.1612E-01   1.8362E-04  0.0198
   1.1612E-01   1.1894E-01   1.7769E-04  0.0199
   1.1894E-01   1.2184E-01   1.8336E-04  0.0194
   1.2184E-01   1.2480E-01   1.7140E-04  0.0198
   1.2480E-01   1.2784E-01   1.6978E-04  0.0196
   1.2784E-01   1.3095E-01   1.6936E-04  0.0194
   1.3095E-01   1.3414E-01   1.6692E-04  0.0194
   1.3414E-01   1.3740E-01   1.5813E-04  0.0196
   1.3740E-01   1.4074E-01   1.6034E-04  0.0193
   1.4074E-01   1.4417E-01   1.5572E-04  0.0193
   1.4417E-01   1.4767E-01   1.4718E-04  0.0196
   1.4767E-01   1.5127E-01   1.4947E-04  0.0192
   1.5127E-01   1.5495E-01   1.4264E-04  0.0195
   1.5495E-01   1.5872E-01   1.3695E-04  0.0196
   1.5872E-01   1.6258E-01   1.3838E-04  0.0193
   1.6258E-01   1.6654E-01   1.3028E-04  0.0196
   1.6654E-01   1.7059E-01   1.2922E-04  0.0195
   1.7059E-01   1.7474E-01   1.2794E-04  0.0194
   1.7474E-01   1.7899E-01   1.2648E-04  0.0192
   1.7899E-01   1.8334E-01   1.2510E-04  0.0191
   1.8334E-01   1.8781E-01   1.2539E-04  0.0189
   1.8781E-01   1.9237E-01   1.2239E-04  0.0189
   1.9237E-01   1.9706E-01   1.1381E-04  0.0193
   1.9706E-01   2.0185E-01   1.1716E-04  0.0188
   2.0185E-01   2.0676E-01   1.1714E-04  0.0186
   2.0676E-01   2.1179E-01   1.1635E-04  0.0184
   2.1179E-01   2.1694E-01   1.2772E-04  0.0174
   2.1694E-01   2.2222E-01   1.2758E-04  0.0172
   2.2222E-01   2.2763E-01   1.3190E-04  0.0167
   2.2763E-01   2.3317E-01   1.3431E-04  0.0164
   2.3317E-01   2.3884E-01   1.3739E-04  0.0160
   2.3884E-01   2.4465E-01   1.4455E-04  0.0154
   2.4465E-01   2.5061E-01   1.4486E-04  0.0152
   2.5061E-01   2.5670E-01   1.4327E-04  0.0151
   2.5670E-01   2.6295E-01   1.4637E-04  0.0148
   2.6295E-01   2.6935E-01   1.5417E-04  0.0142
   2.6935E-01   2.7590E-01   1.5388E-04  0.0140
   2.7590E-01   2.8261E-01   1.5962E-04  0.0136
   2.8261E-01   2.8949E-01   1.6492E-04  0.0132
   2.8949E-01   2.9653E-01   1.6588E-04  0.0130
   2.9653E-01   3.0375E-01   1.7070E-04  0.0127
   3.0375E-01   3.1114E-01   1.7134E-04  0.0125
   3.1114E-01   3.1871E-01   1.7140E-04  0.0124
   3.1871E-01   3.2646E-01   1.7961E-04  0.0119
   3.2646E-01   3.3441E-01   1.8108E-04  0.0118
   3.3441E-01   3.4254E-01   1.8199E-04  0.0116
   3.4254E-01   3.5088E-01   1.8952E-04  0.0112
   3.5088E-01   3.5941E-01   1.9058E-04  0.0111
   3.5941E-01   3.6816E-01   1.8901E-04  0.0110
   3.6816E-01   3.7712E-01   1.9128E-04  0.0108
   3.7712E-01   3.8629E-01   1.9989E-04  0.0104
   3.8629E-01   3.9569E-01   1.9673E-04  0.0104
   3.9569E-01   4.0532E-01   2.0190E-04  0.0101
   4.0532E-01   4.1518E-01   2.0114E-04  0.0100
   4.1518E-01   4.2528E-01   2.0243E-04  0.0099
   4.2528E-01   4.3563E-01   2.0665E-04  0.0096
   4.3563E-01   4.4623E-01   2.1012E-04  0.0094
   4.4623E-01   4.5708E-01   2.1315E-04  0.0093
   4.5708E-01   4.6821E-01   2.1530E-04  0.0091
   4.6821E-01   4.7960E-01   2.1514E-04  0.0090
   4.7960E-01   4.9127E-01   2.1220E-04  0.0090
   4.9127E-01   5.0322E-01   2.1880E-04  0.0087
   5.0322E-01   5.1546E-01   2.1900E-04  0.0086
   5.1546E-01   5.2800E-01   2.1920E-04  0.0085
   5.2800E-01   5.4085E-01   2.2346E-04  0.0083
   5.4085E-01   5.5401E-01   2.2072E-04  0.0083
   5.5401E-01   5.6749E-01   2.2222E-04  0.0081
   5.6749E-01   5.8130E-01   2.2070E-04  0.0081
   5.8130E-01   5.9544E-01   2.2356E-04  0.0079
   5.9544E-01   6.0993E-01   2.2166E-04  0.0079
   6.0993E-01   6.2477E-01   2.2229E-04  0.0078
   6.2477E-01   6.3997E-01   2.2244E-04  0.0077
   6.3997E-01   6.5554E-01   2.1991E-04  0.0076
   6.5554E-01   6.7149E-01   2.2053E-04  0.0075
   6.7149E-01   6.8783E-01   2.2268E-04  0.0074
   6.8783E-01   7.0456E-01   2.1877E-04  0.0074
   7.0456E-01   7.2171E-01   2.1912E-04  0.0073
   7.2171E-01   7.3927E-01   2.1427E-04  0.0073
   7.3927E-01   7.5725E-01   2.1426E-04  0.0072
   7.5725E-01   7.7568E-01   2.0928E-04  0.0072
   7.7568E-01   7.9455E-01   2.0787E-04  0.0071
   7.9455E-01   8.1388E-01   2.0639E-04  0.0071
   8.1388E-01   8.3368E-01   2.0275E-04  0.0070
   8.3368E-01   8.5397E-01   2.0032E-04  0.0070
   8.5397E-01   8.7475E-01   1.9837E-04  0.0069
   8.7475E-01   8.9603E-01   1.9415E-04  0.0069
   8.9603E-01   9.1783E-01   1.8792E-04  0.0070
   9.1783E-01   9.4016E-01   1.8248E-04  0.0070
   9.4016E-01   9.6304E-01   1.7846E-04  0.0070
   9.6304E-01   9.8647E-01   1.7579E-04  0.0069
   9.8647E-01   1.0105E+00   1.7071E-04  0.0070
   1.0105E+00   1.0351E+00   1.6850E-04  0.0069
   1.0351E+00   1.0602E+00   1.6810E-04  0.0068
   1.0602E+00   1.0860E+00   1.6950E-04  0.0067
   1.0860E+00   1.1125E+00   1.6906E-04  0.0067
   1.1125E+00   1.1395E+00   1.7118E-04  0.0065
   1.1395E+00   1.1673E+00   1.7152E-04  0.0065
   1.1673E+00   1.1957E+00   1.7395E-04  0.0063
   1.1957E+00   1.2247E+00   1.7538E-04  0.0062
   1.2247E+00   1.2545E+00   1.7449E-04  0.0062
   1.2545E+00   1.2851E+00   1.7437E-04  0.0061
   1.2851E+00   1.3163E+00   1.7441E-04  0.0060
   1.3163E+00   1.3484E+00   1.7433E-04  0.0060
   1.3484E+00   1.3812E+00   1.7540E-04  0.0059
   1.3812E+00   1.4148E+00   1.7728E-04  0.0058
   1.4148E+00   1.4492E+00   1.7424E-04  0.0057
   1.4492E+00   1.4845E+00   1.7420E-04  0.0057
   1.4845E+00   1.5206E+00   1.7047E-04  0.0057
   1.5206E+00   1.5576E+00   1.7115E-04  0.0056
   1.5576E+00   1.5955E+00   1.6973E-04  0.0056
   1.5955E+00   1.6343E+00   1.6890E-04  0.0055
   1.6343E+00   1.6741E+00   1.6742E-04  0.0055
   1.6741E+00   1.7148E+00   1.6862E-04  0.0054
   1.7148E+00   1.7565E+00   1.6741E-04  0.0053
   1.7565E+00   1.7992E+00   1.6577E-04  0.0053
   1.7992E+00   1.8430E+00   1.6304E-04  0.0053
   1.8430E+00   1.8879E+00   1.6011E-04  0.0053
   1.8879E+00   1.9338E+00   1.6165E-04  0.0052
   1.9338E+00   1.9808E+00   1.6066E-04  0.0051
   1.9808E+00   2.0290E+00   1.5971E-04  0.0051
   2.0290E+00   2.0784E+00   1.5808E-04  0.0050
   2.0784E+00   2.1290E+00   1.5559E-04  0.0050
   2.1290E+00   2.1808E+00   1.5493E-04  0.0050
   2.1808E+00   2.2338E+00   1.5187E-04  0.0050
   2.2338E+00   2.2882E+00   1.5000E-04  0.0049
   2.2882E+00   2.3439E+00   1.4726E-04  0.0049
   2.3439E+00   2.4009E+00   1.4798E-04  0.0048
   2.4009E+00   2.4593E+00   1.4732E-04  0.0048
   2.4593E+00   2.5191E+00   1.4319E-04  0.0048
   2.5191E+00   2.5804E+00   1.4308E-04  0.0048
   2.5804E+00   2.6432E+00   1.4133E-04  0.0047
   2.6432E+00   2.7075E+00   1.3869E-04  0.0047
   2.7075E+00   2.7734E+00   1.3675E-04  0.0047
   2.7734E+00   2.8409E+00   1.3529E-04  0.0047
   2.8409E+00   2.9100E+00   1.3453E-04  0.0046
   2.9100E+00   2.9808E+00   1.3260E-04  0.0046
   2.9808E+00   3.0533E+00   1.3214E-04  0.0045
   3.0533E+00   3.1276E+00   1.2886E-04  0.0045
   3.1276E+00   3.2037E+00   1.2769E-04  0.0045
   3.2037E+00   3.2817E+00   1.2656E-04  0.0045
   3.2817E+00   3.3615E+00   1.2449E-04  0.0045
   3.3615E+00   3.4433E+00   1.2218E-04  0.0045
   3.4433E+00   3.5271E+00   1.2059E-04  0.0044
   3.5271E+00   3.6129E+00   1.1911E-04  0.0044
   3.6129E+00   3.7008E+00   1.1850E-04  0.0044
   3.7008E+00   3.7908E+00   1.1576E-04  0.0044
   3.7908E+00   3.8831E+00   1.1329E-04  0.0044
   3.8831E+00   3.9776E+00   1.1218E-04  0.0043
   3.9776E+00   4.0743E+00   1.1055E-04  0.0043
   4.0743E+00   4.1735E+00   1.0870E-04  0.0043
   4.1735E+00   4.2750E+00   1.0683E-04  0.0043
   4.2750E+00   4.3790E+00   1.0587E-04  0.0042
   4.3790E+00   4.4856E+00   1.0418E-04  0.0042
   4.4856E+00   4.5947E+00   1.0262E-04  0.0042
   4.5947E+00   4.7065E+00   1.0062E-04  0.0042
   4.7065E+00   4.8210E+00   9.9548E-05  0.0042
   4.8210E+00   4.9383E+00   9.7796E-05  0.0042
   4.9383E+00   5.0585E+00   9.5338E-05  0.0042
   5.0585E+00   5.1815E+00   9.4011E-05  0.0041
   5.1815E+00   5.3076E+00   9.2578E-05  0.0041
   5.3076E+00   5.4368E+00   9.0851E-05  0.0041
   5.4368E+00   5.5690E+00   8.8930E-05  0.0041
   5.5690E+00   5.7045E+00   8.7002E-05  0.0041
   5.7045E+00   5.8433E+00   8.5873E-05  0.0041
   5.8433E+00   5.9855E+00   8.4166E-05  0.0041
   5.9855E+00   6.1311E+00   8.2408E-05  0.0041
   6.1311E+00   6.2803E+00   8.0494E-05  0.0041
   6.2803E+00   6.4331E+00   7.9426E-05  0.0040
   6.4331E+00   6.5896E+00   7.7797E-05  0.0040
   6.5896E+00   6.7500E+00   7.6439E-05  0.0040
   6.7500E+00   6.9142E+00   7.4805E-05  0.0040
   6.9142E+00   7.0824E+00   7.3512E-05  0.0040
   7.0824E+00   7.2548E+00   7.2296E-05  0.0040
   7.2548E+00   7.4313E+00   7.1118E-05  0.0040
   7.4313E+00   7.6121E+00   6.9626E-05  0.0040
   7.6121E+00   7.7973E+00   6.7919E-05  0.0040
   7.7973E+00   7.9870E+00   6.6768E-05  0.0040
   7.9870E+00   8.1813E+00   6.5022E-05  0.0040
   8.1813E+00   8.3804E+00   6.4292E-05  0.0039
   8.3804E+00   8.5843E+00   6.2227E-05  0.0040
   8.5843E+00   8.7931E+00   6.1341E-05  0.0039
   8.7931E+00   9.0071E+00   6.0112E-05  0.0039
   9.0071E+00   9.2262E+00   5.8545E-05  0.0039
   9.2262E+00   9.4507E+00   5.7180E-05  0.0039
   9.4507E+00   9.6807E+00   5.6336E-05  0.0039
   9.6807E+00   9.9162E+00   5.4998E-05  0.0039
   9.9162E+00   1.0157E+01   5.4102E-05  0.0039
   1.0157E+01   1.0405E+01   5.3366E-05  0.0039
   1.0405E+01   1.0658E+01   5.2642E-05  0.0039
   1.0658E+01   1.0917E+01   5.1870E-05  0.0039
   1.0917E+01   1.1183E+01   5.0653E-05  0.0039
   1.1183E+01   1.1455E+01   4.9990E-05  0.0038
   1.1455E+01   1.1733E+01   4.9147E-05  0.0038
   1.1733E+01   1.2019E+01   4.8191E-05  0.0038
   1.2019E+01   1.2311E+01   4.7204E-05  0.0038
   1.2311E+01   1.2611E+01   4.6342E-05  0.0038
   1.2611E+01   1.2918E+01   4.5663E-05  0.0038
   1.2918E+01   1.3232E+01   4.4784E-05  0.0038
   1.3232E+01   1.3554E+01   4.4126E-05  0.0038
   1.3554E+01   1.3884E+01   4.3440E-05  0.0037
   1.3884E+01   1.4222E+01   4.2951E-05  0.0037
   1.4222E+01   1.4568E+01   4.2128E-05  0.0037
   1.4568E+01   1.4922E+01   4.1292E-05  0.0037
   1.4922E+01   1.5285E+01   4.0885E-05  0.0037
   1.5285E+01   1.5657E+01   4.0486E-05  0.0036
   1.5657E+01   1.6038E+01   3.9719E-05  0.0036
   1.6038E+01   1.6428E+01   3.9156E-05  0.0036
   1.6428E+01   1.6828E+01   3.8588E-05  0.0036
   1.6828E+01   1.7237E+01   3.8431E-05  0.0036
   1.7237E+01   1.7657E+01   3.7989E-05  0.0035
   1.7657E+01   1.8086E+01   3.7840E-05  0.0035
   1.8086E+01   1.8526E+01   3.7672E-05  0.0035
   1.8526E+01   1.8977E+01   3.7401E-05  0.0034
   1.8977E+01   1.9439E+01   3.7927E-05  0.0034
   1.9439E+01   1.9912E+01   3.7839E-05  0.0033
   1.9912E+01   2.0396E+01   3.8778E-05  0.0033
   2.0396E+01   2.0893E+01   3.8837E-05  0.0032
   2.0893E+01   2.1401E+01   3.8646E-05  0.0032
   2.1401E+01   2.1922E+01   3.9037E-05  0.0031
   2.1922E+01   2.2455E+01   3.8992E-05  0.0031
   2.2455E+01   2.3001E+01   3.9222E-05  0.0031
   2.3001E+01   2.3561E+01   3.9302E-05  0.0030
   2.3561E+01   2.4134E+01   3.9491E-05  0.0030
   2.4134E+01   2.4721E+01   3.9841E-05  0.0029
   2.4721E+01   2.5323E+01   4.0173E-05  0.0029
   2.5323E+01   2.5939E+01   4.0623E-05  0.0028
   2.5939E+01   2.6570E+01   4.1396E-05  0.0028
   2.6570E+01   2.7217E+01   4.1869E-05  0.0027
   2.7217E+01   2.7879E+01   4.2748E-05  0.0027
   2.7879E+01   2.8557E+01   4.3600E-05  0.0026
   2.8557E+01   2.9252E+01   4.4355E-05  0.0025
   2.9252E+01   2.9964E+01   4.5514E-05  0.0025
   2.9964E+01   3.0693E+01   4.7283E-05  0.0024
   3.0693E+01   3.1440E+01   4.8462E-05  0.0024
   3.1440E+01   3.2205E+01   5.0025E-05  0.0023
   3.2205E+01   3.2988E+01   5.1755E-05  0.0022
   3.2988E+01   3.3791E+01   5.3927E-05  0.0021
   3.3791E+01   3.4613E+01   5.6003E-05  0.0021
   3.4613E+01   3.5455E+01   5.8610E-05  0.0020
   3.5455E+01   3.6318E+01   6.1288E-05  0.0019
   3.6318E+01   3.7201E+01   6.4699E-05  0.0019
   3.7201E+01   3.8106E+01   6.8256E-05  0.0018
   3.8106E+01   3.9034E+01   7.2255E-05  0.0017
   3.9034E+01   3.9983E+01   7.6609E-05  0.0017
   3.9983E+01   4.0956E+01   8.1744E-05  0.0016
   4.0956E+01   4.1953E+01   8.7075E-05  0.0015
   4.1953E+01   4.2973E+01   9.3121E-05  0.0015
   4.2973E+01   4.4019E+01   1.0017E-04  0.0014
   4.4019E+01   4.5090E+01   1.0790E-04  0.0013
   4.5090E+01   4.6187E+01   1.1624E-04  0.0013
   4.6187E+01   4.7311E+01   1.2514E-04  0.0012
   4.7311E+01   4.8462E+01   1.3501E-04  0.0011
   4.8462E+01   4.9641E+01   1.4665E-04  0.0011
   4.9641E+01   5.0849E+01   1.5857E-04  0.0010
   5.0849E+01   5.2086E+01   1.7199E-04  0.0010
   5.2086E+01   5.3353E+01   1.8603E-04  0.0009
   5.3353E+01   5.4651E+01   2.0093E-04  0.0009
   5.4651E+01   5.5981E+01   2.1723E-04  0.0008
   5.5981E+01   5.7343E+01   2.3393E-04  0.0008
   5.7343E+01   5.8738E+01   2.5108E-04  0.0008
   5.8738E+01   6.0168E+01   2.6892E-04  0.0007
   6.0168E+01   6.1632E+01   2.8532E-04  0.0007
   6.1632E+01   6.3131E+01   3.0185E-04  0.0007
   6.3131E+01   6.4667E+01   3.1711E-04  0.0006
   6.4667E+01   6.6240E+01   3.3088E-04  0.0006
   6.6240E+01   6.7852E+01   3.4188E-04  0.0006
   6.7852E+01   6.9503E+01   3.5034E-04  0.0006
   6.9503E+01   7.1194E+01   3.5524E-04  0.0006
   7.1194E+01   7.2926E+01   3.5634E-04  0.0006
   7.2926E+01   7.4701E+01   3.5381E-04  0.0006
   7.4701E+01   7.6518E+01   3.4734E-04  0.0006
   7.6518E+01   7.8380E+01   3.3694E-04  0.0006
   7.8380E+01   8.0287E+01   3.2353E-04  0.0006
   8.0287E+01   8.2240E+01   3.0649E-04  0.0006
   8.2240E+01   8.4241E+01   2.8723E-04  0.0006
   8.4241E+01   8.6291E+01   2.6619E-04  0.0006
   8.6291E+01   8.8391E+01   2.4421E-04  0.0006
   8.8391E+01   9.0541E+01   2.2171E-04  0.0006
   9.0541E+01   9.2744E+01   1.9935E-04  0.0007
   9.2744E+01   9.5001E+01   1.7826E-04  0.0007
   9.5001E+01   9.7312E+01   1.5806E-04  0.0007
   9.7312E+01   9.9680E+01   1.3931E-04  0.0008
   9.9680E+01   1.0211E+02   1.2252E-04  0.0008
   1.0211E+02   1.0459E+02   1.0696E-04  0.0009
   1.0459E+02   1.0713E+02   9.3308E-05  0.0009
   1.0713E+02   1.0974E+02   8.1090E-05  0.0010
   1.0974E+02   1.1241E+02   7.0370E-05  0.0010
   1.1241E+02   1.1515E+02   6.0924E-05  0.0011
   1.1515E+02   1.1795E+02   5.2533E-05  0.0012
   1.1795E+02   1.2082E+02   4.5094E-05  0.0012
   1.2082E+02   1.2376E+02   3.8864E-05  0.0013
   1.2376E+02   1.2677E+02   3.3734E-05  0.0014
   1.2677E+02   1.2985E+02   2.9084E-05  0.0015
   1.2985E+02   1.3301E+02   2.5173E-05  0.0016
   1.3301E+02   1.3625E+02   2.2141E-05  0.0017
   1.3625E+02   1.3956E+02   1.9919E-05  0.0017
   1.3956E+02   1.4296E+02   1.7223E-05  0.0018
   1.4296E+02   1.4644E+02   1.4377E-05  0.0020
   1.4644E+02   1.5000E+02   1.1965E-05  0.0022

#   sum over                 1.2769E-04
'no. =    1   reg = 104 - 204'
msuc: {\huge [t-cross] in region mesh}
msdr: {\it plotted by \ANGEL \version}
msdl: {\it calculated by \PHITS  3.28}
wt: s(0.7)
\vspace{-3}
  region surface crossing
  area  &=&   1.0000E+00 [cm^2]
e:
 
# Information for Restart Calculation
# This calculation was newly started
# istdev =  2 # 1:Batch variance, 2:History variance
# resc2  = 5.00000000000000000E+09 # Total source weight or Total source weight / maxcas
# resc3  = 5.00000000000000000E+09 # Total history number or Total batch number
# maxcas =   500000000 # History / Batch, only used for istdev=1
# bitrseed = 0110100000100010111000001110001111001110100100011111101000111001 # bit data of rseed
