[ T-Cross ]
    title = [t-cross] in region mesh
     mesh =  reg            # mesh type is region-wise
      reg =    1            # number of crossing regions
      non     r-from    r-to       area
      1       111       211        1.000000    
   e-type =    3            # e-mesh is log given by emin, emax and ne
     emin =  1.0000000E-02  # minimum value of e-mesh points
     emax =   150.0000      # maximum value of e-mesh points
#    edel =  2.4039514E-02  # mesh width of e-mesh points
       ne =    400          # number of e-mesh points
#    data = ( e(i), i = 1, ne + 1 )
#           1.00000E-02  1.02433E-02  1.04925E-02  1.07478E-02  1.10093E-02
#           1.12772E-02  1.15516E-02  1.18326E-02  1.21205E-02  1.24154E-02
#           1.27175E-02  1.30269E-02  1.33439E-02  1.36686E-02  1.40011E-02
#           1.43418E-02  1.46907E-02  1.50482E-02  1.54143E-02  1.57894E-02
#           1.61735E-02  1.65670E-02  1.69701E-02  1.73830E-02  1.78060E-02
#           1.82392E-02  1.86830E-02  1.91375E-02  1.96032E-02  2.00801E-02
#           2.05687E-02  2.10692E-02  2.15818E-02  2.21069E-02  2.26448E-02
#           2.31957E-02  2.37601E-02  2.43382E-02  2.49304E-02  2.55369E-02
#           2.61583E-02  2.67947E-02  2.74467E-02  2.81145E-02  2.87985E-02
#           2.94992E-02  3.02169E-02  3.09521E-02  3.17052E-02  3.24766E-02
#           3.32668E-02  3.40762E-02  3.49053E-02  3.57546E-02  3.66246E-02
#           3.75157E-02  3.84284E-02  3.93634E-02  4.03212E-02  4.13022E-02
#           4.23071E-02  4.33365E-02  4.43909E-02  4.54710E-02  4.65773E-02
#           4.77106E-02  4.88714E-02  5.00605E-02  5.12785E-02  5.25262E-02
#           5.38042E-02  5.51133E-02  5.64542E-02  5.78278E-02  5.92348E-02
#           6.06760E-02  6.21523E-02  6.36645E-02  6.52135E-02  6.68002E-02
#           6.84255E-02  7.00904E-02  7.17957E-02  7.35426E-02  7.53319E-02
#           7.71648E-02  7.90423E-02  8.09655E-02  8.29354E-02  8.49533E-02
#           8.70203E-02  8.91376E-02  9.13064E-02  9.35279E-02  9.58035E-02
#           9.81345E-02  1.00522E-01  1.02968E-01  1.05473E-01  1.08040E-01
#           1.10668E-01  1.13361E-01  1.16119E-01  1.18944E-01  1.21838E-01
#           1.24803E-01  1.27839E-01  1.30950E-01  1.34136E-01  1.37399E-01
#           1.40742E-01  1.44167E-01  1.47675E-01  1.51268E-01  1.54948E-01
#           1.58718E-01  1.62580E-01  1.66535E-01  1.70587E-01  1.74738E-01
#           1.78989E-01  1.83344E-01  1.87805E-01  1.92375E-01  1.97055E-01
#           2.01850E-01  2.06761E-01  2.11792E-01  2.16945E-01  2.22223E-01
#           2.27630E-01  2.33169E-01  2.38842E-01  2.44653E-01  2.50605E-01
#           2.56703E-01  2.62949E-01  2.69346E-01  2.75900E-01  2.82613E-01
#           2.89489E-01  2.96532E-01  3.03747E-01  3.11138E-01  3.18708E-01
#           3.26462E-01  3.34405E-01  3.42542E-01  3.50876E-01  3.59413E-01
#           3.68158E-01  3.77116E-01  3.86291E-01  3.95690E-01  4.05317E-01
#           4.15179E-01  4.25281E-01  4.35628E-01  4.46227E-01  4.57084E-01
#           4.68205E-01  4.79597E-01  4.91266E-01  5.03219E-01  5.15463E-01
#           5.28005E-01  5.40851E-01  5.54011E-01  5.67490E-01  5.81298E-01
#           5.95441E-01  6.09929E-01  6.24769E-01  6.39970E-01  6.55541E-01
#           6.71491E-01  6.87828E-01  7.04564E-01  7.21706E-01  7.39266E-01
#           7.57253E-01  7.75678E-01  7.94551E-01  8.13883E-01  8.33685E-01
#           8.53969E-01  8.74747E-01  8.96030E-01  9.17831E-01  9.40163E-01
#           9.63038E-01  9.86469E-01  1.01047E+00  1.03506E+00  1.06024E+00
#           1.08604E+00  1.11246E+00  1.13953E+00  1.16725E+00  1.19565E+00
#           1.22474E+00  1.25454E+00  1.28507E+00  1.31633E+00  1.34836E+00
#           1.38117E+00  1.41477E+00  1.44920E+00  1.48446E+00  1.52057E+00
#           1.55757E+00  1.59547E+00  1.63429E+00  1.67405E+00  1.71478E+00
#           1.75650E+00  1.79924E+00  1.84302E+00  1.88786E+00  1.93379E+00
#           1.98084E+00  2.02904E+00  2.07841E+00  2.12898E+00  2.18078E+00
#           2.23384E+00  2.28819E+00  2.34386E+00  2.40089E+00  2.45930E+00
#           2.51914E+00  2.58043E+00  2.64322E+00  2.70753E+00  2.77341E+00
#           2.84088E+00  2.91001E+00  2.98081E+00  3.05333E+00  3.12762E+00
#           3.20372E+00  3.28167E+00  3.36152E+00  3.44330E+00  3.52708E+00
#           3.61290E+00  3.70080E+00  3.79085E+00  3.88308E+00  3.97756E+00
#           4.07434E+00  4.17347E+00  4.27501E+00  4.37903E+00  4.48557E+00
#           4.59471E+00  4.70650E+00  4.82102E+00  4.93832E+00  5.05847E+00
#           5.18155E+00  5.30762E+00  5.43676E+00  5.56904E+00  5.70453E+00
#           5.84333E+00  5.98550E+00  6.13114E+00  6.28031E+00  6.43312E+00
#           6.58964E+00  6.74997E+00  6.91420E+00  7.08243E+00  7.25475E+00
#           7.43126E+00  7.61207E+00  7.79728E+00  7.98700E+00  8.18133E+00
#           8.38038E+00  8.58428E+00  8.79315E+00  9.00709E+00  9.22624E+00
#           9.45072E+00  9.68067E+00  9.91620E+00  1.01575E+01  1.04046E+01
#           1.06578E+01  1.09171E+01  1.11827E+01  1.14548E+01  1.17335E+01
#           1.20190E+01  1.23114E+01  1.26109E+01  1.29178E+01  1.32321E+01
#           1.35540E+01  1.38838E+01  1.42216E+01  1.45676E+01  1.49221E+01
#           1.52851E+01  1.56570E+01  1.60380E+01  1.64282E+01  1.68279E+01
#           1.72374E+01  1.76568E+01  1.80864E+01  1.85264E+01  1.89772E+01
#           1.94389E+01  1.99119E+01  2.03963E+01  2.08926E+01  2.14009E+01
#           2.19216E+01  2.24550E+01  2.30014E+01  2.35610E+01  2.41343E+01
#           2.47215E+01  2.53230E+01  2.59391E+01  2.65702E+01  2.72167E+01
#           2.78789E+01  2.85572E+01  2.92520E+01  2.99637E+01  3.06928E+01
#           3.14396E+01  3.22045E+01  3.29881E+01  3.37907E+01  3.46128E+01
#           3.54550E+01  3.63177E+01  3.72013E+01  3.81064E+01  3.90336E+01
#           3.99833E+01  4.09561E+01  4.19526E+01  4.29734E+01  4.40189E+01
#           4.50900E+01  4.61870E+01  4.73108E+01  4.84619E+01  4.96410E+01
#           5.08488E+01  5.20860E+01  5.33533E+01  5.46514E+01  5.59812E+01
#           5.73432E+01  5.87384E+01  6.01676E+01  6.16315E+01  6.31311E+01
#           6.46671E+01  6.62405E+01  6.78522E+01  6.95031E+01  7.11941E+01
#           7.29263E+01  7.47007E+01  7.65182E+01  7.83800E+01  8.02870E+01
#           8.22405E+01  8.42414E+01  8.62911E+01  8.83906E+01  9.05412E+01
#           9.27442E+01  9.50007E+01  9.73122E+01  9.96799E+01  1.02105E+02
#           1.04589E+02  1.07134E+02  1.09741E+02  1.12411E+02  1.15146E+02
#           1.17948E+02  1.20817E+02  1.23757E+02  1.26768E+02  1.29852E+02
#           1.33012E+02  1.36248E+02  1.39563E+02  1.42959E+02  1.46437E+02
#           1.50000E+02
     unit =    2            # unit is [1/cm^2/(MeV/n)/source]
     axis =  eng            # axis of output
     file = detector-12.out  # file name of output for the above axis
   output = f-curr          # surface crossing forward current spectrum
     part =  neutron  
# kf/name :  2112     
#    used :        main (  %)        temp (  %)       total (  %)
#  memory :         414 (  0)           0 (  0)         414 (  0)

#------------------------------------------------------------------------------
#newpage:
#   no. =    1   reg = 111 - 211

x: Energy [MeV/n]
y:  F-Curr [1/cm^2/(MeV/n)/source]         
p: xlog ylog afac(0.8) form(0.9)
h: n            x            y(neutron ),hh0l   n 
#  e-lower      e-upper      neutron     r.err 
   1.0000E-02   1.0243E-02   2.2153E-05  0.1925
   1.0243E-02   1.0493E-02   2.3824E-05  0.1827
   1.0493E-02   1.0748E-02   1.9556E-05  0.2000
   1.0748E-02   1.1009E-02   1.5888E-05  0.2184
   1.1009E-02   1.1277E-02   2.3784E-05  0.1768
   1.1277E-02   1.1552E-02   2.2425E-05  0.1797
   1.1552E-02   1.1833E-02   1.5137E-05  0.2140
   1.1833E-02   1.2121E-02   1.2376E-05  0.2359
   1.2121E-02   1.2415E-02   1.5452E-05  0.2087
   1.2415E-02   1.2718E-02   1.5707E-05  0.2043
   1.2718E-02   1.3027E-02   1.3554E-05  0.2182
   1.3027E-02   1.3344E-02   1.8078E-05  0.1859
   1.3344E-02   1.3669E-02   1.2918E-05  0.2182
   1.3669E-02   1.4001E-02   1.1900E-05  0.2238
   1.4001E-02   1.4342E-02   1.6887E-05  0.1858
   1.4342E-02   1.4691E-02   7.8418E-06  0.2681
   1.4691E-02   1.5048E-02   1.5640E-05  0.1890
   1.5048E-02   1.5414E-02   1.2432E-05  0.2087
   1.5414E-02   1.5789E-02   1.3561E-05  0.1967
   1.5789E-02   1.6174E-02   1.7564E-05  0.1716
   1.6174E-02   1.6567E-02   1.0544E-05  0.2185
   1.6567E-02   1.6970E-02   1.4371E-05  0.1857
   1.6970E-02   1.7383E-02   1.3440E-05  0.1891
   1.7383E-02   1.7806E-02   8.9746E-06  0.2294
   1.7806E-02   1.8239E-02   9.4909E-06  0.2186
   1.8239E-02   1.8683E-02   1.0751E-05  0.2042
   1.8683E-02   1.9138E-02   1.1415E-05  0.1961
   1.9138E-02   1.9603E-02   1.2805E-05  0.1826
   1.9603E-02   2.0080E-02   1.1689E-05  0.1890
   2.0080E-02   2.0569E-02   1.3493E-05  0.1741
   2.0569E-02   2.1069E-02   9.3767E-06  0.2023
   2.1069E-02   2.1582E-02   1.2853E-05  0.1741
   2.1582E-02   2.2107E-02   9.7698E-06  0.1963
   2.2107E-02   2.2645E-02   1.4474E-05  0.1601
   2.2645E-02   2.3196E-02   7.8996E-06  0.2134
   2.3196E-02   2.3760E-02   9.9050E-06  0.1890
   2.3760E-02   2.4338E-02   6.2142E-06  0.2357
   2.4338E-02   2.4930E-02   7.7549E-06  0.2085
   2.4930E-02   2.5537E-02   1.2129E-05  0.1644
   2.5537E-02   2.6158E-02   8.9456E-06  0.1891
   2.6158E-02   2.6795E-02   7.7968E-06  0.2001
   2.6795E-02   2.7447E-02   8.7868E-06  0.1850
   2.7447E-02   2.8114E-02   8.0038E-06  0.1926
   2.8114E-02   2.8799E-02   8.1749E-06  0.1890
   2.8799E-02   2.9499E-02   5.9406E-06  0.2183
   2.9499E-02   3.0217E-02   5.5182E-06  0.2238
   3.0217E-02   3.0952E-02   7.3131E-06  0.1925
   3.0952E-02   3.1705E-02   6.8424E-06  0.1963
   3.1705E-02   3.2477E-02   9.5777E-06  0.1644
   3.2477E-02   3.3267E-02   5.9111E-06  0.2046
   3.3267E-02   3.4076E-02   5.9228E-06  0.2041
   3.4076E-02   3.4905E-02   6.8972E-06  0.1859
   3.4905E-02   3.5755E-02   5.6422E-06  0.2041
   3.5755E-02   3.6625E-02   7.0968E-06  0.1796
   3.6625E-02   3.7516E-02   4.7056E-06  0.2182
   3.7516E-02   3.8428E-02   3.0618E-06  0.2673
   3.8428E-02   3.9363E-02   6.6170E-06  0.1796
   3.9363E-02   4.0321E-02   7.0180E-06  0.1709
   4.0321E-02   4.1302E-02   7.8335E-06  0.1604
   4.1302E-02   4.2307E-02   4.9696E-06  0.2000
   4.2307E-02   4.3337E-02   6.2945E-06  0.1743
   4.3337E-02   4.4391E-02   5.4622E-06  0.1857
   4.4391E-02   4.5471E-02   7.1821E-06  0.1602
   4.5471E-02   4.6577E-02   7.3838E-06  0.1562
   4.6577E-02   4.7711E-02   3.6978E-06  0.2182
   4.7711E-02   4.8871E-02   5.0960E-06  0.1828
   4.8871E-02   5.0061E-02   5.9482E-06  0.1670
   5.0061E-02   5.1279E-02   6.0533E-06  0.1644
   5.1279E-02   5.2526E-02   4.0016E-06  0.2000
   5.2526E-02   5.3804E-02   4.5164E-06  0.1857
   5.3804E-02   5.5113E-02   3.9032E-06  0.1964
   5.5113E-02   5.6454E-02   3.4259E-06  0.2085
   5.6454E-02   5.7828E-02   4.4528E-06  0.1798
   5.7828E-02   5.9235E-02   2.8742E-06  0.2212
   5.9235E-02   6.0676E-02   4.9860E-06  0.1667
   6.0676E-02   6.2152E-02   2.9623E-06  0.2132
   6.2152E-02   6.3665E-02   3.9228E-06  0.1828
   6.3665E-02   6.5214E-02   4.3527E-06  0.1716
   6.5214E-02   6.6800E-02   3.1252E-06  0.2001
   6.6800E-02   6.8426E-02   3.1697E-06  0.1953
   6.8426E-02   7.0090E-02   5.4307E-06  0.1476
   7.0090E-02   7.1796E-02   4.3308E-06  0.1644
   7.1796E-02   7.3543E-02   4.2285E-06  0.1644
   7.3543E-02   7.5332E-02   3.8718E-06  0.1691
   7.5332E-02   7.7165E-02   5.5268E-06  0.1401
   7.7165E-02   7.9042E-02   3.4029E-06  0.1768
   7.9042E-02   8.0965E-02   3.6354E-06  0.1690
   8.0965E-02   8.2935E-02   4.3407E-06  0.1526
   8.2935E-02   8.4953E-02   3.4915E-06  0.1671
   8.4953E-02   8.7020E-02   4.5189E-06  0.1459
   8.7020E-02   8.9138E-02   2.9772E-06  0.1771
   8.9138E-02   9.1306E-02   3.1301E-06  0.1715
   9.1306E-02   9.3528E-02   3.2127E-06  0.1668
   9.3528E-02   9.5804E-02   3.6655E-06  0.1544
   9.5804E-02   9.8134E-02   2.3669E-06  0.1892
   9.8134E-02   1.0052E-01   4.3873E-06  0.1376
   1.0052E-01   1.0297E-01   4.3170E-06  0.1374
   1.0297E-01   1.0547E-01   3.4773E-06  0.1509
   1.0547E-01   1.0804E-01   3.5331E-06  0.1477
   1.0804E-01   1.1067E-01   4.5567E-06  0.1291
   1.1067E-01   1.1336E-01   4.2684E-06  0.1314
   1.1336E-01   1.1612E-01   3.8257E-06  0.1374
   1.1612E-01   1.1894E-01   4.7760E-06  0.1214
   1.1894E-01   1.2184E-01   5.3668E-06  0.1133
   1.2184E-01   1.2480E-01   4.1641E-06  0.1270
   1.2480E-01   1.2784E-01   5.7069E-06  0.1072
   1.2784E-01   1.3095E-01   5.3828E-06  0.1091
   1.3095E-01   1.3414E-01   6.1399E-06  0.1010
   1.3414E-01   1.3740E-01   6.2781E-06  0.0984
   1.3740E-01   1.4074E-01   5.6737E-06  0.1026
   1.4074E-01   1.4417E-01   6.2163E-06  0.0967
   1.4417E-01   1.4767E-01   7.3687E-06  0.0877
   1.4767E-01   1.5127E-01   6.8419E-06  0.0899
   1.5127E-01   1.5495E-01   8.2276E-06  0.0811
   1.5495E-01   1.5872E-01   8.4346E-06  0.0791
   1.5872E-01   1.6258E-01   7.9999E-06  0.0802
   1.6258E-01   1.6654E-01   8.4174E-06  0.0774
   1.6654E-01   1.7059E-01   9.0110E-06  0.0739
   1.7059E-01   1.7474E-01   9.7990E-06  0.0700
   1.7474E-01   1.7899E-01   1.0275E-05  0.0675
   1.7899E-01   1.8334E-01   9.6503E-06  0.0689
   1.8334E-01   1.8781E-01   1.0351E-05  0.0657
   1.8781E-01   1.9237E-01   1.0567E-05  0.0642
   1.9237E-01   1.9706E-01   1.1356E-05  0.0612
   1.9706E-01   2.0185E-01   1.2558E-05  0.0575
   2.0185E-01   2.0676E-01   1.2483E-05  0.0570
   2.0676E-01   2.1179E-01   1.3775E-05  0.0536
   2.1179E-01   2.1694E-01   1.4970E-05  0.0508
   2.1694E-01   2.2222E-01   1.4769E-05  0.0505
   2.2222E-01   2.2763E-01   1.4779E-05  0.0499
   2.2763E-01   2.3317E-01   1.6449E-05  0.0468
   2.3317E-01   2.3884E-01   1.6675E-05  0.0459
   2.3884E-01   2.4465E-01   1.8060E-05  0.0436
   2.4465E-01   2.5061E-01   1.9037E-05  0.0419
   2.5061E-01   2.5670E-01   1.8886E-05  0.0416
   2.5670E-01   2.6295E-01   2.0161E-05  0.0398
   2.6295E-01   2.6935E-01   2.0734E-05  0.0387
   2.6935E-01   2.7590E-01   2.2371E-05  0.0369
   2.7590E-01   2.8261E-01   2.1541E-05  0.0371
   2.8261E-01   2.8949E-01   2.2675E-05  0.0357
   2.8949E-01   2.9653E-01   2.4279E-05  0.0341
   2.9653E-01   3.0375E-01   2.6733E-05  0.0321
   3.0375E-01   3.1114E-01   2.7678E-05  0.0312
   3.1114E-01   3.1871E-01   2.8271E-05  0.0305
   3.1871E-01   3.2646E-01   2.9202E-05  0.0296
   3.2646E-01   3.3441E-01   3.0255E-05  0.0288
   3.3441E-01   3.4254E-01   3.1426E-05  0.0279
   3.4254E-01   3.5088E-01   3.2879E-05  0.0270
   3.5088E-01   3.5941E-01   3.2768E-05  0.0267
   3.5941E-01   3.6816E-01   3.5768E-05  0.0252
   3.6816E-01   3.7712E-01   3.7767E-05  0.0242
   3.7712E-01   3.8629E-01   3.6554E-05  0.0244
   3.8629E-01   3.9569E-01   3.9285E-05  0.0232
   3.9569E-01   4.0532E-01   4.1088E-05  0.0224
   4.0532E-01   4.1518E-01   4.3801E-05  0.0215
   4.1518E-01   4.2528E-01   4.2199E-05  0.0216
   4.2528E-01   4.3563E-01   4.4406E-05  0.0208
   4.3563E-01   4.4623E-01   4.6045E-05  0.0202
   4.4623E-01   4.5708E-01   4.6902E-05  0.0198
   4.5708E-01   4.6821E-01   4.9767E-05  0.0190
   4.6821E-01   4.7960E-01   4.8139E-05  0.0190
   4.7960E-01   4.9127E-01   5.0257E-05  0.0184
   4.9127E-01   5.0322E-01   5.2557E-05  0.0178
   5.0322E-01   5.1546E-01   5.4488E-05  0.0173
   5.1546E-01   5.2800E-01   5.5429E-05  0.0169
   5.2800E-01   5.4085E-01   5.4301E-05  0.0169
   5.4085E-01   5.5401E-01   5.5026E-05  0.0166
   5.5401E-01   5.6749E-01   5.4820E-05  0.0164
   5.6749E-01   5.8130E-01   5.7977E-05  0.0158
   5.8130E-01   5.9544E-01   5.9770E-05  0.0154
   5.9544E-01   6.0993E-01   5.9568E-05  0.0152
   6.0993E-01   6.2477E-01   6.0021E-05  0.0149
   6.2477E-01   6.3997E-01   6.3585E-05  0.0143
   6.3997E-01   6.5554E-01   6.1988E-05  0.0144
   6.5554E-01   6.7149E-01   6.4549E-05  0.0139
   6.7149E-01   6.8783E-01   6.4573E-05  0.0137
   6.8783E-01   7.0456E-01   6.5244E-05  0.0135
   7.0456E-01   7.2171E-01   6.6277E-05  0.0132
   7.2171E-01   7.3927E-01   6.6205E-05  0.0131
   7.3927E-01   7.5725E-01   6.6252E-05  0.0129
   7.5725E-01   7.7568E-01   6.7906E-05  0.0126
   7.7568E-01   7.9455E-01   6.8575E-05  0.0124
   7.9455E-01   8.1388E-01   6.9363E-05  0.0122
   8.1388E-01   8.3368E-01   6.9837E-05  0.0120
   8.3368E-01   8.5397E-01   6.8582E-05  0.0119
   8.5397E-01   8.7475E-01   7.1410E-05  0.0116
   8.7475E-01   8.9603E-01   7.0762E-05  0.0115
   8.9603E-01   9.1783E-01   7.1086E-05  0.0113
   9.1783E-01   9.4016E-01   6.9906E-05  0.0113
   9.4016E-01   9.6304E-01   6.8932E-05  0.0112
   9.6304E-01   9.8647E-01   6.9216E-05  0.0111
   9.8647E-01   1.0105E+00   6.7790E-05  0.0110
   1.0105E+00   1.0351E+00   6.8717E-05  0.0108
   1.0351E+00   1.0602E+00   6.6976E-05  0.0108
   1.0602E+00   1.0860E+00   6.7206E-05  0.0107
   1.0860E+00   1.1125E+00   6.7218E-05  0.0106
   1.1125E+00   1.1395E+00   6.8455E-05  0.0103
   1.1395E+00   1.1673E+00   6.9718E-05  0.0101
   1.1673E+00   1.1957E+00   6.9235E-05  0.0100
   1.1957E+00   1.2247E+00   7.0559E-05  0.0098
   1.2247E+00   1.2545E+00   7.0067E-05  0.0097
   1.2545E+00   1.2851E+00   6.8491E-05  0.0097
   1.2851E+00   1.3163E+00   6.9914E-05  0.0095
   1.3163E+00   1.3484E+00   6.9452E-05  0.0094
   1.3484E+00   1.3812E+00   6.9692E-05  0.0093
   1.3812E+00   1.4148E+00   7.0736E-05  0.0091
   1.4148E+00   1.4492E+00   7.0801E-05  0.0090
   1.4492E+00   1.4845E+00   7.1041E-05  0.0089
   1.4845E+00   1.5206E+00   7.0398E-05  0.0088
   1.5206E+00   1.5576E+00   6.8445E-05  0.0088
   1.5576E+00   1.5955E+00   6.9337E-05  0.0086
   1.5955E+00   1.6343E+00   6.8773E-05  0.0086
   1.6343E+00   1.6741E+00   6.9016E-05  0.0084
   1.6741E+00   1.7148E+00   6.8127E-05  0.0084
   1.7148E+00   1.7565E+00   6.7647E-05  0.0083
   1.7565E+00   1.7992E+00   6.4860E-05  0.0084
   1.7992E+00   1.8430E+00   6.0860E-05  0.0085
   1.8430E+00   1.8879E+00   5.7197E-05  0.0086
   1.8879E+00   1.9338E+00   5.6435E-05  0.0086
   1.9338E+00   1.9808E+00   5.6023E-05  0.0085
   1.9808E+00   2.0290E+00   5.4518E-05  0.0085
   2.0290E+00   2.0784E+00   5.4890E-05  0.0084
   2.0784E+00   2.1290E+00   5.5203E-05  0.0082
   2.1290E+00   2.1808E+00   5.5634E-05  0.0081
   2.1808E+00   2.2338E+00   5.6330E-05  0.0079
   2.2338E+00   2.2882E+00   5.5995E-05  0.0079
   2.2882E+00   2.3439E+00   5.3562E-05  0.0080
   2.3439E+00   2.4009E+00   5.2106E-05  0.0080
   2.4009E+00   2.4593E+00   5.1569E-05  0.0079
   2.4593E+00   2.5191E+00   5.0607E-05  0.0079
   2.5191E+00   2.5804E+00   5.0265E-05  0.0079
   2.5804E+00   2.6432E+00   4.9484E-05  0.0078
   2.6432E+00   2.7075E+00   4.9040E-05  0.0078
   2.7075E+00   2.7734E+00   4.8000E-05  0.0078
   2.7734E+00   2.8409E+00   4.6810E-05  0.0078
   2.8409E+00   2.9100E+00   4.5307E-05  0.0078
   2.9100E+00   2.9808E+00   4.4934E-05  0.0077
   2.9808E+00   3.0533E+00   4.4814E-05  0.0077
   3.0533E+00   3.1276E+00   4.3534E-05  0.0077
   3.1276E+00   3.2037E+00   4.1861E-05  0.0078
   3.2037E+00   3.2817E+00   4.1189E-05  0.0077
   3.2817E+00   3.3615E+00   4.0393E-05  0.0077
   3.3615E+00   3.4433E+00   3.9597E-05  0.0077
   3.4433E+00   3.5271E+00   3.8688E-05  0.0077
   3.5271E+00   3.6129E+00   3.7456E-05  0.0077
   3.6129E+00   3.7008E+00   3.6372E-05  0.0078
   3.7008E+00   3.7908E+00   3.4872E-05  0.0078
   3.7908E+00   3.8831E+00   3.3457E-05  0.0079
   3.8831E+00   3.9776E+00   3.2419E-05  0.0079
   3.9776E+00   4.0743E+00   3.1464E-05  0.0080
   4.0743E+00   4.1735E+00   3.0078E-05  0.0080
   4.1735E+00   4.2750E+00   2.8876E-05  0.0081
   4.2750E+00   4.3790E+00   2.8512E-05  0.0081
   4.3790E+00   4.4856E+00   2.7670E-05  0.0081
   4.4856E+00   4.5947E+00   2.7317E-05  0.0080
   4.5947E+00   4.7065E+00   2.6394E-05  0.0081
   4.7065E+00   4.8210E+00   2.5469E-05  0.0081
   4.8210E+00   4.9383E+00   2.5365E-05  0.0080
   4.9383E+00   5.0585E+00   2.4473E-05  0.0081
   5.0585E+00   5.1815E+00   2.4091E-05  0.0081
   5.1815E+00   5.3076E+00   2.3706E-05  0.0080
   5.3076E+00   5.4368E+00   2.3014E-05  0.0081
   5.4368E+00   5.5690E+00   2.2490E-05  0.0081
   5.5690E+00   5.7045E+00   2.1909E-05  0.0081
   5.7045E+00   5.8433E+00   2.1554E-05  0.0080
   5.8433E+00   5.9855E+00   2.0799E-05  0.0081
   5.9855E+00   6.1311E+00   2.0377E-05  0.0081
   6.1311E+00   6.2803E+00   1.9825E-05  0.0081
   6.2803E+00   6.4331E+00   1.9121E-05  0.0081
   6.4331E+00   6.5896E+00   1.8609E-05  0.0082
   6.5896E+00   6.7500E+00   1.7943E-05  0.0082
   6.7500E+00   6.9142E+00   1.7177E-05  0.0083
   6.9142E+00   7.0824E+00   1.6663E-05  0.0083
   7.0824E+00   7.2548E+00   1.5925E-05  0.0084
   7.2548E+00   7.4313E+00   1.5630E-05  0.0084
   7.4313E+00   7.6121E+00   1.4727E-05  0.0085
   7.6121E+00   7.7973E+00   1.4152E-05  0.0086
   7.7973E+00   7.9870E+00   1.3290E-05  0.0088
   7.9870E+00   8.1813E+00   1.2806E-05  0.0088
   8.1813E+00   8.3804E+00   1.2088E-05  0.0090
   8.3804E+00   8.5843E+00   1.1311E-05  0.0092
   8.5843E+00   8.7931E+00   1.0745E-05  0.0093
   8.7931E+00   9.0071E+00   9.9217E-06  0.0096
   9.0071E+00   9.2262E+00   9.3741E-06  0.0098
   9.2262E+00   9.4507E+00   8.6430E-06  0.0101
   9.4507E+00   9.6807E+00   8.0836E-06  0.0103
   9.6807E+00   9.9162E+00   7.6641E-06  0.0105
   9.9162E+00   1.0157E+01   7.4595E-06  0.0105
   1.0157E+01   1.0405E+01   6.8760E-06  0.0108
   1.0405E+01   1.0658E+01   6.3917E-06  0.0111
   1.0658E+01   1.0917E+01   5.8660E-06  0.0115
   1.0917E+01   1.1183E+01   5.3362E-06  0.0119
   1.1183E+01   1.1455E+01   4.8662E-06  0.0123
   1.1455E+01   1.1733E+01   4.4457E-06  0.0127
   1.1733E+01   1.2019E+01   4.1422E-06  0.0130
   1.2019E+01   1.2311E+01   3.6441E-06  0.0137
   1.2311E+01   1.2611E+01   3.3466E-06  0.0141
   1.2611E+01   1.2918E+01   2.9719E-06  0.0148
   1.2918E+01   1.3232E+01   2.6000E-06  0.0156
   1.3232E+01   1.3554E+01   2.3042E-06  0.0164
   1.3554E+01   1.3884E+01   2.0426E-06  0.0172
   1.3884E+01   1.4222E+01   1.7866E-06  0.0182
   1.4222E+01   1.4568E+01   1.5428E-06  0.0193
   1.4568E+01   1.4922E+01   1.2638E-06  0.0211
   1.4922E+01   1.5285E+01   9.8566E-07  0.0236
   1.5285E+01   1.5657E+01   7.8654E-07  0.0261
   1.5657E+01   1.6038E+01   5.8973E-07  0.0298
   1.6038E+01   1.6428E+01   4.2760E-07  0.0346
   1.6428E+01   1.6828E+01   2.6798E-07  0.0432
   1.6828E+01   1.7237E+01   1.5045E-07  0.0570
   1.7237E+01   1.7657E+01   7.1054E-08  0.0819
   1.7657E+01   1.8086E+01   2.0484E-08  0.1508
   1.8086E+01   1.8526E+01   5.9083E-09  0.2774
   1.8526E+01   1.8977E+01   3.9932E-09  0.3333
   1.8977E+01   1.9439E+01   3.0321E-09  0.3780
   1.9439E+01   1.9912E+01   1.2686E-09  0.5774
   1.9912E+01   2.0396E+01   4.1282E-10  1.0000
   2.0396E+01   2.0893E+01   1.6121E-09  0.5000
   2.0893E+01   2.1401E+01   7.8688E-10  0.7071
   2.1401E+01   2.1922E+01   2.3046E-09  0.4082
   2.1922E+01   2.2455E+01   1.1249E-09  0.5774
   2.2455E+01   2.3001E+01   1.8303E-09  0.4472
   2.3001E+01   2.3561E+01   1.0721E-09  0.5774
   2.3561E+01   2.4134E+01   6.9777E-10  0.7071
   2.4134E+01   2.4721E+01   3.4060E-10  1.0000
   2.4721E+01   2.5323E+01   6.6501E-10  0.7071
   2.5323E+01   2.5939E+01   0.0000E+00  0.0000
   2.5939E+01   2.6570E+01   6.3380E-10  0.7071
   2.6570E+01   2.7217E+01   3.0937E-10  1.0000
   2.7217E+01   2.7879E+01   0.0000E+00  0.0000
   2.7879E+01   2.8557E+01   0.0000E+00  0.0000
   2.8557E+01   2.9252E+01   0.0000E+00  0.0000
   2.9252E+01   2.9964E+01   0.0000E+00  0.0000
   2.9964E+01   3.0693E+01   0.0000E+00  0.0000
   3.0693E+01   3.1440E+01   0.0000E+00  0.0000
   3.1440E+01   3.2205E+01   0.0000E+00  0.0000
   3.2205E+01   3.2988E+01   0.0000E+00  0.0000
   3.2988E+01   3.3791E+01   0.0000E+00  0.0000
   3.3791E+01   3.4613E+01   0.0000E+00  0.0000
   3.4613E+01   3.5455E+01   0.0000E+00  0.0000
   3.5455E+01   3.6318E+01   0.0000E+00  0.0000
   3.6318E+01   3.7201E+01   0.0000E+00  0.0000
   3.7201E+01   3.8106E+01   0.0000E+00  0.0000
   3.8106E+01   3.9034E+01   0.0000E+00  0.0000
   3.9034E+01   3.9983E+01   0.0000E+00  0.0000
   3.9983E+01   4.0956E+01   0.0000E+00  0.0000
   4.0956E+01   4.1953E+01   0.0000E+00  0.0000
   4.1953E+01   4.2973E+01   0.0000E+00  0.0000
   4.2973E+01   4.4019E+01   0.0000E+00  0.0000
   4.4019E+01   4.5090E+01   0.0000E+00  0.0000
   4.5090E+01   4.6187E+01   0.0000E+00  0.0000
   4.6187E+01   4.7311E+01   0.0000E+00  0.0000
   4.7311E+01   4.8462E+01   0.0000E+00  0.0000
   4.8462E+01   4.9641E+01   0.0000E+00  0.0000
   4.9641E+01   5.0849E+01   0.0000E+00  0.0000
   5.0849E+01   5.2086E+01   0.0000E+00  0.0000
   5.2086E+01   5.3353E+01   0.0000E+00  0.0000
   5.3353E+01   5.4651E+01   0.0000E+00  0.0000
   5.4651E+01   5.5981E+01   0.0000E+00  0.0000
   5.5981E+01   5.7343E+01   0.0000E+00  0.0000
   5.7343E+01   5.8738E+01   0.0000E+00  0.0000
   5.8738E+01   6.0168E+01   0.0000E+00  0.0000
   6.0168E+01   6.1632E+01   0.0000E+00  0.0000
   6.1632E+01   6.3131E+01   0.0000E+00  0.0000
   6.3131E+01   6.4667E+01   0.0000E+00  0.0000
   6.4667E+01   6.6240E+01   0.0000E+00  0.0000
   6.6240E+01   6.7852E+01   0.0000E+00  0.0000
   6.7852E+01   6.9503E+01   0.0000E+00  0.0000
   6.9503E+01   7.1194E+01   0.0000E+00  0.0000
   7.1194E+01   7.2926E+01   0.0000E+00  0.0000
   7.2926E+01   7.4701E+01   0.0000E+00  0.0000
   7.4701E+01   7.6518E+01   0.0000E+00  0.0000
   7.6518E+01   7.8380E+01   0.0000E+00  0.0000
   7.8380E+01   8.0287E+01   0.0000E+00  0.0000
   8.0287E+01   8.2240E+01   0.0000E+00  0.0000
   8.2240E+01   8.4241E+01   0.0000E+00  0.0000
   8.4241E+01   8.6291E+01   0.0000E+00  0.0000
   8.6291E+01   8.8391E+01   0.0000E+00  0.0000
   8.8391E+01   9.0541E+01   0.0000E+00  0.0000
   9.0541E+01   9.2744E+01   0.0000E+00  0.0000
   9.2744E+01   9.5001E+01   0.0000E+00  0.0000
   9.5001E+01   9.7312E+01   0.0000E+00  0.0000
   9.7312E+01   9.9680E+01   0.0000E+00  0.0000
   9.9680E+01   1.0211E+02   0.0000E+00  0.0000
   1.0211E+02   1.0459E+02   0.0000E+00  0.0000
   1.0459E+02   1.0713E+02   0.0000E+00  0.0000
   1.0713E+02   1.0974E+02   0.0000E+00  0.0000
   1.0974E+02   1.1241E+02   0.0000E+00  0.0000
   1.1241E+02   1.1515E+02   0.0000E+00  0.0000
   1.1515E+02   1.1795E+02   0.0000E+00  0.0000
   1.1795E+02   1.2082E+02   0.0000E+00  0.0000
   1.2082E+02   1.2376E+02   0.0000E+00  0.0000
   1.2376E+02   1.2677E+02   0.0000E+00  0.0000
   1.2677E+02   1.2985E+02   0.0000E+00  0.0000
   1.2985E+02   1.3301E+02   0.0000E+00  0.0000
   1.3301E+02   1.3625E+02   0.0000E+00  0.0000
   1.3625E+02   1.3956E+02   0.0000E+00  0.0000
   1.3956E+02   1.4296E+02   0.0000E+00  0.0000
   1.4296E+02   1.4644E+02   0.0000E+00  0.0000
   1.4644E+02   1.5000E+02   0.0000E+00  0.0000

#   sum over                 2.1448E-06
'no. =    1   reg = 111 - 211'
msuc: {\huge [t-cross] in region mesh}
msdr: {\it plotted by \ANGEL \version}
msdl: {\it calculated by \PHITS  3.26}
wt: s(0.7)
\vspace{-3}
  region surface crossing
  area  &=&   1.0000E+00 [cm^2]
e:
 
# Information for Restart Calculation
# This calculation was newly started
# istdev =  2 # 1:Batch variance, 2:History variance
# resc2  = 5.00000000000000000E+09 # Total source weight or Total source weight / maxcas
# resc3  = 5.00000000000000000E+09 # Total history number or Total batch number
# maxcas =   100000000 # History / Batch, only used for istdev=1
# bitrseed = 0110100000100010111000001110001111001110100100011111101000111001 # bit data of rseed
