[ T-Cross ]
    title = [t-cross] in region mesh
     mesh =  reg            # mesh type is region-wise
      reg =    1            # number of crossing regions
      non     r-from    r-to       area
      1       126       226        1.000000    
   e-type =    3            # e-mesh is log given by emin, emax and ne
     emin =  1.0000000E-02  # minimum value of e-mesh points
     emax =   150.0000      # maximum value of e-mesh points
#    edel =  2.4039514E-02  # mesh width of e-mesh points
       ne =    400          # number of e-mesh points
#    data = ( e(i), i = 1, ne + 1 )
#           1.00000E-02  1.02433E-02  1.04925E-02  1.07478E-02  1.10093E-02
#           1.12772E-02  1.15516E-02  1.18326E-02  1.21205E-02  1.24154E-02
#           1.27175E-02  1.30269E-02  1.33439E-02  1.36686E-02  1.40011E-02
#           1.43418E-02  1.46907E-02  1.50482E-02  1.54143E-02  1.57894E-02
#           1.61735E-02  1.65670E-02  1.69701E-02  1.73830E-02  1.78060E-02
#           1.82392E-02  1.86830E-02  1.91375E-02  1.96032E-02  2.00801E-02
#           2.05687E-02  2.10692E-02  2.15818E-02  2.21069E-02  2.26448E-02
#           2.31957E-02  2.37601E-02  2.43382E-02  2.49304E-02  2.55369E-02
#           2.61583E-02  2.67947E-02  2.74467E-02  2.81145E-02  2.87985E-02
#           2.94992E-02  3.02169E-02  3.09521E-02  3.17052E-02  3.24766E-02
#           3.32668E-02  3.40762E-02  3.49053E-02  3.57546E-02  3.66246E-02
#           3.75157E-02  3.84284E-02  3.93634E-02  4.03212E-02  4.13022E-02
#           4.23071E-02  4.33365E-02  4.43909E-02  4.54710E-02  4.65773E-02
#           4.77106E-02  4.88714E-02  5.00605E-02  5.12785E-02  5.25262E-02
#           5.38042E-02  5.51133E-02  5.64542E-02  5.78278E-02  5.92348E-02
#           6.06760E-02  6.21523E-02  6.36645E-02  6.52135E-02  6.68002E-02
#           6.84255E-02  7.00904E-02  7.17957E-02  7.35426E-02  7.53319E-02
#           7.71648E-02  7.90423E-02  8.09655E-02  8.29354E-02  8.49533E-02
#           8.70203E-02  8.91376E-02  9.13064E-02  9.35279E-02  9.58035E-02
#           9.81345E-02  1.00522E-01  1.02968E-01  1.05473E-01  1.08040E-01
#           1.10668E-01  1.13361E-01  1.16119E-01  1.18944E-01  1.21838E-01
#           1.24803E-01  1.27839E-01  1.30950E-01  1.34136E-01  1.37399E-01
#           1.40742E-01  1.44167E-01  1.47675E-01  1.51268E-01  1.54948E-01
#           1.58718E-01  1.62580E-01  1.66535E-01  1.70587E-01  1.74738E-01
#           1.78989E-01  1.83344E-01  1.87805E-01  1.92375E-01  1.97055E-01
#           2.01850E-01  2.06761E-01  2.11792E-01  2.16945E-01  2.22223E-01
#           2.27630E-01  2.33169E-01  2.38842E-01  2.44653E-01  2.50605E-01
#           2.56703E-01  2.62949E-01  2.69346E-01  2.75900E-01  2.82613E-01
#           2.89489E-01  2.96532E-01  3.03747E-01  3.11138E-01  3.18708E-01
#           3.26462E-01  3.34405E-01  3.42542E-01  3.50876E-01  3.59413E-01
#           3.68158E-01  3.77116E-01  3.86291E-01  3.95690E-01  4.05317E-01
#           4.15179E-01  4.25281E-01  4.35628E-01  4.46227E-01  4.57084E-01
#           4.68205E-01  4.79597E-01  4.91266E-01  5.03219E-01  5.15463E-01
#           5.28005E-01  5.40851E-01  5.54011E-01  5.67490E-01  5.81298E-01
#           5.95441E-01  6.09929E-01  6.24769E-01  6.39970E-01  6.55541E-01
#           6.71491E-01  6.87828E-01  7.04564E-01  7.21706E-01  7.39266E-01
#           7.57253E-01  7.75678E-01  7.94551E-01  8.13883E-01  8.33685E-01
#           8.53969E-01  8.74747E-01  8.96030E-01  9.17831E-01  9.40163E-01
#           9.63038E-01  9.86469E-01  1.01047E+00  1.03506E+00  1.06024E+00
#           1.08604E+00  1.11246E+00  1.13953E+00  1.16725E+00  1.19565E+00
#           1.22474E+00  1.25454E+00  1.28507E+00  1.31633E+00  1.34836E+00
#           1.38117E+00  1.41477E+00  1.44920E+00  1.48446E+00  1.52057E+00
#           1.55757E+00  1.59547E+00  1.63429E+00  1.67405E+00  1.71478E+00
#           1.75650E+00  1.79924E+00  1.84302E+00  1.88786E+00  1.93379E+00
#           1.98084E+00  2.02904E+00  2.07841E+00  2.12898E+00  2.18078E+00
#           2.23384E+00  2.28819E+00  2.34386E+00  2.40089E+00  2.45930E+00
#           2.51914E+00  2.58043E+00  2.64322E+00  2.70753E+00  2.77341E+00
#           2.84088E+00  2.91001E+00  2.98081E+00  3.05333E+00  3.12762E+00
#           3.20372E+00  3.28167E+00  3.36152E+00  3.44330E+00  3.52708E+00
#           3.61290E+00  3.70080E+00  3.79085E+00  3.88308E+00  3.97756E+00
#           4.07434E+00  4.17347E+00  4.27501E+00  4.37903E+00  4.48557E+00
#           4.59471E+00  4.70650E+00  4.82102E+00  4.93832E+00  5.05847E+00
#           5.18155E+00  5.30762E+00  5.43676E+00  5.56904E+00  5.70453E+00
#           5.84333E+00  5.98550E+00  6.13114E+00  6.28031E+00  6.43312E+00
#           6.58964E+00  6.74997E+00  6.91420E+00  7.08243E+00  7.25475E+00
#           7.43126E+00  7.61207E+00  7.79728E+00  7.98700E+00  8.18133E+00
#           8.38038E+00  8.58428E+00  8.79315E+00  9.00709E+00  9.22624E+00
#           9.45072E+00  9.68067E+00  9.91620E+00  1.01575E+01  1.04046E+01
#           1.06578E+01  1.09171E+01  1.11827E+01  1.14548E+01  1.17335E+01
#           1.20190E+01  1.23114E+01  1.26109E+01  1.29178E+01  1.32321E+01
#           1.35540E+01  1.38838E+01  1.42216E+01  1.45676E+01  1.49221E+01
#           1.52851E+01  1.56570E+01  1.60380E+01  1.64282E+01  1.68279E+01
#           1.72374E+01  1.76568E+01  1.80864E+01  1.85264E+01  1.89772E+01
#           1.94389E+01  1.99119E+01  2.03963E+01  2.08926E+01  2.14009E+01
#           2.19216E+01  2.24550E+01  2.30014E+01  2.35610E+01  2.41343E+01
#           2.47215E+01  2.53230E+01  2.59391E+01  2.65702E+01  2.72167E+01
#           2.78789E+01  2.85572E+01  2.92520E+01  2.99637E+01  3.06928E+01
#           3.14396E+01  3.22045E+01  3.29881E+01  3.37907E+01  3.46128E+01
#           3.54550E+01  3.63177E+01  3.72013E+01  3.81064E+01  3.90336E+01
#           3.99833E+01  4.09561E+01  4.19526E+01  4.29734E+01  4.40189E+01
#           4.50900E+01  4.61870E+01  4.73108E+01  4.84619E+01  4.96410E+01
#           5.08488E+01  5.20860E+01  5.33533E+01  5.46514E+01  5.59812E+01
#           5.73432E+01  5.87384E+01  6.01676E+01  6.16315E+01  6.31311E+01
#           6.46671E+01  6.62405E+01  6.78522E+01  6.95031E+01  7.11941E+01
#           7.29263E+01  7.47007E+01  7.65182E+01  7.83800E+01  8.02870E+01
#           8.22405E+01  8.42414E+01  8.62911E+01  8.83906E+01  9.05412E+01
#           9.27442E+01  9.50007E+01  9.73122E+01  9.96799E+01  1.02105E+02
#           1.04589E+02  1.07134E+02  1.09741E+02  1.12411E+02  1.15146E+02
#           1.17948E+02  1.20817E+02  1.23757E+02  1.26768E+02  1.29852E+02
#           1.33012E+02  1.36248E+02  1.39563E+02  1.42959E+02  1.46437E+02
#           1.50000E+02
     unit =    2            # unit is [1/cm^2/(MeV/n)/source]
     axis =  eng            # axis of output
     file = detector-27.out  # file name of output for the above axis
   output = f-curr          # surface crossing forward current spectrum
     part =  neutron  
# kf/name :  2112     
#    used :        main (  %)        temp (  %)       total (  %)
#  memory :         414 (  0)           0 (  0)         414 (  0)

#------------------------------------------------------------------------------
#newpage:
#   no. =    1   reg = 126 - 226

x: Energy [MeV/n]
y:  F-Curr [1/cm^2/(MeV/n)/source]         
p: xlog ylog afac(0.8) form(0.9)
h: n            x            y(neutron ),hh0l   n 
#  e-lower      e-upper      neutron     r.err 
   1.0000E-02   1.0243E-02   8.1561E-04  0.0335
   1.0243E-02   1.0493E-02   8.5687E-04  0.0323
   1.0493E-02   1.0748E-02   7.5034E-04  0.0341
   1.0748E-02   1.1009E-02   7.8011E-04  0.0330
   1.1009E-02   1.1277E-02   8.1799E-04  0.0318
   1.1277E-02   1.1552E-02   8.1314E-04  0.0316
   1.1552E-02   1.1833E-02   8.5352E-04  0.0304
   1.1833E-02   1.2121E-02   7.6493E-04  0.0318
   1.2121E-02   1.2415E-02   7.8293E-04  0.0310
   1.2415E-02   1.2718E-02   7.6728E-04  0.0310
   1.2718E-02   1.3027E-02   7.4977E-04  0.0309
   1.3027E-02   1.3344E-02   7.8875E-04  0.0298
   1.3344E-02   1.3669E-02   7.7413E-04  0.0297
   1.3669E-02   1.4001E-02   7.7912E-04  0.0293
   1.4001E-02   1.4342E-02   7.8084E-04  0.0289
   1.4342E-02   1.4691E-02   7.5688E-04  0.0290
   1.4691E-02   1.5048E-02   7.7962E-04  0.0282
   1.5048E-02   1.5414E-02   8.0056E-04  0.0275
   1.5414E-02   1.5789E-02   8.0287E-04  0.0272
   1.5789E-02   1.6174E-02   7.7455E-04  0.0273
   1.6174E-02   1.6567E-02   7.7535E-04  0.0270
   1.6567E-02   1.6970E-02   7.5032E-04  0.0271
   1.6970E-02   1.7383E-02   7.7824E-04  0.0263
   1.7383E-02   1.7806E-02   7.8182E-04  0.0259
   1.7806E-02   1.8239E-02   7.7197E-04  0.0258
   1.8239E-02   1.8683E-02   7.6215E-04  0.0256
   1.8683E-02   1.9138E-02   7.4649E-04  0.0256
   1.9138E-02   1.9603E-02   7.7792E-04  0.0248
   1.9603E-02   2.0080E-02   7.4127E-04  0.0251
   2.0080E-02   2.0569E-02   7.8552E-04  0.0241
   2.0569E-02   2.1069E-02   7.6286E-04  0.0241
   2.1069E-02   2.1582E-02   7.2827E-04  0.0244
   2.1582E-02   2.2107E-02   7.7530E-04  0.0234
   2.2107E-02   2.2645E-02   7.5936E-04  0.0233
   2.2645E-02   2.3196E-02   7.4012E-04  0.0233
   2.3196E-02   2.3760E-02   7.1466E-04  0.0235
   2.3760E-02   2.4338E-02   7.3305E-04  0.0229
   2.4338E-02   2.4930E-02   7.3102E-04  0.0227
   2.4930E-02   2.5537E-02   7.3967E-04  0.0223
   2.5537E-02   2.6158E-02   7.3927E-04  0.0220
   2.6158E-02   2.6795E-02   7.3114E-04  0.0219
   2.6795E-02   2.7447E-02   7.5638E-04  0.0212
   2.7447E-02   2.8114E-02   7.4773E-04  0.0211
   2.8114E-02   2.8799E-02   6.9911E-04  0.0216
   2.8799E-02   2.9499E-02   7.2405E-04  0.0209
   2.9499E-02   3.0217E-02   7.1985E-04  0.0207
   3.0217E-02   3.0952E-02   7.2966E-04  0.0204
   3.0952E-02   3.1705E-02   7.2678E-04  0.0201
   3.1705E-02   3.2477E-02   7.1586E-04  0.0201
   3.2477E-02   3.3267E-02   7.0476E-04  0.0200
   3.3267E-02   3.4076E-02   7.1191E-04  0.0196
   3.4076E-02   3.4905E-02   7.0143E-04  0.0195
   3.4905E-02   3.5755E-02   7.2166E-04  0.0190
   3.5755E-02   3.6625E-02   6.8919E-04  0.0193
   3.6625E-02   3.7516E-02   7.0075E-04  0.0189
   3.7516E-02   3.8428E-02   7.1430E-04  0.0185
   3.8428E-02   3.9363E-02   6.8188E-04  0.0187
   3.9363E-02   4.0321E-02   6.9260E-04  0.0183
   4.0321E-02   4.1302E-02   7.0922E-04  0.0179
   4.1302E-02   4.2307E-02   6.7513E-04  0.0181
   4.2307E-02   4.3337E-02   6.8543E-04  0.0177
   4.3337E-02   4.4391E-02   6.8811E-04  0.0175
   4.4391E-02   4.5471E-02   6.7012E-04  0.0175
   4.5471E-02   4.6577E-02   6.9016E-04  0.0171
   4.6577E-02   4.7711E-02   6.7220E-04  0.0171
   4.7711E-02   4.8871E-02   6.8878E-04  0.0167
   4.8871E-02   5.0061E-02   6.7372E-04  0.0167
   5.0061E-02   5.1279E-02   6.8582E-04  0.0163
   5.1279E-02   5.2526E-02   6.7434E-04  0.0163
   5.2526E-02   5.3804E-02   6.6797E-04  0.0161
   5.3804E-02   5.5113E-02   6.5244E-04  0.0161
   5.5113E-02   5.6454E-02   6.6073E-04  0.0158
   5.6454E-02   5.7828E-02   6.6606E-04  0.0156
   5.7828E-02   5.9235E-02   6.5877E-04  0.0155
   5.9235E-02   6.0676E-02   6.6941E-04  0.0152
   6.0676E-02   6.2152E-02   6.7270E-04  0.0150
   6.2152E-02   6.3665E-02   6.5496E-04  0.0150
   6.3665E-02   6.5214E-02   6.4687E-04  0.0149
   6.5214E-02   6.6800E-02   6.4116E-04  0.0148
   6.6800E-02   6.8426E-02   6.5574E-04  0.0144
   6.8426E-02   7.0090E-02   6.4884E-04  0.0143
   7.0090E-02   7.1796E-02   6.3095E-04  0.0144
   7.1796E-02   7.3543E-02   6.3925E-04  0.0141
   7.3543E-02   7.5332E-02   6.3928E-04  0.0139
   7.5332E-02   7.7165E-02   6.3713E-04  0.0138
   7.7165E-02   7.9042E-02   6.3809E-04  0.0136
   7.9042E-02   8.0965E-02   6.3795E-04  0.0135
   8.0965E-02   8.2935E-02   6.3831E-04  0.0133
   8.2935E-02   8.4953E-02   6.1109E-04  0.0134
   8.4953E-02   8.7020E-02   6.1614E-04  0.0132
   8.7020E-02   8.9138E-02   6.2197E-04  0.0130
   8.9138E-02   9.1306E-02   6.0720E-04  0.0130
   9.1306E-02   9.3528E-02   6.2179E-04  0.0127
   9.3528E-02   9.5804E-02   5.9354E-04  0.0128
   9.5804E-02   9.8134E-02   6.1052E-04  0.0125
   9.8134E-02   1.0052E-01   6.0253E-04  0.0124
   1.0052E-01   1.0297E-01   6.0194E-04  0.0123
   1.0297E-01   1.0547E-01   5.8880E-04  0.0123
   1.0547E-01   1.0804E-01   5.8360E-04  0.0122
   1.0804E-01   1.1067E-01   5.9066E-04  0.0120
   1.1067E-01   1.1336E-01   5.9075E-04  0.0118
   1.1336E-01   1.1612E-01   5.8026E-04  0.0118
   1.1612E-01   1.1894E-01   5.7237E-04  0.0117
   1.1894E-01   1.2184E-01   5.6723E-04  0.0116
   1.2184E-01   1.2480E-01   5.6972E-04  0.0115
   1.2480E-01   1.2784E-01   5.6069E-04  0.0114
   1.2784E-01   1.3095E-01   5.5919E-04  0.0113
   1.3095E-01   1.3414E-01   5.7144E-04  0.0110
   1.3414E-01   1.3740E-01   5.5923E-04  0.0110
   1.3740E-01   1.4074E-01   5.5618E-04  0.0109
   1.4074E-01   1.4417E-01   5.4725E-04  0.0109
   1.4417E-01   1.4767E-01   5.4439E-04  0.0108
   1.4767E-01   1.5127E-01   5.4154E-04  0.0107
   1.5127E-01   1.5495E-01   5.3746E-04  0.0106
   1.5495E-01   1.5872E-01   5.4347E-04  0.0104
   1.5872E-01   1.6258E-01   5.3793E-04  0.0103
   1.6258E-01   1.6654E-01   5.2206E-04  0.0104
   1.6654E-01   1.7059E-01   5.1915E-04  0.0103
   1.7059E-01   1.7474E-01   5.1980E-04  0.0101
   1.7474E-01   1.7899E-01   5.1663E-04  0.0101
   1.7899E-01   1.8334E-01   5.0900E-04  0.0100
   1.8334E-01   1.8781E-01   5.1001E-04  0.0099
   1.8781E-01   1.9237E-01   4.9187E-04  0.0099
   1.9237E-01   1.9706E-01   4.9179E-04  0.0098
   1.9706E-01   2.0185E-01   4.9601E-04  0.0097
   2.0185E-01   2.0676E-01   4.8705E-04  0.0096
   2.0676E-01   2.1179E-01   4.8931E-04  0.0095
   2.1179E-01   2.1694E-01   4.7135E-04  0.0096
   2.1694E-01   2.2222E-01   4.7632E-04  0.0094
   2.2222E-01   2.2763E-01   4.8027E-04  0.0093
   2.2763E-01   2.3317E-01   4.6816E-04  0.0093
   2.3317E-01   2.3884E-01   4.5606E-04  0.0093
   2.3884E-01   2.4465E-01   4.6435E-04  0.0091
   2.4465E-01   2.5061E-01   4.5959E-04  0.0090
   2.5061E-01   2.5670E-01   4.5188E-04  0.0090
   2.5670E-01   2.6295E-01   4.4247E-04  0.0090
   2.6295E-01   2.6935E-01   4.4068E-04  0.0089
   2.6935E-01   2.7590E-01   4.3282E-04  0.0089
   2.7590E-01   2.8261E-01   4.3740E-04  0.0087
   2.8261E-01   2.8949E-01   4.2708E-04  0.0087
   2.8949E-01   2.9653E-01   4.2463E-04  0.0086
   2.9653E-01   3.0375E-01   4.0675E-04  0.0087
   3.0375E-01   3.1114E-01   4.1020E-04  0.0086
   3.1114E-01   3.1871E-01   4.1201E-04  0.0084
   3.1871E-01   3.2646E-01   4.0050E-04  0.0085
   3.2646E-01   3.3441E-01   3.9478E-04  0.0084
   3.3441E-01   3.4254E-01   3.8980E-04  0.0084
   3.4254E-01   3.5088E-01   3.8265E-04  0.0083
   3.5088E-01   3.5941E-01   3.8142E-04  0.0083
   3.5941E-01   3.6816E-01   3.7669E-04  0.0082
   3.6816E-01   3.7712E-01   3.6984E-04  0.0082
   3.7712E-01   3.8629E-01   3.6142E-04  0.0082
   3.8629E-01   3.9569E-01   3.5268E-04  0.0082
   3.9569E-01   4.0532E-01   3.5327E-04  0.0081
   4.0532E-01   4.1518E-01   3.4846E-04  0.0080
   4.1518E-01   4.2528E-01   3.4003E-04  0.0080
   4.2528E-01   4.3563E-01   3.3617E-04  0.0080
   4.3563E-01   4.4623E-01   3.3252E-04  0.0079
   4.4623E-01   4.5708E-01   3.2157E-04  0.0080
   4.5708E-01   4.6821E-01   3.1971E-04  0.0079
   4.6821E-01   4.7960E-01   3.1824E-04  0.0078
   4.7960E-01   4.9127E-01   3.0971E-04  0.0078
   4.9127E-01   5.0322E-01   3.0239E-04  0.0078
   5.0322E-01   5.1546E-01   2.9450E-04  0.0079
   5.1546E-01   5.2800E-01   2.8683E-04  0.0079
   5.2800E-01   5.4085E-01   2.8055E-04  0.0079
   5.4085E-01   5.5401E-01   2.7875E-04  0.0078
   5.5401E-01   5.6749E-01   2.6557E-04  0.0079
   5.6749E-01   5.8130E-01   2.6028E-04  0.0079
   5.8130E-01   5.9544E-01   2.5664E-04  0.0078
   5.9544E-01   6.0993E-01   2.5056E-04  0.0078
   6.0993E-01   6.2477E-01   2.4239E-04  0.0079
   6.2477E-01   6.3997E-01   2.3941E-04  0.0078
   6.3997E-01   6.5554E-01   2.3328E-04  0.0078
   6.5554E-01   6.7149E-01   2.2699E-04  0.0078
   6.7149E-01   6.8783E-01   2.2207E-04  0.0078
   6.8783E-01   7.0456E-01   2.1262E-04  0.0079
   7.0456E-01   7.2171E-01   2.0746E-04  0.0079
   7.2171E-01   7.3927E-01   2.0389E-04  0.0079
   7.3927E-01   7.5725E-01   1.9835E-04  0.0079
   7.5725E-01   7.7568E-01   1.9000E-04  0.0080
   7.7568E-01   7.9455E-01   1.8403E-04  0.0080
   7.9455E-01   8.1388E-01   1.7936E-04  0.0080
   8.1388E-01   8.3368E-01   1.7291E-04  0.0081
   8.3368E-01   8.5397E-01   1.6496E-04  0.0082
   8.5397E-01   8.7475E-01   1.6044E-04  0.0082
   8.7475E-01   8.9603E-01   1.5128E-04  0.0083
   8.9603E-01   9.1783E-01   1.4555E-04  0.0084
   9.1783E-01   9.4016E-01   1.4081E-04  0.0084
   9.4016E-01   9.6304E-01   1.3313E-04  0.0085
   9.6304E-01   9.8647E-01   1.2658E-04  0.0087
   9.8647E-01   1.0105E+00   1.2433E-04  0.0086
   1.0105E+00   1.0351E+00   1.2154E-04  0.0086
   1.0351E+00   1.0602E+00   1.2266E-04  0.0085
   1.0602E+00   1.0860E+00   1.2374E-04  0.0083
   1.0860E+00   1.1125E+00   1.2281E-04  0.0083
   1.1125E+00   1.1395E+00   1.2664E-04  0.0081
   1.1395E+00   1.1673E+00   1.2971E-04  0.0079
   1.1673E+00   1.1957E+00   1.3184E-04  0.0077
   1.1957E+00   1.2247E+00   1.3317E-04  0.0076
   1.2247E+00   1.2545E+00   1.3218E-04  0.0075
   1.2545E+00   1.2851E+00   1.3305E-04  0.0074
   1.2851E+00   1.3163E+00   1.3312E-04  0.0073
   1.3163E+00   1.3484E+00   1.3174E-04  0.0073
   1.3484E+00   1.3812E+00   1.3482E-04  0.0071
   1.3812E+00   1.4148E+00   1.3787E-04  0.0069
   1.4148E+00   1.4492E+00   1.3382E-04  0.0069
   1.4492E+00   1.4845E+00   1.3228E-04  0.0069
   1.4845E+00   1.5206E+00   1.3158E-04  0.0068
   1.5206E+00   1.5576E+00   1.3182E-04  0.0068
   1.5576E+00   1.5955E+00   1.2960E-04  0.0067
   1.5955E+00   1.6343E+00   1.2974E-04  0.0066
   1.6343E+00   1.6741E+00   1.2935E-04  0.0066
   1.6741E+00   1.7148E+00   1.3012E-04  0.0065
   1.7148E+00   1.7565E+00   1.2631E-04  0.0065
   1.7565E+00   1.7992E+00   1.2458E-04  0.0065
   1.7992E+00   1.8430E+00   1.2155E-04  0.0065
   1.8430E+00   1.8879E+00   1.1954E-04  0.0064
   1.8879E+00   1.9338E+00   1.1790E-04  0.0064
   1.9338E+00   1.9808E+00   1.1653E-04  0.0064
   1.9808E+00   2.0290E+00   1.1559E-04  0.0063
   2.0290E+00   2.0784E+00   1.1139E-04  0.0064
   2.0784E+00   2.1290E+00   1.0871E-04  0.0064
   2.1290E+00   2.1808E+00   1.0542E-04  0.0064
   2.1808E+00   2.2338E+00   1.0343E-04  0.0064
   2.2338E+00   2.2882E+00   9.9559E-05  0.0064
   2.2882E+00   2.3439E+00   9.6839E-05  0.0064
   2.3439E+00   2.4009E+00   9.4453E-05  0.0064
   2.4009E+00   2.4593E+00   9.3466E-05  0.0064
   2.4593E+00   2.5191E+00   8.9803E-05  0.0064
   2.5191E+00   2.5804E+00   8.5412E-05  0.0065
   2.5804E+00   2.6432E+00   8.3362E-05  0.0065
   2.6432E+00   2.7075E+00   7.8949E-05  0.0066
   2.7075E+00   2.7734E+00   7.6214E-05  0.0067
   2.7734E+00   2.8409E+00   7.2931E-05  0.0067
   2.8409E+00   2.9100E+00   7.0273E-05  0.0068
   2.9100E+00   2.9808E+00   6.7719E-05  0.0068
   2.9808E+00   3.0533E+00   6.4526E-05  0.0069
   3.0533E+00   3.1276E+00   6.1552E-05  0.0070
   3.1276E+00   3.2037E+00   5.8226E-05  0.0071
   3.2037E+00   3.2817E+00   5.5934E-05  0.0071
   3.2817E+00   3.3615E+00   5.2493E-05  0.0073
   3.3615E+00   3.4433E+00   4.9096E-05  0.0074
   3.4433E+00   3.5271E+00   4.6573E-05  0.0075
   3.5271E+00   3.6129E+00   4.4348E-05  0.0076
   3.6129E+00   3.7008E+00   4.1679E-05  0.0078
   3.7008E+00   3.7908E+00   3.9053E-05  0.0080
   3.7908E+00   3.8831E+00   3.6846E-05  0.0081
   3.8831E+00   3.9776E+00   3.4555E-05  0.0083
   3.9776E+00   4.0743E+00   3.2430E-05  0.0084
   4.0743E+00   4.1735E+00   2.9803E-05  0.0087
   4.1735E+00   4.2750E+00   2.8781E-05  0.0087
   4.2750E+00   4.3790E+00   2.6428E-05  0.0090
   4.3790E+00   4.4856E+00   2.4889E-05  0.0092
   4.4856E+00   4.5947E+00   2.2756E-05  0.0095
   4.5947E+00   4.7065E+00   2.0612E-05  0.0098
   4.7065E+00   4.8210E+00   1.9569E-05  0.0100
   4.8210E+00   4.9383E+00   1.8007E-05  0.0103
   4.9383E+00   5.0585E+00   1.6536E-05  0.0106
   5.0585E+00   5.1815E+00   1.5463E-05  0.0108
   5.1815E+00   5.3076E+00   1.3796E-05  0.0113
   5.3076E+00   5.4368E+00   1.2626E-05  0.0117
   5.4368E+00   5.5690E+00   1.1634E-05  0.0120
   5.5690E+00   5.7045E+00   1.0691E-05  0.0124
   5.7045E+00   5.8433E+00   9.7161E-06  0.0128
   5.8433E+00   5.9855E+00   8.9109E-06  0.0132
   5.9855E+00   6.1311E+00   7.9264E-06  0.0139
   6.1311E+00   6.2803E+00   7.3605E-06  0.0142
   6.2803E+00   6.4331E+00   6.5603E-06  0.0149
   6.4331E+00   6.5896E+00   5.9927E-06  0.0154
   6.5896E+00   6.7500E+00   5.3923E-06  0.0160
   6.7500E+00   6.9142E+00   4.9835E-06  0.0165
   6.9142E+00   7.0824E+00   4.3737E-06  0.0174
   7.0824E+00   7.2548E+00   3.8546E-06  0.0183
   7.2548E+00   7.4313E+00   3.6466E-06  0.0186
   7.4313E+00   7.6121E+00   3.2484E-06  0.0194
   7.6121E+00   7.7973E+00   2.9456E-06  0.0202
   7.7973E+00   7.9870E+00   2.6297E-06  0.0211
   7.9870E+00   8.1813E+00   2.3843E-06  0.0219
   8.1813E+00   8.3804E+00   2.1445E-06  0.0228
   8.3804E+00   8.5843E+00   1.9269E-06  0.0238
   8.5843E+00   8.7931E+00   1.7156E-06  0.0249
   8.7931E+00   9.0071E+00   1.5492E-06  0.0259
   9.0071E+00   9.2262E+00   1.3603E-06  0.0273
   9.2262E+00   9.4507E+00   1.2869E-06  0.0277
   9.4507E+00   9.6807E+00   1.1732E-06  0.0287
   9.6807E+00   9.9162E+00   1.0147E-06  0.0305
   9.9162E+00   1.0157E+01   9.6388E-07  0.0309
   1.0157E+01   1.0405E+01   8.3129E-07  0.0328
   1.0405E+01   1.0658E+01   7.6678E-07  0.0337
   1.0658E+01   1.0917E+01   6.7272E-07  0.0356
   1.0917E+01   1.1183E+01   6.2621E-07  0.0365
   1.1183E+01   1.1455E+01   5.4191E-07  0.0387
   1.1455E+01   1.1733E+01   5.4498E-07  0.0381
   1.1733E+01   1.2019E+01   5.0207E-07  0.0393
   1.2019E+01   1.2311E+01   4.0959E-07  0.0430
   1.2311E+01   1.2611E+01   3.9430E-07  0.0433
   1.2611E+01   1.2918E+01   3.9363E-07  0.0428
   1.2918E+01   1.3232E+01   3.4503E-07  0.0452
   1.3232E+01   1.3554E+01   3.3753E-07  0.0451
   1.3554E+01   1.3884E+01   3.1401E-07  0.0461
   1.3884E+01   1.4222E+01   2.9833E-07  0.0469
   1.4222E+01   1.4568E+01   2.6363E-07  0.0493
   1.4568E+01   1.4922E+01   2.7430E-07  0.0478
   1.4922E+01   1.5285E+01   2.3534E-07  0.0509
   1.5285E+01   1.5657E+01   1.9808E-07  0.0548
   1.5657E+01   1.6038E+01   2.1496E-07  0.0520
   1.6038E+01   1.6428E+01   1.9391E-07  0.0541
   1.6428E+01   1.6828E+01   1.8597E-07  0.0547
   1.6828E+01   1.7237E+01   2.0380E-07  0.0516
   1.7237E+01   1.7657E+01   1.8042E-07  0.0541
   1.7657E+01   1.8086E+01   1.6837E-07  0.0554
   1.8086E+01   1.8526E+01   1.6059E-07  0.0560
   1.8526E+01   1.8977E+01   1.5924E-07  0.0556
   1.8977E+01   1.9439E+01   1.4174E-07  0.0582
   1.9439E+01   1.9912E+01   1.5200E-07  0.0555
   1.9912E+01   2.0396E+01   1.4036E-07  0.0572
   2.0396E+01   2.0893E+01   1.4016E-07  0.0565
   2.0893E+01   2.1401E+01   1.1934E-07  0.0605
   2.1401E+01   2.1922E+01   1.2163E-07  0.0592
   2.1922E+01   2.2455E+01   1.1374E-07  0.0605
   2.2455E+01   2.3001E+01   1.0331E-07  0.0627
   2.3001E+01   2.3561E+01   1.0483E-07  0.0615
   2.3561E+01   2.4134E+01   9.3423E-08  0.0644
   2.4134E+01   2.4721E+01   1.0256E-07  0.0607
   2.4721E+01   2.5323E+01   8.7929E-08  0.0648
   2.5323E+01   2.5939E+01   8.6923E-08  0.0644
   2.5939E+01   2.6570E+01   9.0844E-08  0.0623
   2.6570E+01   2.7217E+01   7.5280E-08  0.0676
   2.7217E+01   2.7879E+01   6.7116E-08  0.0707
   2.7879E+01   2.8557E+01   7.1746E-08  0.0676
   2.8557E+01   2.9252E+01   7.3240E-08  0.0661
   2.9252E+01   2.9964E+01   7.2438E-08  0.0657
   2.9964E+01   3.0693E+01   6.1572E-08  0.0704
   3.0693E+01   3.1440E+01   6.5764E-08  0.0673
   3.1440E+01   3.2205E+01   5.4615E-08  0.0729
   3.2205E+01   3.2988E+01   5.8706E-08  0.0695
   3.2988E+01   3.3791E+01   4.8175E-08  0.0758
   3.3791E+01   3.4613E+01   4.9734E-08  0.0737
   3.4613E+01   3.5455E+01   4.8816E-08  0.0735
   3.5455E+01   3.6318E+01   3.4777E-08  0.0861
   3.6318E+01   3.7201E+01   3.9986E-08  0.0793
   3.7201E+01   3.8106E+01   3.4126E-08  0.0848
   3.8106E+01   3.9034E+01   3.1878E-08  0.0867
   3.9034E+01   3.9983E+01   3.0418E-08  0.0877
   3.9983E+01   4.0956E+01   2.1016E-08  0.1043
   4.0956E+01   4.1953E+01   2.2746E-08  0.0990
   4.1953E+01   4.2973E+01   2.1771E-08  0.1000
   4.2973E+01   4.4019E+01   1.5515E-08  0.1170
   4.4019E+01   4.5090E+01   1.8259E-08  0.1066
   4.5090E+01   4.6187E+01   1.0736E-08  0.1374
   4.6187E+01   4.7311E+01   1.2063E-08  0.1280
   4.7311E+01   4.8462E+01   1.0425E-08  0.1361
   4.8462E+01   4.9641E+01   1.0743E-08  0.1325
   4.9641E+01   5.0849E+01   9.0154E-09  0.1429
   5.0849E+01   5.2086E+01   9.1605E-09  0.1400
   5.2086E+01   5.3353E+01   7.1894E-09  0.1562
   5.3353E+01   5.4651E+01   5.8203E-09  0.1715
   5.4651E+01   5.5981E+01   5.6821E-09  0.1715
   5.5981E+01   5.7343E+01   4.0788E-09  0.2000
   5.7343E+01   5.8738E+01   3.9819E-09  0.2000
   5.8738E+01   6.0168E+01   4.5093E-09  0.1857
   6.0168E+01   6.1632E+01   2.4288E-09  0.2500
   6.1632E+01   6.3131E+01   3.1121E-09  0.2182
   6.3131E+01   6.4667E+01   1.5914E-09  0.3015
   6.4667E+01   6.6240E+01   1.2711E-09  0.3333
   6.6240E+01   6.7852E+01   4.1365E-10  0.5774
   6.7852E+01   6.9503E+01   8.0764E-10  0.4082
   6.9503E+01   7.1194E+01   3.9423E-10  0.5774
   7.1194E+01   7.2926E+01   1.0263E-09  0.3536
   7.2926E+01   7.4701E+01   3.7572E-10  0.5774
   7.4701E+01   7.6518E+01   2.4453E-10  0.7071
   7.6518E+01   7.8380E+01   1.1936E-10  1.0000
   7.8380E+01   8.0287E+01   2.3305E-10  0.7071
   8.0287E+01   8.2240E+01   1.1376E-10  1.0000
   8.2240E+01   8.4241E+01   3.3317E-10  0.5774
   8.4241E+01   8.6291E+01   3.2526E-10  0.5774
   8.6291E+01   8.8391E+01   0.0000E+00  0.0000
   8.8391E+01   9.0541E+01   0.0000E+00  0.0000
   9.0541E+01   9.2744E+01   1.0088E-10  1.0000
   9.2744E+01   9.5001E+01   0.0000E+00  0.0000
   9.5001E+01   9.7312E+01   9.6140E-11  1.0000
   9.7312E+01   9.9680E+01   0.0000E+00  0.0000
   9.9680E+01   1.0211E+02   0.0000E+00  0.0000
   1.0211E+02   1.0459E+02   0.0000E+00  0.0000
   1.0459E+02   1.0713E+02   0.0000E+00  0.0000
   1.0713E+02   1.0974E+02   0.0000E+00  0.0000
   1.0974E+02   1.1241E+02   0.0000E+00  0.0000
   1.1241E+02   1.1515E+02   0.0000E+00  0.0000
   1.1515E+02   1.1795E+02   0.0000E+00  0.0000
   1.1795E+02   1.2082E+02   0.0000E+00  0.0000
   1.2082E+02   1.2376E+02   0.0000E+00  0.0000
   1.2376E+02   1.2677E+02   0.0000E+00  0.0000
   1.2677E+02   1.2985E+02   0.0000E+00  0.0000
   1.2985E+02   1.3301E+02   0.0000E+00  0.0000
   1.3301E+02   1.3625E+02   0.0000E+00  0.0000
   1.3625E+02   1.3956E+02   0.0000E+00  0.0000
   1.3956E+02   1.4296E+02   0.0000E+00  0.0000
   1.4296E+02   1.4644E+02   0.0000E+00  0.0000
   1.4644E+02   1.5000E+02   0.0000E+00  0.0000

#   sum over                 4.3232E-06
'no. =    1   reg = 126 - 226'
msuc: {\huge [t-cross] in region mesh}
msdr: {\it plotted by \ANGEL \version}
msdl: {\it calculated by \PHITS  3.26}
wt: s(0.7)
\vspace{-3}
  region surface crossing
  area  &=&   1.0000E+00 [cm^2]
e:
 
# Information for Restart Calculation
# This calculation was newly started
# istdev =  2 # 1:Batch variance, 2:History variance
# resc2  = 4.50000000000000000E+09 # Total source weight or Total source weight / maxcas
# resc3  = 4.50000000000000000E+09 # Total history number or Total batch number
# maxcas =   500000000 # History / Batch, only used for istdev=1
# bitrseed = 0001011101011011011000011100010110101100100111100111010011101011 # bit data of rseed
