7 <--- number of remaining batches 

-------------------------------------------------------------------------------
bat[       3] ncas =     1500000000.
 bitrseed = 0001001110011001001001110000100100110111001111011100001000101100
          cpu time =  13 h.  9 m. 15.40 s.

 date = 2022-05-31
 time = 02h 52m 26s

