[ T-Cross ]
    title = [t-cross] in region mesh
     mesh =  reg            # mesh type is region-wise
      reg =    1            # number of crossing regions
      non     r-from    r-to       area
      1       114       214        1.000000    
   e-type =    3            # e-mesh is log given by emin, emax and ne
     emin =  1.0000000E-02  # minimum value of e-mesh points
     emax =   150.0000      # maximum value of e-mesh points
#    edel =  2.4039514E-02  # mesh width of e-mesh points
       ne =    400          # number of e-mesh points
#    data = ( e(i), i = 1, ne + 1 )
#           1.00000E-02  1.02433E-02  1.04925E-02  1.07478E-02  1.10093E-02
#           1.12772E-02  1.15516E-02  1.18326E-02  1.21205E-02  1.24154E-02
#           1.27175E-02  1.30269E-02  1.33439E-02  1.36686E-02  1.40011E-02
#           1.43418E-02  1.46907E-02  1.50482E-02  1.54143E-02  1.57894E-02
#           1.61735E-02  1.65670E-02  1.69701E-02  1.73830E-02  1.78060E-02
#           1.82392E-02  1.86830E-02  1.91375E-02  1.96032E-02  2.00801E-02
#           2.05687E-02  2.10692E-02  2.15818E-02  2.21069E-02  2.26448E-02
#           2.31957E-02  2.37601E-02  2.43382E-02  2.49304E-02  2.55369E-02
#           2.61583E-02  2.67947E-02  2.74467E-02  2.81145E-02  2.87985E-02
#           2.94992E-02  3.02169E-02  3.09521E-02  3.17052E-02  3.24766E-02
#           3.32668E-02  3.40762E-02  3.49053E-02  3.57546E-02  3.66246E-02
#           3.75157E-02  3.84284E-02  3.93634E-02  4.03212E-02  4.13022E-02
#           4.23071E-02  4.33365E-02  4.43909E-02  4.54710E-02  4.65773E-02
#           4.77106E-02  4.88714E-02  5.00605E-02  5.12785E-02  5.25262E-02
#           5.38042E-02  5.51133E-02  5.64542E-02  5.78278E-02  5.92348E-02
#           6.06760E-02  6.21523E-02  6.36645E-02  6.52135E-02  6.68002E-02
#           6.84255E-02  7.00904E-02  7.17957E-02  7.35426E-02  7.53319E-02
#           7.71648E-02  7.90423E-02  8.09655E-02  8.29354E-02  8.49533E-02
#           8.70203E-02  8.91376E-02  9.13064E-02  9.35279E-02  9.58035E-02
#           9.81345E-02  1.00522E-01  1.02968E-01  1.05473E-01  1.08040E-01
#           1.10668E-01  1.13361E-01  1.16119E-01  1.18944E-01  1.21838E-01
#           1.24803E-01  1.27839E-01  1.30950E-01  1.34136E-01  1.37399E-01
#           1.40742E-01  1.44167E-01  1.47675E-01  1.51268E-01  1.54948E-01
#           1.58718E-01  1.62580E-01  1.66535E-01  1.70587E-01  1.74738E-01
#           1.78989E-01  1.83344E-01  1.87805E-01  1.92375E-01  1.97055E-01
#           2.01850E-01  2.06761E-01  2.11792E-01  2.16945E-01  2.22223E-01
#           2.27630E-01  2.33169E-01  2.38842E-01  2.44653E-01  2.50605E-01
#           2.56703E-01  2.62949E-01  2.69346E-01  2.75900E-01  2.82613E-01
#           2.89489E-01  2.96532E-01  3.03747E-01  3.11138E-01  3.18708E-01
#           3.26462E-01  3.34405E-01  3.42542E-01  3.50876E-01  3.59413E-01
#           3.68158E-01  3.77116E-01  3.86291E-01  3.95690E-01  4.05317E-01
#           4.15179E-01  4.25281E-01  4.35628E-01  4.46227E-01  4.57084E-01
#           4.68205E-01  4.79597E-01  4.91266E-01  5.03219E-01  5.15463E-01
#           5.28005E-01  5.40851E-01  5.54011E-01  5.67490E-01  5.81298E-01
#           5.95441E-01  6.09929E-01  6.24769E-01  6.39970E-01  6.55541E-01
#           6.71491E-01  6.87828E-01  7.04564E-01  7.21706E-01  7.39266E-01
#           7.57253E-01  7.75678E-01  7.94551E-01  8.13883E-01  8.33685E-01
#           8.53969E-01  8.74747E-01  8.96030E-01  9.17831E-01  9.40163E-01
#           9.63038E-01  9.86469E-01  1.01047E+00  1.03506E+00  1.06024E+00
#           1.08604E+00  1.11246E+00  1.13953E+00  1.16725E+00  1.19565E+00
#           1.22474E+00  1.25454E+00  1.28507E+00  1.31633E+00  1.34836E+00
#           1.38117E+00  1.41477E+00  1.44920E+00  1.48446E+00  1.52057E+00
#           1.55757E+00  1.59547E+00  1.63429E+00  1.67405E+00  1.71478E+00
#           1.75650E+00  1.79924E+00  1.84302E+00  1.88786E+00  1.93379E+00
#           1.98084E+00  2.02904E+00  2.07841E+00  2.12898E+00  2.18078E+00
#           2.23384E+00  2.28819E+00  2.34386E+00  2.40089E+00  2.45930E+00
#           2.51914E+00  2.58043E+00  2.64322E+00  2.70753E+00  2.77341E+00
#           2.84088E+00  2.91001E+00  2.98081E+00  3.05333E+00  3.12762E+00
#           3.20372E+00  3.28167E+00  3.36152E+00  3.44330E+00  3.52708E+00
#           3.61290E+00  3.70080E+00  3.79085E+00  3.88308E+00  3.97756E+00
#           4.07434E+00  4.17347E+00  4.27501E+00  4.37903E+00  4.48557E+00
#           4.59471E+00  4.70650E+00  4.82102E+00  4.93832E+00  5.05847E+00
#           5.18155E+00  5.30762E+00  5.43676E+00  5.56904E+00  5.70453E+00
#           5.84333E+00  5.98550E+00  6.13114E+00  6.28031E+00  6.43312E+00
#           6.58964E+00  6.74997E+00  6.91420E+00  7.08243E+00  7.25475E+00
#           7.43126E+00  7.61207E+00  7.79728E+00  7.98700E+00  8.18133E+00
#           8.38038E+00  8.58428E+00  8.79315E+00  9.00709E+00  9.22624E+00
#           9.45072E+00  9.68067E+00  9.91620E+00  1.01575E+01  1.04046E+01
#           1.06578E+01  1.09171E+01  1.11827E+01  1.14548E+01  1.17335E+01
#           1.20190E+01  1.23114E+01  1.26109E+01  1.29178E+01  1.32321E+01
#           1.35540E+01  1.38838E+01  1.42216E+01  1.45676E+01  1.49221E+01
#           1.52851E+01  1.56570E+01  1.60380E+01  1.64282E+01  1.68279E+01
#           1.72374E+01  1.76568E+01  1.80864E+01  1.85264E+01  1.89772E+01
#           1.94389E+01  1.99119E+01  2.03963E+01  2.08926E+01  2.14009E+01
#           2.19216E+01  2.24550E+01  2.30014E+01  2.35610E+01  2.41343E+01
#           2.47215E+01  2.53230E+01  2.59391E+01  2.65702E+01  2.72167E+01
#           2.78789E+01  2.85572E+01  2.92520E+01  2.99637E+01  3.06928E+01
#           3.14396E+01  3.22045E+01  3.29881E+01  3.37907E+01  3.46128E+01
#           3.54550E+01  3.63177E+01  3.72013E+01  3.81064E+01  3.90336E+01
#           3.99833E+01  4.09561E+01  4.19526E+01  4.29734E+01  4.40189E+01
#           4.50900E+01  4.61870E+01  4.73108E+01  4.84619E+01  4.96410E+01
#           5.08488E+01  5.20860E+01  5.33533E+01  5.46514E+01  5.59812E+01
#           5.73432E+01  5.87384E+01  6.01676E+01  6.16315E+01  6.31311E+01
#           6.46671E+01  6.62405E+01  6.78522E+01  6.95031E+01  7.11941E+01
#           7.29263E+01  7.47007E+01  7.65182E+01  7.83800E+01  8.02870E+01
#           8.22405E+01  8.42414E+01  8.62911E+01  8.83906E+01  9.05412E+01
#           9.27442E+01  9.50007E+01  9.73122E+01  9.96799E+01  1.02105E+02
#           1.04589E+02  1.07134E+02  1.09741E+02  1.12411E+02  1.15146E+02
#           1.17948E+02  1.20817E+02  1.23757E+02  1.26768E+02  1.29852E+02
#           1.33012E+02  1.36248E+02  1.39563E+02  1.42959E+02  1.46437E+02
#           1.50000E+02
     unit =    2            # unit is [1/cm^2/(MeV/n)/source]
     axis =  eng            # axis of output
     file = detector-15.out  # file name of output for the above axis
   output = f-curr          # surface crossing forward current spectrum
     part =  neutron  
# kf/name :  2112     
#    used :        main (  %)        temp (  %)       total (  %)
#  memory :         414 (  0)           0 (  0)         414 (  0)

#------------------------------------------------------------------------------
#newpage:
#   no. =    1   reg = 114 - 214

x: Energy [MeV/n]
y:  F-Curr [1/cm^2/(MeV/n)/source]         
p: xlog ylog afac(0.8) form(0.9)
h: n            x            y(neutron ),hh0l   n 
#  e-lower      e-upper      neutron     r.err 
   1.0000E-02   1.0243E-02   9.8092E-04  0.0529
   1.0243E-02   1.0493E-02   9.6030E-04  0.0528
   1.0493E-02   1.0748E-02   1.0759E-03  0.0493
   1.0748E-02   1.1009E-02   9.6366E-04  0.0514
   1.1009E-02   1.1277E-02   1.0254E-03  0.0493
   1.1277E-02   1.1552E-02   9.3300E-04  0.0510
   1.1552E-02   1.1833E-02   9.3456E-04  0.0504
   1.1833E-02   1.2121E-02   1.0004E-03  0.0481
   1.2121E-02   1.2415E-02   9.6303E-04  0.0485
   1.2415E-02   1.2718E-02   9.7326E-04  0.0476
   1.2718E-02   1.3027E-02   1.0148E-03  0.0461
   1.3027E-02   1.3344E-02   1.0811E-03  0.0441
   1.3344E-02   1.3669E-02   1.0185E-03  0.0449
   1.3669E-02   1.4001E-02   1.0514E-03  0.0437
   1.4001E-02   1.4342E-02   1.0431E-03  0.0433
   1.4342E-02   1.4691E-02   9.0367E-04  0.0460
   1.4691E-02   1.5048E-02   1.0006E-03  0.0432
   1.5048E-02   1.5414E-02   9.5958E-04  0.0436
   1.5414E-02   1.5789E-02   9.9900E-04  0.0422
   1.5789E-02   1.6174E-02   1.0811E-03  0.0401
   1.6174E-02   1.6567E-02   9.7243E-04  0.0417
   1.6567E-02   1.6970E-02   1.0337E-03  0.0400
   1.6970E-02   1.7383E-02   1.0560E-03  0.0391
   1.7383E-02   1.7806E-02   9.6073E-04  0.0405
   1.7806E-02   1.8239E-02   9.5561E-04  0.0401
   1.8239E-02   1.8683E-02   9.5244E-04  0.0397
   1.8683E-02   1.9138E-02   1.0427E-03  0.0375
   1.9138E-02   1.9603E-02   9.7932E-04  0.0382
   1.9603E-02   2.0080E-02   1.0148E-03  0.0371
   2.0080E-02   2.0569E-02   1.0370E-03  0.0363
   2.0569E-02   2.1069E-02   1.0058E-03  0.0364
   2.1069E-02   2.1582E-02   1.0209E-03  0.0357
   2.1582E-02   2.2107E-02   1.0360E-03  0.0350
   2.2107E-02   2.2645E-02   9.6118E-04  0.0359
   2.2645E-02   2.3196E-02   1.0067E-03  0.0347
   2.3196E-02   2.3760E-02   9.7158E-04  0.0349
   2.3760E-02   2.4338E-02   1.0298E-03  0.0335
   2.4338E-02   2.4930E-02   1.0481E-03  0.0328
   2.4930E-02   2.5537E-02   1.0188E-03  0.0328
   2.5537E-02   2.6158E-02   9.9785E-04  0.0328
   2.6158E-02   2.6795E-02   1.0695E-03  0.0313
   2.6795E-02   2.7447E-02   9.9805E-04  0.0320
   2.7447E-02   2.8114E-02   1.0003E-03  0.0316
   2.8114E-02   2.8799E-02   1.0233E-03  0.0309
   2.8799E-02   2.9499E-02   1.0095E-03  0.0307
   2.9499E-02   3.0217E-02   1.0004E-03  0.0305
   3.0217E-02   3.0952E-02   1.0555E-03  0.0293
   3.0952E-02   3.1705E-02   1.0092E-03  0.0296
   3.1705E-02   3.2477E-02   1.0025E-03  0.0294
   3.2477E-02   3.3267E-02   9.9260E-04  0.0292
   3.3267E-02   3.4076E-02   9.9167E-04  0.0288
   3.4076E-02   3.4905E-02   9.8661E-04  0.0285
   3.4905E-02   3.5755E-02   1.0079E-03  0.0279
   3.5755E-02   3.6625E-02   9.8091E-04  0.0280
   3.6625E-02   3.7516E-02   9.5312E-04  0.0280
   3.7516E-02   3.8428E-02   1.0211E-03  0.0267
   3.8428E-02   3.9363E-02   9.9680E-04  0.0267
   3.9363E-02   4.0321E-02   9.5781E-04  0.0270
   4.0321E-02   4.1302E-02   9.8738E-04  0.0262
   4.1302E-02   4.2307E-02   9.9743E-04  0.0258
   4.2307E-02   4.3337E-02   9.6694E-04  0.0259
   4.3337E-02   4.4391E-02   9.6547E-04  0.0256
   4.4391E-02   4.5471E-02   9.5982E-04  0.0254
   4.5471E-02   4.6577E-02   9.9487E-04  0.0246
   4.6577E-02   4.7711E-02   1.0024E-03  0.0242
   4.7711E-02   4.8871E-02   9.9583E-04  0.0240
   4.8871E-02   5.0061E-02   9.4246E-04  0.0244
   5.0061E-02   5.1279E-02   9.4416E-04  0.0241
   5.1279E-02   5.2526E-02   9.9494E-04  0.0232
   5.2526E-02   5.3804E-02   9.6505E-04  0.0232
   5.3804E-02   5.5113E-02   9.7319E-04  0.0229
   5.5113E-02   5.6454E-02   9.6474E-04  0.0227
   5.6454E-02   5.7828E-02   9.7604E-04  0.0223
   5.7828E-02   5.9235E-02   9.5570E-04  0.0223
   5.9235E-02   6.0676E-02   9.6607E-04  0.0219
   6.0676E-02   6.2152E-02   9.6142E-04  0.0217
   6.2152E-02   6.3665E-02   9.5577E-04  0.0215
   6.3665E-02   6.5214E-02   9.5610E-04  0.0212
   6.5214E-02   6.6800E-02   9.8948E-04  0.0206
   6.6800E-02   6.8426E-02   9.4875E-04  0.0208
   6.8426E-02   7.0090E-02   9.7346E-04  0.0203
   7.0090E-02   7.1796E-02   9.4369E-04  0.0204
   7.1796E-02   7.3543E-02   9.2891E-04  0.0203
   7.3543E-02   7.5332E-02   9.3442E-04  0.0200
   7.5332E-02   7.7165E-02   9.3550E-04  0.0197
   7.7165E-02   7.9042E-02   9.4133E-04  0.0194
   7.9042E-02   8.0965E-02   9.1048E-04  0.0195
   8.0965E-02   8.2935E-02   9.1102E-04  0.0193
   8.2935E-02   8.4953E-02   9.3200E-04  0.0188
   8.4953E-02   8.7020E-02   9.3083E-04  0.0186
   8.7020E-02   8.9138E-02   9.1690E-04  0.0185
   8.9138E-02   9.1306E-02   9.0189E-04  0.0185
   9.1306E-02   9.3528E-02   9.1407E-04  0.0181
   9.3528E-02   9.5804E-02   8.8855E-04  0.0182
   9.5804E-02   9.8134E-02   9.0978E-04  0.0177
   9.8134E-02   1.0052E-01   9.1665E-04  0.0175
   1.0052E-01   1.0297E-01   9.0101E-04  0.0174
   1.0297E-01   1.0547E-01   8.7787E-04  0.0174
   1.0547E-01   1.0804E-01   8.7651E-04  0.0172
   1.0804E-01   1.1067E-01   8.6507E-04  0.0171
   1.1067E-01   1.1336E-01   9.0073E-04  0.0166
   1.1336E-01   1.1612E-01   8.5891E-04  0.0168
   1.1612E-01   1.1894E-01   8.9172E-04  0.0163
   1.1894E-01   1.2184E-01   8.8297E-04  0.0162
   1.2184E-01   1.2480E-01   8.6650E-04  0.0161
   1.2480E-01   1.2784E-01   8.7127E-04  0.0159
   1.2784E-01   1.3095E-01   8.5690E-04  0.0158
   1.3095E-01   1.3414E-01   8.6145E-04  0.0156
   1.3414E-01   1.3740E-01   8.4568E-04  0.0155
   1.3740E-01   1.4074E-01   8.5900E-04  0.0152
   1.4074E-01   1.4417E-01   8.4560E-04  0.0152
   1.4417E-01   1.4767E-01   8.5878E-04  0.0149
   1.4767E-01   1.5127E-01   8.2836E-04  0.0150
   1.5127E-01   1.5495E-01   8.5578E-04  0.0145
   1.5495E-01   1.5872E-01   8.4155E-04  0.0145
   1.5872E-01   1.6258E-01   8.3883E-04  0.0143
   1.6258E-01   1.6654E-01   8.2699E-04  0.0143
   1.6654E-01   1.7059E-01   8.1286E-04  0.0142
   1.7059E-01   1.7474E-01   8.1893E-04  0.0140
   1.7474E-01   1.7899E-01   8.3390E-04  0.0137
   1.7899E-01   1.8334E-01   8.0782E-04  0.0138
   1.8334E-01   1.8781E-01   8.0066E-04  0.0137
   1.8781E-01   1.9237E-01   8.1191E-04  0.0134
   1.9237E-01   1.9706E-01   8.1086E-04  0.0133
   1.9706E-01   2.0185E-01   7.7888E-04  0.0134
   2.0185E-01   2.0676E-01   7.9859E-04  0.0130
   2.0676E-01   2.1179E-01   7.8664E-04  0.0130
   2.1179E-01   2.1694E-01   7.8199E-04  0.0129
   2.1694E-01   2.2222E-01   7.4448E-04  0.0130
   2.2222E-01   2.2763E-01   7.5971E-04  0.0127
   2.2763E-01   2.3317E-01   7.4341E-04  0.0127
   2.3317E-01   2.3884E-01   7.6154E-04  0.0124
   2.3884E-01   2.4465E-01   7.5125E-04  0.0124
   2.4465E-01   2.5061E-01   7.4410E-04  0.0123
   2.5061E-01   2.5670E-01   7.3785E-04  0.0122
   2.5670E-01   2.6295E-01   7.3345E-04  0.0121
   2.6295E-01   2.6935E-01   7.2348E-04  0.0120
   2.6935E-01   2.7590E-01   7.1840E-04  0.0119
   2.7590E-01   2.8261E-01   7.1048E-04  0.0118
   2.8261E-01   2.8949E-01   7.1803E-04  0.0116
   2.8949E-01   2.9653E-01   6.9658E-04  0.0117
   2.9653E-01   3.0375E-01   6.9357E-04  0.0115
   3.0375E-01   3.1114E-01   7.0073E-04  0.0113
   3.1114E-01   3.1871E-01   6.7752E-04  0.0114
   3.1871E-01   3.2646E-01   6.9410E-04  0.0111
   3.2646E-01   3.3441E-01   6.8047E-04  0.0111
   3.3441E-01   3.4254E-01   6.6869E-04  0.0111
   3.4254E-01   3.5088E-01   6.6216E-04  0.0110
   3.5088E-01   3.5941E-01   6.6397E-04  0.0108
   3.5941E-01   3.6816E-01   6.5761E-04  0.0108
   3.6816E-01   3.7712E-01   6.5129E-04  0.0107
   3.7712E-01   3.8629E-01   6.3749E-04  0.0107
   3.8629E-01   3.9569E-01   6.4278E-04  0.0105
   3.9569E-01   4.0532E-01   6.1318E-04  0.0106
   4.0532E-01   4.1518E-01   6.0314E-04  0.0106
   4.1518E-01   4.2528E-01   6.1274E-04  0.0104
   4.2528E-01   4.3563E-01   6.0157E-04  0.0103
   4.3563E-01   4.4623E-01   5.8942E-04  0.0103
   4.4623E-01   4.5708E-01   5.9411E-04  0.0102
   4.5708E-01   4.6821E-01   5.8908E-04  0.0101
   4.6821E-01   4.7960E-01   5.7067E-04  0.0101
   4.7960E-01   4.9127E-01   5.5915E-04  0.0101
   4.9127E-01   5.0322E-01   5.5094E-04  0.0101
   5.0322E-01   5.1546E-01   5.4186E-04  0.0100
   5.1546E-01   5.2800E-01   5.3459E-04  0.0100
   5.2800E-01   5.4085E-01   5.3554E-04  0.0098
   5.4085E-01   5.5401E-01   5.2105E-04  0.0099
   5.5401E-01   5.6749E-01   5.1209E-04  0.0098
   5.6749E-01   5.8130E-01   5.0325E-04  0.0098
   5.8130E-01   5.9544E-01   4.9375E-04  0.0098
   5.9544E-01   6.0993E-01   4.8285E-04  0.0098
   6.0993E-01   6.2477E-01   4.7388E-04  0.0097
   6.2477E-01   6.3997E-01   4.6799E-04  0.0097
   6.3997E-01   6.5554E-01   4.5617E-04  0.0097
   6.5554E-01   6.7149E-01   4.4270E-04  0.0097
   6.7149E-01   6.8783E-01   4.4212E-04  0.0096
   6.8783E-01   7.0456E-01   4.2485E-04  0.0097
   7.0456E-01   7.2171E-01   4.1686E-04  0.0097
   7.2171E-01   7.3927E-01   4.0489E-04  0.0097
   7.3927E-01   7.5725E-01   3.9942E-04  0.0096
   7.5725E-01   7.7568E-01   3.9171E-04  0.0096
   7.7568E-01   7.9455E-01   3.7754E-04  0.0097
   7.9455E-01   8.1388E-01   3.7368E-04  0.0096
   8.1388E-01   8.3368E-01   3.5986E-04  0.0097
   8.3368E-01   8.5397E-01   3.4480E-04  0.0098
   8.5397E-01   8.7475E-01   3.3456E-04  0.0098
   8.7475E-01   8.9603E-01   3.2865E-04  0.0098
   8.9603E-01   9.1783E-01   3.1153E-04  0.0099
   9.1783E-01   9.4016E-01   3.0589E-04  0.0099
   9.4016E-01   9.6304E-01   2.9245E-04  0.0100
   9.6304E-01   9.8647E-01   2.8615E-04  0.0100
   9.8647E-01   1.0105E+00   2.7562E-04  0.0100
   1.0105E+00   1.0351E+00   2.7953E-04  0.0098
   1.0351E+00   1.0602E+00   2.8378E-04  0.0097
   1.0602E+00   1.0860E+00   2.8434E-04  0.0095
   1.0860E+00   1.1125E+00   2.8709E-04  0.0094
   1.1125E+00   1.1395E+00   2.9502E-04  0.0091
   1.1395E+00   1.1673E+00   3.0355E-04  0.0089
   1.1673E+00   1.1957E+00   3.1463E-04  0.0086
   1.1957E+00   1.2247E+00   3.2210E-04  0.0084
   1.2247E+00   1.2545E+00   3.2567E-04  0.0083
   1.2545E+00   1.2851E+00   3.3235E-04  0.0081
   1.2851E+00   1.3163E+00   3.2878E-04  0.0081
   1.3163E+00   1.3484E+00   3.3620E-04  0.0079
   1.3484E+00   1.3812E+00   3.4589E-04  0.0077
   1.3812E+00   1.4148E+00   3.5217E-04  0.0075
   1.4148E+00   1.4492E+00   3.6126E-04  0.0073
   1.4492E+00   1.4845E+00   3.5886E-04  0.0073
   1.4845E+00   1.5206E+00   3.6135E-04  0.0071
   1.5206E+00   1.5576E+00   3.6486E-04  0.0070
   1.5576E+00   1.5955E+00   3.6893E-04  0.0069
   1.5955E+00   1.6343E+00   3.6865E-04  0.0068
   1.6343E+00   1.6741E+00   3.8078E-04  0.0066
   1.6741E+00   1.7148E+00   3.9330E-04  0.0065
   1.7148E+00   1.7565E+00   3.9587E-04  0.0064
   1.7565E+00   1.7992E+00   3.9635E-04  0.0063
   1.7992E+00   1.8430E+00   3.9814E-04  0.0062
   1.8430E+00   1.8879E+00   4.0501E-04  0.0061
   1.8879E+00   1.9338E+00   4.0344E-04  0.0060
   1.9338E+00   1.9808E+00   4.0390E-04  0.0059
   1.9808E+00   2.0290E+00   4.1607E-04  0.0058
   2.0290E+00   2.0784E+00   4.1687E-04  0.0057
   2.0784E+00   2.1290E+00   4.1616E-04  0.0056
   2.1290E+00   2.1808E+00   4.1695E-04  0.0056
   2.1808E+00   2.2338E+00   4.1625E-04  0.0055
   2.2338E+00   2.2882E+00   4.2490E-04  0.0054
   2.2882E+00   2.3439E+00   4.2759E-04  0.0053
   2.3439E+00   2.4009E+00   4.3492E-04  0.0052
   2.4009E+00   2.4593E+00   4.3670E-04  0.0051
   2.4593E+00   2.5191E+00   4.3516E-04  0.0051
   2.5191E+00   2.5804E+00   4.3309E-04  0.0050
   2.5804E+00   2.6432E+00   4.3639E-04  0.0049
   2.6432E+00   2.7075E+00   4.3276E-04  0.0049
   2.7075E+00   2.7734E+00   4.3293E-04  0.0048
   2.7734E+00   2.8409E+00   4.3657E-04  0.0048
   2.8409E+00   2.9100E+00   4.4017E-04  0.0047
   2.9100E+00   2.9808E+00   4.4492E-04  0.0046
   2.9808E+00   3.0533E+00   4.4683E-04  0.0045
   3.0533E+00   3.1276E+00   4.4212E-04  0.0045
   3.1276E+00   3.2037E+00   4.3930E-04  0.0045
   3.2037E+00   3.2817E+00   4.3297E-04  0.0044
   3.2817E+00   3.3615E+00   4.3046E-04  0.0044
   3.3615E+00   3.4433E+00   4.2676E-04  0.0044
   3.4433E+00   3.5271E+00   4.3008E-04  0.0043
   3.5271E+00   3.6129E+00   4.3479E-04  0.0042
   3.6129E+00   3.7008E+00   4.3037E-04  0.0042
   3.7008E+00   3.7908E+00   4.2368E-04  0.0042
   3.7908E+00   3.8831E+00   4.1954E-04  0.0042
   3.8831E+00   3.9776E+00   4.1706E-04  0.0041
   3.9776E+00   4.0743E+00   4.1334E-04  0.0041
   4.0743E+00   4.1735E+00   4.0359E-04  0.0041
   4.1735E+00   4.2750E+00   3.9588E-04  0.0041
   4.2750E+00   4.3790E+00   3.9103E-04  0.0040
   4.3790E+00   4.4856E+00   3.8173E-04  0.0040
   4.4856E+00   4.5947E+00   3.7903E-04  0.0040
   4.5947E+00   4.7065E+00   3.6716E-04  0.0040
   4.7065E+00   4.8210E+00   3.6649E-04  0.0040
   4.8210E+00   4.9383E+00   3.6034E-04  0.0040
   4.9383E+00   5.0585E+00   3.5351E-04  0.0040
   5.0585E+00   5.1815E+00   3.4638E-04  0.0040
   5.1815E+00   5.3076E+00   3.3374E-04  0.0040
   5.3076E+00   5.4368E+00   3.2692E-04  0.0040
   5.4368E+00   5.5690E+00   3.1557E-04  0.0040
   5.5690E+00   5.7045E+00   3.0495E-04  0.0040
   5.7045E+00   5.8433E+00   2.9947E-04  0.0040
   5.8433E+00   5.9855E+00   2.9137E-04  0.0040
   5.9855E+00   6.1311E+00   2.8440E-04  0.0040
   6.1311E+00   6.2803E+00   2.7376E-04  0.0040
   6.2803E+00   6.4331E+00   2.6287E-04  0.0041
   6.4331E+00   6.5896E+00   2.5467E-04  0.0041
   6.5896E+00   6.7500E+00   2.4689E-04  0.0041
   6.7500E+00   6.9142E+00   2.3575E-04  0.0041
   6.9142E+00   7.0824E+00   2.2942E-04  0.0042
   7.0824E+00   7.2548E+00   2.2101E-04  0.0042
   7.2548E+00   7.4313E+00   2.1096E-04  0.0042
   7.4313E+00   7.6121E+00   2.0278E-04  0.0043
   7.6121E+00   7.7973E+00   1.9282E-04  0.0043
   7.7973E+00   7.9870E+00   1.8708E-04  0.0043
   7.9870E+00   8.1813E+00   1.7874E-04  0.0044
   8.1813E+00   8.3804E+00   1.7194E-04  0.0044
   8.3804E+00   8.5843E+00   1.6413E-04  0.0045
   8.5843E+00   8.7931E+00   1.5633E-04  0.0045
   8.7931E+00   9.0071E+00   1.5053E-04  0.0045
   9.0071E+00   9.2262E+00   1.4421E-04  0.0046
   9.2262E+00   9.4507E+00   1.3776E-04  0.0046
   9.4507E+00   9.6807E+00   1.3102E-04  0.0047
   9.6807E+00   9.9162E+00   1.2691E-04  0.0047
   9.9162E+00   1.0157E+01   1.1979E-04  0.0048
   1.0157E+01   1.0405E+01   1.1547E-04  0.0048
   1.0405E+01   1.0658E+01   1.1022E-04  0.0049
   1.0658E+01   1.0917E+01   1.0512E-04  0.0049
   1.0917E+01   1.1183E+01   1.0052E-04  0.0050
   1.1183E+01   1.1455E+01   9.7324E-05  0.0050
   1.1455E+01   1.1733E+01   9.2312E-05  0.0051
   1.1733E+01   1.2019E+01   8.8287E-05  0.0051
   1.2019E+01   1.2311E+01   8.4855E-05  0.0052
   1.2311E+01   1.2611E+01   8.0483E-05  0.0053
   1.2611E+01   1.2918E+01   7.7759E-05  0.0053
   1.2918E+01   1.3232E+01   7.4835E-05  0.0053
   1.3232E+01   1.3554E+01   7.0878E-05  0.0054
   1.3554E+01   1.3884E+01   6.8392E-05  0.0054
   1.3884E+01   1.4222E+01   6.6282E-05  0.0055
   1.4222E+01   1.4568E+01   6.3667E-05  0.0055
   1.4568E+01   1.4922E+01   6.0826E-05  0.0056
   1.4922E+01   1.5285E+01   5.9051E-05  0.0056
   1.5285E+01   1.5657E+01   5.6942E-05  0.0056
   1.5657E+01   1.6038E+01   5.4189E-05  0.0057
   1.6038E+01   1.6428E+01   5.2564E-05  0.0057
   1.6428E+01   1.6828E+01   5.0572E-05  0.0057
   1.6828E+01   1.7237E+01   4.9418E-05  0.0057
   1.7237E+01   1.7657E+01   4.7754E-05  0.0058
   1.7657E+01   1.8086E+01   4.5304E-05  0.0059
   1.8086E+01   1.8526E+01   4.4005E-05  0.0059
   1.8526E+01   1.8977E+01   4.2824E-05  0.0059
   1.8977E+01   1.9439E+01   4.1327E-05  0.0059
   1.9439E+01   1.9912E+01   4.0093E-05  0.0059
   1.9912E+01   2.0396E+01   3.8384E-05  0.0060
   2.0396E+01   2.0893E+01   3.7889E-05  0.0060
   2.0893E+01   2.1401E+01   3.6601E-05  0.0060
   2.1401E+01   2.1922E+01   3.5775E-05  0.0060
   2.1922E+01   2.2455E+01   3.4394E-05  0.0060
   2.2455E+01   2.3001E+01   3.3185E-05  0.0061
   2.3001E+01   2.3561E+01   3.2211E-05  0.0061
   2.3561E+01   2.4134E+01   3.1139E-05  0.0061
   2.4134E+01   2.4721E+01   3.0106E-05  0.0061
   2.4721E+01   2.5323E+01   2.8934E-05  0.0062
   2.5323E+01   2.5939E+01   2.7907E-05  0.0062
   2.5939E+01   2.6570E+01   2.6787E-05  0.0063
   2.6570E+01   2.7217E+01   2.5709E-05  0.0063
   2.7217E+01   2.7879E+01   2.4710E-05  0.0064
   2.7879E+01   2.8557E+01   2.3626E-05  0.0065
   2.8557E+01   2.9252E+01   2.2895E-05  0.0065
   2.9252E+01   2.9964E+01   2.1677E-05  0.0066
   2.9964E+01   3.0693E+01   2.0835E-05  0.0066
   3.0693E+01   3.1440E+01   1.9637E-05  0.0067
   3.1440E+01   3.2205E+01   1.8837E-05  0.0068
   3.2205E+01   3.2988E+01   1.7894E-05  0.0069
   3.2988E+01   3.3791E+01   1.6876E-05  0.0070
   3.3791E+01   3.4613E+01   1.5927E-05  0.0071
   3.4613E+01   3.5455E+01   1.4960E-05  0.0073
   3.5455E+01   3.6318E+01   1.4316E-05  0.0073
   3.6318E+01   3.7201E+01   1.3453E-05  0.0075
   3.7201E+01   3.8106E+01   1.2544E-05  0.0077
   3.8106E+01   3.9034E+01   1.1730E-05  0.0078
   3.9034E+01   3.9983E+01   1.1090E-05  0.0080
   3.9983E+01   4.0956E+01   1.0391E-05  0.0081
   4.0956E+01   4.1953E+01   9.3836E-06  0.0084
   4.1953E+01   4.2973E+01   8.7551E-06  0.0086
   4.2973E+01   4.4019E+01   8.2761E-06  0.0088
   4.4019E+01   4.5090E+01   7.5791E-06  0.0091
   4.5090E+01   4.6187E+01   7.0904E-06  0.0093
   4.6187E+01   4.7311E+01   6.3869E-06  0.0096
   4.7311E+01   4.8462E+01   5.8622E-06  0.0099
   4.8462E+01   4.9641E+01   5.3956E-06  0.0102
   4.9641E+01   5.0849E+01   4.8523E-06  0.0107
   5.0849E+01   5.2086E+01   4.4369E-06  0.0110
   5.2086E+01   5.3353E+01   3.9665E-06  0.0115
   5.3353E+01   5.4651E+01   3.5949E-06  0.0120
   5.4651E+01   5.5981E+01   3.3120E-06  0.0123
   5.5981E+01   5.7343E+01   2.8946E-06  0.0130
   5.7343E+01   5.8738E+01   2.6276E-06  0.0135
   5.8738E+01   6.0168E+01   2.3221E-06  0.0142
   6.0168E+01   6.1632E+01   2.0493E-06  0.0149
   6.1632E+01   6.3131E+01   1.8299E-06  0.0156
   6.3131E+01   6.4667E+01   1.5772E-06  0.0166
   6.4667E+01   6.6240E+01   1.3826E-06  0.0175
   6.6240E+01   6.7852E+01   1.2521E-06  0.0182
   6.7852E+01   6.9503E+01   1.0839E-06  0.0193
   6.9503E+01   7.1194E+01   9.4102E-07  0.0205
   7.1194E+01   7.2926E+01   8.1514E-07  0.0217
   7.2926E+01   7.4701E+01   7.0861E-07  0.0230
   7.4701E+01   7.6518E+01   5.7111E-07  0.0253
   7.6518E+01   7.8380E+01   5.1099E-07  0.0265
   7.8380E+01   8.0287E+01   4.2894E-07  0.0285
   8.0287E+01   8.2240E+01   3.6210E-07  0.0307
   8.2240E+01   8.4241E+01   3.0352E-07  0.0331
   8.4241E+01   8.6291E+01   2.6378E-07  0.0351
   8.6291E+01   8.8391E+01   2.0830E-07  0.0390
   8.8391E+01   9.0541E+01   1.8878E-07  0.0405
   9.0541E+01   9.2744E+01   1.5767E-07  0.0438
   9.2744E+01   9.5001E+01   1.4122E-07  0.0457
   9.5001E+01   9.7312E+01   1.1998E-07  0.0490
   9.7312E+01   9.9680E+01   9.4044E-08  0.0547
   9.9680E+01   1.0211E+02   7.3668E-08  0.0611
   1.0211E+02   1.0459E+02   6.7893E-08  0.0629
   1.0459E+02   1.0713E+02   5.8421E-08  0.0670
   1.0713E+02   1.0974E+02   4.6292E-08  0.0743
   1.0974E+02   1.1241E+02   3.3707E-08  0.0861
   1.1241E+02   1.1515E+02   2.3156E-08  0.1026
   1.1515E+02   1.1795E+02   1.3564E-08  0.1325
   1.1795E+02   1.2082E+02   8.1308E-09  0.1690
   1.2082E+02   1.2376E+02   6.1233E-09  0.1925
   1.2376E+02   1.2677E+02   2.2140E-09  0.3162
   1.2677E+02   1.2985E+02   1.9453E-09  0.3333
   1.2985E+02   1.3301E+02   6.3303E-10  0.5774
   1.3301E+02   1.3625E+02   0.0000E+00  0.0000
   1.3625E+02   1.3956E+02   8.0442E-10  0.5000
   1.3956E+02   1.4296E+02   3.9266E-10  0.7071
   1.4296E+02   1.4644E+02   0.0000E+00  0.0000
   1.4644E+02   1.5000E+02   0.0000E+00  0.0000

#   sum over                 2.9912E-05
'no. =    1   reg = 114 - 214'
msuc: {\huge [t-cross] in region mesh}
msdr: {\it plotted by \ANGEL \version}
msdl: {\it calculated by \PHITS  3.26}
wt: s(0.7)
\vspace{-3}
  region surface crossing
  area  &=&   1.0000E+00 [cm^2]
e:
 
# Information for Restart Calculation
# This calculation was newly started
# istdev =  2 # 1:Batch variance, 2:History variance
# resc2  = 1.50000000000000000E+09 # Total source weight or Total source weight / maxcas
# resc3  = 1.50000000000000000E+09 # Total history number or Total batch number
# maxcas =   500000000 # History / Batch, only used for istdev=1
# bitrseed = 0000010101110101110110100110011001100101000001100111100100101101 # bit data of rseed
