[ T-Cross ]
    title = [t-cross] in region mesh
     mesh =  reg            # mesh type is region-wise
      reg =    1            # number of crossing regions
      non     r-from    r-to       area
      1       117       217        1.000000    
   e-type =    3            # e-mesh is log given by emin, emax and ne
     emin =  1.0000000E-02  # minimum value of e-mesh points
     emax =   150.0000      # maximum value of e-mesh points
#    edel =  2.4039514E-02  # mesh width of e-mesh points
       ne =    400          # number of e-mesh points
#    data = ( e(i), i = 1, ne + 1 )
#           1.00000E-02  1.02433E-02  1.04925E-02  1.07478E-02  1.10093E-02
#           1.12772E-02  1.15516E-02  1.18326E-02  1.21205E-02  1.24154E-02
#           1.27175E-02  1.30269E-02  1.33439E-02  1.36686E-02  1.40011E-02
#           1.43418E-02  1.46907E-02  1.50482E-02  1.54143E-02  1.57894E-02
#           1.61735E-02  1.65670E-02  1.69701E-02  1.73830E-02  1.78060E-02
#           1.82392E-02  1.86830E-02  1.91375E-02  1.96032E-02  2.00801E-02
#           2.05687E-02  2.10692E-02  2.15818E-02  2.21069E-02  2.26448E-02
#           2.31957E-02  2.37601E-02  2.43382E-02  2.49304E-02  2.55369E-02
#           2.61583E-02  2.67947E-02  2.74467E-02  2.81145E-02  2.87985E-02
#           2.94992E-02  3.02169E-02  3.09521E-02  3.17052E-02  3.24766E-02
#           3.32668E-02  3.40762E-02  3.49053E-02  3.57546E-02  3.66246E-02
#           3.75157E-02  3.84284E-02  3.93634E-02  4.03212E-02  4.13022E-02
#           4.23071E-02  4.33365E-02  4.43909E-02  4.54710E-02  4.65773E-02
#           4.77106E-02  4.88714E-02  5.00605E-02  5.12785E-02  5.25262E-02
#           5.38042E-02  5.51133E-02  5.64542E-02  5.78278E-02  5.92348E-02
#           6.06760E-02  6.21523E-02  6.36645E-02  6.52135E-02  6.68002E-02
#           6.84255E-02  7.00904E-02  7.17957E-02  7.35426E-02  7.53319E-02
#           7.71648E-02  7.90423E-02  8.09655E-02  8.29354E-02  8.49533E-02
#           8.70203E-02  8.91376E-02  9.13064E-02  9.35279E-02  9.58035E-02
#           9.81345E-02  1.00522E-01  1.02968E-01  1.05473E-01  1.08040E-01
#           1.10668E-01  1.13361E-01  1.16119E-01  1.18944E-01  1.21838E-01
#           1.24803E-01  1.27839E-01  1.30950E-01  1.34136E-01  1.37399E-01
#           1.40742E-01  1.44167E-01  1.47675E-01  1.51268E-01  1.54948E-01
#           1.58718E-01  1.62580E-01  1.66535E-01  1.70587E-01  1.74738E-01
#           1.78989E-01  1.83344E-01  1.87805E-01  1.92375E-01  1.97055E-01
#           2.01850E-01  2.06761E-01  2.11792E-01  2.16945E-01  2.22223E-01
#           2.27630E-01  2.33169E-01  2.38842E-01  2.44653E-01  2.50605E-01
#           2.56703E-01  2.62949E-01  2.69346E-01  2.75900E-01  2.82613E-01
#           2.89489E-01  2.96532E-01  3.03747E-01  3.11138E-01  3.18708E-01
#           3.26462E-01  3.34405E-01  3.42542E-01  3.50876E-01  3.59413E-01
#           3.68158E-01  3.77116E-01  3.86291E-01  3.95690E-01  4.05317E-01
#           4.15179E-01  4.25281E-01  4.35628E-01  4.46227E-01  4.57084E-01
#           4.68205E-01  4.79597E-01  4.91266E-01  5.03219E-01  5.15463E-01
#           5.28005E-01  5.40851E-01  5.54011E-01  5.67490E-01  5.81298E-01
#           5.95441E-01  6.09929E-01  6.24769E-01  6.39970E-01  6.55541E-01
#           6.71491E-01  6.87828E-01  7.04564E-01  7.21706E-01  7.39266E-01
#           7.57253E-01  7.75678E-01  7.94551E-01  8.13883E-01  8.33685E-01
#           8.53969E-01  8.74747E-01  8.96030E-01  9.17831E-01  9.40163E-01
#           9.63038E-01  9.86469E-01  1.01047E+00  1.03506E+00  1.06024E+00
#           1.08604E+00  1.11246E+00  1.13953E+00  1.16725E+00  1.19565E+00
#           1.22474E+00  1.25454E+00  1.28507E+00  1.31633E+00  1.34836E+00
#           1.38117E+00  1.41477E+00  1.44920E+00  1.48446E+00  1.52057E+00
#           1.55757E+00  1.59547E+00  1.63429E+00  1.67405E+00  1.71478E+00
#           1.75650E+00  1.79924E+00  1.84302E+00  1.88786E+00  1.93379E+00
#           1.98084E+00  2.02904E+00  2.07841E+00  2.12898E+00  2.18078E+00
#           2.23384E+00  2.28819E+00  2.34386E+00  2.40089E+00  2.45930E+00
#           2.51914E+00  2.58043E+00  2.64322E+00  2.70753E+00  2.77341E+00
#           2.84088E+00  2.91001E+00  2.98081E+00  3.05333E+00  3.12762E+00
#           3.20372E+00  3.28167E+00  3.36152E+00  3.44330E+00  3.52708E+00
#           3.61290E+00  3.70080E+00  3.79085E+00  3.88308E+00  3.97756E+00
#           4.07434E+00  4.17347E+00  4.27501E+00  4.37903E+00  4.48557E+00
#           4.59471E+00  4.70650E+00  4.82102E+00  4.93832E+00  5.05847E+00
#           5.18155E+00  5.30762E+00  5.43676E+00  5.56904E+00  5.70453E+00
#           5.84333E+00  5.98550E+00  6.13114E+00  6.28031E+00  6.43312E+00
#           6.58964E+00  6.74997E+00  6.91420E+00  7.08243E+00  7.25475E+00
#           7.43126E+00  7.61207E+00  7.79728E+00  7.98700E+00  8.18133E+00
#           8.38038E+00  8.58428E+00  8.79315E+00  9.00709E+00  9.22624E+00
#           9.45072E+00  9.68067E+00  9.91620E+00  1.01575E+01  1.04046E+01
#           1.06578E+01  1.09171E+01  1.11827E+01  1.14548E+01  1.17335E+01
#           1.20190E+01  1.23114E+01  1.26109E+01  1.29178E+01  1.32321E+01
#           1.35540E+01  1.38838E+01  1.42216E+01  1.45676E+01  1.49221E+01
#           1.52851E+01  1.56570E+01  1.60380E+01  1.64282E+01  1.68279E+01
#           1.72374E+01  1.76568E+01  1.80864E+01  1.85264E+01  1.89772E+01
#           1.94389E+01  1.99119E+01  2.03963E+01  2.08926E+01  2.14009E+01
#           2.19216E+01  2.24550E+01  2.30014E+01  2.35610E+01  2.41343E+01
#           2.47215E+01  2.53230E+01  2.59391E+01  2.65702E+01  2.72167E+01
#           2.78789E+01  2.85572E+01  2.92520E+01  2.99637E+01  3.06928E+01
#           3.14396E+01  3.22045E+01  3.29881E+01  3.37907E+01  3.46128E+01
#           3.54550E+01  3.63177E+01  3.72013E+01  3.81064E+01  3.90336E+01
#           3.99833E+01  4.09561E+01  4.19526E+01  4.29734E+01  4.40189E+01
#           4.50900E+01  4.61870E+01  4.73108E+01  4.84619E+01  4.96410E+01
#           5.08488E+01  5.20860E+01  5.33533E+01  5.46514E+01  5.59812E+01
#           5.73432E+01  5.87384E+01  6.01676E+01  6.16315E+01  6.31311E+01
#           6.46671E+01  6.62405E+01  6.78522E+01  6.95031E+01  7.11941E+01
#           7.29263E+01  7.47007E+01  7.65182E+01  7.83800E+01  8.02870E+01
#           8.22405E+01  8.42414E+01  8.62911E+01  8.83906E+01  9.05412E+01
#           9.27442E+01  9.50007E+01  9.73122E+01  9.96799E+01  1.02105E+02
#           1.04589E+02  1.07134E+02  1.09741E+02  1.12411E+02  1.15146E+02
#           1.17948E+02  1.20817E+02  1.23757E+02  1.26768E+02  1.29852E+02
#           1.33012E+02  1.36248E+02  1.39563E+02  1.42959E+02  1.46437E+02
#           1.50000E+02
     unit =    2            # unit is [1/cm^2/(MeV/n)/source]
     axis =  eng            # axis of output
     file = detector-18.out  # file name of output for the above axis
   output = f-curr          # surface crossing forward current spectrum
     part =  neutron  
# kf/name :  2112     
#    used :        main (  %)        temp (  %)       total (  %)
#  memory :         414 (  0)           0 (  0)         414 (  0)

#------------------------------------------------------------------------------
#newpage:
#   no. =    1   reg = 117 - 217

x: Energy [MeV/n]
y:  F-Curr [1/cm^2/(MeV/n)/source]         
p: xlog ylog afac(0.8) form(0.9)
h: n            x            y(neutron ),hh0l   n 
#  e-lower      e-upper      neutron     r.err 
   1.0000E-02   1.0243E-02   3.3791E-03  0.0155
   1.0243E-02   1.0493E-02   3.2996E-03  0.0155
   1.0493E-02   1.0748E-02   3.1996E-03  0.0155
   1.0748E-02   1.1009E-02   3.1124E-03  0.0156
   1.1009E-02   1.1277E-02   2.9434E-03  0.0158
   1.1277E-02   1.1552E-02   2.9963E-03  0.0155
   1.1552E-02   1.1833E-02   2.9017E-03  0.0156
   1.1833E-02   1.2121E-02   2.9321E-03  0.0153
   1.2121E-02   1.2415E-02   2.7809E-03  0.0155
   1.2415E-02   1.2718E-02   2.7616E-03  0.0154
   1.2718E-02   1.3027E-02   2.6679E-03  0.0155
   1.3027E-02   1.3344E-02   2.6469E-03  0.0153
   1.3344E-02   1.3669E-02   2.5742E-03  0.0154
   1.3669E-02   1.4001E-02   2.5555E-03  0.0152
   1.4001E-02   1.4342E-02   2.4932E-03  0.0153
   1.4342E-02   1.4691E-02   2.4301E-03  0.0153
   1.4691E-02   1.5048E-02   2.3309E-03  0.0154
   1.5048E-02   1.5414E-02   2.2683E-03  0.0154
   1.5414E-02   1.5789E-02   2.2964E-03  0.0152
   1.5789E-02   1.6174E-02   2.1722E-03  0.0154
   1.6174E-02   1.6567E-02   2.1709E-03  0.0152
   1.6567E-02   1.6970E-02   2.0806E-03  0.0153
   1.6970E-02   1.7383E-02   2.0909E-03  0.0151
   1.7383E-02   1.7806E-02   2.0340E-03  0.0152
   1.7806E-02   1.8239E-02   2.0186E-03  0.0150
   1.8239E-02   1.8683E-02   1.9682E-03  0.0150
   1.8683E-02   1.9138E-02   1.9252E-03  0.0150
   1.9138E-02   1.9603E-02   1.8423E-03  0.0152
   1.9603E-02   2.0080E-02   1.8257E-03  0.0151
   2.0080E-02   2.0569E-02   1.7289E-03  0.0153
   2.0569E-02   2.1069E-02   1.7521E-03  0.0150
   2.1069E-02   2.1582E-02   1.6668E-03  0.0152
   2.1582E-02   2.2107E-02   1.7310E-03  0.0147
   2.2107E-02   2.2645E-02   1.6696E-03  0.0148
   2.2645E-02   2.3196E-02   1.6108E-03  0.0149
   2.3196E-02   2.3760E-02   1.5858E-03  0.0149
   2.3760E-02   2.4338E-02   1.5317E-03  0.0149
   2.4338E-02   2.4930E-02   1.5196E-03  0.0148
   2.4930E-02   2.5537E-02   1.4983E-03  0.0147
   2.5537E-02   2.6158E-02   1.4310E-03  0.0149
   2.6158E-02   2.6795E-02   1.3983E-03  0.0149
   2.6795E-02   2.7447E-02   1.4071E-03  0.0147
   2.7447E-02   2.8114E-02   1.3622E-03  0.0147
   2.8114E-02   2.8799E-02   1.3121E-03  0.0148
   2.8799E-02   2.9499E-02   1.2559E-03  0.0150
   2.9499E-02   3.0217E-02   1.2826E-03  0.0147
   3.0217E-02   3.0952E-02   1.2676E-03  0.0146
   3.0952E-02   3.1705E-02   1.2144E-03  0.0147
   3.1705E-02   3.2477E-02   1.1766E-03  0.0148
   3.2477E-02   3.3267E-02   1.1969E-03  0.0145
   3.3267E-02   3.4076E-02   1.1371E-03  0.0147
   3.4076E-02   3.4905E-02   1.1322E-03  0.0145
   3.4905E-02   3.5755E-02   1.0859E-03  0.0146
   3.5755E-02   3.6625E-02   1.0991E-03  0.0144
   3.6625E-02   3.7516E-02   1.0676E-03  0.0144
   3.7516E-02   3.8428E-02   1.0202E-03  0.0146
   3.8428E-02   3.9363E-02   1.0062E-03  0.0145
   3.9363E-02   4.0321E-02   9.7643E-04  0.0145
   4.0321E-02   4.1302E-02   9.6572E-04  0.0145
   4.1302E-02   4.2307E-02   9.3514E-04  0.0145
   4.2307E-02   4.3337E-02   9.1575E-04  0.0145
   4.3337E-02   4.4391E-02   8.9294E-04  0.0145
   4.4391E-02   4.5471E-02   8.7344E-04  0.0145
   4.5471E-02   4.6577E-02   8.8080E-04  0.0142
   4.6577E-02   4.7711E-02   8.5312E-04  0.0143
   4.7711E-02   4.8871E-02   8.4780E-04  0.0142
   4.8871E-02   5.0061E-02   8.2054E-04  0.0142
   5.0061E-02   5.1279E-02   8.0458E-04  0.0142
   5.1279E-02   5.2526E-02   7.8133E-04  0.0143
   5.2526E-02   5.3804E-02   7.6915E-04  0.0142
   5.3804E-02   5.5113E-02   7.6427E-04  0.0141
   5.5113E-02   5.6454E-02   7.3856E-04  0.0141
   5.6454E-02   5.7828E-02   7.0997E-04  0.0142
   5.7828E-02   5.9235E-02   6.9950E-04  0.0142
   5.9235E-02   6.0676E-02   6.9297E-04  0.0141
   6.0676E-02   6.2152E-02   6.6623E-04  0.0142
   6.2152E-02   6.3665E-02   6.6712E-04  0.0140
   6.3665E-02   6.5214E-02   6.4271E-04  0.0141
   6.5214E-02   6.6800E-02   6.3036E-04  0.0141
   6.6800E-02   6.8426E-02   6.0910E-04  0.0141
   6.8426E-02   7.0090E-02   6.1637E-04  0.0139
   7.0090E-02   7.1796E-02   5.9360E-04  0.0140
   7.1796E-02   7.3543E-02   5.8315E-04  0.0139
   7.3543E-02   7.5332E-02   5.6240E-04  0.0140
   7.5332E-02   7.7165E-02   5.6326E-04  0.0138
   7.7165E-02   7.9042E-02   5.4245E-04  0.0139
   7.9042E-02   8.0965E-02   5.3299E-04  0.0139
   8.0965E-02   8.2935E-02   5.1466E-04  0.0140
   8.2935E-02   8.4953E-02   5.1296E-04  0.0138
   8.4953E-02   8.7020E-02   5.0440E-04  0.0138
   8.7020E-02   8.9138E-02   4.9238E-04  0.0138
   8.9138E-02   9.1306E-02   4.6888E-04  0.0139
   9.1306E-02   9.3528E-02   4.6245E-04  0.0139
   9.3528E-02   9.5804E-02   4.5562E-04  0.0138
   9.5804E-02   9.8134E-02   4.5889E-04  0.0136
   9.8134E-02   1.0052E-01   4.3279E-04  0.0138
   1.0052E-01   1.0297E-01   4.1709E-04  0.0139
   1.0297E-01   1.0547E-01   4.1998E-04  0.0137
   1.0547E-01   1.0804E-01   4.0876E-04  0.0137
   1.0804E-01   1.1067E-01   3.9143E-04  0.0139
   1.1067E-01   1.1336E-01   3.9759E-04  0.0136
   1.1336E-01   1.1612E-01   3.9054E-04  0.0136
   1.1612E-01   1.1894E-01   3.7862E-04  0.0136
   1.1894E-01   1.2184E-01   3.7348E-04  0.0135
   1.2184E-01   1.2480E-01   3.5545E-04  0.0137
   1.2480E-01   1.2784E-01   3.4201E-04  0.0138
   1.2784E-01   1.3095E-01   3.4997E-04  0.0135
   1.3095E-01   1.3414E-01   3.3813E-04  0.0135
   1.3414E-01   1.3740E-01   3.2277E-04  0.0137
   1.3740E-01   1.4074E-01   3.2289E-04  0.0135
   1.4074E-01   1.4417E-01   3.1081E-04  0.0136
   1.4417E-01   1.4767E-01   3.1142E-04  0.0135
   1.4767E-01   1.5127E-01   2.9230E-04  0.0137
   1.5127E-01   1.5495E-01   2.9059E-04  0.0136
   1.5495E-01   1.5872E-01   2.8235E-04  0.0136
   1.5872E-01   1.6258E-01   2.8409E-04  0.0134
   1.6258E-01   1.6654E-01   2.7831E-04  0.0134
   1.6654E-01   1.7059E-01   2.7640E-04  0.0133
   1.7059E-01   1.7474E-01   2.6137E-04  0.0135
   1.7474E-01   1.7899E-01   2.6066E-04  0.0134
   1.7899E-01   1.8334E-01   2.5454E-04  0.0134
   1.8334E-01   1.8781E-01   2.5364E-04  0.0132
   1.8781E-01   1.9237E-01   2.4257E-04  0.0133
   1.9237E-01   1.9706E-01   2.4673E-04  0.0131
   1.9706E-01   2.0185E-01   2.4096E-04  0.0131
   2.0185E-01   2.0676E-01   2.4075E-04  0.0129
   2.0676E-01   2.1179E-01   2.5680E-04  0.0124
   2.1179E-01   2.1694E-01   2.6602E-04  0.0120
   2.1694E-01   2.2222E-01   2.7660E-04  0.0116
   2.2222E-01   2.2763E-01   2.9112E-04  0.0112
   2.2763E-01   2.3317E-01   2.9636E-04  0.0110
   2.3317E-01   2.3884E-01   2.9971E-04  0.0108
   2.3884E-01   2.4465E-01   3.1404E-04  0.0104
   2.4465E-01   2.5061E-01   3.3262E-04  0.0100
   2.5061E-01   2.5670E-01   3.3627E-04  0.0098
   2.5670E-01   2.6295E-01   3.5186E-04  0.0095
   2.6295E-01   2.6935E-01   3.6290E-04  0.0092
   2.6935E-01   2.7590E-01   3.7479E-04  0.0090
   2.7590E-01   2.8261E-01   3.8945E-04  0.0087
   2.8261E-01   2.8949E-01   3.9492E-04  0.0085
   2.8949E-01   2.9653E-01   4.1410E-04  0.0082
   2.9653E-01   3.0375E-01   4.2830E-04  0.0080
   3.0375E-01   3.1114E-01   4.3826E-04  0.0078
   3.1114E-01   3.1871E-01   4.4599E-04  0.0076
   3.1871E-01   3.2646E-01   4.6299E-04  0.0074
   3.2646E-01   3.3441E-01   4.7791E-04  0.0072
   3.3441E-01   3.4254E-01   4.8977E-04  0.0070
   3.4254E-01   3.5088E-01   5.1382E-04  0.0068
   3.5088E-01   3.5941E-01   5.3620E-04  0.0066
   3.5941E-01   3.6816E-01   5.4229E-04  0.0064
   3.6816E-01   3.7712E-01   5.5510E-04  0.0063
   3.7712E-01   3.8629E-01   5.7428E-04  0.0061
   3.8629E-01   3.9569E-01   5.9577E-04  0.0059
   3.9569E-01   4.0532E-01   6.0586E-04  0.0058
   4.0532E-01   4.1518E-01   6.1772E-04  0.0057
   4.1518E-01   4.2528E-01   6.4411E-04  0.0055
   4.2528E-01   4.3563E-01   6.6070E-04  0.0054
   4.3563E-01   4.4623E-01   6.7326E-04  0.0053
   4.4623E-01   4.5708E-01   6.8489E-04  0.0051
   4.5708E-01   4.6821E-01   7.0715E-04  0.0050
   4.6821E-01   4.7960E-01   7.2917E-04  0.0049
   4.7960E-01   4.9127E-01   7.4731E-04  0.0048
   4.9127E-01   5.0322E-01   7.5774E-04  0.0047
   5.0322E-01   5.1546E-01   7.7311E-04  0.0046
   5.1546E-01   5.2800E-01   7.9501E-04  0.0044
   5.2800E-01   5.4085E-01   8.0501E-04  0.0044
   5.4085E-01   5.5401E-01   8.2529E-04  0.0043
   5.5401E-01   5.6749E-01   8.4244E-04  0.0042
   5.6749E-01   5.8130E-01   8.5367E-04  0.0041
   5.8130E-01   5.9544E-01   8.6886E-04  0.0040
   5.9544E-01   6.0993E-01   8.8657E-04  0.0039
   6.0993E-01   6.2477E-01   9.0576E-04  0.0038
   6.2477E-01   6.3997E-01   9.0745E-04  0.0038
   6.3997E-01   6.5554E-01   9.2911E-04  0.0037
   6.5554E-01   6.7149E-01   9.3566E-04  0.0036
   6.7149E-01   6.8783E-01   9.5212E-04  0.0036
   6.8783E-01   7.0456E-01   9.7398E-04  0.0035
   7.0456E-01   7.2171E-01   9.7955E-04  0.0034
   7.2171E-01   7.3927E-01   9.9578E-04  0.0034
   7.3927E-01   7.5725E-01   9.9501E-04  0.0033
   7.5725E-01   7.7568E-01   1.0070E-03  0.0033
   7.7568E-01   7.9455E-01   1.0166E-03  0.0032
   7.9455E-01   8.1388E-01   1.0265E-03  0.0031
   8.1388E-01   8.3368E-01   1.0364E-03  0.0031
   8.3368E-01   8.5397E-01   1.0478E-03  0.0030
   8.5397E-01   8.7475E-01   1.0509E-03  0.0030
   8.7475E-01   8.9603E-01   1.0591E-03  0.0030
   8.9603E-01   9.1783E-01   1.0638E-03  0.0029
   9.1783E-01   9.4016E-01   1.0698E-03  0.0029
   9.4016E-01   9.6304E-01   1.0790E-03  0.0028
   9.6304E-01   9.8647E-01   1.0833E-03  0.0028
   9.8647E-01   1.0105E+00   1.0792E-03  0.0028
   1.0105E+00   1.0351E+00   1.0702E-03  0.0027
   1.0351E+00   1.0602E+00   1.0608E-03  0.0027
   1.0602E+00   1.0860E+00   1.0453E-03  0.0027
   1.0860E+00   1.1125E+00   1.0404E-03  0.0027
   1.1125E+00   1.1395E+00   1.0324E-03  0.0026
   1.1395E+00   1.1673E+00   1.0304E-03  0.0026
   1.1673E+00   1.1957E+00   1.0368E-03  0.0026
   1.1957E+00   1.2247E+00   1.0387E-03  0.0025
   1.2247E+00   1.2545E+00   1.0172E-03  0.0025
   1.2545E+00   1.2851E+00   1.0039E-03  0.0025
   1.2851E+00   1.3163E+00   9.9238E-04  0.0025
   1.3163E+00   1.3484E+00   9.8679E-04  0.0025
   1.3484E+00   1.3812E+00   9.7916E-04  0.0025
   1.3812E+00   1.4148E+00   9.7880E-04  0.0024
   1.4148E+00   1.4492E+00   9.7053E-04  0.0024
   1.4492E+00   1.4845E+00   9.6699E-04  0.0024
   1.4845E+00   1.5206E+00   9.6037E-04  0.0024
   1.5206E+00   1.5576E+00   9.3731E-04  0.0024
   1.5576E+00   1.5955E+00   9.2013E-04  0.0024
   1.5955E+00   1.6343E+00   8.9561E-04  0.0024
   1.6343E+00   1.6741E+00   8.8094E-04  0.0024
   1.6741E+00   1.7148E+00   8.5985E-04  0.0024
   1.7148E+00   1.7565E+00   8.4702E-04  0.0024
   1.7565E+00   1.7992E+00   8.3260E-04  0.0023
   1.7992E+00   1.8430E+00   8.2553E-04  0.0023
   1.8430E+00   1.8879E+00   8.1044E-04  0.0023
   1.8879E+00   1.9338E+00   7.9404E-04  0.0023
   1.9338E+00   1.9808E+00   7.8177E-04  0.0023
   1.9808E+00   2.0290E+00   7.7135E-04  0.0023
   2.0290E+00   2.0784E+00   7.5428E-04  0.0023
   2.0784E+00   2.1290E+00   7.3266E-04  0.0023
   2.1290E+00   2.1808E+00   7.1550E-04  0.0023
   2.1808E+00   2.2338E+00   6.9499E-04  0.0023
   2.2338E+00   2.2882E+00   6.7559E-04  0.0023
   2.2882E+00   2.3439E+00   6.5856E-04  0.0023
   2.3439E+00   2.4009E+00   6.4755E-04  0.0023
   2.4009E+00   2.4593E+00   6.3822E-04  0.0023
   2.4593E+00   2.5191E+00   6.2544E-04  0.0023
   2.5191E+00   2.5804E+00   6.1133E-04  0.0023
   2.5804E+00   2.6432E+00   5.9533E-04  0.0023
   2.6432E+00   2.7075E+00   5.8096E-04  0.0023
   2.7075E+00   2.7734E+00   5.6032E-04  0.0023
   2.7734E+00   2.8409E+00   5.4603E-04  0.0023
   2.8409E+00   2.9100E+00   5.3107E-04  0.0023
   2.9100E+00   2.9808E+00   5.1706E-04  0.0023
   2.9808E+00   3.0533E+00   5.0816E-04  0.0023
   3.0533E+00   3.1276E+00   4.9084E-04  0.0023
   3.1276E+00   3.2037E+00   4.7745E-04  0.0023
   3.2037E+00   3.2817E+00   4.6064E-04  0.0023
   3.2817E+00   3.3615E+00   4.4765E-04  0.0023
   3.3615E+00   3.4433E+00   4.3563E-04  0.0023
   3.4433E+00   3.5271E+00   4.2662E-04  0.0023
   3.5271E+00   3.6129E+00   4.1453E-04  0.0023
   3.6129E+00   3.7008E+00   4.0357E-04  0.0023
   3.7008E+00   3.7908E+00   3.9034E-04  0.0024
   3.7908E+00   3.8831E+00   3.8240E-04  0.0024
   3.8831E+00   3.9776E+00   3.7364E-04  0.0024
   3.9776E+00   4.0743E+00   3.6496E-04  0.0023
   4.0743E+00   4.1735E+00   3.5744E-04  0.0023
   4.1735E+00   4.2750E+00   3.4833E-04  0.0023
   4.2750E+00   4.3790E+00   3.4332E-04  0.0023
   4.3790E+00   4.4856E+00   3.3533E-04  0.0023
   4.4856E+00   4.5947E+00   3.3102E-04  0.0023
   4.5947E+00   4.7065E+00   3.2428E-04  0.0023
   4.7065E+00   4.8210E+00   3.1649E-04  0.0023
   4.8210E+00   4.9383E+00   3.0847E-04  0.0023
   4.9383E+00   5.0585E+00   3.0270E-04  0.0023
   5.0585E+00   5.1815E+00   2.9668E-04  0.0023
   5.1815E+00   5.3076E+00   2.8770E-04  0.0023
   5.3076E+00   5.4368E+00   2.7992E-04  0.0023
   5.4368E+00   5.5690E+00   2.7263E-04  0.0023
   5.5690E+00   5.7045E+00   2.6348E-04  0.0023
   5.7045E+00   5.8433E+00   2.5493E-04  0.0024
   5.8433E+00   5.9855E+00   2.4700E-04  0.0024
   5.9855E+00   6.1311E+00   2.3864E-04  0.0024
   6.1311E+00   6.2803E+00   2.3115E-04  0.0024
   6.2803E+00   6.4331E+00   2.2227E-04  0.0024
   6.4331E+00   6.5896E+00   2.1463E-04  0.0024
   6.5896E+00   6.7500E+00   2.0731E-04  0.0024
   6.7500E+00   6.9142E+00   2.0032E-04  0.0024
   6.9142E+00   7.0824E+00   1.9303E-04  0.0025
   7.0824E+00   7.2548E+00   1.8556E-04  0.0025
   7.2548E+00   7.4313E+00   1.7978E-04  0.0025
   7.4313E+00   7.6121E+00   1.7330E-04  0.0025
   7.6121E+00   7.7973E+00   1.6632E-04  0.0025
   7.7973E+00   7.9870E+00   1.5969E-04  0.0026
   7.9870E+00   8.1813E+00   1.5381E-04  0.0026
   8.1813E+00   8.3804E+00   1.4895E-04  0.0026
   8.3804E+00   8.5843E+00   1.4138E-04  0.0026
   8.5843E+00   8.7931E+00   1.3632E-04  0.0026
   8.7931E+00   9.0071E+00   1.3144E-04  0.0027
   9.0071E+00   9.2262E+00   1.2563E-04  0.0027
   9.2262E+00   9.4507E+00   1.2077E-04  0.0027
   9.4507E+00   9.6807E+00   1.1504E-04  0.0027
   9.6807E+00   9.9162E+00   1.1098E-04  0.0028
   9.9162E+00   1.0157E+01   1.0557E-04  0.0028
   1.0157E+01   1.0405E+01   1.0126E-04  0.0028
   1.0405E+01   1.0658E+01   9.6064E-05  0.0029
   1.0658E+01   1.0917E+01   9.2284E-05  0.0029
   1.0917E+01   1.1183E+01   8.7356E-05  0.0029
   1.1183E+01   1.1455E+01   8.3575E-05  0.0030
   1.1455E+01   1.1733E+01   7.9678E-05  0.0030
   1.1733E+01   1.2019E+01   7.5657E-05  0.0030
   1.2019E+01   1.2311E+01   7.1902E-05  0.0031
   1.2311E+01   1.2611E+01   6.8713E-05  0.0031
   1.2611E+01   1.2918E+01   6.4932E-05  0.0032
   1.2918E+01   1.3232E+01   6.1300E-05  0.0032
   1.3232E+01   1.3554E+01   5.7725E-05  0.0033
   1.3554E+01   1.3884E+01   5.4901E-05  0.0033
   1.3884E+01   1.4222E+01   5.1978E-05  0.0034
   1.4222E+01   1.4568E+01   4.9025E-05  0.0034
   1.4568E+01   1.4922E+01   4.6330E-05  0.0035
   1.4922E+01   1.5285E+01   4.3507E-05  0.0036
   1.5285E+01   1.5657E+01   4.1133E-05  0.0036
   1.5657E+01   1.6038E+01   3.8481E-05  0.0037
   1.6038E+01   1.6428E+01   3.6296E-05  0.0038
   1.6428E+01   1.6828E+01   3.4019E-05  0.0038
   1.6828E+01   1.7237E+01   3.1609E-05  0.0039
   1.7237E+01   1.7657E+01   2.9965E-05  0.0040
   1.7657E+01   1.8086E+01   2.7879E-05  0.0041
   1.8086E+01   1.8526E+01   2.5923E-05  0.0042
   1.8526E+01   1.8977E+01   2.4367E-05  0.0043
   1.8977E+01   1.9439E+01   2.3090E-05  0.0043
   1.9439E+01   1.9912E+01   2.2422E-05  0.0043
   1.9912E+01   2.0396E+01   2.1131E-05  0.0044
   2.0396E+01   2.0893E+01   1.9770E-05  0.0045
   2.0893E+01   2.1401E+01   1.8242E-05  0.0046
   2.1401E+01   2.1922E+01   1.6787E-05  0.0048
   2.1922E+01   2.2455E+01   1.5374E-05  0.0049
   2.2455E+01   2.3001E+01   1.4058E-05  0.0051
   2.3001E+01   2.3561E+01   1.2836E-05  0.0053
   2.3561E+01   2.4134E+01   1.1625E-05  0.0055
   2.4134E+01   2.4721E+01   1.0563E-05  0.0057
   2.4721E+01   2.5323E+01   9.4438E-06  0.0059
   2.5323E+01   2.5939E+01   8.5122E-06  0.0062
   2.5939E+01   2.6570E+01   7.5707E-06  0.0065
   2.6570E+01   2.7217E+01   6.7028E-06  0.0068
   2.7217E+01   2.7879E+01   5.8979E-06  0.0072
   2.7879E+01   2.8557E+01   5.2857E-06  0.0075
   2.8557E+01   2.9252E+01   4.6876E-06  0.0078
   2.9252E+01   2.9964E+01   4.0875E-06  0.0083
   2.9964E+01   3.0693E+01   3.6379E-06  0.0087
   3.0693E+01   3.1440E+01   3.1375E-06  0.0092
   3.1440E+01   3.2205E+01   2.6791E-06  0.0099
   3.2205E+01   3.2988E+01   2.3633E-06  0.0104
   3.2988E+01   3.3791E+01   2.0563E-06  0.0110
   3.3791E+01   3.4613E+01   1.7561E-06  0.0118
   3.4613E+01   3.5455E+01   1.5128E-06  0.0125
   3.5455E+01   3.6318E+01   1.3030E-06  0.0133
   3.6318E+01   3.7201E+01   1.1217E-06  0.0142
   3.7201E+01   3.8106E+01   9.6781E-07  0.0151
   3.8106E+01   3.9034E+01   8.3394E-07  0.0161
   3.9034E+01   3.9983E+01   6.9073E-07  0.0175
   3.9983E+01   4.0956E+01   5.6865E-07  0.0190
   4.0956E+01   4.1953E+01   4.7346E-07  0.0206
   4.1953E+01   4.2973E+01   3.9697E-07  0.0222
   4.2973E+01   4.4019E+01   3.3168E-07  0.0240
   4.4019E+01   4.5090E+01   2.4967E-07  0.0273
   4.5090E+01   4.6187E+01   2.0144E-07  0.0301
   4.6187E+01   4.7311E+01   1.7050E-07  0.0323
   4.7311E+01   4.8462E+01   1.1745E-07  0.0385
   4.8462E+01   4.9641E+01   1.0516E-07  0.0402
   4.9641E+01   5.0849E+01   7.0541E-08  0.0485
   5.0849E+01   5.2086E+01   4.9467E-08  0.0572
   5.2086E+01   5.3353E+01   4.1979E-08  0.0613
   5.3353E+01   5.4651E+01   3.0351E-08  0.0712
   5.4651E+01   5.5981E+01   2.2110E-08  0.0825
   5.5981E+01   5.7343E+01   1.8208E-08  0.0898
   5.7343E+01   5.8738E+01   1.2041E-08  0.1091
   5.8738E+01   6.0168E+01   8.8164E-09  0.1260
   6.0168E+01   6.1632E+01   6.5577E-09  0.1443
   6.1632E+01   6.3131E+01   3.0676E-09  0.2085
   6.3131E+01   6.4667E+01   2.8645E-09  0.2132
   6.4667E+01   6.6240E+01   2.6694E-09  0.2182
   6.6240E+01   6.7852E+01   8.6866E-10  0.3780
   6.7852E+01   6.9503E+01   1.0903E-09  0.3333
   6.9503E+01   7.1194E+01   4.7307E-10  0.5000
   7.1194E+01   7.2926E+01   1.1546E-10  1.0000
   7.2926E+01   7.4701E+01   0.0000E+00  0.0000
   7.4701E+01   7.6518E+01   1.1004E-10  1.0000
   7.6518E+01   7.8380E+01   0.0000E+00  0.0000
   7.8380E+01   8.0287E+01   0.0000E+00  0.0000
   8.0287E+01   8.2240E+01   0.0000E+00  0.0000
   8.2240E+01   8.4241E+01   0.0000E+00  0.0000
   8.4241E+01   8.6291E+01   0.0000E+00  0.0000
   8.6291E+01   8.8391E+01   0.0000E+00  0.0000
   8.8391E+01   9.0541E+01   0.0000E+00  0.0000
   9.0541E+01   9.2744E+01   0.0000E+00  0.0000
   9.2744E+01   9.5001E+01   0.0000E+00  0.0000
   9.5001E+01   9.7312E+01   0.0000E+00  0.0000
   9.7312E+01   9.9680E+01   0.0000E+00  0.0000
   9.9680E+01   1.0211E+02   0.0000E+00  0.0000
   1.0211E+02   1.0459E+02   0.0000E+00  0.0000
   1.0459E+02   1.0713E+02   0.0000E+00  0.0000
   1.0713E+02   1.0974E+02   0.0000E+00  0.0000
   1.0974E+02   1.1241E+02   0.0000E+00  0.0000
   1.1241E+02   1.1515E+02   0.0000E+00  0.0000
   1.1515E+02   1.1795E+02   0.0000E+00  0.0000
   1.1795E+02   1.2082E+02   0.0000E+00  0.0000
   1.2082E+02   1.2376E+02   0.0000E+00  0.0000
   1.2376E+02   1.2677E+02   0.0000E+00  0.0000
   1.2677E+02   1.2985E+02   0.0000E+00  0.0000
   1.2985E+02   1.3301E+02   0.0000E+00  0.0000
   1.3301E+02   1.3625E+02   0.0000E+00  0.0000
   1.3625E+02   1.3956E+02   0.0000E+00  0.0000
   1.3956E+02   1.4296E+02   0.0000E+00  0.0000
   1.4296E+02   1.4644E+02   0.0000E+00  0.0000
   1.4644E+02   1.5000E+02   0.0000E+00  0.0000

#   sum over                 3.0871E-05
'no. =    1   reg = 117 - 217'
msuc: {\huge [t-cross] in region mesh}
msdr: {\it plotted by \ANGEL \version}
msdl: {\it calculated by \PHITS  3.28}
wt: s(0.7)
\vspace{-3}
  region surface crossing
  area  &=&   1.0000E+00 [cm^2]
e:
 
# Information for Restart Calculation
# This calculation was newly started
# istdev =  2 # 1:Batch variance, 2:History variance
# resc2  = 5.00000000000000000E+09 # Total source weight or Total source weight / maxcas
# resc3  = 5.00000000000000000E+09 # Total history number or Total batch number
# maxcas =   500000000 # History / Batch, only used for istdev=1
# bitrseed = 0110100000100010111000001110001111001110100100011111101000111001 # bit data of rseed
