[ T-Cross ]
    title = [t-cross] in region mesh
     mesh =  reg            # mesh type is region-wise
      reg =    1            # number of crossing regions
      non     r-from    r-to       area
      1       115       215        1.000000    
   e-type =    3            # e-mesh is log given by emin, emax and ne
     emin =  1.0000000E-02  # minimum value of e-mesh points
     emax =   150.0000      # maximum value of e-mesh points
#    edel =  2.4039514E-02  # mesh width of e-mesh points
       ne =    400          # number of e-mesh points
#    data = ( e(i), i = 1, ne + 1 )
#           1.00000E-02  1.02433E-02  1.04925E-02  1.07478E-02  1.10093E-02
#           1.12772E-02  1.15516E-02  1.18326E-02  1.21205E-02  1.24154E-02
#           1.27175E-02  1.30269E-02  1.33439E-02  1.36686E-02  1.40011E-02
#           1.43418E-02  1.46907E-02  1.50482E-02  1.54143E-02  1.57894E-02
#           1.61735E-02  1.65670E-02  1.69701E-02  1.73830E-02  1.78060E-02
#           1.82392E-02  1.86830E-02  1.91375E-02  1.96032E-02  2.00801E-02
#           2.05687E-02  2.10692E-02  2.15818E-02  2.21069E-02  2.26448E-02
#           2.31957E-02  2.37601E-02  2.43382E-02  2.49304E-02  2.55369E-02
#           2.61583E-02  2.67947E-02  2.74467E-02  2.81145E-02  2.87985E-02
#           2.94992E-02  3.02169E-02  3.09521E-02  3.17052E-02  3.24766E-02
#           3.32668E-02  3.40762E-02  3.49053E-02  3.57546E-02  3.66246E-02
#           3.75157E-02  3.84284E-02  3.93634E-02  4.03212E-02  4.13022E-02
#           4.23071E-02  4.33365E-02  4.43909E-02  4.54710E-02  4.65773E-02
#           4.77106E-02  4.88714E-02  5.00605E-02  5.12785E-02  5.25262E-02
#           5.38042E-02  5.51133E-02  5.64542E-02  5.78278E-02  5.92348E-02
#           6.06760E-02  6.21523E-02  6.36645E-02  6.52135E-02  6.68002E-02
#           6.84255E-02  7.00904E-02  7.17957E-02  7.35426E-02  7.53319E-02
#           7.71648E-02  7.90423E-02  8.09655E-02  8.29354E-02  8.49533E-02
#           8.70203E-02  8.91376E-02  9.13064E-02  9.35279E-02  9.58035E-02
#           9.81345E-02  1.00522E-01  1.02968E-01  1.05473E-01  1.08040E-01
#           1.10668E-01  1.13361E-01  1.16119E-01  1.18944E-01  1.21838E-01
#           1.24803E-01  1.27839E-01  1.30950E-01  1.34136E-01  1.37399E-01
#           1.40742E-01  1.44167E-01  1.47675E-01  1.51268E-01  1.54948E-01
#           1.58718E-01  1.62580E-01  1.66535E-01  1.70587E-01  1.74738E-01
#           1.78989E-01  1.83344E-01  1.87805E-01  1.92375E-01  1.97055E-01
#           2.01850E-01  2.06761E-01  2.11792E-01  2.16945E-01  2.22223E-01
#           2.27630E-01  2.33169E-01  2.38842E-01  2.44653E-01  2.50605E-01
#           2.56703E-01  2.62949E-01  2.69346E-01  2.75900E-01  2.82613E-01
#           2.89489E-01  2.96532E-01  3.03747E-01  3.11138E-01  3.18708E-01
#           3.26462E-01  3.34405E-01  3.42542E-01  3.50876E-01  3.59413E-01
#           3.68158E-01  3.77116E-01  3.86291E-01  3.95690E-01  4.05317E-01
#           4.15179E-01  4.25281E-01  4.35628E-01  4.46227E-01  4.57084E-01
#           4.68205E-01  4.79597E-01  4.91266E-01  5.03219E-01  5.15463E-01
#           5.28005E-01  5.40851E-01  5.54011E-01  5.67490E-01  5.81298E-01
#           5.95441E-01  6.09929E-01  6.24769E-01  6.39970E-01  6.55541E-01
#           6.71491E-01  6.87828E-01  7.04564E-01  7.21706E-01  7.39266E-01
#           7.57253E-01  7.75678E-01  7.94551E-01  8.13883E-01  8.33685E-01
#           8.53969E-01  8.74747E-01  8.96030E-01  9.17831E-01  9.40163E-01
#           9.63038E-01  9.86469E-01  1.01047E+00  1.03506E+00  1.06024E+00
#           1.08604E+00  1.11246E+00  1.13953E+00  1.16725E+00  1.19565E+00
#           1.22474E+00  1.25454E+00  1.28507E+00  1.31633E+00  1.34836E+00
#           1.38117E+00  1.41477E+00  1.44920E+00  1.48446E+00  1.52057E+00
#           1.55757E+00  1.59547E+00  1.63429E+00  1.67405E+00  1.71478E+00
#           1.75650E+00  1.79924E+00  1.84302E+00  1.88786E+00  1.93379E+00
#           1.98084E+00  2.02904E+00  2.07841E+00  2.12898E+00  2.18078E+00
#           2.23384E+00  2.28819E+00  2.34386E+00  2.40089E+00  2.45930E+00
#           2.51914E+00  2.58043E+00  2.64322E+00  2.70753E+00  2.77341E+00
#           2.84088E+00  2.91001E+00  2.98081E+00  3.05333E+00  3.12762E+00
#           3.20372E+00  3.28167E+00  3.36152E+00  3.44330E+00  3.52708E+00
#           3.61290E+00  3.70080E+00  3.79085E+00  3.88308E+00  3.97756E+00
#           4.07434E+00  4.17347E+00  4.27501E+00  4.37903E+00  4.48557E+00
#           4.59471E+00  4.70650E+00  4.82102E+00  4.93832E+00  5.05847E+00
#           5.18155E+00  5.30762E+00  5.43676E+00  5.56904E+00  5.70453E+00
#           5.84333E+00  5.98550E+00  6.13114E+00  6.28031E+00  6.43312E+00
#           6.58964E+00  6.74997E+00  6.91420E+00  7.08243E+00  7.25475E+00
#           7.43126E+00  7.61207E+00  7.79728E+00  7.98700E+00  8.18133E+00
#           8.38038E+00  8.58428E+00  8.79315E+00  9.00709E+00  9.22624E+00
#           9.45072E+00  9.68067E+00  9.91620E+00  1.01575E+01  1.04046E+01
#           1.06578E+01  1.09171E+01  1.11827E+01  1.14548E+01  1.17335E+01
#           1.20190E+01  1.23114E+01  1.26109E+01  1.29178E+01  1.32321E+01
#           1.35540E+01  1.38838E+01  1.42216E+01  1.45676E+01  1.49221E+01
#           1.52851E+01  1.56570E+01  1.60380E+01  1.64282E+01  1.68279E+01
#           1.72374E+01  1.76568E+01  1.80864E+01  1.85264E+01  1.89772E+01
#           1.94389E+01  1.99119E+01  2.03963E+01  2.08926E+01  2.14009E+01
#           2.19216E+01  2.24550E+01  2.30014E+01  2.35610E+01  2.41343E+01
#           2.47215E+01  2.53230E+01  2.59391E+01  2.65702E+01  2.72167E+01
#           2.78789E+01  2.85572E+01  2.92520E+01  2.99637E+01  3.06928E+01
#           3.14396E+01  3.22045E+01  3.29881E+01  3.37907E+01  3.46128E+01
#           3.54550E+01  3.63177E+01  3.72013E+01  3.81064E+01  3.90336E+01
#           3.99833E+01  4.09561E+01  4.19526E+01  4.29734E+01  4.40189E+01
#           4.50900E+01  4.61870E+01  4.73108E+01  4.84619E+01  4.96410E+01
#           5.08488E+01  5.20860E+01  5.33533E+01  5.46514E+01  5.59812E+01
#           5.73432E+01  5.87384E+01  6.01676E+01  6.16315E+01  6.31311E+01
#           6.46671E+01  6.62405E+01  6.78522E+01  6.95031E+01  7.11941E+01
#           7.29263E+01  7.47007E+01  7.65182E+01  7.83800E+01  8.02870E+01
#           8.22405E+01  8.42414E+01  8.62911E+01  8.83906E+01  9.05412E+01
#           9.27442E+01  9.50007E+01  9.73122E+01  9.96799E+01  1.02105E+02
#           1.04589E+02  1.07134E+02  1.09741E+02  1.12411E+02  1.15146E+02
#           1.17948E+02  1.20817E+02  1.23757E+02  1.26768E+02  1.29852E+02
#           1.33012E+02  1.36248E+02  1.39563E+02  1.42959E+02  1.46437E+02
#           1.50000E+02
     unit =    2            # unit is [1/cm^2/(MeV/n)/source]
     axis =  eng            # axis of output
     file = detector-16.out  # file name of output for the above axis
   output = f-curr          # surface crossing forward current spectrum
     part =  neutron  
# kf/name :  2112     
#    used :        main (  %)        temp (  %)       total (  %)
#  memory :         414 (  0)           0 (  0)         414 (  0)

#------------------------------------------------------------------------------
#newpage:
#   no. =    1   reg = 115 - 215

x: Energy [MeV/n]
y:  F-Curr [1/cm^2/(MeV/n)/source]         
p: xlog ylog afac(0.8) form(0.9)
h: n            x            y(neutron ),hh0l   n 
#  e-lower      e-upper      neutron     r.err 
   1.0000E-02   1.0243E-02   6.2061E-04  0.1149
   1.0243E-02   1.0493E-02   6.5525E-04  0.1104
   1.0493E-02   1.0748E-02   6.3593E-04  0.1109
   1.0748E-02   1.1009E-02   5.6095E-04  0.1161
   1.1009E-02   1.1277E-02   6.4727E-04  0.1072
   1.1277E-02   1.1552E-02   5.7706E-04  0.1123
   1.1552E-02   1.1833E-02   5.3769E-04  0.1147
   1.1833E-02   1.2121E-02   4.7715E-04  0.1203
   1.2121E-02   1.2415E-02   5.0074E-04  0.1160
   1.2415E-02   1.2718E-02   4.9223E-04  0.1158
   1.2718E-02   1.3027E-02   4.8153E-04  0.1157
   1.3027E-02   1.3344E-02   6.1838E-04  0.1010
   1.3344E-02   1.3669E-02   5.3086E-04  0.1076
   1.3669E-02   1.4001E-02   4.4091E-04  0.1166
   1.4001E-02   1.4342E-02   4.9514E-04  0.1087
   1.4342E-02   1.4691E-02   4.9864E-04  0.1072
   1.4691E-02   1.5048E-02   4.8120E-04  0.1078
   1.5048E-02   1.5414E-02   4.6606E-04  0.1081
   1.5414E-02   1.5789E-02   4.8499E-04  0.1045
   1.5789E-02   1.6174E-02   4.7896E-04  0.1043
   1.6174E-02   1.6567E-02   4.4725E-04  0.1066
   1.6567E-02   1.6970E-02   4.1778E-04  0.1089
   1.6970E-02   1.7383E-02   4.4974E-04  0.1035
   1.7383E-02   1.7806E-02   5.3121E-04  0.0942
   1.7806E-02   1.8239E-02   4.4549E-04  0.1017
   1.8239E-02   1.8683E-02   4.9575E-04  0.0953
   1.8683E-02   1.9138E-02   4.4522E-04  0.0993
   1.9138E-02   1.9603E-02   4.2446E-04  0.1003
   1.9603E-02   2.0080E-02   4.3046E-04  0.0985
   2.0080E-02   2.0569E-02   4.1403E-04  0.0994
   2.0569E-02   2.1069E-02   3.4485E-04  0.1075
   2.1069E-02   2.1582E-02   3.8481E-04  0.1005
   2.1582E-02   2.2107E-02   4.3801E-04  0.0930
   2.2107E-02   2.2645E-02   3.5941E-04  0.1015
   2.2645E-02   2.3196E-02   4.2471E-04  0.0923
   2.3196E-02   2.3760E-02   4.1751E-04  0.0919
   2.3760E-02   2.4338E-02   3.6904E-04  0.0966
   2.4338E-02   2.4930E-02   3.9854E-04  0.0919
   2.4930E-02   2.5537E-02   3.2034E-04  0.1014
   2.5537E-02   2.6158E-02   3.0257E-04  0.1031
   2.6158E-02   2.6795E-02   2.8532E-04  0.1047
   2.6795E-02   2.7447E-02   3.3181E-04  0.0961
   2.7447E-02   2.8114E-02   3.0940E-04  0.0983
   2.8114E-02   2.8799E-02   2.7922E-04  0.1022
   2.8799E-02   2.9499E-02   2.9492E-04  0.0982
   2.9499E-02   3.0217E-02   3.2792E-04  0.0920
   3.0217E-02   3.0952E-02   2.8809E-04  0.0968
   3.0952E-02   3.1705E-02   3.0784E-04  0.0926
   3.1705E-02   3.2477E-02   2.8363E-04  0.0952
   3.2477E-02   3.3267E-02   2.8095E-04  0.0947
   3.3267E-02   3.4076E-02   2.6766E-04  0.0960
   3.4076E-02   3.4905E-02   2.6814E-04  0.0948
   3.4905E-02   3.5755E-02   2.5112E-04  0.0967
   3.5755E-02   3.6625E-02   2.5894E-04  0.0940
   3.6625E-02   3.7516E-02   2.5362E-04  0.0941
   3.7516E-02   3.8428E-02   2.9397E-04  0.0863
   3.8428E-02   3.9363E-02   2.8055E-04  0.0873
   3.9363E-02   4.0321E-02   2.7808E-04  0.0866
   4.0321E-02   4.1302E-02   2.4869E-04  0.0903
   4.1302E-02   4.2307E-02   2.1535E-04  0.0961
   4.2307E-02   4.3337E-02   2.1406E-04  0.0950
   4.3337E-02   4.4391E-02   2.1560E-04  0.0936
   4.4391E-02   4.5471E-02   2.2900E-04  0.0896
   4.5471E-02   4.6577E-02   2.2416E-04  0.0898
   4.6577E-02   4.7711E-02   2.3081E-04  0.0872
   4.7711E-02   4.8871E-02   2.3383E-04  0.0857
   4.8871E-02   5.0061E-02   2.1916E-04  0.0875
   5.0061E-02   5.1279E-02   2.5168E-04  0.0806
   5.1279E-02   5.2526E-02   1.9743E-04  0.0899
   5.2526E-02   5.3804E-02   2.2031E-04  0.0841
   5.3804E-02   5.5113E-02   2.0950E-04  0.0854
   5.5113E-02   5.6454E-02   1.9175E-04  0.0879
   5.6454E-02   5.7828E-02   2.0411E-04  0.0841
   5.7828E-02   5.9235E-02   1.8826E-04  0.0868
   5.9235E-02   6.0676E-02   1.8047E-04  0.0875
   6.0676E-02   6.2152E-02   1.6257E-04  0.0913
   6.2152E-02   6.3665E-02   1.9614E-04  0.0820
   6.3665E-02   6.5214E-02   1.8914E-04  0.0825
   6.5214E-02   6.6800E-02   1.5186E-04  0.0910
   6.6800E-02   6.8426E-02   1.7666E-04  0.0833
   6.8426E-02   7.0090E-02   1.6999E-04  0.0839
   7.0090E-02   7.1796E-02   1.5733E-04  0.0863
   7.1796E-02   7.3543E-02   1.4238E-04  0.0896
   7.3543E-02   7.5332E-02   1.6285E-04  0.0825
   7.5332E-02   7.7165E-02   1.8034E-04  0.0776
   7.7165E-02   7.9042E-02   1.3989E-04  0.0872
   7.9042E-02   8.0965E-02   1.5176E-04  0.0826
   8.0965E-02   8.2935E-02   1.5651E-04  0.0804
   8.2935E-02   8.4953E-02   1.3410E-04  0.0855
   8.4953E-02   8.7020E-02   1.2171E-04  0.0889
   8.7020E-02   8.9138E-02   1.4342E-04  0.0810
   8.9138E-02   9.1306E-02   1.2850E-04  0.0846
   9.1306E-02   9.3528E-02   1.2269E-04  0.0856
   9.3528E-02   9.5804E-02   1.4421E-04  0.0779
   9.5804E-02   9.8134E-02   1.2172E-04  0.0838
   9.8134E-02   1.0052E-01   1.2846E-04  0.0807
   1.0052E-01   1.0297E-01   1.0549E-04  0.0879
   1.0297E-01   1.0547E-01   1.1640E-04  0.0827
   1.0547E-01   1.0804E-01   1.0812E-04  0.0847
   1.0804E-01   1.1067E-01   1.1322E-04  0.0818
   1.1067E-01   1.1336E-01   1.0958E-04  0.0822
   1.1336E-01   1.1612E-01   1.0547E-04  0.0825
   1.1612E-01   1.1894E-01   9.6649E-05  0.0854
   1.1894E-01   1.2184E-01   1.0240E-04  0.0820
   1.2184E-01   1.2480E-01   1.0455E-04  0.0802
   1.2480E-01   1.2784E-01   9.7663E-05  0.0821
   1.2784E-01   1.3095E-01   9.6900E-05  0.0813
   1.3095E-01   1.3414E-01   1.0941E-04  0.0757
   1.3414E-01   1.3740E-01   8.7722E-05  0.0834
   1.3740E-01   1.4074E-01   9.6618E-05  0.0786
   1.4074E-01   1.4417E-01   8.9149E-05  0.0808
   1.4417E-01   1.4767E-01   9.6536E-05  0.0767
   1.4767E-01   1.5127E-01   8.9506E-05  0.0787
   1.5127E-01   1.5495E-01   7.8324E-05  0.0831
   1.5495E-01   1.5872E-01   7.9595E-05  0.0815
   1.5872E-01   1.6258E-01   8.5465E-05  0.0777
   1.6258E-01   1.6654E-01   7.7510E-05  0.0807
   1.6654E-01   1.7059E-01   6.4743E-05  0.0873
   1.7059E-01   1.7474E-01   7.4211E-05  0.0804
   1.7474E-01   1.7899E-01   6.3412E-05  0.0860
   1.7899E-01   1.8334E-01   7.0942E-05  0.0804
   1.8334E-01   1.8781E-01   7.8383E-05  0.0755
   1.8781E-01   1.9237E-01   6.2851E-05  0.0833
   1.9237E-01   1.9706E-01   7.0349E-05  0.0778
   1.9706E-01   2.0185E-01   6.3331E-05  0.0808
   2.0185E-01   2.0676E-01   6.8060E-05  0.0772
   2.0676E-01   2.1179E-01   7.4453E-05  0.0728
   2.1179E-01   2.1694E-01   7.2586E-05  0.0730
   2.1694E-01   2.2222E-01   7.4454E-05  0.0713
   2.2222E-01   2.2763E-01   7.7977E-05  0.0688
   2.2763E-01   2.3317E-01   7.8010E-05  0.0679
   2.3317E-01   2.3884E-01   8.4619E-05  0.0644
   2.3884E-01   2.4465E-01   8.1716E-05  0.0648
   2.4465E-01   2.5061E-01   8.5459E-05  0.0627
   2.5061E-01   2.5670E-01   9.7360E-05  0.0580
   2.5670E-01   2.6295E-01   8.5902E-05  0.0609
   2.6295E-01   2.6935E-01   1.0724E-04  0.0539
   2.6935E-01   2.7590E-01   9.9506E-05  0.0553
   2.7590E-01   2.8261E-01   9.7425E-05  0.0552
   2.8261E-01   2.8949E-01   9.8407E-05  0.0543
   2.8949E-01   2.9653E-01   1.0806E-04  0.0511
   2.9653E-01   3.0375E-01   1.0078E-04  0.0523
   3.0375E-01   3.1114E-01   1.0362E-04  0.0509
   3.1114E-01   3.1871E-01   1.2474E-04  0.0459
   3.1871E-01   3.2646E-01   1.1536E-04  0.0471
   3.2646E-01   3.3441E-01   1.2199E-04  0.0453
   3.3441E-01   3.4254E-01   1.1809E-04  0.0455
   3.4254E-01   3.5088E-01   1.2480E-04  0.0438
   3.5088E-01   3.5941E-01   1.3192E-04  0.0421
   3.5941E-01   3.6816E-01   1.3998E-04  0.0403
   3.6816E-01   3.7712E-01   1.3233E-04  0.0411
   3.7712E-01   3.8629E-01   1.4066E-04  0.0392
   3.8629E-01   3.9569E-01   1.4822E-04  0.0378
   3.9569E-01   4.0532E-01   1.4800E-04  0.0374
   4.0532E-01   4.1518E-01   1.4879E-04  0.0368
   4.1518E-01   4.2528E-01   1.6039E-04  0.0350
   4.2528E-01   4.3563E-01   1.6378E-04  0.0343
   4.3563E-01   4.4623E-01   1.5865E-04  0.0344
   4.4623E-01   4.5708E-01   1.5949E-04  0.0339
   4.5708E-01   4.6821E-01   1.7339E-04  0.0321
   4.6821E-01   4.7960E-01   1.8278E-04  0.0309
   4.7960E-01   4.9127E-01   1.6666E-04  0.0320
   4.9127E-01   5.0322E-01   1.8389E-04  0.0301
   5.0322E-01   5.1546E-01   1.7836E-04  0.0302
   5.1546E-01   5.2800E-01   1.8538E-04  0.0292
   5.2800E-01   5.4085E-01   1.8390E-04  0.0290
   5.4085E-01   5.5401E-01   1.9754E-04  0.0277
   5.5401E-01   5.6749E-01   1.9628E-04  0.0274
   5.6749E-01   5.8130E-01   2.0605E-04  0.0265
   5.8130E-01   5.9544E-01   2.0185E-04  0.0264
   5.9544E-01   6.0993E-01   2.0979E-04  0.0256
   6.0993E-01   6.2477E-01   2.1475E-04  0.0250
   6.2477E-01   6.3997E-01   2.0494E-04  0.0253
   6.3997E-01   6.5554E-01   2.1403E-04  0.0244
   6.5554E-01   6.7149E-01   2.1189E-04  0.0243
   6.7149E-01   6.8783E-01   2.2101E-04  0.0235
   6.8783E-01   7.0456E-01   2.2477E-04  0.0230
   7.0456E-01   7.2171E-01   2.3966E-04  0.0220
   7.2171E-01   7.3927E-01   2.2362E-04  0.0225
   7.3927E-01   7.5725E-01   2.3284E-04  0.0218
   7.5725E-01   7.7568E-01   2.2967E-04  0.0217
   7.7568E-01   7.9455E-01   2.3353E-04  0.0212
   7.9455E-01   8.1388E-01   2.3462E-04  0.0209
   8.1388E-01   8.3368E-01   2.3927E-04  0.0205
   8.3368E-01   8.5397E-01   2.4207E-04  0.0201
   8.5397E-01   8.7475E-01   2.4686E-04  0.0197
   8.7475E-01   8.9603E-01   2.4035E-04  0.0197
   8.9603E-01   9.1783E-01   2.4852E-04  0.0192
   9.1783E-01   9.4016E-01   2.5422E-04  0.0187
   9.4016E-01   9.6304E-01   2.5204E-04  0.0186
   9.6304E-01   9.8647E-01   2.6107E-04  0.0180
   9.8647E-01   1.0105E+00   2.5425E-04  0.0180
   1.0105E+00   1.0351E+00   2.4597E-04  0.0181
   1.0351E+00   1.0602E+00   2.5026E-04  0.0178
   1.0602E+00   1.0860E+00   2.5541E-04  0.0174
   1.0860E+00   1.1125E+00   2.5268E-04  0.0173
   1.1125E+00   1.1395E+00   2.4619E-04  0.0173
   1.1395E+00   1.1673E+00   2.4725E-04  0.0170
   1.1673E+00   1.1957E+00   2.5230E-04  0.0167
   1.1957E+00   1.2247E+00   2.5401E-04  0.0164
   1.2247E+00   1.2545E+00   2.5164E-04  0.0163
   1.2545E+00   1.2851E+00   2.4985E-04  0.0161
   1.2851E+00   1.3163E+00   2.4835E-04  0.0160
   1.3163E+00   1.3484E+00   2.5189E-04  0.0157
   1.3484E+00   1.3812E+00   2.3844E-04  0.0159
   1.3812E+00   1.4148E+00   2.4919E-04  0.0154
   1.4148E+00   1.4492E+00   2.4236E-04  0.0154
   1.4492E+00   1.4845E+00   2.4017E-04  0.0153
   1.4845E+00   1.5206E+00   2.4188E-04  0.0151
   1.5206E+00   1.5576E+00   2.4146E-04  0.0149
   1.5576E+00   1.5955E+00   2.3851E-04  0.0148
   1.5955E+00   1.6343E+00   2.4292E-04  0.0145
   1.6343E+00   1.6741E+00   2.3456E-04  0.0146
   1.6741E+00   1.7148E+00   2.3201E-04  0.0145
   1.7148E+00   1.7565E+00   2.3212E-04  0.0143
   1.7565E+00   1.7992E+00   2.2623E-04  0.0143
   1.7992E+00   1.8430E+00   2.2529E-04  0.0142
   1.8430E+00   1.8879E+00   2.2367E-04  0.0141
   1.8879E+00   1.9338E+00   2.1688E-04  0.0141
   1.9338E+00   1.9808E+00   2.1231E-04  0.0141
   1.9808E+00   2.0290E+00   2.1065E-04  0.0140
   2.0290E+00   2.0784E+00   2.0585E-04  0.0140
   2.0784E+00   2.1290E+00   1.9955E-04  0.0140
   2.1290E+00   2.1808E+00   2.0221E-04  0.0138
   2.1808E+00   2.2338E+00   1.9427E-04  0.0139
   2.2338E+00   2.2882E+00   1.9256E-04  0.0138
   2.2882E+00   2.3439E+00   1.8705E-04  0.0138
   2.3439E+00   2.4009E+00   1.8644E-04  0.0137
   2.4009E+00   2.4593E+00   1.8082E-04  0.0137
   2.4593E+00   2.5191E+00   1.8302E-04  0.0135
   2.5191E+00   2.5804E+00   1.7752E-04  0.0135
   2.5804E+00   2.6432E+00   1.6935E-04  0.0137
   2.6432E+00   2.7075E+00   1.7413E-04  0.0133
   2.7075E+00   2.7734E+00   1.7205E-04  0.0132
   2.7734E+00   2.8409E+00   1.6807E-04  0.0132
   2.8409E+00   2.9100E+00   1.6154E-04  0.0133
   2.9100E+00   2.9808E+00   1.6001E-04  0.0132
   2.9808E+00   3.0533E+00   1.6188E-04  0.0130
   3.0533E+00   3.1276E+00   1.6170E-04  0.0129
   3.1276E+00   3.2037E+00   1.6031E-04  0.0128
   3.2037E+00   3.2817E+00   1.5690E-04  0.0127
   3.2817E+00   3.3615E+00   1.5154E-04  0.0128
   3.3615E+00   3.4433E+00   1.5558E-04  0.0125
   3.4433E+00   3.5271E+00   1.5664E-04  0.0123
   3.5271E+00   3.6129E+00   1.5564E-04  0.0122
   3.6129E+00   3.7008E+00   1.5087E-04  0.0122
   3.7008E+00   3.7908E+00   1.4793E-04  0.0122
   3.7908E+00   3.8831E+00   1.4893E-04  0.0120
   3.8831E+00   3.9776E+00   1.4420E-04  0.0121
   3.9776E+00   4.0743E+00   1.4085E-04  0.0121
   4.0743E+00   4.1735E+00   1.4101E-04  0.0119
   4.1735E+00   4.2750E+00   1.4011E-04  0.0118
   4.2750E+00   4.3790E+00   1.3700E-04  0.0118
   4.3790E+00   4.4856E+00   1.3583E-04  0.0117
   4.4856E+00   4.5947E+00   1.2941E-04  0.0119
   4.5947E+00   4.7065E+00   1.2587E-04  0.0119
   4.7065E+00   4.8210E+00   1.2116E-04  0.0120
   4.8210E+00   4.9383E+00   1.1710E-04  0.0120
   4.9383E+00   5.0585E+00   1.1149E-04  0.0122
   5.0585E+00   5.1815E+00   1.0743E-04  0.0123
   5.1815E+00   5.3076E+00   1.0251E-04  0.0124
   5.3076E+00   5.4368E+00   1.0047E-04  0.0124
   5.4368E+00   5.5690E+00   9.8289E-05  0.0124
   5.5690E+00   5.7045E+00   9.5267E-05  0.0124
   5.7045E+00   5.8433E+00   9.4164E-05  0.0123
   5.8433E+00   5.9855E+00   9.3665E-05  0.0122
   5.9855E+00   6.1311E+00   9.1953E-05  0.0122
   6.1311E+00   6.2803E+00   9.0587E-05  0.0121
   6.2803E+00   6.4331E+00   8.7878E-05  0.0122
   6.4331E+00   6.5896E+00   8.7068E-05  0.0121
   6.5896E+00   6.7500E+00   8.5239E-05  0.0121
   6.7500E+00   6.9142E+00   8.0686E-05  0.0123
   6.9142E+00   7.0824E+00   8.2829E-05  0.0120
   7.0824E+00   7.2548E+00   7.9327E-05  0.0121
   7.2548E+00   7.4313E+00   7.8654E-05  0.0120
   7.4313E+00   7.6121E+00   7.5160E-05  0.0121
   7.6121E+00   7.7973E+00   7.4342E-05  0.0120
   7.7973E+00   7.9870E+00   7.4468E-05  0.0119
   7.9870E+00   8.1813E+00   7.0564E-05  0.0121
   8.1813E+00   8.3804E+00   6.9157E-05  0.0120
   8.3804E+00   8.5843E+00   6.7308E-05  0.0121
   8.5843E+00   8.7931E+00   6.5341E-05  0.0121
   8.7931E+00   9.0071E+00   6.3736E-05  0.0121
   9.0071E+00   9.2262E+00   6.1620E-05  0.0122
   9.2262E+00   9.4507E+00   6.0073E-05  0.0122
   9.4507E+00   9.6807E+00   5.6846E-05  0.0124
   9.6807E+00   9.9162E+00   5.5533E-05  0.0124
   9.9162E+00   1.0157E+01   5.3343E-05  0.0125
   1.0157E+01   1.0405E+01   5.3159E-05  0.0123
   1.0405E+01   1.0658E+01   5.0184E-05  0.0125
   1.0658E+01   1.0917E+01   5.0118E-05  0.0124
   1.0917E+01   1.1183E+01   4.7537E-05  0.0126
   1.1183E+01   1.1455E+01   4.6213E-05  0.0126
   1.1455E+01   1.1733E+01   4.3141E-05  0.0129
   1.1733E+01   1.2019E+01   4.2422E-05  0.0128
   1.2019E+01   1.2311E+01   4.0148E-05  0.0130
   1.2311E+01   1.2611E+01   3.8893E-05  0.0131
   1.2611E+01   1.2918E+01   3.6109E-05  0.0134
   1.2918E+01   1.3232E+01   3.4812E-05  0.0135
   1.3232E+01   1.3554E+01   3.2977E-05  0.0137
   1.3554E+01   1.3884E+01   3.2071E-05  0.0137
   1.3884E+01   1.4222E+01   2.9303E-05  0.0142
   1.4222E+01   1.4568E+01   2.7849E-05  0.0144
   1.4568E+01   1.4922E+01   2.7144E-05  0.0144
   1.4922E+01   1.5285E+01   2.5635E-05  0.0147
   1.5285E+01   1.5657E+01   2.4590E-05  0.0148
   1.5657E+01   1.6038E+01   2.2665E-05  0.0152
   1.6038E+01   1.6428E+01   2.1995E-05  0.0153
   1.6428E+01   1.6828E+01   2.0948E-05  0.0155
   1.6828E+01   1.7237E+01   1.9478E-05  0.0158
   1.7237E+01   1.7657E+01   1.8867E-05  0.0159
   1.7657E+01   1.8086E+01   1.7760E-05  0.0162
   1.8086E+01   1.8526E+01   1.7168E-05  0.0163
   1.8526E+01   1.8977E+01   1.6763E-05  0.0163
   1.8977E+01   1.9439E+01   1.5373E-05  0.0168
   1.9439E+01   1.9912E+01   1.4648E-05  0.0170
   1.9912E+01   2.0396E+01   1.4593E-05  0.0168
   2.0396E+01   2.0893E+01   1.3791E-05  0.0171
   2.0893E+01   2.1401E+01   1.3389E-05  0.0171
   2.1401E+01   2.1922E+01   1.2844E-05  0.0173
   2.1922E+01   2.2455E+01   1.2370E-05  0.0174
   2.2455E+01   2.3001E+01   1.1937E-05  0.0175
   2.3001E+01   2.3561E+01   1.1329E-05  0.0178
   2.3561E+01   2.4134E+01   1.1164E-05  0.0177
   2.4134E+01   2.4721E+01   1.0695E-05  0.0178
   2.4721E+01   2.5323E+01   1.0225E-05  0.0180
   2.5323E+01   2.5939E+01   9.5045E-06  0.0185
   2.5939E+01   2.6570E+01   8.8288E-06  0.0189
   2.6570E+01   2.7217E+01   8.1705E-06  0.0195
   2.7217E+01   2.7879E+01   7.3301E-06  0.0203
   2.7879E+01   2.8557E+01   6.0798E-06  0.0220
   2.8557E+01   2.9252E+01   5.1697E-06  0.0236
   2.9252E+01   2.9964E+01   4.2882E-06  0.0256
   2.9964E+01   3.0693E+01   3.4182E-06  0.0283
   3.0693E+01   3.1440E+01   2.7183E-06  0.0314
   3.1440E+01   3.2205E+01   2.0786E-06  0.0355
   3.2205E+01   3.2988E+01   1.3502E-06  0.0435
   3.2988E+01   3.3791E+01   1.0042E-06  0.0498
   3.3791E+01   3.4613E+01   6.7870E-07  0.0599
   3.4613E+01   3.5455E+01   4.8209E-07  0.0702
   3.5455E+01   3.6318E+01   2.6430E-07  0.0937
   3.6318E+01   3.7201E+01   1.0864E-07  0.1443
   3.7201E+01   3.8106E+01   3.9773E-08  0.2357
   3.8106E+01   3.9034E+01   8.6285E-09  0.5000
   3.9034E+01   3.9983E+01   0.0000E+00  0.0000
   3.9983E+01   4.0956E+01   2.0559E-09  1.0000
   4.0956E+01   4.1953E+01   0.0000E+00  0.0000
   4.1953E+01   4.2973E+01   0.0000E+00  0.0000
   4.2973E+01   4.4019E+01   0.0000E+00  0.0000
   4.4019E+01   4.5090E+01   0.0000E+00  0.0000
   4.5090E+01   4.6187E+01   0.0000E+00  0.0000
   4.6187E+01   4.7311E+01   0.0000E+00  0.0000
   4.7311E+01   4.8462E+01   0.0000E+00  0.0000
   4.8462E+01   4.9641E+01   0.0000E+00  0.0000
   4.9641E+01   5.0849E+01   0.0000E+00  0.0000
   5.0849E+01   5.2086E+01   0.0000E+00  0.0000
   5.2086E+01   5.3353E+01   0.0000E+00  0.0000
   5.3353E+01   5.4651E+01   0.0000E+00  0.0000
   5.4651E+01   5.5981E+01   0.0000E+00  0.0000
   5.5981E+01   5.7343E+01   0.0000E+00  0.0000
   5.7343E+01   5.8738E+01   0.0000E+00  0.0000
   5.8738E+01   6.0168E+01   0.0000E+00  0.0000
   6.0168E+01   6.1632E+01   0.0000E+00  0.0000
   6.1632E+01   6.3131E+01   0.0000E+00  0.0000
   6.3131E+01   6.4667E+01   0.0000E+00  0.0000
   6.4667E+01   6.6240E+01   0.0000E+00  0.0000
   6.6240E+01   6.7852E+01   0.0000E+00  0.0000
   6.7852E+01   6.9503E+01   0.0000E+00  0.0000
   6.9503E+01   7.1194E+01   0.0000E+00  0.0000
   7.1194E+01   7.2926E+01   0.0000E+00  0.0000
   7.2926E+01   7.4701E+01   0.0000E+00  0.0000
   7.4701E+01   7.6518E+01   0.0000E+00  0.0000
   7.6518E+01   7.8380E+01   0.0000E+00  0.0000
   7.8380E+01   8.0287E+01   0.0000E+00  0.0000
   8.0287E+01   8.2240E+01   0.0000E+00  0.0000
   8.2240E+01   8.4241E+01   0.0000E+00  0.0000
   8.4241E+01   8.6291E+01   0.0000E+00  0.0000
   8.6291E+01   8.8391E+01   0.0000E+00  0.0000
   8.8391E+01   9.0541E+01   0.0000E+00  0.0000
   9.0541E+01   9.2744E+01   0.0000E+00  0.0000
   9.2744E+01   9.5001E+01   0.0000E+00  0.0000
   9.5001E+01   9.7312E+01   0.0000E+00  0.0000
   9.7312E+01   9.9680E+01   0.0000E+00  0.0000
   9.9680E+01   1.0211E+02   0.0000E+00  0.0000
   1.0211E+02   1.0459E+02   0.0000E+00  0.0000
   1.0459E+02   1.0713E+02   0.0000E+00  0.0000
   1.0713E+02   1.0974E+02   0.0000E+00  0.0000
   1.0974E+02   1.1241E+02   0.0000E+00  0.0000
   1.1241E+02   1.1515E+02   0.0000E+00  0.0000
   1.1515E+02   1.1795E+02   0.0000E+00  0.0000
   1.1795E+02   1.2082E+02   0.0000E+00  0.0000
   1.2082E+02   1.2376E+02   0.0000E+00  0.0000
   1.2376E+02   1.2677E+02   0.0000E+00  0.0000
   1.2677E+02   1.2985E+02   0.0000E+00  0.0000
   1.2985E+02   1.3301E+02   0.0000E+00  0.0000
   1.3301E+02   1.3625E+02   0.0000E+00  0.0000
   1.3625E+02   1.3956E+02   0.0000E+00  0.0000
   1.3956E+02   1.4296E+02   0.0000E+00  0.0000
   1.4296E+02   1.4644E+02   0.0000E+00  0.0000
   1.4644E+02   1.5000E+02   0.0000E+00  0.0000

#   sum over                 1.1130E-05
'no. =    1   reg = 115 - 215'
msuc: {\huge [t-cross] in region mesh}
msdr: {\it plotted by \ANGEL \version}
msdl: {\it calculated by \PHITS  3.26}
wt: s(0.7)
\vspace{-3}
  region surface crossing
  area  &=&   1.0000E+00 [cm^2]
e:
 
# Information for Restart Calculation
# This calculation was newly started
# istdev =  2 # 1:Batch variance, 2:History variance
# resc2  = 5.00000000000000000E+08 # Total source weight or Total source weight / maxcas
# resc3  = 5.00000000000000000E+08 # Total history number or Total batch number
# maxcas =   500000000 # History / Batch, only used for istdev=1
# bitrseed = 1101101111010011011000101101110001100110110010110001010100010001 # bit data of rseed
