[ T-Cross ]
    title = [t-cross] in region mesh
     mesh =  reg            # mesh type is region-wise
      reg =    1            # number of crossing regions
      non     r-from    r-to       area
      1       116       216        1.000000    
   e-type =    3            # e-mesh is log given by emin, emax and ne
     emin =  1.0000000E-02  # minimum value of e-mesh points
     emax =   150.0000      # maximum value of e-mesh points
#    edel =  2.4039514E-02  # mesh width of e-mesh points
       ne =    400          # number of e-mesh points
#    data = ( e(i), i = 1, ne + 1 )
#           1.00000E-02  1.02433E-02  1.04925E-02  1.07478E-02  1.10093E-02
#           1.12772E-02  1.15516E-02  1.18326E-02  1.21205E-02  1.24154E-02
#           1.27175E-02  1.30269E-02  1.33439E-02  1.36686E-02  1.40011E-02
#           1.43418E-02  1.46907E-02  1.50482E-02  1.54143E-02  1.57894E-02
#           1.61735E-02  1.65670E-02  1.69701E-02  1.73830E-02  1.78060E-02
#           1.82392E-02  1.86830E-02  1.91375E-02  1.96032E-02  2.00801E-02
#           2.05687E-02  2.10692E-02  2.15818E-02  2.21069E-02  2.26448E-02
#           2.31957E-02  2.37601E-02  2.43382E-02  2.49304E-02  2.55369E-02
#           2.61583E-02  2.67947E-02  2.74467E-02  2.81145E-02  2.87985E-02
#           2.94992E-02  3.02169E-02  3.09521E-02  3.17052E-02  3.24766E-02
#           3.32668E-02  3.40762E-02  3.49053E-02  3.57546E-02  3.66246E-02
#           3.75157E-02  3.84284E-02  3.93634E-02  4.03212E-02  4.13022E-02
#           4.23071E-02  4.33365E-02  4.43909E-02  4.54710E-02  4.65773E-02
#           4.77106E-02  4.88714E-02  5.00605E-02  5.12785E-02  5.25262E-02
#           5.38042E-02  5.51133E-02  5.64542E-02  5.78278E-02  5.92348E-02
#           6.06760E-02  6.21523E-02  6.36645E-02  6.52135E-02  6.68002E-02
#           6.84255E-02  7.00904E-02  7.17957E-02  7.35426E-02  7.53319E-02
#           7.71648E-02  7.90423E-02  8.09655E-02  8.29354E-02  8.49533E-02
#           8.70203E-02  8.91376E-02  9.13064E-02  9.35279E-02  9.58035E-02
#           9.81345E-02  1.00522E-01  1.02968E-01  1.05473E-01  1.08040E-01
#           1.10668E-01  1.13361E-01  1.16119E-01  1.18944E-01  1.21838E-01
#           1.24803E-01  1.27839E-01  1.30950E-01  1.34136E-01  1.37399E-01
#           1.40742E-01  1.44167E-01  1.47675E-01  1.51268E-01  1.54948E-01
#           1.58718E-01  1.62580E-01  1.66535E-01  1.70587E-01  1.74738E-01
#           1.78989E-01  1.83344E-01  1.87805E-01  1.92375E-01  1.97055E-01
#           2.01850E-01  2.06761E-01  2.11792E-01  2.16945E-01  2.22223E-01
#           2.27630E-01  2.33169E-01  2.38842E-01  2.44653E-01  2.50605E-01
#           2.56703E-01  2.62949E-01  2.69346E-01  2.75900E-01  2.82613E-01
#           2.89489E-01  2.96532E-01  3.03747E-01  3.11138E-01  3.18708E-01
#           3.26462E-01  3.34405E-01  3.42542E-01  3.50876E-01  3.59413E-01
#           3.68158E-01  3.77116E-01  3.86291E-01  3.95690E-01  4.05317E-01
#           4.15179E-01  4.25281E-01  4.35628E-01  4.46227E-01  4.57084E-01
#           4.68205E-01  4.79597E-01  4.91266E-01  5.03219E-01  5.15463E-01
#           5.28005E-01  5.40851E-01  5.54011E-01  5.67490E-01  5.81298E-01
#           5.95441E-01  6.09929E-01  6.24769E-01  6.39970E-01  6.55541E-01
#           6.71491E-01  6.87828E-01  7.04564E-01  7.21706E-01  7.39266E-01
#           7.57253E-01  7.75678E-01  7.94551E-01  8.13883E-01  8.33685E-01
#           8.53969E-01  8.74747E-01  8.96030E-01  9.17831E-01  9.40163E-01
#           9.63038E-01  9.86469E-01  1.01047E+00  1.03506E+00  1.06024E+00
#           1.08604E+00  1.11246E+00  1.13953E+00  1.16725E+00  1.19565E+00
#           1.22474E+00  1.25454E+00  1.28507E+00  1.31633E+00  1.34836E+00
#           1.38117E+00  1.41477E+00  1.44920E+00  1.48446E+00  1.52057E+00
#           1.55757E+00  1.59547E+00  1.63429E+00  1.67405E+00  1.71478E+00
#           1.75650E+00  1.79924E+00  1.84302E+00  1.88786E+00  1.93379E+00
#           1.98084E+00  2.02904E+00  2.07841E+00  2.12898E+00  2.18078E+00
#           2.23384E+00  2.28819E+00  2.34386E+00  2.40089E+00  2.45930E+00
#           2.51914E+00  2.58043E+00  2.64322E+00  2.70753E+00  2.77341E+00
#           2.84088E+00  2.91001E+00  2.98081E+00  3.05333E+00  3.12762E+00
#           3.20372E+00  3.28167E+00  3.36152E+00  3.44330E+00  3.52708E+00
#           3.61290E+00  3.70080E+00  3.79085E+00  3.88308E+00  3.97756E+00
#           4.07434E+00  4.17347E+00  4.27501E+00  4.37903E+00  4.48557E+00
#           4.59471E+00  4.70650E+00  4.82102E+00  4.93832E+00  5.05847E+00
#           5.18155E+00  5.30762E+00  5.43676E+00  5.56904E+00  5.70453E+00
#           5.84333E+00  5.98550E+00  6.13114E+00  6.28031E+00  6.43312E+00
#           6.58964E+00  6.74997E+00  6.91420E+00  7.08243E+00  7.25475E+00
#           7.43126E+00  7.61207E+00  7.79728E+00  7.98700E+00  8.18133E+00
#           8.38038E+00  8.58428E+00  8.79315E+00  9.00709E+00  9.22624E+00
#           9.45072E+00  9.68067E+00  9.91620E+00  1.01575E+01  1.04046E+01
#           1.06578E+01  1.09171E+01  1.11827E+01  1.14548E+01  1.17335E+01
#           1.20190E+01  1.23114E+01  1.26109E+01  1.29178E+01  1.32321E+01
#           1.35540E+01  1.38838E+01  1.42216E+01  1.45676E+01  1.49221E+01
#           1.52851E+01  1.56570E+01  1.60380E+01  1.64282E+01  1.68279E+01
#           1.72374E+01  1.76568E+01  1.80864E+01  1.85264E+01  1.89772E+01
#           1.94389E+01  1.99119E+01  2.03963E+01  2.08926E+01  2.14009E+01
#           2.19216E+01  2.24550E+01  2.30014E+01  2.35610E+01  2.41343E+01
#           2.47215E+01  2.53230E+01  2.59391E+01  2.65702E+01  2.72167E+01
#           2.78789E+01  2.85572E+01  2.92520E+01  2.99637E+01  3.06928E+01
#           3.14396E+01  3.22045E+01  3.29881E+01  3.37907E+01  3.46128E+01
#           3.54550E+01  3.63177E+01  3.72013E+01  3.81064E+01  3.90336E+01
#           3.99833E+01  4.09561E+01  4.19526E+01  4.29734E+01  4.40189E+01
#           4.50900E+01  4.61870E+01  4.73108E+01  4.84619E+01  4.96410E+01
#           5.08488E+01  5.20860E+01  5.33533E+01  5.46514E+01  5.59812E+01
#           5.73432E+01  5.87384E+01  6.01676E+01  6.16315E+01  6.31311E+01
#           6.46671E+01  6.62405E+01  6.78522E+01  6.95031E+01  7.11941E+01
#           7.29263E+01  7.47007E+01  7.65182E+01  7.83800E+01  8.02870E+01
#           8.22405E+01  8.42414E+01  8.62911E+01  8.83906E+01  9.05412E+01
#           9.27442E+01  9.50007E+01  9.73122E+01  9.96799E+01  1.02105E+02
#           1.04589E+02  1.07134E+02  1.09741E+02  1.12411E+02  1.15146E+02
#           1.17948E+02  1.20817E+02  1.23757E+02  1.26768E+02  1.29852E+02
#           1.33012E+02  1.36248E+02  1.39563E+02  1.42959E+02  1.46437E+02
#           1.50000E+02
     unit =    2            # unit is [1/cm^2/(MeV/n)/source]
     axis =  eng            # axis of output
     file = detector-17.out  # file name of output for the above axis
   output = f-curr          # surface crossing forward current spectrum
     part =  neutron  
# kf/name :  2112     
#    used :        main (  %)        temp (  %)       total (  %)
#  memory :         414 (  0)           0 (  0)         414 (  0)

#------------------------------------------------------------------------------
#newpage:
#   no. =    1   reg = 116 - 216

x: Energy [MeV/n]
y:  F-Curr [1/cm^2/(MeV/n)/source]         
p: xlog ylog afac(0.8) form(0.9)
h: n            x            y(neutron ),hh0l   n 
#  e-lower      e-upper      neutron     r.err 
   1.0000E-02   1.0243E-02   8.3173E-04  0.0993
   1.0243E-02   1.0493E-02   1.0885E-03  0.0857
   1.0493E-02   1.0748E-02   7.9394E-04  0.0992
   1.0748E-02   1.1009E-02   8.1947E-04  0.0966
   1.1009E-02   1.1277E-02   8.9224E-04  0.0914
   1.1277E-02   1.1552E-02   7.8870E-04  0.0961
   1.1552E-02   1.1833E-02   7.9197E-04  0.0947
   1.1833E-02   1.2121E-02   8.0237E-04  0.0929
   1.2121E-02   1.2415E-02   7.6939E-04  0.0937
   1.2415E-02   1.2718E-02   7.3822E-04  0.0944
   1.2718E-02   1.3027E-02   7.1422E-04  0.0950
   1.3027E-02   1.3344E-02   7.0357E-04  0.0946
   1.3344E-02   1.3669E-02   6.8301E-04  0.0947
   1.3669E-02   1.4001E-02   7.4754E-04  0.0896
   1.4001E-02   1.4342E-02   7.9932E-04  0.0857
   1.4342E-02   1.4691E-02   7.4140E-04  0.0878
   1.4691E-02   1.5048E-02   6.9291E-04  0.0896
   1.5048E-02   1.5414E-02   6.8002E-04  0.0895
   1.5414E-02   1.5789E-02   7.4729E-04  0.0843
   1.5789E-02   1.6174E-02   6.7040E-04  0.0879
   1.6174E-02   1.6567E-02   7.3278E-04  0.0831
   1.6567E-02   1.6970E-02   7.2451E-04  0.0826
   1.6970E-02   1.7383E-02   6.6369E-04  0.0852
   1.7383E-02   1.7806E-02   6.9040E-04  0.0828
   1.7806E-02   1.8239E-02   6.6019E-04  0.0834
   1.8239E-02   1.8683E-02   6.5170E-04  0.0829
   1.8683E-02   1.9138E-02   6.1367E-04  0.0844
   1.9138E-02   1.9603E-02   5.4531E-04  0.0885
   1.9603E-02   2.0080E-02   5.8858E-04  0.0843
   2.0080E-02   2.0569E-02   5.5878E-04  0.0855
   2.0569E-02   2.1069E-02   5.4262E-04  0.0857
   2.1069E-02   2.1582E-02   4.7859E-04  0.0901
   2.1582E-02   2.2107E-02   5.2242E-04  0.0853
   2.2107E-02   2.2645E-02   5.4210E-04  0.0827
   2.2645E-02   2.3196E-02   5.7782E-04  0.0792
   2.3196E-02   2.3760E-02   5.4803E-04  0.0803
   2.3760E-02   2.4338E-02   5.0116E-04  0.0829
   2.4338E-02   2.4930E-02   5.3499E-04  0.0792
   2.4930E-02   2.5537E-02   4.7755E-04  0.0829
   2.5537E-02   2.6158E-02   5.0858E-04  0.0796
   2.6158E-02   2.6795E-02   4.6597E-04  0.0819
   2.6795E-02   2.7447E-02   5.2509E-04  0.0764
   2.7447E-02   2.8114E-02   4.3616E-04  0.0828
   2.8114E-02   2.8799E-02   4.2969E-04  0.0823
   2.8799E-02   2.9499E-02   4.7210E-04  0.0777
   2.9499E-02   3.0217E-02   4.2227E-04  0.0811
   3.0217E-02   3.0952E-02   4.4659E-04  0.0780
   3.0952E-02   3.1705E-02   4.5230E-04  0.0766
   3.1705E-02   3.2477E-02   4.4378E-04  0.0764
   3.2477E-02   3.3267E-02   4.5136E-04  0.0747
   3.3267E-02   3.4076E-02   4.2696E-04  0.0759
   3.4076E-02   3.4905E-02   3.5496E-04  0.0824
   3.4905E-02   3.5755E-02   4.5481E-04  0.0717
   3.5755E-02   3.6625E-02   4.4290E-04  0.0719
   3.6625E-02   3.7516E-02   3.7736E-04  0.0771
   3.7516E-02   3.8428E-02   4.0389E-04  0.0736
   3.8428E-02   3.9363E-02   3.4256E-04  0.0790
   3.9363E-02   4.0321E-02   3.7622E-04  0.0744
   4.0321E-02   4.1302E-02   3.9341E-04  0.0719
   4.1302E-02   4.2307E-02   3.8934E-04  0.0714
   4.2307E-02   4.3337E-02   3.5198E-04  0.0741
   4.3337E-02   4.4391E-02   4.0280E-04  0.0686
   4.4391E-02   4.5471E-02   3.3784E-04  0.0739
   4.5471E-02   4.6577E-02   3.4011E-04  0.0729
   4.6577E-02   4.7711E-02   3.4920E-04  0.0710
   4.7711E-02   4.8871E-02   3.3248E-04  0.0718
   4.8871E-02   5.0061E-02   3.1285E-04  0.0733
   5.0061E-02   5.1279E-02   3.0877E-04  0.0727
   5.1279E-02   5.2526E-02   3.0624E-04  0.0722
   5.2526E-02   5.3804E-02   3.0047E-04  0.0722
   5.3804E-02   5.5113E-02   3.1659E-04  0.0693
   5.5113E-02   5.6454E-02   2.9997E-04  0.0704
   5.6454E-02   5.7828E-02   2.7865E-04  0.0722
   5.7828E-02   5.9235E-02   2.8024E-04  0.0712
   5.9235E-02   6.0676E-02   2.7385E-04  0.0710
   6.0676E-02   6.2152E-02   2.9219E-04  0.0680
   6.2152E-02   6.3665E-02   2.7912E-04  0.0686
   6.3665E-02   6.5214E-02   2.7901E-04  0.0679
   6.5214E-02   6.6800E-02   2.5355E-04  0.0705
   6.6800E-02   6.8426E-02   2.5834E-04  0.0689
   6.8426E-02   7.0090E-02   2.4532E-04  0.0698
   7.0090E-02   7.1796E-02   2.4228E-04  0.0694
   7.1796E-02   7.3543E-02   2.6904E-04  0.0651
   7.3543E-02   7.5332E-02   2.2764E-04  0.0700
   7.5332E-02   7.7165E-02   2.3383E-04  0.0682
   7.7165E-02   7.9042E-02   2.3203E-04  0.0677
   7.9042E-02   8.0965E-02   2.1922E-04  0.0687
   8.0965E-02   8.2935E-02   2.2183E-04  0.0676
   8.2935E-02   8.4953E-02   2.2044E-04  0.0669
   8.4953E-02   8.7020E-02   2.0723E-04  0.0682
   8.7020E-02   8.9138E-02   2.3855E-04  0.0628
   8.9138E-02   9.1306E-02   2.2854E-04  0.0634
   9.1306E-02   9.3528E-02   2.0766E-04  0.0658
   9.3528E-02   9.5804E-02   1.8601E-04  0.0686
   9.5804E-02   9.8134E-02   1.7642E-04  0.0695
   9.8134E-02   1.0052E-01   2.0212E-04  0.0643
   1.0052E-01   1.0297E-01   1.6366E-04  0.0705
   1.0297E-01   1.0547E-01   1.6509E-04  0.0693
   1.0547E-01   1.0804E-01   1.7870E-04  0.0659
   1.0804E-01   1.1067E-01   1.8591E-04  0.0638
   1.1067E-01   1.1336E-01   1.7810E-04  0.0645
   1.1336E-01   1.1612E-01   1.6904E-04  0.0654
   1.1612E-01   1.1894E-01   1.5383E-04  0.0678
   1.1894E-01   1.2184E-01   1.6932E-04  0.0639
   1.2184E-01   1.2480E-01   1.4974E-04  0.0670
   1.2480E-01   1.2784E-01   1.4522E-04  0.0673
   1.2784E-01   1.3095E-01   1.5464E-04  0.0644
   1.3095E-01   1.3414E-01   1.3196E-04  0.0688
   1.3414E-01   1.3740E-01   1.4398E-04  0.0652
   1.3740E-01   1.4074E-01   1.4422E-04  0.0643
   1.4074E-01   1.4417E-01   1.1240E-04  0.0719
   1.4417E-01   1.4767E-01   1.5200E-04  0.0611
   1.4767E-01   1.5127E-01   1.2307E-04  0.0671
   1.5127E-01   1.5495E-01   1.1883E-04  0.0676
   1.5495E-01   1.5872E-01   1.2685E-04  0.0645
   1.5872E-01   1.6258E-01   1.2331E-04  0.0646
   1.6258E-01   1.6654E-01   1.1907E-04  0.0650
   1.6654E-01   1.7059E-01   1.1434E-04  0.0655
   1.7059E-01   1.7474E-01   1.0891E-04  0.0664
   1.7474E-01   1.7899E-01   1.1015E-04  0.0652
   1.7899E-01   1.8334E-01   9.3105E-05  0.0701
   1.8334E-01   1.8781E-01   8.9112E-05  0.0708
   1.8781E-01   1.9237E-01   9.6771E-05  0.0671
   1.9237E-01   1.9706E-01   1.0253E-04  0.0645
   1.9706E-01   2.0185E-01   9.6283E-05  0.0657
   2.0185E-01   2.0676E-01   8.6879E-05  0.0683
   2.0676E-01   2.1179E-01   1.0128E-04  0.0625
   2.1179E-01   2.1694E-01   1.0496E-04  0.0606
   2.1694E-01   2.2222E-01   1.0242E-04  0.0607
   2.2222E-01   2.2763E-01   1.0638E-04  0.0588
   2.2763E-01   2.3317E-01   1.1208E-04  0.0567
   2.3317E-01   2.3884E-01   1.1192E-04  0.0560
   2.3884E-01   2.4465E-01   1.1552E-04  0.0545
   2.4465E-01   2.5061E-01   1.2442E-04  0.0518
   2.5061E-01   2.5670E-01   1.2066E-04  0.0520
   2.5670E-01   2.6295E-01   1.1907E-04  0.0517
   2.6295E-01   2.6935E-01   1.4428E-04  0.0465
   2.6935E-01   2.7590E-01   1.3206E-04  0.0480
   2.7590E-01   2.8261E-01   1.2680E-04  0.0483
   2.8261E-01   2.8949E-01   1.3783E-04  0.0458
   2.8949E-01   2.9653E-01   1.4817E-04  0.0437
   2.9653E-01   3.0375E-01   1.4420E-04  0.0437
   3.0375E-01   3.1114E-01   1.4164E-04  0.0436
   3.1114E-01   3.1871E-01   1.5837E-04  0.0407
   3.1871E-01   3.2646E-01   1.4995E-04  0.0414
   3.2646E-01   3.3441E-01   1.5743E-04  0.0399
   3.3441E-01   3.4254E-01   1.5301E-04  0.0400
   3.4254E-01   3.5088E-01   1.7313E-04  0.0372
   3.5088E-01   3.5941E-01   1.6955E-04  0.0371
   3.5941E-01   3.6816E-01   1.7738E-04  0.0359
   3.6816E-01   3.7712E-01   1.8338E-04  0.0348
   3.7712E-01   3.8629E-01   1.7473E-04  0.0352
   3.8629E-01   3.9569E-01   1.9161E-04  0.0332
   3.9569E-01   4.0532E-01   1.8391E-04  0.0335
   4.0532E-01   4.1518E-01   1.8374E-04  0.0331
   4.1518E-01   4.2528E-01   1.7748E-04  0.0333
   4.2528E-01   4.3563E-01   2.0579E-04  0.0306
   4.3563E-01   4.4623E-01   2.0520E-04  0.0303
   4.4623E-01   4.5708E-01   1.9878E-04  0.0304
   4.5708E-01   4.6821E-01   2.1325E-04  0.0290
   4.6821E-01   4.7960E-01   2.1240E-04  0.0287
   4.7960E-01   4.9127E-01   2.1457E-04  0.0282
   4.9127E-01   5.0322E-01   2.1202E-04  0.0280
   5.0322E-01   5.1546E-01   2.1002E-04  0.0278
   5.1546E-01   5.2800E-01   2.3035E-04  0.0262
   5.2800E-01   5.4085E-01   2.2777E-04  0.0261
   5.4085E-01   5.5401E-01   2.1692E-04  0.0264
   5.5401E-01   5.6749E-01   2.3675E-04  0.0250
   5.6749E-01   5.8130E-01   2.2627E-04  0.0252
   5.8130E-01   5.9544E-01   2.2754E-04  0.0249
   5.9544E-01   6.0993E-01   2.2699E-04  0.0246
   6.0993E-01   6.2477E-01   2.3595E-04  0.0238
   6.2477E-01   6.3997E-01   2.3522E-04  0.0236
   6.3997E-01   6.5554E-01   2.3726E-04  0.0232
   6.5554E-01   6.7149E-01   2.3941E-04  0.0228
   6.7149E-01   6.8783E-01   2.3554E-04  0.0227
   6.8783E-01   7.0456E-01   2.3559E-04  0.0225
   7.0456E-01   7.2171E-01   2.3881E-04  0.0220
   7.2171E-01   7.3927E-01   2.3554E-04  0.0219
   7.3927E-01   7.5725E-01   2.4124E-04  0.0214
   7.5725E-01   7.7568E-01   2.4322E-04  0.0211
   7.7568E-01   7.9455E-01   2.4000E-04  0.0210
   7.9455E-01   8.1388E-01   2.5042E-04  0.0203
   8.1388E-01   8.3368E-01   2.5402E-04  0.0199
   8.3368E-01   8.5397E-01   2.3712E-04  0.0203
   8.5397E-01   8.7475E-01   2.4282E-04  0.0198
   8.7475E-01   8.9603E-01   2.4307E-04  0.0196
   8.9603E-01   9.1783E-01   2.4112E-04  0.0194
   9.1783E-01   9.4016E-01   2.3332E-04  0.0195
   9.4016E-01   9.6304E-01   2.4235E-04  0.0189
   9.6304E-01   9.8647E-01   2.4384E-04  0.0187
   9.8647E-01   1.0105E+00   2.4372E-04  0.0184
   1.0105E+00   1.0351E+00   2.4461E-04  0.0182
   1.0351E+00   1.0602E+00   2.3579E-04  0.0183
   1.0602E+00   1.0860E+00   2.3477E-04  0.0181
   1.0860E+00   1.1125E+00   2.3302E-04  0.0180
   1.1125E+00   1.1395E+00   2.3839E-04  0.0175
   1.1395E+00   1.1673E+00   2.2925E-04  0.0177
   1.1673E+00   1.1957E+00   2.2591E-04  0.0176
   1.1957E+00   1.2247E+00   2.3732E-04  0.0170
   1.2247E+00   1.2545E+00   2.3307E-04  0.0169
   1.2545E+00   1.2851E+00   2.3402E-04  0.0167
   1.2851E+00   1.3163E+00   2.3636E-04  0.0164
   1.3163E+00   1.3484E+00   2.2442E-04  0.0166
   1.3484E+00   1.3812E+00   2.2176E-04  0.0165
   1.3812E+00   1.4148E+00   2.2263E-04  0.0163
   1.4148E+00   1.4492E+00   2.1514E-04  0.0164
   1.4492E+00   1.4845E+00   2.1264E-04  0.0163
   1.4845E+00   1.5206E+00   2.1876E-04  0.0158
   1.5206E+00   1.5576E+00   2.1310E-04  0.0159
   1.5576E+00   1.5955E+00   2.0560E-04  0.0159
   1.5955E+00   1.6343E+00   2.0114E-04  0.0159
   1.6343E+00   1.6741E+00   2.0255E-04  0.0157
   1.6741E+00   1.7148E+00   1.9825E-04  0.0157
   1.7148E+00   1.7565E+00   2.0095E-04  0.0154
   1.7565E+00   1.7992E+00   1.9194E-04  0.0155
   1.7992E+00   1.8430E+00   1.9022E-04  0.0154
   1.8430E+00   1.8879E+00   1.8011E-04  0.0157
   1.8879E+00   1.9338E+00   1.7572E-04  0.0157
   1.9338E+00   1.9808E+00   1.7937E-04  0.0153
   1.9808E+00   2.0290E+00   1.7278E-04  0.0154
   2.0290E+00   2.0784E+00   1.7219E-04  0.0153
   2.0784E+00   2.1290E+00   1.7200E-04  0.0151
   2.1290E+00   2.1808E+00   1.7003E-04  0.0150
   2.1808E+00   2.2338E+00   1.6356E-04  0.0151
   2.2338E+00   2.2882E+00   1.5957E-04  0.0151
   2.2882E+00   2.3439E+00   1.5782E-04  0.0150
   2.3439E+00   2.4009E+00   1.5748E-04  0.0149
   2.4009E+00   2.4593E+00   1.5497E-04  0.0148
   2.4593E+00   2.5191E+00   1.5428E-04  0.0147
   2.5191E+00   2.5804E+00   1.5156E-04  0.0146
   2.5804E+00   2.6432E+00   1.4985E-04  0.0145
   2.6432E+00   2.7075E+00   1.4590E-04  0.0145
   2.7075E+00   2.7734E+00   1.4572E-04  0.0144
   2.7734E+00   2.8409E+00   1.4363E-04  0.0143
   2.8409E+00   2.9100E+00   1.4487E-04  0.0141
   2.9100E+00   2.9808E+00   1.4306E-04  0.0140
   2.9808E+00   3.0533E+00   1.4489E-04  0.0137
   3.0533E+00   3.1276E+00   1.3876E-04  0.0139
   3.1276E+00   3.2037E+00   1.4012E-04  0.0136
   3.2037E+00   3.2817E+00   1.4084E-04  0.0134
   3.2817E+00   3.3615E+00   1.3458E-04  0.0136
   3.3615E+00   3.4433E+00   1.3589E-04  0.0134
   3.4433E+00   3.5271E+00   1.3423E-04  0.0133
   3.5271E+00   3.6129E+00   1.2978E-04  0.0134
   3.6129E+00   3.7008E+00   1.2791E-04  0.0133
   3.7008E+00   3.7908E+00   1.3060E-04  0.0130
   3.7908E+00   3.8831E+00   1.2822E-04  0.0130
   3.8831E+00   3.9776E+00   1.2365E-04  0.0130
   3.9776E+00   4.0743E+00   1.2160E-04  0.0130
   4.0743E+00   4.1735E+00   1.1817E-04  0.0130
   4.1735E+00   4.2750E+00   1.1413E-04  0.0131
   4.2750E+00   4.3790E+00   1.1009E-04  0.0132
   4.3790E+00   4.4856E+00   1.0668E-04  0.0132
   4.4856E+00   4.5947E+00   1.0098E-04  0.0134
   4.5947E+00   4.7065E+00   9.9518E-05  0.0134
   4.7065E+00   4.8210E+00   9.1897E-05  0.0137
   4.8210E+00   4.9383E+00   8.9771E-05  0.0137
   4.9383E+00   5.0585E+00   8.8334E-05  0.0137
   5.0585E+00   5.1815E+00   8.5927E-05  0.0137
   5.1815E+00   5.3076E+00   8.5721E-05  0.0136
   5.3076E+00   5.4368E+00   8.2838E-05  0.0136
   5.4368E+00   5.5690E+00   8.2432E-05  0.0135
   5.5690E+00   5.7045E+00   8.1134E-05  0.0135
   5.7045E+00   5.8433E+00   8.0139E-05  0.0134
   5.8433E+00   5.9855E+00   7.7671E-05  0.0134
   5.9855E+00   6.1311E+00   7.7041E-05  0.0133
   6.1311E+00   6.2803E+00   7.6327E-05  0.0132
   6.2803E+00   6.4331E+00   7.6718E-05  0.0130
   6.4331E+00   6.5896E+00   7.3560E-05  0.0131
   6.5896E+00   6.7500E+00   7.2336E-05  0.0131
   6.7500E+00   6.9142E+00   7.0268E-05  0.0131
   6.9142E+00   7.0824E+00   6.9093E-05  0.0131
   7.0824E+00   7.2548E+00   6.7751E-05  0.0131
   7.2548E+00   7.4313E+00   6.6588E-05  0.0130
   7.4313E+00   7.6121E+00   6.4161E-05  0.0131
   7.6121E+00   7.7973E+00   6.1689E-05  0.0132
   7.7973E+00   7.9870E+00   5.9987E-05  0.0132
   7.9870E+00   8.1813E+00   5.7401E-05  0.0134
   8.1813E+00   8.3804E+00   5.5957E-05  0.0134
   8.3804E+00   8.5843E+00   5.6264E-05  0.0132
   8.5843E+00   8.7931E+00   5.3057E-05  0.0134
   8.7931E+00   9.0071E+00   5.1854E-05  0.0134
   9.0071E+00   9.2262E+00   4.9672E-05  0.0135
   9.2262E+00   9.4507E+00   4.7960E-05  0.0136
   9.4507E+00   9.6807E+00   4.7133E-05  0.0136
   9.6807E+00   9.9162E+00   4.4933E-05  0.0137
   9.9162E+00   1.0157E+01   4.3272E-05  0.0138
   1.0157E+01   1.0405E+01   4.1911E-05  0.0139
   1.0405E+01   1.0658E+01   4.0843E-05  0.0139
   1.0658E+01   1.0917E+01   3.9863E-05  0.0139
   1.0917E+01   1.1183E+01   3.8508E-05  0.0140
   1.1183E+01   1.1455E+01   3.6874E-05  0.0141
   1.1455E+01   1.1733E+01   3.5387E-05  0.0142
   1.1733E+01   1.2019E+01   3.3454E-05  0.0145
   1.2019E+01   1.2311E+01   3.2575E-05  0.0145
   1.2311E+01   1.2611E+01   3.0330E-05  0.0148
   1.2611E+01   1.2918E+01   2.8344E-05  0.0152
   1.2918E+01   1.3232E+01   2.8334E-05  0.0150
   1.3232E+01   1.3554E+01   2.6480E-05  0.0153
   1.3554E+01   1.3884E+01   2.5047E-05  0.0156
   1.3884E+01   1.4222E+01   2.4011E-05  0.0157
   1.4222E+01   1.4568E+01   2.2843E-05  0.0159
   1.4568E+01   1.4922E+01   2.1305E-05  0.0163
   1.4922E+01   1.5285E+01   2.0235E-05  0.0165
   1.5285E+01   1.5657E+01   1.9207E-05  0.0167
   1.5657E+01   1.6038E+01   1.8566E-05  0.0168
   1.6038E+01   1.6428E+01   1.7388E-05  0.0172
   1.6428E+01   1.6828E+01   1.6430E-05  0.0175
   1.6828E+01   1.7237E+01   1.5401E-05  0.0178
   1.7237E+01   1.7657E+01   1.4760E-05  0.0180
   1.7657E+01   1.8086E+01   1.4601E-05  0.0179
   1.8086E+01   1.8526E+01   1.3821E-05  0.0181
   1.8526E+01   1.8977E+01   1.3230E-05  0.0183
   1.8977E+01   1.9439E+01   1.2722E-05  0.0185
   1.9439E+01   1.9912E+01   1.2598E-05  0.0183
   1.9912E+01   2.0396E+01   1.2009E-05  0.0185
   2.0396E+01   2.0893E+01   1.1454E-05  0.0188
   2.0893E+01   2.1401E+01   1.0969E-05  0.0189
   2.1401E+01   2.1922E+01   1.0451E-05  0.0192
   2.1922E+01   2.2455E+01   1.0376E-05  0.0190
   2.2455E+01   2.3001E+01   1.0034E-05  0.0191
   2.3001E+01   2.3561E+01   9.3560E-06  0.0195
   2.3561E+01   2.4134E+01   9.0570E-06  0.0196
   2.4134E+01   2.4721E+01   8.5694E-06  0.0199
   2.4721E+01   2.5323E+01   7.7707E-06  0.0207
   2.5323E+01   2.5939E+01   7.1251E-06  0.0213
   2.5939E+01   2.6570E+01   6.5154E-06  0.0221
   2.6570E+01   2.7217E+01   5.4851E-06  0.0237
   2.7217E+01   2.7879E+01   4.5605E-06  0.0257
   2.7879E+01   2.8557E+01   3.8065E-06  0.0278
   2.8557E+01   2.9252E+01   3.1058E-06  0.0304
   2.9252E+01   2.9964E+01   2.3211E-06  0.0348
   2.9964E+01   3.0693E+01   1.7914E-06  0.0391
   3.0693E+01   3.1440E+01   1.2346E-06  0.0466
   3.1440E+01   3.2205E+01   7.9482E-07  0.0574
   3.2205E+01   3.2988E+01   5.5899E-07  0.0676
   3.2988E+01   3.3791E+01   3.4138E-07  0.0854
   3.3791E+01   3.4613E+01   2.1650E-07  0.1060
   3.4613E+01   3.5455E+01   8.3120E-08  0.1690
   3.5455E+01   3.6318E+01   2.0866E-08  0.3333
   3.6318E+01   3.7201E+01   4.5267E-09  0.7071
   3.7201E+01   3.8106E+01   2.2096E-09  1.0000
   3.8106E+01   3.9034E+01   0.0000E+00  0.0000
   3.9034E+01   3.9983E+01   0.0000E+00  0.0000
   3.9983E+01   4.0956E+01   0.0000E+00  0.0000
   4.0956E+01   4.1953E+01   0.0000E+00  0.0000
   4.1953E+01   4.2973E+01   1.9594E-09  1.0000
   4.2973E+01   4.4019E+01   0.0000E+00  0.0000
   4.4019E+01   4.5090E+01   0.0000E+00  0.0000
   4.5090E+01   4.6187E+01   0.0000E+00  0.0000
   4.6187E+01   4.7311E+01   0.0000E+00  0.0000
   4.7311E+01   4.8462E+01   0.0000E+00  0.0000
   4.8462E+01   4.9641E+01   0.0000E+00  0.0000
   4.9641E+01   5.0849E+01   0.0000E+00  0.0000
   5.0849E+01   5.2086E+01   0.0000E+00  0.0000
   5.2086E+01   5.3353E+01   0.0000E+00  0.0000
   5.3353E+01   5.4651E+01   0.0000E+00  0.0000
   5.4651E+01   5.5981E+01   0.0000E+00  0.0000
   5.5981E+01   5.7343E+01   0.0000E+00  0.0000
   5.7343E+01   5.8738E+01   0.0000E+00  0.0000
   5.8738E+01   6.0168E+01   0.0000E+00  0.0000
   6.0168E+01   6.1632E+01   0.0000E+00  0.0000
   6.1632E+01   6.3131E+01   0.0000E+00  0.0000
   6.3131E+01   6.4667E+01   0.0000E+00  0.0000
   6.4667E+01   6.6240E+01   0.0000E+00  0.0000
   6.6240E+01   6.7852E+01   0.0000E+00  0.0000
   6.7852E+01   6.9503E+01   0.0000E+00  0.0000
   6.9503E+01   7.1194E+01   0.0000E+00  0.0000
   7.1194E+01   7.2926E+01   0.0000E+00  0.0000
   7.2926E+01   7.4701E+01   0.0000E+00  0.0000
   7.4701E+01   7.6518E+01   0.0000E+00  0.0000
   7.6518E+01   7.8380E+01   0.0000E+00  0.0000
   7.8380E+01   8.0287E+01   0.0000E+00  0.0000
   8.0287E+01   8.2240E+01   0.0000E+00  0.0000
   8.2240E+01   8.4241E+01   0.0000E+00  0.0000
   8.4241E+01   8.6291E+01   0.0000E+00  0.0000
   8.6291E+01   8.8391E+01   0.0000E+00  0.0000
   8.8391E+01   9.0541E+01   0.0000E+00  0.0000
   9.0541E+01   9.2744E+01   0.0000E+00  0.0000
   9.2744E+01   9.5001E+01   0.0000E+00  0.0000
   9.5001E+01   9.7312E+01   0.0000E+00  0.0000
   9.7312E+01   9.9680E+01   0.0000E+00  0.0000
   9.9680E+01   1.0211E+02   0.0000E+00  0.0000
   1.0211E+02   1.0459E+02   0.0000E+00  0.0000
   1.0459E+02   1.0713E+02   0.0000E+00  0.0000
   1.0713E+02   1.0974E+02   0.0000E+00  0.0000
   1.0974E+02   1.1241E+02   0.0000E+00  0.0000
   1.1241E+02   1.1515E+02   0.0000E+00  0.0000
   1.1515E+02   1.1795E+02   0.0000E+00  0.0000
   1.1795E+02   1.2082E+02   0.0000E+00  0.0000
   1.2082E+02   1.2376E+02   0.0000E+00  0.0000
   1.2376E+02   1.2677E+02   0.0000E+00  0.0000
   1.2677E+02   1.2985E+02   0.0000E+00  0.0000
   1.2985E+02   1.3301E+02   0.0000E+00  0.0000
   1.3301E+02   1.3625E+02   0.0000E+00  0.0000
   1.3625E+02   1.3956E+02   0.0000E+00  0.0000
   1.3956E+02   1.4296E+02   0.0000E+00  0.0000
   1.4296E+02   1.4644E+02   0.0000E+00  0.0000
   1.4644E+02   1.5000E+02   0.0000E+00  0.0000

#   sum over                 9.6607E-06
'no. =    1   reg = 116 - 216'
msuc: {\huge [t-cross] in region mesh}
msdr: {\it plotted by \ANGEL \version}
msdl: {\it calculated by \PHITS  3.26}
wt: s(0.7)
\vspace{-3}
  region surface crossing
  area  &=&   1.0000E+00 [cm^2]
e:
 
# Information for Restart Calculation
# This calculation was newly started
# istdev =  2 # 1:Batch variance, 2:History variance
# resc2  = 5.00000000000000000E+08 # Total source weight or Total source weight / maxcas
# resc3  = 5.00000000000000000E+08 # Total history number or Total batch number
# maxcas =   500000000 # History / Batch, only used for istdev=1
# bitrseed = 1101101111010011011000101101110001100110110010110001010100010001 # bit data of rseed
