[ T-Cross ]
    title = [t-cross] in region mesh
     mesh =  reg            # mesh type is region-wise
      reg =    1            # number of crossing regions
      non     r-from    r-to       area
      1       117       217        1.000000    
   e-type =    3            # e-mesh is log given by emin, emax and ne
     emin =  1.0000000E-02  # minimum value of e-mesh points
     emax =   150.0000      # maximum value of e-mesh points
#    edel =  2.4039514E-02  # mesh width of e-mesh points
       ne =    400          # number of e-mesh points
#    data = ( e(i), i = 1, ne + 1 )
#           1.00000E-02  1.02433E-02  1.04925E-02  1.07478E-02  1.10093E-02
#           1.12772E-02  1.15516E-02  1.18326E-02  1.21205E-02  1.24154E-02
#           1.27175E-02  1.30269E-02  1.33439E-02  1.36686E-02  1.40011E-02
#           1.43418E-02  1.46907E-02  1.50482E-02  1.54143E-02  1.57894E-02
#           1.61735E-02  1.65670E-02  1.69701E-02  1.73830E-02  1.78060E-02
#           1.82392E-02  1.86830E-02  1.91375E-02  1.96032E-02  2.00801E-02
#           2.05687E-02  2.10692E-02  2.15818E-02  2.21069E-02  2.26448E-02
#           2.31957E-02  2.37601E-02  2.43382E-02  2.49304E-02  2.55369E-02
#           2.61583E-02  2.67947E-02  2.74467E-02  2.81145E-02  2.87985E-02
#           2.94992E-02  3.02169E-02  3.09521E-02  3.17052E-02  3.24766E-02
#           3.32668E-02  3.40762E-02  3.49053E-02  3.57546E-02  3.66246E-02
#           3.75157E-02  3.84284E-02  3.93634E-02  4.03212E-02  4.13022E-02
#           4.23071E-02  4.33365E-02  4.43909E-02  4.54710E-02  4.65773E-02
#           4.77106E-02  4.88714E-02  5.00605E-02  5.12785E-02  5.25262E-02
#           5.38042E-02  5.51133E-02  5.64542E-02  5.78278E-02  5.92348E-02
#           6.06760E-02  6.21523E-02  6.36645E-02  6.52135E-02  6.68002E-02
#           6.84255E-02  7.00904E-02  7.17957E-02  7.35426E-02  7.53319E-02
#           7.71648E-02  7.90423E-02  8.09655E-02  8.29354E-02  8.49533E-02
#           8.70203E-02  8.91376E-02  9.13064E-02  9.35279E-02  9.58035E-02
#           9.81345E-02  1.00522E-01  1.02968E-01  1.05473E-01  1.08040E-01
#           1.10668E-01  1.13361E-01  1.16119E-01  1.18944E-01  1.21838E-01
#           1.24803E-01  1.27839E-01  1.30950E-01  1.34136E-01  1.37399E-01
#           1.40742E-01  1.44167E-01  1.47675E-01  1.51268E-01  1.54948E-01
#           1.58718E-01  1.62580E-01  1.66535E-01  1.70587E-01  1.74738E-01
#           1.78989E-01  1.83344E-01  1.87805E-01  1.92375E-01  1.97055E-01
#           2.01850E-01  2.06761E-01  2.11792E-01  2.16945E-01  2.22223E-01
#           2.27630E-01  2.33169E-01  2.38842E-01  2.44653E-01  2.50605E-01
#           2.56703E-01  2.62949E-01  2.69346E-01  2.75900E-01  2.82613E-01
#           2.89489E-01  2.96532E-01  3.03747E-01  3.11138E-01  3.18708E-01
#           3.26462E-01  3.34405E-01  3.42542E-01  3.50876E-01  3.59413E-01
#           3.68158E-01  3.77116E-01  3.86291E-01  3.95690E-01  4.05317E-01
#           4.15179E-01  4.25281E-01  4.35628E-01  4.46227E-01  4.57084E-01
#           4.68205E-01  4.79597E-01  4.91266E-01  5.03219E-01  5.15463E-01
#           5.28005E-01  5.40851E-01  5.54011E-01  5.67490E-01  5.81298E-01
#           5.95441E-01  6.09929E-01  6.24769E-01  6.39970E-01  6.55541E-01
#           6.71491E-01  6.87828E-01  7.04564E-01  7.21706E-01  7.39266E-01
#           7.57253E-01  7.75678E-01  7.94551E-01  8.13883E-01  8.33685E-01
#           8.53969E-01  8.74747E-01  8.96030E-01  9.17831E-01  9.40163E-01
#           9.63038E-01  9.86469E-01  1.01047E+00  1.03506E+00  1.06024E+00
#           1.08604E+00  1.11246E+00  1.13953E+00  1.16725E+00  1.19565E+00
#           1.22474E+00  1.25454E+00  1.28507E+00  1.31633E+00  1.34836E+00
#           1.38117E+00  1.41477E+00  1.44920E+00  1.48446E+00  1.52057E+00
#           1.55757E+00  1.59547E+00  1.63429E+00  1.67405E+00  1.71478E+00
#           1.75650E+00  1.79924E+00  1.84302E+00  1.88786E+00  1.93379E+00
#           1.98084E+00  2.02904E+00  2.07841E+00  2.12898E+00  2.18078E+00
#           2.23384E+00  2.28819E+00  2.34386E+00  2.40089E+00  2.45930E+00
#           2.51914E+00  2.58043E+00  2.64322E+00  2.70753E+00  2.77341E+00
#           2.84088E+00  2.91001E+00  2.98081E+00  3.05333E+00  3.12762E+00
#           3.20372E+00  3.28167E+00  3.36152E+00  3.44330E+00  3.52708E+00
#           3.61290E+00  3.70080E+00  3.79085E+00  3.88308E+00  3.97756E+00
#           4.07434E+00  4.17347E+00  4.27501E+00  4.37903E+00  4.48557E+00
#           4.59471E+00  4.70650E+00  4.82102E+00  4.93832E+00  5.05847E+00
#           5.18155E+00  5.30762E+00  5.43676E+00  5.56904E+00  5.70453E+00
#           5.84333E+00  5.98550E+00  6.13114E+00  6.28031E+00  6.43312E+00
#           6.58964E+00  6.74997E+00  6.91420E+00  7.08243E+00  7.25475E+00
#           7.43126E+00  7.61207E+00  7.79728E+00  7.98700E+00  8.18133E+00
#           8.38038E+00  8.58428E+00  8.79315E+00  9.00709E+00  9.22624E+00
#           9.45072E+00  9.68067E+00  9.91620E+00  1.01575E+01  1.04046E+01
#           1.06578E+01  1.09171E+01  1.11827E+01  1.14548E+01  1.17335E+01
#           1.20190E+01  1.23114E+01  1.26109E+01  1.29178E+01  1.32321E+01
#           1.35540E+01  1.38838E+01  1.42216E+01  1.45676E+01  1.49221E+01
#           1.52851E+01  1.56570E+01  1.60380E+01  1.64282E+01  1.68279E+01
#           1.72374E+01  1.76568E+01  1.80864E+01  1.85264E+01  1.89772E+01
#           1.94389E+01  1.99119E+01  2.03963E+01  2.08926E+01  2.14009E+01
#           2.19216E+01  2.24550E+01  2.30014E+01  2.35610E+01  2.41343E+01
#           2.47215E+01  2.53230E+01  2.59391E+01  2.65702E+01  2.72167E+01
#           2.78789E+01  2.85572E+01  2.92520E+01  2.99637E+01  3.06928E+01
#           3.14396E+01  3.22045E+01  3.29881E+01  3.37907E+01  3.46128E+01
#           3.54550E+01  3.63177E+01  3.72013E+01  3.81064E+01  3.90336E+01
#           3.99833E+01  4.09561E+01  4.19526E+01  4.29734E+01  4.40189E+01
#           4.50900E+01  4.61870E+01  4.73108E+01  4.84619E+01  4.96410E+01
#           5.08488E+01  5.20860E+01  5.33533E+01  5.46514E+01  5.59812E+01
#           5.73432E+01  5.87384E+01  6.01676E+01  6.16315E+01  6.31311E+01
#           6.46671E+01  6.62405E+01  6.78522E+01  6.95031E+01  7.11941E+01
#           7.29263E+01  7.47007E+01  7.65182E+01  7.83800E+01  8.02870E+01
#           8.22405E+01  8.42414E+01  8.62911E+01  8.83906E+01  9.05412E+01
#           9.27442E+01  9.50007E+01  9.73122E+01  9.96799E+01  1.02105E+02
#           1.04589E+02  1.07134E+02  1.09741E+02  1.12411E+02  1.15146E+02
#           1.17948E+02  1.20817E+02  1.23757E+02  1.26768E+02  1.29852E+02
#           1.33012E+02  1.36248E+02  1.39563E+02  1.42959E+02  1.46437E+02
#           1.50000E+02
     unit =    2            # unit is [1/cm^2/(MeV/n)/source]
     axis =  eng            # axis of output
     file = detector-18.out  # file name of output for the above axis
   output = f-curr          # surface crossing forward current spectrum
     part =  neutron  
# kf/name :  2112     
#    used :        main (  %)        temp (  %)       total (  %)
#  memory :         414 (  0)           0 (  0)         414 (  0)

#------------------------------------------------------------------------------
#newpage:
#   no. =    1   reg = 117 - 217

x: Energy [MeV/n]
y:  F-Curr [1/cm^2/(MeV/n)/source]         
p: xlog ylog afac(0.8) form(0.9)
h: n            x            y(neutron ),hh0l   n 
#  e-lower      e-upper      neutron     r.err 
   1.0000E-02   1.0243E-02   1.0164E-03  0.0898
   1.0243E-02   1.0493E-02   1.1623E-03  0.0829
   1.0493E-02   1.0748E-02   9.2281E-04  0.0919
   1.0748E-02   1.1009E-02   9.6370E-04  0.0888
   1.1009E-02   1.1277E-02   1.0393E-03  0.0847
   1.1277E-02   1.1552E-02   8.8060E-04  0.0908
   1.1552E-02   1.1833E-02   1.0791E-03  0.0811
   1.1833E-02   1.2121E-02   8.1468E-04  0.0920
   1.2121E-02   1.2415E-02   1.0026E-03  0.0821
   1.2415E-02   1.2718E-02   9.4105E-04  0.0837
   1.2718E-02   1.3027E-02   9.3930E-04  0.0829
   1.3027E-02   1.3344E-02   8.6545E-04  0.0853
   1.3344E-02   1.3669E-02   8.2238E-04  0.0865
   1.3669E-02   1.4001E-02   9.6386E-04  0.0789
   1.4001E-02   1.4342E-02   8.1802E-04  0.0845
   1.4342E-02   1.4691E-02   8.3560E-04  0.0827
   1.4691E-02   1.5048E-02   8.4119E-04  0.0815
   1.5048E-02   1.5414E-02   8.8781E-04  0.0783
   1.5414E-02   1.5789E-02   9.5621E-04  0.0746
   1.5789E-02   1.6174E-02   8.2776E-04  0.0793
   1.6174E-02   1.6567E-02   7.5899E-04  0.0816
   1.6567E-02   1.6970E-02   8.4918E-04  0.0763
   1.6970E-02   1.7383E-02   7.6951E-04  0.0792
   1.7383E-02   1.7806E-02   7.5272E-04  0.0792
   1.7806E-02   1.8239E-02   7.6633E-04  0.0776
   1.8239E-02   1.8683E-02   7.7672E-04  0.0760
   1.8683E-02   1.9138E-02   7.2307E-04  0.0778
   1.9138E-02   1.9603E-02   7.3300E-04  0.0763
   1.9603E-02   2.0080E-02   7.2976E-04  0.0757
   2.0080E-02   2.0569E-02   7.2257E-04  0.0752
   2.0569E-02   2.1069E-02   7.6995E-04  0.0719
   2.1069E-02   2.1582E-02   7.1181E-04  0.0740
   2.1582E-02   2.2107E-02   5.9853E-04  0.0797
   2.2107E-02   2.2645E-02   6.9275E-04  0.0731
   2.2645E-02   2.3196E-02   6.7264E-04  0.0734
   2.3196E-02   2.3760E-02   7.3335E-04  0.0694
   2.3760E-02   2.4338E-02   7.3393E-04  0.0686
   2.4338E-02   2.4930E-02   7.4870E-04  0.0670
   2.4930E-02   2.5537E-02   6.6068E-04  0.0705
   2.5537E-02   2.6158E-02   7.1162E-04  0.0671
   2.6158E-02   2.6795E-02   6.3680E-04  0.0702
   2.6795E-02   2.7447E-02   6.3601E-04  0.0693
   2.7447E-02   2.8114E-02   6.1852E-04  0.0695
   2.8114E-02   2.8799E-02   5.8930E-04  0.0704
   2.8799E-02   2.9499E-02   5.5505E-04  0.0716
   2.9499E-02   3.0217E-02   6.2052E-04  0.0670
   3.0217E-02   3.0952E-02   5.8351E-04  0.0682
   3.0952E-02   3.1705E-02   6.0937E-04  0.0660
   3.1705E-02   3.2477E-02   5.0116E-04  0.0719
   3.2477E-02   3.3267E-02   5.4066E-04  0.0683
   3.3267E-02   3.4076E-02   4.8923E-04  0.0709
   3.4076E-02   3.4905E-02   5.3440E-04  0.0670
   3.4905E-02   3.5755E-02   4.6806E-04  0.0708
   3.5755E-02   3.6625E-02   4.8046E-04  0.0690
   3.6625E-02   3.7516E-02   4.9182E-04  0.0673
   3.7516E-02   3.8428E-02   4.7251E-04  0.0679
   3.8428E-02   3.9363E-02   4.8045E-04  0.0666
   3.9363E-02   4.0321E-02   4.6732E-04  0.0668
   4.0321E-02   4.1302E-02   5.1840E-04  0.0626
   4.1302E-02   4.2307E-02   4.3919E-04  0.0672
   4.2307E-02   4.3337E-02   4.1646E-04  0.0682
   4.3337E-02   4.4391E-02   4.5328E-04  0.0646
   4.4391E-02   4.5471E-02   4.9248E-04  0.0612
   4.5471E-02   4.6577E-02   4.2056E-04  0.0655
   4.6577E-02   4.7711E-02   4.2295E-04  0.0645
   4.7711E-02   4.8871E-02   3.8965E-04  0.0665
   4.8871E-02   5.0061E-02   4.3372E-04  0.0621
   5.0061E-02   5.1279E-02   4.1495E-04  0.0628
   5.1279E-02   5.2526E-02   4.4304E-04  0.0600
   5.2526E-02   5.3804E-02   3.7907E-04  0.0641
   5.3804E-02   5.5113E-02   3.6866E-04  0.0643
   5.5113E-02   5.6454E-02   3.7063E-04  0.0634
   5.6454E-02   5.7828E-02   3.7199E-04  0.0625
   5.7828E-02   5.9235E-02   3.7383E-04  0.0616
   5.9235E-02   6.0676E-02   3.5845E-04  0.0622
   6.0676E-02   6.2152E-02   3.6936E-04  0.0605
   6.2152E-02   6.3665E-02   3.7306E-04  0.0594
   6.3665E-02   6.5214E-02   3.7286E-04  0.0588
   6.5214E-02   6.6800E-02   3.3185E-04  0.0614
   6.6800E-02   6.8426E-02   3.3267E-04  0.0607
   6.8426E-02   7.0090E-02   3.1810E-04  0.0614
   7.0090E-02   7.1796E-02   3.1592E-04  0.0608
   7.1796E-02   7.3543E-02   3.5091E-04  0.0570
   7.3543E-02   7.5332E-02   3.3188E-04  0.0580
   7.5332E-02   7.7165E-02   2.8982E-04  0.0613
   7.7165E-02   7.9042E-02   2.8825E-04  0.0606
   7.9042E-02   8.0965E-02   3.1114E-04  0.0577
   8.0965E-02   8.2935E-02   2.8716E-04  0.0594
   8.2935E-02   8.4953E-02   2.7982E-04  0.0594
   8.4953E-02   8.7020E-02   2.4572E-04  0.0626
   8.7020E-02   8.9138E-02   2.6481E-04  0.0596
   8.9138E-02   9.1306E-02   2.3973E-04  0.0619
   9.1306E-02   9.3528E-02   2.6088E-04  0.0586
   9.3528E-02   9.5804E-02   2.2796E-04  0.0620
   9.5804E-02   9.8134E-02   2.2914E-04  0.0610
   9.8134E-02   1.0052E-01   2.1204E-04  0.0628
   1.0052E-01   1.0297E-01   2.5208E-04  0.0569
   1.0297E-01   1.0547E-01   2.4744E-04  0.0567
   1.0547E-01   1.0804E-01   2.4301E-04  0.0565
   1.0804E-01   1.1067E-01   2.2373E-04  0.0581
   1.1067E-01   1.1336E-01   1.9596E-04  0.0614
   1.1336E-01   1.1612E-01   2.0763E-04  0.0590
   1.1612E-01   1.1894E-01   1.9676E-04  0.0598
   1.1894E-01   1.2184E-01   1.9201E-04  0.0599
   1.2184E-01   1.2480E-01   1.7182E-04  0.0625
   1.2480E-01   1.2784E-01   1.9187E-04  0.0584
   1.2784E-01   1.3095E-01   1.9315E-04  0.0576
   1.3095E-01   1.3414E-01   1.7664E-04  0.0595
   1.3414E-01   1.3740E-01   1.6166E-04  0.0615
   1.3740E-01   1.4074E-01   1.8574E-04  0.0567
   1.4074E-01   1.4417E-01   1.8173E-04  0.0567
   1.4417E-01   1.4767E-01   1.3564E-04  0.0647
   1.4767E-01   1.5127E-01   1.6747E-04  0.0575
   1.5127E-01   1.5495E-01   1.4291E-04  0.0615
   1.5495E-01   1.5872E-01   1.2810E-04  0.0642
   1.5872E-01   1.6258E-01   1.3693E-04  0.0613
   1.6258E-01   1.6654E-01   1.4949E-04  0.0581
   1.6654E-01   1.7059E-01   1.2766E-04  0.0621
   1.7059E-01   1.7474E-01   1.4091E-04  0.0583
   1.7474E-01   1.7899E-01   1.1807E-04  0.0630
   1.7899E-01   1.8334E-01   1.2186E-04  0.0611
   1.8334E-01   1.8781E-01   1.2082E-04  0.0608
   1.8781E-01   1.9237E-01   1.0880E-04  0.0633
   1.9237E-01   1.9706E-01   1.2066E-04  0.0594
   1.9706E-01   2.0185E-01   1.1719E-04  0.0596
   2.0185E-01   2.0676E-01   1.2508E-04  0.0569
   2.0676E-01   2.1179E-01   1.1276E-04  0.0593
   2.1179E-01   2.1694E-01   1.3741E-04  0.0531
   2.1694E-01   2.2222E-01   1.2070E-04  0.0558
   2.2222E-01   2.2763E-01   1.2824E-04  0.0536
   2.2763E-01   2.3317E-01   1.2910E-04  0.0528
   2.3317E-01   2.3884E-01   1.4090E-04  0.0499
   2.3884E-01   2.4465E-01   1.4949E-04  0.0480
   2.4465E-01   2.5061E-01   1.5154E-04  0.0470
   2.5061E-01   2.5670E-01   1.4446E-04  0.0476
   2.5670E-01   2.6295E-01   1.5712E-04  0.0451
   2.6295E-01   2.6935E-01   1.6959E-04  0.0428
   2.6935E-01   2.7590E-01   1.5808E-04  0.0439
   2.7590E-01   2.8261E-01   1.6378E-04  0.0426
   2.8261E-01   2.8949E-01   1.5958E-04  0.0426
   2.8949E-01   2.9653E-01   1.6294E-04  0.0417
   2.9653E-01   3.0375E-01   1.6240E-04  0.0412
   3.0375E-01   3.1114E-01   1.7389E-04  0.0393
   3.1114E-01   3.1871E-01   1.7329E-04  0.0390
   3.1871E-01   3.2646E-01   1.8080E-04  0.0377
   3.2646E-01   3.3441E-01   1.8705E-04  0.0366
   3.3441E-01   3.4254E-01   1.7130E-04  0.0378
   3.4254E-01   3.5088E-01   1.8402E-04  0.0360
   3.5088E-01   3.5941E-01   1.9469E-04  0.0346
   3.5941E-01   3.6816E-01   1.8710E-04  0.0349
   3.6816E-01   3.7712E-01   1.7914E-04  0.0352
   3.7712E-01   3.8629E-01   1.9005E-04  0.0337
   3.8629E-01   3.9569E-01   2.0512E-04  0.0321
   3.9569E-01   4.0532E-01   1.8998E-04  0.0330
   4.0532E-01   4.1518E-01   2.1001E-04  0.0310
   4.1518E-01   4.2528E-01   1.9370E-04  0.0319
   4.2528E-01   4.3563E-01   2.1281E-04  0.0301
   4.3563E-01   4.4623E-01   2.1097E-04  0.0298
   4.4623E-01   4.5708E-01   2.1375E-04  0.0293
   4.5708E-01   4.6821E-01   2.1227E-04  0.0290
   4.6821E-01   4.7960E-01   2.0609E-04  0.0291
   4.7960E-01   4.9127E-01   2.0943E-04  0.0285
   4.9127E-01   5.0322E-01   2.1731E-04  0.0277
   5.0322E-01   5.1546E-01   2.1035E-04  0.0278
   5.1546E-01   5.2800E-01   2.2325E-04  0.0266
   5.2800E-01   5.4085E-01   2.1838E-04  0.0266
   5.4085E-01   5.5401E-01   2.2572E-04  0.0259
   5.5401E-01   5.6749E-01   2.1613E-04  0.0261
   5.6749E-01   5.8130E-01   2.2623E-04  0.0252
   5.8130E-01   5.9544E-01   2.2114E-04  0.0252
   5.9544E-01   6.0993E-01   2.3293E-04  0.0243
   6.0993E-01   6.2477E-01   2.1389E-04  0.0250
   6.2477E-01   6.3997E-01   2.3410E-04  0.0237
   6.3997E-01   6.5554E-01   2.2564E-04  0.0238
   6.5554E-01   6.7149E-01   2.2046E-04  0.0238
   6.7149E-01   6.8783E-01   2.2990E-04  0.0230
   6.8783E-01   7.0456E-01   2.3440E-04  0.0225
   7.0456E-01   7.2171E-01   2.2462E-04  0.0227
   7.2171E-01   7.3927E-01   2.3062E-04  0.0222
   7.3927E-01   7.5725E-01   2.1970E-04  0.0224
   7.5725E-01   7.7568E-01   2.2131E-04  0.0221
   7.7568E-01   7.9455E-01   2.1181E-04  0.0223
   7.9455E-01   8.1388E-01   2.2900E-04  0.0212
   8.1388E-01   8.3368E-01   2.1589E-04  0.0216
   8.3368E-01   8.5397E-01   2.1679E-04  0.0213
   8.5397E-01   8.7475E-01   2.1170E-04  0.0213
   8.7475E-01   8.9603E-01   2.2382E-04  0.0204
   8.9603E-01   9.1783E-01   2.1388E-04  0.0206
   9.1783E-01   9.4016E-01   2.0706E-04  0.0207
   9.4016E-01   9.6304E-01   2.1008E-04  0.0203
   9.6304E-01   9.8647E-01   2.0896E-04  0.0201
   9.8647E-01   1.0105E+00   2.1393E-04  0.0197
   1.0105E+00   1.0351E+00   2.0649E-04  0.0198
   1.0351E+00   1.0602E+00   2.0849E-04  0.0194
   1.0602E+00   1.0860E+00   1.9791E-04  0.0197
   1.0860E+00   1.1125E+00   2.0049E-04  0.0194
   1.1125E+00   1.1395E+00   2.0700E-04  0.0188
   1.1395E+00   1.1673E+00   1.9832E-04  0.0190
   1.1673E+00   1.1957E+00   1.9371E-04  0.0190
   1.1957E+00   1.2247E+00   1.9212E-04  0.0188
   1.2247E+00   1.2545E+00   1.9537E-04  0.0185
   1.2545E+00   1.2851E+00   1.9406E-04  0.0183
   1.2851E+00   1.3163E+00   1.8830E-04  0.0183
   1.3163E+00   1.3484E+00   1.8899E-04  0.0181
   1.3484E+00   1.3812E+00   1.8011E-04  0.0183
   1.3812E+00   1.4148E+00   1.8231E-04  0.0180
   1.4148E+00   1.4492E+00   1.7657E-04  0.0181
   1.4492E+00   1.4845E+00   1.7243E-04  0.0181
   1.4845E+00   1.5206E+00   1.7263E-04  0.0178
   1.5206E+00   1.5576E+00   1.6981E-04  0.0178
   1.5576E+00   1.5955E+00   1.6238E-04  0.0179
   1.5955E+00   1.6343E+00   1.6783E-04  0.0174
   1.6343E+00   1.6741E+00   1.5694E-04  0.0178
   1.6741E+00   1.7148E+00   1.5739E-04  0.0176
   1.7148E+00   1.7565E+00   1.6071E-04  0.0172
   1.7565E+00   1.7992E+00   1.5010E-04  0.0176
   1.7992E+00   1.8430E+00   1.4842E-04  0.0175
   1.8430E+00   1.8879E+00   1.4376E-04  0.0175
   1.8879E+00   1.9338E+00   1.4142E-04  0.0175
   1.9338E+00   1.9808E+00   1.4307E-04  0.0172
   1.9808E+00   2.0290E+00   1.3896E-04  0.0172
   2.0290E+00   2.0784E+00   1.3677E-04  0.0171
   2.0784E+00   2.1290E+00   1.3679E-04  0.0169
   2.1290E+00   2.1808E+00   1.3418E-04  0.0169
   2.1808E+00   2.2338E+00   1.3084E-04  0.0169
   2.2338E+00   2.2882E+00   1.2887E-04  0.0168
   2.2882E+00   2.3439E+00   1.3114E-04  0.0165
   2.3439E+00   2.4009E+00   1.2892E-04  0.0164
   2.4009E+00   2.4593E+00   1.2999E-04  0.0162
   2.4593E+00   2.5191E+00   1.2421E-04  0.0163
   2.5191E+00   2.5804E+00   1.2596E-04  0.0160
   2.5804E+00   2.6432E+00   1.2818E-04  0.0157
   2.6432E+00   2.7075E+00   1.2317E-04  0.0158
   2.7075E+00   2.7734E+00   1.2351E-04  0.0156
   2.7734E+00   2.8409E+00   1.2318E-04  0.0154
   2.8409E+00   2.9100E+00   1.2038E-04  0.0154
   2.9100E+00   2.9808E+00   1.1890E-04  0.0153
   2.9808E+00   3.0533E+00   1.1930E-04  0.0151
   3.0533E+00   3.1276E+00   1.1814E-04  0.0150
   3.1276E+00   3.2037E+00   1.1712E-04  0.0149
   3.2037E+00   3.2817E+00   1.1643E-04  0.0148
   3.2817E+00   3.3615E+00   1.1446E-04  0.0147
   3.3615E+00   3.4433E+00   1.0916E-04  0.0149
   3.4433E+00   3.5271E+00   1.0884E-04  0.0148
   3.5271E+00   3.6129E+00   1.0891E-04  0.0146
   3.6129E+00   3.7008E+00   1.0618E-04  0.0146
   3.7008E+00   3.7908E+00   1.0345E-04  0.0146
   3.7908E+00   3.8831E+00   9.8776E-05  0.0148
   3.8831E+00   3.9776E+00   9.2469E-05  0.0151
   3.9776E+00   4.0743E+00   9.3066E-05  0.0148
   4.0743E+00   4.1735E+00   8.7726E-05  0.0151
   4.1735E+00   4.2750E+00   8.1424E-05  0.0155
   4.2750E+00   4.3790E+00   7.9313E-05  0.0155
   4.3790E+00   4.4856E+00   8.1347E-05  0.0151
   4.4856E+00   4.5947E+00   7.9028E-05  0.0152
   4.5947E+00   4.7065E+00   7.7160E-05  0.0152
   4.7065E+00   4.8210E+00   7.6168E-05  0.0151
   4.8210E+00   4.9383E+00   7.7066E-05  0.0148
   4.9383E+00   5.0585E+00   7.1347E-05  0.0152
   5.0585E+00   5.1815E+00   7.2454E-05  0.0149
   5.1815E+00   5.3076E+00   6.9584E-05  0.0151
   5.3076E+00   5.4368E+00   6.8718E-05  0.0150
   5.4368E+00   5.5690E+00   6.7856E-05  0.0149
   5.5690E+00   5.7045E+00   6.7066E-05  0.0148
   5.7045E+00   5.8433E+00   6.4741E-05  0.0149
   5.8433E+00   5.9855E+00   6.4175E-05  0.0148
   5.9855E+00   6.1311E+00   6.4532E-05  0.0145
   6.1311E+00   6.2803E+00   6.2032E-05  0.0147
   6.2803E+00   6.4331E+00   5.9707E-05  0.0148
   6.4331E+00   6.5896E+00   5.8945E-05  0.0147
   6.5896E+00   6.7500E+00   5.6387E-05  0.0148
   6.7500E+00   6.9142E+00   5.5405E-05  0.0148
   6.9142E+00   7.0824E+00   5.4979E-05  0.0147
   7.0824E+00   7.2548E+00   5.4336E-05  0.0146
   7.2548E+00   7.4313E+00   5.3268E-05  0.0146
   7.4313E+00   7.6121E+00   5.1129E-05  0.0147
   7.6121E+00   7.7973E+00   4.8805E-05  0.0149
   7.7973E+00   7.9870E+00   4.8752E-05  0.0147
   7.9870E+00   8.1813E+00   4.7467E-05  0.0147
   8.1813E+00   8.3804E+00   4.5237E-05  0.0149
   8.3804E+00   8.5843E+00   4.3009E-05  0.0151
   8.5843E+00   8.7931E+00   4.2799E-05  0.0149
   8.7931E+00   9.0071E+00   4.0745E-05  0.0151
   9.0071E+00   9.2262E+00   3.7915E-05  0.0155
   9.2262E+00   9.4507E+00   3.6856E-05  0.0155
   9.4507E+00   9.6807E+00   3.5391E-05  0.0157
   9.6807E+00   9.9162E+00   3.4635E-05  0.0156
   9.9162E+00   1.0157E+01   3.3529E-05  0.0157
   1.0157E+01   1.0405E+01   3.2221E-05  0.0158
   1.0405E+01   1.0658E+01   3.2301E-05  0.0156
   1.0658E+01   1.0917E+01   3.1859E-05  0.0155
   1.0917E+01   1.1183E+01   2.9715E-05  0.0159
   1.1183E+01   1.1455E+01   2.8450E-05  0.0161
   1.1455E+01   1.1733E+01   2.6681E-05  0.0164
   1.1733E+01   1.2019E+01   2.6112E-05  0.0164
   1.2019E+01   1.2311E+01   2.4522E-05  0.0167
   1.2311E+01   1.2611E+01   2.3215E-05  0.0170
   1.2611E+01   1.2918E+01   2.1813E-05  0.0173
   1.2918E+01   1.3232E+01   2.1355E-05  0.0173
   1.3232E+01   1.3554E+01   2.0468E-05  0.0174
   1.3554E+01   1.3884E+01   1.9105E-05  0.0178
   1.3884E+01   1.4222E+01   1.8646E-05  0.0178
   1.4222E+01   1.4568E+01   1.6969E-05  0.0184
   1.4568E+01   1.4922E+01   1.6991E-05  0.0182
   1.4922E+01   1.5285E+01   1.5863E-05  0.0186
   1.5285E+01   1.5657E+01   1.5000E-05  0.0189
   1.5657E+01   1.6038E+01   1.4463E-05  0.0190
   1.6038E+01   1.6428E+01   1.3074E-05  0.0198
   1.6428E+01   1.6828E+01   1.3060E-05  0.0196
   1.6828E+01   1.7237E+01   1.2363E-05  0.0199
   1.7237E+01   1.7657E+01   1.1403E-05  0.0204
   1.7657E+01   1.8086E+01   1.1317E-05  0.0203
   1.8086E+01   1.8526E+01   1.0953E-05  0.0204
   1.8526E+01   1.8977E+01   1.0339E-05  0.0207
   1.8977E+01   1.9439E+01   9.8029E-06  0.0210
   1.9439E+01   1.9912E+01   9.6709E-06  0.0209
   1.9912E+01   2.0396E+01   9.6806E-06  0.0207
   2.0396E+01   2.0893E+01   9.3540E-06  0.0208
   2.0893E+01   2.1401E+01   8.7974E-06  0.0211
   2.1401E+01   2.1922E+01   8.7420E-06  0.0210
   2.1922E+01   2.2455E+01   7.9907E-06  0.0217
   2.2455E+01   2.3001E+01   7.6984E-06  0.0218
   2.3001E+01   2.3561E+01   7.5834E-06  0.0217
   2.3561E+01   2.4134E+01   7.2184E-06  0.0220
   2.4134E+01   2.4721E+01   5.9775E-06  0.0239
   2.4721E+01   2.5323E+01   5.6160E-06  0.0243
   2.5323E+01   2.5939E+01   5.0055E-06  0.0255
   2.5939E+01   2.6570E+01   4.0151E-06  0.0281
   2.6570E+01   2.7217E+01   3.3969E-06  0.0302
   2.7217E+01   2.7879E+01   2.7122E-06  0.0334
   2.7879E+01   2.8557E+01   1.9489E-06  0.0389
   2.8557E+01   2.9252E+01   1.6062E-06  0.0423
   2.9252E+01   2.9964E+01   9.5262E-07  0.0543
   2.9964E+01   3.0693E+01   6.6114E-07  0.0644
   3.0693E+01   3.1440E+01   4.9010E-07  0.0739
   3.1440E+01   3.2205E+01   2.7714E-07  0.0971
   3.2205E+01   3.2988E+01   1.5825E-07  0.1270
   3.2988E+01   3.3791E+01   9.9673E-08  0.1581
   3.3791E+01   3.4613E+01   1.2163E-08  0.4472
   3.4613E+01   3.5455E+01   2.3749E-09  1.0000
   3.5455E+01   3.6318E+01   0.0000E+00  0.0000
   3.6318E+01   3.7201E+01   2.2634E-09  1.0000
   3.7201E+01   3.8106E+01   0.0000E+00  0.0000
   3.8106E+01   3.9034E+01   0.0000E+00  0.0000
   3.9034E+01   3.9983E+01   0.0000E+00  0.0000
   3.9983E+01   4.0956E+01   0.0000E+00  0.0000
   4.0956E+01   4.1953E+01   0.0000E+00  0.0000
   4.1953E+01   4.2973E+01   0.0000E+00  0.0000
   4.2973E+01   4.4019E+01   0.0000E+00  0.0000
   4.4019E+01   4.5090E+01   0.0000E+00  0.0000
   4.5090E+01   4.6187E+01   0.0000E+00  0.0000
   4.6187E+01   4.7311E+01   0.0000E+00  0.0000
   4.7311E+01   4.8462E+01   0.0000E+00  0.0000
   4.8462E+01   4.9641E+01   0.0000E+00  0.0000
   4.9641E+01   5.0849E+01   0.0000E+00  0.0000
   5.0849E+01   5.2086E+01   0.0000E+00  0.0000
   5.2086E+01   5.3353E+01   0.0000E+00  0.0000
   5.3353E+01   5.4651E+01   0.0000E+00  0.0000
   5.4651E+01   5.5981E+01   0.0000E+00  0.0000
   5.5981E+01   5.7343E+01   0.0000E+00  0.0000
   5.7343E+01   5.8738E+01   0.0000E+00  0.0000
   5.8738E+01   6.0168E+01   0.0000E+00  0.0000
   6.0168E+01   6.1632E+01   0.0000E+00  0.0000
   6.1632E+01   6.3131E+01   0.0000E+00  0.0000
   6.3131E+01   6.4667E+01   0.0000E+00  0.0000
   6.4667E+01   6.6240E+01   0.0000E+00  0.0000
   6.6240E+01   6.7852E+01   0.0000E+00  0.0000
   6.7852E+01   6.9503E+01   0.0000E+00  0.0000
   6.9503E+01   7.1194E+01   0.0000E+00  0.0000
   7.1194E+01   7.2926E+01   0.0000E+00  0.0000
   7.2926E+01   7.4701E+01   0.0000E+00  0.0000
   7.4701E+01   7.6518E+01   0.0000E+00  0.0000
   7.6518E+01   7.8380E+01   0.0000E+00  0.0000
   7.8380E+01   8.0287E+01   0.0000E+00  0.0000
   8.0287E+01   8.2240E+01   0.0000E+00  0.0000
   8.2240E+01   8.4241E+01   0.0000E+00  0.0000
   8.4241E+01   8.6291E+01   0.0000E+00  0.0000
   8.6291E+01   8.8391E+01   0.0000E+00  0.0000
   8.8391E+01   9.0541E+01   0.0000E+00  0.0000
   9.0541E+01   9.2744E+01   0.0000E+00  0.0000
   9.2744E+01   9.5001E+01   0.0000E+00  0.0000
   9.5001E+01   9.7312E+01   0.0000E+00  0.0000
   9.7312E+01   9.9680E+01   0.0000E+00  0.0000
   9.9680E+01   1.0211E+02   0.0000E+00  0.0000
   1.0211E+02   1.0459E+02   0.0000E+00  0.0000
   1.0459E+02   1.0713E+02   0.0000E+00  0.0000
   1.0713E+02   1.0974E+02   0.0000E+00  0.0000
   1.0974E+02   1.1241E+02   0.0000E+00  0.0000
   1.1241E+02   1.1515E+02   0.0000E+00  0.0000
   1.1515E+02   1.1795E+02   0.0000E+00  0.0000
   1.1795E+02   1.2082E+02   0.0000E+00  0.0000
   1.2082E+02   1.2376E+02   0.0000E+00  0.0000
   1.2376E+02   1.2677E+02   0.0000E+00  0.0000
   1.2677E+02   1.2985E+02   0.0000E+00  0.0000
   1.2985E+02   1.3301E+02   0.0000E+00  0.0000
   1.3301E+02   1.3625E+02   0.0000E+00  0.0000
   1.3625E+02   1.3956E+02   0.0000E+00  0.0000
   1.3956E+02   1.4296E+02   0.0000E+00  0.0000
   1.4296E+02   1.4644E+02   0.0000E+00  0.0000
   1.4644E+02   1.5000E+02   0.0000E+00  0.0000

#   sum over                 8.0157E-06
'no. =    1   reg = 117 - 217'
msuc: {\huge [t-cross] in region mesh}
msdr: {\it plotted by \ANGEL \version}
msdl: {\it calculated by \PHITS  3.26}
wt: s(0.7)
\vspace{-3}
  region surface crossing
  area  &=&   1.0000E+00 [cm^2]
e:
 
# Information for Restart Calculation
# This calculation was newly started
# istdev =  2 # 1:Batch variance, 2:History variance
# resc2  = 5.00000000000000000E+08 # Total source weight or Total source weight / maxcas
# resc3  = 5.00000000000000000E+08 # Total history number or Total batch number
# maxcas =   500000000 # History / Batch, only used for istdev=1
# bitrseed = 1101101111010011011000101101110001100110110010110001010100010001 # bit data of rseed
