[ T-Cross ]
    title = [t-cross] in region mesh
     mesh =  reg            # mesh type is region-wise
      reg =    1            # number of crossing regions
      non     r-from    r-to       area
      1       114       214        1.000000    
   e-type =    3            # e-mesh is log given by emin, emax and ne
     emin =  1.0000000E-02  # minimum value of e-mesh points
     emax =   150.0000      # maximum value of e-mesh points
#    edel =  2.4039514E-02  # mesh width of e-mesh points
       ne =    400          # number of e-mesh points
#    data = ( e(i), i = 1, ne + 1 )
#           1.00000E-02  1.02433E-02  1.04925E-02  1.07478E-02  1.10093E-02
#           1.12772E-02  1.15516E-02  1.18326E-02  1.21205E-02  1.24154E-02
#           1.27175E-02  1.30269E-02  1.33439E-02  1.36686E-02  1.40011E-02
#           1.43418E-02  1.46907E-02  1.50482E-02  1.54143E-02  1.57894E-02
#           1.61735E-02  1.65670E-02  1.69701E-02  1.73830E-02  1.78060E-02
#           1.82392E-02  1.86830E-02  1.91375E-02  1.96032E-02  2.00801E-02
#           2.05687E-02  2.10692E-02  2.15818E-02  2.21069E-02  2.26448E-02
#           2.31957E-02  2.37601E-02  2.43382E-02  2.49304E-02  2.55369E-02
#           2.61583E-02  2.67947E-02  2.74467E-02  2.81145E-02  2.87985E-02
#           2.94992E-02  3.02169E-02  3.09521E-02  3.17052E-02  3.24766E-02
#           3.32668E-02  3.40762E-02  3.49053E-02  3.57546E-02  3.66246E-02
#           3.75157E-02  3.84284E-02  3.93634E-02  4.03212E-02  4.13022E-02
#           4.23071E-02  4.33365E-02  4.43909E-02  4.54710E-02  4.65773E-02
#           4.77106E-02  4.88714E-02  5.00605E-02  5.12785E-02  5.25262E-02
#           5.38042E-02  5.51133E-02  5.64542E-02  5.78278E-02  5.92348E-02
#           6.06760E-02  6.21523E-02  6.36645E-02  6.52135E-02  6.68002E-02
#           6.84255E-02  7.00904E-02  7.17957E-02  7.35426E-02  7.53319E-02
#           7.71648E-02  7.90423E-02  8.09655E-02  8.29354E-02  8.49533E-02
#           8.70203E-02  8.91376E-02  9.13064E-02  9.35279E-02  9.58035E-02
#           9.81345E-02  1.00522E-01  1.02968E-01  1.05473E-01  1.08040E-01
#           1.10668E-01  1.13361E-01  1.16119E-01  1.18944E-01  1.21838E-01
#           1.24803E-01  1.27839E-01  1.30950E-01  1.34136E-01  1.37399E-01
#           1.40742E-01  1.44167E-01  1.47675E-01  1.51268E-01  1.54948E-01
#           1.58718E-01  1.62580E-01  1.66535E-01  1.70587E-01  1.74738E-01
#           1.78989E-01  1.83344E-01  1.87805E-01  1.92375E-01  1.97055E-01
#           2.01850E-01  2.06761E-01  2.11792E-01  2.16945E-01  2.22223E-01
#           2.27630E-01  2.33169E-01  2.38842E-01  2.44653E-01  2.50605E-01
#           2.56703E-01  2.62949E-01  2.69346E-01  2.75900E-01  2.82613E-01
#           2.89489E-01  2.96532E-01  3.03747E-01  3.11138E-01  3.18708E-01
#           3.26462E-01  3.34405E-01  3.42542E-01  3.50876E-01  3.59413E-01
#           3.68158E-01  3.77116E-01  3.86291E-01  3.95690E-01  4.05317E-01
#           4.15179E-01  4.25281E-01  4.35628E-01  4.46227E-01  4.57084E-01
#           4.68205E-01  4.79597E-01  4.91266E-01  5.03219E-01  5.15463E-01
#           5.28005E-01  5.40851E-01  5.54011E-01  5.67490E-01  5.81298E-01
#           5.95441E-01  6.09929E-01  6.24769E-01  6.39970E-01  6.55541E-01
#           6.71491E-01  6.87828E-01  7.04564E-01  7.21706E-01  7.39266E-01
#           7.57253E-01  7.75678E-01  7.94551E-01  8.13883E-01  8.33685E-01
#           8.53969E-01  8.74747E-01  8.96030E-01  9.17831E-01  9.40163E-01
#           9.63038E-01  9.86469E-01  1.01047E+00  1.03506E+00  1.06024E+00
#           1.08604E+00  1.11246E+00  1.13953E+00  1.16725E+00  1.19565E+00
#           1.22474E+00  1.25454E+00  1.28507E+00  1.31633E+00  1.34836E+00
#           1.38117E+00  1.41477E+00  1.44920E+00  1.48446E+00  1.52057E+00
#           1.55757E+00  1.59547E+00  1.63429E+00  1.67405E+00  1.71478E+00
#           1.75650E+00  1.79924E+00  1.84302E+00  1.88786E+00  1.93379E+00
#           1.98084E+00  2.02904E+00  2.07841E+00  2.12898E+00  2.18078E+00
#           2.23384E+00  2.28819E+00  2.34386E+00  2.40089E+00  2.45930E+00
#           2.51914E+00  2.58043E+00  2.64322E+00  2.70753E+00  2.77341E+00
#           2.84088E+00  2.91001E+00  2.98081E+00  3.05333E+00  3.12762E+00
#           3.20372E+00  3.28167E+00  3.36152E+00  3.44330E+00  3.52708E+00
#           3.61290E+00  3.70080E+00  3.79085E+00  3.88308E+00  3.97756E+00
#           4.07434E+00  4.17347E+00  4.27501E+00  4.37903E+00  4.48557E+00
#           4.59471E+00  4.70650E+00  4.82102E+00  4.93832E+00  5.05847E+00
#           5.18155E+00  5.30762E+00  5.43676E+00  5.56904E+00  5.70453E+00
#           5.84333E+00  5.98550E+00  6.13114E+00  6.28031E+00  6.43312E+00
#           6.58964E+00  6.74997E+00  6.91420E+00  7.08243E+00  7.25475E+00
#           7.43126E+00  7.61207E+00  7.79728E+00  7.98700E+00  8.18133E+00
#           8.38038E+00  8.58428E+00  8.79315E+00  9.00709E+00  9.22624E+00
#           9.45072E+00  9.68067E+00  9.91620E+00  1.01575E+01  1.04046E+01
#           1.06578E+01  1.09171E+01  1.11827E+01  1.14548E+01  1.17335E+01
#           1.20190E+01  1.23114E+01  1.26109E+01  1.29178E+01  1.32321E+01
#           1.35540E+01  1.38838E+01  1.42216E+01  1.45676E+01  1.49221E+01
#           1.52851E+01  1.56570E+01  1.60380E+01  1.64282E+01  1.68279E+01
#           1.72374E+01  1.76568E+01  1.80864E+01  1.85264E+01  1.89772E+01
#           1.94389E+01  1.99119E+01  2.03963E+01  2.08926E+01  2.14009E+01
#           2.19216E+01  2.24550E+01  2.30014E+01  2.35610E+01  2.41343E+01
#           2.47215E+01  2.53230E+01  2.59391E+01  2.65702E+01  2.72167E+01
#           2.78789E+01  2.85572E+01  2.92520E+01  2.99637E+01  3.06928E+01
#           3.14396E+01  3.22045E+01  3.29881E+01  3.37907E+01  3.46128E+01
#           3.54550E+01  3.63177E+01  3.72013E+01  3.81064E+01  3.90336E+01
#           3.99833E+01  4.09561E+01  4.19526E+01  4.29734E+01  4.40189E+01
#           4.50900E+01  4.61870E+01  4.73108E+01  4.84619E+01  4.96410E+01
#           5.08488E+01  5.20860E+01  5.33533E+01  5.46514E+01  5.59812E+01
#           5.73432E+01  5.87384E+01  6.01676E+01  6.16315E+01  6.31311E+01
#           6.46671E+01  6.62405E+01  6.78522E+01  6.95031E+01  7.11941E+01
#           7.29263E+01  7.47007E+01  7.65182E+01  7.83800E+01  8.02870E+01
#           8.22405E+01  8.42414E+01  8.62911E+01  8.83906E+01  9.05412E+01
#           9.27442E+01  9.50007E+01  9.73122E+01  9.96799E+01  1.02105E+02
#           1.04589E+02  1.07134E+02  1.09741E+02  1.12411E+02  1.15146E+02
#           1.17948E+02  1.20817E+02  1.23757E+02  1.26768E+02  1.29852E+02
#           1.33012E+02  1.36248E+02  1.39563E+02  1.42959E+02  1.46437E+02
#           1.50000E+02
     unit =    2            # unit is [1/cm^2/(MeV/n)/source]
     axis =  eng            # axis of output
     file = detector-15.out  # file name of output for the above axis
   output = f-curr          # surface crossing forward current spectrum
     part =  neutron  
# kf/name :  2112     
#    used :        main (  %)        temp (  %)       total (  %)
#  memory :         414 (  0)           0 (  0)         414 (  0)

#------------------------------------------------------------------------------
#newpage:
#   no. =    1   reg = 114 - 214

x: Energy [MeV/n]
y:  F-Curr [1/cm^2/(MeV/n)/source]         
p: xlog ylog afac(0.8) form(0.9)
h: n            x            y(neutron ),hh0l   n 
#  e-lower      e-upper      neutron     r.err 
   1.0000E-02   1.0243E-02   1.1283E-03  0.0851
   1.0243E-02   1.0493E-02   1.0981E-03  0.0853
   1.0493E-02   1.0748E-02   9.5847E-04  0.0903
   1.0748E-02   1.1009E-02   1.1717E-03  0.0806
   1.1009E-02   1.1277E-02   1.2416E-03  0.0775
   1.1277E-02   1.1552E-02   1.1283E-03  0.0802
   1.1552E-02   1.1833E-02   9.9223E-04  0.0844
   1.1833E-02   1.2121E-02   1.1378E-03  0.0779
   1.2121E-02   1.2415E-02   9.3111E-04  0.0853
   1.2415E-02   1.2718E-02   1.0182E-03  0.0805
   1.2718E-02   1.3027E-02   1.0027E-03  0.0801
   1.3027E-02   1.3344E-02   1.0588E-03  0.0771
   1.3344E-02   1.3669E-02   9.3013E-04  0.0812
   1.3669E-02   1.4001E-02   8.1407E-04  0.0857
   1.4001E-02   1.4342E-02   9.3533E-04  0.0787
   1.4342E-02   1.4691E-02   8.0560E-04  0.0840
   1.4691E-02   1.5048E-02   7.8508E-04  0.0843
   1.5048E-02   1.5414E-02   8.8638E-04  0.0784
   1.5414E-02   1.5789E-02   7.6257E-04  0.0833
   1.5789E-02   1.6174E-02   7.5655E-04  0.0829
   1.6174E-02   1.6567E-02   7.8947E-04  0.0802
   1.6567E-02   1.6970E-02   6.8357E-04  0.0850
   1.6970E-02   1.7383E-02   6.2408E-04  0.0879
   1.7383E-02   1.7806E-02   7.7124E-04  0.0781
   1.7806E-02   1.8239E-02   6.8388E-04  0.0820
   1.8239E-02   1.8683E-02   6.5496E-04  0.0829
   1.8683E-02   1.9138E-02   6.7762E-04  0.0804
   1.9138E-02   1.9603E-02   6.5570E-04  0.0808
   1.9603E-02   2.0080E-02   6.7468E-04  0.0785
   2.0080E-02   2.0569E-02   5.7438E-04  0.0842
   2.0569E-02   2.1069E-02   5.5158E-04  0.0849
   2.1069E-02   2.1582E-02   4.8624E-04  0.0894
   2.1582E-02   2.2107E-02   5.5441E-04  0.0826
   2.2107E-02   2.2645E-02   5.0553E-04  0.0856
   2.2645E-02   2.3196E-02   5.4025E-04  0.0816
   2.3196E-02   2.3760E-02   5.3594E-04  0.0810
   2.3760E-02   2.4338E-02   6.0155E-04  0.0757
   2.4338E-02   2.4930E-02   4.4294E-04  0.0873
   2.4930E-02   2.5537E-02   4.8645E-04  0.0821
   2.5537E-02   2.6158E-02   5.0328E-04  0.0798
   2.6158E-02   2.6795E-02   3.8350E-04  0.0903
   2.6795E-02   2.7447E-02   5.0066E-04  0.0780
   2.7447E-02   2.8114E-02   4.7266E-04  0.0793
   2.8114E-02   2.8799E-02   4.3069E-04  0.0820
   2.8799E-02   2.9499E-02   3.8769E-04  0.0856
   2.9499E-02   3.0217E-02   3.9585E-04  0.0837
   3.0217E-02   3.0952E-02   3.9258E-04  0.0830
   3.0952E-02   3.1705E-02   3.5404E-04  0.0863
   3.1705E-02   3.2477E-02   4.1435E-04  0.0789
   3.2477E-02   3.3267E-02   3.4614E-04  0.0853
   3.3267E-02   3.4076E-02   3.6516E-04  0.0821
   3.4076E-02   3.4905E-02   3.4553E-04  0.0831
   3.4905E-02   3.5755E-02   3.4879E-04  0.0817
   3.5755E-02   3.6625E-02   3.8793E-04  0.0767
   3.6625E-02   3.7516E-02   3.3395E-04  0.0817
   3.7516E-02   3.8428E-02   3.1569E-04  0.0830
   3.8428E-02   3.9363E-02   3.0365E-04  0.0834
   3.9363E-02   4.0321E-02   3.0274E-04  0.0827
   4.0321E-02   4.1302E-02   3.4041E-04  0.0772
   4.1302E-02   4.2307E-02   2.8662E-04  0.0829
   4.2307E-02   4.3337E-02   2.7725E-04  0.0836
   4.3337E-02   4.4391E-02   2.7807E-04  0.0824
   4.4391E-02   4.5471E-02   2.5510E-04  0.0846
   4.5471E-02   4.6577E-02   2.6218E-04  0.0828
   4.6577E-02   4.7711E-02   2.6030E-04  0.0822
   4.7711E-02   4.8871E-02   2.7769E-04  0.0785
   4.8871E-02   5.0061E-02   2.4310E-04  0.0829
   5.0061E-02   5.1279E-02   2.1211E-04  0.0877
   5.1279E-02   5.2526E-02   2.3054E-04  0.0830
   5.2526E-02   5.3804E-02   2.3085E-04  0.0822
   5.3804E-02   5.5113E-02   2.4189E-04  0.0792
   5.5113E-02   5.6454E-02   1.9928E-04  0.0862
   5.6454E-02   5.7828E-02   2.4535E-04  0.0770
   5.7828E-02   5.9235E-02   2.1801E-04  0.0805
   5.9235E-02   6.0676E-02   2.2031E-04  0.0791
   6.0676E-02   6.2152E-02   2.0487E-04  0.0811
   6.2152E-02   6.3665E-02   1.9284E-04  0.0826
   6.3665E-02   6.5214E-02   1.8803E-04  0.0824
   6.5214E-02   6.6800E-02   1.5447E-04  0.0899
   6.6800E-02   6.8426E-02   1.6328E-04  0.0867
   6.8426E-02   7.0090E-02   1.9462E-04  0.0784
   7.0090E-02   7.1796E-02   1.4659E-04  0.0892
   7.1796E-02   7.3543E-02   1.7605E-04  0.0804
   7.3543E-02   7.5332E-02   2.0359E-04  0.0739
   7.5332E-02   7.7165E-02   1.7146E-04  0.0796
   7.7165E-02   7.9042E-02   1.3756E-04  0.0874
   7.9042E-02   8.0965E-02   1.6124E-04  0.0799
   8.0965E-02   8.2935E-02   1.2741E-04  0.0891
   8.2935E-02   8.4953E-02   1.5837E-04  0.0788
   8.4953E-02   8.7020E-02   1.5095E-04  0.0799
   8.7020E-02   8.9138E-02   1.4484E-04  0.0805
   8.9138E-02   9.1306E-02   1.4168E-04  0.0804
   9.1306E-02   9.3528E-02   1.4337E-04  0.0790
   9.3528E-02   9.5804E-02   1.2420E-04  0.0838
   9.5804E-02   9.8134E-02   1.5943E-04  0.0733
   9.8134E-02   1.0052E-01   1.2716E-04  0.0810
   1.0052E-01   1.0297E-01   1.2810E-04  0.0797
   1.0297E-01   1.0547E-01   1.4620E-04  0.0736
   1.0547E-01   1.0804E-01   1.3221E-04  0.0765
   1.0804E-01   1.1067E-01   1.0351E-04  0.0855
   1.1067E-01   1.1336E-01   1.2083E-04  0.0783
   1.1336E-01   1.1612E-01   1.0779E-04  0.0819
   1.1612E-01   1.1894E-01   1.0732E-04  0.0809
   1.1894E-01   1.2184E-01   1.0726E-04  0.0799
   1.2184E-01   1.2480E-01   1.0931E-04  0.0782
   1.2480E-01   1.2784E-01   1.0622E-04  0.0785
   1.2784E-01   1.3095E-01   1.0683E-04  0.0774
   1.3095E-01   1.3414E-01   8.4807E-05  0.0854
   1.3414E-01   1.3740E-01   9.6199E-05  0.0796
   1.3740E-01   1.4074E-01   9.8219E-05  0.0777
   1.4074E-01   1.4417E-01   1.0226E-04  0.0754
   1.4417E-01   1.4767E-01   1.0170E-04  0.0747
   1.4767E-01   1.5127E-01   7.9112E-05  0.0837
   1.5127E-01   1.5495E-01   9.2183E-05  0.0765
   1.5495E-01   1.5872E-01   8.5544E-05  0.0783
   1.5872E-01   1.6258E-01   8.9478E-05  0.0757
   1.6258E-01   1.6654E-01   7.3953E-05  0.0824
   1.6654E-01   1.7059E-01   8.5209E-05  0.0759
   1.7059E-01   1.7474E-01   8.6598E-05  0.0742
   1.7474E-01   1.7899E-01   8.0059E-05  0.0762
   1.7899E-01   1.8334E-01   8.2436E-05  0.0743
   1.8334E-01   1.8781E-01   7.6720E-05  0.0762
   1.8781E-01   1.9237E-01   8.6801E-05  0.0708
   1.9237E-01   1.9706E-01   7.7998E-05  0.0736
   1.9706E-01   2.0185E-01   7.3979E-05  0.0749
   2.0185E-01   2.0676E-01   8.0176E-05  0.0710
   2.0676E-01   2.1179E-01   7.4720E-05  0.0728
   2.1179E-01   2.1694E-01   8.6393E-05  0.0668
   2.1694E-01   2.2222E-01   9.4489E-05  0.0631
   2.2222E-01   2.2763E-01   9.0184E-05  0.0638
   2.2763E-01   2.3317E-01   1.0087E-04  0.0595
   2.3317E-01   2.3884E-01   1.0085E-04  0.0589
   2.3884E-01   2.4465E-01   9.8432E-05  0.0589
   2.4465E-01   2.5061E-01   1.0730E-04  0.0558
   2.5061E-01   2.5670E-01   1.0961E-04  0.0545
   2.5670E-01   2.6295E-01   1.1710E-04  0.0521
   2.6295E-01   2.6935E-01   1.1797E-04  0.0513
   2.6935E-01   2.7590E-01   1.2645E-04  0.0490
   2.7590E-01   2.8261E-01   1.2858E-04  0.0480
   2.8261E-01   2.8949E-01   1.4280E-04  0.0450
   2.8949E-01   2.9653E-01   1.5562E-04  0.0426
   2.9653E-01   3.0375E-01   1.4082E-04  0.0442
   3.0375E-01   3.1114E-01   1.4420E-04  0.0431
   3.1114E-01   3.1871E-01   1.5990E-04  0.0405
   3.1871E-01   3.2646E-01   1.6496E-04  0.0394
   3.2646E-01   3.3441E-01   1.8118E-04  0.0372
   3.3441E-01   3.4254E-01   1.8362E-04  0.0365
   3.4254E-01   3.5088E-01   1.7936E-04  0.0365
   3.5088E-01   3.5941E-01   1.9585E-04  0.0345
   3.5941E-01   3.6816E-01   2.0419E-04  0.0334
   3.6816E-01   3.7712E-01   1.9634E-04  0.0336
   3.7712E-01   3.8629E-01   2.0789E-04  0.0323
   3.8629E-01   3.9569E-01   2.0759E-04  0.0319
   3.9569E-01   4.0532E-01   2.2523E-04  0.0303
   4.0532E-01   4.1518E-01   2.3071E-04  0.0295
   4.1518E-01   4.2528E-01   2.3589E-04  0.0289
   4.2528E-01   4.3563E-01   2.4339E-04  0.0281
   4.3563E-01   4.4623E-01   2.6680E-04  0.0265
   4.4623E-01   4.5708E-01   2.5113E-04  0.0270
   4.5708E-01   4.6821E-01   2.7463E-04  0.0255
   4.6821E-01   4.7960E-01   2.7015E-04  0.0254
   4.7960E-01   4.9127E-01   2.8963E-04  0.0242
   4.9127E-01   5.0322E-01   2.9737E-04  0.0237
   5.0322E-01   5.1546E-01   3.0151E-04  0.0232
   5.1546E-01   5.2800E-01   3.0615E-04  0.0227
   5.2800E-01   5.4085E-01   2.9679E-04  0.0228
   5.4085E-01   5.5401E-01   3.2882E-04  0.0214
   5.5401E-01   5.6749E-01   3.2241E-04  0.0214
   5.6749E-01   5.8130E-01   3.2506E-04  0.0210
   5.8130E-01   5.9544E-01   3.5082E-04  0.0200
   5.9544E-01   6.0993E-01   3.3441E-04  0.0202
   6.0993E-01   6.2477E-01   3.4589E-04  0.0197
   6.2477E-01   6.3997E-01   3.5813E-04  0.0191
   6.3997E-01   6.5554E-01   3.6159E-04  0.0188
   6.5554E-01   6.7149E-01   3.7401E-04  0.0182
   6.7149E-01   6.8783E-01   3.7152E-04  0.0181
   6.8783E-01   7.0456E-01   3.7534E-04  0.0178
   7.0456E-01   7.2171E-01   3.7957E-04  0.0175
   7.2171E-01   7.3927E-01   3.8447E-04  0.0172
   7.3927E-01   7.5725E-01   3.9972E-04  0.0166
   7.5725E-01   7.7568E-01   3.8996E-04  0.0166
   7.7568E-01   7.9455E-01   3.9405E-04  0.0163
   7.9455E-01   8.1388E-01   4.0793E-04  0.0159
   8.1388E-01   8.3368E-01   4.0773E-04  0.0157
   8.3368E-01   8.5397E-01   4.0709E-04  0.0155
   8.5397E-01   8.7475E-01   4.1355E-04  0.0152
   8.7475E-01   8.9603E-01   4.1671E-04  0.0150
   8.9603E-01   9.1783E-01   4.0346E-04  0.0150
   9.1783E-01   9.4016E-01   4.0819E-04  0.0147
   9.4016E-01   9.6304E-01   4.1349E-04  0.0145
   9.6304E-01   9.8647E-01   4.3065E-04  0.0140
   9.8647E-01   1.0105E+00   4.2715E-04  0.0139
   1.0105E+00   1.0351E+00   4.2113E-04  0.0138
   1.0351E+00   1.0602E+00   4.2275E-04  0.0136
   1.0602E+00   1.0860E+00   4.1238E-04  0.0136
   1.0860E+00   1.1125E+00   4.1227E-04  0.0135
   1.1125E+00   1.1395E+00   4.1816E-04  0.0132
   1.1395E+00   1.1673E+00   4.1542E-04  0.0131
   1.1673E+00   1.1957E+00   4.2571E-04  0.0128
   1.1957E+00   1.2247E+00   4.2106E-04  0.0127
   1.2247E+00   1.2545E+00   4.2097E-04  0.0126
   1.2545E+00   1.2851E+00   4.1341E-04  0.0125
   1.2851E+00   1.3163E+00   4.1477E-04  0.0124
   1.3163E+00   1.3484E+00   4.0289E-04  0.0124
   1.3484E+00   1.3812E+00   4.0950E-04  0.0121
   1.3812E+00   1.4148E+00   4.0908E-04  0.0120
   1.4148E+00   1.4492E+00   4.0348E-04  0.0119
   1.4492E+00   1.4845E+00   4.0856E-04  0.0117
   1.4845E+00   1.5206E+00   4.0791E-04  0.0116
   1.5206E+00   1.5576E+00   4.0353E-04  0.0115
   1.5576E+00   1.5955E+00   3.9751E-04  0.0115
   1.5955E+00   1.6343E+00   3.8683E-04  0.0115
   1.6343E+00   1.6741E+00   3.8407E-04  0.0114
   1.6741E+00   1.7148E+00   3.9037E-04  0.0111
   1.7148E+00   1.7565E+00   3.8473E-04  0.0111
   1.7565E+00   1.7992E+00   3.8004E-04  0.0110
   1.7992E+00   1.8430E+00   3.7193E-04  0.0110
   1.8430E+00   1.8879E+00   3.7466E-04  0.0108
   1.8879E+00   1.9338E+00   3.7134E-04  0.0108
   1.9338E+00   1.9808E+00   3.5895E-04  0.0108
   1.9808E+00   2.0290E+00   3.6229E-04  0.0106
   2.0290E+00   2.0784E+00   3.6231E-04  0.0105
   2.0784E+00   2.1290E+00   3.5265E-04  0.0105
   2.1290E+00   2.1808E+00   3.4585E-04  0.0105
   2.1808E+00   2.2338E+00   3.4231E-04  0.0104
   2.2338E+00   2.2882E+00   3.3653E-04  0.0104
   2.2882E+00   2.3439E+00   3.3222E-04  0.0103
   2.3439E+00   2.4009E+00   3.3537E-04  0.0102
   2.4009E+00   2.4593E+00   3.2376E-04  0.0102
   2.4593E+00   2.5191E+00   3.1913E-04  0.0102
   2.5191E+00   2.5804E+00   3.1444E-04  0.0101
   2.5804E+00   2.6432E+00   3.0718E-04  0.0101
   2.6432E+00   2.7075E+00   3.0671E-04  0.0100
   2.7075E+00   2.7734E+00   3.0459E-04  0.0099
   2.7734E+00   2.8409E+00   2.9239E-04  0.0100
   2.8409E+00   2.9100E+00   2.8682E-04  0.0100
   2.9100E+00   2.9808E+00   2.8643E-04  0.0099
   2.9808E+00   3.0533E+00   2.8577E-04  0.0098
   3.0533E+00   3.1276E+00   2.7651E-04  0.0098
   3.1276E+00   3.2037E+00   2.6799E-04  0.0098
   3.2037E+00   3.2817E+00   2.6708E-04  0.0097
   3.2817E+00   3.3615E+00   2.5907E-04  0.0098
   3.3615E+00   3.4433E+00   2.5833E-04  0.0097
   3.4433E+00   3.5271E+00   2.5806E-04  0.0096
   3.5271E+00   3.6129E+00   2.5132E-04  0.0096
   3.6129E+00   3.7008E+00   2.4914E-04  0.0095
   3.7008E+00   3.7908E+00   2.4461E-04  0.0095
   3.7908E+00   3.8831E+00   2.4259E-04  0.0094
   3.8831E+00   3.9776E+00   2.3884E-04  0.0094
   3.9776E+00   4.0743E+00   2.4140E-04  0.0092
   4.0743E+00   4.1735E+00   2.3843E-04  0.0091
   4.1735E+00   4.2750E+00   2.3534E-04  0.0091
   4.2750E+00   4.3790E+00   2.3149E-04  0.0091
   4.3790E+00   4.4856E+00   2.2881E-04  0.0090
   4.4856E+00   4.5947E+00   2.3004E-04  0.0089
   4.5947E+00   4.7065E+00   2.3002E-04  0.0088
   4.7065E+00   4.8210E+00   2.2663E-04  0.0087
   4.8210E+00   4.9383E+00   2.2517E-04  0.0087
   4.9383E+00   5.0585E+00   2.1848E-04  0.0087
   5.0585E+00   5.1815E+00   2.1312E-04  0.0087
   5.1815E+00   5.3076E+00   2.0880E-04  0.0087
   5.3076E+00   5.4368E+00   2.0798E-04  0.0086
   5.4368E+00   5.5690E+00   2.0360E-04  0.0086
   5.5690E+00   5.7045E+00   1.9830E-04  0.0086
   5.7045E+00   5.8433E+00   1.9461E-04  0.0086
   5.8433E+00   5.9855E+00   1.8925E-04  0.0086
   5.9855E+00   6.1311E+00   1.8285E-04  0.0086
   6.1311E+00   6.2803E+00   1.7993E-04  0.0086
   6.2803E+00   6.4331E+00   1.7542E-04  0.0086
   6.4331E+00   6.5896E+00   1.7161E-04  0.0086
   6.5896E+00   6.7500E+00   1.6753E-04  0.0086
   6.7500E+00   6.9142E+00   1.6557E-04  0.0086
   6.9142E+00   7.0824E+00   1.6099E-04  0.0086
   7.0824E+00   7.2548E+00   1.5871E-04  0.0085
   7.2548E+00   7.4313E+00   1.5499E-04  0.0085
   7.4313E+00   7.6121E+00   1.5105E-04  0.0085
   7.6121E+00   7.7973E+00   1.4689E-04  0.0086
   7.7973E+00   7.9870E+00   1.4318E-04  0.0086
   7.9870E+00   8.1813E+00   1.4372E-04  0.0084
   8.1813E+00   8.3804E+00   1.3877E-04  0.0085
   8.3804E+00   8.5843E+00   1.3439E-04  0.0085
   8.5843E+00   8.7931E+00   1.2966E-04  0.0086
   8.7931E+00   9.0071E+00   1.2475E-04  0.0086
   9.0071E+00   9.2262E+00   1.2472E-04  0.0085
   9.2262E+00   9.4507E+00   1.1882E-04  0.0086
   9.4507E+00   9.6807E+00   1.1625E-04  0.0086
   9.6807E+00   9.9162E+00   1.1309E-04  0.0087
   9.9162E+00   1.0157E+01   1.1008E-04  0.0087
   1.0157E+01   1.0405E+01   1.0708E-04  0.0087
   1.0405E+01   1.0658E+01   1.0542E-04  0.0086
   1.0658E+01   1.0917E+01   1.0219E-04  0.0087
   1.0917E+01   1.1183E+01   9.9349E-05  0.0087
   1.1183E+01   1.1455E+01   9.6002E-05  0.0087
   1.1455E+01   1.1733E+01   9.1089E-05  0.0089
   1.1733E+01   1.2019E+01   8.7256E-05  0.0090
   1.2019E+01   1.2311E+01   8.5325E-05  0.0089
   1.2311E+01   1.2611E+01   8.2309E-05  0.0090
   1.2611E+01   1.2918E+01   7.8685E-05  0.0091
   1.2918E+01   1.3232E+01   7.4400E-05  0.0092
   1.3232E+01   1.3554E+01   7.2368E-05  0.0093
   1.3554E+01   1.3884E+01   6.8057E-05  0.0094
   1.3884E+01   1.4222E+01   6.3819E-05  0.0096
   1.4222E+01   1.4568E+01   6.1498E-05  0.0097
   1.4568E+01   1.4922E+01   5.7586E-05  0.0099
   1.4922E+01   1.5285E+01   5.5250E-05  0.0100
   1.5285E+01   1.5657E+01   5.2000E-05  0.0102
   1.5657E+01   1.6038E+01   4.8335E-05  0.0104
   1.6038E+01   1.6428E+01   4.4890E-05  0.0107
   1.6428E+01   1.6828E+01   4.3380E-05  0.0107
   1.6828E+01   1.7237E+01   3.9710E-05  0.0111
   1.7237E+01   1.7657E+01   3.7097E-05  0.0113
   1.7657E+01   1.8086E+01   3.4996E-05  0.0115
   1.8086E+01   1.8526E+01   3.1784E-05  0.0120
   1.8526E+01   1.8977E+01   2.9493E-05  0.0123
   1.8977E+01   1.9439E+01   2.7775E-05  0.0125
   1.9439E+01   1.9912E+01   2.5918E-05  0.0128
   1.9912E+01   2.0396E+01   2.4187E-05  0.0131
   2.0396E+01   2.0893E+01   2.2041E-05  0.0135
   2.0893E+01   2.1401E+01   2.0211E-05  0.0140
   2.1401E+01   2.1922E+01   1.8487E-05  0.0144
   2.1922E+01   2.2455E+01   1.6930E-05  0.0149
   2.2455E+01   2.3001E+01   1.5547E-05  0.0153
   2.3001E+01   2.3561E+01   1.4373E-05  0.0158
   2.3561E+01   2.4134E+01   1.3324E-05  0.0162
   2.4134E+01   2.4721E+01   1.1917E-05  0.0169
   2.4721E+01   2.5323E+01   1.1106E-05  0.0173
   2.5323E+01   2.5939E+01   1.0410E-05  0.0177
   2.5939E+01   2.6570E+01   9.6907E-06  0.0181
   2.6570E+01   2.7217E+01   9.0584E-06  0.0185
   2.7217E+01   2.7879E+01   8.4657E-06  0.0189
   2.7879E+01   2.8557E+01   7.9226E-06  0.0193
   2.8557E+01   2.9252E+01   7.1011E-06  0.0201
   2.9252E+01   2.9964E+01   6.6852E-06  0.0205
   2.9964E+01   3.0693E+01   6.0737E-06  0.0213
   3.0693E+01   3.1440E+01   5.7634E-06  0.0216
   3.1440E+01   3.2205E+01   5.4487E-06  0.0219
   3.2205E+01   3.2988E+01   4.9645E-06  0.0227
   3.2988E+01   3.3791E+01   4.3084E-06  0.0240
   3.3791E+01   3.4613E+01   3.6076E-06  0.0260
   3.4613E+01   3.5455E+01   2.7691E-06  0.0293
   3.5455E+01   3.6318E+01   2.1886E-06  0.0325
   3.6318E+01   3.7201E+01   1.5979E-06  0.0376
   3.7201E+01   3.8106E+01   1.4606E-06  0.0389
   3.8106E+01   3.9034E+01   1.1799E-06  0.0428
   3.9034E+01   3.9983E+01   8.5499E-07  0.0496
   3.9983E+01   4.0956E+01   5.6125E-07  0.0605
   4.0956E+01   4.1953E+01   4.3753E-07  0.0677
   4.1953E+01   4.2973E+01   3.1350E-07  0.0791
   4.2973E+01   4.4019E+01   1.7598E-07  0.1043
   4.4019E+01   4.5090E+01   8.0298E-08  0.1525
   4.5090E+01   4.6187E+01   4.5576E-08  0.2000
   4.6187E+01   4.7311E+01   3.5595E-08  0.2236
   4.7311E+01   4.8462E+01   6.9498E-09  0.5000
   4.8462E+01   4.9641E+01   1.0177E-08  0.4082
   4.9641E+01   5.0849E+01   0.0000E+00  0.0000
   5.0849E+01   5.2086E+01   0.0000E+00  0.0000
   5.2086E+01   5.3353E+01   0.0000E+00  0.0000
   5.3353E+01   5.4651E+01   0.0000E+00  0.0000
   5.4651E+01   5.5981E+01   0.0000E+00  0.0000
   5.5981E+01   5.7343E+01   0.0000E+00  0.0000
   5.7343E+01   5.8738E+01   0.0000E+00  0.0000
   5.8738E+01   6.0168E+01   0.0000E+00  0.0000
   6.0168E+01   6.1632E+01   0.0000E+00  0.0000
   6.1632E+01   6.3131E+01   0.0000E+00  0.0000
   6.3131E+01   6.4667E+01   0.0000E+00  0.0000
   6.4667E+01   6.6240E+01   0.0000E+00  0.0000
   6.6240E+01   6.7852E+01   0.0000E+00  0.0000
   6.7852E+01   6.9503E+01   0.0000E+00  0.0000
   6.9503E+01   7.1194E+01   0.0000E+00  0.0000
   7.1194E+01   7.2926E+01   0.0000E+00  0.0000
   7.2926E+01   7.4701E+01   0.0000E+00  0.0000
   7.4701E+01   7.6518E+01   0.0000E+00  0.0000
   7.6518E+01   7.8380E+01   0.0000E+00  0.0000
   7.8380E+01   8.0287E+01   0.0000E+00  0.0000
   8.0287E+01   8.2240E+01   0.0000E+00  0.0000
   8.2240E+01   8.4241E+01   0.0000E+00  0.0000
   8.4241E+01   8.6291E+01   0.0000E+00  0.0000
   8.6291E+01   8.8391E+01   0.0000E+00  0.0000
   8.8391E+01   9.0541E+01   0.0000E+00  0.0000
   9.0541E+01   9.2744E+01   0.0000E+00  0.0000
   9.2744E+01   9.5001E+01   0.0000E+00  0.0000
   9.5001E+01   9.7312E+01   0.0000E+00  0.0000
   9.7312E+01   9.9680E+01   0.0000E+00  0.0000
   9.9680E+01   1.0211E+02   0.0000E+00  0.0000
   1.0211E+02   1.0459E+02   0.0000E+00  0.0000
   1.0459E+02   1.0713E+02   0.0000E+00  0.0000
   1.0713E+02   1.0974E+02   0.0000E+00  0.0000
   1.0974E+02   1.1241E+02   0.0000E+00  0.0000
   1.1241E+02   1.1515E+02   0.0000E+00  0.0000
   1.1515E+02   1.1795E+02   0.0000E+00  0.0000
   1.1795E+02   1.2082E+02   0.0000E+00  0.0000
   1.2082E+02   1.2376E+02   0.0000E+00  0.0000
   1.2376E+02   1.2677E+02   0.0000E+00  0.0000
   1.2677E+02   1.2985E+02   0.0000E+00  0.0000
   1.2985E+02   1.3301E+02   0.0000E+00  0.0000
   1.3301E+02   1.3625E+02   0.0000E+00  0.0000
   1.3625E+02   1.3956E+02   0.0000E+00  0.0000
   1.3956E+02   1.4296E+02   0.0000E+00  0.0000
   1.4296E+02   1.4644E+02   0.0000E+00  0.0000
   1.4644E+02   1.5000E+02   0.0000E+00  0.0000

#   sum over                 2.0174E-05
'no. =    1   reg = 114 - 214'
msuc: {\huge [t-cross] in region mesh}
msdr: {\it plotted by \ANGEL \version}
msdl: {\it calculated by \PHITS  3.26}
wt: s(0.7)
\vspace{-3}
  region surface crossing
  area  &=&   1.0000E+00 [cm^2]
e:
 
# Information for Restart Calculation
# This calculation was newly started
# istdev =  2 # 1:Batch variance, 2:History variance
# resc2  = 5.00000000000000000E+08 # Total source weight or Total source weight / maxcas
# resc3  = 5.00000000000000000E+08 # Total history number or Total batch number
# maxcas =   500000000 # History / Batch, only used for istdev=1
# bitrseed = 1101101111010011011000101101110001100110110010110001010100010001 # bit data of rseed
