[ T-Cross ]
    title = [t-cross] in region mesh
     mesh =  reg            # mesh type is region-wise
      reg =    1            # number of crossing regions
      non     r-from    r-to       area
      1       100       200        1.000000    
   e-type =    3            # e-mesh is log given by emin, emax and ne
     emin =  1.0000000E-02  # minimum value of e-mesh points
     emax =   150.0000      # maximum value of e-mesh points
#    edel =  2.4039514E-02  # mesh width of e-mesh points
       ne =    400          # number of e-mesh points
#    data = ( e(i), i = 1, ne + 1 )
#           1.00000E-02  1.02433E-02  1.04925E-02  1.07478E-02  1.10093E-02
#           1.12772E-02  1.15516E-02  1.18326E-02  1.21205E-02  1.24154E-02
#           1.27175E-02  1.30269E-02  1.33439E-02  1.36686E-02  1.40011E-02
#           1.43418E-02  1.46907E-02  1.50482E-02  1.54143E-02  1.57894E-02
#           1.61735E-02  1.65670E-02  1.69701E-02  1.73830E-02  1.78060E-02
#           1.82392E-02  1.86830E-02  1.91375E-02  1.96032E-02  2.00801E-02
#           2.05687E-02  2.10692E-02  2.15818E-02  2.21069E-02  2.26448E-02
#           2.31957E-02  2.37601E-02  2.43382E-02  2.49304E-02  2.55369E-02
#           2.61583E-02  2.67947E-02  2.74467E-02  2.81145E-02  2.87985E-02
#           2.94992E-02  3.02169E-02  3.09521E-02  3.17052E-02  3.24766E-02
#           3.32668E-02  3.40762E-02  3.49053E-02  3.57546E-02  3.66246E-02
#           3.75157E-02  3.84284E-02  3.93634E-02  4.03212E-02  4.13022E-02
#           4.23071E-02  4.33365E-02  4.43909E-02  4.54710E-02  4.65773E-02
#           4.77106E-02  4.88714E-02  5.00605E-02  5.12785E-02  5.25262E-02
#           5.38042E-02  5.51133E-02  5.64542E-02  5.78278E-02  5.92348E-02
#           6.06760E-02  6.21523E-02  6.36645E-02  6.52135E-02  6.68002E-02
#           6.84255E-02  7.00904E-02  7.17957E-02  7.35426E-02  7.53319E-02
#           7.71648E-02  7.90423E-02  8.09655E-02  8.29354E-02  8.49533E-02
#           8.70203E-02  8.91376E-02  9.13064E-02  9.35279E-02  9.58035E-02
#           9.81345E-02  1.00522E-01  1.02968E-01  1.05473E-01  1.08040E-01
#           1.10668E-01  1.13361E-01  1.16119E-01  1.18944E-01  1.21838E-01
#           1.24803E-01  1.27839E-01  1.30950E-01  1.34136E-01  1.37399E-01
#           1.40742E-01  1.44167E-01  1.47675E-01  1.51268E-01  1.54948E-01
#           1.58718E-01  1.62580E-01  1.66535E-01  1.70587E-01  1.74738E-01
#           1.78989E-01  1.83344E-01  1.87805E-01  1.92375E-01  1.97055E-01
#           2.01850E-01  2.06761E-01  2.11792E-01  2.16945E-01  2.22223E-01
#           2.27630E-01  2.33169E-01  2.38842E-01  2.44653E-01  2.50605E-01
#           2.56703E-01  2.62949E-01  2.69346E-01  2.75900E-01  2.82613E-01
#           2.89489E-01  2.96532E-01  3.03747E-01  3.11138E-01  3.18708E-01
#           3.26462E-01  3.34405E-01  3.42542E-01  3.50876E-01  3.59413E-01
#           3.68158E-01  3.77116E-01  3.86291E-01  3.95690E-01  4.05317E-01
#           4.15179E-01  4.25281E-01  4.35628E-01  4.46227E-01  4.57084E-01
#           4.68205E-01  4.79597E-01  4.91266E-01  5.03219E-01  5.15463E-01
#           5.28005E-01  5.40851E-01  5.54011E-01  5.67490E-01  5.81298E-01
#           5.95441E-01  6.09929E-01  6.24769E-01  6.39970E-01  6.55541E-01
#           6.71491E-01  6.87828E-01  7.04564E-01  7.21706E-01  7.39266E-01
#           7.57253E-01  7.75678E-01  7.94551E-01  8.13883E-01  8.33685E-01
#           8.53969E-01  8.74747E-01  8.96030E-01  9.17831E-01  9.40163E-01
#           9.63038E-01  9.86469E-01  1.01047E+00  1.03506E+00  1.06024E+00
#           1.08604E+00  1.11246E+00  1.13953E+00  1.16725E+00  1.19565E+00
#           1.22474E+00  1.25454E+00  1.28507E+00  1.31633E+00  1.34836E+00
#           1.38117E+00  1.41477E+00  1.44920E+00  1.48446E+00  1.52057E+00
#           1.55757E+00  1.59547E+00  1.63429E+00  1.67405E+00  1.71478E+00
#           1.75650E+00  1.79924E+00  1.84302E+00  1.88786E+00  1.93379E+00
#           1.98084E+00  2.02904E+00  2.07841E+00  2.12898E+00  2.18078E+00
#           2.23384E+00  2.28819E+00  2.34386E+00  2.40089E+00  2.45930E+00
#           2.51914E+00  2.58043E+00  2.64322E+00  2.70753E+00  2.77341E+00
#           2.84088E+00  2.91001E+00  2.98081E+00  3.05333E+00  3.12762E+00
#           3.20372E+00  3.28167E+00  3.36152E+00  3.44330E+00  3.52708E+00
#           3.61290E+00  3.70080E+00  3.79085E+00  3.88308E+00  3.97756E+00
#           4.07434E+00  4.17347E+00  4.27501E+00  4.37903E+00  4.48557E+00
#           4.59471E+00  4.70650E+00  4.82102E+00  4.93832E+00  5.05847E+00
#           5.18155E+00  5.30762E+00  5.43676E+00  5.56904E+00  5.70453E+00
#           5.84333E+00  5.98550E+00  6.13114E+00  6.28031E+00  6.43312E+00
#           6.58964E+00  6.74997E+00  6.91420E+00  7.08243E+00  7.25475E+00
#           7.43126E+00  7.61207E+00  7.79728E+00  7.98700E+00  8.18133E+00
#           8.38038E+00  8.58428E+00  8.79315E+00  9.00709E+00  9.22624E+00
#           9.45072E+00  9.68067E+00  9.91620E+00  1.01575E+01  1.04046E+01
#           1.06578E+01  1.09171E+01  1.11827E+01  1.14548E+01  1.17335E+01
#           1.20190E+01  1.23114E+01  1.26109E+01  1.29178E+01  1.32321E+01
#           1.35540E+01  1.38838E+01  1.42216E+01  1.45676E+01  1.49221E+01
#           1.52851E+01  1.56570E+01  1.60380E+01  1.64282E+01  1.68279E+01
#           1.72374E+01  1.76568E+01  1.80864E+01  1.85264E+01  1.89772E+01
#           1.94389E+01  1.99119E+01  2.03963E+01  2.08926E+01  2.14009E+01
#           2.19216E+01  2.24550E+01  2.30014E+01  2.35610E+01  2.41343E+01
#           2.47215E+01  2.53230E+01  2.59391E+01  2.65702E+01  2.72167E+01
#           2.78789E+01  2.85572E+01  2.92520E+01  2.99637E+01  3.06928E+01
#           3.14396E+01  3.22045E+01  3.29881E+01  3.37907E+01  3.46128E+01
#           3.54550E+01  3.63177E+01  3.72013E+01  3.81064E+01  3.90336E+01
#           3.99833E+01  4.09561E+01  4.19526E+01  4.29734E+01  4.40189E+01
#           4.50900E+01  4.61870E+01  4.73108E+01  4.84619E+01  4.96410E+01
#           5.08488E+01  5.20860E+01  5.33533E+01  5.46514E+01  5.59812E+01
#           5.73432E+01  5.87384E+01  6.01676E+01  6.16315E+01  6.31311E+01
#           6.46671E+01  6.62405E+01  6.78522E+01  6.95031E+01  7.11941E+01
#           7.29263E+01  7.47007E+01  7.65182E+01  7.83800E+01  8.02870E+01
#           8.22405E+01  8.42414E+01  8.62911E+01  8.83906E+01  9.05412E+01
#           9.27442E+01  9.50007E+01  9.73122E+01  9.96799E+01  1.02105E+02
#           1.04589E+02  1.07134E+02  1.09741E+02  1.12411E+02  1.15146E+02
#           1.17948E+02  1.20817E+02  1.23757E+02  1.26768E+02  1.29852E+02
#           1.33012E+02  1.36248E+02  1.39563E+02  1.42959E+02  1.46437E+02
#           1.50000E+02
     unit =    2            # unit is [1/cm^2/(MeV/n)/source]
     axis =  eng            # axis of output
     file = detector-01.out  # file name of output for the above axis
   output = f-curr          # surface crossing forward current spectrum
     part =  neutron  
# kf/name :  2112     
#    used :        main (  %)        temp (  %)       total (  %)
#  memory :         414 (  0)           0 (  0)         414 (  0)

#------------------------------------------------------------------------------
#newpage:
#   no. =    1   reg = 100 - 200

x: Energy [MeV/n]
y:  F-Curr [1/cm^2/(MeV/n)/source]         
p: xlog ylog afac(0.8) form(0.9)
h: n            x            y(neutron ),hh0l   n 
#  e-lower      e-upper      neutron     r.err 
   1.0000E-02   1.0243E-02   1.1508E-04  0.2673
   1.0243E-02   1.0493E-02   1.1235E-04  0.2673
   1.0493E-02   1.0748E-02   7.8342E-05  0.3162
   1.0748E-02   1.1009E-02   6.8833E-05  0.3333
   1.1009E-02   1.1277E-02   8.2131E-05  0.3015
   1.1277E-02   1.1552E-02   1.0934E-04  0.2582
   1.1552E-02   1.1833E-02   8.5391E-05  0.2887
   1.1833E-02   1.2121E-02   1.3894E-04  0.2236
   1.2121E-02   1.2415E-02   6.1037E-05  0.3333
   1.2415E-02   1.2718E-02   6.6208E-05  0.3162
   1.2718E-02   1.3027E-02   9.0490E-05  0.2673
   1.3027E-02   1.3344E-02   7.7511E-05  0.2825
   1.3344E-02   1.3669E-02   9.2402E-05  0.2582
   1.3669E-02   1.4001E-02   8.4194E-05  0.2673
   1.4001E-02   1.4342E-02   7.6323E-05  0.2774
   1.4342E-02   1.4691E-02   1.1463E-04  0.2236
   1.4691E-02   1.5048E-02   8.9526E-05  0.2500
   1.5048E-02   1.5414E-02   7.2111E-05  0.2735
   1.5414E-02   1.5789E-02   9.1330E-05  0.2409
   1.5789E-02   1.6174E-02   6.2473E-05  0.2887
   1.6174E-02   1.6567E-02   5.1534E-05  0.3122
   1.6567E-02   1.6970E-02   5.6080E-05  0.2941
   1.6970E-02   1.7383E-02   4.8438E-05  0.3162
   1.7383E-02   1.7806E-02   7.6629E-05  0.2472
   1.7806E-02   1.8239E-02   1.0618E-04  0.2085
   1.8239E-02   1.8683E-02   6.3095E-05  0.2673
   1.8683E-02   1.9138E-02   4.3997E-05  0.3162
   1.9138E-02   1.9603E-02   8.2236E-05  0.2278
   1.9603E-02   2.0080E-02   6.7792E-05  0.2476
   2.0080E-02   2.0569E-02   7.7779E-05  0.2294
   2.0569E-02   2.1069E-02   4.8684E-05  0.2848
   2.1069E-02   2.1582E-02   5.4620E-05  0.2673
   2.1582E-02   2.2107E-02   5.3956E-05  0.2644
   2.2107E-02   2.2645E-02   6.3211E-05  0.2425
   2.2645E-02   2.3196E-02   5.0820E-05  0.2673
   2.3196E-02   2.3760E-02   7.1457E-05  0.2219
   2.3760E-02   2.4338E-02   4.1515E-05  0.2887
   2.4338E-02   2.4930E-02   4.7809E-05  0.2646
   2.4930E-02   2.5537E-02   6.5944E-05  0.2236
   2.5537E-02   2.6158E-02   5.1502E-05  0.2500
   2.6158E-02   2.6795E-02   4.4647E-05  0.2638
   2.6795E-02   2.7447E-02   5.5220E-05  0.2357
   2.7447E-02   2.8114E-02   4.1929E-05  0.2673
   2.8114E-02   2.8799E-02   3.9471E-05  0.2696
   2.8799E-02   2.9499E-02   3.1867E-05  0.2974
   2.9499E-02   3.0217E-02   6.4902E-05  0.2061
   3.0217E-02   3.0952E-02   5.7127E-05  0.2156
   3.0952E-02   3.1705E-02   3.7180E-05  0.2673
   3.1705E-02   3.2477E-02   5.4446E-05  0.2182
   3.2477E-02   3.3267E-02   4.6268E-05  0.2323
   3.3267E-02   3.4076E-02   4.2785E-05  0.2385
   3.4076E-02   3.4905E-02   6.0306E-05  0.2000
   3.4905E-02   3.5755E-02   5.0631E-05  0.2144
   3.5755E-02   3.6625E-02   4.3681E-05  0.2294
   3.6625E-02   3.7516E-02   4.7847E-05  0.2152
   3.7516E-02   3.8428E-02   3.5058E-05  0.2500
   3.8428E-02   3.9363E-02   4.7059E-05  0.2132
   3.9363E-02   4.0321E-02   5.0118E-05  0.2041
   4.0321E-02   4.1302E-02   4.8927E-05  0.2041
   4.1302E-02   4.2307E-02   4.1795E-05  0.2182
   4.2307E-02   4.3337E-02   3.1399E-05  0.2477
   4.3337E-02   4.4391E-02   3.7936E-05  0.2236
   4.4391E-02   4.5471E-02   4.1052E-05  0.2117
   4.5471E-02   4.6577E-02   3.4347E-05  0.2294
   4.6577E-02   4.7711E-02   3.0002E-05  0.2425
   4.7711E-02   4.8871E-02   2.0675E-05  0.2887
   4.8871E-02   5.0061E-02   4.0712E-05  0.2026
   5.0061E-02   5.1279E-02   3.1198E-05  0.2294
   5.1279E-02   5.2526E-02   2.5924E-05  0.2476
   5.2526E-02   5.3804E-02   2.6604E-05  0.2425
   5.3804E-02   5.5113E-02   2.9291E-05  0.2275
   5.5113E-02   5.6454E-02   3.1321E-05  0.2182
   5.6454E-02   5.7828E-02   2.0593E-05  0.2648
   5.7828E-02   5.9235E-02   3.1272E-05  0.2132
   5.9235E-02   6.0676E-02   2.9358E-05  0.2167
   6.0676E-02   6.2152E-02   3.4089E-05  0.1988
   6.2152E-02   6.3665E-02   3.0419E-05  0.2085
   6.3665E-02   6.5214E-02   3.0988E-05  0.2041
   6.5214E-02   6.6800E-02   2.0168E-05  0.2500
   6.6800E-02   6.8426E-02   2.7265E-05  0.2118
   6.8426E-02   7.0090E-02   2.6429E-05  0.2132
   7.0090E-02   7.1796E-02   2.0090E-05  0.2408
   7.1796E-02   7.3543E-02   2.2898E-05  0.2236
   7.3543E-02   7.5332E-02   2.2354E-05  0.2236
   7.5332E-02   7.7165E-02   2.2335E-05  0.2189
   7.7165E-02   7.9042E-02   1.7253E-05  0.2473
   7.9042E-02   8.0965E-02   3.1384E-05  0.1816
   8.0965E-02   8.2935E-02   1.7767E-05  0.2373
   8.2935E-02   8.4953E-02   1.7840E-05  0.2357
   8.4953E-02   8.7020E-02   2.5336E-05  0.1949
   8.7020E-02   8.9138E-02   1.5393E-05  0.2458
   8.9138E-02   9.1306E-02   2.1410E-05  0.2068
   9.1306E-02   9.3528E-02   1.9356E-05  0.2144
   9.3528E-02   9.5804E-02   1.6890E-05  0.2271
   9.5804E-02   9.8134E-02   2.2308E-05  0.1961
   9.8134E-02   1.0052E-01   1.0889E-05  0.2774
   1.0052E-01   1.0297E-01   1.8254E-05  0.2104
   1.0297E-01   1.0547E-01   2.3452E-05  0.1835
   1.0547E-01   1.0804E-01   1.8315E-05  0.2052
   1.0804E-01   1.1067E-01   2.2825E-05  0.1826
   1.1067E-01   1.1336E-01   1.5130E-05  0.2199
   1.1336E-01   1.1612E-01   1.7655E-05  0.2015
   1.1612E-01   1.1894E-01   1.3560E-05  0.2277
   1.1894E-01   1.2184E-01   1.6586E-05  0.2041
   1.2184E-01   1.2480E-01   1.5378E-05  0.2071
   1.2480E-01   1.2784E-01   1.4819E-05  0.2096
   1.2784E-01   1.3095E-01   8.3590E-06  0.2774
   1.3095E-01   1.3414E-01   1.3915E-05  0.2117
   1.3414E-01   1.3740E-01   2.2149E-05  0.1661
   1.3740E-01   1.4074E-01   1.1965E-05  0.2236
   1.4074E-01   1.4417E-01   1.6937E-05  0.1857
   1.4417E-01   1.4767E-01   1.0263E-05  0.2357
   1.4767E-01   1.5127E-01   1.5586E-05  0.1890
   1.5127E-01   1.5495E-01   1.3042E-05  0.2041
   1.5495E-01   1.5872E-01   1.2732E-05  0.2041
   1.5872E-01   1.6258E-01   1.2086E-05  0.2058
   1.6258E-01   1.6654E-01   1.1803E-05  0.2057
   1.6654E-01   1.7059E-01   1.8263E-05  0.1644
   1.7059E-01   1.7474E-01   1.2126E-05  0.1988
   1.7474E-01   1.7899E-01   1.3237E-05  0.1881
   1.7899E-01   1.8334E-01   7.4065E-06  0.2481
   1.8334E-01   1.8781E-01   7.6912E-06  0.2405
   1.8781E-01   1.9237E-01   8.7538E-06  0.2236
   1.9237E-01   1.9706E-01   9.4763E-06  0.2116
   1.9706E-01   2.0185E-01   1.0429E-05  0.2000
   2.0185E-01   2.0676E-01   7.3951E-06  0.2338
   2.0676E-01   2.1179E-01   9.9391E-06  0.2000
   2.1179E-01   2.1694E-01   1.0536E-05  0.1915
   2.1694E-01   2.2222E-01   1.2564E-05  0.1733
   2.2222E-01   2.2763E-01   1.1097E-05  0.1826
   2.2763E-01   2.3317E-01   1.1375E-05  0.1775
   2.3317E-01   2.3884E-01   1.3044E-05  0.1644
   2.3884E-01   2.4465E-01   9.9807E-06  0.1857
   2.4465E-01   2.5061E-01   1.4155E-05  0.1539
   2.5061E-01   2.5670E-01   1.1808E-05  0.1667
   2.5670E-01   2.6295E-01   1.0667E-05  0.1726
   2.6295E-01   2.6935E-01   1.2661E-05  0.1566
   2.6935E-01   2.7590E-01   1.1597E-05  0.1622
   2.7590E-01   2.8261E-01   1.4570E-05  0.1422
   2.8261E-01   2.8949E-01   1.2259E-05  0.1538
   2.8949E-01   2.9653E-01   1.3392E-05  0.1454
   2.9653E-01   3.0375E-01   1.3628E-05  0.1417
   3.0375E-01   3.1114E-01   1.6237E-05  0.1286
   3.1114E-01   3.1871E-01   1.8282E-05  0.1201
   3.1871E-01   3.2646E-01   1.7950E-05  0.1194
   3.2646E-01   3.3441E-01   1.6446E-05  0.1235
   3.3441E-01   3.4254E-01   1.5240E-05  0.1270
   3.4254E-01   3.5088E-01   1.6798E-05  0.1195
   3.5088E-01   3.5941E-01   2.0467E-05  0.1068
   3.5941E-01   3.6816E-01   1.9898E-05  0.1072
   3.6816E-01   3.7712E-01   1.8755E-05  0.1088
   3.7712E-01   3.8629E-01   2.0854E-05  0.1020
   3.8629E-01   3.9569E-01   2.1812E-05  0.0986
   3.9569E-01   4.0532E-01   1.8489E-05  0.1060
   4.0532E-01   4.1518E-01   1.9346E-05  0.1022
   4.1518E-01   4.2528E-01   2.2143E-05  0.0943
   4.2528E-01   4.3563E-01   2.1302E-05  0.0952
   4.3563E-01   4.4623E-01   1.7675E-05  0.1031
   4.4623E-01   4.5708E-01   2.0292E-05  0.0952
   4.5708E-01   4.6821E-01   2.4685E-05  0.0853
   4.6821E-01   4.7960E-01   2.2852E-05  0.0874
   4.7960E-01   4.9127E-01   2.2675E-05  0.0869
   4.9127E-01   5.0322E-01   2.0141E-05  0.0910
   5.0322E-01   5.1546E-01   2.1562E-05  0.0869
   5.1546E-01   5.2800E-01   2.0325E-05  0.0884
   5.2800E-01   5.4085E-01   2.2883E-05  0.0823
   5.4085E-01   5.5401E-01   2.3153E-05  0.0809
   5.5401E-01   5.6749E-01   2.1098E-05  0.0837
   5.6749E-01   5.8130E-01   2.4075E-05  0.0772
   5.8130E-01   5.9544E-01   2.0582E-05  0.0828
   5.9544E-01   6.0993E-01   2.3324E-05  0.0766
   6.0993E-01   6.2477E-01   2.3155E-05  0.0762
   6.2477E-01   6.3997E-01   2.5283E-05  0.0720
   6.3997E-01   6.5554E-01   2.4931E-05  0.0715
   6.5554E-01   6.7149E-01   2.1194E-05  0.0768
   6.7149E-01   6.8783E-01   2.5688E-05  0.0688
   6.8783E-01   7.0456E-01   2.3684E-05  0.0709
   7.0456E-01   7.2171E-01   2.7738E-05  0.0648
   7.2171E-01   7.3927E-01   2.7236E-05  0.0645
   7.3927E-01   7.5725E-01   2.4679E-05  0.0670
   7.5725E-01   7.7568E-01   2.6722E-05  0.0637
   7.7568E-01   7.9455E-01   2.4177E-05  0.0660
   7.9455E-01   8.1388E-01   2.8531E-05  0.0601
   8.1388E-01   8.3368E-01   2.7288E-05  0.0608
   8.3368E-01   8.5397E-01   2.6715E-05  0.0606
   8.5397E-01   8.7475E-01   2.6084E-05  0.0607
   8.7475E-01   8.9603E-01   2.7201E-05  0.0586
   8.9603E-01   9.1783E-01   2.5474E-05  0.0599
   9.1783E-01   9.4016E-01   3.0076E-05  0.0545
   9.4016E-01   9.6304E-01   3.0705E-05  0.0533
   9.6304E-01   9.8647E-01   3.2019E-05  0.0516
   9.8647E-01   1.0105E+00   2.8373E-05  0.0541
   1.0105E+00   1.0351E+00   2.9732E-05  0.0522
   1.0351E+00   1.0602E+00   2.7317E-05  0.0539
   1.0602E+00   1.0860E+00   2.8758E-05  0.0518
   1.0860E+00   1.1125E+00   3.0343E-05  0.0498
   1.1125E+00   1.1395E+00   2.8935E-05  0.0504
   1.1395E+00   1.1673E+00   2.8684E-05  0.0500
   1.1673E+00   1.1957E+00   2.9150E-05  0.0490
   1.1957E+00   1.2247E+00   2.9824E-05  0.0479
   1.2247E+00   1.2545E+00   3.0013E-05  0.0472
   1.2545E+00   1.2851E+00   3.1778E-05  0.0453
   1.2851E+00   1.3163E+00   3.1964E-05  0.0446
   1.3163E+00   1.3484E+00   3.2118E-05  0.0440
   1.3484E+00   1.3812E+00   3.2604E-05  0.0432
   1.3812E+00   1.4148E+00   2.9763E-05  0.0445
   1.4148E+00   1.4492E+00   3.1740E-05  0.0427
   1.4492E+00   1.4845E+00   3.5182E-05  0.0401
   1.4845E+00   1.5206E+00   3.3147E-05  0.0408
   1.5206E+00   1.5576E+00   3.2698E-05  0.0405
   1.5576E+00   1.5955E+00   3.3021E-05  0.0399
   1.5955E+00   1.6343E+00   3.1797E-05  0.0402
   1.6343E+00   1.6741E+00   3.4437E-05  0.0382
   1.6741E+00   1.7148E+00   3.4257E-05  0.0378
   1.7148E+00   1.7565E+00   3.3926E-05  0.0375
   1.7565E+00   1.7992E+00   3.5950E-05  0.0360
   1.7992E+00   1.8430E+00   3.4762E-05  0.0362
   1.8430E+00   1.8879E+00   3.2634E-05  0.0369
   1.8879E+00   1.9338E+00   3.5451E-05  0.0350
   1.9338E+00   1.9808E+00   3.3962E-05  0.0353
   1.9808E+00   2.0290E+00   3.4691E-05  0.0345
   2.0290E+00   2.0784E+00   3.1195E-05  0.0360
   2.0784E+00   2.1290E+00   3.5695E-05  0.0332
   2.1290E+00   2.1808E+00   3.4234E-05  0.0335
   2.1808E+00   2.2338E+00   3.5714E-05  0.0324
   2.2338E+00   2.2882E+00   3.4629E-05  0.0325
   2.2882E+00   2.3439E+00   3.4057E-05  0.0324
   2.3439E+00   2.4009E+00   3.4293E-05  0.0320
   2.4009E+00   2.4593E+00   3.3977E-05  0.0317
   2.4593E+00   2.5191E+00   3.4012E-05  0.0313
   2.5191E+00   2.5804E+00   3.4901E-05  0.0305
   2.5804E+00   2.6432E+00   3.5748E-05  0.0298
   2.6432E+00   2.7075E+00   3.4430E-05  0.0300
   2.7075E+00   2.7734E+00   3.4808E-05  0.0295
   2.7734E+00   2.8409E+00   3.4773E-05  0.0291
   2.8409E+00   2.9100E+00   3.5208E-05  0.0286
   2.9100E+00   2.9808E+00   3.5479E-05  0.0282
   2.9808E+00   3.0533E+00   3.4495E-05  0.0282
   3.0533E+00   3.1276E+00   3.5017E-05  0.0277
   3.1276E+00   3.2037E+00   3.6521E-05  0.0268
   3.2037E+00   3.2817E+00   3.3756E-05  0.0275
   3.2817E+00   3.3615E+00   3.5720E-05  0.0264
   3.3615E+00   3.4433E+00   3.4094E-05  0.0267
   3.4433E+00   3.5271E+00   3.6401E-05  0.0256
   3.5271E+00   3.6129E+00   3.4816E-05  0.0258
   3.6129E+00   3.7008E+00   3.5185E-05  0.0254
   3.7008E+00   3.7908E+00   3.4920E-05  0.0252
   3.7908E+00   3.8831E+00   3.6110E-05  0.0244
   3.8831E+00   3.9776E+00   3.5790E-05  0.0243
   3.9776E+00   4.0743E+00   3.5759E-05  0.0240
   4.0743E+00   4.1735E+00   3.4022E-05  0.0243
   4.1735E+00   4.2750E+00   3.4405E-05  0.0239
   4.2750E+00   4.3790E+00   3.6382E-05  0.0230
   4.3790E+00   4.4856E+00   3.4932E-05  0.0231
   4.4856E+00   4.5947E+00   3.6463E-05  0.0224
   4.5947E+00   4.7065E+00   3.3897E-05  0.0229
   4.7065E+00   4.8210E+00   3.6474E-05  0.0219
   4.8210E+00   4.9383E+00   3.5624E-05  0.0219
   4.9383E+00   5.0585E+00   3.9764E-05  0.0204
   5.0585E+00   5.1815E+00   3.6438E-05  0.0211
   5.1815E+00   5.3076E+00   3.6503E-05  0.0208
   5.3076E+00   5.4368E+00   3.8187E-05  0.0201
   5.4368E+00   5.5690E+00   3.7039E-05  0.0202
   5.5690E+00   5.7045E+00   3.7202E-05  0.0199
   5.7045E+00   5.8433E+00   3.7937E-05  0.0195
   5.8433E+00   5.9855E+00   3.7696E-05  0.0193
   5.9855E+00   6.1311E+00   3.8216E-05  0.0189
   6.1311E+00   6.2803E+00   3.7648E-05  0.0189
   6.2803E+00   6.4331E+00   3.8891E-05  0.0183
   6.4331E+00   6.5896E+00   3.7328E-05  0.0185
   6.5896E+00   6.7500E+00   3.7985E-05  0.0181
   6.7500E+00   6.9142E+00   3.9287E-05  0.0176
   6.9142E+00   7.0824E+00   3.8775E-05  0.0175
   7.0824E+00   7.2548E+00   3.8473E-05  0.0174
   7.2548E+00   7.4313E+00   3.9292E-05  0.0170
   7.4313E+00   7.6121E+00   3.9179E-05  0.0168
   7.6121E+00   7.7973E+00   3.9291E-05  0.0166
   7.7973E+00   7.9870E+00   4.0211E-05  0.0162
   7.9870E+00   8.1813E+00   3.9964E-05  0.0160
   8.1813E+00   8.3804E+00   4.0501E-05  0.0157
   8.3804E+00   8.5843E+00   4.0516E-05  0.0156
   8.5843E+00   8.7931E+00   4.1383E-05  0.0152
   8.7931E+00   9.0071E+00   4.2333E-05  0.0149
   9.0071E+00   9.2262E+00   4.3273E-05  0.0145
   9.2262E+00   9.4507E+00   4.3546E-05  0.0143
   9.4507E+00   9.6807E+00   4.4312E-05  0.0140
   9.6807E+00   9.9162E+00   4.3936E-05  0.0139
   9.9162E+00   1.0157E+01   4.5836E-05  0.0134
   1.0157E+01   1.0405E+01   4.5571E-05  0.0133
   1.0405E+01   1.0658E+01   4.6784E-05  0.0130
   1.0658E+01   1.0917E+01   4.7476E-05  0.0127
   1.0917E+01   1.1183E+01   4.9095E-05  0.0124
   1.1183E+01   1.1455E+01   5.0443E-05  0.0121
   1.1455E+01   1.1733E+01   5.2001E-05  0.0117
   1.1733E+01   1.2019E+01   5.1783E-05  0.0116
   1.2019E+01   1.2311E+01   5.4815E-05  0.0112
   1.2311E+01   1.2611E+01   5.6246E-05  0.0109
   1.2611E+01   1.2918E+01   5.8961E-05  0.0105
   1.2918E+01   1.3232E+01   5.8922E-05  0.0104
   1.3232E+01   1.3554E+01   6.0088E-05  0.0102
   1.3554E+01   1.3884E+01   6.1770E-05  0.0099
   1.3884E+01   1.4222E+01   6.4634E-05  0.0096
   1.4222E+01   1.4568E+01   6.7174E-05  0.0093
   1.4568E+01   1.4922E+01   7.0140E-05  0.0090
   1.4922E+01   1.5285E+01   7.1306E-05  0.0088
   1.5285E+01   1.5657E+01   7.3305E-05  0.0086
   1.5657E+01   1.6038E+01   7.4789E-05  0.0084
   1.6038E+01   1.6428E+01   7.7643E-05  0.0081
   1.6428E+01   1.6828E+01   8.0085E-05  0.0079
   1.6828E+01   1.7237E+01   8.1354E-05  0.0077
   1.7237E+01   1.7657E+01   8.4494E-05  0.0075
   1.7657E+01   1.8086E+01   8.4792E-05  0.0074
   1.8086E+01   1.8526E+01   8.7634E-05  0.0072
   1.8526E+01   1.8977E+01   8.9455E-05  0.0070
   1.8977E+01   1.9439E+01   9.0308E-05  0.0069
   1.9439E+01   1.9912E+01   9.0979E-05  0.0068
   1.9912E+01   2.0396E+01   9.4586E-05  0.0066
   2.0396E+01   2.0893E+01   9.4652E-05  0.0065
   2.0893E+01   2.1401E+01   9.5441E-05  0.0064
   2.1401E+01   2.1922E+01   9.4515E-05  0.0064
   2.1922E+01   2.2455E+01   9.5296E-05  0.0063
   2.2455E+01   2.3001E+01   9.3164E-05  0.0063
   2.3001E+01   2.3561E+01   9.2148E-05  0.0062
   2.3561E+01   2.4134E+01   9.0549E-05  0.0062
   2.4134E+01   2.4721E+01   8.7601E-05  0.0062
   2.4721E+01   2.5323E+01   8.4689E-05  0.0063
   2.5323E+01   2.5939E+01   8.2661E-05  0.0063
   2.5939E+01   2.6570E+01   7.9975E-05  0.0063
   2.6570E+01   2.7217E+01   7.4821E-05  0.0064
   2.7217E+01   2.7879E+01   7.1625E-05  0.0065
   2.7879E+01   2.8557E+01   6.7685E-05  0.0066
   2.8557E+01   2.9252E+01   6.3530E-05  0.0067
   2.9252E+01   2.9964E+01   5.7823E-05  0.0070
   2.9964E+01   3.0693E+01   5.3788E-05  0.0071
   3.0693E+01   3.1440E+01   4.9750E-05  0.0073
   3.1440E+01   3.2205E+01   4.4957E-05  0.0076
   3.2205E+01   3.2988E+01   4.0630E-05  0.0079
   3.2988E+01   3.3791E+01   3.6640E-05  0.0082
   3.3791E+01   3.4613E+01   3.2602E-05  0.0086
   3.4613E+01   3.5455E+01   2.8857E-05  0.0091
   3.5455E+01   3.6318E+01   2.5832E-05  0.0095
   3.6318E+01   3.7201E+01   2.2140E-05  0.0101
   3.7201E+01   3.8106E+01   1.9738E-05  0.0106
   3.8106E+01   3.9034E+01   1.7339E-05  0.0112
   3.9034E+01   3.9983E+01   1.5377E-05  0.0117
   3.9983E+01   4.0956E+01   1.3211E-05  0.0125
   4.0956E+01   4.1953E+01   1.1416E-05  0.0133
   4.1953E+01   4.2973E+01   9.4657E-06  0.0144
   4.2973E+01   4.4019E+01   8.4642E-06  0.0150
   4.4019E+01   4.5090E+01   7.2455E-06  0.0161
   4.5090E+01   4.6187E+01   6.5574E-06  0.0167
   4.6187E+01   4.7311E+01   6.2451E-06  0.0169
   4.7311E+01   4.8462E+01   6.3504E-06  0.0165
   4.8462E+01   4.9641E+01   6.1470E-06  0.0166
   4.9641E+01   5.0849E+01   5.9877E-06  0.0166
   5.0849E+01   5.2086E+01   5.7388E-06  0.0168
   5.2086E+01   5.3353E+01   5.6246E-06  0.0168
   5.3353E+01   5.4651E+01   5.1736E-06  0.0173
   5.4651E+01   5.5981E+01   4.6070E-06  0.0181
   5.5981E+01   5.7343E+01   4.0218E-06  0.0191
   5.7343E+01   5.8738E+01   3.6754E-06  0.0197
   5.8738E+01   6.0168E+01   3.7757E-06  0.0193
   6.0168E+01   6.1632E+01   3.6955E-06  0.0192
   6.1632E+01   6.3131E+01   3.0969E-06  0.0208
   6.3131E+01   6.4667E+01   3.0742E-06  0.0206
   6.4667E+01   6.6240E+01   2.5410E-06  0.0224
   6.6240E+01   6.7852E+01   1.7373E-06  0.0267
   6.7852E+01   6.9503E+01   1.1424E-06  0.0326
   6.9503E+01   7.1194E+01   5.2984E-07  0.0472
   7.1194E+01   7.2926E+01   8.0822E-08  0.1195
   7.2926E+01   7.4701E+01   0.0000E+00  0.0000
   7.4701E+01   7.6518E+01   0.0000E+00  0.0000
   7.6518E+01   7.8380E+01   0.0000E+00  0.0000
   7.8380E+01   8.0287E+01   0.0000E+00  0.0000
   8.0287E+01   8.2240E+01   0.0000E+00  0.0000
   8.2240E+01   8.4241E+01   0.0000E+00  0.0000
   8.4241E+01   8.6291E+01   0.0000E+00  0.0000
   8.6291E+01   8.8391E+01   0.0000E+00  0.0000
   8.8391E+01   9.0541E+01   0.0000E+00  0.0000
   9.0541E+01   9.2744E+01   0.0000E+00  0.0000
   9.2744E+01   9.5001E+01   0.0000E+00  0.0000
   9.5001E+01   9.7312E+01   0.0000E+00  0.0000
   9.7312E+01   9.9680E+01   0.0000E+00  0.0000
   9.9680E+01   1.0211E+02   0.0000E+00  0.0000
   1.0211E+02   1.0459E+02   0.0000E+00  0.0000
   1.0459E+02   1.0713E+02   0.0000E+00  0.0000
   1.0713E+02   1.0974E+02   0.0000E+00  0.0000
   1.0974E+02   1.1241E+02   0.0000E+00  0.0000
   1.1241E+02   1.1515E+02   0.0000E+00  0.0000
   1.1515E+02   1.1795E+02   0.0000E+00  0.0000
   1.1795E+02   1.2082E+02   0.0000E+00  0.0000
   1.2082E+02   1.2376E+02   0.0000E+00  0.0000
   1.2376E+02   1.2677E+02   0.0000E+00  0.0000
   1.2677E+02   1.2985E+02   0.0000E+00  0.0000
   1.2985E+02   1.3301E+02   0.0000E+00  0.0000
   1.3301E+02   1.3625E+02   0.0000E+00  0.0000
   1.3625E+02   1.3956E+02   0.0000E+00  0.0000
   1.3956E+02   1.4296E+02   0.0000E+00  0.0000
   1.4296E+02   1.4644E+02   0.0000E+00  0.0000
   1.4644E+02   1.5000E+02   0.0000E+00  0.0000

#   sum over                 1.5635E-05
'no. =    1   reg = 100 - 200'
msuc: {\huge [t-cross] in region mesh}
msdr: {\it plotted by \ANGEL \version}
msdl: {\it calculated by \PHITS  3.26}
wt: s(0.7)
\vspace{-3}
  region surface crossing
  area  &=&   1.0000E+00 [cm^2]
e:
 
# Information for Restart Calculation
# This calculation was newly started
# istdev =  2 # 1:Batch variance, 2:History variance
# resc2  = 5.00000000000000000E+08 # Total source weight or Total source weight / maxcas
# resc3  = 5.00000000000000000E+08 # Total history number or Total batch number
# maxcas =   500000000 # History / Batch, only used for istdev=1
# bitrseed = 1101101111010011011000101101110001100110110010110001010100010001 # bit data of rseed
