[ T-Cross ]
    title = [t-cross] in region mesh
     mesh =  reg            # mesh type is region-wise
      reg =    1            # number of crossing regions
      non     r-from    r-to       area
      1       112       212        1.000000    
   e-type =    3            # e-mesh is log given by emin, emax and ne
     emin =  1.0000000E-02  # minimum value of e-mesh points
     emax =   150.0000      # maximum value of e-mesh points
#    edel =  2.4039514E-02  # mesh width of e-mesh points
       ne =    400          # number of e-mesh points
#    data = ( e(i), i = 1, ne + 1 )
#           1.00000E-02  1.02433E-02  1.04925E-02  1.07478E-02  1.10093E-02
#           1.12772E-02  1.15516E-02  1.18326E-02  1.21205E-02  1.24154E-02
#           1.27175E-02  1.30269E-02  1.33439E-02  1.36686E-02  1.40011E-02
#           1.43418E-02  1.46907E-02  1.50482E-02  1.54143E-02  1.57894E-02
#           1.61735E-02  1.65670E-02  1.69701E-02  1.73830E-02  1.78060E-02
#           1.82392E-02  1.86830E-02  1.91375E-02  1.96032E-02  2.00801E-02
#           2.05687E-02  2.10692E-02  2.15818E-02  2.21069E-02  2.26448E-02
#           2.31957E-02  2.37601E-02  2.43382E-02  2.49304E-02  2.55369E-02
#           2.61583E-02  2.67947E-02  2.74467E-02  2.81145E-02  2.87985E-02
#           2.94992E-02  3.02169E-02  3.09521E-02  3.17052E-02  3.24766E-02
#           3.32668E-02  3.40762E-02  3.49053E-02  3.57546E-02  3.66246E-02
#           3.75157E-02  3.84284E-02  3.93634E-02  4.03212E-02  4.13022E-02
#           4.23071E-02  4.33365E-02  4.43909E-02  4.54710E-02  4.65773E-02
#           4.77106E-02  4.88714E-02  5.00605E-02  5.12785E-02  5.25262E-02
#           5.38042E-02  5.51133E-02  5.64542E-02  5.78278E-02  5.92348E-02
#           6.06760E-02  6.21523E-02  6.36645E-02  6.52135E-02  6.68002E-02
#           6.84255E-02  7.00904E-02  7.17957E-02  7.35426E-02  7.53319E-02
#           7.71648E-02  7.90423E-02  8.09655E-02  8.29354E-02  8.49533E-02
#           8.70203E-02  8.91376E-02  9.13064E-02  9.35279E-02  9.58035E-02
#           9.81345E-02  1.00522E-01  1.02968E-01  1.05473E-01  1.08040E-01
#           1.10668E-01  1.13361E-01  1.16119E-01  1.18944E-01  1.21838E-01
#           1.24803E-01  1.27839E-01  1.30950E-01  1.34136E-01  1.37399E-01
#           1.40742E-01  1.44167E-01  1.47675E-01  1.51268E-01  1.54948E-01
#           1.58718E-01  1.62580E-01  1.66535E-01  1.70587E-01  1.74738E-01
#           1.78989E-01  1.83344E-01  1.87805E-01  1.92375E-01  1.97055E-01
#           2.01850E-01  2.06761E-01  2.11792E-01  2.16945E-01  2.22223E-01
#           2.27630E-01  2.33169E-01  2.38842E-01  2.44653E-01  2.50605E-01
#           2.56703E-01  2.62949E-01  2.69346E-01  2.75900E-01  2.82613E-01
#           2.89489E-01  2.96532E-01  3.03747E-01  3.11138E-01  3.18708E-01
#           3.26462E-01  3.34405E-01  3.42542E-01  3.50876E-01  3.59413E-01
#           3.68158E-01  3.77116E-01  3.86291E-01  3.95690E-01  4.05317E-01
#           4.15179E-01  4.25281E-01  4.35628E-01  4.46227E-01  4.57084E-01
#           4.68205E-01  4.79597E-01  4.91266E-01  5.03219E-01  5.15463E-01
#           5.28005E-01  5.40851E-01  5.54011E-01  5.67490E-01  5.81298E-01
#           5.95441E-01  6.09929E-01  6.24769E-01  6.39970E-01  6.55541E-01
#           6.71491E-01  6.87828E-01  7.04564E-01  7.21706E-01  7.39266E-01
#           7.57253E-01  7.75678E-01  7.94551E-01  8.13883E-01  8.33685E-01
#           8.53969E-01  8.74747E-01  8.96030E-01  9.17831E-01  9.40163E-01
#           9.63038E-01  9.86469E-01  1.01047E+00  1.03506E+00  1.06024E+00
#           1.08604E+00  1.11246E+00  1.13953E+00  1.16725E+00  1.19565E+00
#           1.22474E+00  1.25454E+00  1.28507E+00  1.31633E+00  1.34836E+00
#           1.38117E+00  1.41477E+00  1.44920E+00  1.48446E+00  1.52057E+00
#           1.55757E+00  1.59547E+00  1.63429E+00  1.67405E+00  1.71478E+00
#           1.75650E+00  1.79924E+00  1.84302E+00  1.88786E+00  1.93379E+00
#           1.98084E+00  2.02904E+00  2.07841E+00  2.12898E+00  2.18078E+00
#           2.23384E+00  2.28819E+00  2.34386E+00  2.40089E+00  2.45930E+00
#           2.51914E+00  2.58043E+00  2.64322E+00  2.70753E+00  2.77341E+00
#           2.84088E+00  2.91001E+00  2.98081E+00  3.05333E+00  3.12762E+00
#           3.20372E+00  3.28167E+00  3.36152E+00  3.44330E+00  3.52708E+00
#           3.61290E+00  3.70080E+00  3.79085E+00  3.88308E+00  3.97756E+00
#           4.07434E+00  4.17347E+00  4.27501E+00  4.37903E+00  4.48557E+00
#           4.59471E+00  4.70650E+00  4.82102E+00  4.93832E+00  5.05847E+00
#           5.18155E+00  5.30762E+00  5.43676E+00  5.56904E+00  5.70453E+00
#           5.84333E+00  5.98550E+00  6.13114E+00  6.28031E+00  6.43312E+00
#           6.58964E+00  6.74997E+00  6.91420E+00  7.08243E+00  7.25475E+00
#           7.43126E+00  7.61207E+00  7.79728E+00  7.98700E+00  8.18133E+00
#           8.38038E+00  8.58428E+00  8.79315E+00  9.00709E+00  9.22624E+00
#           9.45072E+00  9.68067E+00  9.91620E+00  1.01575E+01  1.04046E+01
#           1.06578E+01  1.09171E+01  1.11827E+01  1.14548E+01  1.17335E+01
#           1.20190E+01  1.23114E+01  1.26109E+01  1.29178E+01  1.32321E+01
#           1.35540E+01  1.38838E+01  1.42216E+01  1.45676E+01  1.49221E+01
#           1.52851E+01  1.56570E+01  1.60380E+01  1.64282E+01  1.68279E+01
#           1.72374E+01  1.76568E+01  1.80864E+01  1.85264E+01  1.89772E+01
#           1.94389E+01  1.99119E+01  2.03963E+01  2.08926E+01  2.14009E+01
#           2.19216E+01  2.24550E+01  2.30014E+01  2.35610E+01  2.41343E+01
#           2.47215E+01  2.53230E+01  2.59391E+01  2.65702E+01  2.72167E+01
#           2.78789E+01  2.85572E+01  2.92520E+01  2.99637E+01  3.06928E+01
#           3.14396E+01  3.22045E+01  3.29881E+01  3.37907E+01  3.46128E+01
#           3.54550E+01  3.63177E+01  3.72013E+01  3.81064E+01  3.90336E+01
#           3.99833E+01  4.09561E+01  4.19526E+01  4.29734E+01  4.40189E+01
#           4.50900E+01  4.61870E+01  4.73108E+01  4.84619E+01  4.96410E+01
#           5.08488E+01  5.20860E+01  5.33533E+01  5.46514E+01  5.59812E+01
#           5.73432E+01  5.87384E+01  6.01676E+01  6.16315E+01  6.31311E+01
#           6.46671E+01  6.62405E+01  6.78522E+01  6.95031E+01  7.11941E+01
#           7.29263E+01  7.47007E+01  7.65182E+01  7.83800E+01  8.02870E+01
#           8.22405E+01  8.42414E+01  8.62911E+01  8.83906E+01  9.05412E+01
#           9.27442E+01  9.50007E+01  9.73122E+01  9.96799E+01  1.02105E+02
#           1.04589E+02  1.07134E+02  1.09741E+02  1.12411E+02  1.15146E+02
#           1.17948E+02  1.20817E+02  1.23757E+02  1.26768E+02  1.29852E+02
#           1.33012E+02  1.36248E+02  1.39563E+02  1.42959E+02  1.46437E+02
#           1.50000E+02
     unit =    2            # unit is [1/cm^2/(MeV/n)/source]
     axis =  eng            # axis of output
     file = detector-13.out  # file name of output for the above axis
   output = f-curr          # surface crossing forward current spectrum
     part =  neutron  
# kf/name :  2112     
#    used :        main (  %)        temp (  %)       total (  %)
#  memory :         414 (  0)           0 (  0)         414 (  0)

#------------------------------------------------------------------------------
#newpage:
#   no. =    1   reg = 112 - 212

x: Energy [MeV/n]
y:  F-Curr [1/cm^2/(MeV/n)/source]         
p: xlog ylog afac(0.8) form(0.9)
h: n            x            y(neutron ),hh0l   n 
#  e-lower      e-upper      neutron     r.err 
   1.0000E-02   1.0243E-02   1.0443E-03  0.0877
   1.0243E-02   1.0493E-02   9.2910E-04  0.0919
   1.0493E-02   1.0748E-02   1.0441E-03  0.0854
   1.0748E-02   1.1009E-02   8.8030E-04  0.0926
   1.1009E-02   1.1277E-02   1.0106E-03  0.0850
   1.1277E-02   1.1552E-02   8.0317E-04  0.0943
   1.1552E-02   1.1833E-02   8.1584E-04  0.0923
   1.1833E-02   1.2121E-02   9.4225E-04  0.0848
   1.2121E-02   1.2415E-02   8.7863E-04  0.0867
   1.2415E-02   1.2718E-02   7.1967E-04  0.0944
   1.2718E-02   1.3027E-02   7.1060E-04  0.0945
   1.3027E-02   1.3344E-02   8.5736E-04  0.0849
   1.3344E-02   1.3669E-02   8.8041E-04  0.0828
   1.3669E-02   1.4001E-02   8.5141E-04  0.0835
   1.4001E-02   1.4342E-02   7.3403E-04  0.0883
   1.4342E-02   1.4691E-02   6.8022E-04  0.0908
   1.4691E-02   1.5048E-02   6.7692E-04  0.0898
   1.5048E-02   1.5414E-02   6.8613E-04  0.0878
   1.5414E-02   1.5789E-02   6.0326E-04  0.0926
   1.5789E-02   1.6174E-02   5.8771E-04  0.0929
   1.6174E-02   1.6567E-02   6.8023E-04  0.0855
   1.6567E-02   1.6970E-02   6.6681E-04  0.0853
   1.6970E-02   1.7383E-02   7.2517E-04  0.0806
   1.7383E-02   1.7806E-02   5.9579E-04  0.0878
   1.7806E-02   1.8239E-02   5.5481E-04  0.0900
   1.8239E-02   1.8683E-02   5.1221E-04  0.0931
   1.8683E-02   1.9138E-02   5.6228E-04  0.0872
   1.9138E-02   1.9603E-02   5.2772E-04  0.0890
   1.9603E-02   2.0080E-02   4.8934E-04  0.0910
   2.0080E-02   2.0569E-02   4.6709E-04  0.0924
   2.0569E-02   2.1069E-02   5.6722E-04  0.0833
   2.1069E-02   2.1582E-02   4.4759E-04  0.0920
   2.1582E-02   2.2107E-02   4.9160E-04  0.0870
   2.2107E-02   2.2645E-02   5.2316E-04  0.0835
   2.2645E-02   2.3196E-02   4.8120E-04  0.0856
   2.3196E-02   2.3760E-02   4.2952E-04  0.0900
   2.3760E-02   2.4338E-02   4.3241E-04  0.0882
   2.4338E-02   2.4930E-02   4.4681E-04  0.0855
   2.4930E-02   2.5537E-02   4.4074E-04  0.0855
   2.5537E-02   2.6158E-02   3.4389E-04  0.0954
   2.6158E-02   2.6795E-02   4.3397E-04  0.0842
   2.6795E-02   2.7447E-02   4.2603E-04  0.0836
   2.7447E-02   2.8114E-02   4.0164E-04  0.0852
   2.8114E-02   2.8799E-02   3.8086E-04  0.0863
   2.8799E-02   2.9499E-02   3.7282E-04  0.0862
   2.9499E-02   3.0217E-02   3.6781E-04  0.0859
   3.0217E-02   3.0952E-02   3.1852E-04  0.0915
   3.0952E-02   3.1705E-02   3.5587E-04  0.0859
   3.1705E-02   3.2477E-02   3.6107E-04  0.0838
   3.2477E-02   3.3267E-02   2.9832E-04  0.0911
   3.3267E-02   3.4076E-02   3.3952E-04  0.0840
   3.4076E-02   3.4905E-02   3.1808E-04  0.0860
   3.4905E-02   3.5755E-02   2.9829E-04  0.0881
   3.5755E-02   3.6625E-02   3.0949E-04  0.0851
   3.6625E-02   3.7516E-02   3.3213E-04  0.0816
   3.7516E-02   3.8428E-02   2.8625E-04  0.0864
   3.8428E-02   3.9363E-02   3.1043E-04  0.0822
   3.9363E-02   4.0321E-02   3.2626E-04  0.0794
   4.0321E-02   4.1302E-02   2.8608E-04  0.0834
   4.1302E-02   4.2307E-02   3.0439E-04  0.0798
   4.2307E-02   4.3337E-02   2.6118E-04  0.0851
   4.3337E-02   4.4391E-02   2.2494E-04  0.0907
   4.4391E-02   4.5471E-02   2.5933E-04  0.0836
   4.5471E-02   4.6577E-02   2.6614E-04  0.0815
   4.6577E-02   4.7711E-02   2.4933E-04  0.0832
   4.7711E-02   4.8871E-02   2.6081E-04  0.0800
   4.8871E-02   5.0061E-02   2.5007E-04  0.0814
   5.0061E-02   5.1279E-02   2.5449E-04  0.0793
   5.1279E-02   5.2526E-02   2.0165E-04  0.0882
   5.2526E-02   5.3804E-02   2.4276E-04  0.0795
   5.3804E-02   5.5113E-02   2.0963E-04  0.0842
   5.5113E-02   5.6454E-02   2.2427E-04  0.0807
   5.6454E-02   5.7828E-02   1.9018E-04  0.0866
   5.7828E-02   5.9235E-02   1.9629E-04  0.0842
   5.9235E-02   6.0676E-02   2.0015E-04  0.0823
   6.0676E-02   6.2152E-02   2.0216E-04  0.0804
   6.2152E-02   6.3665E-02   2.1873E-04  0.0768
   6.3665E-02   6.5214E-02   1.9872E-04  0.0795
   6.5214E-02   6.6800E-02   1.8189E-04  0.0820
   6.6800E-02   6.8426E-02   1.7759E-04  0.0819
   6.8426E-02   7.0090E-02   1.7555E-04  0.0817
   7.0090E-02   7.1796E-02   1.6229E-04  0.0840
   7.1796E-02   7.3543E-02   1.6297E-04  0.0829
   7.3543E-02   7.5332E-02   1.7217E-04  0.0799
   7.5332E-02   7.7165E-02   1.5473E-04  0.0828
   7.7165E-02   7.9042E-02   1.5498E-04  0.0822
   7.9042E-02   8.0965E-02   1.6636E-04  0.0781
   8.0965E-02   8.2935E-02   1.7608E-04  0.0748
   8.2935E-02   8.4953E-02   1.4842E-04  0.0812
   8.4953E-02   8.7020E-02   1.7831E-04  0.0728
   8.7020E-02   8.9138E-02   1.5763E-04  0.0766
   8.9138E-02   9.1306E-02   1.3725E-04  0.0812
   9.1306E-02   9.3528E-02   1.4493E-04  0.0779
   9.3528E-02   9.5804E-02   1.2768E-04  0.0821
   9.5804E-02   9.8134E-02   1.3758E-04  0.0782
   9.8134E-02   1.0052E-01   1.2780E-04  0.0803
   1.0052E-01   1.0297E-01   1.1123E-04  0.0845
   1.0297E-01   1.0547E-01   1.2630E-04  0.0786
   1.0547E-01   1.0804E-01   1.4426E-04  0.0729
   1.0804E-01   1.1067E-01   1.2351E-04  0.0778
   1.1067E-01   1.1336E-01   1.0428E-04  0.0830
   1.1336E-01   1.1612E-01   1.1494E-04  0.0786
   1.1612E-01   1.1894E-01   1.2055E-04  0.0756
   1.1894E-01   1.2184E-01   1.1483E-04  0.0765
   1.2184E-01   1.2480E-01   1.1441E-04  0.0759
   1.2480E-01   1.2784E-01   1.1976E-04  0.0733
   1.2784E-01   1.3095E-01   1.1133E-04  0.0754
   1.3095E-01   1.3414E-01   1.1436E-04  0.0734
   1.3414E-01   1.3740E-01   9.2337E-05  0.0806
   1.3740E-01   1.4074E-01   1.0467E-04  0.0748
   1.4074E-01   1.4417E-01   9.9310E-05  0.0759
   1.4417E-01   1.4767E-01   9.8271E-05  0.0753
   1.4767E-01   1.5127E-01   9.3046E-05  0.0763
   1.5127E-01   1.5495E-01   8.9041E-05  0.0775
   1.5495E-01   1.5872E-01   9.6888E-05  0.0731
   1.5872E-01   1.6258E-01   9.4039E-05  0.0734
   1.6258E-01   1.6654E-01   8.4556E-05  0.0763
   1.6654E-01   1.7059E-01   1.0088E-04  0.0692
   1.7059E-01   1.7474E-01   8.4473E-05  0.0745
   1.7474E-01   1.7899E-01   9.1206E-05  0.0709
   1.7899E-01   1.8334E-01   9.8102E-05  0.0678
   1.8334E-01   1.8781E-01   8.2797E-05  0.0728
   1.8781E-01   1.9237E-01   8.7601E-05  0.0698
   1.9237E-01   1.9706E-01   7.5949E-05  0.0743
   1.9706E-01   2.0185E-01   8.5693E-05  0.0693
   2.0185E-01   2.0676E-01   9.3631E-05  0.0651
   2.0676E-01   2.1179E-01   9.2583E-05  0.0649
   2.1179E-01   2.1694E-01   8.2907E-05  0.0678
   2.1694E-01   2.2222E-01   9.3116E-05  0.0629
   2.2222E-01   2.2763E-01   9.8784E-05  0.0605
   2.2763E-01   2.3317E-01   1.1337E-04  0.0559
   2.3317E-01   2.3884E-01   1.1841E-04  0.0540
   2.3884E-01   2.4465E-01   1.1604E-04  0.0539
   2.4465E-01   2.5061E-01   1.0492E-04  0.0558
   2.5061E-01   2.5670E-01   1.2561E-04  0.0506
   2.5670E-01   2.6295E-01   1.2732E-04  0.0496
   2.6295E-01   2.6935E-01   1.3511E-04  0.0476
   2.6935E-01   2.7590E-01   1.4510E-04  0.0454
   2.7590E-01   2.8261E-01   1.3864E-04  0.0458
   2.8261E-01   2.8949E-01   1.3847E-04  0.0452
   2.8949E-01   2.9653E-01   1.6228E-04  0.0414
   2.9653E-01   3.0375E-01   1.5522E-04  0.0417
   3.0375E-01   3.1114E-01   1.7026E-04  0.0394
   3.1114E-01   3.1871E-01   1.6250E-04  0.0399
   3.1871E-01   3.2646E-01   1.7381E-04  0.0381
   3.2646E-01   3.3441E-01   1.7652E-04  0.0373
   3.3441E-01   3.4254E-01   1.9736E-04  0.0349
   3.4254E-01   3.5088E-01   1.9844E-04  0.0343
   3.5088E-01   3.5941E-01   1.9431E-04  0.0343
   3.5941E-01   3.6816E-01   2.1512E-04  0.0323
   3.6816E-01   3.7712E-01   2.2803E-04  0.0309
   3.7712E-01   3.8629E-01   2.4078E-04  0.0298
   3.8629E-01   3.9569E-01   2.2688E-04  0.0302
   3.9569E-01   4.0532E-01   2.5422E-04  0.0283
   4.0532E-01   4.1518E-01   2.7124E-04  0.0270
   4.1518E-01   4.2528E-01   2.7151E-04  0.0267
   4.2528E-01   4.3563E-01   2.8368E-04  0.0258
   4.3563E-01   4.4623E-01   2.8362E-04  0.0255
   4.4623E-01   4.5708E-01   2.9837E-04  0.0246
   4.5708E-01   4.6821E-01   3.0522E-04  0.0240
   4.6821E-01   4.7960E-01   3.2121E-04  0.0231
   4.7960E-01   4.9127E-01   3.4827E-04  0.0219
   4.9127E-01   5.0322E-01   3.4414E-04  0.0218
   5.0322E-01   5.1546E-01   3.5844E-04  0.0211
   5.1546E-01   5.2800E-01   3.7511E-04  0.0204
   5.2800E-01   5.4085E-01   3.8184E-04  0.0200
   5.4085E-01   5.5401E-01   4.0840E-04  0.0191
   5.5401E-01   5.6749E-01   4.0216E-04  0.0190
   5.6749E-01   5.8130E-01   4.1894E-04  0.0184
   5.8130E-01   5.9544E-01   4.4811E-04  0.0176
   5.9544E-01   6.0993E-01   4.6017E-04  0.0171
   6.0993E-01   6.2477E-01   4.5971E-04  0.0169
   6.2477E-01   6.3997E-01   4.7761E-04  0.0164
   6.3997E-01   6.5554E-01   4.9616E-04  0.0159
   6.5554E-01   6.7149E-01   5.0351E-04  0.0156
   6.7149E-01   6.8783E-01   5.2360E-04  0.0151
   6.8783E-01   7.0456E-01   5.4917E-04  0.0146
   7.0456E-01   7.2171E-01   5.5864E-04  0.0143
   7.2171E-01   7.3927E-01   5.8249E-04  0.0138
   7.3927E-01   7.5725E-01   5.8952E-04  0.0136
   7.5725E-01   7.7568E-01   6.0193E-04  0.0133
   7.7568E-01   7.9455E-01   6.2893E-04  0.0128
   7.9455E-01   8.1388E-01   6.4501E-04  0.0125
   8.1388E-01   8.3368E-01   6.6100E-04  0.0122
   8.3368E-01   8.5397E-01   6.8876E-04  0.0118
   8.5397E-01   8.7475E-01   6.9564E-04  0.0116
   8.7475E-01   8.9603E-01   7.2106E-04  0.0113
   8.9603E-01   9.1783E-01   7.4240E-04  0.0110
   9.1783E-01   9.4016E-01   7.5819E-04  0.0107
   9.4016E-01   9.6304E-01   7.7600E-04  0.0105
   9.6304E-01   9.8647E-01   7.8526E-04  0.0103
   9.8647E-01   1.0105E+00   7.9112E-04  0.0101
   1.0105E+00   1.0351E+00   8.0908E-04  0.0099
   1.0351E+00   1.0602E+00   8.1722E-04  0.0098
   1.0602E+00   1.0860E+00   8.2055E-04  0.0096
   1.0860E+00   1.1125E+00   8.4132E-04  0.0094
   1.1125E+00   1.1395E+00   8.5643E-04  0.0092
   1.1395E+00   1.1673E+00   8.5728E-04  0.0091
   1.1673E+00   1.1957E+00   8.7809E-04  0.0089
   1.1957E+00   1.2247E+00   8.8327E-04  0.0087
   1.2247E+00   1.2545E+00   9.0553E-04  0.0085
   1.2545E+00   1.2851E+00   9.1324E-04  0.0084
   1.2851E+00   1.3163E+00   9.0338E-04  0.0083
   1.3163E+00   1.3484E+00   9.1847E-04  0.0082
   1.3484E+00   1.3812E+00   9.3868E-04  0.0080
   1.3812E+00   1.4148E+00   9.6096E-04  0.0078
   1.4148E+00   1.4492E+00   9.7876E-04  0.0076
   1.4492E+00   1.4845E+00   9.9617E-04  0.0075
   1.4845E+00   1.5206E+00   9.9312E-04  0.0074
   1.5206E+00   1.5576E+00   9.9694E-04  0.0073
   1.5576E+00   1.5955E+00   9.7482E-04  0.0073
   1.5955E+00   1.6343E+00   9.9498E-04  0.0071
   1.6343E+00   1.6741E+00   9.7780E-04  0.0071
   1.6741E+00   1.7148E+00   9.7300E-04  0.0070
   1.7148E+00   1.7565E+00   9.7804E-04  0.0069
   1.7565E+00   1.7992E+00   9.9740E-04  0.0068
   1.7992E+00   1.8430E+00   9.8847E-04  0.0067
   1.8430E+00   1.8879E+00   9.7514E-04  0.0067
   1.8879E+00   1.9338E+00   9.7922E-04  0.0066
   1.9338E+00   1.9808E+00   1.0023E-03  0.0064
   1.9808E+00   2.0290E+00   1.0039E-03  0.0064
   2.0290E+00   2.0784E+00   9.8945E-04  0.0063
   2.0784E+00   2.1290E+00   9.7812E-04  0.0063
   2.1290E+00   2.1808E+00   9.5487E-04  0.0063
   2.1808E+00   2.2338E+00   9.4979E-04  0.0062
   2.2338E+00   2.2882E+00   9.3645E-04  0.0062
   2.2882E+00   2.3439E+00   9.3583E-04  0.0061
   2.3439E+00   2.4009E+00   9.4021E-04  0.0060
   2.4009E+00   2.4593E+00   9.3597E-04  0.0060
   2.4593E+00   2.5191E+00   9.4030E-04  0.0059
   2.5191E+00   2.5804E+00   9.2016E-04  0.0059
   2.5804E+00   2.6432E+00   9.1720E-04  0.0058
   2.6432E+00   2.7075E+00   8.9721E-04  0.0058
   2.7075E+00   2.7734E+00   8.8586E-04  0.0058
   2.7734E+00   2.8409E+00   8.7384E-04  0.0058
   2.8409E+00   2.9100E+00   8.5841E-04  0.0057
   2.9100E+00   2.9808E+00   8.6029E-04  0.0057
   2.9808E+00   3.0533E+00   8.6028E-04  0.0056
   3.0533E+00   3.1276E+00   8.3908E-04  0.0056
   3.1276E+00   3.2037E+00   8.2277E-04  0.0056
   3.2037E+00   3.2817E+00   8.1189E-04  0.0056
   3.2817E+00   3.3615E+00   7.9279E-04  0.0056
   3.3615E+00   3.4433E+00   7.9038E-04  0.0055
   3.4433E+00   3.5271E+00   7.8265E-04  0.0055
   3.5271E+00   3.6129E+00   7.6648E-04  0.0055
   3.6129E+00   3.7008E+00   7.5157E-04  0.0054
   3.7008E+00   3.7908E+00   7.2847E-04  0.0055
   3.7908E+00   3.8831E+00   7.1808E-04  0.0054
   3.8831E+00   3.9776E+00   7.1521E-04  0.0054
   3.9776E+00   4.0743E+00   6.9722E-04  0.0054
   4.0743E+00   4.1735E+00   6.9405E-04  0.0053
   4.1735E+00   4.2750E+00   6.7764E-04  0.0053
   4.2750E+00   4.3790E+00   6.6834E-04  0.0053
   4.3790E+00   4.4856E+00   6.5478E-04  0.0053
   4.4856E+00   4.5947E+00   6.5148E-04  0.0053
   4.5947E+00   4.7065E+00   6.3312E-04  0.0053
   4.7065E+00   4.8210E+00   6.2763E-04  0.0052
   4.8210E+00   4.9383E+00   6.1784E-04  0.0052
   4.9383E+00   5.0585E+00   6.1835E-04  0.0051
   5.0585E+00   5.1815E+00   6.1396E-04  0.0051
   5.1815E+00   5.3076E+00   6.1424E-04  0.0050
   5.3076E+00   5.4368E+00   5.9992E-04  0.0050
   5.4368E+00   5.5690E+00   5.9157E-04  0.0050
   5.5690E+00   5.7045E+00   5.7150E-04  0.0050
   5.7045E+00   5.8433E+00   5.5843E-04  0.0050
   5.8433E+00   5.9855E+00   5.4945E-04  0.0050
   5.9855E+00   6.1311E+00   5.3396E-04  0.0050
   6.1311E+00   6.2803E+00   5.2021E-04  0.0050
   6.2803E+00   6.4331E+00   5.1151E-04  0.0050
   6.4331E+00   6.5896E+00   5.0017E-04  0.0050
   6.5896E+00   6.7500E+00   4.8774E-04  0.0050
   6.7500E+00   6.9142E+00   4.7275E-04  0.0050
   6.9142E+00   7.0824E+00   4.6151E-04  0.0050
   7.0824E+00   7.2548E+00   4.5260E-04  0.0050
   7.2548E+00   7.4313E+00   4.4209E-04  0.0050
   7.4313E+00   7.6121E+00   4.3437E-04  0.0050
   7.6121E+00   7.7973E+00   4.2209E-04  0.0050
   7.7973E+00   7.9870E+00   4.1100E-04  0.0050
   7.9870E+00   8.1813E+00   4.0107E-04  0.0050
   8.1813E+00   8.3804E+00   3.9178E-04  0.0050
   8.3804E+00   8.5843E+00   3.7984E-04  0.0051
   8.5843E+00   8.7931E+00   3.7142E-04  0.0051
   8.7931E+00   9.0071E+00   3.6651E-04  0.0050
   9.0071E+00   9.2262E+00   3.5914E-04  0.0050
   9.2262E+00   9.4507E+00   3.4814E-04  0.0050
   9.4507E+00   9.6807E+00   3.4040E-04  0.0050
   9.6807E+00   9.9162E+00   3.3425E-04  0.0050
   9.9162E+00   1.0157E+01   3.2477E-04  0.0050
   1.0157E+01   1.0405E+01   3.1491E-04  0.0051
   1.0405E+01   1.0658E+01   3.1194E-04  0.0050
   1.0658E+01   1.0917E+01   3.0540E-04  0.0050
   1.0917E+01   1.1183E+01   2.9412E-04  0.0051
   1.1183E+01   1.1455E+01   2.9003E-04  0.0050
   1.1455E+01   1.1733E+01   2.7917E-04  0.0051
   1.1733E+01   1.2019E+01   2.7314E-04  0.0051
   1.2019E+01   1.2311E+01   2.6635E-04  0.0051
   1.2311E+01   1.2611E+01   2.5986E-04  0.0051
   1.2611E+01   1.2918E+01   2.5408E-04  0.0051
   1.2918E+01   1.3232E+01   2.4525E-04  0.0051
   1.3232E+01   1.3554E+01   2.4083E-04  0.0051
   1.3554E+01   1.3884E+01   2.3351E-04  0.0051
   1.3884E+01   1.4222E+01   2.2873E-04  0.0051
   1.4222E+01   1.4568E+01   2.2081E-04  0.0051
   1.4568E+01   1.4922E+01   2.1656E-04  0.0051
   1.4922E+01   1.5285E+01   2.0740E-04  0.0052
   1.5285E+01   1.5657E+01   2.0347E-04  0.0051
   1.5657E+01   1.6038E+01   1.9801E-04  0.0051
   1.6038E+01   1.6428E+01   1.9320E-04  0.0052
   1.6428E+01   1.6828E+01   1.8743E-04  0.0052
   1.6828E+01   1.7237E+01   1.7988E-04  0.0052
   1.7237E+01   1.7657E+01   1.7459E-04  0.0052
   1.7657E+01   1.8086E+01   1.6975E-04  0.0052
   1.8086E+01   1.8526E+01   1.6205E-04  0.0053
   1.8526E+01   1.8977E+01   1.5925E-04  0.0053
   1.8977E+01   1.9439E+01   1.5866E-04  0.0052
   1.9439E+01   1.9912E+01   1.5898E-04  0.0052
   1.9912E+01   2.0396E+01   1.6041E-04  0.0051
   2.0396E+01   2.0893E+01   1.5782E-04  0.0051
   2.0893E+01   2.1401E+01   1.5140E-04  0.0051
   2.1401E+01   2.1922E+01   1.4645E-04  0.0051
   2.1922E+01   2.2455E+01   1.4224E-04  0.0051
   2.2455E+01   2.3001E+01   1.3792E-04  0.0052
   2.3001E+01   2.3561E+01   1.3238E-04  0.0052
   2.3561E+01   2.4134E+01   1.2617E-04  0.0053
   2.4134E+01   2.4721E+01   1.2261E-04  0.0053
   2.4721E+01   2.5323E+01   1.1615E-04  0.0054
   2.5323E+01   2.5939E+01   1.1214E-04  0.0054
   2.5939E+01   2.6570E+01   1.0795E-04  0.0054
   2.6570E+01   2.7217E+01   1.0306E-04  0.0055
   2.7217E+01   2.7879E+01   9.8335E-05  0.0055
   2.7879E+01   2.8557E+01   9.4189E-05  0.0056
   2.8557E+01   2.9252E+01   8.9379E-05  0.0057
   2.9252E+01   2.9964E+01   8.5261E-05  0.0057
   2.9964E+01   3.0693E+01   8.1013E-05  0.0058
   3.0693E+01   3.1440E+01   7.6971E-05  0.0059
   3.1440E+01   3.2205E+01   7.3346E-05  0.0060
   3.2205E+01   3.2988E+01   6.9462E-05  0.0061
   3.2988E+01   3.3791E+01   6.5532E-05  0.0062
   3.3791E+01   3.4613E+01   6.1964E-05  0.0063
   3.4613E+01   3.5455E+01   5.8775E-05  0.0064
   3.5455E+01   3.6318E+01   5.5564E-05  0.0065
   3.6318E+01   3.7201E+01   5.2005E-05  0.0066
   3.7201E+01   3.8106E+01   4.8766E-05  0.0067
   3.8106E+01   3.9034E+01   4.5265E-05  0.0069
   3.9034E+01   3.9983E+01   4.2358E-05  0.0071
   3.9983E+01   4.0956E+01   3.9810E-05  0.0072
   4.0956E+01   4.1953E+01   3.7341E-05  0.0073
   4.1953E+01   4.2973E+01   3.4614E-05  0.0075
   4.2973E+01   4.4019E+01   3.2078E-05  0.0077
   4.4019E+01   4.5090E+01   2.9254E-05  0.0080
   4.5090E+01   4.6187E+01   2.7559E-05  0.0081
   4.6187E+01   4.7311E+01   2.5242E-05  0.0084
   4.7311E+01   4.8462E+01   2.3317E-05  0.0086
   4.8462E+01   4.9641E+01   2.1443E-05  0.0089
   4.9641E+01   5.0849E+01   1.9675E-05  0.0092
   5.0849E+01   5.2086E+01   1.7598E-05  0.0096
   5.2086E+01   5.3353E+01   1.6078E-05  0.0099
   5.3353E+01   5.4651E+01   1.4786E-05  0.0102
   5.4651E+01   5.5981E+01   1.3212E-05  0.0107
   5.5981E+01   5.7343E+01   1.1678E-05  0.0112
   5.7343E+01   5.8738E+01   1.0649E-05  0.0116
   5.8738E+01   6.0168E+01   9.4657E-06  0.0122
   6.0168E+01   6.1632E+01   8.3556E-06  0.0128
   6.1632E+01   6.3131E+01   7.2795E-06  0.0135
   6.3131E+01   6.4667E+01   6.5441E-06  0.0141
   6.4667E+01   6.6240E+01   5.7786E-06  0.0148
   6.6240E+01   6.7852E+01   4.9948E-06  0.0158
   6.7852E+01   6.9503E+01   4.4182E-06  0.0166
   6.9503E+01   7.1194E+01   3.8201E-06  0.0176
   7.1194E+01   7.2926E+01   3.1232E-06  0.0192
   7.2926E+01   7.4701E+01   2.8326E-06  0.0199
   7.4701E+01   7.6518E+01   2.2954E-06  0.0219
   7.6518E+01   7.8380E+01   2.0594E-06  0.0228
   7.8380E+01   8.0287E+01   1.7304E-06  0.0246
   8.0287E+01   8.2240E+01   1.4272E-06  0.0268
   8.2240E+01   8.4241E+01   1.2234E-06  0.0286
   8.4241E+01   8.6291E+01   9.8748E-07  0.0314
   8.6291E+01   8.8391E+01   8.4400E-07  0.0336
   8.8391E+01   9.0541E+01   6.7144E-07  0.0372
   9.0541E+01   9.2744E+01   5.6470E-07  0.0401
   9.2744E+01   9.5001E+01   4.2898E-07  0.0455
   9.5001E+01   9.7312E+01   3.2707E-07  0.0514
   9.7312E+01   9.9680E+01   2.5933E-07  0.0571
   9.9680E+01   1.0211E+02   1.7895E-07  0.0679
   1.0211E+02   1.0459E+02   1.4249E-07  0.0752
   1.0459E+02   1.0713E+02   9.0382E-08  0.0933
   1.0713E+02   1.0974E+02   5.7545E-08  0.1155
   1.0974E+02   1.1241E+02   3.3707E-08  0.1491
   1.1241E+02   1.1515E+02   1.9012E-08  0.1961
   1.1515E+02   1.1795E+02   7.1388E-09  0.3162
   1.1795E+02   1.2082E+02   7.6662E-09  0.3015
   1.2082E+02   1.2376E+02   3.4018E-09  0.4472
   1.2376E+02   1.2677E+02   0.0000E+00  0.0000
   1.2677E+02   1.2985E+02   1.2969E-09  0.7071
   1.2985E+02   1.3301E+02   0.0000E+00  0.0000
   1.3301E+02   1.3625E+02   0.0000E+00  0.0000
   1.3625E+02   1.3956E+02   0.0000E+00  0.0000
   1.3956E+02   1.4296E+02   0.0000E+00  0.0000
   1.4296E+02   1.4644E+02   0.0000E+00  0.0000
   1.4644E+02   1.5000E+02   0.0000E+00  0.0000

#   sum over                 6.9687E-05
'no. =    1   reg = 112 - 212'
msuc: {\huge [t-cross] in region mesh}
msdr: {\it plotted by \ANGEL \version}
msdl: {\it calculated by \PHITS  3.26}
wt: s(0.7)
\vspace{-3}
  region surface crossing
  area  &=&   1.0000E+00 [cm^2]
e:
 
# Information for Restart Calculation
# This calculation was newly started
# istdev =  2 # 1:Batch variance, 2:History variance
# resc2  = 5.00000000000000000E+08 # Total source weight or Total source weight / maxcas
# resc3  = 5.00000000000000000E+08 # Total history number or Total batch number
# maxcas =   500000000 # History / Batch, only used for istdev=1
# bitrseed = 1101101111010011011000101101110001100110110010110001010100010001 # bit data of rseed
