[ T-Cross ]
    title = [t-cross] in region mesh
     mesh =  reg            # mesh type is region-wise
      reg =    1            # number of crossing regions
      non     r-from    r-to       area
      1       100       200        1.000000    
   e-type =    3            # e-mesh is log given by emin, emax and ne
     emin =  1.0000000E-02  # minimum value of e-mesh points
     emax =   150.0000      # maximum value of e-mesh points
#    edel =  2.4039514E-02  # mesh width of e-mesh points
       ne =    400          # number of e-mesh points
#    data = ( e(i), i = 1, ne + 1 )
#           1.00000E-02  1.02433E-02  1.04925E-02  1.07478E-02  1.10093E-02
#           1.12772E-02  1.15516E-02  1.18326E-02  1.21205E-02  1.24154E-02
#           1.27175E-02  1.30269E-02  1.33439E-02  1.36686E-02  1.40011E-02
#           1.43418E-02  1.46907E-02  1.50482E-02  1.54143E-02  1.57894E-02
#           1.61735E-02  1.65670E-02  1.69701E-02  1.73830E-02  1.78060E-02
#           1.82392E-02  1.86830E-02  1.91375E-02  1.96032E-02  2.00801E-02
#           2.05687E-02  2.10692E-02  2.15818E-02  2.21069E-02  2.26448E-02
#           2.31957E-02  2.37601E-02  2.43382E-02  2.49304E-02  2.55369E-02
#           2.61583E-02  2.67947E-02  2.74467E-02  2.81145E-02  2.87985E-02
#           2.94992E-02  3.02169E-02  3.09521E-02  3.17052E-02  3.24766E-02
#           3.32668E-02  3.40762E-02  3.49053E-02  3.57546E-02  3.66246E-02
#           3.75157E-02  3.84284E-02  3.93634E-02  4.03212E-02  4.13022E-02
#           4.23071E-02  4.33365E-02  4.43909E-02  4.54710E-02  4.65773E-02
#           4.77106E-02  4.88714E-02  5.00605E-02  5.12785E-02  5.25262E-02
#           5.38042E-02  5.51133E-02  5.64542E-02  5.78278E-02  5.92348E-02
#           6.06760E-02  6.21523E-02  6.36645E-02  6.52135E-02  6.68002E-02
#           6.84255E-02  7.00904E-02  7.17957E-02  7.35426E-02  7.53319E-02
#           7.71648E-02  7.90423E-02  8.09655E-02  8.29354E-02  8.49533E-02
#           8.70203E-02  8.91376E-02  9.13064E-02  9.35279E-02  9.58035E-02
#           9.81345E-02  1.00522E-01  1.02968E-01  1.05473E-01  1.08040E-01
#           1.10668E-01  1.13361E-01  1.16119E-01  1.18944E-01  1.21838E-01
#           1.24803E-01  1.27839E-01  1.30950E-01  1.34136E-01  1.37399E-01
#           1.40742E-01  1.44167E-01  1.47675E-01  1.51268E-01  1.54948E-01
#           1.58718E-01  1.62580E-01  1.66535E-01  1.70587E-01  1.74738E-01
#           1.78989E-01  1.83344E-01  1.87805E-01  1.92375E-01  1.97055E-01
#           2.01850E-01  2.06761E-01  2.11792E-01  2.16945E-01  2.22223E-01
#           2.27630E-01  2.33169E-01  2.38842E-01  2.44653E-01  2.50605E-01
#           2.56703E-01  2.62949E-01  2.69346E-01  2.75900E-01  2.82613E-01
#           2.89489E-01  2.96532E-01  3.03747E-01  3.11138E-01  3.18708E-01
#           3.26462E-01  3.34405E-01  3.42542E-01  3.50876E-01  3.59413E-01
#           3.68158E-01  3.77116E-01  3.86291E-01  3.95690E-01  4.05317E-01
#           4.15179E-01  4.25281E-01  4.35628E-01  4.46227E-01  4.57084E-01
#           4.68205E-01  4.79597E-01  4.91266E-01  5.03219E-01  5.15463E-01
#           5.28005E-01  5.40851E-01  5.54011E-01  5.67490E-01  5.81298E-01
#           5.95441E-01  6.09929E-01  6.24769E-01  6.39970E-01  6.55541E-01
#           6.71491E-01  6.87828E-01  7.04564E-01  7.21706E-01  7.39266E-01
#           7.57253E-01  7.75678E-01  7.94551E-01  8.13883E-01  8.33685E-01
#           8.53969E-01  8.74747E-01  8.96030E-01  9.17831E-01  9.40163E-01
#           9.63038E-01  9.86469E-01  1.01047E+00  1.03506E+00  1.06024E+00
#           1.08604E+00  1.11246E+00  1.13953E+00  1.16725E+00  1.19565E+00
#           1.22474E+00  1.25454E+00  1.28507E+00  1.31633E+00  1.34836E+00
#           1.38117E+00  1.41477E+00  1.44920E+00  1.48446E+00  1.52057E+00
#           1.55757E+00  1.59547E+00  1.63429E+00  1.67405E+00  1.71478E+00
#           1.75650E+00  1.79924E+00  1.84302E+00  1.88786E+00  1.93379E+00
#           1.98084E+00  2.02904E+00  2.07841E+00  2.12898E+00  2.18078E+00
#           2.23384E+00  2.28819E+00  2.34386E+00  2.40089E+00  2.45930E+00
#           2.51914E+00  2.58043E+00  2.64322E+00  2.70753E+00  2.77341E+00
#           2.84088E+00  2.91001E+00  2.98081E+00  3.05333E+00  3.12762E+00
#           3.20372E+00  3.28167E+00  3.36152E+00  3.44330E+00  3.52708E+00
#           3.61290E+00  3.70080E+00  3.79085E+00  3.88308E+00  3.97756E+00
#           4.07434E+00  4.17347E+00  4.27501E+00  4.37903E+00  4.48557E+00
#           4.59471E+00  4.70650E+00  4.82102E+00  4.93832E+00  5.05847E+00
#           5.18155E+00  5.30762E+00  5.43676E+00  5.56904E+00  5.70453E+00
#           5.84333E+00  5.98550E+00  6.13114E+00  6.28031E+00  6.43312E+00
#           6.58964E+00  6.74997E+00  6.91420E+00  7.08243E+00  7.25475E+00
#           7.43126E+00  7.61207E+00  7.79728E+00  7.98700E+00  8.18133E+00
#           8.38038E+00  8.58428E+00  8.79315E+00  9.00709E+00  9.22624E+00
#           9.45072E+00  9.68067E+00  9.91620E+00  1.01575E+01  1.04046E+01
#           1.06578E+01  1.09171E+01  1.11827E+01  1.14548E+01  1.17335E+01
#           1.20190E+01  1.23114E+01  1.26109E+01  1.29178E+01  1.32321E+01
#           1.35540E+01  1.38838E+01  1.42216E+01  1.45676E+01  1.49221E+01
#           1.52851E+01  1.56570E+01  1.60380E+01  1.64282E+01  1.68279E+01
#           1.72374E+01  1.76568E+01  1.80864E+01  1.85264E+01  1.89772E+01
#           1.94389E+01  1.99119E+01  2.03963E+01  2.08926E+01  2.14009E+01
#           2.19216E+01  2.24550E+01  2.30014E+01  2.35610E+01  2.41343E+01
#           2.47215E+01  2.53230E+01  2.59391E+01  2.65702E+01  2.72167E+01
#           2.78789E+01  2.85572E+01  2.92520E+01  2.99637E+01  3.06928E+01
#           3.14396E+01  3.22045E+01  3.29881E+01  3.37907E+01  3.46128E+01
#           3.54550E+01  3.63177E+01  3.72013E+01  3.81064E+01  3.90336E+01
#           3.99833E+01  4.09561E+01  4.19526E+01  4.29734E+01  4.40189E+01
#           4.50900E+01  4.61870E+01  4.73108E+01  4.84619E+01  4.96410E+01
#           5.08488E+01  5.20860E+01  5.33533E+01  5.46514E+01  5.59812E+01
#           5.73432E+01  5.87384E+01  6.01676E+01  6.16315E+01  6.31311E+01
#           6.46671E+01  6.62405E+01  6.78522E+01  6.95031E+01  7.11941E+01
#           7.29263E+01  7.47007E+01  7.65182E+01  7.83800E+01  8.02870E+01
#           8.22405E+01  8.42414E+01  8.62911E+01  8.83906E+01  9.05412E+01
#           9.27442E+01  9.50007E+01  9.73122E+01  9.96799E+01  1.02105E+02
#           1.04589E+02  1.07134E+02  1.09741E+02  1.12411E+02  1.15146E+02
#           1.17948E+02  1.20817E+02  1.23757E+02  1.26768E+02  1.29852E+02
#           1.33012E+02  1.36248E+02  1.39563E+02  1.42959E+02  1.46437E+02
#           1.50000E+02
     unit =    2            # unit is [1/cm^2/(MeV/n)/source]
     axis =  eng            # axis of output
     file = detector-01.out  # file name of output for the above axis
   output = f-curr          # surface crossing forward current spectrum
     part =  neutron  
# kf/name :  2112     
#    used :        main (  %)        temp (  %)       total (  %)
#  memory :         414 (  0)           0 (  0)         414 (  0)

#------------------------------------------------------------------------------
#newpage:
#   no. =    1   reg = 100 - 200

x: Energy [MeV/n]
y:  F-Curr [1/cm^2/(MeV/n)/source]         
p: xlog ylog afac(0.8) form(0.9)
h: n            x            y(neutron ),hh0l   n 
#  e-lower      e-upper      neutron     r.err 
   1.0000E-02   1.0243E-02   4.1692E-04  0.0443
   1.0243E-02   1.0493E-02   3.9048E-04  0.0453
   1.0493E-02   1.0748E-02   3.8992E-04  0.0447
   1.0748E-02   1.1009E-02   3.6900E-04  0.0455
   1.1009E-02   1.1277E-02   3.9980E-04  0.0431
   1.1277E-02   1.1552E-02   3.7050E-04  0.0442
   1.1552E-02   1.1833E-02   3.4011E-04  0.0456
   1.1833E-02   1.2121E-02   3.4936E-04  0.0445
   1.2121E-02   1.2415E-02   3.2064E-04  0.0459
   1.2415E-02   1.2718E-02   3.2549E-04  0.0451
   1.2718E-02   1.3027E-02   3.2381E-04  0.0446
   1.3027E-02   1.3344E-02   3.3868E-04  0.0430
   1.3344E-02   1.3669E-02   3.1949E-04  0.0438
   1.3669E-02   1.4001E-02   3.0139E-04  0.0446
   1.4001E-02   1.4342E-02   3.1564E-04  0.0431
   1.4342E-02   1.4691E-02   2.9785E-04  0.0438
   1.4691E-02   1.5048E-02   2.9167E-04  0.0437
   1.5048E-02   1.5414E-02   2.7767E-04  0.0443
   1.5414E-02   1.5789E-02   2.8526E-04  0.0432
   1.5789E-02   1.6174E-02   2.7721E-04  0.0432
   1.6174E-02   1.6567E-02   2.7256E-04  0.0431
   1.6567E-02   1.6970E-02   2.9043E-04  0.0412
   1.6970E-02   1.7383E-02   2.4867E-04  0.0440
   1.7383E-02   1.7806E-02   2.6056E-04  0.0425
   1.7806E-02   1.8239E-02   2.5353E-04  0.0426
   1.8239E-02   1.8683E-02   2.6623E-04  0.0411
   1.8683E-02   1.9138E-02   2.4779E-04  0.0420
   1.9138E-02   1.9603E-02   2.4223E-04  0.0420
   1.9603E-02   2.0080E-02   2.2631E-04  0.0430
   2.0080E-02   2.0569E-02   2.3066E-04  0.0421
   2.0569E-02   2.1069E-02   2.2869E-04  0.0418
   2.1069E-02   2.1582E-02   2.3583E-04  0.0406
   2.1582E-02   2.2107E-02   2.2338E-04  0.0412
   2.2107E-02   2.2645E-02   2.1568E-04  0.0414
   2.2645E-02   2.3196E-02   2.1200E-04  0.0413
   2.3196E-02   2.3760E-02   2.1224E-04  0.0408
   2.3760E-02   2.4338E-02   2.0990E-04  0.0405
   2.4338E-02   2.4930E-02   2.0213E-04  0.0408
   2.4930E-02   2.5537E-02   1.8339E-04  0.0423
   2.5537E-02   2.6158E-02   1.9388E-04  0.0407
   2.6158E-02   2.6795E-02   1.9956E-04  0.0396
   2.6795E-02   2.7447E-02   1.8264E-04  0.0409
   2.7447E-02   2.8114E-02   1.7792E-04  0.0410
   2.8114E-02   2.8799E-02   1.7371E-04  0.0409
   2.8799E-02   2.9499E-02   1.7680E-04  0.0401
   2.9499E-02   3.0217E-02   1.7218E-04  0.0402
   3.0217E-02   3.0952E-02   1.5855E-04  0.0413
   3.0952E-02   3.1705E-02   1.6805E-04  0.0397
   3.1705E-02   3.2477E-02   1.5110E-04  0.0413
   3.2477E-02   3.3267E-02   1.6322E-04  0.0393
   3.3267E-02   3.4076E-02   1.5310E-04  0.0401
   3.4076E-02   3.4905E-02   1.4187E-04  0.0412
   3.4905E-02   3.5755E-02   1.5174E-04  0.0393
   3.5755E-02   3.6625E-02   1.4427E-04  0.0398
   3.6625E-02   3.7516E-02   1.4405E-04  0.0394
   3.7516E-02   3.8428E-02   1.4243E-04  0.0391
   3.8428E-02   3.9363E-02   1.4397E-04  0.0385
   3.9363E-02   4.0321E-02   1.4254E-04  0.0382
   4.0321E-02   4.1302E-02   1.3827E-04  0.0383
   4.1302E-02   4.2307E-02   1.2918E-04  0.0392
   4.2307E-02   4.3337E-02   1.2307E-04  0.0396
   4.3337E-02   4.4391E-02   1.2908E-04  0.0383
   4.4391E-02   4.5471E-02   1.2632E-04  0.0382
   4.5471E-02   4.6577E-02   1.1800E-04  0.0390
   4.6577E-02   4.7711E-02   1.1482E-04  0.0391
   4.7711E-02   4.8871E-02   1.2671E-04  0.0368
   4.8871E-02   5.0061E-02   1.2194E-04  0.0371
   5.0061E-02   5.1279E-02   1.2572E-04  0.0361
   5.1279E-02   5.2526E-02   1.1755E-04  0.0368
   5.2526E-02   5.3804E-02   1.0853E-04  0.0379
   5.3804E-02   5.5113E-02   1.0992E-04  0.0372
   5.5113E-02   5.6454E-02   1.0425E-04  0.0377
   5.6454E-02   5.7828E-02   9.4947E-05  0.0391
   5.7828E-02   5.9235E-02   1.0294E-04  0.0371
   5.9235E-02   6.0676E-02   9.5574E-05  0.0380
   6.0676E-02   6.2152E-02   9.8681E-05  0.0370
   6.2152E-02   6.3665E-02   8.6554E-05  0.0390
   6.3665E-02   6.5214E-02   9.3085E-05  0.0371
   6.5214E-02   6.6800E-02   9.5146E-05  0.0363
   6.6800E-02   6.8426E-02   9.6951E-05  0.0356
   6.8426E-02   7.0090E-02   9.3937E-05  0.0357
   7.0090E-02   7.1796E-02   8.8648E-05  0.0363
   7.1796E-02   7.3543E-02   8.7264E-05  0.0362
   7.3543E-02   7.5332E-02   7.8455E-05  0.0376
   7.5332E-02   7.7165E-02   7.6974E-05  0.0376
   7.7165E-02   7.9042E-02   8.0168E-05  0.0364
   7.9042E-02   8.0965E-02   7.7148E-05  0.0366
   8.0965E-02   8.2935E-02   7.7953E-05  0.0360
   8.2935E-02   8.4953E-02   7.8075E-05  0.0356
   8.4953E-02   8.7020E-02   7.0185E-05  0.0370
   8.7020E-02   8.9138E-02   7.1985E-05  0.0362
   8.9138E-02   9.1306E-02   6.8843E-05  0.0365
   9.1306E-02   9.3528E-02   6.8466E-05  0.0362
   9.3528E-02   9.5804E-02   6.8798E-05  0.0356
   9.5804E-02   9.8134E-02   6.5926E-05  0.0360
   9.8134E-02   1.0052E-01   6.7836E-05  0.0351
   1.0052E-01   1.0297E-01   6.0753E-05  0.0366
   1.0297E-01   1.0547E-01   6.1949E-05  0.0358
   1.0547E-01   1.0804E-01   6.2545E-05  0.0352
   1.0804E-01   1.1067E-01   6.0653E-05  0.0353
   1.1067E-01   1.1336E-01   6.2107E-05  0.0345
   1.1336E-01   1.1612E-01   5.8555E-05  0.0351
   1.1612E-01   1.1894E-01   5.5768E-05  0.0355
   1.1894E-01   1.2184E-01   5.6059E-05  0.0351
   1.2184E-01   1.2480E-01   5.3755E-05  0.0353
   1.2480E-01   1.2784E-01   5.0823E-05  0.0359
   1.2784E-01   1.3095E-01   5.3526E-05  0.0346
   1.3095E-01   1.3414E-01   5.4274E-05  0.0339
   1.3414E-01   1.3740E-01   4.7415E-05  0.0358
   1.3740E-01   1.4074E-01   4.5479E-05  0.0362
   1.4074E-01   1.4417E-01   4.9019E-05  0.0344
   1.4417E-01   1.4767E-01   4.6315E-05  0.0350
   1.4767E-01   1.5127E-01   4.6033E-05  0.0347
   1.5127E-01   1.5495E-01   4.3751E-05  0.0352
   1.5495E-01   1.5872E-01   4.2497E-05  0.0352
   1.5872E-01   1.6258E-01   4.1036E-05  0.0354
   1.6258E-01   1.6654E-01   4.1843E-05  0.0347
   1.6654E-01   1.7059E-01   4.1706E-05  0.0343
   1.7059E-01   1.7474E-01   4.1326E-05  0.0341
   1.7474E-01   1.7899E-01   3.9478E-05  0.0345
   1.7899E-01   1.8334E-01   3.7661E-05  0.0348
   1.8334E-01   1.8781E-01   3.7414E-05  0.0345
   1.8781E-01   1.9237E-01   3.5937E-05  0.0348
   1.9237E-01   1.9706E-01   3.6699E-05  0.0341
   1.9706E-01   2.0185E-01   3.4618E-05  0.0346
   2.0185E-01   2.0676E-01   3.6637E-05  0.0333
   2.0676E-01   2.1179E-01   3.4100E-05  0.0341
   2.1179E-01   2.1694E-01   3.8046E-05  0.0319
   2.1694E-01   2.2222E-01   3.8345E-05  0.0314
   2.2222E-01   2.2763E-01   4.0340E-05  0.0302
   2.2763E-01   2.3317E-01   3.9125E-05  0.0303
   2.3317E-01   2.3884E-01   4.1506E-05  0.0291
   2.3884E-01   2.4465E-01   4.3364E-05  0.0281
   2.4465E-01   2.5061E-01   4.3282E-05  0.0278
   2.5061E-01   2.5670E-01   4.4110E-05  0.0272
   2.5670E-01   2.6295E-01   4.6890E-05  0.0261
   2.6295E-01   2.6935E-01   4.6298E-05  0.0259
   2.6935E-01   2.7590E-01   4.8431E-05  0.0251
   2.7590E-01   2.8261E-01   4.8202E-05  0.0248
   2.8261E-01   2.8949E-01   4.8144E-05  0.0245
   2.8949E-01   2.9653E-01   5.0249E-05  0.0237
   2.9653E-01   3.0375E-01   5.1989E-05  0.0230
   3.0375E-01   3.1114E-01   5.1254E-05  0.0229
   3.1114E-01   3.1871E-01   5.1942E-05  0.0225
   3.1871E-01   3.2646E-01   5.3022E-05  0.0220
   3.2646E-01   3.3441E-01   5.5040E-05  0.0213
   3.3441E-01   3.4254E-01   5.3809E-05  0.0213
   3.4254E-01   3.5088E-01   5.5537E-05  0.0207
   3.5088E-01   3.5941E-01   5.7156E-05  0.0202
   3.5941E-01   3.6816E-01   5.6804E-05  0.0200
   3.6816E-01   3.7712E-01   5.8467E-05  0.0195
   3.7712E-01   3.8629E-01   5.7826E-05  0.0194
   3.8629E-01   3.9569E-01   6.0913E-05  0.0186
   3.9569E-01   4.0532E-01   5.9043E-05  0.0187
   4.0532E-01   4.1518E-01   5.9338E-05  0.0184
   4.1518E-01   4.2528E-01   6.1381E-05  0.0179
   4.2528E-01   4.3563E-01   6.2174E-05  0.0176
   4.3563E-01   4.4623E-01   6.4774E-05  0.0170
   4.4623E-01   4.5708E-01   6.3520E-05  0.0170
   4.5708E-01   4.6821E-01   6.4442E-05  0.0167
   4.6821E-01   4.7960E-01   6.4217E-05  0.0165
   4.7960E-01   4.9127E-01   6.4897E-05  0.0162
   4.9127E-01   5.0322E-01   6.2640E-05  0.0163
   5.0322E-01   5.1546E-01   6.4403E-05  0.0159
   5.1546E-01   5.2800E-01   6.5317E-05  0.0156
   5.2800E-01   5.4085E-01   6.6395E-05  0.0153
   5.4085E-01   5.5401E-01   6.3866E-05  0.0154
   5.5401E-01   5.6749E-01   6.5818E-05  0.0150
   5.6749E-01   5.8130E-01   6.6797E-05  0.0147
   5.8130E-01   5.9544E-01   6.7540E-05  0.0144
   5.9544E-01   6.0993E-01   6.7457E-05  0.0143
   6.0993E-01   6.2477E-01   6.6739E-05  0.0142
   6.2477E-01   6.3997E-01   6.7496E-05  0.0139
   6.3997E-01   6.5554E-01   6.6272E-05  0.0139
   6.5554E-01   6.7149E-01   6.6251E-05  0.0137
   6.7149E-01   6.8783E-01   6.7100E-05  0.0135
   6.8783E-01   7.0456E-01   6.6739E-05  0.0133
   7.0456E-01   7.2171E-01   6.5686E-05  0.0133
   7.2171E-01   7.3927E-01   6.6004E-05  0.0131
   7.3927E-01   7.5725E-01   6.5775E-05  0.0130
   7.5725E-01   7.7568E-01   6.4636E-05  0.0129
   7.7568E-01   7.9455E-01   6.3283E-05  0.0129
   7.9455E-01   8.1388E-01   6.3743E-05  0.0127
   8.1388E-01   8.3368E-01   6.3012E-05  0.0126
   8.3368E-01   8.5397E-01   6.2535E-05  0.0125
   8.5397E-01   8.7475E-01   6.0993E-05  0.0125
   8.7475E-01   8.9603E-01   5.9248E-05  0.0126
   8.9603E-01   9.1783E-01   5.8327E-05  0.0125
   9.1783E-01   9.4016E-01   5.8206E-05  0.0124
   9.4016E-01   9.6304E-01   5.5374E-05  0.0125
   9.6304E-01   9.8647E-01   5.4897E-05  0.0124
   9.8647E-01   1.0105E+00   5.2109E-05  0.0126
   1.0105E+00   1.0351E+00   5.3607E-05  0.0123
   1.0351E+00   1.0602E+00   5.1211E-05  0.0124
   1.0602E+00   1.0860E+00   5.0519E-05  0.0123
   1.0860E+00   1.1125E+00   5.3244E-05  0.0119
   1.1125E+00   1.1395E+00   5.1823E-05  0.0119
   1.1395E+00   1.1673E+00   5.2252E-05  0.0117
   1.1673E+00   1.1957E+00   5.2438E-05  0.0116
   1.1957E+00   1.2247E+00   5.3647E-05  0.0113
   1.2247E+00   1.2545E+00   5.3658E-05  0.0111
   1.2545E+00   1.2851E+00   5.2277E-05  0.0112
   1.2851E+00   1.3163E+00   5.1716E-05  0.0111
   1.3163E+00   1.3484E+00   5.0176E-05  0.0111
   1.3484E+00   1.3812E+00   5.1601E-05  0.0108
   1.3812E+00   1.4148E+00   5.2152E-05  0.0106
   1.4148E+00   1.4492E+00   5.2064E-05  0.0105
   1.4492E+00   1.4845E+00   5.0443E-05  0.0106
   1.4845E+00   1.5206E+00   4.9870E-05  0.0105
   1.5206E+00   1.5576E+00   4.9627E-05  0.0104
   1.5576E+00   1.5955E+00   4.9014E-05  0.0103
   1.5955E+00   1.6343E+00   4.8585E-05  0.0103
   1.6343E+00   1.6741E+00   4.8610E-05  0.0101
   1.6741E+00   1.7148E+00   4.8030E-05  0.0101
   1.7148E+00   1.7565E+00   4.8413E-05  0.0099
   1.7565E+00   1.7992E+00   4.7382E-05  0.0099
   1.7992E+00   1.8430E+00   4.7404E-05  0.0098
   1.8430E+00   1.8879E+00   4.6978E-05  0.0097
   1.8879E+00   1.9338E+00   4.5410E-05  0.0098
   1.9338E+00   1.9808E+00   4.5527E-05  0.0096
   1.9808E+00   2.0290E+00   4.6008E-05  0.0095
   2.0290E+00   2.0784E+00   4.5313E-05  0.0094
   2.0784E+00   2.1290E+00   4.4819E-05  0.0094
   2.1290E+00   2.1808E+00   4.3780E-05  0.0094
   2.1808E+00   2.2338E+00   4.3278E-05  0.0093
   2.2338E+00   2.2882E+00   4.2076E-05  0.0093
   2.2882E+00   2.3439E+00   4.1873E-05  0.0092
   2.3439E+00   2.4009E+00   4.1790E-05  0.0091
   2.4009E+00   2.4593E+00   4.1521E-05  0.0090
   2.4593E+00   2.5191E+00   4.0662E-05  0.0090
   2.5191E+00   2.5804E+00   4.1077E-05  0.0089
   2.5804E+00   2.6432E+00   3.9426E-05  0.0089
   2.6432E+00   2.7075E+00   3.9481E-05  0.0088
   2.7075E+00   2.7734E+00   3.8482E-05  0.0088
   2.7734E+00   2.8409E+00   3.8001E-05  0.0088
   2.8409E+00   2.9100E+00   3.7758E-05  0.0087
   2.9100E+00   2.9808E+00   3.7184E-05  0.0087
   2.9808E+00   3.0533E+00   3.7073E-05  0.0086
   3.0533E+00   3.1276E+00   3.6669E-05  0.0085
   3.1276E+00   3.2037E+00   3.6041E-05  0.0085
   3.2037E+00   3.2817E+00   3.5759E-05  0.0084
   3.2817E+00   3.3615E+00   3.5167E-05  0.0084
   3.3615E+00   3.4433E+00   3.4837E-05  0.0083
   3.4433E+00   3.5271E+00   3.4009E-05  0.0083
   3.5271E+00   3.6129E+00   3.3596E-05  0.0083
   3.6129E+00   3.7008E+00   3.3185E-05  0.0082
   3.7008E+00   3.7908E+00   3.2696E-05  0.0082
   3.7908E+00   3.8831E+00   3.2595E-05  0.0081
   3.8831E+00   3.9776E+00   3.1635E-05  0.0081
   3.9776E+00   4.0743E+00   3.1588E-05  0.0081
   4.0743E+00   4.1735E+00   3.1123E-05  0.0080
   4.1735E+00   4.2750E+00   3.0647E-05  0.0080
   4.2750E+00   4.3790E+00   3.0151E-05  0.0080
   4.3790E+00   4.4856E+00   2.9597E-05  0.0079
   4.4856E+00   4.5947E+00   2.9358E-05  0.0079
   4.5947E+00   4.7065E+00   2.8724E-05  0.0079
   4.7065E+00   4.8210E+00   2.8722E-05  0.0078
   4.8210E+00   4.9383E+00   2.7838E-05  0.0078
   4.9383E+00   5.0585E+00   2.7523E-05  0.0078
   5.0585E+00   5.1815E+00   2.7167E-05  0.0077
   5.1815E+00   5.3076E+00   2.6482E-05  0.0077
   5.3076E+00   5.4368E+00   2.6365E-05  0.0076
   5.4368E+00   5.5690E+00   2.5862E-05  0.0076
   5.5690E+00   5.7045E+00   2.5456E-05  0.0076
   5.7045E+00   5.8433E+00   2.5324E-05  0.0075
   5.8433E+00   5.9855E+00   2.4653E-05  0.0075
   5.9855E+00   6.1311E+00   2.4068E-05  0.0075
   6.1311E+00   6.2803E+00   2.3592E-05  0.0075
   6.2803E+00   6.4331E+00   2.3494E-05  0.0074
   6.4331E+00   6.5896E+00   2.2922E-05  0.0074
   6.5896E+00   6.7500E+00   2.2371E-05  0.0074
   6.7500E+00   6.9142E+00   2.2150E-05  0.0074
   6.9142E+00   7.0824E+00   2.1997E-05  0.0073
   7.0824E+00   7.2548E+00   2.1432E-05  0.0073
   7.2548E+00   7.4313E+00   2.1110E-05  0.0073
   7.4313E+00   7.6121E+00   2.0492E-05  0.0073
   7.6121E+00   7.7973E+00   2.0287E-05  0.0073
   7.7973E+00   7.9870E+00   1.9915E-05  0.0073
   7.9870E+00   8.1813E+00   1.9477E-05  0.0073
   8.1813E+00   8.3804E+00   1.9189E-05  0.0072
   8.3804E+00   8.5843E+00   1.8887E-05  0.0072
   8.5843E+00   8.7931E+00   1.8837E-05  0.0071
   8.7931E+00   9.0071E+00   1.8150E-05  0.0072
   9.0071E+00   9.2262E+00   1.7864E-05  0.0071
   9.2262E+00   9.4507E+00   1.7462E-05  0.0071
   9.4507E+00   9.6807E+00   1.7404E-05  0.0071
   9.6807E+00   9.9162E+00   1.7366E-05  0.0070
   9.9162E+00   1.0157E+01   1.6937E-05  0.0070
   1.0157E+01   1.0405E+01   1.6360E-05  0.0070
   1.0405E+01   1.0658E+01   1.6623E-05  0.0069
   1.0658E+01   1.0917E+01   1.6386E-05  0.0069
   1.0917E+01   1.1183E+01   1.6107E-05  0.0068
   1.1183E+01   1.1455E+01   1.5838E-05  0.0068
   1.1455E+01   1.1733E+01   1.5796E-05  0.0067
   1.1733E+01   1.2019E+01   1.5724E-05  0.0067
   1.2019E+01   1.2311E+01   1.5607E-05  0.0066
   1.2311E+01   1.2611E+01   1.5276E-05  0.0066
   1.2611E+01   1.2918E+01   1.5145E-05  0.0066
   1.2918E+01   1.3232E+01   1.5093E-05  0.0065
   1.3232E+01   1.3554E+01   1.5018E-05  0.0064
   1.3554E+01   1.3884E+01   1.4999E-05  0.0064
   1.3884E+01   1.4222E+01   1.4653E-05  0.0064
   1.4222E+01   1.4568E+01   1.4861E-05  0.0062
   1.4568E+01   1.4922E+01   1.4691E-05  0.0062
   1.4922E+01   1.5285E+01   1.4722E-05  0.0061
   1.5285E+01   1.5657E+01   1.4918E-05  0.0060
   1.5657E+01   1.6038E+01   1.4883E-05  0.0059
   1.6038E+01   1.6428E+01   1.4762E-05  0.0059
   1.6428E+01   1.6828E+01   1.5026E-05  0.0058
   1.6828E+01   1.7237E+01   1.4999E-05  0.0057
   1.7237E+01   1.7657E+01   1.5416E-05  0.0056
   1.7657E+01   1.8086E+01   1.5386E-05  0.0055
   1.8086E+01   1.8526E+01   1.5581E-05  0.0054
   1.8526E+01   1.8977E+01   1.5949E-05  0.0053
   1.8977E+01   1.9439E+01   1.6094E-05  0.0052
   1.9439E+01   1.9912E+01   1.6787E-05  0.0050
   1.9912E+01   2.0396E+01   1.7131E-05  0.0049
   2.0396E+01   2.0893E+01   1.7788E-05  0.0048
   2.0893E+01   2.1401E+01   1.8207E-05  0.0046
   2.1401E+01   2.1922E+01   1.8797E-05  0.0045
   2.1922E+01   2.2455E+01   1.9340E-05  0.0044
   2.2455E+01   2.3001E+01   2.0263E-05  0.0043
   2.3001E+01   2.3561E+01   2.0801E-05  0.0041
   2.3561E+01   2.4134E+01   2.1736E-05  0.0040
   2.4134E+01   2.4721E+01   2.2663E-05  0.0039
   2.4721E+01   2.5323E+01   2.3752E-05  0.0037
   2.5323E+01   2.5939E+01   2.4830E-05  0.0036
   2.5939E+01   2.6570E+01   2.6268E-05  0.0035
   2.6570E+01   2.7217E+01   2.7945E-05  0.0033
   2.7217E+01   2.7879E+01   2.9543E-05  0.0032
   2.7879E+01   2.8557E+01   3.1354E-05  0.0031
   2.8557E+01   2.9252E+01   3.3395E-05  0.0029
   2.9252E+01   2.9964E+01   3.5894E-05  0.0028
   2.9964E+01   3.0693E+01   3.8192E-05  0.0027
   3.0693E+01   3.1440E+01   4.1220E-05  0.0025
   3.1440E+01   3.2205E+01   4.4379E-05  0.0024
   3.2205E+01   3.2988E+01   4.7622E-05  0.0023
   3.2988E+01   3.3791E+01   5.1677E-05  0.0022
   3.3791E+01   3.4613E+01   5.5887E-05  0.0021
   3.4613E+01   3.5455E+01   6.0963E-05  0.0020
   3.5455E+01   3.6318E+01   6.6222E-05  0.0019
   3.6318E+01   3.7201E+01   7.2293E-05  0.0018
   3.7201E+01   3.8106E+01   7.8950E-05  0.0017
   3.8106E+01   3.9034E+01   8.6400E-05  0.0016
   3.9034E+01   3.9983E+01   9.4188E-05  0.0015
   3.9983E+01   4.0956E+01   1.0312E-04  0.0014
   4.0956E+01   4.1953E+01   1.1320E-04  0.0013
   4.1953E+01   4.2973E+01   1.2376E-04  0.0013
   4.2973E+01   4.4019E+01   1.3530E-04  0.0012
   4.4019E+01   4.5090E+01   1.4781E-04  0.0011
   4.5090E+01   4.6187E+01   1.6064E-04  0.0011
   4.6187E+01   4.7311E+01   1.7436E-04  0.0010
   4.7311E+01   4.8462E+01   1.8910E-04  0.0010
   4.8462E+01   4.9641E+01   2.0278E-04  0.0009
   4.9641E+01   5.0849E+01   2.1674E-04  0.0009
   5.0849E+01   5.2086E+01   2.2967E-04  0.0008
   5.2086E+01   5.3353E+01   2.4179E-04  0.0008
   5.3353E+01   5.4651E+01   2.5196E-04  0.0008
   5.4651E+01   5.5981E+01   2.5956E-04  0.0008
   5.5981E+01   5.7343E+01   2.6474E-04  0.0007
   5.7343E+01   5.8738E+01   2.6732E-04  0.0007
   5.8738E+01   6.0168E+01   2.6623E-04  0.0007
   6.0168E+01   6.1632E+01   2.6152E-04  0.0007
   6.1632E+01   6.3131E+01   2.5393E-04  0.0007
   6.3131E+01   6.4667E+01   2.4352E-04  0.0007
   6.4667E+01   6.6240E+01   2.2966E-04  0.0007
   6.6240E+01   6.7852E+01   2.1384E-04  0.0008
   6.7852E+01   6.9503E+01   1.9588E-04  0.0008
   6.9503E+01   7.1194E+01   1.7720E-04  0.0008
   7.1194E+01   7.2926E+01   1.5832E-04  0.0009
   7.2926E+01   7.4701E+01   1.3971E-04  0.0009
   7.4701E+01   7.6518E+01   1.2196E-04  0.0009
   7.6518E+01   7.8380E+01   1.0572E-04  0.0010
   7.8380E+01   8.0287E+01   9.0925E-05  0.0011
   8.0287E+01   8.2240E+01   7.7636E-05  0.0011
   8.2240E+01   8.4241E+01   6.6446E-05  0.0012
   8.4241E+01   8.6291E+01   5.6391E-05  0.0013
   8.6291E+01   8.8391E+01   4.7901E-05  0.0014
   8.8391E+01   9.0541E+01   4.0510E-05  0.0015
   9.0541E+01   9.2744E+01   3.4196E-05  0.0016
   9.2744E+01   9.5001E+01   2.8975E-05  0.0017
   9.5001E+01   9.7312E+01   2.4497E-05  0.0019
   9.7312E+01   9.9680E+01   2.0860E-05  0.0020
   9.9680E+01   1.0211E+02   1.7780E-05  0.0022
   1.0211E+02   1.0459E+02   1.5061E-05  0.0023
   1.0459E+02   1.0713E+02   1.2905E-05  0.0025
   1.0713E+02   1.0974E+02   1.1230E-05  0.0026
   1.0974E+02   1.1241E+02   9.9223E-06  0.0027
   1.1241E+02   1.1515E+02   8.7438E-06  0.0029
   1.1515E+02   1.1795E+02   7.5025E-06  0.0031
   1.1795E+02   1.2082E+02   6.2908E-06  0.0033
   1.2082E+02   1.2376E+02   5.2678E-06  0.0036
   1.2376E+02   1.2677E+02   4.4663E-06  0.0039
   1.2677E+02   1.2985E+02   3.7207E-06  0.0042
   1.2985E+02   1.3301E+02   3.1113E-06  0.0045
   1.3301E+02   1.3625E+02   2.4578E-06  0.0050
   1.3625E+02   1.3956E+02   1.9148E-06  0.0056
   1.3956E+02   1.4296E+02   1.4076E-06  0.0065
   1.4296E+02   1.4644E+02   7.3731E-07  0.0088
   1.4644E+02   1.5000E+02   1.3545E-07  0.0204

#   sum over                 6.7899E-05
'no. =    1   reg = 100 - 200'
msuc: {\huge [t-cross] in region mesh}
msdr: {\it plotted by \ANGEL \version}
msdl: {\it calculated by \PHITS  3.28}
wt: s(0.7)
\vspace{-3}
  region surface crossing
  area  &=&   1.0000E+00 [cm^2]
e:
 
# Information for Restart Calculation
# This calculation was newly started
# istdev =  2 # 1:Batch variance, 2:History variance
# resc2  = 5.00000000000000000E+09 # Total source weight or Total source weight / maxcas
# resc3  = 5.00000000000000000E+09 # Total history number or Total batch number
# maxcas =   500000000 # History / Batch, only used for istdev=1
# bitrseed = 0110100000100010111000001110001111001110100100011111101000111001 # bit data of rseed
