[ T-Cross ]
    title = [t-cross] in region mesh
     mesh =  reg            # mesh type is region-wise
      reg =    1            # number of crossing regions
      non     r-from    r-to       area
      1       119       219        1.000000    
   e-type =    3            # e-mesh is log given by emin, emax and ne
     emin =  1.0000000E-02  # minimum value of e-mesh points
     emax =   150.0000      # maximum value of e-mesh points
#    edel =  2.4039514E-02  # mesh width of e-mesh points
       ne =    400          # number of e-mesh points
#    data = ( e(i), i = 1, ne + 1 )
#           1.00000E-02  1.02433E-02  1.04925E-02  1.07478E-02  1.10093E-02
#           1.12772E-02  1.15516E-02  1.18326E-02  1.21205E-02  1.24154E-02
#           1.27175E-02  1.30269E-02  1.33439E-02  1.36686E-02  1.40011E-02
#           1.43418E-02  1.46907E-02  1.50482E-02  1.54143E-02  1.57894E-02
#           1.61735E-02  1.65670E-02  1.69701E-02  1.73830E-02  1.78060E-02
#           1.82392E-02  1.86830E-02  1.91375E-02  1.96032E-02  2.00801E-02
#           2.05687E-02  2.10692E-02  2.15818E-02  2.21069E-02  2.26448E-02
#           2.31957E-02  2.37601E-02  2.43382E-02  2.49304E-02  2.55369E-02
#           2.61583E-02  2.67947E-02  2.74467E-02  2.81145E-02  2.87985E-02
#           2.94992E-02  3.02169E-02  3.09521E-02  3.17052E-02  3.24766E-02
#           3.32668E-02  3.40762E-02  3.49053E-02  3.57546E-02  3.66246E-02
#           3.75157E-02  3.84284E-02  3.93634E-02  4.03212E-02  4.13022E-02
#           4.23071E-02  4.33365E-02  4.43909E-02  4.54710E-02  4.65773E-02
#           4.77106E-02  4.88714E-02  5.00605E-02  5.12785E-02  5.25262E-02
#           5.38042E-02  5.51133E-02  5.64542E-02  5.78278E-02  5.92348E-02
#           6.06760E-02  6.21523E-02  6.36645E-02  6.52135E-02  6.68002E-02
#           6.84255E-02  7.00904E-02  7.17957E-02  7.35426E-02  7.53319E-02
#           7.71648E-02  7.90423E-02  8.09655E-02  8.29354E-02  8.49533E-02
#           8.70203E-02  8.91376E-02  9.13064E-02  9.35279E-02  9.58035E-02
#           9.81345E-02  1.00522E-01  1.02968E-01  1.05473E-01  1.08040E-01
#           1.10668E-01  1.13361E-01  1.16119E-01  1.18944E-01  1.21838E-01
#           1.24803E-01  1.27839E-01  1.30950E-01  1.34136E-01  1.37399E-01
#           1.40742E-01  1.44167E-01  1.47675E-01  1.51268E-01  1.54948E-01
#           1.58718E-01  1.62580E-01  1.66535E-01  1.70587E-01  1.74738E-01
#           1.78989E-01  1.83344E-01  1.87805E-01  1.92375E-01  1.97055E-01
#           2.01850E-01  2.06761E-01  2.11792E-01  2.16945E-01  2.22223E-01
#           2.27630E-01  2.33169E-01  2.38842E-01  2.44653E-01  2.50605E-01
#           2.56703E-01  2.62949E-01  2.69346E-01  2.75900E-01  2.82613E-01
#           2.89489E-01  2.96532E-01  3.03747E-01  3.11138E-01  3.18708E-01
#           3.26462E-01  3.34405E-01  3.42542E-01  3.50876E-01  3.59413E-01
#           3.68158E-01  3.77116E-01  3.86291E-01  3.95690E-01  4.05317E-01
#           4.15179E-01  4.25281E-01  4.35628E-01  4.46227E-01  4.57084E-01
#           4.68205E-01  4.79597E-01  4.91266E-01  5.03219E-01  5.15463E-01
#           5.28005E-01  5.40851E-01  5.54011E-01  5.67490E-01  5.81298E-01
#           5.95441E-01  6.09929E-01  6.24769E-01  6.39970E-01  6.55541E-01
#           6.71491E-01  6.87828E-01  7.04564E-01  7.21706E-01  7.39266E-01
#           7.57253E-01  7.75678E-01  7.94551E-01  8.13883E-01  8.33685E-01
#           8.53969E-01  8.74747E-01  8.96030E-01  9.17831E-01  9.40163E-01
#           9.63038E-01  9.86469E-01  1.01047E+00  1.03506E+00  1.06024E+00
#           1.08604E+00  1.11246E+00  1.13953E+00  1.16725E+00  1.19565E+00
#           1.22474E+00  1.25454E+00  1.28507E+00  1.31633E+00  1.34836E+00
#           1.38117E+00  1.41477E+00  1.44920E+00  1.48446E+00  1.52057E+00
#           1.55757E+00  1.59547E+00  1.63429E+00  1.67405E+00  1.71478E+00
#           1.75650E+00  1.79924E+00  1.84302E+00  1.88786E+00  1.93379E+00
#           1.98084E+00  2.02904E+00  2.07841E+00  2.12898E+00  2.18078E+00
#           2.23384E+00  2.28819E+00  2.34386E+00  2.40089E+00  2.45930E+00
#           2.51914E+00  2.58043E+00  2.64322E+00  2.70753E+00  2.77341E+00
#           2.84088E+00  2.91001E+00  2.98081E+00  3.05333E+00  3.12762E+00
#           3.20372E+00  3.28167E+00  3.36152E+00  3.44330E+00  3.52708E+00
#           3.61290E+00  3.70080E+00  3.79085E+00  3.88308E+00  3.97756E+00
#           4.07434E+00  4.17347E+00  4.27501E+00  4.37903E+00  4.48557E+00
#           4.59471E+00  4.70650E+00  4.82102E+00  4.93832E+00  5.05847E+00
#           5.18155E+00  5.30762E+00  5.43676E+00  5.56904E+00  5.70453E+00
#           5.84333E+00  5.98550E+00  6.13114E+00  6.28031E+00  6.43312E+00
#           6.58964E+00  6.74997E+00  6.91420E+00  7.08243E+00  7.25475E+00
#           7.43126E+00  7.61207E+00  7.79728E+00  7.98700E+00  8.18133E+00
#           8.38038E+00  8.58428E+00  8.79315E+00  9.00709E+00  9.22624E+00
#           9.45072E+00  9.68067E+00  9.91620E+00  1.01575E+01  1.04046E+01
#           1.06578E+01  1.09171E+01  1.11827E+01  1.14548E+01  1.17335E+01
#           1.20190E+01  1.23114E+01  1.26109E+01  1.29178E+01  1.32321E+01
#           1.35540E+01  1.38838E+01  1.42216E+01  1.45676E+01  1.49221E+01
#           1.52851E+01  1.56570E+01  1.60380E+01  1.64282E+01  1.68279E+01
#           1.72374E+01  1.76568E+01  1.80864E+01  1.85264E+01  1.89772E+01
#           1.94389E+01  1.99119E+01  2.03963E+01  2.08926E+01  2.14009E+01
#           2.19216E+01  2.24550E+01  2.30014E+01  2.35610E+01  2.41343E+01
#           2.47215E+01  2.53230E+01  2.59391E+01  2.65702E+01  2.72167E+01
#           2.78789E+01  2.85572E+01  2.92520E+01  2.99637E+01  3.06928E+01
#           3.14396E+01  3.22045E+01  3.29881E+01  3.37907E+01  3.46128E+01
#           3.54550E+01  3.63177E+01  3.72013E+01  3.81064E+01  3.90336E+01
#           3.99833E+01  4.09561E+01  4.19526E+01  4.29734E+01  4.40189E+01
#           4.50900E+01  4.61870E+01  4.73108E+01  4.84619E+01  4.96410E+01
#           5.08488E+01  5.20860E+01  5.33533E+01  5.46514E+01  5.59812E+01
#           5.73432E+01  5.87384E+01  6.01676E+01  6.16315E+01  6.31311E+01
#           6.46671E+01  6.62405E+01  6.78522E+01  6.95031E+01  7.11941E+01
#           7.29263E+01  7.47007E+01  7.65182E+01  7.83800E+01  8.02870E+01
#           8.22405E+01  8.42414E+01  8.62911E+01  8.83906E+01  9.05412E+01
#           9.27442E+01  9.50007E+01  9.73122E+01  9.96799E+01  1.02105E+02
#           1.04589E+02  1.07134E+02  1.09741E+02  1.12411E+02  1.15146E+02
#           1.17948E+02  1.20817E+02  1.23757E+02  1.26768E+02  1.29852E+02
#           1.33012E+02  1.36248E+02  1.39563E+02  1.42959E+02  1.46437E+02
#           1.50000E+02
     unit =    2            # unit is [1/cm^2/(MeV/n)/source]
     axis =  eng            # axis of output
     file = detector-20.out  # file name of output for the above axis
   output = f-curr          # surface crossing forward current spectrum
     part =  neutron  
# kf/name :  2112     
#    used :        main (  %)        temp (  %)       total (  %)
#  memory :         414 (  0)           0 (  0)         414 (  0)

#------------------------------------------------------------------------------
#newpage:
#   no. =    1   reg = 119 - 219

x: Energy [MeV/n]
y:  F-Curr [1/cm^2/(MeV/n)/source]         
p: xlog ylog afac(0.8) form(0.9)
h: n            x            y(neutron ),hh0l   n 
#  e-lower      e-upper      neutron     r.err 
   1.0000E-02   1.0243E-02   0.0000E+00  0.0000
   1.0243E-02   1.0493E-02   0.0000E+00  0.0000
   1.0493E-02   1.0748E-02   1.5314E-06  0.7073
   1.0748E-02   1.1009E-02   7.6481E-07  1.0000
   1.1009E-02   1.1277E-02   0.0000E+00  0.0000
   1.1277E-02   1.1552E-02   0.0000E+00  0.0000
   1.1552E-02   1.1833E-02   6.9487E-07  1.0000
   1.1833E-02   1.2121E-02   0.0000E+00  0.0000
   1.2121E-02   1.2415E-02   0.0000E+00  0.0000
   1.2415E-02   1.2718E-02   1.3242E-06  0.7071
   1.2718E-02   1.3027E-02   1.2927E-06  0.7071
   1.3027E-02   1.3344E-02   2.0171E-07  1.0000
   1.3344E-02   1.3669E-02   0.0000E+00  0.0000
   1.3669E-02   1.4001E-02   6.0138E-07  1.0000
   1.4001E-02   1.4342E-02   0.0000E+00  0.0000
   1.4342E-02   1.4691E-02   6.8657E-07  0.8510
   1.4691E-02   1.5048E-02   5.5954E-07  1.0000
   1.5048E-02   1.5414E-02   5.4625E-07  1.0000
   1.5414E-02   1.5789E-02   5.3327E-07  1.0000
   1.5789E-02   1.6174E-02   5.2061E-07  1.0000
   1.6174E-02   1.6567E-02   2.0330E-06  0.5000
   1.6567E-02   1.6970E-02   9.9234E-07  0.7071
   1.6970E-02   1.7383E-02   4.8438E-07  1.0000
   1.7383E-02   1.7806E-02   1.0332E-06  0.6528
   1.7806E-02   1.8239E-02   9.2329E-07  0.7071
   1.8239E-02   1.8683E-02   1.8027E-06  0.5000
   1.8683E-02   1.9138E-02   6.9517E-07  0.6866
   1.9138E-02   1.9603E-02   2.1476E-06  0.4472
   1.9603E-02   2.0080E-02   9.3064E-07  0.6448
   2.0080E-02   2.0569E-02   1.0234E-06  0.6000
   2.0569E-02   2.1069E-02   6.9341E-07  0.6585
   2.1069E-02   2.1582E-02   2.7310E-06  0.3780
   2.1582E-02   2.2107E-02   1.9044E-06  0.4472
   2.2107E-02   2.2645E-02   1.4873E-06  0.5000
   2.2645E-02   2.3196E-02   2.1780E-06  0.4082
   2.3196E-02   2.3760E-02   3.5359E-06  0.3162
   2.3760E-02   2.4338E-02   2.0758E-06  0.4082
   2.4338E-02   2.4930E-02   2.3167E-06  0.3784
   2.4930E-02   2.5537E-02   2.9675E-06  0.3333
   2.5537E-02   2.6158E-02   1.6867E-06  0.4292
   2.6158E-02   2.6795E-02   3.5125E-06  0.2971
   2.6795E-02   2.7447E-02   1.3826E-06  0.4512
   2.7447E-02   2.8114E-02   2.6954E-06  0.3333
   2.8114E-02   2.8799E-02   3.3252E-06  0.2926
   2.8799E-02   2.9499E-02   1.9980E-06  0.3780
   2.9499E-02   3.0217E-02   3.4049E-06  0.2841
   3.0217E-02   3.0952E-02   2.2326E-06  0.3417
   3.0952E-02   3.1705E-02   2.3307E-06  0.3264
   3.1705E-02   3.2477E-02   2.2499E-06  0.3291
   3.2477E-02   3.3267E-02   3.6707E-06  0.2580
   3.3267E-02   3.4076E-02   2.0145E-06  0.3474
   3.4076E-02   3.4905E-02   3.1975E-06  0.2680
   3.4905E-02   3.5755E-02   2.2099E-06  0.3211
   3.5755E-02   3.6625E-02   4.1429E-06  0.2312
   3.6625E-02   3.7516E-02   3.3757E-06  0.2514
   3.7516E-02   3.8428E-02   5.4998E-06  0.1962
   3.8428E-02   3.9363E-02   3.1774E-06  0.2510
   3.9363E-02   4.0321E-02   4.1731E-06  0.2200
   4.0321E-02   4.1302E-02   2.7797E-06  0.2671
   4.1302E-02   4.2307E-02   5.8923E-06  0.1802
   4.2307E-02   4.3337E-02   5.0897E-06  0.1921
   4.3337E-02   4.4391E-02   6.0066E-06  0.1762
   4.4391E-02   4.5471E-02   4.7064E-06  0.1943
   4.5471E-02   4.6577E-02   5.4090E-06  0.1794
   4.6577E-02   4.7711E-02   7.5016E-06  0.1514
   4.7711E-02   4.8871E-02   5.8813E-06  0.1672
   4.8871E-02   5.0061E-02   6.7963E-06  0.1568
   5.0061E-02   5.1279E-02   7.8301E-06  0.1428
   5.1279E-02   5.2526E-02   7.3596E-06  0.1448
   5.2526E-02   5.3804E-02   6.8391E-06  0.1493
   5.3804E-02   5.5113E-02   8.1420E-06  0.1358
   5.5113E-02   5.6454E-02   7.9353E-06  0.1346
   5.6454E-02   5.7828E-02   8.7776E-06  0.1267
   5.7828E-02   5.9235E-02   8.6921E-06  0.1254
   5.9235E-02   6.0676E-02   7.3182E-06  0.1363
   6.0676E-02   6.2152E-02   1.0417E-05  0.1112
   6.2152E-02   6.3665E-02   1.0165E-05  0.1116
   6.3665E-02   6.5214E-02   1.0553E-05  0.1091
   6.5214E-02   6.6800E-02   1.1876E-05  0.1006
   6.6800E-02   6.8426E-02   1.1266E-05  0.1031
   6.8426E-02   7.0090E-02   1.3457E-05  0.0932
   7.0090E-02   7.1796E-02   1.2898E-05  0.0941
   7.1796E-02   7.3543E-02   1.1961E-05  0.0963
   7.3543E-02   7.5332E-02   1.3132E-05  0.0913
   7.5332E-02   7.7165E-02   1.5759E-05  0.0820
   7.7165E-02   7.9042E-02   1.4989E-05  0.0828
   7.9042E-02   8.0965E-02   1.4435E-05  0.0835
   8.0965E-02   8.2935E-02   1.5582E-05  0.0798
   8.2935E-02   8.4953E-02   1.7110E-05  0.0754
   8.4953E-02   8.7020E-02   1.9384E-05  0.0695
   8.7020E-02   8.9138E-02   1.9203E-05  0.0691
   8.9138E-02   9.1306E-02   1.9864E-05  0.0671
   9.1306E-02   9.3528E-02   2.0368E-05  0.0654
   9.3528E-02   9.5804E-02   2.0975E-05  0.0639
   9.5804E-02   9.8134E-02   2.0624E-05  0.0635
   9.8134E-02   1.0052E-01   2.1883E-05  0.0607
   1.0052E-01   1.0297E-01   2.2859E-05  0.0588
   1.0297E-01   1.0547E-01   2.4765E-05  0.0557
   1.0547E-01   1.0804E-01   2.5222E-05  0.0545
   1.0804E-01   1.1067E-01   2.7331E-05  0.0521
   1.1067E-01   1.1336E-01   2.5975E-05  0.0526
   1.1336E-01   1.1612E-01   2.8974E-05  0.0493
   1.1612E-01   1.1894E-01   3.0162E-05  0.0477
   1.1894E-01   1.2184E-01   3.3879E-05  0.0444
   1.2184E-01   1.2480E-01   3.4821E-05  0.0434
   1.2480E-01   1.2784E-01   3.1836E-05  0.0446
   1.2784E-01   1.3095E-01   3.5170E-05  0.0420
   1.3095E-01   1.3414E-01   3.7028E-05  0.0406
   1.3414E-01   1.3740E-01   3.8198E-05  0.0395
   1.3740E-01   1.4074E-01   3.8352E-05  0.0388
   1.4074E-01   1.4417E-01   4.2820E-05  0.0363
   1.4417E-01   1.4767E-01   4.4216E-05  0.0353
   1.4767E-01   1.5127E-01   4.6789E-05  0.0340
   1.5127E-01   1.5495E-01   4.4041E-05  0.0346
   1.5495E-01   1.5872E-01   4.9333E-05  0.0323
   1.5872E-01   1.6258E-01   5.0669E-05  0.0315
   1.6258E-01   1.6654E-01   5.0982E-05  0.0310
   1.6654E-01   1.7059E-01   5.5614E-05  0.0293
   1.7059E-01   1.7474E-01   6.0037E-05  0.0279
   1.7474E-01   1.7899E-01   6.0268E-05  0.0275
   1.7899E-01   1.8334E-01   5.9063E-05  0.0274
   1.8334E-01   1.8781E-01   6.4035E-05  0.0260
   1.8781E-01   1.9237E-01   6.4365E-05  0.0257
   1.9237E-01   1.9706E-01   7.0111E-05  0.0243
   1.9706E-01   2.0185E-01   7.1344E-05  0.0238
   2.0185E-01   2.0676E-01   7.0919E-05  0.0236
   2.0676E-01   2.1179E-01   7.8443E-05  0.0222
   2.1179E-01   2.1694E-01   8.1169E-05  0.0215
   2.1694E-01   2.2222E-01   8.3874E-05  0.0209
   2.2222E-01   2.2763E-01   8.7201E-05  0.0203
   2.2763E-01   2.3317E-01   8.7664E-05  0.0200
   2.3317E-01   2.3884E-01   9.2315E-05  0.0193
   2.3884E-01   2.4465E-01   9.7877E-05  0.0185
   2.4465E-01   2.5061E-01   9.8927E-05  0.0182
   2.5061E-01   2.5670E-01   1.0077E-04  0.0178
   2.5670E-01   2.6295E-01   1.0479E-04  0.0172
   2.6295E-01   2.6935E-01   1.0564E-04  0.0170
   2.6935E-01   2.7590E-01   1.1178E-04  0.0163
   2.7590E-01   2.8261E-01   1.1321E-04  0.0160
   2.8261E-01   2.8949E-01   1.1765E-04  0.0155
   2.8949E-01   2.9653E-01   1.2226E-04  0.0150
   2.9653E-01   3.0375E-01   1.2626E-04  0.0146
   3.0375E-01   3.1114E-01   1.2922E-04  0.0143
   3.1114E-01   3.1871E-01   1.3534E-04  0.0138
   3.1871E-01   3.2646E-01   1.3709E-04  0.0135
   3.2646E-01   3.3441E-01   1.4378E-04  0.0131
   3.3441E-01   3.4254E-01   1.4906E-04  0.0127
   3.4254E-01   3.5088E-01   1.4796E-04  0.0126
   3.5088E-01   3.5941E-01   1.5878E-04  0.0120
   3.5941E-01   3.6816E-01   1.5882E-04  0.0119
   3.6816E-01   3.7712E-01   1.6125E-04  0.0116
   3.7712E-01   3.8629E-01   1.6706E-04  0.0113
   3.8629E-01   3.9569E-01   1.7288E-04  0.0110
   3.9569E-01   4.0532E-01   1.7590E-04  0.0108
   4.0532E-01   4.1518E-01   1.8001E-04  0.0105
   4.1518E-01   4.2528E-01   1.8283E-04  0.0103
   4.2528E-01   4.3563E-01   1.8833E-04  0.0100
   4.3563E-01   4.4623E-01   1.9166E-04  0.0098
   4.4623E-01   4.5708E-01   1.9502E-04  0.0096
   4.5708E-01   4.6821E-01   2.0266E-04  0.0093
   4.6821E-01   4.7960E-01   2.0434E-04  0.0092
   4.7960E-01   4.9127E-01   2.0849E-04  0.0090
   4.9127E-01   5.0322E-01   2.1265E-04  0.0088
   5.0322E-01   5.1546E-01   2.1629E-04  0.0086
   5.1546E-01   5.2800E-01   2.2253E-04  0.0084
   5.2800E-01   5.4085E-01   2.2355E-04  0.0083
   5.4085E-01   5.5401E-01   2.3012E-04  0.0080
   5.5401E-01   5.6749E-01   2.3409E-04  0.0079
   5.6749E-01   5.8130E-01   2.4022E-04  0.0077
   5.8130E-01   5.9544E-01   2.4051E-04  0.0076
   5.9544E-01   6.0993E-01   2.4398E-04  0.0074
   6.0993E-01   6.2477E-01   2.5005E-04  0.0073
   6.2477E-01   6.3997E-01   2.5288E-04  0.0071
   6.3997E-01   6.5554E-01   2.5907E-04  0.0070
   6.5554E-01   6.7149E-01   2.6180E-04  0.0068
   6.7149E-01   6.8783E-01   2.6889E-04  0.0067
   6.8783E-01   7.0456E-01   2.6755E-04  0.0066
   7.0456E-01   7.2171E-01   2.7440E-04  0.0064
   7.2171E-01   7.3927E-01   2.7996E-04  0.0063
   7.3927E-01   7.5725E-01   2.8090E-04  0.0062
   7.5725E-01   7.7568E-01   2.8611E-04  0.0061
   7.7568E-01   7.9455E-01   2.8563E-04  0.0060
   7.9455E-01   8.1388E-01   2.8957E-04  0.0059
   8.1388E-01   8.3368E-01   2.9334E-04  0.0058
   8.3368E-01   8.5397E-01   2.9520E-04  0.0057
   8.5397E-01   8.7475E-01   3.0145E-04  0.0056
   8.7475E-01   8.9603E-01   3.0164E-04  0.0055
   8.9603E-01   9.1783E-01   3.0523E-04  0.0054
   9.1783E-01   9.4016E-01   3.0718E-04  0.0053
   9.4016E-01   9.6304E-01   3.0964E-04  0.0052
   9.6304E-01   9.8647E-01   3.0848E-04  0.0052
   9.8647E-01   1.0105E+00   3.1073E-04  0.0051
   1.0105E+00   1.0351E+00   3.0281E-04  0.0051
   1.0351E+00   1.0602E+00   2.9669E-04  0.0051
   1.0602E+00   1.0860E+00   2.9607E-04  0.0050
   1.0860E+00   1.1125E+00   2.8976E-04  0.0050
   1.1125E+00   1.1395E+00   2.9012E-04  0.0050
   1.1395E+00   1.1673E+00   2.8811E-04  0.0049
   1.1673E+00   1.1957E+00   2.8780E-04  0.0049
   1.1957E+00   1.2247E+00   2.8627E-04  0.0048
   1.2247E+00   1.2545E+00   2.8176E-04  0.0048
   1.2545E+00   1.2851E+00   2.7577E-04  0.0048
   1.2851E+00   1.3163E+00   2.7378E-04  0.0047
   1.3163E+00   1.3484E+00   2.6852E-04  0.0047
   1.3484E+00   1.3812E+00   2.6510E-04  0.0047
   1.3812E+00   1.4148E+00   2.6467E-04  0.0047
   1.4148E+00   1.4492E+00   2.6120E-04  0.0046
   1.4492E+00   1.4845E+00   2.5921E-04  0.0046
   1.4845E+00   1.5206E+00   2.5429E-04  0.0046
   1.5206E+00   1.5576E+00   2.5203E-04  0.0045
   1.5576E+00   1.5955E+00   2.4672E-04  0.0045
   1.5955E+00   1.6343E+00   2.4334E-04  0.0045
   1.6343E+00   1.6741E+00   2.3587E-04  0.0045
   1.6741E+00   1.7148E+00   2.3092E-04  0.0045
   1.7148E+00   1.7565E+00   2.2812E-04  0.0045
   1.7565E+00   1.7992E+00   2.2437E-04  0.0045
   1.7992E+00   1.8430E+00   2.2121E-04  0.0044
   1.8430E+00   1.8879E+00   2.1448E-04  0.0044
   1.8879E+00   1.9338E+00   2.1105E-04  0.0044
   1.9338E+00   1.9808E+00   2.0882E-04  0.0044
   1.9808E+00   2.0290E+00   2.0310E-04  0.0044
   2.0290E+00   2.0784E+00   1.9931E-04  0.0044
   2.0784E+00   2.1290E+00   1.9292E-04  0.0044
   2.1290E+00   2.1808E+00   1.8974E-04  0.0044
   2.1808E+00   2.2338E+00   1.8600E-04  0.0044
   2.2338E+00   2.2882E+00   1.7912E-04  0.0044
   2.2882E+00   2.3439E+00   1.7461E-04  0.0044
   2.3439E+00   2.4009E+00   1.6949E-04  0.0044
   2.4009E+00   2.4593E+00   1.6371E-04  0.0044
   2.4593E+00   2.5191E+00   1.5884E-04  0.0044
   2.5191E+00   2.5804E+00   1.5270E-04  0.0044
   2.5804E+00   2.6432E+00   1.4852E-04  0.0044
   2.6432E+00   2.7075E+00   1.4240E-04  0.0045
   2.7075E+00   2.7734E+00   1.3781E-04  0.0045
   2.7734E+00   2.8409E+00   1.3329E-04  0.0045
   2.8409E+00   2.9100E+00   1.2898E-04  0.0045
   2.9100E+00   2.9808E+00   1.2367E-04  0.0046
   2.9808E+00   3.0533E+00   1.1888E-04  0.0046
   3.0533E+00   3.1276E+00   1.1461E-04  0.0046
   3.1276E+00   3.2037E+00   1.1089E-04  0.0047
   3.2037E+00   3.2817E+00   1.0586E-04  0.0047
   3.2817E+00   3.3615E+00   1.0283E-04  0.0047
   3.3615E+00   3.4433E+00   9.9190E-05  0.0048
   3.4433E+00   3.5271E+00   9.5961E-05  0.0048
   3.5271E+00   3.6129E+00   9.2095E-05  0.0048
   3.6129E+00   3.7008E+00   8.9185E-05  0.0048
   3.7008E+00   3.7908E+00   8.6782E-05  0.0048
   3.7908E+00   3.8831E+00   8.4091E-05  0.0048
   3.8831E+00   3.9776E+00   8.1077E-05  0.0049
   3.9776E+00   4.0743E+00   7.7936E-05  0.0049
   4.0743E+00   4.1735E+00   7.4066E-05  0.0050
   4.1735E+00   4.2750E+00   7.1353E-05  0.0050
   4.2750E+00   4.3790E+00   6.8531E-05  0.0050
   4.3790E+00   4.4856E+00   6.7396E-05  0.0050
   4.4856E+00   4.5947E+00   6.5128E-05  0.0051
   4.5947E+00   4.7065E+00   6.2760E-05  0.0051
   4.7065E+00   4.8210E+00   6.1250E-05  0.0051
   4.8210E+00   4.9383E+00   5.9046E-05  0.0051
   4.9383E+00   5.0585E+00   5.9275E-05  0.0051
   5.0585E+00   5.1815E+00   5.8945E-05  0.0050
   5.1815E+00   5.3076E+00   5.7565E-05  0.0050
   5.3076E+00   5.4368E+00   5.6087E-05  0.0050
   5.4368E+00   5.5690E+00   5.4688E-05  0.0050
   5.5690E+00   5.7045E+00   5.2898E-05  0.0051
   5.7045E+00   5.8433E+00   5.1389E-05  0.0051
   5.8433E+00   5.9855E+00   5.0259E-05  0.0051
   5.9855E+00   6.1311E+00   4.9025E-05  0.0051
   6.1311E+00   6.2803E+00   4.7943E-05  0.0051
   6.2803E+00   6.4331E+00   4.6490E-05  0.0051
   6.4331E+00   6.5896E+00   4.5464E-05  0.0051
   6.5896E+00   6.7500E+00   4.4266E-05  0.0051
   6.7500E+00   6.9142E+00   4.2716E-05  0.0052
   6.9142E+00   7.0824E+00   4.1614E-05  0.0052
   7.0824E+00   7.2548E+00   4.0082E-05  0.0052
   7.2548E+00   7.4313E+00   3.8880E-05  0.0052
   7.4313E+00   7.6121E+00   3.7773E-05  0.0053
   7.6121E+00   7.7973E+00   3.6747E-05  0.0053
   7.7973E+00   7.9870E+00   3.5678E-05  0.0053
   7.9870E+00   8.1813E+00   3.4357E-05  0.0053
   8.1813E+00   8.3804E+00   3.3432E-05  0.0053
   8.3804E+00   8.5843E+00   3.1946E-05  0.0054
   8.5843E+00   8.7931E+00   3.0400E-05  0.0055
   8.7931E+00   9.0071E+00   2.9111E-05  0.0055
   9.0071E+00   9.2262E+00   2.7923E-05  0.0056
   9.2262E+00   9.4507E+00   2.6460E-05  0.0057
   9.4507E+00   9.6807E+00   2.4951E-05  0.0058
   9.6807E+00   9.9162E+00   2.3692E-05  0.0059
   9.9162E+00   1.0157E+01   2.2407E-05  0.0060
   1.0157E+01   1.0405E+01   2.1176E-05  0.0061
   1.0405E+01   1.0658E+01   2.0216E-05  0.0061
   1.0658E+01   1.0917E+01   1.8898E-05  0.0063
   1.0917E+01   1.1183E+01   1.7693E-05  0.0064
   1.1183E+01   1.1455E+01   1.6662E-05  0.0065
   1.1455E+01   1.1733E+01   1.5589E-05  0.0067
   1.1733E+01   1.2019E+01   1.4663E-05  0.0068
   1.2019E+01   1.2311E+01   1.3758E-05  0.0069
   1.2311E+01   1.2611E+01   1.2937E-05  0.0071
   1.2611E+01   1.2918E+01   1.2121E-05  0.0072
   1.2918E+01   1.3232E+01   1.0948E-05  0.0075
   1.3232E+01   1.3554E+01   9.8920E-06  0.0078
   1.3554E+01   1.3884E+01   9.1818E-06  0.0080
   1.3884E+01   1.4222E+01   8.2422E-06  0.0084
   1.4222E+01   1.4568E+01   7.5887E-06  0.0086
   1.4568E+01   1.4922E+01   7.0328E-06  0.0089
   1.4922E+01   1.5285E+01   6.4864E-06  0.0091
   1.5285E+01   1.5657E+01   5.9629E-06  0.0094
   1.5657E+01   1.6038E+01   5.4440E-06  0.0097
   1.6038E+01   1.6428E+01   4.8846E-06  0.0102
   1.6428E+01   1.6828E+01   4.3250E-06  0.0107
   1.6828E+01   1.7237E+01   4.0259E-06  0.0109
   1.7237E+01   1.7657E+01   3.6042E-06  0.0114
   1.7657E+01   1.8086E+01   3.1746E-06  0.0121
   1.8086E+01   1.8526E+01   2.8699E-06  0.0125
   1.8526E+01   1.8977E+01   2.6253E-06  0.0129
   1.8977E+01   1.9439E+01   2.3842E-06  0.0134
   1.9439E+01   1.9912E+01   2.2234E-06  0.0138
   1.9912E+01   2.0396E+01   2.0162E-06  0.0143
   2.0396E+01   2.0893E+01   1.8140E-06  0.0149
   2.0893E+01   2.1401E+01   1.5950E-06  0.0157
   2.1401E+01   2.1922E+01   1.4761E-06  0.0161
   2.1922E+01   2.2455E+01   1.3270E-06  0.0168
   2.2455E+01   2.3001E+01   1.1626E-06  0.0177
   2.3001E+01   2.3561E+01   1.0410E-06  0.0185
   2.3561E+01   2.4134E+01   8.6802E-07  0.0200
   2.4134E+01   2.4721E+01   7.6804E-07  0.0211
   2.4721E+01   2.5323E+01   6.2744E-07  0.0230
   2.5323E+01   2.5939E+01   5.5962E-07  0.0241
   2.5939E+01   2.6570E+01   4.7756E-07  0.0258
   2.6570E+01   2.7217E+01   3.8795E-07  0.0282
   2.7217E+01   2.7879E+01   3.4431E-07  0.0296
   2.7879E+01   2.8557E+01   2.6153E-07  0.0336
   2.8557E+01   2.9252E+01   2.2999E-07  0.0354
   2.9252E+01   2.9964E+01   1.8490E-07  0.0390
   2.9964E+01   3.0693E+01   1.4018E-07  0.0442
   3.0693E+01   3.1440E+01   1.1275E-07  0.0487
   3.1440E+01   3.2205E+01   7.3992E-08  0.0594
   3.2205E+01   3.2988E+01   5.6154E-08  0.0674
   3.2988E+01   3.3791E+01   3.5882E-08  0.0833
   3.3791E+01   3.4613E+01   3.6003E-08  0.0822
   3.4613E+01   3.5455E+01   2.1849E-08  0.1043
   3.5455E+01   3.6318E+01   1.5765E-08  0.1213
   3.6318E+01   3.7201E+01   1.2449E-08  0.1348
   3.7201E+01   3.8106E+01   6.4079E-09  0.1857
   3.8106E+01   3.9034E+01   4.0985E-09  0.2294
   3.9034E+01   3.9983E+01   1.8953E-09  0.3333
   3.9983E+01   4.0956E+01   1.6447E-09  0.3536
   4.0956E+01   4.1953E+01   4.0141E-10  0.7071
   4.1953E+01   4.2973E+01   0.0000E+00  0.0000
   4.2973E+01   4.4019E+01   0.0000E+00  0.0000
   4.4019E+01   4.5090E+01   0.0000E+00  0.0000
   4.5090E+01   4.6187E+01   0.0000E+00  0.0000
   4.6187E+01   4.7311E+01   0.0000E+00  0.0000
   4.7311E+01   4.8462E+01   0.0000E+00  0.0000
   4.8462E+01   4.9641E+01   0.0000E+00  0.0000
   4.9641E+01   5.0849E+01   0.0000E+00  0.0000
   5.0849E+01   5.2086E+01   0.0000E+00  0.0000
   5.2086E+01   5.3353E+01   0.0000E+00  0.0000
   5.3353E+01   5.4651E+01   0.0000E+00  0.0000
   5.4651E+01   5.5981E+01   0.0000E+00  0.0000
   5.5981E+01   5.7343E+01   0.0000E+00  0.0000
   5.7343E+01   5.8738E+01   0.0000E+00  0.0000
   5.8738E+01   6.0168E+01   0.0000E+00  0.0000
   6.0168E+01   6.1632E+01   0.0000E+00  0.0000
   6.1632E+01   6.3131E+01   0.0000E+00  0.0000
   6.3131E+01   6.4667E+01   0.0000E+00  0.0000
   6.4667E+01   6.6240E+01   0.0000E+00  0.0000
   6.6240E+01   6.7852E+01   0.0000E+00  0.0000
   6.7852E+01   6.9503E+01   0.0000E+00  0.0000
   6.9503E+01   7.1194E+01   0.0000E+00  0.0000
   7.1194E+01   7.2926E+01   0.0000E+00  0.0000
   7.2926E+01   7.4701E+01   0.0000E+00  0.0000
   7.4701E+01   7.6518E+01   0.0000E+00  0.0000
   7.6518E+01   7.8380E+01   0.0000E+00  0.0000
   7.8380E+01   8.0287E+01   0.0000E+00  0.0000
   8.0287E+01   8.2240E+01   0.0000E+00  0.0000
   8.2240E+01   8.4241E+01   0.0000E+00  0.0000
   8.4241E+01   8.6291E+01   0.0000E+00  0.0000
   8.6291E+01   8.8391E+01   0.0000E+00  0.0000
   8.8391E+01   9.0541E+01   0.0000E+00  0.0000
   9.0541E+01   9.2744E+01   0.0000E+00  0.0000
   9.2744E+01   9.5001E+01   0.0000E+00  0.0000
   9.5001E+01   9.7312E+01   0.0000E+00  0.0000
   9.7312E+01   9.9680E+01   0.0000E+00  0.0000
   9.9680E+01   1.0211E+02   0.0000E+00  0.0000
   1.0211E+02   1.0459E+02   0.0000E+00  0.0000
   1.0459E+02   1.0713E+02   0.0000E+00  0.0000
   1.0713E+02   1.0974E+02   0.0000E+00  0.0000
   1.0974E+02   1.1241E+02   0.0000E+00  0.0000
   1.1241E+02   1.1515E+02   0.0000E+00  0.0000
   1.1515E+02   1.1795E+02   0.0000E+00  0.0000
   1.1795E+02   1.2082E+02   0.0000E+00  0.0000
   1.2082E+02   1.2376E+02   0.0000E+00  0.0000
   1.2376E+02   1.2677E+02   0.0000E+00  0.0000
   1.2677E+02   1.2985E+02   0.0000E+00  0.0000
   1.2985E+02   1.3301E+02   0.0000E+00  0.0000
   1.3301E+02   1.3625E+02   0.0000E+00  0.0000
   1.3625E+02   1.3956E+02   0.0000E+00  0.0000
   1.3956E+02   1.4296E+02   0.0000E+00  0.0000
   1.4296E+02   1.4644E+02   0.0000E+00  0.0000
   1.4644E+02   1.5000E+02   0.0000E+00  0.0000

#   sum over                 7.0171E-06
'no. =    1   reg = 119 - 219'
msuc: {\huge [t-cross] in region mesh}
msdr: {\it plotted by \ANGEL \version}
msdl: {\it calculated by \PHITS  3.26}
wt: s(0.7)
\vspace{-3}
  region surface crossing
  area  &=&   1.0000E+00 [cm^2]
e:
 
# Information for Restart Calculation
# This calculation was newly started
# istdev =  2 # 1:Batch variance, 2:History variance
# resc2  = 5.00000000000000000E+09 # Total source weight or Total source weight / maxcas
# resc3  = 5.00000000000000000E+09 # Total history number or Total batch number
# maxcas =   100000000 # History / Batch, only used for istdev=1
# bitrseed = 0110100000100010111000001110001111001110100100011111101000111001 # bit data of rseed
