[ T-Cross ]
    title = [t-cross] in region mesh
     mesh =  reg            # mesh type is region-wise
      reg =    1            # number of crossing regions
      non     r-from    r-to       area
      1       106       206        1.000000    
   e-type =    3            # e-mesh is log given by emin, emax and ne
     emin =  1.0000000E-02  # minimum value of e-mesh points
     emax =   150.0000      # maximum value of e-mesh points
#    edel =  2.4039514E-02  # mesh width of e-mesh points
       ne =    400          # number of e-mesh points
#    data = ( e(i), i = 1, ne + 1 )
#           1.00000E-02  1.02433E-02  1.04925E-02  1.07478E-02  1.10093E-02
#           1.12772E-02  1.15516E-02  1.18326E-02  1.21205E-02  1.24154E-02
#           1.27175E-02  1.30269E-02  1.33439E-02  1.36686E-02  1.40011E-02
#           1.43418E-02  1.46907E-02  1.50482E-02  1.54143E-02  1.57894E-02
#           1.61735E-02  1.65670E-02  1.69701E-02  1.73830E-02  1.78060E-02
#           1.82392E-02  1.86830E-02  1.91375E-02  1.96032E-02  2.00801E-02
#           2.05687E-02  2.10692E-02  2.15818E-02  2.21069E-02  2.26448E-02
#           2.31957E-02  2.37601E-02  2.43382E-02  2.49304E-02  2.55369E-02
#           2.61583E-02  2.67947E-02  2.74467E-02  2.81145E-02  2.87985E-02
#           2.94992E-02  3.02169E-02  3.09521E-02  3.17052E-02  3.24766E-02
#           3.32668E-02  3.40762E-02  3.49053E-02  3.57546E-02  3.66246E-02
#           3.75157E-02  3.84284E-02  3.93634E-02  4.03212E-02  4.13022E-02
#           4.23071E-02  4.33365E-02  4.43909E-02  4.54710E-02  4.65773E-02
#           4.77106E-02  4.88714E-02  5.00605E-02  5.12785E-02  5.25262E-02
#           5.38042E-02  5.51133E-02  5.64542E-02  5.78278E-02  5.92348E-02
#           6.06760E-02  6.21523E-02  6.36645E-02  6.52135E-02  6.68002E-02
#           6.84255E-02  7.00904E-02  7.17957E-02  7.35426E-02  7.53319E-02
#           7.71648E-02  7.90423E-02  8.09655E-02  8.29354E-02  8.49533E-02
#           8.70203E-02  8.91376E-02  9.13064E-02  9.35279E-02  9.58035E-02
#           9.81345E-02  1.00522E-01  1.02968E-01  1.05473E-01  1.08040E-01
#           1.10668E-01  1.13361E-01  1.16119E-01  1.18944E-01  1.21838E-01
#           1.24803E-01  1.27839E-01  1.30950E-01  1.34136E-01  1.37399E-01
#           1.40742E-01  1.44167E-01  1.47675E-01  1.51268E-01  1.54948E-01
#           1.58718E-01  1.62580E-01  1.66535E-01  1.70587E-01  1.74738E-01
#           1.78989E-01  1.83344E-01  1.87805E-01  1.92375E-01  1.97055E-01
#           2.01850E-01  2.06761E-01  2.11792E-01  2.16945E-01  2.22223E-01
#           2.27630E-01  2.33169E-01  2.38842E-01  2.44653E-01  2.50605E-01
#           2.56703E-01  2.62949E-01  2.69346E-01  2.75900E-01  2.82613E-01
#           2.89489E-01  2.96532E-01  3.03747E-01  3.11138E-01  3.18708E-01
#           3.26462E-01  3.34405E-01  3.42542E-01  3.50876E-01  3.59413E-01
#           3.68158E-01  3.77116E-01  3.86291E-01  3.95690E-01  4.05317E-01
#           4.15179E-01  4.25281E-01  4.35628E-01  4.46227E-01  4.57084E-01
#           4.68205E-01  4.79597E-01  4.91266E-01  5.03219E-01  5.15463E-01
#           5.28005E-01  5.40851E-01  5.54011E-01  5.67490E-01  5.81298E-01
#           5.95441E-01  6.09929E-01  6.24769E-01  6.39970E-01  6.55541E-01
#           6.71491E-01  6.87828E-01  7.04564E-01  7.21706E-01  7.39266E-01
#           7.57253E-01  7.75678E-01  7.94551E-01  8.13883E-01  8.33685E-01
#           8.53969E-01  8.74747E-01  8.96030E-01  9.17831E-01  9.40163E-01
#           9.63038E-01  9.86469E-01  1.01047E+00  1.03506E+00  1.06024E+00
#           1.08604E+00  1.11246E+00  1.13953E+00  1.16725E+00  1.19565E+00
#           1.22474E+00  1.25454E+00  1.28507E+00  1.31633E+00  1.34836E+00
#           1.38117E+00  1.41477E+00  1.44920E+00  1.48446E+00  1.52057E+00
#           1.55757E+00  1.59547E+00  1.63429E+00  1.67405E+00  1.71478E+00
#           1.75650E+00  1.79924E+00  1.84302E+00  1.88786E+00  1.93379E+00
#           1.98084E+00  2.02904E+00  2.07841E+00  2.12898E+00  2.18078E+00
#           2.23384E+00  2.28819E+00  2.34386E+00  2.40089E+00  2.45930E+00
#           2.51914E+00  2.58043E+00  2.64322E+00  2.70753E+00  2.77341E+00
#           2.84088E+00  2.91001E+00  2.98081E+00  3.05333E+00  3.12762E+00
#           3.20372E+00  3.28167E+00  3.36152E+00  3.44330E+00  3.52708E+00
#           3.61290E+00  3.70080E+00  3.79085E+00  3.88308E+00  3.97756E+00
#           4.07434E+00  4.17347E+00  4.27501E+00  4.37903E+00  4.48557E+00
#           4.59471E+00  4.70650E+00  4.82102E+00  4.93832E+00  5.05847E+00
#           5.18155E+00  5.30762E+00  5.43676E+00  5.56904E+00  5.70453E+00
#           5.84333E+00  5.98550E+00  6.13114E+00  6.28031E+00  6.43312E+00
#           6.58964E+00  6.74997E+00  6.91420E+00  7.08243E+00  7.25475E+00
#           7.43126E+00  7.61207E+00  7.79728E+00  7.98700E+00  8.18133E+00
#           8.38038E+00  8.58428E+00  8.79315E+00  9.00709E+00  9.22624E+00
#           9.45072E+00  9.68067E+00  9.91620E+00  1.01575E+01  1.04046E+01
#           1.06578E+01  1.09171E+01  1.11827E+01  1.14548E+01  1.17335E+01
#           1.20190E+01  1.23114E+01  1.26109E+01  1.29178E+01  1.32321E+01
#           1.35540E+01  1.38838E+01  1.42216E+01  1.45676E+01  1.49221E+01
#           1.52851E+01  1.56570E+01  1.60380E+01  1.64282E+01  1.68279E+01
#           1.72374E+01  1.76568E+01  1.80864E+01  1.85264E+01  1.89772E+01
#           1.94389E+01  1.99119E+01  2.03963E+01  2.08926E+01  2.14009E+01
#           2.19216E+01  2.24550E+01  2.30014E+01  2.35610E+01  2.41343E+01
#           2.47215E+01  2.53230E+01  2.59391E+01  2.65702E+01  2.72167E+01
#           2.78789E+01  2.85572E+01  2.92520E+01  2.99637E+01  3.06928E+01
#           3.14396E+01  3.22045E+01  3.29881E+01  3.37907E+01  3.46128E+01
#           3.54550E+01  3.63177E+01  3.72013E+01  3.81064E+01  3.90336E+01
#           3.99833E+01  4.09561E+01  4.19526E+01  4.29734E+01  4.40189E+01
#           4.50900E+01  4.61870E+01  4.73108E+01  4.84619E+01  4.96410E+01
#           5.08488E+01  5.20860E+01  5.33533E+01  5.46514E+01  5.59812E+01
#           5.73432E+01  5.87384E+01  6.01676E+01  6.16315E+01  6.31311E+01
#           6.46671E+01  6.62405E+01  6.78522E+01  6.95031E+01  7.11941E+01
#           7.29263E+01  7.47007E+01  7.65182E+01  7.83800E+01  8.02870E+01
#           8.22405E+01  8.42414E+01  8.62911E+01  8.83906E+01  9.05412E+01
#           9.27442E+01  9.50007E+01  9.73122E+01  9.96799E+01  1.02105E+02
#           1.04589E+02  1.07134E+02  1.09741E+02  1.12411E+02  1.15146E+02
#           1.17948E+02  1.20817E+02  1.23757E+02  1.26768E+02  1.29852E+02
#           1.33012E+02  1.36248E+02  1.39563E+02  1.42959E+02  1.46437E+02
#           1.50000E+02
     unit =    2            # unit is [1/cm^2/(MeV/n)/source]
     axis =  eng            # axis of output
     file = detector-07.out  # file name of output for the above axis
   output = f-curr          # surface crossing forward current spectrum
     part =  neutron  
# kf/name :  2112     
#    used :        main (  %)        temp (  %)       total (  %)
#  memory :         414 (  0)           0 (  0)         414 (  0)

#------------------------------------------------------------------------------
#newpage:
#   no. =    1   reg = 106 - 206

x: Energy [MeV/n]
y:  F-Curr [1/cm^2/(MeV/n)/source]         
p: xlog ylog afac(0.8) form(0.9)
h: n            x            y(neutron ),hh0l   n 
#  e-lower      e-upper      neutron     r.err 
   1.0000E-02   1.0243E-02   8.4666E-04  0.0697
   1.0243E-02   1.0493E-02   9.4291E-04  0.0652
   1.0493E-02   1.0748E-02   9.0485E-04  0.0658
   1.0748E-02   1.1009E-02   8.7188E-04  0.0662
   1.1009E-02   1.1277E-02   8.9224E-04  0.0647
   1.1277E-02   1.1552E-02   9.4394E-04  0.0621
   1.1552E-02   1.1833E-02   9.5709E-04  0.0610
   1.1833E-02   1.2121E-02   7.9195E-04  0.0662
   1.2121E-02   1.2415E-02   9.5286E-04  0.0597
   1.2415E-02   1.2718E-02   8.8719E-04  0.0611
   1.2718E-02   1.3027E-02   8.6612E-04  0.0611
   1.3027E-02   1.3344E-02   8.8656E-04  0.0597
   1.3344E-02   1.3669E-02   8.8706E-04  0.0589
   1.3669E-02   1.4001E-02   8.2089E-04  0.0605
   1.4001E-02   1.4342E-02   9.2761E-04  0.0563
   1.4342E-02   1.4691E-02   9.4284E-04  0.0551
   1.4691E-02   1.5048E-02   8.6728E-04  0.0568
   1.5048E-02   1.5414E-02   9.0950E-04  0.0548
   1.5414E-02   1.5789E-02   9.9722E-04  0.0517
   1.5789E-02   1.6174E-02   1.0022E-03  0.0510
   1.6174E-02   1.6567E-02   9.7582E-04  0.0510
   1.6567E-02   1.6970E-02   9.9234E-04  0.0500
   1.6970E-02   1.7383E-02   9.9662E-04  0.0493
   1.7383E-02   1.7806E-02   1.0120E-03  0.0483
   1.7806E-02   1.8239E-02   9.8100E-04  0.0485
   1.8239E-02   1.8683E-02   9.6896E-04  0.0482
   1.8683E-02   1.9138E-02   9.9654E-04  0.0470
   1.9138E-02   1.9603E-02   9.4281E-04  0.0477
   1.9603E-02   2.0080E-02   1.0336E-03  0.0450
   2.0080E-02   2.0569E-02   9.5791E-04  0.0462
   2.0569E-02   2.1069E-02   1.0570E-03  0.0435
   2.1069E-02   2.1582E-02   9.8707E-04  0.0445
   2.1582E-02   2.2107E-02   9.6362E-04  0.0445
   2.2107E-02   2.2645E-02   1.0560E-03  0.0420
   2.2645E-02   2.3196E-02   9.7102E-04  0.0432
   2.3196E-02   2.3760E-02   9.5327E-04  0.0431
   2.3760E-02   2.4338E-02   1.0413E-03  0.0408
   2.4338E-02   2.4930E-02   9.8790E-04  0.0413
   2.4930E-02   2.5537E-02   9.1992E-04  0.0423
   2.5537E-02   2.6158E-02   1.0743E-03  0.0387
   2.6158E-02   2.6795E-02   1.0637E-03  0.0384
   2.6795E-02   2.7447E-02   1.0062E-03  0.0390
   2.7447E-02   2.8114E-02   1.0842E-03  0.0372
   2.8114E-02   2.8799E-02   1.0526E-03  0.0373
   2.8799E-02   2.9499E-02   1.0347E-03  0.0371
   2.9499E-02   3.0217E-02   1.0101E-03  0.0371
   3.0217E-02   3.0952E-02   1.0052E-03  0.0368
   3.0952E-02   3.1705E-02   1.0132E-03  0.0362
   3.1705E-02   3.2477E-02   9.6317E-04  0.0367
   3.2477E-02   3.3267E-02   1.0592E-03  0.0346
   3.3267E-02   3.4076E-02   1.0261E-03  0.0347
   3.4076E-02   3.4905E-02   1.0903E-03  0.0333
   3.4905E-02   3.5755E-02   1.0432E-03  0.0336
   3.5755E-02   3.6625E-02   1.0897E-03  0.0325
   3.6625E-02   3.7516E-02   1.0840E-03  0.0322
   3.7516E-02   3.8428E-02   1.0682E-03  0.0320
   3.8428E-02   3.9363E-02   1.0925E-03  0.0313
   3.9363E-02   4.0321E-02   1.0817E-03  0.0311
   4.0321E-02   4.1302E-02   1.0275E-03  0.0315
   4.1302E-02   4.2307E-02   1.0707E-03  0.0305
   4.2307E-02   4.3337E-02   1.1531E-03  0.0290
   4.3337E-02   4.4391E-02   1.0594E-03  0.0299
   4.4391E-02   4.5471E-02   1.1527E-03  0.0283
   4.5471E-02   4.6577E-02   1.0910E-03  0.0288
   4.6577E-02   4.7711E-02   1.0809E-03  0.0286
   4.7711E-02   4.8871E-02   1.0983E-03  0.0280
   4.8871E-02   5.0061E-02   1.1185E-03  0.0274
   5.0061E-02   5.1279E-02   1.1010E-03  0.0273
   5.1279E-02   5.2526E-02   1.0844E-03  0.0272
   5.2526E-02   5.3804E-02   1.0450E-03  0.0274
   5.3804E-02   5.5113E-02   1.1542E-03  0.0257
   5.5113E-02   5.6454E-02   1.0612E-03  0.0265
   5.6454E-02   5.7828E-02   1.1110E-03  0.0256
   5.7828E-02   5.9235E-02   1.1421E-03  0.0249
   5.9235E-02   6.0676E-02   1.1514E-03  0.0245
   6.0676E-02   6.2152E-02   1.1969E-03  0.0238
   6.2152E-02   6.3665E-02   1.1596E-03  0.0239
   6.3665E-02   6.5214E-02   1.1227E-03  0.0240
   6.5214E-02   6.6800E-02   1.1521E-03  0.0234
   6.6800E-02   6.8426E-02   1.1604E-03  0.0230
   6.8426E-02   7.0090E-02   1.1286E-03  0.0231
   7.0090E-02   7.1796E-02   1.1276E-03  0.0228
   7.1796E-02   7.3543E-02   1.1747E-03  0.0221
   7.3543E-02   7.5332E-02   1.2133E-03  0.0215
   7.5332E-02   7.7165E-02   1.1856E-03  0.0215
   7.7165E-02   7.9042E-02   1.2053E-03  0.0210
   7.9042E-02   8.0965E-02   1.2006E-03  0.0208
   8.0965E-02   8.2935E-02   1.1873E-03  0.0207
   8.2935E-02   8.4953E-02   1.2191E-03  0.0202
   8.4953E-02   8.7020E-02   1.1974E-03  0.0201
   8.7020E-02   8.9138E-02   1.1699E-03  0.0201
   8.9138E-02   9.1306E-02   1.2173E-03  0.0195
   9.1306E-02   9.3528E-02   1.2304E-03  0.0191
   9.3528E-02   9.5804E-02   1.2579E-03  0.0187
   9.5804E-02   9.8134E-02   1.2651E-03  0.0184
   9.8134E-02   1.0052E-01   1.2393E-03  0.0184
   1.0052E-01   1.0297E-01   1.2188E-03  0.0183
   1.0297E-01   1.0547E-01   1.2462E-03  0.0179
   1.0547E-01   1.0804E-01   1.2173E-03  0.0179
   1.0804E-01   1.1067E-01   1.2620E-03  0.0174
   1.1067E-01   1.1336E-01   1.2111E-03  0.0175
   1.1336E-01   1.1612E-01   1.2965E-03  0.0167
   1.1612E-01   1.1894E-01   1.2728E-03  0.0167
   1.1894E-01   1.2184E-01   1.2868E-03  0.0164
   1.2184E-01   1.2480E-01   1.3055E-03  0.0161
   1.2480E-01   1.2784E-01   1.2844E-03  0.0160
   1.2784E-01   1.3095E-01   1.3291E-03  0.0156
   1.3095E-01   1.3414E-01   1.2897E-03  0.0156
   1.3414E-01   1.3740E-01   1.3035E-03  0.0153
   1.3740E-01   1.4074E-01   1.2973E-03  0.0152
   1.4074E-01   1.4417E-01   1.3156E-03  0.0149
   1.4417E-01   1.4767E-01   1.3160E-03  0.0147
   1.4767E-01   1.5127E-01   1.3329E-03  0.0145
   1.5127E-01   1.5495E-01   1.3221E-03  0.0143
   1.5495E-01   1.5872E-01   1.3464E-03  0.0140
   1.5872E-01   1.6258E-01   1.3784E-03  0.0137
   1.6258E-01   1.6654E-01   1.3386E-03  0.0137
   1.6654E-01   1.7059E-01   1.3598E-03  0.0135
   1.7059E-01   1.7474E-01   1.3483E-03  0.0134
   1.7474E-01   1.7899E-01   1.4053E-03  0.0129
   1.7899E-01   1.8334E-01   1.3534E-03  0.0130
   1.8334E-01   1.8781E-01   1.3668E-03  0.0128
   1.8781E-01   1.9237E-01   1.3618E-03  0.0127
   1.9237E-01   1.9706E-01   1.4021E-03  0.0123
   1.9706E-01   2.0185E-01   1.3972E-03  0.0122
   2.0185E-01   2.0676E-01   1.3897E-03  0.0121
   2.0676E-01   2.1179E-01   1.4099E-03  0.0119
   2.1179E-01   2.1694E-01   1.4019E-03  0.0118
   2.1694E-01   2.2222E-01   1.4233E-03  0.0115
   2.2222E-01   2.2763E-01   1.4376E-03  0.0113
   2.2763E-01   2.3317E-01   1.4262E-03  0.0113
   2.3317E-01   2.3884E-01   1.4507E-03  0.0110
   2.3884E-01   2.4465E-01   1.4474E-03  0.0109
   2.4465E-01   2.5061E-01   1.4738E-03  0.0107
   2.5061E-01   2.5670E-01   1.4783E-03  0.0105
   2.5670E-01   2.6295E-01   1.4727E-03  0.0104
   2.6295E-01   2.6935E-01   1.4513E-03  0.0104
   2.6935E-01   2.7590E-01   1.4499E-03  0.0103
   2.7590E-01   2.8261E-01   1.4865E-03  0.0100
   2.8261E-01   2.8949E-01   1.4911E-03  0.0099
   2.8949E-01   2.9653E-01   1.5139E-03  0.0097
   2.9653E-01   3.0375E-01   1.4770E-03  0.0097
   3.0375E-01   3.1114E-01   1.4941E-03  0.0095
   3.1114E-01   3.1871E-01   1.4721E-03  0.0095
   3.1871E-01   3.2646E-01   1.4926E-03  0.0093
   3.2646E-01   3.3441E-01   1.4900E-03  0.0092
   3.3441E-01   3.4254E-01   1.5096E-03  0.0090
   3.4254E-01   3.5088E-01   1.5009E-03  0.0089
   3.5088E-01   3.5941E-01   1.5031E-03  0.0088
   3.5941E-01   3.6816E-01   1.4913E-03  0.0088
   3.6816E-01   3.7712E-01   1.5005E-03  0.0086
   3.7712E-01   3.8629E-01   1.5242E-03  0.0085
   3.8629E-01   3.9569E-01   1.5145E-03  0.0084
   3.9569E-01   4.0532E-01   1.5081E-03  0.0083
   4.0532E-01   4.1518E-01   1.5144E-03  0.0082
   4.1518E-01   4.2528E-01   1.4976E-03  0.0081
   4.2528E-01   4.3563E-01   1.5079E-03  0.0080
   4.3563E-01   4.4623E-01   1.5104E-03  0.0079
   4.4623E-01   4.5708E-01   1.4919E-03  0.0079
   4.5708E-01   4.6821E-01   1.5013E-03  0.0077
   4.6821E-01   4.7960E-01   1.4866E-03  0.0077
   4.7960E-01   4.9127E-01   1.4902E-03  0.0076
   4.9127E-01   5.0322E-01   1.4900E-03  0.0075
   5.0322E-01   5.1546E-01   1.4726E-03  0.0074
   5.1546E-01   5.2800E-01   1.4658E-03  0.0074
   5.2800E-01   5.4085E-01   1.4636E-03  0.0073
   5.4085E-01   5.5401E-01   1.4555E-03  0.0072
   5.5401E-01   5.6749E-01   1.4516E-03  0.0071
   5.6749E-01   5.8130E-01   1.4357E-03  0.0071
   5.8130E-01   5.9544E-01   1.4431E-03  0.0070
   5.9544E-01   6.0993E-01   1.4071E-03  0.0070
   6.0993E-01   6.2477E-01   1.3997E-03  0.0069
   6.2477E-01   6.3997E-01   1.3721E-03  0.0069
   6.3997E-01   6.5554E-01   1.3631E-03  0.0069
   6.5554E-01   6.7149E-01   1.3510E-03  0.0068
   6.7149E-01   6.8783E-01   1.3442E-03  0.0067
   6.8783E-01   7.0456E-01   1.3232E-03  0.0067
   7.0456E-01   7.2171E-01   1.3016E-03  0.0067
   7.2171E-01   7.3927E-01   1.2734E-03  0.0067
   7.3927E-01   7.5725E-01   1.2480E-03  0.0067
   7.5725E-01   7.7568E-01   1.2494E-03  0.0066
   7.7568E-01   7.9455E-01   1.2088E-03  0.0066
   7.9455E-01   8.1388E-01   1.1781E-03  0.0066
   8.1388E-01   8.3368E-01   1.1617E-03  0.0066
   8.3368E-01   8.5397E-01   1.1297E-03  0.0066
   8.5397E-01   8.7475E-01   1.1037E-03  0.0066
   8.7475E-01   8.9603E-01   1.0535E-03  0.0067
   8.9603E-01   9.1783E-01   1.0345E-03  0.0067
   9.1783E-01   9.4016E-01   9.9006E-04  0.0067
   9.4016E-01   9.6304E-01   9.6413E-04  0.0067
   9.6304E-01   9.8647E-01   9.2226E-04  0.0068
   9.8647E-01   1.0105E+00   8.9332E-04  0.0068
   1.0105E+00   1.0351E+00   8.9101E-04  0.0068
   1.0351E+00   1.0602E+00   8.8716E-04  0.0067
   1.0602E+00   1.0860E+00   8.8586E-04  0.0066
   1.0860E+00   1.1125E+00   8.9505E-04  0.0065
   1.1125E+00   1.1395E+00   8.9284E-04  0.0064
   1.1395E+00   1.1673E+00   9.2061E-04  0.0063
   1.1673E+00   1.1957E+00   9.2410E-04  0.0062
   1.1957E+00   1.2247E+00   9.3692E-04  0.0061
   1.2247E+00   1.2545E+00   9.4089E-04  0.0060
   1.2545E+00   1.2851E+00   9.3336E-04  0.0059
   1.2851E+00   1.3163E+00   9.2320E-04  0.0059
   1.3163E+00   1.3484E+00   9.3342E-04  0.0058
   1.3484E+00   1.3812E+00   9.4013E-04  0.0057
   1.3812E+00   1.4148E+00   9.3881E-04  0.0056
   1.4148E+00   1.4492E+00   9.5353E-04  0.0055
   1.4492E+00   1.4845E+00   9.2927E-04  0.0055
   1.4845E+00   1.5206E+00   9.2003E-04  0.0055
   1.5206E+00   1.5576E+00   9.1181E-04  0.0054
   1.5576E+00   1.5955E+00   9.1030E-04  0.0054
   1.5955E+00   1.6343E+00   8.9333E-04  0.0054
   1.6343E+00   1.6741E+00   8.9933E-04  0.0053
   1.6741E+00   1.7148E+00   9.0134E-04  0.0052
   1.7148E+00   1.7565E+00   8.9255E-04  0.0052
   1.7565E+00   1.7992E+00   8.7870E-04  0.0052
   1.7992E+00   1.8430E+00   8.6418E-04  0.0051
   1.8430E+00   1.8879E+00   8.4445E-04  0.0051
   1.8879E+00   1.9338E+00   8.2876E-04  0.0051
   1.9338E+00   1.9808E+00   8.2661E-04  0.0051
   1.9808E+00   2.0290E+00   8.2361E-04  0.0050
   2.0290E+00   2.0784E+00   7.9996E-04  0.0050
   2.0784E+00   2.1290E+00   7.8372E-04  0.0050
   2.1290E+00   2.1808E+00   7.6838E-04  0.0050
   2.1808E+00   2.2338E+00   7.4645E-04  0.0050
   2.2338E+00   2.2882E+00   7.3482E-04  0.0050
   2.2882E+00   2.3439E+00   7.1760E-04  0.0050
   2.3439E+00   2.4009E+00   7.0552E-04  0.0050
   2.4009E+00   2.4593E+00   6.9084E-04  0.0050
   2.4593E+00   2.5191E+00   6.7873E-04  0.0050
   2.5191E+00   2.5804E+00   6.5677E-04  0.0050
   2.5804E+00   2.6432E+00   6.3318E-04  0.0050
   2.6432E+00   2.7075E+00   6.1264E-04  0.0050
   2.7075E+00   2.7734E+00   5.9622E-04  0.0050
   2.7734E+00   2.8409E+00   5.7677E-04  0.0051
   2.8409E+00   2.9100E+00   5.6053E-04  0.0051
   2.9100E+00   2.9808E+00   5.4919E-04  0.0051
   2.9808E+00   3.0533E+00   5.2799E-04  0.0051
   3.0533E+00   3.1276E+00   5.1246E-04  0.0051
   3.1276E+00   3.2037E+00   4.9973E-04  0.0051
   3.2037E+00   3.2817E+00   4.7931E-04  0.0052
   3.2817E+00   3.3615E+00   4.6195E-04  0.0052
   3.3615E+00   3.4433E+00   4.4607E-04  0.0052
   3.4433E+00   3.5271E+00   4.3317E-04  0.0053
   3.5271E+00   3.6129E+00   4.1666E-04  0.0053
   3.6129E+00   3.7008E+00   4.0363E-04  0.0053
   3.7008E+00   3.7908E+00   3.8783E-04  0.0054
   3.7908E+00   3.8831E+00   3.6913E-04  0.0054
   3.8831E+00   3.9776E+00   3.6201E-04  0.0054
   3.9776E+00   4.0743E+00   3.4785E-04  0.0055
   4.0743E+00   4.1735E+00   3.3596E-04  0.0055
   4.1735E+00   4.2750E+00   3.2128E-04  0.0055
   4.2750E+00   4.3790E+00   3.1067E-04  0.0056
   4.3790E+00   4.4856E+00   3.0093E-04  0.0056
   4.4856E+00   4.5947E+00   2.8946E-04  0.0056
   4.5947E+00   4.7065E+00   2.8085E-04  0.0056
   4.7065E+00   4.8210E+00   2.7069E-04  0.0057
   4.8210E+00   4.9383E+00   2.5940E-04  0.0057
   4.9383E+00   5.0585E+00   2.4854E-04  0.0058
   5.0585E+00   5.1815E+00   2.4153E-04  0.0058
   5.1815E+00   5.3076E+00   2.3394E-04  0.0058
   5.3076E+00   5.4368E+00   2.2518E-04  0.0059
   5.4368E+00   5.5690E+00   2.1476E-04  0.0059
   5.5690E+00   5.7045E+00   2.0600E-04  0.0060
   5.7045E+00   5.8433E+00   2.0115E-04  0.0060
   5.8433E+00   5.9855E+00   1.9312E-04  0.0060
   5.9855E+00   6.1311E+00   1.8917E-04  0.0060
   6.1311E+00   6.2803E+00   1.8264E-04  0.0061
   6.2803E+00   6.4331E+00   1.7399E-04  0.0061
   6.4331E+00   6.5896E+00   1.7169E-04  0.0061
   6.5896E+00   6.7500E+00   1.6558E-04  0.0061
   6.7500E+00   6.9142E+00   1.6072E-04  0.0062
   6.9142E+00   7.0824E+00   1.5395E-04  0.0062
   7.0824E+00   7.2548E+00   1.4905E-04  0.0062
   7.2548E+00   7.4313E+00   1.4549E-04  0.0062
   7.4313E+00   7.6121E+00   1.4038E-04  0.0063
   7.6121E+00   7.7973E+00   1.3781E-04  0.0063
   7.7973E+00   7.9870E+00   1.3369E-04  0.0063
   7.9870E+00   8.1813E+00   1.2927E-04  0.0063
   8.1813E+00   8.3804E+00   1.2639E-04  0.0063
   8.3804E+00   8.5843E+00   1.2503E-04  0.0063
   8.5843E+00   8.7931E+00   1.1953E-04  0.0063
   8.7931E+00   9.0071E+00   1.1837E-04  0.0063
   9.0071E+00   9.2262E+00   1.1530E-04  0.0063
   9.2262E+00   9.4507E+00   1.1474E-04  0.0062
   9.4507E+00   9.6807E+00   1.1297E-04  0.0062
   9.6807E+00   9.9162E+00   1.1022E-04  0.0062
   9.9162E+00   1.0157E+01   1.0716E-04  0.0062
   1.0157E+01   1.0405E+01   1.0688E-04  0.0062
   1.0405E+01   1.0658E+01   1.0539E-04  0.0061
   1.0658E+01   1.0917E+01   1.0464E-04  0.0061
   1.0917E+01   1.1183E+01   1.0309E-04  0.0060
   1.1183E+01   1.1455E+01   1.0071E-04  0.0060
   1.1455E+01   1.1733E+01   9.9485E-05  0.0060
   1.1733E+01   1.2019E+01   9.8536E-05  0.0060
   1.2019E+01   1.2311E+01   9.9535E-05  0.0059
   1.2311E+01   1.2611E+01   9.7678E-05  0.0058
   1.2611E+01   1.2918E+01   9.6738E-05  0.0058
   1.2918E+01   1.3232E+01   9.5538E-05  0.0058
   1.3232E+01   1.3554E+01   9.6555E-05  0.0057
   1.3554E+01   1.3884E+01   9.5401E-05  0.0056
   1.3884E+01   1.4222E+01   9.4848E-05  0.0056
   1.4222E+01   1.4568E+01   9.3687E-05  0.0056
   1.4568E+01   1.4922E+01   9.4683E-05  0.0055
   1.4922E+01   1.5285E+01   9.4592E-05  0.0054
   1.5285E+01   1.5657E+01   9.4312E-05  0.0053
   1.5657E+01   1.6038E+01   9.3599E-05  0.0053
   1.6038E+01   1.6428E+01   9.3248E-05  0.0052
   1.6428E+01   1.6828E+01   9.4015E-05  0.0052
   1.6828E+01   1.7237E+01   9.4146E-05  0.0051
   1.7237E+01   1.7657E+01   9.3915E-05  0.0050
   1.7657E+01   1.8086E+01   9.4094E-05  0.0050
   1.8086E+01   1.8526E+01   9.4068E-05  0.0049
   1.8526E+01   1.8977E+01   9.4735E-05  0.0048
   1.8977E+01   1.9439E+01   9.4835E-05  0.0048
   1.9439E+01   1.9912E+01   9.4625E-05  0.0047
   1.9912E+01   2.0396E+01   9.5671E-05  0.0046
   2.0396E+01   2.0893E+01   9.6435E-05  0.0046
   2.0893E+01   2.1401E+01   9.6142E-05  0.0045
   2.1401E+01   2.1922E+01   9.7127E-05  0.0044
   2.1922E+01   2.2455E+01   9.6713E-05  0.0044
   2.2455E+01   2.3001E+01   9.7315E-05  0.0043
   2.3001E+01   2.3561E+01   9.7704E-05  0.0043
   2.3561E+01   2.4134E+01   9.7628E-05  0.0042
   2.4134E+01   2.4721E+01   9.9691E-05  0.0041
   2.4721E+01   2.5323E+01   9.9323E-05  0.0041
   2.5323E+01   2.5939E+01   9.9801E-05  0.0040
   2.5939E+01   2.6570E+01   9.9634E-05  0.0040
   2.6570E+01   2.7217E+01   1.0049E-04  0.0039
   2.7217E+01   2.7879E+01   1.0154E-04  0.0039
   2.7879E+01   2.8557E+01   1.0159E-04  0.0038
   2.8557E+01   2.9252E+01   1.0240E-04  0.0038
   2.9252E+01   2.9964E+01   1.0388E-04  0.0037
   2.9964E+01   3.0693E+01   1.0459E-04  0.0036
   3.0693E+01   3.1440E+01   1.0451E-04  0.0036
   3.1440E+01   3.2205E+01   1.0454E-04  0.0035
   3.2205E+01   3.2988E+01   1.0594E-04  0.0035
   3.2988E+01   3.3791E+01   1.0639E-04  0.0034
   3.3791E+01   3.4613E+01   1.0671E-04  0.0034
   3.4613E+01   3.5455E+01   1.0753E-04  0.0033
   3.5455E+01   3.6318E+01   1.0719E-04  0.0033
   3.6318E+01   3.7201E+01   1.0789E-04  0.0032
   3.7201E+01   3.8106E+01   1.0850E-04  0.0032
   3.8106E+01   3.9034E+01   1.0829E-04  0.0032
   3.9034E+01   3.9983E+01   1.0684E-04  0.0031
   3.9983E+01   4.0956E+01   1.0751E-04  0.0031
   4.0956E+01   4.1953E+01   1.0609E-04  0.0031
   4.1953E+01   4.2973E+01   1.0480E-04  0.0031
   4.2973E+01   4.4019E+01   1.0336E-04  0.0030
   4.4019E+01   4.5090E+01   1.0208E-04  0.0030
   4.5090E+01   4.6187E+01   9.9741E-05  0.0030
   4.6187E+01   4.7311E+01   9.7603E-05  0.0030
   4.7311E+01   4.8462E+01   9.5365E-05  0.0030
   4.8462E+01   4.9641E+01   9.2337E-05  0.0030
   4.9641E+01   5.0849E+01   8.9068E-05  0.0031
   5.0849E+01   5.2086E+01   8.6001E-05  0.0031
   5.2086E+01   5.3353E+01   8.2525E-05  0.0031
   5.3353E+01   5.4651E+01   7.9071E-05  0.0031
   5.4651E+01   5.5981E+01   7.5625E-05  0.0032
   5.5981E+01   5.7343E+01   7.1820E-05  0.0032
   5.7343E+01   5.8738E+01   6.8072E-05  0.0032
   5.8738E+01   6.0168E+01   6.4696E-05  0.0033
   6.0168E+01   6.1632E+01   6.0424E-05  0.0034
   6.1632E+01   6.3131E+01   5.7091E-05  0.0034
   6.3131E+01   6.4667E+01   5.3138E-05  0.0035
   6.4667E+01   6.6240E+01   5.0064E-05  0.0036
   6.6240E+01   6.7852E+01   4.6481E-05  0.0037
   6.7852E+01   6.9503E+01   4.3341E-05  0.0037
   6.9503E+01   7.1194E+01   4.0457E-05  0.0038
   7.1194E+01   7.2926E+01   3.7263E-05  0.0039
   7.2926E+01   7.4701E+01   3.4542E-05  0.0040
   7.4701E+01   7.6518E+01   3.1884E-05  0.0042
   7.6518E+01   7.8380E+01   2.9181E-05  0.0043
   7.8380E+01   8.0287E+01   2.6930E-05  0.0044
   8.0287E+01   8.2240E+01   2.4447E-05  0.0046
   8.2240E+01   8.4241E+01   2.2336E-05  0.0047
   8.4241E+01   8.6291E+01   2.0418E-05  0.0049
   8.6291E+01   8.8391E+01   1.8635E-05  0.0051
   8.8391E+01   9.0541E+01   1.7283E-05  0.0052
   9.0541E+01   9.2744E+01   1.5731E-05  0.0054
   9.2744E+01   9.5001E+01   1.4437E-05  0.0055
   9.5001E+01   9.7312E+01   1.3259E-05  0.0057
   9.7312E+01   9.9680E+01   1.2497E-05  0.0058
   9.9680E+01   1.0211E+02   1.1551E-05  0.0060
   1.0211E+02   1.0459E+02   1.0218E-05  0.0063
   1.0459E+02   1.0713E+02   8.6586E-06  0.0067
   1.0713E+02   1.0974E+02   7.4417E-06  0.0072
   1.0974E+02   1.1241E+02   5.9818E-06  0.0079
   1.1241E+02   1.1515E+02   4.6398E-06  0.0089
   1.1515E+02   1.1795E+02   3.5455E-06  0.0100
   1.1795E+02   1.2082E+02   2.4319E-06  0.0120
   1.2082E+02   1.2376E+02   1.1464E-06  0.0172
   1.2376E+02   1.2677E+02   1.4579E-07  0.0477
   1.2677E+02   1.2985E+02   0.0000E+00  0.0000
   1.2985E+02   1.3301E+02   0.0000E+00  0.0000
   1.3301E+02   1.3625E+02   0.0000E+00  0.0000
   1.3625E+02   1.3956E+02   0.0000E+00  0.0000
   1.3956E+02   1.4296E+02   0.0000E+00  0.0000
   1.4296E+02   1.4644E+02   0.0000E+00  0.0000
   1.4644E+02   1.5000E+02   0.0000E+00  0.0000

#   sum over                 6.9874E-05
'no. =    1   reg = 106 - 206'
msuc: {\huge [t-cross] in region mesh}
msdr: {\it plotted by \ANGEL \version}
msdl: {\it calculated by \PHITS  3.26}
wt: s(0.7)
\vspace{-3}
  region surface crossing
  area  &=&   1.0000E+00 [cm^2]
e:
 
# Information for Restart Calculation
# This calculation was newly started
# istdev =  2 # 1:Batch variance, 2:History variance
# resc2  = 1.00000000000000000E+09 # Total source weight or Total source weight / maxcas
# resc3  = 1.00000000000000000E+09 # Total history number or Total batch number
# maxcas =   500000000 # History / Batch, only used for istdev=1
# bitrseed = 0001001110011001001001110000100100110111001111011100001000101100 # bit data of rseed
