[ T-Cross ]
    title = [t-cross] in region mesh
     mesh =  reg            # mesh type is region-wise
      reg =    1            # number of crossing regions
      non     r-from    r-to       area
      1       100       200        1.000000    
   e-type =    3            # e-mesh is log given by emin, emax and ne
     emin =  1.0000000E-02  # minimum value of e-mesh points
     emax =   150.0000      # maximum value of e-mesh points
#    edel =  2.4039514E-02  # mesh width of e-mesh points
       ne =    400          # number of e-mesh points
#    data = ( e(i), i = 1, ne + 1 )
#           1.00000E-02  1.02433E-02  1.04925E-02  1.07478E-02  1.10093E-02
#           1.12772E-02  1.15516E-02  1.18326E-02  1.21205E-02  1.24154E-02
#           1.27175E-02  1.30269E-02  1.33439E-02  1.36686E-02  1.40011E-02
#           1.43418E-02  1.46907E-02  1.50482E-02  1.54143E-02  1.57894E-02
#           1.61735E-02  1.65670E-02  1.69701E-02  1.73830E-02  1.78060E-02
#           1.82392E-02  1.86830E-02  1.91375E-02  1.96032E-02  2.00801E-02
#           2.05687E-02  2.10692E-02  2.15818E-02  2.21069E-02  2.26448E-02
#           2.31957E-02  2.37601E-02  2.43382E-02  2.49304E-02  2.55369E-02
#           2.61583E-02  2.67947E-02  2.74467E-02  2.81145E-02  2.87985E-02
#           2.94992E-02  3.02169E-02  3.09521E-02  3.17052E-02  3.24766E-02
#           3.32668E-02  3.40762E-02  3.49053E-02  3.57546E-02  3.66246E-02
#           3.75157E-02  3.84284E-02  3.93634E-02  4.03212E-02  4.13022E-02
#           4.23071E-02  4.33365E-02  4.43909E-02  4.54710E-02  4.65773E-02
#           4.77106E-02  4.88714E-02  5.00605E-02  5.12785E-02  5.25262E-02
#           5.38042E-02  5.51133E-02  5.64542E-02  5.78278E-02  5.92348E-02
#           6.06760E-02  6.21523E-02  6.36645E-02  6.52135E-02  6.68002E-02
#           6.84255E-02  7.00904E-02  7.17957E-02  7.35426E-02  7.53319E-02
#           7.71648E-02  7.90423E-02  8.09655E-02  8.29354E-02  8.49533E-02
#           8.70203E-02  8.91376E-02  9.13064E-02  9.35279E-02  9.58035E-02
#           9.81345E-02  1.00522E-01  1.02968E-01  1.05473E-01  1.08040E-01
#           1.10668E-01  1.13361E-01  1.16119E-01  1.18944E-01  1.21838E-01
#           1.24803E-01  1.27839E-01  1.30950E-01  1.34136E-01  1.37399E-01
#           1.40742E-01  1.44167E-01  1.47675E-01  1.51268E-01  1.54948E-01
#           1.58718E-01  1.62580E-01  1.66535E-01  1.70587E-01  1.74738E-01
#           1.78989E-01  1.83344E-01  1.87805E-01  1.92375E-01  1.97055E-01
#           2.01850E-01  2.06761E-01  2.11792E-01  2.16945E-01  2.22223E-01
#           2.27630E-01  2.33169E-01  2.38842E-01  2.44653E-01  2.50605E-01
#           2.56703E-01  2.62949E-01  2.69346E-01  2.75900E-01  2.82613E-01
#           2.89489E-01  2.96532E-01  3.03747E-01  3.11138E-01  3.18708E-01
#           3.26462E-01  3.34405E-01  3.42542E-01  3.50876E-01  3.59413E-01
#           3.68158E-01  3.77116E-01  3.86291E-01  3.95690E-01  4.05317E-01
#           4.15179E-01  4.25281E-01  4.35628E-01  4.46227E-01  4.57084E-01
#           4.68205E-01  4.79597E-01  4.91266E-01  5.03219E-01  5.15463E-01
#           5.28005E-01  5.40851E-01  5.54011E-01  5.67490E-01  5.81298E-01
#           5.95441E-01  6.09929E-01  6.24769E-01  6.39970E-01  6.55541E-01
#           6.71491E-01  6.87828E-01  7.04564E-01  7.21706E-01  7.39266E-01
#           7.57253E-01  7.75678E-01  7.94551E-01  8.13883E-01  8.33685E-01
#           8.53969E-01  8.74747E-01  8.96030E-01  9.17831E-01  9.40163E-01
#           9.63038E-01  9.86469E-01  1.01047E+00  1.03506E+00  1.06024E+00
#           1.08604E+00  1.11246E+00  1.13953E+00  1.16725E+00  1.19565E+00
#           1.22474E+00  1.25454E+00  1.28507E+00  1.31633E+00  1.34836E+00
#           1.38117E+00  1.41477E+00  1.44920E+00  1.48446E+00  1.52057E+00
#           1.55757E+00  1.59547E+00  1.63429E+00  1.67405E+00  1.71478E+00
#           1.75650E+00  1.79924E+00  1.84302E+00  1.88786E+00  1.93379E+00
#           1.98084E+00  2.02904E+00  2.07841E+00  2.12898E+00  2.18078E+00
#           2.23384E+00  2.28819E+00  2.34386E+00  2.40089E+00  2.45930E+00
#           2.51914E+00  2.58043E+00  2.64322E+00  2.70753E+00  2.77341E+00
#           2.84088E+00  2.91001E+00  2.98081E+00  3.05333E+00  3.12762E+00
#           3.20372E+00  3.28167E+00  3.36152E+00  3.44330E+00  3.52708E+00
#           3.61290E+00  3.70080E+00  3.79085E+00  3.88308E+00  3.97756E+00
#           4.07434E+00  4.17347E+00  4.27501E+00  4.37903E+00  4.48557E+00
#           4.59471E+00  4.70650E+00  4.82102E+00  4.93832E+00  5.05847E+00
#           5.18155E+00  5.30762E+00  5.43676E+00  5.56904E+00  5.70453E+00
#           5.84333E+00  5.98550E+00  6.13114E+00  6.28031E+00  6.43312E+00
#           6.58964E+00  6.74997E+00  6.91420E+00  7.08243E+00  7.25475E+00
#           7.43126E+00  7.61207E+00  7.79728E+00  7.98700E+00  8.18133E+00
#           8.38038E+00  8.58428E+00  8.79315E+00  9.00709E+00  9.22624E+00
#           9.45072E+00  9.68067E+00  9.91620E+00  1.01575E+01  1.04046E+01
#           1.06578E+01  1.09171E+01  1.11827E+01  1.14548E+01  1.17335E+01
#           1.20190E+01  1.23114E+01  1.26109E+01  1.29178E+01  1.32321E+01
#           1.35540E+01  1.38838E+01  1.42216E+01  1.45676E+01  1.49221E+01
#           1.52851E+01  1.56570E+01  1.60380E+01  1.64282E+01  1.68279E+01
#           1.72374E+01  1.76568E+01  1.80864E+01  1.85264E+01  1.89772E+01
#           1.94389E+01  1.99119E+01  2.03963E+01  2.08926E+01  2.14009E+01
#           2.19216E+01  2.24550E+01  2.30014E+01  2.35610E+01  2.41343E+01
#           2.47215E+01  2.53230E+01  2.59391E+01  2.65702E+01  2.72167E+01
#           2.78789E+01  2.85572E+01  2.92520E+01  2.99637E+01  3.06928E+01
#           3.14396E+01  3.22045E+01  3.29881E+01  3.37907E+01  3.46128E+01
#           3.54550E+01  3.63177E+01  3.72013E+01  3.81064E+01  3.90336E+01
#           3.99833E+01  4.09561E+01  4.19526E+01  4.29734E+01  4.40189E+01
#           4.50900E+01  4.61870E+01  4.73108E+01  4.84619E+01  4.96410E+01
#           5.08488E+01  5.20860E+01  5.33533E+01  5.46514E+01  5.59812E+01
#           5.73432E+01  5.87384E+01  6.01676E+01  6.16315E+01  6.31311E+01
#           6.46671E+01  6.62405E+01  6.78522E+01  6.95031E+01  7.11941E+01
#           7.29263E+01  7.47007E+01  7.65182E+01  7.83800E+01  8.02870E+01
#           8.22405E+01  8.42414E+01  8.62911E+01  8.83906E+01  9.05412E+01
#           9.27442E+01  9.50007E+01  9.73122E+01  9.96799E+01  1.02105E+02
#           1.04589E+02  1.07134E+02  1.09741E+02  1.12411E+02  1.15146E+02
#           1.17948E+02  1.20817E+02  1.23757E+02  1.26768E+02  1.29852E+02
#           1.33012E+02  1.36248E+02  1.39563E+02  1.42959E+02  1.46437E+02
#           1.50000E+02
     unit =    2            # unit is [1/cm^2/(MeV/n)/source]
     axis =  eng            # axis of output
     file = detector-01.out  # file name of output for the above axis
   output = f-curr          # surface crossing forward current spectrum
     part =  neutron  
# kf/name :  2112     
#    used :        main (  %)        temp (  %)       total (  %)
#  memory :         414 (  0)           0 (  0)         414 (  0)

#------------------------------------------------------------------------------
#newpage:
#   no. =    1   reg = 100 - 200

x: Energy [MeV/n]
y:  F-Curr [1/cm^2/(MeV/n)/source]         
p: xlog ylog afac(0.8) form(0.9)
h: n            x            y(neutron ),hh0l   n 
#  e-lower      e-upper      neutron     r.err 
   1.0000E-02   1.0243E-02   5.4047E-03  0.0308
   1.0243E-02   1.0493E-02   5.1459E-03  0.0312
   1.0493E-02   1.0748E-02   5.4545E-03  0.0300
   1.0748E-02   1.1009E-02   5.1147E-03  0.0306
   1.1009E-02   1.1277E-02   5.2172E-03  0.0299
   1.1277E-02   1.1552E-02   5.1479E-03  0.0297
   1.1552E-02   1.1833E-02   5.1502E-03  0.0294
   1.1833E-02   1.2121E-02   4.8889E-03  0.0298
   1.2121E-02   1.2415E-02   4.7134E-03  0.0300
   1.2415E-02   1.2718E-02   4.8580E-03  0.0292
   1.2718E-02   1.3027E-02   4.7467E-03  0.0292
   1.3027E-02   1.3344E-02   4.5551E-03  0.0294
   1.3344E-02   1.3669E-02   4.5431E-03  0.0291
   1.3669E-02   1.4001E-02   4.3412E-03  0.0294
   1.4001E-02   1.4342E-02   4.1611E-03  0.0297
   1.4342E-02   1.4691E-02   4.2485E-03  0.0290
   1.4691E-02   1.5048E-02   4.2525E-03  0.0287
   1.5048E-02   1.5414E-02   3.9296E-03  0.0295
   1.5414E-02   1.5789E-02   3.7496E-03  0.0298
   1.5789E-02   1.6174E-02   3.8818E-03  0.0290
   1.6174E-02   1.6567E-02   3.5354E-03  0.0300
   1.6567E-02   1.6970E-02   3.6251E-03  0.0292
   1.6970E-02   1.7383E-02   3.4421E-03  0.0297
   1.7383E-02   1.7806E-02   3.4372E-03  0.0293
   1.7806E-02   1.8239E-02   3.3902E-03  0.0292
   1.8239E-02   1.8683E-02   3.5181E-03  0.0283
   1.8683E-02   1.9138E-02   3.3328E-03  0.0287
   1.9138E-02   1.9603E-02   3.1141E-03  0.0294
   1.9603E-02   2.0080E-02   3.0715E-03  0.0292
   2.0080E-02   2.0569E-02   3.0037E-03  0.0292
   2.0569E-02   2.1069E-02   3.1996E-03  0.0279
   2.1069E-02   2.1582E-02   2.8956E-03  0.0290
   2.1582E-02   2.2107E-02   2.9589E-03  0.0284
   2.2107E-02   2.2645E-02   2.8050E-03  0.0288
   2.2645E-02   2.3196E-02   2.6159E-03  0.0294
   2.3196E-02   2.3760E-02   2.6955E-03  0.0287
   2.3760E-02   2.4338E-02   2.7266E-03  0.0282
   2.4338E-02   2.4930E-02   2.6492E-03  0.0282
   2.4930E-02   2.5537E-02   2.4193E-03  0.0292
   2.5537E-02   2.6158E-02   2.4101E-03  0.0289
   2.6158E-02   2.6795E-02   2.4334E-03  0.0284
   2.6795E-02   2.7447E-02   2.3315E-03  0.0287
   2.7447E-02   2.8114E-02   2.3136E-03  0.0284
   2.8114E-02   2.8799E-02   2.3281E-03  0.0280
   2.8799E-02   2.9499E-02   2.3388E-03  0.0276
   2.9499E-02   3.0217E-02   2.2519E-03  0.0278
   3.0217E-02   3.0952E-02   2.1525E-03  0.0281
   3.0952E-02   3.1705E-02   2.1063E-03  0.0281
   3.1705E-02   3.2477E-02   2.0644E-03  0.0280
   3.2477E-02   3.3267E-02   2.0597E-03  0.0277
   3.3267E-02   3.4076E-02   1.9505E-03  0.0281
   3.4076E-02   3.4905E-02   1.9976E-03  0.0275
   3.4905E-02   3.5755E-02   1.8987E-03  0.0278
   3.5755E-02   3.6625E-02   1.7688E-03  0.0285
   3.6625E-02   3.7516E-02   1.7661E-03  0.0282
   3.7516E-02   3.8428E-02   1.7173E-03  0.0282
   3.8428E-02   3.9363E-02   1.7393E-03  0.0277
   3.9363E-02   4.0321E-02   1.7567E-03  0.0273
   4.0321E-02   4.1302E-02   1.7023E-03  0.0274
   4.1302E-02   4.2307E-02   1.6681E-03  0.0273
   4.2307E-02   4.3337E-02   1.5920E-03  0.0276
   4.3337E-02   4.4391E-02   1.5411E-03  0.0277
   4.4391E-02   4.5471E-02   1.5659E-03  0.0272
   4.5471E-02   4.6577E-02   1.5095E-03  0.0274
   4.6577E-02   4.7711E-02   1.4698E-03  0.0274
   4.7711E-02   4.8871E-02   1.4397E-03  0.0273
   4.8871E-02   5.0061E-02   1.4034E-03  0.0274
   5.0061E-02   5.1279E-02   1.3619E-03  0.0275
   5.1279E-02   5.2526E-02   1.3460E-03  0.0273
   5.2526E-02   5.3804E-02   1.3224E-03  0.0272
   5.3804E-02   5.5113E-02   1.3005E-03  0.0271
   5.5113E-02   5.6454E-02   1.2249E-03  0.0276
   5.6454E-02   5.7828E-02   1.2795E-03  0.0267
   5.7828E-02   5.9235E-02   1.1860E-03  0.0274
   5.9235E-02   6.0676E-02   1.1978E-03  0.0269
   6.0676E-02   6.2152E-02   1.1592E-03  0.0270
   6.2152E-02   6.3665E-02   1.1192E-03  0.0272
   6.3665E-02   6.5214E-02   1.0975E-03  0.0271
   6.5214E-02   6.6800E-02   1.0667E-03  0.0272
   6.6800E-02   6.8426E-02   1.1036E-03  0.0264
   6.8426E-02   7.0090E-02   1.0414E-03  0.0269
   7.0090E-02   7.1796E-02   1.0130E-03  0.0269
   7.1796E-02   7.3543E-02   9.7891E-04  0.0270
   7.3543E-02   7.5332E-02   9.9128E-04  0.0265
   7.5332E-02   7.7165E-02   9.6364E-04  0.0266
   7.7165E-02   7.9042E-02   9.1546E-04  0.0270
   7.9042E-02   8.0965E-02   9.1516E-04  0.0267
   8.0965E-02   8.2935E-02   8.7661E-04  0.0269
   8.2935E-02   8.4953E-02   8.6291E-04  0.0268
   8.4953E-02   8.7020E-02   8.5511E-04  0.0266
   8.7020E-02   8.9138E-02   8.5310E-04  0.0263
   8.9138E-02   9.1306E-02   8.4321E-04  0.0261
   9.1306E-02   9.3528E-02   8.0912E-04  0.0264
   9.3528E-02   9.5804E-02   7.7287E-04  0.0267
   9.5804E-02   9.8134E-02   7.6256E-04  0.0265
   9.8134E-02   1.0052E-01   7.4497E-04  0.0265
   1.0052E-01   1.0297E-01   7.3340E-04  0.0264
   1.0297E-01   1.0547E-01   7.1898E-04  0.0263
   1.0547E-01   1.0804E-01   7.1359E-04  0.0261
   1.0804E-01   1.1067E-01   6.9093E-04  0.0262
   1.1067E-01   1.1336E-01   6.7081E-04  0.0263
   1.1336E-01   1.1612E-01   6.3629E-04  0.0267
   1.1612E-01   1.1894E-01   6.5967E-04  0.0259
   1.1894E-01   1.2184E-01   6.0081E-04  0.0268
   1.2184E-01   1.2480E-01   6.4346E-04  0.0256
   1.2480E-01   1.2784E-01   6.0183E-04  0.0262
   1.2784E-01   1.3095E-01   6.0663E-04  0.0257
   1.3095E-01   1.3414E-01   5.5338E-04  0.0266
   1.3414E-01   1.3740E-01   5.5038E-04  0.0264
   1.3740E-01   1.4074E-01   5.6236E-04  0.0258
   1.4074E-01   1.4417E-01   5.2747E-04  0.0263
   1.4417E-01   1.4767E-01   5.1743E-04  0.0262
   1.4767E-01   1.5127E-01   5.3993E-04  0.0254
   1.5127E-01   1.5495E-01   5.1760E-04  0.0256
   1.5495E-01   1.5872E-01   5.0696E-04  0.0256
   1.5872E-01   1.6258E-01   4.8262E-04  0.0259
   1.6258E-01   1.6654E-01   4.6199E-04  0.0262
   1.6654E-01   1.7059E-01   4.4485E-04  0.0263
   1.7059E-01   1.7474E-01   4.6018E-04  0.0256
   1.7474E-01   1.7899E-01   4.5337E-04  0.0255
   1.7899E-01   1.8334E-01   4.2681E-04  0.0259
   1.8334E-01   1.8781E-01   3.9818E-04  0.0265
   1.8781E-01   1.9237E-01   4.0596E-04  0.0260
   1.9237E-01   1.9706E-01   3.8937E-04  0.0262
   1.9706E-01   2.0185E-01   3.7569E-04  0.0263
   2.0185E-01   2.0676E-01   3.8026E-04  0.0259
   2.0676E-01   2.1179E-01   3.5781E-04  0.0264
   2.1179E-01   2.1694E-01   3.4785E-04  0.0264
   2.1694E-01   2.2222E-01   3.3841E-04  0.0265
   2.2222E-01   2.2763E-01   3.4655E-04  0.0258
   2.2763E-01   2.3317E-01   3.3561E-04  0.0259
   2.3317E-01   2.3884E-01   3.2764E-04  0.0259
   2.3884E-01   2.4465E-01   3.1383E-04  0.0262
   2.4465E-01   2.5061E-01   3.1247E-04  0.0259
   2.5061E-01   2.5670E-01   2.8332E-04  0.0269
   2.5670E-01   2.6295E-01   3.0441E-04  0.0256
   2.6295E-01   2.6935E-01   2.9190E-04  0.0259
   2.6935E-01   2.7590E-01   2.8077E-04  0.0261
   2.7590E-01   2.8261E-01   2.7010E-04  0.0263
   2.8261E-01   2.8949E-01   2.6541E-04  0.0262
   2.8949E-01   2.9653E-01   2.5520E-04  0.0264
   2.9653E-01   3.0375E-01   2.3996E-04  0.0269
   3.0375E-01   3.1114E-01   2.4068E-04  0.0265
   3.1114E-01   3.1871E-01   2.2935E-04  0.0268
   3.1871E-01   3.2646E-01   2.1633E-04  0.0273
   3.2646E-01   3.3441E-01   2.2551E-04  0.0264
   3.3441E-01   3.4254E-01   2.2031E-04  0.0264
   3.4254E-01   3.5088E-01   2.1537E-04  0.0264
   3.5088E-01   3.5941E-01   2.0396E-04  0.0268
   3.5941E-01   3.6816E-01   1.9969E-04  0.0268
   3.6816E-01   3.7712E-01   1.9606E-04  0.0267
   3.7712E-01   3.8629E-01   1.8337E-04  0.0273
   3.8629E-01   3.9569E-01   1.8156E-04  0.0271
   3.9569E-01   4.0532E-01   1.7229E-04  0.0275
   4.0532E-01   4.1518E-01   1.6807E-04  0.0275
   4.1518E-01   4.2528E-01   1.5493E-04  0.0283
   4.2528E-01   4.3563E-01   1.5306E-04  0.0281
   4.3563E-01   4.4623E-01   1.5614E-04  0.0275
   4.4623E-01   4.5708E-01   1.5036E-04  0.0277
   4.5708E-01   4.6821E-01   1.4466E-04  0.0279
   4.6821E-01   4.7960E-01   1.3914E-04  0.0281
   4.7960E-01   4.9127E-01   1.3904E-04  0.0278
   4.9127E-01   5.0322E-01   1.2685E-04  0.0287
   5.0322E-01   5.1546E-01   1.2394E-04  0.0287
   5.1546E-01   5.2800E-01   1.2449E-04  0.0283
   5.2800E-01   5.4085E-01   1.1627E-04  0.0289
   5.4085E-01   5.5401E-01   1.1342E-04  0.0289
   5.5401E-01   5.6749E-01   1.0646E-04  0.0295
   5.6749E-01   5.8130E-01   9.7094E-05  0.0305
   5.8130E-01   5.9544E-01   1.0323E-04  0.0293
   5.9544E-01   6.0993E-01   9.6462E-05  0.0299
   6.0993E-01   6.2477E-01   9.0465E-05  0.0305
   6.2477E-01   6.3997E-01   8.8234E-05  0.0305
   6.3997E-01   6.5554E-01   8.3730E-05  0.0310
   6.5554E-01   6.7149E-01   8.0879E-05  0.0311
   6.7149E-01   6.8783E-01   7.2378E-05  0.0325
   6.8783E-01   7.0456E-01   7.2974E-05  0.0320
   7.0456E-01   7.2171E-01   7.1678E-05  0.0319
   7.2171E-01   7.3927E-01   6.7911E-05  0.0324
   7.3927E-01   7.5725E-01   6.8418E-05  0.0319
   7.5725E-01   7.7568E-01   6.3027E-05  0.0328
   7.7568E-01   7.9455E-01   6.0537E-05  0.0331
   7.9455E-01   8.1388E-01   5.5155E-05  0.0342
   8.1388E-01   8.3368E-01   5.5012E-05  0.0339
   8.3368E-01   8.5397E-01   5.6571E-05  0.0330
   8.5397E-01   8.7475E-01   5.1798E-05  0.0341
   8.7475E-01   8.9603E-01   4.9041E-05  0.0346
   8.9603E-01   9.1783E-01   4.6271E-05  0.0352
   9.1783E-01   9.4016E-01   4.7019E-05  0.0345
   9.4016E-01   9.6304E-01   4.1476E-05  0.0363
   9.6304E-01   9.8647E-01   4.2518E-05  0.0354
   9.8647E-01   1.0105E+00   4.1716E-05  0.0353
   1.0105E+00   1.0351E+00   4.1589E-05  0.0350
   1.0351E+00   1.0602E+00   4.0949E-05  0.0348
   1.0602E+00   1.0860E+00   4.2351E-05  0.0338
   1.0860E+00   1.1125E+00   4.4916E-05  0.0324
   1.1125E+00   1.1395E+00   4.5512E-05  0.0319
   1.1395E+00   1.1673E+00   5.0269E-05  0.0299
   1.1673E+00   1.1957E+00   5.2861E-05  0.0289
   1.1957E+00   1.2247E+00   5.6847E-05  0.0275
   1.2247E+00   1.2545E+00   5.5203E-05  0.0276
   1.2545E+00   1.2851E+00   5.8151E-05  0.0265
   1.2851E+00   1.3163E+00   6.2407E-05  0.0253
   1.3163E+00   1.3484E+00   5.7724E-05  0.0260
   1.3484E+00   1.3812E+00   6.3402E-05  0.0245
   1.3812E+00   1.4148E+00   6.6397E-05  0.0237
   1.4148E+00   1.4492E+00   6.8269E-05  0.0231
   1.4492E+00   1.4845E+00   6.9271E-05  0.0226
   1.4845E+00   1.5206E+00   6.7626E-05  0.0226
   1.5206E+00   1.5576E+00   7.0614E-05  0.0219
   1.5576E+00   1.5955E+00   6.8739E-05  0.0219
   1.5955E+00   1.6343E+00   7.2178E-05  0.0211
   1.6343E+00   1.6741E+00   7.7427E-05  0.0201
   1.6741E+00   1.7148E+00   7.5434E-05  0.0202
   1.7148E+00   1.7565E+00   7.8975E-05  0.0195
   1.7565E+00   1.7992E+00   7.6719E-05  0.0195
   1.7992E+00   1.8430E+00   8.0008E-05  0.0189
   1.8430E+00   1.8879E+00   7.9473E-05  0.0187
   1.8879E+00   1.9338E+00   8.0171E-05  0.0184
   1.9338E+00   1.9808E+00   8.0923E-05  0.0181
   1.9808E+00   2.0290E+00   7.9987E-05  0.0180
   2.0290E+00   2.0784E+00   8.1581E-05  0.0176
   2.0784E+00   2.1290E+00   8.0953E-05  0.0175
   2.1290E+00   2.1808E+00   8.1323E-05  0.0172
   2.1808E+00   2.2338E+00   8.0828E-05  0.0171
   2.2338E+00   2.2882E+00   7.6770E-05  0.0173
   2.2882E+00   2.3439E+00   7.9841E-05  0.0168
   2.3439E+00   2.4009E+00   8.1298E-05  0.0164
   2.4009E+00   2.4593E+00   8.1282E-05  0.0162
   2.4593E+00   2.5191E+00   7.9069E-05  0.0163
   2.5191E+00   2.5804E+00   7.8659E-05  0.0161
   2.5804E+00   2.6432E+00   7.3486E-05  0.0165
   2.6432E+00   2.7075E+00   7.2460E-05  0.0164
   2.7075E+00   2.7734E+00   7.2067E-05  0.0162
   2.7734E+00   2.8409E+00   7.1948E-05  0.0160
   2.8409E+00   2.9100E+00   7.1632E-05  0.0159
   2.9100E+00   2.9808E+00   7.1537E-05  0.0157
   2.9808E+00   3.0533E+00   6.7459E-05  0.0160
   3.0533E+00   3.1276E+00   6.6176E-05  0.0159
   3.1276E+00   3.2037E+00   6.3553E-05  0.0161
   3.2037E+00   3.2817E+00   6.0825E-05  0.0162
   3.2817E+00   3.3615E+00   5.9787E-05  0.0162
   3.3615E+00   3.4433E+00   5.5662E-05  0.0166
   3.4433E+00   3.5271E+00   5.5026E-05  0.0165
   3.5271E+00   3.6129E+00   5.1942E-05  0.0167
   3.6129E+00   3.7008E+00   4.9841E-05  0.0169
   3.7008E+00   3.7908E+00   5.0212E-05  0.0166
   3.7908E+00   3.8831E+00   4.5739E-05  0.0172
   3.8831E+00   3.9776E+00   4.5778E-05  0.0170
   3.9776E+00   4.0743E+00   4.3954E-05  0.0171
   4.0743E+00   4.1735E+00   4.0987E-05  0.0175
   4.1735E+00   4.2750E+00   3.8715E-05  0.0178
   4.2750E+00   4.3790E+00   3.5356E-05  0.0184
   4.3790E+00   4.4856E+00   3.4422E-05  0.0185
   4.4856E+00   4.5947E+00   3.3043E-05  0.0186
   4.5947E+00   4.7065E+00   3.1414E-05  0.0189
   4.7065E+00   4.8210E+00   2.9407E-05  0.0193
   4.8210E+00   4.9383E+00   2.8810E-05  0.0192
   4.9383E+00   5.0585E+00   2.7527E-05  0.0194
   5.0585E+00   5.1815E+00   2.5289E-05  0.0200
   5.1815E+00   5.3076E+00   2.3667E-05  0.0205
   5.3076E+00   5.4368E+00   2.2292E-05  0.0208
   5.4368E+00   5.5690E+00   2.1394E-05  0.0210
   5.5690E+00   5.7045E+00   2.0332E-05  0.0213
   5.7045E+00   5.8433E+00   1.8949E-05  0.0218
   5.8433E+00   5.9855E+00   1.8270E-05  0.0219
   5.9855E+00   6.1311E+00   1.7475E-05  0.0222
   6.1311E+00   6.2803E+00   1.6248E-05  0.0227
   6.2803E+00   6.4331E+00   1.5100E-05  0.0233
   6.4331E+00   6.5896E+00   1.4350E-05  0.0236
   6.5896E+00   6.7500E+00   1.3710E-05  0.0238
   6.7500E+00   6.9142E+00   1.2569E-05  0.0246
   6.9142E+00   7.0824E+00   1.2537E-05  0.0243
   7.0824E+00   7.2548E+00   1.2199E-05  0.0244
   7.2548E+00   7.4313E+00   1.0579E-05  0.0259
   7.4313E+00   7.6121E+00   1.0994E-05  0.0251
   7.6121E+00   7.7973E+00   1.0198E-05  0.0257
   7.7973E+00   7.9870E+00   1.0761E-05  0.0247
   7.9870E+00   8.1813E+00   9.7798E-06  0.0256
   8.1813E+00   8.3804E+00   9.6681E-06  0.0255
   8.3804E+00   8.5843E+00   9.2579E-06  0.0257
   8.5843E+00   8.7931E+00   8.9377E-06  0.0259
   8.7931E+00   9.0071E+00   8.5390E-06  0.0262
   9.0071E+00   9.2262E+00   8.9978E-06  0.0252
   9.2262E+00   9.4507E+00   8.3971E-06  0.0257
   9.4507E+00   9.6807E+00   8.1977E-06  0.0257
   9.6807E+00   9.9162E+00   8.0587E-06  0.0257
   9.9162E+00   1.0157E+01   7.9294E-06  0.0256
   1.0157E+01   1.0405E+01   7.6829E-06  0.0256
   1.0405E+01   1.0658E+01   7.9720E-06  0.0249
   1.0658E+01   1.0917E+01   7.7561E-06  0.0249
   1.0917E+01   1.1183E+01   7.4966E-06  0.0250
   1.1183E+01   1.1455E+01   7.5735E-06  0.0246
   1.1455E+01   1.1733E+01   7.4878E-06  0.0245
   1.1733E+01   1.2019E+01   7.1479E-06  0.0247
   1.2019E+01   1.2311E+01   7.2795E-06  0.0242
   1.2311E+01   1.2611E+01   7.5072E-06  0.0236
   1.2611E+01   1.2918E+01   7.2454E-06  0.0237
   1.2918E+01   1.3232E+01   7.1608E-06  0.0236
   1.3232E+01   1.3554E+01   7.4100E-06  0.0229
   1.3554E+01   1.3884E+01   7.2870E-06  0.0228
   1.3884E+01   1.4222E+01   7.3027E-06  0.0225
   1.4222E+01   1.4568E+01   7.3694E-06  0.0221
   1.4568E+01   1.4922E+01   7.1062E-06  0.0223
   1.4922E+01   1.5285E+01   7.1750E-06  0.0219
   1.5285E+01   1.5657E+01   6.9374E-06  0.0220
   1.5657E+01   1.6038E+01   6.7709E-06  0.0220
   1.6038E+01   1.6428E+01   6.7110E-06  0.0218
   1.6428E+01   1.6828E+01   6.8190E-06  0.0214
   1.6828E+01   1.7237E+01   6.8081E-06  0.0212
   1.7237E+01   1.7657E+01   6.7791E-06  0.0210
   1.7657E+01   1.8086E+01   6.5337E-06  0.0211
   1.8086E+01   1.8526E+01   6.7619E-06  0.0205
   1.8526E+01   1.8977E+01   6.9466E-06  0.0200
   1.8977E+01   1.9439E+01   6.6015E-06  0.0202
   1.9439E+01   1.9912E+01   6.5319E-06  0.0201
   1.9912E+01   2.0396E+01   6.4065E-06  0.0201
   2.0396E+01   2.0893E+01   6.2870E-06  0.0200
   2.0893E+01   2.1401E+01   6.2385E-06  0.0199
   2.1401E+01   2.1922E+01   6.3232E-06  0.0195
   2.1922E+01   2.2455E+01   6.2644E-06  0.0193
   2.2455E+01   2.3001E+01   6.2460E-06  0.0191
   2.3001E+01   2.3561E+01   6.0150E-06  0.0193
   2.3561E+01   2.4134E+01   5.9114E-06  0.0192
   2.4134E+01   2.4721E+01   5.8540E-06  0.0191
   2.4721E+01   2.5323E+01   5.8542E-06  0.0188
   2.5323E+01   2.5939E+01   5.8247E-06  0.0187
   2.5939E+01   2.6570E+01   5.3734E-06  0.0192
   2.6570E+01   2.7217E+01   5.5165E-06  0.0187
   2.7217E+01   2.7879E+01   5.5817E-06  0.0184
   2.7879E+01   2.8557E+01   5.4326E-06  0.0184
   2.8557E+01   2.9252E+01   5.2586E-06  0.0185
   2.9252E+01   2.9964E+01   5.1530E-06  0.0185
   2.9964E+01   3.0693E+01   5.2329E-06  0.0181
   3.0693E+01   3.1440E+01   4.9730E-06  0.0183
   3.1440E+01   3.2205E+01   4.8516E-06  0.0184
   3.2205E+01   3.2988E+01   4.8257E-06  0.0182
   3.2988E+01   3.3791E+01   4.8201E-06  0.0180
   3.3791E+01   3.4613E+01   4.5308E-06  0.0183
   3.4613E+01   3.5455E+01   4.3979E-06  0.0184
   3.5455E+01   3.6318E+01   4.3674E-06  0.0182
   3.6318E+01   3.7201E+01   4.2311E-06  0.0183
   3.7201E+01   3.8106E+01   4.1720E-06  0.0182
   3.8106E+01   3.9034E+01   3.9745E-06  0.0184
   3.9034E+01   3.9983E+01   3.7972E-06  0.0186
   3.9983E+01   4.0956E+01   3.7275E-06  0.0186
   4.0956E+01   4.1953E+01   3.6014E-06  0.0187
   4.1953E+01   4.2973E+01   3.4338E-06  0.0189
   4.2973E+01   4.4019E+01   3.3474E-06  0.0189
   4.4019E+01   4.5090E+01   3.2212E-06  0.0190
   4.5090E+01   4.6187E+01   3.1345E-06  0.0191
   4.6187E+01   4.7311E+01   2.9377E-06  0.0195
   4.7311E+01   4.8462E+01   2.8190E-06  0.0196
   4.8462E+01   4.9641E+01   2.7351E-06  0.0197
   4.9641E+01   5.0849E+01   2.7612E-06  0.0194
   5.0849E+01   5.2086E+01   2.5319E-06  0.0200
   5.2086E+01   5.3353E+01   2.5497E-06  0.0197
   5.3353E+01   5.4651E+01   2.3524E-06  0.0202
   5.4651E+01   5.5981E+01   2.3182E-06  0.0201
   5.5981E+01   5.7343E+01   2.2383E-06  0.0202
   5.7343E+01   5.8738E+01   2.1332E-06  0.0205
   5.8738E+01   6.0168E+01   2.0528E-06  0.0206
   6.0168E+01   6.1632E+01   1.9707E-06  0.0208
   6.1632E+01   6.3131E+01   1.8522E-06  0.0212
   6.3131E+01   6.4667E+01   1.7505E-06  0.0216
   6.4667E+01   6.6240E+01   1.7121E-06  0.0215
   6.6240E+01   6.7852E+01   1.5907E-06  0.0221
   6.7852E+01   6.9503E+01   1.5719E-06  0.0219
   6.9503E+01   7.1194E+01   1.4163E-06  0.0228
   7.1194E+01   7.2926E+01   1.3278E-06  0.0233
   7.2926E+01   7.4701E+01   1.2688E-06  0.0236
   7.4701E+01   7.6518E+01   1.1699E-06  0.0242
   7.6518E+01   7.8380E+01   1.0595E-06  0.0252
   7.8380E+01   8.0287E+01   9.5501E-07  0.0262
   8.0287E+01   8.2240E+01   8.4978E-07  0.0274
   8.2240E+01   8.4241E+01   7.3714E-07  0.0291
   8.4241E+01   8.6291E+01   6.0010E-07  0.0319
   8.6291E+01   8.8391E+01   4.4772E-07  0.0365
   8.8391E+01   9.0541E+01   2.6737E-07  0.0466
   9.0541E+01   9.2744E+01   4.8798E-08  0.1078
   9.2744E+01   9.5001E+01   0.0000E+00  0.0000
   9.5001E+01   9.7312E+01   0.0000E+00  0.0000
   9.7312E+01   9.9680E+01   0.0000E+00  0.0000
   9.9680E+01   1.0211E+02   0.0000E+00  0.0000
   1.0211E+02   1.0459E+02   0.0000E+00  0.0000
   1.0459E+02   1.0713E+02   0.0000E+00  0.0000
   1.0713E+02   1.0974E+02   0.0000E+00  0.0000
   1.0974E+02   1.1241E+02   0.0000E+00  0.0000
   1.1241E+02   1.1515E+02   0.0000E+00  0.0000
   1.1515E+02   1.1795E+02   0.0000E+00  0.0000
   1.1795E+02   1.2082E+02   0.0000E+00  0.0000
   1.2082E+02   1.2376E+02   0.0000E+00  0.0000
   1.2376E+02   1.2677E+02   0.0000E+00  0.0000
   1.2677E+02   1.2985E+02   0.0000E+00  0.0000
   1.2985E+02   1.3301E+02   0.0000E+00  0.0000
   1.3301E+02   1.3625E+02   0.0000E+00  0.0000
   1.3625E+02   1.3956E+02   0.0000E+00  0.0000
   1.3956E+02   1.4296E+02   0.0000E+00  0.0000
   1.4296E+02   1.4644E+02   0.0000E+00  0.0000
   1.4644E+02   1.5000E+02   0.0000E+00  0.0000

#   sum over                 5.7894E-06
'no. =    1   reg = 100 - 200'
msuc: {\huge [t-cross] in region mesh}
msdr: {\it plotted by \ANGEL \version}
msdl: {\it calculated by \PHITS  3.26}
wt: s(0.7)
\vspace{-3}
  region surface crossing
  area  &=&   1.0000E+00 [cm^2]
e:
 
# Information for Restart Calculation
# This calculation was newly started
# istdev =  2 # 1:Batch variance, 2:History variance
# resc2  = 8.00000000000000000E+08 # Total source weight or Total source weight / maxcas
# resc3  = 8.00000000000000000E+08 # Total history number or Total batch number
# maxcas =   100000000 # History / Batch, only used for istdev=1
# bitrseed = 0100001000001110010000000000111111001100010000001010100011010001 # bit data of rseed
