[ T-Cross ]
    title = [t-cross] in region mesh
     mesh =  reg            # mesh type is region-wise
      reg =    1            # number of crossing regions
      non     r-from    r-to       area
      1       119       219        1.000000    
   e-type =    3            # e-mesh is log given by emin, emax and ne
     emin =  1.0000000E-02  # minimum value of e-mesh points
     emax =   150.0000      # maximum value of e-mesh points
#    edel =  2.4039514E-02  # mesh width of e-mesh points
       ne =    400          # number of e-mesh points
#    data = ( e(i), i = 1, ne + 1 )
#           1.00000E-02  1.02433E-02  1.04925E-02  1.07478E-02  1.10093E-02
#           1.12772E-02  1.15516E-02  1.18326E-02  1.21205E-02  1.24154E-02
#           1.27175E-02  1.30269E-02  1.33439E-02  1.36686E-02  1.40011E-02
#           1.43418E-02  1.46907E-02  1.50482E-02  1.54143E-02  1.57894E-02
#           1.61735E-02  1.65670E-02  1.69701E-02  1.73830E-02  1.78060E-02
#           1.82392E-02  1.86830E-02  1.91375E-02  1.96032E-02  2.00801E-02
#           2.05687E-02  2.10692E-02  2.15818E-02  2.21069E-02  2.26448E-02
#           2.31957E-02  2.37601E-02  2.43382E-02  2.49304E-02  2.55369E-02
#           2.61583E-02  2.67947E-02  2.74467E-02  2.81145E-02  2.87985E-02
#           2.94992E-02  3.02169E-02  3.09521E-02  3.17052E-02  3.24766E-02
#           3.32668E-02  3.40762E-02  3.49053E-02  3.57546E-02  3.66246E-02
#           3.75157E-02  3.84284E-02  3.93634E-02  4.03212E-02  4.13022E-02
#           4.23071E-02  4.33365E-02  4.43909E-02  4.54710E-02  4.65773E-02
#           4.77106E-02  4.88714E-02  5.00605E-02  5.12785E-02  5.25262E-02
#           5.38042E-02  5.51133E-02  5.64542E-02  5.78278E-02  5.92348E-02
#           6.06760E-02  6.21523E-02  6.36645E-02  6.52135E-02  6.68002E-02
#           6.84255E-02  7.00904E-02  7.17957E-02  7.35426E-02  7.53319E-02
#           7.71648E-02  7.90423E-02  8.09655E-02  8.29354E-02  8.49533E-02
#           8.70203E-02  8.91376E-02  9.13064E-02  9.35279E-02  9.58035E-02
#           9.81345E-02  1.00522E-01  1.02968E-01  1.05473E-01  1.08040E-01
#           1.10668E-01  1.13361E-01  1.16119E-01  1.18944E-01  1.21838E-01
#           1.24803E-01  1.27839E-01  1.30950E-01  1.34136E-01  1.37399E-01
#           1.40742E-01  1.44167E-01  1.47675E-01  1.51268E-01  1.54948E-01
#           1.58718E-01  1.62580E-01  1.66535E-01  1.70587E-01  1.74738E-01
#           1.78989E-01  1.83344E-01  1.87805E-01  1.92375E-01  1.97055E-01
#           2.01850E-01  2.06761E-01  2.11792E-01  2.16945E-01  2.22223E-01
#           2.27630E-01  2.33169E-01  2.38842E-01  2.44653E-01  2.50605E-01
#           2.56703E-01  2.62949E-01  2.69346E-01  2.75900E-01  2.82613E-01
#           2.89489E-01  2.96532E-01  3.03747E-01  3.11138E-01  3.18708E-01
#           3.26462E-01  3.34405E-01  3.42542E-01  3.50876E-01  3.59413E-01
#           3.68158E-01  3.77116E-01  3.86291E-01  3.95690E-01  4.05317E-01
#           4.15179E-01  4.25281E-01  4.35628E-01  4.46227E-01  4.57084E-01
#           4.68205E-01  4.79597E-01  4.91266E-01  5.03219E-01  5.15463E-01
#           5.28005E-01  5.40851E-01  5.54011E-01  5.67490E-01  5.81298E-01
#           5.95441E-01  6.09929E-01  6.24769E-01  6.39970E-01  6.55541E-01
#           6.71491E-01  6.87828E-01  7.04564E-01  7.21706E-01  7.39266E-01
#           7.57253E-01  7.75678E-01  7.94551E-01  8.13883E-01  8.33685E-01
#           8.53969E-01  8.74747E-01  8.96030E-01  9.17831E-01  9.40163E-01
#           9.63038E-01  9.86469E-01  1.01047E+00  1.03506E+00  1.06024E+00
#           1.08604E+00  1.11246E+00  1.13953E+00  1.16725E+00  1.19565E+00
#           1.22474E+00  1.25454E+00  1.28507E+00  1.31633E+00  1.34836E+00
#           1.38117E+00  1.41477E+00  1.44920E+00  1.48446E+00  1.52057E+00
#           1.55757E+00  1.59547E+00  1.63429E+00  1.67405E+00  1.71478E+00
#           1.75650E+00  1.79924E+00  1.84302E+00  1.88786E+00  1.93379E+00
#           1.98084E+00  2.02904E+00  2.07841E+00  2.12898E+00  2.18078E+00
#           2.23384E+00  2.28819E+00  2.34386E+00  2.40089E+00  2.45930E+00
#           2.51914E+00  2.58043E+00  2.64322E+00  2.70753E+00  2.77341E+00
#           2.84088E+00  2.91001E+00  2.98081E+00  3.05333E+00  3.12762E+00
#           3.20372E+00  3.28167E+00  3.36152E+00  3.44330E+00  3.52708E+00
#           3.61290E+00  3.70080E+00  3.79085E+00  3.88308E+00  3.97756E+00
#           4.07434E+00  4.17347E+00  4.27501E+00  4.37903E+00  4.48557E+00
#           4.59471E+00  4.70650E+00  4.82102E+00  4.93832E+00  5.05847E+00
#           5.18155E+00  5.30762E+00  5.43676E+00  5.56904E+00  5.70453E+00
#           5.84333E+00  5.98550E+00  6.13114E+00  6.28031E+00  6.43312E+00
#           6.58964E+00  6.74997E+00  6.91420E+00  7.08243E+00  7.25475E+00
#           7.43126E+00  7.61207E+00  7.79728E+00  7.98700E+00  8.18133E+00
#           8.38038E+00  8.58428E+00  8.79315E+00  9.00709E+00  9.22624E+00
#           9.45072E+00  9.68067E+00  9.91620E+00  1.01575E+01  1.04046E+01
#           1.06578E+01  1.09171E+01  1.11827E+01  1.14548E+01  1.17335E+01
#           1.20190E+01  1.23114E+01  1.26109E+01  1.29178E+01  1.32321E+01
#           1.35540E+01  1.38838E+01  1.42216E+01  1.45676E+01  1.49221E+01
#           1.52851E+01  1.56570E+01  1.60380E+01  1.64282E+01  1.68279E+01
#           1.72374E+01  1.76568E+01  1.80864E+01  1.85264E+01  1.89772E+01
#           1.94389E+01  1.99119E+01  2.03963E+01  2.08926E+01  2.14009E+01
#           2.19216E+01  2.24550E+01  2.30014E+01  2.35610E+01  2.41343E+01
#           2.47215E+01  2.53230E+01  2.59391E+01  2.65702E+01  2.72167E+01
#           2.78789E+01  2.85572E+01  2.92520E+01  2.99637E+01  3.06928E+01
#           3.14396E+01  3.22045E+01  3.29881E+01  3.37907E+01  3.46128E+01
#           3.54550E+01  3.63177E+01  3.72013E+01  3.81064E+01  3.90336E+01
#           3.99833E+01  4.09561E+01  4.19526E+01  4.29734E+01  4.40189E+01
#           4.50900E+01  4.61870E+01  4.73108E+01  4.84619E+01  4.96410E+01
#           5.08488E+01  5.20860E+01  5.33533E+01  5.46514E+01  5.59812E+01
#           5.73432E+01  5.87384E+01  6.01676E+01  6.16315E+01  6.31311E+01
#           6.46671E+01  6.62405E+01  6.78522E+01  6.95031E+01  7.11941E+01
#           7.29263E+01  7.47007E+01  7.65182E+01  7.83800E+01  8.02870E+01
#           8.22405E+01  8.42414E+01  8.62911E+01  8.83906E+01  9.05412E+01
#           9.27442E+01  9.50007E+01  9.73122E+01  9.96799E+01  1.02105E+02
#           1.04589E+02  1.07134E+02  1.09741E+02  1.12411E+02  1.15146E+02
#           1.17948E+02  1.20817E+02  1.23757E+02  1.26768E+02  1.29852E+02
#           1.33012E+02  1.36248E+02  1.39563E+02  1.42959E+02  1.46437E+02
#           1.50000E+02
     unit =    2            # unit is [1/cm^2/(MeV/n)/source]
     axis =  eng            # axis of output
     file = detector-20.out  # file name of output for the above axis
   output = f-curr          # surface crossing forward current spectrum
     part =  neutron  
# kf/name :  2112     
#    used :        main (  %)        temp (  %)       total (  %)
#  memory :         414 (  0)           0 (  0)         414 (  0)

#------------------------------------------------------------------------------
#newpage:
#   no. =    1   reg = 119 - 219

x: Energy [MeV/n]
y:  F-Curr [1/cm^2/(MeV/n)/source]         
p: xlog ylog afac(0.8) form(0.9)
h: n            x            y(neutron ),hh0l   n 
#  e-lower      e-upper      neutron     r.err 
   1.0000E-02   1.0243E-02   1.2842E-01  0.0080
   1.0243E-02   1.0493E-02   1.2394E-01  0.0080
   1.0493E-02   1.0748E-02   1.2047E-01  0.0081
   1.0748E-02   1.1009E-02   1.1845E-01  0.0080
   1.1009E-02   1.1277E-02   1.1711E-01  0.0080
   1.1277E-02   1.1552E-02   1.1371E-01  0.0080
   1.1552E-02   1.1833E-02   1.1091E-01  0.0080
   1.1833E-02   1.2121E-02   1.1173E-01  0.0079
   1.2121E-02   1.2415E-02   1.0868E-01  0.0079
   1.2415E-02   1.2718E-02   1.0707E-01  0.0079
   1.2718E-02   1.3027E-02   1.0462E-01  0.0079
   1.3027E-02   1.3344E-02   1.0352E-01  0.0078
   1.3344E-02   1.3669E-02   1.0146E-01  0.0078
   1.3669E-02   1.4001E-02   9.9511E-02  0.0078
   1.4001E-02   1.4342E-02   9.7397E-02  0.0078
   1.4342E-02   1.4691E-02   9.6126E-02  0.0077
   1.4691E-02   1.5048E-02   9.3236E-02  0.0077
   1.5048E-02   1.5414E-02   9.4075E-02  0.0076
   1.5414E-02   1.5789E-02   8.9691E-02  0.0077
   1.5789E-02   1.6174E-02   8.8831E-02  0.0077
   1.6174E-02   1.6567E-02   8.6426E-02  0.0077
   1.6567E-02   1.6970E-02   8.6179E-02  0.0076
   1.6970E-02   1.7383E-02   8.5324E-02  0.0075
   1.7383E-02   1.7806E-02   8.2777E-02  0.0076
   1.7806E-02   1.8239E-02   8.1480E-02  0.0075
   1.8239E-02   1.8683E-02   7.7932E-02  0.0076
   1.8683E-02   1.9138E-02   7.8727E-02  0.0075
   1.9138E-02   1.9603E-02   7.7984E-02  0.0074
   1.9603E-02   2.0080E-02   7.5937E-02  0.0074
   2.0080E-02   2.0569E-02   7.4451E-02  0.0074
   2.0569E-02   2.1069E-02   7.3072E-02  0.0074
   2.1069E-02   2.1582E-02   7.1644E-02  0.0074
   2.1582E-02   2.2107E-02   7.0204E-02  0.0074
   2.2107E-02   2.2645E-02   6.9176E-02  0.0073
   2.2645E-02   2.3196E-02   6.9130E-02  0.0072
   2.3196E-02   2.3760E-02   6.6885E-02  0.0073
   2.3760E-02   2.4338E-02   6.5238E-02  0.0073
   2.4338E-02   2.4930E-02   6.3734E-02  0.0073
   2.4930E-02   2.5537E-02   6.3191E-02  0.0072
   2.5537E-02   2.6158E-02   6.2392E-02  0.0072
   2.6158E-02   2.6795E-02   6.1181E-02  0.0072
   2.6795E-02   2.7447E-02   5.9610E-02  0.0072
   2.7447E-02   2.8114E-02   5.9036E-02  0.0071
   2.8114E-02   2.8799E-02   5.6957E-02  0.0072
   2.8799E-02   2.9499E-02   5.6620E-02  0.0071
   2.9499E-02   3.0217E-02   5.5732E-02  0.0071
   3.0217E-02   3.0952E-02   5.4864E-02  0.0070
   3.0952E-02   3.1705E-02   5.3354E-02  0.0071
   3.1705E-02   3.2477E-02   5.2963E-02  0.0070
   3.2477E-02   3.3267E-02   5.2018E-02  0.0070
   3.3267E-02   3.4076E-02   5.1097E-02  0.0070
   3.4076E-02   3.4905E-02   5.0274E-02  0.0069
   3.4905E-02   3.5755E-02   4.9260E-02  0.0069
   3.5755E-02   3.6625E-02   4.8580E-02  0.0069
   3.6625E-02   3.7516E-02   4.7188E-02  0.0069
   3.7516E-02   3.8428E-02   4.6534E-02  0.0069
   3.8428E-02   3.9363E-02   4.5565E-02  0.0069
   3.9363E-02   4.0321E-02   4.5850E-02  0.0067
   4.0321E-02   4.1302E-02   4.4025E-02  0.0068
   4.1302E-02   4.2307E-02   4.3382E-02  0.0068
   4.2307E-02   4.3337E-02   4.2922E-02  0.0067
   4.3337E-02   4.4391E-02   4.1872E-02  0.0067
   4.4391E-02   4.5471E-02   4.1120E-02  0.0067
   4.5471E-02   4.6577E-02   4.0552E-02  0.0067
   4.6577E-02   4.7711E-02   3.9557E-02  0.0067
   4.7711E-02   4.8871E-02   3.9313E-02  0.0066
   4.8871E-02   5.0061E-02   3.8039E-02  0.0067
   5.0061E-02   5.1279E-02   3.7334E-02  0.0066
   5.1279E-02   5.2526E-02   3.7192E-02  0.0066
   5.2526E-02   5.3804E-02   3.6109E-02  0.0066
   5.3804E-02   5.5113E-02   3.5776E-02  0.0065
   5.5113E-02   5.6454E-02   3.5118E-02  0.0065
   5.6454E-02   5.7828E-02   3.4129E-02  0.0065
   5.7828E-02   5.9235E-02   3.3398E-02  0.0065
   5.9235E-02   6.0676E-02   3.2979E-02  0.0065
   6.0676E-02   6.2152E-02   3.2360E-02  0.0065
   6.2152E-02   6.3665E-02   3.2437E-02  0.0064
   6.3665E-02   6.5214E-02   3.1463E-02  0.0064
   6.5214E-02   6.6800E-02   3.0632E-02  0.0064
   6.6800E-02   6.8426E-02   3.0466E-02  0.0064
   6.8426E-02   7.0090E-02   2.9672E-02  0.0064
   7.0090E-02   7.1796E-02   2.9024E-02  0.0064
   7.1796E-02   7.3543E-02   2.8533E-02  0.0063
   7.3543E-02   7.5332E-02   2.8115E-02  0.0063
   7.5332E-02   7.7165E-02   2.7785E-02  0.0063
   7.7165E-02   7.9042E-02   2.7315E-02  0.0062
   7.9042E-02   8.0965E-02   2.7024E-02  0.0062
   8.0965E-02   8.2935E-02   2.6423E-02  0.0062
   8.2935E-02   8.4953E-02   2.6242E-02  0.0061
   8.4953E-02   8.7020E-02   2.5419E-02  0.0062
   8.7020E-02   8.9138E-02   2.4993E-02  0.0061
   8.9138E-02   9.1306E-02   2.4569E-02  0.0061
   9.1306E-02   9.3528E-02   2.4212E-02  0.0061
   9.3528E-02   9.5804E-02   2.3843E-02  0.0061
   9.5804E-02   9.8134E-02   2.3276E-02  0.0061
   9.8134E-02   1.0052E-01   2.3114E-02  0.0060
   1.0052E-01   1.0297E-01   2.2816E-02  0.0060
   1.0297E-01   1.0547E-01   2.2361E-02  0.0060
   1.0547E-01   1.0804E-01   2.1813E-02  0.0060
   1.0804E-01   1.1067E-01   2.1329E-02  0.0060
   1.1067E-01   1.1336E-01   2.0959E-02  0.0060
   1.1336E-01   1.1612E-01   2.0604E-02  0.0059
   1.1612E-01   1.1894E-01   2.0281E-02  0.0059
   1.1894E-01   1.2184E-01   1.9984E-02  0.0059
   1.2184E-01   1.2480E-01   1.9558E-02  0.0059
   1.2480E-01   1.2784E-01   1.9526E-02  0.0058
   1.2784E-01   1.3095E-01   1.9201E-02  0.0058
   1.3095E-01   1.3414E-01   1.8495E-02  0.0058
   1.3414E-01   1.3740E-01   1.8572E-02  0.0057
   1.3740E-01   1.4074E-01   1.8099E-02  0.0058
   1.4074E-01   1.4417E-01   1.7738E-02  0.0057
   1.4417E-01   1.4767E-01   1.7426E-02  0.0057
   1.4767E-01   1.5127E-01   1.7069E-02  0.0057
   1.5127E-01   1.5495E-01   1.6946E-02  0.0057
   1.5495E-01   1.5872E-01   1.6382E-02  0.0057
   1.5872E-01   1.6258E-01   1.6163E-02  0.0057
   1.6258E-01   1.6654E-01   1.6048E-02  0.0056
   1.6654E-01   1.7059E-01   1.5672E-02  0.0056
   1.7059E-01   1.7474E-01   1.5560E-02  0.0056
   1.7474E-01   1.7899E-01   1.5171E-02  0.0056
   1.7899E-01   1.8334E-01   1.5064E-02  0.0055
   1.8334E-01   1.8781E-01   1.4760E-02  0.0055
   1.8781E-01   1.9237E-01   1.4199E-02  0.0056
   1.9237E-01   1.9706E-01   1.4176E-02  0.0055
   1.9706E-01   2.0185E-01   1.3977E-02  0.0055
   2.0185E-01   2.0676E-01   1.3637E-02  0.0055
   2.0676E-01   2.1179E-01   1.3521E-02  0.0054
   2.1179E-01   2.1694E-01   1.3285E-02  0.0054
   2.1694E-01   2.2222E-01   1.2948E-02  0.0054
   2.2222E-01   2.2763E-01   1.2751E-02  0.0054
   2.2763E-01   2.3317E-01   1.2496E-02  0.0054
   2.3317E-01   2.3884E-01   1.2266E-02  0.0054
   2.3884E-01   2.4465E-01   1.2043E-02  0.0053
   2.4465E-01   2.5061E-01   1.1914E-02  0.0053
   2.5061E-01   2.5670E-01   1.1652E-02  0.0053
   2.5670E-01   2.6295E-01   1.1502E-02  0.0053
   2.6295E-01   2.6935E-01   1.1389E-02  0.0052
   2.6935E-01   2.7590E-01   1.1060E-02  0.0053
   2.7590E-01   2.8261E-01   1.0900E-02  0.0052
   2.8261E-01   2.8949E-01   1.0618E-02  0.0052
   2.8949E-01   2.9653E-01   1.0487E-02  0.0052
   2.9653E-01   3.0375E-01   1.0381E-02  0.0052
   3.0375E-01   3.1114E-01   1.0208E-02  0.0052
   3.1114E-01   3.1871E-01   9.9969E-03  0.0051
   3.1871E-01   3.2646E-01   9.7328E-03  0.0052
   3.2646E-01   3.3441E-01   9.6174E-03  0.0051
   3.3441E-01   3.4254E-01   9.3134E-03  0.0051
   3.4254E-01   3.5088E-01   9.2191E-03  0.0051
   3.5088E-01   3.5941E-01   9.0894E-03  0.0051
   3.5941E-01   3.6816E-01   8.8598E-03  0.0051
   3.6816E-01   3.7712E-01   8.7088E-03  0.0051
   3.7712E-01   3.8629E-01   8.5018E-03  0.0051
   3.8629E-01   3.9569E-01   8.3259E-03  0.0051
   3.9569E-01   4.0532E-01   8.1159E-03  0.0051
   4.0532E-01   4.1518E-01   8.0008E-03  0.0050
   4.1518E-01   4.2528E-01   7.7713E-03  0.0051
   4.2528E-01   4.3563E-01   7.6407E-03  0.0050
   4.3563E-01   4.4623E-01   7.4213E-03  0.0050
   4.4623E-01   4.5708E-01   7.3710E-03  0.0050
   4.5708E-01   4.6821E-01   7.1506E-03  0.0050
   4.6821E-01   4.7960E-01   7.0732E-03  0.0050
   4.7960E-01   4.9127E-01   6.8413E-03  0.0050
   4.9127E-01   5.0322E-01   6.7564E-03  0.0050
   5.0322E-01   5.1546E-01   6.6312E-03  0.0050
   5.1546E-01   5.2800E-01   6.3552E-03  0.0050
   5.2800E-01   5.4085E-01   6.2695E-03  0.0050
   5.4085E-01   5.5401E-01   6.1733E-03  0.0050
   5.5401E-01   5.6749E-01   5.9382E-03  0.0050
   5.6749E-01   5.8130E-01   5.8218E-03  0.0050
   5.8130E-01   5.9544E-01   5.7297E-03  0.0050
   5.9544E-01   6.0993E-01   5.5500E-03  0.0050
   6.0993E-01   6.2477E-01   5.4264E-03  0.0050
   6.2477E-01   6.3997E-01   5.2250E-03  0.0050
   6.3997E-01   6.5554E-01   5.1473E-03  0.0050
   6.5554E-01   6.7149E-01   4.9613E-03  0.0050
   6.7149E-01   6.8783E-01   4.8660E-03  0.0050
   6.8783E-01   7.0456E-01   4.6795E-03  0.0051
   7.0456E-01   7.2171E-01   4.5515E-03  0.0051
   7.2171E-01   7.3927E-01   4.4207E-03  0.0051
   7.3927E-01   7.5725E-01   4.2949E-03  0.0051
   7.5725E-01   7.7568E-01   4.1748E-03  0.0051
   7.7568E-01   7.9455E-01   4.0388E-03  0.0051
   7.9455E-01   8.1388E-01   3.9311E-03  0.0051
   8.1388E-01   8.3368E-01   3.7696E-03  0.0052
   8.3368E-01   8.5397E-01   3.6380E-03  0.0052
   8.5397E-01   8.7475E-01   3.4997E-03  0.0053
   8.7475E-01   8.9603E-01   3.3872E-03  0.0053
   8.9603E-01   9.1783E-01   3.2411E-03  0.0053
   9.1783E-01   9.4016E-01   3.0919E-03  0.0054
   9.4016E-01   9.6304E-01   2.9775E-03  0.0054
   9.6304E-01   9.8647E-01   2.8147E-03  0.0055
   9.8647E-01   1.0105E+00   2.7362E-03  0.0055
   1.0105E+00   1.0351E+00   2.7399E-03  0.0055
   1.0351E+00   1.0602E+00   2.7961E-03  0.0053
   1.0602E+00   1.0860E+00   2.8113E-03  0.0053
   1.0860E+00   1.1125E+00   2.8396E-03  0.0052
   1.1125E+00   1.1395E+00   2.9584E-03  0.0050
   1.1395E+00   1.1673E+00   3.0002E-03  0.0049
   1.1673E+00   1.1957E+00   3.0928E-03  0.0048
   1.1957E+00   1.2247E+00   3.1534E-03  0.0047
   1.2247E+00   1.2545E+00   3.1923E-03  0.0046
   1.2545E+00   1.2851E+00   3.2142E-03  0.0045
   1.2851E+00   1.3163E+00   3.2576E-03  0.0044
   1.3163E+00   1.3484E+00   3.3198E-03  0.0043
   1.3484E+00   1.3812E+00   3.3702E-03  0.0043
   1.3812E+00   1.4148E+00   3.4335E-03  0.0042
   1.4148E+00   1.4492E+00   3.4249E-03  0.0041
   1.4492E+00   1.4845E+00   3.4268E-03  0.0041
   1.4845E+00   1.5206E+00   3.4428E-03  0.0040
   1.5206E+00   1.5576E+00   3.4147E-03  0.0040
   1.5576E+00   1.5955E+00   3.4648E-03  0.0039
   1.5955E+00   1.6343E+00   3.4781E-03  0.0039
   1.6343E+00   1.6741E+00   3.5383E-03  0.0038
   1.6741E+00   1.7148E+00   3.5750E-03  0.0037
   1.7148E+00   1.7565E+00   3.5655E-03  0.0037
   1.7565E+00   1.7992E+00   3.5357E-03  0.0036
   1.7992E+00   1.8430E+00   3.4965E-03  0.0036
   1.8430E+00   1.8879E+00   3.4963E-03  0.0036
   1.8879E+00   1.9338E+00   3.4843E-03  0.0035
   1.9338E+00   1.9808E+00   3.4894E-03  0.0035
   1.9808E+00   2.0290E+00   3.5065E-03  0.0034
   2.0290E+00   2.0784E+00   3.4366E-03  0.0034
   2.0784E+00   2.1290E+00   3.3709E-03  0.0034
   2.1290E+00   2.1808E+00   3.2837E-03  0.0034
   2.1808E+00   2.2338E+00   3.2541E-03  0.0034
   2.2338E+00   2.2882E+00   3.2099E-03  0.0034
   2.2882E+00   2.3439E+00   3.1669E-03  0.0034
   2.3439E+00   2.4009E+00   3.1688E-03  0.0033
   2.4009E+00   2.4593E+00   3.1132E-03  0.0033
   2.4593E+00   2.5191E+00   3.0320E-03  0.0033
   2.5191E+00   2.5804E+00   2.9177E-03  0.0034
   2.5804E+00   2.6432E+00   2.8340E-03  0.0034
   2.6432E+00   2.7075E+00   2.7618E-03  0.0034
   2.7075E+00   2.7734E+00   2.6876E-03  0.0034
   2.7734E+00   2.8409E+00   2.6290E-03  0.0034
   2.8409E+00   2.9100E+00   2.5897E-03  0.0033
   2.9100E+00   2.9808E+00   2.5238E-03  0.0034
   2.9808E+00   3.0533E+00   2.4357E-03  0.0034
   3.0533E+00   3.1276E+00   2.3427E-03  0.0034
   3.1276E+00   3.2037E+00   2.2390E-03  0.0034
   3.2037E+00   3.2817E+00   2.1404E-03  0.0035
   3.2817E+00   3.3615E+00   2.0527E-03  0.0035
   3.3615E+00   3.4433E+00   1.9672E-03  0.0035
   3.4433E+00   3.5271E+00   1.8942E-03  0.0036
   3.5271E+00   3.6129E+00   1.8403E-03  0.0036
   3.6129E+00   3.7008E+00   1.7520E-03  0.0036
   3.7008E+00   3.7908E+00   1.6769E-03  0.0036
   3.7908E+00   3.8831E+00   1.5915E-03  0.0037
   3.8831E+00   3.9776E+00   1.5135E-03  0.0037
   3.9776E+00   4.0743E+00   1.4596E-03  0.0038
   4.0743E+00   4.1735E+00   1.3831E-03  0.0038
   4.1735E+00   4.2750E+00   1.2906E-03  0.0039
   4.2750E+00   4.3790E+00   1.2126E-03  0.0040
   4.3790E+00   4.4856E+00   1.1547E-03  0.0040
   4.4856E+00   4.5947E+00   1.0707E-03  0.0041
   4.5947E+00   4.7065E+00   1.0166E-03  0.0042
   4.7065E+00   4.8210E+00   9.6455E-04  0.0043
   4.8210E+00   4.9383E+00   9.0623E-04  0.0043
   4.9383E+00   5.0585E+00   8.5286E-04  0.0044
   5.0585E+00   5.1815E+00   7.9531E-04  0.0045
   5.1815E+00   5.3076E+00   7.4377E-04  0.0046
   5.3076E+00   5.4368E+00   6.9588E-04  0.0047
   5.4368E+00   5.5690E+00   6.4100E-04  0.0049
   5.5690E+00   5.7045E+00   5.9922E-04  0.0050
   5.7045E+00   5.8433E+00   5.4696E-04  0.0051
   5.8433E+00   5.9855E+00   5.1077E-04  0.0053
   5.9855E+00   6.1311E+00   4.8149E-04  0.0053
   6.1311E+00   6.2803E+00   4.4000E-04  0.0055
   6.2803E+00   6.4331E+00   4.0875E-04  0.0057
   6.4331E+00   6.5896E+00   3.7406E-04  0.0058
   6.5896E+00   6.7500E+00   3.4570E-04  0.0060
   6.7500E+00   6.9142E+00   3.2173E-04  0.0062
   6.9142E+00   7.0824E+00   2.9409E-04  0.0064
   7.0824E+00   7.2548E+00   2.7204E-04  0.0065
   7.2548E+00   7.4313E+00   2.5061E-04  0.0067
   7.4313E+00   7.6121E+00   2.3006E-04  0.0069
   7.6121E+00   7.7973E+00   2.1318E-04  0.0071
   7.7973E+00   7.9870E+00   1.9368E-04  0.0074
   7.9870E+00   8.1813E+00   1.7699E-04  0.0076
   8.1813E+00   8.3804E+00   1.6062E-04  0.0079
   8.3804E+00   8.5843E+00   1.4951E-04  0.0081
   8.5843E+00   8.7931E+00   1.3960E-04  0.0083
   8.7931E+00   9.0071E+00   1.2514E-04  0.0086
   9.0071E+00   9.2262E+00   1.1509E-04  0.0089
   9.2262E+00   9.4507E+00   1.0790E-04  0.0091
   9.4507E+00   9.6807E+00   9.5623E-05  0.0095
   9.6807E+00   9.9162E+00   8.8071E-05  0.0098
   9.9162E+00   1.0157E+01   7.9931E-05  0.0102
   1.0157E+01   1.0405E+01   7.3873E-05  0.0104
   1.0405E+01   1.0658E+01   6.7765E-05  0.0108
   1.0658E+01   1.0917E+01   6.2851E-05  0.0111
   1.0917E+01   1.1183E+01   5.7601E-05  0.0114
   1.1183E+01   1.1455E+01   5.1293E-05  0.0119
   1.1455E+01   1.1733E+01   4.7082E-05  0.0123
   1.1733E+01   1.2019E+01   4.5043E-05  0.0124
   1.2019E+01   1.2311E+01   4.1514E-05  0.0128
   1.2311E+01   1.2611E+01   3.7884E-05  0.0132
   1.2611E+01   1.2918E+01   3.4928E-05  0.0136
   1.2918E+01   1.3232E+01   3.1645E-05  0.0141
   1.3232E+01   1.3554E+01   2.9750E-05  0.0144
   1.3554E+01   1.3884E+01   2.7449E-05  0.0148
   1.3884E+01   1.4222E+01   2.5648E-05  0.0152
   1.4222E+01   1.4568E+01   2.4290E-05  0.0154
   1.4568E+01   1.4922E+01   2.1594E-05  0.0161
   1.4922E+01   1.5285E+01   2.0489E-05  0.0164
   1.5285E+01   1.5657E+01   1.9484E-05  0.0166
   1.5657E+01   1.6038E+01   1.7897E-05  0.0171
   1.6038E+01   1.6428E+01   1.6729E-05  0.0175
   1.6428E+01   1.6828E+01   1.5319E-05  0.0180
   1.6828E+01   1.7237E+01   1.4566E-05  0.0183
   1.7237E+01   1.7657E+01   1.3822E-05  0.0186
   1.7657E+01   1.8086E+01   1.3291E-05  0.0187
   1.8086E+01   1.8526E+01   1.2732E-05  0.0189
   1.8526E+01   1.8977E+01   1.2013E-05  0.0192
   1.8977E+01   1.9439E+01   1.1606E-05  0.0193
   1.9439E+01   1.9912E+01   1.0274E-05  0.0203
   1.9912E+01   2.0396E+01   8.6692E-06  0.0218
   2.0396E+01   2.0893E+01   7.8910E-06  0.0226
   2.0893E+01   2.1401E+01   7.6525E-06  0.0227
   2.1401E+01   2.1922E+01   7.8471E-06  0.0221
   2.1922E+01   2.2455E+01   7.3307E-06  0.0226
   2.2455E+01   2.3001E+01   7.0504E-06  0.0228
   2.3001E+01   2.3561E+01   6.7686E-06  0.0230
   2.3561E+01   2.4134E+01   6.6288E-06  0.0229
   2.4134E+01   2.4721E+01   6.3385E-06  0.0232
   2.4721E+01   2.5323E+01   6.1879E-06  0.0232
   2.5323E+01   2.5939E+01   5.6352E-06  0.0240
   2.5939E+01   2.6570E+01   5.5330E-06  0.0239
   2.6570E+01   2.7217E+01   5.1448E-06  0.0245
   2.7217E+01   2.7879E+01   4.6904E-06  0.0254
   2.7879E+01   2.8557E+01   4.5495E-06  0.0255
   2.8557E+01   2.9252E+01   4.3407E-06  0.0258
   2.9252E+01   2.9964E+01   4.2039E-06  0.0259
   2.9964E+01   3.0693E+01   3.9888E-06  0.0262
   3.0693E+01   3.1440E+01   3.6691E-06  0.0270
   3.1440E+01   3.2205E+01   3.6368E-06  0.0268
   3.2205E+01   3.2988E+01   3.2671E-06  0.0280
   3.2988E+01   3.3791E+01   2.9403E-06  0.0291
   3.3791E+01   3.4613E+01   2.9386E-06  0.0288
   3.4613E+01   3.5455E+01   2.6883E-06  0.0297
   3.5455E+01   3.6318E+01   2.3671E-06  0.0313
   3.6318E+01   3.7201E+01   2.3403E-06  0.0311
   3.7201E+01   3.8106E+01   2.1345E-06  0.0322
   3.8106E+01   3.9034E+01   2.0040E-06  0.0328
   3.9034E+01   3.9983E+01   1.6952E-06  0.0352
   3.9983E+01   4.0956E+01   1.5255E-06  0.0367
   4.0956E+01   4.1953E+01   1.4310E-06  0.0375
   4.1953E+01   4.2973E+01   1.2971E-06  0.0389
   4.2973E+01   4.4019E+01   1.1573E-06  0.0407
   4.4019E+01   4.5090E+01   1.0121E-06  0.0430
   4.5090E+01   4.6187E+01   9.1698E-07  0.0446
   4.6187E+01   4.7311E+01   8.1867E-07  0.0466
   4.7311E+01   4.8462E+01   7.6274E-07  0.0477
   4.8462E+01   4.9641E+01   6.2589E-07  0.0521
   4.9641E+01   5.0849E+01   6.4083E-07  0.0508
   5.0849E+01   5.2086E+01   5.0922E-07  0.0563
   5.2086E+01   5.3353E+01   4.4189E-07  0.0598
   5.3353E+01   5.4651E+01   3.8671E-07  0.0631
   5.4651E+01   5.5981E+01   3.0382E-07  0.0704
   5.5981E+01   5.7343E+01   2.8339E-07  0.0720
   5.7343E+01   5.8738E+01   2.7093E-07  0.0727
   5.8738E+01   6.0168E+01   2.1131E-07  0.0814
   6.0168E+01   6.1632E+01   1.7214E-07  0.0891
   6.1632E+01   6.3131E+01   1.2137E-07  0.1048
   6.3131E+01   6.4667E+01   1.6406E-07  0.0891
   6.4667E+01   6.6240E+01   8.6437E-08  0.1213
   6.6240E+01   6.7852E+01   6.3288E-08  0.1400
   6.7852E+01   6.9503E+01   6.4208E-08  0.1374
   6.9503E+01   7.1194E+01   5.2038E-08  0.1508
   7.1194E+01   7.2926E+01   3.5792E-08  0.1796
   7.2926E+01   7.4701E+01   2.8179E-08  0.2000
   7.4701E+01   7.6518E+01   2.0908E-08  0.2294
   7.6518E+01   7.8380E+01   2.0411E-08  0.2294
   7.8380E+01   8.0287E+01   2.3072E-08  0.2132
   8.0287E+01   8.2240E+01   1.2286E-08  0.2887
   8.2240E+01   8.4241E+01   9.9951E-09  0.3162
   8.4241E+01   8.6291E+01   1.1709E-08  0.2887
   8.6291E+01   8.8391E+01   2.8578E-09  0.5774
   8.8391E+01   9.0541E+01   1.8599E-09  0.7071
   9.0541E+01   9.2744E+01   3.6315E-09  0.5000
   9.2744E+01   9.5001E+01   8.8631E-10  1.0000
   9.5001E+01   9.7312E+01   0.0000E+00  0.0000
   9.7312E+01   9.9680E+01   2.5341E-09  0.5774
   9.9680E+01   1.0211E+02   8.2464E-10  1.0000
   1.0211E+02   1.0459E+02   8.0506E-10  1.0000
   1.0459E+02   1.0713E+02   0.0000E+00  0.0000
   1.0713E+02   1.0974E+02   0.0000E+00  0.0000
   1.0974E+02   1.1241E+02   0.0000E+00  0.0000
   1.1241E+02   1.1515E+02   0.0000E+00  0.0000
   1.1515E+02   1.1795E+02   0.0000E+00  0.0000
   1.1795E+02   1.2082E+02   0.0000E+00  0.0000
   1.2082E+02   1.2376E+02   0.0000E+00  0.0000
   1.2376E+02   1.2677E+02   0.0000E+00  0.0000
   1.2677E+02   1.2985E+02   0.0000E+00  0.0000
   1.2985E+02   1.3301E+02   0.0000E+00  0.0000
   1.3301E+02   1.3625E+02   0.0000E+00  0.0000
   1.3625E+02   1.3956E+02   0.0000E+00  0.0000
   1.3956E+02   1.4296E+02   0.0000E+00  0.0000
   1.4296E+02   1.4644E+02   0.0000E+00  0.0000
   1.4644E+02   1.5000E+02   0.0000E+00  0.0000

#   sum over                 1.4668E-04
'no. =    1   reg = 119 - 219'
msuc: {\huge [t-cross] in region mesh}
msdr: {\it plotted by \ANGEL \version}
msdl: {\it calculated by \PHITS  3.26}
wt: s(0.7)
\vspace{-3}
  region surface crossing
  area  &=&   1.0000E+00 [cm^2]
e:
 
# Information for Restart Calculation
# This calculation was newly started
# istdev =  2 # 1:Batch variance, 2:History variance
# resc2  = 5.00000000000000000E+08 # Total source weight or Total source weight / maxcas
# resc3  = 5.00000000000000000E+08 # Total history number or Total batch number
# maxcas =   500000000 # History / Batch, only used for istdev=1
# bitrseed = 1101101111010011011000101101110001100110110010110001010100010001 # bit data of rseed
