[ T-Cross ]
    title = [t-cross] in region mesh
     mesh =  reg            # mesh type is region-wise
      reg =    1            # number of crossing regions
      non     r-from    r-to       area
      1       121       221        1.000000    
   e-type =    3            # e-mesh is log given by emin, emax and ne
     emin =  1.0000000E-02  # minimum value of e-mesh points
     emax =   150.0000      # maximum value of e-mesh points
#    edel =  2.4039514E-02  # mesh width of e-mesh points
       ne =    400          # number of e-mesh points
#    data = ( e(i), i = 1, ne + 1 )
#           1.00000E-02  1.02433E-02  1.04925E-02  1.07478E-02  1.10093E-02
#           1.12772E-02  1.15516E-02  1.18326E-02  1.21205E-02  1.24154E-02
#           1.27175E-02  1.30269E-02  1.33439E-02  1.36686E-02  1.40011E-02
#           1.43418E-02  1.46907E-02  1.50482E-02  1.54143E-02  1.57894E-02
#           1.61735E-02  1.65670E-02  1.69701E-02  1.73830E-02  1.78060E-02
#           1.82392E-02  1.86830E-02  1.91375E-02  1.96032E-02  2.00801E-02
#           2.05687E-02  2.10692E-02  2.15818E-02  2.21069E-02  2.26448E-02
#           2.31957E-02  2.37601E-02  2.43382E-02  2.49304E-02  2.55369E-02
#           2.61583E-02  2.67947E-02  2.74467E-02  2.81145E-02  2.87985E-02
#           2.94992E-02  3.02169E-02  3.09521E-02  3.17052E-02  3.24766E-02
#           3.32668E-02  3.40762E-02  3.49053E-02  3.57546E-02  3.66246E-02
#           3.75157E-02  3.84284E-02  3.93634E-02  4.03212E-02  4.13022E-02
#           4.23071E-02  4.33365E-02  4.43909E-02  4.54710E-02  4.65773E-02
#           4.77106E-02  4.88714E-02  5.00605E-02  5.12785E-02  5.25262E-02
#           5.38042E-02  5.51133E-02  5.64542E-02  5.78278E-02  5.92348E-02
#           6.06760E-02  6.21523E-02  6.36645E-02  6.52135E-02  6.68002E-02
#           6.84255E-02  7.00904E-02  7.17957E-02  7.35426E-02  7.53319E-02
#           7.71648E-02  7.90423E-02  8.09655E-02  8.29354E-02  8.49533E-02
#           8.70203E-02  8.91376E-02  9.13064E-02  9.35279E-02  9.58035E-02
#           9.81345E-02  1.00522E-01  1.02968E-01  1.05473E-01  1.08040E-01
#           1.10668E-01  1.13361E-01  1.16119E-01  1.18944E-01  1.21838E-01
#           1.24803E-01  1.27839E-01  1.30950E-01  1.34136E-01  1.37399E-01
#           1.40742E-01  1.44167E-01  1.47675E-01  1.51268E-01  1.54948E-01
#           1.58718E-01  1.62580E-01  1.66535E-01  1.70587E-01  1.74738E-01
#           1.78989E-01  1.83344E-01  1.87805E-01  1.92375E-01  1.97055E-01
#           2.01850E-01  2.06761E-01  2.11792E-01  2.16945E-01  2.22223E-01
#           2.27630E-01  2.33169E-01  2.38842E-01  2.44653E-01  2.50605E-01
#           2.56703E-01  2.62949E-01  2.69346E-01  2.75900E-01  2.82613E-01
#           2.89489E-01  2.96532E-01  3.03747E-01  3.11138E-01  3.18708E-01
#           3.26462E-01  3.34405E-01  3.42542E-01  3.50876E-01  3.59413E-01
#           3.68158E-01  3.77116E-01  3.86291E-01  3.95690E-01  4.05317E-01
#           4.15179E-01  4.25281E-01  4.35628E-01  4.46227E-01  4.57084E-01
#           4.68205E-01  4.79597E-01  4.91266E-01  5.03219E-01  5.15463E-01
#           5.28005E-01  5.40851E-01  5.54011E-01  5.67490E-01  5.81298E-01
#           5.95441E-01  6.09929E-01  6.24769E-01  6.39970E-01  6.55541E-01
#           6.71491E-01  6.87828E-01  7.04564E-01  7.21706E-01  7.39266E-01
#           7.57253E-01  7.75678E-01  7.94551E-01  8.13883E-01  8.33685E-01
#           8.53969E-01  8.74747E-01  8.96030E-01  9.17831E-01  9.40163E-01
#           9.63038E-01  9.86469E-01  1.01047E+00  1.03506E+00  1.06024E+00
#           1.08604E+00  1.11246E+00  1.13953E+00  1.16725E+00  1.19565E+00
#           1.22474E+00  1.25454E+00  1.28507E+00  1.31633E+00  1.34836E+00
#           1.38117E+00  1.41477E+00  1.44920E+00  1.48446E+00  1.52057E+00
#           1.55757E+00  1.59547E+00  1.63429E+00  1.67405E+00  1.71478E+00
#           1.75650E+00  1.79924E+00  1.84302E+00  1.88786E+00  1.93379E+00
#           1.98084E+00  2.02904E+00  2.07841E+00  2.12898E+00  2.18078E+00
#           2.23384E+00  2.28819E+00  2.34386E+00  2.40089E+00  2.45930E+00
#           2.51914E+00  2.58043E+00  2.64322E+00  2.70753E+00  2.77341E+00
#           2.84088E+00  2.91001E+00  2.98081E+00  3.05333E+00  3.12762E+00
#           3.20372E+00  3.28167E+00  3.36152E+00  3.44330E+00  3.52708E+00
#           3.61290E+00  3.70080E+00  3.79085E+00  3.88308E+00  3.97756E+00
#           4.07434E+00  4.17347E+00  4.27501E+00  4.37903E+00  4.48557E+00
#           4.59471E+00  4.70650E+00  4.82102E+00  4.93832E+00  5.05847E+00
#           5.18155E+00  5.30762E+00  5.43676E+00  5.56904E+00  5.70453E+00
#           5.84333E+00  5.98550E+00  6.13114E+00  6.28031E+00  6.43312E+00
#           6.58964E+00  6.74997E+00  6.91420E+00  7.08243E+00  7.25475E+00
#           7.43126E+00  7.61207E+00  7.79728E+00  7.98700E+00  8.18133E+00
#           8.38038E+00  8.58428E+00  8.79315E+00  9.00709E+00  9.22624E+00
#           9.45072E+00  9.68067E+00  9.91620E+00  1.01575E+01  1.04046E+01
#           1.06578E+01  1.09171E+01  1.11827E+01  1.14548E+01  1.17335E+01
#           1.20190E+01  1.23114E+01  1.26109E+01  1.29178E+01  1.32321E+01
#           1.35540E+01  1.38838E+01  1.42216E+01  1.45676E+01  1.49221E+01
#           1.52851E+01  1.56570E+01  1.60380E+01  1.64282E+01  1.68279E+01
#           1.72374E+01  1.76568E+01  1.80864E+01  1.85264E+01  1.89772E+01
#           1.94389E+01  1.99119E+01  2.03963E+01  2.08926E+01  2.14009E+01
#           2.19216E+01  2.24550E+01  2.30014E+01  2.35610E+01  2.41343E+01
#           2.47215E+01  2.53230E+01  2.59391E+01  2.65702E+01  2.72167E+01
#           2.78789E+01  2.85572E+01  2.92520E+01  2.99637E+01  3.06928E+01
#           3.14396E+01  3.22045E+01  3.29881E+01  3.37907E+01  3.46128E+01
#           3.54550E+01  3.63177E+01  3.72013E+01  3.81064E+01  3.90336E+01
#           3.99833E+01  4.09561E+01  4.19526E+01  4.29734E+01  4.40189E+01
#           4.50900E+01  4.61870E+01  4.73108E+01  4.84619E+01  4.96410E+01
#           5.08488E+01  5.20860E+01  5.33533E+01  5.46514E+01  5.59812E+01
#           5.73432E+01  5.87384E+01  6.01676E+01  6.16315E+01  6.31311E+01
#           6.46671E+01  6.62405E+01  6.78522E+01  6.95031E+01  7.11941E+01
#           7.29263E+01  7.47007E+01  7.65182E+01  7.83800E+01  8.02870E+01
#           8.22405E+01  8.42414E+01  8.62911E+01  8.83906E+01  9.05412E+01
#           9.27442E+01  9.50007E+01  9.73122E+01  9.96799E+01  1.02105E+02
#           1.04589E+02  1.07134E+02  1.09741E+02  1.12411E+02  1.15146E+02
#           1.17948E+02  1.20817E+02  1.23757E+02  1.26768E+02  1.29852E+02
#           1.33012E+02  1.36248E+02  1.39563E+02  1.42959E+02  1.46437E+02
#           1.50000E+02
     unit =    2            # unit is [1/cm^2/(MeV/n)/source]
     axis =  eng            # axis of output
     file = detector-22.out  # file name of output for the above axis
   output = f-curr          # surface crossing forward current spectrum
     part =  neutron  
# kf/name :  2112     
#    used :        main (  %)        temp (  %)       total (  %)
#  memory :         414 (  0)           0 (  0)         414 (  0)

#------------------------------------------------------------------------------
#newpage:
#   no. =    1   reg = 121 - 221

x: Energy [MeV/n]
y:  F-Curr [1/cm^2/(MeV/n)/source]         
p: xlog ylog afac(0.8) form(0.9)
h: n            x            y(neutron ),hh0l   n 
#  e-lower      e-upper      neutron     r.err 
   1.0000E-02   1.0243E-02   1.1878E-03  0.0831
   1.0243E-02   1.0493E-02   1.0748E-03  0.0862
   1.0493E-02   1.0748E-02   1.0798E-03  0.0850
   1.0748E-02   1.1009E-02   1.0915E-03  0.0836
   1.1009E-02   1.1277E-02   1.1189E-03  0.0815
   1.1277E-02   1.1552E-02   9.4600E-04  0.0876
   1.1552E-02   1.1833E-02   9.4122E-04  0.0867
   1.1833E-02   1.2121E-02   1.0929E-03  0.0794
   1.2121E-02   1.2415E-02   1.0152E-03  0.0816
   1.2415E-02   1.2718E-02   9.5637E-04  0.0831
   1.2718E-02   1.3027E-02   1.0818E-03  0.0772
   1.3027E-02   1.3344E-02   8.9607E-04  0.0836
   1.3344E-02   1.3669E-02   9.4143E-04  0.0808
   1.3669E-02   1.4001E-02   8.8513E-04  0.0824
   1.4001E-02   1.4342E-02   9.0052E-04  0.0805
   1.4342E-02   1.4691E-02   9.3044E-04  0.0783
   1.4691E-02   1.5048E-02   8.0861E-04  0.0831
   1.5048E-02   1.5414E-02   7.4725E-04  0.0853
   1.5414E-02   1.5789E-02   8.6500E-04  0.0783
   1.5789E-02   1.6174E-02   9.0683E-04  0.0756
   1.6174E-02   1.6567E-02   8.4092E-04  0.0775
   1.6567E-02   1.6970E-02   7.3819E-04  0.0817
   1.6970E-02   1.7383E-02   7.4429E-04  0.0806
   1.7383E-02   1.7806E-02   6.9049E-04  0.0826
   1.7806E-02   1.8239E-02   7.3692E-04  0.0791
   1.8239E-02   1.8683E-02   7.0097E-04  0.0801
   1.8683E-02   1.9138E-02   7.3256E-04  0.0774
   1.9138E-02   1.9603E-02   6.8155E-04  0.0791
   1.9603E-02   2.0080E-02   7.4220E-04  0.0751
   2.0080E-02   2.0569E-02   6.5975E-04  0.0786
   2.0569E-02   2.1069E-02   7.0861E-04  0.0749
   2.1069E-02   2.1582E-02   6.7495E-04  0.0758
   2.1582E-02   2.2107E-02   5.8016E-04  0.0808
   2.2107E-02   2.2645E-02   5.6039E-04  0.0811
   2.2645E-02   2.3196E-02   7.0471E-04  0.0717
   2.3196E-02   2.3760E-02   6.1403E-04  0.0758
   2.3760E-02   2.4338E-02   5.7309E-04  0.0776
   2.4338E-02   2.4930E-02   5.5392E-04  0.0778
   2.4930E-02   2.5537E-02   6.3428E-04  0.0719
   2.5537E-02   2.6158E-02   5.8875E-04  0.0738
   2.6158E-02   2.6795E-02   5.0852E-04  0.0785
   2.6795E-02   2.7447E-02   5.2091E-04  0.0766
   2.7447E-02   2.8114E-02   6.1639E-04  0.0696
   2.8114E-02   2.8799E-02   5.6673E-04  0.0717
   2.8799E-02   2.9499E-02   5.1880E-04  0.0740
   2.9499E-02   3.0217E-02   5.4467E-04  0.0715
   3.0217E-02   3.0952E-02   5.2312E-04  0.0721
   3.0952E-02   3.1705E-02   4.9296E-04  0.0732
   3.1705E-02   3.2477E-02   4.3556E-04  0.0770
   3.2477E-02   3.3267E-02   5.3745E-04  0.0686
   3.3267E-02   3.4076E-02   5.0853E-04  0.0696
   3.4076E-02   3.4905E-02   4.3607E-04  0.0741
   3.4905E-02   3.5755E-02   4.1651E-04  0.0750
   3.5755E-02   3.6625E-02   4.5485E-04  0.0710
   3.6625E-02   3.7516E-02   4.4500E-04  0.0710
   3.7516E-02   3.8428E-02   4.4361E-04  0.0701
   3.8428E-02   3.9363E-02   4.4337E-04  0.0693
   3.9363E-02   4.0321E-02   4.1056E-04  0.0711
   4.0321E-02   4.1302E-02   4.2096E-04  0.0694
   4.1302E-02   4.2307E-02   4.0248E-04  0.0701
   4.2307E-02   4.3337E-02   3.9373E-04  0.0701
   4.3337E-02   4.4391E-02   4.0711E-04  0.0681
   4.4391E-02   4.5471E-02   4.1223E-04  0.0669
   4.5471E-02   4.6577E-02   4.3445E-04  0.0644
   4.6577E-02   4.7711E-02   3.4320E-04  0.0716
   4.7711E-02   4.8871E-02   3.5604E-04  0.0694
   4.8871E-02   5.0061E-02   3.9430E-04  0.0653
   5.0061E-02   5.1279E-02   3.2778E-04  0.0706
   5.1279E-02   5.2526E-02   3.7988E-04  0.0649
   5.2526E-02   5.3804E-02   3.3076E-04  0.0687
   5.3804E-02   5.5113E-02   3.3613E-04  0.0673
   5.5113E-02   5.6454E-02   3.2738E-04  0.0674
   5.6454E-02   5.7828E-02   3.1854E-04  0.0674
   5.7828E-02   5.9235E-02   3.4003E-04  0.0645
   5.9235E-02   6.0676E-02   3.2869E-04  0.0648
   6.0676E-02   6.2152E-02   2.9711E-04  0.0673
   6.2152E-02   6.3665E-02   2.8763E-04  0.0677
   6.3665E-02   6.5214E-02   3.0782E-04  0.0646
   6.5214E-02   6.6800E-02   3.0523E-04  0.0641
   6.6800E-02   6.8426E-02   2.7390E-04  0.0669
   6.8426E-02   7.0090E-02   2.9439E-04  0.0638
   7.0090E-02   7.1796E-02   2.5369E-04  0.0679
   7.1796E-02   7.3543E-02   2.5380E-04  0.0671
   7.3543E-02   7.5332E-02   2.6396E-04  0.0650
   7.5332E-02   7.7165E-02   2.6535E-04  0.0640
   7.7165E-02   7.9042E-02   2.5259E-04  0.0648
   7.9042E-02   8.0965E-02   2.5305E-04  0.0641
   8.0965E-02   8.2935E-02   2.6456E-04  0.0619
   8.2935E-02   8.4953E-02   2.3468E-04  0.0648
   8.4953E-02   8.7020E-02   2.5025E-04  0.0620
   8.7020E-02   8.9138E-02   2.1361E-04  0.0664
   8.9138E-02   9.1306E-02   2.2497E-04  0.0639
   9.1306E-02   9.3528E-02   2.1336E-04  0.0649
   9.3528E-02   9.5804E-02   2.1295E-04  0.0641
   9.5804E-02   9.8134E-02   2.0732E-04  0.0642
   9.8134E-02   1.0052E-01   2.1149E-04  0.0628
   1.0052E-01   1.0297E-01   2.1765E-04  0.0613
   1.0297E-01   1.0547E-01   2.0810E-04  0.0618
   1.0547E-01   1.0804E-01   1.9914E-04  0.0625
   1.0804E-01   1.1067E-01   1.7393E-04  0.0660
   1.1067E-01   1.1336E-01   1.8924E-04  0.0626
   1.1336E-01   1.1612E-01   1.7486E-04  0.0642
   1.1612E-01   1.1894E-01   1.5608E-04  0.0671
   1.1894E-01   1.2184E-01   1.9427E-04  0.0596
   1.2184E-01   1.2480E-01   1.8182E-04  0.0608
   1.2480E-01   1.2784E-01   1.6725E-04  0.0626
   1.2784E-01   1.3095E-01   1.5882E-04  0.0635
   1.3095E-01   1.3414E-01   1.5211E-04  0.0642
   1.3414E-01   1.3740E-01   1.5483E-04  0.0627
   1.3740E-01   1.4074E-01   1.4500E-04  0.0640
   1.4074E-01   1.4417E-01   1.4122E-04  0.0642
   1.4417E-01   1.4767E-01   1.4910E-04  0.0617
   1.4767E-01   1.5127E-01   1.2554E-04  0.0664
   1.5127E-01   1.5495E-01   1.3590E-04  0.0630
   1.5495E-01   1.5872E-01   1.3725E-04  0.0620
   1.5872E-01   1.6258E-01   1.3189E-04  0.0625
   1.6258E-01   1.6654E-01   1.2326E-04  0.0639
   1.6654E-01   1.7059E-01   1.3232E-04  0.0609
   1.7059E-01   1.7474E-01   1.0180E-04  0.0687
   1.7474E-01   1.7899E-01   1.1211E-04  0.0647
   1.7899E-01   1.8334E-01   1.1211E-04  0.0639
   1.8334E-01   1.8781E-01   1.0856E-04  0.0642
   1.8781E-01   1.9237E-01   1.1865E-04  0.0605
   1.9237E-01   1.9706E-01   1.1758E-04  0.0602
   1.9706E-01   2.0185E-01   1.0671E-04  0.0624
   2.0185E-01   2.0676E-01   1.2194E-04  0.0577
   2.0676E-01   2.1179E-01   1.0879E-04  0.0604
   2.1179E-01   2.1694E-01   1.0646E-04  0.0603
   2.1694E-01   2.2222E-01   1.0562E-04  0.0598
   2.2222E-01   2.2763E-01   1.1454E-04  0.0567
   2.2763E-01   2.3317E-01   1.1806E-04  0.0553
   2.3317E-01   2.3884E-01   1.2591E-04  0.0527
   2.3884E-01   2.4465E-01   1.2209E-04  0.0530
   2.4465E-01   2.5061E-01   1.2103E-04  0.0526
   2.5061E-01   2.5670E-01   1.2814E-04  0.0504
   2.5670E-01   2.6295E-01   1.2642E-04  0.0503
   2.6295E-01   2.6935E-01   1.4106E-04  0.0469
   2.6935E-01   2.7590E-01   1.4055E-04  0.0464
   2.7590E-01   2.8261E-01   1.3583E-04  0.0468
   2.8261E-01   2.8949E-01   1.3198E-04  0.0469
   2.8949E-01   2.9653E-01   1.3683E-04  0.0455
   2.9653E-01   3.0375E-01   1.4373E-04  0.0438
   3.0375E-01   3.1114E-01   1.4179E-04  0.0436
   3.1114E-01   3.1871E-01   1.4051E-04  0.0433
   3.1871E-01   3.2646E-01   1.4187E-04  0.0425
   3.2646E-01   3.3441E-01   1.5111E-04  0.0407
   3.3441E-01   3.4254E-01   1.3798E-04  0.0421
   3.4254E-01   3.5088E-01   1.5903E-04  0.0387
   3.5088E-01   3.5941E-01   1.3420E-04  0.0417
   3.5941E-01   3.6816E-01   1.6211E-04  0.0375
   3.6816E-01   3.7712E-01   1.6223E-04  0.0370
   3.7712E-01   3.8629E-01   1.5552E-04  0.0373
   3.8629E-01   3.9569E-01   1.5246E-04  0.0372
   3.9569E-01   4.0532E-01   1.6035E-04  0.0359
   4.0532E-01   4.1518E-01   1.5602E-04  0.0359
   4.1518E-01   4.2528E-01   1.6111E-04  0.0350
   4.2528E-01   4.3563E-01   1.5932E-04  0.0347
   4.3563E-01   4.4623E-01   1.6019E-04  0.0343
   4.4623E-01   4.5708E-01   1.7014E-04  0.0328
   4.5708E-01   4.6821E-01   1.6174E-04  0.0332
   4.6821E-01   4.7960E-01   1.6643E-04  0.0324
   4.7960E-01   4.9127E-01   1.5746E-04  0.0329
   4.9127E-01   5.0322E-01   1.7032E-04  0.0313
   5.0322E-01   5.1546E-01   1.6904E-04  0.0310
   5.1546E-01   5.2800E-01   1.6145E-04  0.0313
   5.2800E-01   5.4085E-01   1.8099E-04  0.0292
   5.4085E-01   5.5401E-01   1.6335E-04  0.0304
   5.5401E-01   5.6749E-01   1.6056E-04  0.0303
   5.6749E-01   5.8130E-01   1.6482E-04  0.0296
   5.8130E-01   5.9544E-01   1.7151E-04  0.0286
   5.9544E-01   6.0993E-01   1.6922E-04  0.0285
   6.0993E-01   6.2477E-01   1.7146E-04  0.0279
   6.2477E-01   6.3997E-01   1.6066E-04  0.0285
   6.3997E-01   6.5554E-01   1.6800E-04  0.0276
   6.5554E-01   6.7149E-01   1.6241E-04  0.0277
   6.7149E-01   6.8783E-01   1.6426E-04  0.0272
   6.8783E-01   7.0456E-01   1.6005E-04  0.0273
   7.0456E-01   7.2171E-01   1.6664E-04  0.0264
   7.2171E-01   7.3927E-01   1.6246E-04  0.0264
   7.3927E-01   7.5725E-01   1.5480E-04  0.0267
   7.5725E-01   7.7568E-01   1.5680E-04  0.0262
   7.7568E-01   7.9455E-01   1.5801E-04  0.0258
   7.9455E-01   8.1388E-01   1.5372E-04  0.0259
   8.1388E-01   8.3368E-01   1.4712E-04  0.0261
   8.3368E-01   8.5397E-01   1.4377E-04  0.0261
   8.5397E-01   8.7475E-01   1.4976E-04  0.0253
   8.7475E-01   8.9603E-01   1.3390E-04  0.0264
   8.9603E-01   9.1783E-01   1.3416E-04  0.0260
   9.1783E-01   9.4016E-01   1.3575E-04  0.0256
   9.4016E-01   9.6304E-01   1.3314E-04  0.0255
   9.6304E-01   9.8647E-01   1.2456E-04  0.0261
   9.8647E-01   1.0105E+00   1.2103E-04  0.0261
   1.0105E+00   1.0351E+00   1.1514E-04  0.0265
   1.0351E+00   1.0602E+00   1.1637E-04  0.0260
   1.0602E+00   1.0860E+00   1.1286E-04  0.0261
   1.0860E+00   1.1125E+00   1.0826E-04  0.0263
   1.1125E+00   1.1395E+00   1.0475E-04  0.0265
   1.1395E+00   1.1673E+00   1.0491E-04  0.0261
   1.1673E+00   1.1957E+00   1.0199E-04  0.0262
   1.1957E+00   1.2247E+00   1.0377E-04  0.0256
   1.2247E+00   1.2545E+00   9.6258E-05  0.0263
   1.2545E+00   1.2851E+00   9.1734E-05  0.0266
   1.2851E+00   1.3163E+00   9.5786E-05  0.0257
   1.3163E+00   1.3484E+00   8.9611E-05  0.0263
   1.3484E+00   1.3812E+00   9.0627E-05  0.0258
   1.3812E+00   1.4148E+00   8.7665E-05  0.0259
   1.4148E+00   1.4492E+00   8.0856E-05  0.0266
   1.4492E+00   1.4845E+00   8.1757E-05  0.0262
   1.4845E+00   1.5206E+00   8.0181E-05  0.0261
   1.5206E+00   1.5576E+00   7.8417E-05  0.0261
   1.5576E+00   1.5955E+00   7.4754E-05  0.0264
   1.5955E+00   1.6343E+00   7.0712E-05  0.0268
   1.6343E+00   1.6741E+00   6.8723E-05  0.0269
   1.6741E+00   1.7148E+00   6.9153E-05  0.0265
   1.7148E+00   1.7565E+00   6.8227E-05  0.0264
   1.7565E+00   1.7992E+00   6.5847E-05  0.0265
   1.7992E+00   1.8430E+00   6.2817E-05  0.0268
   1.8430E+00   1.8879E+00   6.2169E-05  0.0266
   1.8879E+00   1.9338E+00   6.0633E-05  0.0266
   1.9338E+00   1.9808E+00   5.7032E-05  0.0271
   1.9808E+00   2.0290E+00   5.5913E-05  0.0271
   2.0290E+00   2.0784E+00   5.4289E-05  0.0271
   2.0784E+00   2.1290E+00   4.9728E-05  0.0280
   2.1290E+00   2.1808E+00   5.0802E-05  0.0274
   2.1808E+00   2.2338E+00   5.2810E-05  0.0265
   2.2338E+00   2.2882E+00   4.8781E-05  0.0273
   2.2882E+00   2.3439E+00   4.6850E-05  0.0275
   2.3439E+00   2.4009E+00   4.7769E-05  0.0269
   2.4009E+00   2.4593E+00   4.6603E-05  0.0269
   2.4593E+00   2.5191E+00   4.3854E-05  0.0274
   2.5191E+00   2.5804E+00   4.4651E-05  0.0269
   2.5804E+00   2.6432E+00   4.3835E-05  0.0268
   2.6432E+00   2.7075E+00   4.3704E-05  0.0265
   2.7075E+00   2.7734E+00   4.0254E-05  0.0273
   2.7734E+00   2.8409E+00   3.8892E-05  0.0274
   2.8409E+00   2.9100E+00   3.6180E-05  0.0281
   2.9100E+00   2.9808E+00   3.5776E-05  0.0279
   2.9808E+00   3.0533E+00   3.2470E-05  0.0289
   3.0533E+00   3.1276E+00   3.2418E-05  0.0286
   3.1276E+00   3.2037E+00   3.3280E-05  0.0279
   3.2037E+00   3.2817E+00   3.3392E-05  0.0276
   3.2817E+00   3.3615E+00   3.0116E-05  0.0286
   3.3615E+00   3.4433E+00   3.0395E-05  0.0282
   3.4433E+00   3.5271E+00   2.9700E-05  0.0282
   3.5271E+00   3.6129E+00   2.8176E-05  0.0285
   3.6129E+00   3.7008E+00   2.8149E-05  0.0282
   3.7008E+00   3.7908E+00   2.9311E-05  0.0273
   3.7908E+00   3.8831E+00   2.7091E-05  0.0281
   3.8831E+00   3.9776E+00   2.5396E-05  0.0287
   3.9776E+00   4.0743E+00   2.4926E-05  0.0286
   4.0743E+00   4.1735E+00   2.3617E-05  0.0290
   4.1735E+00   4.2750E+00   2.3119E-05  0.0290
   4.2750E+00   4.3790E+00   2.1432E-05  0.0298
   4.3790E+00   4.4856E+00   2.1276E-05  0.0296
   4.4856E+00   4.5947E+00   1.9127E-05  0.0308
   4.5947E+00   4.7065E+00   1.9010E-05  0.0305
   4.7065E+00   4.8210E+00   1.8208E-05  0.0309
   4.8210E+00   4.9383E+00   1.7214E-05  0.0313
   4.9383E+00   5.0585E+00   1.5976E-05  0.0321
   5.0585E+00   5.1815E+00   1.6330E-05  0.0314
   5.1815E+00   5.3076E+00   1.4995E-05  0.0324
   5.3076E+00   5.4368E+00   1.3829E-05  0.0334
   5.4368E+00   5.5690E+00   1.4637E-05  0.0320
   5.5690E+00   5.7045E+00   1.2844E-05  0.0338
   5.7045E+00   5.8433E+00   1.2621E-05  0.0337
   5.8433E+00   5.9855E+00   1.1943E-05  0.0342
   5.9855E+00   6.1311E+00   1.0652E-05  0.0358
   6.1311E+00   6.2803E+00   1.0139E-05  0.0362
   6.2803E+00   6.4331E+00   9.7104E-06  0.0366
   6.4331E+00   6.5896E+00   9.6703E-06  0.0363
   6.5896E+00   6.7500E+00   9.2080E-06  0.0367
   6.7500E+00   6.9142E+00   8.4384E-06  0.0378
   6.9142E+00   7.0824E+00   8.1207E-06  0.0381
   7.0824E+00   7.2548E+00   7.4203E-06  0.0394
   7.2548E+00   7.4313E+00   6.6628E-06  0.0411
   7.4313E+00   7.6121E+00   6.5299E-06  0.0411
   7.6121E+00   7.7973E+00   6.0460E-06  0.0422
   7.7973E+00   7.9870E+00   5.5475E-06  0.0435
   7.9870E+00   8.1813E+00   5.3677E-06  0.0436
   8.1813E+00   8.3804E+00   5.3290E-06  0.0433
   8.3804E+00   8.5843E+00   5.0098E-06  0.0441
   8.5843E+00   8.7931E+00   4.8361E-06  0.0444
   8.7931E+00   9.0071E+00   4.2958E-06  0.0466
   9.0071E+00   9.2262E+00   3.9748E-06  0.0478
   9.2262E+00   9.4507E+00   3.8966E-06  0.0477
   9.4507E+00   9.6807E+00   3.7225E-06  0.0482
   9.6807E+00   9.9162E+00   3.8164E-06  0.0471
   9.9162E+00   1.0157E+01   3.7913E-06  0.0467
   1.0157E+01   1.0405E+01   3.2722E-06  0.0497
   1.0405E+01   1.0658E+01   3.6293E-06  0.0466
   1.0658E+01   1.0917E+01   3.8137E-06  0.0449
   1.0917E+01   1.1183E+01   3.4499E-06  0.0466
   1.1183E+01   1.1455E+01   3.5034E-06  0.0457
   1.1455E+01   1.1733E+01   3.1445E-06  0.0476
   1.1733E+01   1.2019E+01   3.3137E-06  0.0459
   1.2019E+01   1.2311E+01   2.6468E-06  0.0508
   1.2311E+01   1.2611E+01   2.4736E-06  0.0519
   1.2611E+01   1.2918E+01   2.5246E-06  0.0507
   1.2918E+01   1.3232E+01   2.4117E-06  0.0513
   1.3232E+01   1.3554E+01   2.0508E-06  0.0550
   1.3554E+01   1.3884E+01   1.9649E-06  0.0555
   1.3884E+01   1.4222E+01   1.9903E-06  0.0544
   1.4222E+01   1.4568E+01   1.8736E-06  0.0555
   1.4568E+01   1.4922E+01   1.6365E-06  0.0587
   1.4922E+01   1.5285E+01   1.3433E-06  0.0640
   1.5285E+01   1.5657E+01   1.2151E-06  0.0664
   1.5657E+01   1.6038E+01   1.2023E-06  0.0661
   1.6038E+01   1.6428E+01   1.1173E-06  0.0677
   1.6428E+01   1.6828E+01   1.0983E-06  0.0675
   1.6828E+01   1.7237E+01   9.3055E-07  0.0724
   1.7237E+01   1.7657E+01   8.7745E-07  0.0737
   1.7657E+01   1.8086E+01   8.2482E-07  0.0751
   1.8086E+01   1.8526E+01   8.7786E-07  0.0719
   1.8526E+01   1.8977E+01   6.9216E-07  0.0801
   1.8977E+01   1.9439E+01   5.5877E-07  0.0880
   1.9439E+01   1.9912E+01   7.3579E-07  0.0758
   1.9912E+01   2.0396E+01   5.4492E-07  0.0870
   2.0396E+01   2.0893E+01   4.4332E-07  0.0953
   2.0893E+01   2.1401E+01   4.5639E-07  0.0928
   2.1401E+01   2.1922E+01   4.6476E-07  0.0909
   2.1922E+01   2.2455E+01   3.9747E-07  0.0971
   2.2455E+01   2.3001E+01   3.2214E-07  0.1066
   2.3001E+01   2.3561E+01   2.5016E-07  0.1195
   2.3561E+01   2.4134E+01   2.0584E-07  0.1302
   2.4134E+01   2.4721E+01   1.9414E-07  0.1325
   2.4721E+01   2.5323E+01   1.4963E-07  0.1491
   2.5323E+01   2.5939E+01   1.5906E-07  0.1429
   2.5939E+01   2.6570E+01   9.5069E-08  0.1826
   2.6570E+01   2.7217E+01   6.4968E-08  0.2182
   2.7217E+01   2.7879E+01   6.0404E-08  0.2236
   2.7879E+01   2.8557E+01   4.7176E-08  0.2500
   2.8557E+01   2.9252E+01   2.8784E-08  0.3162
   2.9252E+01   2.9964E+01   3.0911E-08  0.3015
   2.9964E+01   3.0693E+01   1.6460E-08  0.4082
   3.0693E+01   3.1440E+01   8.0345E-09  0.5774
   3.1440E+01   3.2205E+01   0.0000E+00  0.0000
   3.2205E+01   3.2988E+01   0.0000E+00  0.0000
   3.2988E+01   3.3791E+01   2.4918E-09  1.0000
   3.3791E+01   3.4613E+01   4.8653E-09  0.7071
   3.4613E+01   3.5455E+01   0.0000E+00  0.0000
   3.5455E+01   3.6318E+01   2.3184E-09  1.0000
   3.6318E+01   3.7201E+01   0.0000E+00  0.0000
   3.7201E+01   3.8106E+01   2.2096E-09  1.0000
   3.8106E+01   3.9034E+01   2.1571E-09  1.0000
   3.9034E+01   3.9983E+01   2.1059E-09  1.0000
   3.9983E+01   4.0956E+01   2.0559E-09  1.0000
   4.0956E+01   4.1953E+01   0.0000E+00  0.0000
   4.1953E+01   4.2973E+01   0.0000E+00  0.0000
   4.2973E+01   4.4019E+01   0.0000E+00  0.0000
   4.4019E+01   4.5090E+01   0.0000E+00  0.0000
   4.5090E+01   4.6187E+01   0.0000E+00  0.0000
   4.6187E+01   4.7311E+01   0.0000E+00  0.0000
   4.7311E+01   4.8462E+01   0.0000E+00  0.0000
   4.8462E+01   4.9641E+01   0.0000E+00  0.0000
   4.9641E+01   5.0849E+01   0.0000E+00  0.0000
   5.0849E+01   5.2086E+01   0.0000E+00  0.0000
   5.2086E+01   5.3353E+01   0.0000E+00  0.0000
   5.3353E+01   5.4651E+01   0.0000E+00  0.0000
   5.4651E+01   5.5981E+01   0.0000E+00  0.0000
   5.5981E+01   5.7343E+01   0.0000E+00  0.0000
   5.7343E+01   5.8738E+01   0.0000E+00  0.0000
   5.8738E+01   6.0168E+01   0.0000E+00  0.0000
   6.0168E+01   6.1632E+01   0.0000E+00  0.0000
   6.1632E+01   6.3131E+01   0.0000E+00  0.0000
   6.3131E+01   6.4667E+01   0.0000E+00  0.0000
   6.4667E+01   6.6240E+01   0.0000E+00  0.0000
   6.6240E+01   6.7852E+01   0.0000E+00  0.0000
   6.7852E+01   6.9503E+01   0.0000E+00  0.0000
   6.9503E+01   7.1194E+01   0.0000E+00  0.0000
   7.1194E+01   7.2926E+01   0.0000E+00  0.0000
   7.2926E+01   7.4701E+01   0.0000E+00  0.0000
   7.4701E+01   7.6518E+01   0.0000E+00  0.0000
   7.6518E+01   7.8380E+01   0.0000E+00  0.0000
   7.8380E+01   8.0287E+01   0.0000E+00  0.0000
   8.0287E+01   8.2240E+01   0.0000E+00  0.0000
   8.2240E+01   8.4241E+01   0.0000E+00  0.0000
   8.4241E+01   8.6291E+01   0.0000E+00  0.0000
   8.6291E+01   8.8391E+01   0.0000E+00  0.0000
   8.8391E+01   9.0541E+01   0.0000E+00  0.0000
   9.0541E+01   9.2744E+01   0.0000E+00  0.0000
   9.2744E+01   9.5001E+01   0.0000E+00  0.0000
   9.5001E+01   9.7312E+01   0.0000E+00  0.0000
   9.7312E+01   9.9680E+01   0.0000E+00  0.0000
   9.9680E+01   1.0211E+02   0.0000E+00  0.0000
   1.0211E+02   1.0459E+02   0.0000E+00  0.0000
   1.0459E+02   1.0713E+02   0.0000E+00  0.0000
   1.0713E+02   1.0974E+02   0.0000E+00  0.0000
   1.0974E+02   1.1241E+02   0.0000E+00  0.0000
   1.1241E+02   1.1515E+02   0.0000E+00  0.0000
   1.1515E+02   1.1795E+02   0.0000E+00  0.0000
   1.1795E+02   1.2082E+02   0.0000E+00  0.0000
   1.2082E+02   1.2376E+02   0.0000E+00  0.0000
   1.2376E+02   1.2677E+02   0.0000E+00  0.0000
   1.2677E+02   1.2985E+02   0.0000E+00  0.0000
   1.2985E+02   1.3301E+02   0.0000E+00  0.0000
   1.3301E+02   1.3625E+02   0.0000E+00  0.0000
   1.3625E+02   1.3956E+02   0.0000E+00  0.0000
   1.3956E+02   1.4296E+02   0.0000E+00  0.0000
   1.4296E+02   1.4644E+02   0.0000E+00  0.0000
   1.4644E+02   1.5000E+02   0.0000E+00  0.0000

#   sum over                 2.7162E-06
'no. =    1   reg = 121 - 221'
msuc: {\huge [t-cross] in region mesh}
msdr: {\it plotted by \ANGEL \version}
msdl: {\it calculated by \PHITS  3.26}
wt: s(0.7)
\vspace{-3}
  region surface crossing
  area  &=&   1.0000E+00 [cm^2]
e:
 
# Information for Restart Calculation
# This calculation was newly started
# istdev =  2 # 1:Batch variance, 2:History variance
# resc2  = 5.00000000000000000E+08 # Total source weight or Total source weight / maxcas
# resc3  = 5.00000000000000000E+08 # Total history number or Total batch number
# maxcas =   500000000 # History / Batch, only used for istdev=1
# bitrseed = 1101101111010011011000101101110001100110110010110001010100010001 # bit data of rseed
