[ T-Cross ]
    title = [t-cross] in region mesh
     mesh =  reg            # mesh type is region-wise
      reg =    1            # number of crossing regions
      non     r-from    r-to       area
      1       115       215        1.000000    
   e-type =    3            # e-mesh is log given by emin, emax and ne
     emin =  1.0000000E-02  # minimum value of e-mesh points
     emax =   150.0000      # maximum value of e-mesh points
#    edel =  2.4039514E-02  # mesh width of e-mesh points
       ne =    400          # number of e-mesh points
#    data = ( e(i), i = 1, ne + 1 )
#           1.00000E-02  1.02433E-02  1.04925E-02  1.07478E-02  1.10093E-02
#           1.12772E-02  1.15516E-02  1.18326E-02  1.21205E-02  1.24154E-02
#           1.27175E-02  1.30269E-02  1.33439E-02  1.36686E-02  1.40011E-02
#           1.43418E-02  1.46907E-02  1.50482E-02  1.54143E-02  1.57894E-02
#           1.61735E-02  1.65670E-02  1.69701E-02  1.73830E-02  1.78060E-02
#           1.82392E-02  1.86830E-02  1.91375E-02  1.96032E-02  2.00801E-02
#           2.05687E-02  2.10692E-02  2.15818E-02  2.21069E-02  2.26448E-02
#           2.31957E-02  2.37601E-02  2.43382E-02  2.49304E-02  2.55369E-02
#           2.61583E-02  2.67947E-02  2.74467E-02  2.81145E-02  2.87985E-02
#           2.94992E-02  3.02169E-02  3.09521E-02  3.17052E-02  3.24766E-02
#           3.32668E-02  3.40762E-02  3.49053E-02  3.57546E-02  3.66246E-02
#           3.75157E-02  3.84284E-02  3.93634E-02  4.03212E-02  4.13022E-02
#           4.23071E-02  4.33365E-02  4.43909E-02  4.54710E-02  4.65773E-02
#           4.77106E-02  4.88714E-02  5.00605E-02  5.12785E-02  5.25262E-02
#           5.38042E-02  5.51133E-02  5.64542E-02  5.78278E-02  5.92348E-02
#           6.06760E-02  6.21523E-02  6.36645E-02  6.52135E-02  6.68002E-02
#           6.84255E-02  7.00904E-02  7.17957E-02  7.35426E-02  7.53319E-02
#           7.71648E-02  7.90423E-02  8.09655E-02  8.29354E-02  8.49533E-02
#           8.70203E-02  8.91376E-02  9.13064E-02  9.35279E-02  9.58035E-02
#           9.81345E-02  1.00522E-01  1.02968E-01  1.05473E-01  1.08040E-01
#           1.10668E-01  1.13361E-01  1.16119E-01  1.18944E-01  1.21838E-01
#           1.24803E-01  1.27839E-01  1.30950E-01  1.34136E-01  1.37399E-01
#           1.40742E-01  1.44167E-01  1.47675E-01  1.51268E-01  1.54948E-01
#           1.58718E-01  1.62580E-01  1.66535E-01  1.70587E-01  1.74738E-01
#           1.78989E-01  1.83344E-01  1.87805E-01  1.92375E-01  1.97055E-01
#           2.01850E-01  2.06761E-01  2.11792E-01  2.16945E-01  2.22223E-01
#           2.27630E-01  2.33169E-01  2.38842E-01  2.44653E-01  2.50605E-01
#           2.56703E-01  2.62949E-01  2.69346E-01  2.75900E-01  2.82613E-01
#           2.89489E-01  2.96532E-01  3.03747E-01  3.11138E-01  3.18708E-01
#           3.26462E-01  3.34405E-01  3.42542E-01  3.50876E-01  3.59413E-01
#           3.68158E-01  3.77116E-01  3.86291E-01  3.95690E-01  4.05317E-01
#           4.15179E-01  4.25281E-01  4.35628E-01  4.46227E-01  4.57084E-01
#           4.68205E-01  4.79597E-01  4.91266E-01  5.03219E-01  5.15463E-01
#           5.28005E-01  5.40851E-01  5.54011E-01  5.67490E-01  5.81298E-01
#           5.95441E-01  6.09929E-01  6.24769E-01  6.39970E-01  6.55541E-01
#           6.71491E-01  6.87828E-01  7.04564E-01  7.21706E-01  7.39266E-01
#           7.57253E-01  7.75678E-01  7.94551E-01  8.13883E-01  8.33685E-01
#           8.53969E-01  8.74747E-01  8.96030E-01  9.17831E-01  9.40163E-01
#           9.63038E-01  9.86469E-01  1.01047E+00  1.03506E+00  1.06024E+00
#           1.08604E+00  1.11246E+00  1.13953E+00  1.16725E+00  1.19565E+00
#           1.22474E+00  1.25454E+00  1.28507E+00  1.31633E+00  1.34836E+00
#           1.38117E+00  1.41477E+00  1.44920E+00  1.48446E+00  1.52057E+00
#           1.55757E+00  1.59547E+00  1.63429E+00  1.67405E+00  1.71478E+00
#           1.75650E+00  1.79924E+00  1.84302E+00  1.88786E+00  1.93379E+00
#           1.98084E+00  2.02904E+00  2.07841E+00  2.12898E+00  2.18078E+00
#           2.23384E+00  2.28819E+00  2.34386E+00  2.40089E+00  2.45930E+00
#           2.51914E+00  2.58043E+00  2.64322E+00  2.70753E+00  2.77341E+00
#           2.84088E+00  2.91001E+00  2.98081E+00  3.05333E+00  3.12762E+00
#           3.20372E+00  3.28167E+00  3.36152E+00  3.44330E+00  3.52708E+00
#           3.61290E+00  3.70080E+00  3.79085E+00  3.88308E+00  3.97756E+00
#           4.07434E+00  4.17347E+00  4.27501E+00  4.37903E+00  4.48557E+00
#           4.59471E+00  4.70650E+00  4.82102E+00  4.93832E+00  5.05847E+00
#           5.18155E+00  5.30762E+00  5.43676E+00  5.56904E+00  5.70453E+00
#           5.84333E+00  5.98550E+00  6.13114E+00  6.28031E+00  6.43312E+00
#           6.58964E+00  6.74997E+00  6.91420E+00  7.08243E+00  7.25475E+00
#           7.43126E+00  7.61207E+00  7.79728E+00  7.98700E+00  8.18133E+00
#           8.38038E+00  8.58428E+00  8.79315E+00  9.00709E+00  9.22624E+00
#           9.45072E+00  9.68067E+00  9.91620E+00  1.01575E+01  1.04046E+01
#           1.06578E+01  1.09171E+01  1.11827E+01  1.14548E+01  1.17335E+01
#           1.20190E+01  1.23114E+01  1.26109E+01  1.29178E+01  1.32321E+01
#           1.35540E+01  1.38838E+01  1.42216E+01  1.45676E+01  1.49221E+01
#           1.52851E+01  1.56570E+01  1.60380E+01  1.64282E+01  1.68279E+01
#           1.72374E+01  1.76568E+01  1.80864E+01  1.85264E+01  1.89772E+01
#           1.94389E+01  1.99119E+01  2.03963E+01  2.08926E+01  2.14009E+01
#           2.19216E+01  2.24550E+01  2.30014E+01  2.35610E+01  2.41343E+01
#           2.47215E+01  2.53230E+01  2.59391E+01  2.65702E+01  2.72167E+01
#           2.78789E+01  2.85572E+01  2.92520E+01  2.99637E+01  3.06928E+01
#           3.14396E+01  3.22045E+01  3.29881E+01  3.37907E+01  3.46128E+01
#           3.54550E+01  3.63177E+01  3.72013E+01  3.81064E+01  3.90336E+01
#           3.99833E+01  4.09561E+01  4.19526E+01  4.29734E+01  4.40189E+01
#           4.50900E+01  4.61870E+01  4.73108E+01  4.84619E+01  4.96410E+01
#           5.08488E+01  5.20860E+01  5.33533E+01  5.46514E+01  5.59812E+01
#           5.73432E+01  5.87384E+01  6.01676E+01  6.16315E+01  6.31311E+01
#           6.46671E+01  6.62405E+01  6.78522E+01  6.95031E+01  7.11941E+01
#           7.29263E+01  7.47007E+01  7.65182E+01  7.83800E+01  8.02870E+01
#           8.22405E+01  8.42414E+01  8.62911E+01  8.83906E+01  9.05412E+01
#           9.27442E+01  9.50007E+01  9.73122E+01  9.96799E+01  1.02105E+02
#           1.04589E+02  1.07134E+02  1.09741E+02  1.12411E+02  1.15146E+02
#           1.17948E+02  1.20817E+02  1.23757E+02  1.26768E+02  1.29852E+02
#           1.33012E+02  1.36248E+02  1.39563E+02  1.42959E+02  1.46437E+02
#           1.50000E+02
     unit =    2            # unit is [1/cm^2/(MeV/n)/source]
     axis =  eng            # axis of output
     file = detector-16.out  # file name of output for the above axis
   output = f-curr          # surface crossing forward current spectrum
     part =  neutron  
# kf/name :  2112     
#    used :        main (  %)        temp (  %)       total (  %)
#  memory :         414 (  0)           0 (  0)         414 (  0)

#------------------------------------------------------------------------------
#newpage:
#   no. =    1   reg = 115 - 215

x: Energy [MeV/n]
y:  F-Curr [1/cm^2/(MeV/n)/source]         
p: xlog ylog afac(0.8) form(0.9)
h: n            x            y(neutron ),hh0l   n 
#  e-lower      e-upper      neutron     r.err 
   1.0000E-02   1.0243E-02   2.1620E-03  0.0616
   1.0243E-02   1.0493E-02   1.9828E-03  0.0634
   1.0493E-02   1.0748E-02   2.0082E-03  0.0623
   1.0748E-02   1.1009E-02   1.8521E-03  0.0641
   1.1009E-02   1.1277E-02   2.4090E-03  0.0556
   1.1277E-02   1.1552E-02   2.1400E-03  0.0582
   1.1552E-02   1.1833E-02   2.0185E-03  0.0593
   1.1833E-02   1.2121E-02   1.8711E-03  0.0608
   1.2121E-02   1.2415E-02   1.8213E-03  0.0609
   1.2415E-02   1.2718E-02   1.8666E-03  0.0594
   1.2718E-02   1.3027E-02   1.8073E-03  0.0597
   1.3027E-02   1.3344E-02   1.8283E-03  0.0586
   1.3344E-02   1.3669E-02   1.6916E-03  0.0602
   1.3669E-02   1.4001E-02   1.6727E-03  0.0598
   1.4001E-02   1.4342E-02   1.5999E-03  0.0604
   1.4342E-02   1.4691E-02   1.6899E-03  0.0581
   1.4691E-02   1.5048E-02   1.6761E-03  0.0577
   1.5048E-02   1.5414E-02   1.7151E-03  0.0563
   1.5414E-02   1.5789E-02   1.7156E-03  0.0556
   1.5789E-02   1.6174E-02   1.5130E-03  0.0585
   1.6174E-02   1.6567E-02   1.7118E-03  0.0544
   1.6567E-02   1.6970E-02   1.5960E-03  0.0557
   1.6970E-02   1.7383E-02   1.6439E-03  0.0541
   1.7383E-02   1.7806E-02   1.5164E-03  0.0557
   1.7806E-02   1.8239E-02   1.5152E-03  0.0550
   1.8239E-02   1.8683E-02   1.4709E-03  0.0552
   1.8683E-02   1.9138E-02   1.3125E-03  0.0577
   1.9138E-02   1.9603E-02   1.2692E-03  0.0580
   1.9603E-02   2.0080E-02   1.4864E-03  0.0530
   2.0080E-02   2.0569E-02   1.2100E-03  0.0580
   2.0569E-02   2.1069E-02   1.3108E-03  0.0551
   2.1069E-02   2.1582E-02   1.1964E-03  0.0570
   2.1582E-02   2.2107E-02   1.3559E-03  0.0530
   2.2107E-02   2.2645E-02   1.2182E-03  0.0550
   2.2645E-02   2.3196E-02   1.1916E-03  0.0550
   2.3196E-02   2.3760E-02   1.2055E-03  0.0541
   2.3760E-02   2.4338E-02   1.1081E-03  0.0558
   2.4338E-02   2.4930E-02   1.2772E-03  0.0513
   2.4930E-02   2.5537E-02   1.2218E-03  0.0518
   2.5537E-02   2.6158E-02   1.0952E-03  0.0541
   2.6158E-02   2.6795E-02   1.0959E-03  0.0533
   2.6795E-02   2.7447E-02   1.0835E-03  0.0531
   2.7447E-02   2.8114E-02   1.1090E-03  0.0518
   2.8114E-02   2.8799E-02   1.1406E-03  0.0505
   2.8799E-02   2.9499E-02   1.0583E-03  0.0519
   2.9499E-02   3.0217E-02   9.9891E-04  0.0527
   3.0217E-02   3.0952E-02   9.6909E-04  0.0528
   3.0952E-02   3.1705E-02   9.7696E-04  0.0520
   3.1705E-02   3.2477E-02   9.7128E-04  0.0516
   3.2477E-02   3.3267E-02   8.9176E-04  0.0531
   3.3267E-02   3.4076E-02   9.6355E-04  0.0506
   3.4076E-02   3.4905E-02   8.8898E-04  0.0519
   3.4905E-02   3.5755E-02   8.0877E-04  0.0538
   3.5755E-02   3.6625E-02   9.3488E-04  0.0494
   3.6625E-02   3.7516E-02   8.8920E-04  0.0502
   3.7516E-02   3.8428E-02   8.6835E-04  0.0501
   3.8428E-02   3.9363E-02   7.4401E-04  0.0535
   3.9363E-02   4.0321E-02   7.9590E-04  0.0511
   4.0321E-02   4.1302E-02   8.3680E-04  0.0492
   4.1302E-02   4.2307E-02   8.0779E-04  0.0494
   4.2307E-02   4.3337E-02   7.7443E-04  0.0500
   4.3337E-02   4.4391E-02   7.3058E-04  0.0509
   4.4391E-02   4.5471E-02   7.4470E-04  0.0498
   4.5471E-02   4.6577E-02   6.7017E-04  0.0518
   4.6577E-02   4.7711E-02   6.7037E-04  0.0512
   4.7711E-02   4.8871E-02   6.8771E-04  0.0500
   4.8871E-02   5.0061E-02   7.0576E-04  0.0487
   5.0061E-02   5.1279E-02   6.5855E-04  0.0498
   5.1279E-02   5.2526E-02   6.9574E-04  0.0479
   5.2526E-02   5.3804E-02   6.5713E-04  0.0487
   5.3804E-02   5.5113E-02   6.2481E-04  0.0493
   5.5113E-02   5.6454E-02   6.0694E-04  0.0495
   5.6454E-02   5.7828E-02   6.5544E-04  0.0470
   5.7828E-02   5.9235E-02   6.1382E-04  0.0480
   5.9235E-02   6.0676E-02   6.0398E-04  0.0478
   6.0676E-02   6.2152E-02   6.4109E-04  0.0459
   6.2152E-02   6.3665E-02   6.0345E-04  0.0467
   6.3665E-02   6.5214E-02   5.4009E-04  0.0488
   6.5214E-02   6.6800E-02   5.4142E-04  0.0481
   6.6800E-02   6.8426E-02   5.4525E-04  0.0473
   6.8426E-02   7.0090E-02   5.4017E-04  0.0471
   7.0090E-02   7.1796E-02   5.3414E-04  0.0467
   7.1796E-02   7.3543E-02   5.1198E-04  0.0472
   7.3543E-02   7.5332E-02   5.0165E-04  0.0471
   7.5332E-02   7.7165E-02   4.7837E-04  0.0477
   7.7165E-02   7.9042E-02   4.9390E-04  0.0463
   7.9042E-02   8.0965E-02   4.6385E-04  0.0472
   8.0965E-02   8.2935E-02   5.1367E-04  0.0444
   8.2935E-02   8.4953E-02   4.7430E-04  0.0456
   8.4953E-02   8.7020E-02   4.1871E-04  0.0480
   8.7020E-02   8.9138E-02   4.3965E-04  0.0462
   8.9138E-02   9.1306E-02   4.4582E-04  0.0454
   9.1306E-02   9.3528E-02   4.1050E-04  0.0468
   9.3528E-02   9.5804E-02   4.1228E-04  0.0460
   9.5804E-02   9.8134E-02   3.9263E-04  0.0466
   9.8134E-02   1.0052E-01   3.9372E-04  0.0460
   1.0052E-01   1.0297E-01   4.1635E-04  0.0442
   1.0297E-01   1.0547E-01   3.8690E-04  0.0453
   1.0547E-01   1.0804E-01   3.7872E-04  0.0453
   1.0804E-01   1.1067E-01   3.6531E-04  0.0456
   1.1067E-01   1.1336E-01   3.5139E-04  0.0459
   1.1336E-01   1.1612E-01   3.7838E-04  0.0437
   1.1612E-01   1.1894E-01   3.4012E-04  0.0455
   1.1894E-01   1.2184E-01   3.6068E-04  0.0437
   1.2184E-01   1.2480E-01   3.2290E-04  0.0456
   1.2480E-01   1.2784E-01   3.1885E-04  0.0453
   1.2784E-01   1.3095E-01   3.4346E-04  0.0432
   1.3095E-01   1.3414E-01   3.4303E-04  0.0427
   1.3414E-01   1.3740E-01   2.9025E-04  0.0458
   1.3740E-01   1.4074E-01   3.0044E-04  0.0446
   1.4074E-01   1.4417E-01   3.0733E-04  0.0435
   1.4417E-01   1.4767E-01   2.7783E-04  0.0453
   1.4767E-01   1.5127E-01   2.8342E-04  0.0442
   1.5127E-01   1.5495E-01   2.8969E-04  0.0432
   1.5495E-01   1.5872E-01   2.5930E-04  0.0451
   1.5872E-01   1.6258E-01   2.6747E-04  0.0439
   1.6258E-01   1.6654E-01   2.5312E-04  0.0446
   1.6654E-01   1.7059E-01   2.6325E-04  0.0432
   1.7059E-01   1.7474E-01   2.4666E-04  0.0441
   1.7474E-01   1.7899E-01   2.3877E-04  0.0442
   1.7899E-01   1.8334E-01   2.4031E-04  0.0436
   1.8334E-01   1.8781E-01   2.3836E-04  0.0432
   1.8781E-01   1.9237E-01   2.3774E-04  0.0428
   1.9237E-01   1.9706E-01   2.4790E-04  0.0414
   1.9706E-01   2.0185E-01   2.1392E-04  0.0440
   2.0185E-01   2.0676E-01   2.4552E-04  0.0406
   2.0676E-01   2.1179E-01   2.4439E-04  0.0402
   2.1179E-01   2.1694E-01   2.3576E-04  0.0404
   2.1694E-01   2.2222E-01   2.5481E-04  0.0385
   2.2222E-01   2.2763E-01   2.5917E-04  0.0377
   2.2763E-01   2.3317E-01   2.6169E-04  0.0371
   2.3317E-01   2.3884E-01   2.7365E-04  0.0358
   2.3884E-01   2.4465E-01   2.6452E-04  0.0359
   2.4465E-01   2.5061E-01   2.8896E-04  0.0340
   2.5061E-01   2.5670E-01   2.8805E-04  0.0336
   2.5670E-01   2.6295E-01   2.8996E-04  0.0331
   2.6295E-01   2.6935E-01   3.1358E-04  0.0315
   2.6935E-01   2.7590E-01   3.1889E-04  0.0308
   2.7590E-01   2.8261E-01   3.2900E-04  0.0300
   2.8261E-01   2.8949E-01   3.2702E-04  0.0297
   2.8949E-01   2.9653E-01   3.2222E-04  0.0296
   2.9653E-01   3.0375E-01   3.3661E-04  0.0286
   3.0375E-01   3.1114E-01   3.3608E-04  0.0283
   3.1114E-01   3.1871E-01   3.4283E-04  0.0277
   3.1871E-01   3.2646E-01   3.4324E-04  0.0273
   3.2646E-01   3.3441E-01   3.5570E-04  0.0265
   3.3441E-01   3.4254E-01   3.8228E-04  0.0253
   3.4254E-01   3.5088E-01   3.7061E-04  0.0254
   3.5088E-01   3.5941E-01   3.7374E-04  0.0250
   3.5941E-01   3.6816E-01   3.7906E-04  0.0245
   3.6816E-01   3.7712E-01   3.9166E-04  0.0238
   3.7712E-01   3.8629E-01   4.0237E-04  0.0232
   3.8629E-01   3.9569E-01   3.8669E-04  0.0234
   3.9569E-01   4.0532E-01   4.0409E-04  0.0226
   4.0532E-01   4.1518E-01   4.1617E-04  0.0220
   4.1518E-01   4.2528E-01   4.2070E-04  0.0216
   4.2528E-01   4.3563E-01   4.1990E-04  0.0214
   4.3563E-01   4.4623E-01   4.4208E-04  0.0206
   4.4623E-01   4.5708E-01   4.5053E-04  0.0202
   4.5708E-01   4.6821E-01   4.4749E-04  0.0200
   4.6821E-01   4.7960E-01   4.7619E-04  0.0191
   4.7960E-01   4.9127E-01   4.5652E-04  0.0193
   4.9127E-01   5.0322E-01   4.6715E-04  0.0189
   5.0322E-01   5.1546E-01   4.6161E-04  0.0188
   5.1546E-01   5.2800E-01   4.7262E-04  0.0183
   5.2800E-01   5.4085E-01   4.8051E-04  0.0179
   5.4085E-01   5.5401E-01   4.7790E-04  0.0178
   5.5401E-01   5.6749E-01   5.0197E-04  0.0171
   5.6749E-01   5.8130E-01   4.8044E-04  0.0173
   5.8130E-01   5.9544E-01   4.9589E-04  0.0168
   5.9544E-01   6.0993E-01   4.8171E-04  0.0169
   6.0993E-01   6.2477E-01   4.9059E-04  0.0165
   6.2477E-01   6.3997E-01   4.9813E-04  0.0162
   6.3997E-01   6.5554E-01   4.9031E-04  0.0161
   6.5554E-01   6.7149E-01   4.9337E-04  0.0159
   6.7149E-01   6.8783E-01   4.8995E-04  0.0157
   6.8783E-01   7.0456E-01   5.0314E-04  0.0154
   7.0456E-01   7.2171E-01   5.0246E-04  0.0152
   7.2171E-01   7.3927E-01   4.9470E-04  0.0151
   7.3927E-01   7.5725E-01   4.9095E-04  0.0150
   7.5725E-01   7.7568E-01   4.7650E-04  0.0150
   7.7568E-01   7.9455E-01   4.6700E-04  0.0150
   7.9455E-01   8.1388E-01   4.8391E-04  0.0146
   8.1388E-01   8.3368E-01   4.7067E-04  0.0146
   8.3368E-01   8.5397E-01   4.7305E-04  0.0144
   8.5397E-01   8.7475E-01   4.6207E-04  0.0144
   8.7475E-01   8.9603E-01   4.5744E-04  0.0143
   8.9603E-01   9.1783E-01   4.4257E-04  0.0143
   9.1783E-01   9.4016E-01   4.3081E-04  0.0144
   9.4016E-01   9.6304E-01   4.3064E-04  0.0142
   9.6304E-01   9.8647E-01   4.1523E-04  0.0143
   9.8647E-01   1.0105E+00   4.1269E-04  0.0142
   1.0105E+00   1.0351E+00   4.0524E-04  0.0141
   1.0351E+00   1.0602E+00   4.1817E-04  0.0137
   1.0602E+00   1.0860E+00   4.1924E-04  0.0135
   1.0860E+00   1.1125E+00   4.2331E-04  0.0133
   1.1125E+00   1.1395E+00   4.3401E-04  0.0130
   1.1395E+00   1.1673E+00   4.3973E-04  0.0128
   1.1673E+00   1.1957E+00   4.5140E-04  0.0124
   1.1957E+00   1.2247E+00   4.6071E-04  0.0122
   1.2247E+00   1.2545E+00   4.6659E-04  0.0119
   1.2545E+00   1.2851E+00   4.6843E-04  0.0118
   1.2851E+00   1.3163E+00   4.8126E-04  0.0115
   1.3163E+00   1.3484E+00   4.8925E-04  0.0113
   1.3484E+00   1.3812E+00   4.8902E-04  0.0111
   1.3812E+00   1.4148E+00   5.0289E-04  0.0108
   1.4148E+00   1.4492E+00   5.1313E-04  0.0106
   1.4492E+00   1.4845E+00   5.0662E-04  0.0105
   1.4845E+00   1.5206E+00   4.9980E-04  0.0105
   1.5206E+00   1.5576E+00   5.1407E-04  0.0102
   1.5576E+00   1.5955E+00   5.0891E-04  0.0101
   1.5955E+00   1.6343E+00   5.2221E-04  0.0099
   1.6343E+00   1.6741E+00   5.1625E-04  0.0098
   1.6741E+00   1.7148E+00   5.2151E-04  0.0097
   1.7148E+00   1.7565E+00   5.3785E-04  0.0094
   1.7565E+00   1.7992E+00   5.3296E-04  0.0093
   1.7992E+00   1.8430E+00   5.3128E-04  0.0092
   1.8430E+00   1.8879E+00   5.2380E-04  0.0092
   1.8879E+00   1.9338E+00   5.2188E-04  0.0091
   1.9338E+00   1.9808E+00   5.2134E-04  0.0090
   1.9808E+00   2.0290E+00   5.2326E-04  0.0089
   2.0290E+00   2.0784E+00   5.3345E-04  0.0087
   2.0784E+00   2.1290E+00   5.2320E-04  0.0087
   2.1290E+00   2.1808E+00   5.1569E-04  0.0086
   2.1808E+00   2.2338E+00   5.1607E-04  0.0085
   2.2338E+00   2.2882E+00   5.0015E-04  0.0085
   2.2882E+00   2.3439E+00   4.9868E-04  0.0084
   2.3439E+00   2.4009E+00   4.9434E-04  0.0084
   2.4009E+00   2.4593E+00   4.9542E-04  0.0083
   2.4593E+00   2.5191E+00   4.8430E-04  0.0083
   2.5191E+00   2.5804E+00   4.8577E-04  0.0082
   2.5804E+00   2.6432E+00   4.7188E-04  0.0082
   2.6432E+00   2.7075E+00   4.6372E-04  0.0081
   2.7075E+00   2.7734E+00   4.5883E-04  0.0081
   2.7734E+00   2.8409E+00   4.5297E-04  0.0080
   2.8409E+00   2.9100E+00   4.4293E-04  0.0080
   2.9100E+00   2.9808E+00   4.3723E-04  0.0080
   2.9808E+00   3.0533E+00   4.2729E-04  0.0080
   3.0533E+00   3.1276E+00   4.1768E-04  0.0080
   3.1276E+00   3.2037E+00   4.0366E-04  0.0080
   3.2037E+00   3.2817E+00   4.0156E-04  0.0080
   3.2817E+00   3.3615E+00   3.9117E-04  0.0080
   3.3615E+00   3.4433E+00   3.7832E-04  0.0080
   3.4433E+00   3.5271E+00   3.7362E-04  0.0080
   3.5271E+00   3.6129E+00   3.6525E-04  0.0079
   3.6129E+00   3.7008E+00   3.5909E-04  0.0079
   3.7008E+00   3.7908E+00   3.4254E-04  0.0080
   3.7908E+00   3.8831E+00   3.3819E-04  0.0080
   3.8831E+00   3.9776E+00   3.2315E-04  0.0081
   3.9776E+00   4.0743E+00   3.2211E-04  0.0080
   4.0743E+00   4.1735E+00   3.0915E-04  0.0080
   4.1735E+00   4.2750E+00   2.9553E-04  0.0081
   4.2750E+00   4.3790E+00   2.8783E-04  0.0081
   4.3790E+00   4.4856E+00   2.7511E-04  0.0082
   4.4856E+00   4.5947E+00   2.6907E-04  0.0082
   4.5947E+00   4.7065E+00   2.5590E-04  0.0083
   4.7065E+00   4.8210E+00   2.4697E-04  0.0084
   4.8210E+00   4.9383E+00   2.3365E-04  0.0085
   4.9383E+00   5.0585E+00   2.2158E-04  0.0086
   5.0585E+00   5.1815E+00   2.1068E-04  0.0087
   5.1815E+00   5.3076E+00   2.0337E-04  0.0088
   5.3076E+00   5.4368E+00   1.9512E-04  0.0089
   5.4368E+00   5.5690E+00   1.8585E-04  0.0090
   5.5690E+00   5.7045E+00   1.8080E-04  0.0090
   5.7045E+00   5.8433E+00   1.7151E-04  0.0091
   5.8433E+00   5.9855E+00   1.6745E-04  0.0091
   5.9855E+00   6.1311E+00   1.5894E-04  0.0093
   6.1311E+00   6.2803E+00   1.4688E-04  0.0095
   6.2803E+00   6.4331E+00   1.4334E-04  0.0095
   6.4331E+00   6.5896E+00   1.3396E-04  0.0097
   6.5896E+00   6.7500E+00   1.2974E-04  0.0098
   6.7500E+00   6.9142E+00   1.2169E-04  0.0100
   6.9142E+00   7.0824E+00   1.1572E-04  0.0101
   7.0824E+00   7.2548E+00   1.1249E-04  0.0101
   7.2548E+00   7.4313E+00   1.0540E-04  0.0103
   7.4313E+00   7.6121E+00   9.8803E-05  0.0105
   7.6121E+00   7.7973E+00   9.4257E-05  0.0107
   7.7973E+00   7.9870E+00   9.0313E-05  0.0108
   7.9870E+00   8.1813E+00   8.4950E-05  0.0110
   8.1813E+00   8.3804E+00   7.8017E-05  0.0113
   8.3804E+00   8.5843E+00   7.6131E-05  0.0113
   8.5843E+00   8.7931E+00   7.0881E-05  0.0116
   8.7931E+00   9.0071E+00   6.8976E-05  0.0116
   9.0071E+00   9.2262E+00   6.5336E-05  0.0118
   9.2262E+00   9.4507E+00   6.2507E-05  0.0119
   9.4507E+00   9.6807E+00   6.0054E-05  0.0120
   9.6807E+00   9.9162E+00   5.6799E-05  0.0122
   9.9162E+00   1.0157E+01   5.4560E-05  0.0123
   1.0157E+01   1.0405E+01   5.3939E-05  0.0122
   1.0405E+01   1.0658E+01   5.4058E-05  0.0121
   1.0658E+01   1.0917E+01   5.2198E-05  0.0121
   1.0917E+01   1.1183E+01   5.0487E-05  0.0122
   1.1183E+01   1.1455E+01   4.7689E-05  0.0124
   1.1455E+01   1.1733E+01   4.5794E-05  0.0125
   1.1733E+01   1.2019E+01   4.3643E-05  0.0127
   1.2019E+01   1.2311E+01   4.0806E-05  0.0129
   1.2311E+01   1.2611E+01   3.8162E-05  0.0132
   1.2611E+01   1.2918E+01   3.5562E-05  0.0135
   1.2918E+01   1.3232E+01   3.4921E-05  0.0135
   1.3232E+01   1.3554E+01   3.3692E-05  0.0136
   1.3554E+01   1.3884E+01   3.1751E-05  0.0138
   1.3884E+01   1.4222E+01   2.9597E-05  0.0141
   1.4222E+01   1.4568E+01   2.7134E-05  0.0146
   1.4568E+01   1.4922E+01   2.5878E-05  0.0148
   1.4922E+01   1.5285E+01   2.4395E-05  0.0150
   1.5285E+01   1.5657E+01   2.2542E-05  0.0154
   1.5657E+01   1.6038E+01   2.1081E-05  0.0158
   1.6038E+01   1.6428E+01   1.9716E-05  0.0161
   1.6428E+01   1.6828E+01   1.8389E-05  0.0165
   1.6828E+01   1.7237E+01   1.7205E-05  0.0168
   1.7237E+01   1.7657E+01   1.5728E-05  0.0174
   1.7657E+01   1.8086E+01   1.5004E-05  0.0176
   1.8086E+01   1.8526E+01   1.3846E-05  0.0181
   1.8526E+01   1.8977E+01   1.3685E-05  0.0180
   1.8977E+01   1.9439E+01   1.2535E-05  0.0186
   1.9439E+01   1.9912E+01   1.2267E-05  0.0186
   1.9912E+01   2.0396E+01   1.0696E-05  0.0196
   2.0396E+01   2.0893E+01   1.0511E-05  0.0196
   2.0893E+01   2.1401E+01   9.8085E-06  0.0200
   2.1401E+01   2.1922E+01   9.1415E-06  0.0205
   2.1922E+01   2.2455E+01   8.3207E-06  0.0212
   2.2455E+01   2.3001E+01   7.6911E-06  0.0218
   2.3001E+01   2.3561E+01   7.1046E-06  0.0224
   2.3561E+01   2.4134E+01   6.9602E-06  0.0224
   2.4134E+01   2.4721E+01   6.1171E-06  0.0236
   2.4721E+01   2.5323E+01   5.4531E-06  0.0247
   2.5323E+01   2.5939E+01   4.8724E-06  0.0258
   2.5939E+01   2.6570E+01   4.6172E-06  0.0262
   2.6570E+01   2.7217E+01   4.1394E-06  0.0273
   2.7217E+01   2.7879E+01   3.6605E-06  0.0287
   2.7879E+01   2.8557E+01   3.1519E-06  0.0306
   2.8557E+01   2.9252E+01   2.8784E-06  0.0316
   2.9252E+01   2.9964E+01   2.3324E-06  0.0347
   2.9964E+01   3.0693E+01   1.9368E-06  0.0376
   3.0693E+01   3.1440E+01   1.6819E-06  0.0399
   3.1440E+01   3.2205E+01   1.4746E-06  0.0421
   3.2205E+01   3.2988E+01   1.0618E-06  0.0490
   3.2988E+01   3.3791E+01   8.5469E-07  0.0540
   3.3791E+01   3.4613E+01   6.3978E-07  0.0617
   3.4613E+01   3.5455E+01   5.0822E-07  0.0684
   3.5455E+01   3.6318E+01   3.5704E-07  0.0806
   3.6318E+01   3.7201E+01   2.0597E-07  0.1048
   3.7201E+01   3.8106E+01   2.1875E-07  0.1005
   3.8106E+01   3.9034E+01   1.1648E-07  0.1361
   3.9034E+01   3.9983E+01   7.1600E-08  0.1715
   3.9983E+01   4.0956E+01   3.4950E-08  0.2425
   4.0956E+01   4.1953E+01   3.2113E-08  0.2500
   4.1953E+01   4.2973E+01   2.3512E-08  0.2887
   4.2973E+01   4.4019E+01   1.9128E-08  0.3162
   4.4019E+01   4.5090E+01   3.7348E-09  0.7071
   4.5090E+01   4.6187E+01   0.0000E+00  0.0000
   4.6187E+01   4.7311E+01   1.7797E-09  1.0000
   4.7311E+01   4.8462E+01   0.0000E+00  0.0000
   4.8462E+01   4.9641E+01   0.0000E+00  0.0000
   4.9641E+01   5.0849E+01   0.0000E+00  0.0000
   5.0849E+01   5.2086E+01   0.0000E+00  0.0000
   5.2086E+01   5.3353E+01   0.0000E+00  0.0000
   5.3353E+01   5.4651E+01   0.0000E+00  0.0000
   5.4651E+01   5.5981E+01   0.0000E+00  0.0000
   5.5981E+01   5.7343E+01   0.0000E+00  0.0000
   5.7343E+01   5.8738E+01   0.0000E+00  0.0000
   5.8738E+01   6.0168E+01   0.0000E+00  0.0000
   6.0168E+01   6.1632E+01   0.0000E+00  0.0000
   6.1632E+01   6.3131E+01   0.0000E+00  0.0000
   6.3131E+01   6.4667E+01   0.0000E+00  0.0000
   6.4667E+01   6.6240E+01   0.0000E+00  0.0000
   6.6240E+01   6.7852E+01   0.0000E+00  0.0000
   6.7852E+01   6.9503E+01   0.0000E+00  0.0000
   6.9503E+01   7.1194E+01   0.0000E+00  0.0000
   7.1194E+01   7.2926E+01   0.0000E+00  0.0000
   7.2926E+01   7.4701E+01   0.0000E+00  0.0000
   7.4701E+01   7.6518E+01   0.0000E+00  0.0000
   7.6518E+01   7.8380E+01   0.0000E+00  0.0000
   7.8380E+01   8.0287E+01   0.0000E+00  0.0000
   8.0287E+01   8.2240E+01   0.0000E+00  0.0000
   8.2240E+01   8.4241E+01   0.0000E+00  0.0000
   8.4241E+01   8.6291E+01   0.0000E+00  0.0000
   8.6291E+01   8.8391E+01   0.0000E+00  0.0000
   8.8391E+01   9.0541E+01   0.0000E+00  0.0000
   9.0541E+01   9.2744E+01   0.0000E+00  0.0000
   9.2744E+01   9.5001E+01   0.0000E+00  0.0000
   9.5001E+01   9.7312E+01   0.0000E+00  0.0000
   9.7312E+01   9.9680E+01   0.0000E+00  0.0000
   9.9680E+01   1.0211E+02   0.0000E+00  0.0000
   1.0211E+02   1.0459E+02   0.0000E+00  0.0000
   1.0459E+02   1.0713E+02   0.0000E+00  0.0000
   1.0713E+02   1.0974E+02   0.0000E+00  0.0000
   1.0974E+02   1.1241E+02   0.0000E+00  0.0000
   1.1241E+02   1.1515E+02   0.0000E+00  0.0000
   1.1515E+02   1.1795E+02   0.0000E+00  0.0000
   1.1795E+02   1.2082E+02   0.0000E+00  0.0000
   1.2082E+02   1.2376E+02   0.0000E+00  0.0000
   1.2376E+02   1.2677E+02   0.0000E+00  0.0000
   1.2677E+02   1.2985E+02   0.0000E+00  0.0000
   1.2985E+02   1.3301E+02   0.0000E+00  0.0000
   1.3301E+02   1.3625E+02   0.0000E+00  0.0000
   1.3625E+02   1.3956E+02   0.0000E+00  0.0000
   1.3956E+02   1.4296E+02   0.0000E+00  0.0000
   1.4296E+02   1.4644E+02   0.0000E+00  0.0000
   1.4644E+02   1.5000E+02   0.0000E+00  0.0000

#   sum over                 1.9835E-05
'no. =    1   reg = 115 - 215'
msuc: {\huge [t-cross] in region mesh}
msdr: {\it plotted by \ANGEL \version}
msdl: {\it calculated by \PHITS  3.26}
wt: s(0.7)
\vspace{-3}
  region surface crossing
  area  &=&   1.0000E+00 [cm^2]
e:
 
# Information for Restart Calculation
# This calculation was newly started
# istdev =  2 # 1:Batch variance, 2:History variance
# resc2  = 5.00000000000000000E+08 # Total source weight or Total source weight / maxcas
# resc3  = 5.00000000000000000E+08 # Total history number or Total batch number
# maxcas =   500000000 # History / Batch, only used for istdev=1
# bitrseed = 1101101111010011011000101101110001100110110010110001010100010001 # bit data of rseed
