[ T-Cross ]
    title = [t-cross] in region mesh
     mesh =  reg            # mesh type is region-wise
      reg =    1            # number of crossing regions
      non     r-from    r-to       area
      1       105       205        1.000000    
   e-type =    3            # e-mesh is log given by emin, emax and ne
     emin =  1.0000000E-02  # minimum value of e-mesh points
     emax =   150.0000      # maximum value of e-mesh points
#    edel =  2.4039514E-02  # mesh width of e-mesh points
       ne =    400          # number of e-mesh points
#    data = ( e(i), i = 1, ne + 1 )
#           1.00000E-02  1.02433E-02  1.04925E-02  1.07478E-02  1.10093E-02
#           1.12772E-02  1.15516E-02  1.18326E-02  1.21205E-02  1.24154E-02
#           1.27175E-02  1.30269E-02  1.33439E-02  1.36686E-02  1.40011E-02
#           1.43418E-02  1.46907E-02  1.50482E-02  1.54143E-02  1.57894E-02
#           1.61735E-02  1.65670E-02  1.69701E-02  1.73830E-02  1.78060E-02
#           1.82392E-02  1.86830E-02  1.91375E-02  1.96032E-02  2.00801E-02
#           2.05687E-02  2.10692E-02  2.15818E-02  2.21069E-02  2.26448E-02
#           2.31957E-02  2.37601E-02  2.43382E-02  2.49304E-02  2.55369E-02
#           2.61583E-02  2.67947E-02  2.74467E-02  2.81145E-02  2.87985E-02
#           2.94992E-02  3.02169E-02  3.09521E-02  3.17052E-02  3.24766E-02
#           3.32668E-02  3.40762E-02  3.49053E-02  3.57546E-02  3.66246E-02
#           3.75157E-02  3.84284E-02  3.93634E-02  4.03212E-02  4.13022E-02
#           4.23071E-02  4.33365E-02  4.43909E-02  4.54710E-02  4.65773E-02
#           4.77106E-02  4.88714E-02  5.00605E-02  5.12785E-02  5.25262E-02
#           5.38042E-02  5.51133E-02  5.64542E-02  5.78278E-02  5.92348E-02
#           6.06760E-02  6.21523E-02  6.36645E-02  6.52135E-02  6.68002E-02
#           6.84255E-02  7.00904E-02  7.17957E-02  7.35426E-02  7.53319E-02
#           7.71648E-02  7.90423E-02  8.09655E-02  8.29354E-02  8.49533E-02
#           8.70203E-02  8.91376E-02  9.13064E-02  9.35279E-02  9.58035E-02
#           9.81345E-02  1.00522E-01  1.02968E-01  1.05473E-01  1.08040E-01
#           1.10668E-01  1.13361E-01  1.16119E-01  1.18944E-01  1.21838E-01
#           1.24803E-01  1.27839E-01  1.30950E-01  1.34136E-01  1.37399E-01
#           1.40742E-01  1.44167E-01  1.47675E-01  1.51268E-01  1.54948E-01
#           1.58718E-01  1.62580E-01  1.66535E-01  1.70587E-01  1.74738E-01
#           1.78989E-01  1.83344E-01  1.87805E-01  1.92375E-01  1.97055E-01
#           2.01850E-01  2.06761E-01  2.11792E-01  2.16945E-01  2.22223E-01
#           2.27630E-01  2.33169E-01  2.38842E-01  2.44653E-01  2.50605E-01
#           2.56703E-01  2.62949E-01  2.69346E-01  2.75900E-01  2.82613E-01
#           2.89489E-01  2.96532E-01  3.03747E-01  3.11138E-01  3.18708E-01
#           3.26462E-01  3.34405E-01  3.42542E-01  3.50876E-01  3.59413E-01
#           3.68158E-01  3.77116E-01  3.86291E-01  3.95690E-01  4.05317E-01
#           4.15179E-01  4.25281E-01  4.35628E-01  4.46227E-01  4.57084E-01
#           4.68205E-01  4.79597E-01  4.91266E-01  5.03219E-01  5.15463E-01
#           5.28005E-01  5.40851E-01  5.54011E-01  5.67490E-01  5.81298E-01
#           5.95441E-01  6.09929E-01  6.24769E-01  6.39970E-01  6.55541E-01
#           6.71491E-01  6.87828E-01  7.04564E-01  7.21706E-01  7.39266E-01
#           7.57253E-01  7.75678E-01  7.94551E-01  8.13883E-01  8.33685E-01
#           8.53969E-01  8.74747E-01  8.96030E-01  9.17831E-01  9.40163E-01
#           9.63038E-01  9.86469E-01  1.01047E+00  1.03506E+00  1.06024E+00
#           1.08604E+00  1.11246E+00  1.13953E+00  1.16725E+00  1.19565E+00
#           1.22474E+00  1.25454E+00  1.28507E+00  1.31633E+00  1.34836E+00
#           1.38117E+00  1.41477E+00  1.44920E+00  1.48446E+00  1.52057E+00
#           1.55757E+00  1.59547E+00  1.63429E+00  1.67405E+00  1.71478E+00
#           1.75650E+00  1.79924E+00  1.84302E+00  1.88786E+00  1.93379E+00
#           1.98084E+00  2.02904E+00  2.07841E+00  2.12898E+00  2.18078E+00
#           2.23384E+00  2.28819E+00  2.34386E+00  2.40089E+00  2.45930E+00
#           2.51914E+00  2.58043E+00  2.64322E+00  2.70753E+00  2.77341E+00
#           2.84088E+00  2.91001E+00  2.98081E+00  3.05333E+00  3.12762E+00
#           3.20372E+00  3.28167E+00  3.36152E+00  3.44330E+00  3.52708E+00
#           3.61290E+00  3.70080E+00  3.79085E+00  3.88308E+00  3.97756E+00
#           4.07434E+00  4.17347E+00  4.27501E+00  4.37903E+00  4.48557E+00
#           4.59471E+00  4.70650E+00  4.82102E+00  4.93832E+00  5.05847E+00
#           5.18155E+00  5.30762E+00  5.43676E+00  5.56904E+00  5.70453E+00
#           5.84333E+00  5.98550E+00  6.13114E+00  6.28031E+00  6.43312E+00
#           6.58964E+00  6.74997E+00  6.91420E+00  7.08243E+00  7.25475E+00
#           7.43126E+00  7.61207E+00  7.79728E+00  7.98700E+00  8.18133E+00
#           8.38038E+00  8.58428E+00  8.79315E+00  9.00709E+00  9.22624E+00
#           9.45072E+00  9.68067E+00  9.91620E+00  1.01575E+01  1.04046E+01
#           1.06578E+01  1.09171E+01  1.11827E+01  1.14548E+01  1.17335E+01
#           1.20190E+01  1.23114E+01  1.26109E+01  1.29178E+01  1.32321E+01
#           1.35540E+01  1.38838E+01  1.42216E+01  1.45676E+01  1.49221E+01
#           1.52851E+01  1.56570E+01  1.60380E+01  1.64282E+01  1.68279E+01
#           1.72374E+01  1.76568E+01  1.80864E+01  1.85264E+01  1.89772E+01
#           1.94389E+01  1.99119E+01  2.03963E+01  2.08926E+01  2.14009E+01
#           2.19216E+01  2.24550E+01  2.30014E+01  2.35610E+01  2.41343E+01
#           2.47215E+01  2.53230E+01  2.59391E+01  2.65702E+01  2.72167E+01
#           2.78789E+01  2.85572E+01  2.92520E+01  2.99637E+01  3.06928E+01
#           3.14396E+01  3.22045E+01  3.29881E+01  3.37907E+01  3.46128E+01
#           3.54550E+01  3.63177E+01  3.72013E+01  3.81064E+01  3.90336E+01
#           3.99833E+01  4.09561E+01  4.19526E+01  4.29734E+01  4.40189E+01
#           4.50900E+01  4.61870E+01  4.73108E+01  4.84619E+01  4.96410E+01
#           5.08488E+01  5.20860E+01  5.33533E+01  5.46514E+01  5.59812E+01
#           5.73432E+01  5.87384E+01  6.01676E+01  6.16315E+01  6.31311E+01
#           6.46671E+01  6.62405E+01  6.78522E+01  6.95031E+01  7.11941E+01
#           7.29263E+01  7.47007E+01  7.65182E+01  7.83800E+01  8.02870E+01
#           8.22405E+01  8.42414E+01  8.62911E+01  8.83906E+01  9.05412E+01
#           9.27442E+01  9.50007E+01  9.73122E+01  9.96799E+01  1.02105E+02
#           1.04589E+02  1.07134E+02  1.09741E+02  1.12411E+02  1.15146E+02
#           1.17948E+02  1.20817E+02  1.23757E+02  1.26768E+02  1.29852E+02
#           1.33012E+02  1.36248E+02  1.39563E+02  1.42959E+02  1.46437E+02
#           1.50000E+02
     unit =    2            # unit is [1/cm^2/(MeV/n)/source]
     axis =  eng            # axis of output
     file = detector-06.out  # file name of output for the above axis
   output = f-curr          # surface crossing forward current spectrum
     part =  neutron  
# kf/name :  2112     
#    used :        main (  %)        temp (  %)       total (  %)
#  memory :         414 (  0)           0 (  0)         414 (  0)

#------------------------------------------------------------------------------
#newpage:
#   no. =    1   reg = 105 - 205

x: Energy [MeV/n]
y:  F-Curr [1/cm^2/(MeV/n)/source]         
p: xlog ylog afac(0.8) form(0.9)
h: n            x            y(neutron ),hh0l   n 
#  e-lower      e-upper      neutron     r.err 
   1.0000E-02   1.0243E-02   7.2467E-04  0.1061
   1.0243E-02   1.0493E-02   5.5503E-04  0.1197
   1.0493E-02   1.0748E-02   6.6934E-04  0.1079
   1.0748E-02   1.1009E-02   5.1869E-04  0.1210
   1.1009E-02   1.1277E-02   6.3924E-04  0.1074
   1.1277E-02   1.1552E-02   5.6141E-04  0.1131
   1.1552E-02   1.1833E-02   6.4621E-04  0.1046
   1.1833E-02   1.2121E-02   6.3685E-04  0.1041
   1.2121E-02   1.2415E-02   5.7646E-04  0.1081
   1.2415E-02   1.2718E-02   5.1747E-04  0.1130
   1.2718E-02   1.3027E-02   5.2974E-04  0.1097
   1.3027E-02   1.3344E-02   5.4878E-04  0.1068
   1.3344E-02   1.3669E-02   5.6488E-04  0.1039
   1.3669E-02   1.4001E-02   5.0222E-04  0.1085
   1.4001E-02   1.4342E-02   4.8532E-04  0.1097
   1.4342E-02   1.4691E-02   5.0685E-04  0.1058
   1.4691E-02   1.5048E-02   3.9994E-04  0.1179
   1.5048E-02   1.5414E-02   5.1347E-04  0.1031
   1.5414E-02   1.5789E-02   4.6145E-04  0.1069
   1.5789E-02   1.6174E-02   4.8156E-04  0.1036
   1.6174E-02   1.6567E-02   5.3289E-04  0.0974
   1.6567E-02   1.6970E-02   4.1515E-04  0.1091
   1.6970E-02   1.7383E-02   4.4538E-04  0.1036
   1.7383E-02   1.7806E-02   4.4688E-04  0.1026
   1.7806E-02   1.8239E-02   4.4948E-04  0.1012
   1.8239E-02   1.8683E-02   4.0861E-04  0.1048
   1.8683E-02   1.9138E-02   4.1811E-04  0.1019
   1.9138E-02   1.9603E-02   3.3795E-04  0.1125
   1.9603E-02   2.0080E-02   3.0478E-04  0.1168
   2.0080E-02   2.0569E-02   3.5357E-04  0.1074
   2.0569E-02   2.1069E-02   3.5301E-04  0.1062
   2.1069E-02   2.1582E-02   3.0216E-04  0.1130
   2.1582E-02   2.2107E-02   2.8874E-04  0.1145
   2.2107E-02   2.2645E-02   2.5470E-04  0.1206
   2.2645E-02   2.3196E-02   3.7570E-04  0.0982
   2.3196E-02   2.3760E-02   2.8767E-04  0.1102
   2.3760E-02   2.4338E-02   3.2563E-04  0.1024
   2.4338E-02   2.4930E-02   2.9721E-04  0.1066
   2.4930E-02   2.5537E-02   2.6600E-04  0.1111
   2.5537E-02   2.6158E-02   2.5593E-04  0.1115
   2.6158E-02   2.6795E-02   2.2909E-04  0.1167
   2.6795E-02   2.7447E-02   2.5926E-04  0.1085
   2.7447E-02   2.8114E-02   2.1406E-04  0.1180
   2.8114E-02   2.8799E-02   1.9931E-04  0.1210
   2.8799E-02   2.9499E-02   2.1213E-04  0.1150
   2.9499E-02   3.0217E-02   2.1783E-04  0.1125
   3.0217E-02   3.0952E-02   2.3220E-04  0.1077
   3.0952E-02   3.1705E-02   1.7395E-04  0.1233
   3.1705E-02   3.2477E-02   2.3079E-04  0.1056
   3.2477E-02   3.3267E-02   1.5651E-04  0.1266
   3.3267E-02   3.4076E-02   2.6021E-04  0.0971
   3.4076E-02   3.4905E-02   1.8283E-04  0.1145
   3.4905E-02   3.5755E-02   2.0090E-04  0.1081
   3.5755E-02   3.6625E-02   1.7785E-04  0.1131
   3.6625E-02   3.7516E-02   2.0348E-04  0.1047
   3.7516E-02   3.8428E-02   2.0734E-04  0.1021
   3.8428E-02   3.9363E-02   1.5216E-04  0.1185
   3.9363E-02   4.0321E-02   1.9486E-04  0.1030
   4.0321E-02   4.1302E-02   1.9601E-04  0.1011
   4.1302E-02   4.2307E-02   1.7675E-04  0.1054
   4.2307E-02   4.3337E-02   1.8326E-04  0.1028
   4.3337E-02   4.4391E-02   1.2424E-04  0.1229
   4.4391E-02   4.5471E-02   1.6902E-04  0.1045
   4.5471E-02   4.6577E-02   1.4176E-04  0.1123
   4.6577E-02   4.7711E-02   1.2444E-04  0.1187
   4.7711E-02   4.8871E-02   1.4691E-04  0.1076
   4.8871E-02   5.0061E-02   1.4129E-04  0.1088
   5.0061E-02   5.1279E-02   1.4367E-04  0.1067
   5.1279E-02   5.2526E-02   1.3899E-04  0.1067
   5.2526E-02   5.3804E-02   1.4667E-04  0.1027
   5.3804E-02   5.5113E-02   1.2893E-04  0.1087
   5.5113E-02   5.6454E-02   1.0028E-04  0.1212
   5.6454E-02   5.7828E-02   1.2736E-04  0.1061
   5.7828E-02   5.9235E-02   1.3162E-04  0.1034
   5.9235E-02   6.0676E-02   1.3369E-04  0.1017
   6.0676E-02   6.2152E-02   9.2974E-05  0.1202
   6.2152E-02   6.3665E-02   1.0843E-04  0.1095
   6.3665E-02   6.5214E-02   1.0736E-04  0.1091
   6.5214E-02   6.6800E-02   1.2664E-04  0.0996
   6.6800E-02   6.8426E-02   1.1525E-04  0.1031
   6.8426E-02   7.0090E-02   1.0989E-04  0.1040
   7.0090E-02   7.1796E-02   1.0659E-04  0.1043
   7.1796E-02   7.3543E-02   8.9304E-05  0.1129
   7.3543E-02   7.5332E-02   8.6377E-05  0.1131
   7.5332E-02   7.7165E-02   1.0824E-04  0.0997
   7.7165E-02   7.9042E-02   1.0764E-04  0.0991
   7.9042E-02   8.0965E-02   8.9306E-05  0.1071
   8.0965E-02   8.2935E-02   8.0333E-05  0.1123
   8.2935E-02   8.4953E-02   8.2444E-05  0.1089
   8.4953E-02   8.7020E-02   9.1591E-05  0.1026
   8.7020E-02   8.9138E-02   8.6590E-05  0.1037
   8.9138E-02   9.1306E-02   7.5855E-05  0.1097
   9.1306E-02   9.3528E-02   7.7545E-05  0.1074
   9.3528E-02   9.5804E-02   7.2876E-05  0.1094
   9.5804E-02   9.8134E-02   9.5942E-05  0.0943
   9.8134E-02   1.0052E-01   6.8989E-05  0.1095
   1.0052E-01   1.0297E-01   6.6236E-05  0.1108
   1.0297E-01   1.0547E-01   6.7340E-05  0.1084
   1.0547E-01   1.0804E-01   6.7679E-05  0.1070
   1.0804E-01   1.1067E-01   6.0842E-05  0.1114
   1.1067E-01   1.1336E-01   7.1526E-05  0.1015
   1.1336E-01   1.1612E-01   6.3670E-05  0.1064
   1.1612E-01   1.1894E-01   5.7282E-05  0.1101
   1.1894E-01   1.2184E-01   6.3263E-05  0.1040
   1.2184E-01   1.2480E-01   6.4577E-05  0.1016
   1.2480E-01   1.2784E-01   5.4120E-05  0.1099
   1.2784E-01   1.3095E-01   6.1395E-05  0.1016
   1.3095E-01   1.3414E-01   5.6938E-05  0.1044
   1.3414E-01   1.3740E-01   5.7784E-05  0.1026
   1.3740E-01   1.4074E-01   4.2882E-05  0.1177
   1.4074E-01   1.4417E-01   6.5121E-05  0.0946
   1.4417E-01   1.4767E-01   5.2803E-05  0.1033
   1.4767E-01   1.5127E-01   4.7110E-05  0.1080
   1.5127E-01   1.5495E-01   4.6797E-05  0.1073
   1.5495E-01   1.5872E-01   4.9877E-05  0.1025
   1.5872E-01   1.6258E-01   5.5754E-05  0.0959
   1.6258E-01   1.6654E-01   4.9019E-05  0.1011
   1.6654E-01   1.7059E-01   4.6635E-05  0.1021
   1.7059E-01   1.7474E-01   4.6232E-05  0.1015
   1.7474E-01   1.7899E-01   4.5798E-05  0.1008
   1.7899E-01   1.8334E-01   4.9370E-05  0.0963
   1.8334E-01   1.8781E-01   3.8711E-05  0.1070
   1.8781E-01   1.9237E-01   3.6079E-05  0.1094
   1.9237E-01   1.9706E-01   3.8884E-05  0.1048
   1.9706E-01   2.0185E-01   3.2234E-05  0.1132
   2.0185E-01   2.0676E-01   4.5226E-05  0.0946
   2.0676E-01   2.1179E-01   4.2282E-05  0.0966
   2.1179E-01   2.1694E-01   4.3389E-05  0.0942
   2.1694E-01   2.2222E-01   4.8753E-05  0.0880
   2.2222E-01   2.2763E-01   4.4018E-05  0.0914
   2.2763E-01   2.3317E-01   4.6448E-05  0.0876
   2.3317E-01   2.3884E-01   5.5642E-05  0.0795
   2.3884E-01   2.4465E-01   5.1779E-05  0.0812
   2.4465E-01   2.5061E-01   5.1905E-05  0.0800
   2.5061E-01   2.5670E-01   5.5484E-05  0.0767
   2.5670E-01   2.6295E-01   5.7413E-05  0.0744
   2.6295E-01   2.6935E-01   5.8465E-05  0.0726
   2.6935E-01   2.7590E-01   6.2453E-05  0.0696
   2.7590E-01   2.8261E-01   6.2975E-05  0.0683
   2.8261E-01   2.8949E-01   6.2395E-05  0.0679
   2.8949E-01   2.9653E-01   6.7776E-05  0.0644
   2.9653E-01   3.0375E-01   6.4117E-05  0.0654
   3.0375E-01   3.1114E-01   7.4444E-05  0.0599
   3.1114E-01   3.1871E-01   7.7917E-05  0.0579
   3.1871E-01   3.2646E-01   6.7794E-05  0.0613
   3.2646E-01   3.3441E-01   7.4994E-05  0.0577
   3.3441E-01   3.4254E-01   7.9253E-05  0.0555
   3.4254E-01   3.5088E-01   7.7062E-05  0.0554
   3.5088E-01   3.5941E-01   7.4838E-05  0.0557
   3.5941E-01   3.6816E-01   8.4036E-05  0.0519
   3.6816E-01   3.7712E-01   8.3536E-05  0.0514
   3.7712E-01   3.8629E-01   8.1731E-05  0.0513
   3.8629E-01   3.9569E-01   8.3457E-05  0.0503
   3.9569E-01   4.0532E-01   9.7767E-05  0.0459
   4.0532E-01   4.1518E-01   9.3860E-05  0.0463
   4.1518E-01   4.2528E-01   8.8860E-05  0.0469
   4.2528E-01   4.3563E-01   9.0775E-05  0.0460
   4.3563E-01   4.4623E-01   9.7542E-05  0.0438
   4.4623E-01   4.5708E-01   9.3386E-05  0.0442
   4.5708E-01   4.6821E-01   9.2395E-05  0.0440
   4.6821E-01   4.7960E-01   9.7655E-05  0.0422
   4.7960E-01   4.9127E-01   1.0520E-04  0.0402
   4.9127E-01   5.0322E-01   1.0160E-04  0.0404
   5.0322E-01   5.1546E-01   1.0311E-04  0.0396
   5.1546E-01   5.2800E-01   9.6321E-05  0.0405
   5.2800E-01   5.4085E-01   9.8511E-05  0.0396
   5.4085E-01   5.5401E-01   1.0360E-04  0.0381
   5.5401E-01   5.6749E-01   9.8978E-05  0.0385
   5.6749E-01   5.8130E-01   1.0839E-04  0.0364
   5.8130E-01   5.9544E-01   1.0741E-04  0.0361
   5.9544E-01   6.0993E-01   1.0444E-04  0.0362
   6.0993E-01   6.2477E-01   1.0618E-04  0.0354
   6.2477E-01   6.3997E-01   1.0490E-04  0.0353
   6.3997E-01   6.5554E-01   1.0865E-04  0.0343
   6.5554E-01   6.7149E-01   1.1305E-04  0.0331
   6.7149E-01   6.8783E-01   1.0807E-04  0.0335
   6.8783E-01   7.0456E-01   1.0532E-04  0.0335
   7.0456E-01   7.2171E-01   1.0681E-04  0.0329
   7.2171E-01   7.3927E-01   1.1042E-04  0.0320
   7.3927E-01   7.5725E-01   1.0642E-04  0.0322
   7.5725E-01   7.7568E-01   1.0046E-04  0.0327
   7.7568E-01   7.9455E-01   1.0644E-04  0.0314
   7.9455E-01   8.1388E-01   9.9689E-05  0.0321
   8.1388E-01   8.3368E-01   9.8431E-05  0.0319
   8.3368E-01   8.5397E-01   9.3833E-05  0.0322
   8.5397E-01   8.7475E-01   9.4939E-05  0.0317
   8.7475E-01   8.9603E-01   9.3512E-05  0.0315
   8.9603E-01   9.1783E-01   9.5729E-05  0.0308
   9.1783E-01   9.4016E-01   8.8536E-05  0.0317
   9.4016E-01   9.6304E-01   8.5360E-05  0.0318
   9.6304E-01   9.8647E-01   8.2852E-05  0.0319
   9.8647E-01   1.0105E+00   8.3182E-05  0.0315
   1.0105E+00   1.0351E+00   8.5674E-05  0.0307
   1.0351E+00   1.0602E+00   8.7177E-05  0.0300
   1.0602E+00   1.0860E+00   8.9887E-05  0.0292
   1.0860E+00   1.1125E+00   9.0819E-05  0.0287
   1.1125E+00   1.1395E+00   8.9686E-05  0.0286
   1.1395E+00   1.1673E+00   9.5831E-05  0.0273
   1.1673E+00   1.1957E+00   9.8884E-05  0.0266
   1.1957E+00   1.2247E+00   1.0214E-04  0.0258
   1.2247E+00   1.2545E+00   1.0167E-04  0.0256
   1.2545E+00   1.2851E+00   1.0393E-04  0.0250
   1.2851E+00   1.3163E+00   1.0302E-04  0.0248
   1.3163E+00   1.3484E+00   1.0694E-04  0.0241
   1.3484E+00   1.3812E+00   1.0587E-04  0.0239
   1.3812E+00   1.4148E+00   1.1116E-04  0.0230
   1.4148E+00   1.4492E+00   1.0738E-04  0.0232
   1.4492E+00   1.4845E+00   1.1516E-04  0.0221
   1.4845E+00   1.5206E+00   1.1357E-04  0.0220
   1.5206E+00   1.5576E+00   1.1447E-04  0.0216
   1.5576E+00   1.5955E+00   1.1861E-04  0.0210
   1.5955E+00   1.6343E+00   1.1363E-04  0.0212
   1.6343E+00   1.6741E+00   1.1627E-04  0.0207
   1.6741E+00   1.7148E+00   1.2360E-04  0.0198
   1.7148E+00   1.7565E+00   1.2058E-04  0.0199
   1.7565E+00   1.7992E+00   1.1483E-04  0.0201
   1.7992E+00   1.8430E+00   1.2353E-04  0.0192
   1.8430E+00   1.8879E+00   1.2550E-04  0.0188
   1.8879E+00   1.9338E+00   1.2553E-04  0.0186
   1.9338E+00   1.9808E+00   1.2440E-04  0.0184
   1.9808E+00   2.0290E+00   1.2882E-04  0.0179
   2.0290E+00   2.0784E+00   1.2720E-04  0.0178
   2.0784E+00   2.1290E+00   1.3012E-04  0.0174
   2.1290E+00   2.1808E+00   1.2988E-04  0.0172
   2.1808E+00   2.2338E+00   1.2918E-04  0.0170
   2.2338E+00   2.2882E+00   1.3038E-04  0.0167
   2.2882E+00   2.3439E+00   1.3047E-04  0.0165
   2.3439E+00   2.4009E+00   1.2852E-04  0.0165
   2.4009E+00   2.4593E+00   1.3217E-04  0.0160
   2.4593E+00   2.5191E+00   1.3153E-04  0.0159
   2.5191E+00   2.5804E+00   1.3312E-04  0.0156
   2.5804E+00   2.6432E+00   1.3061E-04  0.0156
   2.6432E+00   2.7075E+00   1.3092E-04  0.0153
   2.7075E+00   2.7734E+00   1.3432E-04  0.0150
   2.7734E+00   2.8409E+00   1.3149E-04  0.0150
   2.8409E+00   2.9100E+00   1.3567E-04  0.0146
   2.9100E+00   2.9808E+00   1.3455E-04  0.0144
   2.9808E+00   3.0533E+00   1.3563E-04  0.0142
   3.0533E+00   3.1276E+00   1.3516E-04  0.0141
   3.1276E+00   3.2037E+00   1.3746E-04  0.0138
   3.2037E+00   3.2817E+00   1.3835E-04  0.0136
   3.2817E+00   3.3615E+00   1.3632E-04  0.0135
   3.3615E+00   3.4433E+00   1.3493E-04  0.0134
   3.4433E+00   3.5271E+00   1.3713E-04  0.0132
   3.5271E+00   3.6129E+00   1.4103E-04  0.0128
   3.6129E+00   3.7008E+00   1.3714E-04  0.0128
   3.7008E+00   3.7908E+00   1.4219E-04  0.0125
   3.7908E+00   3.8831E+00   1.3945E-04  0.0124
   3.8831E+00   3.9776E+00   1.3560E-04  0.0125
   3.9776E+00   4.0743E+00   1.4225E-04  0.0120
   4.0743E+00   4.1735E+00   1.4027E-04  0.0120
   4.1735E+00   4.2750E+00   1.4003E-04  0.0118
   4.2750E+00   4.3790E+00   1.4151E-04  0.0116
   4.3790E+00   4.4856E+00   1.4217E-04  0.0115
   4.4856E+00   4.5947E+00   1.3880E-04  0.0115
   4.5947E+00   4.7065E+00   1.4447E-04  0.0111
   4.7065E+00   4.8210E+00   1.4273E-04  0.0110
   4.8210E+00   4.9383E+00   1.4224E-04  0.0109
   4.9383E+00   5.0585E+00   1.4234E-04  0.0108
   5.0585E+00   5.1815E+00   1.4577E-04  0.0105
   5.1815E+00   5.3076E+00   1.4478E-04  0.0104
   5.3076E+00   5.4368E+00   1.4435E-04  0.0103
   5.4368E+00   5.5690E+00   1.4372E-04  0.0102
   5.5690E+00   5.7045E+00   1.4394E-04  0.0101
   5.7045E+00   5.8433E+00   1.4394E-04  0.0100
   5.8433E+00   5.9855E+00   1.4278E-04  0.0099
   5.9855E+00   6.1311E+00   1.4424E-04  0.0097
   6.1311E+00   6.2803E+00   1.4589E-04  0.0096
   6.2803E+00   6.4331E+00   1.4582E-04  0.0095
   6.4331E+00   6.5896E+00   1.4374E-04  0.0094
   6.5896E+00   6.7500E+00   1.4305E-04  0.0093
   6.7500E+00   6.9142E+00   1.4399E-04  0.0092
   6.9142E+00   7.0824E+00   1.4174E-04  0.0091
   7.0824E+00   7.2548E+00   1.4321E-04  0.0090
   7.2548E+00   7.4313E+00   1.4312E-04  0.0089
   7.4313E+00   7.6121E+00   1.4144E-04  0.0088
   7.6121E+00   7.7973E+00   1.4434E-04  0.0086
   7.7973E+00   7.9870E+00   1.4253E-04  0.0086
   7.9870E+00   8.1813E+00   1.4270E-04  0.0085
   8.1813E+00   8.3804E+00   1.4184E-04  0.0084
   8.3804E+00   8.5843E+00   1.4241E-04  0.0083
   8.5843E+00   8.7931E+00   1.4196E-04  0.0082
   8.7931E+00   9.0071E+00   1.4185E-04  0.0081
   9.0071E+00   9.2262E+00   1.3987E-04  0.0081
   9.2262E+00   9.4507E+00   1.4039E-04  0.0080
   9.4507E+00   9.6807E+00   1.3983E-04  0.0079
   9.6807E+00   9.9162E+00   1.4004E-04  0.0078
   9.9162E+00   1.0157E+01   1.3807E-04  0.0077
   1.0157E+01   1.0405E+01   1.3825E-04  0.0076
   1.0405E+01   1.0658E+01   1.3837E-04  0.0076
   1.0658E+01   1.0917E+01   1.3807E-04  0.0075
   1.0917E+01   1.1183E+01   1.3776E-04  0.0074
   1.1183E+01   1.1455E+01   1.3746E-04  0.0073
   1.1455E+01   1.1733E+01   1.3633E-04  0.0073
   1.1733E+01   1.2019E+01   1.3551E-04  0.0072
   1.2019E+01   1.2311E+01   1.3679E-04  0.0071
   1.2311E+01   1.2611E+01   1.3500E-04  0.0070
   1.2611E+01   1.2918E+01   1.3418E-04  0.0070
   1.2918E+01   1.3232E+01   1.3227E-04  0.0069
   1.3232E+01   1.3554E+01   1.3203E-04  0.0069
   1.3554E+01   1.3884E+01   1.3186E-04  0.0068
   1.3884E+01   1.4222E+01   1.3006E-04  0.0067
   1.4222E+01   1.4568E+01   1.2611E-04  0.0068
   1.4568E+01   1.4922E+01   1.2578E-04  0.0067
   1.4922E+01   1.5285E+01   1.2487E-04  0.0066
   1.5285E+01   1.5657E+01   1.2216E-04  0.0066
   1.5657E+01   1.6038E+01   1.2139E-04  0.0066
   1.6038E+01   1.6428E+01   1.1735E-04  0.0066
   1.6428E+01   1.6828E+01   1.1685E-04  0.0065
   1.6828E+01   1.7237E+01   1.1487E-04  0.0065
   1.7237E+01   1.7657E+01   1.1093E-04  0.0066
   1.7657E+01   1.8086E+01   1.0826E-04  0.0066
   1.8086E+01   1.8526E+01   1.0364E-04  0.0066
   1.8526E+01   1.8977E+01   1.0112E-04  0.0066
   1.8977E+01   1.9439E+01   9.8856E-05  0.0066
   1.9439E+01   1.9912E+01   9.5559E-05  0.0067
   1.9912E+01   2.0396E+01   9.4239E-05  0.0066
   2.0396E+01   2.0893E+01   9.1033E-05  0.0067
   2.0893E+01   2.1401E+01   8.7690E-05  0.0067
   2.1401E+01   2.1922E+01   8.2669E-05  0.0068
   2.1922E+01   2.2455E+01   7.9269E-05  0.0069
   2.2455E+01   2.3001E+01   7.4689E-05  0.0070
   2.3001E+01   2.3561E+01   7.1246E-05  0.0071
   2.3561E+01   2.4134E+01   6.6228E-05  0.0073
   2.4134E+01   2.4721E+01   6.2854E-05  0.0074
   2.4721E+01   2.5323E+01   5.8488E-05  0.0075
   2.5323E+01   2.5939E+01   5.4982E-05  0.0077
   2.5939E+01   2.6570E+01   5.1445E-05  0.0078
   2.6570E+01   2.7217E+01   4.8141E-05  0.0080
   2.7217E+01   2.7879E+01   4.4672E-05  0.0082
   2.7879E+01   2.8557E+01   4.1476E-05  0.0084
   2.8557E+01   2.9252E+01   3.8606E-05  0.0086
   2.9252E+01   2.9964E+01   3.4834E-05  0.0090
   2.9964E+01   3.0693E+01   3.2607E-05  0.0092
   3.0693E+01   3.1440E+01   2.9872E-05  0.0095
   3.1440E+01   3.2205E+01   2.7751E-05  0.0097
   3.2205E+01   3.2988E+01   2.5182E-05  0.0101
   3.2988E+01   3.3791E+01   2.3037E-05  0.0104
   3.3791E+01   3.4613E+01   2.1412E-05  0.0107
   3.4613E+01   3.5455E+01   1.9949E-05  0.0109
   3.5455E+01   3.6318E+01   1.7940E-05  0.0114
   3.6318E+01   3.7201E+01   1.6661E-05  0.0117
   3.7201E+01   3.8106E+01   1.5609E-05  0.0119
   3.8106E+01   3.9034E+01   1.4086E-05  0.0124
   3.9034E+01   3.9983E+01   1.2821E-05  0.0128
   3.9983E+01   4.0956E+01   1.1544E-05  0.0133
   4.0956E+01   4.1953E+01   1.0487E-05  0.0138
   4.1953E+01   4.2973E+01   9.7145E-06  0.0142
   4.2973E+01   4.4019E+01   8.3820E-06  0.0151
   4.4019E+01   4.5090E+01   7.6880E-06  0.0156
   4.5090E+01   4.6187E+01   7.0059E-06  0.0161
   4.6187E+01   4.7311E+01   6.2896E-06  0.0168
   4.7311E+01   4.8462E+01   5.8639E-06  0.0172
   4.8462E+01   4.9641E+01   5.0936E-06  0.0182
   4.9641E+01   5.0849E+01   4.5223E-06  0.0191
   5.0849E+01   5.2086E+01   3.7682E-06  0.0207
   5.2086E+01   5.3353E+01   3.1626E-06  0.0223
   5.3353E+01   5.4651E+01   2.2833E-06  0.0260
   5.4651E+01   5.5981E+01   1.6425E-06  0.0303
   5.5981E+01   5.7343E+01   1.1013E-06  0.0365
   5.7343E+01   5.8738E+01   5.3469E-07  0.0518
   5.8738E+01   6.0168E+01   3.5546E-07  0.0627
   6.0168E+01   6.1632E+01   3.5521E-08  0.1961
   6.1632E+01   6.3131E+01   0.0000E+00  0.0000
   6.3131E+01   6.4667E+01   0.0000E+00  0.0000
   6.4667E+01   6.6240E+01   0.0000E+00  0.0000
   6.6240E+01   6.7852E+01   0.0000E+00  0.0000
   6.7852E+01   6.9503E+01   0.0000E+00  0.0000
   6.9503E+01   7.1194E+01   0.0000E+00  0.0000
   7.1194E+01   7.2926E+01   0.0000E+00  0.0000
   7.2926E+01   7.4701E+01   0.0000E+00  0.0000
   7.4701E+01   7.6518E+01   0.0000E+00  0.0000
   7.6518E+01   7.8380E+01   0.0000E+00  0.0000
   7.8380E+01   8.0287E+01   0.0000E+00  0.0000
   8.0287E+01   8.2240E+01   0.0000E+00  0.0000
   8.2240E+01   8.4241E+01   0.0000E+00  0.0000
   8.4241E+01   8.6291E+01   0.0000E+00  0.0000
   8.6291E+01   8.8391E+01   0.0000E+00  0.0000
   8.8391E+01   9.0541E+01   0.0000E+00  0.0000
   9.0541E+01   9.2744E+01   0.0000E+00  0.0000
   9.2744E+01   9.5001E+01   0.0000E+00  0.0000
   9.5001E+01   9.7312E+01   0.0000E+00  0.0000
   9.7312E+01   9.9680E+01   0.0000E+00  0.0000
   9.9680E+01   1.0211E+02   0.0000E+00  0.0000
   1.0211E+02   1.0459E+02   0.0000E+00  0.0000
   1.0459E+02   1.0713E+02   0.0000E+00  0.0000
   1.0713E+02   1.0974E+02   0.0000E+00  0.0000
   1.0974E+02   1.1241E+02   0.0000E+00  0.0000
   1.1241E+02   1.1515E+02   0.0000E+00  0.0000
   1.1515E+02   1.1795E+02   0.0000E+00  0.0000
   1.1795E+02   1.2082E+02   0.0000E+00  0.0000
   1.2082E+02   1.2376E+02   0.0000E+00  0.0000
   1.2376E+02   1.2677E+02   0.0000E+00  0.0000
   1.2677E+02   1.2985E+02   0.0000E+00  0.0000
   1.2985E+02   1.3301E+02   0.0000E+00  0.0000
   1.3301E+02   1.3625E+02   0.0000E+00  0.0000
   1.3625E+02   1.3956E+02   0.0000E+00  0.0000
   1.3956E+02   1.4296E+02   0.0000E+00  0.0000
   1.4296E+02   1.4644E+02   0.0000E+00  0.0000
   1.4644E+02   1.5000E+02   0.0000E+00  0.0000

#   sum over                 2.3102E-05
'no. =    1   reg = 105 - 205'
msuc: {\huge [t-cross] in region mesh}
msdr: {\it plotted by \ANGEL \version}
msdl: {\it calculated by \PHITS  3.26}
wt: s(0.7)
\vspace{-3}
  region surface crossing
  area  &=&   1.0000E+00 [cm^2]
e:
 
# Information for Restart Calculation
# This calculation was newly started
# istdev =  2 # 1:Batch variance, 2:History variance
# resc2  = 5.00000000000000000E+08 # Total source weight or Total source weight / maxcas
# resc3  = 5.00000000000000000E+08 # Total history number or Total batch number
# maxcas =   500000000 # History / Batch, only used for istdev=1
# bitrseed = 1101101111010011011000101101110001100110110010110001010100010001 # bit data of rseed
