[ T-Cross ]
    title = [t-cross] in region mesh
     mesh =  reg            # mesh type is region-wise
      reg =    1            # number of crossing regions
      non     r-from    r-to       area
      1       110       210        1.000000    
   e-type =    3            # e-mesh is log given by emin, emax and ne
     emin =  1.0000000E-02  # minimum value of e-mesh points
     emax =   150.0000      # maximum value of e-mesh points
#    edel =  2.4039514E-02  # mesh width of e-mesh points
       ne =    400          # number of e-mesh points
#    data = ( e(i), i = 1, ne + 1 )
#           1.00000E-02  1.02433E-02  1.04925E-02  1.07478E-02  1.10093E-02
#           1.12772E-02  1.15516E-02  1.18326E-02  1.21205E-02  1.24154E-02
#           1.27175E-02  1.30269E-02  1.33439E-02  1.36686E-02  1.40011E-02
#           1.43418E-02  1.46907E-02  1.50482E-02  1.54143E-02  1.57894E-02
#           1.61735E-02  1.65670E-02  1.69701E-02  1.73830E-02  1.78060E-02
#           1.82392E-02  1.86830E-02  1.91375E-02  1.96032E-02  2.00801E-02
#           2.05687E-02  2.10692E-02  2.15818E-02  2.21069E-02  2.26448E-02
#           2.31957E-02  2.37601E-02  2.43382E-02  2.49304E-02  2.55369E-02
#           2.61583E-02  2.67947E-02  2.74467E-02  2.81145E-02  2.87985E-02
#           2.94992E-02  3.02169E-02  3.09521E-02  3.17052E-02  3.24766E-02
#           3.32668E-02  3.40762E-02  3.49053E-02  3.57546E-02  3.66246E-02
#           3.75157E-02  3.84284E-02  3.93634E-02  4.03212E-02  4.13022E-02
#           4.23071E-02  4.33365E-02  4.43909E-02  4.54710E-02  4.65773E-02
#           4.77106E-02  4.88714E-02  5.00605E-02  5.12785E-02  5.25262E-02
#           5.38042E-02  5.51133E-02  5.64542E-02  5.78278E-02  5.92348E-02
#           6.06760E-02  6.21523E-02  6.36645E-02  6.52135E-02  6.68002E-02
#           6.84255E-02  7.00904E-02  7.17957E-02  7.35426E-02  7.53319E-02
#           7.71648E-02  7.90423E-02  8.09655E-02  8.29354E-02  8.49533E-02
#           8.70203E-02  8.91376E-02  9.13064E-02  9.35279E-02  9.58035E-02
#           9.81345E-02  1.00522E-01  1.02968E-01  1.05473E-01  1.08040E-01
#           1.10668E-01  1.13361E-01  1.16119E-01  1.18944E-01  1.21838E-01
#           1.24803E-01  1.27839E-01  1.30950E-01  1.34136E-01  1.37399E-01
#           1.40742E-01  1.44167E-01  1.47675E-01  1.51268E-01  1.54948E-01
#           1.58718E-01  1.62580E-01  1.66535E-01  1.70587E-01  1.74738E-01
#           1.78989E-01  1.83344E-01  1.87805E-01  1.92375E-01  1.97055E-01
#           2.01850E-01  2.06761E-01  2.11792E-01  2.16945E-01  2.22223E-01
#           2.27630E-01  2.33169E-01  2.38842E-01  2.44653E-01  2.50605E-01
#           2.56703E-01  2.62949E-01  2.69346E-01  2.75900E-01  2.82613E-01
#           2.89489E-01  2.96532E-01  3.03747E-01  3.11138E-01  3.18708E-01
#           3.26462E-01  3.34405E-01  3.42542E-01  3.50876E-01  3.59413E-01
#           3.68158E-01  3.77116E-01  3.86291E-01  3.95690E-01  4.05317E-01
#           4.15179E-01  4.25281E-01  4.35628E-01  4.46227E-01  4.57084E-01
#           4.68205E-01  4.79597E-01  4.91266E-01  5.03219E-01  5.15463E-01
#           5.28005E-01  5.40851E-01  5.54011E-01  5.67490E-01  5.81298E-01
#           5.95441E-01  6.09929E-01  6.24769E-01  6.39970E-01  6.55541E-01
#           6.71491E-01  6.87828E-01  7.04564E-01  7.21706E-01  7.39266E-01
#           7.57253E-01  7.75678E-01  7.94551E-01  8.13883E-01  8.33685E-01
#           8.53969E-01  8.74747E-01  8.96030E-01  9.17831E-01  9.40163E-01
#           9.63038E-01  9.86469E-01  1.01047E+00  1.03506E+00  1.06024E+00
#           1.08604E+00  1.11246E+00  1.13953E+00  1.16725E+00  1.19565E+00
#           1.22474E+00  1.25454E+00  1.28507E+00  1.31633E+00  1.34836E+00
#           1.38117E+00  1.41477E+00  1.44920E+00  1.48446E+00  1.52057E+00
#           1.55757E+00  1.59547E+00  1.63429E+00  1.67405E+00  1.71478E+00
#           1.75650E+00  1.79924E+00  1.84302E+00  1.88786E+00  1.93379E+00
#           1.98084E+00  2.02904E+00  2.07841E+00  2.12898E+00  2.18078E+00
#           2.23384E+00  2.28819E+00  2.34386E+00  2.40089E+00  2.45930E+00
#           2.51914E+00  2.58043E+00  2.64322E+00  2.70753E+00  2.77341E+00
#           2.84088E+00  2.91001E+00  2.98081E+00  3.05333E+00  3.12762E+00
#           3.20372E+00  3.28167E+00  3.36152E+00  3.44330E+00  3.52708E+00
#           3.61290E+00  3.70080E+00  3.79085E+00  3.88308E+00  3.97756E+00
#           4.07434E+00  4.17347E+00  4.27501E+00  4.37903E+00  4.48557E+00
#           4.59471E+00  4.70650E+00  4.82102E+00  4.93832E+00  5.05847E+00
#           5.18155E+00  5.30762E+00  5.43676E+00  5.56904E+00  5.70453E+00
#           5.84333E+00  5.98550E+00  6.13114E+00  6.28031E+00  6.43312E+00
#           6.58964E+00  6.74997E+00  6.91420E+00  7.08243E+00  7.25475E+00
#           7.43126E+00  7.61207E+00  7.79728E+00  7.98700E+00  8.18133E+00
#           8.38038E+00  8.58428E+00  8.79315E+00  9.00709E+00  9.22624E+00
#           9.45072E+00  9.68067E+00  9.91620E+00  1.01575E+01  1.04046E+01
#           1.06578E+01  1.09171E+01  1.11827E+01  1.14548E+01  1.17335E+01
#           1.20190E+01  1.23114E+01  1.26109E+01  1.29178E+01  1.32321E+01
#           1.35540E+01  1.38838E+01  1.42216E+01  1.45676E+01  1.49221E+01
#           1.52851E+01  1.56570E+01  1.60380E+01  1.64282E+01  1.68279E+01
#           1.72374E+01  1.76568E+01  1.80864E+01  1.85264E+01  1.89772E+01
#           1.94389E+01  1.99119E+01  2.03963E+01  2.08926E+01  2.14009E+01
#           2.19216E+01  2.24550E+01  2.30014E+01  2.35610E+01  2.41343E+01
#           2.47215E+01  2.53230E+01  2.59391E+01  2.65702E+01  2.72167E+01
#           2.78789E+01  2.85572E+01  2.92520E+01  2.99637E+01  3.06928E+01
#           3.14396E+01  3.22045E+01  3.29881E+01  3.37907E+01  3.46128E+01
#           3.54550E+01  3.63177E+01  3.72013E+01  3.81064E+01  3.90336E+01
#           3.99833E+01  4.09561E+01  4.19526E+01  4.29734E+01  4.40189E+01
#           4.50900E+01  4.61870E+01  4.73108E+01  4.84619E+01  4.96410E+01
#           5.08488E+01  5.20860E+01  5.33533E+01  5.46514E+01  5.59812E+01
#           5.73432E+01  5.87384E+01  6.01676E+01  6.16315E+01  6.31311E+01
#           6.46671E+01  6.62405E+01  6.78522E+01  6.95031E+01  7.11941E+01
#           7.29263E+01  7.47007E+01  7.65182E+01  7.83800E+01  8.02870E+01
#           8.22405E+01  8.42414E+01  8.62911E+01  8.83906E+01  9.05412E+01
#           9.27442E+01  9.50007E+01  9.73122E+01  9.96799E+01  1.02105E+02
#           1.04589E+02  1.07134E+02  1.09741E+02  1.12411E+02  1.15146E+02
#           1.17948E+02  1.20817E+02  1.23757E+02  1.26768E+02  1.29852E+02
#           1.33012E+02  1.36248E+02  1.39563E+02  1.42959E+02  1.46437E+02
#           1.50000E+02
     unit =    2            # unit is [1/cm^2/(MeV/n)/source]
     axis =  eng            # axis of output
     file = detector-11.out  # file name of output for the above axis
   output = f-curr          # surface crossing forward current spectrum
     part =  neutron  
# kf/name :  2112     
#    used :        main (  %)        temp (  %)       total (  %)
#  memory :         414 (  0)           0 (  0)         414 (  0)

#------------------------------------------------------------------------------
#newpage:
#   no. =    1   reg = 110 - 210

x: Energy [MeV/n]
y:  F-Curr [1/cm^2/(MeV/n)/source]         
p: xlog ylog afac(0.8) form(0.9)
h: n            x            y(neutron ),hh0l   n 
#  e-lower      e-upper      neutron     r.err 
   1.0000E-02   1.0243E-02   1.5929E-04  0.1015
   1.0243E-02   1.0493E-02   1.8234E-04  0.0937
   1.0493E-02   1.0748E-02   1.4254E-04  0.1048
   1.0748E-02   1.1009E-02   1.6209E-04  0.0971
   1.1009E-02   1.1277E-02   1.5920E-04  0.0967
   1.1277E-02   1.1552E-02   1.4136E-04  0.1015
   1.1552E-02   1.1833E-02   1.4228E-04  0.1000
   1.1833E-02   1.2121E-02   1.4167E-04  0.0990
   1.2121E-02   1.2415E-02   1.2475E-04  0.1043
   1.2415E-02   1.2718E-02   1.3635E-04  0.0985
   1.2718E-02   1.3027E-02   1.1373E-04  0.1066
   1.3027E-02   1.3344E-02   1.2490E-04  0.1005
   1.3344E-02   1.3669E-02   1.2666E-04  0.0985
   1.3669E-02   1.4001E-02   9.4998E-05  0.1125
   1.4001E-02   1.4342E-02   1.4284E-04  0.0906
   1.4342E-02   1.4691E-02   1.0751E-04  0.1032
   1.4691E-02   1.5048E-02   1.1961E-04  0.0967
   1.5048E-02   1.5414E-02   1.3207E-04  0.0909
   1.5414E-02   1.5789E-02   1.1516E-04  0.0962
   1.5789E-02   1.6174E-02   1.2846E-04  0.0898
   1.6174E-02   1.6567E-02   1.0349E-04  0.0990
   1.6567E-02   1.6970E-02   9.0084E-05  0.1049
   1.6970E-02   1.7383E-02   1.0169E-04  0.0976
   1.7383E-02   1.7806E-02   9.5498E-05  0.0995
   1.7806E-02   1.8239E-02   1.0597E-04  0.0933
   1.8239E-02   1.8683E-02   1.1444E-04  0.0887
   1.8683E-02   1.9138E-02   8.5182E-05  0.1015
   1.9138E-02   1.9603E-02   1.0382E-04  0.0909
   1.9603E-02   2.0080E-02   8.8578E-05  0.0972
   2.0080E-02   2.0569E-02   9.1673E-05  0.0945
   2.0569E-02   2.1069E-02   9.6211E-05  0.0910
   2.1069E-02   2.1582E-02   8.9569E-05  0.0933
   2.1582E-02   2.2107E-02   7.0045E-05  0.1043
   2.2107E-02   2.2645E-02   8.8401E-05  0.0917
   2.2645E-02   2.3196E-02   8.9277E-05  0.0902
   2.3196E-02   2.3760E-02   7.0055E-05  0.1005
   2.3760E-02   2.4338E-02   6.1363E-05  0.1061
   2.4338E-02   2.4930E-02   6.8204E-05  0.0995
   2.4930E-02   2.5537E-02   7.8033E-05  0.0917
   2.5537E-02   2.6158E-02   8.2325E-05  0.0884
   2.6158E-02   2.6795E-02   7.4090E-05  0.0921
   2.6795E-02   2.7447E-02   7.4216E-05  0.0909
   2.7447E-02   2.8114E-02   6.2972E-05  0.0974
   2.8114E-02   2.8799E-02   6.6639E-05  0.0937
   2.8799E-02   2.9499E-02   5.9352E-05  0.0981
   2.9499E-02   3.0217E-02   6.3864E-05  0.0933
   3.0217E-02   3.0952E-02   5.8743E-05  0.0962
   3.0952E-02   3.1705E-02   6.1015E-05  0.0933
   3.1705E-02   3.2477E-02   6.0654E-05  0.0925
   3.2477E-02   3.3267E-02   5.4048E-05  0.0967
   3.3267E-02   3.4076E-02   5.1293E-05  0.0981
   3.4076E-02   3.4905E-02   5.4982E-05  0.0937
   3.4905E-02   3.5755E-02   5.9537E-05  0.0888
   3.5755E-02   3.6625E-02   5.2400E-05  0.0937
   3.6625E-02   3.7516E-02   5.6544E-05  0.0891
   3.7516E-02   3.8428E-02   4.8886E-05  0.0945
   3.8428E-02   3.9363E-02   4.2771E-05  0.1000
   3.9363E-02   4.0321E-02   4.6697E-05  0.0945
   4.0321E-02   4.1302E-02   5.2091E-05  0.0884
   4.1302E-02   4.2307E-02   4.9277E-05  0.0898
   4.2307E-02   4.3337E-02   4.7390E-05  0.0905
   4.3337E-02   4.4391E-02   4.8163E-05  0.0887
   4.4391E-02   4.5471E-02   3.8504E-05  0.0981
   4.5471E-02   4.6577E-02   4.2387E-05  0.0923
   4.6577E-02   4.7711E-02   4.0166E-05  0.0937
   4.7711E-02   4.8871E-02   3.9268E-05  0.0937
   4.8871E-02   5.0061E-02   4.0321E-05  0.0913
   5.0061E-02   5.1279E-02   4.2283E-05  0.0881
   5.1279E-02   5.2526E-02   4.1294E-05  0.0881
   5.2526E-02   5.3804E-02   3.5862E-05  0.0933
   5.3804E-02   5.5113E-02   3.5323E-05  0.0929
   5.5113E-02   5.6454E-02   3.8342E-05  0.0881
   5.6454E-02   5.7828E-02   3.3742E-05  0.0929
   5.7828E-02   5.9235E-02   3.3538E-05  0.0921
   5.9235E-02   6.0676E-02   3.1434E-05  0.0939
   6.0676E-02   6.2152E-02   3.7582E-05  0.0848
   6.2152E-02   6.3665E-02   3.3053E-05  0.0894
   6.3665E-02   6.5214E-02   3.3259E-05  0.0881
   6.5214E-02   6.6800E-02   2.9990E-05  0.0917
   6.6800E-02   6.8426E-02   2.7124E-05  0.0952
   6.8426E-02   7.0090E-02   3.0263E-05  0.0889
   7.0090E-02   7.1796E-02   2.8669E-05  0.0904
   7.1796E-02   7.3543E-02   2.6010E-05  0.0937
   7.3543E-02   7.5332E-02   2.6802E-05  0.0913
   7.5332E-02   7.7165E-02   2.6181E-05  0.0913
   7.7165E-02   7.9042E-02   2.5300E-05  0.0917
   7.9042E-02   8.0965E-02   2.7029E-05  0.0877
   8.0965E-02   8.2935E-02   2.6793E-05  0.0870
   8.2935E-02   8.4953E-02   2.3486E-05  0.0918
   8.4953E-02   8.7020E-02   2.3390E-05  0.0909
   8.7020E-02   8.9138E-02   2.1678E-05  0.0933
   8.9138E-02   9.1306E-02   2.0592E-05  0.0945
   9.1306E-02   9.3528E-02   2.4822E-05  0.0851
   9.3528E-02   9.5804E-02   2.3018E-05  0.0874
   9.5804E-02   9.8134E-02   2.5507E-05  0.0819
   9.8134E-02   1.0052E-01   2.4278E-05  0.0830
   1.0052E-01   1.0297E-01   2.2839E-05  0.0845
   1.0297E-01   1.0547E-01   2.4244E-05  0.0811
   1.0547E-01   1.0804E-01   2.8026E-05  0.0745
   1.0804E-01   1.1067E-01   2.3398E-05  0.0806
   1.1067E-01   1.1336E-01   2.2649E-05  0.0808
   1.1336E-01   1.1612E-01   2.7069E-05  0.0731
   1.1612E-01   1.1894E-01   2.9979E-05  0.0686
   1.1894E-01   1.2184E-01   3.1311E-05  0.0664
   1.2184E-01   1.2480E-01   2.9008E-05  0.0681
   1.2480E-01   1.2784E-01   3.4987E-05  0.0613
   1.2784E-01   1.3095E-01   2.7249E-05  0.0687
   1.3095E-01   1.3414E-01   2.7857E-05  0.0671
   1.3414E-01   1.3740E-01   3.5003E-05  0.0591
   1.3740E-01   1.4074E-01   3.6232E-05  0.0574
   1.4074E-01   1.4417E-01   3.2680E-05  0.0598
   1.4417E-01   1.4767E-01   3.8331E-05  0.0545
   1.4767E-01   1.5127E-01   3.8164E-05  0.0540
   1.5127E-01   1.5495E-01   3.7764E-05  0.0536
   1.5495E-01   1.5872E-01   3.7030E-05  0.0535
   1.5872E-01   1.6258E-01   4.0653E-05  0.0504
   1.6258E-01   1.6654E-01   4.2909E-05  0.0485
   1.6654E-01   1.7059E-01   4.4378E-05  0.0471
   1.7059E-01   1.7474E-01   4.4477E-05  0.0465
   1.7474E-01   1.7899E-01   4.2921E-05  0.0468
   1.7899E-01   1.8334E-01   5.3880E-05  0.0413
   1.8334E-01   1.8781E-01   4.8229E-05  0.0431
   1.8781E-01   1.9237E-01   4.9589E-05  0.0420
   1.9237E-01   1.9706E-01   5.3570E-05  0.0399
   1.9706E-01   2.0185E-01   5.3560E-05  0.0394
   2.0185E-01   2.0676E-01   5.4056E-05  0.0388
   2.0676E-01   2.1179E-01   5.5698E-05  0.0378
   2.1179E-01   2.1694E-01   5.8626E-05  0.0364
   2.1694E-01   2.2222E-01   5.8008E-05  0.0361
   2.2222E-01   2.2763E-01   5.7839E-05  0.0357
   2.2763E-01   2.3317E-01   6.5370E-05  0.0332
   2.3317E-01   2.3884E-01   6.6852E-05  0.0324
   2.3884E-01   2.4465E-01   6.8811E-05  0.0316
   2.4465E-01   2.5061E-01   6.7636E-05  0.0315
   2.5061E-01   2.5670E-01   6.6078E-05  0.0315
   2.5670E-01   2.6295E-01   7.1454E-05  0.0299
   2.6295E-01   2.6935E-01   7.2293E-05  0.0294
   2.6935E-01   2.7590E-01   7.4657E-05  0.0286
   2.7590E-01   2.8261E-01   7.5611E-05  0.0280
   2.8261E-01   2.8949E-01   7.6727E-05  0.0275
   2.8949E-01   2.9653E-01   7.8673E-05  0.0268
   2.9653E-01   3.0375E-01   7.9443E-05  0.0264
   3.0375E-01   3.1114E-01   8.1920E-05  0.0257
   3.1114E-01   3.1871E-01   8.7203E-05  0.0246
   3.1871E-01   3.2646E-01   8.3840E-05  0.0248
   3.2646E-01   3.3441E-01   8.8583E-05  0.0238
   3.3441E-01   3.4254E-01   9.5175E-05  0.0227
   3.4254E-01   3.5088E-01   8.9483E-05  0.0231
   3.5088E-01   3.5941E-01   9.0582E-05  0.0227
   3.5941E-01   3.6816E-01   9.2963E-05  0.0222
   3.6816E-01   3.7712E-01   9.5136E-05  0.0216
   3.7712E-01   3.8629E-01   9.7414E-05  0.0211
   3.8629E-01   3.9569E-01   1.0198E-04  0.0204
   3.9569E-01   4.0532E-01   1.0501E-04  0.0199
   4.0532E-01   4.1518E-01   1.0556E-04  0.0196
   4.1518E-01   4.2528E-01   1.0454E-04  0.0194
   4.2528E-01   4.3563E-01   1.1004E-04  0.0187
   4.3563E-01   4.4623E-01   1.0677E-04  0.0188
   4.4623E-01   4.5708E-01   1.1103E-04  0.0182
   4.5708E-01   4.6821E-01   1.1635E-04  0.0176
   4.6821E-01   4.7960E-01   1.1517E-04  0.0174
   4.7960E-01   4.9127E-01   1.1799E-04  0.0170
   4.9127E-01   5.0322E-01   1.1728E-04  0.0169
   5.0322E-01   5.1546E-01   1.1637E-04  0.0167
   5.1546E-01   5.2800E-01   1.2191E-04  0.0162
   5.2800E-01   5.4085E-01   1.2565E-04  0.0157
   5.4085E-01   5.5401E-01   1.2677E-04  0.0155
   5.5401E-01   5.6749E-01   1.2896E-04  0.0152
   5.6749E-01   5.8130E-01   1.2852E-04  0.0150
   5.8130E-01   5.9544E-01   1.2902E-04  0.0148
   5.9544E-01   6.0993E-01   1.3517E-04  0.0143
   6.0993E-01   6.2477E-01   1.3248E-04  0.0142
   6.2477E-01   6.3997E-01   1.3671E-04  0.0139
   6.3997E-01   6.5554E-01   1.3680E-04  0.0137
   6.5554E-01   6.7149E-01   1.3627E-04  0.0135
   6.7149E-01   6.8783E-01   1.3515E-04  0.0134
   6.8783E-01   7.0456E-01   1.3922E-04  0.0131
   7.0456E-01   7.2171E-01   1.4117E-04  0.0128
   7.2171E-01   7.3927E-01   1.4453E-04  0.0125
   7.3927E-01   7.5725E-01   1.4050E-04  0.0126
   7.5725E-01   7.7568E-01   1.4041E-04  0.0124
   7.7568E-01   7.9455E-01   1.4262E-04  0.0122
   7.9455E-01   8.1388E-01   1.4658E-04  0.0119
   8.1388E-01   8.3368E-01   1.4365E-04  0.0118
   8.3368E-01   8.5397E-01   1.4756E-04  0.0115
   8.5397E-01   8.7475E-01   1.4338E-04  0.0116
   8.7475E-01   8.9603E-01   1.4732E-04  0.0113
   8.9603E-01   9.1783E-01   1.4483E-04  0.0112
   9.1783E-01   9.4016E-01   1.4347E-04  0.0112
   9.4016E-01   9.6304E-01   1.4537E-04  0.0109
   9.6304E-01   9.8647E-01   1.4308E-04  0.0109
   9.8647E-01   1.0105E+00   1.4110E-04  0.0108
   1.0105E+00   1.0351E+00   1.4233E-04  0.0107
   1.0351E+00   1.0602E+00   1.4328E-04  0.0105
   1.0602E+00   1.0860E+00   1.4380E-04  0.0104
   1.0860E+00   1.1125E+00   1.4258E-04  0.0103
   1.1125E+00   1.1395E+00   1.4445E-04  0.0101
   1.1395E+00   1.1673E+00   1.4536E-04  0.0099
   1.1673E+00   1.1957E+00   1.4489E-04  0.0098
   1.1957E+00   1.2247E+00   1.4489E-04  0.0097
   1.2247E+00   1.2545E+00   1.4879E-04  0.0095
   1.2545E+00   1.2851E+00   1.4466E-04  0.0095
   1.2851E+00   1.3163E+00   1.4526E-04  0.0094
   1.3163E+00   1.3484E+00   1.4587E-04  0.0092
   1.3484E+00   1.3812E+00   1.4720E-04  0.0091
   1.3812E+00   1.4148E+00   1.4540E-04  0.0090
   1.4148E+00   1.4492E+00   1.4470E-04  0.0089
   1.4492E+00   1.4845E+00   1.4457E-04  0.0088
   1.4845E+00   1.5206E+00   1.4223E-04  0.0088
   1.5206E+00   1.5576E+00   1.4397E-04  0.0086
   1.5576E+00   1.5955E+00   1.4372E-04  0.0085
   1.5955E+00   1.6343E+00   1.4100E-04  0.0085
   1.6343E+00   1.6741E+00   1.4023E-04  0.0084
   1.6741E+00   1.7148E+00   1.3716E-04  0.0084
   1.7148E+00   1.7565E+00   1.3666E-04  0.0083
   1.7565E+00   1.7992E+00   1.3283E-04  0.0083
   1.7992E+00   1.8430E+00   1.2829E-04  0.0084
   1.8430E+00   1.8879E+00   1.2436E-04  0.0084
   1.8879E+00   1.9338E+00   1.2390E-04  0.0083
   1.9338E+00   1.9808E+00   1.2168E-04  0.0083
   1.9808E+00   2.0290E+00   1.2206E-04  0.0081
   2.0290E+00   2.0784E+00   1.1962E-04  0.0081
   2.0784E+00   2.1290E+00   1.1877E-04  0.0081
   2.1290E+00   2.1808E+00   1.2129E-04  0.0079
   2.1808E+00   2.2338E+00   1.1986E-04  0.0078
   2.2338E+00   2.2882E+00   1.1728E-04  0.0078
   2.2882E+00   2.3439E+00   1.1628E-04  0.0078
   2.3439E+00   2.4009E+00   1.1347E-04  0.0078
   2.4009E+00   2.4593E+00   1.1295E-04  0.0077
   2.4593E+00   2.5191E+00   1.0974E-04  0.0077
   2.5191E+00   2.5804E+00   1.0864E-04  0.0077
   2.5804E+00   2.6432E+00   1.0912E-04  0.0076
   2.6432E+00   2.7075E+00   1.0818E-04  0.0075
   2.7075E+00   2.7734E+00   1.0757E-04  0.0074
   2.7734E+00   2.8409E+00   1.0506E-04  0.0074
   2.8409E+00   2.9100E+00   1.0351E-04  0.0074
   2.9100E+00   2.9808E+00   1.0326E-04  0.0073
   2.9808E+00   3.0533E+00   1.0332E-04  0.0072
   3.0533E+00   3.1276E+00   1.0085E-04  0.0072
   3.1276E+00   3.2037E+00   1.0038E-04  0.0072
   3.2037E+00   3.2817E+00   9.8837E-05  0.0071
   3.2817E+00   3.3615E+00   9.7958E-05  0.0071
   3.3615E+00   3.4433E+00   9.7957E-05  0.0070
   3.4433E+00   3.5271E+00   9.4585E-05  0.0070
   3.5271E+00   3.6129E+00   9.4986E-05  0.0069
   3.6129E+00   3.7008E+00   9.2869E-05  0.0069
   3.7008E+00   3.7908E+00   9.4078E-05  0.0068
   3.7908E+00   3.8831E+00   9.0567E-05  0.0069
   3.8831E+00   3.9776E+00   8.9880E-05  0.0068
   3.9776E+00   4.0743E+00   8.8340E-05  0.0068
   4.0743E+00   4.1735E+00   8.5683E-05  0.0068
   4.1735E+00   4.2750E+00   8.3799E-05  0.0068
   4.2750E+00   4.3790E+00   8.1960E-05  0.0068
   4.3790E+00   4.4856E+00   7.9720E-05  0.0068
   4.4856E+00   4.5947E+00   7.8432E-05  0.0068
   4.5947E+00   4.7065E+00   7.6600E-05  0.0068
   4.7065E+00   4.8210E+00   7.5242E-05  0.0068
   4.8210E+00   4.9383E+00   7.3172E-05  0.0068
   4.9383E+00   5.0585E+00   7.2530E-05  0.0067
   5.0585E+00   5.1815E+00   6.9858E-05  0.0068
   5.1815E+00   5.3076E+00   6.9684E-05  0.0067
   5.3076E+00   5.4368E+00   6.8339E-05  0.0067
   5.4368E+00   5.5690E+00   6.7114E-05  0.0067
   5.5690E+00   5.7045E+00   6.5065E-05  0.0067
   5.7045E+00   5.8433E+00   6.3639E-05  0.0067
   5.8433E+00   5.9855E+00   6.2589E-05  0.0067
   5.9855E+00   6.1311E+00   6.1408E-05  0.0066
   6.1311E+00   6.2803E+00   6.1100E-05  0.0066
   6.2803E+00   6.4331E+00   5.9433E-05  0.0066
   6.4331E+00   6.5896E+00   5.8603E-05  0.0066
   6.5896E+00   6.7500E+00   5.8232E-05  0.0065
   6.7500E+00   6.9142E+00   5.7110E-05  0.0065
   6.9142E+00   7.0824E+00   5.5997E-05  0.0065
   7.0824E+00   7.2548E+00   5.5245E-05  0.0064
   7.2548E+00   7.4313E+00   5.3931E-05  0.0064
   7.4313E+00   7.6121E+00   5.2906E-05  0.0064
   7.6121E+00   7.7973E+00   5.1653E-05  0.0064
   7.7973E+00   7.9870E+00   5.1163E-05  0.0064
   7.9870E+00   8.1813E+00   4.9623E-05  0.0064
   8.1813E+00   8.3804E+00   4.8400E-05  0.0064
   8.3804E+00   8.5843E+00   4.7095E-05  0.0064
   8.5843E+00   8.7931E+00   4.5732E-05  0.0064
   8.7931E+00   9.0071E+00   4.4837E-05  0.0064
   9.0071E+00   9.2262E+00   4.3376E-05  0.0065
   9.2262E+00   9.4507E+00   4.1637E-05  0.0065
   9.4507E+00   9.6807E+00   4.0409E-05  0.0065
   9.6807E+00   9.9162E+00   3.8749E-05  0.0066
   9.9162E+00   1.0157E+01   3.8977E-05  0.0065
   1.0157E+01   1.0405E+01   3.6582E-05  0.0066
   1.0405E+01   1.0658E+01   3.5335E-05  0.0067
   1.0658E+01   1.0917E+01   3.3698E-05  0.0068
   1.0917E+01   1.1183E+01   3.2526E-05  0.0068
   1.1183E+01   1.1455E+01   3.0630E-05  0.0069
   1.1455E+01   1.1733E+01   2.9367E-05  0.0070
   1.1733E+01   1.2019E+01   2.7921E-05  0.0071
   1.2019E+01   1.2311E+01   2.6636E-05  0.0072
   1.2311E+01   1.2611E+01   2.5050E-05  0.0073
   1.2611E+01   1.2918E+01   2.4195E-05  0.0073
   1.2918E+01   1.3232E+01   2.2614E-05  0.0075
   1.3232E+01   1.3554E+01   2.1566E-05  0.0076
   1.3554E+01   1.3884E+01   1.9887E-05  0.0078
   1.3884E+01   1.4222E+01   1.8726E-05  0.0079
   1.4222E+01   1.4568E+01   1.7489E-05  0.0081
   1.4568E+01   1.4922E+01   1.6481E-05  0.0083
   1.4922E+01   1.5285E+01   1.5377E-05  0.0085
   1.5285E+01   1.5657E+01   1.4087E-05  0.0087
   1.5657E+01   1.6038E+01   1.2934E-05  0.0090
   1.6038E+01   1.6428E+01   1.1738E-05  0.0093
   1.6428E+01   1.6828E+01   1.0572E-05  0.0097
   1.6828E+01   1.7237E+01   9.7298E-06  0.0100
   1.7237E+01   1.7657E+01   8.8245E-06  0.0104
   1.7657E+01   1.8086E+01   7.8797E-06  0.0109
   1.8086E+01   1.8526E+01   6.8476E-06  0.0115
   1.8526E+01   1.8977E+01   6.0730E-06  0.0121
   1.8977E+01   1.9439E+01   5.3841E-06  0.0127
   1.9439E+01   1.9912E+01   4.6625E-06  0.0135
   1.9912E+01   2.0396E+01   4.0886E-06  0.0142
   2.0396E+01   2.0893E+01   3.4853E-06  0.0152
   2.0893E+01   2.1401E+01   3.0334E-06  0.0161
   2.1401E+01   2.1922E+01   2.5035E-06  0.0175
   2.1922E+01   2.2455E+01   2.2048E-06  0.0184
   2.2455E+01   2.3001E+01   1.8816E-06  0.0197
   2.3001E+01   2.3561E+01   1.5996E-06  0.0211
   2.3561E+01   2.4134E+01   3.2467E-06  0.0147
   2.4134E+01   2.4721E+01   9.0244E-06  0.0087
   2.4721E+01   2.5323E+01   1.3958E-05  0.0069
   2.5323E+01   2.5939E+01   1.3941E-05  0.0068
   2.5939E+01   2.6570E+01   1.3369E-05  0.0069
   2.6570E+01   2.7217E+01   1.2952E-05  0.0069
   2.7217E+01   2.7879E+01   1.2246E-05  0.0070
   2.7879E+01   2.8557E+01   1.0845E-05  0.0074
   2.8557E+01   2.9252E+01   5.2486E-06  0.0105
   2.9252E+01   2.9964E+01   5.6651E-07  0.0315
   2.9964E+01   3.0693E+01   7.5716E-08  0.0851
   3.0693E+01   3.1440E+01   8.5701E-09  0.2500
   3.1440E+01   3.2205E+01   2.6146E-09  0.4472
   3.2205E+01   3.2988E+01   2.0420E-09  0.5000
   3.2988E+01   3.3791E+01   1.4951E-09  0.5774
   3.3791E+01   3.4613E+01   1.4596E-09  0.5774
   3.4613E+01   3.5455E+01   0.0000E+00  0.0000
   3.5455E+01   3.6318E+01   0.0000E+00  0.0000
   3.6318E+01   3.7201E+01   0.0000E+00  0.0000
   3.7201E+01   3.8106E+01   0.0000E+00  0.0000
   3.8106E+01   3.9034E+01   0.0000E+00  0.0000
   3.9034E+01   3.9983E+01   0.0000E+00  0.0000
   3.9983E+01   4.0956E+01   0.0000E+00  0.0000
   4.0956E+01   4.1953E+01   0.0000E+00  0.0000
   4.1953E+01   4.2973E+01   0.0000E+00  0.0000
   4.2973E+01   4.4019E+01   0.0000E+00  0.0000
   4.4019E+01   4.5090E+01   0.0000E+00  0.0000
   4.5090E+01   4.6187E+01   0.0000E+00  0.0000
   4.6187E+01   4.7311E+01   0.0000E+00  0.0000
   4.7311E+01   4.8462E+01   0.0000E+00  0.0000
   4.8462E+01   4.9641E+01   0.0000E+00  0.0000
   4.9641E+01   5.0849E+01   0.0000E+00  0.0000
   5.0849E+01   5.2086E+01   0.0000E+00  0.0000
   5.2086E+01   5.3353E+01   0.0000E+00  0.0000
   5.3353E+01   5.4651E+01   0.0000E+00  0.0000
   5.4651E+01   5.5981E+01   0.0000E+00  0.0000
   5.5981E+01   5.7343E+01   0.0000E+00  0.0000
   5.7343E+01   5.8738E+01   0.0000E+00  0.0000
   5.8738E+01   6.0168E+01   0.0000E+00  0.0000
   6.0168E+01   6.1632E+01   0.0000E+00  0.0000
   6.1632E+01   6.3131E+01   0.0000E+00  0.0000
   6.3131E+01   6.4667E+01   0.0000E+00  0.0000
   6.4667E+01   6.6240E+01   0.0000E+00  0.0000
   6.6240E+01   6.7852E+01   0.0000E+00  0.0000
   6.7852E+01   6.9503E+01   0.0000E+00  0.0000
   6.9503E+01   7.1194E+01   0.0000E+00  0.0000
   7.1194E+01   7.2926E+01   0.0000E+00  0.0000
   7.2926E+01   7.4701E+01   0.0000E+00  0.0000
   7.4701E+01   7.6518E+01   0.0000E+00  0.0000
   7.6518E+01   7.8380E+01   0.0000E+00  0.0000
   7.8380E+01   8.0287E+01   0.0000E+00  0.0000
   8.0287E+01   8.2240E+01   0.0000E+00  0.0000
   8.2240E+01   8.4241E+01   0.0000E+00  0.0000
   8.4241E+01   8.6291E+01   0.0000E+00  0.0000
   8.6291E+01   8.8391E+01   0.0000E+00  0.0000
   8.8391E+01   9.0541E+01   0.0000E+00  0.0000
   9.0541E+01   9.2744E+01   0.0000E+00  0.0000
   9.2744E+01   9.5001E+01   0.0000E+00  0.0000
   9.5001E+01   9.7312E+01   0.0000E+00  0.0000
   9.7312E+01   9.9680E+01   0.0000E+00  0.0000
   9.9680E+01   1.0211E+02   0.0000E+00  0.0000
   1.0211E+02   1.0459E+02   0.0000E+00  0.0000
   1.0459E+02   1.0713E+02   0.0000E+00  0.0000
   1.0713E+02   1.0974E+02   0.0000E+00  0.0000
   1.0974E+02   1.1241E+02   0.0000E+00  0.0000
   1.1241E+02   1.1515E+02   0.0000E+00  0.0000
   1.1515E+02   1.1795E+02   0.0000E+00  0.0000
   1.1795E+02   1.2082E+02   0.0000E+00  0.0000
   1.2082E+02   1.2376E+02   0.0000E+00  0.0000
   1.2376E+02   1.2677E+02   0.0000E+00  0.0000
   1.2677E+02   1.2985E+02   0.0000E+00  0.0000
   1.2985E+02   1.3301E+02   0.0000E+00  0.0000
   1.3301E+02   1.3625E+02   0.0000E+00  0.0000
   1.3625E+02   1.3956E+02   0.0000E+00  0.0000
   1.3956E+02   1.4296E+02   0.0000E+00  0.0000
   1.4296E+02   1.4644E+02   0.0000E+00  0.0000
   1.4644E+02   1.5000E+02   0.0000E+00  0.0000

#   sum over                 6.9400E-06
'no. =    1   reg = 110 - 210'
msuc: {\huge [t-cross] in region mesh}
msdr: {\it plotted by \ANGEL \version}
msdl: {\it calculated by \PHITS  3.26}
wt: s(0.7)
\vspace{-3}
  region surface crossing
  area  &=&   1.0000E+00 [cm^2]
e:
 
# Information for Restart Calculation
# This calculation was newly started
# istdev =  2 # 1:Batch variance, 2:History variance
# resc2  = 2.50000000000000000E+09 # Total source weight or Total source weight / maxcas
# resc3  = 2.50000000000000000E+09 # Total history number or Total batch number
# maxcas =   100000000 # History / Batch, only used for istdev=1
# bitrseed = 1100001110001001100010001100011001110101000011000110100101010100 # bit data of rseed
