0 <--- number of remaining batches 

-------------------------------------------------------------------------------
bat[      10] ncas =     5000000000.
 bitrseed = 0001011101011011011000011100010110101100100111100111010011101011
          cpu time =   2 h. 47 m. 56.80 s.

 date = 2022-05-20
 time = 01h 38m 11s

