[ T-Cross ]
    title = [t-cross] in region mesh
     mesh =  reg            # mesh type is region-wise
      reg =    1            # number of crossing regions
      non     r-from    r-to       area
      1       125       225        1.000000    
   e-type =    3            # e-mesh is log given by emin, emax and ne
     emin =  1.0000000E-02  # minimum value of e-mesh points
     emax =   150.0000      # maximum value of e-mesh points
#    edel =  2.4039514E-02  # mesh width of e-mesh points
       ne =    400          # number of e-mesh points
#    data = ( e(i), i = 1, ne + 1 )
#           1.00000E-02  1.02433E-02  1.04925E-02  1.07478E-02  1.10093E-02
#           1.12772E-02  1.15516E-02  1.18326E-02  1.21205E-02  1.24154E-02
#           1.27175E-02  1.30269E-02  1.33439E-02  1.36686E-02  1.40011E-02
#           1.43418E-02  1.46907E-02  1.50482E-02  1.54143E-02  1.57894E-02
#           1.61735E-02  1.65670E-02  1.69701E-02  1.73830E-02  1.78060E-02
#           1.82392E-02  1.86830E-02  1.91375E-02  1.96032E-02  2.00801E-02
#           2.05687E-02  2.10692E-02  2.15818E-02  2.21069E-02  2.26448E-02
#           2.31957E-02  2.37601E-02  2.43382E-02  2.49304E-02  2.55369E-02
#           2.61583E-02  2.67947E-02  2.74467E-02  2.81145E-02  2.87985E-02
#           2.94992E-02  3.02169E-02  3.09521E-02  3.17052E-02  3.24766E-02
#           3.32668E-02  3.40762E-02  3.49053E-02  3.57546E-02  3.66246E-02
#           3.75157E-02  3.84284E-02  3.93634E-02  4.03212E-02  4.13022E-02
#           4.23071E-02  4.33365E-02  4.43909E-02  4.54710E-02  4.65773E-02
#           4.77106E-02  4.88714E-02  5.00605E-02  5.12785E-02  5.25262E-02
#           5.38042E-02  5.51133E-02  5.64542E-02  5.78278E-02  5.92348E-02
#           6.06760E-02  6.21523E-02  6.36645E-02  6.52135E-02  6.68002E-02
#           6.84255E-02  7.00904E-02  7.17957E-02  7.35426E-02  7.53319E-02
#           7.71648E-02  7.90423E-02  8.09655E-02  8.29354E-02  8.49533E-02
#           8.70203E-02  8.91376E-02  9.13064E-02  9.35279E-02  9.58035E-02
#           9.81345E-02  1.00522E-01  1.02968E-01  1.05473E-01  1.08040E-01
#           1.10668E-01  1.13361E-01  1.16119E-01  1.18944E-01  1.21838E-01
#           1.24803E-01  1.27839E-01  1.30950E-01  1.34136E-01  1.37399E-01
#           1.40742E-01  1.44167E-01  1.47675E-01  1.51268E-01  1.54948E-01
#           1.58718E-01  1.62580E-01  1.66535E-01  1.70587E-01  1.74738E-01
#           1.78989E-01  1.83344E-01  1.87805E-01  1.92375E-01  1.97055E-01
#           2.01850E-01  2.06761E-01  2.11792E-01  2.16945E-01  2.22223E-01
#           2.27630E-01  2.33169E-01  2.38842E-01  2.44653E-01  2.50605E-01
#           2.56703E-01  2.62949E-01  2.69346E-01  2.75900E-01  2.82613E-01
#           2.89489E-01  2.96532E-01  3.03747E-01  3.11138E-01  3.18708E-01
#           3.26462E-01  3.34405E-01  3.42542E-01  3.50876E-01  3.59413E-01
#           3.68158E-01  3.77116E-01  3.86291E-01  3.95690E-01  4.05317E-01
#           4.15179E-01  4.25281E-01  4.35628E-01  4.46227E-01  4.57084E-01
#           4.68205E-01  4.79597E-01  4.91266E-01  5.03219E-01  5.15463E-01
#           5.28005E-01  5.40851E-01  5.54011E-01  5.67490E-01  5.81298E-01
#           5.95441E-01  6.09929E-01  6.24769E-01  6.39970E-01  6.55541E-01
#           6.71491E-01  6.87828E-01  7.04564E-01  7.21706E-01  7.39266E-01
#           7.57253E-01  7.75678E-01  7.94551E-01  8.13883E-01  8.33685E-01
#           8.53969E-01  8.74747E-01  8.96030E-01  9.17831E-01  9.40163E-01
#           9.63038E-01  9.86469E-01  1.01047E+00  1.03506E+00  1.06024E+00
#           1.08604E+00  1.11246E+00  1.13953E+00  1.16725E+00  1.19565E+00
#           1.22474E+00  1.25454E+00  1.28507E+00  1.31633E+00  1.34836E+00
#           1.38117E+00  1.41477E+00  1.44920E+00  1.48446E+00  1.52057E+00
#           1.55757E+00  1.59547E+00  1.63429E+00  1.67405E+00  1.71478E+00
#           1.75650E+00  1.79924E+00  1.84302E+00  1.88786E+00  1.93379E+00
#           1.98084E+00  2.02904E+00  2.07841E+00  2.12898E+00  2.18078E+00
#           2.23384E+00  2.28819E+00  2.34386E+00  2.40089E+00  2.45930E+00
#           2.51914E+00  2.58043E+00  2.64322E+00  2.70753E+00  2.77341E+00
#           2.84088E+00  2.91001E+00  2.98081E+00  3.05333E+00  3.12762E+00
#           3.20372E+00  3.28167E+00  3.36152E+00  3.44330E+00  3.52708E+00
#           3.61290E+00  3.70080E+00  3.79085E+00  3.88308E+00  3.97756E+00
#           4.07434E+00  4.17347E+00  4.27501E+00  4.37903E+00  4.48557E+00
#           4.59471E+00  4.70650E+00  4.82102E+00  4.93832E+00  5.05847E+00
#           5.18155E+00  5.30762E+00  5.43676E+00  5.56904E+00  5.70453E+00
#           5.84333E+00  5.98550E+00  6.13114E+00  6.28031E+00  6.43312E+00
#           6.58964E+00  6.74997E+00  6.91420E+00  7.08243E+00  7.25475E+00
#           7.43126E+00  7.61207E+00  7.79728E+00  7.98700E+00  8.18133E+00
#           8.38038E+00  8.58428E+00  8.79315E+00  9.00709E+00  9.22624E+00
#           9.45072E+00  9.68067E+00  9.91620E+00  1.01575E+01  1.04046E+01
#           1.06578E+01  1.09171E+01  1.11827E+01  1.14548E+01  1.17335E+01
#           1.20190E+01  1.23114E+01  1.26109E+01  1.29178E+01  1.32321E+01
#           1.35540E+01  1.38838E+01  1.42216E+01  1.45676E+01  1.49221E+01
#           1.52851E+01  1.56570E+01  1.60380E+01  1.64282E+01  1.68279E+01
#           1.72374E+01  1.76568E+01  1.80864E+01  1.85264E+01  1.89772E+01
#           1.94389E+01  1.99119E+01  2.03963E+01  2.08926E+01  2.14009E+01
#           2.19216E+01  2.24550E+01  2.30014E+01  2.35610E+01  2.41343E+01
#           2.47215E+01  2.53230E+01  2.59391E+01  2.65702E+01  2.72167E+01
#           2.78789E+01  2.85572E+01  2.92520E+01  2.99637E+01  3.06928E+01
#           3.14396E+01  3.22045E+01  3.29881E+01  3.37907E+01  3.46128E+01
#           3.54550E+01  3.63177E+01  3.72013E+01  3.81064E+01  3.90336E+01
#           3.99833E+01  4.09561E+01  4.19526E+01  4.29734E+01  4.40189E+01
#           4.50900E+01  4.61870E+01  4.73108E+01  4.84619E+01  4.96410E+01
#           5.08488E+01  5.20860E+01  5.33533E+01  5.46514E+01  5.59812E+01
#           5.73432E+01  5.87384E+01  6.01676E+01  6.16315E+01  6.31311E+01
#           6.46671E+01  6.62405E+01  6.78522E+01  6.95031E+01  7.11941E+01
#           7.29263E+01  7.47007E+01  7.65182E+01  7.83800E+01  8.02870E+01
#           8.22405E+01  8.42414E+01  8.62911E+01  8.83906E+01  9.05412E+01
#           9.27442E+01  9.50007E+01  9.73122E+01  9.96799E+01  1.02105E+02
#           1.04589E+02  1.07134E+02  1.09741E+02  1.12411E+02  1.15146E+02
#           1.17948E+02  1.20817E+02  1.23757E+02  1.26768E+02  1.29852E+02
#           1.33012E+02  1.36248E+02  1.39563E+02  1.42959E+02  1.46437E+02
#           1.50000E+02
     unit =    2            # unit is [1/cm^2/(MeV/n)/source]
     axis =  eng            # axis of output
     file = detector-26.out  # file name of output for the above axis
   output = f-curr          # surface crossing forward current spectrum
     part =  neutron  
# kf/name :  2112     
#    used :        main (  %)        temp (  %)       total (  %)
#  memory :         414 (  0)           0 (  0)         414 (  0)

#------------------------------------------------------------------------------
#newpage:
#   no. =    1   reg = 125 - 225

x: Energy [MeV/n]
y:  F-Curr [1/cm^2/(MeV/n)/source]         
p: xlog ylog afac(0.8) form(0.9)
h: n            x            y(neutron ),hh0l   n 
#  e-lower      e-upper      neutron     r.err 
   1.0000E-02   1.0243E-02   4.7100E-04  0.0930
   1.0243E-02   1.0493E-02   4.0290E-04  0.0993
   1.0493E-02   1.0748E-02   4.6602E-04  0.0914
   1.0748E-02   1.1009E-02   3.7654E-04  0.1003
   1.1009E-02   1.1277E-02   3.9738E-04  0.0964
   1.1277E-02   1.1552E-02   3.8780E-04  0.0965
   1.1552E-02   1.1833E-02   3.3134E-04  0.1031
   1.1833E-02   1.2121E-02   4.1754E-04  0.0908
   1.2121E-02   1.2415E-02   3.7722E-04  0.0944
   1.2415E-02   1.2718E-02   3.9284E-04  0.0914
   1.2718E-02   1.3027E-02   4.1614E-04  0.0879
   1.3027E-02   1.3344E-02   4.3696E-04  0.0849
   1.3344E-02   1.3669E-02   3.7021E-04  0.0907
   1.3669E-02   1.4001E-02   3.6334E-04  0.0904
   1.4001E-02   1.4342E-02   3.3097E-04  0.0939
   1.4342E-02   1.4691E-02   3.5394E-04  0.0898
   1.4691E-02   1.5048E-02   3.2805E-04  0.0920
   1.5048E-02   1.5414E-02   3.3270E-04  0.0902
   1.5414E-02   1.5789E-02   2.9321E-04  0.0947
   1.5789E-02   1.6174E-02   2.8890E-04  0.0946
   1.6174E-02   1.6567E-02   2.7503E-04  0.0957
   1.6567E-02   1.6970E-02   3.0259E-04  0.0903
   1.6970E-02   1.7383E-02   2.7458E-04  0.0935
   1.7383E-02   1.7806E-02   2.6183E-04  0.0948
   1.7806E-02   1.8239E-02   2.2787E-04  0.1004
   1.8239E-02   1.8683E-02   3.1420E-04  0.0846
   1.8683E-02   1.9138E-02   2.2485E-04  0.0985
   1.9138E-02   1.9603E-02   2.7888E-04  0.0875
   1.9603E-02   2.0080E-02   2.5256E-04  0.0905
   2.0080E-02   2.0569E-02   2.3370E-04  0.0932
   2.0569E-02   2.1069E-02   2.2783E-04  0.0933
   2.1069E-02   2.1582E-02   2.4506E-04  0.0888
   2.1582E-02   2.2107E-02   2.3884E-04  0.0889
   2.2107E-02   2.2645E-02   2.1042E-04  0.0936
   2.2645E-02   2.3196E-02   1.8267E-04  0.0995
   2.3196E-02   2.3760E-02   2.1072E-04  0.0912
   2.3760E-02   2.4338E-02   2.0214E-04  0.0922
   2.4338E-02   2.4930E-02   2.1699E-04  0.0881
   2.4930E-02   2.5537E-02   1.9962E-04  0.0906
   2.5537E-02   2.6158E-02   1.7930E-04  0.0946
   2.6158E-02   2.6795E-02   1.7938E-04  0.0933
   2.6795E-02   2.7447E-02   2.0984E-04  0.0849
   2.7447E-02   2.8114E-02   1.5717E-04  0.0973
   2.8114E-02   2.8799E-02   1.7401E-04  0.0911
   2.8799E-02   2.9499E-02   1.5704E-04  0.0950
   2.9499E-02   3.0217E-02   1.7820E-04  0.0880
   3.0217E-02   3.0952E-02   1.5327E-04  0.0940
   3.0952E-02   3.1705E-02   1.6108E-04  0.0904
   3.1705E-02   3.2477E-02   1.6038E-04  0.0897
   3.2477E-02   3.3267E-02   1.4029E-04  0.0945
   3.3267E-02   3.4076E-02   1.4821E-04  0.0910
   3.4076E-02   3.4905E-02   1.7092E-04  0.0836
   3.4905E-02   3.5755E-02   1.6095E-04  0.0852
   3.5755E-02   3.6625E-02   1.4862E-04  0.0879
   3.6625E-02   3.7516E-02   1.4751E-04  0.0869
   3.7516E-02   3.8428E-02   1.3146E-04  0.0906
   3.8428E-02   3.9363E-02   1.4217E-04  0.0863
   3.9363E-02   4.0321E-02   1.1204E-04  0.0959
   4.0321E-02   4.1302E-02   1.2478E-04  0.0903
   4.1302E-02   4.2307E-02   1.2190E-04  0.0900
   4.2307E-02   4.3337E-02   1.4477E-04  0.0817
   4.3337E-02   4.4391E-02   1.3631E-04  0.0829
   4.4391E-02   4.5471E-02   1.2255E-04  0.0868
   4.5471E-02   4.6577E-02   1.2954E-04  0.0832
   4.6577E-02   4.7711E-02   1.2229E-04  0.0848
   4.7711E-02   4.8871E-02   1.0865E-04  0.0888
   4.8871E-02   5.0061E-02   1.1231E-04  0.0864
   5.0061E-02   5.1279E-02   1.1935E-04  0.0829
   5.1279E-02   5.2526E-02   1.0568E-04  0.0869
   5.2526E-02   5.3804E-02   1.1206E-04  0.0833
   5.3804E-02   5.5113E-02   9.2569E-05  0.0903
   5.5113E-02   5.6454E-02   9.3419E-05  0.0893
   5.6454E-02   5.7828E-02   9.5469E-05  0.0870
   5.7828E-02   5.9235E-02   9.6113E-05  0.0857
   5.9235E-02   6.0676E-02   8.1715E-05  0.0920
   6.0676E-02   6.2152E-02   8.7753E-05  0.0875
   6.2152E-02   6.3665E-02   1.0191E-04  0.0804
   6.3665E-02   6.5214E-02   9.0739E-05  0.0840
   6.5214E-02   6.6800E-02   8.6959E-05  0.0847
   6.6800E-02   6.8426E-02   8.8711E-05  0.0830
   6.8426E-02   7.0090E-02   8.4378E-05  0.0839
   7.0090E-02   7.1796E-02   8.6254E-05  0.0820
   7.1796E-02   7.3543E-02   8.3285E-05  0.0824
   7.3543E-02   7.5332E-02   7.0984E-05  0.0882
   7.5332E-02   7.7165E-02   7.4423E-05  0.0855
   7.7165E-02   7.9042E-02   8.6361E-05  0.0783
   7.9042E-02   8.0965E-02   6.4614E-05  0.0894
   8.0965E-02   8.2935E-02   6.5988E-05  0.0872
   8.2935E-02   8.4953E-02   6.3086E-05  0.0883
   8.4953E-02   8.7020E-02   6.3783E-05  0.0865
   8.7020E-02   8.9138E-02   7.1531E-05  0.0808
   8.9138E-02   9.1306E-02   6.0589E-05  0.0869
   9.1306E-02   9.3528E-02   6.1800E-05  0.0851
   9.3528E-02   9.5804E-02   5.4560E-05  0.0891
   9.5804E-02   9.8134E-02   5.4546E-05  0.0884
   9.8134E-02   1.0052E-01   6.7570E-05  0.0785
   1.0052E-01   1.0297E-01   6.5979E-05  0.0785
   1.0297E-01   1.0547E-01   5.5215E-05  0.0846
   1.0547E-01   1.0804E-01   5.6321E-05  0.0827
   1.0804E-01   1.1067E-01   5.7180E-05  0.0812
   1.1067E-01   1.1336E-01   5.7776E-05  0.0799
   1.1336E-01   1.1612E-01   5.8880E-05  0.0784
   1.1612E-01   1.1894E-01   4.6179E-05  0.0870
   1.1894E-01   1.2184E-01   5.3818E-05  0.0800
   1.2184E-01   1.2480E-01   5.2888E-05  0.0794
   1.2480E-01   1.2784E-01   4.1432E-05  0.0889
   1.2784E-01   1.3095E-01   3.6434E-05  0.0935
   1.3095E-01   1.3414E-01   3.9054E-05  0.0893
   1.3414E-01   1.3740E-01   4.0841E-05  0.0863
   1.3740E-01   1.4074E-01   4.5310E-05  0.0806
   1.4074E-01   1.4417E-01   4.1449E-05  0.0837
   1.4417E-01   1.4767E-01   3.8784E-05  0.0853
   1.4767E-01   1.5127E-01   3.7686E-05  0.0858
   1.5127E-01   1.5495E-01   3.9980E-05  0.0820
   1.5495E-01   1.5872E-01   3.8321E-05  0.0831
   1.5872E-01   1.6258E-01   3.9626E-05  0.0804
   1.6258E-01   1.6654E-01   3.5802E-05  0.0837
   1.6654E-01   1.7059E-01   3.1395E-05  0.0884
   1.7059E-01   1.7474E-01   3.3431E-05  0.0844
   1.7474E-01   1.7899E-01   3.0909E-05  0.0867
   1.7899E-01   1.8334E-01   2.9091E-05  0.0882
   1.8334E-01   1.8781E-01   3.2373E-05  0.0829
   1.8781E-01   1.9237E-01   3.1645E-05  0.0830
   1.9237E-01   1.9706E-01   3.2086E-05  0.0810
   1.9706E-01   2.0185E-01   2.7881E-05  0.0861
   2.0185E-01   2.0676E-01   3.0215E-05  0.0818
   2.0676E-01   2.1179E-01   2.9657E-05  0.0814
   2.1179E-01   2.1694E-01   2.9595E-05  0.0805
   2.1694E-01   2.2222E-01   3.4281E-05  0.0742
   2.2222E-01   2.2763E-01   3.1050E-05  0.0770
   2.2763E-01   2.3317E-01   3.2842E-05  0.0736
   2.3317E-01   2.3884E-01   3.5327E-05  0.0703
   2.3884E-01   2.4465E-01   3.5312E-05  0.0693
   2.4465E-01   2.5061E-01   4.2569E-05  0.0626
   2.5061E-01   2.5670E-01   4.1133E-05  0.0628
   2.5670E-01   2.6295E-01   3.8985E-05  0.0638
   2.6295E-01   2.6935E-01   4.0451E-05  0.0619
   2.6935E-01   2.7590E-01   4.4564E-05  0.0583
   2.7590E-01   2.8261E-01   4.4109E-05  0.0578
   2.8261E-01   2.8949E-01   4.2964E-05  0.0579
   2.8949E-01   2.9653E-01   4.7138E-05  0.0546
   2.9653E-01   3.0375E-01   4.9181E-05  0.0529
   3.0375E-01   3.1114E-01   4.7658E-05  0.0529
   3.1114E-01   3.1871E-01   5.1411E-05  0.0504
   3.1871E-01   3.2646E-01   5.1915E-05  0.0496
   3.2646E-01   3.3441E-01   5.2470E-05  0.0487
   3.3441E-01   3.4254E-01   6.0727E-05  0.0447
   3.4254E-01   3.5088E-01   5.7788E-05  0.0453
   3.5088E-01   3.5941E-01   5.4919E-05  0.0460
   3.5941E-01   3.6816E-01   5.9393E-05  0.0437
   3.6816E-01   3.7712E-01   6.0406E-05  0.0428
   3.7712E-01   3.8629E-01   6.0636E-05  0.0422
   3.8629E-01   3.9569E-01   6.1128E-05  0.0414
   3.9569E-01   4.0532E-01   6.3719E-05  0.0400
   4.0532E-01   4.1518E-01   6.3196E-05  0.0399
   4.1518E-01   4.2528E-01   6.1265E-05  0.0400
   4.2528E-01   4.3563E-01   6.5288E-05  0.0383
   4.3563E-01   4.4623E-01   6.6870E-05  0.0373
   4.4623E-01   4.5708E-01   6.6280E-05  0.0371
   4.5708E-01   4.6821E-01   7.0726E-05  0.0354
   4.6821E-01   4.7960E-01   7.0355E-05  0.0351
   4.7960E-01   4.9127E-01   6.7079E-05  0.0355
   4.9127E-01   5.0322E-01   7.1924E-05  0.0339
   5.0322E-01   5.1546E-01   7.1895E-05  0.0335
   5.1546E-01   5.2800E-01   7.1398E-05  0.0332
   5.2800E-01   5.4085E-01   6.9915E-05  0.0332
   5.4085E-01   5.5401E-01   7.5797E-05  0.0315
   5.5401E-01   5.6749E-01   7.2462E-05  0.0318
   5.6749E-01   5.8130E-01   7.7539E-05  0.0304
   5.8130E-01   5.9544E-01   7.3207E-05  0.0308
   5.9544E-01   6.0993E-01   7.5772E-05  0.0300
   6.0993E-01   6.2477E-01   7.3461E-05  0.0301
   6.2477E-01   6.3997E-01   7.7071E-05  0.0290
   6.3997E-01   6.5554E-01   7.7129E-05  0.0287
   6.5554E-01   6.7149E-01   7.2609E-05  0.0291
   6.7149E-01   6.8783E-01   7.4849E-05  0.0284
   6.8783E-01   7.0456E-01   7.8514E-05  0.0274
   7.0456E-01   7.2171E-01   7.3838E-05  0.0279
   7.2171E-01   7.3927E-01   7.1874E-05  0.0279
   7.3927E-01   7.5725E-01   7.5209E-05  0.0270
   7.5725E-01   7.7568E-01   7.0104E-05  0.0276
   7.7568E-01   7.9455E-01   6.9830E-05  0.0273
   7.9455E-01   8.1388E-01   6.7813E-05  0.0274
   8.1388E-01   8.3368E-01   6.7915E-05  0.0271
   8.3368E-01   8.5397E-01   6.8197E-05  0.0267
   8.5397E-01   8.7475E-01   6.4811E-05  0.0270
   8.7475E-01   8.9603E-01   6.4922E-05  0.0267
   8.9603E-01   9.1783E-01   6.7755E-05  0.0258
   9.1783E-01   9.4016E-01   6.5957E-05  0.0259
   9.4016E-01   9.6304E-01   6.2629E-05  0.0262
   9.6304E-01   9.8647E-01   6.1602E-05  0.0261
   9.8647E-01   1.0105E+00   6.0339E-05  0.0261
   1.0105E+00   1.0351E+00   5.7449E-05  0.0264
   1.0351E+00   1.0602E+00   5.6225E-05  0.0263
   1.0602E+00   1.0860E+00   5.5449E-05  0.0262
   1.0860E+00   1.1125E+00   5.4530E-05  0.0261
   1.1125E+00   1.1395E+00   5.4146E-05  0.0259
   1.1395E+00   1.1673E+00   5.1251E-05  0.0263
   1.1673E+00   1.1957E+00   5.2009E-05  0.0258
   1.1957E+00   1.2247E+00   5.1053E-05  0.0257
   1.2247E+00   1.2545E+00   5.0102E-05  0.0256
   1.2545E+00   1.2851E+00   4.8740E-05  0.0257
   1.2851E+00   1.3163E+00   4.7633E-05  0.0257
   1.3163E+00   1.3484E+00   4.8237E-05  0.0252
   1.3484E+00   1.3812E+00   4.5528E-05  0.0256
   1.3812E+00   1.4148E+00   4.4855E-05  0.0255
   1.4148E+00   1.4492E+00   4.4697E-05  0.0252
   1.4492E+00   1.4845E+00   4.0932E-05  0.0261
   1.4845E+00   1.5206E+00   4.2267E-05  0.0253
   1.5206E+00   1.5576E+00   4.0776E-05  0.0255
   1.5576E+00   1.5955E+00   3.9419E-05  0.0256
   1.5955E+00   1.6343E+00   3.8397E-05  0.0256
   1.6343E+00   1.6741E+00   3.7696E-05  0.0256
   1.6741E+00   1.7148E+00   3.4251E-05  0.0265
   1.7148E+00   1.7565E+00   3.5266E-05  0.0258
   1.7565E+00   1.7992E+00   3.4043E-05  0.0260
   1.7992E+00   1.8430E+00   3.3821E-05  0.0257
   1.8430E+00   1.8879E+00   3.2033E-05  0.0261
   1.8879E+00   1.9338E+00   3.0693E-05  0.0264
   1.9338E+00   1.9808E+00   3.1540E-05  0.0257
   1.9808E+00   2.0290E+00   2.9914E-05  0.0260
   2.0290E+00   2.0784E+00   2.9528E-05  0.0259
   2.0784E+00   2.1290E+00   2.9193E-05  0.0257
   2.1290E+00   2.1808E+00   2.7317E-05  0.0263
   2.1808E+00   2.2338E+00   2.7679E-05  0.0258
   2.2338E+00   2.2882E+00   2.7787E-05  0.0254
   2.2882E+00   2.3439E+00   2.6748E-05  0.0256
   2.3439E+00   2.4009E+00   2.5496E-05  0.0259
   2.4009E+00   2.4593E+00   2.3320E-05  0.0268
   2.4593E+00   2.5191E+00   2.4222E-05  0.0259
   2.5191E+00   2.5804E+00   2.2527E-05  0.0266
   2.5804E+00   2.6432E+00   2.1142E-05  0.0271
   2.6432E+00   2.7075E+00   2.0651E-05  0.0271
   2.7075E+00   2.7734E+00   2.0630E-05  0.0268
   2.7734E+00   2.8409E+00   2.0499E-05  0.0266
   2.8409E+00   2.9100E+00   1.8876E-05  0.0273
   2.9100E+00   2.9808E+00   1.8283E-05  0.0274
   2.9808E+00   3.0533E+00   1.8718E-05  0.0268
   3.0533E+00   3.1276E+00   1.8337E-05  0.0268
   3.1276E+00   3.2037E+00   1.8214E-05  0.0265
   3.2037E+00   3.2817E+00   1.7365E-05  0.0268
   3.2817E+00   3.3615E+00   1.6477E-05  0.0273
   3.3615E+00   3.4433E+00   1.6498E-05  0.0269
   3.4433E+00   3.5271E+00   1.4728E-05  0.0281
   3.5271E+00   3.6129E+00   1.5331E-05  0.0273
   3.6129E+00   3.7008E+00   1.4850E-05  0.0274
   3.7008E+00   3.7908E+00   1.4983E-05  0.0269
   3.7908E+00   3.8831E+00   1.4080E-05  0.0274
   3.8831E+00   3.9776E+00   1.3954E-05  0.0272
   3.9776E+00   4.0743E+00   1.3063E-05  0.0278
   4.0743E+00   4.1735E+00   1.3568E-05  0.0270
   4.1735E+00   4.2750E+00   1.3294E-05  0.0270
   4.2750E+00   4.3790E+00   1.3374E-05  0.0266
   4.3790E+00   4.4856E+00   1.2516E-05  0.0271
   4.4856E+00   4.5947E+00   1.2326E-05  0.0270
   4.5947E+00   4.7065E+00   1.2098E-05  0.0270
   4.7065E+00   4.8210E+00   1.1989E-05  0.0267
   4.8210E+00   4.9383E+00   1.1717E-05  0.0267
   4.9383E+00   5.0585E+00   1.0902E-05  0.0274
   5.0585E+00   5.1815E+00   1.1133E-05  0.0268
   5.1815E+00   5.3076E+00   1.0720E-05  0.0270
   5.3076E+00   5.4368E+00   9.9853E-06  0.0276
   5.4368E+00   5.5690E+00   1.0555E-05  0.0265
   5.5690E+00   5.7045E+00   9.6376E-06  0.0275
   5.7045E+00   5.8433E+00   9.1901E-06  0.0278
   5.8433E+00   5.9855E+00   8.8544E-06  0.0280
   5.9855E+00   6.1311E+00   8.9571E-06  0.0275
   6.1311E+00   6.2803E+00   8.2255E-06  0.0283
   6.2803E+00   6.4331E+00   8.0011E-06  0.0284
   6.4331E+00   6.5896E+00   7.9446E-06  0.0282
   6.5896E+00   6.7500E+00   7.3372E-06  0.0290
   6.7500E+00   6.9142E+00   6.8664E-06  0.0296
   6.9142E+00   7.0824E+00   6.8052E-06  0.0294
   7.0824E+00   7.2548E+00   6.6034E-06  0.0295
   7.2548E+00   7.4313E+00   6.2588E-06  0.0299
   7.4313E+00   7.6121E+00   6.2338E-06  0.0296
   7.6121E+00   7.7973E+00   5.6087E-06  0.0309
   7.7973E+00   7.9870E+00   5.5703E-06  0.0306
   7.9870E+00   8.1813E+00   5.1396E-06  0.0315
   8.1813E+00   8.3804E+00   4.9316E-06  0.0318
   8.3804E+00   8.5843E+00   5.1256E-06  0.0309
   8.5843E+00   8.7931E+00   4.6793E-06  0.0319
   8.7931E+00   9.0071E+00   4.5360E-06  0.0320
   9.0071E+00   9.2262E+00   4.3315E-06  0.0324
   9.2262E+00   9.4507E+00   4.0518E-06  0.0331
   9.4507E+00   9.6807E+00   3.8954E-06  0.0333
   9.6807E+00   9.9162E+00   3.7940E-06  0.0334
   9.9162E+00   1.0157E+01   3.5591E-06  0.0341
   1.0157E+01   1.0405E+01   3.4397E-06  0.0343
   1.0405E+01   1.0658E+01   3.2987E-06  0.0346
   1.0658E+01   1.0917E+01   3.0170E-06  0.0357
   1.0917E+01   1.1183E+01   3.2271E-06  0.0341
   1.1183E+01   1.1455E+01   2.8430E-06  0.0359
   1.1455E+01   1.1733E+01   2.7288E-06  0.0363
   1.1733E+01   1.2019E+01   2.4777E-06  0.0376
   1.2019E+01   1.2311E+01   2.6744E-06  0.0357
   1.2311E+01   1.2611E+01   2.2903E-06  0.0382
   1.2611E+01   1.2918E+01   2.1388E-06  0.0390
   1.2918E+01   1.3232E+01   2.0484E-06  0.0394
   1.3232E+01   1.3554E+01   1.9453E-06  0.0400
   1.3554E+01   1.3884E+01   1.6747E-06  0.0425
   1.3884E+01   1.4222E+01   1.6505E-06  0.0423
   1.4222E+01   1.4568E+01   1.4573E-06  0.0445
   1.4568E+01   1.4922E+01   1.4453E-06  0.0442
   1.4922E+01   1.5285E+01   1.4055E-06  0.0443
   1.5285E+01   1.5657E+01   1.2000E-06  0.0473
   1.5657E+01   1.6038E+01   1.1130E-06  0.0486
   1.6038E+01   1.6428E+01   1.0533E-06  0.0493
   1.6428E+01   1.6828E+01   1.0282E-06  0.0493
   1.6828E+01   1.7237E+01   8.8903E-07  0.0524
   1.7237E+01   1.7657E+01   8.8937E-07  0.0518
   1.7657E+01   1.8086E+01   7.9143E-07  0.0542
   1.8086E+01   1.8526E+01   6.8400E-07  0.0576
   1.8526E+01   1.8977E+01   6.5001E-07  0.0584
   1.8977E+01   1.9439E+01   5.4794E-07  0.0629
   1.9439E+01   1.9912E+01   5.8355E-07  0.0602
   1.9912E+01   2.0396E+01   4.7062E-07  0.0662
   2.0396E+01   2.0893E+01   5.0175E-07  0.0634
   2.0893E+01   2.1401E+01   4.4852E-07  0.0662
   2.1401E+01   2.1922E+01   4.0522E-07  0.0688
   2.1922E+01   2.2455E+01   3.6372E-07  0.0718
   2.2455E+01   2.3001E+01   2.6174E-07  0.0836
   2.3001E+01   2.3561E+01   2.5552E-07  0.0836
   2.3561E+01   2.4134E+01   2.6690E-07  0.0808
   2.4134E+01   2.4721E+01   1.9244E-07  0.0941
   2.4721E+01   2.5323E+01   1.9119E-07  0.0933
   2.5323E+01   2.5939E+01   1.9476E-07  0.0913
   2.5939E+01   2.6570E+01   1.3468E-07  0.1085
   2.6570E+01   2.7217E+01   9.7452E-08  0.1260
   2.7217E+01   2.7879E+01   1.0571E-07  0.1195
   2.7879E+01   2.8557E+01   8.2557E-08  0.1336
   2.8557E+01   2.9252E+01   7.0522E-08  0.1429
   2.9252E+01   2.9964E+01   5.6202E-08  0.1581
   2.9964E+01   3.0693E+01   5.7610E-08  0.1543
   3.0693E+01   3.1440E+01   3.8833E-08  0.1857
   3.1440E+01   3.2205E+01   3.1375E-08  0.2041
   3.2205E+01   3.2988E+01   2.9353E-08  0.2085
   3.2988E+01   3.3791E+01   2.7410E-08  0.2132
   3.3791E+01   3.4613E+01   1.8245E-08  0.2582
   3.4613E+01   3.5455E+01   2.2561E-08  0.2294
   3.5455E+01   3.6318E+01   1.5070E-08  0.2774
   3.6318E+01   3.7201E+01   4.5267E-09  0.5000
   3.7201E+01   3.8106E+01   3.3144E-09  0.5774
   3.8106E+01   3.9034E+01   5.3928E-09  0.4472
   3.9034E+01   3.9983E+01   4.2118E-09  0.5000
   3.9983E+01   4.0956E+01   4.1117E-09  0.5000
   4.0956E+01   4.1953E+01   4.0141E-09  0.5000
   4.1953E+01   4.2973E+01   9.7968E-10  1.0000
   4.2973E+01   4.4019E+01   9.5641E-10  1.0000
   4.4019E+01   4.5090E+01   2.8011E-09  0.5774
   4.5090E+01   4.6187E+01   1.8230E-09  0.7071
   4.6187E+01   4.7311E+01   8.8986E-10  1.0000
   4.7311E+01   4.8462E+01   8.6873E-10  1.0000
   4.8462E+01   4.9641E+01   0.0000E+00  0.0000
   4.9641E+01   5.0849E+01   0.0000E+00  0.0000
   5.0849E+01   5.2086E+01   8.0828E-10  1.0000
   5.2086E+01   5.3353E+01   0.0000E+00  0.0000
   5.3353E+01   5.4651E+01   7.7034E-10  1.0000
   5.4651E+01   5.5981E+01   0.0000E+00  0.0000
   5.5981E+01   5.7343E+01   0.0000E+00  0.0000
   5.7343E+01   5.8738E+01   0.0000E+00  0.0000
   5.8738E+01   6.0168E+01   0.0000E+00  0.0000
   6.0168E+01   6.1632E+01   0.0000E+00  0.0000
   6.1632E+01   6.3131E+01   0.0000E+00  0.0000
   6.3131E+01   6.4667E+01   0.0000E+00  0.0000
   6.4667E+01   6.6240E+01   0.0000E+00  0.0000
   6.6240E+01   6.7852E+01   0.0000E+00  0.0000
   6.7852E+01   6.9503E+01   0.0000E+00  0.0000
   6.9503E+01   7.1194E+01   0.0000E+00  0.0000
   7.1194E+01   7.2926E+01   0.0000E+00  0.0000
   7.2926E+01   7.4701E+01   0.0000E+00  0.0000
   7.4701E+01   7.6518E+01   0.0000E+00  0.0000
   7.6518E+01   7.8380E+01   0.0000E+00  0.0000
   7.8380E+01   8.0287E+01   0.0000E+00  0.0000
   8.0287E+01   8.2240E+01   0.0000E+00  0.0000
   8.2240E+01   8.4241E+01   0.0000E+00  0.0000
   8.4241E+01   8.6291E+01   0.0000E+00  0.0000
   8.6291E+01   8.8391E+01   0.0000E+00  0.0000
   8.8391E+01   9.0541E+01   0.0000E+00  0.0000
   9.0541E+01   9.2744E+01   0.0000E+00  0.0000
   9.2744E+01   9.5001E+01   0.0000E+00  0.0000
   9.5001E+01   9.7312E+01   0.0000E+00  0.0000
   9.7312E+01   9.9680E+01   0.0000E+00  0.0000
   9.9680E+01   1.0211E+02   0.0000E+00  0.0000
   1.0211E+02   1.0459E+02   0.0000E+00  0.0000
   1.0459E+02   1.0713E+02   0.0000E+00  0.0000
   1.0713E+02   1.0974E+02   0.0000E+00  0.0000
   1.0974E+02   1.1241E+02   0.0000E+00  0.0000
   1.1241E+02   1.1515E+02   0.0000E+00  0.0000
   1.1515E+02   1.1795E+02   0.0000E+00  0.0000
   1.1795E+02   1.2082E+02   0.0000E+00  0.0000
   1.2082E+02   1.2376E+02   0.0000E+00  0.0000
   1.2376E+02   1.2677E+02   0.0000E+00  0.0000
   1.2677E+02   1.2985E+02   0.0000E+00  0.0000
   1.2985E+02   1.3301E+02   0.0000E+00  0.0000
   1.3301E+02   1.3625E+02   0.0000E+00  0.0000
   1.3625E+02   1.3956E+02   0.0000E+00  0.0000
   1.3956E+02   1.4296E+02   0.0000E+00  0.0000
   1.4296E+02   1.4644E+02   0.0000E+00  0.0000
   1.4644E+02   1.5000E+02   0.0000E+00  0.0000

#   sum over                 1.4207E-06
'no. =    1   reg = 125 - 225'
msuc: {\huge [t-cross] in region mesh}
msdr: {\it plotted by \ANGEL \version}
msdl: {\it calculated by \PHITS  3.26}
wt: s(0.7)
\vspace{-3}
  region surface crossing
  area  &=&   1.0000E+00 [cm^2]
e:
 
# Information for Restart Calculation
# This calculation was newly started
# istdev =  2 # 1:Batch variance, 2:History variance
# resc2  = 1.00000000000000000E+09 # Total source weight or Total source weight / maxcas
# resc3  = 1.00000000000000000E+09 # Total history number or Total batch number
# maxcas =   500000000 # History / Batch, only used for istdev=1
# bitrseed = 0001001110011001001001110000100100110111001111011100001000101100 # bit data of rseed
