[ T-Cross ]
    title = [t-cross] in region mesh
     mesh =  reg            # mesh type is region-wise
      reg =    1            # number of crossing regions
      non     r-from    r-to       area
      1       112       212        1.000000    
   e-type =    3            # e-mesh is log given by emin, emax and ne
     emin =  1.0000000E-02  # minimum value of e-mesh points
     emax =   150.0000      # maximum value of e-mesh points
#    edel =  2.4039514E-02  # mesh width of e-mesh points
       ne =    400          # number of e-mesh points
#    data = ( e(i), i = 1, ne + 1 )
#           1.00000E-02  1.02433E-02  1.04925E-02  1.07478E-02  1.10093E-02
#           1.12772E-02  1.15516E-02  1.18326E-02  1.21205E-02  1.24154E-02
#           1.27175E-02  1.30269E-02  1.33439E-02  1.36686E-02  1.40011E-02
#           1.43418E-02  1.46907E-02  1.50482E-02  1.54143E-02  1.57894E-02
#           1.61735E-02  1.65670E-02  1.69701E-02  1.73830E-02  1.78060E-02
#           1.82392E-02  1.86830E-02  1.91375E-02  1.96032E-02  2.00801E-02
#           2.05687E-02  2.10692E-02  2.15818E-02  2.21069E-02  2.26448E-02
#           2.31957E-02  2.37601E-02  2.43382E-02  2.49304E-02  2.55369E-02
#           2.61583E-02  2.67947E-02  2.74467E-02  2.81145E-02  2.87985E-02
#           2.94992E-02  3.02169E-02  3.09521E-02  3.17052E-02  3.24766E-02
#           3.32668E-02  3.40762E-02  3.49053E-02  3.57546E-02  3.66246E-02
#           3.75157E-02  3.84284E-02  3.93634E-02  4.03212E-02  4.13022E-02
#           4.23071E-02  4.33365E-02  4.43909E-02  4.54710E-02  4.65773E-02
#           4.77106E-02  4.88714E-02  5.00605E-02  5.12785E-02  5.25262E-02
#           5.38042E-02  5.51133E-02  5.64542E-02  5.78278E-02  5.92348E-02
#           6.06760E-02  6.21523E-02  6.36645E-02  6.52135E-02  6.68002E-02
#           6.84255E-02  7.00904E-02  7.17957E-02  7.35426E-02  7.53319E-02
#           7.71648E-02  7.90423E-02  8.09655E-02  8.29354E-02  8.49533E-02
#           8.70203E-02  8.91376E-02  9.13064E-02  9.35279E-02  9.58035E-02
#           9.81345E-02  1.00522E-01  1.02968E-01  1.05473E-01  1.08040E-01
#           1.10668E-01  1.13361E-01  1.16119E-01  1.18944E-01  1.21838E-01
#           1.24803E-01  1.27839E-01  1.30950E-01  1.34136E-01  1.37399E-01
#           1.40742E-01  1.44167E-01  1.47675E-01  1.51268E-01  1.54948E-01
#           1.58718E-01  1.62580E-01  1.66535E-01  1.70587E-01  1.74738E-01
#           1.78989E-01  1.83344E-01  1.87805E-01  1.92375E-01  1.97055E-01
#           2.01850E-01  2.06761E-01  2.11792E-01  2.16945E-01  2.22223E-01
#           2.27630E-01  2.33169E-01  2.38842E-01  2.44653E-01  2.50605E-01
#           2.56703E-01  2.62949E-01  2.69346E-01  2.75900E-01  2.82613E-01
#           2.89489E-01  2.96532E-01  3.03747E-01  3.11138E-01  3.18708E-01
#           3.26462E-01  3.34405E-01  3.42542E-01  3.50876E-01  3.59413E-01
#           3.68158E-01  3.77116E-01  3.86291E-01  3.95690E-01  4.05317E-01
#           4.15179E-01  4.25281E-01  4.35628E-01  4.46227E-01  4.57084E-01
#           4.68205E-01  4.79597E-01  4.91266E-01  5.03219E-01  5.15463E-01
#           5.28005E-01  5.40851E-01  5.54011E-01  5.67490E-01  5.81298E-01
#           5.95441E-01  6.09929E-01  6.24769E-01  6.39970E-01  6.55541E-01
#           6.71491E-01  6.87828E-01  7.04564E-01  7.21706E-01  7.39266E-01
#           7.57253E-01  7.75678E-01  7.94551E-01  8.13883E-01  8.33685E-01
#           8.53969E-01  8.74747E-01  8.96030E-01  9.17831E-01  9.40163E-01
#           9.63038E-01  9.86469E-01  1.01047E+00  1.03506E+00  1.06024E+00
#           1.08604E+00  1.11246E+00  1.13953E+00  1.16725E+00  1.19565E+00
#           1.22474E+00  1.25454E+00  1.28507E+00  1.31633E+00  1.34836E+00
#           1.38117E+00  1.41477E+00  1.44920E+00  1.48446E+00  1.52057E+00
#           1.55757E+00  1.59547E+00  1.63429E+00  1.67405E+00  1.71478E+00
#           1.75650E+00  1.79924E+00  1.84302E+00  1.88786E+00  1.93379E+00
#           1.98084E+00  2.02904E+00  2.07841E+00  2.12898E+00  2.18078E+00
#           2.23384E+00  2.28819E+00  2.34386E+00  2.40089E+00  2.45930E+00
#           2.51914E+00  2.58043E+00  2.64322E+00  2.70753E+00  2.77341E+00
#           2.84088E+00  2.91001E+00  2.98081E+00  3.05333E+00  3.12762E+00
#           3.20372E+00  3.28167E+00  3.36152E+00  3.44330E+00  3.52708E+00
#           3.61290E+00  3.70080E+00  3.79085E+00  3.88308E+00  3.97756E+00
#           4.07434E+00  4.17347E+00  4.27501E+00  4.37903E+00  4.48557E+00
#           4.59471E+00  4.70650E+00  4.82102E+00  4.93832E+00  5.05847E+00
#           5.18155E+00  5.30762E+00  5.43676E+00  5.56904E+00  5.70453E+00
#           5.84333E+00  5.98550E+00  6.13114E+00  6.28031E+00  6.43312E+00
#           6.58964E+00  6.74997E+00  6.91420E+00  7.08243E+00  7.25475E+00
#           7.43126E+00  7.61207E+00  7.79728E+00  7.98700E+00  8.18133E+00
#           8.38038E+00  8.58428E+00  8.79315E+00  9.00709E+00  9.22624E+00
#           9.45072E+00  9.68067E+00  9.91620E+00  1.01575E+01  1.04046E+01
#           1.06578E+01  1.09171E+01  1.11827E+01  1.14548E+01  1.17335E+01
#           1.20190E+01  1.23114E+01  1.26109E+01  1.29178E+01  1.32321E+01
#           1.35540E+01  1.38838E+01  1.42216E+01  1.45676E+01  1.49221E+01
#           1.52851E+01  1.56570E+01  1.60380E+01  1.64282E+01  1.68279E+01
#           1.72374E+01  1.76568E+01  1.80864E+01  1.85264E+01  1.89772E+01
#           1.94389E+01  1.99119E+01  2.03963E+01  2.08926E+01  2.14009E+01
#           2.19216E+01  2.24550E+01  2.30014E+01  2.35610E+01  2.41343E+01
#           2.47215E+01  2.53230E+01  2.59391E+01  2.65702E+01  2.72167E+01
#           2.78789E+01  2.85572E+01  2.92520E+01  2.99637E+01  3.06928E+01
#           3.14396E+01  3.22045E+01  3.29881E+01  3.37907E+01  3.46128E+01
#           3.54550E+01  3.63177E+01  3.72013E+01  3.81064E+01  3.90336E+01
#           3.99833E+01  4.09561E+01  4.19526E+01  4.29734E+01  4.40189E+01
#           4.50900E+01  4.61870E+01  4.73108E+01  4.84619E+01  4.96410E+01
#           5.08488E+01  5.20860E+01  5.33533E+01  5.46514E+01  5.59812E+01
#           5.73432E+01  5.87384E+01  6.01676E+01  6.16315E+01  6.31311E+01
#           6.46671E+01  6.62405E+01  6.78522E+01  6.95031E+01  7.11941E+01
#           7.29263E+01  7.47007E+01  7.65182E+01  7.83800E+01  8.02870E+01
#           8.22405E+01  8.42414E+01  8.62911E+01  8.83906E+01  9.05412E+01
#           9.27442E+01  9.50007E+01  9.73122E+01  9.96799E+01  1.02105E+02
#           1.04589E+02  1.07134E+02  1.09741E+02  1.12411E+02  1.15146E+02
#           1.17948E+02  1.20817E+02  1.23757E+02  1.26768E+02  1.29852E+02
#           1.33012E+02  1.36248E+02  1.39563E+02  1.42959E+02  1.46437E+02
#           1.50000E+02
     unit =    2            # unit is [1/cm^2/(MeV/n)/source]
     axis =  eng            # axis of output
     file = detector-13.out  # file name of output for the above axis
   output = f-curr          # surface crossing forward current spectrum
     part =  neutron  
# kf/name :  2112     
#    used :        main (  %)        temp (  %)       total (  %)
#  memory :         414 (  0)           0 (  0)         414 (  0)

#------------------------------------------------------------------------------
#newpage:
#   no. =    1   reg = 112 - 212

x: Energy [MeV/n]
y:  F-Curr [1/cm^2/(MeV/n)/source]         
p: xlog ylog afac(0.8) form(0.9)
h: n            x            y(neutron ),hh0l   n 
#  e-lower      e-upper      neutron     r.err 
   1.0000E-02   1.0243E-02   6.0171E-04  0.0819
   1.0243E-02   1.0493E-02   5.6512E-04  0.0836
   1.0493E-02   1.0748E-02   6.6378E-04  0.0764
   1.0748E-02   1.1009E-02   6.2154E-04  0.0778
   1.1009E-02   1.1277E-02   5.7862E-04  0.0798
   1.1277E-02   1.1552E-02   5.2471E-04  0.0829
   1.1552E-02   1.1833E-02   5.9878E-04  0.0767
   1.1833E-02   1.2121E-02   5.5247E-04  0.0784
   1.2121E-02   1.2415E-02   4.5741E-04  0.0855
   1.2415E-02   1.2718E-02   5.1623E-04  0.0797
   1.2718E-02   1.3027E-02   4.9163E-04  0.0803
   1.3027E-02   1.3344E-02   4.9155E-04  0.0795
   1.3344E-02   1.3669E-02   4.5303E-04  0.0818
   1.3669E-02   1.4001E-02   5.1900E-04  0.0760
   1.4001E-02   1.4342E-02   5.0796E-04  0.0757
   1.4342E-02   1.4691E-02   4.7361E-04  0.0773
   1.4691E-02   1.5048E-02   4.9928E-04  0.0745
   1.5048E-02   1.5414E-02   4.7463E-04  0.0754
   1.5414E-02   1.5789E-02   4.4536E-04  0.0767
   1.5789E-02   1.6174E-02   4.2190E-04  0.0780
   1.6174E-02   1.6567E-02   3.1347E-04  0.0895
   1.6567E-02   1.6970E-02   3.9534E-04  0.0788
   1.6970E-02   1.7383E-02   3.8054E-04  0.0791
   1.7383E-02   1.7806E-02   3.7675E-04  0.0788
   1.7806E-02   1.8239E-02   3.8652E-04  0.0769
   1.8239E-02   1.8683E-02   4.0429E-04  0.0742
   1.8683E-02   1.9138E-02   4.4038E-04  0.0704
   1.9138E-02   1.9603E-02   3.4642E-04  0.0780
   1.9603E-02   2.0080E-02   3.8789E-04  0.0727
   2.0080E-02   2.0569E-02   3.7249E-04  0.0736
   2.0569E-02   2.1069E-02   3.5770E-04  0.0742
   2.1069E-02   2.1582E-02   3.1859E-04  0.0775
   2.1582E-02   2.2107E-02   2.9870E-04  0.0794
   2.2107E-02   2.2645E-02   3.1493E-04  0.0766
   2.2645E-02   2.3196E-02   3.2731E-04  0.0738
   2.3196E-02   2.3760E-02   2.9523E-04  0.0771
   2.3760E-02   2.4338E-02   3.1725E-04  0.0733
   2.4338E-02   2.4930E-02   2.9040E-04  0.0758
   2.4930E-02   2.5537E-02   3.1684E-04  0.0717
   2.5537E-02   2.6158E-02   2.9245E-04  0.0736
   2.6158E-02   2.6795E-02   2.7381E-04  0.0752
   2.6795E-02   2.7447E-02   2.8276E-04  0.0731
   2.7447E-02   2.8114E-02   2.4161E-04  0.0782
   2.8114E-02   2.8799E-02   2.8115E-04  0.0714
   2.8799E-02   2.9499E-02   2.7054E-04  0.0723
   2.9499E-02   3.0217E-02   2.8662E-04  0.0692
   3.0217E-02   3.0952E-02   2.7932E-04  0.0693
   3.0952E-02   3.1705E-02   2.4531E-04  0.0732
   3.1705E-02   3.2477E-02   2.3292E-04  0.0742
   3.2477E-02   3.3267E-02   2.3959E-04  0.0723
   3.3267E-02   3.4076E-02   2.3634E-04  0.0718
   3.4076E-02   3.4905E-02   2.0111E-04  0.0764
   3.4905E-02   3.5755E-02   2.0647E-04  0.0750
   3.5755E-02   3.6625E-02   1.9886E-04  0.0757
   3.6625E-02   3.7516E-02   1.7675E-04  0.0791
   3.7516E-02   3.8428E-02   2.0554E-04  0.0727
   3.8428E-02   3.9363E-02   2.2524E-04  0.0684
   3.9363E-02   4.0321E-02   2.1689E-04  0.0690
   4.0321E-02   4.1302E-02   2.1239E-04  0.0687
   4.1302E-02   4.2307E-02   2.0279E-04  0.0697
   4.2307E-02   4.3337E-02   1.7517E-04  0.0739
   4.3337E-02   4.4391E-02   1.8652E-04  0.0707
   4.4391E-02   4.5471E-02   1.8115E-04  0.0709
   4.5471E-02   4.6577E-02   1.5714E-04  0.0752
   4.6577E-02   4.7711E-02   1.6801E-04  0.0716
   4.7711E-02   4.8871E-02   1.6825E-04  0.0712
   4.8871E-02   5.0061E-02   1.8086E-04  0.0678
   5.0061E-02   5.1279E-02   1.7381E-04  0.0684
   5.1279E-02   5.2526E-02   1.7908E-04  0.0665
   5.2526E-02   5.3804E-02   1.4567E-04  0.0727
   5.3804E-02   5.5113E-02   1.4838E-04  0.0714
   5.5113E-02   5.6454E-02   1.4862E-04  0.0704
   5.6454E-02   5.7828E-02   1.4688E-04  0.0700
   5.7828E-02   5.9235E-02   1.4461E-04  0.0697
   5.9235E-02   6.0676E-02   1.3769E-04  0.0704
   6.0676E-02   6.2152E-02   1.2294E-04  0.0737
   6.2152E-02   6.3665E-02   1.3769E-04  0.0687
   6.3665E-02   6.5214E-02   1.1876E-04  0.0730
   6.5214E-02   6.6800E-02   1.2545E-04  0.0703
   6.6800E-02   6.8426E-02   1.4590E-04  0.0645
   6.8426E-02   7.0090E-02   1.2768E-04  0.0682
   7.0090E-02   7.1796E-02   1.3878E-04  0.0645
   7.1796E-02   7.3543E-02   1.2879E-04  0.0661
   7.3543E-02   7.5332E-02   1.0791E-04  0.0714
   7.5332E-02   7.7165E-02   1.3552E-04  0.0629
   7.7165E-02   7.9042E-02   9.9004E-05  0.0730
   7.9042E-02   8.0965E-02   1.1340E-04  0.0672
   8.0965E-02   8.2935E-02   1.1627E-04  0.0656
   8.2935E-02   8.4953E-02   1.2731E-04  0.0621
   8.4953E-02   8.7020E-02   1.0826E-04  0.0663
   8.7020E-02   8.9138E-02   9.4415E-05  0.0702
   8.9138E-02   9.1306E-02   1.0296E-04  0.0664
   9.1306E-02   9.3528E-02   1.0514E-04  0.0650
   9.3528E-02   9.5804E-02   9.0611E-05  0.0690
   9.5804E-02   9.8134E-02   9.2196E-05  0.0679
   9.8134E-02   1.0052E-01   1.0135E-04  0.0636
   1.0052E-01   1.0297E-01   9.2974E-05  0.0660
   1.0297E-01   1.0547E-01   8.7932E-05  0.0670
   1.0547E-01   1.0804E-01   9.2535E-05  0.0644
   1.0804E-01   1.1067E-01   8.8161E-05  0.0651
   1.1067E-01   1.1336E-01   8.1064E-05  0.0672
   1.1336E-01   1.1612E-01   8.5205E-05  0.0650
   1.1612E-01   1.1894E-01   8.2239E-05  0.0651
   1.1894E-01   1.2184E-01   8.5924E-05  0.0631
   1.2184E-01   1.2480E-01   8.5072E-05  0.0626
   1.2480E-01   1.2784E-01   7.5357E-05  0.0656
   1.2784E-01   1.3095E-01   6.8960E-05  0.0678
   1.3095E-01   1.3414E-01   7.8408E-05  0.0628
   1.3414E-01   1.3740E-01   7.1207E-05  0.0654
   1.3740E-01   1.4074E-01   6.5620E-05  0.0668
   1.4074E-01   1.4417E-01   7.5060E-05  0.0621
   1.4417E-01   1.4767E-01   6.7017E-05  0.0647
   1.4767E-01   1.5127E-01   6.3502E-05  0.0658
   1.5127E-01   1.5495E-01   7.0624E-05  0.0616
   1.5495E-01   1.5872E-01   6.9596E-05  0.0613
   1.5872E-01   1.6258E-01   6.2362E-05  0.0639
   1.6258E-01   1.6654E-01   6.1100E-05  0.0638
   1.6654E-01   1.7059E-01   6.0788E-05  0.0632
   1.7059E-01   1.7474E-01   6.0453E-05  0.0628
   1.7474E-01   1.7899E-01   6.6182E-05  0.0593
   1.7899E-01   1.8334E-01   6.8480E-05  0.0576
   1.8334E-01   1.8781E-01   5.7432E-05  0.0621
   1.8781E-01   1.9237E-01   5.7671E-05  0.0612
   1.9237E-01   1.9706E-01   6.1670E-05  0.0584
   1.9706E-01   2.0185E-01   5.4710E-05  0.0613
   2.0185E-01   2.0676E-01   6.0495E-05  0.0577
   2.0676E-01   2.1179E-01   5.8828E-05  0.0578
   2.1179E-01   2.1694E-01   6.1451E-05  0.0558
   2.1694E-01   2.2222E-01   6.7531E-05  0.0527
   2.2222E-01   2.2763E-01   6.6678E-05  0.0523
   2.2763E-01   2.3317E-01   6.7304E-05  0.0514
   2.3317E-01   2.3884E-01   7.6228E-05  0.0477
   2.3884E-01   2.4465E-01   7.1918E-05  0.0486
   2.4465E-01   2.5061E-01   7.9262E-05  0.0456
   2.5061E-01   2.5670E-01   7.4330E-05  0.0465
   2.5670E-01   2.6295E-01   7.9630E-05  0.0446
   2.6295E-01   2.6935E-01   8.0909E-05  0.0436
   2.6935E-01   2.7590E-01   8.9599E-05  0.0409
   2.7590E-01   2.8261E-01   9.3317E-05  0.0397
   2.8261E-01   2.8949E-01   9.0635E-05  0.0397
   2.8949E-01   2.9653E-01   9.4301E-05  0.0386
   2.9653E-01   3.0375E-01   1.0143E-04  0.0367
   3.0375E-01   3.1114E-01   1.0501E-04  0.0356
   3.1114E-01   3.1871E-01   1.1434E-04  0.0337
   3.1871E-01   3.2646E-01   1.1088E-04  0.0338
   3.2646E-01   3.3441E-01   1.1520E-04  0.0328
   3.3441E-01   3.4254E-01   1.2412E-04  0.0313
   3.4254E-01   3.5088E-01   1.2777E-04  0.0304
   3.5088E-01   3.5941E-01   1.3373E-04  0.0294
   3.5941E-01   3.6816E-01   1.2578E-04  0.0299
   3.6816E-01   3.7712E-01   1.4140E-04  0.0279
   3.7712E-01   3.8629E-01   1.3835E-04  0.0278
   3.8629E-01   3.9569E-01   1.4449E-04  0.0269
   3.9569E-01   4.0532E-01   1.4633E-04  0.0264
   4.0532E-01   4.1518E-01   1.4909E-04  0.0259
   4.1518E-01   4.2528E-01   1.5604E-04  0.0250
   4.2528E-01   4.3563E-01   1.5946E-04  0.0244
   4.3563E-01   4.4623E-01   1.6193E-04  0.0240
   4.4623E-01   4.5708E-01   1.6766E-04  0.0233
   4.5708E-01   4.6821E-01   1.8302E-04  0.0220
   4.6821E-01   4.7960E-01   1.7932E-04  0.0219
   4.7960E-01   4.9127E-01   1.9065E-04  0.0210
   4.9127E-01   5.0322E-01   1.9357E-04  0.0206
   5.0322E-01   5.1546E-01   2.0572E-04  0.0198
   5.1546E-01   5.2800E-01   2.0932E-04  0.0194
   5.2800E-01   5.4085E-01   2.1499E-04  0.0189
   5.4085E-01   5.5401E-01   2.2200E-04  0.0184
   5.5401E-01   5.6749E-01   2.3302E-04  0.0177
   5.6749E-01   5.8130E-01   2.2925E-04  0.0176
   5.8130E-01   5.9544E-01   2.4503E-04  0.0169
   5.9544E-01   6.0993E-01   2.5069E-04  0.0165
   6.0993E-01   6.2477E-01   2.6438E-04  0.0158
   6.2477E-01   6.3997E-01   2.6205E-04  0.0157
   6.3997E-01   6.5554E-01   2.7090E-04  0.0153
   6.5554E-01   6.7149E-01   2.8186E-04  0.0148
   6.7149E-01   6.8783E-01   2.8518E-04  0.0145
   6.8783E-01   7.0456E-01   2.9343E-04  0.0142
   7.0456E-01   7.2171E-01   3.0063E-04  0.0138
   7.2171E-01   7.3927E-01   3.1697E-04  0.0133
   7.3927E-01   7.5725E-01   3.2419E-04  0.0130
   7.5725E-01   7.7568E-01   3.2849E-04  0.0127
   7.7568E-01   7.9455E-01   3.4528E-04  0.0123
   7.9455E-01   8.1388E-01   3.5112E-04  0.0120
   8.1388E-01   8.3368E-01   3.6221E-04  0.0117
   8.3368E-01   8.5397E-01   3.6443E-04  0.0115
   8.5397E-01   8.7475E-01   3.7776E-04  0.0112
   8.7475E-01   8.9603E-01   3.9218E-04  0.0109
   8.9603E-01   9.1783E-01   4.0107E-04  0.0106
   9.1783E-01   9.4016E-01   4.1080E-04  0.0104
   9.4016E-01   9.6304E-01   4.1758E-04  0.0102
   9.6304E-01   9.8647E-01   4.3395E-04  0.0098
   9.8647E-01   1.0105E+00   4.3262E-04  0.0097
   1.0105E+00   1.0351E+00   4.4980E-04  0.0094
   1.0351E+00   1.0602E+00   4.5314E-04  0.0093
   1.0602E+00   1.0860E+00   4.5130E-04  0.0092
   1.0860E+00   1.1125E+00   4.6231E-04  0.0090
   1.1125E+00   1.1395E+00   4.6487E-04  0.0088
   1.1395E+00   1.1673E+00   4.7719E-04  0.0086
   1.1673E+00   1.1957E+00   4.9232E-04  0.0084
   1.1957E+00   1.2247E+00   5.0080E-04  0.0082
   1.2247E+00   1.2545E+00   5.0117E-04  0.0081
   1.2545E+00   1.2851E+00   5.0448E-04  0.0080
   1.2851E+00   1.3163E+00   5.0881E-04  0.0079
   1.3163E+00   1.3484E+00   5.1954E-04  0.0077
   1.3484E+00   1.3812E+00   5.3421E-04  0.0075
   1.3812E+00   1.4148E+00   5.4257E-04  0.0073
   1.4148E+00   1.4492E+00   5.5563E-04  0.0072
   1.4492E+00   1.4845E+00   5.6060E-04  0.0070
   1.4845E+00   1.5206E+00   5.6734E-04  0.0069
   1.5206E+00   1.5576E+00   5.7003E-04  0.0068
   1.5576E+00   1.5955E+00   5.6843E-04  0.0068
   1.5955E+00   1.6343E+00   5.6593E-04  0.0067
   1.6343E+00   1.6741E+00   5.6498E-04  0.0066
   1.6741E+00   1.7148E+00   5.6396E-04  0.0065
   1.7148E+00   1.7565E+00   5.6986E-04  0.0064
   1.7565E+00   1.7992E+00   5.7599E-04  0.0063
   1.7992E+00   1.8430E+00   5.7507E-04  0.0062
   1.8430E+00   1.8879E+00   5.8616E-04  0.0061
   1.8879E+00   1.9338E+00   5.8581E-04  0.0060
   1.9338E+00   1.9808E+00   5.9213E-04  0.0059
   1.9808E+00   2.0290E+00   5.9532E-04  0.0059
   2.0290E+00   2.0784E+00   5.8425E-04  0.0058
   2.0784E+00   2.1290E+00   5.8023E-04  0.0058
   2.1290E+00   2.1808E+00   5.7598E-04  0.0057
   2.1808E+00   2.2338E+00   5.7284E-04  0.0057
   2.2338E+00   2.2882E+00   5.6640E-04  0.0057
   2.2882E+00   2.3439E+00   5.5920E-04  0.0056
   2.3439E+00   2.4009E+00   5.6471E-04  0.0055
   2.4009E+00   2.4593E+00   5.7250E-04  0.0054
   2.4593E+00   2.5191E+00   5.6300E-04  0.0054
   2.5191E+00   2.5804E+00   5.6333E-04  0.0053
   2.5804E+00   2.6432E+00   5.5529E-04  0.0053
   2.6432E+00   2.7075E+00   5.5059E-04  0.0053
   2.7075E+00   2.7734E+00   5.3749E-04  0.0053
   2.7734E+00   2.8409E+00   5.3944E-04  0.0052
   2.8409E+00   2.9100E+00   5.3467E-04  0.0052
   2.9100E+00   2.9808E+00   5.2543E-04  0.0051
   2.9808E+00   3.0533E+00   5.2901E-04  0.0051
   3.0533E+00   3.1276E+00   5.1868E-04  0.0051
   3.1276E+00   3.2037E+00   5.0495E-04  0.0051
   3.2037E+00   3.2817E+00   4.9757E-04  0.0050
   3.2817E+00   3.3615E+00   4.9326E-04  0.0050
   3.3615E+00   3.4433E+00   4.8353E-04  0.0050
   3.4433E+00   3.5271E+00   4.7696E-04  0.0050
   3.5271E+00   3.6129E+00   4.7036E-04  0.0049
   3.6129E+00   3.7008E+00   4.6376E-04  0.0049
   3.7008E+00   3.7908E+00   4.4870E-04  0.0049
   3.7908E+00   3.8831E+00   4.4661E-04  0.0049
   3.8831E+00   3.9776E+00   4.3811E-04  0.0049
   3.9776E+00   4.0743E+00   4.3524E-04  0.0048
   4.0743E+00   4.1735E+00   4.2359E-04  0.0048
   4.1735E+00   4.2750E+00   4.1729E-04  0.0048
   4.2750E+00   4.3790E+00   4.0958E-04  0.0048
   4.3790E+00   4.4856E+00   4.0117E-04  0.0048
   4.4856E+00   4.5947E+00   3.9710E-04  0.0048
   4.5947E+00   4.7065E+00   3.8872E-04  0.0048
   4.7065E+00   4.8210E+00   3.8490E-04  0.0047
   4.8210E+00   4.9383E+00   3.7792E-04  0.0047
   4.9383E+00   5.0585E+00   3.7472E-04  0.0047
   5.0585E+00   5.1815E+00   3.8078E-04  0.0046
   5.1815E+00   5.3076E+00   3.7690E-04  0.0046
   5.3076E+00   5.4368E+00   3.6998E-04  0.0045
   5.4368E+00   5.5690E+00   3.6231E-04  0.0045
   5.5690E+00   5.7045E+00   3.5371E-04  0.0045
   5.7045E+00   5.8433E+00   3.4238E-04  0.0046
   5.8433E+00   5.9855E+00   3.3736E-04  0.0045
   5.9855E+00   6.1311E+00   3.3282E-04  0.0045
   6.1311E+00   6.2803E+00   3.2237E-04  0.0045
   6.2803E+00   6.4331E+00   3.1615E-04  0.0045
   6.4331E+00   6.5896E+00   3.0672E-04  0.0045
   6.5896E+00   6.7500E+00   2.9840E-04  0.0046
   6.7500E+00   6.9142E+00   2.9149E-04  0.0046
   6.9142E+00   7.0824E+00   2.8608E-04  0.0045
   7.0824E+00   7.2548E+00   2.7959E-04  0.0045
   7.2548E+00   7.4313E+00   2.7165E-04  0.0045
   7.4313E+00   7.6121E+00   2.6745E-04  0.0045
   7.6121E+00   7.7973E+00   2.5804E-04  0.0046
   7.7973E+00   7.9870E+00   2.5318E-04  0.0045
   7.9870E+00   8.1813E+00   2.4637E-04  0.0046
   8.1813E+00   8.3804E+00   2.4151E-04  0.0045
   8.3804E+00   8.5843E+00   2.3640E-04  0.0045
   8.5843E+00   8.7931E+00   2.2909E-04  0.0046
   8.7931E+00   9.0071E+00   2.2542E-04  0.0045
   9.0071E+00   9.2262E+00   2.1848E-04  0.0046
   9.2262E+00   9.4507E+00   2.1210E-04  0.0046
   9.4507E+00   9.6807E+00   2.0845E-04  0.0046
   9.6807E+00   9.9162E+00   2.0209E-04  0.0046
   9.9162E+00   1.0157E+01   1.9709E-04  0.0046
   1.0157E+01   1.0405E+01   1.9228E-04  0.0046
   1.0405E+01   1.0658E+01   1.8776E-04  0.0046
   1.0658E+01   1.0917E+01   1.8048E-04  0.0046
   1.0917E+01   1.1183E+01   1.7695E-04  0.0046
   1.1183E+01   1.1455E+01   1.7198E-04  0.0046
   1.1455E+01   1.1733E+01   1.6865E-04  0.0046
   1.1733E+01   1.2019E+01   1.6223E-04  0.0046
   1.2019E+01   1.2311E+01   1.5690E-04  0.0047
   1.2311E+01   1.2611E+01   1.5346E-04  0.0047
   1.2611E+01   1.2918E+01   1.4965E-04  0.0047
   1.2918E+01   1.3232E+01   1.4390E-04  0.0047
   1.3232E+01   1.3554E+01   1.3999E-04  0.0047
   1.3554E+01   1.3884E+01   1.3456E-04  0.0047
   1.3884E+01   1.4222E+01   1.3142E-04  0.0047
   1.4222E+01   1.4568E+01   1.2696E-04  0.0048
   1.4568E+01   1.4922E+01   1.2413E-04  0.0048
   1.4922E+01   1.5285E+01   1.1903E-04  0.0048
   1.5285E+01   1.5657E+01   1.1465E-04  0.0048
   1.5657E+01   1.6038E+01   1.1111E-04  0.0049
   1.6038E+01   1.6428E+01   1.0634E-04  0.0049
   1.6428E+01   1.6828E+01   1.0181E-04  0.0050
   1.6828E+01   1.7237E+01   9.9004E-05  0.0050
   1.7237E+01   1.7657E+01   9.5017E-05  0.0050
   1.7657E+01   1.8086E+01   9.1482E-05  0.0050
   1.8086E+01   1.8526E+01   8.7718E-05  0.0051
   1.8526E+01   1.8977E+01   8.4231E-05  0.0051
   1.8977E+01   1.9439E+01   8.2441E-05  0.0051
   1.9439E+01   1.9912E+01   8.2138E-05  0.0051
   1.9912E+01   2.0396E+01   8.2091E-05  0.0050
   2.0396E+01   2.0893E+01   7.8717E-05  0.0051
   2.0893E+01   2.1401E+01   7.5783E-05  0.0051
   2.1401E+01   2.1922E+01   7.2145E-05  0.0052
   2.1922E+01   2.2455E+01   6.9115E-05  0.0052
   2.2455E+01   2.3001E+01   6.6011E-05  0.0053
   2.3001E+01   2.3561E+01   6.2710E-05  0.0053
   2.3561E+01   2.4134E+01   5.9211E-05  0.0054
   2.4134E+01   2.4721E+01   5.6743E-05  0.0055
   2.4721E+01   2.5323E+01   5.3826E-05  0.0056
   2.5323E+01   2.5939E+01   5.1538E-05  0.0056
   2.5939E+01   2.6570E+01   4.8262E-05  0.0057
   2.6570E+01   2.7217E+01   4.5917E-05  0.0058
   2.7217E+01   2.7879E+01   4.3071E-05  0.0059
   2.7879E+01   2.8557E+01   4.0350E-05  0.0060
   2.8557E+01   2.9252E+01   3.8099E-05  0.0061
   2.9252E+01   2.9964E+01   3.6125E-05  0.0062
   2.9964E+01   3.0693E+01   3.3373E-05  0.0064
   3.0693E+01   3.1440E+01   3.0937E-05  0.0066
   3.1440E+01   3.2205E+01   2.9005E-05  0.0067
   3.2205E+01   3.2988E+01   2.7088E-05  0.0069
   3.2988E+01   3.3791E+01   2.5012E-05  0.0071
   3.3791E+01   3.4613E+01   2.3373E-05  0.0072
   3.4613E+01   3.5455E+01   2.1507E-05  0.0074
   3.5455E+01   3.6318E+01   1.9861E-05  0.0076
   3.6318E+01   3.7201E+01   1.8256E-05  0.0079
   3.7201E+01   3.8106E+01   1.6715E-05  0.0081
   3.8106E+01   3.9034E+01   1.5366E-05  0.0084
   3.9034E+01   3.9983E+01   1.3983E-05  0.0087
   3.9983E+01   4.0956E+01   1.2831E-05  0.0090
   4.0956E+01   4.1953E+01   1.1699E-05  0.0093
   4.1953E+01   4.2973E+01   1.0320E-05  0.0097
   4.2973E+01   4.4019E+01   9.5182E-06  0.0100
   4.4019E+01   4.5090E+01   8.5424E-06  0.0105
   4.5090E+01   4.6187E+01   7.6029E-06  0.0109
   4.6187E+01   4.7311E+01   6.7425E-06  0.0115
   4.7311E+01   4.8462E+01   6.0967E-06  0.0119
   4.8462E+01   4.9641E+01   5.3269E-06  0.0126
   4.9641E+01   5.0849E+01   4.8501E-06  0.0131
   5.0849E+01   5.2086E+01   4.1554E-06  0.0139
   5.2086E+01   5.3353E+01   3.6953E-06  0.0146
   5.3353E+01   5.4651E+01   3.2693E-06  0.0154
   5.4651E+01   5.5981E+01   2.8630E-06  0.0162
   5.5981E+01   5.7343E+01   2.3868E-06  0.0175
   5.7343E+01   5.8738E+01   2.0606E-06  0.0187
   5.8738E+01   6.0168E+01   1.7689E-06  0.0199
   6.0168E+01   6.1632E+01   1.5110E-06  0.0213
   6.1632E+01   6.3131E+01   1.2250E-06  0.0233
   6.3131E+01   6.4667E+01   1.0176E-06  0.0253
   6.4667E+01   6.6240E+01   8.3323E-07  0.0276
   6.6240E+01   6.7852E+01   6.4405E-07  0.0310
   6.7852E+01   6.9503E+01   5.1003E-07  0.0345
   6.9503E+01   7.1194E+01   3.7846E-07  0.0395
   7.1194E+01   7.2926E+01   2.9096E-07  0.0445
   7.2926E+01   7.4701E+01   2.3332E-07  0.0491
   7.4701E+01   7.6518E+01   1.4195E-07  0.0623
   7.6518E+01   7.8380E+01   1.0044E-07  0.0731
   7.8380E+01   8.0287E+01   6.7644E-08  0.0880
   8.0287E+01   8.2240E+01   5.0680E-08  0.1005
   8.2240E+01   8.4241E+01   2.9486E-08  0.1302
   8.4241E+01   8.6291E+01   1.4637E-08  0.1826
   8.6291E+01   8.8391E+01   1.2860E-08  0.1925
   8.8391E+01   9.0541E+01   6.0448E-09  0.2774
   9.0541E+01   9.2744E+01   3.6315E-09  0.3536
   9.2744E+01   9.5001E+01   0.0000E+00  0.0000
   9.5001E+01   9.7312E+01   0.0000E+00  0.0000
   9.7312E+01   9.9680E+01   0.0000E+00  0.0000
   9.9680E+01   1.0211E+02   0.0000E+00  0.0000
   1.0211E+02   1.0459E+02   0.0000E+00  0.0000
   1.0459E+02   1.0713E+02   0.0000E+00  0.0000
   1.0713E+02   1.0974E+02   0.0000E+00  0.0000
   1.0974E+02   1.1241E+02   0.0000E+00  0.0000
   1.1241E+02   1.1515E+02   0.0000E+00  0.0000
   1.1515E+02   1.1795E+02   0.0000E+00  0.0000
   1.1795E+02   1.2082E+02   0.0000E+00  0.0000
   1.2082E+02   1.2376E+02   0.0000E+00  0.0000
   1.2376E+02   1.2677E+02   0.0000E+00  0.0000
   1.2677E+02   1.2985E+02   0.0000E+00  0.0000
   1.2985E+02   1.3301E+02   0.0000E+00  0.0000
   1.3301E+02   1.3625E+02   0.0000E+00  0.0000
   1.3625E+02   1.3956E+02   0.0000E+00  0.0000
   1.3956E+02   1.4296E+02   0.0000E+00  0.0000
   1.4296E+02   1.4644E+02   0.0000E+00  0.0000
   1.4644E+02   1.5000E+02   0.0000E+00  0.0000

#   sum over                 3.8266E-05
'no. =    1   reg = 112 - 212'
msuc: {\huge [t-cross] in region mesh}
msdr: {\it plotted by \ANGEL \version}
msdl: {\it calculated by \PHITS  3.26}
wt: s(0.7)
\vspace{-3}
  region surface crossing
  area  &=&   1.0000E+00 [cm^2]
e:
 
# Information for Restart Calculation
# This calculation was newly started
# istdev =  2 # 1:Batch variance, 2:History variance
# resc2  = 1.00000000000000000E+09 # Total source weight or Total source weight / maxcas
# resc3  = 1.00000000000000000E+09 # Total history number or Total batch number
# maxcas =   500000000 # History / Batch, only used for istdev=1
# bitrseed = 0001001110011001001001110000100100110111001111011100001000101100 # bit data of rseed
