[ T-Cross ]
    title = [t-cross] in region mesh
     mesh =  reg            # mesh type is region-wise
      reg =    1            # number of crossing regions
      non     r-from    r-to       area
      1       100       200        1.000000    
   e-type =    3            # e-mesh is log given by emin, emax and ne
     emin =  1.0000000E-02  # minimum value of e-mesh points
     emax =   150.0000      # maximum value of e-mesh points
#    edel =  2.4039514E-02  # mesh width of e-mesh points
       ne =    400          # number of e-mesh points
#    data = ( e(i), i = 1, ne + 1 )
#           1.00000E-02  1.02433E-02  1.04925E-02  1.07478E-02  1.10093E-02
#           1.12772E-02  1.15516E-02  1.18326E-02  1.21205E-02  1.24154E-02
#           1.27175E-02  1.30269E-02  1.33439E-02  1.36686E-02  1.40011E-02
#           1.43418E-02  1.46907E-02  1.50482E-02  1.54143E-02  1.57894E-02
#           1.61735E-02  1.65670E-02  1.69701E-02  1.73830E-02  1.78060E-02
#           1.82392E-02  1.86830E-02  1.91375E-02  1.96032E-02  2.00801E-02
#           2.05687E-02  2.10692E-02  2.15818E-02  2.21069E-02  2.26448E-02
#           2.31957E-02  2.37601E-02  2.43382E-02  2.49304E-02  2.55369E-02
#           2.61583E-02  2.67947E-02  2.74467E-02  2.81145E-02  2.87985E-02
#           2.94992E-02  3.02169E-02  3.09521E-02  3.17052E-02  3.24766E-02
#           3.32668E-02  3.40762E-02  3.49053E-02  3.57546E-02  3.66246E-02
#           3.75157E-02  3.84284E-02  3.93634E-02  4.03212E-02  4.13022E-02
#           4.23071E-02  4.33365E-02  4.43909E-02  4.54710E-02  4.65773E-02
#           4.77106E-02  4.88714E-02  5.00605E-02  5.12785E-02  5.25262E-02
#           5.38042E-02  5.51133E-02  5.64542E-02  5.78278E-02  5.92348E-02
#           6.06760E-02  6.21523E-02  6.36645E-02  6.52135E-02  6.68002E-02
#           6.84255E-02  7.00904E-02  7.17957E-02  7.35426E-02  7.53319E-02
#           7.71648E-02  7.90423E-02  8.09655E-02  8.29354E-02  8.49533E-02
#           8.70203E-02  8.91376E-02  9.13064E-02  9.35279E-02  9.58035E-02
#           9.81345E-02  1.00522E-01  1.02968E-01  1.05473E-01  1.08040E-01
#           1.10668E-01  1.13361E-01  1.16119E-01  1.18944E-01  1.21838E-01
#           1.24803E-01  1.27839E-01  1.30950E-01  1.34136E-01  1.37399E-01
#           1.40742E-01  1.44167E-01  1.47675E-01  1.51268E-01  1.54948E-01
#           1.58718E-01  1.62580E-01  1.66535E-01  1.70587E-01  1.74738E-01
#           1.78989E-01  1.83344E-01  1.87805E-01  1.92375E-01  1.97055E-01
#           2.01850E-01  2.06761E-01  2.11792E-01  2.16945E-01  2.22223E-01
#           2.27630E-01  2.33169E-01  2.38842E-01  2.44653E-01  2.50605E-01
#           2.56703E-01  2.62949E-01  2.69346E-01  2.75900E-01  2.82613E-01
#           2.89489E-01  2.96532E-01  3.03747E-01  3.11138E-01  3.18708E-01
#           3.26462E-01  3.34405E-01  3.42542E-01  3.50876E-01  3.59413E-01
#           3.68158E-01  3.77116E-01  3.86291E-01  3.95690E-01  4.05317E-01
#           4.15179E-01  4.25281E-01  4.35628E-01  4.46227E-01  4.57084E-01
#           4.68205E-01  4.79597E-01  4.91266E-01  5.03219E-01  5.15463E-01
#           5.28005E-01  5.40851E-01  5.54011E-01  5.67490E-01  5.81298E-01
#           5.95441E-01  6.09929E-01  6.24769E-01  6.39970E-01  6.55541E-01
#           6.71491E-01  6.87828E-01  7.04564E-01  7.21706E-01  7.39266E-01
#           7.57253E-01  7.75678E-01  7.94551E-01  8.13883E-01  8.33685E-01
#           8.53969E-01  8.74747E-01  8.96030E-01  9.17831E-01  9.40163E-01
#           9.63038E-01  9.86469E-01  1.01047E+00  1.03506E+00  1.06024E+00
#           1.08604E+00  1.11246E+00  1.13953E+00  1.16725E+00  1.19565E+00
#           1.22474E+00  1.25454E+00  1.28507E+00  1.31633E+00  1.34836E+00
#           1.38117E+00  1.41477E+00  1.44920E+00  1.48446E+00  1.52057E+00
#           1.55757E+00  1.59547E+00  1.63429E+00  1.67405E+00  1.71478E+00
#           1.75650E+00  1.79924E+00  1.84302E+00  1.88786E+00  1.93379E+00
#           1.98084E+00  2.02904E+00  2.07841E+00  2.12898E+00  2.18078E+00
#           2.23384E+00  2.28819E+00  2.34386E+00  2.40089E+00  2.45930E+00
#           2.51914E+00  2.58043E+00  2.64322E+00  2.70753E+00  2.77341E+00
#           2.84088E+00  2.91001E+00  2.98081E+00  3.05333E+00  3.12762E+00
#           3.20372E+00  3.28167E+00  3.36152E+00  3.44330E+00  3.52708E+00
#           3.61290E+00  3.70080E+00  3.79085E+00  3.88308E+00  3.97756E+00
#           4.07434E+00  4.17347E+00  4.27501E+00  4.37903E+00  4.48557E+00
#           4.59471E+00  4.70650E+00  4.82102E+00  4.93832E+00  5.05847E+00
#           5.18155E+00  5.30762E+00  5.43676E+00  5.56904E+00  5.70453E+00
#           5.84333E+00  5.98550E+00  6.13114E+00  6.28031E+00  6.43312E+00
#           6.58964E+00  6.74997E+00  6.91420E+00  7.08243E+00  7.25475E+00
#           7.43126E+00  7.61207E+00  7.79728E+00  7.98700E+00  8.18133E+00
#           8.38038E+00  8.58428E+00  8.79315E+00  9.00709E+00  9.22624E+00
#           9.45072E+00  9.68067E+00  9.91620E+00  1.01575E+01  1.04046E+01
#           1.06578E+01  1.09171E+01  1.11827E+01  1.14548E+01  1.17335E+01
#           1.20190E+01  1.23114E+01  1.26109E+01  1.29178E+01  1.32321E+01
#           1.35540E+01  1.38838E+01  1.42216E+01  1.45676E+01  1.49221E+01
#           1.52851E+01  1.56570E+01  1.60380E+01  1.64282E+01  1.68279E+01
#           1.72374E+01  1.76568E+01  1.80864E+01  1.85264E+01  1.89772E+01
#           1.94389E+01  1.99119E+01  2.03963E+01  2.08926E+01  2.14009E+01
#           2.19216E+01  2.24550E+01  2.30014E+01  2.35610E+01  2.41343E+01
#           2.47215E+01  2.53230E+01  2.59391E+01  2.65702E+01  2.72167E+01
#           2.78789E+01  2.85572E+01  2.92520E+01  2.99637E+01  3.06928E+01
#           3.14396E+01  3.22045E+01  3.29881E+01  3.37907E+01  3.46128E+01
#           3.54550E+01  3.63177E+01  3.72013E+01  3.81064E+01  3.90336E+01
#           3.99833E+01  4.09561E+01  4.19526E+01  4.29734E+01  4.40189E+01
#           4.50900E+01  4.61870E+01  4.73108E+01  4.84619E+01  4.96410E+01
#           5.08488E+01  5.20860E+01  5.33533E+01  5.46514E+01  5.59812E+01
#           5.73432E+01  5.87384E+01  6.01676E+01  6.16315E+01  6.31311E+01
#           6.46671E+01  6.62405E+01  6.78522E+01  6.95031E+01  7.11941E+01
#           7.29263E+01  7.47007E+01  7.65182E+01  7.83800E+01  8.02870E+01
#           8.22405E+01  8.42414E+01  8.62911E+01  8.83906E+01  9.05412E+01
#           9.27442E+01  9.50007E+01  9.73122E+01  9.96799E+01  1.02105E+02
#           1.04589E+02  1.07134E+02  1.09741E+02  1.12411E+02  1.15146E+02
#           1.17948E+02  1.20817E+02  1.23757E+02  1.26768E+02  1.29852E+02
#           1.33012E+02  1.36248E+02  1.39563E+02  1.42959E+02  1.46437E+02
#           1.50000E+02
     unit =    2            # unit is [1/cm^2/(MeV/n)/source]
     axis =  eng            # axis of output
     file = detector-01.out  # file name of output for the above axis
   output = f-curr          # surface crossing forward current spectrum
     part =  neutron  
# kf/name :  2112     
#    used :        main (  %)        temp (  %)       total (  %)
#  memory :         414 (  0)           0 (  0)         414 (  0)

#------------------------------------------------------------------------------
#newpage:
#   no. =    1   reg = 100 - 200

x: Energy [MeV/n]
y:  F-Curr [1/cm^2/(MeV/n)/source]         
p: xlog ylog afac(0.8) form(0.9)
h: n            x            y(neutron ),hh0l   n 
#  e-lower      e-upper      neutron     r.err 
   1.0000E-02   1.0243E-02   1.2494E-04  0.0811
   1.0243E-02   1.0493E-02   1.4685E-04  0.0739
   1.0493E-02   1.0748E-02   1.5120E-04  0.0720
   1.0748E-02   1.1009E-02   1.3767E-04  0.0745
   1.1009E-02   1.1277E-02   1.6277E-04  0.0677
   1.1277E-02   1.1552E-02   1.2610E-04  0.0760
   1.1552E-02   1.1833E-02   1.3876E-04  0.0716
   1.1833E-02   1.2121E-02   1.4866E-04  0.0684
   1.2121E-02   1.2415E-02   1.6277E-04  0.0645
   1.2415E-02   1.2718E-02   1.4433E-04  0.0677
   1.2718E-02   1.3027E-02   1.4026E-04  0.0679
   1.3027E-02   1.3344E-02   1.4702E-04  0.0655
   1.3344E-02   1.3669E-02   1.4723E-04  0.0647
   1.3669E-02   1.4001E-02   1.6478E-04  0.0604
   1.4001E-02   1.4342E-02   1.5734E-04  0.0611
   1.4342E-02   1.4691E-02   1.5934E-04  0.0600
   1.4691E-02   1.5048E-02   1.4884E-04  0.0613
   1.5048E-02   1.5414E-02   1.7316E-04  0.0562
   1.5414E-02   1.5789E-02   1.6851E-04  0.0563
   1.5789E-02   1.6174E-02   1.7701E-04  0.0542
   1.6174E-02   1.6567E-02   1.4434E-04  0.0593
   1.6567E-02   1.6970E-02   1.6572E-04  0.0547
   1.6970E-02   1.7383E-02   1.7244E-04  0.0530
   1.7383E-02   1.7806E-02   1.6409E-04  0.0537
   1.7806E-02   1.8239E-02   1.6388E-04  0.0531
   1.8239E-02   1.8683E-02   1.5864E-04  0.0533
   1.8683E-02   1.9138E-02   1.7115E-04  0.0507
   1.9138E-02   1.9603E-02   1.5978E-04  0.0518
   1.9603E-02   2.0080E-02   1.7612E-04  0.0488
   2.0080E-02   2.0569E-02   1.8135E-04  0.0475
   2.0569E-02   2.1069E-02   1.9303E-04  0.0455
   2.1069E-02   2.1582E-02   1.8220E-04  0.0463
   2.1582E-02   2.2107E-02   1.6873E-04  0.0475
   2.2107E-02   2.2645E-02   1.7476E-04  0.0461
   2.2645E-02   2.3196E-02   1.8150E-04  0.0447
   2.3196E-02   2.3760E-02   1.7010E-04  0.0456
   2.3760E-02   2.4338E-02   1.8059E-04  0.0438
   2.4338E-02   2.4930E-02   1.8407E-04  0.0428
   2.4930E-02   2.5537E-02   1.9486E-04  0.0411
   2.5537E-02   2.6158E-02   1.9506E-04  0.0406
   2.6158E-02   2.6795E-02   1.8697E-04  0.0410
   2.6795E-02   2.7447E-02   1.7977E-04  0.0413
   2.7447E-02   2.8114E-02   1.8748E-04  0.0400
   2.8114E-02   2.8799E-02   2.0847E-04  0.0375
   2.8799E-02   2.9499E-02   1.9352E-04  0.0384
   2.9499E-02   3.0217E-02   1.8558E-04  0.0387
   3.0217E-02   3.0952E-02   2.0294E-04  0.0366
   3.0952E-02   3.1705E-02   1.8245E-04  0.0382
   3.1705E-02   3.2477E-02   1.9704E-04  0.0363
   3.2477E-02   3.3267E-02   2.0603E-04  0.0350
   3.3267E-02   3.4076E-02   2.0657E-04  0.0346
   3.4076E-02   3.4905E-02   1.9081E-04  0.0356
   3.4905E-02   3.5755E-02   2.0182E-04  0.0342
   3.5755E-02   3.6625E-02   2.0162E-04  0.0338
   3.6625E-02   3.7516E-02   2.0087E-04  0.0334
   3.7516E-02   3.8428E-02   2.0750E-04  0.0325
   3.8428E-02   3.9363E-02   2.1262E-04  0.0317
   3.9363E-02   4.0321E-02   2.1801E-04  0.0309
   4.0321E-02   4.1302E-02   2.0325E-04  0.0317
   4.1302E-02   4.2307E-02   1.9703E-04  0.0318
   4.2307E-02   4.3337E-02   2.2188E-04  0.0296
   4.3337E-02   4.4391E-02   2.1908E-04  0.0294
   4.4391E-02   4.5471E-02   2.2221E-04  0.0289
   4.5471E-02   4.6577E-02   2.1115E-04  0.0293
   4.6577E-02   4.7711E-02   2.1707E-04  0.0285
   4.7711E-02   4.8871E-02   2.1881E-04  0.0281
   4.8871E-02   5.0061E-02   2.1664E-04  0.0279
   5.0061E-02   5.1279E-02   2.2504E-04  0.0270
   5.1279E-02   5.2526E-02   2.2747E-04  0.0265
   5.2526E-02   5.3804E-02   2.2629E-04  0.0263
   5.3804E-02   5.5113E-02   2.3573E-04  0.0255
   5.5113E-02   5.6454E-02   2.2685E-04  0.0256
   5.6454E-02   5.7828E-02   2.3166E-04  0.0251
   5.7828E-02   5.9235E-02   2.3156E-04  0.0248
   5.9235E-02   6.0676E-02   2.3896E-04  0.0241
   6.0676E-02   6.2152E-02   2.4060E-04  0.0237
   6.2152E-02   6.3665E-02   2.2722E-04  0.0241
   6.3665E-02   6.5214E-02   2.4506E-04  0.0230
   6.5214E-02   6.6800E-02   2.3344E-04  0.0232
   6.6800E-02   6.8426E-02   2.3405E-04  0.0229
   6.8426E-02   7.0090E-02   2.4278E-04  0.0222
   7.0090E-02   7.1796E-02   2.3936E-04  0.0221
   7.1796E-02   7.3543E-02   2.4799E-04  0.0215
   7.3543E-02   7.5332E-02   2.5227E-04  0.0210
   7.5332E-02   7.7165E-02   2.3984E-04  0.0213
   7.7165E-02   7.9042E-02   2.5097E-04  0.0206
   7.9042E-02   8.0965E-02   2.5988E-04  0.0200
   8.0965E-02   8.2935E-02   2.5574E-04  0.0199
   8.2935E-02   8.4953E-02   2.4788E-04  0.0200
   8.4953E-02   8.7020E-02   2.4819E-04  0.0197
   8.7020E-02   8.9138E-02   2.5032E-04  0.0194
   8.9138E-02   9.1306E-02   2.6319E-04  0.0187
   9.1306E-02   9.3528E-02   2.6342E-04  0.0185
   9.3528E-02   9.5804E-02   2.6103E-04  0.0183
   9.5804E-02   9.8134E-02   2.5294E-04  0.0184
   9.8134E-02   1.0052E-01   2.6369E-04  0.0178
   1.0052E-01   1.0297E-01   2.6298E-04  0.0176
   1.0297E-01   1.0547E-01   2.6105E-04  0.0175
   1.0547E-01   1.0804E-01   2.6833E-04  0.0170
   1.0804E-01   1.1067E-01   2.6097E-04  0.0171
   1.1067E-01   1.1336E-01   2.6754E-04  0.0167
   1.1336E-01   1.1612E-01   2.6467E-04  0.0166
   1.1612E-01   1.1894E-01   2.7105E-04  0.0162
   1.1894E-01   1.2184E-01   2.6247E-04  0.0162
   1.2184E-01   1.2480E-01   2.7641E-04  0.0156
   1.2480E-01   1.2784E-01   2.7143E-04  0.0156
   1.2784E-01   1.3095E-01   2.6980E-04  0.0154
   1.3095E-01   1.3414E-01   2.7250E-04  0.0152
   1.3414E-01   1.3740E-01   2.7687E-04  0.0149
   1.3740E-01   1.4074E-01   2.6748E-04  0.0150
   1.4074E-01   1.4417E-01   2.7147E-04  0.0147
   1.4417E-01   1.4767E-01   2.7488E-04  0.0144
   1.4767E-01   1.5127E-01   2.7297E-04  0.0143
   1.5127E-01   1.5495E-01   2.7024E-04  0.0142
   1.5495E-01   1.5872E-01   2.7448E-04  0.0139
   1.5872E-01   1.6258E-01   2.7195E-04  0.0138
   1.6258E-01   1.6654E-01   2.7257E-04  0.0136
   1.6654E-01   1.7059E-01   2.7597E-04  0.0134
   1.7059E-01   1.7474E-01   2.7062E-04  0.0133
   1.7474E-01   1.7899E-01   2.7181E-04  0.0132
   1.7899E-01   1.8334E-01   2.7518E-04  0.0129
   1.8334E-01   1.8781E-01   2.7335E-04  0.0128
   1.8781E-01   1.9237E-01   2.7356E-04  0.0126
   1.9237E-01   1.9706E-01   2.6830E-04  0.0126
   1.9706E-01   2.0185E-01   2.7702E-04  0.0123
   2.0185E-01   2.0676E-01   2.7798E-04  0.0121
   2.0676E-01   2.1179E-01   2.7277E-04  0.0121
   2.1179E-01   2.1694E-01   2.7364E-04  0.0119
   2.1694E-01   2.2222E-01   2.7590E-04  0.0117
   2.2222E-01   2.2763E-01   2.7778E-04  0.0115
   2.2763E-01   2.3317E-01   2.8113E-04  0.0113
   2.3317E-01   2.3884E-01   2.7212E-04  0.0114
   2.3884E-01   2.4465E-01   2.6624E-04  0.0114
   2.4465E-01   2.5061E-01   2.6321E-04  0.0113
   2.5061E-01   2.5670E-01   2.6703E-04  0.0111
   2.5670E-01   2.6295E-01   2.7346E-04  0.0108
   2.6295E-01   2.6935E-01   2.7075E-04  0.0107
   2.6935E-01   2.7590E-01   2.6084E-04  0.0108
   2.7590E-01   2.8261E-01   2.6558E-04  0.0106
   2.8261E-01   2.8949E-01   2.6279E-04  0.0105
   2.8949E-01   2.9653E-01   2.6566E-04  0.0103
   2.9653E-01   3.0375E-01   2.6348E-04  0.0103
   3.0375E-01   3.1114E-01   2.5511E-04  0.0103
   3.1114E-01   3.1871E-01   2.5806E-04  0.0101
   3.1871E-01   3.2646E-01   2.5382E-04  0.0101
   3.2646E-01   3.3441E-01   2.4988E-04  0.0100
   3.3441E-01   3.4254E-01   2.5155E-04  0.0099
   3.4254E-01   3.5088E-01   2.5053E-04  0.0098
   3.5088E-01   3.5941E-01   2.4997E-04  0.0097
   3.5941E-01   3.6816E-01   2.4787E-04  0.0096
   3.6816E-01   3.7712E-01   2.4507E-04  0.0095
   3.7712E-01   3.8629E-01   2.4247E-04  0.0095
   3.8629E-01   3.9569E-01   2.4027E-04  0.0094
   3.9569E-01   4.0532E-01   2.3597E-04  0.0094
   4.0532E-01   4.1518E-01   2.3166E-04  0.0094
   4.1518E-01   4.2528E-01   2.2953E-04  0.0093
   4.2528E-01   4.3563E-01   2.2972E-04  0.0092
   4.3563E-01   4.4623E-01   2.2641E-04  0.0091
   4.4623E-01   4.5708E-01   2.2330E-04  0.0091
   4.5708E-01   4.6821E-01   2.2080E-04  0.0090
   4.6821E-01   4.7960E-01   2.1921E-04  0.0089
   4.7960E-01   4.9127E-01   2.1133E-04  0.0090
   4.9127E-01   5.0322E-01   2.1282E-04  0.0089
   5.0322E-01   5.1546E-01   2.0927E-04  0.0088
   5.1546E-01   5.2800E-01   2.0651E-04  0.0088
   5.2800E-01   5.4085E-01   2.0263E-04  0.0088
   5.4085E-01   5.5401E-01   1.9484E-04  0.0088
   5.5401E-01   5.6749E-01   1.9324E-04  0.0088
   5.6749E-01   5.8130E-01   1.9124E-04  0.0087
   5.8130E-01   5.9544E-01   1.8812E-04  0.0087
   5.9544E-01   6.0993E-01   1.8554E-04  0.0086
   6.0993E-01   6.2477E-01   1.8036E-04  0.0086
   6.2477E-01   6.3997E-01   1.7192E-04  0.0087
   6.3997E-01   6.5554E-01   1.7224E-04  0.0086
   6.5554E-01   6.7149E-01   1.6709E-04  0.0087
   6.7149E-01   6.8783E-01   1.6200E-04  0.0087
   6.8783E-01   7.0456E-01   1.5511E-04  0.0088
   7.0456E-01   7.2171E-01   1.5329E-04  0.0087
   7.2171E-01   7.3927E-01   1.5103E-04  0.0087
   7.3927E-01   7.5725E-01   1.4482E-04  0.0088
   7.5725E-01   7.7568E-01   1.4053E-04  0.0088
   7.7568E-01   7.9455E-01   1.3344E-04  0.0089
   7.9455E-01   8.1388E-01   1.3176E-04  0.0089
   8.1388E-01   8.3368E-01   1.2645E-04  0.0089
   8.3368E-01   8.5397E-01   1.2137E-04  0.0090
   8.5397E-01   8.7475E-01   1.1500E-04  0.0091
   8.7475E-01   8.9603E-01   1.1110E-04  0.0092
   8.9603E-01   9.1783E-01   1.0855E-04  0.0092
   9.1783E-01   9.4016E-01   1.0080E-04  0.0094
   9.4016E-01   9.6304E-01   9.7622E-05  0.0095
   9.6304E-01   9.8647E-01   9.2022E-05  0.0096
   9.8647E-01   1.0105E+00   8.8436E-05  0.0097
   1.0105E+00   1.0351E+00   8.6709E-05  0.0097
   1.0351E+00   1.0602E+00   8.6564E-05  0.0096
   1.0602E+00   1.0860E+00   8.7989E-05  0.0094
   1.0860E+00   1.1125E+00   8.6126E-05  0.0094
   1.1125E+00   1.1395E+00   8.9267E-05  0.0091
   1.1395E+00   1.1673E+00   8.9628E-05  0.0090
   1.1673E+00   1.1957E+00   9.2168E-05  0.0087
   1.1957E+00   1.2247E+00   9.1904E-05  0.0086
   1.2247E+00   1.2545E+00   9.0520E-05  0.0086
   1.2545E+00   1.2851E+00   8.9176E-05  0.0086
   1.2851E+00   1.3163E+00   8.9866E-05  0.0084
   1.3163E+00   1.3484E+00   9.0341E-05  0.0083
   1.3484E+00   1.3812E+00   8.8336E-05  0.0083
   1.3812E+00   1.4148E+00   8.9243E-05  0.0082
   1.4148E+00   1.4492E+00   8.7733E-05  0.0081
   1.4492E+00   1.4845E+00   8.6648E-05  0.0081
   1.4845E+00   1.5206E+00   8.4855E-05  0.0081
   1.5206E+00   1.5576E+00   8.3915E-05  0.0080
   1.5576E+00   1.5955E+00   8.2830E-05  0.0080
   1.5955E+00   1.6343E+00   8.1092E-05  0.0080
   1.6343E+00   1.6741E+00   8.1414E-05  0.0079
   1.6741E+00   1.7148E+00   8.0848E-05  0.0078
   1.7148E+00   1.7565E+00   7.9613E-05  0.0078
   1.7565E+00   1.7992E+00   7.8012E-05  0.0077
   1.7992E+00   1.8430E+00   7.4829E-05  0.0078
   1.8430E+00   1.8879E+00   7.3525E-05  0.0078
   1.8879E+00   1.9338E+00   7.1868E-05  0.0078
   1.9338E+00   1.9808E+00   6.9963E-05  0.0078
   1.9808E+00   2.0290E+00   6.8894E-05  0.0078
   2.0290E+00   2.0784E+00   6.5261E-05  0.0079
   2.0784E+00   2.1290E+00   6.4747E-05  0.0078
   2.1290E+00   2.1808E+00   6.2819E-05  0.0078
   2.1808E+00   2.2338E+00   5.9974E-05  0.0079
   2.2338E+00   2.2882E+00   5.8475E-05  0.0079
   2.2882E+00   2.3439E+00   5.6397E-05  0.0080
   2.3439E+00   2.4009E+00   5.4552E-05  0.0080
   2.4009E+00   2.4593E+00   5.3715E-05  0.0080
   2.4593E+00   2.5191E+00   5.1430E-05  0.0081
   2.5191E+00   2.5804E+00   4.8773E-05  0.0082
   2.5804E+00   2.6432E+00   4.7302E-05  0.0082
   2.6432E+00   2.7075E+00   4.4925E-05  0.0083
   2.7075E+00   2.7734E+00   4.2923E-05  0.0084
   2.7734E+00   2.8409E+00   4.0641E-05  0.0085
   2.8409E+00   2.9100E+00   3.9542E-05  0.0086
   2.9100E+00   2.9808E+00   3.8222E-05  0.0086
   2.9808E+00   3.0533E+00   3.6801E-05  0.0087
   3.0533E+00   3.1276E+00   3.4462E-05  0.0088
   3.1276E+00   3.2037E+00   3.2737E-05  0.0090
   3.2037E+00   3.2817E+00   3.1187E-05  0.0091
   3.2817E+00   3.3615E+00   2.9324E-05  0.0092
   3.3615E+00   3.4433E+00   2.8110E-05  0.0093
   3.4433E+00   3.5271E+00   2.6993E-05  0.0094
   3.5271E+00   3.6129E+00   2.5394E-05  0.0096
   3.6129E+00   3.7008E+00   2.4085E-05  0.0097
   3.7008E+00   3.7908E+00   2.2531E-05  0.0099
   3.7908E+00   3.8831E+00   2.1454E-05  0.0101
   3.8831E+00   3.9776E+00   2.0218E-05  0.0102
   3.9776E+00   4.0743E+00   1.9383E-05  0.0103
   4.0743E+00   4.1735E+00   1.8392E-05  0.0105
   4.1735E+00   4.2750E+00   1.7342E-05  0.0107
   4.2750E+00   4.3790E+00   1.6578E-05  0.0108
   4.3790E+00   4.4856E+00   1.5336E-05  0.0111
   4.4856E+00   4.5947E+00   1.4393E-05  0.0113
   4.5947E+00   4.7065E+00   1.3588E-05  0.0115
   4.7065E+00   4.8210E+00   1.2814E-05  0.0117
   4.8210E+00   4.9383E+00   1.2617E-05  0.0116
   4.9383E+00   5.0585E+00   1.1905E-05  0.0118
   5.0585E+00   5.1815E+00   1.1378E-05  0.0120
   5.1815E+00   5.3076E+00   1.0772E-05  0.0121
   5.3076E+00   5.4368E+00   1.0116E-05  0.0124
   5.4368E+00   5.5690E+00   9.6855E-06  0.0125
   5.5690E+00   5.7045E+00   9.4407E-06  0.0125
   5.7045E+00   5.8433E+00   8.9657E-06  0.0127
   5.8433E+00   5.9855E+00   8.7654E-06  0.0127
   5.9855E+00   6.1311E+00   8.2702E-06  0.0129
   6.1311E+00   6.2803E+00   8.1689E-06  0.0128
   6.2803E+00   6.4331E+00   7.8335E-06  0.0129
   6.4331E+00   6.5896E+00   7.5107E-06  0.0130
   6.5896E+00   6.7500E+00   7.4184E-06  0.0130
   6.7500E+00   6.9142E+00   7.2398E-06  0.0130
   6.9142E+00   7.0824E+00   7.0832E-06  0.0130
   7.0824E+00   7.2548E+00   6.9301E-06  0.0129
   7.2548E+00   7.4313E+00   6.6624E-06  0.0130
   7.4313E+00   7.6121E+00   6.5699E-06  0.0130
   7.6121E+00   7.7973E+00   6.5186E-06  0.0129
   7.7973E+00   7.9870E+00   6.5167E-06  0.0127
   7.9870E+00   8.1813E+00   6.3464E-06  0.0127
   8.1813E+00   8.3804E+00   6.2575E-06  0.0127
   8.3804E+00   8.5843E+00   6.2128E-06  0.0126
   8.5843E+00   8.7931E+00   6.0293E-06  0.0126
   8.7931E+00   9.0071E+00   6.2974E-06  0.0122
   9.0071E+00   9.2262E+00   6.2158E-06  0.0121
   9.2262E+00   9.4507E+00   6.2892E-06  0.0119
   9.4507E+00   9.6807E+00   6.1798E-06  0.0119
   9.6807E+00   9.9162E+00   6.1621E-06  0.0117
   9.9162E+00   1.0157E+01   6.2105E-06  0.0116
   1.0157E+01   1.0405E+01   6.1140E-06  0.0115
   1.0405E+01   1.0658E+01   6.2847E-06  0.0112
   1.0658E+01   1.0917E+01   6.3379E-06  0.0110
   1.0917E+01   1.1183E+01   6.2649E-06  0.0110
   1.1183E+01   1.1455E+01   6.4774E-06  0.0107
   1.1455E+01   1.1733E+01   6.3942E-06  0.0106
   1.1733E+01   1.2019E+01   6.5117E-06  0.0104
   1.2019E+01   1.2311E+01   6.5824E-06  0.0102
   1.2311E+01   1.2611E+01   6.6430E-06  0.0100
   1.2611E+01   1.2918E+01   6.7616E-06  0.0098
   1.2918E+01   1.3232E+01   6.7961E-06  0.0097
   1.3232E+01   1.3554E+01   7.0080E-06  0.0094
   1.3554E+01   1.3884E+01   7.0462E-06  0.0093
   1.3884E+01   1.4222E+01   7.3779E-06  0.0090
   1.4222E+01   1.4568E+01   7.3790E-06  0.0089
   1.4568E+01   1.4922E+01   7.6362E-06  0.0086
   1.4922E+01   1.5285E+01   7.8157E-06  0.0084
   1.5285E+01   1.5657E+01   7.8605E-06  0.0083
   1.5657E+01   1.6038E+01   8.1948E-06  0.0080
   1.6038E+01   1.6428E+01   8.4784E-06  0.0078
   1.6428E+01   1.6828E+01   8.6452E-06  0.0076
   1.6828E+01   1.7237E+01   9.0637E-06  0.0073
   1.7237E+01   1.7657E+01   9.3052E-06  0.0072
   1.7657E+01   1.8086E+01   9.8288E-06  0.0069
   1.8086E+01   1.8526E+01   1.0257E-05  0.0067
   1.8526E+01   1.8977E+01   1.0659E-05  0.0065
   1.8977E+01   1.9439E+01   1.1220E-05  0.0062
   1.9439E+01   1.9912E+01   1.1699E-05  0.0060
   1.9912E+01   2.0396E+01   1.3129E-05  0.0056
   2.0396E+01   2.0893E+01   1.3965E-05  0.0054
   2.0893E+01   2.1401E+01   1.4712E-05  0.0052
   2.1401E+01   2.1922E+01   1.5586E-05  0.0050
   2.1922E+01   2.2455E+01   1.6527E-05  0.0048
   2.2455E+01   2.3001E+01   1.7551E-05  0.0046
   2.3001E+01   2.3561E+01   1.8434E-05  0.0044
   2.3561E+01   2.4134E+01   1.9535E-05  0.0042
   2.4134E+01   2.4721E+01   2.0683E-05  0.0041
   2.4721E+01   2.5323E+01   2.1895E-05  0.0039
   2.5323E+01   2.5939E+01   2.3169E-05  0.0037
   2.5939E+01   2.6570E+01   2.4139E-05  0.0036
   2.6570E+01   2.7217E+01   2.5211E-05  0.0035
   2.7217E+01   2.7879E+01   2.6315E-05  0.0034
   2.7879E+01   2.8557E+01   2.7151E-05  0.0033
   2.8557E+01   2.9252E+01   2.8234E-05  0.0032
   2.9252E+01   2.9964E+01   2.8780E-05  0.0031
   2.9964E+01   3.0693E+01   2.9495E-05  0.0030
   3.0693E+01   3.1440E+01   3.0000E-05  0.0030
   3.1440E+01   3.2205E+01   3.0196E-05  0.0029
   3.2205E+01   3.2988E+01   3.0250E-05  0.0029
   3.2988E+01   3.3791E+01   3.0133E-05  0.0029
   3.3791E+01   3.4613E+01   2.9835E-05  0.0029
   3.4613E+01   3.5455E+01   2.9188E-05  0.0029
   3.5455E+01   3.6318E+01   2.8213E-05  0.0029
   3.6318E+01   3.7201E+01   2.7242E-05  0.0029
   3.7201E+01   3.8106E+01   2.5957E-05  0.0029
   3.8106E+01   3.9034E+01   2.4618E-05  0.0030
   3.9034E+01   3.9983E+01   2.2926E-05  0.0030
   3.9983E+01   4.0956E+01   2.1410E-05  0.0031
   4.0956E+01   4.1953E+01   1.9782E-05  0.0032
   4.1953E+01   4.2973E+01   1.8093E-05  0.0033
   4.2973E+01   4.4019E+01   1.6361E-05  0.0034
   4.4019E+01   4.5090E+01   1.4805E-05  0.0036
   4.5090E+01   4.6187E+01   1.3293E-05  0.0037
   4.6187E+01   4.7311E+01   1.1851E-05  0.0039
   4.7311E+01   4.8462E+01   1.0628E-05  0.0040
   4.8462E+01   4.9641E+01   9.4065E-06  0.0042
   4.9641E+01   5.0849E+01   8.3903E-06  0.0044
   5.0849E+01   5.2086E+01   7.4467E-06  0.0047
   5.2086E+01   5.3353E+01   6.5396E-06  0.0049
   5.3353E+01   5.4651E+01   5.7571E-06  0.0052
   5.4651E+01   5.5981E+01   5.1294E-06  0.0054
   5.5981E+01   5.7343E+01   4.5083E-06  0.0057
   5.7343E+01   5.8738E+01   3.9286E-06  0.0060
   5.8738E+01   6.0168E+01   3.4857E-06  0.0063
   6.0168E+01   6.1632E+01   3.0303E-06  0.0067
   6.1632E+01   6.3131E+01   2.6760E-06  0.0071
   6.3131E+01   6.4667E+01   2.2916E-06  0.0075
   6.4667E+01   6.6240E+01   1.9030E-06  0.0082
   6.6240E+01   6.7852E+01   1.5683E-06  0.0089
   6.7852E+01   6.9503E+01   1.2792E-06  0.0097
   6.9503E+01   7.1194E+01   1.0169E-06  0.0108
   7.1194E+01   7.2926E+01   7.9251E-07  0.0121
   7.2926E+01   7.4701E+01   6.0574E-07  0.0136
   7.4701E+01   7.6518E+01   4.6338E-07  0.0154
   7.6518E+01   7.8380E+01   3.0133E-07  0.0189
   7.8380E+01   8.0287E+01   1.8689E-07  0.0237
   8.0287E+01   8.2240E+01   7.8528E-08  0.0361
   8.2240E+01   8.4241E+01   3.6982E-09  0.1644
   8.4241E+01   8.6291E+01   0.0000E+00  0.0000
   8.6291E+01   8.8391E+01   0.0000E+00  0.0000
   8.8391E+01   9.0541E+01   0.0000E+00  0.0000
   9.0541E+01   9.2744E+01   0.0000E+00  0.0000
   9.2744E+01   9.5001E+01   0.0000E+00  0.0000
   9.5001E+01   9.7312E+01   0.0000E+00  0.0000
   9.7312E+01   9.9680E+01   0.0000E+00  0.0000
   9.9680E+01   1.0211E+02   0.0000E+00  0.0000
   1.0211E+02   1.0459E+02   0.0000E+00  0.0000
   1.0459E+02   1.0713E+02   0.0000E+00  0.0000
   1.0713E+02   1.0974E+02   0.0000E+00  0.0000
   1.0974E+02   1.1241E+02   0.0000E+00  0.0000
   1.1241E+02   1.1515E+02   0.0000E+00  0.0000
   1.1515E+02   1.1795E+02   0.0000E+00  0.0000
   1.1795E+02   1.2082E+02   0.0000E+00  0.0000
   1.2082E+02   1.2376E+02   0.0000E+00  0.0000
   1.2376E+02   1.2677E+02   0.0000E+00  0.0000
   1.2677E+02   1.2985E+02   0.0000E+00  0.0000
   1.2985E+02   1.3301E+02   0.0000E+00  0.0000
   1.3301E+02   1.3625E+02   0.0000E+00  0.0000
   1.3625E+02   1.3956E+02   0.0000E+00  0.0000
   1.3956E+02   1.4296E+02   0.0000E+00  0.0000
   1.4296E+02   1.4644E+02   0.0000E+00  0.0000
   1.4644E+02   1.5000E+02   0.0000E+00  0.0000

#   sum over                 8.0798E-06
'no. =    1   reg = 100 - 200'
msuc: {\huge [t-cross] in region mesh}
msdr: {\it plotted by \ANGEL \version}
msdl: {\it calculated by \PHITS  3.26}
wt: s(0.7)
\vspace{-3}
  region surface crossing
  area  &=&   1.0000E+00 [cm^2]
e:
 
# Information for Restart Calculation
# This calculation was newly started
# istdev =  2 # 1:Batch variance, 2:History variance
# resc2  = 5.00000000000000000E+09 # Total source weight or Total source weight / maxcas
# resc3  = 5.00000000000000000E+09 # Total history number or Total batch number
# maxcas =   500000000 # History / Batch, only used for istdev=1
# bitrseed = 0110100000100010111000001110001111001110100100011111101000111001 # bit data of rseed
