[ T-Cross ]
    title = [t-cross] in region mesh
     mesh =  reg            # mesh type is region-wise
      reg =    1            # number of crossing regions
      non     r-from    r-to       area
      1       118       218        1.000000    
   e-type =    3            # e-mesh is log given by emin, emax and ne
     emin =  1.0000000E-02  # minimum value of e-mesh points
     emax =   150.0000      # maximum value of e-mesh points
#    edel =  2.4039514E-02  # mesh width of e-mesh points
       ne =    400          # number of e-mesh points
#    data = ( e(i), i = 1, ne + 1 )
#           1.00000E-02  1.02433E-02  1.04925E-02  1.07478E-02  1.10093E-02
#           1.12772E-02  1.15516E-02  1.18326E-02  1.21205E-02  1.24154E-02
#           1.27175E-02  1.30269E-02  1.33439E-02  1.36686E-02  1.40011E-02
#           1.43418E-02  1.46907E-02  1.50482E-02  1.54143E-02  1.57894E-02
#           1.61735E-02  1.65670E-02  1.69701E-02  1.73830E-02  1.78060E-02
#           1.82392E-02  1.86830E-02  1.91375E-02  1.96032E-02  2.00801E-02
#           2.05687E-02  2.10692E-02  2.15818E-02  2.21069E-02  2.26448E-02
#           2.31957E-02  2.37601E-02  2.43382E-02  2.49304E-02  2.55369E-02
#           2.61583E-02  2.67947E-02  2.74467E-02  2.81145E-02  2.87985E-02
#           2.94992E-02  3.02169E-02  3.09521E-02  3.17052E-02  3.24766E-02
#           3.32668E-02  3.40762E-02  3.49053E-02  3.57546E-02  3.66246E-02
#           3.75157E-02  3.84284E-02  3.93634E-02  4.03212E-02  4.13022E-02
#           4.23071E-02  4.33365E-02  4.43909E-02  4.54710E-02  4.65773E-02
#           4.77106E-02  4.88714E-02  5.00605E-02  5.12785E-02  5.25262E-02
#           5.38042E-02  5.51133E-02  5.64542E-02  5.78278E-02  5.92348E-02
#           6.06760E-02  6.21523E-02  6.36645E-02  6.52135E-02  6.68002E-02
#           6.84255E-02  7.00904E-02  7.17957E-02  7.35426E-02  7.53319E-02
#           7.71648E-02  7.90423E-02  8.09655E-02  8.29354E-02  8.49533E-02
#           8.70203E-02  8.91376E-02  9.13064E-02  9.35279E-02  9.58035E-02
#           9.81345E-02  1.00522E-01  1.02968E-01  1.05473E-01  1.08040E-01
#           1.10668E-01  1.13361E-01  1.16119E-01  1.18944E-01  1.21838E-01
#           1.24803E-01  1.27839E-01  1.30950E-01  1.34136E-01  1.37399E-01
#           1.40742E-01  1.44167E-01  1.47675E-01  1.51268E-01  1.54948E-01
#           1.58718E-01  1.62580E-01  1.66535E-01  1.70587E-01  1.74738E-01
#           1.78989E-01  1.83344E-01  1.87805E-01  1.92375E-01  1.97055E-01
#           2.01850E-01  2.06761E-01  2.11792E-01  2.16945E-01  2.22223E-01
#           2.27630E-01  2.33169E-01  2.38842E-01  2.44653E-01  2.50605E-01
#           2.56703E-01  2.62949E-01  2.69346E-01  2.75900E-01  2.82613E-01
#           2.89489E-01  2.96532E-01  3.03747E-01  3.11138E-01  3.18708E-01
#           3.26462E-01  3.34405E-01  3.42542E-01  3.50876E-01  3.59413E-01
#           3.68158E-01  3.77116E-01  3.86291E-01  3.95690E-01  4.05317E-01
#           4.15179E-01  4.25281E-01  4.35628E-01  4.46227E-01  4.57084E-01
#           4.68205E-01  4.79597E-01  4.91266E-01  5.03219E-01  5.15463E-01
#           5.28005E-01  5.40851E-01  5.54011E-01  5.67490E-01  5.81298E-01
#           5.95441E-01  6.09929E-01  6.24769E-01  6.39970E-01  6.55541E-01
#           6.71491E-01  6.87828E-01  7.04564E-01  7.21706E-01  7.39266E-01
#           7.57253E-01  7.75678E-01  7.94551E-01  8.13883E-01  8.33685E-01
#           8.53969E-01  8.74747E-01  8.96030E-01  9.17831E-01  9.40163E-01
#           9.63038E-01  9.86469E-01  1.01047E+00  1.03506E+00  1.06024E+00
#           1.08604E+00  1.11246E+00  1.13953E+00  1.16725E+00  1.19565E+00
#           1.22474E+00  1.25454E+00  1.28507E+00  1.31633E+00  1.34836E+00
#           1.38117E+00  1.41477E+00  1.44920E+00  1.48446E+00  1.52057E+00
#           1.55757E+00  1.59547E+00  1.63429E+00  1.67405E+00  1.71478E+00
#           1.75650E+00  1.79924E+00  1.84302E+00  1.88786E+00  1.93379E+00
#           1.98084E+00  2.02904E+00  2.07841E+00  2.12898E+00  2.18078E+00
#           2.23384E+00  2.28819E+00  2.34386E+00  2.40089E+00  2.45930E+00
#           2.51914E+00  2.58043E+00  2.64322E+00  2.70753E+00  2.77341E+00
#           2.84088E+00  2.91001E+00  2.98081E+00  3.05333E+00  3.12762E+00
#           3.20372E+00  3.28167E+00  3.36152E+00  3.44330E+00  3.52708E+00
#           3.61290E+00  3.70080E+00  3.79085E+00  3.88308E+00  3.97756E+00
#           4.07434E+00  4.17347E+00  4.27501E+00  4.37903E+00  4.48557E+00
#           4.59471E+00  4.70650E+00  4.82102E+00  4.93832E+00  5.05847E+00
#           5.18155E+00  5.30762E+00  5.43676E+00  5.56904E+00  5.70453E+00
#           5.84333E+00  5.98550E+00  6.13114E+00  6.28031E+00  6.43312E+00
#           6.58964E+00  6.74997E+00  6.91420E+00  7.08243E+00  7.25475E+00
#           7.43126E+00  7.61207E+00  7.79728E+00  7.98700E+00  8.18133E+00
#           8.38038E+00  8.58428E+00  8.79315E+00  9.00709E+00  9.22624E+00
#           9.45072E+00  9.68067E+00  9.91620E+00  1.01575E+01  1.04046E+01
#           1.06578E+01  1.09171E+01  1.11827E+01  1.14548E+01  1.17335E+01
#           1.20190E+01  1.23114E+01  1.26109E+01  1.29178E+01  1.32321E+01
#           1.35540E+01  1.38838E+01  1.42216E+01  1.45676E+01  1.49221E+01
#           1.52851E+01  1.56570E+01  1.60380E+01  1.64282E+01  1.68279E+01
#           1.72374E+01  1.76568E+01  1.80864E+01  1.85264E+01  1.89772E+01
#           1.94389E+01  1.99119E+01  2.03963E+01  2.08926E+01  2.14009E+01
#           2.19216E+01  2.24550E+01  2.30014E+01  2.35610E+01  2.41343E+01
#           2.47215E+01  2.53230E+01  2.59391E+01  2.65702E+01  2.72167E+01
#           2.78789E+01  2.85572E+01  2.92520E+01  2.99637E+01  3.06928E+01
#           3.14396E+01  3.22045E+01  3.29881E+01  3.37907E+01  3.46128E+01
#           3.54550E+01  3.63177E+01  3.72013E+01  3.81064E+01  3.90336E+01
#           3.99833E+01  4.09561E+01  4.19526E+01  4.29734E+01  4.40189E+01
#           4.50900E+01  4.61870E+01  4.73108E+01  4.84619E+01  4.96410E+01
#           5.08488E+01  5.20860E+01  5.33533E+01  5.46514E+01  5.59812E+01
#           5.73432E+01  5.87384E+01  6.01676E+01  6.16315E+01  6.31311E+01
#           6.46671E+01  6.62405E+01  6.78522E+01  6.95031E+01  7.11941E+01
#           7.29263E+01  7.47007E+01  7.65182E+01  7.83800E+01  8.02870E+01
#           8.22405E+01  8.42414E+01  8.62911E+01  8.83906E+01  9.05412E+01
#           9.27442E+01  9.50007E+01  9.73122E+01  9.96799E+01  1.02105E+02
#           1.04589E+02  1.07134E+02  1.09741E+02  1.12411E+02  1.15146E+02
#           1.17948E+02  1.20817E+02  1.23757E+02  1.26768E+02  1.29852E+02
#           1.33012E+02  1.36248E+02  1.39563E+02  1.42959E+02  1.46437E+02
#           1.50000E+02
     unit =    2            # unit is [1/cm^2/(MeV/n)/source]
     axis =  eng            # axis of output
     file = detector-19.out  # file name of output for the above axis
   output = f-curr          # surface crossing forward current spectrum
     part =  neutron  
# kf/name :  2112     
#    used :        main (  %)        temp (  %)       total (  %)
#  memory :         414 (  0)           0 (  0)         414 (  0)

#------------------------------------------------------------------------------
#newpage:
#   no. =    1   reg = 118 - 218

x: Energy [MeV/n]
y:  F-Curr [1/cm^2/(MeV/n)/source]         
p: xlog ylog afac(0.8) form(0.9)
h: n            x            y(neutron ),hh0l   n 
#  e-lower      e-upper      neutron     r.err 
   1.0000E-02   1.0243E-02   5.8487E-03  0.0374
   1.0243E-02   1.0493E-02   5.6429E-03  0.0376
   1.0493E-02   1.0748E-02   5.4829E-03  0.0377
   1.0748E-02   1.1009E-02   5.5142E-03  0.0372
   1.1009E-02   1.1277E-02   5.3934E-03  0.0371
   1.1277E-02   1.1552E-02   5.0752E-03  0.0378
   1.1552E-02   1.1833E-02   5.4629E-03  0.0360
   1.1833E-02   1.2121E-02   5.0964E-03  0.0368
   1.2121E-02   1.2415E-02   4.7475E-03  0.0377
   1.2415E-02   1.2718E-02   5.1691E-03  0.0357
   1.2718E-02   1.3027E-02   4.9022E-03  0.0362
   1.3027E-02   1.3344E-02   4.4819E-03  0.0375
   1.3344E-02   1.3669E-02   4.6059E-03  0.0365
   1.3669E-02   1.4001E-02   4.7693E-03  0.0354
   1.4001E-02   1.4342E-02   4.2489E-03  0.0371
   1.4342E-02   1.4691E-02   4.6349E-03  0.0351
   1.4691E-02   1.5048E-02   4.1520E-03  0.0366
   1.5048E-02   1.5414E-02   4.1943E-03  0.0360
   1.5414E-02   1.5789E-02   4.2074E-03  0.0355
   1.5789E-02   1.6174E-02   3.8138E-03  0.0369
   1.6174E-02   1.6567E-02   3.9831E-03  0.0357
   1.6567E-02   1.6970E-02   3.9127E-03  0.0356
   1.6970E-02   1.7383E-02   3.5686E-03  0.0368
   1.7383E-02   1.7806E-02   3.8045E-03  0.0352
   1.7806E-02   1.8239E-02   3.6307E-03  0.0356
   1.8239E-02   1.8683E-02   3.6784E-03  0.0350
   1.8683E-02   1.9138E-02   3.4612E-03  0.0356
   1.9138E-02   1.9603E-02   3.3111E-03  0.0360
   1.9603E-02   2.0080E-02   3.1677E-03  0.0363
   2.0080E-02   2.0569E-02   3.1624E-03  0.0359
   2.0569E-02   2.1069E-02   3.2955E-03  0.0348
   2.1069E-02   2.1582E-02   2.9424E-03  0.0364
   2.1582E-02   2.2107E-02   3.1187E-03  0.0349
   2.2107E-02   2.2645E-02   3.1246E-03  0.0344
   2.2645E-02   2.3196E-02   2.8470E-03  0.0356
   2.3196E-02   2.3760E-02   2.8828E-03  0.0350
   2.3760E-02   2.4338E-02   2.8647E-03  0.0347
   2.4338E-02   2.4930E-02   2.7480E-03  0.0350
   2.4930E-02   2.5537E-02   2.6714E-03  0.0351
   2.5537E-02   2.6158E-02   2.5568E-03  0.0354
   2.6158E-02   2.6795E-02   2.6908E-03  0.0341
   2.6795E-02   2.7447E-02   2.4793E-03  0.0351
   2.7447E-02   2.8114E-02   2.5715E-03  0.0341
   2.8114E-02   2.8799E-02   2.4509E-03  0.0345
   2.8799E-02   2.9499E-02   2.3911E-03  0.0345
   2.9499E-02   3.0217E-02   2.3383E-03  0.0345
   3.0217E-02   3.0952E-02   2.4498E-03  0.0333
   3.0952E-02   3.1705E-02   2.2478E-03  0.0343
   3.1705E-02   3.2477E-02   2.2012E-03  0.0342
   3.2477E-02   3.3267E-02   2.1339E-03  0.0344
   3.3267E-02   3.4076E-02   2.1677E-03  0.0337
   3.4076E-02   3.4905E-02   2.1080E-03  0.0338
   3.4905E-02   3.5755E-02   1.9342E-03  0.0348
   3.5755E-02   3.6625E-02   2.0449E-03  0.0335
   3.6625E-02   3.7516E-02   2.0653E-03  0.0329
   3.7516E-02   3.8428E-02   1.9954E-03  0.0331
   3.8428E-02   3.9363E-02   1.8819E-03  0.0337
   3.9363E-02   4.0321E-02   1.7779E-03  0.0342
   4.0321E-02   4.1302E-02   1.8157E-03  0.0335
   4.1302E-02   4.2307E-02   1.8009E-03  0.0332
   4.2307E-02   4.3337E-02   1.8608E-03  0.0323
   4.3337E-02   4.4391E-02   1.6482E-03  0.0339
   4.4391E-02   4.5471E-02   1.6517E-03  0.0334
   4.5471E-02   4.6577E-02   1.6491E-03  0.0330
   4.6577E-02   4.7711E-02   1.6268E-03  0.0329
   4.7711E-02   4.8871E-02   1.6627E-03  0.0321
   4.8871E-02   5.0061E-02   1.5790E-03  0.0326
   5.0061E-02   5.1279E-02   1.5053E-03  0.0330
   5.1279E-02   5.2526E-02   1.4084E-03  0.0337
   5.2526E-02   5.3804E-02   1.4323E-03  0.0330
   5.3804E-02   5.5113E-02   1.3646E-03  0.0334
   5.5113E-02   5.6454E-02   1.4661E-03  0.0319
   5.6454E-02   5.7828E-02   1.4189E-03  0.0320
   5.7828E-02   5.9235E-02   1.4061E-03  0.0317
   5.9235E-02   6.0676E-02   1.2927E-03  0.0327
   6.0676E-02   6.2152E-02   1.2614E-03  0.0327
   6.2152E-02   6.3665E-02   1.1610E-03  0.0337
   6.3665E-02   6.5214E-02   1.2440E-03  0.0322
   6.5214E-02   6.6800E-02   1.1573E-03  0.0329
   6.6800E-02   6.8426E-02   1.1950E-03  0.0320
   6.8426E-02   7.0090E-02   1.1958E-03  0.0317
   7.0090E-02   7.1796E-02   1.0507E-03  0.0334
   7.1796E-02   7.3543E-02   1.1300E-03  0.0318
   7.3543E-02   7.5332E-02   1.0456E-03  0.0326
   7.5332E-02   7.7165E-02   1.0833E-03  0.0317
   7.7165E-02   7.9042E-02   9.9611E-04  0.0326
   7.9042E-02   8.0965E-02   9.8285E-04  0.0325
   8.0965E-02   8.2935E-02   9.8103E-04  0.0321
   8.2935E-02   8.4953E-02   9.6307E-04  0.0320
   8.4953E-02   8.7020E-02   9.8113E-04  0.0313
   8.7020E-02   8.9138E-02   8.4475E-04  0.0334
   8.9138E-02   9.1306E-02   9.3163E-04  0.0314
   9.1306E-02   9.3528E-02   8.4072E-04  0.0326
   9.3528E-02   9.5804E-02   8.6245E-04  0.0319
   9.5804E-02   9.8134E-02   8.1203E-04  0.0325
   9.8134E-02   1.0052E-01   8.2170E-04  0.0319
   1.0052E-01   1.0297E-01   7.8582E-04  0.0322
   1.0297E-01   1.0547E-01   8.1924E-04  0.0312
   1.0547E-01   1.0804E-01   7.3608E-04  0.0324
   1.0804E-01   1.1067E-01   7.3408E-04  0.0322
   1.1067E-01   1.1336E-01   7.4738E-04  0.0315
   1.1336E-01   1.1612E-01   6.7609E-04  0.0327
   1.1612E-01   1.1894E-01   6.8897E-04  0.0320
   1.1894E-01   1.2184E-01   6.5847E-04  0.0324
   1.2184E-01   1.2480E-01   6.1757E-04  0.0330
   1.2480E-01   1.2784E-01   6.3014E-04  0.0323
   1.2784E-01   1.3095E-01   6.1811E-04  0.0322
   1.3095E-01   1.3414E-01   5.6586E-04  0.0332
   1.3414E-01   1.3740E-01   5.9019E-04  0.0321
   1.3740E-01   1.4074E-01   5.8823E-04  0.0319
   1.4074E-01   1.4417E-01   5.7285E-04  0.0319
   1.4417E-01   1.4767E-01   5.4734E-04  0.0322
   1.4767E-01   1.5127E-01   5.5226E-04  0.0317
   1.5127E-01   1.5495E-01   5.1798E-04  0.0323
   1.5495E-01   1.5872E-01   4.8413E-04  0.0330
   1.5872E-01   1.6258E-01   5.0227E-04  0.0320
   1.6258E-01   1.6654E-01   4.7996E-04  0.0324
   1.6654E-01   1.7059E-01   4.7046E-04  0.0323
   1.7059E-01   1.7474E-01   4.5602E-04  0.0325
   1.7474E-01   1.7899E-01   4.5278E-04  0.0322
   1.7899E-01   1.8334E-01   4.2256E-04  0.0329
   1.8334E-01   1.8781E-01   4.2129E-04  0.0326
   1.8781E-01   1.9237E-01   4.2177E-04  0.0321
   1.9237E-01   1.9706E-01   4.0495E-04  0.0324
   1.9706E-01   2.0185E-01   4.0137E-04  0.0322
   2.0185E-01   2.0676E-01   3.9143E-04  0.0322
   2.0676E-01   2.1179E-01   4.2196E-04  0.0306
   2.1179E-01   2.1694E-01   4.3907E-04  0.0297
   2.1694E-01   2.2222E-01   4.4472E-04  0.0291
   2.2222E-01   2.2763E-01   4.4280E-04  0.0288
   2.2763E-01   2.3317E-01   4.8578E-04  0.0272
   2.3317E-01   2.3884E-01   4.8223E-04  0.0270
   2.3884E-01   2.4465E-01   4.9140E-04  0.0264
   2.4465E-01   2.5061E-01   5.1020E-04  0.0256
   2.5061E-01   2.5670E-01   5.2931E-04  0.0248
   2.5670E-01   2.6295E-01   5.2366E-04  0.0247
   2.6295E-01   2.6935E-01   5.3712E-04  0.0241
   2.6935E-01   2.7590E-01   5.6310E-04  0.0232
   2.7590E-01   2.8261E-01   5.6404E-04  0.0229
   2.8261E-01   2.8949E-01   5.8733E-04  0.0222
   2.8949E-01   2.9653E-01   5.9137E-04  0.0219
   2.9653E-01   3.0375E-01   6.1903E-04  0.0211
   3.0375E-01   3.1114E-01   6.4272E-04  0.0205
   3.1114E-01   3.1871E-01   6.2489E-04  0.0205
   3.1871E-01   3.2646E-01   6.5189E-04  0.0198
   3.2646E-01   3.3441E-01   6.5916E-04  0.0195
   3.3441E-01   3.4254E-01   6.6918E-04  0.0191
   3.4254E-01   3.5088E-01   6.8746E-04  0.0186
   3.5088E-01   3.5941E-01   7.0858E-04  0.0181
   3.5941E-01   3.6816E-01   7.1041E-04  0.0179
   3.6816E-01   3.7712E-01   7.2647E-04  0.0175
   3.7712E-01   3.8629E-01   7.2922E-04  0.0172
   3.8629E-01   3.9569E-01   7.4521E-04  0.0169
   3.9569E-01   4.0532E-01   7.5194E-04  0.0166
   4.0532E-01   4.1518E-01   7.7053E-04  0.0162
   4.1518E-01   4.2528E-01   7.7034E-04  0.0160
   4.2528E-01   4.3563E-01   8.0082E-04  0.0155
   4.3563E-01   4.4623E-01   8.0074E-04  0.0153
   4.4623E-01   4.5708E-01   8.0292E-04  0.0151
   4.5708E-01   4.6821E-01   8.2217E-04  0.0147
   4.6821E-01   4.7960E-01   8.3292E-04  0.0145
   4.7960E-01   4.9127E-01   8.2579E-04  0.0144
   4.9127E-01   5.0322E-01   8.4344E-04  0.0140
   5.0322E-01   5.1546E-01   8.2968E-04  0.0140
   5.1546E-01   5.2800E-01   8.5395E-04  0.0136
   5.2800E-01   5.4085E-01   8.4157E-04  0.0136
   5.4085E-01   5.5401E-01   8.4575E-04  0.0134
   5.5401E-01   5.6749E-01   8.4930E-04  0.0132
   5.6749E-01   5.8130E-01   8.5560E-04  0.0130
   5.8130E-01   5.9544E-01   8.5382E-04  0.0128
   5.9544E-01   6.0993E-01   8.5538E-04  0.0127
   6.0993E-01   6.2477E-01   8.5908E-04  0.0125
   6.2477E-01   6.3997E-01   8.6363E-04  0.0123
   6.3997E-01   6.5554E-01   8.4406E-04  0.0123
   6.5554E-01   6.7149E-01   8.5245E-04  0.0121
   6.7149E-01   6.8783E-01   8.4691E-04  0.0120
   6.8783E-01   7.0456E-01   8.4524E-04  0.0118
   7.0456E-01   7.2171E-01   8.2792E-04  0.0118
   7.2171E-01   7.3927E-01   8.2288E-04  0.0117
   7.3927E-01   7.5725E-01   8.2123E-04  0.0116
   7.5725E-01   7.7568E-01   8.0973E-04  0.0115
   7.7568E-01   7.9455E-01   8.2585E-04  0.0113
   7.9455E-01   8.1388E-01   8.0686E-04  0.0113
   8.1388E-01   8.3368E-01   7.7372E-04  0.0114
   8.3368E-01   8.5397E-01   7.7618E-04  0.0112
   8.5397E-01   8.7475E-01   7.5725E-04  0.0112
   8.7475E-01   8.9603E-01   7.4969E-04  0.0111
   8.9603E-01   9.1783E-01   7.5871E-04  0.0109
   9.1783E-01   9.4016E-01   7.2417E-04  0.0111
   9.4016E-01   9.6304E-01   7.3151E-04  0.0109
   9.6304E-01   9.8647E-01   7.0698E-04  0.0109
   9.8647E-01   1.0105E+00   6.9409E-04  0.0109
   1.0105E+00   1.0351E+00   6.6839E-04  0.0110
   1.0351E+00   1.0602E+00   6.6754E-04  0.0109
   1.0602E+00   1.0860E+00   6.5306E-04  0.0108
   1.0860E+00   1.1125E+00   6.3355E-04  0.0109
   1.1125E+00   1.1395E+00   6.0743E-04  0.0110
   1.1395E+00   1.1673E+00   6.0058E-04  0.0109
   1.1673E+00   1.1957E+00   5.6682E-04  0.0111
   1.1957E+00   1.2247E+00   5.7003E-04  0.0109
   1.2247E+00   1.2545E+00   5.6025E-04  0.0109
   1.2545E+00   1.2851E+00   5.3750E-04  0.0110
   1.2851E+00   1.3163E+00   5.2443E-04  0.0110
   1.3163E+00   1.3484E+00   5.0594E-04  0.0110
   1.3484E+00   1.3812E+00   4.9107E-04  0.0111
   1.3812E+00   1.4148E+00   4.7950E-04  0.0111
   1.4148E+00   1.4492E+00   4.7028E-04  0.0110
   1.4492E+00   1.4845E+00   4.5485E-04  0.0111
   1.4845E+00   1.5206E+00   4.4310E-04  0.0111
   1.5206E+00   1.5576E+00   4.3638E-04  0.0111
   1.5576E+00   1.5955E+00   4.2813E-04  0.0110
   1.5955E+00   1.6343E+00   4.0613E-04  0.0112
   1.6343E+00   1.6741E+00   3.9667E-04  0.0112
   1.6741E+00   1.7148E+00   3.7326E-04  0.0114
   1.7148E+00   1.7565E+00   3.6177E-04  0.0114
   1.7565E+00   1.7992E+00   3.5440E-04  0.0114
   1.7992E+00   1.8430E+00   3.5207E-04  0.0113
   1.8430E+00   1.8879E+00   3.3945E-04  0.0114
   1.8879E+00   1.9338E+00   3.2657E-04  0.0115
   1.9338E+00   1.9808E+00   3.2424E-04  0.0114
   1.9808E+00   2.0290E+00   3.1373E-04  0.0114
   2.0290E+00   2.0784E+00   3.0454E-04  0.0115
   2.0784E+00   2.1290E+00   2.9369E-04  0.0115
   2.1290E+00   2.1808E+00   2.8645E-04  0.0115
   2.1808E+00   2.2338E+00   2.7988E-04  0.0115
   2.2338E+00   2.2882E+00   2.6955E-04  0.0116
   2.2882E+00   2.3439E+00   2.6435E-04  0.0116
   2.3439E+00   2.4009E+00   2.5415E-04  0.0117
   2.4009E+00   2.4593E+00   2.4698E-04  0.0117
   2.4593E+00   2.5191E+00   2.4018E-04  0.0117
   2.5191E+00   2.5804E+00   2.3759E-04  0.0116
   2.5804E+00   2.6432E+00   2.3287E-04  0.0116
   2.6432E+00   2.7075E+00   2.2532E-04  0.0117
   2.7075E+00   2.7734E+00   2.1653E-04  0.0118
   2.7734E+00   2.8409E+00   2.1351E-04  0.0117
   2.8409E+00   2.9100E+00   2.1190E-04  0.0116
   2.9100E+00   2.9808E+00   2.0811E-04  0.0116
   2.9808E+00   3.0533E+00   2.0563E-04  0.0115
   3.0533E+00   3.1276E+00   1.9421E-04  0.0117
   3.1276E+00   3.2037E+00   1.9004E-04  0.0117
   3.2037E+00   3.2817E+00   1.8620E-04  0.0117
   3.2817E+00   3.3615E+00   1.7943E-04  0.0117
   3.3615E+00   3.4433E+00   1.7775E-04  0.0116
   3.4433E+00   3.5271E+00   1.7424E-04  0.0116
   3.5271E+00   3.6129E+00   1.6651E-04  0.0118
   3.6129E+00   3.7008E+00   1.6970E-04  0.0115
   3.7008E+00   3.7908E+00   1.6249E-04  0.0116
   3.7908E+00   3.8831E+00   1.5799E-04  0.0116
   3.8831E+00   3.9776E+00   1.5652E-04  0.0116
   3.9776E+00   4.0743E+00   1.5480E-04  0.0115
   4.0743E+00   4.1735E+00   1.5321E-04  0.0114
   4.1735E+00   4.2750E+00   1.4928E-04  0.0114
   4.2750E+00   4.3790E+00   1.4811E-04  0.0113
   4.3790E+00   4.4856E+00   1.4726E-04  0.0112
   4.4856E+00   4.5947E+00   1.4232E-04  0.0113
   4.5947E+00   4.7065E+00   1.3983E-04  0.0113
   4.7065E+00   4.8210E+00   1.3758E-04  0.0112
   4.8210E+00   4.9383E+00   1.3201E-04  0.0113
   4.9383E+00   5.0585E+00   1.2638E-04  0.0114
   5.0585E+00   5.1815E+00   1.2128E-04  0.0115
   5.1815E+00   5.3076E+00   1.1739E-04  0.0116
   5.3076E+00   5.4368E+00   1.1247E-04  0.0117
   5.4368E+00   5.5690E+00   1.0508E-04  0.0119
   5.5690E+00   5.7045E+00   1.0159E-04  0.0120
   5.7045E+00   5.8433E+00   9.8041E-05  0.0121
   5.8433E+00   5.9855E+00   9.4486E-05  0.0122
   5.9855E+00   6.1311E+00   8.8222E-05  0.0124
   6.1311E+00   6.2803E+00   8.6039E-05  0.0124
   6.2803E+00   6.4331E+00   8.0614E-05  0.0127
   6.4331E+00   6.5896E+00   7.7310E-05  0.0128
   6.5896E+00   6.7500E+00   7.2641E-05  0.0131
   6.7500E+00   6.9142E+00   6.8402E-05  0.0133
   6.9142E+00   7.0824E+00   6.5432E-05  0.0134
   7.0824E+00   7.2548E+00   6.0875E-05  0.0138
   7.2548E+00   7.4313E+00   5.8137E-05  0.0139
   7.4313E+00   7.6121E+00   5.4290E-05  0.0142
   7.6121E+00   7.7973E+00   5.2224E-05  0.0144
   7.7973E+00   7.9870E+00   4.6205E-05  0.0151
   7.9870E+00   8.1813E+00   4.4911E-05  0.0151
   8.1813E+00   8.3804E+00   4.1269E-05  0.0156
   8.3804E+00   8.5843E+00   3.9150E-05  0.0158
   8.5843E+00   8.7931E+00   3.5388E-05  0.0164
   8.7931E+00   9.0071E+00   3.3875E-05  0.0166
   9.0071E+00   9.2262E+00   2.9751E-05  0.0175
   9.2262E+00   9.4507E+00   2.7985E-05  0.0178
   9.4507E+00   9.6807E+00   2.4713E-05  0.0187
   9.6807E+00   9.9162E+00   2.3946E-05  0.0188
   9.9162E+00   1.0157E+01   2.0918E-05  0.0199
   1.0157E+01   1.0405E+01   2.0039E-05  0.0201
   1.0405E+01   1.0658E+01   1.8320E-05  0.0208
   1.0658E+01   1.0917E+01   1.7426E-05  0.0210
   1.0917E+01   1.1183E+01   1.5678E-05  0.0219
   1.1183E+01   1.1455E+01   1.3967E-05  0.0229
   1.1455E+01   1.1733E+01   1.2407E-05  0.0240
   1.1733E+01   1.2019E+01   1.0905E-05  0.0253
   1.2019E+01   1.2311E+01   1.0154E-05  0.0259
   1.2311E+01   1.2611E+01   8.7817E-06  0.0276
   1.2611E+01   1.2918E+01   8.1025E-06  0.0284
   1.2918E+01   1.3232E+01   6.8422E-06  0.0305
   1.3232E+01   1.3554E+01   6.2060E-06  0.0316
   1.3554E+01   1.3884E+01   5.1340E-06  0.0344
   1.3884E+01   1.4222E+01   4.7838E-06  0.0352
   1.4222E+01   1.4568E+01   3.8584E-06  0.0387
   1.4568E+01   1.4922E+01   2.8608E-06  0.0444
   1.4922E+01   1.5285E+01   2.6827E-06  0.0453
   1.5285E+01   1.5657E+01   2.4146E-06  0.0472
   1.5657E+01   1.6038E+01   1.8284E-06  0.0536
   1.6038E+01   1.6428E+01   1.5171E-06  0.0581
   1.6428E+01   1.6828E+01   1.1208E-06  0.0668
   1.6828E+01   1.7237E+01   1.0893E-06  0.0670
   1.7237E+01   1.7657E+01   8.0115E-07  0.0772
   1.7657E+01   1.8086E+01   6.6108E-07  0.0839
   1.8086E+01   1.8526E+01   5.1357E-07  0.0941
   1.8526E+01   1.8977E+01   3.8601E-07  0.1072
   1.8977E+01   1.9439E+01   3.1187E-07  0.1179
   1.9439E+01   1.9912E+01   2.6218E-07  0.1270
   1.9912E+01   2.0396E+01   1.7338E-07  0.1543
   2.0396E+01   2.0893E+01   9.6724E-08  0.2041
   2.0893E+01   2.1401E+01   9.0492E-08  0.2085
   2.1401E+01   2.1922E+01   6.5296E-08  0.2425
   2.1922E+01   2.2455E+01   5.2496E-08  0.2673
   2.2455E+01   2.3001E+01   3.6607E-08  0.3162
   2.3001E+01   2.3561E+01   2.8590E-08  0.3536
   2.3561E+01   2.4134E+01   1.3955E-08  0.5000
   2.4134E+01   2.4721E+01   6.8119E-09  0.7071
   2.4721E+01   2.5323E+01   6.6501E-09  0.7071
   2.5323E+01   2.5939E+01   6.4922E-09  0.7071
   2.5939E+01   2.6570E+01   0.0000E+00  0.0000
   2.6570E+01   2.7217E+01   6.1874E-09  0.7071
   2.7217E+01   2.7879E+01   3.0202E-09  1.0000
   2.7879E+01   2.8557E+01   0.0000E+00  0.0000
   2.8557E+01   2.9252E+01   0.0000E+00  0.0000
   2.9252E+01   2.9964E+01   0.0000E+00  0.0000
   2.9964E+01   3.0693E+01   0.0000E+00  0.0000
   3.0693E+01   3.1440E+01   0.0000E+00  0.0000
   3.1440E+01   3.2205E+01   0.0000E+00  0.0000
   3.2205E+01   3.2988E+01   0.0000E+00  0.0000
   3.2988E+01   3.3791E+01   0.0000E+00  0.0000
   3.3791E+01   3.4613E+01   0.0000E+00  0.0000
   3.4613E+01   3.5455E+01   0.0000E+00  0.0000
   3.5455E+01   3.6318E+01   0.0000E+00  0.0000
   3.6318E+01   3.7201E+01   0.0000E+00  0.0000
   3.7201E+01   3.8106E+01   0.0000E+00  0.0000
   3.8106E+01   3.9034E+01   0.0000E+00  0.0000
   3.9034E+01   3.9983E+01   0.0000E+00  0.0000
   3.9983E+01   4.0956E+01   0.0000E+00  0.0000
   4.0956E+01   4.1953E+01   0.0000E+00  0.0000
   4.1953E+01   4.2973E+01   0.0000E+00  0.0000
   4.2973E+01   4.4019E+01   0.0000E+00  0.0000
   4.4019E+01   4.5090E+01   0.0000E+00  0.0000
   4.5090E+01   4.6187E+01   0.0000E+00  0.0000
   4.6187E+01   4.7311E+01   0.0000E+00  0.0000
   4.7311E+01   4.8462E+01   0.0000E+00  0.0000
   4.8462E+01   4.9641E+01   0.0000E+00  0.0000
   4.9641E+01   5.0849E+01   0.0000E+00  0.0000
   5.0849E+01   5.2086E+01   0.0000E+00  0.0000
   5.2086E+01   5.3353E+01   0.0000E+00  0.0000
   5.3353E+01   5.4651E+01   0.0000E+00  0.0000
   5.4651E+01   5.5981E+01   0.0000E+00  0.0000
   5.5981E+01   5.7343E+01   0.0000E+00  0.0000
   5.7343E+01   5.8738E+01   0.0000E+00  0.0000
   5.8738E+01   6.0168E+01   0.0000E+00  0.0000
   6.0168E+01   6.1632E+01   0.0000E+00  0.0000
   6.1632E+01   6.3131E+01   0.0000E+00  0.0000
   6.3131E+01   6.4667E+01   0.0000E+00  0.0000
   6.4667E+01   6.6240E+01   0.0000E+00  0.0000
   6.6240E+01   6.7852E+01   0.0000E+00  0.0000
   6.7852E+01   6.9503E+01   0.0000E+00  0.0000
   6.9503E+01   7.1194E+01   0.0000E+00  0.0000
   7.1194E+01   7.2926E+01   0.0000E+00  0.0000
   7.2926E+01   7.4701E+01   0.0000E+00  0.0000
   7.4701E+01   7.6518E+01   0.0000E+00  0.0000
   7.6518E+01   7.8380E+01   0.0000E+00  0.0000
   7.8380E+01   8.0287E+01   0.0000E+00  0.0000
   8.0287E+01   8.2240E+01   0.0000E+00  0.0000
   8.2240E+01   8.4241E+01   0.0000E+00  0.0000
   8.4241E+01   8.6291E+01   0.0000E+00  0.0000
   8.6291E+01   8.8391E+01   0.0000E+00  0.0000
   8.8391E+01   9.0541E+01   0.0000E+00  0.0000
   9.0541E+01   9.2744E+01   0.0000E+00  0.0000
   9.2744E+01   9.5001E+01   0.0000E+00  0.0000
   9.5001E+01   9.7312E+01   0.0000E+00  0.0000
   9.7312E+01   9.9680E+01   0.0000E+00  0.0000
   9.9680E+01   1.0211E+02   0.0000E+00  0.0000
   1.0211E+02   1.0459E+02   0.0000E+00  0.0000
   1.0459E+02   1.0713E+02   0.0000E+00  0.0000
   1.0713E+02   1.0974E+02   0.0000E+00  0.0000
   1.0974E+02   1.1241E+02   0.0000E+00  0.0000
   1.1241E+02   1.1515E+02   0.0000E+00  0.0000
   1.1515E+02   1.1795E+02   0.0000E+00  0.0000
   1.1795E+02   1.2082E+02   0.0000E+00  0.0000
   1.2082E+02   1.2376E+02   0.0000E+00  0.0000
   1.2376E+02   1.2677E+02   0.0000E+00  0.0000
   1.2677E+02   1.2985E+02   0.0000E+00  0.0000
   1.2985E+02   1.3301E+02   0.0000E+00  0.0000
   1.3301E+02   1.3625E+02   0.0000E+00  0.0000
   1.3625E+02   1.3956E+02   0.0000E+00  0.0000
   1.3956E+02   1.4296E+02   0.0000E+00  0.0000
   1.4296E+02   1.4644E+02   0.0000E+00  0.0000
   1.4644E+02   1.5000E+02   0.0000E+00  0.0000

#   sum over                 1.4720E-05
'no. =    1   reg = 118 - 218'
msuc: {\huge [t-cross] in region mesh}
msdr: {\it plotted by \ANGEL \version}
msdl: {\it calculated by \PHITS  3.26}
wt: s(0.7)
\vspace{-3}
  region surface crossing
  area  &=&   1.0000E+00 [cm^2]
e:
 
# Information for Restart Calculation
# This calculation was newly started
# istdev =  2 # 1:Batch variance, 2:History variance
# resc2  = 5.00000000000000000E+08 # Total source weight or Total source weight / maxcas
# resc3  = 5.00000000000000000E+08 # Total history number or Total batch number
# maxcas =   500000000 # History / Batch, only used for istdev=1
# bitrseed = 1101101111010011011000101101110001100110110010110001010100010001 # bit data of rseed
