[ T-Cross ]
    title = [t-cross] in region mesh
     mesh =  reg            # mesh type is region-wise
      reg =    1            # number of crossing regions
      non     r-from    r-to       area
      1       104       204        1.000000    
   e-type =    3            # e-mesh is log given by emin, emax and ne
     emin =  1.0000000E-02  # minimum value of e-mesh points
     emax =   150.0000      # maximum value of e-mesh points
#    edel =  2.4039514E-02  # mesh width of e-mesh points
       ne =    400          # number of e-mesh points
#    data = ( e(i), i = 1, ne + 1 )
#           1.00000E-02  1.02433E-02  1.04925E-02  1.07478E-02  1.10093E-02
#           1.12772E-02  1.15516E-02  1.18326E-02  1.21205E-02  1.24154E-02
#           1.27175E-02  1.30269E-02  1.33439E-02  1.36686E-02  1.40011E-02
#           1.43418E-02  1.46907E-02  1.50482E-02  1.54143E-02  1.57894E-02
#           1.61735E-02  1.65670E-02  1.69701E-02  1.73830E-02  1.78060E-02
#           1.82392E-02  1.86830E-02  1.91375E-02  1.96032E-02  2.00801E-02
#           2.05687E-02  2.10692E-02  2.15818E-02  2.21069E-02  2.26448E-02
#           2.31957E-02  2.37601E-02  2.43382E-02  2.49304E-02  2.55369E-02
#           2.61583E-02  2.67947E-02  2.74467E-02  2.81145E-02  2.87985E-02
#           2.94992E-02  3.02169E-02  3.09521E-02  3.17052E-02  3.24766E-02
#           3.32668E-02  3.40762E-02  3.49053E-02  3.57546E-02  3.66246E-02
#           3.75157E-02  3.84284E-02  3.93634E-02  4.03212E-02  4.13022E-02
#           4.23071E-02  4.33365E-02  4.43909E-02  4.54710E-02  4.65773E-02
#           4.77106E-02  4.88714E-02  5.00605E-02  5.12785E-02  5.25262E-02
#           5.38042E-02  5.51133E-02  5.64542E-02  5.78278E-02  5.92348E-02
#           6.06760E-02  6.21523E-02  6.36645E-02  6.52135E-02  6.68002E-02
#           6.84255E-02  7.00904E-02  7.17957E-02  7.35426E-02  7.53319E-02
#           7.71648E-02  7.90423E-02  8.09655E-02  8.29354E-02  8.49533E-02
#           8.70203E-02  8.91376E-02  9.13064E-02  9.35279E-02  9.58035E-02
#           9.81345E-02  1.00522E-01  1.02968E-01  1.05473E-01  1.08040E-01
#           1.10668E-01  1.13361E-01  1.16119E-01  1.18944E-01  1.21838E-01
#           1.24803E-01  1.27839E-01  1.30950E-01  1.34136E-01  1.37399E-01
#           1.40742E-01  1.44167E-01  1.47675E-01  1.51268E-01  1.54948E-01
#           1.58718E-01  1.62580E-01  1.66535E-01  1.70587E-01  1.74738E-01
#           1.78989E-01  1.83344E-01  1.87805E-01  1.92375E-01  1.97055E-01
#           2.01850E-01  2.06761E-01  2.11792E-01  2.16945E-01  2.22223E-01
#           2.27630E-01  2.33169E-01  2.38842E-01  2.44653E-01  2.50605E-01
#           2.56703E-01  2.62949E-01  2.69346E-01  2.75900E-01  2.82613E-01
#           2.89489E-01  2.96532E-01  3.03747E-01  3.11138E-01  3.18708E-01
#           3.26462E-01  3.34405E-01  3.42542E-01  3.50876E-01  3.59413E-01
#           3.68158E-01  3.77116E-01  3.86291E-01  3.95690E-01  4.05317E-01
#           4.15179E-01  4.25281E-01  4.35628E-01  4.46227E-01  4.57084E-01
#           4.68205E-01  4.79597E-01  4.91266E-01  5.03219E-01  5.15463E-01
#           5.28005E-01  5.40851E-01  5.54011E-01  5.67490E-01  5.81298E-01
#           5.95441E-01  6.09929E-01  6.24769E-01  6.39970E-01  6.55541E-01
#           6.71491E-01  6.87828E-01  7.04564E-01  7.21706E-01  7.39266E-01
#           7.57253E-01  7.75678E-01  7.94551E-01  8.13883E-01  8.33685E-01
#           8.53969E-01  8.74747E-01  8.96030E-01  9.17831E-01  9.40163E-01
#           9.63038E-01  9.86469E-01  1.01047E+00  1.03506E+00  1.06024E+00
#           1.08604E+00  1.11246E+00  1.13953E+00  1.16725E+00  1.19565E+00
#           1.22474E+00  1.25454E+00  1.28507E+00  1.31633E+00  1.34836E+00
#           1.38117E+00  1.41477E+00  1.44920E+00  1.48446E+00  1.52057E+00
#           1.55757E+00  1.59547E+00  1.63429E+00  1.67405E+00  1.71478E+00
#           1.75650E+00  1.79924E+00  1.84302E+00  1.88786E+00  1.93379E+00
#           1.98084E+00  2.02904E+00  2.07841E+00  2.12898E+00  2.18078E+00
#           2.23384E+00  2.28819E+00  2.34386E+00  2.40089E+00  2.45930E+00
#           2.51914E+00  2.58043E+00  2.64322E+00  2.70753E+00  2.77341E+00
#           2.84088E+00  2.91001E+00  2.98081E+00  3.05333E+00  3.12762E+00
#           3.20372E+00  3.28167E+00  3.36152E+00  3.44330E+00  3.52708E+00
#           3.61290E+00  3.70080E+00  3.79085E+00  3.88308E+00  3.97756E+00
#           4.07434E+00  4.17347E+00  4.27501E+00  4.37903E+00  4.48557E+00
#           4.59471E+00  4.70650E+00  4.82102E+00  4.93832E+00  5.05847E+00
#           5.18155E+00  5.30762E+00  5.43676E+00  5.56904E+00  5.70453E+00
#           5.84333E+00  5.98550E+00  6.13114E+00  6.28031E+00  6.43312E+00
#           6.58964E+00  6.74997E+00  6.91420E+00  7.08243E+00  7.25475E+00
#           7.43126E+00  7.61207E+00  7.79728E+00  7.98700E+00  8.18133E+00
#           8.38038E+00  8.58428E+00  8.79315E+00  9.00709E+00  9.22624E+00
#           9.45072E+00  9.68067E+00  9.91620E+00  1.01575E+01  1.04046E+01
#           1.06578E+01  1.09171E+01  1.11827E+01  1.14548E+01  1.17335E+01
#           1.20190E+01  1.23114E+01  1.26109E+01  1.29178E+01  1.32321E+01
#           1.35540E+01  1.38838E+01  1.42216E+01  1.45676E+01  1.49221E+01
#           1.52851E+01  1.56570E+01  1.60380E+01  1.64282E+01  1.68279E+01
#           1.72374E+01  1.76568E+01  1.80864E+01  1.85264E+01  1.89772E+01
#           1.94389E+01  1.99119E+01  2.03963E+01  2.08926E+01  2.14009E+01
#           2.19216E+01  2.24550E+01  2.30014E+01  2.35610E+01  2.41343E+01
#           2.47215E+01  2.53230E+01  2.59391E+01  2.65702E+01  2.72167E+01
#           2.78789E+01  2.85572E+01  2.92520E+01  2.99637E+01  3.06928E+01
#           3.14396E+01  3.22045E+01  3.29881E+01  3.37907E+01  3.46128E+01
#           3.54550E+01  3.63177E+01  3.72013E+01  3.81064E+01  3.90336E+01
#           3.99833E+01  4.09561E+01  4.19526E+01  4.29734E+01  4.40189E+01
#           4.50900E+01  4.61870E+01  4.73108E+01  4.84619E+01  4.96410E+01
#           5.08488E+01  5.20860E+01  5.33533E+01  5.46514E+01  5.59812E+01
#           5.73432E+01  5.87384E+01  6.01676E+01  6.16315E+01  6.31311E+01
#           6.46671E+01  6.62405E+01  6.78522E+01  6.95031E+01  7.11941E+01
#           7.29263E+01  7.47007E+01  7.65182E+01  7.83800E+01  8.02870E+01
#           8.22405E+01  8.42414E+01  8.62911E+01  8.83906E+01  9.05412E+01
#           9.27442E+01  9.50007E+01  9.73122E+01  9.96799E+01  1.02105E+02
#           1.04589E+02  1.07134E+02  1.09741E+02  1.12411E+02  1.15146E+02
#           1.17948E+02  1.20817E+02  1.23757E+02  1.26768E+02  1.29852E+02
#           1.33012E+02  1.36248E+02  1.39563E+02  1.42959E+02  1.46437E+02
#           1.50000E+02
     unit =    2            # unit is [1/cm^2/(MeV/n)/source]
     axis =  eng            # axis of output
     file = detector-05.out  # file name of output for the above axis
   output = f-curr          # surface crossing forward current spectrum
     part =  neutron  
# kf/name :  2112     
#    used :        main (  %)        temp (  %)       total (  %)
#  memory :         414 (  0)           0 (  0)         414 (  0)

#------------------------------------------------------------------------------
#newpage:
#   no. =    1   reg = 104 - 204

x: Energy [MeV/n]
y:  F-Curr [1/cm^2/(MeV/n)/source]         
p: xlog ylog afac(0.8) form(0.9)
h: n            x            y(neutron ),hh0l   n 
#  e-lower      e-upper      neutron     r.err 
   1.0000E-02   1.0243E-02   1.3273E-04  0.2479
   1.0243E-02   1.0493E-02   1.0641E-04  0.2726
   1.0493E-02   1.0748E-02   1.1751E-04  0.2582
   1.0748E-02   1.1009E-02   9.5960E-05  0.2773
   1.1009E-02   1.1277E-02   1.2341E-04  0.2427
   1.1277E-02   1.1552E-02   9.5927E-05  0.2742
   1.1552E-02   1.1833E-02   1.0665E-04  0.2529
   1.1833E-02   1.2121E-02   1.9110E-04  0.1893
   1.2121E-02   1.2415E-02   1.1473E-04  0.2389
   1.2415E-02   1.2718E-02   1.1512E-04  0.2377
   1.2718E-02   1.3027E-02   8.6272E-05  0.2708
   1.3027E-02   1.3344E-02   1.0340E-04  0.2447
   1.3344E-02   1.3669E-02   1.2320E-04  0.2236
   1.3669E-02   1.4001E-02   1.0330E-04  0.2403
   1.4001E-02   1.4342E-02   1.2487E-04  0.2132
   1.4342E-02   1.4691E-02   7.0058E-05  0.2840
   1.4691E-02   1.5048E-02   7.6964E-05  0.2653
   1.5048E-02   1.5414E-02   9.5821E-05  0.2358
   1.5414E-02   1.5789E-02   7.0765E-05  0.2725
   1.5789E-02   1.6174E-02   7.4380E-05  0.2623
   1.6174E-02   1.6567E-02   9.3383E-05  0.2314
   1.6567E-02   1.6970E-02   9.7789E-05  0.2221
   1.6970E-02   1.7383E-02   8.7189E-05  0.2357
   1.7383E-02   1.7806E-02   5.4374E-05  0.2901
   1.7806E-02   1.8239E-02   5.8813E-05  0.2740
   1.8239E-02   1.8683E-02   5.7890E-05  0.2717
   1.8683E-02   1.9138E-02   6.6771E-05  0.2555
   1.9138E-02   1.9603E-02   6.2371E-05  0.2585
   1.9603E-02   2.0080E-02   6.0430E-05  0.2605
   2.0080E-02   2.0569E-02   1.0133E-04  0.1992
   2.0569E-02   2.1069E-02   9.3791E-05  0.2048
   2.1069E-02   2.1582E-02   4.2916E-05  0.3015
   2.1582E-02   2.2107E-02   6.7297E-05  0.2345
   2.2107E-02   2.2645E-02   6.3267E-05  0.2379
   2.2645E-02   2.3196E-02   5.4672E-05  0.2509
   2.3196E-02   2.3760E-02   6.9536E-05  0.2229
   2.3760E-02   2.4338E-02   8.0072E-05  0.2073
   2.4338E-02   2.4930E-02   7.7681E-05  0.2085
   2.4930E-02   2.5537E-02   6.4080E-05  0.2247
   2.5537E-02   2.6158E-02   2.0883E-05  0.3802
   2.6158E-02   2.6795E-02   5.4633E-05  0.2377
   2.6795E-02   2.7447E-02   7.1874E-05  0.2051
   2.7447E-02   2.8114E-02   5.6409E-05  0.2264
   2.8114E-02   2.8799E-02   6.8709E-05  0.2052
   2.8799E-02   2.9499E-02   4.8884E-05  0.2409
   2.9499E-02   3.0217E-02   6.4090E-05  0.2085
   3.0217E-02   3.0952E-02   3.9997E-05  0.2571
   3.0952E-02   3.1705E-02   4.3635E-05  0.2442
   3.1705E-02   3.2477E-02   5.5210E-05  0.2122
   3.2477E-02   3.3267E-02   4.7480E-05  0.2279
   3.3267E-02   3.4076E-02   4.7593E-05  0.2267
   3.4076E-02   3.4905E-02   2.6535E-05  0.3015
   3.4905E-02   3.5755E-02   3.0990E-05  0.2676
   3.5755E-02   3.6625E-02   3.9446E-05  0.2405
   3.6625E-02   3.7516E-02   4.3919E-05  0.2234
   3.7516E-02   3.8428E-02   3.6045E-05  0.2440
   3.8428E-02   3.9363E-02   3.7090E-05  0.2382
   3.9363E-02   4.0321E-02   3.3976E-05  0.2464
   4.0321E-02   4.1302E-02   4.8462E-05  0.2026
   4.1302E-02   4.2307E-02   2.1874E-05  0.2835
   4.2307E-02   4.3337E-02   2.6628E-05  0.2660
   4.3337E-02   4.4391E-02   2.3275E-05  0.2832
   4.4391E-02   4.5471E-02   2.1281E-05  0.2897
   4.5471E-02   4.6577E-02   3.3356E-05  0.2306
   4.6577E-02   4.7711E-02   1.3315E-05  0.3532
   4.7711E-02   4.8871E-02   1.9221E-05  0.2976
   4.8871E-02   5.0061E-02   3.8299E-05  0.2075
   5.0061E-02   5.1279E-02   3.7522E-05  0.2060
   5.1279E-02   5.2526E-02   3.4373E-05  0.2142
   5.2526E-02   5.3804E-02   2.8814E-05  0.2310
   5.3804E-02   5.5113E-02   3.3123E-05  0.2122
   5.5113E-02   5.6454E-02   2.2606E-05  0.2557
   5.6454E-02   5.7828E-02   2.5070E-05  0.2398
   5.7828E-02   5.9235E-02   1.7778E-05  0.2693
   5.9235E-02   6.0676E-02   3.1554E-05  0.2077
   6.0676E-02   6.2152E-02   3.8976E-05  0.1850
   6.2152E-02   6.3665E-02   2.1477E-05  0.2419
   6.3665E-02   6.5214E-02   1.9250E-05  0.2540
   6.5214E-02   6.6800E-02   1.9114E-05  0.2556
   6.6800E-02   6.8426E-02   2.2463E-05  0.2285
   6.8426E-02   7.0090E-02   2.4506E-05  0.2197
   7.0090E-02   7.1796E-02   2.7746E-05  0.2034
   7.1796E-02   7.3543E-02   3.0077E-05  0.1944
   7.3543E-02   7.5332E-02   1.8819E-05  0.2389
   7.5332E-02   7.7165E-02   1.4920E-05  0.2652
   7.7165E-02   7.9042E-02   1.7751E-05  0.2412
   7.9042E-02   8.0965E-02   1.7425E-05  0.2411
   8.0965E-02   8.2935E-02   1.7918E-05  0.2347
   8.2935E-02   8.4953E-02   2.5684E-05  0.1942
   8.4953E-02   8.7020E-02   2.1731E-05  0.2093
   8.7020E-02   8.9138E-02   1.3225E-05  0.2673
   8.9138E-02   9.1306E-02   1.5677E-05  0.2425
   9.1306E-02   9.3528E-02   1.3747E-05  0.2543
   9.3528E-02   9.5804E-02   1.9775E-05  0.2073
   9.5804E-02   9.8134E-02   1.8203E-05  0.2137
   9.8134E-02   1.0052E-01   1.4014E-05  0.2404
   1.0052E-01   1.0297E-01   1.6355E-05  0.2236
   1.0297E-01   1.0547E-01   1.7278E-05  0.2131
   1.0547E-01   1.0804E-01   1.2341E-05  0.2471
   1.0804E-01   1.1067E-01   1.2351E-05  0.2417
   1.1067E-01   1.1336E-01   1.6529E-05  0.2079
   1.1336E-01   1.1612E-01   1.4069E-05  0.2252
   1.1612E-01   1.1894E-01   1.2034E-05  0.2425
   1.1894E-01   1.2184E-01   1.4257E-05  0.2182
   1.2184E-01   1.2480E-01   1.5465E-05  0.2062
   1.2480E-01   1.2784E-01   1.3075E-05  0.2214
   1.2784E-01   1.3095E-01   1.1574E-05  0.2357
   1.3095E-01   1.3414E-01   1.3497E-05  0.2138
   1.3414E-01   1.3740E-01   1.0544E-05  0.2399
   1.3740E-01   1.4074E-01   1.3461E-05  0.2096
   1.4074E-01   1.4417E-01   1.2849E-05  0.2132
   1.4417E-01   1.4767E-01   8.5317E-06  0.2467
   1.4767E-01   1.5127E-01   9.9557E-06  0.2328
   1.5127E-01   1.5495E-01   1.3857E-05  0.1971
   1.5495E-01   1.5872E-01   6.3122E-06  0.2814
   1.5872E-01   1.6258E-01   1.3158E-05  0.1971
   1.6258E-01   1.6654E-01   1.4839E-05  0.1837
   1.6654E-01   1.7059E-01   1.1766E-05  0.2025
   1.7059E-01   1.7474E-01   7.5660E-06  0.2490
   1.7474E-01   1.7899E-01   1.3716E-05  0.1832
   1.7899E-01   1.8334E-01   1.1543E-05  0.1960
   1.8334E-01   1.8781E-01   1.1102E-05  0.1986
   1.8781E-01   1.9237E-01   1.1380E-05  0.1961
   1.9237E-01   1.9706E-01   1.0425E-05  0.2012
   1.9706E-01   2.0185E-01   1.0126E-05  0.2020
   2.0185E-01   2.0676E-01   1.3375E-05  0.1728
   2.0676E-01   2.1179E-01   7.9650E-06  0.2195
   2.1179E-01   2.1694E-01   1.0180E-05  0.1946
   2.1694E-01   2.2222E-01   8.5346E-06  0.2089
   2.2222E-01   2.2763E-01   8.8776E-06  0.2041
   2.2763E-01   2.3317E-01   1.8735E-05  0.1369
   2.3317E-01   2.3884E-01   1.1954E-05  0.1687
   2.3884E-01   2.4465E-01   1.7162E-05  0.1399
   2.4465E-01   2.5061E-01   1.3658E-05  0.1543
   2.5061E-01   2.5670E-01   1.3059E-05  0.1572
   2.5670E-01   2.6295E-01   2.0152E-05  0.1248
   2.6295E-01   2.6935E-01   1.3091E-05  0.1521
   2.6935E-01   2.7590E-01   1.9785E-05  0.1230
   2.7590E-01   2.8261E-01   1.5527E-05  0.1375
   2.8261E-01   2.8949E-01   2.0070E-05  0.1191
   2.8949E-01   2.9653E-01   1.8856E-05  0.1224
   2.9653E-01   3.0375E-01   1.9715E-05  0.1161
   3.0375E-01   3.1114E-01   2.1507E-05  0.1106
   3.1114E-01   3.1871E-01   2.3443E-05  0.1054
   3.1871E-01   3.2646E-01   2.2953E-05  0.1047
   3.2646E-01   3.3441E-01   2.2580E-05  0.1053
   3.3441E-01   3.4254E-01   2.4764E-05  0.0990
   3.4254E-01   3.5088E-01   2.4638E-05  0.0978
   3.5088E-01   3.5941E-01   2.7004E-05  0.0923
   3.5941E-01   3.6816E-01   2.5749E-05  0.0935
   3.6816E-01   3.7712E-01   2.3696E-05  0.0958
   3.7712E-01   3.8629E-01   3.1932E-05  0.0822
   3.8629E-01   3.9569E-01   2.7251E-05  0.0872
   3.9569E-01   4.0532E-01   3.8778E-05  0.0724
   4.0532E-01   4.1518E-01   3.1478E-05  0.0795
   4.1518E-01   4.2528E-01   3.3475E-05  0.0760
   4.2528E-01   4.3563E-01   3.2449E-05  0.0766
   4.3563E-01   4.4623E-01   3.3723E-05  0.0742
   4.4623E-01   4.5708E-01   3.6037E-05  0.0712
   4.5708E-01   4.6821E-01   4.3007E-05  0.0642
   4.6821E-01   4.7960E-01   4.1999E-05  0.0643
   4.7960E-01   4.9127E-01   3.5703E-05  0.0687
   4.9127E-01   5.0322E-01   4.8589E-05  0.0582
   5.0322E-01   5.1546E-01   4.6527E-05  0.0589
   5.1546E-01   5.2800E-01   4.8229E-05  0.0570
   5.2800E-01   5.4085E-01   4.6284E-05  0.0576
   5.4085E-01   5.5401E-01   5.0481E-05  0.0545
   5.5401E-01   5.6749E-01   4.8025E-05  0.0550
   5.6749E-01   5.8130E-01   5.8091E-05  0.0496
   5.8130E-01   5.9544E-01   5.7228E-05  0.0495
   5.9544E-01   6.0993E-01   6.3483E-05  0.0464
   6.0993E-01   6.2477E-01   6.2597E-05  0.0460
   6.2477E-01   6.3997E-01   5.9018E-05  0.0469
   6.3997E-01   6.5554E-01   6.4489E-05  0.0445
   6.5554E-01   6.7149E-01   6.8095E-05  0.0426
   6.7149E-01   6.8783E-01   6.4188E-05  0.0434
   6.8783E-01   7.0456E-01   7.2454E-05  0.0404
   7.0456E-01   7.2171E-01   7.0060E-05  0.0406
   7.2171E-01   7.3927E-01   6.8559E-05  0.0405
   7.3927E-01   7.5725E-01   7.4662E-05  0.0384
   7.5725E-01   7.7568E-01   8.0321E-05  0.0366
   7.7568E-01   7.9455E-01   7.4126E-05  0.0376
   7.9455E-01   8.1388E-01   8.0238E-05  0.0357
   8.1388E-01   8.3368E-01   8.8170E-05  0.0337
   8.3368E-01   8.5397E-01   8.8496E-05  0.0332
   8.5397E-01   8.7475E-01   8.4936E-05  0.0335
   8.7475E-01   8.9603E-01   9.3532E-05  0.0316
   8.9603E-01   9.1783E-01   8.7633E-05  0.0322
   9.1783E-01   9.4016E-01   9.3797E-05  0.0307
   9.4016E-01   9.6304E-01   9.3252E-05  0.0305
   9.6304E-01   9.8647E-01   9.0415E-05  0.0305
   9.8647E-01   1.0105E+00   8.9633E-05  0.0303
   1.0105E+00   1.0351E+00   9.2383E-05  0.0295
   1.0351E+00   1.0602E+00   9.2482E-05  0.0291
   1.0602E+00   1.0860E+00   9.5793E-05  0.0283
   1.0860E+00   1.1125E+00   9.3924E-05  0.0282
   1.1125E+00   1.1395E+00   9.4728E-05  0.0278
   1.1395E+00   1.1673E+00   9.9092E-05  0.0268
   1.1673E+00   1.1957E+00   9.8681E-05  0.0266
   1.1957E+00   1.2247E+00   9.9092E-05  0.0262
   1.2247E+00   1.2545E+00   1.0024E-04  0.0257
   1.2545E+00   1.2851E+00   9.6632E-05  0.0259
   1.2851E+00   1.3163E+00   1.0051E-04  0.0251
   1.3163E+00   1.3484E+00   1.0192E-04  0.0246
   1.3484E+00   1.3812E+00   1.0075E-04  0.0245
   1.3812E+00   1.4148E+00   1.0426E-04  0.0238
   1.4148E+00   1.4492E+00   9.7942E-05  0.0242
   1.4492E+00   1.4845E+00   1.1099E-04  0.0225
   1.4845E+00   1.5206E+00   1.0482E-04  0.0229
   1.5206E+00   1.5576E+00   1.0750E-04  0.0223
   1.5576E+00   1.5955E+00   1.0335E-04  0.0225
   1.5955E+00   1.6343E+00   1.0733E-04  0.0218
   1.6343E+00   1.6741E+00   1.0517E-04  0.0217
   1.6741E+00   1.7148E+00   1.0712E-04  0.0213
   1.7148E+00   1.7565E+00   1.0228E-04  0.0215
   1.7565E+00   1.7992E+00   1.0272E-04  0.0212
   1.7992E+00   1.8430E+00   1.0303E-04  0.0209
   1.8430E+00   1.8879E+00   1.0576E-04  0.0204
   1.8879E+00   1.9338E+00   1.0488E-04  0.0203
   1.9338E+00   1.9808E+00   1.0700E-04  0.0198
   1.9808E+00   2.0290E+00   1.0396E-04  0.0199
   2.0290E+00   2.0784E+00   1.0618E-04  0.0194
   2.0784E+00   2.1290E+00   1.0494E-04  0.0193
   2.1290E+00   2.1808E+00   1.0523E-04  0.0190
   2.1808E+00   2.2338E+00   1.0259E-04  0.0191
   2.2338E+00   2.2882E+00   1.0273E-04  0.0188
   2.2882E+00   2.3439E+00   1.0135E-04  0.0187
   2.3439E+00   2.4009E+00   1.0307E-04  0.0184
   2.4009E+00   2.4593E+00   1.0075E-04  0.0183
   2.4593E+00   2.5191E+00   1.0386E-04  0.0178
   2.5191E+00   2.5804E+00   1.0315E-04  0.0177
   2.5804E+00   2.6432E+00   1.0381E-04  0.0174
   2.6432E+00   2.7075E+00   1.0203E-04  0.0174
   2.7075E+00   2.7734E+00   1.0754E-04  0.0167
   2.7734E+00   2.8409E+00   9.8295E-05  0.0173
   2.8409E+00   2.9100E+00   1.0480E-04  0.0165
   2.9100E+00   2.9808E+00   9.9658E-05  0.0168
   2.9808E+00   3.0533E+00   1.0448E-04  0.0162
   3.0533E+00   3.1276E+00   1.0259E-04  0.0161
   3.1276E+00   3.2037E+00   1.0294E-04  0.0159
   3.2037E+00   3.2817E+00   9.7882E-05  0.0161
   3.2817E+00   3.3615E+00   1.0156E-04  0.0156
   3.3615E+00   3.4433E+00   1.0172E-04  0.0154
   3.4433E+00   3.5271E+00   1.0420E-04  0.0151
   3.5271E+00   3.6129E+00   9.8985E-05  0.0153
   3.6129E+00   3.7008E+00   9.9919E-05  0.0150
   3.7008E+00   3.7908E+00   1.0152E-04  0.0147
   3.7908E+00   3.8831E+00   1.0150E-04  0.0146
   3.8831E+00   3.9776E+00   1.0265E-04  0.0143
   3.9776E+00   4.0743E+00   1.0196E-04  0.0142
   4.0743E+00   4.1735E+00   1.0160E-04  0.0140
   4.1735E+00   4.2750E+00   1.0456E-04  0.0137
   4.2750E+00   4.3790E+00   1.0375E-04  0.0136
   4.3790E+00   4.4856E+00   1.0319E-04  0.0134
   4.4856E+00   4.5947E+00   1.0419E-04  0.0132
   4.5947E+00   4.7065E+00   1.0687E-04  0.0129
   4.7065E+00   4.8210E+00   1.0379E-04  0.0129
   4.8210E+00   4.9383E+00   1.0562E-04  0.0127
   4.9383E+00   5.0585E+00   1.0329E-04  0.0127
   5.0585E+00   5.1815E+00   1.0768E-04  0.0123
   5.1815E+00   5.3076E+00   1.0684E-04  0.0122
   5.3076E+00   5.4368E+00   1.0577E-04  0.0121
   5.4368E+00   5.5690E+00   1.0876E-04  0.0118
   5.5690E+00   5.7045E+00   1.0799E-04  0.0117
   5.7045E+00   5.8433E+00   1.0929E-04  0.0115
   5.8433E+00   5.9855E+00   1.0867E-04  0.0114
   5.9855E+00   6.1311E+00   1.0930E-04  0.0112
   6.1311E+00   6.2803E+00   1.0938E-04  0.0111
   6.2803E+00   6.4331E+00   1.0999E-04  0.0109
   6.4331E+00   6.5896E+00   1.0825E-04  0.0108
   6.5896E+00   6.7500E+00   1.1043E-04  0.0106
   6.7500E+00   6.9142E+00   1.1110E-04  0.0105
   6.9142E+00   7.0824E+00   1.0966E-04  0.0104
   7.0824E+00   7.2548E+00   1.1214E-04  0.0102
   7.2548E+00   7.4313E+00   1.1135E-04  0.0101
   7.4313E+00   7.6121E+00   1.1309E-04  0.0099
   7.6121E+00   7.7973E+00   1.1508E-04  0.0097
   7.7973E+00   7.9870E+00   1.1436E-04  0.0096
   7.9870E+00   8.1813E+00   1.1322E-04  0.0095
   8.1813E+00   8.3804E+00   1.1745E-04  0.0092
   8.3804E+00   8.5843E+00   1.1689E-04  0.0092
   8.5843E+00   8.7931E+00   1.1914E-04  0.0090
   8.7931E+00   9.0071E+00   1.1936E-04  0.0088
   9.0071E+00   9.2262E+00   1.2023E-04  0.0087
   9.2262E+00   9.4507E+00   1.1909E-04  0.0086
   9.4507E+00   9.6807E+00   1.2120E-04  0.0085
   9.6807E+00   9.9162E+00   1.2234E-04  0.0083
   9.9162E+00   1.0157E+01   1.2235E-04  0.0082
   1.0157E+01   1.0405E+01   1.2305E-04  0.0081
   1.0405E+01   1.0658E+01   1.2366E-04  0.0080
   1.0658E+01   1.0917E+01   1.2433E-04  0.0079
   1.0917E+01   1.1183E+01   1.2485E-04  0.0078
   1.1183E+01   1.1455E+01   1.2562E-04  0.0076
   1.1455E+01   1.1733E+01   1.2530E-04  0.0076
   1.1733E+01   1.2019E+01   1.2622E-04  0.0074
   1.2019E+01   1.2311E+01   1.2598E-04  0.0074
   1.2311E+01   1.2611E+01   1.2361E-04  0.0073
   1.2611E+01   1.2918E+01   1.2388E-04  0.0073
   1.2918E+01   1.3232E+01   1.2442E-04  0.0072
   1.3232E+01   1.3554E+01   1.2361E-04  0.0071
   1.3554E+01   1.3884E+01   1.2043E-04  0.0071
   1.3884E+01   1.4222E+01   1.1947E-04  0.0070
   1.4222E+01   1.4568E+01   1.1943E-04  0.0070
   1.4568E+01   1.4922E+01   1.1629E-04  0.0070
   1.4922E+01   1.5285E+01   1.1415E-04  0.0069
   1.5285E+01   1.5657E+01   1.1153E-04  0.0069
   1.5657E+01   1.6038E+01   1.0863E-04  0.0070
   1.6038E+01   1.6428E+01   1.0665E-04  0.0069
   1.6428E+01   1.6828E+01   1.0272E-04  0.0070
   1.6828E+01   1.7237E+01   9.8336E-05  0.0070
   1.7237E+01   1.7657E+01   9.5039E-05  0.0071
   1.7657E+01   1.8086E+01   9.0660E-05  0.0072
   1.8086E+01   1.8526E+01   8.5521E-05  0.0073
   1.8526E+01   1.8977E+01   8.1990E-05  0.0074
   1.8977E+01   1.9439E+01   7.6408E-05  0.0075
   1.9439E+01   1.9912E+01   7.2382E-05  0.0076
   1.9912E+01   2.0396E+01   7.0398E-05  0.0077
   2.0396E+01   2.0893E+01   6.5970E-05  0.0078
   2.0893E+01   2.1401E+01   6.1290E-05  0.0080
   2.1401E+01   2.1922E+01   5.6147E-05  0.0083
   2.1922E+01   2.2455E+01   5.2099E-05  0.0085
   2.2455E+01   2.3001E+01   4.8094E-05  0.0087
   2.3001E+01   2.3561E+01   4.4168E-05  0.0090
   2.3561E+01   2.4134E+01   4.0802E-05  0.0092
   2.4134E+01   2.4721E+01   3.7629E-05  0.0095
   2.4721E+01   2.5323E+01   3.6313E-05  0.0096
   2.5323E+01   2.5939E+01   3.3714E-05  0.0098
   2.5939E+01   2.6570E+01   3.1775E-05  0.0100
   2.6570E+01   2.7217E+01   3.0204E-05  0.0101
   2.7217E+01   2.7879E+01   2.8360E-05  0.0103
   2.7879E+01   2.8557E+01   2.6303E-05  0.0106
   2.8557E+01   2.9252E+01   2.4778E-05  0.0108
   2.9252E+01   2.9964E+01   2.2402E-05  0.0112
   2.9964E+01   3.0693E+01   2.0325E-05  0.0116
   3.0693E+01   3.1440E+01   1.9572E-05  0.0117
   3.1440E+01   3.2205E+01   1.8299E-05  0.0120
   3.2205E+01   3.2988E+01   1.7178E-05  0.0122
   3.2988E+01   3.3791E+01   1.6177E-05  0.0124
   3.3791E+01   3.4613E+01   1.4771E-05  0.0128
   3.4613E+01   3.5455E+01   1.3430E-05  0.0133
   3.5455E+01   3.6318E+01   1.0797E-05  0.0147
   3.6318E+01   3.7201E+01   8.6348E-06  0.0162
   3.7201E+01   3.8106E+01   6.4454E-06  0.0185
   3.8106E+01   3.9034E+01   4.8104E-06  0.0212
   3.9034E+01   3.9983E+01   2.9988E-06  0.0265
   3.9983E+01   4.0956E+01   1.3137E-06  0.0396
   4.0956E+01   4.1953E+01   1.9669E-07  0.1010
   4.1953E+01   4.2973E+01   0.0000E+00  0.0000
   4.2973E+01   4.4019E+01   0.0000E+00  0.0000
   4.4019E+01   4.5090E+01   0.0000E+00  0.0000
   4.5090E+01   4.6187E+01   0.0000E+00  0.0000
   4.6187E+01   4.7311E+01   0.0000E+00  0.0000
   4.7311E+01   4.8462E+01   0.0000E+00  0.0000
   4.8462E+01   4.9641E+01   0.0000E+00  0.0000
   4.9641E+01   5.0849E+01   0.0000E+00  0.0000
   5.0849E+01   5.2086E+01   0.0000E+00  0.0000
   5.2086E+01   5.3353E+01   0.0000E+00  0.0000
   5.3353E+01   5.4651E+01   0.0000E+00  0.0000
   5.4651E+01   5.5981E+01   0.0000E+00  0.0000
   5.5981E+01   5.7343E+01   0.0000E+00  0.0000
   5.7343E+01   5.8738E+01   0.0000E+00  0.0000
   5.8738E+01   6.0168E+01   0.0000E+00  0.0000
   6.0168E+01   6.1632E+01   0.0000E+00  0.0000
   6.1632E+01   6.3131E+01   0.0000E+00  0.0000
   6.3131E+01   6.4667E+01   0.0000E+00  0.0000
   6.4667E+01   6.6240E+01   0.0000E+00  0.0000
   6.6240E+01   6.7852E+01   0.0000E+00  0.0000
   6.7852E+01   6.9503E+01   0.0000E+00  0.0000
   6.9503E+01   7.1194E+01   0.0000E+00  0.0000
   7.1194E+01   7.2926E+01   0.0000E+00  0.0000
   7.2926E+01   7.4701E+01   0.0000E+00  0.0000
   7.4701E+01   7.6518E+01   0.0000E+00  0.0000
   7.6518E+01   7.8380E+01   0.0000E+00  0.0000
   7.8380E+01   8.0287E+01   0.0000E+00  0.0000
   8.0287E+01   8.2240E+01   0.0000E+00  0.0000
   8.2240E+01   8.4241E+01   0.0000E+00  0.0000
   8.4241E+01   8.6291E+01   0.0000E+00  0.0000
   8.6291E+01   8.8391E+01   0.0000E+00  0.0000
   8.8391E+01   9.0541E+01   0.0000E+00  0.0000
   9.0541E+01   9.2744E+01   0.0000E+00  0.0000
   9.2744E+01   9.5001E+01   0.0000E+00  0.0000
   9.5001E+01   9.7312E+01   0.0000E+00  0.0000
   9.7312E+01   9.9680E+01   0.0000E+00  0.0000
   9.9680E+01   1.0211E+02   0.0000E+00  0.0000
   1.0211E+02   1.0459E+02   0.0000E+00  0.0000
   1.0459E+02   1.0713E+02   0.0000E+00  0.0000
   1.0713E+02   1.0974E+02   0.0000E+00  0.0000
   1.0974E+02   1.1241E+02   0.0000E+00  0.0000
   1.1241E+02   1.1515E+02   0.0000E+00  0.0000
   1.1515E+02   1.1795E+02   0.0000E+00  0.0000
   1.1795E+02   1.2082E+02   0.0000E+00  0.0000
   1.2082E+02   1.2376E+02   0.0000E+00  0.0000
   1.2376E+02   1.2677E+02   0.0000E+00  0.0000
   1.2677E+02   1.2985E+02   0.0000E+00  0.0000
   1.2985E+02   1.3301E+02   0.0000E+00  0.0000
   1.3301E+02   1.3625E+02   0.0000E+00  0.0000
   1.3625E+02   1.3956E+02   0.0000E+00  0.0000
   1.3956E+02   1.4296E+02   0.0000E+00  0.0000
   1.4296E+02   1.4644E+02   0.0000E+00  0.0000
   1.4644E+02   1.5000E+02   0.0000E+00  0.0000

#   sum over                 1.7548E-05
'no. =    1   reg = 104 - 204'
msuc: {\huge [t-cross] in region mesh}
msdr: {\it plotted by \ANGEL \version}
msdl: {\it calculated by \PHITS  3.26}
wt: s(0.7)
\vspace{-3}
  region surface crossing
  area  &=&   1.0000E+00 [cm^2]
e:
 
# Information for Restart Calculation
# This calculation was newly started
# istdev =  2 # 1:Batch variance, 2:History variance
# resc2  = 5.00000000000000000E+08 # Total source weight or Total source weight / maxcas
# resc3  = 5.00000000000000000E+08 # Total history number or Total batch number
# maxcas =   500000000 # History / Batch, only used for istdev=1
# bitrseed = 1101101111010011011000101101110001100110110010110001010100010001 # bit data of rseed
