[ T-Cross ]
    title = [t-cross] in region mesh
     mesh =  reg            # mesh type is region-wise
      reg =    1            # number of crossing regions
      non     r-from    r-to       area
      1       108       208        1.000000    
   e-type =    3            # e-mesh is log given by emin, emax and ne
     emin =  1.0000000E-02  # minimum value of e-mesh points
     emax =   150.0000      # maximum value of e-mesh points
#    edel =  2.4039514E-02  # mesh width of e-mesh points
       ne =    400          # number of e-mesh points
#    data = ( e(i), i = 1, ne + 1 )
#           1.00000E-02  1.02433E-02  1.04925E-02  1.07478E-02  1.10093E-02
#           1.12772E-02  1.15516E-02  1.18326E-02  1.21205E-02  1.24154E-02
#           1.27175E-02  1.30269E-02  1.33439E-02  1.36686E-02  1.40011E-02
#           1.43418E-02  1.46907E-02  1.50482E-02  1.54143E-02  1.57894E-02
#           1.61735E-02  1.65670E-02  1.69701E-02  1.73830E-02  1.78060E-02
#           1.82392E-02  1.86830E-02  1.91375E-02  1.96032E-02  2.00801E-02
#           2.05687E-02  2.10692E-02  2.15818E-02  2.21069E-02  2.26448E-02
#           2.31957E-02  2.37601E-02  2.43382E-02  2.49304E-02  2.55369E-02
#           2.61583E-02  2.67947E-02  2.74467E-02  2.81145E-02  2.87985E-02
#           2.94992E-02  3.02169E-02  3.09521E-02  3.17052E-02  3.24766E-02
#           3.32668E-02  3.40762E-02  3.49053E-02  3.57546E-02  3.66246E-02
#           3.75157E-02  3.84284E-02  3.93634E-02  4.03212E-02  4.13022E-02
#           4.23071E-02  4.33365E-02  4.43909E-02  4.54710E-02  4.65773E-02
#           4.77106E-02  4.88714E-02  5.00605E-02  5.12785E-02  5.25262E-02
#           5.38042E-02  5.51133E-02  5.64542E-02  5.78278E-02  5.92348E-02
#           6.06760E-02  6.21523E-02  6.36645E-02  6.52135E-02  6.68002E-02
#           6.84255E-02  7.00904E-02  7.17957E-02  7.35426E-02  7.53319E-02
#           7.71648E-02  7.90423E-02  8.09655E-02  8.29354E-02  8.49533E-02
#           8.70203E-02  8.91376E-02  9.13064E-02  9.35279E-02  9.58035E-02
#           9.81345E-02  1.00522E-01  1.02968E-01  1.05473E-01  1.08040E-01
#           1.10668E-01  1.13361E-01  1.16119E-01  1.18944E-01  1.21838E-01
#           1.24803E-01  1.27839E-01  1.30950E-01  1.34136E-01  1.37399E-01
#           1.40742E-01  1.44167E-01  1.47675E-01  1.51268E-01  1.54948E-01
#           1.58718E-01  1.62580E-01  1.66535E-01  1.70587E-01  1.74738E-01
#           1.78989E-01  1.83344E-01  1.87805E-01  1.92375E-01  1.97055E-01
#           2.01850E-01  2.06761E-01  2.11792E-01  2.16945E-01  2.22223E-01
#           2.27630E-01  2.33169E-01  2.38842E-01  2.44653E-01  2.50605E-01
#           2.56703E-01  2.62949E-01  2.69346E-01  2.75900E-01  2.82613E-01
#           2.89489E-01  2.96532E-01  3.03747E-01  3.11138E-01  3.18708E-01
#           3.26462E-01  3.34405E-01  3.42542E-01  3.50876E-01  3.59413E-01
#           3.68158E-01  3.77116E-01  3.86291E-01  3.95690E-01  4.05317E-01
#           4.15179E-01  4.25281E-01  4.35628E-01  4.46227E-01  4.57084E-01
#           4.68205E-01  4.79597E-01  4.91266E-01  5.03219E-01  5.15463E-01
#           5.28005E-01  5.40851E-01  5.54011E-01  5.67490E-01  5.81298E-01
#           5.95441E-01  6.09929E-01  6.24769E-01  6.39970E-01  6.55541E-01
#           6.71491E-01  6.87828E-01  7.04564E-01  7.21706E-01  7.39266E-01
#           7.57253E-01  7.75678E-01  7.94551E-01  8.13883E-01  8.33685E-01
#           8.53969E-01  8.74747E-01  8.96030E-01  9.17831E-01  9.40163E-01
#           9.63038E-01  9.86469E-01  1.01047E+00  1.03506E+00  1.06024E+00
#           1.08604E+00  1.11246E+00  1.13953E+00  1.16725E+00  1.19565E+00
#           1.22474E+00  1.25454E+00  1.28507E+00  1.31633E+00  1.34836E+00
#           1.38117E+00  1.41477E+00  1.44920E+00  1.48446E+00  1.52057E+00
#           1.55757E+00  1.59547E+00  1.63429E+00  1.67405E+00  1.71478E+00
#           1.75650E+00  1.79924E+00  1.84302E+00  1.88786E+00  1.93379E+00
#           1.98084E+00  2.02904E+00  2.07841E+00  2.12898E+00  2.18078E+00
#           2.23384E+00  2.28819E+00  2.34386E+00  2.40089E+00  2.45930E+00
#           2.51914E+00  2.58043E+00  2.64322E+00  2.70753E+00  2.77341E+00
#           2.84088E+00  2.91001E+00  2.98081E+00  3.05333E+00  3.12762E+00
#           3.20372E+00  3.28167E+00  3.36152E+00  3.44330E+00  3.52708E+00
#           3.61290E+00  3.70080E+00  3.79085E+00  3.88308E+00  3.97756E+00
#           4.07434E+00  4.17347E+00  4.27501E+00  4.37903E+00  4.48557E+00
#           4.59471E+00  4.70650E+00  4.82102E+00  4.93832E+00  5.05847E+00
#           5.18155E+00  5.30762E+00  5.43676E+00  5.56904E+00  5.70453E+00
#           5.84333E+00  5.98550E+00  6.13114E+00  6.28031E+00  6.43312E+00
#           6.58964E+00  6.74997E+00  6.91420E+00  7.08243E+00  7.25475E+00
#           7.43126E+00  7.61207E+00  7.79728E+00  7.98700E+00  8.18133E+00
#           8.38038E+00  8.58428E+00  8.79315E+00  9.00709E+00  9.22624E+00
#           9.45072E+00  9.68067E+00  9.91620E+00  1.01575E+01  1.04046E+01
#           1.06578E+01  1.09171E+01  1.11827E+01  1.14548E+01  1.17335E+01
#           1.20190E+01  1.23114E+01  1.26109E+01  1.29178E+01  1.32321E+01
#           1.35540E+01  1.38838E+01  1.42216E+01  1.45676E+01  1.49221E+01
#           1.52851E+01  1.56570E+01  1.60380E+01  1.64282E+01  1.68279E+01
#           1.72374E+01  1.76568E+01  1.80864E+01  1.85264E+01  1.89772E+01
#           1.94389E+01  1.99119E+01  2.03963E+01  2.08926E+01  2.14009E+01
#           2.19216E+01  2.24550E+01  2.30014E+01  2.35610E+01  2.41343E+01
#           2.47215E+01  2.53230E+01  2.59391E+01  2.65702E+01  2.72167E+01
#           2.78789E+01  2.85572E+01  2.92520E+01  2.99637E+01  3.06928E+01
#           3.14396E+01  3.22045E+01  3.29881E+01  3.37907E+01  3.46128E+01
#           3.54550E+01  3.63177E+01  3.72013E+01  3.81064E+01  3.90336E+01
#           3.99833E+01  4.09561E+01  4.19526E+01  4.29734E+01  4.40189E+01
#           4.50900E+01  4.61870E+01  4.73108E+01  4.84619E+01  4.96410E+01
#           5.08488E+01  5.20860E+01  5.33533E+01  5.46514E+01  5.59812E+01
#           5.73432E+01  5.87384E+01  6.01676E+01  6.16315E+01  6.31311E+01
#           6.46671E+01  6.62405E+01  6.78522E+01  6.95031E+01  7.11941E+01
#           7.29263E+01  7.47007E+01  7.65182E+01  7.83800E+01  8.02870E+01
#           8.22405E+01  8.42414E+01  8.62911E+01  8.83906E+01  9.05412E+01
#           9.27442E+01  9.50007E+01  9.73122E+01  9.96799E+01  1.02105E+02
#           1.04589E+02  1.07134E+02  1.09741E+02  1.12411E+02  1.15146E+02
#           1.17948E+02  1.20817E+02  1.23757E+02  1.26768E+02  1.29852E+02
#           1.33012E+02  1.36248E+02  1.39563E+02  1.42959E+02  1.46437E+02
#           1.50000E+02
     unit =    2            # unit is [1/cm^2/(MeV/n)/source]
     axis =  eng            # axis of output
     file = detector-09.out  # file name of output for the above axis
   output = f-curr          # surface crossing forward current spectrum
     part =  neutron  
# kf/name :  2112     
#    used :        main (  %)        temp (  %)       total (  %)
#  memory :         414 (  0)           0 (  0)         414 (  0)

#------------------------------------------------------------------------------
#newpage:
#   no. =    1   reg = 108 - 208

x: Energy [MeV/n]
y:  F-Curr [1/cm^2/(MeV/n)/source]         
p: xlog ylog afac(0.8) form(0.9)
h: n            x            y(neutron ),hh0l   n 
#  e-lower      e-upper      neutron     r.err 
   1.0000E-02   1.0243E-02   3.0743E-03  0.0366
   1.0243E-02   1.0493E-02   2.7806E-03  0.0380
   1.0493E-02   1.0748E-02   3.0357E-03  0.0359
   1.0748E-02   1.1009E-02   2.9483E-03  0.0360
   1.1009E-02   1.1277E-02   2.8671E-03  0.0361
   1.1277E-02   1.1552E-02   2.9885E-03  0.0349
   1.1552E-02   1.1833E-02   2.9958E-03  0.0345
   1.1833E-02   1.2121E-02   2.9524E-03  0.0343
   1.2121E-02   1.2415E-02   2.7195E-03  0.0353
   1.2415E-02   1.2718E-02   2.8999E-03  0.0338
   1.2718E-02   1.3027E-02   3.1671E-03  0.0319
   1.3027E-02   1.3344E-02   2.8774E-03  0.0331
   1.3344E-02   1.3669E-02   3.0847E-03  0.0316
   1.3669E-02   1.4001E-02   3.0310E-03  0.0315
   1.4001E-02   1.4342E-02   3.0177E-03  0.0312
   1.4342E-02   1.4691E-02   2.8772E-03  0.0316
   1.4691E-02   1.5048E-02   2.9068E-03  0.0310
   1.5048E-02   1.5414E-02   3.0918E-03  0.0297
   1.5414E-02   1.5789E-02   3.1196E-03  0.0292
   1.5789E-02   1.6174E-02   2.9362E-03  0.0298
   1.6174E-02   1.6567E-02   3.1231E-03  0.0285
   1.6567E-02   1.6970E-02   3.0886E-03  0.0283
   1.6970E-02   1.7383E-02   2.9862E-03  0.0285
   1.7383E-02   1.7806E-02   3.0453E-03  0.0279
   1.7806E-02   1.8239E-02   3.1415E-03  0.0271
   1.8239E-02   1.8683E-02   3.0804E-03  0.0270
   1.8683E-02   1.9138E-02   3.1700E-03  0.0263
   1.9138E-02   1.9603E-02   3.0292E-03  0.0266
   1.9603E-02   2.0080E-02   2.9562E-03  0.0266
   2.0080E-02   2.0569E-02   3.2033E-03  0.0253
   2.0569E-02   2.1069E-02   3.0752E-03  0.0255
   2.1069E-02   2.1582E-02   3.0626E-03  0.0252
   2.1582E-02   2.2107E-02   3.2870E-03  0.0241
   2.2107E-02   2.2645E-02   3.1094E-03  0.0245
   2.2645E-02   2.3196E-02   3.0238E-03  0.0245
   2.3196E-02   2.3760E-02   3.0397E-03  0.0241
   2.3760E-02   2.4338E-02   3.1136E-03  0.0236
   2.4338E-02   2.4930E-02   3.1967E-03  0.0230
   2.4930E-02   2.5537E-02   3.1554E-03  0.0229
   2.5537E-02   2.6158E-02   3.1690E-03  0.0225
   2.6158E-02   2.6795E-02   3.1683E-03  0.0223
   2.6795E-02   2.7447E-02   2.9780E-03  0.0227
   2.7447E-02   2.8114E-02   3.2570E-03  0.0214
   2.8114E-02   2.8799E-02   3.2512E-03  0.0212
   2.8799E-02   2.9499E-02   3.1769E-03  0.0212
   2.9499E-02   3.0217E-02   3.1836E-03  0.0209
   3.0217E-02   3.0952E-02   3.2420E-03  0.0205
   3.0952E-02   3.1705E-02   3.2360E-03  0.0203
   3.1705E-02   3.2477E-02   3.3212E-03  0.0198
   3.2477E-02   3.3267E-02   3.1942E-03  0.0199
   3.3267E-02   3.4076E-02   3.2548E-03  0.0195
   3.4076E-02   3.4905E-02   3.2071E-03  0.0194
   3.4905E-02   3.5755E-02   3.1568E-03  0.0193
   3.5755E-02   3.6625E-02   3.2577E-03  0.0188
   3.6625E-02   3.7516E-02   3.2892E-03  0.0185
   3.7516E-02   3.8428E-02   3.3962E-03  0.0180
   3.8428E-02   3.9363E-02   3.2941E-03  0.0180
   3.9363E-02   4.0321E-02   3.3866E-03  0.0176
   4.0321E-02   4.1302E-02   3.3785E-03  0.0174
   4.1302E-02   4.2307E-02   3.3485E-03  0.0172
   4.2307E-02   4.3337E-02   3.3419E-03  0.0170
   4.3337E-02   4.4391E-02   3.3535E-03  0.0168
   4.4391E-02   4.5471E-02   3.2137E-03  0.0170
   4.5471E-02   4.6577E-02   3.3217E-03  0.0165
   4.6577E-02   4.7711E-02   3.3249E-03  0.0163
   4.7711E-02   4.8871E-02   3.3648E-03  0.0160
   4.8871E-02   5.0061E-02   3.2546E-03  0.0161
   5.0061E-02   5.1279E-02   3.3177E-03  0.0157
   5.1279E-02   5.2526E-02   3.3647E-03  0.0154
   5.2526E-02   5.3804E-02   3.3638E-03  0.0153
   5.3804E-02   5.5113E-02   3.3183E-03  0.0152
   5.5113E-02   5.6454E-02   3.4300E-03  0.0147
   5.6454E-02   5.7828E-02   3.3890E-03  0.0147
   5.7828E-02   5.9235E-02   3.3991E-03  0.0145
   5.9235E-02   6.0676E-02   3.3343E-03  0.0144
   6.0676E-02   6.2152E-02   3.3828E-03  0.0142
   6.2152E-02   6.3665E-02   3.4403E-03  0.0139
   6.3665E-02   6.5214E-02   3.4951E-03  0.0136
   6.5214E-02   6.6800E-02   3.4947E-03  0.0134
   6.6800E-02   6.8426E-02   3.5246E-03  0.0132
   6.8426E-02   7.0090E-02   3.3997E-03  0.0133
   7.0090E-02   7.1796E-02   3.4251E-03  0.0131
   7.1796E-02   7.3543E-02   3.5481E-03  0.0127
   7.3543E-02   7.5332E-02   3.4437E-03  0.0127
   7.5332E-02   7.7165E-02   3.3264E-03  0.0128
   7.7165E-02   7.9042E-02   3.4256E-03  0.0125
   7.9042E-02   8.0965E-02   3.5421E-03  0.0121
   8.0965E-02   8.2935E-02   3.4590E-03  0.0121
   8.2935E-02   8.4953E-02   3.4794E-03  0.0119
   8.4953E-02   8.7020E-02   3.4858E-03  0.0118
   8.7020E-02   8.9138E-02   3.5135E-03  0.0116
   8.9138E-02   9.1306E-02   3.5084E-03  0.0115
   9.1306E-02   9.3528E-02   3.4530E-03  0.0114
   9.3528E-02   9.5804E-02   3.5224E-03  0.0112
   9.5804E-02   9.8134E-02   3.4629E-03  0.0111
   9.8134E-02   1.0052E-01   3.4847E-03  0.0110
   1.0052E-01   1.0297E-01   3.5727E-03  0.0107
   1.0297E-01   1.0547E-01   3.5060E-03  0.0107
   1.0547E-01   1.0804E-01   3.4749E-03  0.0106
   1.0804E-01   1.1067E-01   3.5870E-03  0.0103
   1.1067E-01   1.1336E-01   3.5274E-03  0.0103
   1.1336E-01   1.1612E-01   3.5901E-03  0.0100
   1.1612E-01   1.1894E-01   3.5459E-03  0.0100
   1.1894E-01   1.2184E-01   3.6353E-03  0.0097
   1.2184E-01   1.2480E-01   3.6073E-03  0.0097
   1.2480E-01   1.2784E-01   3.6202E-03  0.0095
   1.2784E-01   1.3095E-01   3.6157E-03  0.0094
   1.3095E-01   1.3414E-01   3.5870E-03  0.0094
   1.3414E-01   1.3740E-01   3.5949E-03  0.0092
   1.3740E-01   1.4074E-01   3.6452E-03  0.0091
   1.4074E-01   1.4417E-01   3.6024E-03  0.0090
   1.4417E-01   1.4767E-01   3.6734E-03  0.0088
   1.4767E-01   1.5127E-01   3.6031E-03  0.0088
   1.5127E-01   1.5495E-01   3.5816E-03  0.0087
   1.5495E-01   1.5872E-01   3.6148E-03  0.0086
   1.5872E-01   1.6258E-01   3.6465E-03  0.0084
   1.6258E-01   1.6654E-01   3.5807E-03  0.0084
   1.6654E-01   1.7059E-01   3.6012E-03  0.0083
   1.7059E-01   1.7474E-01   3.6539E-03  0.0081
   1.7474E-01   1.7899E-01   3.6257E-03  0.0081
   1.7899E-01   1.8334E-01   3.6681E-03  0.0079
   1.8334E-01   1.8781E-01   3.6479E-03  0.0078
   1.8781E-01   1.9237E-01   3.6094E-03  0.0078
   1.9237E-01   1.9706E-01   3.6162E-03  0.0077
   1.9706E-01   2.0185E-01   3.6296E-03  0.0076
   2.0185E-01   2.0676E-01   3.6658E-03  0.0075
   2.0676E-01   2.1179E-01   3.6287E-03  0.0074
   2.1179E-01   2.1694E-01   3.5954E-03  0.0073
   2.1694E-01   2.2222E-01   3.6336E-03  0.0072
   2.2222E-01   2.2763E-01   3.6157E-03  0.0072
   2.2763E-01   2.3317E-01   3.6135E-03  0.0071
   2.3317E-01   2.3884E-01   3.6225E-03  0.0070
   2.3884E-01   2.4465E-01   3.6256E-03  0.0069
   2.4465E-01   2.5061E-01   3.5654E-03  0.0069
   2.5061E-01   2.5670E-01   3.5617E-03  0.0068
   2.5670E-01   2.6295E-01   3.5554E-03  0.0067
   2.6295E-01   2.6935E-01   3.5432E-03  0.0066
   2.6935E-01   2.7590E-01   3.5261E-03  0.0066
   2.7590E-01   2.8261E-01   3.5423E-03  0.0065
   2.8261E-01   2.8949E-01   3.5146E-03  0.0064
   2.8949E-01   2.9653E-01   3.4948E-03  0.0064
   2.9653E-01   3.0375E-01   3.5334E-03  0.0063
   3.0375E-01   3.1114E-01   3.5036E-03  0.0062
   3.1114E-01   3.1871E-01   3.4945E-03  0.0061
   3.1871E-01   3.2646E-01   3.4981E-03  0.0061
   3.2646E-01   3.3441E-01   3.4839E-03  0.0060
   3.3441E-01   3.4254E-01   3.4505E-03  0.0060
   3.4254E-01   3.5088E-01   3.3856E-03  0.0060
   3.5088E-01   3.5941E-01   3.3815E-03  0.0059
   3.5941E-01   3.6816E-01   3.3798E-03  0.0058
   3.6816E-01   3.7712E-01   3.3357E-03  0.0058
   3.7712E-01   3.8629E-01   3.3442E-03  0.0057
   3.8629E-01   3.9569E-01   3.2973E-03  0.0057
   3.9569E-01   4.0532E-01   3.2767E-03  0.0056
   4.0532E-01   4.1518E-01   3.2483E-03  0.0056
   4.1518E-01   4.2528E-01   3.2270E-03  0.0055
   4.2528E-01   4.3563E-01   3.2292E-03  0.0055
   4.3563E-01   4.4623E-01   3.2195E-03  0.0054
   4.4623E-01   4.5708E-01   3.2045E-03  0.0054
   4.5708E-01   4.6821E-01   3.1439E-03  0.0053
   4.6821E-01   4.7960E-01   3.1145E-03  0.0053
   4.7960E-01   4.9127E-01   3.0724E-03  0.0053
   4.9127E-01   5.0322E-01   3.0773E-03  0.0052
   5.0322E-01   5.1546E-01   3.0284E-03  0.0052
   5.1546E-01   5.2800E-01   2.9790E-03  0.0052
   5.2800E-01   5.4085E-01   2.9549E-03  0.0051
   5.4085E-01   5.5401E-01   2.9217E-03  0.0051
   5.5401E-01   5.6749E-01   2.8594E-03  0.0051
   5.6749E-01   5.8130E-01   2.8067E-03  0.0051
   5.8130E-01   5.9544E-01   2.7848E-03  0.0050
   5.9544E-01   6.0993E-01   2.7412E-03  0.0050
   6.0993E-01   6.2477E-01   2.6984E-03  0.0050
   6.2477E-01   6.3997E-01   2.6782E-03  0.0050
   6.3997E-01   6.5554E-01   2.6166E-03  0.0050
   6.5554E-01   6.7149E-01   2.5881E-03  0.0049
   6.7149E-01   6.8783E-01   2.5089E-03  0.0049
   6.8783E-01   7.0456E-01   2.4571E-03  0.0049
   7.0456E-01   7.2171E-01   2.4159E-03  0.0049
   7.2171E-01   7.3927E-01   2.3560E-03  0.0049
   7.3927E-01   7.5725E-01   2.3056E-03  0.0049
   7.5725E-01   7.7568E-01   2.2476E-03  0.0049
   7.7568E-01   7.9455E-01   2.1869E-03  0.0049
   7.9455E-01   8.1388E-01   2.1290E-03  0.0049
   8.1388E-01   8.3368E-01   2.0820E-03  0.0049
   8.3368E-01   8.5397E-01   2.0133E-03  0.0049
   8.5397E-01   8.7475E-01   1.9680E-03  0.0049
   8.7475E-01   8.9603E-01   1.9021E-03  0.0050
   8.9603E-01   9.1783E-01   1.8329E-03  0.0050
   9.1783E-01   9.4016E-01   1.7648E-03  0.0050
   9.4016E-01   9.6304E-01   1.7063E-03  0.0051
   9.6304E-01   9.8647E-01   1.6211E-03  0.0051
   9.8647E-01   1.0105E+00   1.5779E-03  0.0051
   1.0105E+00   1.0351E+00   1.5705E-03  0.0051
   1.0351E+00   1.0602E+00   1.5878E-03  0.0050
   1.0602E+00   1.0860E+00   1.5960E-03  0.0049
   1.0860E+00   1.1125E+00   1.6104E-03  0.0048
   1.1125E+00   1.1395E+00   1.6347E-03  0.0048
   1.1395E+00   1.1673E+00   1.6646E-03  0.0047
   1.1673E+00   1.1957E+00   1.7164E-03  0.0045
   1.1957E+00   1.2247E+00   1.7333E-03  0.0045
   1.2247E+00   1.2545E+00   1.7296E-03  0.0044
   1.2545E+00   1.2851E+00   1.7335E-03  0.0043
   1.2851E+00   1.3163E+00   1.7314E-03  0.0043
   1.3163E+00   1.3484E+00   1.7446E-03  0.0042
   1.3484E+00   1.3812E+00   1.7722E-03  0.0041
   1.3812E+00   1.4148E+00   1.8060E-03  0.0041
   1.4148E+00   1.4492E+00   1.7827E-03  0.0040
   1.4492E+00   1.4845E+00   1.7898E-03  0.0040
   1.4845E+00   1.5206E+00   1.7609E-03  0.0040
   1.5206E+00   1.5576E+00   1.7650E-03  0.0039
   1.5576E+00   1.5955E+00   1.7406E-03  0.0039
   1.5955E+00   1.6343E+00   1.7631E-03  0.0038
   1.6343E+00   1.6741E+00   1.7718E-03  0.0038
   1.6741E+00   1.7148E+00   1.7904E-03  0.0037
   1.7148E+00   1.7565E+00   1.7761E-03  0.0037
   1.7565E+00   1.7992E+00   1.7660E-03  0.0036
   1.7992E+00   1.8430E+00   1.7476E-03  0.0036
   1.8430E+00   1.8879E+00   1.7261E-03  0.0036
   1.8879E+00   1.9338E+00   1.7040E-03  0.0036
   1.9338E+00   1.9808E+00   1.7073E-03  0.0035
   1.9808E+00   2.0290E+00   1.7078E-03  0.0035
   2.0290E+00   2.0784E+00   1.6925E-03  0.0035
   2.0784E+00   2.1290E+00   1.6558E-03  0.0035
   2.1290E+00   2.1808E+00   1.6217E-03  0.0035
   2.1808E+00   2.2338E+00   1.6044E-03  0.0034
   2.2338E+00   2.2882E+00   1.5801E-03  0.0034
   2.2882E+00   2.3439E+00   1.5674E-03  0.0034
   2.3439E+00   2.4009E+00   1.5486E-03  0.0034
   2.4009E+00   2.4593E+00   1.5327E-03  0.0033
   2.4593E+00   2.5191E+00   1.4944E-03  0.0033
   2.5191E+00   2.5804E+00   1.4640E-03  0.0033
   2.5804E+00   2.6432E+00   1.4367E-03  0.0033
   2.6432E+00   2.7075E+00   1.4074E-03  0.0033
   2.7075E+00   2.7734E+00   1.3678E-03  0.0033
   2.7734E+00   2.8409E+00   1.3448E-03  0.0033
   2.8409E+00   2.9100E+00   1.3168E-03  0.0033
   2.9100E+00   2.9808E+00   1.2836E-03  0.0033
   2.9808E+00   3.0533E+00   1.2738E-03  0.0033
   3.0533E+00   3.1276E+00   1.2401E-03  0.0033
   3.1276E+00   3.2037E+00   1.2008E-03  0.0033
   3.2037E+00   3.2817E+00   1.1637E-03  0.0033
   3.2817E+00   3.3615E+00   1.1309E-03  0.0033
   3.3615E+00   3.4433E+00   1.0970E-03  0.0033
   3.4433E+00   3.5271E+00   1.0575E-03  0.0034
   3.5271E+00   3.6129E+00   1.0344E-03  0.0034
   3.6129E+00   3.7008E+00   1.0035E-03  0.0034
   3.7008E+00   3.7908E+00   9.7928E-04  0.0034
   3.7908E+00   3.8831E+00   9.4545E-04  0.0034
   3.8831E+00   3.9776E+00   9.1675E-04  0.0034
   3.9776E+00   4.0743E+00   8.8832E-04  0.0034
   4.0743E+00   4.1735E+00   8.6123E-04  0.0034
   4.1735E+00   4.2750E+00   8.3340E-04  0.0034
   4.2750E+00   4.3790E+00   8.0733E-04  0.0035
   4.3790E+00   4.4856E+00   7.8329E-04  0.0035
   4.4856E+00   4.5947E+00   7.4665E-04  0.0035
   4.5947E+00   4.7065E+00   7.2921E-04  0.0035
   4.7065E+00   4.8210E+00   7.0382E-04  0.0035
   4.8210E+00   4.9383E+00   6.8305E-04  0.0035
   4.9383E+00   5.0585E+00   6.5957E-04  0.0036
   5.0585E+00   5.1815E+00   6.3623E-04  0.0036
   5.1815E+00   5.3076E+00   6.2049E-04  0.0036
   5.3076E+00   5.4368E+00   6.0303E-04  0.0036
   5.4368E+00   5.5690E+00   5.7697E-04  0.0036
   5.5690E+00   5.7045E+00   5.6260E-04  0.0036
   5.7045E+00   5.8433E+00   5.4552E-04  0.0036
   5.8433E+00   5.9855E+00   5.2303E-04  0.0037
   5.9855E+00   6.1311E+00   5.1318E-04  0.0037
   6.1311E+00   6.2803E+00   4.9855E-04  0.0037
   6.2803E+00   6.4331E+00   4.8276E-04  0.0037
   6.4331E+00   6.5896E+00   4.7143E-04  0.0037
   6.5896E+00   6.7500E+00   4.5366E-04  0.0037
   6.7500E+00   6.9142E+00   4.4782E-04  0.0037
   6.9142E+00   7.0824E+00   4.3405E-04  0.0037
   7.0824E+00   7.2548E+00   4.2674E-04  0.0037
   7.2548E+00   7.4313E+00   4.1367E-04  0.0037
   7.4313E+00   7.6121E+00   4.0464E-04  0.0037
   7.6121E+00   7.7973E+00   3.9589E-04  0.0037
   7.7973E+00   7.9870E+00   3.8818E-04  0.0037
   7.9870E+00   8.1813E+00   3.7788E-04  0.0037
   8.1813E+00   8.3804E+00   3.7172E-04  0.0037
   8.3804E+00   8.5843E+00   3.6410E-04  0.0037
   8.5843E+00   8.7931E+00   3.5914E-04  0.0037
   8.7931E+00   9.0071E+00   3.5328E-04  0.0036
   9.0071E+00   9.2262E+00   3.4781E-04  0.0036
   9.2262E+00   9.4507E+00   3.4005E-04  0.0036
   9.4507E+00   9.6807E+00   3.3551E-04  0.0036
   9.6807E+00   9.9162E+00   3.2791E-04  0.0036
   9.9162E+00   1.0157E+01   3.2595E-04  0.0036
   1.0157E+01   1.0405E+01   3.1740E-04  0.0036
   1.0405E+01   1.0658E+01   3.1176E-04  0.0036
   1.0658E+01   1.0917E+01   3.0861E-04  0.0035
   1.0917E+01   1.1183E+01   3.0313E-04  0.0035
   1.1183E+01   1.1455E+01   2.9825E-04  0.0035
   1.1455E+01   1.1733E+01   2.9360E-04  0.0035
   1.1733E+01   1.2019E+01   2.8824E-04  0.0035
   1.2019E+01   1.2311E+01   2.8495E-04  0.0035
   1.2311E+01   1.2611E+01   2.7840E-04  0.0035
   1.2611E+01   1.2918E+01   2.7434E-04  0.0034
   1.2918E+01   1.3232E+01   2.6911E-04  0.0034
   1.3232E+01   1.3554E+01   2.6406E-04  0.0034
   1.3554E+01   1.3884E+01   2.6103E-04  0.0034
   1.3884E+01   1.4222E+01   2.5477E-04  0.0034
   1.4222E+01   1.4568E+01   2.5126E-04  0.0034
   1.4568E+01   1.4922E+01   2.4631E-04  0.0034
   1.4922E+01   1.5285E+01   2.4083E-04  0.0034
   1.5285E+01   1.5657E+01   2.3559E-04  0.0034
   1.5657E+01   1.6038E+01   2.2972E-04  0.0034
   1.6038E+01   1.6428E+01   2.2460E-04  0.0034
   1.6428E+01   1.6828E+01   2.1872E-04  0.0034
   1.6828E+01   1.7237E+01   2.1303E-04  0.0034
   1.7237E+01   1.7657E+01   2.0826E-04  0.0034
   1.7657E+01   1.8086E+01   2.0162E-04  0.0034
   1.8086E+01   1.8526E+01   1.9540E-04  0.0034
   1.8526E+01   1.8977E+01   1.8976E-04  0.0034
   1.8977E+01   1.9439E+01   1.8408E-04  0.0034
   1.9439E+01   1.9912E+01   1.7677E-04  0.0035
   1.9912E+01   2.0396E+01   1.7325E-04  0.0035
   2.0396E+01   2.0893E+01   1.6675E-04  0.0035
   2.0893E+01   2.1401E+01   1.6079E-04  0.0035
   2.1401E+01   2.1922E+01   1.5509E-04  0.0035
   2.1922E+01   2.2455E+01   1.4842E-04  0.0036
   2.2455E+01   2.3001E+01   1.4364E-04  0.0036
   2.3001E+01   2.3561E+01   1.3675E-04  0.0036
   2.3561E+01   2.4134E+01   1.3078E-04  0.0037
   2.4134E+01   2.4721E+01   1.2476E-04  0.0037
   2.4721E+01   2.5323E+01   1.1919E-04  0.0037
   2.5323E+01   2.5939E+01   1.1277E-04  0.0038
   2.5939E+01   2.6570E+01   1.0766E-04  0.0038
   2.6570E+01   2.7217E+01   1.0157E-04  0.0039
   2.7217E+01   2.7879E+01   9.7019E-05  0.0039
   2.7879E+01   2.8557E+01   9.1117E-05  0.0040
   2.8557E+01   2.9252E+01   8.5258E-05  0.0041
   2.9252E+01   2.9964E+01   8.0943E-05  0.0042
   2.9964E+01   3.0693E+01   7.5919E-05  0.0043
   3.0693E+01   3.1440E+01   7.1981E-05  0.0043
   3.1440E+01   3.2205E+01   6.6702E-05  0.0044
   3.2205E+01   3.2988E+01   6.3068E-05  0.0045
   3.2988E+01   3.3791E+01   5.8788E-05  0.0046
   3.3791E+01   3.4613E+01   5.4407E-05  0.0047
   3.4613E+01   3.5455E+01   5.1256E-05  0.0048
   3.5455E+01   3.6318E+01   4.7515E-05  0.0049
   3.6318E+01   3.7201E+01   4.4631E-05  0.0050
   3.7201E+01   3.8106E+01   4.0886E-05  0.0052
   3.8106E+01   3.9034E+01   3.8233E-05  0.0053
   3.9034E+01   3.9983E+01   3.5372E-05  0.0055
   3.9983E+01   4.0956E+01   3.2936E-05  0.0056
   4.0956E+01   4.1953E+01   3.0296E-05  0.0058
   4.1953E+01   4.2973E+01   2.7550E-05  0.0060
   4.2973E+01   4.4019E+01   2.5434E-05  0.0061
   4.4019E+01   4.5090E+01   2.3682E-05  0.0063
   4.5090E+01   4.6187E+01   2.1790E-05  0.0065
   4.6187E+01   4.7311E+01   1.9827E-05  0.0067
   4.7311E+01   4.8462E+01   1.8414E-05  0.0069
   4.8462E+01   4.9641E+01   1.6646E-05  0.0071
   4.9641E+01   5.0849E+01   1.5213E-05  0.0074
   5.0849E+01   5.2086E+01   1.3793E-05  0.0077
   5.2086E+01   5.3353E+01   1.2539E-05  0.0079
   5.3353E+01   5.4651E+01   1.1289E-05  0.0083
   5.4651E+01   5.5981E+01   1.0494E-05  0.0085
   5.5981E+01   5.7343E+01   9.3042E-06  0.0089
   5.7343E+01   5.8738E+01   8.3801E-06  0.0092
   5.8738E+01   6.0168E+01   7.4730E-06  0.0097
   6.0168E+01   6.1632E+01   6.8269E-06  0.0100
   6.1632E+01   6.3131E+01   5.9712E-06  0.0106
   6.3131E+01   6.4667E+01   5.4114E-06  0.0110
   6.4667E+01   6.6240E+01   4.7172E-06  0.0116
   6.6240E+01   6.7852E+01   4.1075E-06  0.0123
   6.7852E+01   6.9503E+01   3.6174E-06  0.0129
   6.9503E+01   7.1194E+01   3.0791E-06  0.0139
   7.1194E+01   7.2926E+01   2.7237E-06  0.0146
   7.2926E+01   7.4701E+01   2.3535E-06  0.0155
   7.4701E+01   7.6518E+01   1.9070E-06  0.0170
   7.6518E+01   7.8380E+01   1.5620E-06  0.0185
   7.8380E+01   8.0287E+01   1.2459E-06  0.0205
   8.0287E+01   8.2240E+01   9.4909E-07  0.0232
   8.2240E+01   8.4241E+01   6.2919E-07  0.0282
   8.4241E+01   8.6291E+01   3.7762E-07  0.0359
   8.6291E+01   8.8391E+01   1.2384E-07  0.0620
   8.8391E+01   9.0541E+01   6.9748E-09  0.2582
   9.0541E+01   9.2744E+01   0.0000E+00  0.0000
   9.2744E+01   9.5001E+01   0.0000E+00  0.0000
   9.5001E+01   9.7312E+01   0.0000E+00  0.0000
   9.7312E+01   9.9680E+01   0.0000E+00  0.0000
   9.9680E+01   1.0211E+02   0.0000E+00  0.0000
   1.0211E+02   1.0459E+02   0.0000E+00  0.0000
   1.0459E+02   1.0713E+02   0.0000E+00  0.0000
   1.0713E+02   1.0974E+02   0.0000E+00  0.0000
   1.0974E+02   1.1241E+02   0.0000E+00  0.0000
   1.1241E+02   1.1515E+02   0.0000E+00  0.0000
   1.1515E+02   1.1795E+02   0.0000E+00  0.0000
   1.1795E+02   1.2082E+02   0.0000E+00  0.0000
   1.2082E+02   1.2376E+02   0.0000E+00  0.0000
   1.2376E+02   1.2677E+02   0.0000E+00  0.0000
   1.2677E+02   1.2985E+02   0.0000E+00  0.0000
   1.2985E+02   1.3301E+02   0.0000E+00  0.0000
   1.3301E+02   1.3625E+02   0.0000E+00  0.0000
   1.3625E+02   1.3956E+02   0.0000E+00  0.0000
   1.3956E+02   1.4296E+02   0.0000E+00  0.0000
   1.4296E+02   1.4644E+02   0.0000E+00  0.0000
   1.4644E+02   1.5000E+02   0.0000E+00  0.0000

#   sum over                 9.7614E-05
'no. =    1   reg = 108 - 208'
msuc: {\huge [t-cross] in region mesh}
msdr: {\it plotted by \ANGEL \version}
msdl: {\it calculated by \PHITS  3.26}
wt: s(0.7)
\vspace{-3}
  region surface crossing
  area  &=&   1.0000E+00 [cm^2]
e:
 
# Information for Restart Calculation
# This calculation was newly started
# istdev =  2 # 1:Batch variance, 2:History variance
# resc2  = 1.00000000000000000E+09 # Total source weight or Total source weight / maxcas
# resc3  = 1.00000000000000000E+09 # Total history number or Total batch number
# maxcas =   500000000 # History / Batch, only used for istdev=1
# bitrseed = 0001001110011001001001110000100100110111001111011100001000101100 # bit data of rseed
