[ T-Cross ]
    title = [t-cross] in region mesh
     mesh =  reg            # mesh type is region-wise
      reg =    1            # number of crossing regions
      non     r-from    r-to       area
      1       112       212        1.000000    
   e-type =    3            # e-mesh is log given by emin, emax and ne
     emin =  1.0000000E-02  # minimum value of e-mesh points
     emax =   150.0000      # maximum value of e-mesh points
#    edel =  2.4039514E-02  # mesh width of e-mesh points
       ne =    400          # number of e-mesh points
#    data = ( e(i), i = 1, ne + 1 )
#           1.00000E-02  1.02433E-02  1.04925E-02  1.07478E-02  1.10093E-02
#           1.12772E-02  1.15516E-02  1.18326E-02  1.21205E-02  1.24154E-02
#           1.27175E-02  1.30269E-02  1.33439E-02  1.36686E-02  1.40011E-02
#           1.43418E-02  1.46907E-02  1.50482E-02  1.54143E-02  1.57894E-02
#           1.61735E-02  1.65670E-02  1.69701E-02  1.73830E-02  1.78060E-02
#           1.82392E-02  1.86830E-02  1.91375E-02  1.96032E-02  2.00801E-02
#           2.05687E-02  2.10692E-02  2.15818E-02  2.21069E-02  2.26448E-02
#           2.31957E-02  2.37601E-02  2.43382E-02  2.49304E-02  2.55369E-02
#           2.61583E-02  2.67947E-02  2.74467E-02  2.81145E-02  2.87985E-02
#           2.94992E-02  3.02169E-02  3.09521E-02  3.17052E-02  3.24766E-02
#           3.32668E-02  3.40762E-02  3.49053E-02  3.57546E-02  3.66246E-02
#           3.75157E-02  3.84284E-02  3.93634E-02  4.03212E-02  4.13022E-02
#           4.23071E-02  4.33365E-02  4.43909E-02  4.54710E-02  4.65773E-02
#           4.77106E-02  4.88714E-02  5.00605E-02  5.12785E-02  5.25262E-02
#           5.38042E-02  5.51133E-02  5.64542E-02  5.78278E-02  5.92348E-02
#           6.06760E-02  6.21523E-02  6.36645E-02  6.52135E-02  6.68002E-02
#           6.84255E-02  7.00904E-02  7.17957E-02  7.35426E-02  7.53319E-02
#           7.71648E-02  7.90423E-02  8.09655E-02  8.29354E-02  8.49533E-02
#           8.70203E-02  8.91376E-02  9.13064E-02  9.35279E-02  9.58035E-02
#           9.81345E-02  1.00522E-01  1.02968E-01  1.05473E-01  1.08040E-01
#           1.10668E-01  1.13361E-01  1.16119E-01  1.18944E-01  1.21838E-01
#           1.24803E-01  1.27839E-01  1.30950E-01  1.34136E-01  1.37399E-01
#           1.40742E-01  1.44167E-01  1.47675E-01  1.51268E-01  1.54948E-01
#           1.58718E-01  1.62580E-01  1.66535E-01  1.70587E-01  1.74738E-01
#           1.78989E-01  1.83344E-01  1.87805E-01  1.92375E-01  1.97055E-01
#           2.01850E-01  2.06761E-01  2.11792E-01  2.16945E-01  2.22223E-01
#           2.27630E-01  2.33169E-01  2.38842E-01  2.44653E-01  2.50605E-01
#           2.56703E-01  2.62949E-01  2.69346E-01  2.75900E-01  2.82613E-01
#           2.89489E-01  2.96532E-01  3.03747E-01  3.11138E-01  3.18708E-01
#           3.26462E-01  3.34405E-01  3.42542E-01  3.50876E-01  3.59413E-01
#           3.68158E-01  3.77116E-01  3.86291E-01  3.95690E-01  4.05317E-01
#           4.15179E-01  4.25281E-01  4.35628E-01  4.46227E-01  4.57084E-01
#           4.68205E-01  4.79597E-01  4.91266E-01  5.03219E-01  5.15463E-01
#           5.28005E-01  5.40851E-01  5.54011E-01  5.67490E-01  5.81298E-01
#           5.95441E-01  6.09929E-01  6.24769E-01  6.39970E-01  6.55541E-01
#           6.71491E-01  6.87828E-01  7.04564E-01  7.21706E-01  7.39266E-01
#           7.57253E-01  7.75678E-01  7.94551E-01  8.13883E-01  8.33685E-01
#           8.53969E-01  8.74747E-01  8.96030E-01  9.17831E-01  9.40163E-01
#           9.63038E-01  9.86469E-01  1.01047E+00  1.03506E+00  1.06024E+00
#           1.08604E+00  1.11246E+00  1.13953E+00  1.16725E+00  1.19565E+00
#           1.22474E+00  1.25454E+00  1.28507E+00  1.31633E+00  1.34836E+00
#           1.38117E+00  1.41477E+00  1.44920E+00  1.48446E+00  1.52057E+00
#           1.55757E+00  1.59547E+00  1.63429E+00  1.67405E+00  1.71478E+00
#           1.75650E+00  1.79924E+00  1.84302E+00  1.88786E+00  1.93379E+00
#           1.98084E+00  2.02904E+00  2.07841E+00  2.12898E+00  2.18078E+00
#           2.23384E+00  2.28819E+00  2.34386E+00  2.40089E+00  2.45930E+00
#           2.51914E+00  2.58043E+00  2.64322E+00  2.70753E+00  2.77341E+00
#           2.84088E+00  2.91001E+00  2.98081E+00  3.05333E+00  3.12762E+00
#           3.20372E+00  3.28167E+00  3.36152E+00  3.44330E+00  3.52708E+00
#           3.61290E+00  3.70080E+00  3.79085E+00  3.88308E+00  3.97756E+00
#           4.07434E+00  4.17347E+00  4.27501E+00  4.37903E+00  4.48557E+00
#           4.59471E+00  4.70650E+00  4.82102E+00  4.93832E+00  5.05847E+00
#           5.18155E+00  5.30762E+00  5.43676E+00  5.56904E+00  5.70453E+00
#           5.84333E+00  5.98550E+00  6.13114E+00  6.28031E+00  6.43312E+00
#           6.58964E+00  6.74997E+00  6.91420E+00  7.08243E+00  7.25475E+00
#           7.43126E+00  7.61207E+00  7.79728E+00  7.98700E+00  8.18133E+00
#           8.38038E+00  8.58428E+00  8.79315E+00  9.00709E+00  9.22624E+00
#           9.45072E+00  9.68067E+00  9.91620E+00  1.01575E+01  1.04046E+01
#           1.06578E+01  1.09171E+01  1.11827E+01  1.14548E+01  1.17335E+01
#           1.20190E+01  1.23114E+01  1.26109E+01  1.29178E+01  1.32321E+01
#           1.35540E+01  1.38838E+01  1.42216E+01  1.45676E+01  1.49221E+01
#           1.52851E+01  1.56570E+01  1.60380E+01  1.64282E+01  1.68279E+01
#           1.72374E+01  1.76568E+01  1.80864E+01  1.85264E+01  1.89772E+01
#           1.94389E+01  1.99119E+01  2.03963E+01  2.08926E+01  2.14009E+01
#           2.19216E+01  2.24550E+01  2.30014E+01  2.35610E+01  2.41343E+01
#           2.47215E+01  2.53230E+01  2.59391E+01  2.65702E+01  2.72167E+01
#           2.78789E+01  2.85572E+01  2.92520E+01  2.99637E+01  3.06928E+01
#           3.14396E+01  3.22045E+01  3.29881E+01  3.37907E+01  3.46128E+01
#           3.54550E+01  3.63177E+01  3.72013E+01  3.81064E+01  3.90336E+01
#           3.99833E+01  4.09561E+01  4.19526E+01  4.29734E+01  4.40189E+01
#           4.50900E+01  4.61870E+01  4.73108E+01  4.84619E+01  4.96410E+01
#           5.08488E+01  5.20860E+01  5.33533E+01  5.46514E+01  5.59812E+01
#           5.73432E+01  5.87384E+01  6.01676E+01  6.16315E+01  6.31311E+01
#           6.46671E+01  6.62405E+01  6.78522E+01  6.95031E+01  7.11941E+01
#           7.29263E+01  7.47007E+01  7.65182E+01  7.83800E+01  8.02870E+01
#           8.22405E+01  8.42414E+01  8.62911E+01  8.83906E+01  9.05412E+01
#           9.27442E+01  9.50007E+01  9.73122E+01  9.96799E+01  1.02105E+02
#           1.04589E+02  1.07134E+02  1.09741E+02  1.12411E+02  1.15146E+02
#           1.17948E+02  1.20817E+02  1.23757E+02  1.26768E+02  1.29852E+02
#           1.33012E+02  1.36248E+02  1.39563E+02  1.42959E+02  1.46437E+02
#           1.50000E+02
     unit =    2            # unit is [1/cm^2/(MeV/n)/source]
     axis =  eng            # axis of output
     file = detector-13.out  # file name of output for the above axis
   output = f-curr          # surface crossing forward current spectrum
     part =  neutron  
# kf/name :  2112     
#    used :        main (  %)        temp (  %)       total (  %)
#  memory :         414 (  0)           0 (  0)         414 (  0)

#------------------------------------------------------------------------------
#newpage:
#   no. =    1   reg = 112 - 212

x: Energy [MeV/n]
y:  F-Curr [1/cm^2/(MeV/n)/source]         
p: xlog ylog afac(0.8) form(0.9)
h: n            x            y(neutron ),hh0l   n 
#  e-lower      e-upper      neutron     r.err 
   1.0000E-02   1.0243E-02   9.7572E-04  0.0290
   1.0243E-02   1.0493E-02   9.9989E-04  0.0283
   1.0493E-02   1.0748E-02   9.8241E-04  0.0282
   1.0748E-02   1.1009E-02   9.6825E-04  0.0281
   1.1009E-02   1.1277E-02   1.0177E-03  0.0271
   1.1277E-02   1.1552E-02   9.9787E-04  0.0270
   1.1552E-02   1.1833E-02   9.6457E-04  0.0272
   1.1833E-02   1.2121E-02   1.0483E-03  0.0257
   1.2121E-02   1.2415E-02   1.0186E-03  0.0258
   1.2415E-02   1.2718E-02   1.0362E-03  0.0253
   1.2718E-02   1.3027E-02   1.0141E-03  0.0252
   1.3027E-02   1.3344E-02   1.0225E-03  0.0248
   1.3344E-02   1.3669E-02   1.0152E-03  0.0246
   1.3669E-02   1.4001E-02   1.0157E-03  0.0243
   1.4001E-02   1.4342E-02   9.8251E-04  0.0244
   1.4342E-02   1.4691E-02   1.0076E-03  0.0239
   1.4691E-02   1.5048E-02   1.0393E-03  0.0232
   1.5048E-02   1.5414E-02   1.0021E-03  0.0233
   1.5414E-02   1.5789E-02   9.6789E-04  0.0235
   1.5789E-02   1.6174E-02   9.7171E-04  0.0231
   1.6174E-02   1.6567E-02   9.7836E-04  0.0228
   1.6567E-02   1.6970E-02   1.0191E-03  0.0221
   1.6970E-02   1.7383E-02   9.8039E-04  0.0222
   1.7383E-02   1.7806E-02   9.9115E-04  0.0218
   1.7806E-02   1.8239E-02   1.0140E-03  0.0213
   1.8239E-02   1.8683E-02   1.0167E-03  0.0211
   1.8683E-02   1.9138E-02   1.0115E-03  0.0209
   1.9138E-02   1.9603E-02   1.0175E-03  0.0205
   1.9603E-02   2.0080E-02   9.6738E-04  0.0208
   2.0080E-02   2.0569E-02   1.0680E-03  0.0196
   2.0569E-02   2.1069E-02   1.0562E-03  0.0195
   2.1069E-02   2.1582E-02   1.0097E-03  0.0197
   2.1582E-02   2.2107E-02   1.0101E-03  0.0194
   2.2107E-02   2.2645E-02   1.0289E-03  0.0190
   2.2645E-02   2.3196E-02   1.0213E-03  0.0189
   2.3196E-02   2.3760E-02   1.0525E-03  0.0183
   2.3760E-02   2.4338E-02   1.0054E-03  0.0186
   2.4338E-02   2.4930E-02   9.8300E-04  0.0185
   2.4930E-02   2.5537E-02   1.0305E-03  0.0179
   2.5537E-02   2.6158E-02   1.0122E-03  0.0178
   2.6158E-02   2.6795E-02   9.9725E-04  0.0178
   2.6795E-02   2.7447E-02   1.0056E-03  0.0175
   2.7447E-02   2.8114E-02   1.0353E-03  0.0170
   2.8114E-02   2.8799E-02   9.7976E-04  0.0173
   2.8799E-02   2.9499E-02   1.0000E-03  0.0169
   2.9499E-02   3.0217E-02   1.0013E-03  0.0167
   3.0217E-02   3.0952E-02   9.9592E-04  0.0165
   3.0952E-02   3.1705E-02   9.9908E-04  0.0163
   3.1705E-02   3.2477E-02   9.8741E-04  0.0162
   3.2477E-02   3.3267E-02   1.0203E-03  0.0157
   3.3267E-02   3.4076E-02   1.0111E-03  0.0156
   3.4076E-02   3.4905E-02   1.0189E-03  0.0154
   3.4905E-02   3.5755E-02   9.8696E-04  0.0154
   3.5755E-02   3.6625E-02   1.0244E-03  0.0150
   3.6625E-02   3.7516E-02   9.9820E-04  0.0150
   3.7516E-02   3.8428E-02   9.8731E-04  0.0149
   3.8428E-02   3.9363E-02   9.9166E-04  0.0147
   3.9363E-02   4.0321E-02   9.9703E-04  0.0145
   4.0321E-02   4.1302E-02   9.9863E-04  0.0143
   4.1302E-02   4.2307E-02   9.9471E-04  0.0141
   4.2307E-02   4.3337E-02   9.7322E-04  0.0141
   4.3337E-02   4.4391E-02   1.0033E-03  0.0138
   4.4391E-02   4.5471E-02   9.8337E-04  0.0137
   4.5471E-02   4.6577E-02   9.8568E-04  0.0135
   4.6577E-02   4.7711E-02   1.0126E-03  0.0132
   4.7711E-02   4.8871E-02   9.7335E-04  0.0133
   4.8871E-02   5.0061E-02   9.9060E-04  0.0130
   5.0061E-02   5.1279E-02   9.8053E-04  0.0129
   5.1279E-02   5.2526E-02   9.9563E-04  0.0127
   5.2526E-02   5.3804E-02   9.8576E-04  0.0126
   5.3804E-02   5.5113E-02   9.5180E-04  0.0127
   5.5113E-02   5.6454E-02   9.6961E-04  0.0124
   5.6454E-02   5.7828E-02   9.8509E-04  0.0122
   5.7828E-02   5.9235E-02   9.7761E-04  0.0121
   5.9235E-02   6.0676E-02   9.6286E-04  0.0120
   6.0676E-02   6.2152E-02   9.7060E-04  0.0118
   6.2152E-02   6.3665E-02   9.3915E-04  0.0119
   6.3665E-02   6.5214E-02   9.6901E-04  0.0115
   6.5214E-02   6.6800E-02   9.7599E-04  0.0114
   6.6800E-02   6.8426E-02   9.8369E-04  0.0112
   6.8426E-02   7.0090E-02   9.6621E-04  0.0112
   7.0090E-02   7.1796E-02   9.6848E-04  0.0110
   7.1796E-02   7.3543E-02   9.5423E-04  0.0110
   7.3543E-02   7.5332E-02   9.5437E-04  0.0108
   7.5332E-02   7.7165E-02   9.3705E-04  0.0108
   7.7165E-02   7.9042E-02   9.4579E-04  0.0106
   7.9042E-02   8.0965E-02   9.2972E-04  0.0106
   8.0965E-02   8.2935E-02   9.1890E-04  0.0105
   8.2935E-02   8.4953E-02   9.5610E-04  0.0102
   8.4953E-02   8.7020E-02   9.3262E-04  0.0102
   8.7020E-02   8.9138E-02   9.2643E-04  0.0101
   8.9138E-02   9.1306E-02   9.0848E-04  0.0101
   9.1306E-02   9.3528E-02   9.2971E-04  0.0098
   9.3528E-02   9.5804E-02   9.2323E-04  0.0098
   9.5804E-02   9.8134E-02   9.1481E-04  0.0097
   9.8134E-02   1.0052E-01   8.9911E-04  0.0097
   1.0052E-01   1.0297E-01   8.9333E-04  0.0096
   1.0297E-01   1.0547E-01   8.9558E-04  0.0094
   1.0547E-01   1.0804E-01   8.9812E-04  0.0093
   1.0804E-01   1.1067E-01   9.0125E-04  0.0092
   1.1067E-01   1.1336E-01   9.0446E-04  0.0091
   1.1336E-01   1.1612E-01   8.9614E-04  0.0090
   1.1612E-01   1.1894E-01   8.9556E-04  0.0089
   1.1894E-01   1.2184E-01   8.9844E-04  0.0088
   1.2184E-01   1.2480E-01   8.8493E-04  0.0087
   1.2480E-01   1.2784E-01   8.8584E-04  0.0086
   1.2784E-01   1.3095E-01   8.9328E-04  0.0085
   1.3095E-01   1.3414E-01   8.7103E-04  0.0085
   1.3414E-01   1.3740E-01   8.7636E-04  0.0084
   1.3740E-01   1.4074E-01   8.6424E-04  0.0083
   1.4074E-01   1.4417E-01   8.6387E-04  0.0082
   1.4417E-01   1.4767E-01   8.5595E-04  0.0082
   1.4767E-01   1.5127E-01   8.6645E-04  0.0080
   1.5127E-01   1.5495E-01   8.4074E-04  0.0080
   1.5495E-01   1.5872E-01   8.4546E-04  0.0079
   1.5872E-01   1.6258E-01   8.3672E-04  0.0079
   1.6258E-01   1.6654E-01   8.4630E-04  0.0077
   1.6654E-01   1.7059E-01   8.3839E-04  0.0077
   1.7059E-01   1.7474E-01   8.2431E-04  0.0076
   1.7474E-01   1.7899E-01   8.1790E-04  0.0076
   1.7899E-01   1.8334E-01   8.2550E-04  0.0075
   1.8334E-01   1.8781E-01   8.1855E-04  0.0074
   1.8781E-01   1.9237E-01   8.0073E-04  0.0074
   1.9237E-01   1.9706E-01   8.0525E-04  0.0073
   1.9706E-01   2.0185E-01   8.0298E-04  0.0072
   2.0185E-01   2.0676E-01   7.9234E-04  0.0072
   2.0676E-01   2.1179E-01   7.7942E-04  0.0071
   2.1179E-01   2.1694E-01   7.8639E-04  0.0070
   2.1694E-01   2.2222E-01   7.8752E-04  0.0069
   2.2222E-01   2.2763E-01   7.8613E-04  0.0069
   2.2763E-01   2.3317E-01   7.6957E-04  0.0069
   2.3317E-01   2.3884E-01   7.7394E-04  0.0067
   2.3884E-01   2.4465E-01   7.6898E-04  0.0067
   2.4465E-01   2.5061E-01   7.6508E-04  0.0066
   2.5061E-01   2.5670E-01   7.5793E-04  0.0066
   2.5670E-01   2.6295E-01   7.5251E-04  0.0065
   2.6295E-01   2.6935E-01   7.3992E-04  0.0065
   2.6935E-01   2.7590E-01   7.3954E-04  0.0064
   2.7590E-01   2.8261E-01   7.2951E-04  0.0064
   2.8261E-01   2.8949E-01   7.1272E-04  0.0064
   2.8949E-01   2.9653E-01   7.2129E-04  0.0063
   2.9653E-01   3.0375E-01   7.1938E-04  0.0062
   3.0375E-01   3.1114E-01   7.0803E-04  0.0062
   3.1114E-01   3.1871E-01   6.9769E-04  0.0062
   3.1871E-01   3.2646E-01   6.9738E-04  0.0061
   3.2646E-01   3.3441E-01   6.8716E-04  0.0061
   3.3441E-01   3.4254E-01   6.8423E-04  0.0060
   3.4254E-01   3.5088E-01   6.8328E-04  0.0059
   3.5088E-01   3.5941E-01   6.6810E-04  0.0059
   3.5941E-01   3.6816E-01   6.6564E-04  0.0059
   3.6816E-01   3.7712E-01   6.5931E-04  0.0058
   3.7712E-01   3.8629E-01   6.5606E-04  0.0058
   3.8629E-01   3.9569E-01   6.3963E-04  0.0058
   3.9569E-01   4.0532E-01   6.3779E-04  0.0057
   4.0532E-01   4.1518E-01   6.2688E-04  0.0057
   4.1518E-01   4.2528E-01   6.2474E-04  0.0056
   4.2528E-01   4.3563E-01   6.1678E-04  0.0056
   4.3563E-01   4.4623E-01   6.0593E-04  0.0056
   4.4623E-01   4.5708E-01   6.0955E-04  0.0055
   4.5708E-01   4.6821E-01   5.9037E-04  0.0055
   4.6821E-01   4.7960E-01   5.8667E-04  0.0055
   4.7960E-01   4.9127E-01   5.7379E-04  0.0055
   4.9127E-01   5.0322E-01   5.7324E-04  0.0054
   5.0322E-01   5.1546E-01   5.6658E-04  0.0054
   5.1546E-01   5.2800E-01   5.5400E-04  0.0054
   5.2800E-01   5.4085E-01   5.4783E-04  0.0053
   5.4085E-01   5.5401E-01   5.3825E-04  0.0053
   5.5401E-01   5.6749E-01   5.3018E-04  0.0053
   5.6749E-01   5.8130E-01   5.1925E-04  0.0053
   5.8130E-01   5.9544E-01   5.1141E-04  0.0053
   5.9544E-01   6.0993E-01   5.0043E-04  0.0053
   6.0993E-01   6.2477E-01   4.9855E-04  0.0052
   6.2477E-01   6.3997E-01   4.8862E-04  0.0052
   6.3997E-01   6.5554E-01   4.7755E-04  0.0052
   6.5554E-01   6.7149E-01   4.6511E-04  0.0052
   6.7149E-01   6.8783E-01   4.5927E-04  0.0052
   6.8783E-01   7.0456E-01   4.4471E-04  0.0052
   7.0456E-01   7.2171E-01   4.3895E-04  0.0052
   7.2171E-01   7.3927E-01   4.2598E-04  0.0052
   7.3927E-01   7.5725E-01   4.1999E-04  0.0051
   7.5725E-01   7.7568E-01   4.0666E-04  0.0052
   7.7568E-01   7.9455E-01   3.9607E-04  0.0052
   7.9455E-01   8.1388E-01   3.8364E-04  0.0052
   8.1388E-01   8.3368E-01   3.7491E-04  0.0052
   8.3368E-01   8.5397E-01   3.6623E-04  0.0052
   8.5397E-01   8.7475E-01   3.5882E-04  0.0052
   8.7475E-01   8.9603E-01   3.4585E-04  0.0052
   8.9603E-01   9.1783E-01   3.3357E-04  0.0052
   9.1783E-01   9.4016E-01   3.2263E-04  0.0053
   9.4016E-01   9.6304E-01   3.0978E-04  0.0053
   9.6304E-01   9.8647E-01   3.0450E-04  0.0053
   9.8647E-01   1.0105E+00   2.9494E-04  0.0053
   1.0105E+00   1.0351E+00   2.9901E-04  0.0052
   1.0351E+00   1.0602E+00   3.0114E-04  0.0051
   1.0602E+00   1.0860E+00   3.0764E-04  0.0050
   1.0860E+00   1.1125E+00   3.1249E-04  0.0049
   1.1125E+00   1.1395E+00   3.1868E-04  0.0048
   1.1395E+00   1.1673E+00   3.2623E-04  0.0047
   1.1673E+00   1.1957E+00   3.3503E-04  0.0046
   1.1957E+00   1.2247E+00   3.4712E-04  0.0045
   1.2247E+00   1.2545E+00   3.4769E-04  0.0044
   1.2545E+00   1.2851E+00   3.5381E-04  0.0043
   1.2851E+00   1.3163E+00   3.6005E-04  0.0042
   1.3163E+00   1.3484E+00   3.6866E-04  0.0041
   1.3484E+00   1.3812E+00   3.7362E-04  0.0040
   1.3812E+00   1.4148E+00   3.8399E-04  0.0039
   1.4148E+00   1.4492E+00   3.8592E-04  0.0039
   1.4492E+00   1.4845E+00   3.9011E-04  0.0038
   1.4845E+00   1.5206E+00   3.9132E-04  0.0038
   1.5206E+00   1.5576E+00   3.9438E-04  0.0037
   1.5576E+00   1.5955E+00   3.9896E-04  0.0036
   1.5955E+00   1.6343E+00   4.0633E-04  0.0036
   1.6343E+00   1.6741E+00   4.1765E-04  0.0035
   1.6741E+00   1.7148E+00   4.2897E-04  0.0034
   1.7148E+00   1.7565E+00   4.3115E-04  0.0033
   1.7565E+00   1.7992E+00   4.3096E-04  0.0033
   1.7992E+00   1.8430E+00   4.3360E-04  0.0032
   1.8430E+00   1.8879E+00   4.3822E-04  0.0032
   1.8879E+00   1.9338E+00   4.4109E-04  0.0031
   1.9338E+00   1.9808E+00   4.4868E-04  0.0031
   1.9808E+00   2.0290E+00   4.6161E-04  0.0030
   2.0290E+00   2.0784E+00   4.6050E-04  0.0030
   2.0784E+00   2.1290E+00   4.6219E-04  0.0029
   2.1290E+00   2.1808E+00   4.6302E-04  0.0029
   2.1808E+00   2.2338E+00   4.6605E-04  0.0028
   2.2338E+00   2.2882E+00   4.6858E-04  0.0028
   2.2882E+00   2.3439E+00   4.7408E-04  0.0028
   2.3439E+00   2.4009E+00   4.8341E-04  0.0027
   2.4009E+00   2.4593E+00   4.8856E-04  0.0026
   2.4593E+00   2.5191E+00   4.8672E-04  0.0026
   2.5191E+00   2.5804E+00   4.8533E-04  0.0026
   2.5804E+00   2.6432E+00   4.8369E-04  0.0026
   2.6432E+00   2.7075E+00   4.8596E-04  0.0025
   2.7075E+00   2.7734E+00   4.8650E-04  0.0025
   2.7734E+00   2.8409E+00   4.9156E-04  0.0025
   2.8409E+00   2.9100E+00   4.9871E-04  0.0024
   2.9100E+00   2.9808E+00   5.0039E-04  0.0024
   2.9808E+00   3.0533E+00   5.0142E-04  0.0023
   3.0533E+00   3.1276E+00   4.9763E-04  0.0023
   3.1276E+00   3.2037E+00   4.9332E-04  0.0023
   3.2037E+00   3.2817E+00   4.9108E-04  0.0023
   3.2817E+00   3.3615E+00   4.8588E-04  0.0023
   3.3615E+00   3.4433E+00   4.8420E-04  0.0022
   3.4433E+00   3.5271E+00   4.8573E-04  0.0022
   3.5271E+00   3.6129E+00   4.8792E-04  0.0022
   3.6129E+00   3.7008E+00   4.8642E-04  0.0022
   3.7008E+00   3.7908E+00   4.8195E-04  0.0021
   3.7908E+00   3.8831E+00   4.7620E-04  0.0021
   3.8831E+00   3.9776E+00   4.7361E-04  0.0021
   3.9776E+00   4.0743E+00   4.7158E-04  0.0021
   4.0743E+00   4.1735E+00   4.6206E-04  0.0021
   4.1735E+00   4.2750E+00   4.5432E-04  0.0021
   4.2750E+00   4.3790E+00   4.4529E-04  0.0021
   4.3790E+00   4.4856E+00   4.3842E-04  0.0021
   4.4856E+00   4.5947E+00   4.3135E-04  0.0021
   4.5947E+00   4.7065E+00   4.2366E-04  0.0021
   4.7065E+00   4.8210E+00   4.2136E-04  0.0020
   4.8210E+00   4.9383E+00   4.1491E-04  0.0020
   4.9383E+00   5.0585E+00   4.0838E-04  0.0020
   5.0585E+00   5.1815E+00   3.9762E-04  0.0020
   5.1815E+00   5.3076E+00   3.8673E-04  0.0020
   5.3076E+00   5.4368E+00   3.7645E-04  0.0020
   5.4368E+00   5.5690E+00   3.6768E-04  0.0020
   5.5690E+00   5.7045E+00   3.5786E-04  0.0020
   5.7045E+00   5.8433E+00   3.4911E-04  0.0020
   5.8433E+00   5.9855E+00   3.4084E-04  0.0020
   5.9855E+00   6.1311E+00   3.3406E-04  0.0020
   6.1311E+00   6.2803E+00   3.2336E-04  0.0020
   6.2803E+00   6.4331E+00   3.1350E-04  0.0020
   6.4331E+00   6.5896E+00   3.0289E-04  0.0021
   6.5896E+00   6.7500E+00   2.9417E-04  0.0021
   6.7500E+00   6.9142E+00   2.8541E-04  0.0021
   6.9142E+00   7.0824E+00   2.7696E-04  0.0021
   7.0824E+00   7.2548E+00   2.6791E-04  0.0021
   7.2548E+00   7.4313E+00   2.5716E-04  0.0021
   7.4313E+00   7.6121E+00   2.4964E-04  0.0021
   7.6121E+00   7.7973E+00   2.4107E-04  0.0021
   7.7973E+00   7.9870E+00   2.3233E-04  0.0021
   7.9870E+00   8.1813E+00   2.2553E-04  0.0021
   8.1813E+00   8.3804E+00   2.1856E-04  0.0021
   8.3804E+00   8.5843E+00   2.1110E-04  0.0022
   8.5843E+00   8.7931E+00   2.0258E-04  0.0022
   8.7931E+00   9.0071E+00   1.9650E-04  0.0022
   9.0071E+00   9.2262E+00   1.9054E-04  0.0022
   9.2262E+00   9.4507E+00   1.8295E-04  0.0022
   9.4507E+00   9.6807E+00   1.7728E-04  0.0022
   9.6807E+00   9.9162E+00   1.7171E-04  0.0022
   9.9162E+00   1.0157E+01   1.6644E-04  0.0022
   1.0157E+01   1.0405E+01   1.6068E-04  0.0022
   1.0405E+01   1.0658E+01   1.5548E-04  0.0023
   1.0658E+01   1.0917E+01   1.5086E-04  0.0023
   1.0917E+01   1.1183E+01   1.4619E-04  0.0023
   1.1183E+01   1.1455E+01   1.4197E-04  0.0023
   1.1455E+01   1.1733E+01   1.3733E-04  0.0023
   1.1733E+01   1.2019E+01   1.3299E-04  0.0023
   1.2019E+01   1.2311E+01   1.2902E-04  0.0023
   1.2311E+01   1.2611E+01   1.2600E-04  0.0023
   1.2611E+01   1.2918E+01   1.2135E-04  0.0023
   1.2918E+01   1.3232E+01   1.1860E-04  0.0023
   1.3232E+01   1.3554E+01   1.1514E-04  0.0023
   1.3554E+01   1.3884E+01   1.1163E-04  0.0023
   1.3884E+01   1.4222E+01   1.0838E-04  0.0023
   1.4222E+01   1.4568E+01   1.0582E-04  0.0023
   1.4568E+01   1.4922E+01   1.0325E-04  0.0023
   1.4922E+01   1.5285E+01   1.0064E-04  0.0023
   1.5285E+01   1.5657E+01   9.7845E-05  0.0023
   1.5657E+01   1.6038E+01   9.5179E-05  0.0023
   1.6038E+01   1.6428E+01   9.2699E-05  0.0024
   1.6428E+01   1.6828E+01   9.0617E-05  0.0024
   1.6828E+01   1.7237E+01   8.7732E-05  0.0024
   1.7237E+01   1.7657E+01   8.5915E-05  0.0024
   1.7657E+01   1.8086E+01   8.3697E-05  0.0024
   1.8086E+01   1.8526E+01   8.1746E-05  0.0024
   1.8526E+01   1.8977E+01   7.9522E-05  0.0024
   1.8977E+01   1.9439E+01   7.8249E-05  0.0024
   1.9439E+01   1.9912E+01   7.5830E-05  0.0024
   1.9912E+01   2.0396E+01   7.6063E-05  0.0023
   2.0396E+01   2.0893E+01   7.5443E-05  0.0023
   2.0893E+01   2.1401E+01   7.3266E-05  0.0023
   2.1401E+01   2.1922E+01   7.1476E-05  0.0023
   2.1922E+01   2.2455E+01   6.9577E-05  0.0023
   2.2455E+01   2.3001E+01   6.7746E-05  0.0023
   2.3001E+01   2.3561E+01   6.5953E-05  0.0023
   2.3561E+01   2.4134E+01   6.3881E-05  0.0023
   2.4134E+01   2.4721E+01   6.2289E-05  0.0023
   2.4721E+01   2.5323E+01   6.0480E-05  0.0023
   2.5323E+01   2.5939E+01   5.8758E-05  0.0024
   2.5939E+01   2.6570E+01   5.6811E-05  0.0024
   2.6570E+01   2.7217E+01   5.5156E-05  0.0024
   2.7217E+01   2.7879E+01   5.3420E-05  0.0024
   2.7879E+01   2.8557E+01   5.1543E-05  0.0024
   2.8557E+01   2.9252E+01   4.9755E-05  0.0024
   2.9252E+01   2.9964E+01   4.8261E-05  0.0024
   2.9964E+01   3.0693E+01   4.6337E-05  0.0024
   3.0693E+01   3.1440E+01   4.4623E-05  0.0025
   3.1440E+01   3.2205E+01   4.2942E-05  0.0025
   3.2205E+01   3.2988E+01   4.1322E-05  0.0025
   3.2988E+01   3.3791E+01   3.9513E-05  0.0025
   3.3791E+01   3.4613E+01   3.8036E-05  0.0025
   3.4613E+01   3.5455E+01   3.6352E-05  0.0026
   3.5455E+01   3.6318E+01   3.4895E-05  0.0026
   3.6318E+01   3.7201E+01   3.3262E-05  0.0026
   3.7201E+01   3.8106E+01   3.1575E-05  0.0026
   3.8106E+01   3.9034E+01   3.0180E-05  0.0027
   3.9034E+01   3.9983E+01   2.8633E-05  0.0027
   3.9983E+01   4.0956E+01   2.7261E-05  0.0027
   4.0956E+01   4.1953E+01   2.5648E-05  0.0028
   4.1953E+01   4.2973E+01   2.4320E-05  0.0028
   4.2973E+01   4.4019E+01   2.2931E-05  0.0029
   4.4019E+01   4.5090E+01   2.1723E-05  0.0029
   4.5090E+01   4.6187E+01   2.0363E-05  0.0030
   4.6187E+01   4.7311E+01   1.8990E-05  0.0031
   4.7311E+01   4.8462E+01   1.7846E-05  0.0031
   4.8462E+01   4.9641E+01   1.6682E-05  0.0032
   4.9641E+01   5.0849E+01   1.5490E-05  0.0033
   5.0849E+01   5.2086E+01   1.4436E-05  0.0033
   5.2086E+01   5.3353E+01   1.3397E-05  0.0034
   5.3353E+01   5.4651E+01   1.2280E-05  0.0035
   5.4651E+01   5.5981E+01   1.1377E-05  0.0036
   5.5981E+01   5.7343E+01   1.0427E-05  0.0038
   5.7343E+01   5.8738E+01   9.4634E-06  0.0039
   5.8738E+01   6.0168E+01   8.7270E-06  0.0040
   6.0168E+01   6.1632E+01   7.9187E-06  0.0042
   6.1632E+01   6.3131E+01   7.1311E-06  0.0043
   6.3131E+01   6.4667E+01   6.4434E-06  0.0045
   6.4667E+01   6.6240E+01   5.7978E-06  0.0047
   6.6240E+01   6.7852E+01   5.1966E-06  0.0049
   6.7852E+01   6.9503E+01   4.6124E-06  0.0051
   6.9503E+01   7.1194E+01   4.0817E-06  0.0054
   7.1194E+01   7.2926E+01   3.6292E-06  0.0056
   7.2926E+01   7.4701E+01   3.1935E-06  0.0059
   7.4701E+01   7.6518E+01   2.7717E-06  0.0063
   7.6518E+01   7.8380E+01   2.4315E-06  0.0066
   7.8380E+01   8.0287E+01   2.1313E-06  0.0070
   8.0287E+01   8.2240E+01   1.8285E-06  0.0075
   8.2240E+01   8.4241E+01   1.5961E-06  0.0079
   8.4241E+01   8.6291E+01   1.3459E-06  0.0085
   8.6291E+01   8.8391E+01   1.1706E-06  0.0090
   8.8391E+01   9.0541E+01   9.9451E-07  0.0097
   9.0541E+01   9.2744E+01   8.3561E-07  0.0104
   9.2744E+01   9.5001E+01   7.0107E-07  0.0112
   9.5001E+01   9.7312E+01   6.0750E-07  0.0119
   9.7312E+01   9.9680E+01   4.9872E-07  0.0130
   9.9680E+01   1.0211E+02   4.1653E-07  0.0141
   1.0211E+02   1.0459E+02   3.5044E-07  0.0152
   1.0459E+02   1.0713E+02   3.0982E-07  0.0159
   1.0713E+02   1.0974E+02   2.5627E-07  0.0173
   1.0974E+02   1.1241E+02   2.2494E-07  0.0182
   1.1241E+02   1.1515E+02   1.8215E-07  0.0200
   1.1515E+02   1.1795E+02   1.6376E-07  0.0209
   1.1795E+02   1.2082E+02   1.4824E-07  0.0217
   1.2082E+02   1.2376E+02   1.2512E-07  0.0233
   1.2376E+02   1.2677E+02   1.0700E-07  0.0249
   1.2677E+02   1.2985E+02   8.2091E-08  0.0281
   1.2985E+02   1.3301E+02   7.0076E-08  0.0301
   1.3301E+02   1.3625E+02   5.0181E-08  0.0351
   1.3625E+02   1.3956E+02   4.0663E-08  0.0385
   1.3956E+02   1.4296E+02   3.0981E-08  0.0436
   1.4296E+02   1.4644E+02   1.7595E-08  0.0572
   1.4644E+02   1.5000E+02   7.4096E-09  0.0870

#   sum over                 4.1290E-05
'no. =    1   reg = 112 - 212'
msuc: {\huge [t-cross] in region mesh}
msdr: {\it plotted by \ANGEL \version}
msdl: {\it calculated by \PHITS  3.26}
wt: s(0.7)
\vspace{-3}
  region surface crossing
  area  &=&   1.0000E+00 [cm^2]
e:
 
# Information for Restart Calculation
# This calculation was newly started
# istdev =  2 # 1:Batch variance, 2:History variance
# resc2  = 5.00000000000000000E+09 # Total source weight or Total source weight / maxcas
# resc3  = 5.00000000000000000E+09 # Total history number or Total batch number
# maxcas =   500000000 # History / Batch, only used for istdev=1
# bitrseed = 0110100000100010111000001110001111001110100100011111101000111001 # bit data of rseed
