[ T-Cross ]
    title = [t-cross] in region mesh
     mesh =  reg            # mesh type is region-wise
      reg =    1            # number of crossing regions
      non     r-from    r-to       area
      1       126       226        1.000000    
   e-type =    3            # e-mesh is log given by emin, emax and ne
     emin =  1.0000000E-02  # minimum value of e-mesh points
     emax =   150.0000      # maximum value of e-mesh points
#    edel =  2.4039514E-02  # mesh width of e-mesh points
       ne =    400          # number of e-mesh points
#    data = ( e(i), i = 1, ne + 1 )
#           1.00000E-02  1.02433E-02  1.04925E-02  1.07478E-02  1.10093E-02
#           1.12772E-02  1.15516E-02  1.18326E-02  1.21205E-02  1.24154E-02
#           1.27175E-02  1.30269E-02  1.33439E-02  1.36686E-02  1.40011E-02
#           1.43418E-02  1.46907E-02  1.50482E-02  1.54143E-02  1.57894E-02
#           1.61735E-02  1.65670E-02  1.69701E-02  1.73830E-02  1.78060E-02
#           1.82392E-02  1.86830E-02  1.91375E-02  1.96032E-02  2.00801E-02
#           2.05687E-02  2.10692E-02  2.15818E-02  2.21069E-02  2.26448E-02
#           2.31957E-02  2.37601E-02  2.43382E-02  2.49304E-02  2.55369E-02
#           2.61583E-02  2.67947E-02  2.74467E-02  2.81145E-02  2.87985E-02
#           2.94992E-02  3.02169E-02  3.09521E-02  3.17052E-02  3.24766E-02
#           3.32668E-02  3.40762E-02  3.49053E-02  3.57546E-02  3.66246E-02
#           3.75157E-02  3.84284E-02  3.93634E-02  4.03212E-02  4.13022E-02
#           4.23071E-02  4.33365E-02  4.43909E-02  4.54710E-02  4.65773E-02
#           4.77106E-02  4.88714E-02  5.00605E-02  5.12785E-02  5.25262E-02
#           5.38042E-02  5.51133E-02  5.64542E-02  5.78278E-02  5.92348E-02
#           6.06760E-02  6.21523E-02  6.36645E-02  6.52135E-02  6.68002E-02
#           6.84255E-02  7.00904E-02  7.17957E-02  7.35426E-02  7.53319E-02
#           7.71648E-02  7.90423E-02  8.09655E-02  8.29354E-02  8.49533E-02
#           8.70203E-02  8.91376E-02  9.13064E-02  9.35279E-02  9.58035E-02
#           9.81345E-02  1.00522E-01  1.02968E-01  1.05473E-01  1.08040E-01
#           1.10668E-01  1.13361E-01  1.16119E-01  1.18944E-01  1.21838E-01
#           1.24803E-01  1.27839E-01  1.30950E-01  1.34136E-01  1.37399E-01
#           1.40742E-01  1.44167E-01  1.47675E-01  1.51268E-01  1.54948E-01
#           1.58718E-01  1.62580E-01  1.66535E-01  1.70587E-01  1.74738E-01
#           1.78989E-01  1.83344E-01  1.87805E-01  1.92375E-01  1.97055E-01
#           2.01850E-01  2.06761E-01  2.11792E-01  2.16945E-01  2.22223E-01
#           2.27630E-01  2.33169E-01  2.38842E-01  2.44653E-01  2.50605E-01
#           2.56703E-01  2.62949E-01  2.69346E-01  2.75900E-01  2.82613E-01
#           2.89489E-01  2.96532E-01  3.03747E-01  3.11138E-01  3.18708E-01
#           3.26462E-01  3.34405E-01  3.42542E-01  3.50876E-01  3.59413E-01
#           3.68158E-01  3.77116E-01  3.86291E-01  3.95690E-01  4.05317E-01
#           4.15179E-01  4.25281E-01  4.35628E-01  4.46227E-01  4.57084E-01
#           4.68205E-01  4.79597E-01  4.91266E-01  5.03219E-01  5.15463E-01
#           5.28005E-01  5.40851E-01  5.54011E-01  5.67490E-01  5.81298E-01
#           5.95441E-01  6.09929E-01  6.24769E-01  6.39970E-01  6.55541E-01
#           6.71491E-01  6.87828E-01  7.04564E-01  7.21706E-01  7.39266E-01
#           7.57253E-01  7.75678E-01  7.94551E-01  8.13883E-01  8.33685E-01
#           8.53969E-01  8.74747E-01  8.96030E-01  9.17831E-01  9.40163E-01
#           9.63038E-01  9.86469E-01  1.01047E+00  1.03506E+00  1.06024E+00
#           1.08604E+00  1.11246E+00  1.13953E+00  1.16725E+00  1.19565E+00
#           1.22474E+00  1.25454E+00  1.28507E+00  1.31633E+00  1.34836E+00
#           1.38117E+00  1.41477E+00  1.44920E+00  1.48446E+00  1.52057E+00
#           1.55757E+00  1.59547E+00  1.63429E+00  1.67405E+00  1.71478E+00
#           1.75650E+00  1.79924E+00  1.84302E+00  1.88786E+00  1.93379E+00
#           1.98084E+00  2.02904E+00  2.07841E+00  2.12898E+00  2.18078E+00
#           2.23384E+00  2.28819E+00  2.34386E+00  2.40089E+00  2.45930E+00
#           2.51914E+00  2.58043E+00  2.64322E+00  2.70753E+00  2.77341E+00
#           2.84088E+00  2.91001E+00  2.98081E+00  3.05333E+00  3.12762E+00
#           3.20372E+00  3.28167E+00  3.36152E+00  3.44330E+00  3.52708E+00
#           3.61290E+00  3.70080E+00  3.79085E+00  3.88308E+00  3.97756E+00
#           4.07434E+00  4.17347E+00  4.27501E+00  4.37903E+00  4.48557E+00
#           4.59471E+00  4.70650E+00  4.82102E+00  4.93832E+00  5.05847E+00
#           5.18155E+00  5.30762E+00  5.43676E+00  5.56904E+00  5.70453E+00
#           5.84333E+00  5.98550E+00  6.13114E+00  6.28031E+00  6.43312E+00
#           6.58964E+00  6.74997E+00  6.91420E+00  7.08243E+00  7.25475E+00
#           7.43126E+00  7.61207E+00  7.79728E+00  7.98700E+00  8.18133E+00
#           8.38038E+00  8.58428E+00  8.79315E+00  9.00709E+00  9.22624E+00
#           9.45072E+00  9.68067E+00  9.91620E+00  1.01575E+01  1.04046E+01
#           1.06578E+01  1.09171E+01  1.11827E+01  1.14548E+01  1.17335E+01
#           1.20190E+01  1.23114E+01  1.26109E+01  1.29178E+01  1.32321E+01
#           1.35540E+01  1.38838E+01  1.42216E+01  1.45676E+01  1.49221E+01
#           1.52851E+01  1.56570E+01  1.60380E+01  1.64282E+01  1.68279E+01
#           1.72374E+01  1.76568E+01  1.80864E+01  1.85264E+01  1.89772E+01
#           1.94389E+01  1.99119E+01  2.03963E+01  2.08926E+01  2.14009E+01
#           2.19216E+01  2.24550E+01  2.30014E+01  2.35610E+01  2.41343E+01
#           2.47215E+01  2.53230E+01  2.59391E+01  2.65702E+01  2.72167E+01
#           2.78789E+01  2.85572E+01  2.92520E+01  2.99637E+01  3.06928E+01
#           3.14396E+01  3.22045E+01  3.29881E+01  3.37907E+01  3.46128E+01
#           3.54550E+01  3.63177E+01  3.72013E+01  3.81064E+01  3.90336E+01
#           3.99833E+01  4.09561E+01  4.19526E+01  4.29734E+01  4.40189E+01
#           4.50900E+01  4.61870E+01  4.73108E+01  4.84619E+01  4.96410E+01
#           5.08488E+01  5.20860E+01  5.33533E+01  5.46514E+01  5.59812E+01
#           5.73432E+01  5.87384E+01  6.01676E+01  6.16315E+01  6.31311E+01
#           6.46671E+01  6.62405E+01  6.78522E+01  6.95031E+01  7.11941E+01
#           7.29263E+01  7.47007E+01  7.65182E+01  7.83800E+01  8.02870E+01
#           8.22405E+01  8.42414E+01  8.62911E+01  8.83906E+01  9.05412E+01
#           9.27442E+01  9.50007E+01  9.73122E+01  9.96799E+01  1.02105E+02
#           1.04589E+02  1.07134E+02  1.09741E+02  1.12411E+02  1.15146E+02
#           1.17948E+02  1.20817E+02  1.23757E+02  1.26768E+02  1.29852E+02
#           1.33012E+02  1.36248E+02  1.39563E+02  1.42959E+02  1.46437E+02
#           1.50000E+02
     unit =    2            # unit is [1/cm^2/(MeV/n)/source]
     axis =  eng            # axis of output
     file = detector-27.out  # file name of output for the above axis
   output = f-curr          # surface crossing forward current spectrum
     part =  neutron  
# kf/name :  2112     
#    used :        main (  %)        temp (  %)       total (  %)
#  memory :         414 (  0)           0 (  0)         414 (  0)

#------------------------------------------------------------------------------
#newpage:
#   no. =    1   reg = 126 - 226

x: Energy [MeV/n]
y:  F-Curr [1/cm^2/(MeV/n)/source]         
p: xlog ylog afac(0.8) form(0.9)
h: n            x            y(neutron ),hh0l   n 
#  e-lower      e-upper      neutron     r.err 
   1.0000E-02   1.0243E-02   1.3703E-04  0.0773
   1.0243E-02   1.0493E-02   1.3260E-04  0.0778
   1.0493E-02   1.0748E-02   1.1415E-04  0.0827
   1.0748E-02   1.1009E-02   1.2477E-04  0.0783
   1.1009E-02   1.1277E-02   1.2460E-04  0.0773
   1.1277E-02   1.1552E-02   1.2100E-04  0.0775
   1.1552E-02   1.1833E-02   1.3037E-04  0.0737
   1.1833E-02   1.2121E-02   1.3725E-04  0.0711
   1.2121E-02   1.2415E-02   1.2404E-04  0.0738
   1.2415E-02   1.2718E-02   1.2577E-04  0.0724
   1.2718E-02   1.3027E-02   1.0165E-04  0.0797
   1.3027E-02   1.3344E-02   1.2021E-04  0.0724
   1.3344E-02   1.3669E-02   1.2055E-04  0.0714
   1.3669E-02   1.4001E-02   9.3214E-05  0.0803
   1.4001E-02   1.4342E-02   1.2832E-04  0.0676
   1.4342E-02   1.4691E-02   1.2287E-04  0.0683
   1.4691E-02   1.5048E-02   1.0156E-04  0.0742
   1.5048E-02   1.5414E-02   1.1573E-04  0.0686
   1.5414E-02   1.5789E-02   9.6428E-05  0.0743
   1.5789E-02   1.6174E-02   9.8998E-05  0.0725
   1.6174E-02   1.6567E-02   9.8090E-05  0.0720
   1.6567E-02   1.6970E-02   9.1608E-05  0.0735
   1.6970E-02   1.7383E-02   1.0027E-04  0.0694
   1.7383E-02   1.7806E-02   1.0303E-04  0.0677
   1.7806E-02   1.8239E-02   1.0304E-04  0.0669
   1.8239E-02   1.8683E-02   1.0422E-04  0.0657
   1.8683E-02   1.9138E-02   1.0126E-04  0.0659
   1.9138E-02   1.9603E-02   9.1835E-05  0.0682
   1.9603E-02   2.0080E-02   8.5144E-05  0.0701
   2.0080E-02   2.0569E-02   1.0643E-04  0.0620
   2.0569E-02   2.1069E-02   7.7395E-05  0.0718
   2.1069E-02   2.1582E-02   8.2906E-05  0.0686
   2.1582E-02   2.2107E-02   7.6773E-05  0.0704
   2.2107E-02   2.2645E-02   8.5601E-05  0.0659
   2.2645E-02   2.3196E-02   7.0513E-05  0.0717
   2.3196E-02   2.3760E-02   7.4065E-05  0.0692
   2.3760E-02   2.4338E-02   8.1346E-05  0.0652
   2.4338E-02   2.4930E-02   7.4433E-05  0.0673
   2.4930E-02   2.5537E-02   7.8232E-05  0.0648
   2.5537E-02   2.6158E-02   7.2541E-05  0.0665
   2.6158E-02   2.6795E-02   6.6305E-05  0.0688
   2.6795E-02   2.7447E-02   7.2550E-05  0.0649
   2.7447E-02   2.8114E-02   7.3426E-05  0.0638
   2.8114E-02   2.8799E-02   6.6516E-05  0.0663
   2.8799E-02   2.9499E-02   6.5058E-05  0.0662
   2.9499E-02   3.0217E-02   5.3827E-05  0.0719
   3.0217E-02   3.0952E-02   6.1405E-05  0.0665
   3.0952E-02   3.1705E-02   6.2323E-05  0.0652
   3.1705E-02   3.2477E-02   6.9857E-05  0.0609
   3.2477E-02   3.3267E-02   6.1574E-05  0.0641
   3.3267E-02   3.4076E-02   5.3311E-05  0.0680
   3.4076E-02   3.4905E-02   6.0337E-05  0.0632
   3.4905E-02   3.5755E-02   6.2406E-05  0.0614
   3.5755E-02   3.6625E-02   5.4067E-05  0.0651
   3.6625E-02   3.7516E-02   5.8064E-05  0.0621
   3.7516E-02   3.8428E-02   5.6740E-05  0.0621
   3.8428E-02   3.9363E-02   5.8912E-05  0.0601
   3.9363E-02   4.0321E-02   6.1865E-05  0.0581
   4.0321E-02   4.1302E-02   5.5483E-05  0.0606
   4.1302E-02   4.2307E-02   5.3225E-05  0.0611
   4.2307E-02   4.3337E-02   5.2559E-05  0.0608
   4.3337E-02   4.4391E-02   5.4666E-05  0.0588
   4.4391E-02   4.5471E-02   5.3090E-05  0.0590
   4.5471E-02   4.6577E-02   4.9857E-05  0.0601
   4.6577E-02   4.7711E-02   5.2269E-05  0.0581
   4.7711E-02   4.8871E-02   4.6458E-05  0.0608
   4.8871E-02   5.0061E-02   4.7814E-05  0.0592
   5.0061E-02   5.1279E-02   5.0503E-05  0.0570
   5.1279E-02   5.2526E-02   4.7875E-05  0.0578
   5.2526E-02   5.3804E-02   4.4710E-05  0.0591
   5.3804E-02   5.5113E-02   4.4117E-05  0.0588
   5.5113E-02   5.6454E-02   4.5242E-05  0.0573
   5.6454E-02   5.7828E-02   3.8253E-05  0.0616
   5.7828E-02   5.9235E-02   4.2739E-05  0.0576
   5.9235E-02   6.0676E-02   4.3574E-05  0.0564
   6.0676E-02   6.2152E-02   3.9339E-05  0.0586
   6.2152E-02   6.3665E-02   3.8638E-05  0.0584
   6.3665E-02   6.5214E-02   3.7866E-05  0.0584
   6.5214E-02   6.6800E-02   3.8362E-05  0.0573
   6.6800E-02   6.8426E-02   3.3464E-05  0.0606
   6.8426E-02   7.0090E-02   3.6680E-05  0.0572
   7.0090E-02   7.1796E-02   3.4281E-05  0.0585
   7.1796E-02   7.3543E-02   3.4302E-05  0.0577
   7.3543E-02   7.5332E-02   3.3151E-05  0.0580
   7.5332E-02   7.7165E-02   3.4754E-05  0.0560
   7.7165E-02   7.9042E-02   3.3875E-05  0.0561
   7.9042E-02   8.0965E-02   3.2830E-05  0.0562
   8.0965E-02   8.2935E-02   3.2176E-05  0.0561
   8.2935E-02   8.4953E-02   3.0479E-05  0.0569
   8.4953E-02   8.7020E-02   3.2795E-05  0.0543
   8.7020E-02   8.9138E-02   2.9865E-05  0.0562
   8.9138E-02   9.1306E-02   2.8139E-05  0.0572
   9.1306E-02   9.3528E-02   3.1413E-05  0.0535
   9.3528E-02   9.5804E-02   2.7995E-05  0.0560
   9.5804E-02   9.8134E-02   3.1793E-05  0.0519
   9.8134E-02   1.0052E-01   2.9233E-05  0.0535
   1.0052E-01   1.0297E-01   2.5643E-05  0.0564
   1.0297E-01   1.0547E-01   2.5977E-05  0.0554
   1.0547E-01   1.0804E-01   2.2425E-05  0.0589
   1.0804E-01   1.1067E-01   2.4537E-05  0.0557
   1.1067E-01   1.1336E-01   2.1979E-05  0.0581
   1.1336E-01   1.1612E-01   2.4302E-05  0.0546
   1.1612E-01   1.1894E-01   2.2986E-05  0.0555
   1.1894E-01   1.2184E-01   2.5424E-05  0.0521
   1.2184E-01   1.2480E-01   2.2305E-05  0.0549
   1.2480E-01   1.2784E-01   1.9075E-05  0.0587
   1.2784E-01   1.3095E-01   2.2351E-05  0.0536
   1.3095E-01   1.3414E-01   2.0130E-05  0.0558
   1.3414E-01   1.3740E-01   1.7880E-05  0.0585
   1.3740E-01   1.4074E-01   1.8887E-05  0.0562
   1.4074E-01   1.4417E-01   1.8602E-05  0.0560
   1.4417E-01   1.4767E-01   1.7191E-05  0.0576
   1.4767E-01   1.5127E-01   1.6015E-05  0.0589
   1.5127E-01   1.5495E-01   1.6613E-05  0.0572
   1.5495E-01   1.5872E-01   1.4854E-05  0.0598
   1.5872E-01   1.6258E-01   1.6151E-05  0.0566
   1.6258E-01   1.6654E-01   1.6293E-05  0.0557
   1.6654E-01   1.7059E-01   1.3426E-05  0.0606
   1.7059E-01   1.7474E-01   1.4669E-05  0.0572
   1.7474E-01   1.7899E-01   1.5319E-05  0.0554
   1.7899E-01   1.8334E-01   1.3261E-05  0.0588
   1.8334E-01   1.8781E-01   1.2496E-05  0.0599
   1.8781E-01   1.9237E-01   1.2146E-05  0.0600
   1.9237E-01   1.9706E-01   1.3333E-05  0.0565
   1.9706E-01   2.0185E-01   1.2697E-05  0.0572
   2.0185E-01   2.0676E-01   1.2183E-05  0.0578
   2.0676E-01   2.1179E-01   1.1621E-05  0.0585
   2.1179E-01   2.1694E-01   1.2702E-05  0.0551
   2.1694E-01   2.2222E-01   1.3341E-05  0.0532
   2.2222E-01   2.2763E-01   1.3738E-05  0.0518
   2.2763E-01   2.3317E-01   1.2768E-05  0.0531
   2.3317E-01   2.3884E-01   1.3023E-05  0.0520
   2.3884E-01   2.4465E-01   1.2782E-05  0.0518
   2.4465E-01   2.5061E-01   1.3403E-05  0.0500
   2.5061E-01   2.5670E-01   1.3364E-05  0.0495
   2.5670E-01   2.6295E-01   1.4959E-05  0.0462
   2.6295E-01   2.6935E-01   1.4388E-05  0.0465
   2.6935E-01   2.7590E-01   1.4321E-05  0.0461
   2.7590E-01   2.8261E-01   1.4387E-05  0.0454
   2.8261E-01   2.8949E-01   1.3785E-05  0.0459
   2.8949E-01   2.9653E-01   1.4571E-05  0.0441
   2.9653E-01   3.0375E-01   1.4122E-05  0.0442
   3.0375E-01   3.1114E-01   1.4819E-05  0.0427
   3.1114E-01   3.1871E-01   1.3630E-05  0.0439
   3.1871E-01   3.2646E-01   1.4658E-05  0.0419
   3.2646E-01   3.3441E-01   1.4210E-05  0.0420
   3.3441E-01   3.4254E-01   1.5184E-05  0.0402
   3.4254E-01   3.5088E-01   1.3775E-05  0.0417
   3.5088E-01   3.5941E-01   1.5434E-05  0.0389
   3.5941E-01   3.6816E-01   1.3946E-05  0.0404
   3.6816E-01   3.7712E-01   1.4386E-05  0.0393
   3.7712E-01   3.8629E-01   1.4780E-05  0.0383
   3.8629E-01   3.9569E-01   1.4385E-05  0.0384
   3.9569E-01   4.0532E-01   1.4054E-05  0.0384
   4.0532E-01   4.1518E-01   1.3274E-05  0.0390
   4.1518E-01   4.2528E-01   1.3067E-05  0.0388
   4.2528E-01   4.3563E-01   1.3344E-05  0.0380
   4.3563E-01   4.4623E-01   1.3095E-05  0.0379
   4.4623E-01   4.5708E-01   1.3066E-05  0.0375
   4.5708E-01   4.6821E-01   1.3585E-05  0.0363
   4.6821E-01   4.7960E-01   1.2913E-05  0.0368
   4.7960E-01   4.9127E-01   1.2143E-05  0.0375
   4.9127E-01   5.0322E-01   1.2120E-05  0.0371
   5.0322E-01   5.1546E-01   1.2299E-05  0.0363
   5.1546E-01   5.2800E-01   1.2040E-05  0.0362
   5.2800E-01   5.4085E-01   1.1370E-05  0.0369
   5.4085E-01   5.5401E-01   1.1129E-05  0.0368
   5.5401E-01   5.6749E-01   1.1235E-05  0.0362
   5.6749E-01   5.8130E-01   1.0397E-05  0.0372
   5.8130E-01   5.9544E-01   1.0224E-05  0.0371
   5.9544E-01   6.0993E-01   1.0065E-05  0.0369
   6.0993E-01   6.2477E-01   9.7315E-06  0.0371
   6.2477E-01   6.3997E-01   9.3517E-06  0.0374
   6.3997E-01   6.5554E-01   9.9988E-06  0.0357
   6.5554E-01   6.7149E-01   9.4261E-06  0.0364
   6.7149E-01   6.8783E-01   9.3523E-06  0.0360
   6.8783E-01   7.0456E-01   9.1463E-06  0.0360
   7.0456E-01   7.2171E-01   8.4875E-06  0.0369
   7.2171E-01   7.3927E-01   7.3791E-06  0.0391
   7.3927E-01   7.5725E-01   8.2059E-06  0.0366
   7.5725E-01   7.7568E-01   7.7550E-06  0.0372
   7.7568E-01   7.9455E-01   7.3261E-06  0.0378
   7.9455E-01   8.1388E-01   7.5765E-06  0.0368
   8.1388E-01   8.3368E-01   6.8308E-06  0.0382
   8.3368E-01   8.5397E-01   7.1717E-06  0.0369
   8.5397E-01   8.7475E-01   6.6225E-06  0.0379
   8.7475E-01   8.9603E-01   6.7302E-06  0.0372
   8.9603E-01   9.1783E-01   6.5014E-06  0.0374
   9.1783E-01   9.4016E-01   5.5555E-06  0.0399
   9.4016E-01   9.6304E-01   6.2082E-06  0.0373
   9.6304E-01   9.8647E-01   5.8322E-06  0.0380
   9.8647E-01   1.0105E+00   5.7747E-06  0.0378
   1.0105E+00   1.0351E+00   5.4427E-06  0.0384
   1.0351E+00   1.0602E+00   5.1713E-06  0.0390
   1.0602E+00   1.0860E+00   5.1810E-06  0.0384
   1.0860E+00   1.1125E+00   5.4252E-06  0.0371
   1.1125E+00   1.1395E+00   4.9329E-06  0.0384
   1.1395E+00   1.1673E+00   4.5286E-06  0.0396
   1.1673E+00   1.1957E+00   4.5641E-06  0.0390
   1.1957E+00   1.2247E+00   4.6382E-06  0.0382
   1.2247E+00   1.2545E+00   4.3957E-06  0.0388
   1.2545E+00   1.2851E+00   4.2375E-06  0.0391
   1.2851E+00   1.3163E+00   4.2234E-06  0.0386
   1.3163E+00   1.3484E+00   4.2073E-06  0.0383
   1.3484E+00   1.3812E+00   3.9494E-06  0.0391
   1.3812E+00   1.4148E+00   3.9571E-06  0.0385
   1.4148E+00   1.4492E+00   3.9294E-06  0.0382
   1.4492E+00   1.4845E+00   3.7201E-06  0.0388
   1.4845E+00   1.5206E+00   3.7170E-06  0.0383
   1.5206E+00   1.5576E+00   3.6378E-06  0.0383
   1.5576E+00   1.5955E+00   3.4107E-06  0.0391
   1.5955E+00   1.6343E+00   3.6771E-06  0.0371
   1.6343E+00   1.6741E+00   3.4131E-06  0.0381
   1.6741E+00   1.7148E+00   3.4388E-06  0.0376
   1.7148E+00   1.7565E+00   3.1395E-06  0.0388
   1.7565E+00   1.7992E+00   3.0944E-06  0.0387
   1.7992E+00   1.8430E+00   3.0672E-06  0.0384
   1.8430E+00   1.8879E+00   2.9044E-06  0.0390
   1.8879E+00   1.9338E+00   2.9862E-06  0.0380
   1.9338E+00   1.9808E+00   2.9382E-06  0.0378
   1.9808E+00   2.0290E+00   2.5682E-06  0.0399
   2.0290E+00   2.0784E+00   2.5313E-06  0.0397
   2.0784E+00   2.1290E+00   2.6798E-06  0.0382
   2.1290E+00   2.1808E+00   2.7153E-06  0.0375
   2.1808E+00   2.2338E+00   2.5649E-06  0.0381
   2.2338E+00   2.2882E+00   2.3613E-06  0.0392
   2.2882E+00   2.3439E+00   2.4484E-06  0.0381
   2.3439E+00   2.4009E+00   2.3643E-06  0.0383
   2.4009E+00   2.4593E+00   2.3783E-06  0.0377
   2.4593E+00   2.5191E+00   2.4268E-06  0.0369
   2.5191E+00   2.5804E+00   2.1876E-06  0.0383
   2.5804E+00   2.6432E+00   2.1261E-06  0.0384
   2.6432E+00   2.7075E+00   2.1751E-06  0.0376
   2.7075E+00   2.7734E+00   2.1565E-06  0.0374
   2.7734E+00   2.8409E+00   2.1662E-06  0.0368
   2.8409E+00   2.9100E+00   2.0579E-06  0.0373
   2.9100E+00   2.9808E+00   2.1123E-06  0.0364
   2.9808E+00   3.0533E+00   1.9193E-06  0.0377
   3.0533E+00   3.1276E+00   1.9500E-06  0.0369
   3.1276E+00   3.2037E+00   1.9397E-06  0.0366
   3.2037E+00   3.2817E+00   1.7608E-06  0.0380
   3.2817E+00   3.3615E+00   1.7639E-06  0.0375
   3.3615E+00   3.4433E+00   1.8040E-06  0.0366
   3.4433E+00   3.5271E+00   1.7031E-06  0.0372
   3.5271E+00   3.6129E+00   1.6729E-06  0.0371
   3.6129E+00   3.7008E+00   1.6626E-06  0.0368
   3.7008E+00   3.7908E+00   1.5044E-06  0.0383
   3.7908E+00   3.8831E+00   1.5002E-06  0.0379
   3.8831E+00   3.9776E+00   1.4236E-06  0.0384
   3.9776E+00   4.0743E+00   1.4983E-06  0.0370
   4.0743E+00   4.1735E+00   1.5533E-06  0.0359
   4.1735E+00   4.2750E+00   1.5371E-06  0.0357
   4.2750E+00   4.3790E+00   1.3551E-06  0.0375
   4.3790E+00   4.4856E+00   1.3260E-06  0.0375
   4.4856E+00   4.5947E+00   1.2093E-06  0.0388
   4.5947E+00   4.7065E+00   1.2959E-06  0.0371
   4.7065E+00   4.8210E+00   1.1888E-06  0.0383
   4.8210E+00   4.9383E+00   1.2540E-06  0.0368
   4.9383E+00   5.0585E+00   1.0244E-06  0.0402
   5.0585E+00   5.1815E+00   9.9520E-07  0.0402
   5.1815E+00   5.3076E+00   9.4093E-07  0.0409
   5.3076E+00   5.4368E+00   9.8315E-07  0.0396
   5.4368E+00   5.5690E+00   8.5417E-07  0.0420
   5.5690E+00   5.7045E+00   8.5816E-07  0.0414
   5.7045E+00   5.8433E+00   8.5053E-07  0.0411
   5.8433E+00   5.9855E+00   7.6193E-07  0.0429
   5.9855E+00   6.1311E+00   7.4955E-07  0.0428
   6.1311E+00   6.2803E+00   7.2182E-07  0.0430
   6.2803E+00   6.4331E+00   7.3216E-07  0.0422
   6.4331E+00   6.5896E+00   6.2291E-07  0.0452
   6.5896E+00   6.7500E+00   6.2478E-07  0.0446
   6.7500E+00   6.9142E+00   5.6787E-07  0.0463
   6.9142E+00   7.0824E+00   5.5919E-07  0.0461
   7.0824E+00   7.2548E+00   4.9740E-07  0.0483
   7.2548E+00   7.4313E+00   4.8475E-07  0.0483
   7.4313E+00   7.6121E+00   4.2384E-07  0.0510
   7.6121E+00   7.7973E+00   4.0729E-07  0.0515
   7.7973E+00   7.9870E+00   4.2512E-07  0.0498
   7.9870E+00   8.1813E+00   3.7168E-07  0.0526
   8.1813E+00   8.3804E+00   3.3882E-07  0.0544
   8.3804E+00   8.5843E+00   3.3595E-07  0.0540
   8.5843E+00   8.7931E+00   3.0715E-07  0.0558
   8.7931E+00   9.0071E+00   2.8487E-07  0.0572
   9.0071E+00   9.2262E+00   2.7860E-07  0.0572
   9.2262E+00   9.4507E+00   2.3299E-07  0.0618
   9.4507E+00   9.6807E+00   2.0527E-07  0.0651
   9.6807E+00   9.9162E+00   1.8935E-07  0.0670
   9.9162E+00   1.0157E+01   1.8900E-07  0.0662
   1.0157E+01   1.0405E+01   1.6347E-07  0.0704
   1.0405E+01   1.0658E+01   1.5801E-07  0.0707
   1.0658E+01   1.0917E+01   1.3034E-07  0.0769
   1.0917E+01   1.1183E+01   1.2650E-07  0.0772
   1.1183E+01   1.1455E+01   1.0879E-07  0.0822
   1.1455E+01   1.1733E+01   1.1697E-07  0.0783
   1.1733E+01   1.2019E+01   7.8463E-08  0.0945
   1.2019E+01   1.2311E+01   7.6599E-08  0.0945
   1.2311E+01   1.2611E+01   7.8118E-08  0.0925
   1.2611E+01   1.2918E+01   6.6485E-08  0.0990
   1.2918E+01   1.3232E+01   5.7270E-08  0.1054
   1.3232E+01   1.3554E+01   4.0379E-08  0.1240
   1.3554E+01   1.3884E+01   3.5931E-08  0.1297
   1.3884E+01   1.4222E+01   2.0722E-08  0.1690
   1.4222E+01   1.4568E+01   2.6010E-08  0.1491
   1.4568E+01   1.4922E+01   1.5235E-08  0.1925
   1.4922E+01   1.5285E+01   8.2630E-09  0.2582
   1.5285E+01   1.5657E+01   1.0756E-09  0.7071
   1.5657E+01   1.6038E+01   0.0000E+00  0.0000
   1.6038E+01   1.6428E+01   0.0000E+00  0.0000
   1.6428E+01   1.6828E+01   0.0000E+00  0.0000
   1.6828E+01   1.7237E+01   0.0000E+00  0.0000
   1.7237E+01   1.7657E+01   0.0000E+00  0.0000
   1.7657E+01   1.8086E+01   0.0000E+00  0.0000
   1.8086E+01   1.8526E+01   0.0000E+00  0.0000
   1.8526E+01   1.8977E+01   0.0000E+00  0.0000
   1.8977E+01   1.9439E+01   0.0000E+00  0.0000
   1.9439E+01   1.9912E+01   0.0000E+00  0.0000
   1.9912E+01   2.0396E+01   0.0000E+00  0.0000
   2.0396E+01   2.0893E+01   0.0000E+00  0.0000
   2.0893E+01   2.1401E+01   0.0000E+00  0.0000
   2.1401E+01   2.1922E+01   0.0000E+00  0.0000
   2.1922E+01   2.2455E+01   0.0000E+00  0.0000
   2.2455E+01   2.3001E+01   0.0000E+00  0.0000
   2.3001E+01   2.3561E+01   0.0000E+00  0.0000
   2.3561E+01   2.4134E+01   0.0000E+00  0.0000
   2.4134E+01   2.4721E+01   0.0000E+00  0.0000
   2.4721E+01   2.5323E+01   0.0000E+00  0.0000
   2.5323E+01   2.5939E+01   0.0000E+00  0.0000
   2.5939E+01   2.6570E+01   0.0000E+00  0.0000
   2.6570E+01   2.7217E+01   0.0000E+00  0.0000
   2.7217E+01   2.7879E+01   0.0000E+00  0.0000
   2.7879E+01   2.8557E+01   0.0000E+00  0.0000
   2.8557E+01   2.9252E+01   0.0000E+00  0.0000
   2.9252E+01   2.9964E+01   0.0000E+00  0.0000
   2.9964E+01   3.0693E+01   0.0000E+00  0.0000
   3.0693E+01   3.1440E+01   0.0000E+00  0.0000
   3.1440E+01   3.2205E+01   0.0000E+00  0.0000
   3.2205E+01   3.2988E+01   0.0000E+00  0.0000
   3.2988E+01   3.3791E+01   0.0000E+00  0.0000
   3.3791E+01   3.4613E+01   0.0000E+00  0.0000
   3.4613E+01   3.5455E+01   0.0000E+00  0.0000
   3.5455E+01   3.6318E+01   0.0000E+00  0.0000
   3.6318E+01   3.7201E+01   0.0000E+00  0.0000
   3.7201E+01   3.8106E+01   0.0000E+00  0.0000
   3.8106E+01   3.9034E+01   0.0000E+00  0.0000
   3.9034E+01   3.9983E+01   0.0000E+00  0.0000
   3.9983E+01   4.0956E+01   0.0000E+00  0.0000
   4.0956E+01   4.1953E+01   0.0000E+00  0.0000
   4.1953E+01   4.2973E+01   0.0000E+00  0.0000
   4.2973E+01   4.4019E+01   0.0000E+00  0.0000
   4.4019E+01   4.5090E+01   0.0000E+00  0.0000
   4.5090E+01   4.6187E+01   0.0000E+00  0.0000
   4.6187E+01   4.7311E+01   0.0000E+00  0.0000
   4.7311E+01   4.8462E+01   0.0000E+00  0.0000
   4.8462E+01   4.9641E+01   0.0000E+00  0.0000
   4.9641E+01   5.0849E+01   0.0000E+00  0.0000
   5.0849E+01   5.2086E+01   0.0000E+00  0.0000
   5.2086E+01   5.3353E+01   0.0000E+00  0.0000
   5.3353E+01   5.4651E+01   0.0000E+00  0.0000
   5.4651E+01   5.5981E+01   0.0000E+00  0.0000
   5.5981E+01   5.7343E+01   0.0000E+00  0.0000
   5.7343E+01   5.8738E+01   0.0000E+00  0.0000
   5.8738E+01   6.0168E+01   0.0000E+00  0.0000
   6.0168E+01   6.1632E+01   0.0000E+00  0.0000
   6.1632E+01   6.3131E+01   0.0000E+00  0.0000
   6.3131E+01   6.4667E+01   0.0000E+00  0.0000
   6.4667E+01   6.6240E+01   0.0000E+00  0.0000
   6.6240E+01   6.7852E+01   0.0000E+00  0.0000
   6.7852E+01   6.9503E+01   0.0000E+00  0.0000
   6.9503E+01   7.1194E+01   0.0000E+00  0.0000
   7.1194E+01   7.2926E+01   0.0000E+00  0.0000
   7.2926E+01   7.4701E+01   0.0000E+00  0.0000
   7.4701E+01   7.6518E+01   0.0000E+00  0.0000
   7.6518E+01   7.8380E+01   0.0000E+00  0.0000
   7.8380E+01   8.0287E+01   0.0000E+00  0.0000
   8.0287E+01   8.2240E+01   0.0000E+00  0.0000
   8.2240E+01   8.4241E+01   0.0000E+00  0.0000
   8.4241E+01   8.6291E+01   0.0000E+00  0.0000
   8.6291E+01   8.8391E+01   0.0000E+00  0.0000
   8.8391E+01   9.0541E+01   0.0000E+00  0.0000
   9.0541E+01   9.2744E+01   0.0000E+00  0.0000
   9.2744E+01   9.5001E+01   0.0000E+00  0.0000
   9.5001E+01   9.7312E+01   0.0000E+00  0.0000
   9.7312E+01   9.9680E+01   0.0000E+00  0.0000
   9.9680E+01   1.0211E+02   0.0000E+00  0.0000
   1.0211E+02   1.0459E+02   0.0000E+00  0.0000
   1.0459E+02   1.0713E+02   0.0000E+00  0.0000
   1.0713E+02   1.0974E+02   0.0000E+00  0.0000
   1.0974E+02   1.1241E+02   0.0000E+00  0.0000
   1.1241E+02   1.1515E+02   0.0000E+00  0.0000
   1.1515E+02   1.1795E+02   0.0000E+00  0.0000
   1.1795E+02   1.2082E+02   0.0000E+00  0.0000
   1.2082E+02   1.2376E+02   0.0000E+00  0.0000
   1.2376E+02   1.2677E+02   0.0000E+00  0.0000
   1.2677E+02   1.2985E+02   0.0000E+00  0.0000
   1.2985E+02   1.3301E+02   0.0000E+00  0.0000
   1.3301E+02   1.3625E+02   0.0000E+00  0.0000
   1.3625E+02   1.3956E+02   0.0000E+00  0.0000
   1.3956E+02   1.4296E+02   0.0000E+00  0.0000
   1.4296E+02   1.4644E+02   0.0000E+00  0.0000
   1.4644E+02   1.5000E+02   0.0000E+00  0.0000

#   sum over                 1.7945E-07
'no. =    1   reg = 126 - 226'
msuc: {\huge [t-cross] in region mesh}
msdr: {\it plotted by \ANGEL \version}
msdl: {\it calculated by \PHITS  3.26}
wt: s(0.7)
\vspace{-3}
  region surface crossing
  area  &=&   1.0000E+00 [cm^2]
e:
 
# Information for Restart Calculation
# This calculation was newly started
# istdev =  2 # 1:Batch variance, 2:History variance
# resc2  = 5.00000000000000000E+09 # Total source weight or Total source weight / maxcas
# resc3  = 5.00000000000000000E+09 # Total history number or Total batch number
# maxcas =   500000000 # History / Batch, only used for istdev=1
# bitrseed = 0110100000100010111000001110001111001110100100011111101000111001 # bit data of rseed
