[ T-Cross ]
    title = [t-cross] in region mesh
     mesh =  reg            # mesh type is region-wise
      reg =    1            # number of crossing regions
      non     r-from    r-to       area
      1       116       216        1.000000    
   e-type =    3            # e-mesh is log given by emin, emax and ne
     emin =  1.0000000E-02  # minimum value of e-mesh points
     emax =   150.0000      # maximum value of e-mesh points
#    edel =  2.4039514E-02  # mesh width of e-mesh points
       ne =    400          # number of e-mesh points
#    data = ( e(i), i = 1, ne + 1 )
#           1.00000E-02  1.02433E-02  1.04925E-02  1.07478E-02  1.10093E-02
#           1.12772E-02  1.15516E-02  1.18326E-02  1.21205E-02  1.24154E-02
#           1.27175E-02  1.30269E-02  1.33439E-02  1.36686E-02  1.40011E-02
#           1.43418E-02  1.46907E-02  1.50482E-02  1.54143E-02  1.57894E-02
#           1.61735E-02  1.65670E-02  1.69701E-02  1.73830E-02  1.78060E-02
#           1.82392E-02  1.86830E-02  1.91375E-02  1.96032E-02  2.00801E-02
#           2.05687E-02  2.10692E-02  2.15818E-02  2.21069E-02  2.26448E-02
#           2.31957E-02  2.37601E-02  2.43382E-02  2.49304E-02  2.55369E-02
#           2.61583E-02  2.67947E-02  2.74467E-02  2.81145E-02  2.87985E-02
#           2.94992E-02  3.02169E-02  3.09521E-02  3.17052E-02  3.24766E-02
#           3.32668E-02  3.40762E-02  3.49053E-02  3.57546E-02  3.66246E-02
#           3.75157E-02  3.84284E-02  3.93634E-02  4.03212E-02  4.13022E-02
#           4.23071E-02  4.33365E-02  4.43909E-02  4.54710E-02  4.65773E-02
#           4.77106E-02  4.88714E-02  5.00605E-02  5.12785E-02  5.25262E-02
#           5.38042E-02  5.51133E-02  5.64542E-02  5.78278E-02  5.92348E-02
#           6.06760E-02  6.21523E-02  6.36645E-02  6.52135E-02  6.68002E-02
#           6.84255E-02  7.00904E-02  7.17957E-02  7.35426E-02  7.53319E-02
#           7.71648E-02  7.90423E-02  8.09655E-02  8.29354E-02  8.49533E-02
#           8.70203E-02  8.91376E-02  9.13064E-02  9.35279E-02  9.58035E-02
#           9.81345E-02  1.00522E-01  1.02968E-01  1.05473E-01  1.08040E-01
#           1.10668E-01  1.13361E-01  1.16119E-01  1.18944E-01  1.21838E-01
#           1.24803E-01  1.27839E-01  1.30950E-01  1.34136E-01  1.37399E-01
#           1.40742E-01  1.44167E-01  1.47675E-01  1.51268E-01  1.54948E-01
#           1.58718E-01  1.62580E-01  1.66535E-01  1.70587E-01  1.74738E-01
#           1.78989E-01  1.83344E-01  1.87805E-01  1.92375E-01  1.97055E-01
#           2.01850E-01  2.06761E-01  2.11792E-01  2.16945E-01  2.22223E-01
#           2.27630E-01  2.33169E-01  2.38842E-01  2.44653E-01  2.50605E-01
#           2.56703E-01  2.62949E-01  2.69346E-01  2.75900E-01  2.82613E-01
#           2.89489E-01  2.96532E-01  3.03747E-01  3.11138E-01  3.18708E-01
#           3.26462E-01  3.34405E-01  3.42542E-01  3.50876E-01  3.59413E-01
#           3.68158E-01  3.77116E-01  3.86291E-01  3.95690E-01  4.05317E-01
#           4.15179E-01  4.25281E-01  4.35628E-01  4.46227E-01  4.57084E-01
#           4.68205E-01  4.79597E-01  4.91266E-01  5.03219E-01  5.15463E-01
#           5.28005E-01  5.40851E-01  5.54011E-01  5.67490E-01  5.81298E-01
#           5.95441E-01  6.09929E-01  6.24769E-01  6.39970E-01  6.55541E-01
#           6.71491E-01  6.87828E-01  7.04564E-01  7.21706E-01  7.39266E-01
#           7.57253E-01  7.75678E-01  7.94551E-01  8.13883E-01  8.33685E-01
#           8.53969E-01  8.74747E-01  8.96030E-01  9.17831E-01  9.40163E-01
#           9.63038E-01  9.86469E-01  1.01047E+00  1.03506E+00  1.06024E+00
#           1.08604E+00  1.11246E+00  1.13953E+00  1.16725E+00  1.19565E+00
#           1.22474E+00  1.25454E+00  1.28507E+00  1.31633E+00  1.34836E+00
#           1.38117E+00  1.41477E+00  1.44920E+00  1.48446E+00  1.52057E+00
#           1.55757E+00  1.59547E+00  1.63429E+00  1.67405E+00  1.71478E+00
#           1.75650E+00  1.79924E+00  1.84302E+00  1.88786E+00  1.93379E+00
#           1.98084E+00  2.02904E+00  2.07841E+00  2.12898E+00  2.18078E+00
#           2.23384E+00  2.28819E+00  2.34386E+00  2.40089E+00  2.45930E+00
#           2.51914E+00  2.58043E+00  2.64322E+00  2.70753E+00  2.77341E+00
#           2.84088E+00  2.91001E+00  2.98081E+00  3.05333E+00  3.12762E+00
#           3.20372E+00  3.28167E+00  3.36152E+00  3.44330E+00  3.52708E+00
#           3.61290E+00  3.70080E+00  3.79085E+00  3.88308E+00  3.97756E+00
#           4.07434E+00  4.17347E+00  4.27501E+00  4.37903E+00  4.48557E+00
#           4.59471E+00  4.70650E+00  4.82102E+00  4.93832E+00  5.05847E+00
#           5.18155E+00  5.30762E+00  5.43676E+00  5.56904E+00  5.70453E+00
#           5.84333E+00  5.98550E+00  6.13114E+00  6.28031E+00  6.43312E+00
#           6.58964E+00  6.74997E+00  6.91420E+00  7.08243E+00  7.25475E+00
#           7.43126E+00  7.61207E+00  7.79728E+00  7.98700E+00  8.18133E+00
#           8.38038E+00  8.58428E+00  8.79315E+00  9.00709E+00  9.22624E+00
#           9.45072E+00  9.68067E+00  9.91620E+00  1.01575E+01  1.04046E+01
#           1.06578E+01  1.09171E+01  1.11827E+01  1.14548E+01  1.17335E+01
#           1.20190E+01  1.23114E+01  1.26109E+01  1.29178E+01  1.32321E+01
#           1.35540E+01  1.38838E+01  1.42216E+01  1.45676E+01  1.49221E+01
#           1.52851E+01  1.56570E+01  1.60380E+01  1.64282E+01  1.68279E+01
#           1.72374E+01  1.76568E+01  1.80864E+01  1.85264E+01  1.89772E+01
#           1.94389E+01  1.99119E+01  2.03963E+01  2.08926E+01  2.14009E+01
#           2.19216E+01  2.24550E+01  2.30014E+01  2.35610E+01  2.41343E+01
#           2.47215E+01  2.53230E+01  2.59391E+01  2.65702E+01  2.72167E+01
#           2.78789E+01  2.85572E+01  2.92520E+01  2.99637E+01  3.06928E+01
#           3.14396E+01  3.22045E+01  3.29881E+01  3.37907E+01  3.46128E+01
#           3.54550E+01  3.63177E+01  3.72013E+01  3.81064E+01  3.90336E+01
#           3.99833E+01  4.09561E+01  4.19526E+01  4.29734E+01  4.40189E+01
#           4.50900E+01  4.61870E+01  4.73108E+01  4.84619E+01  4.96410E+01
#           5.08488E+01  5.20860E+01  5.33533E+01  5.46514E+01  5.59812E+01
#           5.73432E+01  5.87384E+01  6.01676E+01  6.16315E+01  6.31311E+01
#           6.46671E+01  6.62405E+01  6.78522E+01  6.95031E+01  7.11941E+01
#           7.29263E+01  7.47007E+01  7.65182E+01  7.83800E+01  8.02870E+01
#           8.22405E+01  8.42414E+01  8.62911E+01  8.83906E+01  9.05412E+01
#           9.27442E+01  9.50007E+01  9.73122E+01  9.96799E+01  1.02105E+02
#           1.04589E+02  1.07134E+02  1.09741E+02  1.12411E+02  1.15146E+02
#           1.17948E+02  1.20817E+02  1.23757E+02  1.26768E+02  1.29852E+02
#           1.33012E+02  1.36248E+02  1.39563E+02  1.42959E+02  1.46437E+02
#           1.50000E+02
     unit =    2            # unit is [1/cm^2/(MeV/n)/source]
     axis =  eng            # axis of output
     file = detector-17.out  # file name of output for the above axis
   output = f-curr          # surface crossing forward current spectrum
     part =  neutron  
# kf/name :  2112     
#    used :        main (  %)        temp (  %)       total (  %)
#  memory :         414 (  0)           0 (  0)         414 (  0)

#------------------------------------------------------------------------------
#newpage:
#   no. =    1   reg = 116 - 216

x: Energy [MeV/n]
y:  F-Curr [1/cm^2/(MeV/n)/source]         
p: xlog ylog afac(0.8) form(0.9)
h: n            x            y(neutron ),hh0l   n 
#  e-lower      e-upper      neutron     r.err 
   1.0000E-02   1.0243E-02   1.5964E-03  0.0717
   1.0243E-02   1.0493E-02   1.7025E-03  0.0686
   1.0493E-02   1.0748E-02   1.4323E-03  0.0738
   1.0748E-02   1.1009E-02   1.5167E-03  0.0710
   1.1009E-02   1.1277E-02   1.5914E-03  0.0684
   1.1277E-02   1.1552E-02   1.2539E-03  0.0761
   1.1552E-02   1.1833E-02   1.4868E-03  0.0690
   1.1833E-02   1.2121E-02   1.2502E-03  0.0744
   1.2121E-02   1.2415E-02   1.2865E-03  0.0725
   1.2415E-02   1.2718E-02   1.2693E-03  0.0720
   1.2718E-02   1.3027E-02   1.2119E-03  0.0730
   1.3027E-02   1.3344E-02   1.3135E-03  0.0693
   1.3344E-02   1.3669E-02   1.3028E-03  0.0687
   1.3669E-02   1.4001E-02   1.1628E-03  0.0719
   1.4001E-02   1.4342E-02   1.1645E-03  0.0710
   1.4342E-02   1.4691E-02   1.0898E-03  0.0725
   1.4691E-02   1.5048E-02   1.1749E-03  0.0689
   1.5048E-02   1.5414E-02   1.1032E-03  0.0702
   1.5414E-02   1.5789E-02   1.1785E-03  0.0673
   1.5789E-02   1.6174E-02   1.1104E-03  0.0684
   1.6174E-02   1.6567E-02   1.0562E-03  0.0693
   1.6567E-02   1.6970E-02   1.0005E-03  0.0704
   1.6970E-02   1.7383E-02   1.0961E-03  0.0664
   1.7383E-02   1.7806E-02   9.7627E-04  0.0695
   1.7806E-02   1.8239E-02   9.5926E-04  0.0693
   1.8239E-02   1.8683E-02   9.8779E-04  0.0675
   1.8683E-02   1.9138E-02   9.6122E-04  0.0675
   1.9138E-02   1.9603E-02   9.7631E-04  0.0662
   1.9603E-02   2.0080E-02   9.2360E-04  0.0672
   2.0080E-02   2.0569E-02   9.2128E-04  0.0666
   2.0569E-02   2.1069E-02   8.4984E-04  0.0685
   2.1069E-02   2.1582E-02   9.5316E-04  0.0639
   2.1582E-02   2.2107E-02   9.5409E-04  0.0631
   2.2107E-02   2.2645E-02   7.9571E-04  0.0683
   2.2645E-02   2.3196E-02   8.2887E-04  0.0661
   2.3196E-02   2.3760E-02   8.9009E-04  0.0630
   2.3760E-02   2.4338E-02   7.6301E-04  0.0672
   2.4338E-02   2.4930E-02   8.4505E-04  0.0632
   2.4930E-02   2.5537E-02   8.1533E-04  0.0635
   2.5537E-02   2.6158E-02   7.4720E-04  0.0655
   2.6158E-02   2.6795E-02   8.1191E-04  0.0621
   2.6795E-02   2.7447E-02   8.6203E-04  0.0596
   2.7447E-02   2.8114E-02   7.4468E-04  0.0633
   2.8114E-02   2.8799E-02   7.7879E-04  0.0612
   2.8799E-02   2.9499E-02   7.3769E-04  0.0622
   2.9499E-02   3.0217E-02   7.3989E-04  0.0613
   3.0217E-02   3.0952E-02   7.5062E-04  0.0601
   3.0952E-02   3.1705E-02   6.9182E-04  0.0619
   3.1705E-02   3.2477E-02   6.3214E-04  0.0640
   3.2477E-02   3.3267E-02   6.6853E-04  0.0614
   3.3267E-02   3.4076E-02   7.1768E-04  0.0585
   3.4076E-02   3.4905E-02   6.5972E-04  0.0604
   3.4905E-02   3.5755E-02   6.7010E-04  0.0592
   3.5755E-02   3.6625E-02   6.3578E-04  0.0600
   3.6625E-02   3.7516E-02   5.8302E-04  0.0619
   3.7516E-02   3.8428E-02   5.9740E-04  0.0604
   3.8428E-02   3.9363E-02   5.9829E-04  0.0597
   3.9363E-02   4.0321E-02   5.6115E-04  0.0609
   4.0321E-02   4.1302E-02   5.1228E-04  0.0631
   4.1302E-02   4.2307E-02   5.7953E-04  0.0585
   4.2307E-02   4.3337E-02   5.7988E-04  0.0578
   4.3337E-02   4.4391E-02   6.0288E-04  0.0560
   4.4391E-02   4.5471E-02   4.6380E-04  0.0631
   4.5471E-02   4.6577E-02   5.1369E-04  0.0593
   4.6577E-02   4.7711E-02   5.4497E-04  0.0569
   4.7711E-02   4.8871E-02   4.6703E-04  0.0607
   4.8871E-02   5.0061E-02   4.7980E-04  0.0590
   5.0061E-02   5.1279E-02   4.4322E-04  0.0607
   5.1279E-02   5.2526E-02   4.5706E-04  0.0591
   5.2526E-02   5.3804E-02   4.4966E-04  0.0589
   5.3804E-02   5.5113E-02   4.1811E-04  0.0604
   5.5113E-02   5.6454E-02   4.4189E-04  0.0580
   5.6454E-02   5.7828E-02   4.1458E-04  0.0592
   5.7828E-02   5.9235E-02   3.7890E-04  0.0611
   5.9235E-02   6.0676E-02   4.1623E-04  0.0576
   6.0676E-02   6.2152E-02   4.1903E-04  0.0568
   6.2152E-02   6.3665E-02   4.1670E-04  0.0563
   6.3665E-02   6.5214E-02   3.8375E-04  0.0579
   6.5214E-02   6.6800E-02   3.7607E-04  0.0578
   6.6800E-02   6.8426E-02   3.5617E-04  0.0587
   6.8426E-02   7.0090E-02   3.7442E-04  0.0565
   7.0090E-02   7.1796E-02   3.5633E-04  0.0573
   7.1796E-02   7.3543E-02   3.6575E-04  0.0559
   7.3543E-02   7.5332E-02   3.3510E-04  0.0577
   7.5332E-02   7.7165E-02   3.5368E-04  0.0555
   7.7165E-02   7.9042E-02   3.3697E-04  0.0561
   7.9042E-02   8.0965E-02   3.1165E-04  0.0577
   8.0965E-02   8.2935E-02   3.0365E-04  0.0577
   8.2935E-02   8.4953E-02   3.1653E-04  0.0559
   8.4953E-02   8.7020E-02   2.8879E-04  0.0578
   8.7020E-02   8.9138E-02   3.0766E-04  0.0553
   8.9138E-02   9.1306E-02   2.9046E-04  0.0562
   9.1306E-02   9.3528E-02   3.0086E-04  0.0546
   9.3528E-02   9.5804E-02   2.5325E-04  0.0587
   9.5804E-02   9.8134E-02   2.6895E-04  0.0564
   9.8134E-02   1.0052E-01   2.5739E-04  0.0570
   1.0052E-01   1.0297E-01   2.6820E-04  0.0552
   1.0297E-01   1.0547E-01   2.8693E-04  0.0527
   1.0547E-01   1.0804E-01   2.6681E-04  0.0540
   1.0804E-01   1.1067E-01   2.5279E-04  0.0548
   1.1067E-01   1.1336E-01   2.4187E-04  0.0554
   1.1336E-01   1.1612E-01   2.4276E-04  0.0546
   1.1612E-01   1.1894E-01   2.2828E-04  0.0556
   1.1894E-01   1.2184E-01   2.3931E-04  0.0537
   1.2184E-01   1.2480E-01   2.3104E-04  0.0540
   1.2480E-01   1.2784E-01   2.1235E-04  0.0556
   1.2784E-01   1.3095E-01   2.0110E-04  0.0565
   1.3095E-01   1.3414E-01   1.8367E-04  0.0584
   1.3414E-01   1.3740E-01   1.8363E-04  0.0577
   1.3740E-01   1.4074E-01   1.9617E-04  0.0552
   1.4074E-01   1.4417E-01   1.7058E-04  0.0584
   1.4417E-01   1.4767E-01   1.9577E-04  0.0539
   1.4767E-01   1.5127E-01   1.7147E-04  0.0569
   1.5127E-01   1.5495E-01   1.7967E-04  0.0550
   1.5495E-01   1.5872E-01   1.6886E-04  0.0559
   1.5872E-01   1.6258E-01   1.7778E-04  0.0539
   1.6258E-01   1.6654E-01   1.6575E-04  0.0552
   1.6654E-01   1.7059E-01   1.5010E-04  0.0572
   1.7059E-01   1.7474E-01   1.4499E-04  0.0575
   1.7474E-01   1.7899E-01   1.5976E-04  0.0542
   1.7899E-01   1.8334E-01   1.5650E-04  0.0541
   1.8334E-01   1.8781E-01   1.4112E-04  0.0563
   1.8781E-01   1.9237E-01   1.5556E-04  0.0529
   1.9237E-01   1.9706E-01   1.4742E-04  0.0537
   1.9706E-01   2.0185E-01   1.3850E-04  0.0548
   2.0185E-01   2.0676E-01   1.3057E-04  0.0558
   2.0676E-01   2.1179E-01   1.3241E-04  0.0547
   2.1179E-01   2.1694E-01   1.4604E-04  0.0515
   2.1694E-01   2.2222E-01   1.4657E-04  0.0507
   2.2222E-01   2.2763E-01   1.5829E-04  0.0482
   2.2763E-01   2.3317E-01   1.5780E-04  0.0477
   2.3317E-01   2.3884E-01   1.6679E-04  0.0459
   2.3884E-01   2.4465E-01   1.8596E-04  0.0429
   2.4465E-01   2.5061E-01   1.8708E-04  0.0423
   2.5061E-01   2.5670E-01   1.7852E-04  0.0428
   2.5670E-01   2.6295E-01   1.8356E-04  0.0417
   2.6295E-01   2.6935E-01   1.8557E-04  0.0410
   2.6935E-01   2.7590E-01   1.9326E-04  0.0396
   2.7590E-01   2.8261E-01   1.9820E-04  0.0387
   2.8261E-01   2.8949E-01   1.9092E-04  0.0389
   2.8949E-01   2.9653E-01   2.1010E-04  0.0367
   2.9653E-01   3.0375E-01   2.1111E-04  0.0362
   3.0375E-01   3.1114E-01   2.0517E-04  0.0362
   3.1114E-01   3.1871E-01   2.2108E-04  0.0345
   3.1871E-01   3.2646E-01   2.2280E-04  0.0340
   3.2646E-01   3.3441E-01   2.2727E-04  0.0332
   3.3441E-01   3.4254E-01   2.3096E-04  0.0326
   3.4254E-01   3.5088E-01   2.4391E-04  0.0313
   3.5088E-01   3.5941E-01   2.4530E-04  0.0308
   3.5941E-01   3.6816E-01   2.3935E-04  0.0309
   3.6816E-01   3.7712E-01   2.4188E-04  0.0303
   3.7712E-01   3.8629E-01   2.4662E-04  0.0297
   3.8629E-01   3.9569E-01   2.5528E-04  0.0288
   3.9569E-01   4.0532E-01   2.5641E-04  0.0284
   4.0532E-01   4.1518E-01   2.6652E-04  0.0275
   4.1518E-01   4.2528E-01   2.7542E-04  0.0267
   4.2528E-01   4.3563E-01   2.7666E-04  0.0264
   4.3563E-01   4.4623E-01   2.7491E-04  0.0261
   4.4623E-01   4.5708E-01   2.7193E-04  0.0260
   4.5708E-01   4.6821E-01   2.7683E-04  0.0254
   4.6821E-01   4.7960E-01   2.6704E-04  0.0256
   4.7960E-01   4.9127E-01   2.9026E-04  0.0243
   4.9127E-01   5.0322E-01   2.7873E-04  0.0245
   5.0322E-01   5.1546E-01   2.9302E-04  0.0236
   5.1546E-01   5.2800E-01   3.0315E-04  0.0229
   5.2800E-01   5.4085E-01   2.8974E-04  0.0231
   5.4085E-01   5.5401E-01   3.1125E-04  0.0220
   5.5401E-01   5.6749E-01   2.9787E-04  0.0223
   5.6749E-01   5.8130E-01   3.0756E-04  0.0217
   5.8130E-01   5.9544E-01   3.0018E-04  0.0216
   5.9544E-01   6.0993E-01   3.0026E-04  0.0214
   6.0993E-01   6.2477E-01   2.9262E-04  0.0214
   6.2477E-01   6.3997E-01   2.9535E-04  0.0211
   6.3997E-01   6.5554E-01   3.0237E-04  0.0206
   6.5554E-01   6.7149E-01   2.9288E-04  0.0206
   6.7149E-01   6.8783E-01   2.9691E-04  0.0203
   6.8783E-01   7.0456E-01   2.9618E-04  0.0200
   7.0456E-01   7.2171E-01   2.9098E-04  0.0200
   7.2171E-01   7.3927E-01   2.9781E-04  0.0195
   7.3927E-01   7.5725E-01   2.8163E-04  0.0198
   7.5725E-01   7.7568E-01   2.9988E-04  0.0190
   7.7568E-01   7.9455E-01   2.8361E-04  0.0193
   7.9455E-01   8.1388E-01   2.8292E-04  0.0191
   8.1388E-01   8.3368E-01   2.7944E-04  0.0190
   8.3368E-01   8.5397E-01   2.7894E-04  0.0187
   8.5397E-01   8.7475E-01   2.8377E-04  0.0184
   8.7475E-01   8.9603E-01   2.8380E-04  0.0181
   8.9603E-01   9.1783E-01   2.7512E-04  0.0182
   9.1783E-01   9.4016E-01   2.7253E-04  0.0181
   9.4016E-01   9.6304E-01   2.7681E-04  0.0177
   9.6304E-01   9.8647E-01   2.6419E-04  0.0179
   9.8647E-01   1.0105E+00   2.5540E-04  0.0180
   1.0105E+00   1.0351E+00   2.5633E-04  0.0177
   1.0351E+00   1.0602E+00   2.6003E-04  0.0174
   1.0602E+00   1.0860E+00   2.4675E-04  0.0177
   1.0860E+00   1.1125E+00   2.3671E-04  0.0178
   1.1125E+00   1.1395E+00   2.3355E-04  0.0177
   1.1395E+00   1.1673E+00   2.3844E-04  0.0173
   1.1673E+00   1.1957E+00   2.3934E-04  0.0171
   1.1957E+00   1.2247E+00   2.2496E-04  0.0174
   1.2247E+00   1.2545E+00   2.1849E-04  0.0174
   1.2545E+00   1.2851E+00   2.1893E-04  0.0172
   1.2851E+00   1.3163E+00   2.1867E-04  0.0170
   1.3163E+00   1.3484E+00   2.0728E-04  0.0173
   1.3484E+00   1.3812E+00   2.0741E-04  0.0171
   1.3812E+00   1.4148E+00   2.0818E-04  0.0168
   1.4148E+00   1.4492E+00   2.0435E-04  0.0168
   1.4492E+00   1.4845E+00   1.9903E-04  0.0168
   1.4845E+00   1.5206E+00   1.9092E-04  0.0169
   1.5206E+00   1.5576E+00   1.9198E-04  0.0167
   1.5576E+00   1.5955E+00   1.8745E-04  0.0167
   1.5955E+00   1.6343E+00   1.8476E-04  0.0166
   1.6343E+00   1.6741E+00   1.7935E-04  0.0166
   1.6741E+00   1.7148E+00   1.7290E-04  0.0167
   1.7148E+00   1.7565E+00   1.6820E-04  0.0168
   1.7565E+00   1.7992E+00   1.7461E-04  0.0163
   1.7992E+00   1.8430E+00   1.6214E-04  0.0167
   1.8430E+00   1.8879E+00   1.6777E-04  0.0162
   1.8879E+00   1.9338E+00   1.6239E-04  0.0163
   1.9338E+00   1.9808E+00   1.5639E-04  0.0164
   1.9808E+00   2.0290E+00   1.5734E-04  0.0161
   2.0290E+00   2.0784E+00   1.5567E-04  0.0160
   2.0784E+00   2.1290E+00   1.5072E-04  0.0161
   2.1290E+00   2.1808E+00   1.5119E-04  0.0159
   2.1808E+00   2.2338E+00   1.4806E-04  0.0158
   2.2338E+00   2.2882E+00   1.4718E-04  0.0157
   2.2882E+00   2.3439E+00   1.4492E-04  0.0157
   2.3439E+00   2.4009E+00   1.4010E-04  0.0157
   2.4009E+00   2.4593E+00   1.3535E-04  0.0158
   2.4593E+00   2.5191E+00   1.3586E-04  0.0156
   2.5191E+00   2.5804E+00   1.3444E-04  0.0155
   2.5804E+00   2.6432E+00   1.3005E-04  0.0155
   2.6432E+00   2.7075E+00   1.3140E-04  0.0153
   2.7075E+00   2.7734E+00   1.2655E-04  0.0154
   2.7734E+00   2.8409E+00   1.2426E-04  0.0153
   2.8409E+00   2.9100E+00   1.2297E-04  0.0152
   2.9100E+00   2.9808E+00   1.2222E-04  0.0151
   2.9808E+00   3.0533E+00   1.1807E-04  0.0152
   3.0533E+00   3.1276E+00   1.1767E-04  0.0150
   3.1276E+00   3.2037E+00   1.1826E-04  0.0148
   3.2037E+00   3.2817E+00   1.1284E-04  0.0150
   3.2817E+00   3.3615E+00   1.1535E-04  0.0147
   3.3615E+00   3.4433E+00   1.1440E-04  0.0145
   3.4433E+00   3.5271E+00   1.1007E-04  0.0146
   3.5271E+00   3.6129E+00   1.0957E-04  0.0145
   3.6129E+00   3.7008E+00   1.0960E-04  0.0143
   3.7008E+00   3.7908E+00   1.1041E-04  0.0141
   3.7908E+00   3.8831E+00   1.0802E-04  0.0141
   3.8831E+00   3.9776E+00   1.0677E-04  0.0140
   3.9776E+00   4.0743E+00   1.0789E-04  0.0138
   4.0743E+00   4.1735E+00   1.0581E-04  0.0137
   4.1735E+00   4.2750E+00   1.0376E-04  0.0137
   4.2750E+00   4.3790E+00   1.0598E-04  0.0134
   4.3790E+00   4.4856E+00   1.0211E-04  0.0135
   4.4856E+00   4.5947E+00   1.0184E-04  0.0133
   4.5947E+00   4.7065E+00   9.9956E-05  0.0133
   4.7065E+00   4.8210E+00   9.5855E-05  0.0134
   4.8210E+00   4.9383E+00   9.6940E-05  0.0132
   4.9383E+00   5.0585E+00   9.6317E-05  0.0131
   5.0585E+00   5.1815E+00   9.0603E-05  0.0133
   5.1815E+00   5.3076E+00   8.9388E-05  0.0133
   5.3076E+00   5.4368E+00   8.5785E-05  0.0134
   5.4368E+00   5.5690E+00   8.5481E-05  0.0132
   5.5690E+00   5.7045E+00   8.4108E-05  0.0132
   5.7045E+00   5.8433E+00   8.2643E-05  0.0132
   5.8433E+00   5.9855E+00   8.0923E-05  0.0131
   5.9855E+00   6.1311E+00   7.8763E-05  0.0132
   6.1311E+00   6.2803E+00   7.5283E-05  0.0133
   6.2803E+00   6.4331E+00   7.3784E-05  0.0133
   6.4331E+00   6.5896E+00   7.5087E-05  0.0130
   6.5896E+00   6.7500E+00   7.1180E-05  0.0132
   6.7500E+00   6.9142E+00   7.0150E-05  0.0131
   6.9142E+00   7.0824E+00   6.7884E-05  0.0132
   7.0824E+00   7.2548E+00   6.7063E-05  0.0131
   7.2548E+00   7.4313E+00   6.5267E-05  0.0131
   7.4313E+00   7.6121E+00   6.2452E-05  0.0133
   7.6121E+00   7.7973E+00   6.1780E-05  0.0132
   7.7973E+00   7.9870E+00   5.9039E-05  0.0133
   7.9870E+00   8.1813E+00   5.7568E-05  0.0133
   8.1813E+00   8.3804E+00   5.5587E-05  0.0134
   8.3804E+00   8.5843E+00   5.3950E-05  0.0135
   8.5843E+00   8.7931E+00   5.1252E-05  0.0136
   8.7931E+00   9.0071E+00   4.9709E-05  0.0137
   9.0071E+00   9.2262E+00   4.8083E-05  0.0138
   9.2262E+00   9.4507E+00   4.6586E-05  0.0138
   9.4507E+00   9.6807E+00   4.4484E-05  0.0140
   9.6807E+00   9.9162E+00   4.1909E-05  0.0142
   9.9162E+00   1.0157E+01   3.9927E-05  0.0144
   1.0157E+01   1.0405E+01   3.9609E-05  0.0143
   1.0405E+01   1.0658E+01   3.9254E-05  0.0142
   1.0658E+01   1.0917E+01   3.7620E-05  0.0143
   1.0917E+01   1.1183E+01   3.4927E-05  0.0147
   1.1183E+01   1.1455E+01   3.4749E-05  0.0145
   1.1455E+01   1.1733E+01   3.2246E-05  0.0149
   1.1733E+01   1.2019E+01   3.1732E-05  0.0148
   1.2019E+01   1.2311E+01   2.8780E-05  0.0154
   1.2311E+01   1.2611E+01   2.8303E-05  0.0153
   1.2611E+01   1.2918E+01   2.6013E-05  0.0158
   1.2918E+01   1.3232E+01   2.4446E-05  0.0161
   1.3232E+01   1.3554E+01   2.3672E-05  0.0162
   1.3554E+01   1.3884E+01   2.2906E-05  0.0163
   1.3884E+01   1.4222E+01   2.1110E-05  0.0167
   1.4222E+01   1.4568E+01   1.9202E-05  0.0173
   1.4568E+01   1.4922E+01   1.8504E-05  0.0175
   1.4922E+01   1.5285E+01   1.6155E-05  0.0185
   1.5285E+01   1.5657E+01   1.5583E-05  0.0186
   1.5657E+01   1.6038E+01   1.4230E-05  0.0192
   1.6038E+01   1.6428E+01   1.3208E-05  0.0197
   1.6428E+01   1.6828E+01   1.1948E-05  0.0205
   1.6828E+01   1.7237E+01   1.0782E-05  0.0213
   1.7237E+01   1.7657E+01   9.8607E-06  0.0220
   1.7657E+01   1.8086E+01   9.0185E-06  0.0227
   1.8086E+01   1.8526E+01   8.3308E-06  0.0234
   1.8526E+01   1.8977E+01   7.4326E-06  0.0244
   1.8977E+01   1.9439E+01   6.3933E-06  0.0260
   1.9439E+01   1.9912E+01   6.1485E-06  0.0262
   1.9912E+01   2.0396E+01   5.1933E-06  0.0282
   2.0396E+01   2.0893E+01   4.5863E-06  0.0296
   2.0893E+01   2.1401E+01   3.9344E-06  0.0316
   2.1401E+01   2.1922E+01   3.6182E-06  0.0326
   2.1922E+01   2.2455E+01   2.8498E-06  0.0363
   2.2455E+01   2.3001E+01   2.7126E-06  0.0367
   2.3001E+01   2.3561E+01   2.1871E-06  0.0404
   2.3561E+01   2.4134E+01   1.9328E-06  0.0425
   2.4134E+01   2.4721E+01   1.5191E-06  0.0474
   2.4721E+01   2.5323E+01   1.3566E-06  0.0495
   2.5323E+01   2.5939E+01   1.0323E-06  0.0561
   2.5939E+01   2.6570E+01   9.3168E-07  0.0583
   2.6570E+01   2.7217E+01   8.2602E-07  0.0612
   2.7217E+01   2.7879E+01   6.5237E-07  0.0680
   2.7879E+01   2.8557E+01   5.2188E-07  0.0752
   2.8557E+01   2.9252E+01   5.1524E-07  0.0747
   2.9252E+01   2.9964E+01   4.6085E-07  0.0781
   2.9964E+01   3.0693E+01   3.9778E-07  0.0830
   3.0693E+01   3.1440E+01   3.7227E-07  0.0848
   3.1440E+01   3.2205E+01   2.8760E-07  0.0953
   3.2205E+01   3.2988E+01   2.3483E-07  0.1043
   3.2988E+01   3.3791E+01   1.9935E-07  0.1118
   3.3791E+01   3.4613E+01   1.7272E-07  0.1187
   3.4613E+01   3.5455E+01   1.7574E-07  0.1162
   3.5455E+01   3.6318E+01   1.5997E-07  0.1204
   3.6318E+01   3.7201E+01   1.3807E-07  0.1280
   3.7201E+01   3.8106E+01   1.1048E-07  0.1414
   3.8106E+01   3.9034E+01   9.2756E-08  0.1525
   3.9034E+01   3.9983E+01   1.1161E-07  0.1374
   3.9983E+01   4.0956E+01   6.7844E-08  0.1741
   4.0956E+01   4.1953E+01   7.4260E-08  0.1644
   4.1953E+01   4.2973E+01   4.7025E-08  0.2041
   4.2973E+01   4.4019E+01   3.6344E-08  0.2294
   4.4019E+01   4.5090E+01   2.9878E-08  0.2500
   4.5090E+01   4.6187E+01   3.2815E-08  0.2357
   4.6187E+01   4.7311E+01   8.8986E-09  0.4472
   4.7311E+01   4.8462E+01   6.9498E-09  0.5000
   4.8462E+01   4.9641E+01   0.0000E+00  0.0000
   4.9641E+01   5.0849E+01   0.0000E+00  0.0000
   5.0849E+01   5.2086E+01   0.0000E+00  0.0000
   5.2086E+01   5.3353E+01   0.0000E+00  0.0000
   5.3353E+01   5.4651E+01   0.0000E+00  0.0000
   5.4651E+01   5.5981E+01   0.0000E+00  0.0000
   5.5981E+01   5.7343E+01   0.0000E+00  0.0000
   5.7343E+01   5.8738E+01   0.0000E+00  0.0000
   5.8738E+01   6.0168E+01   0.0000E+00  0.0000
   6.0168E+01   6.1632E+01   0.0000E+00  0.0000
   6.1632E+01   6.3131E+01   0.0000E+00  0.0000
   6.3131E+01   6.4667E+01   0.0000E+00  0.0000
   6.4667E+01   6.6240E+01   0.0000E+00  0.0000
   6.6240E+01   6.7852E+01   0.0000E+00  0.0000
   6.7852E+01   6.9503E+01   0.0000E+00  0.0000
   6.9503E+01   7.1194E+01   0.0000E+00  0.0000
   7.1194E+01   7.2926E+01   0.0000E+00  0.0000
   7.2926E+01   7.4701E+01   0.0000E+00  0.0000
   7.4701E+01   7.6518E+01   0.0000E+00  0.0000
   7.6518E+01   7.8380E+01   0.0000E+00  0.0000
   7.8380E+01   8.0287E+01   0.0000E+00  0.0000
   8.0287E+01   8.2240E+01   0.0000E+00  0.0000
   8.2240E+01   8.4241E+01   0.0000E+00  0.0000
   8.4241E+01   8.6291E+01   0.0000E+00  0.0000
   8.6291E+01   8.8391E+01   0.0000E+00  0.0000
   8.8391E+01   9.0541E+01   0.0000E+00  0.0000
   9.0541E+01   9.2744E+01   0.0000E+00  0.0000
   9.2744E+01   9.5001E+01   0.0000E+00  0.0000
   9.5001E+01   9.7312E+01   0.0000E+00  0.0000
   9.7312E+01   9.9680E+01   0.0000E+00  0.0000
   9.9680E+01   1.0211E+02   0.0000E+00  0.0000
   1.0211E+02   1.0459E+02   0.0000E+00  0.0000
   1.0459E+02   1.0713E+02   0.0000E+00  0.0000
   1.0713E+02   1.0974E+02   0.0000E+00  0.0000
   1.0974E+02   1.1241E+02   0.0000E+00  0.0000
   1.1241E+02   1.1515E+02   0.0000E+00  0.0000
   1.1515E+02   1.1795E+02   0.0000E+00  0.0000
   1.1795E+02   1.2082E+02   0.0000E+00  0.0000
   1.2082E+02   1.2376E+02   0.0000E+00  0.0000
   1.2376E+02   1.2677E+02   0.0000E+00  0.0000
   1.2677E+02   1.2985E+02   0.0000E+00  0.0000
   1.2985E+02   1.3301E+02   0.0000E+00  0.0000
   1.3301E+02   1.3625E+02   0.0000E+00  0.0000
   1.3625E+02   1.3956E+02   0.0000E+00  0.0000
   1.3956E+02   1.4296E+02   0.0000E+00  0.0000
   1.4296E+02   1.4644E+02   0.0000E+00  0.0000
   1.4644E+02   1.5000E+02   0.0000E+00  0.0000

#   sum over                 9.0935E-06
'no. =    1   reg = 116 - 216'
msuc: {\huge [t-cross] in region mesh}
msdr: {\it plotted by \ANGEL \version}
msdl: {\it calculated by \PHITS  3.26}
wt: s(0.7)
\vspace{-3}
  region surface crossing
  area  &=&   1.0000E+00 [cm^2]
e:
 
# Information for Restart Calculation
# This calculation was newly started
# istdev =  2 # 1:Batch variance, 2:History variance
# resc2  = 5.00000000000000000E+08 # Total source weight or Total source weight / maxcas
# resc3  = 5.00000000000000000E+08 # Total history number or Total batch number
# maxcas =   500000000 # History / Batch, only used for istdev=1
# bitrseed = 1101101111010011011000101101110001100110110010110001010100010001 # bit data of rseed
