[ T-Cross ]
    title = [t-cross] in region mesh
     mesh =  reg            # mesh type is region-wise
      reg =    1            # number of crossing regions
      non     r-from    r-to       area
      1       119       219        1.000000    
   e-type =    3            # e-mesh is log given by emin, emax and ne
     emin =  1.0000000E-02  # minimum value of e-mesh points
     emax =   150.0000      # maximum value of e-mesh points
#    edel =  2.4039514E-02  # mesh width of e-mesh points
       ne =    400          # number of e-mesh points
#    data = ( e(i), i = 1, ne + 1 )
#           1.00000E-02  1.02433E-02  1.04925E-02  1.07478E-02  1.10093E-02
#           1.12772E-02  1.15516E-02  1.18326E-02  1.21205E-02  1.24154E-02
#           1.27175E-02  1.30269E-02  1.33439E-02  1.36686E-02  1.40011E-02
#           1.43418E-02  1.46907E-02  1.50482E-02  1.54143E-02  1.57894E-02
#           1.61735E-02  1.65670E-02  1.69701E-02  1.73830E-02  1.78060E-02
#           1.82392E-02  1.86830E-02  1.91375E-02  1.96032E-02  2.00801E-02
#           2.05687E-02  2.10692E-02  2.15818E-02  2.21069E-02  2.26448E-02
#           2.31957E-02  2.37601E-02  2.43382E-02  2.49304E-02  2.55369E-02
#           2.61583E-02  2.67947E-02  2.74467E-02  2.81145E-02  2.87985E-02
#           2.94992E-02  3.02169E-02  3.09521E-02  3.17052E-02  3.24766E-02
#           3.32668E-02  3.40762E-02  3.49053E-02  3.57546E-02  3.66246E-02
#           3.75157E-02  3.84284E-02  3.93634E-02  4.03212E-02  4.13022E-02
#           4.23071E-02  4.33365E-02  4.43909E-02  4.54710E-02  4.65773E-02
#           4.77106E-02  4.88714E-02  5.00605E-02  5.12785E-02  5.25262E-02
#           5.38042E-02  5.51133E-02  5.64542E-02  5.78278E-02  5.92348E-02
#           6.06760E-02  6.21523E-02  6.36645E-02  6.52135E-02  6.68002E-02
#           6.84255E-02  7.00904E-02  7.17957E-02  7.35426E-02  7.53319E-02
#           7.71648E-02  7.90423E-02  8.09655E-02  8.29354E-02  8.49533E-02
#           8.70203E-02  8.91376E-02  9.13064E-02  9.35279E-02  9.58035E-02
#           9.81345E-02  1.00522E-01  1.02968E-01  1.05473E-01  1.08040E-01
#           1.10668E-01  1.13361E-01  1.16119E-01  1.18944E-01  1.21838E-01
#           1.24803E-01  1.27839E-01  1.30950E-01  1.34136E-01  1.37399E-01
#           1.40742E-01  1.44167E-01  1.47675E-01  1.51268E-01  1.54948E-01
#           1.58718E-01  1.62580E-01  1.66535E-01  1.70587E-01  1.74738E-01
#           1.78989E-01  1.83344E-01  1.87805E-01  1.92375E-01  1.97055E-01
#           2.01850E-01  2.06761E-01  2.11792E-01  2.16945E-01  2.22223E-01
#           2.27630E-01  2.33169E-01  2.38842E-01  2.44653E-01  2.50605E-01
#           2.56703E-01  2.62949E-01  2.69346E-01  2.75900E-01  2.82613E-01
#           2.89489E-01  2.96532E-01  3.03747E-01  3.11138E-01  3.18708E-01
#           3.26462E-01  3.34405E-01  3.42542E-01  3.50876E-01  3.59413E-01
#           3.68158E-01  3.77116E-01  3.86291E-01  3.95690E-01  4.05317E-01
#           4.15179E-01  4.25281E-01  4.35628E-01  4.46227E-01  4.57084E-01
#           4.68205E-01  4.79597E-01  4.91266E-01  5.03219E-01  5.15463E-01
#           5.28005E-01  5.40851E-01  5.54011E-01  5.67490E-01  5.81298E-01
#           5.95441E-01  6.09929E-01  6.24769E-01  6.39970E-01  6.55541E-01
#           6.71491E-01  6.87828E-01  7.04564E-01  7.21706E-01  7.39266E-01
#           7.57253E-01  7.75678E-01  7.94551E-01  8.13883E-01  8.33685E-01
#           8.53969E-01  8.74747E-01  8.96030E-01  9.17831E-01  9.40163E-01
#           9.63038E-01  9.86469E-01  1.01047E+00  1.03506E+00  1.06024E+00
#           1.08604E+00  1.11246E+00  1.13953E+00  1.16725E+00  1.19565E+00
#           1.22474E+00  1.25454E+00  1.28507E+00  1.31633E+00  1.34836E+00
#           1.38117E+00  1.41477E+00  1.44920E+00  1.48446E+00  1.52057E+00
#           1.55757E+00  1.59547E+00  1.63429E+00  1.67405E+00  1.71478E+00
#           1.75650E+00  1.79924E+00  1.84302E+00  1.88786E+00  1.93379E+00
#           1.98084E+00  2.02904E+00  2.07841E+00  2.12898E+00  2.18078E+00
#           2.23384E+00  2.28819E+00  2.34386E+00  2.40089E+00  2.45930E+00
#           2.51914E+00  2.58043E+00  2.64322E+00  2.70753E+00  2.77341E+00
#           2.84088E+00  2.91001E+00  2.98081E+00  3.05333E+00  3.12762E+00
#           3.20372E+00  3.28167E+00  3.36152E+00  3.44330E+00  3.52708E+00
#           3.61290E+00  3.70080E+00  3.79085E+00  3.88308E+00  3.97756E+00
#           4.07434E+00  4.17347E+00  4.27501E+00  4.37903E+00  4.48557E+00
#           4.59471E+00  4.70650E+00  4.82102E+00  4.93832E+00  5.05847E+00
#           5.18155E+00  5.30762E+00  5.43676E+00  5.56904E+00  5.70453E+00
#           5.84333E+00  5.98550E+00  6.13114E+00  6.28031E+00  6.43312E+00
#           6.58964E+00  6.74997E+00  6.91420E+00  7.08243E+00  7.25475E+00
#           7.43126E+00  7.61207E+00  7.79728E+00  7.98700E+00  8.18133E+00
#           8.38038E+00  8.58428E+00  8.79315E+00  9.00709E+00  9.22624E+00
#           9.45072E+00  9.68067E+00  9.91620E+00  1.01575E+01  1.04046E+01
#           1.06578E+01  1.09171E+01  1.11827E+01  1.14548E+01  1.17335E+01
#           1.20190E+01  1.23114E+01  1.26109E+01  1.29178E+01  1.32321E+01
#           1.35540E+01  1.38838E+01  1.42216E+01  1.45676E+01  1.49221E+01
#           1.52851E+01  1.56570E+01  1.60380E+01  1.64282E+01  1.68279E+01
#           1.72374E+01  1.76568E+01  1.80864E+01  1.85264E+01  1.89772E+01
#           1.94389E+01  1.99119E+01  2.03963E+01  2.08926E+01  2.14009E+01
#           2.19216E+01  2.24550E+01  2.30014E+01  2.35610E+01  2.41343E+01
#           2.47215E+01  2.53230E+01  2.59391E+01  2.65702E+01  2.72167E+01
#           2.78789E+01  2.85572E+01  2.92520E+01  2.99637E+01  3.06928E+01
#           3.14396E+01  3.22045E+01  3.29881E+01  3.37907E+01  3.46128E+01
#           3.54550E+01  3.63177E+01  3.72013E+01  3.81064E+01  3.90336E+01
#           3.99833E+01  4.09561E+01  4.19526E+01  4.29734E+01  4.40189E+01
#           4.50900E+01  4.61870E+01  4.73108E+01  4.84619E+01  4.96410E+01
#           5.08488E+01  5.20860E+01  5.33533E+01  5.46514E+01  5.59812E+01
#           5.73432E+01  5.87384E+01  6.01676E+01  6.16315E+01  6.31311E+01
#           6.46671E+01  6.62405E+01  6.78522E+01  6.95031E+01  7.11941E+01
#           7.29263E+01  7.47007E+01  7.65182E+01  7.83800E+01  8.02870E+01
#           8.22405E+01  8.42414E+01  8.62911E+01  8.83906E+01  9.05412E+01
#           9.27442E+01  9.50007E+01  9.73122E+01  9.96799E+01  1.02105E+02
#           1.04589E+02  1.07134E+02  1.09741E+02  1.12411E+02  1.15146E+02
#           1.17948E+02  1.20817E+02  1.23757E+02  1.26768E+02  1.29852E+02
#           1.33012E+02  1.36248E+02  1.39563E+02  1.42959E+02  1.46437E+02
#           1.50000E+02
     unit =    2            # unit is [1/cm^2/(MeV/n)/source]
     axis =  eng            # axis of output
     file = detector-20.out  # file name of output for the above axis
   output = f-curr          # surface crossing forward current spectrum
     part =  neutron  
# kf/name :  2112     
#    used :        main (  %)        temp (  %)       total (  %)
#  memory :         414 (  0)           0 (  0)         414 (  0)

#------------------------------------------------------------------------------
#newpage:
#   no. =    1   reg = 119 - 219

x: Energy [MeV/n]
y:  F-Curr [1/cm^2/(MeV/n)/source]         
p: xlog ylog afac(0.8) form(0.9)
h: n            x            y(neutron ),hh0l   n 
#  e-lower      e-upper      neutron     r.err 
   1.0000E-02   1.0243E-02   1.7483E-03  0.0685
   1.0243E-02   1.0493E-02   1.7469E-03  0.0676
   1.0493E-02   1.0748E-02   1.6359E-03  0.0691
   1.0748E-02   1.1009E-02   1.7525E-03  0.0659
   1.1009E-02   1.1277E-02   1.8180E-03  0.0640
   1.1277E-02   1.1552E-02   1.6896E-03  0.0655
   1.1552E-02   1.1833E-02   1.7197E-03  0.0642
   1.1833E-02   1.2121E-02   1.6555E-03  0.0647
   1.2121E-02   1.2415E-02   1.5415E-03  0.0662
   1.2415E-02   1.2718E-02   1.5691E-03  0.0649
   1.2718E-02   1.3027E-02   1.2904E-03  0.0707
   1.3027E-02   1.3344E-02   1.3743E-03  0.0676
   1.3344E-02   1.3669E-02   1.2922E-03  0.0689
   1.3669E-02   1.4001E-02   1.5015E-03  0.0632
   1.4001E-02   1.4342E-02   1.3414E-03  0.0661
   1.4342E-02   1.4691E-02   1.3641E-03  0.0647
   1.4691E-02   1.5048E-02   1.4833E-03  0.0613
   1.5048E-02   1.5414E-02   1.2576E-03  0.0657
   1.5414E-02   1.5789E-02   1.4212E-03  0.0612
   1.5789E-02   1.6174E-02   1.3447E-03  0.0621
   1.6174E-02   1.6567E-02   1.2521E-03  0.0637
   1.6567E-02   1.6970E-02   1.3366E-03  0.0608
   1.6970E-02   1.7383E-02   1.2520E-03  0.0622
   1.7383E-02   1.7806E-02   1.2444E-03  0.0616
   1.7806E-02   1.8239E-02   1.2814E-03  0.0600
   1.8239E-02   1.8683E-02   1.1889E-03  0.0614
   1.8683E-02   1.9138E-02   1.1058E-03  0.0630
   1.9138E-02   1.9603E-02   1.0687E-03  0.0632
   1.9603E-02   2.0080E-02   1.0561E-03  0.0629
   2.0080E-02   2.0569E-02   1.1619E-03  0.0592
   2.0569E-02   2.1069E-02   1.1089E-03  0.0600
   2.1069E-02   2.1582E-02   1.0111E-03  0.0621
   2.1582E-02   2.2107E-02   1.0544E-03  0.0600
   2.2107E-02   2.2645E-02   1.0188E-03  0.0604
   2.2645E-02   2.3196E-02   9.3173E-04  0.0623
   2.3196E-02   2.3760E-02   1.0120E-03  0.0591
   2.3760E-02   2.4338E-02   9.1625E-04  0.0614
   2.4338E-02   2.4930E-02   9.0688E-04  0.0610
   2.4930E-02   2.5537E-02   9.2045E-04  0.0598
   2.5537E-02   2.6158E-02   9.6031E-04  0.0579
   2.6158E-02   2.6795E-02   9.2238E-04  0.0583
   2.6795E-02   2.7447E-02   8.7072E-04  0.0593
   2.7447E-02   2.8114E-02   8.4444E-04  0.0594
   2.8114E-02   2.8799E-02   8.2723E-04  0.0594
   2.8799E-02   2.9499E-02   8.2549E-04  0.0588
   2.9499E-02   3.0217E-02   8.7913E-04  0.0562
   3.0217E-02   3.0952E-02   8.0465E-04  0.0581
   3.0952E-02   3.1705E-02   8.0672E-04  0.0573
   3.1705E-02   3.2477E-02   8.4091E-04  0.0555
   3.2477E-02   3.3267E-02   8.6659E-04  0.0540
   3.3267E-02   3.4076E-02   8.3431E-04  0.0544
   3.4076E-02   3.4905E-02   7.6007E-04  0.0563
   3.4905E-02   3.5755E-02   7.7042E-04  0.0553
   3.5755E-02   3.6625E-02   7.6977E-04  0.0546
   3.6625E-02   3.7516E-02   7.1754E-04  0.0558
   3.7516E-02   3.8428E-02   7.3619E-04  0.0545
   3.8428E-02   3.9363E-02   6.9866E-04  0.0552
   3.9363E-02   4.0321E-02   7.0687E-04  0.0543
   4.0321E-02   4.1302E-02   6.7364E-04  0.0549
   4.1302E-02   4.2307E-02   6.8829E-04  0.0537
   4.2307E-02   4.3337E-02   7.5020E-04  0.0508
   4.3337E-02   4.4391E-02   6.2730E-04  0.0548
   4.4391E-02   4.5471E-02   6.0061E-04  0.0555
   4.5471E-02   4.6577E-02   6.1527E-04  0.0542
   4.6577E-02   4.7711E-02   6.3090E-04  0.0529
   4.7711E-02   4.8871E-02   6.4662E-04  0.0515
   4.8871E-02   5.0061E-02   6.1777E-04  0.0521
   5.0061E-02   5.1279E-02   5.4231E-04  0.0550
   5.1279E-02   5.2526E-02   5.7837E-04  0.0525
   5.2526E-02   5.3804E-02   5.5241E-04  0.0532
   5.3804E-02   5.5113E-02   5.6113E-04  0.0521
   5.5113E-02   5.6454E-02   5.1012E-04  0.0540
   5.6454E-02   5.7828E-02   5.3136E-04  0.0523
   5.7828E-02   5.9235E-02   5.1652E-04  0.0524
   5.9235E-02   6.0676E-02   5.3612E-04  0.0508
   6.0676E-02   6.2152E-02   5.0594E-04  0.0517
   6.2152E-02   6.3665E-02   5.1337E-04  0.0507
   6.3665E-02   6.5214E-02   5.0663E-04  0.0504
   6.5214E-02   6.6800E-02   4.3642E-04  0.0537
   6.6800E-02   6.8426E-02   5.1073E-04  0.0490
   6.8426E-02   7.0090E-02   4.6937E-04  0.0505
   7.0090E-02   7.1796E-02   4.5979E-04  0.0504
   7.1796E-02   7.3543E-02   4.1742E-04  0.0523
   7.3543E-02   7.5332E-02   4.4578E-04  0.0500
   7.5332E-02   7.7165E-02   4.1632E-04  0.0511
   7.7165E-02   7.9042E-02   4.1293E-04  0.0507
   7.9042E-02   8.0965E-02   4.2265E-04  0.0495
   8.0965E-02   8.2935E-02   4.1068E-04  0.0497
   8.2935E-02   8.4953E-02   4.1859E-04  0.0486
   8.4953E-02   8.7020E-02   3.7725E-04  0.0505
   8.7020E-02   8.9138E-02   3.4970E-04  0.0519
   8.9138E-02   9.1306E-02   3.6791E-04  0.0500
   9.1306E-02   9.3528E-02   3.6633E-04  0.0495
   9.3528E-02   9.5804E-02   3.3719E-04  0.0510
   9.5804E-02   9.8134E-02   3.3646E-04  0.0504
   9.8134E-02   1.0052E-01   3.1464E-04  0.0516
   1.0052E-01   1.0297E-01   2.9894E-04  0.0522
   1.0297E-01   1.0547E-01   3.0472E-04  0.0511
   1.0547E-01   1.0804E-01   3.0670E-04  0.0504
   1.0804E-01   1.1067E-01   2.9774E-04  0.0505
   1.1067E-01   1.1336E-01   2.8833E-04  0.0507
   1.1336E-01   1.1612E-01   2.8914E-04  0.0502
   1.1612E-01   1.1894E-01   2.7608E-04  0.0506
   1.1894E-01   1.2184E-01   2.5950E-04  0.0515
   1.2184E-01   1.2480E-01   2.7148E-04  0.0497
   1.2480E-01   1.2784E-01   2.5957E-04  0.0503
   1.2784E-01   1.3095E-01   2.4696E-04  0.0509
   1.3095E-01   1.3414E-01   2.5613E-04  0.0494
   1.3414E-01   1.3740E-01   2.6270E-04  0.0482
   1.3740E-01   1.4074E-01   2.3520E-04  0.0504
   1.4074E-01   1.4417E-01   2.1530E-04  0.0520
   1.4417E-01   1.4767E-01   2.0238E-04  0.0530
   1.4767E-01   1.5127E-01   1.9759E-04  0.0530
   1.5127E-01   1.5495E-01   2.1088E-04  0.0507
   1.5495E-01   1.5872E-01   1.9964E-04  0.0515
   1.5872E-01   1.6258E-01   2.0110E-04  0.0507
   1.6258E-01   1.6654E-01   1.7794E-04  0.0533
   1.6654E-01   1.7059E-01   1.8022E-04  0.0523
   1.7059E-01   1.7474E-01   1.8683E-04  0.0507
   1.7474E-01   1.7899E-01   1.6414E-04  0.0534
   1.7899E-01   1.8334E-01   1.7131E-04  0.0516
   1.8334E-01   1.8781E-01   1.4548E-04  0.0554
   1.8781E-01   1.9237E-01   1.4968E-04  0.0540
   1.9237E-01   1.9706E-01   1.6859E-04  0.0502
   1.9706E-01   2.0185E-01   1.5914E-04  0.0512
   2.0185E-01   2.0676E-01   1.6718E-04  0.0493
   2.0676E-01   2.1179E-01   1.4983E-04  0.0514
   2.1179E-01   2.1694E-01   1.5860E-04  0.0494
   2.1694E-01   2.2222E-01   1.6954E-04  0.0472
   2.2222E-01   2.2763E-01   1.6814E-04  0.0467
   2.2763E-01   2.3317E-01   1.6698E-04  0.0464
   2.3317E-01   2.3884E-01   1.6984E-04  0.0455
   2.3884E-01   2.4465E-01   1.6915E-04  0.0450
   2.4465E-01   2.5061E-01   1.7329E-04  0.0439
   2.5061E-01   2.5670E-01   1.8845E-04  0.0417
   2.5670E-01   2.6295E-01   1.9184E-04  0.0408
   2.6295E-01   2.6935E-01   1.8833E-04  0.0407
   2.6935E-01   2.7590E-01   1.9363E-04  0.0396
   2.7590E-01   2.8261E-01   1.9444E-04  0.0391
   2.8261E-01   2.8949E-01   2.0842E-04  0.0373
   2.8949E-01   2.9653E-01   1.8868E-04  0.0387
   2.9653E-01   3.0375E-01   2.0921E-04  0.0363
   3.0375E-01   3.1114E-01   1.9561E-04  0.0371
   3.1114E-01   3.1871E-01   2.0137E-04  0.0362
   3.1871E-01   3.2646E-01   1.9140E-04  0.0366
   3.2646E-01   3.3441E-01   2.1035E-04  0.0345
   3.3441E-01   3.4254E-01   2.1627E-04  0.0336
   3.4254E-01   3.5088E-01   2.2030E-04  0.0330
   3.5088E-01   3.5941E-01   2.0468E-04  0.0338
   3.5941E-01   3.6816E-01   2.0277E-04  0.0335
   3.6816E-01   3.7712E-01   2.2620E-04  0.0313
   3.7712E-01   3.8629E-01   2.1631E-04  0.0317
   3.8629E-01   3.9569E-01   2.0838E-04  0.0318
   3.9569E-01   4.0532E-01   2.1253E-04  0.0312
   4.0532E-01   4.1518E-01   2.1706E-04  0.0305
   4.1518E-01   4.2528E-01   2.1121E-04  0.0305
   4.2528E-01   4.3563E-01   2.0201E-04  0.0308
   4.3563E-01   4.4623E-01   2.0167E-04  0.0305
   4.4623E-01   4.5708E-01   1.9255E-04  0.0308
   4.5708E-01   4.6821E-01   1.9613E-04  0.0302
   4.6821E-01   4.7960E-01   2.0085E-04  0.0295
   4.7960E-01   4.9127E-01   1.9537E-04  0.0295
   4.9127E-01   5.0322E-01   1.9538E-04  0.0292
   5.0322E-01   5.1546E-01   1.9523E-04  0.0289
   5.1546E-01   5.2800E-01   1.9765E-04  0.0283
   5.2800E-01   5.4085E-01   2.0645E-04  0.0274
   5.4085E-01   5.5401E-01   1.8970E-04  0.0282
   5.5401E-01   5.6749E-01   1.9511E-04  0.0275
   5.6749E-01   5.8130E-01   1.8541E-04  0.0279
   5.8130E-01   5.9544E-01   1.8031E-04  0.0279
   5.9544E-01   6.0993E-01   1.7846E-04  0.0277
   6.0993E-01   6.2477E-01   1.7874E-04  0.0274
   6.2477E-01   6.3997E-01   1.7340E-04  0.0274
   6.3997E-01   6.5554E-01   1.6533E-04  0.0278
   6.5554E-01   6.7149E-01   1.7004E-04  0.0271
   6.7149E-01   6.8783E-01   1.6450E-04  0.0272
   6.8783E-01   7.0456E-01   1.6643E-04  0.0267
   7.0456E-01   7.2171E-01   1.6449E-04  0.0265
   7.2171E-01   7.3927E-01   1.5535E-04  0.0270
   7.3927E-01   7.5725E-01   1.5315E-04  0.0268
   7.5725E-01   7.7568E-01   1.5723E-04  0.0262
   7.7568E-01   7.9455E-01   1.5040E-04  0.0264
   7.9455E-01   8.1388E-01   1.4792E-04  0.0263
   8.1388E-01   8.3368E-01   1.3774E-04  0.0270
   8.3368E-01   8.5397E-01   1.3431E-04  0.0270
   8.5397E-01   8.7475E-01   1.3161E-04  0.0269
   8.7475E-01   8.9603E-01   1.3506E-04  0.0262
   8.9603E-01   9.1783E-01   1.3523E-04  0.0259
   9.1783E-01   9.4016E-01   1.2902E-04  0.0262
   9.4016E-01   9.6304E-01   1.2899E-04  0.0259
   9.6304E-01   9.8647E-01   1.2294E-04  0.0262
   9.8647E-01   1.0105E+00   1.1459E-04  0.0268
   1.0105E+00   1.0351E+00   1.2058E-04  0.0258
   1.0351E+00   1.0602E+00   1.1640E-04  0.0260
   1.0602E+00   1.0860E+00   1.1593E-04  0.0257
   1.0860E+00   1.1125E+00   1.0810E-04  0.0263
   1.1125E+00   1.1395E+00   1.0949E-04  0.0258
   1.1395E+00   1.1673E+00   1.0442E-04  0.0261
   1.1673E+00   1.1957E+00   1.0496E-04  0.0257
   1.1957E+00   1.2247E+00   9.9203E-05  0.0262
   1.2247E+00   1.2545E+00   9.7874E-05  0.0261
   1.2545E+00   1.2851E+00   9.8118E-05  0.0257
   1.2851E+00   1.3163E+00   9.6922E-05  0.0255
   1.3163E+00   1.3484E+00   9.8749E-05  0.0250
   1.3484E+00   1.3812E+00   8.9950E-05  0.0258
   1.3812E+00   1.4148E+00   9.0806E-05  0.0254
   1.4148E+00   1.4492E+00   8.6178E-05  0.0258
   1.4492E+00   1.4845E+00   8.0669E-05  0.0263
   1.4845E+00   1.5206E+00   8.5871E-05  0.0252
   1.5206E+00   1.5576E+00   8.2034E-05  0.0255
   1.5576E+00   1.5955E+00   8.1653E-05  0.0252
   1.5955E+00   1.6343E+00   8.2226E-05  0.0249
   1.6343E+00   1.6741E+00   7.7045E-05  0.0253
   1.6741E+00   1.7148E+00   7.5596E-05  0.0253
   1.7148E+00   1.7565E+00   7.5681E-05  0.0250
   1.7565E+00   1.7992E+00   7.4511E-05  0.0248
   1.7992E+00   1.8430E+00   7.1117E-05  0.0251
   1.8430E+00   1.8879E+00   7.1844E-05  0.0247
   1.8879E+00   1.9338E+00   7.2499E-05  0.0243
   1.9338E+00   1.9808E+00   6.7954E-05  0.0248
   1.9808E+00   2.0290E+00   6.9588E-05  0.0242
   2.0290E+00   2.0784E+00   6.6048E-05  0.0245
   2.0784E+00   2.1290E+00   6.6931E-05  0.0241
   2.1290E+00   2.1808E+00   6.6838E-05  0.0239
   2.1808E+00   2.2338E+00   6.3674E-05  0.0241
   2.2338E+00   2.2882E+00   6.3187E-05  0.0239
   2.2882E+00   2.3439E+00   6.1937E-05  0.0239
   2.3439E+00   2.4009E+00   6.0879E-05  0.0238
   2.4009E+00   2.4593E+00   6.1906E-05  0.0233
   2.4593E+00   2.5191E+00   5.8275E-05  0.0237
   2.5191E+00   2.5804E+00   5.7402E-05  0.0236
   2.5804E+00   2.6432E+00   5.5298E-05  0.0238
   2.6432E+00   2.7075E+00   5.7308E-05  0.0231
   2.7075E+00   2.7734E+00   5.6367E-05  0.0230
   2.7734E+00   2.8409E+00   5.6807E-05  0.0227
   2.8409E+00   2.9100E+00   5.4198E-05  0.0229
   2.9100E+00   2.9808E+00   5.4910E-05  0.0225
   2.9808E+00   3.0533E+00   5.3789E-05  0.0225
   3.0533E+00   3.1276E+00   5.2413E-05  0.0225
   3.1276E+00   3.2037E+00   5.2862E-05  0.0221
   3.2037E+00   3.2817E+00   5.2706E-05  0.0219
   3.2817E+00   3.3615E+00   5.0434E-05  0.0221
   3.3615E+00   3.4433E+00   5.1356E-05  0.0217
   3.4433E+00   3.5271E+00   5.1245E-05  0.0214
   3.5271E+00   3.6129E+00   4.9676E-05  0.0215
   3.6129E+00   3.7008E+00   4.6816E-05  0.0219
   3.7008E+00   3.7908E+00   4.7712E-05  0.0214
   3.7908E+00   3.8831E+00   4.9085E-05  0.0209
   3.8831E+00   3.9776E+00   4.6252E-05  0.0213
   3.9776E+00   4.0743E+00   4.5396E-05  0.0212
   4.0743E+00   4.1735E+00   4.5615E-05  0.0209
   4.1735E+00   4.2750E+00   4.5451E-05  0.0207
   4.2750E+00   4.3790E+00   4.5459E-05  0.0205
   4.3790E+00   4.4856E+00   4.3109E-05  0.0208
   4.4856E+00   4.5947E+00   4.1228E-05  0.0210
   4.5947E+00   4.7065E+00   3.9993E-05  0.0210
   4.7065E+00   4.8210E+00   3.8458E-05  0.0212
   4.8210E+00   4.9383E+00   3.7960E-05  0.0211
   4.9383E+00   5.0585E+00   3.6848E-05  0.0212
   5.0585E+00   5.1815E+00   3.7135E-05  0.0208
   5.1815E+00   5.3076E+00   3.3973E-05  0.0215
   5.3076E+00   5.4368E+00   3.3648E-05  0.0214
   5.4368E+00   5.5690E+00   3.3613E-05  0.0211
   5.5690E+00   5.7045E+00   3.2467E-05  0.0212
   5.7045E+00   5.8433E+00   3.2651E-05  0.0209
   5.8433E+00   5.9855E+00   3.0586E-05  0.0214
   5.9855E+00   6.1311E+00   3.0052E-05  0.0213
   6.1311E+00   6.2803E+00   2.9222E-05  0.0213
   6.2803E+00   6.4331E+00   2.8955E-05  0.0212
   6.4331E+00   6.5896E+00   2.7436E-05  0.0215
   6.5896E+00   6.7500E+00   2.7872E-05  0.0211
   6.7500E+00   6.9142E+00   2.5507E-05  0.0218
   6.9142E+00   7.0824E+00   2.4838E-05  0.0218
   7.0824E+00   7.2548E+00   2.5565E-05  0.0213
   7.2548E+00   7.4313E+00   2.3778E-05  0.0218
   7.4313E+00   7.6121E+00   2.3492E-05  0.0217
   7.6121E+00   7.7973E+00   2.1464E-05  0.0224
   7.7973E+00   7.9870E+00   2.1646E-05  0.0220
   7.9870E+00   8.1813E+00   2.1025E-05  0.0221
   8.1813E+00   8.3804E+00   1.9662E-05  0.0226
   8.3804E+00   8.5843E+00   1.9169E-05  0.0226
   8.5843E+00   8.7931E+00   1.8718E-05  0.0226
   8.7931E+00   9.0071E+00   1.7510E-05  0.0231
   9.0071E+00   9.2262E+00   1.6705E-05  0.0234
   9.2262E+00   9.4507E+00   1.5665E-05  0.0238
   9.4507E+00   9.6807E+00   1.4936E-05  0.0241
   9.6807E+00   9.9162E+00   1.4307E-05  0.0243
   9.9162E+00   1.0157E+01   1.3180E-05  0.0251
   1.0157E+01   1.0405E+01   1.2875E-05  0.0251
   1.0405E+01   1.0658E+01   1.4115E-05  0.0236
   1.0658E+01   1.0917E+01   1.3394E-05  0.0240
   1.0917E+01   1.1183E+01   1.3125E-05  0.0239
   1.1183E+01   1.1455E+01   1.2252E-05  0.0245
   1.1455E+01   1.1733E+01   1.1046E-05  0.0255
   1.1733E+01   1.2019E+01   1.0660E-05  0.0256
   1.2019E+01   1.2311E+01   9.8993E-06  0.0263
   1.2311E+01   1.2611E+01   9.1440E-06  0.0270
   1.2611E+01   1.2918E+01   8.6160E-06  0.0275
   1.2918E+01   1.3232E+01   8.2164E-06  0.0278
   1.3232E+01   1.3554E+01   7.5837E-06  0.0286
   1.3554E+01   1.3884E+01   6.9897E-06  0.0295
   1.3884E+01   1.4222E+01   6.4722E-06  0.0302
   1.4222E+01   1.4568E+01   6.0677E-06  0.0309
   1.4568E+01   1.4922E+01   5.4019E-06  0.0323
   1.4922E+01   1.5285E+01   4.9992E-06  0.0332
   1.5285E+01   1.5657E+01   4.2397E-06  0.0356
   1.5657E+01   1.6038E+01   3.9728E-06  0.0363
   1.6038E+01   1.6428E+01   3.4852E-06  0.0383
   1.6428E+01   1.6828E+01   3.3606E-06  0.0386
   1.6828E+01   1.7237E+01   2.7265E-06  0.0423
   1.7237E+01   1.7657E+01   2.4082E-06  0.0445
   1.7657E+01   1.8086E+01   2.1974E-06  0.0460
   1.8086E+01   1.8526E+01   1.9679E-06  0.0481
   1.8526E+01   1.8977E+01   1.7178E-06  0.0508
   1.8977E+01   1.9439E+01   1.5688E-06  0.0525
   1.9439E+01   1.9912E+01   1.3912E-06  0.0551
   1.9912E+01   2.0396E+01   1.1435E-06  0.0601
   2.0396E+01   2.0893E+01   1.0357E-06  0.0624
   2.0893E+01   2.1401E+01   8.4590E-07  0.0682
   2.1401E+01   2.1922E+01   6.6449E-07  0.0760
   2.1922E+01   2.2455E+01   6.0371E-07  0.0788
   2.2455E+01   2.3001E+01   5.0883E-07  0.0848
   2.3001E+01   2.3561E+01   4.5744E-07  0.0884
   2.3561E+01   2.4134E+01   4.1168E-07  0.0921
   2.4134E+01   2.4721E+01   4.1553E-07  0.0905
   2.4721E+01   2.5323E+01   3.2253E-07  0.1015
   2.5323E+01   2.5939E+01   2.6942E-07  0.1098
   2.5939E+01   2.6570E+01   2.6936E-07  0.1085
   2.6570E+01   2.7217E+01   2.2584E-07  0.1170
   2.7217E+01   2.7879E+01   1.7517E-07  0.1313
   2.7879E+01   2.8557E+01   1.7101E-07  0.1313
   2.8557E+01   2.9252E+01   1.3529E-07  0.1459
   2.9252E+01   2.9964E+01   1.6860E-07  0.1291
   2.9964E+01   3.0693E+01   1.0425E-07  0.1622
   3.0693E+01   3.1440E+01   1.0980E-07  0.1562
   3.1440E+01   3.2205E+01   7.3207E-08  0.1890
   3.2205E+01   3.2988E+01   7.9126E-08  0.1796
   3.2988E+01   3.3791E+01   6.4787E-08  0.1961
   3.3791E+01   3.4613E+01   4.1355E-08  0.2425
   3.4613E+01   3.5455E+01   5.2247E-08  0.2132
   3.5455E+01   3.6318E+01   6.4916E-08  0.1890
   3.6318E+01   3.7201E+01   2.7160E-08  0.2887
   3.7201E+01   3.8106E+01   2.2096E-08  0.3162
   3.8106E+01   3.9034E+01   1.5100E-08  0.3780
   3.9034E+01   3.9983E+01   1.4741E-08  0.3780
   3.9983E+01   4.0956E+01   6.1676E-09  0.5774
   4.0956E+01   4.1953E+01   2.0070E-09  1.0000
   4.1953E+01   4.2973E+01   0.0000E+00  0.0000
   4.2973E+01   4.4019E+01   1.9128E-09  1.0000
   4.4019E+01   4.5090E+01   0.0000E+00  0.0000
   4.5090E+01   4.6187E+01   0.0000E+00  0.0000
   4.6187E+01   4.7311E+01   0.0000E+00  0.0000
   4.7311E+01   4.8462E+01   0.0000E+00  0.0000
   4.8462E+01   4.9641E+01   0.0000E+00  0.0000
   4.9641E+01   5.0849E+01   0.0000E+00  0.0000
   5.0849E+01   5.2086E+01   0.0000E+00  0.0000
   5.2086E+01   5.3353E+01   0.0000E+00  0.0000
   5.3353E+01   5.4651E+01   0.0000E+00  0.0000
   5.4651E+01   5.5981E+01   0.0000E+00  0.0000
   5.5981E+01   5.7343E+01   0.0000E+00  0.0000
   5.7343E+01   5.8738E+01   0.0000E+00  0.0000
   5.8738E+01   6.0168E+01   0.0000E+00  0.0000
   6.0168E+01   6.1632E+01   0.0000E+00  0.0000
   6.1632E+01   6.3131E+01   0.0000E+00  0.0000
   6.3131E+01   6.4667E+01   0.0000E+00  0.0000
   6.4667E+01   6.6240E+01   0.0000E+00  0.0000
   6.6240E+01   6.7852E+01   0.0000E+00  0.0000
   6.7852E+01   6.9503E+01   0.0000E+00  0.0000
   6.9503E+01   7.1194E+01   0.0000E+00  0.0000
   7.1194E+01   7.2926E+01   0.0000E+00  0.0000
   7.2926E+01   7.4701E+01   0.0000E+00  0.0000
   7.4701E+01   7.6518E+01   0.0000E+00  0.0000
   7.6518E+01   7.8380E+01   0.0000E+00  0.0000
   7.8380E+01   8.0287E+01   0.0000E+00  0.0000
   8.0287E+01   8.2240E+01   0.0000E+00  0.0000
   8.2240E+01   8.4241E+01   0.0000E+00  0.0000
   8.4241E+01   8.6291E+01   0.0000E+00  0.0000
   8.6291E+01   8.8391E+01   0.0000E+00  0.0000
   8.8391E+01   9.0541E+01   0.0000E+00  0.0000
   9.0541E+01   9.2744E+01   0.0000E+00  0.0000
   9.2744E+01   9.5001E+01   0.0000E+00  0.0000
   9.5001E+01   9.7312E+01   0.0000E+00  0.0000
   9.7312E+01   9.9680E+01   0.0000E+00  0.0000
   9.9680E+01   1.0211E+02   0.0000E+00  0.0000
   1.0211E+02   1.0459E+02   0.0000E+00  0.0000
   1.0459E+02   1.0713E+02   0.0000E+00  0.0000
   1.0713E+02   1.0974E+02   0.0000E+00  0.0000
   1.0974E+02   1.1241E+02   0.0000E+00  0.0000
   1.1241E+02   1.1515E+02   0.0000E+00  0.0000
   1.1515E+02   1.1795E+02   0.0000E+00  0.0000
   1.1795E+02   1.2082E+02   0.0000E+00  0.0000
   1.2082E+02   1.2376E+02   0.0000E+00  0.0000
   1.2376E+02   1.2677E+02   0.0000E+00  0.0000
   1.2677E+02   1.2985E+02   0.0000E+00  0.0000
   1.2985E+02   1.3301E+02   0.0000E+00  0.0000
   1.3301E+02   1.3625E+02   0.0000E+00  0.0000
   1.3625E+02   1.3956E+02   0.0000E+00  0.0000
   1.3956E+02   1.4296E+02   0.0000E+00  0.0000
   1.4296E+02   1.4644E+02   0.0000E+00  0.0000
   1.4644E+02   1.5000E+02   0.0000E+00  0.0000

#   sum over                 4.2852E-06
'no. =    1   reg = 119 - 219'
msuc: {\huge [t-cross] in region mesh}
msdr: {\it plotted by \ANGEL \version}
msdl: {\it calculated by \PHITS  3.26}
wt: s(0.7)
\vspace{-3}
  region surface crossing
  area  &=&   1.0000E+00 [cm^2]
e:
 
# Information for Restart Calculation
# This calculation was newly started
# istdev =  2 # 1:Batch variance, 2:History variance
# resc2  = 5.00000000000000000E+08 # Total source weight or Total source weight / maxcas
# resc3  = 5.00000000000000000E+08 # Total history number or Total batch number
# maxcas =   500000000 # History / Batch, only used for istdev=1
# bitrseed = 1101101111010011011000101101110001100110110010110001010100010001 # bit data of rseed
