0 <--- number of remaining batches 

-------------------------------------------------------------------------------
bat[      50] ncas =     5000000000.
 bitrseed = 1010100001101100001010110100011000011010110011110100001101011000
          cpu time =  14 m. 15.15 s.

 date = 2022-04-30
 time = 01h 25m 15s

