[ T-Cross ]
    title = [t-cross] in region mesh
     mesh =  reg            # mesh type is region-wise
      reg =    1            # number of crossing regions
      non     r-from    r-to       area
      1       112       212        1.000000    
   e-type =    3            # e-mesh is log given by emin, emax and ne
     emin =  1.0000000E-02  # minimum value of e-mesh points
     emax =   150.0000      # maximum value of e-mesh points
#    edel =  2.4039514E-02  # mesh width of e-mesh points
       ne =    400          # number of e-mesh points
#    data = ( e(i), i = 1, ne + 1 )
#           1.00000E-02  1.02433E-02  1.04925E-02  1.07478E-02  1.10093E-02
#           1.12772E-02  1.15516E-02  1.18326E-02  1.21205E-02  1.24154E-02
#           1.27175E-02  1.30269E-02  1.33439E-02  1.36686E-02  1.40011E-02
#           1.43418E-02  1.46907E-02  1.50482E-02  1.54143E-02  1.57894E-02
#           1.61735E-02  1.65670E-02  1.69701E-02  1.73830E-02  1.78060E-02
#           1.82392E-02  1.86830E-02  1.91375E-02  1.96032E-02  2.00801E-02
#           2.05687E-02  2.10692E-02  2.15818E-02  2.21069E-02  2.26448E-02
#           2.31957E-02  2.37601E-02  2.43382E-02  2.49304E-02  2.55369E-02
#           2.61583E-02  2.67947E-02  2.74467E-02  2.81145E-02  2.87985E-02
#           2.94992E-02  3.02169E-02  3.09521E-02  3.17052E-02  3.24766E-02
#           3.32668E-02  3.40762E-02  3.49053E-02  3.57546E-02  3.66246E-02
#           3.75157E-02  3.84284E-02  3.93634E-02  4.03212E-02  4.13022E-02
#           4.23071E-02  4.33365E-02  4.43909E-02  4.54710E-02  4.65773E-02
#           4.77106E-02  4.88714E-02  5.00605E-02  5.12785E-02  5.25262E-02
#           5.38042E-02  5.51133E-02  5.64542E-02  5.78278E-02  5.92348E-02
#           6.06760E-02  6.21523E-02  6.36645E-02  6.52135E-02  6.68002E-02
#           6.84255E-02  7.00904E-02  7.17957E-02  7.35426E-02  7.53319E-02
#           7.71648E-02  7.90423E-02  8.09655E-02  8.29354E-02  8.49533E-02
#           8.70203E-02  8.91376E-02  9.13064E-02  9.35279E-02  9.58035E-02
#           9.81345E-02  1.00522E-01  1.02968E-01  1.05473E-01  1.08040E-01
#           1.10668E-01  1.13361E-01  1.16119E-01  1.18944E-01  1.21838E-01
#           1.24803E-01  1.27839E-01  1.30950E-01  1.34136E-01  1.37399E-01
#           1.40742E-01  1.44167E-01  1.47675E-01  1.51268E-01  1.54948E-01
#           1.58718E-01  1.62580E-01  1.66535E-01  1.70587E-01  1.74738E-01
#           1.78989E-01  1.83344E-01  1.87805E-01  1.92375E-01  1.97055E-01
#           2.01850E-01  2.06761E-01  2.11792E-01  2.16945E-01  2.22223E-01
#           2.27630E-01  2.33169E-01  2.38842E-01  2.44653E-01  2.50605E-01
#           2.56703E-01  2.62949E-01  2.69346E-01  2.75900E-01  2.82613E-01
#           2.89489E-01  2.96532E-01  3.03747E-01  3.11138E-01  3.18708E-01
#           3.26462E-01  3.34405E-01  3.42542E-01  3.50876E-01  3.59413E-01
#           3.68158E-01  3.77116E-01  3.86291E-01  3.95690E-01  4.05317E-01
#           4.15179E-01  4.25281E-01  4.35628E-01  4.46227E-01  4.57084E-01
#           4.68205E-01  4.79597E-01  4.91266E-01  5.03219E-01  5.15463E-01
#           5.28005E-01  5.40851E-01  5.54011E-01  5.67490E-01  5.81298E-01
#           5.95441E-01  6.09929E-01  6.24769E-01  6.39970E-01  6.55541E-01
#           6.71491E-01  6.87828E-01  7.04564E-01  7.21706E-01  7.39266E-01
#           7.57253E-01  7.75678E-01  7.94551E-01  8.13883E-01  8.33685E-01
#           8.53969E-01  8.74747E-01  8.96030E-01  9.17831E-01  9.40163E-01
#           9.63038E-01  9.86469E-01  1.01047E+00  1.03506E+00  1.06024E+00
#           1.08604E+00  1.11246E+00  1.13953E+00  1.16725E+00  1.19565E+00
#           1.22474E+00  1.25454E+00  1.28507E+00  1.31633E+00  1.34836E+00
#           1.38117E+00  1.41477E+00  1.44920E+00  1.48446E+00  1.52057E+00
#           1.55757E+00  1.59547E+00  1.63429E+00  1.67405E+00  1.71478E+00
#           1.75650E+00  1.79924E+00  1.84302E+00  1.88786E+00  1.93379E+00
#           1.98084E+00  2.02904E+00  2.07841E+00  2.12898E+00  2.18078E+00
#           2.23384E+00  2.28819E+00  2.34386E+00  2.40089E+00  2.45930E+00
#           2.51914E+00  2.58043E+00  2.64322E+00  2.70753E+00  2.77341E+00
#           2.84088E+00  2.91001E+00  2.98081E+00  3.05333E+00  3.12762E+00
#           3.20372E+00  3.28167E+00  3.36152E+00  3.44330E+00  3.52708E+00
#           3.61290E+00  3.70080E+00  3.79085E+00  3.88308E+00  3.97756E+00
#           4.07434E+00  4.17347E+00  4.27501E+00  4.37903E+00  4.48557E+00
#           4.59471E+00  4.70650E+00  4.82102E+00  4.93832E+00  5.05847E+00
#           5.18155E+00  5.30762E+00  5.43676E+00  5.56904E+00  5.70453E+00
#           5.84333E+00  5.98550E+00  6.13114E+00  6.28031E+00  6.43312E+00
#           6.58964E+00  6.74997E+00  6.91420E+00  7.08243E+00  7.25475E+00
#           7.43126E+00  7.61207E+00  7.79728E+00  7.98700E+00  8.18133E+00
#           8.38038E+00  8.58428E+00  8.79315E+00  9.00709E+00  9.22624E+00
#           9.45072E+00  9.68067E+00  9.91620E+00  1.01575E+01  1.04046E+01
#           1.06578E+01  1.09171E+01  1.11827E+01  1.14548E+01  1.17335E+01
#           1.20190E+01  1.23114E+01  1.26109E+01  1.29178E+01  1.32321E+01
#           1.35540E+01  1.38838E+01  1.42216E+01  1.45676E+01  1.49221E+01
#           1.52851E+01  1.56570E+01  1.60380E+01  1.64282E+01  1.68279E+01
#           1.72374E+01  1.76568E+01  1.80864E+01  1.85264E+01  1.89772E+01
#           1.94389E+01  1.99119E+01  2.03963E+01  2.08926E+01  2.14009E+01
#           2.19216E+01  2.24550E+01  2.30014E+01  2.35610E+01  2.41343E+01
#           2.47215E+01  2.53230E+01  2.59391E+01  2.65702E+01  2.72167E+01
#           2.78789E+01  2.85572E+01  2.92520E+01  2.99637E+01  3.06928E+01
#           3.14396E+01  3.22045E+01  3.29881E+01  3.37907E+01  3.46128E+01
#           3.54550E+01  3.63177E+01  3.72013E+01  3.81064E+01  3.90336E+01
#           3.99833E+01  4.09561E+01  4.19526E+01  4.29734E+01  4.40189E+01
#           4.50900E+01  4.61870E+01  4.73108E+01  4.84619E+01  4.96410E+01
#           5.08488E+01  5.20860E+01  5.33533E+01  5.46514E+01  5.59812E+01
#           5.73432E+01  5.87384E+01  6.01676E+01  6.16315E+01  6.31311E+01
#           6.46671E+01  6.62405E+01  6.78522E+01  6.95031E+01  7.11941E+01
#           7.29263E+01  7.47007E+01  7.65182E+01  7.83800E+01  8.02870E+01
#           8.22405E+01  8.42414E+01  8.62911E+01  8.83906E+01  9.05412E+01
#           9.27442E+01  9.50007E+01  9.73122E+01  9.96799E+01  1.02105E+02
#           1.04589E+02  1.07134E+02  1.09741E+02  1.12411E+02  1.15146E+02
#           1.17948E+02  1.20817E+02  1.23757E+02  1.26768E+02  1.29852E+02
#           1.33012E+02  1.36248E+02  1.39563E+02  1.42959E+02  1.46437E+02
#           1.50000E+02
     unit =    2            # unit is [1/cm^2/(MeV/n)/source]
     axis =  eng            # axis of output
     file = detector-13.out  # file name of output for the above axis
   output = f-curr          # surface crossing forward current spectrum
     part =  neutron  
# kf/name :  2112     
#    used :        main (  %)        temp (  %)       total (  %)
#  memory :         414 (  0)           0 (  0)         414 (  0)

#------------------------------------------------------------------------------
#newpage:
#   no. =    1   reg = 112 - 212

x: Energy [MeV/n]
y:  F-Curr [1/cm^2/(MeV/n)/source]         
p: xlog ylog afac(0.8) form(0.9)
h: n            x            y(neutron ),hh0l   n 
#  e-lower      e-upper      neutron     r.err 
   1.0000E-02   1.0243E-02   1.2083E-04  0.0825
   1.0243E-02   1.0493E-02   1.1074E-04  0.0851
   1.0493E-02   1.0748E-02   9.7927E-05  0.0894
   1.0748E-02   1.1009E-02   1.0707E-04  0.0845
   1.1009E-02   1.1277E-02   9.7064E-05  0.0877
   1.1277E-02   1.1552E-02   1.0496E-04  0.0833
   1.1552E-02   1.1833E-02   9.7488E-05  0.0854
   1.1833E-02   1.2121E-02   1.0004E-04  0.0833
   1.2121E-02   1.2415E-02   1.1122E-04  0.0781
   1.2415E-02   1.2718E-02   8.8057E-05  0.0867
   1.2718E-02   1.3027E-02   9.7277E-05  0.0814
   1.3027E-02   1.3344E-02   8.5185E-05  0.0861
   1.3344E-02   1.3669E-02   1.1088E-04  0.0745
   1.3669E-02   1.4001E-02   9.3214E-05  0.0803
   1.4001E-02   1.4342E-02   1.0450E-04  0.0750
   1.4342E-02   1.4691E-02   1.0546E-04  0.0737
   1.4691E-02   1.5048E-02   9.1764E-05  0.0781
   1.5048E-02   1.5414E-02   9.3955E-05  0.0762
   1.5414E-02   1.5789E-02   8.4257E-05  0.0796
   1.5789E-02   1.6174E-02   8.8503E-05  0.0767
   1.6174E-02   1.6567E-02   9.0467E-05  0.0750
   1.6567E-02   1.6970E-02   7.7898E-05  0.0798
   1.6970E-02   1.7383E-02   8.1861E-05  0.0769
   1.7383E-02   1.7806E-02   8.8428E-05  0.0731
   1.7806E-02   1.8239E-02   9.2329E-05  0.0707
   1.8239E-02   1.8683E-02   9.2389E-05  0.0698
   1.8683E-02   1.9138E-02   8.7555E-05  0.0709
   1.9138E-02   1.9603E-02   8.6764E-05  0.0704
   1.9603E-02   2.0080E-02   9.0154E-05  0.0682
   2.0080E-02   2.0569E-02   9.3334E-05  0.0662
   2.0569E-02   2.1069E-02   8.4723E-05  0.0687
   2.1069E-02   2.1582E-02   8.0370E-05  0.0697
   2.1582E-02   2.2107E-02   7.5795E-05  0.0709
   2.2107E-02   2.2645E-02   7.2135E-05  0.0718
   2.2645E-02   2.3196E-02   7.2237E-05  0.0709
   2.3196E-02   2.3760E-02   9.2138E-05  0.0620
   2.3760E-02   2.4338E-02   7.9917E-05  0.0658
   2.4338E-02   2.4930E-02   7.4979E-05  0.0671
   2.4930E-02   2.5537E-02   7.6495E-05  0.0657
   2.5537E-02   2.6158E-02   6.9850E-05  0.0679
   2.6158E-02   2.6795E-02   6.9133E-05  0.0674
   2.6795E-02   2.7447E-02   7.0866E-05  0.0658
   2.7447E-02   2.8114E-02   6.8883E-05  0.0659
   2.8114E-02   2.8799E-02   8.1573E-05  0.0599
   2.8799E-02   2.9499E-02   6.9075E-05  0.0643
   2.9499E-02   3.0217E-02   6.9385E-05  0.0634
   3.0217E-02   3.0952E-02   6.7192E-05  0.0636
   3.0952E-02   3.1705E-02   7.0111E-05  0.0615
   3.1705E-02   3.2477E-02   6.1705E-05  0.0648
   3.2477E-02   3.3267E-02   6.6314E-05  0.0618
   3.3267E-02   3.4076E-02   6.5480E-05  0.0614
   3.4076E-02   3.4905E-02   5.7894E-05  0.0645
   3.4905E-02   3.5755E-02   5.8638E-05  0.0634
   3.5755E-02   3.6625E-02   6.6442E-05  0.0588
   3.6625E-02   3.7516E-02   6.1272E-05  0.0605
   3.7516E-02   3.8428E-02   6.3761E-05  0.0586
   3.8428E-02   3.9363E-02   5.9038E-05  0.0602
   3.9363E-02   4.0321E-02   5.6174E-05  0.0610
   4.0321E-02   4.1302E-02   5.6063E-05  0.0603
   4.1302E-02   4.2307E-02   5.8114E-05  0.0585
   4.2307E-02   4.3337E-02   5.7317E-05  0.0582
   4.3337E-02   4.4391E-02   5.2162E-05  0.0603
   4.4391E-02   4.5471E-02   5.5182E-05  0.0579
   4.5471E-02   4.6577E-02   4.6459E-05  0.0624
   4.6577E-02   4.7711E-02   5.0297E-05  0.0592
   4.7711E-02   4.8871E-02   4.6518E-05  0.0609
   4.8871E-02   5.0061E-02   4.4404E-05  0.0615
   5.0061E-02   5.1279E-02   5.2380E-05  0.0560
   5.1279E-02   5.2526E-02   4.6488E-05  0.0587
   5.2526E-02   5.3804E-02   4.8357E-05  0.0571
   5.3804E-02   5.5113E-02   4.8889E-05  0.0559
   5.5113E-02   5.6454E-02   4.5192E-05  0.0574
   5.6454E-02   5.7828E-02   4.6302E-05  0.0561
   5.7828E-02   5.9235E-02   4.5345E-05  0.0560
   5.9235E-02   6.0676E-02   4.3574E-05  0.0564
   6.0676E-02   6.2152E-02   4.4977E-05  0.0549
   6.2152E-02   6.3665E-02   4.0074E-05  0.0574
   6.3665E-02   6.5214E-02   4.0413E-05  0.0565
   6.5214E-02   6.6800E-02   4.0209E-05  0.0560
   6.6800E-02   6.8426E-02   3.9377E-05  0.0559
   6.8426E-02   7.0090E-02   4.2767E-05  0.0530
   7.0090E-02   7.1796E-02   3.4128E-05  0.0586
   7.1796E-02   7.3543E-02   4.0187E-05  0.0534
   7.3543E-02   7.5332E-02   3.5991E-05  0.0557
   7.5332E-02   7.7165E-02   4.1028E-05  0.0516
   7.7165E-02   7.9042E-02   3.5686E-05  0.0546
   7.9042E-02   8.0965E-02   3.2759E-05  0.0563
   8.0965E-02   8.2935E-02   3.3300E-05  0.0552
   8.2935E-02   8.4953E-02   3.3897E-05  0.0541
   8.4953E-02   8.7020E-02   3.3672E-05  0.0536
   8.7020E-02   8.9138E-02   3.3912E-05  0.0528
   8.9138E-02   9.1306E-02   3.2553E-05  0.0532
   9.1306E-02   9.3528E-02   2.9619E-05  0.0551
   9.3528E-02   9.5804E-02   3.1464E-05  0.0529
   9.5804E-02   9.8134E-02   3.0803E-05  0.0528
   9.8134E-02   1.0052E-01   3.0741E-05  0.0522
   1.0052E-01   1.0297E-01   3.2219E-05  0.0504
   1.0297E-01   1.0547E-01   3.0256E-05  0.0514
   1.0547E-01   1.0804E-01   2.6576E-05  0.0542
   1.0804E-01   1.1067E-01   2.9368E-05  0.0509
   1.1067E-01   1.1336E-01   2.6814E-05  0.0526
   1.1336E-01   1.1612E-01   2.7555E-05  0.0513
   1.1612E-01   1.1894E-01   2.7962E-05  0.0503
   1.1894E-01   1.2184E-01   2.4395E-05  0.0532
   1.2184E-01   1.2480E-01   2.4625E-05  0.0523
   1.2480E-01   1.2784E-01   2.7465E-05  0.0490
   1.2784E-01   1.3095E-01   2.3405E-05  0.0524
   1.3095E-01   1.3414E-01   2.3100E-05  0.0521
   1.3414E-01   1.3740E-01   2.2674E-05  0.0520
   1.3740E-01   1.4074E-01   2.5187E-05  0.0487
   1.4074E-01   1.4417E-01   2.3362E-05  0.0500
   1.4417E-01   1.4767E-01   2.0640E-05  0.0526
   1.4767E-01   1.5127E-01   2.1152E-05  0.0513
   1.5127E-01   1.5495E-01   1.9237E-05  0.0531
   1.5495E-01   1.5872E-01   1.8674E-05  0.0533
   1.5872E-01   1.6258E-01   1.8386E-05  0.0531
   1.6258E-01   1.6654E-01   1.9263E-05  0.0512
   1.6654E-01   1.7059E-01   1.8214E-05  0.0521
   1.7059E-01   1.7474E-01   1.8215E-05  0.0514
   1.7474E-01   1.7899E-01   1.7170E-05  0.0523
   1.7899E-01   1.8334E-01   1.6257E-05  0.0531
   1.8334E-01   1.8781E-01   1.4795E-05  0.0550
   1.8781E-01   1.9237E-01   1.6019E-05  0.0523
   1.9237E-01   1.9706E-01   1.5340E-05  0.0528
   1.9706E-01   2.0185E-01   1.4308E-05  0.0540
   2.0185E-01   2.0676E-01   1.5271E-05  0.0516
   2.0676E-01   2.1179E-01   1.5028E-05  0.0514
   2.1179E-01   2.1694E-01   1.3118E-05  0.0544
   2.1694E-01   2.2222E-01   1.3375E-05  0.0532
   2.2222E-01   2.2763E-01   1.1578E-05  0.0565
   2.2763E-01   2.3317E-01   1.2206E-05  0.0544
   2.3317E-01   2.3884E-01   1.2480E-05  0.0531
   2.3884E-01   2.4465E-01   1.1633E-05  0.0544
   2.4465E-01   2.5061E-01   1.1256E-05  0.0546
   2.5061E-01   2.5670E-01   9.6106E-06  0.0584
   2.5670E-01   2.6295E-01   1.0279E-05  0.0558
   2.6295E-01   2.6935E-01   1.0410E-05  0.0548
   2.6935E-01   2.7590E-01   1.0437E-05  0.0541
   2.7590E-01   2.8261E-01   9.0572E-06  0.0574
   2.8261E-01   2.8949E-01   9.5402E-06  0.0552
   2.8949E-01   2.9653E-01   8.8308E-06  0.0567
   2.9653E-01   3.0375E-01   8.3716E-06  0.0575
   3.0375E-01   3.1114E-01   7.8209E-06  0.0588
   3.1114E-01   3.1871E-01   7.1596E-06  0.0607
   3.1871E-01   3.2646E-01   7.5054E-06  0.0586
   3.2646E-01   3.3441E-01   7.0502E-06  0.0598
   3.3441E-01   3.4254E-01   6.7352E-06  0.0604
   3.4254E-01   3.5088E-01   6.7432E-06  0.0597
   3.5088E-01   3.5941E-01   6.4893E-06  0.0601
   3.5941E-01   3.6816E-01   5.8549E-06  0.0625
   3.6816E-01   3.7712E-01   6.2294E-06  0.0599
   3.7712E-01   3.8629E-01   5.5147E-06  0.0629
   3.8629E-01   3.9569E-01   5.2134E-06  0.0639
   3.9569E-01   4.0532E-01   5.4012E-06  0.0620
   4.0532E-01   4.1518E-01   5.3135E-06  0.0618
   4.1518E-01   4.2528E-01   4.9893E-06  0.0630
   4.2528E-01   4.3563E-01   4.1943E-06  0.0679
   4.3563E-01   4.4623E-01   4.4909E-06  0.0648
   4.4623E-01   4.5708E-01   4.0895E-06  0.0671
   4.5708E-01   4.6821E-01   4.0643E-06  0.0665
   4.6821E-01   4.7960E-01   3.6166E-06  0.0697
   4.7960E-01   4.9127E-01   3.3079E-06  0.0720
   4.9127E-01   5.0322E-01   3.9321E-06  0.0652
   5.0322E-01   5.1546E-01   3.2506E-06  0.0709
   5.1546E-01   5.2800E-01   2.9342E-06  0.0737
   5.2800E-01   5.4085E-01   3.1759E-06  0.0700
   5.4085E-01   5.5401E-01   3.2220E-06  0.0687
   5.5401E-01   5.6749E-01   2.6707E-06  0.0745
   5.6749E-01   5.8130E-01   2.5493E-06  0.0754
   5.8130E-01   5.9544E-01   2.6019E-06  0.0737
   5.9544E-01   6.0993E-01   2.3606E-06  0.0765
   6.0993E-01   6.2477E-01   2.6280E-06  0.0716
   6.2477E-01   6.3997E-01   2.4603E-06  0.0731
   6.3997E-01   6.5554E-01   2.2349E-06  0.0758
   6.5554E-01   6.7149E-01   2.1191E-06  0.0769
   6.7149E-01   6.8783E-01   2.0688E-06  0.0769
   6.8783E-01   7.0456E-01   1.8524E-06  0.0803
   7.0456E-01   7.2171E-01   2.3684E-06  0.0702
   7.2171E-01   7.3927E-01   1.6173E-06  0.0839
   7.3927E-01   7.5725E-01   2.0570E-06  0.0735
   7.5725E-01   7.7568E-01   1.7042E-06  0.0798
   7.7568E-01   7.9455E-01   1.6320E-06  0.0806
   7.9455E-01   8.1388E-01   1.4484E-06  0.0845
   8.1388E-01   8.3368E-01   1.5756E-06  0.0801
   8.3368E-01   8.5397E-01   1.4346E-06  0.0828
   8.5397E-01   8.7475E-01   1.5786E-06  0.0781
   8.7475E-01   8.9603E-01   1.5975E-06  0.0767
   8.9603E-01   9.1783E-01   1.3027E-06  0.0839
   9.1783E-01   9.4016E-01   1.2091E-06  0.0861
   9.4016E-01   9.6304E-01   1.3989E-06  0.0791
   9.6304E-01   9.8647E-01   1.2547E-06  0.0825
   9.8647E-01   1.0105E+00   1.2333E-06  0.0822
   1.0105E+00   1.0351E+00   1.4399E-06  0.0752
   1.0351E+00   1.0602E+00   1.3898E-06  0.0756
   1.0602E+00   1.0860E+00   1.2792E-06  0.0778
   1.0860E+00   1.1125E+00   1.5819E-06  0.0692
   1.1125E+00   1.1395E+00   1.5295E-06  0.0695
   1.1395E+00   1.1673E+00   1.6735E-06  0.0657
   1.1673E+00   1.1957E+00   1.5915E-06  0.0665
   1.1957E+00   1.2247E+00   2.0694E-06  0.0576
   1.2247E+00   1.2545E+00   1.7584E-06  0.0618
   1.2545E+00   1.2851E+00   1.8674E-06  0.0592
   1.2851E+00   1.3163E+00   2.1940E-06  0.0540
   1.3163E+00   1.3484E+00   2.0170E-06  0.0556
   1.3484E+00   1.3812E+00   2.0331E-06  0.0547
   1.3812E+00   1.4148E+00   2.1663E-06  0.0524
   1.4148E+00   1.4492E+00   2.3241E-06  0.0500
   1.4492E+00   1.4845E+00   2.3823E-06  0.0488
   1.4845E+00   1.5206E+00   2.4558E-06  0.0475
   1.5206E+00   1.5576E+00   2.4380E-06  0.0471
   1.5576E+00   1.5955E+00   2.4224E-06  0.0467
   1.5955E+00   1.6343E+00   2.4988E-06  0.0454
   1.6343E+00   1.6741E+00   2.9172E-06  0.0415
   1.6741E+00   1.7148E+00   2.8529E-06  0.0415
   1.7148E+00   1.7565E+00   2.6509E-06  0.0425
   1.7565E+00   1.7992E+00   2.9202E-06  0.0401
   1.7992E+00   1.8430E+00   2.9239E-06  0.0395
   1.8430E+00   1.8879E+00   3.0819E-06  0.0380
   1.8879E+00   1.9338E+00   2.9957E-06  0.0381
   1.9338E+00   1.9808E+00   2.9925E-06  0.0377
   1.9808E+00   2.0290E+00   2.9671E-06  0.0374
   2.0290E+00   2.0784E+00   2.8439E-06  0.0377
   2.0784E+00   2.1290E+00   3.0967E-06  0.0357
   2.1290E+00   2.1808E+00   2.9807E-06  0.0360
   2.1808E+00   2.2338E+00   3.0984E-06  0.0349
   2.2338E+00   2.2882E+00   2.9733E-06  0.0352
   2.2882E+00   2.3439E+00   2.8200E-06  0.0357
   2.3439E+00   2.4009E+00   3.0301E-06  0.0340
   2.4009E+00   2.4593E+00   3.0403E-06  0.0336
   2.4593E+00   2.5191E+00   2.9480E-06  0.0337
   2.5191E+00   2.5804E+00   2.7671E-06  0.0343
   2.5804E+00   2.6432E+00   2.8606E-06  0.0334
   2.6432E+00   2.7075E+00   2.6931E-06  0.0340
   2.7075E+00   2.7734E+00   2.6231E-06  0.0340
   2.7734E+00   2.8409E+00   2.6942E-06  0.0332
   2.8409E+00   2.9100E+00   2.5029E-06  0.0340
   2.9100E+00   2.9808E+00   2.6044E-06  0.0329
   2.9808E+00   3.0533E+00   2.5481E-06  0.0329
   3.0533E+00   3.1276E+00   2.5252E-06  0.0327
   3.1276E+00   3.2037E+00   2.5809E-06  0.0319
   3.2037E+00   3.2817E+00   2.3939E-06  0.0327
   3.2817E+00   3.3615E+00   2.2694E-06  0.0332
   3.3615E+00   3.4433E+00   2.0614E-06  0.0344
   3.4433E+00   3.5271E+00   2.0721E-06  0.0339
   3.5271E+00   3.6129E+00   2.2443E-06  0.0322
   3.6129E+00   3.7008E+00   2.0522E-06  0.0333
   3.7008E+00   3.7908E+00   2.1256E-06  0.0323
   3.7908E+00   3.8831E+00   1.9754E-06  0.0331
   3.8831E+00   3.9776E+00   2.0047E-06  0.0325
   3.9776E+00   4.0743E+00   2.1927E-06  0.0307
   4.0743E+00   4.1735E+00   1.8460E-06  0.0331
   4.1735E+00   4.2750E+00   2.0070E-06  0.0313
   4.2750E+00   4.3790E+00   1.8267E-06  0.0324
   4.3790E+00   4.4856E+00   1.8640E-06  0.0317
   4.4856E+00   4.5947E+00   1.8362E-06  0.0316
   4.5947E+00   4.7065E+00   1.8534E-06  0.0311
   4.7065E+00   4.8210E+00   1.7797E-06  0.0313
   4.8210E+00   4.9383E+00   1.7852E-06  0.0309
   4.9383E+00   5.0585E+00   1.7128E-06  0.0312
   5.0585E+00   5.1815E+00   1.6396E-06  0.0315
   5.1815E+00   5.3076E+00   1.6419E-06  0.0311
   5.3076E+00   5.4368E+00   1.7160E-06  0.0300
   5.4368E+00   5.5690E+00   1.7342E-06  0.0295
   5.5690E+00   5.7045E+00   1.7506E-06  0.0290
   5.7045E+00   5.8433E+00   1.7421E-06  0.0288
   5.8433E+00   5.9855E+00   1.6628E-06  0.0291
   5.9855E+00   6.1311E+00   1.6658E-06  0.0287
   6.1311E+00   6.2803E+00   1.6099E-06  0.0289
   6.2803E+00   6.4331E+00   1.7116E-06  0.0277
   6.4331E+00   6.5896E+00   1.6553E-06  0.0278
   6.5896E+00   6.7500E+00   1.6896E-06  0.0272
   6.7500E+00   6.9142E+00   1.7181E-06  0.0266
   6.9142E+00   7.0824E+00   1.7184E-06  0.0263
   7.0824E+00   7.2548E+00   1.6426E-06  0.0266
   7.2548E+00   7.4313E+00   1.5323E-06  0.0272
   7.4313E+00   7.6121E+00   1.5791E-06  0.0265
   7.6121E+00   7.7973E+00   1.5671E-06  0.0262
   7.7973E+00   7.9870E+00   1.6205E-06  0.0255
   7.9870E+00   8.1813E+00   1.5652E-06  0.0256
   8.1813E+00   8.3804E+00   1.5518E-06  0.0254
   8.3804E+00   8.5843E+00   1.4257E-06  0.0262
   8.5843E+00   8.7931E+00   1.4821E-06  0.0254
   8.7931E+00   9.0071E+00   1.3200E-06  0.0266
   9.0071E+00   9.2262E+00   1.3726E-06  0.0258
   9.2262E+00   9.4507E+00   1.2740E-06  0.0264
   9.4507E+00   9.6807E+00   1.2273E-06  0.0266
   9.6807E+00   9.9162E+00   1.2516E-06  0.0260
   9.9162E+00   1.0157E+01   1.1601E-06  0.0267
   1.0157E+01   1.0405E+01   1.0480E-06  0.0278
   1.0405E+01   1.0658E+01   1.0353E-06  0.0276
   1.0658E+01   1.0917E+01   9.2514E-07  0.0289
   1.0917E+01   1.1183E+01   9.0768E-07  0.0288
   1.1183E+01   1.1455E+01   8.6701E-07  0.0291
   1.1455E+01   1.1733E+01   7.8363E-07  0.0302
   1.1733E+01   1.2019E+01   7.6817E-07  0.0302
   1.2019E+01   1.2311E+01   7.1709E-07  0.0309
   1.2311E+01   1.2611E+01   6.5966E-07  0.0318
   1.2611E+01   1.2918E+01   5.7230E-07  0.0337
   1.2918E+01   1.3232E+01   5.4407E-07  0.0342
   1.3232E+01   1.3554E+01   4.7151E-07  0.0363
   1.3554E+01   1.3884E+01   4.1755E-07  0.0381
   1.3884E+01   1.4222E+01   3.6737E-07  0.0401
   1.4222E+01   1.4568E+01   3.3032E-07  0.0418
   1.4568E+01   1.4922E+01   2.9060E-07  0.0440
   1.4922E+01   1.5285E+01   2.4734E-07  0.0471
   1.5285E+01   1.5657E+01   2.0731E-07  0.0508
   1.5657E+01   1.6038E+01   1.6380E-07  0.0565
   1.6038E+01   1.6428E+01   1.4402E-07  0.0595
   1.6428E+01   1.6828E+01   1.2559E-07  0.0629
   1.6828E+01   1.7237E+01   8.7681E-08  0.0745
   1.7237E+01   1.7657E+01   5.6033E-08  0.0922
   1.7657E+01   1.8086E+01   4.1899E-08  0.1051
   1.8086E+01   1.8526E+01   2.4088E-08  0.1367
   1.8526E+01   1.8977E+01   9.7612E-09  0.2132
   1.8977E+01   1.9439E+01   3.8984E-09  0.3333
   1.9439E+01   1.9912E+01   4.2287E-10  1.0000
   1.9912E+01   2.0396E+01   0.0000E+00  0.0000
   2.0396E+01   2.0893E+01   0.0000E+00  0.0000
   2.0893E+01   2.1401E+01   0.0000E+00  0.0000
   2.1401E+01   2.1922E+01   0.0000E+00  0.0000
   2.1922E+01   2.2455E+01   0.0000E+00  0.0000
   2.2455E+01   2.3001E+01   0.0000E+00  0.0000
   2.3001E+01   2.3561E+01   0.0000E+00  0.0000
   2.3561E+01   2.4134E+01   0.0000E+00  0.0000
   2.4134E+01   2.4721E+01   0.0000E+00  0.0000
   2.4721E+01   2.5323E+01   0.0000E+00  0.0000
   2.5323E+01   2.5939E+01   0.0000E+00  0.0000
   2.5939E+01   2.6570E+01   0.0000E+00  0.0000
   2.6570E+01   2.7217E+01   0.0000E+00  0.0000
   2.7217E+01   2.7879E+01   0.0000E+00  0.0000
   2.7879E+01   2.8557E+01   0.0000E+00  0.0000
   2.8557E+01   2.9252E+01   0.0000E+00  0.0000
   2.9252E+01   2.9964E+01   0.0000E+00  0.0000
   2.9964E+01   3.0693E+01   0.0000E+00  0.0000
   3.0693E+01   3.1440E+01   0.0000E+00  0.0000
   3.1440E+01   3.2205E+01   0.0000E+00  0.0000
   3.2205E+01   3.2988E+01   0.0000E+00  0.0000
   3.2988E+01   3.3791E+01   0.0000E+00  0.0000
   3.3791E+01   3.4613E+01   0.0000E+00  0.0000
   3.4613E+01   3.5455E+01   0.0000E+00  0.0000
   3.5455E+01   3.6318E+01   0.0000E+00  0.0000
   3.6318E+01   3.7201E+01   0.0000E+00  0.0000
   3.7201E+01   3.8106E+01   0.0000E+00  0.0000
   3.8106E+01   3.9034E+01   0.0000E+00  0.0000
   3.9034E+01   3.9983E+01   0.0000E+00  0.0000
   3.9983E+01   4.0956E+01   0.0000E+00  0.0000
   4.0956E+01   4.1953E+01   0.0000E+00  0.0000
   4.1953E+01   4.2973E+01   0.0000E+00  0.0000
   4.2973E+01   4.4019E+01   0.0000E+00  0.0000
   4.4019E+01   4.5090E+01   0.0000E+00  0.0000
   4.5090E+01   4.6187E+01   0.0000E+00  0.0000
   4.6187E+01   4.7311E+01   0.0000E+00  0.0000
   4.7311E+01   4.8462E+01   0.0000E+00  0.0000
   4.8462E+01   4.9641E+01   0.0000E+00  0.0000
   4.9641E+01   5.0849E+01   0.0000E+00  0.0000
   5.0849E+01   5.2086E+01   0.0000E+00  0.0000
   5.2086E+01   5.3353E+01   0.0000E+00  0.0000
   5.3353E+01   5.4651E+01   0.0000E+00  0.0000
   5.4651E+01   5.5981E+01   0.0000E+00  0.0000
   5.5981E+01   5.7343E+01   0.0000E+00  0.0000
   5.7343E+01   5.8738E+01   0.0000E+00  0.0000
   5.8738E+01   6.0168E+01   0.0000E+00  0.0000
   6.0168E+01   6.1632E+01   0.0000E+00  0.0000
   6.1632E+01   6.3131E+01   0.0000E+00  0.0000
   6.3131E+01   6.4667E+01   0.0000E+00  0.0000
   6.4667E+01   6.6240E+01   0.0000E+00  0.0000
   6.6240E+01   6.7852E+01   0.0000E+00  0.0000
   6.7852E+01   6.9503E+01   0.0000E+00  0.0000
   6.9503E+01   7.1194E+01   0.0000E+00  0.0000
   7.1194E+01   7.2926E+01   0.0000E+00  0.0000
   7.2926E+01   7.4701E+01   0.0000E+00  0.0000
   7.4701E+01   7.6518E+01   0.0000E+00  0.0000
   7.6518E+01   7.8380E+01   0.0000E+00  0.0000
   7.8380E+01   8.0287E+01   0.0000E+00  0.0000
   8.0287E+01   8.2240E+01   0.0000E+00  0.0000
   8.2240E+01   8.4241E+01   0.0000E+00  0.0000
   8.4241E+01   8.6291E+01   0.0000E+00  0.0000
   8.6291E+01   8.8391E+01   0.0000E+00  0.0000
   8.8391E+01   9.0541E+01   0.0000E+00  0.0000
   9.0541E+01   9.2744E+01   0.0000E+00  0.0000
   9.2744E+01   9.5001E+01   0.0000E+00  0.0000
   9.5001E+01   9.7312E+01   0.0000E+00  0.0000
   9.7312E+01   9.9680E+01   0.0000E+00  0.0000
   9.9680E+01   1.0211E+02   0.0000E+00  0.0000
   1.0211E+02   1.0459E+02   0.0000E+00  0.0000
   1.0459E+02   1.0713E+02   0.0000E+00  0.0000
   1.0713E+02   1.0974E+02   0.0000E+00  0.0000
   1.0974E+02   1.1241E+02   0.0000E+00  0.0000
   1.1241E+02   1.1515E+02   0.0000E+00  0.0000
   1.1515E+02   1.1795E+02   0.0000E+00  0.0000
   1.1795E+02   1.2082E+02   0.0000E+00  0.0000
   1.2082E+02   1.2376E+02   0.0000E+00  0.0000
   1.2376E+02   1.2677E+02   0.0000E+00  0.0000
   1.2677E+02   1.2985E+02   0.0000E+00  0.0000
   1.2985E+02   1.3301E+02   0.0000E+00  0.0000
   1.3301E+02   1.3625E+02   0.0000E+00  0.0000
   1.3625E+02   1.3956E+02   0.0000E+00  0.0000
   1.3956E+02   1.4296E+02   0.0000E+00  0.0000
   1.4296E+02   1.4644E+02   0.0000E+00  0.0000
   1.4644E+02   1.5000E+02   0.0000E+00  0.0000

#   sum over                 2.0476E-07
'no. =    1   reg = 112 - 212'
msuc: {\huge [t-cross] in region mesh}
msdr: {\it plotted by \ANGEL \version}
msdl: {\it calculated by \PHITS  3.26}
wt: s(0.7)
\vspace{-3}
  region surface crossing
  area  &=&   1.0000E+00 [cm^2]
e:
 
# Information for Restart Calculation
# This calculation was newly started
# istdev =  2 # 1:Batch variance, 2:History variance
# resc2  = 5.00000000000000000E+09 # Total source weight or Total source weight / maxcas
# resc3  = 5.00000000000000000E+09 # Total history number or Total batch number
# maxcas =   100000000 # History / Batch, only used for istdev=1
# bitrseed = 0110100000100010111000001110001111001110100100011111101000111001 # bit data of rseed
