[ T-Cross ]
    title = [t-cross] in region mesh
     mesh =  reg            # mesh type is region-wise
      reg =    1            # number of crossing regions
      non     r-from    r-to       area
      1       125       225        1.000000    
   e-type =    3            # e-mesh is log given by emin, emax and ne
     emin =  1.0000000E-02  # minimum value of e-mesh points
     emax =   150.0000      # maximum value of e-mesh points
#    edel =  2.4039514E-02  # mesh width of e-mesh points
       ne =    400          # number of e-mesh points
#    data = ( e(i), i = 1, ne + 1 )
#           1.00000E-02  1.02433E-02  1.04925E-02  1.07478E-02  1.10093E-02
#           1.12772E-02  1.15516E-02  1.18326E-02  1.21205E-02  1.24154E-02
#           1.27175E-02  1.30269E-02  1.33439E-02  1.36686E-02  1.40011E-02
#           1.43418E-02  1.46907E-02  1.50482E-02  1.54143E-02  1.57894E-02
#           1.61735E-02  1.65670E-02  1.69701E-02  1.73830E-02  1.78060E-02
#           1.82392E-02  1.86830E-02  1.91375E-02  1.96032E-02  2.00801E-02
#           2.05687E-02  2.10692E-02  2.15818E-02  2.21069E-02  2.26448E-02
#           2.31957E-02  2.37601E-02  2.43382E-02  2.49304E-02  2.55369E-02
#           2.61583E-02  2.67947E-02  2.74467E-02  2.81145E-02  2.87985E-02
#           2.94992E-02  3.02169E-02  3.09521E-02  3.17052E-02  3.24766E-02
#           3.32668E-02  3.40762E-02  3.49053E-02  3.57546E-02  3.66246E-02
#           3.75157E-02  3.84284E-02  3.93634E-02  4.03212E-02  4.13022E-02
#           4.23071E-02  4.33365E-02  4.43909E-02  4.54710E-02  4.65773E-02
#           4.77106E-02  4.88714E-02  5.00605E-02  5.12785E-02  5.25262E-02
#           5.38042E-02  5.51133E-02  5.64542E-02  5.78278E-02  5.92348E-02
#           6.06760E-02  6.21523E-02  6.36645E-02  6.52135E-02  6.68002E-02
#           6.84255E-02  7.00904E-02  7.17957E-02  7.35426E-02  7.53319E-02
#           7.71648E-02  7.90423E-02  8.09655E-02  8.29354E-02  8.49533E-02
#           8.70203E-02  8.91376E-02  9.13064E-02  9.35279E-02  9.58035E-02
#           9.81345E-02  1.00522E-01  1.02968E-01  1.05473E-01  1.08040E-01
#           1.10668E-01  1.13361E-01  1.16119E-01  1.18944E-01  1.21838E-01
#           1.24803E-01  1.27839E-01  1.30950E-01  1.34136E-01  1.37399E-01
#           1.40742E-01  1.44167E-01  1.47675E-01  1.51268E-01  1.54948E-01
#           1.58718E-01  1.62580E-01  1.66535E-01  1.70587E-01  1.74738E-01
#           1.78989E-01  1.83344E-01  1.87805E-01  1.92375E-01  1.97055E-01
#           2.01850E-01  2.06761E-01  2.11792E-01  2.16945E-01  2.22223E-01
#           2.27630E-01  2.33169E-01  2.38842E-01  2.44653E-01  2.50605E-01
#           2.56703E-01  2.62949E-01  2.69346E-01  2.75900E-01  2.82613E-01
#           2.89489E-01  2.96532E-01  3.03747E-01  3.11138E-01  3.18708E-01
#           3.26462E-01  3.34405E-01  3.42542E-01  3.50876E-01  3.59413E-01
#           3.68158E-01  3.77116E-01  3.86291E-01  3.95690E-01  4.05317E-01
#           4.15179E-01  4.25281E-01  4.35628E-01  4.46227E-01  4.57084E-01
#           4.68205E-01  4.79597E-01  4.91266E-01  5.03219E-01  5.15463E-01
#           5.28005E-01  5.40851E-01  5.54011E-01  5.67490E-01  5.81298E-01
#           5.95441E-01  6.09929E-01  6.24769E-01  6.39970E-01  6.55541E-01
#           6.71491E-01  6.87828E-01  7.04564E-01  7.21706E-01  7.39266E-01
#           7.57253E-01  7.75678E-01  7.94551E-01  8.13883E-01  8.33685E-01
#           8.53969E-01  8.74747E-01  8.96030E-01  9.17831E-01  9.40163E-01
#           9.63038E-01  9.86469E-01  1.01047E+00  1.03506E+00  1.06024E+00
#           1.08604E+00  1.11246E+00  1.13953E+00  1.16725E+00  1.19565E+00
#           1.22474E+00  1.25454E+00  1.28507E+00  1.31633E+00  1.34836E+00
#           1.38117E+00  1.41477E+00  1.44920E+00  1.48446E+00  1.52057E+00
#           1.55757E+00  1.59547E+00  1.63429E+00  1.67405E+00  1.71478E+00
#           1.75650E+00  1.79924E+00  1.84302E+00  1.88786E+00  1.93379E+00
#           1.98084E+00  2.02904E+00  2.07841E+00  2.12898E+00  2.18078E+00
#           2.23384E+00  2.28819E+00  2.34386E+00  2.40089E+00  2.45930E+00
#           2.51914E+00  2.58043E+00  2.64322E+00  2.70753E+00  2.77341E+00
#           2.84088E+00  2.91001E+00  2.98081E+00  3.05333E+00  3.12762E+00
#           3.20372E+00  3.28167E+00  3.36152E+00  3.44330E+00  3.52708E+00
#           3.61290E+00  3.70080E+00  3.79085E+00  3.88308E+00  3.97756E+00
#           4.07434E+00  4.17347E+00  4.27501E+00  4.37903E+00  4.48557E+00
#           4.59471E+00  4.70650E+00  4.82102E+00  4.93832E+00  5.05847E+00
#           5.18155E+00  5.30762E+00  5.43676E+00  5.56904E+00  5.70453E+00
#           5.84333E+00  5.98550E+00  6.13114E+00  6.28031E+00  6.43312E+00
#           6.58964E+00  6.74997E+00  6.91420E+00  7.08243E+00  7.25475E+00
#           7.43126E+00  7.61207E+00  7.79728E+00  7.98700E+00  8.18133E+00
#           8.38038E+00  8.58428E+00  8.79315E+00  9.00709E+00  9.22624E+00
#           9.45072E+00  9.68067E+00  9.91620E+00  1.01575E+01  1.04046E+01
#           1.06578E+01  1.09171E+01  1.11827E+01  1.14548E+01  1.17335E+01
#           1.20190E+01  1.23114E+01  1.26109E+01  1.29178E+01  1.32321E+01
#           1.35540E+01  1.38838E+01  1.42216E+01  1.45676E+01  1.49221E+01
#           1.52851E+01  1.56570E+01  1.60380E+01  1.64282E+01  1.68279E+01
#           1.72374E+01  1.76568E+01  1.80864E+01  1.85264E+01  1.89772E+01
#           1.94389E+01  1.99119E+01  2.03963E+01  2.08926E+01  2.14009E+01
#           2.19216E+01  2.24550E+01  2.30014E+01  2.35610E+01  2.41343E+01
#           2.47215E+01  2.53230E+01  2.59391E+01  2.65702E+01  2.72167E+01
#           2.78789E+01  2.85572E+01  2.92520E+01  2.99637E+01  3.06928E+01
#           3.14396E+01  3.22045E+01  3.29881E+01  3.37907E+01  3.46128E+01
#           3.54550E+01  3.63177E+01  3.72013E+01  3.81064E+01  3.90336E+01
#           3.99833E+01  4.09561E+01  4.19526E+01  4.29734E+01  4.40189E+01
#           4.50900E+01  4.61870E+01  4.73108E+01  4.84619E+01  4.96410E+01
#           5.08488E+01  5.20860E+01  5.33533E+01  5.46514E+01  5.59812E+01
#           5.73432E+01  5.87384E+01  6.01676E+01  6.16315E+01  6.31311E+01
#           6.46671E+01  6.62405E+01  6.78522E+01  6.95031E+01  7.11941E+01
#           7.29263E+01  7.47007E+01  7.65182E+01  7.83800E+01  8.02870E+01
#           8.22405E+01  8.42414E+01  8.62911E+01  8.83906E+01  9.05412E+01
#           9.27442E+01  9.50007E+01  9.73122E+01  9.96799E+01  1.02105E+02
#           1.04589E+02  1.07134E+02  1.09741E+02  1.12411E+02  1.15146E+02
#           1.17948E+02  1.20817E+02  1.23757E+02  1.26768E+02  1.29852E+02
#           1.33012E+02  1.36248E+02  1.39563E+02  1.42959E+02  1.46437E+02
#           1.50000E+02
     unit =    2            # unit is [1/cm^2/(MeV/n)/source]
     axis =  eng            # axis of output
     file = detector-26.out  # file name of output for the above axis
   output = f-curr          # surface crossing forward current spectrum
     part =  neutron  
# kf/name :  2112     
#    used :        main (  %)        temp (  %)       total (  %)
#  memory :         414 (  0)           0 (  0)         414 (  0)

#------------------------------------------------------------------------------
#newpage:
#   no. =    1   reg = 125 - 225

x: Energy [MeV/n]
y:  F-Curr [1/cm^2/(MeV/n)/source]         
p: xlog ylog afac(0.8) form(0.9)
h: n            x            y(neutron ),hh0l   n 
#  e-lower      e-upper      neutron     r.err 
   1.0000E-02   1.0243E-02   7.6264E-03  0.0109
   1.0243E-02   1.0493E-02   7.5602E-03  0.0109
   1.0493E-02   1.0748E-02   7.5038E-03  0.0108
   1.0748E-02   1.1009E-02   7.5121E-03  0.0106
   1.1009E-02   1.1277E-02   7.2748E-03  0.0107
   1.1277E-02   1.1552E-02   7.2117E-03  0.0106
   1.1552E-02   1.1833E-02   7.0503E-03  0.0106
   1.1833E-02   1.2121E-02   6.8844E-03  0.0106
   1.2121E-02   1.2415E-02   6.8128E-03  0.0105
   1.2415E-02   1.2718E-02   6.7444E-03  0.0104
   1.2718E-02   1.3027E-02   6.6194E-03  0.0104
   1.3027E-02   1.3344E-02   6.6711E-03  0.0103
   1.3344E-02   1.3669E-02   6.3607E-03  0.0104
   1.3669E-02   1.4001E-02   6.3927E-03  0.0102
   1.4001E-02   1.4342E-02   6.3028E-03  0.0102
   1.4342E-02   1.4691E-02   6.1429E-03  0.0102
   1.4691E-02   1.5048E-02   6.1338E-03  0.0101
   1.5048E-02   1.5414E-02   6.0197E-03  0.0100
   1.5414E-02   1.5789E-02   5.8073E-03  0.0101
   1.5789E-02   1.6174E-02   5.7932E-03  0.0100
   1.6174E-02   1.6567E-02   5.8995E-03  0.0098
   1.6567E-02   1.6970E-02   5.6982E-03  0.0098
   1.6970E-02   1.7383E-02   5.4741E-03  0.0099
   1.7383E-02   1.7806E-02   5.4460E-03  0.0098
   1.7806E-02   1.8239E-02   5.4556E-03  0.0097
   1.8239E-02   1.8683E-02   5.3961E-03  0.0096
   1.8683E-02   1.9138E-02   5.3921E-03  0.0095
   1.9138E-02   1.9603E-02   5.2225E-03  0.0096
   1.9603E-02   2.0080E-02   5.1183E-03  0.0095
   2.0080E-02   2.0569E-02   5.0354E-03  0.0095
   2.0569E-02   2.1069E-02   4.9342E-03  0.0095
   2.1069E-02   2.1582E-02   4.8957E-03  0.0094
   2.1582E-02   2.2107E-02   4.8126E-03  0.0094
   2.2107E-02   2.2645E-02   4.7313E-03  0.0093
   2.2645E-02   2.3196E-02   4.7505E-03  0.0092
   2.3196E-02   2.3760E-02   4.6345E-03  0.0092
   2.3760E-02   2.4338E-02   4.5734E-03  0.0092
   2.4338E-02   2.4930E-02   4.5201E-03  0.0091
   2.4930E-02   2.5537E-02   4.4366E-03  0.0091
   2.5537E-02   2.6158E-02   4.3938E-03  0.0090
   2.6158E-02   2.6795E-02   4.3474E-03  0.0090
   2.6795E-02   2.7447E-02   4.2707E-03  0.0089
   2.7447E-02   2.8114E-02   4.2287E-03  0.0089
   2.8114E-02   2.8799E-02   4.1597E-03  0.0088
   2.8799E-02   2.9499E-02   4.0887E-03  0.0088
   2.9499E-02   3.0217E-02   4.0346E-03  0.0088
   3.0217E-02   3.0952E-02   3.9418E-03  0.0088
   3.0952E-02   3.1705E-02   3.9417E-03  0.0087
   3.1705E-02   3.2477E-02   3.8429E-03  0.0087
   3.2477E-02   3.3267E-02   3.8306E-03  0.0086
   3.3267E-02   3.4076E-02   3.7534E-03  0.0086
   3.4076E-02   3.4905E-02   3.6982E-03  0.0085
   3.4905E-02   3.5755E-02   3.6567E-03  0.0085
   3.5755E-02   3.6625E-02   3.6296E-03  0.0084
   3.6625E-02   3.7516E-02   3.4919E-03  0.0085
   3.7516E-02   3.8428E-02   3.5055E-03  0.0083
   3.8428E-02   3.9363E-02   3.4066E-03  0.0084
   3.9363E-02   4.0321E-02   3.3586E-03  0.0083
   4.0321E-02   4.1302E-02   3.3804E-03  0.0082
   4.1302E-02   4.2307E-02   3.3193E-03  0.0082
   4.2307E-02   4.3337E-02   3.2708E-03  0.0081
   4.3337E-02   4.4391E-02   3.2456E-03  0.0081
   4.4391E-02   4.5471E-02   3.1484E-03  0.0081
   4.5471E-02   4.6577E-02   3.1166E-03  0.0080
   4.6577E-02   4.7711E-02   3.0912E-03  0.0080
   4.7711E-02   4.8871E-02   3.0151E-03  0.0080
   4.8871E-02   5.0061E-02   2.9871E-03  0.0079
   5.0061E-02   5.1279E-02   2.9594E-03  0.0079
   5.1279E-02   5.2526E-02   2.9536E-03  0.0078
   5.2526E-02   5.3804E-02   2.8435E-03  0.0078
   5.3804E-02   5.5113E-02   2.8398E-03  0.0077
   5.5113E-02   5.6454E-02   2.8186E-03  0.0077
   5.6454E-02   5.7828E-02   2.7942E-03  0.0076
   5.7828E-02   5.9235E-02   2.7297E-03  0.0076
   5.9235E-02   6.0676E-02   2.7202E-03  0.0075
   6.0676E-02   6.2152E-02   2.6625E-03  0.0075
   6.2152E-02   6.3665E-02   2.6531E-03  0.0074
   6.3665E-02   6.5214E-02   2.5929E-03  0.0074
   6.5214E-02   6.6800E-02   2.5607E-03  0.0074
   6.6800E-02   6.8426E-02   2.5199E-03  0.0074
   6.8426E-02   7.0090E-02   2.5003E-03  0.0073
   7.0090E-02   7.1796E-02   2.4331E-03  0.0073
   7.1796E-02   7.3543E-02   2.4323E-03  0.0072
   7.3543E-02   7.5332E-02   2.3755E-03  0.0072
   7.5332E-02   7.7165E-02   2.3632E-03  0.0072
   7.7165E-02   7.9042E-02   2.3079E-03  0.0072
   7.9042E-02   8.0965E-02   2.2902E-03  0.0071
   8.0965E-02   8.2935E-02   2.2621E-03  0.0071
   8.2935E-02   8.4953E-02   2.2113E-03  0.0071
   8.4953E-02   8.7020E-02   2.1817E-03  0.0070
   8.7020E-02   8.9138E-02   2.1845E-03  0.0069
   8.9138E-02   9.1306E-02   2.1549E-03  0.0069
   9.1306E-02   9.3528E-02   2.1236E-03  0.0069
   9.3528E-02   9.5804E-02   2.0847E-03  0.0068
   9.5804E-02   9.8134E-02   2.0566E-03  0.0068
   9.8134E-02   1.0052E-01   2.0012E-03  0.0068
   1.0052E-01   1.0297E-01   1.9864E-03  0.0068
   1.0297E-01   1.0547E-01   1.9912E-03  0.0067
   1.0547E-01   1.0804E-01   1.9543E-03  0.0067
   1.0804E-01   1.1067E-01   1.9023E-03  0.0067
   1.1067E-01   1.1336E-01   1.9115E-03  0.0066
   1.1336E-01   1.1612E-01   1.8588E-03  0.0066
   1.1612E-01   1.1894E-01   1.8195E-03  0.0066
   1.1894E-01   1.2184E-01   1.8222E-03  0.0065
   1.2184E-01   1.2480E-01   1.7872E-03  0.0065
   1.2480E-01   1.2784E-01   1.7472E-03  0.0065
   1.2784E-01   1.3095E-01   1.7587E-03  0.0064
   1.3095E-01   1.3414E-01   1.7050E-03  0.0064
   1.3414E-01   1.3740E-01   1.6843E-03  0.0064
   1.3740E-01   1.4074E-01   1.6850E-03  0.0063
   1.4074E-01   1.4417E-01   1.6375E-03  0.0063
   1.4417E-01   1.4767E-01   1.6235E-03  0.0062
   1.4767E-01   1.5127E-01   1.6150E-03  0.0062
   1.5127E-01   1.5495E-01   1.6056E-03  0.0061
   1.5495E-01   1.5872E-01   1.5520E-03  0.0062
   1.5872E-01   1.6258E-01   1.5292E-03  0.0061
   1.6258E-01   1.6654E-01   1.5081E-03  0.0061
   1.6654E-01   1.7059E-01   1.5097E-03  0.0060
   1.7059E-01   1.7474E-01   1.4640E-03  0.0060
   1.7474E-01   1.7899E-01   1.4635E-03  0.0060
   1.7899E-01   1.8334E-01   1.4398E-03  0.0060
   1.8334E-01   1.8781E-01   1.4078E-03  0.0059
   1.8781E-01   1.9237E-01   1.3827E-03  0.0059
   1.9237E-01   1.9706E-01   1.3903E-03  0.0058
   1.9706E-01   2.0185E-01   1.3611E-03  0.0058
   2.0185E-01   2.0676E-01   1.3283E-03  0.0058
   2.0676E-01   2.1179E-01   1.3201E-03  0.0058
   2.1179E-01   2.1694E-01   1.3038E-03  0.0058
   2.1694E-01   2.2222E-01   1.2841E-03  0.0057
   2.2222E-01   2.2763E-01   1.2508E-03  0.0057
   2.2763E-01   2.3317E-01   1.2428E-03  0.0057
   2.3317E-01   2.3884E-01   1.2216E-03  0.0057
   2.3884E-01   2.4465E-01   1.2060E-03  0.0056
   2.4465E-01   2.5061E-01   1.1953E-03  0.0056
   2.5061E-01   2.5670E-01   1.1626E-03  0.0056
   2.5670E-01   2.6295E-01   1.1550E-03  0.0056
   2.6295E-01   2.6935E-01   1.1377E-03  0.0055
   2.6935E-01   2.7590E-01   1.1124E-03  0.0055
   2.7590E-01   2.8261E-01   1.1048E-03  0.0055
   2.8261E-01   2.8949E-01   1.0776E-03  0.0055
   2.8949E-01   2.9653E-01   1.0480E-03  0.0055
   2.9653E-01   3.0375E-01   1.0557E-03  0.0054
   3.0375E-01   3.1114E-01   1.0196E-03  0.0054
   3.1114E-01   3.1871E-01   1.0148E-03  0.0054
   3.1871E-01   3.2646E-01   9.9215E-04  0.0054
   3.2646E-01   3.3441E-01   9.6970E-04  0.0054
   3.3441E-01   3.4254E-01   9.6057E-04  0.0053
   3.4254E-01   3.5088E-01   9.5055E-04  0.0053
   3.5088E-01   3.5941E-01   9.2751E-04  0.0053
   3.5941E-01   3.6816E-01   9.0962E-04  0.0053
   3.6816E-01   3.7712E-01   8.9751E-04  0.0053
   3.7712E-01   3.8629E-01   8.7370E-04  0.0053
   3.8629E-01   3.9569E-01   8.5900E-04  0.0052
   3.9569E-01   4.0532E-01   8.4685E-04  0.0052
   4.0532E-01   4.1518E-01   8.2720E-04  0.0052
   4.1518E-01   4.2528E-01   8.1637E-04  0.0052
   4.2528E-01   4.3563E-01   8.0245E-04  0.0052
   4.3563E-01   4.4623E-01   7.8467E-04  0.0052
   4.4623E-01   4.5708E-01   7.6780E-04  0.0052
   4.5708E-01   4.6821E-01   7.4947E-04  0.0052
   4.6821E-01   4.7960E-01   7.3285E-04  0.0052
   4.7960E-01   4.9127E-01   7.2231E-04  0.0051
   4.9127E-01   5.0322E-01   7.0728E-04  0.0051
   5.0322E-01   5.1546E-01   6.8614E-04  0.0051
   5.1546E-01   5.2800E-01   6.6678E-04  0.0052
   5.2800E-01   5.4085E-01   6.5348E-04  0.0051
   5.4085E-01   5.5401E-01   6.4667E-04  0.0051
   5.5401E-01   5.6749E-01   6.2693E-04  0.0051
   5.6749E-01   5.8130E-01   6.0957E-04  0.0051
   5.8130E-01   5.9544E-01   5.9476E-04  0.0051
   5.9544E-01   6.0993E-01   5.7847E-04  0.0052
   6.0993E-01   6.2477E-01   5.6371E-04  0.0052
   6.2477E-01   6.3997E-01   5.4571E-04  0.0052
   6.3997E-01   6.5554E-01   5.3782E-04  0.0052
   6.5554E-01   6.7149E-01   5.2517E-04  0.0052
   6.7149E-01   6.8783E-01   5.0678E-04  0.0052
   6.8783E-01   7.0456E-01   4.9372E-04  0.0052
   7.0456E-01   7.2171E-01   4.7470E-04  0.0052
   7.2171E-01   7.3927E-01   4.5637E-04  0.0053
   7.3927E-01   7.5725E-01   4.4494E-04  0.0053
   7.5725E-01   7.7568E-01   4.2480E-04  0.0053
   7.7568E-01   7.9455E-01   4.1402E-04  0.0053
   7.9455E-01   8.1388E-01   4.0049E-04  0.0054
   8.1388E-01   8.3368E-01   3.9125E-04  0.0054
   8.3368E-01   8.5397E-01   3.7348E-04  0.0054
   8.5397E-01   8.7475E-01   3.5942E-04  0.0055
   8.7475E-01   8.9603E-01   3.4595E-04  0.0055
   8.9603E-01   9.1783E-01   3.3097E-04  0.0056
   9.1783E-01   9.4016E-01   3.1493E-04  0.0056
   9.4016E-01   9.6304E-01   3.0257E-04  0.0057
   9.6304E-01   9.8647E-01   2.8630E-04  0.0058
   9.8647E-01   1.0105E+00   2.7502E-04  0.0058
   1.0105E+00   1.0351E+00   2.7460E-04  0.0057
   1.0351E+00   1.0602E+00   2.7370E-04  0.0057
   1.0602E+00   1.0860E+00   2.7779E-04  0.0056
   1.0860E+00   1.1125E+00   2.7973E-04  0.0055
   1.1125E+00   1.1395E+00   2.8410E-04  0.0054
   1.1395E+00   1.1673E+00   2.8793E-04  0.0053
   1.1673E+00   1.1957E+00   2.9344E-04  0.0052
   1.1957E+00   1.2247E+00   2.9872E-04  0.0051
   1.2247E+00   1.2545E+00   2.9938E-04  0.0050
   1.2545E+00   1.2851E+00   2.9776E-04  0.0049
   1.2851E+00   1.3163E+00   2.9797E-04  0.0049
   1.3163E+00   1.3484E+00   3.0141E-04  0.0048
   1.3484E+00   1.3812E+00   3.0206E-04  0.0047
   1.3812E+00   1.4148E+00   3.0875E-04  0.0046
   1.4148E+00   1.4492E+00   3.0439E-04  0.0046
   1.4492E+00   1.4845E+00   3.0229E-04  0.0046
   1.4845E+00   1.5206E+00   2.9193E-04  0.0046
   1.5206E+00   1.5576E+00   2.9224E-04  0.0045
   1.5576E+00   1.5955E+00   2.9145E-04  0.0045
   1.5955E+00   1.6343E+00   2.9261E-04  0.0044
   1.6343E+00   1.6741E+00   2.9188E-04  0.0044
   1.6741E+00   1.7148E+00   2.8900E-04  0.0043
   1.7148E+00   1.7565E+00   2.8648E-04  0.0043
   1.7565E+00   1.7992E+00   2.8103E-04  0.0043
   1.7992E+00   1.8430E+00   2.7458E-04  0.0043
   1.8430E+00   1.8879E+00   2.6876E-04  0.0043
   1.8879E+00   1.9338E+00   2.6702E-04  0.0043
   1.9338E+00   1.9808E+00   2.6338E-04  0.0042
   1.9808E+00   2.0290E+00   2.6001E-04  0.0042
   2.0290E+00   2.0784E+00   2.5207E-04  0.0042
   2.0784E+00   2.1290E+00   2.4226E-04  0.0043
   2.1290E+00   2.1808E+00   2.3345E-04  0.0043
   2.1808E+00   2.2338E+00   2.2708E-04  0.0043
   2.2338E+00   2.2882E+00   2.1904E-04  0.0043
   2.2882E+00   2.3439E+00   2.1619E-04  0.0043
   2.3439E+00   2.4009E+00   2.0876E-04  0.0043
   2.4009E+00   2.4593E+00   2.0220E-04  0.0043
   2.4593E+00   2.5191E+00   1.9222E-04  0.0044
   2.5191E+00   2.5804E+00   1.8361E-04  0.0044
   2.5804E+00   2.6432E+00   1.7581E-04  0.0045
   2.6432E+00   2.7075E+00   1.6844E-04  0.0045
   2.7075E+00   2.7734E+00   1.6031E-04  0.0046
   2.7734E+00   2.8409E+00   1.5345E-04  0.0046
   2.8409E+00   2.9100E+00   1.4645E-04  0.0047
   2.9100E+00   2.9808E+00   1.3942E-04  0.0047
   2.9808E+00   3.0533E+00   1.3348E-04  0.0048
   3.0533E+00   3.1276E+00   1.2579E-04  0.0049
   3.1276E+00   3.2037E+00   1.1775E-04  0.0050
   3.2037E+00   3.2817E+00   1.1107E-04  0.0051
   3.2817E+00   3.3615E+00   1.0413E-04  0.0052
   3.3615E+00   3.4433E+00   9.8377E-05  0.0053
   3.4433E+00   3.5271E+00   9.1145E-05  0.0054
   3.5271E+00   3.6129E+00   8.5246E-05  0.0055
   3.6129E+00   3.7008E+00   7.9624E-05  0.0056
   3.7008E+00   3.7908E+00   7.4490E-05  0.0058
   3.7908E+00   3.8831E+00   6.9029E-05  0.0059
   3.8831E+00   3.9776E+00   6.4033E-05  0.0061
   3.9776E+00   4.0743E+00   5.9917E-05  0.0062
   4.0743E+00   4.1735E+00   5.4242E-05  0.0064
   4.1735E+00   4.2750E+00   5.0419E-05  0.0066
   4.2750E+00   4.3790E+00   4.6310E-05  0.0068
   4.3790E+00   4.4856E+00   4.2599E-05  0.0070
   4.4856E+00   4.5947E+00   3.8708E-05  0.0073
   4.5947E+00   4.7065E+00   3.5814E-05  0.0075
   4.7065E+00   4.8210E+00   3.2130E-05  0.0078
   4.8210E+00   4.9383E+00   2.9733E-05  0.0080
   4.9383E+00   5.0585E+00   2.7095E-05  0.0083
   5.0585E+00   5.1815E+00   2.4743E-05  0.0085
   5.1815E+00   5.3076E+00   2.2317E-05  0.0089
   5.3076E+00   5.4368E+00   1.9975E-05  0.0093
   5.4368E+00   5.5690E+00   1.8055E-05  0.0096
   5.5690E+00   5.7045E+00   1.6641E-05  0.0099
   5.7045E+00   5.8433E+00   1.4472E-05  0.0105
   5.8433E+00   5.9855E+00   1.2992E-05  0.0110
   5.9855E+00   6.1311E+00   1.1751E-05  0.0114
   6.1311E+00   6.2803E+00   1.0726E-05  0.0118
   6.2803E+00   6.4331E+00   9.5926E-06  0.0123
   6.4331E+00   6.5896E+00   8.4194E-06  0.0130
   6.5896E+00   6.7500E+00   7.7292E-06  0.0134
   6.7500E+00   6.9142E+00   6.7137E-06  0.0142
   6.9142E+00   7.0824E+00   6.3011E-06  0.0145
   7.0824E+00   7.2548E+00   5.5962E-06  0.0152
   7.2548E+00   7.4313E+00   5.0391E-06  0.0158
   7.4313E+00   7.6121E+00   4.4260E-06  0.0167
   7.6121E+00   7.7973E+00   4.0059E-06  0.0173
   7.7973E+00   7.9870E+00   3.5433E-06  0.0182
   7.9870E+00   8.1813E+00   3.2187E-06  0.0188
   8.1813E+00   8.3804E+00   2.8743E-06  0.0197
   8.3804E+00   8.5843E+00   2.6042E-06  0.0204
   8.5843E+00   8.7931E+00   2.3437E-06  0.0213
   8.7931E+00   9.0071E+00   2.0914E-06  0.0223
   9.0071E+00   9.2262E+00   1.8840E-06  0.0232
   9.2262E+00   9.4507E+00   1.6403E-06  0.0246
   9.4507E+00   9.6807E+00   1.5588E-06  0.0249
   9.6807E+00   9.9162E+00   1.3982E-06  0.0260
   9.9162E+00   1.0157E+01   1.2319E-06  0.0273
   1.0157E+01   1.0405E+01   1.2310E-06  0.0270
   1.0405E+01   1.0658E+01   1.0227E-06  0.0292
   1.0658E+01   1.0917E+01   9.3495E-07  0.0302
   1.0917E+01   1.1183E+01   8.5460E-07  0.0312
   1.1183E+01   1.1455E+01   7.6692E-07  0.0325
   1.1455E+01   1.1733E+01   7.6784E-07  0.0322
   1.1733E+01   1.2019E+01   6.9122E-07  0.0334
   1.2019E+01   1.2311E+01   6.6074E-07  0.0338
   1.2311E+01   1.2611E+01   5.9609E-07  0.0352
   1.2611E+01   1.2918E+01   5.6817E-07  0.0355
   1.2918E+01   1.3232E+01   4.8255E-07  0.0381
   1.3232E+01   1.3554E+01   4.7006E-07  0.0381
   1.3554E+01   1.3884E+01   4.9056E-07  0.0369
   1.3884E+01   1.4222E+01   4.2530E-07  0.0392
   1.4222E+01   1.4568E+01   4.1006E-07  0.0394
   1.4568E+01   1.4922E+01   3.6897E-07  0.0410
   1.4922E+01   1.5285E+01   3.2685E-07  0.0431
   1.5285E+01   1.5657E+01   3.3790E-07  0.0419
   1.5657E+01   1.6038E+01   3.1792E-07  0.0427
   1.6038E+01   1.6428E+01   3.0638E-07  0.0430
   1.6428E+01   1.6828E+01   2.9355E-07  0.0433
   1.6828E+01   1.7237E+01   2.9336E-07  0.0428
   1.7237E+01   1.7657E+01   2.2731E-07  0.0481
   1.7657E+01   1.8086E+01   2.3717E-07  0.0465
   1.8086E+01   1.8526E+01   2.2522E-07  0.0472
   1.8526E+01   1.8977E+01   2.0237E-07  0.0491
   1.8977E+01   1.9439E+01   1.9757E-07  0.0492
   1.9439E+01   1.9912E+01   1.7126E-07  0.0523
   1.9912E+01   2.0396E+01   1.2247E-07  0.0612
   2.0396E+01   2.0893E+01   1.0523E-07  0.0652
   2.0893E+01   2.1401E+01   1.1410E-07  0.0619
   2.1401E+01   2.1922E+01   1.1310E-07  0.0614
   2.1922E+01   2.2455E+01   1.0083E-07  0.0643
   2.2455E+01   2.3001E+01   1.0331E-07  0.0627
   2.3001E+01   2.3561E+01   9.7285E-08  0.0639
   2.3561E+01   2.4134E+01   8.1018E-08  0.0692
   2.4134E+01   2.4721E+01   7.5310E-08  0.0709
   2.4721E+01   2.5323E+01   7.6107E-08  0.0697
   2.5323E+01   2.5939E+01   6.3118E-08  0.0756
   2.5939E+01   2.6570E+01   6.7957E-08  0.0720
   2.6570E+01   2.7217E+01   5.7062E-08  0.0776
   2.7217E+01   2.7879E+01   5.3693E-08  0.0791
   2.7879E+01   2.8557E+01   4.5865E-08  0.0845
   2.8557E+01   2.9252E+01   4.4136E-08  0.0851
   2.9252E+01   2.9964E+01   4.3712E-08  0.0845
   2.9964E+01   3.0693E+01   3.6273E-08  0.0917
   3.0693E+01   3.1440E+01   3.2138E-08  0.0962
   3.1440E+01   3.2205E+01   3.1665E-08  0.0958
   3.2205E+01   3.2988E+01   3.1197E-08  0.0953
   3.2988E+01   3.3791E+01   2.3811E-08  0.1078
   3.3791E+01   3.4613E+01   2.4597E-08  0.1048
   3.4613E+01   3.5455E+01   2.4276E-08  0.1043
   3.5455E+01   3.6318E+01   1.8805E-08  0.1170
   3.6318E+01   3.7201E+01   1.4083E-08  0.1336
   3.7201E+01   3.8106E+01   1.6449E-08  0.1222
   3.8106E+01   3.9034E+01   1.0546E-08  0.1508
   3.9034E+01   3.9983E+01   9.1255E-09  0.1601
   3.9983E+01   4.0956E+01   7.9950E-09  0.1690
   4.0956E+01   4.1953E+01   7.8051E-09  0.1690
   4.1953E+01   4.2973E+01   5.4427E-09  0.2000
   4.2973E+01   4.4019E+01   5.3134E-09  0.2000
   4.4019E+01   4.5090E+01   4.9797E-09  0.2041
   4.5090E+01   4.6187E+01   3.0384E-09  0.2582
   4.6187E+01   4.7311E+01   2.9662E-09  0.2582
   4.7311E+01   4.8462E+01   1.9305E-09  0.3162
   4.8462E+01   4.9641E+01   1.3193E-09  0.3780
   4.9641E+01   5.0849E+01   1.4719E-09  0.3536
   5.0849E+01   5.2086E+01   3.5924E-10  0.7071
   5.2086E+01   5.3353E+01   5.2606E-10  0.5774
   5.3353E+01   5.4651E+01   6.8475E-10  0.5000
   5.4651E+01   5.5981E+01   3.3424E-10  0.7071
   5.5981E+01   5.7343E+01   0.0000E+00  0.0000
   5.7343E+01   5.8738E+01   0.0000E+00  0.0000
   5.8738E+01   6.0168E+01   0.0000E+00  0.0000
   6.0168E+01   6.1632E+01   0.0000E+00  0.0000
   6.1632E+01   6.3131E+01   0.0000E+00  0.0000
   6.3131E+01   6.4667E+01   0.0000E+00  0.0000
   6.4667E+01   6.6240E+01   0.0000E+00  0.0000
   6.6240E+01   6.7852E+01   0.0000E+00  0.0000
   6.7852E+01   6.9503E+01   0.0000E+00  0.0000
   6.9503E+01   7.1194E+01   0.0000E+00  0.0000
   7.1194E+01   7.2926E+01   0.0000E+00  0.0000
   7.2926E+01   7.4701E+01   0.0000E+00  0.0000
   7.4701E+01   7.6518E+01   0.0000E+00  0.0000
   7.6518E+01   7.8380E+01   0.0000E+00  0.0000
   7.8380E+01   8.0287E+01   0.0000E+00  0.0000
   8.0287E+01   8.2240E+01   0.0000E+00  0.0000
   8.2240E+01   8.4241E+01   0.0000E+00  0.0000
   8.4241E+01   8.6291E+01   0.0000E+00  0.0000
   8.6291E+01   8.8391E+01   0.0000E+00  0.0000
   8.8391E+01   9.0541E+01   0.0000E+00  0.0000
   9.0541E+01   9.2744E+01   0.0000E+00  0.0000
   9.2744E+01   9.5001E+01   0.0000E+00  0.0000
   9.5001E+01   9.7312E+01   0.0000E+00  0.0000
   9.7312E+01   9.9680E+01   0.0000E+00  0.0000
   9.9680E+01   1.0211E+02   0.0000E+00  0.0000
   1.0211E+02   1.0459E+02   0.0000E+00  0.0000
   1.0459E+02   1.0713E+02   0.0000E+00  0.0000
   1.0713E+02   1.0974E+02   0.0000E+00  0.0000
   1.0974E+02   1.1241E+02   0.0000E+00  0.0000
   1.1241E+02   1.1515E+02   0.0000E+00  0.0000
   1.1515E+02   1.1795E+02   0.0000E+00  0.0000
   1.1795E+02   1.2082E+02   0.0000E+00  0.0000
   1.2082E+02   1.2376E+02   0.0000E+00  0.0000
   1.2376E+02   1.2677E+02   0.0000E+00  0.0000
   1.2677E+02   1.2985E+02   0.0000E+00  0.0000
   1.2985E+02   1.3301E+02   0.0000E+00  0.0000
   1.3301E+02   1.3625E+02   0.0000E+00  0.0000
   1.3625E+02   1.3956E+02   0.0000E+00  0.0000
   1.3956E+02   1.4296E+02   0.0000E+00  0.0000
   1.4296E+02   1.4644E+02   0.0000E+00  0.0000
   1.4644E+02   1.5000E+02   0.0000E+00  0.0000

#   sum over                 1.0887E-05
'no. =    1   reg = 125 - 225'
msuc: {\huge [t-cross] in region mesh}
msdr: {\it plotted by \ANGEL \version}
msdl: {\it calculated by \PHITS  3.26}
wt: s(0.7)
\vspace{-3}
  region surface crossing
  area  &=&   1.0000E+00 [cm^2]
e:
 
# Information for Restart Calculation
# This calculation was newly started
# istdev =  2 # 1:Batch variance, 2:History variance
# resc2  = 4.50000000000000000E+09 # Total source weight or Total source weight / maxcas
# resc3  = 4.50000000000000000E+09 # Total history number or Total batch number
# maxcas =   100000000 # History / Batch, only used for istdev=1
# bitrseed = 0001011101011011011000011100010110101100100111100111010011101011 # bit data of rseed
