[ T-Cross ]
    title = [t-cross] in region mesh
     mesh =  reg            # mesh type is region-wise
      reg =    1            # number of crossing regions
      non     r-from    r-to       area
      1       118       218        1.000000    
   e-type =    3            # e-mesh is log given by emin, emax and ne
     emin =  1.0000000E-02  # minimum value of e-mesh points
     emax =   150.0000      # maximum value of e-mesh points
#    edel =  2.4039514E-02  # mesh width of e-mesh points
       ne =    400          # number of e-mesh points
#    data = ( e(i), i = 1, ne + 1 )
#           1.00000E-02  1.02433E-02  1.04925E-02  1.07478E-02  1.10093E-02
#           1.12772E-02  1.15516E-02  1.18326E-02  1.21205E-02  1.24154E-02
#           1.27175E-02  1.30269E-02  1.33439E-02  1.36686E-02  1.40011E-02
#           1.43418E-02  1.46907E-02  1.50482E-02  1.54143E-02  1.57894E-02
#           1.61735E-02  1.65670E-02  1.69701E-02  1.73830E-02  1.78060E-02
#           1.82392E-02  1.86830E-02  1.91375E-02  1.96032E-02  2.00801E-02
#           2.05687E-02  2.10692E-02  2.15818E-02  2.21069E-02  2.26448E-02
#           2.31957E-02  2.37601E-02  2.43382E-02  2.49304E-02  2.55369E-02
#           2.61583E-02  2.67947E-02  2.74467E-02  2.81145E-02  2.87985E-02
#           2.94992E-02  3.02169E-02  3.09521E-02  3.17052E-02  3.24766E-02
#           3.32668E-02  3.40762E-02  3.49053E-02  3.57546E-02  3.66246E-02
#           3.75157E-02  3.84284E-02  3.93634E-02  4.03212E-02  4.13022E-02
#           4.23071E-02  4.33365E-02  4.43909E-02  4.54710E-02  4.65773E-02
#           4.77106E-02  4.88714E-02  5.00605E-02  5.12785E-02  5.25262E-02
#           5.38042E-02  5.51133E-02  5.64542E-02  5.78278E-02  5.92348E-02
#           6.06760E-02  6.21523E-02  6.36645E-02  6.52135E-02  6.68002E-02
#           6.84255E-02  7.00904E-02  7.17957E-02  7.35426E-02  7.53319E-02
#           7.71648E-02  7.90423E-02  8.09655E-02  8.29354E-02  8.49533E-02
#           8.70203E-02  8.91376E-02  9.13064E-02  9.35279E-02  9.58035E-02
#           9.81345E-02  1.00522E-01  1.02968E-01  1.05473E-01  1.08040E-01
#           1.10668E-01  1.13361E-01  1.16119E-01  1.18944E-01  1.21838E-01
#           1.24803E-01  1.27839E-01  1.30950E-01  1.34136E-01  1.37399E-01
#           1.40742E-01  1.44167E-01  1.47675E-01  1.51268E-01  1.54948E-01
#           1.58718E-01  1.62580E-01  1.66535E-01  1.70587E-01  1.74738E-01
#           1.78989E-01  1.83344E-01  1.87805E-01  1.92375E-01  1.97055E-01
#           2.01850E-01  2.06761E-01  2.11792E-01  2.16945E-01  2.22223E-01
#           2.27630E-01  2.33169E-01  2.38842E-01  2.44653E-01  2.50605E-01
#           2.56703E-01  2.62949E-01  2.69346E-01  2.75900E-01  2.82613E-01
#           2.89489E-01  2.96532E-01  3.03747E-01  3.11138E-01  3.18708E-01
#           3.26462E-01  3.34405E-01  3.42542E-01  3.50876E-01  3.59413E-01
#           3.68158E-01  3.77116E-01  3.86291E-01  3.95690E-01  4.05317E-01
#           4.15179E-01  4.25281E-01  4.35628E-01  4.46227E-01  4.57084E-01
#           4.68205E-01  4.79597E-01  4.91266E-01  5.03219E-01  5.15463E-01
#           5.28005E-01  5.40851E-01  5.54011E-01  5.67490E-01  5.81298E-01
#           5.95441E-01  6.09929E-01  6.24769E-01  6.39970E-01  6.55541E-01
#           6.71491E-01  6.87828E-01  7.04564E-01  7.21706E-01  7.39266E-01
#           7.57253E-01  7.75678E-01  7.94551E-01  8.13883E-01  8.33685E-01
#           8.53969E-01  8.74747E-01  8.96030E-01  9.17831E-01  9.40163E-01
#           9.63038E-01  9.86469E-01  1.01047E+00  1.03506E+00  1.06024E+00
#           1.08604E+00  1.11246E+00  1.13953E+00  1.16725E+00  1.19565E+00
#           1.22474E+00  1.25454E+00  1.28507E+00  1.31633E+00  1.34836E+00
#           1.38117E+00  1.41477E+00  1.44920E+00  1.48446E+00  1.52057E+00
#           1.55757E+00  1.59547E+00  1.63429E+00  1.67405E+00  1.71478E+00
#           1.75650E+00  1.79924E+00  1.84302E+00  1.88786E+00  1.93379E+00
#           1.98084E+00  2.02904E+00  2.07841E+00  2.12898E+00  2.18078E+00
#           2.23384E+00  2.28819E+00  2.34386E+00  2.40089E+00  2.45930E+00
#           2.51914E+00  2.58043E+00  2.64322E+00  2.70753E+00  2.77341E+00
#           2.84088E+00  2.91001E+00  2.98081E+00  3.05333E+00  3.12762E+00
#           3.20372E+00  3.28167E+00  3.36152E+00  3.44330E+00  3.52708E+00
#           3.61290E+00  3.70080E+00  3.79085E+00  3.88308E+00  3.97756E+00
#           4.07434E+00  4.17347E+00  4.27501E+00  4.37903E+00  4.48557E+00
#           4.59471E+00  4.70650E+00  4.82102E+00  4.93832E+00  5.05847E+00
#           5.18155E+00  5.30762E+00  5.43676E+00  5.56904E+00  5.70453E+00
#           5.84333E+00  5.98550E+00  6.13114E+00  6.28031E+00  6.43312E+00
#           6.58964E+00  6.74997E+00  6.91420E+00  7.08243E+00  7.25475E+00
#           7.43126E+00  7.61207E+00  7.79728E+00  7.98700E+00  8.18133E+00
#           8.38038E+00  8.58428E+00  8.79315E+00  9.00709E+00  9.22624E+00
#           9.45072E+00  9.68067E+00  9.91620E+00  1.01575E+01  1.04046E+01
#           1.06578E+01  1.09171E+01  1.11827E+01  1.14548E+01  1.17335E+01
#           1.20190E+01  1.23114E+01  1.26109E+01  1.29178E+01  1.32321E+01
#           1.35540E+01  1.38838E+01  1.42216E+01  1.45676E+01  1.49221E+01
#           1.52851E+01  1.56570E+01  1.60380E+01  1.64282E+01  1.68279E+01
#           1.72374E+01  1.76568E+01  1.80864E+01  1.85264E+01  1.89772E+01
#           1.94389E+01  1.99119E+01  2.03963E+01  2.08926E+01  2.14009E+01
#           2.19216E+01  2.24550E+01  2.30014E+01  2.35610E+01  2.41343E+01
#           2.47215E+01  2.53230E+01  2.59391E+01  2.65702E+01  2.72167E+01
#           2.78789E+01  2.85572E+01  2.92520E+01  2.99637E+01  3.06928E+01
#           3.14396E+01  3.22045E+01  3.29881E+01  3.37907E+01  3.46128E+01
#           3.54550E+01  3.63177E+01  3.72013E+01  3.81064E+01  3.90336E+01
#           3.99833E+01  4.09561E+01  4.19526E+01  4.29734E+01  4.40189E+01
#           4.50900E+01  4.61870E+01  4.73108E+01  4.84619E+01  4.96410E+01
#           5.08488E+01  5.20860E+01  5.33533E+01  5.46514E+01  5.59812E+01
#           5.73432E+01  5.87384E+01  6.01676E+01  6.16315E+01  6.31311E+01
#           6.46671E+01  6.62405E+01  6.78522E+01  6.95031E+01  7.11941E+01
#           7.29263E+01  7.47007E+01  7.65182E+01  7.83800E+01  8.02870E+01
#           8.22405E+01  8.42414E+01  8.62911E+01  8.83906E+01  9.05412E+01
#           9.27442E+01  9.50007E+01  9.73122E+01  9.96799E+01  1.02105E+02
#           1.04589E+02  1.07134E+02  1.09741E+02  1.12411E+02  1.15146E+02
#           1.17948E+02  1.20817E+02  1.23757E+02  1.26768E+02  1.29852E+02
#           1.33012E+02  1.36248E+02  1.39563E+02  1.42959E+02  1.46437E+02
#           1.50000E+02
     unit =    2            # unit is [1/cm^2/(MeV/n)/source]
     axis =  eng            # axis of output
     file = detector-19.out  # file name of output for the above axis
   output = f-curr          # surface crossing forward current spectrum
     part =  neutron  
# kf/name :  2112     
#    used :        main (  %)        temp (  %)       total (  %)
#  memory :         414 (  0)           0 (  0)         414 (  0)

#------------------------------------------------------------------------------
#newpage:
#   no. =    1   reg = 118 - 218

x: Energy [MeV/n]
y:  F-Curr [1/cm^2/(MeV/n)/source]         
p: xlog ylog afac(0.8) form(0.9)
h: n            x            y(neutron ),hh0l   n 
#  e-lower      e-upper      neutron     r.err 
   1.0000E-02   1.0243E-02   8.9154E-04  0.1072
   1.0243E-02   1.0493E-02   8.3311E-04  0.1091
   1.0493E-02   1.0748E-02   8.6719E-04  0.1060
   1.0748E-02   1.1009E-02   6.2660E-04  0.1229
   1.1009E-02   1.1277E-02   8.1912E-04  0.1066
   1.1277E-02   1.1552E-02   7.1700E-04  0.1122
   1.1552E-02   1.1833E-02   7.9594E-04  0.1055
   1.1833E-02   1.2121E-02   7.0746E-04  0.1105
   1.2121E-02   1.2415E-02   6.6783E-04  0.1125
   1.2415E-02   1.2718E-02   4.8756E-04  0.1302
   1.2718E-02   1.3027E-02   6.5224E-04  0.1111
   1.3027E-02   1.3344E-02   6.6696E-04  0.1085
   1.3344E-02   1.3669E-02   7.6388E-04  0.1001
   1.3669E-02   1.4001E-02   6.2578E-04  0.1091
   1.4001E-02   1.4342E-02   5.6468E-04  0.1135
   1.4342E-02   1.4691E-02   5.6278E-04  0.1125
   1.4691E-02   1.5048E-02   5.6136E-04  0.1112
   1.5048E-02   1.5414E-02   5.6764E-04  0.1092
   1.5414E-02   1.5789E-02   6.0473E-04  0.1048
   1.5789E-02   1.6174E-02   4.7929E-04  0.1163
   1.6174E-02   1.6567E-02   4.6783E-04  0.1163
   1.6567E-02   1.6970E-02   5.3969E-04  0.1070
   1.6970E-02   1.7383E-02   6.0109E-04  0.1000
   1.7383E-02   1.7806E-02   5.5850E-04  0.1026
   1.7806E-02   1.8239E-02   5.3260E-04  0.1038
   1.8239E-02   1.8683E-02   5.1503E-04  0.1043
   1.8683E-02   1.9138E-02   4.4438E-04  0.1111
   1.9138E-02   1.9603E-02   4.2647E-04  0.1118
   1.9603E-02   2.0080E-02   5.0486E-04  0.1016
   2.0080E-02   2.0569E-02   4.9017E-04  0.1021
   2.0569E-02   2.1069E-02   4.2497E-04  0.1079
   2.1069E-02   2.1582E-02   3.4967E-04  0.1179
   2.1582E-02   2.2107E-02   4.0059E-04  0.1088
   2.2107E-02   2.2645E-02   4.9393E-04  0.0967
   2.2645E-02   2.3196E-02   4.0561E-04  0.1054
   2.3196E-02   2.3760E-02   4.1082E-04  0.1037
   2.3760E-02   2.4338E-02   3.1501E-04  0.1170
   2.4338E-02   2.4930E-02   4.0610E-04  0.1016
   2.4930E-02   2.5537E-02   3.9077E-04  0.1024
   2.5537E-02   2.6158E-02   3.6957E-04  0.1043
   2.6158E-02   2.6795E-02   3.6023E-04  0.1043
   2.6795E-02   2.7447E-02   3.0835E-04  0.1112
   2.7447E-02   2.8114E-02   2.8729E-04  0.1140
   2.8114E-02   2.8799E-02   2.8087E-04  0.1140
   2.8799E-02   2.9499E-02   2.9460E-04  0.1098
   2.9499E-02   3.0217E-02   2.4335E-04  0.1195
   3.0217E-02   3.0952E-02   2.9081E-04  0.1079
   3.0952E-02   3.1705E-02   2.5383E-04  0.1137
   3.1705E-02   3.2477E-02   2.6503E-04  0.1104
   3.2477E-02   3.3267E-02   3.3816E-04  0.0965
   3.3267E-02   3.4076E-02   2.9945E-04  0.1014
   3.4076E-02   3.4905E-02   3.1330E-04  0.0979
   3.4905E-02   3.5755E-02   2.4224E-04  0.1098
   3.5755E-02   3.6625E-02   2.4668E-04  0.1078
   3.6625E-02   3.7516E-02   2.6577E-04  0.1026
   3.7516E-02   3.8428E-02   2.4474E-04  0.1055
   3.8428E-02   3.9363E-02   2.4534E-04  0.1043
   3.9363E-02   4.0321E-02   2.2802E-04  0.1066
   4.0321E-02   4.1302E-02   2.4075E-04  0.1026
   4.1302E-02   4.2307E-02   2.6011E-04  0.0976
   4.2307E-02   4.3337E-02   2.1287E-04  0.1066
   4.3337E-02   4.4391E-02   2.4567E-04  0.0979
   4.4391E-02   4.5471E-02   1.9618E-04  0.1085
   4.5471E-02   4.6577E-02   2.3205E-04  0.0985
   4.6577E-02   4.7711E-02   1.9592E-04  0.1060
   4.7711E-02   4.8871E-02   2.3369E-04  0.0958
   4.8871E-02   5.0061E-02   1.7546E-04  0.1092
   5.0061E-02   5.1279E-02   1.8627E-04  0.1048
   5.1279E-02   5.2526E-02   2.2046E-04  0.0950
   5.2526E-02   5.3804E-02   2.2780E-04  0.0925
   5.3804E-02   5.5113E-02   1.6516E-04  0.1071
   5.5113E-02   5.6454E-02   1.7493E-04  0.1031
   5.6454E-02   5.7828E-02   1.8417E-04  0.0991
   5.7828E-02   5.9235E-02   1.9464E-04  0.0954
   5.9235E-02   6.0676E-02   1.5957E-04  0.1041
   6.0676E-02   6.2152E-02   1.6786E-04  0.1001
   6.2152E-02   6.3665E-02   1.4397E-04  0.1069
   6.3665E-02   6.5214E-02   1.4822E-04  0.1038
   6.5214E-02   6.6800E-02   1.8538E-04  0.0921
   6.6800E-02   6.8426E-02   1.4370E-04  0.1032
   6.8426E-02   7.0090E-02   1.7042E-04  0.0937
   7.0090E-02   7.1796E-02   1.7062E-04  0.0925
   7.1796E-02   7.3543E-02   1.3627E-04  0.1021
   7.3543E-02   7.5332E-02   1.5437E-04  0.0948
   7.5332E-02   7.7165E-02   1.3706E-04  0.0995
   7.7165E-02   7.9042E-02   1.3213E-04  0.1001
   7.9042E-02   8.0965E-02   1.2009E-04  0.1037
   8.0965E-02   8.2935E-02   1.0516E-04  0.1093
   8.2935E-02   8.4953E-02   1.3447E-04  0.0957
   8.4953E-02   8.7020E-02   1.5522E-04  0.0881
   8.7020E-02   8.9138E-02   1.2851E-04  0.0954
   8.9138E-02   9.1306E-02   1.1207E-04  0.1011
   9.1306E-02   9.3528E-02   1.2103E-04  0.0962
   9.3528E-02   9.5804E-02   1.0907E-04  0.0999
   9.5804E-02   9.8134E-02   1.3480E-04  0.0890
   9.8134E-02   1.0052E-01   1.1245E-04  0.0963
   1.0052E-01   1.0297E-01   9.8858E-05  0.1015
   1.0297E-01   1.0547E-01   1.2045E-04  0.0906
   1.0547E-01   1.0804E-01   1.3566E-04  0.0845
   1.0804E-01   1.1067E-01   1.2928E-04  0.0855
   1.1067E-01   1.1336E-01   1.3636E-04  0.0823
   1.1336E-01   1.1612E-01   1.4148E-04  0.0798
   1.1612E-01   1.1894E-01   1.4600E-04  0.0776
   1.1894E-01   1.2184E-01   1.7221E-04  0.0707
   1.2184E-01   1.2480E-01   1.4995E-04  0.0748
   1.2480E-01   1.2784E-01   1.7253E-04  0.0688
   1.2784E-01   1.3095E-01   1.7467E-04  0.0676
   1.3095E-01   1.3414E-01   1.8282E-04  0.0654
   1.3414E-01   1.3740E-01   1.8242E-04  0.0646
   1.3740E-01   1.4074E-01   1.7989E-04  0.0643
   1.4074E-01   1.4417E-01   1.9346E-04  0.0613
   1.4417E-01   1.4767E-01   1.9925E-04  0.0596
   1.4767E-01   1.5127E-01   1.9420E-04  0.0597
   1.5127E-01   1.5495E-01   2.0907E-04  0.0568
   1.5495E-01   1.5872E-01   1.9604E-04  0.0580
   1.5872E-01   1.6258E-01   2.1817E-04  0.0543
   1.6258E-01   1.6654E-01   2.2988E-04  0.0522
   1.6654E-01   1.7059E-01   2.2709E-04  0.0520
   1.7059E-01   1.7474E-01   2.4390E-04  0.0495
   1.7474E-01   1.7899E-01   2.4377E-04  0.0489
   1.7899E-01   1.8334E-01   2.4974E-04  0.0477
   1.8334E-01   1.8781E-01   2.6825E-04  0.0456
   1.8781E-01   1.9237E-01   2.8316E-04  0.0438
   1.9237E-01   1.9706E-01   2.7526E-04  0.0439
   1.9706E-01   2.0185E-01   2.9106E-04  0.0422
   2.0185E-01   2.0676E-01   3.1479E-04  0.0401
   2.0676E-01   2.1179E-01   3.1912E-04  0.0393
   2.1179E-01   2.1694E-01   2.9541E-04  0.0404
   2.1694E-01   2.2222E-01   3.3244E-04  0.0376
   2.2222E-01   2.2763E-01   3.2491E-04  0.0376
   2.2763E-01   2.3317E-01   3.4019E-04  0.0363
   2.3317E-01   2.3884E-01   3.5200E-04  0.0352
   2.3884E-01   2.4465E-01   3.8391E-04  0.0333
   2.4465E-01   2.5061E-01   3.6723E-04  0.0337
   2.5061E-01   2.5670E-01   3.7970E-04  0.0327
   2.5670E-01   2.6295E-01   3.7871E-04  0.0324
   2.6295E-01   2.6935E-01   3.7714E-04  0.0321
   2.6935E-01   2.7590E-01   4.0014E-04  0.0308
   2.7590E-01   2.8261E-01   4.1867E-04  0.0297
   2.8261E-01   2.8949E-01   4.2434E-04  0.0292
   2.8949E-01   2.9653E-01   4.1151E-04  0.0293
   2.9653E-01   3.0375E-01   4.4307E-04  0.0278
   3.0375E-01   3.1114E-01   4.2824E-04  0.0280
   3.1114E-01   3.1871E-01   4.3342E-04  0.0275
   3.1871E-01   3.2646E-01   4.4812E-04  0.0267
   3.2646E-01   3.3441E-01   4.8411E-04  0.0254
   3.3441E-01   3.4254E-01   4.6623E-04  0.0256
   3.4254E-01   3.5088E-01   4.4139E-04  0.0260
   3.5088E-01   3.5941E-01   4.5710E-04  0.0252
   3.5941E-01   3.6816E-01   4.7849E-04  0.0243
   3.6816E-01   3.7712E-01   5.1272E-04  0.0232
   3.7712E-01   3.8629E-01   4.9459E-04  0.0234
   3.8629E-01   3.9569E-01   5.0406E-04  0.0229
   3.9569E-01   4.0532E-01   5.3176E-04  0.0220
   4.0532E-01   4.1518E-01   5.2933E-04  0.0218
   4.1518E-01   4.2528E-01   5.6510E-04  0.0208
   4.2528E-01   4.3563E-01   5.4324E-04  0.0210
   4.3563E-01   4.4623E-01   5.4734E-04  0.0207
   4.4623E-01   4.5708E-01   5.4551E-04  0.0204
   4.5708E-01   4.6821E-01   5.5739E-04  0.0200
   4.6821E-01   4.7960E-01   5.5668E-04  0.0198
   4.7960E-01   4.9127E-01   5.6300E-04  0.0194
   4.9127E-01   5.0322E-01   5.8026E-04  0.0189
   5.0322E-01   5.1546E-01   5.6713E-04  0.0189
   5.1546E-01   5.2800E-01   5.8166E-04  0.0184
   5.2800E-01   5.4085E-01   5.7490E-04  0.0183
   5.4085E-01   5.5401E-01   5.7456E-04  0.0181
   5.5401E-01   5.6749E-01   5.7346E-04  0.0179
   5.6749E-01   5.8130E-01   5.6768E-04  0.0178
   5.8130E-01   5.9544E-01   5.7576E-04  0.0174
   5.9544E-01   6.0993E-01   5.6994E-04  0.0173
   6.0993E-01   6.2477E-01   5.5597E-04  0.0173
   6.2477E-01   6.3997E-01   5.7554E-04  0.0168
   6.3997E-01   6.5554E-01   5.7381E-04  0.0166
   6.5554E-01   6.7149E-01   5.6223E-04  0.0166
   6.7149E-01   6.8783E-01   5.6770E-04  0.0163
   6.8783E-01   7.0456E-01   5.5963E-04  0.0162
   7.0456E-01   7.2171E-01   5.5087E-04  0.0162
   7.2171E-01   7.3927E-01   5.4059E-04  0.0161
   7.3927E-01   7.5725E-01   5.2025E-04  0.0162
   7.5725E-01   7.7568E-01   5.3144E-04  0.0159
   7.7568E-01   7.9455E-01   5.2450E-04  0.0158
   7.9455E-01   8.1388E-01   5.0819E-04  0.0158
   8.1388E-01   8.3368E-01   4.9910E-04  0.0158
   8.3368E-01   8.5397E-01   4.7523E-04  0.0160
   8.5397E-01   8.7475E-01   4.7418E-04  0.0158
   8.7475E-01   8.9603E-01   4.5469E-04  0.0159
   8.9603E-01   9.1783E-01   4.4533E-04  0.0159
   9.1783E-01   9.4016E-01   4.2658E-04  0.0161
   9.4016E-01   9.6304E-01   4.0728E-04  0.0163
   9.6304E-01   9.8647E-01   4.0199E-04  0.0161
   9.8647E-01   1.0105E+00   3.8434E-04  0.0163
   1.0105E+00   1.0351E+00   3.7361E-04  0.0163
   1.0351E+00   1.0602E+00   3.7292E-04  0.0162
   1.0602E+00   1.0860E+00   3.7758E-04  0.0159
   1.0860E+00   1.1125E+00   3.8763E-04  0.0155
   1.1125E+00   1.1395E+00   3.8858E-04  0.0152
   1.1395E+00   1.1673E+00   3.8606E-04  0.0151
   1.1673E+00   1.1957E+00   3.9673E-04  0.0147
   1.1957E+00   1.2247E+00   4.0494E-04  0.0144
   1.2247E+00   1.2545E+00   3.9200E-04  0.0144
   1.2545E+00   1.2851E+00   4.0106E-04  0.0141
   1.2851E+00   1.3163E+00   3.9492E-04  0.0140
   1.3163E+00   1.3484E+00   3.9161E-04  0.0139
   1.3484E+00   1.3812E+00   3.8953E-04  0.0138
   1.3812E+00   1.4148E+00   4.0848E-04  0.0133
   1.4148E+00   1.4492E+00   3.8751E-04  0.0135
   1.4492E+00   1.4845E+00   3.9642E-04  0.0131
   1.4845E+00   1.5206E+00   3.8323E-04  0.0132
   1.5206E+00   1.5576E+00   3.7930E-04  0.0131
   1.5576E+00   1.5955E+00   3.8031E-04  0.0129
   1.5955E+00   1.6343E+00   3.7255E-04  0.0129
   1.6343E+00   1.6741E+00   3.5981E-04  0.0129
   1.6741E+00   1.7148E+00   3.6435E-04  0.0127
   1.7148E+00   1.7565E+00   3.5887E-04  0.0126
   1.7565E+00   1.7992E+00   3.3017E-04  0.0130
   1.7992E+00   1.8430E+00   3.0755E-04  0.0133
   1.8430E+00   1.8879E+00   3.1535E-04  0.0129
   1.8879E+00   1.9338E+00   3.0294E-04  0.0130
   1.9338E+00   1.9808E+00   2.8592E-04  0.0132
   1.9808E+00   2.0290E+00   2.8766E-04  0.0130
   2.0290E+00   2.0784E+00   2.8668E-04  0.0129
   2.0784E+00   2.1290E+00   2.8590E-04  0.0127
   2.1290E+00   2.1808E+00   2.9251E-04  0.0124
   2.1808E+00   2.2338E+00   2.9045E-04  0.0123
   2.2338E+00   2.2882E+00   2.7942E-04  0.0124
   2.2882E+00   2.3439E+00   2.6909E-04  0.0125
   2.3439E+00   2.4009E+00   2.6715E-04  0.0124
   2.4009E+00   2.4593E+00   2.6101E-04  0.0124
   2.4593E+00   2.5191E+00   2.5638E-04  0.0124
   2.5191E+00   2.5804E+00   2.5551E-04  0.0123
   2.5804E+00   2.6432E+00   2.4535E-04  0.0124
   2.6432E+00   2.7075E+00   2.4108E-04  0.0123
   2.7075E+00   2.7734E+00   2.3695E-04  0.0123
   2.7734E+00   2.8409E+00   2.3049E-04  0.0123
   2.8409E+00   2.9100E+00   2.2948E-04  0.0122
   2.9100E+00   2.9808E+00   2.2221E-04  0.0123
   2.9808E+00   3.0533E+00   2.1677E-04  0.0123
   3.0533E+00   3.1276E+00   2.1310E-04  0.0122
   3.1276E+00   3.2037E+00   2.1065E-04  0.0122
   3.2037E+00   3.2817E+00   1.9943E-04  0.0124
   3.2817E+00   3.3615E+00   2.0517E-04  0.0121
   3.3615E+00   3.4433E+00   1.9589E-04  0.0122
   3.4433E+00   3.5271E+00   1.9502E-04  0.0121
   3.5271E+00   3.6129E+00   1.8841E-04  0.0121
   3.6129E+00   3.7008E+00   1.8227E-04  0.0122
   3.7008E+00   3.7908E+00   1.8301E-04  0.0120
   3.7908E+00   3.8831E+00   1.7823E-04  0.0121
   3.8831E+00   3.9776E+00   1.7131E-04  0.0122
   3.9776E+00   4.0743E+00   1.6655E-04  0.0122
   4.0743E+00   4.1735E+00   1.6254E-04  0.0122
   4.1735E+00   4.2750E+00   1.5832E-04  0.0122
   4.2750E+00   4.3790E+00   1.5185E-04  0.0123
   4.3790E+00   4.4856E+00   1.5079E-04  0.0122
   4.4856E+00   4.5947E+00   1.4227E-04  0.0124
   4.5947E+00   4.7065E+00   1.3736E-04  0.0125
   4.7065E+00   4.8210E+00   1.4129E-04  0.0122
   4.8210E+00   4.9383E+00   1.3308E-04  0.0124
   4.9383E+00   5.0585E+00   1.2782E-04  0.0125
   5.0585E+00   5.1815E+00   1.2254E-04  0.0126
   5.1815E+00   5.3076E+00   1.1891E-04  0.0127
   5.3076E+00   5.4368E+00   1.1550E-04  0.0127
   5.4368E+00   5.5690E+00   1.1424E-04  0.0126
   5.5690E+00   5.7045E+00   1.0897E-04  0.0128
   5.7045E+00   5.8433E+00   1.0507E-04  0.0128
   5.8433E+00   5.9855E+00   9.9679E-05  0.0130
   5.9855E+00   6.1311E+00   9.6800E-05  0.0131
   6.1311E+00   6.2803E+00   9.2771E-05  0.0132
   6.2803E+00   6.4331E+00   8.9415E-05  0.0133
   6.4331E+00   6.5896E+00   8.4302E-05  0.0135
   6.5896E+00   6.7500E+00   8.1567E-05  0.0136
   6.7500E+00   6.9142E+00   7.7139E-05  0.0138
   6.9142E+00   7.0824E+00   7.2428E-05  0.0141
   7.0824E+00   7.2548E+00   7.0284E-05  0.0142
   7.2548E+00   7.4313E+00   6.5859E-05  0.0145
   7.4313E+00   7.6121E+00   6.2927E-05  0.0146
   7.6121E+00   7.7973E+00   5.8491E-05  0.0150
   7.7973E+00   7.9870E+00   5.5462E-05  0.0152
   7.9870E+00   8.1813E+00   5.1179E-05  0.0156
   8.1813E+00   8.3804E+00   5.0319E-05  0.0156
   8.3804E+00   8.5843E+00   4.7257E-05  0.0159
   8.5843E+00   8.7931E+00   4.5218E-05  0.0161
   8.7931E+00   9.0071E+00   4.2507E-05  0.0164
   9.0071E+00   9.2262E+00   4.0267E-05  0.0167
   9.2262E+00   9.4507E+00   3.7187E-05  0.0171
   9.4507E+00   9.6807E+00   3.5834E-05  0.0173
   9.6807E+00   9.9162E+00   3.3381E-05  0.0177
   9.9162E+00   1.0157E+01   3.1840E-05  0.0179
   1.0157E+01   1.0405E+01   3.0079E-05  0.0182
   1.0405E+01   1.0658E+01   2.8533E-05  0.0185
   1.0658E+01   1.0917E+01   2.8039E-05  0.0185
   1.0917E+01   1.1183E+01   2.5611E-05  0.0191
   1.1183E+01   1.1455E+01   2.3713E-05  0.0196
   1.1455E+01   1.1733E+01   2.1936E-05  0.0201
   1.1733E+01   1.2019E+01   2.0556E-05  0.0205
   1.2019E+01   1.2311E+01   1.9121E-05  0.0211
   1.2311E+01   1.2611E+01   1.8789E-05  0.0210
   1.2611E+01   1.2918E+01   1.7432E-05  0.0216
   1.2918E+01   1.3232E+01   1.5866E-05  0.0223
   1.3232E+01   1.3554E+01   1.4406E-05  0.0232
   1.3554E+01   1.3884E+01   1.4078E-05  0.0231
   1.3884E+01   1.4222E+01   1.4028E-05  0.0229
   1.4222E+01   1.4568E+01   1.2584E-05  0.0239
   1.4568E+01   1.4922E+01   1.1738E-05  0.0245
   1.4922E+01   1.5285E+01   1.0880E-05  0.0251
   1.5285E+01   1.5657E+01   9.8234E-06  0.0261
   1.5657E+01   1.6038E+01   9.6253E-06  0.0260
   1.6038E+01   1.6428E+01   8.5643E-06  0.0273
   1.6428E+01   1.6828E+01   8.0020E-06  0.0279
   1.6828E+01   1.7237E+01   7.2287E-06  0.0290
   1.7237E+01   1.7657E+01   7.2925E-06  0.0286
   1.7657E+01   1.8086E+01   6.5560E-06  0.0298
   1.8086E+01   1.8526E+01   6.1328E-06  0.0304
   1.8526E+01   1.8977E+01   5.4075E-06  0.0320
   1.8977E+01   1.9439E+01   5.1220E-06  0.0325
   1.9439E+01   1.9912E+01   4.6092E-06  0.0339
   1.9912E+01   2.0396E+01   4.3604E-06  0.0344
   2.0396E+01   2.0893E+01   3.5213E-06  0.0378
   2.0893E+01   2.1401E+01   3.5115E-06  0.0374
   2.1401E+01   2.1922E+01   3.3128E-06  0.0381
   2.1922E+01   2.2455E+01   2.6857E-06  0.0418
   2.2455E+01   2.3001E+01   2.6265E-06  0.0417
   2.3001E+01   2.3561E+01   2.2068E-06  0.0450
   2.3561E+01   2.4134E+01   1.9712E-06  0.0470
   2.4134E+01   2.4721E+01   1.9031E-06  0.0473
   2.4721E+01   2.5323E+01   1.6833E-06  0.0497
   2.5323E+01   2.5939E+01   1.4932E-06  0.0521
   2.5939E+01   2.6570E+01   1.2636E-06  0.0560
   2.6570E+01   2.7217E+01   1.2259E-06  0.0562
   2.7217E+01   2.7879E+01   1.0760E-06  0.0592
   2.7879E+01   2.8557E+01   8.6612E-07  0.0652
   2.8557E+01   2.9252E+01   6.9443E-07  0.0720
   2.9252E+01   2.9964E+01   6.2875E-07  0.0747
   2.9964E+01   3.0693E+01   5.5552E-07  0.0786
   3.0693E+01   3.1440E+01   4.8877E-07  0.0828
   3.1440E+01   3.2205E+01   4.2813E-07  0.0874
   3.2205E+01   3.2988E+01   3.4777E-07  0.0958
   3.2988E+01   3.3791E+01   3.2394E-07  0.0981
   3.3791E+01   3.4613E+01   2.6151E-07  0.1078
   3.4613E+01   3.5455E+01   2.1671E-07  0.1170
   3.5455E+01   3.6318E+01   1.8548E-07  0.1250
   3.6318E+01   3.7201E+01   1.2449E-07  0.1508
   3.7201E+01   3.8106E+01   1.2429E-07  0.1491
   3.8106E+01   3.9034E+01   1.0246E-07  0.1622
   3.9034E+01   3.9983E+01   7.1074E-08  0.1925
   3.9983E+01   4.0956E+01   8.7374E-08  0.1715
   4.0956E+01   4.1953E+01   5.2685E-08  0.2182
   4.1953E+01   4.2973E+01   3.6738E-08  0.2582
   4.2973E+01   4.4019E+01   4.0647E-08  0.2425
   4.4019E+01   4.5090E+01   4.4350E-08  0.2294
   4.5090E+01   4.6187E+01   4.3297E-08  0.2294
   4.6187E+01   4.7311E+01   1.7797E-08  0.3536
   4.7311E+01   4.8462E+01   2.6062E-08  0.2887
   4.8462E+01   4.9641E+01   2.5443E-08  0.2887
   4.9641E+01   5.0849E+01   8.2795E-09  0.5000
   5.0849E+01   5.2086E+01   6.0621E-09  0.5774
   5.2086E+01   5.3353E+01   3.9454E-09  0.7071
   5.3353E+01   5.4651E+01   3.8517E-09  0.7071
   5.4651E+01   5.5981E+01   5.6403E-09  0.5774
   5.5981E+01   5.7343E+01   7.3418E-09  0.5000
   5.7343E+01   5.8738E+01   0.0000E+00  0.0000
   5.8738E+01   6.0168E+01   1.7493E-09  1.0000
   6.0168E+01   6.1632E+01   0.0000E+00  0.0000
   6.1632E+01   6.3131E+01   0.0000E+00  0.0000
   6.3131E+01   6.4667E+01   0.0000E+00  0.0000
   6.4667E+01   6.6240E+01   1.5889E-09  1.0000
   6.6240E+01   6.7852E+01   0.0000E+00  0.0000
   6.7852E+01   6.9503E+01   0.0000E+00  0.0000
   6.9503E+01   7.1194E+01   0.0000E+00  0.0000
   7.1194E+01   7.2926E+01   0.0000E+00  0.0000
   7.2926E+01   7.4701E+01   0.0000E+00  0.0000
   7.4701E+01   7.6518E+01   0.0000E+00  0.0000
   7.6518E+01   7.8380E+01   0.0000E+00  0.0000
   7.8380E+01   8.0287E+01   0.0000E+00  0.0000
   8.0287E+01   8.2240E+01   0.0000E+00  0.0000
   8.2240E+01   8.4241E+01   0.0000E+00  0.0000
   8.4241E+01   8.6291E+01   0.0000E+00  0.0000
   8.6291E+01   8.8391E+01   0.0000E+00  0.0000
   8.8391E+01   9.0541E+01   0.0000E+00  0.0000
   9.0541E+01   9.2744E+01   0.0000E+00  0.0000
   9.2744E+01   9.5001E+01   0.0000E+00  0.0000
   9.5001E+01   9.7312E+01   0.0000E+00  0.0000
   9.7312E+01   9.9680E+01   0.0000E+00  0.0000
   9.9680E+01   1.0211E+02   0.0000E+00  0.0000
   1.0211E+02   1.0459E+02   0.0000E+00  0.0000
   1.0459E+02   1.0713E+02   0.0000E+00  0.0000
   1.0713E+02   1.0974E+02   0.0000E+00  0.0000
   1.0974E+02   1.1241E+02   0.0000E+00  0.0000
   1.1241E+02   1.1515E+02   0.0000E+00  0.0000
   1.1515E+02   1.1795E+02   0.0000E+00  0.0000
   1.1795E+02   1.2082E+02   0.0000E+00  0.0000
   1.2082E+02   1.2376E+02   0.0000E+00  0.0000
   1.2376E+02   1.2677E+02   0.0000E+00  0.0000
   1.2677E+02   1.2985E+02   0.0000E+00  0.0000
   1.2985E+02   1.3301E+02   0.0000E+00  0.0000
   1.3301E+02   1.3625E+02   0.0000E+00  0.0000
   1.3625E+02   1.3956E+02   0.0000E+00  0.0000
   1.3956E+02   1.4296E+02   0.0000E+00  0.0000
   1.4296E+02   1.4644E+02   0.0000E+00  0.0000
   1.4644E+02   1.5000E+02   0.0000E+00  0.0000

#   sum over                 1.2663E-05
'no. =    1   reg = 118 - 218'
msuc: {\huge [t-cross] in region mesh}
msdr: {\it plotted by \ANGEL \version}
msdl: {\it calculated by \PHITS  3.26}
wt: s(0.7)
\vspace{-3}
  region surface crossing
  area  &=&   1.0000E+00 [cm^2]
e:
 
# Information for Restart Calculation
# This calculation was newly started
# istdev =  2 # 1:Batch variance, 2:History variance
# resc2  = 4.00000000000000000E+08 # Total source weight or Total source weight / maxcas
# resc3  = 4.00000000000000000E+08 # Total history number or Total batch number
# maxcas =   100000000 # History / Batch, only used for istdev=1
# bitrseed = 0100011101001100100011011110101100000000010011010111110110001100 # bit data of rseed
