[ T-Cross ]
    title = [t-cross] in region mesh
     mesh =  reg            # mesh type is region-wise
      reg =    1            # number of crossing regions
      non     r-from    r-to       area
      1       115       215        1.000000    
   e-type =    3            # e-mesh is log given by emin, emax and ne
     emin =  1.0000000E-02  # minimum value of e-mesh points
     emax =   150.0000      # maximum value of e-mesh points
#    edel =  2.4039514E-02  # mesh width of e-mesh points
       ne =    400          # number of e-mesh points
#    data = ( e(i), i = 1, ne + 1 )
#           1.00000E-02  1.02433E-02  1.04925E-02  1.07478E-02  1.10093E-02
#           1.12772E-02  1.15516E-02  1.18326E-02  1.21205E-02  1.24154E-02
#           1.27175E-02  1.30269E-02  1.33439E-02  1.36686E-02  1.40011E-02
#           1.43418E-02  1.46907E-02  1.50482E-02  1.54143E-02  1.57894E-02
#           1.61735E-02  1.65670E-02  1.69701E-02  1.73830E-02  1.78060E-02
#           1.82392E-02  1.86830E-02  1.91375E-02  1.96032E-02  2.00801E-02
#           2.05687E-02  2.10692E-02  2.15818E-02  2.21069E-02  2.26448E-02
#           2.31957E-02  2.37601E-02  2.43382E-02  2.49304E-02  2.55369E-02
#           2.61583E-02  2.67947E-02  2.74467E-02  2.81145E-02  2.87985E-02
#           2.94992E-02  3.02169E-02  3.09521E-02  3.17052E-02  3.24766E-02
#           3.32668E-02  3.40762E-02  3.49053E-02  3.57546E-02  3.66246E-02
#           3.75157E-02  3.84284E-02  3.93634E-02  4.03212E-02  4.13022E-02
#           4.23071E-02  4.33365E-02  4.43909E-02  4.54710E-02  4.65773E-02
#           4.77106E-02  4.88714E-02  5.00605E-02  5.12785E-02  5.25262E-02
#           5.38042E-02  5.51133E-02  5.64542E-02  5.78278E-02  5.92348E-02
#           6.06760E-02  6.21523E-02  6.36645E-02  6.52135E-02  6.68002E-02
#           6.84255E-02  7.00904E-02  7.17957E-02  7.35426E-02  7.53319E-02
#           7.71648E-02  7.90423E-02  8.09655E-02  8.29354E-02  8.49533E-02
#           8.70203E-02  8.91376E-02  9.13064E-02  9.35279E-02  9.58035E-02
#           9.81345E-02  1.00522E-01  1.02968E-01  1.05473E-01  1.08040E-01
#           1.10668E-01  1.13361E-01  1.16119E-01  1.18944E-01  1.21838E-01
#           1.24803E-01  1.27839E-01  1.30950E-01  1.34136E-01  1.37399E-01
#           1.40742E-01  1.44167E-01  1.47675E-01  1.51268E-01  1.54948E-01
#           1.58718E-01  1.62580E-01  1.66535E-01  1.70587E-01  1.74738E-01
#           1.78989E-01  1.83344E-01  1.87805E-01  1.92375E-01  1.97055E-01
#           2.01850E-01  2.06761E-01  2.11792E-01  2.16945E-01  2.22223E-01
#           2.27630E-01  2.33169E-01  2.38842E-01  2.44653E-01  2.50605E-01
#           2.56703E-01  2.62949E-01  2.69346E-01  2.75900E-01  2.82613E-01
#           2.89489E-01  2.96532E-01  3.03747E-01  3.11138E-01  3.18708E-01
#           3.26462E-01  3.34405E-01  3.42542E-01  3.50876E-01  3.59413E-01
#           3.68158E-01  3.77116E-01  3.86291E-01  3.95690E-01  4.05317E-01
#           4.15179E-01  4.25281E-01  4.35628E-01  4.46227E-01  4.57084E-01
#           4.68205E-01  4.79597E-01  4.91266E-01  5.03219E-01  5.15463E-01
#           5.28005E-01  5.40851E-01  5.54011E-01  5.67490E-01  5.81298E-01
#           5.95441E-01  6.09929E-01  6.24769E-01  6.39970E-01  6.55541E-01
#           6.71491E-01  6.87828E-01  7.04564E-01  7.21706E-01  7.39266E-01
#           7.57253E-01  7.75678E-01  7.94551E-01  8.13883E-01  8.33685E-01
#           8.53969E-01  8.74747E-01  8.96030E-01  9.17831E-01  9.40163E-01
#           9.63038E-01  9.86469E-01  1.01047E+00  1.03506E+00  1.06024E+00
#           1.08604E+00  1.11246E+00  1.13953E+00  1.16725E+00  1.19565E+00
#           1.22474E+00  1.25454E+00  1.28507E+00  1.31633E+00  1.34836E+00
#           1.38117E+00  1.41477E+00  1.44920E+00  1.48446E+00  1.52057E+00
#           1.55757E+00  1.59547E+00  1.63429E+00  1.67405E+00  1.71478E+00
#           1.75650E+00  1.79924E+00  1.84302E+00  1.88786E+00  1.93379E+00
#           1.98084E+00  2.02904E+00  2.07841E+00  2.12898E+00  2.18078E+00
#           2.23384E+00  2.28819E+00  2.34386E+00  2.40089E+00  2.45930E+00
#           2.51914E+00  2.58043E+00  2.64322E+00  2.70753E+00  2.77341E+00
#           2.84088E+00  2.91001E+00  2.98081E+00  3.05333E+00  3.12762E+00
#           3.20372E+00  3.28167E+00  3.36152E+00  3.44330E+00  3.52708E+00
#           3.61290E+00  3.70080E+00  3.79085E+00  3.88308E+00  3.97756E+00
#           4.07434E+00  4.17347E+00  4.27501E+00  4.37903E+00  4.48557E+00
#           4.59471E+00  4.70650E+00  4.82102E+00  4.93832E+00  5.05847E+00
#           5.18155E+00  5.30762E+00  5.43676E+00  5.56904E+00  5.70453E+00
#           5.84333E+00  5.98550E+00  6.13114E+00  6.28031E+00  6.43312E+00
#           6.58964E+00  6.74997E+00  6.91420E+00  7.08243E+00  7.25475E+00
#           7.43126E+00  7.61207E+00  7.79728E+00  7.98700E+00  8.18133E+00
#           8.38038E+00  8.58428E+00  8.79315E+00  9.00709E+00  9.22624E+00
#           9.45072E+00  9.68067E+00  9.91620E+00  1.01575E+01  1.04046E+01
#           1.06578E+01  1.09171E+01  1.11827E+01  1.14548E+01  1.17335E+01
#           1.20190E+01  1.23114E+01  1.26109E+01  1.29178E+01  1.32321E+01
#           1.35540E+01  1.38838E+01  1.42216E+01  1.45676E+01  1.49221E+01
#           1.52851E+01  1.56570E+01  1.60380E+01  1.64282E+01  1.68279E+01
#           1.72374E+01  1.76568E+01  1.80864E+01  1.85264E+01  1.89772E+01
#           1.94389E+01  1.99119E+01  2.03963E+01  2.08926E+01  2.14009E+01
#           2.19216E+01  2.24550E+01  2.30014E+01  2.35610E+01  2.41343E+01
#           2.47215E+01  2.53230E+01  2.59391E+01  2.65702E+01  2.72167E+01
#           2.78789E+01  2.85572E+01  2.92520E+01  2.99637E+01  3.06928E+01
#           3.14396E+01  3.22045E+01  3.29881E+01  3.37907E+01  3.46128E+01
#           3.54550E+01  3.63177E+01  3.72013E+01  3.81064E+01  3.90336E+01
#           3.99833E+01  4.09561E+01  4.19526E+01  4.29734E+01  4.40189E+01
#           4.50900E+01  4.61870E+01  4.73108E+01  4.84619E+01  4.96410E+01
#           5.08488E+01  5.20860E+01  5.33533E+01  5.46514E+01  5.59812E+01
#           5.73432E+01  5.87384E+01  6.01676E+01  6.16315E+01  6.31311E+01
#           6.46671E+01  6.62405E+01  6.78522E+01  6.95031E+01  7.11941E+01
#           7.29263E+01  7.47007E+01  7.65182E+01  7.83800E+01  8.02870E+01
#           8.22405E+01  8.42414E+01  8.62911E+01  8.83906E+01  9.05412E+01
#           9.27442E+01  9.50007E+01  9.73122E+01  9.96799E+01  1.02105E+02
#           1.04589E+02  1.07134E+02  1.09741E+02  1.12411E+02  1.15146E+02
#           1.17948E+02  1.20817E+02  1.23757E+02  1.26768E+02  1.29852E+02
#           1.33012E+02  1.36248E+02  1.39563E+02  1.42959E+02  1.46437E+02
#           1.50000E+02
     unit =    2            # unit is [1/cm^2/(MeV/n)/source]
     axis =  eng            # axis of output
     file = detector-16.out  # file name of output for the above axis
   output = f-curr          # surface crossing forward current spectrum
     part =  neutron  
# kf/name :  2112     
#    used :        main (  %)        temp (  %)       total (  %)
#  memory :         414 (  0)           0 (  0)         414 (  0)

#------------------------------------------------------------------------------
#newpage:
#   no. =    1   reg = 115 - 215

x: Energy [MeV/n]
y:  F-Curr [1/cm^2/(MeV/n)/source]         
p: xlog ylog afac(0.8) form(0.9)
h: n            x            y(neutron ),hh0l   n 
#  e-lower      e-upper      neutron     r.err 
   1.0000E-02   1.0243E-02   3.5524E-04  0.0678
   1.0243E-02   1.0493E-02   3.1854E-04  0.0707
   1.0493E-02   1.0748E-02   3.9944E-04  0.0625
   1.0748E-02   1.1009E-02   3.7169E-04  0.0639
   1.1009E-02   1.1277E-02   3.2235E-04  0.0678
   1.1277E-02   1.1552E-02   3.6246E-04  0.0632
   1.1552E-02   1.1833E-02   3.3884E-04  0.0646
   1.1833E-02   1.2121E-02   2.8994E-04  0.0691
   1.2121E-02   1.2415E-02   2.7679E-04  0.0697
   1.2415E-02   1.2718E-02   3.0969E-04  0.0652
   1.2718E-02   1.3027E-02   2.6591E-04  0.0695
   1.3027E-02   1.3344E-02   3.0869E-04  0.0637
   1.3344E-02   1.3669E-02   2.7361E-04  0.0669
   1.3669E-02   1.4001E-02   2.6758E-04  0.0669
   1.4001E-02   1.4342E-02   2.6969E-04  0.0658
   1.4342E-02   1.4691E-02   2.5955E-04  0.0663
   1.4691E-02   1.5048E-02   2.4491E-04  0.0674
   1.5048E-02   1.5414E-02   2.8361E-04  0.0618
   1.5414E-02   1.5789E-02   2.5437E-04  0.0645
   1.5789E-02   1.6174E-02   2.2271E-04  0.0681
   1.6174E-02   1.6567E-02   2.4126E-04  0.0647
   1.6567E-02   1.6970E-02   2.5776E-04  0.0618
   1.6970E-02   1.7383E-02   1.9551E-04  0.0701
   1.7383E-02   1.7806E-02   2.2262E-04  0.0650
   1.7806E-02   1.8239E-02   2.1965E-04  0.0646
   1.8239E-02   1.8683E-02   2.0243E-04  0.0666
   1.8683E-02   1.9138E-02   2.1526E-04  0.0637
   1.9138E-02   1.9603E-02   2.1540E-04  0.0630
   1.9603E-02   2.0080E-02   1.8058E-04  0.0679
   2.0080E-02   2.0569E-02   1.8645E-04  0.0661
   2.0569E-02   2.1069E-02   1.7179E-04  0.0680
   2.1069E-02   2.1582E-02   1.7471E-04  0.0666
   2.1582E-02   2.2107E-02   1.7791E-04  0.0652
   2.2107E-02   2.2645E-02   2.1011E-04  0.0593
   2.2645E-02   2.3196E-02   1.8030E-04  0.0633
   2.3196E-02   2.3760E-02   1.5709E-04  0.0670
   2.3760E-02   2.4338E-02   1.4998E-04  0.0678
   2.4338E-02   2.4930E-02   1.6595E-04  0.0636
   2.4930E-02   2.5537E-02   1.6649E-04  0.0628
   2.5537E-02   2.6158E-02   1.5899E-04  0.0635
   2.6158E-02   2.6795E-02   1.3258E-04  0.0685
   2.6795E-02   2.7447E-02   1.4777E-04  0.0643
   2.7447E-02   2.8114E-02   1.4632E-04  0.0638
   2.8114E-02   2.8799E-02   1.2252E-04  0.0689
   2.8799E-02   2.9499E-02   1.3787E-04  0.0642
   2.9499E-02   3.0217E-02   1.5162E-04  0.0605
   3.0217E-02   3.0952E-02   1.2481E-04  0.0658
   3.0952E-02   3.1705E-02   1.3812E-04  0.0619
   3.1705E-02   3.2477E-02   1.3378E-04  0.0621
   3.2477E-02   3.3267E-02   1.2160E-04  0.0644
   3.3267E-02   3.4076E-02   1.1672E-04  0.0649
   3.4076E-02   3.4905E-02   1.1079E-04  0.0658
   3.4905E-02   3.5755E-02   1.0938E-04  0.0654
   3.5755E-02   3.6625E-02   1.3163E-04  0.0590
   3.6625E-02   3.7516E-02   1.1683E-04  0.0619
   3.7516E-02   3.8428E-02   1.1092E-04  0.0626
   3.8428E-02   3.9363E-02   1.1847E-04  0.0599
   3.9363E-02   4.0321E-02   1.0800E-04  0.0620
   4.0321E-02   4.1302E-02   1.0406E-04  0.0625
   4.1302E-02   4.2307E-02   1.0347E-04  0.0618
   4.2307E-02   4.3337E-02   1.0504E-04  0.0607
   4.3337E-02   4.4391E-02   1.0705E-04  0.0593
   4.4391E-02   4.5471E-02   9.7468E-05  0.0614
   4.5471E-02   4.6577E-02   9.9843E-05  0.0600
   4.6577E-02   4.7711E-02   8.6252E-05  0.0637
   4.7711E-02   4.8871E-02   9.7544E-05  0.0592
   4.8871E-02   5.0061E-02   9.5926E-05  0.0590
   5.0061E-02   5.1279E-02   8.9239E-05  0.0604
   5.1279E-02   5.2526E-02   7.9927E-05  0.0631
   5.2526E-02   5.3804E-02   9.6678E-05  0.0567
   5.3804E-02   5.5113E-02   8.3738E-05  0.0602
   5.5113E-02   5.6454E-02   8.0582E-05  0.0607
   5.6454E-02   5.7828E-02   7.9968E-05  0.0602
   5.7828E-02   5.9235E-02   7.6280E-05  0.0609
   5.9235E-02   6.0676E-02   7.4292E-05  0.0610
   6.0676E-02   6.2152E-02   7.3844E-05  0.0604
   6.2152E-02   6.3665E-02   7.4502E-05  0.0594
   6.3665E-02   6.5214E-02   8.2480E-05  0.0557
   6.5214E-02   6.6800E-02   7.1590E-05  0.0591
   6.6800E-02   6.8426E-02   6.8890E-05  0.0595
   6.8426E-02   7.0090E-02   6.5210E-05  0.0606
   7.0090E-02   7.1796E-02   6.6436E-05  0.0593
   7.1796E-02   7.3543E-02   7.7517E-05  0.0542
   7.3543E-02   7.5332E-02   6.6982E-05  0.0576
   7.5332E-02   7.7165E-02   6.0617E-05  0.0599
   7.7165E-02   7.9042E-02   5.8674E-05  0.0601
   7.9042E-02   8.0965E-02   6.5357E-05  0.0563
   8.0965E-02   8.2935E-02   6.7614E-05  0.0546
   8.2935E-02   8.4953E-02   5.2356E-05  0.0613
   8.4953E-02   8.7020E-02   6.1477E-05  0.0560
   8.7020E-02   8.9138E-02   5.5305E-05  0.0583
   8.9138E-02   9.1306E-02   5.9042E-05  0.0556
   9.1306E-02   9.3528E-02   5.3590E-05  0.0578
   9.3528E-02   9.5804E-02   5.7219E-05  0.0553
   9.5804E-02   9.8134E-02   5.1484E-05  0.0575
   9.8134E-02   1.0052E-01   5.6571E-05  0.0542
   1.0052E-01   1.0297E-01   5.2094E-05  0.0559
   1.0297E-01   1.0547E-01   5.9051E-05  0.0518
   1.0547E-01   1.0804E-01   5.0973E-05  0.0551
   1.0804E-01   1.1067E-01   5.9565E-05  0.0504
   1.1067E-01   1.1336E-01   5.9798E-05  0.0497
   1.1336E-01   1.1612E-01   6.5108E-05  0.0471
   1.1612E-01   1.1894E-01   6.4731E-05  0.0466
   1.1894E-01   1.2184E-01   7.3059E-05  0.0434
   1.2184E-01   1.2480E-01   7.3676E-05  0.0426
   1.2480E-01   1.2784E-01   7.8490E-05  0.0408
   1.2784E-01   1.3095E-01   7.6545E-05  0.0409
   1.3095E-01   1.3414E-01   7.3233E-05  0.0413
   1.3414E-01   1.3740E-01   8.0368E-05  0.0389
   1.3740E-01   1.4074E-01   8.2808E-05  0.0379
   1.4074E-01   1.4417E-01   9.1509E-05  0.0356
   1.4417E-01   1.4767E-01   9.3327E-05  0.0349
   1.4767E-01   1.5127E-01   9.8452E-05  0.0335
   1.5127E-01   1.5495E-01   9.9817E-05  0.0329
   1.5495E-01   1.5872E-01   1.0664E-04  0.0315
   1.5872E-01   1.6258E-01   1.0672E-04  0.0310
   1.6258E-01   1.6654E-01   1.0511E-04  0.0309
   1.6654E-01   1.7059E-01   1.1139E-04  0.0297
   1.7059E-01   1.7474E-01   1.0996E-04  0.0295
   1.7474E-01   1.7899E-01   1.1966E-04  0.0279
   1.7899E-01   1.8334E-01   1.1703E-04  0.0279
   1.8334E-01   1.8781E-01   1.2203E-04  0.0270
   1.8781E-01   1.9237E-01   1.3285E-04  0.0256
   1.9237E-01   1.9706E-01   1.3221E-04  0.0253
   1.9706E-01   2.0185E-01   1.3206E-04  0.0250
   2.0185E-01   2.0676E-01   1.3897E-04  0.0241
   2.0676E-01   2.1179E-01   1.4675E-04  0.0232
   2.1179E-01   2.1694E-01   1.5567E-04  0.0223
   2.1694E-01   2.2222E-01   1.5084E-04  0.0223
   2.2222E-01   2.2763E-01   1.6521E-04  0.0211
   2.2763E-01   2.3317E-01   1.5688E-04  0.0214
   2.3317E-01   2.3884E-01   1.6402E-04  0.0206
   2.3884E-01   2.4465E-01   1.7313E-04  0.0199
   2.4465E-01   2.5061E-01   1.7432E-04  0.0196
   2.5061E-01   2.5670E-01   1.7865E-04  0.0191
   2.5670E-01   2.6295E-01   1.8546E-04  0.0185
   2.6295E-01   2.6935E-01   1.9275E-04  0.0179
   2.6935E-01   2.7590E-01   1.9075E-04  0.0178
   2.7590E-01   2.8261E-01   2.0086E-04  0.0172
   2.8261E-01   2.8949E-01   2.0488E-04  0.0168
   2.8949E-01   2.9653E-01   2.0621E-04  0.0165
   2.9653E-01   3.0375E-01   2.1511E-04  0.0160
   3.0375E-01   3.1114E-01   2.1872E-04  0.0157
   3.1114E-01   3.1871E-01   2.2877E-04  0.0151
   3.1871E-01   3.2646E-01   2.3159E-04  0.0149
   3.2646E-01   3.3441E-01   2.3390E-04  0.0146
   3.3441E-01   3.4254E-01   2.3452E-04  0.0144
   3.4254E-01   3.5088E-01   2.3999E-04  0.0141
   3.5088E-01   3.5941E-01   2.5277E-04  0.0136
   3.5941E-01   3.6816E-01   2.5065E-04  0.0134
   3.6816E-01   3.7712E-01   2.5410E-04  0.0132
   3.7712E-01   3.8629E-01   2.6010E-04  0.0129
   3.8629E-01   3.9569E-01   2.7168E-04  0.0125
   3.9569E-01   4.0532E-01   2.7171E-04  0.0123
   4.0532E-01   4.1518E-01   2.7179E-04  0.0122
   4.1518E-01   4.2528E-01   2.8269E-04  0.0118
   4.2528E-01   4.3563E-01   2.7953E-04  0.0117
   4.3563E-01   4.4623E-01   2.9090E-04  0.0113
   4.4623E-01   4.5708E-01   2.9348E-04  0.0111
   4.5708E-01   4.6821E-01   2.9010E-04  0.0111
   4.6821E-01   4.7960E-01   2.9250E-04  0.0109
   4.7960E-01   4.9127E-01   3.0056E-04  0.0106
   4.9127E-01   5.0322E-01   2.9559E-04  0.0106
   5.0322E-01   5.1546E-01   3.0491E-04  0.0103
   5.1546E-01   5.2800E-01   3.1357E-04  0.0100
   5.2800E-01   5.4085E-01   3.1011E-04  0.0100
   5.4085E-01   5.5401E-01   3.1318E-04  0.0098
   5.5401E-01   5.6749E-01   3.1167E-04  0.0097
   5.6749E-01   5.8130E-01   3.1600E-04  0.0095
   5.8130E-01   5.9544E-01   3.1057E-04  0.0095
   5.9544E-01   6.0993E-01   3.1737E-04  0.0093
   6.0993E-01   6.2477E-01   3.1665E-04  0.0092
   6.2477E-01   6.3997E-01   3.2061E-04  0.0090
   6.3997E-01   6.5554E-01   3.1594E-04  0.0090
   6.5554E-01   6.7149E-01   3.1483E-04  0.0089
   6.7149E-01   6.8783E-01   3.1592E-04  0.0088
   6.8783E-01   7.0456E-01   3.0609E-04  0.0088
   7.0456E-01   7.2171E-01   3.0255E-04  0.0087
   7.2171E-01   7.3927E-01   3.0542E-04  0.0086
   7.3927E-01   7.5725E-01   3.0831E-04  0.0084
   7.5725E-01   7.7568E-01   3.0363E-04  0.0084
   7.7568E-01   7.9455E-01   2.9864E-04  0.0084
   7.9455E-01   8.1388E-01   2.8981E-04  0.0084
   8.1388E-01   8.3368E-01   2.8851E-04  0.0083
   8.3368E-01   8.5397E-01   2.7511E-04  0.0084
   8.5397E-01   8.7475E-01   2.7102E-04  0.0084
   8.7475E-01   8.9603E-01   2.6212E-04  0.0084
   8.9603E-01   9.1783E-01   2.5805E-04  0.0084
   9.1783E-01   9.4016E-01   2.5122E-04  0.0084
   9.4016E-01   9.6304E-01   2.4276E-04  0.0084
   9.6304E-01   9.8647E-01   2.3070E-04  0.0085
   9.8647E-01   1.0105E+00   2.2807E-04  0.0085
   1.0105E+00   1.0351E+00   2.2830E-04  0.0084
   1.0351E+00   1.0602E+00   2.3306E-04  0.0082
   1.0602E+00   1.0860E+00   2.3145E-04  0.0081
   1.0860E+00   1.1125E+00   2.3884E-04  0.0079
   1.1125E+00   1.1395E+00   2.4081E-04  0.0078
   1.1395E+00   1.1673E+00   2.4900E-04  0.0075
   1.1673E+00   1.1957E+00   2.5717E-04  0.0073
   1.1957E+00   1.2247E+00   2.6022E-04  0.0072
   1.2247E+00   1.2545E+00   2.6639E-04  0.0070
   1.2545E+00   1.2851E+00   2.6741E-04  0.0069
   1.2851E+00   1.3163E+00   2.6677E-04  0.0068
   1.3163E+00   1.3484E+00   2.7113E-04  0.0067
   1.3484E+00   1.3812E+00   2.7767E-04  0.0065
   1.3812E+00   1.4148E+00   2.7763E-04  0.0065
   1.4148E+00   1.4492E+00   2.7800E-04  0.0064
   1.4492E+00   1.4845E+00   2.7593E-04  0.0063
   1.4845E+00   1.5206E+00   2.7464E-04  0.0062
   1.5206E+00   1.5576E+00   2.7200E-04  0.0062
   1.5576E+00   1.5955E+00   2.7232E-04  0.0061
   1.5955E+00   1.6343E+00   2.7218E-04  0.0060
   1.6343E+00   1.6741E+00   2.7301E-04  0.0060
   1.6741E+00   1.7148E+00   2.7098E-04  0.0059
   1.7148E+00   1.7565E+00   2.6266E-04  0.0059
   1.7565E+00   1.7992E+00   2.5165E-04  0.0060
   1.7992E+00   1.8430E+00   2.4145E-04  0.0060
   1.8430E+00   1.8879E+00   2.3610E-04  0.0060
   1.8879E+00   1.9338E+00   2.3053E-04  0.0060
   1.9338E+00   1.9808E+00   2.2693E-04  0.0059
   1.9808E+00   2.0290E+00   2.2787E-04  0.0059
   2.0290E+00   2.0784E+00   2.2824E-04  0.0058
   2.0784E+00   2.1290E+00   2.2985E-04  0.0057
   2.1290E+00   2.1808E+00   2.3027E-04  0.0056
   2.1808E+00   2.2338E+00   2.2789E-04  0.0056
   2.2338E+00   2.2882E+00   2.1981E-04  0.0056
   2.2882E+00   2.3439E+00   2.1794E-04  0.0056
   2.3439E+00   2.4009E+00   2.1320E-04  0.0056
   2.4009E+00   2.4593E+00   2.1080E-04  0.0055
   2.4593E+00   2.5191E+00   2.0801E-04  0.0055
   2.5191E+00   2.5804E+00   2.0200E-04  0.0055
   2.5804E+00   2.6432E+00   1.9938E-04  0.0055
   2.6432E+00   2.7075E+00   1.9585E-04  0.0055
   2.7075E+00   2.7734E+00   1.9204E-04  0.0055
   2.7734E+00   2.8409E+00   1.8856E-04  0.0055
   2.8409E+00   2.9100E+00   1.8715E-04  0.0054
   2.9100E+00   2.9808E+00   1.8258E-04  0.0054
   2.9808E+00   3.0533E+00   1.7841E-04  0.0054
   3.0533E+00   3.1276E+00   1.7342E-04  0.0054
   3.1276E+00   3.2037E+00   1.7084E-04  0.0054
   3.2037E+00   3.2817E+00   1.6614E-04  0.0054
   3.2817E+00   3.3615E+00   1.6516E-04  0.0054
   3.3615E+00   3.4433E+00   1.6044E-04  0.0054
   3.4433E+00   3.5271E+00   1.5786E-04  0.0054
   3.5271E+00   3.6129E+00   1.5530E-04  0.0054
   3.6129E+00   3.7008E+00   1.5150E-04  0.0054
   3.7008E+00   3.7908E+00   1.4693E-04  0.0054
   3.7908E+00   3.8831E+00   1.4338E-04  0.0054
   3.8831E+00   3.9776E+00   1.4110E-04  0.0054
   3.9776E+00   4.0743E+00   1.3546E-04  0.0054
   4.0743E+00   4.1735E+00   1.3211E-04  0.0054
   4.1735E+00   4.2750E+00   1.2696E-04  0.0055
   4.2750E+00   4.3790E+00   1.2438E-04  0.0054
   4.3790E+00   4.4856E+00   1.1970E-04  0.0055
   4.4856E+00   4.5947E+00   1.1503E-04  0.0055
   4.5947E+00   4.7065E+00   1.1230E-04  0.0055
   4.7065E+00   4.8210E+00   1.0877E-04  0.0056
   4.8210E+00   4.9383E+00   1.0632E-04  0.0055
   4.9383E+00   5.0585E+00   1.0283E-04  0.0056
   5.0585E+00   5.1815E+00   9.8659E-05  0.0056
   5.1815E+00   5.3076E+00   9.6122E-05  0.0056
   5.3076E+00   5.4368E+00   9.1971E-05  0.0057
   5.4368E+00   5.5690E+00   8.9514E-05  0.0057
   5.5690E+00   5.7045E+00   8.5664E-05  0.0058
   5.7045E+00   5.8433E+00   8.2981E-05  0.0058
   5.8433E+00   5.9855E+00   7.9917E-05  0.0058
   5.9855E+00   6.1311E+00   7.7032E-05  0.0059
   6.1311E+00   6.2803E+00   7.4110E-05  0.0059
   6.2803E+00   6.4331E+00   7.0945E-05  0.0060
   6.4331E+00   6.5896E+00   6.7158E-05  0.0061
   6.5896E+00   6.7500E+00   6.4598E-05  0.0061
   6.7500E+00   6.9142E+00   6.1642E-05  0.0062
   6.9142E+00   7.0824E+00   5.8045E-05  0.0063
   7.0824E+00   7.2548E+00   5.5054E-05  0.0064
   7.2548E+00   7.4313E+00   5.1309E-05  0.0065
   7.4313E+00   7.6121E+00   4.7858E-05  0.0067
   7.6121E+00   7.7973E+00   4.4710E-05  0.0068
   7.7973E+00   7.9870E+00   4.1618E-05  0.0070
   7.9870E+00   8.1813E+00   3.9162E-05  0.0071
   8.1813E+00   8.3804E+00   3.6613E-05  0.0073
   8.3804E+00   8.5843E+00   3.4288E-05  0.0074
   8.5843E+00   8.7931E+00   3.2039E-05  0.0076
   8.7931E+00   9.0071E+00   3.0274E-05  0.0077
   9.0071E+00   9.2262E+00   2.8449E-05  0.0079
   9.2262E+00   9.4507E+00   2.7125E-05  0.0080
   9.4507E+00   9.6807E+00   2.4828E-05  0.0083
   9.6807E+00   9.9162E+00   2.3465E-05  0.0084
   9.9162E+00   1.0157E+01   2.2567E-05  0.0085
   1.0157E+01   1.0405E+01   2.1196E-05  0.0087
   1.0405E+01   1.0658E+01   1.9486E-05  0.0089
   1.0658E+01   1.0917E+01   1.8456E-05  0.0091
   1.0917E+01   1.1183E+01   1.7208E-05  0.0093
   1.1183E+01   1.1455E+01   1.5967E-05  0.0095
   1.1455E+01   1.1733E+01   1.5330E-05  0.0096
   1.1733E+01   1.2019E+01   1.4078E-05  0.0099
   1.2019E+01   1.2311E+01   1.3255E-05  0.0101
   1.2311E+01   1.2611E+01   1.2347E-05  0.0103
   1.2611E+01   1.2918E+01   1.1594E-05  0.0106
   1.2918E+01   1.3232E+01   1.1140E-05  0.0106
   1.3232E+01   1.3554E+01   1.0207E-05  0.0110
   1.3554E+01   1.3884E+01   9.6571E-06  0.0112
   1.3884E+01   1.4222E+01   8.8601E-06  0.0115
   1.4222E+01   1.4568E+01   8.2913E-06  0.0118
   1.4568E+01   1.4922E+01   7.9019E-06  0.0119
   1.4922E+01   1.5285E+01   7.2991E-06  0.0123
   1.5285E+01   1.5657E+01   7.1132E-06  0.0123
   1.5657E+01   1.6038E+01   6.4982E-06  0.0127
   1.6038E+01   1.6428E+01   6.0016E-06  0.0130
   1.6428E+01   1.6828E+01   5.9551E-06  0.0129
   1.6828E+01   1.7237E+01   5.2223E-06  0.0137
   1.7237E+01   1.7657E+01   5.1099E-06  0.0136
   1.7657E+01   1.8086E+01   4.7731E-06  0.0140
   1.8086E+01   1.8526E+01   4.2078E-06  0.0147
   1.8526E+01   1.8977E+01   3.9176E-06  0.0150
   1.8977E+01   1.9439E+01   3.6291E-06  0.0154
   1.9439E+01   1.9912E+01   3.4663E-06  0.0156
   1.9912E+01   2.0396E+01   3.1721E-06  0.0161
   2.0396E+01   2.0893E+01   2.9372E-06  0.0166
   2.0893E+01   2.1401E+01   2.6518E-06  0.0172
   2.1401E+01   2.1922E+01   2.4068E-06  0.0179
   2.1922E+01   2.2455E+01   2.2491E-06  0.0183
   2.2455E+01   2.3001E+01   1.9797E-06  0.0192
   2.3001E+01   2.3561E+01   1.7047E-06  0.0205
   2.3561E+01   2.4134E+01   1.5372E-06  0.0213
   2.4134E+01   2.4721E+01   1.3706E-06  0.0223
   2.4721E+01   2.5323E+01   1.1731E-06  0.0238
   2.5323E+01   2.5939E+01   1.0154E-06  0.0253
   2.5939E+01   2.6570E+01   8.8224E-07  0.0268
   2.6570E+01   2.7217E+01   7.4311E-07  0.0289
   2.7217E+01   2.7879E+01   6.5780E-07  0.0303
   2.7879E+01   2.8557E+01   5.6257E-07  0.0324
   2.8557E+01   2.9252E+01   4.4040E-07  0.0362
   2.9252E+01   2.9964E+01   4.2095E-07  0.0365
   2.9964E+01   3.0693E+01   3.1219E-07  0.0419
   3.0693E+01   3.1440E+01   2.7799E-07  0.0439
   3.1440E+01   3.2205E+01   2.0969E-07  0.0499
   3.2205E+01   3.2988E+01   1.5672E-07  0.0571
   3.2988E+01   3.3791E+01   1.2310E-07  0.0636
   3.3791E+01   3.4613E+01   8.8548E-08  0.0741
   3.4613E+01   3.5455E+01   5.7946E-08  0.0905
   3.5455E+01   3.6318E+01   4.6833E-08  0.0995
   3.6318E+01   3.7201E+01   2.8518E-08  0.1260
   3.7201E+01   3.8106E+01   1.8561E-08  0.1543
   3.8106E+01   3.9034E+01   1.4668E-08  0.1715
   3.9034E+01   3.9983E+01   8.8447E-09  0.2182
   3.9983E+01   4.0956E+01   6.1676E-09  0.2582
   4.0956E+01   4.1953E+01   4.0141E-09  0.3162
   4.1953E+01   4.2973E+01   7.8374E-10  0.7071
   4.2973E+01   4.4019E+01   7.6513E-10  0.7071
   4.4019E+01   4.5090E+01   0.0000E+00  0.0000
   4.5090E+01   4.6187E+01   0.0000E+00  0.0000
   4.6187E+01   4.7311E+01   0.0000E+00  0.0000
   4.7311E+01   4.8462E+01   0.0000E+00  0.0000
   4.8462E+01   4.9641E+01   0.0000E+00  0.0000
   4.9641E+01   5.0849E+01   0.0000E+00  0.0000
   5.0849E+01   5.2086E+01   0.0000E+00  0.0000
   5.2086E+01   5.3353E+01   0.0000E+00  0.0000
   5.3353E+01   5.4651E+01   0.0000E+00  0.0000
   5.4651E+01   5.5981E+01   0.0000E+00  0.0000
   5.5981E+01   5.7343E+01   0.0000E+00  0.0000
   5.7343E+01   5.8738E+01   0.0000E+00  0.0000
   5.8738E+01   6.0168E+01   0.0000E+00  0.0000
   6.0168E+01   6.1632E+01   0.0000E+00  0.0000
   6.1632E+01   6.3131E+01   0.0000E+00  0.0000
   6.3131E+01   6.4667E+01   0.0000E+00  0.0000
   6.4667E+01   6.6240E+01   0.0000E+00  0.0000
   6.6240E+01   6.7852E+01   0.0000E+00  0.0000
   6.7852E+01   6.9503E+01   0.0000E+00  0.0000
   6.9503E+01   7.1194E+01   0.0000E+00  0.0000
   7.1194E+01   7.2926E+01   0.0000E+00  0.0000
   7.2926E+01   7.4701E+01   0.0000E+00  0.0000
   7.4701E+01   7.6518E+01   0.0000E+00  0.0000
   7.6518E+01   7.8380E+01   0.0000E+00  0.0000
   7.8380E+01   8.0287E+01   0.0000E+00  0.0000
   8.0287E+01   8.2240E+01   0.0000E+00  0.0000
   8.2240E+01   8.4241E+01   0.0000E+00  0.0000
   8.4241E+01   8.6291E+01   0.0000E+00  0.0000
   8.6291E+01   8.8391E+01   0.0000E+00  0.0000
   8.8391E+01   9.0541E+01   0.0000E+00  0.0000
   9.0541E+01   9.2744E+01   0.0000E+00  0.0000
   9.2744E+01   9.5001E+01   0.0000E+00  0.0000
   9.5001E+01   9.7312E+01   0.0000E+00  0.0000
   9.7312E+01   9.9680E+01   0.0000E+00  0.0000
   9.9680E+01   1.0211E+02   0.0000E+00  0.0000
   1.0211E+02   1.0459E+02   0.0000E+00  0.0000
   1.0459E+02   1.0713E+02   0.0000E+00  0.0000
   1.0713E+02   1.0974E+02   0.0000E+00  0.0000
   1.0974E+02   1.1241E+02   0.0000E+00  0.0000
   1.1241E+02   1.1515E+02   0.0000E+00  0.0000
   1.1515E+02   1.1795E+02   0.0000E+00  0.0000
   1.1795E+02   1.2082E+02   0.0000E+00  0.0000
   1.2082E+02   1.2376E+02   0.0000E+00  0.0000
   1.2376E+02   1.2677E+02   0.0000E+00  0.0000
   1.2677E+02   1.2985E+02   0.0000E+00  0.0000
   1.2985E+02   1.3301E+02   0.0000E+00  0.0000
   1.3301E+02   1.3625E+02   0.0000E+00  0.0000
   1.3625E+02   1.3956E+02   0.0000E+00  0.0000
   1.3956E+02   1.4296E+02   0.0000E+00  0.0000
   1.4296E+02   1.4644E+02   0.0000E+00  0.0000
   1.4644E+02   1.5000E+02   0.0000E+00  0.0000

#   sum over                 8.9778E-06
'no. =    1   reg = 115 - 215'
msuc: {\huge [t-cross] in region mesh}
msdr: {\it plotted by \ANGEL \version}
msdl: {\it calculated by \PHITS  3.26}
wt: s(0.7)
\vspace{-3}
  region surface crossing
  area  &=&   1.0000E+00 [cm^2]
e:
 
# Information for Restart Calculation
# This calculation was newly started
# istdev =  2 # 1:Batch variance, 2:History variance
# resc2  = 2.50000000000000000E+09 # Total source weight or Total source weight / maxcas
# resc3  = 2.50000000000000000E+09 # Total history number or Total batch number
# maxcas =   100000000 # History / Batch, only used for istdev=1
# bitrseed = 1100001110001001100010001100011001110101000011000110100101010100 # bit data of rseed
