[ T-Cross ]
    title = [t-cross] in region mesh
     mesh =  reg            # mesh type is region-wise
      reg =    1            # number of crossing regions
      non     r-from    r-to       area
      1       125       225        1.000000    
   e-type =    3            # e-mesh is log given by emin, emax and ne
     emin =  1.0000000E-02  # minimum value of e-mesh points
     emax =   150.0000      # maximum value of e-mesh points
#    edel =  2.4039514E-02  # mesh width of e-mesh points
       ne =    400          # number of e-mesh points
#    data = ( e(i), i = 1, ne + 1 )
#           1.00000E-02  1.02433E-02  1.04925E-02  1.07478E-02  1.10093E-02
#           1.12772E-02  1.15516E-02  1.18326E-02  1.21205E-02  1.24154E-02
#           1.27175E-02  1.30269E-02  1.33439E-02  1.36686E-02  1.40011E-02
#           1.43418E-02  1.46907E-02  1.50482E-02  1.54143E-02  1.57894E-02
#           1.61735E-02  1.65670E-02  1.69701E-02  1.73830E-02  1.78060E-02
#           1.82392E-02  1.86830E-02  1.91375E-02  1.96032E-02  2.00801E-02
#           2.05687E-02  2.10692E-02  2.15818E-02  2.21069E-02  2.26448E-02
#           2.31957E-02  2.37601E-02  2.43382E-02  2.49304E-02  2.55369E-02
#           2.61583E-02  2.67947E-02  2.74467E-02  2.81145E-02  2.87985E-02
#           2.94992E-02  3.02169E-02  3.09521E-02  3.17052E-02  3.24766E-02
#           3.32668E-02  3.40762E-02  3.49053E-02  3.57546E-02  3.66246E-02
#           3.75157E-02  3.84284E-02  3.93634E-02  4.03212E-02  4.13022E-02
#           4.23071E-02  4.33365E-02  4.43909E-02  4.54710E-02  4.65773E-02
#           4.77106E-02  4.88714E-02  5.00605E-02  5.12785E-02  5.25262E-02
#           5.38042E-02  5.51133E-02  5.64542E-02  5.78278E-02  5.92348E-02
#           6.06760E-02  6.21523E-02  6.36645E-02  6.52135E-02  6.68002E-02
#           6.84255E-02  7.00904E-02  7.17957E-02  7.35426E-02  7.53319E-02
#           7.71648E-02  7.90423E-02  8.09655E-02  8.29354E-02  8.49533E-02
#           8.70203E-02  8.91376E-02  9.13064E-02  9.35279E-02  9.58035E-02
#           9.81345E-02  1.00522E-01  1.02968E-01  1.05473E-01  1.08040E-01
#           1.10668E-01  1.13361E-01  1.16119E-01  1.18944E-01  1.21838E-01
#           1.24803E-01  1.27839E-01  1.30950E-01  1.34136E-01  1.37399E-01
#           1.40742E-01  1.44167E-01  1.47675E-01  1.51268E-01  1.54948E-01
#           1.58718E-01  1.62580E-01  1.66535E-01  1.70587E-01  1.74738E-01
#           1.78989E-01  1.83344E-01  1.87805E-01  1.92375E-01  1.97055E-01
#           2.01850E-01  2.06761E-01  2.11792E-01  2.16945E-01  2.22223E-01
#           2.27630E-01  2.33169E-01  2.38842E-01  2.44653E-01  2.50605E-01
#           2.56703E-01  2.62949E-01  2.69346E-01  2.75900E-01  2.82613E-01
#           2.89489E-01  2.96532E-01  3.03747E-01  3.11138E-01  3.18708E-01
#           3.26462E-01  3.34405E-01  3.42542E-01  3.50876E-01  3.59413E-01
#           3.68158E-01  3.77116E-01  3.86291E-01  3.95690E-01  4.05317E-01
#           4.15179E-01  4.25281E-01  4.35628E-01  4.46227E-01  4.57084E-01
#           4.68205E-01  4.79597E-01  4.91266E-01  5.03219E-01  5.15463E-01
#           5.28005E-01  5.40851E-01  5.54011E-01  5.67490E-01  5.81298E-01
#           5.95441E-01  6.09929E-01  6.24769E-01  6.39970E-01  6.55541E-01
#           6.71491E-01  6.87828E-01  7.04564E-01  7.21706E-01  7.39266E-01
#           7.57253E-01  7.75678E-01  7.94551E-01  8.13883E-01  8.33685E-01
#           8.53969E-01  8.74747E-01  8.96030E-01  9.17831E-01  9.40163E-01
#           9.63038E-01  9.86469E-01  1.01047E+00  1.03506E+00  1.06024E+00
#           1.08604E+00  1.11246E+00  1.13953E+00  1.16725E+00  1.19565E+00
#           1.22474E+00  1.25454E+00  1.28507E+00  1.31633E+00  1.34836E+00
#           1.38117E+00  1.41477E+00  1.44920E+00  1.48446E+00  1.52057E+00
#           1.55757E+00  1.59547E+00  1.63429E+00  1.67405E+00  1.71478E+00
#           1.75650E+00  1.79924E+00  1.84302E+00  1.88786E+00  1.93379E+00
#           1.98084E+00  2.02904E+00  2.07841E+00  2.12898E+00  2.18078E+00
#           2.23384E+00  2.28819E+00  2.34386E+00  2.40089E+00  2.45930E+00
#           2.51914E+00  2.58043E+00  2.64322E+00  2.70753E+00  2.77341E+00
#           2.84088E+00  2.91001E+00  2.98081E+00  3.05333E+00  3.12762E+00
#           3.20372E+00  3.28167E+00  3.36152E+00  3.44330E+00  3.52708E+00
#           3.61290E+00  3.70080E+00  3.79085E+00  3.88308E+00  3.97756E+00
#           4.07434E+00  4.17347E+00  4.27501E+00  4.37903E+00  4.48557E+00
#           4.59471E+00  4.70650E+00  4.82102E+00  4.93832E+00  5.05847E+00
#           5.18155E+00  5.30762E+00  5.43676E+00  5.56904E+00  5.70453E+00
#           5.84333E+00  5.98550E+00  6.13114E+00  6.28031E+00  6.43312E+00
#           6.58964E+00  6.74997E+00  6.91420E+00  7.08243E+00  7.25475E+00
#           7.43126E+00  7.61207E+00  7.79728E+00  7.98700E+00  8.18133E+00
#           8.38038E+00  8.58428E+00  8.79315E+00  9.00709E+00  9.22624E+00
#           9.45072E+00  9.68067E+00  9.91620E+00  1.01575E+01  1.04046E+01
#           1.06578E+01  1.09171E+01  1.11827E+01  1.14548E+01  1.17335E+01
#           1.20190E+01  1.23114E+01  1.26109E+01  1.29178E+01  1.32321E+01
#           1.35540E+01  1.38838E+01  1.42216E+01  1.45676E+01  1.49221E+01
#           1.52851E+01  1.56570E+01  1.60380E+01  1.64282E+01  1.68279E+01
#           1.72374E+01  1.76568E+01  1.80864E+01  1.85264E+01  1.89772E+01
#           1.94389E+01  1.99119E+01  2.03963E+01  2.08926E+01  2.14009E+01
#           2.19216E+01  2.24550E+01  2.30014E+01  2.35610E+01  2.41343E+01
#           2.47215E+01  2.53230E+01  2.59391E+01  2.65702E+01  2.72167E+01
#           2.78789E+01  2.85572E+01  2.92520E+01  2.99637E+01  3.06928E+01
#           3.14396E+01  3.22045E+01  3.29881E+01  3.37907E+01  3.46128E+01
#           3.54550E+01  3.63177E+01  3.72013E+01  3.81064E+01  3.90336E+01
#           3.99833E+01  4.09561E+01  4.19526E+01  4.29734E+01  4.40189E+01
#           4.50900E+01  4.61870E+01  4.73108E+01  4.84619E+01  4.96410E+01
#           5.08488E+01  5.20860E+01  5.33533E+01  5.46514E+01  5.59812E+01
#           5.73432E+01  5.87384E+01  6.01676E+01  6.16315E+01  6.31311E+01
#           6.46671E+01  6.62405E+01  6.78522E+01  6.95031E+01  7.11941E+01
#           7.29263E+01  7.47007E+01  7.65182E+01  7.83800E+01  8.02870E+01
#           8.22405E+01  8.42414E+01  8.62911E+01  8.83906E+01  9.05412E+01
#           9.27442E+01  9.50007E+01  9.73122E+01  9.96799E+01  1.02105E+02
#           1.04589E+02  1.07134E+02  1.09741E+02  1.12411E+02  1.15146E+02
#           1.17948E+02  1.20817E+02  1.23757E+02  1.26768E+02  1.29852E+02
#           1.33012E+02  1.36248E+02  1.39563E+02  1.42959E+02  1.46437E+02
#           1.50000E+02
     unit =    2            # unit is [1/cm^2/(MeV/n)/source]
     axis =  eng            # axis of output
     file = detector-26.out  # file name of output for the above axis
   output = f-curr          # surface crossing forward current spectrum
     part =  neutron  
# kf/name :  2112     
#    used :        main (  %)        temp (  %)       total (  %)
#  memory :         414 (  0)           0 (  0)         414 (  0)

#------------------------------------------------------------------------------
#newpage:
#   no. =    1   reg = 125 - 225

x: Energy [MeV/n]
y:  F-Curr [1/cm^2/(MeV/n)/source]         
p: xlog ylog afac(0.8) form(0.9)
h: n            x            y(neutron ),hh0l   n 
#  e-lower      e-upper      neutron     r.err 
   1.0000E-02   1.0243E-02   1.2590E-03  0.0255
   1.0243E-02   1.0493E-02   1.2098E-03  0.0257
   1.0493E-02   1.0748E-02   1.1524E-03  0.0260
   1.0748E-02   1.1009E-02   1.1672E-03  0.0255
   1.1009E-02   1.1277E-02   1.1609E-03  0.0253
   1.1277E-02   1.1552E-02   1.1439E-03  0.0252
   1.1552E-02   1.1833E-02   1.1057E-03  0.0253
   1.1833E-02   1.2121E-02   1.0378E-03  0.0258
   1.2121E-02   1.2415E-02   1.0164E-03  0.0258
   1.2415E-02   1.2718E-02   1.0393E-03  0.0252
   1.2718E-02   1.3027E-02   9.8334E-04  0.0256
   1.3027E-02   1.3344E-02   9.4465E-04  0.0258
   1.3344E-02   1.3669E-02   9.7371E-04  0.0251
   1.3669E-02   1.4001E-02   9.4707E-04  0.0252
   1.4001E-02   1.4342E-02   9.3892E-04  0.0249
   1.4342E-02   1.4691E-02   9.0940E-04  0.0250
   1.4691E-02   1.5048E-02   8.6350E-04  0.0254
   1.5048E-02   1.5414E-02   8.4434E-04  0.0254
   1.5414E-02   1.5789E-02   8.4614E-04  0.0250
   1.5789E-02   1.6174E-02   8.7207E-04  0.0244
   1.6174E-02   1.6567E-02   8.1665E-04  0.0249
   1.6567E-02   1.6970E-02   8.1305E-04  0.0247
   1.6970E-02   1.7383E-02   7.9612E-04  0.0246
   1.7383E-02   1.7806E-02   8.0060E-04  0.0242
   1.7806E-02   1.8239E-02   7.9803E-04  0.0240
   1.8239E-02   1.8683E-02   7.5321E-04  0.0244
   1.8683E-02   1.9138E-02   7.7990E-04  0.0237
   1.9138E-02   1.9603E-02   7.2344E-04  0.0243
   1.9603E-02   2.0080E-02   7.2715E-04  0.0240
   2.0080E-02   2.0569E-02   7.3027E-04  0.0236
   2.0569E-02   2.1069E-02   7.0714E-04  0.0237
   2.1069E-02   2.1582E-02   6.2538E-04  0.0249
   2.1582E-02   2.2107E-02   6.5840E-04  0.0240
   2.2107E-02   2.2645E-02   6.3253E-04  0.0242
   2.2645E-02   2.3196E-02   6.4003E-04  0.0238
   2.3196E-02   2.3760E-02   6.0367E-04  0.0242
   2.3760E-02   2.4338E-02   6.1107E-04  0.0238
   2.4338E-02   2.4930E-02   6.0606E-04  0.0236
   2.4930E-02   2.5537E-02   5.9192E-04  0.0235
   2.5537E-02   2.6158E-02   5.7710E-04  0.0236
   2.6158E-02   2.6795E-02   5.6731E-04  0.0235
   2.6795E-02   2.7447E-02   5.6547E-04  0.0233
   2.7447E-02   2.8114E-02   5.5655E-04  0.0231
   2.8114E-02   2.8799E-02   5.2107E-04  0.0236
   2.8799E-02   2.9499E-02   5.3850E-04  0.0230
   2.9499E-02   3.0217E-02   5.1109E-04  0.0233
   3.0217E-02   3.0952E-02   5.0824E-04  0.0231
   3.0952E-02   3.1705E-02   4.9315E-04  0.0232
   3.1705E-02   3.2477E-02   4.5964E-04  0.0237
   3.2477E-02   3.3267E-02   4.8511E-04  0.0228
   3.3267E-02   3.4076E-02   4.8097E-04  0.0226
   3.4076E-02   3.4905E-02   4.6540E-04  0.0227
   3.4905E-02   3.5755E-02   4.4368E-04  0.0230
   3.5755E-02   3.6625E-02   4.2469E-04  0.0232
   3.6625E-02   3.7516E-02   4.3011E-04  0.0228
   3.7516E-02   3.8428E-02   4.2085E-04  0.0228
   3.8428E-02   3.9363E-02   4.1610E-04  0.0226
   3.9363E-02   4.0321E-02   4.1093E-04  0.0225
   4.0321E-02   4.1302E-02   4.0347E-04  0.0224
   4.1302E-02   4.2307E-02   3.7139E-04  0.0231
   4.2307E-02   4.3337E-02   3.7565E-04  0.0227
   4.3337E-02   4.4391E-02   3.7288E-04  0.0225
   4.4391E-02   4.5471E-02   3.6220E-04  0.0226
   4.5471E-02   4.6577E-02   3.7053E-04  0.0220
   4.6577E-02   4.7711E-02   3.4729E-04  0.0225
   4.7711E-02   4.8871E-02   3.4706E-04  0.0222
   4.8871E-02   5.0061E-02   3.3876E-04  0.0222
   5.0061E-02   5.1279E-02   3.2320E-04  0.0225
   5.1279E-02   5.2526E-02   3.2618E-04  0.0221
   5.2526E-02   5.3804E-02   3.1727E-04  0.0222
   5.3804E-02   5.5113E-02   3.0105E-04  0.0225
   5.5113E-02   5.6454E-02   3.0772E-04  0.0219
   5.6454E-02   5.7828E-02   3.0100E-04  0.0219
   5.7828E-02   5.9235E-02   2.9064E-04  0.0221
   5.9235E-02   6.0676E-02   2.8444E-04  0.0220
   6.0676E-02   6.2152E-02   2.8430E-04  0.0218
   6.2152E-02   6.3665E-02   2.7115E-04  0.0220
   6.3665E-02   6.5214E-02   2.6826E-04  0.0219
   6.5214E-02   6.6800E-02   2.6097E-04  0.0219
   6.6800E-02   6.8426E-02   2.6000E-04  0.0217
   6.8426E-02   7.0090E-02   2.5862E-04  0.0215
   7.0090E-02   7.1796E-02   2.5372E-04  0.0214
   7.1796E-02   7.3543E-02   2.4592E-04  0.0215
   7.3543E-02   7.5332E-02   2.3044E-04  0.0220
   7.5332E-02   7.7165E-02   2.2485E-04  0.0220
   7.7165E-02   7.9042E-02   2.3283E-04  0.0213
   7.9042E-02   8.0965E-02   2.1990E-04  0.0217
   8.0965E-02   8.2935E-02   2.1890E-04  0.0215
   8.2935E-02   8.4953E-02   2.1695E-04  0.0213
   8.4953E-02   8.7020E-02   2.0445E-04  0.0217
   8.7020E-02   8.9138E-02   2.0528E-04  0.0214
   8.9138E-02   9.1306E-02   1.9682E-04  0.0216
   9.1306E-02   9.3528E-02   1.9002E-04  0.0217
   9.3528E-02   9.5804E-02   1.9196E-04  0.0214
   9.5804E-02   9.8134E-02   1.8605E-04  0.0214
   9.8134E-02   1.0052E-01   1.7685E-04  0.0217
   1.0052E-01   1.0297E-01   1.8466E-04  0.0210
   1.0297E-01   1.0547E-01   1.7693E-04  0.0212
   1.0547E-01   1.0804E-01   1.6661E-04  0.0216
   1.0804E-01   1.1067E-01   1.6709E-04  0.0213
   1.1067E-01   1.1336E-01   1.6540E-04  0.0211
   1.1336E-01   1.1612E-01   1.5950E-04  0.0213
   1.1612E-01   1.1894E-01   1.5241E-04  0.0215
   1.1894E-01   1.2184E-01   1.5195E-04  0.0213
   1.2184E-01   1.2480E-01   1.4896E-04  0.0212
   1.2480E-01   1.2784E-01   1.4470E-04  0.0213
   1.2784E-01   1.3095E-01   1.3976E-04  0.0214
   1.3095E-01   1.3414E-01   1.3819E-04  0.0213
   1.3414E-01   1.3740E-01   1.3654E-04  0.0211
   1.3740E-01   1.4074E-01   1.3702E-04  0.0208
   1.4074E-01   1.4417E-01   1.2897E-04  0.0212
   1.4417E-01   1.4767E-01   1.2920E-04  0.0210
   1.4767E-01   1.5127E-01   1.2661E-04  0.0209
   1.5127E-01   1.5495E-01   1.1910E-04  0.0213
   1.5495E-01   1.5872E-01   1.1695E-04  0.0212
   1.5872E-01   1.6258E-01   1.1344E-04  0.0213
   1.6258E-01   1.6654E-01   1.1614E-04  0.0208
   1.6654E-01   1.7059E-01   1.1175E-04  0.0210
   1.7059E-01   1.7474E-01   1.0535E-04  0.0213
   1.7474E-01   1.7899E-01   1.0507E-04  0.0211
   1.7899E-01   1.8334E-01   1.0588E-04  0.0208
   1.8334E-01   1.8781E-01   1.0209E-04  0.0209
   1.8781E-01   1.9237E-01   1.0278E-04  0.0206
   1.9237E-01   1.9706E-01   9.8643E-05  0.0208
   1.9706E-01   2.0185E-01   9.6147E-05  0.0208
   2.0185E-01   2.0676E-01   9.6368E-05  0.0205
   2.0676E-01   2.1179E-01   1.0182E-04  0.0197
   2.1179E-01   2.1694E-01   1.0133E-04  0.0195
   2.1694E-01   2.2222E-01   1.0709E-04  0.0188
   2.2222E-01   2.2763E-01   1.0940E-04  0.0183
   2.2763E-01   2.3317E-01   1.0992E-04  0.0181
   2.3317E-01   2.3884E-01   1.1106E-04  0.0178
   2.3884E-01   2.4465E-01   1.1387E-04  0.0173
   2.4465E-01   2.5061E-01   1.1775E-04  0.0168
   2.5061E-01   2.5670E-01   1.1827E-04  0.0166
   2.5670E-01   2.6295E-01   1.2026E-04  0.0163
   2.6295E-01   2.6935E-01   1.2358E-04  0.0159
   2.6935E-01   2.7590E-01   1.2431E-04  0.0156
   2.7590E-01   2.8261E-01   1.2723E-04  0.0153
   2.8261E-01   2.8949E-01   1.3015E-04  0.0149
   2.8949E-01   2.9653E-01   1.3206E-04  0.0146
   2.9653E-01   3.0375E-01   1.3851E-04  0.0141
   3.0375E-01   3.1114E-01   1.3806E-04  0.0140
   3.1114E-01   3.1871E-01   1.3924E-04  0.0137
   3.1871E-01   3.2646E-01   1.3794E-04  0.0136
   3.2646E-01   3.3441E-01   1.4012E-04  0.0134
   3.3441E-01   3.4254E-01   1.4783E-04  0.0129
   3.4254E-01   3.5088E-01   1.4658E-04  0.0128
   3.5088E-01   3.5941E-01   1.4837E-04  0.0125
   3.5941E-01   3.6816E-01   1.5175E-04  0.0122
   3.6816E-01   3.7712E-01   1.5316E-04  0.0120
   3.7712E-01   3.8629E-01   1.5532E-04  0.0118
   3.8629E-01   3.9569E-01   1.5663E-04  0.0116
   3.9569E-01   4.0532E-01   1.5981E-04  0.0114
   4.0532E-01   4.1518E-01   1.5897E-04  0.0113
   4.1518E-01   4.2528E-01   1.5909E-04  0.0111
   4.2528E-01   4.3563E-01   1.6441E-04  0.0108
   4.3563E-01   4.4623E-01   1.6087E-04  0.0108
   4.4623E-01   4.5708E-01   1.6450E-04  0.0105
   4.5708E-01   4.6821E-01   1.6350E-04  0.0105
   4.6821E-01   4.7960E-01   1.6497E-04  0.0103
   4.7960E-01   4.9127E-01   1.6489E-04  0.0102
   4.9127E-01   5.0322E-01   1.6947E-04  0.0099
   5.0322E-01   5.1546E-01   1.6635E-04  0.0099
   5.1546E-01   5.2800E-01   1.6635E-04  0.0098
   5.2800E-01   5.4085E-01   1.6776E-04  0.0096
   5.4085E-01   5.5401E-01   1.7137E-04  0.0094
   5.5401E-01   5.6749E-01   1.6925E-04  0.0093
   5.6749E-01   5.8130E-01   1.7061E-04  0.0092
   5.8130E-01   5.9544E-01   1.7102E-04  0.0091
   5.9544E-01   6.0993E-01   1.6988E-04  0.0090
   6.0993E-01   6.2477E-01   1.6785E-04  0.0089
   6.2477E-01   6.3997E-01   1.6667E-04  0.0089
   6.3997E-01   6.5554E-01   1.6561E-04  0.0088
   6.5554E-01   6.7149E-01   1.6850E-04  0.0086
   6.7149E-01   6.8783E-01   1.6682E-04  0.0085
   6.8783E-01   7.0456E-01   1.6284E-04  0.0085
   7.0456E-01   7.2171E-01   1.6360E-04  0.0084
   7.2171E-01   7.3927E-01   1.6056E-04  0.0084
   7.3927E-01   7.5725E-01   1.6176E-04  0.0083
   7.5725E-01   7.7568E-01   1.5794E-04  0.0083
   7.7568E-01   7.9455E-01   1.5635E-04  0.0082
   7.9455E-01   8.1388E-01   1.5407E-04  0.0082
   8.1388E-01   8.3368E-01   1.5235E-04  0.0081
   8.3368E-01   8.5397E-01   1.4981E-04  0.0081
   8.5397E-01   8.7475E-01   1.4235E-04  0.0082
   8.7475E-01   8.9603E-01   1.4283E-04  0.0081
   8.9603E-01   9.1783E-01   1.3849E-04  0.0081
   9.1783E-01   9.4016E-01   1.3385E-04  0.0081
   9.4016E-01   9.6304E-01   1.2867E-04  0.0082
   9.6304E-01   9.8647E-01   1.2355E-04  0.0083
   9.8647E-01   1.0105E+00   1.1940E-04  0.0083
   1.0105E+00   1.0351E+00   1.1673E-04  0.0083
   1.0351E+00   1.0602E+00   1.1405E-04  0.0083
   1.0602E+00   1.0860E+00   1.1448E-04  0.0082
   1.0860E+00   1.1125E+00   1.1102E-04  0.0082
   1.1125E+00   1.1395E+00   1.1118E-04  0.0081
   1.1395E+00   1.1673E+00   1.1117E-04  0.0080
   1.1673E+00   1.1957E+00   1.0940E-04  0.0080
   1.1957E+00   1.2247E+00   1.0923E-04  0.0079
   1.2247E+00   1.2545E+00   1.0630E-04  0.0079
   1.2545E+00   1.2851E+00   1.0274E-04  0.0079
   1.2851E+00   1.3163E+00   1.0149E-04  0.0079
   1.3163E+00   1.3484E+00   1.0034E-04  0.0078
   1.3484E+00   1.3812E+00   9.8414E-05  0.0078
   1.3812E+00   1.4148E+00   9.7922E-05  0.0078
   1.4148E+00   1.4492E+00   9.5415E-05  0.0078
   1.4492E+00   1.4845E+00   9.2727E-05  0.0078
   1.4845E+00   1.5206E+00   8.9811E-05  0.0078
   1.5206E+00   1.5576E+00   8.7481E-05  0.0078
   1.5576E+00   1.5955E+00   8.4436E-05  0.0079
   1.5955E+00   1.6343E+00   8.2967E-05  0.0078
   1.6343E+00   1.6741E+00   8.1106E-05  0.0078
   1.6741E+00   1.7148E+00   7.9620E-05  0.0078
   1.7148E+00   1.7565E+00   7.6482E-05  0.0079
   1.7565E+00   1.7992E+00   7.4073E-05  0.0079
   1.7992E+00   1.8430E+00   7.3546E-05  0.0078
   1.8430E+00   1.8879E+00   7.0533E-05  0.0079
   1.8879E+00   1.9338E+00   6.8931E-05  0.0079
   1.9338E+00   1.9808E+00   6.6605E-05  0.0079
   1.9808E+00   2.0290E+00   6.4485E-05  0.0080
   2.0290E+00   2.0784E+00   6.2865E-05  0.0080
   2.0784E+00   2.1290E+00   6.1154E-05  0.0080
   2.1290E+00   2.1808E+00   6.0268E-05  0.0079
   2.1808E+00   2.2338E+00   5.8080E-05  0.0080
   2.2338E+00   2.2882E+00   5.6213E-05  0.0080
   2.2882E+00   2.3439E+00   5.4128E-05  0.0081
   2.3439E+00   2.4009E+00   5.3067E-05  0.0081
   2.4009E+00   2.4593E+00   5.3274E-05  0.0080
   2.4593E+00   2.5191E+00   5.1581E-05  0.0080
   2.5191E+00   2.5804E+00   4.9887E-05  0.0080
   2.5804E+00   2.6432E+00   4.8227E-05  0.0081
   2.6432E+00   2.7075E+00   4.6992E-05  0.0081
   2.7075E+00   2.7734E+00   4.5678E-05  0.0081
   2.7734E+00   2.8409E+00   4.4050E-05  0.0081
   2.8409E+00   2.9100E+00   4.3326E-05  0.0081
   2.9100E+00   2.9808E+00   4.1846E-05  0.0082
   2.9808E+00   3.0533E+00   4.0454E-05  0.0082
   3.0533E+00   3.1276E+00   3.9042E-05  0.0082
   3.1276E+00   3.2037E+00   3.7911E-05  0.0083
   3.2037E+00   3.2817E+00   3.7199E-05  0.0082
   3.2817E+00   3.3615E+00   3.5947E-05  0.0083
   3.3615E+00   3.4433E+00   3.4354E-05  0.0084
   3.4433E+00   3.5271E+00   3.3418E-05  0.0084
   3.5271E+00   3.6129E+00   3.2547E-05  0.0084
   3.6129E+00   3.7008E+00   3.1728E-05  0.0084
   3.7008E+00   3.7908E+00   3.0782E-05  0.0084
   3.7908E+00   3.8831E+00   2.9687E-05  0.0085
   3.8831E+00   3.9776E+00   2.8777E-05  0.0085
   3.9776E+00   4.0743E+00   2.7975E-05  0.0085
   4.0743E+00   4.1735E+00   2.6608E-05  0.0086
   4.1735E+00   4.2750E+00   2.6316E-05  0.0086
   4.2750E+00   4.3790E+00   2.5204E-05  0.0087
   4.3790E+00   4.4856E+00   2.4207E-05  0.0088
   4.4856E+00   4.5947E+00   2.3422E-05  0.0088
   4.5947E+00   4.7065E+00   2.2381E-05  0.0089
   4.7065E+00   4.8210E+00   2.1403E-05  0.0090
   4.8210E+00   4.9383E+00   2.0424E-05  0.0091
   4.9383E+00   5.0585E+00   1.9414E-05  0.0092
   5.0585E+00   5.1815E+00   1.8359E-05  0.0094
   5.1815E+00   5.3076E+00   1.7293E-05  0.0095
   5.3076E+00   5.4368E+00   1.6599E-05  0.0096
   5.4368E+00   5.5690E+00   1.6161E-05  0.0096
   5.5690E+00   5.7045E+00   1.4987E-05  0.0099
   5.7045E+00   5.8433E+00   1.4544E-05  0.0099
   5.8433E+00   5.9855E+00   1.3773E-05  0.0101
   5.9855E+00   6.1311E+00   1.3023E-05  0.0102
   6.1311E+00   6.2803E+00   1.2354E-05  0.0104
   6.2803E+00   6.4331E+00   1.1368E-05  0.0107
   6.4331E+00   6.5896E+00   1.1077E-05  0.0107
   6.5896E+00   6.7500E+00   1.0418E-05  0.0109
   6.7500E+00   6.9142E+00   9.7961E-06  0.0111
   6.9142E+00   7.0824E+00   9.0684E-06  0.0114
   7.0824E+00   7.2548E+00   8.4144E-06  0.0117
   7.2548E+00   7.4313E+00   8.2282E-06  0.0117
   7.4313E+00   7.6121E+00   7.4423E-06  0.0121
   7.6121E+00   7.7973E+00   6.9860E-06  0.0124
   7.7973E+00   7.9870E+00   6.5912E-06  0.0126
   7.9870E+00   8.1813E+00   6.1843E-06  0.0129
   8.1813E+00   8.3804E+00   5.7235E-06  0.0132
   8.3804E+00   8.5843E+00   5.4676E-06  0.0134
   8.5843E+00   8.7931E+00   5.1035E-06  0.0137
   8.7931E+00   9.0071E+00   4.8892E-06  0.0138
   9.0071E+00   9.2262E+00   4.5802E-06  0.0141
   9.2262E+00   9.4507E+00   4.1664E-06  0.0146
   9.4507E+00   9.6807E+00   4.0347E-06  0.0146
   9.6807E+00   9.9162E+00   3.7544E-06  0.0150
   9.9162E+00   1.0157E+01   3.5716E-06  0.0152
   1.0157E+01   1.0405E+01   3.4866E-06  0.0152
   1.0405E+01   1.0658E+01   3.8001E-06  0.0144
   1.0658E+01   1.0917E+01   3.7670E-06  0.0143
   1.0917E+01   1.1183E+01   3.5804E-06  0.0145
   1.1183E+01   1.1455E+01   3.5099E-06  0.0144
   1.1455E+01   1.1733E+01   3.3590E-06  0.0146
   1.1733E+01   1.2019E+01   3.1155E-06  0.0150
   1.2019E+01   1.2311E+01   2.7955E-06  0.0156
   1.2311E+01   1.2611E+01   2.5429E-06  0.0162
   1.2611E+01   1.2918E+01   2.3325E-06  0.0167
   1.2918E+01   1.3232E+01   2.3198E-06  0.0165
   1.3232E+01   1.3554E+01   2.1908E-06  0.0168
   1.3554E+01   1.3884E+01   2.0120E-06  0.0173
   1.3884E+01   1.4222E+01   1.8588E-06  0.0178
   1.4222E+01   1.4568E+01   1.7327E-06  0.0182
   1.4568E+01   1.4922E+01   1.5936E-06  0.0188
   1.4922E+01   1.5285E+01   1.3824E-06  0.0199
   1.5285E+01   1.5657E+01   1.2541E-06  0.0207
   1.5657E+01   1.6038E+01   1.0974E-06  0.0219
   1.6038E+01   1.6428E+01   1.0391E-06  0.0222
   1.6428E+01   1.6828E+01   9.3625E-07  0.0231
   1.6828E+01   1.7237E+01   8.2677E-07  0.0243
   1.7237E+01   1.7657E+01   7.7596E-07  0.0248
   1.7657E+01   1.8086E+01   7.3995E-07  0.0251
   1.8086E+01   1.8526E+01   6.7166E-07  0.0260
   1.8526E+01   1.8977E+01   5.8292E-07  0.0276
   1.8977E+01   1.9439E+01   5.5760E-07  0.0279
   1.9439E+01   1.9912E+01   5.0316E-07  0.0290
   1.9912E+01   2.0396E+01   4.2686E-07  0.0311
   2.0396E+01   2.0893E+01   4.1511E-07  0.0312
   2.0893E+01   2.1401E+01   3.5607E-07  0.0332
   2.1401E+01   2.1922E+01   3.1842E-07  0.0347
   2.1922E+01   2.2455E+01   2.8123E-07  0.0365
   2.2455E+01   2.3001E+01   2.5808E-07  0.0377
   2.3001E+01   2.3561E+01   2.0263E-07  0.0420
   2.3561E+01   2.4134E+01   2.0340E-07  0.0414
   2.4134E+01   2.4721E+01   1.7302E-07  0.0444
   2.4721E+01   2.5323E+01   1.4697E-07  0.0476
   2.5323E+01   2.5939E+01   1.1978E-07  0.0521
   2.5939E+01   2.6570E+01   9.5386E-08  0.0576
   2.6570E+01   2.7217E+01   7.4249E-08  0.0645
   2.7217E+01   2.7879E+01   6.0102E-08  0.0709
   2.7879E+01   2.8557E+01   5.3957E-08  0.0739
   2.8557E+01   2.9252E+01   4.4904E-08  0.0801
   2.9252E+01   2.9964E+01   3.2878E-08  0.0925
   2.9964E+01   3.0693E+01   2.9079E-08  0.0971
   3.0693E+01   3.1440E+01   2.6782E-08  0.1000
   3.1440E+01   3.2205E+01   1.6995E-08  0.1240
   3.2205E+01   3.2988E+01   1.5315E-08  0.1291
   3.2988E+01   3.3791E+01   7.7246E-09  0.1796
   3.3791E+01   3.4613E+01   9.0007E-09  0.1644
   3.4613E+01   3.5455E+01   5.2247E-09  0.2132
   3.5455E+01   3.6318E+01   4.4050E-09  0.2294
   3.6318E+01   3.7201E+01   3.1687E-09  0.2673
   3.7201E+01   3.8106E+01   1.9886E-09  0.3333
   3.8106E+01   3.9034E+01   2.1571E-09  0.3162
   3.9034E+01   3.9983E+01   4.2118E-10  0.7071
   3.9983E+01   4.0956E+01   1.8503E-09  0.3333
   4.0956E+01   4.1953E+01   1.4049E-09  0.3780
   4.1953E+01   4.2973E+01   5.8781E-10  0.5774
   4.2973E+01   4.4019E+01   1.9128E-10  1.0000
   4.4019E+01   4.5090E+01   3.7348E-10  0.7071
   4.5090E+01   4.6187E+01   1.8230E-10  1.0000
   4.6187E+01   4.7311E+01   0.0000E+00  0.0000
   4.7311E+01   4.8462E+01   0.0000E+00  0.0000
   4.8462E+01   4.9641E+01   1.6962E-10  1.0000
   4.9641E+01   5.0849E+01   0.0000E+00  0.0000
   5.0849E+01   5.2086E+01   0.0000E+00  0.0000
   5.2086E+01   5.3353E+01   0.0000E+00  0.0000
   5.3353E+01   5.4651E+01   0.0000E+00  0.0000
   5.4651E+01   5.5981E+01   0.0000E+00  0.0000
   5.5981E+01   5.7343E+01   0.0000E+00  0.0000
   5.7343E+01   5.8738E+01   0.0000E+00  0.0000
   5.8738E+01   6.0168E+01   0.0000E+00  0.0000
   6.0168E+01   6.1632E+01   0.0000E+00  0.0000
   6.1632E+01   6.3131E+01   0.0000E+00  0.0000
   6.3131E+01   6.4667E+01   0.0000E+00  0.0000
   6.4667E+01   6.6240E+01   0.0000E+00  0.0000
   6.6240E+01   6.7852E+01   0.0000E+00  0.0000
   6.7852E+01   6.9503E+01   0.0000E+00  0.0000
   6.9503E+01   7.1194E+01   0.0000E+00  0.0000
   7.1194E+01   7.2926E+01   0.0000E+00  0.0000
   7.2926E+01   7.4701E+01   0.0000E+00  0.0000
   7.4701E+01   7.6518E+01   0.0000E+00  0.0000
   7.6518E+01   7.8380E+01   0.0000E+00  0.0000
   7.8380E+01   8.0287E+01   0.0000E+00  0.0000
   8.0287E+01   8.2240E+01   0.0000E+00  0.0000
   8.2240E+01   8.4241E+01   0.0000E+00  0.0000
   8.4241E+01   8.6291E+01   0.0000E+00  0.0000
   8.6291E+01   8.8391E+01   0.0000E+00  0.0000
   8.8391E+01   9.0541E+01   0.0000E+00  0.0000
   9.0541E+01   9.2744E+01   0.0000E+00  0.0000
   9.2744E+01   9.5001E+01   0.0000E+00  0.0000
   9.5001E+01   9.7312E+01   0.0000E+00  0.0000
   9.7312E+01   9.9680E+01   0.0000E+00  0.0000
   9.9680E+01   1.0211E+02   0.0000E+00  0.0000
   1.0211E+02   1.0459E+02   0.0000E+00  0.0000
   1.0459E+02   1.0713E+02   0.0000E+00  0.0000
   1.0713E+02   1.0974E+02   0.0000E+00  0.0000
   1.0974E+02   1.1241E+02   0.0000E+00  0.0000
   1.1241E+02   1.1515E+02   0.0000E+00  0.0000
   1.1515E+02   1.1795E+02   0.0000E+00  0.0000
   1.1795E+02   1.2082E+02   0.0000E+00  0.0000
   1.2082E+02   1.2376E+02   0.0000E+00  0.0000
   1.2376E+02   1.2677E+02   0.0000E+00  0.0000
   1.2677E+02   1.2985E+02   0.0000E+00  0.0000
   1.2985E+02   1.3301E+02   0.0000E+00  0.0000
   1.3301E+02   1.3625E+02   0.0000E+00  0.0000
   1.3625E+02   1.3956E+02   0.0000E+00  0.0000
   1.3956E+02   1.4296E+02   0.0000E+00  0.0000
   1.4296E+02   1.4644E+02   0.0000E+00  0.0000
   1.4644E+02   1.5000E+02   0.0000E+00  0.0000

#   sum over                 2.8766E-06
'no. =    1   reg = 125 - 225'
msuc: {\huge [t-cross] in region mesh}
msdr: {\it plotted by \ANGEL \version}
msdl: {\it calculated by \PHITS  3.28}
wt: s(0.7)
\vspace{-3}
  region surface crossing
  area  &=&   1.0000E+00 [cm^2]
e:
 
# Information for Restart Calculation
# This calculation was newly started
# istdev =  2 # 1:Batch variance, 2:History variance
# resc2  = 5.00000000000000000E+09 # Total source weight or Total source weight / maxcas
# resc3  = 5.00000000000000000E+09 # Total history number or Total batch number
# maxcas =   500000000 # History / Batch, only used for istdev=1
# bitrseed = 0110100000100010111000001110001111001110100100011111101000111001 # bit data of rseed
