[ T-Cross ]
    title = [t-cross] in region mesh
     mesh =  reg            # mesh type is region-wise
      reg =    1            # number of crossing regions
      non     r-from    r-to       area
      1       104       204        1.000000    
   e-type =    3            # e-mesh is log given by emin, emax and ne
     emin =  1.0000000E-02  # minimum value of e-mesh points
     emax =   150.0000      # maximum value of e-mesh points
#    edel =  2.4039514E-02  # mesh width of e-mesh points
       ne =    400          # number of e-mesh points
#    data = ( e(i), i = 1, ne + 1 )
#           1.00000E-02  1.02433E-02  1.04925E-02  1.07478E-02  1.10093E-02
#           1.12772E-02  1.15516E-02  1.18326E-02  1.21205E-02  1.24154E-02
#           1.27175E-02  1.30269E-02  1.33439E-02  1.36686E-02  1.40011E-02
#           1.43418E-02  1.46907E-02  1.50482E-02  1.54143E-02  1.57894E-02
#           1.61735E-02  1.65670E-02  1.69701E-02  1.73830E-02  1.78060E-02
#           1.82392E-02  1.86830E-02  1.91375E-02  1.96032E-02  2.00801E-02
#           2.05687E-02  2.10692E-02  2.15818E-02  2.21069E-02  2.26448E-02
#           2.31957E-02  2.37601E-02  2.43382E-02  2.49304E-02  2.55369E-02
#           2.61583E-02  2.67947E-02  2.74467E-02  2.81145E-02  2.87985E-02
#           2.94992E-02  3.02169E-02  3.09521E-02  3.17052E-02  3.24766E-02
#           3.32668E-02  3.40762E-02  3.49053E-02  3.57546E-02  3.66246E-02
#           3.75157E-02  3.84284E-02  3.93634E-02  4.03212E-02  4.13022E-02
#           4.23071E-02  4.33365E-02  4.43909E-02  4.54710E-02  4.65773E-02
#           4.77106E-02  4.88714E-02  5.00605E-02  5.12785E-02  5.25262E-02
#           5.38042E-02  5.51133E-02  5.64542E-02  5.78278E-02  5.92348E-02
#           6.06760E-02  6.21523E-02  6.36645E-02  6.52135E-02  6.68002E-02
#           6.84255E-02  7.00904E-02  7.17957E-02  7.35426E-02  7.53319E-02
#           7.71648E-02  7.90423E-02  8.09655E-02  8.29354E-02  8.49533E-02
#           8.70203E-02  8.91376E-02  9.13064E-02  9.35279E-02  9.58035E-02
#           9.81345E-02  1.00522E-01  1.02968E-01  1.05473E-01  1.08040E-01
#           1.10668E-01  1.13361E-01  1.16119E-01  1.18944E-01  1.21838E-01
#           1.24803E-01  1.27839E-01  1.30950E-01  1.34136E-01  1.37399E-01
#           1.40742E-01  1.44167E-01  1.47675E-01  1.51268E-01  1.54948E-01
#           1.58718E-01  1.62580E-01  1.66535E-01  1.70587E-01  1.74738E-01
#           1.78989E-01  1.83344E-01  1.87805E-01  1.92375E-01  1.97055E-01
#           2.01850E-01  2.06761E-01  2.11792E-01  2.16945E-01  2.22223E-01
#           2.27630E-01  2.33169E-01  2.38842E-01  2.44653E-01  2.50605E-01
#           2.56703E-01  2.62949E-01  2.69346E-01  2.75900E-01  2.82613E-01
#           2.89489E-01  2.96532E-01  3.03747E-01  3.11138E-01  3.18708E-01
#           3.26462E-01  3.34405E-01  3.42542E-01  3.50876E-01  3.59413E-01
#           3.68158E-01  3.77116E-01  3.86291E-01  3.95690E-01  4.05317E-01
#           4.15179E-01  4.25281E-01  4.35628E-01  4.46227E-01  4.57084E-01
#           4.68205E-01  4.79597E-01  4.91266E-01  5.03219E-01  5.15463E-01
#           5.28005E-01  5.40851E-01  5.54011E-01  5.67490E-01  5.81298E-01
#           5.95441E-01  6.09929E-01  6.24769E-01  6.39970E-01  6.55541E-01
#           6.71491E-01  6.87828E-01  7.04564E-01  7.21706E-01  7.39266E-01
#           7.57253E-01  7.75678E-01  7.94551E-01  8.13883E-01  8.33685E-01
#           8.53969E-01  8.74747E-01  8.96030E-01  9.17831E-01  9.40163E-01
#           9.63038E-01  9.86469E-01  1.01047E+00  1.03506E+00  1.06024E+00
#           1.08604E+00  1.11246E+00  1.13953E+00  1.16725E+00  1.19565E+00
#           1.22474E+00  1.25454E+00  1.28507E+00  1.31633E+00  1.34836E+00
#           1.38117E+00  1.41477E+00  1.44920E+00  1.48446E+00  1.52057E+00
#           1.55757E+00  1.59547E+00  1.63429E+00  1.67405E+00  1.71478E+00
#           1.75650E+00  1.79924E+00  1.84302E+00  1.88786E+00  1.93379E+00
#           1.98084E+00  2.02904E+00  2.07841E+00  2.12898E+00  2.18078E+00
#           2.23384E+00  2.28819E+00  2.34386E+00  2.40089E+00  2.45930E+00
#           2.51914E+00  2.58043E+00  2.64322E+00  2.70753E+00  2.77341E+00
#           2.84088E+00  2.91001E+00  2.98081E+00  3.05333E+00  3.12762E+00
#           3.20372E+00  3.28167E+00  3.36152E+00  3.44330E+00  3.52708E+00
#           3.61290E+00  3.70080E+00  3.79085E+00  3.88308E+00  3.97756E+00
#           4.07434E+00  4.17347E+00  4.27501E+00  4.37903E+00  4.48557E+00
#           4.59471E+00  4.70650E+00  4.82102E+00  4.93832E+00  5.05847E+00
#           5.18155E+00  5.30762E+00  5.43676E+00  5.56904E+00  5.70453E+00
#           5.84333E+00  5.98550E+00  6.13114E+00  6.28031E+00  6.43312E+00
#           6.58964E+00  6.74997E+00  6.91420E+00  7.08243E+00  7.25475E+00
#           7.43126E+00  7.61207E+00  7.79728E+00  7.98700E+00  8.18133E+00
#           8.38038E+00  8.58428E+00  8.79315E+00  9.00709E+00  9.22624E+00
#           9.45072E+00  9.68067E+00  9.91620E+00  1.01575E+01  1.04046E+01
#           1.06578E+01  1.09171E+01  1.11827E+01  1.14548E+01  1.17335E+01
#           1.20190E+01  1.23114E+01  1.26109E+01  1.29178E+01  1.32321E+01
#           1.35540E+01  1.38838E+01  1.42216E+01  1.45676E+01  1.49221E+01
#           1.52851E+01  1.56570E+01  1.60380E+01  1.64282E+01  1.68279E+01
#           1.72374E+01  1.76568E+01  1.80864E+01  1.85264E+01  1.89772E+01
#           1.94389E+01  1.99119E+01  2.03963E+01  2.08926E+01  2.14009E+01
#           2.19216E+01  2.24550E+01  2.30014E+01  2.35610E+01  2.41343E+01
#           2.47215E+01  2.53230E+01  2.59391E+01  2.65702E+01  2.72167E+01
#           2.78789E+01  2.85572E+01  2.92520E+01  2.99637E+01  3.06928E+01
#           3.14396E+01  3.22045E+01  3.29881E+01  3.37907E+01  3.46128E+01
#           3.54550E+01  3.63177E+01  3.72013E+01  3.81064E+01  3.90336E+01
#           3.99833E+01  4.09561E+01  4.19526E+01  4.29734E+01  4.40189E+01
#           4.50900E+01  4.61870E+01  4.73108E+01  4.84619E+01  4.96410E+01
#           5.08488E+01  5.20860E+01  5.33533E+01  5.46514E+01  5.59812E+01
#           5.73432E+01  5.87384E+01  6.01676E+01  6.16315E+01  6.31311E+01
#           6.46671E+01  6.62405E+01  6.78522E+01  6.95031E+01  7.11941E+01
#           7.29263E+01  7.47007E+01  7.65182E+01  7.83800E+01  8.02870E+01
#           8.22405E+01  8.42414E+01  8.62911E+01  8.83906E+01  9.05412E+01
#           9.27442E+01  9.50007E+01  9.73122E+01  9.96799E+01  1.02105E+02
#           1.04589E+02  1.07134E+02  1.09741E+02  1.12411E+02  1.15146E+02
#           1.17948E+02  1.20817E+02  1.23757E+02  1.26768E+02  1.29852E+02
#           1.33012E+02  1.36248E+02  1.39563E+02  1.42959E+02  1.46437E+02
#           1.50000E+02
     unit =    2            # unit is [1/cm^2/(MeV/n)/source]
     axis =  eng            # axis of output
     file = detector-05.out  # file name of output for the above axis
   output = f-curr          # surface crossing forward current spectrum
     part =  neutron  
# kf/name :  2112     
#    used :        main (  %)        temp (  %)       total (  %)
#  memory :         414 (  0)           0 (  0)         414 (  0)

#------------------------------------------------------------------------------
#newpage:
#   no. =    1   reg = 104 - 204

x: Energy [MeV/n]
y:  F-Curr [1/cm^2/(MeV/n)/source]         
p: xlog ylog afac(0.8) form(0.9)
h: n            x            y(neutron ),hh0l   n 
#  e-lower      e-upper      neutron     r.err 
   1.0000E-02   1.0243E-02   8.2884E-05  0.0995
   1.0243E-02   1.0493E-02   9.0043E-05  0.0942
   1.0493E-02   1.0748E-02   8.8441E-05  0.0940
   1.0748E-02   1.1009E-02   6.7207E-05  0.1066
   1.1009E-02   1.1277E-02   8.2115E-05  0.0950
   1.1277E-02   1.1552E-02   6.2438E-05  0.1079
   1.1552E-02   1.1833E-02   8.3896E-05  0.0921
   1.1833E-02   1.2121E-02   6.7269E-05  0.1015
   1.2121E-02   1.2415E-02   6.0773E-05  0.1055
   1.2415E-02   1.2718E-02   7.0536E-05  0.0967
   1.2718E-02   1.3027E-02   6.4590E-05  0.0999
   1.3027E-02   1.3344E-02   5.4858E-05  0.1072
   1.3344E-02   1.3669E-02   7.0682E-05  0.0933
   1.3669E-02   1.4001E-02   6.3523E-05  0.0971
   1.4001E-02   1.4342E-02   6.3369E-05  0.0962
   1.4342E-02   1.4691E-02   5.8296E-05  0.0990
   1.4691E-02   1.5048E-02   6.0230E-05  0.0962
   1.5048E-02   1.5414E-02   4.9260E-05  0.1052
   1.5414E-02   1.5789E-02   4.5665E-05  0.1079
   1.5789E-02   1.6174E-02   6.0078E-05  0.0929
   1.6174E-02   1.6567E-02   5.7022E-05  0.0943
   1.6567E-02   1.6970E-02   5.9504E-05  0.0911
   1.6970E-02   1.7383E-02   5.1823E-05  0.0962
   1.7383E-02   1.7806E-02   4.6293E-05  0.1010
   1.7806E-02   1.8239E-02   5.3502E-05  0.0928
   1.8239E-02   1.8683E-02   4.4134E-05  0.1010
   1.8683E-02   1.9138E-02   3.6083E-05  0.1101
   1.9138E-02   1.9603E-02   3.9017E-05  0.1048
   1.9603E-02   2.0080E-02   3.3495E-05  0.1118
   2.0080E-02   2.0569E-02   4.3007E-05  0.0975
   2.0569E-02   2.1069E-02   4.1912E-05  0.0976
   2.1069E-02   2.1582E-02   3.7402E-05  0.1018
   2.1582E-02   2.2107E-02   4.8897E-05  0.0881
   2.2107E-02   2.2645E-02   3.9054E-05  0.0974
   2.2645E-02   2.3196E-02   3.4456E-05  0.1026
   2.3196E-02   2.3760E-02   4.0012E-05  0.0941
   2.3760E-02   2.4338E-02   3.9748E-05  0.0933
   2.4338E-02   2.4930E-02   3.4512E-05  0.0986
   2.4930E-02   2.5537E-02   3.6298E-05  0.0952
   2.5537E-02   2.6158E-02   2.9146E-05  0.1049
   2.6158E-02   2.6795E-02   3.7049E-05  0.0921
   2.6795E-02   2.7447E-02   3.2546E-05  0.0969
   2.7447E-02   2.8114E-02   3.4163E-05  0.0935
   2.8114E-02   2.8799E-02   2.6583E-05  0.1048
   2.8799E-02   2.9499E-02   3.0166E-05  0.0971
   2.9499E-02   3.0217E-02   3.2767E-05  0.0921
   3.0217E-02   3.0952E-02   2.7172E-05  0.1000
   3.0952E-02   3.1705E-02   2.7318E-05  0.0984
   3.1705E-02   3.2477E-02   2.5506E-05  0.1006
   3.2477E-02   3.3267E-02   3.0795E-05  0.0905
   3.3267E-02   3.4076E-02   2.5176E-05  0.0990
   3.4076E-02   3.4905E-02   2.8440E-05  0.0921
   3.4905E-02   3.5755E-02   2.6387E-05  0.0943
   3.5755E-02   3.6625E-02   2.5272E-05  0.0951
   3.6625E-02   3.7516E-02   2.0113E-05  0.1054
   3.7516E-02   3.8428E-02   2.1195E-05  0.1016
   3.8428E-02   3.9363E-02   1.9462E-05  0.1044
   3.9363E-02   4.0321E-02   2.2892E-05  0.0954
   4.0321E-02   4.1302E-02   2.0524E-05  0.0995
   4.1302E-02   4.2307E-02   2.4062E-05  0.0909
   4.2307E-02   4.3337E-02   2.1691E-05  0.0945
   4.3337E-02   4.4391E-02   2.4628E-05  0.0877
   4.4391E-02   4.5471E-02   1.7750E-05  0.1021
   4.5471E-02   4.6577E-02   2.0584E-05  0.0937
   4.6577E-02   4.7711E-02   1.8108E-05  0.0986
   4.7711E-02   4.8871E-02   1.8247E-05  0.0971
   4.8871E-02   5.0061E-02   1.8844E-05  0.0944
   5.0061E-02   5.1279E-02   1.7194E-05  0.0976
   5.1279E-02   5.2526E-02   2.0340E-05  0.0886
   5.2526E-02   5.3804E-02   1.6416E-05  0.0976
   5.3804E-02   5.5113E-02   1.8140E-05  0.0914
   5.5113E-02   5.6454E-02   1.4150E-05  0.1026
   5.6454E-02   5.7828E-02   1.4818E-05  0.0990
   5.7828E-02   5.9235E-02   1.6328E-05  0.0933
   5.9235E-02   6.0676E-02   1.4963E-05  0.0962
   6.0676E-02   6.2152E-02   1.4045E-05  0.0981
   6.2152E-02   6.3665E-02   1.1885E-05  0.1054
   6.3665E-02   6.5214E-02   1.5024E-05  0.0924
   6.5214E-02   6.6800E-02   1.2935E-05  0.0986
   6.6800E-02   6.8426E-02   1.7456E-05  0.0839
   6.8426E-02   7.0090E-02   1.5912E-05  0.0868
   7.0090E-02   7.1796E-02   1.2506E-05  0.0967
   7.1796E-02   7.3543E-02   1.2643E-05  0.0949
   7.3543E-02   7.5332E-02   1.2262E-05  0.0954
   7.5332E-02   7.7165E-02   1.2626E-05  0.0929
   7.7165E-02   7.9042E-02   1.2108E-05  0.0937
   7.9042E-02   8.0965E-02   1.0906E-05  0.0976
   8.0965E-02   8.2935E-02   1.1443E-05  0.0941
   8.2935E-02   8.4953E-02   1.0088E-05  0.0990
   8.4953E-02   8.7020E-02   9.6637E-06  0.1000
   8.7020E-02   8.9138E-02   1.1288E-05  0.0913
   8.9138E-02   9.1306E-02   9.6618E-06  0.0976
   9.1306E-02   9.3528E-02   1.0281E-05  0.0933
   9.3528E-02   9.5804E-02   1.0210E-05  0.0926
   9.5804E-02   9.8134E-02   1.0106E-05  0.0921
   9.8134E-02   1.0052E-01   1.0595E-05  0.0888
   1.0052E-01   1.0297E-01   1.0030E-05  0.0902
   1.0297E-01   1.0547E-01   1.0200E-05  0.0884
   1.0547E-01   1.0804E-01   1.2818E-05  0.0778
   1.0804E-01   1.1067E-01   1.0623E-05  0.0845
   1.1067E-01   1.1336E-01   1.2385E-05  0.0774
   1.1336E-01   1.1612E-01   1.2871E-05  0.0750
   1.1612E-01   1.1894E-01   1.3926E-05  0.0712
   1.1894E-01   1.2184E-01   1.3548E-05  0.0713
   1.2184E-01   1.2480E-01   1.3271E-05  0.0712
   1.2480E-01   1.2784E-01   1.5462E-05  0.0651
   1.2784E-01   1.3095E-01   1.5019E-05  0.0653
   1.3095E-01   1.3414E-01   1.5313E-05  0.0639
   1.3414E-01   1.3740E-01   1.5889E-05  0.0620
   1.3740E-01   1.4074E-01   1.6626E-05  0.0599
   1.4074E-01   1.4417E-01   1.7031E-05  0.0585
   1.4417E-01   1.4767E-01   1.6846E-05  0.0581
   1.4767E-01   1.5127E-01   1.8515E-05  0.0548
   1.5127E-01   1.5495E-01   1.9670E-05  0.0525
   1.5495E-01   1.5872E-01   2.0901E-05  0.0503
   1.5872E-01   1.6258E-01   1.9134E-05  0.0519
   1.6258E-01   1.6654E-01   2.1687E-05  0.0482
   1.6654E-01   1.7059E-01   2.1842E-05  0.0475
   1.7059E-01   1.7474E-01   2.1397E-05  0.0474
   1.7474E-01   1.7899E-01   2.2596E-05  0.0456
   1.7899E-01   1.8334E-01   2.3928E-05  0.0438
   1.8334E-01   1.8781E-01   2.2941E-05  0.0441
   1.8781E-01   1.9237E-01   2.5378E-05  0.0415
   1.9237E-01   1.9706E-01   2.5770E-05  0.0407
   1.9706E-01   2.0185E-01   2.5062E-05  0.0408
   2.0185E-01   2.0676E-01   2.6782E-05  0.0389
   2.0676E-01   2.1179E-01   2.8733E-05  0.0371
   2.1179E-01   2.1694E-01   2.8589E-05  0.0368
   2.1694E-01   2.2222E-01   2.7356E-05  0.0372
   2.2222E-01   2.2763E-01   2.9724E-05  0.0352
   2.2763E-01   2.3317E-01   3.0274E-05  0.0345
   2.3317E-01   2.3884E-01   3.1696E-05  0.0333
   2.3884E-01   2.4465E-01   3.0897E-05  0.0333
   2.4465E-01   2.5061E-01   3.0518E-05  0.0331
   2.5061E-01   2.5670E-01   3.2771E-05  0.0316
   2.5670E-01   2.6295E-01   3.0956E-05  0.0321
   2.6295E-01   2.6935E-01   3.4810E-05  0.0299
   2.6935E-01   2.7590E-01   3.2902E-05  0.0304
   2.7590E-01   2.8261E-01   3.5978E-05  0.0287
   2.8261E-01   2.8949E-01   3.6948E-05  0.0280
   2.8949E-01   2.9653E-01   3.4250E-05  0.0287
   2.9653E-01   3.0375E-01   3.7986E-05  0.0270
   3.0375E-01   3.1114E-01   3.7994E-05  0.0266
   3.1114E-01   3.1871E-01   3.8211E-05  0.0262
   3.1871E-01   3.2646E-01   3.7304E-05  0.0262
   3.2646E-01   3.3441E-01   3.9222E-05  0.0253
   3.3441E-01   3.4254E-01   4.0059E-05  0.0247
   3.4254E-01   3.5088E-01   4.1910E-05  0.0239
   3.5088E-01   3.5941E-01   4.1448E-05  0.0237
   3.5941E-01   3.6816E-01   3.9890E-05  0.0239
   3.6816E-01   3.7712E-01   4.2316E-05  0.0229
   3.7712E-01   3.8629E-01   4.0443E-05  0.0232
   3.8629E-01   3.9569E-01   4.4054E-05  0.0219
   3.9569E-01   4.0532E-01   4.6216E-05  0.0212
   4.0532E-01   4.1518E-01   4.5933E-05  0.0210
   4.1518E-01   4.2528E-01   4.6152E-05  0.0207
   4.2528E-01   4.3563E-01   4.5812E-05  0.0205
   4.3563E-01   4.4623E-01   4.5812E-05  0.0203
   4.4623E-01   4.5708E-01   4.8377E-05  0.0195
   4.5708E-01   4.6821E-01   4.6974E-05  0.0195
   4.6821E-01   4.7960E-01   4.7175E-05  0.0193
   4.7960E-01   4.9127E-01   4.7944E-05  0.0189
   4.9127E-01   5.0322E-01   4.9550E-05  0.0183
   5.0322E-01   5.1546E-01   4.8301E-05  0.0183
   5.1546E-01   5.2800E-01   4.8301E-05  0.0181
   5.2800E-01   5.4085E-01   4.9772E-05  0.0176
   5.4085E-01   5.5401E-01   4.8965E-05  0.0176
   5.5401E-01   5.6749E-01   5.0809E-05  0.0170
   5.6749E-01   5.8130E-01   5.1571E-05  0.0167
   5.8130E-01   5.9544E-01   5.0686E-05  0.0167
   5.9544E-01   6.0993E-01   5.0355E-05  0.0165
   6.0993E-01   6.2477E-01   5.0552E-05  0.0163
   6.2477E-01   6.3997E-01   5.0040E-05  0.0162
   6.3997E-01   6.5554E-01   5.1625E-05  0.0157
   6.5554E-01   6.7149E-01   5.0488E-05  0.0157
   6.7149E-01   6.8783E-01   5.2419E-05  0.0152
   6.8783E-01   7.0456E-01   5.2670E-05  0.0150
   7.0456E-01   7.2171E-01   5.2000E-05  0.0149
   7.2171E-01   7.3927E-01   5.0548E-05  0.0150
   7.3927E-01   7.5725E-01   5.1418E-05  0.0147
   7.5725E-01   7.7568E-01   5.0210E-05  0.0147
   7.7568E-01   7.9455E-01   5.0213E-05  0.0145
   7.9455E-01   8.1388E-01   5.1096E-05  0.0142
   8.1388E-01   8.3368E-01   5.1036E-05  0.0140
   8.3368E-01   8.5397E-01   5.0008E-05  0.0140
   8.5397E-01   8.7475E-01   4.8741E-05  0.0140
   8.7475E-01   8.9603E-01   4.9201E-05  0.0138
   8.9603E-01   9.1783E-01   4.7347E-05  0.0139
   9.1783E-01   9.4016E-01   4.6602E-05  0.0138
   9.4016E-01   9.6304E-01   4.7080E-05  0.0136
   9.6304E-01   9.8647E-01   4.4268E-05  0.0138
   9.8647E-01   1.0105E+00   4.3259E-05  0.0138
   1.0105E+00   1.0351E+00   4.1920E-05  0.0139
   1.0351E+00   1.0602E+00   4.3222E-05  0.0135
   1.0602E+00   1.0860E+00   4.1916E-05  0.0135
   1.0860E+00   1.1125E+00   4.2064E-05  0.0134
   1.1125E+00   1.1395E+00   4.1562E-05  0.0133
   1.1395E+00   1.1673E+00   4.3075E-05  0.0129
   1.1673E+00   1.1957E+00   4.4120E-05  0.0126
   1.1957E+00   1.2247E+00   4.3481E-05  0.0125
   1.2247E+00   1.2545E+00   4.2771E-05  0.0125
   1.2545E+00   1.2851E+00   4.4375E-05  0.0121
   1.2851E+00   1.3163E+00   4.3780E-05  0.0120
   1.3163E+00   1.3484E+00   4.3318E-05  0.0119
   1.3484E+00   1.3812E+00   4.3883E-05  0.0117
   1.3812E+00   1.4148E+00   4.4343E-05  0.0115
   1.4148E+00   1.4492E+00   4.3644E-05  0.0115
   1.4492E+00   1.4845E+00   4.3421E-05  0.0114
   1.4845E+00   1.5206E+00   4.2827E-05  0.0113
   1.5206E+00   1.5576E+00   4.3248E-05  0.0111
   1.5576E+00   1.5955E+00   4.2719E-05  0.0110
   1.5955E+00   1.6343E+00   4.2169E-05  0.0110
   1.6343E+00   1.6741E+00   4.2019E-05  0.0109
   1.6741E+00   1.7148E+00   4.1981E-05  0.0107
   1.7148E+00   1.7565E+00   4.1744E-05  0.0106
   1.7565E+00   1.7992E+00   4.0546E-05  0.0106
   1.7992E+00   1.8430E+00   3.9924E-05  0.0106
   1.8430E+00   1.8879E+00   3.8982E-05  0.0106
   1.8879E+00   1.9338E+00   3.7897E-05  0.0106
   1.9338E+00   1.9808E+00   3.8342E-05  0.0104
   1.9808E+00   2.0290E+00   3.7501E-05  0.0104
   2.0290E+00   2.0784E+00   3.7335E-05  0.0103
   2.0784E+00   2.1290E+00   3.7509E-05  0.0101
   2.1290E+00   2.1808E+00   3.7707E-05  0.0100
   2.1808E+00   2.2338E+00   3.7526E-05  0.0099
   2.2338E+00   2.2882E+00   3.6588E-05  0.0099
   2.2882E+00   2.3439E+00   3.6573E-05  0.0098
   2.3439E+00   2.4009E+00   3.6532E-05  0.0097
   2.4009E+00   2.4593E+00   3.6997E-05  0.0095
   2.4593E+00   2.5191E+00   3.6347E-05  0.0095
   2.5191E+00   2.5804E+00   3.5635E-05  0.0095
   2.5804E+00   2.6432E+00   3.6065E-05  0.0093
   2.6432E+00   2.7075E+00   3.5160E-05  0.0093
   2.7075E+00   2.7734E+00   3.5253E-05  0.0092
   2.7734E+00   2.8409E+00   3.5223E-05  0.0091
   2.8409E+00   2.9100E+00   3.4916E-05  0.0090
   2.9100E+00   2.9808E+00   3.4362E-05  0.0090
   2.9808E+00   3.0533E+00   3.4433E-05  0.0089
   3.0533E+00   3.1276E+00   3.3946E-05  0.0088
   3.1276E+00   3.2037E+00   3.4117E-05  0.0087
   3.2037E+00   3.2817E+00   3.4016E-05  0.0086
   3.2817E+00   3.3615E+00   3.3540E-05  0.0086
   3.3615E+00   3.4433E+00   3.3128E-05  0.0085
   3.4433E+00   3.5271E+00   3.3071E-05  0.0084
   3.5271E+00   3.6129E+00   3.2270E-05  0.0084
   3.6129E+00   3.7008E+00   3.2143E-05  0.0084
   3.7008E+00   3.7908E+00   3.2450E-05  0.0082
   3.7908E+00   3.8831E+00   3.1754E-05  0.0082
   3.8831E+00   3.9776E+00   3.1323E-05  0.0082
   3.9776E+00   4.0743E+00   3.1044E-05  0.0081
   4.0743E+00   4.1735E+00   3.0626E-05  0.0081
   4.1735E+00   4.2750E+00   2.9837E-05  0.0081
   4.2750E+00   4.3790E+00   3.0368E-05  0.0079
   4.3790E+00   4.4856E+00   2.9654E-05  0.0079
   4.4856E+00   4.5947E+00   2.9331E-05  0.0079
   4.5947E+00   4.7065E+00   2.8923E-05  0.0078
   4.7065E+00   4.8210E+00   2.8612E-05  0.0078
   4.8210E+00   4.9383E+00   2.8239E-05  0.0077
   4.9383E+00   5.0585E+00   2.7696E-05  0.0077
   5.0585E+00   5.1815E+00   2.7726E-05  0.0076
   5.1815E+00   5.3076E+00   2.7583E-05  0.0075
   5.3076E+00   5.4368E+00   2.6925E-05  0.0075
   5.4368E+00   5.5690E+00   2.6666E-05  0.0075
   5.5690E+00   5.7045E+00   2.6630E-05  0.0074
   5.7045E+00   5.8433E+00   2.6447E-05  0.0073
   5.8433E+00   5.9855E+00   2.5943E-05  0.0073
   5.9855E+00   6.1311E+00   2.5841E-05  0.0073
   6.1311E+00   6.2803E+00   2.5099E-05  0.0073
   6.2803E+00   6.4331E+00   2.5264E-05  0.0072
   6.4331E+00   6.5896E+00   2.4921E-05  0.0071
   6.5896E+00   6.7500E+00   2.4542E-05  0.0071
   6.7500E+00   6.9142E+00   2.3885E-05  0.0071
   6.9142E+00   7.0824E+00   2.3999E-05  0.0070
   7.0824E+00   7.2548E+00   2.3651E-05  0.0070
   7.2548E+00   7.4313E+00   2.3425E-05  0.0069
   7.4313E+00   7.6121E+00   2.2995E-05  0.0069
   7.6121E+00   7.7973E+00   2.2662E-05  0.0069
   7.7973E+00   7.9870E+00   2.2435E-05  0.0068
   7.9870E+00   8.1813E+00   2.1901E-05  0.0068
   8.1813E+00   8.3804E+00   2.1815E-05  0.0068
   8.3804E+00   8.5843E+00   2.1560E-05  0.0067
   8.5843E+00   8.7931E+00   2.1222E-05  0.0067
   8.7931E+00   9.0071E+00   2.0958E-05  0.0067
   9.0071E+00   9.2262E+00   2.0438E-05  0.0067
   9.2262E+00   9.4507E+00   2.0253E-05  0.0066
   9.4507E+00   9.6807E+00   1.9831E-05  0.0066
   9.6807E+00   9.9162E+00   1.9525E-05  0.0066
   9.9162E+00   1.0157E+01   1.9751E-05  0.0065
   1.0157E+01   1.0405E+01   1.9537E-05  0.0064
   1.0405E+01   1.0658E+01   1.9211E-05  0.0064
   1.0658E+01   1.0917E+01   1.8796E-05  0.0064
   1.0917E+01   1.1183E+01   1.8417E-05  0.0064
   1.1183E+01   1.1455E+01   1.8423E-05  0.0063
   1.1455E+01   1.1733E+01   1.8152E-05  0.0063
   1.1733E+01   1.2019E+01   1.7860E-05  0.0063
   1.2019E+01   1.2311E+01   1.7581E-05  0.0062
   1.2311E+01   1.2611E+01   1.7635E-05  0.0061
   1.2611E+01   1.2918E+01   1.7332E-05  0.0061
   1.2918E+01   1.3232E+01   1.7204E-05  0.0061
   1.3232E+01   1.3554E+01   1.6795E-05  0.0061
   1.3554E+01   1.3884E+01   1.6779E-05  0.0060
   1.3884E+01   1.4222E+01   1.6481E-05  0.0060
   1.4222E+01   1.4568E+01   1.6193E-05  0.0060
   1.4568E+01   1.4922E+01   1.6145E-05  0.0059
   1.4922E+01   1.5285E+01   1.5828E-05  0.0059
   1.5285E+01   1.5657E+01   1.5706E-05  0.0058
   1.5657E+01   1.6038E+01   1.5439E-05  0.0058
   1.6038E+01   1.6428E+01   1.5353E-05  0.0058
   1.6428E+01   1.6828E+01   1.5029E-05  0.0058
   1.6828E+01   1.7237E+01   1.4569E-05  0.0058
   1.7237E+01   1.7657E+01   1.4513E-05  0.0057
   1.7657E+01   1.8086E+01   1.4261E-05  0.0057
   1.8086E+01   1.8526E+01   1.4058E-05  0.0057
   1.8526E+01   1.8977E+01   1.3732E-05  0.0057
   1.8977E+01   1.9439E+01   1.3550E-05  0.0057
   1.9439E+01   1.9912E+01   1.3439E-05  0.0056
   1.9912E+01   2.0396E+01   1.3080E-05  0.0056
   2.0396E+01   2.0893E+01   1.2830E-05  0.0056
   2.0893E+01   2.1401E+01   1.2501E-05  0.0056
   2.1401E+01   2.1922E+01   1.2285E-05  0.0056
   2.1922E+01   2.2455E+01   1.1974E-05  0.0056
   2.2455E+01   2.3001E+01   1.1665E-05  0.0056
   2.3001E+01   2.3561E+01   1.1345E-05  0.0056
   2.3561E+01   2.4134E+01   1.1019E-05  0.0056
   2.4134E+01   2.4721E+01   1.0685E-05  0.0056
   2.4721E+01   2.5323E+01   1.0403E-05  0.0057
   2.5323E+01   2.5939E+01   1.0087E-05  0.0057
   2.5939E+01   2.6570E+01   9.7630E-06  0.0057
   2.6570E+01   2.7217E+01   9.3272E-06  0.0058
   2.7217E+01   2.7879E+01   9.1401E-06  0.0057
   2.7879E+01   2.8557E+01   1.0411E-05  0.0053
   2.8557E+01   2.9252E+01   1.1297E-05  0.0050
   2.9252E+01   2.9964E+01   1.0948E-05  0.0051
   2.9964E+01   3.0693E+01   1.0787E-05  0.0050
   3.0693E+01   3.1440E+01   1.0535E-05  0.0050
   3.1440E+01   3.2205E+01   1.0417E-05  0.0050
   3.2205E+01   3.2988E+01   9.9852E-06  0.0051
   3.2988E+01   3.3791E+01   9.8497E-06  0.0050
   3.3791E+01   3.4613E+01   9.6471E-06  0.0050
   3.4613E+01   3.5455E+01   9.4282E-06  0.0050
   3.5455E+01   3.6318E+01   9.2246E-06  0.0050
   3.6318E+01   3.7201E+01   8.9335E-06  0.0050
   3.7201E+01   3.8106E+01   8.7638E-06  0.0050
   3.8106E+01   3.9034E+01   8.4415E-06  0.0051
   3.9034E+01   3.9983E+01   8.2490E-06  0.0051
   3.9983E+01   4.0956E+01   7.9155E-06  0.0051
   4.0956E+01   4.1953E+01   7.6233E-06  0.0051
   4.1953E+01   4.2973E+01   7.3490E-06  0.0052
   4.2973E+01   4.4019E+01   7.0030E-06  0.0052
   4.4019E+01   4.5090E+01   6.6935E-06  0.0053
   4.5090E+01   4.6187E+01   6.3286E-06  0.0054
   4.6187E+01   4.7311E+01   5.9665E-06  0.0055
   4.7311E+01   4.8462E+01   4.6977E-06  0.0061
   4.8462E+01   4.9641E+01   2.5824E-06  0.0081
   4.9641E+01   5.0849E+01   2.1348E-06  0.0088
   5.0849E+01   5.2086E+01   1.8603E-06  0.0093
   5.2086E+01   5.3353E+01   1.3657E-06  0.0107
   5.3353E+01   5.4651E+01   0.0000E+00  0.0000
   5.4651E+01   5.5981E+01   0.0000E+00  0.0000
   5.5981E+01   5.7343E+01   0.0000E+00  0.0000
   5.7343E+01   5.8738E+01   0.0000E+00  0.0000
   5.8738E+01   6.0168E+01   0.0000E+00  0.0000
   6.0168E+01   6.1632E+01   0.0000E+00  0.0000
   6.1632E+01   6.3131E+01   0.0000E+00  0.0000
   6.3131E+01   6.4667E+01   0.0000E+00  0.0000
   6.4667E+01   6.6240E+01   0.0000E+00  0.0000
   6.6240E+01   6.7852E+01   0.0000E+00  0.0000
   6.7852E+01   6.9503E+01   0.0000E+00  0.0000
   6.9503E+01   7.1194E+01   0.0000E+00  0.0000
   7.1194E+01   7.2926E+01   0.0000E+00  0.0000
   7.2926E+01   7.4701E+01   0.0000E+00  0.0000
   7.4701E+01   7.6518E+01   0.0000E+00  0.0000
   7.6518E+01   7.8380E+01   0.0000E+00  0.0000
   7.8380E+01   8.0287E+01   0.0000E+00  0.0000
   8.0287E+01   8.2240E+01   0.0000E+00  0.0000
   8.2240E+01   8.4241E+01   0.0000E+00  0.0000
   8.4241E+01   8.6291E+01   0.0000E+00  0.0000
   8.6291E+01   8.8391E+01   0.0000E+00  0.0000
   8.8391E+01   9.0541E+01   0.0000E+00  0.0000
   9.0541E+01   9.2744E+01   0.0000E+00  0.0000
   9.2744E+01   9.5001E+01   0.0000E+00  0.0000
   9.5001E+01   9.7312E+01   0.0000E+00  0.0000
   9.7312E+01   9.9680E+01   0.0000E+00  0.0000
   9.9680E+01   1.0211E+02   0.0000E+00  0.0000
   1.0211E+02   1.0459E+02   0.0000E+00  0.0000
   1.0459E+02   1.0713E+02   0.0000E+00  0.0000
   1.0713E+02   1.0974E+02   0.0000E+00  0.0000
   1.0974E+02   1.1241E+02   0.0000E+00  0.0000
   1.1241E+02   1.1515E+02   0.0000E+00  0.0000
   1.1515E+02   1.1795E+02   0.0000E+00  0.0000
   1.1795E+02   1.2082E+02   0.0000E+00  0.0000
   1.2082E+02   1.2376E+02   0.0000E+00  0.0000
   1.2376E+02   1.2677E+02   0.0000E+00  0.0000
   1.2677E+02   1.2985E+02   0.0000E+00  0.0000
   1.2985E+02   1.3301E+02   0.0000E+00  0.0000
   1.3301E+02   1.3625E+02   0.0000E+00  0.0000
   1.3625E+02   1.3956E+02   0.0000E+00  0.0000
   1.3956E+02   1.4296E+02   0.0000E+00  0.0000
   1.4296E+02   1.4644E+02   0.0000E+00  0.0000
   1.4644E+02   1.5000E+02   0.0000E+00  0.0000

#   sum over                 4.8528E-06
'no. =    1   reg = 104 - 204'
msuc: {\huge [t-cross] in region mesh}
msdr: {\it plotted by \ANGEL \version}
msdl: {\it calculated by \PHITS  3.26}
wt: s(0.7)
\vspace{-3}
  region surface crossing
  area  &=&   1.0000E+00 [cm^2]
e:
 
# Information for Restart Calculation
# This calculation was newly started
# istdev =  2 # 1:Batch variance, 2:History variance
# resc2  = 5.00000000000000000E+09 # Total source weight or Total source weight / maxcas
# resc3  = 5.00000000000000000E+09 # Total history number or Total batch number
# maxcas =   100000000 # History / Batch, only used for istdev=1
# bitrseed = 0110100000100010111000001110001111001110100100011111101000111001 # bit data of rseed
