[ T-Cross ]
    title = [t-cross] in region mesh
     mesh =  reg            # mesh type is region-wise
      reg =    1            # number of crossing regions
      non     r-from    r-to       area
      1       114       214        1.000000    
   e-type =    3            # e-mesh is log given by emin, emax and ne
     emin =  1.0000000E-02  # minimum value of e-mesh points
     emax =   150.0000      # maximum value of e-mesh points
#    edel =  2.4039514E-02  # mesh width of e-mesh points
       ne =    400          # number of e-mesh points
#    data = ( e(i), i = 1, ne + 1 )
#           1.00000E-02  1.02433E-02  1.04925E-02  1.07478E-02  1.10093E-02
#           1.12772E-02  1.15516E-02  1.18326E-02  1.21205E-02  1.24154E-02
#           1.27175E-02  1.30269E-02  1.33439E-02  1.36686E-02  1.40011E-02
#           1.43418E-02  1.46907E-02  1.50482E-02  1.54143E-02  1.57894E-02
#           1.61735E-02  1.65670E-02  1.69701E-02  1.73830E-02  1.78060E-02
#           1.82392E-02  1.86830E-02  1.91375E-02  1.96032E-02  2.00801E-02
#           2.05687E-02  2.10692E-02  2.15818E-02  2.21069E-02  2.26448E-02
#           2.31957E-02  2.37601E-02  2.43382E-02  2.49304E-02  2.55369E-02
#           2.61583E-02  2.67947E-02  2.74467E-02  2.81145E-02  2.87985E-02
#           2.94992E-02  3.02169E-02  3.09521E-02  3.17052E-02  3.24766E-02
#           3.32668E-02  3.40762E-02  3.49053E-02  3.57546E-02  3.66246E-02
#           3.75157E-02  3.84284E-02  3.93634E-02  4.03212E-02  4.13022E-02
#           4.23071E-02  4.33365E-02  4.43909E-02  4.54710E-02  4.65773E-02
#           4.77106E-02  4.88714E-02  5.00605E-02  5.12785E-02  5.25262E-02
#           5.38042E-02  5.51133E-02  5.64542E-02  5.78278E-02  5.92348E-02
#           6.06760E-02  6.21523E-02  6.36645E-02  6.52135E-02  6.68002E-02
#           6.84255E-02  7.00904E-02  7.17957E-02  7.35426E-02  7.53319E-02
#           7.71648E-02  7.90423E-02  8.09655E-02  8.29354E-02  8.49533E-02
#           8.70203E-02  8.91376E-02  9.13064E-02  9.35279E-02  9.58035E-02
#           9.81345E-02  1.00522E-01  1.02968E-01  1.05473E-01  1.08040E-01
#           1.10668E-01  1.13361E-01  1.16119E-01  1.18944E-01  1.21838E-01
#           1.24803E-01  1.27839E-01  1.30950E-01  1.34136E-01  1.37399E-01
#           1.40742E-01  1.44167E-01  1.47675E-01  1.51268E-01  1.54948E-01
#           1.58718E-01  1.62580E-01  1.66535E-01  1.70587E-01  1.74738E-01
#           1.78989E-01  1.83344E-01  1.87805E-01  1.92375E-01  1.97055E-01
#           2.01850E-01  2.06761E-01  2.11792E-01  2.16945E-01  2.22223E-01
#           2.27630E-01  2.33169E-01  2.38842E-01  2.44653E-01  2.50605E-01
#           2.56703E-01  2.62949E-01  2.69346E-01  2.75900E-01  2.82613E-01
#           2.89489E-01  2.96532E-01  3.03747E-01  3.11138E-01  3.18708E-01
#           3.26462E-01  3.34405E-01  3.42542E-01  3.50876E-01  3.59413E-01
#           3.68158E-01  3.77116E-01  3.86291E-01  3.95690E-01  4.05317E-01
#           4.15179E-01  4.25281E-01  4.35628E-01  4.46227E-01  4.57084E-01
#           4.68205E-01  4.79597E-01  4.91266E-01  5.03219E-01  5.15463E-01
#           5.28005E-01  5.40851E-01  5.54011E-01  5.67490E-01  5.81298E-01
#           5.95441E-01  6.09929E-01  6.24769E-01  6.39970E-01  6.55541E-01
#           6.71491E-01  6.87828E-01  7.04564E-01  7.21706E-01  7.39266E-01
#           7.57253E-01  7.75678E-01  7.94551E-01  8.13883E-01  8.33685E-01
#           8.53969E-01  8.74747E-01  8.96030E-01  9.17831E-01  9.40163E-01
#           9.63038E-01  9.86469E-01  1.01047E+00  1.03506E+00  1.06024E+00
#           1.08604E+00  1.11246E+00  1.13953E+00  1.16725E+00  1.19565E+00
#           1.22474E+00  1.25454E+00  1.28507E+00  1.31633E+00  1.34836E+00
#           1.38117E+00  1.41477E+00  1.44920E+00  1.48446E+00  1.52057E+00
#           1.55757E+00  1.59547E+00  1.63429E+00  1.67405E+00  1.71478E+00
#           1.75650E+00  1.79924E+00  1.84302E+00  1.88786E+00  1.93379E+00
#           1.98084E+00  2.02904E+00  2.07841E+00  2.12898E+00  2.18078E+00
#           2.23384E+00  2.28819E+00  2.34386E+00  2.40089E+00  2.45930E+00
#           2.51914E+00  2.58043E+00  2.64322E+00  2.70753E+00  2.77341E+00
#           2.84088E+00  2.91001E+00  2.98081E+00  3.05333E+00  3.12762E+00
#           3.20372E+00  3.28167E+00  3.36152E+00  3.44330E+00  3.52708E+00
#           3.61290E+00  3.70080E+00  3.79085E+00  3.88308E+00  3.97756E+00
#           4.07434E+00  4.17347E+00  4.27501E+00  4.37903E+00  4.48557E+00
#           4.59471E+00  4.70650E+00  4.82102E+00  4.93832E+00  5.05847E+00
#           5.18155E+00  5.30762E+00  5.43676E+00  5.56904E+00  5.70453E+00
#           5.84333E+00  5.98550E+00  6.13114E+00  6.28031E+00  6.43312E+00
#           6.58964E+00  6.74997E+00  6.91420E+00  7.08243E+00  7.25475E+00
#           7.43126E+00  7.61207E+00  7.79728E+00  7.98700E+00  8.18133E+00
#           8.38038E+00  8.58428E+00  8.79315E+00  9.00709E+00  9.22624E+00
#           9.45072E+00  9.68067E+00  9.91620E+00  1.01575E+01  1.04046E+01
#           1.06578E+01  1.09171E+01  1.11827E+01  1.14548E+01  1.17335E+01
#           1.20190E+01  1.23114E+01  1.26109E+01  1.29178E+01  1.32321E+01
#           1.35540E+01  1.38838E+01  1.42216E+01  1.45676E+01  1.49221E+01
#           1.52851E+01  1.56570E+01  1.60380E+01  1.64282E+01  1.68279E+01
#           1.72374E+01  1.76568E+01  1.80864E+01  1.85264E+01  1.89772E+01
#           1.94389E+01  1.99119E+01  2.03963E+01  2.08926E+01  2.14009E+01
#           2.19216E+01  2.24550E+01  2.30014E+01  2.35610E+01  2.41343E+01
#           2.47215E+01  2.53230E+01  2.59391E+01  2.65702E+01  2.72167E+01
#           2.78789E+01  2.85572E+01  2.92520E+01  2.99637E+01  3.06928E+01
#           3.14396E+01  3.22045E+01  3.29881E+01  3.37907E+01  3.46128E+01
#           3.54550E+01  3.63177E+01  3.72013E+01  3.81064E+01  3.90336E+01
#           3.99833E+01  4.09561E+01  4.19526E+01  4.29734E+01  4.40189E+01
#           4.50900E+01  4.61870E+01  4.73108E+01  4.84619E+01  4.96410E+01
#           5.08488E+01  5.20860E+01  5.33533E+01  5.46514E+01  5.59812E+01
#           5.73432E+01  5.87384E+01  6.01676E+01  6.16315E+01  6.31311E+01
#           6.46671E+01  6.62405E+01  6.78522E+01  6.95031E+01  7.11941E+01
#           7.29263E+01  7.47007E+01  7.65182E+01  7.83800E+01  8.02870E+01
#           8.22405E+01  8.42414E+01  8.62911E+01  8.83906E+01  9.05412E+01
#           9.27442E+01  9.50007E+01  9.73122E+01  9.96799E+01  1.02105E+02
#           1.04589E+02  1.07134E+02  1.09741E+02  1.12411E+02  1.15146E+02
#           1.17948E+02  1.20817E+02  1.23757E+02  1.26768E+02  1.29852E+02
#           1.33012E+02  1.36248E+02  1.39563E+02  1.42959E+02  1.46437E+02
#           1.50000E+02
     unit =    2            # unit is [1/cm^2/(MeV/n)/source]
     axis =  eng            # axis of output
     file = detector-15.out  # file name of output for the above axis
   output = f-curr          # surface crossing forward current spectrum
     part =  neutron  
# kf/name :  2112     
#    used :        main (  %)        temp (  %)       total (  %)
#  memory :         414 (  0)           0 (  0)         414 (  0)

#------------------------------------------------------------------------------
#newpage:
#   no. =    1   reg = 114 - 214

x: Energy [MeV/n]
y:  F-Curr [1/cm^2/(MeV/n)/source]         
p: xlog ylog afac(0.8) form(0.9)
h: n            x            y(neutron ),hh0l   n 
#  e-lower      e-upper      neutron     r.err 
   1.0000E-02   1.0243E-02   9.5524E-05  0.0926
   1.0243E-02   1.0493E-02   9.8828E-05  0.0899
   1.0493E-02   1.0748E-02   9.7061E-05  0.0897
   1.0748E-02   1.1009E-02   9.1646E-05  0.0912
   1.1009E-02   1.1277E-02   9.2556E-05  0.0895
   1.1277E-02   1.1552E-02   8.9495E-05  0.0900
   1.1552E-02   1.1833E-02   9.3913E-05  0.0868
   1.1833E-02   1.2121E-02   8.0001E-05  0.0929
   1.2121E-02   1.2415E-02   7.9917E-05  0.0921
   1.2415E-02   1.2718E-02   7.3304E-05  0.0949
   1.2718E-02   1.3027E-02   7.8438E-05  0.0906
   1.3027E-02   1.3344E-02   8.2271E-05  0.0875
   1.3344E-02   1.3669E-02   7.9094E-05  0.0881
   1.3669E-02   1.4001E-02   7.0767E-05  0.0921
   1.4001E-02   1.4342E-02   6.9804E-05  0.0914
   1.4342E-02   1.4691E-02   6.8945E-05  0.0909
   1.4691E-02   1.5048E-02   7.4948E-05  0.0861
   1.5048E-02   1.5414E-02   7.0405E-05  0.0879
   1.5414E-02   1.5789E-02   6.5183E-05  0.0902
   1.5789E-02   1.6174E-02   6.0950E-05  0.0919
   1.6174E-02   1.6567E-02   6.6203E-05  0.0874
   1.6567E-02   1.6970E-02   5.7287E-05  0.0929
   1.6970E-02   1.7383E-02   5.6674E-05  0.0923
   1.7383E-02   1.7806E-02   6.2308E-05  0.0869
   1.7806E-02   1.8239E-02   6.4111E-05  0.0847
   1.8239E-02   1.8683E-02   5.3579E-05  0.0917
   1.8683E-02   1.9138E-02   5.6563E-05  0.0879
   1.9138E-02   1.9603E-02   5.8284E-05  0.0856
   1.9603E-02   2.0080E-02   5.0569E-05  0.0907
   2.0080E-02   2.0569E-02   4.3748E-05  0.0967
   2.0569E-02   2.1069E-02   4.6952E-05  0.0921
   2.1069E-02   2.1582E-02   4.7102E-05  0.0908
   2.1582E-02   2.2107E-02   4.7751E-05  0.0890
   2.2107E-02   2.2645E-02   5.0572E-05  0.0855
   2.2645E-02   2.3196E-02   4.7386E-05  0.0874
   2.3196E-02   2.3760E-02   4.9395E-05  0.0845
   2.3760E-02   2.4338E-02   4.6266E-05  0.0862
   2.4338E-02   2.4930E-02   3.9316E-05  0.0925
   2.4930E-02   2.5537E-02   4.8116E-05  0.0827
   2.5537E-02   2.6158E-02   4.4452E-05  0.0848
   2.6158E-02   2.6795E-02   3.8162E-05  0.0905
   2.6795E-02   2.7447E-02   4.0392E-05  0.0870
   2.7447E-02   2.8114E-02   4.3933E-05  0.0824
   2.8114E-02   2.8799E-02   3.2883E-05  0.0940
   2.8799E-02   2.9499E-02   2.9744E-05  0.0977
   2.9499E-02   3.0217E-02   3.2756E-05  0.0921
   3.0217E-02   3.0952E-02   3.5925E-05  0.0868
   3.0952E-02   3.1705E-02   3.2856E-05  0.0897
   3.1705E-02   3.2477E-02   2.8208E-05  0.0958
   3.2477E-02   3.3267E-02   3.8684E-05  0.0807
   3.3267E-02   3.4076E-02   3.2983E-05  0.0864
   3.4076E-02   3.4905E-02   3.2624E-05  0.0858
   3.4905E-02   3.5755E-02   3.3110E-05  0.0841
   3.5755E-02   3.6625E-02   2.7962E-05  0.0905
   3.6625E-02   3.7516E-02   2.9709E-05  0.0866
   3.7516E-02   3.8428E-02   2.9483E-05  0.0861
   3.8428E-02   3.9363E-02   2.9052E-05  0.0856
   3.9363E-02   4.0321E-02   2.4732E-05  0.0917
   4.0321E-02   4.1302E-02   2.7223E-05  0.0864
   4.1302E-02   4.2307E-02   2.5653E-05  0.0878
   4.2307E-02   4.3337E-02   2.3976E-05  0.0898
   4.3337E-02   4.4391E-02   2.5634E-05  0.0858
   4.4391E-02   4.5471E-02   2.4505E-05  0.0868
   4.5471E-02   4.6577E-02   2.3020E-05  0.0884
   4.6577E-02   4.7711E-02   2.7561E-05  0.0798
   4.7711E-02   4.8871E-02   2.5830E-05  0.0814
   4.8871E-02   5.0061E-02   2.5600E-05  0.0808
   5.0061E-02   5.1279E-02   2.7330E-05  0.0774
   5.1279E-02   5.2526E-02   2.1057E-05  0.0870
   5.2526E-02   5.3804E-02   2.3270E-05  0.0817
   5.3804E-02   5.5113E-02   2.2844E-05  0.0817
   5.5113E-02   5.6454E-02   2.1423E-05  0.0833
   5.6454E-02   5.7828E-02   2.0349E-05  0.0843
   5.7828E-02   5.9235E-02   2.0980E-05  0.0822
   5.9235E-02   6.0676E-02   2.0641E-05  0.0819
   6.0676E-02   6.2152E-02   2.1243E-05  0.0796
   6.2152E-02   6.3665E-02   2.1499E-05  0.0783
   6.3665E-02   6.5214E-02   1.7846E-05  0.0849
   6.5214E-02   6.6800E-02   1.7885E-05  0.0837
   6.6800E-02   6.8426E-02   2.0165E-05  0.0780
   6.8426E-02   7.0090E-02   1.8144E-05  0.0811
   7.0090E-02   7.1796E-02   1.7615E-05  0.0814
   7.1796E-02   7.3543E-02   1.8252E-05  0.0791
   7.3543E-02   7.5332E-02   1.8037E-05  0.0785
   7.5332E-02   7.7165E-02   1.6931E-05  0.0801
   7.7165E-02   7.9042E-02   1.6404E-05  0.0802
   7.9042E-02   8.0965E-02   1.8622E-05  0.0744
   8.0965E-02   8.2935E-02   1.8110E-05  0.0748
   8.2935E-02   8.4953E-02   1.7699E-05  0.0748
   8.4953E-02   8.7020E-02   1.3949E-05  0.0829
   8.7020E-02   8.9138E-02   1.4995E-05  0.0792
   8.9138E-02   9.1306E-02   1.4516E-05  0.0796
   9.1306E-02   9.3528E-02   1.5452E-05  0.0761
   9.3528E-02   9.5804E-02   1.6943E-05  0.0718
   9.5804E-02   9.8134E-02   1.3452E-05  0.0798
   9.8134E-02   1.0052E-01   1.6278E-05  0.0716
   1.0052E-01   1.0297E-01   1.6700E-05  0.0699
   1.0297E-01   1.0547E-01   1.4664E-05  0.0735
   1.0547E-01   1.0804E-01   1.4260E-05  0.0738
   1.0804E-01   1.1067E-01   1.9118E-05  0.0630
   1.1067E-01   1.1336E-01   1.7334E-05  0.0654
   1.1336E-01   1.1612E-01   2.1014E-05  0.0586
   1.1612E-01   1.1894E-01   2.0290E-05  0.0590
   1.1894E-01   1.2184E-01   1.9012E-05  0.0602
   1.2184E-01   1.2480E-01   2.0230E-05  0.0576
   1.2480E-01   1.2784E-01   2.2936E-05  0.0535
   1.2784E-01   1.3095E-01   2.3138E-05  0.0526
   1.3095E-01   1.3414E-01   2.3589E-05  0.0515
   1.3414E-01   1.3740E-01   2.8240E-05  0.0465
   1.3740E-01   1.4074E-01   2.7927E-05  0.0462
   1.4074E-01   1.4417E-01   3.0360E-05  0.0438
   1.4417E-01   1.4767E-01   2.9664E-05  0.0437
   1.4767E-01   1.5127E-01   2.8796E-05  0.0439
   1.5127E-01   1.5495E-01   3.1048E-05  0.0418
   1.5495E-01   1.5872E-01   3.2611E-05  0.0403
   1.5872E-01   1.6258E-01   3.5353E-05  0.0382
   1.6258E-01   1.6654E-01   3.5229E-05  0.0378
   1.6654E-01   1.7059E-01   3.6175E-05  0.0369
   1.7059E-01   1.7474E-01   3.9073E-05  0.0350
   1.7474E-01   1.7899E-01   4.2476E-05  0.0332
   1.7899E-01   1.8334E-01   4.3872E-05  0.0323
   1.8334E-01   1.8781E-01   4.5399E-05  0.0314
   1.8781E-01   1.9237E-01   4.7596E-05  0.0303
   1.9237E-01   1.9706E-01   5.0475E-05  0.0291
   1.9706E-01   2.0185E-01   5.0873E-05  0.0286
   2.0185E-01   2.0676E-01   5.3602E-05  0.0275
   2.0676E-01   2.1179E-01   5.8674E-05  0.0260
   2.1179E-01   2.1694E-01   5.9581E-05  0.0255
   2.1694E-01   2.2222E-01   6.1820E-05  0.0247
   2.2222E-01   2.2763E-01   6.5983E-05  0.0236
   2.2763E-01   2.3317E-01   6.7865E-05  0.0230
   2.3317E-01   2.3884E-01   7.2405E-05  0.0220
   2.3884E-01   2.4465E-01   7.2647E-05  0.0217
   2.4465E-01   2.5061E-01   7.6381E-05  0.0209
   2.5061E-01   2.5670E-01   7.8944E-05  0.0203
   2.5670E-01   2.6295E-01   8.4113E-05  0.0195
   2.6295E-01   2.6935E-01   8.6370E-05  0.0190
   2.6935E-01   2.7590E-01   9.0415E-05  0.0183
   2.7590E-01   2.8261E-01   9.3982E-05  0.0178
   2.8261E-01   2.8949E-01   9.5386E-05  0.0174
   2.8949E-01   2.9653E-01   1.0102E-04  0.0167
   2.9653E-01   3.0375E-01   1.0209E-04  0.0164
   3.0375E-01   3.1114E-01   1.0353E-04  0.0161
   3.1114E-01   3.1871E-01   1.1173E-04  0.0154
   3.1871E-01   3.2646E-01   1.1461E-04  0.0150
   3.2646E-01   3.3441E-01   1.1362E-04  0.0149
   3.3441E-01   3.4254E-01   1.2330E-04  0.0141
   3.4254E-01   3.5088E-01   1.2800E-04  0.0137
   3.5088E-01   3.5941E-01   1.3207E-04  0.0133
   3.5941E-01   3.6816E-01   1.3261E-04  0.0131
   3.6816E-01   3.7712E-01   1.3735E-04  0.0127
   3.7712E-01   3.8629E-01   1.3866E-04  0.0125
   3.8629E-01   3.9569E-01   1.4476E-04  0.0121
   3.9569E-01   4.0532E-01   1.5046E-04  0.0117
   4.0532E-01   4.1518E-01   1.5367E-04  0.0115
   4.1518E-01   4.2528E-01   1.5557E-04  0.0113
   4.2528E-01   4.3563E-01   1.5573E-04  0.0111
   4.3563E-01   4.4623E-01   1.6052E-04  0.0108
   4.4623E-01   4.5708E-01   1.6360E-04  0.0106
   4.5708E-01   4.6821E-01   1.6714E-04  0.0103
   4.6821E-01   4.7960E-01   1.6811E-04  0.0102
   4.7960E-01   4.9127E-01   1.7159E-04  0.0100
   4.9127E-01   5.0322E-01   1.7446E-04  0.0098
   5.0322E-01   5.1546E-01   1.7554E-04  0.0096
   5.1546E-01   5.2800E-01   1.8124E-04  0.0094
   5.2800E-01   5.4085E-01   1.7997E-04  0.0093
   5.4085E-01   5.5401E-01   1.8438E-04  0.0091
   5.5401E-01   5.6749E-01   1.8503E-04  0.0089
   5.6749E-01   5.8130E-01   1.8861E-04  0.0087
   5.8130E-01   5.9544E-01   1.8920E-04  0.0086
   5.9544E-01   6.0993E-01   1.9244E-04  0.0084
   6.0993E-01   6.2477E-01   1.9313E-04  0.0083
   6.2477E-01   6.3997E-01   1.9105E-04  0.0083
   6.3997E-01   6.5554E-01   1.9464E-04  0.0081
   6.5554E-01   6.7149E-01   1.9589E-04  0.0080
   6.7149E-01   6.8783E-01   1.9284E-04  0.0079
   6.8783E-01   7.0456E-01   1.9082E-04  0.0079
   7.0456E-01   7.2171E-01   1.9524E-04  0.0077
   7.2171E-01   7.3927E-01   1.9269E-04  0.0077
   7.3927E-01   7.5725E-01   1.9247E-04  0.0076
   7.5725E-01   7.7568E-01   1.9687E-04  0.0074
   7.7568E-01   7.9455E-01   1.9506E-04  0.0073
   7.9455E-01   8.1388E-01   1.9270E-04  0.0073
   8.1388E-01   8.3368E-01   1.9123E-04  0.0072
   8.3368E-01   8.5397E-01   1.9091E-04  0.0072
   8.5397E-01   8.7475E-01   1.9216E-04  0.0071
   8.7475E-01   8.9603E-01   1.8825E-04  0.0070
   8.9603E-01   9.1783E-01   1.9055E-04  0.0069
   9.1783E-01   9.4016E-01   1.8607E-04  0.0069
   9.4016E-01   9.6304E-01   1.8009E-04  0.0069
   9.6304E-01   9.8647E-01   1.7901E-04  0.0069
   9.8647E-01   1.0105E+00   1.7864E-04  0.0068
   1.0105E+00   1.0351E+00   1.7264E-04  0.0068
   1.0351E+00   1.0602E+00   1.7121E-04  0.0068
   1.0602E+00   1.0860E+00   1.7280E-04  0.0067
   1.0860E+00   1.1125E+00   1.7132E-04  0.0066
   1.1125E+00   1.1395E+00   1.6776E-04  0.0066
   1.1395E+00   1.1673E+00   1.6980E-04  0.0065
   1.1673E+00   1.1957E+00   1.6944E-04  0.0064
   1.1957E+00   1.2247E+00   1.6952E-04  0.0063
   1.2247E+00   1.2545E+00   1.6552E-04  0.0063
   1.2545E+00   1.2851E+00   1.6512E-04  0.0063
   1.2851E+00   1.3163E+00   1.6408E-04  0.0062
   1.3163E+00   1.3484E+00   1.6244E-04  0.0061
   1.3484E+00   1.3812E+00   1.5963E-04  0.0061
   1.3812E+00   1.4148E+00   1.5954E-04  0.0060
   1.4148E+00   1.4492E+00   1.5798E-04  0.0060
   1.4492E+00   1.4845E+00   1.5675E-04  0.0060
   1.4845E+00   1.5206E+00   1.5547E-04  0.0059
   1.5206E+00   1.5576E+00   1.5224E-04  0.0059
   1.5576E+00   1.5955E+00   1.5070E-04  0.0058
   1.5955E+00   1.6343E+00   1.4742E-04  0.0058
   1.6343E+00   1.6741E+00   1.4425E-04  0.0058
   1.6741E+00   1.7148E+00   1.4120E-04  0.0058
   1.7148E+00   1.7565E+00   1.3655E-04  0.0058
   1.7565E+00   1.7992E+00   1.3142E-04  0.0059
   1.7992E+00   1.8430E+00   1.2379E-04  0.0060
   1.8430E+00   1.8879E+00   1.1686E-04  0.0060
   1.8879E+00   1.9338E+00   1.1223E-04  0.0061
   1.9338E+00   1.9808E+00   1.0810E-04  0.0061
   1.9808E+00   2.0290E+00   1.0696E-04  0.0061
   2.0290E+00   2.0784E+00   1.0432E-04  0.0061
   2.0784E+00   2.1290E+00   1.0349E-04  0.0060
   2.1290E+00   2.1808E+00   1.0424E-04  0.0059
   2.1808E+00   2.2338E+00   1.0332E-04  0.0059
   2.2338E+00   2.2882E+00   1.0227E-04  0.0058
   2.2882E+00   2.3439E+00   9.7862E-05  0.0059
   2.3439E+00   2.4009E+00   9.3404E-05  0.0060
   2.4009E+00   2.4593E+00   9.1958E-05  0.0059
   2.4593E+00   2.5191E+00   9.1076E-05  0.0059
   2.5191E+00   2.5804E+00   8.8219E-05  0.0059
   2.5804E+00   2.6432E+00   8.6245E-05  0.0059
   2.6432E+00   2.7075E+00   8.4556E-05  0.0059
   2.7075E+00   2.7734E+00   8.2315E-05  0.0059
   2.7734E+00   2.8409E+00   7.9777E-05  0.0059
   2.8409E+00   2.9100E+00   7.8402E-05  0.0059
   2.9100E+00   2.9808E+00   7.7201E-05  0.0059
   2.9808E+00   3.0533E+00   7.6274E-05  0.0059
   3.0533E+00   3.1276E+00   7.3159E-05  0.0059
   3.1276E+00   3.2037E+00   7.2422E-05  0.0059
   3.2037E+00   3.2817E+00   7.1327E-05  0.0059
   3.2817E+00   3.3615E+00   6.9146E-05  0.0059
   3.3615E+00   3.4433E+00   6.8420E-05  0.0058
   3.4433E+00   3.5271E+00   6.6618E-05  0.0059
   3.5271E+00   3.6129E+00   6.5063E-05  0.0059
   3.6129E+00   3.7008E+00   6.4315E-05  0.0058
   3.7008E+00   3.7908E+00   6.3167E-05  0.0058
   3.7908E+00   3.8831E+00   6.2088E-05  0.0058
   3.8831E+00   3.9776E+00   5.9728E-05  0.0058
   3.9776E+00   4.0743E+00   5.9284E-05  0.0058
   4.0743E+00   4.1735E+00   5.7805E-05  0.0058
   4.1735E+00   4.2750E+00   5.7225E-05  0.0057
   4.2750E+00   4.3790E+00   5.5698E-05  0.0058
   4.3790E+00   4.4856E+00   5.4760E-05  0.0057
   4.4856E+00   4.5947E+00   5.3838E-05  0.0057
   4.5947E+00   4.7065E+00   5.2524E-05  0.0057
   4.7065E+00   4.8210E+00   5.1481E-05  0.0057
   4.8210E+00   4.9383E+00   5.0975E-05  0.0057
   4.9383E+00   5.0585E+00   5.0642E-05  0.0056
   5.0585E+00   5.1815E+00   5.0692E-05  0.0056
   5.1815E+00   5.3076E+00   4.9626E-05  0.0055
   5.3076E+00   5.4368E+00   4.9298E-05  0.0055
   5.4368E+00   5.5690E+00   4.8679E-05  0.0055
   5.5690E+00   5.7045E+00   4.7994E-05  0.0054
   5.7045E+00   5.8433E+00   4.7762E-05  0.0054
   5.8433E+00   5.9855E+00   4.7190E-05  0.0054
   5.9855E+00   6.1311E+00   4.6293E-05  0.0054
   6.1311E+00   6.2803E+00   4.6442E-05  0.0053
   6.2803E+00   6.4331E+00   4.5425E-05  0.0053
   6.4331E+00   6.5896E+00   4.4261E-05  0.0053
   6.5896E+00   6.7500E+00   4.4215E-05  0.0052
   6.7500E+00   6.9142E+00   4.3717E-05  0.0052
   6.9142E+00   7.0824E+00   4.2360E-05  0.0052
   7.0824E+00   7.2548E+00   4.2247E-05  0.0052
   7.2548E+00   7.4313E+00   4.1273E-05  0.0052
   7.4313E+00   7.6121E+00   4.0287E-05  0.0052
   7.6121E+00   7.7973E+00   3.9312E-05  0.0052
   7.7973E+00   7.9870E+00   3.8925E-05  0.0051
   7.9870E+00   8.1813E+00   3.8031E-05  0.0051
   8.1813E+00   8.3804E+00   3.7385E-05  0.0051
   8.3804E+00   8.5843E+00   3.6290E-05  0.0051
   8.5843E+00   8.7931E+00   3.5044E-05  0.0052
   8.7931E+00   9.0071E+00   3.4253E-05  0.0052
   9.0071E+00   9.2262E+00   3.3209E-05  0.0052
   9.2262E+00   9.4507E+00   3.2384E-05  0.0052
   9.4507E+00   9.6807E+00   3.1244E-05  0.0052
   9.6807E+00   9.9162E+00   3.0303E-05  0.0053
   9.9162E+00   1.0157E+01   3.0859E-05  0.0052
   1.0157E+01   1.0405E+01   2.9631E-05  0.0052
   1.0405E+01   1.0658E+01   2.8667E-05  0.0052
   1.0658E+01   1.0917E+01   2.7666E-05  0.0053
   1.0917E+01   1.1183E+01   2.6197E-05  0.0053
   1.1183E+01   1.1455E+01   2.5472E-05  0.0054
   1.1455E+01   1.1733E+01   2.4128E-05  0.0054
   1.1733E+01   1.2019E+01   2.3523E-05  0.0054
   1.2019E+01   1.2311E+01   2.2429E-05  0.0055
   1.2311E+01   1.2611E+01   2.1788E-05  0.0055
   1.2611E+01   1.2918E+01   2.0906E-05  0.0056
   1.2918E+01   1.3232E+01   2.0058E-05  0.0056
   1.3232E+01   1.3554E+01   1.8919E-05  0.0057
   1.3554E+01   1.3884E+01   1.8101E-05  0.0058
   1.3884E+01   1.4222E+01   1.7283E-05  0.0058
   1.4222E+01   1.4568E+01   1.6402E-05  0.0059
   1.4568E+01   1.4922E+01   1.5613E-05  0.0060
   1.4922E+01   1.5285E+01   1.4782E-05  0.0061
   1.5285E+01   1.5657E+01   1.4042E-05  0.0062
   1.5657E+01   1.6038E+01   1.3057E-05  0.0063
   1.6038E+01   1.6428E+01   1.2435E-05  0.0064
   1.6428E+01   1.6828E+01   1.1608E-05  0.0066
   1.6828E+01   1.7237E+01   1.0918E-05  0.0067
   1.7237E+01   1.7657E+01   1.0096E-05  0.0069
   1.7657E+01   1.8086E+01   9.3383E-06  0.0071
   1.8086E+01   1.8526E+01   8.6859E-06  0.0072
   1.8526E+01   1.8977E+01   7.9511E-06  0.0075
   1.8977E+01   1.9439E+01   7.5057E-06  0.0076
   1.9439E+01   1.9912E+01   7.3312E-06  0.0076
   1.9912E+01   2.0396E+01   6.9193E-06  0.0077
   2.0396E+01   2.0893E+01   6.2975E-06  0.0080
   2.0893E+01   2.1401E+01   5.6463E-06  0.0083
   2.1401E+01   2.1922E+01   5.0478E-06  0.0087
   2.1922E+01   2.2455E+01   4.6557E-06  0.0090
   2.2455E+01   2.3001E+01   4.0352E-06  0.0095
   2.3001E+01   2.3561E+01   3.5894E-06  0.0100
   2.3561E+01   2.4134E+01   3.2439E-06  0.0104
   2.4134E+01   2.4721E+01   2.9428E-06  0.0108
   2.4721E+01   2.5323E+01   2.4719E-06  0.0116
   2.5323E+01   2.5939E+01   2.1979E-06  0.0122
   2.5939E+01   2.6570E+01   2.0212E-06  0.0125
   2.6570E+01   2.7217E+01   1.7662E-06  0.0132
   2.7217E+01   2.7879E+01   1.5763E-06  0.0138
   2.7879E+01   2.8557E+01   1.3386E-06  0.0148
   2.8557E+01   2.9252E+01   1.1494E-06  0.0158
   2.9252E+01   2.9964E+01   9.7931E-07  0.0169
   2.9964E+01   3.0693E+01   8.5372E-07  0.0179
   3.0693E+01   3.1440E+01   6.8802E-07  0.0197
   3.1440E+01   3.2205E+01   5.9899E-07  0.0209
   3.2205E+01   3.2988E+01   4.9160E-07  0.0228
   3.2988E+01   3.3791E+01   3.9869E-07  0.0250
   3.3791E+01   3.4613E+01   3.0724E-07  0.0281
   3.4613E+01   3.5455E+01   1.6481E-07  0.0380
   3.5455E+01   3.6318E+01   5.6570E-08  0.0640
   3.6318E+01   3.7201E+01   1.7202E-08  0.1147
   3.7201E+01   3.8106E+01   1.0164E-08  0.1474
   3.8106E+01   3.9034E+01   5.3928E-09  0.2000
   3.9034E+01   3.9983E+01   2.9482E-09  0.2673
   3.9983E+01   4.0956E+01   1.0279E-09  0.4472
   4.0956E+01   4.1953E+01   0.0000E+00  0.0000
   4.1953E+01   4.2973E+01   1.9594E-10  1.0000
   4.2973E+01   4.4019E+01   0.0000E+00  0.0000
   4.4019E+01   4.5090E+01   0.0000E+00  0.0000
   4.5090E+01   4.6187E+01   0.0000E+00  0.0000
   4.6187E+01   4.7311E+01   0.0000E+00  0.0000
   4.7311E+01   4.8462E+01   0.0000E+00  0.0000
   4.8462E+01   4.9641E+01   0.0000E+00  0.0000
   4.9641E+01   5.0849E+01   0.0000E+00  0.0000
   5.0849E+01   5.2086E+01   0.0000E+00  0.0000
   5.2086E+01   5.3353E+01   0.0000E+00  0.0000
   5.3353E+01   5.4651E+01   0.0000E+00  0.0000
   5.4651E+01   5.5981E+01   0.0000E+00  0.0000
   5.5981E+01   5.7343E+01   0.0000E+00  0.0000
   5.7343E+01   5.8738E+01   0.0000E+00  0.0000
   5.8738E+01   6.0168E+01   0.0000E+00  0.0000
   6.0168E+01   6.1632E+01   0.0000E+00  0.0000
   6.1632E+01   6.3131E+01   0.0000E+00  0.0000
   6.3131E+01   6.4667E+01   0.0000E+00  0.0000
   6.4667E+01   6.6240E+01   0.0000E+00  0.0000
   6.6240E+01   6.7852E+01   0.0000E+00  0.0000
   6.7852E+01   6.9503E+01   0.0000E+00  0.0000
   6.9503E+01   7.1194E+01   0.0000E+00  0.0000
   7.1194E+01   7.2926E+01   0.0000E+00  0.0000
   7.2926E+01   7.4701E+01   0.0000E+00  0.0000
   7.4701E+01   7.6518E+01   0.0000E+00  0.0000
   7.6518E+01   7.8380E+01   0.0000E+00  0.0000
   7.8380E+01   8.0287E+01   0.0000E+00  0.0000
   8.0287E+01   8.2240E+01   0.0000E+00  0.0000
   8.2240E+01   8.4241E+01   0.0000E+00  0.0000
   8.4241E+01   8.6291E+01   0.0000E+00  0.0000
   8.6291E+01   8.8391E+01   0.0000E+00  0.0000
   8.8391E+01   9.0541E+01   0.0000E+00  0.0000
   9.0541E+01   9.2744E+01   0.0000E+00  0.0000
   9.2744E+01   9.5001E+01   0.0000E+00  0.0000
   9.5001E+01   9.7312E+01   0.0000E+00  0.0000
   9.7312E+01   9.9680E+01   0.0000E+00  0.0000
   9.9680E+01   1.0211E+02   0.0000E+00  0.0000
   1.0211E+02   1.0459E+02   0.0000E+00  0.0000
   1.0459E+02   1.0713E+02   0.0000E+00  0.0000
   1.0713E+02   1.0974E+02   0.0000E+00  0.0000
   1.0974E+02   1.1241E+02   0.0000E+00  0.0000
   1.1241E+02   1.1515E+02   0.0000E+00  0.0000
   1.1515E+02   1.1795E+02   0.0000E+00  0.0000
   1.1795E+02   1.2082E+02   0.0000E+00  0.0000
   1.2082E+02   1.2376E+02   0.0000E+00  0.0000
   1.2376E+02   1.2677E+02   0.0000E+00  0.0000
   1.2677E+02   1.2985E+02   0.0000E+00  0.0000
   1.2985E+02   1.3301E+02   0.0000E+00  0.0000
   1.3301E+02   1.3625E+02   0.0000E+00  0.0000
   1.3625E+02   1.3956E+02   0.0000E+00  0.0000
   1.3956E+02   1.4296E+02   0.0000E+00  0.0000
   1.4296E+02   1.4644E+02   0.0000E+00  0.0000
   1.4644E+02   1.5000E+02   0.0000E+00  0.0000

#   sum over                 5.9634E-06
'no. =    1   reg = 114 - 214'
msuc: {\huge [t-cross] in region mesh}
msdr: {\it plotted by \ANGEL \version}
msdl: {\it calculated by \PHITS  3.26}
wt: s(0.7)
\vspace{-3}
  region surface crossing
  area  &=&   1.0000E+00 [cm^2]
e:
 
# Information for Restart Calculation
# This calculation was newly started
# istdev =  2 # 1:Batch variance, 2:History variance
# resc2  = 5.00000000000000000E+09 # Total source weight or Total source weight / maxcas
# resc3  = 5.00000000000000000E+09 # Total history number or Total batch number
# maxcas =   100000000 # History / Batch, only used for istdev=1
# bitrseed = 0110100000100010111000001110001111001110100100011111101000111001 # bit data of rseed
