[ T-Cross ]
    title = [t-cross] in region mesh
     mesh =  reg            # mesh type is region-wise
      reg =    1            # number of crossing regions
      non     r-from    r-to       area
      1       125       225        1.000000    
   e-type =    3            # e-mesh is log given by emin, emax and ne
     emin =  1.0000000E-02  # minimum value of e-mesh points
     emax =   150.0000      # maximum value of e-mesh points
#    edel =  2.4039514E-02  # mesh width of e-mesh points
       ne =    400          # number of e-mesh points
#    data = ( e(i), i = 1, ne + 1 )
#           1.00000E-02  1.02433E-02  1.04925E-02  1.07478E-02  1.10093E-02
#           1.12772E-02  1.15516E-02  1.18326E-02  1.21205E-02  1.24154E-02
#           1.27175E-02  1.30269E-02  1.33439E-02  1.36686E-02  1.40011E-02
#           1.43418E-02  1.46907E-02  1.50482E-02  1.54143E-02  1.57894E-02
#           1.61735E-02  1.65670E-02  1.69701E-02  1.73830E-02  1.78060E-02
#           1.82392E-02  1.86830E-02  1.91375E-02  1.96032E-02  2.00801E-02
#           2.05687E-02  2.10692E-02  2.15818E-02  2.21069E-02  2.26448E-02
#           2.31957E-02  2.37601E-02  2.43382E-02  2.49304E-02  2.55369E-02
#           2.61583E-02  2.67947E-02  2.74467E-02  2.81145E-02  2.87985E-02
#           2.94992E-02  3.02169E-02  3.09521E-02  3.17052E-02  3.24766E-02
#           3.32668E-02  3.40762E-02  3.49053E-02  3.57546E-02  3.66246E-02
#           3.75157E-02  3.84284E-02  3.93634E-02  4.03212E-02  4.13022E-02
#           4.23071E-02  4.33365E-02  4.43909E-02  4.54710E-02  4.65773E-02
#           4.77106E-02  4.88714E-02  5.00605E-02  5.12785E-02  5.25262E-02
#           5.38042E-02  5.51133E-02  5.64542E-02  5.78278E-02  5.92348E-02
#           6.06760E-02  6.21523E-02  6.36645E-02  6.52135E-02  6.68002E-02
#           6.84255E-02  7.00904E-02  7.17957E-02  7.35426E-02  7.53319E-02
#           7.71648E-02  7.90423E-02  8.09655E-02  8.29354E-02  8.49533E-02
#           8.70203E-02  8.91376E-02  9.13064E-02  9.35279E-02  9.58035E-02
#           9.81345E-02  1.00522E-01  1.02968E-01  1.05473E-01  1.08040E-01
#           1.10668E-01  1.13361E-01  1.16119E-01  1.18944E-01  1.21838E-01
#           1.24803E-01  1.27839E-01  1.30950E-01  1.34136E-01  1.37399E-01
#           1.40742E-01  1.44167E-01  1.47675E-01  1.51268E-01  1.54948E-01
#           1.58718E-01  1.62580E-01  1.66535E-01  1.70587E-01  1.74738E-01
#           1.78989E-01  1.83344E-01  1.87805E-01  1.92375E-01  1.97055E-01
#           2.01850E-01  2.06761E-01  2.11792E-01  2.16945E-01  2.22223E-01
#           2.27630E-01  2.33169E-01  2.38842E-01  2.44653E-01  2.50605E-01
#           2.56703E-01  2.62949E-01  2.69346E-01  2.75900E-01  2.82613E-01
#           2.89489E-01  2.96532E-01  3.03747E-01  3.11138E-01  3.18708E-01
#           3.26462E-01  3.34405E-01  3.42542E-01  3.50876E-01  3.59413E-01
#           3.68158E-01  3.77116E-01  3.86291E-01  3.95690E-01  4.05317E-01
#           4.15179E-01  4.25281E-01  4.35628E-01  4.46227E-01  4.57084E-01
#           4.68205E-01  4.79597E-01  4.91266E-01  5.03219E-01  5.15463E-01
#           5.28005E-01  5.40851E-01  5.54011E-01  5.67490E-01  5.81298E-01
#           5.95441E-01  6.09929E-01  6.24769E-01  6.39970E-01  6.55541E-01
#           6.71491E-01  6.87828E-01  7.04564E-01  7.21706E-01  7.39266E-01
#           7.57253E-01  7.75678E-01  7.94551E-01  8.13883E-01  8.33685E-01
#           8.53969E-01  8.74747E-01  8.96030E-01  9.17831E-01  9.40163E-01
#           9.63038E-01  9.86469E-01  1.01047E+00  1.03506E+00  1.06024E+00
#           1.08604E+00  1.11246E+00  1.13953E+00  1.16725E+00  1.19565E+00
#           1.22474E+00  1.25454E+00  1.28507E+00  1.31633E+00  1.34836E+00
#           1.38117E+00  1.41477E+00  1.44920E+00  1.48446E+00  1.52057E+00
#           1.55757E+00  1.59547E+00  1.63429E+00  1.67405E+00  1.71478E+00
#           1.75650E+00  1.79924E+00  1.84302E+00  1.88786E+00  1.93379E+00
#           1.98084E+00  2.02904E+00  2.07841E+00  2.12898E+00  2.18078E+00
#           2.23384E+00  2.28819E+00  2.34386E+00  2.40089E+00  2.45930E+00
#           2.51914E+00  2.58043E+00  2.64322E+00  2.70753E+00  2.77341E+00
#           2.84088E+00  2.91001E+00  2.98081E+00  3.05333E+00  3.12762E+00
#           3.20372E+00  3.28167E+00  3.36152E+00  3.44330E+00  3.52708E+00
#           3.61290E+00  3.70080E+00  3.79085E+00  3.88308E+00  3.97756E+00
#           4.07434E+00  4.17347E+00  4.27501E+00  4.37903E+00  4.48557E+00
#           4.59471E+00  4.70650E+00  4.82102E+00  4.93832E+00  5.05847E+00
#           5.18155E+00  5.30762E+00  5.43676E+00  5.56904E+00  5.70453E+00
#           5.84333E+00  5.98550E+00  6.13114E+00  6.28031E+00  6.43312E+00
#           6.58964E+00  6.74997E+00  6.91420E+00  7.08243E+00  7.25475E+00
#           7.43126E+00  7.61207E+00  7.79728E+00  7.98700E+00  8.18133E+00
#           8.38038E+00  8.58428E+00  8.79315E+00  9.00709E+00  9.22624E+00
#           9.45072E+00  9.68067E+00  9.91620E+00  1.01575E+01  1.04046E+01
#           1.06578E+01  1.09171E+01  1.11827E+01  1.14548E+01  1.17335E+01
#           1.20190E+01  1.23114E+01  1.26109E+01  1.29178E+01  1.32321E+01
#           1.35540E+01  1.38838E+01  1.42216E+01  1.45676E+01  1.49221E+01
#           1.52851E+01  1.56570E+01  1.60380E+01  1.64282E+01  1.68279E+01
#           1.72374E+01  1.76568E+01  1.80864E+01  1.85264E+01  1.89772E+01
#           1.94389E+01  1.99119E+01  2.03963E+01  2.08926E+01  2.14009E+01
#           2.19216E+01  2.24550E+01  2.30014E+01  2.35610E+01  2.41343E+01
#           2.47215E+01  2.53230E+01  2.59391E+01  2.65702E+01  2.72167E+01
#           2.78789E+01  2.85572E+01  2.92520E+01  2.99637E+01  3.06928E+01
#           3.14396E+01  3.22045E+01  3.29881E+01  3.37907E+01  3.46128E+01
#           3.54550E+01  3.63177E+01  3.72013E+01  3.81064E+01  3.90336E+01
#           3.99833E+01  4.09561E+01  4.19526E+01  4.29734E+01  4.40189E+01
#           4.50900E+01  4.61870E+01  4.73108E+01  4.84619E+01  4.96410E+01
#           5.08488E+01  5.20860E+01  5.33533E+01  5.46514E+01  5.59812E+01
#           5.73432E+01  5.87384E+01  6.01676E+01  6.16315E+01  6.31311E+01
#           6.46671E+01  6.62405E+01  6.78522E+01  6.95031E+01  7.11941E+01
#           7.29263E+01  7.47007E+01  7.65182E+01  7.83800E+01  8.02870E+01
#           8.22405E+01  8.42414E+01  8.62911E+01  8.83906E+01  9.05412E+01
#           9.27442E+01  9.50007E+01  9.73122E+01  9.96799E+01  1.02105E+02
#           1.04589E+02  1.07134E+02  1.09741E+02  1.12411E+02  1.15146E+02
#           1.17948E+02  1.20817E+02  1.23757E+02  1.26768E+02  1.29852E+02
#           1.33012E+02  1.36248E+02  1.39563E+02  1.42959E+02  1.46437E+02
#           1.50000E+02
     unit =    2            # unit is [1/cm^2/(MeV/n)/source]
     axis =  eng            # axis of output
     file = detector-26.out  # file name of output for the above axis
   output = f-curr          # surface crossing forward current spectrum
     part =  neutron  
# kf/name :  2112     
#    used :        main (  %)        temp (  %)       total (  %)
#  memory :         414 (  0)           0 (  0)         414 (  0)

#------------------------------------------------------------------------------
#newpage:
#   no. =    1   reg = 125 - 225

x: Energy [MeV/n]
y:  F-Curr [1/cm^2/(MeV/n)/source]         
p: xlog ylog afac(0.8) form(0.9)
h: n            x            y(neutron ),hh0l   n 
#  e-lower      e-upper      neutron     r.err 
   1.0000E-02   1.0243E-02   1.3771E-03  0.0244
   1.0243E-02   1.0493E-02   1.3668E-03  0.0242
   1.0493E-02   1.0748E-02   1.3507E-03  0.0240
   1.0748E-02   1.1009E-02   1.3098E-03  0.0241
   1.1009E-02   1.1277E-02   1.3215E-03  0.0237
   1.1277E-02   1.1552E-02   1.2647E-03  0.0240
   1.1552E-02   1.1833E-02   1.2382E-03  0.0239
   1.1833E-02   1.2121E-02   1.2277E-03  0.0237
   1.2121E-02   1.2415E-02   1.1853E-03  0.0239
   1.2415E-02   1.2718E-02   1.2101E-03  0.0233
   1.2718E-02   1.3027E-02   1.1193E-03  0.0240
   1.3027E-02   1.3344E-02   1.0966E-03  0.0239
   1.3344E-02   1.3669E-02   1.0887E-03  0.0237
   1.3669E-02   1.4001E-02   1.0860E-03  0.0235
   1.4001E-02   1.4342E-02   1.0648E-03  0.0234
   1.4342E-02   1.4691E-02   1.0000E-03  0.0239
   1.4691E-02   1.5048E-02   1.0410E-03  0.0231
   1.5048E-02   1.5414E-02   9.8783E-04  0.0235
   1.5414E-02   1.5789E-02   9.6966E-04  0.0234
   1.5789E-02   1.6174E-02   9.3112E-04  0.0236
   1.6174E-02   1.6567E-02   9.0657E-04  0.0236
   1.6567E-02   1.6970E-02   9.3622E-04  0.0230
   1.6970E-02   1.7383E-02   8.9897E-04  0.0231
   1.7383E-02   1.7806E-02   8.4930E-04  0.0235
   1.7806E-02   1.8239E-02   8.7087E-04  0.0230
   1.8239E-02   1.8683E-02   8.1647E-04  0.0234
   1.8683E-02   1.9138E-02   8.3900E-04  0.0228
   1.9138E-02   1.9603E-02   8.2960E-04  0.0227
   1.9603E-02   2.0080E-02   8.2464E-04  0.0225
   2.0080E-02   2.0569E-02   7.7996E-04  0.0229
   2.0569E-02   2.1069E-02   7.4927E-04  0.0230
   2.1069E-02   2.1582E-02   7.2122E-04  0.0232
   2.1582E-02   2.2107E-02   7.0329E-04  0.0232
   2.2107E-02   2.2645E-02   7.1817E-04  0.0227
   2.2645E-02   2.3196E-02   6.8148E-04  0.0230
   2.3196E-02   2.3760E-02   6.6174E-04  0.0231
   2.3760E-02   2.4338E-02   6.7514E-04  0.0226
   2.4338E-02   2.4930E-02   6.8164E-04  0.0222
   2.4930E-02   2.5537E-02   6.6052E-04  0.0223
   2.5537E-02   2.6158E-02   6.2551E-04  0.0226
   2.6158E-02   2.6795E-02   6.0117E-04  0.0228
   2.6795E-02   2.7447E-02   5.8123E-04  0.0229
   2.7447E-02   2.8114E-02   5.7491E-04  0.0228
   2.8114E-02   2.8799E-02   5.9586E-04  0.0221
   2.8799E-02   2.9499E-02   5.7894E-04  0.0222
   2.9499E-02   3.0217E-02   5.5544E-04  0.0223
   3.0217E-02   3.0952E-02   5.4175E-04  0.0223
   3.0952E-02   3.1705E-02   5.2307E-04  0.0225
   3.1705E-02   3.2477E-02   5.3035E-04  0.0220
   3.2477E-02   3.3267E-02   5.1427E-04  0.0221
   3.3267E-02   3.4076E-02   4.9696E-04  0.0222
   3.4076E-02   3.4905E-02   4.9657E-04  0.0220
   3.4905E-02   3.5755E-02   4.8904E-04  0.0219
   3.5755E-02   3.6625E-02   4.6583E-04  0.0222
   3.6625E-02   3.7516E-02   4.6426E-04  0.0219
   3.7516E-02   3.8428E-02   4.6585E-04  0.0216
   3.8428E-02   3.9363E-02   4.4182E-04  0.0219
   3.9363E-02   4.0321E-02   4.3871E-04  0.0218
   4.0321E-02   4.1302E-02   4.2571E-04  0.0218
   4.1302E-02   4.2307E-02   4.2240E-04  0.0217
   4.2307E-02   4.3337E-02   4.0583E-04  0.0218
   4.3337E-02   4.4391E-02   3.9652E-04  0.0218
   4.4391E-02   4.5471E-02   3.9354E-04  0.0216
   4.5471E-02   4.6577E-02   3.8582E-04  0.0216
   4.6577E-02   4.7711E-02   3.8061E-04  0.0215
   4.7711E-02   4.8871E-02   3.5583E-04  0.0220
   4.8871E-02   5.0061E-02   3.7954E-04  0.0210
   5.0061E-02   5.1279E-02   3.3530E-04  0.0221
   5.1279E-02   5.2526E-02   3.3208E-04  0.0219
   5.2526E-02   5.3804E-02   3.4964E-04  0.0211
   5.3804E-02   5.5113E-02   3.1656E-04  0.0219
   5.5113E-02   5.6454E-02   3.2935E-04  0.0212
   5.6454E-02   5.7828E-02   3.2066E-04  0.0212
   5.7828E-02   5.9235E-02   3.1927E-04  0.0210
   5.9235E-02   6.0676E-02   3.1105E-04  0.0211
   6.0676E-02   6.2152E-02   2.9215E-04  0.0215
   6.2152E-02   6.3665E-02   2.9491E-04  0.0211
   6.3665E-02   6.5214E-02   2.9858E-04  0.0208
   6.5214E-02   6.6800E-02   2.8534E-04  0.0210
   6.6800E-02   6.8426E-02   2.8693E-04  0.0207
   6.8426E-02   7.0090E-02   2.6819E-04  0.0211
   7.0090E-02   7.1796E-02   2.6230E-04  0.0211
   7.1796E-02   7.3543E-02   2.4888E-04  0.0214
   7.3543E-02   7.5332E-02   2.4819E-04  0.0212
   7.5332E-02   7.7165E-02   2.3814E-04  0.0213
   7.7165E-02   7.9042E-02   2.4007E-04  0.0210
   7.9042E-02   8.0965E-02   2.4463E-04  0.0206
   8.0965E-02   8.2935E-02   2.2190E-04  0.0213
   8.2935E-02   8.4953E-02   2.2777E-04  0.0208
   8.4953E-02   8.7020E-02   2.2118E-04  0.0209
   8.7020E-02   8.9138E-02   2.1444E-04  0.0209
   8.9138E-02   9.1306E-02   2.1513E-04  0.0207
   9.1306E-02   9.3528E-02   2.0083E-04  0.0211
   9.3528E-02   9.5804E-02   1.9992E-04  0.0209
   9.5804E-02   9.8134E-02   1.9726E-04  0.0208
   9.8134E-02   1.0052E-01   1.8835E-04  0.0210
   1.0052E-01   1.0297E-01   1.9384E-04  0.0205
   1.0297E-01   1.0547E-01   1.8495E-04  0.0207
   1.0547E-01   1.0804E-01   1.7833E-04  0.0209
   1.0804E-01   1.1067E-01   1.7756E-04  0.0206
   1.1067E-01   1.1336E-01   1.7687E-04  0.0204
   1.1336E-01   1.1612E-01   1.6891E-04  0.0207
   1.1612E-01   1.1894E-01   1.6964E-04  0.0204
   1.1894E-01   1.2184E-01   1.6677E-04  0.0203
   1.2184E-01   1.2480E-01   1.6297E-04  0.0203
   1.2480E-01   1.2784E-01   1.5100E-04  0.0208
   1.2784E-01   1.3095E-01   1.4841E-04  0.0207
   1.3095E-01   1.3414E-01   1.4553E-04  0.0207
   1.3414E-01   1.3740E-01   1.4877E-04  0.0203
   1.3740E-01   1.4074E-01   1.4527E-04  0.0202
   1.4074E-01   1.4417E-01   1.3866E-04  0.0205
   1.4417E-01   1.4767E-01   1.3373E-04  0.0206
   1.4767E-01   1.5127E-01   1.3215E-04  0.0205
   1.5127E-01   1.5495E-01   1.2863E-04  0.0205
   1.5495E-01   1.5872E-01   1.2635E-04  0.0204
   1.5872E-01   1.6258E-01   1.2344E-04  0.0204
   1.6258E-01   1.6654E-01   1.2113E-04  0.0204
   1.6654E-01   1.7059E-01   1.2095E-04  0.0201
   1.7059E-01   1.7474E-01   1.1571E-04  0.0204
   1.7474E-01   1.7899E-01   1.1066E-04  0.0206
   1.7899E-01   1.8334E-01   1.1388E-04  0.0200
   1.8334E-01   1.8781E-01   1.0785E-04  0.0203
   1.8781E-01   1.9237E-01   1.0716E-04  0.0201
   1.9237E-01   1.9706E-01   1.0657E-04  0.0200
   1.9706E-01   2.0185E-01   1.0557E-04  0.0198
   2.0185E-01   2.0676E-01   1.0523E-04  0.0196
   2.0676E-01   2.1179E-01   1.0901E-04  0.0190
   2.1179E-01   2.1694E-01   1.1031E-04  0.0187
   2.1694E-01   2.2222E-01   1.1362E-04  0.0182
   2.2222E-01   2.2763E-01   1.1813E-04  0.0176
   2.2763E-01   2.3317E-01   1.1767E-04  0.0175
   2.3317E-01   2.3884E-01   1.2267E-04  0.0169
   2.3884E-01   2.4465E-01   1.2643E-04  0.0164
   2.4465E-01   2.5061E-01   1.2769E-04  0.0162
   2.5061E-01   2.5670E-01   1.2989E-04  0.0158
   2.5670E-01   2.6295E-01   1.3691E-04  0.0152
   2.6295E-01   2.6935E-01   1.3795E-04  0.0150
   2.6935E-01   2.7590E-01   1.4043E-04  0.0147
   2.7590E-01   2.8261E-01   1.4317E-04  0.0144
   2.8261E-01   2.8949E-01   1.4620E-04  0.0141
   2.8949E-01   2.9653E-01   1.5008E-04  0.0137
   2.9653E-01   3.0375E-01   1.5288E-04  0.0134
   3.0375E-01   3.1114E-01   1.5671E-04  0.0131
   3.1114E-01   3.1871E-01   1.5763E-04  0.0129
   3.1871E-01   3.2646E-01   1.6071E-04  0.0126
   3.2646E-01   3.3441E-01   1.6389E-04  0.0124
   3.3441E-01   3.4254E-01   1.6333E-04  0.0122
   3.4254E-01   3.5088E-01   1.6646E-04  0.0120
   3.5088E-01   3.5941E-01   1.6658E-04  0.0118
   3.5941E-01   3.6816E-01   1.7305E-04  0.0115
   3.6816E-01   3.7712E-01   1.7369E-04  0.0113
   3.7712E-01   3.8629E-01   1.7185E-04  0.0112
   3.8629E-01   3.9569E-01   1.7854E-04  0.0109
   3.9569E-01   4.0532E-01   1.8047E-04  0.0107
   4.0532E-01   4.1518E-01   1.8218E-04  0.0105
   4.1518E-01   4.2528E-01   1.8346E-04  0.0104
   4.2528E-01   4.3563E-01   1.8718E-04  0.0101
   4.3563E-01   4.4623E-01   1.8901E-04  0.0100
   4.4623E-01   4.5708E-01   1.9167E-04  0.0098
   4.5708E-01   4.6821E-01   1.8827E-04  0.0097
   4.6821E-01   4.7960E-01   1.9127E-04  0.0095
   4.7960E-01   4.9127E-01   1.9021E-04  0.0095
   4.9127E-01   5.0322E-01   1.9248E-04  0.0093
   5.0322E-01   5.1546E-01   1.9454E-04  0.0091
   5.1546E-01   5.2800E-01   1.9332E-04  0.0090
   5.2800E-01   5.4085E-01   1.9423E-04  0.0089
   5.4085E-01   5.5401E-01   1.9320E-04  0.0088
   5.5401E-01   5.6749E-01   1.9580E-04  0.0087
   5.6749E-01   5.8130E-01   1.9524E-04  0.0086
   5.8130E-01   5.9544E-01   1.9276E-04  0.0085
   5.9544E-01   6.0993E-01   1.9401E-04  0.0084
   6.0993E-01   6.2477E-01   1.9096E-04  0.0084
   6.2477E-01   6.3997E-01   1.9248E-04  0.0082
   6.3997E-01   6.5554E-01   1.9256E-04  0.0081
   6.5554E-01   6.7149E-01   1.8918E-04  0.0081
   6.7149E-01   6.8783E-01   1.8566E-04  0.0081
   6.8783E-01   7.0456E-01   1.8750E-04  0.0080
   7.0456E-01   7.2171E-01   1.8365E-04  0.0079
   7.2171E-01   7.3927E-01   1.8144E-04  0.0079
   7.3927E-01   7.5725E-01   1.7896E-04  0.0078
   7.5725E-01   7.7568E-01   1.7590E-04  0.0078
   7.7568E-01   7.9455E-01   1.7274E-04  0.0078
   7.9455E-01   8.1388E-01   1.7044E-04  0.0078
   8.1388E-01   8.3368E-01   1.6574E-04  0.0078
   8.3368E-01   8.5397E-01   1.6362E-04  0.0077
   8.5397E-01   8.7475E-01   1.5904E-04  0.0077
   8.7475E-01   8.9603E-01   1.5283E-04  0.0078
   8.9603E-01   9.1783E-01   1.5029E-04  0.0078
   9.1783E-01   9.4016E-01   1.4334E-04  0.0079
   9.4016E-01   9.6304E-01   1.3737E-04  0.0079
   9.6304E-01   9.8647E-01   1.3682E-04  0.0079
   9.8647E-01   1.0105E+00   1.2992E-04  0.0080
   1.0105E+00   1.0351E+00   1.2662E-04  0.0080
   1.0351E+00   1.0602E+00   1.2782E-04  0.0078
   1.0602E+00   1.0860E+00   1.2616E-04  0.0078
   1.0860E+00   1.1125E+00   1.2789E-04  0.0077
   1.1125E+00   1.1395E+00   1.2573E-04  0.0076
   1.1395E+00   1.1673E+00   1.2558E-04  0.0075
   1.1673E+00   1.1957E+00   1.2687E-04  0.0074
   1.1957E+00   1.2247E+00   1.2555E-04  0.0074
   1.2247E+00   1.2545E+00   1.2407E-04  0.0073
   1.2545E+00   1.2851E+00   1.2297E-04  0.0073
   1.2851E+00   1.3163E+00   1.2103E-04  0.0072
   1.3163E+00   1.3484E+00   1.1928E-04  0.0072
   1.3484E+00   1.3812E+00   1.1872E-04  0.0071
   1.3812E+00   1.4148E+00   1.2057E-04  0.0070
   1.4148E+00   1.4492E+00   1.1811E-04  0.0070
   1.4492E+00   1.4845E+00   1.1565E-04  0.0070
   1.4845E+00   1.5206E+00   1.1434E-04  0.0069
   1.5206E+00   1.5576E+00   1.1042E-04  0.0070
   1.5576E+00   1.5955E+00   1.0802E-04  0.0069
   1.5955E+00   1.6343E+00   1.0682E-04  0.0069
   1.6343E+00   1.6741E+00   1.0541E-04  0.0069
   1.6741E+00   1.7148E+00   1.0485E-04  0.0068
   1.7148E+00   1.7565E+00   1.0278E-04  0.0068
   1.7565E+00   1.7992E+00   1.0168E-04  0.0067
   1.7992E+00   1.8430E+00   9.7566E-05  0.0068
   1.8430E+00   1.8879E+00   9.6438E-05  0.0068
   1.8879E+00   1.9338E+00   9.4053E-05  0.0068
   1.9338E+00   1.9808E+00   9.2067E-05  0.0067
   1.9808E+00   2.0290E+00   9.0836E-05  0.0067
   2.0290E+00   2.0784E+00   8.9474E-05  0.0067
   2.0784E+00   2.1290E+00   8.6372E-05  0.0067
   2.1290E+00   2.1808E+00   8.4654E-05  0.0067
   2.1808E+00   2.2338E+00   8.1361E-05  0.0068
   2.2338E+00   2.2882E+00   7.9994E-05  0.0067
   2.2882E+00   2.3439E+00   7.7861E-05  0.0067
   2.3439E+00   2.4009E+00   7.6540E-05  0.0067
   2.4009E+00   2.4593E+00   7.5001E-05  0.0067
   2.4593E+00   2.5191E+00   7.4303E-05  0.0067
   2.5191E+00   2.5804E+00   7.2393E-05  0.0067
   2.5804E+00   2.6432E+00   7.0585E-05  0.0067
   2.6432E+00   2.7075E+00   6.8964E-05  0.0067
   2.7075E+00   2.7734E+00   6.6623E-05  0.0067
   2.7734E+00   2.8409E+00   6.4144E-05  0.0067
   2.8409E+00   2.9100E+00   6.3681E-05  0.0067
   2.9100E+00   2.9808E+00   6.2130E-05  0.0067
   2.9808E+00   3.0533E+00   6.1272E-05  0.0067
   3.0533E+00   3.1276E+00   5.9950E-05  0.0066
   3.1276E+00   3.2037E+00   5.8229E-05  0.0067
   3.2037E+00   3.2817E+00   5.6107E-05  0.0067
   3.2817E+00   3.3615E+00   5.5166E-05  0.0067
   3.3615E+00   3.4433E+00   5.3097E-05  0.0067
   3.4433E+00   3.5271E+00   5.3054E-05  0.0067
   3.5271E+00   3.6129E+00   5.1247E-05  0.0067
   3.6129E+00   3.7008E+00   4.9448E-05  0.0067
   3.7008E+00   3.7908E+00   4.8565E-05  0.0067
   3.7908E+00   3.8831E+00   4.6803E-05  0.0068
   3.8831E+00   3.9776E+00   4.5882E-05  0.0067
   3.9776E+00   4.0743E+00   4.4982E-05  0.0067
   4.0743E+00   4.1735E+00   4.3367E-05  0.0068
   4.1735E+00   4.2750E+00   4.2897E-05  0.0067
   4.2750E+00   4.3790E+00   4.0775E-05  0.0068
   4.3790E+00   4.4856E+00   3.9452E-05  0.0068
   4.4856E+00   4.5947E+00   3.7991E-05  0.0069
   4.5947E+00   4.7065E+00   3.6581E-05  0.0069
   4.7065E+00   4.8210E+00   3.6038E-05  0.0069
   4.8210E+00   4.9383E+00   3.4900E-05  0.0069
   4.9383E+00   5.0585E+00   3.2871E-05  0.0071
   5.0585E+00   5.1815E+00   3.1360E-05  0.0072
   5.1815E+00   5.3076E+00   3.0307E-05  0.0072
   5.3076E+00   5.4368E+00   2.8997E-05  0.0073
   5.4368E+00   5.5690E+00   2.8117E-05  0.0073
   5.5690E+00   5.7045E+00   2.6910E-05  0.0074
   5.7045E+00   5.8433E+00   2.6069E-05  0.0074
   5.8433E+00   5.9855E+00   2.4701E-05  0.0075
   5.9855E+00   6.1311E+00   2.3887E-05  0.0075
   6.1311E+00   6.2803E+00   2.2887E-05  0.0076
   6.2803E+00   6.4331E+00   2.1732E-05  0.0077
   6.4331E+00   6.5896E+00   2.1097E-05  0.0077
   6.5896E+00   6.7500E+00   1.9650E-05  0.0079
   6.7500E+00   6.9142E+00   1.8843E-05  0.0080
   6.9142E+00   7.0824E+00   1.7876E-05  0.0081
   7.0824E+00   7.2548E+00   1.7114E-05  0.0082
   7.2548E+00   7.4313E+00   1.6151E-05  0.0083
   7.4313E+00   7.6121E+00   1.5350E-05  0.0085
   7.6121E+00   7.7973E+00   1.4546E-05  0.0086
   7.7973E+00   7.9870E+00   1.3652E-05  0.0088
   7.9870E+00   8.1813E+00   1.3104E-05  0.0088
   8.1813E+00   8.3804E+00   1.2412E-05  0.0090
   8.3804E+00   8.5843E+00   1.1806E-05  0.0091
   8.5843E+00   8.7931E+00   1.1199E-05  0.0092
   8.7931E+00   9.0071E+00   1.0572E-05  0.0094
   9.0071E+00   9.2262E+00   9.9371E-06  0.0096
   9.2262E+00   9.4507E+00   9.3606E-06  0.0097
   9.4507E+00   9.6807E+00   8.7477E-06  0.0099
   9.6807E+00   9.9162E+00   8.2590E-06  0.0101
   9.9162E+00   1.0157E+01   8.0111E-06  0.0102
   1.0157E+01   1.0405E+01   7.7407E-06  0.0102
   1.0405E+01   1.0658E+01   7.9060E-06  0.0100
   1.0658E+01   1.0917E+01   7.8489E-06  0.0099
   1.0917E+01   1.1183E+01   7.6378E-06  0.0099
   1.1183E+01   1.1455E+01   7.1143E-06  0.0101
   1.1455E+01   1.1733E+01   6.7860E-06  0.0103
   1.1733E+01   1.2019E+01   6.4552E-06  0.0104
   1.2019E+01   1.2311E+01   5.7771E-06  0.0109
   1.2311E+01   1.2611E+01   5.2336E-06  0.0113
   1.2611E+01   1.2918E+01   4.9119E-06  0.0115
   1.2918E+01   1.3232E+01   4.7010E-06  0.0116
   1.3232E+01   1.3554E+01   4.4012E-06  0.0119
   1.3554E+01   1.3884E+01   4.0829E-06  0.0122
   1.3884E+01   1.4222E+01   3.8927E-06  0.0123
   1.4222E+01   1.4568E+01   3.4959E-06  0.0128
   1.4568E+01   1.4922E+01   3.1155E-06  0.0134
   1.4922E+01   1.5285E+01   2.8988E-06  0.0138
   1.5285E+01   1.5657E+01   2.6344E-06  0.0143
   1.5657E+01   1.6038E+01   2.3595E-06  0.0149
   1.6038E+01   1.6428E+01   2.1408E-06  0.0155
   1.6428E+01   1.6828E+01   1.9842E-06  0.0159
   1.6828E+01   1.7237E+01   1.8117E-06  0.0164
   1.7237E+01   1.7657E+01   1.6535E-06  0.0170
   1.7657E+01   1.8086E+01   1.5570E-06  0.0173
   1.8086E+01   1.8526E+01   1.3839E-06  0.0181
   1.8526E+01   1.8977E+01   1.2909E-06  0.0185
   1.8977E+01   1.9439E+01   1.1744E-06  0.0192
   1.9439E+01   1.9912E+01   1.0460E-06  0.0201
   1.9912E+01   2.0396E+01   9.1068E-07  0.0213
   2.0396E+01   2.0893E+01   8.0482E-07  0.0224
   2.0893E+01   2.1401E+01   7.1410E-07  0.0235
   2.1401E+01   2.1922E+01   6.7639E-07  0.0238
   2.1922E+01   2.2455E+01   5.8308E-07  0.0254
   2.2455E+01   2.3001E+01   5.4068E-07  0.0260
   2.3001E+01   2.3561E+01   4.7816E-07  0.0273
   2.3561E+01   2.4134E+01   4.1971E-07  0.0288
   2.4134E+01   2.4721E+01   3.8113E-07  0.0299
   2.4721E+01   2.5323E+01   3.3949E-07  0.0313
   2.5323E+01   2.5939E+01   3.2526E-07  0.0316
   2.5939E+01   2.6570E+01   2.6714E-07  0.0344
   2.6570E+01   2.7217E+01   2.4688E-07  0.0354
   2.7217E+01   2.7879E+01   2.1685E-07  0.0373
   2.7879E+01   2.8557E+01   1.7868E-07  0.0406
   2.8557E+01   2.9252E+01   1.7530E-07  0.0405
   2.9252E+01   2.9964E+01   1.4725E-07  0.0437
   2.9964E+01   3.0693E+01   1.2811E-07  0.0463
   3.0693E+01   3.1440E+01   1.0338E-07  0.0509
   3.1440E+01   3.2205E+01   9.6477E-08  0.0521
   3.2205E+01   3.2988E+01   8.1934E-08  0.0558
   3.2988E+01   3.3791E+01   6.3292E-08  0.0627
   3.3791E+01   3.4613E+01   6.1789E-08  0.0627
   3.4613E+01   3.5455E+01   4.9397E-08  0.0693
   3.5455E+01   3.6318E+01   4.4514E-08  0.0722
   3.6318E+01   3.7201E+01   3.5761E-08  0.0796
   3.7201E+01   3.8106E+01   3.0272E-08  0.0854
   3.8106E+01   3.9034E+01   2.8474E-08  0.0870
   3.9034E+01   3.9983E+01   2.5481E-08  0.0909
   3.9983E+01   4.0956E+01   2.1381E-08  0.0981
   4.0956E+01   4.1953E+01   1.4049E-08  0.1195
   4.1953E+01   4.2973E+01   1.3128E-08  0.1222
   4.2973E+01   4.4019E+01   1.1859E-08  0.1270
   4.4019E+01   4.5090E+01   8.9635E-09  0.1443
   4.5090E+01   4.6187E+01   7.8390E-09  0.1525
   4.6187E+01   4.7311E+01   5.3392E-09  0.1826
   4.7311E+01   4.8462E+01   5.7336E-09  0.1741
   4.8462E+01   4.9641E+01   3.0531E-09  0.2357
   4.9641E+01   5.0849E+01   3.3118E-09  0.2236
   5.0849E+01   5.2086E+01   2.7482E-09  0.2425
   5.2086E+01   5.3353E+01   2.0516E-09  0.2774
   5.3353E+01   5.4651E+01   2.0029E-09  0.2774
   5.4651E+01   5.5981E+01   1.6545E-09  0.3015
   5.5981E+01   5.7343E+01   1.0279E-09  0.3780
   5.7343E+01   5.8738E+01   8.6009E-10  0.4082
   5.8738E+01   6.0168E+01   8.3966E-10  0.4082
   6.0168E+01   6.1632E+01   9.5633E-10  0.3780
   6.1632E+01   6.3131E+01   4.0012E-10  0.5774
   6.3131E+01   6.4667E+01   5.2082E-10  0.5000
   6.4667E+01   6.6240E+01   2.5423E-10  0.7071
   6.6240E+01   6.7852E+01   3.7228E-10  0.5774
   6.7852E+01   6.9503E+01   0.0000E+00  0.0000
   6.9503E+01   7.1194E+01   0.0000E+00  0.0000
   7.1194E+01   7.2926E+01   1.1546E-10  1.0000
   7.2926E+01   7.4701E+01   1.1272E-10  1.0000
   7.4701E+01   7.6518E+01   0.0000E+00  0.0000
   7.6518E+01   7.8380E+01   0.0000E+00  0.0000
   7.8380E+01   8.0287E+01   0.0000E+00  0.0000
   8.0287E+01   8.2240E+01   0.0000E+00  0.0000
   8.2240E+01   8.4241E+01   0.0000E+00  0.0000
   8.4241E+01   8.6291E+01   0.0000E+00  0.0000
   8.6291E+01   8.8391E+01   0.0000E+00  0.0000
   8.8391E+01   9.0541E+01   0.0000E+00  0.0000
   9.0541E+01   9.2744E+01   0.0000E+00  0.0000
   9.2744E+01   9.5001E+01   0.0000E+00  0.0000
   9.5001E+01   9.7312E+01   0.0000E+00  0.0000
   9.7312E+01   9.9680E+01   0.0000E+00  0.0000
   9.9680E+01   1.0211E+02   0.0000E+00  0.0000
   1.0211E+02   1.0459E+02   0.0000E+00  0.0000
   1.0459E+02   1.0713E+02   0.0000E+00  0.0000
   1.0713E+02   1.0974E+02   0.0000E+00  0.0000
   1.0974E+02   1.1241E+02   0.0000E+00  0.0000
   1.1241E+02   1.1515E+02   0.0000E+00  0.0000
   1.1515E+02   1.1795E+02   0.0000E+00  0.0000
   1.1795E+02   1.2082E+02   0.0000E+00  0.0000
   1.2082E+02   1.2376E+02   0.0000E+00  0.0000
   1.2376E+02   1.2677E+02   0.0000E+00  0.0000
   1.2677E+02   1.2985E+02   0.0000E+00  0.0000
   1.2985E+02   1.3301E+02   0.0000E+00  0.0000
   1.3301E+02   1.3625E+02   0.0000E+00  0.0000
   1.3625E+02   1.3956E+02   0.0000E+00  0.0000
   1.3956E+02   1.4296E+02   0.0000E+00  0.0000
   1.4296E+02   1.4644E+02   0.0000E+00  0.0000
   1.4644E+02   1.5000E+02   0.0000E+00  0.0000

#   sum over                 3.9427E-06
'no. =    1   reg = 125 - 225'
msuc: {\huge [t-cross] in region mesh}
msdr: {\it plotted by \ANGEL \version}
msdl: {\it calculated by \PHITS  3.28}
wt: s(0.7)
\vspace{-3}
  region surface crossing
  area  &=&   1.0000E+00 [cm^2]
e:
 
# Information for Restart Calculation
# This calculation was newly started
# istdev =  2 # 1:Batch variance, 2:History variance
# resc2  = 5.00000000000000000E+09 # Total source weight or Total source weight / maxcas
# resc3  = 5.00000000000000000E+09 # Total history number or Total batch number
# maxcas =   500000000 # History / Batch, only used for istdev=1
# bitrseed = 0110100000100010111000001110001111001110100100011111101000111001 # bit data of rseed
