[ T-Cross ]
    title = [t-cross] in region mesh
     mesh =  reg            # mesh type is region-wise
      reg =    1            # number of crossing regions
      non     r-from    r-to       area
      1       106       206        1.000000    
   e-type =    3            # e-mesh is log given by emin, emax and ne
     emin =  1.0000000E-02  # minimum value of e-mesh points
     emax =   150.0000      # maximum value of e-mesh points
#    edel =  2.4039514E-02  # mesh width of e-mesh points
       ne =    400          # number of e-mesh points
#    data = ( e(i), i = 1, ne + 1 )
#           1.00000E-02  1.02433E-02  1.04925E-02  1.07478E-02  1.10093E-02
#           1.12772E-02  1.15516E-02  1.18326E-02  1.21205E-02  1.24154E-02
#           1.27175E-02  1.30269E-02  1.33439E-02  1.36686E-02  1.40011E-02
#           1.43418E-02  1.46907E-02  1.50482E-02  1.54143E-02  1.57894E-02
#           1.61735E-02  1.65670E-02  1.69701E-02  1.73830E-02  1.78060E-02
#           1.82392E-02  1.86830E-02  1.91375E-02  1.96032E-02  2.00801E-02
#           2.05687E-02  2.10692E-02  2.15818E-02  2.21069E-02  2.26448E-02
#           2.31957E-02  2.37601E-02  2.43382E-02  2.49304E-02  2.55369E-02
#           2.61583E-02  2.67947E-02  2.74467E-02  2.81145E-02  2.87985E-02
#           2.94992E-02  3.02169E-02  3.09521E-02  3.17052E-02  3.24766E-02
#           3.32668E-02  3.40762E-02  3.49053E-02  3.57546E-02  3.66246E-02
#           3.75157E-02  3.84284E-02  3.93634E-02  4.03212E-02  4.13022E-02
#           4.23071E-02  4.33365E-02  4.43909E-02  4.54710E-02  4.65773E-02
#           4.77106E-02  4.88714E-02  5.00605E-02  5.12785E-02  5.25262E-02
#           5.38042E-02  5.51133E-02  5.64542E-02  5.78278E-02  5.92348E-02
#           6.06760E-02  6.21523E-02  6.36645E-02  6.52135E-02  6.68002E-02
#           6.84255E-02  7.00904E-02  7.17957E-02  7.35426E-02  7.53319E-02
#           7.71648E-02  7.90423E-02  8.09655E-02  8.29354E-02  8.49533E-02
#           8.70203E-02  8.91376E-02  9.13064E-02  9.35279E-02  9.58035E-02
#           9.81345E-02  1.00522E-01  1.02968E-01  1.05473E-01  1.08040E-01
#           1.10668E-01  1.13361E-01  1.16119E-01  1.18944E-01  1.21838E-01
#           1.24803E-01  1.27839E-01  1.30950E-01  1.34136E-01  1.37399E-01
#           1.40742E-01  1.44167E-01  1.47675E-01  1.51268E-01  1.54948E-01
#           1.58718E-01  1.62580E-01  1.66535E-01  1.70587E-01  1.74738E-01
#           1.78989E-01  1.83344E-01  1.87805E-01  1.92375E-01  1.97055E-01
#           2.01850E-01  2.06761E-01  2.11792E-01  2.16945E-01  2.22223E-01
#           2.27630E-01  2.33169E-01  2.38842E-01  2.44653E-01  2.50605E-01
#           2.56703E-01  2.62949E-01  2.69346E-01  2.75900E-01  2.82613E-01
#           2.89489E-01  2.96532E-01  3.03747E-01  3.11138E-01  3.18708E-01
#           3.26462E-01  3.34405E-01  3.42542E-01  3.50876E-01  3.59413E-01
#           3.68158E-01  3.77116E-01  3.86291E-01  3.95690E-01  4.05317E-01
#           4.15179E-01  4.25281E-01  4.35628E-01  4.46227E-01  4.57084E-01
#           4.68205E-01  4.79597E-01  4.91266E-01  5.03219E-01  5.15463E-01
#           5.28005E-01  5.40851E-01  5.54011E-01  5.67490E-01  5.81298E-01
#           5.95441E-01  6.09929E-01  6.24769E-01  6.39970E-01  6.55541E-01
#           6.71491E-01  6.87828E-01  7.04564E-01  7.21706E-01  7.39266E-01
#           7.57253E-01  7.75678E-01  7.94551E-01  8.13883E-01  8.33685E-01
#           8.53969E-01  8.74747E-01  8.96030E-01  9.17831E-01  9.40163E-01
#           9.63038E-01  9.86469E-01  1.01047E+00  1.03506E+00  1.06024E+00
#           1.08604E+00  1.11246E+00  1.13953E+00  1.16725E+00  1.19565E+00
#           1.22474E+00  1.25454E+00  1.28507E+00  1.31633E+00  1.34836E+00
#           1.38117E+00  1.41477E+00  1.44920E+00  1.48446E+00  1.52057E+00
#           1.55757E+00  1.59547E+00  1.63429E+00  1.67405E+00  1.71478E+00
#           1.75650E+00  1.79924E+00  1.84302E+00  1.88786E+00  1.93379E+00
#           1.98084E+00  2.02904E+00  2.07841E+00  2.12898E+00  2.18078E+00
#           2.23384E+00  2.28819E+00  2.34386E+00  2.40089E+00  2.45930E+00
#           2.51914E+00  2.58043E+00  2.64322E+00  2.70753E+00  2.77341E+00
#           2.84088E+00  2.91001E+00  2.98081E+00  3.05333E+00  3.12762E+00
#           3.20372E+00  3.28167E+00  3.36152E+00  3.44330E+00  3.52708E+00
#           3.61290E+00  3.70080E+00  3.79085E+00  3.88308E+00  3.97756E+00
#           4.07434E+00  4.17347E+00  4.27501E+00  4.37903E+00  4.48557E+00
#           4.59471E+00  4.70650E+00  4.82102E+00  4.93832E+00  5.05847E+00
#           5.18155E+00  5.30762E+00  5.43676E+00  5.56904E+00  5.70453E+00
#           5.84333E+00  5.98550E+00  6.13114E+00  6.28031E+00  6.43312E+00
#           6.58964E+00  6.74997E+00  6.91420E+00  7.08243E+00  7.25475E+00
#           7.43126E+00  7.61207E+00  7.79728E+00  7.98700E+00  8.18133E+00
#           8.38038E+00  8.58428E+00  8.79315E+00  9.00709E+00  9.22624E+00
#           9.45072E+00  9.68067E+00  9.91620E+00  1.01575E+01  1.04046E+01
#           1.06578E+01  1.09171E+01  1.11827E+01  1.14548E+01  1.17335E+01
#           1.20190E+01  1.23114E+01  1.26109E+01  1.29178E+01  1.32321E+01
#           1.35540E+01  1.38838E+01  1.42216E+01  1.45676E+01  1.49221E+01
#           1.52851E+01  1.56570E+01  1.60380E+01  1.64282E+01  1.68279E+01
#           1.72374E+01  1.76568E+01  1.80864E+01  1.85264E+01  1.89772E+01
#           1.94389E+01  1.99119E+01  2.03963E+01  2.08926E+01  2.14009E+01
#           2.19216E+01  2.24550E+01  2.30014E+01  2.35610E+01  2.41343E+01
#           2.47215E+01  2.53230E+01  2.59391E+01  2.65702E+01  2.72167E+01
#           2.78789E+01  2.85572E+01  2.92520E+01  2.99637E+01  3.06928E+01
#           3.14396E+01  3.22045E+01  3.29881E+01  3.37907E+01  3.46128E+01
#           3.54550E+01  3.63177E+01  3.72013E+01  3.81064E+01  3.90336E+01
#           3.99833E+01  4.09561E+01  4.19526E+01  4.29734E+01  4.40189E+01
#           4.50900E+01  4.61870E+01  4.73108E+01  4.84619E+01  4.96410E+01
#           5.08488E+01  5.20860E+01  5.33533E+01  5.46514E+01  5.59812E+01
#           5.73432E+01  5.87384E+01  6.01676E+01  6.16315E+01  6.31311E+01
#           6.46671E+01  6.62405E+01  6.78522E+01  6.95031E+01  7.11941E+01
#           7.29263E+01  7.47007E+01  7.65182E+01  7.83800E+01  8.02870E+01
#           8.22405E+01  8.42414E+01  8.62911E+01  8.83906E+01  9.05412E+01
#           9.27442E+01  9.50007E+01  9.73122E+01  9.96799E+01  1.02105E+02
#           1.04589E+02  1.07134E+02  1.09741E+02  1.12411E+02  1.15146E+02
#           1.17948E+02  1.20817E+02  1.23757E+02  1.26768E+02  1.29852E+02
#           1.33012E+02  1.36248E+02  1.39563E+02  1.42959E+02  1.46437E+02
#           1.50000E+02
     unit =    2            # unit is [1/cm^2/(MeV/n)/source]
     axis =  eng            # axis of output
     file = detector-07.out  # file name of output for the above axis
   output = f-curr          # surface crossing forward current spectrum
     part =  neutron  
# kf/name :  2112     
#    used :        main (  %)        temp (  %)       total (  %)
#  memory :         414 (  0)           0 (  0)         414 (  0)

#------------------------------------------------------------------------------
#newpage:
#   no. =    1   reg = 106 - 206

x: Energy [MeV/n]
y:  F-Curr [1/cm^2/(MeV/n)/source]         
p: xlog ylog afac(0.8) form(0.9)
h: n            x            y(neutron ),hh0l   n 
#  e-lower      e-upper      neutron     r.err 
   1.0000E-02   1.0243E-02   0.0000E+00  0.0000
   1.0243E-02   1.0493E-02   1.4152E-07  1.0000
   1.0493E-02   1.0748E-02   0.0000E+00  0.0000
   1.0748E-02   1.1009E-02   3.8240E-07  1.0000
   1.1009E-02   1.1277E-02   0.0000E+00  0.0000
   1.1277E-02   1.1552E-02   0.0000E+00  0.0000
   1.1552E-02   1.1833E-02   0.0000E+00  0.0000
   1.1833E-02   1.2121E-02   0.0000E+00  0.0000
   1.2121E-02   1.2415E-02   0.0000E+00  0.0000
   1.2415E-02   1.2718E-02   0.0000E+00  0.0000
   1.2718E-02   1.3027E-02   0.0000E+00  0.0000
   1.3027E-02   1.3344E-02   6.3100E-07  1.0000
   1.3344E-02   1.3669E-02   0.0000E+00  0.0000
   1.3669E-02   1.4001E-02   3.1881E-07  1.0000
   1.4001E-02   1.4342E-02   2.0838E-07  1.0000
   1.4342E-02   1.4691E-02   0.0000E+00  0.0000
   1.4691E-02   1.5048E-02   1.6786E-06  0.5774
   1.5048E-02   1.5414E-02   0.0000E+00  0.0000
   1.5414E-02   1.5789E-02   0.0000E+00  0.0000
   1.5789E-02   1.6174E-02   5.2061E-07  1.0000
   1.6174E-02   1.6567E-02   0.0000E+00  0.0000
   1.6567E-02   1.6970E-02   9.9234E-07  0.7071
   1.6970E-02   1.7383E-02   4.8438E-07  1.0000
   1.7383E-02   1.7806E-02   9.0139E-08  1.0000
   1.7806E-02   1.8239E-02   6.7675E-08  1.0000
   1.8239E-02   1.8683E-02   0.0000E+00  0.0000
   1.8683E-02   1.9138E-02   5.2820E-07  0.8496
   1.9138E-02   1.9603E-02   0.0000E+00  0.0000
   1.9603E-02   2.0080E-02   8.3864E-07  0.7071
   2.0080E-02   2.0569E-02   4.0936E-07  1.0000
   2.0569E-02   2.1069E-02   8.8979E-07  0.6433
   2.1069E-02   2.1582E-02   3.9015E-07  1.0000
   2.1582E-02   2.2107E-02   8.5461E-08  1.0000
   2.2107E-02   2.2645E-02   2.6845E-07  0.7577
   2.2645E-02   2.3196E-02   3.6300E-07  1.0000
   2.3196E-02   2.3760E-02   1.0162E-06  0.5390
   2.3760E-02   2.4338E-02   1.4807E-07  1.0000
   2.4338E-02   2.4930E-02   9.8366E-07  0.5263
   2.4930E-02   2.5537E-02   7.3506E-07  0.6426
   2.5537E-02   2.6158E-02   9.6566E-07  0.5774
   2.6158E-02   2.6795E-02   9.5890E-07  0.5074
   2.6795E-02   2.7447E-02   4.1088E-07  0.7885
   2.7447E-02   2.8114E-02   1.7087E-06  0.3967
   2.8114E-02   2.8799E-02   1.6600E-06  0.3994
   2.8799E-02   2.9499E-02   1.1234E-06  0.5002
   2.9499E-02   3.0217E-02   8.6918E-07  0.4889
   3.0217E-02   3.0952E-02   3.6549E-07  0.7870
   3.0952E-02   3.1705E-02   1.1032E-06  0.4829
   3.1705E-02   3.2477E-02   5.0876E-07  0.5936
   3.2477E-02   3.3267E-02   3.1962E-06  0.2683
   3.3267E-02   3.4076E-02   8.1141E-07  0.4823
   3.4076E-02   3.4905E-02   2.1130E-06  0.3272
   3.4905E-02   3.5755E-02   1.1208E-06  0.4296
   3.5755E-02   3.6625E-02   1.4875E-06  0.3632
   3.6625E-02   3.7516E-02   2.0674E-06  0.3265
   3.7516E-02   3.8428E-02   1.7157E-06  0.3277
   3.8428E-02   3.9363E-02   2.9100E-06  0.2639
   3.9363E-02   4.0321E-02   1.1700E-06  0.4039
   4.0321E-02   4.1302E-02   1.4157E-06  0.3605
   4.1302E-02   4.2307E-02   2.5066E-06  0.2747
   4.2307E-02   4.3337E-02   2.1498E-06  0.2698
   4.3337E-02   4.4391E-02   2.8311E-06  0.2465
   4.4391E-02   4.5471E-02   1.5280E-06  0.3163
   4.5471E-02   4.6577E-02   1.9441E-06  0.2767
   4.6577E-02   4.7711E-02   2.8936E-06  0.2363
   4.7711E-02   4.8871E-02   2.1841E-06  0.2588
   4.8871E-02   5.0061E-02   2.9826E-06  0.2319
   5.0061E-02   5.1279E-02   2.7889E-06  0.2259
   5.1279E-02   5.2526E-02   3.1361E-06  0.2154
   5.2526E-02   5.3804E-02   2.1002E-06  0.2561
   5.3804E-02   5.5113E-02   3.0981E-06  0.2067
   5.5113E-02   5.6454E-02   3.8575E-06  0.1841
   5.6454E-02   5.7828E-02   2.7781E-06  0.2121
   5.7828E-02   5.9235E-02   3.9190E-06  0.1797
   5.9235E-02   6.0676E-02   4.7060E-06  0.1634
   6.0676E-02   6.2152E-02   4.5900E-06  0.1629
   6.2152E-02   6.3665E-02   5.8674E-06  0.1438
   6.3665E-02   6.5214E-02   5.6828E-06  0.1440
   6.5214E-02   6.6800E-02   5.5940E-06  0.1452
   6.6800E-02   6.8426E-02   4.0137E-06  0.1640
   6.8426E-02   7.0090E-02   4.5552E-06  0.1520
   7.0090E-02   7.1796E-02   4.3618E-06  0.1530
   7.1796E-02   7.3543E-02   4.1861E-06  0.1566
   7.3543E-02   7.5332E-02   7.3865E-06  0.1174
   7.5332E-02   7.7165E-02   5.0398E-06  0.1370
   7.7165E-02   7.9042E-02   8.9757E-06  0.1044
   7.9042E-02   8.0965E-02   7.0063E-06  0.1160
   8.0965E-02   8.2935E-02   6.9656E-06  0.1155
   8.2935E-02   8.4953E-02   6.5445E-06  0.1177
   8.4953E-02   8.7020E-02   6.8735E-06  0.1116
   8.7020E-02   8.9138E-02   7.4826E-06  0.1063
   8.9138E-02   9.1306E-02   7.7483E-06  0.1038
   9.1306E-02   9.3528E-02   9.1043E-06  0.0949
   9.3528E-02   9.5804E-02   1.0132E-05  0.0892
   9.5804E-02   9.8134E-02   1.0960E-05  0.0848
   9.8134E-02   1.0052E-01   1.0271E-05  0.0863
   1.0052E-01   1.0297E-01   1.2220E-05  0.0788
   1.0297E-01   1.0547E-01   1.1019E-05  0.0813
   1.0547E-01   1.0804E-01   1.1871E-05  0.0779
   1.0804E-01   1.1067E-01   1.2736E-05  0.0740
   1.1067E-01   1.1336E-01   1.2475E-05  0.0736
   1.1336E-01   1.1612E-01   1.5017E-05  0.0662
   1.1612E-01   1.1894E-01   1.3619E-05  0.0688
   1.1894E-01   1.2184E-01   1.4505E-05  0.0662
   1.2184E-01   1.2480E-01   1.6098E-05  0.0617
   1.2480E-01   1.2784E-01   1.6690E-05  0.0600
   1.2784E-01   1.3095E-01   1.7534E-05  0.0580
   1.3095E-01   1.3414E-01   1.6180E-05  0.0599
   1.3414E-01   1.3740E-01   1.8786E-05  0.0546
   1.3740E-01   1.4074E-01   1.9251E-05  0.0538
   1.4074E-01   1.4417E-01   1.9289E-05  0.0524
   1.4417E-01   1.4767E-01   2.1107E-05  0.0499
   1.4767E-01   1.5127E-01   2.1859E-05  0.0485
   1.5127E-01   1.5495E-01   2.2024E-05  0.0477
   1.5495E-01   1.5872E-01   2.1753E-05  0.0473
   1.5872E-01   1.6258E-01   2.6578E-05  0.0423
   1.6258E-01   1.6654E-01   2.5005E-05  0.0427
   1.6654E-01   1.7059E-01   2.5765E-05  0.0420
   1.7059E-01   1.7474E-01   2.8249E-05  0.0396
   1.7474E-01   1.7899E-01   3.0523E-05  0.0377
   1.7899E-01   1.8334E-01   3.0177E-05  0.0374
   1.8334E-01   1.8781E-01   3.0126E-05  0.0370
   1.8781E-01   1.9237E-01   3.3705E-05  0.0346
   1.9237E-01   1.9706E-01   3.4787E-05  0.0336
   1.9706E-01   2.0185E-01   3.7815E-05  0.0319
   2.0185E-01   2.0676E-01   3.8636E-05  0.0313
   2.0676E-01   2.1179E-01   3.8463E-05  0.0310
   2.1179E-01   2.1694E-01   4.2334E-05  0.0292
   2.1694E-01   2.2222E-01   4.4671E-05  0.0281
   2.2222E-01   2.2763E-01   4.6644E-05  0.0271
   2.2763E-01   2.3317E-01   4.6644E-05  0.0268
   2.3317E-01   2.3884E-01   4.9571E-05  0.0257
   2.3884E-01   2.4465E-01   5.1349E-05  0.0249
   2.4465E-01   2.5061E-01   5.4417E-05  0.0240
   2.5061E-01   2.5670E-01   5.4004E-05  0.0238
   2.5670E-01   2.6295E-01   5.8789E-05  0.0225
   2.6295E-01   2.6935E-01   6.3772E-05  0.0215
   2.6935E-01   2.7590E-01   6.5406E-05  0.0210
   2.7590E-01   2.8261E-01   6.6010E-05  0.0206
   2.8261E-01   2.8949E-01   6.9476E-05  0.0198
   2.8949E-01   2.9653E-01   7.0959E-05  0.0194
   2.9653E-01   3.0375E-01   7.7619E-05  0.0184
   3.0375E-01   3.1114E-01   7.6855E-05  0.0183
   3.1114E-01   3.1871E-01   8.2575E-05  0.0174
   3.1871E-01   3.2646E-01   8.1099E-05  0.0174
   3.2646E-01   3.3441E-01   8.5542E-05  0.0167
   3.3441E-01   3.4254E-01   8.9091E-05  0.0162
   3.4254E-01   3.5088E-01   9.6583E-05  0.0154
   3.5088E-01   3.5941E-01   9.7771E-05  0.0151
   3.5941E-01   3.6816E-01   1.0148E-04  0.0147
   3.6816E-01   3.7712E-01   1.0554E-04  0.0142
   3.7712E-01   3.8629E-01   1.0420E-04  0.0142
   3.8629E-01   3.9569E-01   1.0935E-04  0.0137
   3.9569E-01   4.0532E-01   1.1315E-04  0.0133
   4.0532E-01   4.1518E-01   1.1803E-04  0.0129
   4.1518E-01   4.2528E-01   1.2333E-04  0.0124
   4.2528E-01   4.3563E-01   1.2630E-04  0.0122
   4.3563E-01   4.4623E-01   1.3264E-04  0.0117
   4.4623E-01   4.5708E-01   1.3721E-04  0.0114
   4.5708E-01   4.6821E-01   1.3675E-04  0.0113
   4.6821E-01   4.7960E-01   1.4202E-04  0.0109
   4.7960E-01   4.9127E-01   1.5181E-04  0.0105
   4.9127E-01   5.0322E-01   1.5100E-04  0.0104
   5.0322E-01   5.1546E-01   1.5453E-04  0.0101
   5.1546E-01   5.2800E-01   1.6188E-04  0.0098
   5.2800E-01   5.4085E-01   1.6681E-04  0.0095
   5.4085E-01   5.5401E-01   1.7182E-04  0.0093
   5.5401E-01   5.6749E-01   1.7382E-04  0.0091
   5.6749E-01   5.8130E-01   1.7834E-04  0.0089
   5.8130E-01   5.9544E-01   1.8662E-04  0.0086
   5.9544E-01   6.0993E-01   1.9055E-04  0.0084
   6.0993E-01   6.2477E-01   1.9599E-04  0.0082
   6.2477E-01   6.3997E-01   2.0324E-04  0.0080
   6.3997E-01   6.5554E-01   2.0670E-04  0.0078
   6.5554E-01   6.7149E-01   2.1248E-04  0.0076
   6.7149E-01   6.8783E-01   2.1854E-04  0.0074
   6.8783E-01   7.0456E-01   2.2303E-04  0.0072
   7.0456E-01   7.2171E-01   2.3062E-04  0.0070
   7.2171E-01   7.3927E-01   2.3443E-04  0.0069
   7.3927E-01   7.5725E-01   2.4107E-04  0.0067
   7.5725E-01   7.7568E-01   2.4121E-04  0.0066
   7.7568E-01   7.9455E-01   2.4813E-04  0.0065
   7.9455E-01   8.1388E-01   2.5744E-04  0.0063
   8.1388E-01   8.3368E-01   2.6167E-04  0.0062
   8.3368E-01   8.5397E-01   2.6308E-04  0.0061
   8.5397E-01   8.7475E-01   2.7187E-04  0.0059
   8.7475E-01   8.9603E-01   2.7380E-04  0.0058
   8.9603E-01   9.1783E-01   2.8233E-04  0.0056
   9.1783E-01   9.4016E-01   2.8499E-04  0.0055
   9.4016E-01   9.6304E-01   2.8842E-04  0.0055
   9.6304E-01   9.8647E-01   2.9131E-04  0.0054
   9.8647E-01   1.0105E+00   2.9499E-04  0.0053
   1.0105E+00   1.0351E+00   2.9401E-04  0.0052
   1.0351E+00   1.0602E+00   2.9203E-04  0.0052
   1.0602E+00   1.0860E+00   2.9111E-04  0.0051
   1.0860E+00   1.1125E+00   2.8855E-04  0.0051
   1.1125E+00   1.1395E+00   2.8857E-04  0.0050
   1.1395E+00   1.1673E+00   2.9038E-04  0.0049
   1.1673E+00   1.1957E+00   2.9503E-04  0.0048
   1.1957E+00   1.2247E+00   2.9717E-04  0.0048
   1.2247E+00   1.2545E+00   2.9302E-04  0.0047
   1.2545E+00   1.2851E+00   2.8956E-04  0.0047
   1.2851E+00   1.3163E+00   2.8687E-04  0.0047
   1.3163E+00   1.3484E+00   2.8692E-04  0.0046
   1.3484E+00   1.3812E+00   2.8584E-04  0.0046
   1.3812E+00   1.4148E+00   2.8891E-04  0.0045
   1.4148E+00   1.4492E+00   2.8841E-04  0.0044
   1.4492E+00   1.4845E+00   2.8574E-04  0.0044
   1.4845E+00   1.5206E+00   2.8615E-04  0.0043
   1.5206E+00   1.5576E+00   2.8337E-04  0.0043
   1.5576E+00   1.5955E+00   2.8030E-04  0.0043
   1.5955E+00   1.6343E+00   2.7811E-04  0.0042
   1.6343E+00   1.6741E+00   2.7423E-04  0.0042
   1.6741E+00   1.7148E+00   2.7391E-04  0.0042
   1.7148E+00   1.7565E+00   2.7109E-04  0.0041
   1.7565E+00   1.7992E+00   2.7190E-04  0.0041
   1.7992E+00   1.8430E+00   2.7168E-04  0.0040
   1.8430E+00   1.8879E+00   2.6961E-04  0.0040
   1.8879E+00   1.9338E+00   2.6960E-04  0.0040
   1.9338E+00   1.9808E+00   2.6731E-04  0.0039
   1.9808E+00   2.0290E+00   2.6794E-04  0.0039
   2.0290E+00   2.0784E+00   2.6661E-04  0.0038
   2.0784E+00   2.1290E+00   2.6407E-04  0.0038
   2.1290E+00   2.1808E+00   2.6487E-04  0.0037
   2.1808E+00   2.2338E+00   2.6045E-04  0.0037
   2.2338E+00   2.2882E+00   2.5932E-04  0.0037
   2.2882E+00   2.3439E+00   2.5775E-04  0.0037
   2.3439E+00   2.4009E+00   2.5437E-04  0.0036
   2.4009E+00   2.4593E+00   2.5125E-04  0.0036
   2.4593E+00   2.5191E+00   2.4863E-04  0.0036
   2.5191E+00   2.5804E+00   2.4427E-04  0.0036
   2.5804E+00   2.6432E+00   2.4051E-04  0.0035
   2.6432E+00   2.7075E+00   2.3836E-04  0.0035
   2.7075E+00   2.7734E+00   2.3528E-04  0.0035
   2.7734E+00   2.8409E+00   2.3363E-04  0.0035
   2.8409E+00   2.9100E+00   2.3280E-04  0.0034
   2.9100E+00   2.9808E+00   2.3057E-04  0.0034
   2.9808E+00   3.0533E+00   2.2858E-04  0.0034
   3.0533E+00   3.1276E+00   2.2530E-04  0.0034
   3.1276E+00   3.2037E+00   2.2268E-04  0.0034
   3.2037E+00   3.2817E+00   2.2036E-04  0.0033
   3.2817E+00   3.3615E+00   2.1831E-04  0.0033
   3.3615E+00   3.4433E+00   2.1522E-04  0.0033
   3.4433E+00   3.5271E+00   2.1313E-04  0.0033
   3.5271E+00   3.6129E+00   2.1046E-04  0.0032
   3.6129E+00   3.7008E+00   2.0707E-04  0.0032
   3.7008E+00   3.7908E+00   2.0421E-04  0.0032
   3.7908E+00   3.8831E+00   1.9987E-04  0.0032
   3.8831E+00   3.9776E+00   1.9573E-04  0.0032
   3.9776E+00   4.0743E+00   1.9132E-04  0.0032
   4.0743E+00   4.1735E+00   1.8796E-04  0.0032
   4.1735E+00   4.2750E+00   1.8296E-04  0.0032
   4.2750E+00   4.3790E+00   1.8003E-04  0.0032
   4.3790E+00   4.4856E+00   1.7788E-04  0.0032
   4.4856E+00   4.5947E+00   1.7493E-04  0.0031
   4.5947E+00   4.7065E+00   1.7268E-04  0.0031
   4.7065E+00   4.8210E+00   1.7060E-04  0.0031
   4.8210E+00   4.9383E+00   1.7021E-04  0.0031
   4.9383E+00   5.0585E+00   1.7147E-04  0.0030
   5.0585E+00   5.1815E+00   1.7706E-04  0.0030
   5.1815E+00   5.3076E+00   1.7858E-04  0.0029
   5.3076E+00   5.4368E+00   1.7509E-04  0.0029
   5.4368E+00   5.5690E+00   1.7211E-04  0.0029
   5.5690E+00   5.7045E+00   1.6894E-04  0.0029
   5.7045E+00   5.8433E+00   1.6577E-04  0.0029
   5.8433E+00   5.9855E+00   1.6301E-04  0.0029
   5.9855E+00   6.1311E+00   1.6071E-04  0.0029
   6.1311E+00   6.2803E+00   1.6037E-04  0.0028
   6.2803E+00   6.4331E+00   1.5828E-04  0.0028
   6.4331E+00   6.5896E+00   1.5671E-04  0.0028
   6.5896E+00   6.7500E+00   1.5497E-04  0.0028
   6.7500E+00   6.9142E+00   1.5336E-04  0.0028
   6.9142E+00   7.0824E+00   1.5233E-04  0.0027
   7.0824E+00   7.2548E+00   1.5144E-04  0.0027
   7.2548E+00   7.4313E+00   1.4960E-04  0.0027
   7.4313E+00   7.6121E+00   1.4851E-04  0.0027
   7.6121E+00   7.7973E+00   1.4815E-04  0.0027
   7.7973E+00   7.9870E+00   1.4658E-04  0.0026
   7.9870E+00   8.1813E+00   1.4656E-04  0.0026
   8.1813E+00   8.3804E+00   1.4543E-04  0.0026
   8.3804E+00   8.5843E+00   1.4415E-04  0.0026
   8.5843E+00   8.7931E+00   1.4309E-04  0.0026
   8.7931E+00   9.0071E+00   1.4052E-04  0.0026
   9.0071E+00   9.2262E+00   1.3983E-04  0.0025
   9.2262E+00   9.4507E+00   1.3777E-04  0.0025
   9.4507E+00   9.6807E+00   1.3617E-04  0.0025
   9.6807E+00   9.9162E+00   1.3528E-04  0.0025
   9.9162E+00   1.0157E+01   1.3414E-04  0.0025
   1.0157E+01   1.0405E+01   1.3299E-04  0.0024
   1.0405E+01   1.0658E+01   1.3207E-04  0.0024
   1.0658E+01   1.0917E+01   1.3175E-04  0.0024
   1.0917E+01   1.1183E+01   1.3090E-04  0.0024
   1.1183E+01   1.1455E+01   1.2917E-04  0.0024
   1.1455E+01   1.1733E+01   1.2862E-04  0.0023
   1.1733E+01   1.2019E+01   1.2768E-04  0.0023
   1.2019E+01   1.2311E+01   1.2655E-04  0.0023
   1.2311E+01   1.2611E+01   1.2560E-04  0.0023
   1.2611E+01   1.2918E+01   1.2500E-04  0.0023
   1.2918E+01   1.3232E+01   1.2366E-04  0.0023
   1.3232E+01   1.3554E+01   1.2280E-04  0.0022
   1.3554E+01   1.3884E+01   1.2202E-04  0.0022
   1.3884E+01   1.4222E+01   1.2100E-04  0.0022
   1.4222E+01   1.4568E+01   1.1949E-04  0.0022
   1.4568E+01   1.4922E+01   1.1925E-04  0.0022
   1.4922E+01   1.5285E+01   1.1768E-04  0.0021
   1.5285E+01   1.5657E+01   1.1670E-04  0.0021
   1.5657E+01   1.6038E+01   1.1518E-04  0.0021
   1.6038E+01   1.6428E+01   1.1437E-04  0.0021
   1.6428E+01   1.6828E+01   1.1305E-04  0.0021
   1.6828E+01   1.7237E+01   1.1233E-04  0.0021
   1.7237E+01   1.7657E+01   1.1095E-04  0.0021
   1.7657E+01   1.8086E+01   1.0927E-04  0.0021
   1.8086E+01   1.8526E+01   1.0783E-04  0.0020
   1.8526E+01   1.8977E+01   1.0625E-04  0.0020
   1.8977E+01   1.9439E+01   1.0535E-04  0.0020
   1.9439E+01   1.9912E+01   1.0314E-04  0.0020
   1.9912E+01   2.0396E+01   1.1009E-04  0.0019
   2.0396E+01   2.0893E+01   1.1005E-04  0.0019
   2.0893E+01   2.1401E+01   1.0871E-04  0.0019
   2.1401E+01   2.1922E+01   1.0751E-04  0.0019
   2.1922E+01   2.2455E+01   1.0572E-04  0.0019
   2.2455E+01   2.3001E+01   1.0432E-04  0.0019
   2.3001E+01   2.3561E+01   1.0299E-04  0.0019
   2.3561E+01   2.4134E+01   1.0151E-04  0.0019
   2.4134E+01   2.4721E+01   9.9633E-05  0.0018
   2.4721E+01   2.5323E+01   9.8264E-05  0.0018
   2.5323E+01   2.5939E+01   9.6838E-05  0.0018
   2.5939E+01   2.6570E+01   9.5617E-05  0.0018
   2.6570E+01   2.7217E+01   9.3834E-05  0.0018
   2.7217E+01   2.7879E+01   9.2316E-05  0.0018
   2.7879E+01   2.8557E+01   9.0525E-05  0.0018
   2.8557E+01   2.9252E+01   8.8287E-05  0.0018
   2.9252E+01   2.9964E+01   8.6545E-05  0.0018
   2.9964E+01   3.0693E+01   8.4833E-05  0.0018
   3.0693E+01   3.1440E+01   8.2439E-05  0.0018
   3.1440E+01   3.2205E+01   8.0546E-05  0.0018
   3.2205E+01   3.2988E+01   7.8357E-05  0.0018
   3.2988E+01   3.3791E+01   7.6213E-05  0.0018
   3.3791E+01   3.4613E+01   7.4286E-05  0.0018
   3.4613E+01   3.5455E+01   7.2021E-05  0.0018
   3.5455E+01   3.6318E+01   6.9711E-05  0.0018
   3.6318E+01   3.7201E+01   6.6988E-05  0.0018
   3.7201E+01   3.8106E+01   6.4778E-05  0.0018
   3.8106E+01   3.9034E+01   6.2223E-05  0.0019
   3.9034E+01   3.9983E+01   5.9801E-05  0.0019
   3.9983E+01   4.0956E+01   5.6854E-05  0.0019
   4.0956E+01   4.1953E+01   5.4052E-05  0.0019
   4.1953E+01   4.2973E+01   5.1163E-05  0.0020
   4.2973E+01   4.4019E+01   4.8132E-05  0.0020
   4.4019E+01   4.5090E+01   4.4587E-05  0.0020
   4.5090E+01   4.6187E+01   3.8040E-05  0.0022
   4.6187E+01   4.7311E+01   3.3578E-05  0.0023
   4.7311E+01   4.8462E+01   2.5439E-05  0.0026
   4.8462E+01   4.9641E+01   2.0859E-05  0.0029
   4.9641E+01   5.0849E+01   1.7420E-05  0.0031
   5.0849E+01   5.2086E+01   1.3915E-05  0.0034
   5.2086E+01   5.3353E+01   1.0434E-05  0.0039
   5.3353E+01   5.4651E+01   7.2158E-06  0.0046
   5.4651E+01   5.5981E+01   4.4855E-06  0.0058
   5.5981E+01   5.7343E+01   2.2830E-06  0.0080
   5.7343E+01   5.8738E+01   8.4776E-07  0.0130
   5.8738E+01   6.0168E+01   1.4190E-07  0.0314
   6.0168E+01   6.1632E+01   1.6394E-09  0.2887
   6.1632E+01   6.3131E+01   0.0000E+00  0.0000
   6.3131E+01   6.4667E+01   0.0000E+00  0.0000
   6.4667E+01   6.6240E+01   0.0000E+00  0.0000
   6.6240E+01   6.7852E+01   0.0000E+00  0.0000
   6.7852E+01   6.9503E+01   0.0000E+00  0.0000
   6.9503E+01   7.1194E+01   0.0000E+00  0.0000
   7.1194E+01   7.2926E+01   0.0000E+00  0.0000
   7.2926E+01   7.4701E+01   0.0000E+00  0.0000
   7.4701E+01   7.6518E+01   0.0000E+00  0.0000
   7.6518E+01   7.8380E+01   0.0000E+00  0.0000
   7.8380E+01   8.0287E+01   0.0000E+00  0.0000
   8.0287E+01   8.2240E+01   0.0000E+00  0.0000
   8.2240E+01   8.4241E+01   0.0000E+00  0.0000
   8.4241E+01   8.6291E+01   0.0000E+00  0.0000
   8.6291E+01   8.8391E+01   0.0000E+00  0.0000
   8.8391E+01   9.0541E+01   0.0000E+00  0.0000
   9.0541E+01   9.2744E+01   0.0000E+00  0.0000
   9.2744E+01   9.5001E+01   0.0000E+00  0.0000
   9.5001E+01   9.7312E+01   0.0000E+00  0.0000
   9.7312E+01   9.9680E+01   0.0000E+00  0.0000
   9.9680E+01   1.0211E+02   0.0000E+00  0.0000
   1.0211E+02   1.0459E+02   0.0000E+00  0.0000
   1.0459E+02   1.0713E+02   0.0000E+00  0.0000
   1.0713E+02   1.0974E+02   0.0000E+00  0.0000
   1.0974E+02   1.1241E+02   0.0000E+00  0.0000
   1.1241E+02   1.1515E+02   0.0000E+00  0.0000
   1.1515E+02   1.1795E+02   0.0000E+00  0.0000
   1.1795E+02   1.2082E+02   0.0000E+00  0.0000
   1.2082E+02   1.2376E+02   0.0000E+00  0.0000
   1.2376E+02   1.2677E+02   0.0000E+00  0.0000
   1.2677E+02   1.2985E+02   0.0000E+00  0.0000
   1.2985E+02   1.3301E+02   0.0000E+00  0.0000
   1.3301E+02   1.3625E+02   0.0000E+00  0.0000
   1.3625E+02   1.3956E+02   0.0000E+00  0.0000
   1.3956E+02   1.4296E+02   0.0000E+00  0.0000
   1.4296E+02   1.4644E+02   0.0000E+00  0.0000
   1.4644E+02   1.5000E+02   0.0000E+00  0.0000

#   sum over                 3.4504E-05
'no. =    1   reg = 106 - 206'
msuc: {\huge [t-cross] in region mesh}
msdr: {\it plotted by \ANGEL \version}
msdl: {\it calculated by \PHITS  3.26}
wt: s(0.7)
\vspace{-3}
  region surface crossing
  area  &=&   1.0000E+00 [cm^2]
e:
 
# Information for Restart Calculation
# This calculation was newly started
# istdev =  2 # 1:Batch variance, 2:History variance
# resc2  = 5.00000000000000000E+09 # Total source weight or Total source weight / maxcas
# resc3  = 5.00000000000000000E+09 # Total history number or Total batch number
# maxcas =   100000000 # History / Batch, only used for istdev=1
# bitrseed = 0110100000100010111000001110001111001110100100011111101000111001 # bit data of rseed
