[ T-Cross ]
    title = [t-cross] in region mesh
     mesh =  reg            # mesh type is region-wise
      reg =    1            # number of crossing regions
      non     r-from    r-to       area
      1       113       213        1.000000    
   e-type =    3            # e-mesh is log given by emin, emax and ne
     emin =  1.0000000E-02  # minimum value of e-mesh points
     emax =   150.0000      # maximum value of e-mesh points
#    edel =  2.4039514E-02  # mesh width of e-mesh points
       ne =    400          # number of e-mesh points
#    data = ( e(i), i = 1, ne + 1 )
#           1.00000E-02  1.02433E-02  1.04925E-02  1.07478E-02  1.10093E-02
#           1.12772E-02  1.15516E-02  1.18326E-02  1.21205E-02  1.24154E-02
#           1.27175E-02  1.30269E-02  1.33439E-02  1.36686E-02  1.40011E-02
#           1.43418E-02  1.46907E-02  1.50482E-02  1.54143E-02  1.57894E-02
#           1.61735E-02  1.65670E-02  1.69701E-02  1.73830E-02  1.78060E-02
#           1.82392E-02  1.86830E-02  1.91375E-02  1.96032E-02  2.00801E-02
#           2.05687E-02  2.10692E-02  2.15818E-02  2.21069E-02  2.26448E-02
#           2.31957E-02  2.37601E-02  2.43382E-02  2.49304E-02  2.55369E-02
#           2.61583E-02  2.67947E-02  2.74467E-02  2.81145E-02  2.87985E-02
#           2.94992E-02  3.02169E-02  3.09521E-02  3.17052E-02  3.24766E-02
#           3.32668E-02  3.40762E-02  3.49053E-02  3.57546E-02  3.66246E-02
#           3.75157E-02  3.84284E-02  3.93634E-02  4.03212E-02  4.13022E-02
#           4.23071E-02  4.33365E-02  4.43909E-02  4.54710E-02  4.65773E-02
#           4.77106E-02  4.88714E-02  5.00605E-02  5.12785E-02  5.25262E-02
#           5.38042E-02  5.51133E-02  5.64542E-02  5.78278E-02  5.92348E-02
#           6.06760E-02  6.21523E-02  6.36645E-02  6.52135E-02  6.68002E-02
#           6.84255E-02  7.00904E-02  7.17957E-02  7.35426E-02  7.53319E-02
#           7.71648E-02  7.90423E-02  8.09655E-02  8.29354E-02  8.49533E-02
#           8.70203E-02  8.91376E-02  9.13064E-02  9.35279E-02  9.58035E-02
#           9.81345E-02  1.00522E-01  1.02968E-01  1.05473E-01  1.08040E-01
#           1.10668E-01  1.13361E-01  1.16119E-01  1.18944E-01  1.21838E-01
#           1.24803E-01  1.27839E-01  1.30950E-01  1.34136E-01  1.37399E-01
#           1.40742E-01  1.44167E-01  1.47675E-01  1.51268E-01  1.54948E-01
#           1.58718E-01  1.62580E-01  1.66535E-01  1.70587E-01  1.74738E-01
#           1.78989E-01  1.83344E-01  1.87805E-01  1.92375E-01  1.97055E-01
#           2.01850E-01  2.06761E-01  2.11792E-01  2.16945E-01  2.22223E-01
#           2.27630E-01  2.33169E-01  2.38842E-01  2.44653E-01  2.50605E-01
#           2.56703E-01  2.62949E-01  2.69346E-01  2.75900E-01  2.82613E-01
#           2.89489E-01  2.96532E-01  3.03747E-01  3.11138E-01  3.18708E-01
#           3.26462E-01  3.34405E-01  3.42542E-01  3.50876E-01  3.59413E-01
#           3.68158E-01  3.77116E-01  3.86291E-01  3.95690E-01  4.05317E-01
#           4.15179E-01  4.25281E-01  4.35628E-01  4.46227E-01  4.57084E-01
#           4.68205E-01  4.79597E-01  4.91266E-01  5.03219E-01  5.15463E-01
#           5.28005E-01  5.40851E-01  5.54011E-01  5.67490E-01  5.81298E-01
#           5.95441E-01  6.09929E-01  6.24769E-01  6.39970E-01  6.55541E-01
#           6.71491E-01  6.87828E-01  7.04564E-01  7.21706E-01  7.39266E-01
#           7.57253E-01  7.75678E-01  7.94551E-01  8.13883E-01  8.33685E-01
#           8.53969E-01  8.74747E-01  8.96030E-01  9.17831E-01  9.40163E-01
#           9.63038E-01  9.86469E-01  1.01047E+00  1.03506E+00  1.06024E+00
#           1.08604E+00  1.11246E+00  1.13953E+00  1.16725E+00  1.19565E+00
#           1.22474E+00  1.25454E+00  1.28507E+00  1.31633E+00  1.34836E+00
#           1.38117E+00  1.41477E+00  1.44920E+00  1.48446E+00  1.52057E+00
#           1.55757E+00  1.59547E+00  1.63429E+00  1.67405E+00  1.71478E+00
#           1.75650E+00  1.79924E+00  1.84302E+00  1.88786E+00  1.93379E+00
#           1.98084E+00  2.02904E+00  2.07841E+00  2.12898E+00  2.18078E+00
#           2.23384E+00  2.28819E+00  2.34386E+00  2.40089E+00  2.45930E+00
#           2.51914E+00  2.58043E+00  2.64322E+00  2.70753E+00  2.77341E+00
#           2.84088E+00  2.91001E+00  2.98081E+00  3.05333E+00  3.12762E+00
#           3.20372E+00  3.28167E+00  3.36152E+00  3.44330E+00  3.52708E+00
#           3.61290E+00  3.70080E+00  3.79085E+00  3.88308E+00  3.97756E+00
#           4.07434E+00  4.17347E+00  4.27501E+00  4.37903E+00  4.48557E+00
#           4.59471E+00  4.70650E+00  4.82102E+00  4.93832E+00  5.05847E+00
#           5.18155E+00  5.30762E+00  5.43676E+00  5.56904E+00  5.70453E+00
#           5.84333E+00  5.98550E+00  6.13114E+00  6.28031E+00  6.43312E+00
#           6.58964E+00  6.74997E+00  6.91420E+00  7.08243E+00  7.25475E+00
#           7.43126E+00  7.61207E+00  7.79728E+00  7.98700E+00  8.18133E+00
#           8.38038E+00  8.58428E+00  8.79315E+00  9.00709E+00  9.22624E+00
#           9.45072E+00  9.68067E+00  9.91620E+00  1.01575E+01  1.04046E+01
#           1.06578E+01  1.09171E+01  1.11827E+01  1.14548E+01  1.17335E+01
#           1.20190E+01  1.23114E+01  1.26109E+01  1.29178E+01  1.32321E+01
#           1.35540E+01  1.38838E+01  1.42216E+01  1.45676E+01  1.49221E+01
#           1.52851E+01  1.56570E+01  1.60380E+01  1.64282E+01  1.68279E+01
#           1.72374E+01  1.76568E+01  1.80864E+01  1.85264E+01  1.89772E+01
#           1.94389E+01  1.99119E+01  2.03963E+01  2.08926E+01  2.14009E+01
#           2.19216E+01  2.24550E+01  2.30014E+01  2.35610E+01  2.41343E+01
#           2.47215E+01  2.53230E+01  2.59391E+01  2.65702E+01  2.72167E+01
#           2.78789E+01  2.85572E+01  2.92520E+01  2.99637E+01  3.06928E+01
#           3.14396E+01  3.22045E+01  3.29881E+01  3.37907E+01  3.46128E+01
#           3.54550E+01  3.63177E+01  3.72013E+01  3.81064E+01  3.90336E+01
#           3.99833E+01  4.09561E+01  4.19526E+01  4.29734E+01  4.40189E+01
#           4.50900E+01  4.61870E+01  4.73108E+01  4.84619E+01  4.96410E+01
#           5.08488E+01  5.20860E+01  5.33533E+01  5.46514E+01  5.59812E+01
#           5.73432E+01  5.87384E+01  6.01676E+01  6.16315E+01  6.31311E+01
#           6.46671E+01  6.62405E+01  6.78522E+01  6.95031E+01  7.11941E+01
#           7.29263E+01  7.47007E+01  7.65182E+01  7.83800E+01  8.02870E+01
#           8.22405E+01  8.42414E+01  8.62911E+01  8.83906E+01  9.05412E+01
#           9.27442E+01  9.50007E+01  9.73122E+01  9.96799E+01  1.02105E+02
#           1.04589E+02  1.07134E+02  1.09741E+02  1.12411E+02  1.15146E+02
#           1.17948E+02  1.20817E+02  1.23757E+02  1.26768E+02  1.29852E+02
#           1.33012E+02  1.36248E+02  1.39563E+02  1.42959E+02  1.46437E+02
#           1.50000E+02
     unit =    2            # unit is [1/cm^2/(MeV/n)/source]
     axis =  eng            # axis of output
     file = detector-14.out  # file name of output for the above axis
   output = f-curr          # surface crossing forward current spectrum
     part =  neutron  
# kf/name :  2112     
#    used :        main (  %)        temp (  %)       total (  %)
#  memory :         414 (  0)           0 (  0)         414 (  0)

#------------------------------------------------------------------------------
#newpage:
#   no. =    1   reg = 113 - 213

x: Energy [MeV/n]
y:  F-Curr [1/cm^2/(MeV/n)/source]         
p: xlog ylog afac(0.8) form(0.9)
h: n            x            y(neutron ),hh0l   n 
#  e-lower      e-upper      neutron     r.err 
   1.0000E-02   1.0243E-02   1.4698E-04  0.0746
   1.0243E-02   1.0493E-02   1.2235E-04  0.0807
   1.0493E-02   1.0748E-02   1.4197E-04  0.0740
   1.0748E-02   1.1009E-02   1.2672E-04  0.0775
   1.1009E-02   1.1277E-02   1.2354E-04  0.0776
   1.1277E-02   1.1552E-02   1.2163E-04  0.0771
   1.1552E-02   1.1833E-02   1.1923E-04  0.0770
   1.1833E-02   1.2121E-02   1.0960E-04  0.0794
   1.2121E-02   1.2415E-02   1.2165E-04  0.0744
   1.2415E-02   1.2718E-02   1.1259E-04  0.0765
   1.2718E-02   1.3027E-02   1.1600E-04  0.0745
   1.3027E-02   1.3344E-02   1.2564E-04  0.0707
   1.3344E-02   1.3669E-02   1.0324E-04  0.0770
   1.3669E-02   1.4001E-02   9.9108E-05  0.0777
   1.4001E-02   1.4342E-02   1.0724E-04  0.0738
   1.4342E-02   1.4691E-02   9.4490E-05  0.0777
   1.4691E-02   1.5048E-02   9.7980E-05  0.0753
   1.5048E-02   1.5414E-02   8.1525E-05  0.0817
   1.5414E-02   1.5789E-02   9.9154E-05  0.0731
   1.5789E-02   1.6174E-02   1.0277E-04  0.0710
   1.6174E-02   1.6567E-02   9.1951E-05  0.0742
   1.6567E-02   1.6970E-02   8.1213E-05  0.0779
   1.6970E-02   1.7383E-02   8.4836E-05  0.0753
   1.7383E-02   1.7806E-02   8.8030E-05  0.0731
   1.7806E-02   1.8239E-02   7.5879E-05  0.0778
   1.8239E-02   1.8683E-02   7.0217E-05  0.0798
   1.8683E-02   1.9138E-02   6.9713E-05  0.0792
   1.9138E-02   1.9603E-02   7.7748E-05  0.0742
   1.9603E-02   2.0080E-02   8.2187E-05  0.0713
   2.0080E-02   2.0569E-02   7.6269E-05  0.0731
   2.0569E-02   2.1069E-02   6.7198E-05  0.0767
   2.1069E-02   2.1582E-02   5.8387E-05  0.0815
   2.1582E-02   2.2107E-02   6.2202E-05  0.0780
   2.2107E-02   2.2645E-02   7.9946E-05  0.0679
   2.2645E-02   2.3196E-02   6.6022E-05  0.0737
   2.3196E-02   2.3760E-02   5.6170E-05  0.0791
   2.3760E-02   2.4338E-02   6.4516E-05  0.0731
   2.4338E-02   2.4930E-02   5.8200E-05  0.0760
   2.4930E-02   2.5537E-02   6.4977E-05  0.0710
   2.5537E-02   2.6158E-02   5.7881E-05  0.0744
   2.6158E-02   2.6795E-02   5.3796E-05  0.0761
   2.6795E-02   2.7447E-02   4.8670E-05  0.0792
   2.7447E-02   2.8114E-02   5.3281E-05  0.0749
   2.8114E-02   2.8799E-02   5.7559E-05  0.0711
   2.8799E-02   2.9499E-02   5.2700E-05  0.0734
   2.9499E-02   3.0217E-02   5.4338E-05  0.0715
   3.0217E-02   3.0952E-02   5.3051E-05  0.0714
   3.0952E-02   3.1705E-02   4.6406E-05  0.0754
   3.1705E-02   3.2477E-02   4.4096E-05  0.0765
   3.2477E-02   3.3267E-02   4.2035E-05  0.0774
   3.3267E-02   3.4076E-02   4.2871E-05  0.0757
   3.4076E-02   3.4905E-02   5.1266E-05  0.0684
   3.4905E-02   3.5755E-02   4.7159E-05  0.0704
   3.5755E-02   3.6625E-02   4.1639E-05  0.0741
   3.6625E-02   3.7516E-02   3.9262E-05  0.0753
   3.7516E-02   3.8428E-02   4.6340E-05  0.0686
   3.8428E-02   3.9363E-02   3.8235E-05  0.0745
   3.9363E-02   4.0321E-02   3.6517E-05  0.0754
   4.0321E-02   4.1302E-02   3.8080E-05  0.0730
   4.1302E-02   4.2307E-02   4.0970E-05  0.0695
   4.2307E-02   4.3337E-02   3.7323E-05  0.0719
   4.3337E-02   4.4391E-02   3.5686E-05  0.0726
   4.4391E-02   4.5471E-02   3.5796E-05  0.0717
   4.5471E-02   4.6577E-02   3.2809E-05  0.0739
   4.6577E-02   4.7711E-02   3.4696E-05  0.0712
   4.7711E-02   4.8871E-02   2.9185E-05  0.0766
   4.8871E-02   5.0061E-02   3.3529E-05  0.0707
   5.0061E-02   5.1279E-02   2.9722E-05  0.0742
   5.1279E-02   5.2526E-02   3.3395E-05  0.0691
   5.2526E-02   5.3804E-02   3.2691E-05  0.0690
   5.3804E-02   5.5113E-02   3.4272E-05  0.0666
   5.5113E-02   5.6454E-02   2.8018E-05  0.0727
   5.6454E-02   5.7828E-02   2.8870E-05  0.0708
   5.7828E-02   5.9235E-02   2.9414E-05  0.0694
   5.9235E-02   6.0676E-02   2.7040E-05  0.0714
   6.0676E-02   6.2152E-02   2.4663E-05  0.0739
   6.2152E-02   6.3665E-02   2.6901E-05  0.0700
   6.3665E-02   6.5214E-02   2.7489E-05  0.0684
   6.5214E-02   6.6800E-02   2.8812E-05  0.0659
   6.6800E-02   6.8426E-02   2.7875E-05  0.0663
   6.8426E-02   7.0090E-02   2.5215E-05  0.0687
   7.0090E-02   7.1796E-02   2.3692E-05  0.0701
   7.1796E-02   7.3543E-02   2.7241E-05  0.0647
   7.3543E-02   7.5332E-02   2.2736E-05  0.0699
   7.5332E-02   7.7165E-02   2.3667E-05  0.0678
   7.7165E-02   7.9042E-02   2.3932E-05  0.0665
   7.9042E-02   8.0965E-02   2.2397E-05  0.0679
   8.0965E-02   8.2935E-02   2.2985E-05  0.0663
   8.2935E-02   8.4953E-02   2.2721E-05  0.0659
   8.4953E-02   8.7020E-02   2.1558E-05  0.0669
   8.7020E-02   8.9138E-02   2.4271E-05  0.0622
   8.9138E-02   9.1306E-02   2.1969E-05  0.0646
   9.1306E-02   9.3528E-02   2.2154E-05  0.0636
   9.3528E-02   9.5804E-02   2.2431E-05  0.0624
   9.5804E-02   9.8134E-02   2.2438E-05  0.0617
   9.8134E-02   1.0052E-01   2.1000E-05  0.0630
   1.0052E-01   1.0297E-01   2.3407E-05  0.0590
   1.0297E-01   1.0547E-01   2.1134E-05  0.0613
   1.0547E-01   1.0804E-01   2.5074E-05  0.0556
   1.0804E-01   1.1067E-01   2.5517E-05  0.0545
   1.1067E-01   1.1336E-01   2.6596E-05  0.0527
   1.1336E-01   1.1612E-01   2.9390E-05  0.0495
   1.1612E-01   1.1894E-01   2.5761E-05  0.0523
   1.1894E-01   1.2184E-01   3.1697E-05  0.0466
   1.2184E-01   1.2480E-01   3.1422E-05  0.0463
   1.2480E-01   1.2784E-01   3.2423E-05  0.0449
   1.2784E-01   1.3095E-01   3.2924E-05  0.0440
   1.3095E-01   1.3414E-01   3.7681E-05  0.0407
   1.3414E-01   1.3740E-01   3.8106E-05  0.0400
   1.3740E-01   1.4074E-01   4.0499E-05  0.0384
   1.4074E-01   1.4417E-01   4.2176E-05  0.0371
   1.4417E-01   1.4767E-01   4.4084E-05  0.0359
   1.4767E-01   1.5127E-01   4.4759E-05  0.0352
   1.5127E-01   1.5495E-01   4.8200E-05  0.0335
   1.5495E-01   1.5872E-01   4.9354E-05  0.0327
   1.5872E-01   1.6258E-01   5.1419E-05  0.0317
   1.6258E-01   1.6654E-01   5.2862E-05  0.0309
   1.6654E-01   1.7059E-01   5.5633E-05  0.0297
   1.7059E-01   1.7474E-01   5.8461E-05  0.0287
   1.7474E-01   1.7899E-01   6.3405E-05  0.0272
   1.7899E-01   1.8334E-01   6.0857E-05  0.0274
   1.8334E-01   1.8781E-01   6.7965E-05  0.0256
   1.8781E-01   1.9237E-01   7.4543E-05  0.0242
   1.9237E-01   1.9706E-01   7.4179E-05  0.0239
   1.9706E-01   2.0185E-01   7.8385E-05  0.0230
   2.0185E-01   2.0676E-01   8.2888E-05  0.0221
   2.0676E-01   2.1179E-01   8.4429E-05  0.0217
   2.1179E-01   2.1694E-01   9.1366E-05  0.0206
   2.1694E-01   2.2222E-01   9.0630E-05  0.0204
   2.2222E-01   2.2763E-01   9.7186E-05  0.0195
   2.2763E-01   2.3317E-01   9.7238E-05  0.0192
   2.3317E-01   2.3884E-01   1.0376E-04  0.0184
   2.3884E-01   2.4465E-01   1.1139E-04  0.0175
   2.4465E-01   2.5061E-01   1.1584E-04  0.0170
   2.5061E-01   2.5670E-01   1.1836E-04  0.0166
   2.5670E-01   2.6295E-01   1.2387E-04  0.0160
   2.6295E-01   2.6935E-01   1.2879E-04  0.0155
   2.6935E-01   2.7590E-01   1.3719E-04  0.0149
   2.7590E-01   2.8261E-01   1.3931E-04  0.0146
   2.8261E-01   2.8949E-01   1.4092E-04  0.0143
   2.8949E-01   2.9653E-01   1.4898E-04  0.0138
   2.9653E-01   3.0375E-01   1.5166E-04  0.0135
   3.0375E-01   3.1114E-01   1.6414E-04  0.0128
   3.1114E-01   3.1871E-01   1.6743E-04  0.0125
   3.1871E-01   3.2646E-01   1.7339E-04  0.0122
   3.2646E-01   3.3441E-01   1.7750E-04  0.0119
   3.3441E-01   3.4254E-01   1.8757E-04  0.0114
   3.4254E-01   3.5088E-01   1.9128E-04  0.0112
   3.5088E-01   3.5941E-01   1.9542E-04  0.0109
   3.5941E-01   3.6816E-01   2.0366E-04  0.0106
   3.6816E-01   3.7712E-01   2.0567E-04  0.0104
   3.7712E-01   3.8629E-01   2.1837E-04  0.0100
   3.8629E-01   3.9569E-01   2.1932E-04  0.0098
   3.9569E-01   4.0532E-01   2.2578E-04  0.0096
   4.0532E-01   4.1518E-01   2.3580E-04  0.0093
   4.1518E-01   4.2528E-01   2.3479E-04  0.0092
   4.2528E-01   4.3563E-01   2.3953E-04  0.0090
   4.3563E-01   4.4623E-01   2.4661E-04  0.0087
   4.4623E-01   4.5708E-01   2.4894E-04  0.0086
   4.5708E-01   4.6821E-01   2.4993E-04  0.0085
   4.6821E-01   4.7960E-01   2.5450E-04  0.0083
   4.7960E-01   4.9127E-01   2.6053E-04  0.0081
   4.9127E-01   5.0322E-01   2.6209E-04  0.0080
   5.0322E-01   5.1546E-01   2.6584E-04  0.0078
   5.1546E-01   5.2800E-01   2.7300E-04  0.0076
   5.2800E-01   5.4085E-01   2.7398E-04  0.0075
   5.4085E-01   5.5401E-01   2.7991E-04  0.0073
   5.5401E-01   5.6749E-01   2.8653E-04  0.0072
   5.6749E-01   5.8130E-01   2.8646E-04  0.0071
   5.8130E-01   5.9544E-01   2.8865E-04  0.0070
   5.9544E-01   6.0993E-01   2.9488E-04  0.0068
   6.0993E-01   6.2477E-01   2.9255E-04  0.0068
   6.2477E-01   6.3997E-01   2.9432E-04  0.0067
   6.3997E-01   6.5554E-01   2.9603E-04  0.0066
   6.5554E-01   6.7149E-01   2.9372E-04  0.0065
   6.7149E-01   6.8783E-01   2.9883E-04  0.0064
   6.8783E-01   7.0456E-01   2.9814E-04  0.0063
   7.0456E-01   7.2171E-01   2.9470E-04  0.0063
   7.2171E-01   7.3927E-01   2.9964E-04  0.0061
   7.3927E-01   7.5725E-01   2.9749E-04  0.0061
   7.5725E-01   7.7568E-01   2.9558E-04  0.0060
   7.7568E-01   7.9455E-01   2.9676E-04  0.0060
   7.9455E-01   8.1388E-01   2.9557E-04  0.0059
   8.1388E-01   8.3368E-01   2.9759E-04  0.0058
   8.3368E-01   8.5397E-01   2.9675E-04  0.0057
   8.5397E-01   8.7475E-01   2.9308E-04  0.0057
   8.7475E-01   8.9603E-01   2.9437E-04  0.0056
   8.9603E-01   9.1783E-01   2.8926E-04  0.0056
   9.1783E-01   9.4016E-01   2.8986E-04  0.0055
   9.4016E-01   9.6304E-01   2.8514E-04  0.0055
   9.6304E-01   9.8647E-01   2.8097E-04  0.0055
   9.8647E-01   1.0105E+00   2.7562E-04  0.0055
   1.0105E+00   1.0351E+00   2.7128E-04  0.0055
   1.0351E+00   1.0602E+00   2.7120E-04  0.0054
   1.0602E+00   1.0860E+00   2.6804E-04  0.0054
   1.0860E+00   1.1125E+00   2.7037E-04  0.0053
   1.1125E+00   1.1395E+00   2.6690E-04  0.0052
   1.1395E+00   1.1673E+00   2.6847E-04  0.0052
   1.1673E+00   1.1957E+00   2.6838E-04  0.0051
   1.1957E+00   1.2247E+00   2.6596E-04  0.0050
   1.2247E+00   1.2545E+00   2.6380E-04  0.0050
   1.2545E+00   1.2851E+00   2.6114E-04  0.0050
   1.2851E+00   1.3163E+00   2.5800E-04  0.0049
   1.3163E+00   1.3484E+00   2.6017E-04  0.0049
   1.3484E+00   1.3812E+00   2.5885E-04  0.0048
   1.3812E+00   1.4148E+00   2.5535E-04  0.0048
   1.4148E+00   1.4492E+00   2.5583E-04  0.0047
   1.4492E+00   1.4845E+00   2.5184E-04  0.0047
   1.4845E+00   1.5206E+00   2.4925E-04  0.0047
   1.5206E+00   1.5576E+00   2.4662E-04  0.0046
   1.5576E+00   1.5955E+00   2.4359E-04  0.0046
   1.5955E+00   1.6343E+00   2.4034E-04  0.0046
   1.6343E+00   1.6741E+00   2.3551E-04  0.0046
   1.6741E+00   1.7148E+00   2.3175E-04  0.0045
   1.7148E+00   1.7565E+00   2.2765E-04  0.0045
   1.7565E+00   1.7992E+00   2.1871E-04  0.0045
   1.7992E+00   1.8430E+00   2.0478E-04  0.0046
   1.8430E+00   1.8879E+00   1.9456E-04  0.0047
   1.8879E+00   1.9338E+00   1.8579E-04  0.0047
   1.9338E+00   1.9808E+00   1.8203E-04  0.0047
   1.9808E+00   2.0290E+00   1.7721E-04  0.0047
   2.0290E+00   2.0784E+00   1.7513E-04  0.0047
   2.0784E+00   2.1290E+00   1.7456E-04  0.0046
   2.1290E+00   2.1808E+00   1.7469E-04  0.0046
   2.1808E+00   2.2338E+00   1.7631E-04  0.0045
   2.2338E+00   2.2882E+00   1.7105E-04  0.0045
   2.2882E+00   2.3439E+00   1.6391E-04  0.0046
   2.3439E+00   2.4009E+00   1.5863E-04  0.0046
   2.4009E+00   2.4593E+00   1.5653E-04  0.0046
   2.4593E+00   2.5191E+00   1.5321E-04  0.0045
   2.5191E+00   2.5804E+00   1.5200E-04  0.0045
   2.5804E+00   2.6432E+00   1.4872E-04  0.0045
   2.6432E+00   2.7075E+00   1.4569E-04  0.0045
   2.7075E+00   2.7734E+00   1.4316E-04  0.0045
   2.7734E+00   2.8409E+00   1.3933E-04  0.0045
   2.8409E+00   2.9100E+00   1.3581E-04  0.0045
   2.9100E+00   2.9808E+00   1.3414E-04  0.0045
   2.9808E+00   3.0533E+00   1.3090E-04  0.0045
   3.0533E+00   3.1276E+00   1.2651E-04  0.0045
   3.1276E+00   3.2037E+00   1.2539E-04  0.0045
   3.2037E+00   3.2817E+00   1.2227E-04  0.0045
   3.2817E+00   3.3615E+00   1.2048E-04  0.0045
   3.3615E+00   3.4433E+00   1.1751E-04  0.0045
   3.4433E+00   3.5271E+00   1.1500E-04  0.0045
   3.5271E+00   3.6129E+00   1.1224E-04  0.0045
   3.6129E+00   3.7008E+00   1.0956E-04  0.0045
   3.7008E+00   3.7908E+00   1.0807E-04  0.0044
   3.7908E+00   3.8831E+00   1.0634E-04  0.0044
   3.8831E+00   3.9776E+00   1.0309E-04  0.0044
   3.9776E+00   4.0743E+00   1.0171E-04  0.0044
   4.0743E+00   4.1735E+00   9.9156E-05  0.0044
   4.1735E+00   4.2750E+00   9.6475E-05  0.0044
   4.2750E+00   4.3790E+00   9.4332E-05  0.0044
   4.3790E+00   4.4856E+00   9.2327E-05  0.0044
   4.4856E+00   4.5947E+00   8.9448E-05  0.0044
   4.5947E+00   4.7065E+00   8.7860E-05  0.0044
   4.7065E+00   4.8210E+00   8.7201E-05  0.0044
   4.8210E+00   4.9383E+00   8.5323E-05  0.0044
   4.9383E+00   5.0585E+00   8.4987E-05  0.0043
   5.0585E+00   5.1815E+00   8.3219E-05  0.0043
   5.1815E+00   5.3076E+00   8.2058E-05  0.0043
   5.3076E+00   5.4368E+00   8.0882E-05  0.0043
   5.4368E+00   5.5690E+00   7.9718E-05  0.0043
   5.5690E+00   5.7045E+00   7.8430E-05  0.0043
   5.7045E+00   5.8433E+00   7.7988E-05  0.0042
   5.8433E+00   5.9855E+00   7.7103E-05  0.0042
   5.9855E+00   6.1311E+00   7.5792E-05  0.0042
   6.1311E+00   6.2803E+00   7.5084E-05  0.0042
   6.2803E+00   6.4331E+00   7.3841E-05  0.0041
   6.4331E+00   6.5896E+00   7.2694E-05  0.0041
   6.5896E+00   6.7500E+00   7.2228E-05  0.0041
   6.7500E+00   6.9142E+00   7.1032E-05  0.0041
   6.9142E+00   7.0824E+00   6.9632E-05  0.0041
   7.0824E+00   7.2548E+00   6.7696E-05  0.0041
   7.2548E+00   7.4313E+00   6.6952E-05  0.0041
   7.4313E+00   7.6121E+00   6.5747E-05  0.0040
   7.6121E+00   7.7973E+00   6.3564E-05  0.0041
   7.7973E+00   7.9870E+00   6.3512E-05  0.0040
   7.9870E+00   8.1813E+00   6.1507E-05  0.0040
   8.1813E+00   8.3804E+00   5.9701E-05  0.0041
   8.3804E+00   8.5843E+00   5.8643E-05  0.0040
   8.5843E+00   8.7931E+00   5.7299E-05  0.0040
   8.7931E+00   9.0071E+00   5.5330E-05  0.0041
   9.0071E+00   9.2262E+00   5.3459E-05  0.0041
   9.2262E+00   9.4507E+00   5.1304E-05  0.0041
   9.4507E+00   9.6807E+00   4.9852E-05  0.0041
   9.6807E+00   9.9162E+00   4.9397E-05  0.0041
   9.9162E+00   1.0157E+01   5.0018E-05  0.0041
   1.0157E+01   1.0405E+01   4.7987E-05  0.0041
   1.0405E+01   1.0658E+01   4.6312E-05  0.0041
   1.0658E+01   1.0917E+01   4.4547E-05  0.0041
   1.0917E+01   1.1183E+01   4.2382E-05  0.0042
   1.1183E+01   1.1455E+01   4.0857E-05  0.0042
   1.1455E+01   1.1733E+01   3.9429E-05  0.0043
   1.1733E+01   1.2019E+01   3.7926E-05  0.0043
   1.2019E+01   1.2311E+01   3.6644E-05  0.0043
   1.2311E+01   1.2611E+01   3.5324E-05  0.0043
   1.2611E+01   1.2918E+01   3.3805E-05  0.0044
   1.2918E+01   1.3232E+01   3.2626E-05  0.0044
   1.3232E+01   1.3554E+01   3.0831E-05  0.0045
   1.3554E+01   1.3884E+01   2.9339E-05  0.0045
   1.3884E+01   1.4222E+01   2.8234E-05  0.0046
   1.4222E+01   1.4568E+01   2.6800E-05  0.0046
   1.4568E+01   1.4922E+01   2.5215E-05  0.0047
   1.4922E+01   1.5285E+01   2.4072E-05  0.0048
   1.5285E+01   1.5657E+01   2.2794E-05  0.0049
   1.5657E+01   1.6038E+01   2.1428E-05  0.0049
   1.6038E+01   1.6428E+01   2.0207E-05  0.0050
   1.6428E+01   1.6828E+01   1.8996E-05  0.0051
   1.6828E+01   1.7237E+01   1.7692E-05  0.0053
   1.7237E+01   1.7657E+01   1.6433E-05  0.0054
   1.7657E+01   1.8086E+01   1.5489E-05  0.0055
   1.8086E+01   1.8526E+01   1.4292E-05  0.0056
   1.8526E+01   1.8977E+01   1.3198E-05  0.0058
   1.8977E+01   1.9439E+01   1.2290E-05  0.0059
   1.9439E+01   1.9912E+01   1.1403E-05  0.0061
   1.9912E+01   2.0396E+01   1.0676E-05  0.0062
   2.0396E+01   2.0893E+01   1.0006E-05  0.0063
   2.0893E+01   2.1401E+01   9.2077E-06  0.0065
   2.1401E+01   2.1922E+01   8.3507E-06  0.0068
   2.1922E+01   2.2455E+01   7.7196E-06  0.0070
   2.2455E+01   2.3001E+01   6.9915E-06  0.0072
   2.3001E+01   2.3561E+01   6.3791E-06  0.0075
   2.3561E+01   2.4134E+01   5.7416E-06  0.0078
   2.4134E+01   2.4721E+01   5.2540E-06  0.0081
   2.4721E+01   2.5323E+01   4.6800E-06  0.0084
   2.5323E+01   2.5939E+01   4.1592E-06  0.0088
   2.5939E+01   2.6570E+01   3.6494E-06  0.0093
   2.6570E+01   2.7217E+01   3.1438E-06  0.0099
   2.7217E+01   2.7879E+01   2.7880E-06  0.0104
   2.7879E+01   2.8557E+01   2.4991E-06  0.0109
   2.8557E+01   2.9252E+01   2.1165E-06  0.0117
   2.9252E+01   2.9964E+01   1.8302E-06  0.0124
   2.9964E+01   3.0693E+01   1.6103E-06  0.0131
   3.0693E+01   3.1440E+01   1.3945E-06  0.0139
   3.1440E+01   3.2205E+01   1.2139E-06  0.0147
   3.2205E+01   3.2988E+01   1.0539E-06  0.0156
   3.2988E+01   3.3791E+01   9.1400E-07  0.0165
   3.3791E+01   3.4613E+01   8.2831E-07  0.0171
   3.4613E+01   3.5455E+01   7.1459E-07  0.0182
   3.5455E+01   3.6318E+01   5.6361E-07  0.0203
   3.6318E+01   3.7201E+01   3.8545E-07  0.0242
   3.7201E+01   3.8106E+01   2.7421E-07  0.0284
   3.8106E+01   3.9034E+01   1.8832E-07  0.0338
   3.9034E+01   3.9983E+01   7.7918E-08  0.0520
   3.9983E+01   4.0956E+01   1.7269E-08  0.1091
   4.0956E+01   4.1953E+01   1.3447E-08  0.1222
   4.1953E+01   4.2973E+01   8.0334E-09  0.1562
   4.2973E+01   4.4019E+01   2.8692E-09  0.2582
   4.4019E+01   4.5090E+01   1.8674E-10  1.0000
   4.5090E+01   4.6187E+01   0.0000E+00  0.0000
   4.6187E+01   4.7311E+01   1.7797E-10  1.0000
   4.7311E+01   4.8462E+01   0.0000E+00  0.0000
   4.8462E+01   4.9641E+01   0.0000E+00  0.0000
   4.9641E+01   5.0849E+01   0.0000E+00  0.0000
   5.0849E+01   5.2086E+01   0.0000E+00  0.0000
   5.2086E+01   5.3353E+01   0.0000E+00  0.0000
   5.3353E+01   5.4651E+01   0.0000E+00  0.0000
   5.4651E+01   5.5981E+01   0.0000E+00  0.0000
   5.5981E+01   5.7343E+01   0.0000E+00  0.0000
   5.7343E+01   5.8738E+01   0.0000E+00  0.0000
   5.8738E+01   6.0168E+01   0.0000E+00  0.0000
   6.0168E+01   6.1632E+01   0.0000E+00  0.0000
   6.1632E+01   6.3131E+01   0.0000E+00  0.0000
   6.3131E+01   6.4667E+01   0.0000E+00  0.0000
   6.4667E+01   6.6240E+01   0.0000E+00  0.0000
   6.6240E+01   6.7852E+01   0.0000E+00  0.0000
   6.7852E+01   6.9503E+01   0.0000E+00  0.0000
   6.9503E+01   7.1194E+01   0.0000E+00  0.0000
   7.1194E+01   7.2926E+01   0.0000E+00  0.0000
   7.2926E+01   7.4701E+01   0.0000E+00  0.0000
   7.4701E+01   7.6518E+01   0.0000E+00  0.0000
   7.6518E+01   7.8380E+01   0.0000E+00  0.0000
   7.8380E+01   8.0287E+01   0.0000E+00  0.0000
   8.0287E+01   8.2240E+01   0.0000E+00  0.0000
   8.2240E+01   8.4241E+01   0.0000E+00  0.0000
   8.4241E+01   8.6291E+01   0.0000E+00  0.0000
   8.6291E+01   8.8391E+01   0.0000E+00  0.0000
   8.8391E+01   9.0541E+01   0.0000E+00  0.0000
   9.0541E+01   9.2744E+01   0.0000E+00  0.0000
   9.2744E+01   9.5001E+01   0.0000E+00  0.0000
   9.5001E+01   9.7312E+01   0.0000E+00  0.0000
   9.7312E+01   9.9680E+01   0.0000E+00  0.0000
   9.9680E+01   1.0211E+02   0.0000E+00  0.0000
   1.0211E+02   1.0459E+02   0.0000E+00  0.0000
   1.0459E+02   1.0713E+02   0.0000E+00  0.0000
   1.0713E+02   1.0974E+02   0.0000E+00  0.0000
   1.0974E+02   1.1241E+02   0.0000E+00  0.0000
   1.1241E+02   1.1515E+02   0.0000E+00  0.0000
   1.1515E+02   1.1795E+02   0.0000E+00  0.0000
   1.1795E+02   1.2082E+02   0.0000E+00  0.0000
   1.2082E+02   1.2376E+02   0.0000E+00  0.0000
   1.2376E+02   1.2677E+02   0.0000E+00  0.0000
   1.2677E+02   1.2985E+02   0.0000E+00  0.0000
   1.2985E+02   1.3301E+02   0.0000E+00  0.0000
   1.3301E+02   1.3625E+02   0.0000E+00  0.0000
   1.3625E+02   1.3956E+02   0.0000E+00  0.0000
   1.3956E+02   1.4296E+02   0.0000E+00  0.0000
   1.4296E+02   1.4644E+02   0.0000E+00  0.0000
   1.4644E+02   1.5000E+02   0.0000E+00  0.0000

#   sum over                 9.7402E-06
'no. =    1   reg = 113 - 213'
msuc: {\huge [t-cross] in region mesh}
msdr: {\it plotted by \ANGEL \version}
msdl: {\it calculated by \PHITS  3.26}
wt: s(0.7)
\vspace{-3}
  region surface crossing
  area  &=&   1.0000E+00 [cm^2]
e:
 
# Information for Restart Calculation
# This calculation was newly started
# istdev =  2 # 1:Batch variance, 2:History variance
# resc2  = 5.00000000000000000E+09 # Total source weight or Total source weight / maxcas
# resc3  = 5.00000000000000000E+09 # Total history number or Total batch number
# maxcas =   100000000 # History / Batch, only used for istdev=1
# bitrseed = 0110100000100010111000001110001111001110100100011111101000111001 # bit data of rseed
