[ T-Cross ]
    title = [t-cross] in region mesh
     mesh =  reg            # mesh type is region-wise
      reg =    1            # number of crossing regions
      non     r-from    r-to       area
      1       126       226        1.000000    
   e-type =    3            # e-mesh is log given by emin, emax and ne
     emin =  1.0000000E-02  # minimum value of e-mesh points
     emax =   150.0000      # maximum value of e-mesh points
#    edel =  2.4039514E-02  # mesh width of e-mesh points
       ne =    400          # number of e-mesh points
#    data = ( e(i), i = 1, ne + 1 )
#           1.00000E-02  1.02433E-02  1.04925E-02  1.07478E-02  1.10093E-02
#           1.12772E-02  1.15516E-02  1.18326E-02  1.21205E-02  1.24154E-02
#           1.27175E-02  1.30269E-02  1.33439E-02  1.36686E-02  1.40011E-02
#           1.43418E-02  1.46907E-02  1.50482E-02  1.54143E-02  1.57894E-02
#           1.61735E-02  1.65670E-02  1.69701E-02  1.73830E-02  1.78060E-02
#           1.82392E-02  1.86830E-02  1.91375E-02  1.96032E-02  2.00801E-02
#           2.05687E-02  2.10692E-02  2.15818E-02  2.21069E-02  2.26448E-02
#           2.31957E-02  2.37601E-02  2.43382E-02  2.49304E-02  2.55369E-02
#           2.61583E-02  2.67947E-02  2.74467E-02  2.81145E-02  2.87985E-02
#           2.94992E-02  3.02169E-02  3.09521E-02  3.17052E-02  3.24766E-02
#           3.32668E-02  3.40762E-02  3.49053E-02  3.57546E-02  3.66246E-02
#           3.75157E-02  3.84284E-02  3.93634E-02  4.03212E-02  4.13022E-02
#           4.23071E-02  4.33365E-02  4.43909E-02  4.54710E-02  4.65773E-02
#           4.77106E-02  4.88714E-02  5.00605E-02  5.12785E-02  5.25262E-02
#           5.38042E-02  5.51133E-02  5.64542E-02  5.78278E-02  5.92348E-02
#           6.06760E-02  6.21523E-02  6.36645E-02  6.52135E-02  6.68002E-02
#           6.84255E-02  7.00904E-02  7.17957E-02  7.35426E-02  7.53319E-02
#           7.71648E-02  7.90423E-02  8.09655E-02  8.29354E-02  8.49533E-02
#           8.70203E-02  8.91376E-02  9.13064E-02  9.35279E-02  9.58035E-02
#           9.81345E-02  1.00522E-01  1.02968E-01  1.05473E-01  1.08040E-01
#           1.10668E-01  1.13361E-01  1.16119E-01  1.18944E-01  1.21838E-01
#           1.24803E-01  1.27839E-01  1.30950E-01  1.34136E-01  1.37399E-01
#           1.40742E-01  1.44167E-01  1.47675E-01  1.51268E-01  1.54948E-01
#           1.58718E-01  1.62580E-01  1.66535E-01  1.70587E-01  1.74738E-01
#           1.78989E-01  1.83344E-01  1.87805E-01  1.92375E-01  1.97055E-01
#           2.01850E-01  2.06761E-01  2.11792E-01  2.16945E-01  2.22223E-01
#           2.27630E-01  2.33169E-01  2.38842E-01  2.44653E-01  2.50605E-01
#           2.56703E-01  2.62949E-01  2.69346E-01  2.75900E-01  2.82613E-01
#           2.89489E-01  2.96532E-01  3.03747E-01  3.11138E-01  3.18708E-01
#           3.26462E-01  3.34405E-01  3.42542E-01  3.50876E-01  3.59413E-01
#           3.68158E-01  3.77116E-01  3.86291E-01  3.95690E-01  4.05317E-01
#           4.15179E-01  4.25281E-01  4.35628E-01  4.46227E-01  4.57084E-01
#           4.68205E-01  4.79597E-01  4.91266E-01  5.03219E-01  5.15463E-01
#           5.28005E-01  5.40851E-01  5.54011E-01  5.67490E-01  5.81298E-01
#           5.95441E-01  6.09929E-01  6.24769E-01  6.39970E-01  6.55541E-01
#           6.71491E-01  6.87828E-01  7.04564E-01  7.21706E-01  7.39266E-01
#           7.57253E-01  7.75678E-01  7.94551E-01  8.13883E-01  8.33685E-01
#           8.53969E-01  8.74747E-01  8.96030E-01  9.17831E-01  9.40163E-01
#           9.63038E-01  9.86469E-01  1.01047E+00  1.03506E+00  1.06024E+00
#           1.08604E+00  1.11246E+00  1.13953E+00  1.16725E+00  1.19565E+00
#           1.22474E+00  1.25454E+00  1.28507E+00  1.31633E+00  1.34836E+00
#           1.38117E+00  1.41477E+00  1.44920E+00  1.48446E+00  1.52057E+00
#           1.55757E+00  1.59547E+00  1.63429E+00  1.67405E+00  1.71478E+00
#           1.75650E+00  1.79924E+00  1.84302E+00  1.88786E+00  1.93379E+00
#           1.98084E+00  2.02904E+00  2.07841E+00  2.12898E+00  2.18078E+00
#           2.23384E+00  2.28819E+00  2.34386E+00  2.40089E+00  2.45930E+00
#           2.51914E+00  2.58043E+00  2.64322E+00  2.70753E+00  2.77341E+00
#           2.84088E+00  2.91001E+00  2.98081E+00  3.05333E+00  3.12762E+00
#           3.20372E+00  3.28167E+00  3.36152E+00  3.44330E+00  3.52708E+00
#           3.61290E+00  3.70080E+00  3.79085E+00  3.88308E+00  3.97756E+00
#           4.07434E+00  4.17347E+00  4.27501E+00  4.37903E+00  4.48557E+00
#           4.59471E+00  4.70650E+00  4.82102E+00  4.93832E+00  5.05847E+00
#           5.18155E+00  5.30762E+00  5.43676E+00  5.56904E+00  5.70453E+00
#           5.84333E+00  5.98550E+00  6.13114E+00  6.28031E+00  6.43312E+00
#           6.58964E+00  6.74997E+00  6.91420E+00  7.08243E+00  7.25475E+00
#           7.43126E+00  7.61207E+00  7.79728E+00  7.98700E+00  8.18133E+00
#           8.38038E+00  8.58428E+00  8.79315E+00  9.00709E+00  9.22624E+00
#           9.45072E+00  9.68067E+00  9.91620E+00  1.01575E+01  1.04046E+01
#           1.06578E+01  1.09171E+01  1.11827E+01  1.14548E+01  1.17335E+01
#           1.20190E+01  1.23114E+01  1.26109E+01  1.29178E+01  1.32321E+01
#           1.35540E+01  1.38838E+01  1.42216E+01  1.45676E+01  1.49221E+01
#           1.52851E+01  1.56570E+01  1.60380E+01  1.64282E+01  1.68279E+01
#           1.72374E+01  1.76568E+01  1.80864E+01  1.85264E+01  1.89772E+01
#           1.94389E+01  1.99119E+01  2.03963E+01  2.08926E+01  2.14009E+01
#           2.19216E+01  2.24550E+01  2.30014E+01  2.35610E+01  2.41343E+01
#           2.47215E+01  2.53230E+01  2.59391E+01  2.65702E+01  2.72167E+01
#           2.78789E+01  2.85572E+01  2.92520E+01  2.99637E+01  3.06928E+01
#           3.14396E+01  3.22045E+01  3.29881E+01  3.37907E+01  3.46128E+01
#           3.54550E+01  3.63177E+01  3.72013E+01  3.81064E+01  3.90336E+01
#           3.99833E+01  4.09561E+01  4.19526E+01  4.29734E+01  4.40189E+01
#           4.50900E+01  4.61870E+01  4.73108E+01  4.84619E+01  4.96410E+01
#           5.08488E+01  5.20860E+01  5.33533E+01  5.46514E+01  5.59812E+01
#           5.73432E+01  5.87384E+01  6.01676E+01  6.16315E+01  6.31311E+01
#           6.46671E+01  6.62405E+01  6.78522E+01  6.95031E+01  7.11941E+01
#           7.29263E+01  7.47007E+01  7.65182E+01  7.83800E+01  8.02870E+01
#           8.22405E+01  8.42414E+01  8.62911E+01  8.83906E+01  9.05412E+01
#           9.27442E+01  9.50007E+01  9.73122E+01  9.96799E+01  1.02105E+02
#           1.04589E+02  1.07134E+02  1.09741E+02  1.12411E+02  1.15146E+02
#           1.17948E+02  1.20817E+02  1.23757E+02  1.26768E+02  1.29852E+02
#           1.33012E+02  1.36248E+02  1.39563E+02  1.42959E+02  1.46437E+02
#           1.50000E+02
     unit =    2            # unit is [1/cm^2/(MeV/n)/source]
     axis =  eng            # axis of output
     file = detector-27.out  # file name of output for the above axis
   output = f-curr          # surface crossing forward current spectrum
     part =  neutron  
# kf/name :  2112     
#    used :        main (  %)        temp (  %)       total (  %)
#  memory :         414 (  0)           0 (  0)         414 (  0)

#------------------------------------------------------------------------------
#newpage:
#   no. =    1   reg = 126 - 226

x: Energy [MeV/n]
y:  F-Curr [1/cm^2/(MeV/n)/source]         
p: xlog ylog afac(0.8) form(0.9)
h: n            x            y(neutron ),hh0l   n 
#  e-lower      e-upper      neutron     r.err 
   1.0000E-02   1.0243E-02   2.6551E-04  0.0556
   1.0243E-02   1.0493E-02   2.8568E-04  0.0530
   1.0493E-02   1.0748E-02   2.6636E-04  0.0542
   1.0748E-02   1.1009E-02   2.6462E-04  0.0538
   1.1009E-02   1.1277E-02   2.8148E-04  0.0515
   1.1277E-02   1.1552E-02   2.6459E-04  0.0525
   1.1552E-02   1.1833E-02   2.8820E-04  0.0497
   1.1833E-02   1.2121E-02   2.6086E-04  0.0516
   1.2121E-02   1.2415E-02   2.7195E-04  0.0499
   1.2415E-02   1.2718E-02   2.5954E-04  0.0505
   1.2718E-02   1.3027E-02   2.5208E-04  0.0506
   1.3027E-02   1.3344E-02   2.6565E-04  0.0487
   1.3344E-02   1.3669E-02   2.6673E-04  0.0481
   1.3669E-02   1.4001E-02   2.6040E-04  0.0481
   1.4001E-02   1.4342E-02   2.7359E-04  0.0463
   1.4342E-02   1.4691E-02   2.5190E-04  0.0477
   1.4691E-02   1.5048E-02   2.4788E-04  0.0475
   1.5048E-02   1.5414E-02   2.8897E-04  0.0435
   1.5414E-02   1.5789E-02   2.6290E-04  0.0450
   1.5789E-02   1.6174E-02   2.8894E-04  0.0424
   1.6174E-02   1.6567E-02   2.5768E-04  0.0444
   1.6567E-02   1.6970E-02   2.6049E-04  0.0436
   1.6970E-02   1.7383E-02   2.6108E-04  0.0431
   1.7383E-02   1.7806E-02   2.6434E-04  0.0423
   1.7806E-02   1.8239E-02   2.6914E-04  0.0414
   1.8239E-02   1.8683E-02   2.7221E-04  0.0407
   1.8683E-02   1.9138E-02   2.7454E-04  0.0400
   1.9138E-02   1.9603E-02   2.7919E-04  0.0392
   1.9603E-02   2.0080E-02   2.7130E-04  0.0393
   2.0080E-02   2.0569E-02   2.5585E-04  0.0400
   2.0569E-02   2.1069E-02   2.8454E-04  0.0375
   2.1069E-02   2.1582E-02   2.6803E-04  0.0382
   2.1582E-02   2.2107E-02   2.5938E-04  0.0383
   2.2107E-02   2.2645E-02   2.7850E-04  0.0365
   2.2645E-02   2.3196E-02   2.7842E-04  0.0361
   2.3196E-02   2.3760E-02   2.6897E-04  0.0363
   2.3760E-02   2.4338E-02   2.7538E-04  0.0354
   2.4338E-02   2.4930E-02   2.8843E-04  0.0342
   2.4930E-02   2.5537E-02   2.7103E-04  0.0349
   2.5537E-02   2.6158E-02   2.7360E-04  0.0343
   2.6158E-02   2.6795E-02   2.4998E-04  0.0354
   2.6795E-02   2.7447E-02   2.7763E-04  0.0332
   2.7447E-02   2.8114E-02   2.7194E-04  0.0332
   2.8114E-02   2.8799E-02   2.6986E-04  0.0329
   2.8799E-02   2.9499E-02   2.7459E-04  0.0322
   2.9499E-02   3.0217E-02   2.7810E-04  0.0317
   3.0217E-02   3.0952E-02   2.8645E-04  0.0308
   3.0952E-02   3.1705E-02   2.7142E-04  0.0313
   3.1705E-02   3.2477E-02   2.7975E-04  0.0304
   3.2477E-02   3.3267E-02   2.8120E-04  0.0300
   3.3267E-02   3.4076E-02   2.8663E-04  0.0294
   3.4076E-02   3.4905E-02   2.6149E-04  0.0304
   3.4905E-02   3.5755E-02   2.7247E-04  0.0294
   3.5755E-02   3.6625E-02   2.7933E-04  0.0287
   3.6625E-02   3.7516E-02   2.6978E-04  0.0288
   3.7516E-02   3.8428E-02   2.7422E-04  0.0283
   3.8428E-02   3.9363E-02   2.7316E-04  0.0280
   3.9363E-02   4.0321E-02   2.8233E-04  0.0272
   4.0321E-02   4.1302E-02   2.6706E-04  0.0276
   4.1302E-02   4.2307E-02   2.7226E-04  0.0270
   4.2307E-02   4.3337E-02   2.9047E-04  0.0259
   4.3337E-02   4.4391E-02   2.7314E-04  0.0264
   4.4391E-02   4.5471E-02   2.8906E-04  0.0253
   4.5471E-02   4.6577E-02   2.8743E-04  0.0251
   4.6577E-02   4.7711E-02   2.8202E-04  0.0250
   4.7711E-02   4.8871E-02   2.7652E-04  0.0250
   4.8871E-02   5.0061E-02   2.7568E-04  0.0247
   5.0061E-02   5.1279E-02   2.7684E-04  0.0244
   5.1279E-02   5.2526E-02   2.7251E-04  0.0243
   5.2526E-02   5.3804E-02   2.7120E-04  0.0240
   5.3804E-02   5.5113E-02   2.8829E-04  0.0230
   5.5113E-02   5.6454E-02   2.8189E-04  0.0230
   5.6454E-02   5.7828E-02   2.8240E-04  0.0227
   5.7828E-02   5.9235E-02   2.7036E-04  0.0229
   5.9235E-02   6.0676E-02   2.7615E-04  0.0224
   6.0676E-02   6.2152E-02   2.8118E-04  0.0219
   6.2152E-02   6.3665E-02   2.6491E-04  0.0223
   6.3665E-02   6.5214E-02   2.8153E-04  0.0214
   6.5214E-02   6.6800E-02   2.7428E-04  0.0214
   6.6800E-02   6.8426E-02   2.7459E-04  0.0212
   6.8426E-02   7.0090E-02   2.7979E-04  0.0207
   7.0090E-02   7.1796E-02   2.6909E-04  0.0209
   7.1796E-02   7.3543E-02   2.6929E-04  0.0206
   7.3543E-02   7.5332E-02   2.6982E-04  0.0204
   7.5332E-02   7.7165E-02   2.7470E-04  0.0199
   7.7165E-02   7.9042E-02   2.7739E-04  0.0196
   7.9042E-02   8.0965E-02   2.6976E-04  0.0196
   8.0965E-02   8.2935E-02   2.6600E-04  0.0195
   8.2935E-02   8.4953E-02   2.6473E-04  0.0193
   8.4953E-02   8.7020E-02   2.7896E-04  0.0186
   8.7020E-02   8.9138E-02   2.6095E-04  0.0190
   8.9138E-02   9.1306E-02   2.7315E-04  0.0184
   9.1306E-02   9.3528E-02   2.8016E-04  0.0179
   9.3528E-02   9.5804E-02   2.7777E-04  0.0178
   9.5804E-02   9.8134E-02   2.6894E-04  0.0179
   9.8134E-02   1.0052E-01   2.7784E-04  0.0174
   1.0052E-01   1.0297E-01   2.5546E-04  0.0179
   1.0297E-01   1.0547E-01   2.6536E-04  0.0173
   1.0547E-01   1.0804E-01   2.5980E-04  0.0173
   1.0804E-01   1.1067E-01   2.7120E-04  0.0167
   1.1067E-01   1.1336E-01   2.6383E-04  0.0168
   1.1336E-01   1.1612E-01   2.6235E-04  0.0166
   1.1612E-01   1.1894E-01   2.6022E-04  0.0165
   1.1894E-01   1.2184E-01   2.6710E-04  0.0161
   1.2184E-01   1.2480E-01   2.5971E-04  0.0161
   1.2480E-01   1.2784E-01   2.6260E-04  0.0158
   1.2784E-01   1.3095E-01   2.6286E-04  0.0156
   1.3095E-01   1.3414E-01   2.5938E-04  0.0156
   1.3414E-01   1.3740E-01   2.5291E-04  0.0156
   1.3740E-01   1.4074E-01   2.5899E-04  0.0152
   1.4074E-01   1.4417E-01   2.6025E-04  0.0150
   1.4417E-01   1.4767E-01   2.5823E-04  0.0149
   1.4767E-01   1.5127E-01   2.5733E-04  0.0147
   1.5127E-01   1.5495E-01   2.6160E-04  0.0144
   1.5495E-01   1.5872E-01   2.5316E-04  0.0145
   1.5872E-01   1.6258E-01   2.5615E-04  0.0142
   1.6258E-01   1.6654E-01   2.4868E-04  0.0143
   1.6654E-01   1.7059E-01   2.4934E-04  0.0141
   1.7059E-01   1.7474E-01   2.5657E-04  0.0137
   1.7474E-01   1.7899E-01   2.5276E-04  0.0136
   1.7899E-01   1.8334E-01   2.4643E-04  0.0137
   1.8334E-01   1.8781E-01   2.4883E-04  0.0134
   1.8781E-01   1.9237E-01   2.4826E-04  0.0133
   1.9237E-01   1.9706E-01   2.4950E-04  0.0131
   1.9706E-01   2.0185E-01   2.4684E-04  0.0130
   2.0185E-01   2.0676E-01   2.4064E-04  0.0130
   2.0676E-01   2.1179E-01   2.4307E-04  0.0128
   2.1179E-01   2.1694E-01   2.3664E-04  0.0128
   2.1694E-01   2.2222E-01   2.3712E-04  0.0126
   2.2222E-01   2.2763E-01   2.3973E-04  0.0124
   2.2763E-01   2.3317E-01   2.4251E-04  0.0122
   2.3317E-01   2.3884E-01   2.3579E-04  0.0122
   2.3884E-01   2.4465E-01   2.3493E-04  0.0121
   2.4465E-01   2.5061E-01   2.2918E-04  0.0121
   2.5061E-01   2.5670E-01   2.3307E-04  0.0119
   2.5670E-01   2.6295E-01   2.2739E-04  0.0119
   2.6295E-01   2.6935E-01   2.2539E-04  0.0118
   2.6935E-01   2.7590E-01   2.2315E-04  0.0117
   2.7590E-01   2.8261E-01   2.2393E-04  0.0115
   2.8261E-01   2.8949E-01   2.2527E-04  0.0114
   2.8949E-01   2.9653E-01   2.2381E-04  0.0113
   2.9653E-01   3.0375E-01   2.1827E-04  0.0113
   3.0375E-01   3.1114E-01   2.1597E-04  0.0112
   3.1114E-01   3.1871E-01   2.1582E-04  0.0111
   3.1871E-01   3.2646E-01   2.1644E-04  0.0109
   3.2646E-01   3.3441E-01   2.0983E-04  0.0110
   3.3441E-01   3.4254E-01   2.1034E-04  0.0108
   3.4254E-01   3.5088E-01   2.0604E-04  0.0108
   3.5088E-01   3.5941E-01   2.0370E-04  0.0107
   3.5941E-01   3.6816E-01   2.0677E-04  0.0105
   3.6816E-01   3.7712E-01   2.0350E-04  0.0105
   3.7712E-01   3.8629E-01   2.0057E-04  0.0104
   3.8629E-01   3.9569E-01   1.9612E-04  0.0104
   3.9569E-01   4.0532E-01   1.9435E-04  0.0103
   4.0532E-01   4.1518E-01   1.9424E-04  0.0102
   4.1518E-01   4.2528E-01   1.8917E-04  0.0102
   4.2528E-01   4.3563E-01   1.8782E-04  0.0101
   4.3563E-01   4.4623E-01   1.8407E-04  0.0101
   4.4623E-01   4.5708E-01   1.8205E-04  0.0101
   4.5708E-01   4.6821E-01   1.8493E-04  0.0099
   4.6821E-01   4.7960E-01   1.8008E-04  0.0099
   4.7960E-01   4.9127E-01   1.7810E-04  0.0098
   4.9127E-01   5.0322E-01   1.7300E-04  0.0098
   5.0322E-01   5.1546E-01   1.7116E-04  0.0098
   5.1546E-01   5.2800E-01   1.6696E-04  0.0098
   5.2800E-01   5.4085E-01   1.6553E-04  0.0097
   5.4085E-01   5.5401E-01   1.6358E-04  0.0096
   5.5401E-01   5.6749E-01   1.6034E-04  0.0096
   5.6749E-01   5.8130E-01   1.5700E-04  0.0096
   5.8130E-01   5.9544E-01   1.5317E-04  0.0096
   5.9544E-01   6.0993E-01   1.5162E-04  0.0095
   6.0993E-01   6.2477E-01   1.4662E-04  0.0096
   6.2477E-01   6.3997E-01   1.4383E-04  0.0096
   6.3997E-01   6.5554E-01   1.3954E-04  0.0096
   6.5554E-01   6.7149E-01   1.3676E-04  0.0096
   6.7149E-01   6.8783E-01   1.3803E-04  0.0094
   6.8783E-01   7.0456E-01   1.3065E-04  0.0096
   7.0456E-01   7.2171E-01   1.2995E-04  0.0095
   7.2171E-01   7.3927E-01   1.2600E-04  0.0095
   7.3927E-01   7.5725E-01   1.2155E-04  0.0096
   7.5725E-01   7.7568E-01   1.2004E-04  0.0095
   7.7568E-01   7.9455E-01   1.1443E-04  0.0096
   7.9455E-01   8.1388E-01   1.1152E-04  0.0096
   8.1388E-01   8.3368E-01   1.0846E-04  0.0096
   8.3368E-01   8.5397E-01   1.0478E-04  0.0097
   8.5397E-01   8.7475E-01   1.0151E-04  0.0097
   8.7475E-01   8.9603E-01   9.6526E-05  0.0099
   8.9603E-01   9.1783E-01   9.5105E-05  0.0098
   9.1783E-01   9.4016E-01   8.9385E-05  0.0100
   9.4016E-01   9.6304E-01   8.6182E-05  0.0101
   9.6304E-01   9.8647E-01   8.3990E-05  0.0101
   9.8647E-01   1.0105E+00   8.0678E-05  0.0102
   1.0105E+00   1.0351E+00   8.0283E-05  0.0101
   1.0351E+00   1.0602E+00   8.1870E-05  0.0098
   1.0602E+00   1.0860E+00   8.1228E-05  0.0098
   1.0860E+00   1.1125E+00   8.2258E-05  0.0096
   1.1125E+00   1.1395E+00   8.3836E-05  0.0094
   1.1395E+00   1.1673E+00   8.5654E-05  0.0092
   1.1673E+00   1.1957E+00   8.7475E-05  0.0090
   1.1957E+00   1.2247E+00   8.8590E-05  0.0088
   1.2247E+00   1.2545E+00   8.7885E-05  0.0087
   1.2545E+00   1.2851E+00   8.9785E-05  0.0085
   1.2851E+00   1.3163E+00   8.9779E-05  0.0084
   1.3163E+00   1.3484E+00   9.0041E-05  0.0083
   1.3484E+00   1.3812E+00   9.0225E-05  0.0082
   1.3812E+00   1.4148E+00   9.2980E-05  0.0080
   1.4148E+00   1.4492E+00   9.1887E-05  0.0080
   1.4492E+00   1.4845E+00   9.1063E-05  0.0079
   1.4845E+00   1.5206E+00   8.8790E-05  0.0079
   1.5206E+00   1.5576E+00   8.9567E-05  0.0078
   1.5576E+00   1.5955E+00   8.8537E-05  0.0077
   1.5955E+00   1.6343E+00   8.8964E-05  0.0076
   1.6343E+00   1.6741E+00   8.8931E-05  0.0075
   1.6741E+00   1.7148E+00   8.9143E-05  0.0074
   1.7148E+00   1.7565E+00   8.8495E-05  0.0074
   1.7565E+00   1.7992E+00   8.6819E-05  0.0073
   1.7992E+00   1.8430E+00   8.5047E-05  0.0073
   1.8430E+00   1.8879E+00   8.3734E-05  0.0073
   1.8879E+00   1.9338E+00   8.2196E-05  0.0073
   1.9338E+00   1.9808E+00   8.1895E-05  0.0072
   1.9808E+00   2.0290E+00   8.0300E-05  0.0072
   2.0290E+00   2.0784E+00   7.8747E-05  0.0072
   2.0784E+00   2.1290E+00   7.7569E-05  0.0071
   2.1290E+00   2.1808E+00   7.4960E-05  0.0072
   2.1808E+00   2.2338E+00   7.2812E-05  0.0072
   2.2338E+00   2.2882E+00   7.1246E-05  0.0072
   2.2882E+00   2.3439E+00   6.8715E-05  0.0072
   2.3439E+00   2.4009E+00   6.7611E-05  0.0072
   2.4009E+00   2.4593E+00   6.5673E-05  0.0072
   2.4593E+00   2.5191E+00   6.2940E-05  0.0073
   2.5191E+00   2.5804E+00   6.0291E-05  0.0074
   2.5804E+00   2.6432E+00   5.7841E-05  0.0074
   2.6432E+00   2.7075E+00   5.6638E-05  0.0074
   2.7075E+00   2.7734E+00   5.3751E-05  0.0075
   2.7734E+00   2.8409E+00   5.1068E-05  0.0076
   2.8409E+00   2.9100E+00   4.9599E-05  0.0076
   2.9100E+00   2.9808E+00   4.7409E-05  0.0077
   2.9808E+00   3.0533E+00   4.5394E-05  0.0078
   3.0533E+00   3.1276E+00   4.2877E-05  0.0079
   3.1276E+00   3.2037E+00   4.0675E-05  0.0080
   3.2037E+00   3.2817E+00   3.9077E-05  0.0081
   3.2817E+00   3.3615E+00   3.6325E-05  0.0083
   3.3615E+00   3.4433E+00   3.4494E-05  0.0084
   3.4433E+00   3.5271E+00   3.2153E-05  0.0086
   3.5271E+00   3.6129E+00   3.0537E-05  0.0087
   3.6129E+00   3.7008E+00   2.8554E-05  0.0089
   3.7008E+00   3.7908E+00   2.7628E-05  0.0090
   3.7908E+00   3.8831E+00   2.5356E-05  0.0092
   3.8831E+00   3.9776E+00   2.4117E-05  0.0094
   3.9776E+00   4.0743E+00   2.2130E-05  0.0097
   4.0743E+00   4.1735E+00   2.0831E-05  0.0098
   4.1735E+00   4.2750E+00   1.9964E-05  0.0099
   4.2750E+00   4.3790E+00   1.8575E-05  0.0102
   4.3790E+00   4.4856E+00   1.7380E-05  0.0104
   4.4856E+00   4.5947E+00   1.5831E-05  0.0108
   4.5947E+00   4.7065E+00   1.4922E-05  0.0109
   4.7065E+00   4.8210E+00   1.3826E-05  0.0112
   4.8210E+00   4.9383E+00   1.2986E-05  0.0115
   4.9383E+00   5.0585E+00   1.2584E-05  0.0115
   5.0585E+00   5.1815E+00   1.1361E-05  0.0120
   5.1815E+00   5.3076E+00   1.0847E-05  0.0121
   5.3076E+00   5.4368E+00   9.9777E-06  0.0125
   5.4368E+00   5.5690E+00   9.3173E-06  0.0127
   5.5690E+00   5.7045E+00   8.7454E-06  0.0130
   5.7045E+00   5.8433E+00   7.8302E-06  0.0136
   5.8433E+00   5.9855E+00   7.4986E-06  0.0137
   5.9855E+00   6.1311E+00   6.9655E-06  0.0140
   6.1311E+00   6.2803E+00   6.3871E-06  0.0145
   6.2803E+00   6.4331E+00   6.1150E-06  0.0146
   6.4331E+00   6.5896E+00   5.5960E-06  0.0151
   6.5896E+00   6.7500E+00   4.9990E-06  0.0158
   6.7500E+00   6.9142E+00   4.6940E-06  0.0161
   6.9142E+00   7.0824E+00   4.4238E-06  0.0164
   7.0824E+00   7.2548E+00   3.9815E-06  0.0171
   7.2548E+00   7.4313E+00   3.8654E-06  0.0171
   7.4313E+00   7.6121E+00   3.5408E-06  0.0177
   7.6121E+00   7.7973E+00   3.3125E-06  0.0180
   7.7973E+00   7.9870E+00   2.9887E-06  0.0188
   7.9870E+00   8.1813E+00   2.7911E-06  0.0192
   8.1813E+00   8.3804E+00   2.5666E-06  0.0198
   8.3804E+00   8.5843E+00   2.3654E-06  0.0204
   8.5843E+00   8.7931E+00   2.1531E-06  0.0211
   8.7931E+00   9.0071E+00   2.0412E-06  0.0214
   9.0071E+00   9.2262E+00   1.8604E-06  0.0221
   9.2262E+00   9.4507E+00   1.6634E-06  0.0231
   9.4507E+00   9.6807E+00   1.5943E-06  0.0233
   9.6807E+00   9.9162E+00   1.3684E-06  0.0249
   9.9162E+00   1.0157E+01   1.3189E-06  0.0250
   1.0157E+01   1.0405E+01   1.2329E-06  0.0256
   1.0405E+01   1.0658E+01   1.0914E-06  0.0269
   1.0658E+01   1.0917E+01   1.0439E-06  0.0271
   1.0917E+01   1.1183E+01   9.2839E-07  0.0285
   1.1183E+01   1.1455E+01   8.7289E-07  0.0290
   1.1455E+01   1.1733E+01   8.5144E-07  0.0290
   1.1733E+01   1.2019E+01   7.6221E-07  0.0303
   1.2019E+01   1.2311E+01   6.5246E-07  0.0324
   1.2311E+01   1.2611E+01   6.0325E-07  0.0333
   1.2611E+01   1.2918E+01   5.8957E-07  0.0332
   1.2918E+01   1.3232E+01   5.1543E-07  0.0351
   1.3232E+01   1.3554E+01   4.7120E-07  0.0363
   1.3554E+01   1.3884E+01   4.5727E-07  0.0364
   1.3884E+01   1.4222E+01   4.2303E-07  0.0374
   1.4222E+01   1.4568E+01   3.7714E-07  0.0391
   1.4568E+01   1.4922E+01   3.4082E-07  0.0407
   1.4922E+01   1.5285E+01   3.3961E-07  0.0403
   1.5285E+01   1.5657E+01   2.9309E-07  0.0428
   1.5657E+01   1.6038E+01   2.7668E-07  0.0435
   1.6038E+01   1.6428E+01   2.6319E-07  0.0441
   1.6428E+01   1.6828E+01   2.2816E-07  0.0468
   1.6828E+01   1.7237E+01   2.3154E-07  0.0459
   1.7237E+01   1.7657E+01   2.0672E-07  0.0480
   1.7657E+01   1.8086E+01   1.8948E-07  0.0496
   1.8086E+01   1.8526E+01   1.7998E-07  0.0503
   1.8526E+01   1.8977E+01   1.7437E-07  0.0504
   1.8977E+01   1.9439E+01   1.7543E-07  0.0497
   1.9439E+01   1.9912E+01   1.6745E-07  0.0503
   1.9912E+01   2.0396E+01   1.5151E-07  0.0522
   2.0396E+01   2.0893E+01   1.3541E-07  0.0546
   2.0893E+01   2.1401E+01   1.2275E-07  0.0566
   2.1401E+01   2.1922E+01   1.3251E-07  0.0538
   2.1922E+01   2.2455E+01   1.1362E-07  0.0574
   2.2455E+01   2.3001E+01   9.9936E-08  0.0605
   2.3001E+01   2.3561E+01   1.0400E-07  0.0586
   2.3561E+01   2.4134E+01   1.0432E-07  0.0578
   2.4134E+01   2.4721E+01   8.8555E-08  0.0620
   2.4721E+01   2.5323E+01   7.8471E-08  0.0651
   2.5323E+01   2.5939E+01   7.9854E-08  0.0638
   2.5939E+01   2.6570E+01   8.2077E-08  0.0621
   2.6570E+01   2.7217E+01   7.2083E-08  0.0655
   2.7217E+01   2.7879E+01   6.3123E-08  0.0692
   2.7879E+01   2.8557E+01   5.8085E-08  0.0712
   2.8557E+01   2.9252E+01   5.9296E-08  0.0697
   2.9252E+01   2.9964E+01   5.9012E-08  0.0690
   2.9964E+01   3.0693E+01   4.8283E-08  0.0754
   3.0693E+01   3.1440E+01   4.6064E-08  0.0762
   3.1440E+01   3.2205E+01   5.4906E-08  0.0690
   3.2205E+01   3.2988E+01   3.6755E-08  0.0833
   3.2988E+01   3.3791E+01   3.6879E-08  0.0822
   3.3791E+01   3.4613E+01   3.9652E-08  0.0783
   3.4613E+01   3.5455E+01   3.0636E-08  0.0880
   3.5455E+01   3.6318E+01   2.6198E-08  0.0941
   3.6318E+01   3.7201E+01   2.9877E-08  0.0870
   3.7201E+01   3.8106E+01   2.5631E-08  0.0928
   3.8106E+01   3.9034E+01   2.2003E-08  0.0990
   3.9034E+01   3.9983E+01   1.8953E-08  0.1054
   3.9983E+01   4.0956E+01   1.5830E-08  0.1140
   4.0956E+01   4.1953E+01   1.6859E-08  0.1091
   4.1953E+01   4.2973E+01   1.1168E-08  0.1325
   4.2973E+01   4.4019E+01   1.2242E-08  0.1250
   4.4019E+01   4.5090E+01   1.1018E-08  0.1302
   4.5090E+01   4.6187E+01   1.0027E-08  0.1348
   4.6187E+01   4.7311E+01   8.8986E-09  0.1414
   4.7311E+01   4.8462E+01   7.2973E-09  0.1543
   4.8462E+01   4.9641E+01   7.4632E-09  0.1508
   4.9641E+01   5.0849E+01   4.8021E-09  0.1857
   5.0849E+01   5.2086E+01   5.1730E-09  0.1768
   5.2086E+01   5.3353E+01   4.8923E-09  0.1796
   5.3353E+01   5.4651E+01   2.6192E-09  0.2425
   5.4651E+01   5.5981E+01   1.9553E-09  0.2774
   5.5981E+01   5.7343E+01   3.0836E-09  0.2182
   5.7343E+01   5.8738E+01   1.7202E-09  0.2887
   5.8738E+01   6.0168E+01   9.7960E-10  0.3780
   6.0168E+01   6.1632E+01   6.8310E-10  0.4472
   6.1632E+01   6.3131E+01   5.3350E-10  0.5000
   6.3131E+01   6.4667E+01   6.5103E-10  0.4472
   6.4667E+01   6.6240E+01   1.2711E-10  1.0000
   6.6240E+01   6.7852E+01   1.2409E-10  1.0000
   6.7852E+01   6.9503E+01   3.6344E-10  0.5774
   6.9503E+01   7.1194E+01   3.5481E-10  0.5774
   7.1194E+01   7.2926E+01   0.0000E+00  0.0000
   7.2926E+01   7.4701E+01   1.1272E-10  1.0000
   7.4701E+01   7.6518E+01   1.1004E-10  1.0000
   7.6518E+01   7.8380E+01   1.0743E-10  1.0000
   7.8380E+01   8.0287E+01   0.0000E+00  0.0000
   8.0287E+01   8.2240E+01   0.0000E+00  0.0000
   8.2240E+01   8.4241E+01   0.0000E+00  0.0000
   8.4241E+01   8.6291E+01   0.0000E+00  0.0000
   8.6291E+01   8.8391E+01   0.0000E+00  0.0000
   8.8391E+01   9.0541E+01   0.0000E+00  0.0000
   9.0541E+01   9.2744E+01   0.0000E+00  0.0000
   9.2744E+01   9.5001E+01   0.0000E+00  0.0000
   9.5001E+01   9.7312E+01   0.0000E+00  0.0000
   9.7312E+01   9.9680E+01   0.0000E+00  0.0000
   9.9680E+01   1.0211E+02   0.0000E+00  0.0000
   1.0211E+02   1.0459E+02   0.0000E+00  0.0000
   1.0459E+02   1.0713E+02   0.0000E+00  0.0000
   1.0713E+02   1.0974E+02   0.0000E+00  0.0000
   1.0974E+02   1.1241E+02   0.0000E+00  0.0000
   1.1241E+02   1.1515E+02   0.0000E+00  0.0000
   1.1515E+02   1.1795E+02   0.0000E+00  0.0000
   1.1795E+02   1.2082E+02   0.0000E+00  0.0000
   1.2082E+02   1.2376E+02   0.0000E+00  0.0000
   1.2376E+02   1.2677E+02   0.0000E+00  0.0000
   1.2677E+02   1.2985E+02   0.0000E+00  0.0000
   1.2985E+02   1.3301E+02   0.0000E+00  0.0000
   1.3301E+02   1.3625E+02   0.0000E+00  0.0000
   1.3625E+02   1.3956E+02   0.0000E+00  0.0000
   1.3956E+02   1.4296E+02   0.0000E+00  0.0000
   1.4296E+02   1.4644E+02   0.0000E+00  0.0000
   1.4644E+02   1.5000E+02   0.0000E+00  0.0000

#   sum over                 2.6801E-06
'no. =    1   reg = 126 - 226'
msuc: {\huge [t-cross] in region mesh}
msdr: {\it plotted by \ANGEL \version}
msdl: {\it calculated by \PHITS  3.26}
wt: s(0.7)
\vspace{-3}
  region surface crossing
  area  &=&   1.0000E+00 [cm^2]
e:
 
# Information for Restart Calculation
# This calculation was newly started
# istdev =  2 # 1:Batch variance, 2:History variance
# resc2  = 5.00000000000000000E+09 # Total source weight or Total source weight / maxcas
# resc3  = 5.00000000000000000E+09 # Total history number or Total batch number
# maxcas =   500000000 # History / Batch, only used for istdev=1
# bitrseed = 0110100000100010111000001110001111001110100100011111101000111001 # bit data of rseed
