[ T-Cross ]
    title = [t-cross] in region mesh
     mesh =  reg            # mesh type is region-wise
      reg =    1            # number of crossing regions
      non     r-from    r-to       area
      1       105       205        1.000000    
   e-type =    3            # e-mesh is log given by emin, emax and ne
     emin =  1.0000000E-02  # minimum value of e-mesh points
     emax =   150.0000      # maximum value of e-mesh points
#    edel =  2.4039514E-02  # mesh width of e-mesh points
       ne =    400          # number of e-mesh points
#    data = ( e(i), i = 1, ne + 1 )
#           1.00000E-02  1.02433E-02  1.04925E-02  1.07478E-02  1.10093E-02
#           1.12772E-02  1.15516E-02  1.18326E-02  1.21205E-02  1.24154E-02
#           1.27175E-02  1.30269E-02  1.33439E-02  1.36686E-02  1.40011E-02
#           1.43418E-02  1.46907E-02  1.50482E-02  1.54143E-02  1.57894E-02
#           1.61735E-02  1.65670E-02  1.69701E-02  1.73830E-02  1.78060E-02
#           1.82392E-02  1.86830E-02  1.91375E-02  1.96032E-02  2.00801E-02
#           2.05687E-02  2.10692E-02  2.15818E-02  2.21069E-02  2.26448E-02
#           2.31957E-02  2.37601E-02  2.43382E-02  2.49304E-02  2.55369E-02
#           2.61583E-02  2.67947E-02  2.74467E-02  2.81145E-02  2.87985E-02
#           2.94992E-02  3.02169E-02  3.09521E-02  3.17052E-02  3.24766E-02
#           3.32668E-02  3.40762E-02  3.49053E-02  3.57546E-02  3.66246E-02
#           3.75157E-02  3.84284E-02  3.93634E-02  4.03212E-02  4.13022E-02
#           4.23071E-02  4.33365E-02  4.43909E-02  4.54710E-02  4.65773E-02
#           4.77106E-02  4.88714E-02  5.00605E-02  5.12785E-02  5.25262E-02
#           5.38042E-02  5.51133E-02  5.64542E-02  5.78278E-02  5.92348E-02
#           6.06760E-02  6.21523E-02  6.36645E-02  6.52135E-02  6.68002E-02
#           6.84255E-02  7.00904E-02  7.17957E-02  7.35426E-02  7.53319E-02
#           7.71648E-02  7.90423E-02  8.09655E-02  8.29354E-02  8.49533E-02
#           8.70203E-02  8.91376E-02  9.13064E-02  9.35279E-02  9.58035E-02
#           9.81345E-02  1.00522E-01  1.02968E-01  1.05473E-01  1.08040E-01
#           1.10668E-01  1.13361E-01  1.16119E-01  1.18944E-01  1.21838E-01
#           1.24803E-01  1.27839E-01  1.30950E-01  1.34136E-01  1.37399E-01
#           1.40742E-01  1.44167E-01  1.47675E-01  1.51268E-01  1.54948E-01
#           1.58718E-01  1.62580E-01  1.66535E-01  1.70587E-01  1.74738E-01
#           1.78989E-01  1.83344E-01  1.87805E-01  1.92375E-01  1.97055E-01
#           2.01850E-01  2.06761E-01  2.11792E-01  2.16945E-01  2.22223E-01
#           2.27630E-01  2.33169E-01  2.38842E-01  2.44653E-01  2.50605E-01
#           2.56703E-01  2.62949E-01  2.69346E-01  2.75900E-01  2.82613E-01
#           2.89489E-01  2.96532E-01  3.03747E-01  3.11138E-01  3.18708E-01
#           3.26462E-01  3.34405E-01  3.42542E-01  3.50876E-01  3.59413E-01
#           3.68158E-01  3.77116E-01  3.86291E-01  3.95690E-01  4.05317E-01
#           4.15179E-01  4.25281E-01  4.35628E-01  4.46227E-01  4.57084E-01
#           4.68205E-01  4.79597E-01  4.91266E-01  5.03219E-01  5.15463E-01
#           5.28005E-01  5.40851E-01  5.54011E-01  5.67490E-01  5.81298E-01
#           5.95441E-01  6.09929E-01  6.24769E-01  6.39970E-01  6.55541E-01
#           6.71491E-01  6.87828E-01  7.04564E-01  7.21706E-01  7.39266E-01
#           7.57253E-01  7.75678E-01  7.94551E-01  8.13883E-01  8.33685E-01
#           8.53969E-01  8.74747E-01  8.96030E-01  9.17831E-01  9.40163E-01
#           9.63038E-01  9.86469E-01  1.01047E+00  1.03506E+00  1.06024E+00
#           1.08604E+00  1.11246E+00  1.13953E+00  1.16725E+00  1.19565E+00
#           1.22474E+00  1.25454E+00  1.28507E+00  1.31633E+00  1.34836E+00
#           1.38117E+00  1.41477E+00  1.44920E+00  1.48446E+00  1.52057E+00
#           1.55757E+00  1.59547E+00  1.63429E+00  1.67405E+00  1.71478E+00
#           1.75650E+00  1.79924E+00  1.84302E+00  1.88786E+00  1.93379E+00
#           1.98084E+00  2.02904E+00  2.07841E+00  2.12898E+00  2.18078E+00
#           2.23384E+00  2.28819E+00  2.34386E+00  2.40089E+00  2.45930E+00
#           2.51914E+00  2.58043E+00  2.64322E+00  2.70753E+00  2.77341E+00
#           2.84088E+00  2.91001E+00  2.98081E+00  3.05333E+00  3.12762E+00
#           3.20372E+00  3.28167E+00  3.36152E+00  3.44330E+00  3.52708E+00
#           3.61290E+00  3.70080E+00  3.79085E+00  3.88308E+00  3.97756E+00
#           4.07434E+00  4.17347E+00  4.27501E+00  4.37903E+00  4.48557E+00
#           4.59471E+00  4.70650E+00  4.82102E+00  4.93832E+00  5.05847E+00
#           5.18155E+00  5.30762E+00  5.43676E+00  5.56904E+00  5.70453E+00
#           5.84333E+00  5.98550E+00  6.13114E+00  6.28031E+00  6.43312E+00
#           6.58964E+00  6.74997E+00  6.91420E+00  7.08243E+00  7.25475E+00
#           7.43126E+00  7.61207E+00  7.79728E+00  7.98700E+00  8.18133E+00
#           8.38038E+00  8.58428E+00  8.79315E+00  9.00709E+00  9.22624E+00
#           9.45072E+00  9.68067E+00  9.91620E+00  1.01575E+01  1.04046E+01
#           1.06578E+01  1.09171E+01  1.11827E+01  1.14548E+01  1.17335E+01
#           1.20190E+01  1.23114E+01  1.26109E+01  1.29178E+01  1.32321E+01
#           1.35540E+01  1.38838E+01  1.42216E+01  1.45676E+01  1.49221E+01
#           1.52851E+01  1.56570E+01  1.60380E+01  1.64282E+01  1.68279E+01
#           1.72374E+01  1.76568E+01  1.80864E+01  1.85264E+01  1.89772E+01
#           1.94389E+01  1.99119E+01  2.03963E+01  2.08926E+01  2.14009E+01
#           2.19216E+01  2.24550E+01  2.30014E+01  2.35610E+01  2.41343E+01
#           2.47215E+01  2.53230E+01  2.59391E+01  2.65702E+01  2.72167E+01
#           2.78789E+01  2.85572E+01  2.92520E+01  2.99637E+01  3.06928E+01
#           3.14396E+01  3.22045E+01  3.29881E+01  3.37907E+01  3.46128E+01
#           3.54550E+01  3.63177E+01  3.72013E+01  3.81064E+01  3.90336E+01
#           3.99833E+01  4.09561E+01  4.19526E+01  4.29734E+01  4.40189E+01
#           4.50900E+01  4.61870E+01  4.73108E+01  4.84619E+01  4.96410E+01
#           5.08488E+01  5.20860E+01  5.33533E+01  5.46514E+01  5.59812E+01
#           5.73432E+01  5.87384E+01  6.01676E+01  6.16315E+01  6.31311E+01
#           6.46671E+01  6.62405E+01  6.78522E+01  6.95031E+01  7.11941E+01
#           7.29263E+01  7.47007E+01  7.65182E+01  7.83800E+01  8.02870E+01
#           8.22405E+01  8.42414E+01  8.62911E+01  8.83906E+01  9.05412E+01
#           9.27442E+01  9.50007E+01  9.73122E+01  9.96799E+01  1.02105E+02
#           1.04589E+02  1.07134E+02  1.09741E+02  1.12411E+02  1.15146E+02
#           1.17948E+02  1.20817E+02  1.23757E+02  1.26768E+02  1.29852E+02
#           1.33012E+02  1.36248E+02  1.39563E+02  1.42959E+02  1.46437E+02
#           1.50000E+02
     unit =    2            # unit is [1/cm^2/(MeV/n)/source]
     axis =  eng            # axis of output
     file = detector-06.out  # file name of output for the above axis
   output = f-curr          # surface crossing forward current spectrum
     part =  neutron  
# kf/name :  2112     
#    used :        main (  %)        temp (  %)       total (  %)
#  memory :         414 (  0)           0 (  0)         414 (  0)

#------------------------------------------------------------------------------
#newpage:
#   no. =    1   reg = 105 - 205

x: Energy [MeV/n]
y:  F-Curr [1/cm^2/(MeV/n)/source]         
p: xlog ylog afac(0.8) form(0.9)
h: n            x            y(neutron ),hh0l   n 
#  e-lower      e-upper      neutron     r.err 
   1.0000E-02   1.0243E-02   8.3645E-06  0.3112
   1.0243E-02   1.0493E-02   9.6297E-06  0.2887
   1.0493E-02   1.0748E-02   6.6590E-06  0.3379
   1.0748E-02   1.1009E-02   6.2806E-06  0.3454
   1.1009E-02   1.1277E-02   9.7064E-06  0.2774
   1.1277E-02   1.1552E-02   4.3734E-06  0.4082
   1.1552E-02   1.1833E-02   5.6928E-06  0.3536
   1.1833E-02   1.2121E-02   9.0310E-06  0.2774
   1.2121E-02   1.2415E-02   4.0691E-06  0.4082
   1.2415E-02   1.2718E-02   6.0628E-06  0.3281
   1.2718E-02   1.3027E-02   5.8172E-06  0.3333
   1.3027E-02   1.3344E-02   5.2037E-06  0.3443
   1.3344E-02   1.3669E-02   6.9285E-06  0.2957
   1.3669E-02   1.4001E-02   8.7200E-06  0.2557
   1.4001E-02   1.4342E-02   7.5789E-06  0.2721
   1.4342E-02   1.4691E-02   3.1523E-06  0.4166
   1.4691E-02   1.5048E-02   6.8117E-06  0.2849
   1.5048E-02   1.5414E-02   4.3700E-06  0.3423
   1.5414E-02   1.5789E-02   3.7321E-06  0.3596
   1.5789E-02   1.6174E-02   5.7945E-06  0.2982
   1.6174E-02   1.6567E-02   4.0659E-06  0.3536
   1.6567E-02   1.6970E-02   6.5148E-06  0.2680
   1.6970E-02   1.7383E-02   3.6329E-06  0.3590
   1.7383E-02   1.7806E-02   5.3093E-06  0.2961
   1.7806E-02   1.8239E-02   4.6165E-06  0.3162
   1.8239E-02   1.8683E-02   5.8588E-06  0.2774
   1.8683E-02   1.9138E-02   5.9310E-06  0.2687
   1.9138E-02   1.9603E-02   3.4362E-06  0.3536
   1.9603E-02   2.0080E-02   1.8707E-06  0.4544
   2.0080E-02   2.0569E-02   4.0936E-06  0.3162
   2.0569E-02   2.1069E-02   7.3689E-06  0.2305
   2.1069E-02   2.1582E-02   4.4446E-06  0.2922
   2.1582E-02   2.2107E-02   5.0942E-06  0.2703
   2.2107E-02   2.2645E-02   2.6607E-06  0.3704
   2.2645E-02   2.3196E-02   3.8115E-06  0.3049
   2.3196E-02   2.3760E-02   3.2683E-06  0.3262
   2.3760E-02   2.4338E-02   3.1136E-06  0.3333
   2.4338E-02   2.4930E-02   3.1488E-06  0.3227
   2.4930E-02   2.5537E-02   3.1030E-06  0.3198
   2.5537E-02   2.6158E-02   3.0664E-06  0.3173
   2.6158E-02   2.6795E-02   3.1854E-06  0.3123
   2.6795E-02   2.7447E-02   2.9203E-06  0.3167
   2.7447E-02   2.8114E-02   3.5220E-06  0.2861
   2.8114E-02   2.8799E-02   2.0466E-06  0.3780
   2.8799E-02   2.9499E-02   2.6191E-06  0.3275
   2.9499E-02   3.0217E-02   4.5978E-06  0.2443
   3.0217E-02   3.0952E-02   5.1686E-06  0.2294
   3.0952E-02   3.1705E-02   2.7520E-06  0.3062
   3.1705E-02   3.2477E-02   2.1075E-06  0.3483
   3.2477E-02   3.3267E-02   3.5435E-06  0.2673
   3.3267E-02   3.4076E-02   3.1493E-06  0.2753
   3.4076E-02   3.4905E-02   3.3097E-06  0.2645
   3.4905E-02   3.5755E-02   2.8908E-06  0.2826
   3.5755E-02   3.6625E-02   2.9503E-06  0.2734
   3.6625E-02   3.7516E-02   2.8488E-06  0.2744
   3.7516E-02   3.8428E-02   2.7389E-06  0.2800
   3.8428E-02   3.9363E-02   2.6907E-06  0.2767
   3.9363E-02   4.0321E-02   3.8514E-06  0.2305
   4.0321E-02   4.1302E-02   2.8310E-06  0.2629
   4.1302E-02   4.2307E-02   2.0204E-06  0.3119
   4.2307E-02   4.3337E-02   1.4460E-06  0.3581
   4.3337E-02   4.4391E-02   2.0064E-06  0.3006
   4.4391E-02   4.5471E-02   2.7602E-06  0.2540
   4.5471E-02   4.6577E-02   2.5892E-06  0.2617
   4.6577E-02   4.7711E-02   2.1178E-06  0.2887
   4.7711E-02   4.8871E-02   1.8952E-06  0.3015
   4.8871E-02   5.0061E-02   1.5138E-06  0.3333
   5.0061E-02   5.1279E-02   1.6773E-06  0.3103
   5.1279E-02   5.2526E-02   1.9236E-06  0.2887
   5.2526E-02   5.3804E-02   1.4444E-06  0.3260
   5.3804E-02   5.5113E-02   1.8924E-06  0.2805
   5.5113E-02   5.6454E-02   2.2682E-06  0.2550
   5.6454E-02   5.7828E-02   1.1889E-06  0.3470
   5.7828E-02   5.9235E-02   9.9503E-07  0.3780
   5.9235E-02   6.0676E-02   2.5872E-06  0.2293
   6.0676E-02   6.2152E-02   2.0881E-06  0.2520
   6.2152E-02   6.3665E-02   1.1903E-06  0.3333
   6.3665E-02   6.5214E-02   1.7167E-06  0.2716
   6.5214E-02   6.6800E-02   1.9011E-06  0.2513
   6.6800E-02   6.8426E-02   4.9222E-07  0.5000
   6.8426E-02   7.0090E-02   1.5819E-06  0.2741
   7.0090E-02   7.1796E-02   2.0375E-06  0.2378
   7.1796E-02   7.3543E-02   1.7926E-06  0.2496
   7.3543E-02   7.5332E-02   1.5839E-06  0.2596
   7.5332E-02   7.7165E-02   5.2631E-07  0.4301
   7.7165E-02   7.9042E-02   1.8091E-06  0.2382
   7.9042E-02   8.0965E-02   9.0975E-07  0.3271
   8.0965E-02   8.2935E-02   2.1023E-06  0.2175
   8.2935E-02   8.4953E-02   1.2389E-06  0.2800
   8.4953E-02   8.7020E-02   1.2357E-06  0.2749
   8.7020E-02   8.9138E-02   1.3610E-06  0.2605
   8.9138E-02   9.1306E-02   1.0854E-06  0.2859
   9.1306E-02   9.3528E-02   1.1704E-06  0.2774
   9.3528E-02   9.5804E-02   9.2283E-07  0.2974
   9.5804E-02   9.8134E-02   8.7934E-07  0.3095
   9.8134E-02   1.0052E-01   1.2925E-06  0.2518
   1.0052E-01   1.0297E-01   1.0360E-06  0.2766
   1.0297E-01   1.0547E-01   8.2313E-07  0.2997
   1.0547E-01   1.0804E-01   1.0380E-06  0.2712
   1.0804E-01   1.1067E-01   1.0021E-06  0.2741
   1.1067E-01   1.1336E-01   1.0666E-06  0.2612
   1.1336E-01   1.1612E-01   1.2478E-06  0.2355
   1.1612E-01   1.1894E-01   7.9995E-07  0.2856
   1.1894E-01   1.2184E-01   7.1093E-07  0.3080
   1.2184E-01   1.2480E-01   1.1331E-06  0.2403
   1.2480E-01   1.2784E-01   1.1987E-06  0.2334
   1.2784E-01   1.3095E-01   6.6783E-07  0.3057
   1.3095E-01   1.3414E-01   6.9050E-07  0.3015
   1.3414E-01   1.3740E-01   9.4860E-07  0.2512
   1.3740E-01   1.4074E-01   1.2693E-06  0.2162
   1.4074E-01   1.4417E-01   6.9781E-07  0.2820
   1.4417E-01   1.4767E-01   8.3182E-07  0.2576
   1.4767E-01   1.5127E-01   1.2375E-06  0.2112
   1.5127E-01   1.5495E-01   7.2731E-07  0.2702
   1.5495E-01   1.5872E-01   6.8965E-07  0.2774
   1.5872E-01   1.6258E-01   7.6914E-07  0.2547
   1.6258E-01   1.6654E-01   6.2877E-07  0.2738
   1.6654E-01   1.7059E-01   6.4388E-07  0.2694
   1.7059E-01   1.7474E-01   4.9653E-07  0.3076
   1.7474E-01   1.7899E-01   8.0574E-07  0.2351
   1.7899E-01   1.8334E-01   5.7563E-07  0.2780
   1.8334E-01   1.8781E-01   6.9035E-07  0.2522
   1.8781E-01   1.9237E-01   5.5563E-07  0.2761
   1.9237E-01   1.9706E-01   4.9139E-07  0.2917
   1.9706E-01   2.0185E-01   8.1343E-07  0.2250
   2.0185E-01   2.0676E-01   6.6682E-07  0.2448
   2.0676E-01   2.1179E-01   7.7525E-07  0.2250
   2.1179E-01   2.1694E-01   9.0704E-07  0.2055
   2.1694E-01   2.2222E-01   6.3490E-07  0.2411
   2.2222E-01   2.2763E-01   7.5304E-07  0.2200
   2.2763E-01   2.3317E-01   1.3070E-06  0.1659
   2.3317E-01   2.3884E-01   7.9061E-07  0.2072
   2.3884E-01   2.4465E-01   1.1182E-06  0.1743
   2.4465E-01   2.5061E-01   9.6641E-07  0.1846
   2.5061E-01   2.5670E-01   1.4190E-06  0.1505
   2.5670E-01   2.6295E-01   1.1234E-06  0.1671
   2.6295E-01   2.6935E-01   1.0950E-06  0.1658
   2.6935E-01   2.7590E-01   1.1020E-06  0.1647
   2.7590E-01   2.8261E-01   8.6175E-07  0.1841
   2.8261E-01   2.8949E-01   1.8291E-06  0.1249
   2.8949E-01   2.9653E-01   1.3286E-06  0.1442
   2.9653E-01   3.0375E-01   1.3555E-06  0.1410
   3.0375E-01   3.1114E-01   1.3479E-06  0.1403
   3.1114E-01   3.1871E-01   1.1896E-06  0.1476
   3.1871E-01   3.2646E-01   1.5703E-06  0.1267
   3.2646E-01   3.3441E-01   1.7075E-06  0.1198
   3.3441E-01   3.4254E-01   1.7656E-06  0.1170
   3.4254E-01   3.5088E-01   1.8321E-06  0.1129
   3.5088E-01   3.5941E-01   1.6347E-06  0.1179
   3.5941E-01   3.6816E-01   2.1387E-06  0.1022
   3.6816E-01   3.7712E-01   1.9020E-06  0.1073
   3.7712E-01   3.8629E-01   2.1445E-06  0.0997
   3.8629E-01   3.9569E-01   2.2119E-06  0.0972
   3.9569E-01   4.0532E-01   1.8973E-06  0.1037
   4.0532E-01   4.1518E-01   2.2246E-06  0.0950
   4.1518E-01   4.2528E-01   2.5645E-06  0.0871
   4.2528E-01   4.3563E-01   2.5742E-06  0.0856
   4.3563E-01   4.4623E-01   2.5151E-06  0.0852
   4.4623E-01   4.5708E-01   2.6973E-06  0.0819
   4.5708E-01   4.6821E-01   2.7084E-06  0.0808
   4.6821E-01   4.7960E-01   2.6975E-06  0.0797
   4.7960E-01   4.9127E-01   3.0088E-06  0.0747
   4.9127E-01   5.0322E-01   3.2886E-06  0.0707
   5.0322E-01   5.1546E-01   3.0731E-06  0.0722
   5.1546E-01   5.2800E-01   3.5325E-06  0.0665
   5.2800E-01   5.4085E-01   3.3993E-06  0.0670
   5.4085E-01   5.5401E-01   3.8837E-06  0.0620
   5.5401E-01   5.6749E-01   3.8401E-06  0.0616
   5.6749E-01   5.8130E-01   4.0310E-06  0.0595
   5.8130E-01   5.9544E-01   4.0420E-06  0.0587
   5.9544E-01   6.0993E-01   4.6912E-06  0.0538
   6.0993E-01   6.2477E-01   4.1357E-06  0.0566
   6.2477E-01   6.3997E-01   4.7866E-06  0.0519
   6.3997E-01   6.5554E-01   4.8743E-06  0.0508
   6.5554E-01   6.7149E-01   4.7699E-06  0.0509
   6.7149E-01   6.8783E-01   5.1526E-06  0.0483
   6.8783E-01   7.0456E-01   5.1843E-06  0.0477
   7.0456E-01   7.2171E-01   6.0185E-06  0.0437
   7.2171E-01   7.3927E-01   5.5999E-06  0.0447
   7.3927E-01   7.5725E-01   5.8685E-06  0.0432
   7.5725E-01   7.7568E-01   6.4606E-06  0.0406
   7.7568E-01   7.9455E-01   6.4559E-06  0.0402
   7.9455E-01   8.1388E-01   6.6480E-06  0.0391
   8.1388E-01   8.3368E-01   6.8899E-06  0.0380
   8.3368E-01   8.5397E-01   7.5624E-06  0.0359
   8.5397E-01   8.7475E-01   7.5731E-06  0.0354
   8.7475E-01   8.9603E-01   8.2995E-06  0.0335
   8.9603E-01   9.1783E-01   8.4949E-06  0.0327
   9.1783E-01   9.4016E-01   8.4369E-06  0.0324
   9.4016E-01   9.6304E-01   8.9104E-06  0.0311
   9.6304E-01   9.8647E-01   8.9291E-06  0.0307
   9.8647E-01   1.0105E+00   9.4076E-06  0.0295
   1.0105E+00   1.0351E+00   9.7211E-06  0.0287
   1.0351E+00   1.0602E+00   1.0163E-05  0.0278
   1.0602E+00   1.0860E+00   1.0559E-05  0.0269
   1.0860E+00   1.1125E+00   1.0797E-05  0.0263
   1.1125E+00   1.1395E+00   1.0810E-05  0.0260
   1.1395E+00   1.1673E+00   1.1810E-05  0.0246
   1.1673E+00   1.1957E+00   1.1512E-05  0.0246
   1.1957E+00   1.2247E+00   1.2080E-05  0.0237
   1.2247E+00   1.2545E+00   1.2028E-05  0.0235
   1.2545E+00   1.2851E+00   1.2718E-05  0.0226
   1.2851E+00   1.3163E+00   1.3175E-05  0.0219
   1.3163E+00   1.3484E+00   1.3489E-05  0.0214
   1.3484E+00   1.3812E+00   1.3509E-05  0.0211
   1.3812E+00   1.4148E+00   1.4392E-05  0.0202
   1.4148E+00   1.4492E+00   1.4614E-05  0.0198
   1.4492E+00   1.4845E+00   1.5263E-05  0.0192
   1.4845E+00   1.5206E+00   1.5222E-05  0.0190
   1.5206E+00   1.5576E+00   1.5443E-05  0.0186
   1.5576E+00   1.5955E+00   1.5217E-05  0.0185
   1.5955E+00   1.6343E+00   1.5621E-05  0.0181
   1.6343E+00   1.6741E+00   1.5855E-05  0.0177
   1.6741E+00   1.7148E+00   1.6375E-05  0.0172
   1.7148E+00   1.7565E+00   1.6554E-05  0.0169
   1.7565E+00   1.7992E+00   1.6812E-05  0.0166
   1.7992E+00   1.8430E+00   1.6891E-05  0.0164
   1.8430E+00   1.8879E+00   1.6762E-05  0.0162
   1.8879E+00   1.9338E+00   1.7611E-05  0.0156
   1.9338E+00   1.9808E+00   1.7446E-05  0.0155
   1.9808E+00   2.0290E+00   1.8476E-05  0.0149
   2.0290E+00   2.0784E+00   1.8324E-05  0.0148
   2.0784E+00   2.1290E+00   1.8470E-05  0.0146
   2.1290E+00   2.1808E+00   1.8159E-05  0.0145
   2.1808E+00   2.2338E+00   1.7927E-05  0.0144
   2.2338E+00   2.2882E+00   1.8138E-05  0.0142
   2.2882E+00   2.3439E+00   1.8281E-05  0.0140
   2.3439E+00   2.4009E+00   1.8591E-05  0.0137
   2.4009E+00   2.4593E+00   1.8839E-05  0.0134
   2.4593E+00   2.5191E+00   1.9187E-05  0.0131
   2.5191E+00   2.5804E+00   1.9290E-05  0.0130
   2.5804E+00   2.6432E+00   1.8884E-05  0.0129
   2.6432E+00   2.7075E+00   1.8410E-05  0.0129
   2.7075E+00   2.7734E+00   1.8455E-05  0.0128
   2.7734E+00   2.8409E+00   1.8589E-05  0.0126
   2.8409E+00   2.9100E+00   1.8390E-05  0.0125
   2.9100E+00   2.9808E+00   1.8762E-05  0.0122
   2.9808E+00   3.0533E+00   1.9402E-05  0.0119
   3.0533E+00   3.1276E+00   1.9950E-05  0.0116
   3.1276E+00   3.2037E+00   1.9508E-05  0.0116
   3.2037E+00   3.2817E+00   1.9529E-05  0.0114
   3.2817E+00   3.3615E+00   1.9719E-05  0.0112
   3.3615E+00   3.4433E+00   1.9688E-05  0.0111
   3.4433E+00   3.5271E+00   2.0185E-05  0.0108
   3.5271E+00   3.6129E+00   2.0211E-05  0.0107
   3.6129E+00   3.7008E+00   1.9222E-05  0.0109
   3.7008E+00   3.7908E+00   1.9744E-05  0.0106
   3.7908E+00   3.8831E+00   1.9412E-05  0.0105
   3.8831E+00   3.9776E+00   1.9287E-05  0.0105
   3.9776E+00   4.0743E+00   2.0049E-05  0.0101
   4.0743E+00   4.1735E+00   2.0749E-05  0.0098
   4.1735E+00   4.2750E+00   2.0283E-05  0.0098
   4.2750E+00   4.3790E+00   2.0258E-05  0.0097
   4.3790E+00   4.4856E+00   2.0269E-05  0.0096
   4.4856E+00   4.5947E+00   2.0230E-05  0.0095
   4.5947E+00   4.7065E+00   1.9603E-05  0.0095
   4.7065E+00   4.8210E+00   1.9124E-05  0.0095
   4.8210E+00   4.9383E+00   1.9167E-05  0.0094
   4.9383E+00   5.0585E+00   1.9089E-05  0.0093
   5.0585E+00   5.1815E+00   1.8541E-05  0.0093
   5.1815E+00   5.3076E+00   1.8163E-05  0.0093
   5.3076E+00   5.4368E+00   1.7717E-05  0.0093
   5.4368E+00   5.5690E+00   1.7351E-05  0.0093
   5.5690E+00   5.7045E+00   1.6788E-05  0.0094
   5.7045E+00   5.8433E+00   1.6877E-05  0.0092
   5.8433E+00   5.9855E+00   1.6119E-05  0.0093
   5.9855E+00   6.1311E+00   1.6132E-05  0.0092
   6.1311E+00   6.2803E+00   1.5758E-05  0.0092
   6.2803E+00   6.4331E+00   1.5146E-05  0.0093
   6.4331E+00   6.5896E+00   1.4664E-05  0.0093
   6.5896E+00   6.7500E+00   1.4019E-05  0.0094
   6.7500E+00   6.9142E+00   1.3588E-05  0.0095
   6.9142E+00   7.0824E+00   1.3258E-05  0.0095
   7.0824E+00   7.2548E+00   1.2824E-05  0.0095
   7.2548E+00   7.4313E+00   1.2375E-05  0.0096
   7.4313E+00   7.6121E+00   1.1825E-05  0.0097
   7.6121E+00   7.7973E+00   1.1396E-05  0.0097
   7.7973E+00   7.9870E+00   1.0943E-05  0.0098
   7.9870E+00   8.1813E+00   1.0557E-05  0.0099
   8.1813E+00   8.3804E+00   9.9521E-06  0.0100
   8.3804E+00   8.5843E+00   9.4794E-06  0.0102
   8.5843E+00   8.7931E+00   9.1668E-06  0.0102
   8.7931E+00   9.0071E+00   8.7698E-06  0.0103
   9.0071E+00   9.2262E+00   8.4429E-06  0.0104
   9.2262E+00   9.4507E+00   8.2314E-06  0.0104
   9.4507E+00   9.6807E+00   7.9140E-06  0.0105
   9.6807E+00   9.9162E+00   7.8218E-06  0.0104
   9.9162E+00   1.0157E+01   7.6200E-06  0.0104
   1.0157E+01   1.0405E+01   7.4998E-06  0.0104
   1.0405E+01   1.0658E+01   7.1693E-06  0.0105
   1.0658E+01   1.0917E+01   6.8375E-06  0.0106
   1.0917E+01   1.1183E+01   6.7479E-06  0.0106
   1.1183E+01   1.1455E+01   6.2448E-06  0.0108
   1.1455E+01   1.1733E+01   5.5831E-06  0.0113
   1.1733E+01   1.2019E+01   4.9188E-06  0.0119
   1.2019E+01   1.2311E+01   3.6462E-06  0.0137
   1.2311E+01   1.2611E+01   3.5937E-06  0.0136
   1.2611E+01   1.2918E+01   3.2136E-06  0.0142
   1.2918E+01   1.3232E+01   2.0265E-06  0.0177
   1.3232E+01   1.3554E+01   2.0265E-06  0.0175
   1.3554E+01   1.3884E+01   2.1312E-06  0.0169
   1.3884E+01   1.4222E+01   2.1277E-06  0.0167
   1.4222E+01   1.4568E+01   2.0828E-06  0.0167
   1.4568E+01   1.4922E+01   2.0253E-06  0.0167
   1.4922E+01   1.5285E+01   1.9889E-06  0.0166
   1.5285E+01   1.5657E+01   2.0109E-06  0.0164
   1.5657E+01   1.6038E+01   1.9630E-06  0.0164
   1.6038E+01   1.6428E+01   1.7344E-06  0.0172
   1.6428E+01   1.6828E+01   1.5091E-06  0.0182
   1.6828E+01   1.7237E+01   1.5465E-06  0.0178
   1.7237E+01   1.7657E+01   1.0973E-06  0.0208
   1.7657E+01   1.8086E+01   7.4487E-07  0.0250
   1.8086E+01   1.8526E+01   1.1771E-07  0.0621
   1.8526E+01   1.8977E+01   1.2867E-08  0.1857
   1.8977E+01   1.9439E+01   1.2561E-08  0.1857
   1.9439E+01   1.9912E+01   1.0149E-08  0.2041
   1.9912E+01   2.0396E+01   1.2385E-09  0.5774
   2.0396E+01   2.0893E+01   0.0000E+00  0.0000
   2.0893E+01   2.1401E+01   0.0000E+00  0.0000
   2.1401E+01   2.1922E+01   0.0000E+00  0.0000
   2.1922E+01   2.2455E+01   0.0000E+00  0.0000
   2.2455E+01   2.3001E+01   0.0000E+00  0.0000
   2.3001E+01   2.3561E+01   0.0000E+00  0.0000
   2.3561E+01   2.4134E+01   0.0000E+00  0.0000
   2.4134E+01   2.4721E+01   0.0000E+00  0.0000
   2.4721E+01   2.5323E+01   0.0000E+00  0.0000
   2.5323E+01   2.5939E+01   0.0000E+00  0.0000
   2.5939E+01   2.6570E+01   0.0000E+00  0.0000
   2.6570E+01   2.7217E+01   0.0000E+00  0.0000
   2.7217E+01   2.7879E+01   0.0000E+00  0.0000
   2.7879E+01   2.8557E+01   0.0000E+00  0.0000
   2.8557E+01   2.9252E+01   0.0000E+00  0.0000
   2.9252E+01   2.9964E+01   0.0000E+00  0.0000
   2.9964E+01   3.0693E+01   0.0000E+00  0.0000
   3.0693E+01   3.1440E+01   0.0000E+00  0.0000
   3.1440E+01   3.2205E+01   0.0000E+00  0.0000
   3.2205E+01   3.2988E+01   0.0000E+00  0.0000
   3.2988E+01   3.3791E+01   0.0000E+00  0.0000
   3.3791E+01   3.4613E+01   0.0000E+00  0.0000
   3.4613E+01   3.5455E+01   0.0000E+00  0.0000
   3.5455E+01   3.6318E+01   0.0000E+00  0.0000
   3.6318E+01   3.7201E+01   0.0000E+00  0.0000
   3.7201E+01   3.8106E+01   0.0000E+00  0.0000
   3.8106E+01   3.9034E+01   0.0000E+00  0.0000
   3.9034E+01   3.9983E+01   0.0000E+00  0.0000
   3.9983E+01   4.0956E+01   0.0000E+00  0.0000
   4.0956E+01   4.1953E+01   0.0000E+00  0.0000
   4.1953E+01   4.2973E+01   0.0000E+00  0.0000
   4.2973E+01   4.4019E+01   0.0000E+00  0.0000
   4.4019E+01   4.5090E+01   0.0000E+00  0.0000
   4.5090E+01   4.6187E+01   0.0000E+00  0.0000
   4.6187E+01   4.7311E+01   0.0000E+00  0.0000
   4.7311E+01   4.8462E+01   0.0000E+00  0.0000
   4.8462E+01   4.9641E+01   0.0000E+00  0.0000
   4.9641E+01   5.0849E+01   0.0000E+00  0.0000
   5.0849E+01   5.2086E+01   0.0000E+00  0.0000
   5.2086E+01   5.3353E+01   0.0000E+00  0.0000
   5.3353E+01   5.4651E+01   0.0000E+00  0.0000
   5.4651E+01   5.5981E+01   0.0000E+00  0.0000
   5.5981E+01   5.7343E+01   0.0000E+00  0.0000
   5.7343E+01   5.8738E+01   0.0000E+00  0.0000
   5.8738E+01   6.0168E+01   0.0000E+00  0.0000
   6.0168E+01   6.1632E+01   0.0000E+00  0.0000
   6.1632E+01   6.3131E+01   0.0000E+00  0.0000
   6.3131E+01   6.4667E+01   0.0000E+00  0.0000
   6.4667E+01   6.6240E+01   0.0000E+00  0.0000
   6.6240E+01   6.7852E+01   0.0000E+00  0.0000
   6.7852E+01   6.9503E+01   0.0000E+00  0.0000
   6.9503E+01   7.1194E+01   0.0000E+00  0.0000
   7.1194E+01   7.2926E+01   0.0000E+00  0.0000
   7.2926E+01   7.4701E+01   0.0000E+00  0.0000
   7.4701E+01   7.6518E+01   0.0000E+00  0.0000
   7.6518E+01   7.8380E+01   0.0000E+00  0.0000
   7.8380E+01   8.0287E+01   0.0000E+00  0.0000
   8.0287E+01   8.2240E+01   0.0000E+00  0.0000
   8.2240E+01   8.4241E+01   0.0000E+00  0.0000
   8.4241E+01   8.6291E+01   0.0000E+00  0.0000
   8.6291E+01   8.8391E+01   0.0000E+00  0.0000
   8.8391E+01   9.0541E+01   0.0000E+00  0.0000
   9.0541E+01   9.2744E+01   0.0000E+00  0.0000
   9.2744E+01   9.5001E+01   0.0000E+00  0.0000
   9.5001E+01   9.7312E+01   0.0000E+00  0.0000
   9.7312E+01   9.9680E+01   0.0000E+00  0.0000
   9.9680E+01   1.0211E+02   0.0000E+00  0.0000
   1.0211E+02   1.0459E+02   0.0000E+00  0.0000
   1.0459E+02   1.0713E+02   0.0000E+00  0.0000
   1.0713E+02   1.0974E+02   0.0000E+00  0.0000
   1.0974E+02   1.1241E+02   0.0000E+00  0.0000
   1.1241E+02   1.1515E+02   0.0000E+00  0.0000
   1.1515E+02   1.1795E+02   0.0000E+00  0.0000
   1.1795E+02   1.2082E+02   0.0000E+00  0.0000
   1.2082E+02   1.2376E+02   0.0000E+00  0.0000
   1.2376E+02   1.2677E+02   0.0000E+00  0.0000
   1.2677E+02   1.2985E+02   0.0000E+00  0.0000
   1.2985E+02   1.3301E+02   0.0000E+00  0.0000
   1.3301E+02   1.3625E+02   0.0000E+00  0.0000
   1.3625E+02   1.3956E+02   0.0000E+00  0.0000
   1.3956E+02   1.4296E+02   0.0000E+00  0.0000
   1.4296E+02   1.4644E+02   0.0000E+00  0.0000
   1.4644E+02   1.5000E+02   0.0000E+00  0.0000

#   sum over                 1.0906E-06
'no. =    1   reg = 105 - 205'
msuc: {\huge [t-cross] in region mesh}
msdr: {\it plotted by \ANGEL \version}
msdl: {\it calculated by \PHITS  3.26}
wt: s(0.7)
\vspace{-3}
  region surface crossing
  area  &=&   1.0000E+00 [cm^2]
e:
 
# Information for Restart Calculation
# This calculation was newly started
# istdev =  2 # 1:Batch variance, 2:History variance
# resc2  = 5.00000000000000000E+09 # Total source weight or Total source weight / maxcas
# resc3  = 5.00000000000000000E+09 # Total history number or Total batch number
# maxcas =   500000000 # History / Batch, only used for istdev=1
# bitrseed = 0110100000100010111000001110001111001110100100011111101000111001 # bit data of rseed
