[ T-Cross ]
    title = [t-cross] in region mesh
     mesh =  reg            # mesh type is region-wise
      reg =    1            # number of crossing regions
      non     r-from    r-to       area
      1       111       211        1.000000    
   e-type =    3            # e-mesh is log given by emin, emax and ne
     emin =  1.0000000E-02  # minimum value of e-mesh points
     emax =   150.0000      # maximum value of e-mesh points
#    edel =  2.4039514E-02  # mesh width of e-mesh points
       ne =    400          # number of e-mesh points
#    data = ( e(i), i = 1, ne + 1 )
#           1.00000E-02  1.02433E-02  1.04925E-02  1.07478E-02  1.10093E-02
#           1.12772E-02  1.15516E-02  1.18326E-02  1.21205E-02  1.24154E-02
#           1.27175E-02  1.30269E-02  1.33439E-02  1.36686E-02  1.40011E-02
#           1.43418E-02  1.46907E-02  1.50482E-02  1.54143E-02  1.57894E-02
#           1.61735E-02  1.65670E-02  1.69701E-02  1.73830E-02  1.78060E-02
#           1.82392E-02  1.86830E-02  1.91375E-02  1.96032E-02  2.00801E-02
#           2.05687E-02  2.10692E-02  2.15818E-02  2.21069E-02  2.26448E-02
#           2.31957E-02  2.37601E-02  2.43382E-02  2.49304E-02  2.55369E-02
#           2.61583E-02  2.67947E-02  2.74467E-02  2.81145E-02  2.87985E-02
#           2.94992E-02  3.02169E-02  3.09521E-02  3.17052E-02  3.24766E-02
#           3.32668E-02  3.40762E-02  3.49053E-02  3.57546E-02  3.66246E-02
#           3.75157E-02  3.84284E-02  3.93634E-02  4.03212E-02  4.13022E-02
#           4.23071E-02  4.33365E-02  4.43909E-02  4.54710E-02  4.65773E-02
#           4.77106E-02  4.88714E-02  5.00605E-02  5.12785E-02  5.25262E-02
#           5.38042E-02  5.51133E-02  5.64542E-02  5.78278E-02  5.92348E-02
#           6.06760E-02  6.21523E-02  6.36645E-02  6.52135E-02  6.68002E-02
#           6.84255E-02  7.00904E-02  7.17957E-02  7.35426E-02  7.53319E-02
#           7.71648E-02  7.90423E-02  8.09655E-02  8.29354E-02  8.49533E-02
#           8.70203E-02  8.91376E-02  9.13064E-02  9.35279E-02  9.58035E-02
#           9.81345E-02  1.00522E-01  1.02968E-01  1.05473E-01  1.08040E-01
#           1.10668E-01  1.13361E-01  1.16119E-01  1.18944E-01  1.21838E-01
#           1.24803E-01  1.27839E-01  1.30950E-01  1.34136E-01  1.37399E-01
#           1.40742E-01  1.44167E-01  1.47675E-01  1.51268E-01  1.54948E-01
#           1.58718E-01  1.62580E-01  1.66535E-01  1.70587E-01  1.74738E-01
#           1.78989E-01  1.83344E-01  1.87805E-01  1.92375E-01  1.97055E-01
#           2.01850E-01  2.06761E-01  2.11792E-01  2.16945E-01  2.22223E-01
#           2.27630E-01  2.33169E-01  2.38842E-01  2.44653E-01  2.50605E-01
#           2.56703E-01  2.62949E-01  2.69346E-01  2.75900E-01  2.82613E-01
#           2.89489E-01  2.96532E-01  3.03747E-01  3.11138E-01  3.18708E-01
#           3.26462E-01  3.34405E-01  3.42542E-01  3.50876E-01  3.59413E-01
#           3.68158E-01  3.77116E-01  3.86291E-01  3.95690E-01  4.05317E-01
#           4.15179E-01  4.25281E-01  4.35628E-01  4.46227E-01  4.57084E-01
#           4.68205E-01  4.79597E-01  4.91266E-01  5.03219E-01  5.15463E-01
#           5.28005E-01  5.40851E-01  5.54011E-01  5.67490E-01  5.81298E-01
#           5.95441E-01  6.09929E-01  6.24769E-01  6.39970E-01  6.55541E-01
#           6.71491E-01  6.87828E-01  7.04564E-01  7.21706E-01  7.39266E-01
#           7.57253E-01  7.75678E-01  7.94551E-01  8.13883E-01  8.33685E-01
#           8.53969E-01  8.74747E-01  8.96030E-01  9.17831E-01  9.40163E-01
#           9.63038E-01  9.86469E-01  1.01047E+00  1.03506E+00  1.06024E+00
#           1.08604E+00  1.11246E+00  1.13953E+00  1.16725E+00  1.19565E+00
#           1.22474E+00  1.25454E+00  1.28507E+00  1.31633E+00  1.34836E+00
#           1.38117E+00  1.41477E+00  1.44920E+00  1.48446E+00  1.52057E+00
#           1.55757E+00  1.59547E+00  1.63429E+00  1.67405E+00  1.71478E+00
#           1.75650E+00  1.79924E+00  1.84302E+00  1.88786E+00  1.93379E+00
#           1.98084E+00  2.02904E+00  2.07841E+00  2.12898E+00  2.18078E+00
#           2.23384E+00  2.28819E+00  2.34386E+00  2.40089E+00  2.45930E+00
#           2.51914E+00  2.58043E+00  2.64322E+00  2.70753E+00  2.77341E+00
#           2.84088E+00  2.91001E+00  2.98081E+00  3.05333E+00  3.12762E+00
#           3.20372E+00  3.28167E+00  3.36152E+00  3.44330E+00  3.52708E+00
#           3.61290E+00  3.70080E+00  3.79085E+00  3.88308E+00  3.97756E+00
#           4.07434E+00  4.17347E+00  4.27501E+00  4.37903E+00  4.48557E+00
#           4.59471E+00  4.70650E+00  4.82102E+00  4.93832E+00  5.05847E+00
#           5.18155E+00  5.30762E+00  5.43676E+00  5.56904E+00  5.70453E+00
#           5.84333E+00  5.98550E+00  6.13114E+00  6.28031E+00  6.43312E+00
#           6.58964E+00  6.74997E+00  6.91420E+00  7.08243E+00  7.25475E+00
#           7.43126E+00  7.61207E+00  7.79728E+00  7.98700E+00  8.18133E+00
#           8.38038E+00  8.58428E+00  8.79315E+00  9.00709E+00  9.22624E+00
#           9.45072E+00  9.68067E+00  9.91620E+00  1.01575E+01  1.04046E+01
#           1.06578E+01  1.09171E+01  1.11827E+01  1.14548E+01  1.17335E+01
#           1.20190E+01  1.23114E+01  1.26109E+01  1.29178E+01  1.32321E+01
#           1.35540E+01  1.38838E+01  1.42216E+01  1.45676E+01  1.49221E+01
#           1.52851E+01  1.56570E+01  1.60380E+01  1.64282E+01  1.68279E+01
#           1.72374E+01  1.76568E+01  1.80864E+01  1.85264E+01  1.89772E+01
#           1.94389E+01  1.99119E+01  2.03963E+01  2.08926E+01  2.14009E+01
#           2.19216E+01  2.24550E+01  2.30014E+01  2.35610E+01  2.41343E+01
#           2.47215E+01  2.53230E+01  2.59391E+01  2.65702E+01  2.72167E+01
#           2.78789E+01  2.85572E+01  2.92520E+01  2.99637E+01  3.06928E+01
#           3.14396E+01  3.22045E+01  3.29881E+01  3.37907E+01  3.46128E+01
#           3.54550E+01  3.63177E+01  3.72013E+01  3.81064E+01  3.90336E+01
#           3.99833E+01  4.09561E+01  4.19526E+01  4.29734E+01  4.40189E+01
#           4.50900E+01  4.61870E+01  4.73108E+01  4.84619E+01  4.96410E+01
#           5.08488E+01  5.20860E+01  5.33533E+01  5.46514E+01  5.59812E+01
#           5.73432E+01  5.87384E+01  6.01676E+01  6.16315E+01  6.31311E+01
#           6.46671E+01  6.62405E+01  6.78522E+01  6.95031E+01  7.11941E+01
#           7.29263E+01  7.47007E+01  7.65182E+01  7.83800E+01  8.02870E+01
#           8.22405E+01  8.42414E+01  8.62911E+01  8.83906E+01  9.05412E+01
#           9.27442E+01  9.50007E+01  9.73122E+01  9.96799E+01  1.02105E+02
#           1.04589E+02  1.07134E+02  1.09741E+02  1.12411E+02  1.15146E+02
#           1.17948E+02  1.20817E+02  1.23757E+02  1.26768E+02  1.29852E+02
#           1.33012E+02  1.36248E+02  1.39563E+02  1.42959E+02  1.46437E+02
#           1.50000E+02
     unit =    2            # unit is [1/cm^2/(MeV/n)/source]
     axis =  eng            # axis of output
     file = detector-12.out  # file name of output for the above axis
   output = f-curr          # surface crossing forward current spectrum
     part =  neutron  
# kf/name :  2112     
#    used :        main (  %)        temp (  %)       total (  %)
#  memory :         414 (  0)           0 (  0)         414 (  0)

#------------------------------------------------------------------------------
#newpage:
#   no. =    1   reg = 111 - 211

x: Energy [MeV/n]
y:  F-Curr [1/cm^2/(MeV/n)/source]         
p: xlog ylog afac(0.8) form(0.9)
h: n            x            y(neutron ),hh0l   n 
#  e-lower      e-upper      neutron     r.err 
   1.0000E-02   1.0243E-02   4.5325E-05  0.1323
   1.0243E-02   1.0493E-02   4.2854E-05  0.1364
   1.0493E-02   1.0748E-02   5.0554E-05  0.1234
   1.0748E-02   1.1009E-02   4.8018E-05  0.1249
   1.1009E-02   1.1277E-02   3.9826E-05  0.1366
   1.1277E-02   1.1552E-02   4.2428E-05  0.1300
   1.1552E-02   1.1833E-02   4.7410E-05  0.1221
   1.1833E-02   1.2121E-02   3.9275E-05  0.1325
   1.2121E-02   1.2415E-02   3.8113E-05  0.1317
   1.2415E-02   1.2718E-02   3.0051E-05  0.1479
   1.2718E-02   1.3027E-02   3.9443E-05  0.1268
   1.3027E-02   1.3344E-02   4.0438E-05  0.1242
   1.3344E-02   1.3669E-02   3.8518E-05  0.1260
   1.3669E-02   1.4001E-02   2.8970E-05  0.1439
   1.4001E-02   1.4342E-02   3.2718E-05  0.1325
   1.4342E-02   1.4691E-02   3.7719E-05  0.1214
   1.4691E-02   1.5048E-02   2.8951E-05  0.1358
   1.5048E-02   1.5414E-02   3.5041E-05  0.1240
   1.5414E-02   1.5789E-02   2.4292E-05  0.1474
   1.5789E-02   1.6174E-02   3.5399E-05  0.1206
   1.6174E-02   1.6567E-02   3.3607E-05  0.1222
   1.6567E-02   1.6970E-02   2.6988E-05  0.1337
   1.6970E-02   1.7383E-02   3.8189E-05  0.1122
   1.7383E-02   1.7806E-02   2.7502E-05  0.1289
   1.7806E-02   1.8239E-02   2.5399E-05  0.1324
   1.8239E-02   1.8683E-02   2.4894E-05  0.1335
   1.8683E-02   1.9138E-02   2.7063E-05  0.1264
   1.9138E-02   1.9603E-02   2.6808E-05  0.1251
   1.9603E-02   2.0080E-02   2.7432E-05  0.1227
   2.0080E-02   2.0569E-02   2.7869E-05  0.1206
   2.0569E-02   2.1069E-02   2.8013E-05  0.1176
   2.1069E-02   2.1582E-02   2.5396E-05  0.1227
   2.1582E-02   2.2107E-02   2.4462E-05  0.1240
   2.2107E-02   2.2645E-02   2.0768E-05  0.1326
   2.2645E-02   2.3196E-02   1.9949E-05  0.1333
   2.3196E-02   2.3760E-02   2.1823E-05  0.1258
   2.3760E-02   2.4338E-02   2.1294E-05  0.1255
   2.4338E-02   2.4930E-02   2.5223E-05  0.1153
   2.4930E-02   2.5537E-02   2.2310E-05  0.1212
   2.5537E-02   2.6158E-02   2.2455E-05  0.1188
   2.6158E-02   2.6795E-02   1.8824E-05  0.1273
   2.6795E-02   2.7447E-02   1.8447E-05  0.1280
   2.7447E-02   2.8114E-02   1.8927E-05  0.1245
   2.8114E-02   2.8799E-02   1.8293E-05  0.1248
   2.8799E-02   2.9499E-02   1.7386E-05  0.1263
   2.9499E-02   3.0217E-02   1.8845E-05  0.1212
   3.0217E-02   3.0952E-02   1.4418E-05  0.1365
   3.0952E-02   3.1705E-02   1.3955E-05  0.1365
   3.1705E-02   3.2477E-02   1.2918E-05  0.1409
   3.2477E-02   3.3267E-02   1.9270E-05  0.1141
   3.3267E-02   3.4076E-02   1.8566E-05  0.1143
   3.4076E-02   3.4905E-02   1.3898E-05  0.1296
   3.4905E-02   3.5755E-02   1.6107E-05  0.1200
   3.5755E-02   3.6625E-02   1.7242E-05  0.1150
   3.6625E-02   3.7516E-02   1.5975E-05  0.1179
   3.7516E-02   3.8428E-02   1.2443E-05  0.1321
   3.8428E-02   3.9363E-02   1.3426E-05  0.1256
   3.9363E-02   4.0321E-02   1.2395E-05  0.1287
   4.0321E-02   4.1302E-02   1.5426E-05  0.1138
   4.1302E-02   4.2307E-02   1.6142E-05  0.1102
   4.2307E-02   4.3337E-02   1.2400E-05  0.1234
   4.3337E-02   4.4391E-02   1.1658E-05  0.1266
   4.4391E-02   4.5471E-02   1.5455E-05  0.1082
   4.5471E-02   4.6577E-02   1.2841E-05  0.1177
   4.6577E-02   4.7711E-02   1.0695E-05  0.1274
   4.7711E-02   4.8871E-02   1.0389E-05  0.1278
   4.8871E-02   5.0061E-02   1.0702E-05  0.1249
   5.0061E-02   5.1279E-02   1.0661E-05  0.1223
   5.1279E-02   5.2526E-02   1.1091E-05  0.1190
   5.2526E-02   5.3804E-02   1.2713E-05  0.1092
   5.3804E-02   5.5113E-02   9.7581E-06  0.1238
   5.5113E-02   5.6454E-02   1.1570E-05  0.1128
   5.6454E-02   5.7828E-02   1.3061E-05  0.1053
   5.7828E-02   5.9235E-02   1.1375E-05  0.1105
   5.9235E-02   6.0676E-02   1.0646E-05  0.1133
   6.0676E-02   6.2152E-02   9.9588E-06  0.1152
   6.2152E-02   6.3665E-02   1.0542E-05  0.1108
   6.3665E-02   6.5214E-02   1.0555E-05  0.1091
   6.5214E-02   6.6800E-02   8.7322E-06  0.1193
   6.6800E-02   6.8426E-02   8.1469E-06  0.1227
   6.8426E-02   7.0090E-02   7.1840E-06  0.1279
   7.0090E-02   7.1796E-02   9.2355E-06  0.1119
   7.1796E-02   7.3543E-02   9.9685E-06  0.1063
   7.3543E-02   7.5332E-02   8.5853E-06  0.1136
   7.5332E-02   7.7165E-02   9.1414E-06  0.1089
   7.7165E-02   7.9042E-02   8.4361E-06  0.1118
   7.9042E-02   8.0965E-02   8.0125E-06  0.1129
   8.0965E-02   8.2935E-02   7.8422E-06  0.1126
   8.2935E-02   8.4953E-02   6.8427E-06  0.1182
   8.4953E-02   8.7020E-02   8.4513E-06  0.1060
   8.7020E-02   8.9138E-02   6.4828E-06  0.1204
   8.9138E-02   9.1306E-02   8.4767E-06  0.1032
   9.1306E-02   9.3528E-02   6.4085E-06  0.1177
   9.3528E-02   9.5804E-02   6.7143E-06  0.1137
   9.5804E-02   9.8134E-02   7.2292E-06  0.1077
   9.8134E-02   1.0052E-01   7.8384E-06  0.1021
   1.0052E-01   1.0297E-01   7.7098E-06  0.1022
   1.0297E-01   1.0547E-01   5.1476E-06  0.1235
   1.0547E-01   1.0804E-01   5.8042E-06  0.1146
   1.0804E-01   1.1067E-01   5.4228E-06  0.1171
   1.1067E-01   1.1336E-01   5.2794E-06  0.1179
   1.1336E-01   1.1612E-01   4.7815E-06  0.1218
   1.1612E-01   1.1894E-01   5.0235E-06  0.1169
   1.1894E-01   1.2184E-01   6.3938E-06  0.1030
   1.2184E-01   1.2480E-01   5.9481E-06  0.1057
   1.2480E-01   1.2784E-01   5.6487E-06  0.1071
   1.2784E-01   1.3095E-01   5.0833E-06  0.1112
   1.3095E-01   1.3414E-01   4.7529E-06  0.1141
   1.3414E-01   1.3740E-01   4.4907E-06  0.1156
   1.3740E-01   1.4074E-01   5.7590E-06  0.1005
   1.4074E-01   1.4417E-01   4.2179E-06  0.1159
   1.4417E-01   1.4767E-01   4.5693E-06  0.1111
   1.4767E-01   1.5127E-01   4.5387E-06  0.1095
   1.5127E-01   1.5495E-01   4.6053E-06  0.1075
   1.5495E-01   1.5872E-01   4.1594E-06  0.1123
   1.5872E-01   1.6258E-01   3.7807E-06  0.1164
   1.6258E-01   1.6654E-01   4.3167E-06  0.1076
   1.6654E-01   1.7059E-01   4.7901E-06  0.1008
   1.7059E-01   1.7474E-01   5.0374E-06  0.0971
   1.7474E-01   1.7899E-01   3.7038E-06  0.1123
   1.7899E-01   1.8334E-01   4.3549E-06  0.1021
   1.8334E-01   1.8781E-01   3.9371E-06  0.1050
   1.8781E-01   1.9237E-01   4.2010E-06  0.1007
   1.9237E-01   1.9706E-01   4.1604E-06  0.0997
   1.9706E-01   2.0185E-01   4.2863E-06  0.0980
   2.0185E-01   2.0676E-01   3.4822E-06  0.1069
   2.0676E-01   2.1179E-01   4.5382E-06  0.0929
   2.1179E-01   2.1694E-01   4.2503E-06  0.0949
   2.1694E-01   2.2222E-01   5.5678E-06  0.0820
   2.2222E-01   2.2763E-01   4.7342E-06  0.0880
   2.2763E-01   2.3317E-01   5.7483E-06  0.0785
   2.3317E-01   2.3884E-01   5.7777E-06  0.0774
   2.3884E-01   2.4465E-01   6.3352E-06  0.0731
   2.4465E-01   2.5061E-01   6.2215E-06  0.0728
   2.5061E-01   2.5670E-01   6.7003E-06  0.0693
   2.5670E-01   2.6295E-01   6.9238E-06  0.0676
   2.6295E-01   2.6935E-01   7.2154E-06  0.0653
   2.6935E-01   2.7590E-01   7.4338E-06  0.0633
   2.7590E-01   2.8261E-01   8.2777E-06  0.0595
   2.8261E-01   2.8949E-01   8.4782E-06  0.0581
   2.8949E-01   2.9653E-01   7.8221E-06  0.0598
   2.9653E-01   3.0375E-01   9.1298E-06  0.0546
   3.0375E-01   3.1114E-01   9.7019E-06  0.0524
   3.1114E-01   3.1871E-01   9.7178E-06  0.0517
   3.1871E-01   3.2646E-01   1.1520E-05  0.0471
   3.2646E-01   3.3441E-01   1.0040E-05  0.0495
   3.3441E-01   3.4254E-01   1.1013E-05  0.0469
   3.4254E-01   3.5088E-01   1.1202E-05  0.0459
   3.5088E-01   3.5941E-01   1.1915E-05  0.0439
   3.5941E-01   3.6816E-01   1.2313E-05  0.0428
   3.6816E-01   3.7712E-01   1.3656E-05  0.0401
   3.7712E-01   3.8629E-01   1.4464E-05  0.0385
   3.8629E-01   3.9569E-01   1.4937E-05  0.0375
   3.9569E-01   4.0532E-01   1.4233E-05  0.0379
   4.0532E-01   4.1518E-01   1.6198E-05  0.0352
   4.1518E-01   4.2528E-01   1.7667E-05  0.0333
   4.2528E-01   4.3563E-01   1.6758E-05  0.0337
   4.3563E-01   4.4623E-01   1.8143E-05  0.0320
   4.4623E-01   4.5708E-01   1.8711E-05  0.0311
   4.5708E-01   4.6821E-01   1.9378E-05  0.0303
   4.6821E-01   4.7960E-01   2.0552E-05  0.0290
   4.7960E-01   4.9127E-01   2.0463E-05  0.0287
   4.9127E-01   5.0322E-01   2.2947E-05  0.0268
   5.0322E-01   5.1546E-01   2.3643E-05  0.0261
   5.1546E-01   5.2800E-01   2.4550E-05  0.0253
   5.2800E-01   5.4085E-01   2.5946E-05  0.0243
   5.4085E-01   5.5401E-01   2.6283E-05  0.0239
   5.5401E-01   5.6749E-01   2.7982E-05  0.0229
   5.6749E-01   5.8130E-01   2.9472E-05  0.0220
   5.8130E-01   5.9544E-01   2.9877E-05  0.0216
   5.9544E-01   6.0993E-01   3.0269E-05  0.0212
   6.0993E-01   6.2477E-01   3.3010E-05  0.0201
   6.2477E-01   6.3997E-01   3.2110E-05  0.0201
   6.3997E-01   6.5554E-01   3.5672E-05  0.0189
   6.5554E-01   6.7149E-01   3.5552E-05  0.0187
   6.7149E-01   6.8783E-01   3.6027E-05  0.0183
   6.8783E-01   7.0456E-01   3.8694E-05  0.0175
   7.0456E-01   7.2171E-01   3.9160E-05  0.0171
   7.2171E-01   7.3927E-01   4.0691E-05  0.0166
   7.3927E-01   7.5725E-01   4.2918E-05  0.0160
   7.5725E-01   7.7568E-01   4.4437E-05  0.0155
   7.7568E-01   7.9455E-01   4.6860E-05  0.0149
   7.9455E-01   8.1388E-01   4.8318E-05  0.0145
   8.1388E-01   8.3368E-01   4.8904E-05  0.0143
   8.3368E-01   8.5397E-01   5.1585E-05  0.0137
   8.5397E-01   8.7475E-01   5.3560E-05  0.0133
   8.7475E-01   8.9603E-01   5.4245E-05  0.0131
   8.9603E-01   9.1783E-01   5.5305E-05  0.0128
   9.1783E-01   9.4016E-01   5.7355E-05  0.0124
   9.4016E-01   9.6304E-01   5.9744E-05  0.0120
   9.6304E-01   9.8647E-01   6.1214E-05  0.0117
   9.8647E-01   1.0105E+00   6.2011E-05  0.0115
   1.0105E+00   1.0351E+00   6.2833E-05  0.0113
   1.0351E+00   1.0602E+00   6.4120E-05  0.0111
   1.0602E+00   1.0860E+00   6.7228E-05  0.0107
   1.0860E+00   1.1125E+00   6.6015E-05  0.0106
   1.1125E+00   1.1395E+00   6.7063E-05  0.0104
   1.1395E+00   1.1673E+00   6.9540E-05  0.0101
   1.1673E+00   1.1957E+00   7.0188E-05  0.0100
   1.1957E+00   1.2247E+00   7.3338E-05  0.0096
   1.2247E+00   1.2545E+00   7.3543E-05  0.0095
   1.2545E+00   1.2851E+00   7.3737E-05  0.0094
   1.2851E+00   1.3163E+00   7.3151E-05  0.0093
   1.3163E+00   1.3484E+00   7.5428E-05  0.0090
   1.3484E+00   1.3812E+00   7.8381E-05  0.0088
   1.3812E+00   1.4148E+00   8.0124E-05  0.0086
   1.4148E+00   1.4492E+00   8.0014E-05  0.0085
   1.4492E+00   1.4845E+00   8.2420E-05  0.0082
   1.4845E+00   1.5206E+00   8.1821E-05  0.0082
   1.5206E+00   1.5576E+00   8.1025E-05  0.0081
   1.5576E+00   1.5955E+00   8.0390E-05  0.0081
   1.5955E+00   1.6343E+00   7.9438E-05  0.0080
   1.6343E+00   1.6741E+00   7.9253E-05  0.0079
   1.6741E+00   1.7148E+00   7.9406E-05  0.0078
   1.7148E+00   1.7565E+00   7.9804E-05  0.0077
   1.7565E+00   1.7992E+00   8.0071E-05  0.0076
   1.7992E+00   1.8430E+00   8.0450E-05  0.0075
   1.8430E+00   1.8879E+00   7.8057E-05  0.0075
   1.8879E+00   1.9338E+00   7.8203E-05  0.0074
   1.9338E+00   1.9808E+00   7.8352E-05  0.0073
   1.9808E+00   2.0290E+00   7.7169E-05  0.0073
   2.0290E+00   2.0784E+00   7.6837E-05  0.0072
   2.0784E+00   2.1290E+00   7.4077E-05  0.0073
   2.1290E+00   2.1808E+00   7.3278E-05  0.0072
   2.1808E+00   2.2338E+00   7.1614E-05  0.0072
   2.2338E+00   2.2882E+00   6.9472E-05  0.0072
   2.2882E+00   2.3439E+00   6.8845E-05  0.0072
   2.3439E+00   2.4009E+00   6.8845E-05  0.0071
   2.4009E+00   2.4593E+00   6.7441E-05  0.0071
   2.4593E+00   2.5191E+00   6.7448E-05  0.0070
   2.5191E+00   2.5804E+00   6.5682E-05  0.0070
   2.5804E+00   2.6432E+00   6.4425E-05  0.0070
   2.6432E+00   2.7075E+00   6.1933E-05  0.0070
   2.7075E+00   2.7734E+00   6.1118E-05  0.0070
   2.7734E+00   2.8409E+00   5.9424E-05  0.0070
   2.8409E+00   2.9100E+00   5.8255E-05  0.0070
   2.9100E+00   2.9808E+00   5.6882E-05  0.0070
   2.9808E+00   3.0533E+00   5.7097E-05  0.0069
   3.0533E+00   3.1276E+00   5.4516E-05  0.0070
   3.1276E+00   3.2037E+00   5.2027E-05  0.0071
   3.2037E+00   3.2817E+00   4.9923E-05  0.0071
   3.2817E+00   3.3615E+00   4.8422E-05  0.0072
   3.3615E+00   3.4433E+00   4.8026E-05  0.0071
   3.4433E+00   3.5271E+00   4.6264E-05  0.0071
   3.5271E+00   3.6129E+00   4.4345E-05  0.0072
   3.6129E+00   3.7008E+00   4.3155E-05  0.0072
   3.7008E+00   3.7908E+00   4.1290E-05  0.0073
   3.7908E+00   3.8831E+00   4.0225E-05  0.0073
   3.8831E+00   3.9776E+00   3.8986E-05  0.0073
   3.9776E+00   4.0743E+00   3.7728E-05  0.0074
   4.0743E+00   4.1735E+00   3.6279E-05  0.0074
   4.1735E+00   4.2750E+00   3.5055E-05  0.0075
   4.2750E+00   4.3790E+00   3.3410E-05  0.0075
   4.3790E+00   4.4856E+00   3.2482E-05  0.0076
   4.4856E+00   4.5947E+00   3.1586E-05  0.0076
   4.5947E+00   4.7065E+00   3.0485E-05  0.0076
   4.7065E+00   4.8210E+00   2.9712E-05  0.0076
   4.8210E+00   4.9383E+00   2.9018E-05  0.0076
   4.9383E+00   5.0585E+00   2.7393E-05  0.0078
   5.0585E+00   5.1815E+00   2.6548E-05  0.0078
   5.1815E+00   5.3076E+00   2.5489E-05  0.0078
   5.3076E+00   5.4368E+00   2.4631E-05  0.0079
   5.4368E+00   5.5690E+00   2.3464E-05  0.0080
   5.5690E+00   5.7045E+00   2.2440E-05  0.0081
   5.7045E+00   5.8433E+00   2.1139E-05  0.0082
   5.8433E+00   5.9855E+00   2.0076E-05  0.0083
   5.9855E+00   6.1311E+00   1.9577E-05  0.0083
   6.1311E+00   6.2803E+00   1.8218E-05  0.0085
   6.2803E+00   6.4331E+00   1.7229E-05  0.0087
   6.4331E+00   6.5896E+00   1.6218E-05  0.0088
   6.5896E+00   6.7500E+00   1.5572E-05  0.0089
   6.7500E+00   6.9142E+00   1.4753E-05  0.0090
   6.9142E+00   7.0824E+00   1.4027E-05  0.0092
   7.0824E+00   7.2548E+00   1.3063E-05  0.0094
   7.2548E+00   7.4313E+00   1.2743E-05  0.0094
   7.4313E+00   7.6121E+00   1.2055E-05  0.0095
   7.6121E+00   7.7973E+00   1.1670E-05  0.0096
   7.7973E+00   7.9870E+00   1.1373E-05  0.0096
   7.9870E+00   8.1813E+00   1.0800E-05  0.0097
   8.1813E+00   8.3804E+00   1.0695E-05  0.0097
   8.3804E+00   8.5843E+00   1.0560E-05  0.0096
   8.5843E+00   8.7931E+00   1.0241E-05  0.0096
   8.7931E+00   9.0071E+00   9.7698E-06  0.0098
   9.0071E+00   9.2262E+00   9.3592E-06  0.0099
   9.2262E+00   9.4507E+00   9.0430E-06  0.0099
   9.4507E+00   9.6807E+00   8.5457E-06  0.0101
   9.6807E+00   9.9162E+00   8.1531E-06  0.0102
   9.9162E+00   1.0157E+01   7.3506E-06  0.0106
   1.0157E+01   1.0405E+01   6.9932E-06  0.0107
   1.0405E+01   1.0658E+01   6.5168E-06  0.0110
   1.0658E+01   1.0917E+01   5.9771E-06  0.0113
   1.0917E+01   1.1183E+01   5.4121E-06  0.0118
   1.1183E+01   1.1455E+01   5.0176E-06  0.0121
   1.1455E+01   1.1733E+01   4.7848E-06  0.0122
   1.1733E+01   1.2019E+01   4.5476E-06  0.0124
   1.2019E+01   1.2311E+01   4.2559E-06  0.0127
   1.2311E+01   1.2611E+01   3.9985E-06  0.0129
   1.2611E+01   1.2918E+01   3.8870E-06  0.0129
   1.2918E+01   1.3232E+01   3.7148E-06  0.0131
   1.3232E+01   1.3554E+01   3.4860E-06  0.0133
   1.3554E+01   1.3884E+01   3.1097E-06  0.0140
   1.3884E+01   1.4222E+01   2.7888E-06  0.0146
   1.4222E+01   1.4568E+01   2.4048E-06  0.0155
   1.4568E+01   1.4922E+01   2.1049E-06  0.0164
   1.4922E+01   1.5285E+01   1.3938E-06  0.0199
   1.5285E+01   1.5657E+01   8.9799E-07  0.0245
   1.5657E+01   1.6038E+01   2.9204E-07  0.0424
   1.6038E+01   1.6428E+01   1.0418E-07  0.0701
   1.6428E+01   1.6828E+01   7.1686E-08  0.0835
   1.6828E+01   1.7237E+01   4.8848E-08  0.1000
   1.7237E+01   1.7657E+01   4.3872E-08  0.1043
   1.7657E+01   1.8086E+01   3.6313E-08  0.1132
   1.8086E+01   1.8526E+01   1.7725E-08  0.1601
   1.8526E+01   1.8977E+01   1.8191E-08  0.1562
   1.8977E+01   1.9439E+01   9.0962E-09  0.2182
   1.9439E+01   1.9912E+01   1.0149E-08  0.2041
   1.9912E+01   2.0396E+01   8.2564E-10  0.7071
   2.0396E+01   2.0893E+01   0.0000E+00  0.0000
   2.0893E+01   2.1401E+01   0.0000E+00  0.0000
   2.1401E+01   2.1922E+01   0.0000E+00  0.0000
   2.1922E+01   2.2455E+01   0.0000E+00  0.0000
   2.2455E+01   2.3001E+01   0.0000E+00  0.0000
   2.3001E+01   2.3561E+01   0.0000E+00  0.0000
   2.3561E+01   2.4134E+01   0.0000E+00  0.0000
   2.4134E+01   2.4721E+01   0.0000E+00  0.0000
   2.4721E+01   2.5323E+01   0.0000E+00  0.0000
   2.5323E+01   2.5939E+01   0.0000E+00  0.0000
   2.5939E+01   2.6570E+01   0.0000E+00  0.0000
   2.6570E+01   2.7217E+01   0.0000E+00  0.0000
   2.7217E+01   2.7879E+01   0.0000E+00  0.0000
   2.7879E+01   2.8557E+01   0.0000E+00  0.0000
   2.8557E+01   2.9252E+01   0.0000E+00  0.0000
   2.9252E+01   2.9964E+01   0.0000E+00  0.0000
   2.9964E+01   3.0693E+01   0.0000E+00  0.0000
   3.0693E+01   3.1440E+01   0.0000E+00  0.0000
   3.1440E+01   3.2205E+01   0.0000E+00  0.0000
   3.2205E+01   3.2988E+01   0.0000E+00  0.0000
   3.2988E+01   3.3791E+01   0.0000E+00  0.0000
   3.3791E+01   3.4613E+01   0.0000E+00  0.0000
   3.4613E+01   3.5455E+01   0.0000E+00  0.0000
   3.5455E+01   3.6318E+01   0.0000E+00  0.0000
   3.6318E+01   3.7201E+01   0.0000E+00  0.0000
   3.7201E+01   3.8106E+01   0.0000E+00  0.0000
   3.8106E+01   3.9034E+01   0.0000E+00  0.0000
   3.9034E+01   3.9983E+01   0.0000E+00  0.0000
   3.9983E+01   4.0956E+01   0.0000E+00  0.0000
   4.0956E+01   4.1953E+01   0.0000E+00  0.0000
   4.1953E+01   4.2973E+01   0.0000E+00  0.0000
   4.2973E+01   4.4019E+01   0.0000E+00  0.0000
   4.4019E+01   4.5090E+01   0.0000E+00  0.0000
   4.5090E+01   4.6187E+01   0.0000E+00  0.0000
   4.6187E+01   4.7311E+01   0.0000E+00  0.0000
   4.7311E+01   4.8462E+01   0.0000E+00  0.0000
   4.8462E+01   4.9641E+01   0.0000E+00  0.0000
   4.9641E+01   5.0849E+01   0.0000E+00  0.0000
   5.0849E+01   5.2086E+01   0.0000E+00  0.0000
   5.2086E+01   5.3353E+01   0.0000E+00  0.0000
   5.3353E+01   5.4651E+01   0.0000E+00  0.0000
   5.4651E+01   5.5981E+01   0.0000E+00  0.0000
   5.5981E+01   5.7343E+01   0.0000E+00  0.0000
   5.7343E+01   5.8738E+01   0.0000E+00  0.0000
   5.8738E+01   6.0168E+01   0.0000E+00  0.0000
   6.0168E+01   6.1632E+01   0.0000E+00  0.0000
   6.1632E+01   6.3131E+01   0.0000E+00  0.0000
   6.3131E+01   6.4667E+01   0.0000E+00  0.0000
   6.4667E+01   6.6240E+01   0.0000E+00  0.0000
   6.6240E+01   6.7852E+01   0.0000E+00  0.0000
   6.7852E+01   6.9503E+01   0.0000E+00  0.0000
   6.9503E+01   7.1194E+01   0.0000E+00  0.0000
   7.1194E+01   7.2926E+01   0.0000E+00  0.0000
   7.2926E+01   7.4701E+01   0.0000E+00  0.0000
   7.4701E+01   7.6518E+01   0.0000E+00  0.0000
   7.6518E+01   7.8380E+01   0.0000E+00  0.0000
   7.8380E+01   8.0287E+01   0.0000E+00  0.0000
   8.0287E+01   8.2240E+01   0.0000E+00  0.0000
   8.2240E+01   8.4241E+01   0.0000E+00  0.0000
   8.4241E+01   8.6291E+01   0.0000E+00  0.0000
   8.6291E+01   8.8391E+01   0.0000E+00  0.0000
   8.8391E+01   9.0541E+01   0.0000E+00  0.0000
   9.0541E+01   9.2744E+01   0.0000E+00  0.0000
   9.2744E+01   9.5001E+01   0.0000E+00  0.0000
   9.5001E+01   9.7312E+01   0.0000E+00  0.0000
   9.7312E+01   9.9680E+01   0.0000E+00  0.0000
   9.9680E+01   1.0211E+02   0.0000E+00  0.0000
   1.0211E+02   1.0459E+02   0.0000E+00  0.0000
   1.0459E+02   1.0713E+02   0.0000E+00  0.0000
   1.0713E+02   1.0974E+02   0.0000E+00  0.0000
   1.0974E+02   1.1241E+02   0.0000E+00  0.0000
   1.1241E+02   1.1515E+02   0.0000E+00  0.0000
   1.1515E+02   1.1795E+02   0.0000E+00  0.0000
   1.1795E+02   1.2082E+02   0.0000E+00  0.0000
   1.2082E+02   1.2376E+02   0.0000E+00  0.0000
   1.2376E+02   1.2677E+02   0.0000E+00  0.0000
   1.2677E+02   1.2985E+02   0.0000E+00  0.0000
   1.2985E+02   1.3301E+02   0.0000E+00  0.0000
   1.3301E+02   1.3625E+02   0.0000E+00  0.0000
   1.3625E+02   1.3956E+02   0.0000E+00  0.0000
   1.3956E+02   1.4296E+02   0.0000E+00  0.0000
   1.4296E+02   1.4644E+02   0.0000E+00  0.0000
   1.4644E+02   1.5000E+02   0.0000E+00  0.0000

#   sum over                 2.2753E-06
'no. =    1   reg = 111 - 211'
msuc: {\huge [t-cross] in region mesh}
msdr: {\it plotted by \ANGEL \version}
msdl: {\it calculated by \PHITS  3.26}
wt: s(0.7)
\vspace{-3}
  region surface crossing
  area  &=&   1.0000E+00 [cm^2]
e:
 
# Information for Restart Calculation
# This calculation was newly started
# istdev =  2 # 1:Batch variance, 2:History variance
# resc2  = 5.00000000000000000E+09 # Total source weight or Total source weight / maxcas
# resc3  = 5.00000000000000000E+09 # Total history number or Total batch number
# maxcas =   500000000 # History / Batch, only used for istdev=1
# bitrseed = 0110100000100010111000001110001111001110100100011111101000111001 # bit data of rseed
