[ T-Cross ]
    title = [t-cross] in region mesh
     mesh =  reg            # mesh type is region-wise
      reg =    1            # number of crossing regions
      non     r-from    r-to       area
      1       110       210        1.000000    
   e-type =    3            # e-mesh is log given by emin, emax and ne
     emin =  1.0000000E-02  # minimum value of e-mesh points
     emax =   150.0000      # maximum value of e-mesh points
#    edel =  2.4039514E-02  # mesh width of e-mesh points
       ne =    400          # number of e-mesh points
#    data = ( e(i), i = 1, ne + 1 )
#           1.00000E-02  1.02433E-02  1.04925E-02  1.07478E-02  1.10093E-02
#           1.12772E-02  1.15516E-02  1.18326E-02  1.21205E-02  1.24154E-02
#           1.27175E-02  1.30269E-02  1.33439E-02  1.36686E-02  1.40011E-02
#           1.43418E-02  1.46907E-02  1.50482E-02  1.54143E-02  1.57894E-02
#           1.61735E-02  1.65670E-02  1.69701E-02  1.73830E-02  1.78060E-02
#           1.82392E-02  1.86830E-02  1.91375E-02  1.96032E-02  2.00801E-02
#           2.05687E-02  2.10692E-02  2.15818E-02  2.21069E-02  2.26448E-02
#           2.31957E-02  2.37601E-02  2.43382E-02  2.49304E-02  2.55369E-02
#           2.61583E-02  2.67947E-02  2.74467E-02  2.81145E-02  2.87985E-02
#           2.94992E-02  3.02169E-02  3.09521E-02  3.17052E-02  3.24766E-02
#           3.32668E-02  3.40762E-02  3.49053E-02  3.57546E-02  3.66246E-02
#           3.75157E-02  3.84284E-02  3.93634E-02  4.03212E-02  4.13022E-02
#           4.23071E-02  4.33365E-02  4.43909E-02  4.54710E-02  4.65773E-02
#           4.77106E-02  4.88714E-02  5.00605E-02  5.12785E-02  5.25262E-02
#           5.38042E-02  5.51133E-02  5.64542E-02  5.78278E-02  5.92348E-02
#           6.06760E-02  6.21523E-02  6.36645E-02  6.52135E-02  6.68002E-02
#           6.84255E-02  7.00904E-02  7.17957E-02  7.35426E-02  7.53319E-02
#           7.71648E-02  7.90423E-02  8.09655E-02  8.29354E-02  8.49533E-02
#           8.70203E-02  8.91376E-02  9.13064E-02  9.35279E-02  9.58035E-02
#           9.81345E-02  1.00522E-01  1.02968E-01  1.05473E-01  1.08040E-01
#           1.10668E-01  1.13361E-01  1.16119E-01  1.18944E-01  1.21838E-01
#           1.24803E-01  1.27839E-01  1.30950E-01  1.34136E-01  1.37399E-01
#           1.40742E-01  1.44167E-01  1.47675E-01  1.51268E-01  1.54948E-01
#           1.58718E-01  1.62580E-01  1.66535E-01  1.70587E-01  1.74738E-01
#           1.78989E-01  1.83344E-01  1.87805E-01  1.92375E-01  1.97055E-01
#           2.01850E-01  2.06761E-01  2.11792E-01  2.16945E-01  2.22223E-01
#           2.27630E-01  2.33169E-01  2.38842E-01  2.44653E-01  2.50605E-01
#           2.56703E-01  2.62949E-01  2.69346E-01  2.75900E-01  2.82613E-01
#           2.89489E-01  2.96532E-01  3.03747E-01  3.11138E-01  3.18708E-01
#           3.26462E-01  3.34405E-01  3.42542E-01  3.50876E-01  3.59413E-01
#           3.68158E-01  3.77116E-01  3.86291E-01  3.95690E-01  4.05317E-01
#           4.15179E-01  4.25281E-01  4.35628E-01  4.46227E-01  4.57084E-01
#           4.68205E-01  4.79597E-01  4.91266E-01  5.03219E-01  5.15463E-01
#           5.28005E-01  5.40851E-01  5.54011E-01  5.67490E-01  5.81298E-01
#           5.95441E-01  6.09929E-01  6.24769E-01  6.39970E-01  6.55541E-01
#           6.71491E-01  6.87828E-01  7.04564E-01  7.21706E-01  7.39266E-01
#           7.57253E-01  7.75678E-01  7.94551E-01  8.13883E-01  8.33685E-01
#           8.53969E-01  8.74747E-01  8.96030E-01  9.17831E-01  9.40163E-01
#           9.63038E-01  9.86469E-01  1.01047E+00  1.03506E+00  1.06024E+00
#           1.08604E+00  1.11246E+00  1.13953E+00  1.16725E+00  1.19565E+00
#           1.22474E+00  1.25454E+00  1.28507E+00  1.31633E+00  1.34836E+00
#           1.38117E+00  1.41477E+00  1.44920E+00  1.48446E+00  1.52057E+00
#           1.55757E+00  1.59547E+00  1.63429E+00  1.67405E+00  1.71478E+00
#           1.75650E+00  1.79924E+00  1.84302E+00  1.88786E+00  1.93379E+00
#           1.98084E+00  2.02904E+00  2.07841E+00  2.12898E+00  2.18078E+00
#           2.23384E+00  2.28819E+00  2.34386E+00  2.40089E+00  2.45930E+00
#           2.51914E+00  2.58043E+00  2.64322E+00  2.70753E+00  2.77341E+00
#           2.84088E+00  2.91001E+00  2.98081E+00  3.05333E+00  3.12762E+00
#           3.20372E+00  3.28167E+00  3.36152E+00  3.44330E+00  3.52708E+00
#           3.61290E+00  3.70080E+00  3.79085E+00  3.88308E+00  3.97756E+00
#           4.07434E+00  4.17347E+00  4.27501E+00  4.37903E+00  4.48557E+00
#           4.59471E+00  4.70650E+00  4.82102E+00  4.93832E+00  5.05847E+00
#           5.18155E+00  5.30762E+00  5.43676E+00  5.56904E+00  5.70453E+00
#           5.84333E+00  5.98550E+00  6.13114E+00  6.28031E+00  6.43312E+00
#           6.58964E+00  6.74997E+00  6.91420E+00  7.08243E+00  7.25475E+00
#           7.43126E+00  7.61207E+00  7.79728E+00  7.98700E+00  8.18133E+00
#           8.38038E+00  8.58428E+00  8.79315E+00  9.00709E+00  9.22624E+00
#           9.45072E+00  9.68067E+00  9.91620E+00  1.01575E+01  1.04046E+01
#           1.06578E+01  1.09171E+01  1.11827E+01  1.14548E+01  1.17335E+01
#           1.20190E+01  1.23114E+01  1.26109E+01  1.29178E+01  1.32321E+01
#           1.35540E+01  1.38838E+01  1.42216E+01  1.45676E+01  1.49221E+01
#           1.52851E+01  1.56570E+01  1.60380E+01  1.64282E+01  1.68279E+01
#           1.72374E+01  1.76568E+01  1.80864E+01  1.85264E+01  1.89772E+01
#           1.94389E+01  1.99119E+01  2.03963E+01  2.08926E+01  2.14009E+01
#           2.19216E+01  2.24550E+01  2.30014E+01  2.35610E+01  2.41343E+01
#           2.47215E+01  2.53230E+01  2.59391E+01  2.65702E+01  2.72167E+01
#           2.78789E+01  2.85572E+01  2.92520E+01  2.99637E+01  3.06928E+01
#           3.14396E+01  3.22045E+01  3.29881E+01  3.37907E+01  3.46128E+01
#           3.54550E+01  3.63177E+01  3.72013E+01  3.81064E+01  3.90336E+01
#           3.99833E+01  4.09561E+01  4.19526E+01  4.29734E+01  4.40189E+01
#           4.50900E+01  4.61870E+01  4.73108E+01  4.84619E+01  4.96410E+01
#           5.08488E+01  5.20860E+01  5.33533E+01  5.46514E+01  5.59812E+01
#           5.73432E+01  5.87384E+01  6.01676E+01  6.16315E+01  6.31311E+01
#           6.46671E+01  6.62405E+01  6.78522E+01  6.95031E+01  7.11941E+01
#           7.29263E+01  7.47007E+01  7.65182E+01  7.83800E+01  8.02870E+01
#           8.22405E+01  8.42414E+01  8.62911E+01  8.83906E+01  9.05412E+01
#           9.27442E+01  9.50007E+01  9.73122E+01  9.96799E+01  1.02105E+02
#           1.04589E+02  1.07134E+02  1.09741E+02  1.12411E+02  1.15146E+02
#           1.17948E+02  1.20817E+02  1.23757E+02  1.26768E+02  1.29852E+02
#           1.33012E+02  1.36248E+02  1.39563E+02  1.42959E+02  1.46437E+02
#           1.50000E+02
     unit =    2            # unit is [1/cm^2/(MeV/n)/source]
     axis =  eng            # axis of output
     file = detector-11.out  # file name of output for the above axis
   output = f-curr          # surface crossing forward current spectrum
     part =  neutron  
# kf/name :  2112     
#    used :        main (  %)        temp (  %)       total (  %)
#  memory :         414 (  0)           0 (  0)         414 (  0)

#------------------------------------------------------------------------------
#newpage:
#   no. =    1   reg = 110 - 210

x: Energy [MeV/n]
y:  F-Curr [1/cm^2/(MeV/n)/source]         
p: xlog ylog afac(0.8) form(0.9)
h: n            x            y(neutron ),hh0l   n 
#  e-lower      e-upper      neutron     r.err 
   1.0000E-02   1.0243E-02   3.6765E-03  0.0334
   1.0243E-02   1.0493E-02   3.4202E-03  0.0342
   1.0493E-02   1.0748E-02   3.4972E-03  0.0334
   1.0748E-02   1.1009E-02   3.7605E-03  0.0318
   1.1009E-02   1.1277E-02   3.5800E-03  0.0322
   1.1277E-02   1.1552E-02   3.3892E-03  0.0327
   1.1552E-02   1.1833E-02   3.4186E-03  0.0322
   1.1833E-02   1.2121E-02   3.2937E-03  0.0324
   1.2121E-02   1.2415E-02   3.3431E-03  0.0318
   1.2415E-02   1.2718E-02   3.2059E-03  0.0321
   1.2718E-02   1.3027E-02   3.1760E-03  0.0319
   1.3027E-02   1.3344E-02   3.3568E-03  0.0306
   1.3344E-02   1.3669E-02   2.9879E-03  0.0321
   1.3669E-02   1.4001E-02   3.0436E-03  0.0314
   1.4001E-02   1.4342E-02   2.8431E-03  0.0321
   1.4342E-02   1.4691E-02   2.9217E-03  0.0313
   1.4691E-02   1.5048E-02   2.8544E-03  0.0313
   1.5048E-02   1.5414E-02   3.0235E-03  0.0300
   1.5414E-02   1.5789E-02   2.9332E-03  0.0301
   1.5789E-02   1.6174E-02   2.7180E-03  0.0309
   1.6174E-02   1.6567E-02   2.6724E-03  0.0308
   1.6567E-02   1.6970E-02   2.5575E-03  0.0311
   1.6970E-02   1.7383E-02   2.6710E-03  0.0301
   1.7383E-02   1.7806E-02   2.4318E-03  0.0311
   1.7806E-02   1.8239E-02   2.5288E-03  0.0301
   1.8239E-02   1.8683E-02   2.3638E-03  0.0308
   1.8683E-02   1.9138E-02   2.4782E-03  0.0297
   1.9138E-02   1.9603E-02   2.3884E-03  0.0299
   1.9603E-02   2.0080E-02   2.3651E-03  0.0297
   2.0080E-02   2.0569E-02   2.3236E-03  0.0296
   2.0569E-02   2.1069E-02   2.2261E-03  0.0299
   2.1069E-02   2.1582E-02   2.3296E-03  0.0289
   2.1582E-02   2.2107E-02   2.1426E-03  0.0298
   2.2107E-02   2.2645E-02   2.2179E-03  0.0289
   2.2645E-02   2.3196E-02   2.1532E-03  0.0290
   2.3196E-02   2.3760E-02   2.1232E-03  0.0288
   2.3760E-02   2.4338E-02   2.0643E-03  0.0289
   2.4338E-02   2.4930E-02   1.9687E-03  0.0293
   2.4930E-02   2.5537E-02   2.0054E-03  0.0286
   2.5537E-02   2.6158E-02   1.9324E-03  0.0288
   2.6158E-02   2.6795E-02   1.8493E-03  0.0291
   2.6795E-02   2.7447E-02   1.8943E-03  0.0284
   2.7447E-02   2.8114E-02   1.7866E-03  0.0289
   2.8114E-02   2.8799E-02   1.7738E-03  0.0286
   2.8799E-02   2.9499E-02   1.8522E-03  0.0277
   2.9499E-02   3.0217E-02   1.7290E-03  0.0283
   3.0217E-02   3.0952E-02   1.6937E-03  0.0283
   3.0952E-02   3.1705E-02   1.7766E-03  0.0273
   3.1705E-02   3.2477E-02   1.6650E-03  0.0279
   3.2477E-02   3.3267E-02   1.6345E-03  0.0278
   3.3267E-02   3.4076E-02   1.4786E-03  0.0288
   3.4076E-02   3.4905E-02   1.5752E-03  0.0276
   3.4905E-02   3.5755E-02   1.6057E-03  0.0270
   3.5755E-02   3.6625E-02   1.5539E-03  0.0271
   3.6625E-02   3.7516E-02   1.5350E-03  0.0270
   3.7516E-02   3.8428E-02   1.4872E-03  0.0271
   3.8428E-02   3.9363E-02   1.4377E-03  0.0272
   3.9363E-02   4.0321E-02   1.4617E-03  0.0267
   4.0321E-02   4.1302E-02   1.3392E-03  0.0276
   4.1302E-02   4.2307E-02   1.3748E-03  0.0269
   4.2307E-02   4.3337E-02   1.4202E-03  0.0261
   4.3337E-02   4.4391E-02   1.3170E-03  0.0268
   4.4391E-02   4.5471E-02   1.3555E-03  0.0261
   4.5471E-02   4.6577E-02   1.3189E-03  0.0261
   4.6577E-02   4.7711E-02   1.3127E-03  0.0259
   4.7711E-02   4.8871E-02   1.2548E-03  0.0261
   4.8871E-02   5.0061E-02   1.2241E-03  0.0262
   5.0061E-02   5.1279E-02   1.2205E-03  0.0259
   5.1279E-02   5.2526E-02   1.1939E-03  0.0259
   5.2526E-02   5.3804E-02   1.1662E-03  0.0259
   5.3804E-02   5.5113E-02   1.1429E-03  0.0258
   5.5113E-02   5.6454E-02   1.1147E-03  0.0258
   5.6454E-02   5.7828E-02   1.0788E-03  0.0259
   5.7828E-02   5.9235E-02   1.0750E-03  0.0257
   5.9235E-02   6.0676E-02   1.0531E-03  0.0256
   6.0676E-02   6.2152E-02   1.0240E-03  0.0257
   6.2152E-02   6.3665E-02   1.0309E-03  0.0253
   6.3665E-02   6.5214E-02   9.9298E-04  0.0255
   6.5214E-02   6.6800E-02   9.9555E-04  0.0251
   6.6800E-02   6.8426E-02   9.4519E-04  0.0255
   6.8426E-02   7.0090E-02   9.2079E-04  0.0255
   7.0090E-02   7.1796E-02   9.4828E-04  0.0248
   7.1796E-02   7.3543E-02   9.1945E-04  0.0249
   7.3543E-02   7.5332E-02   8.8202E-04  0.0251
   7.5332E-02   7.7165E-02   8.8108E-04  0.0248
   7.7165E-02   7.9042E-02   8.9283E-04  0.0244
   7.9042E-02   8.0965E-02   8.1925E-04  0.0252
   8.0965E-02   8.2935E-02   8.5398E-04  0.0243
   8.2935E-02   8.4953E-02   8.3809E-04  0.0243
   8.4953E-02   8.7020E-02   7.8901E-04  0.0247
   8.7020E-02   8.9138E-02   7.8670E-04  0.0245
   8.9138E-02   9.1306E-02   7.7102E-04  0.0244
   9.1306E-02   9.3528E-02   7.8799E-04  0.0239
   9.3528E-02   9.5804E-02   7.2623E-04  0.0246
   9.5804E-02   9.8134E-02   7.2255E-04  0.0243
   9.8134E-02   1.0052E-01   6.9581E-04  0.0245
   1.0052E-01   1.0297E-01   7.0634E-04  0.0240
   1.0297E-01   1.0547E-01   6.6316E-04  0.0245
   1.0547E-01   1.0804E-01   6.7246E-04  0.0240
   1.0804E-01   1.1067E-01   6.6453E-04  0.0239
   1.1067E-01   1.1336E-01   6.5969E-04  0.0237
   1.1336E-01   1.1612E-01   6.5931E-04  0.0234
   1.1612E-01   1.1894E-01   6.0758E-04  0.0241
   1.1894E-01   1.2184E-01   5.8838E-04  0.0242
   1.2184E-01   1.2480E-01   5.9686E-04  0.0237
   1.2480E-01   1.2784E-01   5.7362E-04  0.0239
   1.2784E-01   1.3095E-01   5.7187E-04  0.0237
   1.3095E-01   1.3414E-01   5.4964E-04  0.0238
   1.3414E-01   1.3740E-01   5.3203E-04  0.0240
   1.3740E-01   1.4074E-01   5.3803E-04  0.0236
   1.4074E-01   1.4417E-01   5.3495E-04  0.0233
   1.4417E-01   1.4767E-01   5.3115E-04  0.0231
   1.4767E-01   1.5127E-01   5.2544E-04  0.0230
   1.5127E-01   1.5495E-01   4.9111E-04  0.0235
   1.5495E-01   1.5872E-01   4.7774E-04  0.0235
   1.5872E-01   1.6258E-01   4.7727E-04  0.0232
   1.6258E-01   1.6654E-01   4.7809E-04  0.0230
   1.6654E-01   1.7059E-01   4.6800E-04  0.0229
   1.7059E-01   1.7474E-01   4.5223E-04  0.0230
   1.7474E-01   1.7899E-01   4.3863E-04  0.0231
   1.7899E-01   1.8334E-01   4.5966E-04  0.0223
   1.8334E-01   1.8781E-01   4.3024E-04  0.0228
   1.8781E-01   1.9237E-01   4.2075E-04  0.0228
   1.9237E-01   1.9706E-01   4.2764E-04  0.0223
   1.9706E-01   2.0185E-01   4.0413E-04  0.0227
   2.0185E-01   2.0676E-01   4.2072E-04  0.0219
   2.0676E-01   2.1179E-01   4.1355E-04  0.0219
   2.1179E-01   2.1694E-01   4.3608E-04  0.0211
   2.1694E-01   2.2222E-01   4.4659E-04  0.0206
   2.2222E-01   2.2763E-01   4.6410E-04  0.0199
   2.2763E-01   2.3317E-01   4.6360E-04  0.0197
   2.3317E-01   2.3884E-01   4.8574E-04  0.0190
   2.3884E-01   2.4465E-01   5.0498E-04  0.0184
   2.4465E-01   2.5061E-01   5.0099E-04  0.0183
   2.5061E-01   2.5670E-01   5.0785E-04  0.0179
   2.5670E-01   2.6295E-01   5.1546E-04  0.0176
   2.6295E-01   2.6935E-01   5.3067E-04  0.0171
   2.6935E-01   2.7590E-01   5.4412E-04  0.0167
   2.7590E-01   2.8261E-01   5.6331E-04  0.0162
   2.8261E-01   2.8949E-01   5.6973E-04  0.0159
   2.8949E-01   2.9653E-01   5.7559E-04  0.0157
   2.9653E-01   3.0375E-01   6.0047E-04  0.0152
   3.0375E-01   3.1114E-01   6.0995E-04  0.0149
   3.1114E-01   3.1871E-01   6.2083E-04  0.0146
   3.1871E-01   3.2646E-01   6.3666E-04  0.0142
   3.2646E-01   3.3441E-01   6.5104E-04  0.0139
   3.3441E-01   3.4254E-01   6.4285E-04  0.0138
   3.4254E-01   3.5088E-01   6.8064E-04  0.0132
   3.5088E-01   3.5941E-01   6.6672E-04  0.0132
   3.5941E-01   3.6816E-01   6.8295E-04  0.0129
   3.6816E-01   3.7712E-01   6.8679E-04  0.0127
   3.7712E-01   3.8629E-01   6.9592E-04  0.0125
   3.8629E-01   3.9569E-01   7.0696E-04  0.0122
   3.9569E-01   4.0532E-01   7.3683E-04  0.0118
   4.0532E-01   4.1518E-01   7.2419E-04  0.0118
   4.1518E-01   4.2528E-01   7.4265E-04  0.0115
   4.2528E-01   4.3563E-01   7.5915E-04  0.0113
   4.3563E-01   4.4623E-01   7.4883E-04  0.0112
   4.4623E-01   4.5708E-01   7.5932E-04  0.0110
   4.5708E-01   4.6821E-01   7.7752E-04  0.0107
   4.6821E-01   4.7960E-01   7.8461E-04  0.0106
   4.7960E-01   4.9127E-01   7.8363E-04  0.0104
   4.9127E-01   5.0322E-01   7.9581E-04  0.0102
   5.0322E-01   5.1546E-01   8.0330E-04  0.0101
   5.1546E-01   5.2800E-01   8.1474E-04  0.0099
   5.2800E-01   5.4085E-01   8.1308E-04  0.0098
   5.4085E-01   5.5401E-01   8.3381E-04  0.0095
   5.5401E-01   5.6749E-01   8.3457E-04  0.0094
   5.6749E-01   5.8130E-01   8.4164E-04  0.0093
   5.8130E-01   5.9544E-01   8.3813E-04  0.0092
   5.9544E-01   6.0993E-01   8.4570E-04  0.0090
   6.0993E-01   6.2477E-01   8.4967E-04  0.0089
   6.2477E-01   6.3997E-01   8.4499E-04  0.0088
   6.3997E-01   6.5554E-01   8.5082E-04  0.0087
   6.5554E-01   6.7149E-01   8.4733E-04  0.0086
   6.7149E-01   6.8783E-01   8.5507E-04  0.0084
   6.8783E-01   7.0456E-01   8.4900E-04  0.0084
   7.0456E-01   7.2171E-01   8.4164E-04  0.0083
   7.2171E-01   7.3927E-01   8.5044E-04  0.0082
   7.3927E-01   7.5725E-01   8.4978E-04  0.0081
   7.5725E-01   7.7568E-01   8.4125E-04  0.0080
   7.7568E-01   7.9455E-01   8.3241E-04  0.0080
   7.9455E-01   8.1388E-01   8.2031E-04  0.0079
   8.1388E-01   8.3368E-01   8.3029E-04  0.0078
   8.3368E-01   8.5397E-01   8.1307E-04  0.0078
   8.5397E-01   8.7475E-01   7.9388E-04  0.0078
   8.7475E-01   8.9603E-01   7.9380E-04  0.0077
   8.9603E-01   9.1783E-01   7.6988E-04  0.0077
   9.1783E-01   9.4016E-01   7.5864E-04  0.0077
   9.4016E-01   9.6304E-01   7.5526E-04  0.0076
   9.6304E-01   9.8647E-01   7.2553E-04  0.0076
   9.8647E-01   1.0105E+00   7.0868E-04  0.0076
   1.0105E+00   1.0351E+00   7.0460E-04  0.0076
   1.0351E+00   1.0602E+00   7.1129E-04  0.0074
   1.0602E+00   1.0860E+00   7.2537E-04  0.0073
   1.0860E+00   1.1125E+00   7.2823E-04  0.0072
   1.1125E+00   1.1395E+00   7.3807E-04  0.0071
   1.1395E+00   1.1673E+00   7.3247E-04  0.0070
   1.1673E+00   1.1957E+00   7.5847E-04  0.0068
   1.1957E+00   1.2247E+00   7.6289E-04  0.0067
   1.2247E+00   1.2545E+00   7.6957E-04  0.0066
   1.2545E+00   1.2851E+00   7.5794E-04  0.0066
   1.2851E+00   1.3163E+00   7.6404E-04  0.0064
   1.3163E+00   1.3484E+00   7.7658E-04  0.0063
   1.3484E+00   1.3812E+00   7.7998E-04  0.0062
   1.3812E+00   1.4148E+00   8.0107E-04  0.0061
   1.4148E+00   1.4492E+00   8.0628E-04  0.0060
   1.4492E+00   1.4845E+00   8.0420E-04  0.0059
   1.4845E+00   1.5206E+00   7.9463E-04  0.0059
   1.5206E+00   1.5576E+00   7.9974E-04  0.0058
   1.5576E+00   1.5955E+00   7.9460E-04  0.0057
   1.5955E+00   1.6343E+00   7.9783E-04  0.0057
   1.6343E+00   1.6741E+00   8.0121E-04  0.0056
   1.6741E+00   1.7148E+00   8.1507E-04  0.0055
   1.7148E+00   1.7565E+00   8.0541E-04  0.0054
   1.7565E+00   1.7992E+00   8.1453E-04  0.0053
   1.7992E+00   1.8430E+00   8.0681E-04  0.0053
   1.8430E+00   1.8879E+00   8.0982E-04  0.0052
   1.8879E+00   1.9338E+00   7.9991E-04  0.0052
   1.9338E+00   1.9808E+00   8.0056E-04  0.0051
   1.9808E+00   2.0290E+00   8.0934E-04  0.0050
   2.0290E+00   2.0784E+00   8.0256E-04  0.0050
   2.0784E+00   2.1290E+00   7.9607E-04  0.0050
   2.1290E+00   2.1808E+00   7.8419E-04  0.0049
   2.1808E+00   2.2338E+00   7.7895E-04  0.0049
   2.2338E+00   2.2882E+00   7.7467E-04  0.0049
   2.2882E+00   2.3439E+00   7.7288E-04  0.0048
   2.3439E+00   2.4009E+00   7.7109E-04  0.0047
   2.4009E+00   2.4593E+00   7.6373E-04  0.0047
   2.4593E+00   2.5191E+00   7.6861E-04  0.0046
   2.5191E+00   2.5804E+00   7.5233E-04  0.0046
   2.5804E+00   2.6432E+00   7.4770E-04  0.0046
   2.6432E+00   2.7075E+00   7.4332E-04  0.0046
   2.7075E+00   2.7734E+00   7.3106E-04  0.0045
   2.7734E+00   2.8409E+00   7.2826E-04  0.0045
   2.8409E+00   2.9100E+00   7.2914E-04  0.0044
   2.9100E+00   2.9808E+00   7.3141E-04  0.0044
   2.9808E+00   3.0533E+00   7.2307E-04  0.0044
   3.0533E+00   3.1276E+00   7.1264E-04  0.0043
   3.1276E+00   3.2037E+00   7.0407E-04  0.0043
   3.2037E+00   3.2817E+00   6.9380E-04  0.0043
   3.2817E+00   3.3615E+00   6.8420E-04  0.0043
   3.3615E+00   3.4433E+00   6.7424E-04  0.0042
   3.4433E+00   3.5271E+00   6.7090E-04  0.0042
   3.5271E+00   3.6129E+00   6.5742E-04  0.0042
   3.6129E+00   3.7008E+00   6.5598E-04  0.0041
   3.7008E+00   3.7908E+00   6.4740E-04  0.0041
   3.7908E+00   3.8831E+00   6.3706E-04  0.0041
   3.8831E+00   3.9776E+00   6.2902E-04  0.0041
   3.9776E+00   4.0743E+00   6.2198E-04  0.0041
   4.0743E+00   4.1735E+00   6.1625E-04  0.0040
   4.1735E+00   4.2750E+00   6.0364E-04  0.0040
   4.2750E+00   4.3790E+00   5.9374E-04  0.0040
   4.3790E+00   4.4856E+00   5.8660E-04  0.0040
   4.4856E+00   4.5947E+00   5.8239E-04  0.0040
   4.5947E+00   4.7065E+00   5.7771E-04  0.0039
   4.7065E+00   4.8210E+00   5.6887E-04  0.0039
   4.8210E+00   4.9383E+00   5.6517E-04  0.0039
   4.9383E+00   5.0585E+00   5.5910E-04  0.0038
   5.0585E+00   5.1815E+00   5.5140E-04  0.0038
   5.1815E+00   5.3076E+00   5.3990E-04  0.0038
   5.3076E+00   5.4368E+00   5.3745E-04  0.0038
   5.4368E+00   5.5690E+00   5.2637E-04  0.0038
   5.5690E+00   5.7045E+00   5.1765E-04  0.0038
   5.7045E+00   5.8433E+00   5.0627E-04  0.0038
   5.8433E+00   5.9855E+00   4.9837E-04  0.0037
   5.9855E+00   6.1311E+00   4.9015E-04  0.0037
   6.1311E+00   6.2803E+00   4.8181E-04  0.0037
   6.2803E+00   6.4331E+00   4.7829E-04  0.0037
   6.4331E+00   6.5896E+00   4.6317E-04  0.0037
   6.5896E+00   6.7500E+00   4.5741E-04  0.0037
   6.7500E+00   6.9142E+00   4.4774E-04  0.0037
   6.9142E+00   7.0824E+00   4.4459E-04  0.0036
   7.0824E+00   7.2548E+00   4.3482E-04  0.0036
   7.2548E+00   7.4313E+00   4.3380E-04  0.0036
   7.4313E+00   7.6121E+00   4.2259E-04  0.0036
   7.6121E+00   7.7973E+00   4.1655E-04  0.0036
   7.7973E+00   7.9870E+00   4.0910E-04  0.0036
   7.9870E+00   8.1813E+00   3.9806E-04  0.0036
   8.1813E+00   8.3804E+00   3.9099E-04  0.0036
   8.3804E+00   8.5843E+00   3.8356E-04  0.0036
   8.5843E+00   8.7931E+00   3.7707E-04  0.0036
   8.7931E+00   9.0071E+00   3.7238E-04  0.0035
   9.0071E+00   9.2262E+00   3.6224E-04  0.0035
   9.2262E+00   9.4507E+00   3.5543E-04  0.0035
   9.4507E+00   9.6807E+00   3.4502E-04  0.0035
   9.6807E+00   9.9162E+00   3.4162E-04  0.0035
   9.9162E+00   1.0157E+01   3.3572E-04  0.0035
   1.0157E+01   1.0405E+01   3.3044E-04  0.0035
   1.0405E+01   1.0658E+01   3.2549E-04  0.0035
   1.0658E+01   1.0917E+01   3.2244E-04  0.0035
   1.0917E+01   1.1183E+01   3.1505E-04  0.0035
   1.1183E+01   1.1455E+01   3.0993E-04  0.0034
   1.1455E+01   1.1733E+01   3.0315E-04  0.0034
   1.1733E+01   1.2019E+01   2.9837E-04  0.0034
   1.2019E+01   1.2311E+01   2.9051E-04  0.0034
   1.2311E+01   1.2611E+01   2.8459E-04  0.0034
   1.2611E+01   1.2918E+01   2.7714E-04  0.0034
   1.2918E+01   1.3232E+01   2.7398E-04  0.0034
   1.3232E+01   1.3554E+01   2.6684E-04  0.0034
   1.3554E+01   1.3884E+01   2.6246E-04  0.0034
   1.3884E+01   1.4222E+01   2.5729E-04  0.0034
   1.4222E+01   1.4568E+01   2.5241E-04  0.0034
   1.4568E+01   1.4922E+01   2.4460E-04  0.0034
   1.4922E+01   1.5285E+01   2.3978E-04  0.0034
   1.5285E+01   1.5657E+01   2.3367E-04  0.0034
   1.5657E+01   1.6038E+01   2.2980E-04  0.0034
   1.6038E+01   1.6428E+01   2.2377E-04  0.0034
   1.6428E+01   1.6828E+01   2.1821E-04  0.0034
   1.6828E+01   1.7237E+01   2.1416E-04  0.0034
   1.7237E+01   1.7657E+01   2.0757E-04  0.0034
   1.7657E+01   1.8086E+01   2.0321E-04  0.0034
   1.8086E+01   1.8526E+01   1.9733E-04  0.0034
   1.8526E+01   1.8977E+01   1.9336E-04  0.0034
   1.8977E+01   1.9439E+01   1.9015E-04  0.0034
   1.9439E+01   1.9912E+01   1.8744E-04  0.0034
   1.9912E+01   2.0396E+01   1.8564E-04  0.0033
   2.0396E+01   2.0893E+01   1.8140E-04  0.0033
   2.0893E+01   2.1401E+01   1.7685E-04  0.0033
   2.1401E+01   2.1922E+01   1.7217E-04  0.0033
   2.1922E+01   2.2455E+01   1.6619E-04  0.0034
   2.2455E+01   2.3001E+01   1.6116E-04  0.0034
   2.3001E+01   2.3561E+01   1.5588E-04  0.0034
   2.3561E+01   2.4134E+01   1.5113E-04  0.0034
   2.4134E+01   2.4721E+01   1.4572E-04  0.0034
   2.4721E+01   2.5323E+01   1.4104E-04  0.0034
   2.5323E+01   2.5939E+01   1.3492E-04  0.0035
   2.5939E+01   2.6570E+01   1.3067E-04  0.0035
   2.6570E+01   2.7217E+01   1.2575E-04  0.0035
   2.7217E+01   2.7879E+01   1.2051E-04  0.0035
   2.7879E+01   2.8557E+01   1.1533E-04  0.0036
   2.8557E+01   2.9252E+01   1.1180E-04  0.0036
   2.9252E+01   2.9964E+01   1.0559E-04  0.0036
   2.9964E+01   3.0693E+01   1.0167E-04  0.0037
   3.0693E+01   3.1440E+01   9.6622E-05  0.0037
   3.1440E+01   3.2205E+01   9.2496E-05  0.0038
   3.2205E+01   3.2988E+01   8.8145E-05  0.0038
   3.2988E+01   3.3791E+01   8.2965E-05  0.0039
   3.3791E+01   3.4613E+01   7.9310E-05  0.0039
   3.4613E+01   3.5455E+01   7.5677E-05  0.0040
   3.5455E+01   3.6318E+01   7.1201E-05  0.0040
   3.6318E+01   3.7201E+01   6.7264E-05  0.0041
   3.7201E+01   3.8106E+01   6.3836E-05  0.0042
   3.8106E+01   3.9034E+01   5.9796E-05  0.0042
   3.9034E+01   3.9983E+01   5.6125E-05  0.0043
   3.9983E+01   4.0956E+01   5.2542E-05  0.0044
   4.0956E+01   4.1953E+01   4.9670E-05  0.0045
   4.1953E+01   4.2973E+01   4.6577E-05  0.0046
   4.2973E+01   4.4019E+01   4.3370E-05  0.0047
   4.4019E+01   4.5090E+01   4.0123E-05  0.0048
   4.5090E+01   4.6187E+01   3.7307E-05  0.0049
   4.6187E+01   4.7311E+01   3.4708E-05  0.0051
   4.7311E+01   4.8462E+01   3.2270E-05  0.0052
   4.8462E+01   4.9641E+01   2.9676E-05  0.0053
   4.9641E+01   5.0849E+01   2.7426E-05  0.0055
   5.0849E+01   5.2086E+01   2.5283E-05  0.0057
   5.2086E+01   5.3353E+01   2.3197E-05  0.0058
   5.3353E+01   5.4651E+01   2.1060E-05  0.0060
   5.4651E+01   5.5981E+01   1.9197E-05  0.0063
   5.5981E+01   5.7343E+01   1.7581E-05  0.0065
   5.7343E+01   5.8738E+01   1.5825E-05  0.0067
   5.8738E+01   6.0168E+01   1.4296E-05  0.0070
   6.0168E+01   6.1632E+01   1.3141E-05  0.0072
   6.1632E+01   6.3131E+01   1.1590E-05  0.0076
   6.3131E+01   6.4667E+01   1.0329E-05  0.0079
   6.4667E+01   6.6240E+01   9.5443E-06  0.0082
   6.6240E+01   6.7852E+01   8.1604E-06  0.0087
   6.7852E+01   6.9503E+01   7.4378E-06  0.0090
   6.9503E+01   7.1194E+01   6.4634E-06  0.0096
   7.1194E+01   7.2926E+01   5.7557E-06  0.0100
   7.2926E+01   7.4701E+01   4.9996E-06  0.0106
   7.4701E+01   7.6518E+01   4.3240E-06  0.0113
   7.6518E+01   7.8380E+01   3.7524E-06  0.0120
   7.8380E+01   8.0287E+01   3.2343E-06  0.0127
   8.0287E+01   8.2240E+01   2.7730E-06  0.0136
   8.2240E+01   8.4241E+01   2.3184E-06  0.0147
   8.4241E+01   8.6291E+01   2.0106E-06  0.0156
   8.6291E+01   8.8391E+01   1.7085E-06  0.0167
   8.8391E+01   9.0541E+01   1.3740E-06  0.0184
   9.0541E+01   9.2744E+01   1.1367E-06  0.0200
   9.2744E+01   9.5001E+01   9.5234E-07  0.0216
   9.5001E+01   9.7312E+01   8.1118E-07  0.0231
   9.7312E+01   9.9680E+01   6.6225E-07  0.0253
   9.9680E+01   1.0211E+02   5.5004E-07  0.0274
   1.0211E+02   1.0459E+02   4.2547E-07  0.0308
   1.0459E+02   1.0713E+02   3.5642E-07  0.0332
   1.0713E+02   1.0974E+02   2.6356E-07  0.0382
   1.0974E+02   1.1241E+02   2.0449E-07  0.0428
   1.1241E+02   1.1515E+02   1.5758E-07  0.0482
   1.1515E+02   1.1795E+02   1.0137E-07  0.0593
   1.1795E+02   1.2082E+02   6.2026E-08  0.0750
   1.2082E+02   1.2376E+02   3.6740E-08  0.0962
   1.2376E+02   1.2677E+02   7.9705E-09  0.2041
   1.2677E+02   1.2985E+02   3.8906E-09  0.2887
   1.2985E+02   1.3301E+02   1.5826E-09  0.4472
   1.3301E+02   1.3625E+02   3.0900E-10  1.0000
   1.3625E+02   1.3956E+02   3.0166E-10  1.0000
   1.3956E+02   1.4296E+02   0.0000E+00  0.0000
   1.4296E+02   1.4644E+02   0.0000E+00  0.0000
   1.4644E+02   1.5000E+02   0.0000E+00  0.0000

#   sum over                 7.4501E-05
'no. =    1   reg = 110 - 210'
msuc: {\huge [t-cross] in region mesh}
msdr: {\it plotted by \ANGEL \version}
msdl: {\it calculated by \PHITS  3.26}
wt: s(0.7)
\vspace{-3}
  region surface crossing
  area  &=&   1.0000E+00 [cm^2]
e:
 
# Information for Restart Calculation
# This calculation was newly started
# istdev =  2 # 1:Batch variance, 2:History variance
# resc2  = 1.00000000000000000E+09 # Total source weight or Total source weight / maxcas
# resc3  = 1.00000000000000000E+09 # Total history number or Total batch number
# maxcas =   500000000 # History / Batch, only used for istdev=1
# bitrseed = 0001001110011001001001110000100100110111001111011100001000101100 # bit data of rseed
