8 <--- number of remaining batches 

-------------------------------------------------------------------------------
bat[       2] ncas =     1000000000.
 bitrseed = 1101101111010011011000101101110001100110110010110001010100010001
          cpu time =   2 h. 56 m. 42.99 s.

 date = 2022-06-01
 time = 15h 14m 52s

