[ T-Cross ]
    title = [t-cross] in region mesh
     mesh =  reg            # mesh type is region-wise
      reg =    1            # number of crossing regions
      non     r-from    r-to       area
      1       125       225        1.000000    
   e-type =    3            # e-mesh is log given by emin, emax and ne
     emin =  1.0000000E-02  # minimum value of e-mesh points
     emax =   150.0000      # maximum value of e-mesh points
#    edel =  2.4039514E-02  # mesh width of e-mesh points
       ne =    400          # number of e-mesh points
#    data = ( e(i), i = 1, ne + 1 )
#           1.00000E-02  1.02433E-02  1.04925E-02  1.07478E-02  1.10093E-02
#           1.12772E-02  1.15516E-02  1.18326E-02  1.21205E-02  1.24154E-02
#           1.27175E-02  1.30269E-02  1.33439E-02  1.36686E-02  1.40011E-02
#           1.43418E-02  1.46907E-02  1.50482E-02  1.54143E-02  1.57894E-02
#           1.61735E-02  1.65670E-02  1.69701E-02  1.73830E-02  1.78060E-02
#           1.82392E-02  1.86830E-02  1.91375E-02  1.96032E-02  2.00801E-02
#           2.05687E-02  2.10692E-02  2.15818E-02  2.21069E-02  2.26448E-02
#           2.31957E-02  2.37601E-02  2.43382E-02  2.49304E-02  2.55369E-02
#           2.61583E-02  2.67947E-02  2.74467E-02  2.81145E-02  2.87985E-02
#           2.94992E-02  3.02169E-02  3.09521E-02  3.17052E-02  3.24766E-02
#           3.32668E-02  3.40762E-02  3.49053E-02  3.57546E-02  3.66246E-02
#           3.75157E-02  3.84284E-02  3.93634E-02  4.03212E-02  4.13022E-02
#           4.23071E-02  4.33365E-02  4.43909E-02  4.54710E-02  4.65773E-02
#           4.77106E-02  4.88714E-02  5.00605E-02  5.12785E-02  5.25262E-02
#           5.38042E-02  5.51133E-02  5.64542E-02  5.78278E-02  5.92348E-02
#           6.06760E-02  6.21523E-02  6.36645E-02  6.52135E-02  6.68002E-02
#           6.84255E-02  7.00904E-02  7.17957E-02  7.35426E-02  7.53319E-02
#           7.71648E-02  7.90423E-02  8.09655E-02  8.29354E-02  8.49533E-02
#           8.70203E-02  8.91376E-02  9.13064E-02  9.35279E-02  9.58035E-02
#           9.81345E-02  1.00522E-01  1.02968E-01  1.05473E-01  1.08040E-01
#           1.10668E-01  1.13361E-01  1.16119E-01  1.18944E-01  1.21838E-01
#           1.24803E-01  1.27839E-01  1.30950E-01  1.34136E-01  1.37399E-01
#           1.40742E-01  1.44167E-01  1.47675E-01  1.51268E-01  1.54948E-01
#           1.58718E-01  1.62580E-01  1.66535E-01  1.70587E-01  1.74738E-01
#           1.78989E-01  1.83344E-01  1.87805E-01  1.92375E-01  1.97055E-01
#           2.01850E-01  2.06761E-01  2.11792E-01  2.16945E-01  2.22223E-01
#           2.27630E-01  2.33169E-01  2.38842E-01  2.44653E-01  2.50605E-01
#           2.56703E-01  2.62949E-01  2.69346E-01  2.75900E-01  2.82613E-01
#           2.89489E-01  2.96532E-01  3.03747E-01  3.11138E-01  3.18708E-01
#           3.26462E-01  3.34405E-01  3.42542E-01  3.50876E-01  3.59413E-01
#           3.68158E-01  3.77116E-01  3.86291E-01  3.95690E-01  4.05317E-01
#           4.15179E-01  4.25281E-01  4.35628E-01  4.46227E-01  4.57084E-01
#           4.68205E-01  4.79597E-01  4.91266E-01  5.03219E-01  5.15463E-01
#           5.28005E-01  5.40851E-01  5.54011E-01  5.67490E-01  5.81298E-01
#           5.95441E-01  6.09929E-01  6.24769E-01  6.39970E-01  6.55541E-01
#           6.71491E-01  6.87828E-01  7.04564E-01  7.21706E-01  7.39266E-01
#           7.57253E-01  7.75678E-01  7.94551E-01  8.13883E-01  8.33685E-01
#           8.53969E-01  8.74747E-01  8.96030E-01  9.17831E-01  9.40163E-01
#           9.63038E-01  9.86469E-01  1.01047E+00  1.03506E+00  1.06024E+00
#           1.08604E+00  1.11246E+00  1.13953E+00  1.16725E+00  1.19565E+00
#           1.22474E+00  1.25454E+00  1.28507E+00  1.31633E+00  1.34836E+00
#           1.38117E+00  1.41477E+00  1.44920E+00  1.48446E+00  1.52057E+00
#           1.55757E+00  1.59547E+00  1.63429E+00  1.67405E+00  1.71478E+00
#           1.75650E+00  1.79924E+00  1.84302E+00  1.88786E+00  1.93379E+00
#           1.98084E+00  2.02904E+00  2.07841E+00  2.12898E+00  2.18078E+00
#           2.23384E+00  2.28819E+00  2.34386E+00  2.40089E+00  2.45930E+00
#           2.51914E+00  2.58043E+00  2.64322E+00  2.70753E+00  2.77341E+00
#           2.84088E+00  2.91001E+00  2.98081E+00  3.05333E+00  3.12762E+00
#           3.20372E+00  3.28167E+00  3.36152E+00  3.44330E+00  3.52708E+00
#           3.61290E+00  3.70080E+00  3.79085E+00  3.88308E+00  3.97756E+00
#           4.07434E+00  4.17347E+00  4.27501E+00  4.37903E+00  4.48557E+00
#           4.59471E+00  4.70650E+00  4.82102E+00  4.93832E+00  5.05847E+00
#           5.18155E+00  5.30762E+00  5.43676E+00  5.56904E+00  5.70453E+00
#           5.84333E+00  5.98550E+00  6.13114E+00  6.28031E+00  6.43312E+00
#           6.58964E+00  6.74997E+00  6.91420E+00  7.08243E+00  7.25475E+00
#           7.43126E+00  7.61207E+00  7.79728E+00  7.98700E+00  8.18133E+00
#           8.38038E+00  8.58428E+00  8.79315E+00  9.00709E+00  9.22624E+00
#           9.45072E+00  9.68067E+00  9.91620E+00  1.01575E+01  1.04046E+01
#           1.06578E+01  1.09171E+01  1.11827E+01  1.14548E+01  1.17335E+01
#           1.20190E+01  1.23114E+01  1.26109E+01  1.29178E+01  1.32321E+01
#           1.35540E+01  1.38838E+01  1.42216E+01  1.45676E+01  1.49221E+01
#           1.52851E+01  1.56570E+01  1.60380E+01  1.64282E+01  1.68279E+01
#           1.72374E+01  1.76568E+01  1.80864E+01  1.85264E+01  1.89772E+01
#           1.94389E+01  1.99119E+01  2.03963E+01  2.08926E+01  2.14009E+01
#           2.19216E+01  2.24550E+01  2.30014E+01  2.35610E+01  2.41343E+01
#           2.47215E+01  2.53230E+01  2.59391E+01  2.65702E+01  2.72167E+01
#           2.78789E+01  2.85572E+01  2.92520E+01  2.99637E+01  3.06928E+01
#           3.14396E+01  3.22045E+01  3.29881E+01  3.37907E+01  3.46128E+01
#           3.54550E+01  3.63177E+01  3.72013E+01  3.81064E+01  3.90336E+01
#           3.99833E+01  4.09561E+01  4.19526E+01  4.29734E+01  4.40189E+01
#           4.50900E+01  4.61870E+01  4.73108E+01  4.84619E+01  4.96410E+01
#           5.08488E+01  5.20860E+01  5.33533E+01  5.46514E+01  5.59812E+01
#           5.73432E+01  5.87384E+01  6.01676E+01  6.16315E+01  6.31311E+01
#           6.46671E+01  6.62405E+01  6.78522E+01  6.95031E+01  7.11941E+01
#           7.29263E+01  7.47007E+01  7.65182E+01  7.83800E+01  8.02870E+01
#           8.22405E+01  8.42414E+01  8.62911E+01  8.83906E+01  9.05412E+01
#           9.27442E+01  9.50007E+01  9.73122E+01  9.96799E+01  1.02105E+02
#           1.04589E+02  1.07134E+02  1.09741E+02  1.12411E+02  1.15146E+02
#           1.17948E+02  1.20817E+02  1.23757E+02  1.26768E+02  1.29852E+02
#           1.33012E+02  1.36248E+02  1.39563E+02  1.42959E+02  1.46437E+02
#           1.50000E+02
     unit =    2            # unit is [1/cm^2/(MeV/n)/source]
     axis =  eng            # axis of output
     file = detector-26.out  # file name of output for the above axis
   output = f-curr          # surface crossing forward current spectrum
     part =  neutron  
# kf/name :  2112     
#    used :        main (  %)        temp (  %)       total (  %)
#  memory :         414 (  0)           0 (  0)         414 (  0)

#------------------------------------------------------------------------------
#newpage:
#   no. =    1   reg = 125 - 225

x: Energy [MeV/n]
y:  F-Curr [1/cm^2/(MeV/n)/source]         
p: xlog ylog afac(0.8) form(0.9)
h: n            x            y(neutron ),hh0l   n 
#  e-lower      e-upper      neutron     r.err 
   1.0000E-02   1.0243E-02   4.0865E-04  0.1001
   1.0243E-02   1.0493E-02   4.0708E-04  0.0988
   1.0493E-02   1.0748E-02   4.1960E-04  0.0962
   1.0748E-02   1.1009E-02   3.6012E-04  0.1025
   1.1009E-02   1.1277E-02   4.4425E-04  0.0917
   1.1277E-02   1.1552E-02   4.2618E-04  0.0922
   1.1552E-02   1.1833E-02   3.9921E-04  0.0943
   1.1833E-02   1.2121E-02   3.5129E-04  0.0991
   1.2121E-02   1.2415E-02   3.2771E-04  0.1011
   1.2415E-02   1.2718E-02   3.4715E-04  0.0974
   1.2718E-02   1.3027E-02   3.5283E-04  0.0954
   1.3027E-02   1.3344E-02   3.3655E-04  0.0966
   1.3344E-02   1.3669E-02   3.9586E-04  0.0881
   1.3669E-02   1.4001E-02   3.5437E-04  0.0919
   1.4001E-02   1.4342E-02   3.3511E-04  0.0935
   1.4342E-02   1.4691E-02   3.6968E-04  0.0880
   1.4691E-02   1.5048E-02   3.2808E-04  0.0923
   1.5048E-02   1.5414E-02   3.0726E-04  0.0942
   1.5414E-02   1.5789E-02   3.3051E-04  0.0893
   1.5789E-02   1.6174E-02   3.0633E-04  0.0920
   1.6174E-02   1.6567E-02   2.6962E-04  0.0968
   1.6567E-02   1.6970E-02   2.9691E-04  0.0912
   1.6970E-02   1.7383E-02   2.8253E-04  0.0924
   1.7383E-02   1.7806E-02   2.4969E-04  0.0971
   1.7806E-02   1.8239E-02   2.3469E-04  0.0989
   1.8239E-02   1.8683E-02   2.7972E-04  0.0897
   1.8683E-02   1.9138E-02   2.6028E-04  0.0918
   1.9138E-02   1.9603E-02   2.7732E-04  0.0880
   1.9603E-02   2.0080E-02   2.6061E-04  0.0893
   2.0080E-02   2.0569E-02   2.0863E-04  0.0988
   2.0569E-02   2.1069E-02   2.3826E-04  0.0915
   2.1069E-02   2.1582E-02   2.3716E-04  0.0905
   2.1582E-02   2.2107E-02   2.3565E-04  0.0897
   2.2107E-02   2.2645E-02   2.1057E-04  0.0939
   2.2645E-02   2.3196E-02   2.1264E-04  0.0921
   2.3196E-02   2.3760E-02   1.9558E-04  0.0951
   2.3760E-02   2.4338E-02   1.8895E-04  0.0956
   2.4338E-02   2.4930E-02   1.9695E-04  0.0924
   2.4930E-02   2.5537E-02   2.4808E-04  0.0814
   2.5537E-02   2.6158E-02   1.9971E-04  0.0895
   2.6158E-02   2.6795E-02   2.0620E-04  0.0870
   2.6795E-02   2.7447E-02   1.6964E-04  0.0946
   2.7447E-02   2.8114E-02   1.7029E-04  0.0935
   2.8114E-02   2.8799E-02   1.7535E-04  0.0910
   2.8799E-02   2.9499E-02   1.8014E-04  0.0887
   2.9499E-02   3.0217E-02   1.9950E-04  0.0833
   3.0217E-02   3.0952E-02   1.7859E-04  0.0872
   3.0952E-02   3.1705E-02   1.7319E-04  0.0873
   3.1705E-02   3.2477E-02   1.4585E-04  0.0941
   3.2477E-02   3.3267E-02   1.7255E-04  0.0854
   3.3267E-02   3.4076E-02   1.6280E-04  0.0870
   3.4076E-02   3.4905E-02   1.4523E-04  0.0910
   3.4905E-02   3.5755E-02   1.6993E-04  0.0828
   3.5755E-02   3.6625E-02   1.4432E-04  0.0891
   3.6625E-02   3.7516E-02   1.2584E-04  0.0941
   3.7516E-02   3.8428E-02   1.4749E-04  0.0861
   3.8428E-02   3.9363E-02   1.4714E-04  0.0849
   3.9363E-02   4.0321E-02   1.2859E-04  0.0901
   4.0321E-02   4.1302E-02   1.2781E-04  0.0890
   4.1302E-02   4.2307E-02   1.3163E-04  0.0866
   4.2307E-02   4.3337E-02   1.4302E-04  0.0822
   4.3337E-02   4.4391E-02   1.2249E-04  0.0877
   4.4391E-02   4.5471E-02   1.1243E-04  0.0904
   4.5471E-02   4.6577E-02   1.4393E-04  0.0792
   4.6577E-02   4.7711E-02   1.3761E-04  0.0799
   4.7711E-02   4.8871E-02   1.1550E-04  0.0861
   4.8871E-02   5.0061E-02   1.0697E-04  0.0886
   5.0061E-02   5.1279E-02   9.1241E-05  0.0948
   5.1279E-02   5.2526E-02   1.1699E-04  0.0826
   5.2526E-02   5.3804E-02   9.3081E-05  0.0911
   5.3804E-02   5.5113E-02   1.1627E-04  0.0808
   5.5113E-02   5.6454E-02   1.1584E-04  0.0800
   5.6454E-02   5.7828E-02   9.9749E-05  0.0852
   5.7828E-02   5.9235E-02   1.0258E-04  0.0829
   5.9235E-02   6.0676E-02   9.5778E-05  0.0849
   6.0676E-02   6.2152E-02   9.3926E-05  0.0848
   6.2152E-02   6.3665E-02   1.0037E-04  0.0810
   6.3665E-02   6.5214E-02   8.5772E-05  0.0866
   6.5214E-02   6.6800E-02   1.0257E-04  0.0781
   6.6800E-02   6.8426E-02   9.4331E-05  0.0806
   6.8426E-02   7.0090E-02   7.9926E-05  0.0864
   7.0090E-02   7.1796E-02   8.6516E-05  0.0822
   7.1796E-02   7.3543E-02   9.3184E-05  0.0782
   7.3543E-02   7.5332E-02   8.4642E-05  0.0812
   7.5332E-02   7.7165E-02   7.8912E-05  0.0828
   7.7165E-02   7.9042E-02   8.1219E-05  0.0807
   7.9042E-02   8.0965E-02   7.2085E-05  0.0848
   8.0965E-02   8.2935E-02   7.0297E-05  0.0846
   8.2935E-02   8.4953E-02   7.1857E-05  0.0830
   8.4953E-02   8.7020E-02   7.5845E-05  0.0798
   8.7020E-02   8.9138E-02   7.1962E-05  0.0808
   8.9138E-02   9.1306E-02   7.1007E-05  0.0806
   9.1306E-02   9.3528E-02   6.1318E-05  0.0854
   9.3528E-02   9.5804E-02   5.5704E-05  0.0884
   9.5804E-02   9.8134E-02   5.8828E-05  0.0850
   9.8134E-02   1.0052E-01   5.1747E-05  0.0896
   1.0052E-01   1.0297E-01   5.2413E-05  0.0881
   1.0297E-01   1.0547E-01   4.8746E-05  0.0902
   1.0547E-01   1.0804E-01   5.5010E-05  0.0839
   1.0804E-01   1.1067E-01   6.3859E-05  0.0770
   1.1067E-01   1.1336E-01   5.2941E-05  0.0833
   1.1336E-01   1.1612E-01   5.0884E-05  0.0841
   1.1612E-01   1.1894E-01   4.9333E-05  0.0844
   1.1894E-01   1.2184E-01   5.4585E-05  0.0794
   1.2184E-01   1.2480E-01   4.8488E-05  0.0832
   1.2480E-01   1.2784E-01   4.2895E-05  0.0873
   1.2784E-01   1.3095E-01   3.6932E-05  0.0931
   1.3095E-01   1.3414E-01   5.3018E-05  0.0768
   1.3414E-01   1.3740E-01   5.1201E-05  0.0772
   1.3740E-01   1.4074E-01   3.9916E-05  0.0862
   1.4074E-01   1.4417E-01   4.1210E-05  0.0839
   1.4417E-01   1.4767E-01   3.7569E-05  0.0869
   1.4767E-01   1.5127E-01   3.7510E-05  0.0859
   1.5127E-01   1.5495E-01   3.8307E-05  0.0840
   1.5495E-01   1.5872E-01   3.7482E-05  0.0838
   1.5872E-01   1.6258E-01   3.0625E-05  0.0919
   1.6258E-01   1.6654E-01   3.2563E-05  0.0879
   1.6654E-01   1.7059E-01   3.1238E-05  0.0885
   1.7059E-01   1.7474E-01   3.5969E-05  0.0816
   1.7474E-01   1.7899E-01   3.8342E-05  0.0779
   1.7899E-01   1.8334E-01   3.1962E-05  0.0843
   1.8334E-01   1.8781E-01   2.8345E-05  0.0886
   1.8781E-01   1.9237E-01   3.2376E-05  0.0820
   1.9237E-01   1.9706E-01   2.7787E-05  0.0874
   1.9706E-01   2.0185E-01   3.0198E-05  0.0829
   2.0185E-01   2.0676E-01   2.7200E-05  0.0864
   2.0676E-01   2.1179E-01   2.9620E-05  0.0815
   2.1179E-01   2.1694E-01   3.3849E-05  0.0755
   2.1694E-01   2.2222E-01   3.2172E-05  0.0764
   2.2222E-01   2.2763E-01   3.5589E-05  0.0719
   2.2763E-01   2.3317E-01   3.8088E-05  0.0687
   2.3317E-01   2.3884E-01   3.4937E-05  0.0710
   2.3884E-01   2.4465E-01   3.3278E-05  0.0717
   2.4465E-01   2.5061E-01   3.8786E-05  0.0656
   2.5061E-01   2.5670E-01   3.2630E-05  0.0707
   2.5670E-01   2.6295E-01   4.1139E-05  0.0622
   2.6295E-01   2.6935E-01   3.9191E-05  0.0629
   2.6935E-01   2.7590E-01   4.0769E-05  0.0610
   2.7590E-01   2.8261E-01   4.2533E-05  0.0590
   2.8261E-01   2.8949E-01   3.8315E-05  0.0614
   2.8949E-01   2.9653E-01   4.4082E-05  0.0565
   2.9653E-01   3.0375E-01   4.5906E-05  0.0548
   3.0375E-01   3.1114E-01   3.9890E-05  0.0581
   3.1114E-01   3.1871E-01   4.2247E-05  0.0557
   3.1871E-01   3.2646E-01   4.7293E-05  0.0521
   3.2646E-01   3.3441E-01   4.7173E-05  0.0515
   3.3441E-01   3.4254E-01   4.7134E-05  0.0508
   3.4254E-01   3.5088E-01   4.7974E-05  0.0498
   3.5088E-01   3.5941E-01   4.5706E-05  0.0504
   3.5941E-01   3.6816E-01   4.7147E-05  0.0491
   3.6816E-01   3.7712E-01   5.0274E-05  0.0470
   3.7712E-01   3.8629E-01   4.9007E-05  0.0469
   3.8629E-01   3.9569E-01   5.2352E-05  0.0449
   3.9569E-01   4.0532E-01   5.2677E-05  0.0442
   4.0532E-01   4.1518E-01   5.1157E-05  0.0444
   4.1518E-01   4.2528E-01   5.1529E-05  0.0437
   4.2528E-01   4.3563E-01   5.3088E-05  0.0425
   4.3563E-01   4.4623E-01   5.1703E-05  0.0425
   4.4623E-01   4.5708E-01   5.4075E-05  0.0410
   4.5708E-01   4.6821E-01   5.0777E-05  0.0419
   4.6821E-01   4.7960E-01   5.4128E-05  0.0401
   4.7960E-01   4.9127E-01   5.0880E-05  0.0408
   4.9127E-01   5.0322E-01   5.1253E-05  0.0403
   5.0322E-01   5.1546E-01   5.6988E-05  0.0377
   5.1546E-01   5.2800E-01   5.0113E-05  0.0397
   5.2800E-01   5.4085E-01   5.1729E-05  0.0386
   5.4085E-01   5.5401E-01   5.4674E-05  0.0371
   5.5401E-01   5.6749E-01   4.9353E-05  0.0386
   5.6749E-01   5.8130E-01   5.0164E-05  0.0378
   5.8130E-01   5.9544E-01   5.5150E-05  0.0356
   5.9544E-01   6.0993E-01   5.0737E-05  0.0367
   6.0993E-01   6.2477E-01   4.9773E-05  0.0366
   6.2477E-01   6.3997E-01   4.6372E-05  0.0375
   6.3997E-01   6.5554E-01   4.6214E-05  0.0371
   6.5554E-01   6.7149E-01   4.5517E-05  0.0369
   6.7149E-01   6.8783E-01   4.5212E-05  0.0366
   6.8783E-01   7.0456E-01   4.4897E-05  0.0363
   7.0456E-01   7.2171E-01   4.4268E-05  0.0361
   7.2171E-01   7.3927E-01   4.2484E-05  0.0364
   7.3927E-01   7.5725E-01   4.2860E-05  0.0358
   7.5725E-01   7.7568E-01   4.4434E-05  0.0348
   7.7568E-01   7.9455E-01   4.1173E-05  0.0357
   7.9455E-01   8.1388E-01   4.1053E-05  0.0353
   8.1388E-01   8.3368E-01   4.0587E-05  0.0351
   8.3368E-01   8.5397E-01   3.6146E-05  0.0367
   8.5397E-01   8.7475E-01   3.6362E-05  0.0361
   8.7475E-01   8.9603E-01   3.7275E-05  0.0353
   8.9603E-01   9.1783E-01   3.8272E-05  0.0344
   9.1783E-01   9.4016E-01   3.6103E-05  0.0351
   9.4016E-01   9.6304E-01   3.6979E-05  0.0341
   9.6304E-01   9.8647E-01   3.5289E-05  0.0346
   9.8647E-01   1.0105E+00   3.4325E-05  0.0347
   1.0105E+00   1.0351E+00   3.2855E-05  0.0350
   1.0351E+00   1.0602E+00   3.1495E-05  0.0353
   1.0602E+00   1.0860E+00   3.1165E-05  0.0351
   1.0860E+00   1.1125E+00   3.0157E-05  0.0352
   1.1125E+00   1.1395E+00   3.0891E-05  0.0344
   1.1395E+00   1.1673E+00   3.0221E-05  0.0344
   1.1673E+00   1.1957E+00   2.8002E-05  0.0352
   1.1957E+00   1.2247E+00   2.8744E-05  0.0344
   1.2247E+00   1.2545E+00   2.7761E-05  0.0346
   1.2545E+00   1.2851E+00   2.6517E-05  0.0349
   1.2851E+00   1.3163E+00   2.7040E-05  0.0341
   1.3163E+00   1.3484E+00   2.5008E-05  0.0351
   1.3484E+00   1.3812E+00   2.6805E-05  0.0336
   1.3812E+00   1.4148E+00   2.4920E-05  0.0343
   1.4148E+00   1.4492E+00   2.5357E-05  0.0336
   1.4492E+00   1.4845E+00   2.4239E-05  0.0340
   1.4845E+00   1.5206E+00   2.3447E-05  0.0341
   1.5206E+00   1.5576E+00   2.3455E-05  0.0337
   1.5576E+00   1.5955E+00   2.3908E-05  0.0330
   1.5955E+00   1.6343E+00   2.1742E-05  0.0342
   1.6343E+00   1.6741E+00   2.1297E-05  0.0341
   1.6741E+00   1.7148E+00   2.1200E-05  0.0338
   1.7148E+00   1.7565E+00   1.9364E-05  0.0349
   1.7565E+00   1.7992E+00   1.8199E-05  0.0356
   1.7992E+00   1.8430E+00   1.9633E-05  0.0339
   1.8430E+00   1.8879E+00   1.8102E-05  0.0349
   1.8879E+00   1.9338E+00   1.8527E-05  0.0340
   1.9338E+00   1.9808E+00   1.7185E-05  0.0349
   1.9808E+00   2.0290E+00   1.8599E-05  0.0331
   2.0290E+00   2.0784E+00   1.7067E-05  0.0342
   2.0784E+00   2.1290E+00   1.6354E-05  0.0345
   2.1290E+00   2.1808E+00   1.6619E-05  0.0339
   2.1808E+00   2.2338E+00   1.5259E-05  0.0348
   2.2338E+00   2.2882E+00   1.3795E-05  0.0362
   2.2882E+00   2.3439E+00   1.4067E-05  0.0355
   2.3439E+00   2.4009E+00   1.3116E-05  0.0363
   2.4009E+00   2.4593E+00   1.2517E-05  0.0367
   2.4593E+00   2.5191E+00   1.2783E-05  0.0358
   2.5191E+00   2.5804E+00   1.3411E-05  0.0346
   2.5804E+00   2.6432E+00   1.1235E-05  0.0373
   2.6432E+00   2.7075E+00   1.2173E-05  0.0355
   2.7075E+00   2.7734E+00   1.1794E-05  0.0356
   2.7734E+00   2.8409E+00   1.1367E-05  0.0358
   2.8409E+00   2.9100E+00   1.0663E-05  0.0365
   2.9100E+00   2.9808E+00   1.0098E-05  0.0371
   2.9808E+00   3.0533E+00   9.6718E-06  0.0374
   3.0533E+00   3.1276E+00   9.9778E-06  0.0364
   3.1276E+00   3.2037E+00   9.7206E-06  0.0365
   3.2037E+00   3.2817E+00   9.3057E-06  0.0368
   3.2817E+00   3.3615E+00   9.3006E-06  0.0364
   3.3615E+00   3.4433E+00   8.7610E-06  0.0371
   3.4433E+00   3.5271E+00   8.4398E-06  0.0373
   3.5271E+00   3.6129E+00   8.0810E-06  0.0376
   3.6129E+00   3.7008E+00   8.2199E-06  0.0369
   3.7008E+00   3.7908E+00   7.8354E-06  0.0374
   3.7908E+00   3.8831E+00   7.7607E-06  0.0371
   3.8831E+00   3.9776E+00   7.9941E-06  0.0361
   3.9776E+00   4.0743E+00   7.6366E-06  0.0364
   4.0743E+00   4.1735E+00   7.0053E-06  0.0377
   4.1735E+00   4.2750E+00   6.7444E-06  0.0379
   4.2750E+00   4.3790E+00   6.9403E-06  0.0370
   4.3790E+00   4.4856E+00   7.2867E-06  0.0357
   4.4856E+00   4.5947E+00   7.0845E-06  0.0357
   4.5947E+00   4.7065E+00   7.0584E-06  0.0354
   4.7065E+00   4.8210E+00   6.3384E-06  0.0369
   4.8210E+00   4.9383E+00   6.3028E-06  0.0365
   4.9383E+00   5.0585E+00   6.8801E-06  0.0346
   5.0585E+00   5.1815E+00   6.2931E-06  0.0357
   5.1815E+00   5.3076E+00   6.2596E-06  0.0354
   5.3076E+00   5.4368E+00   5.7268E-06  0.0366
   5.4368E+00   5.5690E+00   5.8668E-06  0.0358
   5.5690E+00   5.7045E+00   5.4873E-06  0.0365
   5.7045E+00   5.8433E+00   5.1353E-06  0.0372
   5.8433E+00   5.9855E+00   5.3096E-06  0.0362
   5.9855E+00   6.1311E+00   5.0591E-06  0.0367
   6.1311E+00   6.2803E+00   4.9889E-06  0.0365
   6.2803E+00   6.4331E+00   4.6169E-06  0.0375
   6.4331E+00   6.5896E+00   4.3907E-06  0.0381
   6.5896E+00   6.7500E+00   4.4124E-06  0.0375
   6.7500E+00   6.9142E+00   4.1314E-06  0.0383
   6.9142E+00   7.0824E+00   4.0271E-06  0.0383
   7.0824E+00   7.2548E+00   3.6718E-06  0.0396
   7.2548E+00   7.4313E+00   3.7575E-06  0.0387
   7.4313E+00   7.6121E+00   3.6141E-06  0.0390
   7.6121E+00   7.7973E+00   3.6602E-06  0.0383
   7.7973E+00   7.9870E+00   3.3091E-06  0.0398
   7.9870E+00   8.1813E+00   3.0017E-06  0.0413
   8.1813E+00   8.3804E+00   3.1200E-06  0.0401
   8.3804E+00   8.5843E+00   2.6487E-06  0.0430
   8.5843E+00   8.7931E+00   2.9184E-06  0.0405
   8.7931E+00   9.0071E+00   2.8724E-06  0.0403
   9.0071E+00   9.2262E+00   2.6934E-06  0.0411
   9.2262E+00   9.4507E+00   2.3823E-06  0.0432
   9.4507E+00   9.6807E+00   2.2768E-06  0.0437
   9.6807E+00   9.9162E+00   1.9576E-06  0.0465
   9.9162E+00   1.0157E+01   2.0530E-06  0.0449
   1.0157E+01   1.0405E+01   1.8686E-06  0.0465
   1.0405E+01   1.0658E+01   1.7481E-06  0.0475
   1.0658E+01   1.0917E+01   1.5242E-06  0.0503
   1.0917E+01   1.1183E+01   1.6698E-06  0.0475
   1.1183E+01   1.1455E+01   1.5620E-06  0.0485
   1.1455E+01   1.1733E+01   1.4407E-06  0.0499
   1.1733E+01   1.2019E+01   1.1674E-06  0.0548
   1.2019E+01   1.2311E+01   1.1474E-06  0.0546
   1.2311E+01   1.2611E+01   1.2018E-06  0.0527
   1.2611E+01   1.2918E+01   1.0234E-06  0.0564
   1.2918E+01   1.3232E+01   1.0786E-06  0.0543
   1.3232E+01   1.3554E+01   9.1093E-07  0.0584
   1.3554E+01   1.3884E+01   8.5815E-07  0.0594
   1.3884E+01   1.4222E+01   7.7264E-07  0.0619
   1.4222E+01   1.4568E+01   8.6988E-07  0.0576
   1.4568E+01   1.4922E+01   7.0251E-07  0.0634
   1.4922E+01   1.5285E+01   6.9684E-07  0.0629
   1.5285E+01   1.5657E+01   6.1038E-07  0.0664
   1.5657E+01   1.6038E+01   5.0401E-07  0.0722
   1.6038E+01   1.6428E+01   4.9716E-07  0.0718
   1.6428E+01   1.6828E+01   4.5032E-07  0.0745
   1.6828E+01   1.7237E+01   4.1032E-07  0.0772
   1.7237E+01   1.7657E+01   4.2203E-07  0.0752
   1.7657E+01   1.8086E+01   3.7011E-07  0.0793
   1.8086E+01   1.8526E+01   3.4541E-07  0.0811
   1.8526E+01   1.8977E+01   2.8618E-07  0.0880
   1.8977E+01   1.9439E+01   2.4906E-07  0.0933
   1.9439E+01   1.9912E+01   2.4738E-07  0.0925
   1.9912E+01   2.0396E+01   2.3531E-07  0.0937
   2.0396E+01   2.0893E+01   1.9345E-07  0.1021
   2.0893E+01   2.1401E+01   1.6918E-07  0.1078
   2.1401E+01   2.1922E+01   1.4596E-07  0.1147
   2.1922E+01   2.2455E+01   1.2187E-07  0.1240
   2.2455E+01   2.3001E+01   1.2995E-07  0.1187
   2.3001E+01   2.3561E+01   1.1436E-07  0.1250
   2.3561E+01   2.4134E+01   7.1521E-08  0.1562
   2.4134E+01   2.4721E+01   6.3010E-08  0.1644
   2.4721E+01   2.5323E+01   5.9851E-08  0.1667
   2.5323E+01   2.5939E+01   5.1937E-08  0.1768
   2.5939E+01   2.6570E+01   3.9612E-08  0.2000
   2.6570E+01   2.7217E+01   3.4031E-08  0.2132
   2.7217E+01   2.7879E+01   3.0202E-08  0.2236
   2.7879E+01   2.8557E+01   2.5062E-08  0.2425
   2.8557E+01   2.9252E+01   1.8710E-08  0.2774
   2.9252E+01   2.9964E+01   1.2645E-08  0.3333
   2.9964E+01   3.0693E+01   1.2345E-08  0.3333
   3.0693E+01   3.1440E+01   8.0345E-09  0.4082
   3.1440E+01   3.2205E+01   7.8437E-09  0.4082
   3.2205E+01   3.2988E+01   5.1049E-09  0.5000
   3.2988E+01   3.3791E+01   3.7377E-09  0.5774
   3.3791E+01   3.4613E+01   1.2163E-09  1.0000
   3.4613E+01   3.5455E+01   0.0000E+00  0.0000
   3.5455E+01   3.6318E+01   1.1592E-09  1.0000
   3.6318E+01   3.7201E+01   1.1317E-09  1.0000
   3.7201E+01   3.8106E+01   0.0000E+00  0.0000
   3.8106E+01   3.9034E+01   0.0000E+00  0.0000
   3.9034E+01   3.9983E+01   0.0000E+00  0.0000
   3.9983E+01   4.0956E+01   1.0279E-09  1.0000
   4.0956E+01   4.1953E+01   0.0000E+00  0.0000
   4.1953E+01   4.2973E+01   0.0000E+00  0.0000
   4.2973E+01   4.4019E+01   0.0000E+00  0.0000
   4.4019E+01   4.5090E+01   0.0000E+00  0.0000
   4.5090E+01   4.6187E+01   0.0000E+00  0.0000
   4.6187E+01   4.7311E+01   0.0000E+00  0.0000
   4.7311E+01   4.8462E+01   0.0000E+00  0.0000
   4.8462E+01   4.9641E+01   0.0000E+00  0.0000
   4.9641E+01   5.0849E+01   0.0000E+00  0.0000
   5.0849E+01   5.2086E+01   0.0000E+00  0.0000
   5.2086E+01   5.3353E+01   0.0000E+00  0.0000
   5.3353E+01   5.4651E+01   0.0000E+00  0.0000
   5.4651E+01   5.5981E+01   0.0000E+00  0.0000
   5.5981E+01   5.7343E+01   0.0000E+00  0.0000
   5.7343E+01   5.8738E+01   0.0000E+00  0.0000
   5.8738E+01   6.0168E+01   0.0000E+00  0.0000
   6.0168E+01   6.1632E+01   0.0000E+00  0.0000
   6.1632E+01   6.3131E+01   0.0000E+00  0.0000
   6.3131E+01   6.4667E+01   0.0000E+00  0.0000
   6.4667E+01   6.6240E+01   0.0000E+00  0.0000
   6.6240E+01   6.7852E+01   0.0000E+00  0.0000
   6.7852E+01   6.9503E+01   0.0000E+00  0.0000
   6.9503E+01   7.1194E+01   0.0000E+00  0.0000
   7.1194E+01   7.2926E+01   0.0000E+00  0.0000
   7.2926E+01   7.4701E+01   0.0000E+00  0.0000
   7.4701E+01   7.6518E+01   0.0000E+00  0.0000
   7.6518E+01   7.8380E+01   0.0000E+00  0.0000
   7.8380E+01   8.0287E+01   0.0000E+00  0.0000
   8.0287E+01   8.2240E+01   0.0000E+00  0.0000
   8.2240E+01   8.4241E+01   0.0000E+00  0.0000
   8.4241E+01   8.6291E+01   0.0000E+00  0.0000
   8.6291E+01   8.8391E+01   0.0000E+00  0.0000
   8.8391E+01   9.0541E+01   0.0000E+00  0.0000
   9.0541E+01   9.2744E+01   0.0000E+00  0.0000
   9.2744E+01   9.5001E+01   0.0000E+00  0.0000
   9.5001E+01   9.7312E+01   0.0000E+00  0.0000
   9.7312E+01   9.9680E+01   0.0000E+00  0.0000
   9.9680E+01   1.0211E+02   0.0000E+00  0.0000
   1.0211E+02   1.0459E+02   0.0000E+00  0.0000
   1.0459E+02   1.0713E+02   0.0000E+00  0.0000
   1.0713E+02   1.0974E+02   0.0000E+00  0.0000
   1.0974E+02   1.1241E+02   0.0000E+00  0.0000
   1.1241E+02   1.1515E+02   0.0000E+00  0.0000
   1.1515E+02   1.1795E+02   0.0000E+00  0.0000
   1.1795E+02   1.2082E+02   0.0000E+00  0.0000
   1.2082E+02   1.2376E+02   0.0000E+00  0.0000
   1.2376E+02   1.2677E+02   0.0000E+00  0.0000
   1.2677E+02   1.2985E+02   0.0000E+00  0.0000
   1.2985E+02   1.3301E+02   0.0000E+00  0.0000
   1.3301E+02   1.3625E+02   0.0000E+00  0.0000
   1.3625E+02   1.3956E+02   0.0000E+00  0.0000
   1.3956E+02   1.4296E+02   0.0000E+00  0.0000
   1.4296E+02   1.4644E+02   0.0000E+00  0.0000
   1.4644E+02   1.5000E+02   0.0000E+00  0.0000

#   sum over                 8.8211E-07
'no. =    1   reg = 125 - 225'
msuc: {\huge [t-cross] in region mesh}
msdr: {\it plotted by \ANGEL \version}
msdl: {\it calculated by \PHITS  3.26}
wt: s(0.7)
\vspace{-3}
  region surface crossing
  area  &=&   1.0000E+00 [cm^2]
e:
 
# Information for Restart Calculation
# This calculation was newly started
# istdev =  2 # 1:Batch variance, 2:History variance
# resc2  = 1.00000000000000000E+09 # Total source weight or Total source weight / maxcas
# resc3  = 1.00000000000000000E+09 # Total history number or Total batch number
# maxcas =   500000000 # History / Batch, only used for istdev=1
# bitrseed = 0001001110011001001001110000100100110111001111011100001000101100 # bit data of rseed
