[ T-Cross ]
    title = [t-cross] in region mesh
     mesh =  reg            # mesh type is region-wise
      reg =    1            # number of crossing regions
      non     r-from    r-to       area
      1       111       211        1.000000    
   e-type =    3            # e-mesh is log given by emin, emax and ne
     emin =  1.0000000E-02  # minimum value of e-mesh points
     emax =   150.0000      # maximum value of e-mesh points
#    edel =  2.4039514E-02  # mesh width of e-mesh points
       ne =    400          # number of e-mesh points
#    data = ( e(i), i = 1, ne + 1 )
#           1.00000E-02  1.02433E-02  1.04925E-02  1.07478E-02  1.10093E-02
#           1.12772E-02  1.15516E-02  1.18326E-02  1.21205E-02  1.24154E-02
#           1.27175E-02  1.30269E-02  1.33439E-02  1.36686E-02  1.40011E-02
#           1.43418E-02  1.46907E-02  1.50482E-02  1.54143E-02  1.57894E-02
#           1.61735E-02  1.65670E-02  1.69701E-02  1.73830E-02  1.78060E-02
#           1.82392E-02  1.86830E-02  1.91375E-02  1.96032E-02  2.00801E-02
#           2.05687E-02  2.10692E-02  2.15818E-02  2.21069E-02  2.26448E-02
#           2.31957E-02  2.37601E-02  2.43382E-02  2.49304E-02  2.55369E-02
#           2.61583E-02  2.67947E-02  2.74467E-02  2.81145E-02  2.87985E-02
#           2.94992E-02  3.02169E-02  3.09521E-02  3.17052E-02  3.24766E-02
#           3.32668E-02  3.40762E-02  3.49053E-02  3.57546E-02  3.66246E-02
#           3.75157E-02  3.84284E-02  3.93634E-02  4.03212E-02  4.13022E-02
#           4.23071E-02  4.33365E-02  4.43909E-02  4.54710E-02  4.65773E-02
#           4.77106E-02  4.88714E-02  5.00605E-02  5.12785E-02  5.25262E-02
#           5.38042E-02  5.51133E-02  5.64542E-02  5.78278E-02  5.92348E-02
#           6.06760E-02  6.21523E-02  6.36645E-02  6.52135E-02  6.68002E-02
#           6.84255E-02  7.00904E-02  7.17957E-02  7.35426E-02  7.53319E-02
#           7.71648E-02  7.90423E-02  8.09655E-02  8.29354E-02  8.49533E-02
#           8.70203E-02  8.91376E-02  9.13064E-02  9.35279E-02  9.58035E-02
#           9.81345E-02  1.00522E-01  1.02968E-01  1.05473E-01  1.08040E-01
#           1.10668E-01  1.13361E-01  1.16119E-01  1.18944E-01  1.21838E-01
#           1.24803E-01  1.27839E-01  1.30950E-01  1.34136E-01  1.37399E-01
#           1.40742E-01  1.44167E-01  1.47675E-01  1.51268E-01  1.54948E-01
#           1.58718E-01  1.62580E-01  1.66535E-01  1.70587E-01  1.74738E-01
#           1.78989E-01  1.83344E-01  1.87805E-01  1.92375E-01  1.97055E-01
#           2.01850E-01  2.06761E-01  2.11792E-01  2.16945E-01  2.22223E-01
#           2.27630E-01  2.33169E-01  2.38842E-01  2.44653E-01  2.50605E-01
#           2.56703E-01  2.62949E-01  2.69346E-01  2.75900E-01  2.82613E-01
#           2.89489E-01  2.96532E-01  3.03747E-01  3.11138E-01  3.18708E-01
#           3.26462E-01  3.34405E-01  3.42542E-01  3.50876E-01  3.59413E-01
#           3.68158E-01  3.77116E-01  3.86291E-01  3.95690E-01  4.05317E-01
#           4.15179E-01  4.25281E-01  4.35628E-01  4.46227E-01  4.57084E-01
#           4.68205E-01  4.79597E-01  4.91266E-01  5.03219E-01  5.15463E-01
#           5.28005E-01  5.40851E-01  5.54011E-01  5.67490E-01  5.81298E-01
#           5.95441E-01  6.09929E-01  6.24769E-01  6.39970E-01  6.55541E-01
#           6.71491E-01  6.87828E-01  7.04564E-01  7.21706E-01  7.39266E-01
#           7.57253E-01  7.75678E-01  7.94551E-01  8.13883E-01  8.33685E-01
#           8.53969E-01  8.74747E-01  8.96030E-01  9.17831E-01  9.40163E-01
#           9.63038E-01  9.86469E-01  1.01047E+00  1.03506E+00  1.06024E+00
#           1.08604E+00  1.11246E+00  1.13953E+00  1.16725E+00  1.19565E+00
#           1.22474E+00  1.25454E+00  1.28507E+00  1.31633E+00  1.34836E+00
#           1.38117E+00  1.41477E+00  1.44920E+00  1.48446E+00  1.52057E+00
#           1.55757E+00  1.59547E+00  1.63429E+00  1.67405E+00  1.71478E+00
#           1.75650E+00  1.79924E+00  1.84302E+00  1.88786E+00  1.93379E+00
#           1.98084E+00  2.02904E+00  2.07841E+00  2.12898E+00  2.18078E+00
#           2.23384E+00  2.28819E+00  2.34386E+00  2.40089E+00  2.45930E+00
#           2.51914E+00  2.58043E+00  2.64322E+00  2.70753E+00  2.77341E+00
#           2.84088E+00  2.91001E+00  2.98081E+00  3.05333E+00  3.12762E+00
#           3.20372E+00  3.28167E+00  3.36152E+00  3.44330E+00  3.52708E+00
#           3.61290E+00  3.70080E+00  3.79085E+00  3.88308E+00  3.97756E+00
#           4.07434E+00  4.17347E+00  4.27501E+00  4.37903E+00  4.48557E+00
#           4.59471E+00  4.70650E+00  4.82102E+00  4.93832E+00  5.05847E+00
#           5.18155E+00  5.30762E+00  5.43676E+00  5.56904E+00  5.70453E+00
#           5.84333E+00  5.98550E+00  6.13114E+00  6.28031E+00  6.43312E+00
#           6.58964E+00  6.74997E+00  6.91420E+00  7.08243E+00  7.25475E+00
#           7.43126E+00  7.61207E+00  7.79728E+00  7.98700E+00  8.18133E+00
#           8.38038E+00  8.58428E+00  8.79315E+00  9.00709E+00  9.22624E+00
#           9.45072E+00  9.68067E+00  9.91620E+00  1.01575E+01  1.04046E+01
#           1.06578E+01  1.09171E+01  1.11827E+01  1.14548E+01  1.17335E+01
#           1.20190E+01  1.23114E+01  1.26109E+01  1.29178E+01  1.32321E+01
#           1.35540E+01  1.38838E+01  1.42216E+01  1.45676E+01  1.49221E+01
#           1.52851E+01  1.56570E+01  1.60380E+01  1.64282E+01  1.68279E+01
#           1.72374E+01  1.76568E+01  1.80864E+01  1.85264E+01  1.89772E+01
#           1.94389E+01  1.99119E+01  2.03963E+01  2.08926E+01  2.14009E+01
#           2.19216E+01  2.24550E+01  2.30014E+01  2.35610E+01  2.41343E+01
#           2.47215E+01  2.53230E+01  2.59391E+01  2.65702E+01  2.72167E+01
#           2.78789E+01  2.85572E+01  2.92520E+01  2.99637E+01  3.06928E+01
#           3.14396E+01  3.22045E+01  3.29881E+01  3.37907E+01  3.46128E+01
#           3.54550E+01  3.63177E+01  3.72013E+01  3.81064E+01  3.90336E+01
#           3.99833E+01  4.09561E+01  4.19526E+01  4.29734E+01  4.40189E+01
#           4.50900E+01  4.61870E+01  4.73108E+01  4.84619E+01  4.96410E+01
#           5.08488E+01  5.20860E+01  5.33533E+01  5.46514E+01  5.59812E+01
#           5.73432E+01  5.87384E+01  6.01676E+01  6.16315E+01  6.31311E+01
#           6.46671E+01  6.62405E+01  6.78522E+01  6.95031E+01  7.11941E+01
#           7.29263E+01  7.47007E+01  7.65182E+01  7.83800E+01  8.02870E+01
#           8.22405E+01  8.42414E+01  8.62911E+01  8.83906E+01  9.05412E+01
#           9.27442E+01  9.50007E+01  9.73122E+01  9.96799E+01  1.02105E+02
#           1.04589E+02  1.07134E+02  1.09741E+02  1.12411E+02  1.15146E+02
#           1.17948E+02  1.20817E+02  1.23757E+02  1.26768E+02  1.29852E+02
#           1.33012E+02  1.36248E+02  1.39563E+02  1.42959E+02  1.46437E+02
#           1.50000E+02
     unit =    2            # unit is [1/cm^2/(MeV/n)/source]
     axis =  eng            # axis of output
     file = detector-12.out  # file name of output for the above axis
   output = f-curr          # surface crossing forward current spectrum
     part =  neutron  
# kf/name :  2112     
#    used :        main (  %)        temp (  %)       total (  %)
#  memory :         414 (  0)           0 (  0)         414 (  0)

#------------------------------------------------------------------------------
#newpage:
#   no. =    1   reg = 111 - 211

x: Energy [MeV/n]
y:  F-Curr [1/cm^2/(MeV/n)/source]         
p: xlog ylog afac(0.8) form(0.9)
h: n            x            y(neutron ),hh0l   n 
#  e-lower      e-upper      neutron     r.err 
   1.0000E-02   1.0243E-02   1.1768E-03  0.0834
   1.0243E-02   1.0493E-02   1.2062E-03  0.0815
   1.0493E-02   1.0748E-02   1.0694E-03  0.0855
   1.0748E-02   1.1009E-02   1.1625E-03  0.0811
   1.1009E-02   1.1277E-02   9.1090E-04  0.0905
   1.1277E-02   1.1552E-02   1.0095E-03  0.0848
   1.1552E-02   1.1833E-02   9.8658E-04  0.0848
   1.1833E-02   1.2121E-02   1.0351E-03  0.0818
   1.2121E-02   1.2415E-02   1.1064E-03  0.0781
   1.2415E-02   1.2718E-02   9.9661E-04  0.0814
   1.2718E-02   1.3027E-02   1.2034E-03  0.0733
   1.3027E-02   1.3344E-02   1.0085E-03  0.0790
   1.3344E-02   1.3669E-02   9.9989E-04  0.0784
   1.3669E-02   1.4001E-02   9.1045E-04  0.0812
   1.4001E-02   1.4342E-02   1.0757E-03  0.0737
   1.4342E-02   1.4691E-02   9.5318E-04  0.0775
   1.4691E-02   1.5048E-02   9.6519E-04  0.0760
   1.5048E-02   1.5414E-02   8.8149E-04  0.0786
   1.5414E-02   1.5789E-02   9.1723E-04  0.0762
   1.5789E-02   1.6174E-02   9.0251E-04  0.0759
   1.6174E-02   1.6567E-02   1.0114E-03  0.0709
   1.6567E-02   1.6970E-02   8.5491E-04  0.0761
   1.6970E-02   1.7383E-02   8.8703E-04  0.0739
   1.7383E-02   1.7806E-02   8.2345E-04  0.0756
   1.7806E-02   1.8239E-02   9.8173E-04  0.0685
   1.8239E-02   1.8683E-02   8.5929E-04  0.0723
   1.8683E-02   1.9138E-02   8.2678E-04  0.0728
   1.9138E-02   1.9603E-02   7.8657E-04  0.0736
   1.9603E-02   2.0080E-02   8.7098E-04  0.0693
   2.0080E-02   2.0569E-02   8.4455E-04  0.0694
   2.0569E-02   2.1069E-02   7.2479E-04  0.0742
   2.1069E-02   2.1582E-02   7.9262E-04  0.0701
   2.1582E-02   2.2107E-02   8.4419E-04  0.0671
   2.2107E-02   2.2645E-02   8.3590E-04  0.0666
   2.2645E-02   2.3196E-02   7.7732E-04  0.0683
   2.3196E-02   2.3760E-02   9.4264E-04  0.0613
   2.3760E-02   2.4338E-02   7.6974E-04  0.0669
   2.4338E-02   2.4930E-02   6.7824E-04  0.0705
   2.4930E-02   2.5537E-02   7.5235E-04  0.0662
   2.5537E-02   2.6158E-02   7.0167E-04  0.0676
   2.6158E-02   2.6795E-02   8.0760E-04  0.0624
   2.6795E-02   2.7447E-02   7.9399E-04  0.0621
   2.7447E-02   2.8114E-02   7.8467E-04  0.0618
   2.8114E-02   2.8799E-02   6.5493E-04  0.0668
   2.8799E-02   2.9499E-02   7.3016E-04  0.0624
   2.9499E-02   3.0217E-02   7.2503E-04  0.0620
   3.0217E-02   3.0952E-02   7.1042E-04  0.0619
   3.0952E-02   3.1705E-02   7.6561E-04  0.0589
   3.1705E-02   3.2477E-02   7.4786E-04  0.0588
   3.2477E-02   3.3267E-02   6.9508E-04  0.0602
   3.3267E-02   3.4076E-02   6.7408E-04  0.0605
   3.4076E-02   3.4905E-02   7.7438E-04  0.0558
   3.4905E-02   3.5755E-02   6.4948E-04  0.0602
   3.5755E-02   3.6625E-02   6.5407E-04  0.0593
   3.6625E-02   3.7516E-02   5.8687E-04  0.0618
   3.7516E-02   3.8428E-02   6.3500E-04  0.0587
   3.8428E-02   3.9363E-02   6.5507E-04  0.0571
   3.9363E-02   4.0321E-02   6.3901E-04  0.0571
   4.0321E-02   4.1302E-02   6.3003E-04  0.0568
   4.1302E-02   4.2307E-02   5.6084E-04  0.0594
   4.2307E-02   4.3337E-02   6.0326E-04  0.0566
   4.3337E-02   4.4391E-02   5.1848E-04  0.0603
   4.4391E-02   4.5471E-02   6.0886E-04  0.0551
   4.5471E-02   4.6577E-02   6.2815E-04  0.0536
   4.6577E-02   4.7711E-02   5.1067E-04  0.0587
   4.7711E-02   4.8871E-02   5.6734E-04  0.0550
   4.8871E-02   5.0061E-02   5.2148E-04  0.0567
   5.0061E-02   5.1279E-02   5.4217E-04  0.0550
   5.1279E-02   5.2526E-02   5.2999E-04  0.0549
   5.2526E-02   5.3804E-02   5.1980E-04  0.0548
   5.3804E-02   5.5113E-02   5.4188E-04  0.0531
   5.5113E-02   5.6454E-02   5.2697E-04  0.0532
   5.6454E-02   5.7828E-02   5.0161E-04  0.0538
   5.7828E-02   5.9235E-02   4.9371E-04  0.0536
   5.9235E-02   6.0676E-02   4.7660E-04  0.0539
   6.0676E-02   6.2152E-02   4.9015E-04  0.0525
   6.2152E-02   6.3665E-02   4.5532E-04  0.0538
   6.3665E-02   6.5214E-02   4.7970E-04  0.0518
   6.5214E-02   6.6800E-02   4.8424E-04  0.0509
   6.6800E-02   6.8426E-02   4.3513E-04  0.0531
   6.8426E-02   7.0090E-02   4.2392E-04  0.0531
   7.0090E-02   7.1796E-02   4.7166E-04  0.0498
   7.1796E-02   7.3543E-02   4.6081E-04  0.0497
   7.3543E-02   7.5332E-02   4.6512E-04  0.0489
   7.5332E-02   7.7165E-02   4.3498E-04  0.0500
   7.7165E-02   7.9042E-02   4.4240E-04  0.0489
   7.9042E-02   8.0965E-02   4.3466E-04  0.0489
   8.0965E-02   8.2935E-02   3.8844E-04  0.0511
   8.2935E-02   8.4953E-02   3.9130E-04  0.0503
   8.4953E-02   8.7020E-02   3.9478E-04  0.0494
   8.7020E-02   8.9138E-02   3.8556E-04  0.0494
   8.9138E-02   9.1306E-02   3.6874E-04  0.0499
   9.1306E-02   9.3528E-02   3.7286E-04  0.0491
   9.3528E-02   9.5804E-02   3.4158E-04  0.0506
   9.5804E-02   9.8134E-02   3.7423E-04  0.0479
   9.8134E-02   1.0052E-01   3.5020E-04  0.0488
   1.0052E-01   1.0297E-01   3.6288E-04  0.0474
   1.0297E-01   1.0547E-01   3.4834E-04  0.0478
   1.0547E-01   1.0804E-01   3.3705E-04  0.0480
   1.0804E-01   1.1067E-01   3.2690E-04  0.0482
   1.1067E-01   1.1336E-01   3.4180E-04  0.0466
   1.1336E-01   1.1612E-01   3.2029E-04  0.0475
   1.1612E-01   1.1894E-01   3.5085E-04  0.0449
   1.1894E-01   1.2184E-01   3.0918E-04  0.0472
   1.2184E-01   1.2480E-01   2.9909E-04  0.0474
   1.2480E-01   1.2784E-01   2.9227E-04  0.0474
   1.2784E-01   1.3095E-01   2.9240E-04  0.0469
   1.3095E-01   1.3414E-01   2.9940E-04  0.0457
   1.3414E-01   1.3740E-01   2.8735E-04  0.0461
   1.3740E-01   1.4074E-01   2.7901E-04  0.0462
   1.4074E-01   1.4417E-01   2.7564E-04  0.0460
   1.4417E-01   1.4767E-01   2.9210E-04  0.0441
   1.4767E-01   1.5127E-01   2.6422E-04  0.0458
   1.5127E-01   1.5495E-01   2.6309E-04  0.0454
   1.5495E-01   1.5872E-01   2.5416E-04  0.0456
   1.5872E-01   1.6258E-01   2.6473E-04  0.0442
   1.6258E-01   1.6654E-01   2.4396E-04  0.0455
   1.6654E-01   1.7059E-01   2.3221E-04  0.0461
   1.7059E-01   1.7474E-01   2.4809E-04  0.0440
   1.7474E-01   1.7899E-01   2.2206E-04  0.0460
   1.7899E-01   1.8334E-01   2.2965E-04  0.0446
   1.8334E-01   1.8781E-01   2.3494E-04  0.0437
   1.8781E-01   1.9237E-01   2.1422E-04  0.0451
   1.9237E-01   1.9706E-01   2.3819E-04  0.0423
   1.9706E-01   2.0185E-01   2.0557E-04  0.0450
   2.0185E-01   2.0676E-01   2.1284E-04  0.0437
   2.0676E-01   2.1179E-01   2.2420E-04  0.0420
   2.1179E-01   2.1694E-01   2.1284E-04  0.0426
   2.1694E-01   2.2222E-01   2.2769E-04  0.0407
   2.2222E-01   2.2763E-01   2.2433E-04  0.0406
   2.2763E-01   2.3317E-01   2.4436E-04  0.0384
   2.3317E-01   2.3884E-01   2.4962E-04  0.0375
   2.3884E-01   2.4465E-01   2.4813E-04  0.0372
   2.4465E-01   2.5061E-01   2.5585E-04  0.0362
   2.5061E-01   2.5670E-01   2.6009E-04  0.0355
   2.5670E-01   2.6295E-01   2.5639E-04  0.0353
   2.6295E-01   2.6935E-01   2.7651E-04  0.0336
   2.6935E-01   2.7590E-01   2.8860E-04  0.0325
   2.7590E-01   2.8261E-01   3.0150E-04  0.0314
   2.8261E-01   2.8949E-01   2.8823E-04  0.0317
   2.8949E-01   2.9653E-01   2.9821E-04  0.0308
   2.9653E-01   3.0375E-01   2.8954E-04  0.0309
   3.0375E-01   3.1114E-01   3.2078E-04  0.0290
   3.1114E-01   3.1871E-01   3.0776E-04  0.0293
   3.1871E-01   3.2646E-01   3.1659E-04  0.0285
   3.2646E-01   3.3441E-01   3.2300E-04  0.0279
   3.3441E-01   3.4254E-01   3.3160E-04  0.0272
   3.4254E-01   3.5088E-01   3.4211E-04  0.0264
   3.5088E-01   3.5941E-01   3.4479E-04  0.0261
   3.5941E-01   3.6816E-01   3.4768E-04  0.0256
   3.6816E-01   3.7712E-01   3.6139E-04  0.0248
   3.7712E-01   3.8629E-01   3.6740E-04  0.0243
   3.8629E-01   3.9569E-01   3.7455E-04  0.0238
   3.9569E-01   4.0532E-01   3.6239E-04  0.0239
   4.0532E-01   4.1518E-01   3.7121E-04  0.0233
   4.1518E-01   4.2528E-01   3.7794E-04  0.0229
   4.2528E-01   4.3563E-01   3.6887E-04  0.0229
   4.3563E-01   4.4623E-01   3.8230E-04  0.0222
   4.4623E-01   4.5708E-01   4.0127E-04  0.0214
   4.5708E-01   4.6821E-01   3.9022E-04  0.0214
   4.6821E-01   4.7960E-01   3.9925E-04  0.0209
   4.7960E-01   4.9127E-01   4.0882E-04  0.0204
   4.9127E-01   5.0322E-01   4.1095E-04  0.0201
   5.0322E-01   5.1546E-01   4.0582E-04  0.0200
   5.1546E-01   5.2800E-01   4.0425E-04  0.0198
   5.2800E-01   5.4085E-01   4.2238E-04  0.0192
   5.4085E-01   5.5401E-01   4.2514E-04  0.0189
   5.5401E-01   5.6749E-01   4.3314E-04  0.0185
   5.6749E-01   5.8130E-01   4.2859E-04  0.0184
   5.8130E-01   5.9544E-01   4.4104E-04  0.0179
   5.9544E-01   6.0993E-01   4.4586E-04  0.0176
   6.0993E-01   6.2477E-01   4.6028E-04  0.0171
   6.2477E-01   6.3997E-01   4.5123E-04  0.0170
   6.3997E-01   6.5554E-01   4.5621E-04  0.0167
   6.5554E-01   6.7149E-01   4.5976E-04  0.0165
   6.7149E-01   6.8783E-01   4.6025E-04  0.0163
   6.8783E-01   7.0456E-01   4.5672E-04  0.0161
   7.0456E-01   7.2171E-01   4.6354E-04  0.0158
   7.2171E-01   7.3927E-01   4.6659E-04  0.0156
   7.3927E-01   7.5725E-01   4.7546E-04  0.0153
   7.5725E-01   7.7568E-01   4.5835E-04  0.0154
   7.7568E-01   7.9455E-01   4.7427E-04  0.0149
   7.9455E-01   8.1388E-01   4.5817E-04  0.0150
   8.1388E-01   8.3368E-01   4.6474E-04  0.0147
   8.3368E-01   8.5397E-01   4.5974E-04  0.0146
   8.5397E-01   8.7475E-01   4.6582E-04  0.0143
   8.7475E-01   8.9603E-01   4.6701E-04  0.0142
   8.9603E-01   9.1783E-01   4.6647E-04  0.0140
   9.1783E-01   9.4016E-01   4.5747E-04  0.0140
   9.4016E-01   9.6304E-01   4.5264E-04  0.0139
   9.6304E-01   9.8647E-01   4.4521E-04  0.0138
   9.8647E-01   1.0105E+00   4.4171E-04  0.0137
   1.0105E+00   1.0351E+00   4.3585E-04  0.0136
   1.0351E+00   1.0602E+00   4.2652E-04  0.0136
   1.0602E+00   1.0860E+00   4.3837E-04  0.0133
   1.0860E+00   1.1125E+00   4.5194E-04  0.0129
   1.1125E+00   1.1395E+00   4.5632E-04  0.0127
   1.1395E+00   1.1673E+00   4.6846E-04  0.0124
   1.1673E+00   1.1957E+00   4.6951E-04  0.0122
   1.1957E+00   1.2247E+00   4.8224E-04  0.0119
   1.2247E+00   1.2545E+00   4.8439E-04  0.0117
   1.2545E+00   1.2851E+00   4.9202E-04  0.0115
   1.2851E+00   1.3163E+00   4.9259E-04  0.0114
   1.3163E+00   1.3484E+00   5.0872E-04  0.0111
   1.3484E+00   1.3812E+00   5.1592E-04  0.0108
   1.3812E+00   1.4148E+00   5.2330E-04  0.0106
   1.4148E+00   1.4492E+00   5.3853E-04  0.0104
   1.4492E+00   1.4845E+00   5.2004E-04  0.0104
   1.4845E+00   1.5206E+00   5.3380E-04  0.0102
   1.5206E+00   1.5576E+00   5.3783E-04  0.0100
   1.5576E+00   1.5955E+00   5.3525E-04  0.0099
   1.5955E+00   1.6343E+00   5.4313E-04  0.0097
   1.6343E+00   1.6741E+00   5.5703E-04  0.0095
   1.6741E+00   1.7148E+00   5.7247E-04  0.0092
   1.7148E+00   1.7565E+00   5.7064E-04  0.0091
   1.7565E+00   1.7992E+00   5.7190E-04  0.0090
   1.7992E+00   1.8430E+00   5.7694E-04  0.0089
   1.8430E+00   1.8879E+00   5.7076E-04  0.0088
   1.8879E+00   1.9338E+00   5.8011E-04  0.0086
   1.9338E+00   1.9808E+00   5.8139E-04  0.0085
   1.9808E+00   2.0290E+00   5.8220E-04  0.0084
   2.0290E+00   2.0784E+00   5.8801E-04  0.0083
   2.0784E+00   2.1290E+00   5.8347E-04  0.0082
   2.1290E+00   2.1808E+00   5.8019E-04  0.0081
   2.1808E+00   2.2338E+00   5.7577E-04  0.0081
   2.2338E+00   2.2882E+00   5.8237E-04  0.0079
   2.2882E+00   2.3439E+00   5.7636E-04  0.0079
   2.3439E+00   2.4009E+00   5.7915E-04  0.0078
   2.4009E+00   2.4593E+00   5.8426E-04  0.0076
   2.4593E+00   2.5191E+00   5.7415E-04  0.0076
   2.5191E+00   2.5804E+00   5.6897E-04  0.0076
   2.5804E+00   2.6432E+00   5.6731E-04  0.0075
   2.6432E+00   2.7075E+00   5.6291E-04  0.0074
   2.7075E+00   2.7734E+00   5.7201E-04  0.0073
   2.7734E+00   2.8409E+00   5.6246E-04  0.0072
   2.8409E+00   2.9100E+00   5.5960E-04  0.0072
   2.9100E+00   2.9808E+00   5.6288E-04  0.0071
   2.9808E+00   3.0533E+00   5.5519E-04  0.0070
   3.0533E+00   3.1276E+00   5.5447E-04  0.0069
   3.1276E+00   3.2037E+00   5.4610E-04  0.0069
   3.2037E+00   3.2817E+00   5.3302E-04  0.0069
   3.2817E+00   3.3615E+00   5.3367E-04  0.0068
   3.3615E+00   3.4433E+00   5.2529E-04  0.0068
   3.4433E+00   3.5271E+00   5.1918E-04  0.0068
   3.5271E+00   3.6129E+00   5.0986E-04  0.0067
   3.6129E+00   3.7008E+00   5.0984E-04  0.0067
   3.7008E+00   3.7908E+00   4.9369E-04  0.0067
   3.7908E+00   3.8831E+00   4.8795E-04  0.0066
   3.8831E+00   3.9776E+00   4.7950E-04  0.0066
   3.9776E+00   4.0743E+00   4.7704E-04  0.0066
   4.0743E+00   4.1735E+00   4.7027E-04  0.0065
   4.1735E+00   4.2750E+00   4.6518E-04  0.0065
   4.2750E+00   4.3790E+00   4.5992E-04  0.0065
   4.3790E+00   4.4856E+00   4.4747E-04  0.0065
   4.4856E+00   4.5947E+00   4.3654E-04  0.0065
   4.5947E+00   4.7065E+00   4.3607E-04  0.0064
   4.7065E+00   4.8210E+00   4.3142E-04  0.0063
   4.8210E+00   4.9383E+00   4.2389E-04  0.0063
   4.9383E+00   5.0585E+00   4.1387E-04  0.0063
   5.0585E+00   5.1815E+00   4.0251E-04  0.0063
   5.1815E+00   5.3076E+00   3.9678E-04  0.0063
   5.3076E+00   5.4368E+00   3.8761E-04  0.0063
   5.4368E+00   5.5690E+00   3.7731E-04  0.0063
   5.5690E+00   5.7045E+00   3.7074E-04  0.0063
   5.7045E+00   5.8433E+00   3.6163E-04  0.0063
   5.8433E+00   5.9855E+00   3.4884E-04  0.0063
   5.9855E+00   6.1311E+00   3.4721E-04  0.0063
   6.1311E+00   6.2803E+00   3.3190E-04  0.0063
   6.2803E+00   6.4331E+00   3.2633E-04  0.0063
   6.4331E+00   6.5896E+00   3.1782E-04  0.0063
   6.5896E+00   6.7500E+00   3.0815E-04  0.0064
   6.7500E+00   6.9142E+00   2.9939E-04  0.0064
   6.9142E+00   7.0824E+00   2.9174E-04  0.0064
   7.0824E+00   7.2548E+00   2.8667E-04  0.0064
   7.2548E+00   7.4313E+00   2.7611E-04  0.0064
   7.4313E+00   7.6121E+00   2.6819E-04  0.0064
   7.6121E+00   7.7973E+00   2.5789E-04  0.0065
   7.7973E+00   7.9870E+00   2.5144E-04  0.0065
   7.9870E+00   8.1813E+00   2.4499E-04  0.0065
   8.1813E+00   8.3804E+00   2.3375E-04  0.0065
   8.3804E+00   8.5843E+00   2.2539E-04  0.0066
   8.5843E+00   8.7931E+00   2.1737E-04  0.0066
   8.7931E+00   9.0071E+00   2.1469E-04  0.0066
   9.0071E+00   9.2262E+00   2.0410E-04  0.0067
   9.2262E+00   9.4507E+00   1.9460E-04  0.0068
   9.4507E+00   9.6807E+00   1.9010E-04  0.0068
   9.6807E+00   9.9162E+00   1.8330E-04  0.0068
   9.9162E+00   1.0157E+01   1.7660E-04  0.0068
   1.0157E+01   1.0405E+01   1.6978E-04  0.0069
   1.0405E+01   1.0658E+01   1.6633E-04  0.0069
   1.0658E+01   1.0917E+01   1.5952E-04  0.0070
   1.0917E+01   1.1183E+01   1.5347E-04  0.0070
   1.1183E+01   1.1455E+01   1.4862E-04  0.0070
   1.1455E+01   1.1733E+01   1.4410E-04  0.0071
   1.1733E+01   1.2019E+01   1.3745E-04  0.0071
   1.2019E+01   1.2311E+01   1.3218E-04  0.0072
   1.2311E+01   1.2611E+01   1.2805E-04  0.0072
   1.2611E+01   1.2918E+01   1.2298E-04  0.0073
   1.2918E+01   1.3232E+01   1.1933E-04  0.0073
   1.3232E+01   1.3554E+01   1.1404E-04  0.0074
   1.3554E+01   1.3884E+01   1.0975E-04  0.0074
   1.3884E+01   1.4222E+01   1.0471E-04  0.0075
   1.4222E+01   1.4568E+01   1.0164E-04  0.0075
   1.4568E+01   1.4922E+01   9.7511E-05  0.0076
   1.4922E+01   1.5285E+01   9.2629E-05  0.0077
   1.5285E+01   1.5657E+01   8.7962E-05  0.0078
   1.5657E+01   1.6038E+01   8.4912E-05  0.0079
   1.6038E+01   1.6428E+01   8.1206E-05  0.0079
   1.6428E+01   1.6828E+01   7.7080E-05  0.0081
   1.6828E+01   1.7237E+01   7.3012E-05  0.0082
   1.7237E+01   1.7657E+01   6.9040E-05  0.0083
   1.7657E+01   1.8086E+01   6.6319E-05  0.0084
   1.8086E+01   1.8526E+01   6.2571E-05  0.0085
   1.8526E+01   1.8977E+01   5.9220E-05  0.0087
   1.8977E+01   1.9439E+01   5.7377E-05  0.0087
   1.9439E+01   1.9912E+01   5.5290E-05  0.0087
   1.9912E+01   2.0396E+01   5.2357E-05  0.0089
   2.0396E+01   2.0893E+01   5.1127E-05  0.0089
   2.0893E+01   2.1401E+01   4.7225E-05  0.0091
   2.1401E+01   2.1922E+01   4.4686E-05  0.0093
   2.1922E+01   2.2455E+01   4.1097E-05  0.0096
   2.2455E+01   2.3001E+01   3.9184E-05  0.0097
   2.3001E+01   2.3561E+01   3.6663E-05  0.0099
   2.3561E+01   2.4134E+01   3.4187E-05  0.0101
   2.4134E+01   2.4721E+01   3.2180E-05  0.0103
   2.4721E+01   2.5323E+01   2.9503E-05  0.0106
   2.5323E+01   2.5939E+01   2.7335E-05  0.0109
   2.5939E+01   2.6570E+01   2.5019E-05  0.0113
   2.6570E+01   2.7217E+01   2.3429E-05  0.0115
   2.7217E+01   2.7879E+01   2.1359E-05  0.0119
   2.7879E+01   2.8557E+01   1.9725E-05  0.0122
   2.8557E+01   2.9252E+01   1.8221E-05  0.0126
   2.9252E+01   2.9964E+01   1.6630E-05  0.0130
   2.9964E+01   3.0693E+01   1.5302E-05  0.0134
   3.0693E+01   3.1440E+01   1.4473E-05  0.0136
   3.1440E+01   3.2205E+01   1.2474E-05  0.0145
   3.2205E+01   3.2988E+01   1.1887E-05  0.0147
   3.2988E+01   3.3791E+01   1.0605E-05  0.0153
   3.3791E+01   3.4613E+01   9.9981E-06  0.0156
   3.4613E+01   3.5455E+01   8.7418E-06  0.0165
   3.5455E+01   3.6318E+01   7.8572E-06  0.0172
   3.6318E+01   3.7201E+01   6.9734E-06  0.0180
   3.7201E+01   3.8106E+01   6.4012E-06  0.0186
   3.8106E+01   3.9034E+01   6.0292E-06  0.0189
   3.9034E+01   3.9983E+01   5.4142E-06  0.0197
   3.9983E+01   4.0956E+01   4.7696E-06  0.0208
   4.0956E+01   4.1953E+01   4.2930E-06  0.0216
   4.1953E+01   4.2973E+01   3.7522E-06  0.0229
   4.2973E+01   4.4019E+01   3.4488E-06  0.0236
   4.4019E+01   4.5090E+01   2.9150E-06  0.0253
   4.5090E+01   4.6187E+01   2.6507E-06  0.0262
   4.6187E+01   4.7311E+01   2.3243E-06  0.0277
   4.7311E+01   4.8462E+01   2.0207E-06  0.0293
   4.8462E+01   4.9641E+01   1.8064E-06  0.0306
   4.9641E+01   5.0849E+01   1.3496E-06  0.0350
   5.0849E+01   5.2086E+01   1.1348E-06  0.0377
   5.2086E+01   5.3353E+01   8.8377E-07  0.0423
   5.3353E+01   5.4651E+01   7.2566E-07  0.0461
   5.4651E+01   5.5981E+01   5.9261E-07  0.0504
   5.5981E+01   5.7343E+01   4.8749E-07  0.0549
   5.7343E+01   5.8738E+01   4.2144E-07  0.0583
   5.8738E+01   6.0168E+01   2.9108E-07  0.0693
   6.0168E+01   6.1632E+01   2.3089E-07  0.0769
   6.1632E+01   6.3131E+01   1.6938E-07  0.0887
   6.3131E+01   6.4667E+01   1.1979E-07  0.1043
   6.4667E+01   6.6240E+01   7.6268E-08  0.1291
   6.6240E+01   6.7852E+01   5.0878E-08  0.1562
   6.7852E+01   6.9503E+01   2.1806E-08  0.2357
   6.9503E+01   7.1194E+01   1.0644E-08  0.3333
   7.1194E+01   7.2926E+01   2.3092E-09  0.7071
   7.2926E+01   7.4701E+01   0.0000E+00  0.0000
   7.4701E+01   7.6518E+01   0.0000E+00  0.0000
   7.6518E+01   7.8380E+01   0.0000E+00  0.0000
   7.8380E+01   8.0287E+01   0.0000E+00  0.0000
   8.0287E+01   8.2240E+01   0.0000E+00  0.0000
   8.2240E+01   8.4241E+01   0.0000E+00  0.0000
   8.4241E+01   8.6291E+01   0.0000E+00  0.0000
   8.6291E+01   8.8391E+01   0.0000E+00  0.0000
   8.8391E+01   9.0541E+01   0.0000E+00  0.0000
   9.0541E+01   9.2744E+01   0.0000E+00  0.0000
   9.2744E+01   9.5001E+01   0.0000E+00  0.0000
   9.5001E+01   9.7312E+01   0.0000E+00  0.0000
   9.7312E+01   9.9680E+01   0.0000E+00  0.0000
   9.9680E+01   1.0211E+02   0.0000E+00  0.0000
   1.0211E+02   1.0459E+02   0.0000E+00  0.0000
   1.0459E+02   1.0713E+02   0.0000E+00  0.0000
   1.0713E+02   1.0974E+02   0.0000E+00  0.0000
   1.0974E+02   1.1241E+02   0.0000E+00  0.0000
   1.1241E+02   1.1515E+02   0.0000E+00  0.0000
   1.1515E+02   1.1795E+02   0.0000E+00  0.0000
   1.1795E+02   1.2082E+02   0.0000E+00  0.0000
   1.2082E+02   1.2376E+02   0.0000E+00  0.0000
   1.2376E+02   1.2677E+02   0.0000E+00  0.0000
   1.2677E+02   1.2985E+02   0.0000E+00  0.0000
   1.2985E+02   1.3301E+02   0.0000E+00  0.0000
   1.3301E+02   1.3625E+02   0.0000E+00  0.0000
   1.3625E+02   1.3956E+02   0.0000E+00  0.0000
   1.3956E+02   1.4296E+02   0.0000E+00  0.0000
   1.4296E+02   1.4644E+02   0.0000E+00  0.0000
   1.4644E+02   1.5000E+02   0.0000E+00  0.0000

#   sum over                 3.5330E-05
'no. =    1   reg = 111 - 211'
msuc: {\huge [t-cross] in region mesh}
msdr: {\it plotted by \ANGEL \version}
msdl: {\it calculated by \PHITS  3.26}
wt: s(0.7)
\vspace{-3}
  region surface crossing
  area  &=&   1.0000E+00 [cm^2]
e:
 
# Information for Restart Calculation
# This calculation was newly started
# istdev =  2 # 1:Batch variance, 2:History variance
# resc2  = 5.00000000000000000E+08 # Total source weight or Total source weight / maxcas
# resc3  = 5.00000000000000000E+08 # Total history number or Total batch number
# maxcas =   500000000 # History / Batch, only used for istdev=1
# bitrseed = 1101101111010011011000101101110001100110110010110001010100010001 # bit data of rseed
