6 <--- number of remaining batches 

-------------------------------------------------------------------------------
bat[       4] ncas =     2000000000.
 bitrseed = 0000010101110101110110100110011001100101000001100111100100101101
          cpu time =   9 h. 27 m. 57.37 s.

 date = 2022-05-31
 time = 02h 28m 31s

