[ T-Cross ]
    title = [t-cross] in region mesh
     mesh =  reg            # mesh type is region-wise
      reg =    1            # number of crossing regions
      non     r-from    r-to       area
      1       126       226        1.000000    
   e-type =    3            # e-mesh is log given by emin, emax and ne
     emin =  1.0000000E-02  # minimum value of e-mesh points
     emax =   150.0000      # maximum value of e-mesh points
#    edel =  2.4039514E-02  # mesh width of e-mesh points
       ne =    400          # number of e-mesh points
#    data = ( e(i), i = 1, ne + 1 )
#           1.00000E-02  1.02433E-02  1.04925E-02  1.07478E-02  1.10093E-02
#           1.12772E-02  1.15516E-02  1.18326E-02  1.21205E-02  1.24154E-02
#           1.27175E-02  1.30269E-02  1.33439E-02  1.36686E-02  1.40011E-02
#           1.43418E-02  1.46907E-02  1.50482E-02  1.54143E-02  1.57894E-02
#           1.61735E-02  1.65670E-02  1.69701E-02  1.73830E-02  1.78060E-02
#           1.82392E-02  1.86830E-02  1.91375E-02  1.96032E-02  2.00801E-02
#           2.05687E-02  2.10692E-02  2.15818E-02  2.21069E-02  2.26448E-02
#           2.31957E-02  2.37601E-02  2.43382E-02  2.49304E-02  2.55369E-02
#           2.61583E-02  2.67947E-02  2.74467E-02  2.81145E-02  2.87985E-02
#           2.94992E-02  3.02169E-02  3.09521E-02  3.17052E-02  3.24766E-02
#           3.32668E-02  3.40762E-02  3.49053E-02  3.57546E-02  3.66246E-02
#           3.75157E-02  3.84284E-02  3.93634E-02  4.03212E-02  4.13022E-02
#           4.23071E-02  4.33365E-02  4.43909E-02  4.54710E-02  4.65773E-02
#           4.77106E-02  4.88714E-02  5.00605E-02  5.12785E-02  5.25262E-02
#           5.38042E-02  5.51133E-02  5.64542E-02  5.78278E-02  5.92348E-02
#           6.06760E-02  6.21523E-02  6.36645E-02  6.52135E-02  6.68002E-02
#           6.84255E-02  7.00904E-02  7.17957E-02  7.35426E-02  7.53319E-02
#           7.71648E-02  7.90423E-02  8.09655E-02  8.29354E-02  8.49533E-02
#           8.70203E-02  8.91376E-02  9.13064E-02  9.35279E-02  9.58035E-02
#           9.81345E-02  1.00522E-01  1.02968E-01  1.05473E-01  1.08040E-01
#           1.10668E-01  1.13361E-01  1.16119E-01  1.18944E-01  1.21838E-01
#           1.24803E-01  1.27839E-01  1.30950E-01  1.34136E-01  1.37399E-01
#           1.40742E-01  1.44167E-01  1.47675E-01  1.51268E-01  1.54948E-01
#           1.58718E-01  1.62580E-01  1.66535E-01  1.70587E-01  1.74738E-01
#           1.78989E-01  1.83344E-01  1.87805E-01  1.92375E-01  1.97055E-01
#           2.01850E-01  2.06761E-01  2.11792E-01  2.16945E-01  2.22223E-01
#           2.27630E-01  2.33169E-01  2.38842E-01  2.44653E-01  2.50605E-01
#           2.56703E-01  2.62949E-01  2.69346E-01  2.75900E-01  2.82613E-01
#           2.89489E-01  2.96532E-01  3.03747E-01  3.11138E-01  3.18708E-01
#           3.26462E-01  3.34405E-01  3.42542E-01  3.50876E-01  3.59413E-01
#           3.68158E-01  3.77116E-01  3.86291E-01  3.95690E-01  4.05317E-01
#           4.15179E-01  4.25281E-01  4.35628E-01  4.46227E-01  4.57084E-01
#           4.68205E-01  4.79597E-01  4.91266E-01  5.03219E-01  5.15463E-01
#           5.28005E-01  5.40851E-01  5.54011E-01  5.67490E-01  5.81298E-01
#           5.95441E-01  6.09929E-01  6.24769E-01  6.39970E-01  6.55541E-01
#           6.71491E-01  6.87828E-01  7.04564E-01  7.21706E-01  7.39266E-01
#           7.57253E-01  7.75678E-01  7.94551E-01  8.13883E-01  8.33685E-01
#           8.53969E-01  8.74747E-01  8.96030E-01  9.17831E-01  9.40163E-01
#           9.63038E-01  9.86469E-01  1.01047E+00  1.03506E+00  1.06024E+00
#           1.08604E+00  1.11246E+00  1.13953E+00  1.16725E+00  1.19565E+00
#           1.22474E+00  1.25454E+00  1.28507E+00  1.31633E+00  1.34836E+00
#           1.38117E+00  1.41477E+00  1.44920E+00  1.48446E+00  1.52057E+00
#           1.55757E+00  1.59547E+00  1.63429E+00  1.67405E+00  1.71478E+00
#           1.75650E+00  1.79924E+00  1.84302E+00  1.88786E+00  1.93379E+00
#           1.98084E+00  2.02904E+00  2.07841E+00  2.12898E+00  2.18078E+00
#           2.23384E+00  2.28819E+00  2.34386E+00  2.40089E+00  2.45930E+00
#           2.51914E+00  2.58043E+00  2.64322E+00  2.70753E+00  2.77341E+00
#           2.84088E+00  2.91001E+00  2.98081E+00  3.05333E+00  3.12762E+00
#           3.20372E+00  3.28167E+00  3.36152E+00  3.44330E+00  3.52708E+00
#           3.61290E+00  3.70080E+00  3.79085E+00  3.88308E+00  3.97756E+00
#           4.07434E+00  4.17347E+00  4.27501E+00  4.37903E+00  4.48557E+00
#           4.59471E+00  4.70650E+00  4.82102E+00  4.93832E+00  5.05847E+00
#           5.18155E+00  5.30762E+00  5.43676E+00  5.56904E+00  5.70453E+00
#           5.84333E+00  5.98550E+00  6.13114E+00  6.28031E+00  6.43312E+00
#           6.58964E+00  6.74997E+00  6.91420E+00  7.08243E+00  7.25475E+00
#           7.43126E+00  7.61207E+00  7.79728E+00  7.98700E+00  8.18133E+00
#           8.38038E+00  8.58428E+00  8.79315E+00  9.00709E+00  9.22624E+00
#           9.45072E+00  9.68067E+00  9.91620E+00  1.01575E+01  1.04046E+01
#           1.06578E+01  1.09171E+01  1.11827E+01  1.14548E+01  1.17335E+01
#           1.20190E+01  1.23114E+01  1.26109E+01  1.29178E+01  1.32321E+01
#           1.35540E+01  1.38838E+01  1.42216E+01  1.45676E+01  1.49221E+01
#           1.52851E+01  1.56570E+01  1.60380E+01  1.64282E+01  1.68279E+01
#           1.72374E+01  1.76568E+01  1.80864E+01  1.85264E+01  1.89772E+01
#           1.94389E+01  1.99119E+01  2.03963E+01  2.08926E+01  2.14009E+01
#           2.19216E+01  2.24550E+01  2.30014E+01  2.35610E+01  2.41343E+01
#           2.47215E+01  2.53230E+01  2.59391E+01  2.65702E+01  2.72167E+01
#           2.78789E+01  2.85572E+01  2.92520E+01  2.99637E+01  3.06928E+01
#           3.14396E+01  3.22045E+01  3.29881E+01  3.37907E+01  3.46128E+01
#           3.54550E+01  3.63177E+01  3.72013E+01  3.81064E+01  3.90336E+01
#           3.99833E+01  4.09561E+01  4.19526E+01  4.29734E+01  4.40189E+01
#           4.50900E+01  4.61870E+01  4.73108E+01  4.84619E+01  4.96410E+01
#           5.08488E+01  5.20860E+01  5.33533E+01  5.46514E+01  5.59812E+01
#           5.73432E+01  5.87384E+01  6.01676E+01  6.16315E+01  6.31311E+01
#           6.46671E+01  6.62405E+01  6.78522E+01  6.95031E+01  7.11941E+01
#           7.29263E+01  7.47007E+01  7.65182E+01  7.83800E+01  8.02870E+01
#           8.22405E+01  8.42414E+01  8.62911E+01  8.83906E+01  9.05412E+01
#           9.27442E+01  9.50007E+01  9.73122E+01  9.96799E+01  1.02105E+02
#           1.04589E+02  1.07134E+02  1.09741E+02  1.12411E+02  1.15146E+02
#           1.17948E+02  1.20817E+02  1.23757E+02  1.26768E+02  1.29852E+02
#           1.33012E+02  1.36248E+02  1.39563E+02  1.42959E+02  1.46437E+02
#           1.50000E+02
     unit =    2            # unit is [1/cm^2/(MeV/n)/source]
     axis =  eng            # axis of output
     file = detector-27.out  # file name of output for the above axis
   output = f-curr          # surface crossing forward current spectrum
     part =  neutron  
# kf/name :  2112     
#    used :        main (  %)        temp (  %)       total (  %)
#  memory :         414 (  0)           0 (  0)         414 (  0)

#------------------------------------------------------------------------------
#newpage:
#   no. =    1   reg = 126 - 226

x: Energy [MeV/n]
y:  F-Curr [1/cm^2/(MeV/n)/source]         
p: xlog ylog afac(0.8) form(0.9)
h: n            x            y(neutron ),hh0l   n 
#  e-lower      e-upper      neutron     r.err 
   1.0000E-02   1.0243E-02   6.9624E-03  0.0344
   1.0243E-02   1.0493E-02   6.8933E-03  0.0341
   1.0493E-02   1.0748E-02   6.7844E-03  0.0340
   1.0748E-02   1.1009E-02   6.5162E-03  0.0343
   1.1009E-02   1.1277E-02   6.4697E-03  0.0340
   1.1277E-02   1.1552E-02   6.6549E-03  0.0331
   1.1552E-02   1.1833E-02   6.2193E-03  0.0338
   1.1833E-02   1.2121E-02   6.2731E-03  0.0333
   1.2121E-02   1.2415E-02   5.8392E-03  0.0341
   1.2415E-02   1.2718E-02   6.1044E-03  0.0329
   1.2718E-02   1.3027E-02   6.1275E-03  0.0325
   1.3027E-02   1.3344E-02   5.6727E-03  0.0334
   1.3344E-02   1.3669E-02   5.5072E-03  0.0334
   1.3669E-02   1.4001E-02   5.3764E-03  0.0334
   1.4001E-02   1.4342E-02   5.5481E-03  0.0325
   1.4342E-02   1.4691E-02   5.4106E-03  0.0325
   1.4691E-02   1.5048E-02   5.0526E-03  0.0333
   1.5048E-02   1.5414E-02   4.9872E-03  0.0331
   1.5414E-02   1.5789E-02   4.9168E-03  0.0329
   1.5789E-02   1.6174E-02   4.6646E-03  0.0334
   1.6174E-02   1.6567E-02   4.8080E-03  0.0325
   1.6567E-02   1.6970E-02   4.8575E-03  0.0320
   1.6970E-02   1.7383E-02   4.7227E-03  0.0320
   1.7383E-02   1.7806E-02   4.5916E-03  0.0321
   1.7806E-02   1.8239E-02   4.4410E-03  0.0322
   1.8239E-02   1.8683E-02   4.3446E-03  0.0322
   1.8683E-02   1.9138E-02   4.2810E-03  0.0321
   1.9138E-02   1.9603E-02   4.1363E-03  0.0322
   1.9603E-02   2.0080E-02   3.9416E-03  0.0326
   2.0080E-02   2.0569E-02   3.8521E-03  0.0326
   2.0569E-02   2.1069E-02   4.0723E-03  0.0313
   2.1069E-02   2.1582E-02   4.0107E-03  0.0312
   2.1582E-02   2.2107E-02   3.8621E-03  0.0314
   2.2107E-02   2.2645E-02   3.9433E-03  0.0307
   2.2645E-02   2.3196E-02   3.8877E-03  0.0306
   2.3196E-02   2.3760E-02   3.6855E-03  0.0310
   2.3760E-02   2.4338E-02   3.7433E-03  0.0304
   2.4338E-02   2.4930E-02   3.5463E-03  0.0309
   2.4930E-02   2.5537E-02   3.3467E-03  0.0314
   2.5537E-02   2.6158E-02   3.5472E-03  0.0301
   2.6158E-02   2.6795E-02   3.4064E-03  0.0304
   2.6795E-02   2.7447E-02   3.2426E-03  0.0308
   2.7447E-02   2.8114E-02   3.1536E-03  0.0308
   2.8114E-02   2.8799E-02   3.1781E-03  0.0303
   2.8799E-02   2.9499E-02   3.2539E-03  0.0296
   2.9499E-02   3.0217E-02   3.1293E-03  0.0298
   3.0217E-02   3.0952E-02   2.9352E-03  0.0304
   3.0952E-02   3.1705E-02   2.9611E-03  0.0299
   3.1705E-02   3.2477E-02   2.9038E-03  0.0299
   3.2477E-02   3.3267E-02   3.0069E-03  0.0290
   3.3267E-02   3.4076E-02   2.7823E-03  0.0298
   3.4076E-02   3.4905E-02   2.8428E-03  0.0291
   3.4905E-02   3.5755E-02   2.6870E-03  0.0296
   3.5755E-02   3.6625E-02   2.6439E-03  0.0295
   3.6625E-02   3.7516E-02   2.6978E-03  0.0288
   3.7516E-02   3.8428E-02   2.5789E-03  0.0291
   3.8428E-02   3.9363E-02   2.5540E-03  0.0289
   3.9363E-02   4.0321E-02   2.4683E-03  0.0291
   4.0321E-02   4.1302E-02   2.3771E-03  0.0293
   4.1302E-02   4.2307E-02   2.4738E-03  0.0284
   4.2307E-02   4.3337E-02   2.3490E-03  0.0288
   4.3337E-02   4.4391E-02   2.1007E-03  0.0300
   4.4391E-02   4.5471E-02   2.2147E-03  0.0289
   4.5471E-02   4.6577E-02   2.1874E-03  0.0287
   4.6577E-02   4.7711E-02   2.0790E-03  0.0291
   4.7711E-02   4.8871E-02   2.0037E-03  0.0293
   4.8871E-02   5.0061E-02   2.2000E-03  0.0277
   5.0061E-02   5.1279E-02   2.1428E-03  0.0277
   5.1279E-02   5.2526E-02   1.9942E-03  0.0284
   5.2526E-02   5.3804E-02   2.0070E-03  0.0279
   5.3804E-02   5.5113E-02   1.9464E-03  0.0280
   5.5113E-02   5.6454E-02   1.9956E-03  0.0273
   5.6454E-02   5.7828E-02   1.8608E-03  0.0280
   5.7828E-02   5.9235E-02   1.8195E-03  0.0280
   5.9235E-02   6.0676E-02   1.8762E-03  0.0272
   6.0676E-02   6.2152E-02   1.7910E-03  0.0275
   6.2152E-02   6.3665E-02   1.7908E-03  0.0272
   6.3665E-02   6.5214E-02   1.7715E-03  0.0270
   6.5214E-02   6.6800E-02   1.7470E-03  0.0269
   6.6800E-02   6.8426E-02   1.5197E-03  0.0285
   6.8426E-02   7.0090E-02   1.6050E-03  0.0274
   7.0090E-02   7.1796E-02   1.5797E-03  0.0272
   7.1796E-02   7.3543E-02   1.5250E-03  0.0274
   7.3543E-02   7.5332E-02   1.4966E-03  0.0273
   7.5332E-02   7.7165E-02   1.4742E-03  0.0272
   7.7165E-02   7.9042E-02   1.4386E-03  0.0272
   7.9042E-02   8.0965E-02   1.4913E-03  0.0264
   8.0965E-02   8.2935E-02   1.4346E-03  0.0266
   8.2935E-02   8.4953E-02   1.4163E-03  0.0265
   8.4953E-02   8.7020E-02   1.3188E-03  0.0271
   8.7020E-02   8.9138E-02   1.3234E-03  0.0267
   8.9138E-02   9.1306E-02   1.2735E-03  0.0269
   9.1306E-02   9.3528E-02   1.3360E-03  0.0260
   9.3528E-02   9.5804E-02   1.3324E-03  0.0257
   9.5804E-02   9.8134E-02   1.3402E-03  0.0253
   9.8134E-02   1.0052E-01   1.3084E-03  0.0253
   1.0052E-01   1.0297E-01   1.2004E-03  0.0261
   1.0297E-01   1.0547E-01   1.2645E-03  0.0251
   1.0547E-01   1.0804E-01   1.2360E-03  0.0251
   1.0804E-01   1.1067E-01   1.1702E-03  0.0255
   1.1067E-01   1.1336E-01   1.1907E-03  0.0250
   1.1336E-01   1.1612E-01   1.0986E-03  0.0257
   1.1612E-01   1.1894E-01   1.1135E-03  0.0252
   1.1894E-01   1.2184E-01   1.0885E-03  0.0252
   1.2184E-01   1.2480E-01   1.0498E-03  0.0254
   1.2480E-01   1.2784E-01   1.0262E-03  0.0253
   1.2784E-01   1.3095E-01   9.9600E-04  0.0254
   1.3095E-01   1.3414E-01   1.0232E-03  0.0248
   1.3414E-01   1.3740E-01   9.9092E-04  0.0249
   1.3740E-01   1.4074E-01   9.8324E-04  0.0247
   1.4074E-01   1.4417E-01   1.0034E-03  0.0241
   1.4417E-01   1.4767E-01   9.2768E-04  0.0248
   1.4767E-01   1.5127E-01   9.5852E-04  0.0241
   1.5127E-01   1.5495E-01   9.0587E-04  0.0245
   1.5495E-01   1.5872E-01   8.9920E-04  0.0243
   1.5872E-01   1.6258E-01   9.0633E-04  0.0239
   1.6258E-01   1.6654E-01   8.7115E-04  0.0241
   1.6654E-01   1.7059E-01   8.7069E-04  0.0238
   1.7059E-01   1.7474E-01   8.6977E-04  0.0235
   1.7474E-01   1.7899E-01   8.3029E-04  0.0238
   1.7899E-01   1.8334E-01   8.3675E-04  0.0234
   1.8334E-01   1.8781E-01   8.4019E-04  0.0231
   1.8781E-01   1.9237E-01   7.6508E-04  0.0239
   1.9237E-01   1.9706E-01   7.4776E-04  0.0239
   1.9706E-01   2.0185E-01   7.7547E-04  0.0232
   2.0185E-01   2.0676E-01   7.4483E-04  0.0234
   2.0676E-01   2.1179E-01   7.1919E-04  0.0235
   2.1179E-01   2.1694E-01   7.3975E-04  0.0229
   2.1694E-01   2.2222E-01   7.2143E-04  0.0229
   2.2222E-01   2.2763E-01   6.9541E-04  0.0231
   2.2763E-01   2.3317E-01   6.6553E-04  0.0233
   2.3317E-01   2.3884E-01   6.8286E-04  0.0227
   2.3884E-01   2.4465E-01   6.7008E-04  0.0227
   2.4465E-01   2.5061E-01   6.6458E-04  0.0225
   2.5061E-01   2.5670E-01   6.6520E-04  0.0222
   2.5670E-01   2.6295E-01   6.4331E-04  0.0223
   2.6295E-01   2.6935E-01   6.2366E-04  0.0224
   2.6935E-01   2.7590E-01   5.9480E-04  0.0227
   2.7590E-01   2.8261E-01   5.9885E-04  0.0223
   2.8261E-01   2.8949E-01   5.7823E-04  0.0224
   2.8949E-01   2.9653E-01   5.8437E-04  0.0220
   2.9653E-01   3.0375E-01   5.8241E-04  0.0218
   3.0375E-01   3.1114E-01   5.5044E-04  0.0222
   3.1114E-01   3.1871E-01   5.3525E-04  0.0222
   3.1871E-01   3.2646E-01   5.1790E-04  0.0223
   3.2646E-01   3.3441E-01   5.1428E-04  0.0221
   3.3441E-01   3.4254E-01   5.2407E-04  0.0217
   3.4254E-01   3.5088E-01   5.0298E-04  0.0219
   3.5088E-01   3.5941E-01   5.1587E-04  0.0213
   3.5941E-01   3.6816E-01   4.8440E-04  0.0217
   3.6816E-01   3.7712E-01   4.5146E-04  0.0222
   3.7712E-01   3.8629E-01   4.7452E-04  0.0215
   3.8629E-01   3.9569E-01   4.6070E-04  0.0215
   3.9569E-01   4.0532E-01   4.5370E-04  0.0214
   4.0532E-01   4.1518E-01   4.3765E-04  0.0215
   4.1518E-01   4.2528E-01   4.1855E-04  0.0218
   4.2528E-01   4.3563E-01   4.1421E-04  0.0216
   4.3563E-01   4.4623E-01   4.0550E-04  0.0216
   4.4623E-01   4.5708E-01   4.0315E-04  0.0214
   4.5708E-01   4.6821E-01   3.9240E-04  0.0214
   4.6821E-01   4.7960E-01   3.9133E-04  0.0212
   4.7960E-01   4.9127E-01   3.8118E-04  0.0212
   4.9127E-01   5.0322E-01   3.6912E-04  0.0213
   5.0322E-01   5.1546E-01   3.6721E-04  0.0211
   5.1546E-01   5.2800E-01   3.4589E-04  0.0215
   5.2800E-01   5.4085E-01   3.3580E-04  0.0215
   5.4085E-01   5.5401E-01   3.3011E-04  0.0215
   5.5401E-01   5.6749E-01   3.2969E-04  0.0212
   5.6749E-01   5.8130E-01   3.1114E-04  0.0216
   5.8130E-01   5.9544E-01   3.1039E-04  0.0213
   5.9544E-01   6.0993E-01   3.0902E-04  0.0211
   6.0993E-01   6.2477E-01   2.9730E-04  0.0213
   6.2477E-01   6.3997E-01   2.8919E-04  0.0213
   6.3997E-01   6.5554E-01   2.8707E-04  0.0212
   6.5554E-01   6.7149E-01   2.7110E-04  0.0215
   6.7149E-01   6.8783E-01   2.6552E-04  0.0215
   6.8783E-01   7.0456E-01   2.4822E-04  0.0220
   7.0456E-01   7.2171E-01   2.4115E-04  0.0220
   7.2171E-01   7.3927E-01   2.4408E-04  0.0216
   7.3927E-01   7.5725E-01   2.2850E-04  0.0221
   7.5725E-01   7.7568E-01   2.2633E-04  0.0219
   7.7568E-01   7.9455E-01   2.1735E-04  0.0221
   7.9455E-01   8.1388E-01   2.1312E-04  0.0221
   8.1388E-01   8.3368E-01   2.0674E-04  0.0221
   8.3368E-01   8.5397E-01   2.0509E-04  0.0219
   8.5397E-01   8.7475E-01   1.9194E-04  0.0224
   8.7475E-01   8.9603E-01   1.8230E-04  0.0227
   8.9603E-01   9.1783E-01   1.6889E-04  0.0233
   9.1783E-01   9.4016E-01   1.7101E-04  0.0229
   9.4016E-01   9.6304E-01   1.5939E-04  0.0234
   9.6304E-01   9.8647E-01   1.5381E-04  0.0236
   9.8647E-01   1.0105E+00   1.4441E-04  0.0240
   1.0105E+00   1.0351E+00   1.5277E-04  0.0231
   1.0351E+00   1.0602E+00   1.5367E-04  0.0227
   1.0602E+00   1.0860E+00   1.5134E-04  0.0226
   1.0860E+00   1.1125E+00   1.5433E-04  0.0221
   1.1125E+00   1.1395E+00   1.6042E-04  0.0215
   1.1395E+00   1.1673E+00   1.5928E-04  0.0213
   1.1673E+00   1.1957E+00   1.6458E-04  0.0207
   1.1957E+00   1.2247E+00   1.7345E-04  0.0199
   1.2247E+00   1.2545E+00   1.7571E-04  0.0196
   1.2545E+00   1.2851E+00   1.7580E-04  0.0193
   1.2851E+00   1.3163E+00   1.7418E-04  0.0192
   1.3163E+00   1.3484E+00   1.8035E-04  0.0186
   1.3484E+00   1.3812E+00   1.8015E-04  0.0184
   1.3812E+00   1.4148E+00   1.8884E-04  0.0178
   1.4148E+00   1.4492E+00   1.8523E-04  0.0177
   1.4492E+00   1.4845E+00   1.8854E-04  0.0173
   1.4845E+00   1.5206E+00   1.8833E-04  0.0171
   1.5206E+00   1.5576E+00   1.8239E-04  0.0172
   1.5576E+00   1.5955E+00   1.8197E-04  0.0170
   1.5955E+00   1.6343E+00   1.8604E-04  0.0167
   1.6343E+00   1.6741E+00   1.9219E-04  0.0162
   1.6741E+00   1.7148E+00   1.9116E-04  0.0160
   1.7148E+00   1.7565E+00   1.8920E-04  0.0159
   1.7565E+00   1.7992E+00   1.8930E-04  0.0157
   1.7992E+00   1.8430E+00   1.8416E-04  0.0158
   1.8430E+00   1.8879E+00   1.8590E-04  0.0155
   1.8879E+00   1.9338E+00   1.8967E-04  0.0152
   1.9338E+00   1.9808E+00   1.9056E-04  0.0149
   1.9808E+00   2.0290E+00   1.8732E-04  0.0149
   2.0290E+00   2.0784E+00   1.7700E-04  0.0151
   2.0784E+00   2.1290E+00   1.7995E-04  0.0148
   2.1290E+00   2.1808E+00   1.7373E-04  0.0149
   2.1808E+00   2.2338E+00   1.7414E-04  0.0147
   2.2338E+00   2.2882E+00   1.6956E-04  0.0147
   2.2882E+00   2.3439E+00   1.6949E-04  0.0146
   2.3439E+00   2.4009E+00   1.6269E-04  0.0147
   2.4009E+00   2.4593E+00   1.6110E-04  0.0146
   2.4593E+00   2.5191E+00   1.5882E-04  0.0145
   2.5191E+00   2.5804E+00   1.5522E-04  0.0145
   2.5804E+00   2.6432E+00   1.4093E-04  0.0150
   2.6432E+00   2.7075E+00   1.4436E-04  0.0147
   2.7075E+00   2.7734E+00   1.4090E-04  0.0147
   2.7734E+00   2.8409E+00   1.4001E-04  0.0145
   2.8409E+00   2.9100E+00   1.3241E-04  0.0148
   2.9100E+00   2.9808E+00   1.2983E-04  0.0148
   2.9808E+00   3.0533E+00   1.2924E-04  0.0146
   3.0533E+00   3.1276E+00   1.2134E-04  0.0149
   3.1276E+00   3.2037E+00   1.1538E-04  0.0151
   3.2037E+00   3.2817E+00   1.0770E-04  0.0154
   3.2817E+00   3.3615E+00   1.0633E-04  0.0153
   3.3615E+00   3.4433E+00   1.0019E-04  0.0156
   3.4433E+00   3.5271E+00   9.4201E-05  0.0159
   3.5271E+00   3.6129E+00   9.4352E-05  0.0157
   3.6129E+00   3.7008E+00   9.0211E-05  0.0159
   3.7008E+00   3.7908E+00   8.3915E-05  0.0163
   3.7908E+00   3.8831E+00   8.0057E-05  0.0165
   3.8831E+00   3.9776E+00   7.7711E-05  0.0165
   3.9776E+00   4.0743E+00   7.0781E-05  0.0171
   4.0743E+00   4.1735E+00   6.8515E-05  0.0172
   4.1735E+00   4.2750E+00   6.3342E-05  0.0176
   4.2750E+00   4.3790E+00   5.9799E-05  0.0179
   4.3790E+00   4.4856E+00   5.4324E-05  0.0186
   4.4856E+00   4.5947E+00   5.2484E-05  0.0187
   4.5947E+00   4.7065E+00   4.8429E-05  0.0192
   4.7065E+00   4.8210E+00   4.4554E-05  0.0198
   4.8210E+00   4.9383E+00   4.3956E-05  0.0197
   4.9383E+00   5.0585E+00   3.8967E-05  0.0207
   5.0585E+00   5.1815E+00   3.7765E-05  0.0207
   5.1815E+00   5.3076E+00   3.4917E-05  0.0213
   5.3076E+00   5.4368E+00   3.1509E-05  0.0222
   5.4368E+00   5.5690E+00   2.9649E-05  0.0226
   5.5690E+00   5.7045E+00   2.7425E-05  0.0232
   5.7045E+00   5.8433E+00   2.4965E-05  0.0240
   5.8433E+00   5.9855E+00   2.2466E-05  0.0250
   5.9855E+00   6.1311E+00   2.1795E-05  0.0251
   6.1311E+00   6.2803E+00   1.9601E-05  0.0262
   6.2803E+00   6.4331E+00   1.7814E-05  0.0271
   6.4331E+00   6.5896E+00   1.6547E-05  0.0278
   6.5896E+00   6.7500E+00   1.4476E-05  0.0294
   6.7500E+00   6.9142E+00   1.3670E-05  0.0298
   6.9142E+00   7.0824E+00   1.2602E-05  0.0307
   7.0824E+00   7.2548E+00   1.1397E-05  0.0319
   7.2548E+00   7.4313E+00   1.0322E-05  0.0331
   7.4313E+00   7.6121E+00   9.4686E-06  0.0342
   7.6121E+00   7.7973E+00   8.0558E-06  0.0366
   7.7973E+00   7.9870E+00   7.2161E-06  0.0382
   7.9870E+00   8.1813E+00   7.0962E-06  0.0381
   8.1813E+00   8.3804E+00   5.9229E-06  0.0412
   8.3804E+00   8.5843E+00   5.9441E-06  0.0406
   8.5843E+00   8.7931E+00   4.8980E-06  0.0442
   8.7931E+00   9.0071E+00   4.4965E-06  0.0456
   9.0071E+00   9.2262E+00   4.2209E-06  0.0465
   9.2262E+00   9.4507E+00   3.5949E-06  0.0497
   9.4507E+00   9.6807E+00   3.1616E-06  0.0524
   9.6807E+00   9.9162E+00   3.1163E-06  0.0521
   9.9162E+00   1.0157E+01   2.6402E-06  0.0559
   1.0157E+01   1.0405E+01   2.3307E-06  0.0587
   1.0405E+01   1.0658E+01   1.9751E-06  0.0629
   1.0658E+01   1.0917E+01   2.0207E-06  0.0617
   1.0917E+01   1.1183E+01   1.6339E-06  0.0676
   1.1183E+01   1.1455E+01   1.7017E-06  0.0655
   1.1455E+01   1.1733E+01   1.4173E-06  0.0709
   1.1733E+01   1.2019E+01   1.1699E-06  0.0772
   1.2019E+01   1.2311E+01   1.2037E-06  0.0748
   1.2311E+01   1.2611E+01   9.0470E-07  0.0857
   1.2611E+01   1.2918E+01   1.0038E-06  0.0801
   1.2918E+01   1.3232E+01   8.7496E-07  0.0850
   1.3232E+01   1.3554E+01   9.2251E-07  0.0820
   1.3554E+01   1.3884E+01   6.6711E-07  0.0949
   1.3884E+01   1.4222E+01   7.5192E-07  0.0880
   1.4222E+01   1.4568E+01   5.8956E-07  0.0988
   1.4568E+01   1.4922E+01   6.2351E-07  0.0948
   1.4922E+01   1.5285E+01   4.5446E-07  0.1099
   1.5285E+01   1.5657E+01   5.0551E-07  0.1026
   1.5657E+01   1.6038E+01   4.2263E-07  0.1109
   1.6038E+01   1.6428E+01   4.5616E-07  0.1060
   1.6428E+01   1.6828E+01   3.9028E-07  0.1132
   1.6828E+01   1.7237E+01   4.2253E-07  0.1071
   1.7237E+01   1.7657E+01   3.5050E-07  0.1164
   1.7657E+01   1.8086E+01   3.8873E-07  0.1093
   1.8086E+01   1.8526E+01   3.6586E-07  0.1113
   1.8526E+01   1.8977E+01   3.3499E-07  0.1149
   1.8977E+01   1.9439E+01   3.1837E-07  0.1160
   1.9439E+01   1.9912E+01   3.1715E-07  0.1155
   1.9912E+01   2.0396E+01   2.4769E-07  0.1291
   2.0396E+01   2.0893E+01   2.5390E-07  0.1260
   2.0893E+01   2.1401E+01   2.5967E-07  0.1231
   2.1401E+01   2.1922E+01   2.3430E-07  0.1280
   2.1922E+01   2.2455E+01   2.0999E-07  0.1336
   2.2455E+01   2.3001E+01   2.1598E-07  0.1302
   2.3001E+01   2.3561E+01   1.7869E-07  0.1414
   2.3561E+01   2.4134E+01   1.8142E-07  0.1387
   2.4134E+01   2.4721E+01   1.9073E-07  0.1336
   2.4721E+01   2.5323E+01   1.6293E-07  0.1429
   2.5323E+01   2.5939E+01   1.9476E-07  0.1291
   2.5939E+01   2.6570E+01   1.1408E-07  0.1667
   2.6570E+01   2.7217E+01   1.3612E-07  0.1508
   2.7217E+01   2.7879E+01   1.3289E-07  0.1508
   2.7879E+01   2.8557E+01   1.2384E-07  0.1543
   2.8557E+01   2.9252E+01   9.4989E-08  0.1741
   2.9252E+01   2.9964E+01   1.4050E-07  0.1414
   2.9964E+01   3.0693E+01   1.2071E-07  0.1508
   3.0693E+01   3.1440E+01   9.6414E-08  0.1667
   3.1440E+01   3.2205E+01   1.0720E-07  0.1562
   3.2205E+01   3.2988E+01   9.6993E-08  0.1622
   3.2988E+01   3.3791E+01   8.4722E-08  0.1715
   3.3791E+01   3.4613E+01   8.5142E-08  0.1690
   3.4613E+01   3.5455E+01   8.7869E-08  0.1644
   3.5455E+01   3.6318E+01   8.3464E-08  0.1667
   3.6318E+01   3.7201E+01   4.5267E-08  0.2236
   3.7201E+01   3.8106E+01   6.6288E-08  0.1826
   3.8106E+01   3.9034E+01   4.7457E-08  0.2132
   3.9034E+01   3.9983E+01   4.6330E-08  0.2132
   3.9983E+01   4.0956E+01   3.0838E-08  0.2582
   4.0956E+01   4.1953E+01   4.0141E-08  0.2236
   4.1953E+01   4.2973E+01   2.1553E-08  0.3015
   4.2973E+01   4.4019E+01   3.0605E-08  0.2500
   4.4019E+01   4.5090E+01   2.0541E-08  0.3015
   4.5090E+01   4.6187E+01   2.5522E-08  0.2673
   4.6187E+01   4.7311E+01   1.7797E-08  0.3162
   4.7311E+01   4.8462E+01   2.4324E-08  0.2673
   4.8462E+01   4.9641E+01   1.3569E-08  0.3536
   4.9641E+01   5.0849E+01   1.9871E-08  0.2887
   5.0849E+01   5.2086E+01   1.6166E-08  0.3162
   5.2086E+01   5.3353E+01   1.2625E-08  0.3536
   5.3353E+01   5.4651E+01   1.5407E-08  0.3162
   5.4651E+01   5.5981E+01   9.0245E-09  0.4082
   5.5981E+01   5.7343E+01   4.4051E-09  0.5774
   5.7343E+01   5.8738E+01   7.1674E-09  0.4472
   5.8738E+01   6.0168E+01   2.7989E-09  0.7071
   6.0168E+01   6.1632E+01   4.0986E-09  0.5774
   6.1632E+01   6.3131E+01   2.6675E-09  0.7071
   6.3131E+01   6.4667E+01   3.9062E-09  0.5774
   6.4667E+01   6.6240E+01   5.0845E-09  0.5000
   6.6240E+01   6.7852E+01   2.4819E-09  0.7071
   6.7852E+01   6.9503E+01   2.4229E-09  0.7071
   6.9503E+01   7.1194E+01   0.0000E+00  0.0000
   7.1194E+01   7.2926E+01   1.1546E-09  1.0000
   7.2926E+01   7.4701E+01   0.0000E+00  0.0000
   7.4701E+01   7.6518E+01   0.0000E+00  0.0000
   7.6518E+01   7.8380E+01   0.0000E+00  0.0000
   7.8380E+01   8.0287E+01   0.0000E+00  0.0000
   8.0287E+01   8.2240E+01   0.0000E+00  0.0000
   8.2240E+01   8.4241E+01   0.0000E+00  0.0000
   8.4241E+01   8.6291E+01   0.0000E+00  0.0000
   8.6291E+01   8.8391E+01   0.0000E+00  0.0000
   8.8391E+01   9.0541E+01   0.0000E+00  0.0000
   9.0541E+01   9.2744E+01   0.0000E+00  0.0000
   9.2744E+01   9.5001E+01   0.0000E+00  0.0000
   9.5001E+01   9.7312E+01   0.0000E+00  0.0000
   9.7312E+01   9.9680E+01   0.0000E+00  0.0000
   9.9680E+01   1.0211E+02   0.0000E+00  0.0000
   1.0211E+02   1.0459E+02   0.0000E+00  0.0000
   1.0459E+02   1.0713E+02   0.0000E+00  0.0000
   1.0713E+02   1.0974E+02   0.0000E+00  0.0000
   1.0974E+02   1.1241E+02   0.0000E+00  0.0000
   1.1241E+02   1.1515E+02   0.0000E+00  0.0000
   1.1515E+02   1.1795E+02   0.0000E+00  0.0000
   1.1795E+02   1.2082E+02   0.0000E+00  0.0000
   1.2082E+02   1.2376E+02   0.0000E+00  0.0000
   1.2376E+02   1.2677E+02   0.0000E+00  0.0000
   1.2677E+02   1.2985E+02   0.0000E+00  0.0000
   1.2985E+02   1.3301E+02   0.0000E+00  0.0000
   1.3301E+02   1.3625E+02   0.0000E+00  0.0000
   1.3625E+02   1.3956E+02   0.0000E+00  0.0000
   1.3956E+02   1.4296E+02   0.0000E+00  0.0000
   1.4296E+02   1.4644E+02   0.0000E+00  0.0000
   1.4644E+02   1.5000E+02   0.0000E+00  0.0000

#   sum over                 7.6818E-06
'no. =    1   reg = 126 - 226'
msuc: {\huge [t-cross] in region mesh}
msdr: {\it plotted by \ANGEL \version}
msdl: {\it calculated by \PHITS  3.26}
wt: s(0.7)
\vspace{-3}
  region surface crossing
  area  &=&   1.0000E+00 [cm^2]
e:
 
# Information for Restart Calculation
# This calculation was newly started
# istdev =  2 # 1:Batch variance, 2:History variance
# resc2  = 5.00000000000000000E+08 # Total source weight or Total source weight / maxcas
# resc3  = 5.00000000000000000E+08 # Total history number or Total batch number
# maxcas =   500000000 # History / Batch, only used for istdev=1
# bitrseed = 1101101111010011011000101101110001100110110010110001010100010001 # bit data of rseed
