[ T-Cross ]
    title = [t-cross] in region mesh
     mesh =  reg            # mesh type is region-wise
      reg =    1            # number of crossing regions
      non     r-from    r-to       area
      1       118       218        1.000000    
   e-type =    3            # e-mesh is log given by emin, emax and ne
     emin =  1.0000000E-02  # minimum value of e-mesh points
     emax =   150.0000      # maximum value of e-mesh points
#    edel =  2.4039514E-02  # mesh width of e-mesh points
       ne =    400          # number of e-mesh points
#    data = ( e(i), i = 1, ne + 1 )
#           1.00000E-02  1.02433E-02  1.04925E-02  1.07478E-02  1.10093E-02
#           1.12772E-02  1.15516E-02  1.18326E-02  1.21205E-02  1.24154E-02
#           1.27175E-02  1.30269E-02  1.33439E-02  1.36686E-02  1.40011E-02
#           1.43418E-02  1.46907E-02  1.50482E-02  1.54143E-02  1.57894E-02
#           1.61735E-02  1.65670E-02  1.69701E-02  1.73830E-02  1.78060E-02
#           1.82392E-02  1.86830E-02  1.91375E-02  1.96032E-02  2.00801E-02
#           2.05687E-02  2.10692E-02  2.15818E-02  2.21069E-02  2.26448E-02
#           2.31957E-02  2.37601E-02  2.43382E-02  2.49304E-02  2.55369E-02
#           2.61583E-02  2.67947E-02  2.74467E-02  2.81145E-02  2.87985E-02
#           2.94992E-02  3.02169E-02  3.09521E-02  3.17052E-02  3.24766E-02
#           3.32668E-02  3.40762E-02  3.49053E-02  3.57546E-02  3.66246E-02
#           3.75157E-02  3.84284E-02  3.93634E-02  4.03212E-02  4.13022E-02
#           4.23071E-02  4.33365E-02  4.43909E-02  4.54710E-02  4.65773E-02
#           4.77106E-02  4.88714E-02  5.00605E-02  5.12785E-02  5.25262E-02
#           5.38042E-02  5.51133E-02  5.64542E-02  5.78278E-02  5.92348E-02
#           6.06760E-02  6.21523E-02  6.36645E-02  6.52135E-02  6.68002E-02
#           6.84255E-02  7.00904E-02  7.17957E-02  7.35426E-02  7.53319E-02
#           7.71648E-02  7.90423E-02  8.09655E-02  8.29354E-02  8.49533E-02
#           8.70203E-02  8.91376E-02  9.13064E-02  9.35279E-02  9.58035E-02
#           9.81345E-02  1.00522E-01  1.02968E-01  1.05473E-01  1.08040E-01
#           1.10668E-01  1.13361E-01  1.16119E-01  1.18944E-01  1.21838E-01
#           1.24803E-01  1.27839E-01  1.30950E-01  1.34136E-01  1.37399E-01
#           1.40742E-01  1.44167E-01  1.47675E-01  1.51268E-01  1.54948E-01
#           1.58718E-01  1.62580E-01  1.66535E-01  1.70587E-01  1.74738E-01
#           1.78989E-01  1.83344E-01  1.87805E-01  1.92375E-01  1.97055E-01
#           2.01850E-01  2.06761E-01  2.11792E-01  2.16945E-01  2.22223E-01
#           2.27630E-01  2.33169E-01  2.38842E-01  2.44653E-01  2.50605E-01
#           2.56703E-01  2.62949E-01  2.69346E-01  2.75900E-01  2.82613E-01
#           2.89489E-01  2.96532E-01  3.03747E-01  3.11138E-01  3.18708E-01
#           3.26462E-01  3.34405E-01  3.42542E-01  3.50876E-01  3.59413E-01
#           3.68158E-01  3.77116E-01  3.86291E-01  3.95690E-01  4.05317E-01
#           4.15179E-01  4.25281E-01  4.35628E-01  4.46227E-01  4.57084E-01
#           4.68205E-01  4.79597E-01  4.91266E-01  5.03219E-01  5.15463E-01
#           5.28005E-01  5.40851E-01  5.54011E-01  5.67490E-01  5.81298E-01
#           5.95441E-01  6.09929E-01  6.24769E-01  6.39970E-01  6.55541E-01
#           6.71491E-01  6.87828E-01  7.04564E-01  7.21706E-01  7.39266E-01
#           7.57253E-01  7.75678E-01  7.94551E-01  8.13883E-01  8.33685E-01
#           8.53969E-01  8.74747E-01  8.96030E-01  9.17831E-01  9.40163E-01
#           9.63038E-01  9.86469E-01  1.01047E+00  1.03506E+00  1.06024E+00
#           1.08604E+00  1.11246E+00  1.13953E+00  1.16725E+00  1.19565E+00
#           1.22474E+00  1.25454E+00  1.28507E+00  1.31633E+00  1.34836E+00
#           1.38117E+00  1.41477E+00  1.44920E+00  1.48446E+00  1.52057E+00
#           1.55757E+00  1.59547E+00  1.63429E+00  1.67405E+00  1.71478E+00
#           1.75650E+00  1.79924E+00  1.84302E+00  1.88786E+00  1.93379E+00
#           1.98084E+00  2.02904E+00  2.07841E+00  2.12898E+00  2.18078E+00
#           2.23384E+00  2.28819E+00  2.34386E+00  2.40089E+00  2.45930E+00
#           2.51914E+00  2.58043E+00  2.64322E+00  2.70753E+00  2.77341E+00
#           2.84088E+00  2.91001E+00  2.98081E+00  3.05333E+00  3.12762E+00
#           3.20372E+00  3.28167E+00  3.36152E+00  3.44330E+00  3.52708E+00
#           3.61290E+00  3.70080E+00  3.79085E+00  3.88308E+00  3.97756E+00
#           4.07434E+00  4.17347E+00  4.27501E+00  4.37903E+00  4.48557E+00
#           4.59471E+00  4.70650E+00  4.82102E+00  4.93832E+00  5.05847E+00
#           5.18155E+00  5.30762E+00  5.43676E+00  5.56904E+00  5.70453E+00
#           5.84333E+00  5.98550E+00  6.13114E+00  6.28031E+00  6.43312E+00
#           6.58964E+00  6.74997E+00  6.91420E+00  7.08243E+00  7.25475E+00
#           7.43126E+00  7.61207E+00  7.79728E+00  7.98700E+00  8.18133E+00
#           8.38038E+00  8.58428E+00  8.79315E+00  9.00709E+00  9.22624E+00
#           9.45072E+00  9.68067E+00  9.91620E+00  1.01575E+01  1.04046E+01
#           1.06578E+01  1.09171E+01  1.11827E+01  1.14548E+01  1.17335E+01
#           1.20190E+01  1.23114E+01  1.26109E+01  1.29178E+01  1.32321E+01
#           1.35540E+01  1.38838E+01  1.42216E+01  1.45676E+01  1.49221E+01
#           1.52851E+01  1.56570E+01  1.60380E+01  1.64282E+01  1.68279E+01
#           1.72374E+01  1.76568E+01  1.80864E+01  1.85264E+01  1.89772E+01
#           1.94389E+01  1.99119E+01  2.03963E+01  2.08926E+01  2.14009E+01
#           2.19216E+01  2.24550E+01  2.30014E+01  2.35610E+01  2.41343E+01
#           2.47215E+01  2.53230E+01  2.59391E+01  2.65702E+01  2.72167E+01
#           2.78789E+01  2.85572E+01  2.92520E+01  2.99637E+01  3.06928E+01
#           3.14396E+01  3.22045E+01  3.29881E+01  3.37907E+01  3.46128E+01
#           3.54550E+01  3.63177E+01  3.72013E+01  3.81064E+01  3.90336E+01
#           3.99833E+01  4.09561E+01  4.19526E+01  4.29734E+01  4.40189E+01
#           4.50900E+01  4.61870E+01  4.73108E+01  4.84619E+01  4.96410E+01
#           5.08488E+01  5.20860E+01  5.33533E+01  5.46514E+01  5.59812E+01
#           5.73432E+01  5.87384E+01  6.01676E+01  6.16315E+01  6.31311E+01
#           6.46671E+01  6.62405E+01  6.78522E+01  6.95031E+01  7.11941E+01
#           7.29263E+01  7.47007E+01  7.65182E+01  7.83800E+01  8.02870E+01
#           8.22405E+01  8.42414E+01  8.62911E+01  8.83906E+01  9.05412E+01
#           9.27442E+01  9.50007E+01  9.73122E+01  9.96799E+01  1.02105E+02
#           1.04589E+02  1.07134E+02  1.09741E+02  1.12411E+02  1.15146E+02
#           1.17948E+02  1.20817E+02  1.23757E+02  1.26768E+02  1.29852E+02
#           1.33012E+02  1.36248E+02  1.39563E+02  1.42959E+02  1.46437E+02
#           1.50000E+02
     unit =    2            # unit is [1/cm^2/(MeV/n)/source]
     axis =  eng            # axis of output
     file = detector-19.out  # file name of output for the above axis
   output = f-curr          # surface crossing forward current spectrum
     part =  neutron  
# kf/name :  2112     
#    used :        main (  %)        temp (  %)       total (  %)
#  memory :         414 (  0)           0 (  0)         414 (  0)

#------------------------------------------------------------------------------
#newpage:
#   no. =    1   reg = 118 - 218

x: Energy [MeV/n]
y:  F-Curr [1/cm^2/(MeV/n)/source]         
p: xlog ylog afac(0.8) form(0.9)
h: n            x            y(neutron ),hh0l   n 
#  e-lower      e-upper      neutron     r.err 
   1.0000E-02   1.0243E-02   1.3295E-01  0.0079
   1.0243E-02   1.0493E-02   1.2924E-01  0.0079
   1.0493E-02   1.0748E-02   1.2695E-01  0.0079
   1.0748E-02   1.1009E-02   1.2390E-01  0.0079
   1.1009E-02   1.1277E-02   1.2249E-01  0.0078
   1.1277E-02   1.1552E-02   1.2021E-01  0.0078
   1.1552E-02   1.1833E-02   1.1769E-01  0.0078
   1.1833E-02   1.2121E-02   1.1575E-01  0.0077
   1.2121E-02   1.2415E-02   1.1598E-01  0.0076
   1.2415E-02   1.2718E-02   1.1067E-01  0.0077
   1.2718E-02   1.3027E-02   1.0813E-01  0.0077
   1.3027E-02   1.3344E-02   1.0697E-01  0.0077
   1.3344E-02   1.3669E-02   1.0563E-01  0.0076
   1.3669E-02   1.4001E-02   1.0381E-01  0.0076
   1.4001E-02   1.4342E-02   1.0210E-01  0.0076
   1.4342E-02   1.4691E-02   1.0082E-01  0.0075
   1.4691E-02   1.5048E-02   9.9052E-02  0.0075
   1.5048E-02   1.5414E-02   9.7052E-02  0.0075
   1.5414E-02   1.5789E-02   9.3941E-02  0.0075
   1.5789E-02   1.6174E-02   9.2975E-02  0.0075
   1.6174E-02   1.6567E-02   9.2086E-02  0.0074
   1.6567E-02   1.6970E-02   9.0042E-02  0.0074
   1.6970E-02   1.7383E-02   8.7002E-02  0.0075
   1.7383E-02   1.7806E-02   8.6908E-02  0.0074
   1.7806E-02   1.8239E-02   8.4622E-02  0.0074
   1.8239E-02   1.8683E-02   8.4160E-02  0.0073
   1.8683E-02   1.9138E-02   8.1629E-02  0.0073
   1.9138E-02   1.9603E-02   7.9739E-02  0.0073
   1.9603E-02   2.0080E-02   7.9252E-02  0.0073
   2.0080E-02   2.0569E-02   7.6966E-02  0.0073
   2.0569E-02   2.1069E-02   7.6033E-02  0.0073
   2.1069E-02   2.1582E-02   7.4428E-02  0.0072
   2.1582E-02   2.2107E-02   7.3452E-02  0.0072
   2.2107E-02   2.2645E-02   7.2338E-02  0.0072
   2.2645E-02   2.3196E-02   7.0701E-02  0.0072
   2.3196E-02   2.3760E-02   6.9865E-02  0.0071
   2.3760E-02   2.4338E-02   6.7991E-02  0.0071
   2.4338E-02   2.4930E-02   6.7417E-02  0.0071
   2.4930E-02   2.5537E-02   6.5204E-02  0.0071
   2.5537E-02   2.6158E-02   6.4817E-02  0.0071
   2.6158E-02   2.6795E-02   6.2973E-02  0.0071
   2.6795E-02   2.7447E-02   6.2316E-02  0.0070
   2.7447E-02   2.8114E-02   6.1113E-02  0.0070
   2.8114E-02   2.8799E-02   6.0111E-02  0.0070
   2.8799E-02   2.9499E-02   5.9319E-02  0.0069
   2.9499E-02   3.0217E-02   5.7616E-02  0.0070
   3.0217E-02   3.0952E-02   5.7073E-02  0.0069
   3.0952E-02   3.1705E-02   5.6482E-02  0.0069
   3.1705E-02   3.2477E-02   5.4586E-02  0.0069
   3.2477E-02   3.3267E-02   5.4484E-02  0.0068
   3.3267E-02   3.4076E-02   5.2910E-02  0.0068
   3.4076E-02   3.4905E-02   5.2819E-02  0.0068
   3.4905E-02   3.5755E-02   5.0858E-02  0.0068
   3.5755E-02   3.6625E-02   5.0276E-02  0.0068
   3.6625E-02   3.7516E-02   4.9177E-02  0.0068
   3.7516E-02   3.8428E-02   4.8686E-02  0.0067
   3.8428E-02   3.9363E-02   4.7778E-02  0.0067
   3.9363E-02   4.0321E-02   4.6807E-02  0.0067
   4.0321E-02   4.1302E-02   4.5970E-02  0.0067
   4.1302E-02   4.2307E-02   4.4762E-02  0.0067
   4.2307E-02   4.3337E-02   4.4134E-02  0.0066
   4.3337E-02   4.4391E-02   4.3433E-02  0.0066
   4.4391E-02   4.5471E-02   4.2532E-02  0.0066
   4.5471E-02   4.6577E-02   4.2055E-02  0.0066
   4.6577E-02   4.7711E-02   4.1234E-02  0.0065
   4.7711E-02   4.8871E-02   4.0557E-02  0.0065
   4.8871E-02   5.0061E-02   3.9791E-02  0.0065
   5.0061E-02   5.1279E-02   3.9333E-02  0.0065
   5.1279E-02   5.2526E-02   3.8431E-02  0.0065
   5.2526E-02   5.3804E-02   3.7533E-02  0.0065
   5.3804E-02   5.5113E-02   3.6596E-02  0.0065
   5.5113E-02   5.6454E-02   3.6296E-02  0.0064
   5.6454E-02   5.7828E-02   3.5688E-02  0.0064
   5.7828E-02   5.9235E-02   3.5272E-02  0.0064
   5.9235E-02   6.0676E-02   3.4402E-02  0.0064
   6.0676E-02   6.2152E-02   3.3765E-02  0.0063
   6.2152E-02   6.3665E-02   3.3522E-02  0.0063
   6.3665E-02   6.5214E-02   3.3215E-02  0.0062
   6.5214E-02   6.6800E-02   3.2340E-02  0.0062
   6.6800E-02   6.8426E-02   3.1296E-02  0.0063
   6.8426E-02   7.0090E-02   3.1264E-02  0.0062
   7.0090E-02   7.1796E-02   3.0469E-02  0.0062
   7.1796E-02   7.3543E-02   2.9896E-02  0.0062
   7.3543E-02   7.5332E-02   2.9218E-02  0.0062
   7.5332E-02   7.7165E-02   2.8848E-02  0.0062
   7.7165E-02   7.9042E-02   2.8464E-02  0.0061
   7.9042E-02   8.0965E-02   2.7945E-02  0.0061
   8.0965E-02   8.2935E-02   2.7864E-02  0.0060
   8.2935E-02   8.4953E-02   2.7025E-02  0.0061
   8.4953E-02   8.7020E-02   2.6684E-02  0.0060
   8.7020E-02   8.9138E-02   2.6276E-02  0.0060
   8.9138E-02   9.1306E-02   2.5978E-02  0.0060
   9.1306E-02   9.3528E-02   2.5063E-02  0.0060
   9.3528E-02   9.5804E-02   2.4894E-02  0.0059
   9.5804E-02   9.8134E-02   2.4422E-02  0.0059
   9.8134E-02   1.0052E-01   2.3815E-02  0.0059
   1.0052E-01   1.0297E-01   2.3510E-02  0.0059
   1.0297E-01   1.0547E-01   2.3187E-02  0.0059
   1.0547E-01   1.0804E-01   2.2808E-02  0.0058
   1.0804E-01   1.1067E-01   2.2486E-02  0.0058
   1.1067E-01   1.1336E-01   2.1936E-02  0.0058
   1.1336E-01   1.1612E-01   2.1638E-02  0.0058
   1.1612E-01   1.1894E-01   2.1198E-02  0.0058
   1.1894E-01   1.2184E-01   2.1023E-02  0.0057
   1.2184E-01   1.2480E-01   2.0313E-02  0.0058
   1.2480E-01   1.2784E-01   2.0219E-02  0.0057
   1.2784E-01   1.3095E-01   1.9928E-02  0.0057
   1.3095E-01   1.3414E-01   1.9583E-02  0.0057
   1.3414E-01   1.3740E-01   1.9236E-02  0.0056
   1.3740E-01   1.4074E-01   1.8860E-02  0.0056
   1.4074E-01   1.4417E-01   1.8616E-02  0.0056
   1.4417E-01   1.4767E-01   1.7994E-02  0.0056
   1.4767E-01   1.5127E-01   1.7885E-02  0.0056
   1.5127E-01   1.5495E-01   1.7643E-02  0.0056
   1.5495E-01   1.5872E-01   1.7306E-02  0.0055
   1.5872E-01   1.6258E-01   1.6970E-02  0.0055
   1.6258E-01   1.6654E-01   1.6704E-02  0.0055
   1.6654E-01   1.7059E-01   1.6407E-02  0.0055
   1.7059E-01   1.7474E-01   1.6056E-02  0.0055
   1.7474E-01   1.7899E-01   1.5836E-02  0.0055
   1.7899E-01   1.8334E-01   1.5532E-02  0.0054
   1.8334E-01   1.8781E-01   1.5567E-02  0.0054
   1.8781E-01   1.9237E-01   1.5087E-02  0.0054
   1.9237E-01   1.9706E-01   1.4896E-02  0.0054
   1.9706E-01   2.0185E-01   1.4551E-02  0.0054
   2.0185E-01   2.0676E-01   1.4365E-02  0.0053
   2.0676E-01   2.1179E-01   1.4103E-02  0.0053
   2.1179E-01   2.1694E-01   1.4024E-02  0.0053
   2.1694E-01   2.2222E-01   1.3592E-02  0.0053
   2.2222E-01   2.2763E-01   1.3316E-02  0.0053
   2.2763E-01   2.3317E-01   1.3091E-02  0.0053
   2.3317E-01   2.3884E-01   1.2941E-02  0.0052
   2.3884E-01   2.4465E-01   1.2798E-02  0.0052
   2.4465E-01   2.5061E-01   1.2428E-02  0.0052
   2.5061E-01   2.5670E-01   1.2151E-02  0.0052
   2.5670E-01   2.6295E-01   1.2046E-02  0.0052
   2.6295E-01   2.6935E-01   1.1757E-02  0.0052
   2.6935E-01   2.7590E-01   1.1519E-02  0.0052
   2.7590E-01   2.8261E-01   1.1331E-02  0.0051
   2.8261E-01   2.8949E-01   1.1203E-02  0.0051
   2.8949E-01   2.9653E-01   1.1002E-02  0.0051
   2.9653E-01   3.0375E-01   1.0893E-02  0.0050
   3.0375E-01   3.1114E-01   1.0456E-02  0.0051
   3.1114E-01   3.1871E-01   1.0337E-02  0.0051
   3.1871E-01   3.2646E-01   1.0114E-02  0.0051
   3.2646E-01   3.3441E-01   1.0046E-02  0.0050
   3.3441E-01   3.4254E-01   9.8250E-03  0.0050
   3.4254E-01   3.5088E-01   9.6009E-03  0.0050
   3.5088E-01   3.5941E-01   9.4501E-03  0.0050
   3.5941E-01   3.6816E-01   9.2498E-03  0.0050
   3.6816E-01   3.7712E-01   9.0704E-03  0.0050
   3.7712E-01   3.8629E-01   8.8471E-03  0.0050
   3.8629E-01   3.9569E-01   8.7219E-03  0.0049
   3.9569E-01   4.0532E-01   8.5452E-03  0.0049
   4.0532E-01   4.1518E-01   8.3914E-03  0.0049
   4.1518E-01   4.2528E-01   8.2028E-03  0.0049
   4.2528E-01   4.3563E-01   8.0303E-03  0.0049
   4.3563E-01   4.4623E-01   7.8641E-03  0.0049
   4.4623E-01   4.5708E-01   7.6892E-03  0.0049
   4.5708E-01   4.6821E-01   7.5099E-03  0.0049
   4.6821E-01   4.7960E-01   7.3410E-03  0.0049
   4.7960E-01   4.9127E-01   7.1687E-03  0.0049
   4.9127E-01   5.0322E-01   7.0276E-03  0.0049
   5.0322E-01   5.1546E-01   6.9451E-03  0.0049
   5.1546E-01   5.2800E-01   6.7149E-03  0.0049
   5.2800E-01   5.4085E-01   6.6010E-03  0.0049
   5.4085E-01   5.5401E-01   6.4199E-03  0.0049
   5.5401E-01   5.6749E-01   6.2561E-03  0.0049
   5.6749E-01   5.8130E-01   6.0981E-03  0.0049
   5.8130E-01   5.9544E-01   6.0023E-03  0.0049
   5.9544E-01   6.0993E-01   5.8104E-03  0.0049
   6.0993E-01   6.2477E-01   5.6752E-03  0.0049
   6.2477E-01   6.3997E-01   5.5441E-03  0.0049
   6.3997E-01   6.5554E-01   5.3306E-03  0.0049
   6.5554E-01   6.7149E-01   5.2676E-03  0.0049
   6.7149E-01   6.8783E-01   5.0282E-03  0.0049
   6.8783E-01   7.0456E-01   4.9574E-03  0.0049
   7.0456E-01   7.2171E-01   4.7776E-03  0.0049
   7.2171E-01   7.3927E-01   4.6667E-03  0.0049
   7.3927E-01   7.5725E-01   4.5178E-03  0.0050
   7.5725E-01   7.7568E-01   4.3845E-03  0.0050
   7.7568E-01   7.9455E-01   4.2217E-03  0.0050
   7.9455E-01   8.1388E-01   4.0771E-03  0.0050
   8.1388E-01   8.3368E-01   3.9780E-03  0.0050
   8.3368E-01   8.5397E-01   3.7926E-03  0.0051
   8.5397E-01   8.7475E-01   3.6783E-03  0.0051
   8.7475E-01   8.9603E-01   3.5017E-03  0.0052
   8.9603E-01   9.1783E-01   3.3966E-03  0.0052
   9.1783E-01   9.4016E-01   3.2540E-03  0.0053
   9.4016E-01   9.6304E-01   3.1135E-03  0.0053
   9.6304E-01   9.8647E-01   2.9811E-03  0.0054
   9.8647E-01   1.0105E+00   2.8876E-03  0.0054
   1.0105E+00   1.0351E+00   2.8534E-03  0.0053
   1.0351E+00   1.0602E+00   2.9037E-03  0.0052
   1.0602E+00   1.0860E+00   2.9721E-03  0.0051
   1.0860E+00   1.1125E+00   2.9960E-03  0.0050
   1.1125E+00   1.1395E+00   3.0776E-03  0.0049
   1.1395E+00   1.1673E+00   3.1309E-03  0.0048
   1.1673E+00   1.1957E+00   3.2400E-03  0.0047
   1.1957E+00   1.2247E+00   3.3298E-03  0.0046
   1.2247E+00   1.2545E+00   3.3537E-03  0.0045
   1.2545E+00   1.2851E+00   3.3664E-03  0.0044
   1.2851E+00   1.3163E+00   3.4099E-03  0.0043
   1.3163E+00   1.3484E+00   3.4782E-03  0.0042
   1.3484E+00   1.3812E+00   3.5388E-03  0.0042
   1.3812E+00   1.4148E+00   3.5930E-03  0.0041
   1.4148E+00   1.4492E+00   3.5872E-03  0.0040
   1.4492E+00   1.4845E+00   3.5705E-03  0.0040
   1.4845E+00   1.5206E+00   3.5767E-03  0.0039
   1.5206E+00   1.5576E+00   3.6040E-03  0.0039
   1.5576E+00   1.5955E+00   3.6139E-03  0.0038
   1.5955E+00   1.6343E+00   3.6506E-03  0.0038
   1.6343E+00   1.6741E+00   3.7050E-03  0.0037
   1.6741E+00   1.7148E+00   3.7662E-03  0.0036
   1.7148E+00   1.7565E+00   3.7318E-03  0.0036
   1.7565E+00   1.7992E+00   3.7005E-03  0.0036
   1.7992E+00   1.8430E+00   3.6665E-03  0.0035
   1.8430E+00   1.8879E+00   3.6422E-03  0.0035
   1.8879E+00   1.9338E+00   3.6315E-03  0.0035
   1.9338E+00   1.9808E+00   3.6558E-03  0.0034
   1.9808E+00   2.0290E+00   3.6779E-03  0.0034
   2.0290E+00   2.0784E+00   3.6040E-03  0.0034
   2.0784E+00   2.1290E+00   3.5466E-03  0.0033
   2.1290E+00   2.1808E+00   3.4650E-03  0.0033
   2.1808E+00   2.2338E+00   3.4138E-03  0.0033
   2.2338E+00   2.2882E+00   3.3635E-03  0.0033
   2.2882E+00   2.3439E+00   3.3325E-03  0.0033
   2.3439E+00   2.4009E+00   3.3324E-03  0.0033
   2.4009E+00   2.4593E+00   3.2587E-03  0.0032
   2.4593E+00   2.5191E+00   3.1724E-03  0.0033
   2.5191E+00   2.5804E+00   3.0761E-03  0.0033
   2.5804E+00   2.6432E+00   2.9867E-03  0.0033
   2.6432E+00   2.7075E+00   2.9169E-03  0.0033
   2.7075E+00   2.7734E+00   2.8427E-03  0.0033
   2.7734E+00   2.8409E+00   2.7775E-03  0.0033
   2.8409E+00   2.9100E+00   2.7195E-03  0.0033
   2.9100E+00   2.9808E+00   2.6731E-03  0.0033
   2.9808E+00   3.0533E+00   2.5818E-03  0.0033
   3.0533E+00   3.1276E+00   2.4743E-03  0.0033
   3.1276E+00   3.2037E+00   2.3829E-03  0.0033
   3.2037E+00   3.2817E+00   2.2779E-03  0.0034
   3.2817E+00   3.3615E+00   2.1737E-03  0.0034
   3.3615E+00   3.4433E+00   2.0963E-03  0.0034
   3.4433E+00   3.5271E+00   2.0117E-03  0.0035
   3.5271E+00   3.6129E+00   1.9563E-03  0.0035
   3.6129E+00   3.7008E+00   1.8673E-03  0.0035
   3.7008E+00   3.7908E+00   1.7908E-03  0.0035
   3.7908E+00   3.8831E+00   1.6963E-03  0.0036
   3.8831E+00   3.9776E+00   1.6238E-03  0.0036
   3.9776E+00   4.0743E+00   1.5633E-03  0.0036
   4.0743E+00   4.1735E+00   1.4695E-03  0.0037
   4.1735E+00   4.2750E+00   1.3922E-03  0.0038
   4.2750E+00   4.3790E+00   1.3219E-03  0.0038
   4.3790E+00   4.4856E+00   1.2414E-03  0.0039
   4.4856E+00   4.5947E+00   1.1692E-03  0.0040
   4.5947E+00   4.7065E+00   1.1029E-03  0.0040
   4.7065E+00   4.8210E+00   1.0496E-03  0.0041
   4.8210E+00   4.9383E+00   9.8882E-04  0.0042
   4.9383E+00   5.0585E+00   9.3629E-04  0.0042
   5.0585E+00   5.1815E+00   8.7358E-04  0.0043
   5.1815E+00   5.3076E+00   8.2008E-04  0.0044
   5.3076E+00   5.4368E+00   7.6587E-04  0.0045
   5.4368E+00   5.5690E+00   7.0515E-04  0.0046
   5.5690E+00   5.7045E+00   6.6637E-04  0.0047
   5.7045E+00   5.8433E+00   6.1802E-04  0.0048
   5.8433E+00   5.9855E+00   5.8602E-04  0.0049
   5.9855E+00   6.1311E+00   5.4829E-04  0.0050
   6.1311E+00   6.2803E+00   5.0965E-04  0.0051
   6.2803E+00   6.4331E+00   4.7423E-04  0.0053
   6.4331E+00   6.5896E+00   4.4033E-04  0.0054
   6.5896E+00   6.7500E+00   4.0582E-04  0.0055
   6.7500E+00   6.9142E+00   3.7966E-04  0.0057
   6.9142E+00   7.0824E+00   3.4941E-04  0.0058
   7.0824E+00   7.2548E+00   3.2496E-04  0.0060
   7.2548E+00   7.4313E+00   3.0160E-04  0.0061
   7.4313E+00   7.6121E+00   2.7945E-04  0.0063
   7.6121E+00   7.7973E+00   2.5985E-04  0.0064
   7.7973E+00   7.9870E+00   2.3684E-04  0.0067
   7.9870E+00   8.1813E+00   2.2144E-04  0.0068
   8.1813E+00   8.3804E+00   2.0648E-04  0.0070
   8.3804E+00   8.5843E+00   1.9351E-04  0.0071
   8.5843E+00   8.7931E+00   1.7952E-04  0.0073
   8.7931E+00   9.0071E+00   1.6457E-04  0.0075
   9.0071E+00   9.2262E+00   1.5319E-04  0.0077
   9.2262E+00   9.4507E+00   1.4338E-04  0.0079
   9.4507E+00   9.6807E+00   1.2980E-04  0.0082
   9.6807E+00   9.9162E+00   1.2210E-04  0.0083
   9.9162E+00   1.0157E+01   1.1293E-04  0.0086
   1.0157E+01   1.0405E+01   1.0506E-04  0.0088
   1.0405E+01   1.0658E+01   9.7297E-05  0.0090
   1.0658E+01   1.0917E+01   9.0158E-05  0.0092
   1.0917E+01   1.1183E+01   8.3416E-05  0.0095
   1.1183E+01   1.1455E+01   7.6914E-05  0.0098
   1.1455E+01   1.1733E+01   7.3831E-05  0.0098
   1.1733E+01   1.2019E+01   6.7110E-05  0.0102
   1.2019E+01   1.2311E+01   6.2736E-05  0.0104
   1.2311E+01   1.2611E+01   5.9704E-05  0.0105
   1.2611E+01   1.2918E+01   5.4955E-05  0.0109
   1.2918E+01   1.3232E+01   5.0420E-05  0.0112
   1.3232E+01   1.3554E+01   4.8573E-05  0.0113
   1.3554E+01   1.3884E+01   4.5106E-05  0.0116
   1.3884E+01   1.4222E+01   4.2258E-05  0.0118
   1.4222E+01   1.4568E+01   3.9440E-05  0.0121
   1.4568E+01   1.4922E+01   3.7284E-05  0.0123
   1.4922E+01   1.5285E+01   3.4889E-05  0.0125
   1.5285E+01   1.5657E+01   3.2253E-05  0.0129
   1.5657E+01   1.6038E+01   3.0545E-05  0.0131
   1.6038E+01   1.6428E+01   2.8694E-05  0.0133
   1.6428E+01   1.6828E+01   2.6166E-05  0.0138
   1.6828E+01   1.7237E+01   2.5423E-05  0.0138
   1.7237E+01   1.7657E+01   2.4154E-05  0.0140
   1.7657E+01   1.8086E+01   2.1769E-05  0.0146
   1.8086E+01   1.8526E+01   2.1004E-05  0.0147
   1.8526E+01   1.8977E+01   2.0334E-05  0.0148
   1.8977E+01   1.9439E+01   1.8444E-05  0.0153
   1.9439E+01   1.9912E+01   1.7843E-05  0.0154
   1.9912E+01   2.0396E+01   1.3074E-05  0.0178
   2.0396E+01   2.0893E+01   1.2365E-05  0.0181
   2.0893E+01   2.1401E+01   1.2362E-05  0.0178
   2.1401E+01   2.1922E+01   1.1289E-05  0.0184
   2.1922E+01   2.2455E+01   1.1309E-05  0.0182
   2.2455E+01   2.3001E+01   1.0839E-05  0.0184
   2.3001E+01   2.3561E+01   1.0535E-05  0.0184
   2.3561E+01   2.4134E+01   9.9467E-06  0.0187
   2.4134E+01   2.4721E+01   9.3698E-06  0.0191
   2.4721E+01   2.5323E+01   8.5753E-06  0.0197
   2.5323E+01   2.5939E+01   8.7579E-06  0.0193
   2.5939E+01   2.6570E+01   8.3186E-06  0.0195
   2.6570E+01   2.7217E+01   7.9261E-06  0.0198
   2.7217E+01   2.7879E+01   7.4660E-06  0.0201
   2.7879E+01   2.8557E+01   7.1206E-06  0.0203
   2.8557E+01   2.9252E+01   6.6060E-06  0.0209
   2.9252E+01   2.9964E+01   6.4435E-06  0.0209
   2.9964E+01   3.0693E+01   5.7171E-06  0.0219
   3.0693E+01   3.1440E+01   5.7206E-06  0.0216
   3.1440E+01   3.2205E+01   5.3729E-06  0.0221
   3.2205E+01   3.2988E+01   5.0207E-06  0.0225
   3.2988E+01   3.3791E+01   4.5949E-06  0.0233
   3.3791E+01   3.4613E+01   4.3739E-06  0.0236
   3.4613E+01   3.5455E+01   4.0301E-06  0.0243
   3.5455E+01   3.6318E+01   3.7605E-06  0.0248
   3.6318E+01   3.7201E+01   3.3181E-06  0.0261
   3.7201E+01   3.8106E+01   3.1620E-06  0.0264
   3.8106E+01   3.9034E+01   2.8970E-06  0.0273
   3.9034E+01   3.9983E+01   2.7398E-06  0.0277
   3.9983E+01   4.0956E+01   2.2902E-06  0.0300
   4.0956E+01   4.1953E+01   2.0913E-06  0.0310
   4.1953E+01   4.2973E+01   1.9280E-06  0.0319
   4.2973E+01   4.4019E+01   1.7101E-06  0.0334
   4.4019E+01   4.5090E+01   1.5779E-06  0.0344
   4.5090E+01   4.6187E+01   1.4548E-06  0.0354
   4.6187E+01   4.7311E+01   1.2885E-06  0.0372
   4.7311E+01   4.8462E+01   1.0998E-06  0.0397
   4.8462E+01   4.9641E+01   1.0058E-06  0.0411
   4.9641E+01   5.0849E+01   8.6935E-07  0.0436
   5.0849E+01   5.2086E+01   7.3392E-07  0.0469
   5.2086E+01   5.3353E+01   6.4074E-07  0.0496
   5.3353E+01   5.4651E+01   5.4848E-07  0.0530
   5.4651E+01   5.5981E+01   4.8432E-07  0.0557
   5.5981E+01   5.7343E+01   3.6709E-07  0.0632
   5.7343E+01   5.8738E+01   3.6554E-07  0.0626
   5.8738E+01   6.0168E+01   2.6589E-07  0.0725
   6.0168E+01   6.1632E+01   2.9236E-07  0.0684
   6.1632E+01   6.3131E+01   1.8272E-07  0.0854
   6.3131E+01   6.4667E+01   1.8619E-07  0.0836
   6.4667E+01   6.6240E+01   1.6143E-07  0.0887
   6.6240E+01   6.7852E+01   9.3070E-08  0.1155
   6.7852E+01   6.9503E+01   8.7225E-08  0.1179
   6.9503E+01   7.1194E+01   7.0961E-08  0.1291
   7.1194E+01   7.2926E+01   6.2348E-08  0.1361
   7.2926E+01   7.4701E+01   5.0723E-08  0.1491
   7.4701E+01   7.6518E+01   5.2819E-08  0.1443
   7.6518E+01   7.8380E+01   3.0079E-08  0.1890
   7.8380E+01   8.0287E+01   3.0414E-08  0.1857
   8.0287E+01   8.2240E+01   1.7405E-08  0.2425
   8.2240E+01   8.4241E+01   1.1994E-08  0.2887
   8.4241E+01   8.6291E+01   7.8062E-09  0.3536
   8.6291E+01   8.8391E+01   1.9052E-09  0.7071
   8.8391E+01   9.0541E+01   9.2997E-10  1.0000
   9.0541E+01   9.2744E+01   9.0788E-10  1.0000
   9.2744E+01   9.5001E+01   3.5453E-09  0.5000
   9.5001E+01   9.7312E+01   8.6526E-10  1.0000
   9.7312E+01   9.9680E+01   3.3788E-09  0.5000
   9.9680E+01   1.0211E+02   8.2464E-10  1.0000
   1.0211E+02   1.0459E+02   0.0000E+00  0.0000
   1.0459E+02   1.0713E+02   7.8593E-10  1.0000
   1.0713E+02   1.0974E+02   0.0000E+00  0.0000
   1.0974E+02   1.1241E+02   0.0000E+00  0.0000
   1.1241E+02   1.1515E+02   0.0000E+00  0.0000
   1.1515E+02   1.1795E+02   0.0000E+00  0.0000
   1.1795E+02   1.2082E+02   0.0000E+00  0.0000
   1.2082E+02   1.2376E+02   0.0000E+00  0.0000
   1.2376E+02   1.2677E+02   0.0000E+00  0.0000
   1.2677E+02   1.2985E+02   0.0000E+00  0.0000
   1.2985E+02   1.3301E+02   0.0000E+00  0.0000
   1.3301E+02   1.3625E+02   0.0000E+00  0.0000
   1.3625E+02   1.3956E+02   0.0000E+00  0.0000
   1.3956E+02   1.4296E+02   0.0000E+00  0.0000
   1.4296E+02   1.4644E+02   0.0000E+00  0.0000
   1.4644E+02   1.5000E+02   0.0000E+00  0.0000

#   sum over                 1.5659E-04
'no. =    1   reg = 118 - 218'
msuc: {\huge [t-cross] in region mesh}
msdr: {\it plotted by \ANGEL \version}
msdl: {\it calculated by \PHITS  3.26}
wt: s(0.7)
\vspace{-3}
  region surface crossing
  area  &=&   1.0000E+00 [cm^2]
e:
 
# Information for Restart Calculation
# This calculation was newly started
# istdev =  2 # 1:Batch variance, 2:History variance
# resc2  = 5.00000000000000000E+08 # Total source weight or Total source weight / maxcas
# resc3  = 5.00000000000000000E+08 # Total history number or Total batch number
# maxcas =   500000000 # History / Batch, only used for istdev=1
# bitrseed = 1101101111010011011000101101110001100110110010110001010100010001 # bit data of rseed
