[ T-Cross ]
    title = [t-cross] in region mesh
     mesh =  reg            # mesh type is region-wise
      reg =    1            # number of crossing regions
      non     r-from    r-to       area
      1       113       213        1.000000    
   e-type =    3            # e-mesh is log given by emin, emax and ne
     emin =  1.0000000E-02  # minimum value of e-mesh points
     emax =   150.0000      # maximum value of e-mesh points
#    edel =  2.4039514E-02  # mesh width of e-mesh points
       ne =    400          # number of e-mesh points
#    data = ( e(i), i = 1, ne + 1 )
#           1.00000E-02  1.02433E-02  1.04925E-02  1.07478E-02  1.10093E-02
#           1.12772E-02  1.15516E-02  1.18326E-02  1.21205E-02  1.24154E-02
#           1.27175E-02  1.30269E-02  1.33439E-02  1.36686E-02  1.40011E-02
#           1.43418E-02  1.46907E-02  1.50482E-02  1.54143E-02  1.57894E-02
#           1.61735E-02  1.65670E-02  1.69701E-02  1.73830E-02  1.78060E-02
#           1.82392E-02  1.86830E-02  1.91375E-02  1.96032E-02  2.00801E-02
#           2.05687E-02  2.10692E-02  2.15818E-02  2.21069E-02  2.26448E-02
#           2.31957E-02  2.37601E-02  2.43382E-02  2.49304E-02  2.55369E-02
#           2.61583E-02  2.67947E-02  2.74467E-02  2.81145E-02  2.87985E-02
#           2.94992E-02  3.02169E-02  3.09521E-02  3.17052E-02  3.24766E-02
#           3.32668E-02  3.40762E-02  3.49053E-02  3.57546E-02  3.66246E-02
#           3.75157E-02  3.84284E-02  3.93634E-02  4.03212E-02  4.13022E-02
#           4.23071E-02  4.33365E-02  4.43909E-02  4.54710E-02  4.65773E-02
#           4.77106E-02  4.88714E-02  5.00605E-02  5.12785E-02  5.25262E-02
#           5.38042E-02  5.51133E-02  5.64542E-02  5.78278E-02  5.92348E-02
#           6.06760E-02  6.21523E-02  6.36645E-02  6.52135E-02  6.68002E-02
#           6.84255E-02  7.00904E-02  7.17957E-02  7.35426E-02  7.53319E-02
#           7.71648E-02  7.90423E-02  8.09655E-02  8.29354E-02  8.49533E-02
#           8.70203E-02  8.91376E-02  9.13064E-02  9.35279E-02  9.58035E-02
#           9.81345E-02  1.00522E-01  1.02968E-01  1.05473E-01  1.08040E-01
#           1.10668E-01  1.13361E-01  1.16119E-01  1.18944E-01  1.21838E-01
#           1.24803E-01  1.27839E-01  1.30950E-01  1.34136E-01  1.37399E-01
#           1.40742E-01  1.44167E-01  1.47675E-01  1.51268E-01  1.54948E-01
#           1.58718E-01  1.62580E-01  1.66535E-01  1.70587E-01  1.74738E-01
#           1.78989E-01  1.83344E-01  1.87805E-01  1.92375E-01  1.97055E-01
#           2.01850E-01  2.06761E-01  2.11792E-01  2.16945E-01  2.22223E-01
#           2.27630E-01  2.33169E-01  2.38842E-01  2.44653E-01  2.50605E-01
#           2.56703E-01  2.62949E-01  2.69346E-01  2.75900E-01  2.82613E-01
#           2.89489E-01  2.96532E-01  3.03747E-01  3.11138E-01  3.18708E-01
#           3.26462E-01  3.34405E-01  3.42542E-01  3.50876E-01  3.59413E-01
#           3.68158E-01  3.77116E-01  3.86291E-01  3.95690E-01  4.05317E-01
#           4.15179E-01  4.25281E-01  4.35628E-01  4.46227E-01  4.57084E-01
#           4.68205E-01  4.79597E-01  4.91266E-01  5.03219E-01  5.15463E-01
#           5.28005E-01  5.40851E-01  5.54011E-01  5.67490E-01  5.81298E-01
#           5.95441E-01  6.09929E-01  6.24769E-01  6.39970E-01  6.55541E-01
#           6.71491E-01  6.87828E-01  7.04564E-01  7.21706E-01  7.39266E-01
#           7.57253E-01  7.75678E-01  7.94551E-01  8.13883E-01  8.33685E-01
#           8.53969E-01  8.74747E-01  8.96030E-01  9.17831E-01  9.40163E-01
#           9.63038E-01  9.86469E-01  1.01047E+00  1.03506E+00  1.06024E+00
#           1.08604E+00  1.11246E+00  1.13953E+00  1.16725E+00  1.19565E+00
#           1.22474E+00  1.25454E+00  1.28507E+00  1.31633E+00  1.34836E+00
#           1.38117E+00  1.41477E+00  1.44920E+00  1.48446E+00  1.52057E+00
#           1.55757E+00  1.59547E+00  1.63429E+00  1.67405E+00  1.71478E+00
#           1.75650E+00  1.79924E+00  1.84302E+00  1.88786E+00  1.93379E+00
#           1.98084E+00  2.02904E+00  2.07841E+00  2.12898E+00  2.18078E+00
#           2.23384E+00  2.28819E+00  2.34386E+00  2.40089E+00  2.45930E+00
#           2.51914E+00  2.58043E+00  2.64322E+00  2.70753E+00  2.77341E+00
#           2.84088E+00  2.91001E+00  2.98081E+00  3.05333E+00  3.12762E+00
#           3.20372E+00  3.28167E+00  3.36152E+00  3.44330E+00  3.52708E+00
#           3.61290E+00  3.70080E+00  3.79085E+00  3.88308E+00  3.97756E+00
#           4.07434E+00  4.17347E+00  4.27501E+00  4.37903E+00  4.48557E+00
#           4.59471E+00  4.70650E+00  4.82102E+00  4.93832E+00  5.05847E+00
#           5.18155E+00  5.30762E+00  5.43676E+00  5.56904E+00  5.70453E+00
#           5.84333E+00  5.98550E+00  6.13114E+00  6.28031E+00  6.43312E+00
#           6.58964E+00  6.74997E+00  6.91420E+00  7.08243E+00  7.25475E+00
#           7.43126E+00  7.61207E+00  7.79728E+00  7.98700E+00  8.18133E+00
#           8.38038E+00  8.58428E+00  8.79315E+00  9.00709E+00  9.22624E+00
#           9.45072E+00  9.68067E+00  9.91620E+00  1.01575E+01  1.04046E+01
#           1.06578E+01  1.09171E+01  1.11827E+01  1.14548E+01  1.17335E+01
#           1.20190E+01  1.23114E+01  1.26109E+01  1.29178E+01  1.32321E+01
#           1.35540E+01  1.38838E+01  1.42216E+01  1.45676E+01  1.49221E+01
#           1.52851E+01  1.56570E+01  1.60380E+01  1.64282E+01  1.68279E+01
#           1.72374E+01  1.76568E+01  1.80864E+01  1.85264E+01  1.89772E+01
#           1.94389E+01  1.99119E+01  2.03963E+01  2.08926E+01  2.14009E+01
#           2.19216E+01  2.24550E+01  2.30014E+01  2.35610E+01  2.41343E+01
#           2.47215E+01  2.53230E+01  2.59391E+01  2.65702E+01  2.72167E+01
#           2.78789E+01  2.85572E+01  2.92520E+01  2.99637E+01  3.06928E+01
#           3.14396E+01  3.22045E+01  3.29881E+01  3.37907E+01  3.46128E+01
#           3.54550E+01  3.63177E+01  3.72013E+01  3.81064E+01  3.90336E+01
#           3.99833E+01  4.09561E+01  4.19526E+01  4.29734E+01  4.40189E+01
#           4.50900E+01  4.61870E+01  4.73108E+01  4.84619E+01  4.96410E+01
#           5.08488E+01  5.20860E+01  5.33533E+01  5.46514E+01  5.59812E+01
#           5.73432E+01  5.87384E+01  6.01676E+01  6.16315E+01  6.31311E+01
#           6.46671E+01  6.62405E+01  6.78522E+01  6.95031E+01  7.11941E+01
#           7.29263E+01  7.47007E+01  7.65182E+01  7.83800E+01  8.02870E+01
#           8.22405E+01  8.42414E+01  8.62911E+01  8.83906E+01  9.05412E+01
#           9.27442E+01  9.50007E+01  9.73122E+01  9.96799E+01  1.02105E+02
#           1.04589E+02  1.07134E+02  1.09741E+02  1.12411E+02  1.15146E+02
#           1.17948E+02  1.20817E+02  1.23757E+02  1.26768E+02  1.29852E+02
#           1.33012E+02  1.36248E+02  1.39563E+02  1.42959E+02  1.46437E+02
#           1.50000E+02
     unit =    2            # unit is [1/cm^2/(MeV/n)/source]
     axis =  eng            # axis of output
     file = detector-14.out  # file name of output for the above axis
   output = f-curr          # surface crossing forward current spectrum
     part =  neutron  
# kf/name :  2112     
#    used :        main (  %)        temp (  %)       total (  %)
#  memory :         414 (  0)           0 (  0)         414 (  0)

#------------------------------------------------------------------------------
#newpage:
#   no. =    1   reg = 113 - 213

x: Energy [MeV/n]
y:  F-Curr [1/cm^2/(MeV/n)/source]         
p: xlog ylog afac(0.8) form(0.9)
h: n            x            y(neutron ),hh0l   n 
#  e-lower      e-upper      neutron     r.err 
   1.0000E-02   1.0243E-02   1.2330E-04  0.1826
   1.0243E-02   1.0493E-02   1.4043E-04  0.1690
   1.0493E-02   1.0748E-02   1.3318E-04  0.1715
   1.0748E-02   1.1009E-02   1.4914E-04  0.1601
   1.1009E-02   1.1277E-02   1.6426E-04  0.1508
   1.1277E-02   1.1552E-02   1.4214E-04  0.1601
   1.1552E-02   1.1833E-02   1.5299E-04  0.1525
   1.1833E-02   1.2121E-02   1.3546E-04  0.1601
   1.2121E-02   1.2415E-02   1.2547E-04  0.1644
   1.2415E-02   1.2718E-02   1.3242E-04  0.1581
   1.2718E-02   1.3027E-02   1.3250E-04  0.1562
   1.3027E-02   1.3344E-02   1.4829E-04  0.1459
   1.3344E-02   1.3669E-02   1.2320E-04  0.1581
   1.3669E-02   1.4001E-02   1.0224E-04  0.1715
   1.4001E-02   1.4342E-02   1.4090E-04  0.1443
   1.4342E-02   1.4691E-02   1.2609E-04  0.1508
   1.4691E-02   1.5048E-02   1.0072E-04  0.1667
   1.5048E-02   1.5414E-02   1.5295E-04  0.1336
   1.5414E-02   1.5789E-02   1.4932E-04  0.1336
   1.5789E-02   1.6174E-02   1.4317E-04  0.1348
   1.6174E-02   1.6567E-02   1.2198E-04  0.1443
   1.6567E-02   1.6970E-02   1.6622E-04  0.1222
   1.6970E-02   1.7383E-02   1.3321E-04  0.1348
   1.7383E-02   1.7806E-02   1.2177E-04  0.1390
   1.7806E-02   1.8239E-02   1.1772E-04  0.1400
   1.8239E-02   1.8683E-02   1.3520E-04  0.1291
   1.8683E-02   1.9138E-02   1.3199E-04  0.1291
   1.9138E-02   1.9603E-02   1.6107E-04  0.1155
   1.9603E-02   2.0080E-02   1.1322E-04  0.1361
   2.0080E-02   2.0569E-02   1.5556E-04  0.1147
   2.0569E-02   2.1069E-02   1.1390E-04  0.1325
   2.1069E-02   2.1582E-02   1.0729E-04  0.1348
   2.1582E-02   2.2107E-02   1.3140E-04  0.1204
   2.2107E-02   2.2645E-02   1.0783E-04  0.1313
   2.2645E-02   2.3196E-02   1.2160E-04  0.1222
   2.3196E-02   2.3760E-02   1.0809E-04  0.1280
   2.3760E-02   2.4338E-02   1.0033E-04  0.1313
   2.4338E-02   2.4930E-02   1.4016E-04  0.1098
   2.4930E-02   2.5537E-02   1.5332E-04  0.1037
   2.5537E-02   2.6158E-02   1.1749E-04  0.1170
   2.6158E-02   2.6795E-02   1.1627E-04  0.1162
   2.6795E-02   2.7447E-02   1.1658E-04  0.1147
   2.7447E-02   2.8114E-02   1.1381E-04  0.1147
   2.8114E-02   2.8799E-02   1.1841E-04  0.1111
   2.8799E-02   2.9499E-02   1.0846E-04  0.1147
   2.9499E-02   3.0217E-02   1.2121E-04  0.1072
   3.0217E-02   3.0952E-02   1.3602E-04  0.1000
   3.0952E-02   3.1705E-02   1.1951E-04  0.1054
   3.1705E-02   3.2477E-02   1.2834E-04  0.1005
   3.2477E-02   3.3267E-02   1.0884E-04  0.1078
   3.3267E-02   3.4076E-02   1.0996E-04  0.1060
   3.4076E-02   3.4905E-02   1.1338E-04  0.1031
   3.4905E-02   3.5755E-02   1.1539E-04  0.1010
   3.5755E-02   3.6625E-02   1.1035E-04  0.1021
   3.6625E-02   3.7516E-02   1.0661E-04  0.1026
   3.7516E-02   3.8428E-02   1.0298E-04  0.1031
   3.8428E-02   3.9363E-02   1.3369E-04  0.0894
   3.9363E-02   4.0321E-02   1.1694E-04  0.0945
   4.0321E-02   4.1302E-02   1.0601E-04  0.0981
   4.1302E-02   4.2307E-02   1.0648E-04  0.0967
   4.2307E-02   4.3337E-02   9.8119E-05  0.0995
   4.3337E-02   4.4391E-02   1.0812E-04  0.0937
   4.4391E-02   4.5471E-02   1.1851E-04  0.0884
   4.5471E-02   4.6577E-02   1.0937E-04  0.0909
   4.6577E-02   4.7711E-02   1.0942E-04  0.0898
   4.7711E-02   4.8871E-02   8.9591E-05  0.0981
   4.8871E-02   5.0061E-02   1.1690E-04  0.0848
   5.0061E-02   5.1279E-02   1.0098E-04  0.0902
   5.1279E-02   5.2526E-02   1.2303E-04  0.0806
   5.2526E-02   5.3804E-02   1.0798E-04  0.0851
   5.3804E-02   5.5113E-02   7.7534E-05  0.0991
   5.5113E-02   5.6454E-02   1.0813E-04  0.0830
   5.6454E-02   5.7828E-02   7.0619E-05  0.1015
   5.7828E-02   5.9235E-02   1.0163E-04  0.0836
   5.9235E-02   6.0676E-02   9.1588E-05  0.0870
   6.0676E-02   6.2152E-02   8.6703E-05  0.0884
   6.2152E-02   6.3665E-02   9.0596E-05  0.0854
   6.3665E-02   6.5214E-02   8.5216E-05  0.0870
   6.5214E-02   6.6800E-02   8.3822E-05  0.0867
   6.6800E-02   6.8426E-02   1.0029E-04  0.0783
   6.8426E-02   7.0090E-02   1.0451E-04  0.0758
   7.0090E-02   7.1796E-02   8.9131E-05  0.0811
   7.1796E-02   7.3543E-02   8.1862E-05  0.0836
   7.3543E-02   7.5332E-02   8.7741E-05  0.0798
   7.5332E-02   7.7165E-02   1.0421E-04  0.0724
   7.7165E-02   7.9042E-02   9.4275E-05  0.0752
   7.9042E-02   8.0965E-02   8.9956E-05  0.0760
   8.0965E-02   8.2935E-02   8.7819E-05  0.0760
   8.2935E-02   8.4953E-02   8.0282E-05  0.0786
   8.4953E-02   8.7020E-02   7.9827E-05  0.0778
   8.7020E-02   8.9138E-02   8.5487E-05  0.0743
   8.9138E-02   9.1306E-02   8.7145E-05  0.0727
   9.1306E-02   9.3528E-02   8.3275E-05  0.0735
   9.3528E-02   9.5804E-02   7.2948E-05  0.0776
   9.5804E-02   9.8134E-02   8.0224E-05  0.0731
   9.8134E-02   1.0052E-01   7.3083E-05  0.0756
   1.0052E-01   1.0297E-01   8.0342E-05  0.0713
   1.0297E-01   1.0547E-01   8.3024E-05  0.0693
   1.0547E-01   1.0804E-01   7.5597E-05  0.0718
   1.0804E-01   1.1067E-01   7.3421E-05  0.0720
   1.1067E-01   1.1336E-01   7.0934E-05  0.0724
   1.1336E-01   1.1612E-01   7.4325E-05  0.0698
   1.1612E-01   1.1894E-01   7.4329E-05  0.0690
   1.1894E-01   1.2184E-01   7.2218E-05  0.0692
   1.2184E-01   1.2480E-01   7.4888E-05  0.0671
   1.2480E-01   1.2784E-01   7.7061E-05  0.0654
   1.2784E-01   1.3095E-01   6.9444E-05  0.0680
   1.3095E-01   1.3414E-01   6.7480E-05  0.0682
   1.3414E-01   1.3740E-01   7.2925E-05  0.0648
   1.3740E-01   1.4074E-01   6.3415E-05  0.0687
   1.4074E-01   1.4417E-01   6.8042E-05  0.0655
   1.4417E-01   1.4767E-01   7.0987E-05  0.0634
   1.4767E-01   1.5127E-01   6.7909E-05  0.0640
   1.5127E-01   1.5495E-01   6.3307E-05  0.0655
   1.5495E-01   1.5872E-01   6.3926E-05  0.0644
   1.5872E-01   1.6258E-01   6.3702E-05  0.0638
   1.6258E-01   1.6654E-01   6.0672E-05  0.0645
   1.6654E-01   1.7059E-01   5.4912E-05  0.0670
   1.7059E-01   1.7474E-01   5.5174E-05  0.0661
   1.7474E-01   1.7899E-01   5.6921E-05  0.0643
   1.7899E-01   1.8334E-01   5.8324E-05  0.0627
   1.8334E-01   1.8781E-01   6.2992E-05  0.0597
   1.8781E-01   1.9237E-01   5.8650E-05  0.0611
   1.9237E-01   1.9706E-01   5.2343E-05  0.0639
   1.9706E-01   2.0185E-01   5.0683E-05  0.0642
   2.0185E-01   2.0676E-01   6.0169E-05  0.0581
   2.0676E-01   2.1179E-01   5.4267E-05  0.0605
   2.1179E-01   2.1694E-01   5.2202E-05  0.0610
   2.1694E-01   2.2222E-01   5.5888E-05  0.0582
   2.2222E-01   2.2763E-01   4.7717E-05  0.0623
   2.2763E-01   2.3317E-01   5.2723E-05  0.0585
   2.3317E-01   2.3884E-01   5.5701E-05  0.0563
   2.3884E-01   2.4465E-01   5.2657E-05  0.0572
   2.4465E-01   2.5061E-01   5.1742E-05  0.0570
   2.5061E-01   2.5670E-01   5.4121E-05  0.0550
   2.5670E-01   2.6295E-01   5.7559E-05  0.0527
   2.6295E-01   2.6935E-01   5.2050E-05  0.0548
   2.6935E-01   2.7590E-01   4.4404E-05  0.0586
   2.7590E-01   2.8261E-01   4.6850E-05  0.0564
   2.8261E-01   2.8949E-01   4.1157E-05  0.0594
   2.8949E-01   2.9653E-01   4.4864E-05  0.0563
   2.9653E-01   3.0375E-01   4.1858E-05  0.0575
   3.0375E-01   3.1114E-01   4.5058E-05  0.0548
   3.1114E-01   3.1871E-01   4.0355E-05  0.0572
   3.1871E-01   3.2646E-01   4.4620E-05  0.0538
   3.2646E-01   3.3441E-01   4.1860E-05  0.0548
   3.3441E-01   3.4254E-01   4.5106E-05  0.0522
   3.4254E-01   3.5088E-01   4.2715E-05  0.0530
   3.5088E-01   3.5941E-01   4.0880E-05  0.0535
   3.5941E-01   3.6816E-01   4.1968E-05  0.0522
   3.6816E-01   3.7712E-01   4.2980E-05  0.0510
   3.7712E-01   3.8629E-01   3.8145E-05  0.0535
   3.8629E-01   3.9569E-01   3.9367E-05  0.0520
   3.9569E-01   4.0532E-01   3.9055E-05  0.0516
   4.0532E-01   4.1518E-01   4.0054E-05  0.0503
   4.1518E-01   4.2528E-01   3.8608E-05  0.0506
   4.2528E-01   4.3563E-01   3.5951E-05  0.0518
   4.3563E-01   4.4623E-01   3.4342E-05  0.0524
   4.4623E-01   4.5708E-01   3.7763E-05  0.0494
   4.5708E-01   4.6821E-01   3.9114E-05  0.0479
   4.6821E-01   4.7960E-01   3.7132E-05  0.0486
   4.7960E-01   4.9127E-01   3.6764E-05  0.0483
   4.9127E-01   5.0322E-01   3.3967E-05  0.0496
   5.0322E-01   5.1546E-01   3.4548E-05  0.0486
   5.1546E-01   5.2800E-01   3.3090E-05  0.0491
   5.2800E-01   5.4085E-01   3.5340E-05  0.0469
   5.4085E-01   5.5401E-01   3.4386E-05  0.0470
   5.5401E-01   5.6749E-01   3.4126E-05  0.0466
   5.6749E-01   5.8130E-01   3.0708E-05  0.0486
   5.8130E-01   5.9544E-01   3.2100E-05  0.0469
   5.9544E-01   6.0993E-01   3.2511E-05  0.0461
   6.0993E-01   6.2477E-01   2.7089E-05  0.0499
   6.2477E-01   6.3997E-01   2.8156E-05  0.0483
   6.3997E-01   6.5554E-01   2.8836E-05  0.0472
   6.5554E-01   6.7149E-01   2.9405E-05  0.0462
   6.7149E-01   6.8783E-01   2.8767E-05  0.0461
   6.8783E-01   7.0456E-01   2.9399E-05  0.0451
   7.0456E-01   7.2171E-01   2.5900E-05  0.0475
   7.2171E-01   7.3927E-01   2.6994E-05  0.0459
   7.3927E-01   7.5725E-01   2.3990E-05  0.0481
   7.5725E-01   7.7568E-01   2.4315E-05  0.0472
   7.7568E-01   7.9455E-01   2.5486E-05  0.0456
   7.9455E-01   8.1388E-01   2.5010E-05  0.0455
   8.1388E-01   8.3368E-01   2.1689E-05  0.0482
   8.3368E-01   8.5397E-01   2.2727E-05  0.0466
   8.5397E-01   8.7475E-01   2.2476E-05  0.0463
   8.7475E-01   8.9603E-01   2.0462E-05  0.0479
   8.9603E-01   9.1783E-01   2.1054E-05  0.0467
   9.1783E-01   9.4016E-01   1.8360E-05  0.0494
   9.4016E-01   9.6304E-01   1.9935E-05  0.0468
   9.6304E-01   9.8647E-01   1.9930E-05  0.0463
   9.8647E-01   1.0105E+00   1.9374E-05  0.0464
   1.0105E+00   1.0351E+00   1.9259E-05  0.0459
   1.0351E+00   1.0602E+00   1.7889E-05  0.0471
   1.0602E+00   1.0860E+00   1.8142E-05  0.0462
   1.0860E+00   1.1125E+00   1.9301E-05  0.0443
   1.1125E+00   1.1395E+00   1.9470E-05  0.0436
   1.1395E+00   1.1673E+00   2.2218E-05  0.0403
   1.1673E+00   1.1957E+00   2.2922E-05  0.0392
   1.1957E+00   1.2247E+00   2.2309E-05  0.0393
   1.2247E+00   1.2545E+00   2.2081E-05  0.0390
   1.2545E+00   1.2851E+00   2.2572E-05  0.0381
   1.2851E+00   1.3163E+00   2.4275E-05  0.0363
   1.3163E+00   1.3484E+00   2.5213E-05  0.0352
   1.3484E+00   1.3812E+00   2.4964E-05  0.0349
   1.3812E+00   1.4148E+00   2.5830E-05  0.0339
   1.4148E+00   1.4492E+00   2.6581E-05  0.0331
   1.4492E+00   1.4845E+00   2.7779E-05  0.0319
   1.4845E+00   1.5206E+00   2.7604E-05  0.0317
   1.5206E+00   1.5576E+00   2.9935E-05  0.0301
   1.5576E+00   1.5955E+00   2.8446E-05  0.0305
   1.5955E+00   1.6343E+00   3.1041E-05  0.0288
   1.6343E+00   1.6741E+00   3.2002E-05  0.0280
   1.6741E+00   1.7148E+00   3.3095E-05  0.0272
   1.7148E+00   1.7565E+00   3.4107E-05  0.0265
   1.7565E+00   1.7992E+00   3.5496E-05  0.0257
   1.7992E+00   1.8430E+00   3.7840E-05  0.0246
   1.8430E+00   1.8879E+00   3.6729E-05  0.0246
   1.8879E+00   1.9338E+00   3.9057E-05  0.0236
   1.9338E+00   1.9808E+00   4.0509E-05  0.0229
   1.9808E+00   2.0290E+00   4.2172E-05  0.0222
   2.0290E+00   2.0784E+00   4.2193E-05  0.0219
   2.0784E+00   2.1290E+00   4.3732E-05  0.0213
   2.1290E+00   2.1808E+00   4.5821E-05  0.0205
   2.1808E+00   2.2338E+00   4.6410E-05  0.0202
   2.2338E+00   2.2882E+00   5.0606E-05  0.0191
   2.2882E+00   2.3439E+00   5.0087E-05  0.0189
   2.3439E+00   2.4009E+00   5.4105E-05  0.0180
   2.4009E+00   2.4593E+00   5.4515E-05  0.0177
   2.4593E+00   2.5191E+00   5.4799E-05  0.0175
   2.5191E+00   2.5804E+00   5.5357E-05  0.0172
   2.5804E+00   2.6432E+00   5.6878E-05  0.0167
   2.6432E+00   2.7075E+00   5.7369E-05  0.0165
   2.7075E+00   2.7734E+00   6.0097E-05  0.0159
   2.7734E+00   2.8409E+00   6.1071E-05  0.0156
   2.8409E+00   2.9100E+00   6.3946E-05  0.0150
   2.9100E+00   2.9808E+00   6.5527E-05  0.0147
   2.9808E+00   3.0533E+00   6.5205E-05  0.0145
   3.0533E+00   3.1276E+00   6.6267E-05  0.0143
   3.1276E+00   3.2037E+00   6.6257E-05  0.0141
   3.2037E+00   3.2817E+00   6.9128E-05  0.0136
   3.2817E+00   3.3615E+00   6.7699E-05  0.0136
   3.3615E+00   3.4433E+00   6.9955E-05  0.0132
   3.4433E+00   3.5271E+00   7.1826E-05  0.0129
   3.5271E+00   3.6129E+00   7.4135E-05  0.0125
   3.6129E+00   3.7008E+00   7.1686E-05  0.0126
   3.7008E+00   3.7908E+00   7.1660E-05  0.0125
   3.7908E+00   3.8831E+00   7.2993E-05  0.0122
   3.8831E+00   3.9776E+00   7.2980E-05  0.0120
   3.9776E+00   4.0743E+00   7.4315E-05  0.0118
   4.0743E+00   4.1735E+00   7.2283E-05  0.0118
   4.1735E+00   4.2750E+00   7.2161E-05  0.0117
   4.2750E+00   4.3790E+00   7.2052E-05  0.0115
   4.3790E+00   4.4856E+00   7.0871E-05  0.0115
   4.4856E+00   4.5947E+00   6.9701E-05  0.0115
   4.5947E+00   4.7065E+00   7.0836E-05  0.0112
   4.7065E+00   4.8210E+00   7.0538E-05  0.0111
   4.8210E+00   4.9383E+00   6.8675E-05  0.0111
   4.9383E+00   5.0585E+00   6.8134E-05  0.0110
   5.0585E+00   5.1815E+00   6.7401E-05  0.0110
   5.1815E+00   5.3076E+00   6.5443E-05  0.0110
   5.3076E+00   5.4368E+00   6.4427E-05  0.0110
   5.4368E+00   5.5690E+00   6.3316E-05  0.0109
   5.5690E+00   5.7045E+00   6.2454E-05  0.0109
   5.7045E+00   5.8433E+00   5.9036E-05  0.0110
   5.8433E+00   5.9855E+00   5.9684E-05  0.0108
   5.9855E+00   6.1311E+00   5.7841E-05  0.0109
   6.1311E+00   6.2803E+00   5.5505E-05  0.0110
   6.2803E+00   6.4331E+00   5.4354E-05  0.0110
   6.4331E+00   6.5896E+00   5.3264E-05  0.0109
   6.5896E+00   6.7500E+00   5.1057E-05  0.0110
   6.7500E+00   6.9142E+00   5.0212E-05  0.0110
   6.9142E+00   7.0824E+00   4.7810E-05  0.0111
   7.0824E+00   7.2548E+00   4.6164E-05  0.0112
   7.2548E+00   7.4313E+00   4.5540E-05  0.0111
   7.4313E+00   7.6121E+00   4.2960E-05  0.0113
   7.6121E+00   7.7973E+00   4.1721E-05  0.0114
   7.7973E+00   7.9870E+00   4.0724E-05  0.0114
   7.9870E+00   8.1813E+00   3.9685E-05  0.0114
   8.1813E+00   8.3804E+00   3.7436E-05  0.0116
   8.3804E+00   8.5843E+00   3.6336E-05  0.0116
   8.5843E+00   8.7931E+00   3.5073E-05  0.0117
   8.7931E+00   9.0071E+00   3.3710E-05  0.0118
   9.0071E+00   9.2262E+00   3.2553E-05  0.0118
   9.2262E+00   9.4507E+00   3.1112E-05  0.0120
   9.4507E+00   9.6807E+00   3.0366E-05  0.0120
   9.6807E+00   9.9162E+00   2.8995E-05  0.0121
   9.9162E+00   1.0157E+01   2.7776E-05  0.0122
   1.0157E+01   1.0405E+01   2.7440E-05  0.0121
   1.0405E+01   1.0658E+01   2.6269E-05  0.0123
   1.0658E+01   1.0917E+01   2.5608E-05  0.0123
   1.0917E+01   1.1183E+01   2.3867E-05  0.0126
   1.1183E+01   1.1455E+01   2.3197E-05  0.0126
   1.1455E+01   1.1733E+01   2.1946E-05  0.0128
   1.1733E+01   1.2019E+01   2.1406E-05  0.0128
   1.2019E+01   1.2311E+01   2.0174E-05  0.0130
   1.2311E+01   1.2611E+01   1.9900E-05  0.0129
   1.2611E+01   1.2918E+01   1.8960E-05  0.0131
   1.2918E+01   1.3232E+01   1.7716E-05  0.0134
   1.3232E+01   1.3554E+01   1.7672E-05  0.0133
   1.3554E+01   1.3884E+01   1.6637E-05  0.0135
   1.3884E+01   1.4222E+01   1.6311E-05  0.0135
   1.4222E+01   1.4568E+01   1.5755E-05  0.0135
   1.4568E+01   1.4922E+01   1.4703E-05  0.0139
   1.4922E+01   1.5285E+01   1.3851E-05  0.0141
   1.5285E+01   1.5657E+01   1.3267E-05  0.0142
   1.5657E+01   1.6038E+01   1.2920E-05  0.0143
   1.6038E+01   1.6428E+01   1.2244E-05  0.0145
   1.6428E+01   1.6828E+01   1.1616E-05  0.0147
   1.6828E+01   1.7237E+01   1.1041E-05  0.0149
   1.7237E+01   1.7657E+01   1.0526E-05  0.0151
   1.7657E+01   1.8086E+01   9.7730E-06  0.0154
   1.8086E+01   1.8526E+01   9.3568E-06  0.0156
   1.8526E+01   1.8977E+01   8.8849E-06  0.0158
   1.8977E+01   1.9439E+01   8.4476E-06  0.0160
   1.9439E+01   1.9912E+01   8.0048E-06  0.0163
   1.9912E+01   2.0396E+01   7.6743E-06  0.0164
   2.0396E+01   2.0893E+01   7.4135E-06  0.0165
   2.0893E+01   2.1401E+01   7.0446E-06  0.0167
   2.1401E+01   2.1922E+01   6.6910E-06  0.0169
   2.1922E+01   2.2455E+01   6.1683E-06  0.0174
   2.2455E+01   2.3001E+01   5.6246E-06  0.0180
   2.3001E+01   2.3561E+01   5.1730E-06  0.0186
   2.3561E+01   2.4134E+01   4.8233E-06  0.0190
   2.4134E+01   2.4721E+01   4.4516E-06  0.0196
   2.4721E+01   2.5323E+01   4.1314E-06  0.0201
   2.5323E+01   2.5939E+01   3.7444E-06  0.0208
   2.5939E+01   2.6570E+01   3.3861E-06  0.0216
   2.6570E+01   2.7217E+01   3.1664E-06  0.0221
   2.7217E+01   2.7879E+01   2.7937E-06  0.0232
   2.7879E+01   2.8557E+01   2.5106E-06  0.0242
   2.8557E+01   2.9252E+01   2.1891E-06  0.0256
   2.9252E+01   2.9964E+01   2.0275E-06  0.0263
   2.9964E+01   3.0693E+01   1.8476E-06  0.0272
   3.0693E+01   3.1440E+01   1.5895E-06  0.0290
   3.1440E+01   3.2205E+01   1.4197E-06  0.0303
   3.2205E+01   3.2988E+01   1.2660E-06  0.0318
   3.2988E+01   3.3791E+01   1.1948E-06  0.0323
   3.3791E+01   3.4613E+01   9.3535E-07  0.0361
   3.4613E+01   3.5455E+01   8.3476E-07  0.0377
   3.5455E+01   3.6318E+01   7.8943E-07  0.0383
   3.6318E+01   3.7201E+01   6.7448E-07  0.0410
   3.7201E+01   3.8106E+01   5.5461E-07  0.0446
   3.8106E+01   3.9034E+01   4.8212E-07  0.0473
   3.9034E+01   3.9983E+01   3.9485E-07  0.0516
   3.9983E+01   4.0956E+01   3.4744E-07  0.0544
   4.0956E+01   4.1953E+01   2.9102E-07  0.0587
   4.1953E+01   4.2973E+01   2.4198E-07  0.0636
   4.2973E+01   4.4019E+01   1.8650E-07  0.0716
   4.4019E+01   4.5090E+01   1.5219E-07  0.0783
   4.5090E+01   4.6187E+01   1.1759E-07  0.0880
   4.6187E+01   4.7311E+01   8.8097E-08  0.1005
   4.7311E+01   4.8462E+01   8.9479E-08  0.0985
   4.8462E+01   4.9641E+01   5.3430E-08  0.1260
   4.9641E+01   5.0849E+01   3.7258E-08  0.1491
   5.0849E+01   5.2086E+01   1.6166E-08  0.2236
   5.2086E+01   5.3353E+01   7.1017E-09  0.3333
   5.3353E+01   5.4651E+01   1.5407E-09  0.7071
   5.4651E+01   5.5981E+01   0.0000E+00  0.0000
   5.5981E+01   5.7343E+01   0.0000E+00  0.0000
   5.7343E+01   5.8738E+01   0.0000E+00  0.0000
   5.8738E+01   6.0168E+01   0.0000E+00  0.0000
   6.0168E+01   6.1632E+01   0.0000E+00  0.0000
   6.1632E+01   6.3131E+01   0.0000E+00  0.0000
   6.3131E+01   6.4667E+01   0.0000E+00  0.0000
   6.4667E+01   6.6240E+01   0.0000E+00  0.0000
   6.6240E+01   6.7852E+01   0.0000E+00  0.0000
   6.7852E+01   6.9503E+01   0.0000E+00  0.0000
   6.9503E+01   7.1194E+01   0.0000E+00  0.0000
   7.1194E+01   7.2926E+01   0.0000E+00  0.0000
   7.2926E+01   7.4701E+01   0.0000E+00  0.0000
   7.4701E+01   7.6518E+01   0.0000E+00  0.0000
   7.6518E+01   7.8380E+01   0.0000E+00  0.0000
   7.8380E+01   8.0287E+01   0.0000E+00  0.0000
   8.0287E+01   8.2240E+01   0.0000E+00  0.0000
   8.2240E+01   8.4241E+01   0.0000E+00  0.0000
   8.4241E+01   8.6291E+01   0.0000E+00  0.0000
   8.6291E+01   8.8391E+01   0.0000E+00  0.0000
   8.8391E+01   9.0541E+01   0.0000E+00  0.0000
   9.0541E+01   9.2744E+01   0.0000E+00  0.0000
   9.2744E+01   9.5001E+01   0.0000E+00  0.0000
   9.5001E+01   9.7312E+01   0.0000E+00  0.0000
   9.7312E+01   9.9680E+01   0.0000E+00  0.0000
   9.9680E+01   1.0211E+02   0.0000E+00  0.0000
   1.0211E+02   1.0459E+02   0.0000E+00  0.0000
   1.0459E+02   1.0713E+02   0.0000E+00  0.0000
   1.0713E+02   1.0974E+02   0.0000E+00  0.0000
   1.0974E+02   1.1241E+02   0.0000E+00  0.0000
   1.1241E+02   1.1515E+02   0.0000E+00  0.0000
   1.1515E+02   1.1795E+02   0.0000E+00  0.0000
   1.1795E+02   1.2082E+02   0.0000E+00  0.0000
   1.2082E+02   1.2376E+02   0.0000E+00  0.0000
   1.2376E+02   1.2677E+02   0.0000E+00  0.0000
   1.2677E+02   1.2985E+02   0.0000E+00  0.0000
   1.2985E+02   1.3301E+02   0.0000E+00  0.0000
   1.3301E+02   1.3625E+02   0.0000E+00  0.0000
   1.3625E+02   1.3956E+02   0.0000E+00  0.0000
   1.3956E+02   1.4296E+02   0.0000E+00  0.0000
   1.4296E+02   1.4644E+02   0.0000E+00  0.0000
   1.4644E+02   1.5000E+02   0.0000E+00  0.0000

#   sum over                 4.6819E-06
'no. =    1   reg = 113 - 213'
msuc: {\huge [t-cross] in region mesh}
msdr: {\it plotted by \ANGEL \version}
msdl: {\it calculated by \PHITS  3.26}
wt: s(0.7)
\vspace{-3}
  region surface crossing
  area  &=&   1.0000E+00 [cm^2]
e:
 
# Information for Restart Calculation
# This calculation was newly started
# istdev =  2 # 1:Batch variance, 2:History variance
# resc2  = 1.00000000000000000E+09 # Total source weight or Total source weight / maxcas
# resc3  = 1.00000000000000000E+09 # Total history number or Total batch number
# maxcas =   500000000 # History / Batch, only used for istdev=1
# bitrseed = 0001001110011001001001110000100100110111001111011100001000101100 # bit data of rseed
