[ T-Cross ]
    title = [t-cross] in region mesh
     mesh =  reg            # mesh type is region-wise
      reg =    1            # number of crossing regions
      non     r-from    r-to       area
      1       110       210        1.000000    
   e-type =    3            # e-mesh is log given by emin, emax and ne
     emin =  1.0000000E-02  # minimum value of e-mesh points
     emax =   150.0000      # maximum value of e-mesh points
#    edel =  2.4039514E-02  # mesh width of e-mesh points
       ne =    400          # number of e-mesh points
#    data = ( e(i), i = 1, ne + 1 )
#           1.00000E-02  1.02433E-02  1.04925E-02  1.07478E-02  1.10093E-02
#           1.12772E-02  1.15516E-02  1.18326E-02  1.21205E-02  1.24154E-02
#           1.27175E-02  1.30269E-02  1.33439E-02  1.36686E-02  1.40011E-02
#           1.43418E-02  1.46907E-02  1.50482E-02  1.54143E-02  1.57894E-02
#           1.61735E-02  1.65670E-02  1.69701E-02  1.73830E-02  1.78060E-02
#           1.82392E-02  1.86830E-02  1.91375E-02  1.96032E-02  2.00801E-02
#           2.05687E-02  2.10692E-02  2.15818E-02  2.21069E-02  2.26448E-02
#           2.31957E-02  2.37601E-02  2.43382E-02  2.49304E-02  2.55369E-02
#           2.61583E-02  2.67947E-02  2.74467E-02  2.81145E-02  2.87985E-02
#           2.94992E-02  3.02169E-02  3.09521E-02  3.17052E-02  3.24766E-02
#           3.32668E-02  3.40762E-02  3.49053E-02  3.57546E-02  3.66246E-02
#           3.75157E-02  3.84284E-02  3.93634E-02  4.03212E-02  4.13022E-02
#           4.23071E-02  4.33365E-02  4.43909E-02  4.54710E-02  4.65773E-02
#           4.77106E-02  4.88714E-02  5.00605E-02  5.12785E-02  5.25262E-02
#           5.38042E-02  5.51133E-02  5.64542E-02  5.78278E-02  5.92348E-02
#           6.06760E-02  6.21523E-02  6.36645E-02  6.52135E-02  6.68002E-02
#           6.84255E-02  7.00904E-02  7.17957E-02  7.35426E-02  7.53319E-02
#           7.71648E-02  7.90423E-02  8.09655E-02  8.29354E-02  8.49533E-02
#           8.70203E-02  8.91376E-02  9.13064E-02  9.35279E-02  9.58035E-02
#           9.81345E-02  1.00522E-01  1.02968E-01  1.05473E-01  1.08040E-01
#           1.10668E-01  1.13361E-01  1.16119E-01  1.18944E-01  1.21838E-01
#           1.24803E-01  1.27839E-01  1.30950E-01  1.34136E-01  1.37399E-01
#           1.40742E-01  1.44167E-01  1.47675E-01  1.51268E-01  1.54948E-01
#           1.58718E-01  1.62580E-01  1.66535E-01  1.70587E-01  1.74738E-01
#           1.78989E-01  1.83344E-01  1.87805E-01  1.92375E-01  1.97055E-01
#           2.01850E-01  2.06761E-01  2.11792E-01  2.16945E-01  2.22223E-01
#           2.27630E-01  2.33169E-01  2.38842E-01  2.44653E-01  2.50605E-01
#           2.56703E-01  2.62949E-01  2.69346E-01  2.75900E-01  2.82613E-01
#           2.89489E-01  2.96532E-01  3.03747E-01  3.11138E-01  3.18708E-01
#           3.26462E-01  3.34405E-01  3.42542E-01  3.50876E-01  3.59413E-01
#           3.68158E-01  3.77116E-01  3.86291E-01  3.95690E-01  4.05317E-01
#           4.15179E-01  4.25281E-01  4.35628E-01  4.46227E-01  4.57084E-01
#           4.68205E-01  4.79597E-01  4.91266E-01  5.03219E-01  5.15463E-01
#           5.28005E-01  5.40851E-01  5.54011E-01  5.67490E-01  5.81298E-01
#           5.95441E-01  6.09929E-01  6.24769E-01  6.39970E-01  6.55541E-01
#           6.71491E-01  6.87828E-01  7.04564E-01  7.21706E-01  7.39266E-01
#           7.57253E-01  7.75678E-01  7.94551E-01  8.13883E-01  8.33685E-01
#           8.53969E-01  8.74747E-01  8.96030E-01  9.17831E-01  9.40163E-01
#           9.63038E-01  9.86469E-01  1.01047E+00  1.03506E+00  1.06024E+00
#           1.08604E+00  1.11246E+00  1.13953E+00  1.16725E+00  1.19565E+00
#           1.22474E+00  1.25454E+00  1.28507E+00  1.31633E+00  1.34836E+00
#           1.38117E+00  1.41477E+00  1.44920E+00  1.48446E+00  1.52057E+00
#           1.55757E+00  1.59547E+00  1.63429E+00  1.67405E+00  1.71478E+00
#           1.75650E+00  1.79924E+00  1.84302E+00  1.88786E+00  1.93379E+00
#           1.98084E+00  2.02904E+00  2.07841E+00  2.12898E+00  2.18078E+00
#           2.23384E+00  2.28819E+00  2.34386E+00  2.40089E+00  2.45930E+00
#           2.51914E+00  2.58043E+00  2.64322E+00  2.70753E+00  2.77341E+00
#           2.84088E+00  2.91001E+00  2.98081E+00  3.05333E+00  3.12762E+00
#           3.20372E+00  3.28167E+00  3.36152E+00  3.44330E+00  3.52708E+00
#           3.61290E+00  3.70080E+00  3.79085E+00  3.88308E+00  3.97756E+00
#           4.07434E+00  4.17347E+00  4.27501E+00  4.37903E+00  4.48557E+00
#           4.59471E+00  4.70650E+00  4.82102E+00  4.93832E+00  5.05847E+00
#           5.18155E+00  5.30762E+00  5.43676E+00  5.56904E+00  5.70453E+00
#           5.84333E+00  5.98550E+00  6.13114E+00  6.28031E+00  6.43312E+00
#           6.58964E+00  6.74997E+00  6.91420E+00  7.08243E+00  7.25475E+00
#           7.43126E+00  7.61207E+00  7.79728E+00  7.98700E+00  8.18133E+00
#           8.38038E+00  8.58428E+00  8.79315E+00  9.00709E+00  9.22624E+00
#           9.45072E+00  9.68067E+00  9.91620E+00  1.01575E+01  1.04046E+01
#           1.06578E+01  1.09171E+01  1.11827E+01  1.14548E+01  1.17335E+01
#           1.20190E+01  1.23114E+01  1.26109E+01  1.29178E+01  1.32321E+01
#           1.35540E+01  1.38838E+01  1.42216E+01  1.45676E+01  1.49221E+01
#           1.52851E+01  1.56570E+01  1.60380E+01  1.64282E+01  1.68279E+01
#           1.72374E+01  1.76568E+01  1.80864E+01  1.85264E+01  1.89772E+01
#           1.94389E+01  1.99119E+01  2.03963E+01  2.08926E+01  2.14009E+01
#           2.19216E+01  2.24550E+01  2.30014E+01  2.35610E+01  2.41343E+01
#           2.47215E+01  2.53230E+01  2.59391E+01  2.65702E+01  2.72167E+01
#           2.78789E+01  2.85572E+01  2.92520E+01  2.99637E+01  3.06928E+01
#           3.14396E+01  3.22045E+01  3.29881E+01  3.37907E+01  3.46128E+01
#           3.54550E+01  3.63177E+01  3.72013E+01  3.81064E+01  3.90336E+01
#           3.99833E+01  4.09561E+01  4.19526E+01  4.29734E+01  4.40189E+01
#           4.50900E+01  4.61870E+01  4.73108E+01  4.84619E+01  4.96410E+01
#           5.08488E+01  5.20860E+01  5.33533E+01  5.46514E+01  5.59812E+01
#           5.73432E+01  5.87384E+01  6.01676E+01  6.16315E+01  6.31311E+01
#           6.46671E+01  6.62405E+01  6.78522E+01  6.95031E+01  7.11941E+01
#           7.29263E+01  7.47007E+01  7.65182E+01  7.83800E+01  8.02870E+01
#           8.22405E+01  8.42414E+01  8.62911E+01  8.83906E+01  9.05412E+01
#           9.27442E+01  9.50007E+01  9.73122E+01  9.96799E+01  1.02105E+02
#           1.04589E+02  1.07134E+02  1.09741E+02  1.12411E+02  1.15146E+02
#           1.17948E+02  1.20817E+02  1.23757E+02  1.26768E+02  1.29852E+02
#           1.33012E+02  1.36248E+02  1.39563E+02  1.42959E+02  1.46437E+02
#           1.50000E+02
     unit =    2            # unit is [1/cm^2/(MeV/n)/source]
     axis =  eng            # axis of output
     file = detector-11.out  # file name of output for the above axis
   output = f-curr          # surface crossing forward current spectrum
     part =  neutron  
# kf/name :  2112     
#    used :        main (  %)        temp (  %)       total (  %)
#  memory :         414 (  0)           0 (  0)         414 (  0)

#------------------------------------------------------------------------------
#newpage:
#   no. =    1   reg = 110 - 210

x: Energy [MeV/n]
y:  F-Curr [1/cm^2/(MeV/n)/source]         
p: xlog ylog afac(0.8) form(0.9)
h: n            x            y(neutron ),hh0l   n 
#  e-lower      e-upper      neutron     r.err 
   1.0000E-02   1.0243E-02   5.7540E-05  0.2673
   1.0243E-02   1.0493E-02   5.2161E-05  0.2774
   1.0493E-02   1.0748E-02   3.1337E-05  0.3536
   1.0748E-02   1.1009E-02   3.8240E-05  0.3162
   1.1009E-02   1.1277E-02   4.1065E-05  0.3015
   1.1277E-02   1.1552E-02   6.5602E-05  0.2357
   1.1552E-02   1.1833E-02   4.2696E-05  0.2887
   1.1833E-02   1.2121E-02   4.5155E-05  0.2774
   1.2121E-02   1.2415E-02   4.7473E-05  0.2673
   1.2415E-02   1.2718E-02   5.6277E-05  0.2425
   1.2718E-02   1.3027E-02   5.4940E-05  0.2425
   1.3027E-02   1.3344E-02   4.7325E-05  0.2582
   1.3344E-02   1.3669E-02   4.3121E-05  0.2673
   1.3669E-02   1.4001E-02   5.7131E-05  0.2294
   1.4001E-02   1.4342E-02   3.8161E-05  0.2774
   1.4342E-02   1.4691E-02   4.8718E-05  0.2425
   1.4691E-02   1.5048E-02   4.4763E-05  0.2500
   1.5048E-02   1.5414E-02   3.2775E-05  0.2887
   1.5414E-02   1.5789E-02   5.0661E-05  0.2294
   1.5789E-02   1.6174E-02   4.4252E-05  0.2425
   1.6174E-02   1.6567E-02   4.8283E-05  0.2294
   1.6567E-02   1.6970E-02   6.2021E-05  0.2000
   1.6970E-02   1.7383E-02   4.6016E-05  0.2294
   1.7383E-02   1.7806E-02   4.2559E-05  0.2357
   1.7806E-02   1.8239E-02   4.8473E-05  0.2182
   1.8239E-02   1.8683E-02   4.9575E-05  0.2132
   1.8683E-02   1.9138E-02   3.9598E-05  0.2357
   1.9138E-02   1.9603E-02   4.9395E-05  0.2085
   1.9603E-02   2.0080E-02   3.3546E-05  0.2500
   2.0080E-02   2.0569E-02   3.6843E-05  0.2357
   2.0569E-02   2.1069E-02   4.3960E-05  0.2132
   2.1069E-02   2.1582E-02   5.0719E-05  0.1961
   2.1582E-02   2.2107E-02   3.9992E-05  0.2182
   2.2107E-02   2.2645E-02   4.2761E-05  0.2085
   2.2645E-02   2.3196E-02   5.2635E-05  0.1857
   2.3196E-02   2.3760E-02   4.9613E-05  0.1890
   2.3760E-02   2.4338E-02   4.1515E-05  0.2041
   2.4338E-02   2.4930E-02   5.5727E-05  0.1741
   2.4930E-02   2.5537E-02   4.1215E-05  0.2000
   2.5537E-02   2.6158E-02   4.8283E-05  0.1826
   2.6158E-02   2.6795E-02   4.2423E-05  0.1925
   2.6795E-02   2.7447E-02   4.4483E-05  0.1857
   2.7447E-02   2.8114E-02   3.5939E-05  0.2041
   2.8114E-02   2.8799E-02   3.2162E-05  0.2132
   2.8799E-02   2.9499E-02   4.8524E-05  0.1715
   2.9499E-02   3.0217E-02   4.3191E-05  0.1796
   3.0217E-02   3.0952E-02   4.7606E-05  0.1690
   3.0952E-02   3.1705E-02   3.9836E-05  0.1826
   3.1705E-02   3.2477E-02   3.5001E-05  0.1925
   3.2477E-02   3.3267E-02   4.4294E-05  0.1690
   3.3267E-02   3.4076E-02   3.7064E-05  0.1826
   3.4076E-02   3.4905E-02   4.4627E-05  0.1644
   3.4905E-02   3.5755E-02   4.1212E-05  0.1690
   3.5755E-02   3.6625E-02   4.7130E-05  0.1562
   3.6625E-02   3.7516E-02   4.3766E-05  0.1601
   3.7516E-02   3.8428E-02   4.1631E-05  0.1622
   3.8428E-02   3.9363E-02   5.4546E-05  0.1400
   3.9363E-02   4.0321E-02   3.2368E-05  0.1796
   4.0321E-02   4.1302E-02   3.8734E-05  0.1622
   4.1302E-02   4.2307E-02   4.8760E-05  0.1429
   4.2307E-02   4.3337E-02   3.8859E-05  0.1581
   4.3337E-02   4.4391E-02   4.1729E-05  0.1508
   4.4391E-02   4.5471E-02   3.7961E-05  0.1562
   4.5471E-02   4.6577E-02   3.7059E-05  0.1562
   4.6577E-02   4.7711E-02   4.4120E-05  0.1414
   4.7711E-02   4.8871E-02   4.3072E-05  0.1414
   4.8871E-02   5.0061E-02   4.2049E-05  0.1414
   5.0061E-02   5.1279E-02   3.5303E-05  0.1525
   5.1279E-02   5.2526E-02   4.2480E-05  0.1374
   5.2526E-02   5.3804E-02   2.8169E-05  0.1667
   5.3804E-02   5.5113E-02   3.6666E-05  0.1443
   5.5113E-02   5.6454E-02   4.1761E-05  0.1336
   5.6454E-02   5.7828E-02   3.6401E-05  0.1414
   5.7828E-02   5.9235E-02   4.0512E-05  0.1325
   5.9235E-02   6.0676E-02   4.0937E-05  0.1302
   6.0676E-02   6.2152E-02   4.1320E-05  0.1280
   6.2152E-02   6.3665E-02   3.7032E-05  0.1336
   6.3665E-02   6.5214E-02   5.2292E-05  0.1111
   6.5214E-02   6.6800E-02   3.7184E-05  0.1302
   6.6800E-02   6.8426E-02   3.3840E-05  0.1348
   6.8426E-02   7.0090E-02   3.6640E-05  0.1280
   7.0090E-02   7.1796E-02   4.0461E-05  0.1204
   7.1796E-02   7.3543E-02   4.2362E-05  0.1162
   7.3543E-02   7.5332E-02   4.3591E-05  0.1132
   7.5332E-02   7.7165E-02   3.2735E-05  0.1291
   7.7165E-02   7.9042E-02   3.6751E-05  0.1204
   7.9042E-02   8.0965E-02   3.9518E-05  0.1147
   8.0965E-02   8.2935E-02   4.1118E-05  0.1111
   8.2935E-02   8.4953E-02   3.9645E-05  0.1118
   8.4953E-02   8.7020E-02   4.3058E-05  0.1060
   8.7020E-02   8.9138E-02   3.3061E-05  0.1195
   8.9138E-02   9.1306E-02   3.7809E-05  0.1104
   9.1306E-02   9.3528E-02   4.4563E-05  0.1005
   9.3528E-02   9.5804E-02   3.3837E-05  0.1140
   9.5804E-02   9.8134E-02   4.1184E-05  0.1021
   9.8134E-02   1.0052E-01   3.6437E-05  0.1072
   1.0052E-01   1.0297E-01   3.8025E-05  0.1037
   1.0297E-01   1.0547E-01   3.9516E-05  0.1005
   1.0547E-01   1.0804E-01   4.0916E-05  0.0976
   1.0804E-01   1.1067E-01   4.0324E-05  0.0971
   1.1067E-01   1.1336E-01   4.5680E-05  0.0902
   1.1336E-01   1.1612E-01   4.2782E-05  0.0921
   1.1612E-01   1.1894E-01   4.3182E-05  0.0905
   1.1894E-01   1.2184E-01   4.4920E-05  0.0877
   1.2184E-01   1.2480E-01   4.5540E-05  0.0861
   1.2480E-01   1.2784E-01   4.1824E-05  0.0887
   1.2784E-01   1.3095E-01   3.9223E-05  0.0913
   1.3095E-01   1.3414E-01   3.9861E-05  0.0887
   1.3414E-01   1.3740E-01   4.0139E-05  0.0874
   1.3740E-01   1.4074E-01   3.9186E-05  0.0874
   1.4074E-01   1.4417E-01   4.2343E-05  0.0830
   1.4417E-01   1.4767E-01   4.7039E-05  0.0778
   1.4767E-01   1.5127E-01   3.6459E-05  0.0874
   1.5127E-01   1.5495E-01   4.6462E-05  0.0765
   1.5495E-01   1.5872E-01   3.8461E-05  0.0830
   1.5872E-01   1.6258E-01   4.4281E-05  0.0765
   1.6258E-01   1.6654E-01   4.2470E-05  0.0772
   1.6654E-01   1.7059E-01   4.2202E-05  0.0765
   1.7059E-01   1.7474E-01   3.5658E-05  0.0822
   1.7474E-01   1.7899E-01   4.3749E-05  0.0733
   1.7899E-01   1.8334E-01   3.9495E-05  0.0762
   1.8334E-01   1.8781E-01   4.9766E-05  0.0671
   1.8781E-01   1.9237E-01   4.2237E-05  0.0720
   1.9237E-01   1.9706E-01   3.7815E-05  0.0752
   1.9706E-01   2.0185E-01   4.0880E-05  0.0714
   2.0185E-01   2.0676E-01   3.9502E-05  0.0718
   2.0676E-01   2.1179E-01   4.4726E-05  0.0667
   2.1179E-01   2.1694E-01   4.5410E-05  0.0654
   2.1694E-01   2.2222E-01   4.0353E-05  0.0685
   2.2222E-01   2.2763E-01   4.0689E-05  0.0674
   2.2763E-01   2.3317E-01   4.9111E-05  0.0606
   2.3317E-01   2.3884E-01   4.0542E-05  0.0659
   2.3884E-01   2.4465E-01   4.4225E-05  0.0624
   2.4465E-01   2.5061E-01   4.4686E-05  0.0613
   2.5061E-01   2.5670E-01   4.3789E-05  0.0612
   2.5670E-01   2.6295E-01   4.6271E-05  0.0588
   2.6295E-01   2.6935E-01   4.5641E-05  0.0585
   2.6935E-01   2.7590E-01   4.1810E-05  0.0604
   2.7590E-01   2.8261E-01   4.1562E-05  0.0599
   2.8261E-01   2.8949E-01   4.8573E-05  0.0547
   2.8949E-01   2.9653E-01   4.5148E-05  0.0561
   2.9653E-01   3.0375E-01   4.7402E-05  0.0541
   3.0375E-01   3.1114E-01   4.2217E-05  0.0566
   3.1114E-01   3.1871E-01   4.6234E-05  0.0535
   3.1871E-01   3.2646E-01   4.4104E-05  0.0541
   3.2646E-01   3.3441E-01   4.0916E-05  0.0555
   3.3441E-01   3.4254E-01   4.6704E-05  0.0513
   3.4254E-01   3.5088E-01   4.5715E-05  0.0512
   3.5088E-01   3.5941E-01   4.1466E-05  0.0531
   3.5941E-01   3.6816E-01   4.2540E-05  0.0518
   3.6816E-01   3.7712E-01   4.4767E-05  0.0499
   3.7712E-01   3.8629E-01   4.5229E-05  0.0491
   3.8629E-01   3.9569E-01   4.2878E-05  0.0498
   3.9569E-01   4.0532E-01   4.9026E-05  0.0460
   4.0532E-01   4.1518E-01   4.2285E-05  0.0490
   4.1518E-01   4.2528E-01   4.4349E-05  0.0472
   4.2528E-01   4.3563E-01   4.6678E-05  0.0455
   4.3563E-01   4.4623E-01   4.4909E-05  0.0458
   4.4623E-01   4.5708E-01   4.0803E-05  0.0475
   4.5708E-01   4.6821E-01   4.5858E-05  0.0443
   4.6821E-01   4.7960E-01   4.5296E-05  0.0440
   4.7960E-01   4.9127E-01   4.7305E-05  0.0426
   4.9127E-01   5.0322E-01   4.8858E-05  0.0414
   5.0322E-01   5.1546E-01   4.5901E-05  0.0422
   5.1546E-01   5.2800E-01   4.6485E-05  0.0414
   5.2800E-01   5.4085E-01   4.0555E-05  0.0438
   5.4085E-01   5.5401E-01   4.6431E-05  0.0405
   5.5401E-01   5.6749E-01   4.3325E-05  0.0414
   5.6749E-01   5.8130E-01   4.3455E-05  0.0408
   5.8130E-01   5.9544E-01   4.8079E-05  0.0383
   5.9544E-01   6.0993E-01   4.4383E-05  0.0394
   6.0993E-01   6.2477E-01   4.3127E-05  0.0395
   6.2477E-01   6.3997E-01   4.4470E-05  0.0385
   6.3997E-01   6.5554E-01   4.3350E-05  0.0385
   6.5554E-01   6.7149E-01   4.2884E-05  0.0382
   6.7149E-01   6.8783E-01   4.2600E-05  0.0379
   6.8783E-01   7.0456E-01   4.4277E-05  0.0367
   7.0456E-01   7.2171E-01   4.0192E-05  0.0381
   7.2171E-01   7.3927E-01   4.3793E-05  0.0361
   7.3927E-01   7.5725E-01   4.3031E-05  0.0359
   7.5725E-01   7.7568E-01   4.2009E-05  0.0359
   7.7568E-01   7.9455E-01   4.0481E-05  0.0362
   7.9455E-01   8.1388E-01   4.0503E-05  0.0357
   8.1388E-01   8.3368E-01   3.9844E-05  0.0356
   8.3368E-01   8.5397E-01   3.6679E-05  0.0367
   8.5397E-01   8.7475E-01   3.7492E-05  0.0358
   8.7475E-01   8.9603E-01   3.5145E-05  0.0366
   8.9603E-01   9.1783E-01   3.2842E-05  0.0374
   9.1783E-01   9.4016E-01   3.3361E-05  0.0366
   9.4016E-01   9.6304E-01   3.1956E-05  0.0370
   9.6304E-01   9.8647E-01   3.0941E-05  0.0371
   9.8647E-01   1.0105E+00   2.8748E-05  0.0381
   1.0105E+00   1.0351E+00   3.2621E-05  0.0354
   1.0351E+00   1.0602E+00   2.9503E-05  0.0367
   1.0602E+00   1.0860E+00   3.1283E-05  0.0352
   1.0860E+00   1.1125E+00   3.1713E-05  0.0345
   1.1125E+00   1.1395E+00   3.1330E-05  0.0343
   1.1395E+00   1.1673E+00   3.1415E-05  0.0339
   1.1673E+00   1.1957E+00   3.1338E-05  0.0335
   1.1957E+00   1.2247E+00   3.3412E-05  0.0321
   1.2247E+00   1.2545E+00   3.3726E-05  0.0315
   1.2545E+00   1.2851E+00   3.7053E-05  0.0297
   1.2851E+00   1.3163E+00   3.4669E-05  0.0304
   1.3163E+00   1.3484E+00   3.3502E-05  0.0306
   1.3484E+00   1.3812E+00   3.5267E-05  0.0294
   1.3812E+00   1.4148E+00   3.8536E-05  0.0278
   1.4148E+00   1.4492E+00   3.7011E-05  0.0280
   1.4492E+00   1.4845E+00   3.5621E-05  0.0282
   1.4845E+00   1.5206E+00   3.6962E-05  0.0274
   1.5206E+00   1.5576E+00   3.7192E-05  0.0270
   1.5576E+00   1.5955E+00   3.7708E-05  0.0265
   1.5955E+00   1.6343E+00   3.8847E-05  0.0258
   1.6343E+00   1.6741E+00   3.8628E-05  0.0255
   1.6741E+00   1.7148E+00   3.7932E-05  0.0254
   1.7148E+00   1.7565E+00   3.9356E-05  0.0247
   1.7565E+00   1.7992E+00   3.6994E-05  0.0252
   1.7992E+00   1.8430E+00   3.9107E-05  0.0242
   1.8430E+00   1.8879E+00   3.7710E-05  0.0243
   1.8879E+00   1.9338E+00   3.9623E-05  0.0235
   1.9338E+00   1.9808E+00   4.0424E-05  0.0229
   1.9808E+00   2.0290E+00   3.8966E-05  0.0231
   2.0290E+00   2.0784E+00   3.8466E-05  0.0229
   2.0784E+00   2.1290E+00   3.9372E-05  0.0224
   2.1290E+00   2.1808E+00   3.7703E-05  0.0226
   2.1808E+00   2.2338E+00   3.7580E-05  0.0224
   2.2338E+00   2.2882E+00   3.8454E-05  0.0219
   2.2882E+00   2.3439E+00   3.8546E-05  0.0216
   2.3439E+00   2.4009E+00   3.7140E-05  0.0217
   2.4009E+00   2.4593E+00   3.7678E-05  0.0213
   2.4593E+00   2.5191E+00   3.7268E-05  0.0212
   2.5191E+00   2.5804E+00   3.7280E-05  0.0209
   2.5804E+00   2.6432E+00   3.6347E-05  0.0209
   2.6432E+00   2.7075E+00   3.5095E-05  0.0210
   2.7075E+00   2.7734E+00   3.6037E-05  0.0205
   2.7734E+00   2.8409E+00   3.5211E-05  0.0205
   2.8409E+00   2.9100E+00   3.6371E-05  0.0199
   2.9100E+00   2.9808E+00   3.4985E-05  0.0201
   2.9808E+00   3.0533E+00   3.4043E-05  0.0201
   3.0533E+00   3.1276E+00   3.2171E-05  0.0205
   3.1276E+00   3.2037E+00   3.1690E-05  0.0204
   3.2037E+00   3.2817E+00   3.1700E-05  0.0201
   3.2817E+00   3.3615E+00   3.1223E-05  0.0200
   3.3615E+00   3.4433E+00   2.9931E-05  0.0202
   3.4433E+00   3.5271E+00   2.9620E-05  0.0201
   3.5271E+00   3.6129E+00   2.8217E-05  0.0203
   3.6129E+00   3.7008E+00   2.7120E-05  0.0205
   3.7008E+00   3.7908E+00   2.6565E-05  0.0204
   3.7908E+00   3.8831E+00   2.6850E-05  0.0201
   3.8831E+00   3.9776E+00   2.5535E-05  0.0204
   3.9776E+00   4.0743E+00   2.4789E-05  0.0204
   4.0743E+00   4.1735E+00   2.4588E-05  0.0203
   4.1735E+00   4.2750E+00   2.2946E-05  0.0207
   4.2750E+00   4.3790E+00   2.2261E-05  0.0208
   4.3790E+00   4.4856E+00   2.0649E-05  0.0213
   4.4856E+00   4.5947E+00   2.0204E-05  0.0213
   4.5947E+00   4.7065E+00   2.0104E-05  0.0211
   4.7065E+00   4.8210E+00   1.8959E-05  0.0215
   4.8210E+00   4.9383E+00   1.8363E-05  0.0215
   4.9383E+00   5.0585E+00   1.7057E-05  0.0221
   5.0585E+00   5.1815E+00   1.6949E-05  0.0219
   5.1815E+00   5.3076E+00   1.6130E-05  0.0222
   5.3076E+00   5.4368E+00   1.4906E-05  0.0228
   5.4368E+00   5.5690E+00   1.4250E-05  0.0230
   5.5690E+00   5.7045E+00   1.3502E-05  0.0234
   5.7045E+00   5.8433E+00   1.2875E-05  0.0237
   5.8433E+00   5.9855E+00   1.2270E-05  0.0239
   5.9855E+00   6.1311E+00   1.1550E-05  0.0244
   6.1311E+00   6.2803E+00   1.0746E-05  0.0250
   6.2803E+00   6.4331E+00   1.0438E-05  0.0250
   6.4331E+00   6.5896E+00   9.8069E-06  0.0255
   6.5896E+00   6.7500E+00   9.4367E-06  0.0257
   6.7500E+00   6.9142E+00   8.8564E-06  0.0262
   6.9142E+00   7.0824E+00   8.6460E-06  0.0262
   7.0824E+00   7.2548E+00   7.8023E-06  0.0273
   7.2548E+00   7.4313E+00   7.6680E-06  0.0272
   7.4313E+00   7.6121E+00   7.2203E-06  0.0277
   7.6121E+00   7.7973E+00   6.2902E-06  0.0293
   7.7973E+00   7.9870E+00   6.5862E-06  0.0283
   7.9870E+00   8.1813E+00   5.8946E-06  0.0295
   8.1813E+00   8.3804E+00   5.8978E-06  0.0292
   8.3804E+00   8.5843E+00   5.2722E-06  0.0305
   8.5843E+00   8.7931E+00   5.1374E-06  0.0305
   8.7931E+00   9.0071E+00   4.5245E-06  0.0321
   9.0071E+00   9.2262E+00   4.4445E-06  0.0320
   9.2262E+00   9.4507E+00   4.0627E-06  0.0331
   9.4507E+00   9.6807E+00   3.9357E-06  0.0332
   9.6807E+00   9.9162E+00   3.7064E-06  0.0338
   9.9162E+00   1.0157E+01   3.4961E-06  0.0344
   1.0157E+01   1.0405E+01   3.0347E-06  0.0365
   1.0405E+01   1.0658E+01   2.9014E-06  0.0369
   1.0658E+01   1.0917E+01   2.9116E-06  0.0364
   1.0917E+01   1.1183E+01   2.5280E-06  0.0386
   1.1183E+01   1.1455E+01   2.4625E-06  0.0386
   1.1455E+01   1.1733E+01   2.2820E-06  0.0397
   1.1733E+01   1.2019E+01   2.0071E-06  0.0418
   1.2019E+01   1.2311E+01   1.8586E-06  0.0429
   1.2311E+01   1.2611E+01   1.9363E-06  0.0415
   1.2611E+01   1.2918E+01   1.7844E-06  0.0427
   1.2918E+01   1.3232E+01   1.5813E-06  0.0449
   1.3232E+01   1.3554E+01   1.2984E-06  0.0489
   1.3554E+01   1.3884E+01   1.3524E-06  0.0474
   1.3884E+01   1.4222E+01   1.2788E-06  0.0481
   1.4222E+01   1.4568E+01   1.0780E-06  0.0518
   1.4568E+01   1.4922E+01   9.9311E-07  0.0533
   1.4922E+01   1.5285E+01   9.5024E-07  0.0538
   1.5285E+01   1.5657E+01   8.3625E-07  0.0567
   1.5657E+01   1.6038E+01   7.6913E-07  0.0584
   1.6038E+01   1.6428E+01   6.8680E-07  0.0611
   1.6428E+01   1.6828E+01   5.8792E-07  0.0652
   1.6828E+01   1.7237E+01   5.1046E-07  0.0692
   1.7237E+01   1.7657E+01   3.9819E-07  0.0774
   1.7657E+01   1.8086E+01   4.3296E-07  0.0733
   1.8086E+01   1.8526E+01   3.3632E-07  0.0822
   1.8526E+01   1.8977E+01   2.2628E-07  0.0990
   1.8977E+01   1.9439E+01   1.9708E-07  0.1048
   1.9439E+01   1.9912E+01   1.5223E-07  0.1179
   1.9912E+01   2.0396E+01   1.2591E-07  0.1280
   2.0396E+01   2.0893E+01   6.2467E-08  0.1796
   2.0893E+01   2.1401E+01   1.7705E-08  0.3333
   2.1401E+01   2.1922E+01   1.9205E-09  1.0000
   2.1922E+01   2.2455E+01   0.0000E+00  0.0000
   2.2455E+01   2.3001E+01   0.0000E+00  0.0000
   2.3001E+01   2.3561E+01   0.0000E+00  0.0000
   2.3561E+01   2.4134E+01   0.0000E+00  0.0000
   2.4134E+01   2.4721E+01   0.0000E+00  0.0000
   2.4721E+01   2.5323E+01   0.0000E+00  0.0000
   2.5323E+01   2.5939E+01   0.0000E+00  0.0000
   2.5939E+01   2.6570E+01   0.0000E+00  0.0000
   2.6570E+01   2.7217E+01   0.0000E+00  0.0000
   2.7217E+01   2.7879E+01   0.0000E+00  0.0000
   2.7879E+01   2.8557E+01   0.0000E+00  0.0000
   2.8557E+01   2.9252E+01   0.0000E+00  0.0000
   2.9252E+01   2.9964E+01   0.0000E+00  0.0000
   2.9964E+01   3.0693E+01   0.0000E+00  0.0000
   3.0693E+01   3.1440E+01   0.0000E+00  0.0000
   3.1440E+01   3.2205E+01   0.0000E+00  0.0000
   3.2205E+01   3.2988E+01   0.0000E+00  0.0000
   3.2988E+01   3.3791E+01   0.0000E+00  0.0000
   3.3791E+01   3.4613E+01   0.0000E+00  0.0000
   3.4613E+01   3.5455E+01   0.0000E+00  0.0000
   3.5455E+01   3.6318E+01   0.0000E+00  0.0000
   3.6318E+01   3.7201E+01   0.0000E+00  0.0000
   3.7201E+01   3.8106E+01   0.0000E+00  0.0000
   3.8106E+01   3.9034E+01   0.0000E+00  0.0000
   3.9034E+01   3.9983E+01   0.0000E+00  0.0000
   3.9983E+01   4.0956E+01   0.0000E+00  0.0000
   4.0956E+01   4.1953E+01   0.0000E+00  0.0000
   4.1953E+01   4.2973E+01   0.0000E+00  0.0000
   4.2973E+01   4.4019E+01   0.0000E+00  0.0000
   4.4019E+01   4.5090E+01   0.0000E+00  0.0000
   4.5090E+01   4.6187E+01   0.0000E+00  0.0000
   4.6187E+01   4.7311E+01   0.0000E+00  0.0000
   4.7311E+01   4.8462E+01   0.0000E+00  0.0000
   4.8462E+01   4.9641E+01   0.0000E+00  0.0000
   4.9641E+01   5.0849E+01   0.0000E+00  0.0000
   5.0849E+01   5.2086E+01   0.0000E+00  0.0000
   5.2086E+01   5.3353E+01   0.0000E+00  0.0000
   5.3353E+01   5.4651E+01   0.0000E+00  0.0000
   5.4651E+01   5.5981E+01   0.0000E+00  0.0000
   5.5981E+01   5.7343E+01   0.0000E+00  0.0000
   5.7343E+01   5.8738E+01   0.0000E+00  0.0000
   5.8738E+01   6.0168E+01   0.0000E+00  0.0000
   6.0168E+01   6.1632E+01   0.0000E+00  0.0000
   6.1632E+01   6.3131E+01   0.0000E+00  0.0000
   6.3131E+01   6.4667E+01   0.0000E+00  0.0000
   6.4667E+01   6.6240E+01   0.0000E+00  0.0000
   6.6240E+01   6.7852E+01   0.0000E+00  0.0000
   6.7852E+01   6.9503E+01   0.0000E+00  0.0000
   6.9503E+01   7.1194E+01   0.0000E+00  0.0000
   7.1194E+01   7.2926E+01   0.0000E+00  0.0000
   7.2926E+01   7.4701E+01   0.0000E+00  0.0000
   7.4701E+01   7.6518E+01   0.0000E+00  0.0000
   7.6518E+01   7.8380E+01   0.0000E+00  0.0000
   7.8380E+01   8.0287E+01   0.0000E+00  0.0000
   8.0287E+01   8.2240E+01   0.0000E+00  0.0000
   8.2240E+01   8.4241E+01   0.0000E+00  0.0000
   8.4241E+01   8.6291E+01   0.0000E+00  0.0000
   8.6291E+01   8.8391E+01   0.0000E+00  0.0000
   8.8391E+01   9.0541E+01   0.0000E+00  0.0000
   9.0541E+01   9.2744E+01   0.0000E+00  0.0000
   9.2744E+01   9.5001E+01   0.0000E+00  0.0000
   9.5001E+01   9.7312E+01   0.0000E+00  0.0000
   9.7312E+01   9.9680E+01   0.0000E+00  0.0000
   9.9680E+01   1.0211E+02   0.0000E+00  0.0000
   1.0211E+02   1.0459E+02   0.0000E+00  0.0000
   1.0459E+02   1.0713E+02   0.0000E+00  0.0000
   1.0713E+02   1.0974E+02   0.0000E+00  0.0000
   1.0974E+02   1.1241E+02   0.0000E+00  0.0000
   1.1241E+02   1.1515E+02   0.0000E+00  0.0000
   1.1515E+02   1.1795E+02   0.0000E+00  0.0000
   1.1795E+02   1.2082E+02   0.0000E+00  0.0000
   1.2082E+02   1.2376E+02   0.0000E+00  0.0000
   1.2376E+02   1.2677E+02   0.0000E+00  0.0000
   1.2677E+02   1.2985E+02   0.0000E+00  0.0000
   1.2985E+02   1.3301E+02   0.0000E+00  0.0000
   1.3301E+02   1.3625E+02   0.0000E+00  0.0000
   1.3625E+02   1.3956E+02   0.0000E+00  0.0000
   1.3956E+02   1.4296E+02   0.0000E+00  0.0000
   1.4296E+02   1.4644E+02   0.0000E+00  0.0000
   1.4644E+02   1.5000E+02   0.0000E+00  0.0000

#   sum over                 1.4497E-06
'no. =    1   reg = 110 - 210'
msuc: {\huge [t-cross] in region mesh}
msdr: {\it plotted by \ANGEL \version}
msdl: {\it calculated by \PHITS  3.26}
wt: s(0.7)
\vspace{-3}
  region surface crossing
  area  &=&   1.0000E+00 [cm^2]
e:
 
# Information for Restart Calculation
# This calculation was newly started
# istdev =  2 # 1:Batch variance, 2:History variance
# resc2  = 1.00000000000000000E+09 # Total source weight or Total source weight / maxcas
# resc3  = 1.00000000000000000E+09 # Total history number or Total batch number
# maxcas =   500000000 # History / Batch, only used for istdev=1
# bitrseed = 0001001110011001001001110000100100110111001111011100001000101100 # bit data of rseed
