[ T-Cross ]
    title = [t-cross] in region mesh
     mesh =  reg            # mesh type is region-wise
      reg =    1            # number of crossing regions
      non     r-from    r-to       area
      1       116       216        1.000000    
   e-type =    3            # e-mesh is log given by emin, emax and ne
     emin =  1.0000000E-02  # minimum value of e-mesh points
     emax =   150.0000      # maximum value of e-mesh points
#    edel =  2.4039514E-02  # mesh width of e-mesh points
       ne =    400          # number of e-mesh points
#    data = ( e(i), i = 1, ne + 1 )
#           1.00000E-02  1.02433E-02  1.04925E-02  1.07478E-02  1.10093E-02
#           1.12772E-02  1.15516E-02  1.18326E-02  1.21205E-02  1.24154E-02
#           1.27175E-02  1.30269E-02  1.33439E-02  1.36686E-02  1.40011E-02
#           1.43418E-02  1.46907E-02  1.50482E-02  1.54143E-02  1.57894E-02
#           1.61735E-02  1.65670E-02  1.69701E-02  1.73830E-02  1.78060E-02
#           1.82392E-02  1.86830E-02  1.91375E-02  1.96032E-02  2.00801E-02
#           2.05687E-02  2.10692E-02  2.15818E-02  2.21069E-02  2.26448E-02
#           2.31957E-02  2.37601E-02  2.43382E-02  2.49304E-02  2.55369E-02
#           2.61583E-02  2.67947E-02  2.74467E-02  2.81145E-02  2.87985E-02
#           2.94992E-02  3.02169E-02  3.09521E-02  3.17052E-02  3.24766E-02
#           3.32668E-02  3.40762E-02  3.49053E-02  3.57546E-02  3.66246E-02
#           3.75157E-02  3.84284E-02  3.93634E-02  4.03212E-02  4.13022E-02
#           4.23071E-02  4.33365E-02  4.43909E-02  4.54710E-02  4.65773E-02
#           4.77106E-02  4.88714E-02  5.00605E-02  5.12785E-02  5.25262E-02
#           5.38042E-02  5.51133E-02  5.64542E-02  5.78278E-02  5.92348E-02
#           6.06760E-02  6.21523E-02  6.36645E-02  6.52135E-02  6.68002E-02
#           6.84255E-02  7.00904E-02  7.17957E-02  7.35426E-02  7.53319E-02
#           7.71648E-02  7.90423E-02  8.09655E-02  8.29354E-02  8.49533E-02
#           8.70203E-02  8.91376E-02  9.13064E-02  9.35279E-02  9.58035E-02
#           9.81345E-02  1.00522E-01  1.02968E-01  1.05473E-01  1.08040E-01
#           1.10668E-01  1.13361E-01  1.16119E-01  1.18944E-01  1.21838E-01
#           1.24803E-01  1.27839E-01  1.30950E-01  1.34136E-01  1.37399E-01
#           1.40742E-01  1.44167E-01  1.47675E-01  1.51268E-01  1.54948E-01
#           1.58718E-01  1.62580E-01  1.66535E-01  1.70587E-01  1.74738E-01
#           1.78989E-01  1.83344E-01  1.87805E-01  1.92375E-01  1.97055E-01
#           2.01850E-01  2.06761E-01  2.11792E-01  2.16945E-01  2.22223E-01
#           2.27630E-01  2.33169E-01  2.38842E-01  2.44653E-01  2.50605E-01
#           2.56703E-01  2.62949E-01  2.69346E-01  2.75900E-01  2.82613E-01
#           2.89489E-01  2.96532E-01  3.03747E-01  3.11138E-01  3.18708E-01
#           3.26462E-01  3.34405E-01  3.42542E-01  3.50876E-01  3.59413E-01
#           3.68158E-01  3.77116E-01  3.86291E-01  3.95690E-01  4.05317E-01
#           4.15179E-01  4.25281E-01  4.35628E-01  4.46227E-01  4.57084E-01
#           4.68205E-01  4.79597E-01  4.91266E-01  5.03219E-01  5.15463E-01
#           5.28005E-01  5.40851E-01  5.54011E-01  5.67490E-01  5.81298E-01
#           5.95441E-01  6.09929E-01  6.24769E-01  6.39970E-01  6.55541E-01
#           6.71491E-01  6.87828E-01  7.04564E-01  7.21706E-01  7.39266E-01
#           7.57253E-01  7.75678E-01  7.94551E-01  8.13883E-01  8.33685E-01
#           8.53969E-01  8.74747E-01  8.96030E-01  9.17831E-01  9.40163E-01
#           9.63038E-01  9.86469E-01  1.01047E+00  1.03506E+00  1.06024E+00
#           1.08604E+00  1.11246E+00  1.13953E+00  1.16725E+00  1.19565E+00
#           1.22474E+00  1.25454E+00  1.28507E+00  1.31633E+00  1.34836E+00
#           1.38117E+00  1.41477E+00  1.44920E+00  1.48446E+00  1.52057E+00
#           1.55757E+00  1.59547E+00  1.63429E+00  1.67405E+00  1.71478E+00
#           1.75650E+00  1.79924E+00  1.84302E+00  1.88786E+00  1.93379E+00
#           1.98084E+00  2.02904E+00  2.07841E+00  2.12898E+00  2.18078E+00
#           2.23384E+00  2.28819E+00  2.34386E+00  2.40089E+00  2.45930E+00
#           2.51914E+00  2.58043E+00  2.64322E+00  2.70753E+00  2.77341E+00
#           2.84088E+00  2.91001E+00  2.98081E+00  3.05333E+00  3.12762E+00
#           3.20372E+00  3.28167E+00  3.36152E+00  3.44330E+00  3.52708E+00
#           3.61290E+00  3.70080E+00  3.79085E+00  3.88308E+00  3.97756E+00
#           4.07434E+00  4.17347E+00  4.27501E+00  4.37903E+00  4.48557E+00
#           4.59471E+00  4.70650E+00  4.82102E+00  4.93832E+00  5.05847E+00
#           5.18155E+00  5.30762E+00  5.43676E+00  5.56904E+00  5.70453E+00
#           5.84333E+00  5.98550E+00  6.13114E+00  6.28031E+00  6.43312E+00
#           6.58964E+00  6.74997E+00  6.91420E+00  7.08243E+00  7.25475E+00
#           7.43126E+00  7.61207E+00  7.79728E+00  7.98700E+00  8.18133E+00
#           8.38038E+00  8.58428E+00  8.79315E+00  9.00709E+00  9.22624E+00
#           9.45072E+00  9.68067E+00  9.91620E+00  1.01575E+01  1.04046E+01
#           1.06578E+01  1.09171E+01  1.11827E+01  1.14548E+01  1.17335E+01
#           1.20190E+01  1.23114E+01  1.26109E+01  1.29178E+01  1.32321E+01
#           1.35540E+01  1.38838E+01  1.42216E+01  1.45676E+01  1.49221E+01
#           1.52851E+01  1.56570E+01  1.60380E+01  1.64282E+01  1.68279E+01
#           1.72374E+01  1.76568E+01  1.80864E+01  1.85264E+01  1.89772E+01
#           1.94389E+01  1.99119E+01  2.03963E+01  2.08926E+01  2.14009E+01
#           2.19216E+01  2.24550E+01  2.30014E+01  2.35610E+01  2.41343E+01
#           2.47215E+01  2.53230E+01  2.59391E+01  2.65702E+01  2.72167E+01
#           2.78789E+01  2.85572E+01  2.92520E+01  2.99637E+01  3.06928E+01
#           3.14396E+01  3.22045E+01  3.29881E+01  3.37907E+01  3.46128E+01
#           3.54550E+01  3.63177E+01  3.72013E+01  3.81064E+01  3.90336E+01
#           3.99833E+01  4.09561E+01  4.19526E+01  4.29734E+01  4.40189E+01
#           4.50900E+01  4.61870E+01  4.73108E+01  4.84619E+01  4.96410E+01
#           5.08488E+01  5.20860E+01  5.33533E+01  5.46514E+01  5.59812E+01
#           5.73432E+01  5.87384E+01  6.01676E+01  6.16315E+01  6.31311E+01
#           6.46671E+01  6.62405E+01  6.78522E+01  6.95031E+01  7.11941E+01
#           7.29263E+01  7.47007E+01  7.65182E+01  7.83800E+01  8.02870E+01
#           8.22405E+01  8.42414E+01  8.62911E+01  8.83906E+01  9.05412E+01
#           9.27442E+01  9.50007E+01  9.73122E+01  9.96799E+01  1.02105E+02
#           1.04589E+02  1.07134E+02  1.09741E+02  1.12411E+02  1.15146E+02
#           1.17948E+02  1.20817E+02  1.23757E+02  1.26768E+02  1.29852E+02
#           1.33012E+02  1.36248E+02  1.39563E+02  1.42959E+02  1.46437E+02
#           1.50000E+02
     unit =    2            # unit is [1/cm^2/(MeV/n)/source]
     axis =  eng            # axis of output
     file = detector-17.out  # file name of output for the above axis
   output = f-curr          # surface crossing forward current spectrum
     part =  neutron  
# kf/name :  2112     
#    used :        main (  %)        temp (  %)       total (  %)
#  memory :         414 (  0)           0 (  0)         414 (  0)

#------------------------------------------------------------------------------
#newpage:
#   no. =    1   reg = 116 - 216

x: Energy [MeV/n]
y:  F-Curr [1/cm^2/(MeV/n)/source]         
p: xlog ylog afac(0.8) form(0.9)
h: n            x            y(neutron ),hh0l   n 
#  e-lower      e-upper      neutron     r.err 
   1.0000E-02   1.0243E-02   3.1042E-04  0.0514
   1.0243E-02   1.0493E-02   3.1698E-04  0.0503
   1.0493E-02   1.0748E-02   3.3922E-04  0.0481
   1.0748E-02   1.1009E-02   3.0937E-04  0.0497
   1.1009E-02   1.1277E-02   3.1793E-04  0.0484
   1.1277E-02   1.1552E-02   3.0588E-04  0.0488
   1.1552E-02   1.1833E-02   2.9495E-04  0.0491
   1.1833E-02   1.2121E-02   3.2245E-04  0.0464
   1.2121E-02   1.2415E-02   2.9128E-04  0.0482
   1.2415E-02   1.2718E-02   2.9792E-04  0.0471
   1.2718E-02   1.3027E-02   2.7013E-04  0.0489
   1.3027E-02   1.3344E-02   2.8227E-04  0.0473
   1.3344E-02   1.3669E-02   2.9291E-04  0.0458
   1.3669E-02   1.4001E-02   2.7583E-04  0.0467
   1.4001E-02   1.4342E-02   2.9728E-04  0.0444
   1.4342E-02   1.4691E-02   3.1361E-04  0.0427
   1.4691E-02   1.5048E-02   2.5577E-04  0.0467
   1.5048E-02   1.5414E-02   2.5564E-04  0.0462
   1.5414E-02   1.5789E-02   2.6207E-04  0.0451
   1.5789E-02   1.6174E-02   2.5969E-04  0.0448
   1.6174E-02   1.6567E-02   2.6158E-04  0.0440
   1.6567E-02   1.6970E-02   2.5699E-04  0.0439
   1.6970E-02   1.7383E-02   2.7579E-04  0.0419
   1.7383E-02   1.7806E-02   2.6519E-04  0.0422
   1.7806E-02   1.8239E-02   2.6183E-04  0.0420
   1.8239E-02   1.8683E-02   2.7416E-04  0.0405
   1.8683E-02   1.9138E-02   2.4619E-04  0.0422
   1.9138E-02   1.9603E-02   2.5799E-04  0.0408
   1.9603E-02   2.0080E-02   2.6906E-04  0.0395
   2.0080E-02   2.0569E-02   2.4150E-04  0.0411
   2.0569E-02   2.1069E-02   2.5822E-04  0.0393
   2.1069E-02   2.1582E-02   2.5244E-04  0.0393
   2.1582E-02   2.2107E-02   2.4300E-04  0.0396
   2.2107E-02   2.2645E-02   2.4801E-04  0.0387
   2.2645E-02   2.3196E-02   2.4073E-04  0.0388
   2.3196E-02   2.3760E-02   2.4054E-04  0.0384
   2.3760E-02   2.4338E-02   2.3530E-04  0.0383
   2.4338E-02   2.4930E-02   2.2947E-04  0.0383
   2.4930E-02   2.5537E-02   2.3783E-04  0.0372
   2.5537E-02   2.6158E-02   2.2376E-04  0.0379
   2.6158E-02   2.6795E-02   2.2095E-04  0.0377
   2.6795E-02   2.7447E-02   2.1700E-04  0.0376
   2.7447E-02   2.8114E-02   2.1572E-04  0.0372
   2.8114E-02   2.8799E-02   2.1498E-04  0.0369
   2.8799E-02   2.9499E-02   2.0888E-04  0.0369
   2.9499E-02   3.0217E-02   2.1238E-04  0.0362
   3.0217E-02   3.0952E-02   2.2324E-04  0.0349
   3.0952E-02   3.1705E-02   1.9853E-04  0.0366
   3.1705E-02   3.2477E-02   2.1046E-04  0.0351
   3.2477E-02   3.3267E-02   2.2050E-04  0.0339
   3.3267E-02   3.4076E-02   2.0443E-04  0.0347
   3.4076E-02   3.4905E-02   2.0337E-04  0.0344
   3.4905E-02   3.5755E-02   1.9534E-04  0.0347
   3.5755E-02   3.6625E-02   2.0403E-04  0.0336
   3.6625E-02   3.7516E-02   1.9359E-04  0.0340
   3.7516E-02   3.8428E-02   1.8368E-04  0.0345
   3.8428E-02   3.9363E-02   1.9950E-04  0.0327
   3.9363E-02   4.0321E-02   1.9720E-04  0.0325
   4.0321E-02   4.1302E-02   2.0066E-04  0.0319
   4.1302E-02   4.2307E-02   1.8978E-04  0.0324
   4.2307E-02   4.3337E-02   1.8739E-04  0.0322
   4.3337E-02   4.4391E-02   1.7961E-04  0.0325
   4.4391E-02   4.5471E-02   1.8101E-04  0.0320
   4.5471E-02   4.6577E-02   1.8770E-04  0.0310
   4.6577E-02   4.7711E-02   1.7698E-04  0.0316
   4.7711E-02   4.8871E-02   1.7401E-04  0.0315
   4.8871E-02   5.0061E-02   1.7924E-04  0.0306
   5.0061E-02   5.1279E-02   1.7938E-04  0.0302
   5.1279E-02   5.2526E-02   1.8368E-04  0.0295
   5.2526E-02   5.3804E-02   1.7287E-04  0.0301
   5.3804E-02   5.5113E-02   1.7138E-04  0.0298
   5.5113E-02   5.6454E-02   1.7376E-04  0.0293
   5.6454E-02   5.7828E-02   1.7079E-04  0.0292
   5.7828E-02   5.9235E-02   1.6827E-04  0.0291
   5.9235E-02   6.0676E-02   1.6988E-04  0.0286
   6.0676E-02   6.2152E-02   1.6732E-04  0.0284
   6.2152E-02   6.3665E-02   1.6863E-04  0.0280
   6.3665E-02   6.5214E-02   1.6645E-04  0.0278
   6.5214E-02   6.6800E-02   1.5221E-04  0.0288
   6.6800E-02   6.8426E-02   1.6283E-04  0.0275
   6.8426E-02   7.0090E-02   1.6082E-04  0.0273
   7.0090E-02   7.1796E-02   1.5976E-04  0.0271
   7.1796E-02   7.3543E-02   1.5978E-04  0.0268
   7.3543E-02   7.5332E-02   1.4879E-04  0.0274
   7.5332E-02   7.7165E-02   1.5756E-04  0.0263
   7.7165E-02   7.9042E-02   1.4753E-04  0.0269
   7.9042E-02   8.0965E-02   1.5175E-04  0.0262
   8.0965E-02   8.2935E-02   1.4401E-04  0.0265
   8.2935E-02   8.4953E-02   1.4181E-04  0.0264
   8.4953E-02   8.7020E-02   1.4626E-04  0.0257
   8.7020E-02   8.9138E-02   1.4028E-04  0.0259
   8.9138E-02   9.1306E-02   1.4826E-04  0.0249
   9.1306E-02   9.3528E-02   1.4098E-04  0.0253
   9.3528E-02   9.5804E-02   1.3796E-04  0.0252
   9.5804E-02   9.8134E-02   1.3667E-04  0.0250
   9.8134E-02   1.0052E-01   1.3516E-04  0.0249
   1.0052E-01   1.0297E-01   1.3310E-04  0.0248
   1.0297E-01   1.0547E-01   1.3715E-04  0.0241
   1.0547E-01   1.0804E-01   1.3379E-04  0.0241
   1.0804E-01   1.1067E-01   1.3154E-04  0.0240
   1.1067E-01   1.1336E-01   1.3065E-04  0.0238
   1.1336E-01   1.1612E-01   1.3313E-04  0.0233
   1.1612E-01   1.1894E-01   1.2476E-04  0.0238
   1.1894E-01   1.2184E-01   1.2413E-04  0.0236
   1.2184E-01   1.2480E-01   1.2355E-04  0.0234
   1.2480E-01   1.2784E-01   1.2021E-04  0.0234
   1.2784E-01   1.3095E-01   1.2074E-04  0.0231
   1.3095E-01   1.3414E-01   1.1855E-04  0.0230
   1.3414E-01   1.3740E-01   1.2226E-04  0.0224
   1.3740E-01   1.4074E-01   1.2121E-04  0.0222
   1.4074E-01   1.4417E-01   1.1550E-04  0.0225
   1.4417E-01   1.4767E-01   1.1755E-04  0.0220
   1.4767E-01   1.5127E-01   1.1190E-04  0.0223
   1.5127E-01   1.5495E-01   1.0916E-04  0.0223
   1.5495E-01   1.5872E-01   1.0692E-04  0.0223
   1.5872E-01   1.6258E-01   1.1189E-04  0.0215
   1.6258E-01   1.6654E-01   1.0657E-04  0.0218
   1.6654E-01   1.7059E-01   1.0696E-04  0.0215
   1.7059E-01   1.7474E-01   1.0623E-04  0.0213
   1.7474E-01   1.7899E-01   1.0320E-04  0.0213
   1.7899E-01   1.8334E-01   9.8410E-05  0.0216
   1.8334E-01   1.8781E-01   9.7458E-05  0.0214
   1.8781E-01   1.9237E-01   9.7190E-05  0.0212
   1.9237E-01   1.9706E-01   9.0554E-05  0.0217
   1.9706E-01   2.0185E-01   9.3653E-05  0.0211
   2.0185E-01   2.0676E-01   9.5234E-05  0.0207
   2.0676E-01   2.1179E-01   9.3684E-05  0.0206
   2.1179E-01   2.1694E-01   9.9071E-05  0.0198
   2.1694E-01   2.2222E-01   9.7212E-05  0.0197
   2.2222E-01   2.2763E-01   1.0005E-04  0.0192
   2.2763E-01   2.3317E-01   9.9606E-05  0.0190
   2.3317E-01   2.3884E-01   1.0085E-04  0.0187
   2.3884E-01   2.4465E-01   1.0194E-04  0.0184
   2.4465E-01   2.5061E-01   9.9627E-05  0.0184
   2.5061E-01   2.5670E-01   1.0091E-04  0.0180
   2.5670E-01   2.6295E-01   1.0534E-04  0.0174
   2.6295E-01   2.6935E-01   1.0394E-04  0.0173
   2.6935E-01   2.7590E-01   1.0686E-04  0.0169
   2.7590E-01   2.8261E-01   1.0552E-04  0.0168
   2.8261E-01   2.8949E-01   1.0741E-04  0.0164
   2.8949E-01   2.9653E-01   1.0776E-04  0.0162
   2.9653E-01   3.0375E-01   1.1093E-04  0.0158
   3.0375E-01   3.1114E-01   1.0833E-04  0.0158
   3.1114E-01   3.1871E-01   1.1161E-04  0.0154
   3.1871E-01   3.2646E-01   1.1122E-04  0.0152
   3.2646E-01   3.3441E-01   1.1388E-04  0.0149
   3.3441E-01   3.4254E-01   1.1200E-04  0.0148
   3.4254E-01   3.5088E-01   1.1337E-04  0.0145
   3.5088E-01   3.5941E-01   1.1298E-04  0.0144
   3.5941E-01   3.6816E-01   1.1553E-04  0.0141
   3.6816E-01   3.7712E-01   1.1635E-04  0.0138
   3.7712E-01   3.8629E-01   1.1691E-04  0.0136
   3.8629E-01   3.9569E-01   1.1743E-04  0.0135
   3.9569E-01   4.0532E-01   1.1613E-04  0.0134
   4.0532E-01   4.1518E-01   1.1848E-04  0.0131
   4.1518E-01   4.2528E-01   1.2013E-04  0.0128
   4.2528E-01   4.3563E-01   1.2201E-04  0.0126
   4.3563E-01   4.4623E-01   1.2128E-04  0.0125
   4.4623E-01   4.5708E-01   1.2147E-04  0.0123
   4.5708E-01   4.6821E-01   1.1948E-04  0.0123
   4.6821E-01   4.7960E-01   1.2144E-04  0.0120
   4.7960E-01   4.9127E-01   1.2169E-04  0.0119
   4.9127E-01   5.0322E-01   1.2186E-04  0.0117
   5.0322E-01   5.1546E-01   1.2262E-04  0.0115
   5.1546E-01   5.2800E-01   1.2126E-04  0.0115
   5.2800E-01   5.4085E-01   1.2600E-04  0.0111
   5.4085E-01   5.5401E-01   1.2486E-04  0.0110
   5.5401E-01   5.6749E-01   1.2117E-04  0.0111
   5.6749E-01   5.8130E-01   1.2352E-04  0.0108
   5.8130E-01   5.9544E-01   1.2258E-04  0.0107
   5.9544E-01   6.0993E-01   1.2371E-04  0.0106
   6.0993E-01   6.2477E-01   1.2356E-04  0.0104
   6.2477E-01   6.3997E-01   1.2473E-04  0.0103
   6.3997E-01   6.5554E-01   1.2202E-04  0.0102
   6.5554E-01   6.7149E-01   1.2585E-04  0.0100
   6.7149E-01   6.8783E-01   1.2289E-04  0.0100
   6.8783E-01   7.0456E-01   1.2540E-04  0.0098
   7.0456E-01   7.2171E-01   1.2136E-04  0.0098
   7.2171E-01   7.3927E-01   1.2300E-04  0.0096
   7.3927E-01   7.5725E-01   1.2159E-04  0.0096
   7.5725E-01   7.7568E-01   1.2417E-04  0.0093
   7.7568E-01   7.9455E-01   1.2193E-04  0.0093
   7.9455E-01   8.1388E-01   1.2113E-04  0.0092
   8.1388E-01   8.3368E-01   1.1897E-04  0.0092
   8.3368E-01   8.5397E-01   1.1864E-04  0.0091
   8.5397E-01   8.7475E-01   1.1797E-04  0.0090
   8.7475E-01   8.9603E-01   1.1960E-04  0.0089
   8.9603E-01   9.1783E-01   1.1509E-04  0.0089
   9.1783E-01   9.4016E-01   1.1401E-04  0.0089
   9.4016E-01   9.6304E-01   1.1302E-04  0.0088
   9.6304E-01   9.8647E-01   1.1169E-04  0.0087
   9.8647E-01   1.0105E+00   1.0851E-04  0.0088
   1.0105E+00   1.0351E+00   1.0712E-04  0.0087
   1.0351E+00   1.0602E+00   1.0481E-04  0.0087
   1.0602E+00   1.0860E+00   1.0495E-04  0.0086
   1.0860E+00   1.1125E+00   1.0396E-04  0.0085
   1.1125E+00   1.1395E+00   1.0371E-04  0.0084
   1.1395E+00   1.1673E+00   1.0155E-04  0.0084
   1.1673E+00   1.1957E+00   1.0159E-04  0.0083
   1.1957E+00   1.2247E+00   1.0144E-04  0.0082
   1.2247E+00   1.2545E+00   9.7218E-05  0.0083
   1.2545E+00   1.2851E+00   9.6125E-05  0.0082
   1.2851E+00   1.3163E+00   9.6923E-05  0.0081
   1.3163E+00   1.3484E+00   9.4928E-05  0.0081
   1.3484E+00   1.3812E+00   9.3825E-05  0.0080
   1.3812E+00   1.4148E+00   9.3079E-05  0.0080
   1.4148E+00   1.4492E+00   9.1120E-05  0.0080
   1.4492E+00   1.4845E+00   9.0013E-05  0.0079
   1.4845E+00   1.5206E+00   8.8565E-05  0.0079
   1.5206E+00   1.5576E+00   8.6602E-05  0.0079
   1.5576E+00   1.5955E+00   8.5854E-05  0.0078
   1.5955E+00   1.6343E+00   8.5394E-05  0.0078
   1.6343E+00   1.6741E+00   8.3287E-05  0.0078
   1.6741E+00   1.7148E+00   8.1132E-05  0.0078
   1.7148E+00   1.7565E+00   7.9056E-05  0.0078
   1.7565E+00   1.7992E+00   7.7861E-05  0.0077
   1.7992E+00   1.8430E+00   7.4525E-05  0.0078
   1.8430E+00   1.8879E+00   7.4150E-05  0.0077
   1.8879E+00   1.9338E+00   7.3196E-05  0.0077
   1.9338E+00   1.9808E+00   7.0878E-05  0.0077
   1.9808E+00   2.0290E+00   6.9972E-05  0.0077
   2.0290E+00   2.0784E+00   6.8275E-05  0.0077
   2.0784E+00   2.1290E+00   6.6868E-05  0.0077
   2.1290E+00   2.1808E+00   6.5107E-05  0.0077
   2.1808E+00   2.2338E+00   6.3547E-05  0.0077
   2.2338E+00   2.2882E+00   6.2324E-05  0.0077
   2.2882E+00   2.3439E+00   5.9515E-05  0.0077
   2.3439E+00   2.4009E+00   5.8488E-05  0.0077
   2.4009E+00   2.4593E+00   5.8015E-05  0.0077
   2.4593E+00   2.5191E+00   5.6362E-05  0.0077
   2.5191E+00   2.5804E+00   5.4186E-05  0.0077
   2.5804E+00   2.6432E+00   5.3050E-05  0.0077
   2.6432E+00   2.7075E+00   5.1994E-05  0.0077
   2.7075E+00   2.7734E+00   5.0670E-05  0.0077
   2.7734E+00   2.8409E+00   4.9445E-05  0.0077
   2.8409E+00   2.9100E+00   4.7122E-05  0.0078
   2.9100E+00   2.9808E+00   4.6912E-05  0.0077
   2.9808E+00   3.0533E+00   4.5700E-05  0.0077
   3.0533E+00   3.1276E+00   4.3702E-05  0.0078
   3.1276E+00   3.2037E+00   4.2559E-05  0.0078
   3.2037E+00   3.2817E+00   4.1119E-05  0.0079
   3.2817E+00   3.3615E+00   3.9910E-05  0.0079
   3.3615E+00   3.4433E+00   3.7608E-05  0.0080
   3.4433E+00   3.5271E+00   3.5096E-05  0.0082
   3.5271E+00   3.6129E+00   3.2547E-05  0.0084
   3.6129E+00   3.7008E+00   3.0097E-05  0.0087
   3.7008E+00   3.7908E+00   2.8260E-05  0.0088
   3.7908E+00   3.8831E+00   2.6648E-05  0.0090
   3.8831E+00   3.9776E+00   2.5581E-05  0.0091
   3.9776E+00   4.0743E+00   2.4395E-05  0.0092
   4.0743E+00   4.1735E+00   2.3400E-05  0.0093
   4.1735E+00   4.2750E+00   2.2798E-05  0.0093
   4.2750E+00   4.3790E+00   2.1689E-05  0.0094
   4.3790E+00   4.4856E+00   2.1009E-05  0.0094
   4.4856E+00   4.5947E+00   1.9874E-05  0.0096
   4.5947E+00   4.7065E+00   1.9079E-05  0.0097
   4.7065E+00   4.8210E+00   1.7924E-05  0.0098
   4.8210E+00   4.9383E+00   1.7648E-05  0.0098
   4.9383E+00   5.0585E+00   1.6799E-05  0.0099
   5.0585E+00   5.1815E+00   1.5935E-05  0.0101
   5.1815E+00   5.3076E+00   1.5441E-05  0.0101
   5.3076E+00   5.4368E+00   1.4579E-05  0.0103
   5.4368E+00   5.5690E+00   1.3769E-05  0.0105
   5.5690E+00   5.7045E+00   1.3564E-05  0.0104
   5.7045E+00   5.8433E+00   1.2941E-05  0.0105
   5.8433E+00   5.9855E+00   1.2753E-05  0.0105
   5.9855E+00   6.1311E+00   1.1917E-05  0.0107
   6.1311E+00   6.2803E+00   1.1659E-05  0.0107
   6.2803E+00   6.4331E+00   1.0819E-05  0.0110
   6.4331E+00   6.5896E+00   1.0747E-05  0.0109
   6.5896E+00   6.7500E+00   1.0010E-05  0.0111
   6.7500E+00   6.9142E+00   9.6198E-06  0.0112
   6.9142E+00   7.0824E+00   9.4190E-06  0.0112
   7.0824E+00   7.2548E+00   8.8844E-06  0.0114
   7.2548E+00   7.4313E+00   8.4818E-06  0.0115
   7.4313E+00   7.6121E+00   8.1671E-06  0.0116
   7.6121E+00   7.7973E+00   7.9994E-06  0.0116
   7.7973E+00   7.9870E+00   7.6269E-06  0.0117
   7.9870E+00   8.1813E+00   7.1815E-06  0.0120
   8.1813E+00   8.3804E+00   6.8026E-06  0.0121
   8.3804E+00   8.5843E+00   6.3954E-06  0.0124
   8.5843E+00   8.7931E+00   6.0495E-06  0.0126
   8.7931E+00   9.0071E+00   5.7296E-06  0.0128
   9.0071E+00   9.2262E+00   5.5607E-06  0.0128
   9.2262E+00   9.4507E+00   5.2856E-06  0.0130
   9.4507E+00   9.6807E+00   5.0870E-06  0.0131
   9.6807E+00   9.9162E+00   4.6621E-06  0.0135
   9.9162E+00   1.0157E+01   4.5494E-06  0.0135
   1.0157E+01   1.0405E+01   4.4321E-06  0.0135
   1.0405E+01   1.0658E+01   4.2021E-06  0.0137
   1.0658E+01   1.0917E+01   4.0802E-06  0.0137
   1.0917E+01   1.1183E+01   3.6045E-06  0.0144
   1.1183E+01   1.1455E+01   3.4908E-06  0.0145
   1.1455E+01   1.1733E+01   3.1983E-06  0.0150
   1.1733E+01   1.2019E+01   2.8730E-06  0.0156
   1.2019E+01   1.2311E+01   2.5790E-06  0.0163
   1.2311E+01   1.2611E+01   2.4675E-06  0.0164
   1.2611E+01   1.2918E+01   2.2203E-06  0.0171
   1.2918E+01   1.3232E+01   2.2006E-06  0.0170
   1.3232E+01   1.3554E+01   2.0965E-06  0.0172
   1.3554E+01   1.3884E+01   1.9207E-06  0.0178
   1.3884E+01   1.4222E+01   1.8455E-06  0.0179
   1.4222E+01   1.4568E+01   1.6833E-06  0.0185
   1.4568E+01   1.4922E+01   1.4346E-06  0.0198
   1.4922E+01   1.5285E+01   1.3654E-06  0.0201
   1.5285E+01   1.5657E+01   1.2237E-06  0.0210
   1.5657E+01   1.6038E+01   1.0644E-06  0.0222
   1.6038E+01   1.6428E+01   1.0116E-06  0.0225
   1.6428E+01   1.6828E+01   8.9072E-07  0.0237
   1.6828E+01   1.7237E+01   7.4667E-07  0.0256
   1.7237E+01   1.7657E+01   6.3726E-07  0.0274
   1.7657E+01   1.8086E+01   6.6114E-07  0.0265
   1.8086E+01   1.8526E+01   6.6326E-07  0.0262
   1.8526E+01   1.8977E+01   5.5772E-07  0.0282
   1.8977E+01   1.9439E+01   4.6001E-07  0.0307
   1.9439E+01   1.9912E+01   3.1588E-07  0.0366
   1.9912E+01   2.0396E+01   1.1972E-07  0.0587
   2.0396E+01   2.0893E+01   1.3300E-08  0.1741
   2.0893E+01   2.1401E+01   7.0820E-09  0.2357
   2.1401E+01   2.1922E+01   5.7615E-09  0.2582
   2.1922E+01   2.2455E+01   2.6248E-09  0.3780
   2.2455E+01   2.3001E+01   2.1964E-09  0.4082
   2.3001E+01   2.3561E+01   1.4295E-09  0.5000
   2.3561E+01   2.4134E+01   3.4888E-10  1.0000
   2.4134E+01   2.4721E+01   3.4060E-10  1.0000
   2.4721E+01   2.5323E+01   0.0000E+00  0.0000
   2.5323E+01   2.5939E+01   0.0000E+00  0.0000
   2.5939E+01   2.6570E+01   0.0000E+00  0.0000
   2.6570E+01   2.7217E+01   0.0000E+00  0.0000
   2.7217E+01   2.7879E+01   0.0000E+00  0.0000
   2.7879E+01   2.8557E+01   0.0000E+00  0.0000
   2.8557E+01   2.9252E+01   0.0000E+00  0.0000
   2.9252E+01   2.9964E+01   0.0000E+00  0.0000
   2.9964E+01   3.0693E+01   0.0000E+00  0.0000
   3.0693E+01   3.1440E+01   0.0000E+00  0.0000
   3.1440E+01   3.2205E+01   0.0000E+00  0.0000
   3.2205E+01   3.2988E+01   0.0000E+00  0.0000
   3.2988E+01   3.3791E+01   0.0000E+00  0.0000
   3.3791E+01   3.4613E+01   0.0000E+00  0.0000
   3.4613E+01   3.5455E+01   0.0000E+00  0.0000
   3.5455E+01   3.6318E+01   0.0000E+00  0.0000
   3.6318E+01   3.7201E+01   0.0000E+00  0.0000
   3.7201E+01   3.8106E+01   0.0000E+00  0.0000
   3.8106E+01   3.9034E+01   0.0000E+00  0.0000
   3.9034E+01   3.9983E+01   0.0000E+00  0.0000
   3.9983E+01   4.0956E+01   0.0000E+00  0.0000
   4.0956E+01   4.1953E+01   0.0000E+00  0.0000
   4.1953E+01   4.2973E+01   0.0000E+00  0.0000
   4.2973E+01   4.4019E+01   0.0000E+00  0.0000
   4.4019E+01   4.5090E+01   0.0000E+00  0.0000
   4.5090E+01   4.6187E+01   0.0000E+00  0.0000
   4.6187E+01   4.7311E+01   0.0000E+00  0.0000
   4.7311E+01   4.8462E+01   0.0000E+00  0.0000
   4.8462E+01   4.9641E+01   0.0000E+00  0.0000
   4.9641E+01   5.0849E+01   0.0000E+00  0.0000
   5.0849E+01   5.2086E+01   0.0000E+00  0.0000
   5.2086E+01   5.3353E+01   0.0000E+00  0.0000
   5.3353E+01   5.4651E+01   0.0000E+00  0.0000
   5.4651E+01   5.5981E+01   0.0000E+00  0.0000
   5.5981E+01   5.7343E+01   0.0000E+00  0.0000
   5.7343E+01   5.8738E+01   0.0000E+00  0.0000
   5.8738E+01   6.0168E+01   0.0000E+00  0.0000
   6.0168E+01   6.1632E+01   0.0000E+00  0.0000
   6.1632E+01   6.3131E+01   0.0000E+00  0.0000
   6.3131E+01   6.4667E+01   0.0000E+00  0.0000
   6.4667E+01   6.6240E+01   0.0000E+00  0.0000
   6.6240E+01   6.7852E+01   0.0000E+00  0.0000
   6.7852E+01   6.9503E+01   0.0000E+00  0.0000
   6.9503E+01   7.1194E+01   0.0000E+00  0.0000
   7.1194E+01   7.2926E+01   0.0000E+00  0.0000
   7.2926E+01   7.4701E+01   0.0000E+00  0.0000
   7.4701E+01   7.6518E+01   0.0000E+00  0.0000
   7.6518E+01   7.8380E+01   0.0000E+00  0.0000
   7.8380E+01   8.0287E+01   0.0000E+00  0.0000
   8.0287E+01   8.2240E+01   0.0000E+00  0.0000
   8.2240E+01   8.4241E+01   0.0000E+00  0.0000
   8.4241E+01   8.6291E+01   0.0000E+00  0.0000
   8.6291E+01   8.8391E+01   0.0000E+00  0.0000
   8.8391E+01   9.0541E+01   0.0000E+00  0.0000
   9.0541E+01   9.2744E+01   0.0000E+00  0.0000
   9.2744E+01   9.5001E+01   0.0000E+00  0.0000
   9.5001E+01   9.7312E+01   0.0000E+00  0.0000
   9.7312E+01   9.9680E+01   0.0000E+00  0.0000
   9.9680E+01   1.0211E+02   0.0000E+00  0.0000
   1.0211E+02   1.0459E+02   0.0000E+00  0.0000
   1.0459E+02   1.0713E+02   0.0000E+00  0.0000
   1.0713E+02   1.0974E+02   0.0000E+00  0.0000
   1.0974E+02   1.1241E+02   0.0000E+00  0.0000
   1.1241E+02   1.1515E+02   0.0000E+00  0.0000
   1.1515E+02   1.1795E+02   0.0000E+00  0.0000
   1.1795E+02   1.2082E+02   0.0000E+00  0.0000
   1.2082E+02   1.2376E+02   0.0000E+00  0.0000
   1.2376E+02   1.2677E+02   0.0000E+00  0.0000
   1.2677E+02   1.2985E+02   0.0000E+00  0.0000
   1.2985E+02   1.3301E+02   0.0000E+00  0.0000
   1.3301E+02   1.3625E+02   0.0000E+00  0.0000
   1.3625E+02   1.3956E+02   0.0000E+00  0.0000
   1.3956E+02   1.4296E+02   0.0000E+00  0.0000
   1.4296E+02   1.4644E+02   0.0000E+00  0.0000
   1.4644E+02   1.5000E+02   0.0000E+00  0.0000

#   sum over                 2.5606E-06
'no. =    1   reg = 116 - 216'
msuc: {\huge [t-cross] in region mesh}
msdr: {\it plotted by \ANGEL \version}
msdl: {\it calculated by \PHITS  3.26}
wt: s(0.7)
\vspace{-3}
  region surface crossing
  area  &=&   1.0000E+00 [cm^2]
e:
 
# Information for Restart Calculation
# This calculation was newly started
# istdev =  2 # 1:Batch variance, 2:History variance
# resc2  = 5.00000000000000000E+09 # Total source weight or Total source weight / maxcas
# resc3  = 5.00000000000000000E+09 # Total history number or Total batch number
# maxcas =   500000000 # History / Batch, only used for istdev=1
# bitrseed = 0110100000100010111000001110001111001110100100011111101000111001 # bit data of rseed
