[ T-Cross ]
    title = [t-cross] in region mesh
     mesh =  reg            # mesh type is region-wise
      reg =    1            # number of crossing regions
      non     r-from    r-to       area
      1       125       225        1.000000    
   e-type =    3            # e-mesh is log given by emin, emax and ne
     emin =  1.0000000E-02  # minimum value of e-mesh points
     emax =   150.0000      # maximum value of e-mesh points
#    edel =  2.4039514E-02  # mesh width of e-mesh points
       ne =    400          # number of e-mesh points
#    data = ( e(i), i = 1, ne + 1 )
#           1.00000E-02  1.02433E-02  1.04925E-02  1.07478E-02  1.10093E-02
#           1.12772E-02  1.15516E-02  1.18326E-02  1.21205E-02  1.24154E-02
#           1.27175E-02  1.30269E-02  1.33439E-02  1.36686E-02  1.40011E-02
#           1.43418E-02  1.46907E-02  1.50482E-02  1.54143E-02  1.57894E-02
#           1.61735E-02  1.65670E-02  1.69701E-02  1.73830E-02  1.78060E-02
#           1.82392E-02  1.86830E-02  1.91375E-02  1.96032E-02  2.00801E-02
#           2.05687E-02  2.10692E-02  2.15818E-02  2.21069E-02  2.26448E-02
#           2.31957E-02  2.37601E-02  2.43382E-02  2.49304E-02  2.55369E-02
#           2.61583E-02  2.67947E-02  2.74467E-02  2.81145E-02  2.87985E-02
#           2.94992E-02  3.02169E-02  3.09521E-02  3.17052E-02  3.24766E-02
#           3.32668E-02  3.40762E-02  3.49053E-02  3.57546E-02  3.66246E-02
#           3.75157E-02  3.84284E-02  3.93634E-02  4.03212E-02  4.13022E-02
#           4.23071E-02  4.33365E-02  4.43909E-02  4.54710E-02  4.65773E-02
#           4.77106E-02  4.88714E-02  5.00605E-02  5.12785E-02  5.25262E-02
#           5.38042E-02  5.51133E-02  5.64542E-02  5.78278E-02  5.92348E-02
#           6.06760E-02  6.21523E-02  6.36645E-02  6.52135E-02  6.68002E-02
#           6.84255E-02  7.00904E-02  7.17957E-02  7.35426E-02  7.53319E-02
#           7.71648E-02  7.90423E-02  8.09655E-02  8.29354E-02  8.49533E-02
#           8.70203E-02  8.91376E-02  9.13064E-02  9.35279E-02  9.58035E-02
#           9.81345E-02  1.00522E-01  1.02968E-01  1.05473E-01  1.08040E-01
#           1.10668E-01  1.13361E-01  1.16119E-01  1.18944E-01  1.21838E-01
#           1.24803E-01  1.27839E-01  1.30950E-01  1.34136E-01  1.37399E-01
#           1.40742E-01  1.44167E-01  1.47675E-01  1.51268E-01  1.54948E-01
#           1.58718E-01  1.62580E-01  1.66535E-01  1.70587E-01  1.74738E-01
#           1.78989E-01  1.83344E-01  1.87805E-01  1.92375E-01  1.97055E-01
#           2.01850E-01  2.06761E-01  2.11792E-01  2.16945E-01  2.22223E-01
#           2.27630E-01  2.33169E-01  2.38842E-01  2.44653E-01  2.50605E-01
#           2.56703E-01  2.62949E-01  2.69346E-01  2.75900E-01  2.82613E-01
#           2.89489E-01  2.96532E-01  3.03747E-01  3.11138E-01  3.18708E-01
#           3.26462E-01  3.34405E-01  3.42542E-01  3.50876E-01  3.59413E-01
#           3.68158E-01  3.77116E-01  3.86291E-01  3.95690E-01  4.05317E-01
#           4.15179E-01  4.25281E-01  4.35628E-01  4.46227E-01  4.57084E-01
#           4.68205E-01  4.79597E-01  4.91266E-01  5.03219E-01  5.15463E-01
#           5.28005E-01  5.40851E-01  5.54011E-01  5.67490E-01  5.81298E-01
#           5.95441E-01  6.09929E-01  6.24769E-01  6.39970E-01  6.55541E-01
#           6.71491E-01  6.87828E-01  7.04564E-01  7.21706E-01  7.39266E-01
#           7.57253E-01  7.75678E-01  7.94551E-01  8.13883E-01  8.33685E-01
#           8.53969E-01  8.74747E-01  8.96030E-01  9.17831E-01  9.40163E-01
#           9.63038E-01  9.86469E-01  1.01047E+00  1.03506E+00  1.06024E+00
#           1.08604E+00  1.11246E+00  1.13953E+00  1.16725E+00  1.19565E+00
#           1.22474E+00  1.25454E+00  1.28507E+00  1.31633E+00  1.34836E+00
#           1.38117E+00  1.41477E+00  1.44920E+00  1.48446E+00  1.52057E+00
#           1.55757E+00  1.59547E+00  1.63429E+00  1.67405E+00  1.71478E+00
#           1.75650E+00  1.79924E+00  1.84302E+00  1.88786E+00  1.93379E+00
#           1.98084E+00  2.02904E+00  2.07841E+00  2.12898E+00  2.18078E+00
#           2.23384E+00  2.28819E+00  2.34386E+00  2.40089E+00  2.45930E+00
#           2.51914E+00  2.58043E+00  2.64322E+00  2.70753E+00  2.77341E+00
#           2.84088E+00  2.91001E+00  2.98081E+00  3.05333E+00  3.12762E+00
#           3.20372E+00  3.28167E+00  3.36152E+00  3.44330E+00  3.52708E+00
#           3.61290E+00  3.70080E+00  3.79085E+00  3.88308E+00  3.97756E+00
#           4.07434E+00  4.17347E+00  4.27501E+00  4.37903E+00  4.48557E+00
#           4.59471E+00  4.70650E+00  4.82102E+00  4.93832E+00  5.05847E+00
#           5.18155E+00  5.30762E+00  5.43676E+00  5.56904E+00  5.70453E+00
#           5.84333E+00  5.98550E+00  6.13114E+00  6.28031E+00  6.43312E+00
#           6.58964E+00  6.74997E+00  6.91420E+00  7.08243E+00  7.25475E+00
#           7.43126E+00  7.61207E+00  7.79728E+00  7.98700E+00  8.18133E+00
#           8.38038E+00  8.58428E+00  8.79315E+00  9.00709E+00  9.22624E+00
#           9.45072E+00  9.68067E+00  9.91620E+00  1.01575E+01  1.04046E+01
#           1.06578E+01  1.09171E+01  1.11827E+01  1.14548E+01  1.17335E+01
#           1.20190E+01  1.23114E+01  1.26109E+01  1.29178E+01  1.32321E+01
#           1.35540E+01  1.38838E+01  1.42216E+01  1.45676E+01  1.49221E+01
#           1.52851E+01  1.56570E+01  1.60380E+01  1.64282E+01  1.68279E+01
#           1.72374E+01  1.76568E+01  1.80864E+01  1.85264E+01  1.89772E+01
#           1.94389E+01  1.99119E+01  2.03963E+01  2.08926E+01  2.14009E+01
#           2.19216E+01  2.24550E+01  2.30014E+01  2.35610E+01  2.41343E+01
#           2.47215E+01  2.53230E+01  2.59391E+01  2.65702E+01  2.72167E+01
#           2.78789E+01  2.85572E+01  2.92520E+01  2.99637E+01  3.06928E+01
#           3.14396E+01  3.22045E+01  3.29881E+01  3.37907E+01  3.46128E+01
#           3.54550E+01  3.63177E+01  3.72013E+01  3.81064E+01  3.90336E+01
#           3.99833E+01  4.09561E+01  4.19526E+01  4.29734E+01  4.40189E+01
#           4.50900E+01  4.61870E+01  4.73108E+01  4.84619E+01  4.96410E+01
#           5.08488E+01  5.20860E+01  5.33533E+01  5.46514E+01  5.59812E+01
#           5.73432E+01  5.87384E+01  6.01676E+01  6.16315E+01  6.31311E+01
#           6.46671E+01  6.62405E+01  6.78522E+01  6.95031E+01  7.11941E+01
#           7.29263E+01  7.47007E+01  7.65182E+01  7.83800E+01  8.02870E+01
#           8.22405E+01  8.42414E+01  8.62911E+01  8.83906E+01  9.05412E+01
#           9.27442E+01  9.50007E+01  9.73122E+01  9.96799E+01  1.02105E+02
#           1.04589E+02  1.07134E+02  1.09741E+02  1.12411E+02  1.15146E+02
#           1.17948E+02  1.20817E+02  1.23757E+02  1.26768E+02  1.29852E+02
#           1.33012E+02  1.36248E+02  1.39563E+02  1.42959E+02  1.46437E+02
#           1.50000E+02
     unit =    2            # unit is [1/cm^2/(MeV/n)/source]
     axis =  eng            # axis of output
     file = detector-26.out  # file name of output for the above axis
   output = f-curr          # surface crossing forward current spectrum
     part =  neutron  
# kf/name :  2112     
#    used :        main (  %)        temp (  %)       total (  %)
#  memory :         414 (  0)           0 (  0)         414 (  0)

#------------------------------------------------------------------------------
#newpage:
#   no. =    1   reg = 125 - 225

x: Energy [MeV/n]
y:  F-Curr [1/cm^2/(MeV/n)/source]         
p: xlog ylog afac(0.8) form(0.9)
h: n            x            y(neutron ),hh0l   n 
#  e-lower      e-upper      neutron     r.err 
   1.0000E-02   1.0243E-02   1.7344E-04  0.0688
   1.0243E-02   1.0493E-02   1.6692E-04  0.0693
   1.0493E-02   1.0748E-02   1.6530E-04  0.0688
   1.0748E-02   1.1009E-02   1.6214E-04  0.0687
   1.1009E-02   1.1277E-02   1.8517E-04  0.0635
   1.1277E-02   1.1552E-02   1.6984E-04  0.0655
   1.1552E-02   1.1833E-02   1.7363E-04  0.0640
   1.1833E-02   1.2121E-02   1.6325E-04  0.0652
   1.2121E-02   1.2415E-02   1.8718E-04  0.0602
   1.2415E-02   1.2718E-02   1.8472E-04  0.0599
   1.2718E-02   1.3027E-02   1.9714E-04  0.0573
   1.3027E-02   1.3344E-02   1.7605E-04  0.0599
   1.3344E-02   1.3669E-02   1.7556E-04  0.0592
   1.3669E-02   1.4001E-02   1.7019E-04  0.0594
   1.4001E-02   1.4342E-02   1.9139E-04  0.0554
   1.4342E-02   1.4691E-02   1.8857E-04  0.0551
   1.4691E-02   1.5048E-02   1.7122E-04  0.0572
   1.5048E-02   1.5414E-02   1.8955E-04  0.0537
   1.5414E-02   1.5789E-02   1.6425E-04  0.0570
   1.5789E-02   1.6174E-02   1.9575E-04  0.0516
   1.6174E-02   1.6567E-02   1.9364E-04  0.0512
   1.6567E-02   1.6970E-02   1.8656E-04  0.0516
   1.6970E-02   1.7383E-02   1.8649E-04  0.0510
   1.7383E-02   1.7806E-02   1.9341E-04  0.0494
   1.7806E-02   1.8239E-02   1.7404E-04  0.0515
   1.8239E-02   1.8683E-02   1.9379E-04  0.0482
   1.8683E-02   1.9138E-02   1.8127E-04  0.0493
   1.9138E-02   1.9603E-02   1.9028E-04  0.0475
   1.9603E-02   2.0080E-02   1.8828E-04  0.0472
   2.0080E-02   2.0569E-02   2.0182E-04  0.0450
   2.0569E-02   2.1069E-02   2.0581E-04  0.0441
   2.1069E-02   2.1582E-02   1.9702E-04  0.0445
   2.1582E-02   2.2107E-02   1.9425E-04  0.0443
   2.2107E-02   2.2645E-02   1.8294E-04  0.0451
   2.2645E-02   2.3196E-02   2.0945E-04  0.0416
   2.3196E-02   2.3760E-02   1.9491E-04  0.0426
   2.3760E-02   2.4338E-02   2.0135E-04  0.0415
   2.4338E-02   2.4930E-02   1.8373E-04  0.0429
   2.4930E-02   2.5537E-02   2.0014E-04  0.0406
   2.5537E-02   2.6158E-02   1.9571E-04  0.0406
   2.6158E-02   2.6795E-02   2.0394E-04  0.0393
   2.6795E-02   2.7447E-02   2.0646E-04  0.0385
   2.7447E-02   2.8114E-02   2.0096E-04  0.0386
   2.8114E-02   2.8799E-02   2.0993E-04  0.0373
   2.8799E-02   2.9499E-02   2.0722E-04  0.0371
   2.9499E-02   3.0217E-02   2.0648E-04  0.0367
   3.0217E-02   3.0952E-02   2.0879E-04  0.0361
   3.0952E-02   3.1705E-02   2.1511E-04  0.0351
   3.1705E-02   3.2477E-02   2.1104E-04  0.0350
   3.2477E-02   3.3267E-02   2.1792E-04  0.0341
   3.3267E-02   3.4076E-02   2.0805E-04  0.0345
   3.4076E-02   3.4905E-02   2.0794E-04  0.0341
   3.4905E-02   3.5755E-02   2.1147E-04  0.0334
   3.5755E-02   3.6625E-02   2.1335E-04  0.0328
   3.6625E-02   3.7516E-02   2.0783E-04  0.0329
   3.7516E-02   3.8428E-02   2.1166E-04  0.0322
   3.8428E-02   3.9363E-02   2.2332E-04  0.0309
   3.9363E-02   4.0321E-02   2.2219E-04  0.0307
   4.0321E-02   4.1302E-02   2.2119E-04  0.0304
   4.1302E-02   4.2307E-02   2.1693E-04  0.0303
   4.2307E-02   4.3337E-02   2.1839E-04  0.0298
   4.3337E-02   4.4391E-02   2.0997E-04  0.0301
   4.4391E-02   4.5471E-02   2.1591E-04  0.0293
   4.5471E-02   4.6577E-02   2.2507E-04  0.0283
   4.6577E-02   4.7711E-02   2.1848E-04  0.0284
   4.7711E-02   4.8871E-02   2.2751E-04  0.0275
   4.8871E-02   5.0061E-02   2.2875E-04  0.0271
   5.0061E-02   5.1279E-02   2.2159E-04  0.0272
   5.1279E-02   5.2526E-02   2.3003E-04  0.0264
   5.2526E-02   5.3804E-02   2.3114E-04  0.0260
   5.3804E-02   5.5113E-02   2.2993E-04  0.0258
   5.5113E-02   5.6454E-02   2.3386E-04  0.0253
   5.6454E-02   5.7828E-02   2.3501E-04  0.0249
   5.7828E-02   5.9235E-02   2.3646E-04  0.0245
   5.9235E-02   6.0676E-02   2.3036E-04  0.0245
   6.0676E-02   6.2152E-02   2.2109E-04  0.0248
   6.2152E-02   6.3665E-02   2.4018E-04  0.0235
   6.3665E-02   6.5214E-02   2.2802E-04  0.0238
   6.5214E-02   6.6800E-02   2.3369E-04  0.0232
   6.6800E-02   6.8426E-02   2.4180E-04  0.0226
   6.8426E-02   7.0090E-02   2.2573E-04  0.0231
   7.0090E-02   7.1796E-02   2.4441E-04  0.0219
   7.1796E-02   7.3543E-02   2.3883E-04  0.0219
   7.3543E-02   7.5332E-02   2.4612E-04  0.0213
   7.5332E-02   7.7165E-02   2.4191E-04  0.0212
   7.7165E-02   7.9042E-02   2.4602E-04  0.0208
   7.9042E-02   8.0965E-02   2.4429E-04  0.0206
   8.0965E-02   8.2935E-02   2.3635E-04  0.0207
   8.2935E-02   8.4953E-02   2.4471E-04  0.0201
   8.4953E-02   8.7020E-02   2.5225E-04  0.0196
   8.7020E-02   8.9138E-02   2.6043E-04  0.0190
   8.9138E-02   9.1306E-02   2.5696E-04  0.0189
   9.1306E-02   9.3528E-02   2.4991E-04  0.0190
   9.3528E-02   9.5804E-02   2.5883E-04  0.0184
   9.5804E-02   9.8134E-02   2.5938E-04  0.0182
   9.8134E-02   1.0052E-01   2.5363E-04  0.0182
   1.0052E-01   1.0297E-01   2.5885E-04  0.0178
   1.0297E-01   1.0547E-01   2.6348E-04  0.0174
   1.0547E-01   1.0804E-01   2.5216E-04  0.0176
   1.0804E-01   1.1067E-01   2.6310E-04  0.0170
   1.1067E-01   1.1336E-01   2.6123E-04  0.0169
   1.1336E-01   1.1612E-01   2.6416E-04  0.0166
   1.1612E-01   1.1894E-01   2.6723E-04  0.0163
   1.1894E-01   1.2184E-01   2.6392E-04  0.0162
   1.2184E-01   1.2480E-01   2.7047E-04  0.0158
   1.2480E-01   1.2784E-01   2.7090E-04  0.0156
   1.2784E-01   1.3095E-01   2.6781E-04  0.0155
   1.3095E-01   1.3414E-01   2.7061E-04  0.0152
   1.3414E-01   1.3740E-01   2.7522E-04  0.0149
   1.3740E-01   1.4074E-01   2.7574E-04  0.0147
   1.4074E-01   1.4417E-01   2.7129E-04  0.0147
   1.4417E-01   1.4767E-01   2.8195E-04  0.0142
   1.4767E-01   1.5127E-01   2.8333E-04  0.0140
   1.5127E-01   1.5495E-01   2.8437E-04  0.0138
   1.5495E-01   1.5872E-01   2.7512E-04  0.0139
   1.5872E-01   1.6258E-01   2.7723E-04  0.0137
   1.6258E-01   1.6654E-01   2.7945E-04  0.0135
   1.6654E-01   1.7059E-01   2.8697E-04  0.0131
   1.7059E-01   1.7474E-01   2.8199E-04  0.0131
   1.7474E-01   1.7899E-01   2.8693E-04  0.0128
   1.7899E-01   1.8334E-01   2.9286E-04  0.0125
   1.8334E-01   1.8781E-01   2.8765E-04  0.0125
   1.8781E-01   1.9237E-01   2.9754E-04  0.0121
   1.9237E-01   1.9706E-01   2.9205E-04  0.0121
   1.9706E-01   2.0185E-01   2.9640E-04  0.0119
   2.0185E-01   2.0676E-01   2.9759E-04  0.0117
   2.0676E-01   2.1179E-01   2.9585E-04  0.0116
   2.1179E-01   2.1694E-01   2.9555E-04  0.0115
   2.1694E-01   2.2222E-01   3.0778E-04  0.0111
   2.2222E-01   2.2763E-01   2.9675E-04  0.0112
   2.2763E-01   2.3317E-01   3.0904E-04  0.0108
   2.3317E-01   2.3884E-01   3.0108E-04  0.0108
   2.3884E-01   2.4465E-01   3.0608E-04  0.0106
   2.4465E-01   2.5061E-01   3.0029E-04  0.0106
   2.5061E-01   2.5670E-01   3.0600E-04  0.0104
   2.5670E-01   2.6295E-01   3.0974E-04  0.0102
   2.6295E-01   2.6935E-01   3.0881E-04  0.0101
   2.6935E-01   2.7590E-01   3.0653E-04  0.0100
   2.7590E-01   2.8261E-01   3.0693E-04  0.0099
   2.8261E-01   2.8949E-01   3.1186E-04  0.0097
   2.8949E-01   2.9653E-01   3.0851E-04  0.0096
   2.9653E-01   3.0375E-01   3.1274E-04  0.0094
   3.0375E-01   3.1114E-01   3.1515E-04  0.0093
   3.1114E-01   3.1871E-01   3.0973E-04  0.0092
   3.1871E-01   3.2646E-01   3.1070E-04  0.0091
   3.2646E-01   3.3441E-01   3.1070E-04  0.0090
   3.3441E-01   3.4254E-01   3.1225E-04  0.0089
   3.4254E-01   3.5088E-01   3.1414E-04  0.0087
   3.5088E-01   3.5941E-01   3.1370E-04  0.0086
   3.5941E-01   3.6816E-01   3.1477E-04  0.0085
   3.6816E-01   3.7712E-01   3.1390E-04  0.0084
   3.7712E-01   3.8629E-01   3.1412E-04  0.0083
   3.8629E-01   3.9569E-01   3.1123E-04  0.0083
   3.9569E-01   4.0532E-01   3.0950E-04  0.0082
   4.0532E-01   4.1518E-01   3.1501E-04  0.0080
   4.1518E-01   4.2528E-01   3.0964E-04  0.0080
   4.2528E-01   4.3563E-01   3.1065E-04  0.0079
   4.3563E-01   4.4623E-01   3.1218E-04  0.0078
   4.4623E-01   4.5708E-01   3.1000E-04  0.0077
   4.5708E-01   4.6821E-01   3.0506E-04  0.0077
   4.6821E-01   4.7960E-01   3.1138E-04  0.0075
   4.7960E-01   4.9127E-01   3.0934E-04  0.0074
   4.9127E-01   5.0322E-01   3.0637E-04  0.0074
   5.0322E-01   5.1546E-01   3.0438E-04  0.0073
   5.1546E-01   5.2800E-01   3.0274E-04  0.0073
   5.2800E-01   5.4085E-01   3.0319E-04  0.0072
   5.4085E-01   5.5401E-01   2.9717E-04  0.0072
   5.5401E-01   5.6749E-01   2.9753E-04  0.0071
   5.6749E-01   5.8130E-01   2.9297E-04  0.0070
   5.8130E-01   5.9544E-01   2.9064E-04  0.0070
   5.9544E-01   6.0993E-01   2.8766E-04  0.0069
   6.0993E-01   6.2477E-01   2.8559E-04  0.0069
   6.2477E-01   6.3997E-01   2.8227E-04  0.0068
   6.3997E-01   6.5554E-01   2.7797E-04  0.0068
   6.5554E-01   6.7149E-01   2.7573E-04  0.0067
   6.7149E-01   6.8783E-01   2.7065E-04  0.0067
   6.8783E-01   7.0456E-01   2.6832E-04  0.0067
   7.0456E-01   7.2171E-01   2.6136E-04  0.0067
   7.2171E-01   7.3927E-01   2.5351E-04  0.0067
   7.3927E-01   7.5725E-01   2.5440E-04  0.0066
   7.5725E-01   7.7568E-01   2.4606E-04  0.0066
   7.7568E-01   7.9455E-01   2.4175E-04  0.0066
   7.9455E-01   8.1388E-01   2.3866E-04  0.0066
   8.1388E-01   8.3368E-01   2.3048E-04  0.0066
   8.3368E-01   8.5397E-01   2.2018E-04  0.0067
   8.5397E-01   8.7475E-01   2.1684E-04  0.0067
   8.7475E-01   8.9603E-01   2.0922E-04  0.0067
   8.9603E-01   9.1783E-01   2.0289E-04  0.0067
   9.1783E-01   9.4016E-01   1.9566E-04  0.0068
   9.4016E-01   9.6304E-01   1.8626E-04  0.0069
   9.6304E-01   9.8647E-01   1.8051E-04  0.0069
   9.8647E-01   1.0105E+00   1.7235E-04  0.0070
   1.0105E+00   1.0351E+00   1.7128E-04  0.0069
   1.0351E+00   1.0602E+00   1.7221E-04  0.0068
   1.0602E+00   1.0860E+00   1.7060E-04  0.0067
   1.0860E+00   1.1125E+00   1.7268E-04  0.0066
   1.1125E+00   1.1395E+00   1.7412E-04  0.0065
   1.1395E+00   1.1673E+00   1.7492E-04  0.0064
   1.1673E+00   1.1957E+00   1.7701E-04  0.0063
   1.1957E+00   1.2247E+00   1.7853E-04  0.0062
   1.2247E+00   1.2545E+00   1.7818E-04  0.0061
   1.2545E+00   1.2851E+00   1.7762E-04  0.0061
   1.2851E+00   1.3163E+00   1.7486E-04  0.0060
   1.3163E+00   1.3484E+00   1.7681E-04  0.0059
   1.3484E+00   1.3812E+00   1.7569E-04  0.0059
   1.3812E+00   1.4148E+00   1.7864E-04  0.0058
   1.4148E+00   1.4492E+00   1.7635E-04  0.0057
   1.4492E+00   1.4845E+00   1.7369E-04  0.0057
   1.4845E+00   1.5206E+00   1.6879E-04  0.0057
   1.5206E+00   1.5576E+00   1.6761E-04  0.0057
   1.5576E+00   1.5955E+00   1.6377E-04  0.0057
   1.5955E+00   1.6343E+00   1.6323E-04  0.0056
   1.6343E+00   1.6741E+00   1.6236E-04  0.0056
   1.6741E+00   1.7148E+00   1.6115E-04  0.0055
   1.7148E+00   1.7565E+00   1.5802E-04  0.0055
   1.7565E+00   1.7992E+00   1.5407E-04  0.0055
   1.7992E+00   1.8430E+00   1.4778E-04  0.0056
   1.8430E+00   1.8879E+00   1.4561E-04  0.0055
   1.8879E+00   1.9338E+00   1.4248E-04  0.0055
   1.9338E+00   1.9808E+00   1.3943E-04  0.0055
   1.9808E+00   2.0290E+00   1.3826E-04  0.0055
   2.0290E+00   2.0784E+00   1.3245E-04  0.0055
   2.0784E+00   2.1290E+00   1.2751E-04  0.0056
   2.1290E+00   2.1808E+00   1.2401E-04  0.0056
   2.1808E+00   2.2338E+00   1.1930E-04  0.0056
   2.2338E+00   2.2882E+00   1.1608E-04  0.0056
   2.2882E+00   2.3439E+00   1.1098E-04  0.0057
   2.3439E+00   2.4009E+00   1.0682E-04  0.0057
   2.4009E+00   2.4593E+00   1.0479E-04  0.0057
   2.4593E+00   2.5191E+00   1.0031E-04  0.0058
   2.5191E+00   2.5804E+00   9.6144E-05  0.0058
   2.5804E+00   2.6432E+00   9.1175E-05  0.0059
   2.6432E+00   2.7075E+00   8.7109E-05  0.0060
   2.7075E+00   2.7734E+00   8.1879E-05  0.0061
   2.7734E+00   2.8409E+00   7.9133E-05  0.0061
   2.8409E+00   2.9100E+00   7.5256E-05  0.0062
   2.9100E+00   2.9808E+00   7.1702E-05  0.0063
   2.9808E+00   3.0533E+00   6.8024E-05  0.0064
   3.0533E+00   3.1276E+00   6.4982E-05  0.0064
   3.1276E+00   3.2037E+00   6.0633E-05  0.0066
   3.2037E+00   3.2817E+00   5.8548E-05  0.0066
   3.2817E+00   3.3615E+00   5.5229E-05  0.0067
   3.3615E+00   3.4433E+00   5.1474E-05  0.0069
   3.4433E+00   3.5271E+00   4.9157E-05  0.0070
   3.5271E+00   3.6129E+00   4.5554E-05  0.0072
   3.6129E+00   3.7008E+00   4.3559E-05  0.0072
   3.7008E+00   3.7908E+00   4.1973E-05  0.0073
   3.7908E+00   3.8831E+00   3.8688E-05  0.0075
   3.8831E+00   3.9776E+00   3.5808E-05  0.0077
   3.9776E+00   4.0743E+00   3.4919E-05  0.0077
   4.0743E+00   4.1735E+00   3.2192E-05  0.0079
   4.1735E+00   4.2750E+00   3.1249E-05  0.0079
   4.2750E+00   4.3790E+00   2.8412E-05  0.0082
   4.3790E+00   4.4856E+00   2.6679E-05  0.0084
   4.4856E+00   4.5947E+00   2.4957E-05  0.0086
   4.5947E+00   4.7065E+00   2.3416E-05  0.0087
   4.7065E+00   4.8210E+00   2.1978E-05  0.0089
   4.8210E+00   4.9383E+00   2.0847E-05  0.0090
   4.9383E+00   5.0585E+00   1.9628E-05  0.0092
   5.0585E+00   5.1815E+00   1.8447E-05  0.0094
   5.1815E+00   5.3076E+00   1.7019E-05  0.0097
   5.3076E+00   5.4368E+00   1.6246E-05  0.0098
   5.4368E+00   5.5690E+00   1.5250E-05  0.0100
   5.5690E+00   5.7045E+00   1.4131E-05  0.0102
   5.7045E+00   5.8433E+00   1.3248E-05  0.0104
   5.8433E+00   5.9855E+00   1.2165E-05  0.0108
   5.9855E+00   6.1311E+00   1.1196E-05  0.0111
   6.1311E+00   6.2803E+00   1.0550E-05  0.0113
   6.2803E+00   6.4331E+00   9.8583E-06  0.0115
   6.4331E+00   6.5896E+00   9.2229E-06  0.0118
   6.5896E+00   6.7500E+00   8.3908E-06  0.0122
   6.7500E+00   6.9142E+00   7.9193E-06  0.0124
   6.9142E+00   7.0824E+00   7.3442E-06  0.0127
   7.0824E+00   7.2548E+00   6.8976E-06  0.0130
   7.2548E+00   7.4313E+00   6.1672E-06  0.0135
   7.4313E+00   7.6121E+00   5.8277E-06  0.0138
   7.6121E+00   7.7973E+00   5.3005E-06  0.0143
   7.7973E+00   7.9870E+00   4.8663E-06  0.0147
   7.9870E+00   8.1813E+00   4.4574E-06  0.0152
   8.1813E+00   8.3804E+00   4.2907E-06  0.0153
   8.3804E+00   8.5843E+00   3.9176E-06  0.0158
   8.5843E+00   8.7931E+00   3.6282E-06  0.0162
   8.7931E+00   9.0071E+00   3.3350E-06  0.0167
   9.0071E+00   9.2262E+00   3.0454E-06  0.0173
   9.2262E+00   9.4507E+00   2.8341E-06  0.0177
   9.4507E+00   9.6807E+00   2.6132E-06  0.0182
   9.6807E+00   9.9162E+00   2.4115E-06  0.0187
   9.9162E+00   1.0157E+01   2.2999E-06  0.0190
   1.0157E+01   1.0405E+01   2.0167E-06  0.0200
   1.0405E+01   1.0658E+01   1.9024E-06  0.0204
   1.0658E+01   1.0917E+01   1.7570E-06  0.0209
   1.0917E+01   1.1183E+01   1.6015E-06  0.0217
   1.1183E+01   1.1455E+01   1.4404E-06  0.0226
   1.1455E+01   1.1733E+01   1.3089E-06  0.0234
   1.1733E+01   1.2019E+01   1.2267E-06  0.0239
   1.2019E+01   1.2311E+01   1.0984E-06  0.0249
   1.2311E+01   1.2611E+01   1.0800E-06  0.0249
   1.2611E+01   1.2918E+01   9.1613E-07  0.0267
   1.2918E+01   1.3232E+01   8.8069E-07  0.0269
   1.3232E+01   1.3554E+01   7.9299E-07  0.0280
   1.3554E+01   1.3884E+01   7.4413E-07  0.0285
   1.3884E+01   1.4222E+01   7.3386E-07  0.0284
   1.4222E+01   1.4568E+01   6.4880E-07  0.0298
   1.4568E+01   1.4922E+01   5.9107E-07  0.0309
   1.4922E+01   1.5285E+01   5.4205E-07  0.0319
   1.5285E+01   1.5657E+01   5.0820E-07  0.0325
   1.5657E+01   1.6038E+01   4.5203E-07  0.0341
   1.6038E+01   1.6428E+01   4.4770E-07  0.0338
   1.6428E+01   1.6828E+01   3.7827E-07  0.0364
   1.6828E+01   1.7237E+01   3.6343E-07  0.0367
   1.7237E+01   1.7657E+01   3.7578E-07  0.0356
   1.7657E+01   1.8086E+01   3.5335E-07  0.0363
   1.8086E+01   1.8526E+01   3.1632E-07  0.0379
   1.8526E+01   1.8977E+01   2.8263E-07  0.0396
   1.8977E+01   1.9439E+01   2.8631E-07  0.0389
   1.9439E+01   1.9912E+01   2.4695E-07  0.0414
   1.9912E+01   2.0396E+01   2.5636E-07  0.0401
   2.0396E+01   2.0893E+01   2.2770E-07  0.0421
   2.0893E+01   2.1401E+01   2.2072E-07  0.0422
   2.1401E+01   2.1922E+01   2.1164E-07  0.0426
   2.1922E+01   2.2455E+01   2.0924E-07  0.0423
   2.2455E+01   2.3001E+01   1.8669E-07  0.0443
   2.3001E+01   2.3561E+01   1.8655E-07  0.0438
   2.3561E+01   2.4134E+01   1.6746E-07  0.0456
   2.4134E+01   2.4721E+01   1.5497E-07  0.0469
   2.4721E+01   2.5323E+01   1.4797E-07  0.0474
   2.5323E+01   2.5939E+01   1.3374E-07  0.0493
   2.5939E+01   2.6570E+01   1.2581E-07  0.0502
   2.6570E+01   2.7217E+01   1.1849E-07  0.0511
   2.7217E+01   2.7879E+01   1.1960E-07  0.0503
   2.7879E+01   2.8557E+01   1.0261E-07  0.0536
   2.8557E+01   2.9252E+01   1.0679E-07  0.0519
   2.9252E+01   2.9964E+01   8.6269E-08  0.0571
   2.9964E+01   3.0693E+01   9.9034E-08  0.0526
   3.0693E+01   3.1440E+01   7.9006E-08  0.0582
   3.1440E+01   3.2205E+01   6.6148E-08  0.0629
   3.2205E+01   3.2988E+01   7.0958E-08  0.0600
   3.2988E+01   3.3791E+01   5.9804E-08  0.0645
   3.3791E+01   3.4613E+01   5.2545E-08  0.0680
   3.4613E+01   3.5455E+01   4.7972E-08  0.0704
   3.5455E+01   3.6318E+01   5.0774E-08  0.0676
   3.6318E+01   3.7201E+01   3.7346E-08  0.0778
   3.7201E+01   3.8106E+01   3.9552E-08  0.0747
   3.8106E+01   3.9034E+01   3.6240E-08  0.0772
   3.9034E+01   3.9983E+01   3.4115E-08  0.0786
   3.9983E+01   4.0956E+01   2.7549E-08  0.0864
   4.0956E+01   4.1953E+01   2.2679E-08  0.0941
   4.1953E+01   4.2973E+01   2.1357E-08  0.0958
   4.2973E+01   4.4019E+01   1.7024E-08  0.1060
   4.4019E+01   4.5090E+01   1.7180E-08  0.1043
   4.5090E+01   4.6187E+01   1.7683E-08  0.1015
   4.6187E+01   4.7311E+01   1.3526E-08  0.1147
   4.7311E+01   4.8462E+01   1.1641E-08  0.1222
   4.8462E+01   4.9641E+01   1.1704E-08  0.1204
   4.9641E+01   5.0849E+01   7.6171E-09  0.1474
   5.0849E+01   5.2086E+01   6.4663E-09  0.1581
   5.2086E+01   5.3353E+01   4.7345E-09  0.1826
   5.3353E+01   5.4651E+01   4.4680E-09  0.1857
   5.4651E+01   5.5981E+01   3.4594E-09  0.2085
   5.5981E+01   5.7343E+01   3.3772E-09  0.2085
   5.7343E+01   5.8738E+01   2.8670E-09  0.2236
   5.8738E+01   6.0168E+01   2.0991E-09  0.2582
   6.0168E+01   6.1632E+01   2.1859E-09  0.2500
   6.1632E+01   6.3131E+01   9.3362E-10  0.3780
   6.3131E+01   6.4667E+01   9.1144E-10  0.3780
   6.4667E+01   6.6240E+01   3.8134E-10  0.5774
   6.6240E+01   6.7852E+01   4.9638E-10  0.5000
   6.7852E+01   6.9503E+01   1.0903E-09  0.3333
   6.9503E+01   7.1194E+01   4.7307E-10  0.5000
   7.1194E+01   7.2926E+01   5.7730E-10  0.4472
   7.2926E+01   7.4701E+01   2.2543E-10  0.7071
   7.4701E+01   7.6518E+01   3.3012E-10  0.5774
   7.6518E+01   7.8380E+01   1.0743E-10  1.0000
   7.8380E+01   8.0287E+01   0.0000E+00  0.0000
   8.0287E+01   8.2240E+01   1.0238E-10  1.0000
   8.2240E+01   8.4241E+01   0.0000E+00  0.0000
   8.4241E+01   8.6291E+01   0.0000E+00  0.0000
   8.6291E+01   8.8391E+01   0.0000E+00  0.0000
   8.8391E+01   9.0541E+01   0.0000E+00  0.0000
   9.0541E+01   9.2744E+01   0.0000E+00  0.0000
   9.2744E+01   9.5001E+01   0.0000E+00  0.0000
   9.5001E+01   9.7312E+01   0.0000E+00  0.0000
   9.7312E+01   9.9680E+01   0.0000E+00  0.0000
   9.9680E+01   1.0211E+02   0.0000E+00  0.0000
   1.0211E+02   1.0459E+02   0.0000E+00  0.0000
   1.0459E+02   1.0713E+02   0.0000E+00  0.0000
   1.0713E+02   1.0974E+02   0.0000E+00  0.0000
   1.0974E+02   1.1241E+02   0.0000E+00  0.0000
   1.1241E+02   1.1515E+02   0.0000E+00  0.0000
   1.1515E+02   1.1795E+02   0.0000E+00  0.0000
   1.1795E+02   1.2082E+02   0.0000E+00  0.0000
   1.2082E+02   1.2376E+02   0.0000E+00  0.0000
   1.2376E+02   1.2677E+02   0.0000E+00  0.0000
   1.2677E+02   1.2985E+02   0.0000E+00  0.0000
   1.2985E+02   1.3301E+02   0.0000E+00  0.0000
   1.3301E+02   1.3625E+02   0.0000E+00  0.0000
   1.3625E+02   1.3956E+02   0.0000E+00  0.0000
   1.3956E+02   1.4296E+02   0.0000E+00  0.0000
   1.4296E+02   1.4644E+02   0.0000E+00  0.0000
   1.4644E+02   1.5000E+02   0.0000E+00  0.0000

#   sum over                 4.3471E-06
'no. =    1   reg = 125 - 225'
msuc: {\huge [t-cross] in region mesh}
msdr: {\it plotted by \ANGEL \version}
msdl: {\it calculated by \PHITS  3.26}
wt: s(0.7)
\vspace{-3}
  region surface crossing
  area  &=&   1.0000E+00 [cm^2]
e:
 
# Information for Restart Calculation
# This calculation was newly started
# istdev =  2 # 1:Batch variance, 2:History variance
# resc2  = 5.00000000000000000E+09 # Total source weight or Total source weight / maxcas
# resc3  = 5.00000000000000000E+09 # Total history number or Total batch number
# maxcas =   500000000 # History / Batch, only used for istdev=1
# bitrseed = 0110100000100010111000001110001111001110100100011111101000111001 # bit data of rseed
