[ T-Cross ]
    title = [t-cross] in region mesh
     mesh =  reg            # mesh type is region-wise
      reg =    1            # number of crossing regions
      non     r-from    r-to       area
      1       100       200        1.000000    
   e-type =    3            # e-mesh is log given by emin, emax and ne
     emin =  1.0000000E-02  # minimum value of e-mesh points
     emax =   150.0000      # maximum value of e-mesh points
#    edel =  2.4039514E-02  # mesh width of e-mesh points
       ne =    400          # number of e-mesh points
#    data = ( e(i), i = 1, ne + 1 )
#           1.00000E-02  1.02433E-02  1.04925E-02  1.07478E-02  1.10093E-02
#           1.12772E-02  1.15516E-02  1.18326E-02  1.21205E-02  1.24154E-02
#           1.27175E-02  1.30269E-02  1.33439E-02  1.36686E-02  1.40011E-02
#           1.43418E-02  1.46907E-02  1.50482E-02  1.54143E-02  1.57894E-02
#           1.61735E-02  1.65670E-02  1.69701E-02  1.73830E-02  1.78060E-02
#           1.82392E-02  1.86830E-02  1.91375E-02  1.96032E-02  2.00801E-02
#           2.05687E-02  2.10692E-02  2.15818E-02  2.21069E-02  2.26448E-02
#           2.31957E-02  2.37601E-02  2.43382E-02  2.49304E-02  2.55369E-02
#           2.61583E-02  2.67947E-02  2.74467E-02  2.81145E-02  2.87985E-02
#           2.94992E-02  3.02169E-02  3.09521E-02  3.17052E-02  3.24766E-02
#           3.32668E-02  3.40762E-02  3.49053E-02  3.57546E-02  3.66246E-02
#           3.75157E-02  3.84284E-02  3.93634E-02  4.03212E-02  4.13022E-02
#           4.23071E-02  4.33365E-02  4.43909E-02  4.54710E-02  4.65773E-02
#           4.77106E-02  4.88714E-02  5.00605E-02  5.12785E-02  5.25262E-02
#           5.38042E-02  5.51133E-02  5.64542E-02  5.78278E-02  5.92348E-02
#           6.06760E-02  6.21523E-02  6.36645E-02  6.52135E-02  6.68002E-02
#           6.84255E-02  7.00904E-02  7.17957E-02  7.35426E-02  7.53319E-02
#           7.71648E-02  7.90423E-02  8.09655E-02  8.29354E-02  8.49533E-02
#           8.70203E-02  8.91376E-02  9.13064E-02  9.35279E-02  9.58035E-02
#           9.81345E-02  1.00522E-01  1.02968E-01  1.05473E-01  1.08040E-01
#           1.10668E-01  1.13361E-01  1.16119E-01  1.18944E-01  1.21838E-01
#           1.24803E-01  1.27839E-01  1.30950E-01  1.34136E-01  1.37399E-01
#           1.40742E-01  1.44167E-01  1.47675E-01  1.51268E-01  1.54948E-01
#           1.58718E-01  1.62580E-01  1.66535E-01  1.70587E-01  1.74738E-01
#           1.78989E-01  1.83344E-01  1.87805E-01  1.92375E-01  1.97055E-01
#           2.01850E-01  2.06761E-01  2.11792E-01  2.16945E-01  2.22223E-01
#           2.27630E-01  2.33169E-01  2.38842E-01  2.44653E-01  2.50605E-01
#           2.56703E-01  2.62949E-01  2.69346E-01  2.75900E-01  2.82613E-01
#           2.89489E-01  2.96532E-01  3.03747E-01  3.11138E-01  3.18708E-01
#           3.26462E-01  3.34405E-01  3.42542E-01  3.50876E-01  3.59413E-01
#           3.68158E-01  3.77116E-01  3.86291E-01  3.95690E-01  4.05317E-01
#           4.15179E-01  4.25281E-01  4.35628E-01  4.46227E-01  4.57084E-01
#           4.68205E-01  4.79597E-01  4.91266E-01  5.03219E-01  5.15463E-01
#           5.28005E-01  5.40851E-01  5.54011E-01  5.67490E-01  5.81298E-01
#           5.95441E-01  6.09929E-01  6.24769E-01  6.39970E-01  6.55541E-01
#           6.71491E-01  6.87828E-01  7.04564E-01  7.21706E-01  7.39266E-01
#           7.57253E-01  7.75678E-01  7.94551E-01  8.13883E-01  8.33685E-01
#           8.53969E-01  8.74747E-01  8.96030E-01  9.17831E-01  9.40163E-01
#           9.63038E-01  9.86469E-01  1.01047E+00  1.03506E+00  1.06024E+00
#           1.08604E+00  1.11246E+00  1.13953E+00  1.16725E+00  1.19565E+00
#           1.22474E+00  1.25454E+00  1.28507E+00  1.31633E+00  1.34836E+00
#           1.38117E+00  1.41477E+00  1.44920E+00  1.48446E+00  1.52057E+00
#           1.55757E+00  1.59547E+00  1.63429E+00  1.67405E+00  1.71478E+00
#           1.75650E+00  1.79924E+00  1.84302E+00  1.88786E+00  1.93379E+00
#           1.98084E+00  2.02904E+00  2.07841E+00  2.12898E+00  2.18078E+00
#           2.23384E+00  2.28819E+00  2.34386E+00  2.40089E+00  2.45930E+00
#           2.51914E+00  2.58043E+00  2.64322E+00  2.70753E+00  2.77341E+00
#           2.84088E+00  2.91001E+00  2.98081E+00  3.05333E+00  3.12762E+00
#           3.20372E+00  3.28167E+00  3.36152E+00  3.44330E+00  3.52708E+00
#           3.61290E+00  3.70080E+00  3.79085E+00  3.88308E+00  3.97756E+00
#           4.07434E+00  4.17347E+00  4.27501E+00  4.37903E+00  4.48557E+00
#           4.59471E+00  4.70650E+00  4.82102E+00  4.93832E+00  5.05847E+00
#           5.18155E+00  5.30762E+00  5.43676E+00  5.56904E+00  5.70453E+00
#           5.84333E+00  5.98550E+00  6.13114E+00  6.28031E+00  6.43312E+00
#           6.58964E+00  6.74997E+00  6.91420E+00  7.08243E+00  7.25475E+00
#           7.43126E+00  7.61207E+00  7.79728E+00  7.98700E+00  8.18133E+00
#           8.38038E+00  8.58428E+00  8.79315E+00  9.00709E+00  9.22624E+00
#           9.45072E+00  9.68067E+00  9.91620E+00  1.01575E+01  1.04046E+01
#           1.06578E+01  1.09171E+01  1.11827E+01  1.14548E+01  1.17335E+01
#           1.20190E+01  1.23114E+01  1.26109E+01  1.29178E+01  1.32321E+01
#           1.35540E+01  1.38838E+01  1.42216E+01  1.45676E+01  1.49221E+01
#           1.52851E+01  1.56570E+01  1.60380E+01  1.64282E+01  1.68279E+01
#           1.72374E+01  1.76568E+01  1.80864E+01  1.85264E+01  1.89772E+01
#           1.94389E+01  1.99119E+01  2.03963E+01  2.08926E+01  2.14009E+01
#           2.19216E+01  2.24550E+01  2.30014E+01  2.35610E+01  2.41343E+01
#           2.47215E+01  2.53230E+01  2.59391E+01  2.65702E+01  2.72167E+01
#           2.78789E+01  2.85572E+01  2.92520E+01  2.99637E+01  3.06928E+01
#           3.14396E+01  3.22045E+01  3.29881E+01  3.37907E+01  3.46128E+01
#           3.54550E+01  3.63177E+01  3.72013E+01  3.81064E+01  3.90336E+01
#           3.99833E+01  4.09561E+01  4.19526E+01  4.29734E+01  4.40189E+01
#           4.50900E+01  4.61870E+01  4.73108E+01  4.84619E+01  4.96410E+01
#           5.08488E+01  5.20860E+01  5.33533E+01  5.46514E+01  5.59812E+01
#           5.73432E+01  5.87384E+01  6.01676E+01  6.16315E+01  6.31311E+01
#           6.46671E+01  6.62405E+01  6.78522E+01  6.95031E+01  7.11941E+01
#           7.29263E+01  7.47007E+01  7.65182E+01  7.83800E+01  8.02870E+01
#           8.22405E+01  8.42414E+01  8.62911E+01  8.83906E+01  9.05412E+01
#           9.27442E+01  9.50007E+01  9.73122E+01  9.96799E+01  1.02105E+02
#           1.04589E+02  1.07134E+02  1.09741E+02  1.12411E+02  1.15146E+02
#           1.17948E+02  1.20817E+02  1.23757E+02  1.26768E+02  1.29852E+02
#           1.33012E+02  1.36248E+02  1.39563E+02  1.42959E+02  1.46437E+02
#           1.50000E+02
     unit =    2            # unit is [1/cm^2/(MeV/n)/source]
     axis =  eng            # axis of output
     file = detector-01.out  # file name of output for the above axis
   output = f-curr          # surface crossing forward current spectrum
     part =  neutron  
# kf/name :  2112     
#    used :        main (  %)        temp (  %)       total (  %)
#  memory :         414 (  0)           0 (  0)         414 (  0)

#------------------------------------------------------------------------------
#newpage:
#   no. =    1   reg = 100 - 200

x: Energy [MeV/n]
y:  F-Curr [1/cm^2/(MeV/n)/source]         
p: xlog ylog afac(0.8) form(0.9)
h: n            x            y(neutron ),hh0l   n 
#  e-lower      e-upper      neutron     r.err 
   1.0000E-02   1.0243E-02   9.6104E-06  0.8675
   1.0243E-02   1.0493E-02   1.6050E-05  0.7071
   1.0493E-02   1.0748E-02   2.3503E-05  0.5774
   1.0748E-02   1.1009E-02   2.2944E-05  0.5774
   1.1009E-02   1.1277E-02   2.2399E-05  0.5774
   1.1277E-02   1.1552E-02   3.6445E-05  0.4472
   1.1552E-02   1.1833E-02   1.4232E-05  0.7071
   1.1833E-02   1.2121E-02   2.7788E-05  0.5000
   1.2121E-02   1.2415E-02   2.7128E-05  0.5000
   1.2415E-02   1.2718E-02   1.3242E-05  0.7071
   1.2718E-02   1.3027E-02   6.4636E-06  1.0000
   1.3027E-02   1.3344E-02   1.2620E-05  0.7071
   1.3344E-02   1.3669E-02   2.1561E-05  0.5151
   1.3669E-02   1.4001E-02   2.7062E-05  0.4581
   1.4001E-02   1.4342E-02   1.1742E-05  0.7071
   1.4342E-02   1.4691E-02   1.2246E-05  0.6650
   1.4691E-02   1.5048E-02   1.1919E-05  0.6667
   1.5048E-02   1.5414E-02   0.0000E+00  0.0000
   1.5414E-02   1.5789E-02   1.5998E-05  0.5774
   1.5789E-02   1.6174E-02   2.0824E-05  0.5000
   1.6174E-02   1.6567E-02   1.5247E-05  0.5774
   1.6567E-02   1.6970E-02   1.4885E-05  0.5774
   1.6970E-02   1.7383E-02   9.6877E-06  0.7071
   1.7383E-02   1.7806E-02   0.0000E+00  0.0000
   1.7806E-02   1.8239E-02   4.6165E-06  1.0000
   1.8239E-02   1.8683E-02   0.0000E+00  0.0000
   1.8683E-02   1.9138E-02   8.7995E-06  0.7071
   1.9138E-02   1.9603E-02   1.7181E-05  0.5000
   1.9603E-02   2.0080E-02   8.3864E-06  0.7071
   2.0080E-02   2.0569E-02   4.0936E-06  1.0000
   2.0569E-02   2.1069E-02   7.9928E-06  0.7071
   2.1069E-02   2.1582E-02   0.0000E+00  0.0000
   2.1582E-02   2.2107E-02   0.0000E+00  0.0000
   2.2107E-02   2.2645E-02   0.0000E+00  0.0000
   2.2645E-02   2.3196E-02   1.1361E-05  0.5550
   2.3196E-02   2.3760E-02   7.0875E-06  0.7071
   2.3760E-02   2.4338E-02   1.3838E-05  0.5000
   2.4338E-02   2.4930E-02   0.0000E+00  0.0000
   2.4930E-02   2.5537E-02   9.8916E-06  0.5774
   2.5537E-02   2.6158E-02   9.6566E-06  0.5774
   2.6158E-02   2.6795E-02   1.2570E-05  0.5000
   2.6795E-02   2.7447E-02   6.1356E-06  0.7071
   2.7447E-02   2.8114E-02   2.9949E-06  1.0000
   2.8114E-02   2.8799E-02   5.8475E-06  0.7071
   2.8799E-02   2.9499E-02   8.5630E-06  0.5774
   2.9499E-02   3.0217E-02   8.3596E-06  0.5774
   3.0217E-02   3.0952E-02   0.0000E+00  0.0000
   3.0952E-02   3.1705E-02   0.0000E+00  0.0000
   3.1705E-02   3.2477E-02   5.1853E-06  0.7071
   3.2477E-02   3.3267E-02   2.5311E-06  1.0000
   3.3267E-02   3.4076E-02   7.7378E-06  0.5547
   3.4076E-02   3.4905E-02   5.5130E-06  0.6251
   3.4905E-02   3.5755E-02   4.7099E-06  0.7071
   3.5755E-02   3.6625E-02   2.2990E-06  1.0000
   3.6625E-02   3.7516E-02   2.2444E-06  1.0000
   3.7516E-02   3.8428E-02   6.5733E-06  0.5774
   3.8428E-02   3.9363E-02   8.5562E-06  0.5000
   3.9363E-02   4.0321E-02   2.0882E-06  1.0000
   4.0321E-02   4.1302E-02   6.1159E-06  0.5774
   4.1302E-02   4.2307E-02   1.1941E-05  0.4082
   4.2307E-02   4.3337E-02   1.1658E-05  0.4082
   4.3337E-02   4.4391E-02   1.8968E-06  1.0000
   4.4391E-02   4.5471E-02   3.7035E-06  0.7071
   4.5471E-02   4.6577E-02   2.0921E-06  0.8747
   4.6577E-02   4.7711E-02   3.5296E-06  0.7071
   4.7711E-02   4.8871E-02   3.4458E-06  0.7071
   4.8871E-02   5.0061E-02   4.2049E-06  0.6000
   5.0061E-02   5.1279E-02   3.2840E-06  0.7071
   5.1279E-02   5.2526E-02   1.6030E-06  1.0000
   5.2526E-02   5.3804E-02   7.8247E-06  0.4472
   5.3804E-02   5.5113E-02   4.5833E-06  0.5774
   5.5113E-02   5.6454E-02   2.9830E-06  0.7071
   5.6454E-02   5.7828E-02   1.4561E-06  1.0000
   5.7828E-02   5.9235E-02   1.4215E-06  1.0000
   5.9235E-02   6.0676E-02   2.9851E-06  0.6612
   6.0676E-02   6.2152E-02   1.3547E-06  1.0000
   6.2152E-02   6.3665E-02   1.0581E-05  0.3536
   6.3665E-02   6.5214E-02   3.8734E-06  0.5774
   6.5214E-02   6.6800E-02   2.5210E-06  0.7071
   6.6800E-02   6.8426E-02   1.2305E-06  1.0000
   6.8426E-02   7.0090E-02   2.4026E-06  0.7071
   7.0090E-02   7.1796E-02   7.0367E-06  0.4082
   7.1796E-02   7.3543E-02   3.4348E-06  0.5774
   7.3543E-02   7.5332E-02   4.8351E-06  0.4654
   7.5332E-02   7.7165E-02   3.8191E-06  0.5151
   7.7165E-02   7.9042E-02   2.3267E-06  0.6530
   7.9042E-02   8.0965E-02   1.0400E-06  1.0000
   8.0965E-02   8.2935E-02   0.0000E+00  0.0000
   8.2935E-02   8.4953E-02   1.9823E-06  0.7071
   8.4953E-02   8.7020E-02   0.0000E+00  0.0000
   8.7020E-02   8.9138E-02   2.8338E-06  0.5774
   8.9138E-02   9.1306E-02   3.6887E-06  0.5000
   9.1306E-02   9.3528E-02   2.7008E-06  0.5774
   9.3528E-02   9.5804E-02   8.7889E-07  1.0000
   9.5804E-02   9.8134E-02   2.5740E-06  0.5774
   9.8134E-02   1.0052E-01   1.8087E-06  0.6591
   1.0052E-01   1.0297E-01   1.6355E-06  0.7071
   1.0297E-01   1.0547E-01   1.3626E-07  1.0000
   1.0547E-01   1.0804E-01   1.6854E-06  0.6583
   1.0804E-01   1.1067E-01   7.6084E-07  1.0000
   1.1067E-01   1.1336E-01   2.2283E-06  0.5774
   1.1336E-01   1.1612E-01   4.3507E-06  0.4082
   1.1612E-01   1.1894E-01   1.0618E-06  0.7454
   1.1894E-01   1.2184E-01   1.3822E-06  0.7071
   1.2184E-01   1.2480E-01   1.3493E-06  0.7071
   1.2480E-01   1.2784E-01   1.9759E-06  0.5774
   1.2784E-01   1.3095E-01   1.2860E-06  0.7071
   1.3095E-01   1.3414E-01   0.0000E+00  0.0000
   1.3414E-01   1.3740E-01   1.3192E-06  0.6608
   1.3740E-01   1.4074E-01   1.1965E-06  0.7071
   1.4074E-01   1.4417E-01   1.7521E-06  0.5774
   1.4417E-01   1.4767E-01   5.7018E-07  1.0000
   1.4767E-01   1.5127E-01   1.6699E-06  0.5774
   1.5127E-01   1.5495E-01   1.6302E-06  0.5774
   1.5495E-01   1.5872E-01   1.0610E-06  0.7071
   1.5872E-01   1.6258E-01   7.7685E-07  0.7454
   1.6258E-01   1.6654E-01   1.5168E-06  0.5774
   1.6654E-01   1.7059E-01   2.9615E-06  0.4082
   1.7059E-01   1.7474E-01   1.0350E-06  0.6620
   1.7474E-01   1.7899E-01   4.7042E-07  1.0000
   1.7899E-01   1.8334E-01   3.1203E-06  0.3692
   1.8334E-01   1.8781E-01   0.0000E+00  0.0000
   1.8781E-01   1.9237E-01   9.4408E-07  0.6597
   1.9237E-01   1.9706E-01   1.2819E-06  0.5774
   1.9706E-01   2.0185E-01   1.2514E-06  0.5774
   2.0185E-01   2.0676E-01   4.0724E-07  1.0000
   2.0676E-01   2.1179E-01   8.6809E-07  0.6531
   2.1179E-01   2.1694E-01   3.8812E-07  1.0000
   2.1694E-01   2.2222E-01   1.5156E-06  0.5000
   2.2222E-01   2.2763E-01   2.2194E-06  0.4082
   2.2763E-01   2.3317E-01   1.0833E-06  0.5774
   2.3317E-01   2.3884E-01   1.4101E-06  0.5000
   2.3884E-01   2.4465E-01   6.8833E-07  0.7071
   2.4465E-01   2.5061E-01   1.0080E-06  0.5774
   2.5061E-01   2.5670E-01   1.3631E-06  0.4827
   2.5670E-01   2.6295E-01   6.4043E-07  0.7071
   2.6295E-01   2.6935E-01   2.5009E-06  0.3536
   2.6935E-01   2.7590E-01   1.9837E-06  0.3846
   2.7590E-01   2.8261E-01   1.1917E-06  0.5000
   2.8261E-01   2.8949E-01   1.7452E-06  0.4082
   2.8949E-01   2.9653E-01   2.3188E-06  0.3470
   2.9653E-01   3.0375E-01   3.7423E-06  0.2696
   3.0375E-01   3.1114E-01   1.0825E-06  0.5000
   3.1114E-01   3.1871E-01   3.1703E-06  0.2887
   3.1871E-01   3.2646E-01   3.2665E-06  0.2767
   3.2646E-01   3.3441E-01   2.3049E-06  0.3282
   3.3441E-01   3.4254E-01   2.2123E-06  0.3333
   3.4254E-01   3.5088E-01   3.5996E-06  0.2582
   3.5088E-01   3.5941E-01   1.8742E-06  0.3536
   3.5941E-01   3.6816E-01   3.3163E-06  0.2603
   3.6816E-01   3.7712E-01   2.4903E-06  0.2977
   3.7712E-01   3.8629E-01   5.0546E-06  0.2070
   3.8629E-01   3.9569E-01   3.2318E-06  0.2553
   3.9569E-01   4.0532E-01   3.6354E-06  0.2373
   4.0532E-01   4.1518E-01   4.9001E-06  0.2029
   4.1518E-01   4.2528E-01   3.9871E-06  0.2222
   4.2528E-01   4.3563E-01   4.3806E-06  0.2083
   4.3563E-01   4.4623E-01   5.0947E-06  0.1925
   4.4623E-01   4.5708E-01   4.0828E-06  0.2118
   4.5708E-01   4.6821E-01   5.9346E-06  0.1741
   4.6821E-01   4.7960E-01   4.7664E-06  0.1897
   4.7960E-01   4.9127E-01   5.7042E-06  0.1727
   4.9127E-01   5.0322E-01   7.4096E-06  0.1499
   5.0322E-01   5.1546E-01   5.5797E-06  0.1708
   5.1546E-01   5.2800E-01   6.7774E-06  0.1529
   5.2800E-01   5.4085E-01   9.2053E-06  0.1299
   5.4085E-01   5.5401E-01   6.6599E-06  0.1502
   5.5401E-01   5.6749E-01   6.0174E-06  0.1562
   5.6749E-01   5.8130E-01   5.9636E-06  0.1556
   5.8130E-01   5.9544E-01   8.4138E-06  0.1294
   5.9544E-01   6.0993E-01   7.9608E-06  0.1312
   6.0993E-01   6.2477E-01   9.6113E-06  0.1182
   6.2477E-01   6.3997E-01   8.0915E-06  0.1273
   6.3997E-01   6.5554E-01   8.7342E-06  0.1213
   6.5554E-01   6.7149E-01   1.0345E-05  0.1099
   6.7149E-01   6.8783E-01   9.0587E-06  0.1159
   6.8783E-01   7.0456E-01   9.6396E-06  0.1111
   7.0456E-01   7.2171E-01   9.5423E-06  0.1102
   7.2171E-01   7.3927E-01   8.8637E-06  0.1130
   7.3927E-01   7.5725E-01   1.1898E-05  0.0964
   7.5725E-01   7.7568E-01   1.2357E-05  0.0935
   7.7568E-01   7.9455E-01   1.3010E-05  0.0901
   7.9455E-01   8.1388E-01   1.3392E-05  0.0876
   8.1388E-01   8.3368E-01   1.2813E-05  0.0884
   8.3368E-01   8.5397E-01   1.3232E-05  0.0861
   8.5397E-01   8.7475E-01   1.2916E-05  0.0861
   8.7475E-01   8.9603E-01   1.5343E-05  0.0781
   8.9603E-01   9.1783E-01   1.3929E-05  0.0810
   9.1783E-01   9.4016E-01   1.4057E-05  0.0797
   9.4016E-01   9.6304E-01   1.5395E-05  0.0750
   9.6304E-01   9.8647E-01   1.6315E-05  0.0721
   9.8647E-01   1.0105E+00   1.7515E-05  0.0689
   1.0105E+00   1.0351E+00   1.6156E-05  0.0707
   1.0351E+00   1.0602E+00   1.5471E-05  0.0715
   1.0602E+00   1.0860E+00   1.7918E-05  0.0657
   1.0860E+00   1.1125E+00   1.9193E-05  0.0626
   1.1125E+00   1.1395E+00   1.7814E-05  0.0642
   1.1395E+00   1.1673E+00   1.7907E-05  0.0633
   1.1673E+00   1.1957E+00   1.8645E-05  0.0614
   1.1957E+00   1.2247E+00   1.8863E-05  0.0602
   1.2247E+00   1.2545E+00   2.0265E-05  0.0573
   1.2545E+00   1.2851E+00   2.0201E-05  0.0568
   1.2851E+00   1.3163E+00   1.7390E-05  0.0605
   1.3163E+00   1.3484E+00   1.9042E-05  0.0571
   1.3484E+00   1.3812E+00   1.9677E-05  0.0554
   1.3812E+00   1.4148E+00   2.4638E-05  0.0490
   1.4148E+00   1.4492E+00   2.3341E-05  0.0498
   1.4492E+00   1.4845E+00   2.0843E-05  0.0520
   1.4845E+00   1.5206E+00   2.3197E-05  0.0487
   1.5206E+00   1.5576E+00   2.4019E-05  0.0473
   1.5576E+00   1.5955E+00   2.3560E-05  0.0472
   1.5955E+00   1.6343E+00   2.3924E-05  0.0463
   1.6343E+00   1.6741E+00   2.2896E-05  0.0467
   1.6741E+00   1.7148E+00   2.2002E-05  0.0472
   1.7148E+00   1.7565E+00   2.2271E-05  0.0462
   1.7565E+00   1.7992E+00   2.7146E-05  0.0414
   1.7992E+00   1.8430E+00   2.3574E-05  0.0439
   1.8430E+00   1.8879E+00   2.3803E-05  0.0431
   1.8879E+00   1.9338E+00   2.6676E-05  0.0403
   1.9338E+00   1.9808E+00   2.5137E-05  0.0410
   1.9808E+00   2.0290E+00   2.6894E-05  0.0392
   2.0290E+00   2.0784E+00   2.5250E-05  0.0399
   2.0784E+00   2.1290E+00   2.6867E-05  0.0383
   2.1290E+00   2.1808E+00   2.6290E-05  0.0382
   2.1808E+00   2.2338E+00   2.6969E-05  0.0373
   2.2338E+00   2.2882E+00   2.7613E-05  0.0364
   2.2882E+00   2.3439E+00   2.7633E-05  0.0360
   2.3439E+00   2.4009E+00   2.9572E-05  0.0343
   2.4009E+00   2.4593E+00   2.7485E-05  0.0352
   2.4593E+00   2.5191E+00   2.8392E-05  0.0342
   2.5191E+00   2.5804E+00   2.9526E-05  0.0331
   2.5804E+00   2.6432E+00   2.7305E-05  0.0341
   2.6432E+00   2.7075E+00   3.0066E-05  0.0321
   2.7075E+00   2.7734E+00   2.8154E-05  0.0327
   2.7734E+00   2.8409E+00   2.9488E-05  0.0316
   2.8409E+00   2.9100E+00   2.9734E-05  0.0311
   2.9100E+00   2.9808E+00   3.0474E-05  0.0304
   2.9808E+00   3.0533E+00   3.0198E-05  0.0301
   3.0533E+00   3.1276E+00   3.0379E-05  0.0297
   3.1276E+00   3.2037E+00   3.2092E-05  0.0285
   3.2037E+00   3.2817E+00   3.1632E-05  0.0284
   3.2817E+00   3.3615E+00   3.3081E-05  0.0275
   3.3615E+00   3.4433E+00   3.2742E-05  0.0273
   3.4433E+00   3.5271E+00   3.0800E-05  0.0278
   3.5271E+00   3.6129E+00   3.2539E-05  0.0267
   3.6129E+00   3.7008E+00   3.3249E-05  0.0261
   3.7008E+00   3.7908E+00   3.1815E-05  0.0264
   3.7908E+00   3.8831E+00   3.2866E-05  0.0256
   3.8831E+00   3.9776E+00   3.2723E-05  0.0254
   3.9776E+00   4.0743E+00   3.4257E-05  0.0245
   4.0743E+00   4.1735E+00   3.4142E-05  0.0243
   4.1735E+00   4.2750E+00   3.4235E-05  0.0239
   4.2750E+00   4.3790E+00   3.3464E-05  0.0239
   4.3790E+00   4.4856E+00   3.3734E-05  0.0235
   4.4856E+00   4.5947E+00   3.4582E-05  0.0230
   4.5947E+00   4.7065E+00   3.4670E-05  0.0227
   4.7065E+00   4.8210E+00   3.6341E-05  0.0219
   4.8210E+00   4.9383E+00   3.5153E-05  0.0220
   4.9383E+00   5.0585E+00   3.5743E-05  0.0216
   5.0585E+00   5.1815E+00   3.4531E-05  0.0217
   5.1815E+00   5.3076E+00   3.5443E-05  0.0211
   5.3076E+00   5.4368E+00   3.6094E-05  0.0207
   5.4368E+00   5.5690E+00   3.5002E-05  0.0208
   5.5690E+00   5.7045E+00   3.4557E-05  0.0206
   5.7045E+00   5.8433E+00   3.6197E-05  0.0199
   5.8433E+00   5.9855E+00   3.5369E-05  0.0199
   5.9855E+00   6.1311E+00   3.5733E-05  0.0196
   6.1311E+00   6.2803E+00   3.5325E-05  0.0195
   6.2803E+00   6.4331E+00   3.6429E-05  0.0189
   6.4331E+00   6.5896E+00   3.4755E-05  0.0192
   6.5896E+00   6.7500E+00   3.6622E-05  0.0184
   6.7500E+00   6.9142E+00   3.6338E-05  0.0183
   6.9142E+00   7.0824E+00   3.6606E-05  0.0180
   7.0824E+00   7.2548E+00   3.6585E-05  0.0178
   7.2548E+00   7.4313E+00   3.7552E-05  0.0174
   7.4313E+00   7.6121E+00   3.6235E-05  0.0175
   7.6121E+00   7.7973E+00   3.5732E-05  0.0174
   7.7973E+00   7.9870E+00   3.5446E-05  0.0172
   7.9870E+00   8.1813E+00   3.4916E-05  0.0172
   8.1813E+00   8.3804E+00   3.4733E-05  0.0170
   8.3804E+00   8.5843E+00   3.5671E-05  0.0166
   8.5843E+00   8.7931E+00   3.6526E-05  0.0162
   8.7931E+00   9.0071E+00   3.5418E-05  0.0162
   9.0071E+00   9.2262E+00   3.3996E-05  0.0164
   9.2262E+00   9.4507E+00   3.3843E-05  0.0162
   9.4507E+00   9.6807E+00   3.4414E-05  0.0159
   9.6807E+00   9.9162E+00   3.3861E-05  0.0158
   9.9162E+00   1.0157E+01   3.3198E-05  0.0158
   1.0157E+01   1.0405E+01   3.2904E-05  0.0157
   1.0405E+01   1.0658E+01   3.1915E-05  0.0157
   1.0658E+01   1.0917E+01   3.2855E-05  0.0153
   1.0917E+01   1.1183E+01   3.2652E-05  0.0152
   1.1183E+01   1.1455E+01   3.0822E-05  0.0154
   1.1455E+01   1.1733E+01   3.0255E-05  0.0154
   1.1733E+01   1.2019E+01   2.9958E-05  0.0153
   1.2019E+01   1.2311E+01   2.9314E-05  0.0153
   1.2311E+01   1.2611E+01   2.8270E-05  0.0154
   1.2611E+01   1.2918E+01   2.7950E-05  0.0153
   1.2918E+01   1.3232E+01   2.7309E-05  0.0153
   1.3232E+01   1.3554E+01   2.6187E-05  0.0154
   1.3554E+01   1.3884E+01   2.4899E-05  0.0156
   1.3884E+01   1.4222E+01   2.4002E-05  0.0157
   1.4222E+01   1.4568E+01   2.4261E-05  0.0154
   1.4568E+01   1.4922E+01   2.2204E-05  0.0159
   1.4922E+01   1.5285E+01   2.1385E-05  0.0160
   1.5285E+01   1.5657E+01   2.0063E-05  0.0164
   1.5657E+01   1.6038E+01   1.9418E-05  0.0164
   1.6038E+01   1.6428E+01   1.7641E-05  0.0170
   1.6428E+01   1.6828E+01   1.6840E-05  0.0172
   1.6828E+01   1.7237E+01   1.5847E-05  0.0176
   1.7237E+01   1.7657E+01   1.4865E-05  0.0179
   1.7657E+01   1.8086E+01   1.3445E-05  0.0186
   1.8086E+01   1.8526E+01   1.2948E-05  0.0187
   1.8526E+01   1.8977E+01   1.1182E-05  0.0199
   1.8977E+01   1.9439E+01   1.0721E-05  0.0201
   1.9439E+01   1.9912E+01   9.0070E-06  0.0217
   1.9912E+01   2.0396E+01   8.9128E-06  0.0215
   2.0396E+01   2.0893E+01   7.8145E-06  0.0227
   2.0893E+01   2.1401E+01   7.1449E-06  0.0235
   2.1401E+01   2.1922E+01   6.1916E-06  0.0249
   2.1922E+01   2.2455E+01   5.4634E-06  0.0262
   2.2455E+01   2.3001E+01   4.6454E-06  0.0281
   2.3001E+01   2.3561E+01   4.0883E-06  0.0296
   2.3561E+01   2.4134E+01   3.5272E-06  0.0315
   2.4134E+01   2.4721E+01   3.0449E-06  0.0334
   2.4721E+01   2.5323E+01   2.6534E-06  0.0354
   2.5323E+01   2.5939E+01   2.1100E-06  0.0392
   2.5939E+01   2.6570E+01   1.9584E-06  0.0402
   2.6570E+01   2.7217E+01   1.7479E-06  0.0421
   2.7217E+01   2.7879E+01   1.4135E-06  0.0462
   2.7879E+01   2.8557E+01   1.1086E-06  0.0516
   2.8557E+01   2.9252E+01   1.0017E-06  0.0536
   2.9252E+01   2.9964E+01   7.1657E-07  0.0626
   2.9964E+01   3.0693E+01   5.6787E-07  0.0695
   3.0693E+01   3.1440E+01   5.2760E-07  0.0712
   3.1440E+01   3.2205E+01   6.1703E-07  0.0651
   3.2205E+01   3.2988E+01   6.4066E-07  0.0631
   3.2988E+01   3.3791E+01   5.9056E-07  0.0650
   3.3791E+01   3.4613E+01   5.2302E-07  0.0682
   3.4613E+01   3.5455E+01   6.1271E-07  0.0623
   3.5455E+01   3.6318E+01   5.0542E-07  0.0677
   3.6318E+01   3.7201E+01   5.7942E-07  0.0625
   3.7201E+01   3.8106E+01   5.7450E-07  0.0620
   3.8106E+01   3.9034E+01   5.1124E-07  0.0650
   3.9034E+01   3.9983E+01   5.9175E-07  0.0597
   3.9983E+01   4.0956E+01   5.7770E-07  0.0597
   4.0956E+01   4.1953E+01   6.5028E-07  0.0556
   4.1953E+01   4.2973E+01   6.4659E-07  0.0550
   4.2973E+01   4.4019E+01   5.8532E-07  0.0572
   4.4019E+01   4.5090E+01   4.8365E-07  0.0621
   4.5090E+01   4.6187E+01   3.8831E-07  0.0685
   4.6187E+01   4.7311E+01   1.9221E-07  0.0962
   4.7311E+01   4.8462E+01   1.7722E-07  0.0990
   4.8462E+01   4.9641E+01   6.2759E-08  0.1644
   4.9641E+01   5.0849E+01   0.0000E+00  0.0000
   5.0849E+01   5.2086E+01   0.0000E+00  0.0000
   5.2086E+01   5.3353E+01   0.0000E+00  0.0000
   5.3353E+01   5.4651E+01   0.0000E+00  0.0000
   5.4651E+01   5.5981E+01   0.0000E+00  0.0000
   5.5981E+01   5.7343E+01   0.0000E+00  0.0000
   5.7343E+01   5.8738E+01   0.0000E+00  0.0000
   5.8738E+01   6.0168E+01   0.0000E+00  0.0000
   6.0168E+01   6.1632E+01   0.0000E+00  0.0000
   6.1632E+01   6.3131E+01   0.0000E+00  0.0000
   6.3131E+01   6.4667E+01   0.0000E+00  0.0000
   6.4667E+01   6.6240E+01   0.0000E+00  0.0000
   6.6240E+01   6.7852E+01   0.0000E+00  0.0000
   6.7852E+01   6.9503E+01   0.0000E+00  0.0000
   6.9503E+01   7.1194E+01   0.0000E+00  0.0000
   7.1194E+01   7.2926E+01   0.0000E+00  0.0000
   7.2926E+01   7.4701E+01   0.0000E+00  0.0000
   7.4701E+01   7.6518E+01   0.0000E+00  0.0000
   7.6518E+01   7.8380E+01   0.0000E+00  0.0000
   7.8380E+01   8.0287E+01   0.0000E+00  0.0000
   8.0287E+01   8.2240E+01   0.0000E+00  0.0000
   8.2240E+01   8.4241E+01   0.0000E+00  0.0000
   8.4241E+01   8.6291E+01   0.0000E+00  0.0000
   8.6291E+01   8.8391E+01   0.0000E+00  0.0000
   8.8391E+01   9.0541E+01   0.0000E+00  0.0000
   9.0541E+01   9.2744E+01   0.0000E+00  0.0000
   9.2744E+01   9.5001E+01   0.0000E+00  0.0000
   9.5001E+01   9.7312E+01   0.0000E+00  0.0000
   9.7312E+01   9.9680E+01   0.0000E+00  0.0000
   9.9680E+01   1.0211E+02   0.0000E+00  0.0000
   1.0211E+02   1.0459E+02   0.0000E+00  0.0000
   1.0459E+02   1.0713E+02   0.0000E+00  0.0000
   1.0713E+02   1.0974E+02   0.0000E+00  0.0000
   1.0974E+02   1.1241E+02   0.0000E+00  0.0000
   1.1241E+02   1.1515E+02   0.0000E+00  0.0000
   1.1515E+02   1.1795E+02   0.0000E+00  0.0000
   1.1795E+02   1.2082E+02   0.0000E+00  0.0000
   1.2082E+02   1.2376E+02   0.0000E+00  0.0000
   1.2376E+02   1.2677E+02   0.0000E+00  0.0000
   1.2677E+02   1.2985E+02   0.0000E+00  0.0000
   1.2985E+02   1.3301E+02   0.0000E+00  0.0000
   1.3301E+02   1.3625E+02   0.0000E+00  0.0000
   1.3625E+02   1.3956E+02   0.0000E+00  0.0000
   1.3956E+02   1.4296E+02   0.0000E+00  0.0000
   1.4296E+02   1.4644E+02   0.0000E+00  0.0000
   1.4644E+02   1.5000E+02   0.0000E+00  0.0000

#   sum over                 3.7296E-06
'no. =    1   reg = 100 - 200'
msuc: {\huge [t-cross] in region mesh}
msdr: {\it plotted by \ANGEL \version}
msdl: {\it calculated by \PHITS  3.26}
wt: s(0.7)
\vspace{-3}
  region surface crossing
  area  &=&   1.0000E+00 [cm^2]
e:
 
# Information for Restart Calculation
# This calculation was newly started
# istdev =  2 # 1:Batch variance, 2:History variance
# resc2  = 5.00000000000000000E+08 # Total source weight or Total source weight / maxcas
# resc3  = 5.00000000000000000E+08 # Total history number or Total batch number
# maxcas =   500000000 # History / Batch, only used for istdev=1
# bitrseed = 1011101111111101000111101101010011111001010110111001011111010111 # bit data of rseed
