[ T-Cross ]
    title = [t-cross] in region mesh
     mesh =  reg            # mesh type is region-wise
      reg =    1            # number of crossing regions
      non     r-from    r-to       area
      1       111       211        1.000000    
   e-type =    3            # e-mesh is log given by emin, emax and ne
     emin =  1.0000000E-02  # minimum value of e-mesh points
     emax =   150.0000      # maximum value of e-mesh points
#    edel =  2.4039514E-02  # mesh width of e-mesh points
       ne =    400          # number of e-mesh points
#    data = ( e(i), i = 1, ne + 1 )
#           1.00000E-02  1.02433E-02  1.04925E-02  1.07478E-02  1.10093E-02
#           1.12772E-02  1.15516E-02  1.18326E-02  1.21205E-02  1.24154E-02
#           1.27175E-02  1.30269E-02  1.33439E-02  1.36686E-02  1.40011E-02
#           1.43418E-02  1.46907E-02  1.50482E-02  1.54143E-02  1.57894E-02
#           1.61735E-02  1.65670E-02  1.69701E-02  1.73830E-02  1.78060E-02
#           1.82392E-02  1.86830E-02  1.91375E-02  1.96032E-02  2.00801E-02
#           2.05687E-02  2.10692E-02  2.15818E-02  2.21069E-02  2.26448E-02
#           2.31957E-02  2.37601E-02  2.43382E-02  2.49304E-02  2.55369E-02
#           2.61583E-02  2.67947E-02  2.74467E-02  2.81145E-02  2.87985E-02
#           2.94992E-02  3.02169E-02  3.09521E-02  3.17052E-02  3.24766E-02
#           3.32668E-02  3.40762E-02  3.49053E-02  3.57546E-02  3.66246E-02
#           3.75157E-02  3.84284E-02  3.93634E-02  4.03212E-02  4.13022E-02
#           4.23071E-02  4.33365E-02  4.43909E-02  4.54710E-02  4.65773E-02
#           4.77106E-02  4.88714E-02  5.00605E-02  5.12785E-02  5.25262E-02
#           5.38042E-02  5.51133E-02  5.64542E-02  5.78278E-02  5.92348E-02
#           6.06760E-02  6.21523E-02  6.36645E-02  6.52135E-02  6.68002E-02
#           6.84255E-02  7.00904E-02  7.17957E-02  7.35426E-02  7.53319E-02
#           7.71648E-02  7.90423E-02  8.09655E-02  8.29354E-02  8.49533E-02
#           8.70203E-02  8.91376E-02  9.13064E-02  9.35279E-02  9.58035E-02
#           9.81345E-02  1.00522E-01  1.02968E-01  1.05473E-01  1.08040E-01
#           1.10668E-01  1.13361E-01  1.16119E-01  1.18944E-01  1.21838E-01
#           1.24803E-01  1.27839E-01  1.30950E-01  1.34136E-01  1.37399E-01
#           1.40742E-01  1.44167E-01  1.47675E-01  1.51268E-01  1.54948E-01
#           1.58718E-01  1.62580E-01  1.66535E-01  1.70587E-01  1.74738E-01
#           1.78989E-01  1.83344E-01  1.87805E-01  1.92375E-01  1.97055E-01
#           2.01850E-01  2.06761E-01  2.11792E-01  2.16945E-01  2.22223E-01
#           2.27630E-01  2.33169E-01  2.38842E-01  2.44653E-01  2.50605E-01
#           2.56703E-01  2.62949E-01  2.69346E-01  2.75900E-01  2.82613E-01
#           2.89489E-01  2.96532E-01  3.03747E-01  3.11138E-01  3.18708E-01
#           3.26462E-01  3.34405E-01  3.42542E-01  3.50876E-01  3.59413E-01
#           3.68158E-01  3.77116E-01  3.86291E-01  3.95690E-01  4.05317E-01
#           4.15179E-01  4.25281E-01  4.35628E-01  4.46227E-01  4.57084E-01
#           4.68205E-01  4.79597E-01  4.91266E-01  5.03219E-01  5.15463E-01
#           5.28005E-01  5.40851E-01  5.54011E-01  5.67490E-01  5.81298E-01
#           5.95441E-01  6.09929E-01  6.24769E-01  6.39970E-01  6.55541E-01
#           6.71491E-01  6.87828E-01  7.04564E-01  7.21706E-01  7.39266E-01
#           7.57253E-01  7.75678E-01  7.94551E-01  8.13883E-01  8.33685E-01
#           8.53969E-01  8.74747E-01  8.96030E-01  9.17831E-01  9.40163E-01
#           9.63038E-01  9.86469E-01  1.01047E+00  1.03506E+00  1.06024E+00
#           1.08604E+00  1.11246E+00  1.13953E+00  1.16725E+00  1.19565E+00
#           1.22474E+00  1.25454E+00  1.28507E+00  1.31633E+00  1.34836E+00
#           1.38117E+00  1.41477E+00  1.44920E+00  1.48446E+00  1.52057E+00
#           1.55757E+00  1.59547E+00  1.63429E+00  1.67405E+00  1.71478E+00
#           1.75650E+00  1.79924E+00  1.84302E+00  1.88786E+00  1.93379E+00
#           1.98084E+00  2.02904E+00  2.07841E+00  2.12898E+00  2.18078E+00
#           2.23384E+00  2.28819E+00  2.34386E+00  2.40089E+00  2.45930E+00
#           2.51914E+00  2.58043E+00  2.64322E+00  2.70753E+00  2.77341E+00
#           2.84088E+00  2.91001E+00  2.98081E+00  3.05333E+00  3.12762E+00
#           3.20372E+00  3.28167E+00  3.36152E+00  3.44330E+00  3.52708E+00
#           3.61290E+00  3.70080E+00  3.79085E+00  3.88308E+00  3.97756E+00
#           4.07434E+00  4.17347E+00  4.27501E+00  4.37903E+00  4.48557E+00
#           4.59471E+00  4.70650E+00  4.82102E+00  4.93832E+00  5.05847E+00
#           5.18155E+00  5.30762E+00  5.43676E+00  5.56904E+00  5.70453E+00
#           5.84333E+00  5.98550E+00  6.13114E+00  6.28031E+00  6.43312E+00
#           6.58964E+00  6.74997E+00  6.91420E+00  7.08243E+00  7.25475E+00
#           7.43126E+00  7.61207E+00  7.79728E+00  7.98700E+00  8.18133E+00
#           8.38038E+00  8.58428E+00  8.79315E+00  9.00709E+00  9.22624E+00
#           9.45072E+00  9.68067E+00  9.91620E+00  1.01575E+01  1.04046E+01
#           1.06578E+01  1.09171E+01  1.11827E+01  1.14548E+01  1.17335E+01
#           1.20190E+01  1.23114E+01  1.26109E+01  1.29178E+01  1.32321E+01
#           1.35540E+01  1.38838E+01  1.42216E+01  1.45676E+01  1.49221E+01
#           1.52851E+01  1.56570E+01  1.60380E+01  1.64282E+01  1.68279E+01
#           1.72374E+01  1.76568E+01  1.80864E+01  1.85264E+01  1.89772E+01
#           1.94389E+01  1.99119E+01  2.03963E+01  2.08926E+01  2.14009E+01
#           2.19216E+01  2.24550E+01  2.30014E+01  2.35610E+01  2.41343E+01
#           2.47215E+01  2.53230E+01  2.59391E+01  2.65702E+01  2.72167E+01
#           2.78789E+01  2.85572E+01  2.92520E+01  2.99637E+01  3.06928E+01
#           3.14396E+01  3.22045E+01  3.29881E+01  3.37907E+01  3.46128E+01
#           3.54550E+01  3.63177E+01  3.72013E+01  3.81064E+01  3.90336E+01
#           3.99833E+01  4.09561E+01  4.19526E+01  4.29734E+01  4.40189E+01
#           4.50900E+01  4.61870E+01  4.73108E+01  4.84619E+01  4.96410E+01
#           5.08488E+01  5.20860E+01  5.33533E+01  5.46514E+01  5.59812E+01
#           5.73432E+01  5.87384E+01  6.01676E+01  6.16315E+01  6.31311E+01
#           6.46671E+01  6.62405E+01  6.78522E+01  6.95031E+01  7.11941E+01
#           7.29263E+01  7.47007E+01  7.65182E+01  7.83800E+01  8.02870E+01
#           8.22405E+01  8.42414E+01  8.62911E+01  8.83906E+01  9.05412E+01
#           9.27442E+01  9.50007E+01  9.73122E+01  9.96799E+01  1.02105E+02
#           1.04589E+02  1.07134E+02  1.09741E+02  1.12411E+02  1.15146E+02
#           1.17948E+02  1.20817E+02  1.23757E+02  1.26768E+02  1.29852E+02
#           1.33012E+02  1.36248E+02  1.39563E+02  1.42959E+02  1.46437E+02
#           1.50000E+02
     unit =    2            # unit is [1/cm^2/(MeV/n)/source]
     axis =  eng            # axis of output
     file = detector-12.out  # file name of output for the above axis
   output = f-curr          # surface crossing forward current spectrum
     part =  neutron  
# kf/name :  2112     
#    used :        main (  %)        temp (  %)       total (  %)
#  memory :         414 (  0)           0 (  0)         414 (  0)

#------------------------------------------------------------------------------
#newpage:
#   no. =    1   reg = 111 - 211

x: Energy [MeV/n]
y:  F-Curr [1/cm^2/(MeV/n)/source]         
p: xlog ylog afac(0.8) form(0.9)
h: n            x            y(neutron ),hh0l   n 
#  e-lower      e-upper      neutron     r.err 
   1.0000E-02   1.0243E-02   1.2170E-03  0.0260
   1.0243E-02   1.0493E-02   1.2137E-03  0.0257
   1.0493E-02   1.0748E-02   1.1175E-03  0.0265
   1.0748E-02   1.1009E-02   1.0937E-03  0.0264
   1.1009E-02   1.1277E-02   1.0976E-03  0.0261
   1.1277E-02   1.1552E-02   1.0463E-03  0.0264
   1.1552E-02   1.1833E-02   1.0261E-03  0.0263
   1.1833E-02   1.2121E-02   9.9480E-04  0.0264
   1.2121E-02   1.2415E-02   9.8745E-04  0.0262
   1.2415E-02   1.2718E-02   9.5737E-04  0.0263
   1.2718E-02   1.3027E-02   9.7018E-04  0.0258
   1.3027E-02   1.3344E-02   8.8151E-04  0.0268
   1.3344E-02   1.3669E-02   8.5934E-04  0.0268
   1.3669E-02   1.4001E-02   8.4975E-04  0.0266
   1.4001E-02   1.4342E-02   8.5423E-04  0.0262
   1.4342E-02   1.4691E-02   8.0241E-04  0.0267
   1.4691E-02   1.5048E-02   7.7888E-04  0.0268
   1.5048E-02   1.5414E-02   7.3634E-04  0.0272
   1.5414E-02   1.5789E-02   7.3858E-04  0.0269
   1.5789E-02   1.6174E-02   7.2260E-04  0.0268
   1.6174E-02   1.6567E-02   6.8155E-04  0.0273
   1.6567E-02   1.6970E-02   7.1796E-04  0.0263
   1.6970E-02   1.7383E-02   6.6651E-04  0.0270
   1.7383E-02   1.7806E-02   6.3129E-04  0.0274
   1.7806E-02   1.8239E-02   6.0937E-04  0.0275
   1.8239E-02   1.8683E-02   6.1338E-04  0.0271
   1.8683E-02   1.9138E-02   5.6295E-04  0.0280
   1.9138E-02   1.9603E-02   5.6289E-04  0.0276
   1.9603E-02   2.0080E-02   5.7091E-04  0.0271
   2.0080E-02   2.0569E-02   5.2726E-04  0.0279
   2.0569E-02   2.1069E-02   4.9955E-04  0.0283
   2.1069E-02   2.1582E-02   4.9275E-04  0.0281
   2.1582E-02   2.2107E-02   4.9248E-04  0.0278
   2.2107E-02   2.2645E-02   4.6516E-04  0.0283
   2.2645E-02   2.3196E-02   4.2689E-04  0.0292
   2.3196E-02   2.3760E-02   4.5927E-04  0.0278
   2.3760E-02   2.4338E-02   4.0304E-04  0.0293
   2.4338E-02   2.4930E-02   4.2454E-04  0.0282
   2.4930E-02   2.5537E-02   4.1166E-04  0.0283
   2.5537E-02   2.6158E-02   3.7339E-04  0.0294
   2.6158E-02   2.6795E-02   3.8510E-04  0.0286
   2.6795E-02   2.7447E-02   3.6353E-04  0.0290
   2.7447E-02   2.8114E-02   3.5924E-04  0.0289
   2.8114E-02   2.8799E-02   3.4296E-04  0.0292
   2.8799E-02   2.9499E-02   3.1826E-04  0.0299
   2.9499E-02   3.0217E-02   3.3494E-04  0.0288
   3.0217E-02   3.0952E-02   3.1651E-04  0.0293
   3.0952E-02   3.1705E-02   2.9266E-04  0.0301
   3.1705E-02   3.2477E-02   2.8856E-04  0.0300
   3.2477E-02   3.3267E-02   2.7854E-04  0.0301
   3.3267E-02   3.4076E-02   2.7773E-04  0.0298
   3.4076E-02   3.4905E-02   2.6342E-04  0.0303
   3.4905E-02   3.5755E-02   2.6497E-04  0.0298
   3.5755E-02   3.6625E-02   2.4737E-04  0.0305
   3.6625E-02   3.7516E-02   2.4307E-04  0.0304
   3.7516E-02   3.8428E-02   2.2886E-04  0.0309
   3.8428E-02   3.9363E-02   2.3872E-04  0.0299
   3.9363E-02   4.0321E-02   2.2376E-04  0.0305
   4.0321E-02   4.1302E-02   2.1722E-04  0.0306
   4.1302E-02   4.2307E-02   2.1206E-04  0.0306
   4.2307E-02   4.3337E-02   1.9274E-04  0.0318
   4.3337E-02   4.4391E-02   1.9935E-04  0.0308
   4.4391E-02   4.5471E-02   1.8869E-04  0.0313
   4.5471E-02   4.6577E-02   1.8150E-04  0.0316
   4.6577E-02   4.7711E-02   1.6730E-04  0.0325
   4.7711E-02   4.8871E-02   1.6678E-04  0.0321
   4.8871E-02   5.0061E-02   1.6450E-04  0.0320
   5.0061E-02   5.1279E-02   1.6765E-04  0.0313
   5.1279E-02   5.2526E-02   1.5229E-04  0.0324
   5.2526E-02   5.3804E-02   1.4491E-04  0.0329
   5.3804E-02   5.5113E-02   1.5079E-04  0.0318
   5.5113E-02   5.6454E-02   1.4467E-04  0.0321
   5.6454E-02   5.7828E-02   1.3236E-04  0.0331
   5.7828E-02   5.9235E-02   1.2836E-04  0.0333
   5.9235E-02   6.0676E-02   1.3239E-04  0.0324
   6.0676E-02   6.2152E-02   1.2091E-04  0.0335
   6.2152E-02   6.3665E-02   1.3179E-04  0.0317
   6.3665E-02   6.5214E-02   1.1853E-04  0.0330
   6.5214E-02   6.6800E-02   1.1584E-04  0.0330
   6.6800E-02   6.8426E-02   1.1179E-04  0.0332
   6.8426E-02   7.0090E-02   1.0608E-04  0.0336
   7.0090E-02   7.1796E-02   1.0297E-04  0.0337
   7.1796E-02   7.3543E-02   9.6574E-05  0.0344
   7.3543E-02   7.5332E-02   9.4224E-05  0.0344
   7.5332E-02   7.7165E-02   9.8206E-05  0.0333
   7.7165E-02   7.9042E-02   9.1506E-05  0.0341
   7.9042E-02   8.0965E-02   8.3716E-05  0.0352
   8.0965E-02   8.2935E-02   8.6398E-05  0.0343
   8.2935E-02   8.4953E-02   8.2017E-05  0.0348
   8.4953E-02   8.7020E-02   8.0794E-05  0.0346
   8.7020E-02   8.9138E-02   7.7175E-05  0.0350
   8.9138E-02   9.1306E-02   7.7785E-05  0.0344
   9.1306E-02   9.3528E-02   7.3957E-05  0.0349
   9.3528E-02   9.5804E-02   7.3826E-05  0.0345
   9.5804E-02   9.8134E-02   7.1858E-05  0.0345
   9.8134E-02   1.0052E-01   6.5419E-05  0.0358
   1.0052E-01   1.0297E-01   6.2679E-05  0.0361
   1.0297E-01   1.0547E-01   6.0672E-05  0.0363
   1.0547E-01   1.0804E-01   6.1257E-05  0.0357
   1.0804E-01   1.1067E-01   5.9764E-05  0.0357
   1.1067E-01   1.1336E-01   5.7081E-05  0.0361
   1.1336E-01   1.1612E-01   5.3877E-05  0.0367
   1.1612E-01   1.1894E-01   5.4402E-05  0.0361
   1.1894E-01   1.2184E-01   5.4526E-05  0.0356
   1.2184E-01   1.2480E-01   5.4311E-05  0.0352
   1.2480E-01   1.2784E-01   4.8344E-05  0.0369
   1.2784E-01   1.3095E-01   4.8161E-05  0.0365
   1.3095E-01   1.3414E-01   4.5259E-05  0.0372
   1.3414E-01   1.3740E-01   4.3326E-05  0.0376
   1.3740E-01   1.4074E-01   4.2058E-05  0.0377
   1.4074E-01   1.4417E-01   4.2752E-05  0.0370
   1.4417E-01   1.4767E-01   4.0568E-05  0.0375
   1.4767E-01   1.5127E-01   3.8575E-05  0.0380
   1.5127E-01   1.5495E-01   3.9343E-05  0.0372
   1.5495E-01   1.5872E-01   3.8302E-05  0.0372
   1.5872E-01   1.6258E-01   3.5424E-05  0.0382
   1.6258E-01   1.6654E-01   3.6707E-05  0.0371
   1.6654E-01   1.7059E-01   3.5464E-05  0.0373
   1.7059E-01   1.7474E-01   3.3490E-05  0.0379
   1.7474E-01   1.7899E-01   3.4011E-05  0.0372
   1.7899E-01   1.8334E-01   3.2515E-05  0.0376
   1.8334E-01   1.8781E-01   2.9725E-05  0.0388
   1.8781E-01   1.9237E-01   2.8100E-05  0.0395
   1.9237E-01   1.9706E-01   3.1897E-05  0.0366
   1.9706E-01   2.0185E-01   2.7073E-05  0.0393
   2.0185E-01   2.0676E-01   2.7183E-05  0.0387
   2.0676E-01   2.1179E-01   2.5822E-05  0.0392
   2.1179E-01   2.1694E-01   2.5480E-05  0.0390
   2.1694E-01   2.2222E-01   2.5083E-05  0.0389
   2.2222E-01   2.2763E-01   2.5079E-05  0.0384
   2.2763E-01   2.3317E-01   2.3906E-05  0.0389
   2.3317E-01   2.3884E-01   2.4783E-05  0.0377
   2.3884E-01   2.4465E-01   2.2577E-05  0.0390
   2.4465E-01   2.5061E-01   2.1268E-05  0.0397
   2.5061E-01   2.5670E-01   1.9713E-05  0.0408
   2.5670E-01   2.6295E-01   2.1198E-05  0.0389
   2.6295E-01   2.6935E-01   2.0101E-05  0.0394
   2.6935E-01   2.7590E-01   1.9837E-05  0.0392
   2.7590E-01   2.8261E-01   1.8308E-05  0.0403
   2.8261E-01   2.8949E-01   1.8426E-05  0.0397
   2.8949E-01   2.9653E-01   1.7605E-05  0.0402
   2.9653E-01   3.0375E-01   1.7755E-05  0.0395
   3.0375E-01   3.1114E-01   1.7969E-05  0.0388
   3.1114E-01   3.1871E-01   1.6882E-05  0.0396
   3.1871E-01   3.2646E-01   1.6494E-05  0.0395
   3.2646E-01   3.3441E-01   1.7248E-05  0.0382
   3.3441E-01   3.4254E-01   1.5842E-05  0.0394
   3.4254E-01   3.5088E-01   1.5202E-05  0.0397
   3.5088E-01   3.5941E-01   1.5099E-05  0.0394
   3.5941E-01   3.6816E-01   1.4797E-05  0.0393
   3.6816E-01   3.7712E-01   1.4055E-05  0.0398
   3.7712E-01   3.8629E-01   1.2839E-05  0.0412
   3.8629E-01   3.9569E-01   1.3959E-05  0.0390
   3.9569E-01   4.0532E-01   1.2070E-05  0.0415
   4.0532E-01   4.1518E-01   1.3010E-05  0.0395
   4.1518E-01   4.2528E-01   1.2394E-05  0.0399
   4.2528E-01   4.3563E-01   1.1955E-05  0.0402
   4.3563E-01   4.4623E-01   1.1680E-05  0.0402
   4.4623E-01   4.5708E-01   1.0915E-05  0.0411
   4.5708E-01   4.6821E-01   1.0772E-05  0.0408
   4.6821E-01   4.7960E-01   1.1087E-05  0.0398
   4.7960E-01   4.9127E-01   1.0832E-05  0.0398
   4.9127E-01   5.0322E-01   1.0023E-05  0.0409
   5.0322E-01   5.1546E-01   9.6294E-06  0.0412
   5.1546E-01   5.2800E-01   1.0047E-05  0.0398
   5.2800E-01   5.4085E-01   1.0298E-05  0.0389
   5.4085E-01   5.5401E-01   9.2178E-06  0.0406
   5.5401E-01   5.6749E-01   8.7318E-06  0.0412
   5.6749E-01   5.8130E-01   8.3795E-06  0.0416
   5.8130E-01   5.9544E-01   8.3148E-06  0.0412
   5.9544E-01   6.0993E-01   8.1449E-06  0.0412
   6.0993E-01   6.2477E-01   9.2183E-06  0.0382
   6.2477E-01   6.3997E-01   8.1968E-06  0.0401
   6.3997E-01   6.5554E-01   8.1562E-06  0.0397
   6.5554E-01   6.7149E-01   7.8120E-06  0.0400
   6.7149E-01   6.8783E-01   6.8307E-06  0.0423
   6.8783E-01   7.0456E-01   6.6446E-06  0.0424
   7.0456E-01   7.2171E-01   6.6559E-06  0.0419
   7.2171E-01   7.3927E-01   6.9306E-06  0.0405
   7.3927E-01   7.5725E-01   6.4046E-06  0.0417
   7.5725E-01   7.7568E-01   6.0463E-06  0.0423
   7.7568E-01   7.9455E-01   6.2842E-06  0.0410
   7.9455E-01   8.1388E-01   5.8763E-06  0.0420
   8.1388E-01   8.3368E-01   6.0902E-06  0.0407
   8.3368E-01   8.5397E-01   5.6004E-06  0.0420
   8.5397E-01   8.7475E-01   5.5877E-06  0.0415
   8.7475E-01   8.9603E-01   5.3046E-06  0.0421
   8.9603E-01   9.1783E-01   5.0502E-06  0.0426
   9.1783E-01   9.4016E-01   5.0914E-06  0.0419
   9.4016E-01   9.6304E-01   5.2284E-06  0.0409
   9.6304E-01   9.8647E-01   4.9421E-06  0.0416
   9.8647E-01   1.0105E+00   4.6789E-06  0.0422
   1.0105E+00   1.0351E+00   5.1453E-06  0.0398
   1.0351E+00   1.0602E+00   5.1779E-06  0.0391
   1.0602E+00   1.0860E+00   5.3573E-06  0.0380
   1.0860E+00   1.1125E+00   5.8583E-06  0.0359
   1.1125E+00   1.1395E+00   6.0701E-06  0.0349
   1.1395E+00   1.1673E+00   6.4525E-06  0.0334
   1.1673E+00   1.1957E+00   6.6021E-06  0.0327
   1.1957E+00   1.2247E+00   6.6034E-06  0.0323
   1.2247E+00   1.2545E+00   7.4231E-06  0.0301
   1.2545E+00   1.2851E+00   7.5219E-06  0.0295
   1.2851E+00   1.3163E+00   7.7654E-06  0.0287
   1.3163E+00   1.3484E+00   8.4865E-06  0.0271
   1.3484E+00   1.3812E+00   9.1536E-06  0.0258
   1.3812E+00   1.4148E+00   9.2873E-06  0.0253
   1.4148E+00   1.4492E+00   9.6710E-06  0.0245
   1.4492E+00   1.4845E+00   1.0139E-05  0.0236
   1.4845E+00   1.5206E+00   1.0239E-05  0.0233
   1.5206E+00   1.5576E+00   1.0793E-05  0.0224
   1.5576E+00   1.5955E+00   1.1162E-05  0.0217
   1.5955E+00   1.6343E+00   1.1966E-05  0.0207
   1.6343E+00   1.6741E+00   1.2605E-05  0.0200
   1.6741E+00   1.7148E+00   1.3655E-05  0.0190
   1.7148E+00   1.7565E+00   1.3868E-05  0.0186
   1.7565E+00   1.7992E+00   1.3712E-05  0.0185
   1.7992E+00   1.8430E+00   1.4784E-05  0.0176
   1.8430E+00   1.8879E+00   1.4683E-05  0.0174
   1.8879E+00   1.9338E+00   1.5533E-05  0.0167
   1.9338E+00   1.9808E+00   1.6100E-05  0.0163
   1.9808E+00   2.0290E+00   1.6163E-05  0.0160
   2.0290E+00   2.0784E+00   1.6468E-05  0.0157
   2.0784E+00   2.1290E+00   1.6785E-05  0.0153
   2.1290E+00   2.1808E+00   1.7629E-05  0.0148
   2.1808E+00   2.2338E+00   1.7495E-05  0.0147
   2.2338E+00   2.2882E+00   1.8272E-05  0.0142
   2.2882E+00   2.3439E+00   1.8614E-05  0.0139
   2.3439E+00   2.4009E+00   1.9527E-05  0.0134
   2.4009E+00   2.4593E+00   1.9173E-05  0.0134
   2.4593E+00   2.5191E+00   1.9580E-05  0.0131
   2.5191E+00   2.5804E+00   1.9657E-05  0.0129
   2.5804E+00   2.6432E+00   1.9650E-05  0.0127
   2.6432E+00   2.7075E+00   1.9710E-05  0.0126
   2.7075E+00   2.7734E+00   2.0164E-05  0.0123
   2.7734E+00   2.8409E+00   1.9937E-05  0.0122
   2.8409E+00   2.9100E+00   2.0635E-05  0.0118
   2.9100E+00   2.9808E+00   2.0851E-05  0.0116
   2.9808E+00   3.0533E+00   2.0369E-05  0.0116
   3.0533E+00   3.1276E+00   2.0520E-05  0.0115
   3.1276E+00   3.2037E+00   1.9953E-05  0.0115
   3.2037E+00   3.2817E+00   1.9697E-05  0.0114
   3.2817E+00   3.3615E+00   1.9436E-05  0.0114
   3.3615E+00   3.4433E+00   1.9137E-05  0.0113
   3.4433E+00   3.5271E+00   1.9227E-05  0.0111
   3.5271E+00   3.6129E+00   1.9667E-05  0.0109
   3.6129E+00   3.7008E+00   1.9385E-05  0.0108
   3.7008E+00   3.7908E+00   1.9082E-05  0.0108
   3.7908E+00   3.8831E+00   1.8688E-05  0.0108
   3.8831E+00   3.9776E+00   1.8887E-05  0.0106
   3.9776E+00   4.0743E+00   1.8264E-05  0.0106
   4.0743E+00   4.1735E+00   1.7824E-05  0.0106
   4.1735E+00   4.2750E+00   1.7623E-05  0.0106
   4.2750E+00   4.3790E+00   1.6983E-05  0.0106
   4.3790E+00   4.4856E+00   1.6720E-05  0.0106
   4.4856E+00   4.5947E+00   1.6537E-05  0.0105
   4.5947E+00   4.7065E+00   1.6159E-05  0.0105
   4.7065E+00   4.8210E+00   1.6540E-05  0.0103
   4.8210E+00   4.9383E+00   1.6616E-05  0.0101
   4.9383E+00   5.0585E+00   1.6291E-05  0.0101
   5.0585E+00   5.1815E+00   1.5884E-05  0.0101
   5.1815E+00   5.3076E+00   1.5542E-05  0.0101
   5.3076E+00   5.4368E+00   1.5449E-05  0.0100
   5.4368E+00   5.5690E+00   1.5074E-05  0.0100
   5.5690E+00   5.7045E+00   1.5032E-05  0.0099
   5.7045E+00   5.8433E+00   1.5160E-05  0.0097
   5.8433E+00   5.9855E+00   1.5105E-05  0.0097
   5.9855E+00   6.1311E+00   1.5297E-05  0.0095
   6.1311E+00   6.2803E+00   1.5422E-05  0.0093
   6.2803E+00   6.4331E+00   1.5094E-05  0.0093
   6.4331E+00   6.5896E+00   1.5038E-05  0.0092
   6.5896E+00   6.7500E+00   1.5091E-05  0.0091
   6.7500E+00   6.9142E+00   1.5534E-05  0.0089
   6.9142E+00   7.0824E+00   1.5177E-05  0.0088
   7.0824E+00   7.2548E+00   1.5295E-05  0.0087
   7.2548E+00   7.4313E+00   1.5031E-05  0.0087
   7.4313E+00   7.6121E+00   1.5347E-05  0.0085
   7.6121E+00   7.7973E+00   1.5160E-05  0.0084
   7.7973E+00   7.9870E+00   1.5467E-05  0.0083
   7.9870E+00   8.1813E+00   1.5479E-05  0.0081
   8.1813E+00   8.3804E+00   1.5666E-05  0.0080
   8.3804E+00   8.5843E+00   1.5587E-05  0.0079
   8.5843E+00   8.7931E+00   1.5550E-05  0.0078
   8.7931E+00   9.0071E+00   1.5266E-05  0.0078
   9.0071E+00   9.2262E+00   1.5699E-05  0.0076
   9.2262E+00   9.4507E+00   1.5158E-05  0.0077
   9.4507E+00   9.6807E+00   1.5269E-05  0.0075
   9.6807E+00   9.9162E+00   1.5181E-05  0.0075
   9.9162E+00   1.0157E+01   1.5331E-05  0.0073
   1.0157E+01   1.0405E+01   1.5006E-05  0.0073
   1.0405E+01   1.0658E+01   1.4764E-05  0.0073
   1.0658E+01   1.0917E+01   1.4607E-05  0.0073
   1.0917E+01   1.1183E+01   1.4547E-05  0.0072
   1.1183E+01   1.1455E+01   1.4265E-05  0.0072
   1.1455E+01   1.1733E+01   1.3880E-05  0.0072
   1.1733E+01   1.2019E+01   1.3534E-05  0.0072
   1.2019E+01   1.2311E+01   1.3537E-05  0.0071
   1.2311E+01   1.2611E+01   1.2972E-05  0.0072
   1.2611E+01   1.2918E+01   1.2504E-05  0.0072
   1.2918E+01   1.3232E+01   1.2372E-05  0.0072
   1.3232E+01   1.3554E+01   1.1948E-05  0.0072
   1.3554E+01   1.3884E+01   1.1452E-05  0.0073
   1.3884E+01   1.4222E+01   1.1124E-05  0.0073
   1.4222E+01   1.4568E+01   1.0782E-05  0.0073
   1.4568E+01   1.4922E+01   1.0329E-05  0.0074
   1.4922E+01   1.5285E+01   9.7654E-06  0.0075
   1.5285E+01   1.5657E+01   9.5090E-06  0.0075
   1.5657E+01   1.6038E+01   8.8981E-06  0.0077
   1.6038E+01   1.6428E+01   8.5137E-06  0.0077
   1.6428E+01   1.6828E+01   8.0360E-06  0.0079
   1.6828E+01   1.7237E+01   7.5049E-06  0.0081
   1.7237E+01   1.7657E+01   7.1467E-06  0.0082
   1.7657E+01   1.8086E+01   6.7611E-06  0.0083
   1.8086E+01   1.8526E+01   6.3437E-06  0.0085
   1.8526E+01   1.8977E+01   5.8749E-06  0.0087
   1.8977E+01   1.9439E+01   5.3419E-06  0.0090
   1.9439E+01   1.9912E+01   4.9386E-06  0.0092
   1.9912E+01   2.0396E+01   3.1310E-06  0.0115
   2.0396E+01   2.0893E+01   3.0750E-06  0.0114
   2.0893E+01   2.1401E+01   2.8033E-06  0.0118
   2.1401E+01   2.1922E+01   2.6073E-06  0.0121
   2.1922E+01   2.2455E+01   2.3110E-06  0.0127
   2.2455E+01   2.3001E+01   2.1880E-06  0.0129
   2.3001E+01   2.3561E+01   1.9219E-06  0.0136
   2.3561E+01   2.4134E+01   1.7741E-06  0.0140
   2.4134E+01   2.4721E+01   1.6049E-06  0.0146
   2.4721E+01   2.5323E+01   1.3506E-06  0.0157
   2.5323E+01   2.5939E+01   1.1991E-06  0.0165
   2.5939E+01   2.6570E+01   1.0287E-06  0.0176
   2.6570E+01   2.7217E+01   9.0212E-07  0.0185
   2.7217E+01   2.7879E+01   7.4358E-07  0.0202
   2.7879E+01   2.8557E+01   6.2125E-07  0.0218
   2.8557E+01   2.9252E+01   5.1409E-07  0.0237
   2.9252E+01   2.9964E+01   3.9088E-07  0.0268
   2.9964E+01   3.0693E+01   3.0835E-07  0.0298
   3.0693E+01   3.1440E+01   2.3514E-07  0.0337
   3.1440E+01   3.2205E+01   1.6027E-07  0.0404
   3.2205E+01   3.2988E+01   1.0618E-07  0.0490
   3.2988E+01   3.3791E+01   6.3541E-08  0.0626
   3.3791E+01   3.4613E+01   3.2354E-08  0.0867
   3.4613E+01   3.5455E+01   9.0244E-09  0.1622
   3.5455E+01   3.6318E+01   2.3184E-10  1.0000
   3.6318E+01   3.7201E+01   0.0000E+00  0.0000
   3.7201E+01   3.8106E+01   0.0000E+00  0.0000
   3.8106E+01   3.9034E+01   0.0000E+00  0.0000
   3.9034E+01   3.9983E+01   0.0000E+00  0.0000
   3.9983E+01   4.0956E+01   0.0000E+00  0.0000
   4.0956E+01   4.1953E+01   0.0000E+00  0.0000
   4.1953E+01   4.2973E+01   0.0000E+00  0.0000
   4.2973E+01   4.4019E+01   0.0000E+00  0.0000
   4.4019E+01   4.5090E+01   0.0000E+00  0.0000
   4.5090E+01   4.6187E+01   0.0000E+00  0.0000
   4.6187E+01   4.7311E+01   0.0000E+00  0.0000
   4.7311E+01   4.8462E+01   0.0000E+00  0.0000
   4.8462E+01   4.9641E+01   0.0000E+00  0.0000
   4.9641E+01   5.0849E+01   0.0000E+00  0.0000
   5.0849E+01   5.2086E+01   0.0000E+00  0.0000
   5.2086E+01   5.3353E+01   0.0000E+00  0.0000
   5.3353E+01   5.4651E+01   0.0000E+00  0.0000
   5.4651E+01   5.5981E+01   0.0000E+00  0.0000
   5.5981E+01   5.7343E+01   0.0000E+00  0.0000
   5.7343E+01   5.8738E+01   0.0000E+00  0.0000
   5.8738E+01   6.0168E+01   0.0000E+00  0.0000
   6.0168E+01   6.1632E+01   0.0000E+00  0.0000
   6.1632E+01   6.3131E+01   0.0000E+00  0.0000
   6.3131E+01   6.4667E+01   0.0000E+00  0.0000
   6.4667E+01   6.6240E+01   0.0000E+00  0.0000
   6.6240E+01   6.7852E+01   0.0000E+00  0.0000
   6.7852E+01   6.9503E+01   0.0000E+00  0.0000
   6.9503E+01   7.1194E+01   0.0000E+00  0.0000
   7.1194E+01   7.2926E+01   0.0000E+00  0.0000
   7.2926E+01   7.4701E+01   0.0000E+00  0.0000
   7.4701E+01   7.6518E+01   0.0000E+00  0.0000
   7.6518E+01   7.8380E+01   0.0000E+00  0.0000
   7.8380E+01   8.0287E+01   0.0000E+00  0.0000
   8.0287E+01   8.2240E+01   0.0000E+00  0.0000
   8.2240E+01   8.4241E+01   0.0000E+00  0.0000
   8.4241E+01   8.6291E+01   0.0000E+00  0.0000
   8.6291E+01   8.8391E+01   0.0000E+00  0.0000
   8.8391E+01   9.0541E+01   0.0000E+00  0.0000
   9.0541E+01   9.2744E+01   0.0000E+00  0.0000
   9.2744E+01   9.5001E+01   0.0000E+00  0.0000
   9.5001E+01   9.7312E+01   0.0000E+00  0.0000
   9.7312E+01   9.9680E+01   0.0000E+00  0.0000
   9.9680E+01   1.0211E+02   0.0000E+00  0.0000
   1.0211E+02   1.0459E+02   0.0000E+00  0.0000
   1.0459E+02   1.0713E+02   0.0000E+00  0.0000
   1.0713E+02   1.0974E+02   0.0000E+00  0.0000
   1.0974E+02   1.1241E+02   0.0000E+00  0.0000
   1.1241E+02   1.1515E+02   0.0000E+00  0.0000
   1.1515E+02   1.1795E+02   0.0000E+00  0.0000
   1.1795E+02   1.2082E+02   0.0000E+00  0.0000
   1.2082E+02   1.2376E+02   0.0000E+00  0.0000
   1.2376E+02   1.2677E+02   0.0000E+00  0.0000
   1.2677E+02   1.2985E+02   0.0000E+00  0.0000
   1.2985E+02   1.3301E+02   0.0000E+00  0.0000
   1.3301E+02   1.3625E+02   0.0000E+00  0.0000
   1.3625E+02   1.3956E+02   0.0000E+00  0.0000
   1.3956E+02   1.4296E+02   0.0000E+00  0.0000
   1.4296E+02   1.4644E+02   0.0000E+00  0.0000
   1.4644E+02   1.5000E+02   0.0000E+00  0.0000

#   sum over                 1.9537E-06
'no. =    1   reg = 111 - 211'
msuc: {\huge [t-cross] in region mesh}
msdr: {\it plotted by \ANGEL \version}
msdl: {\it calculated by \PHITS  3.26}
wt: s(0.7)
\vspace{-3}
  region surface crossing
  area  &=&   1.0000E+00 [cm^2]
e:
 
# Information for Restart Calculation
# This calculation was newly started
# istdev =  2 # 1:Batch variance, 2:History variance
# resc2  = 5.00000000000000000E+09 # Total source weight or Total source weight / maxcas
# resc3  = 5.00000000000000000E+09 # Total history number or Total batch number
# maxcas =   100000000 # History / Batch, only used for istdev=1
# bitrseed = 0110100000100010111000001110001111001110100100011111101000111001 # bit data of rseed
