[ T-Cross ]
    title = [t-cross] in region mesh
     mesh =  reg            # mesh type is region-wise
      reg =    1            # number of crossing regions
      non     r-from    r-to       area
      1       115       215        1.000000    
   e-type =    3            # e-mesh is log given by emin, emax and ne
     emin =  1.0000000E-02  # minimum value of e-mesh points
     emax =   150.0000      # maximum value of e-mesh points
#    edel =  2.4039514E-02  # mesh width of e-mesh points
       ne =    400          # number of e-mesh points
#    data = ( e(i), i = 1, ne + 1 )
#           1.00000E-02  1.02433E-02  1.04925E-02  1.07478E-02  1.10093E-02
#           1.12772E-02  1.15516E-02  1.18326E-02  1.21205E-02  1.24154E-02
#           1.27175E-02  1.30269E-02  1.33439E-02  1.36686E-02  1.40011E-02
#           1.43418E-02  1.46907E-02  1.50482E-02  1.54143E-02  1.57894E-02
#           1.61735E-02  1.65670E-02  1.69701E-02  1.73830E-02  1.78060E-02
#           1.82392E-02  1.86830E-02  1.91375E-02  1.96032E-02  2.00801E-02
#           2.05687E-02  2.10692E-02  2.15818E-02  2.21069E-02  2.26448E-02
#           2.31957E-02  2.37601E-02  2.43382E-02  2.49304E-02  2.55369E-02
#           2.61583E-02  2.67947E-02  2.74467E-02  2.81145E-02  2.87985E-02
#           2.94992E-02  3.02169E-02  3.09521E-02  3.17052E-02  3.24766E-02
#           3.32668E-02  3.40762E-02  3.49053E-02  3.57546E-02  3.66246E-02
#           3.75157E-02  3.84284E-02  3.93634E-02  4.03212E-02  4.13022E-02
#           4.23071E-02  4.33365E-02  4.43909E-02  4.54710E-02  4.65773E-02
#           4.77106E-02  4.88714E-02  5.00605E-02  5.12785E-02  5.25262E-02
#           5.38042E-02  5.51133E-02  5.64542E-02  5.78278E-02  5.92348E-02
#           6.06760E-02  6.21523E-02  6.36645E-02  6.52135E-02  6.68002E-02
#           6.84255E-02  7.00904E-02  7.17957E-02  7.35426E-02  7.53319E-02
#           7.71648E-02  7.90423E-02  8.09655E-02  8.29354E-02  8.49533E-02
#           8.70203E-02  8.91376E-02  9.13064E-02  9.35279E-02  9.58035E-02
#           9.81345E-02  1.00522E-01  1.02968E-01  1.05473E-01  1.08040E-01
#           1.10668E-01  1.13361E-01  1.16119E-01  1.18944E-01  1.21838E-01
#           1.24803E-01  1.27839E-01  1.30950E-01  1.34136E-01  1.37399E-01
#           1.40742E-01  1.44167E-01  1.47675E-01  1.51268E-01  1.54948E-01
#           1.58718E-01  1.62580E-01  1.66535E-01  1.70587E-01  1.74738E-01
#           1.78989E-01  1.83344E-01  1.87805E-01  1.92375E-01  1.97055E-01
#           2.01850E-01  2.06761E-01  2.11792E-01  2.16945E-01  2.22223E-01
#           2.27630E-01  2.33169E-01  2.38842E-01  2.44653E-01  2.50605E-01
#           2.56703E-01  2.62949E-01  2.69346E-01  2.75900E-01  2.82613E-01
#           2.89489E-01  2.96532E-01  3.03747E-01  3.11138E-01  3.18708E-01
#           3.26462E-01  3.34405E-01  3.42542E-01  3.50876E-01  3.59413E-01
#           3.68158E-01  3.77116E-01  3.86291E-01  3.95690E-01  4.05317E-01
#           4.15179E-01  4.25281E-01  4.35628E-01  4.46227E-01  4.57084E-01
#           4.68205E-01  4.79597E-01  4.91266E-01  5.03219E-01  5.15463E-01
#           5.28005E-01  5.40851E-01  5.54011E-01  5.67490E-01  5.81298E-01
#           5.95441E-01  6.09929E-01  6.24769E-01  6.39970E-01  6.55541E-01
#           6.71491E-01  6.87828E-01  7.04564E-01  7.21706E-01  7.39266E-01
#           7.57253E-01  7.75678E-01  7.94551E-01  8.13883E-01  8.33685E-01
#           8.53969E-01  8.74747E-01  8.96030E-01  9.17831E-01  9.40163E-01
#           9.63038E-01  9.86469E-01  1.01047E+00  1.03506E+00  1.06024E+00
#           1.08604E+00  1.11246E+00  1.13953E+00  1.16725E+00  1.19565E+00
#           1.22474E+00  1.25454E+00  1.28507E+00  1.31633E+00  1.34836E+00
#           1.38117E+00  1.41477E+00  1.44920E+00  1.48446E+00  1.52057E+00
#           1.55757E+00  1.59547E+00  1.63429E+00  1.67405E+00  1.71478E+00
#           1.75650E+00  1.79924E+00  1.84302E+00  1.88786E+00  1.93379E+00
#           1.98084E+00  2.02904E+00  2.07841E+00  2.12898E+00  2.18078E+00
#           2.23384E+00  2.28819E+00  2.34386E+00  2.40089E+00  2.45930E+00
#           2.51914E+00  2.58043E+00  2.64322E+00  2.70753E+00  2.77341E+00
#           2.84088E+00  2.91001E+00  2.98081E+00  3.05333E+00  3.12762E+00
#           3.20372E+00  3.28167E+00  3.36152E+00  3.44330E+00  3.52708E+00
#           3.61290E+00  3.70080E+00  3.79085E+00  3.88308E+00  3.97756E+00
#           4.07434E+00  4.17347E+00  4.27501E+00  4.37903E+00  4.48557E+00
#           4.59471E+00  4.70650E+00  4.82102E+00  4.93832E+00  5.05847E+00
#           5.18155E+00  5.30762E+00  5.43676E+00  5.56904E+00  5.70453E+00
#           5.84333E+00  5.98550E+00  6.13114E+00  6.28031E+00  6.43312E+00
#           6.58964E+00  6.74997E+00  6.91420E+00  7.08243E+00  7.25475E+00
#           7.43126E+00  7.61207E+00  7.79728E+00  7.98700E+00  8.18133E+00
#           8.38038E+00  8.58428E+00  8.79315E+00  9.00709E+00  9.22624E+00
#           9.45072E+00  9.68067E+00  9.91620E+00  1.01575E+01  1.04046E+01
#           1.06578E+01  1.09171E+01  1.11827E+01  1.14548E+01  1.17335E+01
#           1.20190E+01  1.23114E+01  1.26109E+01  1.29178E+01  1.32321E+01
#           1.35540E+01  1.38838E+01  1.42216E+01  1.45676E+01  1.49221E+01
#           1.52851E+01  1.56570E+01  1.60380E+01  1.64282E+01  1.68279E+01
#           1.72374E+01  1.76568E+01  1.80864E+01  1.85264E+01  1.89772E+01
#           1.94389E+01  1.99119E+01  2.03963E+01  2.08926E+01  2.14009E+01
#           2.19216E+01  2.24550E+01  2.30014E+01  2.35610E+01  2.41343E+01
#           2.47215E+01  2.53230E+01  2.59391E+01  2.65702E+01  2.72167E+01
#           2.78789E+01  2.85572E+01  2.92520E+01  2.99637E+01  3.06928E+01
#           3.14396E+01  3.22045E+01  3.29881E+01  3.37907E+01  3.46128E+01
#           3.54550E+01  3.63177E+01  3.72013E+01  3.81064E+01  3.90336E+01
#           3.99833E+01  4.09561E+01  4.19526E+01  4.29734E+01  4.40189E+01
#           4.50900E+01  4.61870E+01  4.73108E+01  4.84619E+01  4.96410E+01
#           5.08488E+01  5.20860E+01  5.33533E+01  5.46514E+01  5.59812E+01
#           5.73432E+01  5.87384E+01  6.01676E+01  6.16315E+01  6.31311E+01
#           6.46671E+01  6.62405E+01  6.78522E+01  6.95031E+01  7.11941E+01
#           7.29263E+01  7.47007E+01  7.65182E+01  7.83800E+01  8.02870E+01
#           8.22405E+01  8.42414E+01  8.62911E+01  8.83906E+01  9.05412E+01
#           9.27442E+01  9.50007E+01  9.73122E+01  9.96799E+01  1.02105E+02
#           1.04589E+02  1.07134E+02  1.09741E+02  1.12411E+02  1.15146E+02
#           1.17948E+02  1.20817E+02  1.23757E+02  1.26768E+02  1.29852E+02
#           1.33012E+02  1.36248E+02  1.39563E+02  1.42959E+02  1.46437E+02
#           1.50000E+02
     unit =    2            # unit is [1/cm^2/(MeV/n)/source]
     axis =  eng            # axis of output
     file = detector-16.out  # file name of output for the above axis
   output = f-curr          # surface crossing forward current spectrum
     part =  neutron  
# kf/name :  2112     
#    used :        main (  %)        temp (  %)       total (  %)
#  memory :         414 (  0)           0 (  0)         414 (  0)

#------------------------------------------------------------------------------
#newpage:
#   no. =    1   reg = 115 - 215

x: Energy [MeV/n]
y:  F-Curr [1/cm^2/(MeV/n)/source]         
p: xlog ylog afac(0.8) form(0.9)
h: n            x            y(neutron ),hh0l   n 
#  e-lower      e-upper      neutron     r.err 
   1.0000E-02   1.0243E-02   1.1613E-04  0.0840
   1.0243E-02   1.0493E-02   1.0424E-04  0.0876
   1.0493E-02   1.0748E-02   1.0700E-04  0.0854
   1.0748E-02   1.1009E-02   1.0936E-04  0.0834
   1.1009E-02   1.1277E-02   1.1683E-04  0.0798
   1.1277E-02   1.1552E-02   1.1839E-04  0.0783
   1.1552E-02   1.1833E-02   1.0432E-04  0.0824
   1.1833E-02   1.2121E-02   9.5420E-05  0.0851
   1.2121E-02   1.2415E-02   1.1221E-04  0.0776
   1.2415E-02   1.2718E-02   9.0475E-05  0.0854
   1.2718E-02   1.3027E-02   9.7793E-05  0.0810
   1.3027E-02   1.3344E-02   9.8762E-05  0.0797
   1.3344E-02   1.3669E-02   1.0948E-04  0.0749
   1.3669E-02   1.4001E-02   1.1548E-04  0.0719
   1.4001E-02   1.4342E-02   8.7166E-05  0.0819
   1.4342E-02   1.4691E-02   9.7408E-05  0.0765
   1.4691E-02   1.5048E-02   8.6678E-05  0.0800
   1.5048E-02   1.5414E-02   7.6372E-05  0.0845
   1.5414E-02   1.5789E-02   9.0698E-05  0.0765
   1.5789E-02   1.6174E-02   9.1452E-05  0.0752
   1.6174E-02   1.6567E-02   9.0545E-05  0.0748
   1.6567E-02   1.6970E-02   8.2132E-05  0.0776
   1.6970E-02   1.7383E-02   8.6937E-05  0.0744
   1.7383E-02   1.7806E-02   7.3107E-05  0.0803
   1.7806E-02   1.8239E-02   7.8197E-05  0.0767
   1.8239E-02   1.8683E-02   8.1305E-05  0.0743
   1.8683E-02   1.9138E-02   7.6442E-05  0.0758
   1.9138E-02   1.9603E-02   7.7641E-05  0.0742
   1.9603E-02   2.0080E-02   7.1344E-05  0.0765
   2.0080E-02   2.0569E-02   7.7265E-05  0.0725
   2.0569E-02   2.1069E-02   7.0087E-05  0.0753
   2.1069E-02   2.1582E-02   7.1542E-05  0.0737
   2.1582E-02   2.2107E-02   7.2285E-05  0.0725
   2.2107E-02   2.2645E-02   7.0932E-05  0.0722
   2.2645E-02   2.3196E-02   7.2760E-05  0.0704
   2.3196E-02   2.3760E-02   6.5221E-05  0.0736
   2.3760E-02   2.4338E-02   6.4060E-05  0.0733
   2.4338E-02   2.4930E-02   5.3375E-05  0.0793
   2.4930E-02   2.5537E-02   5.3885E-05  0.0779
   2.5537E-02   2.6158E-02   6.1760E-05  0.0721
   2.6158E-02   2.6795E-02   6.9846E-05  0.0670
   2.6795E-02   2.7447E-02   5.3721E-05  0.0754
   2.7447E-02   2.8114E-02   6.3941E-05  0.0684
   2.8114E-02   2.8799E-02   5.7356E-05  0.0713
   2.8799E-02   2.9499E-02   5.6086E-05  0.0713
   2.9499E-02   3.0217E-02   5.1195E-05  0.0737
   3.0217E-02   3.0952E-02   5.4071E-05  0.0708
   3.0952E-02   3.1705E-02   4.6157E-05  0.0757
   3.1705E-02   3.2477E-02   4.8273E-05  0.0731
   3.2477E-02   3.3267E-02   5.1945E-05  0.0697
   3.3267E-02   3.4076E-02   5.3121E-05  0.0681
   3.4076E-02   3.4905E-02   5.5208E-05  0.0660
   3.4905E-02   3.5755E-02   5.0726E-05  0.0680
   3.5755E-02   3.6625E-02   4.7703E-05  0.0693
   3.6625E-02   3.7516E-02   4.6585E-05  0.0693
   3.7516E-02   3.8428E-02   4.5722E-05  0.0691
   3.8428E-02   3.9363E-02   4.5463E-05  0.0685
   3.9363E-02   4.0321E-02   4.2640E-05  0.0699
   4.0321E-02   4.1302E-02   4.3297E-05  0.0685
   4.1302E-02   4.2307E-02   4.8787E-05  0.0637
   4.2307E-02   4.3337E-02   4.4080E-05  0.0663
   4.3337E-02   4.4391E-02   3.9335E-05  0.0694
   4.4391E-02   4.5471E-02   3.9108E-05  0.0687
   4.5471E-02   4.6577E-02   3.7899E-05  0.0690
   4.6577E-02   4.7711E-02   3.7969E-05  0.0681
   4.7711E-02   4.8871E-02   3.6824E-05  0.0684
   4.8871E-02   5.0061E-02   3.9235E-05  0.0654
   5.0061E-02   5.1279E-02   3.6915E-05  0.0665
   5.1279E-02   5.2526E-02   3.2689E-05  0.0698
   5.2526E-02   5.3804E-02   3.5140E-05  0.0666
   5.3804E-02   5.5113E-02   3.3523E-05  0.0674
   5.5113E-02   5.6454E-02   3.3271E-05  0.0668
   5.6454E-02   5.7828E-02   3.4160E-05  0.0652
   5.7828E-02   5.9235E-02   3.5277E-05  0.0633
   5.9235E-02   6.0676E-02   2.9159E-05  0.0689
   6.0676E-02   6.2152E-02   3.0821E-05  0.0662
   6.2152E-02   6.3665E-02   3.4797E-05  0.0616
   6.3665E-02   6.5214E-02   3.0363E-05  0.0651
   6.5214E-02   6.6800E-02   3.1573E-05  0.0631
   6.6800E-02   6.8426E-02   2.5324E-05  0.0696
   6.8426E-02   7.0090E-02   2.9439E-05  0.0638
   7.0090E-02   7.1796E-02   2.9509E-05  0.0628
   7.1796E-02   7.3543E-02   2.8918E-05  0.0629
   7.3543E-02   7.5332E-02   3.0718E-05  0.0602
   7.5332E-02   7.7165E-02   2.6428E-05  0.0642
   7.7165E-02   7.9042E-02   2.6364E-05  0.0634
   7.9042E-02   8.0965E-02   2.4553E-05  0.0650
   8.0965E-02   8.2935E-02   2.4648E-05  0.0640
   8.2935E-02   8.4953E-02   2.4370E-05  0.0637
   8.4953E-02   8.7020E-02   2.4117E-05  0.0632
   8.7020E-02   8.9138E-02   2.3800E-05  0.0629
   8.9138E-02   9.1306E-02   2.2948E-05  0.0633
   9.1306E-02   9.3528E-02   2.5240E-05  0.0597
   9.3528E-02   9.5804E-02   2.1082E-05  0.0644
   9.5804E-02   9.8134E-02   2.2301E-05  0.0620
   9.8134E-02   1.0052E-01   2.0077E-05  0.0645
   1.0052E-01   1.0297E-01   2.1380E-05  0.0617
   1.0297E-01   1.0547E-01   2.1856E-05  0.0603
   1.0547E-01   1.0804E-01   2.5627E-05  0.0550
   1.0804E-01   1.1067E-01   2.4259E-05  0.0558
   1.1067E-01   1.1336E-01   2.6072E-05  0.0532
   1.1336E-01   1.1612E-01   2.4161E-05  0.0547
   1.1612E-01   1.1894E-01   2.3518E-05  0.0547
   1.1894E-01   1.2184E-01   2.5873E-05  0.0516
   1.2184E-01   1.2480E-01   2.7893E-05  0.0491
   1.2480E-01   1.2784E-01   2.9019E-05  0.0476
   1.2784E-01   1.3095E-01   3.1614E-05  0.0450
   1.3095E-01   1.3414E-01   3.1687E-05  0.0444
   1.3414E-01   1.3740E-01   2.9400E-05  0.0456
   1.3740E-01   1.4074E-01   3.1822E-05  0.0433
   1.4074E-01   1.4417E-01   3.1640E-05  0.0429
   1.4417E-01   1.4767E-01   3.2511E-05  0.0418
   1.4767E-01   1.5127E-01   3.4533E-05  0.0401
   1.5127E-01   1.5495E-01   3.3997E-05  0.0399
   1.5495E-01   1.5872E-01   3.3737E-05  0.0395
   1.5872E-01   1.6258E-01   3.8128E-05  0.0368
   1.6258E-01   1.6654E-01   3.9813E-05  0.0356
   1.6654E-01   1.7059E-01   3.9217E-05  0.0354
   1.7059E-01   1.7474E-01   4.0105E-05  0.0346
   1.7474E-01   1.7899E-01   4.1643E-05  0.0335
   1.7899E-01   1.8334E-01   4.1939E-05  0.0330
   1.8334E-01   1.8781E-01   4.3448E-05  0.0321
   1.8781E-01   1.9237E-01   4.5750E-05  0.0309
   1.9237E-01   1.9706E-01   4.5527E-05  0.0306
   1.9706E-01   2.0185E-01   4.5606E-05  0.0302
   2.0185E-01   2.0676E-01   4.9235E-05  0.0287
   2.0676E-01   2.1179E-01   4.7540E-05  0.0289
   2.1179E-01   2.1694E-01   4.9556E-05  0.0279
   2.1694E-01   2.2222E-01   5.4522E-05  0.0263
   2.2222E-01   2.2763E-01   5.1788E-05  0.0267
   2.2763E-01   2.3317E-01   5.2003E-05  0.0263
   2.3317E-01   2.3884E-01   5.5175E-05  0.0252
   2.3884E-01   2.4465E-01   6.0349E-05  0.0238
   2.4465E-01   2.5061E-01   5.8084E-05  0.0240
   2.5061E-01   2.5670E-01   5.7451E-05  0.0238
   2.5670E-01   2.6295E-01   5.9093E-05  0.0232
   2.6295E-01   2.6935E-01   5.8555E-05  0.0230
   2.6935E-01   2.7590E-01   6.2847E-05  0.0220
   2.7590E-01   2.8261E-01   6.3063E-05  0.0217
   2.8261E-01   2.8949E-01   6.7321E-05  0.0207
   2.8949E-01   2.9653E-01   6.8866E-05  0.0202
   2.9653E-01   3.0375E-01   6.7344E-05  0.0202
   3.0375E-01   3.1114E-01   6.9031E-05  0.0197
   3.1114E-01   3.1871E-01   7.0055E-05  0.0194
   3.1871E-01   3.2646E-01   7.2963E-05  0.0187
   3.2646E-01   3.3441E-01   7.5024E-05  0.0183
   3.3441E-01   3.4254E-01   7.7134E-05  0.0178
   3.4254E-01   3.5088E-01   7.6995E-05  0.0176
   3.5088E-01   3.5941E-01   7.8328E-05  0.0172
   3.5941E-01   3.6816E-01   8.0620E-05  0.0168
   3.6816E-01   3.7712E-01   8.3792E-05  0.0163
   3.7712E-01   3.8629E-01   8.3216E-05  0.0161
   3.8629E-01   3.9569E-01   8.6174E-05  0.0157
   3.9569E-01   4.0532E-01   8.4116E-05  0.0157
   4.0532E-01   4.1518E-01   8.7500E-05  0.0152
   4.1518E-01   4.2528E-01   9.1205E-05  0.0147
   4.2528E-01   4.3563E-01   8.9573E-05  0.0146
   4.3563E-01   4.4623E-01   9.1751E-05  0.0143
   4.4623E-01   4.5708E-01   9.3017E-05  0.0140
   4.5708E-01   4.6821E-01   9.5397E-05  0.0137
   4.6821E-01   4.7960E-01   9.7419E-05  0.0134
   4.7960E-01   4.9127E-01   9.6507E-05  0.0133
   4.9127E-01   5.0322E-01   9.9447E-05  0.0129
   5.0322E-01   5.1546E-01   9.9087E-05  0.0128
   5.1546E-01   5.2800E-01   9.9269E-05  0.0126
   5.2800E-01   5.4085E-01   9.9828E-05  0.0124
   5.4085E-01   5.5401E-01   9.8639E-05  0.0124
   5.5401E-01   5.6749E-01   1.0157E-04  0.0120
   5.6749E-01   5.8130E-01   1.0392E-04  0.0118
   5.8130E-01   5.9544E-01   1.0262E-04  0.0117
   5.9544E-01   6.0993E-01   1.0379E-04  0.0115
   6.0993E-01   6.2477E-01   1.0350E-04  0.0114
   6.2477E-01   6.3997E-01   1.0517E-04  0.0111
   6.3997E-01   6.5554E-01   1.0514E-04  0.0110
   6.5554E-01   6.7149E-01   1.0540E-04  0.0109
   6.7149E-01   6.8783E-01   1.0595E-04  0.0107
   6.8783E-01   7.0456E-01   1.0692E-04  0.0105
   7.0456E-01   7.2171E-01   1.0411E-04  0.0105
   7.2171E-01   7.3927E-01   1.0435E-04  0.0104
   7.3927E-01   7.5725E-01   1.0547E-04  0.0102
   7.5725E-01   7.7568E-01   1.0357E-04  0.0102
   7.7568E-01   7.9455E-01   1.0390E-04  0.0101
   7.9455E-01   8.1388E-01   1.0225E-04  0.0100
   8.1388E-01   8.3368E-01   1.0258E-04  0.0099
   8.3368E-01   8.5397E-01   1.0155E-04  0.0098
   8.5397E-01   8.7475E-01   1.0044E-04  0.0097
   8.7475E-01   8.9603E-01   9.7781E-05  0.0098
   8.9603E-01   9.1783E-01   9.7577E-05  0.0096
   9.1783E-01   9.4016E-01   9.5135E-05  0.0097
   9.4016E-01   9.6304E-01   9.2296E-05  0.0097
   9.6304E-01   9.8647E-01   9.2133E-05  0.0096
   9.8647E-01   1.0105E+00   8.9213E-05  0.0096
   1.0105E+00   1.0351E+00   8.8459E-05  0.0095
   1.0351E+00   1.0602E+00   9.0571E-05  0.0093
   1.0602E+00   1.0860E+00   9.1466E-05  0.0092
   1.0860E+00   1.1125E+00   9.2430E-05  0.0090
   1.1125E+00   1.1395E+00   9.5284E-05  0.0088
   1.1395E+00   1.1673E+00   9.6097E-05  0.0086
   1.1673E+00   1.1957E+00   9.8139E-05  0.0084
   1.1957E+00   1.2247E+00   1.0035E-04  0.0082
   1.2247E+00   1.2545E+00   1.0113E-04  0.0081
   1.2545E+00   1.2851E+00   1.0306E-04  0.0079
   1.2851E+00   1.3163E+00   1.0361E-04  0.0078
   1.3163E+00   1.3484E+00   1.0460E-04  0.0077
   1.3484E+00   1.3812E+00   1.0449E-04  0.0076
   1.3812E+00   1.4148E+00   1.0728E-04  0.0074
   1.4148E+00   1.4492E+00   1.0570E-04  0.0073
   1.4492E+00   1.4845E+00   1.0601E-04  0.0072
   1.4845E+00   1.5206E+00   1.0582E-04  0.0072
   1.5206E+00   1.5576E+00   1.0543E-04  0.0071
   1.5576E+00   1.5955E+00   1.0458E-04  0.0070
   1.5955E+00   1.6343E+00   1.0451E-04  0.0069
   1.6343E+00   1.6741E+00   1.0372E-04  0.0069
   1.6741E+00   1.7148E+00   1.0336E-04  0.0068
   1.7148E+00   1.7565E+00   1.0074E-04  0.0068
   1.7565E+00   1.7992E+00   9.8182E-05  0.0068
   1.7992E+00   1.8430E+00   9.4253E-05  0.0069
   1.8430E+00   1.8879E+00   9.0743E-05  0.0069
   1.8879E+00   1.9338E+00   9.0534E-05  0.0068
   1.9338E+00   1.9808E+00   8.8804E-05  0.0068
   1.9808E+00   2.0290E+00   8.9857E-05  0.0067
   2.0290E+00   2.0784E+00   8.8685E-05  0.0066
   2.0784E+00   2.1290E+00   8.8444E-05  0.0066
   2.1290E+00   2.1808E+00   8.6491E-05  0.0065
   2.1808E+00   2.2338E+00   8.5451E-05  0.0065
   2.2338E+00   2.2882E+00   8.3975E-05  0.0065
   2.2882E+00   2.3439E+00   8.1743E-05  0.0065
   2.3439E+00   2.4009E+00   7.9613E-05  0.0065
   2.4009E+00   2.4593E+00   7.8305E-05  0.0065
   2.4593E+00   2.5191E+00   7.6439E-05  0.0065
   2.5191E+00   2.5804E+00   7.3592E-05  0.0065
   2.5804E+00   2.6432E+00   7.3106E-05  0.0065
   2.6432E+00   2.7075E+00   7.0627E-05  0.0065
   2.7075E+00   2.7734E+00   6.7884E-05  0.0066
   2.7734E+00   2.8409E+00   6.5588E-05  0.0066
   2.8409E+00   2.9100E+00   6.3045E-05  0.0067
   2.9100E+00   2.9808E+00   6.2166E-05  0.0066
   2.9808E+00   3.0533E+00   5.9515E-05  0.0067
   3.0533E+00   3.1276E+00   5.8805E-05  0.0067
   3.1276E+00   3.2037E+00   5.6555E-05  0.0067
   3.2037E+00   3.2817E+00   5.5752E-05  0.0067
   3.2817E+00   3.3615E+00   5.3265E-05  0.0068
   3.3615E+00   3.4433E+00   5.1428E-05  0.0068
   3.4433E+00   3.5271E+00   4.9990E-05  0.0068
   3.5271E+00   3.6129E+00   4.9265E-05  0.0068
   3.6129E+00   3.7008E+00   4.7216E-05  0.0068
   3.7008E+00   3.7908E+00   4.5041E-05  0.0069
   3.7908E+00   3.8831E+00   4.3799E-05  0.0069
   3.8831E+00   3.9776E+00   4.1644E-05  0.0070
   3.9776E+00   4.0743E+00   4.0988E-05  0.0070
   4.0743E+00   4.1735E+00   3.9376E-05  0.0071
   4.1735E+00   4.2750E+00   3.7173E-05  0.0072
   4.2750E+00   4.3790E+00   3.6062E-05  0.0072
   4.3790E+00   4.4856E+00   3.4747E-05  0.0072
   4.4856E+00   4.5947E+00   3.3310E-05  0.0073
   4.5947E+00   4.7065E+00   3.1868E-05  0.0074
   4.7065E+00   4.8210E+00   3.0081E-05  0.0075
   4.8210E+00   4.9383E+00   2.8953E-05  0.0076
   4.9383E+00   5.0585E+00   2.7963E-05  0.0076
   5.0585E+00   5.1815E+00   2.6604E-05  0.0077
   5.1815E+00   5.3076E+00   2.5500E-05  0.0078
   5.3076E+00   5.4368E+00   2.4268E-05  0.0079
   5.4368E+00   5.5690E+00   2.3024E-05  0.0080
   5.5690E+00   5.7045E+00   2.1805E-05  0.0081
   5.7045E+00   5.8433E+00   2.0698E-05  0.0082
   5.8433E+00   5.9855E+00   1.9749E-05  0.0083
   5.9855E+00   6.1311E+00   1.8318E-05  0.0086
   6.1311E+00   6.2803E+00   1.7299E-05  0.0087
   6.2803E+00   6.4331E+00   1.6300E-05  0.0089
   6.4331E+00   6.5896E+00   1.5178E-05  0.0091
   6.5896E+00   6.7500E+00   1.4216E-05  0.0093
   6.7500E+00   6.9142E+00   1.3174E-05  0.0095
   6.9142E+00   7.0824E+00   1.2216E-05  0.0098
   7.0824E+00   7.2548E+00   1.1388E-05  0.0100
   7.2548E+00   7.4313E+00   1.0012E-05  0.0105
   7.4313E+00   7.6121E+00   8.5649E-06  0.0112
   7.6121E+00   7.7973E+00   7.2918E-06  0.0120
   7.7973E+00   7.9870E+00   6.4883E-06  0.0126
   7.9870E+00   8.1813E+00   5.9736E-06  0.0130
   8.1813E+00   8.3804E+00   5.3735E-06  0.0135
   8.3804E+00   8.5843E+00   4.7627E-06  0.0142
   8.5843E+00   8.7931E+00   4.2772E-06  0.0148
   8.7931E+00   9.0071E+00   3.9760E-06  0.0152
   9.0071E+00   9.2262E+00   3.5829E-06  0.0158
   9.2262E+00   9.4507E+00   3.2726E-06  0.0164
   9.4507E+00   9.6807E+00   3.1130E-06  0.0166
   9.6807E+00   9.9162E+00   2.7350E-06  0.0175
   9.9162E+00   1.0157E+01   2.6889E-06  0.0175
   1.0157E+01   1.0405E+01   2.4985E-06  0.0179
   1.0405E+01   1.0658E+01   2.2668E-06  0.0186
   1.0658E+01   1.0917E+01   2.0719E-06  0.0192
   1.0917E+01   1.1183E+01   1.9551E-06  0.0195
   1.1183E+01   1.1455E+01   1.6867E-06  0.0208
   1.1455E+01   1.1733E+01   1.5537E-06  0.0214
   1.1733E+01   1.2019E+01   1.4784E-06  0.0217
   1.2019E+01   1.2311E+01   1.2749E-06  0.0231
   1.2311E+01   1.2611E+01   1.1936E-06  0.0236
   1.2611E+01   1.2918E+01   1.0033E-06  0.0254
   1.2918E+01   1.3232E+01   8.9423E-07  0.0266
   1.3232E+01   1.3554E+01   8.2468E-07  0.0274
   1.3554E+01   1.3884E+01   7.0129E-07  0.0293
   1.3884E+01   1.4222E+01   6.0310E-07  0.0313
   1.4222E+01   1.4568E+01   4.9550E-07  0.0341
   1.4568E+01   1.4922E+01   3.9447E-07  0.0377
   1.4922E+01   1.5285E+01   3.3020E-07  0.0408
   1.5285E+01   1.5657E+01   2.8524E-07  0.0433
   1.5657E+01   1.6038E+01   2.0245E-07  0.0508
   1.6038E+01   1.6428E+01   1.2963E-07  0.0627
   1.6428E+01   1.6828E+01   9.9364E-08  0.0706
   1.6828E+01   1.7237E+01   6.6452E-08  0.0856
   1.7237E+01   1.7657E+01   4.6778E-08  0.1005
   1.7657E+01   1.8086E+01   3.8878E-08  0.1093
   1.8086E+01   1.8526E+01   1.8880E-08  0.1547
   1.8526E+01   1.8977E+01   1.4198E-08  0.1768
   1.8977E+01   1.9439E+01   4.3315E-09  0.3162
   1.9439E+01   1.9912E+01   2.1143E-09  0.4472
   1.9912E+01   2.0396E+01   8.2564E-10  0.7071
   2.0396E+01   2.0893E+01   4.0302E-10  1.0000
   2.0893E+01   2.1401E+01   3.9344E-10  1.0000
   2.1401E+01   2.1922E+01   3.8410E-10  1.0000
   2.1922E+01   2.2455E+01   0.0000E+00  0.0000
   2.2455E+01   2.3001E+01   0.0000E+00  0.0000
   2.3001E+01   2.3561E+01   0.0000E+00  0.0000
   2.3561E+01   2.4134E+01   0.0000E+00  0.0000
   2.4134E+01   2.4721E+01   0.0000E+00  0.0000
   2.4721E+01   2.5323E+01   0.0000E+00  0.0000
   2.5323E+01   2.5939E+01   0.0000E+00  0.0000
   2.5939E+01   2.6570E+01   0.0000E+00  0.0000
   2.6570E+01   2.7217E+01   0.0000E+00  0.0000
   2.7217E+01   2.7879E+01   0.0000E+00  0.0000
   2.7879E+01   2.8557E+01   0.0000E+00  0.0000
   2.8557E+01   2.9252E+01   0.0000E+00  0.0000
   2.9252E+01   2.9964E+01   0.0000E+00  0.0000
   2.9964E+01   3.0693E+01   0.0000E+00  0.0000
   3.0693E+01   3.1440E+01   0.0000E+00  0.0000
   3.1440E+01   3.2205E+01   0.0000E+00  0.0000
   3.2205E+01   3.2988E+01   0.0000E+00  0.0000
   3.2988E+01   3.3791E+01   0.0000E+00  0.0000
   3.3791E+01   3.4613E+01   0.0000E+00  0.0000
   3.4613E+01   3.5455E+01   0.0000E+00  0.0000
   3.5455E+01   3.6318E+01   0.0000E+00  0.0000
   3.6318E+01   3.7201E+01   0.0000E+00  0.0000
   3.7201E+01   3.8106E+01   0.0000E+00  0.0000
   3.8106E+01   3.9034E+01   0.0000E+00  0.0000
   3.9034E+01   3.9983E+01   0.0000E+00  0.0000
   3.9983E+01   4.0956E+01   0.0000E+00  0.0000
   4.0956E+01   4.1953E+01   0.0000E+00  0.0000
   4.1953E+01   4.2973E+01   0.0000E+00  0.0000
   4.2973E+01   4.4019E+01   0.0000E+00  0.0000
   4.4019E+01   4.5090E+01   0.0000E+00  0.0000
   4.5090E+01   4.6187E+01   0.0000E+00  0.0000
   4.6187E+01   4.7311E+01   0.0000E+00  0.0000
   4.7311E+01   4.8462E+01   0.0000E+00  0.0000
   4.8462E+01   4.9641E+01   0.0000E+00  0.0000
   4.9641E+01   5.0849E+01   0.0000E+00  0.0000
   5.0849E+01   5.2086E+01   0.0000E+00  0.0000
   5.2086E+01   5.3353E+01   0.0000E+00  0.0000
   5.3353E+01   5.4651E+01   0.0000E+00  0.0000
   5.4651E+01   5.5981E+01   0.0000E+00  0.0000
   5.5981E+01   5.7343E+01   0.0000E+00  0.0000
   5.7343E+01   5.8738E+01   0.0000E+00  0.0000
   5.8738E+01   6.0168E+01   0.0000E+00  0.0000
   6.0168E+01   6.1632E+01   0.0000E+00  0.0000
   6.1632E+01   6.3131E+01   0.0000E+00  0.0000
   6.3131E+01   6.4667E+01   0.0000E+00  0.0000
   6.4667E+01   6.6240E+01   0.0000E+00  0.0000
   6.6240E+01   6.7852E+01   0.0000E+00  0.0000
   6.7852E+01   6.9503E+01   0.0000E+00  0.0000
   6.9503E+01   7.1194E+01   0.0000E+00  0.0000
   7.1194E+01   7.2926E+01   0.0000E+00  0.0000
   7.2926E+01   7.4701E+01   0.0000E+00  0.0000
   7.4701E+01   7.6518E+01   0.0000E+00  0.0000
   7.6518E+01   7.8380E+01   0.0000E+00  0.0000
   7.8380E+01   8.0287E+01   0.0000E+00  0.0000
   8.0287E+01   8.2240E+01   0.0000E+00  0.0000
   8.2240E+01   8.4241E+01   0.0000E+00  0.0000
   8.4241E+01   8.6291E+01   0.0000E+00  0.0000
   8.6291E+01   8.8391E+01   0.0000E+00  0.0000
   8.8391E+01   9.0541E+01   0.0000E+00  0.0000
   9.0541E+01   9.2744E+01   0.0000E+00  0.0000
   9.2744E+01   9.5001E+01   0.0000E+00  0.0000
   9.5001E+01   9.7312E+01   0.0000E+00  0.0000
   9.7312E+01   9.9680E+01   0.0000E+00  0.0000
   9.9680E+01   1.0211E+02   0.0000E+00  0.0000
   1.0211E+02   1.0459E+02   0.0000E+00  0.0000
   1.0459E+02   1.0713E+02   0.0000E+00  0.0000
   1.0713E+02   1.0974E+02   0.0000E+00  0.0000
   1.0974E+02   1.1241E+02   0.0000E+00  0.0000
   1.1241E+02   1.1515E+02   0.0000E+00  0.0000
   1.1515E+02   1.1795E+02   0.0000E+00  0.0000
   1.1795E+02   1.2082E+02   0.0000E+00  0.0000
   1.2082E+02   1.2376E+02   0.0000E+00  0.0000
   1.2376E+02   1.2677E+02   0.0000E+00  0.0000
   1.2677E+02   1.2985E+02   0.0000E+00  0.0000
   1.2985E+02   1.3301E+02   0.0000E+00  0.0000
   1.3301E+02   1.3625E+02   0.0000E+00  0.0000
   1.3625E+02   1.3956E+02   0.0000E+00  0.0000
   1.3956E+02   1.4296E+02   0.0000E+00  0.0000
   1.4296E+02   1.4644E+02   0.0000E+00  0.0000
   1.4644E+02   1.5000E+02   0.0000E+00  0.0000

#   sum over                 2.6783E-06
'no. =    1   reg = 115 - 215'
msuc: {\huge [t-cross] in region mesh}
msdr: {\it plotted by \ANGEL \version}
msdl: {\it calculated by \PHITS  3.26}
wt: s(0.7)
\vspace{-3}
  region surface crossing
  area  &=&   1.0000E+00 [cm^2]
e:
 
# Information for Restart Calculation
# This calculation was newly started
# istdev =  2 # 1:Batch variance, 2:History variance
# resc2  = 5.00000000000000000E+09 # Total source weight or Total source weight / maxcas
# resc3  = 5.00000000000000000E+09 # Total history number or Total batch number
# maxcas =   100000000 # History / Batch, only used for istdev=1
# bitrseed = 0110100000100010111000001110001111001110100100011111101000111001 # bit data of rseed
