[ T-Cross ]
    title = [t-cross] in region mesh
     mesh =  reg            # mesh type is region-wise
      reg =    1            # number of crossing regions
      non     r-from    r-to       area
      1       125       225        1.000000    
   e-type =    3            # e-mesh is log given by emin, emax and ne
     emin =  1.0000000E-02  # minimum value of e-mesh points
     emax =   150.0000      # maximum value of e-mesh points
#    edel =  2.4039514E-02  # mesh width of e-mesh points
       ne =    400          # number of e-mesh points
#    data = ( e(i), i = 1, ne + 1 )
#           1.00000E-02  1.02433E-02  1.04925E-02  1.07478E-02  1.10093E-02
#           1.12772E-02  1.15516E-02  1.18326E-02  1.21205E-02  1.24154E-02
#           1.27175E-02  1.30269E-02  1.33439E-02  1.36686E-02  1.40011E-02
#           1.43418E-02  1.46907E-02  1.50482E-02  1.54143E-02  1.57894E-02
#           1.61735E-02  1.65670E-02  1.69701E-02  1.73830E-02  1.78060E-02
#           1.82392E-02  1.86830E-02  1.91375E-02  1.96032E-02  2.00801E-02
#           2.05687E-02  2.10692E-02  2.15818E-02  2.21069E-02  2.26448E-02
#           2.31957E-02  2.37601E-02  2.43382E-02  2.49304E-02  2.55369E-02
#           2.61583E-02  2.67947E-02  2.74467E-02  2.81145E-02  2.87985E-02
#           2.94992E-02  3.02169E-02  3.09521E-02  3.17052E-02  3.24766E-02
#           3.32668E-02  3.40762E-02  3.49053E-02  3.57546E-02  3.66246E-02
#           3.75157E-02  3.84284E-02  3.93634E-02  4.03212E-02  4.13022E-02
#           4.23071E-02  4.33365E-02  4.43909E-02  4.54710E-02  4.65773E-02
#           4.77106E-02  4.88714E-02  5.00605E-02  5.12785E-02  5.25262E-02
#           5.38042E-02  5.51133E-02  5.64542E-02  5.78278E-02  5.92348E-02
#           6.06760E-02  6.21523E-02  6.36645E-02  6.52135E-02  6.68002E-02
#           6.84255E-02  7.00904E-02  7.17957E-02  7.35426E-02  7.53319E-02
#           7.71648E-02  7.90423E-02  8.09655E-02  8.29354E-02  8.49533E-02
#           8.70203E-02  8.91376E-02  9.13064E-02  9.35279E-02  9.58035E-02
#           9.81345E-02  1.00522E-01  1.02968E-01  1.05473E-01  1.08040E-01
#           1.10668E-01  1.13361E-01  1.16119E-01  1.18944E-01  1.21838E-01
#           1.24803E-01  1.27839E-01  1.30950E-01  1.34136E-01  1.37399E-01
#           1.40742E-01  1.44167E-01  1.47675E-01  1.51268E-01  1.54948E-01
#           1.58718E-01  1.62580E-01  1.66535E-01  1.70587E-01  1.74738E-01
#           1.78989E-01  1.83344E-01  1.87805E-01  1.92375E-01  1.97055E-01
#           2.01850E-01  2.06761E-01  2.11792E-01  2.16945E-01  2.22223E-01
#           2.27630E-01  2.33169E-01  2.38842E-01  2.44653E-01  2.50605E-01
#           2.56703E-01  2.62949E-01  2.69346E-01  2.75900E-01  2.82613E-01
#           2.89489E-01  2.96532E-01  3.03747E-01  3.11138E-01  3.18708E-01
#           3.26462E-01  3.34405E-01  3.42542E-01  3.50876E-01  3.59413E-01
#           3.68158E-01  3.77116E-01  3.86291E-01  3.95690E-01  4.05317E-01
#           4.15179E-01  4.25281E-01  4.35628E-01  4.46227E-01  4.57084E-01
#           4.68205E-01  4.79597E-01  4.91266E-01  5.03219E-01  5.15463E-01
#           5.28005E-01  5.40851E-01  5.54011E-01  5.67490E-01  5.81298E-01
#           5.95441E-01  6.09929E-01  6.24769E-01  6.39970E-01  6.55541E-01
#           6.71491E-01  6.87828E-01  7.04564E-01  7.21706E-01  7.39266E-01
#           7.57253E-01  7.75678E-01  7.94551E-01  8.13883E-01  8.33685E-01
#           8.53969E-01  8.74747E-01  8.96030E-01  9.17831E-01  9.40163E-01
#           9.63038E-01  9.86469E-01  1.01047E+00  1.03506E+00  1.06024E+00
#           1.08604E+00  1.11246E+00  1.13953E+00  1.16725E+00  1.19565E+00
#           1.22474E+00  1.25454E+00  1.28507E+00  1.31633E+00  1.34836E+00
#           1.38117E+00  1.41477E+00  1.44920E+00  1.48446E+00  1.52057E+00
#           1.55757E+00  1.59547E+00  1.63429E+00  1.67405E+00  1.71478E+00
#           1.75650E+00  1.79924E+00  1.84302E+00  1.88786E+00  1.93379E+00
#           1.98084E+00  2.02904E+00  2.07841E+00  2.12898E+00  2.18078E+00
#           2.23384E+00  2.28819E+00  2.34386E+00  2.40089E+00  2.45930E+00
#           2.51914E+00  2.58043E+00  2.64322E+00  2.70753E+00  2.77341E+00
#           2.84088E+00  2.91001E+00  2.98081E+00  3.05333E+00  3.12762E+00
#           3.20372E+00  3.28167E+00  3.36152E+00  3.44330E+00  3.52708E+00
#           3.61290E+00  3.70080E+00  3.79085E+00  3.88308E+00  3.97756E+00
#           4.07434E+00  4.17347E+00  4.27501E+00  4.37903E+00  4.48557E+00
#           4.59471E+00  4.70650E+00  4.82102E+00  4.93832E+00  5.05847E+00
#           5.18155E+00  5.30762E+00  5.43676E+00  5.56904E+00  5.70453E+00
#           5.84333E+00  5.98550E+00  6.13114E+00  6.28031E+00  6.43312E+00
#           6.58964E+00  6.74997E+00  6.91420E+00  7.08243E+00  7.25475E+00
#           7.43126E+00  7.61207E+00  7.79728E+00  7.98700E+00  8.18133E+00
#           8.38038E+00  8.58428E+00  8.79315E+00  9.00709E+00  9.22624E+00
#           9.45072E+00  9.68067E+00  9.91620E+00  1.01575E+01  1.04046E+01
#           1.06578E+01  1.09171E+01  1.11827E+01  1.14548E+01  1.17335E+01
#           1.20190E+01  1.23114E+01  1.26109E+01  1.29178E+01  1.32321E+01
#           1.35540E+01  1.38838E+01  1.42216E+01  1.45676E+01  1.49221E+01
#           1.52851E+01  1.56570E+01  1.60380E+01  1.64282E+01  1.68279E+01
#           1.72374E+01  1.76568E+01  1.80864E+01  1.85264E+01  1.89772E+01
#           1.94389E+01  1.99119E+01  2.03963E+01  2.08926E+01  2.14009E+01
#           2.19216E+01  2.24550E+01  2.30014E+01  2.35610E+01  2.41343E+01
#           2.47215E+01  2.53230E+01  2.59391E+01  2.65702E+01  2.72167E+01
#           2.78789E+01  2.85572E+01  2.92520E+01  2.99637E+01  3.06928E+01
#           3.14396E+01  3.22045E+01  3.29881E+01  3.37907E+01  3.46128E+01
#           3.54550E+01  3.63177E+01  3.72013E+01  3.81064E+01  3.90336E+01
#           3.99833E+01  4.09561E+01  4.19526E+01  4.29734E+01  4.40189E+01
#           4.50900E+01  4.61870E+01  4.73108E+01  4.84619E+01  4.96410E+01
#           5.08488E+01  5.20860E+01  5.33533E+01  5.46514E+01  5.59812E+01
#           5.73432E+01  5.87384E+01  6.01676E+01  6.16315E+01  6.31311E+01
#           6.46671E+01  6.62405E+01  6.78522E+01  6.95031E+01  7.11941E+01
#           7.29263E+01  7.47007E+01  7.65182E+01  7.83800E+01  8.02870E+01
#           8.22405E+01  8.42414E+01  8.62911E+01  8.83906E+01  9.05412E+01
#           9.27442E+01  9.50007E+01  9.73122E+01  9.96799E+01  1.02105E+02
#           1.04589E+02  1.07134E+02  1.09741E+02  1.12411E+02  1.15146E+02
#           1.17948E+02  1.20817E+02  1.23757E+02  1.26768E+02  1.29852E+02
#           1.33012E+02  1.36248E+02  1.39563E+02  1.42959E+02  1.46437E+02
#           1.50000E+02
     unit =    2            # unit is [1/cm^2/(MeV/n)/source]
     axis =  eng            # axis of output
     file = detector-26.out  # file name of output for the above axis
   output = f-curr          # surface crossing forward current spectrum
     part =  neutron  
# kf/name :  2112     
#    used :        main (  %)        temp (  %)       total (  %)
#  memory :         414 (  0)           0 (  0)         414 (  0)

#------------------------------------------------------------------------------
#newpage:
#   no. =    1   reg = 125 - 225

x: Energy [MeV/n]
y:  F-Curr [1/cm^2/(MeV/n)/source]         
p: xlog ylog afac(0.8) form(0.9)
h: n            x            y(neutron ),hh0l   n 
#  e-lower      e-upper      neutron     r.err 
   1.0000E-02   1.0243E-02   4.5425E-04  0.0422
   1.0243E-02   1.0493E-02   4.2347E-04  0.0433
   1.0493E-02   1.0748E-02   3.9738E-04  0.0441
   1.0748E-02   1.1009E-02   4.2090E-04  0.0424
   1.1009E-02   1.1277E-02   3.8488E-04  0.0438
   1.1277E-02   1.1552E-02   3.4240E-04  0.0458
   1.1552E-02   1.1833E-02   3.6445E-04  0.0439
   1.1833E-02   1.2121E-02   3.6747E-04  0.0433
   1.2121E-02   1.2415E-02   3.7141E-04  0.0425
   1.2415E-02   1.2718E-02   3.2975E-04  0.0445
   1.2718E-02   1.3027E-02   3.5809E-04  0.0423
   1.3027E-02   1.3344E-02   3.3036E-04  0.0435
   1.3344E-02   1.3669E-02   3.3951E-04  0.0424
   1.3669E-02   1.4001E-02   3.4548E-04  0.0415
   1.4001E-02   1.4342E-02   3.3021E-04  0.0420
   1.4342E-02   1.4691E-02   3.2667E-04  0.0417
   1.4691E-02   1.5048E-02   3.0194E-04  0.0429
   1.5048E-02   1.5414E-02   3.1423E-04  0.0415
   1.5414E-02   1.5789E-02   2.9593E-04  0.0423
   1.5789E-02   1.6174E-02   2.8400E-04  0.0426
   1.6174E-02   1.6567E-02   2.8227E-04  0.0422
   1.6567E-02   1.6970E-02   2.7303E-04  0.0425
   1.6970E-02   1.7383E-02   2.6997E-04  0.0422
   1.7383E-02   1.7806E-02   2.7501E-04  0.0412
   1.7806E-02   1.8239E-02   2.6593E-04  0.0414
   1.8239E-02   1.8683E-02   2.3706E-04  0.0434
   1.8683E-02   1.9138E-02   2.4756E-04  0.0420
   1.9138E-02   1.9603E-02   2.5391E-04  0.0409
   1.9603E-02   2.0080E-02   2.2532E-04  0.0429
   2.0080E-02   2.0569E-02   2.2599E-04  0.0424
   2.0569E-02   2.1069E-02   2.1160E-04  0.0432
   2.1069E-02   2.1582E-02   2.3716E-04  0.0403
   2.1582E-02   2.2107E-02   2.1414E-04  0.0419
   2.2107E-02   2.2645E-02   2.1306E-04  0.0415
   2.2645E-02   2.3196E-02   2.0423E-04  0.0420
   2.3196E-02   2.3760E-02   1.9512E-04  0.0424
   2.3760E-02   2.4338E-02   1.9560E-04  0.0419
   2.4338E-02   2.4930E-02   1.8960E-04  0.0420
   2.4930E-02   2.5537E-02   1.8729E-04  0.0418
   2.5537E-02   2.6158E-02   1.8221E-04  0.0418
   2.6158E-02   2.6795E-02   1.9796E-04  0.0397
   2.6795E-02   2.7447E-02   1.7203E-04  0.0420
   2.7447E-02   2.8114E-02   1.6449E-04  0.0425
   2.8114E-02   2.8799E-02   1.7780E-04  0.0404
   2.8799E-02   2.9499E-02   1.8801E-04  0.0388
   2.9499E-02   3.0217E-02   1.7166E-04  0.0401
   3.0217E-02   3.0952E-02   1.5626E-04  0.0415
   3.0952E-02   3.1705E-02   1.4575E-04  0.0424
   3.1705E-02   3.2477E-02   1.5806E-04  0.0403
   3.2477E-02   3.3267E-02   1.4461E-04  0.0416
   3.3267E-02   3.4076E-02   1.4480E-04  0.0411
   3.4076E-02   3.4905E-02   1.3860E-04  0.0414
   3.4905E-02   3.5755E-02   1.4214E-04  0.0405
   3.5755E-02   3.6625E-02   1.4536E-04  0.0395
   3.6625E-02   3.7516E-02   1.4233E-04  0.0395
   3.7516E-02   3.8428E-02   1.2934E-04  0.0409
   3.8428E-02   3.9363E-02   1.2140E-04  0.0417
   3.9363E-02   4.0321E-02   1.2534E-04  0.0406
   4.0321E-02   4.1302E-02   1.2249E-04  0.0406
   4.1302E-02   4.2307E-02   1.1671E-04  0.0411
   4.2307E-02   4.3337E-02   1.1268E-04  0.0413
   4.3337E-02   4.4391E-02   1.1921E-04  0.0397
   4.4391E-02   4.5471E-02   1.0569E-04  0.0416
   4.5471E-02   4.6577E-02   1.1512E-04  0.0395
   4.6577E-02   4.7711E-02   1.0472E-04  0.0408
   4.7711E-02   4.8871E-02   1.1075E-04  0.0393
   4.8871E-02   5.0061E-02   1.0813E-04  0.0393
   5.0061E-02   5.1279E-02   9.6771E-05  0.0409
   5.1279E-02   5.2526E-02   1.0290E-04  0.0393
   5.2526E-02   5.3804E-02   1.0485E-04  0.0384
   5.3804E-02   5.5113E-02   9.2828E-05  0.0403
   5.5113E-02   5.6454E-02   9.5796E-05  0.0393
   5.6454E-02   5.7828E-02   9.8177E-05  0.0383
   5.7828E-02   5.9235E-02   9.4315E-05  0.0386
   5.9235E-02   6.0676E-02   9.2700E-05  0.0385
   6.0676E-02   6.2152E-02   9.2340E-05  0.0381
   6.2152E-02   6.3665E-02   7.7592E-05  0.0411
   6.3665E-02   6.5214E-02   8.2125E-05  0.0394
   6.5214E-02   6.6800E-02   7.6286E-05  0.0404
   6.6800E-02   6.8426E-02   7.8374E-05  0.0394
   6.8426E-02   7.0090E-02   7.9550E-05  0.0387
   7.0090E-02   7.1796E-02   7.1223E-05  0.0403
   7.1796E-02   7.3543E-02   7.1341E-05  0.0398
   7.3543E-02   7.5332E-02   7.2335E-05  0.0391
   7.5332E-02   7.7165E-02   6.8363E-05  0.0397
   7.7165E-02   7.9042E-02   6.8565E-05  0.0392
   7.9042E-02   8.0965E-02   6.9899E-05  0.0384
   8.0965E-02   8.2935E-02   7.0128E-05  0.0379
   8.2935E-02   8.4953E-02   5.9953E-05  0.0404
   8.4953E-02   8.7020E-02   5.9127E-05  0.0402
   8.7020E-02   8.9138E-02   6.0786E-05  0.0393
   8.9138E-02   9.1306E-02   6.1271E-05  0.0386
   9.1306E-02   9.3528E-02   5.7435E-05  0.0394
   9.3528E-02   9.5804E-02   5.8396E-05  0.0385
   9.5804E-02   9.8134E-02   5.9363E-05  0.0378
   9.8134E-02   1.0052E-01   5.2568E-05  0.0397
   1.0052E-01   1.0297E-01   5.6797E-05  0.0377
   1.0297E-01   1.0547E-01   5.2810E-05  0.0387
   1.0547E-01   1.0804E-01   5.1904E-05  0.0385
   1.0804E-01   1.1067E-01   5.0800E-05  0.0384
   1.1067E-01   1.1336E-01   4.9125E-05  0.0387
   1.1336E-01   1.1612E-01   4.9126E-05  0.0382
   1.1612E-01   1.1894E-01   4.5767E-05  0.0392
   1.1894E-01   1.2184E-01   5.0559E-05  0.0368
   1.2184E-01   1.2480E-01   4.9013E-05  0.0369
   1.2480E-01   1.2784E-01   4.3545E-05  0.0387
   1.2784E-01   1.3095E-01   4.3419E-05  0.0382
   1.3095E-01   1.3414E-01   4.1469E-05  0.0387
   1.3414E-01   1.3740E-01   4.3607E-05  0.0373
   1.3740E-01   1.4074E-01   4.0687E-05  0.0381
   1.4074E-01   1.4417E-01   3.9104E-05  0.0384
   1.4417E-01   1.4767E-01   3.6311E-05  0.0394
   1.4767E-01   1.5127E-01   4.1459E-05  0.0365
   1.5127E-01   1.5495E-01   3.5704E-05  0.0388
   1.5495E-01   1.5872E-01   3.6957E-05  0.0377
   1.5872E-01   1.6258E-01   3.7237E-05  0.0371
   1.6258E-01   1.6654E-01   3.2306E-05  0.0393
   1.6654E-01   1.7059E-01   3.6566E-05  0.0365
   1.7059E-01   1.7474E-01   3.3392E-05  0.0378
   1.7474E-01   1.7899E-01   3.3157E-05  0.0375
   1.7899E-01   1.8334E-01   3.0740E-05  0.0385
   1.8334E-01   1.8781E-01   2.8498E-05  0.0394
   1.8781E-01   1.9237E-01   3.0804E-05  0.0375
   1.9237E-01   1.9706E-01   2.9900E-05  0.0376
   1.9706E-01   2.0185E-01   2.9877E-05  0.0371
   2.0185E-01   2.0676E-01   2.9236E-05  0.0371
   2.0676E-01   2.1179E-01   3.2518E-05  0.0347
   2.1179E-01   2.1694E-01   3.2831E-05  0.0342
   2.1694E-01   2.2222E-01   3.3124E-05  0.0336
   2.2222E-01   2.2763E-01   3.3520E-05  0.0330
   2.2763E-01   2.3317E-01   3.4896E-05  0.0320
   2.3317E-01   2.3884E-01   3.6070E-05  0.0311
   2.3884E-01   2.4465E-01   3.9577E-05  0.0293
   2.4465E-01   2.5061E-01   3.9035E-05  0.0291
   2.5061E-01   2.5670E-01   4.0894E-05  0.0281
   2.5670E-01   2.6295E-01   4.3363E-05  0.0270
   2.6295E-01   2.6935E-01   4.4634E-05  0.0263
   2.6935E-01   2.7590E-01   4.6310E-05  0.0255
   2.7590E-01   2.8261E-01   4.7330E-05  0.0249
   2.8261E-01   2.8949E-01   4.8095E-05  0.0244
   2.8949E-01   2.9653E-01   4.8475E-05  0.0240
   2.9653E-01   3.0375E-01   4.8758E-05  0.0237
   3.0375E-01   3.1114E-01   5.1567E-05  0.0227
   3.1114E-01   3.1871E-01   5.4610E-05  0.0218
   3.1871E-01   3.2646E-01   5.5591E-05  0.0214
   3.2646E-01   3.3441E-01   5.6837E-05  0.0209
   3.3441E-01   3.4254E-01   5.7639E-05  0.0205
   3.4254E-01   3.5088E-01   5.9369E-05  0.0199
   3.5088E-01   3.5941E-01   6.1620E-05  0.0194
   3.5941E-01   3.6816E-01   6.3872E-05  0.0188
   3.6816E-01   3.7712E-01   6.5095E-05  0.0184
   3.7712E-01   3.8629E-01   6.7853E-05  0.0178
   3.8629E-01   3.9569E-01   6.6400E-05  0.0178
   3.9569E-01   4.0532E-01   7.0434E-05  0.0171
   4.0532E-01   4.1518E-01   6.9126E-05  0.0170
   4.1518E-01   4.2528E-01   7.1311E-05  0.0165
   4.2528E-01   4.3563E-01   7.3834E-05  0.0161
   4.3563E-01   4.4623E-01   7.5663E-05  0.0157
   4.4623E-01   4.5708E-01   7.7985E-05  0.0152
   4.5708E-01   4.6821E-01   7.7551E-05  0.0151
   4.6821E-01   4.7960E-01   7.7188E-05  0.0150
   4.7960E-01   4.9127E-01   8.2539E-05  0.0143
   4.9127E-01   5.0322E-01   8.4365E-05  0.0140
   5.0322E-01   5.1546E-01   8.4013E-05  0.0138
   5.1546E-01   5.2800E-01   8.7183E-05  0.0134
   5.2800E-01   5.4085E-01   8.6611E-05  0.0133
   5.4085E-01   5.5401E-01   9.0058E-05  0.0129
   5.5401E-01   5.6749E-01   8.8839E-05  0.0128
   5.6749E-01   5.8130E-01   9.2028E-05  0.0124
   5.8130E-01   5.9544E-01   9.3129E-05  0.0122
   5.9544E-01   6.0993E-01   9.1327E-05  0.0122
   6.0993E-01   6.2477E-01   9.3571E-05  0.0119
   6.2477E-01   6.3997E-01   9.7549E-05  0.0115
   6.3997E-01   6.5554E-01   9.6099E-05  0.0115
   6.5554E-01   6.7149E-01   9.5401E-05  0.0113
   6.7149E-01   6.8783E-01   9.7262E-05  0.0111
   6.8783E-01   7.0456E-01   1.0001E-04  0.0108
   7.0456E-01   7.2171E-01   9.8296E-05  0.0108
   7.2171E-01   7.3927E-01   9.9753E-05  0.0106
   7.3927E-01   7.5725E-01   1.0040E-04  0.0104
   7.5725E-01   7.7568E-01   9.9708E-05  0.0103
   7.7568E-01   7.9455E-01   1.0046E-04  0.0102
   7.9455E-01   8.1388E-01   1.0198E-04  0.0100
   8.1388E-01   8.3368E-01   1.0337E-04  0.0098
   8.3368E-01   8.5397E-01   1.0206E-04  0.0097
   8.5397E-01   8.7475E-01   1.0177E-04  0.0096
   8.7475E-01   8.9603E-01   1.0120E-04  0.0095
   8.9603E-01   9.1783E-01   1.0210E-04  0.0094
   9.1783E-01   9.4016E-01   1.0059E-04  0.0093
   9.4016E-01   9.6304E-01   1.0041E-04  0.0092
   9.6304E-01   9.8647E-01   1.0097E-04  0.0091
   9.8647E-01   1.0105E+00   1.0069E-04  0.0090
   1.0105E+00   1.0351E+00   1.0142E-04  0.0089
   1.0351E+00   1.0602E+00   9.7069E-05  0.0089
   1.0602E+00   1.0860E+00   9.7394E-05  0.0088
   1.0860E+00   1.1125E+00   9.7634E-05  0.0087
   1.1125E+00   1.1395E+00   9.4508E-05  0.0087
   1.1395E+00   1.1673E+00   9.4709E-05  0.0086
   1.1673E+00   1.1957E+00   9.4254E-05  0.0085
   1.1957E+00   1.2247E+00   9.2288E-05  0.0085
   1.2247E+00   1.2545E+00   9.0067E-05  0.0085
   1.2545E+00   1.2851E+00   8.8168E-05  0.0085
   1.2851E+00   1.3163E+00   8.7982E-05  0.0084
   1.3163E+00   1.3484E+00   8.7698E-05  0.0083
   1.3484E+00   1.3812E+00   8.6568E-05  0.0083
   1.3812E+00   1.4148E+00   8.6122E-05  0.0082
   1.4148E+00   1.4492E+00   8.6290E-05  0.0081
   1.4492E+00   1.4845E+00   8.3880E-05  0.0081
   1.4845E+00   1.5206E+00   8.4610E-05  0.0080
   1.5206E+00   1.5576E+00   8.0963E-05  0.0081
   1.5576E+00   1.5955E+00   7.7731E-05  0.0081
   1.5955E+00   1.6343E+00   7.7245E-05  0.0081
   1.6343E+00   1.6741E+00   7.7052E-05  0.0080
   1.6741E+00   1.7148E+00   7.4594E-05  0.0080
   1.7148E+00   1.7565E+00   7.2380E-05  0.0080
   1.7565E+00   1.7992E+00   7.1381E-05  0.0080
   1.7992E+00   1.8430E+00   7.0054E-05  0.0080
   1.8430E+00   1.8879E+00   6.8852E-05  0.0079
   1.8879E+00   1.9338E+00   6.6787E-05  0.0080
   1.9338E+00   1.9808E+00   6.5280E-05  0.0080
   1.9808E+00   2.0290E+00   6.4938E-05  0.0079
   2.0290E+00   2.0784E+00   6.3107E-05  0.0079
   2.0784E+00   2.1290E+00   6.1049E-05  0.0079
   2.1290E+00   2.1808E+00   5.9838E-05  0.0079
   2.1808E+00   2.2338E+00   5.7398E-05  0.0080
   2.2338E+00   2.2882E+00   5.5661E-05  0.0080
   2.2882E+00   2.3439E+00   5.4594E-05  0.0080
   2.3439E+00   2.4009E+00   5.3356E-05  0.0080
   2.4009E+00   2.4593E+00   5.3052E-05  0.0079
   2.4593E+00   2.5191E+00   5.1071E-05  0.0080
   2.5191E+00   2.5804E+00   5.0558E-05  0.0079
   2.5804E+00   2.6432E+00   4.8840E-05  0.0080
   2.6432E+00   2.7075E+00   4.7315E-05  0.0080
   2.7075E+00   2.7734E+00   4.5454E-05  0.0080
   2.7734E+00   2.8409E+00   4.4633E-05  0.0080
   2.8409E+00   2.9100E+00   4.2983E-05  0.0081
   2.9100E+00   2.9808E+00   4.1979E-05  0.0081
   2.9808E+00   3.0533E+00   4.1414E-05  0.0080
   3.0533E+00   3.1276E+00   4.0122E-05  0.0081
   3.1276E+00   3.2037E+00   3.9197E-05  0.0081
   3.2037E+00   3.2817E+00   3.7153E-05  0.0082
   3.2817E+00   3.3615E+00   3.6774E-05  0.0081
   3.3615E+00   3.4433E+00   3.5343E-05  0.0082
   3.4433E+00   3.5271E+00   3.4833E-05  0.0082
   3.5271E+00   3.6129E+00   3.3776E-05  0.0082
   3.6129E+00   3.7008E+00   3.2909E-05  0.0082
   3.7008E+00   3.7908E+00   3.1863E-05  0.0082
   3.7908E+00   3.8831E+00   3.1171E-05  0.0082
   3.8831E+00   3.9776E+00   3.0588E-05  0.0082
   3.9776E+00   4.0743E+00   3.0020E-05  0.0082
   4.0743E+00   4.1735E+00   2.9277E-05  0.0082
   4.1735E+00   4.2750E+00   2.8929E-05  0.0081
   4.2750E+00   4.3790E+00   2.8095E-05  0.0082
   4.3790E+00   4.4856E+00   2.7689E-05  0.0081
   4.4856E+00   4.5947E+00   2.7537E-05  0.0081
   4.5947E+00   4.7065E+00   2.7010E-05  0.0080
   4.7065E+00   4.8210E+00   2.6286E-05  0.0080
   4.8210E+00   4.9383E+00   2.5495E-05  0.0081
   4.9383E+00   5.0585E+00   2.4968E-05  0.0081
   5.0585E+00   5.1815E+00   2.4366E-05  0.0081
   5.1815E+00   5.3076E+00   2.3679E-05  0.0081
   5.3076E+00   5.4368E+00   2.2920E-05  0.0081
   5.4368E+00   5.5690E+00   2.1775E-05  0.0082
   5.5690E+00   5.7045E+00   2.1511E-05  0.0082
   5.7045E+00   5.8433E+00   2.0623E-05  0.0083
   5.8433E+00   5.9855E+00   1.9777E-05  0.0084
   5.9855E+00   6.1311E+00   1.9061E-05  0.0084
   6.1311E+00   6.2803E+00   1.8065E-05  0.0085
   6.2803E+00   6.4331E+00   1.7597E-05  0.0085
   6.4331E+00   6.5896E+00   1.6865E-05  0.0086
   6.5896E+00   6.7500E+00   1.6308E-05  0.0087
   6.7500E+00   6.9142E+00   1.5649E-05  0.0087
   6.9142E+00   7.0824E+00   1.5178E-05  0.0088
   7.0824E+00   7.2548E+00   1.4760E-05  0.0088
   7.2548E+00   7.4313E+00   1.4076E-05  0.0089
   7.4313E+00   7.6121E+00   1.3645E-05  0.0089
   7.6121E+00   7.7973E+00   1.3113E-05  0.0090
   7.7973E+00   7.9870E+00   1.2680E-05  0.0091
   7.9870E+00   8.1813E+00   1.2156E-05  0.0092
   8.1813E+00   8.3804E+00   1.1486E-05  0.0093
   8.3804E+00   8.5843E+00   1.0967E-05  0.0094
   8.5843E+00   8.7931E+00   1.0599E-05  0.0095
   8.7931E+00   9.0071E+00   1.0115E-05  0.0096
   9.0071E+00   9.2262E+00   9.8182E-06  0.0096
   9.2262E+00   9.4507E+00   9.4231E-06  0.0097
   9.4507E+00   9.6807E+00   9.0459E-06  0.0098
   9.6807E+00   9.9162E+00   8.5884E-06  0.0099
   9.9162E+00   1.0157E+01   8.2467E-06  0.0100
   1.0157E+01   1.0405E+01   7.8788E-06  0.0101
   1.0405E+01   1.0658E+01   7.5250E-06  0.0102
   1.0658E+01   1.0917E+01   7.1436E-06  0.0104
   1.0917E+01   1.1183E+01   6.7968E-06  0.0105
   1.1183E+01   1.1455E+01   6.5737E-06  0.0106
   1.1455E+01   1.1733E+01   6.1273E-06  0.0108
   1.1733E+01   1.2019E+01   5.8465E-06  0.0109
   1.2019E+01   1.2311E+01   5.4990E-06  0.0111
   1.2311E+01   1.2611E+01   5.2329E-06  0.0113
   1.2611E+01   1.2918E+01   5.0113E-06  0.0114
   1.2918E+01   1.3232E+01   4.7359E-06  0.0116
   1.3232E+01   1.3554E+01   4.4957E-06  0.0117
   1.3554E+01   1.3884E+01   4.4056E-06  0.0117
   1.3884E+01   1.4222E+01   4.0734E-06  0.0121
   1.4222E+01   1.4568E+01   3.9131E-06  0.0121
   1.4568E+01   1.4922E+01   3.5970E-06  0.0125
   1.4922E+01   1.5285E+01   3.5575E-06  0.0124
   1.5285E+01   1.5657E+01   3.2268E-06  0.0129
   1.5657E+01   1.6038E+01   3.0784E-06  0.0131
   1.6038E+01   1.6428E+01   2.8909E-06  0.0133
   1.6428E+01   1.6828E+01   2.7133E-06  0.0136
   1.6828E+01   1.7237E+01   2.5458E-06  0.0139
   1.7237E+01   1.7657E+01   2.3643E-06  0.0142
   1.7657E+01   1.8086E+01   2.1895E-06  0.0146
   1.8086E+01   1.8526E+01   2.0193E-06  0.0150
   1.8526E+01   1.8977E+01   1.9687E-06  0.0150
   1.8977E+01   1.9439E+01   1.8387E-06  0.0154
   1.9439E+01   1.9912E+01   1.8335E-06  0.0152
   1.9912E+01   2.0396E+01   1.6100E-06  0.0160
   2.0396E+01   2.0893E+01   1.5669E-06  0.0160
   2.0893E+01   2.1401E+01   1.4534E-06  0.0165
   2.1401E+01   2.1922E+01   1.3125E-06  0.0171
   2.1922E+01   2.2455E+01   1.2198E-06  0.0175
   2.2455E+01   2.3001E+01   1.1063E-06  0.0182
   2.3001E+01   2.3561E+01   9.9993E-07  0.0189
   2.3561E+01   2.4134E+01   8.9942E-07  0.0197
   2.4134E+01   2.4721E+01   8.3787E-07  0.0202
   2.4721E+01   2.5323E+01   7.5678E-07  0.0210
   2.5323E+01   2.5939E+01   6.9239E-07  0.0217
   2.5939E+01   2.6570E+01   6.2746E-07  0.0225
   2.6570E+01   2.7217E+01   5.4728E-07  0.0238
   2.7217E+01   2.7879E+01   4.7327E-07  0.0253
   2.7879E+01   2.8557E+01   4.2930E-07  0.0262
   2.8557E+01   2.9252E+01   3.8082E-07  0.0275
   2.9252E+01   2.9964E+01   3.3861E-07  0.0288
   2.9964E+01   3.0693E+01   2.8997E-07  0.0308
   3.0693E+01   3.1440E+01   2.5925E-07  0.0321
   3.1440E+01   3.2205E+01   2.2119E-07  0.0344
   3.2205E+01   3.2988E+01   2.0496E-07  0.0353
   3.2988E+01   3.3791E+01   1.7243E-07  0.0380
   3.3791E+01   3.4613E+01   1.4717E-07  0.0407
   3.4613E+01   3.5455E+01   1.2634E-07  0.0434
   3.5455E+01   3.6318E+01   1.1013E-07  0.0459
   3.6318E+01   3.7201E+01   8.8045E-08  0.0507
   3.7201E+01   3.8106E+01   8.2860E-08  0.0516
   3.8106E+01   3.9034E+01   6.9891E-08  0.0556
   3.9034E+01   3.9983E+01   5.3279E-08  0.0629
   3.9983E+01   4.0956E+01   5.1602E-08  0.0631
   4.0956E+01   4.1953E+01   4.5961E-08  0.0661
   4.1953E+01   4.2973E+01   3.3113E-08  0.0769
   4.2973E+01   4.4019E+01   3.2327E-08  0.0769
   4.4019E+01   4.5090E+01   2.5770E-08  0.0851
   4.5090E+01   4.6187E+01   2.2059E-08  0.0909
   4.6187E+01   4.7311E+01   1.3526E-08  0.1147
   4.7311E+01   4.8462E+01   1.2857E-08  0.1162
   4.8462E+01   4.9641E+01   1.1195E-08  0.1231
   4.9641E+01   5.0849E+01   1.1591E-08  0.1195
   5.0849E+01   5.2086E+01   8.5678E-09  0.1374
   5.2086E+01   5.3353E+01   8.5221E-09  0.1361
   5.3353E+01   5.4651E+01   4.7761E-09  0.1796
   5.4651E+01   5.5981E+01   4.5123E-09  0.1826
   5.5981E+01   5.7343E+01   3.8177E-09  0.1961
   5.7343E+01   5.8738E+01   1.8635E-09  0.2774
   5.8738E+01   6.0168E+01   1.5394E-09  0.3015
   6.0168E+01   6.1632E+01   1.3662E-09  0.3162
   6.1632E+01   6.3131E+01   9.3362E-10  0.3780
   6.3131E+01   6.4667E+01   9.1144E-10  0.3780
   6.4667E+01   6.6240E+01   1.2711E-10  1.0000
   6.6240E+01   6.7852E+01   6.2047E-10  0.4472
   6.7852E+01   6.9503E+01   1.2115E-10  1.0000
   6.9503E+01   7.1194E+01   7.0961E-10  0.4082
   7.1194E+01   7.2926E+01   4.6184E-10  0.5000
   7.2926E+01   7.4701E+01   2.2543E-10  0.7071
   7.4701E+01   7.6518E+01   2.2008E-10  0.7071
   7.6518E+01   7.8380E+01   1.0743E-10  1.0000
   7.8380E+01   8.0287E+01   1.0487E-10  1.0000
   8.0287E+01   8.2240E+01   0.0000E+00  0.0000
   8.2240E+01   8.4241E+01   0.0000E+00  0.0000
   8.4241E+01   8.6291E+01   0.0000E+00  0.0000
   8.6291E+01   8.8391E+01   0.0000E+00  0.0000
   8.8391E+01   9.0541E+01   0.0000E+00  0.0000
   9.0541E+01   9.2744E+01   0.0000E+00  0.0000
   9.2744E+01   9.5001E+01   0.0000E+00  0.0000
   9.5001E+01   9.7312E+01   0.0000E+00  0.0000
   9.7312E+01   9.9680E+01   0.0000E+00  0.0000
   9.9680E+01   1.0211E+02   0.0000E+00  0.0000
   1.0211E+02   1.0459E+02   0.0000E+00  0.0000
   1.0459E+02   1.0713E+02   0.0000E+00  0.0000
   1.0713E+02   1.0974E+02   0.0000E+00  0.0000
   1.0974E+02   1.1241E+02   0.0000E+00  0.0000
   1.1241E+02   1.1515E+02   0.0000E+00  0.0000
   1.1515E+02   1.1795E+02   0.0000E+00  0.0000
   1.1795E+02   1.2082E+02   0.0000E+00  0.0000
   1.2082E+02   1.2376E+02   0.0000E+00  0.0000
   1.2376E+02   1.2677E+02   0.0000E+00  0.0000
   1.2677E+02   1.2985E+02   0.0000E+00  0.0000
   1.2985E+02   1.3301E+02   0.0000E+00  0.0000
   1.3301E+02   1.3625E+02   0.0000E+00  0.0000
   1.3625E+02   1.3956E+02   0.0000E+00  0.0000
   1.3956E+02   1.4296E+02   0.0000E+00  0.0000
   1.4296E+02   1.4644E+02   0.0000E+00  0.0000
   1.4644E+02   1.5000E+02   0.0000E+00  0.0000

#   sum over                 2.6693E-06
'no. =    1   reg = 125 - 225'
msuc: {\huge [t-cross] in region mesh}
msdr: {\it plotted by \ANGEL \version}
msdl: {\it calculated by \PHITS  3.28}
wt: s(0.7)
\vspace{-3}
  region surface crossing
  area  &=&   1.0000E+00 [cm^2]
e:
 
# Information for Restart Calculation
# This calculation was newly started
# istdev =  2 # 1:Batch variance, 2:History variance
# resc2  = 5.00000000000000000E+09 # Total source weight or Total source weight / maxcas
# resc3  = 5.00000000000000000E+09 # Total history number or Total batch number
# maxcas =   500000000 # History / Batch, only used for istdev=1
# bitrseed = 0110100000100010111000001110001111001110100100011111101000111001 # bit data of rseed
