0 <--- number of remaining batches 

-------------------------------------------------------------------------------
bat[      10] ncas =     5000000000.
 bitrseed = 0001011101011011011000011100010110101100100111100111010011101011
          cpu time =   1 h. 53 m.  7.87 s.

 date = 2022-05-30
 time = 06h 15m 47s

