[ T-Cross ]
    title = [t-cross] in region mesh
     mesh =  reg            # mesh type is region-wise
      reg =    1            # number of crossing regions
      non     r-from    r-to       area
      1       126       226        1.000000    
   e-type =    3            # e-mesh is log given by emin, emax and ne
     emin =  1.0000000E-02  # minimum value of e-mesh points
     emax =   150.0000      # maximum value of e-mesh points
#    edel =  2.4039514E-02  # mesh width of e-mesh points
       ne =    400          # number of e-mesh points
#    data = ( e(i), i = 1, ne + 1 )
#           1.00000E-02  1.02433E-02  1.04925E-02  1.07478E-02  1.10093E-02
#           1.12772E-02  1.15516E-02  1.18326E-02  1.21205E-02  1.24154E-02
#           1.27175E-02  1.30269E-02  1.33439E-02  1.36686E-02  1.40011E-02
#           1.43418E-02  1.46907E-02  1.50482E-02  1.54143E-02  1.57894E-02
#           1.61735E-02  1.65670E-02  1.69701E-02  1.73830E-02  1.78060E-02
#           1.82392E-02  1.86830E-02  1.91375E-02  1.96032E-02  2.00801E-02
#           2.05687E-02  2.10692E-02  2.15818E-02  2.21069E-02  2.26448E-02
#           2.31957E-02  2.37601E-02  2.43382E-02  2.49304E-02  2.55369E-02
#           2.61583E-02  2.67947E-02  2.74467E-02  2.81145E-02  2.87985E-02
#           2.94992E-02  3.02169E-02  3.09521E-02  3.17052E-02  3.24766E-02
#           3.32668E-02  3.40762E-02  3.49053E-02  3.57546E-02  3.66246E-02
#           3.75157E-02  3.84284E-02  3.93634E-02  4.03212E-02  4.13022E-02
#           4.23071E-02  4.33365E-02  4.43909E-02  4.54710E-02  4.65773E-02
#           4.77106E-02  4.88714E-02  5.00605E-02  5.12785E-02  5.25262E-02
#           5.38042E-02  5.51133E-02  5.64542E-02  5.78278E-02  5.92348E-02
#           6.06760E-02  6.21523E-02  6.36645E-02  6.52135E-02  6.68002E-02
#           6.84255E-02  7.00904E-02  7.17957E-02  7.35426E-02  7.53319E-02
#           7.71648E-02  7.90423E-02  8.09655E-02  8.29354E-02  8.49533E-02
#           8.70203E-02  8.91376E-02  9.13064E-02  9.35279E-02  9.58035E-02
#           9.81345E-02  1.00522E-01  1.02968E-01  1.05473E-01  1.08040E-01
#           1.10668E-01  1.13361E-01  1.16119E-01  1.18944E-01  1.21838E-01
#           1.24803E-01  1.27839E-01  1.30950E-01  1.34136E-01  1.37399E-01
#           1.40742E-01  1.44167E-01  1.47675E-01  1.51268E-01  1.54948E-01
#           1.58718E-01  1.62580E-01  1.66535E-01  1.70587E-01  1.74738E-01
#           1.78989E-01  1.83344E-01  1.87805E-01  1.92375E-01  1.97055E-01
#           2.01850E-01  2.06761E-01  2.11792E-01  2.16945E-01  2.22223E-01
#           2.27630E-01  2.33169E-01  2.38842E-01  2.44653E-01  2.50605E-01
#           2.56703E-01  2.62949E-01  2.69346E-01  2.75900E-01  2.82613E-01
#           2.89489E-01  2.96532E-01  3.03747E-01  3.11138E-01  3.18708E-01
#           3.26462E-01  3.34405E-01  3.42542E-01  3.50876E-01  3.59413E-01
#           3.68158E-01  3.77116E-01  3.86291E-01  3.95690E-01  4.05317E-01
#           4.15179E-01  4.25281E-01  4.35628E-01  4.46227E-01  4.57084E-01
#           4.68205E-01  4.79597E-01  4.91266E-01  5.03219E-01  5.15463E-01
#           5.28005E-01  5.40851E-01  5.54011E-01  5.67490E-01  5.81298E-01
#           5.95441E-01  6.09929E-01  6.24769E-01  6.39970E-01  6.55541E-01
#           6.71491E-01  6.87828E-01  7.04564E-01  7.21706E-01  7.39266E-01
#           7.57253E-01  7.75678E-01  7.94551E-01  8.13883E-01  8.33685E-01
#           8.53969E-01  8.74747E-01  8.96030E-01  9.17831E-01  9.40163E-01
#           9.63038E-01  9.86469E-01  1.01047E+00  1.03506E+00  1.06024E+00
#           1.08604E+00  1.11246E+00  1.13953E+00  1.16725E+00  1.19565E+00
#           1.22474E+00  1.25454E+00  1.28507E+00  1.31633E+00  1.34836E+00
#           1.38117E+00  1.41477E+00  1.44920E+00  1.48446E+00  1.52057E+00
#           1.55757E+00  1.59547E+00  1.63429E+00  1.67405E+00  1.71478E+00
#           1.75650E+00  1.79924E+00  1.84302E+00  1.88786E+00  1.93379E+00
#           1.98084E+00  2.02904E+00  2.07841E+00  2.12898E+00  2.18078E+00
#           2.23384E+00  2.28819E+00  2.34386E+00  2.40089E+00  2.45930E+00
#           2.51914E+00  2.58043E+00  2.64322E+00  2.70753E+00  2.77341E+00
#           2.84088E+00  2.91001E+00  2.98081E+00  3.05333E+00  3.12762E+00
#           3.20372E+00  3.28167E+00  3.36152E+00  3.44330E+00  3.52708E+00
#           3.61290E+00  3.70080E+00  3.79085E+00  3.88308E+00  3.97756E+00
#           4.07434E+00  4.17347E+00  4.27501E+00  4.37903E+00  4.48557E+00
#           4.59471E+00  4.70650E+00  4.82102E+00  4.93832E+00  5.05847E+00
#           5.18155E+00  5.30762E+00  5.43676E+00  5.56904E+00  5.70453E+00
#           5.84333E+00  5.98550E+00  6.13114E+00  6.28031E+00  6.43312E+00
#           6.58964E+00  6.74997E+00  6.91420E+00  7.08243E+00  7.25475E+00
#           7.43126E+00  7.61207E+00  7.79728E+00  7.98700E+00  8.18133E+00
#           8.38038E+00  8.58428E+00  8.79315E+00  9.00709E+00  9.22624E+00
#           9.45072E+00  9.68067E+00  9.91620E+00  1.01575E+01  1.04046E+01
#           1.06578E+01  1.09171E+01  1.11827E+01  1.14548E+01  1.17335E+01
#           1.20190E+01  1.23114E+01  1.26109E+01  1.29178E+01  1.32321E+01
#           1.35540E+01  1.38838E+01  1.42216E+01  1.45676E+01  1.49221E+01
#           1.52851E+01  1.56570E+01  1.60380E+01  1.64282E+01  1.68279E+01
#           1.72374E+01  1.76568E+01  1.80864E+01  1.85264E+01  1.89772E+01
#           1.94389E+01  1.99119E+01  2.03963E+01  2.08926E+01  2.14009E+01
#           2.19216E+01  2.24550E+01  2.30014E+01  2.35610E+01  2.41343E+01
#           2.47215E+01  2.53230E+01  2.59391E+01  2.65702E+01  2.72167E+01
#           2.78789E+01  2.85572E+01  2.92520E+01  2.99637E+01  3.06928E+01
#           3.14396E+01  3.22045E+01  3.29881E+01  3.37907E+01  3.46128E+01
#           3.54550E+01  3.63177E+01  3.72013E+01  3.81064E+01  3.90336E+01
#           3.99833E+01  4.09561E+01  4.19526E+01  4.29734E+01  4.40189E+01
#           4.50900E+01  4.61870E+01  4.73108E+01  4.84619E+01  4.96410E+01
#           5.08488E+01  5.20860E+01  5.33533E+01  5.46514E+01  5.59812E+01
#           5.73432E+01  5.87384E+01  6.01676E+01  6.16315E+01  6.31311E+01
#           6.46671E+01  6.62405E+01  6.78522E+01  6.95031E+01  7.11941E+01
#           7.29263E+01  7.47007E+01  7.65182E+01  7.83800E+01  8.02870E+01
#           8.22405E+01  8.42414E+01  8.62911E+01  8.83906E+01  9.05412E+01
#           9.27442E+01  9.50007E+01  9.73122E+01  9.96799E+01  1.02105E+02
#           1.04589E+02  1.07134E+02  1.09741E+02  1.12411E+02  1.15146E+02
#           1.17948E+02  1.20817E+02  1.23757E+02  1.26768E+02  1.29852E+02
#           1.33012E+02  1.36248E+02  1.39563E+02  1.42959E+02  1.46437E+02
#           1.50000E+02
     unit =    2            # unit is [1/cm^2/(MeV/n)/source]
     axis =  eng            # axis of output
     file = detector-27.out  # file name of output for the above axis
   output = f-curr          # surface crossing forward current spectrum
     part =  neutron  
# kf/name :  2112     
#    used :        main (  %)        temp (  %)       total (  %)
#  memory :         414 (  0)           0 (  0)         414 (  0)

#------------------------------------------------------------------------------
#newpage:
#   no. =    1   reg = 126 - 226

x: Energy [MeV/n]
y:  F-Curr [1/cm^2/(MeV/n)/source]         
p: xlog ylog afac(0.8) form(0.9)
h: n            x            y(neutron ),hh0l   n 
#  e-lower      e-upper      neutron     r.err 
   1.0000E-02   1.0243E-02   2.1549E-03  0.0195
   1.0243E-02   1.0493E-02   2.0760E-03  0.0197
   1.0493E-02   1.0748E-02   2.1622E-03  0.0190
   1.0748E-02   1.1009E-02   2.0061E-03  0.0195
   1.1009E-02   1.1277E-02   1.9547E-03  0.0195
   1.1277E-02   1.1552E-02   1.9250E-03  0.0195
   1.1552E-02   1.1833E-02   1.9483E-03  0.0191
   1.1833E-02   1.2121E-02   1.8458E-03  0.0194
   1.2121E-02   1.2415E-02   1.9016E-03  0.0189
   1.2415E-02   1.2718E-02   1.8267E-03  0.0190
   1.2718E-02   1.3027E-02   1.7975E-03  0.0190
   1.3027E-02   1.3344E-02   1.8425E-03  0.0185
   1.3344E-02   1.3669E-02   1.6731E-03  0.0192
   1.3669E-02   1.4001E-02   1.6736E-03  0.0190
   1.4001E-02   1.4342E-02   1.6920E-03  0.0186
   1.4342E-02   1.4691E-02   1.6828E-03  0.0185
   1.4691E-02   1.5048E-02   1.6400E-03  0.0185
   1.5048E-02   1.5414E-02   1.6117E-03  0.0184
   1.5414E-02   1.5789E-02   1.6052E-03  0.0182
   1.5789E-02   1.6174E-02   1.5899E-03  0.0181
   1.6174E-02   1.6567E-02   1.5044E-03  0.0184
   1.6567E-02   1.6970E-02   1.4711E-03  0.0184
   1.6970E-02   1.7383E-02   1.5478E-03  0.0177
   1.7383E-02   1.7806E-02   1.4924E-03  0.0178
   1.7806E-02   1.8239E-02   1.4173E-03  0.0180
   1.8239E-02   1.8683E-02   1.4230E-03  0.0178
   1.8683E-02   1.9138E-02   1.4326E-03  0.0175
   1.9138E-02   1.9603E-02   1.3966E-03  0.0175
   1.9603E-02   2.0080E-02   1.3942E-03  0.0173
   2.0080E-02   2.0569E-02   1.3529E-03  0.0174
   2.0569E-02   2.1069E-02   1.3260E-03  0.0174
   2.1069E-02   2.1582E-02   1.3171E-03  0.0172
   2.1582E-02   2.2107E-02   1.2695E-03  0.0173
   2.2107E-02   2.2645E-02   1.2817E-03  0.0170
   2.2645E-02   2.3196E-02   1.2945E-03  0.0167
   2.3196E-02   2.3760E-02   1.2481E-03  0.0169
   2.3760E-02   2.4338E-02   1.2430E-03  0.0167
   2.4338E-02   2.4930E-02   1.1914E-03  0.0168
   2.4930E-02   2.5537E-02   1.1768E-03  0.0167
   2.5537E-02   2.6158E-02   1.1804E-03  0.0165
   2.6158E-02   2.6795E-02   1.1649E-03  0.0164
   2.6795E-02   2.7447E-02   1.1363E-03  0.0164
   2.7447E-02   2.8114E-02   1.1183E-03  0.0164
   2.8114E-02   2.8799E-02   1.1104E-03  0.0162
   2.8799E-02   2.9499E-02   1.0727E-03  0.0163
   2.9499E-02   3.0217E-02   1.0795E-03  0.0161
   3.0217E-02   3.0952E-02   1.0685E-03  0.0160
   3.0952E-02   3.1705E-02   1.0503E-03  0.0159
   3.1705E-02   3.2477E-02   1.0244E-03  0.0159
   3.2477E-02   3.3267E-02   1.0241E-03  0.0157
   3.3267E-02   3.4076E-02   1.0235E-03  0.0155
   3.4076E-02   3.4905E-02   9.6804E-04  0.0158
   3.4905E-02   3.5755E-02   9.5847E-04  0.0157
   3.5755E-02   3.6625E-02   9.3892E-04  0.0156
   3.6625E-02   3.7516E-02   9.4691E-04  0.0154
   3.7516E-02   3.8428E-02   9.3494E-04  0.0153
   3.8428E-02   3.9363E-02   9.3476E-04  0.0151
   3.9363E-02   4.0321E-02   9.1194E-04  0.0151
   4.0321E-02   4.1302E-02   8.8681E-04  0.0152
   4.1302E-02   4.2307E-02   8.6972E-04  0.0151
   4.2307E-02   4.3337E-02   8.6228E-04  0.0150
   4.3337E-02   4.4391E-02   8.7366E-04  0.0147
   4.4391E-02   4.5471E-02   8.5310E-04  0.0147
   4.5471E-02   4.6577E-02   8.4142E-04  0.0147
   4.6577E-02   4.7711E-02   8.4129E-04  0.0145
   4.7711E-02   4.8871E-02   8.1148E-04  0.0146
   4.8871E-02   5.0061E-02   8.0398E-04  0.0145
   5.0061E-02   5.1279E-02   7.9244E-04  0.0144
   5.1279E-02   5.2526E-02   7.8868E-04  0.0143
   5.2526E-02   5.3804E-02   7.7496E-04  0.0142
   5.3804E-02   5.5113E-02   7.7847E-04  0.0140
   5.5113E-02   5.6454E-02   7.5245E-04  0.0141
   5.6454E-02   5.7828E-02   7.3851E-04  0.0140
   5.7828E-02   5.9235E-02   7.2182E-04  0.0140
   5.9235E-02   6.0676E-02   7.2369E-04  0.0138
   6.0676E-02   6.2152E-02   7.1307E-04  0.0138
   6.2152E-02   6.3665E-02   7.0916E-04  0.0137
   6.3665E-02   6.5214E-02   7.0051E-04  0.0136
   6.5214E-02   6.6800E-02   6.7436E-04  0.0137
   6.6800E-02   6.8426E-02   6.9033E-04  0.0134
   6.8426E-02   7.0090E-02   6.7694E-04  0.0133
   7.0090E-02   7.1796E-02   6.4081E-04  0.0135
   7.1796E-02   7.3543E-02   6.5799E-04  0.0132
   7.3543E-02   7.5332E-02   6.5890E-04  0.0130
   7.5332E-02   7.7165E-02   6.4608E-04  0.0130
   7.7165E-02   7.9042E-02   6.3692E-04  0.0129
   7.9042E-02   8.0965E-02   6.4155E-04  0.0127
   8.0965E-02   8.2935E-02   6.2631E-04  0.0127
   8.2935E-02   8.4953E-02   6.0449E-04  0.0128
   8.4953E-02   8.7020E-02   6.1113E-04  0.0126
   8.7020E-02   8.9138E-02   5.9435E-04  0.0126
   8.9138E-02   9.1306E-02   6.0172E-04  0.0124
   9.1306E-02   9.3528E-02   5.6681E-04  0.0126
   9.3528E-02   9.5804E-02   5.6956E-04  0.0124
   9.5804E-02   9.8134E-02   5.4990E-04  0.0125
   9.8134E-02   1.0052E-01   5.6481E-04  0.0122
   1.0052E-01   1.0297E-01   5.5451E-04  0.0121
   1.0297E-01   1.0547E-01   5.4984E-04  0.0120
   1.0547E-01   1.0804E-01   5.3000E-04  0.0121
   1.0804E-01   1.1067E-01   5.1881E-04  0.0121
   1.1067E-01   1.1336E-01   5.2900E-04  0.0119
   1.1336E-01   1.1612E-01   5.0802E-04  0.0119
   1.1612E-01   1.1894E-01   5.0785E-04  0.0118
   1.1894E-01   1.2184E-01   5.0725E-04  0.0117
   1.2184E-01   1.2480E-01   4.9764E-04  0.0116
   1.2480E-01   1.2784E-01   4.9359E-04  0.0116
   1.2784E-01   1.3095E-01   4.9607E-04  0.0114
   1.3095E-01   1.3414E-01   4.7958E-04  0.0114
   1.3414E-01   1.3740E-01   4.7475E-04  0.0114
   1.3740E-01   1.4074E-01   4.7179E-04  0.0113
   1.4074E-01   1.4417E-01   4.6353E-04  0.0112
   1.4417E-01   1.4767E-01   4.6130E-04  0.0111
   1.4767E-01   1.5127E-01   4.6284E-04  0.0110
   1.5127E-01   1.5495E-01   4.4660E-04  0.0110
   1.5495E-01   1.5872E-01   4.4660E-04  0.0109
   1.5872E-01   1.6258E-01   4.4296E-04  0.0108
   1.6258E-01   1.6654E-01   4.3072E-04  0.0108
   1.6654E-01   1.7059E-01   4.2242E-04  0.0108
   1.7059E-01   1.7474E-01   4.2645E-04  0.0106
   1.7474E-01   1.7899E-01   4.2192E-04  0.0106
   1.7899E-01   1.8334E-01   4.1934E-04  0.0105
   1.8334E-01   1.8781E-01   4.0983E-04  0.0105
   1.8781E-01   1.9237E-01   4.0031E-04  0.0105
   1.9237E-01   1.9706E-01   3.9149E-04  0.0104
   1.9706E-01   2.0185E-01   3.9170E-04  0.0103
   2.0185E-01   2.0676E-01   3.9115E-04  0.0102
   2.0676E-01   2.1179E-01   3.9029E-04  0.0101
   2.1179E-01   2.1694E-01   3.7943E-04  0.0101
   2.1694E-01   2.2222E-01   3.7788E-04  0.0100
   2.2222E-01   2.2763E-01   3.7071E-04  0.0100
   2.2763E-01   2.3317E-01   3.6714E-04  0.0099
   2.3317E-01   2.3884E-01   3.6526E-04  0.0098
   2.3884E-01   2.4465E-01   3.6202E-04  0.0098
   2.4465E-01   2.5061E-01   3.5358E-04  0.0097
   2.5061E-01   2.5670E-01   3.4109E-04  0.0098
   2.5670E-01   2.6295E-01   3.4324E-04  0.0097
   2.6295E-01   2.6935E-01   3.3993E-04  0.0096
   2.6935E-01   2.7590E-01   3.3436E-04  0.0096
   2.7590E-01   2.8261E-01   3.2973E-04  0.0095
   2.8261E-01   2.8949E-01   3.2220E-04  0.0095
   2.8949E-01   2.9653E-01   3.1677E-04  0.0095
   2.9653E-01   3.0375E-01   3.1202E-04  0.0094
   3.0375E-01   3.1114E-01   3.0962E-04  0.0093
   3.1114E-01   3.1871E-01   3.0403E-04  0.0093
   3.1871E-01   3.2646E-01   3.0210E-04  0.0092
   3.2646E-01   3.3441E-01   2.9737E-04  0.0092
   3.3441E-01   3.4254E-01   2.8917E-04  0.0092
   3.4254E-01   3.5088E-01   2.8719E-04  0.0091
   3.5088E-01   3.5941E-01   2.8307E-04  0.0091
   3.5941E-01   3.6816E-01   2.7456E-04  0.0091
   3.6816E-01   3.7712E-01   2.7492E-04  0.0090
   3.7712E-01   3.8629E-01   2.6948E-04  0.0090
   3.8629E-01   3.9569E-01   2.6286E-04  0.0090
   3.9569E-01   4.0532E-01   2.6152E-04  0.0089
   4.0532E-01   4.1518E-01   2.5626E-04  0.0089
   4.1518E-01   4.2528E-01   2.4895E-04  0.0089
   4.2528E-01   4.3563E-01   2.4369E-04  0.0089
   4.3563E-01   4.4623E-01   2.4123E-04  0.0088
   4.4623E-01   4.5708E-01   2.3761E-04  0.0088
   4.5708E-01   4.6821E-01   2.3012E-04  0.0088
   4.6821E-01   4.7960E-01   2.2897E-04  0.0088
   4.7960E-01   4.9127E-01   2.2196E-04  0.0088
   4.9127E-01   5.0322E-01   2.1509E-04  0.0088
   5.0322E-01   5.1546E-01   2.1342E-04  0.0087
   5.1546E-01   5.2800E-01   2.0993E-04  0.0087
   5.2800E-01   5.4085E-01   2.0355E-04  0.0087
   5.4085E-01   5.5401E-01   1.9795E-04  0.0088
   5.5401E-01   5.6749E-01   1.9648E-04  0.0087
   5.6749E-01   5.8130E-01   1.8904E-04  0.0088
   5.8130E-01   5.9544E-01   1.8530E-04  0.0087
   5.9544E-01   6.0993E-01   1.8343E-04  0.0087
   6.0993E-01   6.2477E-01   1.7969E-04  0.0087
   6.2477E-01   6.3997E-01   1.7112E-04  0.0088
   6.3997E-01   6.5554E-01   1.6854E-04  0.0087
   6.5554E-01   6.7149E-01   1.6247E-04  0.0088
   6.7149E-01   6.8783E-01   1.5885E-04  0.0088
   6.8783E-01   7.0456E-01   1.5189E-04  0.0089
   7.0456E-01   7.2171E-01   1.4819E-04  0.0089
   7.2171E-01   7.3927E-01   1.4391E-04  0.0089
   7.3927E-01   7.5725E-01   1.4060E-04  0.0089
   7.5725E-01   7.7568E-01   1.3554E-04  0.0090
   7.7568E-01   7.9455E-01   1.3056E-04  0.0090
   7.9455E-01   8.1388E-01   1.2707E-04  0.0090
   8.1388E-01   8.3368E-01   1.2098E-04  0.0091
   8.3368E-01   8.5397E-01   1.1600E-04  0.0092
   8.5397E-01   8.7475E-01   1.1402E-04  0.0092
   8.7475E-01   8.9603E-01   1.0741E-04  0.0094
   8.9603E-01   9.1783E-01   1.0221E-04  0.0095
   9.1783E-01   9.4016E-01   9.9465E-05  0.0095
   9.4016E-01   9.6304E-01   9.3692E-05  0.0097
   9.6304E-01   9.8647E-01   9.0131E-05  0.0097
   9.8647E-01   1.0105E+00   8.5919E-05  0.0098
   1.0105E+00   1.0351E+00   8.4627E-05  0.0098
   1.0351E+00   1.0602E+00   8.4046E-05  0.0097
   1.0602E+00   1.0860E+00   8.6392E-05  0.0095
   1.0860E+00   1.1125E+00   8.6179E-05  0.0094
   1.1125E+00   1.1395E+00   8.7863E-05  0.0092
   1.1395E+00   1.1673E+00   8.6552E-05  0.0091
   1.1673E+00   1.1957E+00   8.9056E-05  0.0089
   1.1957E+00   1.2247E+00   9.0887E-05  0.0087
   1.2247E+00   1.2545E+00   9.1379E-05  0.0086
   1.2545E+00   1.2851E+00   8.9651E-05  0.0086
   1.2851E+00   1.3163E+00   8.9514E-05  0.0085
   1.3163E+00   1.3484E+00   9.1156E-05  0.0083
   1.3484E+00   1.3812E+00   9.1579E-05  0.0082
   1.3812E+00   1.4148E+00   9.2111E-05  0.0080
   1.4148E+00   1.4492E+00   9.1234E-05  0.0080
   1.4492E+00   1.4845E+00   8.8874E-05  0.0080
   1.4845E+00   1.5206E+00   8.7660E-05  0.0079
   1.5206E+00   1.5576E+00   8.6559E-05  0.0079
   1.5576E+00   1.5955E+00   8.6376E-05  0.0078
   1.5955E+00   1.6343E+00   8.5020E-05  0.0078
   1.6343E+00   1.6741E+00   8.3670E-05  0.0078
   1.6741E+00   1.7148E+00   8.5792E-05  0.0076
   1.7148E+00   1.7565E+00   8.2954E-05  0.0076
   1.7565E+00   1.7992E+00   8.0424E-05  0.0076
   1.7992E+00   1.8430E+00   7.8089E-05  0.0076
   1.8430E+00   1.8879E+00   7.7971E-05  0.0076
   1.8879E+00   1.9338E+00   7.6614E-05  0.0075
   1.9338E+00   1.9808E+00   7.5204E-05  0.0075
   1.9808E+00   2.0290E+00   7.3584E-05  0.0075
   2.0290E+00   2.0784E+00   7.0959E-05  0.0076
   2.0784E+00   2.1290E+00   6.8739E-05  0.0076
   2.1290E+00   2.1808E+00   6.5583E-05  0.0077
   2.1808E+00   2.2338E+00   6.3061E-05  0.0077
   2.2338E+00   2.2882E+00   6.1607E-05  0.0077
   2.2882E+00   2.3439E+00   5.9420E-05  0.0078
   2.3439E+00   2.4009E+00   5.8555E-05  0.0077
   2.4009E+00   2.4593E+00   5.5317E-05  0.0079
   2.4593E+00   2.5191E+00   5.3175E-05  0.0079
   2.5191E+00   2.5804E+00   4.9321E-05  0.0081
   2.5804E+00   2.6432E+00   4.7901E-05  0.0082
   2.6432E+00   2.7075E+00   4.5472E-05  0.0083
   2.7075E+00   2.7734E+00   4.3525E-05  0.0084
   2.7734E+00   2.8409E+00   4.1595E-05  0.0084
   2.8409E+00   2.9100E+00   3.9884E-05  0.0085
   2.9100E+00   2.9808E+00   3.7900E-05  0.0086
   2.9808E+00   3.0533E+00   3.5469E-05  0.0088
   3.0533E+00   3.1276E+00   3.3286E-05  0.0090
   3.1276E+00   3.2037E+00   3.1470E-05  0.0091
   3.2037E+00   3.2817E+00   2.9078E-05  0.0094
   3.2817E+00   3.3615E+00   2.7308E-05  0.0096
   3.3615E+00   3.4433E+00   2.5109E-05  0.0099
   3.4433E+00   3.5271E+00   2.3756E-05  0.0100
   3.5271E+00   3.6129E+00   2.2462E-05  0.0102
   3.6129E+00   3.7008E+00   2.1075E-05  0.0104
   3.7008E+00   3.7908E+00   1.9217E-05  0.0108
   3.7908E+00   3.8831E+00   1.7753E-05  0.0111
   3.8831E+00   3.9776E+00   1.6569E-05  0.0113
   3.9776E+00   4.0743E+00   1.5384E-05  0.0116
   4.0743E+00   4.1735E+00   1.3923E-05  0.0120
   4.1735E+00   4.2750E+00   1.3147E-05  0.0122
   4.2750E+00   4.3790E+00   1.1866E-05  0.0127
   4.3790E+00   4.4856E+00   1.0902E-05  0.0131
   4.4856E+00   4.5947E+00   9.8051E-06  0.0137
   4.5947E+00   4.7065E+00   8.7948E-06  0.0143
   4.7065E+00   4.8210E+00   8.1423E-06  0.0146
   4.8210E+00   4.9383E+00   7.6522E-06  0.0149
   4.9383E+00   5.0585E+00   6.8130E-06  0.0156
   5.0585E+00   5.1815E+00   6.3083E-06  0.0161
   5.1815E+00   5.3076E+00   5.5857E-06  0.0169
   5.3076E+00   5.4368E+00   5.0550E-06  0.0175
   5.4368E+00   5.5690E+00   4.5373E-06  0.0183
   5.5690E+00   5.7045E+00   4.2436E-06  0.0187
   5.7045E+00   5.8433E+00   3.8805E-06  0.0193
   5.8433E+00   5.9855E+00   3.4254E-06  0.0203
   5.9855E+00   6.1311E+00   3.0060E-06  0.0214
   6.1311E+00   6.2803E+00   2.8673E-06  0.0216
   6.2803E+00   6.4331E+00   2.5355E-06  0.0227
   6.4331E+00   6.5896E+00   2.1462E-06  0.0244
   6.5896E+00   6.7500E+00   2.0367E-06  0.0247
   6.7500E+00   6.9142E+00   1.8150E-06  0.0259
   6.9142E+00   7.0824E+00   1.6859E-06  0.0265
   7.0824E+00   7.2548E+00   1.4968E-06  0.0278
   7.2548E+00   7.4313E+00   1.2322E-06  0.0303
   7.4313E+00   7.6121E+00   1.1250E-06  0.0313
   7.6121E+00   7.7973E+00   1.1075E-06  0.0312
   7.7973E+00   7.9870E+00   9.9001E-07  0.0326
   7.9870E+00   8.1813E+00   8.5562E-07  0.0346
   8.1813E+00   8.3804E+00   7.6568E-07  0.0362
   8.3804E+00   8.5843E+00   6.9147E-07  0.0376
   8.5843E+00   8.7931E+00   6.2625E-07  0.0391
   8.7931E+00   9.0071E+00   5.7772E-07  0.0402
   9.0071E+00   9.2262E+00   4.9555E-07  0.0429
   9.2262E+00   9.4507E+00   4.8690E-07  0.0427
   9.4507E+00   9.6807E+00   4.1662E-07  0.0456
   9.6807E+00   9.9162E+00   3.6979E-07  0.0478
   9.9162E+00   1.0157E+01   3.5230E-07  0.0485
   1.0157E+01   1.0405E+01   3.6417E-07  0.0470
   1.0405E+01   1.0658E+01   2.8955E-07  0.0521
   1.0658E+01   1.0917E+01   2.8036E-07  0.0524
   1.0917E+01   1.1183E+01   2.3040E-07  0.0570
   1.1183E+01   1.1455E+01   2.1832E-07  0.0578
   1.1455E+01   1.1733E+01   1.8120E-07  0.0627
   1.1733E+01   1.2019E+01   1.7619E-07  0.0628
   1.2019E+01   1.2311E+01   1.7269E-07  0.0626
   1.2311E+01   1.2611E+01   1.6458E-07  0.0634
   1.2611E+01   1.2918E+01   1.4210E-07  0.0674
   1.2918E+01   1.3232E+01   1.3586E-07  0.0681
   1.3232E+01   1.3554E+01   1.3077E-07  0.0687
   1.3554E+01   1.3884E+01   1.3706E-07  0.0664
   1.3884E+01   1.4222E+01   1.2019E-07  0.0698
   1.4222E+01   1.4568E+01   1.0173E-07  0.0752
   1.4568E+01   1.4922E+01   1.0411E-07  0.0733
   1.4922E+01   1.5285E+01   8.8414E-08  0.0784
   1.5285E+01   1.5657E+01   9.0347E-08  0.0767
   1.5657E+01   1.6038E+01   8.7676E-08  0.0772
   1.6038E+01   1.6428E+01   7.0986E-08  0.0846
   1.6428E+01   1.6828E+01   8.0558E-08  0.0783
   1.6828E+01   1.7237E+01   6.5456E-08  0.0856
   1.7237E+01   1.7657E+01   5.4602E-08  0.0929
   1.7657E+01   1.8086E+01   5.4003E-08  0.0926
   1.8086E+01   1.8526E+01   5.7266E-08  0.0887
   1.8526E+01   1.8977E+01   4.4147E-08  0.0999
   1.8977E+01   1.9439E+01   4.9813E-08  0.0930
   1.9439E+01   1.9912E+01   3.5732E-08  0.1086
   1.9912E+01   2.0396E+01   2.9310E-08  0.1187
   2.0396E+01   2.0893E+01   2.3778E-08  0.1302
   2.0893E+01   2.1401E+01   2.1246E-08  0.1361
   2.1401E+01   2.1922E+01   2.0741E-08  0.1361
   2.1922E+01   2.2455E+01   2.3248E-08  0.1270
   2.2455E+01   2.3001E+01   2.3428E-08  0.1250
   2.3001E+01   2.3561E+01   2.0013E-08  0.1336
   2.3561E+01   2.4134E+01   1.7793E-08  0.1400
   2.4134E+01   2.4721E+01   1.7711E-08  0.1387
   2.4721E+01   2.5323E+01   1.6958E-08  0.1400
   2.5323E+01   2.5939E+01   1.4607E-08  0.1491
   2.5939E+01   2.6570E+01   1.6162E-08  0.1400
   2.6570E+01   2.7217E+01   1.1447E-08  0.1644
   2.7217E+01   2.7879E+01   1.1175E-08  0.1644
   2.7879E+01   2.8557E+01   8.5506E-09  0.1857
   2.8557E+01   2.9252E+01   9.4989E-09  0.1741
   2.9252E+01   2.9964E+01   9.5543E-09  0.1715
   2.9964E+01   3.0693E+01   8.2300E-09  0.1826
   3.0693E+01   3.1440E+01   5.6241E-09  0.2182
   3.1440E+01   3.2205E+01   5.7520E-09  0.2132
   3.2205E+01   3.2988E+01   6.6364E-09  0.1961
   3.2988E+01   3.3791E+01   4.7345E-09  0.2294
   3.3791E+01   3.4613E+01   3.4057E-09  0.2673
   3.4613E+01   3.5455E+01   3.3248E-09  0.2673
   3.5455E+01   3.6318E+01   4.8687E-09  0.2182
   3.6318E+01   3.7201E+01   3.3951E-09  0.2582
   3.7201E+01   3.8106E+01   2.6515E-09  0.2887
   3.8106E+01   3.9034E+01   1.9414E-09  0.3333
   3.9034E+01   3.9983E+01   8.4236E-10  0.5000
   3.9983E+01   4.0956E+01   2.0559E-09  0.3162
   4.0956E+01   4.1953E+01   2.2077E-09  0.3015
   4.1953E+01   4.2973E+01   7.8374E-10  0.5000
   4.2973E+01   4.4019E+01   7.6513E-10  0.5000
   4.4019E+01   4.5090E+01   5.6022E-10  0.5774
   4.5090E+01   4.6187E+01   0.0000E+00  0.0000
   4.6187E+01   4.7311E+01   0.0000E+00  0.0000
   4.7311E+01   4.8462E+01   1.7375E-10  1.0000
   4.8462E+01   4.9641E+01   3.3924E-10  0.7071
   4.9641E+01   5.0849E+01   0.0000E+00  0.0000
   5.0849E+01   5.2086E+01   0.0000E+00  0.0000
   5.2086E+01   5.3353E+01   0.0000E+00  0.0000
   5.3353E+01   5.4651E+01   0.0000E+00  0.0000
   5.4651E+01   5.5981E+01   0.0000E+00  0.0000
   5.5981E+01   5.7343E+01   0.0000E+00  0.0000
   5.7343E+01   5.8738E+01   0.0000E+00  0.0000
   5.8738E+01   6.0168E+01   0.0000E+00  0.0000
   6.0168E+01   6.1632E+01   0.0000E+00  0.0000
   6.1632E+01   6.3131E+01   0.0000E+00  0.0000
   6.3131E+01   6.4667E+01   0.0000E+00  0.0000
   6.4667E+01   6.6240E+01   0.0000E+00  0.0000
   6.6240E+01   6.7852E+01   0.0000E+00  0.0000
   6.7852E+01   6.9503E+01   0.0000E+00  0.0000
   6.9503E+01   7.1194E+01   0.0000E+00  0.0000
   7.1194E+01   7.2926E+01   0.0000E+00  0.0000
   7.2926E+01   7.4701E+01   0.0000E+00  0.0000
   7.4701E+01   7.6518E+01   0.0000E+00  0.0000
   7.6518E+01   7.8380E+01   0.0000E+00  0.0000
   7.8380E+01   8.0287E+01   0.0000E+00  0.0000
   8.0287E+01   8.2240E+01   0.0000E+00  0.0000
   8.2240E+01   8.4241E+01   0.0000E+00  0.0000
   8.4241E+01   8.6291E+01   0.0000E+00  0.0000
   8.6291E+01   8.8391E+01   0.0000E+00  0.0000
   8.8391E+01   9.0541E+01   0.0000E+00  0.0000
   9.0541E+01   9.2744E+01   0.0000E+00  0.0000
   9.2744E+01   9.5001E+01   0.0000E+00  0.0000
   9.5001E+01   9.7312E+01   0.0000E+00  0.0000
   9.7312E+01   9.9680E+01   0.0000E+00  0.0000
   9.9680E+01   1.0211E+02   0.0000E+00  0.0000
   1.0211E+02   1.0459E+02   0.0000E+00  0.0000
   1.0459E+02   1.0713E+02   0.0000E+00  0.0000
   1.0713E+02   1.0974E+02   0.0000E+00  0.0000
   1.0974E+02   1.1241E+02   0.0000E+00  0.0000
   1.1241E+02   1.1515E+02   0.0000E+00  0.0000
   1.1515E+02   1.1795E+02   0.0000E+00  0.0000
   1.1795E+02   1.2082E+02   0.0000E+00  0.0000
   1.2082E+02   1.2376E+02   0.0000E+00  0.0000
   1.2376E+02   1.2677E+02   0.0000E+00  0.0000
   1.2677E+02   1.2985E+02   0.0000E+00  0.0000
   1.2985E+02   1.3301E+02   0.0000E+00  0.0000
   1.3301E+02   1.3625E+02   0.0000E+00  0.0000
   1.3625E+02   1.3956E+02   0.0000E+00  0.0000
   1.3956E+02   1.4296E+02   0.0000E+00  0.0000
   1.4296E+02   1.4644E+02   0.0000E+00  0.0000
   1.4644E+02   1.5000E+02   0.0000E+00  0.0000

#   sum over                 3.1263E-06
'no. =    1   reg = 126 - 226'
msuc: {\huge [t-cross] in region mesh}
msdr: {\it plotted by \ANGEL \version}
msdl: {\it calculated by \PHITS  3.26}
wt: s(0.7)
\vspace{-3}
  region surface crossing
  area  &=&   1.0000E+00 [cm^2]
e:
 
# Information for Restart Calculation
# This calculation was newly started
# istdev =  2 # 1:Batch variance, 2:History variance
# resc2  = 5.00000000000000000E+09 # Total source weight or Total source weight / maxcas
# resc3  = 5.00000000000000000E+09 # Total history number or Total batch number
# maxcas =   100000000 # History / Batch, only used for istdev=1
# bitrseed = 0110100000100010111000001110001111001110100100011111101000111001 # bit data of rseed
