[ T-Cross ]
    title = [t-cross] in region mesh
     mesh =  reg            # mesh type is region-wise
      reg =    1            # number of crossing regions
      non     r-from    r-to       area
      1       104       204        1.000000    
   e-type =    3            # e-mesh is log given by emin, emax and ne
     emin =  1.0000000E-02  # minimum value of e-mesh points
     emax =   150.0000      # maximum value of e-mesh points
#    edel =  2.4039514E-02  # mesh width of e-mesh points
       ne =    400          # number of e-mesh points
#    data = ( e(i), i = 1, ne + 1 )
#           1.00000E-02  1.02433E-02  1.04925E-02  1.07478E-02  1.10093E-02
#           1.12772E-02  1.15516E-02  1.18326E-02  1.21205E-02  1.24154E-02
#           1.27175E-02  1.30269E-02  1.33439E-02  1.36686E-02  1.40011E-02
#           1.43418E-02  1.46907E-02  1.50482E-02  1.54143E-02  1.57894E-02
#           1.61735E-02  1.65670E-02  1.69701E-02  1.73830E-02  1.78060E-02
#           1.82392E-02  1.86830E-02  1.91375E-02  1.96032E-02  2.00801E-02
#           2.05687E-02  2.10692E-02  2.15818E-02  2.21069E-02  2.26448E-02
#           2.31957E-02  2.37601E-02  2.43382E-02  2.49304E-02  2.55369E-02
#           2.61583E-02  2.67947E-02  2.74467E-02  2.81145E-02  2.87985E-02
#           2.94992E-02  3.02169E-02  3.09521E-02  3.17052E-02  3.24766E-02
#           3.32668E-02  3.40762E-02  3.49053E-02  3.57546E-02  3.66246E-02
#           3.75157E-02  3.84284E-02  3.93634E-02  4.03212E-02  4.13022E-02
#           4.23071E-02  4.33365E-02  4.43909E-02  4.54710E-02  4.65773E-02
#           4.77106E-02  4.88714E-02  5.00605E-02  5.12785E-02  5.25262E-02
#           5.38042E-02  5.51133E-02  5.64542E-02  5.78278E-02  5.92348E-02
#           6.06760E-02  6.21523E-02  6.36645E-02  6.52135E-02  6.68002E-02
#           6.84255E-02  7.00904E-02  7.17957E-02  7.35426E-02  7.53319E-02
#           7.71648E-02  7.90423E-02  8.09655E-02  8.29354E-02  8.49533E-02
#           8.70203E-02  8.91376E-02  9.13064E-02  9.35279E-02  9.58035E-02
#           9.81345E-02  1.00522E-01  1.02968E-01  1.05473E-01  1.08040E-01
#           1.10668E-01  1.13361E-01  1.16119E-01  1.18944E-01  1.21838E-01
#           1.24803E-01  1.27839E-01  1.30950E-01  1.34136E-01  1.37399E-01
#           1.40742E-01  1.44167E-01  1.47675E-01  1.51268E-01  1.54948E-01
#           1.58718E-01  1.62580E-01  1.66535E-01  1.70587E-01  1.74738E-01
#           1.78989E-01  1.83344E-01  1.87805E-01  1.92375E-01  1.97055E-01
#           2.01850E-01  2.06761E-01  2.11792E-01  2.16945E-01  2.22223E-01
#           2.27630E-01  2.33169E-01  2.38842E-01  2.44653E-01  2.50605E-01
#           2.56703E-01  2.62949E-01  2.69346E-01  2.75900E-01  2.82613E-01
#           2.89489E-01  2.96532E-01  3.03747E-01  3.11138E-01  3.18708E-01
#           3.26462E-01  3.34405E-01  3.42542E-01  3.50876E-01  3.59413E-01
#           3.68158E-01  3.77116E-01  3.86291E-01  3.95690E-01  4.05317E-01
#           4.15179E-01  4.25281E-01  4.35628E-01  4.46227E-01  4.57084E-01
#           4.68205E-01  4.79597E-01  4.91266E-01  5.03219E-01  5.15463E-01
#           5.28005E-01  5.40851E-01  5.54011E-01  5.67490E-01  5.81298E-01
#           5.95441E-01  6.09929E-01  6.24769E-01  6.39970E-01  6.55541E-01
#           6.71491E-01  6.87828E-01  7.04564E-01  7.21706E-01  7.39266E-01
#           7.57253E-01  7.75678E-01  7.94551E-01  8.13883E-01  8.33685E-01
#           8.53969E-01  8.74747E-01  8.96030E-01  9.17831E-01  9.40163E-01
#           9.63038E-01  9.86469E-01  1.01047E+00  1.03506E+00  1.06024E+00
#           1.08604E+00  1.11246E+00  1.13953E+00  1.16725E+00  1.19565E+00
#           1.22474E+00  1.25454E+00  1.28507E+00  1.31633E+00  1.34836E+00
#           1.38117E+00  1.41477E+00  1.44920E+00  1.48446E+00  1.52057E+00
#           1.55757E+00  1.59547E+00  1.63429E+00  1.67405E+00  1.71478E+00
#           1.75650E+00  1.79924E+00  1.84302E+00  1.88786E+00  1.93379E+00
#           1.98084E+00  2.02904E+00  2.07841E+00  2.12898E+00  2.18078E+00
#           2.23384E+00  2.28819E+00  2.34386E+00  2.40089E+00  2.45930E+00
#           2.51914E+00  2.58043E+00  2.64322E+00  2.70753E+00  2.77341E+00
#           2.84088E+00  2.91001E+00  2.98081E+00  3.05333E+00  3.12762E+00
#           3.20372E+00  3.28167E+00  3.36152E+00  3.44330E+00  3.52708E+00
#           3.61290E+00  3.70080E+00  3.79085E+00  3.88308E+00  3.97756E+00
#           4.07434E+00  4.17347E+00  4.27501E+00  4.37903E+00  4.48557E+00
#           4.59471E+00  4.70650E+00  4.82102E+00  4.93832E+00  5.05847E+00
#           5.18155E+00  5.30762E+00  5.43676E+00  5.56904E+00  5.70453E+00
#           5.84333E+00  5.98550E+00  6.13114E+00  6.28031E+00  6.43312E+00
#           6.58964E+00  6.74997E+00  6.91420E+00  7.08243E+00  7.25475E+00
#           7.43126E+00  7.61207E+00  7.79728E+00  7.98700E+00  8.18133E+00
#           8.38038E+00  8.58428E+00  8.79315E+00  9.00709E+00  9.22624E+00
#           9.45072E+00  9.68067E+00  9.91620E+00  1.01575E+01  1.04046E+01
#           1.06578E+01  1.09171E+01  1.11827E+01  1.14548E+01  1.17335E+01
#           1.20190E+01  1.23114E+01  1.26109E+01  1.29178E+01  1.32321E+01
#           1.35540E+01  1.38838E+01  1.42216E+01  1.45676E+01  1.49221E+01
#           1.52851E+01  1.56570E+01  1.60380E+01  1.64282E+01  1.68279E+01
#           1.72374E+01  1.76568E+01  1.80864E+01  1.85264E+01  1.89772E+01
#           1.94389E+01  1.99119E+01  2.03963E+01  2.08926E+01  2.14009E+01
#           2.19216E+01  2.24550E+01  2.30014E+01  2.35610E+01  2.41343E+01
#           2.47215E+01  2.53230E+01  2.59391E+01  2.65702E+01  2.72167E+01
#           2.78789E+01  2.85572E+01  2.92520E+01  2.99637E+01  3.06928E+01
#           3.14396E+01  3.22045E+01  3.29881E+01  3.37907E+01  3.46128E+01
#           3.54550E+01  3.63177E+01  3.72013E+01  3.81064E+01  3.90336E+01
#           3.99833E+01  4.09561E+01  4.19526E+01  4.29734E+01  4.40189E+01
#           4.50900E+01  4.61870E+01  4.73108E+01  4.84619E+01  4.96410E+01
#           5.08488E+01  5.20860E+01  5.33533E+01  5.46514E+01  5.59812E+01
#           5.73432E+01  5.87384E+01  6.01676E+01  6.16315E+01  6.31311E+01
#           6.46671E+01  6.62405E+01  6.78522E+01  6.95031E+01  7.11941E+01
#           7.29263E+01  7.47007E+01  7.65182E+01  7.83800E+01  8.02870E+01
#           8.22405E+01  8.42414E+01  8.62911E+01  8.83906E+01  9.05412E+01
#           9.27442E+01  9.50007E+01  9.73122E+01  9.96799E+01  1.02105E+02
#           1.04589E+02  1.07134E+02  1.09741E+02  1.12411E+02  1.15146E+02
#           1.17948E+02  1.20817E+02  1.23757E+02  1.26768E+02  1.29852E+02
#           1.33012E+02  1.36248E+02  1.39563E+02  1.42959E+02  1.46437E+02
#           1.50000E+02
     unit =    2            # unit is [1/cm^2/(MeV/n)/source]
     axis =  eng            # axis of output
     file = detector-05.out  # file name of output for the above axis
   output = f-curr          # surface crossing forward current spectrum
     part =  neutron  
# kf/name :  2112     
#    used :        main (  %)        temp (  %)       total (  %)
#  memory :         414 (  0)           0 (  0)         414 (  0)

#------------------------------------------------------------------------------
#newpage:
#   no. =    1   reg = 104 - 204

x: Energy [MeV/n]
y:  F-Curr [1/cm^2/(MeV/n)/source]         
p: xlog ylog afac(0.8) form(0.9)
h: n            x            y(neutron ),hh0l   n 
#  e-lower      e-upper      neutron     r.err 
   1.0000E-02   1.0243E-02   0.0000E+00  0.0000
   1.0243E-02   1.0493E-02   0.0000E+00  0.0000
   1.0493E-02   1.0748E-02   0.0000E+00  0.0000
   1.0748E-02   1.1009E-02   0.0000E+00  0.0000
   1.1009E-02   1.1277E-02   0.0000E+00  0.0000
   1.1277E-02   1.1552E-02   7.2891E-07  1.0000
   1.1552E-02   1.1833E-02   0.0000E+00  0.0000
   1.1833E-02   1.2121E-02   1.3894E-06  0.7071
   1.2121E-02   1.2415E-02   0.0000E+00  0.0000
   1.2415E-02   1.2718E-02   6.6208E-07  1.0000
   1.2718E-02   1.3027E-02   6.4636E-07  1.0000
   1.3027E-02   1.3344E-02   6.3100E-07  1.0000
   1.3344E-02   1.3669E-02   0.0000E+00  0.0000
   1.3669E-02   1.4001E-02   0.0000E+00  0.0000
   1.4001E-02   1.4342E-02   0.0000E+00  0.0000
   1.4342E-02   1.4691E-02   0.0000E+00  0.0000
   1.4691E-02   1.5048E-02   0.0000E+00  0.0000
   1.5048E-02   1.5414E-02   0.0000E+00  0.0000
   1.5414E-02   1.5789E-02   5.3327E-07  1.0000
   1.5789E-02   1.6174E-02   0.0000E+00  0.0000
   1.6174E-02   1.6567E-02   0.0000E+00  0.0000
   1.6567E-02   1.6970E-02   0.0000E+00  0.0000
   1.6970E-02   1.7383E-02   0.0000E+00  0.0000
   1.7383E-02   1.7806E-02   0.0000E+00  0.0000
   1.7806E-02   1.8239E-02   0.0000E+00  0.0000
   1.8239E-02   1.8683E-02   0.0000E+00  0.0000
   1.8683E-02   1.9138E-02   3.8449E-07  1.0000
   1.9138E-02   1.9603E-02   4.2952E-07  1.0000
   1.9603E-02   2.0080E-02   0.0000E+00  0.0000
   2.0080E-02   2.0569E-02   9.1340E-07  0.6422
   2.0569E-02   2.1069E-02   7.9928E-07  0.7071
   2.1069E-02   2.1582E-02   7.8029E-07  0.7071
   2.1582E-02   2.2107E-02   0.0000E+00  0.0000
   2.2107E-02   2.2645E-02   3.7183E-07  1.0000
   2.2645E-02   2.3196E-02   5.4450E-07  0.7454
   2.3196E-02   2.3760E-02   3.5438E-07  1.0000
   2.3760E-02   2.4338E-02   1.0379E-06  0.5774
   2.4338E-02   2.4930E-02   3.3774E-07  1.0000
   2.4930E-02   2.5537E-02   9.8916E-07  0.5774
   2.5537E-02   2.6158E-02   7.3055E-07  0.6343
   2.6158E-02   2.6795E-02   3.7897E-07  0.8466
   2.6795E-02   2.7447E-02   6.1356E-07  0.7071
   2.7447E-02   2.8114E-02   1.0744E-06  0.5098
   2.8114E-02   2.8799E-02   1.8991E-06  0.3847
   2.8799E-02   2.9499E-02   2.8543E-07  1.0000
   2.9499E-02   3.0217E-02   1.7896E-06  0.3870
   3.0217E-02   3.0952E-02   6.1419E-07  0.6316
   3.0952E-02   3.1705E-02   1.4208E-06  0.4230
   3.1705E-02   3.2477E-02   1.2711E-06  0.4474
   3.2477E-02   3.3267E-02   5.0621E-07  0.7071
   3.3267E-02   3.4076E-02   4.9419E-07  0.7071
   3.4076E-02   3.4905E-02   1.3882E-06  0.3960
   3.4905E-02   3.5755E-02   5.2812E-07  0.6398
   3.5755E-02   3.6625E-02   9.4837E-07  0.4858
   3.6625E-02   3.7516E-02   3.0200E-07  0.7863
   3.7516E-02   3.8428E-02   6.5733E-07  0.5774
   3.8428E-02   3.9363E-02   2.1391E-06  0.3162
   3.9363E-02   4.0321E-02   1.0595E-06  0.4093
   4.0321E-02   4.1302E-02   1.9818E-06  0.3130
   4.1302E-02   4.2307E-02   1.1620E-06  0.3929
   4.2307E-02   4.3337E-02   1.7936E-06  0.3259
   4.3337E-02   4.4391E-02   1.6769E-06  0.3338
   4.4391E-02   4.5471E-02   2.1093E-06  0.2922
   4.5471E-02   4.6577E-02   9.4711E-07  0.4292
   4.6577E-02   4.7711E-02   2.7272E-06  0.2515
   4.7711E-02   4.8871E-02   2.8143E-06  0.2427
   4.8871E-02   5.0061E-02   2.3034E-06  0.2588
   5.0061E-02   5.1279E-02   2.3764E-06  0.2596
   5.1279E-02   5.2526E-02   1.6817E-06  0.3032
   5.2526E-02   5.3804E-02   2.2664E-06  0.2594
   5.3804E-02   5.5113E-02   3.0405E-06  0.2202
   5.5113E-02   5.6454E-02   2.4570E-06  0.2392
   5.6454E-02   5.7828E-02   2.3538E-06  0.2470
   5.7828E-02   5.9235E-02   2.1401E-06  0.2549
   5.9235E-02   6.0676E-02   2.8479E-06  0.2181
   6.0676E-02   6.2152E-02   2.5908E-06  0.2238
   6.2152E-02   6.3665E-02   2.8331E-06  0.2132
   6.3665E-02   6.5214E-02   3.6282E-06  0.1838
   6.5214E-02   6.6800E-02   3.5088E-06  0.1851
   6.6800E-02   6.8426E-02   3.4626E-06  0.1863
   6.8426E-02   7.0090E-02   3.2793E-06  0.1882
   7.0090E-02   7.1796E-02   3.2582E-06  0.1876
   7.1796E-02   7.3543E-02   3.8177E-06  0.1707
   7.3543E-02   7.5332E-02   3.7211E-06  0.1685
   7.5332E-02   7.7165E-02   4.3142E-06  0.1554
   7.7165E-02   7.9042E-02   3.7318E-06  0.1636
   7.9042E-02   8.0965E-02   4.7990E-06  0.1449
   8.0965E-02   8.2935E-02   5.5450E-06  0.1321
   8.2935E-02   8.4953E-02   5.4018E-06  0.1316
   8.4953E-02   8.7020E-02   4.9582E-06  0.1381
   8.7020E-02   8.9138E-02   6.3026E-06  0.1199
   8.9138E-02   9.1306E-02   4.1289E-06  0.1450
   9.1306E-02   9.3528E-02   6.6636E-06  0.1142
   9.3528E-02   9.5804E-02   6.0434E-06  0.1188
   9.5804E-02   9.8134E-02   5.8170E-06  0.1187
   9.8134E-02   1.0052E-01   7.2029E-06  0.1068
   1.0052E-01   1.0297E-01   6.7968E-06  0.1078
   1.0297E-01   1.0547E-01   7.2387E-06  0.1020
   1.0547E-01   1.0804E-01   7.3145E-06  0.1015
   1.0804E-01   1.1067E-01   7.3087E-06  0.1002
   1.1067E-01   1.1336E-01   7.2205E-06  0.0989
   1.1336E-01   1.1612E-01   7.7397E-06  0.0948
   1.1612E-01   1.1894E-01   8.4863E-06  0.0892
   1.1894E-01   1.2184E-01   9.5280E-06  0.0831
   1.2184E-01   1.2480E-01   7.9175E-06  0.0904
   1.2480E-01   1.2784E-01   7.7336E-06  0.0898
   1.2784E-01   1.3095E-01   8.7922E-06  0.0840
   1.3095E-01   1.3414E-01   9.1052E-06  0.0814
   1.3414E-01   1.3740E-01   9.9048E-06  0.0763
   1.3740E-01   1.4074E-01   9.9553E-06  0.0756
   1.4074E-01   1.4417E-01   9.7862E-06  0.0752
   1.4417E-01   1.4767E-01   9.9520E-06  0.0740
   1.4767E-01   1.5127E-01   1.0687E-05  0.0702
   1.5127E-01   1.5495E-01   1.1861E-05  0.0664
   1.5495E-01   1.5872E-01   1.1659E-05  0.0659
   1.5872E-01   1.6258E-01   1.2173E-05  0.0635
   1.6258E-01   1.6654E-01   1.4551E-05  0.0579
   1.6654E-01   1.7059E-01   1.4327E-05  0.0576
   1.7059E-01   1.7474E-01   1.4216E-05  0.0572
   1.7474E-01   1.7899E-01   1.5020E-05  0.0549
   1.7899E-01   1.8334E-01   1.5569E-05  0.0531
   1.8334E-01   1.8781E-01   1.7930E-05  0.0491
   1.8781E-01   1.9237E-01   1.5416E-05  0.0523
   1.9237E-01   1.9706E-01   1.5988E-05  0.0507
   1.9706E-01   2.0185E-01   1.7081E-05  0.0484
   2.0185E-01   2.0676E-01   1.8366E-05  0.0461
   2.0676E-01   2.1179E-01   1.7166E-05  0.0472
   2.1179E-01   2.1694E-01   1.9179E-05  0.0441
   2.1694E-01   2.2222E-01   1.9859E-05  0.0427
   2.2222E-01   2.2763E-01   2.1011E-05  0.0412
   2.2763E-01   2.3317E-01   2.0443E-05  0.0411
   2.3317E-01   2.3884E-01   2.1435E-05  0.0398
   2.3884E-01   2.4465E-01   2.2871E-05  0.0381
   2.4465E-01   2.5061E-01   2.3047E-05  0.0375
   2.5061E-01   2.5670E-01   2.5181E-05  0.0354
   2.5670E-01   2.6295E-01   2.4412E-05  0.0356
   2.6295E-01   2.6935E-01   2.6874E-05  0.0335
   2.6935E-01   2.7590E-01   2.5491E-05  0.0340
   2.7590E-01   2.8261E-01   2.6517E-05  0.0330
   2.8261E-01   2.8949E-01   2.7616E-05  0.0319
   2.8949E-01   2.9653E-01   2.8983E-05  0.0308
   2.9653E-01   3.0375E-01   2.8859E-05  0.0304
   3.0375E-01   3.1114E-01   2.9173E-05  0.0299
   3.1114E-01   3.1871E-01   3.1134E-05  0.0287
   3.1871E-01   3.2646E-01   3.2645E-05  0.0277
   3.2646E-01   3.3441E-01   3.2316E-05  0.0275
   3.3441E-01   3.4254E-01   3.2438E-05  0.0271
   3.4254E-01   3.5088E-01   3.2166E-05  0.0269
   3.5088E-01   3.5941E-01   3.3505E-05  0.0260
   3.5941E-01   3.6816E-01   3.3617E-05  0.0257
   3.6816E-01   3.7712E-01   3.5126E-05  0.0249
   3.7712E-01   3.8629E-01   3.4394E-05  0.0248
   3.8629E-01   3.9569E-01   3.6272E-05  0.0239
   3.9569E-01   4.0532E-01   3.7320E-05  0.0233
   4.0532E-01   4.1518E-01   3.8833E-05  0.0226
   4.1518E-01   4.2528E-01   3.8100E-05  0.0226
   4.2528E-01   4.3563E-01   3.9143E-05  0.0220
   4.3563E-01   4.4623E-01   3.9465E-05  0.0216
   4.4623E-01   4.5708E-01   4.0915E-05  0.0210
   4.5708E-01   4.6821E-01   4.0492E-05  0.0208
   4.6821E-01   4.7960E-01   4.0884E-05  0.0205
   4.7960E-01   4.9127E-01   4.2917E-05  0.0198
   4.9127E-01   5.0322E-01   4.2616E-05  0.0196
   5.0322E-01   5.1546E-01   4.2531E-05  0.0194
   5.1546E-01   5.2800E-01   4.2989E-05  0.0191
   5.2800E-01   5.4085E-01   4.3815E-05  0.0187
   5.4085E-01   5.5401E-01   4.6614E-05  0.0179
   5.5401E-01   5.6749E-01   4.6059E-05  0.0178
   5.6749E-01   5.8130E-01   4.5212E-05  0.0177
   5.8130E-01   5.9544E-01   4.7469E-05  0.0171
   5.9544E-01   6.0993E-01   4.9178E-05  0.0166
   6.0993E-01   6.2477E-01   4.9580E-05  0.0163
   6.2477E-01   6.3997E-01   4.8892E-05  0.0163
   6.3997E-01   6.5554E-01   4.9029E-05  0.0161
   6.5554E-01   6.7149E-01   5.0242E-05  0.0157
   6.7149E-01   6.8783E-01   5.1612E-05  0.0153
   6.8783E-01   7.0456E-01   5.2092E-05  0.0150
   7.0456E-01   7.2171E-01   5.2057E-05  0.0148
   7.2171E-01   7.3927E-01   5.4145E-05  0.0144
   7.3927E-01   7.5725E-01   5.3924E-05  0.0142
   7.5725E-01   7.7568E-01   5.4098E-05  0.0140
   7.7568E-01   7.9455E-01   5.5284E-05  0.0137
   7.9455E-01   8.1388E-01   5.6253E-05  0.0134
   8.1388E-01   8.3368E-01   5.6159E-05  0.0133
   8.3368E-01   8.5397E-01   5.7175E-05  0.0130
   8.5397E-01   8.7475E-01   5.7849E-05  0.0128
   8.7475E-01   8.9603E-01   5.8454E-05  0.0126
   8.9603E-01   9.1783E-01   5.8740E-05  0.0124
   9.1783E-01   9.4016E-01   5.9122E-05  0.0122
   9.4016E-01   9.6304E-01   6.0995E-05  0.0119
   9.6304E-01   9.8647E-01   6.1288E-05  0.0117
   9.8647E-01   1.0105E+00   6.0627E-05  0.0116
   1.0105E+00   1.0351E+00   6.0650E-05  0.0115
   1.0351E+00   1.0602E+00   5.8687E-05  0.0115
   1.0602E+00   1.0860E+00   5.9812E-05  0.0113
   1.0860E+00   1.1125E+00   6.0799E-05  0.0111
   1.1125E+00   1.1395E+00   6.0046E-05  0.0110
   1.1395E+00   1.1673E+00   5.9003E-05  0.0109
   1.1673E+00   1.1957E+00   6.0075E-05  0.0107
   1.1957E+00   1.2247E+00   5.9817E-05  0.0106
   1.2247E+00   1.2545E+00   5.9593E-05  0.0105
   1.2545E+00   1.2851E+00   5.8652E-05  0.0105
   1.2851E+00   1.3163E+00   5.8698E-05  0.0103
   1.3163E+00   1.3484E+00   5.7299E-05  0.0103
   1.3484E+00   1.3812E+00   5.7984E-05  0.0101
   1.3812E+00   1.4148E+00   5.8250E-05  0.0100
   1.4148E+00   1.4492E+00   5.8143E-05  0.0099
   1.4492E+00   1.4845E+00   5.8014E-05  0.0098
   1.4845E+00   1.5206E+00   5.7787E-05  0.0097
   1.5206E+00   1.5576E+00   5.6376E-05  0.0097
   1.5576E+00   1.5955E+00   5.7049E-05  0.0095
   1.5955E+00   1.6343E+00   5.5883E-05  0.0095
   1.6343E+00   1.6741E+00   5.6035E-05  0.0094
   1.6741E+00   1.7148E+00   5.5813E-05  0.0093
   1.7148E+00   1.7565E+00   5.4855E-05  0.0092
   1.7565E+00   1.7992E+00   5.4657E-05  0.0091
   1.7992E+00   1.8430E+00   5.4641E-05  0.0090
   1.8430E+00   1.8879E+00   5.4169E-05  0.0089
   1.8879E+00   1.9338E+00   5.3874E-05  0.0089
   1.9338E+00   1.9808E+00   5.3354E-05  0.0088
   1.9808E+00   2.0290E+00   5.2702E-05  0.0087
   2.0290E+00   2.0784E+00   5.3239E-05  0.0086
   2.0784E+00   2.1290E+00   5.2514E-05  0.0085
   2.1290E+00   2.1808E+00   5.2849E-05  0.0084
   2.1808E+00   2.2338E+00   5.2286E-05  0.0083
   2.2338E+00   2.2882E+00   5.1295E-05  0.0083
   2.2882E+00   2.3439E+00   5.0590E-05  0.0083
   2.3439E+00   2.4009E+00   5.1010E-05  0.0081
   2.4009E+00   2.4593E+00   4.9553E-05  0.0082
   2.4593E+00   2.5191E+00   4.9799E-05  0.0080
   2.5191E+00   2.5804E+00   4.8958E-05  0.0080
   2.5804E+00   2.6432E+00   4.7137E-05  0.0081
   2.6432E+00   2.7075E+00   4.7222E-05  0.0079
   2.7075E+00   2.7734E+00   4.6760E-05  0.0079
   2.7734E+00   2.8409E+00   4.6400E-05  0.0078
   2.8409E+00   2.9100E+00   4.5907E-05  0.0078
   2.9100E+00   2.9808E+00   4.4991E-05  0.0078
   2.9808E+00   3.0533E+00   4.5092E-05  0.0077
   3.0533E+00   3.1276E+00   4.4138E-05  0.0076
   3.1276E+00   3.2037E+00   4.4162E-05  0.0076
   3.2037E+00   3.2817E+00   4.2753E-05  0.0076
   3.2817E+00   3.3615E+00   4.2465E-05  0.0075
   3.3615E+00   3.4433E+00   4.1763E-05  0.0075
   3.4433E+00   3.5271E+00   4.1168E-05  0.0075
   3.5271E+00   3.6129E+00   4.0465E-05  0.0074
   3.6129E+00   3.7008E+00   4.0067E-05  0.0074
   3.7008E+00   3.7908E+00   4.0062E-05  0.0073
   3.7908E+00   3.8831E+00   3.8816E-05  0.0073
   3.8831E+00   3.9776E+00   3.8011E-05  0.0073
   3.9776E+00   4.0743E+00   3.7099E-05  0.0073
   4.0743E+00   4.1735E+00   3.6411E-05  0.0073
   4.1735E+00   4.2750E+00   3.5780E-05  0.0072
   4.2750E+00   4.3790E+00   3.5489E-05  0.0072
   4.3790E+00   4.4856E+00   3.4754E-05  0.0072
   4.4856E+00   4.5947E+00   3.3547E-05  0.0072
   4.5947E+00   4.7065E+00   3.3448E-05  0.0072
   4.7065E+00   4.8210E+00   3.2860E-05  0.0071
   4.8210E+00   4.9383E+00   3.2459E-05  0.0071
   4.9383E+00   5.0585E+00   3.2147E-05  0.0070
   5.0585E+00   5.1815E+00   3.3229E-05  0.0069
   5.1815E+00   5.3076E+00   3.3221E-05  0.0068
   5.3076E+00   5.4368E+00   3.2094E-05  0.0068
   5.4368E+00   5.5690E+00   3.1581E-05  0.0068
   5.5690E+00   5.7045E+00   3.1144E-05  0.0068
   5.7045E+00   5.8433E+00   3.0567E-05  0.0067
   5.8433E+00   5.9855E+00   2.9796E-05  0.0068
   5.9855E+00   6.1311E+00   2.9231E-05  0.0067
   6.1311E+00   6.2803E+00   2.8799E-05  0.0067
   6.2803E+00   6.4331E+00   2.8531E-05  0.0067
   6.4331E+00   6.5896E+00   2.8402E-05  0.0066
   6.5896E+00   6.7500E+00   2.7769E-05  0.0066
   6.7500E+00   6.9142E+00   2.7419E-05  0.0066
   6.9142E+00   7.0824E+00   2.6770E-05  0.0066
   7.0824E+00   7.2548E+00   2.6841E-05  0.0065
   7.2548E+00   7.4313E+00   2.6227E-05  0.0065
   7.4313E+00   7.6121E+00   2.5910E-05  0.0065
   7.6121E+00   7.7973E+00   2.5541E-05  0.0064
   7.7973E+00   7.9870E+00   2.5612E-05  0.0063
   7.9870E+00   8.1813E+00   2.5175E-05  0.0063
   8.1813E+00   8.3804E+00   2.4982E-05  0.0063
   8.3804E+00   8.5843E+00   2.5075E-05  0.0062
   8.5843E+00   8.7931E+00   2.4488E-05  0.0062
   8.7931E+00   9.0071E+00   2.4363E-05  0.0061
   9.0071E+00   9.2262E+00   2.4049E-05  0.0061
   9.2262E+00   9.4507E+00   2.4018E-05  0.0060
   9.4507E+00   9.6807E+00   2.3873E-05  0.0060
   9.6807E+00   9.9162E+00   2.3175E-05  0.0060
   9.9162E+00   1.0157E+01   2.3381E-05  0.0059
   1.0157E+01   1.0405E+01   2.3344E-05  0.0058
   1.0405E+01   1.0658E+01   2.3183E-05  0.0058
   1.0658E+01   1.0917E+01   2.3246E-05  0.0057
   1.0917E+01   1.1183E+01   2.3088E-05  0.0057
   1.1183E+01   1.1455E+01   2.3302E-05  0.0056
   1.1455E+01   1.1733E+01   2.2899E-05  0.0056
   1.1733E+01   1.2019E+01   2.3146E-05  0.0055
   1.2019E+01   1.2311E+01   2.3175E-05  0.0054
   1.2311E+01   1.2611E+01   2.3056E-05  0.0053
   1.2611E+01   1.2918E+01   2.3082E-05  0.0053
   1.2918E+01   1.3232E+01   2.3181E-05  0.0052
   1.3232E+01   1.3554E+01   2.3220E-05  0.0051
   1.3554E+01   1.3884E+01   2.2992E-05  0.0051
   1.3884E+01   1.4222E+01   2.3103E-05  0.0050
   1.4222E+01   1.4568E+01   2.3310E-05  0.0050
   1.4568E+01   1.4922E+01   2.3187E-05  0.0049
   1.4922E+01   1.5285E+01   2.3221E-05  0.0048
   1.5285E+01   1.5657E+01   2.3191E-05  0.0048
   1.5657E+01   1.6038E+01   2.3016E-05  0.0048
   1.6038E+01   1.6428E+01   2.3177E-05  0.0047
   1.6428E+01   1.6828E+01   2.3004E-05  0.0046
   1.6828E+01   1.7237E+01   2.2899E-05  0.0046
   1.7237E+01   1.7657E+01   2.3135E-05  0.0045
   1.7657E+01   1.8086E+01   2.2606E-05  0.0045
   1.8086E+01   1.8526E+01   2.2668E-05  0.0045
   1.8526E+01   1.8977E+01   2.2706E-05  0.0044
   1.8977E+01   1.9439E+01   2.2430E-05  0.0044
   1.9439E+01   1.9912E+01   2.2397E-05  0.0043
   1.9912E+01   2.0396E+01   2.2849E-05  0.0043
   2.0396E+01   2.0893E+01   2.3146E-05  0.0042
   2.0893E+01   2.1401E+01   2.3079E-05  0.0041
   2.1401E+01   2.1922E+01   2.2878E-05  0.0041
   2.1922E+01   2.2455E+01   2.2843E-05  0.0041
   2.2455E+01   2.3001E+01   2.2737E-05  0.0040
   2.3001E+01   2.3561E+01   2.2824E-05  0.0040
   2.3561E+01   2.4134E+01   2.2637E-05  0.0039
   2.4134E+01   2.4721E+01   2.2742E-05  0.0039
   2.4721E+01   2.5323E+01   2.2926E-05  0.0038
   2.5323E+01   2.5939E+01   2.3248E-05  0.0037
   2.5939E+01   2.6570E+01   2.3764E-05  0.0037
   2.6570E+01   2.7217E+01   2.4591E-05  0.0035
   2.7217E+01   2.7879E+01   2.5804E-05  0.0034
   2.7879E+01   2.8557E+01   2.6931E-05  0.0033
   2.8557E+01   2.9252E+01   2.7501E-05  0.0032
   2.9252E+01   2.9964E+01   2.7517E-05  0.0032
   2.9964E+01   3.0693E+01   2.7487E-05  0.0032
   3.0693E+01   3.1440E+01   2.7100E-05  0.0031
   3.1440E+01   3.2205E+01   2.6645E-05  0.0031
   3.2205E+01   3.2988E+01   2.6264E-05  0.0031
   3.2988E+01   3.3791E+01   2.5861E-05  0.0031
   3.3791E+01   3.4613E+01   2.5605E-05  0.0031
   3.4613E+01   3.5455E+01   2.5163E-05  0.0031
   3.5455E+01   3.6318E+01   2.4853E-05  0.0031
   3.6318E+01   3.7201E+01   2.4450E-05  0.0030
   3.7201E+01   3.8106E+01   2.4190E-05  0.0030
   3.8106E+01   3.9034E+01   2.3721E-05  0.0030
   3.9034E+01   3.9983E+01   2.3318E-05  0.0030
   3.9983E+01   4.0956E+01   2.2669E-05  0.0030
   4.0956E+01   4.1953E+01   2.2306E-05  0.0030
   4.1953E+01   4.2973E+01   2.1778E-05  0.0030
   4.2973E+01   4.4019E+01   2.1267E-05  0.0030
   4.4019E+01   4.5090E+01   2.0694E-05  0.0030
   4.5090E+01   4.6187E+01   1.8694E-05  0.0031
   4.6187E+01   4.7311E+01   1.6494E-05  0.0033
   4.7311E+01   4.8462E+01   1.4071E-05  0.0035
   4.8462E+01   4.9641E+01   1.0643E-05  0.0040
   4.9641E+01   5.0849E+01   1.0221E-05  0.0040
   5.0849E+01   5.2086E+01   9.9304E-06  0.0040
   5.2086E+01   5.3353E+01   9.5689E-06  0.0041
   5.3353E+01   5.4651E+01   9.1134E-06  0.0041
   5.4651E+01   5.5981E+01   8.7250E-06  0.0042
   5.5981E+01   5.7343E+01   8.2795E-06  0.0042
   5.7343E+01   5.8738E+01   7.8287E-06  0.0043
   5.8738E+01   6.0168E+01   7.3424E-06  0.0044
   6.0168E+01   6.1632E+01   6.8263E-06  0.0045
   6.1632E+01   6.3131E+01   6.3895E-06  0.0046
   6.3131E+01   6.4667E+01   5.8074E-06  0.0047
   6.4667E+01   6.6240E+01   5.2246E-06  0.0049
   6.6240E+01   6.7852E+01   4.6817E-06  0.0051
   6.7852E+01   6.9503E+01   4.0732E-06  0.0055
   6.9503E+01   7.1194E+01   3.3547E-06  0.0059
   7.1194E+01   7.2926E+01   2.6413E-06  0.0066
   7.2926E+01   7.4701E+01   1.8687E-06  0.0078
   7.4701E+01   7.6518E+01   1.0721E-06  0.0101
   7.6518E+01   7.8380E+01   3.2872E-07  0.0181
   7.8380E+01   8.0287E+01   5.3486E-09  0.1400
   8.0287E+01   8.2240E+01   0.0000E+00  0.0000
   8.2240E+01   8.4241E+01   0.0000E+00  0.0000
   8.4241E+01   8.6291E+01   0.0000E+00  0.0000
   8.6291E+01   8.8391E+01   0.0000E+00  0.0000
   8.8391E+01   9.0541E+01   0.0000E+00  0.0000
   9.0541E+01   9.2744E+01   0.0000E+00  0.0000
   9.2744E+01   9.5001E+01   0.0000E+00  0.0000
   9.5001E+01   9.7312E+01   0.0000E+00  0.0000
   9.7312E+01   9.9680E+01   0.0000E+00  0.0000
   9.9680E+01   1.0211E+02   0.0000E+00  0.0000
   1.0211E+02   1.0459E+02   0.0000E+00  0.0000
   1.0459E+02   1.0713E+02   0.0000E+00  0.0000
   1.0713E+02   1.0974E+02   0.0000E+00  0.0000
   1.0974E+02   1.1241E+02   0.0000E+00  0.0000
   1.1241E+02   1.1515E+02   0.0000E+00  0.0000
   1.1515E+02   1.1795E+02   0.0000E+00  0.0000
   1.1795E+02   1.2082E+02   0.0000E+00  0.0000
   1.2082E+02   1.2376E+02   0.0000E+00  0.0000
   1.2376E+02   1.2677E+02   0.0000E+00  0.0000
   1.2677E+02   1.2985E+02   0.0000E+00  0.0000
   1.2985E+02   1.3301E+02   0.0000E+00  0.0000
   1.3301E+02   1.3625E+02   0.0000E+00  0.0000
   1.3625E+02   1.3956E+02   0.0000E+00  0.0000
   1.3956E+02   1.4296E+02   0.0000E+00  0.0000
   1.4296E+02   1.4644E+02   0.0000E+00  0.0000
   1.4644E+02   1.5000E+02   0.0000E+00  0.0000

#   sum over                 9.4470E-06
'no. =    1   reg = 104 - 204'
msuc: {\huge [t-cross] in region mesh}
msdr: {\it plotted by \ANGEL \version}
msdl: {\it calculated by \PHITS  3.26}
wt: s(0.7)
\vspace{-3}
  region surface crossing
  area  &=&   1.0000E+00 [cm^2]
e:
 
# Information for Restart Calculation
# This calculation was newly started
# istdev =  2 # 1:Batch variance, 2:History variance
# resc2  = 5.00000000000000000E+09 # Total source weight or Total source weight / maxcas
# resc3  = 5.00000000000000000E+09 # Total history number or Total batch number
# maxcas =   100000000 # History / Batch, only used for istdev=1
# bitrseed = 0110100000100010111000001110001111001110100100011111101000111001 # bit data of rseed
