[ T-Cross ]
    title = [t-cross] in region mesh
     mesh =  reg            # mesh type is region-wise
      reg =    1            # number of crossing regions
      non     r-from    r-to       area
      1       115       215        1.000000    
   e-type =    3            # e-mesh is log given by emin, emax and ne
     emin =  1.0000000E-02  # minimum value of e-mesh points
     emax =   150.0000      # maximum value of e-mesh points
#    edel =  2.4039514E-02  # mesh width of e-mesh points
       ne =    400          # number of e-mesh points
#    data = ( e(i), i = 1, ne + 1 )
#           1.00000E-02  1.02433E-02  1.04925E-02  1.07478E-02  1.10093E-02
#           1.12772E-02  1.15516E-02  1.18326E-02  1.21205E-02  1.24154E-02
#           1.27175E-02  1.30269E-02  1.33439E-02  1.36686E-02  1.40011E-02
#           1.43418E-02  1.46907E-02  1.50482E-02  1.54143E-02  1.57894E-02
#           1.61735E-02  1.65670E-02  1.69701E-02  1.73830E-02  1.78060E-02
#           1.82392E-02  1.86830E-02  1.91375E-02  1.96032E-02  2.00801E-02
#           2.05687E-02  2.10692E-02  2.15818E-02  2.21069E-02  2.26448E-02
#           2.31957E-02  2.37601E-02  2.43382E-02  2.49304E-02  2.55369E-02
#           2.61583E-02  2.67947E-02  2.74467E-02  2.81145E-02  2.87985E-02
#           2.94992E-02  3.02169E-02  3.09521E-02  3.17052E-02  3.24766E-02
#           3.32668E-02  3.40762E-02  3.49053E-02  3.57546E-02  3.66246E-02
#           3.75157E-02  3.84284E-02  3.93634E-02  4.03212E-02  4.13022E-02
#           4.23071E-02  4.33365E-02  4.43909E-02  4.54710E-02  4.65773E-02
#           4.77106E-02  4.88714E-02  5.00605E-02  5.12785E-02  5.25262E-02
#           5.38042E-02  5.51133E-02  5.64542E-02  5.78278E-02  5.92348E-02
#           6.06760E-02  6.21523E-02  6.36645E-02  6.52135E-02  6.68002E-02
#           6.84255E-02  7.00904E-02  7.17957E-02  7.35426E-02  7.53319E-02
#           7.71648E-02  7.90423E-02  8.09655E-02  8.29354E-02  8.49533E-02
#           8.70203E-02  8.91376E-02  9.13064E-02  9.35279E-02  9.58035E-02
#           9.81345E-02  1.00522E-01  1.02968E-01  1.05473E-01  1.08040E-01
#           1.10668E-01  1.13361E-01  1.16119E-01  1.18944E-01  1.21838E-01
#           1.24803E-01  1.27839E-01  1.30950E-01  1.34136E-01  1.37399E-01
#           1.40742E-01  1.44167E-01  1.47675E-01  1.51268E-01  1.54948E-01
#           1.58718E-01  1.62580E-01  1.66535E-01  1.70587E-01  1.74738E-01
#           1.78989E-01  1.83344E-01  1.87805E-01  1.92375E-01  1.97055E-01
#           2.01850E-01  2.06761E-01  2.11792E-01  2.16945E-01  2.22223E-01
#           2.27630E-01  2.33169E-01  2.38842E-01  2.44653E-01  2.50605E-01
#           2.56703E-01  2.62949E-01  2.69346E-01  2.75900E-01  2.82613E-01
#           2.89489E-01  2.96532E-01  3.03747E-01  3.11138E-01  3.18708E-01
#           3.26462E-01  3.34405E-01  3.42542E-01  3.50876E-01  3.59413E-01
#           3.68158E-01  3.77116E-01  3.86291E-01  3.95690E-01  4.05317E-01
#           4.15179E-01  4.25281E-01  4.35628E-01  4.46227E-01  4.57084E-01
#           4.68205E-01  4.79597E-01  4.91266E-01  5.03219E-01  5.15463E-01
#           5.28005E-01  5.40851E-01  5.54011E-01  5.67490E-01  5.81298E-01
#           5.95441E-01  6.09929E-01  6.24769E-01  6.39970E-01  6.55541E-01
#           6.71491E-01  6.87828E-01  7.04564E-01  7.21706E-01  7.39266E-01
#           7.57253E-01  7.75678E-01  7.94551E-01  8.13883E-01  8.33685E-01
#           8.53969E-01  8.74747E-01  8.96030E-01  9.17831E-01  9.40163E-01
#           9.63038E-01  9.86469E-01  1.01047E+00  1.03506E+00  1.06024E+00
#           1.08604E+00  1.11246E+00  1.13953E+00  1.16725E+00  1.19565E+00
#           1.22474E+00  1.25454E+00  1.28507E+00  1.31633E+00  1.34836E+00
#           1.38117E+00  1.41477E+00  1.44920E+00  1.48446E+00  1.52057E+00
#           1.55757E+00  1.59547E+00  1.63429E+00  1.67405E+00  1.71478E+00
#           1.75650E+00  1.79924E+00  1.84302E+00  1.88786E+00  1.93379E+00
#           1.98084E+00  2.02904E+00  2.07841E+00  2.12898E+00  2.18078E+00
#           2.23384E+00  2.28819E+00  2.34386E+00  2.40089E+00  2.45930E+00
#           2.51914E+00  2.58043E+00  2.64322E+00  2.70753E+00  2.77341E+00
#           2.84088E+00  2.91001E+00  2.98081E+00  3.05333E+00  3.12762E+00
#           3.20372E+00  3.28167E+00  3.36152E+00  3.44330E+00  3.52708E+00
#           3.61290E+00  3.70080E+00  3.79085E+00  3.88308E+00  3.97756E+00
#           4.07434E+00  4.17347E+00  4.27501E+00  4.37903E+00  4.48557E+00
#           4.59471E+00  4.70650E+00  4.82102E+00  4.93832E+00  5.05847E+00
#           5.18155E+00  5.30762E+00  5.43676E+00  5.56904E+00  5.70453E+00
#           5.84333E+00  5.98550E+00  6.13114E+00  6.28031E+00  6.43312E+00
#           6.58964E+00  6.74997E+00  6.91420E+00  7.08243E+00  7.25475E+00
#           7.43126E+00  7.61207E+00  7.79728E+00  7.98700E+00  8.18133E+00
#           8.38038E+00  8.58428E+00  8.79315E+00  9.00709E+00  9.22624E+00
#           9.45072E+00  9.68067E+00  9.91620E+00  1.01575E+01  1.04046E+01
#           1.06578E+01  1.09171E+01  1.11827E+01  1.14548E+01  1.17335E+01
#           1.20190E+01  1.23114E+01  1.26109E+01  1.29178E+01  1.32321E+01
#           1.35540E+01  1.38838E+01  1.42216E+01  1.45676E+01  1.49221E+01
#           1.52851E+01  1.56570E+01  1.60380E+01  1.64282E+01  1.68279E+01
#           1.72374E+01  1.76568E+01  1.80864E+01  1.85264E+01  1.89772E+01
#           1.94389E+01  1.99119E+01  2.03963E+01  2.08926E+01  2.14009E+01
#           2.19216E+01  2.24550E+01  2.30014E+01  2.35610E+01  2.41343E+01
#           2.47215E+01  2.53230E+01  2.59391E+01  2.65702E+01  2.72167E+01
#           2.78789E+01  2.85572E+01  2.92520E+01  2.99637E+01  3.06928E+01
#           3.14396E+01  3.22045E+01  3.29881E+01  3.37907E+01  3.46128E+01
#           3.54550E+01  3.63177E+01  3.72013E+01  3.81064E+01  3.90336E+01
#           3.99833E+01  4.09561E+01  4.19526E+01  4.29734E+01  4.40189E+01
#           4.50900E+01  4.61870E+01  4.73108E+01  4.84619E+01  4.96410E+01
#           5.08488E+01  5.20860E+01  5.33533E+01  5.46514E+01  5.59812E+01
#           5.73432E+01  5.87384E+01  6.01676E+01  6.16315E+01  6.31311E+01
#           6.46671E+01  6.62405E+01  6.78522E+01  6.95031E+01  7.11941E+01
#           7.29263E+01  7.47007E+01  7.65182E+01  7.83800E+01  8.02870E+01
#           8.22405E+01  8.42414E+01  8.62911E+01  8.83906E+01  9.05412E+01
#           9.27442E+01  9.50007E+01  9.73122E+01  9.96799E+01  1.02105E+02
#           1.04589E+02  1.07134E+02  1.09741E+02  1.12411E+02  1.15146E+02
#           1.17948E+02  1.20817E+02  1.23757E+02  1.26768E+02  1.29852E+02
#           1.33012E+02  1.36248E+02  1.39563E+02  1.42959E+02  1.46437E+02
#           1.50000E+02
     unit =    2            # unit is [1/cm^2/(MeV/n)/source]
     axis =  eng            # axis of output
     file = detector-16.out  # file name of output for the above axis
   output = f-curr          # surface crossing forward current spectrum
     part =  neutron  
# kf/name :  2112     
#    used :        main (  %)        temp (  %)       total (  %)
#  memory :         414 (  0)           0 (  0)         414 (  0)

#------------------------------------------------------------------------------
#newpage:
#   no. =    1   reg = 115 - 215

x: Energy [MeV/n]
y:  F-Curr [1/cm^2/(MeV/n)/source]         
p: xlog ylog afac(0.8) form(0.9)
h: n            x            y(neutron ),hh0l   n 
#  e-lower      e-upper      neutron     r.err 
   1.0000E-02   1.0243E-02   0.0000E+00  0.0000
   1.0243E-02   1.0493E-02   0.0000E+00  0.0000
   1.0493E-02   1.0748E-02   0.0000E+00  0.0000
   1.0748E-02   1.1009E-02   0.0000E+00  0.0000
   1.1009E-02   1.1277E-02   0.0000E+00  0.0000
   1.1277E-02   1.1552E-02   0.0000E+00  0.0000
   1.1552E-02   1.1833E-02   0.0000E+00  0.0000
   1.1833E-02   1.2121E-02   0.0000E+00  0.0000
   1.2121E-02   1.2415E-02   6.7819E-07  1.0000
   1.2415E-02   1.2718E-02   6.6208E-07  1.0000
   1.2718E-02   1.3027E-02   0.0000E+00  0.0000
   1.3027E-02   1.3344E-02   0.0000E+00  0.0000
   1.3344E-02   1.3669E-02   0.0000E+00  0.0000
   1.3669E-02   1.4001E-02   1.1526E-06  0.7078
   1.4001E-02   1.4342E-02   5.8710E-07  1.0000
   1.4342E-02   1.4691E-02   0.0000E+00  0.0000
   1.4691E-02   1.5048E-02   5.5954E-07  1.0000
   1.5048E-02   1.5414E-02   0.0000E+00  0.0000
   1.5414E-02   1.5789E-02   0.0000E+00  0.0000
   1.5789E-02   1.6174E-02   5.2061E-07  1.0000
   1.6174E-02   1.6567E-02   1.0165E-06  0.7071
   1.6567E-02   1.6970E-02   4.9617E-07  1.0000
   1.6970E-02   1.7383E-02   5.7534E-07  0.8566
   1.7383E-02   1.7806E-02   0.0000E+00  0.0000
   1.7806E-02   1.8239E-02   0.0000E+00  0.0000
   1.8239E-02   1.8683E-02   0.0000E+00  0.0000
   1.8683E-02   1.9138E-02   8.7995E-07  0.7071
   1.9138E-02   1.9603E-02   9.5737E-07  0.6427
   1.9603E-02   2.0080E-02   8.0798E-08  1.0000
   2.0080E-02   2.0569E-02   1.2281E-06  0.5774
   2.0569E-02   2.1069E-02   0.0000E+00  0.0000
   2.1069E-02   2.1582E-02   1.1704E-06  0.5774
   2.1582E-02   2.2107E-02   2.1646E-07  0.7739
   2.2107E-02   2.2645E-02   3.7183E-07  1.0000
   2.2645E-02   2.3196E-02   1.4520E-06  0.5000
   2.3196E-02   2.3760E-02   8.3571E-07  0.6186
   2.3760E-02   2.4338E-02   1.0984E-06  0.5483
   2.4338E-02   2.4930E-02   6.7548E-07  0.7071
   2.4930E-02   2.5537E-02   7.9750E-07  0.6098
   2.5537E-02   2.6158E-02   7.0548E-08  1.0000
   2.6158E-02   2.6795E-02   6.7181E-08  1.0000
   2.6795E-02   2.7447E-02   4.6017E-07  0.7454
   2.7447E-02   2.8114E-02   1.1980E-06  0.5000
   2.8114E-02   2.8799E-02   1.2154E-06  0.4826
   2.8799E-02   2.9499E-02   1.2225E-06  0.4673
   2.9499E-02   3.0217E-02   4.9361E-07  0.6404
   3.0217E-02   3.0952E-02   1.3036E-06  0.4345
   3.0952E-02   3.1705E-02   1.3320E-06  0.4129
   3.1705E-02   3.2477E-02   1.8753E-06  0.3672
   3.2477E-02   3.3267E-02   9.6977E-07  0.4698
   3.3267E-02   3.4076E-02   1.9525E-06  0.3427
   3.4076E-02   3.4905E-02   1.6434E-06  0.3669
   3.4905E-02   3.5755E-02   2.8403E-06  0.2785
   3.5755E-02   3.6625E-02   1.4281E-06  0.3958
   3.6625E-02   3.7516E-02   2.2843E-06  0.3107
   3.7516E-02   3.8428E-02   2.0098E-06  0.3155
   3.8428E-02   3.9363E-02   6.4172E-07  0.5774
   3.9363E-02   4.0321E-02   3.4063E-06  0.2404
   4.0321E-02   4.1302E-02   2.7709E-06  0.2607
   4.1302E-02   4.2307E-02   2.7474E-06  0.2644
   4.2307E-02   4.3337E-02   3.3541E-06  0.2391
   4.3337E-02   4.4391E-02   2.1146E-06  0.2891
   4.4391E-02   4.5471E-02   2.6883E-06  0.2535
   4.5471E-02   4.6577E-02   2.2157E-06  0.2767
   4.6577E-02   4.7711E-02   2.0942E-06  0.2739
   4.7711E-02   4.8871E-02   2.7192E-06  0.2458
   4.8871E-02   5.0061E-02   2.4865E-06  0.2547
   5.0061E-02   5.1279E-02   2.0341E-06  0.2707
   5.1279E-02   5.2526E-02   3.5760E-06  0.2073
   5.2526E-02   5.3804E-02   3.5797E-06  0.2064
   5.3804E-02   5.5113E-02   3.9717E-06  0.1934
   5.5113E-02   5.6454E-02   4.2507E-06  0.1840
   5.6454E-02   5.7828E-02   4.9228E-06  0.1669
   5.7828E-02   5.9235E-02   4.8034E-06  0.1692
   5.9235E-02   6.0676E-02   4.1964E-06  0.1791
   6.0676E-02   6.2152E-02   4.2599E-06  0.1735
   6.2152E-02   6.3665E-02   4.4450E-06  0.1693
   6.3665E-02   6.5214E-02   4.8732E-06  0.1600
   6.5214E-02   6.6800E-02   5.9440E-06  0.1421
   6.6800E-02   6.8426E-02   5.9340E-06  0.1413
   6.8426E-02   7.0090E-02   5.4902E-06  0.1462
   7.0090E-02   7.1796E-02   6.6369E-06  0.1293
   7.1796E-02   7.3543E-02   6.2631E-06  0.1332
   7.3543E-02   7.5332E-02   6.4829E-06  0.1286
   7.5332E-02   7.7165E-02   6.3158E-06  0.1288
   7.7165E-02   7.9042E-02   5.5005E-06  0.1346
   7.9042E-02   8.0965E-02   7.0372E-06  0.1187
   8.0965E-02   8.2935E-02   6.7646E-06  0.1209
   8.2935E-02   8.4953E-02   6.1892E-06  0.1236
   8.4953E-02   8.7020E-02   8.0514E-06  0.1067
   8.7020E-02   8.9138E-02   9.6706E-06  0.0968
   8.9138E-02   9.1306E-02   8.8249E-06  0.1001
   9.1306E-02   9.3528E-02   1.0986E-05  0.0888
   9.3528E-02   9.5804E-02   1.0293E-05  0.0903
   9.5804E-02   9.8134E-02   8.1697E-06  0.0995
   9.8134E-02   1.0052E-01   1.1545E-05  0.0837
   1.0052E-01   1.0297E-01   1.1517E-05  0.0822
   1.0297E-01   1.0547E-01   1.2636E-05  0.0780
   1.0547E-01   1.0804E-01   1.3460E-05  0.0744
   1.0804E-01   1.1067E-01   1.0911E-05  0.0813
   1.1067E-01   1.1336E-01   1.3191E-05  0.0733
   1.1336E-01   1.1612E-01   1.4982E-05  0.0684
   1.1612E-01   1.1894E-01   1.4278E-05  0.0686
   1.1894E-01   1.2184E-01   1.5435E-05  0.0654
   1.2184E-01   1.2480E-01   1.5986E-05  0.0635
   1.2480E-01   1.2784E-01   1.6424E-05  0.0619
   1.2784E-01   1.3095E-01   1.6265E-05  0.0617
   1.3095E-01   1.3414E-01   1.8392E-05  0.0574
   1.3414E-01   1.3740E-01   1.8075E-05  0.0568
   1.3740E-01   1.4074E-01   1.9374E-05  0.0546
   1.4074E-01   1.4417E-01   1.8808E-05  0.0546
   1.4417E-01   1.4767E-01   1.9678E-05  0.0526
   1.4767E-01   1.5127E-01   2.2429E-05  0.0490
   1.5127E-01   1.5495E-01   2.2472E-05  0.0482
   1.5495E-01   1.5872E-01   2.4034E-05  0.0461
   1.5872E-01   1.6258E-01   2.2775E-05  0.0466
   1.6258E-01   1.6654E-01   2.3078E-05  0.0457
   1.6654E-01   1.7059E-01   2.6320E-05  0.0424
   1.7059E-01   1.7474E-01   2.5051E-05  0.0431
   1.7474E-01   1.7899E-01   2.6778E-05  0.0412
   1.7899E-01   1.8334E-01   3.0901E-05  0.0378
   1.8334E-01   1.8781E-01   2.9209E-05  0.0385
   1.8781E-01   1.9237E-01   3.1231E-05  0.0368
   1.9237E-01   1.9706E-01   3.3228E-05  0.0352
   1.9706E-01   2.0185E-01   3.5605E-05  0.0337
   2.0185E-01   2.0676E-01   3.3584E-05  0.0342
   2.0676E-01   2.1179E-01   3.4168E-05  0.0334
   2.1179E-01   2.1694E-01   3.9045E-05  0.0310
   2.1694E-01   2.2222E-01   3.8984E-05  0.0306
   2.2222E-01   2.2763E-01   4.2412E-05  0.0290
   2.2763E-01   2.3317E-01   4.1744E-05  0.0289
   2.3317E-01   2.3884E-01   4.4871E-05  0.0275
   2.3884E-01   2.4465E-01   4.4421E-05  0.0273
   2.4465E-01   2.5061E-01   4.7610E-05  0.0261
   2.5061E-01   2.5670E-01   4.8896E-05  0.0255
   2.5670E-01   2.6295E-01   5.2887E-05  0.0242
   2.6295E-01   2.6935E-01   4.9657E-05  0.0247
   2.6935E-01   2.7590E-01   5.5124E-05  0.0232
   2.7590E-01   2.8261E-01   5.5709E-05  0.0228
   2.8261E-01   2.8949E-01   5.7666E-05  0.0221
   2.8949E-01   2.9653E-01   6.0603E-05  0.0213
   2.9653E-01   3.0375E-01   6.3601E-05  0.0206
   3.0375E-01   3.1114E-01   6.4766E-05  0.0201
   3.1114E-01   3.1871E-01   6.8075E-05  0.0194
   3.1871E-01   3.2646E-01   6.7891E-05  0.0192
   3.2646E-01   3.3441E-01   7.4026E-05  0.0182
   3.3441E-01   3.4254E-01   7.3704E-05  0.0180
   3.4254E-01   3.5088E-01   7.6600E-05  0.0175
   3.5088E-01   3.5941E-01   8.0457E-05  0.0168
   3.5941E-01   3.6816E-01   8.2171E-05  0.0164
   3.6816E-01   3.7712E-01   8.1584E-05  0.0163
   3.7712E-01   3.8629E-01   8.6142E-05  0.0157
   3.8629E-01   3.9569E-01   8.8811E-05  0.0153
   3.9569E-01   4.0532E-01   8.8159E-05  0.0152
   4.0532E-01   4.1518E-01   9.2477E-05  0.0146
   4.1518E-01   4.2528E-01   9.8727E-05  0.0140
   4.2528E-01   4.3563E-01   1.0092E-04  0.0137
   4.3563E-01   4.4623E-01   1.0442E-04  0.0133
   4.4623E-01   4.5708E-01   1.0668E-04  0.0130
   4.5708E-01   4.6821E-01   1.0910E-04  0.0127
   4.6821E-01   4.7960E-01   1.1177E-04  0.0124
   4.7960E-01   4.9127E-01   1.1503E-04  0.0121
   4.9127E-01   5.0322E-01   1.1693E-04  0.0119
   5.0322E-01   5.1546E-01   1.2197E-04  0.0115
   5.1546E-01   5.2800E-01   1.2597E-04  0.0112
   5.2800E-01   5.4085E-01   1.3140E-04  0.0108
   5.4085E-01   5.5401E-01   1.3616E-04  0.0105
   5.5401E-01   5.6749E-01   1.3861E-04  0.0103
   5.6749E-01   5.8130E-01   1.4380E-04  0.0099
   5.8130E-01   5.9544E-01   1.4611E-04  0.0098
   5.9544E-01   6.0993E-01   1.5164E-04  0.0095
   6.0993E-01   6.2477E-01   1.5785E-04  0.0092
   6.2477E-01   6.3997E-01   1.6071E-04  0.0090
   6.3997E-01   6.5554E-01   1.6669E-04  0.0087
   6.5554E-01   6.7149E-01   1.7037E-04  0.0085
   6.7149E-01   6.8783E-01   1.7531E-04  0.0083
   6.8783E-01   7.0456E-01   1.7976E-04  0.0081
   7.0456E-01   7.2171E-01   1.8643E-04  0.0078
   7.2171E-01   7.3927E-01   1.9138E-04  0.0076
   7.3927E-01   7.5725E-01   1.9699E-04  0.0074
   7.5725E-01   7.7568E-01   2.0268E-04  0.0073
   7.7568E-01   7.9455E-01   2.0736E-04  0.0071
   7.9455E-01   8.1388E-01   2.1266E-04  0.0069
   8.1388E-01   8.3368E-01   2.1362E-04  0.0068
   8.3368E-01   8.5397E-01   2.2188E-04  0.0066
   8.5397E-01   8.7475E-01   2.3089E-04  0.0064
   8.7475E-01   8.9603E-01   2.3422E-04  0.0063
   8.9603E-01   9.1783E-01   2.4100E-04  0.0061
   9.1783E-01   9.4016E-01   2.4458E-04  0.0060
   9.4016E-01   9.6304E-01   2.5089E-04  0.0058
   9.6304E-01   9.8647E-01   2.5263E-04  0.0058
   9.8647E-01   1.0105E+00   2.5384E-04  0.0057
   1.0105E+00   1.0351E+00   2.5776E-04  0.0056
   1.0351E+00   1.0602E+00   2.5208E-04  0.0056
   1.0602E+00   1.0860E+00   2.5406E-04  0.0055
   1.0860E+00   1.1125E+00   2.5411E-04  0.0054
   1.1125E+00   1.1395E+00   2.4910E-04  0.0054
   1.1395E+00   1.1673E+00   2.5386E-04  0.0053
   1.1673E+00   1.1957E+00   2.5930E-04  0.0052
   1.1957E+00   1.2247E+00   2.5891E-04  0.0051
   1.2247E+00   1.2545E+00   2.5674E-04  0.0051
   1.2545E+00   1.2851E+00   2.5566E-04  0.0050
   1.2851E+00   1.3163E+00   2.5769E-04  0.0049
   1.3163E+00   1.3484E+00   2.5272E-04  0.0049
   1.3484E+00   1.3812E+00   2.5266E-04  0.0048
   1.3812E+00   1.4148E+00   2.5405E-04  0.0048
   1.4148E+00   1.4492E+00   2.5444E-04  0.0047
   1.4492E+00   1.4845E+00   2.5483E-04  0.0047
   1.4845E+00   1.5206E+00   2.5353E-04  0.0046
   1.5206E+00   1.5576E+00   2.5209E-04  0.0046
   1.5576E+00   1.5955E+00   2.5147E-04  0.0045
   1.5955E+00   1.6343E+00   2.4917E-04  0.0045
   1.6343E+00   1.6741E+00   2.4438E-04  0.0045
   1.6741E+00   1.7148E+00   2.4078E-04  0.0044
   1.7148E+00   1.7565E+00   2.4111E-04  0.0044
   1.7565E+00   1.7992E+00   2.3732E-04  0.0044
   1.7992E+00   1.8430E+00   2.3801E-04  0.0043
   1.8430E+00   1.8879E+00   2.3736E-04  0.0043
   1.8879E+00   1.9338E+00   2.3225E-04  0.0043
   1.9338E+00   1.9808E+00   2.3239E-04  0.0042
   1.9808E+00   2.0290E+00   2.2882E-04  0.0042
   2.0290E+00   2.0784E+00   2.2748E-04  0.0041
   2.0784E+00   2.1290E+00   2.2522E-04  0.0041
   2.1290E+00   2.1808E+00   2.1947E-04  0.0041
   2.1808E+00   2.2338E+00   2.1800E-04  0.0041
   2.2338E+00   2.2882E+00   2.1516E-04  0.0040
   2.2882E+00   2.3439E+00   2.1022E-04  0.0040
   2.3439E+00   2.4009E+00   2.0433E-04  0.0040
   2.4009E+00   2.4593E+00   2.0236E-04  0.0040
   2.4593E+00   2.5191E+00   1.9808E-04  0.0040
   2.5191E+00   2.5804E+00   1.9445E-04  0.0040
   2.5804E+00   2.6432E+00   1.8858E-04  0.0040
   2.6432E+00   2.7075E+00   1.8435E-04  0.0040
   2.7075E+00   2.7734E+00   1.8194E-04  0.0040
   2.7734E+00   2.8409E+00   1.7824E-04  0.0040
   2.8409E+00   2.9100E+00   1.7300E-04  0.0040
   2.9100E+00   2.9808E+00   1.6842E-04  0.0040
   2.9808E+00   3.0533E+00   1.6585E-04  0.0040
   3.0533E+00   3.1276E+00   1.6041E-04  0.0040
   3.1276E+00   3.2037E+00   1.5690E-04  0.0040
   3.2037E+00   3.2817E+00   1.5291E-04  0.0040
   3.2817E+00   3.3615E+00   1.4865E-04  0.0040
   3.3615E+00   3.4433E+00   1.4324E-04  0.0040
   3.4433E+00   3.5271E+00   1.4060E-04  0.0040
   3.5271E+00   3.6129E+00   1.3482E-04  0.0040
   3.6129E+00   3.7008E+00   1.3149E-04  0.0040
   3.7008E+00   3.7908E+00   1.2607E-04  0.0041
   3.7908E+00   3.8831E+00   1.2160E-04  0.0041
   3.8831E+00   3.9776E+00   1.1665E-04  0.0041
   3.9776E+00   4.0743E+00   1.1182E-04  0.0041
   4.0743E+00   4.1735E+00   1.0638E-04  0.0042
   4.1735E+00   4.2750E+00   1.0310E-04  0.0042
   4.2750E+00   4.3790E+00   9.8726E-05  0.0042
   4.3790E+00   4.4856E+00   9.4939E-05  0.0043
   4.4856E+00   4.5947E+00   9.1866E-05  0.0043
   4.5947E+00   4.7065E+00   8.8598E-05  0.0043
   4.7065E+00   4.8210E+00   8.5484E-05  0.0044
   4.8210E+00   4.9383E+00   8.2297E-05  0.0044
   4.9383E+00   5.0585E+00   7.9614E-05  0.0044
   5.0585E+00   5.1815E+00   7.7653E-05  0.0044
   5.1815E+00   5.3076E+00   7.5476E-05  0.0044
   5.3076E+00   5.4368E+00   7.3297E-05  0.0044
   5.4368E+00   5.5690E+00   6.9777E-05  0.0045
   5.5690E+00   5.7045E+00   6.8293E-05  0.0045
   5.7045E+00   5.8433E+00   6.6280E-05  0.0045
   5.8433E+00   5.9855E+00   6.4094E-05  0.0045
   5.9855E+00   6.1311E+00   6.2815E-05  0.0045
   6.1311E+00   6.2803E+00   6.1504E-05  0.0045
   6.2803E+00   6.4331E+00   5.9742E-05  0.0045
   6.4331E+00   6.5896E+00   5.8522E-05  0.0045
   6.5896E+00   6.7500E+00   5.7192E-05  0.0045
   6.7500E+00   6.9142E+00   5.5807E-05  0.0045
   6.9142E+00   7.0824E+00   5.4072E-05  0.0046
   7.0824E+00   7.2548E+00   5.3161E-05  0.0046
   7.2548E+00   7.4313E+00   5.1896E-05  0.0046
   7.4313E+00   7.6121E+00   5.0717E-05  0.0046
   7.6121E+00   7.7973E+00   4.9411E-05  0.0046
   7.7973E+00   7.9870E+00   4.8478E-05  0.0046
   7.9870E+00   8.1813E+00   4.7092E-05  0.0046
   8.1813E+00   8.3804E+00   4.5906E-05  0.0046
   8.3804E+00   8.5843E+00   4.4479E-05  0.0046
   8.5843E+00   8.7931E+00   4.2911E-05  0.0046
   8.7931E+00   9.0071E+00   4.1364E-05  0.0047
   9.0071E+00   9.2262E+00   3.9804E-05  0.0047
   9.2262E+00   9.4507E+00   3.8403E-05  0.0047
   9.4507E+00   9.6807E+00   3.7079E-05  0.0048
   9.6807E+00   9.9162E+00   3.5851E-05  0.0048
   9.9162E+00   1.0157E+01   3.4283E-05  0.0048
   1.0157E+01   1.0405E+01   3.3433E-05  0.0048
   1.0405E+01   1.0658E+01   3.2297E-05  0.0049
   1.0658E+01   1.0917E+01   3.1135E-05  0.0049
   1.0917E+01   1.1183E+01   3.0112E-05  0.0049
   1.1183E+01   1.1455E+01   2.8782E-05  0.0050
   1.1455E+01   1.1733E+01   2.7792E-05  0.0050
   1.1733E+01   1.2019E+01   2.6854E-05  0.0050
   1.2019E+01   1.2311E+01   2.5519E-05  0.0051
   1.2311E+01   1.2611E+01   2.4439E-05  0.0052
   1.2611E+01   1.2918E+01   2.3445E-05  0.0052
   1.2918E+01   1.3232E+01   2.2230E-05  0.0053
   1.3232E+01   1.3554E+01   2.1117E-05  0.0054
   1.3554E+01   1.3884E+01   2.0056E-05  0.0054
   1.3884E+01   1.4222E+01   1.9320E-05  0.0055
   1.4222E+01   1.4568E+01   1.8157E-05  0.0056
   1.4568E+01   1.4922E+01   1.7329E-05  0.0056
   1.4922E+01   1.5285E+01   1.6578E-05  0.0057
   1.5285E+01   1.5657E+01   1.5787E-05  0.0058
   1.5657E+01   1.6038E+01   1.4948E-05  0.0059
   1.6038E+01   1.6428E+01   1.3948E-05  0.0060
   1.6428E+01   1.6828E+01   1.2969E-05  0.0062
   1.6828E+01   1.7237E+01   1.2034E-05  0.0063
   1.7237E+01   1.7657E+01   1.1090E-05  0.0065
   1.7657E+01   1.8086E+01   1.0139E-05  0.0067
   1.8086E+01   1.8526E+01   9.3905E-06  0.0069
   1.8526E+01   1.8977E+01   8.9082E-06  0.0070
   1.8977E+01   1.9439E+01   8.2396E-06  0.0072
   1.9439E+01   1.9912E+01   7.7141E-06  0.0074
   1.9912E+01   2.0396E+01   7.7588E-06  0.0073
   2.0396E+01   2.0893E+01   7.2643E-06  0.0074
   2.0893E+01   2.1401E+01   6.8203E-06  0.0076
   2.1401E+01   2.1922E+01   6.4344E-06  0.0077
   2.1922E+01   2.2455E+01   6.1132E-06  0.0078
   2.2455E+01   2.3001E+01   5.6404E-06  0.0081
   2.3001E+01   2.3561E+01   5.2255E-06  0.0083
   2.3561E+01   2.4134E+01   4.8453E-06  0.0085
   2.4134E+01   2.4721E+01   4.3971E-06  0.0088
   2.4721E+01   2.5323E+01   3.8900E-06  0.0092
   2.5323E+01   2.5939E+01   3.4262E-06  0.0097
   2.5939E+01   2.6570E+01   3.0745E-06  0.0102
   2.6570E+01   2.7217E+01   2.6327E-06  0.0108
   2.7217E+01   2.7879E+01   2.3443E-06  0.0114
   2.7879E+01   2.8557E+01   1.9684E-06  0.0122
   2.8557E+01   2.9252E+01   1.7878E-06  0.0127
   2.9252E+01   2.9964E+01   1.5107E-06  0.0136
   2.9964E+01   3.0693E+01   1.2976E-06  0.0145
   3.0693E+01   3.1440E+01   1.1133E-06  0.0155
   3.1440E+01   3.2205E+01   9.6634E-07  0.0164
   3.2205E+01   3.2988E+01   8.2725E-07  0.0176
   3.2988E+01   3.3791E+01   6.6955E-07  0.0193
   3.3791E+01   3.4613E+01   5.5805E-07  0.0209
   3.4613E+01   3.5455E+01   4.3175E-07  0.0235
   3.5455E+01   3.6318E+01   3.3919E-07  0.0261
   3.6318E+01   3.7201E+01   2.5033E-07  0.0301
   3.7201E+01   3.8106E+01   1.9157E-07  0.0340
   3.8106E+01   3.9034E+01   1.5251E-07  0.0376
   3.9034E+01   3.9983E+01   1.1330E-07  0.0431
   3.9983E+01   4.0956E+01   7.1339E-08  0.0537
   4.0956E+01   4.1953E+01   4.8570E-08  0.0643
   4.1953E+01   4.2973E+01   3.6836E-08  0.0729
   4.2973E+01   4.4019E+01   2.1041E-08  0.0953
   4.4019E+01   4.5090E+01   1.2511E-08  0.1222
   4.5090E+01   4.6187E+01   4.5576E-09  0.2000
   4.6187E+01   4.7311E+01   1.6018E-09  0.3333
   4.7311E+01   4.8462E+01   6.9498E-10  0.5000
   4.8462E+01   4.9641E+01   5.0886E-10  0.5774
   4.9641E+01   5.0849E+01   0.0000E+00  0.0000
   5.0849E+01   5.2086E+01   0.0000E+00  0.0000
   5.2086E+01   5.3353E+01   0.0000E+00  0.0000
   5.3353E+01   5.4651E+01   0.0000E+00  0.0000
   5.4651E+01   5.5981E+01   0.0000E+00  0.0000
   5.5981E+01   5.7343E+01   0.0000E+00  0.0000
   5.7343E+01   5.8738E+01   0.0000E+00  0.0000
   5.8738E+01   6.0168E+01   0.0000E+00  0.0000
   6.0168E+01   6.1632E+01   0.0000E+00  0.0000
   6.1632E+01   6.3131E+01   0.0000E+00  0.0000
   6.3131E+01   6.4667E+01   0.0000E+00  0.0000
   6.4667E+01   6.6240E+01   0.0000E+00  0.0000
   6.6240E+01   6.7852E+01   0.0000E+00  0.0000
   6.7852E+01   6.9503E+01   0.0000E+00  0.0000
   6.9503E+01   7.1194E+01   0.0000E+00  0.0000
   7.1194E+01   7.2926E+01   0.0000E+00  0.0000
   7.2926E+01   7.4701E+01   0.0000E+00  0.0000
   7.4701E+01   7.6518E+01   0.0000E+00  0.0000
   7.6518E+01   7.8380E+01   0.0000E+00  0.0000
   7.8380E+01   8.0287E+01   0.0000E+00  0.0000
   8.0287E+01   8.2240E+01   0.0000E+00  0.0000
   8.2240E+01   8.4241E+01   0.0000E+00  0.0000
   8.4241E+01   8.6291E+01   0.0000E+00  0.0000
   8.6291E+01   8.8391E+01   0.0000E+00  0.0000
   8.8391E+01   9.0541E+01   0.0000E+00  0.0000
   9.0541E+01   9.2744E+01   0.0000E+00  0.0000
   9.2744E+01   9.5001E+01   0.0000E+00  0.0000
   9.5001E+01   9.7312E+01   0.0000E+00  0.0000
   9.7312E+01   9.9680E+01   0.0000E+00  0.0000
   9.9680E+01   1.0211E+02   0.0000E+00  0.0000
   1.0211E+02   1.0459E+02   0.0000E+00  0.0000
   1.0459E+02   1.0713E+02   0.0000E+00  0.0000
   1.0713E+02   1.0974E+02   0.0000E+00  0.0000
   1.0974E+02   1.1241E+02   0.0000E+00  0.0000
   1.1241E+02   1.1515E+02   0.0000E+00  0.0000
   1.1515E+02   1.1795E+02   0.0000E+00  0.0000
   1.1795E+02   1.2082E+02   0.0000E+00  0.0000
   1.2082E+02   1.2376E+02   0.0000E+00  0.0000
   1.2376E+02   1.2677E+02   0.0000E+00  0.0000
   1.2677E+02   1.2985E+02   0.0000E+00  0.0000
   1.2985E+02   1.3301E+02   0.0000E+00  0.0000
   1.3301E+02   1.3625E+02   0.0000E+00  0.0000
   1.3625E+02   1.3956E+02   0.0000E+00  0.0000
   1.3956E+02   1.4296E+02   0.0000E+00  0.0000
   1.4296E+02   1.4644E+02   0.0000E+00  0.0000
   1.4644E+02   1.5000E+02   0.0000E+00  0.0000

#   sum over                 8.6125E-06
'no. =    1   reg = 115 - 215'
msuc: {\huge [t-cross] in region mesh}
msdr: {\it plotted by \ANGEL \version}
msdl: {\it calculated by \PHITS  3.26}
wt: s(0.7)
\vspace{-3}
  region surface crossing
  area  &=&   1.0000E+00 [cm^2]
e:
 
# Information for Restart Calculation
# This calculation was newly started
# istdev =  2 # 1:Batch variance, 2:History variance
# resc2  = 5.00000000000000000E+09 # Total source weight or Total source weight / maxcas
# resc3  = 5.00000000000000000E+09 # Total history number or Total batch number
# maxcas =   100000000 # History / Batch, only used for istdev=1
# bitrseed = 0110100000100010111000001110001111001110100100011111101000111001 # bit data of rseed
