[ T-Cross ]
    title = [t-cross] in region mesh
     mesh =  reg            # mesh type is region-wise
      reg =    1            # number of crossing regions
      non     r-from    r-to       area
      1       111       211        1.000000    
   e-type =    3            # e-mesh is log given by emin, emax and ne
     emin =  1.0000000E-02  # minimum value of e-mesh points
     emax =   150.0000      # maximum value of e-mesh points
#    edel =  2.4039514E-02  # mesh width of e-mesh points
       ne =    400          # number of e-mesh points
#    data = ( e(i), i = 1, ne + 1 )
#           1.00000E-02  1.02433E-02  1.04925E-02  1.07478E-02  1.10093E-02
#           1.12772E-02  1.15516E-02  1.18326E-02  1.21205E-02  1.24154E-02
#           1.27175E-02  1.30269E-02  1.33439E-02  1.36686E-02  1.40011E-02
#           1.43418E-02  1.46907E-02  1.50482E-02  1.54143E-02  1.57894E-02
#           1.61735E-02  1.65670E-02  1.69701E-02  1.73830E-02  1.78060E-02
#           1.82392E-02  1.86830E-02  1.91375E-02  1.96032E-02  2.00801E-02
#           2.05687E-02  2.10692E-02  2.15818E-02  2.21069E-02  2.26448E-02
#           2.31957E-02  2.37601E-02  2.43382E-02  2.49304E-02  2.55369E-02
#           2.61583E-02  2.67947E-02  2.74467E-02  2.81145E-02  2.87985E-02
#           2.94992E-02  3.02169E-02  3.09521E-02  3.17052E-02  3.24766E-02
#           3.32668E-02  3.40762E-02  3.49053E-02  3.57546E-02  3.66246E-02
#           3.75157E-02  3.84284E-02  3.93634E-02  4.03212E-02  4.13022E-02
#           4.23071E-02  4.33365E-02  4.43909E-02  4.54710E-02  4.65773E-02
#           4.77106E-02  4.88714E-02  5.00605E-02  5.12785E-02  5.25262E-02
#           5.38042E-02  5.51133E-02  5.64542E-02  5.78278E-02  5.92348E-02
#           6.06760E-02  6.21523E-02  6.36645E-02  6.52135E-02  6.68002E-02
#           6.84255E-02  7.00904E-02  7.17957E-02  7.35426E-02  7.53319E-02
#           7.71648E-02  7.90423E-02  8.09655E-02  8.29354E-02  8.49533E-02
#           8.70203E-02  8.91376E-02  9.13064E-02  9.35279E-02  9.58035E-02
#           9.81345E-02  1.00522E-01  1.02968E-01  1.05473E-01  1.08040E-01
#           1.10668E-01  1.13361E-01  1.16119E-01  1.18944E-01  1.21838E-01
#           1.24803E-01  1.27839E-01  1.30950E-01  1.34136E-01  1.37399E-01
#           1.40742E-01  1.44167E-01  1.47675E-01  1.51268E-01  1.54948E-01
#           1.58718E-01  1.62580E-01  1.66535E-01  1.70587E-01  1.74738E-01
#           1.78989E-01  1.83344E-01  1.87805E-01  1.92375E-01  1.97055E-01
#           2.01850E-01  2.06761E-01  2.11792E-01  2.16945E-01  2.22223E-01
#           2.27630E-01  2.33169E-01  2.38842E-01  2.44653E-01  2.50605E-01
#           2.56703E-01  2.62949E-01  2.69346E-01  2.75900E-01  2.82613E-01
#           2.89489E-01  2.96532E-01  3.03747E-01  3.11138E-01  3.18708E-01
#           3.26462E-01  3.34405E-01  3.42542E-01  3.50876E-01  3.59413E-01
#           3.68158E-01  3.77116E-01  3.86291E-01  3.95690E-01  4.05317E-01
#           4.15179E-01  4.25281E-01  4.35628E-01  4.46227E-01  4.57084E-01
#           4.68205E-01  4.79597E-01  4.91266E-01  5.03219E-01  5.15463E-01
#           5.28005E-01  5.40851E-01  5.54011E-01  5.67490E-01  5.81298E-01
#           5.95441E-01  6.09929E-01  6.24769E-01  6.39970E-01  6.55541E-01
#           6.71491E-01  6.87828E-01  7.04564E-01  7.21706E-01  7.39266E-01
#           7.57253E-01  7.75678E-01  7.94551E-01  8.13883E-01  8.33685E-01
#           8.53969E-01  8.74747E-01  8.96030E-01  9.17831E-01  9.40163E-01
#           9.63038E-01  9.86469E-01  1.01047E+00  1.03506E+00  1.06024E+00
#           1.08604E+00  1.11246E+00  1.13953E+00  1.16725E+00  1.19565E+00
#           1.22474E+00  1.25454E+00  1.28507E+00  1.31633E+00  1.34836E+00
#           1.38117E+00  1.41477E+00  1.44920E+00  1.48446E+00  1.52057E+00
#           1.55757E+00  1.59547E+00  1.63429E+00  1.67405E+00  1.71478E+00
#           1.75650E+00  1.79924E+00  1.84302E+00  1.88786E+00  1.93379E+00
#           1.98084E+00  2.02904E+00  2.07841E+00  2.12898E+00  2.18078E+00
#           2.23384E+00  2.28819E+00  2.34386E+00  2.40089E+00  2.45930E+00
#           2.51914E+00  2.58043E+00  2.64322E+00  2.70753E+00  2.77341E+00
#           2.84088E+00  2.91001E+00  2.98081E+00  3.05333E+00  3.12762E+00
#           3.20372E+00  3.28167E+00  3.36152E+00  3.44330E+00  3.52708E+00
#           3.61290E+00  3.70080E+00  3.79085E+00  3.88308E+00  3.97756E+00
#           4.07434E+00  4.17347E+00  4.27501E+00  4.37903E+00  4.48557E+00
#           4.59471E+00  4.70650E+00  4.82102E+00  4.93832E+00  5.05847E+00
#           5.18155E+00  5.30762E+00  5.43676E+00  5.56904E+00  5.70453E+00
#           5.84333E+00  5.98550E+00  6.13114E+00  6.28031E+00  6.43312E+00
#           6.58964E+00  6.74997E+00  6.91420E+00  7.08243E+00  7.25475E+00
#           7.43126E+00  7.61207E+00  7.79728E+00  7.98700E+00  8.18133E+00
#           8.38038E+00  8.58428E+00  8.79315E+00  9.00709E+00  9.22624E+00
#           9.45072E+00  9.68067E+00  9.91620E+00  1.01575E+01  1.04046E+01
#           1.06578E+01  1.09171E+01  1.11827E+01  1.14548E+01  1.17335E+01
#           1.20190E+01  1.23114E+01  1.26109E+01  1.29178E+01  1.32321E+01
#           1.35540E+01  1.38838E+01  1.42216E+01  1.45676E+01  1.49221E+01
#           1.52851E+01  1.56570E+01  1.60380E+01  1.64282E+01  1.68279E+01
#           1.72374E+01  1.76568E+01  1.80864E+01  1.85264E+01  1.89772E+01
#           1.94389E+01  1.99119E+01  2.03963E+01  2.08926E+01  2.14009E+01
#           2.19216E+01  2.24550E+01  2.30014E+01  2.35610E+01  2.41343E+01
#           2.47215E+01  2.53230E+01  2.59391E+01  2.65702E+01  2.72167E+01
#           2.78789E+01  2.85572E+01  2.92520E+01  2.99637E+01  3.06928E+01
#           3.14396E+01  3.22045E+01  3.29881E+01  3.37907E+01  3.46128E+01
#           3.54550E+01  3.63177E+01  3.72013E+01  3.81064E+01  3.90336E+01
#           3.99833E+01  4.09561E+01  4.19526E+01  4.29734E+01  4.40189E+01
#           4.50900E+01  4.61870E+01  4.73108E+01  4.84619E+01  4.96410E+01
#           5.08488E+01  5.20860E+01  5.33533E+01  5.46514E+01  5.59812E+01
#           5.73432E+01  5.87384E+01  6.01676E+01  6.16315E+01  6.31311E+01
#           6.46671E+01  6.62405E+01  6.78522E+01  6.95031E+01  7.11941E+01
#           7.29263E+01  7.47007E+01  7.65182E+01  7.83800E+01  8.02870E+01
#           8.22405E+01  8.42414E+01  8.62911E+01  8.83906E+01  9.05412E+01
#           9.27442E+01  9.50007E+01  9.73122E+01  9.96799E+01  1.02105E+02
#           1.04589E+02  1.07134E+02  1.09741E+02  1.12411E+02  1.15146E+02
#           1.17948E+02  1.20817E+02  1.23757E+02  1.26768E+02  1.29852E+02
#           1.33012E+02  1.36248E+02  1.39563E+02  1.42959E+02  1.46437E+02
#           1.50000E+02
     unit =    2            # unit is [1/cm^2/(MeV/n)/source]
     axis =  eng            # axis of output
     file = detector-12.out  # file name of output for the above axis
   output = f-curr          # surface crossing forward current spectrum
     part =  neutron  
# kf/name :  2112     
#    used :        main (  %)        temp (  %)       total (  %)
#  memory :         414 (  0)           0 (  0)         414 (  0)

#------------------------------------------------------------------------------
#newpage:
#   no. =    1   reg = 111 - 211

x: Energy [MeV/n]
y:  F-Curr [1/cm^2/(MeV/n)/source]         
p: xlog ylog afac(0.8) form(0.9)
h: n            x            y(neutron ),hh0l   n 
#  e-lower      e-upper      neutron     r.err 
   1.0000E-02   1.0243E-02   0.0000E+00  0.0000
   1.0243E-02   1.0493E-02   0.0000E+00  0.0000
   1.0493E-02   1.0748E-02   0.0000E+00  0.0000
   1.0748E-02   1.1009E-02   1.5296E-06  0.7071
   1.1009E-02   1.1277E-02   0.0000E+00  0.0000
   1.1277E-02   1.1552E-02   1.4578E-06  0.7071
   1.1552E-02   1.1833E-02   0.0000E+00  0.0000
   1.1833E-02   1.2121E-02   0.0000E+00  0.0000
   1.2121E-02   1.2415E-02   1.9441E-07  1.0000
   1.2415E-02   1.2718E-02   6.6208E-07  1.0000
   1.2718E-02   1.3027E-02   0.0000E+00  0.0000
   1.3027E-02   1.3344E-02   7.8155E-07  0.8300
   1.3344E-02   1.3669E-02   0.0000E+00  0.0000
   1.3669E-02   1.4001E-02   2.4055E-06  0.5000
   1.4001E-02   1.4342E-02   0.0000E+00  0.0000
   1.4342E-02   1.4691E-02   5.7315E-07  1.0000
   1.4691E-02   1.5048E-02   0.0000E+00  0.0000
   1.5048E-02   1.5414E-02   1.0925E-06  0.7071
   1.5414E-02   1.5789E-02   0.0000E+00  0.0000
   1.5789E-02   1.6174E-02   1.6691E-06  0.5440
   1.6174E-02   1.6567E-02   1.0165E-06  0.7071
   1.6567E-02   1.6970E-02   0.0000E+00  0.0000
   1.6970E-02   1.7383E-02   0.0000E+00  0.0000
   1.7383E-02   1.7806E-02   9.4575E-07  0.7071
   1.7806E-02   1.8239E-02   0.0000E+00  0.0000
   1.8239E-02   1.8683E-02   0.0000E+00  0.0000
   1.8683E-02   1.9138E-02   4.3997E-07  1.0000
   1.9138E-02   1.9603E-02   1.3964E-06  0.5383
   1.9603E-02   2.0080E-02   8.3864E-07  0.7071
   2.0080E-02   2.0569E-02   4.0936E-07  1.0000
   2.0569E-02   2.1069E-02   1.5986E-06  0.5000
   2.1069E-02   2.1582E-02   9.7536E-07  0.6000
   2.1582E-02   2.2107E-02   1.5235E-06  0.5000
   2.2107E-02   2.2645E-02   3.7183E-07  1.0000
   2.2645E-02   2.3196E-02   1.1102E-06  0.5544
   2.3196E-02   2.3760E-02   1.4175E-06  0.5000
   2.3760E-02   2.4338E-02   1.8938E-06  0.4143
   2.4338E-02   2.4930E-02   2.1446E-06  0.3897
   2.4930E-02   2.5537E-02   1.1825E-06  0.4972
   2.5537E-02   2.6158E-02   1.7951E-06  0.4054
   2.6158E-02   2.6795E-02   2.8282E-06  0.3333
   2.6795E-02   2.7447E-02   1.4908E-06  0.4251
   2.7447E-02   2.8114E-02   9.6698E-07  0.5411
   2.8114E-02   2.8799E-02   4.2773E-07  0.7194
   2.8799E-02   2.9499E-02   2.1393E-06  0.3591
   2.9499E-02   3.0217E-02   2.6326E-06  0.3193
   3.0217E-02   3.0952E-02   1.8552E-06  0.3667
   3.0952E-02   3.1705E-02   2.1406E-06  0.3376
   3.1705E-02   3.2477E-02   2.5018E-06  0.3032
   3.2477E-02   3.3267E-02   1.4469E-06  0.4014
   3.3267E-02   3.4076E-02   3.8487E-06  0.2503
   3.4076E-02   3.4905E-02   3.1866E-06  0.2657
   3.4905E-02   3.5755E-02   3.7981E-06  0.2432
   3.5755E-02   3.6625E-02   2.8643E-06  0.2736
   3.6625E-02   3.7516E-02   2.7690E-06  0.2727
   3.7516E-02   3.8428E-02   3.2036E-06  0.2571
   3.8428E-02   3.9363E-02   1.8895E-06  0.3288
   3.9363E-02   4.0321E-02   3.3089E-06  0.2465
   4.0321E-02   4.1302E-02   4.6380E-06  0.2069
   4.1302E-02   4.2307E-02   3.1247E-06  0.2480
   4.2307E-02   4.3337E-02   2.3393E-06  0.2742
   4.3337E-02   4.4391E-02   2.1801E-06  0.2902
   4.4391E-02   4.5471E-02   3.5533E-06  0.2226
   4.5471E-02   4.6577E-02   3.0399E-06  0.2381
   4.6577E-02   4.7711E-02   4.3819E-06  0.1975
   4.7711E-02   4.8871E-02   3.0859E-06  0.2313
   4.8871E-02   5.0061E-02   4.3605E-06  0.1910
   5.0061E-02   5.1279E-02   3.8261E-06  0.2029
   5.1279E-02   5.2526E-02   4.8049E-06  0.1771
   5.2526E-02   5.3804E-02   3.8250E-06  0.1983
   5.3804E-02   5.5113E-02   4.0992E-06  0.1893
   5.5113E-02   5.6454E-02   5.0545E-06  0.1686
   5.6454E-02   5.7828E-02   4.8496E-06  0.1675
   5.7828E-02   5.9235E-02   6.2983E-06  0.1460
   5.9235E-02   6.0676E-02   7.2275E-06  0.1367
   6.0676E-02   6.2152E-02   7.1279E-06  0.1338
   6.2152E-02   6.3665E-02   7.5415E-06  0.1302
   6.3665E-02   6.5214E-02   7.4966E-06  0.1271
   6.5214E-02   6.6800E-02   6.5017E-06  0.1348
   6.6800E-02   6.8426E-02   7.2300E-06  0.1272
   6.8426E-02   7.0090E-02   9.5035E-06  0.1105
   7.0090E-02   7.1796E-02   9.8396E-06  0.1074
   7.1796E-02   7.3543E-02   8.9332E-06  0.1102
   7.3543E-02   7.5332E-02   9.7631E-06  0.1047
   7.5332E-02   7.7165E-02   8.5325E-06  0.1103
   7.7165E-02   7.9042E-02   9.3415E-06  0.1047
   7.9042E-02   8.0965E-02   1.0621E-05  0.0967
   8.0965E-02   8.2935E-02   1.1357E-05  0.0920
   8.2935E-02   8.4953E-02   1.1702E-05  0.0895
   8.4953E-02   8.7020E-02   1.4024E-05  0.0816
   8.7020E-02   8.9138E-02   1.2906E-05  0.0835
   8.9138E-02   9.1306E-02   1.3013E-05  0.0828
   9.1306E-02   9.3528E-02   1.2615E-05  0.0819
   9.3528E-02   9.5804E-02   1.3800E-05  0.0780
   9.5804E-02   9.8134E-02   1.4067E-05  0.0754
   9.8134E-02   1.0052E-01   1.4514E-05  0.0736
   1.0052E-01   1.0297E-01   1.6016E-05  0.0695
   1.0297E-01   1.0547E-01   1.6481E-05  0.0682
   1.0547E-01   1.0804E-01   1.7845E-05  0.0644
   1.0804E-01   1.1067E-01   1.8351E-05  0.0630
   1.1067E-01   1.1336E-01   1.8764E-05  0.0613
   1.1336E-01   1.1612E-01   1.8588E-05  0.0610
   1.1612E-01   1.1894E-01   2.2075E-05  0.0552
   1.1894E-01   1.2184E-01   2.3066E-05  0.0535
   1.2184E-01   1.2480E-01   2.3027E-05  0.0529
   1.2480E-01   1.2784E-01   2.4705E-05  0.0503
   1.2784E-01   1.3095E-01   2.3974E-05  0.0506
   1.3095E-01   1.3414E-01   2.5640E-05  0.0482
   1.3414E-01   1.3740E-01   2.5992E-05  0.0474
   1.3740E-01   1.4074E-01   2.7056E-05  0.0460
   1.4074E-01   1.4417E-01   2.8294E-05  0.0445
   1.4417E-01   1.4767E-01   2.9288E-05  0.0432
   1.4767E-01   1.5127E-01   3.0422E-05  0.0417
   1.5127E-01   1.5495E-01   3.1190E-05  0.0408
   1.5495E-01   1.5872E-01   3.2222E-05  0.0397
   1.5872E-01   1.6258E-01   3.4802E-05  0.0377
   1.6258E-01   1.6654E-01   3.4748E-05  0.0373
   1.6654E-01   1.7059E-01   3.7014E-05  0.0359
   1.7059E-01   1.7474E-01   3.8132E-05  0.0348
   1.7474E-01   1.7899E-01   4.0984E-05  0.0331
   1.7899E-01   1.8334E-01   4.0161E-05  0.0331
   1.8334E-01   1.8781E-01   4.0273E-05  0.0326
   1.8781E-01   1.9237E-01   4.4044E-05  0.0309
   1.9237E-01   1.9706E-01   4.4246E-05  0.0304
   1.9706E-01   2.0185E-01   4.7343E-05  0.0290
   2.0185E-01   2.0676E-01   4.9380E-05  0.0281
   2.0676E-01   2.1179E-01   5.1921E-05  0.0271
   2.1179E-01   2.1694E-01   5.2066E-05  0.0267
   2.1694E-01   2.2222E-01   5.3695E-05  0.0260
   2.2222E-01   2.2763E-01   5.7585E-05  0.0248
   2.2763E-01   2.3317E-01   6.1083E-05  0.0238
   2.3317E-01   2.3884E-01   6.1791E-05  0.0234
   2.3884E-01   2.4465E-01   6.2577E-05  0.0230
   2.4465E-01   2.5061E-01   6.7751E-05  0.0219
   2.5061E-01   2.5670E-01   6.6180E-05  0.0218
   2.5670E-01   2.6295E-01   6.8227E-05  0.0212
   2.6295E-01   2.6935E-01   7.2514E-05  0.0204
   2.6935E-01   2.7590E-01   7.6465E-05  0.0196
   2.7590E-01   2.8261E-01   7.7355E-05  0.0193
   2.8261E-01   2.8949E-01   7.9634E-05  0.0188
   2.8949E-01   2.9653E-01   8.5879E-05  0.0179
   2.9653E-01   3.0375E-01   8.7464E-05  0.0175
   3.0375E-01   3.1114E-01   8.5578E-05  0.0175
   3.1114E-01   3.1871E-01   9.0330E-05  0.0168
   3.1871E-01   3.2646E-01   9.6452E-05  0.0161
   3.2646E-01   3.3441E-01   9.6433E-05  0.0159
   3.3441E-01   3.4254E-01   9.5609E-05  0.0158
   3.4254E-01   3.5088E-01   1.0249E-04  0.0151
   3.5088E-01   3.5941E-01   1.0949E-04  0.0144
   3.5941E-01   3.6816E-01   1.0932E-04  0.0143
   3.6816E-01   3.7712E-01   1.1212E-04  0.0139
   3.7712E-01   3.8629E-01   1.1609E-04  0.0135
   3.8629E-01   3.9569E-01   1.1826E-04  0.0132
   3.9569E-01   4.0532E-01   1.2110E-04  0.0129
   4.0532E-01   4.1518E-01   1.2591E-04  0.0125
   4.1518E-01   4.2528E-01   1.3216E-04  0.0121
   4.2528E-01   4.3563E-01   1.3497E-04  0.0118
   4.3563E-01   4.4623E-01   1.3482E-04  0.0117
   4.4623E-01   4.5708E-01   1.4228E-04  0.0112
   4.5708E-01   4.6821E-01   1.4389E-04  0.0111
   4.6821E-01   4.7960E-01   1.4901E-04  0.0108
   4.7960E-01   4.9127E-01   1.5431E-04  0.0104
   4.9127E-01   5.0322E-01   1.5498E-04  0.0103
   5.0322E-01   5.1546E-01   1.6082E-04  0.0100
   5.1546E-01   5.2800E-01   1.6503E-04  0.0097
   5.2800E-01   5.4085E-01   1.7230E-04  0.0094
   5.4085E-01   5.5401E-01   1.7645E-04  0.0092
   5.5401E-01   5.6749E-01   1.7966E-04  0.0090
   5.6749E-01   5.8130E-01   1.8409E-04  0.0088
   5.8130E-01   5.9544E-01   1.8989E-04  0.0086
   5.9544E-01   6.0993E-01   1.9719E-04  0.0083
   6.0993E-01   6.2477E-01   2.0043E-04  0.0081
   6.2477E-01   6.3997E-01   2.0739E-04  0.0079
   6.3997E-01   6.5554E-01   2.1323E-04  0.0077
   6.5554E-01   6.7149E-01   2.2057E-04  0.0075
   6.7149E-01   6.8783E-01   2.2527E-04  0.0073
   6.8783E-01   7.0456E-01   2.3182E-04  0.0071
   7.0456E-01   7.2171E-01   2.3442E-04  0.0070
   7.2171E-01   7.3927E-01   2.4401E-04  0.0068
   7.3927E-01   7.5725E-01   2.5007E-04  0.0066
   7.5725E-01   7.7568E-01   2.5566E-04  0.0065
   7.7568E-01   7.9455E-01   2.6152E-04  0.0063
   7.9455E-01   8.1388E-01   2.7134E-04  0.0061
   8.1388E-01   8.3368E-01   2.7557E-04  0.0060
   8.3368E-01   8.5397E-01   2.8293E-04  0.0059
   8.5397E-01   8.7475E-01   2.8925E-04  0.0057
   8.7475E-01   8.9603E-01   2.9466E-04  0.0056
   8.9603E-01   9.1783E-01   2.9866E-04  0.0055
   9.1783E-01   9.4016E-01   3.1155E-04  0.0053
   9.4016E-01   9.6304E-01   3.1750E-04  0.0052
   9.6304E-01   9.8647E-01   3.1986E-04  0.0051
   9.8647E-01   1.0105E+00   3.2574E-04  0.0050
   1.0105E+00   1.0351E+00   3.2243E-04  0.0050
   1.0351E+00   1.0602E+00   3.2662E-04  0.0049
   1.0602E+00   1.0860E+00   3.2366E-04  0.0048
   1.0860E+00   1.1125E+00   3.2056E-04  0.0048
   1.1125E+00   1.1395E+00   3.2352E-04  0.0047
   1.1395E+00   1.1673E+00   3.2442E-04  0.0047
   1.1673E+00   1.1957E+00   3.3081E-04  0.0046
   1.1957E+00   1.2247E+00   3.3413E-04  0.0045
   1.2247E+00   1.2545E+00   3.3239E-04  0.0044
   1.2545E+00   1.2851E+00   3.3053E-04  0.0044
   1.2851E+00   1.3163E+00   3.3176E-04  0.0043
   1.3163E+00   1.3484E+00   3.3402E-04  0.0043
   1.3484E+00   1.3812E+00   3.3300E-04  0.0042
   1.3812E+00   1.4148E+00   3.3315E-04  0.0042
   1.4148E+00   1.4492E+00   3.3379E-04  0.0041
   1.4492E+00   1.4845E+00   3.3310E-04  0.0041
   1.4845E+00   1.5206E+00   3.3470E-04  0.0040
   1.5206E+00   1.5576E+00   3.3138E-04  0.0040
   1.5576E+00   1.5955E+00   3.2936E-04  0.0040
   1.5955E+00   1.6343E+00   3.2955E-04  0.0039
   1.6343E+00   1.6741E+00   3.2429E-04  0.0039
   1.6741E+00   1.7148E+00   3.2354E-04  0.0038
   1.7148E+00   1.7565E+00   3.2282E-04  0.0038
   1.7565E+00   1.7992E+00   3.2000E-04  0.0038
   1.7992E+00   1.8430E+00   3.2444E-04  0.0037
   1.8430E+00   1.8879E+00   3.2059E-04  0.0037
   1.8879E+00   1.9338E+00   3.1876E-04  0.0036
   1.9338E+00   1.9808E+00   3.1493E-04  0.0036
   1.9808E+00   2.0290E+00   3.1513E-04  0.0036
   2.0290E+00   2.0784E+00   3.1553E-04  0.0035
   2.0784E+00   2.1290E+00   3.1378E-04  0.0035
   2.1290E+00   2.1808E+00   3.0988E-04  0.0035
   2.1808E+00   2.2338E+00   3.0722E-04  0.0034
   2.2338E+00   2.2882E+00   3.0535E-04  0.0034
   2.2882E+00   2.3439E+00   2.9931E-04  0.0034
   2.3439E+00   2.4009E+00   2.9645E-04  0.0034
   2.4009E+00   2.4593E+00   2.9163E-04  0.0034
   2.4593E+00   2.5191E+00   2.8697E-04  0.0033
   2.5191E+00   2.5804E+00   2.8502E-04  0.0033
   2.5804E+00   2.6432E+00   2.7812E-04  0.0033
   2.6432E+00   2.7075E+00   2.7558E-04  0.0033
   2.7075E+00   2.7734E+00   2.7170E-04  0.0033
   2.7734E+00   2.8409E+00   2.7089E-04  0.0032
   2.8409E+00   2.9100E+00   2.6742E-04  0.0032
   2.9100E+00   2.9808E+00   2.6109E-04  0.0032
   2.9808E+00   3.0533E+00   2.5840E-04  0.0032
   3.0533E+00   3.1276E+00   2.5456E-04  0.0032
   3.1276E+00   3.2037E+00   2.5023E-04  0.0032
   3.2037E+00   3.2817E+00   2.4543E-04  0.0032
   3.2817E+00   3.3615E+00   2.4034E-04  0.0032
   3.3615E+00   3.4433E+00   2.3557E-04  0.0031
   3.4433E+00   3.5271E+00   2.3274E-04  0.0031
   3.5271E+00   3.6129E+00   2.2781E-04  0.0031
   3.6129E+00   3.7008E+00   2.2284E-04  0.0031
   3.7008E+00   3.7908E+00   2.1699E-04  0.0031
   3.7908E+00   3.8831E+00   2.1294E-04  0.0031
   3.8831E+00   3.9776E+00   2.0583E-04  0.0031
   3.9776E+00   4.0743E+00   1.9943E-04  0.0031
   4.0743E+00   4.1735E+00   1.9378E-04  0.0031
   4.1735E+00   4.2750E+00   1.8702E-04  0.0032
   4.2750E+00   4.3790E+00   1.8364E-04  0.0031
   4.3790E+00   4.4856E+00   1.7917E-04  0.0031
   4.4856E+00   4.5947E+00   1.7456E-04  0.0032
   4.5947E+00   4.7065E+00   1.7105E-04  0.0031
   4.7065E+00   4.8210E+00   1.6635E-04  0.0032
   4.8210E+00   4.9383E+00   1.6402E-04  0.0031
   4.9383E+00   5.0585E+00   1.6207E-04  0.0031
   5.0585E+00   5.1815E+00   1.6680E-04  0.0030
   5.1815E+00   5.3076E+00   1.6904E-04  0.0030
   5.3076E+00   5.4368E+00   1.6519E-04  0.0030
   5.4368E+00   5.5690E+00   1.5847E-04  0.0030
   5.5690E+00   5.7045E+00   1.5587E-04  0.0030
   5.7045E+00   5.8433E+00   1.5085E-04  0.0030
   5.8433E+00   5.9855E+00   1.4656E-04  0.0030
   5.9855E+00   6.1311E+00   1.4415E-04  0.0030
   6.1311E+00   6.2803E+00   1.4104E-04  0.0030
   6.2803E+00   6.4331E+00   1.3781E-04  0.0030
   6.4331E+00   6.5896E+00   1.3525E-04  0.0030
   6.5896E+00   6.7500E+00   1.3179E-04  0.0030
   6.7500E+00   6.9142E+00   1.2905E-04  0.0030
   6.9142E+00   7.0824E+00   1.2696E-04  0.0030
   7.0824E+00   7.2548E+00   1.2389E-04  0.0030
   7.2548E+00   7.4313E+00   1.2204E-04  0.0030
   7.4313E+00   7.6121E+00   1.1994E-04  0.0030
   7.6121E+00   7.7973E+00   1.1749E-04  0.0030
   7.7973E+00   7.9870E+00   1.1627E-04  0.0030
   7.9870E+00   8.1813E+00   1.1428E-04  0.0030
   8.1813E+00   8.3804E+00   1.1217E-04  0.0030
   8.3804E+00   8.5843E+00   1.0914E-04  0.0030
   8.5843E+00   8.7931E+00   1.0675E-04  0.0030
   8.7931E+00   9.0071E+00   1.0423E-04  0.0030
   9.0071E+00   9.2262E+00   1.0189E-04  0.0030
   9.2262E+00   9.4507E+00   9.9815E-05  0.0030
   9.4507E+00   9.6807E+00   9.7111E-05  0.0030
   9.6807E+00   9.9162E+00   9.4408E-05  0.0030
   9.9162E+00   1.0157E+01   9.3150E-05  0.0030
   1.0157E+01   1.0405E+01   9.0882E-05  0.0030
   1.0405E+01   1.0658E+01   8.9455E-05  0.0029
   1.0658E+01   1.0917E+01   8.7903E-05  0.0029
   1.0917E+01   1.1183E+01   8.4956E-05  0.0029
   1.1183E+01   1.1455E+01   8.3107E-05  0.0029
   1.1455E+01   1.1733E+01   8.0814E-05  0.0030
   1.1733E+01   1.2019E+01   7.9174E-05  0.0029
   1.2019E+01   1.2311E+01   7.7369E-05  0.0029
   1.2311E+01   1.2611E+01   7.5314E-05  0.0030
   1.2611E+01   1.2918E+01   7.3237E-05  0.0030
   1.2918E+01   1.3232E+01   7.1399E-05  0.0030
   1.3232E+01   1.3554E+01   6.9707E-05  0.0030
   1.3554E+01   1.3884E+01   6.7383E-05  0.0030
   1.3884E+01   1.4222E+01   6.5437E-05  0.0030
   1.4222E+01   1.4568E+01   6.3760E-05  0.0030
   1.4568E+01   1.4922E+01   6.1747E-05  0.0030
   1.4922E+01   1.5285E+01   6.0069E-05  0.0030
   1.5285E+01   1.5657E+01   5.8463E-05  0.0030
   1.5657E+01   1.6038E+01   5.6271E-05  0.0030
   1.6038E+01   1.6428E+01   5.4260E-05  0.0030
   1.6428E+01   1.6828E+01   5.2418E-05  0.0031
   1.6828E+01   1.7237E+01   5.0349E-05  0.0031
   1.7237E+01   1.7657E+01   4.8532E-05  0.0031
   1.7657E+01   1.8086E+01   4.6162E-05  0.0032
   1.8086E+01   1.8526E+01   4.4377E-05  0.0032
   1.8526E+01   1.8977E+01   4.2669E-05  0.0032
   1.8977E+01   1.9439E+01   4.0551E-05  0.0032
   1.9439E+01   1.9912E+01   3.8395E-05  0.0033
   1.9912E+01   2.0396E+01   4.0144E-05  0.0032
   2.0396E+01   2.0893E+01   3.8941E-05  0.0032
   2.0893E+01   2.1401E+01   3.7284E-05  0.0032
   2.1401E+01   2.1922E+01   3.5252E-05  0.0033
   2.1922E+01   2.2455E+01   3.3497E-05  0.0033
   2.2455E+01   2.3001E+01   3.1702E-05  0.0034
   2.3001E+01   2.3561E+01   3.0105E-05  0.0034
   2.3561E+01   2.4134E+01   2.8589E-05  0.0035
   2.4134E+01   2.4721E+01   2.7272E-05  0.0035
   2.4721E+01   2.5323E+01   2.5871E-05  0.0036
   2.5323E+01   2.5939E+01   2.4810E-05  0.0036
   2.5939E+01   2.6570E+01   2.3999E-05  0.0036
   2.6570E+01   2.7217E+01   2.2945E-05  0.0037
   2.7217E+01   2.7879E+01   2.1582E-05  0.0037
   2.7879E+01   2.8557E+01   1.9937E-05  0.0038
   2.8557E+01   2.9252E+01   1.8224E-05  0.0040
   2.9252E+01   2.9964E+01   1.6726E-05  0.0041
   2.9964E+01   3.0693E+01   1.5091E-05  0.0043
   3.0693E+01   3.1440E+01   1.3680E-05  0.0044
   3.1440E+01   3.2205E+01   1.2151E-05  0.0046
   3.2205E+01   3.2988E+01   1.0957E-05  0.0048
   3.2988E+01   3.3791E+01   9.8233E-06  0.0050
   3.3791E+01   3.4613E+01   8.8543E-06  0.0052
   3.4613E+01   3.5455E+01   7.9441E-06  0.0055
   3.5455E+01   3.6318E+01   6.9991E-06  0.0058
   3.6318E+01   3.7201E+01   6.1745E-06  0.0061
   3.7201E+01   3.8106E+01   5.4549E-06  0.0064
   3.8106E+01   3.9034E+01   4.7666E-06  0.0067
   3.9034E+01   3.9983E+01   4.0444E-06  0.0072
   3.9983E+01   4.0956E+01   3.3951E-06  0.0078
   4.0956E+01   4.1953E+01   2.7221E-06  0.0086
   4.1953E+01   4.2973E+01   2.2480E-06  0.0093
   4.2973E+01   4.4019E+01   1.7785E-06  0.0104
   4.4019E+01   4.5090E+01   1.3946E-06  0.0116
   4.5090E+01   4.6187E+01   1.0309E-06  0.0133
   4.6187E+01   4.7311E+01   7.7543E-07  0.0151
   4.7311E+01   4.8462E+01   5.4782E-07  0.0178
   4.8462E+01   4.9641E+01   3.3941E-07  0.0224
   4.9641E+01   5.0849E+01   2.1063E-07  0.0280
   5.0849E+01   5.2086E+01   1.1187E-07  0.0380
   5.2086E+01   5.3353E+01   5.3658E-08  0.0542
   5.3353E+01   5.4651E+01   1.5561E-08  0.0995
   5.4651E+01   5.5981E+01   3.1586E-09  0.2182
   5.5981E+01   5.7343E+01   5.8734E-10  0.5000
   5.7343E+01   5.8738E+01   0.0000E+00  0.0000
   5.8738E+01   6.0168E+01   0.0000E+00  0.0000
   6.0168E+01   6.1632E+01   0.0000E+00  0.0000
   6.1632E+01   6.3131E+01   0.0000E+00  0.0000
   6.3131E+01   6.4667E+01   0.0000E+00  0.0000
   6.4667E+01   6.6240E+01   0.0000E+00  0.0000
   6.6240E+01   6.7852E+01   0.0000E+00  0.0000
   6.7852E+01   6.9503E+01   0.0000E+00  0.0000
   6.9503E+01   7.1194E+01   0.0000E+00  0.0000
   7.1194E+01   7.2926E+01   0.0000E+00  0.0000
   7.2926E+01   7.4701E+01   0.0000E+00  0.0000
   7.4701E+01   7.6518E+01   0.0000E+00  0.0000
   7.6518E+01   7.8380E+01   0.0000E+00  0.0000
   7.8380E+01   8.0287E+01   0.0000E+00  0.0000
   8.0287E+01   8.2240E+01   0.0000E+00  0.0000
   8.2240E+01   8.4241E+01   0.0000E+00  0.0000
   8.4241E+01   8.6291E+01   0.0000E+00  0.0000
   8.6291E+01   8.8391E+01   0.0000E+00  0.0000
   8.8391E+01   9.0541E+01   0.0000E+00  0.0000
   9.0541E+01   9.2744E+01   0.0000E+00  0.0000
   9.2744E+01   9.5001E+01   0.0000E+00  0.0000
   9.5001E+01   9.7312E+01   0.0000E+00  0.0000
   9.7312E+01   9.9680E+01   0.0000E+00  0.0000
   9.9680E+01   1.0211E+02   0.0000E+00  0.0000
   1.0211E+02   1.0459E+02   0.0000E+00  0.0000
   1.0459E+02   1.0713E+02   0.0000E+00  0.0000
   1.0713E+02   1.0974E+02   0.0000E+00  0.0000
   1.0974E+02   1.1241E+02   0.0000E+00  0.0000
   1.1241E+02   1.1515E+02   0.0000E+00  0.0000
   1.1515E+02   1.1795E+02   0.0000E+00  0.0000
   1.1795E+02   1.2082E+02   0.0000E+00  0.0000
   1.2082E+02   1.2376E+02   0.0000E+00  0.0000
   1.2376E+02   1.2677E+02   0.0000E+00  0.0000
   1.2677E+02   1.2985E+02   0.0000E+00  0.0000
   1.2985E+02   1.3301E+02   0.0000E+00  0.0000
   1.3301E+02   1.3625E+02   0.0000E+00  0.0000
   1.3625E+02   1.3956E+02   0.0000E+00  0.0000
   1.3956E+02   1.4296E+02   0.0000E+00  0.0000
   1.4296E+02   1.4644E+02   0.0000E+00  0.0000
   1.4644E+02   1.5000E+02   0.0000E+00  0.0000

#   sum over                 1.8636E-05
'no. =    1   reg = 111 - 211'
msuc: {\huge [t-cross] in region mesh}
msdr: {\it plotted by \ANGEL \version}
msdl: {\it calculated by \PHITS  3.26}
wt: s(0.7)
\vspace{-3}
  region surface crossing
  area  &=&   1.0000E+00 [cm^2]
e:
 
# Information for Restart Calculation
# This calculation was newly started
# istdev =  2 # 1:Batch variance, 2:History variance
# resc2  = 5.00000000000000000E+09 # Total source weight or Total source weight / maxcas
# resc3  = 5.00000000000000000E+09 # Total history number or Total batch number
# maxcas =   100000000 # History / Batch, only used for istdev=1
# bitrseed = 0110100000100010111000001110001111001110100100011111101000111001 # bit data of rseed
