[ T-Cross ]
    title = [t-cross] in region mesh
     mesh =  reg            # mesh type is region-wise
      reg =    1            # number of crossing regions
      non     r-from    r-to       area
      1       104       204        1.000000    
   e-type =    3            # e-mesh is log given by emin, emax and ne
     emin =  1.0000000E-02  # minimum value of e-mesh points
     emax =   150.0000      # maximum value of e-mesh points
#    edel =  2.4039514E-02  # mesh width of e-mesh points
       ne =    400          # number of e-mesh points
#    data = ( e(i), i = 1, ne + 1 )
#           1.00000E-02  1.02433E-02  1.04925E-02  1.07478E-02  1.10093E-02
#           1.12772E-02  1.15516E-02  1.18326E-02  1.21205E-02  1.24154E-02
#           1.27175E-02  1.30269E-02  1.33439E-02  1.36686E-02  1.40011E-02
#           1.43418E-02  1.46907E-02  1.50482E-02  1.54143E-02  1.57894E-02
#           1.61735E-02  1.65670E-02  1.69701E-02  1.73830E-02  1.78060E-02
#           1.82392E-02  1.86830E-02  1.91375E-02  1.96032E-02  2.00801E-02
#           2.05687E-02  2.10692E-02  2.15818E-02  2.21069E-02  2.26448E-02
#           2.31957E-02  2.37601E-02  2.43382E-02  2.49304E-02  2.55369E-02
#           2.61583E-02  2.67947E-02  2.74467E-02  2.81145E-02  2.87985E-02
#           2.94992E-02  3.02169E-02  3.09521E-02  3.17052E-02  3.24766E-02
#           3.32668E-02  3.40762E-02  3.49053E-02  3.57546E-02  3.66246E-02
#           3.75157E-02  3.84284E-02  3.93634E-02  4.03212E-02  4.13022E-02
#           4.23071E-02  4.33365E-02  4.43909E-02  4.54710E-02  4.65773E-02
#           4.77106E-02  4.88714E-02  5.00605E-02  5.12785E-02  5.25262E-02
#           5.38042E-02  5.51133E-02  5.64542E-02  5.78278E-02  5.92348E-02
#           6.06760E-02  6.21523E-02  6.36645E-02  6.52135E-02  6.68002E-02
#           6.84255E-02  7.00904E-02  7.17957E-02  7.35426E-02  7.53319E-02
#           7.71648E-02  7.90423E-02  8.09655E-02  8.29354E-02  8.49533E-02
#           8.70203E-02  8.91376E-02  9.13064E-02  9.35279E-02  9.58035E-02
#           9.81345E-02  1.00522E-01  1.02968E-01  1.05473E-01  1.08040E-01
#           1.10668E-01  1.13361E-01  1.16119E-01  1.18944E-01  1.21838E-01
#           1.24803E-01  1.27839E-01  1.30950E-01  1.34136E-01  1.37399E-01
#           1.40742E-01  1.44167E-01  1.47675E-01  1.51268E-01  1.54948E-01
#           1.58718E-01  1.62580E-01  1.66535E-01  1.70587E-01  1.74738E-01
#           1.78989E-01  1.83344E-01  1.87805E-01  1.92375E-01  1.97055E-01
#           2.01850E-01  2.06761E-01  2.11792E-01  2.16945E-01  2.22223E-01
#           2.27630E-01  2.33169E-01  2.38842E-01  2.44653E-01  2.50605E-01
#           2.56703E-01  2.62949E-01  2.69346E-01  2.75900E-01  2.82613E-01
#           2.89489E-01  2.96532E-01  3.03747E-01  3.11138E-01  3.18708E-01
#           3.26462E-01  3.34405E-01  3.42542E-01  3.50876E-01  3.59413E-01
#           3.68158E-01  3.77116E-01  3.86291E-01  3.95690E-01  4.05317E-01
#           4.15179E-01  4.25281E-01  4.35628E-01  4.46227E-01  4.57084E-01
#           4.68205E-01  4.79597E-01  4.91266E-01  5.03219E-01  5.15463E-01
#           5.28005E-01  5.40851E-01  5.54011E-01  5.67490E-01  5.81298E-01
#           5.95441E-01  6.09929E-01  6.24769E-01  6.39970E-01  6.55541E-01
#           6.71491E-01  6.87828E-01  7.04564E-01  7.21706E-01  7.39266E-01
#           7.57253E-01  7.75678E-01  7.94551E-01  8.13883E-01  8.33685E-01
#           8.53969E-01  8.74747E-01  8.96030E-01  9.17831E-01  9.40163E-01
#           9.63038E-01  9.86469E-01  1.01047E+00  1.03506E+00  1.06024E+00
#           1.08604E+00  1.11246E+00  1.13953E+00  1.16725E+00  1.19565E+00
#           1.22474E+00  1.25454E+00  1.28507E+00  1.31633E+00  1.34836E+00
#           1.38117E+00  1.41477E+00  1.44920E+00  1.48446E+00  1.52057E+00
#           1.55757E+00  1.59547E+00  1.63429E+00  1.67405E+00  1.71478E+00
#           1.75650E+00  1.79924E+00  1.84302E+00  1.88786E+00  1.93379E+00
#           1.98084E+00  2.02904E+00  2.07841E+00  2.12898E+00  2.18078E+00
#           2.23384E+00  2.28819E+00  2.34386E+00  2.40089E+00  2.45930E+00
#           2.51914E+00  2.58043E+00  2.64322E+00  2.70753E+00  2.77341E+00
#           2.84088E+00  2.91001E+00  2.98081E+00  3.05333E+00  3.12762E+00
#           3.20372E+00  3.28167E+00  3.36152E+00  3.44330E+00  3.52708E+00
#           3.61290E+00  3.70080E+00  3.79085E+00  3.88308E+00  3.97756E+00
#           4.07434E+00  4.17347E+00  4.27501E+00  4.37903E+00  4.48557E+00
#           4.59471E+00  4.70650E+00  4.82102E+00  4.93832E+00  5.05847E+00
#           5.18155E+00  5.30762E+00  5.43676E+00  5.56904E+00  5.70453E+00
#           5.84333E+00  5.98550E+00  6.13114E+00  6.28031E+00  6.43312E+00
#           6.58964E+00  6.74997E+00  6.91420E+00  7.08243E+00  7.25475E+00
#           7.43126E+00  7.61207E+00  7.79728E+00  7.98700E+00  8.18133E+00
#           8.38038E+00  8.58428E+00  8.79315E+00  9.00709E+00  9.22624E+00
#           9.45072E+00  9.68067E+00  9.91620E+00  1.01575E+01  1.04046E+01
#           1.06578E+01  1.09171E+01  1.11827E+01  1.14548E+01  1.17335E+01
#           1.20190E+01  1.23114E+01  1.26109E+01  1.29178E+01  1.32321E+01
#           1.35540E+01  1.38838E+01  1.42216E+01  1.45676E+01  1.49221E+01
#           1.52851E+01  1.56570E+01  1.60380E+01  1.64282E+01  1.68279E+01
#           1.72374E+01  1.76568E+01  1.80864E+01  1.85264E+01  1.89772E+01
#           1.94389E+01  1.99119E+01  2.03963E+01  2.08926E+01  2.14009E+01
#           2.19216E+01  2.24550E+01  2.30014E+01  2.35610E+01  2.41343E+01
#           2.47215E+01  2.53230E+01  2.59391E+01  2.65702E+01  2.72167E+01
#           2.78789E+01  2.85572E+01  2.92520E+01  2.99637E+01  3.06928E+01
#           3.14396E+01  3.22045E+01  3.29881E+01  3.37907E+01  3.46128E+01
#           3.54550E+01  3.63177E+01  3.72013E+01  3.81064E+01  3.90336E+01
#           3.99833E+01  4.09561E+01  4.19526E+01  4.29734E+01  4.40189E+01
#           4.50900E+01  4.61870E+01  4.73108E+01  4.84619E+01  4.96410E+01
#           5.08488E+01  5.20860E+01  5.33533E+01  5.46514E+01  5.59812E+01
#           5.73432E+01  5.87384E+01  6.01676E+01  6.16315E+01  6.31311E+01
#           6.46671E+01  6.62405E+01  6.78522E+01  6.95031E+01  7.11941E+01
#           7.29263E+01  7.47007E+01  7.65182E+01  7.83800E+01  8.02870E+01
#           8.22405E+01  8.42414E+01  8.62911E+01  8.83906E+01  9.05412E+01
#           9.27442E+01  9.50007E+01  9.73122E+01  9.96799E+01  1.02105E+02
#           1.04589E+02  1.07134E+02  1.09741E+02  1.12411E+02  1.15146E+02
#           1.17948E+02  1.20817E+02  1.23757E+02  1.26768E+02  1.29852E+02
#           1.33012E+02  1.36248E+02  1.39563E+02  1.42959E+02  1.46437E+02
#           1.50000E+02
     unit =    2            # unit is [1/cm^2/(MeV/n)/source]
     axis =  eng            # axis of output
     file = detector-05.out  # file name of output for the above axis
   output = f-curr          # surface crossing forward current spectrum
     part =  neutron  
# kf/name :  2112     
#    used :        main (  %)        temp (  %)       total (  %)
#  memory :         414 (  0)           0 (  0)         414 (  0)

#------------------------------------------------------------------------------
#newpage:
#   no. =    1   reg = 104 - 204

x: Energy [MeV/n]
y:  F-Curr [1/cm^2/(MeV/n)/source]         
p: xlog ylog afac(0.8) form(0.9)
h: n            x            y(neutron ),hh0l   n 
#  e-lower      e-upper      neutron     r.err 
   1.0000E-02   1.0243E-02   8.0121E-05  0.1126
   1.0243E-02   1.0493E-02   8.5390E-05  0.1078
   1.0493E-02   1.0748E-02   8.3016E-05  0.1078
   1.0748E-02   1.1009E-02   9.1918E-05  0.1017
   1.1009E-02   1.1277E-02   9.3081E-05  0.1000
   1.1277E-02   1.1552E-02   8.7748E-05  0.1016
   1.1552E-02   1.1833E-02   9.2242E-05  0.0978
   1.1833E-02   1.2121E-02   7.9174E-05  0.1043
   1.2121E-02   1.2415E-02   8.0052E-05  0.1026
   1.2415E-02   1.2718E-02   8.0837E-05  0.1010
   1.2718E-02   1.3027E-02   8.2286E-05  0.0986
   1.3027E-02   1.3344E-02   7.5818E-05  0.1016
   1.3344E-02   1.3669E-02   6.7290E-05  0.1066
   1.3669E-02   1.4001E-02   7.7428E-05  0.0983
   1.4001E-02   1.4342E-02   6.7781E-05  0.1037
   1.4342E-02   1.4691E-02   6.8598E-05  0.1019
   1.4691E-02   1.5048E-02   6.6815E-05  0.1019
   1.5048E-02   1.5414E-02   7.1765E-05  0.0970
   1.5414E-02   1.5789E-02   6.1060E-05  0.1041
   1.5789E-02   1.6174E-02   6.4089E-05  0.1004
   1.6174E-02   1.6567E-02   5.2662E-05  0.1095
   1.6567E-02   1.6970E-02   6.0089E-05  0.1014
   1.6970E-02   1.7383E-02   5.5892E-05  0.1037
   1.7383E-02   1.7806E-02   5.5431E-05  0.1027
   1.7806E-02   1.8239E-02   5.6912E-05  0.1002
   1.8239E-02   1.8683E-02   4.9047E-05  0.1067
   1.8683E-02   1.9138E-02   5.6805E-05  0.0981
   1.9138E-02   1.9603E-02   5.4874E-05  0.0986
   1.9603E-02   2.0080E-02   5.3835E-05  0.0982
   2.0080E-02   2.0569E-02   4.7267E-05  0.1037
   2.0569E-02   2.1069E-02   4.7323E-05  0.1026
   2.1069E-02   2.1582E-02   6.0196E-05  0.0898
   2.1582E-02   2.2107E-02   4.7954E-05  0.0993
   2.2107E-02   2.2645E-02   4.0011E-05  0.1075
   2.2645E-02   2.3196E-02   4.4729E-05  0.1003
   2.3196E-02   2.3760E-02   4.0097E-05  0.1048
   2.3760E-02   2.4338E-02   4.9516E-05  0.0933
   2.4338E-02   2.4930E-02   4.0827E-05  0.1012
   2.4930E-02   2.5537E-02   3.9675E-05  0.1016
   2.5537E-02   2.6158E-02   4.2916E-05  0.0965
   2.6158E-02   2.6795E-02   3.0658E-05  0.1128
   2.6795E-02   2.7447E-02   4.0654E-05  0.0966
   2.7447E-02   2.8114E-02   3.7233E-05  0.1000
   2.8114E-02   2.8799E-02   3.6386E-05  0.0998
   2.8799E-02   2.9499E-02   3.2643E-05  0.1043
   2.9499E-02   3.0217E-02   3.1569E-05  0.1046
   3.0217E-02   3.0952E-02   3.0692E-05  0.1049
   3.0952E-02   3.1705E-02   3.4376E-05  0.0981
   3.1705E-02   3.2477E-02   3.0133E-05  0.1032
   3.2477E-02   3.3267E-02   3.1133E-05  0.1005
   3.3267E-02   3.4076E-02   3.1564E-05  0.0986
   3.4076E-02   3.4905E-02   3.1418E-05  0.0976
   3.4905E-02   3.5755E-02   3.0516E-05  0.0977
   3.5755E-02   3.6625E-02   2.8353E-05  0.1005
   3.6625E-02   3.7516E-02   2.5273E-05  0.1049
   3.7516E-02   3.8428E-02   3.1363E-05  0.0933
   3.8428E-02   3.9363E-02   2.3359E-05  0.1067
   3.9363E-02   4.0321E-02   2.2329E-05  0.1077
   4.0321E-02   4.1302E-02   2.9552E-05  0.0925
   4.1302E-02   4.2307E-02   2.3394E-05  0.1028
   4.2307E-02   4.3337E-02   2.6233E-05  0.0955
   4.3337E-02   4.4391E-02   2.4323E-05  0.0982
   4.4391E-02   4.5471E-02   2.4946E-05  0.0961
   4.5471E-02   4.6577E-02   2.0951E-05  0.1032
   4.6577E-02   4.7711E-02   2.3171E-05  0.0971
   4.7711E-02   4.8871E-02   2.3550E-05  0.0954
   4.8871E-02   5.0061E-02   2.6323E-05  0.0891
   5.0061E-02   5.1279E-02   2.2583E-05  0.0949
   5.1279E-02   5.2526E-02   2.0635E-05  0.0981
   5.2526E-02   5.3804E-02   1.7961E-05  0.1038
   5.3804E-02   5.5113E-02   2.1596E-05  0.0937
   5.5113E-02   5.6454E-02   1.8790E-05  0.0994
   5.6454E-02   5.7828E-02   1.7774E-05  0.1009
   5.7828E-02   5.9235E-02   1.9661E-05  0.0949
   5.9235E-02   6.0676E-02   1.8242E-05  0.0972
   6.0676E-02   6.2152E-02   1.4778E-05  0.1065
   6.2152E-02   6.3665E-02   1.4825E-05  0.1054
   6.3665E-02   6.5214E-02   1.6862E-05  0.0976
   6.5214E-02   6.6800E-02   1.5827E-05  0.0993
   6.6800E-02   6.8426E-02   1.3904E-05  0.1047
   6.8426E-02   7.0090E-02   1.6525E-05  0.0950
   7.0090E-02   7.1796E-02   1.8685E-05  0.0884
   7.1796E-02   7.3543E-02   1.7778E-05  0.0895
   7.3543E-02   7.5332E-02   1.5179E-05  0.0954
   7.5332E-02   7.7165E-02   1.5428E-05  0.0937
   7.7165E-02   7.9042E-02   1.4619E-05  0.0952
   7.9042E-02   8.0965E-02   1.3517E-05  0.0976
   8.0965E-02   8.2935E-02   1.4451E-05  0.0933
   8.2935E-02   8.4953E-02   1.2084E-05  0.1010
   8.4953E-02   8.7020E-02   1.3529E-05  0.0941
   8.7020E-02   8.9138E-02   1.2696E-05  0.0959
   8.9138E-02   9.1306E-02   1.4021E-05  0.0905
   9.1306E-02   9.3528E-02   1.1559E-05  0.0982
   9.3528E-02   9.5804E-02   1.3249E-05  0.0908
   9.5804E-02   9.8134E-02   1.4175E-05  0.0866
   9.8134E-02   1.0052E-01   1.2948E-05  0.0895
   1.0052E-01   1.0297E-01   1.2497E-05  0.0900
   1.0297E-01   1.0547E-01   1.4696E-05  0.0821
   1.0547E-01   1.0804E-01   1.4632E-05  0.0812
   1.0804E-01   1.1067E-01   1.3656E-05  0.0833
   1.1067E-01   1.1336E-01   1.5390E-05  0.0773
   1.1336E-01   1.1612E-01   1.7148E-05  0.0725
   1.1612E-01   1.1894E-01   1.8568E-05  0.0687
   1.1894E-01   1.2184E-01   1.6672E-05  0.0716
   1.2184E-01   1.2480E-01   1.9984E-05  0.0647
   1.2480E-01   1.2784E-01   1.9093E-05  0.0653
   1.2784E-01   1.3095E-01   1.9929E-05  0.0633
   1.3095E-01   1.3414E-01   1.9104E-05  0.0637
   1.3414E-01   1.3740E-01   2.0659E-05  0.0607
   1.3740E-01   1.4074E-01   2.3306E-05  0.0564
   1.4074E-01   1.4417E-01   2.1421E-05  0.0581
   1.4417E-01   1.4767E-01   2.5110E-05  0.0531
   1.4767E-01   1.5127E-01   2.4962E-05  0.0526
   1.5127E-01   1.5495E-01   2.5485E-05  0.0514
   1.5495E-01   1.5872E-01   2.7064E-05  0.0493
   1.5872E-01   1.6258E-01   2.7190E-05  0.0486
   1.6258E-01   1.6654E-01   2.8796E-05  0.0467
   1.6654E-01   1.7059E-01   3.1944E-05  0.0438
   1.7059E-01   1.7474E-01   3.1184E-05  0.0438
   1.7474E-01   1.7899E-01   3.1938E-05  0.0428
   1.7899E-01   1.8334E-01   3.1897E-05  0.0423
   1.8334E-01   1.8781E-01   3.3869E-05  0.0405
   1.8781E-01   1.9237E-01   3.4633E-05  0.0396
   1.9237E-01   1.9706E-01   3.4247E-05  0.0393
   1.9706E-01   2.0185E-01   3.8021E-05  0.0369
   2.0185E-01   2.0676E-01   3.7547E-05  0.0367
   2.0676E-01   2.1179E-01   3.9766E-05  0.0352
   2.1179E-01   2.1694E-01   4.0662E-05  0.0344
   2.1694E-01   2.2222E-01   4.1334E-05  0.0337
   2.2222E-01   2.2763E-01   4.5369E-05  0.0318
   2.2763E-01   2.3317E-01   4.2917E-05  0.0323
   2.3317E-01   2.3884E-01   4.7292E-05  0.0304
   2.3884E-01   2.4465E-01   4.5761E-05  0.0305
   2.4465E-01   2.5061E-01   4.9866E-05  0.0289
   2.5061E-01   2.5670E-01   4.9290E-05  0.0287
   2.5670E-01   2.6295E-01   5.1766E-05  0.0277
   2.6295E-01   2.6935E-01   5.4102E-05  0.0268
   2.6935E-01   2.7590E-01   5.3471E-05  0.0266
   2.7590E-01   2.8261E-01   5.4237E-05  0.0261
   2.8261E-01   2.8949E-01   5.8790E-05  0.0248
   2.8949E-01   2.9653E-01   5.7311E-05  0.0248
   2.9653E-01   3.0375E-01   5.9277E-05  0.0241
   3.0375E-01   3.1114E-01   6.0188E-05  0.0236
   3.1114E-01   3.1871E-01   6.1993E-05  0.0230
   3.1871E-01   3.2646E-01   6.0062E-05  0.0231
   3.2646E-01   3.3441E-01   6.2336E-05  0.0224
   3.3441E-01   3.4254E-01   6.3128E-05  0.0220
   3.4254E-01   3.5088E-01   6.4631E-05  0.0215
   3.5088E-01   3.5941E-01   6.6441E-05  0.0209
   3.5941E-01   3.6816E-01   6.7144E-05  0.0205
   3.6816E-01   3.7712E-01   7.0240E-05  0.0198
   3.7712E-01   3.8629E-01   7.0819E-05  0.0195
   3.8629E-01   3.9569E-01   7.2345E-05  0.0191
   3.9569E-01   4.0532E-01   7.2805E-05  0.0188
   4.0532E-01   4.1518E-01   7.2329E-05  0.0186
   4.1518E-01   4.2528E-01   7.5123E-05  0.0181
   4.2528E-01   4.3563E-01   7.5546E-05  0.0178
   4.3563E-01   4.4623E-01   7.7786E-05  0.0173
   4.4623E-01   4.5708E-01   7.6477E-05  0.0173
   4.5708E-01   4.6821E-01   8.1407E-05  0.0165
   4.6821E-01   4.7960E-01   7.8471E-05  0.0166
   4.7960E-01   4.9127E-01   8.1616E-05  0.0161
   4.9127E-01   5.0322E-01   8.2382E-05  0.0159
   5.0322E-01   5.1546E-01   7.9958E-05  0.0159
   5.1546E-01   5.2800E-01   8.1014E-05  0.0156
   5.2800E-01   5.4085E-01   8.4063E-05  0.0151
   5.4085E-01   5.5401E-01   8.2675E-05  0.0151
   5.5401E-01   5.6749E-01   8.2307E-05  0.0149
   5.6749E-01   5.8130E-01   8.4699E-05  0.0145
   5.8130E-01   5.9544E-01   8.2881E-05  0.0145
   5.9544E-01   6.0993E-01   8.3552E-05  0.0143
   6.0993E-01   6.2477E-01   8.4565E-05  0.0140
   6.2477E-01   6.3997E-01   8.3596E-05  0.0139
   6.3997E-01   6.5554E-01   8.2927E-05  0.0138
   6.5554E-01   6.7149E-01   8.5918E-05  0.0134
   6.7149E-01   6.8783E-01   8.3800E-05  0.0134
   6.8783E-01   7.0456E-01   8.3936E-05  0.0133
   7.0456E-01   7.2171E-01   8.1782E-05  0.0133
   7.2171E-01   7.3927E-01   8.4010E-05  0.0129
   7.3927E-01   7.5725E-01   7.9920E-05  0.0131
   7.5725E-01   7.7568E-01   7.9519E-05  0.0130
   7.7568E-01   7.9455E-01   7.8632E-05  0.0129
   7.9455E-01   8.1388E-01   7.8509E-05  0.0127
   8.1388E-01   8.3368E-01   7.7500E-05  0.0127
   8.3368E-01   8.5397E-01   7.5487E-05  0.0127
   8.5397E-01   8.7475E-01   7.3804E-05  0.0127
   8.7475E-01   8.9603E-01   7.4016E-05  0.0125
   8.9603E-01   9.1783E-01   6.8587E-05  0.0128
   9.1783E-01   9.4016E-01   6.7951E-05  0.0127
   9.4016E-01   9.6304E-01   6.7404E-05  0.0126
   9.6304E-01   9.8647E-01   6.4119E-05  0.0128
   9.8647E-01   1.0105E+00   6.1245E-05  0.0129
   1.0105E+00   1.0351E+00   6.2710E-05  0.0126
   1.0351E+00   1.0602E+00   6.2686E-05  0.0125
   1.0602E+00   1.0860E+00   6.2318E-05  0.0124
   1.0860E+00   1.1125E+00   6.4944E-05  0.0120
   1.1125E+00   1.1395E+00   6.5248E-05  0.0118
   1.1395E+00   1.1673E+00   6.5532E-05  0.0116
   1.1673E+00   1.1957E+00   6.7031E-05  0.0113
   1.1957E+00   1.2247E+00   6.9783E-05  0.0110
   1.2247E+00   1.2545E+00   7.0458E-05  0.0108
   1.2545E+00   1.2851E+00   6.9379E-05  0.0107
   1.2851E+00   1.3163E+00   7.2699E-05  0.0104
   1.3163E+00   1.3484E+00   7.0346E-05  0.0104
   1.3484E+00   1.3812E+00   7.3343E-05  0.0101
   1.3812E+00   1.4148E+00   7.4160E-05  0.0099
   1.4148E+00   1.4492E+00   7.4975E-05  0.0097
   1.4492E+00   1.4845E+00   7.3646E-05  0.0097
   1.4845E+00   1.5206E+00   7.2038E-05  0.0097
   1.5206E+00   1.5576E+00   7.3727E-05  0.0094
   1.5576E+00   1.5955E+00   7.2747E-05  0.0094
   1.5955E+00   1.6343E+00   7.3085E-05  0.0093
   1.6343E+00   1.6741E+00   7.4085E-05  0.0091
   1.6741E+00   1.7148E+00   7.5311E-05  0.0089
   1.7148E+00   1.7565E+00   7.1701E-05  0.0090
   1.7565E+00   1.7992E+00   7.0532E-05  0.0090
   1.7992E+00   1.8430E+00   6.8235E-05  0.0090
   1.8430E+00   1.8879E+00   6.6015E-05  0.0090
   1.8879E+00   1.9338E+00   6.4996E-05  0.0090
   1.9338E+00   1.9808E+00   6.5193E-05  0.0088
   1.9808E+00   2.0290E+00   6.4836E-05  0.0087
   2.0290E+00   2.0784E+00   6.6557E-05  0.0085
   2.0784E+00   2.1290E+00   6.5874E-05  0.0084
   2.1290E+00   2.1808E+00   6.7972E-05  0.0082
   2.1808E+00   2.2338E+00   6.6839E-05  0.0082
   2.2338E+00   2.2882E+00   6.5293E-05  0.0082
   2.2882E+00   2.3439E+00   6.4869E-05  0.0081
   2.3439E+00   2.4009E+00   6.4832E-05  0.0080
   2.4009E+00   2.4593E+00   6.5370E-05  0.0079
   2.4593E+00   2.5191E+00   6.4714E-05  0.0079
   2.5191E+00   2.5804E+00   6.3894E-05  0.0078
   2.5804E+00   2.6432E+00   6.3240E-05  0.0078
   2.6432E+00   2.7075E+00   6.2987E-05  0.0077
   2.7075E+00   2.7734E+00   6.2593E-05  0.0076
   2.7734E+00   2.8409E+00   6.1423E-05  0.0076
   2.8409E+00   2.9100E+00   6.2063E-05  0.0075
   2.9100E+00   2.9808E+00   6.1791E-05  0.0074
   2.9808E+00   3.0533E+00   6.1038E-05  0.0074
   3.0533E+00   3.1276E+00   5.9824E-05  0.0074
   3.1276E+00   3.2037E+00   5.9993E-05  0.0073
   3.2037E+00   3.2817E+00   5.8835E-05  0.0073
   3.2817E+00   3.3615E+00   5.9114E-05  0.0072
   3.3615E+00   3.4433E+00   5.8454E-05  0.0071
   3.4433E+00   3.5271E+00   5.7931E-05  0.0071
   3.5271E+00   3.6129E+00   5.7358E-05  0.0070
   3.6129E+00   3.7008E+00   5.7015E-05  0.0070
   3.7008E+00   3.7908E+00   5.6867E-05  0.0069
   3.7908E+00   3.8831E+00   5.5775E-05  0.0069
   3.8831E+00   3.9776E+00   5.5516E-05  0.0068
   3.9776E+00   4.0743E+00   5.4714E-05  0.0068
   4.0743E+00   4.1735E+00   5.3991E-05  0.0067
   4.1735E+00   4.2750E+00   5.3136E-05  0.0067
   4.2750E+00   4.3790E+00   5.2566E-05  0.0067
   4.3790E+00   4.4856E+00   5.1157E-05  0.0067
   4.4856E+00   4.5947E+00   5.0454E-05  0.0066
   4.5947E+00   4.7065E+00   4.9681E-05  0.0066
   4.7065E+00   4.8210E+00   4.9057E-05  0.0066
   4.8210E+00   4.9383E+00   4.8028E-05  0.0066
   4.9383E+00   5.0585E+00   4.7956E-05  0.0065
   5.0585E+00   5.1815E+00   4.7561E-05  0.0064
   5.1815E+00   5.3076E+00   4.6537E-05  0.0064
   5.3076E+00   5.4368E+00   4.6040E-05  0.0064
   5.4368E+00   5.5690E+00   4.5426E-05  0.0064
   5.5690E+00   5.7045E+00   4.4666E-05  0.0063
   5.7045E+00   5.8433E+00   4.4435E-05  0.0063
   5.8433E+00   5.9855E+00   4.3924E-05  0.0062
   5.9855E+00   6.1311E+00   4.3797E-05  0.0062
   6.1311E+00   6.2803E+00   4.2802E-05  0.0062
   6.2803E+00   6.4331E+00   4.1954E-05  0.0062
   6.4331E+00   6.5896E+00   4.1765E-05  0.0061
   6.5896E+00   6.7500E+00   4.0792E-05  0.0061
   6.7500E+00   6.9142E+00   4.0906E-05  0.0060
   6.9142E+00   7.0824E+00   4.0664E-05  0.0060
   7.0824E+00   7.2548E+00   3.9513E-05  0.0060
   7.2548E+00   7.4313E+00   3.8578E-05  0.0060
   7.4313E+00   7.6121E+00   3.8290E-05  0.0059
   7.6121E+00   7.7973E+00   3.7071E-05  0.0060
   7.7973E+00   7.9870E+00   3.7030E-05  0.0059
   7.9870E+00   8.1813E+00   3.6347E-05  0.0059
   8.1813E+00   8.3804E+00   3.5857E-05  0.0059
   8.3804E+00   8.5843E+00   3.5264E-05  0.0058
   8.5843E+00   8.7931E+00   3.4583E-05  0.0058
   8.7931E+00   9.0071E+00   3.4069E-05  0.0058
   9.0071E+00   9.2262E+00   3.3346E-05  0.0058
   9.2262E+00   9.4507E+00   3.2385E-05  0.0058
   9.4507E+00   9.6807E+00   3.1687E-05  0.0058
   9.6807E+00   9.9162E+00   3.1178E-05  0.0058
   9.9162E+00   1.0157E+01   3.1781E-05  0.0057
   1.0157E+01   1.0405E+01   3.1557E-05  0.0056
   1.0405E+01   1.0658E+01   3.0767E-05  0.0056
   1.0658E+01   1.0917E+01   3.0351E-05  0.0056
   1.0917E+01   1.1183E+01   2.9355E-05  0.0056
   1.1183E+01   1.1455E+01   2.8710E-05  0.0056
   1.1455E+01   1.1733E+01   2.8678E-05  0.0056
   1.1733E+01   1.2019E+01   2.8246E-05  0.0056
   1.2019E+01   1.2311E+01   2.7896E-05  0.0055
   1.2311E+01   1.2611E+01   2.7341E-05  0.0055
   1.2611E+01   1.2918E+01   2.7007E-05  0.0055
   1.2918E+01   1.3232E+01   2.6449E-05  0.0055
   1.3232E+01   1.3554E+01   2.6157E-05  0.0054
   1.3554E+01   1.3884E+01   2.6169E-05  0.0054
   1.3884E+01   1.4222E+01   2.5705E-05  0.0054
   1.4222E+01   1.4568E+01   2.5184E-05  0.0054
   1.4568E+01   1.4922E+01   2.4627E-05  0.0053
   1.4922E+01   1.5285E+01   2.4424E-05  0.0053
   1.5285E+01   1.5657E+01   2.4356E-05  0.0053
   1.5657E+01   1.6038E+01   2.3735E-05  0.0053
   1.6038E+01   1.6428E+01   2.3512E-05  0.0052
   1.6428E+01   1.6828E+01   2.3190E-05  0.0052
   1.6828E+01   1.7237E+01   2.2745E-05  0.0052
   1.7237E+01   1.7657E+01   2.2405E-05  0.0052
   1.7657E+01   1.8086E+01   2.2173E-05  0.0051
   1.8086E+01   1.8526E+01   2.1858E-05  0.0051
   1.8526E+01   1.8977E+01   2.1545E-05  0.0051
   1.8977E+01   1.9439E+01   2.1356E-05  0.0050
   1.9439E+01   1.9912E+01   2.1172E-05  0.0050
   1.9912E+01   2.0396E+01   2.0628E-05  0.0050
   2.0396E+01   2.0893E+01   2.0379E-05  0.0050
   2.0893E+01   2.1401E+01   1.9966E-05  0.0050
   2.1401E+01   2.1922E+01   1.9936E-05  0.0049
   2.1922E+01   2.2455E+01   1.9493E-05  0.0049
   2.2455E+01   2.3001E+01   1.9237E-05  0.0049
   2.3001E+01   2.3561E+01   1.8804E-05  0.0049
   2.3561E+01   2.4134E+01   1.8300E-05  0.0049
   2.4134E+01   2.4721E+01   1.8100E-05  0.0048
   2.4721E+01   2.5323E+01   1.7803E-05  0.0048
   2.5323E+01   2.5939E+01   1.7527E-05  0.0048
   2.5939E+01   2.6570E+01   1.6922E-05  0.0048
   2.6570E+01   2.7217E+01   1.6586E-05  0.0048
   2.7217E+01   2.7879E+01   1.6506E-05  0.0048
   2.7879E+01   2.8557E+01   1.7733E-05  0.0046
   2.8557E+01   2.9252E+01   1.8376E-05  0.0044
   2.9252E+01   2.9964E+01   1.8232E-05  0.0044
   2.9964E+01   3.0693E+01   1.7784E-05  0.0044
   3.0693E+01   3.1440E+01   1.7409E-05  0.0044
   3.1440E+01   3.2205E+01   1.7304E-05  0.0043
   3.2205E+01   3.2988E+01   1.7060E-05  0.0043
   3.2988E+01   3.3791E+01   1.6765E-05  0.0043
   3.3791E+01   3.4613E+01   1.6505E-05  0.0043
   3.4613E+01   3.5455E+01   1.6236E-05  0.0043
   3.5455E+01   3.6318E+01   1.6191E-05  0.0042
   3.6318E+01   3.7201E+01   1.5770E-05  0.0042
   3.7201E+01   3.8106E+01   1.5677E-05  0.0042
   3.8106E+01   3.9034E+01   1.5413E-05  0.0042
   3.9034E+01   3.9983E+01   1.5299E-05  0.0041
   3.9983E+01   4.0956E+01   1.4916E-05  0.0042
   4.0956E+01   4.1953E+01   1.4924E-05  0.0041
   4.1953E+01   4.2973E+01   1.4611E-05  0.0041
   4.2973E+01   4.4019E+01   1.4376E-05  0.0041
   4.4019E+01   4.5090E+01   1.4097E-05  0.0041
   4.5090E+01   4.6187E+01   1.3884E-05  0.0041
   4.6187E+01   4.7311E+01   1.3611E-05  0.0040
   4.7311E+01   4.8462E+01   1.2632E-05  0.0041
   4.8462E+01   4.9641E+01   1.1064E-05  0.0044
   4.9641E+01   5.0849E+01   1.0774E-05  0.0044
   5.0849E+01   5.2086E+01   1.0613E-05  0.0044
   5.2086E+01   5.3353E+01   1.0421E-05  0.0044
   5.3353E+01   5.4651E+01   1.0092E-05  0.0044
   5.4651E+01   5.5981E+01   9.9407E-06  0.0043
   5.5981E+01   5.7343E+01   9.6075E-06  0.0044
   5.7343E+01   5.8738E+01   9.4321E-06  0.0044
   5.8738E+01   6.0168E+01   9.1580E-06  0.0044
   6.0168E+01   6.1632E+01   8.8515E-06  0.0044
   6.1632E+01   6.3131E+01   8.6313E-06  0.0044
   6.3131E+01   6.4667E+01   8.3483E-06  0.0044
   6.4667E+01   6.6240E+01   8.1664E-06  0.0044
   6.6240E+01   6.7852E+01   7.8162E-06  0.0045
   6.7852E+01   6.9503E+01   7.5183E-06  0.0045
   6.9503E+01   7.1194E+01   7.2701E-06  0.0045
   7.1194E+01   7.2926E+01   6.7952E-06  0.0046
   7.2926E+01   7.4701E+01   6.4674E-06  0.0047
   7.4701E+01   7.6518E+01   6.0919E-06  0.0048
   7.6518E+01   7.8380E+01   5.5860E-06  0.0049
   7.8380E+01   8.0287E+01   5.0965E-06  0.0051
   8.0287E+01   8.2240E+01   4.5649E-06  0.0053
   8.2240E+01   8.4241E+01   3.9003E-06  0.0057
   8.4241E+01   8.6291E+01   3.1672E-06  0.0062
   8.6291E+01   8.8391E+01   2.2771E-06  0.0072
   8.8391E+01   9.0541E+01   1.7866E-06  0.0081
   9.0541E+01   9.2744E+01   3.3194E-07  0.0185
   9.2744E+01   9.5001E+01   0.0000E+00  0.0000
   9.5001E+01   9.7312E+01   0.0000E+00  0.0000
   9.7312E+01   9.9680E+01   0.0000E+00  0.0000
   9.9680E+01   1.0211E+02   0.0000E+00  0.0000
   1.0211E+02   1.0459E+02   0.0000E+00  0.0000
   1.0459E+02   1.0713E+02   0.0000E+00  0.0000
   1.0713E+02   1.0974E+02   0.0000E+00  0.0000
   1.0974E+02   1.1241E+02   0.0000E+00  0.0000
   1.1241E+02   1.1515E+02   0.0000E+00  0.0000
   1.1515E+02   1.1795E+02   0.0000E+00  0.0000
   1.1795E+02   1.2082E+02   0.0000E+00  0.0000
   1.2082E+02   1.2376E+02   0.0000E+00  0.0000
   1.2376E+02   1.2677E+02   0.0000E+00  0.0000
   1.2677E+02   1.2985E+02   0.0000E+00  0.0000
   1.2985E+02   1.3301E+02   0.0000E+00  0.0000
   1.3301E+02   1.3625E+02   0.0000E+00  0.0000
   1.3625E+02   1.3956E+02   0.0000E+00  0.0000
   1.3956E+02   1.4296E+02   0.0000E+00  0.0000
   1.4296E+02   1.4644E+02   0.0000E+00  0.0000
   1.4644E+02   1.5000E+02   0.0000E+00  0.0000

#   sum over                 1.0068E-05
'no. =    1   reg = 104 - 204'
msuc: {\huge [t-cross] in region mesh}
msdr: {\it plotted by \ANGEL \version}
msdl: {\it calculated by \PHITS  3.26}
wt: s(0.7)
\vspace{-3}
  region surface crossing
  area  &=&   1.0000E+00 [cm^2]
e:
 
# Information for Restart Calculation
# This calculation was newly started
# istdev =  2 # 1:Batch variance, 2:History variance
# resc2  = 4.00000000000000000E+09 # Total source weight or Total source weight / maxcas
# resc3  = 4.00000000000000000E+09 # Total history number or Total batch number
# maxcas =   100000000 # History / Batch, only used for istdev=1
# bitrseed = 1000111101111101011101111011110101001010011101000111000001010111 # bit data of rseed
