[ T-Cross ]
    title = [t-cross] in region mesh
     mesh =  reg            # mesh type is region-wise
      reg =    1            # number of crossing regions
      non     r-from    r-to       area
      1       113       213        1.000000    
   e-type =    3            # e-mesh is log given by emin, emax and ne
     emin =  1.0000000E-02  # minimum value of e-mesh points
     emax =   150.0000      # maximum value of e-mesh points
#    edel =  2.4039514E-02  # mesh width of e-mesh points
       ne =    400          # number of e-mesh points
#    data = ( e(i), i = 1, ne + 1 )
#           1.00000E-02  1.02433E-02  1.04925E-02  1.07478E-02  1.10093E-02
#           1.12772E-02  1.15516E-02  1.18326E-02  1.21205E-02  1.24154E-02
#           1.27175E-02  1.30269E-02  1.33439E-02  1.36686E-02  1.40011E-02
#           1.43418E-02  1.46907E-02  1.50482E-02  1.54143E-02  1.57894E-02
#           1.61735E-02  1.65670E-02  1.69701E-02  1.73830E-02  1.78060E-02
#           1.82392E-02  1.86830E-02  1.91375E-02  1.96032E-02  2.00801E-02
#           2.05687E-02  2.10692E-02  2.15818E-02  2.21069E-02  2.26448E-02
#           2.31957E-02  2.37601E-02  2.43382E-02  2.49304E-02  2.55369E-02
#           2.61583E-02  2.67947E-02  2.74467E-02  2.81145E-02  2.87985E-02
#           2.94992E-02  3.02169E-02  3.09521E-02  3.17052E-02  3.24766E-02
#           3.32668E-02  3.40762E-02  3.49053E-02  3.57546E-02  3.66246E-02
#           3.75157E-02  3.84284E-02  3.93634E-02  4.03212E-02  4.13022E-02
#           4.23071E-02  4.33365E-02  4.43909E-02  4.54710E-02  4.65773E-02
#           4.77106E-02  4.88714E-02  5.00605E-02  5.12785E-02  5.25262E-02
#           5.38042E-02  5.51133E-02  5.64542E-02  5.78278E-02  5.92348E-02
#           6.06760E-02  6.21523E-02  6.36645E-02  6.52135E-02  6.68002E-02
#           6.84255E-02  7.00904E-02  7.17957E-02  7.35426E-02  7.53319E-02
#           7.71648E-02  7.90423E-02  8.09655E-02  8.29354E-02  8.49533E-02
#           8.70203E-02  8.91376E-02  9.13064E-02  9.35279E-02  9.58035E-02
#           9.81345E-02  1.00522E-01  1.02968E-01  1.05473E-01  1.08040E-01
#           1.10668E-01  1.13361E-01  1.16119E-01  1.18944E-01  1.21838E-01
#           1.24803E-01  1.27839E-01  1.30950E-01  1.34136E-01  1.37399E-01
#           1.40742E-01  1.44167E-01  1.47675E-01  1.51268E-01  1.54948E-01
#           1.58718E-01  1.62580E-01  1.66535E-01  1.70587E-01  1.74738E-01
#           1.78989E-01  1.83344E-01  1.87805E-01  1.92375E-01  1.97055E-01
#           2.01850E-01  2.06761E-01  2.11792E-01  2.16945E-01  2.22223E-01
#           2.27630E-01  2.33169E-01  2.38842E-01  2.44653E-01  2.50605E-01
#           2.56703E-01  2.62949E-01  2.69346E-01  2.75900E-01  2.82613E-01
#           2.89489E-01  2.96532E-01  3.03747E-01  3.11138E-01  3.18708E-01
#           3.26462E-01  3.34405E-01  3.42542E-01  3.50876E-01  3.59413E-01
#           3.68158E-01  3.77116E-01  3.86291E-01  3.95690E-01  4.05317E-01
#           4.15179E-01  4.25281E-01  4.35628E-01  4.46227E-01  4.57084E-01
#           4.68205E-01  4.79597E-01  4.91266E-01  5.03219E-01  5.15463E-01
#           5.28005E-01  5.40851E-01  5.54011E-01  5.67490E-01  5.81298E-01
#           5.95441E-01  6.09929E-01  6.24769E-01  6.39970E-01  6.55541E-01
#           6.71491E-01  6.87828E-01  7.04564E-01  7.21706E-01  7.39266E-01
#           7.57253E-01  7.75678E-01  7.94551E-01  8.13883E-01  8.33685E-01
#           8.53969E-01  8.74747E-01  8.96030E-01  9.17831E-01  9.40163E-01
#           9.63038E-01  9.86469E-01  1.01047E+00  1.03506E+00  1.06024E+00
#           1.08604E+00  1.11246E+00  1.13953E+00  1.16725E+00  1.19565E+00
#           1.22474E+00  1.25454E+00  1.28507E+00  1.31633E+00  1.34836E+00
#           1.38117E+00  1.41477E+00  1.44920E+00  1.48446E+00  1.52057E+00
#           1.55757E+00  1.59547E+00  1.63429E+00  1.67405E+00  1.71478E+00
#           1.75650E+00  1.79924E+00  1.84302E+00  1.88786E+00  1.93379E+00
#           1.98084E+00  2.02904E+00  2.07841E+00  2.12898E+00  2.18078E+00
#           2.23384E+00  2.28819E+00  2.34386E+00  2.40089E+00  2.45930E+00
#           2.51914E+00  2.58043E+00  2.64322E+00  2.70753E+00  2.77341E+00
#           2.84088E+00  2.91001E+00  2.98081E+00  3.05333E+00  3.12762E+00
#           3.20372E+00  3.28167E+00  3.36152E+00  3.44330E+00  3.52708E+00
#           3.61290E+00  3.70080E+00  3.79085E+00  3.88308E+00  3.97756E+00
#           4.07434E+00  4.17347E+00  4.27501E+00  4.37903E+00  4.48557E+00
#           4.59471E+00  4.70650E+00  4.82102E+00  4.93832E+00  5.05847E+00
#           5.18155E+00  5.30762E+00  5.43676E+00  5.56904E+00  5.70453E+00
#           5.84333E+00  5.98550E+00  6.13114E+00  6.28031E+00  6.43312E+00
#           6.58964E+00  6.74997E+00  6.91420E+00  7.08243E+00  7.25475E+00
#           7.43126E+00  7.61207E+00  7.79728E+00  7.98700E+00  8.18133E+00
#           8.38038E+00  8.58428E+00  8.79315E+00  9.00709E+00  9.22624E+00
#           9.45072E+00  9.68067E+00  9.91620E+00  1.01575E+01  1.04046E+01
#           1.06578E+01  1.09171E+01  1.11827E+01  1.14548E+01  1.17335E+01
#           1.20190E+01  1.23114E+01  1.26109E+01  1.29178E+01  1.32321E+01
#           1.35540E+01  1.38838E+01  1.42216E+01  1.45676E+01  1.49221E+01
#           1.52851E+01  1.56570E+01  1.60380E+01  1.64282E+01  1.68279E+01
#           1.72374E+01  1.76568E+01  1.80864E+01  1.85264E+01  1.89772E+01
#           1.94389E+01  1.99119E+01  2.03963E+01  2.08926E+01  2.14009E+01
#           2.19216E+01  2.24550E+01  2.30014E+01  2.35610E+01  2.41343E+01
#           2.47215E+01  2.53230E+01  2.59391E+01  2.65702E+01  2.72167E+01
#           2.78789E+01  2.85572E+01  2.92520E+01  2.99637E+01  3.06928E+01
#           3.14396E+01  3.22045E+01  3.29881E+01  3.37907E+01  3.46128E+01
#           3.54550E+01  3.63177E+01  3.72013E+01  3.81064E+01  3.90336E+01
#           3.99833E+01  4.09561E+01  4.19526E+01  4.29734E+01  4.40189E+01
#           4.50900E+01  4.61870E+01  4.73108E+01  4.84619E+01  4.96410E+01
#           5.08488E+01  5.20860E+01  5.33533E+01  5.46514E+01  5.59812E+01
#           5.73432E+01  5.87384E+01  6.01676E+01  6.16315E+01  6.31311E+01
#           6.46671E+01  6.62405E+01  6.78522E+01  6.95031E+01  7.11941E+01
#           7.29263E+01  7.47007E+01  7.65182E+01  7.83800E+01  8.02870E+01
#           8.22405E+01  8.42414E+01  8.62911E+01  8.83906E+01  9.05412E+01
#           9.27442E+01  9.50007E+01  9.73122E+01  9.96799E+01  1.02105E+02
#           1.04589E+02  1.07134E+02  1.09741E+02  1.12411E+02  1.15146E+02
#           1.17948E+02  1.20817E+02  1.23757E+02  1.26768E+02  1.29852E+02
#           1.33012E+02  1.36248E+02  1.39563E+02  1.42959E+02  1.46437E+02
#           1.50000E+02
     unit =    2            # unit is [1/cm^2/(MeV/n)/source]
     axis =  eng            # axis of output
     file = detector-14.out  # file name of output for the above axis
   output = f-curr          # surface crossing forward current spectrum
     part =  neutron  
# kf/name :  2112     
#    used :        main (  %)        temp (  %)       total (  %)
#  memory :         414 (  0)           0 (  0)         414 (  0)

#------------------------------------------------------------------------------
#newpage:
#   no. =    1   reg = 113 - 213

x: Energy [MeV/n]
y:  F-Curr [1/cm^2/(MeV/n)/source]         
p: xlog ylog afac(0.8) form(0.9)
h: n            x            y(neutron ),hh0l   n 
#  e-lower      e-upper      neutron     r.err 
   1.0000E-02   1.0243E-02   1.6440E-05  0.2236
   1.0243E-02   1.0493E-02   1.8457E-05  0.2085
   1.0493E-02   1.0748E-02   1.8802E-05  0.2041
   1.0748E-02   1.1009E-02   3.6711E-05  0.1443
   1.1009E-02   1.1277E-02   1.7919E-05  0.2041
   1.1277E-02   1.1552E-02   1.7494E-05  0.2041
   1.1552E-02   1.1833E-02   1.7790E-05  0.2000
   1.1833E-02   1.2121E-02   1.9451E-05  0.1890
   1.2121E-02   1.2415E-02   2.3058E-05  0.1715
   1.2415E-02   1.2718E-02   1.5890E-05  0.2041
   1.2718E-02   1.3027E-02   2.3269E-05  0.1667
   1.3027E-02   1.3344E-02   2.7133E-05  0.1525
   1.3344E-02   1.3669E-02   1.5400E-05  0.2000
   1.3669E-02   1.4001E-02   1.9846E-05  0.1741
   1.4001E-02   1.4342E-02   2.1723E-05  0.1644
   1.4342E-02   1.4691E-02   2.8658E-05  0.1414
   1.4691E-02   1.5048E-02   2.5179E-05  0.1491
   1.5048E-02   1.5414E-02   2.7859E-05  0.1400
   1.5414E-02   1.5789E-02   2.0798E-05  0.1601
   1.5789E-02   1.6174E-02   2.0304E-05  0.1601
   1.6174E-02   1.6567E-02   2.4904E-05  0.1429
   1.6567E-02   1.6970E-02   2.4312E-05  0.1429
   1.6970E-02   1.7383E-02   1.4047E-05  0.1857
   1.7383E-02   1.7806E-02   2.6954E-05  0.1325
   1.7806E-02   1.8239E-02   1.5696E-05  0.1715
   1.8239E-02   1.8683E-02   2.0281E-05  0.1491
   1.8683E-02   1.9138E-02   1.9799E-05  0.1491
   1.9138E-02   1.9603E-02   2.3194E-05  0.1361
   1.9603E-02   2.0080E-02   2.0966E-05  0.1414
   2.0080E-02   2.0569E-02   1.8831E-05  0.1474
   2.0569E-02   2.1069E-02   1.8383E-05  0.1474
   2.1069E-02   2.1582E-02   1.5606E-05  0.1581
   2.1582E-02   2.2107E-02   1.8663E-05  0.1429
   2.2107E-02   2.2645E-02   2.0451E-05  0.1348
   2.2645E-02   2.3196E-02   2.3232E-05  0.1250
   2.3196E-02   2.3760E-02   2.1971E-05  0.1270
   2.3760E-02   2.4338E-02   2.5255E-05  0.1170
   2.4338E-02   2.4930E-02   2.3980E-05  0.1187
   2.4930E-02   2.5537E-02   2.5718E-05  0.1132
   2.5537E-02   2.6158E-02   2.5751E-05  0.1118
   2.6158E-02   2.6795E-02   1.8226E-05  0.1313
   2.6795E-02   2.7447E-02   2.4849E-05  0.1111
   2.7447E-02   2.8114E-02   2.3660E-05  0.1125
   2.8114E-02   2.8799E-02   2.1344E-05  0.1170
   2.8799E-02   2.9499E-02   2.3405E-05  0.1104
   2.9499E-02   3.0217E-02   2.4521E-05  0.1066
   3.0217E-02   3.0952E-02   2.4483E-05  0.1054
   3.0952E-02   3.1705E-02   2.0715E-05  0.1132
   3.1705E-02   3.2477E-02   2.5926E-05  0.1000
   3.2477E-02   3.3267E-02   2.4804E-05  0.1010
   3.3267E-02   3.4076E-02   2.3721E-05  0.1021
   3.4076E-02   3.4905E-02   2.1951E-05  0.1048
   3.4905E-02   3.5755E-02   2.4962E-05  0.0971
   3.5755E-02   3.6625E-02   2.2071E-05  0.1021
   3.6625E-02   3.7516E-02   2.3566E-05  0.0976
   3.7516E-02   3.8428E-02   2.2787E-05  0.0981
   3.8428E-02   3.9363E-02   2.4813E-05  0.0928
   3.9363E-02   4.0321E-02   2.7774E-05  0.0867
   4.0321E-02   4.1302E-02   2.6298E-05  0.0880
   4.1302E-02   4.2307E-02   2.6868E-05  0.0861
   4.2307E-02   4.3337E-02   2.3510E-05  0.0909
   4.3337E-02   4.4391E-02   2.4469E-05  0.0880
   4.4391E-02   4.5471E-02   2.3702E-05  0.0884
   4.5471E-02   4.6577E-02   2.4405E-05  0.0861
   4.6577E-02   4.7711E-02   2.7355E-05  0.0803
   4.7711E-02   4.8871E-02   2.1881E-05  0.0887
   4.8871E-02   5.0061E-02   2.2875E-05  0.0857
   5.0061E-02   5.1279E-02   2.5451E-05  0.0803
   5.1279E-02   5.2526E-02   2.8694E-05  0.0747
   5.2526E-02   5.3804E-02   2.4570E-05  0.0798
   5.3804E-02   5.5113E-02   2.5514E-05  0.0774
   5.5113E-02   5.6454E-02   2.3565E-05  0.0796
   5.6454E-02   5.7828E-02   2.5190E-05  0.0760
   5.7828E-02   5.9235E-02   2.6439E-05  0.0733
   5.9235E-02   6.0676E-02   2.5950E-05  0.0731
   6.0676E-02   6.2152E-02   2.4656E-05  0.0741
   6.2152E-02   6.3665E-02   2.7509E-05  0.0693
   6.3665E-02   6.5214E-02   2.5436E-05  0.0712
   6.5214E-02   6.6800E-02   3.0252E-05  0.0645
   6.6800E-02   6.8426E-02   2.6703E-05  0.0679
   6.8426E-02   7.0090E-02   2.5468E-05  0.0687
   7.0090E-02   7.1796E-02   3.0375E-05  0.0621
   7.1796E-02   7.3543E-02   2.7593E-05  0.0644
   7.3543E-02   7.5332E-02   2.6043E-05  0.0655
   7.5332E-02   7.7165E-02   2.4661E-05  0.0665
   7.7165E-02   7.9042E-02   2.8016E-05  0.0617
   7.9042E-02   8.0965E-02   2.8911E-05  0.0600
   8.0965E-02   8.2935E-02   2.7513E-05  0.0607
   8.2935E-02   8.4953E-02   2.6959E-05  0.0606
   8.4953E-02   8.7020E-02   2.6222E-05  0.0607
   8.7020E-02   8.9138E-02   2.8197E-05  0.0579
   8.9138E-02   9.1306E-02   2.7389E-05  0.0580
   9.1306E-02   9.3528E-02   3.1239E-05  0.0537
   9.3528E-02   9.5804E-02   2.8740E-05  0.0553
   9.5804E-02   9.8134E-02   2.7714E-05  0.0556
   9.8134E-02   1.0052E-01   2.8898E-05  0.0538
   1.0052E-01   1.0297E-01   2.7639E-05  0.0544
   1.0297E-01   1.0547E-01   3.0256E-05  0.0514
   1.0547E-01   1.0804E-01   2.9148E-05  0.0517
   1.0804E-01   1.1067E-01   2.9064E-05  0.0512
   1.1067E-01   1.1336E-01   3.0416E-05  0.0494
   1.1336E-01   1.1612E-01   2.8787E-05  0.0502
   1.1612E-01   1.1894E-01   2.9590E-05  0.0489
   1.1894E-01   1.2184E-01   2.9578E-05  0.0483
   1.2184E-01   1.2480E-01   3.0023E-05  0.0474
   1.2480E-01   1.2784E-01   2.9902E-05  0.0469
   1.2784E-01   1.3095E-01   2.8999E-05  0.0471
   1.3095E-01   1.3414E-01   2.8687E-05  0.0468
   1.3414E-01   1.3740E-01   2.9476E-05  0.0456
   1.3740E-01   1.4074E-01   2.8806E-05  0.0456
   1.4074E-01   1.4417E-01   2.8969E-05  0.0449
   1.4417E-01   1.4767E-01   3.1417E-05  0.0426
   1.4767E-01   1.5127E-01   3.2006E-05  0.0417
   1.5127E-01   1.5495E-01   3.2496E-05  0.0409
   1.5495E-01   1.5872E-01   3.0239E-05  0.0419
   1.5872E-01   1.6258E-01   2.9831E-05  0.0417
   1.6258E-01   1.6654E-01   2.9224E-05  0.0416
   1.6654E-01   1.7059E-01   3.1689E-05  0.0395
   1.7059E-01   1.7474E-01   3.1080E-05  0.0394
   1.7474E-01   1.7899E-01   3.1659E-05  0.0385
   1.7899E-01   1.8334E-01   3.4122E-05  0.0367
   1.8334E-01   1.8781E-01   3.1160E-05  0.0379
   1.8781E-01   1.9237E-01   3.2520E-05  0.0367
   1.9237E-01   1.9706E-01   3.2688E-05  0.0362
   1.9706E-01   2.0185E-01   3.2203E-05  0.0360
   2.0185E-01   2.0676E-01   3.3149E-05  0.0350
   2.0676E-01   2.1179E-01   3.2481E-05  0.0350
   2.1179E-01   2.1694E-01   3.3068E-05  0.0343
   2.1694E-01   2.2222E-01   3.4025E-05  0.0334
   2.2222E-01   2.2763E-01   3.3032E-05  0.0335
   2.2763E-01   2.3317E-01   3.3439E-05  0.0329
   2.3317E-01   2.3884E-01   3.4161E-05  0.0321
   2.3884E-01   2.4465E-01   3.6584E-05  0.0307
   2.4465E-01   2.5061E-01   3.4506E-05  0.0312
   2.5061E-01   2.5670E-01   3.7950E-05  0.0294
   2.5670E-01   2.6295E-01   3.3767E-05  0.0308
   2.6295E-01   2.6935E-01   3.4325E-05  0.0302
   2.6935E-01   2.7590E-01   3.4455E-05  0.0298
   2.7590E-01   2.8261E-01   3.4561E-05  0.0294
   2.8261E-01   2.8949E-01   3.5281E-05  0.0287
   2.8949E-01   2.9653E-01   3.3251E-05  0.0292
   2.9653E-01   3.0375E-01   3.6480E-05  0.0276
   3.0375E-01   3.1114E-01   3.5424E-05  0.0276
   3.1114E-01   3.1871E-01   3.5996E-05  0.0271
   3.1871E-01   3.2646E-01   3.5902E-05  0.0268
   3.2646E-01   3.3441E-01   3.6107E-05  0.0264
   3.3441E-01   3.4254E-01   3.4241E-05  0.0268
   3.4254E-01   3.5088E-01   3.7844E-05  0.0252
   3.5088E-01   3.5941E-01   3.6921E-05  0.0252
   3.5941E-01   3.6816E-01   3.8377E-05  0.0244
   3.6816E-01   3.7712E-01   3.7354E-05  0.0244
   3.7712E-01   3.8629E-01   3.7665E-05  0.0241
   3.8629E-01   3.9569E-01   3.7952E-05  0.0237
   3.9569E-01   4.0532E-01   3.7933E-05  0.0234
   4.0532E-01   4.1518E-01   3.6282E-05  0.0236
   4.1518E-01   4.2528E-01   3.8964E-05  0.0225
   4.2528E-01   4.3563E-01   3.9063E-05  0.0222
   4.3563E-01   4.4623E-01   3.7324E-05  0.0225
   4.4623E-01   4.5708E-01   3.7671E-05  0.0221
   4.5708E-01   4.6821E-01   3.6525E-05  0.0222
   4.6821E-01   4.7960E-01   3.8923E-05  0.0212
   4.7960E-01   4.9127E-01   3.7827E-05  0.0213
   4.9127E-01   5.0322E-01   3.7715E-05  0.0211
   5.0322E-01   5.1546E-01   3.8305E-05  0.0207
   5.1546E-01   5.2800E-01   3.8033E-05  0.0205
   5.2800E-01   5.4085E-01   3.8142E-05  0.0202
   5.4085E-01   5.5401E-01   3.8178E-05  0.0200
   5.5401E-01   5.6749E-01   3.8073E-05  0.0197
   5.6749E-01   5.8130E-01   3.8921E-05  0.0193
   5.8130E-01   5.9544E-01   3.8011E-05  0.0193
   5.9544E-01   6.0993E-01   3.8074E-05  0.0190
   6.0993E-01   6.2477E-01   3.9191E-05  0.0185
   6.2477E-01   6.3997E-01   3.8129E-05  0.0186
   6.3997E-01   6.5554E-01   3.7827E-05  0.0184
   6.5554E-01   6.7149E-01   3.6076E-05  0.0186
   6.7149E-01   6.8783E-01   3.7177E-05  0.0181
   6.8783E-01   7.0456E-01   3.6539E-05  0.0181
   7.0456E-01   7.2171E-01   3.6669E-05  0.0178
   7.2171E-01   7.3927E-01   3.5752E-05  0.0178
   7.3927E-01   7.5725E-01   3.6671E-05  0.0174
   7.5725E-01   7.7568E-01   3.5208E-05  0.0176
   7.7568E-01   7.9455E-01   3.4213E-05  0.0176
   7.9455E-01   8.1388E-01   3.5258E-05  0.0171
   8.1388E-01   8.3368E-01   3.3642E-05  0.0173
   8.3368E-01   8.5397E-01   3.2883E-05  0.0173
   8.5397E-01   8.7475E-01   3.1466E-05  0.0175
   8.7475E-01   8.9603E-01   3.2110E-05  0.0171
   8.9603E-01   9.1783E-01   3.0833E-05  0.0172
   9.1783E-01   9.4016E-01   2.9519E-05  0.0174
   9.4016E-01   9.6304E-01   2.9465E-05  0.0172
   9.6304E-01   9.8647E-01   2.7570E-05  0.0176
   9.8647E-01   1.0105E+00   2.5890E-05  0.0179
   1.0105E+00   1.0351E+00   2.7089E-05  0.0173
   1.0351E+00   1.0602E+00   2.7609E-05  0.0170
   1.0602E+00   1.0860E+00   2.6748E-05  0.0170
   1.0860E+00   1.1125E+00   2.7744E-05  0.0165
   1.1125E+00   1.1395E+00   2.7598E-05  0.0164
   1.1395E+00   1.1673E+00   2.8039E-05  0.0160
   1.1673E+00   1.1957E+00   2.8612E-05  0.0157
   1.1957E+00   1.2247E+00   2.8655E-05  0.0155
   1.2247E+00   1.2545E+00   2.9504E-05  0.0151
   1.2545E+00   1.2851E+00   3.0029E-05  0.0148
   1.2851E+00   1.3163E+00   2.9603E-05  0.0147
   1.3163E+00   1.3484E+00   3.0059E-05  0.0144
   1.3484E+00   1.3812E+00   3.1049E-05  0.0140
   1.3812E+00   1.4148E+00   3.1394E-05  0.0138
   1.4148E+00   1.4492E+00   3.2046E-05  0.0135
   1.4492E+00   1.4845E+00   3.0993E-05  0.0135
   1.4845E+00   1.5206E+00   3.2311E-05  0.0131
   1.5206E+00   1.5576E+00   3.1792E-05  0.0130
   1.5576E+00   1.5955E+00   3.1844E-05  0.0129
   1.5955E+00   1.6343E+00   3.1853E-05  0.0127
   1.6343E+00   1.6741E+00   3.2653E-05  0.0124
   1.6741E+00   1.7148E+00   3.3378E-05  0.0121
   1.7148E+00   1.7565E+00   3.4615E-05  0.0118
   1.7565E+00   1.7992E+00   3.2826E-05  0.0119
   1.7992E+00   1.8430E+00   3.4667E-05  0.0115
   1.8430E+00   1.8879E+00   3.4318E-05  0.0114
   1.8879E+00   1.9338E+00   3.5493E-05  0.0111
   1.9338E+00   1.9808E+00   3.5370E-05  0.0110
   1.9808E+00   2.0290E+00   3.5916E-05  0.0108
   2.0290E+00   2.0784E+00   3.6058E-05  0.0106
   2.0784E+00   2.1290E+00   3.6866E-05  0.0104
   2.1290E+00   2.1808E+00   3.5867E-05  0.0104
   2.1808E+00   2.2338E+00   3.6576E-05  0.0102
   2.2338E+00   2.2882E+00   3.6836E-05  0.0100
   2.2882E+00   2.3439E+00   3.8392E-05  0.0097
   2.3439E+00   2.4009E+00   3.9251E-05  0.0095
   2.4009E+00   2.4593E+00   3.8236E-05  0.0095
   2.4593E+00   2.5191E+00   3.8535E-05  0.0093
   2.5191E+00   2.5804E+00   3.9076E-05  0.0091
   2.5804E+00   2.6432E+00   3.9206E-05  0.0090
   2.6432E+00   2.7075E+00   3.8942E-05  0.0089
   2.7075E+00   2.7734E+00   3.9664E-05  0.0087
   2.7734E+00   2.8409E+00   4.0750E-05  0.0085
   2.8409E+00   2.9100E+00   4.0750E-05  0.0084
   2.9100E+00   2.9808E+00   4.1905E-05  0.0082
   2.9808E+00   3.0533E+00   4.2444E-05  0.0081
   3.0533E+00   3.1276E+00   4.1403E-05  0.0081
   3.1276E+00   3.2037E+00   4.1841E-05  0.0079
   3.2037E+00   3.2817E+00   4.1607E-05  0.0079
   3.2817E+00   3.3615E+00   4.2319E-05  0.0077
   3.3615E+00   3.4433E+00   4.3033E-05  0.0075
   3.4433E+00   3.5271E+00   4.3222E-05  0.0074
   3.5271E+00   3.6129E+00   4.3859E-05  0.0073
   3.6129E+00   3.7008E+00   4.4350E-05  0.0072
   3.7008E+00   3.7908E+00   4.4386E-05  0.0071
   3.7908E+00   3.8831E+00   4.3548E-05  0.0071
   3.8831E+00   3.9776E+00   4.4188E-05  0.0069
   3.9776E+00   4.0743E+00   4.4834E-05  0.0068
   4.0743E+00   4.1735E+00   4.4228E-05  0.0068
   4.1735E+00   4.2750E+00   4.4267E-05  0.0067
   4.2750E+00   4.3790E+00   4.4028E-05  0.0066
   4.3790E+00   4.4856E+00   4.4401E-05  0.0065
   4.4856E+00   4.5947E+00   4.4072E-05  0.0064
   4.5947E+00   4.7065E+00   4.4046E-05  0.0064
   4.7065E+00   4.8210E+00   4.4400E-05  0.0063
   4.8210E+00   4.9383E+00   4.4424E-05  0.0062
   4.9383E+00   5.0585E+00   4.4074E-05  0.0061
   5.0585E+00   5.1815E+00   4.3514E-05  0.0061
   5.1815E+00   5.3076E+00   4.3052E-05  0.0061
   5.3076E+00   5.4368E+00   4.2561E-05  0.0060
   5.4368E+00   5.5690E+00   4.1965E-05  0.0060
   5.5690E+00   5.7045E+00   4.1763E-05  0.0059
   5.7045E+00   5.8433E+00   4.1406E-05  0.0059
   5.8433E+00   5.9855E+00   4.1447E-05  0.0058
   5.9855E+00   6.1311E+00   4.0883E-05  0.0058
   6.1311E+00   6.2803E+00   4.0278E-05  0.0058
   6.2803E+00   6.4331E+00   3.9065E-05  0.0058
   6.4331E+00   6.5896E+00   3.8580E-05  0.0058
   6.5896E+00   6.7500E+00   3.7981E-05  0.0057
   6.7500E+00   6.9142E+00   3.7853E-05  0.0057
   6.9142E+00   7.0824E+00   3.7106E-05  0.0057
   7.0824E+00   7.2548E+00   3.5900E-05  0.0057
   7.2548E+00   7.4313E+00   3.5256E-05  0.0057
   7.4313E+00   7.6121E+00   3.4476E-05  0.0057
   7.6121E+00   7.7973E+00   3.4110E-05  0.0056
   7.7973E+00   7.9870E+00   3.3581E-05  0.0056
   7.9870E+00   8.1813E+00   3.2810E-05  0.0056
   8.1813E+00   8.3804E+00   3.2179E-05  0.0056
   8.3804E+00   8.5843E+00   3.1596E-05  0.0056
   8.5843E+00   8.7931E+00   3.0805E-05  0.0056
   8.7931E+00   9.0071E+00   3.0502E-05  0.0055
   9.0071E+00   9.2262E+00   3.0040E-05  0.0055
   9.2262E+00   9.4507E+00   2.9250E-05  0.0055
   9.4507E+00   9.6807E+00   2.8738E-05  0.0055
   9.6807E+00   9.9162E+00   2.8350E-05  0.0055
   9.9162E+00   1.0157E+01   2.7806E-05  0.0055
   1.0157E+01   1.0405E+01   2.7272E-05  0.0054
   1.0405E+01   1.0658E+01   2.6828E-05  0.0054
   1.0658E+01   1.0917E+01   2.6292E-05  0.0054
   1.0917E+01   1.1183E+01   2.5860E-05  0.0054
   1.1183E+01   1.1455E+01   2.5638E-05  0.0054
   1.1455E+01   1.1733E+01   2.4712E-05  0.0054
   1.1733E+01   1.2019E+01   2.4648E-05  0.0053
   1.2019E+01   1.2311E+01   2.4211E-05  0.0053
   1.2311E+01   1.2611E+01   2.3623E-05  0.0053
   1.2611E+01   1.2918E+01   2.3457E-05  0.0053
   1.2918E+01   1.3232E+01   2.3025E-05  0.0053
   1.3232E+01   1.3554E+01   2.2495E-05  0.0053
   1.3554E+01   1.3884E+01   2.2532E-05  0.0052
   1.3884E+01   1.4222E+01   2.1752E-05  0.0052
   1.4222E+01   1.4568E+01   2.1487E-05  0.0052
   1.4568E+01   1.4922E+01   2.1285E-05  0.0051
   1.4922E+01   1.5285E+01   2.0861E-05  0.0051
   1.5285E+01   1.5657E+01   2.0361E-05  0.0051
   1.5657E+01   1.6038E+01   1.9965E-05  0.0051
   1.6038E+01   1.6428E+01   1.9598E-05  0.0051
   1.6428E+01   1.6828E+01   1.8994E-05  0.0051
   1.6828E+01   1.7237E+01   1.8765E-05  0.0051
   1.7237E+01   1.7657E+01   1.8456E-05  0.0051
   1.7657E+01   1.8086E+01   1.8028E-05  0.0051
   1.8086E+01   1.8526E+01   1.7777E-05  0.0051
   1.8526E+01   1.8977E+01   1.7362E-05  0.0051
   1.8977E+01   1.9439E+01   1.6847E-05  0.0051
   1.9439E+01   1.9912E+01   1.6535E-05  0.0051
   1.9912E+01   2.0396E+01   1.8074E-05  0.0048
   2.0396E+01   2.0893E+01   1.8272E-05  0.0047
   2.0893E+01   2.1401E+01   1.7572E-05  0.0047
   2.1401E+01   2.1922E+01   1.7131E-05  0.0047
   2.1922E+01   2.2455E+01   1.6294E-05  0.0048
   2.2455E+01   2.3001E+01   1.5746E-05  0.0048
   2.3001E+01   2.3561E+01   1.5115E-05  0.0049
   2.3561E+01   2.4134E+01   1.4413E-05  0.0049
   2.4134E+01   2.4721E+01   1.4086E-05  0.0049
   2.4721E+01   2.5323E+01   1.3370E-05  0.0050
   2.5323E+01   2.5939E+01   1.2776E-05  0.0050
   2.5939E+01   2.6570E+01   1.2284E-05  0.0051
   2.6570E+01   2.7217E+01   1.1609E-05  0.0052
   2.7217E+01   2.7879E+01   1.1035E-05  0.0052
   2.7879E+01   2.8557E+01   1.0506E-05  0.0053
   2.8557E+01   2.9252E+01   9.9568E-06  0.0054
   2.9252E+01   2.9964E+01   9.4250E-06  0.0055
   2.9964E+01   3.0693E+01   8.9748E-06  0.0055
   3.0693E+01   3.1440E+01   8.3607E-06  0.0057
   3.1440E+01   3.2205E+01   7.9095E-06  0.0057
   3.2205E+01   3.2988E+01   7.4792E-06  0.0058
   3.2988E+01   3.3791E+01   6.9761E-06  0.0060
   3.3791E+01   3.4613E+01   6.4569E-06  0.0061
   3.4613E+01   3.5455E+01   6.0155E-06  0.0063
   3.5455E+01   3.6318E+01   5.5874E-06  0.0064
   3.6318E+01   3.7201E+01   5.2053E-06  0.0066
   3.7201E+01   3.8106E+01   4.7626E-06  0.0068
   3.8106E+01   3.9034E+01   4.3535E-06  0.0070
   3.9034E+01   3.9983E+01   4.0359E-06  0.0072
   3.9983E+01   4.0956E+01   3.7049E-06  0.0074
   4.0956E+01   4.1953E+01   3.3379E-06  0.0078
   4.1953E+01   4.2973E+01   3.0204E-06  0.0081
   4.2973E+01   4.4019E+01   2.7390E-06  0.0084
   4.4019E+01   4.5090E+01   2.4523E-06  0.0087
   4.5090E+01   4.6187E+01   2.1585E-06  0.0092
   4.6187E+01   4.7311E+01   1.9559E-06  0.0095
   4.7311E+01   4.8462E+01   1.7154E-06  0.0101
   4.8462E+01   4.9641E+01   1.5447E-06  0.0105
   4.9641E+01   5.0849E+01   1.3666E-06  0.0110
   5.0849E+01   5.2086E+01   1.2142E-06  0.0115
   5.2086E+01   5.3353E+01   1.0541E-06  0.0122
   5.3353E+01   5.4651E+01   9.1932E-07  0.0129
   5.4651E+01   5.5981E+01   8.0604E-07  0.0137
   5.5981E+01   5.7343E+01   6.9395E-07  0.0145
   5.7343E+01   5.8738E+01   6.0091E-07  0.0154
   5.8738E+01   6.0168E+01   5.1961E-07  0.0164
   6.0168E+01   6.1632E+01   4.3732E-07  0.0177
   6.1632E+01   6.3131E+01   3.7718E-07  0.0188
   6.3131E+01   6.4667E+01   3.2682E-07  0.0200
   6.4667E+01   6.6240E+01   2.8143E-07  0.0213
   6.6240E+01   6.7852E+01   2.3838E-07  0.0228
   6.7852E+01   6.9503E+01   2.1104E-07  0.0240
   6.9503E+01   7.1194E+01   1.7776E-07  0.0258
   7.1194E+01   7.2926E+01   1.6072E-07  0.0268
   7.2926E+01   7.4701E+01   1.3030E-07  0.0294
   7.4701E+01   7.6518E+01   1.2093E-07  0.0302
   7.6518E+01   7.8380E+01   9.3461E-08  0.0339
   7.8380E+01   8.0287E+01   7.0056E-08  0.0387
   8.0287E+01   8.2240E+01   5.9280E-08  0.0416
   8.2240E+01   8.4241E+01   4.5078E-08  0.0471
   8.4241E+01   8.6291E+01   3.5323E-08  0.0526
   8.6291E+01   8.8391E+01   2.1052E-08  0.0673
   8.8391E+01   9.0541E+01   1.2834E-08  0.0851
   9.0541E+01   9.2744E+01   3.8131E-09  0.1543
   9.2744E+01   9.5001E+01   5.3179E-10  0.4082
   9.5001E+01   9.7312E+01   8.6526E-11  1.0000
   9.7312E+01   9.9680E+01   0.0000E+00  0.0000
   9.9680E+01   1.0211E+02   0.0000E+00  0.0000
   1.0211E+02   1.0459E+02   0.0000E+00  0.0000
   1.0459E+02   1.0713E+02   0.0000E+00  0.0000
   1.0713E+02   1.0974E+02   0.0000E+00  0.0000
   1.0974E+02   1.1241E+02   0.0000E+00  0.0000
   1.1241E+02   1.1515E+02   0.0000E+00  0.0000
   1.1515E+02   1.1795E+02   0.0000E+00  0.0000
   1.1795E+02   1.2082E+02   0.0000E+00  0.0000
   1.2082E+02   1.2376E+02   0.0000E+00  0.0000
   1.2376E+02   1.2677E+02   0.0000E+00  0.0000
   1.2677E+02   1.2985E+02   0.0000E+00  0.0000
   1.2985E+02   1.3301E+02   0.0000E+00  0.0000
   1.3301E+02   1.3625E+02   0.0000E+00  0.0000
   1.3625E+02   1.3956E+02   0.0000E+00  0.0000
   1.3956E+02   1.4296E+02   0.0000E+00  0.0000
   1.4296E+02   1.4644E+02   0.0000E+00  0.0000
   1.4644E+02   1.5000E+02   0.0000E+00  0.0000

#   sum over                 5.4363E-06
'no. =    1   reg = 113 - 213'
msuc: {\huge [t-cross] in region mesh}
msdr: {\it plotted by \ANGEL \version}
msdl: {\it calculated by \PHITS  3.26}
wt: s(0.7)
\vspace{-3}
  region surface crossing
  area  &=&   1.0000E+00 [cm^2]
e:
 
# Information for Restart Calculation
# This calculation was newly started
# istdev =  2 # 1:Batch variance, 2:History variance
# resc2  = 5.00000000000000000E+09 # Total source weight or Total source weight / maxcas
# resc3  = 5.00000000000000000E+09 # Total history number or Total batch number
# maxcas =   500000000 # History / Batch, only used for istdev=1
# bitrseed = 0110100000100010111000001110001111001110100100011111101000111001 # bit data of rseed
