[ T-Cross ]
    title = [t-cross] in region mesh
     mesh =  reg            # mesh type is region-wise
      reg =    1            # number of crossing regions
      non     r-from    r-to       area
      1       120       220        1.000000    
   e-type =    3            # e-mesh is log given by emin, emax and ne
     emin =  1.0000000E-02  # minimum value of e-mesh points
     emax =   150.0000      # maximum value of e-mesh points
#    edel =  2.4039514E-02  # mesh width of e-mesh points
       ne =    400          # number of e-mesh points
#    data = ( e(i), i = 1, ne + 1 )
#           1.00000E-02  1.02433E-02  1.04925E-02  1.07478E-02  1.10093E-02
#           1.12772E-02  1.15516E-02  1.18326E-02  1.21205E-02  1.24154E-02
#           1.27175E-02  1.30269E-02  1.33439E-02  1.36686E-02  1.40011E-02
#           1.43418E-02  1.46907E-02  1.50482E-02  1.54143E-02  1.57894E-02
#           1.61735E-02  1.65670E-02  1.69701E-02  1.73830E-02  1.78060E-02
#           1.82392E-02  1.86830E-02  1.91375E-02  1.96032E-02  2.00801E-02
#           2.05687E-02  2.10692E-02  2.15818E-02  2.21069E-02  2.26448E-02
#           2.31957E-02  2.37601E-02  2.43382E-02  2.49304E-02  2.55369E-02
#           2.61583E-02  2.67947E-02  2.74467E-02  2.81145E-02  2.87985E-02
#           2.94992E-02  3.02169E-02  3.09521E-02  3.17052E-02  3.24766E-02
#           3.32668E-02  3.40762E-02  3.49053E-02  3.57546E-02  3.66246E-02
#           3.75157E-02  3.84284E-02  3.93634E-02  4.03212E-02  4.13022E-02
#           4.23071E-02  4.33365E-02  4.43909E-02  4.54710E-02  4.65773E-02
#           4.77106E-02  4.88714E-02  5.00605E-02  5.12785E-02  5.25262E-02
#           5.38042E-02  5.51133E-02  5.64542E-02  5.78278E-02  5.92348E-02
#           6.06760E-02  6.21523E-02  6.36645E-02  6.52135E-02  6.68002E-02
#           6.84255E-02  7.00904E-02  7.17957E-02  7.35426E-02  7.53319E-02
#           7.71648E-02  7.90423E-02  8.09655E-02  8.29354E-02  8.49533E-02
#           8.70203E-02  8.91376E-02  9.13064E-02  9.35279E-02  9.58035E-02
#           9.81345E-02  1.00522E-01  1.02968E-01  1.05473E-01  1.08040E-01
#           1.10668E-01  1.13361E-01  1.16119E-01  1.18944E-01  1.21838E-01
#           1.24803E-01  1.27839E-01  1.30950E-01  1.34136E-01  1.37399E-01
#           1.40742E-01  1.44167E-01  1.47675E-01  1.51268E-01  1.54948E-01
#           1.58718E-01  1.62580E-01  1.66535E-01  1.70587E-01  1.74738E-01
#           1.78989E-01  1.83344E-01  1.87805E-01  1.92375E-01  1.97055E-01
#           2.01850E-01  2.06761E-01  2.11792E-01  2.16945E-01  2.22223E-01
#           2.27630E-01  2.33169E-01  2.38842E-01  2.44653E-01  2.50605E-01
#           2.56703E-01  2.62949E-01  2.69346E-01  2.75900E-01  2.82613E-01
#           2.89489E-01  2.96532E-01  3.03747E-01  3.11138E-01  3.18708E-01
#           3.26462E-01  3.34405E-01  3.42542E-01  3.50876E-01  3.59413E-01
#           3.68158E-01  3.77116E-01  3.86291E-01  3.95690E-01  4.05317E-01
#           4.15179E-01  4.25281E-01  4.35628E-01  4.46227E-01  4.57084E-01
#           4.68205E-01  4.79597E-01  4.91266E-01  5.03219E-01  5.15463E-01
#           5.28005E-01  5.40851E-01  5.54011E-01  5.67490E-01  5.81298E-01
#           5.95441E-01  6.09929E-01  6.24769E-01  6.39970E-01  6.55541E-01
#           6.71491E-01  6.87828E-01  7.04564E-01  7.21706E-01  7.39266E-01
#           7.57253E-01  7.75678E-01  7.94551E-01  8.13883E-01  8.33685E-01
#           8.53969E-01  8.74747E-01  8.96030E-01  9.17831E-01  9.40163E-01
#           9.63038E-01  9.86469E-01  1.01047E+00  1.03506E+00  1.06024E+00
#           1.08604E+00  1.11246E+00  1.13953E+00  1.16725E+00  1.19565E+00
#           1.22474E+00  1.25454E+00  1.28507E+00  1.31633E+00  1.34836E+00
#           1.38117E+00  1.41477E+00  1.44920E+00  1.48446E+00  1.52057E+00
#           1.55757E+00  1.59547E+00  1.63429E+00  1.67405E+00  1.71478E+00
#           1.75650E+00  1.79924E+00  1.84302E+00  1.88786E+00  1.93379E+00
#           1.98084E+00  2.02904E+00  2.07841E+00  2.12898E+00  2.18078E+00
#           2.23384E+00  2.28819E+00  2.34386E+00  2.40089E+00  2.45930E+00
#           2.51914E+00  2.58043E+00  2.64322E+00  2.70753E+00  2.77341E+00
#           2.84088E+00  2.91001E+00  2.98081E+00  3.05333E+00  3.12762E+00
#           3.20372E+00  3.28167E+00  3.36152E+00  3.44330E+00  3.52708E+00
#           3.61290E+00  3.70080E+00  3.79085E+00  3.88308E+00  3.97756E+00
#           4.07434E+00  4.17347E+00  4.27501E+00  4.37903E+00  4.48557E+00
#           4.59471E+00  4.70650E+00  4.82102E+00  4.93832E+00  5.05847E+00
#           5.18155E+00  5.30762E+00  5.43676E+00  5.56904E+00  5.70453E+00
#           5.84333E+00  5.98550E+00  6.13114E+00  6.28031E+00  6.43312E+00
#           6.58964E+00  6.74997E+00  6.91420E+00  7.08243E+00  7.25475E+00
#           7.43126E+00  7.61207E+00  7.79728E+00  7.98700E+00  8.18133E+00
#           8.38038E+00  8.58428E+00  8.79315E+00  9.00709E+00  9.22624E+00
#           9.45072E+00  9.68067E+00  9.91620E+00  1.01575E+01  1.04046E+01
#           1.06578E+01  1.09171E+01  1.11827E+01  1.14548E+01  1.17335E+01
#           1.20190E+01  1.23114E+01  1.26109E+01  1.29178E+01  1.32321E+01
#           1.35540E+01  1.38838E+01  1.42216E+01  1.45676E+01  1.49221E+01
#           1.52851E+01  1.56570E+01  1.60380E+01  1.64282E+01  1.68279E+01
#           1.72374E+01  1.76568E+01  1.80864E+01  1.85264E+01  1.89772E+01
#           1.94389E+01  1.99119E+01  2.03963E+01  2.08926E+01  2.14009E+01
#           2.19216E+01  2.24550E+01  2.30014E+01  2.35610E+01  2.41343E+01
#           2.47215E+01  2.53230E+01  2.59391E+01  2.65702E+01  2.72167E+01
#           2.78789E+01  2.85572E+01  2.92520E+01  2.99637E+01  3.06928E+01
#           3.14396E+01  3.22045E+01  3.29881E+01  3.37907E+01  3.46128E+01
#           3.54550E+01  3.63177E+01  3.72013E+01  3.81064E+01  3.90336E+01
#           3.99833E+01  4.09561E+01  4.19526E+01  4.29734E+01  4.40189E+01
#           4.50900E+01  4.61870E+01  4.73108E+01  4.84619E+01  4.96410E+01
#           5.08488E+01  5.20860E+01  5.33533E+01  5.46514E+01  5.59812E+01
#           5.73432E+01  5.87384E+01  6.01676E+01  6.16315E+01  6.31311E+01
#           6.46671E+01  6.62405E+01  6.78522E+01  6.95031E+01  7.11941E+01
#           7.29263E+01  7.47007E+01  7.65182E+01  7.83800E+01  8.02870E+01
#           8.22405E+01  8.42414E+01  8.62911E+01  8.83906E+01  9.05412E+01
#           9.27442E+01  9.50007E+01  9.73122E+01  9.96799E+01  1.02105E+02
#           1.04589E+02  1.07134E+02  1.09741E+02  1.12411E+02  1.15146E+02
#           1.17948E+02  1.20817E+02  1.23757E+02  1.26768E+02  1.29852E+02
#           1.33012E+02  1.36248E+02  1.39563E+02  1.42959E+02  1.46437E+02
#           1.50000E+02
     unit =    2            # unit is [1/cm^2/(MeV/n)/source]
     axis =  eng            # axis of output
     file = detector-21.out  # file name of output for the above axis
   output = f-curr          # surface crossing forward current spectrum
     part =  neutron  
# kf/name :  2112     
#    used :        main (  %)        temp (  %)       total (  %)
#  memory :         414 (  0)           0 (  0)         414 (  0)

#------------------------------------------------------------------------------
#newpage:
#   no. =    1   reg = 120 - 220

x: Energy [MeV/n]
y:  F-Curr [1/cm^2/(MeV/n)/source]         
p: xlog ylog afac(0.8) form(0.9)
h: n            x            y(neutron ),hh0l   n 
#  e-lower      e-upper      neutron     r.err 
   1.0000E-02   1.0243E-02   7.2490E-02  0.0119
   1.0243E-02   1.0493E-02   6.8923E-02  0.0121
   1.0493E-02   1.0748E-02   6.7854E-02  0.0120
   1.0748E-02   1.1009E-02   6.8355E-02  0.0118
   1.1009E-02   1.1277E-02   6.7506E-02  0.0118
   1.1277E-02   1.1552E-02   6.5064E-02  0.0118
   1.1552E-02   1.1833E-02   6.4559E-02  0.0117
   1.1833E-02   1.2121E-02   6.4441E-02  0.0116
   1.2121E-02   1.2415E-02   6.3199E-02  0.0116
   1.2415E-02   1.2718E-02   6.1154E-02  0.0116
   1.2718E-02   1.3027E-02   5.9630E-02  0.0116
   1.3027E-02   1.3344E-02   5.8407E-02  0.0116
   1.3344E-02   1.3669E-02   5.7890E-02  0.0115
   1.3669E-02   1.4001E-02   5.6109E-02  0.0116
   1.4001E-02   1.4342E-02   5.5829E-02  0.0115
   1.4342E-02   1.4691E-02   5.4249E-02  0.0115
   1.4691E-02   1.5048E-02   5.2450E-02  0.0115
   1.5048E-02   1.5414E-02   5.1894E-02  0.0115
   1.5414E-02   1.5789E-02   5.1694E-02  0.0114
   1.5789E-02   1.6174E-02   5.0688E-02  0.0113
   1.6174E-02   1.6567E-02   4.8899E-02  0.0114
   1.6567E-02   1.6970E-02   4.8866E-02  0.0113
   1.6970E-02   1.7383E-02   4.8487E-02  0.0112
   1.7383E-02   1.7806E-02   4.6762E-02  0.0112
   1.7806E-02   1.8239E-02   4.5813E-02  0.0112
   1.8239E-02   1.8683E-02   4.5265E-02  0.0112
   1.8683E-02   1.9138E-02   4.5433E-02  0.0110
   1.9138E-02   1.9603E-02   4.4201E-02  0.0110
   1.9603E-02   2.0080E-02   4.2980E-02  0.0110
   2.0080E-02   2.0569E-02   4.1949E-02  0.0110
   2.0569E-02   2.1069E-02   4.0828E-02  0.0111
   2.1069E-02   2.1582E-02   4.0209E-02  0.0110
   2.1582E-02   2.2107E-02   4.0192E-02  0.0109
   2.2107E-02   2.2645E-02   3.8847E-02  0.0109
   2.2645E-02   2.3196E-02   3.8789E-02  0.0108
   2.3196E-02   2.3760E-02   3.7746E-02  0.0108
   2.3760E-02   2.4338E-02   3.7039E-02  0.0108
   2.4338E-02   2.4930E-02   3.6404E-02  0.0108
   2.4930E-02   2.5537E-02   3.6005E-02  0.0107
   2.5537E-02   2.6158E-02   3.5420E-02  0.0107
   2.6158E-02   2.6795E-02   3.4358E-02  0.0107
   2.6795E-02   2.7447E-02   3.4378E-02  0.0106
   2.7447E-02   2.8114E-02   3.2970E-02  0.0107
   2.8114E-02   2.8799E-02   3.2903E-02  0.0105
   2.8799E-02   2.9499E-02   3.1744E-02  0.0106
   2.9499E-02   3.0217E-02   3.1725E-02  0.0105
   3.0217E-02   3.0952E-02   3.0821E-02  0.0105
   3.0952E-02   3.1705E-02   3.0484E-02  0.0104
   3.1705E-02   3.2477E-02   2.9514E-02  0.0105
   3.2477E-02   3.3267E-02   2.9493E-02  0.0104
   3.3267E-02   3.4076E-02   2.8581E-02  0.0104
   3.4076E-02   3.4905E-02   2.8603E-02  0.0103
   3.4905E-02   3.5755E-02   2.7512E-02  0.0103
   3.5755E-02   3.6625E-02   2.7105E-02  0.0103
   3.6625E-02   3.7516E-02   2.7006E-02  0.0102
   3.7516E-02   3.8428E-02   2.6403E-02  0.0102
   3.8428E-02   3.9363E-02   2.5891E-02  0.0102
   3.9363E-02   4.0321E-02   2.5007E-02  0.0102
   4.0321E-02   4.1302E-02   2.4611E-02  0.0102
   4.1302E-02   4.2307E-02   2.4500E-02  0.0101
   4.2307E-02   4.3337E-02   2.4119E-02  0.0100
   4.3337E-02   4.4391E-02   2.3482E-02  0.0101
   4.4391E-02   4.5471E-02   2.3264E-02  0.0100
   4.5471E-02   4.6577E-02   2.3128E-02  0.0099
   4.6577E-02   4.7711E-02   2.2710E-02  0.0099
   4.7711E-02   4.8871E-02   2.1629E-02  0.0100
   4.8871E-02   5.0061E-02   2.1669E-02  0.0099
   5.0061E-02   5.1279E-02   2.1241E-02  0.0098
   5.1279E-02   5.2526E-02   2.0926E-02  0.0098
   5.2526E-02   5.3804E-02   2.0385E-02  0.0098
   5.3804E-02   5.5113E-02   2.0203E-02  0.0097
   5.5113E-02   5.6454E-02   1.9397E-02  0.0098
   5.6454E-02   5.7828E-02   1.9819E-02  0.0096
   5.7828E-02   5.9235E-02   1.9042E-02  0.0097
   5.9235E-02   6.0676E-02   1.8790E-02  0.0096
   6.0676E-02   6.2152E-02   1.8353E-02  0.0096
   6.2152E-02   6.3665E-02   1.7828E-02  0.0096
   6.3665E-02   6.5214E-02   1.7881E-02  0.0095
   6.5214E-02   6.6800E-02   1.7628E-02  0.0095
   6.6800E-02   6.8426E-02   1.7269E-02  0.0094
   6.8426E-02   7.0090E-02   1.6946E-02  0.0094
   7.0090E-02   7.1796E-02   1.6520E-02  0.0094
   7.1796E-02   7.3543E-02   1.6173E-02  0.0094
   7.3543E-02   7.5332E-02   1.5963E-02  0.0094
   7.5332E-02   7.7165E-02   1.5411E-02  0.0094
   7.7165E-02   7.9042E-02   1.5369E-02  0.0093
   7.9042E-02   8.0965E-02   1.5299E-02  0.0092
   8.0965E-02   8.2935E-02   1.5096E-02  0.0092
   8.2935E-02   8.4953E-02   1.4733E-02  0.0092
   8.4953E-02   8.7020E-02   1.4526E-02  0.0091
   8.7020E-02   8.9138E-02   1.4369E-02  0.0091
   8.9138E-02   9.1306E-02   1.3803E-02  0.0091
   9.1306E-02   9.3528E-02   1.3882E-02  0.0090
   9.3528E-02   9.5804E-02   1.3492E-02  0.0090
   9.5804E-02   9.8134E-02   1.3369E-02  0.0090
   9.8134E-02   1.0052E-01   1.2983E-02  0.0090
   1.0052E-01   1.0297E-01   1.2494E-02  0.0090
   1.0297E-01   1.0547E-01   1.2524E-02  0.0089
   1.0547E-01   1.0804E-01   1.2269E-02  0.0089
   1.0804E-01   1.1067E-01   1.2211E-02  0.0088
   1.1067E-01   1.1336E-01   1.1935E-02  0.0088
   1.1336E-01   1.1612E-01   1.1575E-02  0.0089
   1.1612E-01   1.1894E-01   1.1564E-02  0.0088
   1.1894E-01   1.2184E-01   1.1224E-02  0.0088
   1.2184E-01   1.2480E-01   1.1038E-02  0.0087
   1.2480E-01   1.2784E-01   1.1037E-02  0.0086
   1.2784E-01   1.3095E-01   1.0842E-02  0.0086
   1.3095E-01   1.3414E-01   1.0596E-02  0.0086
   1.3414E-01   1.3740E-01   1.0371E-02  0.0086
   1.3740E-01   1.4074E-01   1.0140E-02  0.0086
   1.4074E-01   1.4417E-01   1.0092E-02  0.0085
   1.4417E-01   1.4767E-01   9.9916E-03  0.0084
   1.4767E-01   1.5127E-01   9.6861E-03  0.0085
   1.5127E-01   1.5495E-01   9.4900E-03  0.0085
   1.5495E-01   1.5872E-01   9.3939E-03  0.0084
   1.5872E-01   1.6258E-01   9.1248E-03  0.0084
   1.6258E-01   1.6654E-01   9.1558E-03  0.0083
   1.6654E-01   1.7059E-01   8.8538E-03  0.0084
   1.7059E-01   1.7474E-01   8.8904E-03  0.0082
   1.7474E-01   1.7899E-01   8.6893E-03  0.0082
   1.7899E-01   1.8334E-01   8.4593E-03  0.0082
   1.8334E-01   1.8781E-01   8.3273E-03  0.0082
   1.8781E-01   1.9237E-01   8.1785E-03  0.0082
   1.9237E-01   1.9706E-01   8.0443E-03  0.0082
   1.9706E-01   2.0185E-01   7.9038E-03  0.0081
   2.0185E-01   2.0676E-01   7.7512E-03  0.0081
   2.0676E-01   2.1179E-01   7.5706E-03  0.0081
   2.1179E-01   2.1694E-01   7.5019E-03  0.0080
   2.1694E-01   2.2222E-01   7.4137E-03  0.0080
   2.2222E-01   2.2763E-01   7.2537E-03  0.0080
   2.2763E-01   2.3317E-01   7.1243E-03  0.0080
   2.3317E-01   2.3884E-01   6.9873E-03  0.0079
   2.3884E-01   2.4465E-01   6.8721E-03  0.0079
   2.4465E-01   2.5061E-01   6.6500E-03  0.0080
   2.5061E-01   2.5670E-01   6.5934E-03  0.0079
   2.5670E-01   2.6295E-01   6.4528E-03  0.0079
   2.6295E-01   2.6935E-01   6.3065E-03  0.0079
   2.6935E-01   2.7590E-01   6.2914E-03  0.0078
   2.7590E-01   2.8261E-01   6.1419E-03  0.0078
   2.8261E-01   2.8949E-01   6.0408E-03  0.0078
   2.8949E-01   2.9653E-01   6.0160E-03  0.0077
   2.9653E-01   3.0375E-01   5.8674E-03  0.0077
   3.0375E-01   3.1114E-01   5.6595E-03  0.0077
   3.1114E-01   3.1871E-01   5.5840E-03  0.0077
   3.1871E-01   3.2646E-01   5.4558E-03  0.0077
   3.2646E-01   3.3441E-01   5.4642E-03  0.0076
   3.3441E-01   3.4254E-01   5.3191E-03  0.0076
   3.4254E-01   3.5088E-01   5.1564E-03  0.0076
   3.5088E-01   3.5941E-01   5.0632E-03  0.0076
   3.5941E-01   3.6816E-01   4.9529E-03  0.0076
   3.6816E-01   3.7712E-01   4.9386E-03  0.0075
   3.7712E-01   3.8629E-01   4.7234E-03  0.0076
   3.8629E-01   3.9569E-01   4.6844E-03  0.0075
   3.9569E-01   4.0532E-01   4.5788E-03  0.0075
   4.0532E-01   4.1518E-01   4.5386E-03  0.0075
   4.1518E-01   4.2528E-01   4.4201E-03  0.0075
   4.2528E-01   4.3563E-01   4.2474E-03  0.0075
   4.3563E-01   4.4623E-01   4.2154E-03  0.0075
   4.4623E-01   4.5708E-01   4.1376E-03  0.0075
   4.5708E-01   4.6821E-01   4.0646E-03  0.0074
   4.6821E-01   4.7960E-01   3.9671E-03  0.0074
   4.7960E-01   4.9127E-01   3.8572E-03  0.0075
   4.9127E-01   5.0322E-01   3.7845E-03  0.0074
   5.0322E-01   5.1546E-01   3.7078E-03  0.0074
   5.1546E-01   5.2800E-01   3.6054E-03  0.0074
   5.2800E-01   5.4085E-01   3.5296E-03  0.0074
   5.4085E-01   5.5401E-01   3.4143E-03  0.0075
   5.5401E-01   5.6749E-01   3.3386E-03  0.0075
   5.6749E-01   5.8130E-01   3.2529E-03  0.0075
   5.8130E-01   5.9544E-01   3.2253E-03  0.0074
   5.9544E-01   6.0993E-01   3.0901E-03  0.0075
   6.0993E-01   6.2477E-01   3.0427E-03  0.0074
   6.2477E-01   6.3997E-01   2.9526E-03  0.0075
   6.3997E-01   6.5554E-01   2.8549E-03  0.0075
   6.5554E-01   6.7149E-01   2.7492E-03  0.0076
   6.7149E-01   6.8783E-01   2.6934E-03  0.0075
   6.8783E-01   7.0456E-01   2.6329E-03  0.0075
   7.0456E-01   7.2171E-01   2.5123E-03  0.0076
   7.2171E-01   7.3927E-01   2.4431E-03  0.0076
   7.3927E-01   7.5725E-01   2.4088E-03  0.0076
   7.5725E-01   7.7568E-01   2.3193E-03  0.0077
   7.7568E-01   7.9455E-01   2.2481E-03  0.0077
   7.9455E-01   8.1388E-01   2.1825E-03  0.0077
   8.1388E-01   8.3368E-01   2.0997E-03  0.0078
   8.3368E-01   8.5397E-01   2.0082E-03  0.0078
   8.5397E-01   8.7475E-01   1.9087E-03  0.0079
   8.7475E-01   8.9603E-01   1.8724E-03  0.0079
   8.9603E-01   9.1783E-01   1.7908E-03  0.0080
   9.1783E-01   9.4016E-01   1.7171E-03  0.0081
   9.4016E-01   9.6304E-01   1.6411E-03  0.0082
   9.6304E-01   9.8647E-01   1.5626E-03  0.0083
   9.8647E-01   1.0105E+00   1.4973E-03  0.0083
   1.0105E+00   1.0351E+00   1.5057E-03  0.0082
   1.0351E+00   1.0602E+00   1.5346E-03  0.0080
   1.0602E+00   1.0860E+00   1.5282E-03  0.0080
   1.0860E+00   1.1125E+00   1.5379E-03  0.0078
   1.1125E+00   1.1395E+00   1.5936E-03  0.0076
   1.1395E+00   1.1673E+00   1.6516E-03  0.0074
   1.1673E+00   1.1957E+00   1.6714E-03  0.0073
   1.1957E+00   1.2247E+00   1.7295E-03  0.0071
   1.2247E+00   1.2545E+00   1.7247E-03  0.0070
   1.2545E+00   1.2851E+00   1.7271E-03  0.0069
   1.2851E+00   1.3163E+00   1.7556E-03  0.0068
   1.3163E+00   1.3484E+00   1.7624E-03  0.0067
   1.3484E+00   1.3812E+00   1.7960E-03  0.0065
   1.3812E+00   1.4148E+00   1.8636E-03  0.0063
   1.4148E+00   1.4492E+00   1.8303E-03  0.0063
   1.4492E+00   1.4845E+00   1.8071E-03  0.0063
   1.4845E+00   1.5206E+00   1.7910E-03  0.0062
   1.5206E+00   1.5576E+00   1.8159E-03  0.0061
   1.5576E+00   1.5955E+00   1.8147E-03  0.0060
   1.5955E+00   1.6343E+00   1.8362E-03  0.0059
   1.6343E+00   1.6741E+00   1.8331E-03  0.0059
   1.6741E+00   1.7148E+00   1.8617E-03  0.0058
   1.7148E+00   1.7565E+00   1.8596E-03  0.0057
   1.7565E+00   1.7992E+00   1.8152E-03  0.0057
   1.7992E+00   1.8430E+00   1.8054E-03  0.0056
   1.8430E+00   1.8879E+00   1.7795E-03  0.0056
   1.8879E+00   1.9338E+00   1.7954E-03  0.0055
   1.9338E+00   1.9808E+00   1.8056E-03  0.0054
   1.9808E+00   2.0290E+00   1.7926E-03  0.0054
   2.0290E+00   2.0784E+00   1.7372E-03  0.0054
   2.0784E+00   2.1290E+00   1.7077E-03  0.0054
   2.1290E+00   2.1808E+00   1.6781E-03  0.0054
   2.1808E+00   2.2338E+00   1.6314E-03  0.0054
   2.2338E+00   2.2882E+00   1.6005E-03  0.0054
   2.2882E+00   2.3439E+00   1.5761E-03  0.0053
   2.3439E+00   2.4009E+00   1.5666E-03  0.0053
   2.4009E+00   2.4593E+00   1.5120E-03  0.0053
   2.4593E+00   2.5191E+00   1.4785E-03  0.0053
   2.5191E+00   2.5804E+00   1.4239E-03  0.0054
   2.5804E+00   2.6432E+00   1.3726E-03  0.0054
   2.6432E+00   2.7075E+00   1.3192E-03  0.0054
   2.7075E+00   2.7734E+00   1.2734E-03  0.0055
   2.7734E+00   2.8409E+00   1.2325E-03  0.0055
   2.8409E+00   2.9100E+00   1.2105E-03  0.0055
   2.9100E+00   2.9808E+00   1.1682E-03  0.0055
   2.9808E+00   3.0533E+00   1.1103E-03  0.0056
   3.0533E+00   3.1276E+00   1.0689E-03  0.0056
   3.1276E+00   3.2037E+00   1.0145E-03  0.0057
   3.2037E+00   3.2817E+00   9.7265E-04  0.0057
   3.2817E+00   3.3615E+00   9.1356E-04  0.0059
   3.3615E+00   3.4433E+00   8.5944E-04  0.0060
   3.4433E+00   3.5271E+00   8.2682E-04  0.0060
   3.5271E+00   3.6129E+00   7.9154E-04  0.0061
   3.6129E+00   3.7008E+00   7.4575E-04  0.0062
   3.7008E+00   3.7908E+00   7.1086E-04  0.0063
   3.7908E+00   3.8831E+00   6.6692E-04  0.0064
   3.8831E+00   3.9776E+00   6.1705E-04  0.0066
   3.9776E+00   4.0743E+00   5.9632E-04  0.0066
   4.0743E+00   4.1735E+00   5.5436E-04  0.0067
   4.1735E+00   4.2750E+00   5.1128E-04  0.0069
   4.2750E+00   4.3790E+00   4.7313E-04  0.0071
   4.3790E+00   4.4856E+00   4.3946E-04  0.0073
   4.4856E+00   4.5947E+00   4.1484E-04  0.0074
   4.5947E+00   4.7065E+00   3.7661E-04  0.0077
   4.7065E+00   4.8210E+00   3.5038E-04  0.0079
   4.8210E+00   4.9383E+00   3.2822E-04  0.0081
   4.9383E+00   5.0585E+00   2.9688E-04  0.0084
   5.0585E+00   5.1815E+00   2.7286E-04  0.0086
   5.1815E+00   5.3076E+00   2.5271E-04  0.0089
   5.3076E+00   5.4368E+00   2.2898E-04  0.0092
   5.4368E+00   5.5690E+00   2.1369E-04  0.0094
   5.5690E+00   5.7045E+00   1.9407E-04  0.0098
   5.7045E+00   5.8433E+00   1.7888E-04  0.0100
   5.8433E+00   5.9855E+00   1.5914E-04  0.0105
   5.9855E+00   6.1311E+00   1.4572E-04  0.0109
   6.1311E+00   6.2803E+00   1.3145E-04  0.0113
   6.2803E+00   6.4331E+00   1.2159E-04  0.0116
   6.4331E+00   6.5896E+00   1.1129E-04  0.0120
   6.5896E+00   6.7500E+00   9.6231E-05  0.0127
   6.7500E+00   6.9142E+00   8.9794E-05  0.0130
   6.9142E+00   7.0824E+00   8.1408E-05  0.0135
   7.0824E+00   7.2548E+00   7.1435E-05  0.0143
   7.2548E+00   7.4313E+00   6.6740E-05  0.0146
   7.4313E+00   7.6121E+00   5.9737E-05  0.0152
   7.6121E+00   7.7973E+00   5.4133E-05  0.0158
   7.7973E+00   7.9870E+00   4.9040E-05  0.0164
   7.9870E+00   8.1813E+00   4.4335E-05  0.0170
   8.1813E+00   8.3804E+00   3.9515E-05  0.0178
   8.3804E+00   8.5843E+00   3.5370E-05  0.0186
   8.5843E+00   8.7931E+00   3.3337E-05  0.0189
   8.7931E+00   9.0071E+00   2.8531E-05  0.0202
   9.0071E+00   9.2262E+00   2.6882E-05  0.0206
   9.2262E+00   9.4507E+00   2.4607E-05  0.0213
   9.4507E+00   9.6807E+00   2.1973E-05  0.0222
   9.6807E+00   9.9162E+00   1.9784E-05  0.0231
   9.9162E+00   1.0157E+01   1.8237E-05  0.0238
   1.0157E+01   1.0405E+01   1.6721E-05  0.0246
   1.0405E+01   1.0658E+01   1.4779E-05  0.0258
   1.0658E+01   1.0917E+01   1.3994E-05  0.0262
   1.0917E+01   1.1183E+01   1.2885E-05  0.0270
   1.1183E+01   1.1455E+01   1.1233E-05  0.0286
   1.1455E+01   1.1733E+01   1.1616E-05  0.0278
   1.1733E+01   1.2019E+01   1.0395E-05  0.0290
   1.2019E+01   1.2311E+01   9.3184E-06  0.0302
   1.2311E+01   1.2611E+01   8.7174E-06  0.0309
   1.2611E+01   1.2918E+01   8.4125E-06  0.0311
   1.2918E+01   1.3232E+01   7.3298E-06  0.0329
   1.3232E+01   1.3554E+01   6.8645E-06  0.0336
   1.3554E+01   1.3884E+01   6.5119E-06  0.0340
   1.3884E+01   1.4222E+01   5.9650E-06  0.0352
   1.4222E+01   1.4568E+01   5.7836E-06  0.0352
   1.4568E+01   1.4922E+01   5.9565E-06  0.0343
   1.4922E+01   1.5285E+01   5.5775E-06  0.0350
   1.5285E+01   1.5657E+01   5.0350E-06  0.0364
   1.5657E+01   1.6038E+01   4.4757E-06  0.0382
   1.6038E+01   1.6428E+01   4.3726E-06  0.0381
   1.6428E+01   1.6828E+01   3.9654E-06  0.0396
   1.6828E+01   1.7237E+01   3.7338E-06  0.0403
   1.7237E+01   1.7657E+01   3.5378E-06  0.0409
   1.7657E+01   1.8086E+01   3.3170E-06  0.0417
   1.8086E+01   1.8526E+01   3.3717E-06  0.0408
   1.8526E+01   1.8977E+01   2.8618E-06  0.0439
   1.8977E+01   1.9439E+01   3.1647E-06  0.0412
   1.9439E+01   1.9912E+01   2.6693E-06  0.0444
   1.9912E+01   2.0396E+01   1.8577E-06  0.0527
   2.0396E+01   2.0893E+01   1.7279E-06  0.0540
   2.0893E+01   2.1401E+01   1.6525E-06  0.0546
   2.1401E+01   2.1922E+01   1.6516E-06  0.0539
   2.1922E+01   2.2455E+01   1.5374E-06  0.0552
   2.2455E+01   2.3001E+01   1.4643E-06  0.0559
   2.3001E+01   2.3561E+01   1.3580E-06  0.0574
   2.3561E+01   2.4134E+01   1.2255E-06  0.0597
   2.4134E+01   2.4721E+01   1.2645E-06  0.0580
   2.4721E+01   2.5323E+01   1.2677E-06  0.0573
   2.5323E+01   2.5939E+01   1.0712E-06  0.0615
   2.5939E+01   2.6570E+01   1.1923E-06  0.0576
   2.6570E+01   2.7217E+01   1.0828E-06  0.0598
   2.7217E+01   2.7879E+01   9.0229E-07  0.0647
   2.7879E+01   2.8557E+01   8.4769E-07  0.0659
   2.8557E+01   2.9252E+01   8.2396E-07  0.0661
   2.9252E+01   2.9964E+01   8.1141E-07  0.0658
   2.9964E+01   3.0693E+01   7.1327E-07  0.0693
   3.0693E+01   3.1440E+01   7.1306E-07  0.0685
   3.1440E+01   3.2205E+01   6.0462E-07  0.0735
   3.2205E+01   3.2988E+01   5.9983E-07  0.0729
   3.2988E+01   3.3791E+01   5.5443E-07  0.0750
   3.3791E+01   3.4613E+01   4.1963E-07  0.0851
   3.4613E+01   3.5455E+01   5.6106E-07  0.0727
   3.5455E+01   3.6318E+01   3.6805E-07  0.0887
   3.6318E+01   3.7201E+01   4.4419E-07  0.0798
   3.7201E+01   3.8106E+01   3.5078E-07  0.0887
   3.8106E+01   3.9034E+01   3.1278E-07  0.0928
   3.9034E+01   3.9983E+01   2.8429E-07  0.0962
   3.9983E+01   4.0956E+01   2.8782E-07  0.0945
   4.0956E+01   4.1953E+01   2.0823E-07  0.1098
   4.1953E+01   4.2973E+01   2.1063E-07  0.1078
   4.2973E+01   4.4019E+01   1.9606E-07  0.1104
   4.4019E+01   4.5090E+01   1.6106E-07  0.1204
   4.5090E+01   4.6187E+01   1.2305E-07  0.1361
   4.6187E+01   4.7311E+01   1.0678E-07  0.1443
   4.7311E+01   4.8462E+01   8.2529E-08  0.1622
   4.8462E+01   4.9641E+01   7.6328E-08  0.1667
   4.9641E+01   5.0849E+01   5.7956E-08  0.1890
   5.0849E+01   5.2086E+01   6.0621E-08  0.1826
   5.2086E+01   5.3353E+01   6.5099E-08  0.1741
   5.3353E+01   5.4651E+01   6.1627E-08  0.1768
   5.4651E+01   5.5981E+01   3.9482E-08  0.2182
   5.5981E+01   5.7343E+01   1.8354E-08  0.3162
   5.7343E+01   5.8738E+01   1.0751E-08  0.4082
   5.8738E+01   6.0168E+01   2.0991E-08  0.2887
   6.0168E+01   6.1632E+01   1.1954E-08  0.3780
   6.1632E+01   6.3131E+01   8.3359E-09  0.4472
   6.3131E+01   6.4667E+01   4.8827E-09  0.5774
   6.4667E+01   6.6240E+01   4.7667E-09  0.5774
   6.6240E+01   6.7852E+01   3.1023E-09  0.7071
   6.7852E+01   6.9503E+01   3.0287E-09  0.7071
   6.9503E+01   7.1194E+01   4.4351E-09  0.5774
   7.1194E+01   7.2926E+01   1.4432E-09  1.0000
   7.2926E+01   7.4701E+01   0.0000E+00  0.0000
   7.4701E+01   7.6518E+01   0.0000E+00  0.0000
   7.6518E+01   7.8380E+01   0.0000E+00  0.0000
   7.8380E+01   8.0287E+01   0.0000E+00  0.0000
   8.0287E+01   8.2240E+01   0.0000E+00  0.0000
   8.2240E+01   8.4241E+01   0.0000E+00  0.0000
   8.4241E+01   8.6291E+01   0.0000E+00  0.0000
   8.6291E+01   8.8391E+01   0.0000E+00  0.0000
   8.8391E+01   9.0541E+01   0.0000E+00  0.0000
   9.0541E+01   9.2744E+01   0.0000E+00  0.0000
   9.2744E+01   9.5001E+01   0.0000E+00  0.0000
   9.5001E+01   9.7312E+01   0.0000E+00  0.0000
   9.7312E+01   9.9680E+01   0.0000E+00  0.0000
   9.9680E+01   1.0211E+02   0.0000E+00  0.0000
   1.0211E+02   1.0459E+02   0.0000E+00  0.0000
   1.0459E+02   1.0713E+02   0.0000E+00  0.0000
   1.0713E+02   1.0974E+02   0.0000E+00  0.0000
   1.0974E+02   1.1241E+02   0.0000E+00  0.0000
   1.1241E+02   1.1515E+02   0.0000E+00  0.0000
   1.1515E+02   1.1795E+02   0.0000E+00  0.0000
   1.1795E+02   1.2082E+02   0.0000E+00  0.0000
   1.2082E+02   1.2376E+02   0.0000E+00  0.0000
   1.2376E+02   1.2677E+02   0.0000E+00  0.0000
   1.2677E+02   1.2985E+02   0.0000E+00  0.0000
   1.2985E+02   1.3301E+02   0.0000E+00  0.0000
   1.3301E+02   1.3625E+02   0.0000E+00  0.0000
   1.3625E+02   1.3956E+02   0.0000E+00  0.0000
   1.3956E+02   1.4296E+02   0.0000E+00  0.0000
   1.4296E+02   1.4644E+02   0.0000E+00  0.0000
   1.4644E+02   1.5000E+02   0.0000E+00  0.0000

#   sum over                 7.3852E-05
'no. =    1   reg = 120 - 220'
msuc: {\huge [t-cross] in region mesh}
msdr: {\it plotted by \ANGEL \version}
msdl: {\it calculated by \PHITS  3.26}
wt: s(0.7)
\vspace{-3}
  region surface crossing
  area  &=&   1.0000E+00 [cm^2]
e:
 
# Information for Restart Calculation
# This calculation was newly started
# istdev =  2 # 1:Batch variance, 2:History variance
# resc2  = 4.00000000000000000E+08 # Total source weight or Total source weight / maxcas
# resc3  = 4.00000000000000000E+08 # Total history number or Total batch number
# maxcas =   100000000 # History / Batch, only used for istdev=1
# bitrseed = 0100011101001100100011011110101100000000010011010111110110001100 # bit data of rseed
