[ T-Cross ]
    title = [t-cross] in region mesh
     mesh =  reg            # mesh type is region-wise
      reg =    1            # number of crossing regions
      non     r-from    r-to       area
      1       121       221        1.000000    
   e-type =    3            # e-mesh is log given by emin, emax and ne
     emin =  1.0000000E-02  # minimum value of e-mesh points
     emax =   150.0000      # maximum value of e-mesh points
#    edel =  2.4039514E-02  # mesh width of e-mesh points
       ne =    400          # number of e-mesh points
#    data = ( e(i), i = 1, ne + 1 )
#           1.00000E-02  1.02433E-02  1.04925E-02  1.07478E-02  1.10093E-02
#           1.12772E-02  1.15516E-02  1.18326E-02  1.21205E-02  1.24154E-02
#           1.27175E-02  1.30269E-02  1.33439E-02  1.36686E-02  1.40011E-02
#           1.43418E-02  1.46907E-02  1.50482E-02  1.54143E-02  1.57894E-02
#           1.61735E-02  1.65670E-02  1.69701E-02  1.73830E-02  1.78060E-02
#           1.82392E-02  1.86830E-02  1.91375E-02  1.96032E-02  2.00801E-02
#           2.05687E-02  2.10692E-02  2.15818E-02  2.21069E-02  2.26448E-02
#           2.31957E-02  2.37601E-02  2.43382E-02  2.49304E-02  2.55369E-02
#           2.61583E-02  2.67947E-02  2.74467E-02  2.81145E-02  2.87985E-02
#           2.94992E-02  3.02169E-02  3.09521E-02  3.17052E-02  3.24766E-02
#           3.32668E-02  3.40762E-02  3.49053E-02  3.57546E-02  3.66246E-02
#           3.75157E-02  3.84284E-02  3.93634E-02  4.03212E-02  4.13022E-02
#           4.23071E-02  4.33365E-02  4.43909E-02  4.54710E-02  4.65773E-02
#           4.77106E-02  4.88714E-02  5.00605E-02  5.12785E-02  5.25262E-02
#           5.38042E-02  5.51133E-02  5.64542E-02  5.78278E-02  5.92348E-02
#           6.06760E-02  6.21523E-02  6.36645E-02  6.52135E-02  6.68002E-02
#           6.84255E-02  7.00904E-02  7.17957E-02  7.35426E-02  7.53319E-02
#           7.71648E-02  7.90423E-02  8.09655E-02  8.29354E-02  8.49533E-02
#           8.70203E-02  8.91376E-02  9.13064E-02  9.35279E-02  9.58035E-02
#           9.81345E-02  1.00522E-01  1.02968E-01  1.05473E-01  1.08040E-01
#           1.10668E-01  1.13361E-01  1.16119E-01  1.18944E-01  1.21838E-01
#           1.24803E-01  1.27839E-01  1.30950E-01  1.34136E-01  1.37399E-01
#           1.40742E-01  1.44167E-01  1.47675E-01  1.51268E-01  1.54948E-01
#           1.58718E-01  1.62580E-01  1.66535E-01  1.70587E-01  1.74738E-01
#           1.78989E-01  1.83344E-01  1.87805E-01  1.92375E-01  1.97055E-01
#           2.01850E-01  2.06761E-01  2.11792E-01  2.16945E-01  2.22223E-01
#           2.27630E-01  2.33169E-01  2.38842E-01  2.44653E-01  2.50605E-01
#           2.56703E-01  2.62949E-01  2.69346E-01  2.75900E-01  2.82613E-01
#           2.89489E-01  2.96532E-01  3.03747E-01  3.11138E-01  3.18708E-01
#           3.26462E-01  3.34405E-01  3.42542E-01  3.50876E-01  3.59413E-01
#           3.68158E-01  3.77116E-01  3.86291E-01  3.95690E-01  4.05317E-01
#           4.15179E-01  4.25281E-01  4.35628E-01  4.46227E-01  4.57084E-01
#           4.68205E-01  4.79597E-01  4.91266E-01  5.03219E-01  5.15463E-01
#           5.28005E-01  5.40851E-01  5.54011E-01  5.67490E-01  5.81298E-01
#           5.95441E-01  6.09929E-01  6.24769E-01  6.39970E-01  6.55541E-01
#           6.71491E-01  6.87828E-01  7.04564E-01  7.21706E-01  7.39266E-01
#           7.57253E-01  7.75678E-01  7.94551E-01  8.13883E-01  8.33685E-01
#           8.53969E-01  8.74747E-01  8.96030E-01  9.17831E-01  9.40163E-01
#           9.63038E-01  9.86469E-01  1.01047E+00  1.03506E+00  1.06024E+00
#           1.08604E+00  1.11246E+00  1.13953E+00  1.16725E+00  1.19565E+00
#           1.22474E+00  1.25454E+00  1.28507E+00  1.31633E+00  1.34836E+00
#           1.38117E+00  1.41477E+00  1.44920E+00  1.48446E+00  1.52057E+00
#           1.55757E+00  1.59547E+00  1.63429E+00  1.67405E+00  1.71478E+00
#           1.75650E+00  1.79924E+00  1.84302E+00  1.88786E+00  1.93379E+00
#           1.98084E+00  2.02904E+00  2.07841E+00  2.12898E+00  2.18078E+00
#           2.23384E+00  2.28819E+00  2.34386E+00  2.40089E+00  2.45930E+00
#           2.51914E+00  2.58043E+00  2.64322E+00  2.70753E+00  2.77341E+00
#           2.84088E+00  2.91001E+00  2.98081E+00  3.05333E+00  3.12762E+00
#           3.20372E+00  3.28167E+00  3.36152E+00  3.44330E+00  3.52708E+00
#           3.61290E+00  3.70080E+00  3.79085E+00  3.88308E+00  3.97756E+00
#           4.07434E+00  4.17347E+00  4.27501E+00  4.37903E+00  4.48557E+00
#           4.59471E+00  4.70650E+00  4.82102E+00  4.93832E+00  5.05847E+00
#           5.18155E+00  5.30762E+00  5.43676E+00  5.56904E+00  5.70453E+00
#           5.84333E+00  5.98550E+00  6.13114E+00  6.28031E+00  6.43312E+00
#           6.58964E+00  6.74997E+00  6.91420E+00  7.08243E+00  7.25475E+00
#           7.43126E+00  7.61207E+00  7.79728E+00  7.98700E+00  8.18133E+00
#           8.38038E+00  8.58428E+00  8.79315E+00  9.00709E+00  9.22624E+00
#           9.45072E+00  9.68067E+00  9.91620E+00  1.01575E+01  1.04046E+01
#           1.06578E+01  1.09171E+01  1.11827E+01  1.14548E+01  1.17335E+01
#           1.20190E+01  1.23114E+01  1.26109E+01  1.29178E+01  1.32321E+01
#           1.35540E+01  1.38838E+01  1.42216E+01  1.45676E+01  1.49221E+01
#           1.52851E+01  1.56570E+01  1.60380E+01  1.64282E+01  1.68279E+01
#           1.72374E+01  1.76568E+01  1.80864E+01  1.85264E+01  1.89772E+01
#           1.94389E+01  1.99119E+01  2.03963E+01  2.08926E+01  2.14009E+01
#           2.19216E+01  2.24550E+01  2.30014E+01  2.35610E+01  2.41343E+01
#           2.47215E+01  2.53230E+01  2.59391E+01  2.65702E+01  2.72167E+01
#           2.78789E+01  2.85572E+01  2.92520E+01  2.99637E+01  3.06928E+01
#           3.14396E+01  3.22045E+01  3.29881E+01  3.37907E+01  3.46128E+01
#           3.54550E+01  3.63177E+01  3.72013E+01  3.81064E+01  3.90336E+01
#           3.99833E+01  4.09561E+01  4.19526E+01  4.29734E+01  4.40189E+01
#           4.50900E+01  4.61870E+01  4.73108E+01  4.84619E+01  4.96410E+01
#           5.08488E+01  5.20860E+01  5.33533E+01  5.46514E+01  5.59812E+01
#           5.73432E+01  5.87384E+01  6.01676E+01  6.16315E+01  6.31311E+01
#           6.46671E+01  6.62405E+01  6.78522E+01  6.95031E+01  7.11941E+01
#           7.29263E+01  7.47007E+01  7.65182E+01  7.83800E+01  8.02870E+01
#           8.22405E+01  8.42414E+01  8.62911E+01  8.83906E+01  9.05412E+01
#           9.27442E+01  9.50007E+01  9.73122E+01  9.96799E+01  1.02105E+02
#           1.04589E+02  1.07134E+02  1.09741E+02  1.12411E+02  1.15146E+02
#           1.17948E+02  1.20817E+02  1.23757E+02  1.26768E+02  1.29852E+02
#           1.33012E+02  1.36248E+02  1.39563E+02  1.42959E+02  1.46437E+02
#           1.50000E+02
     unit =    2            # unit is [1/cm^2/(MeV/n)/source]
     axis =  eng            # axis of output
     file = detector-22.out  # file name of output for the above axis
   output = f-curr          # surface crossing forward current spectrum
     part =  neutron  
# kf/name :  2112     
#    used :        main (  %)        temp (  %)       total (  %)
#  memory :         414 (  0)           0 (  0)         414 (  0)

#------------------------------------------------------------------------------
#newpage:
#   no. =    1   reg = 121 - 221

x: Energy [MeV/n]
y:  F-Curr [1/cm^2/(MeV/n)/source]         
p: xlog ylog afac(0.8) form(0.9)
h: n            x            y(neutron ),hh0l   n 
#  e-lower      e-upper      neutron     r.err 
   1.0000E-02   1.0243E-02   1.6440E-04  0.2236
   1.0243E-02   1.0493E-02   2.3774E-04  0.1826
   1.0493E-02   1.0748E-02   2.2327E-04  0.1865
   1.0748E-02   1.1009E-02   1.7591E-04  0.2085
   1.1009E-02   1.1277E-02   2.0906E-04  0.1890
   1.1277E-02   1.1552E-02   2.4880E-04  0.1709
   1.1552E-02   1.1833E-02   2.2059E-04  0.1796
   1.1833E-02   1.2121E-02   2.3620E-04  0.1715
   1.2121E-02   1.2415E-02   2.3058E-04  0.1715
   1.2415E-02   1.2718E-02   1.7876E-04  0.1925
   1.2718E-02   1.3027E-02   1.7566E-04  0.1913
   1.3027E-02   1.3344E-02   1.6824E-04  0.1923
   1.3344E-02   1.3669E-02   2.4641E-04  0.1581
   1.3669E-02   1.4001E-02   2.1148E-04  0.1683
   1.4001E-02   1.4342E-02   2.4071E-04  0.1562
   1.4342E-02   1.4691E-02   2.1207E-04  0.1644
   1.4691E-02   1.5048E-02   2.0703E-04  0.1644
   1.5048E-02   1.5414E-02   2.2396E-04  0.1562
   1.5414E-02   1.5789E-02   2.6664E-04  0.1414
   1.5789E-02   1.6174E-02   2.0043E-04  0.1606
   1.6174E-02   1.6567E-02   2.3379E-04  0.1474
   1.6567E-02   1.6970E-02   1.9351E-04  0.1601
   1.6970E-02   1.7383E-02   2.0586E-04  0.1529
   1.7383E-02   1.7806E-02   1.7098E-04  0.1660
   1.7806E-02   1.8239E-02   1.8697E-04  0.1566
   1.8239E-02   1.8683E-02   2.2083E-04  0.1429
   1.8683E-02   1.9138E-02   1.7228E-04  0.1595
   1.9138E-02   1.9603E-02   2.0617E-04  0.1443
   1.9603E-02   2.0080E-02   2.2224E-04  0.1374
   2.0080E-02   2.0569E-02   1.9649E-04  0.1443
   2.0569E-02   2.1069E-02   1.8383E-04  0.1474
   2.1069E-02   2.1582E-02   2.1263E-04  0.1351
   2.1582E-02   2.2107E-02   2.0187E-04  0.1374
   2.2107E-02   2.2645E-02   1.8220E-04  0.1429
   2.2645E-02   2.3196E-02   1.8513E-04  0.1400
   2.3196E-02   2.3760E-02   1.9136E-04  0.1361
   2.3760E-02   2.4338E-02   1.9028E-04  0.1348
   2.4338E-02   2.4930E-02   1.6380E-04  0.1432
   2.4930E-02   2.5537E-02   2.0443E-04  0.1270
   2.5537E-02   2.6158E-02   1.8348E-04  0.1325
   2.6158E-02   2.6795E-02   1.6655E-04  0.1374
   2.6795E-02   2.7447E-02   1.6566E-04  0.1361
   2.7447E-02   2.8114E-02   1.9018E-04  0.1252
   2.8114E-02   2.8799E-02   1.9383E-04  0.1226
   2.8799E-02   2.9499E-02   1.6555E-04  0.1313
   2.9499E-02   3.0217E-02   1.6162E-04  0.1313
   3.0217E-02   3.0952E-02   1.5234E-04  0.1336
   3.0952E-02   3.1705E-02   1.8626E-04  0.1193
   3.1705E-02   3.2477E-02   1.5556E-04  0.1291
   3.2477E-02   3.3267E-02   1.6705E-04  0.1231
   3.3267E-02   3.4076E-02   1.6802E-04  0.1213
   3.4076E-02   3.4905E-02   1.8816E-04  0.1132
   3.4905E-02   3.5755E-02   1.6249E-04  0.1204
   3.5755E-02   3.6625E-02   1.6093E-04  0.1195
   3.6625E-02   3.7516E-02   1.7057E-04  0.1147
   3.7516E-02   3.8428E-02   1.7857E-04  0.1106
   3.8428E-02   3.9363E-02   1.4973E-04  0.1195
   3.9363E-02   4.0321E-02   1.5903E-04  0.1145
   4.0321E-02   4.1302E-02   1.8144E-04  0.1060
   4.1302E-02   4.2307E-02   1.3732E-04  0.1204
   4.2307E-02   4.3337E-02   1.8878E-04  0.1014
   4.3337E-02   4.4391E-02   1.7128E-04  0.1051
   4.4391E-02   4.5471E-02   1.4629E-04  0.1125
   4.5471E-02   4.6577E-02   1.6631E-04  0.1043
   4.6577E-02   4.7711E-02   1.2293E-04  0.1195
   4.7711E-02   4.8871E-02   1.6798E-04  0.1011
   4.8871E-02   5.0061E-02   1.3792E-04  0.1104
   5.0061E-02   5.1279E-02   1.9704E-04  0.0913
   5.1279E-02   5.2526E-02   1.7713E-04  0.0950
   5.2526E-02   5.3804E-02   1.5962E-04  0.0990
   5.3804E-02   5.5113E-02   1.6347E-04  0.0967
   5.5113E-02   5.6454E-02   1.2473E-04  0.1091
   5.6454E-02   5.7828E-02   1.3706E-04  0.1030
   5.7828E-02   5.9235E-02   1.6376E-04  0.0931
   5.9235E-02   6.0676E-02   1.3461E-04  0.1015
   6.0676E-02   6.2152E-02   1.5986E-04  0.0921
   6.2152E-02   6.3665E-02   1.2168E-04  0.1043
   6.3665E-02   6.5214E-02   1.4332E-04  0.0949
   6.5214E-02   6.6800E-02   1.6028E-04  0.0886
   6.6800E-02   6.8426E-02   1.3905E-04  0.0941
   6.8426E-02   7.0090E-02   1.6254E-04  0.0859
   7.0090E-02   7.1796E-02   1.5363E-04  0.0874
   7.1796E-02   7.3543E-02   1.4769E-04  0.0880
   7.3543E-02   7.5332E-02   1.2032E-04  0.0962
   7.5332E-02   7.7165E-02   1.3657E-04  0.0893
   7.7165E-02   7.9042E-02   1.3848E-04  0.0877
   7.9042E-02   8.0965E-02   1.3415E-04  0.0880
   8.0965E-02   8.2935E-02   1.1066E-04  0.0958
   8.2935E-02   8.4953E-02   1.2241E-04  0.0899
   8.4953E-02   8.7020E-02   1.2192E-04  0.0891
   8.7020E-02   8.9138E-02   1.2185E-04  0.0880
   8.9138E-02   9.1306E-02   1.4847E-04  0.0788
   9.1306E-02   9.3528E-02   9.3628E-05  0.0981
   9.3528E-02   9.5804E-02   1.1878E-04  0.0860
   9.5804E-02   9.8134E-02   1.0452E-04  0.0904
   9.8134E-02   1.0052E-01   1.2816E-04  0.0808
   1.0052E-01   1.0297E-01   1.2592E-04  0.0804
   1.0297E-01   1.0547E-01   1.0163E-04  0.0885
   1.0547E-01   1.0804E-01   1.0886E-04  0.0845
   1.0804E-01   1.1067E-01   1.0054E-04  0.0869
   1.1067E-01   1.1336E-01   1.1411E-04  0.0806
   1.1336E-01   1.1612E-01   1.1178E-04  0.0804
   1.1612E-01   1.1894E-01   9.8514E-05  0.0847
   1.1894E-01   1.2184E-01   1.0100E-04  0.0827
   1.2184E-01   1.2480E-01   1.0408E-04  0.0804
   1.2480E-01   1.2784E-01   9.2312E-05  0.0844
   1.2784E-01   1.3095E-01   9.8558E-05  0.0807
   1.3095E-01   1.3414E-01   9.8553E-05  0.0798
   1.3414E-01   1.3740E-01   7.6602E-05  0.0894
   1.3740E-01   1.4074E-01   8.1176E-05  0.0857
   1.4074E-01   1.4417E-01   8.4103E-05  0.0833
   1.4417E-01   1.4767E-01   8.0110E-05  0.0843
   1.4767E-01   1.5127E-01   9.1844E-05  0.0778
   1.5127E-01   1.5495E-01   7.7979E-05  0.0834
   1.5495E-01   1.5872E-01   7.3818E-05  0.0847
   1.5872E-01   1.6258E-01   8.7525E-05  0.0769
   1.6258E-01   1.6654E-01   7.2135E-05  0.0836
   1.6654E-01   1.7059E-01   9.1314E-05  0.0735
   1.7059E-01   1.7474E-01   8.1514E-05  0.0767
   1.7474E-01   1.7899E-01   7.5738E-05  0.0788
   1.7899E-01   1.8334E-01   6.4141E-05  0.0845
   1.8334E-01   1.8781E-01   7.3503E-05  0.0779
   1.8781E-01   1.9237E-01   6.8570E-05  0.0798
   1.9237E-01   1.9706E-01   6.9707E-05  0.0783
   1.9706E-01   2.0185E-01   5.9308E-05  0.0838
   2.0185E-01   2.0676E-01   6.4457E-05  0.0794
   2.0676E-01   2.1179E-01   7.1620E-05  0.0745
   2.1179E-01   2.1694E-01   6.5319E-05  0.0769
   2.1694E-01   2.2222E-01   6.8770E-05  0.0742
   2.2222E-01   2.2763E-01   6.0710E-05  0.0780
   2.2763E-01   2.3317E-01   6.8251E-05  0.0726
   2.3317E-01   2.3884E-01   6.5395E-05  0.0734
   2.3884E-01   2.4465E-01   6.2528E-05  0.0741
   2.4465E-01   2.5061E-01   7.5093E-05  0.0669
   2.5061E-01   2.5670E-01   7.1174E-05  0.0678
   2.5670E-01   2.6295E-01   6.2076E-05  0.0717
   2.6295E-01   2.6935E-01   6.1074E-05  0.0714
   2.6935E-01   2.7590E-01   6.8361E-05  0.0668
   2.7590E-01   2.8261E-01   7.8059E-05  0.0618
   2.8261E-01   2.8949E-01   6.9853E-05  0.0644
   2.8949E-01   2.9653E-01   7.9270E-05  0.0597
   2.9653E-01   3.0375E-01   7.9165E-05  0.0591
   3.0375E-01   3.1114E-01   6.2556E-05  0.0658
   3.1114E-01   3.1871E-01   7.5678E-05  0.0590
   3.1871E-01   3.2646E-01   7.3711E-05  0.0591
   3.2646E-01   3.3441E-01   7.4306E-05  0.0581
   3.3441E-01   3.4254E-01   7.3627E-05  0.0577
   3.4254E-01   3.5088E-01   7.5796E-05  0.0562
   3.5088E-01   3.5941E-01   7.8130E-05  0.0547
   3.5941E-01   3.6816E-01   7.1615E-05  0.0565
   3.6816E-01   3.7712E-01   7.9043E-05  0.0531
   3.7712E-01   3.8629E-01   7.2654E-05  0.0548
   3.8629E-01   3.9569E-01   7.3914E-05  0.0536
   3.9569E-01   4.0532E-01   7.3878E-05  0.0530
   4.0532E-01   4.1518E-01   7.5905E-05  0.0516
   4.1518E-01   4.2528E-01   7.6407E-05  0.0508
   4.2528E-01   4.3563E-01   7.4499E-05  0.0508
   4.3563E-01   4.4623E-01   7.4970E-05  0.0501
   4.4623E-01   4.5708E-01   7.0395E-05  0.0511
   4.5708E-01   4.6821E-01   7.4677E-05  0.0490
   4.6821E-01   4.7960E-01   7.0148E-05  0.0500
   4.7960E-01   4.9127E-01   7.1675E-05  0.0489
   4.9127E-01   5.0322E-01   7.6266E-05  0.0468
   5.0322E-01   5.1546E-01   6.9768E-05  0.0483
   5.1546E-01   5.2800E-01   6.9546E-05  0.0478
   5.2800E-01   5.4085E-01   7.0679E-05  0.0469
   5.4085E-01   5.5401E-01   7.4337E-05  0.0452
   5.5401E-01   5.6749E-01   7.1413E-05  0.0455
   5.6749E-01   5.8130E-01   6.9809E-05  0.0455
   5.8130E-01   5.9544E-01   6.7728E-05  0.0456
   5.9544E-01   6.0993E-01   7.0195E-05  0.0443
   6.0993E-01   6.2477E-01   7.3313E-05  0.0428
   6.2477E-01   6.3997E-01   7.2076E-05  0.0426
   6.3997E-01   6.5554E-01   7.3747E-05  0.0416
   6.5554E-01   6.7149E-01   6.5503E-05  0.0436
   6.7149E-01   6.8783E-01   7.4891E-05  0.0404
   6.8783E-01   7.0456E-01   6.9938E-05  0.0413
   7.0456E-01   7.2171E-01   7.1664E-05  0.0403
   7.2171E-01   7.3927E-01   7.0196E-05  0.0402
   7.3927E-01   7.5725E-01   7.1504E-05  0.0394
   7.5725E-01   7.7568E-01   7.1831E-05  0.0388
   7.7568E-01   7.9455E-01   7.1369E-05  0.0385
   7.9455E-01   8.1388E-01   7.0221E-05  0.0383
   8.1388E-01   8.3368E-01   6.9418E-05  0.0381
   8.3368E-01   8.5397E-01   6.7264E-05  0.0382
   8.5397E-01   8.7475E-01   6.5189E-05  0.0384
   8.7475E-01   8.9603E-01   6.2700E-05  0.0386
   8.9603E-01   9.1783E-01   6.9267E-05  0.0363
   9.1783E-01   9.4016E-01   6.0850E-05  0.0383
   9.4016E-01   9.6304E-01   6.3860E-05  0.0370
   9.6304E-01   9.8647E-01   6.1635E-05  0.0371
   9.8647E-01   1.0105E+00   5.9689E-05  0.0373
   1.0105E+00   1.0351E+00   5.6751E-05  0.0378
   1.0351E+00   1.0602E+00   5.8262E-05  0.0369
   1.0602E+00   1.0860E+00   5.7934E-05  0.0365
   1.0860E+00   1.1125E+00   5.5529E-05  0.0368
   1.1125E+00   1.1395E+00   5.1447E-05  0.0378
   1.1395E+00   1.1673E+00   4.9379E-05  0.0381
   1.1673E+00   1.1957E+00   4.8686E-05  0.0379
   1.1957E+00   1.2247E+00   4.3993E-05  0.0394
   1.2247E+00   1.2545E+00   4.7511E-05  0.0375
   1.2545E+00   1.2851E+00   4.5577E-05  0.0378
   1.2851E+00   1.3163E+00   4.5043E-05  0.0376
   1.3163E+00   1.3484E+00   4.6092E-05  0.0367
   1.3484E+00   1.3812E+00   4.2350E-05  0.0379
   1.3812E+00   1.4148E+00   4.2128E-05  0.0375
   1.4148E+00   1.4492E+00   3.5943E-05  0.0402
   1.4492E+00   1.4845E+00   3.9319E-05  0.0379
   1.4845E+00   1.5206E+00   3.8324E-05  0.0379
   1.5206E+00   1.5576E+00   3.6700E-05  0.0382
   1.5576E+00   1.5955E+00   3.7671E-05  0.0374
   1.5955E+00   1.6343E+00   3.5425E-05  0.0380
   1.6343E+00   1.6741E+00   3.8629E-05  0.0360
   1.6741E+00   1.7148E+00   3.4532E-05  0.0376
   1.7148E+00   1.7565E+00   3.5413E-05  0.0367
   1.7565E+00   1.7992E+00   3.2516E-05  0.0379
   1.7992E+00   1.8430E+00   3.1308E-05  0.0381
   1.8430E+00   1.8879E+00   3.1840E-05  0.0374
   1.8879E+00   1.9338E+00   3.1241E-05  0.0372
   1.9338E+00   1.9808E+00   2.9660E-05  0.0378
   1.9808E+00   2.0290E+00   2.8764E-05  0.0379
   2.0290E+00   2.0784E+00   3.1847E-05  0.0356
   2.0784E+00   2.1290E+00   3.1877E-05  0.0351
   2.1290E+00   2.1808E+00   3.0481E-05  0.0355
   2.1808E+00   2.2338E+00   2.7278E-05  0.0371
   2.2338E+00   2.2882E+00   2.8820E-05  0.0356
   2.2882E+00   2.3439E+00   2.7918E-05  0.0357
   2.3439E+00   2.4009E+00   2.6201E-05  0.0364
   2.4009E+00   2.4593E+00   2.5322E-05  0.0367
   2.4593E+00   2.5191E+00   2.5641E-05  0.0361
   2.5191E+00   2.5804E+00   2.5222E-05  0.0358
   2.5804E+00   2.6432E+00   2.4256E-05  0.0361
   2.6432E+00   2.7075E+00   2.4551E-05  0.0355
   2.7075E+00   2.7734E+00   2.4673E-05  0.0350
   2.7734E+00   2.8409E+00   2.2238E-05  0.0364
   2.8409E+00   2.9100E+00   2.2486E-05  0.0358
   2.9100E+00   2.9808E+00   2.0263E-05  0.0372
   2.9808E+00   3.0533E+00   1.9840E-05  0.0372
   3.0533E+00   3.1276E+00   1.9101E-05  0.0374
   3.1276E+00   3.2037E+00   1.8708E-05  0.0374
   3.2037E+00   3.2817E+00   1.7653E-05  0.0380
   3.2817E+00   3.3615E+00   1.7183E-05  0.0381
   3.3615E+00   3.4433E+00   1.6205E-05  0.0387
   3.4433E+00   3.5271E+00   1.6463E-05  0.0380
   3.5271E+00   3.6129E+00   1.5785E-05  0.0383
   3.6129E+00   3.7008E+00   1.5075E-05  0.0388
   3.7008E+00   3.7908E+00   1.3960E-05  0.0398
   3.7908E+00   3.8831E+00   1.5041E-05  0.0378
   3.8831E+00   3.9776E+00   1.4139E-05  0.0386
   3.9776E+00   4.0743E+00   1.3180E-05  0.0395
   4.0743E+00   4.1735E+00   1.4154E-05  0.0377
   4.1735E+00   4.2750E+00   1.2150E-05  0.0401
   4.2750E+00   4.3790E+00   1.2499E-05  0.0391
   4.3790E+00   4.4856E+00   1.1704E-05  0.0400
   4.4856E+00   4.5947E+00   1.1476E-05  0.0399
   4.5947E+00   4.7065E+00   1.1568E-05  0.0393
   4.7065E+00   4.8210E+00   1.0610E-05  0.0405
   4.8210E+00   4.9383E+00   9.9946E-06  0.0412
   4.9383E+00   5.0585E+00   9.3672E-06  0.0421
   5.0585E+00   5.1815E+00   9.6229E-06  0.0410
   5.1815E+00   5.3076E+00   8.3149E-06  0.0436
   5.3076E+00   5.4368E+00   8.0802E-06  0.0436
   5.4368E+00   5.5690E+00   7.7510E-06  0.0441
   5.5690E+00   5.7045E+00   7.6331E-06  0.0439
   5.7045E+00   5.8433E+00   6.9210E-06  0.0455
   5.8433E+00   5.9855E+00   6.7430E-06  0.0456
   5.9855E+00   6.1311E+00   6.5904E-06  0.0456
   6.1311E+00   6.2803E+00   5.6559E-06  0.0486
   6.2803E+00   6.4331E+00   5.7840E-06  0.0474
   6.4331E+00   6.5896E+00   6.0925E-06  0.0457
   6.5896E+00   6.7500E+00   5.2513E-06  0.0486
   6.7500E+00   6.9142E+00   4.9485E-06  0.0495
   6.9142E+00   7.0824E+00   4.2644E-06  0.0527
   7.0824E+00   7.2548E+00   4.1865E-06  0.0525
   7.2548E+00   7.4313E+00   4.1495E-06  0.0522
   7.4313E+00   7.6121E+00   3.9347E-06  0.0530
   7.6121E+00   7.7973E+00   3.7727E-06  0.0534
   7.7973E+00   7.9870E+00   3.3439E-06  0.0561
   7.9870E+00   8.1813E+00   3.1576E-06  0.0570
   8.1813E+00   8.3804E+00   3.0880E-06  0.0570
   8.3804E+00   8.5843E+00   2.9625E-06  0.0575
   8.5843E+00   8.7931E+00   2.8697E-06  0.0577
   8.7931E+00   9.0071E+00   2.8871E-06  0.0569
   9.0071E+00   9.2262E+00   2.7561E-06  0.0575
   9.2262E+00   9.4507E+00   2.7129E-06  0.0573
   9.4507E+00   9.6807E+00   2.4897E-06  0.0590
   9.6807E+00   9.9162E+00   2.0778E-06  0.0639
   9.9162E+00   1.0157E+01   2.2619E-06  0.0605
   1.0157E+01   1.0405E+01   2.2417E-06  0.0601
   1.0405E+01   1.0658E+01   1.9711E-06  0.0633
   1.0658E+01   1.0917E+01   1.8602E-06  0.0644
   1.0917E+01   1.1183E+01   1.8786E-06  0.0633
   1.1183E+01   1.1455E+01   1.9712E-06  0.0611
   1.1455E+01   1.1733E+01   1.6971E-06  0.0650
   1.1733E+01   1.2019E+01   1.4957E-06  0.0684
   1.2019E+01   1.2311E+01   1.5935E-06  0.0655
   1.2311E+01   1.2611E+01   1.3821E-06  0.0695
   1.2611E+01   1.2918E+01   1.3503E-06  0.0695
   1.2918E+01   1.3232E+01   1.3515E-06  0.0685
   1.3232E+01   1.3554E+01   1.1368E-06  0.0739
   1.3554E+01   1.3884E+01   1.4659E-06  0.0643
   1.3884E+01   1.4222E+01   1.1625E-06  0.0713
   1.4222E+01   1.4568E+01   1.1271E-06  0.0716
   1.4568E+01   1.4922E+01   1.0213E-06  0.0743
   1.4922E+01   1.5285E+01   9.3096E-07  0.0769
   1.5285E+01   1.5657E+01   8.9002E-07  0.0777
   1.5657E+01   1.6038E+01   8.7676E-07  0.0774
   1.6038E+01   1.6428E+01   9.3281E-07  0.0741
   1.6428E+01   1.6828E+01   6.4625E-07  0.0879
   1.6828E+01   1.7237E+01   7.3271E-07  0.0816
   1.7237E+01   1.7657E+01   5.7702E-07  0.0909
   1.7657E+01   1.8086E+01   7.1694E-07  0.0806
   1.8086E+01   1.8526E+01   5.4539E-07  0.0913
   1.8526E+01   1.8977E+01   5.3243E-07  0.0913
   1.8977E+01   1.9439E+01   4.8513E-07  0.0945
   1.9439E+01   1.9912E+01   4.7784E-07  0.0941
   1.9912E+01   2.0396E+01   3.5915E-07  0.1072
   2.0396E+01   2.0893E+01   3.3047E-07  0.1104
   2.0893E+01   2.1401E+01   2.9902E-07  0.1147
   2.1401E+01   2.1922E+01   2.5350E-07  0.1231
   2.1922E+01   2.2455E+01   1.7624E-07  0.1459
   2.2455E+01   2.3001E+01   1.8303E-07  0.1414
   2.3001E+01   2.3561E+01   1.4295E-07  0.1581
   2.3561E+01   2.4134E+01   1.3606E-07  0.1601
   2.4134E+01   2.4721E+01   1.1240E-07  0.1741
   2.4721E+01   2.5323E+01   8.6452E-08  0.1961
   2.5323E+01   2.5939E+01   1.6230E-08  0.4472
   2.5939E+01   2.6570E+01   2.5352E-08  0.3536
   2.6570E+01   2.7217E+01   1.2375E-08  0.5000
   2.7217E+01   2.7879E+01   3.0202E-09  1.0000
   2.7879E+01   2.8557E+01   2.9485E-09  1.0000
   2.8557E+01   2.9252E+01   2.8784E-09  1.0000
   2.9252E+01   2.9964E+01   5.6202E-09  0.7071
   2.9964E+01   3.0693E+01   0.0000E+00  0.0000
   3.0693E+01   3.1440E+01   8.0345E-09  0.5774
   3.1440E+01   3.2205E+01   0.0000E+00  0.0000
   3.2205E+01   3.2988E+01   0.0000E+00  0.0000
   3.2988E+01   3.3791E+01   0.0000E+00  0.0000
   3.3791E+01   3.4613E+01   0.0000E+00  0.0000
   3.4613E+01   3.5455E+01   2.3749E-09  1.0000
   3.5455E+01   3.6318E+01   0.0000E+00  0.0000
   3.6318E+01   3.7201E+01   0.0000E+00  0.0000
   3.7201E+01   3.8106E+01   0.0000E+00  0.0000
   3.8106E+01   3.9034E+01   0.0000E+00  0.0000
   3.9034E+01   3.9983E+01   0.0000E+00  0.0000
   3.9983E+01   4.0956E+01   0.0000E+00  0.0000
   4.0956E+01   4.1953E+01   0.0000E+00  0.0000
   4.1953E+01   4.2973E+01   0.0000E+00  0.0000
   4.2973E+01   4.4019E+01   0.0000E+00  0.0000
   4.4019E+01   4.5090E+01   0.0000E+00  0.0000
   4.5090E+01   4.6187E+01   0.0000E+00  0.0000
   4.6187E+01   4.7311E+01   0.0000E+00  0.0000
   4.7311E+01   4.8462E+01   0.0000E+00  0.0000
   4.8462E+01   4.9641E+01   0.0000E+00  0.0000
   4.9641E+01   5.0849E+01   0.0000E+00  0.0000
   5.0849E+01   5.2086E+01   0.0000E+00  0.0000
   5.2086E+01   5.3353E+01   0.0000E+00  0.0000
   5.3353E+01   5.4651E+01   0.0000E+00  0.0000
   5.4651E+01   5.5981E+01   0.0000E+00  0.0000
   5.5981E+01   5.7343E+01   0.0000E+00  0.0000
   5.7343E+01   5.8738E+01   0.0000E+00  0.0000
   5.8738E+01   6.0168E+01   0.0000E+00  0.0000
   6.0168E+01   6.1632E+01   0.0000E+00  0.0000
   6.1632E+01   6.3131E+01   0.0000E+00  0.0000
   6.3131E+01   6.4667E+01   0.0000E+00  0.0000
   6.4667E+01   6.6240E+01   0.0000E+00  0.0000
   6.6240E+01   6.7852E+01   0.0000E+00  0.0000
   6.7852E+01   6.9503E+01   0.0000E+00  0.0000
   6.9503E+01   7.1194E+01   0.0000E+00  0.0000
   7.1194E+01   7.2926E+01   0.0000E+00  0.0000
   7.2926E+01   7.4701E+01   0.0000E+00  0.0000
   7.4701E+01   7.6518E+01   0.0000E+00  0.0000
   7.6518E+01   7.8380E+01   0.0000E+00  0.0000
   7.8380E+01   8.0287E+01   0.0000E+00  0.0000
   8.0287E+01   8.2240E+01   0.0000E+00  0.0000
   8.2240E+01   8.4241E+01   0.0000E+00  0.0000
   8.4241E+01   8.6291E+01   0.0000E+00  0.0000
   8.6291E+01   8.8391E+01   0.0000E+00  0.0000
   8.8391E+01   9.0541E+01   0.0000E+00  0.0000
   9.0541E+01   9.2744E+01   0.0000E+00  0.0000
   9.2744E+01   9.5001E+01   0.0000E+00  0.0000
   9.5001E+01   9.7312E+01   0.0000E+00  0.0000
   9.7312E+01   9.9680E+01   0.0000E+00  0.0000
   9.9680E+01   1.0211E+02   0.0000E+00  0.0000
   1.0211E+02   1.0459E+02   0.0000E+00  0.0000
   1.0459E+02   1.0713E+02   0.0000E+00  0.0000
   1.0713E+02   1.0974E+02   0.0000E+00  0.0000
   1.0974E+02   1.1241E+02   0.0000E+00  0.0000
   1.1241E+02   1.1515E+02   0.0000E+00  0.0000
   1.1515E+02   1.1795E+02   0.0000E+00  0.0000
   1.1795E+02   1.2082E+02   0.0000E+00  0.0000
   1.2082E+02   1.2376E+02   0.0000E+00  0.0000
   1.2376E+02   1.2677E+02   0.0000E+00  0.0000
   1.2677E+02   1.2985E+02   0.0000E+00  0.0000
   1.2985E+02   1.3301E+02   0.0000E+00  0.0000
   1.3301E+02   1.3625E+02   0.0000E+00  0.0000
   1.3625E+02   1.3956E+02   0.0000E+00  0.0000
   1.3956E+02   1.4296E+02   0.0000E+00  0.0000
   1.4296E+02   1.4644E+02   0.0000E+00  0.0000
   1.4644E+02   1.5000E+02   0.0000E+00  0.0000

#   sum over                 1.3857E-06
'no. =    1   reg = 121 - 221'
msuc: {\huge [t-cross] in region mesh}
msdr: {\it plotted by \ANGEL \version}
msdl: {\it calculated by \PHITS  3.26}
wt: s(0.7)
\vspace{-3}
  region surface crossing
  area  &=&   1.0000E+00 [cm^2]
e:
 
# Information for Restart Calculation
# This calculation was newly started
# istdev =  2 # 1:Batch variance, 2:History variance
# resc2  = 5.00000000000000000E+08 # Total source weight or Total source weight / maxcas
# resc3  = 5.00000000000000000E+08 # Total history number or Total batch number
# maxcas =   500000000 # History / Batch, only used for istdev=1
# bitrseed = 1101101111010011011000101101110001100110110010110001010100010001 # bit data of rseed
