[ T-Cross ]
    title = [t-cross] in region mesh
     mesh =  reg            # mesh type is region-wise
      reg =    1            # number of crossing regions
      non     r-from    r-to       area
      1       100       200        1.000000    
   e-type =    3            # e-mesh is log given by emin, emax and ne
     emin =  1.0000000E-02  # minimum value of e-mesh points
     emax =   150.0000      # maximum value of e-mesh points
#    edel =  2.4039514E-02  # mesh width of e-mesh points
       ne =    400          # number of e-mesh points
#    data = ( e(i), i = 1, ne + 1 )
#           1.00000E-02  1.02433E-02  1.04925E-02  1.07478E-02  1.10093E-02
#           1.12772E-02  1.15516E-02  1.18326E-02  1.21205E-02  1.24154E-02
#           1.27175E-02  1.30269E-02  1.33439E-02  1.36686E-02  1.40011E-02
#           1.43418E-02  1.46907E-02  1.50482E-02  1.54143E-02  1.57894E-02
#           1.61735E-02  1.65670E-02  1.69701E-02  1.73830E-02  1.78060E-02
#           1.82392E-02  1.86830E-02  1.91375E-02  1.96032E-02  2.00801E-02
#           2.05687E-02  2.10692E-02  2.15818E-02  2.21069E-02  2.26448E-02
#           2.31957E-02  2.37601E-02  2.43382E-02  2.49304E-02  2.55369E-02
#           2.61583E-02  2.67947E-02  2.74467E-02  2.81145E-02  2.87985E-02
#           2.94992E-02  3.02169E-02  3.09521E-02  3.17052E-02  3.24766E-02
#           3.32668E-02  3.40762E-02  3.49053E-02  3.57546E-02  3.66246E-02
#           3.75157E-02  3.84284E-02  3.93634E-02  4.03212E-02  4.13022E-02
#           4.23071E-02  4.33365E-02  4.43909E-02  4.54710E-02  4.65773E-02
#           4.77106E-02  4.88714E-02  5.00605E-02  5.12785E-02  5.25262E-02
#           5.38042E-02  5.51133E-02  5.64542E-02  5.78278E-02  5.92348E-02
#           6.06760E-02  6.21523E-02  6.36645E-02  6.52135E-02  6.68002E-02
#           6.84255E-02  7.00904E-02  7.17957E-02  7.35426E-02  7.53319E-02
#           7.71648E-02  7.90423E-02  8.09655E-02  8.29354E-02  8.49533E-02
#           8.70203E-02  8.91376E-02  9.13064E-02  9.35279E-02  9.58035E-02
#           9.81345E-02  1.00522E-01  1.02968E-01  1.05473E-01  1.08040E-01
#           1.10668E-01  1.13361E-01  1.16119E-01  1.18944E-01  1.21838E-01
#           1.24803E-01  1.27839E-01  1.30950E-01  1.34136E-01  1.37399E-01
#           1.40742E-01  1.44167E-01  1.47675E-01  1.51268E-01  1.54948E-01
#           1.58718E-01  1.62580E-01  1.66535E-01  1.70587E-01  1.74738E-01
#           1.78989E-01  1.83344E-01  1.87805E-01  1.92375E-01  1.97055E-01
#           2.01850E-01  2.06761E-01  2.11792E-01  2.16945E-01  2.22223E-01
#           2.27630E-01  2.33169E-01  2.38842E-01  2.44653E-01  2.50605E-01
#           2.56703E-01  2.62949E-01  2.69346E-01  2.75900E-01  2.82613E-01
#           2.89489E-01  2.96532E-01  3.03747E-01  3.11138E-01  3.18708E-01
#           3.26462E-01  3.34405E-01  3.42542E-01  3.50876E-01  3.59413E-01
#           3.68158E-01  3.77116E-01  3.86291E-01  3.95690E-01  4.05317E-01
#           4.15179E-01  4.25281E-01  4.35628E-01  4.46227E-01  4.57084E-01
#           4.68205E-01  4.79597E-01  4.91266E-01  5.03219E-01  5.15463E-01
#           5.28005E-01  5.40851E-01  5.54011E-01  5.67490E-01  5.81298E-01
#           5.95441E-01  6.09929E-01  6.24769E-01  6.39970E-01  6.55541E-01
#           6.71491E-01  6.87828E-01  7.04564E-01  7.21706E-01  7.39266E-01
#           7.57253E-01  7.75678E-01  7.94551E-01  8.13883E-01  8.33685E-01
#           8.53969E-01  8.74747E-01  8.96030E-01  9.17831E-01  9.40163E-01
#           9.63038E-01  9.86469E-01  1.01047E+00  1.03506E+00  1.06024E+00
#           1.08604E+00  1.11246E+00  1.13953E+00  1.16725E+00  1.19565E+00
#           1.22474E+00  1.25454E+00  1.28507E+00  1.31633E+00  1.34836E+00
#           1.38117E+00  1.41477E+00  1.44920E+00  1.48446E+00  1.52057E+00
#           1.55757E+00  1.59547E+00  1.63429E+00  1.67405E+00  1.71478E+00
#           1.75650E+00  1.79924E+00  1.84302E+00  1.88786E+00  1.93379E+00
#           1.98084E+00  2.02904E+00  2.07841E+00  2.12898E+00  2.18078E+00
#           2.23384E+00  2.28819E+00  2.34386E+00  2.40089E+00  2.45930E+00
#           2.51914E+00  2.58043E+00  2.64322E+00  2.70753E+00  2.77341E+00
#           2.84088E+00  2.91001E+00  2.98081E+00  3.05333E+00  3.12762E+00
#           3.20372E+00  3.28167E+00  3.36152E+00  3.44330E+00  3.52708E+00
#           3.61290E+00  3.70080E+00  3.79085E+00  3.88308E+00  3.97756E+00
#           4.07434E+00  4.17347E+00  4.27501E+00  4.37903E+00  4.48557E+00
#           4.59471E+00  4.70650E+00  4.82102E+00  4.93832E+00  5.05847E+00
#           5.18155E+00  5.30762E+00  5.43676E+00  5.56904E+00  5.70453E+00
#           5.84333E+00  5.98550E+00  6.13114E+00  6.28031E+00  6.43312E+00
#           6.58964E+00  6.74997E+00  6.91420E+00  7.08243E+00  7.25475E+00
#           7.43126E+00  7.61207E+00  7.79728E+00  7.98700E+00  8.18133E+00
#           8.38038E+00  8.58428E+00  8.79315E+00  9.00709E+00  9.22624E+00
#           9.45072E+00  9.68067E+00  9.91620E+00  1.01575E+01  1.04046E+01
#           1.06578E+01  1.09171E+01  1.11827E+01  1.14548E+01  1.17335E+01
#           1.20190E+01  1.23114E+01  1.26109E+01  1.29178E+01  1.32321E+01
#           1.35540E+01  1.38838E+01  1.42216E+01  1.45676E+01  1.49221E+01
#           1.52851E+01  1.56570E+01  1.60380E+01  1.64282E+01  1.68279E+01
#           1.72374E+01  1.76568E+01  1.80864E+01  1.85264E+01  1.89772E+01
#           1.94389E+01  1.99119E+01  2.03963E+01  2.08926E+01  2.14009E+01
#           2.19216E+01  2.24550E+01  2.30014E+01  2.35610E+01  2.41343E+01
#           2.47215E+01  2.53230E+01  2.59391E+01  2.65702E+01  2.72167E+01
#           2.78789E+01  2.85572E+01  2.92520E+01  2.99637E+01  3.06928E+01
#           3.14396E+01  3.22045E+01  3.29881E+01  3.37907E+01  3.46128E+01
#           3.54550E+01  3.63177E+01  3.72013E+01  3.81064E+01  3.90336E+01
#           3.99833E+01  4.09561E+01  4.19526E+01  4.29734E+01  4.40189E+01
#           4.50900E+01  4.61870E+01  4.73108E+01  4.84619E+01  4.96410E+01
#           5.08488E+01  5.20860E+01  5.33533E+01  5.46514E+01  5.59812E+01
#           5.73432E+01  5.87384E+01  6.01676E+01  6.16315E+01  6.31311E+01
#           6.46671E+01  6.62405E+01  6.78522E+01  6.95031E+01  7.11941E+01
#           7.29263E+01  7.47007E+01  7.65182E+01  7.83800E+01  8.02870E+01
#           8.22405E+01  8.42414E+01  8.62911E+01  8.83906E+01  9.05412E+01
#           9.27442E+01  9.50007E+01  9.73122E+01  9.96799E+01  1.02105E+02
#           1.04589E+02  1.07134E+02  1.09741E+02  1.12411E+02  1.15146E+02
#           1.17948E+02  1.20817E+02  1.23757E+02  1.26768E+02  1.29852E+02
#           1.33012E+02  1.36248E+02  1.39563E+02  1.42959E+02  1.46437E+02
#           1.50000E+02
     unit =    2            # unit is [1/cm^2/(MeV/n)/source]
     axis =  eng            # axis of output
     file = detector-01.out  # file name of output for the above axis
   output = f-curr          # surface crossing forward current spectrum
     part =  neutron  
# kf/name :  2112     
#    used :        main (  %)        temp (  %)       total (  %)
#  memory :         414 (  0)           0 (  0)         414 (  0)

#------------------------------------------------------------------------------
#newpage:
#   no. =    1   reg = 100 - 200

x: Energy [MeV/n]
y:  F-Curr [1/cm^2/(MeV/n)/source]         
p: xlog ylog afac(0.8) form(0.9)
h: n            x            y(neutron ),hh0l   n 
#  e-lower      e-upper      neutron     r.err 
   1.0000E-02   1.0243E-02   8.2196E-07  1.0000
   1.0243E-02   1.0493E-02   8.0221E-07  1.0000
   1.0493E-02   1.0748E-02   7.8313E-07  1.0000
   1.0748E-02   1.1009E-02   0.0000E+00  0.0000
   1.1009E-02   1.1277E-02   1.4924E-06  0.7071
   1.1277E-02   1.1552E-02   1.1933E-06  0.7242
   1.1552E-02   1.1833E-02   1.4222E-06  0.7071
   1.1833E-02   1.2121E-02   6.9253E-07  1.0000
   1.2121E-02   1.2415E-02   6.7719E-07  1.0000
   1.2415E-02   1.2718E-02   1.3229E-06  0.7071
   1.2718E-02   1.3027E-02   1.9370E-06  0.5774
   1.3027E-02   1.3344E-02   1.2607E-06  0.7071
   1.3344E-02   1.3669E-02   1.8469E-06  0.5774
   1.3669E-02   1.4001E-02   6.0088E-07  1.0000
   1.4001E-02   1.4342E-02   2.9314E-06  0.4472
   1.4342E-02   1.4691E-02   1.7173E-06  0.5774
   1.4691E-02   1.5048E-02   2.2343E-06  0.5000
   1.5048E-02   1.5414E-02   1.0920E-06  0.7071
   1.5414E-02   1.5789E-02   5.3204E-07  1.0000
   1.5789E-02   1.6174E-02   1.0407E-06  0.7071
   1.6174E-02   1.6567E-02   5.0786E-07  1.0000
   1.6567E-02   1.6970E-02   1.4879E-06  0.5774
   1.6970E-02   1.7383E-02   4.8391E-07  1.0000
   1.7383E-02   1.7806E-02   4.7076E-07  1.0000
   1.7806E-02   1.8239E-02   4.6147E-07  1.0000
   1.8239E-02   1.8683E-02   1.7238E-06  0.5015
   1.8683E-02   1.9138E-02   4.3979E-07  1.0000
   1.9138E-02   1.9603E-02   8.5854E-07  0.7071
   1.9603E-02   2.0080E-02   2.0946E-06  0.4472
   2.0080E-02   2.0569E-02   0.0000E+00  0.0000
   2.0569E-02   2.1069E-02   7.9849E-07  0.7071
   2.1069E-02   2.1582E-02   1.5475E-06  0.4817
   2.1582E-02   2.2107E-02   1.1399E-06  0.5774
   2.2107E-02   2.2645E-02   1.8573E-06  0.4472
   2.2645E-02   2.3196E-02   1.3693E-06  0.5026
   2.3196E-02   2.3760E-02   3.5308E-07  1.0000
   2.3760E-02   2.4338E-02   1.3117E-06  0.5020
   2.4338E-02   2.4930E-02   3.3274E-06  0.3165
   2.4930E-02   2.5537E-02   1.3143E-06  0.5000
   2.5537E-02   2.6158E-02   1.2871E-06  0.5000
   2.6158E-02   2.6795E-02   3.1413E-07  1.0000
   2.6795E-02   2.7447E-02   3.0639E-07  1.0000
   2.7447E-02   2.8114E-02   2.9933E-07  1.0000
   2.8114E-02   2.8799E-02   1.4367E-06  0.4475
   2.8799E-02   2.9499E-02   8.5554E-07  0.5774
   2.9499E-02   3.0217E-02   1.1126E-06  0.5000
   3.0217E-02   3.0952E-02   5.4366E-07  0.7071
   3.0952E-02   3.1705E-02   0.0000E+00  0.0000
   3.1705E-02   3.2477E-02   7.7730E-07  0.5774
   3.2477E-02   3.3267E-02   7.5837E-07  0.5774
   3.3267E-02   3.4076E-02   7.4026E-07  0.5774
   3.4076E-02   3.4905E-02   7.2269E-07  0.5774
   3.4905E-02   3.5755E-02   1.6459E-06  0.3780
   3.5755E-02   3.6625E-02   4.5949E-07  0.7071
   3.6625E-02   3.7516E-02   4.4786E-07  0.7071
   3.7516E-02   3.8428E-02   4.3776E-07  0.7071
   3.8428E-02   3.9363E-02   6.4137E-07  0.5774
   3.9363E-02   4.0321E-02   6.2476E-07  0.5774
   4.0321E-02   4.1302E-02   6.1090E-07  0.5774
   4.1302E-02   4.2307E-02   0.0000E+00  0.0000
   4.2307E-02   4.3337E-02   3.8733E-07  0.7071
   4.3337E-02   4.4391E-02   7.5828E-07  0.5000
   4.4391E-02   4.5471E-02   1.1100E-06  0.4082
   4.5471E-02   4.6577E-02   7.2081E-07  0.5000
   4.6577E-02   4.7711E-02   3.5240E-07  0.7071
   4.7711E-02   4.8871E-02   0.0000E+00  0.0000
   4.8871E-02   5.0061E-02   5.0383E-07  0.5774
   5.0061E-02   5.1279E-02   6.5633E-07  0.5000
   5.1279E-02   5.2526E-02   8.0017E-07  0.4472
   5.2526E-02   5.3804E-02   3.1274E-07  0.7071
   5.3804E-02   5.5113E-02   4.5774E-07  0.5774
   5.5113E-02   5.6454E-02   6.3428E-07  0.4738
   5.6454E-02   5.7828E-02   4.3606E-07  0.5774
   5.7828E-02   5.9235E-02   2.8414E-07  0.7071
   5.9235E-02   6.0676E-02   1.3847E-07  1.0000
   6.0676E-02   6.2152E-02   2.4781E-07  0.7101
   6.2152E-02   6.3665E-02   0.0000E+00  0.0000
   6.3665E-02   6.5214E-02   3.6945E-07  0.5787
   6.5214E-02   6.6800E-02   2.5141E-07  0.7071
   6.6800E-02   6.8426E-02   7.3743E-07  0.4082
   6.8426E-02   7.0090E-02   6.0008E-07  0.4472
   7.0090E-02   7.1796E-02   0.0000E+00  0.0000
   7.1796E-02   7.3543E-02   2.2854E-07  0.7071
   7.3543E-02   7.5332E-02   2.2318E-07  0.7071
   7.5332E-02   7.7165E-02   5.3571E-07  0.4475
   7.7165E-02   7.9042E-02   6.3841E-07  0.4082
   7.9042E-02   8.0965E-02   3.9209E-07  0.5011
   8.0965E-02   8.2935E-02   2.0266E-07  0.7071
   8.2935E-02   8.4953E-02   1.9799E-07  0.7071
   8.4953E-02   8.7020E-02   9.6591E-08  1.0000
   8.7020E-02   8.9138E-02   4.7168E-07  0.4472
   8.9138E-02   9.1306E-02   3.1983E-07  0.5073
   9.1306E-02   9.3528E-02   3.5973E-07  0.5000
   9.3528E-02   9.5804E-02   5.2614E-07  0.4082
   9.5804E-02   9.8134E-02   4.2820E-07  0.4472
   9.8134E-02   1.0052E-01   1.6743E-07  0.7071
   1.0052E-01   1.0297E-01   3.2671E-07  0.5000
   1.0297E-01   1.0547E-01   2.3080E-07  0.5781
   1.0547E-01   1.0804E-01   1.5571E-07  0.7071
   1.0804E-01   1.1067E-01   3.0278E-07  0.5000
   1.1067E-01   1.1336E-01   2.2251E-07  0.5774
   1.1336E-01   1.1612E-01   2.1734E-07  0.5774
   1.1612E-01   1.1894E-01   5.4232E-07  0.3557
   1.1894E-01   1.2184E-01   6.9000E-07  0.3162
   1.2184E-01   1.2480E-01   2.0207E-07  0.5774
   1.2480E-01   1.2784E-01   1.0519E-06  0.2500
   1.2784E-01   1.3095E-01   5.1343E-07  0.3536
   1.3095E-01   1.3414E-01   3.5114E-07  0.4067
   1.3414E-01   1.3740E-01   3.0595E-07  0.4472
   1.3740E-01   1.4074E-01   5.9739E-07  0.3162
   1.4074E-01   1.4417E-01   1.1023E-06  0.2295
   1.4417E-01   1.4767E-01   5.1229E-07  0.3333
   1.4767E-01   1.5127E-01   8.8915E-07  0.2500
   1.5127E-01   1.5495E-01   9.7678E-07  0.2357
   1.5495E-01   1.5872E-01   7.9442E-07  0.2582
   1.5872E-01   1.6258E-01   7.3962E-07  0.2602
   1.6258E-01   1.6654E-01   6.5643E-07  0.2774
   1.6654E-01   1.7059E-01   7.3923E-07  0.2582
   1.7059E-01   1.7474E-01   5.3777E-07  0.2970
   1.7474E-01   1.7899E-01   5.6404E-07  0.2887
   1.7899E-01   1.8334E-01   6.3345E-07  0.2676
   1.8334E-01   1.8781E-01   1.2087E-06  0.1925
   1.8781E-01   1.9237E-01   1.3985E-06  0.1768
   1.9237E-01   1.9706E-01   8.1119E-07  0.2294
   1.9706E-01   2.0185E-01   1.2082E-06  0.1857
   2.0185E-01   2.0676E-01   1.0238E-06  0.1987
   2.0676E-01   2.1179E-01   1.0718E-06  0.1925
   2.1179E-01   2.1694E-01   1.1238E-06  0.1857
   2.1694E-01   2.2222E-01   1.0209E-06  0.1925
   2.2222E-01   2.2763E-01   7.3227E-07  0.2238
   2.2763E-01   2.3317E-01   1.4397E-06  0.1581
   2.3317E-01   2.3884E-01   1.5487E-06  0.1508
   2.3884E-01   2.4465E-01   1.3048E-06  0.1622
   2.4465E-01   2.5061E-01   1.4640E-06  0.1510
   2.5061E-01   2.5670E-01   1.2445E-06  0.1622
   2.5670E-01   2.6295E-01   1.5993E-06  0.1409
   2.6295E-01   2.6935E-01   1.6802E-06  0.1361
   2.6935E-01   2.7590E-01   2.1270E-06  0.1196
   2.7590E-01   2.8261E-01   1.8979E-06  0.1250
   2.8261E-01   2.8949E-01   1.9742E-06  0.1213
   2.8949E-01   2.9653E-01   1.6966E-06  0.1291
   2.9653E-01   3.0375E-01   1.6597E-06  0.1291
   3.0375E-01   3.1114E-01   1.9244E-06  0.1183
   3.1114E-01   3.1871E-01   2.3987E-06  0.1048
   3.1871E-01   3.2646E-01   2.2853E-06  0.1060
   3.2646E-01   3.3441E-01   2.5550E-06  0.0991
   3.3441E-01   3.4254E-01   2.4569E-06  0.0998
   3.4254E-01   3.5088E-01   2.1558E-06  0.1054
   3.5088E-01   3.5941E-01   2.8011E-06  0.0913
   3.5941E-01   3.6816E-01   2.8283E-06  0.0898
   3.6816E-01   3.7712E-01   2.5780E-06  0.0929
   3.7712E-01   3.8629E-01   2.8482E-06  0.0874
   3.8629E-01   3.9569E-01   2.7168E-06  0.0884
   3.9569E-01   4.0532E-01   3.1012E-06  0.0817
   4.0532E-01   4.1518E-01   3.1722E-06  0.0796
   4.1518E-01   4.2528E-01   3.4542E-06  0.0756
   4.2528E-01   4.3563E-01   3.0141E-06  0.0799
   4.3563E-01   4.4623E-01   3.5916E-06  0.0723
   4.4623E-01   4.5708E-01   3.7098E-06  0.0703
   4.5708E-01   4.6821E-01   3.8439E-06  0.0683
   4.6821E-01   4.7960E-01   3.4933E-06  0.0707
   4.7960E-01   4.9127E-01   3.7740E-06  0.0673
   4.9127E-01   5.0322E-01   4.1251E-06  0.0635
   5.0322E-01   5.1546E-01   3.6150E-06  0.0671
   5.1546E-01   5.2800E-01   3.8075E-06  0.0646
   5.2800E-01   5.4085E-01   4.0138E-06  0.0621
   5.4085E-01   5.5401E-01   3.8027E-06  0.0630
   5.5401E-01   5.6749E-01   3.9612E-06  0.0611
   5.6749E-01   5.8130E-01   3.7957E-06  0.0617
   5.8130E-01   5.9544E-01   3.9736E-06  0.0595
   5.9544E-01   6.0993E-01   3.6990E-06  0.0609
   6.0993E-01   6.2477E-01   4.4704E-06  0.0548
   6.2477E-01   6.3997E-01   4.4570E-06  0.0542
   6.3997E-01   6.5554E-01   4.8817E-06  0.0512
   6.5554E-01   6.7149E-01   4.6071E-06  0.0520
   6.7149E-01   6.8783E-01   4.5309E-06  0.0518
   6.8783E-01   7.0456E-01   4.8158E-06  0.0497
   7.0456E-01   7.2171E-01   4.2776E-06  0.0521
   7.2171E-01   7.3927E-01   5.0367E-06  0.0474
   7.3927E-01   7.5725E-01   4.6297E-06  0.0489
   7.5725E-01   7.7568E-01   4.6849E-06  0.0480
   7.7568E-01   7.9455E-01   4.9043E-06  0.0464
   7.9455E-01   8.1388E-01   4.6692E-06  0.0470
   8.1388E-01   8.3368E-01   4.7626E-06  0.0459
   8.3368E-01   8.5397E-01   4.8265E-06  0.0451
   8.5397E-01   8.7475E-01   4.8634E-06  0.0444
   8.7475E-01   8.9603E-01   5.0597E-06  0.0430
   8.9603E-01   9.1783E-01   4.9701E-06  0.0428
   9.1783E-01   9.4016E-01   4.9141E-06  0.0426
   9.4016E-01   9.6304E-01   5.2658E-06  0.0406
   9.6304E-01   9.8647E-01   5.0224E-06  0.0411
   9.8647E-01   1.0105E+00   4.9562E-06  0.0409
   1.0105E+00   1.0351E+00   4.8382E-06  0.0409
   1.0351E+00   1.0602E+00   4.9092E-06  0.0401
   1.0602E+00   1.0860E+00   5.4471E-06  0.0376
   1.0860E+00   1.1125E+00   5.3358E-06  0.0375
   1.1125E+00   1.1395E+00   5.0412E-06  0.0381
   1.1395E+00   1.1673E+00   5.4010E-06  0.0364
   1.1673E+00   1.1957E+00   5.4722E-06  0.0357
   1.1957E+00   1.2247E+00   5.7315E-06  0.0345
   1.2247E+00   1.2545E+00   5.5079E-06  0.0347
   1.2545E+00   1.2851E+00   5.6850E-06  0.0338
   1.2851E+00   1.3163E+00   5.7667E-06  0.0331
   1.3163E+00   1.3484E+00   5.5435E-06  0.0334
   1.3484E+00   1.3812E+00   5.9586E-06  0.0318
   1.3812E+00   1.4148E+00   5.9553E-06  0.0315
   1.4148E+00   1.4492E+00   5.8394E-06  0.0314
   1.4492E+00   1.4845E+00   6.2848E-06  0.0299
   1.4845E+00   1.5206E+00   6.2208E-06  0.0296
   1.5206E+00   1.5576E+00   6.0422E-06  0.0297
   1.5576E+00   1.5955E+00   6.1469E-06  0.0291
   1.5955E+00   1.6343E+00   6.2537E-06  0.0285
   1.6343E+00   1.6741E+00   6.2159E-06  0.0282
   1.6741E+00   1.7148E+00   6.0892E-06  0.0282
   1.7148E+00   1.7565E+00   6.0372E-06  0.0279
   1.7565E+00   1.7992E+00   6.0070E-06  0.0277
   1.7992E+00   1.8430E+00   5.5489E-06  0.0284
   1.8430E+00   1.8879E+00   5.7446E-06  0.0275
   1.8879E+00   1.9338E+00   5.7149E-06  0.0272
   1.9338E+00   1.9808E+00   5.4943E-06  0.0274
   1.9808E+00   2.0290E+00   5.5473E-06  0.0269
   2.0290E+00   2.0784E+00   5.5270E-06  0.0266
   2.0784E+00   2.1290E+00   5.7319E-06  0.0258
   2.1290E+00   2.1808E+00   5.5633E-06  0.0258
   2.1808E+00   2.2338E+00   5.5851E-06  0.0254
   2.2338E+00   2.2882E+00   5.8726E-06  0.0246
   2.2882E+00   2.3439E+00   5.7254E-06  0.0246
   2.3439E+00   2.4009E+00   5.5387E-06  0.0248
   2.4009E+00   2.4593E+00   5.5024E-06  0.0245
   2.4593E+00   2.5191E+00   5.3245E-06  0.0246
   2.5191E+00   2.5804E+00   5.4997E-06  0.0239
   2.5804E+00   2.6432E+00   5.5342E-06  0.0236
   2.6432E+00   2.7075E+00   5.5439E-06  0.0233
   2.7075E+00   2.7734E+00   5.4401E-06  0.0232
   2.7734E+00   2.8409E+00   5.3084E-06  0.0233
   2.8409E+00   2.9100E+00   5.4414E-06  0.0227
   2.9100E+00   2.9808E+00   5.5424E-06  0.0223
   2.9808E+00   3.0533E+00   5.6436E-06  0.0218
   3.0533E+00   3.1276E+00   5.4576E-06  0.0219
   3.1276E+00   3.2037E+00   5.3971E-06  0.0217
   3.2037E+00   3.2817E+00   5.4359E-06  0.0215
   3.2817E+00   3.3615E+00   5.2576E-06  0.0216
   3.3615E+00   3.4433E+00   5.2675E-06  0.0213
   3.4433E+00   3.5271E+00   5.5970E-06  0.0204
   3.5271E+00   3.6129E+00   5.4040E-06  0.0206
   3.6129E+00   3.7008E+00   5.3644E-06  0.0204
   3.7008E+00   3.7908E+00   5.3317E-06  0.0202
   3.7908E+00   3.8831E+00   5.1362E-06  0.0203
   3.8831E+00   3.9776E+00   5.2791E-06  0.0198
   3.9776E+00   4.0743E+00   5.0690E-06  0.0200
   4.0743E+00   4.1735E+00   4.9816E-06  0.0199
   4.1735E+00   4.2750E+00   5.0544E-06  0.0195
   4.2750E+00   4.3790E+00   4.9761E-06  0.0195
   4.3790E+00   4.4856E+00   4.8358E-06  0.0195
   4.4856E+00   4.5947E+00   4.8456E-06  0.0193
   4.5947E+00   4.7065E+00   4.9812E-06  0.0188
   4.7065E+00   4.8210E+00   4.7511E-06  0.0190
   4.8210E+00   4.9383E+00   4.8193E-06  0.0186
   4.9383E+00   5.0585E+00   4.5979E-06  0.0188
   5.0585E+00   5.1815E+00   4.6791E-06  0.0184
   5.1815E+00   5.3076E+00   4.5652E-06  0.0184
   5.3076E+00   5.4368E+00   4.6120E-06  0.0181
   5.4368E+00   5.5690E+00   4.5294E-06  0.0181
   5.5690E+00   5.7045E+00   4.4029E-06  0.0181
   5.7045E+00   5.8433E+00   4.4280E-06  0.0179
   5.8433E+00   5.9855E+00   4.5240E-06  0.0175
   5.9855E+00   6.1311E+00   4.4036E-06  0.0175
   6.1311E+00   6.2803E+00   4.4366E-06  0.0172
   6.2803E+00   6.4331E+00   4.4687E-06  0.0170
   6.4331E+00   6.5896E+00   4.4072E-06  0.0169
   6.5896E+00   6.7500E+00   4.2489E-06  0.0170
   6.7500E+00   6.9142E+00   4.1160E-06  0.0171
   6.9142E+00   7.0824E+00   4.2321E-06  0.0166
   7.0824E+00   7.2548E+00   4.3032E-06  0.0163
   7.2548E+00   7.4313E+00   4.1095E-06  0.0165
   7.4313E+00   7.6121E+00   4.0430E-06  0.0164
   7.6121E+00   7.7973E+00   3.9052E-06  0.0165
   7.7973E+00   7.9870E+00   3.9337E-06  0.0163
   7.9870E+00   8.1813E+00   3.9625E-06  0.0160
   8.1813E+00   8.3804E+00   3.8367E-06  0.0161
   8.3804E+00   8.5843E+00   3.7489E-06  0.0161
   8.5843E+00   8.7931E+00   3.7331E-06  0.0159
   8.7931E+00   9.0071E+00   3.6690E-06  0.0159
   9.0071E+00   9.2262E+00   3.6343E-06  0.0158
   9.2262E+00   9.4507E+00   3.5569E-06  0.0157
   9.4507E+00   9.6807E+00   3.5247E-06  0.0156
   9.6807E+00   9.9162E+00   3.4279E-06  0.0157
   9.9162E+00   1.0157E+01   3.6013E-06  0.0152
   1.0157E+01   1.0405E+01   3.4764E-06  0.0152
   1.0405E+01   1.0658E+01   3.4856E-06  0.0150
   1.0658E+01   1.0917E+01   3.3070E-06  0.0153
   1.0917E+01   1.1183E+01   3.2357E-06  0.0152
   1.1183E+01   1.1455E+01   3.1866E-06  0.0152
   1.1455E+01   1.1733E+01   3.0863E-06  0.0152
   1.1733E+01   1.2019E+01   3.0019E-06  0.0153
   1.2019E+01   1.2311E+01   2.9593E-06  0.0152
   1.2311E+01   1.2611E+01   2.8829E-06  0.0152
   1.2611E+01   1.2918E+01   2.8713E-06  0.0151
   1.2918E+01   1.3232E+01   2.7207E-06  0.0153
   1.3232E+01   1.3554E+01   2.6167E-06  0.0154
   1.3554E+01   1.3884E+01   2.5940E-06  0.0153
   1.3884E+01   1.4222E+01   2.5119E-06  0.0153
   1.4222E+01   1.4568E+01   2.4540E-06  0.0153
   1.4568E+01   1.4922E+01   2.3446E-06  0.0155
   1.4922E+01   1.5285E+01   2.3562E-06  0.0153
   1.5285E+01   1.5657E+01   2.2082E-06  0.0156
   1.5657E+01   1.6038E+01   2.1514E-06  0.0156
   1.6038E+01   1.6428E+01   2.0796E-06  0.0157
   1.6428E+01   1.6828E+01   1.9333E-06  0.0161
   1.6828E+01   1.7237E+01   1.9239E-06  0.0159
   1.7237E+01   1.7657E+01   1.8045E-06  0.0163
   1.7657E+01   1.8086E+01   1.7075E-06  0.0165
   1.8086E+01   1.8526E+01   1.6521E-06  0.0166
   1.8526E+01   1.8977E+01   1.6053E-06  0.0166
   1.8977E+01   1.9439E+01   1.4641E-06  0.0172
   1.9439E+01   1.9912E+01   1.3730E-06  0.0175
   1.9912E+01   2.0396E+01   1.3590E-06  0.0174
   2.0396E+01   2.0893E+01   1.2566E-06  0.0179
   2.0893E+01   2.1401E+01   1.1815E-06  0.0182
   2.1401E+01   2.1922E+01   1.0494E-06  0.0191
   2.1922E+01   2.2455E+01   9.5806E-07  0.0198
   2.2455E+01   2.3001E+01   8.9869E-07  0.0202
   2.3001E+01   2.3561E+01   8.1266E-07  0.0210
   2.3561E+01   2.4134E+01   7.0160E-07  0.0223
   2.4134E+01   2.4721E+01   6.2772E-07  0.0233
   2.4721E+01   2.5323E+01   5.3367E-07  0.0250
   2.5323E+01   2.5939E+01   4.3757E-07  0.0272
   2.5939E+01   2.6570E+01   3.4795E-07  0.0302
   2.6570E+01   2.7217E+01   2.8307E-07  0.0331
   2.7217E+01   2.7879E+01   2.2954E-07  0.0363
   2.7879E+01   2.8557E+01   2.2005E-06  0.0116
   2.8557E+01   2.9252E+01   3.3347E-06  0.0093
   2.9252E+01   2.9964E+01   3.2175E-07  0.0296
   2.9964E+01   3.0693E+01   0.0000E+00  0.0000
   3.0693E+01   3.1440E+01   0.0000E+00  0.0000
   3.1440E+01   3.2205E+01   0.0000E+00  0.0000
   3.2205E+01   3.2988E+01   0.0000E+00  0.0000
   3.2988E+01   3.3791E+01   0.0000E+00  0.0000
   3.3791E+01   3.4613E+01   0.0000E+00  0.0000
   3.4613E+01   3.5455E+01   0.0000E+00  0.0000
   3.5455E+01   3.6318E+01   0.0000E+00  0.0000
   3.6318E+01   3.7201E+01   0.0000E+00  0.0000
   3.7201E+01   3.8106E+01   0.0000E+00  0.0000
   3.8106E+01   3.9034E+01   0.0000E+00  0.0000
   3.9034E+01   3.9983E+01   0.0000E+00  0.0000
   3.9983E+01   4.0956E+01   0.0000E+00  0.0000
   4.0956E+01   4.1953E+01   0.0000E+00  0.0000
   4.1953E+01   4.2973E+01   0.0000E+00  0.0000
   4.2973E+01   4.4019E+01   0.0000E+00  0.0000
   4.4019E+01   4.5090E+01   0.0000E+00  0.0000
   4.5090E+01   4.6187E+01   0.0000E+00  0.0000
   4.6187E+01   4.7311E+01   0.0000E+00  0.0000
   4.7311E+01   4.8462E+01   0.0000E+00  0.0000
   4.8462E+01   4.9641E+01   0.0000E+00  0.0000
   4.9641E+01   5.0849E+01   0.0000E+00  0.0000
   5.0849E+01   5.2086E+01   0.0000E+00  0.0000
   5.2086E+01   5.3353E+01   0.0000E+00  0.0000
   5.3353E+01   5.4651E+01   0.0000E+00  0.0000
   5.4651E+01   5.5981E+01   0.0000E+00  0.0000
   5.5981E+01   5.7343E+01   0.0000E+00  0.0000
   5.7343E+01   5.8738E+01   0.0000E+00  0.0000
   5.8738E+01   6.0168E+01   0.0000E+00  0.0000
   6.0168E+01   6.1632E+01   0.0000E+00  0.0000
   6.1632E+01   6.3131E+01   0.0000E+00  0.0000
   6.3131E+01   6.4667E+01   0.0000E+00  0.0000
   6.4667E+01   6.6240E+01   0.0000E+00  0.0000
   6.6240E+01   6.7852E+01   0.0000E+00  0.0000
   6.7852E+01   6.9503E+01   0.0000E+00  0.0000
   6.9503E+01   7.1194E+01   0.0000E+00  0.0000
   7.1194E+01   7.2926E+01   0.0000E+00  0.0000
   7.2926E+01   7.4701E+01   0.0000E+00  0.0000
   7.4701E+01   7.6518E+01   0.0000E+00  0.0000
   7.6518E+01   7.8380E+01   0.0000E+00  0.0000
   7.8380E+01   8.0287E+01   0.0000E+00  0.0000
   8.0287E+01   8.2240E+01   0.0000E+00  0.0000
   8.2240E+01   8.4241E+01   0.0000E+00  0.0000
   8.4241E+01   8.6291E+01   0.0000E+00  0.0000
   8.6291E+01   8.8391E+01   0.0000E+00  0.0000
   8.8391E+01   9.0541E+01   0.0000E+00  0.0000
   9.0541E+01   9.2744E+01   0.0000E+00  0.0000
   9.2744E+01   9.5001E+01   0.0000E+00  0.0000
   9.5001E+01   9.7312E+01   0.0000E+00  0.0000
   9.7312E+01   9.9680E+01   0.0000E+00  0.0000
   9.9680E+01   1.0211E+02   0.0000E+00  0.0000
   1.0211E+02   1.0459E+02   0.0000E+00  0.0000
   1.0459E+02   1.0713E+02   0.0000E+00  0.0000
   1.0713E+02   1.0974E+02   0.0000E+00  0.0000
   1.0974E+02   1.1241E+02   0.0000E+00  0.0000
   1.1241E+02   1.1515E+02   0.0000E+00  0.0000
   1.1515E+02   1.1795E+02   0.0000E+00  0.0000
   1.1795E+02   1.2082E+02   0.0000E+00  0.0000
   1.2082E+02   1.2376E+02   0.0000E+00  0.0000
   1.2376E+02   1.2677E+02   0.0000E+00  0.0000
   1.2677E+02   1.2985E+02   0.0000E+00  0.0000
   1.2985E+02   1.3301E+02   0.0000E+00  0.0000
   1.3301E+02   1.3625E+02   0.0000E+00  0.0000
   1.3625E+02   1.3956E+02   0.0000E+00  0.0000
   1.3956E+02   1.4296E+02   0.0000E+00  0.0000
   1.4296E+02   1.4644E+02   0.0000E+00  0.0000
   1.4644E+02   1.5000E+02   0.0000E+00  0.0000

#   sum over                 5.2173E-07
'no. =    1   reg = 100 - 200'
msuc: {\huge [t-cross] in region mesh}
msdr: {\it plotted by \ANGEL \version}
msdl: {\it calculated by \PHITS  3.26}
wt: s(0.7)
\vspace{-3}
  region surface crossing
  area  &=&   1.0000E+00 [cm^2]
e:
 
# Information for Restart Calculation
# This calculation was newly started
# istdev =  2 # 1:Batch variance, 2:History variance
# resc2  = 5.00000000000000000E+09 # Total source weight or Total source weight / maxcas
# resc3  = 5.00000000000000000E+09 # Total history number or Total batch number
# maxcas =   100000000 # History / Batch, only used for istdev=1
# bitrseed = 0110100000100010111000001110001111001110100100011111101000111001 # bit data of rseed
