[ T-Cross ]
    title = [t-cross] in region mesh
     mesh =  reg            # mesh type is region-wise
      reg =    1            # number of crossing regions
      non     r-from    r-to       area
      1       108       208        1.000000    
   e-type =    3            # e-mesh is log given by emin, emax and ne
     emin =  1.0000000E-02  # minimum value of e-mesh points
     emax =   150.0000      # maximum value of e-mesh points
#    edel =  2.4039514E-02  # mesh width of e-mesh points
       ne =    400          # number of e-mesh points
#    data = ( e(i), i = 1, ne + 1 )
#           1.00000E-02  1.02433E-02  1.04925E-02  1.07478E-02  1.10093E-02
#           1.12772E-02  1.15516E-02  1.18326E-02  1.21205E-02  1.24154E-02
#           1.27175E-02  1.30269E-02  1.33439E-02  1.36686E-02  1.40011E-02
#           1.43418E-02  1.46907E-02  1.50482E-02  1.54143E-02  1.57894E-02
#           1.61735E-02  1.65670E-02  1.69701E-02  1.73830E-02  1.78060E-02
#           1.82392E-02  1.86830E-02  1.91375E-02  1.96032E-02  2.00801E-02
#           2.05687E-02  2.10692E-02  2.15818E-02  2.21069E-02  2.26448E-02
#           2.31957E-02  2.37601E-02  2.43382E-02  2.49304E-02  2.55369E-02
#           2.61583E-02  2.67947E-02  2.74467E-02  2.81145E-02  2.87985E-02
#           2.94992E-02  3.02169E-02  3.09521E-02  3.17052E-02  3.24766E-02
#           3.32668E-02  3.40762E-02  3.49053E-02  3.57546E-02  3.66246E-02
#           3.75157E-02  3.84284E-02  3.93634E-02  4.03212E-02  4.13022E-02
#           4.23071E-02  4.33365E-02  4.43909E-02  4.54710E-02  4.65773E-02
#           4.77106E-02  4.88714E-02  5.00605E-02  5.12785E-02  5.25262E-02
#           5.38042E-02  5.51133E-02  5.64542E-02  5.78278E-02  5.92348E-02
#           6.06760E-02  6.21523E-02  6.36645E-02  6.52135E-02  6.68002E-02
#           6.84255E-02  7.00904E-02  7.17957E-02  7.35426E-02  7.53319E-02
#           7.71648E-02  7.90423E-02  8.09655E-02  8.29354E-02  8.49533E-02
#           8.70203E-02  8.91376E-02  9.13064E-02  9.35279E-02  9.58035E-02
#           9.81345E-02  1.00522E-01  1.02968E-01  1.05473E-01  1.08040E-01
#           1.10668E-01  1.13361E-01  1.16119E-01  1.18944E-01  1.21838E-01
#           1.24803E-01  1.27839E-01  1.30950E-01  1.34136E-01  1.37399E-01
#           1.40742E-01  1.44167E-01  1.47675E-01  1.51268E-01  1.54948E-01
#           1.58718E-01  1.62580E-01  1.66535E-01  1.70587E-01  1.74738E-01
#           1.78989E-01  1.83344E-01  1.87805E-01  1.92375E-01  1.97055E-01
#           2.01850E-01  2.06761E-01  2.11792E-01  2.16945E-01  2.22223E-01
#           2.27630E-01  2.33169E-01  2.38842E-01  2.44653E-01  2.50605E-01
#           2.56703E-01  2.62949E-01  2.69346E-01  2.75900E-01  2.82613E-01
#           2.89489E-01  2.96532E-01  3.03747E-01  3.11138E-01  3.18708E-01
#           3.26462E-01  3.34405E-01  3.42542E-01  3.50876E-01  3.59413E-01
#           3.68158E-01  3.77116E-01  3.86291E-01  3.95690E-01  4.05317E-01
#           4.15179E-01  4.25281E-01  4.35628E-01  4.46227E-01  4.57084E-01
#           4.68205E-01  4.79597E-01  4.91266E-01  5.03219E-01  5.15463E-01
#           5.28005E-01  5.40851E-01  5.54011E-01  5.67490E-01  5.81298E-01
#           5.95441E-01  6.09929E-01  6.24769E-01  6.39970E-01  6.55541E-01
#           6.71491E-01  6.87828E-01  7.04564E-01  7.21706E-01  7.39266E-01
#           7.57253E-01  7.75678E-01  7.94551E-01  8.13883E-01  8.33685E-01
#           8.53969E-01  8.74747E-01  8.96030E-01  9.17831E-01  9.40163E-01
#           9.63038E-01  9.86469E-01  1.01047E+00  1.03506E+00  1.06024E+00
#           1.08604E+00  1.11246E+00  1.13953E+00  1.16725E+00  1.19565E+00
#           1.22474E+00  1.25454E+00  1.28507E+00  1.31633E+00  1.34836E+00
#           1.38117E+00  1.41477E+00  1.44920E+00  1.48446E+00  1.52057E+00
#           1.55757E+00  1.59547E+00  1.63429E+00  1.67405E+00  1.71478E+00
#           1.75650E+00  1.79924E+00  1.84302E+00  1.88786E+00  1.93379E+00
#           1.98084E+00  2.02904E+00  2.07841E+00  2.12898E+00  2.18078E+00
#           2.23384E+00  2.28819E+00  2.34386E+00  2.40089E+00  2.45930E+00
#           2.51914E+00  2.58043E+00  2.64322E+00  2.70753E+00  2.77341E+00
#           2.84088E+00  2.91001E+00  2.98081E+00  3.05333E+00  3.12762E+00
#           3.20372E+00  3.28167E+00  3.36152E+00  3.44330E+00  3.52708E+00
#           3.61290E+00  3.70080E+00  3.79085E+00  3.88308E+00  3.97756E+00
#           4.07434E+00  4.17347E+00  4.27501E+00  4.37903E+00  4.48557E+00
#           4.59471E+00  4.70650E+00  4.82102E+00  4.93832E+00  5.05847E+00
#           5.18155E+00  5.30762E+00  5.43676E+00  5.56904E+00  5.70453E+00
#           5.84333E+00  5.98550E+00  6.13114E+00  6.28031E+00  6.43312E+00
#           6.58964E+00  6.74997E+00  6.91420E+00  7.08243E+00  7.25475E+00
#           7.43126E+00  7.61207E+00  7.79728E+00  7.98700E+00  8.18133E+00
#           8.38038E+00  8.58428E+00  8.79315E+00  9.00709E+00  9.22624E+00
#           9.45072E+00  9.68067E+00  9.91620E+00  1.01575E+01  1.04046E+01
#           1.06578E+01  1.09171E+01  1.11827E+01  1.14548E+01  1.17335E+01
#           1.20190E+01  1.23114E+01  1.26109E+01  1.29178E+01  1.32321E+01
#           1.35540E+01  1.38838E+01  1.42216E+01  1.45676E+01  1.49221E+01
#           1.52851E+01  1.56570E+01  1.60380E+01  1.64282E+01  1.68279E+01
#           1.72374E+01  1.76568E+01  1.80864E+01  1.85264E+01  1.89772E+01
#           1.94389E+01  1.99119E+01  2.03963E+01  2.08926E+01  2.14009E+01
#           2.19216E+01  2.24550E+01  2.30014E+01  2.35610E+01  2.41343E+01
#           2.47215E+01  2.53230E+01  2.59391E+01  2.65702E+01  2.72167E+01
#           2.78789E+01  2.85572E+01  2.92520E+01  2.99637E+01  3.06928E+01
#           3.14396E+01  3.22045E+01  3.29881E+01  3.37907E+01  3.46128E+01
#           3.54550E+01  3.63177E+01  3.72013E+01  3.81064E+01  3.90336E+01
#           3.99833E+01  4.09561E+01  4.19526E+01  4.29734E+01  4.40189E+01
#           4.50900E+01  4.61870E+01  4.73108E+01  4.84619E+01  4.96410E+01
#           5.08488E+01  5.20860E+01  5.33533E+01  5.46514E+01  5.59812E+01
#           5.73432E+01  5.87384E+01  6.01676E+01  6.16315E+01  6.31311E+01
#           6.46671E+01  6.62405E+01  6.78522E+01  6.95031E+01  7.11941E+01
#           7.29263E+01  7.47007E+01  7.65182E+01  7.83800E+01  8.02870E+01
#           8.22405E+01  8.42414E+01  8.62911E+01  8.83906E+01  9.05412E+01
#           9.27442E+01  9.50007E+01  9.73122E+01  9.96799E+01  1.02105E+02
#           1.04589E+02  1.07134E+02  1.09741E+02  1.12411E+02  1.15146E+02
#           1.17948E+02  1.20817E+02  1.23757E+02  1.26768E+02  1.29852E+02
#           1.33012E+02  1.36248E+02  1.39563E+02  1.42959E+02  1.46437E+02
#           1.50000E+02
     unit =    2            # unit is [1/cm^2/(MeV/n)/source]
     axis =  eng            # axis of output
     file = detector-09.out  # file name of output for the above axis
   output = f-curr          # surface crossing forward current spectrum
     part =  neutron  
# kf/name :  2112     
#    used :        main (  %)        temp (  %)       total (  %)
#  memory :         414 (  0)           0 (  0)         414 (  0)

#------------------------------------------------------------------------------
#newpage:
#   no. =    1   reg = 108 - 208

x: Energy [MeV/n]
y:  F-Curr [1/cm^2/(MeV/n)/source]         
p: xlog ylog afac(0.8) form(0.9)
h: n            x            y(neutron ),hh0l   n 
#  e-lower      e-upper      neutron     r.err 
   1.0000E-02   1.0243E-02   3.5804E-03  0.0176
   1.0243E-02   1.0493E-02   3.7855E-03  0.0169
   1.0493E-02   1.0748E-02   3.7177E-03  0.0169
   1.0748E-02   1.1009E-02   3.7055E-03  0.0167
   1.1009E-02   1.1277E-02   3.8010E-03  0.0163
   1.1277E-02   1.1552E-02   3.7504E-03  0.0162
   1.1552E-02   1.1833E-02   3.8703E-03  0.0158
   1.1833E-02   1.2121E-02   3.6533E-03  0.0160
   1.2121E-02   1.2415E-02   3.7262E-03  0.0157
   1.2415E-02   1.2718E-02   3.6917E-03  0.0156
   1.2718E-02   1.3027E-02   3.7267E-03  0.0153
   1.3027E-02   1.3344E-02   3.6799E-03  0.0152
   1.3344E-02   1.3669E-02   3.6947E-03  0.0150
   1.3669E-02   1.4001E-02   3.7058E-03  0.0148
   1.4001E-02   1.4342E-02   3.6495E-03  0.0147
   1.4342E-02   1.4691E-02   3.6604E-03  0.0145
   1.4691E-02   1.5048E-02   3.6761E-03  0.0143
   1.5048E-02   1.5414E-02   3.7163E-03  0.0141
   1.5414E-02   1.5789E-02   3.7259E-03  0.0139
   1.5789E-02   1.6174E-02   3.7017E-03  0.0138
   1.6174E-02   1.6567E-02   3.7295E-03  0.0136
   1.6567E-02   1.6970E-02   3.6989E-03  0.0135
   1.6970E-02   1.7383E-02   3.6194E-03  0.0134
   1.7383E-02   1.7806E-02   3.6790E-03  0.0132
   1.7806E-02   1.8239E-02   3.6702E-03  0.0130
   1.8239E-02   1.8683E-02   3.7168E-03  0.0128
   1.8683E-02   1.9138E-02   3.6489E-03  0.0128
   1.9138E-02   1.9603E-02   3.6769E-03  0.0126
   1.9603E-02   2.0080E-02   3.6604E-03  0.0124
   2.0080E-02   2.0569E-02   3.6310E-03  0.0123
   2.0569E-02   2.1069E-02   3.6070E-03  0.0122
   2.1069E-02   2.1582E-02   3.6565E-03  0.0120
   2.1582E-02   2.2107E-02   3.6274E-03  0.0119
   2.2107E-02   2.2645E-02   3.6414E-03  0.0117
   2.2645E-02   2.3196E-02   3.5880E-03  0.0117
   2.3196E-02   2.3760E-02   3.6084E-03  0.0115
   2.3760E-02   2.4338E-02   3.6767E-03  0.0113
   2.4338E-02   2.4930E-02   3.6291E-03  0.0112
   2.4930E-02   2.5537E-02   3.5958E-03  0.0111
   2.5537E-02   2.6158E-02   3.5458E-03  0.0111
   2.6158E-02   2.6795E-02   3.5476E-03  0.0109
   2.6795E-02   2.7447E-02   3.5531E-03  0.0108
   2.7447E-02   2.8114E-02   3.5671E-03  0.0107
   2.8114E-02   2.8799E-02   3.5878E-03  0.0105
   2.8799E-02   2.9499E-02   3.5623E-03  0.0104
   2.9499E-02   3.0217E-02   3.5558E-03  0.0103
   3.0217E-02   3.0952E-02   3.6059E-03  0.0101
   3.0952E-02   3.1705E-02   3.5481E-03  0.0101
   3.1705E-02   3.2477E-02   3.5316E-03  0.0100
   3.2477E-02   3.3267E-02   3.5911E-03  0.0098
   3.3267E-02   3.4076E-02   3.5637E-03  0.0097
   3.4076E-02   3.4905E-02   3.6715E-03  0.0094
   3.4905E-02   3.5755E-02   3.5267E-03  0.0095
   3.5755E-02   3.6625E-02   3.5176E-03  0.0094
   3.6625E-02   3.7516E-02   3.5016E-03  0.0093
   3.7516E-02   3.8428E-02   3.4478E-03  0.0093
   3.8428E-02   3.9363E-02   3.5241E-03  0.0091
   3.9363E-02   4.0321E-02   3.4588E-03  0.0090
   4.0321E-02   4.1302E-02   3.4939E-03  0.0089
   4.1302E-02   4.2307E-02   3.4805E-03  0.0088
   4.2307E-02   4.3337E-02   3.5107E-03  0.0086
   4.3337E-02   4.4391E-02   3.4776E-03  0.0086
   4.4391E-02   4.5471E-02   3.4566E-03  0.0085
   4.5471E-02   4.6577E-02   3.4801E-03  0.0084
   4.6577E-02   4.7711E-02   3.4816E-03  0.0083
   4.7711E-02   4.8871E-02   3.4951E-03  0.0082
   4.8871E-02   5.0061E-02   3.4415E-03  0.0081
   5.0061E-02   5.1279E-02   3.3951E-03  0.0081
   5.1279E-02   5.2526E-02   3.4468E-03  0.0079
   5.2526E-02   5.3804E-02   3.4413E-03  0.0078
   5.3804E-02   5.5113E-02   3.3951E-03  0.0078
   5.5113E-02   5.6454E-02   3.4408E-03  0.0077
   5.6454E-02   5.7828E-02   3.3894E-03  0.0076
   5.7828E-02   5.9235E-02   3.4197E-03  0.0075
   5.9235E-02   6.0676E-02   3.3994E-03  0.0074
   6.0676E-02   6.2152E-02   3.3870E-03  0.0074
   6.2152E-02   6.3665E-02   3.3602E-03  0.0073
   6.3665E-02   6.5214E-02   3.3602E-03  0.0072
   6.5214E-02   6.6800E-02   3.3422E-03  0.0071
   6.6800E-02   6.8426E-02   3.3484E-03  0.0070
   6.8426E-02   7.0090E-02   3.3042E-03  0.0070
   7.0090E-02   7.1796E-02   3.3359E-03  0.0069
   7.1796E-02   7.3543E-02   3.2922E-03  0.0069
   7.3543E-02   7.5332E-02   3.2881E-03  0.0068
   7.5332E-02   7.7165E-02   3.2866E-03  0.0067
   7.7165E-02   7.9042E-02   3.2483E-03  0.0067
   7.9042E-02   8.0965E-02   3.2467E-03  0.0066
   8.0965E-02   8.2935E-02   3.2291E-03  0.0065
   8.2935E-02   8.4953E-02   3.2688E-03  0.0064
   8.4953E-02   8.7020E-02   3.2202E-03  0.0064
   8.7020E-02   8.9138E-02   3.2380E-03  0.0063
   8.9138E-02   9.1306E-02   3.1948E-03  0.0062
   9.1306E-02   9.3528E-02   3.2155E-03  0.0062
   9.3528E-02   9.5804E-02   3.1581E-03  0.0061
   9.5804E-02   9.8134E-02   3.1569E-03  0.0061
   9.8134E-02   1.0052E-01   3.1451E-03  0.0060
   1.0052E-01   1.0297E-01   3.1399E-03  0.0059
   1.0297E-01   1.0547E-01   3.1357E-03  0.0059
   1.0547E-01   1.0804E-01   3.1117E-03  0.0058
   1.0804E-01   1.1067E-01   3.0926E-03  0.0058
   1.1067E-01   1.1336E-01   3.0801E-03  0.0057
   1.1336E-01   1.1612E-01   3.0770E-03  0.0056
   1.1612E-01   1.1894E-01   3.0370E-03  0.0056
   1.1894E-01   1.2184E-01   3.0692E-03  0.0055
   1.2184E-01   1.2480E-01   3.0239E-03  0.0055
   1.2480E-01   1.2784E-01   3.0016E-03  0.0054
   1.2784E-01   1.3095E-01   3.0078E-03  0.0054
   1.3095E-01   1.3414E-01   2.9681E-03  0.0053
   1.3414E-01   1.3740E-01   2.9735E-03  0.0053
   1.3740E-01   1.4074E-01   2.8951E-03  0.0053
   1.4074E-01   1.4417E-01   2.8961E-03  0.0052
   1.4417E-01   1.4767E-01   2.8939E-03  0.0052
   1.4767E-01   1.5127E-01   2.8994E-03  0.0051
   1.5127E-01   1.5495E-01   2.8456E-03  0.0051
   1.5495E-01   1.5872E-01   2.8631E-03  0.0050
   1.5872E-01   1.6258E-01   2.8303E-03  0.0050
   1.6258E-01   1.6654E-01   2.8302E-03  0.0049
   1.6654E-01   1.7059E-01   2.7882E-03  0.0049
   1.7059E-01   1.7474E-01   2.7771E-03  0.0048
   1.7474E-01   1.7899E-01   2.7576E-03  0.0048
   1.7899E-01   1.8334E-01   2.7442E-03  0.0048
   1.8334E-01   1.8781E-01   2.7155E-03  0.0047
   1.8781E-01   1.9237E-01   2.6637E-03  0.0047
   1.9237E-01   1.9706E-01   2.6769E-03  0.0046
   1.9706E-01   2.0185E-01   2.6560E-03  0.0046
   2.0185E-01   2.0676E-01   2.6118E-03  0.0046
   2.0676E-01   2.1179E-01   2.5917E-03  0.0046
   2.1179E-01   2.1694E-01   2.5802E-03  0.0045
   2.1694E-01   2.2222E-01   2.5793E-03  0.0045
   2.2222E-01   2.2763E-01   2.5318E-03  0.0044
   2.2763E-01   2.3317E-01   2.5035E-03  0.0044
   2.3317E-01   2.3884E-01   2.4834E-03  0.0044
   2.3884E-01   2.4465E-01   2.4507E-03  0.0044
   2.4465E-01   2.5061E-01   2.4335E-03  0.0043
   2.5061E-01   2.5670E-01   2.4041E-03  0.0043
   2.5670E-01   2.6295E-01   2.3932E-03  0.0043
   2.6295E-01   2.6935E-01   2.3650E-03  0.0042
   2.6935E-01   2.7590E-01   2.3171E-03  0.0042
   2.7590E-01   2.8261E-01   2.2924E-03  0.0042
   2.8261E-01   2.8949E-01   2.2597E-03  0.0042
   2.8949E-01   2.9653E-01   2.2533E-03  0.0041
   2.9653E-01   3.0375E-01   2.2121E-03  0.0041
   3.0375E-01   3.1114E-01   2.1892E-03  0.0041
   3.1114E-01   3.1871E-01   2.1716E-03  0.0041
   3.1871E-01   3.2646E-01   2.1423E-03  0.0040
   3.2646E-01   3.3441E-01   2.1074E-03  0.0040
   3.3441E-01   3.4254E-01   2.0776E-03  0.0040
   3.4254E-01   3.5088E-01   2.0291E-03  0.0040
   3.5088E-01   3.5941E-01   2.0326E-03  0.0039
   3.5941E-01   3.6816E-01   1.9810E-03  0.0039
   3.6816E-01   3.7712E-01   1.9610E-03  0.0039
   3.7712E-01   3.8629E-01   1.9264E-03  0.0039
   3.8629E-01   3.9569E-01   1.8911E-03  0.0039
   3.9569E-01   4.0532E-01   1.8724E-03  0.0039
   4.0532E-01   4.1518E-01   1.8260E-03  0.0039
   4.1518E-01   4.2528E-01   1.7922E-03  0.0039
   4.2528E-01   4.3563E-01   1.7589E-03  0.0039
   4.3563E-01   4.4623E-01   1.7332E-03  0.0038
   4.4623E-01   4.5708E-01   1.7010E-03  0.0038
   4.5708E-01   4.6821E-01   1.6600E-03  0.0038
   4.6821E-01   4.7960E-01   1.6355E-03  0.0038
   4.7960E-01   4.9127E-01   1.5992E-03  0.0038
   4.9127E-01   5.0322E-01   1.5658E-03  0.0038
   5.0322E-01   5.1546E-01   1.5194E-03  0.0038
   5.1546E-01   5.2800E-01   1.4917E-03  0.0038
   5.2800E-01   5.4085E-01   1.4514E-03  0.0038
   5.4085E-01   5.5401E-01   1.4162E-03  0.0038
   5.5401E-01   5.6749E-01   1.3753E-03  0.0038
   5.6749E-01   5.8130E-01   1.3433E-03  0.0038
   5.8130E-01   5.9544E-01   1.3136E-03  0.0038
   5.9544E-01   6.0993E-01   1.2848E-03  0.0038
   6.0993E-01   6.2477E-01   1.2377E-03  0.0038
   6.2477E-01   6.3997E-01   1.2122E-03  0.0038
   6.3997E-01   6.5554E-01   1.1785E-03  0.0038
   6.5554E-01   6.7149E-01   1.1367E-03  0.0039
   6.7149E-01   6.8783E-01   1.0930E-03  0.0039
   6.8783E-01   7.0456E-01   1.0598E-03  0.0039
   7.0456E-01   7.2171E-01   1.0215E-03  0.0039
   7.2171E-01   7.3927E-01   9.9082E-04  0.0039
   7.3927E-01   7.5725E-01   9.5581E-04  0.0040
   7.5725E-01   7.7568E-01   9.1974E-04  0.0040
   7.7568E-01   7.9455E-01   8.8463E-04  0.0040
   7.9455E-01   8.1388E-01   8.5021E-04  0.0041
   8.1388E-01   8.3368E-01   8.1292E-04  0.0041
   8.3368E-01   8.5397E-01   7.8147E-04  0.0041
   8.5397E-01   8.7475E-01   7.5335E-04  0.0042
   8.7475E-01   8.9603E-01   7.2137E-04  0.0042
   8.9603E-01   9.1783E-01   6.8728E-04  0.0042
   9.1783E-01   9.4016E-01   6.5575E-04  0.0043
   9.4016E-01   9.6304E-01   6.3532E-04  0.0043
   9.6304E-01   9.8647E-01   6.0262E-04  0.0044
   9.8647E-01   1.0105E+00   5.8836E-04  0.0044
   1.0105E+00   1.0351E+00   5.9779E-04  0.0043
   1.0351E+00   1.0602E+00   6.0872E-04  0.0042
   1.0602E+00   1.0860E+00   6.2768E-04  0.0041
   1.0860E+00   1.1125E+00   6.3334E-04  0.0040
   1.1125E+00   1.1395E+00   6.5987E-04  0.0039
   1.1395E+00   1.1673E+00   6.7771E-04  0.0038
   1.1673E+00   1.1957E+00   7.0618E-04  0.0037
   1.1957E+00   1.2247E+00   7.2306E-04  0.0036
   1.2247E+00   1.2545E+00   7.3316E-04  0.0035
   1.2545E+00   1.2851E+00   7.4203E-04  0.0035
   1.2851E+00   1.3163E+00   7.5442E-04  0.0034
   1.3163E+00   1.3484E+00   7.7154E-04  0.0033
   1.3484E+00   1.3812E+00   7.9173E-04  0.0032
   1.3812E+00   1.4148E+00   8.0717E-04  0.0032
   1.4148E+00   1.4492E+00   8.0555E-04  0.0031
   1.4492E+00   1.4845E+00   8.0762E-04  0.0031
   1.4845E+00   1.5206E+00   8.1133E-04  0.0030
   1.5206E+00   1.5576E+00   8.1839E-04  0.0030
   1.5576E+00   1.5955E+00   8.2041E-04  0.0029
   1.5955E+00   1.6343E+00   8.3515E-04  0.0029
   1.6343E+00   1.6741E+00   8.4828E-04  0.0028
   1.6741E+00   1.7148E+00   8.6103E-04  0.0028
   1.7148E+00   1.7565E+00   8.6220E-04  0.0027
   1.7565E+00   1.7992E+00   8.5542E-04  0.0027
   1.7992E+00   1.8430E+00   8.5957E-04  0.0027
   1.8430E+00   1.8879E+00   8.5051E-04  0.0027
   1.8879E+00   1.9338E+00   8.5201E-04  0.0026
   1.9338E+00   1.9808E+00   8.6056E-04  0.0026
   1.9808E+00   2.0290E+00   8.6093E-04  0.0026
   2.0290E+00   2.0784E+00   8.4986E-04  0.0025
   2.0784E+00   2.1290E+00   8.3995E-04  0.0025
   2.1290E+00   2.1808E+00   8.2666E-04  0.0025
   2.1808E+00   2.2338E+00   8.1819E-04  0.0025
   2.2338E+00   2.2882E+00   8.0787E-04  0.0025
   2.2882E+00   2.3439E+00   8.0796E-04  0.0024
   2.3439E+00   2.4009E+00   8.0826E-04  0.0024
   2.4009E+00   2.4593E+00   8.0093E-04  0.0024
   2.4593E+00   2.5191E+00   7.8721E-04  0.0024
   2.5191E+00   2.5804E+00   7.6682E-04  0.0024
   2.5804E+00   2.6432E+00   7.4914E-04  0.0024
   2.6432E+00   2.7075E+00   7.3328E-04  0.0024
   2.7075E+00   2.7734E+00   7.1946E-04  0.0024
   2.7734E+00   2.8409E+00   7.0343E-04  0.0024
   2.8409E+00   2.9100E+00   7.0179E-04  0.0024
   2.9100E+00   2.9808E+00   6.8861E-04  0.0023
   2.9808E+00   3.0533E+00   6.6975E-04  0.0024
   3.0533E+00   3.1276E+00   6.5073E-04  0.0024
   3.1276E+00   3.2037E+00   6.3296E-04  0.0024
   3.2037E+00   3.2817E+00   6.1260E-04  0.0024
   3.2817E+00   3.3615E+00   5.9733E-04  0.0024
   3.3615E+00   3.4433E+00   5.8166E-04  0.0024
   3.4433E+00   3.5271E+00   5.7028E-04  0.0024
   3.5271E+00   3.6129E+00   5.5576E-04  0.0024
   3.6129E+00   3.7008E+00   5.3698E-04  0.0024
   3.7008E+00   3.7908E+00   5.1603E-04  0.0024
   3.7908E+00   3.8831E+00   5.0232E-04  0.0024
   3.8831E+00   3.9776E+00   4.8240E-04  0.0024
   3.9776E+00   4.0743E+00   4.7123E-04  0.0024
   4.0743E+00   4.1735E+00   4.5309E-04  0.0024
   4.1735E+00   4.2750E+00   4.3904E-04  0.0025
   4.2750E+00   4.3790E+00   4.2049E-04  0.0025
   4.3790E+00   4.4856E+00   4.0184E-04  0.0025
   4.4856E+00   4.5947E+00   3.8969E-04  0.0025
   4.5947E+00   4.7065E+00   3.7512E-04  0.0025
   4.7065E+00   4.8210E+00   3.6174E-04  0.0025
   4.8210E+00   4.9383E+00   3.5040E-04  0.0026
   4.9383E+00   5.0585E+00   3.3625E-04  0.0026
   5.0585E+00   5.1815E+00   3.2290E-04  0.0026
   5.1815E+00   5.3076E+00   3.1225E-04  0.0026
   5.3076E+00   5.4368E+00   2.9968E-04  0.0026
   5.4368E+00   5.5690E+00   2.8726E-04  0.0027
   5.5690E+00   5.7045E+00   2.7793E-04  0.0027
   5.7045E+00   5.8433E+00   2.6786E-04  0.0027
   5.8433E+00   5.9855E+00   2.5908E-04  0.0027
   5.9855E+00   6.1311E+00   2.5023E-04  0.0027
   6.1311E+00   6.2803E+00   2.4183E-04  0.0027
   6.2803E+00   6.4331E+00   2.3436E-04  0.0027
   6.4331E+00   6.5896E+00   2.2450E-04  0.0028
   6.5896E+00   6.7500E+00   2.1752E-04  0.0028
   6.7500E+00   6.9142E+00   2.1053E-04  0.0028
   6.9142E+00   7.0824E+00   2.0421E-04  0.0028
   7.0824E+00   7.2548E+00   1.9810E-04  0.0028
   7.2548E+00   7.4313E+00   1.9425E-04  0.0028
   7.4313E+00   7.6121E+00   1.8887E-04  0.0028
   7.6121E+00   7.7973E+00   1.8237E-04  0.0028
   7.7973E+00   7.9870E+00   1.7815E-04  0.0028
   7.9870E+00   8.1813E+00   1.7430E-04  0.0028
   8.1813E+00   8.3804E+00   1.6949E-04  0.0028
   8.3804E+00   8.5843E+00   1.6643E-04  0.0028
   8.5843E+00   8.7931E+00   1.6242E-04  0.0028
   8.7931E+00   9.0071E+00   1.5971E-04  0.0028
   9.0071E+00   9.2262E+00   1.5619E-04  0.0028
   9.2262E+00   9.4507E+00   1.5425E-04  0.0028
   9.4507E+00   9.6807E+00   1.5124E-04  0.0028
   9.6807E+00   9.9162E+00   1.4933E-04  0.0028
   9.9162E+00   1.0157E+01   1.4697E-04  0.0028
   1.0157E+01   1.0405E+01   1.4460E-04  0.0027
   1.0405E+01   1.0658E+01   1.4338E-04  0.0027
   1.0658E+01   1.0917E+01   1.4054E-04  0.0027
   1.0917E+01   1.1183E+01   1.3851E-04  0.0027
   1.1183E+01   1.1455E+01   1.3710E-04  0.0027
   1.1455E+01   1.1733E+01   1.3612E-04  0.0027
   1.1733E+01   1.2019E+01   1.3430E-04  0.0027
   1.2019E+01   1.2311E+01   1.3274E-04  0.0026
   1.2311E+01   1.2611E+01   1.3118E-04  0.0026
   1.2611E+01   1.2918E+01   1.2935E-04  0.0026
   1.2918E+01   1.3232E+01   1.2819E-04  0.0026
   1.3232E+01   1.3554E+01   1.2710E-04  0.0026
   1.3554E+01   1.3884E+01   1.2540E-04  0.0026
   1.3884E+01   1.4222E+01   1.2388E-04  0.0025
   1.4222E+01   1.4568E+01   1.2283E-04  0.0025
   1.4568E+01   1.4922E+01   1.2062E-04  0.0025
   1.4922E+01   1.5285E+01   1.1954E-04  0.0025
   1.5285E+01   1.5657E+01   1.1826E-04  0.0025
   1.5657E+01   1.6038E+01   1.1690E-04  0.0025
   1.6038E+01   1.6428E+01   1.1532E-04  0.0025
   1.6428E+01   1.6828E+01   1.1402E-04  0.0024
   1.6828E+01   1.7237E+01   1.1202E-04  0.0024
   1.7237E+01   1.7657E+01   1.1114E-04  0.0024
   1.7657E+01   1.8086E+01   1.0949E-04  0.0024
   1.8086E+01   1.8526E+01   1.0740E-04  0.0024
   1.8526E+01   1.8977E+01   1.0532E-04  0.0024
   1.8977E+01   1.9439E+01   1.0323E-04  0.0024
   1.9439E+01   1.9912E+01   1.0153E-04  0.0024
   1.9912E+01   2.0396E+01   1.0004E-04  0.0024
   2.0396E+01   2.0893E+01   9.8015E-05  0.0024
   2.0893E+01   2.1401E+01   9.6358E-05  0.0023
   2.1401E+01   2.1922E+01   9.4310E-05  0.0023
   2.1922E+01   2.2455E+01   9.1785E-05  0.0023
   2.2455E+01   2.3001E+01   8.9956E-05  0.0023
   2.3001E+01   2.3561E+01   8.7424E-05  0.0024
   2.3561E+01   2.4134E+01   8.5180E-05  0.0024
   2.4134E+01   2.4721E+01   8.2203E-05  0.0024
   2.4721E+01   2.5323E+01   7.9729E-05  0.0024
   2.5323E+01   2.5939E+01   7.7691E-05  0.0024
   2.5939E+01   2.6570E+01   7.4678E-05  0.0024
   2.6570E+01   2.7217E+01   7.2154E-05  0.0024
   2.7217E+01   2.7879E+01   6.9369E-05  0.0024
   2.7879E+01   2.8557E+01   6.5947E-05  0.0025
   2.8557E+01   2.9252E+01   6.3253E-05  0.0025
   2.9252E+01   2.9964E+01   6.0033E-05  0.0025
   2.9964E+01   3.0693E+01   5.6807E-05  0.0026
   3.0693E+01   3.1440E+01   5.3721E-05  0.0026
   3.1440E+01   3.2205E+01   5.0210E-05  0.0027
   3.2205E+01   3.2988E+01   4.7004E-05  0.0027
   3.2988E+01   3.3791E+01   4.3642E-05  0.0028
   3.3791E+01   3.4613E+01   4.0299E-05  0.0029
   3.4613E+01   3.5455E+01   3.7007E-05  0.0029
   3.5455E+01   3.6318E+01   3.3744E-05  0.0030
   3.6318E+01   3.7201E+01   3.0714E-05  0.0032
   3.7201E+01   3.8106E+01   2.7513E-05  0.0033
   3.8106E+01   3.9034E+01   2.4739E-05  0.0034
   3.9034E+01   3.9983E+01   2.1934E-05  0.0036
   3.9983E+01   4.0956E+01   1.9315E-05  0.0038
   4.0956E+01   4.1953E+01   1.6820E-05  0.0040
   4.1953E+01   4.2973E+01   1.4825E-05  0.0042
   4.2973E+01   4.4019E+01   1.2666E-05  0.0045
   4.4019E+01   4.5090E+01   1.0856E-05  0.0048
   4.5090E+01   4.6187E+01   9.1048E-06  0.0052
   4.6187E+01   4.7311E+01   7.6641E-06  0.0056
   4.7311E+01   4.8462E+01   6.2638E-06  0.0061
   4.8462E+01   4.9641E+01   5.0661E-06  0.0067
   4.9641E+01   5.0849E+01   3.9929E-06  0.0075
   5.0849E+01   5.2086E+01   3.1447E-06  0.0083
   5.2086E+01   5.3353E+01   2.3628E-06  0.0095
   5.3353E+01   5.4651E+01   1.7279E-06  0.0110
   5.4651E+01   5.5981E+01   1.1880E-06  0.0131
   5.5981E+01   5.7343E+01   7.7744E-07  0.0160
   5.7343E+01   5.8738E+01   4.3895E-07  0.0210
   5.8738E+01   6.0168E+01   2.1389E-07  0.0297
   6.0168E+01   6.1632E+01   7.4956E-08  0.0496
   6.1632E+01   6.3131E+01   9.9129E-09  0.1348
   6.3131E+01   6.4667E+01   1.7595E-10  1.0000
   6.4667E+01   6.6240E+01   0.0000E+00  0.0000
   6.6240E+01   6.7852E+01   0.0000E+00  0.0000
   6.7852E+01   6.9503E+01   0.0000E+00  0.0000
   6.9503E+01   7.1194E+01   0.0000E+00  0.0000
   7.1194E+01   7.2926E+01   0.0000E+00  0.0000
   7.2926E+01   7.4701E+01   0.0000E+00  0.0000
   7.4701E+01   7.6518E+01   0.0000E+00  0.0000
   7.6518E+01   7.8380E+01   0.0000E+00  0.0000
   7.8380E+01   8.0287E+01   0.0000E+00  0.0000
   8.0287E+01   8.2240E+01   0.0000E+00  0.0000
   8.2240E+01   8.4241E+01   0.0000E+00  0.0000
   8.4241E+01   8.6291E+01   0.0000E+00  0.0000
   8.6291E+01   8.8391E+01   0.0000E+00  0.0000
   8.8391E+01   9.0541E+01   0.0000E+00  0.0000
   9.0541E+01   9.2744E+01   0.0000E+00  0.0000
   9.2744E+01   9.5001E+01   0.0000E+00  0.0000
   9.5001E+01   9.7312E+01   0.0000E+00  0.0000
   9.7312E+01   9.9680E+01   0.0000E+00  0.0000
   9.9680E+01   1.0211E+02   0.0000E+00  0.0000
   1.0211E+02   1.0459E+02   0.0000E+00  0.0000
   1.0459E+02   1.0713E+02   0.0000E+00  0.0000
   1.0713E+02   1.0974E+02   0.0000E+00  0.0000
   1.0974E+02   1.1241E+02   0.0000E+00  0.0000
   1.1241E+02   1.1515E+02   0.0000E+00  0.0000
   1.1515E+02   1.1795E+02   0.0000E+00  0.0000
   1.1795E+02   1.2082E+02   0.0000E+00  0.0000
   1.2082E+02   1.2376E+02   0.0000E+00  0.0000
   1.2376E+02   1.2677E+02   0.0000E+00  0.0000
   1.2677E+02   1.2985E+02   0.0000E+00  0.0000
   1.2985E+02   1.3301E+02   0.0000E+00  0.0000
   1.3301E+02   1.3625E+02   0.0000E+00  0.0000
   1.3625E+02   1.3956E+02   0.0000E+00  0.0000
   1.3956E+02   1.4296E+02   0.0000E+00  0.0000
   1.4296E+02   1.4644E+02   0.0000E+00  0.0000
   1.4644E+02   1.5000E+02   0.0000E+00  0.0000

#   sum over                 5.1795E-05
'no. =    1   reg = 108 - 208'
msuc: {\huge [t-cross] in region mesh}
msdr: {\it plotted by \ANGEL \version}
msdl: {\it calculated by \PHITS  3.26}
wt: s(0.7)
\vspace{-3}
  region surface crossing
  area  &=&   1.0000E+00 [cm^2]
e:
 
# Information for Restart Calculation
# This calculation was newly started
# istdev =  2 # 1:Batch variance, 2:History variance
# resc2  = 3.70000000000000000E+09 # Total source weight or Total source weight / maxcas
# resc3  = 3.70000000000000000E+09 # Total history number or Total batch number
# maxcas =   100000000 # History / Batch, only used for istdev=1
# bitrseed = 0101101111110001101000100110001101111000011101110010000100011010 # bit data of rseed
