[ T-Cross ]
    title = [t-cross] in region mesh
     mesh =  reg            # mesh type is region-wise
      reg =    1            # number of crossing regions
      non     r-from    r-to       area
      1       116       216        1.000000    
   e-type =    3            # e-mesh is log given by emin, emax and ne
     emin =  1.0000000E-02  # minimum value of e-mesh points
     emax =   150.0000      # maximum value of e-mesh points
#    edel =  2.4039514E-02  # mesh width of e-mesh points
       ne =    400          # number of e-mesh points
#    data = ( e(i), i = 1, ne + 1 )
#           1.00000E-02  1.02433E-02  1.04925E-02  1.07478E-02  1.10093E-02
#           1.12772E-02  1.15516E-02  1.18326E-02  1.21205E-02  1.24154E-02
#           1.27175E-02  1.30269E-02  1.33439E-02  1.36686E-02  1.40011E-02
#           1.43418E-02  1.46907E-02  1.50482E-02  1.54143E-02  1.57894E-02
#           1.61735E-02  1.65670E-02  1.69701E-02  1.73830E-02  1.78060E-02
#           1.82392E-02  1.86830E-02  1.91375E-02  1.96032E-02  2.00801E-02
#           2.05687E-02  2.10692E-02  2.15818E-02  2.21069E-02  2.26448E-02
#           2.31957E-02  2.37601E-02  2.43382E-02  2.49304E-02  2.55369E-02
#           2.61583E-02  2.67947E-02  2.74467E-02  2.81145E-02  2.87985E-02
#           2.94992E-02  3.02169E-02  3.09521E-02  3.17052E-02  3.24766E-02
#           3.32668E-02  3.40762E-02  3.49053E-02  3.57546E-02  3.66246E-02
#           3.75157E-02  3.84284E-02  3.93634E-02  4.03212E-02  4.13022E-02
#           4.23071E-02  4.33365E-02  4.43909E-02  4.54710E-02  4.65773E-02
#           4.77106E-02  4.88714E-02  5.00605E-02  5.12785E-02  5.25262E-02
#           5.38042E-02  5.51133E-02  5.64542E-02  5.78278E-02  5.92348E-02
#           6.06760E-02  6.21523E-02  6.36645E-02  6.52135E-02  6.68002E-02
#           6.84255E-02  7.00904E-02  7.17957E-02  7.35426E-02  7.53319E-02
#           7.71648E-02  7.90423E-02  8.09655E-02  8.29354E-02  8.49533E-02
#           8.70203E-02  8.91376E-02  9.13064E-02  9.35279E-02  9.58035E-02
#           9.81345E-02  1.00522E-01  1.02968E-01  1.05473E-01  1.08040E-01
#           1.10668E-01  1.13361E-01  1.16119E-01  1.18944E-01  1.21838E-01
#           1.24803E-01  1.27839E-01  1.30950E-01  1.34136E-01  1.37399E-01
#           1.40742E-01  1.44167E-01  1.47675E-01  1.51268E-01  1.54948E-01
#           1.58718E-01  1.62580E-01  1.66535E-01  1.70587E-01  1.74738E-01
#           1.78989E-01  1.83344E-01  1.87805E-01  1.92375E-01  1.97055E-01
#           2.01850E-01  2.06761E-01  2.11792E-01  2.16945E-01  2.22223E-01
#           2.27630E-01  2.33169E-01  2.38842E-01  2.44653E-01  2.50605E-01
#           2.56703E-01  2.62949E-01  2.69346E-01  2.75900E-01  2.82613E-01
#           2.89489E-01  2.96532E-01  3.03747E-01  3.11138E-01  3.18708E-01
#           3.26462E-01  3.34405E-01  3.42542E-01  3.50876E-01  3.59413E-01
#           3.68158E-01  3.77116E-01  3.86291E-01  3.95690E-01  4.05317E-01
#           4.15179E-01  4.25281E-01  4.35628E-01  4.46227E-01  4.57084E-01
#           4.68205E-01  4.79597E-01  4.91266E-01  5.03219E-01  5.15463E-01
#           5.28005E-01  5.40851E-01  5.54011E-01  5.67490E-01  5.81298E-01
#           5.95441E-01  6.09929E-01  6.24769E-01  6.39970E-01  6.55541E-01
#           6.71491E-01  6.87828E-01  7.04564E-01  7.21706E-01  7.39266E-01
#           7.57253E-01  7.75678E-01  7.94551E-01  8.13883E-01  8.33685E-01
#           8.53969E-01  8.74747E-01  8.96030E-01  9.17831E-01  9.40163E-01
#           9.63038E-01  9.86469E-01  1.01047E+00  1.03506E+00  1.06024E+00
#           1.08604E+00  1.11246E+00  1.13953E+00  1.16725E+00  1.19565E+00
#           1.22474E+00  1.25454E+00  1.28507E+00  1.31633E+00  1.34836E+00
#           1.38117E+00  1.41477E+00  1.44920E+00  1.48446E+00  1.52057E+00
#           1.55757E+00  1.59547E+00  1.63429E+00  1.67405E+00  1.71478E+00
#           1.75650E+00  1.79924E+00  1.84302E+00  1.88786E+00  1.93379E+00
#           1.98084E+00  2.02904E+00  2.07841E+00  2.12898E+00  2.18078E+00
#           2.23384E+00  2.28819E+00  2.34386E+00  2.40089E+00  2.45930E+00
#           2.51914E+00  2.58043E+00  2.64322E+00  2.70753E+00  2.77341E+00
#           2.84088E+00  2.91001E+00  2.98081E+00  3.05333E+00  3.12762E+00
#           3.20372E+00  3.28167E+00  3.36152E+00  3.44330E+00  3.52708E+00
#           3.61290E+00  3.70080E+00  3.79085E+00  3.88308E+00  3.97756E+00
#           4.07434E+00  4.17347E+00  4.27501E+00  4.37903E+00  4.48557E+00
#           4.59471E+00  4.70650E+00  4.82102E+00  4.93832E+00  5.05847E+00
#           5.18155E+00  5.30762E+00  5.43676E+00  5.56904E+00  5.70453E+00
#           5.84333E+00  5.98550E+00  6.13114E+00  6.28031E+00  6.43312E+00
#           6.58964E+00  6.74997E+00  6.91420E+00  7.08243E+00  7.25475E+00
#           7.43126E+00  7.61207E+00  7.79728E+00  7.98700E+00  8.18133E+00
#           8.38038E+00  8.58428E+00  8.79315E+00  9.00709E+00  9.22624E+00
#           9.45072E+00  9.68067E+00  9.91620E+00  1.01575E+01  1.04046E+01
#           1.06578E+01  1.09171E+01  1.11827E+01  1.14548E+01  1.17335E+01
#           1.20190E+01  1.23114E+01  1.26109E+01  1.29178E+01  1.32321E+01
#           1.35540E+01  1.38838E+01  1.42216E+01  1.45676E+01  1.49221E+01
#           1.52851E+01  1.56570E+01  1.60380E+01  1.64282E+01  1.68279E+01
#           1.72374E+01  1.76568E+01  1.80864E+01  1.85264E+01  1.89772E+01
#           1.94389E+01  1.99119E+01  2.03963E+01  2.08926E+01  2.14009E+01
#           2.19216E+01  2.24550E+01  2.30014E+01  2.35610E+01  2.41343E+01
#           2.47215E+01  2.53230E+01  2.59391E+01  2.65702E+01  2.72167E+01
#           2.78789E+01  2.85572E+01  2.92520E+01  2.99637E+01  3.06928E+01
#           3.14396E+01  3.22045E+01  3.29881E+01  3.37907E+01  3.46128E+01
#           3.54550E+01  3.63177E+01  3.72013E+01  3.81064E+01  3.90336E+01
#           3.99833E+01  4.09561E+01  4.19526E+01  4.29734E+01  4.40189E+01
#           4.50900E+01  4.61870E+01  4.73108E+01  4.84619E+01  4.96410E+01
#           5.08488E+01  5.20860E+01  5.33533E+01  5.46514E+01  5.59812E+01
#           5.73432E+01  5.87384E+01  6.01676E+01  6.16315E+01  6.31311E+01
#           6.46671E+01  6.62405E+01  6.78522E+01  6.95031E+01  7.11941E+01
#           7.29263E+01  7.47007E+01  7.65182E+01  7.83800E+01  8.02870E+01
#           8.22405E+01  8.42414E+01  8.62911E+01  8.83906E+01  9.05412E+01
#           9.27442E+01  9.50007E+01  9.73122E+01  9.96799E+01  1.02105E+02
#           1.04589E+02  1.07134E+02  1.09741E+02  1.12411E+02  1.15146E+02
#           1.17948E+02  1.20817E+02  1.23757E+02  1.26768E+02  1.29852E+02
#           1.33012E+02  1.36248E+02  1.39563E+02  1.42959E+02  1.46437E+02
#           1.50000E+02
     unit =    2            # unit is [1/cm^2/(MeV/n)/source]
     axis =  eng            # axis of output
     file = detector-17.out  # file name of output for the above axis
   output = f-curr          # surface crossing forward current spectrum
     part =  neutron  
# kf/name :  2112     
#    used :        main (  %)        temp (  %)       total (  %)
#  memory :         414 (  0)           0 (  0)         414 (  0)

#------------------------------------------------------------------------------
#newpage:
#   no. =    1   reg = 116 - 216

x: Energy [MeV/n]
y:  F-Curr [1/cm^2/(MeV/n)/source]         
p: xlog ylog afac(0.8) form(0.9)
h: n            x            y(neutron ),hh0l   n 
#  e-lower      e-upper      neutron     r.err 
   1.0000E-02   1.0243E-02   1.9810E-04  0.0644
   1.0243E-02   1.0493E-02   2.2469E-04  0.0598
   1.0493E-02   1.0748E-02   1.8645E-04  0.0648
   1.0748E-02   1.1009E-02   2.1568E-04  0.0595
   1.1009E-02   1.1277E-02   2.0383E-04  0.0605
   1.1277E-02   1.1552E-02   2.0264E-04  0.0600
   1.1552E-02   1.1833E-02   1.9498E-04  0.0604
   1.1833E-02   1.2121E-02   2.2300E-04  0.0558
   1.2121E-02   1.2415E-02   2.1973E-04  0.0556
   1.2415E-02   1.2718E-02   2.0988E-04  0.0562
   1.2718E-02   1.3027E-02   1.9261E-04  0.0579
   1.3027E-02   1.3344E-02   2.1706E-04  0.0539
   1.3344E-02   1.3669E-02   1.8973E-04  0.0570
   1.3669E-02   1.4001E-02   2.1770E-04  0.0526
   1.4001E-02   1.4342E-02   2.0842E-04  0.0531
   1.4342E-02   1.4691E-02   2.4359E-04  0.0485
   1.4691E-02   1.5048E-02   2.1654E-04  0.0508
   1.5048E-02   1.5414E-02   2.1959E-04  0.0499
   1.5414E-02   1.5789E-02   1.9944E-04  0.0517
   1.5789E-02   1.6174E-02   2.2230E-04  0.0484
   1.6174E-02   1.6567E-02   2.2210E-04  0.0478
   1.6567E-02   1.6970E-02   2.1583E-04  0.0479
   1.6970E-02   1.7383E-02   2.0053E-04  0.0491
   1.7383E-02   1.7806E-02   2.0003E-04  0.0486
   1.7806E-02   1.8239E-02   2.3729E-04  0.0441
   1.8239E-02   1.8683E-02   2.0912E-04  0.0464
   1.8683E-02   1.9138E-02   2.1955E-04  0.0448
   1.9138E-02   1.9603E-02   2.3022E-04  0.0432
   1.9603E-02   2.0080E-02   2.1134E-04  0.0445
   2.0080E-02   2.0569E-02   2.2228E-04  0.0429
   2.0569E-02   2.1069E-02   2.0302E-04  0.0444
   2.1069E-02   2.1582E-02   2.3136E-04  0.0411
   2.1582E-02   2.2107E-02   2.3538E-04  0.0402
   2.2107E-02   2.2645E-02   2.2310E-04  0.0408
   2.2645E-02   2.3196E-02   2.1961E-04  0.0407
   2.3196E-02   2.3760E-02   2.2645E-04  0.0396
   2.3760E-02   2.4338E-02   2.3525E-04  0.0383
   2.4338E-02   2.4930E-02   2.2730E-04  0.0385
   2.4930E-02   2.5537E-02   2.2652E-04  0.0382
   2.5537E-02   2.6158E-02   2.3820E-04  0.0368
   2.6158E-02   2.6795E-02   2.3160E-04  0.0368
   2.6795E-02   2.7447E-02   2.3867E-04  0.0359
   2.7447E-02   2.8114E-02   2.3450E-04  0.0357
   2.8114E-02   2.8799E-02   2.3244E-04  0.0355
   2.8799E-02   2.9499E-02   2.2692E-04  0.0355
   2.9499E-02   3.0217E-02   2.5107E-04  0.0333
   3.0217E-02   3.0952E-02   2.4293E-04  0.0335
   3.0952E-02   3.1705E-02   2.3716E-04  0.0335
   3.1705E-02   3.2477E-02   2.3619E-04  0.0331
   3.2477E-02   3.3267E-02   2.4475E-04  0.0322
   3.3267E-02   3.4076E-02   2.4116E-04  0.0320
   3.4076E-02   3.4905E-02   2.5642E-04  0.0307
   3.4905E-02   3.5755E-02   2.2890E-04  0.0321
   3.5755E-02   3.6625E-02   2.4232E-04  0.0308
   3.6625E-02   3.7516E-02   2.4890E-04  0.0300
   3.7516E-02   3.8428E-02   2.5088E-04  0.0296
   3.8428E-02   3.9363E-02   2.5198E-04  0.0291
   3.9363E-02   4.0321E-02   2.4328E-04  0.0293
   4.0321E-02   4.1302E-02   2.5666E-04  0.0282
   4.1302E-02   4.2307E-02   2.4301E-04  0.0286
   4.2307E-02   4.3337E-02   2.4831E-04  0.0280
   4.3337E-02   4.4391E-02   2.4260E-04  0.0280
   4.4391E-02   4.5471E-02   2.3480E-04  0.0281
   4.5471E-02   4.6577E-02   2.4947E-04  0.0269
   4.6577E-02   4.7711E-02   2.5413E-04  0.0264
   4.7711E-02   4.8871E-02   2.4637E-04  0.0264
   4.8871E-02   5.0061E-02   2.6003E-04  0.0254
   5.0061E-02   5.1279E-02   2.4680E-04  0.0258
   5.1279E-02   5.2526E-02   2.3917E-04  0.0259
   5.2526E-02   5.3804E-02   2.5962E-04  0.0246
   5.3804E-02   5.5113E-02   2.6843E-04  0.0239
   5.5113E-02   5.6454E-02   2.6459E-04  0.0237
   5.6454E-02   5.7828E-02   2.5932E-04  0.0237
   5.7828E-02   5.9235E-02   2.5245E-04  0.0237
   5.9235E-02   6.0676E-02   2.6935E-04  0.0227
   6.0676E-02   6.2152E-02   2.6566E-04  0.0226
   6.2152E-02   6.3665E-02   2.6636E-04  0.0223
   6.3665E-02   6.5214E-02   2.6288E-04  0.0222
   6.5214E-02   6.6800E-02   2.6294E-04  0.0219
   6.6800E-02   6.8426E-02   2.7453E-04  0.0212
   6.8426E-02   7.0090E-02   2.6309E-04  0.0214
   7.0090E-02   7.1796E-02   2.6329E-04  0.0211
   7.1796E-02   7.3543E-02   2.7203E-04  0.0205
   7.3543E-02   7.5332E-02   2.8200E-04  0.0199
   7.5332E-02   7.7165E-02   2.7738E-04  0.0198
   7.7165E-02   7.9042E-02   2.8038E-04  0.0195
   7.9042E-02   8.0965E-02   2.6987E-04  0.0196
   8.0965E-02   8.2935E-02   2.7706E-04  0.0191
   8.2935E-02   8.4953E-02   2.7236E-04  0.0191
   8.4953E-02   8.7020E-02   2.8099E-04  0.0186
   8.7020E-02   8.9138E-02   2.7762E-04  0.0184
   8.9138E-02   9.1306E-02   2.7831E-04  0.0182
   9.1306E-02   9.3528E-02   2.8836E-04  0.0177
   9.3528E-02   9.5804E-02   2.8854E-04  0.0175
   9.5804E-02   9.8134E-02   2.8778E-04  0.0173
   9.8134E-02   1.0052E-01   2.9032E-04  0.0170
   1.0052E-01   1.0297E-01   2.8482E-04  0.0169
   1.0297E-01   1.0547E-01   2.9657E-04  0.0164
   1.0547E-01   1.0804E-01   2.8797E-04  0.0165
   1.0804E-01   1.1067E-01   2.9741E-04  0.0160
   1.1067E-01   1.1336E-01   2.9050E-04  0.0160
   1.1336E-01   1.1612E-01   3.0346E-04  0.0155
   1.1612E-01   1.1894E-01   2.9802E-04  0.0154
   1.1894E-01   1.2184E-01   3.0511E-04  0.0151
   1.2184E-01   1.2480E-01   3.0508E-04  0.0149
   1.2480E-01   1.2784E-01   3.0607E-04  0.0147
   1.2784E-01   1.3095E-01   3.0079E-04  0.0146
   1.3095E-01   1.3414E-01   3.0281E-04  0.0144
   1.3414E-01   1.3740E-01   3.0543E-04  0.0142
   1.3740E-01   1.4074E-01   3.0765E-04  0.0139
   1.4074E-01   1.4417E-01   3.1597E-04  0.0136
   1.4417E-01   1.4767E-01   3.1334E-04  0.0135
   1.4767E-01   1.5127E-01   3.2329E-04  0.0131
   1.5127E-01   1.5495E-01   3.1420E-04  0.0132
   1.5495E-01   1.5872E-01   3.1788E-04  0.0129
   1.5872E-01   1.6258E-01   3.1639E-04  0.0128
   1.6258E-01   1.6654E-01   3.2126E-04  0.0125
   1.6654E-01   1.7059E-01   3.1866E-04  0.0124
   1.7059E-01   1.7474E-01   3.3572E-04  0.0120
   1.7474E-01   1.7899E-01   3.2849E-04  0.0120
   1.7899E-01   1.8334E-01   3.2864E-04  0.0118
   1.8334E-01   1.8781E-01   3.3661E-04  0.0115
   1.8781E-01   1.9237E-01   3.2693E-04  0.0116
   1.9237E-01   1.9706E-01   3.3722E-04  0.0113
   1.9706E-01   2.0185E-01   3.3447E-04  0.0112
   2.0185E-01   2.0676E-01   3.4362E-04  0.0109
   2.0676E-01   2.1179E-01   3.4441E-04  0.0107
   2.1179E-01   2.1694E-01   3.5245E-04  0.0105
   2.1694E-01   2.2222E-01   3.4461E-04  0.0105
   2.2222E-01   2.2763E-01   3.4571E-04  0.0103
   2.2763E-01   2.3317E-01   3.4183E-04  0.0103
   2.3317E-01   2.3884E-01   3.5726E-04  0.0099
   2.3884E-01   2.4465E-01   3.5160E-04  0.0099
   2.4465E-01   2.5061E-01   3.5376E-04  0.0097
   2.5061E-01   2.5670E-01   3.6373E-04  0.0095
   2.5670E-01   2.6295E-01   3.6508E-04  0.0094
   2.6295E-01   2.6935E-01   3.5855E-04  0.0093
   2.6935E-01   2.7590E-01   3.5856E-04  0.0092
   2.7590E-01   2.8261E-01   3.6518E-04  0.0090
   2.8261E-01   2.8949E-01   3.6706E-04  0.0089
   2.8949E-01   2.9653E-01   3.6933E-04  0.0088
   2.9653E-01   3.0375E-01   3.6741E-04  0.0087
   3.0375E-01   3.1114E-01   3.7327E-04  0.0085
   3.1114E-01   3.1871E-01   3.8139E-04  0.0083
   3.1871E-01   3.2646E-01   3.7665E-04  0.0083
   3.2646E-01   3.3441E-01   3.8282E-04  0.0081
   3.3441E-01   3.4254E-01   3.7902E-04  0.0081
   3.4254E-01   3.5088E-01   3.8069E-04  0.0079
   3.5088E-01   3.5941E-01   3.7676E-04  0.0079
   3.5941E-01   3.6816E-01   3.9070E-04  0.0077
   3.6816E-01   3.7712E-01   3.8687E-04  0.0076
   3.7712E-01   3.8629E-01   3.8963E-04  0.0075
   3.8629E-01   3.9569E-01   3.9165E-04  0.0074
   3.9569E-01   4.0532E-01   3.9140E-04  0.0073
   4.0532E-01   4.1518E-01   3.8993E-04  0.0072
   4.1518E-01   4.2528E-01   3.9600E-04  0.0071
   4.2528E-01   4.3563E-01   3.9739E-04  0.0070
   4.3563E-01   4.4623E-01   3.9986E-04  0.0069
   4.4623E-01   4.5708E-01   4.0310E-04  0.0068
   4.5708E-01   4.6821E-01   4.0411E-04  0.0067
   4.6821E-01   4.7960E-01   4.0494E-04  0.0066
   4.7960E-01   4.9127E-01   4.0835E-04  0.0065
   4.9127E-01   5.0322E-01   4.0854E-04  0.0064
   5.0322E-01   5.1546E-01   4.0743E-04  0.0063
   5.1546E-01   5.2800E-01   4.1175E-04  0.0062
   5.2800E-01   5.4085E-01   4.1570E-04  0.0061
   5.4085E-01   5.5401E-01   4.1197E-04  0.0061
   5.5401E-01   5.6749E-01   4.1328E-04  0.0060
   5.6749E-01   5.8130E-01   4.1196E-04  0.0059
   5.8130E-01   5.9544E-01   4.1711E-04  0.0058
   5.9544E-01   6.0993E-01   4.1650E-04  0.0058
   6.0993E-01   6.2477E-01   4.1763E-04  0.0057
   6.2477E-01   6.3997E-01   4.2184E-04  0.0056
   6.3997E-01   6.5554E-01   4.1846E-04  0.0055
   6.5554E-01   6.7149E-01   4.1921E-04  0.0055
   6.7149E-01   6.8783E-01   4.2176E-04  0.0054
   6.8783E-01   7.0456E-01   4.1961E-04  0.0053
   7.0456E-01   7.2171E-01   4.1431E-04  0.0053
   7.2171E-01   7.3927E-01   4.2131E-04  0.0052
   7.3927E-01   7.5725E-01   4.1767E-04  0.0052
   7.5725E-01   7.7568E-01   4.1691E-04  0.0051
   7.7568E-01   7.9455E-01   4.1738E-04  0.0050
   7.9455E-01   8.1388E-01   4.1530E-04  0.0050
   8.1388E-01   8.3368E-01   4.1476E-04  0.0049
   8.3368E-01   8.5397E-01   4.1225E-04  0.0049
   8.5397E-01   8.7475E-01   4.0971E-04  0.0048
   8.7475E-01   8.9603E-01   4.0472E-04  0.0048
   8.9603E-01   9.1783E-01   4.0269E-04  0.0048
   9.1783E-01   9.4016E-01   3.9458E-04  0.0048
   9.4016E-01   9.6304E-01   3.8555E-04  0.0048
   9.6304E-01   9.8647E-01   3.7600E-04  0.0048
   9.8647E-01   1.0105E+00   3.5873E-04  0.0048
   1.0105E+00   1.0351E+00   3.5725E-04  0.0048
   1.0351E+00   1.0602E+00   3.5431E-04  0.0047
   1.0602E+00   1.0860E+00   3.5935E-04  0.0046
   1.0860E+00   1.1125E+00   3.5939E-04  0.0046
   1.1125E+00   1.1395E+00   3.5996E-04  0.0045
   1.1395E+00   1.1673E+00   3.5993E-04  0.0045
   1.1673E+00   1.1957E+00   3.6400E-04  0.0044
   1.1957E+00   1.2247E+00   3.7171E-04  0.0043
   1.2247E+00   1.2545E+00   3.6690E-04  0.0043
   1.2545E+00   1.2851E+00   3.6742E-04  0.0042
   1.2851E+00   1.3163E+00   3.6541E-04  0.0042
   1.3163E+00   1.3484E+00   3.6496E-04  0.0041
   1.3484E+00   1.3812E+00   3.7103E-04  0.0041
   1.3812E+00   1.4148E+00   3.7178E-04  0.0040
   1.4148E+00   1.4492E+00   3.6973E-04  0.0040
   1.4492E+00   1.4845E+00   3.6911E-04  0.0039
   1.4845E+00   1.5206E+00   3.6292E-04  0.0039
   1.5206E+00   1.5576E+00   3.6578E-04  0.0038
   1.5576E+00   1.5955E+00   3.6362E-04  0.0038
   1.5955E+00   1.6343E+00   3.6330E-04  0.0038
   1.6343E+00   1.6741E+00   3.6268E-04  0.0037
   1.6741E+00   1.7148E+00   3.6442E-04  0.0037
   1.7148E+00   1.7565E+00   3.6236E-04  0.0036
   1.7565E+00   1.7992E+00   3.5714E-04  0.0036
   1.7992E+00   1.8430E+00   3.5592E-04  0.0036
   1.8430E+00   1.8879E+00   3.5133E-04  0.0036
   1.8879E+00   1.9338E+00   3.4625E-04  0.0035
   1.9338E+00   1.9808E+00   3.4350E-04  0.0035
   1.9808E+00   2.0290E+00   3.4403E-04  0.0035
   2.0290E+00   2.0784E+00   3.3769E-04  0.0035
   2.0784E+00   2.1290E+00   3.3307E-04  0.0034
   2.1290E+00   2.1808E+00   3.2830E-04  0.0034
   2.1808E+00   2.2338E+00   3.2331E-04  0.0034
   2.2338E+00   2.2882E+00   3.1746E-04  0.0034
   2.2882E+00   2.3439E+00   3.1118E-04  0.0034
   2.3439E+00   2.4009E+00   3.0753E-04  0.0034
   2.4009E+00   2.4593E+00   3.0204E-04  0.0034
   2.4593E+00   2.5191E+00   2.9577E-04  0.0034
   2.5191E+00   2.5804E+00   2.8888E-04  0.0034
   2.5804E+00   2.6432E+00   2.8019E-04  0.0034
   2.6432E+00   2.7075E+00   2.7380E-04  0.0034
   2.7075E+00   2.7734E+00   2.6761E-04  0.0034
   2.7734E+00   2.8409E+00   2.5915E-04  0.0034
   2.8409E+00   2.9100E+00   2.5318E-04  0.0034
   2.9100E+00   2.9808E+00   2.4496E-04  0.0034
   2.9808E+00   3.0533E+00   2.3831E-04  0.0034
   3.0533E+00   3.1276E+00   2.3008E-04  0.0034
   3.1276E+00   3.2037E+00   2.2215E-04  0.0034
   3.2037E+00   3.2817E+00   2.1436E-04  0.0035
   3.2817E+00   3.3615E+00   2.0632E-04  0.0035
   3.3615E+00   3.4433E+00   1.9705E-04  0.0035
   3.4433E+00   3.5271E+00   1.9049E-04  0.0035
   3.5271E+00   3.6129E+00   1.8170E-04  0.0036
   3.6129E+00   3.7008E+00   1.7646E-04  0.0036
   3.7008E+00   3.7908E+00   1.6727E-04  0.0036
   3.7908E+00   3.8831E+00   1.5903E-04  0.0037
   3.8831E+00   3.9776E+00   1.5143E-04  0.0037
   3.9776E+00   4.0743E+00   1.4638E-04  0.0038
   4.0743E+00   4.1735E+00   1.3690E-04  0.0038
   4.1735E+00   4.2750E+00   1.3233E-04  0.0039
   4.2750E+00   4.3790E+00   1.2386E-04  0.0039
   4.3790E+00   4.4856E+00   1.1700E-04  0.0040
   4.4856E+00   4.5947E+00   1.1031E-04  0.0041
   4.5947E+00   4.7065E+00   1.0473E-04  0.0041
   4.7065E+00   4.8210E+00   9.7861E-05  0.0042
   4.8210E+00   4.9383E+00   9.2447E-05  0.0043
   4.9383E+00   5.0585E+00   8.7087E-05  0.0044
   5.0585E+00   5.1815E+00   8.1480E-05  0.0045
   5.1815E+00   5.3076E+00   7.7249E-05  0.0045
   5.3076E+00   5.4368E+00   7.2277E-05  0.0046
   5.4368E+00   5.5690E+00   6.7154E-05  0.0047
   5.5690E+00   5.7045E+00   6.2969E-05  0.0048
   5.7045E+00   5.8433E+00   5.8623E-05  0.0050
   5.8433E+00   5.9855E+00   5.4325E-05  0.0051
   5.9855E+00   6.1311E+00   5.0812E-05  0.0052
   6.1311E+00   6.2803E+00   4.7671E-05  0.0053
   6.2803E+00   6.4331E+00   4.4563E-05  0.0054
   6.4331E+00   6.5896E+00   4.1000E-05  0.0056
   6.5896E+00   6.7500E+00   3.8834E-05  0.0057
   6.7500E+00   6.9142E+00   3.5716E-05  0.0058
   6.9142E+00   7.0824E+00   3.2762E-05  0.0060
   7.0824E+00   7.2548E+00   3.0642E-05  0.0062
   7.2548E+00   7.4313E+00   2.8341E-05  0.0063
   7.4313E+00   7.6121E+00   2.6617E-05  0.0064
   7.6121E+00   7.7973E+00   2.4782E-05  0.0066
   7.7973E+00   7.9870E+00   2.3165E-05  0.0067
   7.9870E+00   8.1813E+00   2.1150E-05  0.0070
   8.1813E+00   8.3804E+00   1.9921E-05  0.0071
   8.3804E+00   8.5843E+00   1.8561E-05  0.0073
   8.5843E+00   8.7931E+00   1.7137E-05  0.0075
   8.7931E+00   9.0071E+00   1.6037E-05  0.0076
   9.0071E+00   9.2262E+00   1.5013E-05  0.0078
   9.2262E+00   9.4507E+00   1.3913E-05  0.0080
   9.4507E+00   9.6807E+00   1.2998E-05  0.0082
   9.6807E+00   9.9162E+00   1.2169E-05  0.0084
   9.9162E+00   1.0157E+01   1.1292E-05  0.0086
   1.0157E+01   1.0405E+01   1.0526E-05  0.0088
   1.0405E+01   1.0658E+01   1.0065E-05  0.0089
   1.0658E+01   1.0917E+01   9.2560E-06  0.0091
   1.0917E+01   1.1183E+01   8.7053E-06  0.0093
   1.1183E+01   1.1455E+01   8.1831E-06  0.0095
   1.1455E+01   1.1733E+01   7.7136E-06  0.0096
   1.1733E+01   1.2019E+01   7.2035E-06  0.0099
   1.2019E+01   1.2311E+01   6.8669E-06  0.0100
   1.2311E+01   1.2611E+01   6.4962E-06  0.0101
   1.2611E+01   1.2918E+01   6.1655E-06  0.0103
   1.2918E+01   1.3232E+01   5.8050E-06  0.0105
   1.3232E+01   1.3554E+01   5.4795E-06  0.0106
   1.3554E+01   1.3884E+01   5.1889E-06  0.0108
   1.3884E+01   1.4222E+01   4.7510E-06  0.0112
   1.4222E+01   1.4568E+01   4.6604E-06  0.0111
   1.4568E+01   1.4922E+01   4.4775E-06  0.0112
   1.4922E+01   1.5285E+01   4.1885E-06  0.0115
   1.5285E+01   1.5657E+01   3.9562E-06  0.0117
   1.5657E+01   1.6038E+01   3.7126E-06  0.0119
   1.6038E+01   1.6428E+01   3.5452E-06  0.0120
   1.6428E+01   1.6828E+01   3.3559E-06  0.0122
   1.6828E+01   1.7237E+01   3.2108E-06  0.0123
   1.7237E+01   1.7657E+01   3.0346E-06  0.0125
   1.7657E+01   1.8086E+01   2.8659E-06  0.0127
   1.8086E+01   1.8526E+01   2.6965E-06  0.0130
   1.8526E+01   1.8977E+01   2.5259E-06  0.0133
   1.8977E+01   1.9439E+01   2.3919E-06  0.0135
   1.9439E+01   1.9912E+01   2.2619E-06  0.0137
   1.9912E+01   2.0396E+01   2.1463E-06  0.0139
   2.0396E+01   2.0893E+01   1.9655E-06  0.0143
   2.0893E+01   2.1401E+01   1.8669E-06  0.0145
   2.1401E+01   2.1922E+01   1.7154E-06  0.0150
   2.1922E+01   2.2455E+01   1.6229E-06  0.0152
   2.2455E+01   2.3001E+01   1.5239E-06  0.0155
   2.3001E+01   2.3561E+01   1.3959E-06  0.0160
   2.3561E+01   2.4134E+01   1.3076E-06  0.0163
   2.4134E+01   2.4721E+01   1.1999E-06  0.0168
   2.4721E+01   2.5323E+01   1.0969E-06  0.0174
   2.5323E+01   2.5939E+01   1.0066E-06  0.0180
   2.5939E+01   2.6570E+01   9.1267E-07  0.0186
   2.6570E+01   2.7217E+01   8.7614E-07  0.0188
   2.7217E+01   2.7879E+01   8.2301E-07  0.0192
   2.7879E+01   2.8557E+01   7.2533E-07  0.0202
   2.8557E+01   2.9252E+01   6.5312E-07  0.0210
   2.9252E+01   2.9964E+01   6.0360E-07  0.0216
   2.9964E+01   3.0693E+01   5.4181E-07  0.0225
   3.0693E+01   3.1440E+01   4.8261E-07  0.0236
   3.1440E+01   3.2205E+01   4.4134E-07  0.0243
   3.2205E+01   3.2988E+01   3.9614E-07  0.0254
   3.2988E+01   3.3791E+01   3.5608E-07  0.0265
   3.3791E+01   3.4613E+01   3.3424E-07  0.0270
   3.4613E+01   3.5455E+01   2.8593E-07  0.0288
   3.5455E+01   3.6318E+01   2.5503E-07  0.0302
   3.6318E+01   3.7201E+01   2.3290E-07  0.0312
   3.7201E+01   3.8106E+01   2.0373E-07  0.0329
   3.8106E+01   3.9034E+01   1.7257E-07  0.0354
   3.9034E+01   3.9983E+01   1.4910E-07  0.0376
   3.9983E+01   4.0956E+01   1.3507E-07  0.0390
   4.0956E+01   4.1953E+01   1.1781E-07  0.0413
   4.1953E+01   4.2973E+01   9.9144E-08  0.0445
   4.2973E+01   4.4019E+01   9.2007E-08  0.0456
   4.4019E+01   4.5090E+01   8.5340E-08  0.0468
   4.5090E+01   4.6187E+01   7.2921E-08  0.0500
   4.6187E+01   4.7311E+01   6.0689E-08  0.0542
   4.7311E+01   4.8462E+01   5.7162E-08  0.0551
   4.8462E+01   4.9641E+01   5.1055E-08  0.0576
   4.9641E+01   5.0849E+01   4.1397E-08  0.0632
   5.0849E+01   5.2086E+01   3.2493E-08  0.0705
   5.2086E+01   5.3353E+01   2.4935E-08  0.0796
   5.3353E+01   5.4651E+01   1.6023E-08  0.0981
   5.4651E+01   5.5981E+01   1.2785E-08  0.1085
   5.5981E+01   5.7343E+01   6.7544E-09  0.1474
   5.7343E+01   5.8738E+01   2.4369E-09  0.2425
   5.8738E+01   6.0168E+01   1.5394E-09  0.3015
   6.0168E+01   6.1632E+01   4.0986E-10  0.5774
   6.1632E+01   6.3131E+01   4.0012E-10  0.5774
   6.3131E+01   6.4667E+01   0.0000E+00  0.0000
   6.4667E+01   6.6240E+01   0.0000E+00  0.0000
   6.6240E+01   6.7852E+01   0.0000E+00  0.0000
   6.7852E+01   6.9503E+01   0.0000E+00  0.0000
   6.9503E+01   7.1194E+01   0.0000E+00  0.0000
   7.1194E+01   7.2926E+01   0.0000E+00  0.0000
   7.2926E+01   7.4701E+01   0.0000E+00  0.0000
   7.4701E+01   7.6518E+01   0.0000E+00  0.0000
   7.6518E+01   7.8380E+01   0.0000E+00  0.0000
   7.8380E+01   8.0287E+01   0.0000E+00  0.0000
   8.0287E+01   8.2240E+01   0.0000E+00  0.0000
   8.2240E+01   8.4241E+01   0.0000E+00  0.0000
   8.4241E+01   8.6291E+01   0.0000E+00  0.0000
   8.6291E+01   8.8391E+01   0.0000E+00  0.0000
   8.8391E+01   9.0541E+01   0.0000E+00  0.0000
   9.0541E+01   9.2744E+01   0.0000E+00  0.0000
   9.2744E+01   9.5001E+01   0.0000E+00  0.0000
   9.5001E+01   9.7312E+01   0.0000E+00  0.0000
   9.7312E+01   9.9680E+01   0.0000E+00  0.0000
   9.9680E+01   1.0211E+02   0.0000E+00  0.0000
   1.0211E+02   1.0459E+02   0.0000E+00  0.0000
   1.0459E+02   1.0713E+02   0.0000E+00  0.0000
   1.0713E+02   1.0974E+02   0.0000E+00  0.0000
   1.0974E+02   1.1241E+02   0.0000E+00  0.0000
   1.1241E+02   1.1515E+02   0.0000E+00  0.0000
   1.1515E+02   1.1795E+02   0.0000E+00  0.0000
   1.1795E+02   1.2082E+02   0.0000E+00  0.0000
   1.2082E+02   1.2376E+02   0.0000E+00  0.0000
   1.2376E+02   1.2677E+02   0.0000E+00  0.0000
   1.2677E+02   1.2985E+02   0.0000E+00  0.0000
   1.2985E+02   1.3301E+02   0.0000E+00  0.0000
   1.3301E+02   1.3625E+02   0.0000E+00  0.0000
   1.3625E+02   1.3956E+02   0.0000E+00  0.0000
   1.3956E+02   1.4296E+02   0.0000E+00  0.0000
   1.4296E+02   1.4644E+02   0.0000E+00  0.0000
   1.4644E+02   1.5000E+02   0.0000E+00  0.0000

#   sum over                 1.0440E-05
'no. =    1   reg = 116 - 216'
msuc: {\huge [t-cross] in region mesh}
msdr: {\it plotted by \ANGEL \version}
msdl: {\it calculated by \PHITS  3.26}
wt: s(0.7)
\vspace{-3}
  region surface crossing
  area  &=&   1.0000E+00 [cm^2]
e:
 
# Information for Restart Calculation
# This calculation was newly started
# istdev =  2 # 1:Batch variance, 2:History variance
# resc2  = 5.00000000000000000E+09 # Total source weight or Total source weight / maxcas
# resc3  = 5.00000000000000000E+09 # Total history number or Total batch number
# maxcas =   500000000 # History / Batch, only used for istdev=1
# bitrseed = 0110100000100010111000001110001111001110100100011111101000111001 # bit data of rseed
