[ T-Cross ]
    title = [t-cross] in region mesh
     mesh =  reg            # mesh type is region-wise
      reg =    1            # number of crossing regions
      non     r-from    r-to       area
      1       115       215        1.000000    
   e-type =    3            # e-mesh is log given by emin, emax and ne
     emin =  1.0000000E-02  # minimum value of e-mesh points
     emax =   150.0000      # maximum value of e-mesh points
#    edel =  2.4039514E-02  # mesh width of e-mesh points
       ne =    400          # number of e-mesh points
#    data = ( e(i), i = 1, ne + 1 )
#           1.00000E-02  1.02433E-02  1.04925E-02  1.07478E-02  1.10093E-02
#           1.12772E-02  1.15516E-02  1.18326E-02  1.21205E-02  1.24154E-02
#           1.27175E-02  1.30269E-02  1.33439E-02  1.36686E-02  1.40011E-02
#           1.43418E-02  1.46907E-02  1.50482E-02  1.54143E-02  1.57894E-02
#           1.61735E-02  1.65670E-02  1.69701E-02  1.73830E-02  1.78060E-02
#           1.82392E-02  1.86830E-02  1.91375E-02  1.96032E-02  2.00801E-02
#           2.05687E-02  2.10692E-02  2.15818E-02  2.21069E-02  2.26448E-02
#           2.31957E-02  2.37601E-02  2.43382E-02  2.49304E-02  2.55369E-02
#           2.61583E-02  2.67947E-02  2.74467E-02  2.81145E-02  2.87985E-02
#           2.94992E-02  3.02169E-02  3.09521E-02  3.17052E-02  3.24766E-02
#           3.32668E-02  3.40762E-02  3.49053E-02  3.57546E-02  3.66246E-02
#           3.75157E-02  3.84284E-02  3.93634E-02  4.03212E-02  4.13022E-02
#           4.23071E-02  4.33365E-02  4.43909E-02  4.54710E-02  4.65773E-02
#           4.77106E-02  4.88714E-02  5.00605E-02  5.12785E-02  5.25262E-02
#           5.38042E-02  5.51133E-02  5.64542E-02  5.78278E-02  5.92348E-02
#           6.06760E-02  6.21523E-02  6.36645E-02  6.52135E-02  6.68002E-02
#           6.84255E-02  7.00904E-02  7.17957E-02  7.35426E-02  7.53319E-02
#           7.71648E-02  7.90423E-02  8.09655E-02  8.29354E-02  8.49533E-02
#           8.70203E-02  8.91376E-02  9.13064E-02  9.35279E-02  9.58035E-02
#           9.81345E-02  1.00522E-01  1.02968E-01  1.05473E-01  1.08040E-01
#           1.10668E-01  1.13361E-01  1.16119E-01  1.18944E-01  1.21838E-01
#           1.24803E-01  1.27839E-01  1.30950E-01  1.34136E-01  1.37399E-01
#           1.40742E-01  1.44167E-01  1.47675E-01  1.51268E-01  1.54948E-01
#           1.58718E-01  1.62580E-01  1.66535E-01  1.70587E-01  1.74738E-01
#           1.78989E-01  1.83344E-01  1.87805E-01  1.92375E-01  1.97055E-01
#           2.01850E-01  2.06761E-01  2.11792E-01  2.16945E-01  2.22223E-01
#           2.27630E-01  2.33169E-01  2.38842E-01  2.44653E-01  2.50605E-01
#           2.56703E-01  2.62949E-01  2.69346E-01  2.75900E-01  2.82613E-01
#           2.89489E-01  2.96532E-01  3.03747E-01  3.11138E-01  3.18708E-01
#           3.26462E-01  3.34405E-01  3.42542E-01  3.50876E-01  3.59413E-01
#           3.68158E-01  3.77116E-01  3.86291E-01  3.95690E-01  4.05317E-01
#           4.15179E-01  4.25281E-01  4.35628E-01  4.46227E-01  4.57084E-01
#           4.68205E-01  4.79597E-01  4.91266E-01  5.03219E-01  5.15463E-01
#           5.28005E-01  5.40851E-01  5.54011E-01  5.67490E-01  5.81298E-01
#           5.95441E-01  6.09929E-01  6.24769E-01  6.39970E-01  6.55541E-01
#           6.71491E-01  6.87828E-01  7.04564E-01  7.21706E-01  7.39266E-01
#           7.57253E-01  7.75678E-01  7.94551E-01  8.13883E-01  8.33685E-01
#           8.53969E-01  8.74747E-01  8.96030E-01  9.17831E-01  9.40163E-01
#           9.63038E-01  9.86469E-01  1.01047E+00  1.03506E+00  1.06024E+00
#           1.08604E+00  1.11246E+00  1.13953E+00  1.16725E+00  1.19565E+00
#           1.22474E+00  1.25454E+00  1.28507E+00  1.31633E+00  1.34836E+00
#           1.38117E+00  1.41477E+00  1.44920E+00  1.48446E+00  1.52057E+00
#           1.55757E+00  1.59547E+00  1.63429E+00  1.67405E+00  1.71478E+00
#           1.75650E+00  1.79924E+00  1.84302E+00  1.88786E+00  1.93379E+00
#           1.98084E+00  2.02904E+00  2.07841E+00  2.12898E+00  2.18078E+00
#           2.23384E+00  2.28819E+00  2.34386E+00  2.40089E+00  2.45930E+00
#           2.51914E+00  2.58043E+00  2.64322E+00  2.70753E+00  2.77341E+00
#           2.84088E+00  2.91001E+00  2.98081E+00  3.05333E+00  3.12762E+00
#           3.20372E+00  3.28167E+00  3.36152E+00  3.44330E+00  3.52708E+00
#           3.61290E+00  3.70080E+00  3.79085E+00  3.88308E+00  3.97756E+00
#           4.07434E+00  4.17347E+00  4.27501E+00  4.37903E+00  4.48557E+00
#           4.59471E+00  4.70650E+00  4.82102E+00  4.93832E+00  5.05847E+00
#           5.18155E+00  5.30762E+00  5.43676E+00  5.56904E+00  5.70453E+00
#           5.84333E+00  5.98550E+00  6.13114E+00  6.28031E+00  6.43312E+00
#           6.58964E+00  6.74997E+00  6.91420E+00  7.08243E+00  7.25475E+00
#           7.43126E+00  7.61207E+00  7.79728E+00  7.98700E+00  8.18133E+00
#           8.38038E+00  8.58428E+00  8.79315E+00  9.00709E+00  9.22624E+00
#           9.45072E+00  9.68067E+00  9.91620E+00  1.01575E+01  1.04046E+01
#           1.06578E+01  1.09171E+01  1.11827E+01  1.14548E+01  1.17335E+01
#           1.20190E+01  1.23114E+01  1.26109E+01  1.29178E+01  1.32321E+01
#           1.35540E+01  1.38838E+01  1.42216E+01  1.45676E+01  1.49221E+01
#           1.52851E+01  1.56570E+01  1.60380E+01  1.64282E+01  1.68279E+01
#           1.72374E+01  1.76568E+01  1.80864E+01  1.85264E+01  1.89772E+01
#           1.94389E+01  1.99119E+01  2.03963E+01  2.08926E+01  2.14009E+01
#           2.19216E+01  2.24550E+01  2.30014E+01  2.35610E+01  2.41343E+01
#           2.47215E+01  2.53230E+01  2.59391E+01  2.65702E+01  2.72167E+01
#           2.78789E+01  2.85572E+01  2.92520E+01  2.99637E+01  3.06928E+01
#           3.14396E+01  3.22045E+01  3.29881E+01  3.37907E+01  3.46128E+01
#           3.54550E+01  3.63177E+01  3.72013E+01  3.81064E+01  3.90336E+01
#           3.99833E+01  4.09561E+01  4.19526E+01  4.29734E+01  4.40189E+01
#           4.50900E+01  4.61870E+01  4.73108E+01  4.84619E+01  4.96410E+01
#           5.08488E+01  5.20860E+01  5.33533E+01  5.46514E+01  5.59812E+01
#           5.73432E+01  5.87384E+01  6.01676E+01  6.16315E+01  6.31311E+01
#           6.46671E+01  6.62405E+01  6.78522E+01  6.95031E+01  7.11941E+01
#           7.29263E+01  7.47007E+01  7.65182E+01  7.83800E+01  8.02870E+01
#           8.22405E+01  8.42414E+01  8.62911E+01  8.83906E+01  9.05412E+01
#           9.27442E+01  9.50007E+01  9.73122E+01  9.96799E+01  1.02105E+02
#           1.04589E+02  1.07134E+02  1.09741E+02  1.12411E+02  1.15146E+02
#           1.17948E+02  1.20817E+02  1.23757E+02  1.26768E+02  1.29852E+02
#           1.33012E+02  1.36248E+02  1.39563E+02  1.42959E+02  1.46437E+02
#           1.50000E+02
     unit =    2            # unit is [1/cm^2/(MeV/n)/source]
     axis =  eng            # axis of output
     file = detector-16.out  # file name of output for the above axis
   output = f-curr          # surface crossing forward current spectrum
     part =  neutron  
# kf/name :  2112     
#    used :        main (  %)        temp (  %)       total (  %)
#  memory :         414 (  0)           0 (  0)         414 (  0)

#------------------------------------------------------------------------------
#newpage:
#   no. =    1   reg = 115 - 215

x: Energy [MeV/n]
y:  F-Curr [1/cm^2/(MeV/n)/source]         
p: xlog ylog afac(0.8) form(0.9)
h: n            x            y(neutron ),hh0l   n 
#  e-lower      e-upper      neutron     r.err 
   1.0000E-02   1.0243E-02   4.5907E-04  0.0545
   1.0243E-02   1.0493E-02   4.0009E-04  0.0578
   1.0493E-02   1.0748E-02   3.9726E-04  0.0571
   1.0748E-02   1.1009E-02   4.3419E-04  0.0541
   1.1009E-02   1.1277E-02   3.9755E-04  0.0557
   1.1277E-02   1.1552E-02   3.6791E-04  0.0573
   1.1552E-02   1.1833E-02   3.6823E-04  0.0566
   1.1833E-02   1.2121E-02   3.5308E-04  0.0571
   1.2121E-02   1.2415E-02   4.0350E-04  0.0528
   1.2415E-02   1.2718E-02   3.4735E-04  0.0562
   1.2718E-02   1.3027E-02   3.5340E-04  0.0551
   1.3027E-02   1.3344E-02   3.6859E-04  0.0532
   1.3344E-02   1.3669E-02   3.5945E-04  0.0533
   1.3669E-02   1.4001E-02   3.5158E-04  0.0533
   1.4001E-02   1.4342E-02   3.2417E-04  0.0548
   1.4342E-02   1.4691E-02   3.3234E-04  0.0535
   1.4691E-02   1.5048E-02   3.3224E-04  0.0529
   1.5048E-02   1.5414E-02   3.0056E-04  0.0549
   1.5414E-02   1.5789E-02   3.2277E-04  0.0523
   1.5789E-02   1.6174E-02   2.8404E-04  0.0550
   1.6174E-02   1.6567E-02   2.8476E-04  0.0545
   1.6567E-02   1.6970E-02   3.0140E-04  0.0523
   1.6970E-02   1.7383E-02   2.7040E-04  0.0545
   1.7383E-02   1.7806E-02   2.8139E-04  0.0527
   1.7806E-02   1.8239E-02   2.6818E-04  0.0535
   1.8239E-02   1.8683E-02   2.6323E-04  0.0533
   1.8683E-02   1.9138E-02   2.8288E-04  0.0508
   1.9138E-02   1.9603E-02   2.5114E-04  0.0533
   1.9603E-02   2.0080E-02   2.4250E-04  0.0536
   2.0080E-02   2.0569E-02   2.4794E-04  0.0523
   2.0569E-02   2.1069E-02   2.2835E-04  0.0539
   2.1069E-02   2.1582E-02   2.3115E-04  0.0529
   2.1582E-02   2.2107E-02   2.4613E-04  0.0506
   2.2107E-02   2.2645E-02   2.3363E-04  0.0513
   2.2645E-02   2.3196E-02   2.4348E-04  0.0498
   2.3196E-02   2.3760E-02   2.6542E-04  0.0471
   2.3760E-02   2.4338E-02   2.2793E-04  0.0502
   2.4338E-02   2.4930E-02   2.1874E-04  0.0506
   2.4930E-02   2.5537E-02   2.3088E-04  0.0486
   2.5537E-02   2.6158E-02   2.0457E-04  0.0511
   2.6158E-02   2.6795E-02   2.0479E-04  0.0505
   2.6795E-02   2.7447E-02   2.1772E-04  0.0484
   2.7447E-02   2.8114E-02   2.0890E-04  0.0488
   2.8114E-02   2.8799E-02   1.9053E-04  0.0505
   2.8799E-02   2.9499E-02   2.2096E-04  0.0463
   2.9499E-02   3.0217E-02   1.9020E-04  0.0494
   3.0217E-02   3.0952E-02   1.8148E-04  0.0499
   3.0952E-02   3.1705E-02   1.9194E-04  0.0479
   3.1705E-02   3.2477E-02   1.9278E-04  0.0473
   3.2477E-02   3.3267E-02   1.9721E-04  0.0462
   3.3267E-02   3.4076E-02   1.7310E-04  0.0487
   3.4076E-02   3.4905E-02   1.7072E-04  0.0485
   3.4905E-02   3.5755E-02   1.7758E-04  0.0469
   3.5755E-02   3.6625E-02   1.8160E-04  0.0459
   3.6625E-02   3.7516E-02   1.8455E-04  0.0450
   3.7516E-02   3.8428E-02   1.7526E-04  0.0456
   3.8428E-02   3.9363E-02   1.8266E-04  0.0441
   3.9363E-02   4.0321E-02   1.5822E-04  0.0469
   4.0321E-02   4.1302E-02   1.5880E-04  0.0462
   4.1302E-02   4.2307E-02   1.3962E-04  0.0486
   4.2307E-02   4.3337E-02   1.4834E-04  0.0466
   4.3337E-02   4.4391E-02   1.5509E-04  0.0451
   4.4391E-02   4.5471E-02   1.4998E-04  0.0453
   4.5471E-02   4.6577E-02   1.3135E-04  0.0478
   4.6577E-02   4.7711E-02   1.4200E-04  0.0454
   4.7711E-02   4.8871E-02   1.3005E-04  0.0469
   4.8871E-02   5.0061E-02   1.3085E-04  0.0462
   5.0061E-02   5.1279E-02   1.3574E-04  0.0448
   5.1279E-02   5.2526E-02   1.3232E-04  0.0449
   5.2526E-02   5.3804E-02   1.3551E-04  0.0438
   5.3804E-02   5.5113E-02   1.3860E-04  0.0428
   5.5113E-02   5.6454E-02   1.1850E-04  0.0457
   5.6454E-02   5.7828E-02   1.2229E-04  0.0445
   5.7828E-02   5.9235E-02   1.2677E-04  0.0432
   5.9235E-02   6.0676E-02   1.2564E-04  0.0428
   6.0676E-02   6.2152E-02   1.1901E-04  0.0435
   6.2152E-02   6.3665E-02   1.1149E-04  0.0444
   6.3665E-02   6.5214E-02   1.1193E-04  0.0438
   6.5214E-02   6.6800E-02   1.0584E-04  0.0445
   6.6800E-02   6.8426E-02   1.1143E-04  0.0428
   6.8426E-02   7.0090E-02   1.1312E-04  0.0420
   7.0090E-02   7.1796E-02   1.1718E-04  0.0408
   7.1796E-02   7.3543E-02   1.0581E-04  0.0424
   7.3543E-02   7.5332E-02   1.0927E-04  0.0412
   7.5332E-02   7.7165E-02   1.0148E-04  0.0423
   7.7165E-02   7.9042E-02   9.9375E-05  0.0422
   7.9042E-02   8.0965E-02   1.0562E-04  0.0405
   8.0965E-02   8.2935E-02   1.0113E-04  0.0408
   8.2935E-02   8.4953E-02   1.0122E-04  0.0404
   8.4953E-02   8.7020E-02   9.5111E-05  0.0411
   8.7020E-02   8.9138E-02   9.6653E-05  0.0403
   8.9138E-02   9.1306E-02   9.6462E-05  0.0399
   9.1306E-02   9.3528E-02   8.9415E-05  0.0409
   9.3528E-02   9.5804E-02   8.8549E-05  0.0406
   9.5804E-02   9.8134E-02   9.0442E-05  0.0397
   9.8134E-02   1.0052E-01   8.6799E-05  0.0400
   1.0052E-01   1.0297E-01   9.1576E-05  0.0385
   1.0297E-01   1.0547E-01   7.7552E-05  0.0414
   1.0547E-01   1.0804E-01   8.3079E-05  0.0395
   1.0804E-01   1.1067E-01   8.0694E-05  0.0396
   1.1067E-01   1.1336E-01   8.1507E-05  0.0389
   1.1336E-01   1.1612E-01   8.0755E-05  0.0386
   1.1612E-01   1.1894E-01   8.1606E-05  0.0380
   1.1894E-01   1.2184E-01   7.9306E-05  0.0381
   1.2184E-01   1.2480E-01   7.9132E-05  0.0377
   1.2480E-01   1.2784E-01   7.7107E-05  0.0377
   1.2784E-01   1.3095E-01   7.4744E-05  0.0378
   1.3095E-01   1.3414E-01   7.6122E-05  0.0370
   1.3414E-01   1.3740E-01   7.5093E-05  0.0368
   1.3740E-01   1.4074E-01   7.6160E-05  0.0361
   1.4074E-01   1.4417E-01   7.0569E-05  0.0371
   1.4417E-01   1.4767E-01   7.0493E-05  0.0367
   1.4767E-01   1.5127E-01   7.0306E-05  0.0363
   1.5127E-01   1.5495E-01   6.8688E-05  0.0362
   1.5495E-01   1.5872E-01   6.9387E-05  0.0356
   1.5872E-01   1.6258E-01   6.6468E-05  0.0360
   1.6258E-01   1.6654E-01   6.0790E-05  0.0372
   1.6654E-01   1.7059E-01   5.9487E-05  0.0371
   1.7059E-01   1.7474E-01   6.3817E-05  0.0354
   1.7474E-01   1.7899E-01   6.1425E-05  0.0357
   1.7899E-01   1.8334E-01   5.7642E-05  0.0364
   1.8334E-01   1.8781E-01   5.7711E-05  0.0359
   1.8781E-01   1.9237E-01   5.6384E-05  0.0359
   1.9237E-01   1.9706E-01   5.1248E-05  0.0372
   1.9706E-01   2.0185E-01   5.0957E-05  0.0369
   2.0185E-01   2.0676E-01   5.2423E-05  0.0359
   2.0676E-01   2.1179E-01   5.7480E-05  0.0339
   2.1179E-01   2.1694E-01   5.4309E-05  0.0344
   2.1694E-01   2.2222E-01   5.5692E-05  0.0336
   2.2222E-01   2.2763E-01   6.0348E-05  0.0319
   2.2763E-01   2.3317E-01   5.7466E-05  0.0323
   2.3317E-01   2.3884E-01   6.4075E-05  0.0302
   2.3884E-01   2.4465E-01   6.4898E-05  0.0297
   2.4465E-01   2.5061E-01   6.7976E-05  0.0287
   2.5061E-01   2.5670E-01   6.9679E-05  0.0280
   2.5670E-01   2.6295E-01   7.2044E-05  0.0272
   2.6295E-01   2.6935E-01   6.9596E-05  0.0273
   2.6935E-01   2.7590E-01   7.6187E-05  0.0258
   2.7590E-01   2.8261E-01   7.6169E-05  0.0255
   2.8261E-01   2.8949E-01   7.4768E-05  0.0254
   2.8949E-01   2.9653E-01   7.9103E-05  0.0244
   2.9653E-01   3.0375E-01   8.1676E-05  0.0237
   3.0375E-01   3.1114E-01   8.6137E-05  0.0228
   3.1114E-01   3.1871E-01   8.8254E-05  0.0223
   3.1871E-01   3.2646E-01   8.8825E-05  0.0220
   3.2646E-01   3.3441E-01   8.8485E-05  0.0217
   3.3441E-01   3.4254E-01   9.3422E-05  0.0209
   3.4254E-01   3.5088E-01   9.2864E-05  0.0207
   3.5088E-01   3.5941E-01   9.4261E-05  0.0203
   3.5941E-01   3.6816E-01   9.3454E-05  0.0201
   3.6816E-01   3.7712E-01   1.0329E-04  0.0189
   3.7712E-01   3.8629E-01   1.0245E-04  0.0188
   3.8629E-01   3.9569E-01   1.0174E-04  0.0186
   3.9569E-01   4.0532E-01   1.0763E-04  0.0179
   4.0532E-01   4.1518E-01   1.0818E-04  0.0176
   4.1518E-01   4.2528E-01   1.0883E-04  0.0174
   4.2528E-01   4.3563E-01   1.1139E-04  0.0170
   4.3563E-01   4.4623E-01   1.1300E-04  0.0166
   4.4623E-01   4.5708E-01   1.1666E-04  0.0162
   4.5708E-01   4.6821E-01   1.1573E-04  0.0161
   4.6821E-01   4.7960E-01   1.2293E-04  0.0154
   4.7960E-01   4.9127E-01   1.2214E-04  0.0153
   4.9127E-01   5.0322E-01   1.2482E-04  0.0149
   5.0322E-01   5.1546E-01   1.2420E-04  0.0148
   5.1546E-01   5.2800E-01   1.2597E-04  0.0145
   5.2800E-01   5.4085E-01   1.2729E-04  0.0142
   5.4085E-01   5.5401E-01   1.2653E-04  0.0141
   5.5401E-01   5.6749E-01   1.3245E-04  0.0136
   5.6749E-01   5.8130E-01   1.3154E-04  0.0135
   5.8130E-01   5.9544E-01   1.3368E-04  0.0132
   5.9544E-01   6.0993E-01   1.3081E-04  0.0132
   6.0993E-01   6.2477E-01   1.3729E-04  0.0128
   6.2477E-01   6.3997E-01   1.3303E-04  0.0128
   6.3997E-01   6.5554E-01   1.3328E-04  0.0126
   6.5554E-01   6.7149E-01   1.3629E-04  0.0124
   6.7149E-01   6.8783E-01   1.3179E-04  0.0124
   6.8783E-01   7.0456E-01   1.3394E-04  0.0122
   7.0456E-01   7.2171E-01   1.3386E-04  0.0120
   7.2171E-01   7.3927E-01   1.3339E-04  0.0119
   7.3927E-01   7.5725E-01   1.3480E-04  0.0117
   7.5725E-01   7.7568E-01   1.3512E-04  0.0115
   7.7568E-01   7.9455E-01   1.3062E-04  0.0116
   7.9455E-01   8.1388E-01   1.3369E-04  0.0113
   8.1388E-01   8.3368E-01   1.3180E-04  0.0113
   8.3368E-01   8.5397E-01   1.3209E-04  0.0111
   8.5397E-01   8.7475E-01   1.2823E-04  0.0111
   8.7475E-01   8.9603E-01   1.2889E-04  0.0110
   8.9603E-01   9.1783E-01   1.2555E-04  0.0110
   9.1783E-01   9.4016E-01   1.2493E-04  0.0109
   9.4016E-01   9.6304E-01   1.2833E-04  0.0106
   9.6304E-01   9.8647E-01   1.2524E-04  0.0106
   9.8647E-01   1.0105E+00   1.2121E-04  0.0107
   1.0105E+00   1.0351E+00   1.1961E-04  0.0106
   1.0351E+00   1.0602E+00   1.1771E-04  0.0106
   1.0602E+00   1.0860E+00   1.1697E-04  0.0105
   1.0860E+00   1.1125E+00   1.1309E-04  0.0105
   1.1125E+00   1.1395E+00   1.1480E-04  0.0103
   1.1395E+00   1.1673E+00   1.1162E-04  0.0103
   1.1673E+00   1.1957E+00   1.1057E-04  0.0103
   1.1957E+00   1.2247E+00   1.0993E-04  0.0102
   1.2247E+00   1.2545E+00   1.0797E-04  0.0101
   1.2545E+00   1.2851E+00   1.0669E-04  0.0101
   1.2851E+00   1.3163E+00   1.0592E-04  0.0100
   1.3163E+00   1.3484E+00   1.0342E-04  0.0100
   1.3484E+00   1.3812E+00   1.0374E-04  0.0099
   1.3812E+00   1.4148E+00   1.0087E-04  0.0099
   1.4148E+00   1.4492E+00   1.0145E-04  0.0097
   1.4492E+00   1.4845E+00   9.9903E-05  0.0097
   1.4845E+00   1.5206E+00   9.8194E-05  0.0097
   1.5206E+00   1.5576E+00   9.7379E-05  0.0096
   1.5576E+00   1.5955E+00   9.6632E-05  0.0095
   1.5955E+00   1.6343E+00   9.5924E-05  0.0094
   1.6343E+00   1.6741E+00   9.2715E-05  0.0095
   1.6741E+00   1.7148E+00   9.3633E-05  0.0093
   1.7148E+00   1.7565E+00   9.2981E-05  0.0092
   1.7565E+00   1.7992E+00   9.1291E-05  0.0092
   1.7992E+00   1.8430E+00   9.0001E-05  0.0092
   1.8430E+00   1.8879E+00   8.8449E-05  0.0091
   1.8879E+00   1.9338E+00   8.7052E-05  0.0091
   1.9338E+00   1.9808E+00   8.7016E-05  0.0090
   1.9808E+00   2.0290E+00   8.6437E-05  0.0089
   2.0290E+00   2.0784E+00   8.6199E-05  0.0088
   2.0784E+00   2.1290E+00   8.6870E-05  0.0087
   2.1290E+00   2.1808E+00   8.5399E-05  0.0086
   2.1808E+00   2.2338E+00   8.4500E-05  0.0086
   2.2338E+00   2.2882E+00   8.2227E-05  0.0086
   2.2882E+00   2.3439E+00   8.3350E-05  0.0084
   2.3439E+00   2.4009E+00   8.2655E-05  0.0084
   2.4009E+00   2.4593E+00   8.2772E-05  0.0083
   2.4593E+00   2.5191E+00   8.2438E-05  0.0082
   2.5191E+00   2.5804E+00   8.1093E-05  0.0082
   2.5804E+00   2.6432E+00   7.9168E-05  0.0082
   2.6432E+00   2.7075E+00   7.8819E-05  0.0081
   2.7075E+00   2.7734E+00   7.8684E-05  0.0080
   2.7734E+00   2.8409E+00   7.7483E-05  0.0080
   2.8409E+00   2.9100E+00   7.6543E-05  0.0079
   2.9100E+00   2.9808E+00   7.4959E-05  0.0079
   2.9808E+00   3.0533E+00   7.4802E-05  0.0078
   3.0533E+00   3.1276E+00   7.4269E-05  0.0077
   3.1276E+00   3.2037E+00   7.2547E-05  0.0077
   3.2037E+00   3.2817E+00   7.2643E-05  0.0076
   3.2817E+00   3.3615E+00   7.0520E-05  0.0077
   3.3615E+00   3.4433E+00   6.8910E-05  0.0077
   3.4433E+00   3.5271E+00   6.7297E-05  0.0077
   3.5271E+00   3.6129E+00   6.5631E-05  0.0077
   3.6129E+00   3.7008E+00   6.2821E-05  0.0077
   3.7008E+00   3.7908E+00   5.9642E-05  0.0079
   3.7908E+00   3.8831E+00   5.5427E-05  0.0081
   3.8831E+00   3.9776E+00   4.8652E-05  0.0085
   3.9776E+00   4.0743E+00   4.2100E-05  0.0090
   4.0743E+00   4.1735E+00   3.6231E-05  0.0096
   4.1735E+00   4.2750E+00   3.1796E-05  0.0101
   4.2750E+00   4.3790E+00   2.9937E-05  0.0103
   4.3790E+00   4.4856E+00   2.8181E-05  0.0105
   4.4856E+00   4.5947E+00   2.7281E-05  0.0105
   4.5947E+00   4.7065E+00   2.6242E-05  0.0106
   4.7065E+00   4.8210E+00   2.5246E-05  0.0107
   4.8210E+00   4.9383E+00   2.4076E-05  0.0108
   4.9383E+00   5.0585E+00   2.3092E-05  0.0109
   5.0585E+00   5.1815E+00   2.2195E-05  0.0110
   5.1815E+00   5.3076E+00   2.0864E-05  0.0112
   5.3076E+00   5.4368E+00   2.0544E-05  0.0112
   5.4368E+00   5.5690E+00   1.9555E-05  0.0113
   5.5690E+00   5.7045E+00   1.8979E-05  0.0113
   5.7045E+00   5.8433E+00   1.8542E-05  0.0113
   5.8433E+00   5.9855E+00   1.7975E-05  0.0114
   5.9855E+00   6.1311E+00   1.7328E-05  0.0115
   6.1311E+00   6.2803E+00   1.7250E-05  0.0113
   6.2803E+00   6.4331E+00   1.6888E-05  0.0113
   6.4331E+00   6.5896E+00   1.6320E-05  0.0114
   6.5896E+00   6.7500E+00   1.5926E-05  0.0114
   6.7500E+00   6.9142E+00   1.5632E-05  0.0114
   6.9142E+00   7.0824E+00   1.5110E-05  0.0114
   7.0824E+00   7.2548E+00   1.4825E-05  0.0114
   7.2548E+00   7.4313E+00   1.4359E-05  0.0114
   7.4313E+00   7.6121E+00   1.3916E-05  0.0115
   7.6121E+00   7.7973E+00   1.4164E-05  0.0113
   7.7973E+00   7.9870E+00   1.3506E-05  0.0114
   7.9870E+00   8.1813E+00   1.3046E-05  0.0115
   8.1813E+00   8.3804E+00   1.2831E-05  0.0114
   8.3804E+00   8.5843E+00   1.2617E-05  0.0114
   8.5843E+00   8.7931E+00   1.2222E-05  0.0114
   8.7931E+00   9.0071E+00   1.2047E-05  0.0114
   9.0071E+00   9.2262E+00   1.1471E-05  0.0115
   9.2262E+00   9.4507E+00   1.1078E-05  0.0116
   9.4507E+00   9.6807E+00   1.0591E-05  0.0117
   9.6807E+00   9.9162E+00   1.0358E-05  0.0117
   9.9162E+00   1.0157E+01   1.0279E-05  0.0116
   1.0157E+01   1.0405E+01   1.0088E-05  0.0116
   1.0405E+01   1.0658E+01   1.0432E-05  0.0112
   1.0658E+01   1.0917E+01   1.0032E-05  0.0113
   1.0917E+01   1.1183E+01   1.0163E-05  0.0111
   1.1183E+01   1.1455E+01   9.8920E-06  0.0111
   1.1455E+01   1.1733E+01   9.4931E-06  0.0112
   1.1733E+01   1.2019E+01   8.9312E-06  0.0114
   1.2019E+01   1.2311E+01   8.3021E-06  0.0117
   1.2311E+01   1.2611E+01   8.0494E-06  0.0117
   1.2611E+01   1.2918E+01   7.2944E-06  0.0122
   1.2918E+01   1.3232E+01   7.1650E-06  0.0122
   1.3232E+01   1.3554E+01   6.6447E-06  0.0125
   1.3554E+01   1.3884E+01   6.2802E-06  0.0127
   1.3884E+01   1.4222E+01   5.9240E-06  0.0129
   1.4222E+01   1.4568E+01   5.7081E-06  0.0130
   1.4568E+01   1.4922E+01   5.1886E-06  0.0135
   1.4922E+01   1.5285E+01   4.6819E-06  0.0140
   1.5285E+01   1.5657E+01   4.2620E-06  0.0145
   1.5657E+01   1.6038E+01   4.1699E-06  0.0145
   1.6038E+01   1.6428E+01   3.7387E-06  0.0151
   1.6428E+01   1.6828E+01   3.4605E-06  0.0155
   1.6828E+01   1.7237E+01   3.3668E-06  0.0155
   1.7237E+01   1.7657E+01   3.0012E-06  0.0163
   1.7657E+01   1.8086E+01   2.7249E-06  0.0169
   1.8086E+01   1.8526E+01   2.3585E-06  0.0179
   1.8526E+01   1.8977E+01   2.4457E-06  0.0174
   1.8977E+01   1.9439E+01   2.4981E-06  0.0170
   1.9439E+01   1.9912E+01   2.0358E-06  0.0186
   1.9912E+01   2.0396E+01   1.6630E-06  0.0203
   2.0396E+01   2.0893E+01   1.2137E-06  0.0235
   2.0893E+01   2.1401E+01   5.1541E-07  0.0357
   2.1401E+01   2.1922E+01   4.6732E-08  0.1170
   2.1922E+01   2.2455E+01   1.8124E-08  0.1857
   2.2455E+01   2.3001E+01   8.5416E-09  0.2673
   2.3001E+01   2.3561E+01   1.7869E-09  0.5774
   2.3561E+01   2.4134E+01   0.0000E+00  0.0000
   2.4134E+01   2.4721E+01   0.0000E+00  0.0000
   2.4721E+01   2.5323E+01   0.0000E+00  0.0000
   2.5323E+01   2.5939E+01   0.0000E+00  0.0000
   2.5939E+01   2.6570E+01   0.0000E+00  0.0000
   2.6570E+01   2.7217E+01   0.0000E+00  0.0000
   2.7217E+01   2.7879E+01   0.0000E+00  0.0000
   2.7879E+01   2.8557E+01   0.0000E+00  0.0000
   2.8557E+01   2.9252E+01   0.0000E+00  0.0000
   2.9252E+01   2.9964E+01   0.0000E+00  0.0000
   2.9964E+01   3.0693E+01   0.0000E+00  0.0000
   3.0693E+01   3.1440E+01   0.0000E+00  0.0000
   3.1440E+01   3.2205E+01   0.0000E+00  0.0000
   3.2205E+01   3.2988E+01   0.0000E+00  0.0000
   3.2988E+01   3.3791E+01   0.0000E+00  0.0000
   3.3791E+01   3.4613E+01   0.0000E+00  0.0000
   3.4613E+01   3.5455E+01   0.0000E+00  0.0000
   3.5455E+01   3.6318E+01   0.0000E+00  0.0000
   3.6318E+01   3.7201E+01   0.0000E+00  0.0000
   3.7201E+01   3.8106E+01   0.0000E+00  0.0000
   3.8106E+01   3.9034E+01   0.0000E+00  0.0000
   3.9034E+01   3.9983E+01   0.0000E+00  0.0000
   3.9983E+01   4.0956E+01   0.0000E+00  0.0000
   4.0956E+01   4.1953E+01   0.0000E+00  0.0000
   4.1953E+01   4.2973E+01   0.0000E+00  0.0000
   4.2973E+01   4.4019E+01   0.0000E+00  0.0000
   4.4019E+01   4.5090E+01   0.0000E+00  0.0000
   4.5090E+01   4.6187E+01   0.0000E+00  0.0000
   4.6187E+01   4.7311E+01   0.0000E+00  0.0000
   4.7311E+01   4.8462E+01   0.0000E+00  0.0000
   4.8462E+01   4.9641E+01   0.0000E+00  0.0000
   4.9641E+01   5.0849E+01   0.0000E+00  0.0000
   5.0849E+01   5.2086E+01   0.0000E+00  0.0000
   5.2086E+01   5.3353E+01   0.0000E+00  0.0000
   5.3353E+01   5.4651E+01   0.0000E+00  0.0000
   5.4651E+01   5.5981E+01   0.0000E+00  0.0000
   5.5981E+01   5.7343E+01   0.0000E+00  0.0000
   5.7343E+01   5.8738E+01   0.0000E+00  0.0000
   5.8738E+01   6.0168E+01   0.0000E+00  0.0000
   6.0168E+01   6.1632E+01   0.0000E+00  0.0000
   6.1632E+01   6.3131E+01   0.0000E+00  0.0000
   6.3131E+01   6.4667E+01   0.0000E+00  0.0000
   6.4667E+01   6.6240E+01   0.0000E+00  0.0000
   6.6240E+01   6.7852E+01   0.0000E+00  0.0000
   6.7852E+01   6.9503E+01   0.0000E+00  0.0000
   6.9503E+01   7.1194E+01   0.0000E+00  0.0000
   7.1194E+01   7.2926E+01   0.0000E+00  0.0000
   7.2926E+01   7.4701E+01   0.0000E+00  0.0000
   7.4701E+01   7.6518E+01   0.0000E+00  0.0000
   7.6518E+01   7.8380E+01   0.0000E+00  0.0000
   7.8380E+01   8.0287E+01   0.0000E+00  0.0000
   8.0287E+01   8.2240E+01   0.0000E+00  0.0000
   8.2240E+01   8.4241E+01   0.0000E+00  0.0000
   8.4241E+01   8.6291E+01   0.0000E+00  0.0000
   8.6291E+01   8.8391E+01   0.0000E+00  0.0000
   8.8391E+01   9.0541E+01   0.0000E+00  0.0000
   9.0541E+01   9.2744E+01   0.0000E+00  0.0000
   9.2744E+01   9.5001E+01   0.0000E+00  0.0000
   9.5001E+01   9.7312E+01   0.0000E+00  0.0000
   9.7312E+01   9.9680E+01   0.0000E+00  0.0000
   9.9680E+01   1.0211E+02   0.0000E+00  0.0000
   1.0211E+02   1.0459E+02   0.0000E+00  0.0000
   1.0459E+02   1.0713E+02   0.0000E+00  0.0000
   1.0713E+02   1.0974E+02   0.0000E+00  0.0000
   1.0974E+02   1.1241E+02   0.0000E+00  0.0000
   1.1241E+02   1.1515E+02   0.0000E+00  0.0000
   1.1515E+02   1.1795E+02   0.0000E+00  0.0000
   1.1795E+02   1.2082E+02   0.0000E+00  0.0000
   1.2082E+02   1.2376E+02   0.0000E+00  0.0000
   1.2376E+02   1.2677E+02   0.0000E+00  0.0000
   1.2677E+02   1.2985E+02   0.0000E+00  0.0000
   1.2985E+02   1.3301E+02   0.0000E+00  0.0000
   1.3301E+02   1.3625E+02   0.0000E+00  0.0000
   1.3625E+02   1.3956E+02   0.0000E+00  0.0000
   1.3956E+02   1.4296E+02   0.0000E+00  0.0000
   1.4296E+02   1.4644E+02   0.0000E+00  0.0000
   1.4644E+02   1.5000E+02   0.0000E+00  0.0000

#   sum over                 3.4648E-06
'no. =    1   reg = 115 - 215'
msuc: {\huge [t-cross] in region mesh}
msdr: {\it plotted by \ANGEL \version}
msdl: {\it calculated by \PHITS  3.26}
wt: s(0.7)
\vspace{-3}
  region surface crossing
  area  &=&   1.0000E+00 [cm^2]
e:
 
# Information for Restart Calculation
# This calculation was newly started
# istdev =  2 # 1:Batch variance, 2:History variance
# resc2  = 3.00000000000000000E+09 # Total source weight or Total source weight / maxcas
# resc3  = 3.00000000000000000E+09 # Total history number or Total batch number
# maxcas =   500000000 # History / Batch, only used for istdev=1
# bitrseed = 0110110011111001100110101011100000010010001000001101100100111101 # bit data of rseed
