[ T-Cross ]
    title = [t-cross] in region mesh
     mesh =  reg            # mesh type is region-wise
      reg =    1            # number of crossing regions
      non     r-from    r-to       area
      1       120       220        1.000000    
   e-type =    3            # e-mesh is log given by emin, emax and ne
     emin =  1.0000000E-02  # minimum value of e-mesh points
     emax =   150.0000      # maximum value of e-mesh points
#    edel =  2.4039514E-02  # mesh width of e-mesh points
       ne =    400          # number of e-mesh points
#    data = ( e(i), i = 1, ne + 1 )
#           1.00000E-02  1.02433E-02  1.04925E-02  1.07478E-02  1.10093E-02
#           1.12772E-02  1.15516E-02  1.18326E-02  1.21205E-02  1.24154E-02
#           1.27175E-02  1.30269E-02  1.33439E-02  1.36686E-02  1.40011E-02
#           1.43418E-02  1.46907E-02  1.50482E-02  1.54143E-02  1.57894E-02
#           1.61735E-02  1.65670E-02  1.69701E-02  1.73830E-02  1.78060E-02
#           1.82392E-02  1.86830E-02  1.91375E-02  1.96032E-02  2.00801E-02
#           2.05687E-02  2.10692E-02  2.15818E-02  2.21069E-02  2.26448E-02
#           2.31957E-02  2.37601E-02  2.43382E-02  2.49304E-02  2.55369E-02
#           2.61583E-02  2.67947E-02  2.74467E-02  2.81145E-02  2.87985E-02
#           2.94992E-02  3.02169E-02  3.09521E-02  3.17052E-02  3.24766E-02
#           3.32668E-02  3.40762E-02  3.49053E-02  3.57546E-02  3.66246E-02
#           3.75157E-02  3.84284E-02  3.93634E-02  4.03212E-02  4.13022E-02
#           4.23071E-02  4.33365E-02  4.43909E-02  4.54710E-02  4.65773E-02
#           4.77106E-02  4.88714E-02  5.00605E-02  5.12785E-02  5.25262E-02
#           5.38042E-02  5.51133E-02  5.64542E-02  5.78278E-02  5.92348E-02
#           6.06760E-02  6.21523E-02  6.36645E-02  6.52135E-02  6.68002E-02
#           6.84255E-02  7.00904E-02  7.17957E-02  7.35426E-02  7.53319E-02
#           7.71648E-02  7.90423E-02  8.09655E-02  8.29354E-02  8.49533E-02
#           8.70203E-02  8.91376E-02  9.13064E-02  9.35279E-02  9.58035E-02
#           9.81345E-02  1.00522E-01  1.02968E-01  1.05473E-01  1.08040E-01
#           1.10668E-01  1.13361E-01  1.16119E-01  1.18944E-01  1.21838E-01
#           1.24803E-01  1.27839E-01  1.30950E-01  1.34136E-01  1.37399E-01
#           1.40742E-01  1.44167E-01  1.47675E-01  1.51268E-01  1.54948E-01
#           1.58718E-01  1.62580E-01  1.66535E-01  1.70587E-01  1.74738E-01
#           1.78989E-01  1.83344E-01  1.87805E-01  1.92375E-01  1.97055E-01
#           2.01850E-01  2.06761E-01  2.11792E-01  2.16945E-01  2.22223E-01
#           2.27630E-01  2.33169E-01  2.38842E-01  2.44653E-01  2.50605E-01
#           2.56703E-01  2.62949E-01  2.69346E-01  2.75900E-01  2.82613E-01
#           2.89489E-01  2.96532E-01  3.03747E-01  3.11138E-01  3.18708E-01
#           3.26462E-01  3.34405E-01  3.42542E-01  3.50876E-01  3.59413E-01
#           3.68158E-01  3.77116E-01  3.86291E-01  3.95690E-01  4.05317E-01
#           4.15179E-01  4.25281E-01  4.35628E-01  4.46227E-01  4.57084E-01
#           4.68205E-01  4.79597E-01  4.91266E-01  5.03219E-01  5.15463E-01
#           5.28005E-01  5.40851E-01  5.54011E-01  5.67490E-01  5.81298E-01
#           5.95441E-01  6.09929E-01  6.24769E-01  6.39970E-01  6.55541E-01
#           6.71491E-01  6.87828E-01  7.04564E-01  7.21706E-01  7.39266E-01
#           7.57253E-01  7.75678E-01  7.94551E-01  8.13883E-01  8.33685E-01
#           8.53969E-01  8.74747E-01  8.96030E-01  9.17831E-01  9.40163E-01
#           9.63038E-01  9.86469E-01  1.01047E+00  1.03506E+00  1.06024E+00
#           1.08604E+00  1.11246E+00  1.13953E+00  1.16725E+00  1.19565E+00
#           1.22474E+00  1.25454E+00  1.28507E+00  1.31633E+00  1.34836E+00
#           1.38117E+00  1.41477E+00  1.44920E+00  1.48446E+00  1.52057E+00
#           1.55757E+00  1.59547E+00  1.63429E+00  1.67405E+00  1.71478E+00
#           1.75650E+00  1.79924E+00  1.84302E+00  1.88786E+00  1.93379E+00
#           1.98084E+00  2.02904E+00  2.07841E+00  2.12898E+00  2.18078E+00
#           2.23384E+00  2.28819E+00  2.34386E+00  2.40089E+00  2.45930E+00
#           2.51914E+00  2.58043E+00  2.64322E+00  2.70753E+00  2.77341E+00
#           2.84088E+00  2.91001E+00  2.98081E+00  3.05333E+00  3.12762E+00
#           3.20372E+00  3.28167E+00  3.36152E+00  3.44330E+00  3.52708E+00
#           3.61290E+00  3.70080E+00  3.79085E+00  3.88308E+00  3.97756E+00
#           4.07434E+00  4.17347E+00  4.27501E+00  4.37903E+00  4.48557E+00
#           4.59471E+00  4.70650E+00  4.82102E+00  4.93832E+00  5.05847E+00
#           5.18155E+00  5.30762E+00  5.43676E+00  5.56904E+00  5.70453E+00
#           5.84333E+00  5.98550E+00  6.13114E+00  6.28031E+00  6.43312E+00
#           6.58964E+00  6.74997E+00  6.91420E+00  7.08243E+00  7.25475E+00
#           7.43126E+00  7.61207E+00  7.79728E+00  7.98700E+00  8.18133E+00
#           8.38038E+00  8.58428E+00  8.79315E+00  9.00709E+00  9.22624E+00
#           9.45072E+00  9.68067E+00  9.91620E+00  1.01575E+01  1.04046E+01
#           1.06578E+01  1.09171E+01  1.11827E+01  1.14548E+01  1.17335E+01
#           1.20190E+01  1.23114E+01  1.26109E+01  1.29178E+01  1.32321E+01
#           1.35540E+01  1.38838E+01  1.42216E+01  1.45676E+01  1.49221E+01
#           1.52851E+01  1.56570E+01  1.60380E+01  1.64282E+01  1.68279E+01
#           1.72374E+01  1.76568E+01  1.80864E+01  1.85264E+01  1.89772E+01
#           1.94389E+01  1.99119E+01  2.03963E+01  2.08926E+01  2.14009E+01
#           2.19216E+01  2.24550E+01  2.30014E+01  2.35610E+01  2.41343E+01
#           2.47215E+01  2.53230E+01  2.59391E+01  2.65702E+01  2.72167E+01
#           2.78789E+01  2.85572E+01  2.92520E+01  2.99637E+01  3.06928E+01
#           3.14396E+01  3.22045E+01  3.29881E+01  3.37907E+01  3.46128E+01
#           3.54550E+01  3.63177E+01  3.72013E+01  3.81064E+01  3.90336E+01
#           3.99833E+01  4.09561E+01  4.19526E+01  4.29734E+01  4.40189E+01
#           4.50900E+01  4.61870E+01  4.73108E+01  4.84619E+01  4.96410E+01
#           5.08488E+01  5.20860E+01  5.33533E+01  5.46514E+01  5.59812E+01
#           5.73432E+01  5.87384E+01  6.01676E+01  6.16315E+01  6.31311E+01
#           6.46671E+01  6.62405E+01  6.78522E+01  6.95031E+01  7.11941E+01
#           7.29263E+01  7.47007E+01  7.65182E+01  7.83800E+01  8.02870E+01
#           8.22405E+01  8.42414E+01  8.62911E+01  8.83906E+01  9.05412E+01
#           9.27442E+01  9.50007E+01  9.73122E+01  9.96799E+01  1.02105E+02
#           1.04589E+02  1.07134E+02  1.09741E+02  1.12411E+02  1.15146E+02
#           1.17948E+02  1.20817E+02  1.23757E+02  1.26768E+02  1.29852E+02
#           1.33012E+02  1.36248E+02  1.39563E+02  1.42959E+02  1.46437E+02
#           1.50000E+02
     unit =    2            # unit is [1/cm^2/(MeV/n)/source]
     axis =  eng            # axis of output
     file = detector-21.out  # file name of output for the above axis
   output = f-curr          # surface crossing forward current spectrum
     part =  neutron  
# kf/name :  2112     
#    used :        main (  %)        temp (  %)       total (  %)
#  memory :         414 (  0)           0 (  0)         414 (  0)

#------------------------------------------------------------------------------
#newpage:
#   no. =    1   reg = 120 - 220

x: Energy [MeV/n]
y:  F-Curr [1/cm^2/(MeV/n)/source]         
p: xlog ylog afac(0.8) form(0.9)
h: n            x            y(neutron ),hh0l   n 
#  e-lower      e-upper      neutron     r.err 
   1.0000E-02   1.0243E-02   1.8220E-04  0.0671
   1.0243E-02   1.0493E-02   1.8991E-04  0.0650
   1.0493E-02   1.0748E-02   1.8708E-04  0.0647
   1.0748E-02   1.1009E-02   1.9914E-04  0.0619
   1.1009E-02   1.1277E-02   1.7212E-04  0.0658
   1.1277E-02   1.1552E-02   1.8726E-04  0.0623
   1.1552E-02   1.1833E-02   1.7328E-04  0.0640
   1.1833E-02   1.2121E-02   1.6453E-04  0.0650
   1.2121E-02   1.2415E-02   1.6039E-04  0.0650
   1.2415E-02   1.2718E-02   1.7910E-04  0.0608
   1.2718E-02   1.3027E-02   1.6269E-04  0.0630
   1.3027E-02   1.3344E-02   1.6249E-04  0.0623
   1.3344E-02   1.3669E-02   1.4019E-04  0.0662
   1.3669E-02   1.4001E-02   1.5310E-04  0.0626
   1.4001E-02   1.4342E-02   1.5411E-04  0.0617
   1.4342E-02   1.4691E-02   1.4480E-04  0.0629
   1.4691E-02   1.5048E-02   1.3991E-04  0.0632
   1.5048E-02   1.5414E-02   1.3923E-04  0.0626
   1.5414E-02   1.5789E-02   1.3612E-04  0.0625
   1.5789E-02   1.6174E-02   1.3462E-04  0.0621
   1.6174E-02   1.6567E-02   1.3545E-04  0.0612
   1.6567E-02   1.6970E-02   1.3227E-04  0.0612
   1.6970E-02   1.7383E-02   1.4381E-04  0.0580
   1.7383E-02   1.7806E-02   1.3054E-04  0.0601
   1.7806E-02   1.8239E-02   1.3959E-04  0.0575
   1.8239E-02   1.8683E-02   1.2295E-04  0.0605
   1.8683E-02   1.9138E-02   1.2483E-04  0.0593
   1.9138E-02   1.9603E-02   1.1430E-04  0.0612
   1.9603E-02   2.0080E-02   1.2498E-04  0.0579
   2.0080E-02   2.0569E-02   1.1379E-04  0.0599
   2.0569E-02   2.1069E-02   1.1247E-04  0.0596
   2.1069E-02   2.1582E-02   1.1060E-04  0.0593
   2.1582E-02   2.2107E-02   1.2592E-04  0.0550
   2.2107E-02   2.2645E-02   1.0859E-04  0.0585
   2.2645E-02   2.3196E-02   1.1845E-04  0.0553
   2.3196E-02   2.3760E-02   1.0594E-04  0.0578
   2.3760E-02   2.4338E-02   1.0092E-04  0.0585
   2.4338E-02   2.4930E-02   9.7125E-05  0.0589
   2.4930E-02   2.5537E-02   1.0276E-04  0.0566
   2.5537E-02   2.6158E-02   9.7452E-05  0.0574
   2.6158E-02   2.6795E-02   8.6364E-05  0.0603
   2.6795E-02   2.7447E-02   8.8905E-05  0.0587
   2.7447E-02   2.8114E-02   9.8750E-05  0.0550
   2.8114E-02   2.8799E-02   9.8397E-05  0.0545
   2.8799E-02   2.9499E-02   9.1503E-05  0.0558
   2.9499E-02   3.0217E-02   8.7448E-05  0.0564
   3.0217E-02   3.0952E-02   8.7937E-05  0.0555
   3.0952E-02   3.1705E-02   9.3134E-05  0.0534
   3.1705E-02   3.2477E-02   7.7927E-05  0.0576
   3.2477E-02   3.3267E-02   7.5327E-05  0.0579
   3.3267E-02   3.4076E-02   8.4638E-05  0.0540
   3.4076E-02   3.4905E-02   7.4192E-05  0.0570
   3.4905E-02   3.5755E-02   8.2438E-05  0.0534
   3.5755E-02   3.6625E-02   7.1249E-05  0.0567
   3.6625E-02   3.7516E-02   7.3135E-05  0.0554
   3.7516E-02   3.8428E-02   7.2712E-05  0.0549
   3.8428E-02   3.9363E-02   7.3086E-05  0.0541
   3.9363E-02   4.0321E-02   6.6316E-05  0.0561
   4.0321E-02   4.1302E-02   7.2212E-05  0.0531
   4.1302E-02   4.2307E-02   6.3078E-05  0.0561
   4.2307E-02   4.3337E-02   7.1169E-05  0.0522
   4.3337E-02   4.4391E-02   5.8236E-05  0.0570
   4.4391E-02   4.5471E-02   6.5300E-05  0.0532
   4.5471E-02   4.6577E-02   6.5375E-05  0.0525
   4.6577E-02   4.7711E-02   6.4530E-05  0.0523
   4.7711E-02   4.8871E-02   5.9689E-05  0.0537
   4.8871E-02   5.0061E-02   6.2188E-05  0.0520
   5.0061E-02   5.1279E-02   5.8039E-05  0.0532
   5.1279E-02   5.2526E-02   5.3546E-05  0.0546
   5.2526E-02   5.3804E-02   5.5461E-05  0.0531
   5.3804E-02   5.5113E-02   5.1680E-05  0.0543
   5.5113E-02   5.6454E-02   5.2190E-05  0.0534
   5.6454E-02   5.7828E-02   5.0169E-05  0.0538
   5.7828E-02   5.9235E-02   5.1428E-05  0.0525
   5.9235E-02   6.0676E-02   4.9356E-05  0.0530
   6.0676E-02   6.2152E-02   4.7797E-05  0.0532
   6.2152E-02   6.3665E-02   4.8477E-05  0.0522
   6.3665E-02   6.5214E-02   4.7364E-05  0.0522
   6.5214E-02   6.6800E-02   4.8221E-05  0.0511
   6.6800E-02   6.8426E-02   4.1543E-05  0.0544
   6.8426E-02   7.0090E-02   4.3465E-05  0.0526
   7.0090E-02   7.1796E-02   3.5637E-05  0.0573
   7.1796E-02   7.3543E-02   3.9528E-05  0.0538
   7.3543E-02   7.5332E-02   4.1308E-05  0.0520
   7.5332E-02   7.7165E-02   4.0077E-05  0.0521
   7.7165E-02   7.9042E-02   4.0531E-05  0.0512
   7.9042E-02   8.0965E-02   4.0187E-05  0.0508
   8.0965E-02   8.2935E-02   3.7917E-05  0.0517
   8.2935E-02   8.4953E-02   3.8287E-05  0.0508
   8.4953E-02   8.7020E-02   3.4489E-05  0.0529
   8.7020E-02   8.9138E-02   3.3979E-05  0.0527
   8.9138E-02   9.1306E-02   3.1110E-05  0.0544
   9.1306E-02   9.3528E-02   3.3991E-05  0.0514
   9.3528E-02   9.5804E-02   3.0861E-05  0.0533
   9.5804E-02   9.8134E-02   2.9600E-05  0.0538
   9.8134E-02   1.0052E-01   2.8700E-05  0.0540
   1.0052E-01   1.0297E-01   3.0752E-05  0.0515
   1.0297E-01   1.0547E-01   3.0365E-05  0.0512
   1.0547E-01   1.0804E-01   3.4193E-05  0.0477
   1.0804E-01   1.1067E-01   3.3784E-05  0.0474
   1.1067E-01   1.1336E-01   3.1731E-05  0.0483
   1.1336E-01   1.1612E-01   3.4587E-05  0.0457
   1.1612E-01   1.1894E-01   3.5416E-05  0.0447
   1.1894E-01   1.2184E-01   3.8118E-05  0.0425
   1.2184E-01   1.2480E-01   3.4827E-05  0.0440
   1.2480E-01   1.2784E-01   3.5460E-05  0.0430
   1.2784E-01   1.3095E-01   3.7349E-05  0.0415
   1.3095E-01   1.3414E-01   3.8368E-05  0.0404
   1.3414E-01   1.3740E-01   3.9640E-05  0.0393
   1.3740E-01   1.4074E-01   3.9906E-05  0.0387
   1.4074E-01   1.4417E-01   4.0101E-05  0.0381
   1.4417E-01   1.4767E-01   3.9420E-05  0.0380
   1.4767E-01   1.5127E-01   4.2332E-05  0.0362
   1.5127E-01   1.5495E-01   4.3440E-05  0.0353
   1.5495E-01   1.5872E-01   4.1220E-05  0.0358
   1.5872E-01   1.6258E-01   4.2226E-05  0.0350
   1.6258E-01   1.6654E-01   4.3721E-05  0.0340
   1.6654E-01   1.7059E-01   4.3925E-05  0.0335
   1.7059E-01   1.7474E-01   4.4669E-05  0.0328
   1.7474E-01   1.7899E-01   4.7426E-05  0.0314
   1.7899E-01   1.8334E-01   4.3992E-05  0.0323
   1.8334E-01   1.8781E-01   4.5988E-05  0.0312
   1.8781E-01   1.9237E-01   4.6761E-05  0.0305
   1.9237E-01   1.9706E-01   4.9357E-05  0.0294
   1.9706E-01   2.0185E-01   4.7367E-05  0.0296
   2.0185E-01   2.0676E-01   4.6838E-05  0.0294
   2.0676E-01   2.1179E-01   4.6740E-05  0.0291
   2.1179E-01   2.1694E-01   4.8242E-05  0.0283
   2.1694E-01   2.2222E-01   5.0029E-05  0.0275
   2.2222E-01   2.2763E-01   4.7927E-05  0.0277
   2.2763E-01   2.3317E-01   5.1039E-05  0.0266
   2.3317E-01   2.3884E-01   5.0739E-05  0.0263
   2.3884E-01   2.4465E-01   5.2908E-05  0.0255
   2.4465E-01   2.5061E-01   5.1866E-05  0.0254
   2.5061E-01   2.5670E-01   5.1452E-05  0.0252
   2.5670E-01   2.6295E-01   5.2376E-05  0.0247
   2.6295E-01   2.6935E-01   5.0771E-05  0.0248
   2.6935E-01   2.7590E-01   5.0947E-05  0.0244
   2.7590E-01   2.8261E-01   5.3499E-05  0.0236
   2.8261E-01   2.8949E-01   5.3924E-05  0.0232
   2.8949E-01   2.9653E-01   5.1306E-05  0.0235
   2.9653E-01   3.0375E-01   5.2823E-05  0.0229
   3.0375E-01   3.1114E-01   5.5144E-05  0.0221
   3.1114E-01   3.1871E-01   5.3344E-05  0.0222
   3.1871E-01   3.2646E-01   5.4835E-05  0.0216
   3.2646E-01   3.3441E-01   5.5073E-05  0.0213
   3.3441E-01   3.4254E-01   5.4595E-05  0.0212
   3.4254E-01   3.5088E-01   5.5283E-05  0.0208
   3.5088E-01   3.5941E-01   5.5780E-05  0.0204
   3.5941E-01   3.6816E-01   5.7017E-05  0.0200
   3.6816E-01   3.7712E-01   5.7940E-05  0.0196
   3.7712E-01   3.8629E-01   5.6571E-05  0.0196
   3.8629E-01   3.9569E-01   5.9493E-05  0.0189
   3.9569E-01   4.0532E-01   5.7699E-05  0.0189
   4.0532E-01   4.1518E-01   5.7349E-05  0.0188
   4.1518E-01   4.2528E-01   5.6239E-05  0.0187
   4.2528E-01   4.3563E-01   5.8873E-05  0.0181
   4.3563E-01   4.4623E-01   5.7265E-05  0.0181
   4.4623E-01   4.5708E-01   5.9312E-05  0.0176
   4.5708E-01   4.6821E-01   5.9620E-05  0.0173
   4.6821E-01   4.7960E-01   5.9612E-05  0.0171
   4.7960E-01   4.9127E-01   6.0316E-05  0.0168
   4.9127E-01   5.0322E-01   5.8776E-05  0.0168
   5.0322E-01   5.1546E-01   6.0047E-05  0.0165
   5.1546E-01   5.2800E-01   6.0709E-05  0.0162
   5.2800E-01   5.4085E-01   6.0365E-05  0.0160
   5.4085E-01   5.5401E-01   6.0805E-05  0.0158
   5.5401E-01   5.6749E-01   6.2675E-05  0.0153
   5.6749E-01   5.8130E-01   6.1343E-05  0.0153
   5.8130E-01   5.9544E-01   6.1321E-05  0.0151
   5.9544E-01   6.0993E-01   6.1111E-05  0.0150
   6.0993E-01   6.2477E-01   6.0600E-05  0.0149
   6.2477E-01   6.3997E-01   6.1225E-05  0.0146
   6.3997E-01   6.5554E-01   5.9651E-05  0.0146
   6.5554E-01   6.7149E-01   5.8797E-05  0.0146
   6.7149E-01   6.8783E-01   5.9871E-05  0.0143
   6.8783E-01   7.0456E-01   6.1645E-05  0.0139
   7.0456E-01   7.2171E-01   5.9899E-05  0.0139
   7.2171E-01   7.3927E-01   5.8974E-05  0.0138
   7.3927E-01   7.5725E-01   5.9270E-05  0.0136
   7.5725E-01   7.7568E-01   5.7235E-05  0.0137
   7.7568E-01   7.9455E-01   5.7273E-05  0.0136
   7.9455E-01   8.1388E-01   5.6609E-05  0.0135
   8.1388E-01   8.3368E-01   5.6829E-05  0.0133
   8.3368E-01   8.5397E-01   5.3775E-05  0.0135
   8.5397E-01   8.7475E-01   5.4671E-05  0.0132
   8.7475E-01   8.9603E-01   5.3940E-05  0.0131
   8.9603E-01   9.1783E-01   5.2976E-05  0.0131
   9.1783E-01   9.4016E-01   5.1517E-05  0.0131
   9.4016E-01   9.6304E-01   5.1192E-05  0.0130
   9.6304E-01   9.8647E-01   4.7698E-05  0.0133
   9.8647E-01   1.0105E+00   4.6610E-05  0.0133
   1.0105E+00   1.0351E+00   4.4836E-05  0.0134
   1.0351E+00   1.0602E+00   4.3979E-05  0.0134
   1.0602E+00   1.0860E+00   4.4083E-05  0.0132
   1.0860E+00   1.1125E+00   4.2312E-05  0.0133
   1.1125E+00   1.1395E+00   4.1553E-05  0.0132
   1.1395E+00   1.1673E+00   4.1473E-05  0.0131
   1.1673E+00   1.1957E+00   4.1968E-05  0.0128
   1.1957E+00   1.2247E+00   3.9834E-05  0.0130
   1.2247E+00   1.2545E+00   3.8835E-05  0.0130
   1.2545E+00   1.2851E+00   3.7987E-05  0.0130
   1.2851E+00   1.3163E+00   3.7421E-05  0.0129
   1.3163E+00   1.3484E+00   3.6810E-05  0.0129
   1.3484E+00   1.3812E+00   3.5271E-05  0.0130
   1.3812E+00   1.4148E+00   3.5828E-05  0.0127
   1.4148E+00   1.4492E+00   3.4835E-05  0.0127
   1.4492E+00   1.4845E+00   3.3785E-05  0.0128
   1.4845E+00   1.5206E+00   3.3053E-05  0.0127
   1.5206E+00   1.5576E+00   3.2316E-05  0.0127
   1.5576E+00   1.5955E+00   3.1292E-05  0.0128
   1.5955E+00   1.6343E+00   2.9977E-05  0.0129
   1.6343E+00   1.6741E+00   2.9739E-05  0.0128
   1.6741E+00   1.7148E+00   2.8704E-05  0.0128
   1.7148E+00   1.7565E+00   2.8385E-05  0.0127
   1.7565E+00   1.7992E+00   2.7065E-05  0.0129
   1.7992E+00   1.8430E+00   2.6416E-05  0.0129
   1.8430E+00   1.8879E+00   2.4779E-05  0.0131
   1.8879E+00   1.9338E+00   2.4323E-05  0.0131
   1.9338E+00   1.9808E+00   2.3345E-05  0.0132
   1.9808E+00   2.0290E+00   2.3883E-05  0.0129
   2.0290E+00   2.0784E+00   2.3553E-05  0.0128
   2.0784E+00   2.1290E+00   2.2512E-05  0.0130
   2.1290E+00   2.1808E+00   2.2436E-05  0.0128
   2.1808E+00   2.2338E+00   2.1486E-05  0.0130
   2.2338E+00   2.2882E+00   2.1293E-05  0.0129
   2.2882E+00   2.3439E+00   2.1012E-05  0.0128
   2.3439E+00   2.4009E+00   2.0629E-05  0.0128
   2.4009E+00   2.4593E+00   1.9633E-05  0.0129
   2.4593E+00   2.5191E+00   1.9397E-05  0.0129
   2.5191E+00   2.5804E+00   1.8978E-05  0.0129
   2.5804E+00   2.6432E+00   1.8025E-05  0.0130
   2.6432E+00   2.7075E+00   1.7449E-05  0.0131
   2.7075E+00   2.7734E+00   1.6858E-05  0.0132
   2.7734E+00   2.8409E+00   1.6550E-05  0.0132
   2.8409E+00   2.9100E+00   1.5807E-05  0.0133
   2.9100E+00   2.9808E+00   1.5554E-05  0.0133
   2.9808E+00   3.0533E+00   1.4864E-05  0.0134
   3.0533E+00   3.1276E+00   1.4880E-05  0.0133
   3.1276E+00   3.2037E+00   1.3912E-05  0.0135
   3.2037E+00   3.2817E+00   1.3532E-05  0.0136
   3.2817E+00   3.3615E+00   1.2933E-05  0.0137
   3.3615E+00   3.4433E+00   1.2618E-05  0.0137
   3.4433E+00   3.5271E+00   1.2547E-05  0.0136
   3.5271E+00   3.6129E+00   1.2165E-05  0.0137
   3.6129E+00   3.7008E+00   1.1231E-05  0.0141
   3.7008E+00   3.7908E+00   1.1267E-05  0.0139
   3.7908E+00   3.8831E+00   1.0813E-05  0.0140
   3.8831E+00   3.9776E+00   1.0093E-05  0.0143
   3.9776E+00   4.0743E+00   9.8191E-06  0.0143
   4.0743E+00   4.1735E+00   9.5116E-06  0.0144
   4.1735E+00   4.2750E+00   8.9729E-06  0.0146
   4.2750E+00   4.3790E+00   8.3764E-06  0.0150
   4.3790E+00   4.4856E+00   8.2319E-06  0.0149
   4.4856E+00   4.5947E+00   7.7100E-06  0.0153
   4.5947E+00   4.7065E+00   7.3440E-06  0.0154
   4.7065E+00   4.8210E+00   6.9183E-06  0.0157
   4.8210E+00   4.9383E+00   6.8323E-06  0.0156
   4.9383E+00   5.0585E+00   6.1798E-06  0.0162
   5.0585E+00   5.1815E+00   6.0695E-06  0.0162
   5.1815E+00   5.3076E+00   5.5982E-06  0.0167
   5.3076E+00   5.4368E+00   5.2814E-06  0.0170
   5.4368E+00   5.5690E+00   5.1334E-06  0.0170
   5.5690E+00   5.7045E+00   4.5930E-06  0.0178
   5.7045E+00   5.8433E+00   4.3553E-06  0.0180
   5.8433E+00   5.9855E+00   3.8094E-06  0.0191
   5.9855E+00   6.1311E+00   3.5503E-06  0.0195
   6.1311E+00   6.2803E+00   3.2801E-06  0.0201
   6.2803E+00   6.4331E+00   3.1225E-06  0.0203
   6.4331E+00   6.5896E+00   2.7337E-06  0.0215
   6.5896E+00   6.7500E+00   2.2089E-06  0.0236
   6.7500E+00   6.9142E+00   1.8590E-06  0.0254
   6.9142E+00   7.0824E+00   1.5321E-06  0.0277
   7.0824E+00   7.2548E+00   1.3476E-06  0.0292
   7.2548E+00   7.4313E+00   1.1312E-06  0.0314
   7.4313E+00   7.6121E+00   9.7314E-07  0.0335
   7.6121E+00   7.7973E+00   8.9487E-07  0.0345
   7.7973E+00   7.9870E+00   8.0136E-07  0.0360
   7.9870E+00   8.1813E+00   6.8952E-07  0.0383
   8.1813E+00   8.3804E+00   5.6815E-07  0.0418
   8.3804E+00   8.5843E+00   5.7369E-07  0.0410
   8.5843E+00   8.7931E+00   5.2774E-07  0.0422
   8.7931E+00   9.0071E+00   4.7364E-07  0.0442
   9.0071E+00   9.2262E+00   4.1929E-07  0.0464
   9.2262E+00   9.4507E+00   3.8946E-07  0.0477
   9.4507E+00   9.6807E+00   3.8264E-07  0.0474
   9.6807E+00   9.9162E+00   3.6172E-07  0.0482
   9.9162E+00   1.0157E+01   3.1535E-07  0.0510
   1.0157E+01   1.0405E+01   2.5783E-07  0.0558
   1.0405E+01   1.0658E+01   2.4954E-07  0.0561
   1.0658E+01   1.0917E+01   1.9177E-07  0.0630
   1.0917E+01   1.1183E+01   1.8998E-07  0.0625
   1.1183E+01   1.1455E+01   1.6097E-07  0.0672
   1.1455E+01   1.1733E+01   1.4439E-07  0.0702
   1.1733E+01   1.2019E+01   1.0916E-07  0.0796
   1.2019E+01   1.2311E+01   9.5990E-08  0.0842
   1.2311E+01   1.2611E+01   6.2359E-08  0.1019
   1.2611E+01   1.2918E+01   4.9801E-08  0.1137
   1.2918E+01   1.3232E+01   5.6832E-08  0.1057
   1.3232E+01   1.3554E+01   3.3570E-08  0.1339
   1.3554E+01   1.3884E+01   2.3606E-08  0.1568
   1.3884E+01   1.4222E+01   2.1707E-08  0.1629
   1.4222E+01   1.4568E+01   1.1023E-08  0.2217
   1.4568E+01   1.4922E+01   8.9321E-09  0.2435
   1.4922E+01   1.5285E+01   8.5456E-09  0.2518
   1.5285E+01   1.5657E+01   4.5696E-09  0.3380
   1.5657E+01   1.6038E+01   3.1500E-09  0.4082
   1.6038E+01   1.6428E+01   2.3259E-09  0.4564
   1.6428E+01   1.6828E+01   2.0014E-09  0.5000
   1.6828E+01   1.7237E+01   9.7695E-10  0.7071
   1.7237E+01   1.7657E+01   0.0000E+00  0.0000
   1.7657E+01   1.8086E+01   4.6555E-10  1.0000
   1.8086E+01   1.8526E+01   4.5449E-10  1.0000
   1.8526E+01   1.8977E+01   0.0000E+00  0.0000
   1.8977E+01   1.9439E+01   0.0000E+00  0.0000
   1.9439E+01   1.9912E+01   0.0000E+00  0.0000
   1.9912E+01   2.0396E+01   0.0000E+00  0.0000
   2.0396E+01   2.0893E+01   0.0000E+00  0.0000
   2.0893E+01   2.1401E+01   0.0000E+00  0.0000
   2.1401E+01   2.1922E+01   0.0000E+00  0.0000
   2.1922E+01   2.2455E+01   0.0000E+00  0.0000
   2.2455E+01   2.3001E+01   0.0000E+00  0.0000
   2.3001E+01   2.3561E+01   0.0000E+00  0.0000
   2.3561E+01   2.4134E+01   0.0000E+00  0.0000
   2.4134E+01   2.4721E+01   0.0000E+00  0.0000
   2.4721E+01   2.5323E+01   0.0000E+00  0.0000
   2.5323E+01   2.5939E+01   0.0000E+00  0.0000
   2.5939E+01   2.6570E+01   0.0000E+00  0.0000
   2.6570E+01   2.7217E+01   0.0000E+00  0.0000
   2.7217E+01   2.7879E+01   0.0000E+00  0.0000
   2.7879E+01   2.8557E+01   0.0000E+00  0.0000
   2.8557E+01   2.9252E+01   0.0000E+00  0.0000
   2.9252E+01   2.9964E+01   0.0000E+00  0.0000
   2.9964E+01   3.0693E+01   0.0000E+00  0.0000
   3.0693E+01   3.1440E+01   0.0000E+00  0.0000
   3.1440E+01   3.2205E+01   0.0000E+00  0.0000
   3.2205E+01   3.2988E+01   0.0000E+00  0.0000
   3.2988E+01   3.3791E+01   0.0000E+00  0.0000
   3.3791E+01   3.4613E+01   0.0000E+00  0.0000
   3.4613E+01   3.5455E+01   0.0000E+00  0.0000
   3.5455E+01   3.6318E+01   0.0000E+00  0.0000
   3.6318E+01   3.7201E+01   0.0000E+00  0.0000
   3.7201E+01   3.8106E+01   0.0000E+00  0.0000
   3.8106E+01   3.9034E+01   0.0000E+00  0.0000
   3.9034E+01   3.9983E+01   0.0000E+00  0.0000
   3.9983E+01   4.0956E+01   0.0000E+00  0.0000
   4.0956E+01   4.1953E+01   0.0000E+00  0.0000
   4.1953E+01   4.2973E+01   0.0000E+00  0.0000
   4.2973E+01   4.4019E+01   0.0000E+00  0.0000
   4.4019E+01   4.5090E+01   0.0000E+00  0.0000
   4.5090E+01   4.6187E+01   0.0000E+00  0.0000
   4.6187E+01   4.7311E+01   0.0000E+00  0.0000
   4.7311E+01   4.8462E+01   0.0000E+00  0.0000
   4.8462E+01   4.9641E+01   0.0000E+00  0.0000
   4.9641E+01   5.0849E+01   0.0000E+00  0.0000
   5.0849E+01   5.2086E+01   0.0000E+00  0.0000
   5.2086E+01   5.3353E+01   0.0000E+00  0.0000
   5.3353E+01   5.4651E+01   0.0000E+00  0.0000
   5.4651E+01   5.5981E+01   0.0000E+00  0.0000
   5.5981E+01   5.7343E+01   0.0000E+00  0.0000
   5.7343E+01   5.8738E+01   0.0000E+00  0.0000
   5.8738E+01   6.0168E+01   0.0000E+00  0.0000
   6.0168E+01   6.1632E+01   0.0000E+00  0.0000
   6.1632E+01   6.3131E+01   0.0000E+00  0.0000
   6.3131E+01   6.4667E+01   0.0000E+00  0.0000
   6.4667E+01   6.6240E+01   0.0000E+00  0.0000
   6.6240E+01   6.7852E+01   0.0000E+00  0.0000
   6.7852E+01   6.9503E+01   0.0000E+00  0.0000
   6.9503E+01   7.1194E+01   0.0000E+00  0.0000
   7.1194E+01   7.2926E+01   0.0000E+00  0.0000
   7.2926E+01   7.4701E+01   0.0000E+00  0.0000
   7.4701E+01   7.6518E+01   0.0000E+00  0.0000
   7.6518E+01   7.8380E+01   0.0000E+00  0.0000
   7.8380E+01   8.0287E+01   0.0000E+00  0.0000
   8.0287E+01   8.2240E+01   0.0000E+00  0.0000
   8.2240E+01   8.4241E+01   0.0000E+00  0.0000
   8.4241E+01   8.6291E+01   0.0000E+00  0.0000
   8.6291E+01   8.8391E+01   0.0000E+00  0.0000
   8.8391E+01   9.0541E+01   0.0000E+00  0.0000
   9.0541E+01   9.2744E+01   0.0000E+00  0.0000
   9.2744E+01   9.5001E+01   0.0000E+00  0.0000
   9.5001E+01   9.7312E+01   0.0000E+00  0.0000
   9.7312E+01   9.9680E+01   0.0000E+00  0.0000
   9.9680E+01   1.0211E+02   0.0000E+00  0.0000
   1.0211E+02   1.0459E+02   0.0000E+00  0.0000
   1.0459E+02   1.0713E+02   0.0000E+00  0.0000
   1.0713E+02   1.0974E+02   0.0000E+00  0.0000
   1.0974E+02   1.1241E+02   0.0000E+00  0.0000
   1.1241E+02   1.1515E+02   0.0000E+00  0.0000
   1.1515E+02   1.1795E+02   0.0000E+00  0.0000
   1.1795E+02   1.2082E+02   0.0000E+00  0.0000
   1.2082E+02   1.2376E+02   0.0000E+00  0.0000
   1.2376E+02   1.2677E+02   0.0000E+00  0.0000
   1.2677E+02   1.2985E+02   0.0000E+00  0.0000
   1.2985E+02   1.3301E+02   0.0000E+00  0.0000
   1.3301E+02   1.3625E+02   0.0000E+00  0.0000
   1.3625E+02   1.3956E+02   0.0000E+00  0.0000
   1.3956E+02   1.4296E+02   0.0000E+00  0.0000
   1.4296E+02   1.4644E+02   0.0000E+00  0.0000
   1.4644E+02   1.5000E+02   0.0000E+00  0.0000

#   sum over                 9.2124E-07
'no. =    1   reg = 120 - 220'
msuc: {\huge [t-cross] in region mesh}
msdr: {\it plotted by \ANGEL \version}
msdl: {\it calculated by \PHITS  3.26}
wt: s(0.7)
\vspace{-3}
  region surface crossing
  area  &=&   1.0000E+00 [cm^2]
e:
 
# Information for Restart Calculation
# This calculation was newly started
# istdev =  2 # 1:Batch variance, 2:History variance
# resc2  = 5.00000000000000000E+09 # Total source weight or Total source weight / maxcas
# resc3  = 5.00000000000000000E+09 # Total history number or Total batch number
# maxcas =   100000000 # History / Batch, only used for istdev=1
# bitrseed = 0110100000100010111000001110001111001110100100011111101000111001 # bit data of rseed
