[ T-Cross ]
    title = [t-cross] in region mesh
     mesh =  reg            # mesh type is region-wise
      reg =    1            # number of crossing regions
      non     r-from    r-to       area
      1       110       210        1.000000    
   e-type =    3            # e-mesh is log given by emin, emax and ne
     emin =  1.0000000E-02  # minimum value of e-mesh points
     emax =   150.0000      # maximum value of e-mesh points
#    edel =  2.4039514E-02  # mesh width of e-mesh points
       ne =    400          # number of e-mesh points
#    data = ( e(i), i = 1, ne + 1 )
#           1.00000E-02  1.02433E-02  1.04925E-02  1.07478E-02  1.10093E-02
#           1.12772E-02  1.15516E-02  1.18326E-02  1.21205E-02  1.24154E-02
#           1.27175E-02  1.30269E-02  1.33439E-02  1.36686E-02  1.40011E-02
#           1.43418E-02  1.46907E-02  1.50482E-02  1.54143E-02  1.57894E-02
#           1.61735E-02  1.65670E-02  1.69701E-02  1.73830E-02  1.78060E-02
#           1.82392E-02  1.86830E-02  1.91375E-02  1.96032E-02  2.00801E-02
#           2.05687E-02  2.10692E-02  2.15818E-02  2.21069E-02  2.26448E-02
#           2.31957E-02  2.37601E-02  2.43382E-02  2.49304E-02  2.55369E-02
#           2.61583E-02  2.67947E-02  2.74467E-02  2.81145E-02  2.87985E-02
#           2.94992E-02  3.02169E-02  3.09521E-02  3.17052E-02  3.24766E-02
#           3.32668E-02  3.40762E-02  3.49053E-02  3.57546E-02  3.66246E-02
#           3.75157E-02  3.84284E-02  3.93634E-02  4.03212E-02  4.13022E-02
#           4.23071E-02  4.33365E-02  4.43909E-02  4.54710E-02  4.65773E-02
#           4.77106E-02  4.88714E-02  5.00605E-02  5.12785E-02  5.25262E-02
#           5.38042E-02  5.51133E-02  5.64542E-02  5.78278E-02  5.92348E-02
#           6.06760E-02  6.21523E-02  6.36645E-02  6.52135E-02  6.68002E-02
#           6.84255E-02  7.00904E-02  7.17957E-02  7.35426E-02  7.53319E-02
#           7.71648E-02  7.90423E-02  8.09655E-02  8.29354E-02  8.49533E-02
#           8.70203E-02  8.91376E-02  9.13064E-02  9.35279E-02  9.58035E-02
#           9.81345E-02  1.00522E-01  1.02968E-01  1.05473E-01  1.08040E-01
#           1.10668E-01  1.13361E-01  1.16119E-01  1.18944E-01  1.21838E-01
#           1.24803E-01  1.27839E-01  1.30950E-01  1.34136E-01  1.37399E-01
#           1.40742E-01  1.44167E-01  1.47675E-01  1.51268E-01  1.54948E-01
#           1.58718E-01  1.62580E-01  1.66535E-01  1.70587E-01  1.74738E-01
#           1.78989E-01  1.83344E-01  1.87805E-01  1.92375E-01  1.97055E-01
#           2.01850E-01  2.06761E-01  2.11792E-01  2.16945E-01  2.22223E-01
#           2.27630E-01  2.33169E-01  2.38842E-01  2.44653E-01  2.50605E-01
#           2.56703E-01  2.62949E-01  2.69346E-01  2.75900E-01  2.82613E-01
#           2.89489E-01  2.96532E-01  3.03747E-01  3.11138E-01  3.18708E-01
#           3.26462E-01  3.34405E-01  3.42542E-01  3.50876E-01  3.59413E-01
#           3.68158E-01  3.77116E-01  3.86291E-01  3.95690E-01  4.05317E-01
#           4.15179E-01  4.25281E-01  4.35628E-01  4.46227E-01  4.57084E-01
#           4.68205E-01  4.79597E-01  4.91266E-01  5.03219E-01  5.15463E-01
#           5.28005E-01  5.40851E-01  5.54011E-01  5.67490E-01  5.81298E-01
#           5.95441E-01  6.09929E-01  6.24769E-01  6.39970E-01  6.55541E-01
#           6.71491E-01  6.87828E-01  7.04564E-01  7.21706E-01  7.39266E-01
#           7.57253E-01  7.75678E-01  7.94551E-01  8.13883E-01  8.33685E-01
#           8.53969E-01  8.74747E-01  8.96030E-01  9.17831E-01  9.40163E-01
#           9.63038E-01  9.86469E-01  1.01047E+00  1.03506E+00  1.06024E+00
#           1.08604E+00  1.11246E+00  1.13953E+00  1.16725E+00  1.19565E+00
#           1.22474E+00  1.25454E+00  1.28507E+00  1.31633E+00  1.34836E+00
#           1.38117E+00  1.41477E+00  1.44920E+00  1.48446E+00  1.52057E+00
#           1.55757E+00  1.59547E+00  1.63429E+00  1.67405E+00  1.71478E+00
#           1.75650E+00  1.79924E+00  1.84302E+00  1.88786E+00  1.93379E+00
#           1.98084E+00  2.02904E+00  2.07841E+00  2.12898E+00  2.18078E+00
#           2.23384E+00  2.28819E+00  2.34386E+00  2.40089E+00  2.45930E+00
#           2.51914E+00  2.58043E+00  2.64322E+00  2.70753E+00  2.77341E+00
#           2.84088E+00  2.91001E+00  2.98081E+00  3.05333E+00  3.12762E+00
#           3.20372E+00  3.28167E+00  3.36152E+00  3.44330E+00  3.52708E+00
#           3.61290E+00  3.70080E+00  3.79085E+00  3.88308E+00  3.97756E+00
#           4.07434E+00  4.17347E+00  4.27501E+00  4.37903E+00  4.48557E+00
#           4.59471E+00  4.70650E+00  4.82102E+00  4.93832E+00  5.05847E+00
#           5.18155E+00  5.30762E+00  5.43676E+00  5.56904E+00  5.70453E+00
#           5.84333E+00  5.98550E+00  6.13114E+00  6.28031E+00  6.43312E+00
#           6.58964E+00  6.74997E+00  6.91420E+00  7.08243E+00  7.25475E+00
#           7.43126E+00  7.61207E+00  7.79728E+00  7.98700E+00  8.18133E+00
#           8.38038E+00  8.58428E+00  8.79315E+00  9.00709E+00  9.22624E+00
#           9.45072E+00  9.68067E+00  9.91620E+00  1.01575E+01  1.04046E+01
#           1.06578E+01  1.09171E+01  1.11827E+01  1.14548E+01  1.17335E+01
#           1.20190E+01  1.23114E+01  1.26109E+01  1.29178E+01  1.32321E+01
#           1.35540E+01  1.38838E+01  1.42216E+01  1.45676E+01  1.49221E+01
#           1.52851E+01  1.56570E+01  1.60380E+01  1.64282E+01  1.68279E+01
#           1.72374E+01  1.76568E+01  1.80864E+01  1.85264E+01  1.89772E+01
#           1.94389E+01  1.99119E+01  2.03963E+01  2.08926E+01  2.14009E+01
#           2.19216E+01  2.24550E+01  2.30014E+01  2.35610E+01  2.41343E+01
#           2.47215E+01  2.53230E+01  2.59391E+01  2.65702E+01  2.72167E+01
#           2.78789E+01  2.85572E+01  2.92520E+01  2.99637E+01  3.06928E+01
#           3.14396E+01  3.22045E+01  3.29881E+01  3.37907E+01  3.46128E+01
#           3.54550E+01  3.63177E+01  3.72013E+01  3.81064E+01  3.90336E+01
#           3.99833E+01  4.09561E+01  4.19526E+01  4.29734E+01  4.40189E+01
#           4.50900E+01  4.61870E+01  4.73108E+01  4.84619E+01  4.96410E+01
#           5.08488E+01  5.20860E+01  5.33533E+01  5.46514E+01  5.59812E+01
#           5.73432E+01  5.87384E+01  6.01676E+01  6.16315E+01  6.31311E+01
#           6.46671E+01  6.62405E+01  6.78522E+01  6.95031E+01  7.11941E+01
#           7.29263E+01  7.47007E+01  7.65182E+01  7.83800E+01  8.02870E+01
#           8.22405E+01  8.42414E+01  8.62911E+01  8.83906E+01  9.05412E+01
#           9.27442E+01  9.50007E+01  9.73122E+01  9.96799E+01  1.02105E+02
#           1.04589E+02  1.07134E+02  1.09741E+02  1.12411E+02  1.15146E+02
#           1.17948E+02  1.20817E+02  1.23757E+02  1.26768E+02  1.29852E+02
#           1.33012E+02  1.36248E+02  1.39563E+02  1.42959E+02  1.46437E+02
#           1.50000E+02
     unit =    2            # unit is [1/cm^2/(MeV/n)/source]
     axis =  eng            # axis of output
     file = detector-11.out  # file name of output for the above axis
   output = f-curr          # surface crossing forward current spectrum
     part =  neutron  
# kf/name :  2112     
#    used :        main (  %)        temp (  %)       total (  %)
#  memory :         414 (  0)           0 (  0)         414 (  0)

#------------------------------------------------------------------------------
#newpage:
#   no. =    1   reg = 110 - 210

x: Energy [MeV/n]
y:  F-Curr [1/cm^2/(MeV/n)/source]         
p: xlog ylog afac(0.8) form(0.9)
h: n            x            y(neutron ),hh0l   n 
#  e-lower      e-upper      neutron     r.err 
   1.0000E-02   1.0243E-02   7.0692E-05  0.1078
   1.0243E-02   1.0493E-02   5.6174E-05  0.1195
   1.0493E-02   1.0748E-02   6.7374E-05  0.1078
   1.0748E-02   1.1009E-02   7.4951E-05  0.1010
   1.1009E-02   1.1277E-02   7.3918E-05  0.1005
   1.1277E-02   1.1552E-02   6.4144E-05  0.1066
   1.1552E-02   1.1833E-02   7.9699E-05  0.0945
   1.1833E-02   1.2121E-02   6.2522E-05  0.1054
   1.2121E-02   1.2415E-02   6.9175E-05  0.0990
   1.2415E-02   1.2718E-02   6.9519E-05  0.0976
   1.2718E-02   1.3027E-02   7.9502E-05  0.0902
   1.3027E-02   1.3344E-02   6.4993E-05  0.0985
   1.3344E-02   1.3669E-02   6.7762E-05  0.0953
   1.3669E-02   1.4001E-02   7.6376E-05  0.0887
   1.4001E-02   1.4342E-02   8.1607E-05  0.0848
   1.4342E-02   1.4691E-02   6.6486E-05  0.0928
   1.4691E-02   1.5048E-02   6.4347E-05  0.0933
   1.5048E-02   1.5414E-02   6.1180E-05  0.0945
   1.5414E-02   1.5789E-02   7.1459E-05  0.0864
   1.5789E-02   1.6174E-02   6.0390E-05  0.0928
   1.6174E-02   1.6567E-02   6.7088E-05  0.0870
   1.6567E-02   1.6970E-02   7.0952E-05  0.0836
   1.6970E-02   1.7383E-02   7.1204E-05  0.0825
   1.7383E-02   1.7806E-02   6.8567E-05  0.0830
   1.7806E-02   1.8239E-02   6.7862E-05  0.0825
   1.8239E-02   1.8683E-02   6.7602E-05  0.0816
   1.8683E-02   1.9138E-02   6.7316E-05  0.0808
   1.9138E-02   1.9603E-02   6.4858E-05  0.0814
   1.9603E-02   2.0080E-02   6.7930E-05  0.0786
   2.0080E-02   2.0569E-02   6.3451E-05  0.0803
   2.0569E-02   2.1069E-02   7.3933E-05  0.0735
   2.1069E-02   2.1582E-02   6.7105E-05  0.0762
   2.1582E-02   2.2107E-02   6.9701E-05  0.0739
   2.2107E-02   2.2645E-02   6.8417E-05  0.0737
   2.2645E-02   2.3196E-02   5.9895E-05  0.0778
   2.3196E-02   2.3760E-02   6.2725E-05  0.0752
   2.3760E-02   2.4338E-02   7.1614E-05  0.0695
   2.4338E-02   2.4930E-02   6.7211E-05  0.0709
   2.4930E-02   2.5537E-02   6.4625E-05  0.0714
   2.5537E-02   2.6158E-02   7.1137E-05  0.0673
   2.6158E-02   2.6795E-02   6.2534E-05  0.0709
   2.6795E-02   2.7447E-02   5.8595E-05  0.0724
   2.7447E-02   2.8114E-02   6.5589E-05  0.0676
   2.8114E-02   2.8799E-02   6.2276E-05  0.0685
   2.8799E-02   2.9499E-02   7.2214E-05  0.0629
   2.9499E-02   3.0217E-02   6.4090E-05  0.0659
   3.0217E-02   3.0952E-02   6.7192E-05  0.0636
   3.0952E-02   3.1705E-02   6.9846E-05  0.0617
   3.1705E-02   3.2477E-02   5.9112E-05  0.0662
   3.2477E-02   3.3267E-02   6.5808E-05  0.0620
   3.3267E-02   3.4076E-02   6.3009E-05  0.0626
   3.4076E-02   3.4905E-02   6.3442E-05  0.0617
   3.4905E-02   3.5755E-02   7.0178E-05  0.0579
   3.5755E-02   3.6625E-02   6.5752E-05  0.0591
   3.6625E-02   3.7516E-02   6.2843E-05  0.0598
   3.7516E-02   3.8428E-02   6.9019E-05  0.0563
   3.8428E-02   3.9363E-02   7.1230E-05  0.0548
   3.9363E-02   4.0321E-02   6.5988E-05  0.0563
   4.0321E-02   4.1302E-02   6.6052E-05  0.0556
   4.1302E-02   4.2307E-02   6.5478E-05  0.0551
   4.2307E-02   4.3337E-02   6.3729E-05  0.0552
   4.3337E-02   4.4391E-02   6.6388E-05  0.0535
   4.4391E-02   4.5471E-02   6.5922E-05  0.0530
   4.5471E-02   4.6577E-02   6.6525E-05  0.0521
   4.6577E-02   4.7711E-02   6.5828E-05  0.0518
   4.7711E-02   4.8871E-02   6.5298E-05  0.0514
   4.8871E-02   5.0061E-02   6.9465E-05  0.0492
   5.0061E-02   5.1279E-02   6.3546E-05  0.0508
   5.1279E-02   5.2526E-02   6.7006E-05  0.0489
   5.2526E-02   5.3804E-02   5.9624E-05  0.0512
   5.3804E-02   5.5113E-02   6.0041E-05  0.0504
   5.5113E-02   5.6454E-02   6.8012E-05  0.0468
   5.6454E-02   5.7828E-02   6.2756E-05  0.0482
   5.7828E-02   5.9235E-02   7.0505E-05  0.0449
   5.9235E-02   6.0676E-02   6.4112E-05  0.0465
   6.0676E-02   6.2152E-02   6.9498E-05  0.0442
   6.2152E-02   6.3665E-02   6.8906E-05  0.0438
   6.3665E-02   6.5214E-02   6.6494E-05  0.0441
   6.5214E-02   6.6800E-02   6.3528E-05  0.0445
   6.6800E-02   6.8426E-02   7.1371E-05  0.0415
   6.8426E-02   7.0090E-02   6.5471E-05  0.0428
   7.0090E-02   7.1796E-02   6.8842E-05  0.0413
   7.1796E-02   7.3543E-02   6.8352E-05  0.0409
   7.3543E-02   7.5332E-02   6.2145E-05  0.0424
   7.5332E-02   7.7165E-02   6.2633E-05  0.0417
   7.7165E-02   7.9042E-02   6.6579E-05  0.0400
   7.9042E-02   8.0965E-02   6.8117E-05  0.0391
   8.0965E-02   8.2935E-02   6.6296E-05  0.0391
   8.2935E-02   8.4953E-02   6.1252E-05  0.0402
   8.4953E-02   8.7020E-02   6.6087E-05  0.0383
   8.7020E-02   8.9138E-02   6.6878E-05  0.0376
   8.9138E-02   9.1306E-02   6.3169E-05  0.0382
   9.1306E-02   9.3528E-02   6.8150E-05  0.0363
   9.3528E-02   9.5804E-02   6.8817E-05  0.0357
   9.5804E-02   9.8134E-02   6.6582E-05  0.0359
   9.8134E-02   1.0052E-01   7.1031E-05  0.0343
   1.0052E-01   1.0297E-01   6.8853E-05  0.0345
   1.0297E-01   1.0547E-01   6.2907E-05  0.0356
   1.0547E-01   1.0804E-01   6.9674E-05  0.0334
   1.0804E-01   1.1067E-01   6.9845E-05  0.0330
   1.1067E-01   1.1336E-01   6.7740E-05  0.0331
   1.1336E-01   1.1612E-01   6.8959E-05  0.0324
   1.1612E-01   1.1894E-01   7.0365E-05  0.0317
   1.1894E-01   1.2184E-01   6.7726E-05  0.0319
   1.2184E-01   1.2480E-01   6.8681E-05  0.0313
   1.2480E-01   1.2784E-01   6.5733E-05  0.0317
   1.2784E-01   1.3095E-01   6.8029E-05  0.0307
   1.3095E-01   1.3414E-01   7.1247E-05  0.0297
   1.3414E-01   1.3740E-01   6.8513E-05  0.0299
   1.3740E-01   1.4074E-01   7.4423E-05  0.0284
   1.4074E-01   1.4417E-01   7.2714E-05  0.0283
   1.4417E-01   1.4767E-01   7.1158E-05  0.0283
   1.4767E-01   1.5127E-01   7.2028E-05  0.0278
   1.5127E-01   1.5495E-01   7.1404E-05  0.0276
   1.5495E-01   1.5872E-01   7.0716E-05  0.0274
   1.5872E-01   1.6258E-01   7.3024E-05  0.0266
   1.6258E-01   1.6654E-01   6.8863E-05  0.0271
   1.6654E-01   1.7059E-01   7.1077E-05  0.0264
   1.7059E-01   1.7474E-01   7.4641E-05  0.0254
   1.7474E-01   1.7899E-01   6.9152E-05  0.0261
   1.7899E-01   1.8334E-01   6.8014E-05  0.0260
   1.8334E-01   1.8781E-01   7.2676E-05  0.0248
   1.8781E-01   1.9237E-01   7.6202E-05  0.0240
   1.9237E-01   1.9706E-01   7.1742E-05  0.0244
   1.9706E-01   2.0185E-01   7.1540E-05  0.0241
   2.0185E-01   2.0676E-01   7.4361E-05  0.0234
   2.0676E-01   2.1179E-01   7.5736E-05  0.0229
   2.1179E-01   2.1694E-01   7.5800E-05  0.0226
   2.1694E-01   2.2222E-01   7.4568E-05  0.0226
   2.2222E-01   2.2763E-01   7.5977E-05  0.0221
   2.2763E-01   2.3317E-01   7.5473E-05  0.0219
   2.3317E-01   2.3884E-01   7.5619E-05  0.0216
   2.3884E-01   2.4465E-01   7.7918E-05  0.0210
   2.4465E-01   2.5061E-01   7.7445E-05  0.0208
   2.5061E-01   2.5670E-01   7.5770E-05  0.0208
   2.5670E-01   2.6295E-01   7.7748E-05  0.0203
   2.6295E-01   2.6935E-01   7.9590E-05  0.0198
   2.6935E-01   2.7590E-01   7.6510E-05  0.0200
   2.7590E-01   2.8261E-01   7.7821E-05  0.0196
   2.8261E-01   2.8949E-01   7.9346E-05  0.0191
   2.8949E-01   2.9653E-01   7.6922E-05  0.0192
   2.9653E-01   3.0375E-01   7.9974E-05  0.0186
   3.0375E-01   3.1114E-01   8.0131E-05  0.0184
   3.1114E-01   3.1871E-01   7.8492E-05  0.0183
   3.1871E-01   3.2646E-01   7.8897E-05  0.0181
   3.2646E-01   3.3441E-01   8.0095E-05  0.0177
   3.3441E-01   3.4254E-01   8.0282E-05  0.0175
   3.4254E-01   3.5088E-01   8.0343E-05  0.0173
   3.5088E-01   3.5941E-01   8.2839E-05  0.0168
   3.5941E-01   3.6816E-01   8.2518E-05  0.0166
   3.6816E-01   3.7712E-01   7.8191E-05  0.0169
   3.7712E-01   3.8629E-01   8.4420E-05  0.0161
   3.8629E-01   3.9569E-01   8.2053E-05  0.0161
   3.9569E-01   4.0532E-01   8.4882E-05  0.0157
   4.0532E-01   4.1518E-01   8.2278E-05  0.0157
   4.1518E-01   4.2528E-01   8.1987E-05  0.0155
   4.2528E-01   4.3563E-01   8.3132E-05  0.0153
   4.3563E-01   4.4623E-01   8.5988E-05  0.0148
   4.4623E-01   4.5708E-01   8.4848E-05  0.0147
   4.5708E-01   4.6821E-01   8.4577E-05  0.0146
   4.6821E-01   4.7960E-01   8.5447E-05  0.0143
   4.7960E-01   4.9127E-01   8.6297E-05  0.0141
   4.9127E-01   5.0322E-01   8.5268E-05  0.0140
   5.0322E-01   5.1546E-01   8.2785E-05  0.0140
   5.1546E-01   5.2800E-01   8.5778E-05  0.0136
   5.2800E-01   5.4085E-01   8.6652E-05  0.0134
   5.4085E-01   5.5401E-01   8.5339E-05  0.0133
   5.5401E-01   5.6749E-01   8.7229E-05  0.0130
   5.6749E-01   5.8130E-01   8.5693E-05  0.0130
   5.8130E-01   5.9544E-01   8.5962E-05  0.0128
   5.9544E-01   6.0993E-01   8.5618E-05  0.0127
   6.0993E-01   6.2477E-01   8.7655E-05  0.0124
   6.2477E-01   6.3997E-01   8.6783E-05  0.0123
   6.3997E-01   6.5554E-01   8.9089E-05  0.0120
   6.5554E-01   6.7149E-01   8.8026E-05  0.0119
   6.7149E-01   6.8783E-01   8.9240E-05  0.0117
   6.8783E-01   7.0456E-01   8.8901E-05  0.0116
   7.0456E-01   7.2171E-01   8.7735E-05  0.0115
   7.2171E-01   7.3927E-01   8.9056E-05  0.0113
   7.3927E-01   7.5725E-01   8.7519E-05  0.0113
   7.5725E-01   7.7568E-01   8.6993E-05  0.0112
   7.7568E-01   7.9455E-01   8.7183E-05  0.0110
   7.9455E-01   8.1388E-01   8.8330E-05  0.0108
   8.1388E-01   8.3368E-01   8.8151E-05  0.0107
   8.3368E-01   8.5397E-01   8.7053E-05  0.0106
   8.5397E-01   8.7475E-01   8.6747E-05  0.0105
   8.7475E-01   8.9603E-01   8.8774E-05  0.0103
   8.9603E-01   9.1783E-01   8.7014E-05  0.0103
   9.1783E-01   9.4016E-01   8.7374E-05  0.0101
   9.4016E-01   9.6304E-01   8.8306E-05  0.0100
   9.6304E-01   9.8647E-01   8.5526E-05  0.0100
   9.8647E-01   1.0105E+00   8.6636E-05  0.0098
   1.0105E+00   1.0351E+00   8.5636E-05  0.0097
   1.0351E+00   1.0602E+00   8.5245E-05  0.0097
   1.0602E+00   1.0860E+00   8.4919E-05  0.0096
   1.0860E+00   1.1125E+00   8.5149E-05  0.0094
   1.1125E+00   1.1395E+00   8.4812E-05  0.0093
   1.1395E+00   1.1673E+00   8.5105E-05  0.0092
   1.1673E+00   1.1957E+00   8.4422E-05  0.0091
   1.1957E+00   1.2247E+00   8.4197E-05  0.0090
   1.2247E+00   1.2545E+00   8.3701E-05  0.0090
   1.2545E+00   1.2851E+00   8.3266E-05  0.0089
   1.2851E+00   1.3163E+00   8.2976E-05  0.0088
   1.3163E+00   1.3484E+00   8.2804E-05  0.0087
   1.3484E+00   1.3812E+00   8.1886E-05  0.0086
   1.3812E+00   1.4148E+00   8.0316E-05  0.0086
   1.4148E+00   1.4492E+00   7.9489E-05  0.0086
   1.4492E+00   1.4845E+00   7.9506E-05  0.0084
   1.4845E+00   1.5206E+00   7.7579E-05  0.0085
   1.5206E+00   1.5576E+00   7.6688E-05  0.0084
   1.5576E+00   1.5955E+00   7.6186E-05  0.0083
   1.5955E+00   1.6343E+00   7.6530E-05  0.0082
   1.6343E+00   1.6741E+00   7.3635E-05  0.0083
   1.6741E+00   1.7148E+00   7.3030E-05  0.0082
   1.7148E+00   1.7565E+00   7.1703E-05  0.0082
   1.7565E+00   1.7992E+00   6.9771E-05  0.0082
   1.7992E+00   1.8430E+00   6.9694E-05  0.0081
   1.8430E+00   1.8879E+00   6.8855E-05  0.0081
   1.8879E+00   1.9338E+00   6.5748E-05  0.0081
   1.9338E+00   1.9808E+00   6.6524E-05  0.0080
   1.9808E+00   2.0290E+00   6.3554E-05  0.0081
   2.0290E+00   2.0784E+00   6.2401E-05  0.0081
   2.0784E+00   2.1290E+00   6.1322E-05  0.0080
   2.1290E+00   2.1808E+00   6.0525E-05  0.0080
   2.1808E+00   2.2338E+00   5.9103E-05  0.0080
   2.2338E+00   2.2882E+00   5.7519E-05  0.0080
   2.2882E+00   2.3439E+00   5.6329E-05  0.0080
   2.3439E+00   2.4009E+00   5.4749E-05  0.0080
   2.4009E+00   2.4593E+00   5.2931E-05  0.0080
   2.4593E+00   2.5191E+00   5.2092E-05  0.0080
   2.5191E+00   2.5804E+00   5.0805E-05  0.0080
   2.5804E+00   2.6432E+00   4.8783E-05  0.0081
   2.6432E+00   2.7075E+00   4.7268E-05  0.0081
   2.7075E+00   2.7734E+00   4.5719E-05  0.0082
   2.7734E+00   2.8409E+00   4.4571E-05  0.0082
   2.8409E+00   2.9100E+00   4.3475E-05  0.0082
   2.9100E+00   2.9808E+00   4.2222E-05  0.0082
   2.9808E+00   3.0533E+00   4.0742E-05  0.0082
   3.0533E+00   3.1276E+00   3.9435E-05  0.0083
   3.1276E+00   3.2037E+00   3.8390E-05  0.0083
   3.2037E+00   3.2817E+00   3.6887E-05  0.0083
   3.2817E+00   3.3615E+00   3.5145E-05  0.0084
   3.3615E+00   3.4433E+00   3.4394E-05  0.0084
   3.4433E+00   3.5271E+00   3.2734E-05  0.0085
   3.5271E+00   3.6129E+00   3.2136E-05  0.0085
   3.6129E+00   3.7008E+00   3.0830E-05  0.0086
   3.7008E+00   3.7908E+00   2.9521E-05  0.0087
   3.7908E+00   3.8831E+00   2.8397E-05  0.0087
   3.8831E+00   3.9776E+00   2.7440E-05  0.0088
   3.9776E+00   4.0743E+00   2.6333E-05  0.0089
   4.0743E+00   4.1735E+00   2.5099E-05  0.0090
   4.1735E+00   4.2750E+00   2.4288E-05  0.0090
   4.2750E+00   4.3790E+00   2.2941E-05  0.0092
   4.3790E+00   4.4856E+00   2.1879E-05  0.0093
   4.4856E+00   4.5947E+00   2.0844E-05  0.0094
   4.5947E+00   4.7065E+00   2.0023E-05  0.0095
   4.7065E+00   4.8210E+00   1.9331E-05  0.0095
   4.8210E+00   4.9383E+00   1.8171E-05  0.0097
   4.9383E+00   5.0585E+00   1.7598E-05  0.0097
   5.0585E+00   5.1815E+00   1.6473E-05  0.0099
   5.1815E+00   5.3076E+00   1.5954E-05  0.0100
   5.3076E+00   5.4368E+00   1.5255E-05  0.0101
   5.4368E+00   5.5690E+00   1.4329E-05  0.0103
   5.5690E+00   5.7045E+00   1.3526E-05  0.0104
   5.7045E+00   5.8433E+00   1.3095E-05  0.0105
   5.8433E+00   5.9855E+00   1.2628E-05  0.0106
   5.9855E+00   6.1311E+00   1.1953E-05  0.0107
   6.1311E+00   6.2803E+00   1.1273E-05  0.0109
   6.2803E+00   6.4331E+00   1.0439E-05  0.0112
   6.4331E+00   6.5896E+00   1.0279E-05  0.0112
   6.5896E+00   6.7500E+00   9.8490E-06  0.0113
   6.7500E+00   6.9142E+00   9.2698E-06  0.0115
   6.9142E+00   7.0824E+00   8.6133E-06  0.0117
   7.0824E+00   7.2548E+00   8.4946E-06  0.0117
   7.2548E+00   7.4313E+00   7.9591E-06  0.0119
   7.4313E+00   7.6121E+00   7.5494E-06  0.0121
   7.6121E+00   7.7973E+00   7.3188E-06  0.0121
   7.7973E+00   7.9870E+00   6.6321E-06  0.0126
   7.9870E+00   8.1813E+00   6.4066E-06  0.0127
   8.1813E+00   8.3804E+00   6.0897E-06  0.0128
   8.3804E+00   8.5843E+00   5.7317E-06  0.0131
   8.5843E+00   8.7931E+00   5.6209E-06  0.0131
   8.7931E+00   9.0071E+00   5.3103E-06  0.0133
   9.0071E+00   9.2262E+00   5.0682E-06  0.0134
   9.2262E+00   9.4507E+00   4.6886E-06  0.0138
   9.4507E+00   9.6807E+00   4.5128E-06  0.0139
   9.6807E+00   9.9162E+00   4.2622E-06  0.0141
   9.9162E+00   1.0157E+01   4.1472E-06  0.0141
   1.0157E+01   1.0405E+01   3.9520E-06  0.0143
   1.0405E+01   1.0658E+01   3.6942E-06  0.0146
   1.0658E+01   1.0917E+01   3.6489E-06  0.0145
   1.0917E+01   1.1183E+01   3.4530E-06  0.0148
   1.1183E+01   1.1455E+01   3.2957E-06  0.0149
   1.1455E+01   1.1733E+01   3.1822E-06  0.0150
   1.1733E+01   1.2019E+01   3.0086E-06  0.0153
   1.2019E+01   1.2311E+01   2.8085E-06  0.0156
   1.2311E+01   1.2611E+01   2.7335E-06  0.0156
   1.2611E+01   1.2918E+01   2.5818E-06  0.0159
   1.2918E+01   1.3232E+01   2.5253E-06  0.0159
   1.3232E+01   1.3554E+01   2.4203E-06  0.0160
   1.3554E+01   1.3884E+01   2.2864E-06  0.0163
   1.3884E+01   1.4222E+01   2.1285E-06  0.0167
   1.4222E+01   1.4568E+01   2.0397E-06  0.0168
   1.4568E+01   1.4922E+01   1.8570E-06  0.0174
   1.4922E+01   1.5285E+01   1.7854E-06  0.0176
   1.5285E+01   1.5657E+01   1.6184E-06  0.0182
   1.5657E+01   1.6038E+01   1.5367E-06  0.0185
   1.6038E+01   1.6428E+01   1.4853E-06  0.0186
   1.6428E+01   1.6828E+01   1.3795E-06  0.0190
   1.6828E+01   1.7237E+01   1.2622E-06  0.0197
   1.7237E+01   1.7657E+01   1.1826E-06  0.0201
   1.7657E+01   1.8086E+01   1.0968E-06  0.0206
   1.8086E+01   1.8526E+01   1.0440E-06  0.0209
   1.8526E+01   1.8977E+01   9.6326E-07  0.0215
   1.8977E+01   1.9439E+01   8.5245E-07  0.0225
   1.9439E+01   1.9912E+01   7.7934E-07  0.0233
   1.9912E+01   2.0396E+01   7.6826E-07  0.0232
   2.0396E+01   2.0893E+01   6.9440E-07  0.0241
   2.0893E+01   2.1401E+01   6.4367E-07  0.0247
   2.1401E+01   2.1922E+01   6.0265E-07  0.0252
   2.1922E+01   2.2455E+01   5.1596E-07  0.0270
   2.2455E+01   2.3001E+01   4.6161E-07  0.0282
   2.3001E+01   2.3561E+01   3.9811E-07  0.0300
   2.3561E+01   2.4134E+01   3.3004E-07  0.0325
   2.4134E+01   2.4721E+01   2.5136E-07  0.0368
   2.4721E+01   2.5323E+01   1.9817E-07  0.0410
   2.5323E+01   2.5939E+01   1.3471E-07  0.0491
   2.5939E+01   2.6570E+01   7.0668E-08  0.0670
   2.6570E+01   2.7217E+01   1.9490E-08  0.1260
   2.7217E+01   2.7879E+01   3.0202E-09  0.3162
   2.7879E+01   2.8557E+01   0.0000E+00  0.0000
   2.8557E+01   2.9252E+01   0.0000E+00  0.0000
   2.9252E+01   2.9964E+01   0.0000E+00  0.0000
   2.9964E+01   3.0693E+01   0.0000E+00  0.0000
   3.0693E+01   3.1440E+01   0.0000E+00  0.0000
   3.1440E+01   3.2205E+01   0.0000E+00  0.0000
   3.2205E+01   3.2988E+01   0.0000E+00  0.0000
   3.2988E+01   3.3791E+01   0.0000E+00  0.0000
   3.3791E+01   3.4613E+01   0.0000E+00  0.0000
   3.4613E+01   3.5455E+01   0.0000E+00  0.0000
   3.5455E+01   3.6318E+01   0.0000E+00  0.0000
   3.6318E+01   3.7201E+01   0.0000E+00  0.0000
   3.7201E+01   3.8106E+01   0.0000E+00  0.0000
   3.8106E+01   3.9034E+01   0.0000E+00  0.0000
   3.9034E+01   3.9983E+01   0.0000E+00  0.0000
   3.9983E+01   4.0956E+01   0.0000E+00  0.0000
   4.0956E+01   4.1953E+01   0.0000E+00  0.0000
   4.1953E+01   4.2973E+01   0.0000E+00  0.0000
   4.2973E+01   4.4019E+01   0.0000E+00  0.0000
   4.4019E+01   4.5090E+01   0.0000E+00  0.0000
   4.5090E+01   4.6187E+01   0.0000E+00  0.0000
   4.6187E+01   4.7311E+01   0.0000E+00  0.0000
   4.7311E+01   4.8462E+01   0.0000E+00  0.0000
   4.8462E+01   4.9641E+01   0.0000E+00  0.0000
   4.9641E+01   5.0849E+01   0.0000E+00  0.0000
   5.0849E+01   5.2086E+01   0.0000E+00  0.0000
   5.2086E+01   5.3353E+01   0.0000E+00  0.0000
   5.3353E+01   5.4651E+01   0.0000E+00  0.0000
   5.4651E+01   5.5981E+01   0.0000E+00  0.0000
   5.5981E+01   5.7343E+01   0.0000E+00  0.0000
   5.7343E+01   5.8738E+01   0.0000E+00  0.0000
   5.8738E+01   6.0168E+01   0.0000E+00  0.0000
   6.0168E+01   6.1632E+01   0.0000E+00  0.0000
   6.1632E+01   6.3131E+01   0.0000E+00  0.0000
   6.3131E+01   6.4667E+01   0.0000E+00  0.0000
   6.4667E+01   6.6240E+01   0.0000E+00  0.0000
   6.6240E+01   6.7852E+01   0.0000E+00  0.0000
   6.7852E+01   6.9503E+01   0.0000E+00  0.0000
   6.9503E+01   7.1194E+01   0.0000E+00  0.0000
   7.1194E+01   7.2926E+01   0.0000E+00  0.0000
   7.2926E+01   7.4701E+01   0.0000E+00  0.0000
   7.4701E+01   7.6518E+01   0.0000E+00  0.0000
   7.6518E+01   7.8380E+01   0.0000E+00  0.0000
   7.8380E+01   8.0287E+01   0.0000E+00  0.0000
   8.0287E+01   8.2240E+01   0.0000E+00  0.0000
   8.2240E+01   8.4241E+01   0.0000E+00  0.0000
   8.4241E+01   8.6291E+01   0.0000E+00  0.0000
   8.6291E+01   8.8391E+01   0.0000E+00  0.0000
   8.8391E+01   9.0541E+01   0.0000E+00  0.0000
   9.0541E+01   9.2744E+01   0.0000E+00  0.0000
   9.2744E+01   9.5001E+01   0.0000E+00  0.0000
   9.5001E+01   9.7312E+01   0.0000E+00  0.0000
   9.7312E+01   9.9680E+01   0.0000E+00  0.0000
   9.9680E+01   1.0211E+02   0.0000E+00  0.0000
   1.0211E+02   1.0459E+02   0.0000E+00  0.0000
   1.0459E+02   1.0713E+02   0.0000E+00  0.0000
   1.0713E+02   1.0974E+02   0.0000E+00  0.0000
   1.0974E+02   1.1241E+02   0.0000E+00  0.0000
   1.1241E+02   1.1515E+02   0.0000E+00  0.0000
   1.1515E+02   1.1795E+02   0.0000E+00  0.0000
   1.1795E+02   1.2082E+02   0.0000E+00  0.0000
   1.2082E+02   1.2376E+02   0.0000E+00  0.0000
   1.2376E+02   1.2677E+02   0.0000E+00  0.0000
   1.2677E+02   1.2985E+02   0.0000E+00  0.0000
   1.2985E+02   1.3301E+02   0.0000E+00  0.0000
   1.3301E+02   1.3625E+02   0.0000E+00  0.0000
   1.3625E+02   1.3956E+02   0.0000E+00  0.0000
   1.3956E+02   1.4296E+02   0.0000E+00  0.0000
   1.4296E+02   1.4644E+02   0.0000E+00  0.0000
   1.4644E+02   1.5000E+02   0.0000E+00  0.0000

#   sum over                 2.2025E-06
'no. =    1   reg = 110 - 210'
msuc: {\huge [t-cross] in region mesh}
msdr: {\it plotted by \ANGEL \version}
msdl: {\it calculated by \PHITS  3.26}
wt: s(0.7)
\vspace{-3}
  region surface crossing
  area  &=&   1.0000E+00 [cm^2]
e:
 
# Information for Restart Calculation
# This calculation was newly started
# istdev =  2 # 1:Batch variance, 2:History variance
# resc2  = 5.00000000000000000E+09 # Total source weight or Total source weight / maxcas
# resc3  = 5.00000000000000000E+09 # Total history number or Total batch number
# maxcas =   500000000 # History / Batch, only used for istdev=1
# bitrseed = 0110100000100010111000001110001111001110100100011111101000111001 # bit data of rseed
