0 <--- number of remaining batches 

-------------------------------------------------------------------------------
bat[      10] ncas =     5000000000.
 bitrseed = 0001011101011011011000011100010110101100100111100111010011101011
          cpu time =   8 h. 21 m.  9.73 s.

 date = 2022-05-22
 time = 14h 40m 40s

