[ T-Cross ]
    title = [t-cross] in region mesh
     mesh =  reg            # mesh type is region-wise
      reg =    1            # number of crossing regions
      non     r-from    r-to       area
      1       115       215        1.000000    
   e-type =    3            # e-mesh is log given by emin, emax and ne
     emin =  1.0000000E-02  # minimum value of e-mesh points
     emax =   150.0000      # maximum value of e-mesh points
#    edel =  2.4039514E-02  # mesh width of e-mesh points
       ne =    400          # number of e-mesh points
#    data = ( e(i), i = 1, ne + 1 )
#           1.00000E-02  1.02433E-02  1.04925E-02  1.07478E-02  1.10093E-02
#           1.12772E-02  1.15516E-02  1.18326E-02  1.21205E-02  1.24154E-02
#           1.27175E-02  1.30269E-02  1.33439E-02  1.36686E-02  1.40011E-02
#           1.43418E-02  1.46907E-02  1.50482E-02  1.54143E-02  1.57894E-02
#           1.61735E-02  1.65670E-02  1.69701E-02  1.73830E-02  1.78060E-02
#           1.82392E-02  1.86830E-02  1.91375E-02  1.96032E-02  2.00801E-02
#           2.05687E-02  2.10692E-02  2.15818E-02  2.21069E-02  2.26448E-02
#           2.31957E-02  2.37601E-02  2.43382E-02  2.49304E-02  2.55369E-02
#           2.61583E-02  2.67947E-02  2.74467E-02  2.81145E-02  2.87985E-02
#           2.94992E-02  3.02169E-02  3.09521E-02  3.17052E-02  3.24766E-02
#           3.32668E-02  3.40762E-02  3.49053E-02  3.57546E-02  3.66246E-02
#           3.75157E-02  3.84284E-02  3.93634E-02  4.03212E-02  4.13022E-02
#           4.23071E-02  4.33365E-02  4.43909E-02  4.54710E-02  4.65773E-02
#           4.77106E-02  4.88714E-02  5.00605E-02  5.12785E-02  5.25262E-02
#           5.38042E-02  5.51133E-02  5.64542E-02  5.78278E-02  5.92348E-02
#           6.06760E-02  6.21523E-02  6.36645E-02  6.52135E-02  6.68002E-02
#           6.84255E-02  7.00904E-02  7.17957E-02  7.35426E-02  7.53319E-02
#           7.71648E-02  7.90423E-02  8.09655E-02  8.29354E-02  8.49533E-02
#           8.70203E-02  8.91376E-02  9.13064E-02  9.35279E-02  9.58035E-02
#           9.81345E-02  1.00522E-01  1.02968E-01  1.05473E-01  1.08040E-01
#           1.10668E-01  1.13361E-01  1.16119E-01  1.18944E-01  1.21838E-01
#           1.24803E-01  1.27839E-01  1.30950E-01  1.34136E-01  1.37399E-01
#           1.40742E-01  1.44167E-01  1.47675E-01  1.51268E-01  1.54948E-01
#           1.58718E-01  1.62580E-01  1.66535E-01  1.70587E-01  1.74738E-01
#           1.78989E-01  1.83344E-01  1.87805E-01  1.92375E-01  1.97055E-01
#           2.01850E-01  2.06761E-01  2.11792E-01  2.16945E-01  2.22223E-01
#           2.27630E-01  2.33169E-01  2.38842E-01  2.44653E-01  2.50605E-01
#           2.56703E-01  2.62949E-01  2.69346E-01  2.75900E-01  2.82613E-01
#           2.89489E-01  2.96532E-01  3.03747E-01  3.11138E-01  3.18708E-01
#           3.26462E-01  3.34405E-01  3.42542E-01  3.50876E-01  3.59413E-01
#           3.68158E-01  3.77116E-01  3.86291E-01  3.95690E-01  4.05317E-01
#           4.15179E-01  4.25281E-01  4.35628E-01  4.46227E-01  4.57084E-01
#           4.68205E-01  4.79597E-01  4.91266E-01  5.03219E-01  5.15463E-01
#           5.28005E-01  5.40851E-01  5.54011E-01  5.67490E-01  5.81298E-01
#           5.95441E-01  6.09929E-01  6.24769E-01  6.39970E-01  6.55541E-01
#           6.71491E-01  6.87828E-01  7.04564E-01  7.21706E-01  7.39266E-01
#           7.57253E-01  7.75678E-01  7.94551E-01  8.13883E-01  8.33685E-01
#           8.53969E-01  8.74747E-01  8.96030E-01  9.17831E-01  9.40163E-01
#           9.63038E-01  9.86469E-01  1.01047E+00  1.03506E+00  1.06024E+00
#           1.08604E+00  1.11246E+00  1.13953E+00  1.16725E+00  1.19565E+00
#           1.22474E+00  1.25454E+00  1.28507E+00  1.31633E+00  1.34836E+00
#           1.38117E+00  1.41477E+00  1.44920E+00  1.48446E+00  1.52057E+00
#           1.55757E+00  1.59547E+00  1.63429E+00  1.67405E+00  1.71478E+00
#           1.75650E+00  1.79924E+00  1.84302E+00  1.88786E+00  1.93379E+00
#           1.98084E+00  2.02904E+00  2.07841E+00  2.12898E+00  2.18078E+00
#           2.23384E+00  2.28819E+00  2.34386E+00  2.40089E+00  2.45930E+00
#           2.51914E+00  2.58043E+00  2.64322E+00  2.70753E+00  2.77341E+00
#           2.84088E+00  2.91001E+00  2.98081E+00  3.05333E+00  3.12762E+00
#           3.20372E+00  3.28167E+00  3.36152E+00  3.44330E+00  3.52708E+00
#           3.61290E+00  3.70080E+00  3.79085E+00  3.88308E+00  3.97756E+00
#           4.07434E+00  4.17347E+00  4.27501E+00  4.37903E+00  4.48557E+00
#           4.59471E+00  4.70650E+00  4.82102E+00  4.93832E+00  5.05847E+00
#           5.18155E+00  5.30762E+00  5.43676E+00  5.56904E+00  5.70453E+00
#           5.84333E+00  5.98550E+00  6.13114E+00  6.28031E+00  6.43312E+00
#           6.58964E+00  6.74997E+00  6.91420E+00  7.08243E+00  7.25475E+00
#           7.43126E+00  7.61207E+00  7.79728E+00  7.98700E+00  8.18133E+00
#           8.38038E+00  8.58428E+00  8.79315E+00  9.00709E+00  9.22624E+00
#           9.45072E+00  9.68067E+00  9.91620E+00  1.01575E+01  1.04046E+01
#           1.06578E+01  1.09171E+01  1.11827E+01  1.14548E+01  1.17335E+01
#           1.20190E+01  1.23114E+01  1.26109E+01  1.29178E+01  1.32321E+01
#           1.35540E+01  1.38838E+01  1.42216E+01  1.45676E+01  1.49221E+01
#           1.52851E+01  1.56570E+01  1.60380E+01  1.64282E+01  1.68279E+01
#           1.72374E+01  1.76568E+01  1.80864E+01  1.85264E+01  1.89772E+01
#           1.94389E+01  1.99119E+01  2.03963E+01  2.08926E+01  2.14009E+01
#           2.19216E+01  2.24550E+01  2.30014E+01  2.35610E+01  2.41343E+01
#           2.47215E+01  2.53230E+01  2.59391E+01  2.65702E+01  2.72167E+01
#           2.78789E+01  2.85572E+01  2.92520E+01  2.99637E+01  3.06928E+01
#           3.14396E+01  3.22045E+01  3.29881E+01  3.37907E+01  3.46128E+01
#           3.54550E+01  3.63177E+01  3.72013E+01  3.81064E+01  3.90336E+01
#           3.99833E+01  4.09561E+01  4.19526E+01  4.29734E+01  4.40189E+01
#           4.50900E+01  4.61870E+01  4.73108E+01  4.84619E+01  4.96410E+01
#           5.08488E+01  5.20860E+01  5.33533E+01  5.46514E+01  5.59812E+01
#           5.73432E+01  5.87384E+01  6.01676E+01  6.16315E+01  6.31311E+01
#           6.46671E+01  6.62405E+01  6.78522E+01  6.95031E+01  7.11941E+01
#           7.29263E+01  7.47007E+01  7.65182E+01  7.83800E+01  8.02870E+01
#           8.22405E+01  8.42414E+01  8.62911E+01  8.83906E+01  9.05412E+01
#           9.27442E+01  9.50007E+01  9.73122E+01  9.96799E+01  1.02105E+02
#           1.04589E+02  1.07134E+02  1.09741E+02  1.12411E+02  1.15146E+02
#           1.17948E+02  1.20817E+02  1.23757E+02  1.26768E+02  1.29852E+02
#           1.33012E+02  1.36248E+02  1.39563E+02  1.42959E+02  1.46437E+02
#           1.50000E+02
     unit =    2            # unit is [1/cm^2/(MeV/n)/source]
     axis =  eng            # axis of output
     file = detector-16.out  # file name of output for the above axis
   output = f-curr          # surface crossing forward current spectrum
     part =  neutron  
# kf/name :  2112     
#    used :        main (  %)        temp (  %)       total (  %)
#  memory :         414 (  0)           0 (  0)         414 (  0)

#------------------------------------------------------------------------------
#newpage:
#   no. =    1   reg = 115 - 215

x: Energy [MeV/n]
y:  F-Curr [1/cm^2/(MeV/n)/source]         
p: xlog ylog afac(0.8) form(0.9)
h: n            x            y(neutron ),hh0l   n 
#  e-lower      e-upper      neutron     r.err 
   1.0000E-02   1.0243E-02   1.8614E-04  0.2084
   1.0243E-02   1.0493E-02   1.7790E-04  0.2117
   1.0493E-02   1.0748E-02   2.5976E-04  0.1733
   1.0748E-02   1.1009E-02   2.0035E-04  0.1948
   1.1009E-02   1.1277E-02   2.5136E-04  0.1714
   1.1277E-02   1.1552E-02   1.8465E-04  0.1976
   1.1552E-02   1.1833E-02   2.5496E-04  0.1658
   1.1833E-02   1.2121E-02   1.6808E-04  0.2026
   1.2121E-02   1.2415E-02   1.7633E-04  0.1942
   1.2415E-02   1.2718E-02   1.8304E-04  0.1889
   1.2718E-02   1.3027E-02   1.9495E-04  0.1817
   1.3027E-02   1.3344E-02   2.1541E-04  0.1709
   1.3344E-02   1.3669E-02   2.5257E-04  0.1562
   1.3669E-02   1.4001E-02   1.8643E-04  0.1796
   1.4001E-02   1.4342E-02   1.7613E-04  0.1826
   1.4342E-02   1.4691E-02   1.5073E-04  0.1941
   1.4691E-02   1.5048E-02   2.0314E-04  0.1654
   1.5048E-02   1.5414E-02   1.6934E-04  0.1796
   1.5414E-02   1.5789E-02   1.9275E-04  0.1660
   1.5789E-02   1.6174E-02   1.4388E-04  0.1889
   1.6174E-02   1.6567E-02   1.5642E-04  0.1788
   1.6567E-02   1.6970E-02   1.4885E-04  0.1826
   1.6970E-02   1.7383E-02   1.4625E-04  0.1815
   1.7383E-02   1.7806E-02   2.0874E-04  0.1503
   1.7806E-02   1.8239E-02   1.5762E-04  0.1691
   1.8239E-02   1.8683E-02   1.7802E-04  0.1586
   1.8683E-02   1.9138E-02   1.0559E-04  0.2041
   1.9138E-02   1.9603E-02   1.3100E-04  0.1803
   1.9603E-02   2.0080E-02   1.4257E-04  0.1715
   2.0080E-02   2.0569E-02   1.4796E-04  0.1661
   2.0569E-02   2.1069E-02   1.4911E-04  0.1631
   2.1069E-02   2.1582E-02   8.8318E-05  0.2085
   2.1582E-02   2.2107E-02   1.4093E-04  0.1644
   2.2107E-02   2.2645E-02   1.4057E-04  0.1615
   2.2645E-02   2.3196E-02   1.8150E-04  0.1407
   2.3196E-02   2.3760E-02   9.2636E-05  0.1951
   2.3760E-02   2.4338E-02   1.3088E-04  0.1604
   2.4338E-02   2.4930E-02   1.0470E-04  0.1796
   2.4930E-02   2.5537E-02   9.6152E-05  0.1832
   2.5537E-02   2.6158E-02   1.2056E-04  0.1626
   2.6158E-02   2.6795E-02   1.6031E-04  0.1391
   2.6795E-02   2.7447E-02   1.5032E-04  0.1429
   2.7447E-02   2.8114E-02   1.0033E-04  0.1721
   2.8114E-02   2.8799E-02   1.0233E-04  0.1690
   2.8799E-02   2.9499E-02   1.1025E-04  0.1601
   2.9499E-02   3.0217E-02   1.1564E-04  0.1548
   3.0217E-02   3.0952E-02   1.3280E-04  0.1424
   3.0952E-02   3.1705E-02   8.9329E-05  0.1715
   3.1705E-02   3.2477E-02   1.0588E-04  0.1555
   3.2477E-02   3.3267E-02   1.1296E-04  0.1491
   3.3267E-02   3.4076E-02   7.5364E-05  0.1803
   3.4076E-02   3.4905E-02   8.5962E-05  0.1667
   3.4905E-02   3.5755E-02   9.1054E-05  0.1600
   3.5755E-02   3.6625E-02   1.0038E-04  0.1507
   3.6625E-02   3.7516E-02   1.0473E-04  0.1458
   3.7516E-02   3.8428E-02   1.1210E-04  0.1389
   3.8428E-02   3.9363E-02   7.7006E-05  0.1667
   3.9363E-02   4.0321E-02   8.0310E-05  0.1604
   4.0321E-02   4.1302E-02   6.0709E-05  0.1817
   4.1302E-02   4.2307E-02   1.0972E-04  0.1345
   4.2307E-02   4.3337E-02   8.2575E-05  0.1529
   4.3337E-02   4.4391E-02   9.0098E-05  0.1447
   4.4391E-02   4.5471E-02   4.9071E-05  0.1933
   4.5471E-02   4.6577E-02   7.1406E-05  0.1586
   4.6577E-02   4.7711E-02   7.2357E-05  0.1552
   4.7711E-02   4.8871E-02   5.7125E-05  0.1733
   4.8871E-02   5.0061E-02   6.1664E-05  0.1643
   5.0061E-02   5.1279E-02   7.5533E-05  0.1474
   5.1279E-02   5.2526E-02   4.6488E-05  0.1857
   5.2526E-02   5.3804E-02   7.0677E-05  0.1486
   5.3804E-02   5.5113E-02   7.0703E-05  0.1466
   5.5113E-02   5.6454E-02   4.7416E-05  0.1760
   5.6454E-02   5.7828E-02   7.2803E-05  0.1414
   5.7828E-02   5.9235E-02   5.6634E-05  0.1574
   5.9235E-02   6.0676E-02   6.5222E-05  0.1459
   6.0676E-02   6.2152E-02   6.9647E-05  0.1390
   6.2152E-02   6.3665E-02   7.2301E-05  0.1348
   6.3665E-02   6.5214E-02   7.8760E-05  0.1280
   6.5214E-02   6.6800E-02   6.5545E-05  0.1387
   6.6800E-02   6.8426E-02   5.0635E-05  0.1557
   6.8426E-02   7.0090E-02   7.1418E-05  0.1287
   7.0090E-02   7.1796E-02   5.9812E-05  0.1400
   7.1796E-02   7.3543E-02   5.6293E-05  0.1424
   7.3543E-02   7.5332E-02   6.4269E-05  0.1316
   7.5332E-02   7.7165E-02   5.8168E-05  0.1366
   7.7165E-02   7.9042E-02   5.5147E-05  0.1383
   7.9042E-02   8.0965E-02   5.1478E-05  0.1418
   8.0965E-02   8.2935E-02   5.8026E-05  0.1321
   8.2935E-02   8.4953E-02   4.1933E-05  0.1533
   8.4953E-02   8.7020E-02   4.8380E-05  0.1414
   8.7020E-02   8.9138E-02   6.4234E-05  0.1213
   8.9138E-02   9.1306E-02   5.9615E-05  0.1240
   9.1306E-02   9.3528E-02   5.1191E-05  0.1320
   9.3528E-02   9.5804E-02   5.4491E-05  0.1270
   9.5804E-02   9.8134E-02   4.5869E-05  0.1363
   9.8134E-02   1.0052E-01   4.7745E-05  0.1325
   1.0052E-01   1.0297E-01   4.1412E-05  0.1400
   1.0297E-01   1.0547E-01   3.5782E-05  0.1485
   1.0547E-01   1.0804E-01   4.9468E-05  0.1251
   1.0804E-01   1.1067E-01   4.4469E-05  0.1298
   1.1067E-01   1.1336E-01   4.2928E-05  0.1310
   1.1336E-01   1.1612E-01   4.0244E-05  0.1339
   1.1612E-01   1.1894E-01   4.5268E-05  0.1244
   1.1894E-01   1.2184E-01   3.9469E-05  0.1314
   1.2184E-01   1.2480E-01   3.4956E-05  0.1382
   1.2480E-01   1.2784E-01   3.3028E-05  0.1410
   1.2784E-01   1.3095E-01   3.4921E-05  0.1354
   1.3095E-01   1.3414E-01   3.5878E-05  0.1315
   1.3414E-01   1.3740E-01   3.5636E-05  0.1310
   1.3740E-01   1.4074E-01   3.9259E-05  0.1225
   1.4074E-01   1.4417E-01   3.5726E-05  0.1272
   1.4417E-01   1.4767E-01   3.7734E-05  0.1223
   1.4767E-01   1.5127E-01   3.3120E-05  0.1294
   1.5127E-01   1.5495E-01   3.5945E-05  0.1228
   1.5495E-01   1.5872E-01   4.6684E-05  0.1066
   1.5872E-01   1.6258E-01   3.2713E-05  0.1257
   1.6258E-01   1.6654E-01   3.5572E-05  0.1190
   1.6654E-01   1.7059E-01   3.2330E-05  0.1233
   1.7059E-01   1.7474E-01   2.4731E-05  0.1385
   1.7474E-01   1.7899E-01   3.2535E-05  0.1201
   1.7899E-01   1.8334E-01   2.3486E-05  0.1390
   1.8334E-01   1.8781E-01   2.8839E-05  0.1239
   1.8781E-01   1.9237E-01   3.4535E-05  0.1118
   1.9237E-01   1.9706E-01   3.0751E-05  0.1174
   1.9706E-01   2.0185E-01   3.1982E-05  0.1139
   2.0185E-01   2.0676E-01   2.8647E-05  0.1186
   2.0676E-01   2.1179E-01   2.3655E-05  0.1294
   2.1179E-01   2.1694E-01   3.0974E-05  0.1116
   2.1694E-01   2.2222E-01   3.8135E-05  0.0995
   2.2222E-01   2.2763E-01   3.2194E-05  0.1068
   2.2763E-01   2.3317E-01   3.0027E-05  0.1096
   2.3317E-01   2.3884E-01   3.5536E-05  0.0993
   2.3884E-01   2.4465E-01   3.5504E-05  0.0982
   2.4465E-01   2.5061E-01   3.1671E-05  0.1024
   2.5061E-01   2.5670E-01   3.2614E-05  0.0998
   2.5670E-01   2.6295E-01   3.8389E-05  0.0910
   2.6295E-01   2.6935E-01   3.9513E-05  0.0886
   2.6935E-01   2.7590E-01   4.2157E-05  0.0847
   2.7590E-01   2.8261E-01   3.1655E-05  0.0966
   2.8261E-01   2.8949E-01   4.2650E-05  0.0823
   2.8949E-01   2.9653E-01   4.3629E-05  0.0804
   2.9653E-01   3.0375E-01   4.2505E-05  0.0804
   3.0375E-01   3.1114E-01   4.4677E-05  0.0774
   3.1114E-01   3.1871E-01   4.2910E-05  0.0782
   3.1871E-01   3.2646E-01   5.1602E-05  0.0705
   3.2646E-01   3.3441E-01   4.8280E-05  0.0719
   3.3441E-01   3.4254E-01   4.4146E-05  0.0742
   3.4254E-01   3.5088E-01   4.2475E-05  0.0751
   3.5088E-01   3.5941E-01   5.1692E-05  0.0672
   3.5941E-01   3.6816E-01   5.3124E-05  0.0654
   3.6816E-01   3.7712E-01   4.9295E-05  0.0670
   3.7712E-01   3.8629E-01   5.5532E-05  0.0624
   3.8629E-01   3.9569E-01   5.3812E-05  0.0627
   3.9569E-01   4.0532E-01   5.7393E-05  0.0599
   4.0532E-01   4.1518E-01   5.6401E-05  0.0597
   4.1518E-01   4.2528E-01   5.9504E-05  0.0574
   4.2528E-01   4.3563E-01   6.1953E-05  0.0557
   4.3563E-01   4.4623E-01   5.8569E-05  0.0565
   4.4623E-01   4.5708E-01   6.4427E-05  0.0533
   4.5708E-01   4.6821E-01   5.7147E-05  0.0559
   4.6821E-01   4.7960E-01   6.3730E-05  0.0523
   4.7960E-01   4.9127E-01   6.4854E-05  0.0512
   4.9127E-01   5.0322E-01   6.0598E-05  0.0524
   5.0322E-01   5.1546E-01   6.5008E-05  0.0499
   5.1546E-01   5.2800E-01   6.7040E-05  0.0486
   5.2800E-01   5.4085E-01   6.7223E-05  0.0478
   5.4085E-01   5.5401E-01   7.1171E-05  0.0460
   5.5401E-01   5.6749E-01   6.6869E-05  0.0469
   5.6749E-01   5.8130E-01   6.3549E-05  0.0475
   5.8130E-01   5.9544E-01   6.6808E-05  0.0458
   5.9544E-01   6.0993E-01   6.5314E-05  0.0457
   6.0993E-01   6.2477E-01   6.5908E-05  0.0449
   6.2477E-01   6.3997E-01   6.7888E-05  0.0437
   6.3997E-01   6.5554E-01   7.0505E-05  0.0425
   6.5554E-01   6.7149E-01   7.1598E-05  0.0417
   6.7149E-01   6.8783E-01   7.1652E-05  0.0412
   6.8783E-01   7.0456E-01   6.5221E-05  0.0425
   7.0456E-01   7.2171E-01   7.7164E-05  0.0387
   7.2171E-01   7.3927E-01   6.9386E-05  0.0402
   7.3927E-01   7.5725E-01   6.9673E-05  0.0397
   7.5725E-01   7.7568E-01   6.9387E-05  0.0393
   7.7568E-01   7.9455E-01   7.3936E-05  0.0376
   7.9455E-01   8.1388E-01   6.8576E-05  0.0386
   8.1388E-01   8.3368E-01   7.2205E-05  0.0372
   8.3368E-01   8.5397E-01   7.0177E-05  0.0373
   8.5397E-01   8.7475E-01   6.5911E-05  0.0380
   8.7475E-01   8.9603E-01   6.3812E-05  0.0381
   8.9603E-01   9.1783E-01   6.5366E-05  0.0372
   9.1783E-01   9.4016E-01   6.5338E-05  0.0368
   9.4016E-01   9.6304E-01   6.4549E-05  0.0365
   9.6304E-01   9.8647E-01   6.3162E-05  0.0365
   9.8647E-01   1.0105E+00   6.0101E-05  0.0369
   1.0105E+00   1.0351E+00   6.5187E-05  0.0351
   1.0351E+00   1.0602E+00   6.5557E-05  0.0346
   1.0602E+00   1.0860E+00   6.5877E-05  0.0341
   1.0860E+00   1.1125E+00   6.6287E-05  0.0336
   1.1125E+00   1.1395E+00   6.1104E-05  0.0345
   1.1395E+00   1.1673E+00   6.0528E-05  0.0343
   1.1673E+00   1.1957E+00   6.2068E-05  0.0334
   1.1957E+00   1.2247E+00   6.0433E-05  0.0335
   1.2247E+00   1.2545E+00   6.2077E-05  0.0326
   1.2545E+00   1.2851E+00   5.5882E-05  0.0340
   1.2851E+00   1.3163E+00   5.3171E-05  0.0344
   1.3163E+00   1.3484E+00   5.1935E-05  0.0344
   1.3484E+00   1.3812E+00   5.8414E-05  0.0320
   1.3812E+00   1.4148E+00   5.2323E-05  0.0334
   1.4148E+00   1.4492E+00   5.4099E-05  0.0325
   1.4492E+00   1.4845E+00   5.1740E-05  0.0328
   1.4845E+00   1.5206E+00   5.0216E-05  0.0329
   1.5206E+00   1.5576E+00   5.0729E-05  0.0324
   1.5576E+00   1.5955E+00   5.0907E-05  0.0319
   1.5955E+00   1.6343E+00   4.8745E-05  0.0322
   1.6343E+00   1.6741E+00   4.4252E-05  0.0334
   1.6741E+00   1.7148E+00   4.5716E-05  0.0325
   1.7148E+00   1.7565E+00   4.7657E-05  0.0314
   1.7565E+00   1.7992E+00   4.8653E-05  0.0308
   1.7992E+00   1.8430E+00   4.4185E-05  0.0319
   1.8430E+00   1.8879E+00   4.5254E-05  0.0311
   1.8879E+00   1.9338E+00   4.2125E-05  0.0319
   1.9338E+00   1.9808E+00   4.1175E-05  0.0318
   1.9808E+00   2.0290E+00   4.2071E-05  0.0311
   2.0290E+00   2.0784E+00   4.0028E-05  0.0315
   2.0784E+00   2.1290E+00   4.0193E-05  0.0311
   2.1290E+00   2.1808E+00   3.9645E-05  0.0309
   2.1808E+00   2.2338E+00   4.0873E-05  0.0301
   2.2338E+00   2.2882E+00   3.9069E-05  0.0304
   2.2882E+00   2.3439E+00   4.1814E-05  0.0290
   2.3439E+00   2.4009E+00   3.9702E-05  0.0295
   2.4009E+00   2.4593E+00   3.9335E-05  0.0292
   2.4593E+00   2.5191E+00   3.8929E-05  0.0290
   2.5191E+00   2.5804E+00   3.7609E-05  0.0292
   2.5804E+00   2.6432E+00   3.8239E-05  0.0286
   2.6432E+00   2.7075E+00   3.7758E-05  0.0285
   2.7075E+00   2.7734E+00   3.7080E-05  0.0284
   2.7734E+00   2.8409E+00   3.5941E-05  0.0285
   2.8409E+00   2.9100E+00   3.8094E-05  0.0274
   2.9100E+00   2.9808E+00   3.6932E-05  0.0275
   2.9808E+00   3.0533E+00   3.7311E-05  0.0270
   3.0533E+00   3.1276E+00   3.7069E-05  0.0268
   3.1276E+00   3.2037E+00   3.5782E-05  0.0269
   3.2037E+00   3.2817E+00   3.7309E-05  0.0261
   3.2817E+00   3.3615E+00   3.5548E-05  0.0264
   3.3615E+00   3.4433E+00   3.3723E-05  0.0267
   3.4433E+00   3.5271E+00   3.3305E-05  0.0266
   3.5271E+00   3.6129E+00   3.4730E-05  0.0257
   3.6129E+00   3.7008E+00   3.3784E-05  0.0258
   3.7008E+00   3.7908E+00   3.2056E-05  0.0262
   3.7908E+00   3.8831E+00   2.9153E-05  0.0271
   3.8831E+00   3.9776E+00   2.6754E-05  0.0279
   3.9776E+00   4.0743E+00   2.4980E-05  0.0286
   4.0743E+00   4.1735E+00   2.3507E-05  0.0291
   4.1735E+00   4.2750E+00   2.0581E-05  0.0308
   4.2750E+00   4.3790E+00   2.0435E-05  0.0305
   4.3790E+00   4.4856E+00   2.0879E-05  0.0298
   4.4856E+00   4.5947E+00   1.8712E-05  0.0311
   4.5947E+00   4.7065E+00   1.9744E-05  0.0299
   4.7065E+00   4.8210E+00   1.7834E-05  0.0311
   4.8210E+00   4.9383E+00   1.8738E-05  0.0300
   4.9383E+00   5.0585E+00   1.6808E-05  0.0313
   5.0585E+00   5.1815E+00   1.6823E-05  0.0309
   5.1815E+00   5.3076E+00   1.6614E-05  0.0307
   5.3076E+00   5.4368E+00   1.5408E-05  0.0316
   5.4368E+00   5.5690E+00   1.5346E-05  0.0312
   5.5690E+00   5.7045E+00   1.4671E-05  0.0316
   5.7045E+00   5.8433E+00   1.4776E-05  0.0311
   5.8433E+00   5.9855E+00   1.4433E-05  0.0311
   5.9855E+00   6.1311E+00   1.3280E-05  0.0320
   6.1311E+00   6.2803E+00   1.3451E-05  0.0314
   6.2803E+00   6.4331E+00   1.2802E-05  0.0318
   6.4331E+00   6.5896E+00   1.2355E-05  0.0320
   6.5896E+00   6.7500E+00   1.2100E-05  0.0320
   6.7500E+00   6.9142E+00   1.1656E-05  0.0322
   6.9142E+00   7.0824E+00   1.0887E-05  0.0330
   7.0824E+00   7.2548E+00   1.1269E-05  0.0320
   7.2548E+00   7.4313E+00   1.0423E-05  0.0329
   7.4313E+00   7.6121E+00   1.0454E-05  0.0324
   7.6121E+00   7.7973E+00   9.5202E-06  0.0336
   7.7973E+00   7.9870E+00   9.7928E-06  0.0327
   7.9870E+00   8.1813E+00   9.2315E-06  0.0333
   8.1813E+00   8.3804E+00   9.0345E-06  0.0333
   8.3804E+00   8.5843E+00   8.3645E-06  0.0342
   8.5843E+00   8.7931E+00   8.0991E-06  0.0343
   8.7931E+00   9.0071E+00   7.6224E-06  0.0349
   9.0071E+00   9.2262E+00   8.0653E-06  0.0336
   9.2262E+00   9.4507E+00   7.6774E-06  0.0340
   9.4507E+00   9.6807E+00   7.2855E-06  0.0345
   9.6807E+00   9.9162E+00   7.0540E-06  0.0347
   9.9162E+00   1.0157E+01   6.9890E-06  0.0344
   1.0157E+01   1.0405E+01   6.3196E-06  0.0358
   1.0405E+01   1.0658E+01   6.5762E-06  0.0346
   1.0658E+01   1.0917E+01   6.4489E-06  0.0346
   1.0917E+01   1.1183E+01   6.7227E-06  0.0334
   1.1183E+01   1.1455E+01   6.0182E-06  0.0349
   1.1455E+01   1.1733E+01   6.1970E-06  0.0340
   1.1733E+01   1.2019E+01   5.9239E-06  0.0344
   1.2019E+01   1.2311E+01   5.3010E-06  0.0359
   1.2311E+01   1.2611E+01   5.3650E-06  0.0353
   1.2611E+01   1.2918E+01   4.5288E-06  0.0379
   1.2918E+01   1.3232E+01   4.3794E-06  0.0381
   1.3232E+01   1.3554E+01   3.9079E-06  0.0398
   1.3554E+01   1.3884E+01   3.4067E-06  0.0421
   1.3884E+01   1.4222E+01   2.9344E-06  0.0449
   1.4222E+01   1.4568E+01   2.9354E-06  0.0443
   1.4568E+01   1.4922E+01   2.4255E-06  0.0482
   1.4922E+01   1.5285E+01   2.2573E-06  0.0494
   1.5285E+01   1.5657E+01   1.8140E-06  0.0544
   1.5657E+01   1.6038E+01   1.3913E-06  0.0613
   1.6038E+01   1.6428E+01   1.1641E-06  0.0663
   1.6428E+01   1.6828E+01   1.0432E-06  0.0692
   1.6828E+01   1.7237E+01   7.4352E-07  0.0810
   1.7237E+01   1.7657E+01   4.6734E-07  0.1010
   1.7657E+01   1.8086E+01   4.0114E-07  0.1076
   1.8086E+01   1.8526E+01   2.3179E-07  0.1400
   1.8526E+01   1.8977E+01   7.0991E-08  0.2500
   1.8977E+01   1.9439E+01   6.1339E-08  0.2645
   1.9439E+01   1.9912E+01   4.2287E-08  0.3162
   1.9912E+01   2.0396E+01   0.0000E+00  0.0000
   2.0396E+01   2.0893E+01   0.0000E+00  0.0000
   2.0893E+01   2.1401E+01   0.0000E+00  0.0000
   2.1401E+01   2.1922E+01   0.0000E+00  0.0000
   2.1922E+01   2.2455E+01   0.0000E+00  0.0000
   2.2455E+01   2.3001E+01   0.0000E+00  0.0000
   2.3001E+01   2.3561E+01   0.0000E+00  0.0000
   2.3561E+01   2.4134E+01   0.0000E+00  0.0000
   2.4134E+01   2.4721E+01   0.0000E+00  0.0000
   2.4721E+01   2.5323E+01   0.0000E+00  0.0000
   2.5323E+01   2.5939E+01   0.0000E+00  0.0000
   2.5939E+01   2.6570E+01   0.0000E+00  0.0000
   2.6570E+01   2.7217E+01   0.0000E+00  0.0000
   2.7217E+01   2.7879E+01   0.0000E+00  0.0000
   2.7879E+01   2.8557E+01   0.0000E+00  0.0000
   2.8557E+01   2.9252E+01   0.0000E+00  0.0000
   2.9252E+01   2.9964E+01   0.0000E+00  0.0000
   2.9964E+01   3.0693E+01   0.0000E+00  0.0000
   3.0693E+01   3.1440E+01   0.0000E+00  0.0000
   3.1440E+01   3.2205E+01   0.0000E+00  0.0000
   3.2205E+01   3.2988E+01   0.0000E+00  0.0000
   3.2988E+01   3.3791E+01   0.0000E+00  0.0000
   3.3791E+01   3.4613E+01   0.0000E+00  0.0000
   3.4613E+01   3.5455E+01   0.0000E+00  0.0000
   3.5455E+01   3.6318E+01   0.0000E+00  0.0000
   3.6318E+01   3.7201E+01   0.0000E+00  0.0000
   3.7201E+01   3.8106E+01   0.0000E+00  0.0000
   3.8106E+01   3.9034E+01   0.0000E+00  0.0000
   3.9034E+01   3.9983E+01   0.0000E+00  0.0000
   3.9983E+01   4.0956E+01   0.0000E+00  0.0000
   4.0956E+01   4.1953E+01   0.0000E+00  0.0000
   4.1953E+01   4.2973E+01   0.0000E+00  0.0000
   4.2973E+01   4.4019E+01   0.0000E+00  0.0000
   4.4019E+01   4.5090E+01   0.0000E+00  0.0000
   4.5090E+01   4.6187E+01   0.0000E+00  0.0000
   4.6187E+01   4.7311E+01   0.0000E+00  0.0000
   4.7311E+01   4.8462E+01   0.0000E+00  0.0000
   4.8462E+01   4.9641E+01   0.0000E+00  0.0000
   4.9641E+01   5.0849E+01   0.0000E+00  0.0000
   5.0849E+01   5.2086E+01   0.0000E+00  0.0000
   5.2086E+01   5.3353E+01   0.0000E+00  0.0000
   5.3353E+01   5.4651E+01   0.0000E+00  0.0000
   5.4651E+01   5.5981E+01   0.0000E+00  0.0000
   5.5981E+01   5.7343E+01   0.0000E+00  0.0000
   5.7343E+01   5.8738E+01   0.0000E+00  0.0000
   5.8738E+01   6.0168E+01   0.0000E+00  0.0000
   6.0168E+01   6.1632E+01   0.0000E+00  0.0000
   6.1632E+01   6.3131E+01   0.0000E+00  0.0000
   6.3131E+01   6.4667E+01   0.0000E+00  0.0000
   6.4667E+01   6.6240E+01   0.0000E+00  0.0000
   6.6240E+01   6.7852E+01   0.0000E+00  0.0000
   6.7852E+01   6.9503E+01   0.0000E+00  0.0000
   6.9503E+01   7.1194E+01   0.0000E+00  0.0000
   7.1194E+01   7.2926E+01   0.0000E+00  0.0000
   7.2926E+01   7.4701E+01   0.0000E+00  0.0000
   7.4701E+01   7.6518E+01   0.0000E+00  0.0000
   7.6518E+01   7.8380E+01   0.0000E+00  0.0000
   7.8380E+01   8.0287E+01   0.0000E+00  0.0000
   8.0287E+01   8.2240E+01   0.0000E+00  0.0000
   8.2240E+01   8.4241E+01   0.0000E+00  0.0000
   8.4241E+01   8.6291E+01   0.0000E+00  0.0000
   8.6291E+01   8.8391E+01   0.0000E+00  0.0000
   8.8391E+01   9.0541E+01   0.0000E+00  0.0000
   9.0541E+01   9.2744E+01   0.0000E+00  0.0000
   9.2744E+01   9.5001E+01   0.0000E+00  0.0000
   9.5001E+01   9.7312E+01   0.0000E+00  0.0000
   9.7312E+01   9.9680E+01   0.0000E+00  0.0000
   9.9680E+01   1.0211E+02   0.0000E+00  0.0000
   1.0211E+02   1.0459E+02   0.0000E+00  0.0000
   1.0459E+02   1.0713E+02   0.0000E+00  0.0000
   1.0713E+02   1.0974E+02   0.0000E+00  0.0000
   1.0974E+02   1.1241E+02   0.0000E+00  0.0000
   1.1241E+02   1.1515E+02   0.0000E+00  0.0000
   1.1515E+02   1.1795E+02   0.0000E+00  0.0000
   1.1795E+02   1.2082E+02   0.0000E+00  0.0000
   1.2082E+02   1.2376E+02   0.0000E+00  0.0000
   1.2376E+02   1.2677E+02   0.0000E+00  0.0000
   1.2677E+02   1.2985E+02   0.0000E+00  0.0000
   1.2985E+02   1.3301E+02   0.0000E+00  0.0000
   1.3301E+02   1.3625E+02   0.0000E+00  0.0000
   1.3625E+02   1.3956E+02   0.0000E+00  0.0000
   1.3956E+02   1.4296E+02   0.0000E+00  0.0000
   1.4296E+02   1.4644E+02   0.0000E+00  0.0000
   1.4644E+02   1.5000E+02   0.0000E+00  0.0000

#   sum over                 1.9070E-06
'no. =    1   reg = 115 - 215'
msuc: {\huge [t-cross] in region mesh}
msdr: {\it plotted by \ANGEL \version}
msdl: {\it calculated by \PHITS  3.26}
wt: s(0.7)
\vspace{-3}
  region surface crossing
  area  &=&   1.0000E+00 [cm^2]
e:
 
# Information for Restart Calculation
# This calculation was newly started
# istdev =  2 # 1:Batch variance, 2:History variance
# resc2  = 5.00000000000000000E+08 # Total source weight or Total source weight / maxcas
# resc3  = 5.00000000000000000E+08 # Total history number or Total batch number
# maxcas =   500000000 # History / Batch, only used for istdev=1
# bitrseed = 1101101111010011011000101101110001100110110010110001010100010001 # bit data of rseed
