[ T-Cross ]
    title = [t-cross] in region mesh
     mesh =  reg            # mesh type is region-wise
      reg =    1            # number of crossing regions
      non     r-from    r-to       area
      1       115       215        1.000000    
   e-type =    3            # e-mesh is log given by emin, emax and ne
     emin =  1.0000000E-02  # minimum value of e-mesh points
     emax =   150.0000      # maximum value of e-mesh points
#    edel =  2.4039514E-02  # mesh width of e-mesh points
       ne =    400          # number of e-mesh points
#    data = ( e(i), i = 1, ne + 1 )
#           1.00000E-02  1.02433E-02  1.04925E-02  1.07478E-02  1.10093E-02
#           1.12772E-02  1.15516E-02  1.18326E-02  1.21205E-02  1.24154E-02
#           1.27175E-02  1.30269E-02  1.33439E-02  1.36686E-02  1.40011E-02
#           1.43418E-02  1.46907E-02  1.50482E-02  1.54143E-02  1.57894E-02
#           1.61735E-02  1.65670E-02  1.69701E-02  1.73830E-02  1.78060E-02
#           1.82392E-02  1.86830E-02  1.91375E-02  1.96032E-02  2.00801E-02
#           2.05687E-02  2.10692E-02  2.15818E-02  2.21069E-02  2.26448E-02
#           2.31957E-02  2.37601E-02  2.43382E-02  2.49304E-02  2.55369E-02
#           2.61583E-02  2.67947E-02  2.74467E-02  2.81145E-02  2.87985E-02
#           2.94992E-02  3.02169E-02  3.09521E-02  3.17052E-02  3.24766E-02
#           3.32668E-02  3.40762E-02  3.49053E-02  3.57546E-02  3.66246E-02
#           3.75157E-02  3.84284E-02  3.93634E-02  4.03212E-02  4.13022E-02
#           4.23071E-02  4.33365E-02  4.43909E-02  4.54710E-02  4.65773E-02
#           4.77106E-02  4.88714E-02  5.00605E-02  5.12785E-02  5.25262E-02
#           5.38042E-02  5.51133E-02  5.64542E-02  5.78278E-02  5.92348E-02
#           6.06760E-02  6.21523E-02  6.36645E-02  6.52135E-02  6.68002E-02
#           6.84255E-02  7.00904E-02  7.17957E-02  7.35426E-02  7.53319E-02
#           7.71648E-02  7.90423E-02  8.09655E-02  8.29354E-02  8.49533E-02
#           8.70203E-02  8.91376E-02  9.13064E-02  9.35279E-02  9.58035E-02
#           9.81345E-02  1.00522E-01  1.02968E-01  1.05473E-01  1.08040E-01
#           1.10668E-01  1.13361E-01  1.16119E-01  1.18944E-01  1.21838E-01
#           1.24803E-01  1.27839E-01  1.30950E-01  1.34136E-01  1.37399E-01
#           1.40742E-01  1.44167E-01  1.47675E-01  1.51268E-01  1.54948E-01
#           1.58718E-01  1.62580E-01  1.66535E-01  1.70587E-01  1.74738E-01
#           1.78989E-01  1.83344E-01  1.87805E-01  1.92375E-01  1.97055E-01
#           2.01850E-01  2.06761E-01  2.11792E-01  2.16945E-01  2.22223E-01
#           2.27630E-01  2.33169E-01  2.38842E-01  2.44653E-01  2.50605E-01
#           2.56703E-01  2.62949E-01  2.69346E-01  2.75900E-01  2.82613E-01
#           2.89489E-01  2.96532E-01  3.03747E-01  3.11138E-01  3.18708E-01
#           3.26462E-01  3.34405E-01  3.42542E-01  3.50876E-01  3.59413E-01
#           3.68158E-01  3.77116E-01  3.86291E-01  3.95690E-01  4.05317E-01
#           4.15179E-01  4.25281E-01  4.35628E-01  4.46227E-01  4.57084E-01
#           4.68205E-01  4.79597E-01  4.91266E-01  5.03219E-01  5.15463E-01
#           5.28005E-01  5.40851E-01  5.54011E-01  5.67490E-01  5.81298E-01
#           5.95441E-01  6.09929E-01  6.24769E-01  6.39970E-01  6.55541E-01
#           6.71491E-01  6.87828E-01  7.04564E-01  7.21706E-01  7.39266E-01
#           7.57253E-01  7.75678E-01  7.94551E-01  8.13883E-01  8.33685E-01
#           8.53969E-01  8.74747E-01  8.96030E-01  9.17831E-01  9.40163E-01
#           9.63038E-01  9.86469E-01  1.01047E+00  1.03506E+00  1.06024E+00
#           1.08604E+00  1.11246E+00  1.13953E+00  1.16725E+00  1.19565E+00
#           1.22474E+00  1.25454E+00  1.28507E+00  1.31633E+00  1.34836E+00
#           1.38117E+00  1.41477E+00  1.44920E+00  1.48446E+00  1.52057E+00
#           1.55757E+00  1.59547E+00  1.63429E+00  1.67405E+00  1.71478E+00
#           1.75650E+00  1.79924E+00  1.84302E+00  1.88786E+00  1.93379E+00
#           1.98084E+00  2.02904E+00  2.07841E+00  2.12898E+00  2.18078E+00
#           2.23384E+00  2.28819E+00  2.34386E+00  2.40089E+00  2.45930E+00
#           2.51914E+00  2.58043E+00  2.64322E+00  2.70753E+00  2.77341E+00
#           2.84088E+00  2.91001E+00  2.98081E+00  3.05333E+00  3.12762E+00
#           3.20372E+00  3.28167E+00  3.36152E+00  3.44330E+00  3.52708E+00
#           3.61290E+00  3.70080E+00  3.79085E+00  3.88308E+00  3.97756E+00
#           4.07434E+00  4.17347E+00  4.27501E+00  4.37903E+00  4.48557E+00
#           4.59471E+00  4.70650E+00  4.82102E+00  4.93832E+00  5.05847E+00
#           5.18155E+00  5.30762E+00  5.43676E+00  5.56904E+00  5.70453E+00
#           5.84333E+00  5.98550E+00  6.13114E+00  6.28031E+00  6.43312E+00
#           6.58964E+00  6.74997E+00  6.91420E+00  7.08243E+00  7.25475E+00
#           7.43126E+00  7.61207E+00  7.79728E+00  7.98700E+00  8.18133E+00
#           8.38038E+00  8.58428E+00  8.79315E+00  9.00709E+00  9.22624E+00
#           9.45072E+00  9.68067E+00  9.91620E+00  1.01575E+01  1.04046E+01
#           1.06578E+01  1.09171E+01  1.11827E+01  1.14548E+01  1.17335E+01
#           1.20190E+01  1.23114E+01  1.26109E+01  1.29178E+01  1.32321E+01
#           1.35540E+01  1.38838E+01  1.42216E+01  1.45676E+01  1.49221E+01
#           1.52851E+01  1.56570E+01  1.60380E+01  1.64282E+01  1.68279E+01
#           1.72374E+01  1.76568E+01  1.80864E+01  1.85264E+01  1.89772E+01
#           1.94389E+01  1.99119E+01  2.03963E+01  2.08926E+01  2.14009E+01
#           2.19216E+01  2.24550E+01  2.30014E+01  2.35610E+01  2.41343E+01
#           2.47215E+01  2.53230E+01  2.59391E+01  2.65702E+01  2.72167E+01
#           2.78789E+01  2.85572E+01  2.92520E+01  2.99637E+01  3.06928E+01
#           3.14396E+01  3.22045E+01  3.29881E+01  3.37907E+01  3.46128E+01
#           3.54550E+01  3.63177E+01  3.72013E+01  3.81064E+01  3.90336E+01
#           3.99833E+01  4.09561E+01  4.19526E+01  4.29734E+01  4.40189E+01
#           4.50900E+01  4.61870E+01  4.73108E+01  4.84619E+01  4.96410E+01
#           5.08488E+01  5.20860E+01  5.33533E+01  5.46514E+01  5.59812E+01
#           5.73432E+01  5.87384E+01  6.01676E+01  6.16315E+01  6.31311E+01
#           6.46671E+01  6.62405E+01  6.78522E+01  6.95031E+01  7.11941E+01
#           7.29263E+01  7.47007E+01  7.65182E+01  7.83800E+01  8.02870E+01
#           8.22405E+01  8.42414E+01  8.62911E+01  8.83906E+01  9.05412E+01
#           9.27442E+01  9.50007E+01  9.73122E+01  9.96799E+01  1.02105E+02
#           1.04589E+02  1.07134E+02  1.09741E+02  1.12411E+02  1.15146E+02
#           1.17948E+02  1.20817E+02  1.23757E+02  1.26768E+02  1.29852E+02
#           1.33012E+02  1.36248E+02  1.39563E+02  1.42959E+02  1.46437E+02
#           1.50000E+02
     unit =    2            # unit is [1/cm^2/(MeV/n)/source]
     axis =  eng            # axis of output
     file = detector-16.out  # file name of output for the above axis
   output = f-curr          # surface crossing forward current spectrum
     part =  neutron  
# kf/name :  2112     
#    used :        main (  %)        temp (  %)       total (  %)
#  memory :         414 (  0)           0 (  0)         414 (  0)

#------------------------------------------------------------------------------
#newpage:
#   no. =    1   reg = 115 - 215

x: Energy [MeV/n]
y:  F-Curr [1/cm^2/(MeV/n)/source]         
p: xlog ylog afac(0.8) form(0.9)
h: n            x            y(neutron ),hh0l   n 
#  e-lower      e-upper      neutron     r.err 
   1.0000E-02   1.0243E-02   3.6356E-04  0.1187
   1.0243E-02   1.0493E-02   3.2849E-04  0.1232
   1.0493E-02   1.0748E-02   2.8362E-04  0.1313
   1.0748E-02   1.1009E-02   2.7158E-04  0.1325
   1.1009E-02   1.1277E-02   3.9174E-04  0.1089
   1.1277E-02   1.1552E-02   3.4249E-04  0.1148
   1.1552E-02   1.1833E-02   3.0044E-04  0.1214
   1.1833E-02   1.2121E-02   3.6845E-04  0.1085
   1.2121E-02   1.2415E-02   3.4655E-04  0.1104
   1.2415E-02   1.2718E-02   3.5016E-04  0.1085
   1.2718E-02   1.3027E-02   3.1839E-04  0.1125
   1.3027E-02   1.3344E-02   2.3285E-04  0.1298
   1.3344E-02   1.3669E-02   3.2287E-04  0.1091
   1.3669E-02   1.4001E-02   2.7745E-04  0.1163
   1.4001E-02   1.4342E-02   2.6080E-04  0.1180
   1.4342E-02   1.4691E-02   3.3574E-04  0.1032
   1.4691E-02   1.5048E-02   2.8629E-04  0.1104
   1.5048E-02   1.5414E-02   2.7267E-04  0.1118
   1.5414E-02   1.5789E-02   2.9341E-04  0.1064
   1.5789E-02   1.6174E-02   2.4917E-04  0.1140
   1.6174E-02   1.6567E-02   2.4826E-04  0.1128
   1.6567E-02   1.6970E-02   2.1919E-04  0.1187
   1.6970E-02   1.7383E-02   2.4350E-04  0.1112
   1.7383E-02   1.7806E-02   2.0940E-04  0.1183
   1.7806E-02   1.8239E-02   2.3269E-04  0.1111
   1.8239E-02   1.8683E-02   2.6075E-04  0.1036
   1.8683E-02   1.9138E-02   2.0367E-04  0.1157
   1.9138E-02   1.9603E-02   2.1675E-04  0.1111
   1.9603E-02   2.0080E-02   2.1190E-04  0.1111
   2.0080E-02   2.0569E-02   1.6776E-04  0.1232
   2.0569E-02   2.1069E-02   2.3351E-04  0.1032
   2.1069E-02   2.1582E-02   1.9599E-04  0.1112
   2.1582E-02   2.2107E-02   1.7814E-04  0.1155
   2.2107E-02   2.2645E-02   1.7772E-04  0.1140
   2.2645E-02   2.3196E-02   1.8012E-04  0.1119
   2.3196E-02   2.3760E-02   1.9137E-04  0.1073
   2.3760E-02   2.4338E-02   1.8334E-04  0.1085
   2.4338E-02   2.4930E-02   1.6089E-04  0.1141
   2.4930E-02   2.5537E-02   1.6441E-04  0.1118
   2.5537E-02   2.6158E-02   1.7264E-04  0.1076
   2.6158E-02   2.6795E-02   1.6074E-04  0.1104
   2.6795E-02   2.7447E-02   1.7200E-04  0.1054
   2.7447E-02   2.8114E-02   1.5298E-04  0.1102
   2.8114E-02   2.8799E-02   1.3303E-04  0.1170
   2.8799E-02   2.9499E-02   1.2457E-04  0.1195
   2.9499E-02   3.0217E-02   1.5650E-04  0.1054
   3.0217E-02   3.0952E-02   1.5103E-04  0.1060
   3.0952E-02   3.1705E-02   1.4236E-04  0.1078
   3.1705E-02   3.2477E-02   1.3804E-04  0.1079
   3.2477E-02   3.3267E-02   1.3866E-04  0.1066
   3.3267E-02   3.4076E-02   1.0264E-04  0.1222
   3.4076E-02   3.4905E-02   1.3013E-04  0.1073
   3.4905E-02   3.5755E-02   1.1112E-04  0.1148
   3.5755E-02   3.6625E-02   1.1747E-04  0.1104
   3.6625E-02   3.7516E-02   1.2318E-04  0.1066
   3.7516E-02   3.8428E-02   1.4465E-04  0.0970
   3.8428E-02   3.9363E-02   1.3066E-04  0.1010
   3.9363E-02   4.0321E-02   1.0402E-04  0.1116
   4.0321E-02   4.1302E-02   1.1057E-04  0.1072
   4.1302E-02   4.2307E-02   1.1270E-04  0.1048
   4.2307E-02   4.3337E-02   1.2508E-04  0.0981
   4.3337E-02   4.4391E-02   1.1324E-04  0.1021
   4.4391E-02   4.5471E-02   9.5900E-05  0.1098
   4.5471E-02   4.6577E-02   8.6835E-05  0.1140
   4.6577E-02   4.7711E-02   9.9289E-05  0.1052
   4.7711E-02   4.8871E-02   9.0404E-05  0.1087
   4.8871E-02   5.0061E-02   9.7292E-05  0.1037
   5.0061E-02   5.1279E-02   8.8110E-05  0.1075
   5.1279E-02   5.2526E-02   9.0787E-05  0.1048
   5.2526E-02   5.3804E-02   1.0498E-04  0.0962
   5.3804E-02   5.5113E-02   8.5538E-05  0.1054
   5.5113E-02   5.6454E-02   7.4405E-05  0.1118
   5.6454E-02   5.7828E-02   9.5360E-05  0.0973
   5.7828E-02   5.9235E-02   8.3521E-05  0.1029
   5.9235E-02   6.0676E-02   8.1357E-05  0.1029
   6.0676E-02   6.2152E-02   9.6736E-05  0.0933
   6.2152E-02   6.3665E-02   7.6522E-05  0.1037
   6.3665E-02   6.5214E-02   7.3045E-05  0.1048
   6.5214E-02   6.6800E-02   6.8999E-05  0.1066
   6.6800E-02   6.8426E-02   7.7324E-05  0.0995
   6.8426E-02   7.0090E-02   7.2767E-05  0.1013
   7.0090E-02   7.1796E-02   6.7453E-05  0.1038
   7.1796E-02   7.3543E-02   6.6335E-05  0.1037
   7.3543E-02   7.5332E-02   6.2299E-05  0.1055
   7.5332E-02   7.7165E-02   7.4119E-05  0.0958
   7.7165E-02   7.9042E-02   5.9506E-05  0.1055
   7.9042E-02   8.0965E-02   7.9768E-05  0.0902
   8.0965E-02   8.2935E-02   5.8756E-05  0.1037
   8.2935E-02   8.4953E-02   7.8615E-05  0.0885
   8.4953E-02   8.7020E-02   5.6048E-05  0.1037
   8.7020E-02   8.9138E-02   5.8753E-05  0.1000
   8.9138E-02   9.1306E-02   5.5204E-05  0.1021
   9.1306E-02   9.3528E-02   6.3423E-05  0.0941
   9.3528E-02   9.5804E-02   5.5860E-05  0.0990
   9.5804E-02   9.8134E-02   5.2641E-05  0.1006
   9.8134E-02   1.0052E-01   5.4344E-05  0.0978
   1.0052E-01   1.0297E-01   5.1924E-05  0.0990
   1.0297E-01   1.0547E-01   5.8249E-05  0.0923
   1.0547E-01   1.0804E-01   6.2577E-05  0.0881
   1.0804E-01   1.1067E-01   5.8025E-05  0.0900
   1.1067E-01   1.1336E-01   6.3823E-05  0.0851
   1.1336E-01   1.1612E-01   7.4806E-05  0.0777
   1.1612E-01   1.1894E-01   7.3748E-05  0.0773
   1.1894E-01   1.2184E-01   8.6054E-05  0.0706
   1.2184E-01   1.2480E-01   8.1579E-05  0.0718
   1.2480E-01   1.2784E-01   7.9489E-05  0.0718
   1.2784E-01   1.3095E-01   9.1209E-05  0.0662
   1.3095E-01   1.3414E-01   9.0741E-05  0.0656
   1.3414E-01   1.3740E-01   8.0491E-05  0.0688
   1.3740E-01   1.4074E-01   9.3701E-05  0.0630
   1.4074E-01   1.4417E-01   9.0918E-05  0.0632
   1.4417E-01   1.4767E-01   9.9310E-05  0.0597
   1.4767E-01   1.5127E-01   1.1025E-04  0.0560
   1.5127E-01   1.5495E-01   1.0620E-04  0.0564
   1.5495E-01   1.5872E-01   1.0961E-04  0.0548
   1.5872E-01   1.6258E-01   1.1311E-04  0.0533
   1.6258E-01   1.6654E-01   1.1394E-04  0.0525
   1.6654E-01   1.7059E-01   1.1076E-04  0.0526
   1.7059E-01   1.7474E-01   1.2808E-04  0.0484
   1.7474E-01   1.7899E-01   1.3642E-04  0.0463
   1.7899E-01   1.8334E-01   1.2867E-04  0.0471
   1.8334E-01   1.8781E-01   1.3785E-04  0.0450
   1.8781E-01   1.9237E-01   1.3758E-04  0.0445
   1.9237E-01   1.9706E-01   1.5334E-04  0.0416
   1.9706E-01   2.0185E-01   1.5399E-04  0.0410
   2.0185E-01   2.0676E-01   1.5634E-04  0.0402
   2.0676E-01   2.1179E-01   1.5623E-04  0.0397
   2.1179E-01   2.1694E-01   1.6616E-04  0.0381
   2.1694E-01   2.2222E-01   1.7269E-04  0.0369
   2.2222E-01   2.2763E-01   1.7185E-04  0.0365
   2.2763E-01   2.3317E-01   1.7962E-04  0.0353
   2.3317E-01   2.3884E-01   1.9131E-04  0.0338
   2.3884E-01   2.4465E-01   2.0110E-04  0.0326
   2.4465E-01   2.5061E-01   1.9309E-04  0.0329
   2.5061E-01   2.5670E-01   1.9725E-04  0.0321
   2.5670E-01   2.6295E-01   2.1025E-04  0.0307
   2.6295E-01   2.6935E-01   2.1195E-04  0.0303
   2.6935E-01   2.7590E-01   2.2360E-04  0.0291
   2.7590E-01   2.8261E-01   2.3097E-04  0.0283
   2.8261E-01   2.8949E-01   2.2858E-04  0.0281
   2.8949E-01   2.9653E-01   2.4241E-04  0.0270
   2.9653E-01   3.0375E-01   2.4144E-04  0.0267
   3.0375E-01   3.1114E-01   2.4734E-04  0.0261
   3.1114E-01   3.1871E-01   2.5065E-04  0.0256
   3.1871E-01   3.2646E-01   2.5594E-04  0.0250
   3.2646E-01   3.3441E-01   2.6195E-04  0.0244
   3.3441E-01   3.4254E-01   2.5710E-04  0.0244
   3.4254E-01   3.5088E-01   2.6782E-04  0.0236
   3.5088E-01   3.5941E-01   2.7742E-04  0.0229
   3.5941E-01   3.6816E-01   2.8225E-04  0.0224
   3.6816E-01   3.7712E-01   2.8419E-04  0.0221
   3.7712E-01   3.8629E-01   3.0639E-04  0.0210
   3.8629E-01   3.9569E-01   2.9297E-04  0.0212
   3.9569E-01   4.0532E-01   2.9724E-04  0.0208
   4.0532E-01   4.1518E-01   3.0870E-04  0.0202
   4.1518E-01   4.2528E-01   3.0211E-04  0.0201
   4.2528E-01   4.3563E-01   3.0572E-04  0.0198
   4.3563E-01   4.4623E-01   3.0781E-04  0.0195
   4.4623E-01   4.5708E-01   3.2128E-04  0.0188
   4.5708E-01   4.6821E-01   3.4468E-04  0.0180
   4.6821E-01   4.7960E-01   3.3456E-04  0.0180
   4.7960E-01   4.9127E-01   3.3116E-04  0.0179
   4.9127E-01   5.0322E-01   3.4089E-04  0.0174
   5.0322E-01   5.1546E-01   3.4503E-04  0.0171
   5.1546E-01   5.2800E-01   3.4466E-04  0.0169
   5.2800E-01   5.4085E-01   3.3293E-04  0.0170
   5.4085E-01   5.5401E-01   3.6073E-04  0.0162
   5.5401E-01   5.6749E-01   3.4361E-04  0.0163
   5.6749E-01   5.8130E-01   3.5527E-04  0.0159
   5.8130E-01   5.9544E-01   3.6404E-04  0.0155
   5.9544E-01   6.0993E-01   3.5340E-04  0.0155
   6.0993E-01   6.2477E-01   3.5522E-04  0.0153
   6.2477E-01   6.3997E-01   3.5690E-04  0.0151
   6.3997E-01   6.5554E-01   3.4864E-04  0.0151
   6.5554E-01   6.7149E-01   3.5614E-04  0.0148
   6.7149E-01   6.8783E-01   3.5825E-04  0.0145
   6.8783E-01   7.0456E-01   3.5804E-04  0.0144
   7.0456E-01   7.2171E-01   3.3894E-04  0.0146
   7.2171E-01   7.3927E-01   3.5396E-04  0.0141
   7.3927E-01   7.5725E-01   3.3261E-04  0.0144
   7.5725E-01   7.7568E-01   3.3556E-04  0.0141
   7.7568E-01   7.9455E-01   3.3633E-04  0.0139
   7.9455E-01   8.1388E-01   3.2607E-04  0.0140
   8.1388E-01   8.3368E-01   3.2230E-04  0.0139
   8.3368E-01   8.5397E-01   3.1772E-04  0.0138
   8.5397E-01   8.7475E-01   3.0776E-04  0.0139
   8.7475E-01   8.9603E-01   2.9545E-04  0.0140
   8.9603E-01   9.1783E-01   2.8707E-04  0.0140
   9.1783E-01   9.4016E-01   2.7973E-04  0.0140
   9.4016E-01   9.6304E-01   2.6646E-04  0.0142
   9.6304E-01   9.8647E-01   2.5112E-04  0.0145
   9.8647E-01   1.0105E+00   2.5681E-04  0.0141
   1.0105E+00   1.0351E+00   2.5293E-04  0.0141
   1.0351E+00   1.0602E+00   2.5756E-04  0.0138
   1.0602E+00   1.0860E+00   2.6229E-04  0.0135
   1.0860E+00   1.1125E+00   2.5675E-04  0.0134
   1.1125E+00   1.1395E+00   2.7459E-04  0.0128
   1.1395E+00   1.1673E+00   2.7674E-04  0.0126
   1.1673E+00   1.1957E+00   2.8652E-04  0.0123
   1.1957E+00   1.2247E+00   2.9202E-04  0.0120
   1.2247E+00   1.2545E+00   2.9967E-04  0.0117
   1.2545E+00   1.2851E+00   3.0516E-04  0.0115
   1.2851E+00   1.3163E+00   3.0338E-04  0.0113
   1.3163E+00   1.3484E+00   3.0350E-04  0.0112
   1.3484E+00   1.3812E+00   3.1770E-04  0.0108
   1.3812E+00   1.4148E+00   3.1391E-04  0.0107
   1.4148E+00   1.4492E+00   3.1741E-04  0.0105
   1.4492E+00   1.4845E+00   3.1982E-04  0.0104
   1.4845E+00   1.5206E+00   3.1654E-04  0.0103
   1.5206E+00   1.5576E+00   3.1608E-04  0.0102
   1.5576E+00   1.5955E+00   3.1931E-04  0.0100
   1.5955E+00   1.6343E+00   3.1243E-04  0.0100
   1.6343E+00   1.6741E+00   3.1173E-04  0.0099
   1.6741E+00   1.7148E+00   3.1196E-04  0.0097
   1.7148E+00   1.7565E+00   3.0817E-04  0.0097
   1.7565E+00   1.7992E+00   2.9506E-04  0.0098
   1.7992E+00   1.8430E+00   2.8169E-04  0.0098
   1.8430E+00   1.8879E+00   2.6926E-04  0.0099
   1.8879E+00   1.9338E+00   2.7034E-04  0.0098
   1.9338E+00   1.9808E+00   2.6894E-04  0.0097
   1.9808E+00   2.0290E+00   2.7066E-04  0.0095
   2.0290E+00   2.0784E+00   2.7001E-04  0.0094
   2.0784E+00   2.1290E+00   2.7076E-04  0.0093
   2.1290E+00   2.1808E+00   2.6999E-04  0.0091
   2.1808E+00   2.2338E+00   2.6938E-04  0.0091
   2.2338E+00   2.2882E+00   2.6792E-04  0.0090
   2.2882E+00   2.3439E+00   2.5940E-04  0.0090
   2.3439E+00   2.4009E+00   2.5873E-04  0.0090
   2.4009E+00   2.4593E+00   2.5666E-04  0.0089
   2.4593E+00   2.5191E+00   2.4951E-04  0.0089
   2.5191E+00   2.5804E+00   2.4956E-04  0.0088
   2.5804E+00   2.6432E+00   2.4182E-04  0.0088
   2.6432E+00   2.7075E+00   2.3771E-04  0.0088
   2.7075E+00   2.7734E+00   2.3702E-04  0.0087
   2.7734E+00   2.8409E+00   2.3391E-04  0.0087
   2.8409E+00   2.9100E+00   2.2696E-04  0.0087
   2.9100E+00   2.9808E+00   2.2466E-04  0.0086
   2.9808E+00   3.0533E+00   2.2345E-04  0.0086
   3.0533E+00   3.1276E+00   2.1817E-04  0.0086
   3.1276E+00   3.2037E+00   2.1111E-04  0.0086
   3.2037E+00   3.2817E+00   2.0871E-04  0.0086
   3.2817E+00   3.3615E+00   2.0306E-04  0.0086
   3.3615E+00   3.4433E+00   2.0363E-04  0.0085
   3.4433E+00   3.5271E+00   1.9883E-04  0.0085
   3.5271E+00   3.6129E+00   1.9534E-04  0.0085
   3.6129E+00   3.7008E+00   1.9128E-04  0.0084
   3.7008E+00   3.7908E+00   1.8663E-04  0.0085
   3.7908E+00   3.8831E+00   1.8463E-04  0.0084
   3.8831E+00   3.9776E+00   1.7765E-04  0.0085
   3.9776E+00   4.0743E+00   1.7711E-04  0.0084
   4.0743E+00   4.1735E+00   1.7407E-04  0.0084
   4.1735E+00   4.2750E+00   1.6592E-04  0.0085
   4.2750E+00   4.3790E+00   1.6077E-04  0.0085
   4.3790E+00   4.4856E+00   1.5451E-04  0.0085
   4.4856E+00   4.5947E+00   1.4999E-04  0.0086
   4.5947E+00   4.7065E+00   1.4407E-04  0.0086
   4.7065E+00   4.8210E+00   1.3958E-04  0.0087
   4.8210E+00   4.9383E+00   1.3894E-04  0.0086
   4.9383E+00   5.0585E+00   1.3359E-04  0.0086
   5.0585E+00   5.1815E+00   1.3022E-04  0.0087
   5.1815E+00   5.3076E+00   1.2557E-04  0.0087
   5.3076E+00   5.4368E+00   1.2104E-04  0.0088
   5.4368E+00   5.5690E+00   1.1920E-04  0.0087
   5.5690E+00   5.7045E+00   1.1444E-04  0.0088
   5.7045E+00   5.8433E+00   1.0954E-04  0.0089
   5.8433E+00   5.9855E+00   1.0641E-04  0.0089
   5.9855E+00   6.1311E+00   1.0328E-04  0.0090
   6.1311E+00   6.2803E+00   9.8768E-05  0.0091
   6.2803E+00   6.4331E+00   9.5514E-05  0.0091
   6.4331E+00   6.5896E+00   9.2412E-05  0.0091
   6.5896E+00   6.7500E+00   8.9622E-05  0.0092
   6.7500E+00   6.9142E+00   8.3402E-05  0.0094
   6.9142E+00   7.0824E+00   8.0637E-05  0.0094
   7.0824E+00   7.2548E+00   7.5314E-05  0.0097
   7.2548E+00   7.4313E+00   7.0835E-05  0.0098
   7.4313E+00   7.6121E+00   6.8847E-05  0.0099
   7.6121E+00   7.7973E+00   6.4025E-05  0.0101
   7.7973E+00   7.9870E+00   6.1304E-05  0.0102
   7.9870E+00   8.1813E+00   5.6887E-05  0.0105
   8.1813E+00   8.3804E+00   5.4288E-05  0.0106
   8.3804E+00   8.5843E+00   5.0302E-05  0.0109
   8.5843E+00   8.7931E+00   4.7721E-05  0.0111
   8.7931E+00   9.0071E+00   4.4923E-05  0.0113
   9.0071E+00   9.2262E+00   4.2127E-05  0.0115
   9.2262E+00   9.4507E+00   3.9916E-05  0.0117
   9.4507E+00   9.6807E+00   3.7260E-05  0.0120
   9.6807E+00   9.9162E+00   3.5836E-05  0.0121
   9.9162E+00   1.0157E+01   3.4526E-05  0.0122
   1.0157E+01   1.0405E+01   3.3406E-05  0.0122
   1.0405E+01   1.0658E+01   3.0866E-05  0.0126
   1.0658E+01   1.0917E+01   2.8969E-05  0.0128
   1.0917E+01   1.1183E+01   2.7096E-05  0.0131
   1.1183E+01   1.1455E+01   2.5460E-05  0.0134
   1.1455E+01   1.1733E+01   2.3682E-05  0.0137
   1.1733E+01   1.2019E+01   2.2366E-05  0.0139
   1.2019E+01   1.2311E+01   2.1184E-05  0.0141
   1.2311E+01   1.2611E+01   2.0077E-05  0.0144
   1.2611E+01   1.2918E+01   1.8974E-05  0.0146
   1.2918E+01   1.3232E+01   1.7881E-05  0.0149
   1.3232E+01   1.3554E+01   1.7353E-05  0.0149
   1.3554E+01   1.3884E+01   1.5922E-05  0.0154
   1.3884E+01   1.4222E+01   1.5239E-05  0.0155
   1.4222E+01   1.4568E+01   1.4311E-05  0.0158
   1.4568E+01   1.4922E+01   1.3250E-05  0.0163
   1.4922E+01   1.5285E+01   1.2744E-05  0.0164
   1.5285E+01   1.5657E+01   1.1611E-05  0.0170
   1.5657E+01   1.6038E+01   1.1159E-05  0.0171
   1.6038E+01   1.6428E+01   1.0551E-05  0.0174
   1.6428E+01   1.6828E+01   9.8643E-06  0.0178
   1.6828E+01   1.7237E+01   9.1422E-06  0.0183
   1.7237E+01   1.7657E+01   8.4933E-06  0.0187
   1.7657E+01   1.8086E+01   8.0469E-06  0.0190
   1.8086E+01   1.8526E+01   7.6386E-06  0.0193
   1.8526E+01   1.8977E+01   6.5916E-06  0.0205
   1.8977E+01   1.9439E+01   6.5719E-06  0.0203
   1.9439E+01   1.9912E+01   6.2666E-06  0.0205
   1.9912E+01   2.0396E+01   5.8130E-06  0.0211
   2.0396E+01   2.0893E+01   5.5515E-06  0.0213
   2.0893E+01   2.1401E+01   5.0041E-06  0.0222
   2.1401E+01   2.1922E+01   4.7724E-06  0.0224
   2.1922E+01   2.2455E+01   4.1317E-06  0.0238
   2.2455E+01   2.3001E+01   3.8986E-06  0.0242
   2.3001E+01   2.3561E+01   3.5201E-06  0.0252
   2.3561E+01   2.4134E+01   3.0418E-06  0.0268
   2.4134E+01   2.4721E+01   2.8780E-06  0.0272
   2.4721E+01   2.5323E+01   2.6185E-06  0.0282
   2.5323E+01   2.5939E+01   2.1424E-06  0.0308
   2.5939E+01   2.6570E+01   2.0400E-06  0.0312
   2.6570E+01   2.7217E+01   1.7460E-06  0.0333
   2.7217E+01   2.7879E+01   1.6290E-06  0.0340
   2.7879E+01   2.8557E+01   1.4005E-06  0.0363
   2.8557E+01   2.9252E+01   1.2125E-06  0.0385
   2.9252E+01   2.9964E+01   1.0801E-06  0.0403
   2.9964E+01   3.0693E+01   9.0873E-07  0.0434
   3.0693E+01   3.1440E+01   7.4654E-07  0.0474
   3.1440E+01   3.2205E+01   7.0266E-07  0.0482
   3.2205E+01   3.2988E+01   5.4718E-07  0.0540
   3.2988E+01   3.3791E+01   4.4853E-07  0.0589
   3.3791E+01   3.4613E+01   4.2267E-07  0.0600
   3.4613E+01   3.5455E+01   3.4138E-07  0.0659
   3.5455E+01   3.6318E+01   2.6517E-07  0.0739
   3.6318E+01   3.7201E+01   2.1361E-07  0.0814
   3.7201E+01   3.8106E+01   1.8505E-07  0.0864
   3.8106E+01   3.9034E+01   1.4156E-07  0.0976
   3.9034E+01   3.9983E+01   1.1056E-07  0.1091
   3.9983E+01   4.0956E+01   1.0151E-07  0.1125
   4.0956E+01   4.1953E+01   7.2755E-08  0.1313
   4.1953E+01   4.2973E+01   6.3679E-08  0.1387
   4.2973E+01   4.4019E+01   4.0647E-08  0.1715
   4.4019E+01   4.5090E+01   2.4509E-08  0.2182
   4.5090E+01   4.6187E+01   1.7091E-08  0.2582
   4.6187E+01   4.7311E+01   1.4460E-08  0.2774
   4.7311E+01   4.8462E+01   1.0859E-08  0.3162
   4.8462E+01   4.9641E+01   4.2405E-09  0.5000
   4.9641E+01   5.0849E+01   3.1048E-09  0.5774
   5.0849E+01   5.2086E+01   3.0311E-09  0.5774
   5.2086E+01   5.3353E+01   2.9591E-09  0.5774
   5.3353E+01   5.4651E+01   9.6292E-10  1.0000
   5.4651E+01   5.5981E+01   9.4005E-10  1.0000
   5.5981E+01   5.7343E+01   0.0000E+00  0.0000
   5.7343E+01   5.8738E+01   0.0000E+00  0.0000
   5.8738E+01   6.0168E+01   0.0000E+00  0.0000
   6.0168E+01   6.1632E+01   0.0000E+00  0.0000
   6.1632E+01   6.3131E+01   0.0000E+00  0.0000
   6.3131E+01   6.4667E+01   0.0000E+00  0.0000
   6.4667E+01   6.6240E+01   0.0000E+00  0.0000
   6.6240E+01   6.7852E+01   0.0000E+00  0.0000
   6.7852E+01   6.9503E+01   0.0000E+00  0.0000
   6.9503E+01   7.1194E+01   0.0000E+00  0.0000
   7.1194E+01   7.2926E+01   0.0000E+00  0.0000
   7.2926E+01   7.4701E+01   0.0000E+00  0.0000
   7.4701E+01   7.6518E+01   0.0000E+00  0.0000
   7.6518E+01   7.8380E+01   0.0000E+00  0.0000
   7.8380E+01   8.0287E+01   0.0000E+00  0.0000
   8.0287E+01   8.2240E+01   0.0000E+00  0.0000
   8.2240E+01   8.4241E+01   0.0000E+00  0.0000
   8.4241E+01   8.6291E+01   0.0000E+00  0.0000
   8.6291E+01   8.8391E+01   0.0000E+00  0.0000
   8.8391E+01   9.0541E+01   0.0000E+00  0.0000
   9.0541E+01   9.2744E+01   0.0000E+00  0.0000
   9.2744E+01   9.5001E+01   0.0000E+00  0.0000
   9.5001E+01   9.7312E+01   0.0000E+00  0.0000
   9.7312E+01   9.9680E+01   0.0000E+00  0.0000
   9.9680E+01   1.0211E+02   0.0000E+00  0.0000
   1.0211E+02   1.0459E+02   0.0000E+00  0.0000
   1.0459E+02   1.0713E+02   0.0000E+00  0.0000
   1.0713E+02   1.0974E+02   0.0000E+00  0.0000
   1.0974E+02   1.1241E+02   0.0000E+00  0.0000
   1.1241E+02   1.1515E+02   0.0000E+00  0.0000
   1.1515E+02   1.1795E+02   0.0000E+00  0.0000
   1.1795E+02   1.2082E+02   0.0000E+00  0.0000
   1.2082E+02   1.2376E+02   0.0000E+00  0.0000
   1.2376E+02   1.2677E+02   0.0000E+00  0.0000
   1.2677E+02   1.2985E+02   0.0000E+00  0.0000
   1.2985E+02   1.3301E+02   0.0000E+00  0.0000
   1.3301E+02   1.3625E+02   0.0000E+00  0.0000
   1.3625E+02   1.3956E+02   0.0000E+00  0.0000
   1.3956E+02   1.4296E+02   0.0000E+00  0.0000
   1.4296E+02   1.4644E+02   0.0000E+00  0.0000
   1.4644E+02   1.5000E+02   0.0000E+00  0.0000

#   sum over                 1.1399E-05
'no. =    1   reg = 115 - 215'
msuc: {\huge [t-cross] in region mesh}
msdr: {\it plotted by \ANGEL \version}
msdl: {\it calculated by \PHITS  3.26}
wt: s(0.7)
\vspace{-3}
  region surface crossing
  area  &=&   1.0000E+00 [cm^2]
e:
 
# Information for Restart Calculation
# This calculation was newly started
# istdev =  2 # 1:Batch variance, 2:History variance
# resc2  = 8.00000000000000000E+08 # Total source weight or Total source weight / maxcas
# resc3  = 8.00000000000000000E+08 # Total history number or Total batch number
# maxcas =   100000000 # History / Batch, only used for istdev=1
# bitrseed = 0100001000001110010000000000111111001100010000001010100011010001 # bit data of rseed
