[ T-Cross ]
    title = [t-cross] in region mesh
     mesh =  reg            # mesh type is region-wise
      reg =    1            # number of crossing regions
      non     r-from    r-to       area
      1       118       218        1.000000    
   e-type =    3            # e-mesh is log given by emin, emax and ne
     emin =  1.0000000E-02  # minimum value of e-mesh points
     emax =   150.0000      # maximum value of e-mesh points
#    edel =  2.4039514E-02  # mesh width of e-mesh points
       ne =    400          # number of e-mesh points
#    data = ( e(i), i = 1, ne + 1 )
#           1.00000E-02  1.02433E-02  1.04925E-02  1.07478E-02  1.10093E-02
#           1.12772E-02  1.15516E-02  1.18326E-02  1.21205E-02  1.24154E-02
#           1.27175E-02  1.30269E-02  1.33439E-02  1.36686E-02  1.40011E-02
#           1.43418E-02  1.46907E-02  1.50482E-02  1.54143E-02  1.57894E-02
#           1.61735E-02  1.65670E-02  1.69701E-02  1.73830E-02  1.78060E-02
#           1.82392E-02  1.86830E-02  1.91375E-02  1.96032E-02  2.00801E-02
#           2.05687E-02  2.10692E-02  2.15818E-02  2.21069E-02  2.26448E-02
#           2.31957E-02  2.37601E-02  2.43382E-02  2.49304E-02  2.55369E-02
#           2.61583E-02  2.67947E-02  2.74467E-02  2.81145E-02  2.87985E-02
#           2.94992E-02  3.02169E-02  3.09521E-02  3.17052E-02  3.24766E-02
#           3.32668E-02  3.40762E-02  3.49053E-02  3.57546E-02  3.66246E-02
#           3.75157E-02  3.84284E-02  3.93634E-02  4.03212E-02  4.13022E-02
#           4.23071E-02  4.33365E-02  4.43909E-02  4.54710E-02  4.65773E-02
#           4.77106E-02  4.88714E-02  5.00605E-02  5.12785E-02  5.25262E-02
#           5.38042E-02  5.51133E-02  5.64542E-02  5.78278E-02  5.92348E-02
#           6.06760E-02  6.21523E-02  6.36645E-02  6.52135E-02  6.68002E-02
#           6.84255E-02  7.00904E-02  7.17957E-02  7.35426E-02  7.53319E-02
#           7.71648E-02  7.90423E-02  8.09655E-02  8.29354E-02  8.49533E-02
#           8.70203E-02  8.91376E-02  9.13064E-02  9.35279E-02  9.58035E-02
#           9.81345E-02  1.00522E-01  1.02968E-01  1.05473E-01  1.08040E-01
#           1.10668E-01  1.13361E-01  1.16119E-01  1.18944E-01  1.21838E-01
#           1.24803E-01  1.27839E-01  1.30950E-01  1.34136E-01  1.37399E-01
#           1.40742E-01  1.44167E-01  1.47675E-01  1.51268E-01  1.54948E-01
#           1.58718E-01  1.62580E-01  1.66535E-01  1.70587E-01  1.74738E-01
#           1.78989E-01  1.83344E-01  1.87805E-01  1.92375E-01  1.97055E-01
#           2.01850E-01  2.06761E-01  2.11792E-01  2.16945E-01  2.22223E-01
#           2.27630E-01  2.33169E-01  2.38842E-01  2.44653E-01  2.50605E-01
#           2.56703E-01  2.62949E-01  2.69346E-01  2.75900E-01  2.82613E-01
#           2.89489E-01  2.96532E-01  3.03747E-01  3.11138E-01  3.18708E-01
#           3.26462E-01  3.34405E-01  3.42542E-01  3.50876E-01  3.59413E-01
#           3.68158E-01  3.77116E-01  3.86291E-01  3.95690E-01  4.05317E-01
#           4.15179E-01  4.25281E-01  4.35628E-01  4.46227E-01  4.57084E-01
#           4.68205E-01  4.79597E-01  4.91266E-01  5.03219E-01  5.15463E-01
#           5.28005E-01  5.40851E-01  5.54011E-01  5.67490E-01  5.81298E-01
#           5.95441E-01  6.09929E-01  6.24769E-01  6.39970E-01  6.55541E-01
#           6.71491E-01  6.87828E-01  7.04564E-01  7.21706E-01  7.39266E-01
#           7.57253E-01  7.75678E-01  7.94551E-01  8.13883E-01  8.33685E-01
#           8.53969E-01  8.74747E-01  8.96030E-01  9.17831E-01  9.40163E-01
#           9.63038E-01  9.86469E-01  1.01047E+00  1.03506E+00  1.06024E+00
#           1.08604E+00  1.11246E+00  1.13953E+00  1.16725E+00  1.19565E+00
#           1.22474E+00  1.25454E+00  1.28507E+00  1.31633E+00  1.34836E+00
#           1.38117E+00  1.41477E+00  1.44920E+00  1.48446E+00  1.52057E+00
#           1.55757E+00  1.59547E+00  1.63429E+00  1.67405E+00  1.71478E+00
#           1.75650E+00  1.79924E+00  1.84302E+00  1.88786E+00  1.93379E+00
#           1.98084E+00  2.02904E+00  2.07841E+00  2.12898E+00  2.18078E+00
#           2.23384E+00  2.28819E+00  2.34386E+00  2.40089E+00  2.45930E+00
#           2.51914E+00  2.58043E+00  2.64322E+00  2.70753E+00  2.77341E+00
#           2.84088E+00  2.91001E+00  2.98081E+00  3.05333E+00  3.12762E+00
#           3.20372E+00  3.28167E+00  3.36152E+00  3.44330E+00  3.52708E+00
#           3.61290E+00  3.70080E+00  3.79085E+00  3.88308E+00  3.97756E+00
#           4.07434E+00  4.17347E+00  4.27501E+00  4.37903E+00  4.48557E+00
#           4.59471E+00  4.70650E+00  4.82102E+00  4.93832E+00  5.05847E+00
#           5.18155E+00  5.30762E+00  5.43676E+00  5.56904E+00  5.70453E+00
#           5.84333E+00  5.98550E+00  6.13114E+00  6.28031E+00  6.43312E+00
#           6.58964E+00  6.74997E+00  6.91420E+00  7.08243E+00  7.25475E+00
#           7.43126E+00  7.61207E+00  7.79728E+00  7.98700E+00  8.18133E+00
#           8.38038E+00  8.58428E+00  8.79315E+00  9.00709E+00  9.22624E+00
#           9.45072E+00  9.68067E+00  9.91620E+00  1.01575E+01  1.04046E+01
#           1.06578E+01  1.09171E+01  1.11827E+01  1.14548E+01  1.17335E+01
#           1.20190E+01  1.23114E+01  1.26109E+01  1.29178E+01  1.32321E+01
#           1.35540E+01  1.38838E+01  1.42216E+01  1.45676E+01  1.49221E+01
#           1.52851E+01  1.56570E+01  1.60380E+01  1.64282E+01  1.68279E+01
#           1.72374E+01  1.76568E+01  1.80864E+01  1.85264E+01  1.89772E+01
#           1.94389E+01  1.99119E+01  2.03963E+01  2.08926E+01  2.14009E+01
#           2.19216E+01  2.24550E+01  2.30014E+01  2.35610E+01  2.41343E+01
#           2.47215E+01  2.53230E+01  2.59391E+01  2.65702E+01  2.72167E+01
#           2.78789E+01  2.85572E+01  2.92520E+01  2.99637E+01  3.06928E+01
#           3.14396E+01  3.22045E+01  3.29881E+01  3.37907E+01  3.46128E+01
#           3.54550E+01  3.63177E+01  3.72013E+01  3.81064E+01  3.90336E+01
#           3.99833E+01  4.09561E+01  4.19526E+01  4.29734E+01  4.40189E+01
#           4.50900E+01  4.61870E+01  4.73108E+01  4.84619E+01  4.96410E+01
#           5.08488E+01  5.20860E+01  5.33533E+01  5.46514E+01  5.59812E+01
#           5.73432E+01  5.87384E+01  6.01676E+01  6.16315E+01  6.31311E+01
#           6.46671E+01  6.62405E+01  6.78522E+01  6.95031E+01  7.11941E+01
#           7.29263E+01  7.47007E+01  7.65182E+01  7.83800E+01  8.02870E+01
#           8.22405E+01  8.42414E+01  8.62911E+01  8.83906E+01  9.05412E+01
#           9.27442E+01  9.50007E+01  9.73122E+01  9.96799E+01  1.02105E+02
#           1.04589E+02  1.07134E+02  1.09741E+02  1.12411E+02  1.15146E+02
#           1.17948E+02  1.20817E+02  1.23757E+02  1.26768E+02  1.29852E+02
#           1.33012E+02  1.36248E+02  1.39563E+02  1.42959E+02  1.46437E+02
#           1.50000E+02
     unit =    2            # unit is [1/cm^2/(MeV/n)/source]
     axis =  eng            # axis of output
     file = detector-19.out  # file name of output for the above axis
   output = f-curr          # surface crossing forward current spectrum
     part =  neutron  
# kf/name :  2112     
#    used :        main (  %)        temp (  %)       total (  %)
#  memory :         414 (  0)           0 (  0)         414 (  0)

#------------------------------------------------------------------------------
#newpage:
#   no. =    1   reg = 118 - 218

x: Energy [MeV/n]
y:  F-Curr [1/cm^2/(MeV/n)/source]         
p: xlog ylog afac(0.8) form(0.9)
h: n            x            y(neutron ),hh0l   n 
#  e-lower      e-upper      neutron     r.err 
   1.0000E-02   1.0243E-02   2.8915E-03  0.0531
   1.0243E-02   1.0493E-02   3.0806E-03  0.0509
   1.0493E-02   1.0748E-02   3.0636E-03  0.0504
   1.0748E-02   1.1009E-02   2.9453E-03  0.0509
   1.1009E-02   1.1277E-02   2.8319E-03  0.0512
   1.1277E-02   1.1552E-02   2.7003E-03  0.0518
   1.1552E-02   1.1833E-02   2.8375E-03  0.0499
   1.1833E-02   1.2121E-02   2.8575E-03  0.0492
   1.2121E-02   1.2415E-02   2.4567E-03  0.0524
   1.2415E-02   1.2718E-02   2.5563E-03  0.0508
   1.2718E-02   1.3027E-02   2.4387E-03  0.0514
   1.3027E-02   1.3344E-02   2.3343E-03  0.0519
   1.3344E-02   1.3669E-02   2.6366E-03  0.0482
   1.3669E-02   1.4001E-02   2.4161E-03  0.0498
   1.4001E-02   1.4342E-02   2.1515E-03  0.0520
   1.4342E-02   1.4691E-02   2.3659E-03  0.0491
   1.4691E-02   1.5048E-02   2.3097E-03  0.0491
   1.5048E-02   1.5414E-02   2.1421E-03  0.0503
   1.5414E-02   1.5789E-02   2.2048E-03  0.0491
   1.5789E-02   1.6174E-02   2.0811E-03  0.0499
   1.6174E-02   1.6567E-02   2.0258E-03  0.0500
   1.6567E-02   1.6970E-02   2.0967E-03  0.0485
   1.6970E-02   1.7383E-02   1.8174E-03  0.0515
   1.7383E-02   1.7806E-02   1.9850E-03  0.0487
   1.7806E-02   1.8239E-02   1.9291E-03  0.0488
   1.8239E-02   1.8683E-02   2.0086E-03  0.0473
   1.8683E-02   1.9138E-02   1.8095E-03  0.0492
   1.9138E-02   1.9603E-02   1.7031E-03  0.0501
   1.9603E-02   2.0080E-02   1.6954E-03  0.0496
   2.0080E-02   2.0569E-02   1.6084E-03  0.0503
   2.0569E-02   2.1069E-02   1.7303E-03  0.0479
   2.1069E-02   2.1582E-02   1.5724E-03  0.0497
   2.1582E-02   2.2107E-02   1.5691E-03  0.0491
   2.2107E-02   2.2645E-02   1.5182E-03  0.0494
   2.2645E-02   2.3196E-02   1.5021E-03  0.0490
   2.3196E-02   2.3760E-02   1.5846E-03  0.0471
   2.3760E-02   2.4338E-02   1.5779E-03  0.0467
   2.4338E-02   2.4930E-02   1.5157E-03  0.0471
   2.4930E-02   2.5537E-02   1.4017E-03  0.0485
   2.5537E-02   2.6158E-02   1.3984E-03  0.0478
   2.6158E-02   2.6795E-02   1.4742E-03  0.0460
   2.6795E-02   2.7447E-02   1.2729E-03  0.0489
   2.7447E-02   2.8114E-02   1.3127E-03  0.0476
   2.8114E-02   2.8799E-02   1.2874E-03  0.0475
   2.8799E-02   2.9499E-02   1.2885E-03  0.0470
   2.9499E-02   3.0217E-02   1.2057E-03  0.0480
   3.0217E-02   3.0952E-02   1.1707E-03  0.0480
   3.0952E-02   3.1705E-02   1.1673E-03  0.0476
   3.1705E-02   3.2477E-02   1.0327E-03  0.0500
   3.2477E-02   3.3267E-02   1.0199E-03  0.0496
   3.3267E-02   3.4076E-02   9.8349E-04  0.0500
   3.4076E-02   3.4905E-02   1.0177E-03  0.0486
   3.4905E-02   3.5755E-02   1.0551E-03  0.0471
   3.5755E-02   3.6625E-02   1.0072E-03  0.0477
   3.6625E-02   3.7516E-02   1.0243E-03  0.0467
   3.7516E-02   3.8428E-02   9.4351E-04  0.0481
   3.8428E-02   3.9363E-02   9.0350E-04  0.0485
   3.9363E-02   4.0321E-02   9.1431E-04  0.0477
   4.0321E-02   4.1302E-02   8.7886E-04  0.0480
   4.1302E-02   4.2307E-02   8.7813E-04  0.0475
   4.2307E-02   4.3337E-02   8.3637E-04  0.0481
   4.3337E-02   4.4391E-02   8.0030E-04  0.0486
   4.4391E-02   4.5471E-02   8.8220E-04  0.0457
   4.5471E-02   4.6577E-02   7.9324E-04  0.0476
   4.6577E-02   4.7711E-02   8.5052E-04  0.0455
   4.7711E-02   4.8871E-02   7.3757E-04  0.0482
   4.8871E-02   5.0061E-02   8.0894E-04  0.0453
   5.0061E-02   5.1279E-02   7.4776E-04  0.0468
   5.1279E-02   5.2526E-02   6.9980E-04  0.0477
   5.2526E-02   5.3804E-02   7.1398E-04  0.0466
   5.3804E-02   5.5113E-02   6.9544E-04  0.0468
   5.5113E-02   5.6454E-02   6.4933E-04  0.0478
   5.6454E-02   5.7828E-02   6.7396E-04  0.0464
   5.7828E-02   5.9235E-02   6.5752E-04  0.0464
   5.9235E-02   6.0676E-02   6.4458E-04  0.0463
   6.0676E-02   6.2152E-02   6.1308E-04  0.0468
   6.2152E-02   6.3665E-02   5.7341E-04  0.0479
   6.3665E-02   6.5214E-02   5.9220E-04  0.0466
   6.5214E-02   6.6800E-02   5.7268E-04  0.0468
   6.6800E-02   6.8426E-02   5.6924E-04  0.0463
   6.8426E-02   7.0090E-02   5.4115E-04  0.0470
   7.0090E-02   7.1796E-02   5.1973E-04  0.0474
   7.1796E-02   7.3543E-02   5.5985E-04  0.0451
   7.3543E-02   7.5332E-02   5.6796E-04  0.0443
   7.5332E-02   7.7165E-02   4.7360E-04  0.0479
   7.7165E-02   7.9042E-02   4.7710E-04  0.0471
   7.9042E-02   8.0965E-02   4.8096E-04  0.0463
   8.0965E-02   8.2935E-02   5.2466E-04  0.0439
   8.2935E-02   8.4953E-02   4.7012E-04  0.0457
   8.4953E-02   8.7020E-02   4.6094E-04  0.0456
   8.7020E-02   8.9138E-02   4.5444E-04  0.0455
   8.9138E-02   9.1306E-02   4.4800E-04  0.0453
   9.1306E-02   9.3528E-02   4.0368E-04  0.0471
   9.3528E-02   9.5804E-02   3.8518E-04  0.0476
   9.5804E-02   9.8134E-02   4.0475E-04  0.0459
   9.8134E-02   1.0052E-01   3.7106E-04  0.0474
   1.0052E-01   1.0297E-01   3.7154E-04  0.0468
   1.0297E-01   1.0547E-01   3.9084E-04  0.0450
   1.0547E-01   1.0804E-01   3.8965E-04  0.0446
   1.0804E-01   1.1067E-01   3.6914E-04  0.0453
   1.1067E-01   1.1336E-01   3.5038E-04  0.0459
   1.1336E-01   1.1612E-01   3.4211E-04  0.0459
   1.1612E-01   1.1894E-01   3.2942E-04  0.0463
   1.1894E-01   1.2184E-01   3.1277E-04  0.0468
   1.2184E-01   1.2480E-01   3.3609E-04  0.0447
   1.2480E-01   1.2784E-01   3.1323E-04  0.0457
   1.2784E-01   1.3095E-01   3.1803E-04  0.0448
   1.3095E-01   1.3414E-01   2.9856E-04  0.0458
   1.3414E-01   1.3740E-01   2.7540E-04  0.0470
   1.3740E-01   1.4074E-01   3.0966E-04  0.0438
   1.4074E-01   1.4417E-01   2.8621E-04  0.0450
   1.4417E-01   1.4767E-01   2.8365E-04  0.0447
   1.4767E-01   1.5127E-01   2.6980E-04  0.0453
   1.5127E-01   1.5495E-01   2.4762E-04  0.0467
   1.5495E-01   1.5872E-01   2.5584E-04  0.0454
   1.5872E-01   1.6258E-01   2.5840E-04  0.0446
   1.6258E-01   1.6654E-01   2.6648E-04  0.0434
   1.6654E-01   1.7059E-01   2.2455E-04  0.0468
   1.7059E-01   1.7474E-01   2.2799E-04  0.0458
   1.7474E-01   1.7899E-01   2.1909E-04  0.0462
   1.7899E-01   1.8334E-01   2.3099E-04  0.0444
   1.8334E-01   1.8781E-01   2.1152E-04  0.0459
   1.8781E-01   1.9237E-01   2.1099E-04  0.0454
   1.9237E-01   1.9706E-01   2.0229E-04  0.0458
   1.9706E-01   2.0185E-01   2.0331E-04  0.0452
   2.0185E-01   2.0676E-01   2.0512E-04  0.0444
   2.0676E-01   2.1179E-01   2.0334E-04  0.0441
   2.1179E-01   2.1694E-01   2.2323E-04  0.0415
   2.1694E-01   2.2222E-01   2.2454E-04  0.0409
   2.2222E-01   2.2763E-01   2.2167E-04  0.0407
   2.2763E-01   2.3317E-01   2.3276E-04  0.0393
   2.3317E-01   2.3884E-01   2.3687E-04  0.0385
   2.3884E-01   2.4465E-01   2.4598E-04  0.0373
   2.4465E-01   2.5061E-01   2.5912E-04  0.0359
   2.5061E-01   2.5670E-01   2.5631E-04  0.0356
   2.5670E-01   2.6295E-01   2.6199E-04  0.0348
   2.6295E-01   2.6935E-01   2.8195E-04  0.0332
   2.6935E-01   2.7590E-01   2.9068E-04  0.0323
   2.7590E-01   2.8261E-01   2.8978E-04  0.0319
   2.8261E-01   2.8949E-01   3.1959E-04  0.0301
   2.8949E-01   2.9653E-01   3.0505E-04  0.0304
   2.9653E-01   3.0375E-01   3.0047E-04  0.0303
   3.0375E-01   3.1114E-01   3.2367E-04  0.0288
   3.1114E-01   3.1871E-01   3.2893E-04  0.0282
   3.1871E-01   3.2646E-01   3.3010E-04  0.0278
   3.2646E-01   3.3441E-01   3.5219E-04  0.0266
   3.3441E-01   3.4254E-01   3.4322E-04  0.0267
   3.4254E-01   3.5088E-01   3.3876E-04  0.0265
   3.5088E-01   3.5941E-01   3.5677E-04  0.0255
   3.5941E-01   3.6816E-01   3.2778E-04  0.0263
   3.6816E-01   3.7712E-01   3.5911E-04  0.0248
   3.7712E-01   3.8629E-01   3.6203E-04  0.0244
   3.8629E-01   3.9569E-01   3.6683E-04  0.0240
   3.9569E-01   4.0532E-01   3.6578E-04  0.0237
   4.0532E-01   4.1518E-01   3.6059E-04  0.0236
   4.1518E-01   4.2528E-01   3.6900E-04  0.0231
   4.2528E-01   4.3563E-01   3.8550E-04  0.0223
   4.3563E-01   4.4623E-01   3.8277E-04  0.0221
   4.4623E-01   4.5708E-01   3.9625E-04  0.0215
   4.5708E-01   4.6821E-01   3.7275E-04  0.0219
   4.6821E-01   4.7960E-01   4.0124E-04  0.0208
   4.7960E-01   4.9127E-01   3.9190E-04  0.0208
   4.9127E-01   5.0322E-01   4.0093E-04  0.0203
   5.0322E-01   5.1546E-01   4.0129E-04  0.0201
   5.1546E-01   5.2800E-01   4.0404E-04  0.0198
   5.2800E-01   5.4085E-01   3.9543E-04  0.0197
   5.4085E-01   5.5401E-01   4.1231E-04  0.0191
   5.5401E-01   5.6749E-01   4.0363E-04  0.0191
   5.6749E-01   5.8130E-01   3.9759E-04  0.0190
   5.8130E-01   5.9544E-01   3.9192E-04  0.0189
   5.9544E-01   6.0993E-01   3.8972E-04  0.0187
   6.0993E-01   6.2477E-01   3.9363E-04  0.0184
   6.2477E-01   6.3997E-01   3.9322E-04  0.0182
   6.3997E-01   6.5554E-01   4.0274E-04  0.0177
   6.5554E-01   6.7149E-01   3.9496E-04  0.0177
   6.7149E-01   6.8783E-01   3.9629E-04  0.0175
   6.8783E-01   7.0456E-01   3.9314E-04  0.0173
   7.0456E-01   7.2171E-01   4.0860E-04  0.0168
   7.2171E-01   7.3927E-01   3.9960E-04  0.0168
   7.3927E-01   7.5725E-01   3.9075E-04  0.0168
   7.5725E-01   7.7568E-01   3.9469E-04  0.0165
   7.7568E-01   7.9455E-01   3.9447E-04  0.0163
   7.9455E-01   8.1388E-01   3.9204E-04  0.0161
   8.1388E-01   8.3368E-01   3.7363E-04  0.0163
   8.3368E-01   8.5397E-01   3.7943E-04  0.0160
   8.5397E-01   8.7475E-01   3.7427E-04  0.0159
   8.7475E-01   8.9603E-01   3.7795E-04  0.0156
   8.9603E-01   9.1783E-01   3.8121E-04  0.0154
   9.1783E-01   9.4016E-01   3.7410E-04  0.0154
   9.4016E-01   9.6304E-01   3.6850E-04  0.0153
   9.6304E-01   9.8647E-01   3.7723E-04  0.0149
   9.8647E-01   1.0105E+00   3.7649E-04  0.0148
   1.0105E+00   1.0351E+00   3.6849E-04  0.0147
   1.0351E+00   1.0602E+00   3.6155E-04  0.0147
   1.0602E+00   1.0860E+00   3.5781E-04  0.0146
   1.0860E+00   1.1125E+00   3.4469E-04  0.0147
   1.1125E+00   1.1395E+00   3.5082E-04  0.0144
   1.1395E+00   1.1673E+00   3.3671E-04  0.0145
   1.1673E+00   1.1957E+00   3.4532E-04  0.0142
   1.1957E+00   1.2247E+00   3.5011E-04  0.0139
   1.2247E+00   1.2545E+00   3.3986E-04  0.0139
   1.2545E+00   1.2851E+00   3.3765E-04  0.0138
   1.2851E+00   1.3163E+00   3.2965E-04  0.0138
   1.3163E+00   1.3484E+00   3.2724E-04  0.0137
   1.3484E+00   1.3812E+00   3.2444E-04  0.0136
   1.3812E+00   1.4148E+00   3.1712E-04  0.0136
   1.4148E+00   1.4492E+00   3.0828E-04  0.0136
   1.4492E+00   1.4845E+00   3.0239E-04  0.0136
   1.4845E+00   1.5206E+00   3.0503E-04  0.0134
   1.5206E+00   1.5576E+00   3.0432E-04  0.0132
   1.5576E+00   1.5955E+00   2.9556E-04  0.0132
   1.5955E+00   1.6343E+00   2.9653E-04  0.0131
   1.6343E+00   1.6741E+00   2.9611E-04  0.0129
   1.6741E+00   1.7148E+00   2.9375E-04  0.0128
   1.7148E+00   1.7565E+00   2.8844E-04  0.0128
   1.7565E+00   1.7992E+00   2.8326E-04  0.0128
   1.7992E+00   1.8430E+00   2.7667E-04  0.0127
   1.8430E+00   1.8879E+00   2.6597E-04  0.0128
   1.8879E+00   1.9338E+00   2.7190E-04  0.0125
   1.9338E+00   1.9808E+00   2.7297E-04  0.0124
   1.9808E+00   2.0290E+00   2.6605E-04  0.0124
   2.0290E+00   2.0784E+00   2.6220E-04  0.0123
   2.0784E+00   2.1290E+00   2.5927E-04  0.0122
   2.1290E+00   2.1808E+00   2.5948E-04  0.0121
   2.1808E+00   2.2338E+00   2.5478E-04  0.0121
   2.2338E+00   2.2882E+00   2.5563E-04  0.0119
   2.2882E+00   2.3439E+00   2.4948E-04  0.0119
   2.3439E+00   2.4009E+00   2.5145E-04  0.0117
   2.4009E+00   2.4593E+00   2.4895E-04  0.0116
   2.4593E+00   2.5191E+00   2.4525E-04  0.0116
   2.5191E+00   2.5804E+00   2.4450E-04  0.0115
   2.5804E+00   2.6432E+00   2.4019E-04  0.0114
   2.6432E+00   2.7075E+00   2.3853E-04  0.0113
   2.7075E+00   2.7734E+00   2.3626E-04  0.0113
   2.7734E+00   2.8409E+00   2.3092E-04  0.0112
   2.8409E+00   2.9100E+00   2.2364E-04  0.0113
   2.9100E+00   2.9808E+00   2.2046E-04  0.0112
   2.9808E+00   3.0533E+00   2.2199E-04  0.0111
   3.0533E+00   3.1276E+00   2.1377E-04  0.0112
   3.1276E+00   3.2037E+00   2.0656E-04  0.0112
   3.2037E+00   3.2817E+00   1.9826E-04  0.0113
   3.2817E+00   3.3615E+00   1.9031E-04  0.0114
   3.3615E+00   3.4433E+00   1.7689E-04  0.0117
   3.4433E+00   3.5271E+00   1.7076E-04  0.0117
   3.5271E+00   3.6129E+00   1.6771E-04  0.0117
   3.6129E+00   3.7008E+00   1.5480E-04  0.0120
   3.7008E+00   3.7908E+00   1.5225E-04  0.0120
   3.7908E+00   3.8831E+00   1.4807E-04  0.0120
   3.8831E+00   3.9776E+00   1.3968E-04  0.0122
   3.9776E+00   4.0743E+00   1.3597E-04  0.0122
   4.0743E+00   4.1735E+00   1.3363E-04  0.0122
   4.1735E+00   4.2750E+00   1.2987E-04  0.0122
   4.2750E+00   4.3790E+00   1.2412E-04  0.0124
   4.3790E+00   4.4856E+00   1.2452E-04  0.0122
   4.4856E+00   4.5947E+00   1.2026E-04  0.0123
   4.5947E+00   4.7065E+00   1.1788E-04  0.0122
   4.7065E+00   4.8210E+00   1.1200E-04  0.0124
   4.8210E+00   4.9383E+00   1.1112E-04  0.0123
   4.9383E+00   5.0585E+00   1.0603E-04  0.0125
   5.0585E+00   5.1815E+00   1.0286E-04  0.0125
   5.1815E+00   5.3076E+00   1.0061E-04  0.0125
   5.3076E+00   5.4368E+00   9.9711E-05  0.0124
   5.4368E+00   5.5690E+00   9.3650E-05  0.0126
   5.5690E+00   5.7045E+00   9.4115E-05  0.0125
   5.7045E+00   5.8433E+00   8.9628E-05  0.0126
   5.8433E+00   5.9855E+00   8.8469E-05  0.0126
   5.9855E+00   6.1311E+00   8.5555E-05  0.0126
   6.1311E+00   6.2803E+00   8.4705E-05  0.0125
   6.2803E+00   6.4331E+00   8.0344E-05  0.0127
   6.4331E+00   6.5896E+00   7.9330E-05  0.0127
   6.5896E+00   6.7500E+00   7.8050E-05  0.0126
   6.7500E+00   6.9142E+00   7.5227E-05  0.0127
   6.9142E+00   7.0824E+00   7.3416E-05  0.0127
   7.0824E+00   7.2548E+00   7.2437E-05  0.0126
   7.2548E+00   7.4313E+00   6.7350E-05  0.0129
   7.4313E+00   7.6121E+00   6.6617E-05  0.0129
   7.6121E+00   7.7973E+00   6.5027E-05  0.0129
   7.7973E+00   7.9870E+00   6.3382E-05  0.0129
   7.9870E+00   8.1813E+00   6.2547E-05  0.0128
   8.1813E+00   8.3804E+00   5.8870E-05  0.0130
   8.3804E+00   8.5843E+00   5.7014E-05  0.0131
   8.5843E+00   8.7931E+00   5.5145E-05  0.0132
   8.7931E+00   9.0071E+00   5.2565E-05  0.0133
   9.0071E+00   9.2262E+00   5.0348E-05  0.0134
   9.2262E+00   9.4507E+00   4.9302E-05  0.0134
   9.4507E+00   9.6807E+00   4.8126E-05  0.0134
   9.6807E+00   9.9162E+00   4.5115E-05  0.0137
   9.9162E+00   1.0157E+01   4.3753E-05  0.0137
   1.0157E+01   1.0405E+01   4.4593E-05  0.0135
   1.0405E+01   1.0658E+01   4.7627E-05  0.0129
   1.0658E+01   1.0917E+01   4.8359E-05  0.0126
   1.0917E+01   1.1183E+01   4.4860E-05  0.0129
   1.1183E+01   1.1455E+01   4.3674E-05  0.0130
   1.1455E+01   1.1733E+01   4.1075E-05  0.0132
   1.1733E+01   1.2019E+01   3.8710E-05  0.0134
   1.2019E+01   1.2311E+01   3.6539E-05  0.0137
   1.2311E+01   1.2611E+01   3.4618E-05  0.0139
   1.2611E+01   1.2918E+01   3.2419E-05  0.0142
   1.2918E+01   1.3232E+01   3.2782E-05  0.0139
   1.3232E+01   1.3554E+01   3.1073E-05  0.0141
   1.3554E+01   1.3884E+01   2.9356E-05  0.0144
   1.3884E+01   1.4222E+01   2.7654E-05  0.0146
   1.4222E+01   1.4568E+01   2.6060E-05  0.0149
   1.4568E+01   1.4922E+01   2.4571E-05  0.0151
   1.4922E+01   1.5285E+01   2.3889E-05  0.0152
   1.5285E+01   1.5657E+01   2.1971E-05  0.0156
   1.5657E+01   1.6038E+01   2.0766E-05  0.0159
   1.6038E+01   1.6428E+01   1.9971E-05  0.0160
   1.6428E+01   1.6828E+01   1.8728E-05  0.0163
   1.6828E+01   1.7237E+01   1.7878E-05  0.0165
   1.7237E+01   1.7657E+01   1.7243E-05  0.0166
   1.7657E+01   1.8086E+01   1.6823E-05  0.0166
   1.8086E+01   1.8526E+01   1.5013E-05  0.0174
   1.8526E+01   1.8977E+01   1.4607E-05  0.0174
   1.8977E+01   1.9439E+01   1.3569E-05  0.0179
   1.9439E+01   1.9912E+01   1.2855E-05  0.0181
   1.9912E+01   2.0396E+01   1.2657E-05  0.0181
   2.0396E+01   2.0893E+01   1.1155E-05  0.0190
   2.0893E+01   2.1401E+01   1.0556E-05  0.0193
   2.1401E+01   2.1922E+01   9.5871E-06  0.0200
   2.1922E+01   2.2455E+01   8.6656E-06  0.0208
   2.2455E+01   2.3001E+01   7.9729E-06  0.0214
   2.3001E+01   2.3561E+01   6.9044E-06  0.0228
   2.3561E+01   2.4134E+01   6.2520E-06  0.0236
   2.4134E+01   2.4721E+01   5.4972E-06  0.0249
   2.4721E+01   2.5323E+01   4.5154E-06  0.0271
   2.5323E+01   2.5939E+01   3.9180E-06  0.0288
   2.5939E+01   2.6570E+01   3.0834E-06  0.0321
   2.6570E+01   2.7217E+01   2.6668E-06  0.0341
   2.7217E+01   2.7879E+01   1.9933E-06  0.0389
   2.7879E+01   2.8557E+01   1.3386E-06  0.0469
   2.8557E+01   2.9252E+01   8.3187E-07  0.0588
   2.9252E+01   2.9964E+01   6.5475E-07  0.0655
   2.9964E+01   3.0693E+01   4.1973E-07  0.0808
   3.0693E+01   3.1440E+01   2.8656E-07  0.0967
   3.1440E+01   3.2205E+01   1.5426E-07  0.1302
   3.2205E+01   3.2988E+01   5.1049E-08  0.2236
   3.2988E+01   3.3791E+01   1.7443E-08  0.3780
   3.3791E+01   3.4613E+01   2.4326E-09  1.0000
   3.4613E+01   3.5455E+01   0.0000E+00  0.0000
   3.5455E+01   3.6318E+01   0.0000E+00  0.0000
   3.6318E+01   3.7201E+01   0.0000E+00  0.0000
   3.7201E+01   3.8106E+01   0.0000E+00  0.0000
   3.8106E+01   3.9034E+01   0.0000E+00  0.0000
   3.9034E+01   3.9983E+01   0.0000E+00  0.0000
   3.9983E+01   4.0956E+01   0.0000E+00  0.0000
   4.0956E+01   4.1953E+01   0.0000E+00  0.0000
   4.1953E+01   4.2973E+01   0.0000E+00  0.0000
   4.2973E+01   4.4019E+01   0.0000E+00  0.0000
   4.4019E+01   4.5090E+01   0.0000E+00  0.0000
   4.5090E+01   4.6187E+01   0.0000E+00  0.0000
   4.6187E+01   4.7311E+01   0.0000E+00  0.0000
   4.7311E+01   4.8462E+01   0.0000E+00  0.0000
   4.8462E+01   4.9641E+01   0.0000E+00  0.0000
   4.9641E+01   5.0849E+01   0.0000E+00  0.0000
   5.0849E+01   5.2086E+01   0.0000E+00  0.0000
   5.2086E+01   5.3353E+01   0.0000E+00  0.0000
   5.3353E+01   5.4651E+01   0.0000E+00  0.0000
   5.4651E+01   5.5981E+01   0.0000E+00  0.0000
   5.5981E+01   5.7343E+01   0.0000E+00  0.0000
   5.7343E+01   5.8738E+01   0.0000E+00  0.0000
   5.8738E+01   6.0168E+01   0.0000E+00  0.0000
   6.0168E+01   6.1632E+01   0.0000E+00  0.0000
   6.1632E+01   6.3131E+01   0.0000E+00  0.0000
   6.3131E+01   6.4667E+01   0.0000E+00  0.0000
   6.4667E+01   6.6240E+01   0.0000E+00  0.0000
   6.6240E+01   6.7852E+01   0.0000E+00  0.0000
   6.7852E+01   6.9503E+01   0.0000E+00  0.0000
   6.9503E+01   7.1194E+01   0.0000E+00  0.0000
   7.1194E+01   7.2926E+01   0.0000E+00  0.0000
   7.2926E+01   7.4701E+01   0.0000E+00  0.0000
   7.4701E+01   7.6518E+01   0.0000E+00  0.0000
   7.6518E+01   7.8380E+01   0.0000E+00  0.0000
   7.8380E+01   8.0287E+01   0.0000E+00  0.0000
   8.0287E+01   8.2240E+01   0.0000E+00  0.0000
   8.2240E+01   8.4241E+01   0.0000E+00  0.0000
   8.4241E+01   8.6291E+01   0.0000E+00  0.0000
   8.6291E+01   8.8391E+01   0.0000E+00  0.0000
   8.8391E+01   9.0541E+01   0.0000E+00  0.0000
   9.0541E+01   9.2744E+01   0.0000E+00  0.0000
   9.2744E+01   9.5001E+01   0.0000E+00  0.0000
   9.5001E+01   9.7312E+01   0.0000E+00  0.0000
   9.7312E+01   9.9680E+01   0.0000E+00  0.0000
   9.9680E+01   1.0211E+02   0.0000E+00  0.0000
   1.0211E+02   1.0459E+02   0.0000E+00  0.0000
   1.0459E+02   1.0713E+02   0.0000E+00  0.0000
   1.0713E+02   1.0974E+02   0.0000E+00  0.0000
   1.0974E+02   1.1241E+02   0.0000E+00  0.0000
   1.1241E+02   1.1515E+02   0.0000E+00  0.0000
   1.1515E+02   1.1795E+02   0.0000E+00  0.0000
   1.1795E+02   1.2082E+02   0.0000E+00  0.0000
   1.2082E+02   1.2376E+02   0.0000E+00  0.0000
   1.2376E+02   1.2677E+02   0.0000E+00  0.0000
   1.2677E+02   1.2985E+02   0.0000E+00  0.0000
   1.2985E+02   1.3301E+02   0.0000E+00  0.0000
   1.3301E+02   1.3625E+02   0.0000E+00  0.0000
   1.3625E+02   1.3956E+02   0.0000E+00  0.0000
   1.3956E+02   1.4296E+02   0.0000E+00  0.0000
   1.4296E+02   1.4644E+02   0.0000E+00  0.0000
   1.4644E+02   1.5000E+02   0.0000E+00  0.0000

#   sum over                 1.2802E-05
'no. =    1   reg = 118 - 218'
msuc: {\huge [t-cross] in region mesh}
msdr: {\it plotted by \ANGEL \version}
msdl: {\it calculated by \PHITS  3.26}
wt: s(0.7)
\vspace{-3}
  region surface crossing
  area  &=&   1.0000E+00 [cm^2]
e:
 
# Information for Restart Calculation
# This calculation was newly started
# istdev =  2 # 1:Batch variance, 2:History variance
# resc2  = 5.00000000000000000E+08 # Total source weight or Total source weight / maxcas
# resc3  = 5.00000000000000000E+08 # Total history number or Total batch number
# maxcas =   500000000 # History / Batch, only used for istdev=1
# bitrseed = 1101101111010011011000101101110001100110110010110001010100010001 # bit data of rseed
