[ T-Cross ]
    title = [t-cross] in region mesh
     mesh =  reg            # mesh type is region-wise
      reg =    1            # number of crossing regions
      non     r-from    r-to       area
      1       114       214        1.000000    
   e-type =    3            # e-mesh is log given by emin, emax and ne
     emin =  1.0000000E-02  # minimum value of e-mesh points
     emax =   150.0000      # maximum value of e-mesh points
#    edel =  2.4039514E-02  # mesh width of e-mesh points
       ne =    400          # number of e-mesh points
#    data = ( e(i), i = 1, ne + 1 )
#           1.00000E-02  1.02433E-02  1.04925E-02  1.07478E-02  1.10093E-02
#           1.12772E-02  1.15516E-02  1.18326E-02  1.21205E-02  1.24154E-02
#           1.27175E-02  1.30269E-02  1.33439E-02  1.36686E-02  1.40011E-02
#           1.43418E-02  1.46907E-02  1.50482E-02  1.54143E-02  1.57894E-02
#           1.61735E-02  1.65670E-02  1.69701E-02  1.73830E-02  1.78060E-02
#           1.82392E-02  1.86830E-02  1.91375E-02  1.96032E-02  2.00801E-02
#           2.05687E-02  2.10692E-02  2.15818E-02  2.21069E-02  2.26448E-02
#           2.31957E-02  2.37601E-02  2.43382E-02  2.49304E-02  2.55369E-02
#           2.61583E-02  2.67947E-02  2.74467E-02  2.81145E-02  2.87985E-02
#           2.94992E-02  3.02169E-02  3.09521E-02  3.17052E-02  3.24766E-02
#           3.32668E-02  3.40762E-02  3.49053E-02  3.57546E-02  3.66246E-02
#           3.75157E-02  3.84284E-02  3.93634E-02  4.03212E-02  4.13022E-02
#           4.23071E-02  4.33365E-02  4.43909E-02  4.54710E-02  4.65773E-02
#           4.77106E-02  4.88714E-02  5.00605E-02  5.12785E-02  5.25262E-02
#           5.38042E-02  5.51133E-02  5.64542E-02  5.78278E-02  5.92348E-02
#           6.06760E-02  6.21523E-02  6.36645E-02  6.52135E-02  6.68002E-02
#           6.84255E-02  7.00904E-02  7.17957E-02  7.35426E-02  7.53319E-02
#           7.71648E-02  7.90423E-02  8.09655E-02  8.29354E-02  8.49533E-02
#           8.70203E-02  8.91376E-02  9.13064E-02  9.35279E-02  9.58035E-02
#           9.81345E-02  1.00522E-01  1.02968E-01  1.05473E-01  1.08040E-01
#           1.10668E-01  1.13361E-01  1.16119E-01  1.18944E-01  1.21838E-01
#           1.24803E-01  1.27839E-01  1.30950E-01  1.34136E-01  1.37399E-01
#           1.40742E-01  1.44167E-01  1.47675E-01  1.51268E-01  1.54948E-01
#           1.58718E-01  1.62580E-01  1.66535E-01  1.70587E-01  1.74738E-01
#           1.78989E-01  1.83344E-01  1.87805E-01  1.92375E-01  1.97055E-01
#           2.01850E-01  2.06761E-01  2.11792E-01  2.16945E-01  2.22223E-01
#           2.27630E-01  2.33169E-01  2.38842E-01  2.44653E-01  2.50605E-01
#           2.56703E-01  2.62949E-01  2.69346E-01  2.75900E-01  2.82613E-01
#           2.89489E-01  2.96532E-01  3.03747E-01  3.11138E-01  3.18708E-01
#           3.26462E-01  3.34405E-01  3.42542E-01  3.50876E-01  3.59413E-01
#           3.68158E-01  3.77116E-01  3.86291E-01  3.95690E-01  4.05317E-01
#           4.15179E-01  4.25281E-01  4.35628E-01  4.46227E-01  4.57084E-01
#           4.68205E-01  4.79597E-01  4.91266E-01  5.03219E-01  5.15463E-01
#           5.28005E-01  5.40851E-01  5.54011E-01  5.67490E-01  5.81298E-01
#           5.95441E-01  6.09929E-01  6.24769E-01  6.39970E-01  6.55541E-01
#           6.71491E-01  6.87828E-01  7.04564E-01  7.21706E-01  7.39266E-01
#           7.57253E-01  7.75678E-01  7.94551E-01  8.13883E-01  8.33685E-01
#           8.53969E-01  8.74747E-01  8.96030E-01  9.17831E-01  9.40163E-01
#           9.63038E-01  9.86469E-01  1.01047E+00  1.03506E+00  1.06024E+00
#           1.08604E+00  1.11246E+00  1.13953E+00  1.16725E+00  1.19565E+00
#           1.22474E+00  1.25454E+00  1.28507E+00  1.31633E+00  1.34836E+00
#           1.38117E+00  1.41477E+00  1.44920E+00  1.48446E+00  1.52057E+00
#           1.55757E+00  1.59547E+00  1.63429E+00  1.67405E+00  1.71478E+00
#           1.75650E+00  1.79924E+00  1.84302E+00  1.88786E+00  1.93379E+00
#           1.98084E+00  2.02904E+00  2.07841E+00  2.12898E+00  2.18078E+00
#           2.23384E+00  2.28819E+00  2.34386E+00  2.40089E+00  2.45930E+00
#           2.51914E+00  2.58043E+00  2.64322E+00  2.70753E+00  2.77341E+00
#           2.84088E+00  2.91001E+00  2.98081E+00  3.05333E+00  3.12762E+00
#           3.20372E+00  3.28167E+00  3.36152E+00  3.44330E+00  3.52708E+00
#           3.61290E+00  3.70080E+00  3.79085E+00  3.88308E+00  3.97756E+00
#           4.07434E+00  4.17347E+00  4.27501E+00  4.37903E+00  4.48557E+00
#           4.59471E+00  4.70650E+00  4.82102E+00  4.93832E+00  5.05847E+00
#           5.18155E+00  5.30762E+00  5.43676E+00  5.56904E+00  5.70453E+00
#           5.84333E+00  5.98550E+00  6.13114E+00  6.28031E+00  6.43312E+00
#           6.58964E+00  6.74997E+00  6.91420E+00  7.08243E+00  7.25475E+00
#           7.43126E+00  7.61207E+00  7.79728E+00  7.98700E+00  8.18133E+00
#           8.38038E+00  8.58428E+00  8.79315E+00  9.00709E+00  9.22624E+00
#           9.45072E+00  9.68067E+00  9.91620E+00  1.01575E+01  1.04046E+01
#           1.06578E+01  1.09171E+01  1.11827E+01  1.14548E+01  1.17335E+01
#           1.20190E+01  1.23114E+01  1.26109E+01  1.29178E+01  1.32321E+01
#           1.35540E+01  1.38838E+01  1.42216E+01  1.45676E+01  1.49221E+01
#           1.52851E+01  1.56570E+01  1.60380E+01  1.64282E+01  1.68279E+01
#           1.72374E+01  1.76568E+01  1.80864E+01  1.85264E+01  1.89772E+01
#           1.94389E+01  1.99119E+01  2.03963E+01  2.08926E+01  2.14009E+01
#           2.19216E+01  2.24550E+01  2.30014E+01  2.35610E+01  2.41343E+01
#           2.47215E+01  2.53230E+01  2.59391E+01  2.65702E+01  2.72167E+01
#           2.78789E+01  2.85572E+01  2.92520E+01  2.99637E+01  3.06928E+01
#           3.14396E+01  3.22045E+01  3.29881E+01  3.37907E+01  3.46128E+01
#           3.54550E+01  3.63177E+01  3.72013E+01  3.81064E+01  3.90336E+01
#           3.99833E+01  4.09561E+01  4.19526E+01  4.29734E+01  4.40189E+01
#           4.50900E+01  4.61870E+01  4.73108E+01  4.84619E+01  4.96410E+01
#           5.08488E+01  5.20860E+01  5.33533E+01  5.46514E+01  5.59812E+01
#           5.73432E+01  5.87384E+01  6.01676E+01  6.16315E+01  6.31311E+01
#           6.46671E+01  6.62405E+01  6.78522E+01  6.95031E+01  7.11941E+01
#           7.29263E+01  7.47007E+01  7.65182E+01  7.83800E+01  8.02870E+01
#           8.22405E+01  8.42414E+01  8.62911E+01  8.83906E+01  9.05412E+01
#           9.27442E+01  9.50007E+01  9.73122E+01  9.96799E+01  1.02105E+02
#           1.04589E+02  1.07134E+02  1.09741E+02  1.12411E+02  1.15146E+02
#           1.17948E+02  1.20817E+02  1.23757E+02  1.26768E+02  1.29852E+02
#           1.33012E+02  1.36248E+02  1.39563E+02  1.42959E+02  1.46437E+02
#           1.50000E+02
     unit =    2            # unit is [1/cm^2/(MeV/n)/source]
     axis =  eng            # axis of output
     file = detector-15.out  # file name of output for the above axis
   output = f-curr          # surface crossing forward current spectrum
     part =  neutron  
# kf/name :  2112     
#    used :        main (  %)        temp (  %)       total (  %)
#  memory :         414 (  0)           0 (  0)         414 (  0)

#------------------------------------------------------------------------------
#newpage:
#   no. =    1   reg = 114 - 214

x: Energy [MeV/n]
y:  F-Curr [1/cm^2/(MeV/n)/source]         
p: xlog ylog afac(0.8) form(0.9)
h: n            x            y(neutron ),hh0l   n 
#  e-lower      e-upper      neutron     r.err 
   1.0000E-02   1.0243E-02   5.6430E-04  0.0380
   1.0243E-02   1.0493E-02   5.4438E-04  0.0383
   1.0493E-02   1.0748E-02   5.4197E-04  0.0379
   1.0748E-02   1.1009E-02   5.6932E-04  0.0365
   1.1009E-02   1.1277E-02   5.4488E-04  0.0369
   1.1277E-02   1.1552E-02   5.4482E-04  0.0364
   1.1552E-02   1.1833E-02   5.1984E-04  0.0368
   1.1833E-02   1.2121E-02   4.9516E-04  0.0373
   1.2121E-02   1.2415E-02   4.8174E-04  0.0374
   1.2415E-02   1.2718E-02   4.9112E-04  0.0366
   1.2718E-02   1.3027E-02   4.4314E-04  0.0380
   1.3027E-02   1.3344E-02   4.7436E-04  0.0363
   1.3344E-02   1.3669E-02   4.5933E-04  0.0365
   1.3669E-02   1.4001E-02   4.4999E-04  0.0364
   1.4001E-02   1.4342E-02   3.9492E-04  0.0384
   1.4342E-02   1.4691E-02   4.1746E-04  0.0369
   1.4691E-02   1.5048E-02   4.4285E-04  0.0353
   1.5048E-02   1.5414E-02   4.1326E-04  0.0362
   1.5414E-02   1.5789E-02   3.9179E-04  0.0367
   1.5789E-02   1.6174E-02   3.7272E-04  0.0372
   1.6174E-02   1.6567E-02   3.5421E-04  0.0377
   1.6567E-02   1.6970E-02   3.6024E-04  0.0369
   1.6970E-02   1.7383E-02   3.7074E-04  0.0360
   1.7383E-02   1.7806E-02   3.6441E-04  0.0359
   1.7806E-02   1.8239E-02   3.4849E-04  0.0362
   1.8239E-02   1.8683E-02   3.1929E-04  0.0374
   1.8683E-02   1.9138E-02   3.3780E-04  0.0360
   1.9138E-02   1.9603E-02   3.3156E-04  0.0358
   1.9603E-02   2.0080E-02   3.2426E-04  0.0358
   2.0080E-02   2.0569E-02   2.8873E-04  0.0375
   2.0569E-02   2.1069E-02   2.8492E-04  0.0373
   2.1069E-02   2.1582E-02   2.8032E-04  0.0372
   2.1582E-02   2.2107E-02   2.8358E-04  0.0365
   2.2107E-02   2.2645E-02   2.8508E-04  0.0360
   2.2645E-02   2.3196E-02   2.8954E-04  0.0352
   2.3196E-02   2.3760E-02   2.6864E-04  0.0362
   2.3760E-02   2.4338E-02   2.6447E-04  0.0360
   2.4338E-02   2.4930E-02   2.7303E-04  0.0350
   2.4930E-02   2.5537E-02   2.3667E-04  0.0371
   2.5537E-02   2.6158E-02   2.5275E-04  0.0355
   2.6158E-02   2.6795E-02   2.4868E-04  0.0354
   2.6795E-02   2.7447E-02   2.5628E-04  0.0344
   2.7447E-02   2.8114E-02   2.2680E-04  0.0362
   2.8114E-02   2.8799E-02   2.2630E-04  0.0358
   2.8799E-02   2.9499E-02   2.2890E-04  0.0352
   2.9499E-02   3.0217E-02   2.2534E-04  0.0350
   3.0217E-02   3.0952E-02   2.2064E-04  0.0350
   3.0952E-02   3.1705E-02   2.1953E-04  0.0346
   3.1705E-02   3.2477E-02   2.1019E-04  0.0350
   3.2477E-02   3.3267E-02   2.1233E-04  0.0344
   3.3267E-02   3.4076E-02   1.9572E-04  0.0354
   3.4076E-02   3.4905E-02   1.9348E-04  0.0352
   3.4905E-02   3.5755E-02   1.9923E-04  0.0343
   3.5755E-02   3.6625E-02   1.8582E-04  0.0350
   3.6625E-02   3.7516E-02   1.8302E-04  0.0349
   3.7516E-02   3.8428E-02   1.7246E-04  0.0355
   3.8428E-02   3.9363E-02   1.9662E-04  0.0329
   3.9363E-02   4.0321E-02   1.7049E-04  0.0349
   4.0321E-02   4.1302E-02   1.6658E-04  0.0348
   4.1302E-02   4.2307E-02   1.6198E-04  0.0349
   4.2307E-02   4.3337E-02   1.6034E-04  0.0346
   4.3337E-02   4.4391E-02   1.6202E-04  0.0341
   4.4391E-02   4.5471E-02   1.6609E-04  0.0333
   4.5471E-02   4.6577E-02   1.5760E-04  0.0337
   4.6577E-02   4.7711E-02   1.5201E-04  0.0339
   4.7711E-02   4.8871E-02   1.4812E-04  0.0340
   4.8871E-02   5.0061E-02   1.2682E-04  0.0363
   5.0061E-02   5.1279E-02   1.3890E-04  0.0342
   5.1279E-02   5.2526E-02   1.3850E-04  0.0339
   5.2526E-02   5.3804E-02   1.3980E-04  0.0333
   5.3804E-02   5.5113E-02   1.3129E-04  0.0339
   5.5113E-02   5.6454E-02   1.2912E-04  0.0338
   5.6454E-02   5.7828E-02   1.3253E-04  0.0330
   5.7828E-02   5.9235E-02   1.2437E-04  0.0337
   5.9235E-02   6.0676E-02   1.2074E-04  0.0338
   6.0676E-02   6.2152E-02   1.2584E-04  0.0327
   6.2152E-02   6.3665E-02   1.1728E-04  0.0335
   6.3665E-02   6.5214E-02   1.1249E-04  0.0337
   6.5214E-02   6.6800E-02   1.1827E-04  0.0325
   6.6800E-02   6.8426E-02   1.1015E-04  0.0333
   6.8426E-02   7.0090E-02   1.1245E-04  0.0326
   7.0090E-02   7.1796E-02   1.0403E-04  0.0335
   7.1796E-02   7.3543E-02   1.1197E-04  0.0319
   7.3543E-02   7.5332E-02   9.7223E-05  0.0337
   7.5332E-02   7.7165E-02   9.9068E-05  0.0330
   7.7165E-02   7.9042E-02   9.8993E-05  0.0326
   7.9042E-02   8.0965E-02   9.4139E-05  0.0331
   8.0965E-02   8.2935E-02   9.1333E-05  0.0332
   8.2935E-02   8.4953E-02   9.2441E-05  0.0326
   8.4953E-02   8.7020E-02   9.2443E-05  0.0322
   8.7020E-02   8.9138E-02   8.6171E-05  0.0330
   8.9138E-02   9.1306E-02   8.3249E-05  0.0331
   9.1306E-02   9.3528E-02   8.6041E-05  0.0322
   9.3528E-02   9.5804E-02   7.5591E-05  0.0339
   9.5804E-02   9.8134E-02   7.8287E-05  0.0330
   9.8134E-02   1.0052E-01   7.6602E-05  0.0329
   1.0052E-01   1.0297E-01   7.8101E-05  0.0322
   1.0297E-01   1.0547E-01   7.4603E-05  0.0325
   1.0547E-01   1.0804E-01   7.4033E-05  0.0323
   1.0804E-01   1.1067E-01   7.2033E-05  0.0323
   1.1067E-01   1.1336E-01   7.2174E-05  0.0319
   1.1336E-01   1.1612E-01   7.2129E-05  0.0315
   1.1612E-01   1.1894E-01   7.1089E-05  0.0314
   1.1894E-01   1.2184E-01   6.7485E-05  0.0319
   1.2184E-01   1.2480E-01   6.5900E-05  0.0319
   1.2480E-01   1.2784E-01   6.0873E-05  0.0327
   1.2784E-01   1.3095E-01   6.2031E-05  0.0321
   1.3095E-01   1.3414E-01   6.0065E-05  0.0322
   1.3414E-01   1.3740E-01   6.1131E-05  0.0315
   1.3740E-01   1.4074E-01   5.5808E-05  0.0326
   1.4074E-01   1.4417E-01   6.0054E-05  0.0311
   1.4417E-01   1.4767E-01   5.4765E-05  0.0321
   1.4767E-01   1.5127E-01   5.3478E-05  0.0321
   1.5127E-01   1.5495E-01   5.4301E-05  0.0315
   1.5495E-01   1.5872E-01   5.3222E-05  0.0314
   1.5872E-01   1.6258E-01   5.1600E-05  0.0315
   1.6258E-01   1.6654E-01   5.0046E-05  0.0317
   1.6654E-01   1.7059E-01   4.7316E-05  0.0322
   1.7059E-01   1.7474E-01   5.1727E-05  0.0304
   1.7474E-01   1.7899E-01   4.8995E-05  0.0309
   1.7899E-01   1.8334E-01   4.6137E-05  0.0314
   1.8334E-01   1.8781E-01   4.7043E-05  0.0307
   1.8781E-01   1.9237E-01   4.6090E-05  0.0307
   1.9237E-01   1.9706E-01   4.1866E-05  0.0318
   1.9706E-01   2.0185E-01   4.2550E-05  0.0311
   2.0185E-01   2.0676E-01   4.3699E-05  0.0304
   2.0676E-01   2.1179E-01   4.7578E-05  0.0288
   2.1179E-01   2.1694E-01   4.9958E-05  0.0277
   2.1694E-01   2.2222E-01   4.8889E-05  0.0277
   2.2222E-01   2.2763E-01   5.0370E-05  0.0269
   2.2763E-01   2.3317E-01   5.6329E-05  0.0252
   2.3317E-01   2.3884E-01   5.5331E-05  0.0251
   2.3884E-01   2.4465E-01   5.7615E-05  0.0243
   2.4465E-01   2.5061E-01   6.0817E-05  0.0234
   2.5061E-01   2.5670E-01   6.1363E-05  0.0230
   2.5670E-01   2.6295E-01   6.5260E-05  0.0220
   2.6295E-01   2.6935E-01   6.8101E-05  0.0213
   2.6935E-01   2.7590E-01   6.7615E-05  0.0211
   2.7590E-01   2.8261E-01   7.2270E-05  0.0202
   2.8261E-01   2.8949E-01   7.1803E-05  0.0200
   2.8949E-01   2.9653E-01   7.5970E-05  0.0193
   2.9653E-01   3.0375E-01   7.4094E-05  0.0192
   3.0375E-01   3.1114E-01   7.9233E-05  0.0184
   3.1114E-01   3.1871E-01   8.1451E-05  0.0179
   3.1871E-01   3.2646E-01   8.7084E-05  0.0171
   3.2646E-01   3.3441E-01   8.3943E-05  0.0172
   3.3441E-01   3.4254E-01   8.7271E-05  0.0167
   3.4254E-01   3.5088E-01   9.2338E-05  0.0160
   3.5088E-01   3.5941E-01   9.5672E-05  0.0156
   3.5941E-01   3.6816E-01   9.8836E-05  0.0151
   3.6816E-01   3.7712E-01   1.0078E-04  0.0148
   3.7712E-01   3.8629E-01   1.0308E-04  0.0145
   3.8629E-01   3.9569E-01   1.1068E-04  0.0138
   3.9569E-01   4.0532E-01   1.1116E-04  0.0136
   4.0532E-01   4.1518E-01   1.1388E-04  0.0133
   4.1518E-01   4.2528E-01   1.1794E-04  0.0129
   4.2528E-01   4.3563E-01   1.2073E-04  0.0126
   4.3563E-01   4.4623E-01   1.2503E-04  0.0122
   4.4623E-01   4.5708E-01   1.2777E-04  0.0119
   4.5708E-01   4.6821E-01   1.3291E-04  0.0116
   4.6821E-01   4.7960E-01   1.3742E-04  0.0112
   4.7960E-01   4.9127E-01   1.3894E-04  0.0110
   4.9127E-01   5.0322E-01   1.4389E-04  0.0107
   5.0322E-01   5.1546E-01   1.5315E-04  0.0103
   5.1546E-01   5.2800E-01   1.5049E-04  0.0102
   5.2800E-01   5.4085E-01   1.5822E-04  0.0099
   5.4085E-01   5.5401E-01   1.6319E-04  0.0096
   5.5401E-01   5.6749E-01   1.6869E-04  0.0093
   5.6749E-01   5.8130E-01   1.7065E-04  0.0092
   5.8130E-01   5.9544E-01   1.7643E-04  0.0089
   5.9544E-01   6.0993E-01   1.8213E-04  0.0087
   6.0993E-01   6.2477E-01   1.8671E-04  0.0084
   6.2477E-01   6.3997E-01   1.9091E-04  0.0083
   6.3997E-01   6.5554E-01   1.9751E-04  0.0080
   6.5554E-01   6.7149E-01   2.0353E-04  0.0078
   6.7149E-01   6.8783E-01   2.0811E-04  0.0076
   6.8783E-01   7.0456E-01   2.1501E-04  0.0074
   7.0456E-01   7.2171E-01   2.2087E-04  0.0072
   7.2171E-01   7.3927E-01   2.2730E-04  0.0070
   7.3927E-01   7.5725E-01   2.3378E-04  0.0069
   7.5725E-01   7.7568E-01   2.3951E-04  0.0067
   7.7568E-01   7.9455E-01   2.4841E-04  0.0065
   7.9455E-01   8.1388E-01   2.5184E-04  0.0064
   8.1388E-01   8.3368E-01   2.6022E-04  0.0062
   8.3368E-01   8.5397E-01   2.6706E-04  0.0060
   8.5397E-01   8.7475E-01   2.7823E-04  0.0058
   8.7475E-01   8.9603E-01   2.8333E-04  0.0057
   8.9603E-01   9.1783E-01   2.9254E-04  0.0056
   9.1783E-01   9.4016E-01   3.0077E-04  0.0054
   9.4016E-01   9.6304E-01   3.0814E-04  0.0053
   9.6304E-01   9.8647E-01   3.1435E-04  0.0052
   9.8647E-01   1.0105E+00   3.2231E-04  0.0051
   1.0105E+00   1.0351E+00   3.2614E-04  0.0050
   1.0351E+00   1.0602E+00   3.2799E-04  0.0049
   1.0602E+00   1.0860E+00   3.3247E-04  0.0048
   1.0860E+00   1.1125E+00   3.3958E-04  0.0047
   1.1125E+00   1.1395E+00   3.4478E-04  0.0046
   1.1395E+00   1.1673E+00   3.5252E-04  0.0045
   1.1673E+00   1.1957E+00   3.6675E-04  0.0044
   1.1957E+00   1.2247E+00   3.7561E-04  0.0043
   1.2247E+00   1.2545E+00   3.7320E-04  0.0042
   1.2545E+00   1.2851E+00   3.7958E-04  0.0041
   1.2851E+00   1.3163E+00   3.8037E-04  0.0041
   1.3163E+00   1.3484E+00   3.9102E-04  0.0040
   1.3484E+00   1.3812E+00   3.9802E-04  0.0039
   1.3812E+00   1.4148E+00   4.0398E-04  0.0038
   1.4148E+00   1.4492E+00   4.1614E-04  0.0037
   1.4492E+00   1.4845E+00   4.1946E-04  0.0037
   1.4845E+00   1.5206E+00   4.2850E-04  0.0036
   1.5206E+00   1.5576E+00   4.2858E-04  0.0035
   1.5576E+00   1.5955E+00   4.2729E-04  0.0035
   1.5955E+00   1.6343E+00   4.2776E-04  0.0034
   1.6343E+00   1.6741E+00   4.2470E-04  0.0034
   1.6741E+00   1.7148E+00   4.2504E-04  0.0034
   1.7148E+00   1.7565E+00   4.2564E-04  0.0033
   1.7565E+00   1.7992E+00   4.3310E-04  0.0033
   1.7992E+00   1.8430E+00   4.3570E-04  0.0032
   1.8430E+00   1.8879E+00   4.3690E-04  0.0032
   1.8879E+00   1.9338E+00   4.3517E-04  0.0031
   1.9338E+00   1.9808E+00   4.3525E-04  0.0031
   1.9808E+00   2.0290E+00   4.4201E-04  0.0030
   2.0290E+00   2.0784E+00   4.3784E-04  0.0030
   2.0784E+00   2.1290E+00   4.3331E-04  0.0030
   2.1290E+00   2.1808E+00   4.2540E-04  0.0030
   2.1808E+00   2.2338E+00   4.1979E-04  0.0030
   2.2338E+00   2.2882E+00   4.1618E-04  0.0030
   2.2882E+00   2.3439E+00   4.1630E-04  0.0029
   2.3439E+00   2.4009E+00   4.1171E-04  0.0029
   2.4009E+00   2.4593E+00   4.1151E-04  0.0029
   2.4593E+00   2.5191E+00   4.1098E-04  0.0028
   2.5191E+00   2.5804E+00   4.0596E-04  0.0028
   2.5804E+00   2.6432E+00   3.9974E-04  0.0028
   2.6432E+00   2.7075E+00   3.9424E-04  0.0028
   2.7075E+00   2.7734E+00   3.8643E-04  0.0028
   2.7734E+00   2.8409E+00   3.8234E-04  0.0028
   2.8409E+00   2.9100E+00   3.7470E-04  0.0028
   2.9100E+00   2.9808E+00   3.7086E-04  0.0027
   2.9808E+00   3.0533E+00   3.6677E-04  0.0027
   3.0533E+00   3.1276E+00   3.5977E-04  0.0027
   3.1276E+00   3.2037E+00   3.5263E-04  0.0027
   3.2037E+00   3.2817E+00   3.4174E-04  0.0027
   3.2817E+00   3.3615E+00   3.3469E-04  0.0027
   3.3615E+00   3.4433E+00   3.2894E-04  0.0027
   3.4433E+00   3.5271E+00   3.2400E-04  0.0027
   3.5271E+00   3.6129E+00   3.1766E-04  0.0027
   3.6129E+00   3.7008E+00   3.1037E-04  0.0027
   3.7008E+00   3.7908E+00   2.9958E-04  0.0027
   3.7908E+00   3.8831E+00   2.9205E-04  0.0027
   3.8831E+00   3.9776E+00   2.8862E-04  0.0027
   3.9776E+00   4.0743E+00   2.8367E-04  0.0027
   4.0743E+00   4.1735E+00   2.7687E-04  0.0027
   4.1735E+00   4.2750E+00   2.6924E-04  0.0027
   4.2750E+00   4.3790E+00   2.6349E-04  0.0027
   4.3790E+00   4.4856E+00   2.5929E-04  0.0027
   4.4856E+00   4.5947E+00   2.5604E-04  0.0027
   4.5947E+00   4.7065E+00   2.5038E-04  0.0027
   4.7065E+00   4.8210E+00   2.4693E-04  0.0026
   4.8210E+00   4.9383E+00   2.4379E-04  0.0026
   4.9383E+00   5.0585E+00   2.4319E-04  0.0026
   5.0585E+00   5.1815E+00   2.4354E-04  0.0026
   5.1815E+00   5.3076E+00   2.3891E-04  0.0026
   5.3076E+00   5.4368E+00   2.3348E-04  0.0026
   5.4368E+00   5.5690E+00   2.2776E-04  0.0026
   5.5690E+00   5.7045E+00   2.2157E-04  0.0026
   5.7045E+00   5.8433E+00   2.1582E-04  0.0026
   5.8433E+00   5.9855E+00   2.1164E-04  0.0026
   5.9855E+00   6.1311E+00   2.0693E-04  0.0026
   6.1311E+00   6.2803E+00   2.0081E-04  0.0026
   6.2803E+00   6.4331E+00   1.9483E-04  0.0026
   6.4331E+00   6.5896E+00   1.9039E-04  0.0026
   6.5896E+00   6.7500E+00   1.8412E-04  0.0026
   6.7500E+00   6.9142E+00   1.7874E-04  0.0026
   6.9142E+00   7.0824E+00   1.7391E-04  0.0026
   7.0824E+00   7.2548E+00   1.7019E-04  0.0026
   7.2548E+00   7.4313E+00   1.6537E-04  0.0026
   7.4313E+00   7.6121E+00   1.6097E-04  0.0026
   7.6121E+00   7.7973E+00   1.5517E-04  0.0026
   7.7973E+00   7.9870E+00   1.5142E-04  0.0026
   7.9870E+00   8.1813E+00   1.4819E-04  0.0026
   8.1813E+00   8.3804E+00   1.4293E-04  0.0026
   8.3804E+00   8.5843E+00   1.3845E-04  0.0027
   8.5843E+00   8.7931E+00   1.3407E-04  0.0027
   8.7931E+00   9.0071E+00   1.2957E-04  0.0027
   9.0071E+00   9.2262E+00   1.2491E-04  0.0027
   9.2262E+00   9.4507E+00   1.2030E-04  0.0027
   9.4507E+00   9.6807E+00   1.1651E-04  0.0027
   9.6807E+00   9.9162E+00   1.1282E-04  0.0027
   9.9162E+00   1.0157E+01   1.0797E-04  0.0028
   1.0157E+01   1.0405E+01   1.0393E-04  0.0028
   1.0405E+01   1.0658E+01   1.0112E-04  0.0028
   1.0658E+01   1.0917E+01   9.7315E-05  0.0028
   1.0917E+01   1.1183E+01   9.3295E-05  0.0028
   1.1183E+01   1.1455E+01   8.9508E-05  0.0029
   1.1455E+01   1.1733E+01   8.6418E-05  0.0029
   1.1733E+01   1.2019E+01   8.2715E-05  0.0029
   1.2019E+01   1.2311E+01   7.9366E-05  0.0029
   1.2311E+01   1.2611E+01   7.6225E-05  0.0030
   1.2611E+01   1.2918E+01   7.3004E-05  0.0030
   1.2918E+01   1.3232E+01   6.9442E-05  0.0030
   1.3232E+01   1.3554E+01   6.6560E-05  0.0031
   1.3554E+01   1.3884E+01   6.4025E-05  0.0031
   1.3884E+01   1.4222E+01   6.0893E-05  0.0031
   1.4222E+01   1.4568E+01   5.7823E-05  0.0032
   1.4568E+01   1.4922E+01   5.5233E-05  0.0032
   1.4922E+01   1.5285E+01   5.2288E-05  0.0032
   1.5285E+01   1.5657E+01   4.9750E-05  0.0033
   1.5657E+01   1.6038E+01   4.7125E-05  0.0033
   1.6038E+01   1.6428E+01   4.4746E-05  0.0034
   1.6428E+01   1.6828E+01   4.2408E-05  0.0034
   1.6828E+01   1.7237E+01   4.0248E-05  0.0035
   1.7237E+01   1.7657E+01   3.7934E-05  0.0035
   1.7657E+01   1.8086E+01   3.6146E-05  0.0036
   1.8086E+01   1.8526E+01   3.3767E-05  0.0037
   1.8526E+01   1.8977E+01   3.2047E-05  0.0037
   1.8977E+01   1.9439E+01   3.0693E-05  0.0038
   1.9439E+01   1.9912E+01   2.9977E-05  0.0038
   1.9912E+01   2.0396E+01   2.8633E-05  0.0038
   2.0396E+01   2.0893E+01   2.7383E-05  0.0038
   2.0893E+01   2.1401E+01   2.5448E-05  0.0039
   2.1401E+01   2.1922E+01   2.3589E-05  0.0040
   2.1922E+01   2.2455E+01   2.2226E-05  0.0041
   2.2455E+01   2.3001E+01   2.0489E-05  0.0042
   2.3001E+01   2.3561E+01   1.8880E-05  0.0044
   2.3561E+01   2.4134E+01   1.7632E-05  0.0044
   2.4134E+01   2.4721E+01   1.6153E-05  0.0046
   2.4721E+01   2.5323E+01   1.4923E-05  0.0047
   2.5323E+01   2.5939E+01   1.3719E-05  0.0049
   2.5939E+01   2.6570E+01   1.2514E-05  0.0050
   2.6570E+01   2.7217E+01   1.1441E-05  0.0052
   2.7217E+01   2.7879E+01   1.0424E-05  0.0054
   2.7879E+01   2.8557E+01   9.3918E-06  0.0056
   2.8557E+01   2.9252E+01   8.4091E-06  0.0059
   2.9252E+01   2.9964E+01   7.5139E-06  0.0061
   2.9964E+01   3.0693E+01   6.6973E-06  0.0064
   3.0693E+01   3.1440E+01   5.9785E-06  0.0067
   3.1440E+01   3.2205E+01   5.2584E-06  0.0071
   3.2205E+01   3.2988E+01   4.5847E-06  0.0075
   3.2988E+01   3.3791E+01   4.0126E-06  0.0079
   3.3791E+01   3.4613E+01   3.4916E-06  0.0083
   3.4613E+01   3.5455E+01   2.9902E-06  0.0089
   3.5455E+01   3.6318E+01   2.6674E-06  0.0093
   3.6318E+01   3.7201E+01   2.2758E-06  0.0100
   3.7201E+01   3.8106E+01   1.8802E-06  0.0108
   3.8106E+01   3.9034E+01   1.6088E-06  0.0116
   3.9034E+01   3.9983E+01   1.3143E-06  0.0127
   3.9983E+01   4.0956E+01   1.1003E-06  0.0137
   4.0956E+01   4.1953E+01   9.1782E-07  0.0148
   4.1953E+01   4.2973E+01   7.2575E-07  0.0164
   4.2973E+01   4.4019E+01   5.8284E-07  0.0181
   4.4019E+01   4.5090E+01   4.5732E-07  0.0202
   4.5090E+01   4.6187E+01   3.6807E-07  0.0223
   4.6187E+01   4.7311E+01   2.7728E-07  0.0253
   4.7311E+01   4.8462E+01   2.0971E-07  0.0288
   4.8462E+01   4.9641E+01   1.5045E-07  0.0336
   4.9641E+01   5.0849E+01   1.1658E-07  0.0377
   5.0849E+01   5.2086E+01   8.1313E-08  0.0446
   5.2086E+01   5.3353E+01   6.4074E-08  0.0496
   5.3353E+01   5.4651E+01   4.0674E-08  0.0615
   5.4651E+01   5.5981E+01   3.5948E-08  0.0647
   5.5981E+01   5.7343E+01   2.4962E-08  0.0767
   5.7343E+01   5.8738E+01   1.8922E-08  0.0870
   5.8738E+01   6.0168E+01   1.1475E-08  0.1104
   6.0168E+01   6.1632E+01   4.6450E-09  0.1715
   6.1632E+01   6.3131E+01   2.6675E-09  0.2236
   6.3131E+01   6.4667E+01   1.1719E-09  0.3333
   6.4667E+01   6.6240E+01   7.6268E-10  0.4082
   6.6240E+01   6.7852E+01   1.2409E-10  1.0000
   6.7852E+01   6.9503E+01   1.2115E-10  1.0000
   6.9503E+01   7.1194E+01   0.0000E+00  0.0000
   7.1194E+01   7.2926E+01   1.1546E-10  1.0000
   7.2926E+01   7.4701E+01   0.0000E+00  0.0000
   7.4701E+01   7.6518E+01   0.0000E+00  0.0000
   7.6518E+01   7.8380E+01   0.0000E+00  0.0000
   7.8380E+01   8.0287E+01   0.0000E+00  0.0000
   8.0287E+01   8.2240E+01   0.0000E+00  0.0000
   8.2240E+01   8.4241E+01   0.0000E+00  0.0000
   8.4241E+01   8.6291E+01   0.0000E+00  0.0000
   8.6291E+01   8.8391E+01   0.0000E+00  0.0000
   8.8391E+01   9.0541E+01   0.0000E+00  0.0000
   9.0541E+01   9.2744E+01   0.0000E+00  0.0000
   9.2744E+01   9.5001E+01   0.0000E+00  0.0000
   9.5001E+01   9.7312E+01   0.0000E+00  0.0000
   9.7312E+01   9.9680E+01   0.0000E+00  0.0000
   9.9680E+01   1.0211E+02   0.0000E+00  0.0000
   1.0211E+02   1.0459E+02   0.0000E+00  0.0000
   1.0459E+02   1.0713E+02   0.0000E+00  0.0000
   1.0713E+02   1.0974E+02   0.0000E+00  0.0000
   1.0974E+02   1.1241E+02   0.0000E+00  0.0000
   1.1241E+02   1.1515E+02   0.0000E+00  0.0000
   1.1515E+02   1.1795E+02   0.0000E+00  0.0000
   1.1795E+02   1.2082E+02   0.0000E+00  0.0000
   1.2082E+02   1.2376E+02   0.0000E+00  0.0000
   1.2376E+02   1.2677E+02   0.0000E+00  0.0000
   1.2677E+02   1.2985E+02   0.0000E+00  0.0000
   1.2985E+02   1.3301E+02   0.0000E+00  0.0000
   1.3301E+02   1.3625E+02   0.0000E+00  0.0000
   1.3625E+02   1.3956E+02   0.0000E+00  0.0000
   1.3956E+02   1.4296E+02   0.0000E+00  0.0000
   1.4296E+02   1.4644E+02   0.0000E+00  0.0000
   1.4644E+02   1.5000E+02   0.0000E+00  0.0000

#   sum over                 2.1151E-05
'no. =    1   reg = 114 - 214'
msuc: {\huge [t-cross] in region mesh}
msdr: {\it plotted by \ANGEL \version}
msdl: {\it calculated by \PHITS  3.28}
wt: s(0.7)
\vspace{-3}
  region surface crossing
  area  &=&   1.0000E+00 [cm^2]
e:
 
# Information for Restart Calculation
# This calculation was newly started
# istdev =  2 # 1:Batch variance, 2:History variance
# resc2  = 5.00000000000000000E+09 # Total source weight or Total source weight / maxcas
# resc3  = 5.00000000000000000E+09 # Total history number or Total batch number
# maxcas =   500000000 # History / Batch, only used for istdev=1
# bitrseed = 0001101011110000011001100100101010101011111110100001111101011101 # bit data of rseed
