[ T-Cross ]
    title = [t-cross] in region mesh
     mesh =  reg            # mesh type is region-wise
      reg =    1            # number of crossing regions
      non     r-from    r-to       area
      1       121       221        1.000000    
   e-type =    3            # e-mesh is log given by emin, emax and ne
     emin =  1.0000000E-02  # minimum value of e-mesh points
     emax =   150.0000      # maximum value of e-mesh points
#    edel =  2.4039514E-02  # mesh width of e-mesh points
       ne =    400          # number of e-mesh points
#    data = ( e(i), i = 1, ne + 1 )
#           1.00000E-02  1.02433E-02  1.04925E-02  1.07478E-02  1.10093E-02
#           1.12772E-02  1.15516E-02  1.18326E-02  1.21205E-02  1.24154E-02
#           1.27175E-02  1.30269E-02  1.33439E-02  1.36686E-02  1.40011E-02
#           1.43418E-02  1.46907E-02  1.50482E-02  1.54143E-02  1.57894E-02
#           1.61735E-02  1.65670E-02  1.69701E-02  1.73830E-02  1.78060E-02
#           1.82392E-02  1.86830E-02  1.91375E-02  1.96032E-02  2.00801E-02
#           2.05687E-02  2.10692E-02  2.15818E-02  2.21069E-02  2.26448E-02
#           2.31957E-02  2.37601E-02  2.43382E-02  2.49304E-02  2.55369E-02
#           2.61583E-02  2.67947E-02  2.74467E-02  2.81145E-02  2.87985E-02
#           2.94992E-02  3.02169E-02  3.09521E-02  3.17052E-02  3.24766E-02
#           3.32668E-02  3.40762E-02  3.49053E-02  3.57546E-02  3.66246E-02
#           3.75157E-02  3.84284E-02  3.93634E-02  4.03212E-02  4.13022E-02
#           4.23071E-02  4.33365E-02  4.43909E-02  4.54710E-02  4.65773E-02
#           4.77106E-02  4.88714E-02  5.00605E-02  5.12785E-02  5.25262E-02
#           5.38042E-02  5.51133E-02  5.64542E-02  5.78278E-02  5.92348E-02
#           6.06760E-02  6.21523E-02  6.36645E-02  6.52135E-02  6.68002E-02
#           6.84255E-02  7.00904E-02  7.17957E-02  7.35426E-02  7.53319E-02
#           7.71648E-02  7.90423E-02  8.09655E-02  8.29354E-02  8.49533E-02
#           8.70203E-02  8.91376E-02  9.13064E-02  9.35279E-02  9.58035E-02
#           9.81345E-02  1.00522E-01  1.02968E-01  1.05473E-01  1.08040E-01
#           1.10668E-01  1.13361E-01  1.16119E-01  1.18944E-01  1.21838E-01
#           1.24803E-01  1.27839E-01  1.30950E-01  1.34136E-01  1.37399E-01
#           1.40742E-01  1.44167E-01  1.47675E-01  1.51268E-01  1.54948E-01
#           1.58718E-01  1.62580E-01  1.66535E-01  1.70587E-01  1.74738E-01
#           1.78989E-01  1.83344E-01  1.87805E-01  1.92375E-01  1.97055E-01
#           2.01850E-01  2.06761E-01  2.11792E-01  2.16945E-01  2.22223E-01
#           2.27630E-01  2.33169E-01  2.38842E-01  2.44653E-01  2.50605E-01
#           2.56703E-01  2.62949E-01  2.69346E-01  2.75900E-01  2.82613E-01
#           2.89489E-01  2.96532E-01  3.03747E-01  3.11138E-01  3.18708E-01
#           3.26462E-01  3.34405E-01  3.42542E-01  3.50876E-01  3.59413E-01
#           3.68158E-01  3.77116E-01  3.86291E-01  3.95690E-01  4.05317E-01
#           4.15179E-01  4.25281E-01  4.35628E-01  4.46227E-01  4.57084E-01
#           4.68205E-01  4.79597E-01  4.91266E-01  5.03219E-01  5.15463E-01
#           5.28005E-01  5.40851E-01  5.54011E-01  5.67490E-01  5.81298E-01
#           5.95441E-01  6.09929E-01  6.24769E-01  6.39970E-01  6.55541E-01
#           6.71491E-01  6.87828E-01  7.04564E-01  7.21706E-01  7.39266E-01
#           7.57253E-01  7.75678E-01  7.94551E-01  8.13883E-01  8.33685E-01
#           8.53969E-01  8.74747E-01  8.96030E-01  9.17831E-01  9.40163E-01
#           9.63038E-01  9.86469E-01  1.01047E+00  1.03506E+00  1.06024E+00
#           1.08604E+00  1.11246E+00  1.13953E+00  1.16725E+00  1.19565E+00
#           1.22474E+00  1.25454E+00  1.28507E+00  1.31633E+00  1.34836E+00
#           1.38117E+00  1.41477E+00  1.44920E+00  1.48446E+00  1.52057E+00
#           1.55757E+00  1.59547E+00  1.63429E+00  1.67405E+00  1.71478E+00
#           1.75650E+00  1.79924E+00  1.84302E+00  1.88786E+00  1.93379E+00
#           1.98084E+00  2.02904E+00  2.07841E+00  2.12898E+00  2.18078E+00
#           2.23384E+00  2.28819E+00  2.34386E+00  2.40089E+00  2.45930E+00
#           2.51914E+00  2.58043E+00  2.64322E+00  2.70753E+00  2.77341E+00
#           2.84088E+00  2.91001E+00  2.98081E+00  3.05333E+00  3.12762E+00
#           3.20372E+00  3.28167E+00  3.36152E+00  3.44330E+00  3.52708E+00
#           3.61290E+00  3.70080E+00  3.79085E+00  3.88308E+00  3.97756E+00
#           4.07434E+00  4.17347E+00  4.27501E+00  4.37903E+00  4.48557E+00
#           4.59471E+00  4.70650E+00  4.82102E+00  4.93832E+00  5.05847E+00
#           5.18155E+00  5.30762E+00  5.43676E+00  5.56904E+00  5.70453E+00
#           5.84333E+00  5.98550E+00  6.13114E+00  6.28031E+00  6.43312E+00
#           6.58964E+00  6.74997E+00  6.91420E+00  7.08243E+00  7.25475E+00
#           7.43126E+00  7.61207E+00  7.79728E+00  7.98700E+00  8.18133E+00
#           8.38038E+00  8.58428E+00  8.79315E+00  9.00709E+00  9.22624E+00
#           9.45072E+00  9.68067E+00  9.91620E+00  1.01575E+01  1.04046E+01
#           1.06578E+01  1.09171E+01  1.11827E+01  1.14548E+01  1.17335E+01
#           1.20190E+01  1.23114E+01  1.26109E+01  1.29178E+01  1.32321E+01
#           1.35540E+01  1.38838E+01  1.42216E+01  1.45676E+01  1.49221E+01
#           1.52851E+01  1.56570E+01  1.60380E+01  1.64282E+01  1.68279E+01
#           1.72374E+01  1.76568E+01  1.80864E+01  1.85264E+01  1.89772E+01
#           1.94389E+01  1.99119E+01  2.03963E+01  2.08926E+01  2.14009E+01
#           2.19216E+01  2.24550E+01  2.30014E+01  2.35610E+01  2.41343E+01
#           2.47215E+01  2.53230E+01  2.59391E+01  2.65702E+01  2.72167E+01
#           2.78789E+01  2.85572E+01  2.92520E+01  2.99637E+01  3.06928E+01
#           3.14396E+01  3.22045E+01  3.29881E+01  3.37907E+01  3.46128E+01
#           3.54550E+01  3.63177E+01  3.72013E+01  3.81064E+01  3.90336E+01
#           3.99833E+01  4.09561E+01  4.19526E+01  4.29734E+01  4.40189E+01
#           4.50900E+01  4.61870E+01  4.73108E+01  4.84619E+01  4.96410E+01
#           5.08488E+01  5.20860E+01  5.33533E+01  5.46514E+01  5.59812E+01
#           5.73432E+01  5.87384E+01  6.01676E+01  6.16315E+01  6.31311E+01
#           6.46671E+01  6.62405E+01  6.78522E+01  6.95031E+01  7.11941E+01
#           7.29263E+01  7.47007E+01  7.65182E+01  7.83800E+01  8.02870E+01
#           8.22405E+01  8.42414E+01  8.62911E+01  8.83906E+01  9.05412E+01
#           9.27442E+01  9.50007E+01  9.73122E+01  9.96799E+01  1.02105E+02
#           1.04589E+02  1.07134E+02  1.09741E+02  1.12411E+02  1.15146E+02
#           1.17948E+02  1.20817E+02  1.23757E+02  1.26768E+02  1.29852E+02
#           1.33012E+02  1.36248E+02  1.39563E+02  1.42959E+02  1.46437E+02
#           1.50000E+02
     unit =    2            # unit is [1/cm^2/(MeV/n)/source]
     axis =  eng            # axis of output
     file = detector-22.out  # file name of output for the above axis
   output = f-curr          # surface crossing forward current spectrum
     part =  neutron  
# kf/name :  2112     
#    used :        main (  %)        temp (  %)       total (  %)
#  memory :         414 (  0)           0 (  0)         414 (  0)

#------------------------------------------------------------------------------
#newpage:
#   no. =    1   reg = 121 - 221

x: Energy [MeV/n]
y:  F-Curr [1/cm^2/(MeV/n)/source]         
p: xlog ylog afac(0.8) form(0.9)
h: n            x            y(neutron ),hh0l   n 
#  e-lower      e-upper      neutron     r.err 
   1.0000E-02   1.0243E-02   5.2577E-05  0.1250
   1.0243E-02   1.0493E-02   4.3308E-05  0.1361
   1.0493E-02   1.0748E-02   5.3243E-05  0.1213
   1.0748E-02   1.1009E-02   4.7394E-05  0.1270
   1.1009E-02   1.1277E-02   5.8196E-05  0.1132
   1.1277E-02   1.1552E-02   3.4830E-05  0.1444
   1.1552E-02   1.1833E-02   3.9840E-05  0.1336
   1.1833E-02   1.2121E-02   5.0684E-05  0.1170
   1.2121E-02   1.2415E-02   4.6603E-05  0.1204
   1.2415E-02   1.2718E-02   3.5628E-05  0.1361
   1.2718E-02   1.3027E-02   4.0700E-05  0.1260
   1.3027E-02   1.3344E-02   3.7220E-05  0.1302
   1.3344E-02   1.3669E-02   4.0532E-05  0.1231
   1.3669E-02   1.4001E-02   3.7627E-05  0.1261
   1.4001E-02   1.4342E-02   3.6070E-05  0.1272
   1.4342E-02   1.4691E-02   3.2553E-05  0.1325
   1.4691E-02   1.5048E-02   4.0825E-05  0.1170
   1.5048E-02   1.5414E-02   3.4398E-05  0.1260
   1.5414E-02   1.5789E-02   3.6778E-05  0.1204
   1.5789E-02   1.6174E-02   2.5497E-05  0.1429
   1.6174E-02   1.6567E-02   3.1117E-05  0.1276
   1.6567E-02   1.6970E-02   2.8264E-05  0.1325
   1.6970E-02   1.7383E-02   3.5139E-05  0.1170
   1.7383E-02   1.7806E-02   3.1570E-05  0.1222
   1.7806E-02   1.8239E-02   3.4037E-05  0.1163
   1.8239E-02   1.8683E-02   2.9279E-05  0.1240
   1.8683E-02   1.9138E-02   3.4669E-05  0.1125
   1.9138E-02   1.9603E-02   3.5640E-05  0.1098
   1.9603E-02   2.0080E-02   3.2194E-05  0.1140
   2.0080E-02   2.0569E-02   2.8226E-05  0.1204
   2.0569E-02   2.1069E-02   2.7478E-05  0.1204
   2.1069E-02   2.1582E-02   2.9933E-05  0.1139
   2.1582E-02   2.2107E-02   2.5502E-05  0.1222
   2.2107E-02   2.2645E-02   2.9731E-05  0.1118
   2.2645E-02   2.3196E-02   2.8239E-05  0.1132
   2.3196E-02   2.3760E-02   2.3370E-05  0.1231
   2.3760E-02   2.4338E-02   2.9040E-05  0.1091
   2.4338E-02   2.4930E-02   2.2628E-05  0.1219
   2.4930E-02   2.5537E-02   2.3070E-05  0.1195
   2.5537E-02   2.6158E-02   2.3162E-05  0.1179
   2.6158E-02   2.6795E-02   2.2611E-05  0.1179
   2.6795E-02   2.7447E-02   2.2385E-05  0.1170
   2.7447E-02   2.8114E-02   2.2641E-05  0.1148
   2.8114E-02   2.8799E-02   2.2390E-05  0.1140
   2.8799E-02   2.9499E-02   1.8259E-05  0.1250
   2.9499E-02   3.0217E-02   2.2814E-05  0.1104
   3.0217E-02   3.0952E-02   1.7936E-05  0.1231
   3.0952E-02   3.1705E-02   1.8307E-05  0.1204
   3.1705E-02   3.2477E-02   1.9435E-05  0.1155
   3.2477E-02   3.3267E-02   2.0948E-05  0.1098
   3.3267E-02   3.4076E-02   1.6614E-05  0.1218
   3.4076E-02   3.4905E-02   1.8075E-05  0.1155
   3.4905E-02   3.5755E-02   1.3002E-05  0.1343
   3.5755E-02   3.6625E-02   1.7444E-05  0.1147
   3.6625E-02   3.7516E-02   1.7050E-05  0.1147
   3.7516E-02   3.8428E-02   1.7061E-05  0.1132
   3.8428E-02   3.9363E-02   1.3896E-05  0.1240
   3.9363E-02   4.0321E-02   1.3358E-05  0.1250
   4.0321E-02   4.1302E-02   1.4264E-05  0.1195
   4.1302E-02   4.2307E-02   1.7695E-05  0.1060
   4.2307E-02   4.3337E-02   1.4371E-05  0.1162
   4.3337E-02   4.4391E-02   1.3459E-05  0.1187
   4.4391E-02   4.5471E-02   1.5363E-05  0.1098
   4.5471E-02   4.6577E-02   1.3913E-05  0.1140
   4.6577E-02   4.7711E-02   1.2173E-05  0.1204
   4.7711E-02   4.8871E-02   1.3776E-05  0.1118
   4.8871E-02   5.0061E-02   1.2270E-05  0.1170
   5.0061E-02   5.1279E-02   1.2309E-05  0.1155
   5.1279E-02   5.2526E-02   1.2032E-05  0.1151
   5.2526E-02   5.3804E-02   1.0153E-05  0.1240
   5.3804E-02   5.5113E-02   1.0385E-05  0.1213
   5.5113E-02   5.6454E-02   1.2669E-05  0.1085
   5.6454E-02   5.7828E-02   1.1032E-05  0.1147
   5.7828E-02   5.9235E-02   1.0784E-05  0.1147
   5.9235E-02   6.0676E-02   1.2741E-05  0.1043
   6.0676E-02   6.2152E-02   9.6098E-06  0.1187
   6.2152E-02   6.3665E-02   9.2231E-06  0.1196
   6.3665E-02   6.5214E-02   1.1356E-05  0.1066
   6.5214E-02   6.6800E-02   8.9450E-06  0.1187
   6.6800E-02   6.8426E-02   7.7487E-06  0.1260
   6.8426E-02   7.0090E-02   8.8847E-06  0.1162
   7.0090E-02   7.1796E-02   9.0017E-06  0.1140
   7.1796E-02   7.3543E-02   8.4656E-06  0.1162
   7.3543E-02   7.5332E-02   8.8049E-06  0.1125
   7.5332E-02   7.7165E-02   8.1770E-06  0.1155
   7.7165E-02   7.9042E-02   8.2998E-06  0.1132
   7.9042E-02   8.0965E-02   9.5623E-06  0.1043
   8.0965E-02   8.2935E-02   7.2837E-06  0.1179
   8.2935E-02   8.4953E-02   6.7358E-06  0.1213
   8.4953E-02   8.7020E-02   9.0831E-06  0.1031
   8.7020E-02   8.9138E-02   6.5586E-06  0.1197
   8.9138E-02   9.1306E-02   8.2945E-06  0.1054
   9.1306E-02   9.3528E-02   7.4681E-06  0.1098
   9.3528E-02   9.5804E-02   6.4215E-06  0.1167
   9.5804E-02   9.8134E-02   6.8727E-06  0.1115
   9.8134E-02   1.0052E-01   8.2021E-06  0.1010
   1.0052E-01   1.0297E-01   5.7843E-06  0.1187
   1.0297E-01   1.0547E-01   7.7903E-06  0.1011
   1.0547E-01   1.0804E-01   7.4557E-06  0.1021
   1.0804E-01   1.1067E-01   8.6529E-06  0.0937
   1.1067E-01   1.1336E-01   7.7795E-06  0.0976
   1.1336E-01   1.1612E-01   8.6745E-06  0.0913
   1.1612E-01   1.1894E-01   8.6139E-06  0.0905
   1.1894E-01   1.2184E-01   9.0441E-06  0.0874
   1.2184E-01   1.2480E-01   8.7494E-06  0.0877
   1.2480E-01   1.2784E-01   1.0125E-05  0.0806
   1.2784E-01   1.3095E-01   9.8700E-06  0.0806
   1.3095E-01   1.3414E-01   1.0209E-05  0.0783
   1.3414E-01   1.3740E-01   1.0214E-05  0.0774
   1.3740E-01   1.4074E-01   9.9421E-06  0.0775
   1.4074E-01   1.4417E-01   1.2138E-05  0.0693
   1.4417E-01   1.4767E-01   1.2064E-05  0.0687
   1.4767E-01   1.5127E-01   1.1892E-05  0.0683
   1.5127E-01   1.5495E-01   1.2919E-05  0.0648
   1.5495E-01   1.5872E-01   1.2571E-05  0.0649
   1.5872E-01   1.6258E-01   1.3494E-05  0.0619
   1.6258E-01   1.6654E-01   1.3537E-05  0.0611
   1.6654E-01   1.7059E-01   1.4499E-05  0.0582
   1.7059E-01   1.7474E-01   1.3190E-05  0.0603
   1.7474E-01   1.7899E-01   1.2471E-05  0.0613
   1.7899E-01   1.8334E-01   1.3479E-05  0.0583
   1.8334E-01   1.8781E-01   1.4571E-05  0.0554
   1.8781E-01   1.9237E-01   1.4684E-05  0.0545
   1.9237E-01   1.9706E-01   1.5566E-05  0.0523
   1.9706E-01   2.0185E-01   1.5569E-05  0.0517
   2.0185E-01   2.0676E-01   1.6193E-05  0.0501
   2.0676E-01   2.1179E-01   1.6831E-05  0.0485
   2.1179E-01   2.1694E-01   1.7614E-05  0.0469
   2.1694E-01   2.2222E-01   1.7500E-05  0.0465
   2.2222E-01   2.2763E-01   1.7529E-05  0.0458
   2.2763E-01   2.3317E-01   1.8313E-05  0.0444
   2.3317E-01   2.3884E-01   1.8447E-05  0.0437
   2.3884E-01   2.4465E-01   1.9088E-05  0.0424
   2.4465E-01   2.5061E-01   1.7895E-05  0.0433
   2.5061E-01   2.5670E-01   1.8511E-05  0.0420
   2.5670E-01   2.6295E-01   2.0283E-05  0.0397
   2.6295E-01   2.6935E-01   2.0053E-05  0.0394
   2.6935E-01   2.7590E-01   2.0881E-05  0.0382
   2.7590E-01   2.8261E-01   2.2238E-05  0.0366
   2.8261E-01   2.8949E-01   2.1113E-05  0.0371
   2.8949E-01   2.9653E-01   2.1891E-05  0.0359
   2.9653E-01   3.0375E-01   2.3277E-05  0.0345
   3.0375E-01   3.1114E-01   2.2328E-05  0.0347
   3.1114E-01   3.1871E-01   2.2995E-05  0.0338
   3.1871E-01   3.2646E-01   2.2665E-05  0.0337
   3.2646E-01   3.3441E-01   2.3566E-05  0.0326
   3.3441E-01   3.4254E-01   2.3174E-05  0.0325
   3.4254E-01   3.5088E-01   2.4466E-05  0.0313
   3.5088E-01   3.5941E-01   2.4666E-05  0.0308
   3.5941E-01   3.6816E-01   2.5148E-05  0.0301
   3.6816E-01   3.7712E-01   2.5099E-05  0.0297
   3.7712E-01   3.8629E-01   2.6272E-05  0.0287
   3.8629E-01   3.9569E-01   2.6114E-05  0.0285
   3.9569E-01   4.0532E-01   2.5542E-05  0.0285
   4.0532E-01   4.1518E-01   2.7013E-05  0.0273
   4.1518E-01   4.2528E-01   2.7452E-05  0.0268
   4.2528E-01   4.3563E-01   2.7466E-05  0.0265
   4.3563E-01   4.4623E-01   2.7449E-05  0.0261
   4.4623E-01   4.5708E-01   2.7923E-05  0.0256
   4.5708E-01   4.6821E-01   2.7917E-05  0.0253
   4.6821E-01   4.7960E-01   2.8515E-05  0.0247
   4.7960E-01   4.9127E-01   2.9956E-05  0.0239
   4.9127E-01   5.0322E-01   2.9697E-05  0.0237
   5.0322E-01   5.1546E-01   2.8926E-05  0.0237
   5.1546E-01   5.2800E-01   2.9193E-05  0.0233
   5.2800E-01   5.4085E-01   2.8908E-05  0.0231
   5.4085E-01   5.5401E-01   2.9936E-05  0.0225
   5.5401E-01   5.6749E-01   3.0926E-05  0.0218
   5.6749E-01   5.8130E-01   3.0380E-05  0.0218
   5.8130E-01   5.9544E-01   3.1633E-05  0.0211
   5.9544E-01   6.0993E-01   3.1437E-05  0.0209
   6.0993E-01   6.2477E-01   3.1792E-05  0.0205
   6.2477E-01   6.3997E-01   3.1903E-05  0.0202
   6.3997E-01   6.5554E-01   3.1868E-05  0.0200
   6.5554E-01   6.7149E-01   3.0532E-05  0.0202
   6.7149E-01   6.8783E-01   3.1635E-05  0.0196
   6.8783E-01   7.0456E-01   3.0776E-05  0.0196
   7.0456E-01   7.2171E-01   3.1102E-05  0.0193
   7.2171E-01   7.3927E-01   3.0781E-05  0.0191
   7.3927E-01   7.5725E-01   3.0326E-05  0.0191
   7.5725E-01   7.7568E-01   2.9621E-05  0.0190
   7.7568E-01   7.9455E-01   3.0495E-05  0.0186
   7.9455E-01   8.1388E-01   2.8893E-05  0.0188
   8.1388E-01   8.3368E-01   2.8949E-05  0.0186
   8.3368E-01   8.5397E-01   2.9946E-05  0.0180
   8.5397E-01   8.7475E-01   2.7960E-05  0.0184
   8.7475E-01   8.9603E-01   2.8309E-05  0.0181
   8.9603E-01   9.1783E-01   2.7900E-05  0.0180
   9.1783E-01   9.4016E-01   2.6619E-05  0.0182
   9.4016E-01   9.6304E-01   2.7361E-05  0.0178
   9.6304E-01   9.8647E-01   2.5586E-05  0.0181
   9.8647E-01   1.0105E+00   2.4905E-05  0.0182
   1.0105E+00   1.0351E+00   2.5134E-05  0.0179
   1.0351E+00   1.0602E+00   2.4178E-05  0.0180
   1.0602E+00   1.0860E+00   2.3821E-05  0.0179
   1.0860E+00   1.1125E+00   2.4651E-05  0.0174
   1.1125E+00   1.1395E+00   2.4052E-05  0.0173
   1.1395E+00   1.1673E+00   2.3709E-05  0.0172
   1.1673E+00   1.1957E+00   2.4287E-05  0.0168
   1.1957E+00   1.2247E+00   2.3690E-05  0.0168
   1.2247E+00   1.2545E+00   2.3083E-05  0.0168
   1.2545E+00   1.2851E+00   2.3166E-05  0.0166
   1.2851E+00   1.3163E+00   2.3018E-05  0.0164
   1.3163E+00   1.3484E+00   2.2476E-05  0.0164
   1.3484E+00   1.3812E+00   2.1372E-05  0.0166
   1.3812E+00   1.4148E+00   2.1890E-05  0.0162
   1.4148E+00   1.4492E+00   2.1409E-05  0.0161
   1.4492E+00   1.4845E+00   2.1538E-05  0.0159
   1.4845E+00   1.5206E+00   2.1260E-05  0.0158
   1.5206E+00   1.5576E+00   2.1100E-05  0.0156
   1.5576E+00   1.5955E+00   1.9602E-05  0.0160
   1.5955E+00   1.6343E+00   1.8896E-05  0.0160
   1.6343E+00   1.6741E+00   1.9186E-05  0.0157
   1.6741E+00   1.7148E+00   1.8486E-05  0.0158
   1.7148E+00   1.7565E+00   1.7640E-05  0.0160
   1.7565E+00   1.7992E+00   1.6747E-05  0.0162
   1.7992E+00   1.8430E+00   1.5543E-05  0.0165
   1.8430E+00   1.8879E+00   1.4107E-05  0.0171
   1.8879E+00   1.9338E+00   1.3570E-05  0.0172
   1.9338E+00   1.9808E+00   1.3546E-05  0.0170
   1.9808E+00   2.0290E+00   1.2953E-05  0.0171
   2.0290E+00   2.0784E+00   1.2964E-05  0.0169
   2.0784E+00   2.1290E+00   1.2563E-05  0.0169
   2.1290E+00   2.1808E+00   1.3373E-05  0.0161
   2.1808E+00   2.2338E+00   1.3241E-05  0.0160
   2.2338E+00   2.2882E+00   1.2694E-05  0.0162
   2.2882E+00   2.3439E+00   1.1773E-05  0.0167
   2.3439E+00   2.4009E+00   1.1877E-05  0.0164
   2.4009E+00   2.4593E+00   1.1535E-05  0.0164
   2.4593E+00   2.5191E+00   1.1139E-05  0.0165
   2.5191E+00   2.5804E+00   1.1343E-05  0.0162
   2.5804E+00   2.6432E+00   1.1364E-05  0.0160
   2.6432E+00   2.7075E+00   1.0894E-05  0.0162
   2.7075E+00   2.7734E+00   1.0511E-05  0.0163
   2.7734E+00   2.8409E+00   1.0401E-05  0.0162
   2.8409E+00   2.9100E+00   1.0327E-05  0.0161
   2.9100E+00   2.9808E+00   1.0031E-05  0.0161
   2.9808E+00   3.0533E+00   1.0088E-05  0.0159
   3.0533E+00   3.1276E+00   9.7904E-06  0.0160
   3.1276E+00   3.2037E+00   9.6187E-06  0.0160
   3.2037E+00   3.2817E+00   9.4053E-06  0.0160
   3.2817E+00   3.3615E+00   9.6265E-06  0.0156
   3.3615E+00   3.4433E+00   9.6500E-06  0.0154
   3.4433E+00   3.5271E+00   9.6552E-06  0.0152
   3.5271E+00   3.6129E+00   9.1128E-06  0.0155
   3.6129E+00   3.7008E+00   9.2210E-06  0.0152
   3.7008E+00   3.7908E+00   9.2324E-06  0.0151
   3.7908E+00   3.8831E+00   8.8441E-06  0.0152
   3.8831E+00   3.9776E+00   8.9443E-06  0.0149
   3.9776E+00   4.0743E+00   8.9334E-06  0.0148
   4.0743E+00   4.1735E+00   8.8480E-06  0.0147
   4.1735E+00   4.2750E+00   8.6488E-06  0.0147
   4.2750E+00   4.3790E+00   8.5637E-06  0.0146
   4.3790E+00   4.4856E+00   8.3667E-06  0.0146
   4.4856E+00   4.5947E+00   8.3102E-06  0.0145
   4.5947E+00   4.7065E+00   8.1657E-06  0.0144
   4.7065E+00   4.8210E+00   7.9596E-06  0.0144
   4.8210E+00   4.9383E+00   7.9862E-06  0.0142
   4.9383E+00   5.0585E+00   7.9550E-06  0.0141
   5.0585E+00   5.1815E+00   7.6615E-06  0.0142
   5.1815E+00   5.3076E+00   7.8062E-06  0.0139
   5.3076E+00   5.4368E+00   7.6116E-06  0.0139
   5.4368E+00   5.5690E+00   7.4895E-06  0.0139
   5.5690E+00   5.7045E+00   7.4705E-06  0.0137
   5.7045E+00   5.8433E+00   7.2658E-06  0.0138
   5.8433E+00   5.9855E+00   7.2498E-06  0.0136
   5.9855E+00   6.1311E+00   7.1396E-06  0.0136
   6.1311E+00   6.2803E+00   7.0568E-06  0.0135
   6.2803E+00   6.4331E+00   7.0212E-06  0.0134
   6.4331E+00   6.5896E+00   6.9045E-06  0.0134
   6.5896E+00   6.7500E+00   6.7370E-06  0.0134
   6.7500E+00   6.9142E+00   6.7156E-06  0.0132
   6.9142E+00   7.0824E+00   6.5869E-06  0.0132
   7.0824E+00   7.2548E+00   6.3152E-06  0.0134
   7.2548E+00   7.4313E+00   6.4968E-06  0.0130
   7.4313E+00   7.6121E+00   6.1871E-06  0.0132
   7.6121E+00   7.7973E+00   6.3389E-06  0.0129
   7.7973E+00   7.9870E+00   5.9862E-06  0.0131
   7.9870E+00   8.1813E+00   5.9229E-06  0.0130
   8.1813E+00   8.3804E+00   5.8484E-06  0.0130
   8.3804E+00   8.5843E+00   5.5270E-06  0.0132
   8.5843E+00   8.7931E+00   5.5801E-06  0.0130
   8.7931E+00   9.0071E+00   5.3939E-06  0.0130
   9.0071E+00   9.2262E+00   5.3234E-06  0.0130
   9.2262E+00   9.4507E+00   5.1398E-06  0.0131
   9.4507E+00   9.6807E+00   5.0890E-06  0.0130
   9.6807E+00   9.9162E+00   4.8100E-06  0.0132
   9.9162E+00   1.0157E+01   4.9823E-06  0.0129
   1.0157E+01   1.0405E+01   4.8115E-06  0.0129
   1.0405E+01   1.0658E+01   4.8236E-06  0.0128
   1.0658E+01   1.0917E+01   4.5135E-06  0.0130
   1.0917E+01   1.1183E+01   4.3054E-06  0.0132
   1.1183E+01   1.1455E+01   4.2231E-06  0.0132
   1.1455E+01   1.1733E+01   4.1158E-06  0.0132
   1.1733E+01   1.2019E+01   3.9592E-06  0.0133
   1.2019E+01   1.2311E+01   3.8363E-06  0.0133
   1.2311E+01   1.2611E+01   3.5976E-06  0.0136
   1.2611E+01   1.2918E+01   3.5531E-06  0.0135
   1.2918E+01   1.3232E+01   3.4634E-06  0.0135
   1.3232E+01   1.3554E+01   3.3054E-06  0.0137
   1.3554E+01   1.3884E+01   3.1357E-06  0.0139
   1.3884E+01   1.4222E+01   3.0050E-06  0.0140
   1.4222E+01   1.4568E+01   2.9262E-06  0.0140
   1.4568E+01   1.4922E+01   2.8244E-06  0.0141
   1.4922E+01   1.5285E+01   2.6543E-06  0.0144
   1.5285E+01   1.5657E+01   2.4854E-06  0.0147
   1.5657E+01   1.6038E+01   2.3603E-06  0.0149
   1.6038E+01   1.6428E+01   2.1725E-06  0.0154
   1.6428E+01   1.6828E+01   2.0696E-06  0.0155
   1.6828E+01   1.7237E+01   1.9875E-06  0.0157
   1.7237E+01   1.7657E+01   1.7998E-06  0.0163
   1.7657E+01   1.8086E+01   1.6738E-06  0.0167
   1.8086E+01   1.8526E+01   1.5074E-06  0.0174
   1.8526E+01   1.8977E+01   1.3963E-06  0.0178
   1.8977E+01   1.9439E+01   1.2813E-06  0.0184
   1.9439E+01   1.9912E+01   1.1282E-06  0.0194
   1.9912E+01   2.0396E+01   1.0527E-06  0.0198
   2.0396E+01   2.0893E+01   9.3943E-07  0.0207
   2.0893E+01   2.1401E+01   8.4629E-07  0.0216
   2.1401E+01   2.1922E+01   7.3939E-07  0.0228
   2.1922E+01   2.2455E+01   6.2808E-07  0.0244
   2.2455E+01   2.3001E+01   5.6301E-07  0.0255
   2.3001E+01   2.3561E+01   5.0175E-07  0.0267
   2.3561E+01   2.4134E+01   4.5145E-07  0.0278
   2.4134E+01   2.4721E+01   3.8794E-07  0.0296
   2.4721E+01   2.5323E+01   3.2818E-07  0.0318
   2.5323E+01   2.5939E+01   2.8533E-07  0.0337
   2.5939E+01   2.6570E+01   2.4876E-07  0.0357
   2.6570E+01   2.7217E+01   1.7448E-07  0.0421
   2.7217E+01   2.7879E+01   1.5584E-07  0.0440
   2.7879E+01   2.8557E+01   1.3180E-07  0.0473
   2.8557E+01   2.9252E+01   9.6716E-08  0.0546
   2.9252E+01   2.9964E+01   8.0368E-08  0.0591
   2.9964E+01   3.0693E+01   6.6389E-08  0.0643
   3.0693E+01   3.1440E+01   5.4367E-08  0.0702
   3.1440E+01   3.2205E+01   4.1571E-08  0.0793
   3.2205E+01   3.2988E+01   3.1395E-08  0.0902
   3.2988E+01   3.3791E+01   2.3423E-08  0.1031
   3.3791E+01   3.4613E+01   1.8731E-08  0.1140
   3.4613E+01   3.5455E+01   1.7336E-08  0.1170
   3.5455E+01   3.6318E+01   1.1592E-08  0.1414
   3.6318E+01   3.7201E+01   1.0638E-08  0.1459
   3.7201E+01   3.8106E+01   6.6288E-09  0.1826
   3.8106E+01   3.9034E+01   7.1185E-09  0.1741
   3.9034E+01   3.9983E+01   7.5812E-09  0.1667
   3.9983E+01   4.0956E+01   5.3453E-09  0.1961
   4.0956E+01   4.1953E+01   4.0141E-09  0.2236
   4.1953E+01   4.2973E+01   2.9390E-09  0.2582
   4.2973E+01   4.4019E+01   1.1477E-09  0.4082
   4.4019E+01   4.5090E+01   0.0000E+00  0.0000
   4.5090E+01   4.6187E+01   0.0000E+00  0.0000
   4.6187E+01   4.7311E+01   0.0000E+00  0.0000
   4.7311E+01   4.8462E+01   0.0000E+00  0.0000
   4.8462E+01   4.9641E+01   0.0000E+00  0.0000
   4.9641E+01   5.0849E+01   0.0000E+00  0.0000
   5.0849E+01   5.2086E+01   0.0000E+00  0.0000
   5.2086E+01   5.3353E+01   0.0000E+00  0.0000
   5.3353E+01   5.4651E+01   0.0000E+00  0.0000
   5.4651E+01   5.5981E+01   0.0000E+00  0.0000
   5.5981E+01   5.7343E+01   0.0000E+00  0.0000
   5.7343E+01   5.8738E+01   0.0000E+00  0.0000
   5.8738E+01   6.0168E+01   0.0000E+00  0.0000
   6.0168E+01   6.1632E+01   0.0000E+00  0.0000
   6.1632E+01   6.3131E+01   0.0000E+00  0.0000
   6.3131E+01   6.4667E+01   0.0000E+00  0.0000
   6.4667E+01   6.6240E+01   0.0000E+00  0.0000
   6.6240E+01   6.7852E+01   0.0000E+00  0.0000
   6.7852E+01   6.9503E+01   0.0000E+00  0.0000
   6.9503E+01   7.1194E+01   0.0000E+00  0.0000
   7.1194E+01   7.2926E+01   0.0000E+00  0.0000
   7.2926E+01   7.4701E+01   0.0000E+00  0.0000
   7.4701E+01   7.6518E+01   0.0000E+00  0.0000
   7.6518E+01   7.8380E+01   0.0000E+00  0.0000
   7.8380E+01   8.0287E+01   0.0000E+00  0.0000
   8.0287E+01   8.2240E+01   0.0000E+00  0.0000
   8.2240E+01   8.4241E+01   0.0000E+00  0.0000
   8.4241E+01   8.6291E+01   0.0000E+00  0.0000
   8.6291E+01   8.8391E+01   0.0000E+00  0.0000
   8.8391E+01   9.0541E+01   0.0000E+00  0.0000
   9.0541E+01   9.2744E+01   0.0000E+00  0.0000
   9.2744E+01   9.5001E+01   0.0000E+00  0.0000
   9.5001E+01   9.7312E+01   0.0000E+00  0.0000
   9.7312E+01   9.9680E+01   0.0000E+00  0.0000
   9.9680E+01   1.0211E+02   0.0000E+00  0.0000
   1.0211E+02   1.0459E+02   0.0000E+00  0.0000
   1.0459E+02   1.0713E+02   0.0000E+00  0.0000
   1.0713E+02   1.0974E+02   0.0000E+00  0.0000
   1.0974E+02   1.1241E+02   0.0000E+00  0.0000
   1.1241E+02   1.1515E+02   0.0000E+00  0.0000
   1.1515E+02   1.1795E+02   0.0000E+00  0.0000
   1.1795E+02   1.2082E+02   0.0000E+00  0.0000
   1.2082E+02   1.2376E+02   0.0000E+00  0.0000
   1.2376E+02   1.2677E+02   0.0000E+00  0.0000
   1.2677E+02   1.2985E+02   0.0000E+00  0.0000
   1.2985E+02   1.3301E+02   0.0000E+00  0.0000
   1.3301E+02   1.3625E+02   0.0000E+00  0.0000
   1.3625E+02   1.3956E+02   0.0000E+00  0.0000
   1.3956E+02   1.4296E+02   0.0000E+00  0.0000
   1.4296E+02   1.4644E+02   0.0000E+00  0.0000
   1.4644E+02   1.5000E+02   0.0000E+00  0.0000

#   sum over                 9.1446E-07
'no. =    1   reg = 121 - 221'
msuc: {\huge [t-cross] in region mesh}
msdr: {\it plotted by \ANGEL \version}
msdl: {\it calculated by \PHITS  3.26}
wt: s(0.7)
\vspace{-3}
  region surface crossing
  area  &=&   1.0000E+00 [cm^2]
e:
 
# Information for Restart Calculation
# This calculation was newly started
# istdev =  2 # 1:Batch variance, 2:History variance
# resc2  = 5.00000000000000000E+09 # Total source weight or Total source weight / maxcas
# resc3  = 5.00000000000000000E+09 # Total history number or Total batch number
# maxcas =   100000000 # History / Batch, only used for istdev=1
# bitrseed = 0110100000100010111000001110001111001110100100011111101000111001 # bit data of rseed
