[ T-Cross ]
    title = [t-cross] in region mesh
     mesh =  reg            # mesh type is region-wise
      reg =    1            # number of crossing regions
      non     r-from    r-to       area
      1       109       209        1.000000    
   e-type =    3            # e-mesh is log given by emin, emax and ne
     emin =  1.0000000E-02  # minimum value of e-mesh points
     emax =   150.0000      # maximum value of e-mesh points
#    edel =  2.4039514E-02  # mesh width of e-mesh points
       ne =    400          # number of e-mesh points
#    data = ( e(i), i = 1, ne + 1 )
#           1.00000E-02  1.02433E-02  1.04925E-02  1.07478E-02  1.10093E-02
#           1.12772E-02  1.15516E-02  1.18326E-02  1.21205E-02  1.24154E-02
#           1.27175E-02  1.30269E-02  1.33439E-02  1.36686E-02  1.40011E-02
#           1.43418E-02  1.46907E-02  1.50482E-02  1.54143E-02  1.57894E-02
#           1.61735E-02  1.65670E-02  1.69701E-02  1.73830E-02  1.78060E-02
#           1.82392E-02  1.86830E-02  1.91375E-02  1.96032E-02  2.00801E-02
#           2.05687E-02  2.10692E-02  2.15818E-02  2.21069E-02  2.26448E-02
#           2.31957E-02  2.37601E-02  2.43382E-02  2.49304E-02  2.55369E-02
#           2.61583E-02  2.67947E-02  2.74467E-02  2.81145E-02  2.87985E-02
#           2.94992E-02  3.02169E-02  3.09521E-02  3.17052E-02  3.24766E-02
#           3.32668E-02  3.40762E-02  3.49053E-02  3.57546E-02  3.66246E-02
#           3.75157E-02  3.84284E-02  3.93634E-02  4.03212E-02  4.13022E-02
#           4.23071E-02  4.33365E-02  4.43909E-02  4.54710E-02  4.65773E-02
#           4.77106E-02  4.88714E-02  5.00605E-02  5.12785E-02  5.25262E-02
#           5.38042E-02  5.51133E-02  5.64542E-02  5.78278E-02  5.92348E-02
#           6.06760E-02  6.21523E-02  6.36645E-02  6.52135E-02  6.68002E-02
#           6.84255E-02  7.00904E-02  7.17957E-02  7.35426E-02  7.53319E-02
#           7.71648E-02  7.90423E-02  8.09655E-02  8.29354E-02  8.49533E-02
#           8.70203E-02  8.91376E-02  9.13064E-02  9.35279E-02  9.58035E-02
#           9.81345E-02  1.00522E-01  1.02968E-01  1.05473E-01  1.08040E-01
#           1.10668E-01  1.13361E-01  1.16119E-01  1.18944E-01  1.21838E-01
#           1.24803E-01  1.27839E-01  1.30950E-01  1.34136E-01  1.37399E-01
#           1.40742E-01  1.44167E-01  1.47675E-01  1.51268E-01  1.54948E-01
#           1.58718E-01  1.62580E-01  1.66535E-01  1.70587E-01  1.74738E-01
#           1.78989E-01  1.83344E-01  1.87805E-01  1.92375E-01  1.97055E-01
#           2.01850E-01  2.06761E-01  2.11792E-01  2.16945E-01  2.22223E-01
#           2.27630E-01  2.33169E-01  2.38842E-01  2.44653E-01  2.50605E-01
#           2.56703E-01  2.62949E-01  2.69346E-01  2.75900E-01  2.82613E-01
#           2.89489E-01  2.96532E-01  3.03747E-01  3.11138E-01  3.18708E-01
#           3.26462E-01  3.34405E-01  3.42542E-01  3.50876E-01  3.59413E-01
#           3.68158E-01  3.77116E-01  3.86291E-01  3.95690E-01  4.05317E-01
#           4.15179E-01  4.25281E-01  4.35628E-01  4.46227E-01  4.57084E-01
#           4.68205E-01  4.79597E-01  4.91266E-01  5.03219E-01  5.15463E-01
#           5.28005E-01  5.40851E-01  5.54011E-01  5.67490E-01  5.81298E-01
#           5.95441E-01  6.09929E-01  6.24769E-01  6.39970E-01  6.55541E-01
#           6.71491E-01  6.87828E-01  7.04564E-01  7.21706E-01  7.39266E-01
#           7.57253E-01  7.75678E-01  7.94551E-01  8.13883E-01  8.33685E-01
#           8.53969E-01  8.74747E-01  8.96030E-01  9.17831E-01  9.40163E-01
#           9.63038E-01  9.86469E-01  1.01047E+00  1.03506E+00  1.06024E+00
#           1.08604E+00  1.11246E+00  1.13953E+00  1.16725E+00  1.19565E+00
#           1.22474E+00  1.25454E+00  1.28507E+00  1.31633E+00  1.34836E+00
#           1.38117E+00  1.41477E+00  1.44920E+00  1.48446E+00  1.52057E+00
#           1.55757E+00  1.59547E+00  1.63429E+00  1.67405E+00  1.71478E+00
#           1.75650E+00  1.79924E+00  1.84302E+00  1.88786E+00  1.93379E+00
#           1.98084E+00  2.02904E+00  2.07841E+00  2.12898E+00  2.18078E+00
#           2.23384E+00  2.28819E+00  2.34386E+00  2.40089E+00  2.45930E+00
#           2.51914E+00  2.58043E+00  2.64322E+00  2.70753E+00  2.77341E+00
#           2.84088E+00  2.91001E+00  2.98081E+00  3.05333E+00  3.12762E+00
#           3.20372E+00  3.28167E+00  3.36152E+00  3.44330E+00  3.52708E+00
#           3.61290E+00  3.70080E+00  3.79085E+00  3.88308E+00  3.97756E+00
#           4.07434E+00  4.17347E+00  4.27501E+00  4.37903E+00  4.48557E+00
#           4.59471E+00  4.70650E+00  4.82102E+00  4.93832E+00  5.05847E+00
#           5.18155E+00  5.30762E+00  5.43676E+00  5.56904E+00  5.70453E+00
#           5.84333E+00  5.98550E+00  6.13114E+00  6.28031E+00  6.43312E+00
#           6.58964E+00  6.74997E+00  6.91420E+00  7.08243E+00  7.25475E+00
#           7.43126E+00  7.61207E+00  7.79728E+00  7.98700E+00  8.18133E+00
#           8.38038E+00  8.58428E+00  8.79315E+00  9.00709E+00  9.22624E+00
#           9.45072E+00  9.68067E+00  9.91620E+00  1.01575E+01  1.04046E+01
#           1.06578E+01  1.09171E+01  1.11827E+01  1.14548E+01  1.17335E+01
#           1.20190E+01  1.23114E+01  1.26109E+01  1.29178E+01  1.32321E+01
#           1.35540E+01  1.38838E+01  1.42216E+01  1.45676E+01  1.49221E+01
#           1.52851E+01  1.56570E+01  1.60380E+01  1.64282E+01  1.68279E+01
#           1.72374E+01  1.76568E+01  1.80864E+01  1.85264E+01  1.89772E+01
#           1.94389E+01  1.99119E+01  2.03963E+01  2.08926E+01  2.14009E+01
#           2.19216E+01  2.24550E+01  2.30014E+01  2.35610E+01  2.41343E+01
#           2.47215E+01  2.53230E+01  2.59391E+01  2.65702E+01  2.72167E+01
#           2.78789E+01  2.85572E+01  2.92520E+01  2.99637E+01  3.06928E+01
#           3.14396E+01  3.22045E+01  3.29881E+01  3.37907E+01  3.46128E+01
#           3.54550E+01  3.63177E+01  3.72013E+01  3.81064E+01  3.90336E+01
#           3.99833E+01  4.09561E+01  4.19526E+01  4.29734E+01  4.40189E+01
#           4.50900E+01  4.61870E+01  4.73108E+01  4.84619E+01  4.96410E+01
#           5.08488E+01  5.20860E+01  5.33533E+01  5.46514E+01  5.59812E+01
#           5.73432E+01  5.87384E+01  6.01676E+01  6.16315E+01  6.31311E+01
#           6.46671E+01  6.62405E+01  6.78522E+01  6.95031E+01  7.11941E+01
#           7.29263E+01  7.47007E+01  7.65182E+01  7.83800E+01  8.02870E+01
#           8.22405E+01  8.42414E+01  8.62911E+01  8.83906E+01  9.05412E+01
#           9.27442E+01  9.50007E+01  9.73122E+01  9.96799E+01  1.02105E+02
#           1.04589E+02  1.07134E+02  1.09741E+02  1.12411E+02  1.15146E+02
#           1.17948E+02  1.20817E+02  1.23757E+02  1.26768E+02  1.29852E+02
#           1.33012E+02  1.36248E+02  1.39563E+02  1.42959E+02  1.46437E+02
#           1.50000E+02
     unit =    2            # unit is [1/cm^2/(MeV/n)/source]
     axis =  eng            # axis of output
     file = detector-10.out  # file name of output for the above axis
   output = f-curr          # surface crossing forward current spectrum
     part =  neutron  
# kf/name :  2112     
#    used :        main (  %)        temp (  %)       total (  %)
#  memory :         414 (  0)           0 (  0)         414 (  0)

#------------------------------------------------------------------------------
#newpage:
#   no. =    1   reg = 109 - 209

x: Energy [MeV/n]
y:  F-Curr [1/cm^2/(MeV/n)/source]         
p: xlog ylog afac(0.8) form(0.9)
h: n            x            y(neutron ),hh0l   n 
#  e-lower      e-upper      neutron     r.err 
   1.0000E-02   1.0243E-02   1.9775E-04  0.0636
   1.0243E-02   1.0493E-02   1.7841E-04  0.0661
   1.0493E-02   1.0748E-02   1.7990E-04  0.0650
   1.0748E-02   1.1009E-02   1.8691E-04  0.0630
   1.1009E-02   1.1277E-02   1.8415E-04  0.0629
   1.1277E-02   1.1552E-02   1.5662E-04  0.0673
   1.1552E-02   1.1833E-02   1.7098E-04  0.0636
   1.1833E-02   1.2121E-02   1.7608E-04  0.0618
   1.2121E-02   1.2415E-02   1.6223E-04  0.0638
   1.2415E-02   1.2718E-02   1.5359E-04  0.0648
   1.2718E-02   1.3027E-02   1.4033E-04  0.0671
   1.3027E-02   1.3344E-02   1.6760E-04  0.0606
   1.3344E-02   1.3669E-02   1.4168E-04  0.0653
   1.3669E-02   1.4001E-02   1.5315E-04  0.0617
   1.4001E-02   1.4342E-02   1.2559E-04  0.0672
   1.4342E-02   1.4691E-02   1.3376E-04  0.0648
   1.4691E-02   1.5048E-02   1.3779E-04  0.0629
   1.5048E-02   1.5414E-02   1.1389E-04  0.0682
   1.5414E-02   1.5789E-02   1.2227E-04  0.0652
   1.5789E-02   1.6174E-02   1.3104E-04  0.0621
   1.6174E-02   1.6567E-02   1.2209E-04  0.0635
   1.6567E-02   1.6970E-02   1.1861E-04  0.0638
   1.6970E-02   1.7383E-02   1.3198E-04  0.0600
   1.7383E-02   1.7806E-02   1.1008E-04  0.0646
   1.7806E-02   1.8239E-02   1.1526E-04  0.0624
   1.8239E-02   1.8683E-02   9.7870E-05  0.0666
   1.8683E-02   1.9138E-02   1.2935E-04  0.0577
   1.9138E-02   1.9603E-02   1.0899E-04  0.0621
   1.9603E-02   2.0080E-02   9.7032E-05  0.0646
   2.0080E-02   2.0569E-02   9.1107E-05  0.0659
   2.0569E-02   2.1069E-02   9.9565E-05  0.0624
   2.1069E-02   2.1582E-02   8.9514E-05  0.0652
   2.1582E-02   2.2107E-02   9.5646E-05  0.0621
   2.2107E-02   2.2645E-02   9.4761E-05  0.0618
   2.2645E-02   2.3196E-02   8.8556E-05  0.0631
   2.3196E-02   2.3760E-02   8.9866E-05  0.0620
   2.3760E-02   2.4338E-02   9.2017E-05  0.0606
   2.4338E-02   2.4930E-02   8.2801E-05  0.0630
   2.4930E-02   2.5537E-02   8.8015E-05  0.0604
   2.5537E-02   2.6158E-02   7.7781E-05  0.0634
   2.6158E-02   2.6795E-02   9.2188E-05  0.0578
   2.6795E-02   2.7447E-02   8.0487E-05  0.0609
   2.7447E-02   2.8114E-02   8.2807E-05  0.0593
   2.8114E-02   2.8799E-02   7.0851E-05  0.0634
   2.8799E-02   2.9499E-02   8.0043E-05  0.0591
   2.9499E-02   3.0217E-02   6.7820E-05  0.0634
   3.0217E-02   3.0952E-02   7.1935E-05  0.0607
   3.0952E-02   3.1705E-02   6.6644E-05  0.0624
   3.1705E-02   3.2477E-02   6.4892E-05  0.0623
   3.2477E-02   3.3267E-02   6.5258E-05  0.0613
   3.3267E-02   3.4076E-02   6.5814E-05  0.0605
   3.4076E-02   3.4905E-02   6.9069E-05  0.0582
   3.4905E-02   3.5755E-02   6.7087E-05  0.0584
   3.5755E-02   3.6625E-02   6.4992E-05  0.0586
   3.6625E-02   3.7516E-02   6.1288E-05  0.0596
   3.7516E-02   3.8428E-02   6.1986E-05  0.0586
   3.8428E-02   3.9363E-02   6.0392E-05  0.0589
   3.9363E-02   4.0321E-02   5.4529E-05  0.0612
   4.0321E-02   4.1302E-02   5.4136E-05  0.0604
   4.1302E-02   4.2307E-02   5.2777E-05  0.0607
   4.2307E-02   4.3337E-02   5.4205E-05  0.0592
   4.3337E-02   4.4391E-02   4.7735E-05  0.0621
   4.4391E-02   4.5471E-02   5.3767E-05  0.0579
   4.5471E-02   4.6577E-02   5.4270E-05  0.0571
   4.6577E-02   4.7711E-02   5.5013E-05  0.0559
   4.7711E-02   4.8871E-02   4.5091E-05  0.0612
   4.8871E-02   5.0061E-02   4.6281E-05  0.0597
   5.0061E-02   5.1279E-02   4.7948E-05  0.0578
   5.1279E-02   5.2526E-02   4.8123E-05  0.0571
   5.2526E-02   5.3804E-02   4.2735E-05  0.0597
   5.3804E-02   5.5113E-02   3.9833E-05  0.0612
   5.5113E-02   5.6454E-02   4.2761E-05  0.0582
   5.6454E-02   5.7828E-02   3.9843E-05  0.0596
   5.7828E-02   5.9235E-02   4.3198E-05  0.0566
   5.9235E-02   6.0676E-02   3.7119E-05  0.0602
   6.0676E-02   6.2152E-02   3.9819E-05  0.0576
   6.2152E-02   6.3665E-02   3.9568E-05  0.0571
   6.3665E-02   6.5214E-02   3.9790E-05  0.0560
   6.5214E-02   6.6800E-02   3.5284E-05  0.0590
   6.6800E-02   6.8426E-02   3.7503E-05  0.0566
   6.8426E-02   7.0090E-02   3.6584E-05  0.0567
   7.0090E-02   7.1796E-02   3.6196E-05  0.0560
   7.1796E-02   7.3543E-02   3.5242E-05  0.0563
   7.3543E-02   7.5332E-02   3.0926E-05  0.0593
   7.5332E-02   7.7165E-02   3.3836E-05  0.0560
   7.7165E-02   7.9042E-02   3.3190E-05  0.0560
   7.9042E-02   8.0965E-02   2.9892E-05  0.0580
   8.0965E-02   8.2935E-02   3.0747E-05  0.0566
   8.2935E-02   8.4953E-02   2.9404E-05  0.0572
   8.4953E-02   8.7020E-02   3.0208E-05  0.0559
   8.7020E-02   8.9138E-02   2.8572E-05  0.0566
   8.9138E-02   9.1306E-02   2.9549E-05  0.0551
   9.1306E-02   9.3528E-02   2.4557E-05  0.0593
   9.3528E-02   9.5804E-02   2.7460E-05  0.0558
   9.5804E-02   9.8134E-02   2.5252E-05  0.0576
   9.8134E-02   1.0052E-01   2.2225E-05  0.0606
   1.0052E-01   1.0297E-01   2.2490E-05  0.0593
   1.0297E-01   1.0547E-01   2.3973E-05  0.0569
   1.0547E-01   1.0804E-01   2.6805E-05  0.0530
   1.0804E-01   1.1067E-01   2.3473E-05  0.0561
   1.1067E-01   1.1336E-01   2.2212E-05  0.0569
   1.1336E-01   1.1612E-01   1.9999E-05  0.0593
   1.1612E-01   1.1894E-01   2.1147E-05  0.0570
   1.1894E-01   1.2184E-01   2.1644E-05  0.0558
   1.2184E-01   1.2480E-01   2.1345E-05  0.0555
   1.2480E-01   1.2784E-01   2.0885E-05  0.0555
   1.2784E-01   1.3095E-01   2.3150E-05  0.0519
   1.3095E-01   1.3414E-01   1.8573E-05  0.0571
   1.3414E-01   1.3740E-01   2.1187E-05  0.0529
   1.3740E-01   1.4074E-01   1.8647E-05  0.0559
   1.4074E-01   1.4417E-01   1.8389E-05  0.0557
   1.4417E-01   1.4767E-01   1.8727E-05  0.0546
   1.4767E-01   1.5127E-01   2.0308E-05  0.0516
   1.5127E-01   1.5495E-01   1.8203E-05  0.0538
   1.5495E-01   1.5872E-01   1.9073E-05  0.0520
   1.5872E-01   1.6258E-01   1.8471E-05  0.0523
   1.6258E-01   1.6654E-01   1.4652E-05  0.0578
   1.6654E-01   1.7059E-01   1.6182E-05  0.0545
   1.7059E-01   1.7474E-01   1.8981E-05  0.0497
   1.7474E-01   1.7899E-01   1.7227E-05  0.0516
   1.7899E-01   1.8334E-01   1.4844E-05  0.0547
   1.8334E-01   1.8781E-01   1.6672E-05  0.0511
   1.8781E-01   1.9237E-01   1.7154E-05  0.0500
   1.9237E-01   1.9706E-01   1.6198E-05  0.0505
   1.9706E-01   2.0185E-01   1.4217E-05  0.0532
   2.0185E-01   2.0676E-01   1.6690E-05  0.0488
   2.0676E-01   2.1179E-01   1.6526E-05  0.0483
   2.1179E-01   2.1694E-01   1.6196E-05  0.0482
   2.1694E-01   2.2222E-01   2.0057E-05  0.0428
   2.2222E-01   2.2763E-01   2.0171E-05  0.0422
   2.2763E-01   2.3317E-01   1.9269E-05  0.0427
   2.3317E-01   2.3884E-01   2.2372E-05  0.0391
   2.3884E-01   2.4465E-01   2.2491E-05  0.0386
   2.4465E-01   2.5061E-01   2.2908E-05  0.0378
   2.5061E-01   2.5670E-01   2.5023E-05  0.0357
   2.5670E-01   2.6295E-01   2.5050E-05  0.0353
   2.6295E-01   2.6935E-01   2.6821E-05  0.0336
   2.6935E-01   2.7590E-01   2.3975E-05  0.0352
   2.7590E-01   2.8261E-01   2.9582E-05  0.0313
   2.8261E-01   2.8949E-01   2.9772E-05  0.0308
   2.8949E-01   2.9653E-01   3.1410E-05  0.0296
   2.9653E-01   3.0375E-01   3.3747E-05  0.0283
   3.0375E-01   3.1114E-01   3.2283E-05  0.0286
   3.1114E-01   3.1871E-01   3.4027E-05  0.0275
   3.1871E-01   3.2646E-01   3.7850E-05  0.0257
   3.2646E-01   3.3441E-01   3.9242E-05  0.0250
   3.3441E-01   3.4254E-01   4.0953E-05  0.0242
   3.4254E-01   3.5088E-01   4.1301E-05  0.0238
   3.5088E-01   3.5941E-01   4.3707E-05  0.0229
   3.5941E-01   3.6816E-01   4.6884E-05  0.0218
   3.6816E-01   3.7712E-01   4.6876E-05  0.0215
   3.7712E-01   3.8629E-01   4.8473E-05  0.0209
   3.8629E-01   3.9569E-01   5.0838E-05  0.0202
   3.9569E-01   4.0532E-01   5.5522E-05  0.0191
   4.0532E-01   4.1518E-01   5.6283E-05  0.0188
   4.1518E-01   4.2528E-01   6.0744E-05  0.0178
   4.2528E-01   4.3563E-01   6.0978E-05  0.0176
   4.3563E-01   4.4623E-01   6.3267E-05  0.0171
   4.4623E-01   4.5708E-01   6.6827E-05  0.0164
   4.5708E-01   4.6821E-01   6.9082E-05  0.0159
   4.6821E-01   4.7960E-01   7.6822E-05  0.0150
   4.7960E-01   4.9127E-01   7.4560E-05  0.0150
   4.9127E-01   5.0322E-01   7.6791E-05  0.0146
   5.0322E-01   5.1546E-01   7.9970E-05  0.0141
   5.1546E-01   5.2800E-01   8.3945E-05  0.0136
   5.2800E-01   5.4085E-01   8.5927E-05  0.0133
   5.4085E-01   5.5401E-01   8.9899E-05  0.0129
   5.5401E-01   5.6749E-01   9.2951E-05  0.0125
   5.6749E-01   5.8130E-01   9.7919E-05  0.0120
   5.8130E-01   5.9544E-01   1.0113E-04  0.0117
   5.9544E-01   6.0993E-01   1.0320E-04  0.0114
   6.0993E-01   6.2477E-01   1.0804E-04  0.0111
   6.2477E-01   6.3997E-01   1.1248E-04  0.0107
   6.3997E-01   6.5554E-01   1.1846E-04  0.0103
   6.5554E-01   6.7149E-01   1.1917E-04  0.0102
   6.7149E-01   6.8783E-01   1.2552E-04  0.0098
   6.8783E-01   7.0456E-01   1.2918E-04  0.0095
   7.0456E-01   7.2171E-01   1.3288E-04  0.0093
   7.2171E-01   7.3927E-01   1.3645E-04  0.0090
   7.3927E-01   7.5725E-01   1.4384E-04  0.0087
   7.5725E-01   7.7568E-01   1.4610E-04  0.0085
   7.7568E-01   7.9455E-01   1.5125E-04  0.0083
   7.9455E-01   8.1388E-01   1.5335E-04  0.0081
   8.1388E-01   8.3368E-01   1.6031E-04  0.0079
   8.3368E-01   8.5397E-01   1.6604E-04  0.0076
   8.5397E-01   8.7475E-01   1.6973E-04  0.0075
   8.7475E-01   8.9603E-01   1.7412E-04  0.0073
   8.9603E-01   9.1783E-01   1.7917E-04  0.0071
   9.1783E-01   9.4016E-01   1.8296E-04  0.0069
   9.4016E-01   9.6304E-01   1.8770E-04  0.0068
   9.6304E-01   9.8647E-01   1.9355E-04  0.0066
   9.8647E-01   1.0105E+00   1.9650E-04  0.0065
   1.0105E+00   1.0351E+00   1.9943E-04  0.0063
   1.0351E+00   1.0602E+00   2.0094E-04  0.0062
   1.0602E+00   1.0860E+00   2.0303E-04  0.0061
   1.0860E+00   1.1125E+00   2.0646E-04  0.0060
   1.1125E+00   1.1395E+00   2.0805E-04  0.0059
   1.1395E+00   1.1673E+00   2.1347E-04  0.0058
   1.1673E+00   1.1957E+00   2.1872E-04  0.0056
   1.1957E+00   1.2247E+00   2.2329E-04  0.0055
   1.2247E+00   1.2545E+00   2.2302E-04  0.0054
   1.2545E+00   1.2851E+00   2.2345E-04  0.0054
   1.2851E+00   1.3163E+00   2.2724E-04  0.0053
   1.3163E+00   1.3484E+00   2.3308E-04  0.0051
   1.3484E+00   1.3812E+00   2.3867E-04  0.0050
   1.3812E+00   1.4148E+00   2.4453E-04  0.0049
   1.4148E+00   1.4492E+00   2.4885E-04  0.0048
   1.4492E+00   1.4845E+00   2.5094E-04  0.0047
   1.4845E+00   1.5206E+00   2.5583E-04  0.0046
   1.5206E+00   1.5576E+00   2.5373E-04  0.0046
   1.5576E+00   1.5955E+00   2.4967E-04  0.0046
   1.5955E+00   1.6343E+00   2.5063E-04  0.0045
   1.6343E+00   1.6741E+00   2.4728E-04  0.0045
   1.6741E+00   1.7148E+00   2.4781E-04  0.0044
   1.7148E+00   1.7565E+00   2.4775E-04  0.0044
   1.7565E+00   1.7992E+00   2.5194E-04  0.0043
   1.7992E+00   1.8430E+00   2.5338E-04  0.0042
   1.8430E+00   1.8879E+00   2.5437E-04  0.0042
   1.8879E+00   1.9338E+00   2.5328E-04  0.0041
   1.9338E+00   1.9808E+00   2.5466E-04  0.0041
   1.9808E+00   2.0290E+00   2.5548E-04  0.0040
   2.0290E+00   2.0784E+00   2.5668E-04  0.0039
   2.0784E+00   2.1290E+00   2.4833E-04  0.0040
   2.1290E+00   2.1808E+00   2.4567E-04  0.0039
   2.1808E+00   2.2338E+00   2.4285E-04  0.0039
   2.2338E+00   2.2882E+00   2.3814E-04  0.0039
   2.2882E+00   2.3439E+00   2.3688E-04  0.0039
   2.3439E+00   2.4009E+00   2.3934E-04  0.0038
   2.4009E+00   2.4593E+00   2.3995E-04  0.0037
   2.4593E+00   2.5191E+00   2.3801E-04  0.0037
   2.5191E+00   2.5804E+00   2.3598E-04  0.0037
   2.5804E+00   2.6432E+00   2.3319E-04  0.0037
   2.6432E+00   2.7075E+00   2.2674E-04  0.0037
   2.7075E+00   2.7734E+00   2.2370E-04  0.0037
   2.7734E+00   2.8409E+00   2.1920E-04  0.0036
   2.8409E+00   2.9100E+00   2.1637E-04  0.0036
   2.9100E+00   2.9808E+00   2.1631E-04  0.0036
   2.9808E+00   3.0533E+00   2.1541E-04  0.0036
   3.0533E+00   3.1276E+00   2.1055E-04  0.0035
   3.1276E+00   3.2037E+00   2.0693E-04  0.0035
   3.2037E+00   3.2817E+00   2.0105E-04  0.0035
   3.2817E+00   3.3615E+00   1.9774E-04  0.0035
   3.3615E+00   3.4433E+00   1.9555E-04  0.0035
   3.4433E+00   3.5271E+00   1.9377E-04  0.0035
   3.5271E+00   3.6129E+00   1.9195E-04  0.0035
   3.6129E+00   3.7008E+00   1.8590E-04  0.0035
   3.7008E+00   3.7908E+00   1.8208E-04  0.0035
   3.7908E+00   3.8831E+00   1.7800E-04  0.0035
   3.8831E+00   3.9776E+00   1.7610E-04  0.0034
   3.9776E+00   4.0743E+00   1.7384E-04  0.0034
   4.0743E+00   4.1735E+00   1.6935E-04  0.0034
   4.1735E+00   4.2750E+00   1.6451E-04  0.0034
   4.2750E+00   4.3790E+00   1.6191E-04  0.0034
   4.3790E+00   4.4856E+00   1.5862E-04  0.0034
   4.4856E+00   4.5947E+00   1.5571E-04  0.0034
   4.5947E+00   4.7065E+00   1.5128E-04  0.0034
   4.7065E+00   4.8210E+00   1.4809E-04  0.0034
   4.8210E+00   4.9383E+00   1.4504E-04  0.0034
   4.9383E+00   5.0585E+00   1.4144E-04  0.0034
   5.0585E+00   5.1815E+00   1.3720E-04  0.0034
   5.1815E+00   5.3076E+00   1.3232E-04  0.0034
   5.3076E+00   5.4368E+00   1.3038E-04  0.0034
   5.4368E+00   5.5690E+00   1.2454E-04  0.0035
   5.5690E+00   5.7045E+00   1.2100E-04  0.0035
   5.7045E+00   5.8433E+00   1.1612E-04  0.0035
   5.8433E+00   5.9855E+00   1.1191E-04  0.0035
   5.9855E+00   6.1311E+00   1.0847E-04  0.0035
   6.1311E+00   6.2803E+00   1.0370E-04  0.0036
   6.2803E+00   6.4331E+00   9.9091E-05  0.0036
   6.4331E+00   6.5896E+00   9.4261E-05  0.0037
   6.5896E+00   6.7500E+00   9.0893E-05  0.0037
   6.7500E+00   6.9142E+00   8.7415E-05  0.0037
   6.9142E+00   7.0824E+00   8.2767E-05  0.0038
   7.0824E+00   7.2548E+00   7.9965E-05  0.0038
   7.2548E+00   7.4313E+00   7.6434E-05  0.0038
   7.4313E+00   7.6121E+00   7.2899E-05  0.0039
   7.6121E+00   7.7973E+00   6.9981E-05  0.0039
   7.7973E+00   7.9870E+00   6.7459E-05  0.0039
   7.9870E+00   8.1813E+00   6.4674E-05  0.0040
   8.1813E+00   8.3804E+00   6.2612E-05  0.0040
   8.3804E+00   8.5843E+00   5.9183E-05  0.0041
   8.5843E+00   8.7931E+00   5.7342E-05  0.0041
   8.7931E+00   9.0071E+00   5.4724E-05  0.0041
   9.0071E+00   9.2262E+00   5.2700E-05  0.0041
   9.2262E+00   9.4507E+00   4.9908E-05  0.0042
   9.4507E+00   9.6807E+00   4.8071E-05  0.0042
   9.6807E+00   9.9162E+00   4.5498E-05  0.0043
   9.9162E+00   1.0157E+01   4.3251E-05  0.0044
   1.0157E+01   1.0405E+01   4.0688E-05  0.0044
   1.0405E+01   1.0658E+01   3.8644E-05  0.0045
   1.0658E+01   1.0917E+01   3.6214E-05  0.0046
   1.0917E+01   1.1183E+01   3.4034E-05  0.0047
   1.1183E+01   1.1455E+01   3.2017E-05  0.0048
   1.1455E+01   1.1733E+01   3.0133E-05  0.0049
   1.1733E+01   1.2019E+01   2.8366E-05  0.0050
   1.2019E+01   1.2311E+01   2.6713E-05  0.0051
   1.2311E+01   1.2611E+01   2.4930E-05  0.0052
   1.2611E+01   1.2918E+01   2.3701E-05  0.0052
   1.2918E+01   1.3232E+01   2.1870E-05  0.0054
   1.3232E+01   1.3554E+01   2.0519E-05  0.0055
   1.3554E+01   1.3884E+01   1.9306E-05  0.0056
   1.3884E+01   1.4222E+01   1.7962E-05  0.0057
   1.4222E+01   1.4568E+01   1.6868E-05  0.0058
   1.4568E+01   1.4922E+01   1.5590E-05  0.0060
   1.4922E+01   1.5285E+01   1.4781E-05  0.0061
   1.5285E+01   1.5657E+01   1.3898E-05  0.0062
   1.5657E+01   1.6038E+01   1.2978E-05  0.0064
   1.6038E+01   1.6428E+01   1.2036E-05  0.0065
   1.6428E+01   1.6828E+01   1.1407E-05  0.0066
   1.6828E+01   1.7237E+01   1.0752E-05  0.0067
   1.7237E+01   1.7657E+01   1.0057E-05  0.0069
   1.7657E+01   1.8086E+01   9.5542E-06  0.0070
   1.8086E+01   1.8526E+01   9.2556E-06  0.0070
   1.8526E+01   1.8977E+01   8.7969E-06  0.0071
   1.8977E+01   1.9439E+01   8.8303E-06  0.0070
   1.9439E+01   1.9912E+01   9.3225E-06  0.0067
   1.9912E+01   2.0396E+01   9.4206E-06  0.0066
   2.0396E+01   2.0893E+01   8.7184E-06  0.0068
   2.0893E+01   2.1401E+01   7.7854E-06  0.0071
   2.1401E+01   2.1922E+01   6.8757E-06  0.0075
   2.1922E+01   2.2455E+01   6.0221E-06  0.0079
   2.2455E+01   2.3001E+01   5.6184E-06  0.0081
   2.3001E+01   2.3561E+01   5.2062E-06  0.0083
   2.3561E+01   2.4134E+01   4.9029E-06  0.0084
   2.4134E+01   2.4721E+01   4.3389E-06  0.0089
   2.4721E+01   2.5323E+01   3.7656E-06  0.0094
   2.5323E+01   2.5939E+01   3.1623E-06  0.0101
   2.5939E+01   2.6570E+01   1.9968E-06  0.0126
   2.6570E+01   2.7217E+01   7.7559E-07  0.0200
   2.7217E+01   2.7879E+01   2.1111E-07  0.0378
   2.7879E+01   2.8557E+01   2.5947E-08  0.1066
   2.8557E+01   2.9252E+01   1.1514E-09  0.5000
   2.9252E+01   2.9964E+01   0.0000E+00  0.0000
   2.9964E+01   3.0693E+01   0.0000E+00  0.0000
   3.0693E+01   3.1440E+01   0.0000E+00  0.0000
   3.1440E+01   3.2205E+01   0.0000E+00  0.0000
   3.2205E+01   3.2988E+01   0.0000E+00  0.0000
   3.2988E+01   3.3791E+01   0.0000E+00  0.0000
   3.3791E+01   3.4613E+01   0.0000E+00  0.0000
   3.4613E+01   3.5455E+01   0.0000E+00  0.0000
   3.5455E+01   3.6318E+01   0.0000E+00  0.0000
   3.6318E+01   3.7201E+01   0.0000E+00  0.0000
   3.7201E+01   3.8106E+01   0.0000E+00  0.0000
   3.8106E+01   3.9034E+01   0.0000E+00  0.0000
   3.9034E+01   3.9983E+01   0.0000E+00  0.0000
   3.9983E+01   4.0956E+01   0.0000E+00  0.0000
   4.0956E+01   4.1953E+01   0.0000E+00  0.0000
   4.1953E+01   4.2973E+01   0.0000E+00  0.0000
   4.2973E+01   4.4019E+01   0.0000E+00  0.0000
   4.4019E+01   4.5090E+01   0.0000E+00  0.0000
   4.5090E+01   4.6187E+01   0.0000E+00  0.0000
   4.6187E+01   4.7311E+01   0.0000E+00  0.0000
   4.7311E+01   4.8462E+01   0.0000E+00  0.0000
   4.8462E+01   4.9641E+01   0.0000E+00  0.0000
   4.9641E+01   5.0849E+01   0.0000E+00  0.0000
   5.0849E+01   5.2086E+01   0.0000E+00  0.0000
   5.2086E+01   5.3353E+01   0.0000E+00  0.0000
   5.3353E+01   5.4651E+01   0.0000E+00  0.0000
   5.4651E+01   5.5981E+01   0.0000E+00  0.0000
   5.5981E+01   5.7343E+01   0.0000E+00  0.0000
   5.7343E+01   5.8738E+01   0.0000E+00  0.0000
   5.8738E+01   6.0168E+01   0.0000E+00  0.0000
   6.0168E+01   6.1632E+01   0.0000E+00  0.0000
   6.1632E+01   6.3131E+01   0.0000E+00  0.0000
   6.3131E+01   6.4667E+01   0.0000E+00  0.0000
   6.4667E+01   6.6240E+01   0.0000E+00  0.0000
   6.6240E+01   6.7852E+01   0.0000E+00  0.0000
   6.7852E+01   6.9503E+01   0.0000E+00  0.0000
   6.9503E+01   7.1194E+01   0.0000E+00  0.0000
   7.1194E+01   7.2926E+01   0.0000E+00  0.0000
   7.2926E+01   7.4701E+01   0.0000E+00  0.0000
   7.4701E+01   7.6518E+01   0.0000E+00  0.0000
   7.6518E+01   7.8380E+01   0.0000E+00  0.0000
   7.8380E+01   8.0287E+01   0.0000E+00  0.0000
   8.0287E+01   8.2240E+01   0.0000E+00  0.0000
   8.2240E+01   8.4241E+01   0.0000E+00  0.0000
   8.4241E+01   8.6291E+01   0.0000E+00  0.0000
   8.6291E+01   8.8391E+01   0.0000E+00  0.0000
   8.8391E+01   9.0541E+01   0.0000E+00  0.0000
   9.0541E+01   9.2744E+01   0.0000E+00  0.0000
   9.2744E+01   9.5001E+01   0.0000E+00  0.0000
   9.5001E+01   9.7312E+01   0.0000E+00  0.0000
   9.7312E+01   9.9680E+01   0.0000E+00  0.0000
   9.9680E+01   1.0211E+02   0.0000E+00  0.0000
   1.0211E+02   1.0459E+02   0.0000E+00  0.0000
   1.0459E+02   1.0713E+02   0.0000E+00  0.0000
   1.0713E+02   1.0974E+02   0.0000E+00  0.0000
   1.0974E+02   1.1241E+02   0.0000E+00  0.0000
   1.1241E+02   1.1515E+02   0.0000E+00  0.0000
   1.1515E+02   1.1795E+02   0.0000E+00  0.0000
   1.1795E+02   1.2082E+02   0.0000E+00  0.0000
   1.2082E+02   1.2376E+02   0.0000E+00  0.0000
   1.2376E+02   1.2677E+02   0.0000E+00  0.0000
   1.2677E+02   1.2985E+02   0.0000E+00  0.0000
   1.2985E+02   1.3301E+02   0.0000E+00  0.0000
   1.3301E+02   1.3625E+02   0.0000E+00  0.0000
   1.3625E+02   1.3956E+02   0.0000E+00  0.0000
   1.3956E+02   1.4296E+02   0.0000E+00  0.0000
   1.4296E+02   1.4644E+02   0.0000E+00  0.0000
   1.4644E+02   1.5000E+02   0.0000E+00  0.0000

#   sum over                 1.0243E-05
'no. =    1   reg = 109 - 209'
msuc: {\huge [t-cross] in region mesh}
msdr: {\it plotted by \ANGEL \version}
msdl: {\it calculated by \PHITS  3.28}
wt: s(0.7)
\vspace{-3}
  region surface crossing
  area  &=&   1.0000E+00 [cm^2]
e:
 
# Information for Restart Calculation
# This calculation was newly started
# istdev =  2 # 1:Batch variance, 2:History variance
# resc2  = 5.00000000000000000E+09 # Total source weight or Total source weight / maxcas
# resc3  = 5.00000000000000000E+09 # Total history number or Total batch number
# maxcas =   500000000 # History / Batch, only used for istdev=1
# bitrseed = 0001101011110000011001100100101010101011111110100001111101011101 # bit data of rseed
