[ T-Cross ]
    title = [t-cross] in region mesh
     mesh =  reg            # mesh type is region-wise
      reg =    1            # number of crossing regions
      non     r-from    r-to       area
      1       112       212        1.000000    
   e-type =    3            # e-mesh is log given by emin, emax and ne
     emin =  1.0000000E-02  # minimum value of e-mesh points
     emax =   150.0000      # maximum value of e-mesh points
#    edel =  2.4039514E-02  # mesh width of e-mesh points
       ne =    400          # number of e-mesh points
#    data = ( e(i), i = 1, ne + 1 )
#           1.00000E-02  1.02433E-02  1.04925E-02  1.07478E-02  1.10093E-02
#           1.12772E-02  1.15516E-02  1.18326E-02  1.21205E-02  1.24154E-02
#           1.27175E-02  1.30269E-02  1.33439E-02  1.36686E-02  1.40011E-02
#           1.43418E-02  1.46907E-02  1.50482E-02  1.54143E-02  1.57894E-02
#           1.61735E-02  1.65670E-02  1.69701E-02  1.73830E-02  1.78060E-02
#           1.82392E-02  1.86830E-02  1.91375E-02  1.96032E-02  2.00801E-02
#           2.05687E-02  2.10692E-02  2.15818E-02  2.21069E-02  2.26448E-02
#           2.31957E-02  2.37601E-02  2.43382E-02  2.49304E-02  2.55369E-02
#           2.61583E-02  2.67947E-02  2.74467E-02  2.81145E-02  2.87985E-02
#           2.94992E-02  3.02169E-02  3.09521E-02  3.17052E-02  3.24766E-02
#           3.32668E-02  3.40762E-02  3.49053E-02  3.57546E-02  3.66246E-02
#           3.75157E-02  3.84284E-02  3.93634E-02  4.03212E-02  4.13022E-02
#           4.23071E-02  4.33365E-02  4.43909E-02  4.54710E-02  4.65773E-02
#           4.77106E-02  4.88714E-02  5.00605E-02  5.12785E-02  5.25262E-02
#           5.38042E-02  5.51133E-02  5.64542E-02  5.78278E-02  5.92348E-02
#           6.06760E-02  6.21523E-02  6.36645E-02  6.52135E-02  6.68002E-02
#           6.84255E-02  7.00904E-02  7.17957E-02  7.35426E-02  7.53319E-02
#           7.71648E-02  7.90423E-02  8.09655E-02  8.29354E-02  8.49533E-02
#           8.70203E-02  8.91376E-02  9.13064E-02  9.35279E-02  9.58035E-02
#           9.81345E-02  1.00522E-01  1.02968E-01  1.05473E-01  1.08040E-01
#           1.10668E-01  1.13361E-01  1.16119E-01  1.18944E-01  1.21838E-01
#           1.24803E-01  1.27839E-01  1.30950E-01  1.34136E-01  1.37399E-01
#           1.40742E-01  1.44167E-01  1.47675E-01  1.51268E-01  1.54948E-01
#           1.58718E-01  1.62580E-01  1.66535E-01  1.70587E-01  1.74738E-01
#           1.78989E-01  1.83344E-01  1.87805E-01  1.92375E-01  1.97055E-01
#           2.01850E-01  2.06761E-01  2.11792E-01  2.16945E-01  2.22223E-01
#           2.27630E-01  2.33169E-01  2.38842E-01  2.44653E-01  2.50605E-01
#           2.56703E-01  2.62949E-01  2.69346E-01  2.75900E-01  2.82613E-01
#           2.89489E-01  2.96532E-01  3.03747E-01  3.11138E-01  3.18708E-01
#           3.26462E-01  3.34405E-01  3.42542E-01  3.50876E-01  3.59413E-01
#           3.68158E-01  3.77116E-01  3.86291E-01  3.95690E-01  4.05317E-01
#           4.15179E-01  4.25281E-01  4.35628E-01  4.46227E-01  4.57084E-01
#           4.68205E-01  4.79597E-01  4.91266E-01  5.03219E-01  5.15463E-01
#           5.28005E-01  5.40851E-01  5.54011E-01  5.67490E-01  5.81298E-01
#           5.95441E-01  6.09929E-01  6.24769E-01  6.39970E-01  6.55541E-01
#           6.71491E-01  6.87828E-01  7.04564E-01  7.21706E-01  7.39266E-01
#           7.57253E-01  7.75678E-01  7.94551E-01  8.13883E-01  8.33685E-01
#           8.53969E-01  8.74747E-01  8.96030E-01  9.17831E-01  9.40163E-01
#           9.63038E-01  9.86469E-01  1.01047E+00  1.03506E+00  1.06024E+00
#           1.08604E+00  1.11246E+00  1.13953E+00  1.16725E+00  1.19565E+00
#           1.22474E+00  1.25454E+00  1.28507E+00  1.31633E+00  1.34836E+00
#           1.38117E+00  1.41477E+00  1.44920E+00  1.48446E+00  1.52057E+00
#           1.55757E+00  1.59547E+00  1.63429E+00  1.67405E+00  1.71478E+00
#           1.75650E+00  1.79924E+00  1.84302E+00  1.88786E+00  1.93379E+00
#           1.98084E+00  2.02904E+00  2.07841E+00  2.12898E+00  2.18078E+00
#           2.23384E+00  2.28819E+00  2.34386E+00  2.40089E+00  2.45930E+00
#           2.51914E+00  2.58043E+00  2.64322E+00  2.70753E+00  2.77341E+00
#           2.84088E+00  2.91001E+00  2.98081E+00  3.05333E+00  3.12762E+00
#           3.20372E+00  3.28167E+00  3.36152E+00  3.44330E+00  3.52708E+00
#           3.61290E+00  3.70080E+00  3.79085E+00  3.88308E+00  3.97756E+00
#           4.07434E+00  4.17347E+00  4.27501E+00  4.37903E+00  4.48557E+00
#           4.59471E+00  4.70650E+00  4.82102E+00  4.93832E+00  5.05847E+00
#           5.18155E+00  5.30762E+00  5.43676E+00  5.56904E+00  5.70453E+00
#           5.84333E+00  5.98550E+00  6.13114E+00  6.28031E+00  6.43312E+00
#           6.58964E+00  6.74997E+00  6.91420E+00  7.08243E+00  7.25475E+00
#           7.43126E+00  7.61207E+00  7.79728E+00  7.98700E+00  8.18133E+00
#           8.38038E+00  8.58428E+00  8.79315E+00  9.00709E+00  9.22624E+00
#           9.45072E+00  9.68067E+00  9.91620E+00  1.01575E+01  1.04046E+01
#           1.06578E+01  1.09171E+01  1.11827E+01  1.14548E+01  1.17335E+01
#           1.20190E+01  1.23114E+01  1.26109E+01  1.29178E+01  1.32321E+01
#           1.35540E+01  1.38838E+01  1.42216E+01  1.45676E+01  1.49221E+01
#           1.52851E+01  1.56570E+01  1.60380E+01  1.64282E+01  1.68279E+01
#           1.72374E+01  1.76568E+01  1.80864E+01  1.85264E+01  1.89772E+01
#           1.94389E+01  1.99119E+01  2.03963E+01  2.08926E+01  2.14009E+01
#           2.19216E+01  2.24550E+01  2.30014E+01  2.35610E+01  2.41343E+01
#           2.47215E+01  2.53230E+01  2.59391E+01  2.65702E+01  2.72167E+01
#           2.78789E+01  2.85572E+01  2.92520E+01  2.99637E+01  3.06928E+01
#           3.14396E+01  3.22045E+01  3.29881E+01  3.37907E+01  3.46128E+01
#           3.54550E+01  3.63177E+01  3.72013E+01  3.81064E+01  3.90336E+01
#           3.99833E+01  4.09561E+01  4.19526E+01  4.29734E+01  4.40189E+01
#           4.50900E+01  4.61870E+01  4.73108E+01  4.84619E+01  4.96410E+01
#           5.08488E+01  5.20860E+01  5.33533E+01  5.46514E+01  5.59812E+01
#           5.73432E+01  5.87384E+01  6.01676E+01  6.16315E+01  6.31311E+01
#           6.46671E+01  6.62405E+01  6.78522E+01  6.95031E+01  7.11941E+01
#           7.29263E+01  7.47007E+01  7.65182E+01  7.83800E+01  8.02870E+01
#           8.22405E+01  8.42414E+01  8.62911E+01  8.83906E+01  9.05412E+01
#           9.27442E+01  9.50007E+01  9.73122E+01  9.96799E+01  1.02105E+02
#           1.04589E+02  1.07134E+02  1.09741E+02  1.12411E+02  1.15146E+02
#           1.17948E+02  1.20817E+02  1.23757E+02  1.26768E+02  1.29852E+02
#           1.33012E+02  1.36248E+02  1.39563E+02  1.42959E+02  1.46437E+02
#           1.50000E+02
     unit =    2            # unit is [1/cm^2/(MeV/n)/source]
     axis =  eng            # axis of output
     file = detector-13.out  # file name of output for the above axis
   output = f-curr          # surface crossing forward current spectrum
     part =  neutron  
# kf/name :  2112     
#    used :        main (  %)        temp (  %)       total (  %)
#  memory :         414 (  0)           0 (  0)         414 (  0)

#------------------------------------------------------------------------------
#newpage:
#   no. =    1   reg = 112 - 212

x: Energy [MeV/n]
y:  F-Curr [1/cm^2/(MeV/n)/source]         
p: xlog ylog afac(0.8) form(0.9)
h: n            x            y(neutron ),hh0l   n 
#  e-lower      e-upper      neutron     r.err 
   1.0000E-02   1.0243E-02   1.8603E-03  0.0663
   1.0243E-02   1.0493E-02   1.8289E-03  0.0661
   1.0493E-02   1.0748E-02   2.0929E-03  0.0611
   1.0748E-02   1.1009E-02   1.9320E-03  0.0629
   1.1009E-02   1.1277E-02   1.8182E-03  0.0638
   1.1277E-02   1.1552E-02   1.6697E-03  0.0659
   1.1552E-02   1.1833E-02   1.6266E-03  0.0661
   1.1833E-02   1.2121E-02   1.5253E-03  0.0673
   1.2121E-02   1.2415E-02   1.4300E-03  0.0687
   1.2415E-02   1.2718E-02   1.5430E-03  0.0653
   1.2718E-02   1.3027E-02   1.4587E-03  0.0663
   1.3027E-02   1.3344E-02   1.3974E-03  0.0671
   1.3344E-02   1.3669E-02   1.4607E-03  0.0648
   1.3669E-02   1.4001E-02   1.5061E-03  0.0630
   1.4001E-02   1.4342E-02   1.3426E-03  0.0659
   1.4342E-02   1.4691E-02   1.3658E-03  0.0646
   1.4691E-02   1.5048E-02   1.5234E-03  0.0604
   1.5048E-02   1.5414E-02   1.3901E-03  0.0626
   1.5414E-02   1.5789E-02   1.3959E-03  0.0617
   1.5789E-02   1.6174E-02   1.3115E-03  0.0628
   1.6174E-02   1.6567E-02   1.2306E-03  0.0641
   1.6567E-02   1.6970E-02   1.2636E-03  0.0625
   1.6970E-02   1.7383E-02   1.2792E-03  0.0613
   1.7383E-02   1.7806E-02   1.0838E-03  0.0659
   1.7806E-02   1.8239E-02   1.0713E-03  0.0655
   1.8239E-02   1.8683E-02   1.0403E-03  0.0657
   1.8683E-02   1.9138E-02   1.0447E-03  0.0647
   1.9138E-02   1.9603E-02   1.1339E-03  0.0615
   1.9603E-02   2.0080E-02   8.6035E-04  0.0696
   2.0080E-02   2.0569E-02   1.0322E-03  0.0628
   2.0569E-02   2.1069E-02   9.0008E-04  0.0665
   2.1069E-02   2.1582E-02   8.2885E-04  0.0683
   2.1582E-02   2.2107E-02   9.8581E-04  0.0621
   2.2107E-02   2.2645E-02   9.7222E-04  0.0616
   2.2645E-02   2.3196E-02   8.4855E-04  0.0652
   2.3196E-02   2.3760E-02   8.9715E-04  0.0627
   2.3760E-02   2.4338E-02   7.5954E-04  0.0673
   2.4338E-02   2.4930E-02   6.5493E-04  0.0716
   2.4930E-02   2.5537E-02   8.0906E-04  0.0637
   2.5537E-02   2.6158E-02   7.0582E-04  0.0673
   2.6158E-02   2.6795E-02   6.5141E-04  0.0691
   2.6795E-02   2.7447E-02   7.2405E-04  0.0649
   2.7447E-02   2.8114E-02   7.6217E-04  0.0626
   2.8114E-02   2.8799E-02   7.3710E-04  0.0628
   2.8799E-02   2.9499E-02   6.2235E-04  0.0674
   2.9499E-02   3.0217E-02   5.8563E-04  0.0687
   3.0217E-02   3.0952E-02   6.1531E-04  0.0662
   3.0952E-02   3.1705E-02   6.0636E-04  0.0660
   3.1705E-02   3.2477E-02   4.9949E-04  0.0718
   3.2477E-02   3.3267E-02   5.0739E-04  0.0704
   3.3267E-02   3.4076E-02   5.9557E-04  0.0642
   3.4076E-02   3.4905E-02   5.7558E-04  0.0646
   3.4905E-02   3.5755E-02   5.5004E-04  0.0653
   3.5755E-02   3.6625E-02   5.1310E-04  0.0667
   3.6625E-02   3.7516E-02   4.8514E-04  0.0677
   3.7516E-02   3.8428E-02   4.9248E-04  0.0665
   3.8428E-02   3.9363E-02   5.3584E-04  0.0630
   3.9363E-02   4.0321E-02   4.9422E-04  0.0649
   4.0321E-02   4.1302E-02   4.5431E-04  0.0668
   4.1302E-02   4.2307E-02   4.6069E-04  0.0655
   4.2307E-02   4.3337E-02   4.5486E-04  0.0652
   4.3337E-02   4.4391E-02   4.1007E-04  0.0679
   4.4391E-02   4.5471E-02   4.0364E-04  0.0676
   4.5471E-02   4.6577E-02   4.2552E-04  0.0648
   4.6577E-02   4.7711E-02   4.0755E-04  0.0656
   4.7711E-02   4.8871E-02   3.7610E-04  0.0676
   4.8871E-02   5.0061E-02   4.0789E-04  0.0641
   5.0061E-02   5.1279E-02   3.9955E-04  0.0639
   5.1279E-02   5.2526E-02   3.9935E-04  0.0632
   5.2526E-02   5.3804E-02   3.8445E-04  0.0636
   5.3804E-02   5.5113E-02   3.6157E-04  0.0649
   5.5113E-02   5.6454E-02   3.0644E-04  0.0696
   5.6454E-02   5.7828E-02   3.2824E-04  0.0664
   5.7828E-02   5.9235E-02   3.6451E-04  0.0622
   5.9235E-02   6.0676E-02   2.7849E-04  0.0703
   6.0676E-02   6.2152E-02   3.0680E-04  0.0662
   6.2152E-02   6.3665E-02   3.2019E-04  0.0641
   6.3665E-02   6.5214E-02   3.1952E-04  0.0635
   6.5214E-02   6.6800E-02   2.7430E-04  0.0676
   6.6800E-02   6.8426E-02   2.9369E-04  0.0647
   6.8426E-02   7.0090E-02   3.0466E-04  0.0626
   7.0090E-02   7.1796E-02   2.2972E-04  0.0711
   7.1796E-02   7.3543E-02   2.7327E-04  0.0645
   7.3543E-02   7.5332E-02   2.4366E-04  0.0676
   7.5332E-02   7.7165E-02   2.1529E-04  0.0708
   7.7165E-02   7.9042E-02   2.7420E-04  0.0621
   7.9042E-02   8.0965E-02   2.4889E-04  0.0645
   8.0965E-02   8.2935E-02   2.3770E-04  0.0651
   8.2935E-02   8.4953E-02   2.3969E-04  0.0642
   8.4953E-02   8.7020E-02   2.2360E-04  0.0657
   8.7020E-02   8.9138E-02   2.4675E-04  0.0617
   8.9138E-02   9.1306E-02   2.1660E-04  0.0651
   9.1306E-02   9.3528E-02   2.0164E-04  0.0667
   9.3528E-02   9.5804E-02   2.1074E-04  0.0645
   9.5804E-02   9.8134E-02   1.9204E-04  0.0667
   9.8134E-02   1.0052E-01   1.9120E-04  0.0660
   1.0052E-01   1.0297E-01   2.0195E-04  0.0634
   1.0297E-01   1.0547E-01   1.9433E-04  0.0639
   1.0547E-01   1.0804E-01   1.9220E-04  0.0635
   1.0804E-01   1.1067E-01   1.7903E-04  0.0648
   1.1067E-01   1.1336E-01   1.7325E-04  0.0652
   1.1336E-01   1.1612E-01   1.9719E-04  0.0605
   1.1612E-01   1.1894E-01   1.7773E-04  0.0629
   1.1894E-01   1.2184E-01   1.6681E-04  0.0642
   1.2184E-01   1.2480E-01   1.4933E-04  0.0669
   1.2480E-01   1.2784E-01   1.6039E-04  0.0640
   1.2784E-01   1.3095E-01   1.5643E-04  0.0639
   1.3095E-01   1.3414E-01   1.4650E-04  0.0652
   1.3414E-01   1.3740E-01   1.5955E-04  0.0617
   1.3740E-01   1.4074E-01   1.4934E-04  0.0631
   1.4074E-01   1.4417E-01   1.5485E-04  0.0613
   1.4417E-01   1.4767E-01   1.5016E-04  0.0614
   1.4767E-01   1.5127E-01   1.5478E-04  0.0598
   1.5127E-01   1.5495E-01   1.3449E-04  0.0634
   1.5495E-01   1.5872E-01   1.5167E-04  0.0590
   1.5872E-01   1.6258E-01   1.4066E-04  0.0605
   1.6258E-01   1.6654E-01   1.3824E-04  0.0601
   1.6654E-01   1.7059E-01   1.4201E-04  0.0588
   1.7059E-01   1.7474E-01   1.3350E-04  0.0598
   1.7474E-01   1.7899E-01   1.3647E-04  0.0585
   1.7899E-01   1.8334E-01   1.3187E-04  0.0588
   1.8334E-01   1.8781E-01   1.1807E-04  0.0615
   1.8781E-01   1.9237E-01   1.3941E-04  0.0559
   1.9237E-01   1.9706E-01   1.1760E-04  0.0601
   1.9706E-01   2.0185E-01   1.2014E-04  0.0587
   2.0185E-01   2.0676E-01   1.2277E-04  0.0574
   2.0676E-01   2.1179E-01   1.2643E-04  0.0559
   2.1179E-01   2.1694E-01   1.3079E-04  0.0543
   2.1694E-01   2.2222E-01   1.3845E-04  0.0522
   2.2222E-01   2.2763E-01   1.3420E-04  0.0524
   2.2763E-01   2.3317E-01   1.5823E-04  0.0476
   2.3317E-01   2.3884E-01   1.6274E-04  0.0465
   2.3884E-01   2.4465E-01   1.7287E-04  0.0445
   2.4465E-01   2.5061E-01   1.6339E-04  0.0452
   2.5061E-01   2.5670E-01   1.7632E-04  0.0430
   2.5670E-01   2.6295E-01   1.8069E-04  0.0420
   2.6295E-01   2.6935E-01   1.9859E-04  0.0396
   2.6935E-01   2.7590E-01   1.9315E-04  0.0397
   2.7590E-01   2.8261E-01   1.9961E-04  0.0386
   2.8261E-01   2.8949E-01   2.2452E-04  0.0359
   2.8949E-01   2.9653E-01   2.2231E-04  0.0356
   2.9653E-01   3.0375E-01   2.4106E-04  0.0338
   3.0375E-01   3.1114E-01   2.5582E-04  0.0324
   3.1114E-01   3.1871E-01   2.4326E-04  0.0329
   3.1871E-01   3.2646E-01   2.5753E-04  0.0316
   3.2646E-01   3.3441E-01   2.6199E-04  0.0309
   3.3441E-01   3.4254E-01   2.7616E-04  0.0297
   3.4254E-01   3.5088E-01   2.8891E-04  0.0287
   3.5088E-01   3.5941E-01   2.8722E-04  0.0285
   3.5941E-01   3.6816E-01   3.1923E-04  0.0267
   3.6816E-01   3.7712E-01   3.0520E-04  0.0270
   3.7712E-01   3.8629E-01   3.3161E-04  0.0256
   3.8629E-01   3.9569E-01   3.4837E-04  0.0246
   3.9569E-01   4.0532E-01   3.5910E-04  0.0240
   4.0532E-01   4.1518E-01   3.5852E-04  0.0237
   4.1518E-01   4.2528E-01   3.7655E-04  0.0229
   4.2528E-01   4.3563E-01   3.8122E-04  0.0225
   4.3563E-01   4.4623E-01   4.0158E-04  0.0216
   4.4623E-01   4.5708E-01   4.1777E-04  0.0209
   4.5708E-01   4.6821E-01   4.3446E-04  0.0203
   4.6821E-01   4.7960E-01   4.4028E-04  0.0199
   4.7960E-01   4.9127E-01   4.5077E-04  0.0195
   4.9127E-01   5.0322E-01   4.4653E-04  0.0193
   5.0322E-01   5.1546E-01   4.7455E-04  0.0185
   5.1546E-01   5.2800E-01   4.7468E-04  0.0183
   5.2800E-01   5.4085E-01   4.9380E-04  0.0177
   5.4085E-01   5.5401E-01   4.9211E-04  0.0175
   5.5401E-01   5.6749E-01   5.1352E-04  0.0170
   5.6749E-01   5.8130E-01   5.3667E-04  0.0164
   5.8130E-01   5.9544E-01   5.3291E-04  0.0162
   5.9544E-01   6.0993E-01   5.5087E-04  0.0158
   6.0993E-01   6.2477E-01   5.5504E-04  0.0155
   6.2477E-01   6.3997E-01   5.6385E-04  0.0152
   6.3997E-01   6.5554E-01   5.8719E-04  0.0148
   6.5554E-01   6.7149E-01   5.7694E-04  0.0147
   6.7149E-01   6.8783E-01   6.0942E-04  0.0141
   6.8783E-01   7.0456E-01   6.0390E-04  0.0140
   7.0456E-01   7.2171E-01   6.1519E-04  0.0137
   7.2171E-01   7.3927E-01   6.0453E-04  0.0137
   7.3927E-01   7.5725E-01   6.1265E-04  0.0134
   7.5725E-01   7.7568E-01   6.3726E-04  0.0130
   7.7568E-01   7.9455E-01   6.3210E-04  0.0129
   7.9455E-01   8.1388E-01   6.4139E-04  0.0127
   8.1388E-01   8.3368E-01   6.4828E-04  0.0124
   8.3368E-01   8.5397E-01   6.5095E-04  0.0123
   8.5397E-01   8.7475E-01   6.6501E-04  0.0120
   8.7475E-01   8.9603E-01   6.5179E-04  0.0120
   8.9603E-01   9.1783E-01   6.5574E-04  0.0118
   9.1783E-01   9.4016E-01   6.4949E-04  0.0117
   9.4016E-01   9.6304E-01   6.7779E-04  0.0113
   9.6304E-01   9.8647E-01   6.6631E-04  0.0113
   9.8647E-01   1.0105E+00   6.7348E-04  0.0111
   1.0105E+00   1.0351E+00   6.6943E-04  0.0110
   1.0351E+00   1.0602E+00   6.7474E-04  0.0108
   1.0602E+00   1.0860E+00   6.5984E-04  0.0108
   1.0860E+00   1.1125E+00   6.7207E-04  0.0106
   1.1125E+00   1.1395E+00   6.5473E-04  0.0106
   1.1395E+00   1.1673E+00   6.5667E-04  0.0104
   1.1673E+00   1.1957E+00   6.4542E-04  0.0104
   1.1957E+00   1.2247E+00   6.6356E-04  0.0101
   1.2247E+00   1.2545E+00   6.4294E-04  0.0102
   1.2545E+00   1.2851E+00   6.3839E-04  0.0101
   1.2851E+00   1.3163E+00   6.3175E-04  0.0100
   1.3163E+00   1.3484E+00   6.3559E-04  0.0099
   1.3484E+00   1.3812E+00   6.2093E-04  0.0099
   1.3812E+00   1.4148E+00   6.2087E-04  0.0098
   1.4148E+00   1.4492E+00   6.1941E-04  0.0096
   1.4492E+00   1.4845E+00   6.0273E-04  0.0097
   1.4845E+00   1.5206E+00   6.0600E-04  0.0095
   1.5206E+00   1.5576E+00   5.9971E-04  0.0095
   1.5576E+00   1.5955E+00   5.9019E-04  0.0094
   1.5955E+00   1.6343E+00   5.7212E-04  0.0095
   1.6343E+00   1.6741E+00   5.7677E-04  0.0093
   1.6741E+00   1.7148E+00   5.6258E-04  0.0093
   1.7148E+00   1.7565E+00   5.6455E-04  0.0092
   1.7565E+00   1.7992E+00   5.4980E-04  0.0092
   1.7992E+00   1.8430E+00   5.4438E-04  0.0091
   1.8430E+00   1.8879E+00   5.4036E-04  0.0090
   1.8879E+00   1.9338E+00   5.2611E-04  0.0090
   1.9338E+00   1.9808E+00   5.1722E-04  0.0090
   1.9808E+00   2.0290E+00   5.0702E-04  0.0090
   2.0290E+00   2.0784E+00   4.8856E-04  0.0091
   2.0784E+00   2.1290E+00   4.9117E-04  0.0089
   2.1290E+00   2.1808E+00   4.8032E-04  0.0089
   2.1808E+00   2.2338E+00   4.7516E-04  0.0089
   2.2338E+00   2.2882E+00   4.5704E-04  0.0089
   2.2882E+00   2.3439E+00   4.4283E-04  0.0090
   2.3439E+00   2.4009E+00   4.5055E-04  0.0088
   2.4009E+00   2.4593E+00   4.4917E-04  0.0087
   2.4593E+00   2.5191E+00   4.3645E-04  0.0087
   2.5191E+00   2.5804E+00   4.2969E-04  0.0087
   2.5804E+00   2.6432E+00   4.2478E-04  0.0086
   2.6432E+00   2.7075E+00   4.0731E-04  0.0087
   2.7075E+00   2.7734E+00   3.9768E-04  0.0087
   2.7734E+00   2.8409E+00   3.9533E-04  0.0086
   2.8409E+00   2.9100E+00   3.9300E-04  0.0085
   2.9100E+00   2.9808E+00   3.8292E-04  0.0085
   2.9808E+00   3.0533E+00   3.7881E-04  0.0085
   3.0533E+00   3.1276E+00   3.6892E-04  0.0085
   3.1276E+00   3.2037E+00   3.6131E-04  0.0085
   3.2037E+00   3.2817E+00   3.5455E-04  0.0085
   3.2817E+00   3.3615E+00   3.4935E-04  0.0084
   3.3615E+00   3.4433E+00   3.4164E-04  0.0084
   3.4433E+00   3.5271E+00   3.4273E-04  0.0083
   3.5271E+00   3.6129E+00   3.3534E-04  0.0083
   3.6129E+00   3.7008E+00   3.2758E-04  0.0083
   3.7008E+00   3.7908E+00   3.2350E-04  0.0082
   3.7908E+00   3.8831E+00   3.2148E-04  0.0082
   3.8831E+00   3.9776E+00   3.1287E-04  0.0082
   3.9776E+00   4.0743E+00   3.1504E-04  0.0081
   4.0743E+00   4.1735E+00   3.0639E-04  0.0081
   4.1735E+00   4.2750E+00   3.0802E-04  0.0079
   4.2750E+00   4.3790E+00   2.9811E-04  0.0080
   4.3790E+00   4.4856E+00   2.9907E-04  0.0079
   4.4856E+00   4.5947E+00   3.0316E-04  0.0077
   4.5947E+00   4.7065E+00   3.1034E-04  0.0076
   4.7065E+00   4.8210E+00   3.0828E-04  0.0075
   4.8210E+00   4.9383E+00   3.0690E-04  0.0074
   4.9383E+00   5.0585E+00   3.0229E-04  0.0074
   5.0585E+00   5.1815E+00   3.0402E-04  0.0073
   5.1815E+00   5.3076E+00   2.9942E-04  0.0072
   5.3076E+00   5.4368E+00   2.9652E-04  0.0072
   5.4368E+00   5.5690E+00   2.8890E-04  0.0072
   5.5690E+00   5.7045E+00   2.8713E-04  0.0071
   5.7045E+00   5.8433E+00   2.7492E-04  0.0072
   5.8433E+00   5.9855E+00   2.7496E-04  0.0071
   5.9855E+00   6.1311E+00   2.7306E-04  0.0071
   6.1311E+00   6.2803E+00   2.6909E-04  0.0070
   6.2803E+00   6.4331E+00   2.6587E-04  0.0070
   6.4331E+00   6.5896E+00   2.6252E-04  0.0070
   6.5896E+00   6.7500E+00   2.5453E-04  0.0070
   6.7500E+00   6.9142E+00   2.5248E-04  0.0069
   6.9142E+00   7.0824E+00   2.5036E-04  0.0069
   7.0824E+00   7.2548E+00   2.4967E-04  0.0068
   7.2548E+00   7.4313E+00   2.4724E-04  0.0068
   7.4313E+00   7.6121E+00   2.4285E-04  0.0067
   7.6121E+00   7.7973E+00   2.3442E-04  0.0068
   7.7973E+00   7.9870E+00   2.3489E-04  0.0067
   7.9870E+00   8.1813E+00   2.2910E-04  0.0067
   8.1813E+00   8.3804E+00   2.2350E-04  0.0067
   8.3804E+00   8.5843E+00   2.1722E-04  0.0067
   8.5843E+00   8.7931E+00   2.1533E-04  0.0067
   8.7931E+00   9.0071E+00   2.1192E-04  0.0066
   9.0071E+00   9.2262E+00   2.0729E-04  0.0066
   9.2262E+00   9.4507E+00   2.0139E-04  0.0066
   9.4507E+00   9.6807E+00   1.9639E-04  0.0066
   9.6807E+00   9.9162E+00   1.9358E-04  0.0066
   9.9162E+00   1.0157E+01   1.8699E-04  0.0066
   1.0157E+01   1.0405E+01   1.8292E-04  0.0066
   1.0405E+01   1.0658E+01   1.8088E-04  0.0066
   1.0658E+01   1.0917E+01   1.7808E-04  0.0066
   1.0917E+01   1.1183E+01   1.7042E-04  0.0066
   1.1183E+01   1.1455E+01   1.6746E-04  0.0066
   1.1455E+01   1.1733E+01   1.6201E-04  0.0066
   1.1733E+01   1.2019E+01   1.5815E-04  0.0067
   1.2019E+01   1.2311E+01   1.5328E-04  0.0067
   1.2311E+01   1.2611E+01   1.4689E-04  0.0067
   1.2611E+01   1.2918E+01   1.4220E-04  0.0068
   1.2918E+01   1.3232E+01   1.3937E-04  0.0068
   1.3232E+01   1.3554E+01   1.3271E-04  0.0068
   1.3554E+01   1.3884E+01   1.2819E-04  0.0069
   1.3884E+01   1.4222E+01   1.2342E-04  0.0069
   1.4222E+01   1.4568E+01   1.1862E-04  0.0070
   1.4568E+01   1.4922E+01   1.1559E-04  0.0070
   1.4922E+01   1.5285E+01   1.0921E-04  0.0071
   1.5285E+01   1.5657E+01   1.0556E-04  0.0071
   1.5657E+01   1.6038E+01   1.0035E-04  0.0072
   1.6038E+01   1.6428E+01   9.6841E-05  0.0073
   1.6428E+01   1.6828E+01   9.2771E-05  0.0073
   1.6828E+01   1.7237E+01   8.8325E-05  0.0074
   1.7237E+01   1.7657E+01   8.4671E-05  0.0075
   1.7657E+01   1.8086E+01   8.1218E-05  0.0076
   1.8086E+01   1.8526E+01   7.7619E-05  0.0077
   1.8526E+01   1.8977E+01   7.5484E-05  0.0077
   1.8977E+01   1.9439E+01   7.1937E-05  0.0078
   1.9439E+01   1.9912E+01   6.8890E-05  0.0078
   1.9912E+01   2.0396E+01   6.6709E-05  0.0079
   2.0396E+01   2.0893E+01   6.2411E-05  0.0080
   2.0893E+01   2.1401E+01   5.9992E-05  0.0081
   2.1401E+01   2.1922E+01   5.6297E-05  0.0083
   2.1922E+01   2.2455E+01   5.2530E-05  0.0084
   2.2455E+01   2.3001E+01   4.9185E-05  0.0086
   2.3001E+01   2.3561E+01   4.6716E-05  0.0087
   2.3561E+01   2.4134E+01   4.4291E-05  0.0089
   2.4134E+01   2.4721E+01   4.0630E-05  0.0092
   2.4721E+01   2.5323E+01   3.8448E-05  0.0093
   2.5323E+01   2.5939E+01   3.5587E-05  0.0096
   2.5939E+01   2.6570E+01   3.2843E-05  0.0098
   2.6570E+01   2.7217E+01   3.0891E-05  0.0100
   2.7217E+01   2.7879E+01   2.8188E-05  0.0104
   2.7879E+01   2.8557E+01   2.6684E-05  0.0105
   2.8557E+01   2.9252E+01   2.3376E-05  0.0111
   2.9252E+01   2.9964E+01   2.1958E-05  0.0113
   2.9964E+01   3.0693E+01   1.9184E-05  0.0120
   3.0693E+01   3.1440E+01   1.7644E-05  0.0123
   3.1440E+01   3.2205E+01   1.6286E-05  0.0127
   3.2205E+01   3.2988E+01   1.4536E-05  0.0133
   3.2988E+01   3.3791E+01   1.2828E-05  0.0139
   3.3791E+01   3.4613E+01   1.1176E-05  0.0148
   3.4613E+01   3.5455E+01   1.0114E-05  0.0153
   3.5455E+01   3.6318E+01   9.0280E-06  0.0160
   3.6318E+01   3.7201E+01   8.0689E-06  0.0167
   3.7201E+01   3.8106E+01   6.9757E-06  0.0178
   3.8106E+01   3.9034E+01   6.0162E-06  0.0189
   3.9034E+01   3.9983E+01   5.1447E-06  0.0202
   3.9983E+01   4.0956E+01   4.5928E-06  0.0212
   4.0956E+01   4.1953E+01   3.9117E-06  0.0227
   4.1953E+01   4.2973E+01   3.3760E-06  0.0241
   4.2973E+01   4.4019E+01   2.7315E-06  0.0265
   4.4019E+01   4.5090E+01   2.2894E-06  0.0286
   4.5090E+01   4.6187E+01   2.0236E-06  0.0300
   4.6187E+01   4.7311E+01   1.6160E-06  0.0332
   4.7311E+01   4.8462E+01   1.3882E-06  0.0354
   4.8462E+01   4.9641E+01   1.1178E-06  0.0390
   4.9641E+01   5.0849E+01   8.3457E-07  0.0445
   5.0849E+01   5.2086E+01   7.3069E-07  0.0470
   5.2086E+01   5.3353E+01   5.5236E-07  0.0535
   5.3353E+01   5.4651E+01   4.6837E-07  0.0574
   5.4651E+01   5.5981E+01   3.7753E-07  0.0631
   5.5981E+01   5.7343E+01   3.0395E-07  0.0695
   5.7343E+01   5.8738E+01   2.5659E-07  0.0747
   5.8738E+01   6.0168E+01   2.1271E-07  0.0811
   6.0168E+01   6.1632E+01   1.7214E-07  0.0891
   6.1632E+01   6.3131E+01   1.2537E-07  0.1031
   6.3131E+01   6.4667E+01   1.0026E-07  0.1140
   6.4667E+01   6.6240E+01   9.2793E-08  0.1170
   6.6240E+01   6.7852E+01   6.4529E-08  0.1387
   6.7852E+01   6.9503E+01   4.2401E-08  0.1690
   6.9503E+01   7.1194E+01   3.6663E-08  0.1796
   7.1194E+01   7.2926E+01   3.0019E-08  0.1961
   7.2926E+01   7.4701E+01   5.6358E-09  0.4472
   7.4701E+01   7.6518E+01   9.9036E-09  0.3333
   7.6518E+01   7.8380E+01   3.2228E-09  0.5774
   7.8380E+01   8.0287E+01   1.0487E-09  1.0000
   8.0287E+01   8.2240E+01   0.0000E+00  0.0000
   8.2240E+01   8.4241E+01   0.0000E+00  0.0000
   8.4241E+01   8.6291E+01   0.0000E+00  0.0000
   8.6291E+01   8.8391E+01   0.0000E+00  0.0000
   8.8391E+01   9.0541E+01   0.0000E+00  0.0000
   9.0541E+01   9.2744E+01   0.0000E+00  0.0000
   9.2744E+01   9.5001E+01   0.0000E+00  0.0000
   9.5001E+01   9.7312E+01   0.0000E+00  0.0000
   9.7312E+01   9.9680E+01   0.0000E+00  0.0000
   9.9680E+01   1.0211E+02   0.0000E+00  0.0000
   1.0211E+02   1.0459E+02   0.0000E+00  0.0000
   1.0459E+02   1.0713E+02   0.0000E+00  0.0000
   1.0713E+02   1.0974E+02   0.0000E+00  0.0000
   1.0974E+02   1.1241E+02   0.0000E+00  0.0000
   1.1241E+02   1.1515E+02   0.0000E+00  0.0000
   1.1515E+02   1.1795E+02   0.0000E+00  0.0000
   1.1795E+02   1.2082E+02   0.0000E+00  0.0000
   1.2082E+02   1.2376E+02   0.0000E+00  0.0000
   1.2376E+02   1.2677E+02   0.0000E+00  0.0000
   1.2677E+02   1.2985E+02   0.0000E+00  0.0000
   1.2985E+02   1.3301E+02   0.0000E+00  0.0000
   1.3301E+02   1.3625E+02   0.0000E+00  0.0000
   1.3625E+02   1.3956E+02   0.0000E+00  0.0000
   1.3956E+02   1.4296E+02   0.0000E+00  0.0000
   1.4296E+02   1.4644E+02   0.0000E+00  0.0000
   1.4644E+02   1.5000E+02   0.0000E+00  0.0000

#   sum over                 3.3696E-05
'no. =    1   reg = 112 - 212'
msuc: {\huge [t-cross] in region mesh}
msdr: {\it plotted by \ANGEL \version}
msdl: {\it calculated by \PHITS  3.26}
wt: s(0.7)
\vspace{-3}
  region surface crossing
  area  &=&   1.0000E+00 [cm^2]
e:
 
# Information for Restart Calculation
# This calculation was newly started
# istdev =  2 # 1:Batch variance, 2:History variance
# resc2  = 5.00000000000000000E+08 # Total source weight or Total source weight / maxcas
# resc3  = 5.00000000000000000E+08 # Total history number or Total batch number
# maxcas =   500000000 # History / Batch, only used for istdev=1
# bitrseed = 1011101111111101000111101101010011111001010110111001011111010111 # bit data of rseed
