[ T-Cross ]
    title = [t-cross] in region mesh
     mesh =  reg            # mesh type is region-wise
      reg =    1            # number of crossing regions
      non     r-from    r-to       area
      1       126       226        1.000000    
   e-type =    3            # e-mesh is log given by emin, emax and ne
     emin =  1.0000000E-02  # minimum value of e-mesh points
     emax =   150.0000      # maximum value of e-mesh points
#    edel =  2.4039514E-02  # mesh width of e-mesh points
       ne =    400          # number of e-mesh points
#    data = ( e(i), i = 1, ne + 1 )
#           1.00000E-02  1.02433E-02  1.04925E-02  1.07478E-02  1.10093E-02
#           1.12772E-02  1.15516E-02  1.18326E-02  1.21205E-02  1.24154E-02
#           1.27175E-02  1.30269E-02  1.33439E-02  1.36686E-02  1.40011E-02
#           1.43418E-02  1.46907E-02  1.50482E-02  1.54143E-02  1.57894E-02
#           1.61735E-02  1.65670E-02  1.69701E-02  1.73830E-02  1.78060E-02
#           1.82392E-02  1.86830E-02  1.91375E-02  1.96032E-02  2.00801E-02
#           2.05687E-02  2.10692E-02  2.15818E-02  2.21069E-02  2.26448E-02
#           2.31957E-02  2.37601E-02  2.43382E-02  2.49304E-02  2.55369E-02
#           2.61583E-02  2.67947E-02  2.74467E-02  2.81145E-02  2.87985E-02
#           2.94992E-02  3.02169E-02  3.09521E-02  3.17052E-02  3.24766E-02
#           3.32668E-02  3.40762E-02  3.49053E-02  3.57546E-02  3.66246E-02
#           3.75157E-02  3.84284E-02  3.93634E-02  4.03212E-02  4.13022E-02
#           4.23071E-02  4.33365E-02  4.43909E-02  4.54710E-02  4.65773E-02
#           4.77106E-02  4.88714E-02  5.00605E-02  5.12785E-02  5.25262E-02
#           5.38042E-02  5.51133E-02  5.64542E-02  5.78278E-02  5.92348E-02
#           6.06760E-02  6.21523E-02  6.36645E-02  6.52135E-02  6.68002E-02
#           6.84255E-02  7.00904E-02  7.17957E-02  7.35426E-02  7.53319E-02
#           7.71648E-02  7.90423E-02  8.09655E-02  8.29354E-02  8.49533E-02
#           8.70203E-02  8.91376E-02  9.13064E-02  9.35279E-02  9.58035E-02
#           9.81345E-02  1.00522E-01  1.02968E-01  1.05473E-01  1.08040E-01
#           1.10668E-01  1.13361E-01  1.16119E-01  1.18944E-01  1.21838E-01
#           1.24803E-01  1.27839E-01  1.30950E-01  1.34136E-01  1.37399E-01
#           1.40742E-01  1.44167E-01  1.47675E-01  1.51268E-01  1.54948E-01
#           1.58718E-01  1.62580E-01  1.66535E-01  1.70587E-01  1.74738E-01
#           1.78989E-01  1.83344E-01  1.87805E-01  1.92375E-01  1.97055E-01
#           2.01850E-01  2.06761E-01  2.11792E-01  2.16945E-01  2.22223E-01
#           2.27630E-01  2.33169E-01  2.38842E-01  2.44653E-01  2.50605E-01
#           2.56703E-01  2.62949E-01  2.69346E-01  2.75900E-01  2.82613E-01
#           2.89489E-01  2.96532E-01  3.03747E-01  3.11138E-01  3.18708E-01
#           3.26462E-01  3.34405E-01  3.42542E-01  3.50876E-01  3.59413E-01
#           3.68158E-01  3.77116E-01  3.86291E-01  3.95690E-01  4.05317E-01
#           4.15179E-01  4.25281E-01  4.35628E-01  4.46227E-01  4.57084E-01
#           4.68205E-01  4.79597E-01  4.91266E-01  5.03219E-01  5.15463E-01
#           5.28005E-01  5.40851E-01  5.54011E-01  5.67490E-01  5.81298E-01
#           5.95441E-01  6.09929E-01  6.24769E-01  6.39970E-01  6.55541E-01
#           6.71491E-01  6.87828E-01  7.04564E-01  7.21706E-01  7.39266E-01
#           7.57253E-01  7.75678E-01  7.94551E-01  8.13883E-01  8.33685E-01
#           8.53969E-01  8.74747E-01  8.96030E-01  9.17831E-01  9.40163E-01
#           9.63038E-01  9.86469E-01  1.01047E+00  1.03506E+00  1.06024E+00
#           1.08604E+00  1.11246E+00  1.13953E+00  1.16725E+00  1.19565E+00
#           1.22474E+00  1.25454E+00  1.28507E+00  1.31633E+00  1.34836E+00
#           1.38117E+00  1.41477E+00  1.44920E+00  1.48446E+00  1.52057E+00
#           1.55757E+00  1.59547E+00  1.63429E+00  1.67405E+00  1.71478E+00
#           1.75650E+00  1.79924E+00  1.84302E+00  1.88786E+00  1.93379E+00
#           1.98084E+00  2.02904E+00  2.07841E+00  2.12898E+00  2.18078E+00
#           2.23384E+00  2.28819E+00  2.34386E+00  2.40089E+00  2.45930E+00
#           2.51914E+00  2.58043E+00  2.64322E+00  2.70753E+00  2.77341E+00
#           2.84088E+00  2.91001E+00  2.98081E+00  3.05333E+00  3.12762E+00
#           3.20372E+00  3.28167E+00  3.36152E+00  3.44330E+00  3.52708E+00
#           3.61290E+00  3.70080E+00  3.79085E+00  3.88308E+00  3.97756E+00
#           4.07434E+00  4.17347E+00  4.27501E+00  4.37903E+00  4.48557E+00
#           4.59471E+00  4.70650E+00  4.82102E+00  4.93832E+00  5.05847E+00
#           5.18155E+00  5.30762E+00  5.43676E+00  5.56904E+00  5.70453E+00
#           5.84333E+00  5.98550E+00  6.13114E+00  6.28031E+00  6.43312E+00
#           6.58964E+00  6.74997E+00  6.91420E+00  7.08243E+00  7.25475E+00
#           7.43126E+00  7.61207E+00  7.79728E+00  7.98700E+00  8.18133E+00
#           8.38038E+00  8.58428E+00  8.79315E+00  9.00709E+00  9.22624E+00
#           9.45072E+00  9.68067E+00  9.91620E+00  1.01575E+01  1.04046E+01
#           1.06578E+01  1.09171E+01  1.11827E+01  1.14548E+01  1.17335E+01
#           1.20190E+01  1.23114E+01  1.26109E+01  1.29178E+01  1.32321E+01
#           1.35540E+01  1.38838E+01  1.42216E+01  1.45676E+01  1.49221E+01
#           1.52851E+01  1.56570E+01  1.60380E+01  1.64282E+01  1.68279E+01
#           1.72374E+01  1.76568E+01  1.80864E+01  1.85264E+01  1.89772E+01
#           1.94389E+01  1.99119E+01  2.03963E+01  2.08926E+01  2.14009E+01
#           2.19216E+01  2.24550E+01  2.30014E+01  2.35610E+01  2.41343E+01
#           2.47215E+01  2.53230E+01  2.59391E+01  2.65702E+01  2.72167E+01
#           2.78789E+01  2.85572E+01  2.92520E+01  2.99637E+01  3.06928E+01
#           3.14396E+01  3.22045E+01  3.29881E+01  3.37907E+01  3.46128E+01
#           3.54550E+01  3.63177E+01  3.72013E+01  3.81064E+01  3.90336E+01
#           3.99833E+01  4.09561E+01  4.19526E+01  4.29734E+01  4.40189E+01
#           4.50900E+01  4.61870E+01  4.73108E+01  4.84619E+01  4.96410E+01
#           5.08488E+01  5.20860E+01  5.33533E+01  5.46514E+01  5.59812E+01
#           5.73432E+01  5.87384E+01  6.01676E+01  6.16315E+01  6.31311E+01
#           6.46671E+01  6.62405E+01  6.78522E+01  6.95031E+01  7.11941E+01
#           7.29263E+01  7.47007E+01  7.65182E+01  7.83800E+01  8.02870E+01
#           8.22405E+01  8.42414E+01  8.62911E+01  8.83906E+01  9.05412E+01
#           9.27442E+01  9.50007E+01  9.73122E+01  9.96799E+01  1.02105E+02
#           1.04589E+02  1.07134E+02  1.09741E+02  1.12411E+02  1.15146E+02
#           1.17948E+02  1.20817E+02  1.23757E+02  1.26768E+02  1.29852E+02
#           1.33012E+02  1.36248E+02  1.39563E+02  1.42959E+02  1.46437E+02
#           1.50000E+02
     unit =    2            # unit is [1/cm^2/(MeV/n)/source]
     axis =  eng            # axis of output
     file = detector-27.out  # file name of output for the above axis
   output = f-curr          # surface crossing forward current spectrum
     part =  neutron  
# kf/name :  2112     
#    used :        main (  %)        temp (  %)       total (  %)
#  memory :         414 (  0)           0 (  0)         414 (  0)

#------------------------------------------------------------------------------
#newpage:
#   no. =    1   reg = 126 - 226

x: Energy [MeV/n]
y:  F-Curr [1/cm^2/(MeV/n)/source]         
p: xlog ylog afac(0.8) form(0.9)
h: n            x            y(neutron ),hh0l   n 
#  e-lower      e-upper      neutron     r.err 
   1.0000E-02   1.0243E-02   1.5207E-04  0.2309
   1.0243E-02   1.0493E-02   2.1386E-04  0.1923
   1.0493E-02   1.0748E-02   1.2535E-04  0.2500
   1.0748E-02   1.1009E-02   1.0707E-04  0.2673
   1.1009E-02   1.1277E-02   9.7064E-05  0.2774
   1.1277E-02   1.1552E-02   1.3120E-04  0.2357
   1.1552E-02   1.1833E-02   1.3664E-04  0.2272
   1.1833E-02   1.2121E-02   1.3894E-04  0.2236
   1.2121E-02   1.2415E-02   1.0851E-04  0.2500
   1.2415E-02   1.2718E-02   1.5990E-04  0.2029
   1.2718E-02   1.3027E-02   1.1634E-04  0.2357
   1.3027E-02   1.3344E-02   1.1459E-04  0.2338
   1.3344E-02   1.3669E-02   7.3922E-05  0.2887
   1.3669E-02   1.4001E-02   1.4433E-04  0.2041
   1.4001E-02   1.4342E-02   1.3503E-04  0.2085
   1.4342E-02   1.4691E-02   1.0317E-04  0.2357
   1.4691E-02   1.5048E-02   9.5122E-05  0.2425
   1.5048E-02   1.5414E-02   7.6475E-05  0.2673
   1.5414E-02   1.5789E-02   1.1199E-04  0.2182
   1.5789E-02   1.6174E-02   1.0002E-04  0.2272
   1.6174E-02   1.6567E-02   9.2129E-05  0.2342
   1.6567E-02   1.6970E-02   1.1908E-04  0.2041
   1.6970E-02   1.7383E-02   8.7189E-05  0.2357
   1.7383E-02   1.7806E-02   7.5660E-05  0.2500
   1.7806E-02   1.8239E-02   7.0033E-05  0.2555
   1.8239E-02   1.8683E-02   1.2619E-04  0.1890
   1.8683E-02   1.9138E-02   8.3595E-05  0.2294
   1.9138E-02   1.9603E-02   9.4495E-05  0.2132
   1.9603E-02   2.0080E-02   6.2898E-05  0.2582
   2.0080E-02   2.0569E-02   1.1871E-04  0.1857
   2.0569E-02   2.1069E-02   9.9910E-05  0.2000
   2.1069E-02   2.1582E-02   7.0226E-05  0.2357
   2.1582E-02   2.2107E-02   8.8172E-05  0.2073
   2.2107E-02   2.2645E-02   5.9493E-05  0.2500
   2.2645E-02   2.3196E-02   6.5973E-05  0.2336
   2.3196E-02   2.3760E-02   7.7963E-05  0.2132
   2.3760E-02   2.4338E-02   5.5354E-05  0.2500
   2.4338E-02   2.4930E-02   4.1105E-05  0.2850
   2.4930E-02   2.5537E-02   4.3914E-05  0.2712
   2.5537E-02   2.6158E-02   8.4220E-05  0.1950
   2.6158E-02   2.6795E-02   6.6510E-05  0.2167
   2.6795E-02   2.7447E-02   5.8288E-05  0.2294
   2.7447E-02   2.8114E-02   7.4873E-05  0.2000
   2.8114E-02   2.8799E-02   5.0723E-05  0.2381
   2.8799E-02   2.9499E-02   6.0830E-05  0.2153
   2.9499E-02   3.0217E-02   7.1056E-05  0.1971
   3.0217E-02   3.0952E-02   7.9249E-05  0.1849
   3.0952E-02   3.1705E-02   4.7803E-05  0.2357
   3.1705E-02   3.2477E-02   4.4075E-05  0.2425
   3.2477E-02   3.3267E-02   7.2574E-05  0.1855
   3.3267E-02   3.4076E-02   3.4593E-05  0.2673
   3.4076E-02   3.4905E-02   6.1047E-05  0.1978
   3.4905E-02   3.5755E-02   4.0435E-05  0.2403
   3.5755E-02   3.6625E-02   3.0345E-05  0.2736
   3.6625E-02   3.7516E-02   4.5250E-05  0.2220
   3.7516E-02   3.8428E-02   3.0675E-05  0.2673
   3.8428E-02   3.9363E-02   4.2781E-05  0.2236
   3.9363E-02   4.0321E-02   5.0492E-05  0.2027
   4.0321E-02   4.1302E-02   4.1792E-05  0.2195
   4.1302E-02   4.2307E-02   4.3785E-05  0.2132
   4.2307E-02   4.3337E-02   5.0517E-05  0.1961
   4.3337E-02   4.4391E-02   5.3110E-05  0.1890
   4.4391E-02   4.5471E-02   4.8400E-05  0.1952
   4.5471E-02   4.6577E-02   3.2540E-05  0.2357
   4.6577E-02   4.7711E-02   2.1461E-05  0.2852
   4.7711E-02   4.8871E-02   3.7904E-05  0.2132
   4.8871E-02   5.0061E-02   4.7095E-05  0.1890
   5.0061E-02   5.1279E-02   3.9408E-05  0.2041
   5.1279E-02   5.2526E-02   3.0457E-05  0.2294
   5.2526E-02   5.3804E-02   4.8513E-05  0.1796
   5.3804E-02   5.5113E-02   2.7726E-05  0.2339
   5.5113E-02   5.6454E-02   3.5050E-05  0.2052
   5.6454E-02   5.7828E-02   3.4945E-05  0.2041
   5.7828E-02   5.9235E-02   3.1491E-05  0.2118
   5.9235E-02   6.0676E-02   3.0926E-05  0.2107
   6.0676E-02   6.2152E-02   2.4385E-05  0.2357
   6.2152E-02   6.3665E-02   3.0419E-05  0.2085
   6.3665E-02   6.5214E-02   1.6958E-05  0.2747
   6.5214E-02   6.6800E-02   3.0252E-05  0.2041
   6.6800E-02   6.8426E-02   2.3380E-05  0.2294
   6.8426E-02   7.0090E-02   3.4838E-05  0.1857
   7.0090E-02   7.1796E-02   2.1110E-05  0.2357
   7.1796E-02   7.3543E-02   2.7648E-05  0.2030
   7.3543E-02   7.5332E-02   2.1796E-05  0.2250
   7.5332E-02   7.7165E-02   3.0553E-05  0.1890
   7.7165E-02   7.9042E-02   2.0240E-05  0.2294
   7.9042E-02   8.0965E-02   2.5999E-05  0.2000
   8.0965E-02   8.2935E-02   2.6904E-05  0.1933
   8.2935E-02   8.4953E-02   2.3787E-05  0.2041
   8.4953E-02   8.7020E-02   2.9028E-05  0.1826
   8.7020E-02   8.9138E-02   2.2671E-05  0.2041
   8.9138E-02   9.1306E-02   1.5216E-05  0.2443
   9.1306E-02   9.3528E-02   1.9030E-05  0.2169
   9.3528E-02   9.5804E-02   3.2688E-05  0.1636
   9.5804E-02   9.8134E-02   2.3166E-05  0.1925
   9.8134E-02   1.0052E-01   2.0630E-05  0.2000
   1.0052E-01   1.0297E-01   1.7990E-05  0.2132
   1.0297E-01   1.0547E-01   1.9958E-05  0.2000
   1.0547E-01   1.0804E-01   1.9590E-05  0.1990
   1.0804E-01   1.1067E-01   1.2173E-05  0.2500
   1.1067E-01   1.1336E-01   2.1540E-05  0.1857
   1.1336E-01   1.1612E-01   2.4059E-05  0.1732
   1.1612E-01   1.1894E-01   1.7097E-05  0.2029
   1.1894E-01   1.2184E-01   1.6586E-05  0.2041
   1.2184E-01   1.2480E-01   1.6192E-05  0.2041
   1.2480E-01   1.2784E-01   1.3720E-05  0.2163
   1.2784E-01   1.3095E-01   1.4246E-05  0.2118
   1.3095E-01   1.3414E-01   1.3496E-05  0.2136
   1.3414E-01   1.3740E-01   1.5320E-05  0.2000
   1.3740E-01   1.4074E-01   1.2264E-05  0.2195
   1.4074E-01   1.4417E-01   1.4017E-05  0.2041
   1.4417E-01   1.4767E-01   1.1208E-05  0.2233
   1.4767E-01   1.5127E-01   1.0107E-05  0.2338
   1.5127E-01   1.5495E-01   1.6302E-05  0.1826
   1.5495E-01   1.5872E-01   9.5491E-06  0.2357
   1.5872E-01   1.6258E-01   6.7327E-06  0.2774
   1.6258E-01   1.6654E-01   1.0618E-05  0.2182
   1.6654E-01   1.7059E-01   1.2907E-05  0.1951
   1.7059E-01   1.7474E-01   1.2126E-05  0.1988
   1.7474E-01   1.7899E-01   9.6436E-06  0.2195
   1.7899E-01   1.8334E-01   9.2628E-06  0.2219
   1.8334E-01   1.8781E-01   1.1208E-05  0.2000
   1.8781E-01   1.9237E-01   1.0505E-05  0.2041
   1.9237E-01   1.9706E-01   6.4094E-06  0.2582
   1.9706E-01   2.0185E-01   4.5886E-06  0.3015
   2.0185E-01   2.0676E-01   1.2217E-05  0.1826
   2.0676E-01   2.1179E-01   6.3610E-06  0.2500
   2.1179E-01   2.1694E-01   1.2032E-05  0.1796
   2.1694E-01   2.2222E-01   1.2236E-05  0.1753
   2.2222E-01   2.2763E-01   7.0281E-06  0.2294
   2.2763E-01   2.3317E-01   1.2337E-05  0.1707
   2.3317E-01   2.3884E-01   1.1634E-05  0.1741
   2.3884E-01   2.4465E-01   1.3078E-05  0.1622
   2.4465E-01   2.5061E-01   1.3104E-05  0.1601
   2.5061E-01   2.5670E-01   1.1152E-05  0.1715
   2.5670E-01   2.6295E-01   1.0682E-05  0.1724
   2.6295E-01   2.6935E-01   1.6881E-05  0.1361
   2.6935E-01   2.7590E-01   1.5309E-05  0.1410
   2.7590E-01   2.8261E-01   1.1272E-05  0.1614
   2.8261E-01   2.8949E-01   1.0805E-05  0.1638
   2.8949E-01   2.9653E-01   1.5411E-05  0.1354
   2.9653E-01   3.0375E-01   1.1050E-05  0.1573
   3.0375E-01   3.1114E-01   1.4388E-05  0.1370
   3.1114E-01   3.1871E-01   1.4567E-05  0.1345
   3.1871E-01   3.2646E-01   1.4872E-05  0.1312
   3.2646E-01   3.3441E-01   1.2590E-05  0.1407
   3.3441E-01   3.4254E-01   1.2659E-05  0.1390
   3.4254E-01   3.5088E-01   1.2829E-05  0.1354
   3.5088E-01   3.5941E-01   1.2452E-05  0.1370
   3.5941E-01   3.6816E-01   1.2877E-05  0.1330
   3.6816E-01   3.7712E-01   1.5738E-05  0.1188
   3.7712E-01   3.8629E-01   1.1588E-05  0.1370
   3.8629E-01   3.9569E-01   1.4360E-05  0.1214
   3.9569E-01   4.0532E-01   1.5401E-05  0.1155
   4.0532E-01   4.1518E-01   1.4567E-05  0.1176
   4.1518E-01   4.2528E-01   1.4715E-05  0.1158
   4.2528E-01   4.3563E-01   1.6464E-05  0.1083
   4.3563E-01   4.4623E-01   1.8176E-05  0.1017
   4.4623E-01   4.5708E-01   1.5319E-05  0.1096
   4.5708E-01   4.6821E-01   1.3461E-05  0.1152
   4.6821E-01   4.7960E-01   1.6651E-05  0.1024
   4.7960E-01   4.9127E-01   1.3433E-05  0.1127
   4.9127E-01   5.0322E-01   1.3911E-05  0.1093
   5.0322E-01   5.1546E-01   1.2285E-05  0.1152
   5.1546E-01   5.2800E-01   1.4011E-05  0.1063
   5.2800E-01   5.4085E-01   1.3907E-05  0.1056
   5.4085E-01   5.5401E-01   1.3729E-05  0.1047
   5.5401E-01   5.6749E-01   1.5357E-05  0.0981
   5.6749E-01   5.8130E-01   1.1509E-05  0.1116
   5.8130E-01   5.9544E-01   1.4840E-05  0.0973
   5.9544E-01   6.0993E-01   1.3707E-05  0.0997
   6.0993E-01   6.2477E-01   1.0688E-05  0.1118
   6.2477E-01   6.3997E-01   1.3400E-05  0.0988
   6.3997E-01   6.5554E-01   1.2293E-05  0.1020
   6.5554E-01   6.7149E-01   1.1101E-05  0.1056
   6.7149E-01   6.8783E-01   9.7332E-06  0.1115
   6.8783E-01   7.0456E-01   1.1649E-05  0.1002
   7.0456E-01   7.2171E-01   1.2655E-05  0.0958
   7.2171E-01   7.3927E-01   1.1310E-05  0.1002
   7.3927E-01   7.5725E-01   1.1704E-05  0.0971
   7.5725E-01   7.7568E-01   1.0784E-05  0.0998
   7.7568E-01   7.9455E-01   1.1259E-05  0.0964
   7.9455E-01   8.1388E-01   9.6680E-06  0.1029
   8.1388E-01   8.3368E-01   9.7887E-06  0.1013
   8.3368E-01   8.5397E-01   1.0745E-05  0.0955
   8.5397E-01   8.7475E-01   1.0094E-05  0.0972
   8.7475E-01   8.9603E-01   8.7260E-06  0.1035
   8.9603E-01   9.1783E-01   9.0514E-06  0.1001
   9.1783E-01   9.4016E-01   9.4810E-06  0.0964
   9.4016E-01   9.6304E-01   8.8744E-06  0.0989
   9.6304E-01   9.8647E-01   7.8269E-06  0.1037
   9.8647E-01   1.0105E+00   9.2148E-06  0.0944
   1.0105E+00   1.0351E+00   9.0715E-06  0.0940
   1.0351E+00   1.0602E+00   8.4273E-06  0.0959
   1.0602E+00   1.0860E+00   5.7967E-06  0.1146
   1.0860E+00   1.1125E+00   7.8098E-06  0.0981
   1.1125E+00   1.1395E+00   8.3968E-06  0.0930
   1.1395E+00   1.1673E+00   8.4130E-06  0.0921
   1.1673E+00   1.1957E+00   8.8030E-06  0.0887
   1.1957E+00   1.2247E+00   6.9128E-06  0.0992
   1.2247E+00   1.2545E+00   7.3878E-06  0.0944
   1.2545E+00   1.2851E+00   6.6105E-06  0.0989
   1.2851E+00   1.3163E+00   5.8850E-06  0.1035
   1.3163E+00   1.3484E+00   6.2887E-06  0.0987
   1.3484E+00   1.3812E+00   7.0181E-06  0.0928
   1.3812E+00   1.4148E+00   5.3570E-06  0.1044
   1.4148E+00   1.4492E+00   7.2877E-06  0.0886
   1.4492E+00   1.4845E+00   5.2318E-06  0.1030
   1.4845E+00   1.5206E+00   5.7088E-06  0.0978
   1.5206E+00   1.5576E+00   5.8047E-06  0.0960
   1.5576E+00   1.5955E+00   5.3067E-06  0.0987
   1.5955E+00   1.6343E+00   5.6772E-06  0.0942
   1.6343E+00   1.6741E+00   5.7176E-06  0.0930
   1.6741E+00   1.7148E+00   4.2540E-06  0.1059
   1.7148E+00   1.7565E+00   5.4305E-06  0.0931
   1.7565E+00   1.7992E+00   4.1715E-06  0.1050
   1.7992E+00   1.8430E+00   4.7566E-06  0.0971
   1.8430E+00   1.8879E+00   4.6100E-06  0.0971
   1.8879E+00   1.9338E+00   4.5020E-06  0.0973
   1.9338E+00   1.9808E+00   3.9711E-06  0.1021
   1.9808E+00   2.0290E+00   4.0796E-06  0.0994
   2.0290E+00   2.0784E+00   4.7009E-06  0.0917
   2.0784E+00   2.1290E+00   4.7263E-06  0.0908
   2.1290E+00   2.1808E+00   4.1806E-06  0.0953
   2.1808E+00   2.2338E+00   4.3035E-06  0.0924
   2.2338E+00   2.2882E+00   3.3799E-06  0.1035
   2.2882E+00   2.3439E+00   4.2213E-06  0.0912
   2.3439E+00   2.4009E+00   4.6818E-06  0.0857
   2.4009E+00   2.4593E+00   3.8810E-06  0.0927
   2.4593E+00   2.5191E+00   3.2989E-06  0.0996
   2.5191E+00   2.5804E+00   4.5194E-06  0.0842
   2.5804E+00   2.6432E+00   4.0290E-06  0.0882
   2.6432E+00   2.7075E+00   3.3961E-06  0.0938
   2.7075E+00   2.7734E+00   3.3028E-06  0.0949
   2.7734E+00   2.8409E+00   3.0676E-06  0.0970
   2.8409E+00   2.9100E+00   3.0696E-06  0.0959
   2.9100E+00   2.9808E+00   3.8041E-06  0.0851
   2.9808E+00   3.0533E+00   3.3981E-06  0.0892
   3.0533E+00   3.1276E+00   3.4077E-06  0.0878
   3.1276E+00   3.2037E+00   3.6107E-06  0.0844
   3.2037E+00   3.2817E+00   3.3730E-06  0.0860
   3.2817E+00   3.3615E+00   3.5888E-06  0.0829
   3.3615E+00   3.4433E+00   3.5055E-06  0.0829
   3.4433E+00   3.5271E+00   3.1685E-06  0.0861
   3.5271E+00   3.6129E+00   3.4761E-06  0.0814
   3.6129E+00   3.7008E+00   2.7687E-06  0.0894
   3.7008E+00   3.7908E+00   2.6329E-06  0.0907
   3.7908E+00   3.8831E+00   3.0521E-06  0.0834
   3.8831E+00   3.9776E+00   2.8241E-06  0.0859
   3.9776E+00   4.0743E+00   3.2154E-06  0.0797
   4.0743E+00   4.1735E+00   2.8280E-06  0.0840
   4.1735E+00   4.2750E+00   2.6854E-06  0.0846
   4.2750E+00   4.3790E+00   2.6728E-06  0.0843
   4.3790E+00   4.4856E+00   2.6437E-06  0.0838
   4.4856E+00   4.5947E+00   2.8436E-06  0.0797
   4.5947E+00   4.7065E+00   2.6190E-06  0.0821
   4.7065E+00   4.8210E+00   2.6565E-06  0.0804
   4.8210E+00   4.9383E+00   2.2090E-06  0.0872
   4.9383E+00   5.0585E+00   2.3755E-06  0.0833
   5.0585E+00   5.1815E+00   2.3746E-06  0.0825
   5.1815E+00   5.3076E+00   2.2502E-06  0.0835
   5.3076E+00   5.4368E+00   2.0634E-06  0.0863
   5.4368E+00   5.5690E+00   2.2181E-06  0.0822
   5.5690E+00   5.7045E+00   2.1400E-06  0.0828
   5.7045E+00   5.8433E+00   1.8299E-06  0.0885
   5.8433E+00   5.9855E+00   2.2372E-06  0.0791
   5.9855E+00   6.1311E+00   2.0445E-06  0.0813
   6.1311E+00   6.2803E+00   1.7762E-06  0.0865
   6.2803E+00   6.4331E+00   1.7387E-06  0.0865
   6.4331E+00   6.5896E+00   1.4740E-06  0.0930
   6.5896E+00   6.7500E+00   1.7486E-06  0.0842
   6.7500E+00   6.9142E+00   1.6359E-06  0.0862
   6.9142E+00   7.0824E+00   1.7243E-06  0.0828
   7.0824E+00   7.2548E+00   1.3938E-06  0.0910
   7.2548E+00   7.4313E+00   1.5791E-06  0.0846
   7.4313E+00   7.6121E+00   1.4639E-06  0.0866
   7.6121E+00   7.7973E+00   1.3947E-06  0.0877
   7.7973E+00   7.9870E+00   1.4221E-06  0.0859
   7.9870E+00   8.1813E+00   1.3556E-06  0.0869
   8.1813E+00   8.3804E+00   1.3398E-06  0.0865
   8.3804E+00   8.5843E+00   1.2130E-06  0.0897
   8.5843E+00   8.7931E+00   1.1465E-06  0.0912
   8.7931E+00   9.0071E+00   9.6916E-07  0.0979
   9.0071E+00   9.2262E+00   1.2443E-06  0.0856
   9.2262E+00   9.4507E+00   1.0046E-06  0.0939
   9.4507E+00   9.6807E+00   8.8863E-07  0.0989
   9.6807E+00   9.9162E+00   8.3133E-07  0.1007
   9.9162E+00   1.0157E+01   9.2151E-07  0.0948
   1.0157E+01   1.0405E+01   9.7224E-07  0.0912
   1.0405E+01   1.0658E+01   1.1313E-06  0.0835
   1.0658E+01   1.0917E+01   8.2799E-07  0.0964
   1.0917E+01   1.1183E+01   9.8169E-07  0.0875
   1.1183E+01   1.1455E+01   8.3063E-07  0.0941
   1.1455E+01   1.1733E+01   8.2525E-07  0.0933
   1.1733E+01   1.2019E+01   9.5276E-07  0.0857
   1.2019E+01   1.2311E+01   7.7423E-07  0.0939
   1.2311E+01   1.2611E+01   5.9011E-07  0.1062
   1.2611E+01   1.2918E+01   5.9428E-07  0.1046
   1.2918E+01   1.3232E+01   6.4178E-07  0.0993
   1.3232E+01   1.3554E+01   6.5951E-07  0.0970
   1.3554E+01   1.3884E+01   5.9533E-07  0.1009
   1.3884E+01   1.4222E+01   6.3350E-07  0.0967
   1.4222E+01   1.4568E+01   5.5021E-07  0.1024
   1.4568E+01   1.4922E+01   4.9175E-07  0.1070
   1.4922E+01   1.5285E+01   4.5803E-07  0.1096
   1.5285E+01   1.5657E+01   4.0333E-07  0.1155
   1.5657E+01   1.6038E+01   3.8416E-07  0.1168
   1.6038E+01   1.6428E+01   2.8290E-07  0.1344
   1.6428E+01   1.6828E+01   3.0022E-07  0.1291
   1.6828E+01   1.7237E+01   2.8924E-07  0.1298
   1.7237E+01   1.7657E+01   2.6228E-07  0.1348
   1.7657E+01   1.8086E+01   2.7002E-07  0.1313
   1.8086E+01   1.8526E+01   1.7725E-07  0.1601
   1.8526E+01   1.8977E+01   2.0854E-07  0.1459
   1.8977E+01   1.9439E+01   1.3861E-07  0.1768
   1.9439E+01   1.9912E+01   1.3109E-07  0.1796
   1.9912E+01   2.0396E+01   1.2797E-07  0.1796
   2.0396E+01   2.0893E+01   1.1284E-07  0.1890
   2.0893E+01   2.1401E+01   7.0820E-08  0.2357
   2.1401E+01   2.1922E+01   8.4501E-08  0.2132
   2.1922E+01   2.2455E+01   6.3746E-08  0.2425
   2.2455E+01   2.3001E+01   5.8571E-08  0.2500
   2.3001E+01   2.3561E+01   4.6458E-08  0.2774
   2.3561E+01   2.4134E+01   5.5821E-08  0.2500
   2.4134E+01   2.4721E+01   2.7248E-08  0.3536
   2.4721E+01   2.5323E+01   9.9752E-09  0.5774
   2.5323E+01   2.5939E+01   2.5969E-08  0.3536
   2.5939E+01   2.6570E+01   1.5845E-08  0.4472
   2.6570E+01   2.7217E+01   1.5469E-08  0.4472
   2.7217E+01   2.7879E+01   6.0404E-09  0.7071
   2.7879E+01   2.8557E+01   2.9485E-09  1.0000
   2.8557E+01   2.9252E+01   5.7569E-09  0.7071
   2.9252E+01   2.9964E+01   1.1240E-08  0.5000
   2.9964E+01   3.0693E+01   5.4867E-09  0.7071
   3.0693E+01   3.1440E+01   5.3563E-09  0.7071
   3.1440E+01   3.2205E+01   0.0000E+00  0.0000
   3.2205E+01   3.2988E+01   0.0000E+00  0.0000
   3.2988E+01   3.3791E+01   4.9836E-09  0.7071
   3.3791E+01   3.4613E+01   4.8653E-09  0.7071
   3.4613E+01   3.5455E+01   0.0000E+00  0.0000
   3.5455E+01   3.6318E+01   0.0000E+00  0.0000
   3.6318E+01   3.7201E+01   2.2634E-09  1.0000
   3.7201E+01   3.8106E+01   0.0000E+00  0.0000
   3.8106E+01   3.9034E+01   0.0000E+00  0.0000
   3.9034E+01   3.9983E+01   0.0000E+00  0.0000
   3.9983E+01   4.0956E+01   4.1117E-09  0.7071
   4.0956E+01   4.1953E+01   0.0000E+00  0.0000
   4.1953E+01   4.2973E+01   0.0000E+00  0.0000
   4.2973E+01   4.4019E+01   0.0000E+00  0.0000
   4.4019E+01   4.5090E+01   1.8674E-09  1.0000
   4.5090E+01   4.6187E+01   0.0000E+00  0.0000
   4.6187E+01   4.7311E+01   0.0000E+00  0.0000
   4.7311E+01   4.8462E+01   0.0000E+00  0.0000
   4.8462E+01   4.9641E+01   0.0000E+00  0.0000
   4.9641E+01   5.0849E+01   0.0000E+00  0.0000
   5.0849E+01   5.2086E+01   0.0000E+00  0.0000
   5.2086E+01   5.3353E+01   0.0000E+00  0.0000
   5.3353E+01   5.4651E+01   0.0000E+00  0.0000
   5.4651E+01   5.5981E+01   0.0000E+00  0.0000
   5.5981E+01   5.7343E+01   0.0000E+00  0.0000
   5.7343E+01   5.8738E+01   0.0000E+00  0.0000
   5.8738E+01   6.0168E+01   0.0000E+00  0.0000
   6.0168E+01   6.1632E+01   0.0000E+00  0.0000
   6.1632E+01   6.3131E+01   0.0000E+00  0.0000
   6.3131E+01   6.4667E+01   0.0000E+00  0.0000
   6.4667E+01   6.6240E+01   0.0000E+00  0.0000
   6.6240E+01   6.7852E+01   0.0000E+00  0.0000
   6.7852E+01   6.9503E+01   0.0000E+00  0.0000
   6.9503E+01   7.1194E+01   0.0000E+00  0.0000
   7.1194E+01   7.2926E+01   0.0000E+00  0.0000
   7.2926E+01   7.4701E+01   0.0000E+00  0.0000
   7.4701E+01   7.6518E+01   0.0000E+00  0.0000
   7.6518E+01   7.8380E+01   0.0000E+00  0.0000
   7.8380E+01   8.0287E+01   0.0000E+00  0.0000
   8.0287E+01   8.2240E+01   0.0000E+00  0.0000
   8.2240E+01   8.4241E+01   0.0000E+00  0.0000
   8.4241E+01   8.6291E+01   0.0000E+00  0.0000
   8.6291E+01   8.8391E+01   0.0000E+00  0.0000
   8.8391E+01   9.0541E+01   0.0000E+00  0.0000
   9.0541E+01   9.2744E+01   0.0000E+00  0.0000
   9.2744E+01   9.5001E+01   0.0000E+00  0.0000
   9.5001E+01   9.7312E+01   0.0000E+00  0.0000
   9.7312E+01   9.9680E+01   0.0000E+00  0.0000
   9.9680E+01   1.0211E+02   0.0000E+00  0.0000
   1.0211E+02   1.0459E+02   0.0000E+00  0.0000
   1.0459E+02   1.0713E+02   0.0000E+00  0.0000
   1.0713E+02   1.0974E+02   0.0000E+00  0.0000
   1.0974E+02   1.1241E+02   0.0000E+00  0.0000
   1.1241E+02   1.1515E+02   0.0000E+00  0.0000
   1.1515E+02   1.1795E+02   0.0000E+00  0.0000
   1.1795E+02   1.2082E+02   0.0000E+00  0.0000
   1.2082E+02   1.2376E+02   0.0000E+00  0.0000
   1.2376E+02   1.2677E+02   0.0000E+00  0.0000
   1.2677E+02   1.2985E+02   0.0000E+00  0.0000
   1.2985E+02   1.3301E+02   0.0000E+00  0.0000
   1.3301E+02   1.3625E+02   0.0000E+00  0.0000
   1.3625E+02   1.3956E+02   0.0000E+00  0.0000
   1.3956E+02   1.4296E+02   0.0000E+00  0.0000
   1.4296E+02   1.4644E+02   0.0000E+00  0.0000
   1.4644E+02   1.5000E+02   0.0000E+00  0.0000

#   sum over                 2.9060E-07
'no. =    1   reg = 126 - 226'
msuc: {\huge [t-cross] in region mesh}
msdr: {\it plotted by \ANGEL \version}
msdl: {\it calculated by \PHITS  3.26}
wt: s(0.7)
\vspace{-3}
  region surface crossing
  area  &=&   1.0000E+00 [cm^2]
e:
 
# Information for Restart Calculation
# This calculation was newly started
# istdev =  2 # 1:Batch variance, 2:History variance
# resc2  = 5.00000000000000000E+08 # Total source weight or Total source weight / maxcas
# resc3  = 5.00000000000000000E+08 # Total history number or Total batch number
# maxcas =   500000000 # History / Batch, only used for istdev=1
# bitrseed = 1011101111111101000111101101010011111001010110111001011111010111 # bit data of rseed
