[ T-Cross ]
    title = [t-cross] in region mesh
     mesh =  reg            # mesh type is region-wise
      reg =    1            # number of crossing regions
      non     r-from    r-to       area
      1       100       200        1.000000    
   e-type =    3            # e-mesh is log given by emin, emax and ne
     emin =  1.0000000E-02  # minimum value of e-mesh points
     emax =   150.0000      # maximum value of e-mesh points
#    edel =  2.4039514E-02  # mesh width of e-mesh points
       ne =    400          # number of e-mesh points
#    data = ( e(i), i = 1, ne + 1 )
#           1.00000E-02  1.02433E-02  1.04925E-02  1.07478E-02  1.10093E-02
#           1.12772E-02  1.15516E-02  1.18326E-02  1.21205E-02  1.24154E-02
#           1.27175E-02  1.30269E-02  1.33439E-02  1.36686E-02  1.40011E-02
#           1.43418E-02  1.46907E-02  1.50482E-02  1.54143E-02  1.57894E-02
#           1.61735E-02  1.65670E-02  1.69701E-02  1.73830E-02  1.78060E-02
#           1.82392E-02  1.86830E-02  1.91375E-02  1.96032E-02  2.00801E-02
#           2.05687E-02  2.10692E-02  2.15818E-02  2.21069E-02  2.26448E-02
#           2.31957E-02  2.37601E-02  2.43382E-02  2.49304E-02  2.55369E-02
#           2.61583E-02  2.67947E-02  2.74467E-02  2.81145E-02  2.87985E-02
#           2.94992E-02  3.02169E-02  3.09521E-02  3.17052E-02  3.24766E-02
#           3.32668E-02  3.40762E-02  3.49053E-02  3.57546E-02  3.66246E-02
#           3.75157E-02  3.84284E-02  3.93634E-02  4.03212E-02  4.13022E-02
#           4.23071E-02  4.33365E-02  4.43909E-02  4.54710E-02  4.65773E-02
#           4.77106E-02  4.88714E-02  5.00605E-02  5.12785E-02  5.25262E-02
#           5.38042E-02  5.51133E-02  5.64542E-02  5.78278E-02  5.92348E-02
#           6.06760E-02  6.21523E-02  6.36645E-02  6.52135E-02  6.68002E-02
#           6.84255E-02  7.00904E-02  7.17957E-02  7.35426E-02  7.53319E-02
#           7.71648E-02  7.90423E-02  8.09655E-02  8.29354E-02  8.49533E-02
#           8.70203E-02  8.91376E-02  9.13064E-02  9.35279E-02  9.58035E-02
#           9.81345E-02  1.00522E-01  1.02968E-01  1.05473E-01  1.08040E-01
#           1.10668E-01  1.13361E-01  1.16119E-01  1.18944E-01  1.21838E-01
#           1.24803E-01  1.27839E-01  1.30950E-01  1.34136E-01  1.37399E-01
#           1.40742E-01  1.44167E-01  1.47675E-01  1.51268E-01  1.54948E-01
#           1.58718E-01  1.62580E-01  1.66535E-01  1.70587E-01  1.74738E-01
#           1.78989E-01  1.83344E-01  1.87805E-01  1.92375E-01  1.97055E-01
#           2.01850E-01  2.06761E-01  2.11792E-01  2.16945E-01  2.22223E-01
#           2.27630E-01  2.33169E-01  2.38842E-01  2.44653E-01  2.50605E-01
#           2.56703E-01  2.62949E-01  2.69346E-01  2.75900E-01  2.82613E-01
#           2.89489E-01  2.96532E-01  3.03747E-01  3.11138E-01  3.18708E-01
#           3.26462E-01  3.34405E-01  3.42542E-01  3.50876E-01  3.59413E-01
#           3.68158E-01  3.77116E-01  3.86291E-01  3.95690E-01  4.05317E-01
#           4.15179E-01  4.25281E-01  4.35628E-01  4.46227E-01  4.57084E-01
#           4.68205E-01  4.79597E-01  4.91266E-01  5.03219E-01  5.15463E-01
#           5.28005E-01  5.40851E-01  5.54011E-01  5.67490E-01  5.81298E-01
#           5.95441E-01  6.09929E-01  6.24769E-01  6.39970E-01  6.55541E-01
#           6.71491E-01  6.87828E-01  7.04564E-01  7.21706E-01  7.39266E-01
#           7.57253E-01  7.75678E-01  7.94551E-01  8.13883E-01  8.33685E-01
#           8.53969E-01  8.74747E-01  8.96030E-01  9.17831E-01  9.40163E-01
#           9.63038E-01  9.86469E-01  1.01047E+00  1.03506E+00  1.06024E+00
#           1.08604E+00  1.11246E+00  1.13953E+00  1.16725E+00  1.19565E+00
#           1.22474E+00  1.25454E+00  1.28507E+00  1.31633E+00  1.34836E+00
#           1.38117E+00  1.41477E+00  1.44920E+00  1.48446E+00  1.52057E+00
#           1.55757E+00  1.59547E+00  1.63429E+00  1.67405E+00  1.71478E+00
#           1.75650E+00  1.79924E+00  1.84302E+00  1.88786E+00  1.93379E+00
#           1.98084E+00  2.02904E+00  2.07841E+00  2.12898E+00  2.18078E+00
#           2.23384E+00  2.28819E+00  2.34386E+00  2.40089E+00  2.45930E+00
#           2.51914E+00  2.58043E+00  2.64322E+00  2.70753E+00  2.77341E+00
#           2.84088E+00  2.91001E+00  2.98081E+00  3.05333E+00  3.12762E+00
#           3.20372E+00  3.28167E+00  3.36152E+00  3.44330E+00  3.52708E+00
#           3.61290E+00  3.70080E+00  3.79085E+00  3.88308E+00  3.97756E+00
#           4.07434E+00  4.17347E+00  4.27501E+00  4.37903E+00  4.48557E+00
#           4.59471E+00  4.70650E+00  4.82102E+00  4.93832E+00  5.05847E+00
#           5.18155E+00  5.30762E+00  5.43676E+00  5.56904E+00  5.70453E+00
#           5.84333E+00  5.98550E+00  6.13114E+00  6.28031E+00  6.43312E+00
#           6.58964E+00  6.74997E+00  6.91420E+00  7.08243E+00  7.25475E+00
#           7.43126E+00  7.61207E+00  7.79728E+00  7.98700E+00  8.18133E+00
#           8.38038E+00  8.58428E+00  8.79315E+00  9.00709E+00  9.22624E+00
#           9.45072E+00  9.68067E+00  9.91620E+00  1.01575E+01  1.04046E+01
#           1.06578E+01  1.09171E+01  1.11827E+01  1.14548E+01  1.17335E+01
#           1.20190E+01  1.23114E+01  1.26109E+01  1.29178E+01  1.32321E+01
#           1.35540E+01  1.38838E+01  1.42216E+01  1.45676E+01  1.49221E+01
#           1.52851E+01  1.56570E+01  1.60380E+01  1.64282E+01  1.68279E+01
#           1.72374E+01  1.76568E+01  1.80864E+01  1.85264E+01  1.89772E+01
#           1.94389E+01  1.99119E+01  2.03963E+01  2.08926E+01  2.14009E+01
#           2.19216E+01  2.24550E+01  2.30014E+01  2.35610E+01  2.41343E+01
#           2.47215E+01  2.53230E+01  2.59391E+01  2.65702E+01  2.72167E+01
#           2.78789E+01  2.85572E+01  2.92520E+01  2.99637E+01  3.06928E+01
#           3.14396E+01  3.22045E+01  3.29881E+01  3.37907E+01  3.46128E+01
#           3.54550E+01  3.63177E+01  3.72013E+01  3.81064E+01  3.90336E+01
#           3.99833E+01  4.09561E+01  4.19526E+01  4.29734E+01  4.40189E+01
#           4.50900E+01  4.61870E+01  4.73108E+01  4.84619E+01  4.96410E+01
#           5.08488E+01  5.20860E+01  5.33533E+01  5.46514E+01  5.59812E+01
#           5.73432E+01  5.87384E+01  6.01676E+01  6.16315E+01  6.31311E+01
#           6.46671E+01  6.62405E+01  6.78522E+01  6.95031E+01  7.11941E+01
#           7.29263E+01  7.47007E+01  7.65182E+01  7.83800E+01  8.02870E+01
#           8.22405E+01  8.42414E+01  8.62911E+01  8.83906E+01  9.05412E+01
#           9.27442E+01  9.50007E+01  9.73122E+01  9.96799E+01  1.02105E+02
#           1.04589E+02  1.07134E+02  1.09741E+02  1.12411E+02  1.15146E+02
#           1.17948E+02  1.20817E+02  1.23757E+02  1.26768E+02  1.29852E+02
#           1.33012E+02  1.36248E+02  1.39563E+02  1.42959E+02  1.46437E+02
#           1.50000E+02
     unit =    2            # unit is [1/cm^2/(MeV/n)/source]
     axis =  eng            # axis of output
     file = detector-01.out  # file name of output for the above axis
   output = f-curr          # surface crossing forward current spectrum
     part =  neutron  
# kf/name :  2112     
#    used :        main (  %)        temp (  %)       total (  %)
#  memory :         414 (  0)           0 (  0)         414 (  0)

#------------------------------------------------------------------------------
#newpage:
#   no. =    1   reg = 100 - 200

x: Energy [MeV/n]
y:  F-Curr [1/cm^2/(MeV/n)/source]         
p: xlog ylog afac(0.8) form(0.9)
h: n            x            y(neutron ),hh0l   n 
#  e-lower      e-upper      neutron     r.err 
   1.0000E-02   1.0243E-02   1.0686E-04  0.2774
   1.0243E-02   1.0493E-02   1.2037E-04  0.2582
   1.0493E-02   1.0748E-02   2.3785E-04  0.1806
   1.0748E-02   1.1009E-02   1.2237E-04  0.2500
   1.1009E-02   1.1277E-02   1.2693E-04  0.2425
   1.1277E-02   1.1552E-02   1.4578E-04  0.2236
   1.1552E-02   1.1833E-02   1.2933E-04  0.2336
   1.1833E-02   1.2121E-02   1.1115E-04  0.2500
   1.2121E-02   1.2415E-02   9.4947E-05  0.2673
   1.2415E-02   1.2718E-02   1.6552E-04  0.2000
   1.2718E-02   1.3027E-02   1.6805E-04  0.1961
   1.3027E-02   1.3344E-02   1.2620E-04  0.2236
   1.3344E-02   1.3669E-02   1.1088E-04  0.2357
   1.3669E-02   1.4001E-02   1.3230E-04  0.2132
   1.4001E-02   1.4342E-02   1.3584E-04  0.2074
   1.4342E-02   1.4691E-02   1.2036E-04  0.2182
   1.4691E-02   1.5048E-02   9.5122E-05  0.2425
   1.5048E-02   1.5414E-02   1.3656E-04  0.2000
   1.5414E-02   1.5789E-02   1.3423E-04  0.1988
   1.5789E-02   1.6174E-02   1.1453E-04  0.2132
   1.6174E-02   1.6567E-02   1.0511E-04  0.2178
   1.6567E-02   1.6970E-02   7.0339E-05  0.2642
   1.6970E-02   1.7383E-02   6.2970E-05  0.2774
   1.7383E-02   1.7806E-02   1.0403E-04  0.2132
   1.7806E-02   1.8239E-02   1.0156E-04  0.2132
   1.8239E-02   1.8683E-02   1.4422E-04  0.1768
   1.8683E-02   1.9138E-02   1.0999E-04  0.2000
   1.9138E-02   1.9603E-02   9.8791E-05  0.2085
   1.9603E-02   2.0080E-02   7.5478E-05  0.2357
   2.0080E-02   2.0569E-02   1.1053E-04  0.1925
   2.0569E-02   2.1069E-02   8.0665E-05  0.2218
   2.1069E-02   2.1582E-02   9.3635E-05  0.2041
   2.1582E-02   2.2107E-02   5.7132E-05  0.2582
   2.2107E-02   2.2645E-02   8.2411E-05  0.2118
   2.2645E-02   2.3196E-02   8.0371E-05  0.2119
   2.3196E-02   2.3760E-02   6.3788E-05  0.2357
   2.3760E-02   2.4338E-02   8.3030E-05  0.2041
   2.4338E-02   2.4930E-02   7.0926E-05  0.2182
   2.4930E-02   2.5537E-02   8.9024E-05  0.1925
   2.5537E-02   2.6158E-02   6.7596E-05  0.2182
   2.6158E-02   2.6795E-02   8.6308E-05  0.1894
   2.6795E-02   2.7447E-02   5.8288E-05  0.2294
   2.7447E-02   2.8114E-02   8.9847E-05  0.1826
   2.8114E-02   2.8799E-02   4.3857E-05  0.2582
   2.8799E-02   2.9499E-02   4.5669E-05  0.2500
   2.9499E-02   3.0217E-02   5.8517E-05  0.2182
   3.0217E-02   3.0952E-02   6.6304E-05  0.2013
   3.0952E-02   3.1705E-02   7.4863E-05  0.1878
   3.1705E-02   3.2477E-02   6.7741E-05  0.1952
   3.2477E-02   3.3267E-02   6.0745E-05  0.2041
   3.3267E-02   3.4076E-02   6.6715E-05  0.1925
   3.4076E-02   3.4905E-02   5.7894E-05  0.2041
   3.4905E-02   3.5755E-02   5.8874E-05  0.2000
   3.5755E-02   3.6625E-02   8.5453E-05  0.1637
   3.6625E-02   3.7516E-02   5.3866E-05  0.2041
   3.7516E-02   3.8428E-02   7.0115E-05  0.1768
   3.8428E-02   3.9363E-02   7.0589E-05  0.1741
   3.9363E-02   4.0321E-02   4.4222E-05  0.2166
   4.0321E-02   4.1302E-02   5.9121E-05  0.1857
   4.1302E-02   4.2307E-02   6.7667E-05  0.1715
   4.2307E-02   4.3337E-02   5.7317E-05  0.1833
   4.3337E-02   4.4391E-02   5.9083E-05  0.1788
   4.4391E-02   4.5471E-02   6.3313E-05  0.1706
   4.5471E-02   4.6577E-02   5.7848E-05  0.1768
   4.6577E-02   4.7711E-02   3.9178E-05  0.2115
   4.7711E-02   4.8871E-02   4.8241E-05  0.1890
   4.8871E-02   5.0061E-02   4.8777E-05  0.1857
   5.0061E-02   5.1279E-02   4.7832E-05  0.1849
   5.1279E-02   5.2526E-02   6.4121E-05  0.1581
   5.2526E-02   5.3804E-02   4.8046E-05  0.1793
   5.3804E-02   5.5113E-02   4.1250E-05  0.1925
   5.5113E-02   5.6454E-02   2.4899E-05  0.2418
   5.6454E-02   5.7828E-02   4.6840E-05  0.1759
   5.7828E-02   5.9235E-02   3.2918E-05  0.2072
   5.9235E-02   6.0676E-02   2.7754E-05  0.2236
   6.0676E-02   6.2152E-02   3.6578E-05  0.1925
   6.2152E-02   6.3665E-02   3.3725E-05  0.1971
   6.3665E-02   6.5214E-02   4.7998E-05  0.1637
   6.5214E-02   6.6800E-02   3.5505E-05  0.1880
   6.6800E-02   6.8426E-02   3.9377E-05  0.1768
   6.8426E-02   7.0090E-02   2.5228E-05  0.2182
   7.0090E-02   7.1796E-02   3.4183E-05  0.1848
   7.1796E-02   7.3543E-02   3.4348E-05  0.1826
   7.3543E-02   7.5332E-02   2.4766E-05  0.2118
   7.5332E-02   7.7165E-02   2.0881E-05  0.2279
   7.7165E-02   7.9042E-02   3.7284E-05  0.1690
   7.9042E-02   8.0965E-02   3.5358E-05  0.1715
   8.0965E-02   8.2935E-02   3.8072E-05  0.1628
   8.2935E-02   8.4953E-02   2.8743E-05  0.1857
   8.4953E-02   8.7020E-02   2.7376E-05  0.1872
   8.7020E-02   8.9138E-02   2.1888E-05  0.2071
   8.9138E-02   9.1306E-02   2.4899E-05  0.1925
   9.1306E-02   9.3528E-02   1.6655E-05  0.2309
   9.3528E-02   9.5804E-02   1.9775E-05  0.2096
   9.5804E-02   9.8134E-02   1.9305E-05  0.2096
   9.8134E-02   1.0052E-01   2.2761E-05  0.1913
   1.0052E-01   1.0297E-01   2.6985E-05  0.1741
   1.0297E-01   1.0547E-01   2.3949E-05  0.1826
   1.0547E-01   1.0804E-01   2.1432E-05  0.1898
   1.0804E-01   1.1067E-01   2.5108E-05  0.1741
   1.1067E-01   1.1336E-01   2.4978E-05  0.1715
   1.1336E-01   1.1612E-01   2.6215E-05  0.1660
   1.1612E-01   1.1894E-01   1.9821E-05  0.1890
   1.1894E-01   1.2184E-01   2.7643E-05  0.1581
   1.2184E-01   1.2480E-01   1.4843E-05  0.2132
   1.2480E-01   1.2784E-01   3.5907E-05  0.1349
   1.2784E-01   1.3095E-01   2.6363E-05  0.1562
   1.3095E-01   1.3414E-01   2.4253E-05  0.1601
   1.3414E-01   1.3740E-01   2.1048E-05  0.1699
   1.3740E-01   1.4074E-01   1.8546E-05  0.1796
   1.4074E-01   1.4417E-01   2.0517E-05  0.1685
   1.4417E-01   1.4767E-01   1.5489E-05  0.1914
   1.4767E-01   1.5127E-01   1.2803E-05  0.2085
   1.5127E-01   1.5495E-01   2.2280E-05  0.1562
   1.5495E-01   1.5872E-01   1.3793E-05  0.1961
   1.5872E-01   1.6258E-01   1.4072E-05  0.1913
   1.6258E-01   1.6654E-01   2.0730E-05  0.1562
   1.6654E-01   1.7059E-01   1.4808E-05  0.1826
   1.7059E-01   1.7474E-01   2.1443E-05  0.1495
   1.7474E-01   1.7899E-01   1.7949E-05  0.1616
   1.7899E-01   1.8334E-01   1.5697E-05  0.1707
   1.8334E-01   1.8781E-01   1.6589E-05  0.1644
   1.8781E-01   1.9237E-01   1.2693E-05  0.1857
   1.9237E-01   1.9706E-01   1.4158E-05  0.1734
   1.9706E-01   2.0185E-01   1.7190E-05  0.1555
   2.0185E-01   2.0676E-01   1.4253E-05  0.1690
   2.0676E-01   2.1179E-01   1.4368E-05  0.1661
   2.1179E-01   2.1694E-01   1.2226E-05  0.1775
   2.1694E-01   2.2222E-01   1.3261E-05  0.1690
   2.2222E-01   2.2763E-01   1.2994E-05  0.1685
   2.2763E-01   2.3317E-01   1.4506E-05  0.1575
   2.3317E-01   2.3884E-01   1.5512E-05  0.1499
   2.3884E-01   2.4465E-01   1.4971E-05  0.1512
   2.4465E-01   2.5061E-01   1.2432E-05  0.1644
   2.5061E-01   2.5670E-01   1.6127E-05  0.1424
   2.5670E-01   2.6295E-01   2.1244E-05  0.1225
   2.6295E-01   2.6935E-01   2.0697E-05  0.1227
   2.6935E-01   2.7590E-01   1.9799E-05  0.1236
   2.7590E-01   2.8261E-01   2.0605E-05  0.1201
   2.8261E-01   2.8949E-01   1.6390E-05  0.1329
   2.8949E-01   2.9653E-01   1.7695E-05  0.1264
   2.9653E-01   3.0375E-01   2.3789E-05  0.1076
   3.0375E-01   3.1114E-01   2.1743E-05  0.1114
   3.1114E-01   3.1871E-01   1.6840E-05  0.1246
   3.1871E-01   3.2646E-01   1.5943E-05  0.1267
   3.2646E-01   3.3441E-01   2.0062E-05  0.1116
   3.3441E-01   3.4254E-01   1.7857E-05  0.1170
   3.4254E-01   3.5088E-01   2.3909E-05  0.1000
   3.5088E-01   3.5941E-01   2.3747E-05  0.0987
   3.5941E-01   3.6816E-01   2.4083E-05  0.0973
   3.6816E-01   3.7712E-01   2.4265E-05  0.0957
   3.7712E-01   3.8629E-01   2.5875E-05  0.0916
   3.8629E-01   3.9569E-01   2.0782E-05  0.1010
   3.9569E-01   4.0532E-01   2.5344E-05  0.0905
   4.0532E-01   4.1518E-01   2.4407E-05  0.0910
   4.1518E-01   4.2528E-01   2.4748E-05  0.0892
   4.2528E-01   4.3563E-01   2.6061E-05  0.0859
   4.3563E-01   4.4623E-01   2.2484E-05  0.0913
   4.4623E-01   4.5708E-01   3.1225E-05  0.0767
   4.5708E-01   4.6821E-01   2.4697E-05  0.0851
   4.6821E-01   4.7960E-01   2.7216E-05  0.0801
   4.7960E-01   4.9127E-01   2.8785E-05  0.0770
   4.9127E-01   5.0322E-01   2.7586E-05  0.0777
   5.0322E-01   5.1546E-01   2.6083E-05  0.0790
   5.1546E-01   5.2800E-01   2.7507E-05  0.0761
   5.2800E-01   5.4085E-01   2.5610E-05  0.0779
   5.4085E-01   5.5401E-01   2.8095E-05  0.0734
   5.5401E-01   5.6749E-01   2.6683E-05  0.0744
   5.6749E-01   5.8130E-01   2.9200E-05  0.0703
   5.8130E-01   5.9544E-01   2.7916E-05  0.0711
   5.9544E-01   6.0993E-01   3.0455E-05  0.0672
   6.0993E-01   6.2477E-01   3.0432E-05  0.0664
   6.2477E-01   6.3997E-01   3.0981E-05  0.0650
   6.3997E-01   6.5554E-01   3.0540E-05  0.0647
   6.5554E-01   6.7149E-01   3.4798E-05  0.0600
   6.7149E-01   6.8783E-01   3.2722E-05  0.0610
   6.8783E-01   7.0456E-01   3.1332E-05  0.0615
   7.0456E-01   7.2171E-01   3.2255E-05  0.0601
   7.2171E-01   7.3927E-01   3.4511E-05  0.0574
   7.3927E-01   7.5725E-01   3.3212E-05  0.0578
   7.5725E-01   7.7568E-01   3.2791E-05  0.0574
   7.7568E-01   7.9455E-01   3.2073E-05  0.0574
   7.9455E-01   8.1388E-01   3.0439E-05  0.0581
   8.1388E-01   8.3368E-01   2.9300E-05  0.0586
   8.3368E-01   8.5397E-01   3.1972E-05  0.0554
   8.5397E-01   8.7475E-01   3.3718E-05  0.0534
   8.7475E-01   8.9603E-01   3.0177E-05  0.0557
   8.9603E-01   9.1783E-01   3.3973E-05  0.0519
   9.1783E-01   9.4016E-01   3.3642E-05  0.0515
   9.4016E-01   9.6304E-01   3.2368E-05  0.0519
   9.6304E-01   9.8647E-01   3.4094E-05  0.0499
   9.8647E-01   1.0105E+00   3.6566E-05  0.0477
   1.0105E+00   1.0351E+00   3.6896E-05  0.0469
   1.0351E+00   1.0602E+00   3.6616E-05  0.0465
   1.0602E+00   1.0860E+00   3.5123E-05  0.0469
   1.0860E+00   1.1125E+00   3.5192E-05  0.0463
   1.1125E+00   1.1395E+00   3.2257E-05  0.0478
   1.1395E+00   1.1673E+00   3.5334E-05  0.0451
   1.1673E+00   1.1957E+00   3.6593E-05  0.0438
   1.1957E+00   1.2247E+00   3.4682E-05  0.0444
   1.2247E+00   1.2545E+00   3.4363E-05  0.0441
   1.2545E+00   1.2851E+00   3.6484E-05  0.0423
   1.2851E+00   1.3163E+00   3.6492E-05  0.0418
   1.3163E+00   1.3484E+00   3.2567E-05  0.0437
   1.3484E+00   1.3812E+00   3.7279E-05  0.0403
   1.3812E+00   1.4148E+00   3.5782E-05  0.0407
   1.4148E+00   1.4492E+00   3.5247E-05  0.0406
   1.4492E+00   1.4845E+00   3.1881E-05  0.0421
   1.4845E+00   1.5206E+00   3.5874E-05  0.0392
   1.5206E+00   1.5576E+00   3.5344E-05  0.0390
   1.5576E+00   1.5955E+00   3.3843E-05  0.0394
   1.5955E+00   1.6343E+00   3.4694E-05  0.0385
   1.6343E+00   1.6741E+00   3.1702E-05  0.0397
   1.6741E+00   1.7148E+00   3.1601E-05  0.0393
   1.7148E+00   1.7565E+00   3.3240E-05  0.0378
   1.7565E+00   1.7992E+00   3.4443E-05  0.0368
   1.7992E+00   1.8430E+00   3.1741E-05  0.0379
   1.8430E+00   1.8879E+00   3.0974E-05  0.0378
   1.8879E+00   1.9338E+00   3.2429E-05  0.0366
   1.9338E+00   1.9808E+00   3.0619E-05  0.0372
   1.9808E+00   2.0290E+00   3.0814E-05  0.0366
   2.0290E+00   2.0784E+00   2.9976E-05  0.0367
   2.0784E+00   2.1290E+00   3.1361E-05  0.0354
   2.1290E+00   2.1808E+00   3.1280E-05  0.0351
   2.1808E+00   2.2338E+00   3.0817E-05  0.0349
   2.2338E+00   2.2882E+00   2.9021E-05  0.0355
   2.2882E+00   2.3439E+00   2.8002E-05  0.0357
   2.3439E+00   2.4009E+00   2.8206E-05  0.0352
   2.4009E+00   2.4593E+00   2.7479E-05  0.0352
   2.4593E+00   2.5191E+00   2.7886E-05  0.0345
   2.5191E+00   2.5804E+00   2.7114E-05  0.0346
   2.5804E+00   2.6432E+00   2.6941E-05  0.0343
   2.6432E+00   2.7075E+00   2.5971E-05  0.0345
   2.7075E+00   2.7734E+00   2.6368E-05  0.0338
   2.7734E+00   2.8409E+00   2.5331E-05  0.0341
   2.8409E+00   2.9100E+00   2.6559E-05  0.0329
   2.9100E+00   2.9808E+00   2.5838E-05  0.0330
   2.9808E+00   3.0533E+00   2.7608E-05  0.0315
   3.0533E+00   3.1276E+00   2.4570E-05  0.0330
   3.1276E+00   3.2037E+00   2.4196E-05  0.0329
   3.2037E+00   3.2817E+00   2.6932E-05  0.0308
   3.2817E+00   3.3615E+00   2.4756E-05  0.0317
   3.3615E+00   3.4433E+00   2.3579E-05  0.0321
   3.4433E+00   3.5271E+00   2.3757E-05  0.0316
   3.5271E+00   3.6129E+00   2.3823E-05  0.0312
   3.6129E+00   3.7008E+00   2.3204E-05  0.0312
   3.7008E+00   3.7908E+00   2.3504E-05  0.0306
   3.7908E+00   3.8831E+00   2.1784E-05  0.0315
   3.8831E+00   3.9776E+00   2.1279E-05  0.0315
   3.9776E+00   4.0743E+00   2.1611E-05  0.0309
   4.0743E+00   4.1735E+00   2.0522E-05  0.0313
   4.1735E+00   4.2750E+00   2.2276E-05  0.0297
   4.2750E+00   4.3790E+00   2.2141E-05  0.0294
   4.3790E+00   4.4856E+00   2.0374E-05  0.0303
   4.4856E+00   4.5947E+00   2.1019E-05  0.0295
   4.5947E+00   4.7065E+00   2.1191E-05  0.0290
   4.7065E+00   4.8210E+00   2.2054E-05  0.0281
   4.8210E+00   4.9383E+00   2.2035E-05  0.0278
   4.9383E+00   5.0585E+00   2.1677E-05  0.0277
   5.0585E+00   5.1815E+00   2.1986E-05  0.0271
   5.1815E+00   5.3076E+00   2.1002E-05  0.0274
   5.3076E+00   5.4368E+00   2.0968E-05  0.0271
   5.4368E+00   5.5690E+00   2.1387E-05  0.0265
   5.5690E+00   5.7045E+00   2.0954E-05  0.0265
   5.7045E+00   5.8433E+00   2.1073E-05  0.0261
   5.8433E+00   5.9855E+00   2.0421E-05  0.0262
   5.9855E+00   6.1311E+00   2.1294E-05  0.0254
   6.1311E+00   6.2803E+00   1.9808E-05  0.0260
   6.2803E+00   6.4331E+00   1.9915E-05  0.0256
   6.4331E+00   6.5896E+00   2.0658E-05  0.0248
   6.5896E+00   6.7500E+00   2.0227E-05  0.0248
   6.7500E+00   6.9142E+00   1.9930E-05  0.0247
   6.9142E+00   7.0824E+00   2.0700E-05  0.0239
   7.0824E+00   7.2548E+00   2.0659E-05  0.0237
   7.2548E+00   7.4313E+00   2.0702E-05  0.0234
   7.4313E+00   7.6121E+00   2.0915E-05  0.0230
   7.6121E+00   7.7973E+00   2.0829E-05  0.0227
   7.7973E+00   7.9870E+00   2.2607E-05  0.0216
   7.9870E+00   8.1813E+00   2.1316E-05  0.0219
   8.1813E+00   8.3804E+00   2.1854E-05  0.0214
   8.3804E+00   8.5843E+00   2.1383E-05  0.0214
   8.5843E+00   8.7931E+00   2.1933E-05  0.0209
   8.7931E+00   9.0071E+00   2.2160E-05  0.0205
   9.0071E+00   9.2262E+00   2.1875E-05  0.0204
   9.2262E+00   9.4507E+00   2.1679E-05  0.0203
   9.4507E+00   9.6807E+00   2.3121E-05  0.0194
   9.6807E+00   9.9162E+00   2.2686E-05  0.0193
   9.9162E+00   1.0157E+01   2.3224E-05  0.0189
   1.0157E+01   1.0405E+01   2.3740E-05  0.0185
   1.0405E+01   1.0658E+01   2.4270E-05  0.0180
   1.0658E+01   1.0917E+01   2.5033E-05  0.0175
   1.0917E+01   1.1183E+01   2.4431E-05  0.0175
   1.1183E+01   1.1455E+01   2.6254E-05  0.0167
   1.1455E+01   1.1733E+01   2.5869E-05  0.0167
   1.1733E+01   1.2019E+01   2.6474E-05  0.0163
   1.2019E+01   1.2311E+01   2.7033E-05  0.0159
   1.2311E+01   1.2611E+01   2.7403E-05  0.0156
   1.2611E+01   1.2918E+01   2.8396E-05  0.0151
   1.2918E+01   1.3232E+01   2.9698E-05  0.0146
   1.3232E+01   1.3554E+01   3.0765E-05  0.0142
   1.3554E+01   1.3884E+01   3.1271E-05  0.0139
   1.3884E+01   1.4222E+01   3.2253E-05  0.0135
   1.4222E+01   1.4568E+01   3.2568E-05  0.0133
   1.4568E+01   1.4922E+01   3.4265E-05  0.0128
   1.4922E+01   1.5285E+01   3.5415E-05  0.0125
   1.5285E+01   1.5657E+01   3.6042E-05  0.0122
   1.5657E+01   1.6038E+01   3.7420E-05  0.0118
   1.6038E+01   1.6428E+01   3.8769E-05  0.0115
   1.6428E+01   1.6828E+01   3.9095E-05  0.0113
   1.6828E+01   1.7237E+01   4.0926E-05  0.0109
   1.7237E+01   1.7657E+01   4.2519E-05  0.0106
   1.7657E+01   1.8086E+01   4.3841E-05  0.0103
   1.8086E+01   1.8526E+01   4.5326E-05  0.0100
   1.8526E+01   1.8977E+01   4.6552E-05  0.0098
   1.8977E+01   1.9439E+01   4.9496E-05  0.0094
   1.9439E+01   1.9912E+01   5.0761E-05  0.0091
   1.9912E+01   2.0396E+01   5.2309E-05  0.0089
   2.0396E+01   2.0893E+01   5.4814E-05  0.0086
   2.0893E+01   2.1401E+01   5.6191E-05  0.0084
   2.1401E+01   2.1922E+01   5.9136E-05  0.0081
   2.1922E+01   2.2455E+01   6.0922E-05  0.0078
   2.2455E+01   2.3001E+01   6.2575E-05  0.0076
   2.3001E+01   2.3561E+01   6.5778E-05  0.0074
   2.3561E+01   2.4134E+01   6.8140E-05  0.0072
   2.4134E+01   2.4721E+01   7.1505E-05  0.0069
   2.4721E+01   2.5323E+01   7.4694E-05  0.0067
   2.5323E+01   2.5939E+01   7.7419E-05  0.0065
   2.5939E+01   2.6570E+01   8.1490E-05  0.0062
   2.6570E+01   2.7217E+01   8.5346E-05  0.0060
   2.7217E+01   2.7879E+01   9.0676E-05  0.0058
   2.7879E+01   2.8557E+01   9.4640E-05  0.0056
   2.8557E+01   2.9252E+01   9.9157E-05  0.0054
   2.9252E+01   2.9964E+01   1.0418E-04  0.0052
   2.9964E+01   3.0693E+01   1.0964E-04  0.0050
   3.0693E+01   3.1440E+01   1.1608E-04  0.0048
   3.1440E+01   3.2205E+01   1.2094E-04  0.0046
   3.2205E+01   3.2988E+01   1.2866E-04  0.0045
   3.2988E+01   3.3791E+01   1.3364E-04  0.0043
   3.3791E+01   3.4613E+01   1.3871E-04  0.0042
   3.4613E+01   3.5455E+01   1.4484E-04  0.0040
   3.5455E+01   3.6318E+01   1.4840E-04  0.0040
   3.6318E+01   3.7201E+01   1.5127E-04  0.0039
   3.7201E+01   3.8106E+01   1.5298E-04  0.0038
   3.8106E+01   3.9034E+01   1.5371E-04  0.0037
   3.9034E+01   3.9983E+01   1.5108E-04  0.0037
   3.9983E+01   4.0956E+01   1.4910E-04  0.0037
   4.0956E+01   4.1953E+01   1.4410E-04  0.0037
   4.1953E+01   4.2973E+01   1.3844E-04  0.0038
   4.2973E+01   4.4019E+01   1.3037E-04  0.0038
   4.4019E+01   4.5090E+01   1.2263E-04  0.0039
   4.5090E+01   4.6187E+01   1.1266E-04  0.0040
   4.6187E+01   4.7311E+01   1.0410E-04  0.0041
   4.7311E+01   4.8462E+01   9.3979E-05  0.0043
   4.8462E+01   4.9641E+01   8.4551E-05  0.0045
   4.9641E+01   5.0849E+01   7.5236E-05  0.0047
   5.0849E+01   5.2086E+01   6.5697E-05  0.0050
   5.2086E+01   5.3353E+01   5.7975E-05  0.0052
   5.3353E+01   5.4651E+01   5.1141E-05  0.0055
   5.4651E+01   5.5981E+01   4.4068E-05  0.0058
   5.5981E+01   5.7343E+01   3.7917E-05  0.0062
   5.7343E+01   5.8738E+01   3.2898E-05  0.0066
   5.8738E+01   6.0168E+01   2.8150E-05  0.0071
   6.0168E+01   6.1632E+01   2.4270E-05  0.0075
   6.1632E+01   6.3131E+01   2.0725E-05  0.0080
   6.3131E+01   6.4667E+01   1.7657E-05  0.0086
   6.4667E+01   6.6240E+01   1.5082E-05  0.0092
   6.6240E+01   6.7852E+01   1.3075E-05  0.0097
   6.7852E+01   6.9503E+01   1.1458E-05  0.0103
   6.9503E+01   7.1194E+01   1.0027E-05  0.0109
   7.1194E+01   7.2926E+01   8.9216E-06  0.0114
   7.2926E+01   7.4701E+01   7.9048E-06  0.0119
   7.4701E+01   7.6518E+01   7.2208E-06  0.0123
   7.6518E+01   7.8380E+01   6.3295E-06  0.0130
   7.8380E+01   8.0287E+01   5.3643E-06  0.0140
   8.0287E+01   8.2240E+01   5.5277E-06  0.0136
   8.2240E+01   8.4241E+01   5.2914E-06  0.0137
   8.4241E+01   8.6291E+01   5.2545E-06  0.0136
   8.6291E+01   8.8391E+01   4.6420E-06  0.0143
   8.8391E+01   9.0541E+01   3.9542E-06  0.0153
   9.0541E+01   9.2744E+01   3.2901E-06  0.0166
   9.2744E+01   9.5001E+01   2.7626E-06  0.0179
   9.5001E+01   9.7312E+01   2.3379E-06  0.0192
   9.7312E+01   9.9680E+01   1.4867E-06  0.0238
   9.9680E+01   1.0211E+02   6.3910E-07  0.0359
   1.0211E+02   1.0459E+02   8.6141E-08  0.0967
   1.0459E+02   1.0713E+02   0.0000E+00  0.0000
   1.0713E+02   1.0974E+02   0.0000E+00  0.0000
   1.0974E+02   1.1241E+02   0.0000E+00  0.0000
   1.1241E+02   1.1515E+02   0.0000E+00  0.0000
   1.1515E+02   1.1795E+02   0.0000E+00  0.0000
   1.1795E+02   1.2082E+02   0.0000E+00  0.0000
   1.2082E+02   1.2376E+02   0.0000E+00  0.0000
   1.2376E+02   1.2677E+02   0.0000E+00  0.0000
   1.2677E+02   1.2985E+02   0.0000E+00  0.0000
   1.2985E+02   1.3301E+02   0.0000E+00  0.0000
   1.3301E+02   1.3625E+02   0.0000E+00  0.0000
   1.3625E+02   1.3956E+02   0.0000E+00  0.0000
   1.3956E+02   1.4296E+02   0.0000E+00  0.0000
   1.4296E+02   1.4644E+02   0.0000E+00  0.0000
   1.4644E+02   1.5000E+02   0.0000E+00  0.0000

#   sum over                 3.1435E-05
'no. =    1   reg = 100 - 200'
msuc: {\huge [t-cross] in region mesh}
msdr: {\it plotted by \ANGEL \version}
msdl: {\it calculated by \PHITS  3.26}
wt: s(0.7)
\vspace{-3}
  region surface crossing
  area  &=&   1.0000E+00 [cm^2]
e:
 
# Information for Restart Calculation
# This calculation was newly started
# istdev =  2 # 1:Batch variance, 2:History variance
# resc2  = 5.00000000000000000E+08 # Total source weight or Total source weight / maxcas
# resc3  = 5.00000000000000000E+08 # Total history number or Total batch number
# maxcas =   500000000 # History / Batch, only used for istdev=1
# bitrseed = 1011101111111101000111101101010011111001010110111001011111010111 # bit data of rseed
