[ T-Cross ]
    title = [t-cross] in region mesh
     mesh =  reg            # mesh type is region-wise
      reg =    1            # number of crossing regions
      non     r-from    r-to       area
      1       105       205        1.000000    
   e-type =    3            # e-mesh is log given by emin, emax and ne
     emin =  1.0000000E-02  # minimum value of e-mesh points
     emax =   150.0000      # maximum value of e-mesh points
#    edel =  2.4039514E-02  # mesh width of e-mesh points
       ne =    400          # number of e-mesh points
#    data = ( e(i), i = 1, ne + 1 )
#           1.00000E-02  1.02433E-02  1.04925E-02  1.07478E-02  1.10093E-02
#           1.12772E-02  1.15516E-02  1.18326E-02  1.21205E-02  1.24154E-02
#           1.27175E-02  1.30269E-02  1.33439E-02  1.36686E-02  1.40011E-02
#           1.43418E-02  1.46907E-02  1.50482E-02  1.54143E-02  1.57894E-02
#           1.61735E-02  1.65670E-02  1.69701E-02  1.73830E-02  1.78060E-02
#           1.82392E-02  1.86830E-02  1.91375E-02  1.96032E-02  2.00801E-02
#           2.05687E-02  2.10692E-02  2.15818E-02  2.21069E-02  2.26448E-02
#           2.31957E-02  2.37601E-02  2.43382E-02  2.49304E-02  2.55369E-02
#           2.61583E-02  2.67947E-02  2.74467E-02  2.81145E-02  2.87985E-02
#           2.94992E-02  3.02169E-02  3.09521E-02  3.17052E-02  3.24766E-02
#           3.32668E-02  3.40762E-02  3.49053E-02  3.57546E-02  3.66246E-02
#           3.75157E-02  3.84284E-02  3.93634E-02  4.03212E-02  4.13022E-02
#           4.23071E-02  4.33365E-02  4.43909E-02  4.54710E-02  4.65773E-02
#           4.77106E-02  4.88714E-02  5.00605E-02  5.12785E-02  5.25262E-02
#           5.38042E-02  5.51133E-02  5.64542E-02  5.78278E-02  5.92348E-02
#           6.06760E-02  6.21523E-02  6.36645E-02  6.52135E-02  6.68002E-02
#           6.84255E-02  7.00904E-02  7.17957E-02  7.35426E-02  7.53319E-02
#           7.71648E-02  7.90423E-02  8.09655E-02  8.29354E-02  8.49533E-02
#           8.70203E-02  8.91376E-02  9.13064E-02  9.35279E-02  9.58035E-02
#           9.81345E-02  1.00522E-01  1.02968E-01  1.05473E-01  1.08040E-01
#           1.10668E-01  1.13361E-01  1.16119E-01  1.18944E-01  1.21838E-01
#           1.24803E-01  1.27839E-01  1.30950E-01  1.34136E-01  1.37399E-01
#           1.40742E-01  1.44167E-01  1.47675E-01  1.51268E-01  1.54948E-01
#           1.58718E-01  1.62580E-01  1.66535E-01  1.70587E-01  1.74738E-01
#           1.78989E-01  1.83344E-01  1.87805E-01  1.92375E-01  1.97055E-01
#           2.01850E-01  2.06761E-01  2.11792E-01  2.16945E-01  2.22223E-01
#           2.27630E-01  2.33169E-01  2.38842E-01  2.44653E-01  2.50605E-01
#           2.56703E-01  2.62949E-01  2.69346E-01  2.75900E-01  2.82613E-01
#           2.89489E-01  2.96532E-01  3.03747E-01  3.11138E-01  3.18708E-01
#           3.26462E-01  3.34405E-01  3.42542E-01  3.50876E-01  3.59413E-01
#           3.68158E-01  3.77116E-01  3.86291E-01  3.95690E-01  4.05317E-01
#           4.15179E-01  4.25281E-01  4.35628E-01  4.46227E-01  4.57084E-01
#           4.68205E-01  4.79597E-01  4.91266E-01  5.03219E-01  5.15463E-01
#           5.28005E-01  5.40851E-01  5.54011E-01  5.67490E-01  5.81298E-01
#           5.95441E-01  6.09929E-01  6.24769E-01  6.39970E-01  6.55541E-01
#           6.71491E-01  6.87828E-01  7.04564E-01  7.21706E-01  7.39266E-01
#           7.57253E-01  7.75678E-01  7.94551E-01  8.13883E-01  8.33685E-01
#           8.53969E-01  8.74747E-01  8.96030E-01  9.17831E-01  9.40163E-01
#           9.63038E-01  9.86469E-01  1.01047E+00  1.03506E+00  1.06024E+00
#           1.08604E+00  1.11246E+00  1.13953E+00  1.16725E+00  1.19565E+00
#           1.22474E+00  1.25454E+00  1.28507E+00  1.31633E+00  1.34836E+00
#           1.38117E+00  1.41477E+00  1.44920E+00  1.48446E+00  1.52057E+00
#           1.55757E+00  1.59547E+00  1.63429E+00  1.67405E+00  1.71478E+00
#           1.75650E+00  1.79924E+00  1.84302E+00  1.88786E+00  1.93379E+00
#           1.98084E+00  2.02904E+00  2.07841E+00  2.12898E+00  2.18078E+00
#           2.23384E+00  2.28819E+00  2.34386E+00  2.40089E+00  2.45930E+00
#           2.51914E+00  2.58043E+00  2.64322E+00  2.70753E+00  2.77341E+00
#           2.84088E+00  2.91001E+00  2.98081E+00  3.05333E+00  3.12762E+00
#           3.20372E+00  3.28167E+00  3.36152E+00  3.44330E+00  3.52708E+00
#           3.61290E+00  3.70080E+00  3.79085E+00  3.88308E+00  3.97756E+00
#           4.07434E+00  4.17347E+00  4.27501E+00  4.37903E+00  4.48557E+00
#           4.59471E+00  4.70650E+00  4.82102E+00  4.93832E+00  5.05847E+00
#           5.18155E+00  5.30762E+00  5.43676E+00  5.56904E+00  5.70453E+00
#           5.84333E+00  5.98550E+00  6.13114E+00  6.28031E+00  6.43312E+00
#           6.58964E+00  6.74997E+00  6.91420E+00  7.08243E+00  7.25475E+00
#           7.43126E+00  7.61207E+00  7.79728E+00  7.98700E+00  8.18133E+00
#           8.38038E+00  8.58428E+00  8.79315E+00  9.00709E+00  9.22624E+00
#           9.45072E+00  9.68067E+00  9.91620E+00  1.01575E+01  1.04046E+01
#           1.06578E+01  1.09171E+01  1.11827E+01  1.14548E+01  1.17335E+01
#           1.20190E+01  1.23114E+01  1.26109E+01  1.29178E+01  1.32321E+01
#           1.35540E+01  1.38838E+01  1.42216E+01  1.45676E+01  1.49221E+01
#           1.52851E+01  1.56570E+01  1.60380E+01  1.64282E+01  1.68279E+01
#           1.72374E+01  1.76568E+01  1.80864E+01  1.85264E+01  1.89772E+01
#           1.94389E+01  1.99119E+01  2.03963E+01  2.08926E+01  2.14009E+01
#           2.19216E+01  2.24550E+01  2.30014E+01  2.35610E+01  2.41343E+01
#           2.47215E+01  2.53230E+01  2.59391E+01  2.65702E+01  2.72167E+01
#           2.78789E+01  2.85572E+01  2.92520E+01  2.99637E+01  3.06928E+01
#           3.14396E+01  3.22045E+01  3.29881E+01  3.37907E+01  3.46128E+01
#           3.54550E+01  3.63177E+01  3.72013E+01  3.81064E+01  3.90336E+01
#           3.99833E+01  4.09561E+01  4.19526E+01  4.29734E+01  4.40189E+01
#           4.50900E+01  4.61870E+01  4.73108E+01  4.84619E+01  4.96410E+01
#           5.08488E+01  5.20860E+01  5.33533E+01  5.46514E+01  5.59812E+01
#           5.73432E+01  5.87384E+01  6.01676E+01  6.16315E+01  6.31311E+01
#           6.46671E+01  6.62405E+01  6.78522E+01  6.95031E+01  7.11941E+01
#           7.29263E+01  7.47007E+01  7.65182E+01  7.83800E+01  8.02870E+01
#           8.22405E+01  8.42414E+01  8.62911E+01  8.83906E+01  9.05412E+01
#           9.27442E+01  9.50007E+01  9.73122E+01  9.96799E+01  1.02105E+02
#           1.04589E+02  1.07134E+02  1.09741E+02  1.12411E+02  1.15146E+02
#           1.17948E+02  1.20817E+02  1.23757E+02  1.26768E+02  1.29852E+02
#           1.33012E+02  1.36248E+02  1.39563E+02  1.42959E+02  1.46437E+02
#           1.50000E+02
     unit =    2            # unit is [1/cm^2/(MeV/n)/source]
     axis =  eng            # axis of output
     file = detector-06.out  # file name of output for the above axis
   output = f-curr          # surface crossing forward current spectrum
     part =  neutron  
# kf/name :  2112     
#    used :        main (  %)        temp (  %)       total (  %)
#  memory :         414 (  0)           0 (  0)         414 (  0)

#------------------------------------------------------------------------------
#newpage:
#   no. =    1   reg = 105 - 205

x: Energy [MeV/n]
y:  F-Curr [1/cm^2/(MeV/n)/source]         
p: xlog ylog afac(0.8) form(0.9)
h: n            x            y(neutron ),hh0l   n 
#  e-lower      e-upper      neutron     r.err 
   1.0000E-02   1.0243E-02   4.9978E-03  0.0406
   1.0243E-02   1.0493E-02   4.7988E-03  0.0410
   1.0493E-02   1.0748E-02   4.7632E-03  0.0406
   1.0748E-02   1.1009E-02   4.6959E-03  0.0404
   1.1009E-02   1.1277E-02   4.6143E-03  0.0402
   1.1277E-02   1.1552E-02   4.6140E-03  0.0397
   1.1552E-02   1.1833E-02   4.5400E-03  0.0396
   1.1833E-02   1.2121E-02   4.8837E-03  0.0377
   1.2121E-02   1.2415E-02   4.1641E-03  0.0404
   1.2415E-02   1.2718E-02   4.2042E-03  0.0397
   1.2718E-02   1.3027E-02   4.2530E-03  0.0390
   1.3027E-02   1.3344E-02   3.9248E-03  0.0401
   1.3344E-02   1.3669E-02   3.9548E-03  0.0395
   1.3669E-02   1.4001E-02   3.9270E-03  0.0391
   1.4001E-02   1.4342E-02   4.3328E-03  0.0368
   1.4342E-02   1.4691E-02   3.9261E-03  0.0382
   1.4691E-02   1.5048E-02   4.1742E-03  0.0366
   1.5048E-02   1.5414E-02   3.9330E-03  0.0373
   1.5414E-02   1.5789E-02   3.7169E-03  0.0379
   1.5789E-02   1.6174E-02   3.5662E-03  0.0382
   1.6174E-02   1.6567E-02   3.5069E-03  0.0381
   1.6567E-02   1.6970E-02   3.4533E-03  0.0379
   1.6970E-02   1.7383E-02   3.2938E-03  0.0383
   1.7383E-02   1.7806E-02   3.2723E-03  0.0380
   1.7806E-02   1.8239E-02   3.4439E-03  0.0366
   1.8239E-02   1.8683E-02   3.3170E-03  0.0369
   1.8683E-02   1.9138E-02   3.2118E-03  0.0370
   1.9138E-02   1.9603E-02   3.1957E-03  0.0367
   1.9603E-02   2.0080E-02   3.2875E-03  0.0357
   2.0080E-02   2.0569E-02   3.1439E-03  0.0361
   2.0569E-02   2.1069E-02   3.0732E-03  0.0361
   2.1069E-02   2.1582E-02   3.0197E-03  0.0359
   2.1582E-02   2.2107E-02   3.0127E-03  0.0356
   2.2107E-02   2.2645E-02   2.9226E-03  0.0357
   2.2645E-02   2.3196E-02   3.0347E-03  0.0346
   2.3196E-02   2.3760E-02   2.9520E-03  0.0346
   2.3760E-02   2.4338E-02   2.6466E-03  0.0362
   2.4338E-02   2.4930E-02   2.6834E-03  0.0355
   2.4930E-02   2.5537E-02   2.4960E-03  0.0363
   2.5537E-02   2.6158E-02   2.6234E-03  0.0350
   2.6158E-02   2.6795E-02   2.6396E-03  0.0345
   2.6795E-02   2.7447E-02   2.5739E-03  0.0345
   2.7447E-02   2.8114E-02   2.5097E-03  0.0345
   2.8114E-02   2.8799E-02   2.3800E-03  0.0350
   2.8799E-02   2.9499E-02   2.2092E-03  0.0359
   2.9499E-02   3.0217E-02   2.3045E-03  0.0348
   3.0217E-02   3.0952E-02   2.3558E-03  0.0340
   3.0952E-02   3.1705E-02   2.2574E-03  0.0343
   3.1705E-02   3.2477E-02   2.3800E-03  0.0330
   3.2477E-02   3.3267E-02   2.1881E-03  0.0340
   3.3267E-02   3.4076E-02   2.0632E-03  0.0346
   3.4076E-02   3.4905E-02   2.0480E-03  0.0343
   3.4905E-02   3.5755E-02   2.1089E-03  0.0334
   3.5755E-02   3.6625E-02   1.9450E-03  0.0344
   3.6625E-02   3.7516E-02   2.0222E-03  0.0333
   3.7516E-02   3.8428E-02   1.9282E-03  0.0337
   3.8428E-02   3.9363E-02   1.9209E-03  0.0334
   3.9363E-02   4.0321E-02   1.9462E-03  0.0328
   4.0321E-02   4.1302E-02   1.8592E-03  0.0331
   4.1302E-02   4.2307E-02   1.8569E-03  0.0327
   4.2307E-02   4.3337E-02   1.8031E-03  0.0328
   4.3337E-02   4.4391E-02   1.7678E-03  0.0328
   4.4391E-02   4.5471E-02   1.7499E-03  0.0325
   4.5471E-02   4.6577E-02   1.7336E-03  0.0323
   4.6577E-02   4.7711E-02   1.6845E-03  0.0324
   4.7711E-02   4.8871E-02   1.6764E-03  0.0321
   4.8871E-02   5.0061E-02   1.6214E-03  0.0322
   5.0061E-02   5.1279E-02   1.5911E-03  0.0321
   5.1279E-02   5.2526E-02   1.5309E-03  0.0324
   5.2526E-02   5.3804E-02   1.5759E-03  0.0315
   5.3804E-02   5.5113E-02   1.4101E-03  0.0329
   5.5113E-02   5.6454E-02   1.3647E-03  0.0331
   5.6454E-02   5.7828E-02   1.4095E-03  0.0321
   5.7828E-02   5.9235E-02   1.3973E-03  0.0319
   5.9235E-02   6.0676E-02   1.3613E-03  0.0319
   6.0676E-02   6.2152E-02   1.3737E-03  0.0314
   6.2152E-02   6.3665E-02   1.2340E-03  0.0327
   6.3665E-02   6.5214E-02   1.3350E-03  0.0311
   6.5214E-02   6.6800E-02   1.2844E-03  0.0313
   6.6800E-02   6.8426E-02   1.2109E-03  0.0319
   6.8426E-02   7.0090E-02   1.2145E-03  0.0315
   7.0090E-02   7.1796E-02   1.1739E-03  0.0316
   7.1796E-02   7.3543E-02   1.1129E-03  0.0321
   7.3543E-02   7.5332E-02   1.1121E-03  0.0317
   7.5332E-02   7.7165E-02   1.0530E-03  0.0322
   7.7165E-02   7.9042E-02   1.0003E-03  0.0326
   7.9042E-02   8.0965E-02   1.0306E-03  0.0318
   8.0965E-02   8.2935E-02   1.0356E-03  0.0313
   8.2935E-02   8.4953E-02   1.0139E-03  0.0313
   8.4953E-02   8.7020E-02   9.2792E-04  0.0323
   8.7020E-02   8.9138E-02   9.3800E-04  0.0317
   8.9138E-02   9.1306E-02   9.2402E-04  0.0316
   9.1306E-02   9.3528E-02   8.9307E-04  0.0318
   9.3528E-02   9.5804E-02   8.8855E-04  0.0315
   9.5804E-02   9.8134E-02   8.7946E-04  0.0312
   9.8134E-02   1.0052E-01   8.2339E-04  0.0319
   1.0052E-01   1.0297E-01   7.5967E-04  0.0328
   1.0297E-01   1.0547E-01   7.6478E-04  0.0323
   1.0547E-01   1.0804E-01   7.2479E-04  0.0328
   1.0804E-01   1.1067E-01   8.3159E-04  0.0302
   1.1067E-01   1.1336E-01   7.5762E-04  0.0313
   1.1336E-01   1.1612E-01   7.6065E-04  0.0309
   1.1612E-01   1.1894E-01   7.0719E-04  0.0316
   1.1894E-01   1.2184E-01   6.6551E-04  0.0322
   1.2184E-01   1.2480E-01   6.5780E-04  0.0320
   1.2480E-01   1.2784E-01   6.3921E-04  0.0321
   1.2784E-01   1.3095E-01   6.4428E-04  0.0316
   1.3095E-01   1.3414E-01   6.5032E-04  0.0311
   1.3414E-01   1.3740E-01   6.0669E-04  0.0318
   1.3740E-01   1.4074E-01   5.7732E-04  0.0322
   1.4074E-01   1.4417E-01   5.9164E-04  0.0314
   1.4417E-01   1.4767E-01   5.7360E-04  0.0315
   1.4767E-01   1.5127E-01   5.3659E-04  0.0322
   1.5127E-01   1.5495E-01   5.0374E-04  0.0328
   1.5495E-01   1.5872E-01   5.1724E-04  0.0321
   1.5872E-01   1.6258E-01   4.8372E-04  0.0327
   1.6258E-01   1.6654E-01   4.7981E-04  0.0325
   1.6654E-01   1.7059E-01   4.6891E-04  0.0324
   1.7059E-01   1.7474E-01   4.2886E-04  0.0335
   1.7474E-01   1.7899E-01   4.4314E-04  0.0326
   1.7899E-01   1.8334E-01   4.3169E-04  0.0326
   1.8334E-01   1.8781E-01   4.1740E-04  0.0328
   1.8781E-01   1.9237E-01   4.1887E-04  0.0323
   1.9237E-01   1.9706E-01   4.0422E-04  0.0325
   1.9706E-01   2.0185E-01   3.7668E-04  0.0333
   2.0185E-01   2.0676E-01   3.5796E-04  0.0337
   2.0676E-01   2.1179E-01   3.8385E-04  0.0322
   2.1179E-01   2.1694E-01   3.4970E-04  0.0333
   2.1694E-01   2.2222E-01   3.3608E-04  0.0336
   2.2222E-01   2.2763E-01   3.2329E-04  0.0338
   2.2763E-01   2.3317E-01   3.2970E-04  0.0331
   2.3317E-01   2.3884E-01   2.9084E-04  0.0348
   2.3884E-01   2.4465E-01   3.0562E-04  0.0336
   2.4465E-01   2.5061E-01   2.8525E-04  0.0343
   2.5061E-01   2.5670E-01   2.6798E-04  0.0350
   2.5670E-01   2.6295E-01   2.5713E-04  0.0353
   2.6295E-01   2.6935E-01   2.5915E-04  0.0347
   2.6935E-01   2.7590E-01   2.3713E-04  0.0359
   2.7590E-01   2.8261E-01   2.5056E-04  0.0345
   2.8261E-01   2.8949E-01   2.2571E-04  0.0359
   2.8949E-01   2.9653E-01   2.2929E-04  0.0352
   2.9653E-01   3.0375E-01   2.0957E-04  0.0364
   3.0375E-01   3.1114E-01   2.0675E-04  0.0362
   3.1114E-01   3.1871E-01   1.9616E-04  0.0367
   3.1871E-01   3.2646E-01   1.8544E-04  0.0373
   3.2646E-01   3.3441E-01   1.8809E-04  0.0366
   3.3441E-01   3.4254E-01   1.5830E-04  0.0394
   3.4254E-01   3.5088E-01   1.6702E-04  0.0379
   3.5088E-01   3.5941E-01   1.5357E-04  0.0391
   3.5941E-01   3.6816E-01   1.5049E-04  0.0390
   3.6816E-01   3.7712E-01   1.4357E-04  0.0394
   3.7712E-01   3.8629E-01   1.4343E-04  0.0390
   3.8629E-01   3.9569E-01   1.4278E-04  0.0386
   3.9569E-01   4.0532E-01   1.3877E-04  0.0387
   4.0532E-01   4.1518E-01   1.3243E-04  0.0391
   4.1518E-01   4.2528E-01   1.1701E-04  0.0411
   4.2528E-01   4.3563E-01   1.1771E-04  0.0406
   4.3563E-01   4.4623E-01   1.1039E-04  0.0413
   4.4623E-01   4.5708E-01   1.0997E-04  0.0409
   4.5708E-01   4.6821E-01   9.8370E-05  0.0428
   4.6821E-01   4.7960E-01   9.5507E-05  0.0429
   4.7960E-01   4.9127E-01   8.7925E-05  0.0442
   4.9127E-01   5.0322E-01   9.4287E-05  0.0421
   5.0322E-01   5.1546E-01   9.0659E-05  0.0424
   5.1546E-01   5.2800E-01   8.9143E-05  0.0423
   5.2800E-01   5.4085E-01   8.6559E-05  0.0424
   5.4085E-01   5.5401E-01   6.9836E-05  0.0466
   5.5401E-01   5.6749E-01   7.3371E-05  0.0450
   5.6749E-01   5.8130E-01   6.6341E-05  0.0467
   5.8130E-01   5.9544E-01   6.2927E-05  0.0474
   5.9544E-01   6.0993E-01   6.2813E-05  0.0469
   6.0993E-01   6.2477E-01   6.4555E-05  0.0457
   6.2477E-01   6.3997E-01   6.0653E-05  0.0466
   6.3997E-01   6.5554E-01   5.3690E-05  0.0489
   6.5554E-01   6.7149E-01   5.2414E-05  0.0489
   6.7149E-01   6.8783E-01   5.0312E-05  0.0493
   6.8783E-01   7.0456E-01   4.8878E-05  0.0494
   7.0456E-01   7.2171E-01   4.4567E-05  0.0512
   7.2171E-01   7.3927E-01   4.6584E-05  0.0494
   7.3927E-01   7.5725E-01   4.7145E-05  0.0486
   7.5725E-01   7.7568E-01   4.6026E-05  0.0486
   7.7568E-01   7.9455E-01   4.4296E-05  0.0489
   7.9455E-01   8.1388E-01   4.0141E-05  0.0508
   8.1388E-01   8.3368E-01   3.7268E-05  0.0522
   8.3368E-01   8.5397E-01   4.2003E-05  0.0485
   8.5397E-01   8.7475E-01   3.3594E-05  0.0535
   8.7475E-01   8.9603E-01   3.6695E-05  0.0506
   8.9603E-01   9.1783E-01   3.3301E-05  0.0525
   9.1783E-01   9.4016E-01   3.1704E-05  0.0531
   9.4016E-01   9.6304E-01   3.2437E-05  0.0519
   9.6304E-01   9.8647E-01   3.4142E-05  0.0500
   9.8647E-01   1.0105E+00   2.9581E-05  0.0531
   1.0105E+00   1.0351E+00   3.3272E-05  0.0494
   1.0351E+00   1.0602E+00   3.0734E-05  0.0508
   1.0602E+00   1.0860E+00   3.4733E-05  0.0472
   1.0860E+00   1.1125E+00   3.6103E-05  0.0458
   1.1125E+00   1.1395E+00   3.4285E-05  0.0464
   1.1395E+00   1.1673E+00   4.0540E-05  0.0422
   1.1673E+00   1.1957E+00   4.2605E-05  0.0407
   1.1957E+00   1.2247E+00   4.1800E-05  0.0406
   1.2247E+00   1.2545E+00   4.4028E-05  0.0390
   1.2545E+00   1.2851E+00   4.4358E-05  0.0384
   1.2851E+00   1.3163E+00   4.9318E-05  0.0360
   1.3163E+00   1.3484E+00   5.1581E-05  0.0348
   1.3484E+00   1.3812E+00   5.4684E-05  0.0334
   1.3812E+00   1.4148E+00   5.4397E-05  0.0331
   1.4148E+00   1.4492E+00   5.3744E-05  0.0329
   1.4492E+00   1.4845E+00   5.8366E-05  0.0312
   1.4845E+00   1.5206E+00   5.8087E-05  0.0309
   1.5206E+00   1.5576E+00   5.8167E-05  0.0305
   1.5576E+00   1.5955E+00   6.2907E-05  0.0290
   1.5955E+00   1.6343E+00   6.5329E-05  0.0281
   1.6343E+00   1.6741E+00   6.2469E-05  0.0284
   1.6741E+00   1.7148E+00   7.0266E-05  0.0264
   1.7148E+00   1.7565E+00   6.8213E-05  0.0265
   1.7565E+00   1.7992E+00   7.2841E-05  0.0253
   1.7992E+00   1.8430E+00   7.0083E-05  0.0255
   1.8430E+00   1.8879E+00   6.7258E-05  0.0258
   1.8879E+00   1.9338E+00   7.1626E-05  0.0247
   1.9338E+00   1.9808E+00   7.3176E-05  0.0241
   1.9808E+00   2.0290E+00   7.4198E-05  0.0236
   2.0290E+00   2.0784E+00   7.5474E-05  0.0232
   2.0784E+00   2.1290E+00   7.3464E-05  0.0232
   2.1290E+00   2.1808E+00   7.3321E-05  0.0230
   2.1808E+00   2.2338E+00   7.0675E-05  0.0231
   2.2338E+00   2.2882E+00   7.1314E-05  0.0227
   2.2882E+00   2.3439E+00   7.4003E-05  0.0220
   2.3439E+00   2.4009E+00   7.2421E-05  0.0220
   2.4009E+00   2.4593E+00   7.3063E-05  0.0217
   2.4593E+00   2.5191E+00   7.4068E-05  0.0212
   2.5191E+00   2.5804E+00   7.0498E-05  0.0215
   2.5804E+00   2.6432E+00   7.0958E-05  0.0212
   2.6432E+00   2.7075E+00   6.6333E-05  0.0217
   2.7075E+00   2.7734E+00   6.9190E-05  0.0210
   2.7734E+00   2.8409E+00   6.6969E-05  0.0210
   2.8409E+00   2.9100E+00   6.6058E-05  0.0209
   2.9100E+00   2.9808E+00   6.8076E-05  0.0204
   2.9808E+00   3.0533E+00   6.6046E-05  0.0204
   3.0533E+00   3.1276E+00   6.3131E-05  0.0207
   3.1276E+00   3.2037E+00   6.2341E-05  0.0205
   3.2037E+00   3.2817E+00   6.0296E-05  0.0206
   3.2817E+00   3.3615E+00   5.5707E-05  0.0212
   3.3615E+00   3.4433E+00   5.7074E-05  0.0207
   3.4433E+00   3.5271E+00   5.3833E-05  0.0211
   3.5271E+00   3.6129E+00   5.3148E-05  0.0209
   3.6129E+00   3.7008E+00   5.5856E-05  0.0202
   3.7008E+00   3.7908E+00   5.0176E-05  0.0210
   3.7908E+00   3.8831E+00   5.1976E-05  0.0204
   3.8831E+00   3.9776E+00   4.8286E-05  0.0209
   3.9776E+00   4.0743E+00   4.9299E-05  0.0205
   4.0743E+00   4.1735E+00   4.6625E-05  0.0208
   4.1735E+00   4.2750E+00   4.5931E-05  0.0207
   4.2750E+00   4.3790E+00   4.3840E-05  0.0209
   4.3790E+00   4.4856E+00   4.2405E-05  0.0210
   4.4856E+00   4.5947E+00   4.3102E-05  0.0206
   4.5947E+00   4.7065E+00   4.0664E-05  0.0210
   4.7065E+00   4.8210E+00   3.9524E-05  0.0210
   4.8210E+00   4.9383E+00   3.9625E-05  0.0207
   4.9383E+00   5.0585E+00   3.8867E-05  0.0207
   5.0585E+00   5.1815E+00   3.7814E-05  0.0207
   5.1815E+00   5.3076E+00   3.5345E-05  0.0212
   5.3076E+00   5.4368E+00   3.6054E-05  0.0207
   5.4368E+00   5.5690E+00   3.5833E-05  0.0205
   5.5690E+00   5.7045E+00   3.3830E-05  0.0209
   5.7045E+00   5.8433E+00   3.4036E-05  0.0206
   5.8433E+00   5.9855E+00   3.2932E-05  0.0207
   5.9855E+00   6.1311E+00   3.2658E-05  0.0205
   6.1311E+00   6.2803E+00   3.2110E-05  0.0204
   6.2803E+00   6.4331E+00   3.2237E-05  0.0201
   6.4331E+00   6.5896E+00   3.1880E-05  0.0200
   6.5896E+00   6.7500E+00   3.1179E-05  0.0200
   6.7500E+00   6.9142E+00   2.9629E-05  0.0203
   6.9142E+00   7.0824E+00   3.0518E-05  0.0197
   7.0824E+00   7.2548E+00   3.0559E-05  0.0195
   7.2548E+00   7.4313E+00   3.0774E-05  0.0192
   7.4313E+00   7.6121E+00   2.8975E-05  0.0195
   7.6121E+00   7.7973E+00   2.9707E-05  0.0191
   7.7973E+00   7.9870E+00   3.0024E-05  0.0187
   7.9870E+00   8.1813E+00   2.7819E-05  0.0192
   8.1813E+00   8.3804E+00   2.9670E-05  0.0184
   8.3804E+00   8.5843E+00   3.0476E-05  0.0179
   8.5843E+00   8.7931E+00   2.9220E-05  0.0181
   8.7931E+00   9.0071E+00   3.0293E-05  0.0176
   9.0071E+00   9.2262E+00   2.9856E-05  0.0175
   9.2262E+00   9.4507E+00   3.0831E-05  0.0170
   9.4507E+00   9.6807E+00   2.9377E-05  0.0172
   9.6807E+00   9.9162E+00   2.8407E-05  0.0173
   9.9162E+00   1.0157E+01   3.0107E-05  0.0166
   1.0157E+01   1.0405E+01   3.0481E-05  0.0163
   1.0405E+01   1.0658E+01   3.0819E-05  0.0160
   1.0658E+01   1.0917E+01   3.0581E-05  0.0159
   1.0917E+01   1.1183E+01   3.1613E-05  0.0154
   1.1183E+01   1.1455E+01   3.1667E-05  0.0152
   1.1455E+01   1.1733E+01   3.2282E-05  0.0149
   1.1733E+01   1.2019E+01   3.2555E-05  0.0147
   1.2019E+01   1.2311E+01   3.2141E-05  0.0146
   1.2311E+01   1.2611E+01   3.2579E-05  0.0143
   1.2611E+01   1.2918E+01   3.3220E-05  0.0140
   1.2918E+01   1.3232E+01   3.3446E-05  0.0138
   1.3232E+01   1.3554E+01   3.3297E-05  0.0137
   1.3554E+01   1.3884E+01   3.5011E-05  0.0132
   1.3884E+01   1.4222E+01   3.3907E-05  0.0132
   1.4222E+01   1.4568E+01   3.4570E-05  0.0129
   1.4568E+01   1.4922E+01   3.4578E-05  0.0128
   1.4922E+01   1.5285E+01   3.5189E-05  0.0125
   1.5285E+01   1.5657E+01   3.5063E-05  0.0124
   1.5657E+01   1.6038E+01   3.6181E-05  0.0120
   1.6038E+01   1.6428E+01   3.5350E-05  0.0120
   1.6428E+01   1.6828E+01   3.5698E-05  0.0118
   1.6828E+01   1.7237E+01   3.5737E-05  0.0117
   1.7237E+01   1.7657E+01   3.5990E-05  0.0115
   1.7657E+01   1.8086E+01   3.6485E-05  0.0113
   1.8086E+01   1.8526E+01   3.5989E-05  0.0112
   1.8526E+01   1.8977E+01   3.5617E-05  0.0112
   1.8977E+01   1.9439E+01   3.6248E-05  0.0109
   1.9439E+01   1.9912E+01   3.5567E-05  0.0109
   1.9912E+01   2.0396E+01   3.8029E-05  0.0104
   2.0396E+01   2.0893E+01   3.9270E-05  0.0101
   2.0893E+01   2.1401E+01   3.8266E-05  0.0101
   2.1401E+01   2.1922E+01   3.7903E-05  0.0101
   2.1922E+01   2.2455E+01   3.6710E-05  0.0101
   2.2455E+01   2.3001E+01   3.5413E-05  0.0102
   2.3001E+01   2.3561E+01   3.4565E-05  0.0102
   2.3561E+01   2.4134E+01   3.3147E-05  0.0103
   2.4134E+01   2.4721E+01   3.1529E-05  0.0104
   2.4721E+01   2.5323E+01   3.0527E-05  0.0104
   2.5323E+01   2.5939E+01   2.8530E-05  0.0107
   2.5939E+01   2.6570E+01   2.7798E-05  0.0107
   2.6570E+01   2.7217E+01   2.5894E-05  0.0109
   2.7217E+01   2.7879E+01   2.4663E-05  0.0111
   2.7879E+01   2.8557E+01   2.3526E-05  0.0112
   2.8557E+01   2.9252E+01   2.1747E-05  0.0115
   2.9252E+01   2.9964E+01   2.0460E-05  0.0117
   2.9964E+01   3.0693E+01   1.8767E-05  0.0121
   3.0693E+01   3.1440E+01   1.7689E-05  0.0123
   3.1440E+01   3.2205E+01   1.6378E-05  0.0126
   3.2205E+01   3.2988E+01   1.5289E-05  0.0129
   3.2988E+01   3.3791E+01   1.3914E-05  0.0134
   3.3791E+01   3.4613E+01   1.2803E-05  0.0138
   3.4613E+01   3.5455E+01   1.1608E-05  0.0143
   3.5455E+01   3.6318E+01   1.0424E-05  0.0149
   3.6318E+01   3.7201E+01   9.6125E-06  0.0153
   3.7201E+01   3.8106E+01   9.0417E-06  0.0156
   3.8106E+01   3.9034E+01   7.9900E-06  0.0164
   3.9034E+01   3.9983E+01   7.4464E-06  0.0168
   3.9983E+01   4.0956E+01   6.3629E-06  0.0180
   4.0956E+01   4.1953E+01   5.8465E-06  0.0185
   4.1953E+01   4.2973E+01   4.9180E-06  0.0200
   4.2973E+01   4.4019E+01   4.3077E-06  0.0211
   4.4019E+01   4.5090E+01   3.7385E-06  0.0223
   4.5090E+01   4.6187E+01   3.1775E-06  0.0240
   4.6187E+01   4.7311E+01   2.8796E-06  0.0249
   4.7311E+01   4.8462E+01   2.3925E-06  0.0269
   4.8462E+01   4.9641E+01   1.8997E-06  0.0299
   4.9641E+01   5.0849E+01   1.5830E-06  0.0323
   5.0849E+01   5.2086E+01   1.2270E-06  0.0363
   5.2086E+01   5.3353E+01   9.4059E-07  0.0410
   5.3353E+01   5.4651E+01   7.0255E-07  0.0468
   5.4651E+01   5.5981E+01   4.7379E-07  0.0563
   5.5981E+01   5.7343E+01   2.6430E-07  0.0745
   5.7343E+01   5.8738E+01   7.4541E-08  0.1387
   5.8738E+01   6.0168E+01   0.0000E+00  0.0000
   6.0168E+01   6.1632E+01   0.0000E+00  0.0000
   6.1632E+01   6.3131E+01   0.0000E+00  0.0000
   6.3131E+01   6.4667E+01   0.0000E+00  0.0000
   6.4667E+01   6.6240E+01   0.0000E+00  0.0000
   6.6240E+01   6.7852E+01   0.0000E+00  0.0000
   6.7852E+01   6.9503E+01   0.0000E+00  0.0000
   6.9503E+01   7.1194E+01   0.0000E+00  0.0000
   7.1194E+01   7.2926E+01   0.0000E+00  0.0000
   7.2926E+01   7.4701E+01   0.0000E+00  0.0000
   7.4701E+01   7.6518E+01   0.0000E+00  0.0000
   7.6518E+01   7.8380E+01   0.0000E+00  0.0000
   7.8380E+01   8.0287E+01   0.0000E+00  0.0000
   8.0287E+01   8.2240E+01   0.0000E+00  0.0000
   8.2240E+01   8.4241E+01   0.0000E+00  0.0000
   8.4241E+01   8.6291E+01   0.0000E+00  0.0000
   8.6291E+01   8.8391E+01   0.0000E+00  0.0000
   8.8391E+01   9.0541E+01   0.0000E+00  0.0000
   9.0541E+01   9.2744E+01   0.0000E+00  0.0000
   9.2744E+01   9.5001E+01   0.0000E+00  0.0000
   9.5001E+01   9.7312E+01   0.0000E+00  0.0000
   9.7312E+01   9.9680E+01   0.0000E+00  0.0000
   9.9680E+01   1.0211E+02   0.0000E+00  0.0000
   1.0211E+02   1.0459E+02   0.0000E+00  0.0000
   1.0459E+02   1.0713E+02   0.0000E+00  0.0000
   1.0713E+02   1.0974E+02   0.0000E+00  0.0000
   1.0974E+02   1.1241E+02   0.0000E+00  0.0000
   1.1241E+02   1.1515E+02   0.0000E+00  0.0000
   1.1515E+02   1.1795E+02   0.0000E+00  0.0000
   1.1795E+02   1.2082E+02   0.0000E+00  0.0000
   1.2082E+02   1.2376E+02   0.0000E+00  0.0000
   1.2376E+02   1.2677E+02   0.0000E+00  0.0000
   1.2677E+02   1.2985E+02   0.0000E+00  0.0000
   1.2985E+02   1.3301E+02   0.0000E+00  0.0000
   1.3301E+02   1.3625E+02   0.0000E+00  0.0000
   1.3625E+02   1.3956E+02   0.0000E+00  0.0000
   1.3956E+02   1.4296E+02   0.0000E+00  0.0000
   1.4296E+02   1.4644E+02   0.0000E+00  0.0000
   1.4644E+02   1.5000E+02   0.0000E+00  0.0000

#   sum over                 9.9424E-06
'no. =    1   reg = 105 - 205'
msuc: {\huge [t-cross] in region mesh}
msdr: {\it plotted by \ANGEL \version}
msdl: {\it calculated by \PHITS  3.26}
wt: s(0.7)
\vspace{-3}
  region surface crossing
  area  &=&   1.0000E+00 [cm^2]
e:
 
# Information for Restart Calculation
# This calculation was newly started
# istdev =  2 # 1:Batch variance, 2:History variance
# resc2  = 5.00000000000000000E+08 # Total source weight or Total source weight / maxcas
# resc3  = 5.00000000000000000E+08 # Total history number or Total batch number
# maxcas =   500000000 # History / Batch, only used for istdev=1
# bitrseed = 1101101111010011011000101101110001100110110010110001010100010001 # bit data of rseed
