[ T-Cross ]
    title = [t-cross] in region mesh
     mesh =  reg            # mesh type is region-wise
      reg =    1            # number of crossing regions
      non     r-from    r-to       area
      1       106       206        1.000000    
   e-type =    3            # e-mesh is log given by emin, emax and ne
     emin =  1.0000000E-02  # minimum value of e-mesh points
     emax =   150.0000      # maximum value of e-mesh points
#    edel =  2.4039514E-02  # mesh width of e-mesh points
       ne =    400          # number of e-mesh points
#    data = ( e(i), i = 1, ne + 1 )
#           1.00000E-02  1.02433E-02  1.04925E-02  1.07478E-02  1.10093E-02
#           1.12772E-02  1.15516E-02  1.18326E-02  1.21205E-02  1.24154E-02
#           1.27175E-02  1.30269E-02  1.33439E-02  1.36686E-02  1.40011E-02
#           1.43418E-02  1.46907E-02  1.50482E-02  1.54143E-02  1.57894E-02
#           1.61735E-02  1.65670E-02  1.69701E-02  1.73830E-02  1.78060E-02
#           1.82392E-02  1.86830E-02  1.91375E-02  1.96032E-02  2.00801E-02
#           2.05687E-02  2.10692E-02  2.15818E-02  2.21069E-02  2.26448E-02
#           2.31957E-02  2.37601E-02  2.43382E-02  2.49304E-02  2.55369E-02
#           2.61583E-02  2.67947E-02  2.74467E-02  2.81145E-02  2.87985E-02
#           2.94992E-02  3.02169E-02  3.09521E-02  3.17052E-02  3.24766E-02
#           3.32668E-02  3.40762E-02  3.49053E-02  3.57546E-02  3.66246E-02
#           3.75157E-02  3.84284E-02  3.93634E-02  4.03212E-02  4.13022E-02
#           4.23071E-02  4.33365E-02  4.43909E-02  4.54710E-02  4.65773E-02
#           4.77106E-02  4.88714E-02  5.00605E-02  5.12785E-02  5.25262E-02
#           5.38042E-02  5.51133E-02  5.64542E-02  5.78278E-02  5.92348E-02
#           6.06760E-02  6.21523E-02  6.36645E-02  6.52135E-02  6.68002E-02
#           6.84255E-02  7.00904E-02  7.17957E-02  7.35426E-02  7.53319E-02
#           7.71648E-02  7.90423E-02  8.09655E-02  8.29354E-02  8.49533E-02
#           8.70203E-02  8.91376E-02  9.13064E-02  9.35279E-02  9.58035E-02
#           9.81345E-02  1.00522E-01  1.02968E-01  1.05473E-01  1.08040E-01
#           1.10668E-01  1.13361E-01  1.16119E-01  1.18944E-01  1.21838E-01
#           1.24803E-01  1.27839E-01  1.30950E-01  1.34136E-01  1.37399E-01
#           1.40742E-01  1.44167E-01  1.47675E-01  1.51268E-01  1.54948E-01
#           1.58718E-01  1.62580E-01  1.66535E-01  1.70587E-01  1.74738E-01
#           1.78989E-01  1.83344E-01  1.87805E-01  1.92375E-01  1.97055E-01
#           2.01850E-01  2.06761E-01  2.11792E-01  2.16945E-01  2.22223E-01
#           2.27630E-01  2.33169E-01  2.38842E-01  2.44653E-01  2.50605E-01
#           2.56703E-01  2.62949E-01  2.69346E-01  2.75900E-01  2.82613E-01
#           2.89489E-01  2.96532E-01  3.03747E-01  3.11138E-01  3.18708E-01
#           3.26462E-01  3.34405E-01  3.42542E-01  3.50876E-01  3.59413E-01
#           3.68158E-01  3.77116E-01  3.86291E-01  3.95690E-01  4.05317E-01
#           4.15179E-01  4.25281E-01  4.35628E-01  4.46227E-01  4.57084E-01
#           4.68205E-01  4.79597E-01  4.91266E-01  5.03219E-01  5.15463E-01
#           5.28005E-01  5.40851E-01  5.54011E-01  5.67490E-01  5.81298E-01
#           5.95441E-01  6.09929E-01  6.24769E-01  6.39970E-01  6.55541E-01
#           6.71491E-01  6.87828E-01  7.04564E-01  7.21706E-01  7.39266E-01
#           7.57253E-01  7.75678E-01  7.94551E-01  8.13883E-01  8.33685E-01
#           8.53969E-01  8.74747E-01  8.96030E-01  9.17831E-01  9.40163E-01
#           9.63038E-01  9.86469E-01  1.01047E+00  1.03506E+00  1.06024E+00
#           1.08604E+00  1.11246E+00  1.13953E+00  1.16725E+00  1.19565E+00
#           1.22474E+00  1.25454E+00  1.28507E+00  1.31633E+00  1.34836E+00
#           1.38117E+00  1.41477E+00  1.44920E+00  1.48446E+00  1.52057E+00
#           1.55757E+00  1.59547E+00  1.63429E+00  1.67405E+00  1.71478E+00
#           1.75650E+00  1.79924E+00  1.84302E+00  1.88786E+00  1.93379E+00
#           1.98084E+00  2.02904E+00  2.07841E+00  2.12898E+00  2.18078E+00
#           2.23384E+00  2.28819E+00  2.34386E+00  2.40089E+00  2.45930E+00
#           2.51914E+00  2.58043E+00  2.64322E+00  2.70753E+00  2.77341E+00
#           2.84088E+00  2.91001E+00  2.98081E+00  3.05333E+00  3.12762E+00
#           3.20372E+00  3.28167E+00  3.36152E+00  3.44330E+00  3.52708E+00
#           3.61290E+00  3.70080E+00  3.79085E+00  3.88308E+00  3.97756E+00
#           4.07434E+00  4.17347E+00  4.27501E+00  4.37903E+00  4.48557E+00
#           4.59471E+00  4.70650E+00  4.82102E+00  4.93832E+00  5.05847E+00
#           5.18155E+00  5.30762E+00  5.43676E+00  5.56904E+00  5.70453E+00
#           5.84333E+00  5.98550E+00  6.13114E+00  6.28031E+00  6.43312E+00
#           6.58964E+00  6.74997E+00  6.91420E+00  7.08243E+00  7.25475E+00
#           7.43126E+00  7.61207E+00  7.79728E+00  7.98700E+00  8.18133E+00
#           8.38038E+00  8.58428E+00  8.79315E+00  9.00709E+00  9.22624E+00
#           9.45072E+00  9.68067E+00  9.91620E+00  1.01575E+01  1.04046E+01
#           1.06578E+01  1.09171E+01  1.11827E+01  1.14548E+01  1.17335E+01
#           1.20190E+01  1.23114E+01  1.26109E+01  1.29178E+01  1.32321E+01
#           1.35540E+01  1.38838E+01  1.42216E+01  1.45676E+01  1.49221E+01
#           1.52851E+01  1.56570E+01  1.60380E+01  1.64282E+01  1.68279E+01
#           1.72374E+01  1.76568E+01  1.80864E+01  1.85264E+01  1.89772E+01
#           1.94389E+01  1.99119E+01  2.03963E+01  2.08926E+01  2.14009E+01
#           2.19216E+01  2.24550E+01  2.30014E+01  2.35610E+01  2.41343E+01
#           2.47215E+01  2.53230E+01  2.59391E+01  2.65702E+01  2.72167E+01
#           2.78789E+01  2.85572E+01  2.92520E+01  2.99637E+01  3.06928E+01
#           3.14396E+01  3.22045E+01  3.29881E+01  3.37907E+01  3.46128E+01
#           3.54550E+01  3.63177E+01  3.72013E+01  3.81064E+01  3.90336E+01
#           3.99833E+01  4.09561E+01  4.19526E+01  4.29734E+01  4.40189E+01
#           4.50900E+01  4.61870E+01  4.73108E+01  4.84619E+01  4.96410E+01
#           5.08488E+01  5.20860E+01  5.33533E+01  5.46514E+01  5.59812E+01
#           5.73432E+01  5.87384E+01  6.01676E+01  6.16315E+01  6.31311E+01
#           6.46671E+01  6.62405E+01  6.78522E+01  6.95031E+01  7.11941E+01
#           7.29263E+01  7.47007E+01  7.65182E+01  7.83800E+01  8.02870E+01
#           8.22405E+01  8.42414E+01  8.62911E+01  8.83906E+01  9.05412E+01
#           9.27442E+01  9.50007E+01  9.73122E+01  9.96799E+01  1.02105E+02
#           1.04589E+02  1.07134E+02  1.09741E+02  1.12411E+02  1.15146E+02
#           1.17948E+02  1.20817E+02  1.23757E+02  1.26768E+02  1.29852E+02
#           1.33012E+02  1.36248E+02  1.39563E+02  1.42959E+02  1.46437E+02
#           1.50000E+02
     unit =    2            # unit is [1/cm^2/(MeV/n)/source]
     axis =  eng            # axis of output
     file = detector-07.out  # file name of output for the above axis
   output = f-curr          # surface crossing forward current spectrum
     part =  neutron  
# kf/name :  2112     
#    used :        main (  %)        temp (  %)       total (  %)
#  memory :         414 (  0)           0 (  0)         414 (  0)

#------------------------------------------------------------------------------
#newpage:
#   no. =    1   reg = 106 - 206

x: Energy [MeV/n]
y:  F-Curr [1/cm^2/(MeV/n)/source]         
p: xlog ylog afac(0.8) form(0.9)
h: n            x            y(neutron ),hh0l   n 
#  e-lower      e-upper      neutron     r.err 
   1.0000E-02   1.0243E-02   1.5273E-02  0.0232
   1.0243E-02   1.0493E-02   1.4621E-02  0.0234
   1.0493E-02   1.0748E-02   1.3545E-02  0.0240
   1.0748E-02   1.1009E-02   1.3897E-02  0.0235
   1.1009E-02   1.1277E-02   1.3746E-02  0.0233
   1.1277E-02   1.1552E-02   1.3791E-02  0.0230
   1.1552E-02   1.1833E-02   1.3122E-02  0.0233
   1.1833E-02   1.2121E-02   1.3102E-02  0.0230
   1.2121E-02   1.2415E-02   1.3184E-02  0.0227
   1.2415E-02   1.2718E-02   1.2507E-02  0.0230
   1.2718E-02   1.3027E-02   1.1977E-02  0.0232
   1.3027E-02   1.3344E-02   1.2115E-02  0.0228
   1.3344E-02   1.3669E-02   1.2062E-02  0.0226
   1.3669E-02   1.4001E-02   1.1799E-02  0.0226
   1.4001E-02   1.4342E-02   1.1654E-02  0.0224
   1.4342E-02   1.4691E-02   1.1475E-02  0.0223
   1.4691E-02   1.5048E-02   1.1437E-02  0.0221
   1.5048E-02   1.5414E-02   1.0723E-02  0.0226
   1.5414E-02   1.5789E-02   1.0676E-02  0.0224
   1.5789E-02   1.6174E-02   1.0636E-02  0.0221
   1.6174E-02   1.6567E-02   1.0668E-02  0.0218
   1.6567E-02   1.6970E-02   1.0534E-02  0.0217
   1.6970E-02   1.7383E-02   1.0380E-02  0.0216
   1.7383E-02   1.7806E-02   9.8642E-03  0.0219
   1.7806E-02   1.8239E-02   9.9946E-03  0.0215
   1.8239E-02   1.8683E-02   9.5995E-03  0.0217
   1.8683E-02   1.9138E-02   9.6750E-03  0.0213
   1.9138E-02   1.9603E-02   9.3808E-03  0.0214
   1.9603E-02   2.0080E-02   9.1999E-03  0.0214
   2.0080E-02   2.0569E-02   9.2188E-03  0.0211
   2.0569E-02   2.1069E-02   9.4075E-03  0.0206
   2.1069E-02   2.1582E-02   8.7451E-03  0.0211
   2.1582E-02   2.2107E-02   8.9278E-03  0.0207
   2.2107E-02   2.2645E-02   8.5205E-03  0.0209
   2.2645E-02   2.3196E-02   8.3853E-03  0.0208
   2.3196E-02   2.3760E-02   8.2216E-03  0.0208
   2.3760E-02   2.4338E-02   8.1716E-03  0.0206
   2.4338E-02   2.4930E-02   7.9572E-03  0.0206
   2.4930E-02   2.5537E-02   8.1210E-03  0.0201
   2.5537E-02   2.6158E-02   7.7350E-03  0.0204
   2.6158E-02   2.6795E-02   7.5167E-03  0.0204
   2.6795E-02   2.7447E-02   7.5575E-03  0.0201
   2.7447E-02   2.8114E-02   7.3286E-03  0.0202
   2.8114E-02   2.8799E-02   7.1691E-03  0.0202
   2.8799E-02   2.9499E-02   7.1273E-03  0.0200
   2.9499E-02   3.0217E-02   6.9468E-03  0.0200
   3.0217E-02   3.0952E-02   6.5329E-03  0.0204
   3.0952E-02   3.1705E-02   6.6473E-03  0.0200
   3.1705E-02   3.2477E-02   6.4453E-03  0.0201
   3.2477E-02   3.3267E-02   6.5580E-03  0.0196
   3.3267E-02   3.4076E-02   6.4689E-03  0.0196
   3.4076E-02   3.4905E-02   6.4576E-03  0.0193
   3.4905E-02   3.5755E-02   6.0569E-03  0.0197
   3.5755E-02   3.6625E-02   6.0142E-03  0.0196
   3.6625E-02   3.7516E-02   5.9499E-03  0.0194
   3.7516E-02   3.8428E-02   5.9247E-03  0.0192
   3.8428E-02   3.9363E-02   5.7134E-03  0.0193
   3.9363E-02   4.0321E-02   5.5046E-03  0.0195
   4.0321E-02   4.1302E-02   5.3902E-03  0.0194
   4.1302E-02   4.2307E-02   5.3039E-03  0.0194
   4.2307E-02   4.3337E-02   5.2809E-03  0.0192
   4.3337E-02   4.4391E-02   5.1555E-03  0.0192
   4.4391E-02   4.5471E-02   5.1256E-03  0.0190
   4.5471E-02   4.6577E-02   4.9487E-03  0.0191
   4.6577E-02   4.7711E-02   4.9627E-03  0.0189
   4.7711E-02   4.8871E-02   4.7845E-03  0.0190
   4.8871E-02   5.0061E-02   4.6448E-03  0.0190
   5.0061E-02   5.1279E-02   4.5977E-03  0.0189
   5.1279E-02   5.2526E-02   4.4852E-03  0.0189
   5.2526E-02   5.3804E-02   4.3192E-03  0.0190
   5.3804E-02   5.5113E-02   4.4030E-03  0.0186
   5.5113E-02   5.6454E-02   4.2835E-03  0.0187
   5.6454E-02   5.7828E-02   4.1483E-03  0.0187
   5.7828E-02   5.9235E-02   4.1208E-03  0.0186
   5.9235E-02   6.0676E-02   4.0896E-03  0.0184
   6.0676E-02   6.2152E-02   4.0547E-03  0.0183
   6.2152E-02   6.3665E-02   3.8976E-03  0.0184
   6.3665E-02   6.5214E-02   3.8386E-03  0.0183
   6.5214E-02   6.6800E-02   3.5659E-03  0.0188
   6.6800E-02   6.8426E-02   3.5390E-03  0.0186
   6.8426E-02   7.0090E-02   3.6171E-03  0.0182
   7.0090E-02   7.1796E-02   3.4691E-03  0.0184
   7.1796E-02   7.3543E-02   3.3872E-03  0.0184
   7.3543E-02   7.5332E-02   3.3196E-03  0.0183
   7.5332E-02   7.7165E-02   3.1830E-03  0.0185
   7.7165E-02   7.9042E-02   3.1297E-03  0.0184
   7.9042E-02   8.0965E-02   3.0741E-03  0.0184
   8.0965E-02   8.2935E-02   3.0925E-03  0.0181
   8.2935E-02   8.4953E-02   2.9665E-03  0.0183
   8.4953E-02   8.7020E-02   2.9816E-03  0.0180
   8.7020E-02   8.9138E-02   2.8395E-03  0.0183
   8.9138E-02   9.1306E-02   2.6835E-03  0.0185
   9.1306E-02   9.3528E-02   2.6648E-03  0.0184
   9.3528E-02   9.5804E-02   2.6665E-03  0.0182
   9.5804E-02   9.8134E-02   2.6212E-03  0.0181
   9.8134E-02   1.0052E-01   2.4928E-03  0.0183
   1.0052E-01   1.0297E-01   2.4720E-03  0.0182
   1.0297E-01   1.0547E-01   2.4452E-03  0.0181
   1.0547E-01   1.0804E-01   2.3318E-03  0.0183
   1.0804E-01   1.1067E-01   2.1950E-03  0.0186
   1.1067E-01   1.1336E-01   2.2008E-03  0.0184
   1.1336E-01   1.1612E-01   2.1960E-03  0.0182
   1.1612E-01   1.1894E-01   2.0472E-03  0.0186
   1.1894E-01   1.2184E-01   2.0345E-03  0.0184
   1.2184E-01   1.2480E-01   1.9356E-03  0.0187
   1.2480E-01   1.2784E-01   1.8791E-03  0.0187
   1.2784E-01   1.3095E-01   1.8711E-03  0.0185
   1.3095E-01   1.3414E-01   1.8292E-03  0.0185
   1.3414E-01   1.3740E-01   1.8133E-03  0.0184
   1.3740E-01   1.4074E-01   1.7574E-03  0.0184
   1.4074E-01   1.4417E-01   1.7066E-03  0.0185
   1.4417E-01   1.4767E-01   1.6814E-03  0.0184
   1.4767E-01   1.5127E-01   1.6454E-03  0.0184
   1.5127E-01   1.5495E-01   1.6090E-03  0.0184
   1.5495E-01   1.5872E-01   1.4912E-03  0.0189
   1.5872E-01   1.6258E-01   1.5576E-03  0.0182
   1.6258E-01   1.6654E-01   1.4162E-03  0.0189
   1.6654E-01   1.7059E-01   1.3677E-03  0.0190
   1.7059E-01   1.7474E-01   1.3232E-03  0.0191
   1.7474E-01   1.7899E-01   1.3068E-03  0.0190
   1.7899E-01   1.8334E-01   1.2772E-03  0.0190
   1.8334E-01   1.8781E-01   1.2235E-03  0.0191
   1.8781E-01   1.9237E-01   1.1883E-03  0.0192
   1.9237E-01   1.9706E-01   1.1842E-03  0.0190
   1.9706E-01   2.0185E-01   1.0775E-03  0.0197
   2.0185E-01   2.0676E-01   1.0942E-03  0.0193
   2.0676E-01   2.1179E-01   1.0583E-03  0.0194
   2.1179E-01   2.1694E-01   1.0223E-03  0.0195
   2.1694E-01   2.2222E-01   1.0086E-03  0.0194
   2.2222E-01   2.2763E-01   9.4879E-04  0.0198
   2.2763E-01   2.3317E-01   9.5695E-04  0.0194
   2.3317E-01   2.3884E-01   8.6971E-04  0.0201
   2.3884E-01   2.4465E-01   8.7090E-04  0.0199
   2.4465E-01   2.5061E-01   8.0402E-04  0.0205
   2.5061E-01   2.5670E-01   7.6885E-04  0.0207
   2.5670E-01   2.6295E-01   7.9798E-04  0.0200
   2.6295E-01   2.6935E-01   7.4432E-04  0.0205
   2.6935E-01   2.7590E-01   7.2054E-04  0.0206
   2.7590E-01   2.8261E-01   6.9672E-04  0.0207
   2.8261E-01   2.8949E-01   6.2360E-04  0.0216
   2.8949E-01   2.9653E-01   6.2114E-04  0.0214
   2.9653E-01   3.0375E-01   6.2538E-04  0.0211
   3.0375E-01   3.1114E-01   6.0348E-04  0.0212
   3.1114E-01   3.1871E-01   5.6405E-04  0.0216
   3.1871E-01   3.2646E-01   5.9115E-04  0.0209
   3.2646E-01   3.3441E-01   5.4588E-04  0.0215
   3.3441E-01   3.4254E-01   5.1657E-04  0.0218
   3.4254E-01   3.5088E-01   4.9170E-04  0.0221
   3.5088E-01   3.5941E-01   4.7042E-04  0.0223
   3.5941E-01   3.6816E-01   4.6519E-04  0.0222
   3.6816E-01   3.7712E-01   4.4220E-04  0.0225
   3.7712E-01   3.8629E-01   4.1959E-04  0.0228
   3.8629E-01   3.9569E-01   4.0175E-04  0.0230
   3.9569E-01   4.0532E-01   3.7996E-04  0.0234
   4.0532E-01   4.1518E-01   3.7438E-04  0.0233
   4.1518E-01   4.2528E-01   3.4113E-04  0.0241
   4.2528E-01   4.3563E-01   3.3612E-04  0.0240
   4.3563E-01   4.4623E-01   3.1701E-04  0.0244
   4.4623E-01   4.5708E-01   3.1537E-04  0.0242
   4.5708E-01   4.6821E-01   3.0356E-04  0.0243
   4.6821E-01   4.7960E-01   2.8108E-04  0.0250
   4.7960E-01   4.9127E-01   2.7260E-04  0.0251
   4.9127E-01   5.0322E-01   2.6303E-04  0.0252
   5.0322E-01   5.1546E-01   2.5580E-04  0.0253
   5.1546E-01   5.2800E-01   2.5037E-04  0.0252
   5.2800E-01   5.4085E-01   2.3056E-04  0.0260
   5.4085E-01   5.5401E-01   2.1506E-04  0.0266
   5.5401E-01   5.6749E-01   2.0624E-04  0.0268
   5.6749E-01   5.8130E-01   2.0641E-04  0.0265
   5.8130E-01   5.9544E-01   2.0137E-04  0.0265
   5.9544E-01   6.0993E-01   2.0217E-04  0.0261
   6.0993E-01   6.2477E-01   1.8167E-04  0.0272
   6.2477E-01   6.3997E-01   1.7459E-04  0.0275
   6.3997E-01   6.5554E-01   1.6993E-04  0.0275
   6.5554E-01   6.7149E-01   1.6671E-04  0.0274
   6.7149E-01   6.8783E-01   1.5388E-04  0.0282
   6.8783E-01   7.0456E-01   1.4197E-04  0.0290
   7.0456E-01   7.2171E-01   1.4263E-04  0.0286
   7.2171E-01   7.3927E-01   1.4146E-04  0.0284
   7.3927E-01   7.5725E-01   1.3654E-04  0.0285
   7.5725E-01   7.7568E-01   1.3167E-04  0.0287
   7.7568E-01   7.9455E-01   1.3427E-04  0.0281
   7.9455E-01   8.1388E-01   1.2270E-04  0.0290
   8.1388E-01   8.3368E-01   1.1595E-04  0.0295
   8.3368E-01   8.5397E-01   1.1428E-04  0.0294
   8.5397E-01   8.7475E-01   1.0944E-04  0.0297
   8.7475E-01   8.9603E-01   1.0506E-04  0.0299
   8.9603E-01   9.1783E-01   9.7334E-05  0.0307
   9.1783E-01   9.4016E-01   9.8067E-05  0.0302
   9.4016E-01   9.6304E-01   9.9235E-05  0.0297
   9.6304E-01   9.8647E-01   9.2482E-05  0.0304
   9.8647E-01   1.0105E+00   9.4577E-05  0.0297
   1.0105E+00   1.0351E+00   8.9646E-05  0.0301
   1.0351E+00   1.0602E+00   9.5697E-05  0.0288
   1.0602E+00   1.0860E+00   1.0327E-04  0.0274
   1.0860E+00   1.1125E+00   1.0664E-04  0.0267
   1.1125E+00   1.1395E+00   1.1379E-04  0.0255
   1.1395E+00   1.1673E+00   1.1942E-04  0.0246
   1.1673E+00   1.1957E+00   1.2197E-04  0.0240
   1.1957E+00   1.2247E+00   1.2884E-04  0.0231
   1.2247E+00   1.2545E+00   1.3692E-04  0.0221
   1.2545E+00   1.2851E+00   1.3475E-04  0.0220
   1.2851E+00   1.3163E+00   1.3925E-04  0.0214
   1.3163E+00   1.3484E+00   1.5093E-04  0.0203
   1.3484E+00   1.3812E+00   1.6381E-04  0.0193
   1.3812E+00   1.4148E+00   1.6227E-04  0.0192
   1.4148E+00   1.4492E+00   1.6216E-04  0.0189
   1.4492E+00   1.4845E+00   1.6160E-04  0.0187
   1.4845E+00   1.5206E+00   1.7548E-04  0.0178
   1.5206E+00   1.5576E+00   1.7196E-04  0.0177
   1.5576E+00   1.5955E+00   1.7616E-04  0.0173
   1.5955E+00   1.6343E+00   1.8491E-04  0.0167
   1.6343E+00   1.6741E+00   1.9689E-04  0.0160
   1.6741E+00   1.7148E+00   2.0054E-04  0.0157
   1.7148E+00   1.7565E+00   2.0483E-04  0.0153
   1.7565E+00   1.7992E+00   2.0497E-04  0.0151
   1.7992E+00   1.8430E+00   2.0874E-04  0.0148
   1.8430E+00   1.8879E+00   2.1103E-04  0.0145
   1.8879E+00   1.9338E+00   2.1453E-04  0.0142
   1.9338E+00   1.9808E+00   2.1594E-04  0.0140
   1.9808E+00   2.0290E+00   2.2301E-04  0.0136
   2.0290E+00   2.0784E+00   2.1759E-04  0.0136
   2.0784E+00   2.1290E+00   2.1622E-04  0.0135
   2.1290E+00   2.1808E+00   2.1718E-04  0.0133
   2.1808E+00   2.2338E+00   2.1404E-04  0.0133
   2.2338E+00   2.2882E+00   2.1085E-04  0.0132
   2.2882E+00   2.3439E+00   2.1885E-04  0.0128
   2.3439E+00   2.4009E+00   2.2154E-04  0.0126
   2.4009E+00   2.4593E+00   2.1929E-04  0.0125
   2.4593E+00   2.5191E+00   2.1077E-04  0.0126
   2.5191E+00   2.5804E+00   2.0741E-04  0.0125
   2.5804E+00   2.6432E+00   2.0728E-04  0.0124
   2.6432E+00   2.7075E+00   1.9950E-04  0.0125
   2.7075E+00   2.7734E+00   1.9886E-04  0.0124
   2.7734E+00   2.8409E+00   1.9707E-04  0.0123
   2.8409E+00   2.9100E+00   2.0082E-04  0.0120
   2.9100E+00   2.9808E+00   1.9965E-04  0.0119
   2.9808E+00   3.0533E+00   1.9066E-04  0.0120
   3.0533E+00   3.1276E+00   1.8681E-04  0.0120
   3.1276E+00   3.2037E+00   1.7985E-04  0.0121
   3.2037E+00   3.2817E+00   1.7319E-04  0.0122
   3.2817E+00   3.3615E+00   1.6815E-04  0.0122
   3.3615E+00   3.4433E+00   1.6859E-04  0.0120
   3.4433E+00   3.5271E+00   1.6699E-04  0.0120
   3.5271E+00   3.6129E+00   1.6147E-04  0.0120
   3.6129E+00   3.7008E+00   1.5915E-04  0.0120
   3.7008E+00   3.7908E+00   1.5508E-04  0.0120
   3.7908E+00   3.8831E+00   1.5339E-04  0.0119
   3.8831E+00   3.9776E+00   1.5040E-04  0.0119
   3.9776E+00   4.0743E+00   1.4412E-04  0.0120
   4.0743E+00   4.1735E+00   1.3916E-04  0.0120
   4.1735E+00   4.2750E+00   1.3393E-04  0.0121
   4.2750E+00   4.3790E+00   1.3293E-04  0.0120
   4.3790E+00   4.4856E+00   1.2613E-04  0.0122
   4.4856E+00   4.5947E+00   1.2476E-04  0.0121
   4.5947E+00   4.7065E+00   1.2026E-04  0.0122
   4.7065E+00   4.8210E+00   1.1730E-04  0.0122
   4.8210E+00   4.9383E+00   1.1719E-04  0.0121
   4.9383E+00   5.0585E+00   1.1415E-04  0.0121
   5.0585E+00   5.1815E+00   1.1097E-04  0.0121
   5.1815E+00   5.3076E+00   1.0656E-04  0.0122
   5.3076E+00   5.4368E+00   1.0335E-04  0.0122
   5.4368E+00   5.5690E+00   1.0313E-04  0.0121
   5.5690E+00   5.7045E+00   9.8967E-05  0.0122
   5.7045E+00   5.8433E+00   1.0110E-04  0.0119
   5.8433E+00   5.9855E+00   9.6755E-05  0.0121
   5.9855E+00   6.1311E+00   9.5542E-05  0.0120
   6.1311E+00   6.2803E+00   9.6397E-05  0.0118
   6.2803E+00   6.4331E+00   9.3112E-05  0.0119
   6.4331E+00   6.5896E+00   9.1092E-05  0.0118
   6.5896E+00   6.7500E+00   9.2315E-05  0.0116
   6.7500E+00   6.9142E+00   9.0196E-05  0.0116
   6.9142E+00   7.0824E+00   8.7477E-05  0.0117
   7.0824E+00   7.2548E+00   8.8103E-05  0.0115
   7.2548E+00   7.4313E+00   9.0520E-05  0.0112
   7.4313E+00   7.6121E+00   8.6594E-05  0.0113
   7.6121E+00   7.7973E+00   8.5385E-05  0.0112
   7.7973E+00   7.9870E+00   8.5434E-05  0.0111
   7.9870E+00   8.1813E+00   8.6183E-05  0.0109
   8.1813E+00   8.3804E+00   8.4995E-05  0.0109
   8.3804E+00   8.5843E+00   8.6380E-05  0.0107
   8.5843E+00   8.7931E+00   8.5779E-05  0.0106
   8.7931E+00   9.0071E+00   8.5990E-05  0.0104
   9.0071E+00   9.2262E+00   8.6402E-05  0.0103
   9.2262E+00   9.4507E+00   8.5637E-05  0.0102
   9.4507E+00   9.6807E+00   8.5238E-05  0.0101
   9.6807E+00   9.9162E+00   8.5757E-05  0.0099
   9.9162E+00   1.0157E+01   8.5572E-05  0.0098
   1.0157E+01   1.0405E+01   8.5454E-05  0.0097
   1.0405E+01   1.0658E+01   8.4242E-05  0.0097
   1.0658E+01   1.0917E+01   8.6155E-05  0.0095
   1.0917E+01   1.1183E+01   8.6522E-05  0.0093
   1.1183E+01   1.1455E+01   8.6709E-05  0.0092
   1.1455E+01   1.1733E+01   8.7842E-05  0.0090
   1.1733E+01   1.2019E+01   8.5882E-05  0.0090
   1.2019E+01   1.2311E+01   8.5176E-05  0.0090
   1.2311E+01   1.2611E+01   8.5873E-05  0.0088
   1.2611E+01   1.2918E+01   8.6372E-05  0.0087
   1.2918E+01   1.3232E+01   8.5002E-05  0.0087
   1.3232E+01   1.3554E+01   8.5617E-05  0.0085
   1.3554E+01   1.3884E+01   8.4474E-05  0.0085
   1.3884E+01   1.4222E+01   8.4780E-05  0.0084
   1.4222E+01   1.4568E+01   8.4020E-05  0.0083
   1.4568E+01   1.4922E+01   8.4530E-05  0.0082
   1.4922E+01   1.5285E+01   8.3808E-05  0.0081
   1.5285E+01   1.5657E+01   8.2985E-05  0.0081
   1.5657E+01   1.6038E+01   8.2667E-05  0.0080
   1.6038E+01   1.6428E+01   8.1790E-05  0.0079
   1.6428E+01   1.6828E+01   7.9550E-05  0.0079
   1.6828E+01   1.7237E+01   7.8713E-05  0.0079
   1.7237E+01   1.7657E+01   7.7721E-05  0.0078
   1.7657E+01   1.8086E+01   7.6391E-05  0.0078
   1.8086E+01   1.8526E+01   7.6106E-05  0.0077
   1.8526E+01   1.8977E+01   7.3988E-05  0.0077
   1.8977E+01   1.9439E+01   7.2335E-05  0.0077
   1.9439E+01   1.9912E+01   7.0760E-05  0.0077
   1.9912E+01   2.0396E+01   6.2811E-05  0.0081
   2.0396E+01   2.0893E+01   6.1121E-05  0.0081
   2.0893E+01   2.1401E+01   5.9445E-05  0.0081
   2.1401E+01   2.1922E+01   5.7350E-05  0.0082
   2.1922E+01   2.2455E+01   5.4495E-05  0.0083
   2.2455E+01   2.3001E+01   5.2849E-05  0.0083
   2.3001E+01   2.3561E+01   5.0464E-05  0.0084
   2.3561E+01   2.4134E+01   4.7019E-05  0.0086
   2.4134E+01   2.4721E+01   4.5817E-05  0.0086
   2.4721E+01   2.5323E+01   4.2823E-05  0.0088
   2.5323E+01   2.5939E+01   4.0086E-05  0.0090
   2.5939E+01   2.6570E+01   3.8307E-05  0.0091
   2.6570E+01   2.7217E+01   3.5822E-05  0.0093
   2.7217E+01   2.7879E+01   3.4098E-05  0.0094
   2.7879E+01   2.8557E+01   3.2218E-05  0.0096
   2.8557E+01   2.9252E+01   3.0512E-05  0.0097
   2.9252E+01   2.9964E+01   2.7910E-05  0.0100
   2.9964E+01   3.0693E+01   2.6095E-05  0.0103
   3.0693E+01   3.1440E+01   2.4420E-05  0.0105
   3.1440E+01   3.2205E+01   2.2851E-05  0.0107
   3.2205E+01   3.2988E+01   2.1012E-05  0.0110
   3.2988E+01   3.3791E+01   1.9312E-05  0.0114
   3.3791E+01   3.4613E+01   1.7530E-05  0.0118
   3.4613E+01   3.5455E+01   1.6225E-05  0.0121
   3.5455E+01   3.6318E+01   1.4908E-05  0.0125
   3.6318E+01   3.7201E+01   1.3515E-05  0.0129
   3.7201E+01   3.8106E+01   1.2520E-05  0.0133
   3.8106E+01   3.9034E+01   1.1536E-05  0.0137
   3.9034E+01   3.9983E+01   1.0117E-05  0.0144
   3.9983E+01   4.0956E+01   9.3891E-06  0.0148
   4.0956E+01   4.1953E+01   8.4416E-06  0.0154
   4.1953E+01   4.2973E+01   7.3456E-06  0.0163
   4.2973E+01   4.4019E+01   6.5380E-06  0.0171
   4.4019E+01   4.5090E+01   5.5928E-06  0.0183
   4.5090E+01   4.6187E+01   4.6779E-06  0.0197
   4.6187E+01   4.7311E+01   4.0008E-06  0.0211
   4.7311E+01   4.8462E+01   3.3377E-06  0.0228
   4.8462E+01   4.9641E+01   2.8072E-06  0.0246
   4.9641E+01   5.0849E+01   2.3216E-06  0.0267
   5.0849E+01   5.2086E+01   1.9124E-06  0.0291
   5.2086E+01   5.3353E+01   1.4677E-06  0.0328
   5.3353E+01   5.4651E+01   1.0523E-06  0.0383
   5.4651E+01   5.5981E+01   6.8737E-07  0.0468
   5.5981E+01   5.7343E+01   4.1555E-07  0.0594
   5.7343E+01   5.8738E+01   1.6628E-07  0.0928
   5.8738E+01   6.0168E+01   0.0000E+00  0.0000
   6.0168E+01   6.1632E+01   0.0000E+00  0.0000
   6.1632E+01   6.3131E+01   0.0000E+00  0.0000
   6.3131E+01   6.4667E+01   0.0000E+00  0.0000
   6.4667E+01   6.6240E+01   0.0000E+00  0.0000
   6.6240E+01   6.7852E+01   0.0000E+00  0.0000
   6.7852E+01   6.9503E+01   0.0000E+00  0.0000
   6.9503E+01   7.1194E+01   0.0000E+00  0.0000
   7.1194E+01   7.2926E+01   0.0000E+00  0.0000
   7.2926E+01   7.4701E+01   0.0000E+00  0.0000
   7.4701E+01   7.6518E+01   0.0000E+00  0.0000
   7.6518E+01   7.8380E+01   0.0000E+00  0.0000
   7.8380E+01   8.0287E+01   0.0000E+00  0.0000
   8.0287E+01   8.2240E+01   0.0000E+00  0.0000
   8.2240E+01   8.4241E+01   0.0000E+00  0.0000
   8.4241E+01   8.6291E+01   0.0000E+00  0.0000
   8.6291E+01   8.8391E+01   0.0000E+00  0.0000
   8.8391E+01   9.0541E+01   0.0000E+00  0.0000
   9.0541E+01   9.2744E+01   0.0000E+00  0.0000
   9.2744E+01   9.5001E+01   0.0000E+00  0.0000
   9.5001E+01   9.7312E+01   0.0000E+00  0.0000
   9.7312E+01   9.9680E+01   0.0000E+00  0.0000
   9.9680E+01   1.0211E+02   0.0000E+00  0.0000
   1.0211E+02   1.0459E+02   0.0000E+00  0.0000
   1.0459E+02   1.0713E+02   0.0000E+00  0.0000
   1.0713E+02   1.0974E+02   0.0000E+00  0.0000
   1.0974E+02   1.1241E+02   0.0000E+00  0.0000
   1.1241E+02   1.1515E+02   0.0000E+00  0.0000
   1.1515E+02   1.1795E+02   0.0000E+00  0.0000
   1.1795E+02   1.2082E+02   0.0000E+00  0.0000
   1.2082E+02   1.2376E+02   0.0000E+00  0.0000
   1.2376E+02   1.2677E+02   0.0000E+00  0.0000
   1.2677E+02   1.2985E+02   0.0000E+00  0.0000
   1.2985E+02   1.3301E+02   0.0000E+00  0.0000
   1.3301E+02   1.3625E+02   0.0000E+00  0.0000
   1.3625E+02   1.3956E+02   0.0000E+00  0.0000
   1.3956E+02   1.4296E+02   0.0000E+00  0.0000
   1.4296E+02   1.4644E+02   0.0000E+00  0.0000
   1.4644E+02   1.5000E+02   0.0000E+00  0.0000

#   sum over                 2.3287E-05
'no. =    1   reg = 106 - 206'
msuc: {\huge [t-cross] in region mesh}
msdr: {\it plotted by \ANGEL \version}
msdl: {\it calculated by \PHITS  3.26}
wt: s(0.7)
\vspace{-3}
  region surface crossing
  area  &=&   1.0000E+00 [cm^2]
e:
 
# Information for Restart Calculation
# This calculation was newly started
# istdev =  2 # 1:Batch variance, 2:History variance
# resc2  = 5.00000000000000000E+08 # Total source weight or Total source weight / maxcas
# resc3  = 5.00000000000000000E+08 # Total history number or Total batch number
# maxcas =   500000000 # History / Batch, only used for istdev=1
# bitrseed = 1101101111010011011000101101110001100110110010110001010100010001 # bit data of rseed
