[ T-Cross ]
    title = [t-cross] in region mesh
     mesh =  reg            # mesh type is region-wise
      reg =    1            # number of crossing regions
      non     r-from    r-to       area
      1       100       200        1.000000    
   e-type =    3            # e-mesh is log given by emin, emax and ne
     emin =  1.0000000E-02  # minimum value of e-mesh points
     emax =   150.0000      # maximum value of e-mesh points
#    edel =  2.4039514E-02  # mesh width of e-mesh points
       ne =    400          # number of e-mesh points
#    data = ( e(i), i = 1, ne + 1 )
#           1.00000E-02  1.02433E-02  1.04925E-02  1.07478E-02  1.10093E-02
#           1.12772E-02  1.15516E-02  1.18326E-02  1.21205E-02  1.24154E-02
#           1.27175E-02  1.30269E-02  1.33439E-02  1.36686E-02  1.40011E-02
#           1.43418E-02  1.46907E-02  1.50482E-02  1.54143E-02  1.57894E-02
#           1.61735E-02  1.65670E-02  1.69701E-02  1.73830E-02  1.78060E-02
#           1.82392E-02  1.86830E-02  1.91375E-02  1.96032E-02  2.00801E-02
#           2.05687E-02  2.10692E-02  2.15818E-02  2.21069E-02  2.26448E-02
#           2.31957E-02  2.37601E-02  2.43382E-02  2.49304E-02  2.55369E-02
#           2.61583E-02  2.67947E-02  2.74467E-02  2.81145E-02  2.87985E-02
#           2.94992E-02  3.02169E-02  3.09521E-02  3.17052E-02  3.24766E-02
#           3.32668E-02  3.40762E-02  3.49053E-02  3.57546E-02  3.66246E-02
#           3.75157E-02  3.84284E-02  3.93634E-02  4.03212E-02  4.13022E-02
#           4.23071E-02  4.33365E-02  4.43909E-02  4.54710E-02  4.65773E-02
#           4.77106E-02  4.88714E-02  5.00605E-02  5.12785E-02  5.25262E-02
#           5.38042E-02  5.51133E-02  5.64542E-02  5.78278E-02  5.92348E-02
#           6.06760E-02  6.21523E-02  6.36645E-02  6.52135E-02  6.68002E-02
#           6.84255E-02  7.00904E-02  7.17957E-02  7.35426E-02  7.53319E-02
#           7.71648E-02  7.90423E-02  8.09655E-02  8.29354E-02  8.49533E-02
#           8.70203E-02  8.91376E-02  9.13064E-02  9.35279E-02  9.58035E-02
#           9.81345E-02  1.00522E-01  1.02968E-01  1.05473E-01  1.08040E-01
#           1.10668E-01  1.13361E-01  1.16119E-01  1.18944E-01  1.21838E-01
#           1.24803E-01  1.27839E-01  1.30950E-01  1.34136E-01  1.37399E-01
#           1.40742E-01  1.44167E-01  1.47675E-01  1.51268E-01  1.54948E-01
#           1.58718E-01  1.62580E-01  1.66535E-01  1.70587E-01  1.74738E-01
#           1.78989E-01  1.83344E-01  1.87805E-01  1.92375E-01  1.97055E-01
#           2.01850E-01  2.06761E-01  2.11792E-01  2.16945E-01  2.22223E-01
#           2.27630E-01  2.33169E-01  2.38842E-01  2.44653E-01  2.50605E-01
#           2.56703E-01  2.62949E-01  2.69346E-01  2.75900E-01  2.82613E-01
#           2.89489E-01  2.96532E-01  3.03747E-01  3.11138E-01  3.18708E-01
#           3.26462E-01  3.34405E-01  3.42542E-01  3.50876E-01  3.59413E-01
#           3.68158E-01  3.77116E-01  3.86291E-01  3.95690E-01  4.05317E-01
#           4.15179E-01  4.25281E-01  4.35628E-01  4.46227E-01  4.57084E-01
#           4.68205E-01  4.79597E-01  4.91266E-01  5.03219E-01  5.15463E-01
#           5.28005E-01  5.40851E-01  5.54011E-01  5.67490E-01  5.81298E-01
#           5.95441E-01  6.09929E-01  6.24769E-01  6.39970E-01  6.55541E-01
#           6.71491E-01  6.87828E-01  7.04564E-01  7.21706E-01  7.39266E-01
#           7.57253E-01  7.75678E-01  7.94551E-01  8.13883E-01  8.33685E-01
#           8.53969E-01  8.74747E-01  8.96030E-01  9.17831E-01  9.40163E-01
#           9.63038E-01  9.86469E-01  1.01047E+00  1.03506E+00  1.06024E+00
#           1.08604E+00  1.11246E+00  1.13953E+00  1.16725E+00  1.19565E+00
#           1.22474E+00  1.25454E+00  1.28507E+00  1.31633E+00  1.34836E+00
#           1.38117E+00  1.41477E+00  1.44920E+00  1.48446E+00  1.52057E+00
#           1.55757E+00  1.59547E+00  1.63429E+00  1.67405E+00  1.71478E+00
#           1.75650E+00  1.79924E+00  1.84302E+00  1.88786E+00  1.93379E+00
#           1.98084E+00  2.02904E+00  2.07841E+00  2.12898E+00  2.18078E+00
#           2.23384E+00  2.28819E+00  2.34386E+00  2.40089E+00  2.45930E+00
#           2.51914E+00  2.58043E+00  2.64322E+00  2.70753E+00  2.77341E+00
#           2.84088E+00  2.91001E+00  2.98081E+00  3.05333E+00  3.12762E+00
#           3.20372E+00  3.28167E+00  3.36152E+00  3.44330E+00  3.52708E+00
#           3.61290E+00  3.70080E+00  3.79085E+00  3.88308E+00  3.97756E+00
#           4.07434E+00  4.17347E+00  4.27501E+00  4.37903E+00  4.48557E+00
#           4.59471E+00  4.70650E+00  4.82102E+00  4.93832E+00  5.05847E+00
#           5.18155E+00  5.30762E+00  5.43676E+00  5.56904E+00  5.70453E+00
#           5.84333E+00  5.98550E+00  6.13114E+00  6.28031E+00  6.43312E+00
#           6.58964E+00  6.74997E+00  6.91420E+00  7.08243E+00  7.25475E+00
#           7.43126E+00  7.61207E+00  7.79728E+00  7.98700E+00  8.18133E+00
#           8.38038E+00  8.58428E+00  8.79315E+00  9.00709E+00  9.22624E+00
#           9.45072E+00  9.68067E+00  9.91620E+00  1.01575E+01  1.04046E+01
#           1.06578E+01  1.09171E+01  1.11827E+01  1.14548E+01  1.17335E+01
#           1.20190E+01  1.23114E+01  1.26109E+01  1.29178E+01  1.32321E+01
#           1.35540E+01  1.38838E+01  1.42216E+01  1.45676E+01  1.49221E+01
#           1.52851E+01  1.56570E+01  1.60380E+01  1.64282E+01  1.68279E+01
#           1.72374E+01  1.76568E+01  1.80864E+01  1.85264E+01  1.89772E+01
#           1.94389E+01  1.99119E+01  2.03963E+01  2.08926E+01  2.14009E+01
#           2.19216E+01  2.24550E+01  2.30014E+01  2.35610E+01  2.41343E+01
#           2.47215E+01  2.53230E+01  2.59391E+01  2.65702E+01  2.72167E+01
#           2.78789E+01  2.85572E+01  2.92520E+01  2.99637E+01  3.06928E+01
#           3.14396E+01  3.22045E+01  3.29881E+01  3.37907E+01  3.46128E+01
#           3.54550E+01  3.63177E+01  3.72013E+01  3.81064E+01  3.90336E+01
#           3.99833E+01  4.09561E+01  4.19526E+01  4.29734E+01  4.40189E+01
#           4.50900E+01  4.61870E+01  4.73108E+01  4.84619E+01  4.96410E+01
#           5.08488E+01  5.20860E+01  5.33533E+01  5.46514E+01  5.59812E+01
#           5.73432E+01  5.87384E+01  6.01676E+01  6.16315E+01  6.31311E+01
#           6.46671E+01  6.62405E+01  6.78522E+01  6.95031E+01  7.11941E+01
#           7.29263E+01  7.47007E+01  7.65182E+01  7.83800E+01  8.02870E+01
#           8.22405E+01  8.42414E+01  8.62911E+01  8.83906E+01  9.05412E+01
#           9.27442E+01  9.50007E+01  9.73122E+01  9.96799E+01  1.02105E+02
#           1.04589E+02  1.07134E+02  1.09741E+02  1.12411E+02  1.15146E+02
#           1.17948E+02  1.20817E+02  1.23757E+02  1.26768E+02  1.29852E+02
#           1.33012E+02  1.36248E+02  1.39563E+02  1.42959E+02  1.46437E+02
#           1.50000E+02
     unit =    2            # unit is [1/cm^2/(MeV/n)/source]
     axis =  eng            # axis of output
     file = detector-01.out  # file name of output for the above axis
   output = f-curr          # surface crossing forward current spectrum
     part =  neutron  
# kf/name :  2112     
#    used :        main (  %)        temp (  %)       total (  %)
#  memory :         414 (  0)           0 (  0)         414 (  0)

#------------------------------------------------------------------------------
#newpage:
#   no. =    1   reg = 100 - 200

x: Energy [MeV/n]
y:  F-Curr [1/cm^2/(MeV/n)/source]         
p: xlog ylog afac(0.8) form(0.9)
h: n            x            y(neutron ),hh0l   n 
#  e-lower      e-upper      neutron     r.err 
   1.0000E-02   1.0243E-02   1.0686E-03  0.0877
   1.0243E-02   1.0493E-02   1.0111E-03  0.0891
   1.0493E-02   1.0748E-02   1.0106E-03  0.0880
   1.0748E-02   1.1009E-02   1.0937E-03  0.0836
   1.1009E-02   1.1277E-02   1.1648E-03  0.0801
   1.1277E-02   1.1552E-02   9.9860E-04  0.0854
   1.1552E-02   1.1833E-02   9.6065E-04  0.0861
   1.1833E-02   1.2121E-02   1.0351E-03  0.0819
   1.2121E-02   1.2415E-02   9.7659E-04  0.0833
   1.2415E-02   1.2718E-02   9.1367E-04  0.0851
   1.2718E-02   1.3027E-02   9.4368E-04  0.0828
   1.3027E-02   1.3344E-02   7.5720E-04  0.0913
   1.3344E-02   1.3669E-02   9.0554E-04  0.0825
   1.3669E-02   1.4001E-02   8.3592E-04  0.0848
   1.4001E-02   1.4342E-02   8.1607E-04  0.0848
   1.4342E-02   1.4691E-02   8.4253E-04  0.0825
   1.4691E-02   1.5048E-02   9.0645E-04  0.0786
   1.5048E-02   1.5414E-02   7.5928E-04  0.0848
   1.5414E-02   1.5789E-02   1.0239E-03  0.0722
   1.5789E-02   1.6174E-02   6.4035E-04  0.0902
   1.6174E-02   1.6567E-02   7.4203E-04  0.0828
   1.6567E-02   1.6970E-02   7.7898E-04  0.0798
   1.6970E-02   1.7383E-02   7.6532E-04  0.0796
   1.7383E-02   1.7806E-02   6.9040E-04  0.0828
   1.7806E-02   1.8239E-02   6.5092E-04  0.0842
   1.8239E-02   1.8683E-02   6.9405E-04  0.0806
   1.8683E-02   1.9138E-02   6.9076E-04  0.0798
   1.9138E-02   1.9603E-02   7.3019E-04  0.0767
   1.9603E-02   2.0080E-02   6.1221E-04  0.0828
   2.0080E-02   2.0569E-02   7.4094E-04  0.0743
   2.0569E-02   2.1069E-02   6.5940E-04  0.0778
   2.1069E-02   2.1582E-02   6.2423E-04  0.0791
   2.1582E-02   2.2107E-02   6.5130E-04  0.0765
   2.2107E-02   2.2645E-02   6.7302E-04  0.0743
   2.2645E-02   2.3196E-02   5.8806E-04  0.0786
   2.3196E-02   2.3760E-02   5.8118E-04  0.0781
   2.3760E-02   2.4338E-02   5.9505E-04  0.0762
   2.4338E-02   2.4930E-02   4.7959E-04  0.0839
   2.4930E-02   2.5537E-02   5.2096E-04  0.0796
   2.5537E-02   2.6158E-02   5.5043E-04  0.0765
   2.6158E-02   2.6795E-02   4.9650E-04  0.0796
   2.6795E-02   2.7447E-02   4.9085E-04  0.0791
   2.7447E-02   2.8114E-02   4.9416E-04  0.0778
   2.8114E-02   2.8799E-02   5.3505E-04  0.0739
   2.8799E-02   2.9499E-02   5.0522E-04  0.0752
   2.9499E-02   3.0217E-02   5.2108E-04  0.0731
   3.0217E-02   3.0952E-02   4.7062E-04  0.0760
   3.0952E-02   3.1705E-02   4.6475E-04  0.0756
   3.1705E-02   3.2477E-02   3.9408E-04  0.0811
   3.2477E-02   3.3267E-02   4.4800E-04  0.0752
   3.3267E-02   3.4076E-02   4.5712E-04  0.0735
   3.4076E-02   3.4905E-02   4.2697E-04  0.0752
   3.4905E-02   3.5755E-02   4.8041E-04  0.0700
   3.5755E-02   3.6625E-02   4.5980E-04  0.0707
   3.6625E-02   3.7516E-02   3.9726E-04  0.0752
   3.7516E-02   3.8428E-02   4.2726E-04  0.0716
   3.8428E-02   3.9363E-02   3.8075E-04  0.0750
   3.9363E-02   4.0321E-02   3.9677E-04  0.0725
   4.0321E-02   4.1302E-02   3.4657E-04  0.0767
   4.1302E-02   4.2307E-02   4.2193E-04  0.0687
   4.2307E-02   4.3337E-02   3.9442E-04  0.0702
   4.3337E-02   4.4391E-02   3.8505E-04  0.0702
   4.4391E-02   4.5471E-02   3.3331E-04  0.0745
   4.5471E-02   4.6577E-02   3.5974E-04  0.0709
   4.6577E-02   4.7711E-02   3.3355E-04  0.0727
   4.7711E-02   4.8871E-02   3.4286E-04  0.0709
   4.8871E-02   5.0061E-02   3.3976E-04  0.0704
   5.0061E-02   5.1279E-02   3.1691E-04  0.0720
   5.1279E-02   5.2526E-02   3.3984E-04  0.0687
   5.2526E-02   5.3804E-02   3.4116E-04  0.0677
   5.3804E-02   5.5113E-02   2.5514E-04  0.0774
   5.5113E-02   5.6454E-02   2.9382E-04  0.0712
   5.6454E-02   5.7828E-02   3.0723E-04  0.0688
   5.7828E-02   5.9235E-02   2.9424E-04  0.0695
   5.9235E-02   6.0676E-02   3.0946E-04  0.0670
   6.0676E-02   6.2152E-02   2.4114E-04  0.0750
   6.2152E-02   6.3665E-02   2.6054E-04  0.0712
   6.3665E-02   6.5214E-02   2.4274E-04  0.0729
   6.5214E-02   6.6800E-02   2.4201E-04  0.0722
   6.6800E-02   6.8426E-02   2.9164E-04  0.0650
   6.8426E-02   7.0090E-02   2.5588E-04  0.0685
   7.0090E-02   7.1796E-02   2.4746E-04  0.0688
   7.1796E-02   7.3543E-02   2.2097E-04  0.0720
   7.3543E-02   7.5332E-02   2.1349E-04  0.0724
   7.5332E-02   7.7165E-02   2.3897E-04  0.0676
   7.7165E-02   7.9042E-02   2.1092E-04  0.0711
   7.9042E-02   8.0965E-02   2.1735E-04  0.0692
   8.0965E-02   8.2935E-02   2.3757E-04  0.0654
   8.2935E-02   8.4953E-02   2.0021E-04  0.0704
   8.4953E-02   8.7020E-02   2.1094E-04  0.0677
   8.7020E-02   8.9138E-02   1.9553E-04  0.0695
   8.9138E-02   9.1306E-02   2.2409E-04  0.0642
   9.1306E-02   9.3528E-02   1.8726E-04  0.0693
   9.3528E-02   9.5804E-02   1.8544E-04  0.0688
   9.5804E-02   9.8134E-02   1.7589E-04  0.0698
   9.8134E-02   1.0052E-01   1.7506E-04  0.0692
   1.0052E-01   1.0297E-01   1.7091E-04  0.0692
   1.0297E-01   1.0547E-01   1.8042E-04  0.0665
   1.0547E-01   1.0804E-01   1.6990E-04  0.0677
   1.0804E-01   1.1067E-01   1.6662E-04  0.0676
   1.1067E-01   1.1336E-01   1.4855E-04  0.0707
   1.1336E-01   1.1612E-01   1.5590E-04  0.0682
   1.1612E-01   1.1894E-01   1.5361E-04  0.0679
   1.1894E-01   1.2184E-01   1.3476E-04  0.0716
   1.2184E-01   1.2480E-01   1.4910E-04  0.0673
   1.2480E-01   1.2784E-01   1.3502E-04  0.0698
   1.2784E-01   1.3095E-01   1.3181E-04  0.0698
   1.3095E-01   1.3414E-01   1.2178E-04  0.0718
   1.3414E-01   1.3740E-01   1.2685E-04  0.0695
   1.3740E-01   1.4074E-01   1.2504E-04  0.0692
   1.4074E-01   1.4417E-01   1.1447E-04  0.0714
   1.4417E-01   1.4767E-01   1.1917E-04  0.0692
   1.4767E-01   1.5127E-01   1.0353E-04  0.0733
   1.5127E-01   1.5495E-01   1.0162E-04  0.0731
   1.5495E-01   1.5872E-01   9.7082E-05  0.0739
   1.5872E-01   1.6258E-01   1.1083E-04  0.0684
   1.6258E-01   1.6654E-01   1.0112E-04  0.0707
   1.6654E-01   1.7059E-01   9.3289E-05  0.0727
   1.7059E-01   1.7474E-01   1.0119E-04  0.0690
   1.7474E-01   1.7899E-01   9.0321E-05  0.0722
   1.7899E-01   1.8334E-01   9.6901E-05  0.0688
   1.8334E-01   1.8781E-01   7.6218E-05  0.0767
   1.8781E-01   1.9237E-01   8.4036E-05  0.0722
   1.9237E-01   1.9706E-01   8.4604E-05  0.0711
   1.9706E-01   2.0185E-01   7.6754E-05  0.0737
   2.0185E-01   2.0676E-01   7.5746E-05  0.0733
   2.0676E-01   2.1179E-01   7.6729E-05  0.0720
   2.1179E-01   2.1694E-01   6.9085E-05  0.0750
   2.1694E-01   2.2222E-01   7.1991E-05  0.0725
   2.2222E-01   2.2763E-01   6.4363E-05  0.0758
   2.2763E-01   2.3317E-01   6.9695E-05  0.0720
   2.3317E-01   2.3884E-01   5.4643E-05  0.0803
   2.3884E-01   2.4465E-01   6.4358E-05  0.0731
   2.4465E-01   2.5061E-01   6.6526E-05  0.0711
   2.5061E-01   2.5670E-01   5.3137E-05  0.0786
   2.5670E-01   2.6295E-01   5.4757E-05  0.0765
   2.6295E-01   2.6935E-01   5.1581E-05  0.0778
   2.6935E-01   2.7590E-01   5.1576E-05  0.0769
   2.7590E-01   2.8261E-01   5.2437E-05  0.0754
   2.8261E-01   2.8949E-01   3.9266E-05  0.0861
   2.8949E-01   2.9653E-01   5.1679E-05  0.0741
   2.9653E-01   3.0375E-01   3.8532E-05  0.0848
   3.0375E-01   3.1114E-01   4.4382E-05  0.0781
   3.1114E-01   3.1871E-01   4.3856E-05  0.0776
   3.1871E-01   3.2646E-01   3.7914E-05  0.0825
   3.2646E-01   3.3441E-01   4.0287E-05  0.0791
   3.3441E-01   3.4254E-01   3.0481E-05  0.0898
   3.4254E-01   3.5088E-01   3.5276E-05  0.0825
   3.5088E-01   3.5941E-01   3.2564E-05  0.0848
   3.5941E-01   3.6816E-01   3.2019E-05  0.0845
   3.6816E-01   3.7712E-01   2.7016E-05  0.0909
   3.7712E-01   3.8629E-01   2.9971E-05  0.0852
   3.8629E-01   3.9569E-01   2.6386E-05  0.0898
   3.9569E-01   4.0532E-01   2.4513E-05  0.0921
   4.0532E-01   4.1518E-01   2.4134E-05  0.0917
   4.1518E-01   4.2528E-01   2.6530E-05  0.0864
   4.2528E-01   4.3563E-01   2.6287E-05  0.0857
   4.3563E-01   4.4623E-01   2.0756E-05  0.0953
   4.4623E-01   4.5708E-01   2.0816E-05  0.0941
   4.5708E-01   4.6821E-01   2.2480E-05  0.0894
   4.6821E-01   4.7960E-01   2.0717E-05  0.0921
   4.7960E-01   4.9127E-01   1.9539E-05  0.0937
   4.9127E-01   5.0322E-01   1.6398E-05  0.1010
   5.0322E-01   5.1546E-01   1.7152E-05  0.0976
   5.1546E-01   5.2800E-01   1.6585E-05  0.0981
   5.2800E-01   5.4085E-01   1.8059E-05  0.0928
   5.4085E-01   5.5401E-01   2.0214E-05  0.0867
   5.5401E-01   5.6749E-01   1.6618E-05  0.0945
   5.6749E-01   5.8130E-01   1.1298E-05  0.1132
   5.8130E-01   5.9544E-01   1.3858E-05  0.1010
   5.9544E-01   6.0993E-01   1.2701E-05  0.1043
   6.0993E-01   6.2477E-01   1.3342E-05  0.1005
   6.2477E-01   6.3997E-01   1.1447E-05  0.1072
   6.3997E-01   6.5554E-01   1.2331E-05  0.1021
   6.5554E-01   6.7149E-01   1.2289E-05  0.1010
   6.7149E-01   6.8783E-01   1.2609E-05  0.0985
   6.8783E-01   7.0456E-01   9.4411E-06  0.1125
   7.0456E-01   7.2171E-01   1.1200E-05  0.1021
   7.2171E-01   7.3927E-01   1.0023E-05  0.1066
   7.3927E-01   7.5725E-01   9.7849E-06  0.1066
   7.5725E-01   7.7568E-01   7.9242E-06  0.1170
   7.7568E-01   7.9455E-01   9.0076E-06  0.1085
   7.9455E-01   8.1388E-01   7.5522E-06  0.1170
   8.1388E-01   8.3368E-01   7.5748E-06  0.1155
   8.3368E-01   8.5397E-01   6.4089E-06  0.1240
   8.5397E-01   8.7475E-01   7.3155E-06  0.1147
   8.7475E-01   8.9603E-01   7.2357E-06  0.1140
   8.9603E-01   9.1783E-01   7.8895E-06  0.1078
   9.1783E-01   9.4016E-01   7.0752E-06  0.1125
   9.4016E-01   9.6304E-01   6.6448E-06  0.1147
   9.6304E-01   9.8647E-01   6.1456E-06  0.1179
   9.8647E-01   1.0105E+00   5.7496E-06  0.1204
   1.0105E+00   1.0351E+00   7.3214E-06  0.1054
   1.0351E+00   1.0602E+00   7.5445E-06  0.1026
   1.0602E+00   1.0860E+00   7.1328E-06  0.1043
   1.0860E+00   1.1125E+00   7.9473E-06  0.0976
   1.1125E+00   1.1395E+00   7.7585E-06  0.0976
   1.1395E+00   1.1673E+00   8.8005E-06  0.0905
   1.1673E+00   1.1957E+00   9.2957E-06  0.0870
   1.1957E+00   1.2247E+00   9.3499E-06  0.0857
   1.2247E+00   1.2545E+00   1.1343E-05  0.0769
   1.2545E+00   1.2851E+00   9.4352E-06  0.0833
   1.2851E+00   1.3163E+00   1.0810E-05  0.0769
   1.3163E+00   1.3484E+00   1.0991E-05  0.0754
   1.3484E+00   1.3812E+00   1.0547E-05  0.0760
   1.3812E+00   1.4148E+00   1.1248E-05  0.0727
   1.4148E+00   1.4492E+00   1.1795E-05  0.0702
   1.4492E+00   1.4845E+00   1.1061E-05  0.0716
   1.4845E+00   1.5206E+00   1.1518E-05  0.0693
   1.5206E+00   1.5576E+00   1.1893E-05  0.0674
   1.5576E+00   1.5955E+00   1.2402E-05  0.0652
   1.5955E+00   1.6343E+00   1.3344E-05  0.0621
   1.6343E+00   1.6741E+00   1.3932E-05  0.0601
   1.6741E+00   1.7148E+00   1.4338E-05  0.0585
   1.7148E+00   1.7565E+00   1.3997E-05  0.0585
   1.7565E+00   1.7992E+00   1.2355E-05  0.0615
   1.7992E+00   1.8430E+00   1.4620E-05  0.0559
   1.8430E+00   1.8879E+00   1.3336E-05  0.0578
   1.8879E+00   1.9338E+00   1.4543E-05  0.0547
   1.9338E+00   1.9808E+00   1.3985E-05  0.0551
   1.9808E+00   2.0290E+00   1.5396E-05  0.0519
   2.0290E+00   2.0784E+00   1.3734E-05  0.0543
   2.0784E+00   2.1290E+00   1.5029E-05  0.0513
   2.1290E+00   2.1808E+00   1.4981E-05  0.0508
   2.1808E+00   2.2338E+00   1.5492E-05  0.0493
   2.2338E+00   2.2882E+00   1.4057E-05  0.0512
   2.2882E+00   2.3439E+00   1.7567E-05  0.0452
   2.3439E+00   2.4009E+00   1.6027E-05  0.0468
   2.4009E+00   2.4593E+00   1.5475E-05  0.0470
   2.4593E+00   2.5191E+00   1.4606E-05  0.0478
   2.5191E+00   2.5804E+00   1.6185E-05  0.0449
   2.5804E+00   2.6432E+00   1.4430E-05  0.0470
   2.6432E+00   2.7075E+00   1.3186E-05  0.0486
   2.7075E+00   2.7734E+00   1.3571E-05  0.0473
   2.7734E+00   2.8409E+00   1.3397E-05  0.0470
   2.8409E+00   2.9100E+00   1.4062E-05  0.0454
   2.9100E+00   2.9808E+00   1.3870E-05  0.0451
   2.9808E+00   3.0533E+00   1.2685E-05  0.0466
   3.0533E+00   3.1276E+00   1.3407E-05  0.0448
   3.1276E+00   3.2037E+00   1.3220E-05  0.0446
   3.2037E+00   3.2817E+00   1.2983E-05  0.0445
   3.2817E+00   3.3615E+00   1.1622E-05  0.0464
   3.3615E+00   3.4433E+00   1.1102E-05  0.0469
   3.4433E+00   3.5271E+00   1.1387E-05  0.0458
   3.5271E+00   3.6129E+00   1.1583E-05  0.0449
   3.6129E+00   3.7008E+00   1.0853E-05  0.0458
   3.7008E+00   3.7908E+00   1.1406E-05  0.0441
   3.7908E+00   3.8831E+00   1.0018E-05  0.0465
   3.8831E+00   3.9776E+00   9.6318E-06  0.0469
   3.9776E+00   4.0743E+00   9.6510E-06  0.0463
   4.0743E+00   4.1735E+00   1.0693E-05  0.0434
   4.1735E+00   4.2750E+00   9.6116E-06  0.0453
   4.2750E+00   4.3790E+00   8.8257E-06  0.0467
   4.3790E+00   4.4856E+00   8.7850E-06  0.0462
   4.4856E+00   4.5947E+00   8.3931E-06  0.0467
   4.5947E+00   4.7065E+00   8.5873E-06  0.0456
   4.7065E+00   4.8210E+00   7.5275E-06  0.0482
   4.8210E+00   4.9383E+00   8.7639E-06  0.0441
   4.9383E+00   5.0585E+00   7.5737E-06  0.0469
   5.0585E+00   5.1815E+00   7.9138E-06  0.0453
   5.1815E+00   5.3076E+00   7.2340E-06  0.0468
   5.3076E+00   5.4368E+00   7.0002E-06  0.0470
   5.4368E+00   5.5690E+00   7.0759E-06  0.0462
   5.5690E+00   5.7045E+00   7.1144E-06  0.0455
   5.7045E+00   5.8433E+00   7.2769E-06  0.0445
   5.8433E+00   5.9855E+00   7.0759E-06  0.0446
   5.9855E+00   6.1311E+00   7.0040E-06  0.0443
   6.1311E+00   6.2803E+00   6.1136E-06  0.0468
   6.2803E+00   6.4331E+00   6.0731E-06  0.0464
   6.4331E+00   6.5896E+00   6.6700E-06  0.0438
   6.5896E+00   6.7500E+00   6.8234E-06  0.0428
   6.7500E+00   6.9142E+00   6.4421E-06  0.0435
   6.9142E+00   7.0824E+00   6.4317E-06  0.0430
   7.0824E+00   7.2548E+00   6.5343E-06  0.0421
   7.2548E+00   7.4313E+00   6.1638E-06  0.0429
   7.4313E+00   7.6121E+00   5.7851E-06  0.0437
   7.6121E+00   7.7973E+00   6.1337E-06  0.0420
   7.7973E+00   7.9870E+00   6.4413E-06  0.0405
   7.9870E+00   8.1813E+00   6.3706E-06  0.0402
   8.1813E+00   8.3804E+00   6.1490E-06  0.0404
   8.3804E+00   8.5843E+00   6.4982E-06  0.0388
   8.5843E+00   8.7931E+00   6.0758E-06  0.0397
   8.7931E+00   9.0071E+00   6.3521E-06  0.0384
   9.0071E+00   9.2262E+00   6.3655E-06  0.0379
   9.2262E+00   9.4507E+00   6.2945E-06  0.0376
   9.4507E+00   9.6807E+00   6.4625E-06  0.0367
   9.6807E+00   9.9162E+00   6.2283E-06  0.0369
   9.9162E+00   1.0157E+01   6.8223E-06  0.0348
   1.0157E+01   1.0405E+01   6.6683E-06  0.0348
   1.0405E+01   1.0658E+01   6.5297E-06  0.0348
   1.0658E+01   1.0917E+01   6.5982E-06  0.0342
   1.0917E+01   1.1183E+01   7.1493E-06  0.0324
   1.1183E+01   1.1455E+01   7.0787E-06  0.0322
   1.1455E+01   1.1733E+01   7.0541E-06  0.0319
   1.1733E+01   1.2019E+01   7.4750E-06  0.0306
   1.2019E+01   1.2311E+01   7.1880E-06  0.0308
   1.2311E+01   1.2611E+01   7.7284E-06  0.0294
   1.2611E+01   1.2918E+01   7.2058E-06  0.0301
   1.2918E+01   1.3232E+01   8.0305E-06  0.0281
   1.3232E+01   1.3554E+01   7.6441E-06  0.0285
   1.3554E+01   1.3884E+01   8.1994E-06  0.0272
   1.3884E+01   1.4222E+01   8.3273E-06  0.0267
   1.4222E+01   1.4568E+01   8.2509E-06  0.0265
   1.4568E+01   1.4922E+01   8.9352E-06  0.0251
   1.4922E+01   1.5285E+01   8.6926E-06  0.0252
   1.5285E+01   1.5657E+01   9.5241E-06  0.0238
   1.5657E+01   1.6038E+01   9.1561E-06  0.0239
   1.6038E+01   1.6428E+01   9.4819E-06  0.0232
   1.6428E+01   1.6828E+01   9.4768E-06  0.0230
   1.6828E+01   1.7237E+01   9.8159E-06  0.0223
   1.7237E+01   1.7657E+01   1.0196E-05  0.0216
   1.7657E+01   1.8086E+01   1.0014E-05  0.0216
   1.8086E+01   1.8526E+01   1.0605E-05  0.0207
   1.8526E+01   1.8977E+01   1.0622E-05  0.0204
   1.8977E+01   1.9439E+01   1.0192E-05  0.0206
   1.9439E+01   1.9912E+01   1.0975E-05  0.0196
   1.9912E+01   2.0396E+01   1.6174E-05  0.0160
   2.0396E+01   2.0893E+01   1.6902E-05  0.0154
   2.0893E+01   2.1401E+01   1.6690E-05  0.0154
   2.1401E+01   2.1922E+01   1.6578E-05  0.0152
   2.1922E+01   2.2455E+01   1.6525E-05  0.0151
   2.2455E+01   2.3001E+01   1.6118E-05  0.0151
   2.3001E+01   2.3561E+01   1.6114E-05  0.0149
   2.3561E+01   2.4134E+01   1.5229E-05  0.0151
   2.4134E+01   2.4721E+01   1.5289E-05  0.0149
   2.4721E+01   2.5323E+01   1.4600E-05  0.0151
   2.5323E+01   2.5939E+01   1.4117E-05  0.0152
   2.5939E+01   2.6570E+01   1.3680E-05  0.0152
   2.6570E+01   2.7217E+01   1.2619E-05  0.0157
   2.7217E+01   2.7879E+01   1.1966E-05  0.0159
   2.7879E+01   2.8557E+01   1.1349E-05  0.0161
   2.8557E+01   2.9252E+01   1.0207E-05  0.0168
   2.9252E+01   2.9964E+01   9.4924E-06  0.0172
   2.9964E+01   3.0693E+01   8.8143E-06  0.0176
   3.0693E+01   3.1440E+01   8.1122E-06  0.0182
   3.1440E+01   3.2205E+01   7.3417E-06  0.0189
   3.2205E+01   3.2988E+01   6.7308E-06  0.0195
   3.2988E+01   3.3791E+01   6.2470E-06  0.0200
   3.3791E+01   3.4613E+01   5.7264E-06  0.0206
   3.4613E+01   3.5455E+01   5.1392E-06  0.0215
   3.5455E+01   3.6318E+01   4.6438E-06  0.0223
   3.6318E+01   3.7201E+01   4.1193E-06  0.0234
   3.7201E+01   3.8106E+01   3.6923E-06  0.0245
   3.8106E+01   3.9034E+01   3.2443E-06  0.0258
   3.9034E+01   3.9983E+01   2.9883E-06  0.0265
   3.9983E+01   4.0956E+01   2.7651E-06  0.0273
   4.0956E+01   4.1953E+01   2.2519E-06  0.0299
   4.1953E+01   4.2973E+01   1.8261E-06  0.0328
   4.2973E+01   4.4019E+01   1.7311E-06  0.0332
   4.4019E+01   4.5090E+01   1.4173E-06  0.0363
   4.5090E+01   4.6187E+01   1.1777E-06  0.0393
   4.6187E+01   4.7311E+01   9.9131E-07  0.0424
   4.7311E+01   4.8462E+01   8.1313E-07  0.0462
   4.8462E+01   4.9641E+01   7.2088E-07  0.0485
   4.9641E+01   5.0849E+01   5.9115E-07  0.0529
   5.0849E+01   5.2086E+01   4.4779E-07  0.0601
   5.2086E+01   5.3353E+01   3.5982E-07  0.0662
   5.3353E+01   5.4651E+01   2.6192E-07  0.0767
   5.4651E+01   5.5981E+01   1.3838E-07  0.1043
   5.5981E+01   5.7343E+01   8.0760E-08  0.1348
   5.7343E+01   5.8738E+01   2.0069E-08  0.2673
   5.8738E+01   6.0168E+01   0.0000E+00  0.0000
   6.0168E+01   6.1632E+01   0.0000E+00  0.0000
   6.1632E+01   6.3131E+01   0.0000E+00  0.0000
   6.3131E+01   6.4667E+01   0.0000E+00  0.0000
   6.4667E+01   6.6240E+01   0.0000E+00  0.0000
   6.6240E+01   6.7852E+01   0.0000E+00  0.0000
   6.7852E+01   6.9503E+01   0.0000E+00  0.0000
   6.9503E+01   7.1194E+01   0.0000E+00  0.0000
   7.1194E+01   7.2926E+01   0.0000E+00  0.0000
   7.2926E+01   7.4701E+01   0.0000E+00  0.0000
   7.4701E+01   7.6518E+01   0.0000E+00  0.0000
   7.6518E+01   7.8380E+01   0.0000E+00  0.0000
   7.8380E+01   8.0287E+01   0.0000E+00  0.0000
   8.0287E+01   8.2240E+01   0.0000E+00  0.0000
   8.2240E+01   8.4241E+01   0.0000E+00  0.0000
   8.4241E+01   8.6291E+01   0.0000E+00  0.0000
   8.6291E+01   8.8391E+01   0.0000E+00  0.0000
   8.8391E+01   9.0541E+01   0.0000E+00  0.0000
   9.0541E+01   9.2744E+01   0.0000E+00  0.0000
   9.2744E+01   9.5001E+01   0.0000E+00  0.0000
   9.5001E+01   9.7312E+01   0.0000E+00  0.0000
   9.7312E+01   9.9680E+01   0.0000E+00  0.0000
   9.9680E+01   1.0211E+02   0.0000E+00  0.0000
   1.0211E+02   1.0459E+02   0.0000E+00  0.0000
   1.0459E+02   1.0713E+02   0.0000E+00  0.0000
   1.0713E+02   1.0974E+02   0.0000E+00  0.0000
   1.0974E+02   1.1241E+02   0.0000E+00  0.0000
   1.1241E+02   1.1515E+02   0.0000E+00  0.0000
   1.1515E+02   1.1795E+02   0.0000E+00  0.0000
   1.1795E+02   1.2082E+02   0.0000E+00  0.0000
   1.2082E+02   1.2376E+02   0.0000E+00  0.0000
   1.2376E+02   1.2677E+02   0.0000E+00  0.0000
   1.2677E+02   1.2985E+02   0.0000E+00  0.0000
   1.2985E+02   1.3301E+02   0.0000E+00  0.0000
   1.3301E+02   1.3625E+02   0.0000E+00  0.0000
   1.3625E+02   1.3956E+02   0.0000E+00  0.0000
   1.3956E+02   1.4296E+02   0.0000E+00  0.0000
   1.4296E+02   1.4644E+02   0.0000E+00  0.0000
   1.4644E+02   1.5000E+02   0.0000E+00  0.0000

#   sum over                 2.9380E-06
'no. =    1   reg = 100 - 200'
msuc: {\huge [t-cross] in region mesh}
msdr: {\it plotted by \ANGEL \version}
msdl: {\it calculated by \PHITS  3.26}
wt: s(0.7)
\vspace{-3}
  region surface crossing
  area  &=&   1.0000E+00 [cm^2]
e:
 
# Information for Restart Calculation
# This calculation was newly started
# istdev =  2 # 1:Batch variance, 2:History variance
# resc2  = 5.00000000000000000E+08 # Total source weight or Total source weight / maxcas
# resc3  = 5.00000000000000000E+08 # Total history number or Total batch number
# maxcas =   500000000 # History / Batch, only used for istdev=1
# bitrseed = 1101101111010011011000101101110001100110110010110001010100010001 # bit data of rseed
