[ T-Cross ]
    title = [t-cross] in region mesh
     mesh =  reg            # mesh type is region-wise
      reg =    1            # number of crossing regions
      non     r-from    r-to       area
      1       112       212        1.000000    
   e-type =    3            # e-mesh is log given by emin, emax and ne
     emin =  1.0000000E-02  # minimum value of e-mesh points
     emax =   150.0000      # maximum value of e-mesh points
#    edel =  2.4039514E-02  # mesh width of e-mesh points
       ne =    400          # number of e-mesh points
#    data = ( e(i), i = 1, ne + 1 )
#           1.00000E-02  1.02433E-02  1.04925E-02  1.07478E-02  1.10093E-02
#           1.12772E-02  1.15516E-02  1.18326E-02  1.21205E-02  1.24154E-02
#           1.27175E-02  1.30269E-02  1.33439E-02  1.36686E-02  1.40011E-02
#           1.43418E-02  1.46907E-02  1.50482E-02  1.54143E-02  1.57894E-02
#           1.61735E-02  1.65670E-02  1.69701E-02  1.73830E-02  1.78060E-02
#           1.82392E-02  1.86830E-02  1.91375E-02  1.96032E-02  2.00801E-02
#           2.05687E-02  2.10692E-02  2.15818E-02  2.21069E-02  2.26448E-02
#           2.31957E-02  2.37601E-02  2.43382E-02  2.49304E-02  2.55369E-02
#           2.61583E-02  2.67947E-02  2.74467E-02  2.81145E-02  2.87985E-02
#           2.94992E-02  3.02169E-02  3.09521E-02  3.17052E-02  3.24766E-02
#           3.32668E-02  3.40762E-02  3.49053E-02  3.57546E-02  3.66246E-02
#           3.75157E-02  3.84284E-02  3.93634E-02  4.03212E-02  4.13022E-02
#           4.23071E-02  4.33365E-02  4.43909E-02  4.54710E-02  4.65773E-02
#           4.77106E-02  4.88714E-02  5.00605E-02  5.12785E-02  5.25262E-02
#           5.38042E-02  5.51133E-02  5.64542E-02  5.78278E-02  5.92348E-02
#           6.06760E-02  6.21523E-02  6.36645E-02  6.52135E-02  6.68002E-02
#           6.84255E-02  7.00904E-02  7.17957E-02  7.35426E-02  7.53319E-02
#           7.71648E-02  7.90423E-02  8.09655E-02  8.29354E-02  8.49533E-02
#           8.70203E-02  8.91376E-02  9.13064E-02  9.35279E-02  9.58035E-02
#           9.81345E-02  1.00522E-01  1.02968E-01  1.05473E-01  1.08040E-01
#           1.10668E-01  1.13361E-01  1.16119E-01  1.18944E-01  1.21838E-01
#           1.24803E-01  1.27839E-01  1.30950E-01  1.34136E-01  1.37399E-01
#           1.40742E-01  1.44167E-01  1.47675E-01  1.51268E-01  1.54948E-01
#           1.58718E-01  1.62580E-01  1.66535E-01  1.70587E-01  1.74738E-01
#           1.78989E-01  1.83344E-01  1.87805E-01  1.92375E-01  1.97055E-01
#           2.01850E-01  2.06761E-01  2.11792E-01  2.16945E-01  2.22223E-01
#           2.27630E-01  2.33169E-01  2.38842E-01  2.44653E-01  2.50605E-01
#           2.56703E-01  2.62949E-01  2.69346E-01  2.75900E-01  2.82613E-01
#           2.89489E-01  2.96532E-01  3.03747E-01  3.11138E-01  3.18708E-01
#           3.26462E-01  3.34405E-01  3.42542E-01  3.50876E-01  3.59413E-01
#           3.68158E-01  3.77116E-01  3.86291E-01  3.95690E-01  4.05317E-01
#           4.15179E-01  4.25281E-01  4.35628E-01  4.46227E-01  4.57084E-01
#           4.68205E-01  4.79597E-01  4.91266E-01  5.03219E-01  5.15463E-01
#           5.28005E-01  5.40851E-01  5.54011E-01  5.67490E-01  5.81298E-01
#           5.95441E-01  6.09929E-01  6.24769E-01  6.39970E-01  6.55541E-01
#           6.71491E-01  6.87828E-01  7.04564E-01  7.21706E-01  7.39266E-01
#           7.57253E-01  7.75678E-01  7.94551E-01  8.13883E-01  8.33685E-01
#           8.53969E-01  8.74747E-01  8.96030E-01  9.17831E-01  9.40163E-01
#           9.63038E-01  9.86469E-01  1.01047E+00  1.03506E+00  1.06024E+00
#           1.08604E+00  1.11246E+00  1.13953E+00  1.16725E+00  1.19565E+00
#           1.22474E+00  1.25454E+00  1.28507E+00  1.31633E+00  1.34836E+00
#           1.38117E+00  1.41477E+00  1.44920E+00  1.48446E+00  1.52057E+00
#           1.55757E+00  1.59547E+00  1.63429E+00  1.67405E+00  1.71478E+00
#           1.75650E+00  1.79924E+00  1.84302E+00  1.88786E+00  1.93379E+00
#           1.98084E+00  2.02904E+00  2.07841E+00  2.12898E+00  2.18078E+00
#           2.23384E+00  2.28819E+00  2.34386E+00  2.40089E+00  2.45930E+00
#           2.51914E+00  2.58043E+00  2.64322E+00  2.70753E+00  2.77341E+00
#           2.84088E+00  2.91001E+00  2.98081E+00  3.05333E+00  3.12762E+00
#           3.20372E+00  3.28167E+00  3.36152E+00  3.44330E+00  3.52708E+00
#           3.61290E+00  3.70080E+00  3.79085E+00  3.88308E+00  3.97756E+00
#           4.07434E+00  4.17347E+00  4.27501E+00  4.37903E+00  4.48557E+00
#           4.59471E+00  4.70650E+00  4.82102E+00  4.93832E+00  5.05847E+00
#           5.18155E+00  5.30762E+00  5.43676E+00  5.56904E+00  5.70453E+00
#           5.84333E+00  5.98550E+00  6.13114E+00  6.28031E+00  6.43312E+00
#           6.58964E+00  6.74997E+00  6.91420E+00  7.08243E+00  7.25475E+00
#           7.43126E+00  7.61207E+00  7.79728E+00  7.98700E+00  8.18133E+00
#           8.38038E+00  8.58428E+00  8.79315E+00  9.00709E+00  9.22624E+00
#           9.45072E+00  9.68067E+00  9.91620E+00  1.01575E+01  1.04046E+01
#           1.06578E+01  1.09171E+01  1.11827E+01  1.14548E+01  1.17335E+01
#           1.20190E+01  1.23114E+01  1.26109E+01  1.29178E+01  1.32321E+01
#           1.35540E+01  1.38838E+01  1.42216E+01  1.45676E+01  1.49221E+01
#           1.52851E+01  1.56570E+01  1.60380E+01  1.64282E+01  1.68279E+01
#           1.72374E+01  1.76568E+01  1.80864E+01  1.85264E+01  1.89772E+01
#           1.94389E+01  1.99119E+01  2.03963E+01  2.08926E+01  2.14009E+01
#           2.19216E+01  2.24550E+01  2.30014E+01  2.35610E+01  2.41343E+01
#           2.47215E+01  2.53230E+01  2.59391E+01  2.65702E+01  2.72167E+01
#           2.78789E+01  2.85572E+01  2.92520E+01  2.99637E+01  3.06928E+01
#           3.14396E+01  3.22045E+01  3.29881E+01  3.37907E+01  3.46128E+01
#           3.54550E+01  3.63177E+01  3.72013E+01  3.81064E+01  3.90336E+01
#           3.99833E+01  4.09561E+01  4.19526E+01  4.29734E+01  4.40189E+01
#           4.50900E+01  4.61870E+01  4.73108E+01  4.84619E+01  4.96410E+01
#           5.08488E+01  5.20860E+01  5.33533E+01  5.46514E+01  5.59812E+01
#           5.73432E+01  5.87384E+01  6.01676E+01  6.16315E+01  6.31311E+01
#           6.46671E+01  6.62405E+01  6.78522E+01  6.95031E+01  7.11941E+01
#           7.29263E+01  7.47007E+01  7.65182E+01  7.83800E+01  8.02870E+01
#           8.22405E+01  8.42414E+01  8.62911E+01  8.83906E+01  9.05412E+01
#           9.27442E+01  9.50007E+01  9.73122E+01  9.96799E+01  1.02105E+02
#           1.04589E+02  1.07134E+02  1.09741E+02  1.12411E+02  1.15146E+02
#           1.17948E+02  1.20817E+02  1.23757E+02  1.26768E+02  1.29852E+02
#           1.33012E+02  1.36248E+02  1.39563E+02  1.42959E+02  1.46437E+02
#           1.50000E+02
     unit =    2            # unit is [1/cm^2/(MeV/n)/source]
     axis =  eng            # axis of output
     file = detector-13.out  # file name of output for the above axis
   output = f-curr          # surface crossing forward current spectrum
     part =  neutron  
# kf/name :  2112     
#    used :        main (  %)        temp (  %)       total (  %)
#  memory :         414 (  0)           0 (  0)         414 (  0)

#------------------------------------------------------------------------------
#newpage:
#   no. =    1   reg = 112 - 212

x: Energy [MeV/n]
y:  F-Curr [1/cm^2/(MeV/n)/source]         
p: xlog ylog afac(0.8) form(0.9)
h: n            x            y(neutron ),hh0l   n 
#  e-lower      e-upper      neutron     r.err 
   1.0000E-02   1.0243E-02   1.3675E-04  0.0773
   1.0243E-02   1.0493E-02   1.5791E-04  0.0711
   1.0493E-02   1.0748E-02   1.5092E-04  0.0720
   1.0748E-02   1.1009E-02   1.2593E-04  0.0778
   1.1009E-02   1.1277E-02   1.2943E-04  0.0759
   1.1277E-02   1.1552E-02   1.3090E-04  0.0744
   1.1552E-02   1.1833E-02   1.4242E-04  0.0707
   1.1833E-02   1.2121E-02   1.5120E-04  0.0677
   1.2121E-02   1.2415E-02   1.3006E-04  0.0719
   1.2415E-02   1.2718E-02   1.2604E-04  0.0722
   1.2718E-02   1.3027E-02   1.1990E-04  0.0733
   1.3027E-02   1.3344E-02   1.3247E-04  0.0689
   1.3344E-02   1.3669E-02   1.0214E-04  0.0774
   1.3669E-02   1.4001E-02   1.2577E-04  0.0691
   1.4001E-02   1.4342E-02   1.1721E-04  0.0707
   1.4342E-02   1.4691E-02   1.2620E-04  0.0673
   1.4691E-02   1.5048E-02   1.0617E-04  0.0724
   1.5048E-02   1.5414E-02   1.0542E-04  0.0719
   1.5414E-02   1.5789E-02   1.1064E-04  0.0694
   1.5789E-02   1.6174E-02   1.0055E-04  0.0719
   1.6174E-02   1.6567E-02   1.0587E-04  0.0691
   1.6567E-02   1.6970E-02   1.0526E-04  0.0686
   1.6970E-02   1.7383E-02   1.0177E-04  0.0689
   1.7383E-02   1.7806E-02   9.2763E-05  0.0712
   1.7806E-02   1.8239E-02   8.5246E-05  0.0735
   1.8239E-02   1.8683E-02   1.0126E-04  0.0667
   1.8683E-02   1.9138E-02   1.0030E-04  0.0661
   1.9138E-02   1.9603E-02   9.9650E-05  0.0656
   1.9603E-02   2.0080E-02   8.9419E-05  0.0683
   2.0080E-02   2.0569E-02   8.5763E-05  0.0689
   2.0569E-02   2.1069E-02   8.2703E-05  0.0693
   2.1069E-02   2.1582E-02   8.4059E-05  0.0679
   2.1582E-02   2.2107E-02   8.2892E-05  0.0677
   2.2107E-02   2.2645E-02   7.8763E-05  0.0686
   2.2645E-02   2.3196E-02   7.5201E-05  0.0694
   2.3196E-02   2.3760E-02   7.3343E-05  0.0692
   2.3760E-02   2.4338E-02   7.6871E-05  0.0670
   2.4338E-02   2.4930E-02   7.8959E-05  0.0652
   2.4930E-02   2.5537E-02   8.5551E-05  0.0619
   2.5537E-02   2.6158E-02   8.1166E-05  0.0629
   2.6158E-02   2.6795E-02   6.8398E-05  0.0676
   2.6795E-02   2.7447E-02   7.0042E-05  0.0660
   2.7447E-02   2.8114E-02   6.6980E-05  0.0667
   2.8114E-02   2.8799E-02   5.9487E-05  0.0699
   2.8799E-02   2.9499E-02   6.0223E-05  0.0687
   2.9499E-02   3.0217E-02   6.5519E-05  0.0651
   3.0217E-02   3.0952E-02   6.3638E-05  0.0651
   3.0952E-02   3.1705E-02   6.0408E-05  0.0662
   3.1705E-02   3.2477E-02   6.5536E-05  0.0628
   3.2477E-02   3.3267E-02   5.5220E-05  0.0675
   3.3267E-02   3.4076E-02   4.9587E-05  0.0704
   3.4076E-02   3.4905E-02   5.6122E-05  0.0654
   3.4905E-02   3.5755E-02   5.1471E-05  0.0675
   3.5755E-02   3.6625E-02   5.9474E-05  0.0620
   3.6625E-02   3.7516E-02   5.0381E-05  0.0665
   3.7516E-02   3.8428E-02   5.0489E-05  0.0656
   3.8428E-02   3.9363E-02   5.9925E-05  0.0597
   3.9363E-02   4.0321E-02   4.7150E-05  0.0664
   4.0321E-02   4.1302E-02   5.1499E-05  0.0628
   4.1302E-02   4.2307E-02   4.8626E-05  0.0637
   4.2307E-02   4.3337E-02   4.8137E-05  0.0633
   4.3337E-02   4.4391E-02   4.7420E-05  0.0631
   4.4391E-02   4.5471E-02   4.3844E-05  0.0647
   4.5471E-02   4.6577E-02   4.0059E-05  0.0669
   4.6577E-02   4.7711E-02   4.3078E-05  0.0638
   4.7711E-02   4.8871E-02   3.5369E-05  0.0696
   4.8871E-02   5.0061E-02   4.0228E-05  0.0645
   5.0061E-02   5.1279E-02   3.8607E-05  0.0650
   5.1279E-02   5.2526E-02   3.4944E-05  0.0675
   5.2526E-02   5.3804E-02   4.0160E-05  0.0624
   5.3804E-02   5.5113E-02   3.7490E-05  0.0637
   5.5113E-02   5.6454E-02   3.6312E-05  0.0640
   5.6454E-02   5.7828E-02   4.0300E-05  0.0601
   5.7828E-02   5.9235E-02   3.9024E-05  0.0602
   5.9235E-02   6.0676E-02   3.5707E-05  0.0622
   6.0676E-02   6.2152E-02   2.9479E-05  0.0677
   6.2152E-02   6.3665E-02   3.2110E-05  0.0640
   6.3665E-02   6.5214E-02   2.7583E-05  0.0683
   6.5214E-02   6.6800E-02   3.0650E-05  0.0640
   6.6800E-02   6.8426E-02   2.9462E-05  0.0644
   6.8426E-02   7.0090E-02   2.6307E-05  0.0673
   7.0090E-02   7.1796E-02   3.2237E-05  0.0602
   7.1796E-02   7.3543E-02   2.7707E-05  0.0641
   7.3543E-02   7.5332E-02   2.5128E-05  0.0666
   7.5332E-02   7.7165E-02   2.7606E-05  0.0626
   7.7165E-02   7.9042E-02   2.6900E-05  0.0627
   7.9042E-02   8.0965E-02   2.8506E-05  0.0602
   8.0965E-02   8.2935E-02   2.5330E-05  0.0631
   8.2935E-02   8.4953E-02   2.5093E-05  0.0627
   8.4953E-02   8.7020E-02   2.4321E-05  0.0628
   8.7020E-02   8.9138E-02   2.4876E-05  0.0614
   8.9138E-02   9.1306E-02   2.2741E-05  0.0635
   9.1306E-02   9.3528E-02   2.3024E-05  0.0624
   9.3528E-02   9.5804E-02   2.2293E-05  0.0626
   9.5804E-02   9.8134E-02   2.2228E-05  0.0620
   9.8134E-02   1.0052E-01   2.2089E-05  0.0615
   1.0052E-01   1.0297E-01   2.1314E-05  0.0617
   1.0297E-01   1.0547E-01   2.0792E-05  0.0618
   1.0547E-01   1.0804E-01   1.8948E-05  0.0640
   1.0804E-01   1.1067E-01   2.1831E-05  0.0589
   1.1067E-01   1.1336E-01   1.6886E-05  0.0661
   1.1336E-01   1.1612E-01   1.6772E-05  0.0656
   1.1612E-01   1.1894E-01   1.6950E-05  0.0644
   1.1894E-01   1.2184E-01   1.9015E-05  0.0601
   1.2184E-01   1.2480E-01   1.6367E-05  0.0640
   1.2480E-01   1.2784E-01   1.6180E-05  0.0636
   1.2784E-01   1.3095E-01   1.7604E-05  0.0602
   1.3095E-01   1.3414E-01   1.7333E-05  0.0600
   1.3414E-01   1.3740E-01   1.4833E-05  0.0640
   1.3740E-01   1.4074E-01   1.5305E-05  0.0624
   1.4074E-01   1.4417E-01   1.5105E-05  0.0621
   1.4417E-01   1.4767E-01   1.6449E-05  0.0588
   1.4767E-01   1.5127E-01   1.4896E-05  0.0610
   1.5127E-01   1.5495E-01   1.4044E-05  0.0620
   1.5495E-01   1.5872E-01   1.4482E-05  0.0603
   1.5872E-01   1.6258E-01   1.4276E-05  0.0601
   1.6258E-01   1.6654E-01   1.2146E-05  0.0643
   1.6654E-01   1.7059E-01   1.3435E-05  0.0604
   1.7059E-01   1.7474E-01   1.3901E-05  0.0587
   1.7474E-01   1.7899E-01   1.3127E-05  0.0596
   1.7899E-01   1.8334E-01   1.2913E-05  0.0595
   1.8334E-01   1.8781E-01   1.2330E-05  0.0600
   1.8781E-01   1.9237E-01   1.4744E-05  0.0544
   1.9237E-01   1.9706E-01   1.3044E-05  0.0571
   1.9706E-01   2.0185E-01   1.4040E-05  0.0543
   2.0185E-01   2.0676E-01   1.3347E-05  0.0549
   2.0676E-01   2.1179E-01   1.4688E-05  0.0518
   2.1179E-01   2.1694E-01   1.3619E-05  0.0532
   2.1694E-01   2.2222E-01   1.4124E-05  0.0516
   2.2222E-01   2.2763E-01   1.4036E-05  0.0512
   2.2763E-01   2.3317E-01   1.5368E-05  0.0483
   2.3317E-01   2.3884E-01   1.4119E-05  0.0497
   2.3884E-01   2.4465E-01   1.7523E-05  0.0442
   2.4465E-01   2.5061E-01   1.6697E-05  0.0447
   2.5061E-01   2.5670E-01   1.7507E-05  0.0432
   2.5670E-01   2.6295E-01   1.8539E-05  0.0415
   2.6295E-01   2.6935E-01   1.7342E-05  0.0424
   2.6935E-01   2.7590E-01   1.9451E-05  0.0395
   2.7590E-01   2.8261E-01   2.0191E-05  0.0383
   2.8261E-01   2.8949E-01   2.0644E-05  0.0374
   2.8949E-01   2.9653E-01   2.0421E-05  0.0372
   2.9653E-01   3.0375E-01   2.1368E-05  0.0359
   3.0375E-01   3.1114E-01   2.1156E-05  0.0357
   3.1114E-01   3.1871E-01   2.1295E-05  0.0351
   3.1871E-01   3.2646E-01   2.4482E-05  0.0324
   3.2646E-01   3.3441E-01   2.3596E-05  0.0326
   3.3441E-01   3.4254E-01   2.5316E-05  0.0311
   3.4254E-01   3.5088E-01   2.5433E-05  0.0306
   3.5088E-01   3.5941E-01   2.5640E-05  0.0301
   3.5941E-01   3.6816E-01   2.6336E-05  0.0294
   3.6816E-01   3.7712E-01   2.7417E-05  0.0285
   3.7712E-01   3.8629E-01   2.7214E-05  0.0282
   3.8629E-01   3.9569E-01   2.9262E-05  0.0269
   3.9569E-01   4.0532E-01   2.8826E-05  0.0267
   4.0532E-01   4.1518E-01   2.9271E-05  0.0262
   4.1518E-01   4.2528E-01   3.1003E-05  0.0252
   4.2528E-01   4.3563E-01   2.9786E-05  0.0254
   4.3563E-01   4.4623E-01   3.0875E-05  0.0246
   4.4623E-01   4.5708E-01   3.0749E-05  0.0244
   4.5708E-01   4.6821E-01   3.2016E-05  0.0236
   4.6821E-01   4.7960E-01   3.1971E-05  0.0233
   4.7960E-01   4.9127E-01   3.1978E-05  0.0231
   4.9127E-01   5.0322E-01   3.3402E-05  0.0223
   5.0322E-01   5.1546E-01   3.3729E-05  0.0219
   5.1546E-01   5.2800E-01   3.4793E-05  0.0213
   5.2800E-01   5.4085E-01   3.4902E-05  0.0211
   5.4085E-01   5.5401E-01   3.5566E-05  0.0206
   5.5401E-01   5.6749E-01   3.5467E-05  0.0204
   5.6749E-01   5.8130E-01   3.6742E-05  0.0198
   5.8130E-01   5.9544E-01   3.7183E-05  0.0194
   5.9544E-01   6.0993E-01   3.6316E-05  0.0194
   6.0993E-01   6.2477E-01   3.7645E-05  0.0188
   6.2477E-01   6.3997E-01   3.7680E-05  0.0186
   6.3997E-01   6.5554E-01   3.7640E-05  0.0184
   6.5554E-01   6.7149E-01   3.6999E-05  0.0184
   6.7149E-01   6.8783E-01   3.7911E-05  0.0179
   6.8783E-01   7.0456E-01   3.7091E-05  0.0179
   7.0456E-01   7.2171E-01   3.8259E-05  0.0174
   7.2171E-01   7.3927E-01   3.8305E-05  0.0172
   7.3927E-01   7.5725E-01   3.7439E-05  0.0172
   7.5725E-01   7.7568E-01   3.7792E-05  0.0169
   7.7568E-01   7.9455E-01   3.5968E-05  0.0171
   7.9455E-01   8.1388E-01   3.6126E-05  0.0168
   8.1388E-01   8.3368E-01   3.6279E-05  0.0166
   8.3368E-01   8.5397E-01   3.5415E-05  0.0166
   8.5397E-01   8.7475E-01   3.4891E-05  0.0165
   8.7475E-01   8.9603E-01   3.6183E-05  0.0160
   8.9603E-01   9.1783E-01   3.3947E-05  0.0164
   9.1783E-01   9.4016E-01   3.4497E-05  0.0161
   9.4016E-01   9.6304E-01   3.4051E-05  0.0160
   9.6304E-01   9.8647E-01   3.3505E-05  0.0159
   9.8647E-01   1.0105E+00   3.2396E-05  0.0160
   1.0105E+00   1.0351E+00   3.2969E-05  0.0156
   1.0351E+00   1.0602E+00   3.3998E-05  0.0152
   1.0602E+00   1.0860E+00   3.5039E-05  0.0148
   1.0860E+00   1.1125E+00   3.5872E-05  0.0145
   1.1125E+00   1.1395E+00   3.7156E-05  0.0140
   1.1395E+00   1.1673E+00   3.9097E-05  0.0135
   1.1673E+00   1.1957E+00   4.0087E-05  0.0132
   1.1957E+00   1.2247E+00   4.2347E-05  0.0127
   1.2247E+00   1.2545E+00   4.2340E-05  0.0125
   1.2545E+00   1.2851E+00   4.3807E-05  0.0122
   1.2851E+00   1.3163E+00   4.4512E-05  0.0119
   1.3163E+00   1.3484E+00   4.6200E-05  0.0116
   1.3484E+00   1.3812E+00   4.7045E-05  0.0113
   1.3812E+00   1.4148E+00   4.9893E-05  0.0109
   1.4148E+00   1.4492E+00   5.0772E-05  0.0106
   1.4492E+00   1.4845E+00   5.0219E-05  0.0106
   1.4845E+00   1.5206E+00   5.0949E-05  0.0104
   1.5206E+00   1.5576E+00   5.2240E-05  0.0101
   1.5576E+00   1.5955E+00   5.2583E-05  0.0100
   1.5955E+00   1.6343E+00   5.4889E-05  0.0096
   1.6343E+00   1.6741E+00   5.5671E-05  0.0095
   1.6741E+00   1.7148E+00   5.7813E-05  0.0092
   1.7148E+00   1.7565E+00   5.8921E-05  0.0090
   1.7565E+00   1.7992E+00   5.8272E-05  0.0089
   1.7992E+00   1.8430E+00   6.0048E-05  0.0087
   1.8430E+00   1.8879E+00   6.0417E-05  0.0085
   1.8879E+00   1.9338E+00   6.2647E-05  0.0083
   1.9338E+00   1.9808E+00   6.2178E-05  0.0082
   1.9808E+00   2.0290E+00   6.4591E-05  0.0080
   2.0290E+00   2.0784E+00   6.3733E-05  0.0079
   2.0784E+00   2.1290E+00   6.3932E-05  0.0078
   2.1290E+00   2.1808E+00   6.4194E-05  0.0077
   2.1808E+00   2.2338E+00   6.4713E-05  0.0076
   2.2338E+00   2.2882E+00   6.4872E-05  0.0075
   2.2882E+00   2.3439E+00   6.5300E-05  0.0074
   2.3439E+00   2.4009E+00   6.6861E-05  0.0072
   2.4009E+00   2.4593E+00   6.8286E-05  0.0070
   2.4593E+00   2.5191E+00   6.8101E-05  0.0070
   2.5191E+00   2.5804E+00   6.7290E-05  0.0069
   2.5804E+00   2.6432E+00   6.7932E-05  0.0068
   2.6432E+00   2.7075E+00   6.7352E-05  0.0068
   2.7075E+00   2.7734E+00   6.6764E-05  0.0067
   2.7734E+00   2.8409E+00   6.6663E-05  0.0066
   2.8409E+00   2.9100E+00   6.9526E-05  0.0064
   2.9100E+00   2.9808E+00   6.8802E-05  0.0064
   2.9808E+00   3.0533E+00   6.8532E-05  0.0063
   3.0533E+00   3.1276E+00   6.8611E-05  0.0062
   3.1276E+00   3.2037E+00   6.8341E-05  0.0062
   3.2037E+00   3.2817E+00   6.7065E-05  0.0062
   3.2817E+00   3.3615E+00   6.7828E-05  0.0061
   3.3615E+00   3.4433E+00   6.7010E-05  0.0060
   3.4433E+00   3.5271E+00   6.7591E-05  0.0059
   3.5271E+00   3.6129E+00   6.7652E-05  0.0058
   3.6129E+00   3.7008E+00   6.7785E-05  0.0058
   3.7008E+00   3.7908E+00   6.6542E-05  0.0058
   3.7908E+00   3.8831E+00   6.6534E-05  0.0057
   3.8831E+00   3.9776E+00   6.5451E-05  0.0057
   3.9776E+00   4.0743E+00   6.5644E-05  0.0056
   4.0743E+00   4.1735E+00   6.3879E-05  0.0056
   4.1735E+00   4.2750E+00   6.2999E-05  0.0056
   4.2750E+00   4.3790E+00   6.2306E-05  0.0055
   4.3790E+00   4.4856E+00   6.0693E-05  0.0055
   4.4856E+00   4.5947E+00   5.9936E-05  0.0055
   4.5947E+00   4.7065E+00   5.8419E-05  0.0055
   4.7065E+00   4.8210E+00   5.6867E-05  0.0055
   4.8210E+00   4.9383E+00   5.5376E-05  0.0055
   4.9383E+00   5.0585E+00   5.3232E-05  0.0056
   5.0585E+00   5.1815E+00   5.1263E-05  0.0056
   5.1815E+00   5.3076E+00   4.9727E-05  0.0056
   5.3076E+00   5.4368E+00   4.7605E-05  0.0057
   5.4368E+00   5.5690E+00   4.5400E-05  0.0058
   5.5690E+00   5.7045E+00   4.3434E-05  0.0058
   5.7045E+00   5.8433E+00   4.1431E-05  0.0059
   5.8433E+00   5.9855E+00   3.9390E-05  0.0060
   5.9855E+00   6.1311E+00   3.7697E-05  0.0060
   6.1311E+00   6.2803E+00   3.6166E-05  0.0061
   6.2803E+00   6.4331E+00   3.3936E-05  0.0062
   6.4331E+00   6.5896E+00   3.2410E-05  0.0063
   6.5896E+00   6.7500E+00   3.1169E-05  0.0063
   6.7500E+00   6.9142E+00   3.0003E-05  0.0064
   6.9142E+00   7.0824E+00   2.8234E-05  0.0065
   7.0824E+00   7.2548E+00   2.6867E-05  0.0066
   7.2548E+00   7.4313E+00   2.6049E-05  0.0066
   7.4313E+00   7.6121E+00   2.4709E-05  0.0067
   7.6121E+00   7.7973E+00   2.3702E-05  0.0067
   7.7973E+00   7.9870E+00   2.2742E-05  0.0068
   7.9870E+00   8.1813E+00   2.1752E-05  0.0069
   8.1813E+00   8.3804E+00   2.0830E-05  0.0069
   8.3804E+00   8.5843E+00   1.9833E-05  0.0070
   8.5843E+00   8.7931E+00   1.8692E-05  0.0071
   8.7931E+00   9.0071E+00   1.8025E-05  0.0072
   9.0071E+00   9.2262E+00   1.7159E-05  0.0073
   9.2262E+00   9.4507E+00   1.6303E-05  0.0074
   9.4507E+00   9.6807E+00   1.5683E-05  0.0074
   9.6807E+00   9.9162E+00   1.5115E-05  0.0075
   9.9162E+00   1.0157E+01   1.4213E-05  0.0076
   1.0157E+01   1.0405E+01   1.3820E-05  0.0076
   1.0405E+01   1.0658E+01   1.3797E-05  0.0076
   1.0658E+01   1.0917E+01   1.3305E-05  0.0076
   1.0917E+01   1.1183E+01   1.2740E-05  0.0077
   1.1183E+01   1.1455E+01   1.2279E-05  0.0077
   1.1455E+01   1.1733E+01   1.1650E-05  0.0078
   1.1733E+01   1.2019E+01   1.1092E-05  0.0079
   1.2019E+01   1.2311E+01   1.0562E-05  0.0080
   1.2311E+01   1.2611E+01   9.9711E-06  0.0082
   1.2611E+01   1.2918E+01   9.4983E-06  0.0083
   1.2918E+01   1.3232E+01   9.1213E-06  0.0083
   1.3232E+01   1.3554E+01   8.6858E-06  0.0085
   1.3554E+01   1.3884E+01   8.4051E-06  0.0085
   1.3884E+01   1.4222E+01   7.7322E-06  0.0087
   1.4222E+01   1.4568E+01   7.5545E-06  0.0087
   1.4568E+01   1.4922E+01   7.1538E-06  0.0089
   1.4922E+01   1.5285E+01   6.6288E-06  0.0091
   1.5285E+01   1.5657E+01   6.2263E-06  0.0093
   1.5657E+01   1.6038E+01   5.8739E-06  0.0095
   1.6038E+01   1.6428E+01   5.5205E-06  0.0096
   1.6428E+01   1.6828E+01   5.1590E-06  0.0098
   1.6828E+01   1.7237E+01   4.7583E-06  0.0101
   1.7237E+01   1.7657E+01   4.5300E-06  0.0103
   1.7657E+01   1.8086E+01   4.2763E-06  0.0104
   1.8086E+01   1.8526E+01   4.1397E-06  0.0105
   1.8526E+01   1.8977E+01   3.9591E-06  0.0106
   1.8977E+01   1.9439E+01   3.7963E-06  0.0107
   1.9439E+01   1.9912E+01   3.7396E-06  0.0106
   1.9912E+01   2.0396E+01   3.5306E-06  0.0108
   2.0396E+01   2.0893E+01   3.5433E-06  0.0107
   2.0893E+01   2.1401E+01   3.4167E-06  0.0107
   2.1401E+01   2.1922E+01   3.2829E-06  0.0108
   2.1922E+01   2.2455E+01   3.0677E-06  0.0111
   2.2455E+01   2.3001E+01   2.8297E-06  0.0114
   2.3001E+01   2.3561E+01   2.6395E-06  0.0116
   2.3561E+01   2.4134E+01   2.3005E-06  0.0123
   2.4134E+01   2.4721E+01   2.1022E-06  0.0127
   2.4721E+01   2.5323E+01   1.9255E-06  0.0131
   2.5323E+01   2.5939E+01   1.6208E-06  0.0142
   2.5939E+01   2.6570E+01   1.3544E-06  0.0153
   2.6570E+01   2.7217E+01   1.0580E-06  0.0171
   2.7217E+01   2.7879E+01   7.6079E-07  0.0199
   2.7879E+01   2.8557E+01   5.4370E-07  0.0233
   2.8557E+01   2.9252E+01   3.8139E-07  0.0275
   2.9252E+01   2.9964E+01   2.0654E-07  0.0369
   2.9964E+01   3.0693E+01   5.3495E-08  0.0716
   3.0693E+01   3.1440E+01   2.1693E-08  0.1111
   3.1440E+01   3.2205E+01   8.3666E-09  0.1768
   3.2205E+01   3.2988E+01   1.7867E-09  0.3780
   3.2988E+01   3.3791E+01   1.2459E-09  0.4472
   3.3791E+01   3.4613E+01   0.0000E+00  0.0000
   3.4613E+01   3.5455E+01   0.0000E+00  0.0000
   3.5455E+01   3.6318E+01   0.0000E+00  0.0000
   3.6318E+01   3.7201E+01   0.0000E+00  0.0000
   3.7201E+01   3.8106E+01   0.0000E+00  0.0000
   3.8106E+01   3.9034E+01   0.0000E+00  0.0000
   3.9034E+01   3.9983E+01   0.0000E+00  0.0000
   3.9983E+01   4.0956E+01   0.0000E+00  0.0000
   4.0956E+01   4.1953E+01   0.0000E+00  0.0000
   4.1953E+01   4.2973E+01   0.0000E+00  0.0000
   4.2973E+01   4.4019E+01   0.0000E+00  0.0000
   4.4019E+01   4.5090E+01   0.0000E+00  0.0000
   4.5090E+01   4.6187E+01   0.0000E+00  0.0000
   4.6187E+01   4.7311E+01   0.0000E+00  0.0000
   4.7311E+01   4.8462E+01   0.0000E+00  0.0000
   4.8462E+01   4.9641E+01   0.0000E+00  0.0000
   4.9641E+01   5.0849E+01   0.0000E+00  0.0000
   5.0849E+01   5.2086E+01   0.0000E+00  0.0000
   5.2086E+01   5.3353E+01   0.0000E+00  0.0000
   5.3353E+01   5.4651E+01   0.0000E+00  0.0000
   5.4651E+01   5.5981E+01   0.0000E+00  0.0000
   5.5981E+01   5.7343E+01   0.0000E+00  0.0000
   5.7343E+01   5.8738E+01   0.0000E+00  0.0000
   5.8738E+01   6.0168E+01   0.0000E+00  0.0000
   6.0168E+01   6.1632E+01   0.0000E+00  0.0000
   6.1632E+01   6.3131E+01   0.0000E+00  0.0000
   6.3131E+01   6.4667E+01   0.0000E+00  0.0000
   6.4667E+01   6.6240E+01   0.0000E+00  0.0000
   6.6240E+01   6.7852E+01   0.0000E+00  0.0000
   6.7852E+01   6.9503E+01   0.0000E+00  0.0000
   6.9503E+01   7.1194E+01   0.0000E+00  0.0000
   7.1194E+01   7.2926E+01   0.0000E+00  0.0000
   7.2926E+01   7.4701E+01   0.0000E+00  0.0000
   7.4701E+01   7.6518E+01   0.0000E+00  0.0000
   7.6518E+01   7.8380E+01   0.0000E+00  0.0000
   7.8380E+01   8.0287E+01   0.0000E+00  0.0000
   8.0287E+01   8.2240E+01   0.0000E+00  0.0000
   8.2240E+01   8.4241E+01   0.0000E+00  0.0000
   8.4241E+01   8.6291E+01   0.0000E+00  0.0000
   8.6291E+01   8.8391E+01   0.0000E+00  0.0000
   8.8391E+01   9.0541E+01   0.0000E+00  0.0000
   9.0541E+01   9.2744E+01   0.0000E+00  0.0000
   9.2744E+01   9.5001E+01   0.0000E+00  0.0000
   9.5001E+01   9.7312E+01   0.0000E+00  0.0000
   9.7312E+01   9.9680E+01   0.0000E+00  0.0000
   9.9680E+01   1.0211E+02   0.0000E+00  0.0000
   1.0211E+02   1.0459E+02   0.0000E+00  0.0000
   1.0459E+02   1.0713E+02   0.0000E+00  0.0000
   1.0713E+02   1.0974E+02   0.0000E+00  0.0000
   1.0974E+02   1.1241E+02   0.0000E+00  0.0000
   1.1241E+02   1.1515E+02   0.0000E+00  0.0000
   1.1515E+02   1.1795E+02   0.0000E+00  0.0000
   1.1795E+02   1.2082E+02   0.0000E+00  0.0000
   1.2082E+02   1.2376E+02   0.0000E+00  0.0000
   1.2376E+02   1.2677E+02   0.0000E+00  0.0000
   1.2677E+02   1.2985E+02   0.0000E+00  0.0000
   1.2985E+02   1.3301E+02   0.0000E+00  0.0000
   1.3301E+02   1.3625E+02   0.0000E+00  0.0000
   1.3625E+02   1.3956E+02   0.0000E+00  0.0000
   1.3956E+02   1.4296E+02   0.0000E+00  0.0000
   1.4296E+02   1.4644E+02   0.0000E+00  0.0000
   1.4644E+02   1.5000E+02   0.0000E+00  0.0000

#   sum over                 3.3917E-06
'no. =    1   reg = 112 - 212'
msuc: {\huge [t-cross] in region mesh}
msdr: {\it plotted by \ANGEL \version}
msdl: {\it calculated by \PHITS  3.28}
wt: s(0.7)
\vspace{-3}
  region surface crossing
  area  &=&   1.0000E+00 [cm^2]
e:
 
# Information for Restart Calculation
# This calculation was newly started
# istdev =  2 # 1:Batch variance, 2:History variance
# resc2  = 5.00000000000000000E+09 # Total source weight or Total source weight / maxcas
# resc3  = 5.00000000000000000E+09 # Total history number or Total batch number
# maxcas =   500000000 # History / Batch, only used for istdev=1
# bitrseed = 0110100000100010111000001110001111001110100100011111101000111001 # bit data of rseed
