0 <--- number of remaining batches 

-------------------------------------------------------------------------------
bat[      10] ncas =     5000000000.
 bitrseed = 0001011101011011011000011100010110101100100111100111010011101011
          cpu time =  -1.234 s.

 date = 2022-05-28
 time = 18h 08m 07s

