[ T-Cross ]
    title = [t-cross] in region mesh
     mesh =  reg            # mesh type is region-wise
      reg =    1            # number of crossing regions
      non     r-from    r-to       area
      1       125       225        1.000000    
   e-type =    3            # e-mesh is log given by emin, emax and ne
     emin =  1.0000000E-02  # minimum value of e-mesh points
     emax =   150.0000      # maximum value of e-mesh points
#    edel =  2.4039514E-02  # mesh width of e-mesh points
       ne =    400          # number of e-mesh points
#    data = ( e(i), i = 1, ne + 1 )
#           1.00000E-02  1.02433E-02  1.04925E-02  1.07478E-02  1.10093E-02
#           1.12772E-02  1.15516E-02  1.18326E-02  1.21205E-02  1.24154E-02
#           1.27175E-02  1.30269E-02  1.33439E-02  1.36686E-02  1.40011E-02
#           1.43418E-02  1.46907E-02  1.50482E-02  1.54143E-02  1.57894E-02
#           1.61735E-02  1.65670E-02  1.69701E-02  1.73830E-02  1.78060E-02
#           1.82392E-02  1.86830E-02  1.91375E-02  1.96032E-02  2.00801E-02
#           2.05687E-02  2.10692E-02  2.15818E-02  2.21069E-02  2.26448E-02
#           2.31957E-02  2.37601E-02  2.43382E-02  2.49304E-02  2.55369E-02
#           2.61583E-02  2.67947E-02  2.74467E-02  2.81145E-02  2.87985E-02
#           2.94992E-02  3.02169E-02  3.09521E-02  3.17052E-02  3.24766E-02
#           3.32668E-02  3.40762E-02  3.49053E-02  3.57546E-02  3.66246E-02
#           3.75157E-02  3.84284E-02  3.93634E-02  4.03212E-02  4.13022E-02
#           4.23071E-02  4.33365E-02  4.43909E-02  4.54710E-02  4.65773E-02
#           4.77106E-02  4.88714E-02  5.00605E-02  5.12785E-02  5.25262E-02
#           5.38042E-02  5.51133E-02  5.64542E-02  5.78278E-02  5.92348E-02
#           6.06760E-02  6.21523E-02  6.36645E-02  6.52135E-02  6.68002E-02
#           6.84255E-02  7.00904E-02  7.17957E-02  7.35426E-02  7.53319E-02
#           7.71648E-02  7.90423E-02  8.09655E-02  8.29354E-02  8.49533E-02
#           8.70203E-02  8.91376E-02  9.13064E-02  9.35279E-02  9.58035E-02
#           9.81345E-02  1.00522E-01  1.02968E-01  1.05473E-01  1.08040E-01
#           1.10668E-01  1.13361E-01  1.16119E-01  1.18944E-01  1.21838E-01
#           1.24803E-01  1.27839E-01  1.30950E-01  1.34136E-01  1.37399E-01
#           1.40742E-01  1.44167E-01  1.47675E-01  1.51268E-01  1.54948E-01
#           1.58718E-01  1.62580E-01  1.66535E-01  1.70587E-01  1.74738E-01
#           1.78989E-01  1.83344E-01  1.87805E-01  1.92375E-01  1.97055E-01
#           2.01850E-01  2.06761E-01  2.11792E-01  2.16945E-01  2.22223E-01
#           2.27630E-01  2.33169E-01  2.38842E-01  2.44653E-01  2.50605E-01
#           2.56703E-01  2.62949E-01  2.69346E-01  2.75900E-01  2.82613E-01
#           2.89489E-01  2.96532E-01  3.03747E-01  3.11138E-01  3.18708E-01
#           3.26462E-01  3.34405E-01  3.42542E-01  3.50876E-01  3.59413E-01
#           3.68158E-01  3.77116E-01  3.86291E-01  3.95690E-01  4.05317E-01
#           4.15179E-01  4.25281E-01  4.35628E-01  4.46227E-01  4.57084E-01
#           4.68205E-01  4.79597E-01  4.91266E-01  5.03219E-01  5.15463E-01
#           5.28005E-01  5.40851E-01  5.54011E-01  5.67490E-01  5.81298E-01
#           5.95441E-01  6.09929E-01  6.24769E-01  6.39970E-01  6.55541E-01
#           6.71491E-01  6.87828E-01  7.04564E-01  7.21706E-01  7.39266E-01
#           7.57253E-01  7.75678E-01  7.94551E-01  8.13883E-01  8.33685E-01
#           8.53969E-01  8.74747E-01  8.96030E-01  9.17831E-01  9.40163E-01
#           9.63038E-01  9.86469E-01  1.01047E+00  1.03506E+00  1.06024E+00
#           1.08604E+00  1.11246E+00  1.13953E+00  1.16725E+00  1.19565E+00
#           1.22474E+00  1.25454E+00  1.28507E+00  1.31633E+00  1.34836E+00
#           1.38117E+00  1.41477E+00  1.44920E+00  1.48446E+00  1.52057E+00
#           1.55757E+00  1.59547E+00  1.63429E+00  1.67405E+00  1.71478E+00
#           1.75650E+00  1.79924E+00  1.84302E+00  1.88786E+00  1.93379E+00
#           1.98084E+00  2.02904E+00  2.07841E+00  2.12898E+00  2.18078E+00
#           2.23384E+00  2.28819E+00  2.34386E+00  2.40089E+00  2.45930E+00
#           2.51914E+00  2.58043E+00  2.64322E+00  2.70753E+00  2.77341E+00
#           2.84088E+00  2.91001E+00  2.98081E+00  3.05333E+00  3.12762E+00
#           3.20372E+00  3.28167E+00  3.36152E+00  3.44330E+00  3.52708E+00
#           3.61290E+00  3.70080E+00  3.79085E+00  3.88308E+00  3.97756E+00
#           4.07434E+00  4.17347E+00  4.27501E+00  4.37903E+00  4.48557E+00
#           4.59471E+00  4.70650E+00  4.82102E+00  4.93832E+00  5.05847E+00
#           5.18155E+00  5.30762E+00  5.43676E+00  5.56904E+00  5.70453E+00
#           5.84333E+00  5.98550E+00  6.13114E+00  6.28031E+00  6.43312E+00
#           6.58964E+00  6.74997E+00  6.91420E+00  7.08243E+00  7.25475E+00
#           7.43126E+00  7.61207E+00  7.79728E+00  7.98700E+00  8.18133E+00
#           8.38038E+00  8.58428E+00  8.79315E+00  9.00709E+00  9.22624E+00
#           9.45072E+00  9.68067E+00  9.91620E+00  1.01575E+01  1.04046E+01
#           1.06578E+01  1.09171E+01  1.11827E+01  1.14548E+01  1.17335E+01
#           1.20190E+01  1.23114E+01  1.26109E+01  1.29178E+01  1.32321E+01
#           1.35540E+01  1.38838E+01  1.42216E+01  1.45676E+01  1.49221E+01
#           1.52851E+01  1.56570E+01  1.60380E+01  1.64282E+01  1.68279E+01
#           1.72374E+01  1.76568E+01  1.80864E+01  1.85264E+01  1.89772E+01
#           1.94389E+01  1.99119E+01  2.03963E+01  2.08926E+01  2.14009E+01
#           2.19216E+01  2.24550E+01  2.30014E+01  2.35610E+01  2.41343E+01
#           2.47215E+01  2.53230E+01  2.59391E+01  2.65702E+01  2.72167E+01
#           2.78789E+01  2.85572E+01  2.92520E+01  2.99637E+01  3.06928E+01
#           3.14396E+01  3.22045E+01  3.29881E+01  3.37907E+01  3.46128E+01
#           3.54550E+01  3.63177E+01  3.72013E+01  3.81064E+01  3.90336E+01
#           3.99833E+01  4.09561E+01  4.19526E+01  4.29734E+01  4.40189E+01
#           4.50900E+01  4.61870E+01  4.73108E+01  4.84619E+01  4.96410E+01
#           5.08488E+01  5.20860E+01  5.33533E+01  5.46514E+01  5.59812E+01
#           5.73432E+01  5.87384E+01  6.01676E+01  6.16315E+01  6.31311E+01
#           6.46671E+01  6.62405E+01  6.78522E+01  6.95031E+01  7.11941E+01
#           7.29263E+01  7.47007E+01  7.65182E+01  7.83800E+01  8.02870E+01
#           8.22405E+01  8.42414E+01  8.62911E+01  8.83906E+01  9.05412E+01
#           9.27442E+01  9.50007E+01  9.73122E+01  9.96799E+01  1.02105E+02
#           1.04589E+02  1.07134E+02  1.09741E+02  1.12411E+02  1.15146E+02
#           1.17948E+02  1.20817E+02  1.23757E+02  1.26768E+02  1.29852E+02
#           1.33012E+02  1.36248E+02  1.39563E+02  1.42959E+02  1.46437E+02
#           1.50000E+02
     unit =    2            # unit is [1/cm^2/(MeV/n)/source]
     axis =  eng            # axis of output
     file = detector-26.out  # file name of output for the above axis
   output = f-curr          # surface crossing forward current spectrum
     part =  neutron  
# kf/name :  2112     
#    used :        main (  %)        temp (  %)       total (  %)
#  memory :         414 (  0)           0 (  0)         414 (  0)

#------------------------------------------------------------------------------
#newpage:
#   no. =    1   reg = 125 - 225

x: Energy [MeV/n]
y:  F-Curr [1/cm^2/(MeV/n)/source]         
p: xlog ylog afac(0.8) form(0.9)
h: n            x            y(neutron ),hh0l   n 
#  e-lower      e-upper      neutron     r.err 
   1.0000E-02   1.0243E-02   4.0278E-04  0.1429
   1.0243E-02   1.0493E-02   4.3334E-04  0.1361
   1.0493E-02   1.0748E-02   3.9954E-04  0.1400
   1.0748E-02   1.1009E-02   3.5181E-04  0.1474
   1.1009E-02   1.1277E-02   3.8079E-04  0.1400
   1.1277E-02   1.1552E-02   3.6445E-04  0.1414
   1.1552E-02   1.1833E-02   4.7677E-04  0.1222
   1.1833E-02   1.2121E-02   3.8208E-04  0.1348
   1.2121E-02   1.2415E-02   4.7473E-04  0.1195
   1.2415E-02   1.2718E-02   3.9725E-04  0.1291
   1.2718E-02   1.3027E-02   5.4294E-04  0.1091
   1.3027E-02   1.3344E-02   4.2908E-04  0.1213
   1.3344E-02   1.3669E-02   5.1129E-04  0.1098
   1.3669E-02   1.4001E-02   4.6306E-04  0.1140
   1.4001E-02   1.4342E-02   4.6968E-04  0.1118
   1.4342E-02   1.4691E-02   4.5852E-04  0.1118
   1.4691E-02   1.5048E-02   4.9239E-04  0.1066
   1.5048E-02   1.5414E-02   5.2986E-04  0.1015
   1.5414E-02   1.5789E-02   4.7995E-04  0.1054
   1.5789E-02   1.6174E-02   5.3622E-04  0.0985
   1.6174E-02   1.6567E-02   5.1841E-04  0.0990
   1.6567E-02   1.6970E-02   4.4655E-04  0.1054
   1.6970E-02   1.7383E-02   4.1657E-04  0.1078
   1.7383E-02   1.7806E-02   4.2559E-04  0.1054
   1.7806E-02   1.8239E-02   4.9396E-04  0.0967
   1.8239E-02   1.8683E-02   5.3180E-04  0.0921
   1.8683E-02   1.9138E-02   5.1917E-04  0.0921
   1.9138E-02   1.9603E-02   5.6268E-04  0.0874
   1.9603E-02   2.0080E-02   5.4931E-04  0.0874
   2.0080E-02   2.0569E-02   5.1170E-04  0.0894
   2.0569E-02   2.1069E-02   4.8356E-04  0.0909
   2.1069E-02   2.1582E-02   5.8132E-04  0.0819
   2.1582E-02   2.2107E-02   4.9514E-04  0.0877
   2.2107E-02   2.2645E-02   5.2056E-04  0.0845
   2.2645E-02   2.3196E-02   4.9005E-04  0.0861
   2.3196E-02   2.3760E-02   5.9181E-04  0.0774
   2.3760E-02   2.4338E-02   5.1548E-04  0.0819
   2.4338E-02   2.4930E-02   6.0456E-04  0.0747
   2.4930E-02   2.5537E-02   5.8031E-04  0.0754
   2.5537E-02   2.6158E-02   5.4399E-04  0.0769
   2.6158E-02   2.6795E-02   5.4364E-04  0.0760
   2.6795E-02   2.7447E-02   6.8412E-04  0.0670
   2.7447E-02   2.8114E-02   5.8101E-04  0.0718
   2.8114E-02   2.8799E-02   6.3738E-04  0.0677
   2.8799E-02   2.9499E-02   5.3947E-04  0.0727
   2.9499E-02   3.0217E-02   5.9353E-04  0.0685
   3.0217E-02   3.0952E-02   5.8487E-04  0.0682
   3.0952E-02   3.1705E-02   6.2675E-04  0.0651
   3.1705E-02   3.2477E-02   5.4705E-04  0.0688
   3.2477E-02   3.3267E-02   6.0239E-04  0.0648
   3.3267E-02   3.4076E-02   6.9186E-04  0.0598
   3.4076E-02   3.4905E-02   6.8267E-04  0.0594
   3.4905E-02   3.5755E-02   5.8638E-04  0.0634
   3.5755E-02   3.6625E-02   6.3223E-04  0.0603
   3.6625E-02   3.7516E-02   6.2619E-04  0.0599
   3.7516E-02   3.8428E-02   5.8283E-04  0.0613
   3.8428E-02   3.9363E-02   6.3958E-04  0.0578
   3.9363E-02   4.0321E-02   6.5780E-04  0.0563
   4.0321E-02   4.1302E-02   6.2179E-04  0.0573
   4.1302E-02   4.2307E-02   5.9308E-04  0.0579
   4.2307E-02   4.3337E-02   6.8003E-04  0.0535
   4.3337E-02   4.4391E-02   7.0940E-04  0.0517
   4.4391E-02   4.5471E-02   6.5737E-04  0.0531
   4.5471E-02   4.6577E-02   6.3271E-04  0.0535
   4.6577E-02   4.7711E-02   7.2181E-04  0.0494
   4.7711E-02   4.8871E-02   6.9260E-04  0.0499
   4.8871E-02   5.0061E-02   6.6270E-04  0.0504
   5.0061E-02   5.1279E-02   6.5845E-04  0.0499
   5.1279E-02   5.2526E-02   7.7426E-04  0.0455
   5.2526E-02   5.3804E-02   6.8544E-04  0.0478
   5.3804E-02   5.5113E-02   6.8902E-04  0.0471
   5.5113E-02   5.6454E-02   7.0100E-04  0.0461
   5.6454E-02   5.7828E-02   7.1638E-04  0.0451
   5.7828E-02   5.9235E-02   7.9318E-04  0.0423
   5.9235E-02   6.0676E-02   7.3548E-04  0.0434
   6.0676E-02   6.2152E-02   7.4240E-04  0.0427
   6.2152E-02   6.3665E-02   7.3931E-04  0.0423
   6.3665E-02   6.5214E-02   8.1471E-04  0.0398
   6.5214E-02   6.6800E-02   7.2604E-04  0.0417
   6.6800E-02   6.8426E-02   7.0264E-04  0.0418
   6.8426E-02   7.0090E-02   6.9316E-04  0.0416
   7.0090E-02   7.1796E-02   7.9866E-04  0.0383
   7.1796E-02   7.3543E-02   7.4305E-04  0.0393
   7.3543E-02   7.5332E-02   7.2987E-04  0.0391
   7.5332E-02   7.7165E-02   7.8456E-04  0.0373
   7.7165E-02   7.9042E-02   7.2651E-04  0.0383
   7.9042E-02   8.0965E-02   7.7581E-04  0.0366
   8.0965E-02   8.2935E-02   7.6042E-04  0.0365
   8.2935E-02   8.4953E-02   7.4732E-04  0.0364
   8.4953E-02   8.7020E-02   7.8278E-04  0.0352
   8.7020E-02   8.9138E-02   7.9725E-04  0.0344
   8.9138E-02   9.1306E-02   8.0045E-04  0.0339
   9.1306E-02   9.3528E-02   7.8143E-04  0.0339
   9.3528E-02   9.5804E-02   8.3143E-04  0.0325
   9.5804E-02   9.8134E-02   7.6020E-04  0.0336
   9.8134E-02   1.0052E-01   7.7732E-04  0.0328
   1.0052E-01   1.0297E-01   8.3899E-04  0.0312
   1.0297E-01   1.0547E-01   8.0390E-04  0.0315
   1.0547E-01   1.0804E-01   8.5728E-04  0.0302
   1.0804E-01   1.1067E-01   8.4301E-04  0.0300
   1.1067E-01   1.1336E-01   8.6012E-04  0.0294
   1.1336E-01   1.1612E-01   8.3389E-04  0.0295
   1.1612E-01   1.1894E-01   8.1550E-04  0.0295
   1.1894E-01   1.2184E-01   8.7906E-04  0.0280
   1.2184E-01   1.2480E-01   8.7639E-04  0.0277
   1.2480E-01   1.2784E-01   8.5426E-04  0.0278
   1.2784E-01   1.3095E-01   8.6869E-04  0.0272
   1.3095E-01   1.3414E-01   8.6626E-04  0.0269
   1.3414E-01   1.3740E-01   8.8858E-04  0.0263
   1.3740E-01   1.4074E-01   8.5252E-04  0.0265
   1.4074E-01   1.4417E-01   8.6848E-04  0.0259
   1.4417E-01   1.4767E-01   8.6039E-04  0.0257
   1.4767E-01   1.5127E-01   8.7781E-04  0.0252
   1.5127E-01   1.5495E-01   8.6620E-04  0.0251
   1.5495E-01   1.5872E-01   8.5888E-04  0.0249
   1.5872E-01   1.6258E-01   8.8302E-04  0.0242
   1.6258E-01   1.6654E-01   8.6205E-04  0.0242
   1.6654E-01   1.7059E-01   8.4700E-04  0.0241
   1.7059E-01   1.7474E-01   9.1314E-04  0.0230
   1.7474E-01   1.7899E-01   8.8863E-04  0.0230
   1.7899E-01   1.8334E-01   8.8589E-04  0.0228
   1.8334E-01   1.8781E-01   8.5902E-04  0.0228
   1.8781E-01   1.9237E-01   8.7363E-04  0.0224
   1.9237E-01   1.9706E-01   8.9005E-04  0.0219
   1.9706E-01   2.0185E-01   8.8142E-04  0.0218
   2.0185E-01   2.0676E-01   8.3280E-04  0.0221
   2.0676E-01   2.1179E-01   8.8140E-04  0.0212
   2.1179E-01   2.1694E-01   8.4688E-04  0.0214
   2.1694E-01   2.2222E-01   8.6427E-04  0.0209
   2.2222E-01   2.2763E-01   8.6224E-04  0.0207
   2.2763E-01   2.3317E-01   8.9340E-04  0.0201
   2.3317E-01   2.3884E-01   8.5032E-04  0.0204
   2.3884E-01   2.4465E-01   8.5834E-04  0.0200
   2.4465E-01   2.5061E-01   8.2619E-04  0.0202
   2.5061E-01   2.5670E-01   8.2887E-04  0.0199
   2.5670E-01   2.6295E-01   8.6266E-04  0.0193
   2.6295E-01   2.6935E-01   8.5593E-04  0.0191
   2.6935E-01   2.7590E-01   8.5269E-04  0.0189
   2.7590E-01   2.8261E-01   8.3452E-04  0.0189
   2.8261E-01   2.8949E-01   8.5396E-04  0.0185
   2.8949E-01   2.9653E-01   8.4504E-04  0.0183
   2.9653E-01   3.0375E-01   8.4742E-04  0.0181
   3.0375E-01   3.1114E-01   8.4515E-04  0.0179
   3.1114E-01   3.1871E-01   8.3168E-04  0.0178
   3.1871E-01   3.2646E-01   8.1038E-04  0.0178
   3.2646E-01   3.3441E-01   7.7250E-04  0.0181
   3.3441E-01   3.4254E-01   8.5468E-04  0.0170
   3.4254E-01   3.5088E-01   8.2046E-04  0.0171
   3.5088E-01   3.5941E-01   7.8340E-04  0.0173
   3.5941E-01   3.6816E-01   7.9521E-04  0.0170
   3.6816E-01   3.7712E-01   7.5779E-04  0.0172
   3.7712E-01   3.8629E-01   7.9015E-04  0.0166
   3.8629E-01   3.9569E-01   7.8117E-04  0.0165
   3.9569E-01   4.0532E-01   7.7258E-04  0.0164
   4.0532E-01   4.1518E-01   7.6437E-04  0.0163
   4.1518E-01   4.2528E-01   7.4206E-04  0.0163
   4.2528E-01   4.3563E-01   7.3448E-04  0.0162
   4.3563E-01   4.4623E-01   7.3383E-04  0.0160
   4.4623E-01   4.5708E-01   7.2303E-04  0.0160
   4.5708E-01   4.6821E-01   7.1539E-04  0.0159
   4.6821E-01   4.7960E-01   6.9278E-04  0.0159
   4.7960E-01   4.9127E-01   7.0683E-04  0.0156
   4.9127E-01   5.0322E-01   6.9205E-04  0.0155
   5.0322E-01   5.1546E-01   6.7577E-04  0.0155
   5.1546E-01   5.2800E-01   6.6562E-04  0.0155
   5.2800E-01   5.4085E-01   6.6468E-04  0.0153
   5.4085E-01   5.5401E-01   6.4061E-04  0.0154
   5.5401E-01   5.6749E-01   6.3029E-04  0.0153
   5.6749E-01   5.8130E-01   6.4400E-04  0.0150
   5.8130E-01   5.9544E-01   6.0466E-04  0.0153
   5.9544E-01   6.0993E-01   6.0190E-04  0.0151
   6.0993E-01   6.2477E-01   5.9676E-04  0.0150
   6.2477E-01   6.3997E-01   5.6022E-04  0.0153
   6.3997E-01   6.5554E-01   5.6426E-04  0.0151
   6.5554E-01   6.7149E-01   5.4684E-04  0.0151
   6.7149E-01   6.8783E-01   5.2883E-04  0.0152
   6.8783E-01   7.0456E-01   5.1794E-04  0.0152
   7.0456E-01   7.2171E-01   5.1766E-04  0.0150
   7.2171E-01   7.3927E-01   4.8361E-04  0.0153
   7.3927E-01   7.5725E-01   4.6967E-04  0.0154
   7.5725E-01   7.7568E-01   4.6612E-04  0.0153
   7.7568E-01   7.9455E-01   4.5971E-04  0.0152
   7.9455E-01   8.1388E-01   4.3648E-04  0.0154
   8.1388E-01   8.3368E-01   4.1248E-04  0.0156
   8.3368E-01   8.5397E-01   3.9992E-04  0.0157
   8.5397E-01   8.7475E-01   3.8493E-04  0.0158
   8.7475E-01   8.9603E-01   3.6169E-04  0.0161
   8.9603E-01   9.1783E-01   3.6640E-04  0.0158
   9.1783E-01   9.4016E-01   3.5009E-04  0.0160
   9.4016E-01   9.6304E-01   3.2796E-04  0.0163
   9.6304E-01   9.8647E-01   3.0668E-04  0.0167
   9.8647E-01   1.0105E+00   2.8481E-04  0.0171
   1.0105E+00   1.0351E+00   2.9847E-04  0.0165
   1.0351E+00   1.0602E+00   2.8717E-04  0.0166
   1.0602E+00   1.0860E+00   2.9314E-04  0.0163
   1.0860E+00   1.1125E+00   2.9216E-04  0.0161
   1.1125E+00   1.1395E+00   2.8758E-04  0.0160
   1.1395E+00   1.1673E+00   2.9323E-04  0.0157
   1.1673E+00   1.1957E+00   3.0831E-04  0.0151
   1.1957E+00   1.2247E+00   3.0332E-04  0.0151
   1.2247E+00   1.2545E+00   2.9753E-04  0.0150
   1.2545E+00   1.2851E+00   2.9963E-04  0.0148
   1.2851E+00   1.3163E+00   3.0288E-04  0.0145
   1.3163E+00   1.3484E+00   3.0324E-04  0.0144
   1.3484E+00   1.3812E+00   3.0402E-04  0.0142
   1.3812E+00   1.4148E+00   2.9954E-04  0.0141
   1.4148E+00   1.4492E+00   2.9417E-04  0.0141
   1.4492E+00   1.4845E+00   2.9359E-04  0.0139
   1.4845E+00   1.5206E+00   2.8490E-04  0.0139
   1.5206E+00   1.5576E+00   2.9008E-04  0.0137
   1.5576E+00   1.5955E+00   2.7401E-04  0.0139
   1.5955E+00   1.6343E+00   2.7033E-04  0.0138
   1.6343E+00   1.6741E+00   2.7100E-04  0.0136
   1.6741E+00   1.7148E+00   2.8111E-04  0.0132
   1.7148E+00   1.7565E+00   2.6609E-04  0.0134
   1.7565E+00   1.7992E+00   2.5528E-04  0.0135
   1.7992E+00   1.8430E+00   2.4890E-04  0.0136
   1.8430E+00   1.8879E+00   2.4513E-04  0.0135
   1.8879E+00   1.9338E+00   2.4274E-04  0.0134
   1.9338E+00   1.9808E+00   2.3821E-04  0.0134
   1.9808E+00   2.0290E+00   2.3027E-04  0.0134
   2.0290E+00   2.0784E+00   2.2314E-04  0.0135
   2.0784E+00   2.1290E+00   2.0938E-04  0.0137
   2.1290E+00   2.1808E+00   2.1456E-04  0.0134
   2.1808E+00   2.2338E+00   1.9830E-04  0.0138
   2.2338E+00   2.2882E+00   1.9396E-04  0.0138
   2.2882E+00   2.3439E+00   1.8803E-04  0.0138
   2.3439E+00   2.4009E+00   1.8230E-04  0.0139
   2.4009E+00   2.4593E+00   1.7916E-04  0.0138
   2.4593E+00   2.5191E+00   1.6398E-04  0.0143
   2.5191E+00   2.5804E+00   1.6041E-04  0.0143
   2.5804E+00   2.6432E+00   1.5609E-04  0.0143
   2.6432E+00   2.7075E+00   1.4539E-04  0.0146
   2.7075E+00   2.7734E+00   1.4029E-04  0.0147
   2.7734E+00   2.8409E+00   1.3329E-04  0.0149
   2.8409E+00   2.9100E+00   1.2563E-04  0.0152
   2.9100E+00   2.9808E+00   1.2197E-04  0.0152
   2.9808E+00   3.0533E+00   1.1646E-04  0.0154
   3.0533E+00   3.1276E+00   1.0901E-04  0.0157
   3.1276E+00   3.2037E+00   1.0487E-04  0.0158
   3.2037E+00   3.2817E+00   9.6730E-05  0.0163
   3.2817E+00   3.3615E+00   9.0399E-05  0.0167
   3.3615E+00   3.4433E+00   8.7959E-05  0.0167
   3.4433E+00   3.5271E+00   8.0928E-05  0.0172
   3.5271E+00   3.6129E+00   7.5183E-05  0.0176
   3.6129E+00   3.7008E+00   6.7641E-05  0.0183
   3.7008E+00   3.7908E+00   6.6746E-05  0.0182
   3.7908E+00   3.8831E+00   6.2124E-05  0.0187
   3.8831E+00   3.9776E+00   5.6478E-05  0.0194
   3.9776E+00   4.0743E+00   5.3442E-05  0.0197
   4.0743E+00   4.1735E+00   4.8723E-05  0.0204
   4.1735E+00   4.2750E+00   4.7467E-05  0.0204
   4.2750E+00   4.3790E+00   4.2090E-05  0.0214
   4.3790E+00   4.4856E+00   3.9251E-05  0.0219
   4.4856E+00   4.5947E+00   3.5112E-05  0.0229
   4.5947E+00   4.7065E+00   3.2131E-05  0.0236
   4.7065E+00   4.8210E+00   2.9866E-05  0.0242
   4.8210E+00   4.9383E+00   2.7929E-05  0.0247
   4.9383E+00   5.0585E+00   2.4535E-05  0.0260
   5.0585E+00   5.1815E+00   2.4148E-05  0.0259
   5.1815E+00   5.3076E+00   2.1353E-05  0.0273
   5.3076E+00   5.4368E+00   2.0025E-05  0.0278
   5.4368E+00   5.5690E+00   1.7705E-05  0.0292
   5.5690E+00   5.7045E+00   1.5336E-05  0.0310
   5.7045E+00   5.8433E+00   1.4799E-05  0.0312
   5.8433E+00   5.9855E+00   1.2900E-05  0.0331
   5.9855E+00   6.1311E+00   1.2442E-05  0.0333
   6.1311E+00   6.2803E+00   1.0672E-05  0.0354
   6.2803E+00   6.4331E+00   1.0576E-05  0.0352
   6.4331E+00   6.5896E+00   8.7655E-06  0.0382
   6.5896E+00   6.7500E+00   8.2641E-06  0.0388
   6.7500E+00   6.9142E+00   7.4224E-06  0.0405
   6.9142E+00   7.0824E+00   6.5150E-06  0.0427
   7.0824E+00   7.2548E+00   5.9424E-06  0.0442
   7.2548E+00   7.4313E+00   5.5406E-06  0.0452
   7.4313E+00   7.6121E+00   5.1767E-06  0.0462
   7.6121E+00   7.7973E+00   4.4815E-06  0.0491
   7.7973E+00   7.9870E+00   4.2274E-06  0.0499
   7.9870E+00   8.1813E+00   3.4580E-06  0.0546
   8.1813E+00   8.3804E+00   3.0745E-06  0.0572
   8.3804E+00   8.5843E+00   2.5846E-06  0.0616
   8.5843E+00   8.7931E+00   2.9397E-06  0.0570
   8.7931E+00   9.0071E+00   2.3558E-06  0.0629
   9.0071E+00   9.2262E+00   2.0762E-06  0.0663
   9.2262E+00   9.4507E+00   1.7863E-06  0.0705
   9.4507E+00   9.6807E+00   1.7265E-06  0.0709
   9.6807E+00   9.9162E+00   1.6346E-06  0.0720
   9.9162E+00   1.0157E+01   1.2559E-06  0.0812
   1.0157E+01   1.0405E+01   1.2503E-06  0.0804
   1.0405E+01   1.0658E+01   1.0982E-06  0.0847
   1.0658E+01   1.0917E+01   1.1762E-06  0.0808
   1.0917E+01   1.1183E+01   1.0165E-06  0.0861
   1.1183E+01   1.1455E+01   8.7473E-07  0.0917
   1.1455E+01   1.1733E+01   7.6066E-07  0.0971
   1.1733E+01   1.2019E+01   6.7955E-07  0.1013
   1.2019E+01   1.2311E+01   6.2237E-07  0.1048
   1.2311E+01   1.2611E+01   5.2746E-07  0.1122
   1.2611E+01   1.2918E+01   5.6382E-07  0.1071
   1.2918E+01   1.3232E+01   5.9815E-07  0.1031
   1.3232E+01   1.3554E+01   4.6281E-07  0.1149
   1.3554E+01   1.3884E+01   5.2459E-07  0.1074
   1.3884E+01   1.4222E+01   5.0621E-07  0.1080
   1.4222E+01   1.4568E+01   4.5951E-07  0.1120
   1.4568E+01   1.4922E+01   4.5706E-07  0.1108
   1.4922E+01   1.5285E+01   4.3794E-07  0.1120
   1.5285E+01   1.5657E+01   4.2753E-07  0.1120
   1.5657E+01   1.6038E+01   2.7038E-07  0.1390
   1.6038E+01   1.6428E+01   3.2802E-07  0.1250
   1.6428E+01   1.6828E+01   3.6026E-07  0.1179
   1.6828E+01   1.7237E+01   2.9064E-07  0.1294
   1.7237E+01   1.7657E+01   3.1474E-07  0.1231
   1.7657E+01   1.8086E+01   3.0726E-07  0.1231
   1.8086E+01   1.8526E+01   2.9087E-07  0.1250
   1.8526E+01   1.8977E+01   2.9062E-07  0.1233
   1.8977E+01   1.9439E+01   2.1658E-07  0.1414
   1.9439E+01   1.9912E+01   2.3469E-07  0.1339
   1.9912E+01   2.0396E+01   2.3944E-07  0.1313
   2.0396E+01   2.0893E+01   2.1763E-07  0.1361
   2.0893E+01   2.1401E+01   2.7934E-07  0.1187
   2.1401E+01   2.1922E+01   2.4198E-07  0.1260
   2.1922E+01   2.2455E+01   2.1748E-07  0.1313
   2.2455E+01   2.3001E+01   1.9035E-07  0.1387
   2.3001E+01   2.3561E+01   2.2514E-07  0.1260
   2.3561E+01   2.4134E+01   1.8142E-07  0.1387
   2.4134E+01   2.4721E+01   1.1921E-07  0.1690
   2.4721E+01   2.5323E+01   1.6293E-07  0.1429
   2.5323E+01   2.5939E+01   1.8178E-07  0.1336
   2.5939E+01   2.6570E+01   1.4894E-07  0.1459
   2.6570E+01   2.7217E+01   1.3922E-07  0.1491
   2.7217E+01   2.7879E+01   1.3289E-07  0.1508
   2.7879E+01   2.8557E+01   1.2678E-07  0.1525
   2.8557E+01   2.9252E+01   1.2089E-07  0.1543
   2.9252E+01   2.9964E+01   1.0959E-07  0.1601
   2.9964E+01   3.0693E+01   9.6016E-08  0.1690
   3.0693E+01   3.1440E+01   6.6954E-08  0.2000
   3.1440E+01   3.2205E+01   1.2288E-07  0.1459
   3.2205E+01   3.2988E+01   9.1888E-08  0.1667
   3.2988E+01   3.3791E+01   6.4787E-08  0.1961
   3.3791E+01   3.4613E+01   6.5681E-08  0.1925
   3.4613E+01   3.5455E+01   7.1246E-08  0.1826
   3.5455E+01   3.6318E+01   8.3464E-08  0.1667
   3.6318E+01   3.7201E+01   5.8848E-08  0.1961
   3.7201E+01   3.8106E+01   5.3031E-08  0.2041
   3.8106E+01   3.9034E+01   5.1771E-08  0.2041
   3.9034E+01   3.9983E+01   2.9482E-08  0.2673
   3.9983E+01   4.0956E+01   3.7006E-08  0.2357
   4.0956E+01   4.1953E+01   4.2148E-08  0.2182
   4.1953E+01   4.2973E+01   3.5269E-08  0.2357
   4.2973E+01   4.4019E+01   2.8692E-08  0.2582
   4.4019E+01   4.5090E+01   2.4276E-08  0.2774
   4.5090E+01   4.6187E+01   2.0053E-08  0.3015
   4.6187E+01   4.7311E+01   2.6696E-08  0.2582
   4.7311E+01   4.8462E+01   1.5637E-08  0.3333
   4.8462E+01   4.9641E+01   1.5266E-08  0.3333
   4.9641E+01   5.0849E+01   1.3247E-08  0.3536
   5.0849E+01   5.2086E+01   8.0828E-09  0.4472
   5.2086E+01   5.3353E+01   7.8908E-09  0.4472
   5.3353E+01   5.4651E+01   6.1627E-09  0.5000
   5.4651E+01   5.5981E+01   6.0163E-09  0.5000
   5.5981E+01   5.7343E+01   2.9367E-09  0.7071
   5.7343E+01   5.8738E+01   8.6009E-09  0.4082
   5.8738E+01   6.0168E+01   4.1983E-09  0.5774
   6.0168E+01   6.1632E+01   0.0000E+00  0.0000
   6.1632E+01   6.3131E+01   2.6675E-09  0.7071
   6.3131E+01   6.4667E+01   0.0000E+00  0.0000
   6.4667E+01   6.6240E+01   0.0000E+00  0.0000
   6.6240E+01   6.7852E+01   2.4819E-09  0.7071
   6.7852E+01   6.9503E+01   0.0000E+00  0.0000
   6.9503E+01   7.1194E+01   1.1827E-09  1.0000
   7.1194E+01   7.2926E+01   0.0000E+00  0.0000
   7.2926E+01   7.4701E+01   0.0000E+00  0.0000
   7.4701E+01   7.6518E+01   0.0000E+00  0.0000
   7.6518E+01   7.8380E+01   1.0743E-09  1.0000
   7.8380E+01   8.0287E+01   0.0000E+00  0.0000
   8.0287E+01   8.2240E+01   0.0000E+00  0.0000
   8.2240E+01   8.4241E+01   0.0000E+00  0.0000
   8.4241E+01   8.6291E+01   0.0000E+00  0.0000
   8.6291E+01   8.8391E+01   0.0000E+00  0.0000
   8.8391E+01   9.0541E+01   0.0000E+00  0.0000
   9.0541E+01   9.2744E+01   0.0000E+00  0.0000
   9.2744E+01   9.5001E+01   8.8631E-10  1.0000
   9.5001E+01   9.7312E+01   0.0000E+00  0.0000
   9.7312E+01   9.9680E+01   0.0000E+00  0.0000
   9.9680E+01   1.0211E+02   0.0000E+00  0.0000
   1.0211E+02   1.0459E+02   0.0000E+00  0.0000
   1.0459E+02   1.0713E+02   0.0000E+00  0.0000
   1.0713E+02   1.0974E+02   0.0000E+00  0.0000
   1.0974E+02   1.1241E+02   0.0000E+00  0.0000
   1.1241E+02   1.1515E+02   0.0000E+00  0.0000
   1.1515E+02   1.1795E+02   0.0000E+00  0.0000
   1.1795E+02   1.2082E+02   0.0000E+00  0.0000
   1.2082E+02   1.2376E+02   0.0000E+00  0.0000
   1.2376E+02   1.2677E+02   0.0000E+00  0.0000
   1.2677E+02   1.2985E+02   0.0000E+00  0.0000
   1.2985E+02   1.3301E+02   0.0000E+00  0.0000
   1.3301E+02   1.3625E+02   0.0000E+00  0.0000
   1.3625E+02   1.3956E+02   0.0000E+00  0.0000
   1.3956E+02   1.4296E+02   0.0000E+00  0.0000
   1.4296E+02   1.4644E+02   0.0000E+00  0.0000
   1.4644E+02   1.5000E+02   0.0000E+00  0.0000

#   sum over                 8.2537E-06
'no. =    1   reg = 125 - 225'
msuc: {\huge [t-cross] in region mesh}
msdr: {\it plotted by \ANGEL \version}
msdl: {\it calculated by \PHITS  3.26}
wt: s(0.7)
\vspace{-3}
  region surface crossing
  area  &=&   1.0000E+00 [cm^2]
e:
 
# Information for Restart Calculation
# This calculation was newly started
# istdev =  2 # 1:Batch variance, 2:History variance
# resc2  = 5.00000000000000000E+08 # Total source weight or Total source weight / maxcas
# resc3  = 5.00000000000000000E+08 # Total history number or Total batch number
# maxcas =   500000000 # History / Batch, only used for istdev=1
# bitrseed = 1101101111010011011000101101110001100110110010110001010100010001 # bit data of rseed
