[ T-Cross ]
    title = [t-cross] in region mesh
     mesh =  reg            # mesh type is region-wise
      reg =    1            # number of crossing regions
      non     r-from    r-to       area
      1       110       210        1.000000    
   e-type =    3            # e-mesh is log given by emin, emax and ne
     emin =  1.0000000E-02  # minimum value of e-mesh points
     emax =   150.0000      # maximum value of e-mesh points
#    edel =  2.4039514E-02  # mesh width of e-mesh points
       ne =    400          # number of e-mesh points
#    data = ( e(i), i = 1, ne + 1 )
#           1.00000E-02  1.02433E-02  1.04925E-02  1.07478E-02  1.10093E-02
#           1.12772E-02  1.15516E-02  1.18326E-02  1.21205E-02  1.24154E-02
#           1.27175E-02  1.30269E-02  1.33439E-02  1.36686E-02  1.40011E-02
#           1.43418E-02  1.46907E-02  1.50482E-02  1.54143E-02  1.57894E-02
#           1.61735E-02  1.65670E-02  1.69701E-02  1.73830E-02  1.78060E-02
#           1.82392E-02  1.86830E-02  1.91375E-02  1.96032E-02  2.00801E-02
#           2.05687E-02  2.10692E-02  2.15818E-02  2.21069E-02  2.26448E-02
#           2.31957E-02  2.37601E-02  2.43382E-02  2.49304E-02  2.55369E-02
#           2.61583E-02  2.67947E-02  2.74467E-02  2.81145E-02  2.87985E-02
#           2.94992E-02  3.02169E-02  3.09521E-02  3.17052E-02  3.24766E-02
#           3.32668E-02  3.40762E-02  3.49053E-02  3.57546E-02  3.66246E-02
#           3.75157E-02  3.84284E-02  3.93634E-02  4.03212E-02  4.13022E-02
#           4.23071E-02  4.33365E-02  4.43909E-02  4.54710E-02  4.65773E-02
#           4.77106E-02  4.88714E-02  5.00605E-02  5.12785E-02  5.25262E-02
#           5.38042E-02  5.51133E-02  5.64542E-02  5.78278E-02  5.92348E-02
#           6.06760E-02  6.21523E-02  6.36645E-02  6.52135E-02  6.68002E-02
#           6.84255E-02  7.00904E-02  7.17957E-02  7.35426E-02  7.53319E-02
#           7.71648E-02  7.90423E-02  8.09655E-02  8.29354E-02  8.49533E-02
#           8.70203E-02  8.91376E-02  9.13064E-02  9.35279E-02  9.58035E-02
#           9.81345E-02  1.00522E-01  1.02968E-01  1.05473E-01  1.08040E-01
#           1.10668E-01  1.13361E-01  1.16119E-01  1.18944E-01  1.21838E-01
#           1.24803E-01  1.27839E-01  1.30950E-01  1.34136E-01  1.37399E-01
#           1.40742E-01  1.44167E-01  1.47675E-01  1.51268E-01  1.54948E-01
#           1.58718E-01  1.62580E-01  1.66535E-01  1.70587E-01  1.74738E-01
#           1.78989E-01  1.83344E-01  1.87805E-01  1.92375E-01  1.97055E-01
#           2.01850E-01  2.06761E-01  2.11792E-01  2.16945E-01  2.22223E-01
#           2.27630E-01  2.33169E-01  2.38842E-01  2.44653E-01  2.50605E-01
#           2.56703E-01  2.62949E-01  2.69346E-01  2.75900E-01  2.82613E-01
#           2.89489E-01  2.96532E-01  3.03747E-01  3.11138E-01  3.18708E-01
#           3.26462E-01  3.34405E-01  3.42542E-01  3.50876E-01  3.59413E-01
#           3.68158E-01  3.77116E-01  3.86291E-01  3.95690E-01  4.05317E-01
#           4.15179E-01  4.25281E-01  4.35628E-01  4.46227E-01  4.57084E-01
#           4.68205E-01  4.79597E-01  4.91266E-01  5.03219E-01  5.15463E-01
#           5.28005E-01  5.40851E-01  5.54011E-01  5.67490E-01  5.81298E-01
#           5.95441E-01  6.09929E-01  6.24769E-01  6.39970E-01  6.55541E-01
#           6.71491E-01  6.87828E-01  7.04564E-01  7.21706E-01  7.39266E-01
#           7.57253E-01  7.75678E-01  7.94551E-01  8.13883E-01  8.33685E-01
#           8.53969E-01  8.74747E-01  8.96030E-01  9.17831E-01  9.40163E-01
#           9.63038E-01  9.86469E-01  1.01047E+00  1.03506E+00  1.06024E+00
#           1.08604E+00  1.11246E+00  1.13953E+00  1.16725E+00  1.19565E+00
#           1.22474E+00  1.25454E+00  1.28507E+00  1.31633E+00  1.34836E+00
#           1.38117E+00  1.41477E+00  1.44920E+00  1.48446E+00  1.52057E+00
#           1.55757E+00  1.59547E+00  1.63429E+00  1.67405E+00  1.71478E+00
#           1.75650E+00  1.79924E+00  1.84302E+00  1.88786E+00  1.93379E+00
#           1.98084E+00  2.02904E+00  2.07841E+00  2.12898E+00  2.18078E+00
#           2.23384E+00  2.28819E+00  2.34386E+00  2.40089E+00  2.45930E+00
#           2.51914E+00  2.58043E+00  2.64322E+00  2.70753E+00  2.77341E+00
#           2.84088E+00  2.91001E+00  2.98081E+00  3.05333E+00  3.12762E+00
#           3.20372E+00  3.28167E+00  3.36152E+00  3.44330E+00  3.52708E+00
#           3.61290E+00  3.70080E+00  3.79085E+00  3.88308E+00  3.97756E+00
#           4.07434E+00  4.17347E+00  4.27501E+00  4.37903E+00  4.48557E+00
#           4.59471E+00  4.70650E+00  4.82102E+00  4.93832E+00  5.05847E+00
#           5.18155E+00  5.30762E+00  5.43676E+00  5.56904E+00  5.70453E+00
#           5.84333E+00  5.98550E+00  6.13114E+00  6.28031E+00  6.43312E+00
#           6.58964E+00  6.74997E+00  6.91420E+00  7.08243E+00  7.25475E+00
#           7.43126E+00  7.61207E+00  7.79728E+00  7.98700E+00  8.18133E+00
#           8.38038E+00  8.58428E+00  8.79315E+00  9.00709E+00  9.22624E+00
#           9.45072E+00  9.68067E+00  9.91620E+00  1.01575E+01  1.04046E+01
#           1.06578E+01  1.09171E+01  1.11827E+01  1.14548E+01  1.17335E+01
#           1.20190E+01  1.23114E+01  1.26109E+01  1.29178E+01  1.32321E+01
#           1.35540E+01  1.38838E+01  1.42216E+01  1.45676E+01  1.49221E+01
#           1.52851E+01  1.56570E+01  1.60380E+01  1.64282E+01  1.68279E+01
#           1.72374E+01  1.76568E+01  1.80864E+01  1.85264E+01  1.89772E+01
#           1.94389E+01  1.99119E+01  2.03963E+01  2.08926E+01  2.14009E+01
#           2.19216E+01  2.24550E+01  2.30014E+01  2.35610E+01  2.41343E+01
#           2.47215E+01  2.53230E+01  2.59391E+01  2.65702E+01  2.72167E+01
#           2.78789E+01  2.85572E+01  2.92520E+01  2.99637E+01  3.06928E+01
#           3.14396E+01  3.22045E+01  3.29881E+01  3.37907E+01  3.46128E+01
#           3.54550E+01  3.63177E+01  3.72013E+01  3.81064E+01  3.90336E+01
#           3.99833E+01  4.09561E+01  4.19526E+01  4.29734E+01  4.40189E+01
#           4.50900E+01  4.61870E+01  4.73108E+01  4.84619E+01  4.96410E+01
#           5.08488E+01  5.20860E+01  5.33533E+01  5.46514E+01  5.59812E+01
#           5.73432E+01  5.87384E+01  6.01676E+01  6.16315E+01  6.31311E+01
#           6.46671E+01  6.62405E+01  6.78522E+01  6.95031E+01  7.11941E+01
#           7.29263E+01  7.47007E+01  7.65182E+01  7.83800E+01  8.02870E+01
#           8.22405E+01  8.42414E+01  8.62911E+01  8.83906E+01  9.05412E+01
#           9.27442E+01  9.50007E+01  9.73122E+01  9.96799E+01  1.02105E+02
#           1.04589E+02  1.07134E+02  1.09741E+02  1.12411E+02  1.15146E+02
#           1.17948E+02  1.20817E+02  1.23757E+02  1.26768E+02  1.29852E+02
#           1.33012E+02  1.36248E+02  1.39563E+02  1.42959E+02  1.46437E+02
#           1.50000E+02
     unit =    2            # unit is [1/cm^2/(MeV/n)/source]
     axis =  eng            # axis of output
     file = detector-11.out  # file name of output for the above axis
   output = f-curr          # surface crossing forward current spectrum
     part =  neutron  
# kf/name :  2112     
#    used :        main (  %)        temp (  %)       total (  %)
#  memory :         414 (  0)           0 (  0)         414 (  0)

#------------------------------------------------------------------------------
#newpage:
#   no. =    1   reg = 110 - 210

x: Energy [MeV/n]
y:  F-Curr [1/cm^2/(MeV/n)/source]         
p: xlog ylog afac(0.8) form(0.9)
h: n            x            y(neutron ),hh0l   n 
#  e-lower      e-upper      neutron     r.err 
   1.0000E-02   1.0243E-02   2.0879E-03  0.0627
   1.0243E-02   1.0493E-02   1.8377E-03  0.0661
   1.0493E-02   1.0748E-02   1.9742E-03  0.0630
   1.0748E-02   1.1009E-02   1.8508E-03  0.0643
   1.1009E-02   1.1277E-02   1.9039E-03  0.0626
   1.1277E-02   1.1552E-02   2.1357E-03  0.0584
   1.1552E-02   1.1833E-02   2.0280E-03  0.0592
   1.1833E-02   1.2121E-02   2.0771E-03  0.0578
   1.2121E-02   1.2415E-02   2.2991E-03  0.0543
   1.2415E-02   1.2718E-02   1.9730E-03  0.0579
   1.2718E-02   1.3027E-02   2.3657E-03  0.0523
   1.3027E-02   1.3344E-02   2.0949E-03  0.0549
   1.3344E-02   1.3669E-02   2.1807E-03  0.0531
   1.3669E-02   1.4001E-02   1.9785E-03  0.0551
   1.4001E-02   1.4342E-02   2.0196E-03  0.0539
   1.4342E-02   1.4691E-02   2.2640E-03  0.0503
   1.4691E-02   1.5048E-02   2.1430E-03  0.0511
   1.5048E-02   1.5414E-02   2.3543E-03  0.0482
   1.5414E-02   1.5789E-02   2.1171E-03  0.0502
   1.5789E-02   1.6174E-02   2.0668E-03  0.0502
   1.6174E-02   1.6567E-02   2.0736E-03  0.0495
   1.6567E-02   1.6970E-02   2.2774E-03  0.0467
   1.6970E-02   1.7383E-02   2.2330E-03  0.0466
   1.7383E-02   1.7806E-02   2.3124E-03  0.0452
   1.7806E-02   1.8239E-02   2.2898E-03  0.0449
   1.8239E-02   1.8683E-02   2.2669E-03  0.0446
   1.8683E-02   1.9138E-02   2.3627E-03  0.0432
   1.9138E-02   1.9603E-02   2.4354E-03  0.0420
   1.9603E-02   2.0080E-02   2.4782E-03  0.0411
   2.0080E-02   2.0569E-02   2.4111E-03  0.0412
   2.0569E-02   2.1069E-02   2.2899E-03  0.0418
   2.1069E-02   2.1582E-02   2.5672E-03  0.0390
   2.1582E-02   2.2107E-02   2.4529E-03  0.0394
   2.2107E-02   2.2645E-02   2.5285E-03  0.0383
   2.2645E-02   2.3196E-02   2.6463E-03  0.0370
   2.3196E-02   2.3760E-02   2.5161E-03  0.0375
   2.3760E-02   2.4338E-02   2.4978E-03  0.0372
   2.4338E-02   2.4930E-02   2.4419E-03  0.0372
   2.4930E-02   2.5537E-02   2.5454E-03  0.0360
   2.5537E-02   2.6158E-02   2.4592E-03  0.0362
   2.6158E-02   2.6795E-02   2.6239E-03  0.0346
   2.6795E-02   2.7447E-02   2.4420E-03  0.0354
   2.7447E-02   2.8114E-02   2.6325E-03  0.0337
   2.8114E-02   2.8799E-02   2.5495E-03  0.0339
   2.8799E-02   2.9499E-02   2.8458E-03  0.0317
   2.9499E-02   3.0217E-02   2.7921E-03  0.0316
   3.0217E-02   3.0952E-02   2.7530E-03  0.0314
   3.0952E-02   3.1705E-02   2.7407E-03  0.0311
   3.1705E-02   3.2477E-02   2.7741E-03  0.0306
   3.2477E-02   3.3267E-02   2.7209E-03  0.0305
   3.3267E-02   3.4076E-02   2.7650E-03  0.0299
   3.4076E-02   3.4905E-02   2.7017E-03  0.0299
   3.4905E-02   3.5755E-02   2.9908E-03  0.0281
   3.5755E-02   3.6625E-02   2.8071E-03  0.0286
   3.6625E-02   3.7516E-02   2.9693E-03  0.0275
   3.7516E-02   3.8428E-02   2.9908E-03  0.0271
   3.8428E-02   3.9363E-02   2.8941E-03  0.0272
   3.9363E-02   4.0321E-02   2.9340E-03  0.0267
   4.0321E-02   4.1302E-02   2.9968E-03  0.0261
   4.1302E-02   4.2307E-02   2.9415E-03  0.0260
   4.2307E-02   4.3337E-02   3.0893E-03  0.0251
   4.3337E-02   4.4391E-02   2.9021E-03  0.0256
   4.4391E-02   4.5471E-02   3.2017E-03  0.0240
   4.5471E-02   4.6577E-02   3.2088E-03  0.0237
   4.6577E-02   4.7711E-02   3.0549E-03  0.0240
   4.7711E-02   4.8871E-02   3.1271E-03  0.0235
   4.8871E-02   5.0061E-02   3.1764E-03  0.0230
   5.0061E-02   5.1279E-02   3.2167E-03  0.0226
   5.1279E-02   5.2526E-02   3.2060E-03  0.0224
   5.2526E-02   5.3804E-02   3.0548E-03  0.0226
   5.3804E-02   5.5113E-02   3.2129E-03  0.0218
   5.5113E-02   5.6454E-02   3.1888E-03  0.0216
   5.6454E-02   5.7828E-02   3.2645E-03  0.0211
   5.7828E-02   5.9235E-02   3.2765E-03  0.0208
   5.9235E-02   6.0676E-02   3.3610E-03  0.0203
   6.0676E-02   6.2152E-02   3.3151E-03  0.0202
   6.2152E-02   6.3665E-02   3.3262E-03  0.0199
   6.3665E-02   6.5214E-02   3.4383E-03  0.0194
   6.5214E-02   6.6800E-02   3.4298E-03  0.0192
   6.6800E-02   6.8426E-02   3.4381E-03  0.0189
   6.8426E-02   7.0090E-02   3.5258E-03  0.0185
   7.0090E-02   7.1796E-02   3.4233E-03  0.0185
   7.1796E-02   7.3543E-02   3.6088E-03  0.0178
   7.3543E-02   7.5332E-02   3.6158E-03  0.0176
   7.5332E-02   7.7165E-02   3.5081E-03  0.0176
   7.7165E-02   7.9042E-02   3.4845E-03  0.0175
   7.9042E-02   8.0965E-02   3.4506E-03  0.0174
   8.0965E-02   8.2935E-02   3.6366E-03  0.0167
   8.2935E-02   8.4953E-02   3.5869E-03  0.0166
   8.4953E-02   8.7020E-02   3.5569E-03  0.0165
   8.7020E-02   8.9138E-02   3.5867E-03  0.0162
   8.9138E-02   9.1306E-02   3.6998E-03  0.0158
   9.1306E-02   9.3528E-02   3.6533E-03  0.0157
   9.3528E-02   9.5804E-02   3.7168E-03  0.0154
   9.5804E-02   9.8134E-02   3.6894E-03  0.0152
   9.8134E-02   1.0052E-01   3.7467E-03  0.0150
   1.0052E-01   1.0297E-01   3.8450E-03  0.0146
   1.0297E-01   1.0547E-01   3.6842E-03  0.0147
   1.0547E-01   1.0804E-01   3.7853E-03  0.0143
   1.0804E-01   1.1067E-01   3.7555E-03  0.0142
   1.1067E-01   1.1336E-01   3.7361E-03  0.0141
   1.1336E-01   1.1612E-01   3.7576E-03  0.0139
   1.1612E-01   1.1894E-01   3.8892E-03  0.0135
   1.1894E-01   1.2184E-01   3.8542E-03  0.0134
   1.2184E-01   1.2480E-01   3.7505E-03  0.0134
   1.2480E-01   1.2784E-01   3.8705E-03  0.0130
   1.2784E-01   1.3095E-01   3.8824E-03  0.0129
   1.3095E-01   1.3414E-01   3.8768E-03  0.0127
   1.3414E-01   1.3740E-01   3.9006E-03  0.0125
   1.3740E-01   1.4074E-01   3.8983E-03  0.0124
   1.4074E-01   1.4417E-01   3.8419E-03  0.0123
   1.4417E-01   1.4767E-01   3.9667E-03  0.0120
   1.4767E-01   1.5127E-01   3.9226E-03  0.0119
   1.5127E-01   1.5495E-01   3.8740E-03  0.0118
   1.5495E-01   1.5872E-01   3.9289E-03  0.0116
   1.5872E-01   1.6258E-01   3.9309E-03  0.0115
   1.6258E-01   1.6654E-01   4.0038E-03  0.0112
   1.6654E-01   1.7059E-01   3.9211E-03  0.0112
   1.7059E-01   1.7474E-01   3.9253E-03  0.0111
   1.7474E-01   1.7899E-01   3.9574E-03  0.0109
   1.7899E-01   1.8334E-01   4.0329E-03  0.0107
   1.8334E-01   1.8781E-01   3.9418E-03  0.0107
   1.8781E-01   1.9237E-01   3.9968E-03  0.0105
   1.9237E-01   1.9706E-01   3.9819E-03  0.0104
   1.9706E-01   2.0185E-01   3.9595E-03  0.0103
   2.0185E-01   2.0676E-01   3.9986E-03  0.0101
   2.0676E-01   2.1179E-01   3.9891E-03  0.0100
   2.1179E-01   2.1694E-01   3.9600E-03  0.0099
   2.1694E-01   2.2222E-01   3.9019E-03  0.0099
   2.2222E-01   2.2763E-01   3.9439E-03  0.0097
   2.2763E-01   2.3317E-01   3.9784E-03  0.0095
   2.3317E-01   2.3884E-01   3.9336E-03  0.0095
   2.3884E-01   2.4465E-01   3.9806E-03  0.0093
   2.4465E-01   2.5061E-01   3.9230E-03  0.0093
   2.5061E-01   2.5670E-01   3.8813E-03  0.0092
   2.5670E-01   2.6295E-01   3.9388E-03  0.0090
   2.6295E-01   2.6935E-01   3.9001E-03  0.0090
   2.6935E-01   2.7590E-01   3.8810E-03  0.0089
   2.7590E-01   2.8261E-01   3.8991E-03  0.0087
   2.8261E-01   2.8949E-01   3.9036E-03  0.0086
   2.8949E-01   2.9653E-01   3.8228E-03  0.0086
   2.9653E-01   3.0375E-01   3.8695E-03  0.0085
   3.0375E-01   3.1114E-01   3.7963E-03  0.0084
   3.1114E-01   3.1871E-01   3.8007E-03  0.0083
   3.1871E-01   3.2646E-01   3.8149E-03  0.0082
   3.2646E-01   3.3441E-01   3.6996E-03  0.0083
   3.3441E-01   3.4254E-01   3.7078E-03  0.0081
   3.4254E-01   3.5088E-01   3.7329E-03  0.0080
   3.5088E-01   3.5941E-01   3.6734E-03  0.0080
   3.5941E-01   3.6816E-01   3.6529E-03  0.0079
   3.6816E-01   3.7712E-01   3.5913E-03  0.0079
   3.7712E-01   3.8629E-01   3.5494E-03  0.0078
   3.8629E-01   3.9569E-01   3.5530E-03  0.0077
   3.9569E-01   4.0532E-01   3.5035E-03  0.0077
   4.0532E-01   4.1518E-01   3.4734E-03  0.0076
   4.1518E-01   4.2528E-01   3.4392E-03  0.0076
   4.2528E-01   4.3563E-01   3.3982E-03  0.0075
   4.3563E-01   4.4623E-01   3.3700E-03  0.0075
   4.4623E-01   4.5708E-01   3.3108E-03  0.0075
   4.5708E-01   4.6821E-01   3.2809E-03  0.0074
   4.6821E-01   4.7960E-01   3.2613E-03  0.0073
   4.7960E-01   4.9127E-01   3.2298E-03  0.0073
   4.9127E-01   5.0322E-01   3.1726E-03  0.0073
   5.0322E-01   5.1546E-01   3.0836E-03  0.0073
   5.1546E-01   5.2800E-01   3.1284E-03  0.0071
   5.2800E-01   5.4085E-01   3.0085E-03  0.0072
   5.4085E-01   5.5401E-01   2.9558E-03  0.0072
   5.5401E-01   5.6749E-01   2.9311E-03  0.0071
   5.6749E-01   5.8130E-01   2.8616E-03  0.0071
   5.8130E-01   5.9544E-01   2.7679E-03  0.0072
   5.9544E-01   6.0993E-01   2.7770E-03  0.0071
   6.0993E-01   6.2477E-01   2.7012E-03  0.0071
   6.2477E-01   6.3997E-01   2.6419E-03  0.0071
   6.3997E-01   6.5554E-01   2.5908E-03  0.0070
   6.5554E-01   6.7149E-01   2.5103E-03  0.0071
   6.7149E-01   6.8783E-01   2.4226E-03  0.0071
   6.8783E-01   7.0456E-01   2.4075E-03  0.0071
   7.0456E-01   7.2171E-01   2.3461E-03  0.0071
   7.2171E-01   7.3927E-01   2.2638E-03  0.0071
   7.3927E-01   7.5725E-01   2.1959E-03  0.0071
   7.5725E-01   7.7568E-01   2.1758E-03  0.0071
   7.7568E-01   7.9455E-01   2.1020E-03  0.0071
   7.9455E-01   8.1388E-01   2.0205E-03  0.0072
   8.1388E-01   8.3368E-01   1.9264E-03  0.0072
   8.3368E-01   8.5397E-01   1.8790E-03  0.0073
   8.5397E-01   8.7475E-01   1.7887E-03  0.0073
   8.7475E-01   8.9603E-01   1.7372E-03  0.0074
   8.9603E-01   9.1783E-01   1.6448E-03  0.0075
   9.1783E-01   9.4016E-01   1.5981E-03  0.0075
   9.4016E-01   9.6304E-01   1.5209E-03  0.0076
   9.6304E-01   9.8647E-01   1.4396E-03  0.0077
   9.8647E-01   1.0105E+00   1.3817E-03  0.0078
   1.0105E+00   1.0351E+00   1.3752E-03  0.0077
   1.0351E+00   1.0602E+00   1.3705E-03  0.0076
   1.0602E+00   1.0860E+00   1.3988E-03  0.0075
   1.0860E+00   1.1125E+00   1.3917E-03  0.0074
   1.1125E+00   1.1395E+00   1.3957E-03  0.0073
   1.1395E+00   1.1673E+00   1.4038E-03  0.0072
   1.1673E+00   1.1957E+00   1.4309E-03  0.0070
   1.1957E+00   1.2247E+00   1.4578E-03  0.0069
   1.2247E+00   1.2545E+00   1.4526E-03  0.0068
   1.2545E+00   1.2851E+00   1.4306E-03  0.0068
   1.2851E+00   1.3163E+00   1.4463E-03  0.0067
   1.3163E+00   1.3484E+00   1.4522E-03  0.0066
   1.3484E+00   1.3812E+00   1.4654E-03  0.0065
   1.3812E+00   1.4148E+00   1.4860E-03  0.0063
   1.4148E+00   1.4492E+00   1.4481E-03  0.0063
   1.4492E+00   1.4845E+00   1.4205E-03  0.0063
   1.4845E+00   1.5206E+00   1.4230E-03  0.0062
   1.5206E+00   1.5576E+00   1.3923E-03  0.0062
   1.5576E+00   1.5955E+00   1.3851E-03  0.0062
   1.5955E+00   1.6343E+00   1.3740E-03  0.0061
   1.6343E+00   1.6741E+00   1.3697E-03  0.0061
   1.6741E+00   1.7148E+00   1.3742E-03  0.0060
   1.7148E+00   1.7565E+00   1.3393E-03  0.0060
   1.7565E+00   1.7992E+00   1.3256E-03  0.0060
   1.7992E+00   1.8430E+00   1.3057E-03  0.0059
   1.8430E+00   1.8879E+00   1.2738E-03  0.0059
   1.8879E+00   1.9338E+00   1.2482E-03  0.0059
   1.9338E+00   1.9808E+00   1.2494E-03  0.0058
   1.9808E+00   2.0290E+00   1.2321E-03  0.0058
   2.0290E+00   2.0784E+00   1.2109E-03  0.0058
   2.0784E+00   2.1290E+00   1.1664E-03  0.0058
   2.1290E+00   2.1808E+00   1.1308E-03  0.0059
   2.1808E+00   2.2338E+00   1.1022E-03  0.0059
   2.2338E+00   2.2882E+00   1.0779E-03  0.0059
   2.2882E+00   2.3439E+00   1.0585E-03  0.0058
   2.3439E+00   2.4009E+00   1.0365E-03  0.0058
   2.4009E+00   2.4593E+00   1.0250E-03  0.0058
   2.4593E+00   2.5191E+00   9.9581E-04  0.0058
   2.5191E+00   2.5804E+00   9.6537E-04  0.0058
   2.5804E+00   2.6432E+00   9.2836E-04  0.0059
   2.6432E+00   2.7075E+00   8.9576E-04  0.0059
   2.7075E+00   2.7734E+00   8.6942E-04  0.0059
   2.7734E+00   2.8409E+00   8.3362E-04  0.0060
   2.8409E+00   2.9100E+00   8.2030E-04  0.0059
   2.9100E+00   2.9808E+00   8.0562E-04  0.0059
   2.9808E+00   3.0533E+00   7.7427E-04  0.0060
   3.0533E+00   3.1276E+00   7.3851E-04  0.0060
   3.1276E+00   3.2037E+00   7.1716E-04  0.0061
   3.2037E+00   3.2817E+00   6.9202E-04  0.0061
   3.2817E+00   3.3615E+00   6.6388E-04  0.0062
   3.3615E+00   3.4433E+00   6.4051E-04  0.0062
   3.4433E+00   3.5271E+00   6.1498E-04  0.0062
   3.5271E+00   3.6129E+00   5.9904E-04  0.0062
   3.6129E+00   3.7008E+00   5.7505E-04  0.0063
   3.7008E+00   3.7908E+00   5.6068E-04  0.0063
   3.7908E+00   3.8831E+00   5.3349E-04  0.0064
   3.8831E+00   3.9776E+00   5.1895E-04  0.0064
   3.9776E+00   4.0743E+00   4.9526E-04  0.0065
   4.0743E+00   4.1735E+00   4.7870E-04  0.0065
   4.1735E+00   4.2750E+00   4.6337E-04  0.0065
   4.2750E+00   4.3790E+00   4.3565E-04  0.0067
   4.3790E+00   4.4856E+00   4.1947E-04  0.0067
   4.4856E+00   4.5947E+00   4.0210E-04  0.0068
   4.5947E+00   4.7065E+00   3.8303E-04  0.0068
   4.7065E+00   4.8210E+00   3.6773E-04  0.0069
   4.8210E+00   4.9383E+00   3.5366E-04  0.0070
   4.9383E+00   5.0585E+00   3.3952E-04  0.0070
   5.0585E+00   5.1815E+00   3.2744E-04  0.0071
   5.1815E+00   5.3076E+00   3.1164E-04  0.0071
   5.3076E+00   5.4368E+00   3.0226E-04  0.0072
   5.4368E+00   5.5690E+00   2.8675E-04  0.0073
   5.5690E+00   5.7045E+00   2.7500E-04  0.0073
   5.7045E+00   5.8433E+00   2.6263E-04  0.0074
   5.8433E+00   5.9855E+00   2.5078E-04  0.0075
   5.9855E+00   6.1311E+00   2.4339E-04  0.0075
   6.1311E+00   6.2803E+00   2.3096E-04  0.0076
   6.2803E+00   6.4331E+00   2.2166E-04  0.0077
   6.4331E+00   6.5896E+00   2.1365E-04  0.0077
   6.5896E+00   6.7500E+00   2.0616E-04  0.0078
   6.7500E+00   6.9142E+00   1.9784E-04  0.0079
   6.9142E+00   7.0824E+00   1.9071E-04  0.0079
   7.0824E+00   7.2548E+00   1.8777E-04  0.0079
   7.2548E+00   7.4313E+00   1.7731E-04  0.0080
   7.4313E+00   7.6121E+00   1.7226E-04  0.0080
   7.6121E+00   7.7973E+00   1.6534E-04  0.0081
   7.7973E+00   7.9870E+00   1.6164E-04  0.0081
   7.9870E+00   8.1813E+00   1.5535E-04  0.0081
   8.1813E+00   8.3804E+00   1.5372E-04  0.0081
   8.3804E+00   8.5843E+00   1.5032E-04  0.0081
   8.5843E+00   8.7931E+00   1.4625E-04  0.0081
   8.7931E+00   9.0071E+00   1.4329E-04  0.0081
   9.0071E+00   9.2262E+00   1.3941E-04  0.0081
   9.2262E+00   9.4507E+00   1.3507E-04  0.0081
   9.4507E+00   9.6807E+00   1.3207E-04  0.0081
   9.6807E+00   9.9162E+00   1.3005E-04  0.0081
   9.9162E+00   1.0157E+01   1.2789E-04  0.0081
   1.0157E+01   1.0405E+01   1.2581E-04  0.0080
   1.0405E+01   1.0658E+01   1.2469E-04  0.0080
   1.0658E+01   1.0917E+01   1.2269E-04  0.0079
   1.0917E+01   1.1183E+01   1.2026E-04  0.0079
   1.1183E+01   1.1455E+01   1.1827E-04  0.0079
   1.1455E+01   1.1733E+01   1.1769E-04  0.0078
   1.1733E+01   1.2019E+01   1.1508E-04  0.0078
   1.2019E+01   1.2311E+01   1.1456E-04  0.0077
   1.2311E+01   1.2611E+01   1.1084E-04  0.0078
   1.2611E+01   1.2918E+01   1.0860E-04  0.0077
   1.2918E+01   1.3232E+01   1.0755E-04  0.0077
   1.3232E+01   1.3554E+01   1.0636E-04  0.0076
   1.3554E+01   1.3884E+01   1.0512E-04  0.0076
   1.3884E+01   1.4222E+01   1.0255E-04  0.0076
   1.4222E+01   1.4568E+01   9.9612E-05  0.0076
   1.4568E+01   1.4922E+01   9.9029E-05  0.0075
   1.4922E+01   1.5285E+01   9.7445E-05  0.0075
   1.5285E+01   1.5657E+01   9.5327E-05  0.0075
   1.5657E+01   1.6038E+01   9.4126E-05  0.0075
   1.6038E+01   1.6428E+01   9.3522E-05  0.0074
   1.6428E+01   1.6828E+01   9.0468E-05  0.0074
   1.6828E+01   1.7237E+01   8.7796E-05  0.0075
   1.7237E+01   1.7657E+01   8.6233E-05  0.0074
   1.7657E+01   1.8086E+01   8.3489E-05  0.0075
   1.8086E+01   1.8526E+01   8.0578E-05  0.0075
   1.8526E+01   1.8977E+01   7.9800E-05  0.0075
   1.8977E+01   1.9439E+01   7.6092E-05  0.0075
   1.9439E+01   1.9912E+01   7.4771E-05  0.0075
   1.9912E+01   2.0396E+01   6.9573E-05  0.0077
   2.0396E+01   2.0893E+01   6.7424E-05  0.0077
   2.0893E+01   2.1401E+01   6.5335E-05  0.0078
   2.1401E+01   2.1922E+01   6.3783E-05  0.0078
   2.1922E+01   2.2455E+01   6.0869E-05  0.0079
   2.2455E+01   2.3001E+01   5.8768E-05  0.0079
   2.3001E+01   2.3561E+01   5.6515E-05  0.0080
   2.3561E+01   2.4134E+01   5.5214E-05  0.0079
   2.4134E+01   2.4721E+01   5.3222E-05  0.0080
   2.4721E+01   2.5323E+01   5.0727E-05  0.0081
   2.5323E+01   2.5939E+01   4.8785E-05  0.0082
   2.5939E+01   2.6570E+01   4.6384E-05  0.0083
   2.6570E+01   2.7217E+01   4.4819E-05  0.0083
   2.7217E+01   2.7879E+01   4.2325E-05  0.0084
   2.7879E+01   2.8557E+01   4.1055E-05  0.0085
   2.8557E+01   2.9252E+01   4.0048E-05  0.0085
   2.9252E+01   2.9964E+01   3.7264E-05  0.0087
   2.9964E+01   3.0693E+01   3.5880E-05  0.0087
   3.0693E+01   3.1440E+01   3.4996E-05  0.0087
   3.1440E+01   3.2205E+01   3.2844E-05  0.0089
   3.2205E+01   3.2988E+01   3.0591E-05  0.0091
   3.2988E+01   3.3791E+01   2.9077E-05  0.0093
   3.3791E+01   3.4613E+01   2.7790E-05  0.0094
   3.4613E+01   3.5455E+01   2.6031E-05  0.0096
   3.5455E+01   3.6318E+01   2.4107E-05  0.0098
   3.6318E+01   3.7201E+01   2.3437E-05  0.0098
   3.7201E+01   3.8106E+01   2.1813E-05  0.0101
   3.8106E+01   3.9034E+01   2.0663E-05  0.0102
   3.9034E+01   3.9983E+01   1.9288E-05  0.0105
   3.9983E+01   4.0956E+01   1.7822E-05  0.0107
   4.0956E+01   4.1953E+01   1.6717E-05  0.0110
   4.1953E+01   4.2973E+01   1.5898E-05  0.0111
   4.2973E+01   4.4019E+01   1.4205E-05  0.0116
   4.4019E+01   4.5090E+01   1.3643E-05  0.0117
   4.5090E+01   4.6187E+01   1.2501E-05  0.0121
   4.6187E+01   4.7311E+01   1.1657E-05  0.0124
   4.7311E+01   4.8462E+01   1.0724E-05  0.0127
   4.8462E+01   4.9641E+01   9.6801E-06  0.0132
   4.9641E+01   5.0849E+01   9.0130E-06  0.0136
   5.0849E+01   5.2086E+01   8.1038E-06  0.0141
   5.2086E+01   5.3353E+01   7.4190E-06  0.0146
   5.3353E+01   5.4651E+01   6.5802E-06  0.0153
   5.4651E+01   5.5981E+01   6.0088E-06  0.0158
   5.5981E+01   5.7343E+01   5.4344E-06  0.0164
   5.7343E+01   5.8738E+01   4.9111E-06  0.0171
   5.8738E+01   6.0168E+01   4.2949E-06  0.0181
   6.0168E+01   6.1632E+01   3.6546E-06  0.0193
   6.1632E+01   6.3131E+01   3.3464E-06  0.0200
   6.3131E+01   6.4667E+01   2.9440E-06  0.0210
   6.4667E+01   6.6240E+01   2.4825E-06  0.0226
   6.6240E+01   6.7852E+01   2.2200E-06  0.0236
   6.7852E+01   6.9503E+01   1.8741E-06  0.0254
   6.9503E+01   7.1194E+01   1.5375E-06  0.0277
   7.1194E+01   7.2926E+01   1.3185E-06  0.0296
   7.2926E+01   7.4701E+01   1.0122E-06  0.0334
   7.4701E+01   7.6518E+01   8.8802E-07  0.0352
   7.6518E+01   7.8380E+01   7.1975E-07  0.0386
   7.8380E+01   8.0287E+01   5.8730E-07  0.0423
   8.0287E+01   8.2240E+01   4.6687E-07  0.0468
   8.2240E+01   8.4241E+01   3.3784E-07  0.0544
   8.4241E+01   8.6291E+01   2.1174E-07  0.0679
   8.6291E+01   8.8391E+01   1.6956E-07  0.0750
   8.8391E+01   9.0541E+01   1.0044E-07  0.0962
   9.0541E+01   9.2744E+01   6.6275E-08  0.1170
   9.2744E+01   9.5001E+01   4.3429E-08  0.1429
   9.5001E+01   9.7312E+01   2.2497E-08  0.1961
   9.7312E+01   9.9680E+01   1.4360E-08  0.2425
   9.9680E+01   1.0211E+02   2.4739E-09  0.5774
   1.0211E+02   1.0459E+02   0.0000E+00  0.0000
   1.0459E+02   1.0713E+02   0.0000E+00  0.0000
   1.0713E+02   1.0974E+02   0.0000E+00  0.0000
   1.0974E+02   1.1241E+02   0.0000E+00  0.0000
   1.1241E+02   1.1515E+02   0.0000E+00  0.0000
   1.1515E+02   1.1795E+02   0.0000E+00  0.0000
   1.1795E+02   1.2082E+02   0.0000E+00  0.0000
   1.2082E+02   1.2376E+02   0.0000E+00  0.0000
   1.2376E+02   1.2677E+02   0.0000E+00  0.0000
   1.2677E+02   1.2985E+02   0.0000E+00  0.0000
   1.2985E+02   1.3301E+02   0.0000E+00  0.0000
   1.3301E+02   1.3625E+02   0.0000E+00  0.0000
   1.3625E+02   1.3956E+02   0.0000E+00  0.0000
   1.3956E+02   1.4296E+02   0.0000E+00  0.0000
   1.4296E+02   1.4644E+02   0.0000E+00  0.0000
   1.4644E+02   1.5000E+02   0.0000E+00  0.0000

#   sum over                 6.1625E-05
'no. =    1   reg = 110 - 210'
msuc: {\huge [t-cross] in region mesh}
msdr: {\it plotted by \ANGEL \version}
msdl: {\it calculated by \PHITS  3.26}
wt: s(0.7)
\vspace{-3}
  region surface crossing
  area  &=&   1.0000E+00 [cm^2]
e:
 
# Information for Restart Calculation
# This calculation was newly started
# istdev =  2 # 1:Batch variance, 2:History variance
# resc2  = 5.00000000000000000E+08 # Total source weight or Total source weight / maxcas
# resc3  = 5.00000000000000000E+08 # Total history number or Total batch number
# maxcas =   500000000 # History / Batch, only used for istdev=1
# bitrseed = 1101101111010011011000101101110001100110110010110001010100010001 # bit data of rseed
