[ T-Cross ]
    title = [t-cross] in region mesh
     mesh =  reg            # mesh type is region-wise
      reg =    1            # number of crossing regions
      non     r-from    r-to       area
      1       104       204        1.000000    
   e-type =    3            # e-mesh is log given by emin, emax and ne
     emin =  1.0000000E-02  # minimum value of e-mesh points
     emax =   150.0000      # maximum value of e-mesh points
#    edel =  2.4039514E-02  # mesh width of e-mesh points
       ne =    400          # number of e-mesh points
#    data = ( e(i), i = 1, ne + 1 )
#           1.00000E-02  1.02433E-02  1.04925E-02  1.07478E-02  1.10093E-02
#           1.12772E-02  1.15516E-02  1.18326E-02  1.21205E-02  1.24154E-02
#           1.27175E-02  1.30269E-02  1.33439E-02  1.36686E-02  1.40011E-02
#           1.43418E-02  1.46907E-02  1.50482E-02  1.54143E-02  1.57894E-02
#           1.61735E-02  1.65670E-02  1.69701E-02  1.73830E-02  1.78060E-02
#           1.82392E-02  1.86830E-02  1.91375E-02  1.96032E-02  2.00801E-02
#           2.05687E-02  2.10692E-02  2.15818E-02  2.21069E-02  2.26448E-02
#           2.31957E-02  2.37601E-02  2.43382E-02  2.49304E-02  2.55369E-02
#           2.61583E-02  2.67947E-02  2.74467E-02  2.81145E-02  2.87985E-02
#           2.94992E-02  3.02169E-02  3.09521E-02  3.17052E-02  3.24766E-02
#           3.32668E-02  3.40762E-02  3.49053E-02  3.57546E-02  3.66246E-02
#           3.75157E-02  3.84284E-02  3.93634E-02  4.03212E-02  4.13022E-02
#           4.23071E-02  4.33365E-02  4.43909E-02  4.54710E-02  4.65773E-02
#           4.77106E-02  4.88714E-02  5.00605E-02  5.12785E-02  5.25262E-02
#           5.38042E-02  5.51133E-02  5.64542E-02  5.78278E-02  5.92348E-02
#           6.06760E-02  6.21523E-02  6.36645E-02  6.52135E-02  6.68002E-02
#           6.84255E-02  7.00904E-02  7.17957E-02  7.35426E-02  7.53319E-02
#           7.71648E-02  7.90423E-02  8.09655E-02  8.29354E-02  8.49533E-02
#           8.70203E-02  8.91376E-02  9.13064E-02  9.35279E-02  9.58035E-02
#           9.81345E-02  1.00522E-01  1.02968E-01  1.05473E-01  1.08040E-01
#           1.10668E-01  1.13361E-01  1.16119E-01  1.18944E-01  1.21838E-01
#           1.24803E-01  1.27839E-01  1.30950E-01  1.34136E-01  1.37399E-01
#           1.40742E-01  1.44167E-01  1.47675E-01  1.51268E-01  1.54948E-01
#           1.58718E-01  1.62580E-01  1.66535E-01  1.70587E-01  1.74738E-01
#           1.78989E-01  1.83344E-01  1.87805E-01  1.92375E-01  1.97055E-01
#           2.01850E-01  2.06761E-01  2.11792E-01  2.16945E-01  2.22223E-01
#           2.27630E-01  2.33169E-01  2.38842E-01  2.44653E-01  2.50605E-01
#           2.56703E-01  2.62949E-01  2.69346E-01  2.75900E-01  2.82613E-01
#           2.89489E-01  2.96532E-01  3.03747E-01  3.11138E-01  3.18708E-01
#           3.26462E-01  3.34405E-01  3.42542E-01  3.50876E-01  3.59413E-01
#           3.68158E-01  3.77116E-01  3.86291E-01  3.95690E-01  4.05317E-01
#           4.15179E-01  4.25281E-01  4.35628E-01  4.46227E-01  4.57084E-01
#           4.68205E-01  4.79597E-01  4.91266E-01  5.03219E-01  5.15463E-01
#           5.28005E-01  5.40851E-01  5.54011E-01  5.67490E-01  5.81298E-01
#           5.95441E-01  6.09929E-01  6.24769E-01  6.39970E-01  6.55541E-01
#           6.71491E-01  6.87828E-01  7.04564E-01  7.21706E-01  7.39266E-01
#           7.57253E-01  7.75678E-01  7.94551E-01  8.13883E-01  8.33685E-01
#           8.53969E-01  8.74747E-01  8.96030E-01  9.17831E-01  9.40163E-01
#           9.63038E-01  9.86469E-01  1.01047E+00  1.03506E+00  1.06024E+00
#           1.08604E+00  1.11246E+00  1.13953E+00  1.16725E+00  1.19565E+00
#           1.22474E+00  1.25454E+00  1.28507E+00  1.31633E+00  1.34836E+00
#           1.38117E+00  1.41477E+00  1.44920E+00  1.48446E+00  1.52057E+00
#           1.55757E+00  1.59547E+00  1.63429E+00  1.67405E+00  1.71478E+00
#           1.75650E+00  1.79924E+00  1.84302E+00  1.88786E+00  1.93379E+00
#           1.98084E+00  2.02904E+00  2.07841E+00  2.12898E+00  2.18078E+00
#           2.23384E+00  2.28819E+00  2.34386E+00  2.40089E+00  2.45930E+00
#           2.51914E+00  2.58043E+00  2.64322E+00  2.70753E+00  2.77341E+00
#           2.84088E+00  2.91001E+00  2.98081E+00  3.05333E+00  3.12762E+00
#           3.20372E+00  3.28167E+00  3.36152E+00  3.44330E+00  3.52708E+00
#           3.61290E+00  3.70080E+00  3.79085E+00  3.88308E+00  3.97756E+00
#           4.07434E+00  4.17347E+00  4.27501E+00  4.37903E+00  4.48557E+00
#           4.59471E+00  4.70650E+00  4.82102E+00  4.93832E+00  5.05847E+00
#           5.18155E+00  5.30762E+00  5.43676E+00  5.56904E+00  5.70453E+00
#           5.84333E+00  5.98550E+00  6.13114E+00  6.28031E+00  6.43312E+00
#           6.58964E+00  6.74997E+00  6.91420E+00  7.08243E+00  7.25475E+00
#           7.43126E+00  7.61207E+00  7.79728E+00  7.98700E+00  8.18133E+00
#           8.38038E+00  8.58428E+00  8.79315E+00  9.00709E+00  9.22624E+00
#           9.45072E+00  9.68067E+00  9.91620E+00  1.01575E+01  1.04046E+01
#           1.06578E+01  1.09171E+01  1.11827E+01  1.14548E+01  1.17335E+01
#           1.20190E+01  1.23114E+01  1.26109E+01  1.29178E+01  1.32321E+01
#           1.35540E+01  1.38838E+01  1.42216E+01  1.45676E+01  1.49221E+01
#           1.52851E+01  1.56570E+01  1.60380E+01  1.64282E+01  1.68279E+01
#           1.72374E+01  1.76568E+01  1.80864E+01  1.85264E+01  1.89772E+01
#           1.94389E+01  1.99119E+01  2.03963E+01  2.08926E+01  2.14009E+01
#           2.19216E+01  2.24550E+01  2.30014E+01  2.35610E+01  2.41343E+01
#           2.47215E+01  2.53230E+01  2.59391E+01  2.65702E+01  2.72167E+01
#           2.78789E+01  2.85572E+01  2.92520E+01  2.99637E+01  3.06928E+01
#           3.14396E+01  3.22045E+01  3.29881E+01  3.37907E+01  3.46128E+01
#           3.54550E+01  3.63177E+01  3.72013E+01  3.81064E+01  3.90336E+01
#           3.99833E+01  4.09561E+01  4.19526E+01  4.29734E+01  4.40189E+01
#           4.50900E+01  4.61870E+01  4.73108E+01  4.84619E+01  4.96410E+01
#           5.08488E+01  5.20860E+01  5.33533E+01  5.46514E+01  5.59812E+01
#           5.73432E+01  5.87384E+01  6.01676E+01  6.16315E+01  6.31311E+01
#           6.46671E+01  6.62405E+01  6.78522E+01  6.95031E+01  7.11941E+01
#           7.29263E+01  7.47007E+01  7.65182E+01  7.83800E+01  8.02870E+01
#           8.22405E+01  8.42414E+01  8.62911E+01  8.83906E+01  9.05412E+01
#           9.27442E+01  9.50007E+01  9.73122E+01  9.96799E+01  1.02105E+02
#           1.04589E+02  1.07134E+02  1.09741E+02  1.12411E+02  1.15146E+02
#           1.17948E+02  1.20817E+02  1.23757E+02  1.26768E+02  1.29852E+02
#           1.33012E+02  1.36248E+02  1.39563E+02  1.42959E+02  1.46437E+02
#           1.50000E+02
     unit =    2            # unit is [1/cm^2/(MeV/n)/source]
     axis =  eng            # axis of output
     file = detector-05.out  # file name of output for the above axis
   output = f-curr          # surface crossing forward current spectrum
     part =  neutron  
# kf/name :  2112     
#    used :        main (  %)        temp (  %)       total (  %)
#  memory :         414 (  0)           0 (  0)         414 (  0)

#------------------------------------------------------------------------------
#newpage:
#   no. =    1   reg = 104 - 204

x: Energy [MeV/n]
y:  F-Curr [1/cm^2/(MeV/n)/source]         
p: xlog ylog afac(0.8) form(0.9)
h: n            x            y(neutron ),hh0l   n 
#  e-lower      e-upper      neutron     r.err 
   1.0000E-02   1.0243E-02   4.0278E-04  0.1429
   1.0243E-02   1.0493E-02   3.8519E-04  0.1443
   1.0493E-02   1.0748E-02   3.6821E-04  0.1459
   1.0748E-02   1.1009E-02   4.5124E-04  0.1302
   1.1009E-02   1.1277E-02   3.5092E-04  0.1459
   1.1277E-02   1.1552E-02   4.5192E-04  0.1270
   1.1552E-02   1.1833E-02   4.6965E-04  0.1231
   1.1833E-02   1.2121E-02   3.4735E-04  0.1414
   1.2121E-02   1.2415E-02   4.4761E-04  0.1231
   1.2415E-02   1.2718E-02   5.4953E-04  0.1098
   1.2718E-02   1.3027E-02   4.0074E-04  0.1270
   1.3027E-02   1.3344E-02   4.1015E-04  0.1240
   1.3344E-02   1.3669E-02   4.0657E-04  0.1231
   1.3669E-02   1.4001E-02   4.6908E-04  0.1132
   1.4001E-02   1.4342E-02   4.5207E-04  0.1140
   1.4342E-02   1.4691E-02   4.3560E-04  0.1147
   1.4691E-02   1.5048E-02   4.8120E-04  0.1078
   1.5048E-02   1.5414E-02   4.6431E-04  0.1085
   1.5414E-02   1.5789E-02   4.3728E-04  0.1104
   1.5789E-02   1.6174E-02   4.5293E-04  0.1072
   1.6174E-02   1.6567E-02   5.1841E-04  0.0990
   1.6567E-02   1.6970E-02   5.0113E-04  0.0995
   1.6970E-02   1.7383E-02   4.6985E-04  0.1015
   1.7383E-02   1.7806E-02   5.2962E-04  0.0945
   1.7806E-02   1.8239E-02   5.2628E-04  0.0937
   1.8239E-02   1.8683E-02   5.4983E-04  0.0905
   1.8683E-02   1.9138E-02   4.3558E-04  0.1005
   1.9138E-02   1.9603E-02   4.9395E-04  0.0933
   1.9603E-02   2.0080E-02   4.9899E-04  0.0917
   2.0080E-02   2.0569E-02   5.0761E-04  0.0898
   2.0569E-02   2.1069E-02   4.9955E-04  0.0894
   2.1069E-02   2.1582E-02   4.2136E-04  0.0962
   2.1582E-02   2.2107E-02   5.5989E-04  0.0825
   2.2107E-02   2.2645E-02   4.8338E-04  0.0877
   2.2645E-02   2.3196E-02   4.5375E-04  0.0894
   2.3196E-02   2.3760E-02   5.8118E-04  0.0781
   2.3760E-02   2.4338E-02   5.9159E-04  0.0765
   2.4338E-02   2.4930E-02   4.8635E-04  0.0833
   2.4930E-02   2.5537E-02   6.1328E-04  0.0733
   2.5537E-02   2.6158E-02   5.9871E-04  0.0733
   2.6158E-02   2.6795E-02   5.1536E-04  0.0781
   2.6795E-02   2.7447E-02   5.8288E-04  0.0725
   2.7447E-02   2.8114E-02   5.5406E-04  0.0735
   2.8114E-02   2.8799E-02   6.1984E-04  0.0687
   2.8799E-02   2.9499E-02   6.1083E-04  0.0684
   2.9499E-02   3.0217E-02   5.4895E-04  0.0712
   3.0217E-02   3.0952E-02   6.1208E-04  0.0667
   3.0952E-02   3.1705E-02   5.8426E-04  0.0674
   3.1705E-02   3.2477E-02   5.8853E-04  0.0664
   3.2477E-02   3.3267E-02   6.6820E-04  0.0615
   3.3267E-02   3.4076E-02   6.1279E-04  0.0635
   3.4076E-02   3.4905E-02   5.7412E-04  0.0648
   3.4905E-02   3.5755E-02   6.4526E-04  0.0604
   3.5755E-02   3.6625E-02   6.5062E-04  0.0594
   3.6625E-02   3.7516E-02   6.3517E-04  0.0594
   3.7516E-02   3.8428E-02   6.3323E-04  0.0588
   3.8428E-02   3.9363E-02   6.2460E-04  0.0585
   3.9363E-02   4.0321E-02   6.5362E-04  0.0565
   4.0321E-02   4.1302E-02   6.5440E-04  0.0558
   4.1302E-02   4.2307E-02   6.3488E-04  0.0560
   4.2307E-02   4.3337E-02   6.6254E-04  0.0542
   4.3337E-02   4.4391E-02   6.6957E-04  0.0532
   4.4391E-02   4.5471E-02   6.4255E-04  0.0537
   4.5471E-02   4.6577E-02   6.9056E-04  0.0512
   4.6577E-02   4.7711E-02   6.5828E-04  0.0518
   4.7711E-02   4.8871E-02   6.8916E-04  0.0500
   4.8871E-02   5.0061E-02   6.4756E-04  0.0510
   5.0061E-02   5.1279E-02   7.1099E-04  0.0481
   5.1279E-02   5.2526E-02   6.4281E-04  0.0499
   5.2526E-02   5.3804E-02   6.9483E-04  0.0475
   5.3804E-02   5.5113E-02   7.3027E-04  0.0457
   5.5113E-02   5.6454E-02   7.1889E-04  0.0455
   5.6454E-02   5.7828E-02   7.1492E-04  0.0451
   5.7828E-02   5.9235E-02   6.9936E-04  0.0451
   5.9235E-02   6.0676E-02   6.7997E-04  0.0452
   6.0676E-02   6.2152E-02   7.5459E-04  0.0424
   6.2152E-02   6.3665E-02   6.9699E-04  0.0436
   6.3665E-02   6.5214E-02   7.2046E-04  0.0423
   6.5214E-02   6.6800E-02   6.9452E-04  0.0426
   6.6800E-02   6.8426E-02   7.4202E-04  0.0407
   6.8426E-02   7.0090E-02   7.2199E-04  0.0408
   7.0090E-02   7.1796E-02   7.2947E-04  0.0401
   7.1796E-02   7.3543E-02   7.6366E-04  0.0387
   7.3543E-02   7.5332E-02   7.8017E-04  0.0379
   7.5332E-02   7.7165E-02   8.1293E-04  0.0366
   7.7165E-02   7.9042E-02   7.8296E-04  0.0369
   7.9042E-02   8.0965E-02   7.5813E-04  0.0370
   8.0965E-02   8.2935E-02   8.1119E-04  0.0354
   8.2935E-02   8.4953E-02   8.2363E-04  0.0347
   8.4953E-02   8.7020E-02   7.8182E-04  0.0352
   8.7020E-02   8.9138E-02   7.5474E-04  0.0354
   8.9138E-02   9.1306E-02   8.2350E-04  0.0335
   9.1306E-02   9.3528E-02   7.9134E-04  0.0337
   9.3528E-02   9.5804E-02   8.1912E-04  0.0328
   9.5804E-02   9.8134E-02   7.9452E-04  0.0329
   9.8134E-02   1.0052E-01   7.9910E-04  0.0324
   1.0052E-01   1.0297E-01   8.6107E-04  0.0308
   1.0297E-01   1.0547E-01   8.0549E-04  0.0315
   1.0547E-01   1.0804E-01   8.1520E-04  0.0309
   1.0804E-01   1.1067E-01   8.5061E-04  0.0299
   1.1067E-01   1.1336E-01   8.7275E-04  0.0292
   1.1336E-01   1.1612E-01   8.4259E-04  0.0293
   1.1612E-01   1.1894E-01   8.1975E-04  0.0294
   1.1894E-01   1.2184E-01   8.1340E-04  0.0291
   1.2184E-01   1.2480E-01   8.3929E-04  0.0284
   1.2480E-01   1.2784E-01   8.1869E-04  0.0284
   1.2784E-01   1.3095E-01   8.3461E-04  0.0278
   1.3095E-01   1.3414E-01   8.4241E-04  0.0273
   1.3414E-01   1.3740E-01   8.8061E-04  0.0264
   1.3740E-01   1.4074E-01   8.7884E-04  0.0261
   1.4074E-01   1.4417E-01   8.1942E-04  0.0267
   1.4417E-01   1.4767E-01   8.4386E-04  0.0260
   1.4767E-01   1.5127E-01   8.4998E-04  0.0256
   1.5127E-01   1.5495E-01   8.7272E-04  0.0250
   1.5495E-01   1.5872E-01   8.4138E-04  0.0251
   1.5872E-01   1.6258E-01   8.7059E-04  0.0244
   1.6258E-01   1.6654E-01   8.7317E-04  0.0241
   1.6654E-01   1.7059E-01   8.6082E-04  0.0239
   1.7059E-01   1.7474E-01   8.6206E-04  0.0236
   1.7474E-01   1.7899E-01   8.3123E-04  0.0238
   1.7899E-01   1.8334E-01   8.8175E-04  0.0228
   1.8334E-01   1.8781E-01   8.5453E-04  0.0229
   1.8781E-01   1.9237E-01   8.6575E-04  0.0225
   1.9237E-01   1.9706E-01   8.8151E-04  0.0220
   1.9706E-01   2.0185E-01   8.0592E-04  0.0228
   2.0185E-01   2.0676E-01   8.5153E-04  0.0219
   2.0676E-01   2.1179E-01   8.5754E-04  0.0215
   2.1179E-01   2.1694E-01   8.7133E-04  0.0211
   2.1694E-01   2.2222E-01   8.4229E-04  0.0212
   2.2222E-01   2.2763E-01   8.7111E-04  0.0206
   2.2763E-01   2.3317E-01   8.6017E-04  0.0205
   2.3317E-01   2.3884E-01   8.9826E-04  0.0198
   2.3884E-01   2.4465E-01   8.4010E-04  0.0202
   2.4465E-01   2.5061E-01   8.6147E-04  0.0197
   2.5061E-01   2.5670E-01   8.6085E-04  0.0195
   2.5670E-01   2.6295E-01   8.7291E-04  0.0192
   2.6295E-01   2.6935E-01   8.6077E-04  0.0191
   2.6935E-01   2.7590E-01   8.5940E-04  0.0188
   2.7590E-01   2.8261E-01   8.4792E-04  0.0187
   2.8261E-01   2.8949E-01   8.2982E-04  0.0187
   2.8949E-01   2.9653E-01   8.1778E-04  0.0186
   2.9653E-01   3.0375E-01   8.2469E-04  0.0183
   3.0375E-01   3.1114E-01   8.1484E-04  0.0182
   3.1114E-01   3.1871E-01   8.1134E-04  0.0180
   3.1871E-01   3.2646E-01   8.1760E-04  0.0178
   3.2646E-01   3.3441E-01   8.1480E-04  0.0176
   3.3441E-01   3.4254E-01   8.0552E-04  0.0175
   3.4254E-01   3.5088E-01   7.9623E-04  0.0174
   3.5088E-01   3.5941E-01   8.0847E-04  0.0170
   3.5941E-01   3.6816E-01   7.9544E-04  0.0170
   3.6816E-01   3.7712E-01   7.6740E-04  0.0171
   3.7712E-01   3.8629E-01   7.7053E-04  0.0168
   3.8629E-01   3.9569E-01   7.6606E-04  0.0167
   3.9569E-01   4.0532E-01   7.3644E-04  0.0168
   4.0532E-01   4.1518E-01   7.4632E-04  0.0165
   4.1518E-01   4.2528E-01   7.3236E-04  0.0164
   4.2528E-01   4.3563E-01   7.3564E-04  0.0162
   4.3563E-01   4.4623E-01   7.2666E-04  0.0161
   4.4623E-01   4.5708E-01   7.2101E-04  0.0160
   4.5708E-01   4.6821E-01   7.2708E-04  0.0157
   4.6821E-01   4.7960E-01   6.9699E-04  0.0159
   4.7960E-01   4.9127E-01   6.8781E-04  0.0158
   4.9127E-01   5.0322E-01   6.8670E-04  0.0156
   5.0322E-01   5.1546E-01   6.5046E-04  0.0158
   5.1546E-01   5.2800E-01   6.4425E-04  0.0157
   5.2800E-01   5.4085E-01   6.4608E-04  0.0155
   5.4085E-01   5.5401E-01   6.5201E-04  0.0153
   5.5401E-01   5.6749E-01   6.2510E-04  0.0154
   5.6749E-01   5.8130E-01   6.0315E-04  0.0155
   5.8130E-01   5.9544E-01   6.1308E-04  0.0152
   5.9544E-01   6.0993E-01   5.7553E-04  0.0155
   6.0993E-01   6.2477E-01   5.8100E-04  0.0152
   6.2477E-01   6.3997E-01   5.6733E-04  0.0152
   6.3997E-01   6.5554E-01   5.5038E-04  0.0153
   6.5554E-01   6.7149E-01   5.3982E-04  0.0152
   6.7149E-01   6.8783E-01   5.3581E-04  0.0151
   6.8783E-01   7.0456E-01   5.0958E-04  0.0153
   7.0456E-01   7.2171E-01   5.0926E-04  0.0151
   7.2171E-01   7.3927E-01   4.8930E-04  0.0153
   7.3927E-01   7.5725E-01   4.7568E-04  0.0153
   7.5725E-01   7.7568E-01   4.6525E-04  0.0153
   7.7568E-01   7.9455E-01   4.5134E-04  0.0153
   7.9455E-01   8.1388E-01   4.2106E-04  0.0157
   8.1388E-01   8.3368E-01   4.1591E-04  0.0156
   8.3368E-01   8.5397E-01   4.0357E-04  0.0156
   8.5397E-01   8.7475E-01   3.8137E-04  0.0159
   8.7475E-01   8.9603E-01   3.7353E-04  0.0159
   8.9603E-01   9.1783E-01   3.4558E-04  0.0163
   9.1783E-01   9.4016E-01   3.3119E-04  0.0164
   9.4016E-01   9.6304E-01   3.2630E-04  0.0164
   9.6304E-01   9.8647E-01   3.0011E-04  0.0169
   9.8647E-01   1.0105E+00   2.8423E-04  0.0171
   1.0105E+00   1.0351E+00   2.8586E-04  0.0169
   1.0351E+00   1.0602E+00   2.9154E-04  0.0165
   1.0602E+00   1.0860E+00   2.9492E-04  0.0162
   1.0860E+00   1.1125E+00   2.9821E-04  0.0159
   1.1125E+00   1.1395E+00   2.9867E-04  0.0157
   1.1395E+00   1.1673E+00   3.0080E-04  0.0155
   1.1673E+00   1.1957E+00   3.0267E-04  0.0153
   1.1957E+00   1.2247E+00   3.0470E-04  0.0150
   1.2247E+00   1.2545E+00   3.0424E-04  0.0149
   1.2545E+00   1.2851E+00   2.9872E-04  0.0148
   1.2851E+00   1.3163E+00   3.0787E-04  0.0144
   1.3163E+00   1.3484E+00   3.0155E-04  0.0144
   1.3484E+00   1.3812E+00   2.8970E-04  0.0145
   1.3812E+00   1.4148E+00   3.0216E-04  0.0140
   1.4148E+00   1.4492E+00   3.0155E-04  0.0139
   1.4492E+00   1.4845E+00   2.9342E-04  0.0139
   1.4845E+00   1.5206E+00   2.8889E-04  0.0138
   1.5206E+00   1.5576E+00   2.8100E-04  0.0139
   1.5576E+00   1.5955E+00   2.8361E-04  0.0136
   1.5955E+00   1.6343E+00   2.7250E-04  0.0138
   1.6343E+00   1.6741E+00   2.7925E-04  0.0134
   1.6741E+00   1.7148E+00   2.7959E-04  0.0133
   1.7148E+00   1.7565E+00   2.7108E-04  0.0133
   1.7565E+00   1.7992E+00   2.6862E-04  0.0132
   1.7992E+00   1.8430E+00   2.5822E-04  0.0133
   1.8430E+00   1.8879E+00   2.4604E-04  0.0135
   1.8879E+00   1.9338E+00   2.5102E-04  0.0132
   1.9338E+00   1.9808E+00   2.4446E-04  0.0132
   1.9808E+00   2.0290E+00   2.3243E-04  0.0134
   2.0290E+00   2.0784E+00   2.3416E-04  0.0132
   2.0784E+00   2.1290E+00   2.2448E-04  0.0133
   2.1290E+00   2.1808E+00   2.1359E-04  0.0134
   2.1808E+00   2.2338E+00   2.0901E-04  0.0134
   2.2338E+00   2.2882E+00   2.0187E-04  0.0135
   2.2882E+00   2.3439E+00   2.0078E-04  0.0134
   2.3439E+00   2.4009E+00   1.9212E-04  0.0135
   2.4009E+00   2.4593E+00   1.9344E-04  0.0133
   2.4593E+00   2.5191E+00   1.7877E-04  0.0137
   2.5191E+00   2.5804E+00   1.7209E-04  0.0138
   2.5804E+00   2.6432E+00   1.7117E-04  0.0136
   2.6432E+00   2.7075E+00   1.5888E-04  0.0140
   2.7075E+00   2.7734E+00   1.5262E-04  0.0141
   2.7734E+00   2.8409E+00   1.4748E-04  0.0142
   2.8409E+00   2.9100E+00   1.3811E-04  0.0145
   2.9100E+00   2.9808E+00   1.3161E-04  0.0147
   2.9808E+00   3.0533E+00   1.3358E-04  0.0144
   3.0533E+00   3.1276E+00   1.2150E-04  0.0149
   3.1276E+00   3.2037E+00   1.2050E-04  0.0148
   3.2037E+00   3.2817E+00   1.1236E-04  0.0151
   3.2817E+00   3.3615E+00   1.0906E-04  0.0152
   3.3615E+00   3.4433E+00   1.0190E-04  0.0155
   3.4433E+00   3.5271E+00   9.6326E-05  0.0157
   3.5271E+00   3.6129E+00   8.9237E-05  0.0162
   3.6129E+00   3.7008E+00   8.7231E-05  0.0162
   3.7008E+00   3.7908E+00   7.9317E-05  0.0167
   3.7908E+00   3.8831E+00   7.6826E-05  0.0168
   3.8831E+00   3.9776E+00   7.3223E-05  0.0170
   3.9776E+00   4.0743E+00   6.9603E-05  0.0172
   4.0743E+00   4.1735E+00   6.4661E-05  0.0177
   4.1735E+00   4.2750E+00   6.3027E-05  0.0177
   4.2750E+00   4.3790E+00   5.7473E-05  0.0183
   4.3790E+00   4.4856E+00   5.4080E-05  0.0186
   4.4856E+00   4.5947E+00   5.1586E-05  0.0189
   4.5947E+00   4.7065E+00   4.8357E-05  0.0192
   4.7065E+00   4.8210E+00   4.5829E-05  0.0195
   4.8210E+00   4.9383E+00   4.1603E-05  0.0202
   4.9383E+00   5.0585E+00   4.0066E-05  0.0204
   5.0585E+00   5.1815E+00   3.7066E-05  0.0209
   5.1815E+00   5.3076E+00   3.5091E-05  0.0213
   5.3076E+00   5.4368E+00   3.3530E-05  0.0215
   5.4368E+00   5.5690E+00   3.2658E-05  0.0215
   5.5690E+00   5.7045E+00   3.0037E-05  0.0222
   5.7045E+00   5.8433E+00   2.8128E-05  0.0226
   5.8433E+00   5.9855E+00   2.7136E-05  0.0228
   5.9855E+00   6.1311E+00   2.5791E-05  0.0231
   6.1311E+00   6.2803E+00   2.4575E-05  0.0234
   6.2803E+00   6.4331E+00   2.3939E-05  0.0234
   6.4331E+00   6.5896E+00   2.3051E-05  0.0235
   6.5896E+00   6.7500E+00   2.1468E-05  0.0241
   6.7500E+00   6.9142E+00   1.9886E-05  0.0247
   6.9142E+00   7.0824E+00   1.9985E-05  0.0244
   7.0824E+00   7.2548E+00   1.8477E-05  0.0251
   7.2548E+00   7.4313E+00   1.8446E-05  0.0248
   7.4313E+00   7.6121E+00   1.7986E-05  0.0248
   7.6121E+00   7.7973E+00   1.7991E-05  0.0245
   7.7973E+00   7.9870E+00   1.7089E-05  0.0248
   7.9870E+00   8.1813E+00   1.6065E-05  0.0253
   8.1813E+00   8.3804E+00   1.5945E-05  0.0251
   8.3804E+00   8.5843E+00   1.5302E-05  0.0253
   8.5843E+00   8.7931E+00   1.5446E-05  0.0249
   8.7931E+00   9.0071E+00   1.5677E-05  0.0244
   9.0071E+00   9.2262E+00   1.5318E-05  0.0244
   9.2262E+00   9.4507E+00   1.4255E-05  0.0250
   9.4507E+00   9.6807E+00   1.4317E-05  0.0246
   9.6807E+00   9.9162E+00   1.4214E-05  0.0244
   9.9162E+00   1.0157E+01   1.4444E-05  0.0240
   1.0157E+01   1.0405E+01   1.4352E-05  0.0237
   1.0405E+01   1.0658E+01   1.4529E-05  0.0233
   1.0658E+01   1.0917E+01   1.3810E-05  0.0236
   1.0917E+01   1.1183E+01   1.3692E-05  0.0234
   1.1183E+01   1.1455E+01   1.4396E-05  0.0226
   1.1455E+01   1.1733E+01   1.3983E-05  0.0226
   1.1733E+01   1.2019E+01   1.3717E-05  0.0226
   1.2019E+01   1.2311E+01   1.3747E-05  0.0223
   1.2311E+01   1.2611E+01   1.4075E-05  0.0218
   1.2611E+01   1.2918E+01   1.3854E-05  0.0217
   1.2918E+01   1.3232E+01   1.3503E-05  0.0217
   1.3232E+01   1.3554E+01   1.3521E-05  0.0214
   1.3554E+01   1.3884E+01   1.4115E-05  0.0207
   1.3884E+01   1.4222E+01   1.4215E-05  0.0204
   1.4222E+01   1.4568E+01   1.4144E-05  0.0202
   1.4568E+01   1.4922E+01   1.4183E-05  0.0199
   1.4922E+01   1.5285E+01   1.4050E-05  0.0198
   1.5285E+01   1.5657E+01   1.4343E-05  0.0194
   1.5657E+01   1.6038E+01   1.4291E-05  0.0192
   1.6038E+01   1.6428E+01   1.4410E-05  0.0189
   1.6428E+01   1.6828E+01   1.4736E-05  0.0184
   1.6828E+01   1.7237E+01   1.4437E-05  0.0184
   1.7237E+01   1.7657E+01   1.4392E-05  0.0182
   1.7657E+01   1.8086E+01   1.4767E-05  0.0178
   1.8086E+01   1.8526E+01   1.4575E-05  0.0177
   1.8526E+01   1.8977E+01   1.5396E-05  0.0170
   1.8977E+01   1.9439E+01   1.5492E-05  0.0167
   1.9439E+01   1.9912E+01   1.4995E-05  0.0168
   1.9912E+01   2.0396E+01   1.5592E-05  0.0163
   2.0396E+01   2.0893E+01   1.6213E-05  0.0158
   2.0893E+01   2.1401E+01   1.5950E-05  0.0157
   2.1401E+01   2.1922E+01   1.6359E-05  0.0153
   2.1922E+01   2.2455E+01   1.6840E-05  0.0149
   2.2455E+01   2.3001E+01   1.7344E-05  0.0145
   2.3001E+01   2.3561E+01   1.7515E-05  0.0143
   2.3561E+01   2.4134E+01   1.8051E-05  0.0139
   2.4134E+01   2.4721E+01   1.8195E-05  0.0137
   2.4721E+01   2.5323E+01   1.9176E-05  0.0132
   2.5323E+01   2.5939E+01   1.9772E-05  0.0128
   2.5939E+01   2.6570E+01   2.0171E-05  0.0125
   2.6570E+01   2.7217E+01   2.1613E-05  0.0120
   2.7217E+01   2.7879E+01   2.2075E-05  0.0117
   2.7879E+01   2.8557E+01   2.3311E-05  0.0112
   2.8557E+01   2.9252E+01   2.4369E-05  0.0109
   2.9252E+01   2.9964E+01   2.5482E-05  0.0105
   2.9964E+01   3.0693E+01   2.6849E-05  0.0101
   3.0693E+01   3.1440E+01   2.8938E-05  0.0096
   3.1440E+01   3.2205E+01   3.0841E-05  0.0092
   3.2205E+01   3.2988E+01   3.2618E-05  0.0089
   3.2988E+01   3.3791E+01   3.4756E-05  0.0085
   3.3791E+01   3.4613E+01   3.7117E-05  0.0081
   3.4613E+01   3.5455E+01   3.9496E-05  0.0078
   3.5455E+01   3.6318E+01   4.1869E-05  0.0074
   3.6318E+01   3.7201E+01   4.4190E-05  0.0072
   3.7201E+01   3.8106E+01   4.6050E-05  0.0069
   3.8106E+01   3.9034E+01   4.8246E-05  0.0067
   3.9034E+01   3.9983E+01   5.0436E-05  0.0065
   3.9983E+01   4.0956E+01   5.1921E-05  0.0063
   4.0956E+01   4.1953E+01   5.3064E-05  0.0062
   4.1953E+01   4.2973E+01   5.4131E-05  0.0060
   4.2973E+01   4.4019E+01   5.4267E-05  0.0059
   4.4019E+01   4.5090E+01   5.3986E-05  0.0059
   4.5090E+01   4.6187E+01   5.3059E-05  0.0059
   4.6187E+01   4.7311E+01   5.2500E-05  0.0058
   4.7311E+01   4.8462E+01   5.0649E-05  0.0059
   4.8462E+01   4.9641E+01   4.8194E-05  0.0059
   4.9641E+01   5.0849E+01   4.5698E-05  0.0060
   5.0849E+01   5.2086E+01   4.2727E-05  0.0062
   5.2086E+01   5.3353E+01   3.9350E-05  0.0063
   5.3353E+01   5.4651E+01   3.6325E-05  0.0065
   5.4651E+01   5.5981E+01   3.3529E-05  0.0067
   5.5981E+01   5.7343E+01   3.0295E-05  0.0070
   5.7343E+01   5.8738E+01   2.7319E-05  0.0072
   5.8738E+01   6.0168E+01   2.4529E-05  0.0076
   6.0168E+01   6.1632E+01   2.2332E-05  0.0078
   6.1632E+01   6.3131E+01   1.9743E-05  0.0082
   6.3131E+01   6.4667E+01   1.7608E-05  0.0086
   6.4667E+01   6.6240E+01   1.5513E-05  0.0091
   6.6240E+01   6.7852E+01   1.3951E-05  0.0094
   6.7852E+01   6.9503E+01   1.2207E-05  0.0100
   6.9503E+01   7.1194E+01   1.0863E-05  0.0104
   7.1194E+01   7.2926E+01   9.6801E-06  0.0109
   7.2926E+01   7.4701E+01   8.5766E-06  0.0115
   7.4701E+01   7.6518E+01   7.6390E-06  0.0120
   7.6518E+01   7.8380E+01   6.7281E-06  0.0126
   7.8380E+01   8.0287E+01   6.1414E-06  0.0131
   8.0287E+01   8.2240E+01   5.2901E-06  0.0139
   8.2240E+01   8.4241E+01   4.6277E-06  0.0147
   8.4241E+01   8.6291E+01   4.1636E-06  0.0153
   8.6291E+01   8.8391E+01   3.4741E-06  0.0166
   8.8391E+01   9.0541E+01   2.7062E-06  0.0185
   9.0541E+01   9.2744E+01   2.0990E-06  0.0208
   9.2744E+01   9.5001E+01   1.6175E-06  0.0234
   9.5001E+01   9.7312E+01   1.2001E-06  0.0269
   9.7312E+01   9.9680E+01   8.5316E-07  0.0315
   9.9680E+01   1.0211E+02   4.5603E-07  0.0425
   1.0211E+02   1.0459E+02   1.6504E-07  0.0698
   1.0459E+02   1.0713E+02   2.3578E-09  0.5774
   1.0713E+02   1.0974E+02   0.0000E+00  0.0000
   1.0974E+02   1.1241E+02   0.0000E+00  0.0000
   1.1241E+02   1.1515E+02   0.0000E+00  0.0000
   1.1515E+02   1.1795E+02   0.0000E+00  0.0000
   1.1795E+02   1.2082E+02   0.0000E+00  0.0000
   1.2082E+02   1.2376E+02   0.0000E+00  0.0000
   1.2376E+02   1.2677E+02   0.0000E+00  0.0000
   1.2677E+02   1.2985E+02   0.0000E+00  0.0000
   1.2985E+02   1.3301E+02   0.0000E+00  0.0000
   1.3301E+02   1.3625E+02   0.0000E+00  0.0000
   1.3625E+02   1.3956E+02   0.0000E+00  0.0000
   1.3956E+02   1.4296E+02   0.0000E+00  0.0000
   1.4296E+02   1.4644E+02   0.0000E+00  0.0000
   1.4644E+02   1.5000E+02   0.0000E+00  0.0000

#   sum over                 2.1579E-05
'no. =    1   reg = 104 - 204'
msuc: {\huge [t-cross] in region mesh}
msdr: {\it plotted by \ANGEL \version}
msdl: {\it calculated by \PHITS  3.26}
wt: s(0.7)
\vspace{-3}
  region surface crossing
  area  &=&   1.0000E+00 [cm^2]
e:
 
# Information for Restart Calculation
# This calculation was newly started
# istdev =  2 # 1:Batch variance, 2:History variance
# resc2  = 5.00000000000000000E+08 # Total source weight or Total source weight / maxcas
# resc3  = 5.00000000000000000E+08 # Total history number or Total batch number
# maxcas =   500000000 # History / Batch, only used for istdev=1
# bitrseed = 1101101111010011011000101101110001100110110010110001010100010001 # bit data of rseed
