[ T-Cross ]
    title = [t-cross] in region mesh
     mesh =  reg            # mesh type is region-wise
      reg =    1            # number of crossing regions
      non     r-from    r-to       area
      1       121       221        1.000000    
   e-type =    3            # e-mesh is log given by emin, emax and ne
     emin =  1.0000000E-02  # minimum value of e-mesh points
     emax =   150.0000      # maximum value of e-mesh points
#    edel =  2.4039514E-02  # mesh width of e-mesh points
       ne =    400          # number of e-mesh points
#    data = ( e(i), i = 1, ne + 1 )
#           1.00000E-02  1.02433E-02  1.04925E-02  1.07478E-02  1.10093E-02
#           1.12772E-02  1.15516E-02  1.18326E-02  1.21205E-02  1.24154E-02
#           1.27175E-02  1.30269E-02  1.33439E-02  1.36686E-02  1.40011E-02
#           1.43418E-02  1.46907E-02  1.50482E-02  1.54143E-02  1.57894E-02
#           1.61735E-02  1.65670E-02  1.69701E-02  1.73830E-02  1.78060E-02
#           1.82392E-02  1.86830E-02  1.91375E-02  1.96032E-02  2.00801E-02
#           2.05687E-02  2.10692E-02  2.15818E-02  2.21069E-02  2.26448E-02
#           2.31957E-02  2.37601E-02  2.43382E-02  2.49304E-02  2.55369E-02
#           2.61583E-02  2.67947E-02  2.74467E-02  2.81145E-02  2.87985E-02
#           2.94992E-02  3.02169E-02  3.09521E-02  3.17052E-02  3.24766E-02
#           3.32668E-02  3.40762E-02  3.49053E-02  3.57546E-02  3.66246E-02
#           3.75157E-02  3.84284E-02  3.93634E-02  4.03212E-02  4.13022E-02
#           4.23071E-02  4.33365E-02  4.43909E-02  4.54710E-02  4.65773E-02
#           4.77106E-02  4.88714E-02  5.00605E-02  5.12785E-02  5.25262E-02
#           5.38042E-02  5.51133E-02  5.64542E-02  5.78278E-02  5.92348E-02
#           6.06760E-02  6.21523E-02  6.36645E-02  6.52135E-02  6.68002E-02
#           6.84255E-02  7.00904E-02  7.17957E-02  7.35426E-02  7.53319E-02
#           7.71648E-02  7.90423E-02  8.09655E-02  8.29354E-02  8.49533E-02
#           8.70203E-02  8.91376E-02  9.13064E-02  9.35279E-02  9.58035E-02
#           9.81345E-02  1.00522E-01  1.02968E-01  1.05473E-01  1.08040E-01
#           1.10668E-01  1.13361E-01  1.16119E-01  1.18944E-01  1.21838E-01
#           1.24803E-01  1.27839E-01  1.30950E-01  1.34136E-01  1.37399E-01
#           1.40742E-01  1.44167E-01  1.47675E-01  1.51268E-01  1.54948E-01
#           1.58718E-01  1.62580E-01  1.66535E-01  1.70587E-01  1.74738E-01
#           1.78989E-01  1.83344E-01  1.87805E-01  1.92375E-01  1.97055E-01
#           2.01850E-01  2.06761E-01  2.11792E-01  2.16945E-01  2.22223E-01
#           2.27630E-01  2.33169E-01  2.38842E-01  2.44653E-01  2.50605E-01
#           2.56703E-01  2.62949E-01  2.69346E-01  2.75900E-01  2.82613E-01
#           2.89489E-01  2.96532E-01  3.03747E-01  3.11138E-01  3.18708E-01
#           3.26462E-01  3.34405E-01  3.42542E-01  3.50876E-01  3.59413E-01
#           3.68158E-01  3.77116E-01  3.86291E-01  3.95690E-01  4.05317E-01
#           4.15179E-01  4.25281E-01  4.35628E-01  4.46227E-01  4.57084E-01
#           4.68205E-01  4.79597E-01  4.91266E-01  5.03219E-01  5.15463E-01
#           5.28005E-01  5.40851E-01  5.54011E-01  5.67490E-01  5.81298E-01
#           5.95441E-01  6.09929E-01  6.24769E-01  6.39970E-01  6.55541E-01
#           6.71491E-01  6.87828E-01  7.04564E-01  7.21706E-01  7.39266E-01
#           7.57253E-01  7.75678E-01  7.94551E-01  8.13883E-01  8.33685E-01
#           8.53969E-01  8.74747E-01  8.96030E-01  9.17831E-01  9.40163E-01
#           9.63038E-01  9.86469E-01  1.01047E+00  1.03506E+00  1.06024E+00
#           1.08604E+00  1.11246E+00  1.13953E+00  1.16725E+00  1.19565E+00
#           1.22474E+00  1.25454E+00  1.28507E+00  1.31633E+00  1.34836E+00
#           1.38117E+00  1.41477E+00  1.44920E+00  1.48446E+00  1.52057E+00
#           1.55757E+00  1.59547E+00  1.63429E+00  1.67405E+00  1.71478E+00
#           1.75650E+00  1.79924E+00  1.84302E+00  1.88786E+00  1.93379E+00
#           1.98084E+00  2.02904E+00  2.07841E+00  2.12898E+00  2.18078E+00
#           2.23384E+00  2.28819E+00  2.34386E+00  2.40089E+00  2.45930E+00
#           2.51914E+00  2.58043E+00  2.64322E+00  2.70753E+00  2.77341E+00
#           2.84088E+00  2.91001E+00  2.98081E+00  3.05333E+00  3.12762E+00
#           3.20372E+00  3.28167E+00  3.36152E+00  3.44330E+00  3.52708E+00
#           3.61290E+00  3.70080E+00  3.79085E+00  3.88308E+00  3.97756E+00
#           4.07434E+00  4.17347E+00  4.27501E+00  4.37903E+00  4.48557E+00
#           4.59471E+00  4.70650E+00  4.82102E+00  4.93832E+00  5.05847E+00
#           5.18155E+00  5.30762E+00  5.43676E+00  5.56904E+00  5.70453E+00
#           5.84333E+00  5.98550E+00  6.13114E+00  6.28031E+00  6.43312E+00
#           6.58964E+00  6.74997E+00  6.91420E+00  7.08243E+00  7.25475E+00
#           7.43126E+00  7.61207E+00  7.79728E+00  7.98700E+00  8.18133E+00
#           8.38038E+00  8.58428E+00  8.79315E+00  9.00709E+00  9.22624E+00
#           9.45072E+00  9.68067E+00  9.91620E+00  1.01575E+01  1.04046E+01
#           1.06578E+01  1.09171E+01  1.11827E+01  1.14548E+01  1.17335E+01
#           1.20190E+01  1.23114E+01  1.26109E+01  1.29178E+01  1.32321E+01
#           1.35540E+01  1.38838E+01  1.42216E+01  1.45676E+01  1.49221E+01
#           1.52851E+01  1.56570E+01  1.60380E+01  1.64282E+01  1.68279E+01
#           1.72374E+01  1.76568E+01  1.80864E+01  1.85264E+01  1.89772E+01
#           1.94389E+01  1.99119E+01  2.03963E+01  2.08926E+01  2.14009E+01
#           2.19216E+01  2.24550E+01  2.30014E+01  2.35610E+01  2.41343E+01
#           2.47215E+01  2.53230E+01  2.59391E+01  2.65702E+01  2.72167E+01
#           2.78789E+01  2.85572E+01  2.92520E+01  2.99637E+01  3.06928E+01
#           3.14396E+01  3.22045E+01  3.29881E+01  3.37907E+01  3.46128E+01
#           3.54550E+01  3.63177E+01  3.72013E+01  3.81064E+01  3.90336E+01
#           3.99833E+01  4.09561E+01  4.19526E+01  4.29734E+01  4.40189E+01
#           4.50900E+01  4.61870E+01  4.73108E+01  4.84619E+01  4.96410E+01
#           5.08488E+01  5.20860E+01  5.33533E+01  5.46514E+01  5.59812E+01
#           5.73432E+01  5.87384E+01  6.01676E+01  6.16315E+01  6.31311E+01
#           6.46671E+01  6.62405E+01  6.78522E+01  6.95031E+01  7.11941E+01
#           7.29263E+01  7.47007E+01  7.65182E+01  7.83800E+01  8.02870E+01
#           8.22405E+01  8.42414E+01  8.62911E+01  8.83906E+01  9.05412E+01
#           9.27442E+01  9.50007E+01  9.73122E+01  9.96799E+01  1.02105E+02
#           1.04589E+02  1.07134E+02  1.09741E+02  1.12411E+02  1.15146E+02
#           1.17948E+02  1.20817E+02  1.23757E+02  1.26768E+02  1.29852E+02
#           1.33012E+02  1.36248E+02  1.39563E+02  1.42959E+02  1.46437E+02
#           1.50000E+02
     unit =    2            # unit is [1/cm^2/(MeV/n)/source]
     axis =  eng            # axis of output
     file = detector-22.out  # file name of output for the above axis
   output = f-curr          # surface crossing forward current spectrum
     part =  neutron  
# kf/name :  2112     
#    used :        main (  %)        temp (  %)       total (  %)
#  memory :         414 (  0)           0 (  0)         414 (  0)

#------------------------------------------------------------------------------
#newpage:
#   no. =    1   reg = 121 - 221

x: Energy [MeV/n]
y:  F-Curr [1/cm^2/(MeV/n)/source]         
p: xlog ylog afac(0.8) form(0.9)
h: n            x            y(neutron ),hh0l   n 
#  e-lower      e-upper      neutron     r.err 
   1.0000E-02   1.0243E-02   7.4802E-04  0.1048
   1.0243E-02   1.0493E-02   7.7038E-04  0.1021
   1.0493E-02   1.0748E-02   6.9724E-04  0.1060
   1.0748E-02   1.1009E-02   5.8890E-04  0.1140
   1.1009E-02   1.1277E-02   7.1678E-04  0.1021
   1.1277E-02   1.1552E-02   6.6331E-04  0.1048
   1.1552E-02   1.1833E-02   6.0486E-04  0.1085
   1.1833E-02   1.2121E-02   6.2522E-04  0.1054
   1.2121E-02   1.2415E-02   7.0532E-04  0.0981
   1.2415E-02   1.2718E-02   6.3560E-04  0.1021
   1.2718E-02   1.3027E-02   7.2392E-04  0.0945
   1.3027E-02   1.3344E-02   7.0672E-04  0.0945
   1.3344E-02   1.3669E-02   7.8850E-04  0.0884
   1.3669E-02   1.4001E-02   7.5774E-04  0.0891
   1.4001E-02   1.4342E-02   8.2194E-04  0.0845
   1.4342E-02   1.4691E-02   8.4827E-04  0.0822
   1.4691E-02   1.5048E-02   8.5050E-04  0.0811
   1.5048E-02   1.5414E-02   8.0298E-04  0.0825
   1.5414E-02   1.5789E-02   7.4125E-04  0.0848
   1.5789E-02   1.6174E-02   8.2776E-04  0.0793
   1.6174E-02   1.6567E-02   7.7253E-04  0.0811
   1.6567E-02   1.6970E-02   7.6410E-04  0.0806
   1.6970E-02   1.7383E-02   8.2345E-04  0.0767
   1.7383E-02   1.7806E-02   7.3769E-04  0.0801
   1.7806E-02   1.8239E-02   8.7713E-04  0.0725
   1.8239E-02   1.8683E-02   8.2474E-04  0.0739
   1.8683E-02   1.9138E-02   8.1395E-04  0.0735
   1.9138E-02   1.9603E-02   8.0321E-04  0.0731
   1.9603E-02   2.0080E-02   8.3026E-04  0.0711
   2.0080E-02   2.0569E-02   8.0235E-04  0.0714
   2.0569E-02   2.1069E-02   8.7121E-04  0.0677
   2.1069E-02   2.1582E-02   8.3101E-04  0.0685
   2.1582E-02   2.2107E-02   9.0649E-04  0.0648
   2.2107E-02   2.2645E-02   9.1099E-04  0.0639
   2.2645E-02   2.3196E-02   8.4216E-04  0.0657
   2.3196E-02   2.3760E-02   8.5759E-04  0.0643
   2.3760E-02   2.4338E-02   9.2025E-04  0.0613
   2.4338E-02   2.4930E-02   7.3966E-04  0.0676
   2.4930E-02   2.5537E-02   9.2322E-04  0.0598
   2.5537E-02   2.6158E-02   8.8841E-04  0.0602
   2.6158E-02   2.6795E-02   8.2331E-04  0.0618
   2.6795E-02   2.7447E-02   9.5101E-04  0.0568
   2.7447E-02   2.8114E-02   9.3441E-04  0.0566
   2.8114E-02   2.8799E-02   9.4146E-04  0.0557
   2.8799E-02   2.9499E-02   9.5335E-04  0.0547
   2.9499E-02   3.0217E-02   1.0394E-03  0.0518
   3.0217E-02   3.0952E-02   9.5756E-04  0.0533
   3.0952E-02   3.1705E-02   9.7996E-04  0.0521
   3.1705E-02   3.2477E-02   9.2039E-04  0.0531
   3.2477E-02   3.3267E-02   8.9093E-04  0.0533
   3.3267E-02   3.4076E-02   1.0106E-03  0.0494
   3.4076E-02   3.4905E-02   1.0421E-03  0.0481
   3.4905E-02   3.5755E-02   1.0009E-03  0.0485
   3.5755E-02   3.6625E-02   9.6329E-04  0.0489
   3.6625E-02   3.7516E-02   9.7407E-04  0.0480
   3.7516E-02   3.8428E-02   1.0890E-03  0.0449
   3.8428E-02   3.9363E-02   1.1123E-03  0.0439
   3.9363E-02   4.0321E-02   1.0420E-03  0.0448
   4.0321E-02   4.1302E-02   1.0173E-03  0.0448
   4.1302E-02   4.2307E-02   1.0250E-03  0.0441
   4.2307E-02   4.3337E-02   1.0453E-03  0.0431
   4.3337E-02   4.4391E-02   1.0603E-03  0.0423
   4.4391E-02   4.5471E-02   1.1184E-03  0.0407
   4.5471E-02   4.6577E-02   1.1082E-03  0.0404
   4.6577E-02   4.7711E-02   1.1330E-03  0.0395
   4.7711E-02   4.8871E-02   1.1664E-03  0.0384
   4.8871E-02   5.0061E-02   1.0866E-03  0.0393
   5.0061E-02   5.1279E-02   1.1543E-03  0.0377
   5.1279E-02   5.2526E-02   1.1333E-03  0.0376
   5.2526E-02   5.3804E-02   1.1393E-03  0.0371
   5.3804E-02   5.5113E-02   1.1932E-03  0.0358
   5.5113E-02   5.6454E-02   1.1887E-03  0.0354
   5.6454E-02   5.7828E-02   1.1648E-03  0.0354
   5.7828E-02   5.9235E-02   1.1883E-03  0.0346
   5.9235E-02   6.0676E-02   1.1865E-03  0.0342
   6.0676E-02   6.2152E-02   1.1989E-03  0.0336
   6.2152E-02   6.3665E-02   1.1956E-03  0.0333
   6.3665E-02   6.5214E-02   1.1840E-03  0.0330
   6.5214E-02   6.6800E-02   1.1382E-03  0.0333
   6.6800E-02   6.8426E-02   1.1653E-03  0.0325
   6.8426E-02   7.0090E-02   1.1977E-03  0.0317
   7.0090E-02   7.1796E-02   1.2490E-03  0.0306
   7.1796E-02   7.3543E-02   1.2216E-03  0.0306
   7.3543E-02   7.5332E-02   1.2161E-03  0.0303
   7.5332E-02   7.7165E-02   1.2494E-03  0.0296
   7.7165E-02   7.9042E-02   1.2900E-03  0.0287
   7.9042E-02   8.0965E-02   1.1824E-03  0.0297
   8.0965E-02   8.2935E-02   1.2254E-03  0.0288
   8.2935E-02   8.4953E-02   1.2974E-03  0.0276
   8.4953E-02   8.7020E-02   1.2617E-03  0.0277
   8.7020E-02   8.9138E-02   1.3376E-03  0.0266
   8.9138E-02   9.1306E-02   1.2578E-03  0.0271
   9.1306E-02   9.3528E-02   1.3207E-03  0.0261
   9.3528E-02   9.5804E-02   1.3104E-03  0.0259
   9.5804E-02   9.8134E-02   1.3162E-03  0.0255
   9.8134E-02   1.0052E-01   1.3134E-03  0.0253
   1.0052E-01   1.0297E-01   1.3468E-03  0.0246
   1.0297E-01   1.0547E-01   1.3108E-03  0.0247
   1.0547E-01   1.0804E-01   1.3062E-03  0.0244
   1.0804E-01   1.1067E-01   1.3627E-03  0.0236
   1.1067E-01   1.1336E-01   1.3555E-03  0.0234
   1.1336E-01   1.1612E-01   1.3393E-03  0.0233
   1.1612E-01   1.1894E-01   1.3854E-03  0.0226
   1.1894E-01   1.2184E-01   1.3248E-03  0.0229
   1.2184E-01   1.2480E-01   1.3756E-03  0.0221
   1.2480E-01   1.2784E-01   1.3654E-03  0.0220
   1.2784E-01   1.3095E-01   1.3497E-03  0.0218
   1.3095E-01   1.3414E-01   1.3860E-03  0.0213
   1.3414E-01   1.3740E-01   1.4205E-03  0.0208
   1.3740E-01   1.4074E-01   1.4101E-03  0.0206
   1.4074E-01   1.4417E-01   1.3702E-03  0.0207
   1.4417E-01   1.4767E-01   1.3810E-03  0.0203
   1.4767E-01   1.5127E-01   1.3927E-03  0.0200
   1.5127E-01   1.5495E-01   1.4175E-03  0.0196
   1.5495E-01   1.5872E-01   1.3968E-03  0.0195
   1.5872E-01   1.6258E-01   1.3844E-03  0.0193
   1.6258E-01   1.6654E-01   1.3631E-03  0.0193
   1.6654E-01   1.7059E-01   1.3969E-03  0.0188
   1.7059E-01   1.7474E-01   1.4205E-03  0.0184
   1.7474E-01   1.7899E-01   1.4536E-03  0.0180
   1.7899E-01   1.8334E-01   1.4154E-03  0.0180
   1.8334E-01   1.8781E-01   1.4360E-03  0.0177
   1.8781E-01   1.9237E-01   1.3888E-03  0.0178
   1.9237E-01   1.9706E-01   1.3656E-03  0.0177
   1.9706E-01   2.0185E-01   1.4333E-03  0.0171
   2.0185E-01   2.0676E-01   1.3895E-03  0.0171
   2.0676E-01   2.1179E-01   1.3851E-03  0.0170
   2.1179E-01   2.1694E-01   1.4353E-03  0.0164
   2.1694E-01   2.2222E-01   1.4012E-03  0.0164
   2.2222E-01   2.2763E-01   1.3616E-03  0.0165
   2.2763E-01   2.3317E-01   1.4141E-03  0.0160
   2.3317E-01   2.3884E-01   1.3922E-03  0.0159
   2.3884E-01   2.4465E-01   1.3884E-03  0.0157
   2.4465E-01   2.5061E-01   1.4380E-03  0.0153
   2.5061E-01   2.5670E-01   1.3773E-03  0.0154
   2.5670E-01   2.6295E-01   1.3984E-03  0.0151
   2.6295E-01   2.6935E-01   1.3852E-03  0.0150
   2.6935E-01   2.7590E-01   1.3626E-03  0.0150
   2.7590E-01   2.8261E-01   1.3353E-03  0.0149
   2.8261E-01   2.8949E-01   1.3807E-03  0.0145
   2.8949E-01   2.9653E-01   1.3601E-03  0.0145
   2.9653E-01   3.0375E-01   1.3472E-03  0.0143
   3.0375E-01   3.1114E-01   1.3588E-03  0.0141
   3.1114E-01   3.1871E-01   1.3466E-03  0.0140
   3.1871E-01   3.2646E-01   1.3195E-03  0.0140
   3.2646E-01   3.3441E-01   1.3166E-03  0.0138
   3.3441E-01   3.4254E-01   1.3070E-03  0.0137
   3.4254E-01   3.5088E-01   1.2884E-03  0.0137
   3.5088E-01   3.5941E-01   1.2733E-03  0.0136
   3.5941E-01   3.6816E-01   1.2666E-03  0.0134
   3.6816E-01   3.7712E-01   1.2628E-03  0.0133
   3.7712E-01   3.8629E-01   1.2625E-03  0.0131
   3.8629E-01   3.9569E-01   1.2325E-03  0.0131
   3.9569E-01   4.0532E-01   1.2425E-03  0.0129
   4.0532E-01   4.1518E-01   1.2331E-03  0.0128
   4.1518E-01   4.2528E-01   1.2358E-03  0.0127
   4.2528E-01   4.3563E-01   1.2152E-03  0.0126
   4.3563E-01   4.4623E-01   1.2339E-03  0.0124
   4.4623E-01   4.5708E-01   1.1869E-03  0.0125
   4.5708E-01   4.6821E-01   1.1519E-03  0.0125
   4.6821E-01   4.7960E-01   1.1614E-03  0.0123
   4.7960E-01   4.9127E-01   1.1007E-03  0.0125
   4.9127E-01   5.0322E-01   1.0980E-03  0.0123
   5.0322E-01   5.1546E-01   1.0944E-03  0.0122
   5.1546E-01   5.2800E-01   1.0605E-03  0.0123
   5.2800E-01   5.4085E-01   1.0674E-03  0.0121
   5.4085E-01   5.5401E-01   1.0542E-03  0.0120
   5.5401E-01   5.6749E-01   9.9544E-04  0.0122
   5.6749E-01   5.8130E-01   1.0164E-03  0.0119
   5.8130E-01   5.9544E-01   9.9707E-04  0.0119
   5.9544E-01   6.0993E-01   9.6607E-04  0.0120
   6.0993E-01   6.2477E-01   9.4258E-04  0.0120
   6.2477E-01   6.3997E-01   9.5032E-04  0.0118
   6.3997E-01   6.5554E-01   9.1863E-04  0.0118
   6.5554E-01   6.7149E-01   8.8703E-04  0.0119
   6.7149E-01   6.8783E-01   8.7086E-04  0.0119
   6.8783E-01   7.0456E-01   8.6141E-04  0.0118
   7.0456E-01   7.2171E-01   8.1096E-04  0.0120
   7.2171E-01   7.3927E-01   7.9324E-04  0.0120
   7.3927E-01   7.5725E-01   7.7401E-04  0.0120
   7.5725E-01   7.7568E-01   7.5106E-04  0.0120
   7.7568E-01   7.9455E-01   7.2602E-04  0.0121
   7.9455E-01   8.1388E-01   6.9972E-04  0.0122
   8.1388E-01   8.3368E-01   6.9032E-04  0.0121
   8.3368E-01   8.5397E-01   6.6120E-04  0.0122
   8.5397E-01   8.7475E-01   6.3125E-04  0.0124
   8.7475E-01   8.9603E-01   6.0423E-04  0.0125
   8.9603E-01   9.1783E-01   5.6171E-04  0.0128
   9.1783E-01   9.4016E-01   5.6422E-04  0.0126
   9.4016E-01   9.6304E-01   5.2844E-04  0.0129
   9.6304E-01   9.8647E-01   5.0889E-04  0.0130
   9.8647E-01   1.0105E+00   4.8497E-04  0.0131
   1.0105E+00   1.0351E+00   4.8289E-04  0.0130
   1.0351E+00   1.0602E+00   4.8492E-04  0.0128
   1.0602E+00   1.0860E+00   4.7030E-04  0.0128
   1.0860E+00   1.1125E+00   4.8736E-04  0.0125
   1.1125E+00   1.1395E+00   4.9159E-04  0.0123
   1.1395E+00   1.1673E+00   4.7862E-04  0.0123
   1.1673E+00   1.1957E+00   4.8507E-04  0.0121
   1.1957E+00   1.2247E+00   4.9637E-04  0.0118
   1.2247E+00   1.2545E+00   5.0075E-04  0.0116
   1.2545E+00   1.2851E+00   4.8886E-04  0.0116
   1.2851E+00   1.3163E+00   4.9062E-04  0.0114
   1.3163E+00   1.3484E+00   4.8814E-04  0.0113
   1.3484E+00   1.3812E+00   4.7746E-04  0.0113
   1.3812E+00   1.4148E+00   4.9915E-04  0.0109
   1.4148E+00   1.4492E+00   4.7876E-04  0.0110
   1.4492E+00   1.4845E+00   4.8383E-04  0.0108
   1.4845E+00   1.5206E+00   4.6287E-04  0.0109
   1.5206E+00   1.5576E+00   4.5609E-04  0.0109
   1.5576E+00   1.5955E+00   4.5355E-04  0.0108
   1.5955E+00   1.6343E+00   4.5251E-04  0.0107
   1.6343E+00   1.6741E+00   4.3809E-04  0.0107
   1.6741E+00   1.7148E+00   4.4084E-04  0.0106
   1.7148E+00   1.7565E+00   4.3502E-04  0.0105
   1.7565E+00   1.7992E+00   4.2043E-04  0.0106
   1.7992E+00   1.8430E+00   4.1209E-04  0.0105
   1.8430E+00   1.8879E+00   4.0449E-04  0.0105
   1.8879E+00   1.9338E+00   3.9662E-04  0.0105
   1.9338E+00   1.9808E+00   3.8405E-04  0.0105
   1.9808E+00   2.0290E+00   3.7804E-04  0.0105
   2.0290E+00   2.0784E+00   3.6526E-04  0.0105
   2.0784E+00   2.1290E+00   3.5646E-04  0.0105
   2.1290E+00   2.1808E+00   3.4232E-04  0.0106
   2.1808E+00   2.2338E+00   3.2635E-04  0.0108
   2.2338E+00   2.2882E+00   3.1205E-04  0.0109
   2.2882E+00   2.3439E+00   3.0208E-04  0.0109
   2.3439E+00   2.4009E+00   2.9838E-04  0.0108
   2.4009E+00   2.4593E+00   2.8749E-04  0.0109
   2.4593E+00   2.5191E+00   2.7879E-04  0.0110
   2.5191E+00   2.5804E+00   2.6483E-04  0.0111
   2.5804E+00   2.6432E+00   2.5293E-04  0.0112
   2.6432E+00   2.7075E+00   2.4042E-04  0.0114
   2.7075E+00   2.7734E+00   2.2846E-04  0.0115
   2.7734E+00   2.8409E+00   2.1962E-04  0.0116
   2.8409E+00   2.9100E+00   2.0223E-04  0.0120
   2.9100E+00   2.9808E+00   1.9779E-04  0.0120
   2.9808E+00   3.0533E+00   1.9072E-04  0.0120
   3.0533E+00   3.1276E+00   1.7725E-04  0.0123
   3.1276E+00   3.2037E+00   1.6671E-04  0.0126
   3.2037E+00   3.2817E+00   1.6236E-04  0.0126
   3.2817E+00   3.3615E+00   1.4981E-04  0.0129
   3.3615E+00   3.4433E+00   1.4019E-04  0.0132
   3.4433E+00   3.5271E+00   1.3455E-04  0.0133
   3.5271E+00   3.6129E+00   1.2133E-04  0.0139
   3.6129E+00   3.7008E+00   1.1644E-04  0.0140
   3.7008E+00   3.7908E+00   1.0893E-04  0.0143
   3.7908E+00   3.8831E+00   1.0335E-04  0.0145
   3.8831E+00   3.9776E+00   9.5514E-05  0.0149
   3.9776E+00   4.0743E+00   8.7913E-05  0.0153
   4.0743E+00   4.1735E+00   8.2940E-05  0.0156
   4.1735E+00   4.2750E+00   7.6538E-05  0.0160
   4.2750E+00   4.3790E+00   6.9337E-05  0.0167
   4.3790E+00   4.4856E+00   6.4273E-05  0.0171
   4.4856E+00   4.5947E+00   5.9246E-05  0.0176
   4.5947E+00   4.7065E+00   5.5317E-05  0.0180
   4.7065E+00   4.8210E+00   5.0108E-05  0.0187
   4.8210E+00   4.9383E+00   4.6019E-05  0.0192
   4.9383E+00   5.0585E+00   4.2479E-05  0.0198
   5.0585E+00   5.1815E+00   3.9358E-05  0.0203
   5.1815E+00   5.3076E+00   3.5885E-05  0.0210
   5.3076E+00   5.4368E+00   3.2833E-05  0.0217
   5.4368E+00   5.5690E+00   2.9437E-05  0.0227
   5.5690E+00   5.7045E+00   2.7351E-05  0.0232
   5.7045E+00   5.8433E+00   2.4943E-05  0.0240
   5.8433E+00   5.9855E+00   2.1734E-05  0.0254
   5.9855E+00   6.1311E+00   2.0051E-05  0.0262
   6.1311E+00   6.2803E+00   1.8850E-05  0.0267
   6.2803E+00   6.4331E+00   1.6701E-05  0.0280
   6.4331E+00   6.5896E+00   1.4343E-05  0.0298
   6.5896E+00   6.7500E+00   1.3123E-05  0.0308
   6.7500E+00   6.9142E+00   1.1654E-05  0.0323
   6.9142E+00   7.0824E+00   1.1211E-05  0.0326
   7.0824E+00   7.2548E+00   9.9930E-06  0.0341
   7.2548E+00   7.4313E+00   9.3137E-06  0.0349
   7.4313E+00   7.6121E+00   8.0472E-06  0.0371
   7.6121E+00   7.7973E+00   6.9058E-06  0.0395
   7.7973E+00   7.9870E+00   6.5098E-06  0.0402
   7.9870E+00   8.1813E+00   5.5781E-06  0.0430
   8.1813E+00   8.3804E+00   5.1191E-06  0.0443
   8.3804E+00   8.5843E+00   4.5414E-06  0.0465
   8.5843E+00   8.7931E+00   4.7304E-06  0.0450
   8.7931E+00   9.0071E+00   3.8141E-06  0.0494
   9.0071E+00   9.2262E+00   3.6779E-06  0.0499
   9.2262E+00   9.4507E+00   3.1762E-06  0.0529
   9.4507E+00   9.6807E+00   3.1182E-06  0.0528
   9.6807E+00   9.9162E+00   2.4624E-06  0.0587
   9.9162E+00   1.0157E+01   2.5615E-06  0.0568
   1.0157E+01   1.0405E+01   2.2133E-06  0.0603
   1.0405E+01   1.0658E+01   1.9040E-06  0.0642
   1.0658E+01   1.0917E+01   1.7932E-06  0.0655
   1.0917E+01   1.1183E+01   1.8523E-06  0.0636
   1.1183E+01   1.1455E+01   1.4995E-06  0.0698
   1.1455E+01   1.1733E+01   1.4460E-06  0.0701
   1.1733E+01   1.2019E+01   1.3276E-06  0.0724
   1.2019E+01   1.2311E+01   1.2755E-06  0.0732
   1.2311E+01   1.2611E+01   8.5463E-07  0.0882
   1.2611E+01   1.2918E+01   1.0429E-06  0.0789
   1.2918E+01   1.3232E+01   9.2269E-07  0.0829
   1.3232E+01   1.3554E+01   8.7903E-07  0.0840
   1.3554E+01   1.3884E+01   7.2776E-07  0.0911
   1.3884E+01   1.4222E+01   8.2000E-07  0.0849
   1.4222E+01   1.4568E+01   7.9185E-07  0.0854
   1.4568E+01   1.4922E+01   6.1505E-07  0.0958
   1.4922E+01   1.5285E+01   6.7481E-07  0.0903
   1.5285E+01   1.5657E+01   6.6147E-07  0.0902
   1.5657E+01   1.6038E+01   5.8013E-07  0.0948
   1.6038E+01   1.6428E+01   5.9710E-07  0.0925
   1.6428E+01   1.6828E+01   5.5790E-07  0.0944
   1.6828E+01   1.7237E+01   4.6894E-07  0.1021
   1.7237E+01   1.7657E+01   4.1726E-07  0.1068
   1.7657E+01   1.8086E+01   4.8417E-07  0.0981
   1.8086E+01   1.8526E+01   4.7948E-07  0.0972
   1.8526E+01   1.8977E+01   5.2356E-07  0.0921
   1.8977E+01   1.9439E+01   3.9634E-07  0.1044
   1.9439E+01   1.9912E+01   4.9898E-07  0.0921
   1.9912E+01   2.0396E+01   4.2108E-07  0.0990
   2.0396E+01   2.0893E+01   3.9899E-07  0.1005
   2.0893E+01   2.1401E+01   3.5016E-07  0.1060
   2.1401E+01   2.1922E+01   3.9178E-07  0.0990
   2.1922E+01   2.2455E+01   3.2998E-07  0.1066
   2.2455E+01   2.3001E+01   3.6607E-07  0.1000
   2.3001E+01   2.3561E+01   3.3593E-07  0.1031
   2.3561E+01   2.4134E+01   2.7911E-07  0.1118
   2.4134E+01   2.4721E+01   3.0654E-07  0.1054
   2.4721E+01   2.5323E+01   2.9926E-07  0.1054
   2.5323E+01   2.5939E+01   2.9539E-07  0.1048
   2.5939E+01   2.6570E+01   2.7887E-07  0.1066
   2.6570E+01   2.7217E+01   2.2584E-07  0.1170
   2.7217E+01   2.7879E+01   2.0235E-07  0.1222
   2.7879E+01   2.8557E+01   2.2408E-07  0.1147
   2.8557E+01   2.9252E+01   1.8134E-07  0.1260
   2.9252E+01   2.9964E+01   1.7703E-07  0.1260
   2.9964E+01   3.0693E+01   1.7557E-07  0.1250
   3.0693E+01   3.1440E+01   1.7408E-07  0.1240
   3.1440E+01   3.2205E+01   1.4641E-07  0.1336
   3.2205E+01   3.2988E+01   1.4038E-07  0.1348
   3.2988E+01   3.3791E+01   1.5449E-07  0.1270
   3.3791E+01   3.4613E+01   1.1190E-07  0.1474
   3.4613E+01   3.5455E+01   1.3299E-07  0.1336
   3.5455E+01   3.6318E+01   9.9693E-08  0.1525
   3.6318E+01   3.7201E+01   9.5062E-08  0.1543
   3.7201E+01   3.8106E+01   9.9432E-08  0.1491
   3.8106E+01   3.9034E+01   9.0599E-08  0.1543
   3.9034E+01   3.9983E+01   7.1600E-08  0.1715
   3.9983E+01   4.0956E+01   5.1397E-08  0.2000
   4.0956E+01   4.1953E+01   6.6232E-08  0.1741
   4.1953E+01   4.2973E+01   4.7025E-08  0.2041
   4.2973E+01   4.4019E+01   4.2082E-08  0.2132
   4.4019E+01   4.5090E+01   4.2950E-08  0.2085
   4.5090E+01   4.6187E+01   4.7399E-08  0.1961
   4.6187E+01   4.7311E+01   2.4916E-08  0.2673
   4.7311E+01   4.8462E+01   4.3436E-08  0.2000
   4.8462E+01   4.9641E+01   2.5443E-08  0.2582
   4.9641E+01   5.0849E+01   2.4838E-08  0.2582
   5.0849E+01   5.2086E+01   2.9098E-08  0.2357
   5.2086E+01   5.3353E+01   1.4203E-08  0.3333
   5.3353E+01   5.4651E+01   1.0785E-08  0.3780
   5.4651E+01   5.5981E+01   7.5204E-09  0.4472
   5.5981E+01   5.7343E+01   4.4051E-09  0.5774
   5.7343E+01   5.8738E+01   7.1674E-09  0.4472
   5.8738E+01   6.0168E+01   1.3994E-09  1.0000
   6.0168E+01   6.1632E+01   1.3662E-09  1.0000
   6.1632E+01   6.3131E+01   9.3362E-09  0.3780
   6.3131E+01   6.4667E+01   2.6041E-09  0.7071
   6.4667E+01   6.6240E+01   1.2711E-09  1.0000
   6.6240E+01   6.7852E+01   2.4819E-09  0.7071
   6.7852E+01   6.9503E+01   4.8459E-09  0.5000
   6.9503E+01   7.1194E+01   1.1827E-09  1.0000
   7.1194E+01   7.2926E+01   0.0000E+00  0.0000
   7.2926E+01   7.4701E+01   0.0000E+00  0.0000
   7.4701E+01   7.6518E+01   0.0000E+00  0.0000
   7.6518E+01   7.8380E+01   0.0000E+00  0.0000
   7.8380E+01   8.0287E+01   0.0000E+00  0.0000
   8.0287E+01   8.2240E+01   1.0238E-09  1.0000
   8.2240E+01   8.4241E+01   0.0000E+00  0.0000
   8.4241E+01   8.6291E+01   0.0000E+00  0.0000
   8.6291E+01   8.8391E+01   0.0000E+00  0.0000
   8.8391E+01   9.0541E+01   0.0000E+00  0.0000
   9.0541E+01   9.2744E+01   0.0000E+00  0.0000
   9.2744E+01   9.5001E+01   0.0000E+00  0.0000
   9.5001E+01   9.7312E+01   0.0000E+00  0.0000
   9.7312E+01   9.9680E+01   0.0000E+00  0.0000
   9.9680E+01   1.0211E+02   0.0000E+00  0.0000
   1.0211E+02   1.0459E+02   0.0000E+00  0.0000
   1.0459E+02   1.0713E+02   0.0000E+00  0.0000
   1.0713E+02   1.0974E+02   0.0000E+00  0.0000
   1.0974E+02   1.1241E+02   0.0000E+00  0.0000
   1.1241E+02   1.1515E+02   0.0000E+00  0.0000
   1.1515E+02   1.1795E+02   0.0000E+00  0.0000
   1.1795E+02   1.2082E+02   0.0000E+00  0.0000
   1.2082E+02   1.2376E+02   0.0000E+00  0.0000
   1.2376E+02   1.2677E+02   0.0000E+00  0.0000
   1.2677E+02   1.2985E+02   0.0000E+00  0.0000
   1.2985E+02   1.3301E+02   0.0000E+00  0.0000
   1.3301E+02   1.3625E+02   0.0000E+00  0.0000
   1.3625E+02   1.3956E+02   0.0000E+00  0.0000
   1.3956E+02   1.4296E+02   0.0000E+00  0.0000
   1.4296E+02   1.4644E+02   0.0000E+00  0.0000
   1.4644E+02   1.5000E+02   0.0000E+00  0.0000

#   sum over                 1.3449E-05
'no. =    1   reg = 121 - 221'
msuc: {\huge [t-cross] in region mesh}
msdr: {\it plotted by \ANGEL \version}
msdl: {\it calculated by \PHITS  3.26}
wt: s(0.7)
\vspace{-3}
  region surface crossing
  area  &=&   1.0000E+00 [cm^2]
e:
 
# Information for Restart Calculation
# This calculation was newly started
# istdev =  2 # 1:Batch variance, 2:History variance
# resc2  = 5.00000000000000000E+08 # Total source weight or Total source weight / maxcas
# resc3  = 5.00000000000000000E+08 # Total history number or Total batch number
# maxcas =   500000000 # History / Batch, only used for istdev=1
# bitrseed = 1101101111010011011000101101110001100110110010110001010100010001 # bit data of rseed
