[ T-Cross ]
    title = [t-cross] in region mesh
     mesh =  reg            # mesh type is region-wise
      reg =    1            # number of crossing regions
      non     r-from    r-to       area
      1       112       212        1.000000    
   e-type =    3            # e-mesh is log given by emin, emax and ne
     emin =  1.0000000E-02  # minimum value of e-mesh points
     emax =   150.0000      # maximum value of e-mesh points
#    edel =  2.4039514E-02  # mesh width of e-mesh points
       ne =    400          # number of e-mesh points
#    data = ( e(i), i = 1, ne + 1 )
#           1.00000E-02  1.02433E-02  1.04925E-02  1.07478E-02  1.10093E-02
#           1.12772E-02  1.15516E-02  1.18326E-02  1.21205E-02  1.24154E-02
#           1.27175E-02  1.30269E-02  1.33439E-02  1.36686E-02  1.40011E-02
#           1.43418E-02  1.46907E-02  1.50482E-02  1.54143E-02  1.57894E-02
#           1.61735E-02  1.65670E-02  1.69701E-02  1.73830E-02  1.78060E-02
#           1.82392E-02  1.86830E-02  1.91375E-02  1.96032E-02  2.00801E-02
#           2.05687E-02  2.10692E-02  2.15818E-02  2.21069E-02  2.26448E-02
#           2.31957E-02  2.37601E-02  2.43382E-02  2.49304E-02  2.55369E-02
#           2.61583E-02  2.67947E-02  2.74467E-02  2.81145E-02  2.87985E-02
#           2.94992E-02  3.02169E-02  3.09521E-02  3.17052E-02  3.24766E-02
#           3.32668E-02  3.40762E-02  3.49053E-02  3.57546E-02  3.66246E-02
#           3.75157E-02  3.84284E-02  3.93634E-02  4.03212E-02  4.13022E-02
#           4.23071E-02  4.33365E-02  4.43909E-02  4.54710E-02  4.65773E-02
#           4.77106E-02  4.88714E-02  5.00605E-02  5.12785E-02  5.25262E-02
#           5.38042E-02  5.51133E-02  5.64542E-02  5.78278E-02  5.92348E-02
#           6.06760E-02  6.21523E-02  6.36645E-02  6.52135E-02  6.68002E-02
#           6.84255E-02  7.00904E-02  7.17957E-02  7.35426E-02  7.53319E-02
#           7.71648E-02  7.90423E-02  8.09655E-02  8.29354E-02  8.49533E-02
#           8.70203E-02  8.91376E-02  9.13064E-02  9.35279E-02  9.58035E-02
#           9.81345E-02  1.00522E-01  1.02968E-01  1.05473E-01  1.08040E-01
#           1.10668E-01  1.13361E-01  1.16119E-01  1.18944E-01  1.21838E-01
#           1.24803E-01  1.27839E-01  1.30950E-01  1.34136E-01  1.37399E-01
#           1.40742E-01  1.44167E-01  1.47675E-01  1.51268E-01  1.54948E-01
#           1.58718E-01  1.62580E-01  1.66535E-01  1.70587E-01  1.74738E-01
#           1.78989E-01  1.83344E-01  1.87805E-01  1.92375E-01  1.97055E-01
#           2.01850E-01  2.06761E-01  2.11792E-01  2.16945E-01  2.22223E-01
#           2.27630E-01  2.33169E-01  2.38842E-01  2.44653E-01  2.50605E-01
#           2.56703E-01  2.62949E-01  2.69346E-01  2.75900E-01  2.82613E-01
#           2.89489E-01  2.96532E-01  3.03747E-01  3.11138E-01  3.18708E-01
#           3.26462E-01  3.34405E-01  3.42542E-01  3.50876E-01  3.59413E-01
#           3.68158E-01  3.77116E-01  3.86291E-01  3.95690E-01  4.05317E-01
#           4.15179E-01  4.25281E-01  4.35628E-01  4.46227E-01  4.57084E-01
#           4.68205E-01  4.79597E-01  4.91266E-01  5.03219E-01  5.15463E-01
#           5.28005E-01  5.40851E-01  5.54011E-01  5.67490E-01  5.81298E-01
#           5.95441E-01  6.09929E-01  6.24769E-01  6.39970E-01  6.55541E-01
#           6.71491E-01  6.87828E-01  7.04564E-01  7.21706E-01  7.39266E-01
#           7.57253E-01  7.75678E-01  7.94551E-01  8.13883E-01  8.33685E-01
#           8.53969E-01  8.74747E-01  8.96030E-01  9.17831E-01  9.40163E-01
#           9.63038E-01  9.86469E-01  1.01047E+00  1.03506E+00  1.06024E+00
#           1.08604E+00  1.11246E+00  1.13953E+00  1.16725E+00  1.19565E+00
#           1.22474E+00  1.25454E+00  1.28507E+00  1.31633E+00  1.34836E+00
#           1.38117E+00  1.41477E+00  1.44920E+00  1.48446E+00  1.52057E+00
#           1.55757E+00  1.59547E+00  1.63429E+00  1.67405E+00  1.71478E+00
#           1.75650E+00  1.79924E+00  1.84302E+00  1.88786E+00  1.93379E+00
#           1.98084E+00  2.02904E+00  2.07841E+00  2.12898E+00  2.18078E+00
#           2.23384E+00  2.28819E+00  2.34386E+00  2.40089E+00  2.45930E+00
#           2.51914E+00  2.58043E+00  2.64322E+00  2.70753E+00  2.77341E+00
#           2.84088E+00  2.91001E+00  2.98081E+00  3.05333E+00  3.12762E+00
#           3.20372E+00  3.28167E+00  3.36152E+00  3.44330E+00  3.52708E+00
#           3.61290E+00  3.70080E+00  3.79085E+00  3.88308E+00  3.97756E+00
#           4.07434E+00  4.17347E+00  4.27501E+00  4.37903E+00  4.48557E+00
#           4.59471E+00  4.70650E+00  4.82102E+00  4.93832E+00  5.05847E+00
#           5.18155E+00  5.30762E+00  5.43676E+00  5.56904E+00  5.70453E+00
#           5.84333E+00  5.98550E+00  6.13114E+00  6.28031E+00  6.43312E+00
#           6.58964E+00  6.74997E+00  6.91420E+00  7.08243E+00  7.25475E+00
#           7.43126E+00  7.61207E+00  7.79728E+00  7.98700E+00  8.18133E+00
#           8.38038E+00  8.58428E+00  8.79315E+00  9.00709E+00  9.22624E+00
#           9.45072E+00  9.68067E+00  9.91620E+00  1.01575E+01  1.04046E+01
#           1.06578E+01  1.09171E+01  1.11827E+01  1.14548E+01  1.17335E+01
#           1.20190E+01  1.23114E+01  1.26109E+01  1.29178E+01  1.32321E+01
#           1.35540E+01  1.38838E+01  1.42216E+01  1.45676E+01  1.49221E+01
#           1.52851E+01  1.56570E+01  1.60380E+01  1.64282E+01  1.68279E+01
#           1.72374E+01  1.76568E+01  1.80864E+01  1.85264E+01  1.89772E+01
#           1.94389E+01  1.99119E+01  2.03963E+01  2.08926E+01  2.14009E+01
#           2.19216E+01  2.24550E+01  2.30014E+01  2.35610E+01  2.41343E+01
#           2.47215E+01  2.53230E+01  2.59391E+01  2.65702E+01  2.72167E+01
#           2.78789E+01  2.85572E+01  2.92520E+01  2.99637E+01  3.06928E+01
#           3.14396E+01  3.22045E+01  3.29881E+01  3.37907E+01  3.46128E+01
#           3.54550E+01  3.63177E+01  3.72013E+01  3.81064E+01  3.90336E+01
#           3.99833E+01  4.09561E+01  4.19526E+01  4.29734E+01  4.40189E+01
#           4.50900E+01  4.61870E+01  4.73108E+01  4.84619E+01  4.96410E+01
#           5.08488E+01  5.20860E+01  5.33533E+01  5.46514E+01  5.59812E+01
#           5.73432E+01  5.87384E+01  6.01676E+01  6.16315E+01  6.31311E+01
#           6.46671E+01  6.62405E+01  6.78522E+01  6.95031E+01  7.11941E+01
#           7.29263E+01  7.47007E+01  7.65182E+01  7.83800E+01  8.02870E+01
#           8.22405E+01  8.42414E+01  8.62911E+01  8.83906E+01  9.05412E+01
#           9.27442E+01  9.50007E+01  9.73122E+01  9.96799E+01  1.02105E+02
#           1.04589E+02  1.07134E+02  1.09741E+02  1.12411E+02  1.15146E+02
#           1.17948E+02  1.20817E+02  1.23757E+02  1.26768E+02  1.29852E+02
#           1.33012E+02  1.36248E+02  1.39563E+02  1.42959E+02  1.46437E+02
#           1.50000E+02
     unit =    2            # unit is [1/cm^2/(MeV/n)/source]
     axis =  eng            # axis of output
     file = detector-13.out  # file name of output for the above axis
   output = f-curr          # surface crossing forward current spectrum
     part =  neutron  
# kf/name :  2112     
#    used :        main (  %)        temp (  %)       total (  %)
#  memory :         414 (  0)           0 (  0)         414 (  0)

#------------------------------------------------------------------------------
#newpage:
#   no. =    1   reg = 112 - 212

x: Energy [MeV/n]
y:  F-Curr [1/cm^2/(MeV/n)/source]         
p: xlog ylog afac(0.8) form(0.9)
h: n            x            y(neutron ),hh0l   n 
#  e-lower      e-upper      neutron     r.err 
   1.0000E-02   1.0243E-02   1.1781E-03  0.0831
   1.0243E-02   1.0493E-02   1.0786E-03  0.0859
   1.0493E-02   1.0748E-02   1.2004E-03  0.0805
   1.0748E-02   1.1009E-02   1.1930E-03  0.0797
   1.1009E-02   1.1277E-02   9.4623E-04  0.0884
   1.1277E-02   1.1552E-02   1.0701E-03  0.0822
   1.1552E-02   1.1833E-02   1.1600E-03  0.0780
   1.1833E-02   1.2121E-02   1.1767E-03  0.0762
   1.2121E-02   1.2415E-02   1.0855E-03  0.0787
   1.2415E-02   1.2718E-02   1.0582E-03  0.0786
   1.2718E-02   1.3027E-02   9.3904E-04  0.0825
   1.3027E-02   1.3344E-02   8.5499E-04  0.0854
   1.3344E-02   1.3669E-02   9.2180E-04  0.0813
   1.3669E-02   1.4001E-02   9.1480E-04  0.0809
   1.4001E-02   1.4342E-02   8.5921E-04  0.0824
   1.4342E-02   1.4691E-02   9.5138E-04  0.0771
   1.4691E-02   1.5048E-02   8.7670E-04  0.0796
   1.5048E-02   1.5414E-02   7.2709E-04  0.0860
   1.5414E-02   1.5789E-02   9.0055E-04  0.0764
   1.5789E-02   1.6174E-02   8.2815E-04  0.0789
   1.6174E-02   1.6567E-02   7.6410E-04  0.0813
   1.6567E-02   1.6970E-02   8.6888E-04  0.0752
   1.6970E-02   1.7383E-02   7.9369E-04  0.0780
   1.7383E-02   1.7806E-02   7.6792E-04  0.0780
   1.7806E-02   1.8239E-02   8.1607E-04  0.0748
   1.8239E-02   1.8683E-02   7.2679E-04  0.0785
   1.8683E-02   1.9138E-02   6.3634E-04  0.0827
   1.9138E-02   1.9603E-02   7.1771E-04  0.0768
   1.9603E-02   2.0080E-02   7.0626E-04  0.0766
   2.0080E-02   2.0569E-02   7.3056E-04  0.0747
   2.0569E-02   2.1069E-02   5.7923E-04  0.0826
   2.1069E-02   2.1582E-02   6.4457E-04  0.0772
   2.1582E-02   2.2107E-02   6.0034E-04  0.0792
   2.2107E-02   2.2645E-02   5.8914E-04  0.0791
   2.2645E-02   2.3196E-02   6.4180E-04  0.0749
   2.3196E-02   2.3760E-02   6.5272E-04  0.0734
   2.3760E-02   2.4338E-02   6.2048E-04  0.0745
   2.4338E-02   2.4930E-02   5.3534E-04  0.0789
   2.4930E-02   2.5537E-02   5.8821E-04  0.0746
   2.5537E-02   2.6158E-02   5.4174E-04  0.0766
   2.6158E-02   2.6795E-02   4.6640E-04  0.0818
   2.6795E-02   2.7447E-02   5.8221E-04  0.0722
   2.7447E-02   2.8114E-02   5.8168E-04  0.0714
   2.8114E-02   2.8799E-02   5.2011E-04  0.0746
   2.8799E-02   2.9499E-02   5.2532E-04  0.0733
   2.9499E-02   3.0217E-02   5.1883E-04  0.0730
   3.0217E-02   3.0952E-02   4.2428E-04  0.0797
   3.0952E-02   3.1705E-02   4.5504E-04  0.0762
   3.1705E-02   3.2477E-02   4.2577E-04  0.0778
   3.2477E-02   3.3267E-02   4.5925E-04  0.0739
   3.3267E-02   3.4076E-02   4.3114E-04  0.0751
   3.4076E-02   3.4905E-02   4.4679E-04  0.0729
   3.4905E-02   3.5755E-02   5.0389E-04  0.0682
   3.5755E-02   3.6625E-02   4.9488E-04  0.0677
   3.6625E-02   3.7516E-02   4.2423E-04  0.0726
   3.7516E-02   3.8428E-02   3.7574E-04  0.0759
   3.8428E-02   3.9363E-02   4.0893E-04  0.0719
   3.9363E-02   4.0321E-02   3.4409E-04  0.0776
   4.0321E-02   4.1302E-02   4.3987E-04  0.0679
   4.1302E-02   4.2307E-02   3.6493E-04  0.0734
   4.2307E-02   4.3337E-02   3.9841E-04  0.0695
   4.3337E-02   4.4391E-02   3.2148E-04  0.0766
   4.4391E-02   4.5471E-02   3.6324E-04  0.0710
   4.5471E-02   4.6577E-02   3.1531E-04  0.0753
   4.6577E-02   4.7711E-02   3.9527E-04  0.0665
   4.7711E-02   4.8871E-02   3.5812E-04  0.0691
   4.8871E-02   5.0061E-02   3.7104E-04  0.0671
   5.0061E-02   5.1279E-02   3.0757E-04  0.0730
   5.1279E-02   5.2526E-02   2.9784E-04  0.0731
   5.2526E-02   5.3804E-02   3.4716E-04  0.0669
   5.3804E-02   5.5113E-02   3.2888E-04  0.0679
   5.5113E-02   5.6454E-02   3.0021E-04  0.0701
   5.6454E-02   5.7828E-02   3.0480E-04  0.0688
   5.7828E-02   5.9235E-02   3.0277E-04  0.0684
   5.9235E-02   6.0676E-02   2.7712E-04  0.0703
   6.0676E-02   6.2152E-02   3.0645E-04  0.0661
   6.2152E-02   6.3665E-02   3.0655E-04  0.0653
   6.3665E-02   6.5214E-02   2.6665E-04  0.0692
   6.5214E-02   6.6800E-02   2.8369E-04  0.0664
   6.6800E-02   6.8426E-02   2.6757E-04  0.0676
   6.8426E-02   7.0090E-02   2.6040E-04  0.0676
   7.0090E-02   7.1796E-02   2.5707E-04  0.0673
   7.1796E-02   7.3543E-02   2.2007E-04  0.0717
   7.3543E-02   7.5332E-02   2.5871E-04  0.0654
   7.5332E-02   7.7165E-02   2.3402E-04  0.0679
   7.7165E-02   7.9042E-02   2.3985E-04  0.0661
   7.9042E-02   8.0965E-02   2.3386E-04  0.0665
   8.0965E-02   8.2935E-02   2.2744E-04  0.0665
   8.2935E-02   8.4953E-02   2.5350E-04  0.0622
   8.4953E-02   8.7020E-02   1.8984E-04  0.0709
   8.7020E-02   8.9138E-02   2.1136E-04  0.0665
   8.9138E-02   9.1306E-02   2.0458E-04  0.0669
   9.1306E-02   9.3528E-02   1.7762E-04  0.0709
   9.3528E-02   9.5804E-02   1.8704E-04  0.0681
   9.5804E-02   9.8134E-02   2.0053E-04  0.0651
   9.8134E-02   1.0052E-01   2.0884E-04  0.0630
   1.0052E-01   1.0297E-01   1.7202E-04  0.0686
   1.0297E-01   1.0547E-01   1.8095E-04  0.0662
   1.0547E-01   1.0804E-01   2.0770E-04  0.0609
   1.0804E-01   1.1067E-01   1.9490E-04  0.0623
   1.1067E-01   1.1336E-01   1.6931E-04  0.0659
   1.1336E-01   1.1612E-01   1.6947E-04  0.0650
   1.1612E-01   1.1894E-01   1.7665E-04  0.0629
   1.1894E-01   1.2184E-01   1.7244E-04  0.0630
   1.2184E-01   1.2480E-01   1.4578E-04  0.0677
   1.2480E-01   1.2784E-01   1.5701E-04  0.0644
   1.2784E-01   1.3095E-01   1.6504E-04  0.0622
   1.3095E-01   1.3414E-01   1.4387E-04  0.0657
   1.3414E-01   1.3740E-01   1.5705E-04  0.0622
   1.3740E-01   1.4074E-01   1.4294E-04  0.0644
   1.4074E-01   1.4417E-01   1.3443E-04  0.0657
   1.4417E-01   1.4767E-01   1.4179E-04  0.0632
   1.4767E-01   1.5127E-01   1.4499E-04  0.0618
   1.5127E-01   1.5495E-01   1.4504E-04  0.0609
   1.5495E-01   1.5872E-01   1.4015E-04  0.0612
   1.5872E-01   1.6258E-01   1.3523E-04  0.0616
   1.6258E-01   1.6654E-01   1.1185E-04  0.0670
   1.6654E-01   1.7059E-01   1.2712E-04  0.0620
   1.7059E-01   1.7474E-01   1.2510E-04  0.0618
   1.7474E-01   1.7899E-01   1.4062E-04  0.0576
   1.7899E-01   1.8334E-01   1.1892E-04  0.0618
   1.8334E-01   1.8781E-01   1.1949E-04  0.0610
   1.8781E-01   1.9237E-01   1.1334E-04  0.0618
   1.9237E-01   1.9706E-01   1.0700E-04  0.0629
   1.9706E-01   2.0185E-01   1.1339E-04  0.0605
   2.0185E-01   2.0676E-01   1.0544E-04  0.0618
   2.0676E-01   2.1179E-01   1.3025E-04  0.0550
   2.1179E-01   2.1694E-01   1.2860E-04  0.0546
   2.1694E-01   2.2222E-01   1.3362E-04  0.0530
   2.2222E-01   2.2763E-01   1.3497E-04  0.0521
   2.2763E-01   2.3317E-01   1.3359E-04  0.0517
   2.3317E-01   2.3884E-01   1.4478E-04  0.0491
   2.3884E-01   2.4465E-01   1.5053E-04  0.0476
   2.4465E-01   2.5061E-01   1.5050E-04  0.0470
   2.5061E-01   2.5670E-01   1.4251E-04  0.0478
   2.5670E-01   2.6295E-01   1.7055E-04  0.0432
   2.6295E-01   2.6935E-01   1.5954E-04  0.0441
   2.6935E-01   2.7590E-01   1.7623E-04  0.0414
   2.7590E-01   2.8261E-01   1.8957E-04  0.0394
   2.8261E-01   2.8949E-01   1.6955E-04  0.0412
   2.8949E-01   2.9653E-01   2.0201E-04  0.0374
   2.9653E-01   3.0375E-01   1.9934E-04  0.0371
   3.0375E-01   3.1114E-01   2.0869E-04  0.0358
   3.1114E-01   3.1871E-01   2.2646E-04  0.0340
   3.1871E-01   3.2646E-01   2.3134E-04  0.0332
   3.2646E-01   3.3441E-01   2.2465E-04  0.0333
   3.3441E-01   3.4254E-01   2.5133E-04  0.0311
   3.4254E-01   3.5088E-01   2.3779E-04  0.0316
   3.5088E-01   3.5941E-01   2.3209E-04  0.0316
   3.5941E-01   3.6816E-01   2.5422E-04  0.0299
   3.6816E-01   3.7712E-01   2.7815E-04  0.0282
   3.7712E-01   3.8629E-01   2.6361E-04  0.0286
   3.8629E-01   3.9569E-01   2.9172E-04  0.0269
   3.9569E-01   4.0532E-01   2.7628E-04  0.0273
   4.0532E-01   4.1518E-01   2.9033E-04  0.0263
   4.1518E-01   4.2528E-01   3.0942E-04  0.0252
   4.2528E-01   4.3563E-01   3.2143E-04  0.0244
   4.3563E-01   4.4623E-01   3.2311E-04  0.0241
   4.4623E-01   4.5708E-01   3.4929E-04  0.0228
   4.5708E-01   4.6821E-01   3.4412E-04  0.0227
   4.6821E-01   4.7960E-01   3.6175E-04  0.0219
   4.7960E-01   4.9127E-01   3.5648E-04  0.0218
   4.9127E-01   5.0322E-01   3.8624E-04  0.0207
   5.0322E-01   5.1546E-01   3.9482E-04  0.0202
   5.1546E-01   5.2800E-01   4.2012E-04  0.0194
   5.2800E-01   5.4085E-01   4.1455E-04  0.0193
   5.4085E-01   5.5401E-01   4.3604E-04  0.0185
   5.5401E-01   5.6749E-01   4.4303E-04  0.0182
   5.6749E-01   5.8130E-01   4.4518E-04  0.0179
   5.8130E-01   5.9544E-01   4.7499E-04  0.0172
   5.9544E-01   6.0993E-01   4.8256E-04  0.0168
   6.0993E-01   6.2477E-01   5.0220E-04  0.0163
   6.2477E-01   6.3997E-01   5.0587E-04  0.0160
   6.3997E-01   6.5554E-01   5.3179E-04  0.0155
   6.5554E-01   6.7149E-01   5.2732E-04  0.0153
   6.7149E-01   6.8783E-01   5.5332E-04  0.0148
   6.8783E-01   7.0456E-01   5.4119E-04  0.0148
   7.0456E-01   7.2171E-01   5.6622E-04  0.0143
   7.2171E-01   7.3927E-01   5.8644E-04  0.0138
   7.3927E-01   7.5725E-01   6.0935E-04  0.0134
   7.5725E-01   7.7568E-01   6.2603E-04  0.0131
   7.7568E-01   7.9455E-01   6.4832E-04  0.0127
   7.9455E-01   8.1388E-01   6.6225E-04  0.0124
   8.1388E-01   8.3368E-01   6.7746E-04  0.0121
   8.3368E-01   8.5397E-01   6.9601E-04  0.0118
   8.5397E-01   8.7475E-01   7.1497E-04  0.0115
   8.7475E-01   8.9603E-01   7.3389E-04  0.0112
   8.9603E-01   9.1783E-01   7.5230E-04  0.0110
   9.1783E-01   9.4016E-01   7.7584E-04  0.0107
   9.4016E-01   9.6304E-01   7.8385E-04  0.0105
   9.6304E-01   9.8647E-01   7.9967E-04  0.0103
   9.8647E-01   1.0105E+00   8.2521E-04  0.0100
   1.0105E+00   1.0351E+00   8.2541E-04  0.0099
   1.0351E+00   1.0602E+00   8.5901E-04  0.0096
   1.0602E+00   1.0860E+00   8.4009E-04  0.0095
   1.0860E+00   1.1125E+00   8.5791E-04  0.0093
   1.1125E+00   1.1395E+00   8.8221E-04  0.0091
   1.1395E+00   1.1673E+00   8.9330E-04  0.0089
   1.1673E+00   1.1957E+00   9.2585E-04  0.0087
   1.1957E+00   1.2247E+00   9.2369E-04  0.0086
   1.2247E+00   1.2545E+00   9.4632E-04  0.0084
   1.2545E+00   1.2851E+00   9.3270E-04  0.0083
   1.2851E+00   1.3163E+00   9.4157E-04  0.0082
   1.3163E+00   1.3484E+00   9.4677E-04  0.0081
   1.3484E+00   1.3812E+00   9.7014E-04  0.0079
   1.3812E+00   1.4148E+00   9.9177E-04  0.0077
   1.4148E+00   1.4492E+00   1.0036E-03  0.0076
   1.4492E+00   1.4845E+00   1.0170E-03  0.0074
   1.4845E+00   1.5206E+00   1.0285E-03  0.0073
   1.5206E+00   1.5576E+00   1.0260E-03  0.0072
   1.5576E+00   1.5955E+00   1.0374E-03  0.0071
   1.5955E+00   1.6343E+00   1.0331E-03  0.0070
   1.6343E+00   1.6741E+00   1.0281E-03  0.0069
   1.6741E+00   1.7148E+00   1.0325E-03  0.0068
   1.7148E+00   1.7565E+00   1.0244E-03  0.0068
   1.7565E+00   1.7992E+00   1.0296E-03  0.0067
   1.7992E+00   1.8430E+00   1.0547E-03  0.0065
   1.8430E+00   1.8879E+00   1.0400E-03  0.0065
   1.8879E+00   1.9338E+00   1.0336E-03  0.0064
   1.9338E+00   1.9808E+00   1.0292E-03  0.0064
   1.9808E+00   2.0290E+00   1.0431E-03  0.0063
   2.0290E+00   2.0784E+00   1.0301E-03  0.0062
   2.0784E+00   2.1290E+00   1.0277E-03  0.0062
   2.1290E+00   2.1808E+00   1.0164E-03  0.0061
   2.1808E+00   2.2338E+00   9.9495E-04  0.0061
   2.2338E+00   2.2882E+00   9.7892E-04  0.0061
   2.2882E+00   2.3439E+00   9.7491E-04  0.0060
   2.3439E+00   2.4009E+00   9.8252E-04  0.0059
   2.4009E+00   2.4593E+00   9.7640E-04  0.0059
   2.4593E+00   2.5191E+00   9.7606E-04  0.0058
   2.5191E+00   2.5804E+00   9.5295E-04  0.0058
   2.5804E+00   2.6432E+00   9.4726E-04  0.0058
   2.6432E+00   2.7075E+00   9.2916E-04  0.0057
   2.7075E+00   2.7734E+00   9.1276E-04  0.0057
   2.7734E+00   2.8409E+00   8.8693E-04  0.0057
   2.8409E+00   2.9100E+00   8.7730E-04  0.0057
   2.9100E+00   2.9808E+00   8.6660E-04  0.0057
   2.9808E+00   3.0533E+00   8.6846E-04  0.0056
   3.0533E+00   3.1276E+00   8.3859E-04  0.0056
   3.1276E+00   3.2037E+00   8.2770E-04  0.0056
   3.2037E+00   3.2817E+00   8.1284E-04  0.0056
   3.2817E+00   3.3615E+00   7.8791E-04  0.0056
   3.3615E+00   3.4433E+00   7.7677E-04  0.0056
   3.4433E+00   3.5271E+00   7.7287E-04  0.0055
   3.5271E+00   3.6129E+00   7.5481E-04  0.0055
   3.6129E+00   3.7008E+00   7.3784E-04  0.0055
   3.7008E+00   3.7908E+00   7.1715E-04  0.0055
   3.7908E+00   3.8831E+00   7.0502E-04  0.0055
   3.8831E+00   3.9776E+00   6.8948E-04  0.0055
   3.9776E+00   4.0743E+00   6.8342E-04  0.0055
   4.0743E+00   4.1735E+00   6.6609E-04  0.0055
   4.1735E+00   4.2750E+00   6.4748E-04  0.0055
   4.2750E+00   4.3790E+00   6.3815E-04  0.0055
   4.3790E+00   4.4856E+00   6.3869E-04  0.0054
   4.4856E+00   4.5947E+00   6.2753E-04  0.0054
   4.5947E+00   4.7065E+00   6.1321E-04  0.0054
   4.7065E+00   4.8210E+00   6.0262E-04  0.0054
   4.8210E+00   4.9383E+00   6.0280E-04  0.0053
   4.9383E+00   5.0585E+00   6.0577E-04  0.0052
   5.0585E+00   5.1815E+00   5.9957E-04  0.0052
   5.1815E+00   5.3076E+00   5.8348E-04  0.0052
   5.3076E+00   5.4368E+00   5.7142E-04  0.0052
   5.4368E+00   5.5690E+00   5.5798E-04  0.0052
   5.5690E+00   5.7045E+00   5.3993E-04  0.0052
   5.7045E+00   5.8433E+00   5.2649E-04  0.0052
   5.8433E+00   5.9855E+00   5.1709E-04  0.0052
   5.9855E+00   6.1311E+00   5.0035E-04  0.0052
   6.1311E+00   6.2803E+00   4.8884E-04  0.0052
   6.2803E+00   6.4331E+00   4.7373E-04  0.0052
   6.4331E+00   6.5896E+00   4.5954E-04  0.0053
   6.5896E+00   6.7500E+00   4.4163E-04  0.0053
   6.7500E+00   6.9142E+00   4.3530E-04  0.0053
   6.9142E+00   7.0824E+00   4.1973E-04  0.0053
   7.0824E+00   7.2548E+00   4.0999E-04  0.0053
   7.2548E+00   7.4313E+00   3.9458E-04  0.0053
   7.4313E+00   7.6121E+00   3.8223E-04  0.0054
   7.6121E+00   7.7973E+00   3.6946E-04  0.0054
   7.7973E+00   7.9870E+00   3.5655E-04  0.0054
   7.9870E+00   8.1813E+00   3.4507E-04  0.0054
   8.1813E+00   8.3804E+00   3.3455E-04  0.0055
   8.3804E+00   8.5843E+00   3.2442E-04  0.0055
   8.5843E+00   8.7931E+00   3.1236E-04  0.0055
   8.7931E+00   9.0071E+00   3.0134E-04  0.0056
   9.0071E+00   9.2262E+00   2.8863E-04  0.0056
   9.2262E+00   9.4507E+00   2.7315E-04  0.0057
   9.4507E+00   9.6807E+00   2.6631E-04  0.0057
   9.6807E+00   9.9162E+00   2.5442E-04  0.0058
   9.9162E+00   1.0157E+01   2.4263E-04  0.0058
   1.0157E+01   1.0405E+01   2.3436E-04  0.0059
   1.0405E+01   1.0658E+01   2.2626E-04  0.0059
   1.0658E+01   1.0917E+01   2.1427E-04  0.0060
   1.0917E+01   1.1183E+01   2.0592E-04  0.0060
   1.1183E+01   1.1455E+01   1.9375E-04  0.0062
   1.1455E+01   1.1733E+01   1.8872E-04  0.0062
   1.1733E+01   1.2019E+01   1.7820E-04  0.0063
   1.2019E+01   1.2311E+01   1.6764E-04  0.0064
   1.2311E+01   1.2611E+01   1.6077E-04  0.0064
   1.2611E+01   1.2918E+01   1.5263E-04  0.0065
   1.2918E+01   1.3232E+01   1.4688E-04  0.0066
   1.3232E+01   1.3554E+01   1.3665E-04  0.0067
   1.3554E+01   1.3884E+01   1.2916E-04  0.0068
   1.3884E+01   1.4222E+01   1.2250E-04  0.0069
   1.4222E+01   1.4568E+01   1.1579E-04  0.0071
   1.4568E+01   1.4922E+01   1.0975E-04  0.0072
   1.4922E+01   1.5285E+01   1.0244E-04  0.0073
   1.5285E+01   1.5657E+01   9.5551E-05  0.0075
   1.5657E+01   1.6038E+01   8.8863E-05  0.0077
   1.6038E+01   1.6428E+01   8.6132E-05  0.0077
   1.6428E+01   1.6828E+01   7.9873E-05  0.0079
   1.6828E+01   1.7237E+01   7.4182E-05  0.0081
   1.7237E+01   1.7657E+01   6.9098E-05  0.0083
   1.7657E+01   1.8086E+01   6.5440E-05  0.0084
   1.8086E+01   1.8526E+01   6.1197E-05  0.0086
   1.8526E+01   1.8977E+01   5.6340E-05  0.0089
   1.8977E+01   1.9439E+01   5.2801E-05  0.0091
   1.9439E+01   1.9912E+01   5.1653E-05  0.0090
   1.9912E+01   2.0396E+01   4.9386E-05  0.0091
   2.0396E+01   2.0893E+01   4.6480E-05  0.0093
   2.0893E+01   2.1401E+01   4.3094E-05  0.0096
   2.1401E+01   2.1922E+01   3.9789E-05  0.0098
   2.1922E+01   2.2455E+01   3.6864E-05  0.0101
   2.2455E+01   2.3001E+01   3.3173E-05  0.0105
   2.3001E+01   2.3561E+01   3.0820E-05  0.0108
   2.3561E+01   2.4134E+01   2.8992E-05  0.0110
   2.4134E+01   2.4721E+01   2.6495E-05  0.0113
   2.4721E+01   2.5323E+01   2.3684E-05  0.0119
   2.5323E+01   2.5939E+01   2.1142E-05  0.0124
   2.5939E+01   2.6570E+01   1.9179E-05  0.0129
   2.6570E+01   2.7217E+01   1.7250E-05  0.0134
   2.7217E+01   2.7879E+01   1.5729E-05  0.0139
   2.7879E+01   2.8557E+01   1.4256E-05  0.0144
   2.8557E+01   2.9252E+01   1.2432E-05  0.0152
   2.9252E+01   2.9964E+01   1.1181E-05  0.0159
   2.9964E+01   3.0693E+01   9.6510E-06  0.0169
   3.0693E+01   3.1440E+01   8.2836E-06  0.0180
   3.1440E+01   3.2205E+01   7.3992E-06  0.0188
   3.2205E+01   3.2988E+01   6.4475E-06  0.0199
   3.2988E+01   3.3791E+01   5.6888E-06  0.0209
   3.3791E+01   3.4613E+01   4.8093E-06  0.0225
   3.4613E+01   3.5455E+01   4.2747E-06  0.0236
   3.5455E+01   3.6318E+01   3.5310E-06  0.0256
   3.6318E+01   3.7201E+01   2.9084E-06  0.0279
   3.7201E+01   3.8106E+01   2.4770E-06  0.0299
   3.8106E+01   3.9034E+01   2.0363E-06  0.0325
   3.9034E+01   3.9983E+01   1.8532E-06  0.0337
   3.9983E+01   4.0956E+01   1.3014E-06  0.0397
   4.0956E+01   4.1953E+01   1.0758E-06  0.0432
   4.1953E+01   4.2973E+01   9.4245E-07  0.0456
   4.2973E+01   4.4019E+01   6.3123E-07  0.0550
   4.4019E+01   4.5090E+01   5.7329E-07  0.0571
   4.5090E+01   4.6187E+01   4.2112E-07  0.0658
   4.6187E+01   4.7311E+01   3.2213E-07  0.0743
   4.7311E+01   4.8462E+01   2.7278E-07  0.0798
   4.8462E+01   4.9641E+01   1.9167E-07  0.0941
   4.9641E+01   5.0849E+01   1.2750E-07  0.1140
   5.0849E+01   5.2086E+01   9.0528E-08  0.1336
   5.2086E+01   5.3353E+01   7.2596E-08  0.1474
   5.3353E+01   5.4651E+01   5.2383E-08  0.1715
   5.4651E+01   5.5981E+01   2.2561E-08  0.2582
   5.5981E+01   5.7343E+01   8.8101E-09  0.4082
   5.7343E+01   5.8738E+01   2.8670E-09  0.7071
   5.8738E+01   6.0168E+01   5.5977E-09  0.5000
   6.0168E+01   6.1632E+01   4.0986E-09  0.5774
   6.1632E+01   6.3131E+01   1.3337E-09  1.0000
   6.3131E+01   6.4667E+01   0.0000E+00  0.0000
   6.4667E+01   6.6240E+01   0.0000E+00  0.0000
   6.6240E+01   6.7852E+01   0.0000E+00  0.0000
   6.7852E+01   6.9503E+01   0.0000E+00  0.0000
   6.9503E+01   7.1194E+01   0.0000E+00  0.0000
   7.1194E+01   7.2926E+01   0.0000E+00  0.0000
   7.2926E+01   7.4701E+01   0.0000E+00  0.0000
   7.4701E+01   7.6518E+01   0.0000E+00  0.0000
   7.6518E+01   7.8380E+01   0.0000E+00  0.0000
   7.8380E+01   8.0287E+01   0.0000E+00  0.0000
   8.0287E+01   8.2240E+01   0.0000E+00  0.0000
   8.2240E+01   8.4241E+01   0.0000E+00  0.0000
   8.4241E+01   8.6291E+01   0.0000E+00  0.0000
   8.6291E+01   8.8391E+01   0.0000E+00  0.0000
   8.8391E+01   9.0541E+01   0.0000E+00  0.0000
   9.0541E+01   9.2744E+01   0.0000E+00  0.0000
   9.2744E+01   9.5001E+01   0.0000E+00  0.0000
   9.5001E+01   9.7312E+01   0.0000E+00  0.0000
   9.7312E+01   9.9680E+01   0.0000E+00  0.0000
   9.9680E+01   1.0211E+02   0.0000E+00  0.0000
   1.0211E+02   1.0459E+02   0.0000E+00  0.0000
   1.0459E+02   1.0713E+02   0.0000E+00  0.0000
   1.0713E+02   1.0974E+02   0.0000E+00  0.0000
   1.0974E+02   1.1241E+02   0.0000E+00  0.0000
   1.1241E+02   1.1515E+02   0.0000E+00  0.0000
   1.1515E+02   1.1795E+02   0.0000E+00  0.0000
   1.1795E+02   1.2082E+02   0.0000E+00  0.0000
   1.2082E+02   1.2376E+02   0.0000E+00  0.0000
   1.2376E+02   1.2677E+02   0.0000E+00  0.0000
   1.2677E+02   1.2985E+02   0.0000E+00  0.0000
   1.2985E+02   1.3301E+02   0.0000E+00  0.0000
   1.3301E+02   1.3625E+02   0.0000E+00  0.0000
   1.3625E+02   1.3956E+02   0.0000E+00  0.0000
   1.3956E+02   1.4296E+02   0.0000E+00  0.0000
   1.4296E+02   1.4644E+02   0.0000E+00  0.0000
   1.4644E+02   1.5000E+02   0.0000E+00  0.0000

#   sum over                 4.8342E-05
'no. =    1   reg = 112 - 212'
msuc: {\huge [t-cross] in region mesh}
msdr: {\it plotted by \ANGEL \version}
msdl: {\it calculated by \PHITS  3.26}
wt: s(0.7)
\vspace{-3}
  region surface crossing
  area  &=&   1.0000E+00 [cm^2]
e:
 
# Information for Restart Calculation
# This calculation was newly started
# istdev =  2 # 1:Batch variance, 2:History variance
# resc2  = 5.00000000000000000E+08 # Total source weight or Total source weight / maxcas
# resc3  = 5.00000000000000000E+08 # Total history number or Total batch number
# maxcas =   500000000 # History / Batch, only used for istdev=1
# bitrseed = 1101101111010011011000101101110001100110110010110001010100010001 # bit data of rseed
