[ T-Cross ]
    title = [t-cross] in region mesh
     mesh =  reg            # mesh type is region-wise
      reg =    1            # number of crossing regions
      non     r-from    r-to       area
      1       126       226        1.000000    
   e-type =    3            # e-mesh is log given by emin, emax and ne
     emin =  1.0000000E-02  # minimum value of e-mesh points
     emax =   150.0000      # maximum value of e-mesh points
#    edel =  2.4039514E-02  # mesh width of e-mesh points
       ne =    400          # number of e-mesh points
#    data = ( e(i), i = 1, ne + 1 )
#           1.00000E-02  1.02433E-02  1.04925E-02  1.07478E-02  1.10093E-02
#           1.12772E-02  1.15516E-02  1.18326E-02  1.21205E-02  1.24154E-02
#           1.27175E-02  1.30269E-02  1.33439E-02  1.36686E-02  1.40011E-02
#           1.43418E-02  1.46907E-02  1.50482E-02  1.54143E-02  1.57894E-02
#           1.61735E-02  1.65670E-02  1.69701E-02  1.73830E-02  1.78060E-02
#           1.82392E-02  1.86830E-02  1.91375E-02  1.96032E-02  2.00801E-02
#           2.05687E-02  2.10692E-02  2.15818E-02  2.21069E-02  2.26448E-02
#           2.31957E-02  2.37601E-02  2.43382E-02  2.49304E-02  2.55369E-02
#           2.61583E-02  2.67947E-02  2.74467E-02  2.81145E-02  2.87985E-02
#           2.94992E-02  3.02169E-02  3.09521E-02  3.17052E-02  3.24766E-02
#           3.32668E-02  3.40762E-02  3.49053E-02  3.57546E-02  3.66246E-02
#           3.75157E-02  3.84284E-02  3.93634E-02  4.03212E-02  4.13022E-02
#           4.23071E-02  4.33365E-02  4.43909E-02  4.54710E-02  4.65773E-02
#           4.77106E-02  4.88714E-02  5.00605E-02  5.12785E-02  5.25262E-02
#           5.38042E-02  5.51133E-02  5.64542E-02  5.78278E-02  5.92348E-02
#           6.06760E-02  6.21523E-02  6.36645E-02  6.52135E-02  6.68002E-02
#           6.84255E-02  7.00904E-02  7.17957E-02  7.35426E-02  7.53319E-02
#           7.71648E-02  7.90423E-02  8.09655E-02  8.29354E-02  8.49533E-02
#           8.70203E-02  8.91376E-02  9.13064E-02  9.35279E-02  9.58035E-02
#           9.81345E-02  1.00522E-01  1.02968E-01  1.05473E-01  1.08040E-01
#           1.10668E-01  1.13361E-01  1.16119E-01  1.18944E-01  1.21838E-01
#           1.24803E-01  1.27839E-01  1.30950E-01  1.34136E-01  1.37399E-01
#           1.40742E-01  1.44167E-01  1.47675E-01  1.51268E-01  1.54948E-01
#           1.58718E-01  1.62580E-01  1.66535E-01  1.70587E-01  1.74738E-01
#           1.78989E-01  1.83344E-01  1.87805E-01  1.92375E-01  1.97055E-01
#           2.01850E-01  2.06761E-01  2.11792E-01  2.16945E-01  2.22223E-01
#           2.27630E-01  2.33169E-01  2.38842E-01  2.44653E-01  2.50605E-01
#           2.56703E-01  2.62949E-01  2.69346E-01  2.75900E-01  2.82613E-01
#           2.89489E-01  2.96532E-01  3.03747E-01  3.11138E-01  3.18708E-01
#           3.26462E-01  3.34405E-01  3.42542E-01  3.50876E-01  3.59413E-01
#           3.68158E-01  3.77116E-01  3.86291E-01  3.95690E-01  4.05317E-01
#           4.15179E-01  4.25281E-01  4.35628E-01  4.46227E-01  4.57084E-01
#           4.68205E-01  4.79597E-01  4.91266E-01  5.03219E-01  5.15463E-01
#           5.28005E-01  5.40851E-01  5.54011E-01  5.67490E-01  5.81298E-01
#           5.95441E-01  6.09929E-01  6.24769E-01  6.39970E-01  6.55541E-01
#           6.71491E-01  6.87828E-01  7.04564E-01  7.21706E-01  7.39266E-01
#           7.57253E-01  7.75678E-01  7.94551E-01  8.13883E-01  8.33685E-01
#           8.53969E-01  8.74747E-01  8.96030E-01  9.17831E-01  9.40163E-01
#           9.63038E-01  9.86469E-01  1.01047E+00  1.03506E+00  1.06024E+00
#           1.08604E+00  1.11246E+00  1.13953E+00  1.16725E+00  1.19565E+00
#           1.22474E+00  1.25454E+00  1.28507E+00  1.31633E+00  1.34836E+00
#           1.38117E+00  1.41477E+00  1.44920E+00  1.48446E+00  1.52057E+00
#           1.55757E+00  1.59547E+00  1.63429E+00  1.67405E+00  1.71478E+00
#           1.75650E+00  1.79924E+00  1.84302E+00  1.88786E+00  1.93379E+00
#           1.98084E+00  2.02904E+00  2.07841E+00  2.12898E+00  2.18078E+00
#           2.23384E+00  2.28819E+00  2.34386E+00  2.40089E+00  2.45930E+00
#           2.51914E+00  2.58043E+00  2.64322E+00  2.70753E+00  2.77341E+00
#           2.84088E+00  2.91001E+00  2.98081E+00  3.05333E+00  3.12762E+00
#           3.20372E+00  3.28167E+00  3.36152E+00  3.44330E+00  3.52708E+00
#           3.61290E+00  3.70080E+00  3.79085E+00  3.88308E+00  3.97756E+00
#           4.07434E+00  4.17347E+00  4.27501E+00  4.37903E+00  4.48557E+00
#           4.59471E+00  4.70650E+00  4.82102E+00  4.93832E+00  5.05847E+00
#           5.18155E+00  5.30762E+00  5.43676E+00  5.56904E+00  5.70453E+00
#           5.84333E+00  5.98550E+00  6.13114E+00  6.28031E+00  6.43312E+00
#           6.58964E+00  6.74997E+00  6.91420E+00  7.08243E+00  7.25475E+00
#           7.43126E+00  7.61207E+00  7.79728E+00  7.98700E+00  8.18133E+00
#           8.38038E+00  8.58428E+00  8.79315E+00  9.00709E+00  9.22624E+00
#           9.45072E+00  9.68067E+00  9.91620E+00  1.01575E+01  1.04046E+01
#           1.06578E+01  1.09171E+01  1.11827E+01  1.14548E+01  1.17335E+01
#           1.20190E+01  1.23114E+01  1.26109E+01  1.29178E+01  1.32321E+01
#           1.35540E+01  1.38838E+01  1.42216E+01  1.45676E+01  1.49221E+01
#           1.52851E+01  1.56570E+01  1.60380E+01  1.64282E+01  1.68279E+01
#           1.72374E+01  1.76568E+01  1.80864E+01  1.85264E+01  1.89772E+01
#           1.94389E+01  1.99119E+01  2.03963E+01  2.08926E+01  2.14009E+01
#           2.19216E+01  2.24550E+01  2.30014E+01  2.35610E+01  2.41343E+01
#           2.47215E+01  2.53230E+01  2.59391E+01  2.65702E+01  2.72167E+01
#           2.78789E+01  2.85572E+01  2.92520E+01  2.99637E+01  3.06928E+01
#           3.14396E+01  3.22045E+01  3.29881E+01  3.37907E+01  3.46128E+01
#           3.54550E+01  3.63177E+01  3.72013E+01  3.81064E+01  3.90336E+01
#           3.99833E+01  4.09561E+01  4.19526E+01  4.29734E+01  4.40189E+01
#           4.50900E+01  4.61870E+01  4.73108E+01  4.84619E+01  4.96410E+01
#           5.08488E+01  5.20860E+01  5.33533E+01  5.46514E+01  5.59812E+01
#           5.73432E+01  5.87384E+01  6.01676E+01  6.16315E+01  6.31311E+01
#           6.46671E+01  6.62405E+01  6.78522E+01  6.95031E+01  7.11941E+01
#           7.29263E+01  7.47007E+01  7.65182E+01  7.83800E+01  8.02870E+01
#           8.22405E+01  8.42414E+01  8.62911E+01  8.83906E+01  9.05412E+01
#           9.27442E+01  9.50007E+01  9.73122E+01  9.96799E+01  1.02105E+02
#           1.04589E+02  1.07134E+02  1.09741E+02  1.12411E+02  1.15146E+02
#           1.17948E+02  1.20817E+02  1.23757E+02  1.26768E+02  1.29852E+02
#           1.33012E+02  1.36248E+02  1.39563E+02  1.42959E+02  1.46437E+02
#           1.50000E+02
     unit =    2            # unit is [1/cm^2/(MeV/n)/source]
     axis =  eng            # axis of output
     file = detector-27.out  # file name of output for the above axis
   output = f-curr          # surface crossing forward current spectrum
     part =  neutron  
# kf/name :  2112     
#    used :        main (  %)        temp (  %)       total (  %)
#  memory :         414 (  0)           0 (  0)         414 (  0)

#------------------------------------------------------------------------------
#newpage:
#   no. =    1   reg = 126 - 226

x: Energy [MeV/n]
y:  F-Curr [1/cm^2/(MeV/n)/source]         
p: xlog ylog afac(0.8) form(0.9)
h: n            x            y(neutron ),hh0l   n 
#  e-lower      e-upper      neutron     r.err 
   1.0000E-02   1.0243E-02   6.5757E-06  0.3536
   1.0243E-02   1.0493E-02   6.4153E-06  0.3536
   1.0493E-02   1.0748E-02   8.6168E-06  0.3015
   1.0748E-02   1.1009E-02   1.5294E-06  0.7071
   1.1009E-02   1.1277E-02   7.4664E-07  1.0000
   1.1277E-02   1.1552E-02   4.3734E-06  0.4082
   1.1552E-02   1.1833E-02   2.8463E-06  0.5000
   1.1833E-02   1.2121E-02   4.1679E-06  0.4082
   1.2121E-02   1.2415E-02   6.1031E-06  0.3333
   1.2415E-02   1.2718E-02   6.6207E-06  0.3162
   1.2718E-02   1.3027E-02   1.9391E-06  0.5774
   1.3027E-02   1.3344E-02   3.1537E-06  0.4472
   1.3344E-02   1.3669E-02   1.0471E-05  0.2425
   1.3669E-02   1.4001E-02   7.8178E-06  0.2774
   1.4001E-02   1.4342E-02   2.9348E-06  0.4472
   1.4342E-02   1.4691E-02   6.8776E-06  0.2887
   1.4691E-02   1.5048E-02   5.0356E-06  0.3333
   1.5048E-02   1.5414E-02   4.9148E-06  0.3333
   1.5414E-02   1.5789E-02   4.7994E-06  0.3333
   1.5789E-02   1.6174E-02   5.2054E-06  0.3162
   1.6174E-02   1.6567E-02   1.0162E-05  0.2236
   1.6567E-02   1.6970E-02   5.9539E-06  0.2887
   1.6970E-02   1.7383E-02   1.9375E-06  0.5000
   1.7383E-02   1.7806E-02   6.6194E-06  0.2673
   1.7806E-02   1.8239E-02   2.7698E-06  0.4082
   1.8239E-02   1.8683E-02   6.7596E-06  0.2582
   1.8683E-02   1.9138E-02   3.9597E-06  0.3333
   1.9138E-02   1.9603E-02   3.4362E-06  0.3536
   1.9603E-02   2.0080E-02   2.0962E-06  0.4472
   2.0080E-02   2.0569E-02   3.6842E-06  0.3333
   2.0569E-02   2.1069E-02   3.5967E-06  0.3333
   2.1069E-02   2.1582E-02   3.5068E-06  0.3333
   2.1582E-02   2.2107E-02   4.9507E-06  0.2774
   2.2107E-02   2.2645E-02   4.0900E-06  0.3015
   2.2645E-02   2.3196E-02   4.3557E-06  0.2887
   2.3196E-02   2.3760E-02   4.9611E-06  0.2673
   2.3760E-02   2.4338E-02   1.3832E-06  0.5000
   2.4338E-02   2.4930E-02   1.6887E-06  0.4472
   2.4930E-02   2.5537E-02   4.6156E-06  0.2673
   2.5537E-02   2.6158E-02   1.6094E-06  0.4472
   2.6158E-02   2.6795E-02   2.8269E-06  0.3333
   2.6795E-02   2.7447E-02   2.4541E-06  0.3536
   2.7447E-02   2.8114E-02   4.1920E-06  0.2673
   2.8114E-02   2.8799E-02   2.3363E-06  0.3536
   2.8799E-02   2.9499E-02   1.7123E-06  0.4082
   2.9499E-02   3.0217E-02   1.9505E-06  0.3780
   3.0217E-02   3.0952E-02   2.9913E-06  0.3015
   3.0952E-02   3.1705E-02   2.6553E-06  0.3162
   3.1705E-02   3.2477E-02   3.3704E-06  0.2774
   3.2477E-02   3.3267E-02   3.5434E-06  0.2673
   3.3267E-02   3.4076E-02   1.2354E-06  0.4472
   3.4076E-02   3.4905E-02   2.4122E-06  0.3162
   3.4905E-02   3.5755E-02   1.6483E-06  0.3780
   3.5755E-02   3.6625E-02   4.3681E-06  0.2294
   3.6625E-02   3.7516E-02   1.7952E-06  0.3536
   3.7516E-02   3.8428E-02   1.3145E-06  0.4082
   3.8428E-02   3.9363E-02   1.7112E-06  0.3536
   3.9363E-02   4.0321E-02   1.8794E-06  0.3333
   4.0321E-02   4.1302E-02   1.0193E-06  0.4472
   4.1302E-02   4.2307E-02   1.1938E-06  0.4082
   4.2307E-02   4.3337E-02   2.3309E-06  0.2887
   4.3337E-02   4.4391E-02   1.5173E-06  0.3536
   4.4391E-02   4.5471E-02   1.6661E-06  0.3333
   4.5471E-02   4.6577E-02   3.0718E-06  0.2425
   4.6577E-02   4.7711E-02   2.6467E-06  0.2582
   4.7711E-02   4.8871E-02   1.7228E-06  0.3162
   4.8871E-02   5.0061E-02   1.3455E-06  0.3536
   5.0061E-02   5.1279E-02   1.9696E-06  0.2887
   5.1279E-02   5.2526E-02   1.1221E-06  0.3780
   5.2526E-02   5.3804E-02   1.2518E-06  0.3536
   5.3804E-02   5.5113E-02   2.1386E-06  0.2673
   5.5113E-02   5.6454E-02   1.3423E-06  0.3333
   5.6454E-02   5.7828E-02   1.6016E-06  0.3015
   5.7828E-02   5.9235E-02   1.7057E-06  0.2887
   5.9235E-02   6.0676E-02   1.9423E-06  0.2673
   6.0676E-02   6.2152E-02   1.2192E-06  0.3333
   6.2152E-02   6.3665E-02   7.9338E-07  0.4082
   6.3665E-02   6.5214E-02   1.1620E-06  0.3333
   6.5214E-02   6.6800E-02   1.6383E-06  0.2774
   6.6800E-02   6.8426E-02   1.3535E-06  0.3015
   6.8426E-02   7.0090E-02   1.5612E-06  0.2774
   7.0090E-02   7.1796E-02   9.3822E-07  0.3536
   7.1796E-02   7.3543E-02   6.8682E-07  0.4082
   7.3543E-02   7.5332E-02   1.5641E-06  0.2673
   7.5332E-02   7.7165E-02   8.4992E-07  0.3545
   7.7165E-02   7.9042E-02   1.5975E-06  0.2582
   7.9042E-02   8.0965E-02   8.3178E-07  0.3536
   8.0965E-02   8.2935E-02   9.1344E-07  0.3333
   8.2935E-02   8.4953E-02   1.7838E-06  0.2357
   8.4953E-02   8.7020E-02   1.2577E-06  0.2774
   8.7020E-02   8.9138E-02   8.5001E-07  0.3333
   8.9138E-02   9.1306E-02   1.1987E-06  0.2774
   9.1306E-02   9.3528E-02   5.4008E-07  0.4082
   9.3528E-02   9.5804E-02   6.1518E-07  0.3780
   9.5804E-02   9.8134E-02   4.2897E-07  0.4472
   9.8134E-02   1.0052E-01   5.0242E-07  0.4082
   1.0052E-01   1.0297E-01   4.9056E-07  0.4082
   1.0297E-01   1.0547E-01   8.7799E-07  0.3015
   1.0547E-01   1.0804E-01   3.1154E-07  0.5000
   1.0804E-01   1.1067E-01   5.3242E-07  0.3780
   1.1067E-01   1.1336E-01   1.2624E-06  0.2425
   1.1336E-01   1.1612E-01   9.4256E-07  0.2774
   1.1612E-01   1.1894E-01   1.2033E-06  0.2425
   1.1894E-01   1.2184E-01   8.9814E-07  0.2774
   1.2184E-01   1.2480E-01   1.1465E-06  0.2425
   1.2480E-01   1.2784E-01   8.5575E-07  0.2774
   1.2784E-01   1.3095E-01   6.4296E-07  0.3162
   1.3095E-01   1.3414E-01   1.1924E-06  0.2294
   1.3414E-01   1.3740E-01   1.0416E-06  0.2425
   1.3740E-01   1.4074E-01   7.7749E-07  0.2774
   1.4074E-01   1.4417E-01   1.3429E-06  0.2085
   1.4417E-01   1.4767E-01   9.1212E-07  0.2500
   1.4767E-01   1.5127E-01   8.3462E-07  0.2582
   1.5127E-01   1.5495E-01   1.3040E-06  0.2041
   1.5495E-01   1.5872E-01   9.5455E-07  0.2357
   1.5872E-01   1.6258E-01   1.4496E-06  0.1890
   1.6258E-01   1.6654E-01   6.0660E-07  0.2887
   1.6654E-01   1.7059E-01   1.0363E-06  0.2182
   1.7059E-01   1.7474E-01   7.7078E-07  0.2500
   1.7474E-01   1.7899E-01   1.1287E-06  0.2041
   1.7899E-01   1.8334E-01   1.1476E-06  0.2000
   1.8334E-01   1.8781E-01   1.4785E-06  0.1741
   1.8781E-01   1.9237E-01   1.0938E-06  0.2000
   1.9237E-01   1.9706E-01   1.1105E-06  0.1961
   1.9706E-01   2.0185E-01   1.3757E-06  0.1741
   2.0185E-01   2.0676E-01   1.2617E-06  0.1796
   2.0676E-01   2.1179E-01   9.8850E-07  0.2001
   2.1179E-01   2.1694E-01   9.6990E-07  0.2000
   2.1694E-01   2.2222E-01   1.2807E-06  0.1716
   2.2222E-01   2.2763E-01   9.2432E-07  0.2000
   2.2763E-01   2.3317E-01   1.2993E-06  0.1667
   2.3317E-01   2.3884E-01   1.0566E-06  0.1826
   2.3884E-01   2.4465E-01   1.0318E-06  0.1826
   2.4465E-01   2.5061E-01   8.7265E-07  0.1961
   2.5061E-01   2.5670E-01   1.2131E-06  0.1644
   2.5670E-01   2.6295E-01   7.6783E-07  0.2041
   2.6295E-01   2.6935E-01   1.2180E-06  0.1601
   2.6935E-01   2.7590E-01   9.7591E-07  0.1768
   2.7590E-01   2.8261E-01   9.5284E-07  0.1768
   2.8261E-01   2.8949E-01   1.1047E-06  0.1622
   2.8949E-01   2.9653E-01   1.0410E-06  0.1646
   2.9653E-01   3.0375E-01   1.0199E-06  0.1645
   3.0375E-01   3.1114E-01   9.7325E-07  0.1667
   3.1114E-01   3.1871E-01   8.7131E-07  0.1741
   3.1871E-01   3.2646E-01   7.9440E-07  0.1797
   3.2646E-01   3.3441E-01   7.5452E-07  0.1826
   3.3441E-01   3.4254E-01   8.1031E-07  0.1741
   3.4254E-01   3.5088E-01   6.7085E-07  0.1890
   3.5088E-01   3.5941E-01   1.0035E-06  0.1525
   3.5941E-01   3.6816E-01   8.6875E-07  0.1622
   3.6816E-01   3.7712E-01   8.9159E-07  0.1581
   3.7712E-01   3.8629E-01   9.5808E-07  0.1508
   3.8629E-01   3.9569E-01   7.8708E-07  0.1644
   3.9569E-01   4.0532E-01   1.0545E-06  0.1401
   4.0532E-01   4.1518E-01   7.8960E-07  0.1601
   4.1518E-01   4.2528E-01   1.0284E-06  0.1387
   4.2528E-01   4.3563E-01   8.3053E-07  0.1525
   4.3563E-01   4.4623E-01   8.4490E-07  0.1491
   4.4623E-01   4.5708E-01   8.8269E-07  0.1443
   4.5708E-01   4.6821E-01   7.3681E-07  0.1562
   4.6821E-01   4.7960E-01   8.2401E-07  0.1459
   4.7960E-01   4.9127E-01   8.2106E-07  0.1443
   4.9127E-01   5.0322E-01   7.6647E-07  0.1475
   5.0322E-01   5.1546E-01   8.6169E-07  0.1374
   5.1546E-01   5.2800E-01   7.6742E-07  0.1439
   5.2800E-01   5.4085E-01   8.5538E-07  0.1348
   5.4085E-01   5.5401E-01   9.1937E-07  0.1281
   5.5401E-01   5.6749E-01   6.0494E-07  0.1562
   5.6749E-01   5.8130E-01   7.5251E-07  0.1387
   5.8130E-01   5.9544E-01   8.7262E-07  0.1270
   5.9544E-01   6.0993E-01   8.5488E-07  0.1270
   6.0993E-01   6.2477E-01   5.8922E-07  0.1508
   6.2477E-01   6.3997E-01   7.4006E-07  0.1327
   6.3997E-01   6.5554E-01   7.6600E-07  0.1291
   6.5554E-01   6.7149E-01   7.7602E-07  0.1270
   6.7149E-01   6.8783E-01   8.4077E-07  0.1204
   6.8783E-01   7.0456E-01   6.2015E-07  0.1387
   7.0456E-01   7.2171E-01   7.0889E-07  0.1280
   7.2171E-01   7.3927E-01   8.8497E-07  0.1133
   7.3927E-01   7.5725E-01   8.5352E-07  0.1140
   7.5725E-01   7.7568E-01   8.4110E-07  0.1133
   7.7568E-01   7.9455E-01   6.6543E-07  0.1260
   7.9455E-01   8.1388E-01   6.9165E-07  0.1222
   8.1388E-01   8.3368E-01   7.1535E-07  0.1187
   8.3368E-01   8.5397E-01   7.9300E-07  0.1112
   8.5397E-01   8.7475E-01   7.1954E-07  0.1155
   8.7475E-01   8.9603E-01   7.4780E-07  0.1118
   8.9603E-01   9.1783E-01   6.7518E-07  0.1163
   9.1783E-01   9.4016E-01   7.0260E-07  0.1126
   9.4016E-01   9.6304E-01   6.2442E-07  0.1179
   9.6304E-01   9.8647E-01   5.5064E-07  0.1241
   9.8647E-01   1.0105E+00   7.3041E-07  0.1066
   1.0105E+00   1.0351E+00   6.7233E-07  0.1098
   1.0351E+00   1.0602E+00   5.2586E-07  0.1221
   1.0602E+00   1.0860E+00   7.4054E-07  0.1020
   1.0860E+00   1.1125E+00   7.5382E-07  0.0996
   1.1125E+00   1.1395E+00   5.8388E-07  0.1119
   1.1395E+00   1.1673E+00   6.6490E-07  0.1033
   1.1673E+00   1.1957E+00   5.3540E-07  0.1134
   1.1957E+00   1.2247E+00   6.2042E-07  0.1044
   1.2247E+00   1.2545E+00   6.3485E-07  0.1022
   1.2545E+00   1.2851E+00   6.3894E-07  0.0999
   1.2851E+00   1.3163E+00   5.5959E-07  0.1052
   1.3163E+00   1.3484E+00   6.1984E-07  0.0982
   1.3484E+00   1.3812E+00   5.3534E-07  0.1046
   1.3812E+00   1.4148E+00   5.7244E-07  0.1001
   1.4148E+00   1.4492E+00   5.1223E-07  0.1038
   1.4492E+00   1.4845E+00   5.1257E-07  0.1026
   1.4845E+00   1.5206E+00   5.4083E-07  0.0988
   1.5206E+00   1.5576E+00   6.0759E-07  0.0921
   1.5576E+00   1.5955E+00   4.7991E-07  0.1023
   1.5955E+00   1.6343E+00   4.8168E-07  0.1003
   1.6343E+00   1.6741E+00   5.8403E-07  0.0898
   1.6741E+00   1.7148E+00   5.0273E-07  0.0960
   1.7148E+00   1.7565E+00   4.0147E-07  0.1057
   1.7565E+00   1.7992E+00   5.4319E-07  0.0900
   1.7992E+00   1.8430E+00   5.2288E-07  0.0908
   1.8430E+00   1.8879E+00   4.0169E-07  0.1019
   1.8879E+00   1.9338E+00   4.3675E-07  0.0966
   1.9338E+00   1.9808E+00   4.4441E-07  0.0943
   1.9808E+00   2.0290E+00   5.0971E-07  0.0875
   2.0290E+00   2.0784E+00   4.9141E-07  0.0877
   2.0784E+00   2.1290E+00   4.2563E-07  0.0929
   2.1290E+00   2.1808E+00   4.1003E-07  0.0941
   2.1808E+00   2.2338E+00   4.3620E-07  0.0901
   2.2338E+00   2.2882E+00   4.7317E-07  0.0852
   2.2882E+00   2.3439E+00   4.2154E-07  0.0895
   2.3439E+00   2.4009E+00   4.3339E-07  0.0865
   2.4009E+00   2.4593E+00   4.6078E-07  0.0831
   2.4593E+00   2.5191E+00   3.7880E-07  0.0911
   2.5191E+00   2.5804E+00   3.5254E-07  0.0936
   2.5804E+00   2.6432E+00   3.6534E-07  0.0901
   2.6432E+00   2.7075E+00   3.2532E-07  0.0954
   2.7075E+00   2.7734E+00   2.8720E-07  0.0999
   2.7734E+00   2.8409E+00   3.7043E-07  0.0875
   2.8409E+00   2.9100E+00   3.0706E-07  0.0951
   2.9100E+00   2.9808E+00   2.6896E-07  0.1005
   2.9808E+00   3.0533E+00   3.0031E-07  0.0935
   3.0533E+00   3.1276E+00   3.0292E-07  0.0926
   3.1276E+00   3.2037E+00   2.5535E-07  0.1003
   3.2037E+00   3.2817E+00   2.4904E-07  0.1002
   3.2817E+00   3.3615E+00   3.0279E-07  0.0894
   3.3615E+00   3.4433E+00   2.7452E-07  0.0926
   3.4433E+00   3.5271E+00   2.3417E-07  0.0994
   3.5271E+00   3.6129E+00   2.0180E-07  0.1054
   3.6129E+00   3.7008E+00   2.1856E-07  0.0999
   3.7008E+00   3.7908E+00   2.0985E-07  0.1016
   3.7908E+00   3.8831E+00   2.2221E-07  0.0969
   3.8831E+00   3.9776E+00   2.0803E-07  0.0994
   3.9776E+00   4.0743E+00   2.0557E-07  0.0992
   4.0743E+00   4.1735E+00   1.8296E-07  0.1033
   4.1735E+00   4.2750E+00   1.8976E-07  0.1008
   4.2750E+00   4.3790E+00   1.4736E-07  0.1130
   4.3790E+00   4.4856E+00   1.3632E-07  0.1154
   4.4856E+00   4.5947E+00   1.3286E-07  0.1156
   4.5947E+00   4.7065E+00   1.3072E-07  0.1155
   4.7065E+00   4.8210E+00   1.4589E-07  0.1075
   4.8210E+00   4.9383E+00   1.3448E-07  0.1115
   4.9383E+00   5.0585E+00   1.0472E-07  0.1244
   5.0585E+00   5.1815E+00   1.0507E-07  0.1234
   5.1815E+00   5.3076E+00   1.2835E-07  0.1106
   5.3076E+00   5.4368E+00   1.1871E-07  0.1134
   5.4368E+00   5.5690E+00   9.6639E-08  0.1229
   5.5690E+00   5.7045E+00   8.8075E-08  0.1281
   5.7045E+00   5.8433E+00   8.3536E-08  0.1304
   5.8433E+00   5.9855E+00   7.1170E-08  0.1394
   5.9855E+00   6.1311E+00   7.6693E-08  0.1327
   6.1311E+00   6.2803E+00   8.2217E-08  0.1271
   6.2803E+00   6.4331E+00   5.6515E-08  0.1511
   6.4331E+00   6.5896E+00   5.7069E-08  0.1492
   6.5896E+00   6.7500E+00   4.8839E-08  0.1596
   6.7500E+00   6.9142E+00   5.0946E-08  0.1544
   6.9142E+00   7.0824E+00   3.8327E-08  0.1756
   7.0824E+00   7.2548E+00   3.5979E-08  0.1796
   7.2548E+00   7.4313E+00   4.1743E-08  0.1645
   7.4313E+00   7.6121E+00   2.1017E-08  0.2294
   7.6121E+00   7.7973E+00   1.2958E-08  0.2887
   7.7973E+00   7.9870E+00   1.4759E-08  0.2673
   7.9870E+00   8.1813E+00   1.8525E-08  0.2357
   8.1813E+00   8.3804E+00   1.3062E-08  0.2774
   8.3804E+00   8.5843E+00   1.5694E-08  0.2500
   8.5843E+00   8.7931E+00   7.6605E-09  0.3536
   8.7931E+00   9.0071E+00   9.3482E-10  1.0000
   9.0071E+00   9.2262E+00   2.7379E-09  0.5774
   9.2262E+00   9.4507E+00   0.0000E+00  0.0000
   9.4507E+00   9.6807E+00   0.0000E+00  0.0000
   9.6807E+00   9.9162E+00   0.0000E+00  0.0000
   9.9162E+00   1.0157E+01   0.0000E+00  0.0000
   1.0157E+01   1.0405E+01   0.0000E+00  0.0000
   1.0405E+01   1.0658E+01   0.0000E+00  0.0000
   1.0658E+01   1.0917E+01   0.0000E+00  0.0000
   1.0917E+01   1.1183E+01   0.0000E+00  0.0000
   1.1183E+01   1.1455E+01   0.0000E+00  0.0000
   1.1455E+01   1.1733E+01   0.0000E+00  0.0000
   1.1733E+01   1.2019E+01   0.0000E+00  0.0000
   1.2019E+01   1.2311E+01   0.0000E+00  0.0000
   1.2311E+01   1.2611E+01   0.0000E+00  0.0000
   1.2611E+01   1.2918E+01   0.0000E+00  0.0000
   1.2918E+01   1.3232E+01   0.0000E+00  0.0000
   1.3232E+01   1.3554E+01   0.0000E+00  0.0000
   1.3554E+01   1.3884E+01   0.0000E+00  0.0000
   1.3884E+01   1.4222E+01   0.0000E+00  0.0000
   1.4222E+01   1.4568E+01   0.0000E+00  0.0000
   1.4568E+01   1.4922E+01   0.0000E+00  0.0000
   1.4922E+01   1.5285E+01   0.0000E+00  0.0000
   1.5285E+01   1.5657E+01   0.0000E+00  0.0000
   1.5657E+01   1.6038E+01   0.0000E+00  0.0000
   1.6038E+01   1.6428E+01   0.0000E+00  0.0000
   1.6428E+01   1.6828E+01   0.0000E+00  0.0000
   1.6828E+01   1.7237E+01   0.0000E+00  0.0000
   1.7237E+01   1.7657E+01   0.0000E+00  0.0000
   1.7657E+01   1.8086E+01   0.0000E+00  0.0000
   1.8086E+01   1.8526E+01   0.0000E+00  0.0000
   1.8526E+01   1.8977E+01   0.0000E+00  0.0000
   1.8977E+01   1.9439E+01   0.0000E+00  0.0000
   1.9439E+01   1.9912E+01   0.0000E+00  0.0000
   1.9912E+01   2.0396E+01   0.0000E+00  0.0000
   2.0396E+01   2.0893E+01   0.0000E+00  0.0000
   2.0893E+01   2.1401E+01   0.0000E+00  0.0000
   2.1401E+01   2.1922E+01   0.0000E+00  0.0000
   2.1922E+01   2.2455E+01   0.0000E+00  0.0000
   2.2455E+01   2.3001E+01   0.0000E+00  0.0000
   2.3001E+01   2.3561E+01   0.0000E+00  0.0000
   2.3561E+01   2.4134E+01   0.0000E+00  0.0000
   2.4134E+01   2.4721E+01   0.0000E+00  0.0000
   2.4721E+01   2.5323E+01   0.0000E+00  0.0000
   2.5323E+01   2.5939E+01   0.0000E+00  0.0000
   2.5939E+01   2.6570E+01   0.0000E+00  0.0000
   2.6570E+01   2.7217E+01   0.0000E+00  0.0000
   2.7217E+01   2.7879E+01   0.0000E+00  0.0000
   2.7879E+01   2.8557E+01   0.0000E+00  0.0000
   2.8557E+01   2.9252E+01   0.0000E+00  0.0000
   2.9252E+01   2.9964E+01   0.0000E+00  0.0000
   2.9964E+01   3.0693E+01   0.0000E+00  0.0000
   3.0693E+01   3.1440E+01   0.0000E+00  0.0000
   3.1440E+01   3.2205E+01   0.0000E+00  0.0000
   3.2205E+01   3.2988E+01   0.0000E+00  0.0000
   3.2988E+01   3.3791E+01   0.0000E+00  0.0000
   3.3791E+01   3.4613E+01   0.0000E+00  0.0000
   3.4613E+01   3.5455E+01   0.0000E+00  0.0000
   3.5455E+01   3.6318E+01   0.0000E+00  0.0000
   3.6318E+01   3.7201E+01   0.0000E+00  0.0000
   3.7201E+01   3.8106E+01   0.0000E+00  0.0000
   3.8106E+01   3.9034E+01   0.0000E+00  0.0000
   3.9034E+01   3.9983E+01   0.0000E+00  0.0000
   3.9983E+01   4.0956E+01   0.0000E+00  0.0000
   4.0956E+01   4.1953E+01   0.0000E+00  0.0000
   4.1953E+01   4.2973E+01   0.0000E+00  0.0000
   4.2973E+01   4.4019E+01   0.0000E+00  0.0000
   4.4019E+01   4.5090E+01   0.0000E+00  0.0000
   4.5090E+01   4.6187E+01   0.0000E+00  0.0000
   4.6187E+01   4.7311E+01   0.0000E+00  0.0000
   4.7311E+01   4.8462E+01   0.0000E+00  0.0000
   4.8462E+01   4.9641E+01   0.0000E+00  0.0000
   4.9641E+01   5.0849E+01   0.0000E+00  0.0000
   5.0849E+01   5.2086E+01   0.0000E+00  0.0000
   5.2086E+01   5.3353E+01   0.0000E+00  0.0000
   5.3353E+01   5.4651E+01   0.0000E+00  0.0000
   5.4651E+01   5.5981E+01   0.0000E+00  0.0000
   5.5981E+01   5.7343E+01   0.0000E+00  0.0000
   5.7343E+01   5.8738E+01   0.0000E+00  0.0000
   5.8738E+01   6.0168E+01   0.0000E+00  0.0000
   6.0168E+01   6.1632E+01   0.0000E+00  0.0000
   6.1632E+01   6.3131E+01   0.0000E+00  0.0000
   6.3131E+01   6.4667E+01   0.0000E+00  0.0000
   6.4667E+01   6.6240E+01   0.0000E+00  0.0000
   6.6240E+01   6.7852E+01   0.0000E+00  0.0000
   6.7852E+01   6.9503E+01   0.0000E+00  0.0000
   6.9503E+01   7.1194E+01   0.0000E+00  0.0000
   7.1194E+01   7.2926E+01   0.0000E+00  0.0000
   7.2926E+01   7.4701E+01   0.0000E+00  0.0000
   7.4701E+01   7.6518E+01   0.0000E+00  0.0000
   7.6518E+01   7.8380E+01   0.0000E+00  0.0000
   7.8380E+01   8.0287E+01   0.0000E+00  0.0000
   8.0287E+01   8.2240E+01   0.0000E+00  0.0000
   8.2240E+01   8.4241E+01   0.0000E+00  0.0000
   8.4241E+01   8.6291E+01   0.0000E+00  0.0000
   8.6291E+01   8.8391E+01   0.0000E+00  0.0000
   8.8391E+01   9.0541E+01   0.0000E+00  0.0000
   9.0541E+01   9.2744E+01   0.0000E+00  0.0000
   9.2744E+01   9.5001E+01   0.0000E+00  0.0000
   9.5001E+01   9.7312E+01   0.0000E+00  0.0000
   9.7312E+01   9.9680E+01   0.0000E+00  0.0000
   9.9680E+01   1.0211E+02   0.0000E+00  0.0000
   1.0211E+02   1.0459E+02   0.0000E+00  0.0000
   1.0459E+02   1.0713E+02   0.0000E+00  0.0000
   1.0713E+02   1.0974E+02   0.0000E+00  0.0000
   1.0974E+02   1.1241E+02   0.0000E+00  0.0000
   1.1241E+02   1.1515E+02   0.0000E+00  0.0000
   1.1515E+02   1.1795E+02   0.0000E+00  0.0000
   1.1795E+02   1.2082E+02   0.0000E+00  0.0000
   1.2082E+02   1.2376E+02   0.0000E+00  0.0000
   1.2376E+02   1.2677E+02   0.0000E+00  0.0000
   1.2677E+02   1.2985E+02   0.0000E+00  0.0000
   1.2985E+02   1.3301E+02   0.0000E+00  0.0000
   1.3301E+02   1.3625E+02   0.0000E+00  0.0000
   1.3625E+02   1.3956E+02   0.0000E+00  0.0000
   1.3956E+02   1.4296E+02   0.0000E+00  0.0000
   1.4296E+02   1.4644E+02   0.0000E+00  0.0000
   1.4644E+02   1.5000E+02   0.0000E+00  0.0000

#   sum over                 1.6337E-08
'no. =    1   reg = 126 - 226'
msuc: {\huge [t-cross] in region mesh}
msdr: {\it plotted by \ANGEL \version}
msdl: {\it calculated by \PHITS  3.26}
wt: s(0.7)
\vspace{-3}
  region surface crossing
  area  &=&   1.0000E+00 [cm^2]
e:
 
# Information for Restart Calculation
# This calculation was newly started
# istdev =  2 # 1:Batch variance, 2:History variance
# resc2  = 5.00000000000000000E+09 # Total source weight or Total source weight / maxcas
# resc3  = 5.00000000000000000E+09 # Total history number or Total batch number
# maxcas =   100000000 # History / Batch, only used for istdev=1
# bitrseed = 0110100000100010111000001110001111001110100100011111101000111001 # bit data of rseed
