[ T-Cross ]
    title = [t-cross] in region mesh
     mesh =  reg            # mesh type is region-wise
      reg =    1            # number of crossing regions
      non     r-from    r-to       area
      1       104       204        1.000000    
   e-type =    3            # e-mesh is log given by emin, emax and ne
     emin =  1.0000000E-02  # minimum value of e-mesh points
     emax =   150.0000      # maximum value of e-mesh points
#    edel =  2.4039514E-02  # mesh width of e-mesh points
       ne =    400          # number of e-mesh points
#    data = ( e(i), i = 1, ne + 1 )
#           1.00000E-02  1.02433E-02  1.04925E-02  1.07478E-02  1.10093E-02
#           1.12772E-02  1.15516E-02  1.18326E-02  1.21205E-02  1.24154E-02
#           1.27175E-02  1.30269E-02  1.33439E-02  1.36686E-02  1.40011E-02
#           1.43418E-02  1.46907E-02  1.50482E-02  1.54143E-02  1.57894E-02
#           1.61735E-02  1.65670E-02  1.69701E-02  1.73830E-02  1.78060E-02
#           1.82392E-02  1.86830E-02  1.91375E-02  1.96032E-02  2.00801E-02
#           2.05687E-02  2.10692E-02  2.15818E-02  2.21069E-02  2.26448E-02
#           2.31957E-02  2.37601E-02  2.43382E-02  2.49304E-02  2.55369E-02
#           2.61583E-02  2.67947E-02  2.74467E-02  2.81145E-02  2.87985E-02
#           2.94992E-02  3.02169E-02  3.09521E-02  3.17052E-02  3.24766E-02
#           3.32668E-02  3.40762E-02  3.49053E-02  3.57546E-02  3.66246E-02
#           3.75157E-02  3.84284E-02  3.93634E-02  4.03212E-02  4.13022E-02
#           4.23071E-02  4.33365E-02  4.43909E-02  4.54710E-02  4.65773E-02
#           4.77106E-02  4.88714E-02  5.00605E-02  5.12785E-02  5.25262E-02
#           5.38042E-02  5.51133E-02  5.64542E-02  5.78278E-02  5.92348E-02
#           6.06760E-02  6.21523E-02  6.36645E-02  6.52135E-02  6.68002E-02
#           6.84255E-02  7.00904E-02  7.17957E-02  7.35426E-02  7.53319E-02
#           7.71648E-02  7.90423E-02  8.09655E-02  8.29354E-02  8.49533E-02
#           8.70203E-02  8.91376E-02  9.13064E-02  9.35279E-02  9.58035E-02
#           9.81345E-02  1.00522E-01  1.02968E-01  1.05473E-01  1.08040E-01
#           1.10668E-01  1.13361E-01  1.16119E-01  1.18944E-01  1.21838E-01
#           1.24803E-01  1.27839E-01  1.30950E-01  1.34136E-01  1.37399E-01
#           1.40742E-01  1.44167E-01  1.47675E-01  1.51268E-01  1.54948E-01
#           1.58718E-01  1.62580E-01  1.66535E-01  1.70587E-01  1.74738E-01
#           1.78989E-01  1.83344E-01  1.87805E-01  1.92375E-01  1.97055E-01
#           2.01850E-01  2.06761E-01  2.11792E-01  2.16945E-01  2.22223E-01
#           2.27630E-01  2.33169E-01  2.38842E-01  2.44653E-01  2.50605E-01
#           2.56703E-01  2.62949E-01  2.69346E-01  2.75900E-01  2.82613E-01
#           2.89489E-01  2.96532E-01  3.03747E-01  3.11138E-01  3.18708E-01
#           3.26462E-01  3.34405E-01  3.42542E-01  3.50876E-01  3.59413E-01
#           3.68158E-01  3.77116E-01  3.86291E-01  3.95690E-01  4.05317E-01
#           4.15179E-01  4.25281E-01  4.35628E-01  4.46227E-01  4.57084E-01
#           4.68205E-01  4.79597E-01  4.91266E-01  5.03219E-01  5.15463E-01
#           5.28005E-01  5.40851E-01  5.54011E-01  5.67490E-01  5.81298E-01
#           5.95441E-01  6.09929E-01  6.24769E-01  6.39970E-01  6.55541E-01
#           6.71491E-01  6.87828E-01  7.04564E-01  7.21706E-01  7.39266E-01
#           7.57253E-01  7.75678E-01  7.94551E-01  8.13883E-01  8.33685E-01
#           8.53969E-01  8.74747E-01  8.96030E-01  9.17831E-01  9.40163E-01
#           9.63038E-01  9.86469E-01  1.01047E+00  1.03506E+00  1.06024E+00
#           1.08604E+00  1.11246E+00  1.13953E+00  1.16725E+00  1.19565E+00
#           1.22474E+00  1.25454E+00  1.28507E+00  1.31633E+00  1.34836E+00
#           1.38117E+00  1.41477E+00  1.44920E+00  1.48446E+00  1.52057E+00
#           1.55757E+00  1.59547E+00  1.63429E+00  1.67405E+00  1.71478E+00
#           1.75650E+00  1.79924E+00  1.84302E+00  1.88786E+00  1.93379E+00
#           1.98084E+00  2.02904E+00  2.07841E+00  2.12898E+00  2.18078E+00
#           2.23384E+00  2.28819E+00  2.34386E+00  2.40089E+00  2.45930E+00
#           2.51914E+00  2.58043E+00  2.64322E+00  2.70753E+00  2.77341E+00
#           2.84088E+00  2.91001E+00  2.98081E+00  3.05333E+00  3.12762E+00
#           3.20372E+00  3.28167E+00  3.36152E+00  3.44330E+00  3.52708E+00
#           3.61290E+00  3.70080E+00  3.79085E+00  3.88308E+00  3.97756E+00
#           4.07434E+00  4.17347E+00  4.27501E+00  4.37903E+00  4.48557E+00
#           4.59471E+00  4.70650E+00  4.82102E+00  4.93832E+00  5.05847E+00
#           5.18155E+00  5.30762E+00  5.43676E+00  5.56904E+00  5.70453E+00
#           5.84333E+00  5.98550E+00  6.13114E+00  6.28031E+00  6.43312E+00
#           6.58964E+00  6.74997E+00  6.91420E+00  7.08243E+00  7.25475E+00
#           7.43126E+00  7.61207E+00  7.79728E+00  7.98700E+00  8.18133E+00
#           8.38038E+00  8.58428E+00  8.79315E+00  9.00709E+00  9.22624E+00
#           9.45072E+00  9.68067E+00  9.91620E+00  1.01575E+01  1.04046E+01
#           1.06578E+01  1.09171E+01  1.11827E+01  1.14548E+01  1.17335E+01
#           1.20190E+01  1.23114E+01  1.26109E+01  1.29178E+01  1.32321E+01
#           1.35540E+01  1.38838E+01  1.42216E+01  1.45676E+01  1.49221E+01
#           1.52851E+01  1.56570E+01  1.60380E+01  1.64282E+01  1.68279E+01
#           1.72374E+01  1.76568E+01  1.80864E+01  1.85264E+01  1.89772E+01
#           1.94389E+01  1.99119E+01  2.03963E+01  2.08926E+01  2.14009E+01
#           2.19216E+01  2.24550E+01  2.30014E+01  2.35610E+01  2.41343E+01
#           2.47215E+01  2.53230E+01  2.59391E+01  2.65702E+01  2.72167E+01
#           2.78789E+01  2.85572E+01  2.92520E+01  2.99637E+01  3.06928E+01
#           3.14396E+01  3.22045E+01  3.29881E+01  3.37907E+01  3.46128E+01
#           3.54550E+01  3.63177E+01  3.72013E+01  3.81064E+01  3.90336E+01
#           3.99833E+01  4.09561E+01  4.19526E+01  4.29734E+01  4.40189E+01
#           4.50900E+01  4.61870E+01  4.73108E+01  4.84619E+01  4.96410E+01
#           5.08488E+01  5.20860E+01  5.33533E+01  5.46514E+01  5.59812E+01
#           5.73432E+01  5.87384E+01  6.01676E+01  6.16315E+01  6.31311E+01
#           6.46671E+01  6.62405E+01  6.78522E+01  6.95031E+01  7.11941E+01
#           7.29263E+01  7.47007E+01  7.65182E+01  7.83800E+01  8.02870E+01
#           8.22405E+01  8.42414E+01  8.62911E+01  8.83906E+01  9.05412E+01
#           9.27442E+01  9.50007E+01  9.73122E+01  9.96799E+01  1.02105E+02
#           1.04589E+02  1.07134E+02  1.09741E+02  1.12411E+02  1.15146E+02
#           1.17948E+02  1.20817E+02  1.23757E+02  1.26768E+02  1.29852E+02
#           1.33012E+02  1.36248E+02  1.39563E+02  1.42959E+02  1.46437E+02
#           1.50000E+02
     unit =    2            # unit is [1/cm^2/(MeV/n)/source]
     axis =  eng            # axis of output
     file = detector-05.out  # file name of output for the above axis
   output = f-curr          # surface crossing forward current spectrum
     part =  neutron  
# kf/name :  2112     
#    used :        main (  %)        temp (  %)       total (  %)
#  memory :         414 (  0)           0 (  0)         414 (  0)

#------------------------------------------------------------------------------
#newpage:
#   no. =    1   reg = 104 - 204

x: Energy [MeV/n]
y:  F-Curr [1/cm^2/(MeV/n)/source]         
p: xlog ylog afac(0.8) form(0.9)
h: n            x            y(neutron ),hh0l   n 
#  e-lower      e-upper      neutron     r.err 
   1.0000E-02   1.0243E-02   1.8906E-05  0.2085
   1.0243E-02   1.0493E-02   1.7655E-05  0.2132
   1.0493E-02   1.0748E-02   1.4885E-05  0.2294
   1.0748E-02   1.1009E-02   1.6826E-05  0.2132
   1.1009E-02   1.1277E-02   1.7173E-05  0.2085
   1.1277E-02   1.1552E-02   1.7494E-05  0.2041
   1.1552E-02   1.1833E-02   1.7790E-05  0.2000
   1.1833E-02   1.2121E-02   1.9451E-05  0.1890
   1.2121E-02   1.2415E-02   7.4601E-06  0.3015
   1.2415E-02   1.2718E-02   1.7876E-05  0.1925
   1.2718E-02   1.3027E-02   1.5513E-05  0.2041
   1.3027E-02   1.3344E-02   1.6406E-05  0.1961
   1.3344E-02   1.3669E-02   9.8562E-06  0.2500
   1.3669E-02   1.4001E-02   1.6237E-05  0.1925
   1.4001E-02   1.4342E-02   1.4090E-05  0.2041
   1.4342E-02   1.4691E-02   1.4902E-05  0.1961
   1.4691E-02   1.5048E-02   1.6786E-05  0.1826
   1.5048E-02   1.5414E-02   1.8026E-05  0.1741
   1.5414E-02   1.5789E-02   1.1999E-05  0.2096
   1.5789E-02   1.6174E-02   2.2386E-05  0.1525
   1.6174E-02   1.6567E-02   1.7360E-05  0.1708
   1.6567E-02   1.6970E-02   1.9847E-05  0.1581
   1.6970E-02   1.7383E-02   1.8407E-05  0.1622
   1.7383E-02   1.7806E-02   1.6551E-05  0.1690
   1.7806E-02   1.8239E-02   1.9389E-05  0.1543
   1.8239E-02   1.8683E-02   1.1718E-05  0.1961
   1.8683E-02   1.9138E-02   1.8479E-05  0.1543
   1.9138E-02   1.9603E-02   1.9758E-05  0.1474
   1.9603E-02   2.0080E-02   2.2702E-05  0.1358
   2.0080E-02   2.0569E-02   1.5610E-05  0.1617
   2.0569E-02   2.1069E-02   1.7584E-05  0.1508
   2.1069E-02   2.1582E-02   1.9507E-05  0.1414
   2.1582E-02   2.2107E-02   2.0187E-05  0.1374
   2.2107E-02   2.2645E-02   1.9335E-05  0.1387
   2.2645E-02   2.3196E-02   2.0328E-05  0.1336
   2.3196E-02   2.3760E-02   2.5515E-05  0.1179
   2.3760E-02   2.4338E-02   1.7990E-05  0.1387
   2.4338E-02   2.4930E-02   2.3304E-05  0.1204
   2.4930E-02   2.5537E-02   2.1762E-05  0.1231
   2.5537E-02   2.6158E-02   2.3981E-05  0.1157
   2.6158E-02   2.6795E-02   2.5139E-05  0.1118
   2.6795E-02   2.7447E-02   2.0861E-05  0.1213
   2.7447E-02   2.8114E-02   2.1563E-05  0.1179
   2.8114E-02   2.8799E-02   1.6958E-05  0.1313
   2.8799E-02   2.9499E-02   2.2835E-05  0.1118
   2.9499E-02   3.0217E-02   2.2571E-05  0.1111
   3.0217E-02   3.0952E-02   2.3667E-05  0.1072
   3.0952E-02   3.1705E-02   2.0449E-05  0.1140
   3.1705E-02   3.2477E-02   2.3593E-05  0.1048
   3.2477E-02   3.3267E-02   2.3286E-05  0.1043
   3.3267E-02   3.4076E-02   1.9768E-05  0.1118
   3.4076E-02   3.4905E-02   2.0022E-05  0.1098
   3.4905E-02   3.5755E-02   1.8604E-05  0.1125
   3.5755E-02   3.6625E-02   2.3680E-05  0.0985
   3.6625E-02   3.7516E-02   2.3342E-05  0.0981
   3.7516E-02   3.8428E-02   2.3006E-05  0.0976
   3.8428E-02   3.9363E-02   2.0642E-05  0.1017
   3.9363E-02   4.0321E-02   2.0047E-05  0.1021
   4.0321E-02   4.1302E-02   2.1610E-05  0.0971
   4.1302E-02   4.2307E-02   2.3186E-05  0.0925
   4.2307E-02   4.3337E-02   2.2927E-05  0.0921
   4.3337E-02   4.4391E-02   2.2192E-05  0.0925
   4.4391E-02   4.5471E-02   2.1295E-05  0.0933
   4.5471E-02   4.6577E-02   2.3320E-05  0.0880
   4.6577E-02   4.7711E-02   2.2766E-05  0.0880
   4.7711E-02   4.8871E-02   2.3290E-05  0.0860
   4.8871E-02   5.0061E-02   2.3379E-05  0.0848
   5.0061E-02   5.1279E-02   2.4025E-05  0.0826
   5.1279E-02   5.2526E-02   2.5007E-05  0.0801
   5.2526E-02   5.3804E-02   2.3787E-05  0.0811
   5.3804E-02   5.5113E-02   2.1236E-05  0.0848
   5.5113E-02   5.6454E-02   2.5728E-05  0.0761
   5.6454E-02   5.7828E-02   2.4267E-05  0.0774
   5.7828E-02   5.9235E-02   2.4449E-05  0.0762
   5.9235E-02   6.0676E-02   2.4007E-05  0.0760
   6.0676E-02   6.2152E-02   2.4792E-05  0.0739
   6.2152E-02   6.3665E-02   2.5810E-05  0.0715
   6.3665E-02   6.5214E-02   2.4015E-05  0.0733
   6.5214E-02   6.6800E-02   2.4453E-05  0.0718
   6.6800E-02   6.8426E-02   2.1864E-05  0.0749
   6.8426E-02   7.0090E-02   2.7150E-05  0.0665
   7.0090E-02   7.1796E-02   2.2400E-05  0.0724
   7.1796E-02   7.3543E-02   2.9539E-05  0.0623
   7.3543E-02   7.5332E-02   2.4422E-05  0.0676
   7.5332E-02   7.7165E-02   2.4879E-05  0.0662
   7.7165E-02   7.9042E-02   2.5460E-05  0.0647
   7.9042E-02   8.0965E-02   2.2287E-05  0.0683
   8.0965E-02   8.2935E-02   2.5178E-05  0.0635
   8.2935E-02   8.4953E-02   2.5274E-05  0.0626
   8.4953E-02   8.7020E-02   2.5932E-05  0.0611
   8.7020E-02   8.9138E-02   2.5269E-05  0.0611
   8.9138E-02   9.1306E-02   2.5003E-05  0.0607
   9.1306E-02   9.3528E-02   2.6828E-05  0.0579
   9.3528E-02   9.5804E-02   2.7597E-05  0.0564
   9.5804E-02   9.8134E-02   2.3470E-05  0.0604
   9.8134E-02   1.0052E-01   2.5129E-05  0.0577
   1.0052E-01   1.0297E-01   2.2665E-05  0.0600
   1.0297E-01   1.0547E-01   2.4164E-05  0.0574
   1.0547E-01   1.0804E-01   2.5028E-05  0.0558
   1.0804E-01   1.1067E-01   2.1075E-05  0.0601
   1.1067E-01   1.1336E-01   2.6978E-05  0.0524
   1.1336E-01   1.1612E-01   2.3445E-05  0.0556
   1.1612E-01   1.1894E-01   2.5414E-05  0.0528
   1.1894E-01   1.2184E-01   2.5859E-05  0.0517
   1.2184E-01   1.2480E-01   2.3445E-05  0.0536
   1.2480E-01   1.2784E-01   2.2526E-05  0.0541
   1.2784E-01   1.3095E-01   2.3737E-05  0.0520
   1.3095E-01   1.3414E-01   2.4679E-05  0.0504
   1.3414E-01   1.3740E-01   2.4289E-05  0.0502
   1.3740E-01   1.4074E-01   2.4120E-05  0.0498
   1.4074E-01   1.4417E-01   2.3129E-05  0.0502
   1.4417E-01   1.4767E-01   2.4754E-05  0.0480
   1.4767E-01   1.5127E-01   2.3389E-05  0.0488
   1.5127E-01   1.5495E-01   2.1639E-05  0.0501
   1.5495E-01   1.5872E-01   2.2257E-05  0.0488
   1.5872E-01   1.6258E-01   2.3280E-05  0.0472
   1.6258E-01   1.6654E-01   2.2818E-05  0.0471
   1.6654E-01   1.7059E-01   2.2696E-05  0.0466
   1.7059E-01   1.7474E-01   2.2745E-05  0.0460
   1.7474E-01   1.7899E-01   2.2620E-05  0.0456
   1.7899E-01   1.8334E-01   1.9862E-05  0.0481
   1.8334E-01   1.8781E-01   2.2938E-05  0.0442
   1.8781E-01   1.9237E-01   2.1659E-05  0.0449
   1.9237E-01   1.9706E-01   1.9698E-05  0.0466
   1.9706E-01   2.0185E-01   1.8869E-05  0.0470
   2.0185E-01   2.0676E-01   2.0834E-05  0.0442
   2.0676E-01   2.1179E-01   1.9386E-05  0.0453
   2.1179E-01   2.1694E-01   1.8377E-05  0.0459
   2.1694E-01   2.2222E-01   2.0006E-05  0.0435
   2.2222E-01   2.2763E-01   2.2003E-05  0.0410
   2.2763E-01   2.3317E-01   2.1584E-05  0.0409
   2.3317E-01   2.3884E-01   2.1369E-05  0.0406
   2.3884E-01   2.4465E-01   2.0392E-05  0.0411
   2.4465E-01   2.5061E-01   2.0037E-05  0.0409
   2.5061E-01   2.5670E-01   1.9293E-05  0.0412
   2.5670E-01   2.6295E-01   2.0705E-05  0.0393
   2.6295E-01   2.6935E-01   2.0560E-05  0.0390
   2.6935E-01   2.7590E-01   2.0264E-05  0.0388
   2.7590E-01   2.8261E-01   2.0622E-05  0.0380
   2.8261E-01   2.8949E-01   2.0529E-05  0.0376
   2.8949E-01   2.9653E-01   2.1271E-05  0.0365
   2.9653E-01   3.0375E-01   2.1134E-05  0.0362
   3.0375E-01   3.1114E-01   2.0720E-05  0.0361
   3.1114E-01   3.1871E-01   2.0044E-05  0.0363
   3.1871E-01   3.2646E-01   2.0555E-05  0.0354
   3.2646E-01   3.3441E-01   2.0491E-05  0.0350
   3.3441E-01   3.4254E-01   2.0918E-05  0.0343
   3.4254E-01   3.5088E-01   2.1329E-05  0.0335
   3.5088E-01   3.5941E-01   2.1307E-05  0.0331
   3.5941E-01   3.6816E-01   2.1046E-05  0.0330
   3.6816E-01   3.7712E-01   2.2298E-05  0.0316
   3.7712E-01   3.8629E-01   2.0915E-05  0.0323
   3.8629E-01   3.9569E-01   2.1172E-05  0.0317
   3.9569E-01   4.0532E-01   2.1034E-05  0.0314
   4.0532E-01   4.1518E-01   2.2338E-05  0.0301
   4.1518E-01   4.2528E-01   2.0967E-05  0.0307
   4.2528E-01   4.3563E-01   2.1825E-05  0.0298
   4.3563E-01   4.4623E-01   2.1498E-05  0.0296
   4.4623E-01   4.5708E-01   2.2896E-05  0.0284
   4.5708E-01   4.6821E-01   2.1478E-05  0.0289
   4.6821E-01   4.7960E-01   2.1086E-05  0.0288
   4.7960E-01   4.9127E-01   2.2532E-05  0.0276
   4.9127E-01   5.0322E-01   2.1279E-05  0.0280
   5.0322E-01   5.1546E-01   2.1677E-05  0.0274
   5.1546E-01   5.2800E-01   2.3013E-05  0.0263
   5.2800E-01   5.4085E-01   2.2513E-05  0.0263
   5.4085E-01   5.5401E-01   2.1737E-05  0.0264
   5.5401E-01   5.6749E-01   2.1871E-05  0.0260
   5.6749E-01   5.8130E-01   2.4406E-05  0.0244
   5.8130E-01   5.9544E-01   2.1615E-05  0.0256
   5.9544E-01   6.0993E-01   2.2306E-05  0.0249
   6.0993E-01   6.2477E-01   2.2027E-05  0.0247
   6.2477E-01   6.3997E-01   2.3228E-05  0.0238
   6.3997E-01   6.5554E-01   2.2472E-05  0.0239
   6.5554E-01   6.7149E-01   2.2344E-05  0.0237
   6.7149E-01   6.8783E-01   2.4337E-05  0.0224
   6.8783E-01   7.0456E-01   2.3690E-05  0.0224
   7.0456E-01   7.2171E-01   2.3387E-05  0.0223
   7.2171E-01   7.3927E-01   2.3259E-05  0.0221
   7.3927E-01   7.5725E-01   2.3627E-05  0.0217
   7.5725E-01   7.7568E-01   2.4615E-05  0.0210
   7.7568E-01   7.9455E-01   2.3638E-05  0.0212
   7.9455E-01   8.1388E-01   2.3995E-05  0.0208
   8.1388E-01   8.3368E-01   2.4823E-05  0.0202
   8.3368E-01   8.5397E-01   2.4283E-05  0.0201
   8.5397E-01   8.7475E-01   2.4992E-05  0.0196
   8.7475E-01   8.9603E-01   2.4344E-05  0.0196
   8.9603E-01   9.1783E-01   2.3969E-05  0.0196
   9.1783E-01   9.4016E-01   2.3837E-05  0.0194
   9.4016E-01   9.6304E-01   2.4011E-05  0.0191
   9.6304E-01   9.8647E-01   2.4892E-05  0.0185
   9.8647E-01   1.0105E+00   2.4786E-05  0.0183
   1.0105E+00   1.0351E+00   2.4441E-05  0.0182
   1.0351E+00   1.0602E+00   2.4959E-05  0.0178
   1.0602E+00   1.0860E+00   2.4426E-05  0.0178
   1.0860E+00   1.1125E+00   2.4681E-05  0.0175
   1.1125E+00   1.1395E+00   2.4043E-05  0.0175
   1.1395E+00   1.1673E+00   2.4210E-05  0.0173
   1.1673E+00   1.1957E+00   2.5152E-05  0.0167
   1.1957E+00   1.2247E+00   2.4754E-05  0.0167
   1.2247E+00   1.2545E+00   2.4801E-05  0.0164
   1.2545E+00   1.2851E+00   2.5300E-05  0.0161
   1.2851E+00   1.3163E+00   2.4828E-05  0.0160
   1.3163E+00   1.3484E+00   2.5435E-05  0.0157
   1.3484E+00   1.3812E+00   2.5746E-05  0.0154
   1.3812E+00   1.4148E+00   2.5105E-05  0.0154
   1.4148E+00   1.4492E+00   2.6159E-05  0.0149
   1.4492E+00   1.4845E+00   2.5740E-05  0.0148
   1.4845E+00   1.5206E+00   2.5453E-05  0.0147
   1.5206E+00   1.5576E+00   2.5862E-05  0.0144
   1.5576E+00   1.5955E+00   2.6202E-05  0.0142
   1.5955E+00   1.6343E+00   2.5855E-05  0.0141
   1.6343E+00   1.6741E+00   2.6271E-05  0.0138
   1.6741E+00   1.7148E+00   2.6682E-05  0.0136
   1.7148E+00   1.7565E+00   2.7284E-05  0.0133
   1.7565E+00   1.7992E+00   2.7069E-05  0.0131
   1.7992E+00   1.8430E+00   2.6371E-05  0.0132
   1.8430E+00   1.8879E+00   2.6037E-05  0.0131
   1.8879E+00   1.9338E+00   2.7136E-05  0.0127
   1.9338E+00   1.9808E+00   2.6500E-05  0.0127
   1.9808E+00   2.0290E+00   2.6422E-05  0.0125
   2.0290E+00   2.0784E+00   2.6963E-05  0.0123
   2.0784E+00   2.1290E+00   2.7078E-05  0.0121
   2.1290E+00   2.1808E+00   2.6448E-05  0.0121
   2.1808E+00   2.2338E+00   2.7222E-05  0.0118
   2.2338E+00   2.2882E+00   2.7272E-05  0.0116
   2.2882E+00   2.3439E+00   2.7418E-05  0.0114
   2.3439E+00   2.4009E+00   2.7500E-05  0.0113
   2.4009E+00   2.4593E+00   2.7547E-05  0.0111
   2.4593E+00   2.5191E+00   2.7909E-05  0.0109
   2.5191E+00   2.5804E+00   2.7435E-05  0.0109
   2.5804E+00   2.6432E+00   2.8115E-05  0.0106
   2.6432E+00   2.7075E+00   2.7865E-05  0.0106
   2.7075E+00   2.7734E+00   2.7472E-05  0.0105
   2.7734E+00   2.8409E+00   2.7335E-05  0.0104
   2.8409E+00   2.9100E+00   2.8372E-05  0.0101
   2.9100E+00   2.9808E+00   2.8573E-05  0.0099
   2.9808E+00   3.0533E+00   2.8365E-05  0.0099
   3.0533E+00   3.1276E+00   2.8444E-05  0.0097
   3.1276E+00   3.2037E+00   2.8442E-05  0.0096
   3.2037E+00   3.2817E+00   2.8258E-05  0.0095
   3.2817E+00   3.3615E+00   2.8885E-05  0.0093
   3.3615E+00   3.4433E+00   2.8448E-05  0.0093
   3.4433E+00   3.5271E+00   2.8906E-05  0.0091
   3.5271E+00   3.6129E+00   2.8690E-05  0.0090
   3.6129E+00   3.7008E+00   2.8479E-05  0.0089
   3.7008E+00   3.7908E+00   2.8335E-05  0.0089
   3.7908E+00   3.8831E+00   2.8803E-05  0.0087
   3.8831E+00   3.9776E+00   2.8201E-05  0.0087
   3.9776E+00   4.0743E+00   2.8589E-05  0.0085
   4.0743E+00   4.1735E+00   2.8412E-05  0.0084
   4.1735E+00   4.2750E+00   2.8363E-05  0.0083
   4.2750E+00   4.3790E+00   2.8742E-05  0.0082
   4.3790E+00   4.4856E+00   2.9201E-05  0.0080
   4.4856E+00   4.5947E+00   2.8282E-05  0.0080
   4.5947E+00   4.7065E+00   2.8914E-05  0.0079
   4.7065E+00   4.8210E+00   2.8803E-05  0.0078
   4.8210E+00   4.9383E+00   2.8627E-05  0.0077
   4.9383E+00   5.0585E+00   2.8860E-05  0.0076
   5.0585E+00   5.1815E+00   2.8999E-05  0.0075
   5.1815E+00   5.3076E+00   2.9335E-05  0.0074
   5.3076E+00   5.4368E+00   2.8844E-05  0.0073
   5.4368E+00   5.5690E+00   2.8929E-05  0.0072
   5.5690E+00   5.7045E+00   2.9222E-05  0.0071
   5.7045E+00   5.8433E+00   2.9393E-05  0.0070
   5.8433E+00   5.9855E+00   2.9731E-05  0.0069
   5.9855E+00   6.1311E+00   2.9230E-05  0.0069
   6.1311E+00   6.2803E+00   2.9460E-05  0.0067
   6.2803E+00   6.4331E+00   3.0019E-05  0.0066
   6.4331E+00   6.5896E+00   2.9816E-05  0.0065
   6.5896E+00   6.7500E+00   3.0089E-05  0.0064
   6.7500E+00   6.9142E+00   3.0354E-05  0.0063
   6.9142E+00   7.0824E+00   3.0216E-05  0.0063
   7.0824E+00   7.2548E+00   3.0622E-05  0.0062
   7.2548E+00   7.4313E+00   3.1089E-05  0.0060
   7.4313E+00   7.6121E+00   3.1369E-05  0.0059
   7.6121E+00   7.7973E+00   3.1475E-05  0.0059
   7.7973E+00   7.9870E+00   3.1679E-05  0.0058
   7.9870E+00   8.1813E+00   3.1948E-05  0.0057
   8.1813E+00   8.3804E+00   3.2447E-05  0.0056
   8.3804E+00   8.5843E+00   3.2733E-05  0.0055
   8.5843E+00   8.7931E+00   3.3157E-05  0.0054
   8.7931E+00   9.0071E+00   3.3771E-05  0.0053
   9.0071E+00   9.2262E+00   3.4250E-05  0.0052
   9.2262E+00   9.4507E+00   3.4673E-05  0.0051
   9.4507E+00   9.6807E+00   3.5361E-05  0.0050
   9.6807E+00   9.9162E+00   3.5675E-05  0.0049
   9.9162E+00   1.0157E+01   3.6236E-05  0.0048
   1.0157E+01   1.0405E+01   3.6959E-05  0.0047
   1.0405E+01   1.0658E+01   3.8014E-05  0.0046
   1.0658E+01   1.0917E+01   3.8831E-05  0.0045
   1.0917E+01   1.1183E+01   3.9523E-05  0.0044
   1.1183E+01   1.1455E+01   4.0350E-05  0.0043
   1.1455E+01   1.1733E+01   4.1605E-05  0.0042
   1.1733E+01   1.2019E+01   4.2183E-05  0.0041
   1.2019E+01   1.2311E+01   4.3586E-05  0.0040
   1.2311E+01   1.2611E+01   4.4451E-05  0.0039
   1.2611E+01   1.2918E+01   4.5757E-05  0.0038
   1.2918E+01   1.3232E+01   4.6736E-05  0.0037
   1.3232E+01   1.3554E+01   4.7984E-05  0.0036
   1.3554E+01   1.3884E+01   4.9654E-05  0.0035
   1.3884E+01   1.4222E+01   5.0789E-05  0.0034
   1.4222E+01   1.4568E+01   5.2369E-05  0.0033
   1.4568E+01   1.4922E+01   5.4444E-05  0.0032
   1.4922E+01   1.5285E+01   5.5532E-05  0.0031
   1.5285E+01   1.5657E+01   5.7214E-05  0.0031
   1.5657E+01   1.6038E+01   5.8531E-05  0.0030
   1.6038E+01   1.6428E+01   6.0208E-05  0.0029
   1.6428E+01   1.6828E+01   6.1792E-05  0.0028
   1.6828E+01   1.7237E+01   6.3195E-05  0.0028
   1.7237E+01   1.7657E+01   6.4764E-05  0.0027
   1.7657E+01   1.8086E+01   6.6168E-05  0.0027
   1.8086E+01   1.8526E+01   6.7199E-05  0.0026
   1.8526E+01   1.8977E+01   6.8007E-05  0.0026
   1.8977E+01   1.9439E+01   6.8904E-05  0.0025
   1.9439E+01   1.9912E+01   6.9470E-05  0.0025
   1.9912E+01   2.0396E+01   6.9972E-05  0.0024
   2.0396E+01   2.0893E+01   6.9976E-05  0.0024
   2.0893E+01   2.1401E+01   6.9742E-05  0.0024
   2.1401E+01   2.1922E+01   6.8939E-05  0.0024
   2.1922E+01   2.2455E+01   6.7751E-05  0.0024
   2.2455E+01   2.3001E+01   6.6334E-05  0.0023
   2.3001E+01   2.3561E+01   6.4470E-05  0.0024
   2.3561E+01   2.4134E+01   6.2403E-05  0.0024
   2.4134E+01   2.4721E+01   5.9613E-05  0.0024
   2.4721E+01   2.5323E+01   5.7061E-05  0.0024
   2.5323E+01   2.5939E+01   5.4245E-05  0.0024
   2.5939E+01   2.6570E+01   5.1116E-05  0.0025
   2.6570E+01   2.7217E+01   4.7903E-05  0.0025
   2.7217E+01   2.7879E+01   4.4677E-05  0.0026
   2.7879E+01   2.8557E+01   4.1398E-05  0.0027
   2.8557E+01   2.9252E+01   3.8301E-05  0.0027
   2.9252E+01   2.9964E+01   3.5205E-05  0.0028
   2.9964E+01   3.0693E+01   3.2367E-05  0.0029
   3.0693E+01   3.1440E+01   2.9482E-05  0.0030
   3.1440E+01   3.2205E+01   2.6725E-05  0.0031
   3.2205E+01   3.2988E+01   2.4183E-05  0.0032
   3.2988E+01   3.3791E+01   2.1876E-05  0.0034
   3.3791E+01   3.4613E+01   1.9547E-05  0.0035
   3.4613E+01   3.5455E+01   1.7558E-05  0.0037
   3.5455E+01   3.6318E+01   1.6005E-05  0.0038
   3.6318E+01   3.7201E+01   1.4669E-05  0.0039
   3.7201E+01   3.8106E+01   1.3432E-05  0.0041
   3.8106E+01   3.9034E+01   1.2199E-05  0.0042
   3.9034E+01   3.9983E+01   1.1024E-05  0.0044
   3.9983E+01   4.0956E+01   9.9995E-06  0.0045
   4.0956E+01   4.1953E+01   9.0311E-06  0.0047
   4.1953E+01   4.2973E+01   8.2154E-06  0.0049
   4.2973E+01   4.4019E+01   7.3898E-06  0.0051
   4.4019E+01   4.5090E+01   6.8625E-06  0.0052
   4.5090E+01   4.6187E+01   6.4741E-06  0.0053
   4.6187E+01   4.7311E+01   5.9169E-06  0.0055
   4.7311E+01   4.8462E+01   5.5461E-06  0.0056
   4.8462E+01   4.9641E+01   5.2114E-06  0.0057
   4.9641E+01   5.0849E+01   4.9569E-06  0.0058
   5.0849E+01   5.2086E+01   4.6806E-06  0.0059
   5.2086E+01   5.3353E+01   4.4361E-06  0.0060
   5.3353E+01   5.4651E+01   3.9055E-06  0.0063
   5.4651E+01   5.5981E+01   3.2979E-06  0.0068
   5.5981E+01   5.7343E+01   2.6119E-06  0.0075
   5.7343E+01   5.8738E+01   2.0234E-06  0.0084
   5.8738E+01   6.0168E+01   1.3845E-06  0.0101
   6.0168E+01   6.1632E+01   8.4950E-07  0.0127
   6.1632E+01   6.3131E+01   4.0466E-07  0.0182
   6.3131E+01   6.4667E+01   2.4010E-07  0.0233
   6.4667E+01   6.6240E+01   3.8134E-09  0.1826
   6.6240E+01   6.7852E+01   0.0000E+00  0.0000
   6.7852E+01   6.9503E+01   0.0000E+00  0.0000
   6.9503E+01   7.1194E+01   0.0000E+00  0.0000
   7.1194E+01   7.2926E+01   0.0000E+00  0.0000
   7.2926E+01   7.4701E+01   0.0000E+00  0.0000
   7.4701E+01   7.6518E+01   0.0000E+00  0.0000
   7.6518E+01   7.8380E+01   0.0000E+00  0.0000
   7.8380E+01   8.0287E+01   0.0000E+00  0.0000
   8.0287E+01   8.2240E+01   0.0000E+00  0.0000
   8.2240E+01   8.4241E+01   0.0000E+00  0.0000
   8.4241E+01   8.6291E+01   0.0000E+00  0.0000
   8.6291E+01   8.8391E+01   0.0000E+00  0.0000
   8.8391E+01   9.0541E+01   0.0000E+00  0.0000
   9.0541E+01   9.2744E+01   0.0000E+00  0.0000
   9.2744E+01   9.5001E+01   0.0000E+00  0.0000
   9.5001E+01   9.7312E+01   0.0000E+00  0.0000
   9.7312E+01   9.9680E+01   0.0000E+00  0.0000
   9.9680E+01   1.0211E+02   0.0000E+00  0.0000
   1.0211E+02   1.0459E+02   0.0000E+00  0.0000
   1.0459E+02   1.0713E+02   0.0000E+00  0.0000
   1.0713E+02   1.0974E+02   0.0000E+00  0.0000
   1.0974E+02   1.1241E+02   0.0000E+00  0.0000
   1.1241E+02   1.1515E+02   0.0000E+00  0.0000
   1.1515E+02   1.1795E+02   0.0000E+00  0.0000
   1.1795E+02   1.2082E+02   0.0000E+00  0.0000
   1.2082E+02   1.2376E+02   0.0000E+00  0.0000
   1.2376E+02   1.2677E+02   0.0000E+00  0.0000
   1.2677E+02   1.2985E+02   0.0000E+00  0.0000
   1.2985E+02   1.3301E+02   0.0000E+00  0.0000
   1.3301E+02   1.3625E+02   0.0000E+00  0.0000
   1.3625E+02   1.3956E+02   0.0000E+00  0.0000
   1.3956E+02   1.4296E+02   0.0000E+00  0.0000
   1.4296E+02   1.4644E+02   0.0000E+00  0.0000
   1.4644E+02   1.5000E+02   0.0000E+00  0.0000

#   sum over                 1.1266E-05
'no. =    1   reg = 104 - 204'
msuc: {\huge [t-cross] in region mesh}
msdr: {\it plotted by \ANGEL \version}
msdl: {\it calculated by \PHITS  3.26}
wt: s(0.7)
\vspace{-3}
  region surface crossing
  area  &=&   1.0000E+00 [cm^2]
e:
 
# Information for Restart Calculation
# This calculation was newly started
# istdev =  2 # 1:Batch variance, 2:History variance
# resc2  = 5.00000000000000000E+09 # Total source weight or Total source weight / maxcas
# resc3  = 5.00000000000000000E+09 # Total history number or Total batch number
# maxcas =   500000000 # History / Batch, only used for istdev=1
# bitrseed = 0110100000100010111000001110001111001110100100011111101000111001 # bit data of rseed
