[ T-Cross ]
    title = [t-cross] in region mesh
     mesh =  reg            # mesh type is region-wise
      reg =    1            # number of crossing regions
      non     r-from    r-to       area
      1       125       225        1.000000    
   e-type =    3            # e-mesh is log given by emin, emax and ne
     emin =  1.0000000E-02  # minimum value of e-mesh points
     emax =   150.0000      # maximum value of e-mesh points
#    edel =  2.4039514E-02  # mesh width of e-mesh points
       ne =    400          # number of e-mesh points
#    data = ( e(i), i = 1, ne + 1 )
#           1.00000E-02  1.02433E-02  1.04925E-02  1.07478E-02  1.10093E-02
#           1.12772E-02  1.15516E-02  1.18326E-02  1.21205E-02  1.24154E-02
#           1.27175E-02  1.30269E-02  1.33439E-02  1.36686E-02  1.40011E-02
#           1.43418E-02  1.46907E-02  1.50482E-02  1.54143E-02  1.57894E-02
#           1.61735E-02  1.65670E-02  1.69701E-02  1.73830E-02  1.78060E-02
#           1.82392E-02  1.86830E-02  1.91375E-02  1.96032E-02  2.00801E-02
#           2.05687E-02  2.10692E-02  2.15818E-02  2.21069E-02  2.26448E-02
#           2.31957E-02  2.37601E-02  2.43382E-02  2.49304E-02  2.55369E-02
#           2.61583E-02  2.67947E-02  2.74467E-02  2.81145E-02  2.87985E-02
#           2.94992E-02  3.02169E-02  3.09521E-02  3.17052E-02  3.24766E-02
#           3.32668E-02  3.40762E-02  3.49053E-02  3.57546E-02  3.66246E-02
#           3.75157E-02  3.84284E-02  3.93634E-02  4.03212E-02  4.13022E-02
#           4.23071E-02  4.33365E-02  4.43909E-02  4.54710E-02  4.65773E-02
#           4.77106E-02  4.88714E-02  5.00605E-02  5.12785E-02  5.25262E-02
#           5.38042E-02  5.51133E-02  5.64542E-02  5.78278E-02  5.92348E-02
#           6.06760E-02  6.21523E-02  6.36645E-02  6.52135E-02  6.68002E-02
#           6.84255E-02  7.00904E-02  7.17957E-02  7.35426E-02  7.53319E-02
#           7.71648E-02  7.90423E-02  8.09655E-02  8.29354E-02  8.49533E-02
#           8.70203E-02  8.91376E-02  9.13064E-02  9.35279E-02  9.58035E-02
#           9.81345E-02  1.00522E-01  1.02968E-01  1.05473E-01  1.08040E-01
#           1.10668E-01  1.13361E-01  1.16119E-01  1.18944E-01  1.21838E-01
#           1.24803E-01  1.27839E-01  1.30950E-01  1.34136E-01  1.37399E-01
#           1.40742E-01  1.44167E-01  1.47675E-01  1.51268E-01  1.54948E-01
#           1.58718E-01  1.62580E-01  1.66535E-01  1.70587E-01  1.74738E-01
#           1.78989E-01  1.83344E-01  1.87805E-01  1.92375E-01  1.97055E-01
#           2.01850E-01  2.06761E-01  2.11792E-01  2.16945E-01  2.22223E-01
#           2.27630E-01  2.33169E-01  2.38842E-01  2.44653E-01  2.50605E-01
#           2.56703E-01  2.62949E-01  2.69346E-01  2.75900E-01  2.82613E-01
#           2.89489E-01  2.96532E-01  3.03747E-01  3.11138E-01  3.18708E-01
#           3.26462E-01  3.34405E-01  3.42542E-01  3.50876E-01  3.59413E-01
#           3.68158E-01  3.77116E-01  3.86291E-01  3.95690E-01  4.05317E-01
#           4.15179E-01  4.25281E-01  4.35628E-01  4.46227E-01  4.57084E-01
#           4.68205E-01  4.79597E-01  4.91266E-01  5.03219E-01  5.15463E-01
#           5.28005E-01  5.40851E-01  5.54011E-01  5.67490E-01  5.81298E-01
#           5.95441E-01  6.09929E-01  6.24769E-01  6.39970E-01  6.55541E-01
#           6.71491E-01  6.87828E-01  7.04564E-01  7.21706E-01  7.39266E-01
#           7.57253E-01  7.75678E-01  7.94551E-01  8.13883E-01  8.33685E-01
#           8.53969E-01  8.74747E-01  8.96030E-01  9.17831E-01  9.40163E-01
#           9.63038E-01  9.86469E-01  1.01047E+00  1.03506E+00  1.06024E+00
#           1.08604E+00  1.11246E+00  1.13953E+00  1.16725E+00  1.19565E+00
#           1.22474E+00  1.25454E+00  1.28507E+00  1.31633E+00  1.34836E+00
#           1.38117E+00  1.41477E+00  1.44920E+00  1.48446E+00  1.52057E+00
#           1.55757E+00  1.59547E+00  1.63429E+00  1.67405E+00  1.71478E+00
#           1.75650E+00  1.79924E+00  1.84302E+00  1.88786E+00  1.93379E+00
#           1.98084E+00  2.02904E+00  2.07841E+00  2.12898E+00  2.18078E+00
#           2.23384E+00  2.28819E+00  2.34386E+00  2.40089E+00  2.45930E+00
#           2.51914E+00  2.58043E+00  2.64322E+00  2.70753E+00  2.77341E+00
#           2.84088E+00  2.91001E+00  2.98081E+00  3.05333E+00  3.12762E+00
#           3.20372E+00  3.28167E+00  3.36152E+00  3.44330E+00  3.52708E+00
#           3.61290E+00  3.70080E+00  3.79085E+00  3.88308E+00  3.97756E+00
#           4.07434E+00  4.17347E+00  4.27501E+00  4.37903E+00  4.48557E+00
#           4.59471E+00  4.70650E+00  4.82102E+00  4.93832E+00  5.05847E+00
#           5.18155E+00  5.30762E+00  5.43676E+00  5.56904E+00  5.70453E+00
#           5.84333E+00  5.98550E+00  6.13114E+00  6.28031E+00  6.43312E+00
#           6.58964E+00  6.74997E+00  6.91420E+00  7.08243E+00  7.25475E+00
#           7.43126E+00  7.61207E+00  7.79728E+00  7.98700E+00  8.18133E+00
#           8.38038E+00  8.58428E+00  8.79315E+00  9.00709E+00  9.22624E+00
#           9.45072E+00  9.68067E+00  9.91620E+00  1.01575E+01  1.04046E+01
#           1.06578E+01  1.09171E+01  1.11827E+01  1.14548E+01  1.17335E+01
#           1.20190E+01  1.23114E+01  1.26109E+01  1.29178E+01  1.32321E+01
#           1.35540E+01  1.38838E+01  1.42216E+01  1.45676E+01  1.49221E+01
#           1.52851E+01  1.56570E+01  1.60380E+01  1.64282E+01  1.68279E+01
#           1.72374E+01  1.76568E+01  1.80864E+01  1.85264E+01  1.89772E+01
#           1.94389E+01  1.99119E+01  2.03963E+01  2.08926E+01  2.14009E+01
#           2.19216E+01  2.24550E+01  2.30014E+01  2.35610E+01  2.41343E+01
#           2.47215E+01  2.53230E+01  2.59391E+01  2.65702E+01  2.72167E+01
#           2.78789E+01  2.85572E+01  2.92520E+01  2.99637E+01  3.06928E+01
#           3.14396E+01  3.22045E+01  3.29881E+01  3.37907E+01  3.46128E+01
#           3.54550E+01  3.63177E+01  3.72013E+01  3.81064E+01  3.90336E+01
#           3.99833E+01  4.09561E+01  4.19526E+01  4.29734E+01  4.40189E+01
#           4.50900E+01  4.61870E+01  4.73108E+01  4.84619E+01  4.96410E+01
#           5.08488E+01  5.20860E+01  5.33533E+01  5.46514E+01  5.59812E+01
#           5.73432E+01  5.87384E+01  6.01676E+01  6.16315E+01  6.31311E+01
#           6.46671E+01  6.62405E+01  6.78522E+01  6.95031E+01  7.11941E+01
#           7.29263E+01  7.47007E+01  7.65182E+01  7.83800E+01  8.02870E+01
#           8.22405E+01  8.42414E+01  8.62911E+01  8.83906E+01  9.05412E+01
#           9.27442E+01  9.50007E+01  9.73122E+01  9.96799E+01  1.02105E+02
#           1.04589E+02  1.07134E+02  1.09741E+02  1.12411E+02  1.15146E+02
#           1.17948E+02  1.20817E+02  1.23757E+02  1.26768E+02  1.29852E+02
#           1.33012E+02  1.36248E+02  1.39563E+02  1.42959E+02  1.46437E+02
#           1.50000E+02
     unit =    2            # unit is [1/cm^2/(MeV/n)/source]
     axis =  eng            # axis of output
     file = detector-26.out  # file name of output for the above axis
   output = f-curr          # surface crossing forward current spectrum
     part =  neutron  
# kf/name :  2112     
#    used :        main (  %)        temp (  %)       total (  %)
#  memory :         414 (  0)           0 (  0)         414 (  0)

#------------------------------------------------------------------------------
#newpage:
#   no. =    1   reg = 125 - 225

x: Energy [MeV/n]
y:  F-Curr [1/cm^2/(MeV/n)/source]         
p: xlog ylog afac(0.8) form(0.9)
h: n            x            y(neutron ),hh0l   n 
#  e-lower      e-upper      neutron     r.err 
   1.0000E-02   1.0243E-02   6.5417E-04  0.0792
   1.0243E-02   1.0493E-02   6.7678E-04  0.0769
   1.0493E-02   1.0748E-02   5.6798E-04  0.0830
   1.0748E-02   1.1009E-02   4.7498E-04  0.0897
   1.1009E-02   1.1277E-02   5.7569E-04  0.0803
   1.1277E-02   1.1552E-02   5.6608E-04  0.0802
   1.1552E-02   1.1833E-02   5.4391E-04  0.0807
   1.1833E-02   1.2121E-02   5.8748E-04  0.0769
   1.2121E-02   1.2415E-02   5.1203E-04  0.0812
   1.2415E-02   1.2718E-02   4.7789E-04  0.0830
   1.2718E-02   1.3027E-02   4.7074E-04  0.0827
   1.3027E-02   1.3344E-02   5.7737E-04  0.0739
   1.3344E-02   1.3669E-02   5.2096E-04  0.0767
   1.3669E-02   1.4001E-02   5.3574E-04  0.0749
   1.4001E-02   1.4342E-02   4.6729E-04  0.0792
   1.4342E-02   1.4691E-02   4.6329E-04  0.0786
   1.4691E-02   1.5048E-02   4.8633E-04  0.0757
   1.5048E-02   1.5414E-02   4.3743E-04  0.0789
   1.5414E-02   1.5789E-02   4.8528E-04  0.0741
   1.5789E-02   1.6174E-02   4.6406E-04  0.0748
   1.6174E-02   1.6567E-02   4.8036E-04  0.0726
   1.6567E-02   1.6970E-02   4.3839E-04  0.0751
   1.6970E-02   1.7383E-02   4.2317E-04  0.0755
   1.7383E-02   1.7806E-02   4.4247E-04  0.0731
   1.7806E-02   1.8239E-02   4.7118E-04  0.0698
   1.8239E-02   1.8683E-02   4.0260E-04  0.0747
   1.8683E-02   1.9138E-02   4.2540E-04  0.0717
   1.9138E-02   1.9603E-02   4.6037E-04  0.0682
   1.9603E-02   2.0080E-02   4.0432E-04  0.0718
   2.0080E-02   2.0569E-02   3.9569E-04  0.0719
   2.0569E-02   2.1069E-02   3.5700E-04  0.0747
   2.1069E-02   2.1582E-02   3.8638E-04  0.0709
   2.1582E-02   2.2107E-02   4.4053E-04  0.0657
   2.2107E-02   2.2645E-02   3.7588E-04  0.0703
   2.2645E-02   2.3196E-02   3.3517E-04  0.0735
   2.3196E-02   2.3760E-02   3.7860E-04  0.0683
   2.3760E-02   2.4338E-02   3.6064E-04  0.0691
   2.4338E-02   2.4930E-02   3.9738E-04  0.0651
   2.4930E-02   2.5537E-02   3.2477E-04  0.0712
   2.5537E-02   2.6158E-02   3.3459E-04  0.0693
   2.6158E-02   2.6795E-02   3.2995E-04  0.0688
   2.6795E-02   2.7447E-02   3.4323E-04  0.0667
   2.7447E-02   2.8114E-02   3.0643E-04  0.0698
   2.8114E-02   2.8799E-02   3.1544E-04  0.0680
   2.8799E-02   2.9499E-02   3.4521E-04  0.0641
   2.9499E-02   3.0217E-02   3.5315E-04  0.0627
   3.0217E-02   3.0952E-02   3.1144E-04  0.0660
   3.0952E-02   3.1705E-02   3.1236E-04  0.0650
   3.1705E-02   3.2477E-02   3.1603E-04  0.0639
   3.2477E-02   3.3267E-02   3.1911E-04  0.0629
   3.3267E-02   3.4076E-02   2.6280E-04  0.0685
   3.4076E-02   3.4905E-02   3.1193E-04  0.0621
   3.4905E-02   3.5755E-02   2.7919E-04  0.0648
   3.5755E-02   3.6625E-02   2.7239E-04  0.0649
   3.6625E-02   3.7516E-02   2.6689E-04  0.0648
   3.7516E-02   3.8428E-02   2.7604E-04  0.0629
   3.8428E-02   3.9363E-02   2.6519E-04  0.0634
   3.9363E-02   4.0321E-02   2.6238E-04  0.0630
   4.0321E-02   4.1302E-02   2.5907E-04  0.0626
   4.1302E-02   4.2307E-02   2.4657E-04  0.0634
   4.2307E-02   4.3337E-02   2.6889E-04  0.0601
   4.3337E-02   4.4391E-02   2.3013E-04  0.0641
   4.4391E-02   4.5471E-02   2.1690E-04  0.0652
   4.5471E-02   4.6577E-02   1.9531E-04  0.0678
   4.6577E-02   4.7711E-02   2.2123E-04  0.0631
   4.7711E-02   4.8871E-02   1.9440E-04  0.0664
   4.8871E-02   5.0061E-02   2.1513E-04  0.0625
   5.0061E-02   5.1279E-02   1.8757E-04  0.0661
   5.1279E-02   5.2526E-02   1.8900E-04  0.0650
   5.2526E-02   5.3804E-02   2.0856E-04  0.0611
   5.3804E-02   5.5113E-02   2.0452E-04  0.0610
   5.5113E-02   5.6454E-02   1.8070E-04  0.0642
   5.6454E-02   5.7828E-02   2.1365E-04  0.0582
   5.7828E-02   5.9235E-02   1.8658E-04  0.0616
   5.9235E-02   6.0676E-02   1.6967E-04  0.0638
   6.0676E-02   6.2152E-02   1.7558E-04  0.0620
   6.2152E-02   6.3665E-02   1.6900E-04  0.0624
   6.3665E-02   6.5214E-02   1.7312E-04  0.0609
   6.5214E-02   6.6800E-02   1.9315E-04  0.0570
   6.6800E-02   6.8426E-02   1.7873E-04  0.0586
   6.8426E-02   7.0090E-02   1.6984E-04  0.0594
   7.0090E-02   7.1796E-02   1.6779E-04  0.0590
   7.1796E-02   7.3543E-02   1.4904E-04  0.0619
   7.3543E-02   7.5332E-02   1.4593E-04  0.0618
   7.5332E-02   7.7165E-02   1.6620E-04  0.0571
   7.7165E-02   7.9042E-02   1.5438E-04  0.0586
   7.9042E-02   8.0965E-02   1.5193E-04  0.0584
   8.0965E-02   8.2935E-02   1.4704E-04  0.0587
   8.2935E-02   8.4953E-02   1.3641E-04  0.0602
   8.4953E-02   8.7020E-02   1.3087E-04  0.0608
   8.7020E-02   8.9138E-02   1.4105E-04  0.0578
   8.9138E-02   9.1306E-02   1.3586E-04  0.0582
   9.1306E-02   9.3528E-02   1.2326E-04  0.0603
   9.3528E-02   9.5804E-02   1.2952E-04  0.0581
   9.5804E-02   9.8134E-02   1.2968E-04  0.0575
   9.8134E-02   1.0052E-01   1.2457E-04  0.0579
   1.0052E-01   1.0297E-01   1.2266E-04  0.0576
   1.0297E-01   1.0547E-01   1.1134E-04  0.0598
   1.0547E-01   1.0804E-01   1.0877E-04  0.0598
   1.0804E-01   1.1067E-01   1.1805E-04  0.0566
   1.1067E-01   1.1336E-01   1.0869E-04  0.0583
   1.1336E-01   1.1612E-01   1.1885E-04  0.0551
   1.1612E-01   1.1894E-01   1.1656E-04  0.0551
   1.1894E-01   1.2184E-01   1.0497E-04  0.0572
   1.2184E-01   1.2480E-01   9.7058E-05  0.0588
   1.2480E-01   1.2784E-01   1.0148E-04  0.0569
   1.2784E-01   1.3095E-01   9.6860E-05  0.0575
   1.3095E-01   1.3414E-01   9.4710E-05  0.0575
   1.3414E-01   1.3740E-01   8.8390E-05  0.0587
   1.3740E-01   1.4074E-01   1.0110E-04  0.0543
   1.4074E-01   1.4417E-01   8.7693E-05  0.0576
   1.4417E-01   1.4767E-01   8.3606E-05  0.0584
   1.4767E-01   1.5127E-01   9.0586E-05  0.0553
   1.5127E-01   1.5495E-01   8.2744E-05  0.0572
   1.5495E-01   1.5872E-01   8.2724E-05  0.0565
   1.5872E-01   1.6258E-01   6.8233E-05  0.0615
   1.6258E-01   1.6654E-01   7.5904E-05  0.0576
   1.6654E-01   1.7059E-01   7.5874E-05  0.0570
   1.7059E-01   1.7474E-01   7.9382E-05  0.0550
   1.7474E-01   1.7899E-01   7.1788E-05  0.0572
   1.7899E-01   1.8334E-01   6.7133E-05  0.0584
   1.8334E-01   1.8781E-01   6.7430E-05  0.0576
   1.8781E-01   1.9237E-01   6.8717E-05  0.0564
   1.9237E-01   1.9706E-01   6.1243E-05  0.0590
   1.9706E-01   2.0185E-01   6.4512E-05  0.0568
   2.0185E-01   2.0676E-01   6.5684E-05  0.0556
   2.0676E-01   2.1179E-01   6.3533E-05  0.0558
   2.1179E-01   2.1694E-01   6.4601E-05  0.0547
   2.1694E-01   2.2222E-01   6.5416E-05  0.0538
   2.2222E-01   2.2763E-01   6.9239E-05  0.0516
   2.2763E-01   2.3317E-01   6.6198E-05  0.0521
   2.3317E-01   2.3884E-01   6.7686E-05  0.0510
   2.3884E-01   2.4465E-01   7.7676E-05  0.0470
   2.4465E-01   2.5061E-01   7.7573E-05  0.0465
   2.5061E-01   2.5670E-01   7.5089E-05  0.0467
   2.5670E-01   2.6295E-01   7.8847E-05  0.0450
   2.6295E-01   2.6935E-01   7.7791E-05  0.0448
   2.6935E-01   2.7590E-01   8.4847E-05  0.0423
   2.7590E-01   2.8261E-01   8.2459E-05  0.0424
   2.8261E-01   2.8949E-01   7.9471E-05  0.0427
   2.8949E-01   2.9653E-01   8.3375E-05  0.0412
   2.9653E-01   3.0375E-01   8.2649E-05  0.0409
   3.0375E-01   3.1114E-01   8.0688E-05  0.0409
   3.1114E-01   3.1871E-01   8.4906E-05  0.0394
   3.1871E-01   3.2646E-01   8.5243E-05  0.0388
   3.2646E-01   3.3441E-01   9.1019E-05  0.0371
   3.3441E-01   3.4254E-01   9.0935E-05  0.0367
   3.4254E-01   3.5088E-01   8.6234E-05  0.0372
   3.5088E-01   3.5941E-01   9.4399E-05  0.0352
   3.5941E-01   3.6816E-01   9.6169E-05  0.0344
   3.6816E-01   3.7712E-01   9.1668E-05  0.0348
   3.7712E-01   3.8629E-01   9.1482E-05  0.0345
   3.8629E-01   3.9569E-01   9.0552E-05  0.0342
   3.9569E-01   4.0532E-01   9.2797E-05  0.0334
   4.0532E-01   4.1518E-01   9.2411E-05  0.0331
   4.1518E-01   4.2528E-01   9.7169E-05  0.0318
   4.2528E-01   4.3563E-01   1.0329E-04  0.0305
   4.3563E-01   4.4623E-01   9.5712E-05  0.0313
   4.4623E-01   4.5708E-01   9.6102E-05  0.0309
   4.5708E-01   4.6821E-01   9.5921E-05  0.0305
   4.6821E-01   4.7960E-01   1.0053E-04  0.0295
   4.7960E-01   4.9127E-01   9.3721E-05  0.0302
   4.9127E-01   5.0322E-01   1.0117E-04  0.0287
   5.0322E-01   5.1546E-01   9.5656E-05  0.0291
   5.1546E-01   5.2800E-01   9.4932E-05  0.0289
   5.2800E-01   5.4085E-01   9.5151E-05  0.0285
   5.4085E-01   5.5401E-01   9.7135E-05  0.0279
   5.5401E-01   5.6749E-01   9.6175E-05  0.0277
   5.6749E-01   5.8130E-01   1.0505E-04  0.0262
   5.8130E-01   5.9544E-01   9.9189E-05  0.0266
   5.9544E-01   6.0993E-01   1.0199E-04  0.0260
   6.0993E-01   6.2477E-01   1.0133E-04  0.0257
   6.2477E-01   6.3997E-01   9.8731E-05  0.0258
   6.3997E-01   6.5554E-01   1.0040E-04  0.0252
   6.5554E-01   6.7149E-01   9.5794E-05  0.0255
   6.7149E-01   6.8783E-01   9.3960E-05  0.0255
   6.8783E-01   7.0456E-01   9.7348E-05  0.0247
   7.0456E-01   7.2171E-01   1.0095E-04  0.0240
   7.2171E-01   7.3927E-01   9.9397E-05  0.0239
   7.3927E-01   7.5725E-01   9.2080E-05  0.0245
   7.5725E-01   7.7568E-01   9.4088E-05  0.0240
   7.7568E-01   7.9455E-01   9.2229E-05  0.0239
   7.9455E-01   8.1388E-01   9.1102E-05  0.0238
   8.1388E-01   8.3368E-01   9.1828E-05  0.0234
   8.3368E-01   8.5397E-01   8.8894E-05  0.0235
   8.5397E-01   8.7475E-01   8.6345E-05  0.0235
   8.7475E-01   8.9603E-01   8.5477E-05  0.0234
   8.9603E-01   9.1783E-01   8.4510E-05  0.0232
   9.1783E-01   9.4016E-01   8.2393E-05  0.0232
   9.4016E-01   9.6304E-01   7.7414E-05  0.0237
   9.6304E-01   9.8647E-01   7.3373E-05  0.0240
   9.8647E-01   1.0105E+00   7.3309E-05  0.0238
   1.0105E+00   1.0351E+00   7.1149E-05  0.0238
   1.0351E+00   1.0602E+00   6.7842E-05  0.0241
   1.0602E+00   1.0860E+00   7.0189E-05  0.0234
   1.0860E+00   1.1125E+00   6.6666E-05  0.0237
   1.1125E+00   1.1395E+00   6.5614E-05  0.0236
   1.1395E+00   1.1673E+00   6.3712E-05  0.0237
   1.1673E+00   1.1957E+00   6.3236E-05  0.0235
   1.1957E+00   1.2247E+00   5.8887E-05  0.0241
   1.2247E+00   1.2545E+00   6.0626E-05  0.0234
   1.2545E+00   1.2851E+00   5.7979E-05  0.0237
   1.2851E+00   1.3163E+00   5.6966E-05  0.0236
   1.3163E+00   1.3484E+00   5.6998E-05  0.0233
   1.3484E+00   1.3812E+00   5.4461E-05  0.0236
   1.3812E+00   1.4148E+00   5.3205E-05  0.0236
   1.4148E+00   1.4492E+00   5.3789E-05  0.0231
   1.4492E+00   1.4845E+00   5.2007E-05  0.0232
   1.4845E+00   1.5206E+00   4.9045E-05  0.0237
   1.5206E+00   1.5576E+00   4.9657E-05  0.0232
   1.5576E+00   1.5955E+00   4.9532E-05  0.0230
   1.5955E+00   1.6343E+00   4.5882E-05  0.0236
   1.6343E+00   1.6741E+00   4.4397E-05  0.0237
   1.6741E+00   1.7148E+00   4.3965E-05  0.0235
   1.7148E+00   1.7565E+00   4.2646E-05  0.0236
   1.7565E+00   1.7992E+00   4.1768E-05  0.0235
   1.7992E+00   1.8430E+00   3.9642E-05  0.0239
   1.8430E+00   1.8879E+00   3.9292E-05  0.0237
   1.8879E+00   1.9338E+00   3.6081E-05  0.0244
   1.9338E+00   1.9808E+00   3.6357E-05  0.0240
   1.9808E+00   2.0290E+00   3.7014E-05  0.0235
   2.0290E+00   2.0784E+00   3.4481E-05  0.0241
   2.0784E+00   2.1290E+00   3.5194E-05  0.0236
   2.1290E+00   2.1808E+00   3.2163E-05  0.0244
   2.1808E+00   2.2338E+00   3.2448E-05  0.0239
   2.2338E+00   2.2882E+00   3.3111E-05  0.0234
   2.2882E+00   2.3439E+00   3.0843E-05  0.0240
   2.3439E+00   2.4009E+00   3.1558E-05  0.0234
   2.4009E+00   2.4593E+00   3.1118E-05  0.0233
   2.4593E+00   2.5191E+00   2.9344E-05  0.0237
   2.5191E+00   2.5804E+00   2.9544E-05  0.0234
   2.5804E+00   2.6432E+00   2.7703E-05  0.0238
   2.6432E+00   2.7075E+00   2.7256E-05  0.0237
   2.7075E+00   2.7734E+00   2.6108E-05  0.0240
   2.7734E+00   2.8409E+00   2.5570E-05  0.0239
   2.8409E+00   2.9100E+00   2.6286E-05  0.0233
   2.9100E+00   2.9808E+00   2.4311E-05  0.0240
   2.9808E+00   3.0533E+00   2.4395E-05  0.0236
   3.0533E+00   3.1276E+00   2.4168E-05  0.0235
   3.1276E+00   3.2037E+00   2.3390E-05  0.0236
   3.2037E+00   3.2817E+00   2.3195E-05  0.0234
   3.2817E+00   3.3615E+00   2.1792E-05  0.0239
   3.3615E+00   3.4433E+00   2.1932E-05  0.0235
   3.4433E+00   3.5271E+00   2.1575E-05  0.0234
   3.5271E+00   3.6129E+00   2.0092E-05  0.0240
   3.6129E+00   3.7008E+00   2.0580E-05  0.0234
   3.7008E+00   3.7908E+00   1.9733E-05  0.0236
   3.7908E+00   3.8831E+00   1.7900E-05  0.0245
   3.8831E+00   3.9776E+00   1.8467E-05  0.0238
   3.9776E+00   4.0743E+00   1.8111E-05  0.0238
   4.0743E+00   4.1735E+00   1.8559E-05  0.0232
   4.1735E+00   4.2750E+00   1.7083E-05  0.0239
   4.2750E+00   4.3790E+00   1.6967E-05  0.0237
   4.3790E+00   4.4856E+00   1.6497E-05  0.0237
   4.4856E+00   4.5947E+00   1.5364E-05  0.0243
   4.5947E+00   4.7065E+00   1.5405E-05  0.0240
   4.7065E+00   4.8210E+00   1.4481E-05  0.0245
   4.8210E+00   4.9383E+00   1.4355E-05  0.0243
   4.9383E+00   5.0585E+00   1.3407E-05  0.0248
   5.0585E+00   5.1815E+00   1.2895E-05  0.0250
   5.1815E+00   5.3076E+00   1.2033E-05  0.0256
   5.3076E+00   5.4368E+00   1.2019E-05  0.0253
   5.4368E+00   5.5690E+00   1.1171E-05  0.0259
   5.5690E+00   5.7045E+00   1.1328E-05  0.0255
   5.7045E+00   5.8433E+00   1.0398E-05  0.0262
   5.8433E+00   5.9855E+00   1.0002E-05  0.0264
   5.9855E+00   6.1311E+00   9.7584E-06  0.0264
   6.1311E+00   6.2803E+00   9.6338E-06  0.0263
   6.2803E+00   6.4331E+00   8.8665E-06  0.0271
   6.4331E+00   6.5896E+00   8.5983E-06  0.0272
   6.5896E+00   6.7500E+00   7.9440E-06  0.0280
   6.7500E+00   6.9142E+00   7.2396E-06  0.0289
   6.9142E+00   7.0824E+00   7.1984E-06  0.0286
   7.0824E+00   7.2548E+00   6.5929E-06  0.0296
   7.2548E+00   7.4313E+00   6.2823E-06  0.0300
   7.4313E+00   7.6121E+00   5.9321E-06  0.0304
   7.6121E+00   7.7973E+00   5.3401E-06  0.0317
   7.7973E+00   7.9870E+00   5.7127E-06  0.0303
   7.9870E+00   8.1813E+00   5.0665E-06  0.0318
   8.1813E+00   8.3804E+00   4.8879E-06  0.0320
   8.3804E+00   8.5843E+00   4.5397E-06  0.0328
   8.5843E+00   8.7931E+00   4.2637E-06  0.0334
   8.7931E+00   9.0071E+00   4.0504E-06  0.0339
   9.0071E+00   9.2262E+00   3.8294E-06  0.0345
   9.2262E+00   9.4507E+00   3.9055E-06  0.0337
   9.4507E+00   9.6807E+00   3.3108E-06  0.0362
   9.6807E+00   9.9162E+00   3.3182E-06  0.0357
   9.9162E+00   1.0157E+01   2.9055E-06  0.0377
   1.0157E+01   1.0405E+01   2.8718E-06  0.0375
   1.0405E+01   1.0658E+01   2.7618E-06  0.0377
   1.0658E+01   1.0917E+01   2.6353E-06  0.0382
   1.0917E+01   1.1183E+01   2.5463E-06  0.0384
   1.1183E+01   1.1455E+01   2.3321E-06  0.0396
   1.1455E+01   1.1733E+01   2.2630E-06  0.0398
   1.1733E+01   1.2019E+01   2.1146E-06  0.0406
   1.2019E+01   1.2311E+01   1.9484E-06  0.0418
   1.2311E+01   1.2611E+01   1.8004E-06  0.0430
   1.2611E+01   1.2918E+01   1.6224E-06  0.0448
   1.2918E+01   1.3232E+01   1.6709E-06  0.0436
   1.3232E+01   1.3554E+01   1.4594E-06  0.0461
   1.3554E+01   1.3884E+01   1.3917E-06  0.0466
   1.3884E+01   1.4222E+01   1.2393E-06  0.0489
   1.4222E+01   1.4568E+01   1.0828E-06  0.0516
   1.4568E+01   1.4922E+01   1.1082E-06  0.0504
   1.4922E+01   1.5285E+01   9.9293E-07  0.0526
   1.5285E+01   1.5657E+01   8.6582E-07  0.0557
   1.5657E+01   1.6038E+01   7.8048E-07  0.0580
   1.6038E+01   1.6428E+01   6.9015E-07  0.0609
   1.6428E+01   1.6828E+01   6.3830E-07  0.0626
   1.6828E+01   1.7237E+01   5.5358E-07  0.0664
   1.7237E+01   1.7657E+01   5.4840E-07  0.0659
   1.7657E+01   1.8086E+01   4.2365E-07  0.0741
   1.8086E+01   1.8526E+01   3.9540E-07  0.0758
   1.8526E+01   1.8977E+01   4.1523E-07  0.0731
   1.8977E+01   1.9439E+01   3.8334E-07  0.0752
   1.9439E+01   1.9912E+01   3.8904E-07  0.0737
   1.9912E+01   2.0396E+01   2.6421E-07  0.0884
   2.0396E+01   2.0893E+01   2.1360E-07  0.0971
   2.0893E+01   2.1401E+01   1.9869E-07  0.0995
   2.1401E+01   2.1922E+01   1.8629E-07  0.1015
   2.1922E+01   2.2455E+01   1.4999E-07  0.1118
   2.2455E+01   2.3001E+01   1.6107E-07  0.1066
   2.3001E+01   2.3561E+01   1.4831E-07  0.1098
   2.3561E+01   2.4134E+01   1.1688E-07  0.1222
   2.4134E+01   2.4721E+01   8.1743E-08  0.1443
   2.4721E+01   2.5323E+01   8.4789E-08  0.1400
   2.5323E+01   2.5939E+01   9.0890E-08  0.1336
   2.5939E+01   2.6570E+01   8.3978E-08  0.1374
   2.6570E+01   2.7217E+01   6.4968E-08  0.1543
   2.7217E+01   2.7879E+01   4.0773E-08  0.1925
   2.7879E+01   2.8557E+01   3.5382E-08  0.2041
   2.8557E+01   2.9252E+01   3.7420E-08  0.1961
   2.9252E+01   2.9964E+01   2.5291E-08  0.2357
   2.9964E+01   3.0693E+01   1.5088E-08  0.3015
   3.0693E+01   3.1440E+01   2.2764E-08  0.2425
   3.1440E+01   3.2205E+01   2.6146E-08  0.2236
   3.2205E+01   3.2988E+01   2.4248E-08  0.2294
   3.2988E+01   3.3791E+01   2.1180E-08  0.2425
   3.3791E+01   3.4613E+01   6.0816E-09  0.4472
   3.4613E+01   3.5455E+01   9.4994E-09  0.3536
   3.5455E+01   3.6318E+01   6.9553E-09  0.4082
   3.6318E+01   3.7201E+01   9.0535E-09  0.3536
   3.7201E+01   3.8106E+01   8.8384E-09  0.3536
   3.8106E+01   3.9034E+01   6.4714E-09  0.4082
   3.9034E+01   3.9983E+01   4.2118E-09  0.5000
   3.9983E+01   4.0956E+01   4.1117E-09  0.5000
   4.0956E+01   4.1953E+01   6.0211E-09  0.4082
   4.1953E+01   4.2973E+01   5.8781E-09  0.4082
   4.2973E+01   4.4019E+01   1.9128E-09  0.7071
   4.4019E+01   4.5090E+01   2.8011E-09  0.5774
   4.5090E+01   4.6187E+01   9.1152E-10  1.0000
   4.6187E+01   4.7311E+01   8.8986E-10  1.0000
   4.7311E+01   4.8462E+01   8.6873E-10  1.0000
   4.8462E+01   4.9641E+01   8.4809E-10  1.0000
   4.9641E+01   5.0849E+01   8.2795E-10  1.0000
   5.0849E+01   5.2086E+01   8.0828E-10  1.0000
   5.2086E+01   5.3353E+01   0.0000E+00  0.0000
   5.3353E+01   5.4651E+01   0.0000E+00  0.0000
   5.4651E+01   5.5981E+01   0.0000E+00  0.0000
   5.5981E+01   5.7343E+01   0.0000E+00  0.0000
   5.7343E+01   5.8738E+01   0.0000E+00  0.0000
   5.8738E+01   6.0168E+01   0.0000E+00  0.0000
   6.0168E+01   6.1632E+01   0.0000E+00  0.0000
   6.1632E+01   6.3131E+01   0.0000E+00  0.0000
   6.3131E+01   6.4667E+01   0.0000E+00  0.0000
   6.4667E+01   6.6240E+01   0.0000E+00  0.0000
   6.6240E+01   6.7852E+01   0.0000E+00  0.0000
   6.7852E+01   6.9503E+01   0.0000E+00  0.0000
   6.9503E+01   7.1194E+01   0.0000E+00  0.0000
   7.1194E+01   7.2926E+01   0.0000E+00  0.0000
   7.2926E+01   7.4701E+01   0.0000E+00  0.0000
   7.4701E+01   7.6518E+01   0.0000E+00  0.0000
   7.6518E+01   7.8380E+01   0.0000E+00  0.0000
   7.8380E+01   8.0287E+01   0.0000E+00  0.0000
   8.0287E+01   8.2240E+01   0.0000E+00  0.0000
   8.2240E+01   8.4241E+01   0.0000E+00  0.0000
   8.4241E+01   8.6291E+01   0.0000E+00  0.0000
   8.6291E+01   8.8391E+01   0.0000E+00  0.0000
   8.8391E+01   9.0541E+01   0.0000E+00  0.0000
   9.0541E+01   9.2744E+01   0.0000E+00  0.0000
   9.2744E+01   9.5001E+01   0.0000E+00  0.0000
   9.5001E+01   9.7312E+01   0.0000E+00  0.0000
   9.7312E+01   9.9680E+01   0.0000E+00  0.0000
   9.9680E+01   1.0211E+02   0.0000E+00  0.0000
   1.0211E+02   1.0459E+02   0.0000E+00  0.0000
   1.0459E+02   1.0713E+02   0.0000E+00  0.0000
   1.0713E+02   1.0974E+02   0.0000E+00  0.0000
   1.0974E+02   1.1241E+02   0.0000E+00  0.0000
   1.1241E+02   1.1515E+02   0.0000E+00  0.0000
   1.1515E+02   1.1795E+02   0.0000E+00  0.0000
   1.1795E+02   1.2082E+02   0.0000E+00  0.0000
   1.2082E+02   1.2376E+02   0.0000E+00  0.0000
   1.2376E+02   1.2677E+02   0.0000E+00  0.0000
   1.2677E+02   1.2985E+02   0.0000E+00  0.0000
   1.2985E+02   1.3301E+02   0.0000E+00  0.0000
   1.3301E+02   1.3625E+02   0.0000E+00  0.0000
   1.3625E+02   1.3956E+02   0.0000E+00  0.0000
   1.3956E+02   1.4296E+02   0.0000E+00  0.0000
   1.4296E+02   1.4644E+02   0.0000E+00  0.0000
   1.4644E+02   1.5000E+02   0.0000E+00  0.0000

#   sum over                 1.7853E-06
'no. =    1   reg = 125 - 225'
msuc: {\huge [t-cross] in region mesh}
msdr: {\it plotted by \ANGEL \version}
msdl: {\it calculated by \PHITS  3.26}
wt: s(0.7)
\vspace{-3}
  region surface crossing
  area  &=&   1.0000E+00 [cm^2]
e:
 
# Information for Restart Calculation
# This calculation was newly started
# istdev =  2 # 1:Batch variance, 2:History variance
# resc2  = 1.00000000000000000E+09 # Total source weight or Total source weight / maxcas
# resc3  = 1.00000000000000000E+09 # Total history number or Total batch number
# maxcas =   500000000 # History / Batch, only used for istdev=1
# bitrseed = 0001001110011001001001110000100100110111001111011100001000101100 # bit data of rseed
