[ T-Cross ]
    title = [t-cross] in region mesh
     mesh =  reg            # mesh type is region-wise
      reg =    1            # number of crossing regions
      non     r-from    r-to       area
      1       110       210        1.000000    
   e-type =    3            # e-mesh is log given by emin, emax and ne
     emin =  1.0000000E-02  # minimum value of e-mesh points
     emax =   150.0000      # maximum value of e-mesh points
#    edel =  2.4039514E-02  # mesh width of e-mesh points
       ne =    400          # number of e-mesh points
#    data = ( e(i), i = 1, ne + 1 )
#           1.00000E-02  1.02433E-02  1.04925E-02  1.07478E-02  1.10093E-02
#           1.12772E-02  1.15516E-02  1.18326E-02  1.21205E-02  1.24154E-02
#           1.27175E-02  1.30269E-02  1.33439E-02  1.36686E-02  1.40011E-02
#           1.43418E-02  1.46907E-02  1.50482E-02  1.54143E-02  1.57894E-02
#           1.61735E-02  1.65670E-02  1.69701E-02  1.73830E-02  1.78060E-02
#           1.82392E-02  1.86830E-02  1.91375E-02  1.96032E-02  2.00801E-02
#           2.05687E-02  2.10692E-02  2.15818E-02  2.21069E-02  2.26448E-02
#           2.31957E-02  2.37601E-02  2.43382E-02  2.49304E-02  2.55369E-02
#           2.61583E-02  2.67947E-02  2.74467E-02  2.81145E-02  2.87985E-02
#           2.94992E-02  3.02169E-02  3.09521E-02  3.17052E-02  3.24766E-02
#           3.32668E-02  3.40762E-02  3.49053E-02  3.57546E-02  3.66246E-02
#           3.75157E-02  3.84284E-02  3.93634E-02  4.03212E-02  4.13022E-02
#           4.23071E-02  4.33365E-02  4.43909E-02  4.54710E-02  4.65773E-02
#           4.77106E-02  4.88714E-02  5.00605E-02  5.12785E-02  5.25262E-02
#           5.38042E-02  5.51133E-02  5.64542E-02  5.78278E-02  5.92348E-02
#           6.06760E-02  6.21523E-02  6.36645E-02  6.52135E-02  6.68002E-02
#           6.84255E-02  7.00904E-02  7.17957E-02  7.35426E-02  7.53319E-02
#           7.71648E-02  7.90423E-02  8.09655E-02  8.29354E-02  8.49533E-02
#           8.70203E-02  8.91376E-02  9.13064E-02  9.35279E-02  9.58035E-02
#           9.81345E-02  1.00522E-01  1.02968E-01  1.05473E-01  1.08040E-01
#           1.10668E-01  1.13361E-01  1.16119E-01  1.18944E-01  1.21838E-01
#           1.24803E-01  1.27839E-01  1.30950E-01  1.34136E-01  1.37399E-01
#           1.40742E-01  1.44167E-01  1.47675E-01  1.51268E-01  1.54948E-01
#           1.58718E-01  1.62580E-01  1.66535E-01  1.70587E-01  1.74738E-01
#           1.78989E-01  1.83344E-01  1.87805E-01  1.92375E-01  1.97055E-01
#           2.01850E-01  2.06761E-01  2.11792E-01  2.16945E-01  2.22223E-01
#           2.27630E-01  2.33169E-01  2.38842E-01  2.44653E-01  2.50605E-01
#           2.56703E-01  2.62949E-01  2.69346E-01  2.75900E-01  2.82613E-01
#           2.89489E-01  2.96532E-01  3.03747E-01  3.11138E-01  3.18708E-01
#           3.26462E-01  3.34405E-01  3.42542E-01  3.50876E-01  3.59413E-01
#           3.68158E-01  3.77116E-01  3.86291E-01  3.95690E-01  4.05317E-01
#           4.15179E-01  4.25281E-01  4.35628E-01  4.46227E-01  4.57084E-01
#           4.68205E-01  4.79597E-01  4.91266E-01  5.03219E-01  5.15463E-01
#           5.28005E-01  5.40851E-01  5.54011E-01  5.67490E-01  5.81298E-01
#           5.95441E-01  6.09929E-01  6.24769E-01  6.39970E-01  6.55541E-01
#           6.71491E-01  6.87828E-01  7.04564E-01  7.21706E-01  7.39266E-01
#           7.57253E-01  7.75678E-01  7.94551E-01  8.13883E-01  8.33685E-01
#           8.53969E-01  8.74747E-01  8.96030E-01  9.17831E-01  9.40163E-01
#           9.63038E-01  9.86469E-01  1.01047E+00  1.03506E+00  1.06024E+00
#           1.08604E+00  1.11246E+00  1.13953E+00  1.16725E+00  1.19565E+00
#           1.22474E+00  1.25454E+00  1.28507E+00  1.31633E+00  1.34836E+00
#           1.38117E+00  1.41477E+00  1.44920E+00  1.48446E+00  1.52057E+00
#           1.55757E+00  1.59547E+00  1.63429E+00  1.67405E+00  1.71478E+00
#           1.75650E+00  1.79924E+00  1.84302E+00  1.88786E+00  1.93379E+00
#           1.98084E+00  2.02904E+00  2.07841E+00  2.12898E+00  2.18078E+00
#           2.23384E+00  2.28819E+00  2.34386E+00  2.40089E+00  2.45930E+00
#           2.51914E+00  2.58043E+00  2.64322E+00  2.70753E+00  2.77341E+00
#           2.84088E+00  2.91001E+00  2.98081E+00  3.05333E+00  3.12762E+00
#           3.20372E+00  3.28167E+00  3.36152E+00  3.44330E+00  3.52708E+00
#           3.61290E+00  3.70080E+00  3.79085E+00  3.88308E+00  3.97756E+00
#           4.07434E+00  4.17347E+00  4.27501E+00  4.37903E+00  4.48557E+00
#           4.59471E+00  4.70650E+00  4.82102E+00  4.93832E+00  5.05847E+00
#           5.18155E+00  5.30762E+00  5.43676E+00  5.56904E+00  5.70453E+00
#           5.84333E+00  5.98550E+00  6.13114E+00  6.28031E+00  6.43312E+00
#           6.58964E+00  6.74997E+00  6.91420E+00  7.08243E+00  7.25475E+00
#           7.43126E+00  7.61207E+00  7.79728E+00  7.98700E+00  8.18133E+00
#           8.38038E+00  8.58428E+00  8.79315E+00  9.00709E+00  9.22624E+00
#           9.45072E+00  9.68067E+00  9.91620E+00  1.01575E+01  1.04046E+01
#           1.06578E+01  1.09171E+01  1.11827E+01  1.14548E+01  1.17335E+01
#           1.20190E+01  1.23114E+01  1.26109E+01  1.29178E+01  1.32321E+01
#           1.35540E+01  1.38838E+01  1.42216E+01  1.45676E+01  1.49221E+01
#           1.52851E+01  1.56570E+01  1.60380E+01  1.64282E+01  1.68279E+01
#           1.72374E+01  1.76568E+01  1.80864E+01  1.85264E+01  1.89772E+01
#           1.94389E+01  1.99119E+01  2.03963E+01  2.08926E+01  2.14009E+01
#           2.19216E+01  2.24550E+01  2.30014E+01  2.35610E+01  2.41343E+01
#           2.47215E+01  2.53230E+01  2.59391E+01  2.65702E+01  2.72167E+01
#           2.78789E+01  2.85572E+01  2.92520E+01  2.99637E+01  3.06928E+01
#           3.14396E+01  3.22045E+01  3.29881E+01  3.37907E+01  3.46128E+01
#           3.54550E+01  3.63177E+01  3.72013E+01  3.81064E+01  3.90336E+01
#           3.99833E+01  4.09561E+01  4.19526E+01  4.29734E+01  4.40189E+01
#           4.50900E+01  4.61870E+01  4.73108E+01  4.84619E+01  4.96410E+01
#           5.08488E+01  5.20860E+01  5.33533E+01  5.46514E+01  5.59812E+01
#           5.73432E+01  5.87384E+01  6.01676E+01  6.16315E+01  6.31311E+01
#           6.46671E+01  6.62405E+01  6.78522E+01  6.95031E+01  7.11941E+01
#           7.29263E+01  7.47007E+01  7.65182E+01  7.83800E+01  8.02870E+01
#           8.22405E+01  8.42414E+01  8.62911E+01  8.83906E+01  9.05412E+01
#           9.27442E+01  9.50007E+01  9.73122E+01  9.96799E+01  1.02105E+02
#           1.04589E+02  1.07134E+02  1.09741E+02  1.12411E+02  1.15146E+02
#           1.17948E+02  1.20817E+02  1.23757E+02  1.26768E+02  1.29852E+02
#           1.33012E+02  1.36248E+02  1.39563E+02  1.42959E+02  1.46437E+02
#           1.50000E+02
     unit =    2            # unit is [1/cm^2/(MeV/n)/source]
     axis =  eng            # axis of output
     file = detector-11.out  # file name of output for the above axis
   output = f-curr          # surface crossing forward current spectrum
     part =  neutron  
# kf/name :  2112     
#    used :        main (  %)        temp (  %)       total (  %)
#  memory :         414 (  0)           0 (  0)         414 (  0)

#------------------------------------------------------------------------------
#newpage:
#   no. =    1   reg = 110 - 210

x: Energy [MeV/n]
y:  F-Curr [1/cm^2/(MeV/n)/source]         
p: xlog ylog afac(0.8) form(0.9)
h: n            x            y(neutron ),hh0l   n 
#  e-lower      e-upper      neutron     r.err 
   1.0000E-02   1.0243E-02   5.7859E-04  0.0688
   1.0243E-02   1.0493E-02   5.1399E-04  0.0721
   1.0493E-02   1.0748E-02   5.5100E-04  0.0688
   1.0748E-02   1.1009E-02   5.0006E-04  0.0714
   1.1009E-02   1.1277E-02   5.0354E-04  0.0703
   1.1277E-02   1.1552E-02   5.7627E-04  0.0649
   1.1552E-02   1.1833E-02   5.6964E-04  0.0644
   1.1833E-02   1.2121E-02   5.4224E-04  0.0653
   1.2121E-02   1.2415E-02   5.0595E-04  0.0668
   1.2415E-02   1.2718E-02   4.9100E-04  0.0670
   1.2718E-02   1.3027E-02   5.5514E-04  0.0623
   1.3027E-02   1.3344E-02   4.8482E-04  0.0658
   1.3344E-02   1.3669E-02   4.8049E-04  0.0654
   1.3669E-02   1.4001E-02   4.7910E-04  0.0647
   1.4001E-02   1.4342E-02   5.3094E-04  0.0607
   1.4342E-02   1.4691E-02   4.7984E-04  0.0631
   1.4691E-02   1.5048E-02   4.4977E-04  0.0643
   1.5048E-02   1.5414E-02   4.9917E-04  0.0604
   1.5414E-02   1.5789E-02   4.7854E-04  0.0609
   1.5789E-02   1.6174E-02   4.8791E-04  0.0596
   1.6174E-02   1.6567E-02   5.2857E-04  0.0566
   1.6567E-02   1.6970E-02   5.0857E-04  0.0570
   1.6970E-02   1.7383E-02   5.0489E-04  0.0565
   1.7383E-02   1.7806E-02   5.1408E-04  0.0554
   1.7806E-02   1.8239E-02   5.0012E-04  0.0555
   1.8239E-02   1.8683E-02   5.5165E-04  0.0522
   1.8683E-02   1.9138E-02   5.0081E-04  0.0541
   1.9138E-02   1.9603E-02   4.7559E-04  0.0549
   1.9603E-02   2.0080E-02   4.7383E-04  0.0543
   2.0080E-02   2.0569E-02   5.1334E-04  0.0515
   2.0569E-02   2.1069E-02   5.1381E-04  0.0509
   2.1069E-02   2.1582E-02   4.8937E-04  0.0515
   2.1582E-02   2.2107E-02   5.2073E-04  0.0494
   2.2107E-02   2.2645E-02   5.2206E-04  0.0487
   2.2645E-02   2.3196E-02   4.9334E-04  0.0495
   2.3196E-02   2.3760E-02   5.2370E-04  0.0475
   2.3760E-02   2.4338E-02   4.7644E-04  0.0492
   2.4338E-02   2.4930E-02   4.6642E-04  0.0491
   2.4930E-02   2.5537E-02   4.7519E-04  0.0481
   2.5537E-02   2.6158E-02   5.1218E-04  0.0457
   2.6158E-02   2.6795E-02   5.4020E-04  0.0440
   2.6795E-02   2.7447E-02   4.6086E-04  0.0471
   2.7447E-02   2.8114E-02   4.9247E-04  0.0450
   2.8114E-02   2.8799E-02   4.9408E-04  0.0444
   2.8799E-02   2.9499E-02   4.7971E-04  0.0445
   2.9499E-02   3.0217E-02   4.5264E-04  0.0453
   3.0217E-02   3.0952E-02   5.0284E-04  0.0424
   3.0952E-02   3.1705E-02   5.4263E-04  0.0403
   3.1705E-02   3.2477E-02   4.7850E-04  0.0425
   3.2477E-02   3.3267E-02   5.1237E-04  0.0406
   3.3267E-02   3.4076E-02   4.7289E-04  0.0417
   3.4076E-02   3.4905E-02   4.5686E-04  0.0419
   3.4905E-02   3.5755E-02   4.5856E-04  0.0413
   3.5755E-02   3.6625E-02   4.9098E-04  0.0395
   3.6625E-02   3.7516E-02   4.8127E-04  0.0394
   3.7516E-02   3.8428E-02   4.8178E-04  0.0389
   3.8428E-02   3.9363E-02   4.4524E-04  0.0400
   3.9363E-02   4.0321E-02   4.7721E-04  0.0382
   4.0321E-02   4.1302E-02   4.6448E-04  0.0382
   4.1302E-02   4.2307E-02   4.6836E-04  0.0376
   4.2307E-02   4.3337E-02   4.3243E-04  0.0387
   4.3337E-02   4.4391E-02   4.6680E-04  0.0368
   4.4391E-02   4.5471E-02   4.4905E-04  0.0371
   4.5471E-02   4.6577E-02   4.1921E-04  0.0379
   4.6577E-02   4.7711E-02   4.4359E-04  0.0364
   4.7711E-02   4.8871E-02   4.6615E-04  0.0351
   4.8871E-02   5.0061E-02   4.3272E-04  0.0360
   5.0061E-02   5.1279E-02   4.4648E-04  0.0350
   5.1279E-02   5.2526E-02   4.5357E-04  0.0343
   5.2526E-02   5.3804E-02   4.4209E-04  0.0343
   5.3804E-02   5.5113E-02   4.0132E-04  0.0356
   5.5113E-02   5.6454E-02   4.2197E-04  0.0343
   5.6454E-02   5.7828E-02   4.2372E-04  0.0338
   5.7828E-02   5.9235E-02   4.3196E-04  0.0331
   5.9235E-02   6.0676E-02   3.9632E-04  0.0341
   6.0676E-02   6.2152E-02   4.1061E-04  0.0331
   6.2152E-02   6.3665E-02   4.5609E-04  0.0311
   6.3665E-02   6.5214E-02   4.3881E-04  0.0313
   6.5214E-02   6.6800E-02   3.9488E-04  0.0326
   6.6800E-02   6.8426E-02   4.0284E-04  0.0319
   6.8426E-02   7.0090E-02   4.4800E-04  0.0299
   7.0090E-02   7.1796E-02   4.0521E-04  0.0310
   7.1796E-02   7.3543E-02   4.0382E-04  0.0307
   7.3543E-02   7.5332E-02   4.0303E-04  0.0304
   7.5332E-02   7.7165E-02   3.9016E-04  0.0305
   7.7165E-02   7.9042E-02   3.9999E-04  0.0298
   7.9042E-02   8.0965E-02   4.2165E-04  0.0286
   8.0965E-02   8.2935E-02   3.9075E-04  0.0294
   8.2935E-02   8.4953E-02   3.8807E-04  0.0292
   8.4953E-02   8.7020E-02   3.7725E-04  0.0292
   8.7020E-02   8.9138E-02   3.7669E-04  0.0289
   8.9138E-02   9.1306E-02   3.7196E-04  0.0287
   9.1306E-02   9.3528E-02   3.7953E-04  0.0281
   9.3528E-02   9.5804E-02   3.6941E-04  0.0281
   9.5804E-02   9.8134E-02   3.6659E-04  0.0279
   9.8134E-02   1.0052E-01   3.5719E-04  0.0279
   1.0052E-01   1.0297E-01   3.6412E-04  0.0273
   1.0297E-01   1.0547E-01   3.6748E-04  0.0269
   1.0547E-01   1.0804E-01   3.4988E-04  0.0272
   1.0804E-01   1.1067E-01   3.6053E-04  0.0265
   1.1067E-01   1.1336E-01   3.4573E-04  0.0267
   1.1336E-01   1.1612E-01   3.1967E-04  0.0275
   1.1612E-01   1.1894E-01   3.2015E-04  0.0271
   1.1894E-01   1.2184E-01   3.2636E-04  0.0266
   1.2184E-01   1.2480E-01   3.2259E-04  0.0264
   1.2480E-01   1.2784E-01   3.1772E-04  0.0263
   1.2784E-01   1.3095E-01   3.1137E-04  0.0262
   1.3095E-01   1.3414E-01   3.2146E-04  0.0255
   1.3414E-01   1.3740E-01   3.1910E-04  0.0253
   1.3740E-01   1.4074E-01   3.0042E-04  0.0258
   1.4074E-01   1.4417E-01   2.9696E-04  0.0256
   1.4417E-01   1.4767E-01   2.8483E-04  0.0258
   1.4767E-01   1.5127E-01   2.8867E-04  0.0253
   1.5127E-01   1.5495E-01   2.9358E-04  0.0248
   1.5495E-01   1.5872E-01   2.6433E-04  0.0258
   1.5872E-01   1.6258E-01   2.8770E-04  0.0245
   1.6258E-01   1.6654E-01   2.6488E-04  0.0252
   1.6654E-01   1.7059E-01   2.5114E-04  0.0256
   1.7059E-01   1.7474E-01   2.5863E-04  0.0249
   1.7474E-01   1.7899E-01   2.5496E-04  0.0248
   1.7899E-01   1.8334E-01   2.5530E-04  0.0245
   1.8334E-01   1.8781E-01   2.3254E-04  0.0253
   1.8781E-01   1.9237E-01   2.3726E-04  0.0248
   1.9237E-01   1.9706E-01   2.3391E-04  0.0247
   1.9706E-01   2.0185E-01   2.3433E-04  0.0243
   2.0185E-01   2.0676E-01   2.3394E-04  0.0241
   2.0676E-01   2.1179E-01   2.2086E-04  0.0245
   2.1179E-01   2.1694E-01   2.3940E-04  0.0232
   2.1694E-01   2.2222E-01   2.3243E-04  0.0233
   2.2222E-01   2.2763E-01   2.4301E-04  0.0225
   2.2763E-01   2.3317E-01   2.4943E-04  0.0220
   2.3317E-01   2.3884E-01   2.6460E-04  0.0211
   2.3884E-01   2.4465E-01   2.6289E-04  0.0209
   2.4465E-01   2.5061E-01   2.6787E-04  0.0204
   2.5061E-01   2.5670E-01   2.6204E-04  0.0204
   2.5670E-01   2.6295E-01   2.7838E-04  0.0196
   2.6295E-01   2.6935E-01   2.6992E-04  0.0196
   2.6935E-01   2.7590E-01   2.8248E-04  0.0190
   2.7590E-01   2.8261E-01   2.9229E-04  0.0184
   2.8261E-01   2.8949E-01   2.9568E-04  0.0181
   2.8949E-01   2.9653E-01   3.0056E-04  0.0177
   2.9653E-01   3.0375E-01   3.0188E-04  0.0175
   3.0375E-01   3.1114E-01   3.0699E-04  0.0171
   3.1114E-01   3.1871E-01   3.0991E-04  0.0168
   3.1871E-01   3.2646E-01   3.0391E-04  0.0168
   3.2646E-01   3.3441E-01   3.2226E-04  0.0161
   3.3441E-01   3.4254E-01   3.3986E-04  0.0155
   3.4254E-01   3.5088E-01   3.3249E-04  0.0155
   3.5088E-01   3.5941E-01   3.3568E-04  0.0152
   3.5941E-01   3.6816E-01   3.4010E-04  0.0150
   3.6816E-01   3.7712E-01   3.4649E-04  0.0146
   3.7712E-01   3.8629E-01   3.4444E-04  0.0145
   3.8629E-01   3.9569E-01   3.5123E-04  0.0142
   3.9569E-01   4.0532E-01   3.4860E-04  0.0141
   4.0532E-01   4.1518E-01   3.5919E-04  0.0137
   4.1518E-01   4.2528E-01   3.5737E-04  0.0136
   4.2528E-01   4.3563E-01   3.6119E-04  0.0133
   4.3563E-01   4.4623E-01   3.5825E-04  0.0132
   4.4623E-01   4.5708E-01   3.7805E-04  0.0127
   4.5708E-01   4.6821E-01   3.7423E-04  0.0126
   4.6821E-01   4.7960E-01   3.7140E-04  0.0125
   4.7960E-01   4.9127E-01   3.7947E-04  0.0123
   4.9127E-01   5.0322E-01   3.8425E-04  0.0120
   5.0322E-01   5.1546E-01   3.9423E-04  0.0117
   5.1546E-01   5.2800E-01   3.9224E-04  0.0116
   5.2800E-01   5.4085E-01   3.9287E-04  0.0115
   5.4085E-01   5.5401E-01   3.9396E-04  0.0113
   5.5401E-01   5.6749E-01   3.9885E-04  0.0111
   5.6749E-01   5.8130E-01   4.0340E-04  0.0109
   5.8130E-01   5.9544E-01   4.1308E-04  0.0107
   5.9544E-01   6.0993E-01   4.0745E-04  0.0106
   6.0993E-01   6.2477E-01   4.1913E-04  0.0103
   6.2477E-01   6.3997E-01   4.2953E-04  0.0101
   6.3997E-01   6.5554E-01   4.1944E-04  0.0101
   6.5554E-01   6.7149E-01   4.2220E-04  0.0099
   6.7149E-01   6.8783E-01   4.3220E-04  0.0097
   6.8783E-01   7.0456E-01   4.2939E-04  0.0096
   7.0456E-01   7.2171E-01   4.2793E-04  0.0095
   7.2171E-01   7.3927E-01   4.3099E-04  0.0094
   7.3927E-01   7.5725E-01   4.3635E-04  0.0092
   7.5725E-01   7.7568E-01   4.3614E-04  0.0091
   7.7568E-01   7.9455E-01   4.3826E-04  0.0090
   7.9455E-01   8.1388E-01   4.3669E-04  0.0089
   8.1388E-01   8.3368E-01   4.4231E-04  0.0087
   8.3368E-01   8.5397E-01   4.4037E-04  0.0086
   8.5397E-01   8.7475E-01   4.3360E-04  0.0086
   8.7475E-01   8.9603E-01   4.3478E-04  0.0085
   8.9603E-01   9.1783E-01   4.3607E-04  0.0084
   9.1783E-01   9.4016E-01   4.3125E-04  0.0083
   9.4016E-01   9.6304E-01   4.2421E-04  0.0083
   9.6304E-01   9.8647E-01   4.2426E-04  0.0082
   9.8647E-01   1.0105E+00   4.1252E-04  0.0082
   1.0105E+00   1.0351E+00   4.1069E-04  0.0081
   1.0351E+00   1.0602E+00   4.1043E-04  0.0080
   1.0602E+00   1.0860E+00   4.1418E-04  0.0079
   1.0860E+00   1.1125E+00   4.1621E-04  0.0078
   1.1125E+00   1.1395E+00   4.1815E-04  0.0077
   1.1395E+00   1.1673E+00   4.2310E-04  0.0075
   1.1673E+00   1.1957E+00   4.3446E-04  0.0073
   1.1957E+00   1.2247E+00   4.3998E-04  0.0072
   1.2247E+00   1.2545E+00   4.3998E-04  0.0071
   1.2545E+00   1.2851E+00   4.4059E-04  0.0070
   1.2851E+00   1.3163E+00   4.3715E-04  0.0070
   1.3163E+00   1.3484E+00   4.4444E-04  0.0068
   1.3484E+00   1.3812E+00   4.4321E-04  0.0068
   1.3812E+00   1.4148E+00   4.4911E-04  0.0066
   1.4148E+00   1.4492E+00   4.5105E-04  0.0065
   1.4492E+00   1.4845E+00   4.4903E-04  0.0065
   1.4845E+00   1.5206E+00   4.5208E-04  0.0064
   1.5206E+00   1.5576E+00   4.5334E-04  0.0063
   1.5576E+00   1.5955E+00   4.4920E-04  0.0062
   1.5955E+00   1.6343E+00   4.4827E-04  0.0062
   1.6343E+00   1.6741E+00   4.4556E-04  0.0061
   1.6741E+00   1.7148E+00   4.4821E-04  0.0060
   1.7148E+00   1.7565E+00   4.4647E-04  0.0060
   1.7565E+00   1.7992E+00   4.4728E-04  0.0059
   1.7992E+00   1.8430E+00   4.4421E-04  0.0058
   1.8430E+00   1.8879E+00   4.3874E-04  0.0058
   1.8879E+00   1.9338E+00   4.3859E-04  0.0057
   1.9338E+00   1.9808E+00   4.3444E-04  0.0057
   1.9808E+00   2.0290E+00   4.3884E-04  0.0056
   2.0290E+00   2.0784E+00   4.2868E-04  0.0056
   2.0784E+00   2.1290E+00   4.2727E-04  0.0055
   2.1290E+00   2.1808E+00   4.2664E-04  0.0055
   2.1808E+00   2.2338E+00   4.1921E-04  0.0055
   2.2338E+00   2.2882E+00   4.1386E-04  0.0054
   2.2882E+00   2.3439E+00   4.1407E-04  0.0054
   2.3439E+00   2.4009E+00   4.1063E-04  0.0053
   2.4009E+00   2.4593E+00   4.0555E-04  0.0053
   2.4593E+00   2.5191E+00   4.0132E-04  0.0053
   2.5191E+00   2.5804E+00   3.9684E-04  0.0052
   2.5804E+00   2.6432E+00   3.9242E-04  0.0052
   2.6432E+00   2.7075E+00   3.8876E-04  0.0052
   2.7075E+00   2.7734E+00   3.8517E-04  0.0051
   2.7734E+00   2.8409E+00   3.7887E-04  0.0051
   2.8409E+00   2.9100E+00   3.7408E-04  0.0051
   2.9100E+00   2.9808E+00   3.7025E-04  0.0050
   2.9808E+00   3.0533E+00   3.7045E-04  0.0050
   3.0533E+00   3.1276E+00   3.6397E-04  0.0050
   3.1276E+00   3.2037E+00   3.6036E-04  0.0049
   3.2037E+00   3.2817E+00   3.5211E-04  0.0049
   3.2817E+00   3.3615E+00   3.5078E-04  0.0049
   3.3615E+00   3.4433E+00   3.4637E-04  0.0048
   3.4433E+00   3.5271E+00   3.3973E-04  0.0048
   3.5271E+00   3.6129E+00   3.3437E-04  0.0048
   3.6129E+00   3.7008E+00   3.2726E-04  0.0048
   3.7008E+00   3.7908E+00   3.2497E-04  0.0048
   3.7908E+00   3.8831E+00   3.1897E-04  0.0048
   3.8831E+00   3.9776E+00   3.1160E-04  0.0048
   3.9776E+00   4.0743E+00   3.1079E-04  0.0047
   4.0743E+00   4.1735E+00   3.0701E-04  0.0047
   4.1735E+00   4.2750E+00   3.0256E-04  0.0047
   4.2750E+00   4.3790E+00   2.9574E-04  0.0046
   4.3790E+00   4.4856E+00   2.9521E-04  0.0046
   4.4856E+00   4.5947E+00   2.9253E-04  0.0046
   4.5947E+00   4.7065E+00   2.9182E-04  0.0045
   4.7065E+00   4.8210E+00   2.9041E-04  0.0045
   4.8210E+00   4.9383E+00   2.8806E-04  0.0044
   4.9383E+00   5.0585E+00   2.8463E-04  0.0044
   5.0585E+00   5.1815E+00   2.7893E-04  0.0044
   5.1815E+00   5.3076E+00   2.7867E-04  0.0044
   5.3076E+00   5.4368E+00   2.7225E-04  0.0044
   5.4368E+00   5.5690E+00   2.6508E-04  0.0044
   5.5690E+00   5.7045E+00   2.6071E-04  0.0043
   5.7045E+00   5.8433E+00   2.5779E-04  0.0043
   5.8433E+00   5.9855E+00   2.5143E-04  0.0043
   5.9855E+00   6.1311E+00   2.4695E-04  0.0043
   6.1311E+00   6.2803E+00   2.4161E-04  0.0043
   6.2803E+00   6.4331E+00   2.4043E-04  0.0043
   6.4331E+00   6.5896E+00   2.3367E-04  0.0043
   6.5896E+00   6.7500E+00   2.2928E-04  0.0043
   6.7500E+00   6.9142E+00   2.2359E-04  0.0043
   6.9142E+00   7.0824E+00   2.1911E-04  0.0043
   7.0824E+00   7.2548E+00   2.1542E-04  0.0042
   7.2548E+00   7.4313E+00   2.1182E-04  0.0042
   7.4313E+00   7.6121E+00   2.0832E-04  0.0042
   7.6121E+00   7.7973E+00   2.0128E-04  0.0042
   7.7973E+00   7.9870E+00   1.9736E-04  0.0042
   7.9870E+00   8.1813E+00   1.9210E-04  0.0042
   8.1813E+00   8.3804E+00   1.8825E-04  0.0042
   8.3804E+00   8.5843E+00   1.8323E-04  0.0042
   8.5843E+00   8.7931E+00   1.7938E-04  0.0042
   8.7931E+00   9.0071E+00   1.7218E-04  0.0043
   9.0071E+00   9.2262E+00   1.6765E-04  0.0043
   9.2262E+00   9.4507E+00   1.6419E-04  0.0043
   9.4507E+00   9.6807E+00   1.5943E-04  0.0043
   9.6807E+00   9.9162E+00   1.5555E-04  0.0043
   9.9162E+00   1.0157E+01   1.5206E-04  0.0043
   1.0157E+01   1.0405E+01   1.4822E-04  0.0043
   1.0405E+01   1.0658E+01   1.4436E-04  0.0043
   1.0658E+01   1.0917E+01   1.3906E-04  0.0043
   1.0917E+01   1.1183E+01   1.3772E-04  0.0043
   1.1183E+01   1.1455E+01   1.3388E-04  0.0043
   1.1455E+01   1.1733E+01   1.2907E-04  0.0043
   1.1733E+01   1.2019E+01   1.2464E-04  0.0043
   1.2019E+01   1.2311E+01   1.2134E-04  0.0043
   1.2311E+01   1.2611E+01   1.1730E-04  0.0044
   1.2611E+01   1.2918E+01   1.1245E-04  0.0044
   1.2918E+01   1.3232E+01   1.1083E-04  0.0044
   1.3232E+01   1.3554E+01   1.0654E-04  0.0044
   1.3554E+01   1.3884E+01   1.0292E-04  0.0044
   1.3884E+01   1.4222E+01   9.9894E-05  0.0044
   1.4222E+01   1.4568E+01   9.5728E-05  0.0045
   1.4568E+01   1.4922E+01   9.2704E-05  0.0045
   1.4922E+01   1.5285E+01   8.9915E-05  0.0045
   1.5285E+01   1.5657E+01   8.5941E-05  0.0046
   1.5657E+01   1.6038E+01   8.2096E-05  0.0046
   1.6038E+01   1.6428E+01   7.8691E-05  0.0047
   1.6428E+01   1.6828E+01   7.6505E-05  0.0047
   1.6828E+01   1.7237E+01   7.2801E-05  0.0047
   1.7237E+01   1.7657E+01   7.0086E-05  0.0048
   1.7657E+01   1.8086E+01   6.7507E-05  0.0048
   1.8086E+01   1.8526E+01   6.3957E-05  0.0049
   1.8526E+01   1.8977E+01   6.1444E-05  0.0049
   1.8977E+01   1.9439E+01   5.8480E-05  0.0050
   1.9439E+01   1.9912E+01   5.6618E-05  0.0050
   1.9912E+01   2.0396E+01   5.4519E-05  0.0050
   2.0396E+01   2.0893E+01   5.2053E-05  0.0051
   2.0893E+01   2.1401E+01   4.9422E-05  0.0052
   2.1401E+01   2.1922E+01   4.6733E-05  0.0052
   2.1922E+01   2.2455E+01   4.4141E-05  0.0053
   2.2455E+01   2.3001E+01   4.1737E-05  0.0054
   2.3001E+01   2.3561E+01   3.9451E-05  0.0055
   2.3561E+01   2.4134E+01   3.7777E-05  0.0055
   2.4134E+01   2.4721E+01   3.5835E-05  0.0056
   2.4721E+01   2.5323E+01   3.3753E-05  0.0057
   2.5323E+01   2.5939E+01   3.1300E-05  0.0059
   2.5939E+01   2.6570E+01   2.9417E-05  0.0060
   2.6570E+01   2.7217E+01   2.7820E-05  0.0061
   2.7217E+01   2.7879E+01   2.5648E-05  0.0063
   2.7879E+01   2.8557E+01   2.3866E-05  0.0064
   2.8557E+01   2.9252E+01   2.2322E-05  0.0066
   2.9252E+01   2.9964E+01   2.0563E-05  0.0067
   2.9964E+01   3.0693E+01   1.9276E-05  0.0069
   3.0693E+01   3.1440E+01   1.7787E-05  0.0071
   3.1440E+01   3.2205E+01   1.6584E-05  0.0072
   3.2205E+01   3.2988E+01   1.5230E-05  0.0075
   3.2988E+01   3.3791E+01   1.4069E-05  0.0077
   3.3791E+01   3.4613E+01   1.2831E-05  0.0079
   3.4613E+01   3.5455E+01   1.1836E-05  0.0082
   3.5455E+01   3.6318E+01   1.0946E-05  0.0084
   3.6318E+01   3.7201E+01   1.0062E-05  0.0087
   3.7201E+01   3.8106E+01   8.9902E-06  0.0091
   3.8106E+01   3.9034E+01   8.2762E-06  0.0093
   3.9034E+01   3.9983E+01   7.5243E-06  0.0097
   3.9983E+01   4.0956E+01   6.8433E-06  0.0100
   4.0956E+01   4.1953E+01   6.1750E-06  0.0104
   4.1953E+01   4.2973E+01   5.4216E-06  0.0110
   4.2973E+01   4.4019E+01   5.0358E-06  0.0113
   4.4019E+01   4.5090E+01   4.4027E-06  0.0119
   4.5090E+01   4.6187E+01   4.0222E-06  0.0123
   4.6187E+01   4.7311E+01   3.6573E-06  0.0127
   4.7311E+01   4.8462E+01   3.2508E-06  0.0133
   4.8462E+01   4.9641E+01   2.9412E-06  0.0139
   4.9641E+01   5.0849E+01   2.5622E-06  0.0147
   5.0849E+01   5.2086E+01   2.3381E-06  0.0152
   5.2086E+01   5.3353E+01   2.0048E-06  0.0162
   5.3353E+01   5.4651E+01   1.7764E-06  0.0170
   5.4651E+01   5.5981E+01   1.5673E-06  0.0179
   5.5981E+01   5.7343E+01   1.4028E-06  0.0187
   5.7343E+01   5.8738E+01   1.2122E-06  0.0199
   5.8738E+01   6.0168E+01   1.0640E-06  0.0209
   6.0168E+01   6.1632E+01   9.5679E-07  0.0218
   6.1632E+01   6.3131E+01   7.4289E-07  0.0245
   6.3131E+01   6.4667E+01   5.8810E-07  0.0272
   6.4667E+01   6.6240E+01   4.8303E-07  0.0296
   6.6240E+01   6.7852E+01   3.3423E-07  0.0352
   6.7852E+01   6.9503E+01   2.5158E-07  0.0401
   6.9503E+01   7.1194E+01   1.5454E-07  0.0505
   7.1194E+01   7.2926E+01   8.1976E-08  0.0685
   7.2926E+01   7.4701E+01   4.1705E-08  0.0949
   7.4701E+01   7.6518E+01   1.2104E-08  0.1741
   7.6518E+01   7.8380E+01   5.7294E-09  0.2500
   7.8380E+01   8.0287E+01   3.4958E-10  1.0000
   8.0287E+01   8.2240E+01   0.0000E+00  0.0000
   8.2240E+01   8.4241E+01   0.0000E+00  0.0000
   8.4241E+01   8.6291E+01   0.0000E+00  0.0000
   8.6291E+01   8.8391E+01   0.0000E+00  0.0000
   8.8391E+01   9.0541E+01   0.0000E+00  0.0000
   9.0541E+01   9.2744E+01   0.0000E+00  0.0000
   9.2744E+01   9.5001E+01   0.0000E+00  0.0000
   9.5001E+01   9.7312E+01   0.0000E+00  0.0000
   9.7312E+01   9.9680E+01   0.0000E+00  0.0000
   9.9680E+01   1.0211E+02   0.0000E+00  0.0000
   1.0211E+02   1.0459E+02   0.0000E+00  0.0000
   1.0459E+02   1.0713E+02   0.0000E+00  0.0000
   1.0713E+02   1.0974E+02   0.0000E+00  0.0000
   1.0974E+02   1.1241E+02   0.0000E+00  0.0000
   1.1241E+02   1.1515E+02   0.0000E+00  0.0000
   1.1515E+02   1.1795E+02   0.0000E+00  0.0000
   1.1795E+02   1.2082E+02   0.0000E+00  0.0000
   1.2082E+02   1.2376E+02   0.0000E+00  0.0000
   1.2376E+02   1.2677E+02   0.0000E+00  0.0000
   1.2677E+02   1.2985E+02   0.0000E+00  0.0000
   1.2985E+02   1.3301E+02   0.0000E+00  0.0000
   1.3301E+02   1.3625E+02   0.0000E+00  0.0000
   1.3625E+02   1.3956E+02   0.0000E+00  0.0000
   1.3956E+02   1.4296E+02   0.0000E+00  0.0000
   1.4296E+02   1.4644E+02   0.0000E+00  0.0000
   1.4644E+02   1.5000E+02   0.0000E+00  0.0000

#   sum over                 2.9263E-05
'no. =    1   reg = 110 - 210'
msuc: {\huge [t-cross] in region mesh}
msdr: {\it plotted by \ANGEL \version}
msdl: {\it calculated by \PHITS  3.26}
wt: s(0.7)
\vspace{-3}
  region surface crossing
  area  &=&   1.0000E+00 [cm^2]
e:
 
# Information for Restart Calculation
# This calculation was newly started
# istdev =  2 # 1:Batch variance, 2:History variance
# resc2  = 1.50000000000000000E+09 # Total source weight or Total source weight / maxcas
# resc3  = 1.50000000000000000E+09 # Total history number or Total batch number
# maxcas =   500000000 # History / Batch, only used for istdev=1
# bitrseed = 0000010101110101110110100110011001100101000001100111100100101101 # bit data of rseed
