[ T-Cross ]
    title = [t-cross] in region mesh
     mesh =  reg            # mesh type is region-wise
      reg =    1            # number of crossing regions
      non     r-from    r-to       area
      1       109       209        1.000000    
   e-type =    3            # e-mesh is log given by emin, emax and ne
     emin =  1.0000000E-02  # minimum value of e-mesh points
     emax =   150.0000      # maximum value of e-mesh points
#    edel =  2.4039514E-02  # mesh width of e-mesh points
       ne =    400          # number of e-mesh points
#    data = ( e(i), i = 1, ne + 1 )
#           1.00000E-02  1.02433E-02  1.04925E-02  1.07478E-02  1.10093E-02
#           1.12772E-02  1.15516E-02  1.18326E-02  1.21205E-02  1.24154E-02
#           1.27175E-02  1.30269E-02  1.33439E-02  1.36686E-02  1.40011E-02
#           1.43418E-02  1.46907E-02  1.50482E-02  1.54143E-02  1.57894E-02
#           1.61735E-02  1.65670E-02  1.69701E-02  1.73830E-02  1.78060E-02
#           1.82392E-02  1.86830E-02  1.91375E-02  1.96032E-02  2.00801E-02
#           2.05687E-02  2.10692E-02  2.15818E-02  2.21069E-02  2.26448E-02
#           2.31957E-02  2.37601E-02  2.43382E-02  2.49304E-02  2.55369E-02
#           2.61583E-02  2.67947E-02  2.74467E-02  2.81145E-02  2.87985E-02
#           2.94992E-02  3.02169E-02  3.09521E-02  3.17052E-02  3.24766E-02
#           3.32668E-02  3.40762E-02  3.49053E-02  3.57546E-02  3.66246E-02
#           3.75157E-02  3.84284E-02  3.93634E-02  4.03212E-02  4.13022E-02
#           4.23071E-02  4.33365E-02  4.43909E-02  4.54710E-02  4.65773E-02
#           4.77106E-02  4.88714E-02  5.00605E-02  5.12785E-02  5.25262E-02
#           5.38042E-02  5.51133E-02  5.64542E-02  5.78278E-02  5.92348E-02
#           6.06760E-02  6.21523E-02  6.36645E-02  6.52135E-02  6.68002E-02
#           6.84255E-02  7.00904E-02  7.17957E-02  7.35426E-02  7.53319E-02
#           7.71648E-02  7.90423E-02  8.09655E-02  8.29354E-02  8.49533E-02
#           8.70203E-02  8.91376E-02  9.13064E-02  9.35279E-02  9.58035E-02
#           9.81345E-02  1.00522E-01  1.02968E-01  1.05473E-01  1.08040E-01
#           1.10668E-01  1.13361E-01  1.16119E-01  1.18944E-01  1.21838E-01
#           1.24803E-01  1.27839E-01  1.30950E-01  1.34136E-01  1.37399E-01
#           1.40742E-01  1.44167E-01  1.47675E-01  1.51268E-01  1.54948E-01
#           1.58718E-01  1.62580E-01  1.66535E-01  1.70587E-01  1.74738E-01
#           1.78989E-01  1.83344E-01  1.87805E-01  1.92375E-01  1.97055E-01
#           2.01850E-01  2.06761E-01  2.11792E-01  2.16945E-01  2.22223E-01
#           2.27630E-01  2.33169E-01  2.38842E-01  2.44653E-01  2.50605E-01
#           2.56703E-01  2.62949E-01  2.69346E-01  2.75900E-01  2.82613E-01
#           2.89489E-01  2.96532E-01  3.03747E-01  3.11138E-01  3.18708E-01
#           3.26462E-01  3.34405E-01  3.42542E-01  3.50876E-01  3.59413E-01
#           3.68158E-01  3.77116E-01  3.86291E-01  3.95690E-01  4.05317E-01
#           4.15179E-01  4.25281E-01  4.35628E-01  4.46227E-01  4.57084E-01
#           4.68205E-01  4.79597E-01  4.91266E-01  5.03219E-01  5.15463E-01
#           5.28005E-01  5.40851E-01  5.54011E-01  5.67490E-01  5.81298E-01
#           5.95441E-01  6.09929E-01  6.24769E-01  6.39970E-01  6.55541E-01
#           6.71491E-01  6.87828E-01  7.04564E-01  7.21706E-01  7.39266E-01
#           7.57253E-01  7.75678E-01  7.94551E-01  8.13883E-01  8.33685E-01
#           8.53969E-01  8.74747E-01  8.96030E-01  9.17831E-01  9.40163E-01
#           9.63038E-01  9.86469E-01  1.01047E+00  1.03506E+00  1.06024E+00
#           1.08604E+00  1.11246E+00  1.13953E+00  1.16725E+00  1.19565E+00
#           1.22474E+00  1.25454E+00  1.28507E+00  1.31633E+00  1.34836E+00
#           1.38117E+00  1.41477E+00  1.44920E+00  1.48446E+00  1.52057E+00
#           1.55757E+00  1.59547E+00  1.63429E+00  1.67405E+00  1.71478E+00
#           1.75650E+00  1.79924E+00  1.84302E+00  1.88786E+00  1.93379E+00
#           1.98084E+00  2.02904E+00  2.07841E+00  2.12898E+00  2.18078E+00
#           2.23384E+00  2.28819E+00  2.34386E+00  2.40089E+00  2.45930E+00
#           2.51914E+00  2.58043E+00  2.64322E+00  2.70753E+00  2.77341E+00
#           2.84088E+00  2.91001E+00  2.98081E+00  3.05333E+00  3.12762E+00
#           3.20372E+00  3.28167E+00  3.36152E+00  3.44330E+00  3.52708E+00
#           3.61290E+00  3.70080E+00  3.79085E+00  3.88308E+00  3.97756E+00
#           4.07434E+00  4.17347E+00  4.27501E+00  4.37903E+00  4.48557E+00
#           4.59471E+00  4.70650E+00  4.82102E+00  4.93832E+00  5.05847E+00
#           5.18155E+00  5.30762E+00  5.43676E+00  5.56904E+00  5.70453E+00
#           5.84333E+00  5.98550E+00  6.13114E+00  6.28031E+00  6.43312E+00
#           6.58964E+00  6.74997E+00  6.91420E+00  7.08243E+00  7.25475E+00
#           7.43126E+00  7.61207E+00  7.79728E+00  7.98700E+00  8.18133E+00
#           8.38038E+00  8.58428E+00  8.79315E+00  9.00709E+00  9.22624E+00
#           9.45072E+00  9.68067E+00  9.91620E+00  1.01575E+01  1.04046E+01
#           1.06578E+01  1.09171E+01  1.11827E+01  1.14548E+01  1.17335E+01
#           1.20190E+01  1.23114E+01  1.26109E+01  1.29178E+01  1.32321E+01
#           1.35540E+01  1.38838E+01  1.42216E+01  1.45676E+01  1.49221E+01
#           1.52851E+01  1.56570E+01  1.60380E+01  1.64282E+01  1.68279E+01
#           1.72374E+01  1.76568E+01  1.80864E+01  1.85264E+01  1.89772E+01
#           1.94389E+01  1.99119E+01  2.03963E+01  2.08926E+01  2.14009E+01
#           2.19216E+01  2.24550E+01  2.30014E+01  2.35610E+01  2.41343E+01
#           2.47215E+01  2.53230E+01  2.59391E+01  2.65702E+01  2.72167E+01
#           2.78789E+01  2.85572E+01  2.92520E+01  2.99637E+01  3.06928E+01
#           3.14396E+01  3.22045E+01  3.29881E+01  3.37907E+01  3.46128E+01
#           3.54550E+01  3.63177E+01  3.72013E+01  3.81064E+01  3.90336E+01
#           3.99833E+01  4.09561E+01  4.19526E+01  4.29734E+01  4.40189E+01
#           4.50900E+01  4.61870E+01  4.73108E+01  4.84619E+01  4.96410E+01
#           5.08488E+01  5.20860E+01  5.33533E+01  5.46514E+01  5.59812E+01
#           5.73432E+01  5.87384E+01  6.01676E+01  6.16315E+01  6.31311E+01
#           6.46671E+01  6.62405E+01  6.78522E+01  6.95031E+01  7.11941E+01
#           7.29263E+01  7.47007E+01  7.65182E+01  7.83800E+01  8.02870E+01
#           8.22405E+01  8.42414E+01  8.62911E+01  8.83906E+01  9.05412E+01
#           9.27442E+01  9.50007E+01  9.73122E+01  9.96799E+01  1.02105E+02
#           1.04589E+02  1.07134E+02  1.09741E+02  1.12411E+02  1.15146E+02
#           1.17948E+02  1.20817E+02  1.23757E+02  1.26768E+02  1.29852E+02
#           1.33012E+02  1.36248E+02  1.39563E+02  1.42959E+02  1.46437E+02
#           1.50000E+02
     unit =    2            # unit is [1/cm^2/(MeV/n)/source]
     axis =  eng            # axis of output
     file = detector-10.out  # file name of output for the above axis
   output = f-curr          # surface crossing forward current spectrum
     part =  neutron  
# kf/name :  2112     
#    used :        main (  %)        temp (  %)       total (  %)
#  memory :         414 (  0)           0 (  0)         414 (  0)

#------------------------------------------------------------------------------
#newpage:
#   no. =    1   reg = 109 - 209

x: Energy [MeV/n]
y:  F-Curr [1/cm^2/(MeV/n)/source]         
p: xlog ylog afac(0.8) form(0.9)
h: n            x            y(neutron ),hh0l   n 
#  e-lower      e-upper      neutron     r.err 
   1.0000E-02   1.0243E-02   6.5801E-04  0.0645
   1.0243E-02   1.0493E-02   6.6071E-04  0.0636
   1.0493E-02   1.0748E-02   6.1932E-04  0.0649
   1.0748E-02   1.1009E-02   6.3138E-04  0.0635
   1.1009E-02   1.1277E-02   6.1313E-04  0.0637
   1.1277E-02   1.1552E-02   6.6049E-04  0.0606
   1.1552E-02   1.1833E-02   6.4821E-04  0.0605
   1.1833E-02   1.2121E-02   6.5301E-04  0.0595
   1.2121E-02   1.2415E-02   5.8777E-04  0.0620
   1.2415E-02   1.2718E-02   6.5022E-04  0.0582
   1.2718E-02   1.3027E-02   6.8042E-04  0.0562
   1.3027E-02   1.3344E-02   6.3133E-04  0.0577
   1.3344E-02   1.3669E-02   6.0369E-04  0.0583
   1.3669E-02   1.4001E-02   6.4949E-04  0.0556
   1.4001E-02   1.4342E-02   6.3602E-04  0.0555
   1.4342E-02   1.4691E-02   6.2689E-04  0.0552
   1.4691E-02   1.5048E-02   6.2879E-04  0.0545
   1.5048E-02   1.5414E-02   6.3456E-04  0.0535
   1.5414E-02   1.5789E-02   6.3931E-04  0.0527
   1.5789E-02   1.6174E-02   5.9783E-04  0.0539
   1.6174E-02   1.6567E-02   6.0142E-04  0.0531
   1.6567E-02   1.6970E-02   6.3697E-04  0.0509
   1.6970E-02   1.7383E-02   6.7779E-04  0.0488
   1.7383E-02   1.7806E-02   6.2161E-04  0.0503
   1.7806E-02   1.8239E-02   5.8013E-04  0.0515
   1.8239E-02   1.8683E-02   6.5221E-04  0.0480
   1.8683E-02   1.9138E-02   6.7416E-04  0.0466
   1.9138E-02   1.9603E-02   6.3732E-04  0.0474
   1.9603E-02   2.0080E-02   6.5049E-04  0.0463
   2.0080E-02   2.0569E-02   5.7487E-04  0.0487
   2.0569E-02   2.1069E-02   6.0812E-04  0.0468
   2.1069E-02   2.1582E-02   6.0908E-04  0.0462
   2.1582E-02   2.2107E-02   5.8313E-04  0.0466
   2.2107E-02   2.2645E-02   6.1228E-04  0.0450
   2.2645E-02   2.3196E-02   6.0395E-04  0.0448
   2.3196E-02   2.3760E-02   5.9005E-04  0.0447
   2.3760E-02   2.4338E-02   6.4328E-04  0.0423
   2.4338E-02   2.4930E-02   6.5821E-04  0.0413
   2.4930E-02   2.5537E-02   6.5866E-04  0.0408
   2.5537E-02   2.6158E-02   5.8385E-04  0.0429
   2.6158E-02   2.6795E-02   6.3101E-04  0.0407
   2.6795E-02   2.7447E-02   5.8386E-04  0.0418
   2.7447E-02   2.8114E-02   6.1195E-04  0.0404
   2.8114E-02   2.8799E-02   6.4515E-04  0.0388
   2.8799E-02   2.9499E-02   6.1340E-04  0.0394
   2.9499E-02   3.0217E-02   5.9474E-04  0.0395
   3.0217E-02   3.0952E-02   5.9955E-04  0.0389
   3.0952E-02   3.1705E-02   5.9638E-04  0.0385
   3.1705E-02   3.2477E-02   6.1891E-04  0.0373
   3.2477E-02   3.3267E-02   5.9115E-04  0.0378
   3.3267E-02   3.4076E-02   6.0807E-04  0.0368
   3.4076E-02   3.4905E-02   5.9420E-04  0.0368
   3.4905E-02   3.5755E-02   5.7549E-04  0.0369
   3.5755E-02   3.6625E-02   5.9746E-04  0.0358
   3.6625E-02   3.7516E-02   5.5359E-04  0.0367
   3.7516E-02   3.8428E-02   5.7893E-04  0.0355
   3.8428E-02   3.9363E-02   5.6778E-04  0.0354
   3.9363E-02   4.0321E-02   5.6543E-04  0.0351
   4.0321E-02   4.1302E-02   5.6979E-04  0.0345
   4.1302E-02   4.2307E-02   5.3582E-04  0.0352
   4.2307E-02   4.3337E-02   5.3358E-04  0.0348
   4.3337E-02   4.4391E-02   5.5563E-04  0.0337
   4.4391E-02   4.5471E-02   5.7054E-04  0.0329
   4.5471E-02   4.6577E-02   5.9734E-04  0.0317
   4.6577E-02   4.7711E-02   5.4497E-04  0.0328
   4.7711E-02   4.8871E-02   5.3755E-04  0.0327
   4.8871E-02   5.0061E-02   5.5483E-04  0.0318
   5.0061E-02   5.1279E-02   5.5472E-04  0.0314
   5.1279E-02   5.2526E-02   5.4790E-04  0.0312
   5.2526E-02   5.3804E-02   4.8878E-04  0.0326
   5.3804E-02   5.5113E-02   5.6050E-04  0.0301
   5.5113E-02   5.6454E-02   5.5191E-04  0.0300
   5.6454E-02   5.7828E-02   5.0453E-04  0.0310
   5.7828E-02   5.9235E-02   5.5580E-04  0.0292
   5.9235E-02   6.0676E-02   5.3995E-04  0.0293
   6.0676E-02   6.2152E-02   5.2393E-04  0.0293
   6.2152E-02   6.3665E-02   5.3665E-04  0.0286
   6.3665E-02   6.5214E-02   5.3434E-04  0.0284
   6.5214E-02   6.6800E-02   5.2045E-04  0.0284
   6.6800E-02   6.8426E-02   5.2551E-04  0.0279
   6.8426E-02   7.0090E-02   5.0603E-04  0.0281
   7.0090E-02   7.1796E-02   5.1595E-04  0.0275
   7.1796E-02   7.3543E-02   5.1518E-04  0.0272
   7.3543E-02   7.5332E-02   4.7459E-04  0.0280
   7.5332E-02   7.7165E-02   4.7122E-04  0.0278
   7.7165E-02   7.9042E-02   5.0430E-04  0.0265
   7.9042E-02   8.0965E-02   5.1274E-04  0.0260
   8.0965E-02   8.2935E-02   4.9250E-04  0.0262
   8.2935E-02   8.4953E-02   4.9783E-04  0.0258
   8.4953E-02   8.7020E-02   4.9673E-04  0.0255
   8.7020E-02   8.9138E-02   4.9952E-04  0.0251
   8.9138E-02   9.1306E-02   4.6262E-04  0.0258
   9.1306E-02   9.3528E-02   4.6120E-04  0.0255
   9.3528E-02   9.5804E-02   4.7043E-04  0.0249
   9.5804E-02   9.8134E-02   4.6045E-04  0.0249
   9.8134E-02   1.0052E-01   4.5128E-04  0.0249
   1.0052E-01   1.0297E-01   4.3682E-04  0.0250
   1.0297E-01   1.0547E-01   4.2455E-04  0.0250
   1.0547E-01   1.0804E-01   4.3551E-04  0.0244
   1.0804E-01   1.1067E-01   4.6175E-04  0.0234
   1.1067E-01   1.1336E-01   4.2218E-04  0.0242
   1.1336E-01   1.1612E-01   4.1563E-04  0.0241
   1.1612E-01   1.1894E-01   4.0806E-04  0.0240
   1.1894E-01   1.2184E-01   4.0090E-04  0.0240
   1.2184E-01   1.2480E-01   4.0034E-04  0.0237
   1.2480E-01   1.2784E-01   3.9389E-04  0.0236
   1.2784E-01   1.3095E-01   3.8981E-04  0.0234
   1.3095E-01   1.3414E-01   3.8752E-04  0.0232
   1.3414E-01   1.3740E-01   3.7584E-04  0.0233
   1.3740E-01   1.4074E-01   3.7261E-04  0.0231
   1.4074E-01   1.4417E-01   3.7462E-04  0.0228
   1.4417E-01   1.4767E-01   3.7026E-04  0.0226
   1.4767E-01   1.5127E-01   3.6938E-04  0.0224
   1.5127E-01   1.5495E-01   3.6186E-04  0.0224
   1.5495E-01   1.5872E-01   3.4708E-04  0.0226
   1.5872E-01   1.6258E-01   3.4223E-04  0.0224
   1.6258E-01   1.6654E-01   3.2494E-04  0.0228
   1.6654E-01   1.7059E-01   3.4598E-04  0.0218
   1.7059E-01   1.7474E-01   3.0733E-04  0.0228
   1.7474E-01   1.7899E-01   3.0226E-04  0.0228
   1.7899E-01   1.8334E-01   3.0836E-04  0.0223
   1.8334E-01   1.8781E-01   3.0434E-04  0.0221
   1.8781E-01   1.9237E-01   2.8895E-04  0.0225
   1.9237E-01   1.9706E-01   2.8852E-04  0.0222
   1.9706E-01   2.0185E-01   2.8128E-04  0.0222
   2.0185E-01   2.0676E-01   2.8798E-04  0.0217
   2.0676E-01   2.1179E-01   2.9292E-04  0.0212
   2.1179E-01   2.1694E-01   2.9424E-04  0.0210
   2.1694E-01   2.2222E-01   2.8893E-04  0.0209
   2.2222E-01   2.2763E-01   2.9648E-04  0.0204
   2.2763E-01   2.3317E-01   3.1364E-04  0.0196
   2.3317E-01   2.3884E-01   3.0711E-04  0.0196
   2.3884E-01   2.4465E-01   3.2132E-04  0.0189
   2.4465E-01   2.5061E-01   3.2982E-04  0.0184
   2.5061E-01   2.5670E-01   3.3063E-04  0.0182
   2.5670E-01   2.6295E-01   3.3506E-04  0.0178
   2.6295E-01   2.6935E-01   3.4037E-04  0.0175
   2.6935E-01   2.7590E-01   3.3378E-04  0.0174
   2.7590E-01   2.8261E-01   3.4958E-04  0.0168
   2.8261E-01   2.8949E-01   3.6040E-04  0.0164
   2.8949E-01   2.9653E-01   3.5339E-04  0.0164
   2.9653E-01   3.0375E-01   3.6079E-04  0.0160
   3.0375E-01   3.1114E-01   3.6881E-04  0.0156
   3.1114E-01   3.1871E-01   3.6061E-04  0.0156
   3.1871E-01   3.2646E-01   3.8224E-04  0.0150
   3.2646E-01   3.3441E-01   3.7621E-04  0.0149
   3.3441E-01   3.4254E-01   3.7882E-04  0.0147
   3.4254E-01   3.5088E-01   3.8487E-04  0.0144
   3.5088E-01   3.5941E-01   3.9243E-04  0.0141
   3.5941E-01   3.6816E-01   3.9900E-04  0.0138
   3.6816E-01   3.7712E-01   4.0633E-04  0.0135
   3.7712E-01   3.8629E-01   4.0017E-04  0.0135
   3.8629E-01   3.9569E-01   4.1009E-04  0.0131
   3.9569E-01   4.0532E-01   4.1342E-04  0.0129
   4.0532E-01   4.1518E-01   4.1706E-04  0.0127
   4.1518E-01   4.2528E-01   4.3150E-04  0.0124
   4.2528E-01   4.3563E-01   4.2113E-04  0.0124
   4.3563E-01   4.4623E-01   4.2907E-04  0.0121
   4.4623E-01   4.5708E-01   4.3257E-04  0.0119
   4.5708E-01   4.6821E-01   4.4054E-04  0.0117
   4.6821E-01   4.7960E-01   4.3512E-04  0.0116
   4.7960E-01   4.9127E-01   4.3791E-04  0.0114
   4.9127E-01   5.0322E-01   4.4655E-04  0.0112
   5.0322E-01   5.1546E-01   4.4218E-04  0.0111
   5.1546E-01   5.2800E-01   4.5908E-04  0.0108
   5.2800E-01   5.4085E-01   4.4893E-04  0.0107
   5.4085E-01   5.5401E-01   4.6937E-04  0.0104
   5.5401E-01   5.6749E-01   4.6331E-04  0.0103
   5.6749E-01   5.8130E-01   4.7241E-04  0.0101
   5.8130E-01   5.9544E-01   4.6621E-04  0.0100
   5.9544E-01   6.0993E-01   4.6974E-04  0.0099
   6.0993E-01   6.2477E-01   4.7601E-04  0.0097
   6.2477E-01   6.3997E-01   4.7652E-04  0.0096
   6.3997E-01   6.5554E-01   4.8105E-04  0.0094
   6.5554E-01   6.7149E-01   4.8307E-04  0.0093
   6.7149E-01   6.8783E-01   4.8032E-04  0.0092
   6.8783E-01   7.0456E-01   4.8393E-04  0.0091
   7.0456E-01   7.2171E-01   4.7788E-04  0.0090
   7.2171E-01   7.3927E-01   4.9092E-04  0.0088
   7.3927E-01   7.5725E-01   4.9354E-04  0.0087
   7.5725E-01   7.7568E-01   4.9748E-04  0.0085
   7.7568E-01   7.9455E-01   4.9902E-04  0.0084
   7.9455E-01   8.1388E-01   4.9757E-04  0.0083
   8.1388E-01   8.3368E-01   5.0068E-04  0.0082
   8.3368E-01   8.5397E-01   5.0053E-04  0.0081
   8.5397E-01   8.7475E-01   4.9770E-04  0.0080
   8.7475E-01   8.9603E-01   4.8988E-04  0.0080
   8.9603E-01   9.1783E-01   4.8997E-04  0.0079
   9.1783E-01   9.4016E-01   5.0065E-04  0.0077
   9.4016E-01   9.6304E-01   4.7699E-04  0.0078
   9.6304E-01   9.8647E-01   4.7336E-04  0.0077
   9.8647E-01   1.0105E+00   4.7236E-04  0.0077
   1.0105E+00   1.0351E+00   4.6617E-04  0.0076
   1.0351E+00   1.0602E+00   4.6238E-04  0.0076
   1.0602E+00   1.0860E+00   4.5899E-04  0.0075
   1.0860E+00   1.1125E+00   4.6772E-04  0.0073
   1.1125E+00   1.1395E+00   4.6679E-04  0.0073
   1.1395E+00   1.1673E+00   4.5906E-04  0.0072
   1.1673E+00   1.1957E+00   4.6828E-04  0.0071
   1.1957E+00   1.2247E+00   4.7274E-04  0.0070
   1.2247E+00   1.2545E+00   4.7557E-04  0.0069
   1.2545E+00   1.2851E+00   4.7040E-04  0.0068
   1.2851E+00   1.3163E+00   4.7497E-04  0.0067
   1.3163E+00   1.3484E+00   4.6951E-04  0.0067
   1.3484E+00   1.3812E+00   4.7024E-04  0.0066
   1.3812E+00   1.4148E+00   4.7812E-04  0.0064
   1.4148E+00   1.4492E+00   4.7480E-04  0.0064
   1.4492E+00   1.4845E+00   4.6994E-04  0.0063
   1.4845E+00   1.5206E+00   4.6403E-04  0.0063
   1.5206E+00   1.5576E+00   4.6364E-04  0.0062
   1.5576E+00   1.5955E+00   4.6421E-04  0.0061
   1.5955E+00   1.6343E+00   4.5911E-04  0.0061
   1.6343E+00   1.6741E+00   4.6197E-04  0.0060
   1.6741E+00   1.7148E+00   4.5393E-04  0.0060
   1.7148E+00   1.7565E+00   4.5376E-04  0.0059
   1.7565E+00   1.7992E+00   4.5129E-04  0.0059
   1.7992E+00   1.8430E+00   4.4529E-04  0.0058
   1.8430E+00   1.8879E+00   4.4067E-04  0.0058
   1.8879E+00   1.9338E+00   4.3661E-04  0.0058
   1.9338E+00   1.9808E+00   4.3232E-04  0.0057
   1.9808E+00   2.0290E+00   4.3168E-04  0.0057
   2.0290E+00   2.0784E+00   4.2845E-04  0.0056
   2.0784E+00   2.1290E+00   4.2124E-04  0.0056
   2.1290E+00   2.1808E+00   4.1907E-04  0.0055
   2.1808E+00   2.2338E+00   4.1367E-04  0.0055
   2.2338E+00   2.2882E+00   4.0708E-04  0.0055
   2.2882E+00   2.3439E+00   4.0112E-04  0.0055
   2.3439E+00   2.4009E+00   4.0077E-04  0.0054
   2.4009E+00   2.4593E+00   3.9884E-04  0.0053
   2.4593E+00   2.5191E+00   3.9440E-04  0.0053
   2.5191E+00   2.5804E+00   3.9007E-04  0.0053
   2.5804E+00   2.6432E+00   3.8904E-04  0.0052
   2.6432E+00   2.7075E+00   3.8051E-04  0.0052
   2.7075E+00   2.7734E+00   3.7413E-04  0.0052
   2.7734E+00   2.8409E+00   3.7327E-04  0.0051
   2.8409E+00   2.9100E+00   3.7045E-04  0.0051
   2.9100E+00   2.9808E+00   3.6881E-04  0.0050
   2.9808E+00   3.0533E+00   3.6585E-04  0.0050
   3.0533E+00   3.1276E+00   3.6435E-04  0.0050
   3.1276E+00   3.2037E+00   3.5414E-04  0.0050
   3.2037E+00   3.2817E+00   3.5075E-04  0.0049
   3.2817E+00   3.3615E+00   3.4944E-04  0.0049
   3.3615E+00   3.4433E+00   3.4529E-04  0.0049
   3.4433E+00   3.5271E+00   3.3835E-04  0.0048
   3.5271E+00   3.6129E+00   3.3586E-04  0.0048
   3.6129E+00   3.7008E+00   3.3161E-04  0.0048
   3.7008E+00   3.7908E+00   3.2664E-04  0.0048
   3.7908E+00   3.8831E+00   3.2151E-04  0.0047
   3.8831E+00   3.9776E+00   3.1787E-04  0.0047
   3.9776E+00   4.0743E+00   3.1408E-04  0.0047
   4.0743E+00   4.1735E+00   3.1353E-04  0.0046
   4.1735E+00   4.2750E+00   3.0863E-04  0.0046
   4.2750E+00   4.3790E+00   3.0730E-04  0.0046
   4.3790E+00   4.4856E+00   3.0394E-04  0.0045
   4.4856E+00   4.5947E+00   3.0512E-04  0.0045
   4.5947E+00   4.7065E+00   3.0142E-04  0.0044
   4.7065E+00   4.8210E+00   3.0039E-04  0.0044
   4.8210E+00   4.9383E+00   3.0203E-04  0.0043
   4.9383E+00   5.0585E+00   2.9966E-04  0.0043
   5.0585E+00   5.1815E+00   2.9615E-04  0.0043
   5.1815E+00   5.3076E+00   2.9133E-04  0.0043
   5.3076E+00   5.4368E+00   2.8848E-04  0.0042
   5.4368E+00   5.5690E+00   2.8506E-04  0.0042
   5.5690E+00   5.7045E+00   2.8054E-04  0.0042
   5.7045E+00   5.8433E+00   2.7349E-04  0.0042
   5.8433E+00   5.9855E+00   2.7257E-04  0.0041
   5.9855E+00   6.1311E+00   2.6706E-04  0.0041
   6.1311E+00   6.2803E+00   2.6247E-04  0.0041
   6.2803E+00   6.4331E+00   2.5911E-04  0.0041
   6.4331E+00   6.5896E+00   2.5503E-04  0.0041
   6.5896E+00   6.7500E+00   2.5045E-04  0.0041
   6.7500E+00   6.9142E+00   2.4749E-04  0.0040
   6.9142E+00   7.0824E+00   2.4439E-04  0.0040
   7.0824E+00   7.2548E+00   2.4037E-04  0.0040
   7.2548E+00   7.4313E+00   2.3771E-04  0.0040
   7.4313E+00   7.6121E+00   2.3313E-04  0.0040
   7.6121E+00   7.7973E+00   2.3029E-04  0.0040
   7.7973E+00   7.9870E+00   2.2684E-04  0.0039
   7.9870E+00   8.1813E+00   2.2218E-04  0.0039
   8.1813E+00   8.3804E+00   2.1600E-04  0.0039
   8.3804E+00   8.5843E+00   2.1337E-04  0.0039
   8.5843E+00   8.7931E+00   2.0926E-04  0.0039
   8.7931E+00   9.0071E+00   2.0421E-04  0.0039
   9.0071E+00   9.2262E+00   1.9997E-04  0.0039
   9.2262E+00   9.4507E+00   1.9771E-04  0.0039
   9.4507E+00   9.6807E+00   1.9410E-04  0.0039
   9.6807E+00   9.9162E+00   1.8890E-04  0.0039
   9.9162E+00   1.0157E+01   1.8528E-04  0.0039
   1.0157E+01   1.0405E+01   1.8226E-04  0.0038
   1.0405E+01   1.0658E+01   1.7865E-04  0.0038
   1.0658E+01   1.0917E+01   1.7516E-04  0.0038
   1.0917E+01   1.1183E+01   1.7248E-04  0.0038
   1.1183E+01   1.1455E+01   1.6883E-04  0.0038
   1.1455E+01   1.1733E+01   1.6551E-04  0.0038
   1.1733E+01   1.2019E+01   1.6160E-04  0.0038
   1.2019E+01   1.2311E+01   1.5906E-04  0.0038
   1.2311E+01   1.2611E+01   1.5413E-04  0.0038
   1.2611E+01   1.2918E+01   1.5018E-04  0.0038
   1.2918E+01   1.3232E+01   1.4753E-04  0.0038
   1.3232E+01   1.3554E+01   1.4456E-04  0.0038
   1.3554E+01   1.3884E+01   1.4059E-04  0.0038
   1.3884E+01   1.4222E+01   1.3665E-04  0.0038
   1.4222E+01   1.4568E+01   1.3333E-04  0.0038
   1.4568E+01   1.4922E+01   1.2950E-04  0.0038
   1.4922E+01   1.5285E+01   1.2562E-04  0.0038
   1.5285E+01   1.5657E+01   1.2229E-04  0.0038
   1.5657E+01   1.6038E+01   1.1817E-04  0.0038
   1.6038E+01   1.6428E+01   1.1453E-04  0.0039
   1.6428E+01   1.6828E+01   1.1129E-04  0.0039
   1.6828E+01   1.7237E+01   1.0713E-04  0.0039
   1.7237E+01   1.7657E+01   1.0372E-04  0.0039
   1.7657E+01   1.8086E+01   9.9519E-05  0.0039
   1.8086E+01   1.8526E+01   9.5805E-05  0.0040
   1.8526E+01   1.8977E+01   9.2245E-05  0.0040
   1.8977E+01   1.9439E+01   8.9584E-05  0.0040
   1.9439E+01   1.9912E+01   8.5929E-05  0.0041
   1.9912E+01   2.0396E+01   8.2631E-05  0.0041
   2.0396E+01   2.0893E+01   7.9328E-05  0.0041
   2.0893E+01   2.1401E+01   7.5875E-05  0.0042
   2.1401E+01   2.1922E+01   7.2446E-05  0.0042
   2.1922E+01   2.2455E+01   6.8425E-05  0.0043
   2.2455E+01   2.3001E+01   6.5160E-05  0.0043
   2.3001E+01   2.3561E+01   6.1747E-05  0.0044
   2.3561E+01   2.4134E+01   5.8627E-05  0.0045
   2.4134E+01   2.4721E+01   5.5334E-05  0.0045
   2.4721E+01   2.5323E+01   5.2564E-05  0.0046
   2.5323E+01   2.5939E+01   4.9529E-05  0.0047
   2.5939E+01   2.6570E+01   4.6370E-05  0.0048
   2.6570E+01   2.7217E+01   4.3585E-05  0.0049
   2.7217E+01   2.7879E+01   4.1418E-05  0.0049
   2.7879E+01   2.8557E+01   3.8347E-05  0.0051
   2.8557E+01   2.9252E+01   3.6328E-05  0.0051
   2.9252E+01   2.9964E+01   3.3206E-05  0.0053
   2.9964E+01   3.0693E+01   3.0937E-05  0.0054
   3.0693E+01   3.1440E+01   2.8867E-05  0.0056
   3.1440E+01   3.2205E+01   2.6854E-05  0.0057
   3.2205E+01   3.2988E+01   2.4945E-05  0.0058
   3.2988E+01   3.3791E+01   2.2985E-05  0.0060
   3.3791E+01   3.4613E+01   2.1260E-05  0.0062
   3.4613E+01   3.5455E+01   1.9481E-05  0.0064
   3.5455E+01   3.6318E+01   1.7912E-05  0.0066
   3.6318E+01   3.7201E+01   1.6554E-05  0.0068
   3.7201E+01   3.8106E+01   1.5272E-05  0.0069
   3.8106E+01   3.9034E+01   1.4103E-05  0.0071
   3.9034E+01   3.9983E+01   1.2736E-05  0.0074
   3.9983E+01   4.0956E+01   1.1857E-05  0.0076
   4.0956E+01   4.1953E+01   1.0746E-05  0.0079
   4.1953E+01   4.2973E+01   9.9013E-06  0.0081
   4.2973E+01   4.4019E+01   9.0075E-06  0.0084
   4.4019E+01   4.5090E+01   8.2196E-06  0.0087
   4.5090E+01   4.6187E+01   7.4149E-06  0.0091
   4.6187E+01   4.7311E+01   6.8324E-06  0.0093
   4.7311E+01   4.8462E+01   6.1477E-06  0.0097
   4.8462E+01   4.9641E+01   5.6325E-06  0.0100
   4.9641E+01   5.0849E+01   5.2034E-06  0.0103
   5.0849E+01   5.2086E+01   4.6627E-06  0.0108
   5.2086E+01   5.3353E+01   4.2931E-06  0.0111
   5.3353E+01   5.4651E+01   3.8753E-06  0.0115
   5.4651E+01   5.5981E+01   3.6309E-06  0.0118
   5.5981E+01   5.7343E+01   3.2793E-06  0.0122
   5.7343E+01   5.8738E+01   2.8961E-06  0.0128
   5.8738E+01   6.0168E+01   2.7102E-06  0.0131
   6.0168E+01   6.1632E+01   2.5001E-06  0.0135
   6.1632E+01   6.3131E+01   2.3060E-06  0.0139
   6.3131E+01   6.4667E+01   2.1410E-06  0.0142
   6.4667E+01   6.6240E+01   1.9834E-06  0.0146
   6.6240E+01   6.7852E+01   1.6786E-06  0.0157
   6.7852E+01   6.9503E+01   1.3956E-06  0.0170
   6.9503E+01   7.1194E+01   1.0979E-06  0.0189
   7.1194E+01   7.2926E+01   8.4824E-07  0.0213
   7.2926E+01   7.4701E+01   6.2934E-07  0.0244
   7.4701E+01   7.6518E+01   4.0091E-07  0.0302
   7.6518E+01   7.8380E+01   1.7797E-07  0.0449
   7.8380E+01   8.0287E+01   5.1039E-08  0.0828
   8.0287E+01   8.2240E+01   1.7064E-09  0.4472
   8.2240E+01   8.4241E+01   0.0000E+00  0.0000
   8.4241E+01   8.6291E+01   0.0000E+00  0.0000
   8.6291E+01   8.8391E+01   0.0000E+00  0.0000
   8.8391E+01   9.0541E+01   0.0000E+00  0.0000
   9.0541E+01   9.2744E+01   0.0000E+00  0.0000
   9.2744E+01   9.5001E+01   0.0000E+00  0.0000
   9.5001E+01   9.7312E+01   0.0000E+00  0.0000
   9.7312E+01   9.9680E+01   0.0000E+00  0.0000
   9.9680E+01   1.0211E+02   0.0000E+00  0.0000
   1.0211E+02   1.0459E+02   0.0000E+00  0.0000
   1.0459E+02   1.0713E+02   0.0000E+00  0.0000
   1.0713E+02   1.0974E+02   0.0000E+00  0.0000
   1.0974E+02   1.1241E+02   0.0000E+00  0.0000
   1.1241E+02   1.1515E+02   0.0000E+00  0.0000
   1.1515E+02   1.1795E+02   0.0000E+00  0.0000
   1.1795E+02   1.2082E+02   0.0000E+00  0.0000
   1.2082E+02   1.2376E+02   0.0000E+00  0.0000
   1.2376E+02   1.2677E+02   0.0000E+00  0.0000
   1.2677E+02   1.2985E+02   0.0000E+00  0.0000
   1.2985E+02   1.3301E+02   0.0000E+00  0.0000
   1.3301E+02   1.3625E+02   0.0000E+00  0.0000
   1.3625E+02   1.3956E+02   0.0000E+00  0.0000
   1.3956E+02   1.4296E+02   0.0000E+00  0.0000
   1.4296E+02   1.4644E+02   0.0000E+00  0.0000
   1.4644E+02   1.5000E+02   0.0000E+00  0.0000

#   sum over                 3.5380E-05
'no. =    1   reg = 109 - 209'
msuc: {\huge [t-cross] in region mesh}
msdr: {\it plotted by \ANGEL \version}
msdl: {\it calculated by \PHITS  3.26}
wt: s(0.7)
\vspace{-3}
  region surface crossing
  area  &=&   1.0000E+00 [cm^2]
e:
 
# Information for Restart Calculation
# This calculation was newly started
# istdev =  2 # 1:Batch variance, 2:History variance
# resc2  = 1.50000000000000000E+09 # Total source weight or Total source weight / maxcas
# resc3  = 1.50000000000000000E+09 # Total history number or Total batch number
# maxcas =   500000000 # History / Batch, only used for istdev=1
# bitrseed = 0000010101110101110110100110011001100101000001100111100100101101 # bit data of rseed
