[ T-Cross ]
    title = [t-cross] in region mesh
     mesh =  reg            # mesh type is region-wise
      reg =    1            # number of crossing regions
      non     r-from    r-to       area
      1       111       211        1.000000    
   e-type =    3            # e-mesh is log given by emin, emax and ne
     emin =  1.0000000E-02  # minimum value of e-mesh points
     emax =   150.0000      # maximum value of e-mesh points
#    edel =  2.4039514E-02  # mesh width of e-mesh points
       ne =    400          # number of e-mesh points
#    data = ( e(i), i = 1, ne + 1 )
#           1.00000E-02  1.02433E-02  1.04925E-02  1.07478E-02  1.10093E-02
#           1.12772E-02  1.15516E-02  1.18326E-02  1.21205E-02  1.24154E-02
#           1.27175E-02  1.30269E-02  1.33439E-02  1.36686E-02  1.40011E-02
#           1.43418E-02  1.46907E-02  1.50482E-02  1.54143E-02  1.57894E-02
#           1.61735E-02  1.65670E-02  1.69701E-02  1.73830E-02  1.78060E-02
#           1.82392E-02  1.86830E-02  1.91375E-02  1.96032E-02  2.00801E-02
#           2.05687E-02  2.10692E-02  2.15818E-02  2.21069E-02  2.26448E-02
#           2.31957E-02  2.37601E-02  2.43382E-02  2.49304E-02  2.55369E-02
#           2.61583E-02  2.67947E-02  2.74467E-02  2.81145E-02  2.87985E-02
#           2.94992E-02  3.02169E-02  3.09521E-02  3.17052E-02  3.24766E-02
#           3.32668E-02  3.40762E-02  3.49053E-02  3.57546E-02  3.66246E-02
#           3.75157E-02  3.84284E-02  3.93634E-02  4.03212E-02  4.13022E-02
#           4.23071E-02  4.33365E-02  4.43909E-02  4.54710E-02  4.65773E-02
#           4.77106E-02  4.88714E-02  5.00605E-02  5.12785E-02  5.25262E-02
#           5.38042E-02  5.51133E-02  5.64542E-02  5.78278E-02  5.92348E-02
#           6.06760E-02  6.21523E-02  6.36645E-02  6.52135E-02  6.68002E-02
#           6.84255E-02  7.00904E-02  7.17957E-02  7.35426E-02  7.53319E-02
#           7.71648E-02  7.90423E-02  8.09655E-02  8.29354E-02  8.49533E-02
#           8.70203E-02  8.91376E-02  9.13064E-02  9.35279E-02  9.58035E-02
#           9.81345E-02  1.00522E-01  1.02968E-01  1.05473E-01  1.08040E-01
#           1.10668E-01  1.13361E-01  1.16119E-01  1.18944E-01  1.21838E-01
#           1.24803E-01  1.27839E-01  1.30950E-01  1.34136E-01  1.37399E-01
#           1.40742E-01  1.44167E-01  1.47675E-01  1.51268E-01  1.54948E-01
#           1.58718E-01  1.62580E-01  1.66535E-01  1.70587E-01  1.74738E-01
#           1.78989E-01  1.83344E-01  1.87805E-01  1.92375E-01  1.97055E-01
#           2.01850E-01  2.06761E-01  2.11792E-01  2.16945E-01  2.22223E-01
#           2.27630E-01  2.33169E-01  2.38842E-01  2.44653E-01  2.50605E-01
#           2.56703E-01  2.62949E-01  2.69346E-01  2.75900E-01  2.82613E-01
#           2.89489E-01  2.96532E-01  3.03747E-01  3.11138E-01  3.18708E-01
#           3.26462E-01  3.34405E-01  3.42542E-01  3.50876E-01  3.59413E-01
#           3.68158E-01  3.77116E-01  3.86291E-01  3.95690E-01  4.05317E-01
#           4.15179E-01  4.25281E-01  4.35628E-01  4.46227E-01  4.57084E-01
#           4.68205E-01  4.79597E-01  4.91266E-01  5.03219E-01  5.15463E-01
#           5.28005E-01  5.40851E-01  5.54011E-01  5.67490E-01  5.81298E-01
#           5.95441E-01  6.09929E-01  6.24769E-01  6.39970E-01  6.55541E-01
#           6.71491E-01  6.87828E-01  7.04564E-01  7.21706E-01  7.39266E-01
#           7.57253E-01  7.75678E-01  7.94551E-01  8.13883E-01  8.33685E-01
#           8.53969E-01  8.74747E-01  8.96030E-01  9.17831E-01  9.40163E-01
#           9.63038E-01  9.86469E-01  1.01047E+00  1.03506E+00  1.06024E+00
#           1.08604E+00  1.11246E+00  1.13953E+00  1.16725E+00  1.19565E+00
#           1.22474E+00  1.25454E+00  1.28507E+00  1.31633E+00  1.34836E+00
#           1.38117E+00  1.41477E+00  1.44920E+00  1.48446E+00  1.52057E+00
#           1.55757E+00  1.59547E+00  1.63429E+00  1.67405E+00  1.71478E+00
#           1.75650E+00  1.79924E+00  1.84302E+00  1.88786E+00  1.93379E+00
#           1.98084E+00  2.02904E+00  2.07841E+00  2.12898E+00  2.18078E+00
#           2.23384E+00  2.28819E+00  2.34386E+00  2.40089E+00  2.45930E+00
#           2.51914E+00  2.58043E+00  2.64322E+00  2.70753E+00  2.77341E+00
#           2.84088E+00  2.91001E+00  2.98081E+00  3.05333E+00  3.12762E+00
#           3.20372E+00  3.28167E+00  3.36152E+00  3.44330E+00  3.52708E+00
#           3.61290E+00  3.70080E+00  3.79085E+00  3.88308E+00  3.97756E+00
#           4.07434E+00  4.17347E+00  4.27501E+00  4.37903E+00  4.48557E+00
#           4.59471E+00  4.70650E+00  4.82102E+00  4.93832E+00  5.05847E+00
#           5.18155E+00  5.30762E+00  5.43676E+00  5.56904E+00  5.70453E+00
#           5.84333E+00  5.98550E+00  6.13114E+00  6.28031E+00  6.43312E+00
#           6.58964E+00  6.74997E+00  6.91420E+00  7.08243E+00  7.25475E+00
#           7.43126E+00  7.61207E+00  7.79728E+00  7.98700E+00  8.18133E+00
#           8.38038E+00  8.58428E+00  8.79315E+00  9.00709E+00  9.22624E+00
#           9.45072E+00  9.68067E+00  9.91620E+00  1.01575E+01  1.04046E+01
#           1.06578E+01  1.09171E+01  1.11827E+01  1.14548E+01  1.17335E+01
#           1.20190E+01  1.23114E+01  1.26109E+01  1.29178E+01  1.32321E+01
#           1.35540E+01  1.38838E+01  1.42216E+01  1.45676E+01  1.49221E+01
#           1.52851E+01  1.56570E+01  1.60380E+01  1.64282E+01  1.68279E+01
#           1.72374E+01  1.76568E+01  1.80864E+01  1.85264E+01  1.89772E+01
#           1.94389E+01  1.99119E+01  2.03963E+01  2.08926E+01  2.14009E+01
#           2.19216E+01  2.24550E+01  2.30014E+01  2.35610E+01  2.41343E+01
#           2.47215E+01  2.53230E+01  2.59391E+01  2.65702E+01  2.72167E+01
#           2.78789E+01  2.85572E+01  2.92520E+01  2.99637E+01  3.06928E+01
#           3.14396E+01  3.22045E+01  3.29881E+01  3.37907E+01  3.46128E+01
#           3.54550E+01  3.63177E+01  3.72013E+01  3.81064E+01  3.90336E+01
#           3.99833E+01  4.09561E+01  4.19526E+01  4.29734E+01  4.40189E+01
#           4.50900E+01  4.61870E+01  4.73108E+01  4.84619E+01  4.96410E+01
#           5.08488E+01  5.20860E+01  5.33533E+01  5.46514E+01  5.59812E+01
#           5.73432E+01  5.87384E+01  6.01676E+01  6.16315E+01  6.31311E+01
#           6.46671E+01  6.62405E+01  6.78522E+01  6.95031E+01  7.11941E+01
#           7.29263E+01  7.47007E+01  7.65182E+01  7.83800E+01  8.02870E+01
#           8.22405E+01  8.42414E+01  8.62911E+01  8.83906E+01  9.05412E+01
#           9.27442E+01  9.50007E+01  9.73122E+01  9.96799E+01  1.02105E+02
#           1.04589E+02  1.07134E+02  1.09741E+02  1.12411E+02  1.15146E+02
#           1.17948E+02  1.20817E+02  1.23757E+02  1.26768E+02  1.29852E+02
#           1.33012E+02  1.36248E+02  1.39563E+02  1.42959E+02  1.46437E+02
#           1.50000E+02
     unit =    2            # unit is [1/cm^2/(MeV/n)/source]
     axis =  eng            # axis of output
     file = detector-12.out  # file name of output for the above axis
   output = f-curr          # surface crossing forward current spectrum
     part =  neutron  
# kf/name :  2112     
#    used :        main (  %)        temp (  %)       total (  %)
#  memory :         414 (  0)           0 (  0)         414 (  0)

#------------------------------------------------------------------------------
#newpage:
#   no. =    1   reg = 111 - 211

x: Energy [MeV/n]
y:  F-Curr [1/cm^2/(MeV/n)/source]         
p: xlog ylog afac(0.8) form(0.9)
h: n            x            y(neutron ),hh0l   n 
#  e-lower      e-upper      neutron     r.err 
   1.0000E-02   1.0243E-02   3.3475E-05  0.1563
   1.0243E-02   1.0493E-02   3.2269E-05  0.1565
   1.0493E-02   1.0748E-02   1.8759E-05  0.2041
   1.0748E-02   1.1009E-02   2.9374E-05  0.1603
   1.1009E-02   1.1277E-02   2.5188E-05  0.1716
   1.1277E-02   1.1552E-02   2.6087E-05  0.1667
   1.1552E-02   1.1833E-02   2.9294E-05  0.1547
   1.1833E-02   1.2121E-02   1.7899E-05  0.1962
   1.2121E-02   1.2415E-02   1.0805E-05  0.2469
   1.2415E-02   1.2718E-02   1.9929E-05  0.1816
   1.2718E-02   1.3027E-02   2.4486E-05  0.1622
   1.3027E-02   1.3344E-02   2.1224E-05  0.1716
   1.3344E-02   1.3669E-02   2.0298E-05  0.1741
   1.3669E-02   1.4001E-02   1.9697E-05  0.1742
   1.4001E-02   1.4342E-02   2.2553E-05  0.1603
   1.4342E-02   1.4691E-02   1.8263E-05  0.1748
   1.4691E-02   1.5048E-02   1.9197E-05  0.1695
   1.5048E-02   1.5414E-02   1.3896E-05  0.1964
   1.5414E-02   1.5789E-02   1.8363E-05  0.1692
   1.5789E-02   1.6174E-02   2.1260E-05  0.1554
   1.6174E-02   1.6567E-02   1.6747E-05  0.1741
   1.6567E-02   1.6970E-02   1.8502E-05  0.1626
   1.6970E-02   1.7383E-02   1.8293E-05  0.1623
   1.7383E-02   1.7806E-02   2.1537E-05  0.1476
   1.7806E-02   1.8239E-02   1.5655E-05  0.1708
   1.8239E-02   1.8683E-02   1.9218E-05  0.1526
   1.8683E-02   1.9138E-02   1.2247E-05  0.1890
   1.9138E-02   1.9603E-02   2.0837E-05  0.1430
   1.9603E-02   2.0080E-02   9.0899E-06  0.2134
   2.0080E-02   2.0569E-02   1.5894E-05  0.1595
   2.0569E-02   2.1069E-02   1.1818E-05  0.1827
   2.1069E-02   2.1582E-02   1.1294E-05  0.1857
   2.1582E-02   2.2107E-02   1.4444E-05  0.1622
   2.2107E-02   2.2645E-02   1.7454E-05  0.1459
   2.2645E-02   2.3196E-02   1.3418E-05  0.1638
   2.3196E-02   2.3760E-02   1.2290E-05  0.1691
   2.3760E-02   2.4338E-02   1.5191E-05  0.1508
   2.4338E-02   2.4930E-02   1.3107E-05  0.1602
   2.4930E-02   2.5537E-02   1.5801E-05  0.1443
   2.5537E-02   2.6158E-02   1.2918E-05  0.1567
   2.6158E-02   2.6795E-02   1.0301E-05  0.1741
   2.6795E-02   2.7447E-02   1.4652E-05  0.1444
   2.7447E-02   2.8114E-02   1.0065E-05  0.1710
   2.8114E-02   2.8799E-02   9.7906E-06  0.1719
   2.8799E-02   2.9499E-02   1.2074E-05  0.1528
   2.9499E-02   3.0217E-02   8.4554E-06  0.1799
   3.0217E-02   3.0952E-02   8.1507E-06  0.1826
   3.0952E-02   3.1705E-02   8.5254E-06  0.1759
   3.1705E-02   3.2477E-02   1.1799E-05  0.1475
   3.2477E-02   3.3267E-02   9.2903E-06  0.1645
   3.3267E-02   3.4076E-02   9.8838E-06  0.1575
   3.4076E-02   3.4905E-02   8.6724E-06  0.1667
   3.4905E-02   3.5755E-02   8.2044E-06  0.1690
   3.5755E-02   3.6625E-02   6.4292E-06  0.1890
   3.6625E-02   3.7516E-02   8.6083E-06  0.1604
   3.7516E-02   3.8428E-02   8.2675E-06  0.1623
   3.8428E-02   3.9363E-02   8.6885E-06  0.1564
   3.9363E-02   4.0321E-02   9.4808E-06  0.1477
   4.0321E-02   4.1302E-02   6.7833E-06  0.1720
   4.1302E-02   4.2307E-02   7.1797E-06  0.1651
   4.2307E-02   4.3337E-02   7.1332E-06  0.1645
   4.3337E-02   4.4391E-02   8.6742E-06  0.1475
   4.4391E-02   4.5471E-02   6.9887E-06  0.1623
   4.5471E-02   4.6577E-02   5.5494E-06  0.1797
   4.6577E-02   4.7711E-02   5.9330E-06  0.1716
   4.7711E-02   4.8871E-02   6.3621E-06  0.1644
   4.8871E-02   5.0061E-02   7.0449E-06  0.1543
   5.0061E-02   5.1279E-02   5.4097E-06  0.1741
   5.1279E-02   5.2526E-02   5.2238E-06  0.1743
   5.2526E-02   5.3804E-02   7.4514E-06  0.1445
   5.3804E-02   5.5113E-02   6.2220E-06  0.1562
   5.5113E-02   5.6454E-02   5.7074E-06  0.1606
   5.6454E-02   5.7828E-02   5.5235E-06  0.1622
   5.7828E-02   5.9235E-02   5.2454E-06  0.1644
   5.9235E-02   6.0676E-02   6.7693E-06  0.1429
   6.0676E-02   6.2152E-02   6.1011E-06  0.1484
   6.2152E-02   6.3665E-02   6.8147E-06  0.1388
   6.3665E-02   6.5214E-02   5.0252E-06  0.1595
   6.5214E-02   6.6800E-02   5.0114E-06  0.1582
   6.6800E-02   6.8426E-02   4.8918E-06  0.1582
   6.8426E-02   7.0090E-02   4.8498E-06  0.1565
   7.0090E-02   7.1796E-02   4.7401E-06  0.1565
   7.1796E-02   7.3543E-02   4.8161E-06  0.1529
   7.3543E-02   7.5332E-02   5.1235E-06  0.1475
   7.5332E-02   7.7165E-02   5.4177E-06  0.1415
   7.7165E-02   7.9042E-02   4.8675E-06  0.1470
   7.9042E-02   8.0965E-02   5.5544E-06  0.1362
   8.0965E-02   8.2935E-02   6.2499E-06  0.1270
   8.2935E-02   8.4953E-02   5.7323E-06  0.1313
   8.4953E-02   8.7020E-02   5.0932E-06  0.1374
   8.7020E-02   8.9138E-02   5.3516E-06  0.1325
   8.9138E-02   9.1306E-02   4.2921E-06  0.1460
   9.1306E-02   9.3528E-02   3.9918E-06  0.1494
   9.3528E-02   9.5804E-02   3.8537E-06  0.1508
   9.5804E-02   9.8134E-02   4.2504E-06  0.1415
   9.8134E-02   1.0052E-01   5.0861E-06  0.1277
   1.0052E-01   1.0297E-01   4.7022E-06  0.1314
   1.0297E-01   1.0547E-01   4.4464E-06  0.1336
   1.0547E-01   1.0804E-01   5.2518E-06  0.1212
   1.0804E-01   1.1067E-01   5.3887E-06  0.1181
   1.1067E-01   1.1336E-01   5.7932E-06  0.1127
   1.1336E-01   1.1612E-01   4.4328E-06  0.1271
   1.1612E-01   1.1894E-01   6.0776E-06  0.1075
   1.1894E-01   1.2184E-01   6.1908E-06  0.1052
   1.2184E-01   1.2480E-01   5.9505E-06  0.1059
   1.2480E-01   1.2784E-01   6.0929E-06  0.1033
   1.2784E-01   1.3095E-01   7.3815E-06  0.0930
   1.3095E-01   1.3414E-01   8.1310E-06  0.0877
   1.3414E-01   1.3740E-01   7.1853E-06  0.0921
   1.3740E-01   1.4074E-01   8.1637E-06  0.0853
   1.4074E-01   1.4417E-01   8.8621E-06  0.0808
   1.4417E-01   1.4767E-01   8.8458E-06  0.0800
   1.4767E-01   1.5127E-01   9.6865E-06  0.0756
   1.5127E-01   1.5495E-01   9.1422E-06  0.0769
   1.5495E-01   1.5872E-01   9.6908E-06  0.0738
   1.5872E-01   1.6258E-01   1.0332E-05  0.0705
   1.6258E-01   1.6654E-01   1.1545E-05  0.0659
   1.6654E-01   1.7059E-01   1.1749E-05  0.0646
   1.7059E-01   1.7474E-01   1.2047E-05  0.0631
   1.7474E-01   1.7899E-01   1.3028E-05  0.0598
   1.7899E-01   1.8334E-01   1.2675E-05  0.0600
   1.8334E-01   1.8781E-01   1.5069E-05  0.0544
   1.8781E-01   1.9237E-01   1.3857E-05  0.0561
   1.9237E-01   1.9706E-01   1.5364E-05  0.0526
   1.9706E-01   2.0185E-01   1.6604E-05  0.0500
   2.0185E-01   2.0676E-01   1.6921E-05  0.0489
   2.0676E-01   2.1179E-01   1.6689E-05  0.0486
   2.1179E-01   2.1694E-01   1.6464E-05  0.0484
   2.1694E-01   2.2222E-01   2.0728E-05  0.0427
   2.2222E-01   2.2763E-01   2.0030E-05  0.0428
   2.2763E-01   2.3317E-01   2.1301E-05  0.0411
   2.3317E-01   2.3884E-01   2.2197E-05  0.0397
   2.3884E-01   2.4465E-01   2.2748E-05  0.0388
   2.4465E-01   2.5061E-01   2.4474E-05  0.0369
   2.5061E-01   2.5670E-01   2.6095E-05  0.0354
   2.5670E-01   2.6295E-01   2.8333E-05  0.0335
   2.6295E-01   2.6935E-01   2.8073E-05  0.0333
   2.6935E-01   2.7590E-01   2.9024E-05  0.0323
   2.7590E-01   2.8261E-01   3.1406E-05  0.0307
   2.8261E-01   2.8949E-01   3.1099E-05  0.0305
   2.8949E-01   2.9653E-01   3.2585E-05  0.0294
   2.9653E-01   3.0375E-01   3.5081E-05  0.0280
   3.0375E-01   3.1114E-01   3.6065E-05  0.0273
   3.1114E-01   3.1871E-01   3.7437E-05  0.0265
   3.1871E-01   3.2646E-01   3.8767E-05  0.0257
   3.2646E-01   3.3441E-01   4.1624E-05  0.0245
   3.3441E-01   3.4254E-01   4.2912E-05  0.0239
   3.4254E-01   3.5088E-01   4.5615E-05  0.0229
   3.5088E-01   3.5941E-01   4.5944E-05  0.0225
   3.5941E-01   3.6816E-01   4.8793E-05  0.0216
   3.6816E-01   3.7712E-01   4.8366E-05  0.0214
   3.7712E-01   3.8629E-01   5.3064E-05  0.0202
   3.8629E-01   3.9569E-01   5.4311E-05  0.0197
   3.9569E-01   4.0532E-01   5.4570E-05  0.0195
   4.0532E-01   4.1518E-01   5.6433E-05  0.0189
   4.1518E-01   4.2528E-01   5.7525E-05  0.0185
   4.2528E-01   4.3563E-01   6.0707E-05  0.0178
   4.3563E-01   4.4623E-01   6.0622E-05  0.0176
   4.4623E-01   4.5708E-01   6.2628E-05  0.0171
   4.5708E-01   4.6821E-01   6.2272E-05  0.0169
   4.6821E-01   4.7960E-01   6.4509E-05  0.0164
   4.7960E-01   4.9127E-01   6.7457E-05  0.0159
   4.9127E-01   5.0322E-01   6.9447E-05  0.0155
   5.0322E-01   5.1546E-01   7.0871E-05  0.0151
   5.1546E-01   5.2800E-01   7.1302E-05  0.0149
   5.2800E-01   5.4085E-01   7.2838E-05  0.0146
   5.4085E-01   5.5401E-01   7.5305E-05  0.0142
   5.5401E-01   5.6749E-01   7.6900E-05  0.0138
   5.6749E-01   5.8130E-01   7.7945E-05  0.0136
   5.8130E-01   5.9544E-01   8.0056E-05  0.0133
   5.9544E-01   6.0993E-01   8.0398E-05  0.0131
   6.0993E-01   6.2477E-01   8.1650E-05  0.0128
   6.2477E-01   6.3997E-01   8.4148E-05  0.0125
   6.3997E-01   6.5554E-01   8.5045E-05  0.0123
   6.5554E-01   6.7149E-01   8.6388E-05  0.0120
   6.7149E-01   6.8783E-01   8.4701E-05  0.0120
   6.8783E-01   7.0456E-01   8.7213E-05  0.0117
   7.0456E-01   7.2171E-01   8.6020E-05  0.0116
   7.2171E-01   7.3927E-01   8.9418E-05  0.0112
   7.3927E-01   7.5725E-01   8.9116E-05  0.0111
   7.5725E-01   7.7568E-01   8.9616E-05  0.0110
   7.7568E-01   7.9455E-01   8.9613E-05  0.0108
   7.9455E-01   8.1388E-01   9.0819E-05  0.0106
   8.1388E-01   8.3368E-01   8.8818E-05  0.0106
   8.3368E-01   8.5397E-01   9.2255E-05  0.0103
   8.5397E-01   8.7475E-01   9.0571E-05  0.0103
   8.7475E-01   8.9603E-01   9.0959E-05  0.0101
   8.9603E-01   9.1783E-01   9.1684E-05  0.0100
   9.1783E-01   9.4016E-01   8.9872E-05  0.0099
   9.4016E-01   9.6304E-01   8.9440E-05  0.0098
   9.6304E-01   9.8647E-01   8.9130E-05  0.0097
   9.8647E-01   1.0105E+00   8.9629E-05  0.0096
   1.0105E+00   1.0351E+00   8.9232E-05  0.0095
   1.0351E+00   1.0602E+00   8.8062E-05  0.0095
   1.0602E+00   1.0860E+00   8.7731E-05  0.0094
   1.0860E+00   1.1125E+00   8.9560E-05  0.0091
   1.1125E+00   1.1395E+00   8.9039E-05  0.0091
   1.1395E+00   1.1673E+00   8.9257E-05  0.0089
   1.1673E+00   1.1957E+00   8.9431E-05  0.0088
   1.1957E+00   1.2247E+00   8.9322E-05  0.0087
   1.2247E+00   1.2545E+00   8.9576E-05  0.0086
   1.2545E+00   1.2851E+00   8.9599E-05  0.0085
   1.2851E+00   1.3163E+00   8.9347E-05  0.0084
   1.3163E+00   1.3484E+00   9.0772E-05  0.0082
   1.3484E+00   1.3812E+00   9.0347E-05  0.0081
   1.3812E+00   1.4148E+00   9.1970E-05  0.0080
   1.4148E+00   1.4492E+00   9.1078E-05  0.0079
   1.4492E+00   1.4845E+00   9.0534E-05  0.0078
   1.4845E+00   1.5206E+00   8.9670E-05  0.0078
   1.5206E+00   1.5576E+00   8.9711E-05  0.0077
   1.5576E+00   1.5955E+00   8.9247E-05  0.0076
   1.5955E+00   1.6343E+00   8.9460E-05  0.0075
   1.6343E+00   1.6741E+00   8.8608E-05  0.0074
   1.6741E+00   1.7148E+00   8.7236E-05  0.0074
   1.7148E+00   1.7565E+00   8.6642E-05  0.0073
   1.7565E+00   1.7992E+00   8.2485E-05  0.0074
   1.7992E+00   1.8430E+00   7.8460E-05  0.0075
   1.8430E+00   1.8879E+00   7.4010E-05  0.0076
   1.8879E+00   1.9338E+00   7.2943E-05  0.0075
   1.9338E+00   1.9808E+00   7.1237E-05  0.0075
   1.9808E+00   2.0290E+00   6.9947E-05  0.0075
   2.0290E+00   2.0784E+00   6.9151E-05  0.0074
   2.0784E+00   2.1290E+00   7.0218E-05  0.0073
   2.1290E+00   2.1808E+00   7.1264E-05  0.0071
   2.1808E+00   2.2338E+00   7.0712E-05  0.0071
   2.2338E+00   2.2882E+00   7.0849E-05  0.0070
   2.2882E+00   2.3439E+00   6.7738E-05  0.0071
   2.3439E+00   2.4009E+00   6.6856E-05  0.0070
   2.4009E+00   2.4593E+00   6.5613E-05  0.0070
   2.4593E+00   2.5191E+00   6.4272E-05  0.0070
   2.5191E+00   2.5804E+00   6.3601E-05  0.0070
   2.5804E+00   2.6432E+00   6.2277E-05  0.0070
   2.6432E+00   2.7075E+00   6.2761E-05  0.0069
   2.7075E+00   2.7734E+00   6.1073E-05  0.0069
   2.7734E+00   2.8409E+00   5.9758E-05  0.0069
   2.8409E+00   2.9100E+00   5.8797E-05  0.0068
   2.9100E+00   2.9808E+00   5.7873E-05  0.0068
   2.9808E+00   3.0533E+00   5.6784E-05  0.0068
   3.0533E+00   3.1276E+00   5.6065E-05  0.0068
   3.1276E+00   3.2037E+00   5.4349E-05  0.0068
   3.2037E+00   3.2817E+00   5.3900E-05  0.0067
   3.2817E+00   3.3615E+00   5.3234E-05  0.0067
   3.3615E+00   3.4433E+00   5.1654E-05  0.0067
   3.4433E+00   3.5271E+00   5.1573E-05  0.0067
   3.5271E+00   3.6129E+00   4.9946E-05  0.0067
   3.6129E+00   3.7008E+00   4.8393E-05  0.0067
   3.7008E+00   3.7908E+00   4.6808E-05  0.0067
   3.7908E+00   3.8831E+00   4.5433E-05  0.0068
   3.8831E+00   3.9776E+00   4.4510E-05  0.0068
   3.9776E+00   4.0743E+00   4.2471E-05  0.0068
   4.0743E+00   4.1735E+00   4.0762E-05  0.0069
   4.1735E+00   4.2750E+00   3.9537E-05  0.0069
   4.2750E+00   4.3790E+00   3.7940E-05  0.0070
   4.3790E+00   4.4856E+00   3.7011E-05  0.0070
   4.4856E+00   4.5947E+00   3.5313E-05  0.0070
   4.5947E+00   4.7065E+00   3.4848E-05  0.0070
   4.7065E+00   4.8210E+00   3.3729E-05  0.0070
   4.8210E+00   4.9383E+00   3.2588E-05  0.0071
   4.9383E+00   5.0585E+00   3.2222E-05  0.0070
   5.0585E+00   5.1815E+00   3.1991E-05  0.0070
   5.1815E+00   5.3076E+00   3.1375E-05  0.0070
   5.3076E+00   5.4368E+00   3.0380E-05  0.0070
   5.4368E+00   5.5690E+00   2.9535E-05  0.0070
   5.5690E+00   5.7045E+00   2.9178E-05  0.0070
   5.7045E+00   5.8433E+00   2.8474E-05  0.0070
   5.8433E+00   5.9855E+00   2.7982E-05  0.0070
   5.9855E+00   6.1311E+00   2.7488E-05  0.0069
   6.1311E+00   6.2803E+00   2.6679E-05  0.0070
   6.2803E+00   6.4331E+00   2.5737E-05  0.0070
   6.4331E+00   6.5896E+00   2.5286E-05  0.0070
   6.5896E+00   6.7500E+00   2.4650E-05  0.0070
   6.7500E+00   6.9142E+00   2.3659E-05  0.0071
   6.9142E+00   7.0824E+00   2.3011E-05  0.0071
   7.0824E+00   7.2548E+00   2.1901E-05  0.0072
   7.2548E+00   7.4313E+00   2.1319E-05  0.0072
   7.4313E+00   7.6121E+00   2.0708E-05  0.0072
   7.6121E+00   7.7973E+00   1.9583E-05  0.0073
   7.7973E+00   7.9870E+00   1.8628E-05  0.0074
   7.9870E+00   8.1813E+00   1.7973E-05  0.0075
   8.1813E+00   8.3804E+00   1.7083E-05  0.0076
   8.3804E+00   8.5843E+00   1.6091E-05  0.0077
   8.5843E+00   8.7931E+00   1.5275E-05  0.0078
   8.7931E+00   9.0071E+00   1.4263E-05  0.0080
   9.0071E+00   9.2262E+00   1.3653E-05  0.0081
   9.2262E+00   9.4507E+00   1.2721E-05  0.0083
   9.4507E+00   9.6807E+00   1.1622E-05  0.0086
   9.6807E+00   9.9162E+00   1.1065E-05  0.0087
   9.9162E+00   1.0157E+01   1.1079E-05  0.0086
   1.0157E+01   1.0405E+01   1.0272E-05  0.0089
   1.0405E+01   1.0658E+01   9.7270E-06  0.0090
   1.0658E+01   1.0917E+01   8.9299E-06  0.0093
   1.0917E+01   1.1183E+01   8.1745E-06  0.0096
   1.1183E+01   1.1455E+01   7.4779E-06  0.0099
   1.1455E+01   1.1733E+01   6.9354E-06  0.0102
   1.1733E+01   1.2019E+01   6.2904E-06  0.0105
   1.2019E+01   1.2311E+01   5.8210E-06  0.0108
   1.2311E+01   1.2611E+01   5.2249E-06  0.0113
   1.2611E+01   1.2918E+01   4.8242E-06  0.0116
   1.2918E+01   1.3232E+01   4.2281E-06  0.0123
   1.3232E+01   1.3554E+01   3.9104E-06  0.0126
   1.3554E+01   1.3884E+01   3.5406E-06  0.0131
   1.3884E+01   1.4222E+01   3.0637E-06  0.0139
   1.4222E+01   1.4568E+01   2.7405E-06  0.0145
   1.4568E+01   1.4922E+01   2.3455E-06  0.0155
   1.4922E+01   1.5285E+01   2.0570E-06  0.0164
   1.5285E+01   1.5657E+01   1.7912E-06  0.0173
   1.5657E+01   1.6038E+01   1.5229E-06  0.0186
   1.6038E+01   1.6428E+01   1.2274E-06  0.0204
   1.6428E+01   1.6828E+01   9.7399E-07  0.0227
   1.6828E+01   1.7237E+01   8.2421E-07  0.0243
   1.7237E+01   1.7657E+01   5.5046E-07  0.0294
   1.7657E+01   1.8086E+01   3.6746E-07  0.0356
   1.8086E+01   1.8526E+01   2.3861E-07  0.0436
   1.8526E+01   1.8977E+01   1.4597E-07  0.0551
   1.8977E+01   1.9439E+01   5.7176E-08  0.0870
   1.9439E+01   1.9912E+01   1.6915E-08  0.1581
   1.9912E+01   2.0396E+01   6.1923E-09  0.2582
   2.0396E+01   2.0893E+01   2.0151E-09  0.4472
   2.0893E+01   2.1401E+01   1.5738E-09  0.5000
   2.1401E+01   2.1922E+01   3.8410E-10  1.0000
   2.1922E+01   2.2455E+01   7.4995E-10  0.7071
   2.2455E+01   2.3001E+01   1.4643E-09  0.5000
   2.3001E+01   2.3561E+01   1.7869E-09  0.4472
   2.3561E+01   2.4134E+01   1.0466E-09  0.5774
   2.4134E+01   2.4721E+01   0.0000E+00  0.0000
   2.4721E+01   2.5323E+01   1.3300E-09  0.5000
   2.5323E+01   2.5939E+01   6.4922E-10  0.7071
   2.5939E+01   2.6570E+01   3.1690E-10  1.0000
   2.6570E+01   2.7217E+01   3.0937E-10  1.0000
   2.7217E+01   2.7879E+01   3.0202E-10  1.0000
   2.7879E+01   2.8557E+01   2.9485E-10  1.0000
   2.8557E+01   2.9252E+01   0.0000E+00  0.0000
   2.9252E+01   2.9964E+01   0.0000E+00  0.0000
   2.9964E+01   3.0693E+01   0.0000E+00  0.0000
   3.0693E+01   3.1440E+01   0.0000E+00  0.0000
   3.1440E+01   3.2205E+01   0.0000E+00  0.0000
   3.2205E+01   3.2988E+01   0.0000E+00  0.0000
   3.2988E+01   3.3791E+01   0.0000E+00  0.0000
   3.3791E+01   3.4613E+01   0.0000E+00  0.0000
   3.4613E+01   3.5455E+01   0.0000E+00  0.0000
   3.5455E+01   3.6318E+01   0.0000E+00  0.0000
   3.6318E+01   3.7201E+01   0.0000E+00  0.0000
   3.7201E+01   3.8106E+01   0.0000E+00  0.0000
   3.8106E+01   3.9034E+01   0.0000E+00  0.0000
   3.9034E+01   3.9983E+01   0.0000E+00  0.0000
   3.9983E+01   4.0956E+01   0.0000E+00  0.0000
   4.0956E+01   4.1953E+01   0.0000E+00  0.0000
   4.1953E+01   4.2973E+01   0.0000E+00  0.0000
   4.2973E+01   4.4019E+01   0.0000E+00  0.0000
   4.4019E+01   4.5090E+01   0.0000E+00  0.0000
   4.5090E+01   4.6187E+01   0.0000E+00  0.0000
   4.6187E+01   4.7311E+01   0.0000E+00  0.0000
   4.7311E+01   4.8462E+01   0.0000E+00  0.0000
   4.8462E+01   4.9641E+01   0.0000E+00  0.0000
   4.9641E+01   5.0849E+01   0.0000E+00  0.0000
   5.0849E+01   5.2086E+01   0.0000E+00  0.0000
   5.2086E+01   5.3353E+01   0.0000E+00  0.0000
   5.3353E+01   5.4651E+01   0.0000E+00  0.0000
   5.4651E+01   5.5981E+01   0.0000E+00  0.0000
   5.5981E+01   5.7343E+01   0.0000E+00  0.0000
   5.7343E+01   5.8738E+01   0.0000E+00  0.0000
   5.8738E+01   6.0168E+01   0.0000E+00  0.0000
   6.0168E+01   6.1632E+01   0.0000E+00  0.0000
   6.1632E+01   6.3131E+01   0.0000E+00  0.0000
   6.3131E+01   6.4667E+01   0.0000E+00  0.0000
   6.4667E+01   6.6240E+01   0.0000E+00  0.0000
   6.6240E+01   6.7852E+01   0.0000E+00  0.0000
   6.7852E+01   6.9503E+01   0.0000E+00  0.0000
   6.9503E+01   7.1194E+01   0.0000E+00  0.0000
   7.1194E+01   7.2926E+01   0.0000E+00  0.0000
   7.2926E+01   7.4701E+01   0.0000E+00  0.0000
   7.4701E+01   7.6518E+01   0.0000E+00  0.0000
   7.6518E+01   7.8380E+01   0.0000E+00  0.0000
   7.8380E+01   8.0287E+01   0.0000E+00  0.0000
   8.0287E+01   8.2240E+01   0.0000E+00  0.0000
   8.2240E+01   8.4241E+01   0.0000E+00  0.0000
   8.4241E+01   8.6291E+01   0.0000E+00  0.0000
   8.6291E+01   8.8391E+01   0.0000E+00  0.0000
   8.8391E+01   9.0541E+01   0.0000E+00  0.0000
   9.0541E+01   9.2744E+01   0.0000E+00  0.0000
   9.2744E+01   9.5001E+01   0.0000E+00  0.0000
   9.5001E+01   9.7312E+01   0.0000E+00  0.0000
   9.7312E+01   9.9680E+01   0.0000E+00  0.0000
   9.9680E+01   1.0211E+02   0.0000E+00  0.0000
   1.0211E+02   1.0459E+02   0.0000E+00  0.0000
   1.0459E+02   1.0713E+02   0.0000E+00  0.0000
   1.0713E+02   1.0974E+02   0.0000E+00  0.0000
   1.0974E+02   1.1241E+02   0.0000E+00  0.0000
   1.1241E+02   1.1515E+02   0.0000E+00  0.0000
   1.1515E+02   1.1795E+02   0.0000E+00  0.0000
   1.1795E+02   1.2082E+02   0.0000E+00  0.0000
   1.2082E+02   1.2376E+02   0.0000E+00  0.0000
   1.2376E+02   1.2677E+02   0.0000E+00  0.0000
   1.2677E+02   1.2985E+02   0.0000E+00  0.0000
   1.2985E+02   1.3301E+02   0.0000E+00  0.0000
   1.3301E+02   1.3625E+02   0.0000E+00  0.0000
   1.3625E+02   1.3956E+02   0.0000E+00  0.0000
   1.3956E+02   1.4296E+02   0.0000E+00  0.0000
   1.4296E+02   1.4644E+02   0.0000E+00  0.0000
   1.4644E+02   1.5000E+02   0.0000E+00  0.0000

#   sum over                 2.8770E-06
'no. =    1   reg = 111 - 211'
msuc: {\huge [t-cross] in region mesh}
msdr: {\it plotted by \ANGEL \version}
msdl: {\it calculated by \PHITS  3.26}
wt: s(0.7)
\vspace{-3}
  region surface crossing
  area  &=&   1.0000E+00 [cm^2]
e:
 
# Information for Restart Calculation
# This calculation was newly started
# istdev =  2 # 1:Batch variance, 2:History variance
# resc2  = 5.00000000000000000E+09 # Total source weight or Total source weight / maxcas
# resc3  = 5.00000000000000000E+09 # Total history number or Total batch number
# maxcas =   100000000 # History / Batch, only used for istdev=1
# bitrseed = 0110100000100010111000001110001111001110100100011111101000111001 # bit data of rseed
