[ T-Cross ]
    title = [t-cross] in region mesh
     mesh =  reg            # mesh type is region-wise
      reg =    1            # number of crossing regions
      non     r-from    r-to       area
      1       104       204        1.000000    
   e-type =    3            # e-mesh is log given by emin, emax and ne
     emin =  1.0000000E-02  # minimum value of e-mesh points
     emax =   150.0000      # maximum value of e-mesh points
#    edel =  2.4039514E-02  # mesh width of e-mesh points
       ne =    400          # number of e-mesh points
#    data = ( e(i), i = 1, ne + 1 )
#           1.00000E-02  1.02433E-02  1.04925E-02  1.07478E-02  1.10093E-02
#           1.12772E-02  1.15516E-02  1.18326E-02  1.21205E-02  1.24154E-02
#           1.27175E-02  1.30269E-02  1.33439E-02  1.36686E-02  1.40011E-02
#           1.43418E-02  1.46907E-02  1.50482E-02  1.54143E-02  1.57894E-02
#           1.61735E-02  1.65670E-02  1.69701E-02  1.73830E-02  1.78060E-02
#           1.82392E-02  1.86830E-02  1.91375E-02  1.96032E-02  2.00801E-02
#           2.05687E-02  2.10692E-02  2.15818E-02  2.21069E-02  2.26448E-02
#           2.31957E-02  2.37601E-02  2.43382E-02  2.49304E-02  2.55369E-02
#           2.61583E-02  2.67947E-02  2.74467E-02  2.81145E-02  2.87985E-02
#           2.94992E-02  3.02169E-02  3.09521E-02  3.17052E-02  3.24766E-02
#           3.32668E-02  3.40762E-02  3.49053E-02  3.57546E-02  3.66246E-02
#           3.75157E-02  3.84284E-02  3.93634E-02  4.03212E-02  4.13022E-02
#           4.23071E-02  4.33365E-02  4.43909E-02  4.54710E-02  4.65773E-02
#           4.77106E-02  4.88714E-02  5.00605E-02  5.12785E-02  5.25262E-02
#           5.38042E-02  5.51133E-02  5.64542E-02  5.78278E-02  5.92348E-02
#           6.06760E-02  6.21523E-02  6.36645E-02  6.52135E-02  6.68002E-02
#           6.84255E-02  7.00904E-02  7.17957E-02  7.35426E-02  7.53319E-02
#           7.71648E-02  7.90423E-02  8.09655E-02  8.29354E-02  8.49533E-02
#           8.70203E-02  8.91376E-02  9.13064E-02  9.35279E-02  9.58035E-02
#           9.81345E-02  1.00522E-01  1.02968E-01  1.05473E-01  1.08040E-01
#           1.10668E-01  1.13361E-01  1.16119E-01  1.18944E-01  1.21838E-01
#           1.24803E-01  1.27839E-01  1.30950E-01  1.34136E-01  1.37399E-01
#           1.40742E-01  1.44167E-01  1.47675E-01  1.51268E-01  1.54948E-01
#           1.58718E-01  1.62580E-01  1.66535E-01  1.70587E-01  1.74738E-01
#           1.78989E-01  1.83344E-01  1.87805E-01  1.92375E-01  1.97055E-01
#           2.01850E-01  2.06761E-01  2.11792E-01  2.16945E-01  2.22223E-01
#           2.27630E-01  2.33169E-01  2.38842E-01  2.44653E-01  2.50605E-01
#           2.56703E-01  2.62949E-01  2.69346E-01  2.75900E-01  2.82613E-01
#           2.89489E-01  2.96532E-01  3.03747E-01  3.11138E-01  3.18708E-01
#           3.26462E-01  3.34405E-01  3.42542E-01  3.50876E-01  3.59413E-01
#           3.68158E-01  3.77116E-01  3.86291E-01  3.95690E-01  4.05317E-01
#           4.15179E-01  4.25281E-01  4.35628E-01  4.46227E-01  4.57084E-01
#           4.68205E-01  4.79597E-01  4.91266E-01  5.03219E-01  5.15463E-01
#           5.28005E-01  5.40851E-01  5.54011E-01  5.67490E-01  5.81298E-01
#           5.95441E-01  6.09929E-01  6.24769E-01  6.39970E-01  6.55541E-01
#           6.71491E-01  6.87828E-01  7.04564E-01  7.21706E-01  7.39266E-01
#           7.57253E-01  7.75678E-01  7.94551E-01  8.13883E-01  8.33685E-01
#           8.53969E-01  8.74747E-01  8.96030E-01  9.17831E-01  9.40163E-01
#           9.63038E-01  9.86469E-01  1.01047E+00  1.03506E+00  1.06024E+00
#           1.08604E+00  1.11246E+00  1.13953E+00  1.16725E+00  1.19565E+00
#           1.22474E+00  1.25454E+00  1.28507E+00  1.31633E+00  1.34836E+00
#           1.38117E+00  1.41477E+00  1.44920E+00  1.48446E+00  1.52057E+00
#           1.55757E+00  1.59547E+00  1.63429E+00  1.67405E+00  1.71478E+00
#           1.75650E+00  1.79924E+00  1.84302E+00  1.88786E+00  1.93379E+00
#           1.98084E+00  2.02904E+00  2.07841E+00  2.12898E+00  2.18078E+00
#           2.23384E+00  2.28819E+00  2.34386E+00  2.40089E+00  2.45930E+00
#           2.51914E+00  2.58043E+00  2.64322E+00  2.70753E+00  2.77341E+00
#           2.84088E+00  2.91001E+00  2.98081E+00  3.05333E+00  3.12762E+00
#           3.20372E+00  3.28167E+00  3.36152E+00  3.44330E+00  3.52708E+00
#           3.61290E+00  3.70080E+00  3.79085E+00  3.88308E+00  3.97756E+00
#           4.07434E+00  4.17347E+00  4.27501E+00  4.37903E+00  4.48557E+00
#           4.59471E+00  4.70650E+00  4.82102E+00  4.93832E+00  5.05847E+00
#           5.18155E+00  5.30762E+00  5.43676E+00  5.56904E+00  5.70453E+00
#           5.84333E+00  5.98550E+00  6.13114E+00  6.28031E+00  6.43312E+00
#           6.58964E+00  6.74997E+00  6.91420E+00  7.08243E+00  7.25475E+00
#           7.43126E+00  7.61207E+00  7.79728E+00  7.98700E+00  8.18133E+00
#           8.38038E+00  8.58428E+00  8.79315E+00  9.00709E+00  9.22624E+00
#           9.45072E+00  9.68067E+00  9.91620E+00  1.01575E+01  1.04046E+01
#           1.06578E+01  1.09171E+01  1.11827E+01  1.14548E+01  1.17335E+01
#           1.20190E+01  1.23114E+01  1.26109E+01  1.29178E+01  1.32321E+01
#           1.35540E+01  1.38838E+01  1.42216E+01  1.45676E+01  1.49221E+01
#           1.52851E+01  1.56570E+01  1.60380E+01  1.64282E+01  1.68279E+01
#           1.72374E+01  1.76568E+01  1.80864E+01  1.85264E+01  1.89772E+01
#           1.94389E+01  1.99119E+01  2.03963E+01  2.08926E+01  2.14009E+01
#           2.19216E+01  2.24550E+01  2.30014E+01  2.35610E+01  2.41343E+01
#           2.47215E+01  2.53230E+01  2.59391E+01  2.65702E+01  2.72167E+01
#           2.78789E+01  2.85572E+01  2.92520E+01  2.99637E+01  3.06928E+01
#           3.14396E+01  3.22045E+01  3.29881E+01  3.37907E+01  3.46128E+01
#           3.54550E+01  3.63177E+01  3.72013E+01  3.81064E+01  3.90336E+01
#           3.99833E+01  4.09561E+01  4.19526E+01  4.29734E+01  4.40189E+01
#           4.50900E+01  4.61870E+01  4.73108E+01  4.84619E+01  4.96410E+01
#           5.08488E+01  5.20860E+01  5.33533E+01  5.46514E+01  5.59812E+01
#           5.73432E+01  5.87384E+01  6.01676E+01  6.16315E+01  6.31311E+01
#           6.46671E+01  6.62405E+01  6.78522E+01  6.95031E+01  7.11941E+01
#           7.29263E+01  7.47007E+01  7.65182E+01  7.83800E+01  8.02870E+01
#           8.22405E+01  8.42414E+01  8.62911E+01  8.83906E+01  9.05412E+01
#           9.27442E+01  9.50007E+01  9.73122E+01  9.96799E+01  1.02105E+02
#           1.04589E+02  1.07134E+02  1.09741E+02  1.12411E+02  1.15146E+02
#           1.17948E+02  1.20817E+02  1.23757E+02  1.26768E+02  1.29852E+02
#           1.33012E+02  1.36248E+02  1.39563E+02  1.42959E+02  1.46437E+02
#           1.50000E+02
     unit =    2            # unit is [1/cm^2/(MeV/n)/source]
     axis =  eng            # axis of output
     file = detector-05.out  # file name of output for the above axis
   output = f-curr          # surface crossing forward current spectrum
     part =  neutron  
# kf/name :  2112     
#    used :        main (  %)        temp (  %)       total (  %)
#  memory :         414 (  0)           0 (  0)         414 (  0)

#------------------------------------------------------------------------------
#newpage:
#   no. =    1   reg = 104 - 204

x: Energy [MeV/n]
y:  F-Curr [1/cm^2/(MeV/n)/source]         
p: xlog ylog afac(0.8) form(0.9)
h: n            x            y(neutron ),hh0l   n 
#  e-lower      e-upper      neutron     r.err 
   1.0000E-02   1.0243E-02   1.5618E-04  0.2294
   1.0243E-02   1.0493E-02   1.2037E-04  0.2582
   1.0493E-02   1.0748E-02   9.1355E-05  0.2880
   1.0748E-02   1.1009E-02   1.2237E-04  0.2500
   1.1009E-02   1.1277E-02   8.2131E-05  0.3015
   1.1277E-02   1.1552E-02   9.4758E-05  0.2774
   1.1552E-02   1.1833E-02   1.0674E-04  0.2582
   1.1833E-02   1.2121E-02   4.9770E-05  0.3700
   1.2121E-02   1.2415E-02   1.1529E-04  0.2425
   1.2415E-02   1.2718E-02   1.0593E-04  0.2500
   1.2718E-02   1.3027E-02   8.4026E-05  0.2774
   1.3027E-02   1.3344E-02   1.2103E-04  0.2275
   1.3344E-02   1.3669E-02   9.8562E-05  0.2500
   1.3669E-02   1.4001E-02   1.0224E-04  0.2425
   1.4001E-02   1.4342E-02   1.0084E-04  0.2403
   1.4342E-02   1.4691E-02   1.0890E-04  0.2294
   1.4691E-02   1.5048E-02   9.5931E-05  0.2406
   1.5048E-02   1.5414E-02   1.0925E-04  0.2236
   1.5414E-02   1.5789E-02   6.3993E-05  0.2887
   1.5789E-02   1.6174E-02   1.0672E-04  0.2195
   1.6174E-02   1.6567E-02   1.1690E-04  0.2085
   1.6567E-02   1.6970E-02   8.4349E-05  0.2425
   1.6970E-02   1.7383E-02   7.7501E-05  0.2500
   1.7383E-02   1.7806E-02   1.1349E-04  0.2041
   1.7806E-02   1.8239E-02   9.6945E-05  0.2182
   1.8239E-02   1.8683E-02   9.0136E-05  0.2236
   1.8683E-02   1.9138E-02   1.0999E-04  0.2000
   1.9138E-02   1.9603E-02   1.1597E-04  0.1925
   1.9603E-02   2.0080E-02   7.9671E-05  0.2294
   2.0080E-02   2.0569E-02   7.7779E-05  0.2294
   2.0569E-02   2.1069E-02   1.3240E-04  0.1734
   2.1069E-02   2.1582E-02   8.2548E-05  0.2167
   2.1582E-02   2.2107E-02   6.0941E-05  0.2500
   2.2107E-02   2.2645E-02   8.9240E-05  0.2041
   2.2645E-02   2.3196E-02   6.8970E-05  0.2294
   2.3196E-02   2.3760E-02   8.1507E-05  0.2085
   2.3760E-02   2.4338E-02   7.6587E-05  0.2120
   2.4338E-02   2.4930E-02   7.7681E-05  0.2085
   2.4930E-02   2.5537E-02   6.0998E-05  0.2309
   2.5537E-02   2.6158E-02   6.1159E-05  0.2294
   2.6158E-02   2.6795E-02   7.2807E-05  0.2071
   2.6795E-02   2.7447E-02   5.5657E-05  0.2340
   2.7447E-02   2.8114E-02   7.5358E-05  0.1988
   2.8114E-02   2.8799E-02   9.6485E-05  0.1741
   2.8799E-02   2.9499E-02   8.6562E-05  0.1808
   2.9499E-02   3.0217E-02   7.5598E-05  0.1916
   3.0217E-02   3.0952E-02   5.9847E-05  0.2132
   3.0952E-02   3.1705E-02   5.5770E-05  0.2182
   3.1705E-02   3.2477E-02   7.6917E-05  0.1824
   3.2477E-02   3.3267E-02   9.1118E-05  0.1667
   3.3267E-02   3.4076E-02   8.6483E-05  0.1690
   3.4076E-02   3.4905E-02   8.2016E-05  0.1715
   3.4905E-02   3.5755E-02   7.0992E-05  0.1818
   3.5755E-02   3.6625E-02   6.4694E-05  0.1881
   3.6625E-02   3.7516E-02   7.0000E-05  0.1786
   3.7516E-02   3.8428E-02   7.6688E-05  0.1690
   3.8428E-02   3.9363E-02   4.7059E-05  0.2132
   3.9363E-02   4.0321E-02   6.5038E-05  0.1788
   4.0321E-02   4.1302E-02   8.1546E-05  0.1581
   4.1302E-02   4.2307E-02   6.3687E-05  0.1768
   4.2307E-02   4.3337E-02   7.2212E-05  0.1637
   4.3337E-02   4.4391E-02   6.6388E-05  0.1690
   4.4391E-02   4.5471E-02   5.1849E-05  0.1890
   4.5471E-02   4.6577E-02   7.5926E-05  0.1543
   4.6577E-02   4.7711E-02   6.7063E-05  0.1622
   4.7711E-02   4.8871E-02   5.1687E-05  0.1826
   4.8871E-02   5.0061E-02   6.0551E-05  0.1667
   5.0061E-02   5.1279E-02   4.9854E-05  0.1806
   5.1279E-02   5.2526E-02   6.4897E-05  0.1564
   5.2526E-02   5.3804E-02   4.5383E-05  0.1857
   5.3804E-02   5.5113E-02   5.9583E-05  0.1601
   5.5113E-02   5.6454E-02   7.2337E-05  0.1432
   5.6454E-02   5.7828E-02   8.0297E-05  0.1345
   5.7828E-02   5.9235E-02   5.9702E-05  0.1543
   5.9235E-02   6.0676E-02   5.1345E-05  0.1644
   6.0676E-02   6.2152E-02   5.4190E-05  0.1581
   6.2152E-02   6.3665E-02   5.0257E-05  0.1622
   6.3665E-02   6.5214E-02   5.4228E-05  0.1543
   6.5214E-02   6.6800E-02   3.6950E-05  0.1839
   6.6800E-02   6.8426E-02   5.3128E-05  0.1519
   6.8426E-02   7.0090E-02   4.8266E-05  0.1575
   7.0090E-02   7.1796E-02   5.6293E-05  0.1443
   7.1796E-02   7.3543E-02   5.4001E-05  0.1454
   7.3543E-02   7.5332E-02   4.2474E-05  0.1622
   7.5332E-02   7.7165E-02   4.8012E-05  0.1508
   7.7165E-02   7.9042E-02   4.5806E-05  0.1525
   7.9042E-02   8.0965E-02   4.1078E-05  0.1586
   8.0965E-02   8.2935E-02   4.1777E-05  0.1557
   8.2935E-02   8.4953E-02   4.6583E-05  0.1459
   8.4953E-02   8.7020E-02   4.6444E-05  0.1433
   8.7020E-02   8.9138E-02   4.9120E-05  0.1387
   8.9138E-02   9.1306E-02   4.5500E-05  0.1420
   9.1306E-02   9.3528E-02   3.7361E-05  0.1548
   9.3528E-02   9.5804E-02   3.3837E-05  0.1606
   9.5804E-02   9.8134E-02   3.5607E-05  0.1548
   9.8134E-02   1.0052E-01   4.1158E-05  0.1425
   1.0052E-01   1.0297E-01   3.6926E-05  0.1486
   1.0297E-01   1.0547E-01   3.7521E-05  0.1459
   1.0547E-01   1.0804E-01   3.3512E-05  0.1516
   1.0804E-01   1.1067E-01   3.8422E-05  0.1404
   1.1067E-01   1.1336E-01   3.6395E-05  0.1429
   1.1336E-01   1.1612E-01   3.6981E-05  0.1400
   1.1612E-01   1.1894E-01   2.3715E-05  0.1721
   1.1894E-01   1.2184E-01   3.9046E-05  0.1327
   1.2184E-01   1.2480E-01   2.9685E-05  0.1508
   1.2480E-01   1.2784E-01   3.0490E-05  0.1466
   1.2784E-01   1.3095E-01   2.1647E-05  0.1713
   1.3095E-01   1.3414E-01   3.1493E-05  0.1410
   1.3414E-01   1.3740E-01   2.8496E-05  0.1463
   1.3740E-01   1.4074E-01   3.1994E-05  0.1362
   1.4074E-01   1.4417E-01   3.6989E-05  0.1254
   1.4417E-01   1.4767E-01   2.4607E-05  0.1520
   1.4767E-01   1.5127E-01   2.1779E-05  0.1596
   1.5127E-01   1.5495E-01   2.3638E-05  0.1512
   1.5495E-01   1.5872E-01   2.6525E-05  0.1414
   1.5872E-01   1.6258E-01   2.6154E-05  0.1404
   1.6258E-01   1.6654E-01   2.1339E-05  0.1536
   1.6654E-01   1.7059E-01   2.7305E-05  0.1341
   1.7059E-01   1.7474E-01   2.3695E-05  0.1424
   1.7474E-01   1.7899E-01   2.5716E-05  0.1348
   1.7899E-01   1.8334E-01   2.5002E-05  0.1351
   1.8334E-01   1.8781E-01   1.7101E-05  0.1617
   1.8781E-01   1.9237E-01   1.8448E-05  0.1538
   1.9237E-01   1.9706E-01   2.2715E-05  0.1370
   1.9706E-01   2.0185E-01   2.0440E-05  0.1429
   2.0185E-01   2.0676E-01   1.6697E-05  0.1562
   2.0676E-01   2.1179E-01   1.9531E-05  0.1425
   2.1179E-01   2.1694E-01   2.2156E-05  0.1315
   2.1694E-01   2.2222E-01   2.3113E-05  0.1280
   2.2222E-01   2.2763E-01   2.2248E-05  0.1288
   2.2763E-01   2.3317E-01   1.8778E-05  0.1387
   2.3317E-01   2.3884E-01   2.4033E-05  0.1210
   2.3884E-01   2.4465E-01   2.3115E-05  0.1219
   2.4465E-01   2.5061E-01   2.3404E-05  0.1195
   2.5061E-01   2.5670E-01   2.5697E-05  0.1124
   2.5670E-01   2.6295E-01   2.5668E-05  0.1116
   2.6295E-01   2.6935E-01   3.2863E-05  0.0975
   2.6935E-01   2.7590E-01   2.8077E-05  0.1043
   2.7590E-01   2.8261E-01   2.0538E-05  0.1199
   2.8261E-01   2.8949E-01   2.7922E-05  0.1021
   2.8949E-01   2.9653E-01   2.6784E-05  0.1028
   2.9653E-01   3.0375E-01   3.1515E-05  0.0934
   3.0375E-01   3.1114E-01   2.7420E-05  0.0992
   3.1114E-01   3.1871E-01   2.8973E-05  0.0953
   3.1871E-01   3.2646E-01   2.6601E-05  0.0984
   3.2646E-01   3.3441E-01   3.0970E-05  0.0902
   3.3441E-01   3.4254E-01   2.9292E-05  0.0916
   3.4254E-01   3.5088E-01   2.8672E-05  0.0913
   3.5088E-01   3.5941E-01   2.9855E-05  0.0885
   3.5941E-01   3.6816E-01   2.8053E-05  0.0901
   3.6816E-01   3.7712E-01   3.3085E-05  0.0821
   3.7712E-01   3.8629E-01   3.2451E-05  0.0818
   3.8629E-01   3.9569E-01   3.2483E-05  0.0808
   3.9569E-01   4.0532E-01   3.4667E-05  0.0772
   4.0532E-01   4.1518E-01   3.2722E-05  0.0787
   4.1518E-01   4.2528E-01   3.1084E-05  0.0798
   4.2528E-01   4.3563E-01   3.4791E-05  0.0745
   4.3563E-01   4.4623E-01   3.3526E-05  0.0748
   4.4623E-01   4.5708E-01   2.9873E-05  0.0785
   4.5708E-01   4.6821E-01   3.4583E-05  0.0721
   4.6821E-01   4.7960E-01   3.0221E-05  0.0761
   4.7960E-01   4.9127E-01   3.2549E-05  0.0725
   4.9127E-01   5.0322E-01   3.3240E-05  0.0709
   5.0322E-01   5.1546E-01   3.3858E-05  0.0694
   5.1546E-01   5.2800E-01   3.1598E-05  0.0709
   5.2800E-01   5.4085E-01   3.8735E-05  0.0633
   5.4085E-01   5.5401E-01   3.3791E-05  0.0670
   5.5401E-01   5.6749E-01   3.1125E-05  0.0689
   5.6749E-01   5.8130E-01   3.3270E-05  0.0659
   5.8130E-01   5.9544E-01   2.9103E-05  0.0696
   5.9544E-01   6.0993E-01   3.3150E-05  0.0644
   6.0993E-01   6.2477E-01   3.6695E-05  0.0604
   6.2477E-01   6.3997E-01   3.6815E-05  0.0597
   6.3997E-01   6.5554E-01   3.4333E-05  0.0611
   6.5554E-01   6.7149E-01   4.1020E-05  0.0553
   6.7149E-01   6.8783E-01   3.4844E-05  0.0592
   6.8783E-01   7.0456E-01   3.5310E-05  0.0581
   7.0456E-01   7.2171E-01   3.7178E-05  0.0559
   7.2171E-01   7.3927E-01   3.4514E-05  0.0573
   7.3927E-01   7.5725E-01   3.4399E-05  0.0568
   7.5725E-01   7.7568E-01   3.7730E-05  0.0536
   7.7568E-01   7.9455E-01   3.8626E-05  0.0523
   7.9455E-01   8.1388E-01   3.7303E-05  0.0526
   8.1388E-01   8.3368E-01   3.8122E-05  0.0514
   8.3368E-01   8.5397E-01   3.6892E-05  0.0517
   8.5397E-01   8.7475E-01   4.1822E-05  0.0480
   8.7475E-01   8.9603E-01   4.0780E-05  0.0481
   8.9603E-01   9.1783E-01   3.9297E-05  0.0482
   9.1783E-01   9.4016E-01   4.0326E-05  0.0471
   9.4016E-01   9.6304E-01   4.1441E-05  0.0459
   9.6304E-01   9.8647E-01   4.5131E-05  0.0434
   9.8647E-01   1.0105E+00   4.0731E-05  0.0452
   1.0105E+00   1.0351E+00   4.5514E-05  0.0423
   1.0351E+00   1.0602E+00   4.3199E-05  0.0428
   1.0602E+00   1.0860E+00   4.4731E-05  0.0417
   1.0860E+00   1.1125E+00   4.2171E-05  0.0423
   1.1125E+00   1.1395E+00   4.4676E-05  0.0406
   1.1395E+00   1.1673E+00   4.3825E-05  0.0405
   1.1673E+00   1.1957E+00   3.9976E-05  0.0419
   1.1957E+00   1.2247E+00   4.3711E-05  0.0396
   1.2247E+00   1.2545E+00   4.2225E-05  0.0398
   1.2545E+00   1.2851E+00   4.3342E-05  0.0388
   1.2851E+00   1.3163E+00   4.6566E-05  0.0370
   1.3163E+00   1.3484E+00   4.5936E-05  0.0368
   1.3484E+00   1.3812E+00   4.8445E-05  0.0355
   1.3812E+00   1.4148E+00   4.5576E-05  0.0361
   1.4148E+00   1.4492E+00   4.7394E-05  0.0350
   1.4492E+00   1.4845E+00   4.5441E-05  0.0353
   1.4845E+00   1.5206E+00   4.9072E-05  0.0335
   1.5206E+00   1.5576E+00   4.8773E-05  0.0333
   1.5576E+00   1.5955E+00   4.6189E-05  0.0338
   1.5955E+00   1.6343E+00   5.0132E-05  0.0320
   1.6343E+00   1.6741E+00   4.5911E-05  0.0331
   1.6741E+00   1.7148E+00   5.2175E-05  0.0306
   1.7148E+00   1.7565E+00   4.9539E-05  0.0311
   1.7565E+00   1.7992E+00   4.7879E-05  0.0312
   1.7992E+00   1.8430E+00   4.7542E-05  0.0310
   1.8430E+00   1.8879E+00   5.1458E-05  0.0294
   1.8879E+00   1.9338E+00   4.8864E-05  0.0298
   1.9338E+00   1.9808E+00   5.0158E-05  0.0291
   1.9808E+00   2.0290E+00   4.7283E-05  0.0296
   2.0290E+00   2.0784E+00   4.9078E-05  0.0287
   2.0784E+00   2.1290E+00   4.9329E-05  0.0283
   2.1290E+00   2.1808E+00   5.3241E-05  0.0269
   2.1808E+00   2.2338E+00   5.0888E-05  0.0272
   2.2338E+00   2.2882E+00   4.8919E-05  0.0274
   2.2882E+00   2.3439E+00   4.8814E-05  0.0271
   2.3439E+00   2.4009E+00   4.9873E-05  0.0265
   2.4009E+00   2.4593E+00   5.0884E-05  0.0259
   2.4593E+00   2.5191E+00   5.1065E-05  0.0256
   2.5191E+00   2.5804E+00   4.9868E-05  0.0256
   2.5804E+00   2.6432E+00   4.9912E-05  0.0252
   2.6432E+00   2.7075E+00   5.0803E-05  0.0247
   2.7075E+00   2.7734E+00   4.9733E-05  0.0247
   2.7734E+00   2.8409E+00   4.8562E-05  0.0247
   2.8409E+00   2.9100E+00   5.1301E-05  0.0237
   2.9100E+00   2.9808E+00   5.0124E-05  0.0237
   2.9808E+00   3.0533E+00   5.0264E-05  0.0234
   3.0533E+00   3.1276E+00   5.0038E-05  0.0232
   3.1276E+00   3.2037E+00   5.1639E-05  0.0225
   3.2037E+00   3.2817E+00   4.9272E-05  0.0228
   3.2817E+00   3.3615E+00   4.9737E-05  0.0224
   3.3615E+00   3.4433E+00   5.0036E-05  0.0221
   3.4433E+00   3.5271E+00   4.9167E-05  0.0220
   3.5271E+00   3.6129E+00   5.2228E-05  0.0211
   3.6129E+00   3.7008E+00   4.9828E-05  0.0213
   3.7008E+00   3.7908E+00   5.1727E-05  0.0207
   3.7908E+00   3.8831E+00   5.0627E-05  0.0207
   3.8831E+00   3.9776E+00   5.0913E-05  0.0204
   3.9776E+00   4.0743E+00   4.9253E-05  0.0205
   4.0743E+00   4.1735E+00   5.0558E-05  0.0200
   4.1735E+00   4.2750E+00   4.8750E-05  0.0201
   4.2750E+00   4.3790E+00   5.0371E-05  0.0195
   4.3790E+00   4.4856E+00   4.9049E-05  0.0196
   4.4856E+00   4.5947E+00   4.9840E-05  0.0192
   4.5947E+00   4.7065E+00   4.9687E-05  0.0190
   4.7065E+00   4.8210E+00   5.1523E-05  0.0184
   4.8210E+00   4.9383E+00   4.7699E-05  0.0189
   4.9383E+00   5.0585E+00   4.9416E-05  0.0183
   5.0585E+00   5.1815E+00   5.0960E-05  0.0178
   5.1815E+00   5.3076E+00   4.7385E-05  0.0183
   5.3076E+00   5.4368E+00   4.8908E-05  0.0178
   5.4368E+00   5.5690E+00   4.8647E-05  0.0176
   5.5690E+00   5.7045E+00   5.0174E-05  0.0171
   5.7045E+00   5.8433E+00   4.9075E-05  0.0171
   5.8433E+00   5.9855E+00   5.0287E-05  0.0167
   5.9855E+00   6.1311E+00   4.9480E-05  0.0167
   6.1311E+00   6.2803E+00   4.7848E-05  0.0167
   6.2803E+00   6.4331E+00   4.8768E-05  0.0164
   6.4331E+00   6.5896E+00   5.0525E-05  0.0159
   6.5896E+00   6.7500E+00   4.8753E-05  0.0160
   6.7500E+00   6.9142E+00   4.7973E-05  0.0159
   6.9142E+00   7.0824E+00   4.9077E-05  0.0156
   7.0824E+00   7.2548E+00   4.9963E-05  0.0152
   7.2548E+00   7.4313E+00   5.0352E-05  0.0150
   7.4313E+00   7.6121E+00   4.9900E-05  0.0149
   7.6121E+00   7.7973E+00   4.9077E-05  0.0148
   7.7973E+00   7.9870E+00   4.9616E-05  0.0146
   7.9870E+00   8.1813E+00   4.9176E-05  0.0145
   8.1813E+00   8.3804E+00   4.8661E-05  0.0144
   8.3804E+00   8.5843E+00   4.8522E-05  0.0142
   8.5843E+00   8.7931E+00   4.9698E-05  0.0139
   8.7931E+00   9.0071E+00   5.0220E-05  0.0136
   9.0071E+00   9.2262E+00   4.9809E-05  0.0135
   9.2262E+00   9.4507E+00   5.0773E-05  0.0132
   9.4507E+00   9.6807E+00   5.0491E-05  0.0131
   9.6807E+00   9.9162E+00   5.1777E-05  0.0128
   9.9162E+00   1.0157E+01   5.2266E-05  0.0126
   1.0157E+01   1.0405E+01   5.2104E-05  0.0125
   1.0405E+01   1.0658E+01   5.2370E-05  0.0123
   1.0658E+01   1.0917E+01   5.3362E-05  0.0120
   1.0917E+01   1.1183E+01   5.5235E-05  0.0117
   1.1183E+01   1.1455E+01   5.6054E-05  0.0115
   1.1455E+01   1.1733E+01   5.6994E-05  0.0112
   1.1733E+01   1.2019E+01   5.6929E-05  0.0111
   1.2019E+01   1.2311E+01   5.7950E-05  0.0109
   1.2311E+01   1.2611E+01   6.1282E-05  0.0104
   1.2611E+01   1.2918E+01   6.1378E-05  0.0103
   1.2918E+01   1.3232E+01   6.1813E-05  0.0101
   1.3232E+01   1.3554E+01   6.4400E-05  0.0098
   1.3554E+01   1.3884E+01   6.6731E-05  0.0095
   1.3884E+01   1.4222E+01   6.8315E-05  0.0093
   1.4222E+01   1.4568E+01   7.0937E-05  0.0090
   1.4568E+01   1.4922E+01   7.1414E-05  0.0089
   1.4922E+01   1.5285E+01   7.4564E-05  0.0086
   1.5285E+01   1.5657E+01   7.6389E-05  0.0084
   1.5657E+01   1.6038E+01   7.8037E-05  0.0082
   1.6038E+01   1.6428E+01   8.1285E-05  0.0079
   1.6428E+01   1.6828E+01   8.3551E-05  0.0077
   1.6828E+01   1.7237E+01   8.4778E-05  0.0076
   1.7237E+01   1.7657E+01   8.7654E-05  0.0074
   1.7657E+01   1.8086E+01   8.9162E-05  0.0072
   1.8086E+01   1.8526E+01   9.1153E-05  0.0071
   1.8526E+01   1.8977E+01   9.4011E-05  0.0069
   1.8977E+01   1.9439E+01   9.4411E-05  0.0068
   1.9439E+01   1.9912E+01   9.6062E-05  0.0066
   1.9912E+01   2.0396E+01   9.7075E-05  0.0065
   2.0396E+01   2.0893E+01   9.7876E-05  0.0064
   2.0893E+01   2.1401E+01   9.8211E-05  0.0063
   2.1401E+01   2.1922E+01   9.8651E-05  0.0062
   2.1922E+01   2.2455E+01   9.7013E-05  0.0062
   2.2455E+01   2.3001E+01   9.7326E-05  0.0061
   2.3001E+01   2.3561E+01   9.5990E-05  0.0061
   2.3561E+01   2.4134E+01   9.2046E-05  0.0062
   2.4134E+01   2.4721E+01   9.0602E-05  0.0061
   2.4721E+01   2.5323E+01   8.8340E-05  0.0061
   2.5323E+01   2.5939E+01   8.4109E-05  0.0062
   2.5939E+01   2.6570E+01   8.0999E-05  0.0063
   2.6570E+01   2.7217E+01   7.6294E-05  0.0064
   2.7217E+01   2.7879E+01   7.1594E-05  0.0065
   2.7879E+01   2.8557E+01   6.8313E-05  0.0066
   2.8557E+01   2.9252E+01   6.2811E-05  0.0068
   2.9252E+01   2.9964E+01   5.9073E-05  0.0069
   2.9964E+01   3.0693E+01   5.3945E-05  0.0071
   3.0693E+01   3.1440E+01   5.0009E-05  0.0073
   3.1440E+01   3.2205E+01   4.5227E-05  0.0076
   3.2205E+01   3.2988E+01   4.1008E-05  0.0079
   3.2988E+01   3.3791E+01   3.7559E-05  0.0081
   3.3791E+01   3.4613E+01   3.3677E-05  0.0085
   3.4613E+01   3.5455E+01   2.9892E-05  0.0089
   3.5455E+01   3.6318E+01   2.6936E-05  0.0093
   3.6318E+01   3.7201E+01   2.4141E-05  0.0097
   3.7201E+01   3.8106E+01   2.1603E-05  0.0101
   3.8106E+01   3.9034E+01   1.8694E-05  0.0107
   3.9034E+01   3.9983E+01   1.6784E-05  0.0112
   3.9983E+01   4.0956E+01   1.4541E-05  0.0119
   4.0956E+01   4.1953E+01   1.2468E-05  0.0127
   4.1953E+01   4.2973E+01   1.0728E-05  0.0135
   4.2973E+01   4.4019E+01   9.2217E-06  0.0144
   4.4019E+01   4.5090E+01   7.7067E-06  0.0156
   4.5090E+01   4.6187E+01   7.2502E-06  0.0159
   4.6187E+01   4.7311E+01   6.9249E-06  0.0160
   4.7311E+01   4.8462E+01   7.2956E-06  0.0154
   4.8462E+01   4.9641E+01   7.4327E-06  0.0151
   4.9641E+01   5.0849E+01   6.6964E-06  0.0157
   5.0849E+01   5.2086E+01   5.9894E-06  0.0164
   5.2086E+01   5.3353E+01   4.9554E-06  0.0178
   5.3353E+01   5.4651E+01   4.4248E-06  0.0187
   5.4651E+01   5.5981E+01   4.7288E-06  0.0178
   5.5981E+01   5.7343E+01   5.2009E-06  0.0168
   5.7343E+01   5.8738E+01   6.1511E-06  0.0153
   5.8738E+01   6.0168E+01   7.4995E-06  0.0137
   6.0168E+01   6.1632E+01   7.1561E-06  0.0138
   6.1632E+01   6.3131E+01   5.7538E-06  0.0152
   6.3131E+01   6.4667E+01   4.2642E-06  0.0175
   6.4667E+01   6.6240E+01   2.2054E-06  0.0240
   6.6240E+01   6.7852E+01   7.4084E-07  0.0409
   6.7852E+01   6.9503E+01   2.4229E-08  0.2236
   6.9503E+01   7.1194E+01   0.0000E+00  0.0000
   7.1194E+01   7.2926E+01   0.0000E+00  0.0000
   7.2926E+01   7.4701E+01   0.0000E+00  0.0000
   7.4701E+01   7.6518E+01   0.0000E+00  0.0000
   7.6518E+01   7.8380E+01   0.0000E+00  0.0000
   7.8380E+01   8.0287E+01   0.0000E+00  0.0000
   8.0287E+01   8.2240E+01   0.0000E+00  0.0000
   8.2240E+01   8.4241E+01   0.0000E+00  0.0000
   8.4241E+01   8.6291E+01   0.0000E+00  0.0000
   8.6291E+01   8.8391E+01   0.0000E+00  0.0000
   8.8391E+01   9.0541E+01   0.0000E+00  0.0000
   9.0541E+01   9.2744E+01   0.0000E+00  0.0000
   9.2744E+01   9.5001E+01   0.0000E+00  0.0000
   9.5001E+01   9.7312E+01   0.0000E+00  0.0000
   9.7312E+01   9.9680E+01   0.0000E+00  0.0000
   9.9680E+01   1.0211E+02   0.0000E+00  0.0000
   1.0211E+02   1.0459E+02   0.0000E+00  0.0000
   1.0459E+02   1.0713E+02   0.0000E+00  0.0000
   1.0713E+02   1.0974E+02   0.0000E+00  0.0000
   1.0974E+02   1.1241E+02   0.0000E+00  0.0000
   1.1241E+02   1.1515E+02   0.0000E+00  0.0000
   1.1515E+02   1.1795E+02   0.0000E+00  0.0000
   1.1795E+02   1.2082E+02   0.0000E+00  0.0000
   1.2082E+02   1.2376E+02   0.0000E+00  0.0000
   1.2376E+02   1.2677E+02   0.0000E+00  0.0000
   1.2677E+02   1.2985E+02   0.0000E+00  0.0000
   1.2985E+02   1.3301E+02   0.0000E+00  0.0000
   1.3301E+02   1.3625E+02   0.0000E+00  0.0000
   1.3625E+02   1.3956E+02   0.0000E+00  0.0000
   1.3956E+02   1.4296E+02   0.0000E+00  0.0000
   1.4296E+02   1.4644E+02   0.0000E+00  0.0000
   1.4644E+02   1.5000E+02   0.0000E+00  0.0000

#   sum over                 1.7073E-05
'no. =    1   reg = 104 - 204'
msuc: {\huge [t-cross] in region mesh}
msdr: {\it plotted by \ANGEL \version}
msdl: {\it calculated by \PHITS  3.26}
wt: s(0.7)
\vspace{-3}
  region surface crossing
  area  &=&   1.0000E+00 [cm^2]
e:
 
# Information for Restart Calculation
# This calculation was newly started
# istdev =  2 # 1:Batch variance, 2:History variance
# resc2  = 5.00000000000000000E+08 # Total source weight or Total source weight / maxcas
# resc3  = 5.00000000000000000E+08 # Total history number or Total batch number
# maxcas =   500000000 # History / Batch, only used for istdev=1
# bitrseed = 1101101111010011011000101101110001100110110010110001010100010001 # bit data of rseed
