[ T-Cross ]
    title = [t-cross] in region mesh
     mesh =  reg            # mesh type is region-wise
      reg =    1            # number of crossing regions
      non     r-from    r-to       area
      1       100       200        1.000000    
   e-type =    3            # e-mesh is log given by emin, emax and ne
     emin =  1.0000000E-02  # minimum value of e-mesh points
     emax =   150.0000      # maximum value of e-mesh points
#    edel =  2.4039514E-02  # mesh width of e-mesh points
       ne =    400          # number of e-mesh points
#    data = ( e(i), i = 1, ne + 1 )
#           1.00000E-02  1.02433E-02  1.04925E-02  1.07478E-02  1.10093E-02
#           1.12772E-02  1.15516E-02  1.18326E-02  1.21205E-02  1.24154E-02
#           1.27175E-02  1.30269E-02  1.33439E-02  1.36686E-02  1.40011E-02
#           1.43418E-02  1.46907E-02  1.50482E-02  1.54143E-02  1.57894E-02
#           1.61735E-02  1.65670E-02  1.69701E-02  1.73830E-02  1.78060E-02
#           1.82392E-02  1.86830E-02  1.91375E-02  1.96032E-02  2.00801E-02
#           2.05687E-02  2.10692E-02  2.15818E-02  2.21069E-02  2.26448E-02
#           2.31957E-02  2.37601E-02  2.43382E-02  2.49304E-02  2.55369E-02
#           2.61583E-02  2.67947E-02  2.74467E-02  2.81145E-02  2.87985E-02
#           2.94992E-02  3.02169E-02  3.09521E-02  3.17052E-02  3.24766E-02
#           3.32668E-02  3.40762E-02  3.49053E-02  3.57546E-02  3.66246E-02
#           3.75157E-02  3.84284E-02  3.93634E-02  4.03212E-02  4.13022E-02
#           4.23071E-02  4.33365E-02  4.43909E-02  4.54710E-02  4.65773E-02
#           4.77106E-02  4.88714E-02  5.00605E-02  5.12785E-02  5.25262E-02
#           5.38042E-02  5.51133E-02  5.64542E-02  5.78278E-02  5.92348E-02
#           6.06760E-02  6.21523E-02  6.36645E-02  6.52135E-02  6.68002E-02
#           6.84255E-02  7.00904E-02  7.17957E-02  7.35426E-02  7.53319E-02
#           7.71648E-02  7.90423E-02  8.09655E-02  8.29354E-02  8.49533E-02
#           8.70203E-02  8.91376E-02  9.13064E-02  9.35279E-02  9.58035E-02
#           9.81345E-02  1.00522E-01  1.02968E-01  1.05473E-01  1.08040E-01
#           1.10668E-01  1.13361E-01  1.16119E-01  1.18944E-01  1.21838E-01
#           1.24803E-01  1.27839E-01  1.30950E-01  1.34136E-01  1.37399E-01
#           1.40742E-01  1.44167E-01  1.47675E-01  1.51268E-01  1.54948E-01
#           1.58718E-01  1.62580E-01  1.66535E-01  1.70587E-01  1.74738E-01
#           1.78989E-01  1.83344E-01  1.87805E-01  1.92375E-01  1.97055E-01
#           2.01850E-01  2.06761E-01  2.11792E-01  2.16945E-01  2.22223E-01
#           2.27630E-01  2.33169E-01  2.38842E-01  2.44653E-01  2.50605E-01
#           2.56703E-01  2.62949E-01  2.69346E-01  2.75900E-01  2.82613E-01
#           2.89489E-01  2.96532E-01  3.03747E-01  3.11138E-01  3.18708E-01
#           3.26462E-01  3.34405E-01  3.42542E-01  3.50876E-01  3.59413E-01
#           3.68158E-01  3.77116E-01  3.86291E-01  3.95690E-01  4.05317E-01
#           4.15179E-01  4.25281E-01  4.35628E-01  4.46227E-01  4.57084E-01
#           4.68205E-01  4.79597E-01  4.91266E-01  5.03219E-01  5.15463E-01
#           5.28005E-01  5.40851E-01  5.54011E-01  5.67490E-01  5.81298E-01
#           5.95441E-01  6.09929E-01  6.24769E-01  6.39970E-01  6.55541E-01
#           6.71491E-01  6.87828E-01  7.04564E-01  7.21706E-01  7.39266E-01
#           7.57253E-01  7.75678E-01  7.94551E-01  8.13883E-01  8.33685E-01
#           8.53969E-01  8.74747E-01  8.96030E-01  9.17831E-01  9.40163E-01
#           9.63038E-01  9.86469E-01  1.01047E+00  1.03506E+00  1.06024E+00
#           1.08604E+00  1.11246E+00  1.13953E+00  1.16725E+00  1.19565E+00
#           1.22474E+00  1.25454E+00  1.28507E+00  1.31633E+00  1.34836E+00
#           1.38117E+00  1.41477E+00  1.44920E+00  1.48446E+00  1.52057E+00
#           1.55757E+00  1.59547E+00  1.63429E+00  1.67405E+00  1.71478E+00
#           1.75650E+00  1.79924E+00  1.84302E+00  1.88786E+00  1.93379E+00
#           1.98084E+00  2.02904E+00  2.07841E+00  2.12898E+00  2.18078E+00
#           2.23384E+00  2.28819E+00  2.34386E+00  2.40089E+00  2.45930E+00
#           2.51914E+00  2.58043E+00  2.64322E+00  2.70753E+00  2.77341E+00
#           2.84088E+00  2.91001E+00  2.98081E+00  3.05333E+00  3.12762E+00
#           3.20372E+00  3.28167E+00  3.36152E+00  3.44330E+00  3.52708E+00
#           3.61290E+00  3.70080E+00  3.79085E+00  3.88308E+00  3.97756E+00
#           4.07434E+00  4.17347E+00  4.27501E+00  4.37903E+00  4.48557E+00
#           4.59471E+00  4.70650E+00  4.82102E+00  4.93832E+00  5.05847E+00
#           5.18155E+00  5.30762E+00  5.43676E+00  5.56904E+00  5.70453E+00
#           5.84333E+00  5.98550E+00  6.13114E+00  6.28031E+00  6.43312E+00
#           6.58964E+00  6.74997E+00  6.91420E+00  7.08243E+00  7.25475E+00
#           7.43126E+00  7.61207E+00  7.79728E+00  7.98700E+00  8.18133E+00
#           8.38038E+00  8.58428E+00  8.79315E+00  9.00709E+00  9.22624E+00
#           9.45072E+00  9.68067E+00  9.91620E+00  1.01575E+01  1.04046E+01
#           1.06578E+01  1.09171E+01  1.11827E+01  1.14548E+01  1.17335E+01
#           1.20190E+01  1.23114E+01  1.26109E+01  1.29178E+01  1.32321E+01
#           1.35540E+01  1.38838E+01  1.42216E+01  1.45676E+01  1.49221E+01
#           1.52851E+01  1.56570E+01  1.60380E+01  1.64282E+01  1.68279E+01
#           1.72374E+01  1.76568E+01  1.80864E+01  1.85264E+01  1.89772E+01
#           1.94389E+01  1.99119E+01  2.03963E+01  2.08926E+01  2.14009E+01
#           2.19216E+01  2.24550E+01  2.30014E+01  2.35610E+01  2.41343E+01
#           2.47215E+01  2.53230E+01  2.59391E+01  2.65702E+01  2.72167E+01
#           2.78789E+01  2.85572E+01  2.92520E+01  2.99637E+01  3.06928E+01
#           3.14396E+01  3.22045E+01  3.29881E+01  3.37907E+01  3.46128E+01
#           3.54550E+01  3.63177E+01  3.72013E+01  3.81064E+01  3.90336E+01
#           3.99833E+01  4.09561E+01  4.19526E+01  4.29734E+01  4.40189E+01
#           4.50900E+01  4.61870E+01  4.73108E+01  4.84619E+01  4.96410E+01
#           5.08488E+01  5.20860E+01  5.33533E+01  5.46514E+01  5.59812E+01
#           5.73432E+01  5.87384E+01  6.01676E+01  6.16315E+01  6.31311E+01
#           6.46671E+01  6.62405E+01  6.78522E+01  6.95031E+01  7.11941E+01
#           7.29263E+01  7.47007E+01  7.65182E+01  7.83800E+01  8.02870E+01
#           8.22405E+01  8.42414E+01  8.62911E+01  8.83906E+01  9.05412E+01
#           9.27442E+01  9.50007E+01  9.73122E+01  9.96799E+01  1.02105E+02
#           1.04589E+02  1.07134E+02  1.09741E+02  1.12411E+02  1.15146E+02
#           1.17948E+02  1.20817E+02  1.23757E+02  1.26768E+02  1.29852E+02
#           1.33012E+02  1.36248E+02  1.39563E+02  1.42959E+02  1.46437E+02
#           1.50000E+02
     unit =    2            # unit is [1/cm^2/(MeV/n)/source]
     axis =  eng            # axis of output
     file = detector-01.out  # file name of output for the above axis
   output = f-curr          # surface crossing forward current spectrum
     part =  neutron  
# kf/name :  2112     
#    used :        main (  %)        temp (  %)       total (  %)
#  memory :         414 (  0)           0 (  0)         414 (  0)

#------------------------------------------------------------------------------
#newpage:
#   no. =    1   reg = 100 - 200

x: Energy [MeV/n]
y:  F-Curr [1/cm^2/(MeV/n)/source]         
p: xlog ylog afac(0.8) form(0.9)
h: n            x            y(neutron ),hh0l   n 
#  e-lower      e-upper      neutron     r.err 
   1.0000E-02   1.0243E-02   2.2633E-03  0.0246
   1.0243E-02   1.0493E-02   2.1680E-03  0.0248
   1.0493E-02   1.0748E-02   2.1779E-03  0.0245
   1.0748E-02   1.1009E-02   2.1478E-03  0.0244
   1.1009E-02   1.1277E-02   2.0844E-03  0.0244
   1.1277E-02   1.1552E-02   2.0737E-03  0.0242
   1.1552E-02   1.1833E-02   2.1146E-03  0.0237
   1.1833E-02   1.2121E-02   2.0829E-03  0.0236
   1.2121E-02   1.2415E-02   2.0741E-03  0.0233
   1.2415E-02   1.2718E-02   1.9829E-03  0.0236
   1.2718E-02   1.3027E-02   2.0306E-03  0.0230
   1.3027E-02   1.3344E-02   1.9172E-03  0.0234
   1.3344E-02   1.3669E-02   1.9014E-03  0.0232
   1.3669E-02   1.4001E-02   1.9380E-03  0.0227
   1.4001E-02   1.4342E-02   1.8968E-03  0.0227
   1.4342E-02   1.4691E-02   1.8140E-03  0.0229
   1.4691E-02   1.5048E-02   1.9481E-03  0.0219
   1.5048E-02   1.5414E-02   1.8846E-03  0.0220
   1.5414E-02   1.5789E-02   1.8460E-03  0.0219
   1.5789E-02   1.6174E-02   1.8169E-03  0.0219
   1.6174E-02   1.6567E-02   1.8449E-03  0.0214
   1.6567E-02   1.6970E-02   1.8499E-03  0.0211
   1.6970E-02   1.7383E-02   1.8116E-03  0.0211
   1.7383E-02   1.7806E-02   1.7686E-03  0.0211
   1.7806E-02   1.8239E-02   1.7927E-03  0.0207
   1.8239E-02   1.8683E-02   1.7351E-03  0.0208
   1.8683E-02   1.9138E-02   1.6888E-03  0.0208
   1.9138E-02   1.9603E-02   1.6508E-03  0.0208
   1.9603E-02   2.0080E-02   1.6675E-03  0.0205
   2.0080E-02   2.0569E-02   1.7302E-03  0.0199
   2.0569E-02   2.1069E-02   1.6339E-03  0.0202
   2.1069E-02   2.1582E-02   1.6074E-03  0.0201
   2.1582E-02   2.2107E-02   1.6283E-03  0.0197
   2.2107E-02   2.2645E-02   1.6466E-03  0.0194
   2.2645E-02   2.3196E-02   1.6123E-03  0.0194
   2.3196E-02   2.3760E-02   1.5534E-03  0.0195
   2.3760E-02   2.4338E-02   1.5672E-03  0.0192
   2.4338E-02   2.4930E-02   1.5311E-03  0.0192
   2.4930E-02   2.5537E-02   1.5596E-03  0.0188
   2.5537E-02   2.6158E-02   1.5311E-03  0.0187
   2.6158E-02   2.6795E-02   1.4395E-03  0.0191
   2.6795E-02   2.7447E-02   1.4669E-03  0.0187
   2.7447E-02   2.8114E-02   1.5079E-03  0.0182
   2.8114E-02   2.8799E-02   1.4621E-03  0.0183
   2.8799E-02   2.9499E-02   1.4652E-03  0.0180
   2.9499E-02   3.0217E-02   1.4044E-03  0.0182
   3.0217E-02   3.0952E-02   1.4268E-03  0.0178
   3.0952E-02   3.1705E-02   1.3823E-03  0.0179
   3.1705E-02   3.2477E-02   1.4126E-03  0.0175
   3.2477E-02   3.3267E-02   1.4031E-03  0.0173
   3.3267E-02   3.4076E-02   1.3784E-03  0.0173
   3.4076E-02   3.4905E-02   1.3782E-03  0.0171
   3.4905E-02   3.5755E-02   1.3423E-03  0.0171
   3.5755E-02   3.6625E-02   1.3514E-03  0.0168
   3.6625E-02   3.7516E-02   1.3321E-03  0.0168
   3.7516E-02   3.8428E-02   1.3380E-03  0.0165
   3.8428E-02   3.9363E-02   1.3237E-03  0.0164
   3.9363E-02   4.0321E-02   1.2742E-03  0.0165
   4.0321E-02   4.1302E-02   1.2752E-03  0.0163
   4.1302E-02   4.2307E-02   1.3192E-03  0.0159
   4.2307E-02   4.3337E-02   1.2192E-03  0.0163
   4.3337E-02   4.4391E-02   1.1994E-03  0.0162
   4.4391E-02   4.5471E-02   1.2024E-03  0.0160
   4.5471E-02   4.6577E-02   1.1865E-03  0.0159
   4.6577E-02   4.7711E-02   1.1842E-03  0.0158
   4.7711E-02   4.8871E-02   1.1879E-03  0.0155
   4.8871E-02   5.0061E-02   1.1594E-03  0.0155
   5.0061E-02   5.1279E-02   1.1379E-03  0.0155
   5.1279E-02   5.2526E-02   1.1641E-03  0.0151
   5.2526E-02   5.3804E-02   1.1288E-03  0.0152
   5.3804E-02   5.5113E-02   1.0982E-03  0.0152
   5.5113E-02   5.6454E-02   1.1017E-03  0.0150
   5.6454E-02   5.7828E-02   1.1031E-03  0.0148
   5.7828E-02   5.9235E-02   1.0770E-03  0.0148
   5.9235E-02   6.0676E-02   1.0736E-03  0.0147
   6.0676E-02   6.2152E-02   1.0867E-03  0.0144
   6.2152E-02   6.3665E-02   1.0878E-03  0.0142
   6.3665E-02   6.5214E-02   1.0480E-03  0.0143
   6.5214E-02   6.6800E-02   1.0372E-03  0.0142
   6.6800E-02   6.8426E-02   1.0127E-03  0.0142
   6.8426E-02   7.0090E-02   1.0199E-03  0.0140
   7.0090E-02   7.1796E-02   1.0242E-03  0.0138
   7.1796E-02   7.3543E-02   9.7833E-04  0.0140
   7.3543E-02   7.5332E-02   9.9366E-04  0.0137
   7.5332E-02   7.7165E-02   9.9024E-04  0.0136
   7.7165E-02   7.9042E-02   9.5039E-04  0.0137
   7.9042E-02   8.0965E-02   9.4298E-04  0.0136
   8.0965E-02   8.2935E-02   9.6931E-04  0.0132
   8.2935E-02   8.4953E-02   9.2027E-04  0.0134
   8.4953E-02   8.7020E-02   9.3502E-04  0.0131
   8.7020E-02   8.9138E-02   9.0525E-04  0.0132
   8.9138E-02   9.1306E-02   8.6608E-04  0.0133
   9.1306E-02   9.3528E-02   8.9277E-04  0.0130
   9.3528E-02   9.5804E-02   8.7859E-04  0.0129
   9.5804E-02   9.8134E-02   8.7603E-04  0.0128
   9.8134E-02   1.0052E-01   8.6241E-04  0.0127
   1.0052E-01   1.0297E-01   8.5705E-04  0.0126
   1.0297E-01   1.0547E-01   8.4182E-04  0.0126
   1.0547E-01   1.0804E-01   8.2624E-04  0.0125
   1.0804E-01   1.1067E-01   8.3870E-04  0.0123
   1.1067E-01   1.1336E-01   8.0454E-04  0.0124
   1.1336E-01   1.1612E-01   8.0766E-04  0.0122
   1.1612E-01   1.1894E-01   8.0618E-04  0.0121
   1.1894E-01   1.2184E-01   8.0166E-04  0.0120
   1.2184E-01   1.2480E-01   7.8329E-04  0.0120
   1.2480E-01   1.2784E-01   7.6897E-04  0.0119
   1.2784E-01   1.3095E-01   7.7288E-04  0.0118
   1.3095E-01   1.3414E-01   7.6122E-04  0.0117
   1.3414E-01   1.3740E-01   7.4957E-04  0.0117
   1.3740E-01   1.4074E-01   7.3646E-04  0.0116
   1.4074E-01   1.4417E-01   7.1507E-04  0.0117
   1.4417E-01   1.4767E-01   7.1557E-04  0.0115
   1.4767E-01   1.5127E-01   7.1314E-04  0.0114
   1.5127E-01   1.5495E-01   6.9466E-04  0.0114
   1.5495E-01   1.5872E-01   7.0464E-04  0.0112
   1.5872E-01   1.6258E-01   6.7491E-04  0.0113
   1.6258E-01   1.6654E-01   6.8517E-04  0.0111
   1.6654E-01   1.7059E-01   6.7202E-04  0.0111
   1.7059E-01   1.7474E-01   6.5980E-04  0.0110
   1.7474E-01   1.7899E-01   6.5059E-04  0.0110
   1.7899E-01   1.8334E-01   6.3728E-04  0.0110
   1.8334E-01   1.8781E-01   6.3264E-04  0.0109
   1.8781E-01   1.9237E-01   6.3516E-04  0.0107
   1.9237E-01   1.9706E-01   6.2591E-04  0.0107
   1.9706E-01   2.0185E-01   6.1772E-04  0.0106
   2.0185E-01   2.0676E-01   6.0617E-04  0.0106
   2.0676E-01   2.1179E-01   5.9535E-04  0.0106
   2.1179E-01   2.1694E-01   5.7985E-04  0.0106
   2.1694E-01   2.2222E-01   5.6800E-04  0.0105
   2.2222E-01   2.2763E-01   5.7026E-04  0.0104
   2.2763E-01   2.3317E-01   5.6662E-04  0.0103
   2.3317E-01   2.3884E-01   5.6039E-04  0.0102
   2.3884E-01   2.4465E-01   5.4051E-04  0.0103
   2.4465E-01   2.5061E-01   5.3870E-04  0.0102
   2.5061E-01   2.5670E-01   5.2798E-04  0.0102
   2.5670E-01   2.6295E-01   5.2609E-04  0.0101
   2.6295E-01   2.6935E-01   5.0929E-04  0.0101
   2.6935E-01   2.7590E-01   5.0355E-04  0.0101
   2.7590E-01   2.8261E-01   5.0088E-04  0.0100
   2.8261E-01   2.8949E-01   4.9082E-04  0.0099
   2.8949E-01   2.9653E-01   4.8243E-04  0.0099
   2.9653E-01   3.0375E-01   4.8446E-04  0.0098
   3.0375E-01   3.1114E-01   4.7192E-04  0.0098
   3.1114E-01   3.1871E-01   4.6368E-04  0.0097
   3.1871E-01   3.2646E-01   4.5140E-04  0.0098
   3.2646E-01   3.3441E-01   4.4567E-04  0.0097
   3.3441E-01   3.4254E-01   4.3935E-04  0.0097
   3.4254E-01   3.5088E-01   4.3123E-04  0.0096
   3.5088E-01   3.5941E-01   4.2067E-04  0.0096
   3.5941E-01   3.6816E-01   4.1667E-04  0.0096
   3.6816E-01   3.7712E-01   4.1045E-04  0.0095
   3.7712E-01   3.8629E-01   4.0572E-04  0.0095
   3.8629E-01   3.9569E-01   3.9147E-04  0.0095
   3.9569E-01   4.0532E-01   3.9630E-04  0.0093
   4.0532E-01   4.1518E-01   3.7793E-04  0.0095
   4.1518E-01   4.2528E-01   3.7826E-04  0.0093
   4.2528E-01   4.3563E-01   3.6863E-04  0.0093
   4.3563E-01   4.4623E-01   3.6055E-04  0.0093
   4.4623E-01   4.5708E-01   3.5645E-04  0.0093
   4.5708E-01   4.6821E-01   3.4343E-04  0.0093
   4.6821E-01   4.7960E-01   3.3711E-04  0.0093
   4.7960E-01   4.9127E-01   3.3219E-04  0.0093
   4.9127E-01   5.0322E-01   3.2288E-04  0.0093
   5.0322E-01   5.1546E-01   3.2106E-04  0.0092
   5.1546E-01   5.2800E-01   3.0831E-04  0.0093
   5.2800E-01   5.4085E-01   3.0425E-04  0.0092
   5.4085E-01   5.5401E-01   2.9616E-04  0.0092
   5.5401E-01   5.6749E-01   2.9515E-04  0.0092
   5.6749E-01   5.8130E-01   2.8195E-04  0.0093
   5.8130E-01   5.9544E-01   2.7718E-04  0.0092
   5.9544E-01   6.0993E-01   2.6868E-04  0.0093
   6.0993E-01   6.2477E-01   2.6175E-04  0.0093
   6.2477E-01   6.3997E-01   2.5671E-04  0.0092
   6.3997E-01   6.5554E-01   2.4890E-04  0.0093
   6.5554E-01   6.7149E-01   2.3894E-04  0.0094
   6.7149E-01   6.8783E-01   2.3414E-04  0.0093
   6.8783E-01   7.0456E-01   2.2844E-04  0.0093
   7.0456E-01   7.2171E-01   2.2208E-04  0.0094
   7.2171E-01   7.3927E-01   2.1397E-04  0.0094
   7.3927E-01   7.5725E-01   2.0993E-04  0.0094
   7.5725E-01   7.7568E-01   1.9820E-04  0.0096
   7.7568E-01   7.9455E-01   1.9435E-04  0.0095
   7.9455E-01   8.1388E-01   1.8537E-04  0.0096
   8.1388E-01   8.3368E-01   1.7861E-04  0.0097
   8.3368E-01   8.5397E-01   1.7555E-04  0.0097
   8.5397E-01   8.7475E-01   1.6662E-04  0.0098
   8.7475E-01   8.9603E-01   1.5832E-04  0.0099
   8.9603E-01   9.1783E-01   1.5224E-04  0.0100
   9.1783E-01   9.4016E-01   1.4396E-04  0.0102
   9.4016E-01   9.6304E-01   1.4265E-04  0.0101
   9.6304E-01   9.8647E-01   1.3378E-04  0.0103
   9.8647E-01   1.0105E+00   1.2921E-04  0.0104
   1.0105E+00   1.0351E+00   1.2804E-04  0.0103
   1.0351E+00   1.0602E+00   1.3006E-04  0.0101
   1.0602E+00   1.0860E+00   1.3046E-04  0.0100
   1.0860E+00   1.1125E+00   1.2978E-04  0.0099
   1.1125E+00   1.1395E+00   1.3481E-04  0.0096
   1.1395E+00   1.1673E+00   1.3928E-04  0.0093
   1.1673E+00   1.1957E+00   1.3927E-04  0.0092
   1.1957E+00   1.2247E+00   1.4508E-04  0.0089
   1.2247E+00   1.2545E+00   1.4280E-04  0.0089
   1.2545E+00   1.2851E+00   1.4439E-04  0.0087
   1.2851E+00   1.3163E+00   1.4706E-04  0.0085
   1.3163E+00   1.3484E+00   1.4814E-04  0.0084
   1.3484E+00   1.3812E+00   1.4944E-04  0.0082
   1.3812E+00   1.4148E+00   1.5108E-04  0.0081
   1.4148E+00   1.4492E+00   1.4991E-04  0.0080
   1.4492E+00   1.4845E+00   1.4725E-04  0.0080
   1.4845E+00   1.5206E+00   1.4968E-04  0.0079
   1.5206E+00   1.5576E+00   1.4618E-04  0.0079
   1.5576E+00   1.5955E+00   1.4755E-04  0.0077
   1.5955E+00   1.6343E+00   1.4891E-04  0.0076
   1.6343E+00   1.6741E+00   1.4895E-04  0.0075
   1.6741E+00   1.7148E+00   1.4919E-04  0.0074
   1.7148E+00   1.7565E+00   1.4813E-04  0.0073
   1.7565E+00   1.7992E+00   1.4619E-04  0.0073
   1.7992E+00   1.8430E+00   1.4390E-04  0.0073
   1.8430E+00   1.8879E+00   1.4193E-04  0.0072
   1.8879E+00   1.9338E+00   1.4174E-04  0.0072
   1.9338E+00   1.9808E+00   1.3863E-04  0.0071
   1.9808E+00   2.0290E+00   1.3869E-04  0.0071
   2.0290E+00   2.0784E+00   1.3594E-04  0.0070
   2.0784E+00   2.1290E+00   1.3298E-04  0.0070
   2.1290E+00   2.1808E+00   1.2902E-04  0.0071
   2.1808E+00   2.2338E+00   1.2495E-04  0.0071
   2.2338E+00   2.2882E+00   1.2368E-04  0.0070
   2.2882E+00   2.3439E+00   1.2207E-04  0.0070
   2.3439E+00   2.4009E+00   1.2029E-04  0.0070
   2.4009E+00   2.4593E+00   1.1658E-04  0.0070
   2.4593E+00   2.5191E+00   1.1418E-04  0.0070
   2.5191E+00   2.5804E+00   1.0963E-04  0.0070
   2.5804E+00   2.6432E+00   1.0698E-04  0.0070
   2.6432E+00   2.7075E+00   1.0283E-04  0.0071
   2.7075E+00   2.7734E+00   9.8108E-05  0.0072
   2.7734E+00   2.8409E+00   9.4553E-05  0.0072
   2.8409E+00   2.9100E+00   9.4250E-05  0.0072
   2.9100E+00   2.9808E+00   9.1367E-05  0.0072
   2.9808E+00   3.0533E+00   8.8948E-05  0.0072
   3.0533E+00   3.1276E+00   8.4735E-05  0.0073
   3.1276E+00   3.2037E+00   8.0839E-05  0.0074
   3.2037E+00   3.2817E+00   7.7538E-05  0.0074
   3.2817E+00   3.3615E+00   7.3776E-05  0.0075
   3.3615E+00   3.4433E+00   6.9839E-05  0.0076
   3.4433E+00   3.5271E+00   6.7201E-05  0.0077
   3.5271E+00   3.6129E+00   6.4805E-05  0.0077
   3.6129E+00   3.7008E+00   6.1426E-05  0.0079
   3.7008E+00   3.7908E+00   5.8785E-05  0.0079
   3.7908E+00   3.8831E+00   5.5616E-05  0.0081
   3.8831E+00   3.9776E+00   5.2689E-05  0.0082
   3.9776E+00   4.0743E+00   5.0081E-05  0.0083
   4.0743E+00   4.1735E+00   4.8478E-05  0.0083
   4.1735E+00   4.2750E+00   4.5215E-05  0.0085
   4.2750E+00   4.3790E+00   4.2843E-05  0.0086
   4.3790E+00   4.4856E+00   4.0928E-05  0.0087
   4.4856E+00   4.5947E+00   3.8511E-05  0.0089
   4.5947E+00   4.7065E+00   3.5989E-05  0.0091
   4.7065E+00   4.8210E+00   3.3836E-05  0.0093
   4.8210E+00   4.9383E+00   3.1759E-05  0.0095
   4.9383E+00   5.0585E+00   2.9795E-05  0.0097
   5.0585E+00   5.1815E+00   2.8763E-05  0.0097
   5.1815E+00   5.3076E+00   2.6995E-05  0.0099
   5.3076E+00   5.4368E+00   2.4989E-05  0.0102
   5.4368E+00   5.5690E+00   2.3652E-05  0.0103
   5.5690E+00   5.7045E+00   2.2431E-05  0.0105
   5.7045E+00   5.8433E+00   2.0805E-05  0.0107
   5.8433E+00   5.9855E+00   2.0156E-05  0.0108
   5.9855E+00   6.1311E+00   1.8560E-05  0.0111
   6.1311E+00   6.2803E+00   1.7221E-05  0.0114
   6.2803E+00   6.4331E+00   1.6071E-05  0.0117
   6.4331E+00   6.5896E+00   1.5861E-05  0.0116
   6.5896E+00   6.7500E+00   1.4939E-05  0.0118
   6.7500E+00   6.9142E+00   1.4195E-05  0.0120
   6.9142E+00   7.0824E+00   1.3493E-05  0.0121
   7.0824E+00   7.2548E+00   1.2630E-05  0.0124
   7.2548E+00   7.4313E+00   1.1876E-05  0.0126
   7.4313E+00   7.6121E+00   1.1594E-05  0.0126
   7.6121E+00   7.7973E+00   1.0662E-05  0.0130
   7.7973E+00   7.9870E+00   1.0364E-05  0.0130
   7.9870E+00   8.1813E+00   1.0135E-05  0.0130
   8.1813E+00   8.3804E+00   9.4872E-06  0.0133
   8.3804E+00   8.5843E+00   9.1204E-06  0.0134
   8.5843E+00   8.7931E+00   8.9924E-06  0.0133
   8.7931E+00   9.0071E+00   8.8450E-06  0.0133
   9.0071E+00   9.2262E+00   8.3482E-06  0.0135
   9.2262E+00   9.4507E+00   8.4157E-06  0.0133
   9.4507E+00   9.6807E+00   8.1766E-06  0.0133
   9.6807E+00   9.9162E+00   7.9555E-06  0.0133
   9.9162E+00   1.0157E+01   7.7272E-06  0.0134
   1.0157E+01   1.0405E+01   7.6205E-06  0.0133
   1.0405E+01   1.0658E+01   7.5225E-06  0.0132
   1.0658E+01   1.0917E+01   7.5160E-06  0.0131
   1.0917E+01   1.1183E+01   7.2334E-06  0.0132
   1.1183E+01   1.1455E+01   7.0903E-06  0.0131
   1.1455E+01   1.1733E+01   7.1773E-06  0.0129
   1.1733E+01   1.2019E+01   7.2321E-06  0.0127
   1.2019E+01   1.2311E+01   6.9606E-06  0.0128
   1.2311E+01   1.2611E+01   6.8103E-06  0.0128
   1.2611E+01   1.2918E+01   6.9815E-06  0.0125
   1.2918E+01   1.3232E+01   6.8989E-06  0.0124
   1.3232E+01   1.3554E+01   6.9711E-06  0.0122
   1.3554E+01   1.3884E+01   6.8920E-06  0.0121
   1.3884E+01   1.4222E+01   6.8255E-06  0.0120
   1.4222E+01   1.4568E+01   6.9441E-06  0.0118
   1.4568E+01   1.4922E+01   6.7105E-06  0.0118
   1.4922E+01   1.5285E+01   6.8137E-06  0.0116
   1.5285E+01   1.5657E+01   6.8769E-06  0.0114
   1.5657E+01   1.6038E+01   6.9624E-06  0.0112
   1.6038E+01   1.6428E+01   6.8667E-06  0.0112
   1.6428E+01   1.6828E+01   6.9667E-06  0.0109
   1.6828E+01   1.7237E+01   6.8342E-06  0.0109
   1.7237E+01   1.7657E+01   7.0168E-06  0.0106
   1.7657E+01   1.8086E+01   6.8109E-06  0.0107
   1.8086E+01   1.8526E+01   6.9696E-06  0.0104
   1.8526E+01   1.8977E+01   6.9730E-06  0.0103
   1.8977E+01   1.9439E+01   6.8904E-06  0.0102
   1.9439E+01   1.9912E+01   7.0069E-06  0.0100
   1.9912E+01   2.0396E+01   6.9010E-06  0.0100
   2.0396E+01   2.0893E+01   7.1045E-06  0.0097
   2.0893E+01   2.1401E+01   7.0492E-06  0.0096
   2.1401E+01   2.1922E+01   7.2447E-06  0.0094
   2.1922E+01   2.2455E+01   7.1182E-06  0.0094
   2.2455E+01   2.3001E+01   7.2744E-06  0.0092
   2.3001E+01   2.3561E+01   7.3809E-06  0.0090
   2.3561E+01   2.4134E+01   7.4184E-06  0.0089
   2.4134E+01   2.4721E+01   7.5936E-06  0.0086
   2.4721E+01   2.5323E+01   7.7119E-06  0.0085
   2.5323E+01   2.5939E+01   7.8707E-06  0.0083
   2.5939E+01   2.6570E+01   8.1047E-06  0.0081
   2.6570E+01   2.7217E+01   8.1772E-06  0.0079
   2.7217E+01   2.7879E+01   8.5125E-06  0.0077
   2.7879E+01   2.8557E+01   8.6946E-06  0.0075
   2.8557E+01   2.9252E+01   9.1021E-06  0.0073
   2.9252E+01   2.9964E+01   9.4348E-06  0.0070
   2.9964E+01   3.0693E+01   9.6981E-06  0.0069
   3.0693E+01   3.1440E+01   1.0141E-05  0.0066
   3.1440E+01   3.2205E+01   1.0696E-05  0.0064
   3.2205E+01   3.2988E+01   1.1297E-05  0.0061
   3.2988E+01   3.3791E+01   1.2053E-05  0.0059
   3.3791E+01   3.4613E+01   1.2904E-05  0.0056
   3.4613E+01   3.5455E+01   1.3903E-05  0.0053
   3.5455E+01   3.6318E+01   1.5141E-05  0.0051
   3.6318E+01   3.7201E+01   1.6397E-05  0.0048
   3.7201E+01   3.8106E+01   1.7714E-05  0.0046
   3.8106E+01   3.9034E+01   1.9786E-05  0.0043
   3.9034E+01   3.9983E+01   2.1499E-05  0.0040
   3.9983E+01   4.0956E+01   2.3833E-05  0.0038
   4.0956E+01   4.1953E+01   2.6360E-05  0.0036
   4.1953E+01   4.2973E+01   2.8805E-05  0.0034
   4.2973E+01   4.4019E+01   3.1870E-05  0.0032
   4.4019E+01   4.5090E+01   3.5002E-05  0.0030
   4.5090E+01   4.6187E+01   3.8040E-05  0.0028
   4.6187E+01   4.7311E+01   4.1192E-05  0.0027
   4.7311E+01   4.8462E+01   4.4036E-05  0.0026
   4.8462E+01   4.9641E+01   4.7133E-05  0.0024
   4.9641E+01   5.0849E+01   4.9829E-05  0.0024
   5.0849E+01   5.2086E+01   5.2010E-05  0.0023
   5.2086E+01   5.3353E+01   5.3671E-05  0.0022
   5.3353E+01   5.4651E+01   5.4609E-05  0.0022
   5.4651E+01   5.5981E+01   5.5173E-05  0.0021
   5.5981E+01   5.7343E+01   5.5058E-05  0.0021
   5.7343E+01   5.8738E+01   5.3830E-05  0.0021
   5.8738E+01   6.0168E+01   5.1542E-05  0.0021
   6.0168E+01   6.1632E+01   4.9582E-05  0.0021
   6.1632E+01   6.3131E+01   4.6328E-05  0.0022
   6.3131E+01   6.4667E+01   4.2676E-05  0.0023
   6.4667E+01   6.6240E+01   3.8804E-05  0.0023
   6.6240E+01   6.7852E+01   3.4786E-05  0.0024
   6.7852E+01   6.9503E+01   3.0932E-05  0.0026
   6.9503E+01   7.1194E+01   2.7189E-05  0.0027
   7.1194E+01   7.2926E+01   2.3843E-05  0.0028
   7.2926E+01   7.4701E+01   2.0574E-05  0.0030
   7.4701E+01   7.6518E+01   1.7858E-05  0.0032
   7.6518E+01   7.8380E+01   1.5208E-05  0.0034
   7.8380E+01   8.0287E+01   1.3146E-05  0.0036
   8.0287E+01   8.2240E+01   1.1296E-05  0.0039
   8.2240E+01   8.4241E+01   9.7278E-06  0.0041
   8.4241E+01   8.6291E+01   8.3750E-06  0.0044
   8.6291E+01   8.8391E+01   7.1613E-06  0.0047
   8.8391E+01   9.0541E+01   6.1305E-06  0.0050
   9.0541E+01   9.2744E+01   5.3135E-06  0.0053
   9.2744E+01   9.5001E+01   4.6365E-06  0.0056
   9.5001E+01   9.7312E+01   4.0324E-06  0.0060
   9.7312E+01   9.9680E+01   3.4322E-06  0.0064
   9.9680E+01   1.0211E+02   2.8886E-06  0.0069
   1.0211E+02   1.0459E+02   2.4386E-06  0.0074
   1.0459E+02   1.0713E+02   2.0319E-06  0.0080
   1.0713E+02   1.0974E+02   1.7077E-06  0.0087
   1.0974E+02   1.1241E+02   1.4133E-06  0.0094
   1.1241E+02   1.1515E+02   1.1150E-06  0.0105
   1.1515E+02   1.1795E+02   8.3524E-07  0.0119
   1.1795E+02   1.2082E+02   5.9448E-07  0.0140
   1.2082E+02   1.2376E+02   4.3283E-07  0.0162
   1.2376E+02   1.2677E+02   2.6458E-07  0.0205
   1.2677E+02   1.2985E+02   1.0526E-07  0.0320
   1.2985E+02   1.3301E+02   4.3257E-09  0.1562
   1.3301E+02   1.3625E+02   0.0000E+00  0.0000
   1.3625E+02   1.3956E+02   0.0000E+00  0.0000
   1.3956E+02   1.4296E+02   0.0000E+00  0.0000
   1.4296E+02   1.4644E+02   0.0000E+00  0.0000
   1.4644E+02   1.5000E+02   0.0000E+00  0.0000

#   sum over                 1.8666E-05
'no. =    1   reg = 100 - 200'
msuc: {\huge [t-cross] in region mesh}
msdr: {\it plotted by \ANGEL \version}
msdl: {\it calculated by \PHITS  3.26}
wt: s(0.7)
\vspace{-3}
  region surface crossing
  area  &=&   1.0000E+00 [cm^2]
e:
 
# Information for Restart Calculation
# This calculation was newly started
# istdev =  2 # 1:Batch variance, 2:History variance
# resc2  = 3.00000000000000000E+09 # Total source weight or Total source weight / maxcas
# resc3  = 3.00000000000000000E+09 # Total history number or Total batch number
# maxcas =   500000000 # History / Batch, only used for istdev=1
# bitrseed = 0110110011111001100110101011100000010010001000001101100100111101 # bit data of rseed
