[ T-Cross ]
    title = [t-cross] in region mesh
     mesh =  reg            # mesh type is region-wise
      reg =    1            # number of crossing regions
      non     r-from    r-to       area
      1       125       225        1.000000    
   e-type =    3            # e-mesh is log given by emin, emax and ne
     emin =  1.0000000E-02  # minimum value of e-mesh points
     emax =   150.0000      # maximum value of e-mesh points
#    edel =  2.4039514E-02  # mesh width of e-mesh points
       ne =    400          # number of e-mesh points
#    data = ( e(i), i = 1, ne + 1 )
#           1.00000E-02  1.02433E-02  1.04925E-02  1.07478E-02  1.10093E-02
#           1.12772E-02  1.15516E-02  1.18326E-02  1.21205E-02  1.24154E-02
#           1.27175E-02  1.30269E-02  1.33439E-02  1.36686E-02  1.40011E-02
#           1.43418E-02  1.46907E-02  1.50482E-02  1.54143E-02  1.57894E-02
#           1.61735E-02  1.65670E-02  1.69701E-02  1.73830E-02  1.78060E-02
#           1.82392E-02  1.86830E-02  1.91375E-02  1.96032E-02  2.00801E-02
#           2.05687E-02  2.10692E-02  2.15818E-02  2.21069E-02  2.26448E-02
#           2.31957E-02  2.37601E-02  2.43382E-02  2.49304E-02  2.55369E-02
#           2.61583E-02  2.67947E-02  2.74467E-02  2.81145E-02  2.87985E-02
#           2.94992E-02  3.02169E-02  3.09521E-02  3.17052E-02  3.24766E-02
#           3.32668E-02  3.40762E-02  3.49053E-02  3.57546E-02  3.66246E-02
#           3.75157E-02  3.84284E-02  3.93634E-02  4.03212E-02  4.13022E-02
#           4.23071E-02  4.33365E-02  4.43909E-02  4.54710E-02  4.65773E-02
#           4.77106E-02  4.88714E-02  5.00605E-02  5.12785E-02  5.25262E-02
#           5.38042E-02  5.51133E-02  5.64542E-02  5.78278E-02  5.92348E-02
#           6.06760E-02  6.21523E-02  6.36645E-02  6.52135E-02  6.68002E-02
#           6.84255E-02  7.00904E-02  7.17957E-02  7.35426E-02  7.53319E-02
#           7.71648E-02  7.90423E-02  8.09655E-02  8.29354E-02  8.49533E-02
#           8.70203E-02  8.91376E-02  9.13064E-02  9.35279E-02  9.58035E-02
#           9.81345E-02  1.00522E-01  1.02968E-01  1.05473E-01  1.08040E-01
#           1.10668E-01  1.13361E-01  1.16119E-01  1.18944E-01  1.21838E-01
#           1.24803E-01  1.27839E-01  1.30950E-01  1.34136E-01  1.37399E-01
#           1.40742E-01  1.44167E-01  1.47675E-01  1.51268E-01  1.54948E-01
#           1.58718E-01  1.62580E-01  1.66535E-01  1.70587E-01  1.74738E-01
#           1.78989E-01  1.83344E-01  1.87805E-01  1.92375E-01  1.97055E-01
#           2.01850E-01  2.06761E-01  2.11792E-01  2.16945E-01  2.22223E-01
#           2.27630E-01  2.33169E-01  2.38842E-01  2.44653E-01  2.50605E-01
#           2.56703E-01  2.62949E-01  2.69346E-01  2.75900E-01  2.82613E-01
#           2.89489E-01  2.96532E-01  3.03747E-01  3.11138E-01  3.18708E-01
#           3.26462E-01  3.34405E-01  3.42542E-01  3.50876E-01  3.59413E-01
#           3.68158E-01  3.77116E-01  3.86291E-01  3.95690E-01  4.05317E-01
#           4.15179E-01  4.25281E-01  4.35628E-01  4.46227E-01  4.57084E-01
#           4.68205E-01  4.79597E-01  4.91266E-01  5.03219E-01  5.15463E-01
#           5.28005E-01  5.40851E-01  5.54011E-01  5.67490E-01  5.81298E-01
#           5.95441E-01  6.09929E-01  6.24769E-01  6.39970E-01  6.55541E-01
#           6.71491E-01  6.87828E-01  7.04564E-01  7.21706E-01  7.39266E-01
#           7.57253E-01  7.75678E-01  7.94551E-01  8.13883E-01  8.33685E-01
#           8.53969E-01  8.74747E-01  8.96030E-01  9.17831E-01  9.40163E-01
#           9.63038E-01  9.86469E-01  1.01047E+00  1.03506E+00  1.06024E+00
#           1.08604E+00  1.11246E+00  1.13953E+00  1.16725E+00  1.19565E+00
#           1.22474E+00  1.25454E+00  1.28507E+00  1.31633E+00  1.34836E+00
#           1.38117E+00  1.41477E+00  1.44920E+00  1.48446E+00  1.52057E+00
#           1.55757E+00  1.59547E+00  1.63429E+00  1.67405E+00  1.71478E+00
#           1.75650E+00  1.79924E+00  1.84302E+00  1.88786E+00  1.93379E+00
#           1.98084E+00  2.02904E+00  2.07841E+00  2.12898E+00  2.18078E+00
#           2.23384E+00  2.28819E+00  2.34386E+00  2.40089E+00  2.45930E+00
#           2.51914E+00  2.58043E+00  2.64322E+00  2.70753E+00  2.77341E+00
#           2.84088E+00  2.91001E+00  2.98081E+00  3.05333E+00  3.12762E+00
#           3.20372E+00  3.28167E+00  3.36152E+00  3.44330E+00  3.52708E+00
#           3.61290E+00  3.70080E+00  3.79085E+00  3.88308E+00  3.97756E+00
#           4.07434E+00  4.17347E+00  4.27501E+00  4.37903E+00  4.48557E+00
#           4.59471E+00  4.70650E+00  4.82102E+00  4.93832E+00  5.05847E+00
#           5.18155E+00  5.30762E+00  5.43676E+00  5.56904E+00  5.70453E+00
#           5.84333E+00  5.98550E+00  6.13114E+00  6.28031E+00  6.43312E+00
#           6.58964E+00  6.74997E+00  6.91420E+00  7.08243E+00  7.25475E+00
#           7.43126E+00  7.61207E+00  7.79728E+00  7.98700E+00  8.18133E+00
#           8.38038E+00  8.58428E+00  8.79315E+00  9.00709E+00  9.22624E+00
#           9.45072E+00  9.68067E+00  9.91620E+00  1.01575E+01  1.04046E+01
#           1.06578E+01  1.09171E+01  1.11827E+01  1.14548E+01  1.17335E+01
#           1.20190E+01  1.23114E+01  1.26109E+01  1.29178E+01  1.32321E+01
#           1.35540E+01  1.38838E+01  1.42216E+01  1.45676E+01  1.49221E+01
#           1.52851E+01  1.56570E+01  1.60380E+01  1.64282E+01  1.68279E+01
#           1.72374E+01  1.76568E+01  1.80864E+01  1.85264E+01  1.89772E+01
#           1.94389E+01  1.99119E+01  2.03963E+01  2.08926E+01  2.14009E+01
#           2.19216E+01  2.24550E+01  2.30014E+01  2.35610E+01  2.41343E+01
#           2.47215E+01  2.53230E+01  2.59391E+01  2.65702E+01  2.72167E+01
#           2.78789E+01  2.85572E+01  2.92520E+01  2.99637E+01  3.06928E+01
#           3.14396E+01  3.22045E+01  3.29881E+01  3.37907E+01  3.46128E+01
#           3.54550E+01  3.63177E+01  3.72013E+01  3.81064E+01  3.90336E+01
#           3.99833E+01  4.09561E+01  4.19526E+01  4.29734E+01  4.40189E+01
#           4.50900E+01  4.61870E+01  4.73108E+01  4.84619E+01  4.96410E+01
#           5.08488E+01  5.20860E+01  5.33533E+01  5.46514E+01  5.59812E+01
#           5.73432E+01  5.87384E+01  6.01676E+01  6.16315E+01  6.31311E+01
#           6.46671E+01  6.62405E+01  6.78522E+01  6.95031E+01  7.11941E+01
#           7.29263E+01  7.47007E+01  7.65182E+01  7.83800E+01  8.02870E+01
#           8.22405E+01  8.42414E+01  8.62911E+01  8.83906E+01  9.05412E+01
#           9.27442E+01  9.50007E+01  9.73122E+01  9.96799E+01  1.02105E+02
#           1.04589E+02  1.07134E+02  1.09741E+02  1.12411E+02  1.15146E+02
#           1.17948E+02  1.20817E+02  1.23757E+02  1.26768E+02  1.29852E+02
#           1.33012E+02  1.36248E+02  1.39563E+02  1.42959E+02  1.46437E+02
#           1.50000E+02
     unit =    2            # unit is [1/cm^2/(MeV/n)/source]
     axis =  eng            # axis of output
     file = detector-26.out  # file name of output for the above axis
   output = f-curr          # surface crossing forward current spectrum
     part =  neutron  
# kf/name :  2112     
#    used :        main (  %)        temp (  %)       total (  %)
#  memory :         414 (  0)           0 (  0)         414 (  0)

#------------------------------------------------------------------------------
#newpage:
#   no. =    1   reg = 125 - 225

x: Energy [MeV/n]
y:  F-Curr [1/cm^2/(MeV/n)/source]         
p: xlog ylog afac(0.8) form(0.9)
h: n            x            y(neutron ),hh0l   n 
#  e-lower      e-upper      neutron     r.err 
   1.0000E-02   1.0243E-02   4.4635E-04  0.0429
   1.0243E-02   1.0493E-02   4.6704E-04  0.0415
   1.0493E-02   1.0748E-02   4.2696E-04  0.0428
   1.0748E-02   1.1009E-02   4.2447E-04  0.0424
   1.1009E-02   1.1277E-02   4.5321E-04  0.0406
   1.1277E-02   1.1552E-02   4.4717E-04  0.0404
   1.1552E-02   1.1833E-02   4.6325E-04  0.0392
   1.1833E-02   1.2121E-02   4.3835E-04  0.0398
   1.2121E-02   1.2415E-02   4.1505E-04  0.0404
   1.2415E-02   1.2718E-02   4.4107E-04  0.0387
   1.2718E-02   1.3027E-02   4.3509E-04  0.0385
   1.3027E-02   1.3344E-02   4.1628E-04  0.0389
   1.3344E-02   1.3669E-02   4.2409E-04  0.0381
   1.3669E-02   1.4001E-02   4.5284E-04  0.0364
   1.4001E-02   1.4342E-02   4.5293E-04  0.0360
   1.4342E-02   1.4691E-02   4.3388E-04  0.0363
   1.4691E-02   1.5048E-02   4.1977E-04  0.0365
   1.5048E-02   1.5414E-02   4.4355E-04  0.0351
   1.5414E-02   1.5789E-02   4.5062E-04  0.0344
   1.5789E-02   1.6174E-02   4.4356E-04  0.0343
   1.6174E-02   1.6567E-02   4.5691E-04  0.0334
   1.6567E-02   1.6970E-02   4.2832E-04  0.0340
   1.6970E-02   1.7383E-02   4.5610E-04  0.0326
   1.7383E-02   1.7806E-02   4.6160E-04  0.0320
   1.7806E-02   1.8239E-02   4.3995E-04  0.0324
   1.8239E-02   1.8683E-02   4.4392E-04  0.0319
   1.8683E-02   1.9138E-02   4.3135E-04  0.0319
   1.9138E-02   1.9603E-02   4.5487E-04  0.0307
   1.9603E-02   2.0080E-02   4.4496E-04  0.0307
   2.0080E-02   2.0569E-02   4.5930E-04  0.0299
   2.0569E-02   2.1069E-02   4.4810E-04  0.0299
   2.1069E-02   2.1582E-02   4.3026E-04  0.0301
   2.1582E-02   2.2107E-02   4.4601E-04  0.0292
   2.2107E-02   2.2645E-02   4.4179E-04  0.0290
   2.2645E-02   2.3196E-02   4.3741E-04  0.0288
   2.3196E-02   2.3760E-02   4.4970E-04  0.0281
   2.3760E-02   2.4338E-02   4.4416E-04  0.0279
   2.4338E-02   2.4930E-02   4.5730E-04  0.0272
   2.4930E-02   2.5537E-02   4.4125E-04  0.0273
   2.5537E-02   2.6158E-02   4.6674E-04  0.0263
   2.6158E-02   2.6795E-02   4.4236E-04  0.0266
   2.6795E-02   2.7447E-02   4.3961E-04  0.0264
   2.7447E-02   2.8114E-02   4.6152E-04  0.0255
   2.8114E-02   2.8799E-02   4.6237E-04  0.0251
   2.8799E-02   2.9499E-02   4.5708E-04  0.0250
   2.9499E-02   3.0217E-02   4.6145E-04  0.0246
   3.0217E-02   3.0952E-02   4.4015E-04  0.0249
   3.0952E-02   3.1705E-02   4.7113E-04  0.0237
   3.1705E-02   3.2477E-02   4.5875E-04  0.0238
   3.2477E-02   3.3267E-02   4.5249E-04  0.0236
   3.3267E-02   3.4076E-02   4.4475E-04  0.0236
   3.4076E-02   3.4905E-02   4.4530E-04  0.0233
   3.4905E-02   3.5755E-02   4.4744E-04  0.0229
   3.5755E-02   3.6625E-02   4.3593E-04  0.0230
   3.6625E-02   3.7516E-02   4.6190E-04  0.0220
   3.7516E-02   3.8428E-02   4.6260E-04  0.0218
   3.8428E-02   3.9363E-02   4.7145E-04  0.0213
   3.9363E-02   4.0321E-02   4.4576E-04  0.0216
   4.0321E-02   4.1302E-02   4.7323E-04  0.0208
   4.1302E-02   4.2307E-02   4.5165E-04  0.0210
   4.2307E-02   4.3337E-02   4.6767E-04  0.0204
   4.3337E-02   4.4391E-02   4.6889E-04  0.0201
   4.4391E-02   4.5471E-02   4.5763E-04  0.0201
   4.5471E-02   4.6577E-02   4.7493E-04  0.0195
   4.6577E-02   4.7711E-02   4.6603E-04  0.0195
   4.7711E-02   4.8871E-02   4.6868E-04  0.0192
   4.8871E-02   5.0061E-02   4.6226E-04  0.0191
   5.0061E-02   5.1279E-02   4.5742E-04  0.0189
   5.1279E-02   5.2526E-02   4.7249E-04  0.0184
   5.2526E-02   5.3804E-02   4.6249E-04  0.0184
   5.3804E-02   5.5113E-02   4.5683E-04  0.0183
   5.5113E-02   5.6454E-02   4.5859E-04  0.0180
   5.6454E-02   5.7828E-02   4.7128E-04  0.0176
   5.7828E-02   5.9235E-02   4.6149E-04  0.0175
   5.9235E-02   6.0676E-02   4.6009E-04  0.0174
   6.0676E-02   6.2152E-02   4.6973E-04  0.0170
   6.2152E-02   6.3665E-02   4.6112E-04  0.0169
   6.3665E-02   6.5214E-02   4.5208E-04  0.0169
   6.5214E-02   6.6800E-02   4.4303E-04  0.0169
   6.6800E-02   6.8426E-02   4.6969E-04  0.0162
   6.8426E-02   7.0090E-02   4.6631E-04  0.0161
   7.0090E-02   7.1796E-02   4.5794E-04  0.0160
   7.1796E-02   7.3543E-02   4.5871E-04  0.0158
   7.3543E-02   7.5332E-02   4.4765E-04  0.0158
   7.5332E-02   7.7165E-02   4.5988E-04  0.0154
   7.7165E-02   7.9042E-02   4.5758E-04  0.0153
   7.9042E-02   8.0965E-02   4.7029E-04  0.0149
   8.0965E-02   8.2935E-02   4.5806E-04  0.0149
   8.2935E-02   8.4953E-02   4.6716E-04  0.0146
   8.4953E-02   8.7020E-02   4.5703E-04  0.0145
   8.7020E-02   8.9138E-02   4.5958E-04  0.0143
   8.9138E-02   9.1306E-02   4.5335E-04  0.0143
   9.1306E-02   9.3528E-02   4.4782E-04  0.0142
   9.3528E-02   9.5804E-02   4.6054E-04  0.0138
   9.5804E-02   9.8134E-02   4.6295E-04  0.0136
   9.8134E-02   1.0052E-01   4.6412E-04  0.0134
   1.0052E-01   1.0297E-01   4.5721E-04  0.0134
   1.0297E-01   1.0547E-01   4.4176E-04  0.0134
   1.0547E-01   1.0804E-01   4.5720E-04  0.0131
   1.0804E-01   1.1067E-01   4.5874E-04  0.0129
   1.1067E-01   1.1336E-01   4.5593E-04  0.0128
   1.1336E-01   1.1612E-01   4.4927E-04  0.0127
   1.1612E-01   1.1894E-01   4.5221E-04  0.0125
   1.1894E-01   1.2184E-01   4.4837E-04  0.0124
   1.2184E-01   1.2480E-01   4.5473E-04  0.0122
   1.2480E-01   1.2784E-01   4.4414E-04  0.0122
   1.2784E-01   1.3095E-01   4.5331E-04  0.0119
   1.3095E-01   1.3414E-01   4.5356E-04  0.0118
   1.3414E-01   1.3740E-01   4.5496E-04  0.0116
   1.3740E-01   1.4074E-01   4.4422E-04  0.0116
   1.4074E-01   1.4417E-01   4.4150E-04  0.0115
   1.4417E-01   1.4767E-01   4.4057E-04  0.0114
   1.4767E-01   1.5127E-01   4.4698E-04  0.0112
   1.5127E-01   1.5495E-01   4.4113E-04  0.0111
   1.5495E-01   1.5872E-01   4.3730E-04  0.0110
   1.5872E-01   1.6258E-01   4.3939E-04  0.0109
   1.6258E-01   1.6654E-01   4.3365E-04  0.0108
   1.6654E-01   1.7059E-01   4.3103E-04  0.0107
   1.7059E-01   1.7474E-01   4.3369E-04  0.0105
   1.7474E-01   1.7899E-01   4.2780E-04  0.0105
   1.7899E-01   1.8334E-01   4.3238E-04  0.0103
   1.8334E-01   1.8781E-01   4.3150E-04  0.0102
   1.8781E-01   1.9237E-01   4.2676E-04  0.0101
   1.9237E-01   1.9706E-01   4.2441E-04  0.0100
   1.9706E-01   2.0185E-01   4.2473E-04  0.0099
   2.0185E-01   2.0676E-01   4.3112E-04  0.0097
   2.0676E-01   2.1179E-01   4.2439E-04  0.0097
   2.1179E-01   2.1694E-01   4.1469E-04  0.0097
   2.1694E-01   2.2222E-01   4.1972E-04  0.0095
   2.2222E-01   2.2763E-01   4.1166E-04  0.0095
   2.2763E-01   2.3317E-01   4.1287E-04  0.0094
   2.3317E-01   2.3884E-01   4.1599E-04  0.0092
   2.3884E-01   2.4465E-01   3.9896E-04  0.0093
   2.4465E-01   2.5061E-01   4.0447E-04  0.0091
   2.5061E-01   2.5670E-01   4.0223E-04  0.0090
   2.5670E-01   2.6295E-01   4.0185E-04  0.0089
   2.6295E-01   2.6935E-01   3.9126E-04  0.0089
   2.6935E-01   2.7590E-01   3.9988E-04  0.0087
   2.7590E-01   2.8261E-01   3.9146E-04  0.0087
   2.8261E-01   2.8949E-01   3.9448E-04  0.0086
   2.8949E-01   2.9653E-01   3.9151E-04  0.0085
   2.9653E-01   3.0375E-01   3.8633E-04  0.0085
   3.0375E-01   3.1114E-01   3.7705E-04  0.0085
   3.1114E-01   3.1871E-01   3.7945E-04  0.0083
   3.1871E-01   3.2646E-01   3.7449E-04  0.0083
   3.2646E-01   3.3441E-01   3.7248E-04  0.0082
   3.3441E-01   3.4254E-01   3.6924E-04  0.0082
   3.4254E-01   3.5088E-01   3.6149E-04  0.0081
   3.5088E-01   3.5941E-01   3.6085E-04  0.0081
   3.5941E-01   3.6816E-01   3.5617E-04  0.0080
   3.6816E-01   3.7712E-01   3.5705E-04  0.0079
   3.7712E-01   3.8629E-01   3.5431E-04  0.0078
   3.8629E-01   3.9569E-01   3.4974E-04  0.0078
   3.9569E-01   4.0532E-01   3.4254E-04  0.0078
   4.0532E-01   4.1518E-01   3.3971E-04  0.0077
   4.1518E-01   4.2528E-01   3.3785E-04  0.0077
   4.2528E-01   4.3563E-01   3.3492E-04  0.0076
   4.3563E-01   4.4623E-01   3.2768E-04  0.0076
   4.4623E-01   4.5708E-01   3.2061E-04  0.0076
   4.5708E-01   4.6821E-01   3.2125E-04  0.0075
   4.6821E-01   4.7960E-01   3.1708E-04  0.0074
   4.7960E-01   4.9127E-01   3.1053E-04  0.0074
   4.9127E-01   5.0322E-01   3.0561E-04  0.0074
   5.0322E-01   5.1546E-01   3.0081E-04  0.0074
   5.1546E-01   5.2800E-01   2.9509E-04  0.0074
   5.2800E-01   5.4085E-01   2.9128E-04  0.0073
   5.4085E-01   5.5401E-01   2.8811E-04  0.0073
   5.5401E-01   5.6749E-01   2.7866E-04  0.0073
   5.6749E-01   5.8130E-01   2.7628E-04  0.0072
   5.8130E-01   5.9544E-01   2.6995E-04  0.0072
   5.9544E-01   6.0993E-01   2.6118E-04  0.0073
   6.0993E-01   6.2477E-01   2.6304E-04  0.0072
   6.2477E-01   6.3997E-01   2.5536E-04  0.0072
   6.3997E-01   6.5554E-01   2.4987E-04  0.0072
   6.5554E-01   6.7149E-01   2.4441E-04  0.0072
   6.7149E-01   6.8783E-01   2.3580E-04  0.0072
   6.8783E-01   7.0456E-01   2.3543E-04  0.0071
   7.0456E-01   7.2171E-01   2.2773E-04  0.0072
   7.2171E-01   7.3927E-01   2.2329E-04  0.0071
   7.3927E-01   7.5725E-01   2.1506E-04  0.0072
   7.5725E-01   7.7568E-01   2.0911E-04  0.0072
   7.7568E-01   7.9455E-01   2.0534E-04  0.0072
   7.9455E-01   8.1388E-01   1.9777E-04  0.0072
   8.1388E-01   8.3368E-01   1.9310E-04  0.0072
   8.3368E-01   8.5397E-01   1.8727E-04  0.0073
   8.5397E-01   8.7475E-01   1.7791E-04  0.0074
   8.7475E-01   8.9603E-01   1.7266E-04  0.0074
   8.9603E-01   9.1783E-01   1.6908E-04  0.0074
   9.1783E-01   9.4016E-01   1.6127E-04  0.0075
   9.4016E-01   9.6304E-01   1.5295E-04  0.0076
   9.6304E-01   9.8647E-01   1.4771E-04  0.0076
   9.8647E-01   1.0105E+00   1.4376E-04  0.0076
   1.0105E+00   1.0351E+00   1.4382E-04  0.0075
   1.0351E+00   1.0602E+00   1.4564E-04  0.0074
   1.0602E+00   1.0860E+00   1.4519E-04  0.0073
   1.0860E+00   1.1125E+00   1.4500E-04  0.0072
   1.1125E+00   1.1395E+00   1.4968E-04  0.0070
   1.1395E+00   1.1673E+00   1.5129E-04  0.0069
   1.1673E+00   1.1957E+00   1.5561E-04  0.0067
   1.1957E+00   1.2247E+00   1.5647E-04  0.0066
   1.2247E+00   1.2545E+00   1.5767E-04  0.0065
   1.2545E+00   1.2851E+00   1.5554E-04  0.0065
   1.2851E+00   1.3163E+00   1.5761E-04  0.0064
   1.3163E+00   1.3484E+00   1.5794E-04  0.0063
   1.3484E+00   1.3812E+00   1.5928E-04  0.0062
   1.3812E+00   1.4148E+00   1.6111E-04  0.0061
   1.4148E+00   1.4492E+00   1.6254E-04  0.0060
   1.4492E+00   1.4845E+00   1.6028E-04  0.0059
   1.4845E+00   1.5206E+00   1.5737E-04  0.0059
   1.5206E+00   1.5576E+00   1.5715E-04  0.0059
   1.5576E+00   1.5955E+00   1.5727E-04  0.0058
   1.5955E+00   1.6343E+00   1.5547E-04  0.0058
   1.6343E+00   1.6741E+00   1.5437E-04  0.0057
   1.6741E+00   1.7148E+00   1.5476E-04  0.0056
   1.7148E+00   1.7565E+00   1.5490E-04  0.0056
   1.7565E+00   1.7992E+00   1.4986E-04  0.0056
   1.7992E+00   1.8430E+00   1.4824E-04  0.0055
   1.8430E+00   1.8879E+00   1.4499E-04  0.0055
   1.8879E+00   1.9338E+00   1.4269E-04  0.0055
   1.9338E+00   1.9808E+00   1.4185E-04  0.0055
   1.9808E+00   2.0290E+00   1.3923E-04  0.0055
   2.0290E+00   2.0784E+00   1.3782E-04  0.0054
   2.0784E+00   2.1290E+00   1.3305E-04  0.0054
   2.1290E+00   2.1808E+00   1.2841E-04  0.0055
   2.1808E+00   2.2338E+00   1.2602E-04  0.0055
   2.2338E+00   2.2882E+00   1.2141E-04  0.0055
   2.2882E+00   2.3439E+00   1.1990E-04  0.0055
   2.3439E+00   2.4009E+00   1.1497E-04  0.0055
   2.4009E+00   2.4593E+00   1.1287E-04  0.0055
   2.4593E+00   2.5191E+00   1.0881E-04  0.0055
   2.5191E+00   2.5804E+00   1.0393E-04  0.0056
   2.5804E+00   2.6432E+00   1.0063E-04  0.0056
   2.6432E+00   2.7075E+00   9.5043E-05  0.0057
   2.7075E+00   2.7734E+00   9.1531E-05  0.0057
   2.7734E+00   2.8409E+00   8.8947E-05  0.0058
   2.8409E+00   2.9100E+00   8.5507E-05  0.0058
   2.9100E+00   2.9808E+00   8.1469E-05  0.0059
   2.9808E+00   3.0533E+00   7.7926E-05  0.0059
   3.0533E+00   3.1276E+00   7.3831E-05  0.0060
   3.1276E+00   3.2037E+00   7.0739E-05  0.0061
   3.2037E+00   3.2817E+00   6.6524E-05  0.0062
   3.2817E+00   3.3615E+00   6.3364E-05  0.0063
   3.3615E+00   3.4433E+00   6.0472E-05  0.0063
   3.4433E+00   3.5271E+00   5.6760E-05  0.0065
   3.5271E+00   3.6129E+00   5.4316E-05  0.0065
   3.6129E+00   3.7008E+00   5.1337E-05  0.0066
   3.7008E+00   3.7908E+00   4.7996E-05  0.0068
   3.7908E+00   3.8831E+00   4.5221E-05  0.0069
   3.8831E+00   3.9776E+00   4.3217E-05  0.0070
   3.9776E+00   4.0743E+00   4.0194E-05  0.0071
   4.0743E+00   4.1735E+00   3.7886E-05  0.0073
   4.1735E+00   4.2750E+00   3.5777E-05  0.0074
   4.2750E+00   4.3790E+00   3.3414E-05  0.0075
   4.3790E+00   4.4856E+00   3.1643E-05  0.0077
   4.4856E+00   4.5947E+00   2.9336E-05  0.0079
   4.5947E+00   4.7065E+00   2.7784E-05  0.0080
   4.7065E+00   4.8210E+00   2.5939E-05  0.0082
   4.8210E+00   4.9383E+00   2.4386E-05  0.0083
   4.9383E+00   5.0585E+00   2.2807E-05  0.0085
   5.0585E+00   5.1815E+00   2.1591E-05  0.0086
   5.1815E+00   5.3076E+00   1.9703E-05  0.0089
   5.3076E+00   5.4368E+00   1.8244E-05  0.0092
   5.4368E+00   5.5690E+00   1.7111E-05  0.0093
   5.5690E+00   5.7045E+00   1.5954E-05  0.0096
   5.7045E+00   5.8433E+00   1.4826E-05  0.0098
   5.8433E+00   5.9855E+00   1.3960E-05  0.0100
   5.9855E+00   6.1311E+00   1.2826E-05  0.0103
   6.1311E+00   6.2803E+00   1.1973E-05  0.0105
   6.2803E+00   6.4331E+00   1.0986E-05  0.0108
   6.4331E+00   6.5896E+00   1.0100E-05  0.0112
   6.5896E+00   6.7500E+00   9.3956E-06  0.0115
   6.7500E+00   6.9142E+00   8.7609E-06  0.0117
   6.9142E+00   7.0824E+00   8.0116E-06  0.0121
   7.0824E+00   7.2548E+00   7.3903E-06  0.0125
   7.2548E+00   7.4313E+00   6.8722E-06  0.0128
   7.4313E+00   7.6121E+00   6.2064E-06  0.0133
   7.6121E+00   7.7973E+00   5.6796E-06  0.0137
   7.7973E+00   7.9870E+00   5.2868E-06  0.0140
   7.9870E+00   8.1813E+00   4.7971E-06  0.0146
   8.1813E+00   8.3804E+00   4.4792E-06  0.0149
   8.3804E+00   8.5843E+00   4.0933E-06  0.0154
   8.5843E+00   8.7931E+00   3.6916E-06  0.0160
   8.7931E+00   9.0071E+00   3.5041E-06  0.0162
   9.0071E+00   9.2262E+00   3.1246E-06  0.0170
   9.2262E+00   9.4507E+00   2.8619E-06  0.0176
   9.4507E+00   9.6807E+00   2.6223E-06  0.0181
   9.6807E+00   9.9162E+00   2.3695E-06  0.0188
   9.9162E+00   1.0157E+01   2.1675E-06  0.0195
   1.0157E+01   1.0405E+01   1.9549E-06  0.0202
   1.0405E+01   1.0658E+01   1.8105E-06  0.0208
   1.0658E+01   1.0917E+01   1.7004E-06  0.0212
   1.0917E+01   1.1183E+01   1.4749E-06  0.0225
   1.1183E+01   1.1455E+01   1.3356E-06  0.0233
   1.1455E+01   1.1733E+01   1.2505E-06  0.0238
   1.1733E+01   1.2019E+01   1.1274E-06  0.0248
   1.2019E+01   1.2311E+01   1.0032E-06  0.0260
   1.2311E+01   1.2611E+01   9.5181E-07  0.0264
   1.2611E+01   1.2918E+01   8.9448E-07  0.0269
   1.2918E+01   1.3232E+01   7.9885E-07  0.0281
   1.3232E+01   1.3554E+01   7.0366E-07  0.0296
   1.3554E+01   1.3884E+01   6.4136E-07  0.0306
   1.3884E+01   1.4222E+01   5.9945E-07  0.0313
   1.4222E+01   1.4568E+01   5.2298E-07  0.0331
   1.4568E+01   1.4922E+01   4.9969E-07  0.0335
   1.4922E+01   1.5285E+01   4.5195E-07  0.0348
   1.5285E+01   1.5657E+01   3.8819E-07  0.0371
   1.5657E+01   1.6038E+01   3.8267E-07  0.0370
   1.6038E+01   1.6428E+01   3.4634E-07  0.0384
   1.6428E+01   1.6828E+01   3.2684E-07  0.0390
   1.6828E+01   1.7237E+01   3.5438E-07  0.0371
   1.7237E+01   1.7657E+01   2.9394E-07  0.0402
   1.7657E+01   1.8086E+01   2.7139E-07  0.0414
   1.8086E+01   1.8526E+01   2.3403E-07  0.0440
   1.8526E+01   1.8977E+01   2.2870E-07  0.0440
   1.8977E+01   1.9439E+01   2.0055E-07  0.0465
   1.9439E+01   1.9912E+01   2.1186E-07  0.0447
   1.9912E+01   2.0396E+01   1.8990E-07  0.0466
   2.0396E+01   2.0893E+01   1.7007E-07  0.0487
   2.0893E+01   2.1401E+01   1.5580E-07  0.0503
   2.1401E+01   2.1922E+01   1.5325E-07  0.0501
   2.1922E+01   2.2455E+01   1.4699E-07  0.0505
   2.2455E+01   2.3001E+01   1.3435E-07  0.0522
   2.3001E+01   2.3561E+01   1.2794E-07  0.0529
   2.3561E+01   2.4134E+01   1.2176E-07  0.0535
   2.4134E+01   2.4721E+01   1.1069E-07  0.0555
   2.4721E+01   2.5323E+01   1.1704E-07  0.0533
   2.5323E+01   2.5939E+01   1.0647E-07  0.0552
   2.5939E+01   2.6570E+01   9.7605E-08  0.0570
   2.6570E+01   2.7217E+01   9.4667E-08  0.0572
   2.7217E+01   2.7879E+01   8.4566E-08  0.0598
   2.7879E+01   2.8557E+01   8.2852E-08  0.0597
   2.8557E+01   2.9252E+01   6.8795E-08  0.0647
   2.9252E+01   2.9964E+01   7.7558E-08  0.0602
   2.9964E+01   3.0693E+01   6.4468E-08  0.0652
   3.0693E+01   3.1440E+01   6.1062E-08  0.0662
   3.1440E+01   3.2205E+01   5.9089E-08  0.0665
   3.2205E+01   3.2988E+01   5.0028E-08  0.0714
   3.2988E+01   3.3791E+01   5.1332E-08  0.0697
   3.3791E+01   3.4613E+01   4.3787E-08  0.0745
   3.4613E+01   3.5455E+01   3.7760E-08  0.0793
   3.5455E+01   3.6318E+01   3.3386E-08  0.0833
   3.6318E+01   3.7201E+01   2.9197E-08  0.0880
   3.7201E+01   3.8106E+01   2.7178E-08  0.0902
   3.8106E+01   3.9034E+01   2.9553E-08  0.0854
   3.9034E+01   3.9983E+01   2.6324E-08  0.0894
   3.9983E+01   4.0956E+01   2.0764E-08  0.0995
   4.0956E+01   4.1953E+01   2.0070E-08  0.1000
   4.1953E+01   4.2973E+01   1.6459E-08  0.1091
   4.2973E+01   4.4019E+01   1.4537E-08  0.1147
   4.4019E+01   4.5090E+01   1.1951E-08  0.1250
   4.5090E+01   4.6187E+01   8.5682E-09  0.1459
   4.6187E+01   4.7311E+01   9.6105E-09  0.1361
   4.7311E+01   4.8462E+01   6.7761E-09  0.1601
   4.8462E+01   4.9641E+01   4.0708E-09  0.2041
   4.9641E+01   5.0849E+01   5.1333E-09  0.1796
   5.0849E+01   5.2086E+01   3.8798E-09  0.2041
   5.2086E+01   5.3353E+01   3.1563E-09  0.2236
   5.3353E+01   5.4651E+01   3.6976E-09  0.2041
   5.4651E+01   5.5981E+01   1.6545E-09  0.3015
   5.5981E+01   5.7343E+01   1.0279E-09  0.3780
   5.7343E+01   5.8738E+01   1.0034E-09  0.3780
   5.8738E+01   6.0168E+01   1.1195E-09  0.3536
   6.0168E+01   6.1632E+01   6.8310E-10  0.4472
   6.1632E+01   6.3131E+01   6.6687E-10  0.4472
   6.3131E+01   6.4667E+01   2.6041E-10  0.7071
   6.4667E+01   6.6240E+01   2.5423E-10  0.7071
   6.6240E+01   6.7852E+01   2.4819E-10  0.7071
   6.7852E+01   6.9503E+01   1.2115E-10  1.0000
   6.9503E+01   7.1194E+01   0.0000E+00  0.0000
   7.1194E+01   7.2926E+01   0.0000E+00  0.0000
   7.2926E+01   7.4701E+01   0.0000E+00  0.0000
   7.4701E+01   7.6518E+01   0.0000E+00  0.0000
   7.6518E+01   7.8380E+01   1.0743E-10  1.0000
   7.8380E+01   8.0287E+01   1.0487E-10  1.0000
   8.0287E+01   8.2240E+01   0.0000E+00  0.0000
   8.2240E+01   8.4241E+01   0.0000E+00  0.0000
   8.4241E+01   8.6291E+01   0.0000E+00  0.0000
   8.6291E+01   8.8391E+01   0.0000E+00  0.0000
   8.8391E+01   9.0541E+01   0.0000E+00  0.0000
   9.0541E+01   9.2744E+01   0.0000E+00  0.0000
   9.2744E+01   9.5001E+01   0.0000E+00  0.0000
   9.5001E+01   9.7312E+01   0.0000E+00  0.0000
   9.7312E+01   9.9680E+01   0.0000E+00  0.0000
   9.9680E+01   1.0211E+02   0.0000E+00  0.0000
   1.0211E+02   1.0459E+02   0.0000E+00  0.0000
   1.0459E+02   1.0713E+02   0.0000E+00  0.0000
   1.0713E+02   1.0974E+02   0.0000E+00  0.0000
   1.0974E+02   1.1241E+02   0.0000E+00  0.0000
   1.1241E+02   1.1515E+02   0.0000E+00  0.0000
   1.1515E+02   1.1795E+02   0.0000E+00  0.0000
   1.1795E+02   1.2082E+02   0.0000E+00  0.0000
   1.2082E+02   1.2376E+02   0.0000E+00  0.0000
   1.2376E+02   1.2677E+02   0.0000E+00  0.0000
   1.2677E+02   1.2985E+02   0.0000E+00  0.0000
   1.2985E+02   1.3301E+02   0.0000E+00  0.0000
   1.3301E+02   1.3625E+02   0.0000E+00  0.0000
   1.3625E+02   1.3956E+02   0.0000E+00  0.0000
   1.3956E+02   1.4296E+02   0.0000E+00  0.0000
   1.4296E+02   1.4644E+02   0.0000E+00  0.0000
   1.4644E+02   1.5000E+02   0.0000E+00  0.0000

#   sum over                 4.6786E-06
'no. =    1   reg = 125 - 225'
msuc: {\huge [t-cross] in region mesh}
msdr: {\it plotted by \ANGEL \version}
msdl: {\it calculated by \PHITS  3.26}
wt: s(0.7)
\vspace{-3}
  region surface crossing
  area  &=&   1.0000E+00 [cm^2]
e:
 
# Information for Restart Calculation
# This calculation was newly started
# istdev =  2 # 1:Batch variance, 2:History variance
# resc2  = 5.00000000000000000E+09 # Total source weight or Total source weight / maxcas
# resc3  = 5.00000000000000000E+09 # Total history number or Total batch number
# maxcas =   100000000 # History / Batch, only used for istdev=1
# bitrseed = 0110100000100010111000001110001111001110100100011111101000111001 # bit data of rseed
