[ T-Cross ]
    title = [t-cross] in region mesh
     mesh =  reg            # mesh type is region-wise
      reg =    1            # number of crossing regions
      non     r-from    r-to       area
      1       104       204        1.000000    
   e-type =    3            # e-mesh is log given by emin, emax and ne
     emin =  1.0000000E-02  # minimum value of e-mesh points
     emax =   150.0000      # maximum value of e-mesh points
#    edel =  2.4039514E-02  # mesh width of e-mesh points
       ne =    400          # number of e-mesh points
#    data = ( e(i), i = 1, ne + 1 )
#           1.00000E-02  1.02433E-02  1.04925E-02  1.07478E-02  1.10093E-02
#           1.12772E-02  1.15516E-02  1.18326E-02  1.21205E-02  1.24154E-02
#           1.27175E-02  1.30269E-02  1.33439E-02  1.36686E-02  1.40011E-02
#           1.43418E-02  1.46907E-02  1.50482E-02  1.54143E-02  1.57894E-02
#           1.61735E-02  1.65670E-02  1.69701E-02  1.73830E-02  1.78060E-02
#           1.82392E-02  1.86830E-02  1.91375E-02  1.96032E-02  2.00801E-02
#           2.05687E-02  2.10692E-02  2.15818E-02  2.21069E-02  2.26448E-02
#           2.31957E-02  2.37601E-02  2.43382E-02  2.49304E-02  2.55369E-02
#           2.61583E-02  2.67947E-02  2.74467E-02  2.81145E-02  2.87985E-02
#           2.94992E-02  3.02169E-02  3.09521E-02  3.17052E-02  3.24766E-02
#           3.32668E-02  3.40762E-02  3.49053E-02  3.57546E-02  3.66246E-02
#           3.75157E-02  3.84284E-02  3.93634E-02  4.03212E-02  4.13022E-02
#           4.23071E-02  4.33365E-02  4.43909E-02  4.54710E-02  4.65773E-02
#           4.77106E-02  4.88714E-02  5.00605E-02  5.12785E-02  5.25262E-02
#           5.38042E-02  5.51133E-02  5.64542E-02  5.78278E-02  5.92348E-02
#           6.06760E-02  6.21523E-02  6.36645E-02  6.52135E-02  6.68002E-02
#           6.84255E-02  7.00904E-02  7.17957E-02  7.35426E-02  7.53319E-02
#           7.71648E-02  7.90423E-02  8.09655E-02  8.29354E-02  8.49533E-02
#           8.70203E-02  8.91376E-02  9.13064E-02  9.35279E-02  9.58035E-02
#           9.81345E-02  1.00522E-01  1.02968E-01  1.05473E-01  1.08040E-01
#           1.10668E-01  1.13361E-01  1.16119E-01  1.18944E-01  1.21838E-01
#           1.24803E-01  1.27839E-01  1.30950E-01  1.34136E-01  1.37399E-01
#           1.40742E-01  1.44167E-01  1.47675E-01  1.51268E-01  1.54948E-01
#           1.58718E-01  1.62580E-01  1.66535E-01  1.70587E-01  1.74738E-01
#           1.78989E-01  1.83344E-01  1.87805E-01  1.92375E-01  1.97055E-01
#           2.01850E-01  2.06761E-01  2.11792E-01  2.16945E-01  2.22223E-01
#           2.27630E-01  2.33169E-01  2.38842E-01  2.44653E-01  2.50605E-01
#           2.56703E-01  2.62949E-01  2.69346E-01  2.75900E-01  2.82613E-01
#           2.89489E-01  2.96532E-01  3.03747E-01  3.11138E-01  3.18708E-01
#           3.26462E-01  3.34405E-01  3.42542E-01  3.50876E-01  3.59413E-01
#           3.68158E-01  3.77116E-01  3.86291E-01  3.95690E-01  4.05317E-01
#           4.15179E-01  4.25281E-01  4.35628E-01  4.46227E-01  4.57084E-01
#           4.68205E-01  4.79597E-01  4.91266E-01  5.03219E-01  5.15463E-01
#           5.28005E-01  5.40851E-01  5.54011E-01  5.67490E-01  5.81298E-01
#           5.95441E-01  6.09929E-01  6.24769E-01  6.39970E-01  6.55541E-01
#           6.71491E-01  6.87828E-01  7.04564E-01  7.21706E-01  7.39266E-01
#           7.57253E-01  7.75678E-01  7.94551E-01  8.13883E-01  8.33685E-01
#           8.53969E-01  8.74747E-01  8.96030E-01  9.17831E-01  9.40163E-01
#           9.63038E-01  9.86469E-01  1.01047E+00  1.03506E+00  1.06024E+00
#           1.08604E+00  1.11246E+00  1.13953E+00  1.16725E+00  1.19565E+00
#           1.22474E+00  1.25454E+00  1.28507E+00  1.31633E+00  1.34836E+00
#           1.38117E+00  1.41477E+00  1.44920E+00  1.48446E+00  1.52057E+00
#           1.55757E+00  1.59547E+00  1.63429E+00  1.67405E+00  1.71478E+00
#           1.75650E+00  1.79924E+00  1.84302E+00  1.88786E+00  1.93379E+00
#           1.98084E+00  2.02904E+00  2.07841E+00  2.12898E+00  2.18078E+00
#           2.23384E+00  2.28819E+00  2.34386E+00  2.40089E+00  2.45930E+00
#           2.51914E+00  2.58043E+00  2.64322E+00  2.70753E+00  2.77341E+00
#           2.84088E+00  2.91001E+00  2.98081E+00  3.05333E+00  3.12762E+00
#           3.20372E+00  3.28167E+00  3.36152E+00  3.44330E+00  3.52708E+00
#           3.61290E+00  3.70080E+00  3.79085E+00  3.88308E+00  3.97756E+00
#           4.07434E+00  4.17347E+00  4.27501E+00  4.37903E+00  4.48557E+00
#           4.59471E+00  4.70650E+00  4.82102E+00  4.93832E+00  5.05847E+00
#           5.18155E+00  5.30762E+00  5.43676E+00  5.56904E+00  5.70453E+00
#           5.84333E+00  5.98550E+00  6.13114E+00  6.28031E+00  6.43312E+00
#           6.58964E+00  6.74997E+00  6.91420E+00  7.08243E+00  7.25475E+00
#           7.43126E+00  7.61207E+00  7.79728E+00  7.98700E+00  8.18133E+00
#           8.38038E+00  8.58428E+00  8.79315E+00  9.00709E+00  9.22624E+00
#           9.45072E+00  9.68067E+00  9.91620E+00  1.01575E+01  1.04046E+01
#           1.06578E+01  1.09171E+01  1.11827E+01  1.14548E+01  1.17335E+01
#           1.20190E+01  1.23114E+01  1.26109E+01  1.29178E+01  1.32321E+01
#           1.35540E+01  1.38838E+01  1.42216E+01  1.45676E+01  1.49221E+01
#           1.52851E+01  1.56570E+01  1.60380E+01  1.64282E+01  1.68279E+01
#           1.72374E+01  1.76568E+01  1.80864E+01  1.85264E+01  1.89772E+01
#           1.94389E+01  1.99119E+01  2.03963E+01  2.08926E+01  2.14009E+01
#           2.19216E+01  2.24550E+01  2.30014E+01  2.35610E+01  2.41343E+01
#           2.47215E+01  2.53230E+01  2.59391E+01  2.65702E+01  2.72167E+01
#           2.78789E+01  2.85572E+01  2.92520E+01  2.99637E+01  3.06928E+01
#           3.14396E+01  3.22045E+01  3.29881E+01  3.37907E+01  3.46128E+01
#           3.54550E+01  3.63177E+01  3.72013E+01  3.81064E+01  3.90336E+01
#           3.99833E+01  4.09561E+01  4.19526E+01  4.29734E+01  4.40189E+01
#           4.50900E+01  4.61870E+01  4.73108E+01  4.84619E+01  4.96410E+01
#           5.08488E+01  5.20860E+01  5.33533E+01  5.46514E+01  5.59812E+01
#           5.73432E+01  5.87384E+01  6.01676E+01  6.16315E+01  6.31311E+01
#           6.46671E+01  6.62405E+01  6.78522E+01  6.95031E+01  7.11941E+01
#           7.29263E+01  7.47007E+01  7.65182E+01  7.83800E+01  8.02870E+01
#           8.22405E+01  8.42414E+01  8.62911E+01  8.83906E+01  9.05412E+01
#           9.27442E+01  9.50007E+01  9.73122E+01  9.96799E+01  1.02105E+02
#           1.04589E+02  1.07134E+02  1.09741E+02  1.12411E+02  1.15146E+02
#           1.17948E+02  1.20817E+02  1.23757E+02  1.26768E+02  1.29852E+02
#           1.33012E+02  1.36248E+02  1.39563E+02  1.42959E+02  1.46437E+02
#           1.50000E+02
     unit =    2            # unit is [1/cm^2/(MeV/n)/source]
     axis =  eng            # axis of output
     file = detector-05.out  # file name of output for the above axis
   output = f-curr          # surface crossing forward current spectrum
     part =  neutron  
# kf/name :  2112     
#    used :        main (  %)        temp (  %)       total (  %)
#  memory :         414 (  0)           0 (  0)         414 (  0)

#------------------------------------------------------------------------------
#newpage:
#   no. =    1   reg = 104 - 204

x: Energy [MeV/n]
y:  F-Curr [1/cm^2/(MeV/n)/source]         
p: xlog ylog afac(0.8) form(0.9)
h: n            x            y(neutron ),hh0l   n 
#  e-lower      e-upper      neutron     r.err 
   1.0000E-02   1.0243E-02   4.9320E-05  0.1667
   1.0243E-02   1.0493E-02   4.2799E-05  0.1768
   1.0493E-02   1.0748E-02   4.1782E-05  0.1768
   1.0748E-02   1.1009E-02   4.8611E-05  0.1617
   1.1009E-02   1.1277E-02   2.6338E-05  0.2167
   1.1277E-02   1.1552E-02   3.2801E-05  0.1925
   1.1552E-02   1.1833E-02   4.0324E-05  0.1715
   1.1833E-02   1.2121E-02   3.8208E-05  0.1741
   1.2121E-02   1.2415E-02   4.9734E-05  0.1508
   1.2415E-02   1.2718E-02   3.4208E-05  0.1796
   1.2718E-02   1.3027E-02   3.8781E-05  0.1667
   1.3027E-02   1.3344E-02   4.5222E-05  0.1525
   1.3344E-02   1.3669E-02   3.7474E-05  0.1650
   1.3669E-02   1.4001E-02   4.4101E-05  0.1508
   1.4001E-02   1.4342E-02   4.9903E-05  0.1400
   1.4342E-02   1.4691E-02   4.1076E-05  0.1525
   1.4691E-02   1.5048E-02   3.1707E-05  0.1715
   1.5048E-02   1.5414E-02   4.1879E-05  0.1474
   1.5414E-02   1.5789E-02   3.5552E-05  0.1581
   1.5789E-02   1.6174E-02   4.3384E-05  0.1414
   1.6174E-02   1.6567E-02   4.2353E-05  0.1414
   1.6567E-02   1.6970E-02   5.0444E-05  0.1280
   1.6970E-02   1.7383E-02   4.9246E-05  0.1280
   1.7383E-02   1.7806E-02   4.0983E-05  0.1387
   1.7806E-02   1.8239E-02   4.3856E-05  0.1325
   1.8239E-02   1.8683E-02   4.8223E-05  0.1246
   1.8683E-02   1.9138E-02   3.4465E-05  0.1459
   1.9138E-02   1.9603E-02   6.0133E-05  0.1091
   1.9603E-02   2.0080E-02   4.8222E-05  0.1204
   2.0080E-02   2.0569E-02   3.3431E-05  0.1429
   2.0569E-02   2.1069E-02   4.3960E-05  0.1231
   2.1069E-02   2.1582E-02   5.7872E-05  0.1057
   2.1582E-02   2.2107E-02   3.7453E-05  0.1302
   2.2107E-02   2.2645E-02   4.2451E-05  0.1206
   2.2645E-02   2.3196E-02   4.3560E-05  0.1179
   2.3196E-02   2.3760E-02   4.3707E-05  0.1162
   2.3760E-02   2.4338E-02   5.0741E-05  0.1066
   2.4338E-02   2.4930E-02   3.7715E-05  0.1222
   2.4930E-02   2.5537E-02   4.5062E-05  0.1104
   2.5537E-02   2.6158E-02   4.0236E-05  0.1155
   2.6158E-02   2.6795E-02   4.1899E-05  0.1118
   2.6795E-02   2.7447E-02   4.5505E-05  0.1060
   2.7447E-02   2.8114E-02   3.5789E-05  0.1178
   2.8114E-02   2.8799E-02   3.9958E-05  0.1104
   2.8799E-02   2.9499E-02   3.9009E-05  0.1104
   2.9499E-02   3.0217E-02   4.6442E-05  0.1000
   3.0217E-02   3.0952E-02   4.7379E-05  0.0977
   3.0952E-02   3.1705E-02   3.8508E-05  0.1072
   3.1705E-02   3.2477E-02   4.1050E-05  0.1026
   3.2477E-02   3.3267E-02   4.4294E-05  0.0976
   3.3267E-02   3.4076E-02   4.7360E-05  0.0933
   3.4076E-02   3.4905E-02   4.7039E-05  0.0925
   3.4905E-02   3.5755E-02   3.9642E-05  0.0995
   3.5755E-02   3.6625E-02   3.9546E-05  0.0984
   3.6625E-02   3.7516E-02   3.8529E-05  0.0985
   3.7516E-02   3.8428E-02   4.9300E-05  0.0861
   3.8428E-02   3.9363E-02   4.5171E-05  0.0887
   3.9363E-02   4.0321E-02   4.1765E-05  0.0913
   4.0321E-02   4.1302E-02   4.1113E-05  0.0909
   4.1302E-02   4.2307E-02   4.4116E-05  0.0867
   4.2307E-02   4.3337E-02   3.7078E-05  0.0934
   4.3337E-02   4.4391E-02   5.0312E-05  0.0792
   4.4391E-02   4.5471E-02   4.1355E-05  0.0864
   4.5471E-02   4.6577E-02   4.8508E-05  0.0788
   4.6577E-02   4.7711E-02   5.4463E-05  0.0735
   4.7711E-02   4.8871E-02   4.7417E-05  0.0778
   4.8871E-02   5.0061E-02   3.8405E-05  0.0854
   5.0061E-02   5.1279E-02   4.5429E-05  0.0776
   5.1279E-02   5.2526E-02   4.3816E-05  0.0781
   5.2526E-02   5.3804E-02   4.8252E-05  0.0735
   5.3804E-02   5.5113E-02   4.5833E-05  0.0745
   5.5113E-02   5.6454E-02   4.8225E-05  0.0718
   5.6454E-02   5.7828E-02   4.5138E-05  0.0733
   5.7828E-02   5.9235E-02   4.2289E-05  0.0748
   5.9235E-02   6.0676E-02   4.7182E-05  0.0700
   6.0676E-02   6.2152E-02   4.3578E-05  0.0720
   6.2152E-02   6.3665E-02   4.5225E-05  0.0698
   6.3665E-02   6.5214E-02   5.0634E-05  0.0652
   6.5214E-02   6.6800E-02   4.9159E-05  0.0654
   6.6800E-02   6.8426E-02   4.6204E-05  0.0666
   6.8426E-02   7.0090E-02   4.4401E-05  0.0671
   7.0090E-02   7.1796E-02   4.9061E-05  0.0631
   7.1796E-02   7.3543E-02   4.9613E-05  0.0620
   7.3543E-02   7.5332E-02   4.4895E-05  0.0644
   7.5332E-02   7.7165E-02   4.7672E-05  0.0618
   7.7165E-02   7.9042E-02   4.7075E-05  0.0613
   7.9042E-02   8.0965E-02   5.1329E-05  0.0581
   8.0965E-02   8.2935E-02   4.2504E-05  0.0630
   8.2935E-02   8.4953E-02   5.0604E-05  0.0571
   8.4953E-02   8.7020E-02   4.3890E-05  0.0606
   8.7020E-02   8.9138E-02   4.4712E-05  0.0593
   8.9138E-02   9.1306E-02   4.7391E-05  0.0569
   9.1306E-02   9.3528E-02   4.1734E-05  0.0599
   9.3528E-02   9.5804E-02   3.9330E-05  0.0610
   9.5804E-02   9.8134E-02   4.2540E-05  0.0579
   9.8134E-02   1.0052E-01   4.6678E-05  0.0547
   1.0052E-01   1.0297E-01   4.9310E-05  0.0525
   1.0297E-01   1.0547E-01   4.4528E-05  0.0546
   1.0547E-01   1.0804E-01   4.5397E-05  0.0535
   1.0804E-01   1.1067E-01   4.3453E-05  0.0540
   1.1067E-01   1.1336E-01   4.2252E-05  0.0541
   1.1336E-01   1.1612E-01   4.2658E-05  0.0532
   1.1612E-01   1.1894E-01   3.9720E-05  0.0545
   1.1894E-01   1.2184E-01   4.2173E-05  0.0523
   1.2184E-01   1.2480E-01   4.2859E-05  0.0512
   1.2480E-01   1.2784E-01   4.2737E-05  0.0507
   1.2784E-01   1.3095E-01   3.9899E-05  0.0518
   1.3095E-01   1.3414E-01   4.2716E-05  0.0494
   1.3414E-01   1.3740E-01   3.8930E-05  0.0512
   1.3740E-01   1.4074E-01   3.8203E-05  0.0510
   1.4074E-01   1.4417E-01   4.1484E-05  0.0484
   1.4417E-01   1.4767E-01   4.0197E-05  0.0486
   1.4767E-01   1.5127E-01   4.0078E-05  0.0481
   1.5127E-01   1.5495E-01   3.7040E-05  0.0494
   1.5495E-01   1.5872E-01   4.0672E-05  0.0466
   1.5872E-01   1.6258E-01   3.9243E-05  0.0469
   1.6258E-01   1.6654E-01   3.6108E-05  0.0483
   1.6654E-01   1.7059E-01   3.8032E-05  0.0465
   1.7059E-01   1.7474E-01   3.8939E-05  0.0454
   1.7474E-01   1.7899E-01   3.7256E-05  0.0459
   1.7899E-01   1.8334E-01   3.7098E-05  0.0454
   1.8334E-01   1.8781E-01   3.6540E-05  0.0452
   1.8781E-01   1.9237E-01   3.4180E-05  0.0462
   1.9237E-01   1.9706E-01   3.3484E-05  0.0461
   1.9706E-01   2.0185E-01   3.0620E-05  0.0476
   2.0185E-01   2.0676E-01   3.1401E-05  0.0465
   2.0676E-01   2.1179E-01   3.2994E-05  0.0448
   2.1179E-01   2.1694E-01   3.4800E-05  0.0431
   2.1694E-01   2.2222E-01   3.1521E-05  0.0447
   2.2222E-01   2.2763E-01   3.4892E-05  0.0420
   2.2763E-01   2.3317E-01   3.5498E-05  0.0411
   2.3317E-01   2.3884E-01   3.5770E-05  0.0405
   2.3884E-01   2.4465E-01   3.3821E-05  0.0412
   2.4465E-01   2.5061E-01   3.4292E-05  0.0404
   2.5061E-01   2.5670E-01   3.5284E-05  0.0393
   2.5670E-01   2.6295E-01   3.6439E-05  0.0383
   2.6295E-01   2.6935E-01   3.5781E-05  0.0381
   2.6935E-01   2.7590E-01   3.7039E-05  0.0370
   2.7590E-01   2.8261E-01   3.4346E-05  0.0380
   2.8261E-01   2.8949E-01   3.4344E-05  0.0376
   2.8949E-01   2.9653E-01   3.6392E-05  0.0360
   2.9653E-01   3.0375E-01   3.5657E-05  0.0360
   3.0375E-01   3.1114E-01   3.7746E-05  0.0346
   3.1114E-01   3.1871E-01   3.6531E-05  0.0347
   3.1871E-01   3.2646E-01   3.5900E-05  0.0346
   3.2646E-01   3.3441E-01   3.6641E-05  0.0338
   3.3441E-01   3.4254E-01   3.6175E-05  0.0337
   3.4254E-01   3.5088E-01   3.6576E-05  0.0330
   3.5088E-01   3.5941E-01   3.9397E-05  0.0315
   3.5941E-01   3.6816E-01   3.8710E-05  0.0314
   3.6816E-01   3.7712E-01   3.7196E-05  0.0316
   3.7712E-01   3.8629E-01   3.8721E-05  0.0306
   3.8629E-01   3.9569E-01   3.9754E-05  0.0299
   3.9569E-01   4.0532E-01   3.7018E-05  0.0306
   4.0532E-01   4.1518E-01   3.7489E-05  0.0300
   4.1518E-01   4.2528E-01   4.0495E-05  0.0285
   4.2528E-01   4.3563E-01   3.8585E-05  0.0289
   4.3563E-01   4.4623E-01   3.8975E-05  0.0284
   4.4623E-01   4.5708E-01   3.9302E-05  0.0279
   4.5708E-01   4.6821E-01   3.8570E-05  0.0279
   4.6821E-01   4.7960E-01   3.9009E-05  0.0274
   4.7960E-01   4.9127E-01   4.0164E-05  0.0267
   4.9127E-01   5.0322E-01   4.1391E-05  0.0259
   5.0322E-01   5.1546E-01   3.8042E-05  0.0267
   5.1546E-01   5.2800E-01   4.0121E-05  0.0257
   5.2800E-01   5.4085E-01   3.8079E-05  0.0261
   5.4085E-01   5.5401E-01   4.2933E-05  0.0243
   5.5401E-01   5.6749E-01   4.2182E-05  0.0242
   5.6749E-01   5.8130E-01   4.0584E-05  0.0244
   5.8130E-01   5.9544E-01   4.1448E-05  0.0238
   5.9544E-01   6.0993E-01   4.0830E-05  0.0237
   6.0993E-01   6.2477E-01   4.1957E-05  0.0231
   6.2477E-01   6.3997E-01   4.2595E-05  0.0227
   6.3997E-01   6.5554E-01   4.2008E-05  0.0226
   6.5554E-01   6.7149E-01   4.2775E-05  0.0221
   6.7149E-01   6.8783E-01   4.2365E-05  0.0219
   6.8783E-01   7.0456E-01   4.1886E-05  0.0218
   7.0456E-01   7.2171E-01   4.4871E-05  0.0208
   7.2171E-01   7.3927E-01   4.2344E-05  0.0212
   7.3927E-01   7.5725E-01   4.3636E-05  0.0206
   7.5725E-01   7.7568E-01   4.3396E-05  0.0204
   7.7568E-01   7.9455E-01   4.4219E-05  0.0200
   7.9455E-01   8.1388E-01   4.4624E-05  0.0196
   8.1388E-01   8.3368E-01   4.2427E-05  0.0199
   8.3368E-01   8.5397E-01   4.4619E-05  0.0192
   8.5397E-01   8.7475E-01   4.4089E-05  0.0191
   8.7475E-01   8.9603E-01   4.5198E-05  0.0186
   8.9603E-01   9.1783E-01   4.4840E-05  0.0185
   9.1783E-01   9.4016E-01   4.5032E-05  0.0182
   9.4016E-01   9.6304E-01   4.4272E-05  0.0181
   9.6304E-01   9.8647E-01   4.3951E-05  0.0180
   9.8647E-01   1.0105E+00   4.3497E-05  0.0179
   1.0105E+00   1.0351E+00   4.3455E-05  0.0177
   1.0351E+00   1.0602E+00   4.4196E-05  0.0173
   1.0602E+00   1.0860E+00   4.3997E-05  0.0171
   1.0860E+00   1.1125E+00   4.3987E-05  0.0169
   1.1125E+00   1.1395E+00   4.5105E-05  0.0165
   1.1395E+00   1.1673E+00   4.4052E-05  0.0165
   1.1673E+00   1.1957E+00   4.4325E-05  0.0163
   1.1957E+00   1.2247E+00   4.6071E-05  0.0158
   1.2247E+00   1.2545E+00   4.4362E-05  0.0159
   1.2545E+00   1.2851E+00   4.4884E-05  0.0156
   1.2851E+00   1.3163E+00   4.5132E-05  0.0154
   1.3163E+00   1.3484E+00   4.5227E-05  0.0152
   1.3484E+00   1.3812E+00   4.4874E-05  0.0150
   1.3812E+00   1.4148E+00   4.6403E-05  0.0146
   1.4148E+00   1.4492E+00   4.6377E-05  0.0144
   1.4492E+00   1.4845E+00   4.5454E-05  0.0144
   1.4845E+00   1.5206E+00   4.6711E-05  0.0141
   1.5206E+00   1.5576E+00   4.5465E-05  0.0141
   1.5576E+00   1.5955E+00   4.6280E-05  0.0138
   1.5955E+00   1.6343E+00   4.6834E-05  0.0135
   1.6343E+00   1.6741E+00   4.7204E-05  0.0133
   1.6741E+00   1.7148E+00   4.7270E-05  0.0132
   1.7148E+00   1.7565E+00   4.7248E-05  0.0130
   1.7565E+00   1.7992E+00   4.6870E-05  0.0129
   1.7992E+00   1.8430E+00   4.7990E-05  0.0126
   1.8430E+00   1.8879E+00   4.8036E-05  0.0124
   1.8879E+00   1.9338E+00   4.8061E-05  0.0123
   1.9338E+00   1.9808E+00   4.7088E-05  0.0123
   1.9808E+00   2.0290E+00   4.8673E-05  0.0119
   2.0290E+00   2.0784E+00   4.9646E-05  0.0117
   2.0784E+00   2.1290E+00   4.9611E-05  0.0115
   2.1290E+00   2.1808E+00   4.8854E-05  0.0115
   2.1808E+00   2.2338E+00   4.8446E-05  0.0114
   2.2338E+00   2.2882E+00   4.9985E-05  0.0111
   2.2882E+00   2.3439E+00   4.9636E-05  0.0110
   2.3439E+00   2.4009E+00   4.9001E-05  0.0109
   2.4009E+00   2.4593E+00   4.9986E-05  0.0107
   2.4593E+00   2.5191E+00   5.2141E-05  0.0103
   2.5191E+00   2.5804E+00   5.0072E-05  0.0104
   2.5804E+00   2.6432E+00   5.0724E-05  0.0102
   2.6432E+00   2.7075E+00   5.1001E-05  0.0101
   2.7075E+00   2.7734E+00   5.1520E-05  0.0099
   2.7734E+00   2.8409E+00   5.0578E-05  0.0099
   2.8409E+00   2.9100E+00   5.1154E-05  0.0097
   2.9100E+00   2.9808E+00   5.1862E-05  0.0095
   2.9808E+00   3.0533E+00   5.1654E-05  0.0094
   3.0533E+00   3.1276E+00   5.1865E-05  0.0093
   3.1276E+00   3.2037E+00   5.2533E-05  0.0091
   3.2037E+00   3.2817E+00   5.1971E-05  0.0091
   3.2817E+00   3.3615E+00   5.1925E-05  0.0090
   3.3615E+00   3.4433E+00   5.2747E-05  0.0088
   3.4433E+00   3.5271E+00   5.2553E-05  0.0087
   3.5271E+00   3.6129E+00   5.2958E-05  0.0086
   3.6129E+00   3.7008E+00   5.2898E-05  0.0085
   3.7008E+00   3.7908E+00   5.3851E-05  0.0083
   3.7908E+00   3.8831E+00   5.3684E-05  0.0082
   3.8831E+00   3.9776E+00   5.3146E-05  0.0081
   3.9776E+00   4.0743E+00   5.3859E-05  0.0080
   4.0743E+00   4.1735E+00   5.4519E-05  0.0079
   4.1735E+00   4.2750E+00   5.4013E-05  0.0078
   4.2750E+00   4.3790E+00   5.3744E-05  0.0077
   4.3790E+00   4.4856E+00   5.4559E-05  0.0076
   4.4856E+00   4.5947E+00   5.4812E-05  0.0075
   4.5947E+00   4.7065E+00   5.4351E-05  0.0074
   4.7065E+00   4.8210E+00   5.5884E-05  0.0072
   4.8210E+00   4.9383E+00   5.5492E-05  0.0072
   4.9383E+00   5.0585E+00   5.6100E-05  0.0070
   5.0585E+00   5.1815E+00   5.5865E-05  0.0070
   5.1815E+00   5.3076E+00   5.6253E-05  0.0069
   5.3076E+00   5.4368E+00   5.6935E-05  0.0067
   5.4368E+00   5.5690E+00   5.6996E-05  0.0066
   5.5690E+00   5.7045E+00   5.7240E-05  0.0066
   5.7045E+00   5.8433E+00   5.7792E-05  0.0064
   5.8433E+00   5.9855E+00   5.8064E-05  0.0064
   5.9855E+00   6.1311E+00   5.8681E-05  0.0062
   6.1311E+00   6.2803E+00   5.9325E-05  0.0061
   6.2803E+00   6.4331E+00   5.9537E-05  0.0061
   6.4331E+00   6.5896E+00   5.9670E-05  0.0060
   6.5896E+00   6.7500E+00   6.0390E-05  0.0059
   6.7500E+00   6.9142E+00   6.0867E-05  0.0058
   6.9142E+00   7.0824E+00   6.1300E-05  0.0057
   7.0824E+00   7.2548E+00   6.2196E-05  0.0056
   7.2548E+00   7.4313E+00   6.3214E-05  0.0055
   7.4313E+00   7.6121E+00   6.4616E-05  0.0053
   7.6121E+00   7.7973E+00   6.5144E-05  0.0053
   7.7973E+00   7.9870E+00   6.5424E-05  0.0052
   7.9870E+00   8.1813E+00   6.6798E-05  0.0051
   8.1813E+00   8.3804E+00   6.8294E-05  0.0050
   8.3804E+00   8.5843E+00   6.9136E-05  0.0049
   8.5843E+00   8.7931E+00   7.0389E-05  0.0048
   8.7931E+00   9.0071E+00   7.2167E-05  0.0046
   9.0071E+00   9.2262E+00   7.3433E-05  0.0046
   9.2262E+00   9.4507E+00   7.5072E-05  0.0044
   9.4507E+00   9.6807E+00   7.6146E-05  0.0044
   9.6807E+00   9.9162E+00   7.7821E-05  0.0043
   9.9162E+00   1.0157E+01   7.9567E-05  0.0042
   1.0157E+01   1.0405E+01   8.0811E-05  0.0041
   1.0405E+01   1.0658E+01   8.2657E-05  0.0040
   1.0658E+01   1.0917E+01   8.4018E-05  0.0039
   1.0917E+01   1.1183E+01   8.5998E-05  0.0038
   1.1183E+01   1.1455E+01   8.6880E-05  0.0038
   1.1455E+01   1.1733E+01   8.8908E-05  0.0037
   1.1733E+01   1.2019E+01   9.0241E-05  0.0036
   1.2019E+01   1.2311E+01   9.2519E-05  0.0035
   1.2311E+01   1.2611E+01   9.3661E-05  0.0034
   1.2611E+01   1.2918E+01   9.4686E-05  0.0034
   1.2918E+01   1.3232E+01   9.6004E-05  0.0033
   1.3232E+01   1.3554E+01   9.7469E-05  0.0033
   1.3554E+01   1.3884E+01   9.7754E-05  0.0032
   1.3884E+01   1.4222E+01   9.8518E-05  0.0032
   1.4222E+01   1.4568E+01   9.9226E-05  0.0031
   1.4568E+01   1.4922E+01   9.8899E-05  0.0031
   1.4922E+01   1.5285E+01   9.8944E-05  0.0030
   1.5285E+01   1.5657E+01   9.8126E-05  0.0030
   1.5657E+01   1.6038E+01   9.7722E-05  0.0030
   1.6038E+01   1.6428E+01   9.6924E-05  0.0030
   1.6428E+01   1.6828E+01   9.5772E-05  0.0030
   1.6828E+01   1.7237E+01   9.3239E-05  0.0030
   1.7237E+01   1.7657E+01   9.1538E-05  0.0029
   1.7657E+01   1.8086E+01   8.9456E-05  0.0029
   1.8086E+01   1.8526E+01   8.6602E-05  0.0030
   1.8526E+01   1.8977E+01   8.4244E-05  0.0030
   1.8977E+01   1.9439E+01   8.1434E-05  0.0030
   1.9439E+01   1.9912E+01   7.7319E-05  0.0030
   1.9912E+01   2.0396E+01   7.4724E-05  0.0030
   2.0396E+01   2.0893E+01   7.1032E-05  0.0031
   2.0893E+01   2.1401E+01   6.7518E-05  0.0031
   2.1401E+01   2.1922E+01   6.3704E-05  0.0032
   2.1922E+01   2.2455E+01   6.0096E-05  0.0032
   2.2455E+01   2.3001E+01   5.6207E-05  0.0033
   2.3001E+01   2.3561E+01   5.2660E-05  0.0034
   2.3561E+01   2.4134E+01   4.8998E-05  0.0034
   2.4134E+01   2.4721E+01   4.5199E-05  0.0035
   2.4721E+01   2.5323E+01   4.1559E-05  0.0037
   2.5323E+01   2.5939E+01   3.8377E-05  0.0038
   2.5939E+01   2.6570E+01   3.5465E-05  0.0039
   2.6570E+01   2.7217E+01   3.2548E-05  0.0040
   2.7217E+01   2.7879E+01   2.9638E-05  0.0041
   2.7879E+01   2.8557E+01   2.6897E-05  0.0043
   2.8557E+01   2.9252E+01   2.4542E-05  0.0044
   2.9252E+01   2.9964E+01   2.2572E-05  0.0046
   2.9964E+01   3.0693E+01   2.0667E-05  0.0047
   3.0693E+01   3.1440E+01   1.9022E-05  0.0048
   3.1440E+01   3.2205E+01   1.7394E-05  0.0050
   3.2205E+01   3.2988E+01   1.6086E-05  0.0051
   3.2988E+01   3.3791E+01   1.4762E-05  0.0053
   3.3791E+01   3.4613E+01   1.3558E-05  0.0055
   3.4613E+01   3.5455E+01   1.2655E-05  0.0056
   3.5455E+01   3.6318E+01   1.1624E-05  0.0058
   3.6318E+01   3.7201E+01   1.0593E-05  0.0060
   3.7201E+01   3.8106E+01   9.6346E-06  0.0062
   3.8106E+01   3.9034E+01   8.4761E-06  0.0065
   3.9034E+01   3.9983E+01   7.6272E-06  0.0068
   3.9983E+01   4.0956E+01   6.8577E-06  0.0071
   4.0956E+01   4.1953E+01   6.2569E-06  0.0073
   4.1953E+01   4.2973E+01   5.5362E-06  0.0077
   4.2973E+01   4.4019E+01   4.9657E-06  0.0080
   4.4019E+01   4.5090E+01   4.5237E-06  0.0083
   4.5090E+01   4.6187E+01   4.0575E-06  0.0087
   4.6187E+01   4.7311E+01   3.3530E-06  0.0094
   4.7311E+01   4.8462E+01   2.6783E-06  0.0104
   4.8462E+01   4.9641E+01   2.1027E-06  0.0116
   4.9641E+01   5.0849E+01   1.6112E-06  0.0131
   5.0849E+01   5.2086E+01   1.1337E-06  0.0154
   5.2086E+01   5.3353E+01   7.3858E-07  0.0189
   5.3353E+01   5.4651E+01   4.0777E-07  0.0251
   5.4651E+01   5.5981E+01   2.3840E-07  0.0324
   5.5981E+01   5.7343E+01   9.6422E-08  0.0504
   5.7343E+01   5.8738E+01   2.3891E-10  1.0000
   5.8738E+01   6.0168E+01   0.0000E+00  0.0000
   6.0168E+01   6.1632E+01   0.0000E+00  0.0000
   6.1632E+01   6.3131E+01   0.0000E+00  0.0000
   6.3131E+01   6.4667E+01   0.0000E+00  0.0000
   6.4667E+01   6.6240E+01   0.0000E+00  0.0000
   6.6240E+01   6.7852E+01   0.0000E+00  0.0000
   6.7852E+01   6.9503E+01   0.0000E+00  0.0000
   6.9503E+01   7.1194E+01   0.0000E+00  0.0000
   7.1194E+01   7.2926E+01   0.0000E+00  0.0000
   7.2926E+01   7.4701E+01   0.0000E+00  0.0000
   7.4701E+01   7.6518E+01   0.0000E+00  0.0000
   7.6518E+01   7.8380E+01   0.0000E+00  0.0000
   7.8380E+01   8.0287E+01   0.0000E+00  0.0000
   8.0287E+01   8.2240E+01   0.0000E+00  0.0000
   8.2240E+01   8.4241E+01   0.0000E+00  0.0000
   8.4241E+01   8.6291E+01   0.0000E+00  0.0000
   8.6291E+01   8.8391E+01   0.0000E+00  0.0000
   8.8391E+01   9.0541E+01   0.0000E+00  0.0000
   9.0541E+01   9.2744E+01   0.0000E+00  0.0000
   9.2744E+01   9.5001E+01   0.0000E+00  0.0000
   9.5001E+01   9.7312E+01   0.0000E+00  0.0000
   9.7312E+01   9.9680E+01   0.0000E+00  0.0000
   9.9680E+01   1.0211E+02   0.0000E+00  0.0000
   1.0211E+02   1.0459E+02   0.0000E+00  0.0000
   1.0459E+02   1.0713E+02   0.0000E+00  0.0000
   1.0713E+02   1.0974E+02   0.0000E+00  0.0000
   1.0974E+02   1.1241E+02   0.0000E+00  0.0000
   1.1241E+02   1.1515E+02   0.0000E+00  0.0000
   1.1515E+02   1.1795E+02   0.0000E+00  0.0000
   1.1795E+02   1.2082E+02   0.0000E+00  0.0000
   1.2082E+02   1.2376E+02   0.0000E+00  0.0000
   1.2376E+02   1.2677E+02   0.0000E+00  0.0000
   1.2677E+02   1.2985E+02   0.0000E+00  0.0000
   1.2985E+02   1.3301E+02   0.0000E+00  0.0000
   1.3301E+02   1.3625E+02   0.0000E+00  0.0000
   1.3625E+02   1.3956E+02   0.0000E+00  0.0000
   1.3956E+02   1.4296E+02   0.0000E+00  0.0000
   1.4296E+02   1.4644E+02   0.0000E+00  0.0000
   1.4644E+02   1.5000E+02   0.0000E+00  0.0000

#   sum over                 1.4022E-05
'no. =    1   reg = 104 - 204'
msuc: {\huge [t-cross] in region mesh}
msdr: {\it plotted by \ANGEL \version}
msdl: {\it calculated by \PHITS  3.26}
wt: s(0.7)
\vspace{-3}
  region surface crossing
  area  &=&   1.0000E+00 [cm^2]
e:
 
# Information for Restart Calculation
# This calculation was newly started
# istdev =  2 # 1:Batch variance, 2:History variance
# resc2  = 3.00000000000000000E+09 # Total source weight or Total source weight / maxcas
# resc3  = 3.00000000000000000E+09 # Total history number or Total batch number
# maxcas =   500000000 # History / Batch, only used for istdev=1
# bitrseed = 0110110011111001100110101011100000010010001000001101100100111101 # bit data of rseed
