[ T-Cross ]
    title = [t-cross] in region mesh
     mesh =  reg            # mesh type is region-wise
      reg =    1            # number of crossing regions
      non     r-from    r-to       area
      1       120       220        1.000000    
   e-type =    3            # e-mesh is log given by emin, emax and ne
     emin =  1.0000000E-02  # minimum value of e-mesh points
     emax =   150.0000      # maximum value of e-mesh points
#    edel =  2.4039514E-02  # mesh width of e-mesh points
       ne =    400          # number of e-mesh points
#    data = ( e(i), i = 1, ne + 1 )
#           1.00000E-02  1.02433E-02  1.04925E-02  1.07478E-02  1.10093E-02
#           1.12772E-02  1.15516E-02  1.18326E-02  1.21205E-02  1.24154E-02
#           1.27175E-02  1.30269E-02  1.33439E-02  1.36686E-02  1.40011E-02
#           1.43418E-02  1.46907E-02  1.50482E-02  1.54143E-02  1.57894E-02
#           1.61735E-02  1.65670E-02  1.69701E-02  1.73830E-02  1.78060E-02
#           1.82392E-02  1.86830E-02  1.91375E-02  1.96032E-02  2.00801E-02
#           2.05687E-02  2.10692E-02  2.15818E-02  2.21069E-02  2.26448E-02
#           2.31957E-02  2.37601E-02  2.43382E-02  2.49304E-02  2.55369E-02
#           2.61583E-02  2.67947E-02  2.74467E-02  2.81145E-02  2.87985E-02
#           2.94992E-02  3.02169E-02  3.09521E-02  3.17052E-02  3.24766E-02
#           3.32668E-02  3.40762E-02  3.49053E-02  3.57546E-02  3.66246E-02
#           3.75157E-02  3.84284E-02  3.93634E-02  4.03212E-02  4.13022E-02
#           4.23071E-02  4.33365E-02  4.43909E-02  4.54710E-02  4.65773E-02
#           4.77106E-02  4.88714E-02  5.00605E-02  5.12785E-02  5.25262E-02
#           5.38042E-02  5.51133E-02  5.64542E-02  5.78278E-02  5.92348E-02
#           6.06760E-02  6.21523E-02  6.36645E-02  6.52135E-02  6.68002E-02
#           6.84255E-02  7.00904E-02  7.17957E-02  7.35426E-02  7.53319E-02
#           7.71648E-02  7.90423E-02  8.09655E-02  8.29354E-02  8.49533E-02
#           8.70203E-02  8.91376E-02  9.13064E-02  9.35279E-02  9.58035E-02
#           9.81345E-02  1.00522E-01  1.02968E-01  1.05473E-01  1.08040E-01
#           1.10668E-01  1.13361E-01  1.16119E-01  1.18944E-01  1.21838E-01
#           1.24803E-01  1.27839E-01  1.30950E-01  1.34136E-01  1.37399E-01
#           1.40742E-01  1.44167E-01  1.47675E-01  1.51268E-01  1.54948E-01
#           1.58718E-01  1.62580E-01  1.66535E-01  1.70587E-01  1.74738E-01
#           1.78989E-01  1.83344E-01  1.87805E-01  1.92375E-01  1.97055E-01
#           2.01850E-01  2.06761E-01  2.11792E-01  2.16945E-01  2.22223E-01
#           2.27630E-01  2.33169E-01  2.38842E-01  2.44653E-01  2.50605E-01
#           2.56703E-01  2.62949E-01  2.69346E-01  2.75900E-01  2.82613E-01
#           2.89489E-01  2.96532E-01  3.03747E-01  3.11138E-01  3.18708E-01
#           3.26462E-01  3.34405E-01  3.42542E-01  3.50876E-01  3.59413E-01
#           3.68158E-01  3.77116E-01  3.86291E-01  3.95690E-01  4.05317E-01
#           4.15179E-01  4.25281E-01  4.35628E-01  4.46227E-01  4.57084E-01
#           4.68205E-01  4.79597E-01  4.91266E-01  5.03219E-01  5.15463E-01
#           5.28005E-01  5.40851E-01  5.54011E-01  5.67490E-01  5.81298E-01
#           5.95441E-01  6.09929E-01  6.24769E-01  6.39970E-01  6.55541E-01
#           6.71491E-01  6.87828E-01  7.04564E-01  7.21706E-01  7.39266E-01
#           7.57253E-01  7.75678E-01  7.94551E-01  8.13883E-01  8.33685E-01
#           8.53969E-01  8.74747E-01  8.96030E-01  9.17831E-01  9.40163E-01
#           9.63038E-01  9.86469E-01  1.01047E+00  1.03506E+00  1.06024E+00
#           1.08604E+00  1.11246E+00  1.13953E+00  1.16725E+00  1.19565E+00
#           1.22474E+00  1.25454E+00  1.28507E+00  1.31633E+00  1.34836E+00
#           1.38117E+00  1.41477E+00  1.44920E+00  1.48446E+00  1.52057E+00
#           1.55757E+00  1.59547E+00  1.63429E+00  1.67405E+00  1.71478E+00
#           1.75650E+00  1.79924E+00  1.84302E+00  1.88786E+00  1.93379E+00
#           1.98084E+00  2.02904E+00  2.07841E+00  2.12898E+00  2.18078E+00
#           2.23384E+00  2.28819E+00  2.34386E+00  2.40089E+00  2.45930E+00
#           2.51914E+00  2.58043E+00  2.64322E+00  2.70753E+00  2.77341E+00
#           2.84088E+00  2.91001E+00  2.98081E+00  3.05333E+00  3.12762E+00
#           3.20372E+00  3.28167E+00  3.36152E+00  3.44330E+00  3.52708E+00
#           3.61290E+00  3.70080E+00  3.79085E+00  3.88308E+00  3.97756E+00
#           4.07434E+00  4.17347E+00  4.27501E+00  4.37903E+00  4.48557E+00
#           4.59471E+00  4.70650E+00  4.82102E+00  4.93832E+00  5.05847E+00
#           5.18155E+00  5.30762E+00  5.43676E+00  5.56904E+00  5.70453E+00
#           5.84333E+00  5.98550E+00  6.13114E+00  6.28031E+00  6.43312E+00
#           6.58964E+00  6.74997E+00  6.91420E+00  7.08243E+00  7.25475E+00
#           7.43126E+00  7.61207E+00  7.79728E+00  7.98700E+00  8.18133E+00
#           8.38038E+00  8.58428E+00  8.79315E+00  9.00709E+00  9.22624E+00
#           9.45072E+00  9.68067E+00  9.91620E+00  1.01575E+01  1.04046E+01
#           1.06578E+01  1.09171E+01  1.11827E+01  1.14548E+01  1.17335E+01
#           1.20190E+01  1.23114E+01  1.26109E+01  1.29178E+01  1.32321E+01
#           1.35540E+01  1.38838E+01  1.42216E+01  1.45676E+01  1.49221E+01
#           1.52851E+01  1.56570E+01  1.60380E+01  1.64282E+01  1.68279E+01
#           1.72374E+01  1.76568E+01  1.80864E+01  1.85264E+01  1.89772E+01
#           1.94389E+01  1.99119E+01  2.03963E+01  2.08926E+01  2.14009E+01
#           2.19216E+01  2.24550E+01  2.30014E+01  2.35610E+01  2.41343E+01
#           2.47215E+01  2.53230E+01  2.59391E+01  2.65702E+01  2.72167E+01
#           2.78789E+01  2.85572E+01  2.92520E+01  2.99637E+01  3.06928E+01
#           3.14396E+01  3.22045E+01  3.29881E+01  3.37907E+01  3.46128E+01
#           3.54550E+01  3.63177E+01  3.72013E+01  3.81064E+01  3.90336E+01
#           3.99833E+01  4.09561E+01  4.19526E+01  4.29734E+01  4.40189E+01
#           4.50900E+01  4.61870E+01  4.73108E+01  4.84619E+01  4.96410E+01
#           5.08488E+01  5.20860E+01  5.33533E+01  5.46514E+01  5.59812E+01
#           5.73432E+01  5.87384E+01  6.01676E+01  6.16315E+01  6.31311E+01
#           6.46671E+01  6.62405E+01  6.78522E+01  6.95031E+01  7.11941E+01
#           7.29263E+01  7.47007E+01  7.65182E+01  7.83800E+01  8.02870E+01
#           8.22405E+01  8.42414E+01  8.62911E+01  8.83906E+01  9.05412E+01
#           9.27442E+01  9.50007E+01  9.73122E+01  9.96799E+01  1.02105E+02
#           1.04589E+02  1.07134E+02  1.09741E+02  1.12411E+02  1.15146E+02
#           1.17948E+02  1.20817E+02  1.23757E+02  1.26768E+02  1.29852E+02
#           1.33012E+02  1.36248E+02  1.39563E+02  1.42959E+02  1.46437E+02
#           1.50000E+02
     unit =    2            # unit is [1/cm^2/(MeV/n)/source]
     axis =  eng            # axis of output
     file = detector-21.out  # file name of output for the above axis
   output = f-curr          # surface crossing forward current spectrum
     part =  neutron  
# kf/name :  2112     
#    used :        main (  %)        temp (  %)       total (  %)
#  memory :         414 (  0)           0 (  0)         414 (  0)

#------------------------------------------------------------------------------
#newpage:
#   no. =    1   reg = 120 - 220

x: Energy [MeV/n]
y:  F-Curr [1/cm^2/(MeV/n)/source]         
p: xlog ylog afac(0.8) form(0.9)
h: n            x            y(neutron ),hh0l   n 
#  e-lower      e-upper      neutron     r.err 
   1.0000E-02   1.0243E-02   2.4907E-04  0.0574
   1.0243E-02   1.0493E-02   2.3753E-04  0.0581
   1.0493E-02   1.0748E-02   2.6166E-04  0.0547
   1.0748E-02   1.1009E-02   2.7151E-04  0.0531
   1.1009E-02   1.1277E-02   2.4938E-04  0.0547
   1.1277E-02   1.1552E-02   2.6241E-04  0.0527
   1.1552E-02   1.1833E-02   2.5333E-04  0.0530
   1.1833E-02   1.2121E-02   2.7510E-04  0.0503
   1.2121E-02   1.2415E-02   2.6178E-04  0.0509
   1.2415E-02   1.2718E-02   2.6285E-04  0.0502
   1.2718E-02   1.3027E-02   2.7341E-04  0.0486
   1.3027E-02   1.3344E-02   2.4104E-04  0.0512
   1.3344E-02   1.3669E-02   2.5318E-04  0.0493
   1.3669E-02   1.4001E-02   2.6882E-04  0.0473
   1.4001E-02   1.4342E-02   2.4893E-04  0.0486
   1.4342E-02   1.4691E-02   2.4130E-04  0.0487
   1.4691E-02   1.5048E-02   2.6298E-04  0.0461
   1.5048E-02   1.5414E-02   2.6493E-04  0.0454
   1.5414E-02   1.5789E-02   2.6450E-04  0.0449
   1.5789E-02   1.6174E-02   2.6030E-04  0.0447
   1.6174E-02   1.6567E-02   2.5463E-04  0.0447
   1.6567E-02   1.6970E-02   2.7785E-04  0.0423
   1.6970E-02   1.7383E-02   2.7174E-04  0.0422
   1.7383E-02   1.7806E-02   2.7521E-04  0.0415
   1.7806E-02   1.8239E-02   2.6822E-04  0.0415
   1.8239E-02   1.8683E-02   2.7491E-04  0.0405
   1.8683E-02   1.9138E-02   2.8950E-04  0.0390
   1.9138E-02   1.9603E-02   2.7661E-04  0.0394
   1.9603E-02   2.0080E-02   2.8556E-04  0.0383
   2.0080E-02   2.0569E-02   2.6690E-04  0.0392
   2.0569E-02   2.1069E-02   2.7815E-04  0.0379
   2.1069E-02   2.1582E-02   2.6881E-04  0.0381
   2.1582E-02   2.2107E-02   2.9404E-04  0.0360
   2.2107E-02   2.2645E-02   2.6921E-04  0.0372
   2.2645E-02   2.3196E-02   2.9947E-04  0.0348
   2.3196E-02   2.3760E-02   2.6614E-04  0.0365
   2.3760E-02   2.4338E-02   2.8196E-04  0.0350
   2.4338E-02   2.4930E-02   2.8269E-04  0.0346
   2.4930E-02   2.5537E-02   2.6938E-04  0.0350
   2.5537E-02   2.6158E-02   2.9066E-04  0.0333
   2.6158E-02   2.6795E-02   2.7905E-04  0.0336
   2.6795E-02   2.7447E-02   2.9451E-04  0.0323
   2.7447E-02   2.8114E-02   2.8811E-04  0.0322
   2.8114E-02   2.8799E-02   2.7981E-04  0.0323
   2.8799E-02   2.9499E-02   3.0541E-04  0.0306
   2.9499E-02   3.0217E-02   3.0373E-04  0.0303
   3.0217E-02   3.0952E-02   2.8210E-04  0.0311
   3.0952E-02   3.1705E-02   2.9293E-04  0.0301
   3.1705E-02   3.2477E-02   2.9219E-04  0.0298
   3.2477E-02   3.3267E-02   3.0284E-04  0.0289
   3.3267E-02   3.4076E-02   3.0887E-04  0.0283
   3.4076E-02   3.4905E-02   2.9598E-04  0.0285
   3.4905E-02   3.5755E-02   3.0120E-04  0.0280
   3.5755E-02   3.6625E-02   2.9542E-04  0.0279
   3.6625E-02   3.7516E-02   3.0187E-04  0.0273
   3.7516E-02   3.8428E-02   3.0741E-04  0.0267
   3.8428E-02   3.9363E-02   3.0118E-04  0.0267
   3.9363E-02   4.0321E-02   3.0426E-04  0.0262
   4.0321E-02   4.1302E-02   3.1477E-04  0.0254
   4.1302E-02   4.2307E-02   3.2102E-04  0.0249
   4.2307E-02   4.3337E-02   3.2136E-04  0.0246
   4.3337E-02   4.4391E-02   2.9211E-04  0.0255
   4.4391E-02   4.5471E-02   3.1572E-04  0.0242
   4.5471E-02   4.6577E-02   3.1184E-04  0.0241
   4.6577E-02   4.7711E-02   2.9931E-04  0.0243
   4.7711E-02   4.8871E-02   3.1701E-04  0.0233
   4.8871E-02   5.0061E-02   3.2159E-04  0.0229
   5.0061E-02   5.1279E-02   3.1954E-04  0.0227
   5.1279E-02   5.2526E-02   3.0922E-04  0.0228
   5.2526E-02   5.3804E-02   3.1471E-04  0.0223
   5.3804E-02   5.5113E-02   3.1403E-04  0.0221
   5.5113E-02   5.6454E-02   3.3767E-04  0.0210
   5.6454E-02   5.7828E-02   3.2790E-04  0.0211
   5.7828E-02   5.9235E-02   3.1898E-04  0.0211
   5.9235E-02   6.0676E-02   3.2986E-04  0.0205
   6.0676E-02   6.2152E-02   3.3083E-04  0.0202
   6.2152E-02   6.3665E-02   3.2138E-04  0.0203
   6.3665E-02   6.5214E-02   3.2330E-04  0.0200
   6.5214E-02   6.6800E-02   3.2798E-04  0.0196
   6.6800E-02   6.8426E-02   3.4283E-04  0.0189
   6.8426E-02   7.0090E-02   3.2544E-04  0.0192
   7.0090E-02   7.1796E-02   3.4210E-04  0.0185
   7.1796E-02   7.3543E-02   3.3787E-04  0.0184
   7.3543E-02   7.5332E-02   3.3141E-04  0.0184
   7.5332E-02   7.7165E-02   3.2943E-04  0.0182
   7.7165E-02   7.9042E-02   3.3843E-04  0.0177
   7.9042E-02   8.0965E-02   3.4339E-04  0.0174
   8.0965E-02   8.2935E-02   3.4290E-04  0.0172
   8.2935E-02   8.4953E-02   3.3828E-04  0.0171
   8.4953E-02   8.7020E-02   3.4659E-04  0.0167
   8.7020E-02   8.9138E-02   3.3373E-04  0.0168
   8.9138E-02   9.1306E-02   3.4443E-04  0.0164
   9.1306E-02   9.3528E-02   3.4777E-04  0.0161
   9.3528E-02   9.5804E-02   3.5929E-04  0.0156
   9.5804E-02   9.8134E-02   3.5093E-04  0.0156
   9.8134E-02   1.0052E-01   3.5775E-04  0.0153
   1.0052E-01   1.0297E-01   3.5514E-04  0.0152
   1.0297E-01   1.0547E-01   3.6786E-04  0.0147
   1.0547E-01   1.0804E-01   3.6014E-04  0.0147
   1.0804E-01   1.1067E-01   3.6718E-04  0.0144
   1.1067E-01   1.1336E-01   3.6685E-04  0.0142
   1.1336E-01   1.1612E-01   3.6952E-04  0.0140
   1.1612E-01   1.1894E-01   3.7023E-04  0.0138
   1.1894E-01   1.2184E-01   3.6337E-04  0.0138
   1.2184E-01   1.2480E-01   3.7066E-04  0.0135
   1.2480E-01   1.2784E-01   3.7417E-04  0.0133
   1.2784E-01   1.3095E-01   3.8117E-04  0.0130
   1.3095E-01   1.3414E-01   3.7676E-04  0.0129
   1.3414E-01   1.3740E-01   3.8638E-04  0.0126
   1.3740E-01   1.4074E-01   3.7834E-04  0.0126
   1.4074E-01   1.4417E-01   3.9312E-04  0.0122
   1.4417E-01   1.4767E-01   3.8681E-04  0.0121
   1.4767E-01   1.5127E-01   3.8973E-04  0.0120
   1.5127E-01   1.5495E-01   3.9251E-04  0.0118
   1.5495E-01   1.5872E-01   3.9013E-04  0.0117
   1.5872E-01   1.6258E-01   3.9966E-04  0.0114
   1.6258E-01   1.6654E-01   3.9321E-04  0.0113
   1.6654E-01   1.7059E-01   3.9867E-04  0.0111
   1.7059E-01   1.7474E-01   4.0655E-04  0.0109
   1.7474E-01   1.7899E-01   4.0183E-04  0.0108
   1.7899E-01   1.8334E-01   4.0473E-04  0.0107
   1.8334E-01   1.8781E-01   4.0841E-04  0.0105
   1.8781E-01   1.9237E-01   4.1309E-04  0.0103
   1.9237E-01   1.9706E-01   4.1482E-04  0.0101
   1.9706E-01   2.0185E-01   4.1693E-04  0.0100
   2.0185E-01   2.0676E-01   4.1477E-04  0.0099
   2.0676E-01   2.1179E-01   4.2388E-04  0.0097
   2.1179E-01   2.1694E-01   4.2732E-04  0.0095
   2.1694E-01   2.2222E-01   4.2581E-04  0.0094
   2.2222E-01   2.2763E-01   4.3190E-04  0.0093
   2.2763E-01   2.3317E-01   4.2723E-04  0.0092
   2.3317E-01   2.3884E-01   4.3491E-04  0.0090
   2.3884E-01   2.4465E-01   4.3822E-04  0.0089
   2.4465E-01   2.5061E-01   4.4246E-04  0.0087
   2.5061E-01   2.5670E-01   4.4189E-04  0.0086
   2.5670E-01   2.6295E-01   4.4785E-04  0.0085
   2.6295E-01   2.6935E-01   4.4134E-04  0.0084
   2.6935E-01   2.7590E-01   4.4838E-04  0.0083
   2.7590E-01   2.8261E-01   4.5891E-04  0.0081
   2.8261E-01   2.8949E-01   4.5761E-04  0.0080
   2.8949E-01   2.9653E-01   4.6769E-04  0.0078
   2.9653E-01   3.0375E-01   4.5958E-04  0.0078
   3.0375E-01   3.1114E-01   4.6236E-04  0.0077
   3.1114E-01   3.1871E-01   4.6769E-04  0.0075
   3.1871E-01   3.2646E-01   4.6309E-04  0.0075
   3.2646E-01   3.3441E-01   4.7210E-04  0.0073
   3.3441E-01   3.4254E-01   4.7626E-04  0.0072
   3.4254E-01   3.5088E-01   4.7964E-04  0.0071
   3.5088E-01   3.5941E-01   4.7828E-04  0.0070
   3.5941E-01   3.6816E-01   4.7779E-04  0.0069
   3.6816E-01   3.7712E-01   4.8663E-04  0.0068
   3.7712E-01   3.8629E-01   4.8524E-04  0.0067
   3.8629E-01   3.9569E-01   4.8889E-04  0.0066
   3.9569E-01   4.0532E-01   4.8883E-04  0.0065
   4.0532E-01   4.1518E-01   4.9229E-04  0.0064
   4.1518E-01   4.2528E-01   4.9139E-04  0.0063
   4.2528E-01   4.3563E-01   5.0095E-04  0.0062
   4.3563E-01   4.4623E-01   4.9434E-04  0.0062
   4.4623E-01   4.5708E-01   4.9582E-04  0.0061
   4.5708E-01   4.6821E-01   5.0307E-04  0.0060
   4.6821E-01   4.7960E-01   5.0173E-04  0.0059
   4.7960E-01   4.9127E-01   5.0808E-04  0.0058
   4.9127E-01   5.0322E-01   5.0316E-04  0.0058
   5.0322E-01   5.1546E-01   5.1400E-04  0.0056
   5.1546E-01   5.2800E-01   5.0845E-04  0.0056
   5.2800E-01   5.4085E-01   5.1562E-04  0.0055
   5.4085E-01   5.5401E-01   5.1319E-04  0.0054
   5.5401E-01   5.6749E-01   5.1229E-04  0.0054
   5.6749E-01   5.8130E-01   5.1656E-04  0.0053
   5.8130E-01   5.9544E-01   5.1769E-04  0.0052
   5.9544E-01   6.0993E-01   5.1721E-04  0.0052
   6.0993E-01   6.2477E-01   5.1614E-04  0.0051
   6.2477E-01   6.3997E-01   5.1661E-04  0.0050
   6.3997E-01   6.5554E-01   5.1822E-04  0.0050
   6.5554E-01   6.7149E-01   5.1809E-04  0.0049
   6.7149E-01   6.8783E-01   5.1955E-04  0.0049
   6.8783E-01   7.0456E-01   5.1970E-04  0.0048
   7.0456E-01   7.2171E-01   5.1371E-04  0.0048
   7.2171E-01   7.3927E-01   5.1346E-04  0.0047
   7.3927E-01   7.5725E-01   5.1080E-04  0.0047
   7.5725E-01   7.7568E-01   5.1052E-04  0.0046
   7.7568E-01   7.9455E-01   5.0408E-04  0.0046
   7.9455E-01   8.1388E-01   5.0055E-04  0.0045
   8.1388E-01   8.3368E-01   5.0043E-04  0.0045
   8.3368E-01   8.5397E-01   4.9322E-04  0.0045
   8.5397E-01   8.7475E-01   4.8868E-04  0.0044
   8.7475E-01   8.9603E-01   4.7978E-04  0.0044
   8.9603E-01   9.1783E-01   4.7057E-04  0.0044
   9.1783E-01   9.4016E-01   4.6077E-04  0.0044
   9.4016E-01   9.6304E-01   4.4333E-04  0.0044
   9.6304E-01   9.8647E-01   4.2952E-04  0.0045
   9.8647E-01   1.0105E+00   4.1186E-04  0.0045
   1.0105E+00   1.0351E+00   4.0629E-04  0.0045
   1.0351E+00   1.0602E+00   4.0204E-04  0.0044
   1.0602E+00   1.0860E+00   3.9739E-04  0.0044
   1.0860E+00   1.1125E+00   3.9269E-04  0.0044
   1.1125E+00   1.1395E+00   3.8903E-04  0.0044
   1.1395E+00   1.1673E+00   3.8440E-04  0.0043
   1.1673E+00   1.1957E+00   3.8605E-04  0.0043
   1.1957E+00   1.2247E+00   3.8239E-04  0.0042
   1.2247E+00   1.2545E+00   3.7883E-04  0.0042
   1.2545E+00   1.2851E+00   3.7159E-04  0.0042
   1.2851E+00   1.3163E+00   3.6395E-04  0.0042
   1.3163E+00   1.3484E+00   3.5747E-04  0.0042
   1.3484E+00   1.3812E+00   3.5298E-04  0.0042
   1.3812E+00   1.4148E+00   3.5168E-04  0.0041
   1.4148E+00   1.4492E+00   3.4700E-04  0.0041
   1.4492E+00   1.4845E+00   3.3522E-04  0.0041
   1.4845E+00   1.5206E+00   3.2746E-04  0.0041
   1.5206E+00   1.5576E+00   3.1901E-04  0.0041
   1.5576E+00   1.5955E+00   3.1130E-04  0.0041
   1.5955E+00   1.6343E+00   3.0304E-04  0.0041
   1.6343E+00   1.6741E+00   2.9587E-04  0.0041
   1.6741E+00   1.7148E+00   2.8847E-04  0.0041
   1.7148E+00   1.7565E+00   2.8185E-04  0.0041
   1.7565E+00   1.7992E+00   2.7352E-04  0.0041
   1.7992E+00   1.8430E+00   2.6489E-04  0.0042
   1.8430E+00   1.8879E+00   2.5795E-04  0.0042
   1.8879E+00   1.9338E+00   2.4820E-04  0.0042
   1.9338E+00   1.9808E+00   2.3877E-04  0.0042
   1.9808E+00   2.0290E+00   2.3085E-04  0.0042
   2.0290E+00   2.0784E+00   2.2573E-04  0.0042
   2.0784E+00   2.1290E+00   2.1808E-04  0.0043
   2.1290E+00   2.1808E+00   2.0770E-04  0.0043
   2.1808E+00   2.2338E+00   2.0089E-04  0.0043
   2.2338E+00   2.2882E+00   1.9136E-04  0.0044
   2.2882E+00   2.3439E+00   1.8394E-04  0.0044
   2.3439E+00   2.4009E+00   1.7555E-04  0.0045
   2.4009E+00   2.4593E+00   1.6983E-04  0.0045
   2.4593E+00   2.5191E+00   1.6204E-04  0.0045
   2.5191E+00   2.5804E+00   1.5668E-04  0.0046
   2.5804E+00   2.6432E+00   1.5063E-04  0.0046
   2.6432E+00   2.7075E+00   1.4169E-04  0.0047
   2.7075E+00   2.7734E+00   1.3683E-04  0.0047
   2.7734E+00   2.8409E+00   1.3116E-04  0.0048
   2.8409E+00   2.9100E+00   1.2393E-04  0.0048
   2.9100E+00   2.9808E+00   1.1789E-04  0.0049
   2.9808E+00   3.0533E+00   1.1318E-04  0.0049
   3.0533E+00   3.1276E+00   1.0875E-04  0.0050
   3.1276E+00   3.2037E+00   1.0264E-04  0.0051
   3.2037E+00   3.2817E+00   9.8079E-05  0.0051
   3.2817E+00   3.3615E+00   9.2921E-05  0.0052
   3.3615E+00   3.4433E+00   8.7020E-05  0.0053
   3.4433E+00   3.5271E+00   8.3078E-05  0.0054
   3.5271E+00   3.6129E+00   7.9450E-05  0.0054
   3.6129E+00   3.7008E+00   7.5800E-05  0.0055
   3.7008E+00   3.7908E+00   7.1153E-05  0.0056
   3.7908E+00   3.8831E+00   6.7216E-05  0.0057
   3.8831E+00   3.9776E+00   6.3715E-05  0.0058
   3.9776E+00   4.0743E+00   6.1201E-05  0.0058
   4.0743E+00   4.1735E+00   5.7564E-05  0.0059
   4.1735E+00   4.2750E+00   5.3999E-05  0.0060
   4.2750E+00   4.3790E+00   5.0610E-05  0.0062
   4.3790E+00   4.4856E+00   4.8034E-05  0.0063
   4.4856E+00   4.5947E+00   4.4525E-05  0.0064
   4.5947E+00   4.7065E+00   4.2187E-05  0.0065
   4.7065E+00   4.8210E+00   4.0017E-05  0.0066
   4.8210E+00   4.9383E+00   3.7044E-05  0.0068
   4.9383E+00   5.0585E+00   3.5082E-05  0.0069
   5.0585E+00   5.1815E+00   3.2923E-05  0.0070
   5.1815E+00   5.3076E+00   3.0756E-05  0.0072
   5.3076E+00   5.4368E+00   2.8926E-05  0.0073
   5.4368E+00   5.5690E+00   2.6769E-05  0.0075
   5.5690E+00   5.7045E+00   2.4842E-05  0.0077
   5.7045E+00   5.8433E+00   2.3128E-05  0.0079
   5.8433E+00   5.9855E+00   2.1515E-05  0.0081
   5.9855E+00   6.1311E+00   2.0111E-05  0.0083
   6.1311E+00   6.2803E+00   1.8723E-05  0.0085
   6.2803E+00   6.4331E+00   1.7190E-05  0.0087
   6.4331E+00   6.5896E+00   1.5783E-05  0.0090
   6.5896E+00   6.7500E+00   1.4746E-05  0.0092
   6.7500E+00   6.9142E+00   1.3702E-05  0.0094
   6.9142E+00   7.0824E+00   1.2801E-05  0.0096
   7.0824E+00   7.2548E+00   1.1872E-05  0.0099
   7.2548E+00   7.4313E+00   1.0880E-05  0.0102
   7.4313E+00   7.6121E+00   9.9636E-06  0.0105
   7.6121E+00   7.7973E+00   9.3149E-06  0.0108
   7.7973E+00   7.9870E+00   8.5328E-06  0.0111
   7.9870E+00   8.1813E+00   7.8398E-06  0.0115
   8.1813E+00   8.3804E+00   7.0110E-06  0.0120
   8.3804E+00   8.5843E+00   6.5767E-06  0.0122
   8.5843E+00   8.7931E+00   6.0533E-06  0.0126
   8.7931E+00   9.0071E+00   5.4201E-06  0.0131
   9.0071E+00   9.2262E+00   5.0573E-06  0.0134
   9.2262E+00   9.4507E+00   4.7581E-06  0.0137
   9.4507E+00   9.6807E+00   4.2710E-06  0.0143
   9.6807E+00   9.9162E+00   3.8762E-06  0.0148
   9.9162E+00   1.0157E+01   3.5404E-06  0.0153
   1.0157E+01   1.0405E+01   3.1525E-06  0.0160
   1.0405E+01   1.0658E+01   3.0653E-06  0.0160
   1.0658E+01   1.0917E+01   2.6497E-06  0.0170
   1.0917E+01   1.1183E+01   2.5416E-06  0.0172
   1.1183E+01   1.1455E+01   2.2890E-06  0.0179
   1.1455E+01   1.1733E+01   2.1442E-06  0.0183
   1.1733E+01   1.2019E+01   1.9241E-06  0.0191
   1.2019E+01   1.2311E+01   1.7467E-06  0.0198
   1.2311E+01   1.2611E+01   1.6171E-06  0.0203
   1.2611E+01   1.2918E+01   1.5158E-06  0.0207
   1.2918E+01   1.3232E+01   1.4101E-06  0.0212
   1.3232E+01   1.3554E+01   1.2524E-06  0.0223
   1.3554E+01   1.3884E+01   1.1329E-06  0.0231
   1.3884E+01   1.4222E+01   1.1074E-06  0.0231
   1.4222E+01   1.4568E+01   1.0086E-06  0.0239
   1.4568E+01   1.4922E+01   9.8606E-07  0.0239
   1.4922E+01   1.5285E+01   8.7312E-07  0.0251
   1.5285E+01   1.5657E+01   8.1339E-07  0.0257
   1.5657E+01   1.6038E+01   7.6913E-07  0.0261
   1.6038E+01   1.6428E+01   6.9935E-07  0.0271
   1.6428E+01   1.6828E+01   6.7148E-07  0.0273
   1.6828E+01   1.7237E+01   5.9057E-07  0.0288
   1.7237E+01   1.7657E+01   5.7869E-07  0.0287
   1.7657E+01   1.8086E+01   5.1722E-07  0.0300
   1.8086E+01   1.8526E+01   4.9948E-07  0.0302
   1.8526E+01   1.8977E+01   4.8407E-07  0.0303
   1.8977E+01   1.9439E+01   4.5221E-07  0.0309
   1.9439E+01   1.9912E+01   4.2160E-07  0.0317
   1.9912E+01   2.0396E+01   4.0539E-07  0.0319
   2.0396E+01   2.0893E+01   4.0302E-07  0.0316
   2.0893E+01   2.1401E+01   3.3836E-07  0.0341
   2.1401E+01   2.1922E+01   3.3877E-07  0.0337
   2.1922E+01   2.2455E+01   3.1460E-07  0.0345
   2.2455E+01   2.3001E+01   3.0201E-07  0.0348
   2.3001E+01   2.3561E+01   2.5624E-07  0.0373
   2.3561E+01   2.4134E+01   2.4631E-07  0.0376
   2.4134E+01   2.4721E+01   2.3842E-07  0.0378
   2.4721E+01   2.5323E+01   2.1413E-07  0.0394
   2.5323E+01   2.5939E+01   1.9087E-07  0.0412
   2.5939E+01   2.6570E+01   1.7683E-07  0.0423
   2.6570E+01   2.7217E+01   1.7201E-07  0.0424
   2.7217E+01   2.7879E+01   1.5524E-07  0.0441
   2.7879E+01   2.8557E+01   1.5096E-07  0.0442
   2.8557E+01   2.9252E+01   1.2895E-07  0.0472
   2.9252E+01   2.9964E+01   1.2561E-07  0.0473
   2.9964E+01   3.0693E+01   1.0287E-07  0.0516
   3.0693E+01   3.1440E+01   1.0686E-07  0.0501
   3.1440E+01   3.2205E+01   8.7326E-08  0.0547
   3.2205E+01   3.2988E+01   7.8360E-08  0.0571
   3.2988E+01   3.3791E+01   7.0269E-08  0.0595
   3.3791E+01   3.4613E+01   6.1059E-08  0.0631
   3.4613E+01   3.5455E+01   6.0796E-08  0.0625
   3.5455E+01   3.6318E+01   5.4020E-08  0.0655
   3.6318E+01   3.7201E+01   4.7304E-08  0.0692
   3.7201E+01   3.8106E+01   3.8226E-08  0.0760
   3.8106E+01   3.9034E+01   3.6455E-08  0.0769
   3.9034E+01   3.9983E+01   3.2009E-08  0.0811
   3.9983E+01   4.0956E+01   3.0427E-08  0.0822
   4.0956E+01   4.1953E+01   2.5690E-08  0.0884
   4.1953E+01   4.2973E+01   2.3512E-08  0.0913
   4.2973E+01   4.4019E+01   1.7981E-08  0.1031
   4.4019E+01   4.5090E+01   1.7367E-08  0.1037
   4.5090E+01   4.6187E+01   1.5496E-08  0.1085
   4.6187E+01   4.7311E+01   1.4238E-08  0.1118
   4.7311E+01   4.8462E+01   1.1293E-08  0.1240
   4.8462E+01   4.9641E+01   1.0856E-08  0.1250
   4.9641E+01   5.0849E+01   1.0432E-08  0.1260
   5.0849E+01   5.2086E+01   9.8610E-09  0.1280
   5.2086E+01   5.3353E+01   9.9424E-09  0.1260
   5.3353E+01   5.4651E+01   7.7034E-09  0.1414
   5.4651E+01   5.5981E+01   8.2725E-09  0.1348
   5.5981E+01   5.7343E+01   7.7823E-09  0.1374
   5.7343E+01   5.8738E+01   5.3039E-09  0.1644
   5.8738E+01   6.0168E+01   4.8980E-09  0.1690
   6.0168E+01   6.1632E+01   2.8690E-09  0.2182
   6.1632E+01   6.3131E+01   2.4007E-09  0.2357
   6.3131E+01   6.4667E+01   6.5103E-10  0.4472
   6.4667E+01   6.6240E+01   6.3557E-10  0.4472
   6.6240E+01   6.7852E+01   1.2409E-10  1.0000
   6.7852E+01   6.9503E+01   2.4229E-10  0.7071
   6.9503E+01   7.1194E+01   0.0000E+00  0.0000
   7.1194E+01   7.2926E+01   0.0000E+00  0.0000
   7.2926E+01   7.4701E+01   0.0000E+00  0.0000
   7.4701E+01   7.6518E+01   0.0000E+00  0.0000
   7.6518E+01   7.8380E+01   0.0000E+00  0.0000
   7.8380E+01   8.0287E+01   0.0000E+00  0.0000
   8.0287E+01   8.2240E+01   0.0000E+00  0.0000
   8.2240E+01   8.4241E+01   0.0000E+00  0.0000
   8.4241E+01   8.6291E+01   0.0000E+00  0.0000
   8.6291E+01   8.8391E+01   0.0000E+00  0.0000
   8.8391E+01   9.0541E+01   0.0000E+00  0.0000
   9.0541E+01   9.2744E+01   0.0000E+00  0.0000
   9.2744E+01   9.5001E+01   0.0000E+00  0.0000
   9.5001E+01   9.7312E+01   0.0000E+00  0.0000
   9.7312E+01   9.9680E+01   0.0000E+00  0.0000
   9.9680E+01   1.0211E+02   0.0000E+00  0.0000
   1.0211E+02   1.0459E+02   0.0000E+00  0.0000
   1.0459E+02   1.0713E+02   0.0000E+00  0.0000
   1.0713E+02   1.0974E+02   0.0000E+00  0.0000
   1.0974E+02   1.1241E+02   0.0000E+00  0.0000
   1.1241E+02   1.1515E+02   0.0000E+00  0.0000
   1.1515E+02   1.1795E+02   0.0000E+00  0.0000
   1.1795E+02   1.2082E+02   0.0000E+00  0.0000
   1.2082E+02   1.2376E+02   0.0000E+00  0.0000
   1.2376E+02   1.2677E+02   0.0000E+00  0.0000
   1.2677E+02   1.2985E+02   0.0000E+00  0.0000
   1.2985E+02   1.3301E+02   0.0000E+00  0.0000
   1.3301E+02   1.3625E+02   0.0000E+00  0.0000
   1.3625E+02   1.3956E+02   0.0000E+00  0.0000
   1.3956E+02   1.4296E+02   0.0000E+00  0.0000
   1.4296E+02   1.4644E+02   0.0000E+00  0.0000
   1.4644E+02   1.5000E+02   0.0000E+00  0.0000

#   sum over                 7.7267E-06
'no. =    1   reg = 120 - 220'
msuc: {\huge [t-cross] in region mesh}
msdr: {\it plotted by \ANGEL \version}
msdl: {\it calculated by \PHITS  3.26}
wt: s(0.7)
\vspace{-3}
  region surface crossing
  area  &=&   1.0000E+00 [cm^2]
e:
 
# Information for Restart Calculation
# This calculation was newly started
# istdev =  2 # 1:Batch variance, 2:History variance
# resc2  = 5.00000000000000000E+09 # Total source weight or Total source weight / maxcas
# resc3  = 5.00000000000000000E+09 # Total history number or Total batch number
# maxcas =   500000000 # History / Batch, only used for istdev=1
# bitrseed = 0110100000100010111000001110001111001110100100011111101000111001 # bit data of rseed
