[ T-Cross ]
    title = [t-cross] in region mesh
     mesh =  reg            # mesh type is region-wise
      reg =    1            # number of crossing regions
      non     r-from    r-to       area
      1       113       213        1.000000    
   e-type =    3            # e-mesh is log given by emin, emax and ne
     emin =  1.0000000E-02  # minimum value of e-mesh points
     emax =   150.0000      # maximum value of e-mesh points
#    edel =  2.4039514E-02  # mesh width of e-mesh points
       ne =    400          # number of e-mesh points
#    data = ( e(i), i = 1, ne + 1 )
#           1.00000E-02  1.02433E-02  1.04925E-02  1.07478E-02  1.10093E-02
#           1.12772E-02  1.15516E-02  1.18326E-02  1.21205E-02  1.24154E-02
#           1.27175E-02  1.30269E-02  1.33439E-02  1.36686E-02  1.40011E-02
#           1.43418E-02  1.46907E-02  1.50482E-02  1.54143E-02  1.57894E-02
#           1.61735E-02  1.65670E-02  1.69701E-02  1.73830E-02  1.78060E-02
#           1.82392E-02  1.86830E-02  1.91375E-02  1.96032E-02  2.00801E-02
#           2.05687E-02  2.10692E-02  2.15818E-02  2.21069E-02  2.26448E-02
#           2.31957E-02  2.37601E-02  2.43382E-02  2.49304E-02  2.55369E-02
#           2.61583E-02  2.67947E-02  2.74467E-02  2.81145E-02  2.87985E-02
#           2.94992E-02  3.02169E-02  3.09521E-02  3.17052E-02  3.24766E-02
#           3.32668E-02  3.40762E-02  3.49053E-02  3.57546E-02  3.66246E-02
#           3.75157E-02  3.84284E-02  3.93634E-02  4.03212E-02  4.13022E-02
#           4.23071E-02  4.33365E-02  4.43909E-02  4.54710E-02  4.65773E-02
#           4.77106E-02  4.88714E-02  5.00605E-02  5.12785E-02  5.25262E-02
#           5.38042E-02  5.51133E-02  5.64542E-02  5.78278E-02  5.92348E-02
#           6.06760E-02  6.21523E-02  6.36645E-02  6.52135E-02  6.68002E-02
#           6.84255E-02  7.00904E-02  7.17957E-02  7.35426E-02  7.53319E-02
#           7.71648E-02  7.90423E-02  8.09655E-02  8.29354E-02  8.49533E-02
#           8.70203E-02  8.91376E-02  9.13064E-02  9.35279E-02  9.58035E-02
#           9.81345E-02  1.00522E-01  1.02968E-01  1.05473E-01  1.08040E-01
#           1.10668E-01  1.13361E-01  1.16119E-01  1.18944E-01  1.21838E-01
#           1.24803E-01  1.27839E-01  1.30950E-01  1.34136E-01  1.37399E-01
#           1.40742E-01  1.44167E-01  1.47675E-01  1.51268E-01  1.54948E-01
#           1.58718E-01  1.62580E-01  1.66535E-01  1.70587E-01  1.74738E-01
#           1.78989E-01  1.83344E-01  1.87805E-01  1.92375E-01  1.97055E-01
#           2.01850E-01  2.06761E-01  2.11792E-01  2.16945E-01  2.22223E-01
#           2.27630E-01  2.33169E-01  2.38842E-01  2.44653E-01  2.50605E-01
#           2.56703E-01  2.62949E-01  2.69346E-01  2.75900E-01  2.82613E-01
#           2.89489E-01  2.96532E-01  3.03747E-01  3.11138E-01  3.18708E-01
#           3.26462E-01  3.34405E-01  3.42542E-01  3.50876E-01  3.59413E-01
#           3.68158E-01  3.77116E-01  3.86291E-01  3.95690E-01  4.05317E-01
#           4.15179E-01  4.25281E-01  4.35628E-01  4.46227E-01  4.57084E-01
#           4.68205E-01  4.79597E-01  4.91266E-01  5.03219E-01  5.15463E-01
#           5.28005E-01  5.40851E-01  5.54011E-01  5.67490E-01  5.81298E-01
#           5.95441E-01  6.09929E-01  6.24769E-01  6.39970E-01  6.55541E-01
#           6.71491E-01  6.87828E-01  7.04564E-01  7.21706E-01  7.39266E-01
#           7.57253E-01  7.75678E-01  7.94551E-01  8.13883E-01  8.33685E-01
#           8.53969E-01  8.74747E-01  8.96030E-01  9.17831E-01  9.40163E-01
#           9.63038E-01  9.86469E-01  1.01047E+00  1.03506E+00  1.06024E+00
#           1.08604E+00  1.11246E+00  1.13953E+00  1.16725E+00  1.19565E+00
#           1.22474E+00  1.25454E+00  1.28507E+00  1.31633E+00  1.34836E+00
#           1.38117E+00  1.41477E+00  1.44920E+00  1.48446E+00  1.52057E+00
#           1.55757E+00  1.59547E+00  1.63429E+00  1.67405E+00  1.71478E+00
#           1.75650E+00  1.79924E+00  1.84302E+00  1.88786E+00  1.93379E+00
#           1.98084E+00  2.02904E+00  2.07841E+00  2.12898E+00  2.18078E+00
#           2.23384E+00  2.28819E+00  2.34386E+00  2.40089E+00  2.45930E+00
#           2.51914E+00  2.58043E+00  2.64322E+00  2.70753E+00  2.77341E+00
#           2.84088E+00  2.91001E+00  2.98081E+00  3.05333E+00  3.12762E+00
#           3.20372E+00  3.28167E+00  3.36152E+00  3.44330E+00  3.52708E+00
#           3.61290E+00  3.70080E+00  3.79085E+00  3.88308E+00  3.97756E+00
#           4.07434E+00  4.17347E+00  4.27501E+00  4.37903E+00  4.48557E+00
#           4.59471E+00  4.70650E+00  4.82102E+00  4.93832E+00  5.05847E+00
#           5.18155E+00  5.30762E+00  5.43676E+00  5.56904E+00  5.70453E+00
#           5.84333E+00  5.98550E+00  6.13114E+00  6.28031E+00  6.43312E+00
#           6.58964E+00  6.74997E+00  6.91420E+00  7.08243E+00  7.25475E+00
#           7.43126E+00  7.61207E+00  7.79728E+00  7.98700E+00  8.18133E+00
#           8.38038E+00  8.58428E+00  8.79315E+00  9.00709E+00  9.22624E+00
#           9.45072E+00  9.68067E+00  9.91620E+00  1.01575E+01  1.04046E+01
#           1.06578E+01  1.09171E+01  1.11827E+01  1.14548E+01  1.17335E+01
#           1.20190E+01  1.23114E+01  1.26109E+01  1.29178E+01  1.32321E+01
#           1.35540E+01  1.38838E+01  1.42216E+01  1.45676E+01  1.49221E+01
#           1.52851E+01  1.56570E+01  1.60380E+01  1.64282E+01  1.68279E+01
#           1.72374E+01  1.76568E+01  1.80864E+01  1.85264E+01  1.89772E+01
#           1.94389E+01  1.99119E+01  2.03963E+01  2.08926E+01  2.14009E+01
#           2.19216E+01  2.24550E+01  2.30014E+01  2.35610E+01  2.41343E+01
#           2.47215E+01  2.53230E+01  2.59391E+01  2.65702E+01  2.72167E+01
#           2.78789E+01  2.85572E+01  2.92520E+01  2.99637E+01  3.06928E+01
#           3.14396E+01  3.22045E+01  3.29881E+01  3.37907E+01  3.46128E+01
#           3.54550E+01  3.63177E+01  3.72013E+01  3.81064E+01  3.90336E+01
#           3.99833E+01  4.09561E+01  4.19526E+01  4.29734E+01  4.40189E+01
#           4.50900E+01  4.61870E+01  4.73108E+01  4.84619E+01  4.96410E+01
#           5.08488E+01  5.20860E+01  5.33533E+01  5.46514E+01  5.59812E+01
#           5.73432E+01  5.87384E+01  6.01676E+01  6.16315E+01  6.31311E+01
#           6.46671E+01  6.62405E+01  6.78522E+01  6.95031E+01  7.11941E+01
#           7.29263E+01  7.47007E+01  7.65182E+01  7.83800E+01  8.02870E+01
#           8.22405E+01  8.42414E+01  8.62911E+01  8.83906E+01  9.05412E+01
#           9.27442E+01  9.50007E+01  9.73122E+01  9.96799E+01  1.02105E+02
#           1.04589E+02  1.07134E+02  1.09741E+02  1.12411E+02  1.15146E+02
#           1.17948E+02  1.20817E+02  1.23757E+02  1.26768E+02  1.29852E+02
#           1.33012E+02  1.36248E+02  1.39563E+02  1.42959E+02  1.46437E+02
#           1.50000E+02
     unit =    2            # unit is [1/cm^2/(MeV/n)/source]
     axis =  eng            # axis of output
     file = detector-14.out  # file name of output for the above axis
   output = f-curr          # surface crossing forward current spectrum
     part =  neutron  
# kf/name :  2112     
#    used :        main (  %)        temp (  %)       total (  %)
#  memory :         414 (  0)           0 (  0)         414 (  0)

#------------------------------------------------------------------------------
#newpage:
#   no. =    1   reg = 113 - 213

x: Energy [MeV/n]
y:  F-Curr [1/cm^2/(MeV/n)/source]         
p: xlog ylog afac(0.8) form(0.9)
h: n            x            y(neutron ),hh0l   n 
#  e-lower      e-upper      neutron     r.err 
   1.0000E-02   1.0243E-02   1.1508E-05  0.2673
   1.0243E-02   1.0493E-02   9.6297E-06  0.2887
   1.0493E-02   1.0748E-02   1.1751E-05  0.2582
   1.0748E-02   1.1009E-02   1.3767E-05  0.2357
   1.1009E-02   1.1277E-02   1.9413E-05  0.1961
   1.1277E-02   1.1552E-02   1.5307E-05  0.2182
   1.1552E-02   1.1833E-02   1.2097E-05  0.2425
   1.1833E-02   1.2121E-02   9.0310E-06  0.2774
   1.2121E-02   1.2415E-02   1.2207E-05  0.2357
   1.2415E-02   1.2718E-02   5.9587E-06  0.3333
   1.2718E-02   1.3027E-02   1.1634E-05  0.2357
   1.3027E-02   1.3344E-02   8.2030E-06  0.2774
   1.3344E-02   1.3669E-02   1.3552E-05  0.2132
   1.3669E-02   1.4001E-02   1.4433E-05  0.2041
   1.4001E-02   1.4342E-02   1.1742E-05  0.2236
   1.4342E-02   1.4691E-02   1.0890E-05  0.2294
   1.4691E-02   1.5048E-02   1.2869E-05  0.2085
   1.5048E-02   1.5414E-02   1.0379E-05  0.2294
   1.5414E-02   1.5789E-02   1.2265E-05  0.2085
   1.5789E-02   1.6174E-02   8.8503E-06  0.2425
   1.6174E-02   1.6567E-02   1.1181E-05  0.2132
   1.6567E-02   1.6970E-02   1.0916E-05  0.2132
   1.6970E-02   1.7383E-02   1.0656E-05  0.2132
   1.7383E-02   1.7806E-02   1.1822E-05  0.2000
   1.7806E-02   1.8239E-02   8.7713E-06  0.2294
   1.8239E-02   1.8683E-02   1.2619E-05  0.1890
   1.8683E-02   1.9138E-02   8.7995E-06  0.2236
   1.9138E-02   1.9603E-02   1.2027E-05  0.1890
   1.9603E-02   2.0080E-02   9.6444E-06  0.2085
   2.0080E-02   2.0569E-02   1.2690E-05  0.1796
   2.0569E-02   2.1069E-02   1.5186E-05  0.1622
   2.1069E-02   2.1582E-02   1.1314E-05  0.1857
   2.1582E-02   2.2107E-02   1.3712E-05  0.1667
   2.2107E-02   2.2645E-02   1.2270E-05  0.1741
   2.2645E-02   2.3196E-02   1.3068E-05  0.1667
   2.3196E-02   2.3760E-02   9.9226E-06  0.1890
   2.3760E-02   2.4338E-02   1.2801E-05  0.1644
   2.4338E-02   2.4930E-02   1.2496E-05  0.1644
   2.4930E-02   2.5537E-02   1.1540E-05  0.1690
   2.5537E-02   2.6158E-02   1.2232E-05  0.1622
   2.6158E-02   2.6795E-02   1.3827E-05  0.1508
   2.6795E-02   2.7447E-02   8.5898E-06  0.1890
   2.7447E-02   2.8114E-02   1.0782E-05  0.1667
   2.8114E-02   2.8799E-02   8.1866E-06  0.1890
   2.8799E-02   2.9499E-02   8.8484E-06  0.1796
   2.9499E-02   3.0217E-02   1.2539E-05  0.1491
   3.0217E-02   3.0952E-02   9.7932E-06  0.1667
   3.0952E-02   3.1705E-02   1.3810E-05  0.1387
   3.1705E-02   3.2477E-02   1.5297E-05  0.1302
   3.2477E-02   3.3267E-02   1.2402E-05  0.1429
   3.3267E-02   3.4076E-02   1.2108E-05  0.1429
   3.4076E-02   3.4905E-02   1.7609E-05  0.1170
   3.4905E-02   3.5755E-02   1.1068E-05  0.1459
   3.5755E-02   3.6625E-02   1.3334E-05  0.1313
   3.6625E-02   3.7516E-02   1.3018E-05  0.1313
   3.7516E-02   3.8428E-02   1.1175E-05  0.1400
   3.8428E-02   3.9363E-02   1.1979E-05  0.1336
   3.9363E-02   4.0321E-02   1.2112E-05  0.1313
   4.0321E-02   4.1302E-02   1.2028E-05  0.1302
   4.1302E-02   4.2307E-02   1.3334E-05  0.1222
   4.2307E-02   4.3337E-02   1.2823E-05  0.1231
   4.3337E-02   4.4391E-02   1.3657E-05  0.1179
   4.4391E-02   4.5471E-02   1.3333E-05  0.1179
   4.5471E-02   4.6577E-02   1.2654E-05  0.1195
   4.6577E-02   4.7711E-02   1.0059E-05  0.1325
   4.7711E-02   4.8871E-02   1.2233E-05  0.1187
   4.8871E-02   5.0061E-02   1.3119E-05  0.1132
   5.0061E-02   5.1279E-02   1.1494E-05  0.1195
   5.1279E-02   5.2526E-02   1.2504E-05  0.1132
   5.2526E-02   5.3804E-02   1.2520E-05  0.1118
   5.3804E-02   5.5113E-02   1.3139E-05  0.1078
   5.5113E-02   5.6454E-02   1.1634E-05  0.1132
   5.6454E-02   5.7828E-02   1.3833E-05  0.1026
   5.7828E-02   5.9235E-02   1.4357E-05  0.0995
   5.9235E-02   6.0676E-02   1.3183E-05  0.1026
   6.0676E-02   6.2152E-02   1.3547E-05  0.1000
   6.2152E-02   6.3665E-02   1.3226E-05  0.1000
   6.3665E-02   6.5214E-02   1.2395E-05  0.1021
   6.5214E-02   6.6800E-02   1.3613E-05  0.0962
   6.6800E-02   6.8426E-02   1.3782E-05  0.0945
   6.8426E-02   7.0090E-02   1.3815E-05  0.0933
   7.0090E-02   7.1796E-02   1.4894E-05  0.0887
   7.1796E-02   7.3543E-02   1.4197E-05  0.0898
   7.3543E-02   7.5332E-02   1.3077E-05  0.0925
   7.5332E-02   7.7165E-02   1.1348E-05  0.0981
   7.7165E-02   7.9042E-02   1.5393E-05  0.0831
   7.9042E-02   8.0965E-02   1.2791E-05  0.0902
   8.0965E-02   8.2935E-02   1.2589E-05  0.0898
   8.2935E-02   8.4953E-02   1.4272E-05  0.0833
   8.4953E-02   8.7020E-02   1.2095E-05  0.0894
   8.7020E-02   8.9138E-02   1.3225E-05  0.0845
   8.9138E-02   9.1306E-02   1.2634E-05  0.0854
   9.1306E-02   9.3528E-02   1.2604E-05  0.0845
   9.3528E-02   9.5804E-02   1.5293E-05  0.0758
   9.5804E-02   9.8134E-02   1.2012E-05  0.0845
   9.8134E-02   1.0052E-01   1.2648E-05  0.0814
   1.0052E-01   1.0297E-01   1.5700E-05  0.0722
   1.0297E-01   1.0547E-01   1.3012E-05  0.0783
   1.0547E-01   1.0804E-01   1.3483E-05  0.0760
   1.0804E-01   1.1067E-01   1.3771E-05  0.0743
   1.1067E-01   1.1336E-01   1.3295E-05  0.0747
   1.1336E-01   1.1612E-01   1.0877E-05  0.0816
   1.1612E-01   1.1894E-01   1.4512E-05  0.0698
   1.1894E-01   1.2184E-01   1.3891E-05  0.0705
   1.2184E-01   1.2480E-01   1.3358E-05  0.0711
   1.2480E-01   1.2784E-01   1.4490E-05  0.0674
   1.2784E-01   1.3095E-01   1.4789E-05  0.0659
   1.3095E-01   1.3414E-01   1.5254E-05  0.0642
   1.3414E-01   1.3740E-01   1.6301E-05  0.0613
   1.3740E-01   1.4074E-01   1.3820E-05  0.0658
   1.4074E-01   1.4417E-01   1.4251E-05  0.0640
   1.4417E-01   1.4767E-01   1.4311E-05  0.0631
   1.4767E-01   1.5127E-01   1.4528E-05  0.0619
   1.5127E-01   1.5495E-01   1.3422E-05  0.0636
   1.5495E-01   1.5872E-01   1.4589E-05  0.0603
   1.5872E-01   1.6258E-01   1.3724E-05  0.0614
   1.6258E-01   1.6654E-01   1.4056E-05  0.0600
   1.6654E-01   1.7059E-01   1.5351E-05  0.0567
   1.7059E-01   1.7474E-01   1.4263E-05  0.0581
   1.7474E-01   1.7899E-01   1.5148E-05  0.0557
   1.7899E-01   1.8334E-01   1.5890E-05  0.0538
   1.8334E-01   1.8781E-01   1.4481E-05  0.0556
   1.8781E-01   1.9237E-01   1.5494E-05  0.0531
   1.9237E-01   1.9706E-01   1.5297E-05  0.0529
   1.9706E-01   2.0185E-01   1.5393E-05  0.0521
   2.0185E-01   2.0676E-01   1.3805E-05  0.0543
   2.0676E-01   2.1179E-01   1.3875E-05  0.0535
   2.1179E-01   2.1694E-01   1.4593E-05  0.0516
   2.1694E-01   2.2222E-01   1.4095E-05  0.0518
   2.2222E-01   2.2763E-01   1.3871E-05  0.0516
   2.2763E-01   2.3317E-01   1.4228E-05  0.0504
   2.3317E-01   2.3884E-01   1.6076E-05  0.0468
   2.3884E-01   2.4465E-01   1.4524E-05  0.0487
   2.4465E-01   2.5061E-01   1.4313E-05  0.0485
   2.5061E-01   2.5670E-01   1.5482E-05  0.0460
   2.5670E-01   2.6295E-01   1.5082E-05  0.0461
   2.6295E-01   2.6935E-01   1.4818E-05  0.0459
   2.6935E-01   2.7590E-01   1.4008E-05  0.0467
   2.7590E-01   2.8261E-01   1.6133E-05  0.0430
   2.8261E-01   2.8949E-01   1.4892E-05  0.0442
   2.8949E-01   2.9653E-01   1.4680E-05  0.0440
   2.9653E-01   3.0375E-01   1.4442E-05  0.0438
   3.0375E-01   3.1114E-01   1.4532E-05  0.0432
   3.1114E-01   3.1871E-01   1.4980E-05  0.0420
   3.1871E-01   3.2646E-01   1.4624E-05  0.0420
   3.2646E-01   3.3441E-01   1.4755E-05  0.0413
   3.3441E-01   3.4254E-01   1.4060E-05  0.0418
   3.4254E-01   3.5088E-01   1.4254E-05  0.0410
   3.5088E-01   3.5941E-01   1.3635E-05  0.0415
   3.5941E-01   3.6816E-01   1.4935E-05  0.0391
   3.6816E-01   3.7712E-01   1.4446E-05  0.0393
   3.7712E-01   3.8629E-01   1.4996E-05  0.0381
   3.8629E-01   3.9569E-01   1.5364E-05  0.0372
   3.9569E-01   4.0532E-01   1.5144E-05  0.0370
   4.0532E-01   4.1518E-01   1.4399E-05  0.0375
   4.1518E-01   4.2528E-01   1.4344E-05  0.0371
   4.2528E-01   4.3563E-01   1.4245E-05  0.0368
   4.3563E-01   4.4623E-01   1.5265E-05  0.0352
   4.4623E-01   4.5708E-01   1.5621E-05  0.0343
   4.5708E-01   4.6821E-01   1.4890E-05  0.0348
   4.6821E-01   4.7960E-01   1.4194E-05  0.0352
   4.7960E-01   4.9127E-01   1.4774E-05  0.0341
   4.9127E-01   5.0322E-01   1.4942E-05  0.0335
   5.0322E-01   5.1546E-01   1.4097E-05  0.0340
   5.1546E-01   5.2800E-01   1.4384E-05  0.0333
   5.2800E-01   5.4085E-01   1.4229E-05  0.0331
   5.4085E-01   5.5401E-01   1.4256E-05  0.0327
   5.5401E-01   5.6749E-01   1.3650E-05  0.0330
   5.6749E-01   5.8130E-01   1.4326E-05  0.0318
   5.8130E-01   5.9544E-01   1.4141E-05  0.0316
   5.9544E-01   6.0993E-01   1.3556E-05  0.0319
   6.0993E-01   6.2477E-01   1.3369E-05  0.0318
   6.2477E-01   6.3997E-01   1.3302E-05  0.0315
   6.3997E-01   6.5554E-01   1.2844E-05  0.0316
   6.5554E-01   6.7149E-01   1.3116E-05  0.0309
   6.7149E-01   6.8783E-01   1.2541E-05  0.0312
   6.8783E-01   7.0456E-01   1.3361E-05  0.0299
   7.0456E-01   7.2171E-01   1.2991E-05  0.0300
   7.2171E-01   7.3927E-01   1.3064E-05  0.0295
   7.3927E-01   7.5725E-01   1.2843E-05  0.0294
   7.5725E-01   7.7568E-01   1.2804E-05  0.0291
   7.7568E-01   7.9455E-01   1.1721E-05  0.0301
   7.9455E-01   8.1388E-01   1.1323E-05  0.0302
   8.1388E-01   8.3368E-01   1.1736E-05  0.0293
   8.3368E-01   8.5397E-01   1.1319E-05  0.0295
   8.5397E-01   8.7475E-01   1.1599E-05  0.0288
   8.7475E-01   8.9603E-01   1.0882E-05  0.0294
   8.9603E-01   9.1783E-01   9.9720E-06  0.0303
   9.1783E-01   9.4016E-01   9.8515E-06  0.0301
   9.4016E-01   9.6304E-01   9.4776E-06  0.0304
   9.6304E-01   9.8647E-01   9.7390E-06  0.0296
   9.8647E-01   1.0105E+00   9.3161E-06  0.0299
   1.0105E+00   1.0351E+00   9.1354E-06  0.0298
   1.0351E+00   1.0602E+00   9.2123E-06  0.0294
   1.0602E+00   1.0860E+00   9.6525E-06  0.0283
   1.0860E+00   1.1125E+00   9.8319E-06  0.0277
   1.1125E+00   1.1395E+00   9.8866E-06  0.0273
   1.1395E+00   1.1673E+00   9.6589E-06  0.0273
   1.1673E+00   1.1957E+00   1.0074E-05  0.0264
   1.1957E+00   1.2247E+00   1.0615E-05  0.0254
   1.2247E+00   1.2545E+00   1.0316E-05  0.0255
   1.2545E+00   1.2851E+00   1.0628E-05  0.0248
   1.2851E+00   1.3163E+00   1.0337E-05  0.0249
   1.3163E+00   1.3484E+00   1.0897E-05  0.0239
   1.3484E+00   1.3812E+00   1.0568E-05  0.0240
   1.3812E+00   1.4148E+00   1.0933E-05  0.0233
   1.4148E+00   1.4492E+00   1.0955E-05  0.0230
   1.4492E+00   1.4845E+00   1.1202E-05  0.0225
   1.4845E+00   1.5206E+00   1.1280E-05  0.0222
   1.5206E+00   1.5576E+00   1.1669E-05  0.0215
   1.5576E+00   1.5955E+00   1.1668E-05  0.0213
   1.5955E+00   1.6343E+00   1.1484E-05  0.0212
   1.6343E+00   1.6741E+00   1.2061E-05  0.0204
   1.6741E+00   1.7148E+00   1.2325E-05  0.0200
   1.7148E+00   1.7565E+00   1.2492E-05  0.0196
   1.7565E+00   1.7992E+00   1.2317E-05  0.0195
   1.7992E+00   1.8430E+00   1.2751E-05  0.0189
   1.8430E+00   1.8879E+00   1.2943E-05  0.0186
   1.8879E+00   1.9338E+00   1.2435E-05  0.0187
   1.9338E+00   1.9808E+00   1.2965E-05  0.0181
   1.9808E+00   2.0290E+00   1.3200E-05  0.0177
   2.0290E+00   2.0784E+00   1.3414E-05  0.0174
   2.0784E+00   2.1290E+00   1.3350E-05  0.0172
   2.1290E+00   2.1808E+00   1.3689E-05  0.0168
   2.1808E+00   2.2338E+00   1.4210E-05  0.0163
   2.2338E+00   2.2882E+00   1.4305E-05  0.0160
   2.2882E+00   2.3439E+00   1.4353E-05  0.0158
   2.3439E+00   2.4009E+00   1.4631E-05  0.0155
   2.4009E+00   2.4593E+00   1.4732E-05  0.0152
   2.4593E+00   2.5191E+00   1.4647E-05  0.0151
   2.5191E+00   2.5804E+00   1.5158E-05  0.0147
   2.5804E+00   2.6432E+00   1.5133E-05  0.0145
   2.6432E+00   2.7075E+00   1.5251E-05  0.0143
   2.7075E+00   2.7734E+00   1.5535E-05  0.0140
   2.7734E+00   2.8409E+00   1.5600E-05  0.0138
   2.8409E+00   2.9100E+00   1.6727E-05  0.0132
   2.9100E+00   2.9808E+00   1.6145E-05  0.0132
   2.9808E+00   3.0533E+00   1.6942E-05  0.0128
   3.0533E+00   3.1276E+00   1.6706E-05  0.0127
   3.1276E+00   3.2037E+00   1.6393E-05  0.0127
   3.2037E+00   3.2817E+00   1.6334E-05  0.0125
   3.2817E+00   3.3615E+00   1.6492E-05  0.0123
   3.3615E+00   3.4433E+00   1.6945E-05  0.0120
   3.4433E+00   3.5271E+00   1.7029E-05  0.0118
   3.5271E+00   3.6129E+00   1.7182E-05  0.0116
   3.6129E+00   3.7008E+00   1.7324E-05  0.0115
   3.7008E+00   3.7908E+00   1.7091E-05  0.0114
   3.7908E+00   3.8831E+00   1.7488E-05  0.0111
   3.8831E+00   3.9776E+00   1.7397E-05  0.0110
   3.9776E+00   4.0743E+00   1.7284E-05  0.0109
   4.0743E+00   4.1735E+00   1.7057E-05  0.0109
   4.1735E+00   4.2750E+00   1.7566E-05  0.0106
   4.2750E+00   4.3790E+00   1.6896E-05  0.0107
   4.3790E+00   4.4856E+00   1.6521E-05  0.0107
   4.4856E+00   4.5947E+00   1.6241E-05  0.0106
   4.5947E+00   4.7065E+00   1.5846E-05  0.0106
   4.7065E+00   4.8210E+00   1.6058E-05  0.0104
   4.8210E+00   4.9383E+00   1.5998E-05  0.0103
   4.9383E+00   5.0585E+00   1.6069E-05  0.0102
   5.0585E+00   5.1815E+00   1.5695E-05  0.0102
   5.1815E+00   5.3076E+00   1.5202E-05  0.0102
   5.3076E+00   5.4368E+00   1.4778E-05  0.0102
   5.4368E+00   5.5690E+00   1.4513E-05  0.0102
   5.5690E+00   5.7045E+00   1.4422E-05  0.0101
   5.7045E+00   5.8433E+00   1.3837E-05  0.0102
   5.8433E+00   5.9855E+00   1.3523E-05  0.0102
   5.9855E+00   6.1311E+00   1.3549E-05  0.0101
   6.1311E+00   6.2803E+00   1.3070E-05  0.0101
   6.2803E+00   6.4331E+00   1.2638E-05  0.0102
   6.4331E+00   6.5896E+00   1.2405E-05  0.0101
   6.5896E+00   6.7500E+00   1.1766E-05  0.0103
   6.7500E+00   6.9142E+00   1.1562E-05  0.0103
   6.9142E+00   7.0824E+00   1.1347E-05  0.0102
   7.0824E+00   7.2548E+00   1.0792E-05  0.0104
   7.2548E+00   7.4313E+00   1.0511E-05  0.0104
   7.4313E+00   7.6121E+00   1.0272E-05  0.0104
   7.6121E+00   7.7973E+00   9.9402E-06  0.0104
   7.7973E+00   7.9870E+00   9.6055E-06  0.0105
   7.9870E+00   8.1813E+00   9.4864E-06  0.0104
   8.1813E+00   8.3804E+00   9.0657E-06  0.0105
   8.3804E+00   8.5843E+00   8.8415E-06  0.0105
   8.5843E+00   8.7931E+00   8.7148E-06  0.0105
   8.7931E+00   9.0071E+00   7.9787E-06  0.0108
   9.0071E+00   9.2262E+00   7.9256E-06  0.0107
   9.2262E+00   9.4507E+00   7.7641E-06  0.0107
   9.4507E+00   9.6807E+00   7.4183E-06  0.0108
   9.6807E+00   9.9162E+00   7.1271E-06  0.0109
   9.9162E+00   1.0157E+01   6.9097E-06  0.0109
   1.0157E+01   1.0405E+01   6.5315E-06  0.0111
   1.0405E+01   1.0658E+01   6.2883E-06  0.0112
   1.0658E+01   1.0917E+01   6.1335E-06  0.0112
   1.0917E+01   1.1183E+01   5.8211E-06  0.0114
   1.1183E+01   1.1455E+01   5.5703E-06  0.0115
   1.1455E+01   1.1733E+01   5.4466E-06  0.0115
   1.1733E+01   1.2019E+01   5.0437E-06  0.0118
   1.2019E+01   1.2311E+01   4.9776E-06  0.0117
   1.2311E+01   1.2611E+01   4.7922E-06  0.0118
   1.2611E+01   1.2918E+01   4.4819E-06  0.0121
   1.2918E+01   1.3232E+01   4.3140E-06  0.0121
   1.3232E+01   1.3554E+01   4.0768E-06  0.0123
   1.3554E+01   1.3884E+01   3.8550E-06  0.0125
   1.3884E+01   1.4222E+01   3.6610E-06  0.0127
   1.4222E+01   1.4568E+01   3.4844E-06  0.0129
   1.4568E+01   1.4922E+01   3.3402E-06  0.0130
   1.4922E+01   1.5285E+01   3.1727E-06  0.0132
   1.5285E+01   1.5657E+01   2.9005E-06  0.0136
   1.5657E+01   1.6038E+01   2.7327E-06  0.0139
   1.6038E+01   1.6428E+01   2.5737E-06  0.0141
   1.6428E+01   1.6828E+01   2.4000E-06  0.0144
   1.6828E+01   1.7237E+01   2.2619E-06  0.0147
   1.7237E+01   1.7657E+01   2.0715E-06  0.0152
   1.7657E+01   1.8086E+01   1.9390E-06  0.0155
   1.8086E+01   1.8526E+01   1.8000E-06  0.0159
   1.8526E+01   1.8977E+01   1.6678E-06  0.0163
   1.8977E+01   1.9439E+01   1.5100E-06  0.0169
   1.9439E+01   1.9912E+01   1.3798E-06  0.0175
   1.9912E+01   2.0396E+01   1.3528E-06  0.0175
   2.0396E+01   2.0893E+01   1.2965E-06  0.0176
   2.0893E+01   2.1401E+01   1.1489E-06  0.0185
   2.1401E+01   2.1922E+01   1.0355E-06  0.0193
   2.1922E+01   2.2455E+01   9.5393E-07  0.0198
   2.2455E+01   2.3001E+01   8.2548E-07  0.0211
   2.3001E+01   2.3561E+01   7.3583E-07  0.0220
   2.3561E+01   2.4134E+01   6.5136E-07  0.0231
   2.4134E+01   2.4721E+01   5.6743E-07  0.0245
   2.4721E+01   2.5323E+01   4.9111E-07  0.0260
   2.5323E+01   2.5939E+01   4.3011E-07  0.0275
   2.5939E+01   2.6570E+01   3.7077E-07  0.0292
   2.6570E+01   2.7217E+01   3.1927E-07  0.0311
   2.7217E+01   2.7879E+01   2.6034E-07  0.0341
   2.7879E+01   2.8557E+01   2.2349E-07  0.0363
   2.8557E+01   2.9252E+01   1.6925E-07  0.0412
   2.9252E+01   2.9964E+01   1.5624E-07  0.0424
   2.9964E+01   3.0693E+01   1.2180E-07  0.0475
   3.0693E+01   3.1440E+01   8.0345E-08  0.0577
   3.1440E+01   3.2205E+01   6.7455E-08  0.0623
   3.2205E+01   3.2988E+01   4.5434E-08  0.0750
   3.2988E+01   3.3791E+01   3.1148E-08  0.0894
   3.3791E+01   3.4613E+01   1.6299E-08  0.1222
   3.4613E+01   3.5455E+01   4.2747E-09  0.2357
   3.5455E+01   3.6318E+01   1.1592E-09  0.4472
   3.6318E+01   3.7201E+01   0.0000E+00  0.0000
   3.7201E+01   3.8106E+01   0.0000E+00  0.0000
   3.8106E+01   3.9034E+01   0.0000E+00  0.0000
   3.9034E+01   3.9983E+01   0.0000E+00  0.0000
   3.9983E+01   4.0956E+01   0.0000E+00  0.0000
   4.0956E+01   4.1953E+01   0.0000E+00  0.0000
   4.1953E+01   4.2973E+01   0.0000E+00  0.0000
   4.2973E+01   4.4019E+01   0.0000E+00  0.0000
   4.4019E+01   4.5090E+01   0.0000E+00  0.0000
   4.5090E+01   4.6187E+01   0.0000E+00  0.0000
   4.6187E+01   4.7311E+01   0.0000E+00  0.0000
   4.7311E+01   4.8462E+01   0.0000E+00  0.0000
   4.8462E+01   4.9641E+01   0.0000E+00  0.0000
   4.9641E+01   5.0849E+01   0.0000E+00  0.0000
   5.0849E+01   5.2086E+01   0.0000E+00  0.0000
   5.2086E+01   5.3353E+01   0.0000E+00  0.0000
   5.3353E+01   5.4651E+01   0.0000E+00  0.0000
   5.4651E+01   5.5981E+01   0.0000E+00  0.0000
   5.5981E+01   5.7343E+01   0.0000E+00  0.0000
   5.7343E+01   5.8738E+01   0.0000E+00  0.0000
   5.8738E+01   6.0168E+01   0.0000E+00  0.0000
   6.0168E+01   6.1632E+01   0.0000E+00  0.0000
   6.1632E+01   6.3131E+01   0.0000E+00  0.0000
   6.3131E+01   6.4667E+01   0.0000E+00  0.0000
   6.4667E+01   6.6240E+01   0.0000E+00  0.0000
   6.6240E+01   6.7852E+01   0.0000E+00  0.0000
   6.7852E+01   6.9503E+01   0.0000E+00  0.0000
   6.9503E+01   7.1194E+01   0.0000E+00  0.0000
   7.1194E+01   7.2926E+01   0.0000E+00  0.0000
   7.2926E+01   7.4701E+01   0.0000E+00  0.0000
   7.4701E+01   7.6518E+01   0.0000E+00  0.0000
   7.6518E+01   7.8380E+01   0.0000E+00  0.0000
   7.8380E+01   8.0287E+01   0.0000E+00  0.0000
   8.0287E+01   8.2240E+01   0.0000E+00  0.0000
   8.2240E+01   8.4241E+01   0.0000E+00  0.0000
   8.4241E+01   8.6291E+01   0.0000E+00  0.0000
   8.6291E+01   8.8391E+01   0.0000E+00  0.0000
   8.8391E+01   9.0541E+01   0.0000E+00  0.0000
   9.0541E+01   9.2744E+01   0.0000E+00  0.0000
   9.2744E+01   9.5001E+01   0.0000E+00  0.0000
   9.5001E+01   9.7312E+01   0.0000E+00  0.0000
   9.7312E+01   9.9680E+01   0.0000E+00  0.0000
   9.9680E+01   1.0211E+02   0.0000E+00  0.0000
   1.0211E+02   1.0459E+02   0.0000E+00  0.0000
   1.0459E+02   1.0713E+02   0.0000E+00  0.0000
   1.0713E+02   1.0974E+02   0.0000E+00  0.0000
   1.0974E+02   1.1241E+02   0.0000E+00  0.0000
   1.1241E+02   1.1515E+02   0.0000E+00  0.0000
   1.1515E+02   1.1795E+02   0.0000E+00  0.0000
   1.1795E+02   1.2082E+02   0.0000E+00  0.0000
   1.2082E+02   1.2376E+02   0.0000E+00  0.0000
   1.2376E+02   1.2677E+02   0.0000E+00  0.0000
   1.2677E+02   1.2985E+02   0.0000E+00  0.0000
   1.2985E+02   1.3301E+02   0.0000E+00  0.0000
   1.3301E+02   1.3625E+02   0.0000E+00  0.0000
   1.3625E+02   1.3956E+02   0.0000E+00  0.0000
   1.3956E+02   1.4296E+02   0.0000E+00  0.0000
   1.4296E+02   1.4644E+02   0.0000E+00  0.0000
   1.4644E+02   1.5000E+02   0.0000E+00  0.0000

#   sum over                 1.1146E-06
'no. =    1   reg = 113 - 213'
msuc: {\huge [t-cross] in region mesh}
msdr: {\it plotted by \ANGEL \version}
msdl: {\it calculated by \PHITS  3.26}
wt: s(0.7)
\vspace{-3}
  region surface crossing
  area  &=&   1.0000E+00 [cm^2]
e:
 
# Information for Restart Calculation
# This calculation was newly started
# istdev =  2 # 1:Batch variance, 2:History variance
# resc2  = 5.00000000000000000E+09 # Total source weight or Total source weight / maxcas
# resc3  = 5.00000000000000000E+09 # Total history number or Total batch number
# maxcas =   500000000 # History / Batch, only used for istdev=1
# bitrseed = 0110100000100010111000001110001111001110100100011111101000111001 # bit data of rseed
