[ T-Cross ]
    title = [t-cross] in region mesh
     mesh =  reg            # mesh type is region-wise
      reg =    1            # number of crossing regions
      non     r-from    r-to       area
      1       111       211        1.000000    
   e-type =    3            # e-mesh is log given by emin, emax and ne
     emin =  1.0000000E-02  # minimum value of e-mesh points
     emax =   150.0000      # maximum value of e-mesh points
#    edel =  2.4039514E-02  # mesh width of e-mesh points
       ne =    400          # number of e-mesh points
#    data = ( e(i), i = 1, ne + 1 )
#           1.00000E-02  1.02433E-02  1.04925E-02  1.07478E-02  1.10093E-02
#           1.12772E-02  1.15516E-02  1.18326E-02  1.21205E-02  1.24154E-02
#           1.27175E-02  1.30269E-02  1.33439E-02  1.36686E-02  1.40011E-02
#           1.43418E-02  1.46907E-02  1.50482E-02  1.54143E-02  1.57894E-02
#           1.61735E-02  1.65670E-02  1.69701E-02  1.73830E-02  1.78060E-02
#           1.82392E-02  1.86830E-02  1.91375E-02  1.96032E-02  2.00801E-02
#           2.05687E-02  2.10692E-02  2.15818E-02  2.21069E-02  2.26448E-02
#           2.31957E-02  2.37601E-02  2.43382E-02  2.49304E-02  2.55369E-02
#           2.61583E-02  2.67947E-02  2.74467E-02  2.81145E-02  2.87985E-02
#           2.94992E-02  3.02169E-02  3.09521E-02  3.17052E-02  3.24766E-02
#           3.32668E-02  3.40762E-02  3.49053E-02  3.57546E-02  3.66246E-02
#           3.75157E-02  3.84284E-02  3.93634E-02  4.03212E-02  4.13022E-02
#           4.23071E-02  4.33365E-02  4.43909E-02  4.54710E-02  4.65773E-02
#           4.77106E-02  4.88714E-02  5.00605E-02  5.12785E-02  5.25262E-02
#           5.38042E-02  5.51133E-02  5.64542E-02  5.78278E-02  5.92348E-02
#           6.06760E-02  6.21523E-02  6.36645E-02  6.52135E-02  6.68002E-02
#           6.84255E-02  7.00904E-02  7.17957E-02  7.35426E-02  7.53319E-02
#           7.71648E-02  7.90423E-02  8.09655E-02  8.29354E-02  8.49533E-02
#           8.70203E-02  8.91376E-02  9.13064E-02  9.35279E-02  9.58035E-02
#           9.81345E-02  1.00522E-01  1.02968E-01  1.05473E-01  1.08040E-01
#           1.10668E-01  1.13361E-01  1.16119E-01  1.18944E-01  1.21838E-01
#           1.24803E-01  1.27839E-01  1.30950E-01  1.34136E-01  1.37399E-01
#           1.40742E-01  1.44167E-01  1.47675E-01  1.51268E-01  1.54948E-01
#           1.58718E-01  1.62580E-01  1.66535E-01  1.70587E-01  1.74738E-01
#           1.78989E-01  1.83344E-01  1.87805E-01  1.92375E-01  1.97055E-01
#           2.01850E-01  2.06761E-01  2.11792E-01  2.16945E-01  2.22223E-01
#           2.27630E-01  2.33169E-01  2.38842E-01  2.44653E-01  2.50605E-01
#           2.56703E-01  2.62949E-01  2.69346E-01  2.75900E-01  2.82613E-01
#           2.89489E-01  2.96532E-01  3.03747E-01  3.11138E-01  3.18708E-01
#           3.26462E-01  3.34405E-01  3.42542E-01  3.50876E-01  3.59413E-01
#           3.68158E-01  3.77116E-01  3.86291E-01  3.95690E-01  4.05317E-01
#           4.15179E-01  4.25281E-01  4.35628E-01  4.46227E-01  4.57084E-01
#           4.68205E-01  4.79597E-01  4.91266E-01  5.03219E-01  5.15463E-01
#           5.28005E-01  5.40851E-01  5.54011E-01  5.67490E-01  5.81298E-01
#           5.95441E-01  6.09929E-01  6.24769E-01  6.39970E-01  6.55541E-01
#           6.71491E-01  6.87828E-01  7.04564E-01  7.21706E-01  7.39266E-01
#           7.57253E-01  7.75678E-01  7.94551E-01  8.13883E-01  8.33685E-01
#           8.53969E-01  8.74747E-01  8.96030E-01  9.17831E-01  9.40163E-01
#           9.63038E-01  9.86469E-01  1.01047E+00  1.03506E+00  1.06024E+00
#           1.08604E+00  1.11246E+00  1.13953E+00  1.16725E+00  1.19565E+00
#           1.22474E+00  1.25454E+00  1.28507E+00  1.31633E+00  1.34836E+00
#           1.38117E+00  1.41477E+00  1.44920E+00  1.48446E+00  1.52057E+00
#           1.55757E+00  1.59547E+00  1.63429E+00  1.67405E+00  1.71478E+00
#           1.75650E+00  1.79924E+00  1.84302E+00  1.88786E+00  1.93379E+00
#           1.98084E+00  2.02904E+00  2.07841E+00  2.12898E+00  2.18078E+00
#           2.23384E+00  2.28819E+00  2.34386E+00  2.40089E+00  2.45930E+00
#           2.51914E+00  2.58043E+00  2.64322E+00  2.70753E+00  2.77341E+00
#           2.84088E+00  2.91001E+00  2.98081E+00  3.05333E+00  3.12762E+00
#           3.20372E+00  3.28167E+00  3.36152E+00  3.44330E+00  3.52708E+00
#           3.61290E+00  3.70080E+00  3.79085E+00  3.88308E+00  3.97756E+00
#           4.07434E+00  4.17347E+00  4.27501E+00  4.37903E+00  4.48557E+00
#           4.59471E+00  4.70650E+00  4.82102E+00  4.93832E+00  5.05847E+00
#           5.18155E+00  5.30762E+00  5.43676E+00  5.56904E+00  5.70453E+00
#           5.84333E+00  5.98550E+00  6.13114E+00  6.28031E+00  6.43312E+00
#           6.58964E+00  6.74997E+00  6.91420E+00  7.08243E+00  7.25475E+00
#           7.43126E+00  7.61207E+00  7.79728E+00  7.98700E+00  8.18133E+00
#           8.38038E+00  8.58428E+00  8.79315E+00  9.00709E+00  9.22624E+00
#           9.45072E+00  9.68067E+00  9.91620E+00  1.01575E+01  1.04046E+01
#           1.06578E+01  1.09171E+01  1.11827E+01  1.14548E+01  1.17335E+01
#           1.20190E+01  1.23114E+01  1.26109E+01  1.29178E+01  1.32321E+01
#           1.35540E+01  1.38838E+01  1.42216E+01  1.45676E+01  1.49221E+01
#           1.52851E+01  1.56570E+01  1.60380E+01  1.64282E+01  1.68279E+01
#           1.72374E+01  1.76568E+01  1.80864E+01  1.85264E+01  1.89772E+01
#           1.94389E+01  1.99119E+01  2.03963E+01  2.08926E+01  2.14009E+01
#           2.19216E+01  2.24550E+01  2.30014E+01  2.35610E+01  2.41343E+01
#           2.47215E+01  2.53230E+01  2.59391E+01  2.65702E+01  2.72167E+01
#           2.78789E+01  2.85572E+01  2.92520E+01  2.99637E+01  3.06928E+01
#           3.14396E+01  3.22045E+01  3.29881E+01  3.37907E+01  3.46128E+01
#           3.54550E+01  3.63177E+01  3.72013E+01  3.81064E+01  3.90336E+01
#           3.99833E+01  4.09561E+01  4.19526E+01  4.29734E+01  4.40189E+01
#           4.50900E+01  4.61870E+01  4.73108E+01  4.84619E+01  4.96410E+01
#           5.08488E+01  5.20860E+01  5.33533E+01  5.46514E+01  5.59812E+01
#           5.73432E+01  5.87384E+01  6.01676E+01  6.16315E+01  6.31311E+01
#           6.46671E+01  6.62405E+01  6.78522E+01  6.95031E+01  7.11941E+01
#           7.29263E+01  7.47007E+01  7.65182E+01  7.83800E+01  8.02870E+01
#           8.22405E+01  8.42414E+01  8.62911E+01  8.83906E+01  9.05412E+01
#           9.27442E+01  9.50007E+01  9.73122E+01  9.96799E+01  1.02105E+02
#           1.04589E+02  1.07134E+02  1.09741E+02  1.12411E+02  1.15146E+02
#           1.17948E+02  1.20817E+02  1.23757E+02  1.26768E+02  1.29852E+02
#           1.33012E+02  1.36248E+02  1.39563E+02  1.42959E+02  1.46437E+02
#           1.50000E+02
     unit =    2            # unit is [1/cm^2/(MeV/n)/source]
     axis =  eng            # axis of output
     file = detector-12.out  # file name of output for the above axis
   output = f-curr          # surface crossing forward current spectrum
     part =  neutron  
# kf/name :  2112     
#    used :        main (  %)        temp (  %)       total (  %)
#  memory :         414 (  0)           0 (  0)         414 (  0)

#------------------------------------------------------------------------------
#newpage:
#   no. =    1   reg = 111 - 211

x: Energy [MeV/n]
y:  F-Curr [1/cm^2/(MeV/n)/source]         
p: xlog ylog afac(0.8) form(0.9)
h: n            x            y(neutron ),hh0l   n 
#  e-lower      e-upper      neutron     r.err 
   1.0000E-02   1.0243E-02   2.5438E-04  0.0566
   1.0243E-02   1.0493E-02   2.5078E-04  0.0561
   1.0493E-02   1.0748E-02   2.3798E-04  0.0571
   1.0748E-02   1.1009E-02   2.5254E-04  0.0548
   1.1009E-02   1.1277E-02   2.1611E-04  0.0585
   1.1277E-02   1.1552E-02   2.0703E-04  0.0591
   1.1552E-02   1.1833E-02   2.2630E-04  0.0558
   1.1833E-02   1.2121E-02   2.2221E-04  0.0557
   1.2121E-02   1.2415E-02   2.0604E-04  0.0572
   1.2415E-02   1.2718E-02   1.9453E-04  0.0581
   1.2718E-02   1.3027E-02   1.9129E-04  0.0579
   1.3027E-02   1.3344E-02   2.1452E-04  0.0539
   1.3344E-02   1.3669E-02   1.8868E-04  0.0569
   1.3669E-02   1.4001E-02   1.7886E-04  0.0577
   1.4001E-02   1.4342E-02   1.8310E-04  0.0564
   1.4342E-02   1.4691E-02   1.7825E-04  0.0565
   1.4691E-02   1.5048E-02   1.7776E-04  0.0559
   1.5048E-02   1.5414E-02   1.6476E-04  0.0574
   1.5414E-02   1.5789E-02   1.6780E-04  0.0561
   1.5789E-02   1.6174E-02   1.7460E-04  0.0544
   1.6174E-02   1.6567E-02   1.7497E-04  0.0537
   1.6567E-02   1.6970E-02   1.7094E-04  0.0537
   1.6970E-02   1.7383E-02   1.7322E-04  0.0527
   1.7383E-02   1.7806E-02   1.4602E-04  0.0568
   1.7806E-02   1.8239E-02   1.5443E-04  0.0544
   1.8239E-02   1.8683E-02   1.4230E-04  0.0560
   1.8683E-02   1.9138E-02   1.5030E-04  0.0538
   1.9138E-02   1.9603E-02   1.3458E-04  0.0563
   1.9603E-02   2.0080E-02   1.3411E-04  0.0557
   2.0080E-02   2.0569E-02   1.4832E-04  0.0523
   2.0569E-02   2.1069E-02   1.2353E-04  0.0567
   2.1069E-02   2.1582E-02   1.3808E-04  0.0529
   2.1582E-02   2.2107E-02   1.1955E-04  0.0561
   2.2107E-02   2.2645E-02   1.1926E-04  0.0556
   2.2645E-02   2.3196E-02   1.1778E-04  0.0551
   2.3196E-02   2.3760E-02   1.1323E-04  0.0557
   2.3760E-02   2.4338E-02   1.1428E-04  0.0547
   2.4338E-02   2.4930E-02   1.1469E-04  0.0541
   2.4930E-02   2.5537E-02   1.0810E-04  0.0550
   2.5537E-02   2.6158E-02   1.0311E-04  0.0557
   2.6158E-02   2.6795E-02   1.1417E-04  0.0523
   2.6795E-02   2.7447E-02   1.0377E-04  0.0542
   2.7447E-02   2.8114E-02   1.0540E-04  0.0531
   2.8114E-02   2.8799E-02   9.3340E-05  0.0556
   2.8799E-02   2.9499E-02   1.0681E-04  0.0514
   2.9499E-02   3.0217E-02   9.8298E-05  0.0531
   3.0217E-02   3.0952E-02   8.8941E-05  0.0550
   3.0952E-02   3.1705E-02   8.0446E-05  0.0573
   3.1705E-02   3.2477E-02   9.5732E-05  0.0519
   3.2477E-02   3.3267E-02   8.6440E-05  0.0538
   3.3267E-02   3.4076E-02   8.6632E-05  0.0531
   3.4076E-02   3.4905E-02   8.8733E-05  0.0519
   3.4905E-02   3.5755E-02   8.8820E-05  0.0512
   3.5755E-02   3.6625E-02   8.5814E-05  0.0515
   3.6625E-02   3.7516E-02   8.3687E-05  0.0516
   3.7516E-02   3.8428E-02   7.3586E-05  0.0543
   3.8428E-02   3.9363E-02   7.2947E-05  0.0539
   3.9363E-02   4.0321E-02   6.9977E-05  0.0544
   4.0321E-02   4.1302E-02   6.9689E-05  0.0538
   4.1302E-02   4.2307E-02   7.6466E-05  0.0508
   4.2307E-02   4.3337E-02   7.2536E-05  0.0516
   4.3337E-02   4.4391E-02   6.6897E-05  0.0530
   4.4391E-02   4.5471E-02   6.2345E-05  0.0543
   4.5471E-02   4.6577E-02   6.7172E-05  0.0517
   4.6577E-02   4.7711E-02   6.5414E-05  0.0517
   4.7711E-02   4.8871E-02   6.1004E-05  0.0528
   4.8871E-02   5.0061E-02   6.4085E-05  0.0511
   5.0061E-02   5.1279E-02   5.9345E-05  0.0524
   5.1279E-02   5.2526E-02   6.1606E-05  0.0508
   5.2526E-02   5.3804E-02   5.5190E-05  0.0530
   5.3804E-02   5.5113E-02   6.0959E-05  0.0499
   5.5113E-02   5.6454E-02   5.7084E-05  0.0509
   5.6454E-02   5.7828E-02   5.6463E-05  0.0506
   5.7828E-02   5.9235E-02   5.5117E-05  0.0506
   5.9235E-02   6.0676E-02   5.4702E-05  0.0501
   6.0676E-02   6.2152E-02   5.8150E-05  0.0480
   6.2152E-02   6.3665E-02   5.3369E-05  0.0496
   6.3665E-02   6.5214E-02   4.9404E-05  0.0510
   6.5214E-02   6.6800E-02   5.5025E-05  0.0476
   6.6800E-02   6.8426E-02   4.9929E-05  0.0495
   6.8426E-02   7.0090E-02   5.2832E-05  0.0475
   7.0090E-02   7.1796E-02   4.6005E-05  0.0503
   7.1796E-02   7.3543E-02   4.9225E-05  0.0481
   7.3543E-02   7.5332E-02   4.5912E-05  0.0491
   7.5332E-02   7.7165E-02   4.4116E-05  0.0495
   7.7165E-02   7.9042E-02   4.4046E-05  0.0490
   7.9042E-02   8.0965E-02   4.5092E-05  0.0478
   8.0965E-02   8.2935E-02   3.8790E-05  0.0509
   8.2935E-02   8.4953E-02   4.1214E-05  0.0489
   8.4953E-02   8.7020E-02   4.0567E-05  0.0487
   8.7020E-02   8.9138E-02   4.2395E-05  0.0470
   8.9138E-02   9.1306E-02   4.1104E-05  0.0471
   9.1306E-02   9.3528E-02   3.8912E-05  0.0480
   9.3528E-02   9.5804E-02   3.8752E-05  0.0474
   9.5804E-02   9.8134E-02   3.5534E-05  0.0490
   9.8134E-02   1.0052E-01   4.1264E-05  0.0449
   1.0052E-01   1.0297E-01   3.7583E-05  0.0465
   1.0297E-01   1.0547E-01   4.2147E-05  0.0434
   1.0547E-01   1.0804E-01   4.5487E-05  0.0412
   1.0804E-01   1.1067E-01   4.6718E-05  0.0402
   1.1067E-01   1.1336E-01   4.8328E-05  0.0390
   1.1336E-01   1.1612E-01   4.9860E-05  0.0380
   1.1612E-01   1.1894E-01   5.0157E-05  0.0375
   1.1894E-01   1.2184E-01   5.9982E-05  0.0338
   1.2184E-01   1.2480E-01   5.5721E-05  0.0347
   1.2480E-01   1.2784E-01   6.1291E-05  0.0327
   1.2784E-01   1.3095E-01   6.3271E-05  0.0318
   1.3095E-01   1.3414E-01   6.5492E-05  0.0308
   1.3414E-01   1.3740E-01   6.8868E-05  0.0297
   1.3740E-01   1.4074E-01   7.3874E-05  0.0283
   1.4074E-01   1.4417E-01   7.6729E-05  0.0275
   1.4417E-01   1.4767E-01   7.4050E-05  0.0276
   1.4767E-01   1.5127E-01   7.9722E-05  0.0263
   1.5127E-01   1.5495E-01   8.7385E-05  0.0249
   1.5495E-01   1.5872E-01   8.5445E-05  0.0248
   1.5872E-01   1.6258E-01   9.8830E-05  0.0228
   1.6258E-01   1.6654E-01   9.5144E-05  0.0230
   1.6654E-01   1.7059E-01   1.0404E-04  0.0217
   1.7059E-01   1.7474E-01   1.0270E-04  0.0216
   1.7474E-01   1.7899E-01   1.1393E-04  0.0203
   1.7899E-01   1.8334E-01   1.1858E-04  0.0196
   1.8334E-01   1.8781E-01   1.2168E-04  0.0191
   1.8781E-01   1.9237E-01   1.2989E-04  0.0183
   1.9237E-01   1.9706E-01   1.2937E-04  0.0181
   1.9706E-01   2.0185E-01   1.3751E-04  0.0174
   2.0185E-01   2.0676E-01   1.4507E-04  0.0167
   2.0676E-01   2.1179E-01   1.5224E-04  0.0161
   2.1179E-01   2.1694E-01   1.5221E-04  0.0159
   2.1694E-01   2.2222E-01   1.6168E-04  0.0153
   2.2222E-01   2.2763E-01   1.7047E-04  0.0147
   2.2763E-01   2.3317E-01   1.7780E-04  0.0142
   2.3317E-01   2.3884E-01   1.8057E-04  0.0139
   2.3884E-01   2.4465E-01   1.9060E-04  0.0134
   2.4465E-01   2.5061E-01   2.0239E-04  0.0128
   2.5061E-01   2.5670E-01   2.0456E-04  0.0126
   2.5670E-01   2.6295E-01   2.1612E-04  0.0121
   2.6295E-01   2.6935E-01   2.2241E-04  0.0118
   2.6935E-01   2.7590E-01   2.2820E-04  0.0115
   2.7590E-01   2.8261E-01   2.4155E-04  0.0111
   2.8261E-01   2.8949E-01   2.4789E-04  0.0108
   2.8949E-01   2.9653E-01   2.5673E-04  0.0105
   2.9653E-01   3.0375E-01   2.6800E-04  0.0101
   3.0375E-01   3.1114E-01   2.8044E-04  0.0098
   3.1114E-01   3.1871E-01   2.8864E-04  0.0095
   3.1871E-01   3.2646E-01   2.9791E-04  0.0093
   3.2646E-01   3.3441E-01   3.0858E-04  0.0090
   3.3441E-01   3.4254E-01   3.1765E-04  0.0088
   3.4254E-01   3.5088E-01   3.3541E-04  0.0084
   3.5088E-01   3.5941E-01   3.3862E-04  0.0083
   3.5941E-01   3.6816E-01   3.5579E-04  0.0080
   3.6816E-01   3.7712E-01   3.6124E-04  0.0078
   3.7712E-01   3.8629E-01   3.6878E-04  0.0077
   3.8629E-01   3.9569E-01   3.8795E-04  0.0074
   3.9569E-01   4.0532E-01   3.8946E-04  0.0073
   4.0532E-01   4.1518E-01   4.0283E-04  0.0071
   4.1518E-01   4.2528E-01   4.1446E-04  0.0069
   4.2528E-01   4.3563E-01   4.2354E-04  0.0067
   4.3563E-01   4.4623E-01   4.3558E-04  0.0066
   4.4623E-01   4.5708E-01   4.4213E-04  0.0064
   4.5708E-01   4.6821E-01   4.4703E-04  0.0063
   4.6821E-01   4.7960E-01   4.5823E-04  0.0062
   4.7960E-01   4.9127E-01   4.6619E-04  0.0060
   4.9127E-01   5.0322E-01   4.7119E-04  0.0059
   5.0322E-01   5.1546E-01   4.8153E-04  0.0058
   5.1546E-01   5.2800E-01   4.8646E-04  0.0057
   5.2800E-01   5.4085E-01   4.9582E-04  0.0056
   5.4085E-01   5.5401E-01   5.0543E-04  0.0055
   5.5401E-01   5.6749E-01   5.0723E-04  0.0054
   5.6749E-01   5.8130E-01   5.1631E-04  0.0053
   5.8130E-01   5.9544E-01   5.2088E-04  0.0052
   5.9544E-01   6.0993E-01   5.3155E-04  0.0051
   6.0993E-01   6.2477E-01   5.3480E-04  0.0050
   6.2477E-01   6.3997E-01   5.3847E-04  0.0049
   6.3997E-01   6.5554E-01   5.3786E-04  0.0049
   6.5554E-01   6.7149E-01   5.4650E-04  0.0048
   6.7149E-01   6.8783E-01   5.4871E-04  0.0047
   6.8783E-01   7.0456E-01   5.4969E-04  0.0046
   7.0456E-01   7.2171E-01   5.5244E-04  0.0046
   7.2171E-01   7.3927E-01   5.5886E-04  0.0045
   7.3927E-01   7.5725E-01   5.5724E-04  0.0044
   7.5725E-01   7.7568E-01   5.5974E-04  0.0044
   7.7568E-01   7.9455E-01   5.5744E-04  0.0043
   7.9455E-01   8.1388E-01   5.6002E-04  0.0043
   8.1388E-01   8.3368E-01   5.5834E-04  0.0042
   8.3368E-01   8.5397E-01   5.6178E-04  0.0042
   8.5397E-01   8.7475E-01   5.5527E-04  0.0041
   8.7475E-01   8.9603E-01   5.5470E-04  0.0041
   8.9603E-01   9.1783E-01   5.5661E-04  0.0040
   9.1783E-01   9.4016E-01   5.5188E-04  0.0040
   9.4016E-01   9.6304E-01   5.4637E-04  0.0040
   9.6304E-01   9.8647E-01   5.4140E-04  0.0040
   9.8647E-01   1.0105E+00   5.3295E-04  0.0039
   1.0105E+00   1.0351E+00   5.2453E-04  0.0039
   1.0351E+00   1.0602E+00   5.1906E-04  0.0039
   1.0602E+00   1.0860E+00   5.2090E-04  0.0038
   1.0860E+00   1.1125E+00   5.2031E-04  0.0038
   1.1125E+00   1.1395E+00   5.2197E-04  0.0037
   1.1395E+00   1.1673E+00   5.1876E-04  0.0037
   1.1673E+00   1.1957E+00   5.2121E-04  0.0036
   1.1957E+00   1.2247E+00   5.1887E-04  0.0036
   1.2247E+00   1.2545E+00   5.2608E-04  0.0035
   1.2545E+00   1.2851E+00   5.2047E-04  0.0035
   1.2851E+00   1.3163E+00   5.2295E-04  0.0035
   1.3163E+00   1.3484E+00   5.2357E-04  0.0034
   1.3484E+00   1.3812E+00   5.2140E-04  0.0034
   1.3812E+00   1.4148E+00   5.1799E-04  0.0034
   1.4148E+00   1.4492E+00   5.1393E-04  0.0033
   1.4492E+00   1.4845E+00   5.1381E-04  0.0033
   1.4845E+00   1.5206E+00   5.1098E-04  0.0033
   1.5206E+00   1.5576E+00   5.0670E-04  0.0032
   1.5576E+00   1.5955E+00   5.0481E-04  0.0032
   1.5955E+00   1.6343E+00   4.9825E-04  0.0032
   1.6343E+00   1.6741E+00   4.9053E-04  0.0032
   1.6741E+00   1.7148E+00   4.8412E-04  0.0031
   1.7148E+00   1.7565E+00   4.7685E-04  0.0031
   1.7565E+00   1.7992E+00   4.5726E-04  0.0031
   1.7992E+00   1.8430E+00   4.3062E-04  0.0032
   1.8430E+00   1.8879E+00   4.0277E-04  0.0033
   1.8879E+00   1.9338E+00   3.9517E-04  0.0032
   1.9338E+00   1.9808E+00   3.8634E-04  0.0032
   1.9808E+00   2.0290E+00   3.7904E-04  0.0032
   2.0290E+00   2.0784E+00   3.7602E-04  0.0032
   2.0784E+00   2.1290E+00   3.7829E-04  0.0031
   2.1290E+00   2.1808E+00   3.8377E-04  0.0031
   2.1808E+00   2.2338E+00   3.8728E-04  0.0030
   2.2338E+00   2.2882E+00   3.7869E-04  0.0030
   2.2882E+00   2.3439E+00   3.6281E-04  0.0031
   2.3439E+00   2.4009E+00   3.5415E-04  0.0031
   2.4009E+00   2.4593E+00   3.4839E-04  0.0031
   2.4593E+00   2.5191E+00   3.4614E-04  0.0030
   2.5191E+00   2.5804E+00   3.3917E-04  0.0030
   2.5804E+00   2.6432E+00   3.3400E-04  0.0030
   2.6432E+00   2.7075E+00   3.2858E-04  0.0030
   2.7075E+00   2.7734E+00   3.2386E-04  0.0030
   2.7734E+00   2.8409E+00   3.1691E-04  0.0030
   2.8409E+00   2.9100E+00   3.1204E-04  0.0030
   2.9100E+00   2.9808E+00   3.0814E-04  0.0030
   2.9808E+00   3.0533E+00   3.0537E-04  0.0029
   3.0533E+00   3.1276E+00   2.9898E-04  0.0029
   3.1276E+00   3.2037E+00   2.9412E-04  0.0029
   3.2037E+00   3.2817E+00   2.9162E-04  0.0029
   3.2817E+00   3.3615E+00   2.8492E-04  0.0029
   3.3615E+00   3.4433E+00   2.8153E-04  0.0029
   3.4433E+00   3.5271E+00   2.7841E-04  0.0029
   3.5271E+00   3.6129E+00   2.7428E-04  0.0029
   3.6129E+00   3.7008E+00   2.7099E-04  0.0028
   3.7008E+00   3.7908E+00   2.6582E-04  0.0028
   3.7908E+00   3.8831E+00   2.5910E-04  0.0028
   3.8831E+00   3.9776E+00   2.5500E-04  0.0028
   3.9776E+00   4.0743E+00   2.5143E-04  0.0028
   4.0743E+00   4.1735E+00   2.4584E-04  0.0028
   4.1735E+00   4.2750E+00   2.3978E-04  0.0028
   4.2750E+00   4.3790E+00   2.3362E-04  0.0028
   4.3790E+00   4.4856E+00   2.2947E-04  0.0028
   4.4856E+00   4.5947E+00   2.2285E-04  0.0028
   4.5947E+00   4.7065E+00   2.1931E-04  0.0028
   4.7065E+00   4.8210E+00   2.1584E-04  0.0028
   4.8210E+00   4.9383E+00   2.1047E-04  0.0028
   4.9383E+00   5.0585E+00   2.0855E-04  0.0028
   5.0585E+00   5.1815E+00   2.0550E-04  0.0028
   5.1815E+00   5.3076E+00   2.0335E-04  0.0027
   5.3076E+00   5.4368E+00   1.9847E-04  0.0027
   5.4368E+00   5.5690E+00   1.9600E-04  0.0027
   5.5690E+00   5.7045E+00   1.9410E-04  0.0027
   5.7045E+00   5.8433E+00   1.8990E-04  0.0027
   5.8433E+00   5.9855E+00   1.8817E-04  0.0027
   5.9855E+00   6.1311E+00   1.8475E-04  0.0027
   6.1311E+00   6.2803E+00   1.8285E-04  0.0027
   6.2803E+00   6.4331E+00   1.8147E-04  0.0026
   6.4331E+00   6.5896E+00   1.7794E-04  0.0026
   6.5896E+00   6.7500E+00   1.7526E-04  0.0026
   6.7500E+00   6.9142E+00   1.7305E-04  0.0026
   6.9142E+00   7.0824E+00   1.7004E-04  0.0026
   7.0824E+00   7.2548E+00   1.6809E-04  0.0026
   7.2548E+00   7.4313E+00   1.6484E-04  0.0026
   7.4313E+00   7.6121E+00   1.6214E-04  0.0026
   7.6121E+00   7.7973E+00   1.5910E-04  0.0026
   7.7973E+00   7.9870E+00   1.5538E-04  0.0026
   7.9870E+00   8.1813E+00   1.5382E-04  0.0025
   8.1813E+00   8.3804E+00   1.5124E-04  0.0025
   8.3804E+00   8.5843E+00   1.4760E-04  0.0025
   8.5843E+00   8.7931E+00   1.4404E-04  0.0025
   8.7931E+00   9.0071E+00   1.4086E-04  0.0025
   9.0071E+00   9.2262E+00   1.3708E-04  0.0026
   9.2262E+00   9.4507E+00   1.3306E-04  0.0026
   9.4507E+00   9.6807E+00   1.2929E-04  0.0026
   9.6807E+00   9.9162E+00   1.2745E-04  0.0026
   9.9162E+00   1.0157E+01   1.3029E-04  0.0025
   1.0157E+01   1.0405E+01   1.2698E-04  0.0025
   1.0405E+01   1.0658E+01   1.2489E-04  0.0025
   1.0658E+01   1.0917E+01   1.1993E-04  0.0025
   1.0917E+01   1.1183E+01   1.1572E-04  0.0025
   1.1183E+01   1.1455E+01   1.1234E-04  0.0025
   1.1455E+01   1.1733E+01   1.0968E-04  0.0026
   1.1733E+01   1.2019E+01   1.0650E-04  0.0026
   1.2019E+01   1.2311E+01   1.0352E-04  0.0026
   1.2311E+01   1.2611E+01   1.0128E-04  0.0026
   1.2611E+01   1.2918E+01   9.7370E-05  0.0026
   1.2918E+01   1.3232E+01   9.4827E-05  0.0026
   1.3232E+01   1.3554E+01   9.1744E-05  0.0026
   1.3554E+01   1.3884E+01   8.8646E-05  0.0026
   1.3884E+01   1.4222E+01   8.5902E-05  0.0026
   1.4222E+01   1.4568E+01   8.3005E-05  0.0026
   1.4568E+01   1.4922E+01   8.0036E-05  0.0027
   1.4922E+01   1.5285E+01   7.6886E-05  0.0027
   1.5285E+01   1.5657E+01   7.3832E-05  0.0027
   1.5657E+01   1.6038E+01   7.1491E-05  0.0027
   1.6038E+01   1.6428E+01   6.8724E-05  0.0027
   1.6428E+01   1.6828E+01   6.5726E-05  0.0028
   1.6828E+01   1.7237E+01   6.3306E-05  0.0028
   1.7237E+01   1.7657E+01   6.0215E-05  0.0028
   1.7657E+01   1.8086E+01   5.7572E-05  0.0028
   1.8086E+01   1.8526E+01   5.4795E-05  0.0029
   1.8526E+01   1.8977E+01   5.2314E-05  0.0029
   1.8977E+01   1.9439E+01   4.9936E-05  0.0029
   1.9439E+01   1.9912E+01   4.7835E-05  0.0030
   1.9912E+01   2.0396E+01   4.5688E-05  0.0030
   2.0396E+01   2.0893E+01   4.3361E-05  0.0030
   2.0893E+01   2.1401E+01   4.1051E-05  0.0031
   2.1401E+01   2.1922E+01   3.9037E-05  0.0031
   2.1922E+01   2.2455E+01   3.6581E-05  0.0032
   2.2455E+01   2.3001E+01   3.5246E-05  0.0032
   2.3001E+01   2.3561E+01   3.5531E-05  0.0032
   2.3561E+01   2.4134E+01   3.5872E-05  0.0031
   2.4134E+01   2.4721E+01   3.4649E-05  0.0031
   2.4721E+01   2.5323E+01   3.2416E-05  0.0032
   2.5323E+01   2.5939E+01   3.0636E-05  0.0033
   2.5939E+01   2.6570E+01   2.8605E-05  0.0033
   2.6570E+01   2.7217E+01   2.6457E-05  0.0034
   2.7217E+01   2.7879E+01   2.4501E-05  0.0035
   2.7879E+01   2.8557E+01   2.2487E-05  0.0036
   2.8557E+01   2.9252E+01   2.0425E-05  0.0038
   2.9252E+01   2.9964E+01   1.8657E-05  0.0039
   2.9964E+01   3.0693E+01   1.6732E-05  0.0040
   3.0693E+01   3.1440E+01   1.4905E-05  0.0042
   3.1440E+01   3.2205E+01   1.3338E-05  0.0044
   3.2205E+01   3.2988E+01   1.1906E-05  0.0046
   3.2988E+01   3.3791E+01   1.0824E-05  0.0048
   3.3791E+01   3.4613E+01   9.5167E-06  0.0051
   3.4613E+01   3.5455E+01   8.5295E-06  0.0053
   3.5455E+01   3.6318E+01   7.5236E-06  0.0056
   3.6318E+01   3.7201E+01   6.4744E-06  0.0059
   3.7201E+01   3.8106E+01   5.6228E-06  0.0063
   3.8106E+01   3.9034E+01   4.7368E-06  0.0067
   3.9034E+01   3.9983E+01   3.9551E-06  0.0073
   3.9983E+01   4.0956E+01   3.0980E-06  0.0081
   4.0956E+01   4.1953E+01   2.2515E-06  0.0094
   4.1953E+01   4.2973E+01   1.7037E-06  0.0107
   4.2973E+01   4.4019E+01   1.4235E-06  0.0116
   4.4019E+01   4.5090E+01   1.2795E-06  0.0121
   4.5090E+01   4.6187E+01   1.1831E-06  0.0124
   4.6187E+01   4.7311E+01   1.1291E-06  0.0126
   4.7311E+01   4.8462E+01   1.1650E-06  0.0122
   4.8462E+01   4.9641E+01   1.1885E-06  0.0119
   4.9641E+01   5.0849E+01   1.0979E-06  0.0123
   5.0849E+01   5.2086E+01   4.6654E-07  0.0186
   5.2086E+01   5.3353E+01   5.7130E-08  0.0526
   5.3353E+01   5.4651E+01   1.7872E-08  0.0928
   5.4651E+01   5.5981E+01   1.5041E-09  0.3162
   5.5981E+01   5.7343E+01   2.9367E-10  0.7071
   5.7343E+01   5.8738E+01   1.4335E-10  1.0000
   5.8738E+01   6.0168E+01   0.0000E+00  0.0000
   6.0168E+01   6.1632E+01   0.0000E+00  0.0000
   6.1632E+01   6.3131E+01   0.0000E+00  0.0000
   6.3131E+01   6.4667E+01   0.0000E+00  0.0000
   6.4667E+01   6.6240E+01   0.0000E+00  0.0000
   6.6240E+01   6.7852E+01   0.0000E+00  0.0000
   6.7852E+01   6.9503E+01   0.0000E+00  0.0000
   6.9503E+01   7.1194E+01   0.0000E+00  0.0000
   7.1194E+01   7.2926E+01   0.0000E+00  0.0000
   7.2926E+01   7.4701E+01   0.0000E+00  0.0000
   7.4701E+01   7.6518E+01   0.0000E+00  0.0000
   7.6518E+01   7.8380E+01   0.0000E+00  0.0000
   7.8380E+01   8.0287E+01   0.0000E+00  0.0000
   8.0287E+01   8.2240E+01   0.0000E+00  0.0000
   8.2240E+01   8.4241E+01   0.0000E+00  0.0000
   8.4241E+01   8.6291E+01   0.0000E+00  0.0000
   8.6291E+01   8.8391E+01   0.0000E+00  0.0000
   8.8391E+01   9.0541E+01   0.0000E+00  0.0000
   9.0541E+01   9.2744E+01   0.0000E+00  0.0000
   9.2744E+01   9.5001E+01   0.0000E+00  0.0000
   9.5001E+01   9.7312E+01   0.0000E+00  0.0000
   9.7312E+01   9.9680E+01   0.0000E+00  0.0000
   9.9680E+01   1.0211E+02   0.0000E+00  0.0000
   1.0211E+02   1.0459E+02   0.0000E+00  0.0000
   1.0459E+02   1.0713E+02   0.0000E+00  0.0000
   1.0713E+02   1.0974E+02   0.0000E+00  0.0000
   1.0974E+02   1.1241E+02   0.0000E+00  0.0000
   1.1241E+02   1.1515E+02   0.0000E+00  0.0000
   1.1515E+02   1.1795E+02   0.0000E+00  0.0000
   1.1795E+02   1.2082E+02   0.0000E+00  0.0000
   1.2082E+02   1.2376E+02   0.0000E+00  0.0000
   1.2376E+02   1.2677E+02   0.0000E+00  0.0000
   1.2677E+02   1.2985E+02   0.0000E+00  0.0000
   1.2985E+02   1.3301E+02   0.0000E+00  0.0000
   1.3301E+02   1.3625E+02   0.0000E+00  0.0000
   1.3625E+02   1.3956E+02   0.0000E+00  0.0000
   1.3956E+02   1.4296E+02   0.0000E+00  0.0000
   1.4296E+02   1.4644E+02   0.0000E+00  0.0000
   1.4644E+02   1.5000E+02   0.0000E+00  0.0000

#   sum over                 2.5138E-05
'no. =    1   reg = 111 - 211'
msuc: {\huge [t-cross] in region mesh}
msdr: {\it plotted by \ANGEL \version}
msdl: {\it calculated by \PHITS  3.26}
wt: s(0.7)
\vspace{-3}
  region surface crossing
  area  &=&   1.0000E+00 [cm^2]
e:
 
# Information for Restart Calculation
# This calculation was newly started
# istdev =  2 # 1:Batch variance, 2:History variance
# resc2  = 5.00000000000000000E+09 # Total source weight or Total source weight / maxcas
# resc3  = 5.00000000000000000E+09 # Total history number or Total batch number
# maxcas =   100000000 # History / Batch, only used for istdev=1
# bitrseed = 0110100000100010111000001110001111001110100100011111101000111001 # bit data of rseed
