[ T-Cross ]
    title = [t-cross] in region mesh
     mesh =  reg            # mesh type is region-wise
      reg =    1            # number of crossing regions
      non     r-from    r-to       area
      1       105       205        1.000000    
   e-type =    3            # e-mesh is log given by emin, emax and ne
     emin =  1.0000000E-02  # minimum value of e-mesh points
     emax =   150.0000      # maximum value of e-mesh points
#    edel =  2.4039514E-02  # mesh width of e-mesh points
       ne =    400          # number of e-mesh points
#    data = ( e(i), i = 1, ne + 1 )
#           1.00000E-02  1.02433E-02  1.04925E-02  1.07478E-02  1.10093E-02
#           1.12772E-02  1.15516E-02  1.18326E-02  1.21205E-02  1.24154E-02
#           1.27175E-02  1.30269E-02  1.33439E-02  1.36686E-02  1.40011E-02
#           1.43418E-02  1.46907E-02  1.50482E-02  1.54143E-02  1.57894E-02
#           1.61735E-02  1.65670E-02  1.69701E-02  1.73830E-02  1.78060E-02
#           1.82392E-02  1.86830E-02  1.91375E-02  1.96032E-02  2.00801E-02
#           2.05687E-02  2.10692E-02  2.15818E-02  2.21069E-02  2.26448E-02
#           2.31957E-02  2.37601E-02  2.43382E-02  2.49304E-02  2.55369E-02
#           2.61583E-02  2.67947E-02  2.74467E-02  2.81145E-02  2.87985E-02
#           2.94992E-02  3.02169E-02  3.09521E-02  3.17052E-02  3.24766E-02
#           3.32668E-02  3.40762E-02  3.49053E-02  3.57546E-02  3.66246E-02
#           3.75157E-02  3.84284E-02  3.93634E-02  4.03212E-02  4.13022E-02
#           4.23071E-02  4.33365E-02  4.43909E-02  4.54710E-02  4.65773E-02
#           4.77106E-02  4.88714E-02  5.00605E-02  5.12785E-02  5.25262E-02
#           5.38042E-02  5.51133E-02  5.64542E-02  5.78278E-02  5.92348E-02
#           6.06760E-02  6.21523E-02  6.36645E-02  6.52135E-02  6.68002E-02
#           6.84255E-02  7.00904E-02  7.17957E-02  7.35426E-02  7.53319E-02
#           7.71648E-02  7.90423E-02  8.09655E-02  8.29354E-02  8.49533E-02
#           8.70203E-02  8.91376E-02  9.13064E-02  9.35279E-02  9.58035E-02
#           9.81345E-02  1.00522E-01  1.02968E-01  1.05473E-01  1.08040E-01
#           1.10668E-01  1.13361E-01  1.16119E-01  1.18944E-01  1.21838E-01
#           1.24803E-01  1.27839E-01  1.30950E-01  1.34136E-01  1.37399E-01
#           1.40742E-01  1.44167E-01  1.47675E-01  1.51268E-01  1.54948E-01
#           1.58718E-01  1.62580E-01  1.66535E-01  1.70587E-01  1.74738E-01
#           1.78989E-01  1.83344E-01  1.87805E-01  1.92375E-01  1.97055E-01
#           2.01850E-01  2.06761E-01  2.11792E-01  2.16945E-01  2.22223E-01
#           2.27630E-01  2.33169E-01  2.38842E-01  2.44653E-01  2.50605E-01
#           2.56703E-01  2.62949E-01  2.69346E-01  2.75900E-01  2.82613E-01
#           2.89489E-01  2.96532E-01  3.03747E-01  3.11138E-01  3.18708E-01
#           3.26462E-01  3.34405E-01  3.42542E-01  3.50876E-01  3.59413E-01
#           3.68158E-01  3.77116E-01  3.86291E-01  3.95690E-01  4.05317E-01
#           4.15179E-01  4.25281E-01  4.35628E-01  4.46227E-01  4.57084E-01
#           4.68205E-01  4.79597E-01  4.91266E-01  5.03219E-01  5.15463E-01
#           5.28005E-01  5.40851E-01  5.54011E-01  5.67490E-01  5.81298E-01
#           5.95441E-01  6.09929E-01  6.24769E-01  6.39970E-01  6.55541E-01
#           6.71491E-01  6.87828E-01  7.04564E-01  7.21706E-01  7.39266E-01
#           7.57253E-01  7.75678E-01  7.94551E-01  8.13883E-01  8.33685E-01
#           8.53969E-01  8.74747E-01  8.96030E-01  9.17831E-01  9.40163E-01
#           9.63038E-01  9.86469E-01  1.01047E+00  1.03506E+00  1.06024E+00
#           1.08604E+00  1.11246E+00  1.13953E+00  1.16725E+00  1.19565E+00
#           1.22474E+00  1.25454E+00  1.28507E+00  1.31633E+00  1.34836E+00
#           1.38117E+00  1.41477E+00  1.44920E+00  1.48446E+00  1.52057E+00
#           1.55757E+00  1.59547E+00  1.63429E+00  1.67405E+00  1.71478E+00
#           1.75650E+00  1.79924E+00  1.84302E+00  1.88786E+00  1.93379E+00
#           1.98084E+00  2.02904E+00  2.07841E+00  2.12898E+00  2.18078E+00
#           2.23384E+00  2.28819E+00  2.34386E+00  2.40089E+00  2.45930E+00
#           2.51914E+00  2.58043E+00  2.64322E+00  2.70753E+00  2.77341E+00
#           2.84088E+00  2.91001E+00  2.98081E+00  3.05333E+00  3.12762E+00
#           3.20372E+00  3.28167E+00  3.36152E+00  3.44330E+00  3.52708E+00
#           3.61290E+00  3.70080E+00  3.79085E+00  3.88308E+00  3.97756E+00
#           4.07434E+00  4.17347E+00  4.27501E+00  4.37903E+00  4.48557E+00
#           4.59471E+00  4.70650E+00  4.82102E+00  4.93832E+00  5.05847E+00
#           5.18155E+00  5.30762E+00  5.43676E+00  5.56904E+00  5.70453E+00
#           5.84333E+00  5.98550E+00  6.13114E+00  6.28031E+00  6.43312E+00
#           6.58964E+00  6.74997E+00  6.91420E+00  7.08243E+00  7.25475E+00
#           7.43126E+00  7.61207E+00  7.79728E+00  7.98700E+00  8.18133E+00
#           8.38038E+00  8.58428E+00  8.79315E+00  9.00709E+00  9.22624E+00
#           9.45072E+00  9.68067E+00  9.91620E+00  1.01575E+01  1.04046E+01
#           1.06578E+01  1.09171E+01  1.11827E+01  1.14548E+01  1.17335E+01
#           1.20190E+01  1.23114E+01  1.26109E+01  1.29178E+01  1.32321E+01
#           1.35540E+01  1.38838E+01  1.42216E+01  1.45676E+01  1.49221E+01
#           1.52851E+01  1.56570E+01  1.60380E+01  1.64282E+01  1.68279E+01
#           1.72374E+01  1.76568E+01  1.80864E+01  1.85264E+01  1.89772E+01
#           1.94389E+01  1.99119E+01  2.03963E+01  2.08926E+01  2.14009E+01
#           2.19216E+01  2.24550E+01  2.30014E+01  2.35610E+01  2.41343E+01
#           2.47215E+01  2.53230E+01  2.59391E+01  2.65702E+01  2.72167E+01
#           2.78789E+01  2.85572E+01  2.92520E+01  2.99637E+01  3.06928E+01
#           3.14396E+01  3.22045E+01  3.29881E+01  3.37907E+01  3.46128E+01
#           3.54550E+01  3.63177E+01  3.72013E+01  3.81064E+01  3.90336E+01
#           3.99833E+01  4.09561E+01  4.19526E+01  4.29734E+01  4.40189E+01
#           4.50900E+01  4.61870E+01  4.73108E+01  4.84619E+01  4.96410E+01
#           5.08488E+01  5.20860E+01  5.33533E+01  5.46514E+01  5.59812E+01
#           5.73432E+01  5.87384E+01  6.01676E+01  6.16315E+01  6.31311E+01
#           6.46671E+01  6.62405E+01  6.78522E+01  6.95031E+01  7.11941E+01
#           7.29263E+01  7.47007E+01  7.65182E+01  7.83800E+01  8.02870E+01
#           8.22405E+01  8.42414E+01  8.62911E+01  8.83906E+01  9.05412E+01
#           9.27442E+01  9.50007E+01  9.73122E+01  9.96799E+01  1.02105E+02
#           1.04589E+02  1.07134E+02  1.09741E+02  1.12411E+02  1.15146E+02
#           1.17948E+02  1.20817E+02  1.23757E+02  1.26768E+02  1.29852E+02
#           1.33012E+02  1.36248E+02  1.39563E+02  1.42959E+02  1.46437E+02
#           1.50000E+02
     unit =    2            # unit is [1/cm^2/(MeV/n)/source]
     axis =  eng            # axis of output
     file = detector-06.out  # file name of output for the above axis
   output = f-curr          # surface crossing forward current spectrum
     part =  neutron  
# kf/name :  2112     
#    used :        main (  %)        temp (  %)       total (  %)
#  memory :         414 (  0)           0 (  0)         414 (  0)

#------------------------------------------------------------------------------
#newpage:
#   no. =    1   reg = 105 - 205

x: Energy [MeV/n]
y:  F-Curr [1/cm^2/(MeV/n)/source]         
p: xlog ylog afac(0.8) form(0.9)
h: n            x            y(neutron ),hh0l   n 
#  e-lower      e-upper      neutron     r.err 
   1.0000E-02   1.0243E-02   6.5603E-06  0.3536
   1.0243E-02   1.0493E-02   3.1990E-06  0.5000
   1.0493E-02   1.0748E-02   3.1239E-06  0.5000
   1.0748E-02   1.1009E-02   6.1014E-06  0.3536
   1.1009E-02   1.1277E-02   6.6291E-06  0.3335
   1.1277E-02   1.1552E-02   8.3259E-06  0.2905
   1.1552E-02   1.1833E-02   7.2233E-06  0.3111
   1.1833E-02   1.2121E-02   3.4559E-06  0.4472
   1.2121E-02   1.2415E-02   6.6873E-06  0.3164
   1.2415E-02   1.2718E-02   7.0538E-06  0.3029
   1.2718E-02   1.3027E-02   3.8742E-06  0.4082
   1.3027E-02   1.3344E-02   1.2619E-06  0.7071
   1.3344E-02   1.3669E-02   8.7547E-06  0.2592
   1.3669E-02   1.4001E-02   3.0029E-06  0.4472
   1.4001E-02   1.4342E-02   3.5119E-06  0.4083
   1.4342E-02   1.4691E-02   6.0829E-06  0.3033
   1.4691E-02   1.5048E-02   2.7869E-06  0.4472
   1.5048E-02   1.5414E-02   2.7242E-06  0.4472
   1.5414E-02   1.5789E-02   3.1795E-06  0.4083
   1.5789E-02   1.6174E-02   4.1563E-06  0.3536
   1.6174E-02   1.6567E-02   4.0565E-06  0.3536
   1.6567E-02   1.6970E-02   2.4746E-06  0.4472
   1.6970E-02   1.7383E-02   3.3760E-06  0.3780
   1.7383E-02   1.7806E-02   2.7595E-06  0.4089
   1.7806E-02   1.8239E-02   3.3378E-06  0.3573
   1.8239E-02   1.8683E-02   3.5936E-06  0.3536
   1.8683E-02   1.9138E-02   1.6641E-06  0.5022
   1.9138E-02   1.9603E-02   1.7100E-06  0.5000
   1.9603E-02   2.0080E-02   2.3912E-06  0.4106
   2.0080E-02   2.0569E-02   2.9440E-06  0.3682
   2.0569E-02   2.1069E-02   1.8656E-06  0.4514
   2.1069E-02   2.1582E-02   3.8565E-06  0.3163
   2.1582E-02   2.2107E-02   1.8949E-06  0.4472
   2.2107E-02   2.2645E-02   2.4696E-06  0.3796
   2.2645E-02   2.3196E-02   2.4303E-06  0.3791
   2.3196E-02   2.3760E-02   2.9244E-06  0.3433
   2.3760E-02   2.4338E-02   2.7011E-06  0.3540
   2.4338E-02   2.4930E-02   3.2989E-06  0.3168
   2.4930E-02   2.5537E-02   1.7127E-06  0.4315
   2.5537E-02   2.6158E-02   2.2397E-06  0.3780
   2.6158E-02   2.6795E-02   3.0738E-06  0.3165
   2.6795E-02   2.7447E-02   2.7476E-06  0.3333
   2.7447E-02   2.8114E-02   4.3296E-06  0.2587
   2.8114E-02   2.8799E-02   2.9955E-06  0.3089
   2.8799E-02   2.9499E-02   1.1378E-06  0.5000
   2.9499E-02   3.0217E-02   1.8607E-06  0.3803
   3.0217E-02   3.0952E-02   1.5544E-06  0.4091
   3.0952E-02   3.1705E-02   1.0576E-06  0.5000
   3.1705E-02   3.2477E-02   1.7189E-06  0.3811
   3.2477E-02   3.3267E-02   2.2241E-06  0.3339
   3.3267E-02   3.4076E-02   2.6713E-06  0.3017
   3.4076E-02   3.4905E-02   2.1630E-06  0.3333
   3.4905E-02   3.5755E-02   2.6616E-06  0.2898
   3.5755E-02   3.6625E-02   2.6426E-06  0.2898
   3.6625E-02   3.7516E-02   1.3438E-06  0.4082
   3.7516E-02   3.8428E-02   6.2249E-07  0.5790
   3.8428E-02   3.9363E-02   2.0512E-06  0.3170
   3.9363E-02   4.0321E-02   1.8186E-06  0.3341
   4.0321E-02   4.1302E-02   1.1839E-06  0.4091
   4.1302E-02   4.2307E-02   1.5857E-06  0.3536
   4.2307E-02   4.3337E-02   1.8834E-06  0.3169
   4.3337E-02   4.4391E-02   9.1227E-07  0.4481
   4.4391E-02   4.5471E-02   1.5847E-06  0.3344
   4.5471E-02   4.6577E-02   7.2148E-07  0.5000
   4.6577E-02   4.7711E-02   1.9033E-06  0.3019
   4.7711E-02   4.8871E-02   1.6068E-06  0.3185
   4.8871E-02   5.0061E-02   1.3391E-06  0.3536
   5.0061E-02   5.1279E-02   8.1716E-07  0.4472
   5.1279E-02   5.2526E-02   1.9623E-06  0.2832
   5.2526E-02   5.3804E-02   1.1146E-06  0.3704
   5.3804E-02   5.5113E-02   9.1372E-07  0.4082
   5.5113E-02   5.6454E-02   1.3794E-06  0.3249
   5.6454E-02   5.7828E-02   1.1611E-06  0.3536
   5.7828E-02   5.9235E-02   1.1353E-06  0.3536
   5.9235E-02   6.0676E-02   1.5317E-06  0.2956
   6.0676E-02   6.2152E-02   1.3502E-06  0.3162
   6.2152E-02   6.3665E-02   8.9873E-07  0.3788
   6.3665E-02   6.5214E-02   1.0286E-06  0.3536
   6.5214E-02   6.6800E-02   1.1541E-06  0.3275
   6.6800E-02   6.8426E-02   1.1448E-06  0.3238
   6.8426E-02   7.0090E-02   1.0470E-06  0.3338
   7.0090E-02   7.1796E-02   8.0000E-07  0.3786
   7.1796E-02   7.3543E-02   1.0172E-06  0.3335
   7.3543E-02   7.5332E-02   7.6373E-07  0.3785
   7.5332E-02   7.7165E-02   6.5352E-07  0.4082
   7.7165E-02   7.9042E-02   1.2434E-06  0.2897
   7.9042E-02   8.0965E-02   9.8274E-07  0.3191
   8.0965E-02   8.2935E-02   1.0514E-06  0.3039
   8.2935E-02   8.4953E-02   1.2273E-06  0.2790
   8.4953E-02   8.7020E-02   1.0611E-06  0.3015
   8.7020E-02   8.9138E-02   8.1329E-07  0.3342
   8.9138E-02   9.1306E-02   7.3484E-07  0.3536
   9.1306E-02   9.3528E-02   8.0777E-07  0.3333
   9.3528E-02   9.5804E-02   7.8805E-07  0.3333
   9.5804E-02   9.8134E-02   1.0360E-06  0.2834
   9.8134E-02   1.0052E-01   4.8663E-07  0.4091
   1.0052E-01   1.0297E-01   1.4509E-06  0.2360
   1.0297E-01   1.0547E-01   1.2486E-06  0.2504
   1.0547E-01   1.0804E-01   1.5772E-06  0.2209
   1.0804E-01   1.1067E-01   1.1146E-06  0.2589
   1.1067E-01   1.1336E-01   1.1115E-06  0.2582
   1.1336E-01   1.1612E-01   1.2404E-06  0.2405
   1.1612E-01   1.1894E-01   1.0452E-06  0.2583
   1.1894E-01   1.2184E-01   1.1556E-06  0.2428
   1.2184E-01   1.2480E-01   1.2106E-06  0.2357
   1.2480E-01   1.2784E-01   1.3652E-06  0.2184
   1.2784E-01   1.3095E-01   1.3527E-06  0.2135
   1.3095E-01   1.3414E-01   1.0453E-06  0.2429
   1.3414E-01   1.3740E-01   1.0901E-06  0.2359
   1.3740E-01   1.4074E-01   1.3587E-06  0.2070
   1.4074E-01   1.4417E-01   1.4442E-06  0.2001
   1.4417E-01   1.4767E-01   1.5911E-06  0.1890
   1.4767E-01   1.5127E-01   2.5993E-06  0.1459
   1.5127E-01   1.5495E-01   2.1785E-06  0.1567
   1.5495E-01   1.5872E-01   2.0629E-06  0.1595
   1.5872E-01   1.6258E-01   1.7559E-06  0.1715
   1.6258E-01   1.6654E-01   1.7019E-06  0.1706
   1.6654E-01   1.7059E-01   2.4457E-06  0.1415
   1.7059E-01   1.7474E-01   2.2320E-06  0.1449
   1.7474E-01   1.7899E-01   2.7958E-06  0.1289
   1.7899E-01   1.8334E-01   2.3502E-06  0.1388
   1.8334E-01   1.8781E-01   2.0682E-06  0.1461
   1.8781E-01   1.9237E-01   2.8146E-06  0.1238
   1.9237E-01   1.9706E-01   2.8297E-06  0.1219
   1.9706E-01   2.0185E-01   3.2441E-06  0.1126
   2.0185E-01   2.0676E-01   2.8592E-06  0.1188
   2.0676E-01   2.1179E-01   3.3861E-06  0.1074
   2.1179E-01   2.1694E-01   3.4903E-06  0.1047
   2.1694E-01   2.2222E-01   3.6344E-06  0.1014
   2.2222E-01   2.2763E-01   3.8003E-06  0.0978
   2.2763E-01   2.3317E-01   3.5273E-06  0.1004
   2.3317E-01   2.3884E-01   3.8148E-06  0.0954
   2.3884E-01   2.4465E-01   3.5525E-06  0.0977
   2.4465E-01   2.5061E-01   4.5312E-06  0.0857
   2.5061E-01   2.5670E-01   5.2751E-06  0.0783
   2.5670E-01   2.6295E-01   5.5742E-06  0.0755
   2.6295E-01   2.6935E-01   5.7851E-06  0.0732
   2.6935E-01   2.7590E-01   5.3809E-06  0.0749
   2.7590E-01   2.8261E-01   5.4222E-06  0.0737
   2.8261E-01   2.8949E-01   5.8670E-06  0.0699
   2.8949E-01   2.9653E-01   6.5009E-06  0.0657
   2.9653E-01   3.0375E-01   6.6477E-06  0.0641
   3.0375E-01   3.1114E-01   7.3013E-06  0.0604
   3.1114E-01   3.1871E-01   6.9381E-06  0.0613
   3.1871E-01   3.2646E-01   8.4387E-06  0.0550
   3.2646E-01   3.3441E-01   8.2464E-06  0.0550
   3.3441E-01   3.4254E-01   8.3193E-06  0.0541
   3.4254E-01   3.5088E-01   1.0250E-05  0.0481
   3.5088E-01   3.5941E-01   1.0069E-05  0.0479
   3.5941E-01   3.6816E-01   1.0023E-05  0.0475
   3.6816E-01   3.7712E-01   1.1306E-05  0.0442
   3.7712E-01   3.8629E-01   1.1940E-05  0.0425
   3.8629E-01   3.9569E-01   1.3269E-05  0.0397
   3.9569E-01   4.0532E-01   1.2514E-05  0.0405
   4.0532E-01   4.1518E-01   1.3372E-05  0.0387
   4.1518E-01   4.2528E-01   1.3894E-05  0.0375
   4.2528E-01   4.3563E-01   1.5908E-05  0.0347
   4.3563E-01   4.4623E-01   1.6079E-05  0.0340
   4.4623E-01   4.5708E-01   1.7726E-05  0.0321
   4.5708E-01   4.6821E-01   1.8185E-05  0.0313
   4.6821E-01   4.7960E-01   1.9378E-05  0.0299
   4.7960E-01   4.9127E-01   1.9388E-05  0.0296
   4.9127E-01   5.0322E-01   2.0061E-05  0.0287
   5.0322E-01   5.1546E-01   2.1288E-05  0.0275
   5.1546E-01   5.2800E-01   2.1860E-05  0.0269
   5.2800E-01   5.4085E-01   2.2964E-05  0.0259
   5.4085E-01   5.5401E-01   2.4709E-05  0.0247
   5.5401E-01   5.6749E-01   2.5409E-05  0.0240
   5.6749E-01   5.8130E-01   2.7244E-05  0.0229
   5.8130E-01   5.9544E-01   2.8222E-05  0.0223
   5.9544E-01   6.0993E-01   2.9937E-05  0.0213
   6.0993E-01   6.2477E-01   3.0736E-05  0.0208
   6.2477E-01   6.3997E-01   3.1145E-05  0.0204
   6.3997E-01   6.5554E-01   3.3809E-05  0.0194
   6.5554E-01   6.7149E-01   3.4014E-05  0.0191
   6.7149E-01   6.8783E-01   3.5447E-05  0.0185
   6.8783E-01   7.0456E-01   3.6464E-05  0.0180
   7.0456E-01   7.2171E-01   3.8850E-05  0.0172
   7.2171E-01   7.3927E-01   3.8882E-05  0.0170
   7.3927E-01   7.5725E-01   4.0533E-05  0.0165
   7.5725E-01   7.7568E-01   4.1859E-05  0.0160
   7.7568E-01   7.9455E-01   4.3669E-05  0.0155
   7.9455E-01   8.1388E-01   4.4638E-05  0.0151
   8.1388E-01   8.3368E-01   4.6183E-05  0.0147
   8.3368E-01   8.5397E-01   4.7080E-05  0.0144
   8.5397E-01   8.7475E-01   4.8356E-05  0.0140
   8.7475E-01   8.9603E-01   4.9287E-05  0.0137
   8.9603E-01   9.1783E-01   4.9847E-05  0.0135
   9.1783E-01   9.4016E-01   4.9895E-05  0.0133
   9.4016E-01   9.6304E-01   4.9111E-05  0.0132
   9.6304E-01   9.8647E-01   5.0042E-05  0.0130
   9.8647E-01   1.0105E+00   4.9654E-05  0.0129
   1.0105E+00   1.0351E+00   4.8802E-05  0.0128
   1.0351E+00   1.0602E+00   4.8841E-05  0.0127
   1.0602E+00   1.0860E+00   5.0756E-05  0.0123
   1.0860E+00   1.1125E+00   5.1298E-05  0.0120
   1.1125E+00   1.1395E+00   5.2910E-05  0.0117
   1.1395E+00   1.1673E+00   5.4026E-05  0.0115
   1.1673E+00   1.1957E+00   5.4913E-05  0.0112
   1.1957E+00   1.2247E+00   5.6182E-05  0.0110
   1.2247E+00   1.2545E+00   5.6694E-05  0.0108
   1.2545E+00   1.2851E+00   5.8867E-05  0.0104
   1.2851E+00   1.3163E+00   6.0221E-05  0.0102
   1.3163E+00   1.3484E+00   6.0258E-05  0.0101
   1.3484E+00   1.3812E+00   6.1814E-05  0.0098
   1.3812E+00   1.4148E+00   6.2004E-05  0.0097
   1.4148E+00   1.4492E+00   6.1590E-05  0.0096
   1.4492E+00   1.4845E+00   6.2694E-05  0.0094
   1.4845E+00   1.5206E+00   6.4428E-05  0.0092
   1.5206E+00   1.5576E+00   6.4011E-05  0.0091
   1.5576E+00   1.5955E+00   6.3514E-05  0.0090
   1.5955E+00   1.6343E+00   6.4345E-05  0.0088
   1.6343E+00   1.6741E+00   6.4414E-05  0.0087
   1.6741E+00   1.7148E+00   6.3524E-05  0.0087
   1.7148E+00   1.7565E+00   6.1402E-05  0.0087
   1.7565E+00   1.7992E+00   5.9128E-05  0.0087
   1.7992E+00   1.8430E+00   5.3090E-05  0.0091
   1.8430E+00   1.8879E+00   4.8116E-05  0.0094
   1.8879E+00   1.9338E+00   4.7183E-05  0.0093
   1.9338E+00   1.9808E+00   4.7186E-05  0.0092
   1.9808E+00   2.0290E+00   4.6551E-05  0.0091
   2.0290E+00   2.0784E+00   4.7548E-05  0.0089
   2.0784E+00   2.1290E+00   4.9150E-05  0.0086
   2.1290E+00   2.1808E+00   5.1702E-05  0.0083
   2.1808E+00   2.2338E+00   5.3952E-05  0.0080
   2.2338E+00   2.2882E+00   5.4210E-05  0.0079
   2.2882E+00   2.3439E+00   5.0703E-05  0.0081
   2.3439E+00   2.4009E+00   4.9634E-05  0.0081
   2.4009E+00   2.4593E+00   4.9034E-05  0.0081
   2.4593E+00   2.5191E+00   5.0600E-05  0.0079
   2.5191E+00   2.5804E+00   5.0630E-05  0.0078
   2.5804E+00   2.6432E+00   5.0068E-05  0.0077
   2.6432E+00   2.7075E+00   4.9123E-05  0.0077
   2.7075E+00   2.7734E+00   4.9541E-05  0.0076
   2.7734E+00   2.8409E+00   4.9336E-05  0.0075
   2.8409E+00   2.9100E+00   4.9027E-05  0.0074
   2.9100E+00   2.9808E+00   4.9244E-05  0.0073
   2.9808E+00   3.0533E+00   4.8889E-05  0.0073
   3.0533E+00   3.1276E+00   4.8592E-05  0.0072
   3.1276E+00   3.2037E+00   4.8836E-05  0.0071
   3.2037E+00   3.2817E+00   4.8607E-05  0.0071
   3.2817E+00   3.3615E+00   4.8810E-05  0.0070
   3.3615E+00   3.4433E+00   4.8507E-05  0.0069
   3.4433E+00   3.5271E+00   4.8827E-05  0.0068
   3.5271E+00   3.6129E+00   4.8163E-05  0.0068
   3.6129E+00   3.7008E+00   4.7690E-05  0.0068
   3.7008E+00   3.7908E+00   4.7708E-05  0.0067
   3.7908E+00   3.8831E+00   4.7176E-05  0.0066
   3.8831E+00   3.9776E+00   4.7003E-05  0.0066
   3.9776E+00   4.0743E+00   4.6786E-05  0.0065
   4.0743E+00   4.1735E+00   4.6121E-05  0.0065
   4.1735E+00   4.2750E+00   4.5317E-05  0.0065
   4.2750E+00   4.3790E+00   4.5038E-05  0.0064
   4.3790E+00   4.4856E+00   4.3803E-05  0.0064
   4.4856E+00   4.5947E+00   4.2710E-05  0.0064
   4.5947E+00   4.7065E+00   4.2272E-05  0.0064
   4.7065E+00   4.8210E+00   4.2147E-05  0.0063
   4.8210E+00   4.9383E+00   4.1760E-05  0.0063
   4.9383E+00   5.0585E+00   4.1810E-05  0.0062
   5.0585E+00   5.1815E+00   4.1496E-05  0.0061
   5.1815E+00   5.3076E+00   4.1822E-05  0.0060
   5.3076E+00   5.4368E+00   4.0980E-05  0.0060
   5.4368E+00   5.5690E+00   4.0743E-05  0.0060
   5.5690E+00   5.7045E+00   4.0286E-05  0.0059
   5.7045E+00   5.8433E+00   4.0085E-05  0.0059
   5.8433E+00   5.9855E+00   4.0420E-05  0.0058
   5.9855E+00   6.1311E+00   4.0266E-05  0.0057
   6.1311E+00   6.2803E+00   4.0052E-05  0.0057
   6.2803E+00   6.4331E+00   4.0034E-05  0.0056
   6.4331E+00   6.5896E+00   3.9957E-05  0.0056
   6.5896E+00   6.7500E+00   4.0229E-05  0.0055
   6.7500E+00   6.9142E+00   3.9857E-05  0.0054
   6.9142E+00   7.0824E+00   3.9650E-05  0.0054
   7.0824E+00   7.2548E+00   3.9828E-05  0.0053
   7.2548E+00   7.4313E+00   3.9704E-05  0.0053
   7.4313E+00   7.6121E+00   3.9192E-05  0.0052
   7.6121E+00   7.7973E+00   3.8937E-05  0.0052
   7.7973E+00   7.9870E+00   3.8700E-05  0.0051
   7.9870E+00   8.1813E+00   3.8930E-05  0.0051
   8.1813E+00   8.3804E+00   3.9106E-05  0.0050
   8.3804E+00   8.5843E+00   3.8275E-05  0.0050
   8.5843E+00   8.7931E+00   3.7967E-05  0.0050
   8.7931E+00   9.0071E+00   3.7528E-05  0.0049
   9.0071E+00   9.2262E+00   3.7346E-05  0.0049
   9.2262E+00   9.4507E+00   3.6578E-05  0.0049
   9.4507E+00   9.6807E+00   3.5563E-05  0.0049
   9.6807E+00   9.9162E+00   3.6040E-05  0.0048
   9.9162E+00   1.0157E+01   3.8985E-05  0.0046
   1.0157E+01   1.0405E+01   3.8051E-05  0.0046
   1.0405E+01   1.0658E+01   3.7389E-05  0.0046
   1.0658E+01   1.0917E+01   3.5943E-05  0.0046
   1.0917E+01   1.1183E+01   3.5002E-05  0.0046
   1.1183E+01   1.1455E+01   3.4253E-05  0.0046
   1.1455E+01   1.1733E+01   3.3936E-05  0.0046
   1.1733E+01   1.2019E+01   3.3474E-05  0.0046
   1.2019E+01   1.2311E+01   3.3252E-05  0.0045
   1.2311E+01   1.2611E+01   3.3055E-05  0.0045
   1.2611E+01   1.2918E+01   3.2396E-05  0.0045
   1.2918E+01   1.3232E+01   3.2289E-05  0.0044
   1.3232E+01   1.3554E+01   3.1902E-05  0.0044
   1.3554E+01   1.3884E+01   3.1284E-05  0.0044
   1.3884E+01   1.4222E+01   3.1019E-05  0.0044
   1.4222E+01   1.4568E+01   3.0527E-05  0.0043
   1.4568E+01   1.4922E+01   3.0144E-05  0.0043
   1.4922E+01   1.5285E+01   2.9945E-05  0.0043
   1.5285E+01   1.5657E+01   2.9306E-05  0.0043
   1.5657E+01   1.6038E+01   2.8769E-05  0.0043
   1.6038E+01   1.6428E+01   2.8581E-05  0.0042
   1.6428E+01   1.6828E+01   2.7876E-05  0.0042
   1.6828E+01   1.7237E+01   2.7539E-05  0.0042
   1.7237E+01   1.7657E+01   2.7199E-05  0.0042
   1.7657E+01   1.8086E+01   2.6577E-05  0.0042
   1.8086E+01   1.8526E+01   2.5886E-05  0.0042
   1.8526E+01   1.8977E+01   2.5763E-05  0.0041
   1.8977E+01   1.9439E+01   2.4940E-05  0.0042
   1.9439E+01   1.9912E+01   2.4821E-05  0.0041
   1.9912E+01   2.0396E+01   2.4812E-05  0.0041
   2.0396E+01   2.0893E+01   2.4374E-05  0.0041
   2.0893E+01   2.1401E+01   2.3745E-05  0.0041
   2.1401E+01   2.1922E+01   2.3097E-05  0.0041
   2.1922E+01   2.2455E+01   2.2567E-05  0.0041
   2.2455E+01   2.3001E+01   2.2161E-05  0.0041
   2.3001E+01   2.3561E+01   2.1584E-05  0.0041
   2.3561E+01   2.4134E+01   2.1219E-05  0.0041
   2.4134E+01   2.4721E+01   2.0748E-05  0.0041
   2.4721E+01   2.5323E+01   2.0157E-05  0.0041
   2.5323E+01   2.5939E+01   1.9434E-05  0.0041
   2.5939E+01   2.6570E+01   1.8950E-05  0.0041
   2.6570E+01   2.7217E+01   1.8762E-05  0.0041
   2.7217E+01   2.7879E+01   1.9361E-05  0.0039
   2.7879E+01   2.8557E+01   2.5681E-05  0.0034
   2.8557E+01   2.9252E+01   2.8042E-05  0.0032
   2.9252E+01   2.9964E+01   2.7749E-05  0.0032
   2.9964E+01   3.0693E+01   2.7674E-05  0.0031
   3.0693E+01   3.1440E+01   2.7306E-05  0.0031
   3.1440E+01   3.2205E+01   2.7020E-05  0.0031
   3.2205E+01   3.2988E+01   2.6670E-05  0.0031
   3.2988E+01   3.3791E+01   2.6441E-05  0.0031
   3.3791E+01   3.4613E+01   2.6122E-05  0.0031
   3.4613E+01   3.5455E+01   2.5847E-05  0.0030
   3.5455E+01   3.6318E+01   2.5478E-05  0.0030
   3.6318E+01   3.7201E+01   2.5330E-05  0.0030
   3.7201E+01   3.8106E+01   2.5031E-05  0.0030
   3.8106E+01   3.9034E+01   2.4651E-05  0.0030
   3.9034E+01   3.9983E+01   2.4123E-05  0.0030
   3.9983E+01   4.0956E+01   2.3695E-05  0.0029
   4.0956E+01   4.1953E+01   2.3296E-05  0.0029
   4.1953E+01   4.2973E+01   2.2728E-05  0.0029
   4.2973E+01   4.4019E+01   2.2032E-05  0.0029
   4.4019E+01   4.5090E+01   2.1481E-05  0.0029
   4.5090E+01   4.6187E+01   2.1030E-05  0.0029
   4.6187E+01   4.7311E+01   2.0224E-05  0.0030
   4.7311E+01   4.8462E+01   1.5762E-05  0.0033
   4.8462E+01   4.9641E+01   1.0800E-05  0.0040
   4.9641E+01   5.0849E+01   1.0082E-05  0.0041
   5.0849E+01   5.2086E+01   9.3599E-06  0.0042
   5.2086E+01   5.3353E+01   8.6496E-06  0.0043
   5.3353E+01   5.4651E+01   7.8747E-06  0.0044
   5.4651E+01   5.5981E+01   7.2119E-06  0.0046
   5.5981E+01   5.7343E+01   6.4780E-06  0.0048
   5.7343E+01   5.8738E+01   5.7556E-06  0.0050
   5.8738E+01   6.0168E+01   8.3140E-07  0.0130
   6.0168E+01   6.1632E+01   8.1971E-10  0.4082
   6.1632E+01   6.3131E+01   0.0000E+00  0.0000
   6.3131E+01   6.4667E+01   1.3021E-10  1.0000
   6.4667E+01   6.6240E+01   0.0000E+00  0.0000
   6.6240E+01   6.7852E+01   0.0000E+00  0.0000
   6.7852E+01   6.9503E+01   0.0000E+00  0.0000
   6.9503E+01   7.1194E+01   0.0000E+00  0.0000
   7.1194E+01   7.2926E+01   0.0000E+00  0.0000
   7.2926E+01   7.4701E+01   0.0000E+00  0.0000
   7.4701E+01   7.6518E+01   0.0000E+00  0.0000
   7.6518E+01   7.8380E+01   0.0000E+00  0.0000
   7.8380E+01   8.0287E+01   0.0000E+00  0.0000
   8.0287E+01   8.2240E+01   0.0000E+00  0.0000
   8.2240E+01   8.4241E+01   0.0000E+00  0.0000
   8.4241E+01   8.6291E+01   0.0000E+00  0.0000
   8.6291E+01   8.8391E+01   0.0000E+00  0.0000
   8.8391E+01   9.0541E+01   0.0000E+00  0.0000
   9.0541E+01   9.2744E+01   0.0000E+00  0.0000
   9.2744E+01   9.5001E+01   0.0000E+00  0.0000
   9.5001E+01   9.7312E+01   0.0000E+00  0.0000
   9.7312E+01   9.9680E+01   0.0000E+00  0.0000
   9.9680E+01   1.0211E+02   0.0000E+00  0.0000
   1.0211E+02   1.0459E+02   0.0000E+00  0.0000
   1.0459E+02   1.0713E+02   0.0000E+00  0.0000
   1.0713E+02   1.0974E+02   0.0000E+00  0.0000
   1.0974E+02   1.1241E+02   0.0000E+00  0.0000
   1.1241E+02   1.1515E+02   0.0000E+00  0.0000
   1.1515E+02   1.1795E+02   0.0000E+00  0.0000
   1.1795E+02   1.2082E+02   0.0000E+00  0.0000
   1.2082E+02   1.2376E+02   0.0000E+00  0.0000
   1.2376E+02   1.2677E+02   0.0000E+00  0.0000
   1.2677E+02   1.2985E+02   0.0000E+00  0.0000
   1.2985E+02   1.3301E+02   0.0000E+00  0.0000
   1.3301E+02   1.3625E+02   0.0000E+00  0.0000
   1.3625E+02   1.3956E+02   0.0000E+00  0.0000
   1.3956E+02   1.4296E+02   0.0000E+00  0.0000
   1.4296E+02   1.4644E+02   0.0000E+00  0.0000
   1.4644E+02   1.5000E+02   0.0000E+00  0.0000

#   sum over                 9.7811E-06
'no. =    1   reg = 105 - 205'
msuc: {\huge [t-cross] in region mesh}
msdr: {\it plotted by \ANGEL \version}
msdl: {\it calculated by \PHITS  3.26}
wt: s(0.7)
\vspace{-3}
  region surface crossing
  area  &=&   1.0000E+00 [cm^2]
e:
 
# Information for Restart Calculation
# This calculation was newly started
# istdev =  2 # 1:Batch variance, 2:History variance
# resc2  = 5.00000000000000000E+09 # Total source weight or Total source weight / maxcas
# resc3  = 5.00000000000000000E+09 # Total history number or Total batch number
# maxcas =   100000000 # History / Batch, only used for istdev=1
# bitrseed = 0110100000100010111000001110001111001110100100011111101000111001 # bit data of rseed
