[ T-Cross ]
    title = [t-cross] in region mesh
     mesh =  reg            # mesh type is region-wise
      reg =    1            # number of crossing regions
      non     r-from    r-to       area
      1       117       217        1.000000    
   e-type =    3            # e-mesh is log given by emin, emax and ne
     emin =  1.0000000E-02  # minimum value of e-mesh points
     emax =   150.0000      # maximum value of e-mesh points
#    edel =  2.4039514E-02  # mesh width of e-mesh points
       ne =    400          # number of e-mesh points
#    data = ( e(i), i = 1, ne + 1 )
#           1.00000E-02  1.02433E-02  1.04925E-02  1.07478E-02  1.10093E-02
#           1.12772E-02  1.15516E-02  1.18326E-02  1.21205E-02  1.24154E-02
#           1.27175E-02  1.30269E-02  1.33439E-02  1.36686E-02  1.40011E-02
#           1.43418E-02  1.46907E-02  1.50482E-02  1.54143E-02  1.57894E-02
#           1.61735E-02  1.65670E-02  1.69701E-02  1.73830E-02  1.78060E-02
#           1.82392E-02  1.86830E-02  1.91375E-02  1.96032E-02  2.00801E-02
#           2.05687E-02  2.10692E-02  2.15818E-02  2.21069E-02  2.26448E-02
#           2.31957E-02  2.37601E-02  2.43382E-02  2.49304E-02  2.55369E-02
#           2.61583E-02  2.67947E-02  2.74467E-02  2.81145E-02  2.87985E-02
#           2.94992E-02  3.02169E-02  3.09521E-02  3.17052E-02  3.24766E-02
#           3.32668E-02  3.40762E-02  3.49053E-02  3.57546E-02  3.66246E-02
#           3.75157E-02  3.84284E-02  3.93634E-02  4.03212E-02  4.13022E-02
#           4.23071E-02  4.33365E-02  4.43909E-02  4.54710E-02  4.65773E-02
#           4.77106E-02  4.88714E-02  5.00605E-02  5.12785E-02  5.25262E-02
#           5.38042E-02  5.51133E-02  5.64542E-02  5.78278E-02  5.92348E-02
#           6.06760E-02  6.21523E-02  6.36645E-02  6.52135E-02  6.68002E-02
#           6.84255E-02  7.00904E-02  7.17957E-02  7.35426E-02  7.53319E-02
#           7.71648E-02  7.90423E-02  8.09655E-02  8.29354E-02  8.49533E-02
#           8.70203E-02  8.91376E-02  9.13064E-02  9.35279E-02  9.58035E-02
#           9.81345E-02  1.00522E-01  1.02968E-01  1.05473E-01  1.08040E-01
#           1.10668E-01  1.13361E-01  1.16119E-01  1.18944E-01  1.21838E-01
#           1.24803E-01  1.27839E-01  1.30950E-01  1.34136E-01  1.37399E-01
#           1.40742E-01  1.44167E-01  1.47675E-01  1.51268E-01  1.54948E-01
#           1.58718E-01  1.62580E-01  1.66535E-01  1.70587E-01  1.74738E-01
#           1.78989E-01  1.83344E-01  1.87805E-01  1.92375E-01  1.97055E-01
#           2.01850E-01  2.06761E-01  2.11792E-01  2.16945E-01  2.22223E-01
#           2.27630E-01  2.33169E-01  2.38842E-01  2.44653E-01  2.50605E-01
#           2.56703E-01  2.62949E-01  2.69346E-01  2.75900E-01  2.82613E-01
#           2.89489E-01  2.96532E-01  3.03747E-01  3.11138E-01  3.18708E-01
#           3.26462E-01  3.34405E-01  3.42542E-01  3.50876E-01  3.59413E-01
#           3.68158E-01  3.77116E-01  3.86291E-01  3.95690E-01  4.05317E-01
#           4.15179E-01  4.25281E-01  4.35628E-01  4.46227E-01  4.57084E-01
#           4.68205E-01  4.79597E-01  4.91266E-01  5.03219E-01  5.15463E-01
#           5.28005E-01  5.40851E-01  5.54011E-01  5.67490E-01  5.81298E-01
#           5.95441E-01  6.09929E-01  6.24769E-01  6.39970E-01  6.55541E-01
#           6.71491E-01  6.87828E-01  7.04564E-01  7.21706E-01  7.39266E-01
#           7.57253E-01  7.75678E-01  7.94551E-01  8.13883E-01  8.33685E-01
#           8.53969E-01  8.74747E-01  8.96030E-01  9.17831E-01  9.40163E-01
#           9.63038E-01  9.86469E-01  1.01047E+00  1.03506E+00  1.06024E+00
#           1.08604E+00  1.11246E+00  1.13953E+00  1.16725E+00  1.19565E+00
#           1.22474E+00  1.25454E+00  1.28507E+00  1.31633E+00  1.34836E+00
#           1.38117E+00  1.41477E+00  1.44920E+00  1.48446E+00  1.52057E+00
#           1.55757E+00  1.59547E+00  1.63429E+00  1.67405E+00  1.71478E+00
#           1.75650E+00  1.79924E+00  1.84302E+00  1.88786E+00  1.93379E+00
#           1.98084E+00  2.02904E+00  2.07841E+00  2.12898E+00  2.18078E+00
#           2.23384E+00  2.28819E+00  2.34386E+00  2.40089E+00  2.45930E+00
#           2.51914E+00  2.58043E+00  2.64322E+00  2.70753E+00  2.77341E+00
#           2.84088E+00  2.91001E+00  2.98081E+00  3.05333E+00  3.12762E+00
#           3.20372E+00  3.28167E+00  3.36152E+00  3.44330E+00  3.52708E+00
#           3.61290E+00  3.70080E+00  3.79085E+00  3.88308E+00  3.97756E+00
#           4.07434E+00  4.17347E+00  4.27501E+00  4.37903E+00  4.48557E+00
#           4.59471E+00  4.70650E+00  4.82102E+00  4.93832E+00  5.05847E+00
#           5.18155E+00  5.30762E+00  5.43676E+00  5.56904E+00  5.70453E+00
#           5.84333E+00  5.98550E+00  6.13114E+00  6.28031E+00  6.43312E+00
#           6.58964E+00  6.74997E+00  6.91420E+00  7.08243E+00  7.25475E+00
#           7.43126E+00  7.61207E+00  7.79728E+00  7.98700E+00  8.18133E+00
#           8.38038E+00  8.58428E+00  8.79315E+00  9.00709E+00  9.22624E+00
#           9.45072E+00  9.68067E+00  9.91620E+00  1.01575E+01  1.04046E+01
#           1.06578E+01  1.09171E+01  1.11827E+01  1.14548E+01  1.17335E+01
#           1.20190E+01  1.23114E+01  1.26109E+01  1.29178E+01  1.32321E+01
#           1.35540E+01  1.38838E+01  1.42216E+01  1.45676E+01  1.49221E+01
#           1.52851E+01  1.56570E+01  1.60380E+01  1.64282E+01  1.68279E+01
#           1.72374E+01  1.76568E+01  1.80864E+01  1.85264E+01  1.89772E+01
#           1.94389E+01  1.99119E+01  2.03963E+01  2.08926E+01  2.14009E+01
#           2.19216E+01  2.24550E+01  2.30014E+01  2.35610E+01  2.41343E+01
#           2.47215E+01  2.53230E+01  2.59391E+01  2.65702E+01  2.72167E+01
#           2.78789E+01  2.85572E+01  2.92520E+01  2.99637E+01  3.06928E+01
#           3.14396E+01  3.22045E+01  3.29881E+01  3.37907E+01  3.46128E+01
#           3.54550E+01  3.63177E+01  3.72013E+01  3.81064E+01  3.90336E+01
#           3.99833E+01  4.09561E+01  4.19526E+01  4.29734E+01  4.40189E+01
#           4.50900E+01  4.61870E+01  4.73108E+01  4.84619E+01  4.96410E+01
#           5.08488E+01  5.20860E+01  5.33533E+01  5.46514E+01  5.59812E+01
#           5.73432E+01  5.87384E+01  6.01676E+01  6.16315E+01  6.31311E+01
#           6.46671E+01  6.62405E+01  6.78522E+01  6.95031E+01  7.11941E+01
#           7.29263E+01  7.47007E+01  7.65182E+01  7.83800E+01  8.02870E+01
#           8.22405E+01  8.42414E+01  8.62911E+01  8.83906E+01  9.05412E+01
#           9.27442E+01  9.50007E+01  9.73122E+01  9.96799E+01  1.02105E+02
#           1.04589E+02  1.07134E+02  1.09741E+02  1.12411E+02  1.15146E+02
#           1.17948E+02  1.20817E+02  1.23757E+02  1.26768E+02  1.29852E+02
#           1.33012E+02  1.36248E+02  1.39563E+02  1.42959E+02  1.46437E+02
#           1.50000E+02
     unit =    2            # unit is [1/cm^2/(MeV/n)/source]
     axis =  eng            # axis of output
     file = detector-18.out  # file name of output for the above axis
   output = f-curr          # surface crossing forward current spectrum
     part =  neutron  
# kf/name :  2112     
#    used :        main (  %)        temp (  %)       total (  %)
#  memory :         414 (  0)           0 (  0)         414 (  0)

#------------------------------------------------------------------------------
#newpage:
#   no. =    1   reg = 117 - 217

x: Energy [MeV/n]
y:  F-Curr [1/cm^2/(MeV/n)/source]         
p: xlog ylog afac(0.8) form(0.9)
h: n            x            y(neutron ),hh0l   n 
#  e-lower      e-upper      neutron     r.err 
   1.0000E-02   1.0243E-02   6.7634E-04  0.0870
   1.0243E-02   1.0493E-02   7.0054E-04  0.0845
   1.0493E-02   1.0748E-02   7.2616E-04  0.0820
   1.0748E-02   1.1009E-02   5.9525E-04  0.0895
   1.1009E-02   1.1277E-02   6.1993E-04  0.0867
   1.1277E-02   1.1552E-02   6.2535E-04  0.0852
   1.1552E-02   1.1833E-02   5.9119E-04  0.0866
   1.1833E-02   1.2121E-02   6.2880E-04  0.0830
   1.2121E-02   1.2415E-02   5.7181E-04  0.0860
   1.2415E-02   1.2718E-02   4.9244E-04  0.0914
   1.2718E-02   1.3027E-02   5.0342E-04  0.0894
   1.3027E-02   1.3344E-02   5.2304E-04  0.0867
   1.3344E-02   1.3669E-02   3.8074E-04  0.1005
   1.3669E-02   1.4001E-02   3.9801E-04  0.0971
   1.4001E-02   1.4342E-02   4.0392E-04  0.0950
   1.4342E-02   1.4691E-02   4.9244E-04  0.0851
   1.4691E-02   1.5048E-02   4.9882E-04  0.0836
   1.5048E-02   1.5414E-02   4.3917E-04  0.0881
   1.5414E-02   1.5789E-02   4.7147E-04  0.0840
   1.5789E-02   1.6174E-02   4.4256E-04  0.0855
   1.6174E-02   1.6567E-02   3.9585E-04  0.0894
   1.6567E-02   1.6970E-02   3.8450E-04  0.0896
   1.6970E-02   1.7383E-02   3.5251E-04  0.0925
   1.7383E-02   1.7806E-02   3.6548E-04  0.0897
   1.7806E-02   1.8239E-02   3.0018E-04  0.0978
   1.8239E-02   1.8683E-02   4.3271E-04  0.0805
   1.8683E-02   1.9138E-02   3.4050E-04  0.0898
   1.9138E-02   1.9603E-02   3.3022E-04  0.0900
   1.9603E-02   2.0080E-02   3.1280E-04  0.0913
   2.0080E-02   2.0569E-02   3.8841E-04  0.0811
   2.0569E-02   2.1069E-02   3.6054E-04  0.0831
   2.1069E-02   2.1582E-02   3.3536E-04  0.0851
   2.1582E-02   2.2107E-02   2.9063E-04  0.0904
   2.2107E-02   2.2645E-02   3.2492E-04  0.0845
   2.2645E-02   2.3196E-02   3.3268E-04  0.0825
   2.3196E-02   2.3760E-02   3.0524E-04  0.0850
   2.3760E-02   2.4338E-02   3.1516E-04  0.0828
   2.4338E-02   2.4930E-02   2.9619E-04  0.0843
   2.4930E-02   2.5537E-02   2.8254E-04  0.0851
   2.5537E-02   2.6158E-02   2.6695E-04  0.0867
   2.6158E-02   2.6795E-02   2.9136E-04  0.0820
   2.6795E-02   2.7447E-02   3.2365E-04  0.0769
   2.7447E-02   2.8114E-02   2.5582E-04  0.0854
   2.8114E-02   2.8799E-02   2.2433E-04  0.0902
   2.8799E-02   2.9499E-02   2.4344E-04  0.0855
   2.9499E-02   3.0217E-02   2.7924E-04  0.0788
   3.0217E-02   3.0952E-02   2.2382E-04  0.0871
   3.0952E-02   3.1705E-02   2.7352E-04  0.0779
   3.1705E-02   3.2477E-02   2.1755E-04  0.0861
   3.2477E-02   3.3267E-02   2.2988E-04  0.0828
   3.3267E-02   3.4076E-02   2.4333E-04  0.0796
   3.4076E-02   3.4905E-02   2.1324E-04  0.0839
   3.4905E-02   3.5755E-02   1.7758E-04  0.0909
   3.5755E-02   3.6625E-02   2.1796E-04  0.0811
   3.6625E-02   3.7516E-02   1.9249E-04  0.0851
   3.7516E-02   3.8428E-02   2.1151E-04  0.0803
   3.8428E-02   3.9363E-02   1.9624E-04  0.0825
   3.9363E-02   4.0321E-02   1.8828E-04  0.0831
   4.0321E-02   4.1302E-02   2.0229E-04  0.0793
   4.1302E-02   4.2307E-02   1.7477E-04  0.0842
   4.2307E-02   4.3337E-02   1.5644E-04  0.0880
   4.3337E-02   4.4391E-02   1.7977E-04  0.0811
   4.4391E-02   4.5471E-02   1.7415E-04  0.0814
   4.5471E-02   4.6577E-02   1.6083E-04  0.0837
   4.6577E-02   4.7711E-02   1.9164E-04  0.0758
   4.7711E-02   4.8871E-02   1.3314E-04  0.0898
   4.8871E-02   5.0061E-02   1.6272E-04  0.0802
   5.0061E-02   5.1279E-02   1.3907E-04  0.0856
   5.1279E-02   5.2526E-02   1.4728E-04  0.0824
   5.2526E-02   5.3804E-02   1.3652E-04  0.0845
   5.3804E-02   5.5113E-02   1.3143E-04  0.0851
   5.5113E-02   5.6454E-02   1.4622E-04  0.0797
   5.6454E-02   5.7828E-02   1.4220E-04  0.0799
   5.7828E-02   5.9235E-02   1.4067E-04  0.0793
   5.9235E-02   6.0676E-02   1.2959E-04  0.0817
   6.0676E-02   6.2152E-02   1.1989E-04  0.0838
   6.2152E-02   6.3665E-02   1.1559E-04  0.0843
   6.3665E-02   6.5214E-02   1.2948E-04  0.0788
   6.5214E-02   6.6800E-02   1.1846E-04  0.0814
   6.6800E-02   6.8426E-02   1.1553E-04  0.0814
   6.8426E-02   7.0090E-02   1.1434E-04  0.0809
   7.0090E-02   7.1796E-02   1.1337E-04  0.0803
   7.1796E-02   7.3543E-02   1.3340E-04  0.0731
   7.3543E-02   7.5332E-02   1.1410E-04  0.0781
   7.5332E-02   7.7165E-02   9.8929E-05  0.0829
   7.7165E-02   7.9042E-02   1.1229E-04  0.0769
   7.9042E-02   8.0965E-02   1.0575E-04  0.0783
   8.0965E-02   8.2935E-02   1.0067E-04  0.0793
   8.2935E-02   8.4953E-02   1.0225E-04  0.0777
   8.4953E-02   8.7020E-02   1.1174E-04  0.0735
   8.7020E-02   8.9138E-02   1.0543E-04  0.0747
   8.9138E-02   9.1306E-02   9.8059E-05  0.0764
   9.1306E-02   9.3528E-02   9.3800E-05  0.0774
   9.3528E-02   9.5804E-02   9.1556E-05  0.0773
   9.5804E-02   9.8134E-02   1.0045E-04  0.0729
   9.8134E-02   1.0052E-01   8.6147E-05  0.0779
   1.0052E-01   1.0297E-01   7.4490E-05  0.0828
   1.0297E-01   1.0547E-01   9.1525E-05  0.0737
   1.0547E-01   1.0804E-01   8.9380E-05  0.0737
   1.0804E-01   1.1067E-01   1.0461E-04  0.0673
   1.1067E-01   1.1336E-01   1.0975E-04  0.0652
   1.1336E-01   1.1612E-01   1.1251E-04  0.0634
   1.1612E-01   1.1894E-01   1.2034E-04  0.0605
   1.1894E-01   1.2184E-01   1.2281E-04  0.0592
   1.2184E-01   1.2480E-01   1.1007E-04  0.0618
   1.2480E-01   1.2784E-01   1.2246E-04  0.0579
   1.2784E-01   1.3095E-01   1.3185E-04  0.0551
   1.3095E-01   1.3414E-01   1.3120E-04  0.0546
   1.3414E-01   1.3740E-01   1.2687E-04  0.0549
   1.3740E-01   1.4074E-01   1.4266E-04  0.0511
   1.4074E-01   1.4417E-01   1.3535E-04  0.0518
   1.4417E-01   1.4767E-01   1.4748E-04  0.0490
   1.4767E-01   1.5127E-01   1.5990E-04  0.0465
   1.5127E-01   1.5495E-01   1.4802E-04  0.0478
   1.5495E-01   1.5872E-01   1.6160E-04  0.0452
   1.5872E-01   1.6258E-01   1.7353E-04  0.0431
   1.6258E-01   1.6654E-01   1.9242E-04  0.0404
   1.6654E-01   1.7059E-01   1.7278E-04  0.0422
   1.7059E-01   1.7474E-01   1.8036E-04  0.0408
   1.7474E-01   1.7899E-01   1.9331E-04  0.0389
   1.7899E-01   1.8334E-01   1.9557E-04  0.0382
   1.8334E-01   1.8781E-01   1.9678E-04  0.0377
   1.8781E-01   1.9237E-01   2.0247E-04  0.0367
   1.9237E-01   1.9706E-01   1.9612E-04  0.0368
   1.9706E-01   2.0185E-01   2.1841E-04  0.0345
   2.0185E-01   2.0676E-01   2.0952E-04  0.0348
   2.0676E-01   2.1179E-01   2.2797E-04  0.0329
   2.1179E-01   2.1694E-01   2.2990E-04  0.0324
   2.1694E-01   2.2222E-01   2.3455E-04  0.0317
   2.2222E-01   2.2763E-01   2.4541E-04  0.0306
   2.2763E-01   2.3317E-01   2.5001E-04  0.0300
   2.3317E-01   2.3884E-01   2.4454E-04  0.0300
   2.3884E-01   2.4465E-01   2.5643E-04  0.0289
   2.4465E-01   2.5061E-01   2.5936E-04  0.0284
   2.5061E-01   2.5670E-01   2.6496E-04  0.0278
   2.5670E-01   2.6295E-01   2.7687E-04  0.0268
   2.6295E-01   2.6935E-01   2.8317E-04  0.0262
   2.6935E-01   2.7590E-01   2.8972E-04  0.0256
   2.7590E-01   2.8261E-01   2.9173E-04  0.0252
   2.8261E-01   2.8949E-01   2.7925E-04  0.0255
   2.8949E-01   2.9653E-01   2.9720E-04  0.0244
   2.9653E-01   3.0375E-01   2.9640E-04  0.0241
   3.0375E-01   3.1114E-01   3.0363E-04  0.0235
   3.1114E-01   3.1871E-01   3.1623E-04  0.0228
   3.1871E-01   3.2646E-01   3.2150E-04  0.0223
   3.2646E-01   3.3441E-01   3.2320E-04  0.0220
   3.3441E-01   3.4254E-01   3.2453E-04  0.0217
   3.4254E-01   3.5088E-01   3.4107E-04  0.0209
   3.5088E-01   3.5941E-01   3.4306E-04  0.0206
   3.5941E-01   3.6816E-01   3.5673E-04  0.0200
   3.6816E-01   3.7712E-01   3.5366E-04  0.0198
   3.7712E-01   3.8629E-01   3.6836E-04  0.0192
   3.8629E-01   3.9569E-01   3.6793E-04  0.0190
   3.9569E-01   4.0532E-01   3.6327E-04  0.0189
   4.0532E-01   4.1518E-01   3.6753E-04  0.0185
   4.1518E-01   4.2528E-01   3.7143E-04  0.0182
   4.2528E-01   4.3563E-01   3.8084E-04  0.0178
   4.3563E-01   4.4623E-01   3.8375E-04  0.0175
   4.4623E-01   4.5708E-01   3.8973E-04  0.0171
   4.5708E-01   4.6821E-01   3.8601E-04  0.0170
   4.6821E-01   4.7960E-01   3.9209E-04  0.0167
   4.7960E-01   4.9127E-01   3.8702E-04  0.0166
   4.9127E-01   5.0322E-01   3.9547E-04  0.0162
   5.0322E-01   5.1546E-01   4.0591E-04  0.0158
   5.1546E-01   5.2800E-01   4.0612E-04  0.0156
   5.2800E-01   5.4085E-01   4.0695E-04  0.0154
   5.4085E-01   5.5401E-01   4.1386E-04  0.0151
   5.5401E-01   5.6749E-01   4.1752E-04  0.0148
   5.6749E-01   5.8130E-01   4.1456E-04  0.0147
   5.8130E-01   5.9544E-01   4.1405E-04  0.0146
   5.9544E-01   6.0993E-01   4.1564E-04  0.0144
   6.0993E-01   6.2477E-01   4.0882E-04  0.0143
   6.2477E-01   6.3997E-01   4.1305E-04  0.0141
   6.3997E-01   6.5554E-01   4.1836E-04  0.0138
   6.5554E-01   6.7149E-01   4.0979E-04  0.0138
   6.7149E-01   6.8783E-01   4.1569E-04  0.0135
   6.8783E-01   7.0456E-01   4.1764E-04  0.0133
   7.0456E-01   7.2171E-01   4.1326E-04  0.0132
   7.2171E-01   7.3927E-01   4.1893E-04  0.0130
   7.3927E-01   7.5725E-01   3.9455E-04  0.0132
   7.5725E-01   7.7568E-01   4.0683E-04  0.0129
   7.7568E-01   7.9455E-01   3.8750E-04  0.0130
   7.9455E-01   8.1388E-01   3.9984E-04  0.0127
   8.1388E-01   8.3368E-01   3.9091E-04  0.0126
   8.3368E-01   8.5397E-01   3.7227E-04  0.0128
   8.5397E-01   8.7475E-01   3.6377E-04  0.0128
   8.7475E-01   8.9603E-01   3.5700E-04  0.0128
   8.9603E-01   9.1783E-01   3.4371E-04  0.0128
   9.1783E-01   9.4016E-01   3.3048E-04  0.0129
   9.4016E-01   9.6304E-01   3.2784E-04  0.0128
   9.6304E-01   9.8647E-01   3.2322E-04  0.0128
   9.8647E-01   1.0105E+00   3.0759E-04  0.0129
   1.0105E+00   1.0351E+00   2.9477E-04  0.0131
   1.0351E+00   1.0602E+00   3.0180E-04  0.0127
   1.0602E+00   1.0860E+00   3.0103E-04  0.0126
   1.0860E+00   1.1125E+00   3.0298E-04  0.0124
   1.1125E+00   1.1395E+00   3.0680E-04  0.0122
   1.1395E+00   1.1673E+00   3.0882E-04  0.0120
   1.1673E+00   1.1957E+00   3.1042E-04  0.0118
   1.1957E+00   1.2247E+00   3.1797E-04  0.0115
   1.2247E+00   1.2545E+00   3.1168E-04  0.0115
   1.2545E+00   1.2851E+00   3.1703E-04  0.0113
   1.2851E+00   1.3163E+00   3.1021E-04  0.0112
   1.3163E+00   1.3484E+00   3.0944E-04  0.0111
   1.3484E+00   1.3812E+00   3.1462E-04  0.0109
   1.3812E+00   1.4148E+00   3.2458E-04  0.0106
   1.4148E+00   1.4492E+00   3.1717E-04  0.0106
   1.4492E+00   1.4845E+00   3.1572E-04  0.0105
   1.4845E+00   1.5206E+00   3.0545E-04  0.0105
   1.5206E+00   1.5576E+00   3.0492E-04  0.0104
   1.5576E+00   1.5955E+00   3.0355E-04  0.0103
   1.5955E+00   1.6343E+00   3.0530E-04  0.0101
   1.6343E+00   1.6741E+00   2.9587E-04  0.0101
   1.6741E+00   1.7148E+00   2.9391E-04  0.0100
   1.7148E+00   1.7565E+00   2.8115E-04  0.0101
   1.7565E+00   1.7992E+00   2.7307E-04  0.0102
   1.7992E+00   1.8430E+00   2.5779E-04  0.0103
   1.8430E+00   1.8879E+00   2.4782E-04  0.0104
   1.8879E+00   1.9338E+00   2.4789E-04  0.0102
   1.9338E+00   1.9808E+00   2.4529E-04  0.0102
   1.9808E+00   2.0290E+00   2.4202E-04  0.0101
   2.0290E+00   2.0784E+00   2.3536E-04  0.0101
   2.0784E+00   2.1290E+00   2.3947E-04  0.0099
   2.1290E+00   2.1808E+00   2.3715E-04  0.0098
   2.1808E+00   2.2338E+00   2.3364E-04  0.0098
   2.2338E+00   2.2882E+00   2.2514E-04  0.0098
   2.2882E+00   2.3439E+00   2.2148E-04  0.0098
   2.3439E+00   2.4009E+00   2.2184E-04  0.0097
   2.4009E+00   2.4593E+00   2.1688E-04  0.0097
   2.4593E+00   2.5191E+00   2.0998E-04  0.0097
   2.5191E+00   2.5804E+00   2.0844E-04  0.0097
   2.5804E+00   2.6432E+00   2.0019E-04  0.0097
   2.6432E+00   2.7075E+00   1.9926E-04  0.0097
   2.7075E+00   2.7734E+00   1.9206E-04  0.0097
   2.7734E+00   2.8409E+00   1.8504E-04  0.0098
   2.8409E+00   2.9100E+00   1.8565E-04  0.0097
   2.9100E+00   2.9808E+00   1.8350E-04  0.0096
   2.9808E+00   3.0533E+00   1.7743E-04  0.0097
   3.0533E+00   3.1276E+00   1.7204E-04  0.0097
   3.1276E+00   3.2037E+00   1.7031E-04  0.0096
   3.2037E+00   3.2817E+00   1.6084E-04  0.0098
   3.2817E+00   3.3615E+00   1.6322E-04  0.0096
   3.3615E+00   3.4433E+00   1.5822E-04  0.0096
   3.4433E+00   3.5271E+00   1.5459E-04  0.0096
   3.5271E+00   3.6129E+00   1.5176E-04  0.0096
   3.6129E+00   3.7008E+00   1.4779E-04  0.0096
   3.7008E+00   3.7908E+00   1.4353E-04  0.0097
   3.7908E+00   3.8831E+00   1.4122E-04  0.0096
   3.8831E+00   3.9776E+00   1.3751E-04  0.0097
   3.9776E+00   4.0743E+00   1.3146E-04  0.0097
   4.0743E+00   4.1735E+00   1.2878E-04  0.0097
   4.1735E+00   4.2750E+00   1.2419E-04  0.0098
   4.2750E+00   4.3790E+00   1.2004E-04  0.0098
   4.3790E+00   4.4856E+00   1.1398E-04  0.0100
   4.4856E+00   4.5947E+00   1.1217E-04  0.0099
   4.5947E+00   4.7065E+00   1.0860E-04  0.0100
   4.7065E+00   4.8210E+00   1.0431E-04  0.0101
   4.8210E+00   4.9383E+00   1.0139E-04  0.0101
   4.9383E+00   5.0585E+00   9.9371E-05  0.0101
   5.0585E+00   5.1815E+00   9.5108E-05  0.0102
   5.1815E+00   5.3076E+00   9.0678E-05  0.0103
   5.3076E+00   5.4368E+00   8.8462E-05  0.0103
   5.4368E+00   5.5690E+00   8.6642E-05  0.0103
   5.5690E+00   5.7045E+00   8.4079E-05  0.0103
   5.7045E+00   5.8433E+00   8.0095E-05  0.0104
   5.8433E+00   5.9855E+00   7.5630E-05  0.0106
   5.9855E+00   6.1311E+00   7.2383E-05  0.0107
   6.1311E+00   6.2803E+00   6.9602E-05  0.0108
   6.2803E+00   6.4331E+00   6.6484E-05  0.0109
   6.4331E+00   6.5896E+00   6.2978E-05  0.0111
   6.5896E+00   6.7500E+00   5.9653E-05  0.0113
   6.7500E+00   6.9142E+00   5.4813E-05  0.0116
   6.9142E+00   7.0824E+00   5.2322E-05  0.0118
   7.0824E+00   7.2548E+00   4.8420E-05  0.0121
   7.2548E+00   7.4313E+00   4.5562E-05  0.0123
   7.4313E+00   7.6121E+00   4.2604E-05  0.0126
   7.6121E+00   7.7973E+00   3.9209E-05  0.0130
   7.7973E+00   7.9870E+00   3.8131E-05  0.0130
   7.9870E+00   8.1813E+00   3.4373E-05  0.0135
   8.1813E+00   8.3804E+00   3.3975E-05  0.0135
   8.3804E+00   8.5843E+00   3.0923E-05  0.0139
   8.5843E+00   8.7931E+00   2.9027E-05  0.0142
   8.7931E+00   9.0071E+00   2.6735E-05  0.0146
   9.0071E+00   9.2262E+00   2.5129E-05  0.0149
   9.2262E+00   9.4507E+00   2.4026E-05  0.0151
   9.4507E+00   9.6807E+00   2.1637E-05  0.0157
   9.6807E+00   9.9162E+00   2.1108E-05  0.0158
   9.9162E+00   1.0157E+01   1.9426E-05  0.0162
   1.0157E+01   1.0405E+01   1.8294E-05  0.0165
   1.0405E+01   1.0658E+01   1.6646E-05  0.0171
   1.0658E+01   1.0917E+01   1.6160E-05  0.0172
   1.0917E+01   1.1183E+01   1.5236E-05  0.0175
   1.1183E+01   1.1455E+01   1.3675E-05  0.0183
   1.1455E+01   1.1733E+01   1.2959E-05  0.0185
   1.1733E+01   1.2019E+01   1.2468E-05  0.0187
   1.2019E+01   1.2311E+01   1.1280E-05  0.0194
   1.2311E+01   1.2611E+01   1.0721E-05  0.0197
   1.2611E+01   1.2918E+01   9.8107E-06  0.0203
   1.2918E+01   1.3232E+01   8.9140E-06  0.0210
   1.3232E+01   1.3554E+01   8.4476E-06  0.0214
   1.3554E+01   1.3884E+01   7.7769E-06  0.0220
   1.3884E+01   1.4222E+01   7.3766E-06  0.0223
   1.4222E+01   1.4568E+01   6.6813E-06  0.0232
   1.4568E+01   1.4922E+01   6.2662E-06  0.0237
   1.4922E+01   1.5285E+01   5.8917E-06  0.0241
   1.5285E+01   1.5657E+01   5.4453E-06  0.0248
   1.5657E+01   1.6038E+01   5.1277E-06  0.0253
   1.6038E+01   1.6428E+01   5.0101E-06  0.0252
   1.6428E+01   1.6828E+01   4.6826E-06  0.0258
   1.6828E+01   1.7237E+01   4.0888E-06  0.0273
   1.7237E+01   1.7657E+01   3.8911E-06  0.0276
   1.7657E+01   1.8086E+01   3.5439E-06  0.0286
   1.8086E+01   1.8526E+01   3.2059E-06  0.0297
   1.8526E+01   1.8977E+01   3.0326E-06  0.0302
   1.8977E+01   1.9439E+01   2.6641E-06  0.0319
   1.9439E+01   1.9912E+01   2.5412E-06  0.0322
   1.9912E+01   2.0396E+01   2.4356E-06  0.0325
   2.0396E+01   2.0893E+01   1.9672E-06  0.0358
   2.0893E+01   2.1401E+01   1.8910E-06  0.0361
   2.1401E+01   2.1922E+01   1.7020E-06  0.0376
   2.1922E+01   2.2455E+01   1.3499E-06  0.0417
   2.2455E+01   2.3001E+01   1.2927E-06  0.0421
   2.3001E+01   2.3561E+01   1.0565E-06  0.0460
   2.3561E+01   2.4134E+01   9.6161E-07  0.0476
   2.4134E+01   2.4721E+01   8.2807E-07  0.0507
   2.4721E+01   2.5323E+01   6.8579E-07  0.0550
   2.5323E+01   2.5939E+01   6.2081E-07  0.0572
   2.5939E+01   2.6570E+01   5.6051E-07  0.0594
   2.6570E+01   2.7217E+01   4.3312E-07  0.0668
   2.7217E+01   2.7879E+01   3.4733E-07  0.0737
   2.7879E+01   2.8557E+01   3.5013E-07  0.0725
   2.8557E+01   2.9252E+01   2.8425E-07  0.0796
   2.9252E+01   2.9964E+01   2.6169E-07  0.0819
   2.9964E+01   3.0693E+01   1.7660E-07  0.0985
   3.0693E+01   3.1440E+01   1.3726E-07  0.1104
   3.1440E+01   3.2205E+01   1.3563E-07  0.1098
   3.2205E+01   3.2988E+01   8.7740E-08  0.1348
   3.2988E+01   3.3791E+01   7.3197E-08  0.1459
   3.3791E+01   3.4613E+01   6.2336E-08  0.1562
   3.4613E+01   3.5455E+01   5.3434E-08  0.1667
   3.5455E+01   3.6318E+01   4.4920E-08  0.1796
   3.6318E+01   3.7201E+01   2.6878E-08  0.2294
   3.7201E+01   3.8106E+01   3.0382E-08  0.2132
   3.8106E+01   3.9034E+01   1.2134E-08  0.3333
   3.9034E+01   3.9983E+01   1.1846E-08  0.3333
   3.9983E+01   4.0956E+01   5.1397E-09  0.5000
   4.0956E+01   4.1953E+01   8.7808E-09  0.3780
   4.1953E+01   4.2973E+01   3.6738E-09  0.5774
   4.2973E+01   4.4019E+01   5.9776E-09  0.4472
   4.4019E+01   4.5090E+01   2.3342E-09  0.7071
   4.5090E+01   4.6187E+01   1.1394E-09  1.0000
   4.6187E+01   4.7311E+01   0.0000E+00  0.0000
   4.7311E+01   4.8462E+01   0.0000E+00  0.0000
   4.8462E+01   4.9641E+01   0.0000E+00  0.0000
   4.9641E+01   5.0849E+01   0.0000E+00  0.0000
   5.0849E+01   5.2086E+01   0.0000E+00  0.0000
   5.2086E+01   5.3353E+01   0.0000E+00  0.0000
   5.3353E+01   5.4651E+01   0.0000E+00  0.0000
   5.4651E+01   5.5981E+01   0.0000E+00  0.0000
   5.5981E+01   5.7343E+01   0.0000E+00  0.0000
   5.7343E+01   5.8738E+01   0.0000E+00  0.0000
   5.8738E+01   6.0168E+01   0.0000E+00  0.0000
   6.0168E+01   6.1632E+01   0.0000E+00  0.0000
   6.1632E+01   6.3131E+01   0.0000E+00  0.0000
   6.3131E+01   6.4667E+01   0.0000E+00  0.0000
   6.4667E+01   6.6240E+01   0.0000E+00  0.0000
   6.6240E+01   6.7852E+01   0.0000E+00  0.0000
   6.7852E+01   6.9503E+01   0.0000E+00  0.0000
   6.9503E+01   7.1194E+01   0.0000E+00  0.0000
   7.1194E+01   7.2926E+01   0.0000E+00  0.0000
   7.2926E+01   7.4701E+01   0.0000E+00  0.0000
   7.4701E+01   7.6518E+01   0.0000E+00  0.0000
   7.6518E+01   7.8380E+01   0.0000E+00  0.0000
   7.8380E+01   8.0287E+01   0.0000E+00  0.0000
   8.0287E+01   8.2240E+01   0.0000E+00  0.0000
   8.2240E+01   8.4241E+01   0.0000E+00  0.0000
   8.4241E+01   8.6291E+01   0.0000E+00  0.0000
   8.6291E+01   8.8391E+01   0.0000E+00  0.0000
   8.8391E+01   9.0541E+01   0.0000E+00  0.0000
   9.0541E+01   9.2744E+01   0.0000E+00  0.0000
   9.2744E+01   9.5001E+01   0.0000E+00  0.0000
   9.5001E+01   9.7312E+01   0.0000E+00  0.0000
   9.7312E+01   9.9680E+01   0.0000E+00  0.0000
   9.9680E+01   1.0211E+02   0.0000E+00  0.0000
   1.0211E+02   1.0459E+02   0.0000E+00  0.0000
   1.0459E+02   1.0713E+02   0.0000E+00  0.0000
   1.0713E+02   1.0974E+02   0.0000E+00  0.0000
   1.0974E+02   1.1241E+02   0.0000E+00  0.0000
   1.1241E+02   1.1515E+02   0.0000E+00  0.0000
   1.1515E+02   1.1795E+02   0.0000E+00  0.0000
   1.1795E+02   1.2082E+02   0.0000E+00  0.0000
   1.2082E+02   1.2376E+02   0.0000E+00  0.0000
   1.2376E+02   1.2677E+02   0.0000E+00  0.0000
   1.2677E+02   1.2985E+02   0.0000E+00  0.0000
   1.2985E+02   1.3301E+02   0.0000E+00  0.0000
   1.3301E+02   1.3625E+02   0.0000E+00  0.0000
   1.3625E+02   1.3956E+02   0.0000E+00  0.0000
   1.3956E+02   1.4296E+02   0.0000E+00  0.0000
   1.4296E+02   1.4644E+02   0.0000E+00  0.0000
   1.4644E+02   1.5000E+02   0.0000E+00  0.0000

#   sum over                 9.5206E-06
'no. =    1   reg = 117 - 217'
msuc: {\huge [t-cross] in region mesh}
msdr: {\it plotted by \ANGEL \version}
msdl: {\it calculated by \PHITS  3.26}
wt: s(0.7)
\vspace{-3}
  region surface crossing
  area  &=&   1.0000E+00 [cm^2]
e:
 
# Information for Restart Calculation
# This calculation was newly started
# istdev =  2 # 1:Batch variance, 2:History variance
# resc2  = 8.00000000000000000E+08 # Total source weight or Total source weight / maxcas
# resc3  = 8.00000000000000000E+08 # Total history number or Total batch number
# maxcas =   100000000 # History / Batch, only used for istdev=1
# bitrseed = 0100001000001110010000000000111111001100010000001010100011010001 # bit data of rseed
