[ T-Cross ]
    title = [t-cross] in region mesh
     mesh =  reg            # mesh type is region-wise
      reg =    1            # number of crossing regions
      non     r-from    r-to       area
      1       111       211        1.000000    
   e-type =    3            # e-mesh is log given by emin, emax and ne
     emin =  1.0000000E-02  # minimum value of e-mesh points
     emax =   150.0000      # maximum value of e-mesh points
#    edel =  2.4039514E-02  # mesh width of e-mesh points
       ne =    400          # number of e-mesh points
#    data = ( e(i), i = 1, ne + 1 )
#           1.00000E-02  1.02433E-02  1.04925E-02  1.07478E-02  1.10093E-02
#           1.12772E-02  1.15516E-02  1.18326E-02  1.21205E-02  1.24154E-02
#           1.27175E-02  1.30269E-02  1.33439E-02  1.36686E-02  1.40011E-02
#           1.43418E-02  1.46907E-02  1.50482E-02  1.54143E-02  1.57894E-02
#           1.61735E-02  1.65670E-02  1.69701E-02  1.73830E-02  1.78060E-02
#           1.82392E-02  1.86830E-02  1.91375E-02  1.96032E-02  2.00801E-02
#           2.05687E-02  2.10692E-02  2.15818E-02  2.21069E-02  2.26448E-02
#           2.31957E-02  2.37601E-02  2.43382E-02  2.49304E-02  2.55369E-02
#           2.61583E-02  2.67947E-02  2.74467E-02  2.81145E-02  2.87985E-02
#           2.94992E-02  3.02169E-02  3.09521E-02  3.17052E-02  3.24766E-02
#           3.32668E-02  3.40762E-02  3.49053E-02  3.57546E-02  3.66246E-02
#           3.75157E-02  3.84284E-02  3.93634E-02  4.03212E-02  4.13022E-02
#           4.23071E-02  4.33365E-02  4.43909E-02  4.54710E-02  4.65773E-02
#           4.77106E-02  4.88714E-02  5.00605E-02  5.12785E-02  5.25262E-02
#           5.38042E-02  5.51133E-02  5.64542E-02  5.78278E-02  5.92348E-02
#           6.06760E-02  6.21523E-02  6.36645E-02  6.52135E-02  6.68002E-02
#           6.84255E-02  7.00904E-02  7.17957E-02  7.35426E-02  7.53319E-02
#           7.71648E-02  7.90423E-02  8.09655E-02  8.29354E-02  8.49533E-02
#           8.70203E-02  8.91376E-02  9.13064E-02  9.35279E-02  9.58035E-02
#           9.81345E-02  1.00522E-01  1.02968E-01  1.05473E-01  1.08040E-01
#           1.10668E-01  1.13361E-01  1.16119E-01  1.18944E-01  1.21838E-01
#           1.24803E-01  1.27839E-01  1.30950E-01  1.34136E-01  1.37399E-01
#           1.40742E-01  1.44167E-01  1.47675E-01  1.51268E-01  1.54948E-01
#           1.58718E-01  1.62580E-01  1.66535E-01  1.70587E-01  1.74738E-01
#           1.78989E-01  1.83344E-01  1.87805E-01  1.92375E-01  1.97055E-01
#           2.01850E-01  2.06761E-01  2.11792E-01  2.16945E-01  2.22223E-01
#           2.27630E-01  2.33169E-01  2.38842E-01  2.44653E-01  2.50605E-01
#           2.56703E-01  2.62949E-01  2.69346E-01  2.75900E-01  2.82613E-01
#           2.89489E-01  2.96532E-01  3.03747E-01  3.11138E-01  3.18708E-01
#           3.26462E-01  3.34405E-01  3.42542E-01  3.50876E-01  3.59413E-01
#           3.68158E-01  3.77116E-01  3.86291E-01  3.95690E-01  4.05317E-01
#           4.15179E-01  4.25281E-01  4.35628E-01  4.46227E-01  4.57084E-01
#           4.68205E-01  4.79597E-01  4.91266E-01  5.03219E-01  5.15463E-01
#           5.28005E-01  5.40851E-01  5.54011E-01  5.67490E-01  5.81298E-01
#           5.95441E-01  6.09929E-01  6.24769E-01  6.39970E-01  6.55541E-01
#           6.71491E-01  6.87828E-01  7.04564E-01  7.21706E-01  7.39266E-01
#           7.57253E-01  7.75678E-01  7.94551E-01  8.13883E-01  8.33685E-01
#           8.53969E-01  8.74747E-01  8.96030E-01  9.17831E-01  9.40163E-01
#           9.63038E-01  9.86469E-01  1.01047E+00  1.03506E+00  1.06024E+00
#           1.08604E+00  1.11246E+00  1.13953E+00  1.16725E+00  1.19565E+00
#           1.22474E+00  1.25454E+00  1.28507E+00  1.31633E+00  1.34836E+00
#           1.38117E+00  1.41477E+00  1.44920E+00  1.48446E+00  1.52057E+00
#           1.55757E+00  1.59547E+00  1.63429E+00  1.67405E+00  1.71478E+00
#           1.75650E+00  1.79924E+00  1.84302E+00  1.88786E+00  1.93379E+00
#           1.98084E+00  2.02904E+00  2.07841E+00  2.12898E+00  2.18078E+00
#           2.23384E+00  2.28819E+00  2.34386E+00  2.40089E+00  2.45930E+00
#           2.51914E+00  2.58043E+00  2.64322E+00  2.70753E+00  2.77341E+00
#           2.84088E+00  2.91001E+00  2.98081E+00  3.05333E+00  3.12762E+00
#           3.20372E+00  3.28167E+00  3.36152E+00  3.44330E+00  3.52708E+00
#           3.61290E+00  3.70080E+00  3.79085E+00  3.88308E+00  3.97756E+00
#           4.07434E+00  4.17347E+00  4.27501E+00  4.37903E+00  4.48557E+00
#           4.59471E+00  4.70650E+00  4.82102E+00  4.93832E+00  5.05847E+00
#           5.18155E+00  5.30762E+00  5.43676E+00  5.56904E+00  5.70453E+00
#           5.84333E+00  5.98550E+00  6.13114E+00  6.28031E+00  6.43312E+00
#           6.58964E+00  6.74997E+00  6.91420E+00  7.08243E+00  7.25475E+00
#           7.43126E+00  7.61207E+00  7.79728E+00  7.98700E+00  8.18133E+00
#           8.38038E+00  8.58428E+00  8.79315E+00  9.00709E+00  9.22624E+00
#           9.45072E+00  9.68067E+00  9.91620E+00  1.01575E+01  1.04046E+01
#           1.06578E+01  1.09171E+01  1.11827E+01  1.14548E+01  1.17335E+01
#           1.20190E+01  1.23114E+01  1.26109E+01  1.29178E+01  1.32321E+01
#           1.35540E+01  1.38838E+01  1.42216E+01  1.45676E+01  1.49221E+01
#           1.52851E+01  1.56570E+01  1.60380E+01  1.64282E+01  1.68279E+01
#           1.72374E+01  1.76568E+01  1.80864E+01  1.85264E+01  1.89772E+01
#           1.94389E+01  1.99119E+01  2.03963E+01  2.08926E+01  2.14009E+01
#           2.19216E+01  2.24550E+01  2.30014E+01  2.35610E+01  2.41343E+01
#           2.47215E+01  2.53230E+01  2.59391E+01  2.65702E+01  2.72167E+01
#           2.78789E+01  2.85572E+01  2.92520E+01  2.99637E+01  3.06928E+01
#           3.14396E+01  3.22045E+01  3.29881E+01  3.37907E+01  3.46128E+01
#           3.54550E+01  3.63177E+01  3.72013E+01  3.81064E+01  3.90336E+01
#           3.99833E+01  4.09561E+01  4.19526E+01  4.29734E+01  4.40189E+01
#           4.50900E+01  4.61870E+01  4.73108E+01  4.84619E+01  4.96410E+01
#           5.08488E+01  5.20860E+01  5.33533E+01  5.46514E+01  5.59812E+01
#           5.73432E+01  5.87384E+01  6.01676E+01  6.16315E+01  6.31311E+01
#           6.46671E+01  6.62405E+01  6.78522E+01  6.95031E+01  7.11941E+01
#           7.29263E+01  7.47007E+01  7.65182E+01  7.83800E+01  8.02870E+01
#           8.22405E+01  8.42414E+01  8.62911E+01  8.83906E+01  9.05412E+01
#           9.27442E+01  9.50007E+01  9.73122E+01  9.96799E+01  1.02105E+02
#           1.04589E+02  1.07134E+02  1.09741E+02  1.12411E+02  1.15146E+02
#           1.17948E+02  1.20817E+02  1.23757E+02  1.26768E+02  1.29852E+02
#           1.33012E+02  1.36248E+02  1.39563E+02  1.42959E+02  1.46437E+02
#           1.50000E+02
     unit =    2            # unit is [1/cm^2/(MeV/n)/source]
     axis =  eng            # axis of output
     file = detector-12.out  # file name of output for the above axis
   output = f-curr          # surface crossing forward current spectrum
     part =  neutron  
# kf/name :  2112     
#    used :        main (  %)        temp (  %)       total (  %)
#  memory :         414 (  0)           0 (  0)         414 (  0)

#------------------------------------------------------------------------------
#newpage:
#   no. =    1   reg = 111 - 211

x: Energy [MeV/n]
y:  F-Curr [1/cm^2/(MeV/n)/source]         
p: xlog ylog afac(0.8) form(0.9)
h: n            x            y(neutron ),hh0l   n 
#  e-lower      e-upper      neutron     r.err 
   1.0000E-02   1.0243E-02   2.7518E-04  0.1362
   1.0243E-02   1.0493E-02   3.0478E-04  0.1280
   1.0493E-02   1.0748E-02   3.4810E-04  0.1183
   1.0748E-02   1.1009E-02   3.3764E-04  0.1187
   1.1009E-02   1.1277E-02   3.2442E-04  0.1196
   1.1277E-02   1.1552E-02   2.5695E-04  0.1324
   1.1552E-02   1.1833E-02   2.3520E-04  0.1374
   1.1833E-02   1.2121E-02   2.2784E-04  0.1375
   1.2121E-02   1.2415E-02   2.6642E-04  0.1256
   1.2415E-02   1.2718E-02   2.5178E-04  0.1280
   1.2718E-02   1.3027E-02   2.5394E-04  0.1260
   1.3027E-02   1.3344E-02   2.3854E-04  0.1281
   1.3344E-02   1.3669E-02   2.2123E-04  0.1314
   1.3669E-02   1.4001E-02   2.5506E-04  0.1213
   1.4001E-02   1.4342E-02   1.9377E-04  0.1374
   1.4342E-02   1.4691E-02   2.2599E-04  0.1252
   1.4691E-02   1.5048E-02   2.0023E-04  0.1314
   1.5048E-02   1.5414E-02   2.1803E-04  0.1250
   1.5414E-02   1.5789E-02   1.9895E-04  0.1291
   1.5789E-02   1.6174E-02   1.7219E-04  0.1374
   1.6174E-02   1.6567E-02   2.1556E-04  0.1213
   1.6567E-02   1.6970E-02   1.7231E-04  0.1337
   1.6970E-02   1.7383E-02   1.5978E-04  0.1371
   1.7383E-02   1.7806E-02   1.4728E-04  0.1414
   1.7806E-02   1.8239E-02   1.4056E-04  0.1429
   1.8239E-02   1.8683E-02   1.6580E-04  0.1298
   1.8683E-02   1.9138E-02   1.6727E-04  0.1280
   1.9138E-02   1.9603E-02   1.8996E-04  0.1184
   1.9603E-02   2.0080E-02   1.8310E-04  0.1195
   2.0080E-02   2.0569E-02   1.9637E-04  0.1138
   2.0569E-02   2.1069E-02   1.6193E-04  0.1240
   2.1069E-02   2.1582E-02   1.2296E-04  0.1404
   2.1582E-02   2.2107E-02   1.6287E-04  0.1205
   2.2107E-02   2.2645E-02   1.4870E-04  0.1248
   2.2645E-02   2.3196E-02   1.1321E-04  0.1414
   2.3196E-02   2.3760E-02   1.5919E-04  0.1179
   2.3760E-02   2.4338E-02   1.0534E-04  0.1429
   2.4338E-02   2.4930E-02   1.0194E-04  0.1433
   2.4930E-02   2.5537E-02   1.1064E-04  0.1361
   2.5537E-02   2.6158E-02   1.3896E-04  0.1198
   2.6158E-02   2.6795E-02   1.2739E-04  0.1240
   2.6795E-02   2.7447E-02   1.1146E-04  0.1304
   2.7447E-02   2.8114E-02   1.2316E-04  0.1231
   2.8114E-02   2.8799E-02   1.0763E-04  0.1302
   2.8799E-02   2.9499E-02   1.0502E-04  0.1302
   2.9499E-02   3.0217E-02   9.1759E-05  0.1374
   3.0217E-02   3.0952E-02   1.0522E-04  0.1270
   3.0952E-02   3.1705E-02   7.7793E-05  0.1459
   3.1705E-02   3.2477E-02   9.9934E-05  0.1270
   3.2477E-02   3.3267E-02   1.0185E-04  0.1239
   3.3267E-02   3.4076E-02   7.2389E-05  0.1459
   3.4076E-02   3.4905E-02   8.7532E-05  0.1307
   3.4905E-02   3.5755E-02   8.5277E-05  0.1309
   3.5755E-02   3.6625E-02   8.6059E-05  0.1291
   3.6625E-02   3.7516E-02   8.4443E-05  0.1285
   3.7516E-02   3.8428E-02   1.0663E-04  0.1132
   3.8428E-02   3.9363E-02   7.7420E-05  0.1313
   3.9363E-02   4.0321E-02   7.8143E-05  0.1291
   4.0321E-02   4.1302E-02   9.4780E-05  0.1155
   4.1302E-02   4.2307E-02   7.0746E-05  0.1325
   4.2307E-02   4.3337E-02   1.0016E-04  0.1098
   4.3337E-02   4.4391E-02   7.8118E-05  0.1227
   4.4391E-02   4.5471E-02   7.6186E-05  0.1231
   4.5471E-02   4.6577E-02   6.8551E-05  0.1281
   4.6577E-02   4.7711E-02   7.2313E-05  0.1231
   4.7711E-02   4.8871E-02   5.8039E-05  0.1361
   4.8871E-02   5.0061E-02   7.7819E-05  0.1159
   5.0061E-02   5.1279E-02   5.6670E-05  0.1338
   5.1279E-02   5.2526E-02   6.4118E-05  0.1244
   5.2526E-02   5.3804E-02   6.8319E-05  0.1195
   5.3804E-02   5.5113E-02   5.8956E-05  0.1270
   5.5113E-02   5.6454E-02   6.2328E-05  0.1222
   5.6454E-02   5.7828E-02   5.9022E-05  0.1240
   5.7828E-02   5.9235E-02   6.2150E-05  0.1190
   5.9235E-02   6.0676E-02   5.0396E-05  0.1308
   6.0676E-02   6.2152E-02   5.2104E-05  0.1271
   6.2152E-02   6.3665E-02   6.4327E-05  0.1132
   6.3665E-02   6.5214E-02   4.1691E-05  0.1381
   6.5214E-02   6.6800E-02   4.8738E-05  0.1270
   6.6800E-02   6.8426E-02   6.1045E-05  0.1119
   6.8426E-02   7.0090E-02   5.2359E-05  0.1193
   7.0090E-02   7.1796E-02   6.5062E-05  0.1058
   7.1796E-02   7.3543E-02   3.6979E-05  0.1387
   7.3543E-02   7.5332E-02   5.7129E-05  0.1104
   7.5332E-02   7.7165E-02   4.8418E-05  0.1184
   7.7165E-02   7.9042E-02   4.2020E-05  0.1255
   7.9042E-02   8.0965E-02   4.8582E-05  0.1155
   8.0965E-02   8.2935E-02   4.1617E-05  0.1231
   8.2935E-02   8.4953E-02   3.8164E-05  0.1267
   8.4953E-02   8.7020E-02   3.6712E-05  0.1280
   8.7020E-02   8.9138E-02   4.2478E-05  0.1172
   8.9138E-02   9.1306E-02   4.5656E-05  0.1119
   9.1306E-02   9.3528E-02   4.5276E-05  0.1107
   9.3528E-02   9.5804E-02   3.9069E-05  0.1180
   9.5804E-02   9.8134E-02   4.4402E-05  0.1098
   9.8134E-02   1.0052E-01   5.0666E-05  0.1012
   1.0052E-01   1.0297E-01   3.5277E-05  0.1201
   1.0297E-01   1.0547E-01   4.2681E-05  0.1079
   1.0547E-01   1.0804E-01   4.9279E-05  0.0991
   1.0804E-01   1.1067E-01   4.6752E-05  0.1005
   1.1067E-01   1.1336E-01   4.6315E-05  0.0998
   1.1336E-01   1.1612E-01   5.8069E-05  0.0880
   1.1612E-01   1.1894E-01   6.7046E-05  0.0811
   1.1894E-01   1.2184E-01   5.5328E-05  0.0881
   1.2184E-01   1.2480E-01   5.2027E-05  0.0898
   1.2480E-01   1.2784E-01   5.4508E-05  0.0867
   1.2784E-01   1.3095E-01   6.2169E-05  0.0802
   1.3095E-01   1.3414E-01   6.1301E-05  0.0798
   1.3414E-01   1.3740E-01   7.2829E-05  0.0723
   1.3740E-01   1.4074E-01   6.5191E-05  0.0756
   1.4074E-01   1.4417E-01   7.7343E-05  0.0685
   1.4417E-01   1.4767E-01   6.7697E-05  0.0721
   1.4767E-01   1.5127E-01   7.8291E-05  0.0664
   1.5127E-01   1.5495E-01   7.2642E-05  0.0682
   1.5495E-01   1.5872E-01   7.2381E-05  0.0674
   1.5872E-01   1.6258E-01   8.2080E-05  0.0626
   1.6258E-01   1.6654E-01   8.5667E-05  0.0606
   1.6654E-01   1.7059E-01   8.1352E-05  0.0614
   1.7059E-01   1.7474E-01   9.2312E-05  0.0570
   1.7474E-01   1.7899E-01   1.0771E-04  0.0521
   1.7899E-01   1.8334E-01   9.8247E-05  0.0539
   1.8334E-01   1.8781E-01   9.9702E-05  0.0528
   1.8781E-01   1.9237E-01   1.1151E-04  0.0494
   1.9237E-01   1.9706E-01   1.1620E-04  0.0478
   1.9706E-01   2.0185E-01   1.0567E-04  0.0495
   2.0185E-01   2.0676E-01   1.2222E-04  0.0455
   2.0676E-01   2.1179E-01   1.3410E-04  0.0429
   2.1179E-01   2.1694E-01   1.2841E-04  0.0434
   2.1694E-01   2.2222E-01   1.3963E-04  0.0410
   2.2222E-01   2.2763E-01   1.3363E-04  0.0415
   2.2763E-01   2.3317E-01   1.4027E-04  0.0400
   2.3317E-01   2.3884E-01   1.4306E-04  0.0391
   2.3884E-01   2.4465E-01   1.3842E-04  0.0393
   2.4465E-01   2.5061E-01   1.5863E-04  0.0363
   2.5061E-01   2.5670E-01   1.6073E-04  0.0356
   2.5670E-01   2.6295E-01   1.6173E-04  0.0351
   2.6295E-01   2.6935E-01   1.7326E-04  0.0335
   2.6935E-01   2.7590E-01   1.7265E-04  0.0331
   2.7590E-01   2.8261E-01   1.7121E-04  0.0329
   2.8261E-01   2.8949E-01   1.7199E-04  0.0324
   2.8949E-01   2.9653E-01   1.8002E-04  0.0313
   2.9653E-01   3.0375E-01   1.8461E-04  0.0305
   3.0375E-01   3.1114E-01   1.9504E-04  0.0294
   3.1114E-01   3.1871E-01   1.8664E-04  0.0296
   3.1871E-01   3.2646E-01   2.0132E-04  0.0282
   3.2646E-01   3.3441E-01   2.0964E-04  0.0273
   3.3441E-01   3.4254E-01   2.0013E-04  0.0276
   3.4254E-01   3.5088E-01   2.1413E-04  0.0264
   3.5088E-01   3.5941E-01   2.2327E-04  0.0255
   3.5941E-01   3.6816E-01   2.2072E-04  0.0254
   3.6816E-01   3.7712E-01   2.3860E-04  0.0241
   3.7712E-01   3.8629E-01   2.2684E-04  0.0244
   3.8629E-01   3.9569E-01   2.3321E-04  0.0238
   3.9569E-01   4.0532E-01   2.3865E-04  0.0232
   4.0532E-01   4.1518E-01   2.4892E-04  0.0225
   4.1518E-01   4.2528E-01   2.5472E-04  0.0220
   4.2528E-01   4.3563E-01   2.5529E-04  0.0217
   4.3563E-01   4.4623E-01   2.5089E-04  0.0216
   4.4623E-01   4.5708E-01   2.6454E-04  0.0208
   4.5708E-01   4.6821E-01   2.6522E-04  0.0205
   4.6821E-01   4.7960E-01   2.6726E-04  0.0202
   4.7960E-01   4.9127E-01   2.6604E-04  0.0200
   4.9127E-01   5.0322E-01   2.7174E-04  0.0195
   5.0322E-01   5.1546E-01   2.7820E-04  0.0191
   5.1546E-01   5.2800E-01   2.8627E-04  0.0186
   5.2800E-01   5.4085E-01   2.8620E-04  0.0184
   5.4085E-01   5.5401E-01   2.9111E-04  0.0180
   5.5401E-01   5.6749E-01   2.8399E-04  0.0180
   5.6749E-01   5.8130E-01   2.9053E-04  0.0176
   5.8130E-01   5.9544E-01   2.8862E-04  0.0174
   5.9544E-01   6.0993E-01   2.9537E-04  0.0170
   6.0993E-01   6.2477E-01   2.9671E-04  0.0168
   6.2477E-01   6.3997E-01   2.9111E-04  0.0167
   6.3997E-01   6.5554E-01   2.9655E-04  0.0164
   6.5554E-01   6.7149E-01   2.9315E-04  0.0163
   6.7149E-01   6.8783E-01   2.9419E-04  0.0160
   6.8783E-01   7.0456E-01   2.9927E-04  0.0157
   7.0456E-01   7.2171E-01   2.8963E-04  0.0158
   7.2171E-01   7.3927E-01   2.8853E-04  0.0156
   7.3927E-01   7.5725E-01   2.9249E-04  0.0153
   7.5725E-01   7.7568E-01   2.9558E-04  0.0151
   7.7568E-01   7.9455E-01   2.8139E-04  0.0153
   7.9455E-01   8.1388E-01   2.7283E-04  0.0153
   8.1388E-01   8.3368E-01   2.7047E-04  0.0152
   8.3368E-01   8.5397E-01   2.7055E-04  0.0150
   8.5397E-01   8.7475E-01   2.6260E-04  0.0150
   8.7475E-01   8.9603E-01   2.5642E-04  0.0150
   8.9603E-01   9.1783E-01   2.4773E-04  0.0151
   9.1783E-01   9.4016E-01   2.3876E-04  0.0152
   9.4016E-01   9.6304E-01   2.3064E-04  0.0153
   9.6304E-01   9.8647E-01   2.1925E-04  0.0155
   9.8647E-01   1.0105E+00   2.1980E-04  0.0153
   1.0105E+00   1.0351E+00   2.1825E-04  0.0151
   1.0351E+00   1.0602E+00   2.2620E-04  0.0147
   1.0602E+00   1.0860E+00   2.2340E-04  0.0146
   1.0860E+00   1.1125E+00   2.3168E-04  0.0142
   1.1125E+00   1.1395E+00   2.3143E-04  0.0140
   1.1395E+00   1.1673E+00   2.4612E-04  0.0134
   1.1673E+00   1.1957E+00   2.5427E-04  0.0130
   1.1957E+00   1.2247E+00   2.6314E-04  0.0126
   1.2247E+00   1.2545E+00   2.6165E-04  0.0125
   1.2545E+00   1.2851E+00   2.6133E-04  0.0124
   1.2851E+00   1.3163E+00   2.6756E-04  0.0121
   1.3163E+00   1.3484E+00   2.7678E-04  0.0117
   1.3484E+00   1.3812E+00   2.8326E-04  0.0115
   1.3812E+00   1.4148E+00   2.8648E-04  0.0113
   1.4148E+00   1.4492E+00   2.8575E-04  0.0111
   1.4492E+00   1.4845E+00   2.9313E-04  0.0108
   1.4845E+00   1.5206E+00   2.9663E-04  0.0107
   1.5206E+00   1.5576E+00   2.9126E-04  0.0106
   1.5576E+00   1.5955E+00   2.9482E-04  0.0104
   1.5955E+00   1.6343E+00   2.9939E-04  0.0102
   1.6343E+00   1.6741E+00   2.9464E-04  0.0102
   1.6741E+00   1.7148E+00   3.0010E-04  0.0100
   1.7148E+00   1.7565E+00   2.9299E-04  0.0099
   1.7565E+00   1.7992E+00   2.8216E-04  0.0100
   1.7992E+00   1.8430E+00   2.7283E-04  0.0100
   1.8430E+00   1.8879E+00   2.6629E-04  0.0100
   1.8879E+00   1.9338E+00   2.6190E-04  0.0099
   1.9338E+00   1.9808E+00   2.6605E-04  0.0097
   1.9808E+00   2.0290E+00   2.6688E-04  0.0096
   2.0290E+00   2.0784E+00   2.7556E-04  0.0093
   2.0784E+00   2.1290E+00   2.7351E-04  0.0092
   2.1290E+00   2.1808E+00   2.8302E-04  0.0090
   2.1808E+00   2.2338E+00   2.7828E-04  0.0089
   2.2338E+00   2.2882E+00   2.7547E-04  0.0089
   2.2882E+00   2.3439E+00   2.7511E-04  0.0088
   2.3439E+00   2.4009E+00   2.7476E-04  0.0087
   2.4009E+00   2.4593E+00   2.7508E-04  0.0086
   2.4593E+00   2.5191E+00   2.7404E-04  0.0085
   2.5191E+00   2.5804E+00   2.7292E-04  0.0084
   2.5804E+00   2.6432E+00   2.6866E-04  0.0084
   2.6432E+00   2.7075E+00   2.6533E-04  0.0084
   2.7075E+00   2.7734E+00   2.6636E-04  0.0082
   2.7734E+00   2.8409E+00   2.5953E-04  0.0082
   2.8409E+00   2.9100E+00   2.6191E-04  0.0081
   2.9100E+00   2.9808E+00   2.6044E-04  0.0081
   2.9808E+00   3.0533E+00   2.5767E-04  0.0080
   3.0533E+00   3.1276E+00   2.5789E-04  0.0079
   3.1276E+00   3.2037E+00   2.5650E-04  0.0078
   3.2037E+00   3.2817E+00   2.4775E-04  0.0079
   3.2817E+00   3.3615E+00   2.4759E-04  0.0078
   3.3615E+00   3.4433E+00   2.4646E-04  0.0077
   3.4433E+00   3.5271E+00   2.4256E-04  0.0077
   3.5271E+00   3.6129E+00   2.4581E-04  0.0076
   3.6129E+00   3.7008E+00   2.3937E-04  0.0076
   3.7008E+00   3.7908E+00   2.3693E-04  0.0075
   3.7908E+00   3.8831E+00   2.3333E-04  0.0075
   3.8831E+00   3.9776E+00   2.2902E-04  0.0075
   3.9776E+00   4.0743E+00   2.2564E-04  0.0074
   4.0743E+00   4.1735E+00   2.1948E-04  0.0075
   4.1735E+00   4.2750E+00   2.1549E-04  0.0074
   4.2750E+00   4.3790E+00   2.1458E-04  0.0074
   4.3790E+00   4.4856E+00   2.0587E-04  0.0074
   4.4856E+00   4.5947E+00   1.9911E-04  0.0075
   4.5947E+00   4.7065E+00   1.9522E-04  0.0074
   4.7065E+00   4.8210E+00   1.9568E-04  0.0073
   4.8210E+00   4.9383E+00   1.8857E-04  0.0074
   4.9383E+00   5.0585E+00   1.8706E-04  0.0073
   5.0585E+00   5.1815E+00   1.8377E-04  0.0073
   5.1815E+00   5.3076E+00   1.7872E-04  0.0073
   5.3076E+00   5.4368E+00   1.7481E-04  0.0073
   5.4368E+00   5.5690E+00   1.7260E-04  0.0073
   5.5690E+00   5.7045E+00   1.6444E-04  0.0074
   5.7045E+00   5.8433E+00   1.6294E-04  0.0073
   5.8433E+00   5.9855E+00   1.5699E-04  0.0074
   5.9855E+00   6.1311E+00   1.5703E-04  0.0073
   6.1311E+00   6.2803E+00   1.5225E-04  0.0073
   6.2803E+00   6.4331E+00   1.5133E-04  0.0073
   6.4331E+00   6.5896E+00   1.4452E-04  0.0073
   6.5896E+00   6.7500E+00   1.4032E-04  0.0074
   6.7500E+00   6.9142E+00   1.3497E-04  0.0074
   6.9142E+00   7.0824E+00   1.3175E-04  0.0074
   7.0824E+00   7.2548E+00   1.2920E-04  0.0074
   7.2548E+00   7.4313E+00   1.2518E-04  0.0074
   7.4313E+00   7.6121E+00   1.2065E-04  0.0075
   7.6121E+00   7.7973E+00   1.1587E-04  0.0075
   7.7973E+00   7.9870E+00   1.1113E-04  0.0076
   7.9870E+00   8.1813E+00   1.0871E-04  0.0076
   8.1813E+00   8.3804E+00   1.0212E-04  0.0077
   8.3804E+00   8.5843E+00   9.9135E-05  0.0078
   8.5843E+00   8.7931E+00   9.3954E-05  0.0079
   8.7931E+00   9.0071E+00   9.0867E-05  0.0079
   9.0071E+00   9.2262E+00   8.7219E-05  0.0080
   9.2262E+00   9.4507E+00   8.2791E-05  0.0081
   9.4507E+00   9.6807E+00   7.9886E-05  0.0082
   9.6807E+00   9.9162E+00   7.7652E-05  0.0082
   9.9162E+00   1.0157E+01   7.8616E-05  0.0081
   1.0157E+01   1.0405E+01   7.4874E-05  0.0082
   1.0405E+01   1.0658E+01   7.1310E-05  0.0083
   1.0658E+01   1.0917E+01   6.7685E-05  0.0084
   1.0917E+01   1.1183E+01   6.3677E-05  0.0086
   1.1183E+01   1.1455E+01   6.2418E-05  0.0085
   1.1455E+01   1.1733E+01   5.9412E-05  0.0087
   1.1733E+01   1.2019E+01   5.7159E-05  0.0087
   1.2019E+01   1.2311E+01   5.4726E-05  0.0088
   1.2311E+01   1.2611E+01   5.3729E-05  0.0088
   1.2611E+01   1.2918E+01   5.0395E-05  0.0090
   1.2918E+01   1.3232E+01   4.8442E-05  0.0090
   1.3232E+01   1.3554E+01   4.7108E-05  0.0091
   1.3554E+01   1.3884E+01   4.5416E-05  0.0091
   1.3884E+01   1.4222E+01   4.3411E-05  0.0092
   1.4222E+01   1.4568E+01   4.1851E-05  0.0093
   1.4568E+01   1.4922E+01   3.9667E-05  0.0094
   1.4922E+01   1.5285E+01   3.9443E-05  0.0093
   1.5285E+01   1.5657E+01   3.6567E-05  0.0096
   1.5657E+01   1.6038E+01   3.5049E-05  0.0097
   1.6038E+01   1.6428E+01   3.4008E-05  0.0097
   1.6428E+01   1.6828E+01   3.2423E-05  0.0098
   1.6828E+01   1.7237E+01   3.1752E-05  0.0098
   1.7237E+01   1.7657E+01   3.0291E-05  0.0099
   1.7657E+01   1.8086E+01   2.9068E-05  0.0100
   1.8086E+01   1.8526E+01   2.7537E-05  0.0102
   1.8526E+01   1.8977E+01   2.5728E-05  0.0104
   1.8977E+01   1.9439E+01   2.4208E-05  0.0106
   1.9439E+01   1.9912E+01   2.3545E-05  0.0106
   1.9912E+01   2.0396E+01   2.2814E-05  0.0106
   2.0396E+01   2.0893E+01   2.1995E-05  0.0107
   2.0893E+01   2.1401E+01   2.0616E-05  0.0109
   2.1401E+01   2.1922E+01   1.9330E-05  0.0111
   2.1922E+01   2.2455E+01   1.8868E-05  0.0111
   2.2455E+01   2.3001E+01   1.7887E-05  0.0113
   2.3001E+01   2.3561E+01   1.7228E-05  0.0114
   2.3561E+01   2.4134E+01   1.7087E-05  0.0113
   2.4134E+01   2.4721E+01   1.6244E-05  0.0114
   2.4721E+01   2.5323E+01   1.4940E-05  0.0118
   2.5323E+01   2.5939E+01   1.4023E-05  0.0120
   2.5939E+01   2.6570E+01   1.2975E-05  0.0124
   2.6570E+01   2.7217E+01   1.2139E-05  0.0126
   2.7217E+01   2.7879E+01   1.1401E-05  0.0129
   2.7879E+01   2.8557E+01   1.0395E-05  0.0133
   2.8557E+01   2.9252E+01   9.3639E-06  0.0139
   2.9252E+01   2.9964E+01   8.5163E-06  0.0144
   2.9964E+01   3.0693E+01   7.7328E-06  0.0149
   3.0693E+01   3.1440E+01   6.9599E-06  0.0155
   3.1440E+01   3.2205E+01   6.1752E-06  0.0163
   3.2205E+01   3.2988E+01   5.6888E-06  0.0167
   3.2988E+01   3.3791E+01   4.8622E-06  0.0179
   3.3791E+01   3.4613E+01   4.4639E-06  0.0185
   3.4613E+01   3.5455E+01   4.0358E-06  0.0192
   3.5455E+01   3.6318E+01   3.4849E-06  0.0204
   3.6318E+01   3.7201E+01   2.8872E-06  0.0221
   3.7201E+01   3.8106E+01   2.4900E-06  0.0236
   3.8106E+01   3.9034E+01   2.2852E-06  0.0243
   3.9034E+01   3.9983E+01   1.7610E-06  0.0273
   3.9983E+01   4.0956E+01   1.4237E-06  0.0300
   4.0956E+01   4.1953E+01   1.1879E-06  0.0325
   4.1953E+01   4.2973E+01   9.4417E-07  0.0360
   4.2973E+01   4.4019E+01   7.4600E-07  0.0400
   4.4019E+01   4.5090E+01   6.5592E-07  0.0422
   4.5090E+01   4.6187E+01   4.9450E-07  0.0480
   4.6187E+01   4.7311E+01   4.0266E-07  0.0526
   4.7311E+01   4.8462E+01   2.8777E-07  0.0614
   4.8462E+01   4.9641E+01   2.6397E-07  0.0634
   4.9641E+01   5.0849E+01   2.2769E-07  0.0674
   5.0849E+01   5.2086E+01   1.1316E-07  0.0945
   5.2086E+01   5.3353E+01   5.9181E-08  0.1291
   5.3353E+01   5.4651E+01   2.0221E-08  0.2182
   5.4651E+01   5.5981E+01   5.6403E-09  0.4082
   5.5981E+01   5.7343E+01   2.7532E-09  0.5774
   5.7343E+01   5.8738E+01   0.0000E+00  0.0000
   5.8738E+01   6.0168E+01   0.0000E+00  0.0000
   6.0168E+01   6.1632E+01   0.0000E+00  0.0000
   6.1632E+01   6.3131E+01   0.0000E+00  0.0000
   6.3131E+01   6.4667E+01   0.0000E+00  0.0000
   6.4667E+01   6.6240E+01   0.0000E+00  0.0000
   6.6240E+01   6.7852E+01   0.0000E+00  0.0000
   6.7852E+01   6.9503E+01   0.0000E+00  0.0000
   6.9503E+01   7.1194E+01   0.0000E+00  0.0000
   7.1194E+01   7.2926E+01   0.0000E+00  0.0000
   7.2926E+01   7.4701E+01   0.0000E+00  0.0000
   7.4701E+01   7.6518E+01   0.0000E+00  0.0000
   7.6518E+01   7.8380E+01   0.0000E+00  0.0000
   7.8380E+01   8.0287E+01   0.0000E+00  0.0000
   8.0287E+01   8.2240E+01   0.0000E+00  0.0000
   8.2240E+01   8.4241E+01   0.0000E+00  0.0000
   8.4241E+01   8.6291E+01   0.0000E+00  0.0000
   8.6291E+01   8.8391E+01   0.0000E+00  0.0000
   8.8391E+01   9.0541E+01   0.0000E+00  0.0000
   9.0541E+01   9.2744E+01   0.0000E+00  0.0000
   9.2744E+01   9.5001E+01   0.0000E+00  0.0000
   9.5001E+01   9.7312E+01   0.0000E+00  0.0000
   9.7312E+01   9.9680E+01   0.0000E+00  0.0000
   9.9680E+01   1.0211E+02   0.0000E+00  0.0000
   1.0211E+02   1.0459E+02   0.0000E+00  0.0000
   1.0459E+02   1.0713E+02   0.0000E+00  0.0000
   1.0713E+02   1.0974E+02   0.0000E+00  0.0000
   1.0974E+02   1.1241E+02   0.0000E+00  0.0000
   1.1241E+02   1.1515E+02   0.0000E+00  0.0000
   1.1515E+02   1.1795E+02   0.0000E+00  0.0000
   1.1795E+02   1.2082E+02   0.0000E+00  0.0000
   1.2082E+02   1.2376E+02   0.0000E+00  0.0000
   1.2376E+02   1.2677E+02   0.0000E+00  0.0000
   1.2677E+02   1.2985E+02   0.0000E+00  0.0000
   1.2985E+02   1.3301E+02   0.0000E+00  0.0000
   1.3301E+02   1.3625E+02   0.0000E+00  0.0000
   1.3625E+02   1.3956E+02   0.0000E+00  0.0000
   1.3956E+02   1.4296E+02   0.0000E+00  0.0000
   1.4296E+02   1.4644E+02   0.0000E+00  0.0000
   1.4644E+02   1.5000E+02   0.0000E+00  0.0000

#   sum over                 1.6299E-05
'no. =    1   reg = 111 - 211'
msuc: {\huge [t-cross] in region mesh}
msdr: {\it plotted by \ANGEL \version}
msdl: {\it calculated by \PHITS  3.26}
wt: s(0.7)
\vspace{-3}
  region surface crossing
  area  &=&   1.0000E+00 [cm^2]
e:
 
# Information for Restart Calculation
# This calculation was newly started
# istdev =  2 # 1:Batch variance, 2:History variance
# resc2  = 8.00000000000000000E+08 # Total source weight or Total source weight / maxcas
# resc3  = 8.00000000000000000E+08 # Total history number or Total batch number
# maxcas =   100000000 # History / Batch, only used for istdev=1
# bitrseed = 0100001000001110010000000000111111001100010000001010100011010001 # bit data of rseed
