[ T-Cross ]
    title = [t-cross] in region mesh
     mesh =  reg            # mesh type is region-wise
      reg =    1            # number of crossing regions
      non     r-from    r-to       area
      1       121       221        1.000000    
   e-type =    3            # e-mesh is log given by emin, emax and ne
     emin =  1.0000000E-02  # minimum value of e-mesh points
     emax =   150.0000      # maximum value of e-mesh points
#    edel =  2.4039514E-02  # mesh width of e-mesh points
       ne =    400          # number of e-mesh points
#    data = ( e(i), i = 1, ne + 1 )
#           1.00000E-02  1.02433E-02  1.04925E-02  1.07478E-02  1.10093E-02
#           1.12772E-02  1.15516E-02  1.18326E-02  1.21205E-02  1.24154E-02
#           1.27175E-02  1.30269E-02  1.33439E-02  1.36686E-02  1.40011E-02
#           1.43418E-02  1.46907E-02  1.50482E-02  1.54143E-02  1.57894E-02
#           1.61735E-02  1.65670E-02  1.69701E-02  1.73830E-02  1.78060E-02
#           1.82392E-02  1.86830E-02  1.91375E-02  1.96032E-02  2.00801E-02
#           2.05687E-02  2.10692E-02  2.15818E-02  2.21069E-02  2.26448E-02
#           2.31957E-02  2.37601E-02  2.43382E-02  2.49304E-02  2.55369E-02
#           2.61583E-02  2.67947E-02  2.74467E-02  2.81145E-02  2.87985E-02
#           2.94992E-02  3.02169E-02  3.09521E-02  3.17052E-02  3.24766E-02
#           3.32668E-02  3.40762E-02  3.49053E-02  3.57546E-02  3.66246E-02
#           3.75157E-02  3.84284E-02  3.93634E-02  4.03212E-02  4.13022E-02
#           4.23071E-02  4.33365E-02  4.43909E-02  4.54710E-02  4.65773E-02
#           4.77106E-02  4.88714E-02  5.00605E-02  5.12785E-02  5.25262E-02
#           5.38042E-02  5.51133E-02  5.64542E-02  5.78278E-02  5.92348E-02
#           6.06760E-02  6.21523E-02  6.36645E-02  6.52135E-02  6.68002E-02
#           6.84255E-02  7.00904E-02  7.17957E-02  7.35426E-02  7.53319E-02
#           7.71648E-02  7.90423E-02  8.09655E-02  8.29354E-02  8.49533E-02
#           8.70203E-02  8.91376E-02  9.13064E-02  9.35279E-02  9.58035E-02
#           9.81345E-02  1.00522E-01  1.02968E-01  1.05473E-01  1.08040E-01
#           1.10668E-01  1.13361E-01  1.16119E-01  1.18944E-01  1.21838E-01
#           1.24803E-01  1.27839E-01  1.30950E-01  1.34136E-01  1.37399E-01
#           1.40742E-01  1.44167E-01  1.47675E-01  1.51268E-01  1.54948E-01
#           1.58718E-01  1.62580E-01  1.66535E-01  1.70587E-01  1.74738E-01
#           1.78989E-01  1.83344E-01  1.87805E-01  1.92375E-01  1.97055E-01
#           2.01850E-01  2.06761E-01  2.11792E-01  2.16945E-01  2.22223E-01
#           2.27630E-01  2.33169E-01  2.38842E-01  2.44653E-01  2.50605E-01
#           2.56703E-01  2.62949E-01  2.69346E-01  2.75900E-01  2.82613E-01
#           2.89489E-01  2.96532E-01  3.03747E-01  3.11138E-01  3.18708E-01
#           3.26462E-01  3.34405E-01  3.42542E-01  3.50876E-01  3.59413E-01
#           3.68158E-01  3.77116E-01  3.86291E-01  3.95690E-01  4.05317E-01
#           4.15179E-01  4.25281E-01  4.35628E-01  4.46227E-01  4.57084E-01
#           4.68205E-01  4.79597E-01  4.91266E-01  5.03219E-01  5.15463E-01
#           5.28005E-01  5.40851E-01  5.54011E-01  5.67490E-01  5.81298E-01
#           5.95441E-01  6.09929E-01  6.24769E-01  6.39970E-01  6.55541E-01
#           6.71491E-01  6.87828E-01  7.04564E-01  7.21706E-01  7.39266E-01
#           7.57253E-01  7.75678E-01  7.94551E-01  8.13883E-01  8.33685E-01
#           8.53969E-01  8.74747E-01  8.96030E-01  9.17831E-01  9.40163E-01
#           9.63038E-01  9.86469E-01  1.01047E+00  1.03506E+00  1.06024E+00
#           1.08604E+00  1.11246E+00  1.13953E+00  1.16725E+00  1.19565E+00
#           1.22474E+00  1.25454E+00  1.28507E+00  1.31633E+00  1.34836E+00
#           1.38117E+00  1.41477E+00  1.44920E+00  1.48446E+00  1.52057E+00
#           1.55757E+00  1.59547E+00  1.63429E+00  1.67405E+00  1.71478E+00
#           1.75650E+00  1.79924E+00  1.84302E+00  1.88786E+00  1.93379E+00
#           1.98084E+00  2.02904E+00  2.07841E+00  2.12898E+00  2.18078E+00
#           2.23384E+00  2.28819E+00  2.34386E+00  2.40089E+00  2.45930E+00
#           2.51914E+00  2.58043E+00  2.64322E+00  2.70753E+00  2.77341E+00
#           2.84088E+00  2.91001E+00  2.98081E+00  3.05333E+00  3.12762E+00
#           3.20372E+00  3.28167E+00  3.36152E+00  3.44330E+00  3.52708E+00
#           3.61290E+00  3.70080E+00  3.79085E+00  3.88308E+00  3.97756E+00
#           4.07434E+00  4.17347E+00  4.27501E+00  4.37903E+00  4.48557E+00
#           4.59471E+00  4.70650E+00  4.82102E+00  4.93832E+00  5.05847E+00
#           5.18155E+00  5.30762E+00  5.43676E+00  5.56904E+00  5.70453E+00
#           5.84333E+00  5.98550E+00  6.13114E+00  6.28031E+00  6.43312E+00
#           6.58964E+00  6.74997E+00  6.91420E+00  7.08243E+00  7.25475E+00
#           7.43126E+00  7.61207E+00  7.79728E+00  7.98700E+00  8.18133E+00
#           8.38038E+00  8.58428E+00  8.79315E+00  9.00709E+00  9.22624E+00
#           9.45072E+00  9.68067E+00  9.91620E+00  1.01575E+01  1.04046E+01
#           1.06578E+01  1.09171E+01  1.11827E+01  1.14548E+01  1.17335E+01
#           1.20190E+01  1.23114E+01  1.26109E+01  1.29178E+01  1.32321E+01
#           1.35540E+01  1.38838E+01  1.42216E+01  1.45676E+01  1.49221E+01
#           1.52851E+01  1.56570E+01  1.60380E+01  1.64282E+01  1.68279E+01
#           1.72374E+01  1.76568E+01  1.80864E+01  1.85264E+01  1.89772E+01
#           1.94389E+01  1.99119E+01  2.03963E+01  2.08926E+01  2.14009E+01
#           2.19216E+01  2.24550E+01  2.30014E+01  2.35610E+01  2.41343E+01
#           2.47215E+01  2.53230E+01  2.59391E+01  2.65702E+01  2.72167E+01
#           2.78789E+01  2.85572E+01  2.92520E+01  2.99637E+01  3.06928E+01
#           3.14396E+01  3.22045E+01  3.29881E+01  3.37907E+01  3.46128E+01
#           3.54550E+01  3.63177E+01  3.72013E+01  3.81064E+01  3.90336E+01
#           3.99833E+01  4.09561E+01  4.19526E+01  4.29734E+01  4.40189E+01
#           4.50900E+01  4.61870E+01  4.73108E+01  4.84619E+01  4.96410E+01
#           5.08488E+01  5.20860E+01  5.33533E+01  5.46514E+01  5.59812E+01
#           5.73432E+01  5.87384E+01  6.01676E+01  6.16315E+01  6.31311E+01
#           6.46671E+01  6.62405E+01  6.78522E+01  6.95031E+01  7.11941E+01
#           7.29263E+01  7.47007E+01  7.65182E+01  7.83800E+01  8.02870E+01
#           8.22405E+01  8.42414E+01  8.62911E+01  8.83906E+01  9.05412E+01
#           9.27442E+01  9.50007E+01  9.73122E+01  9.96799E+01  1.02105E+02
#           1.04589E+02  1.07134E+02  1.09741E+02  1.12411E+02  1.15146E+02
#           1.17948E+02  1.20817E+02  1.23757E+02  1.26768E+02  1.29852E+02
#           1.33012E+02  1.36248E+02  1.39563E+02  1.42959E+02  1.46437E+02
#           1.50000E+02
     unit =    2            # unit is [1/cm^2/(MeV/n)/source]
     axis =  eng            # axis of output
     file = detector-22.out  # file name of output for the above axis
   output = f-curr          # surface crossing forward current spectrum
     part =  neutron  
# kf/name :  2112     
#    used :        main (  %)        temp (  %)       total (  %)
#  memory :         414 (  0)           0 (  0)         414 (  0)

#------------------------------------------------------------------------------
#newpage:
#   no. =    1   reg = 121 - 221

x: Energy [MeV/n]
y:  F-Curr [1/cm^2/(MeV/n)/source]         
p: xlog ylog afac(0.8) form(0.9)
h: n            x            y(neutron ),hh0l   n 
#  e-lower      e-upper      neutron     r.err 
   1.0000E-02   1.0243E-02   7.4621E-05  0.1048
   1.0243E-02   1.0493E-02   6.1767E-05  0.1140
   1.0493E-02   1.0748E-02   7.5023E-05  0.1021
   1.0748E-02   1.1009E-02   5.8113E-05  0.1147
   1.1009E-02   1.1277E-02   5.5242E-05  0.1162
   1.1277E-02   1.1552E-02   5.4657E-05  0.1155
   1.1552E-02   1.1833E-02   5.8812E-05  0.1098
   1.1833E-02   1.2121E-02   6.3827E-05  0.1043
   1.2121E-02   1.2415E-02   4.6784E-05  0.1204
   1.2415E-02   1.2718E-02   5.1625E-05  0.1132
   1.2718E-02   1.3027E-02   4.7822E-05  0.1162
   1.3027E-02   1.3344E-02   6.1169E-05  0.1015
   1.3344E-02   1.3669E-02   5.4810E-05  0.1060
   1.3669E-02   1.4001E-02   5.1694E-05  0.1078
   1.4001E-02   1.4342E-02   5.1065E-05  0.1072
   1.4342E-02   1.4691E-02   4.4698E-05  0.1132
   1.4691E-02   1.5048E-02   5.1470E-05  0.1043
   1.5048E-02   1.5414E-02   4.8049E-05  0.1066
   1.5414E-02   1.5789E-02   3.8384E-05  0.1179
   1.5789E-02   1.6174E-02   5.0489E-05  0.1015
   1.6174E-02   1.6567E-02   3.3530E-05  0.1231
   1.6567E-02   1.6970E-02   3.9143E-05  0.1125
   1.6970E-02   1.7383E-02   4.1162E-05  0.1085
   1.7383E-02   1.7806E-02   3.5454E-05  0.1155
   1.7806E-02   1.8239E-02   4.0068E-05  0.1072
   1.8239E-02   1.8683E-02   4.1894E-05  0.1037
   1.8683E-02   1.9138E-02   3.8701E-05  0.1066
   1.9138E-02   1.9603E-02   3.5211E-05  0.1104
   1.9603E-02   2.0080E-02   2.9765E-05  0.1187
   2.0080E-02   2.0569E-02   2.5376E-05  0.1270
   2.0569E-02   2.1069E-02   3.3561E-05  0.1091
   2.1069E-02   2.1582E-02   3.4714E-05  0.1060
   2.1582E-02   2.2107E-02   3.2457E-05  0.1082
   2.2107E-02   2.2645E-02   2.9734E-05  0.1118
   2.2645E-02   2.3196E-02   2.7944E-05  0.1140
   2.3196E-02   2.3760E-02   2.8556E-05  0.1112
   2.3760E-02   2.4338E-02   3.0850E-05  0.1058
   2.4338E-02   2.4930E-02   2.7622E-05  0.1105
   2.4930E-02   2.5537E-02   2.4651E-05  0.1155
   2.5537E-02   2.6158E-02   3.0889E-05  0.1021
   2.6158E-02   2.6795E-02   2.9471E-05  0.1032
   2.6795E-02   2.7447E-02   2.4231E-05  0.1125
   2.7447E-02   2.8114E-02   2.4747E-05  0.1098
   2.8114E-02   2.8799E-02   2.7185E-05  0.1037
   2.8799E-02   2.9499E-02   3.1362E-05  0.0953
   2.9499E-02   3.0217E-02   2.6464E-05  0.1026
   3.0217E-02   3.0952E-02   2.4150E-05  0.1060
   3.0952E-02   3.1705E-02   2.4336E-05  0.1043
   3.1705E-02   3.2477E-02   2.2752E-05  0.1066
   3.2477E-02   3.3267E-02   2.6009E-05  0.0986
   3.3267E-02   3.4076E-02   2.1987E-05  0.1060
   3.4076E-02   3.4905E-02   2.2424E-05  0.1037
   3.4905E-02   3.5755E-02   2.2601E-05  0.1021
   3.5755E-02   3.6625E-02   2.3672E-05  0.0985
   3.6625E-02   3.7516E-02   1.7276E-05  0.1140
   3.7516E-02   3.8428E-02   2.2125E-05  0.0995
   3.8428E-02   3.9363E-02   1.8819E-05  0.1066
   3.9363E-02   4.0321E-02   2.1057E-05  0.0995
   4.0321E-02   4.1302E-02   1.9247E-05  0.1027
   4.1302E-02   4.2307E-02   1.7308E-05  0.1072
   4.2307E-02   4.3337E-02   1.7076E-05  0.1066
   4.3337E-02   4.4391E-02   1.6499E-05  0.1072
   4.4391E-02   4.5471E-02   1.8488E-05  0.1000
   4.5471E-02   4.6577E-02   1.6214E-05  0.1055
   4.6577E-02   4.7711E-02   1.6490E-05  0.1032
   4.7711E-02   4.8871E-02   1.4987E-05  0.1072
   4.8871E-02   5.0061E-02   1.5300E-05  0.1048
   5.0061E-02   5.1279E-02   1.5924E-05  0.1015
   5.1279E-02   5.2526E-02   1.3230E-05  0.1098
   5.2526E-02   5.3804E-02   1.3452E-05  0.1078
   5.3804E-02   5.5113E-02   1.2025E-05  0.1125
   5.5113E-02   5.6454E-02   1.6809E-05  0.0941
   5.6454E-02   5.7828E-02   1.1791E-05  0.1111
   5.7828E-02   5.9235E-02   1.2614E-05  0.1060
   5.9235E-02   6.0676E-02   1.3178E-05  0.1026
   6.0676E-02   6.2152E-02   1.1549E-05  0.1082
   6.2152E-02   6.3665E-02   1.1463E-05  0.1072
   6.3665E-02   6.5214E-02   1.1743E-05  0.1048
   6.5214E-02   6.6800E-02   1.1440E-05  0.1048
   6.6800E-02   6.8426E-02   1.1563E-05  0.1031
   6.8426E-02   7.0090E-02   1.0790E-05  0.1054
   7.0090E-02   7.1796E-02   8.9085E-06  0.1147
   7.1796E-02   7.3543E-02   1.1446E-05  0.1000
   7.3543E-02   7.5332E-02   7.6935E-06  0.1204
   7.5332E-02   7.7165E-02   9.2713E-06  0.1085
   7.7165E-02   7.9042E-02   9.4546E-06  0.1060
   7.9042E-02   8.0965E-02   9.9087E-06  0.1022
   8.0965E-02   8.2935E-02   9.8241E-06  0.1016
   8.2935E-02   8.4953E-02   9.3948E-06  0.1026
   8.4953E-02   8.7020E-02   9.2853E-06  0.1021
   8.7020E-02   8.9138E-02   8.4837E-06  0.1054
   8.9138E-02   9.1306E-02   9.1071E-06  0.1005
   9.1306E-02   9.3528E-02   7.0947E-06  0.1125
   9.3528E-02   9.5804E-02   7.7673E-06  0.1061
   9.5804E-02   9.8134E-02   8.2330E-06  0.1021
   9.8134E-02   1.0052E-01   5.6703E-06  0.1213
   1.0052E-01   1.0297E-01   7.8466E-06  0.1021
   1.0297E-01   1.0547E-01   7.0877E-06  0.1060
   1.0547E-01   1.0804E-01   9.9700E-06  0.0884
   1.0804E-01   1.1067E-01   8.9727E-06  0.0921
   1.1067E-01   1.1336E-01   9.4293E-06  0.0887
   1.1336E-01   1.1612E-01   8.9984E-06  0.0896
   1.1612E-01   1.1894E-01   1.1095E-05  0.0798
   1.1894E-01   1.2184E-01   7.5288E-06  0.0958
   1.2184E-01   1.2480E-01   8.2146E-06  0.0905
   1.2480E-01   1.2784E-01   9.3370E-06  0.0839
   1.2784E-01   1.3095E-01   1.0327E-05  0.0788
   1.3095E-01   1.3414E-01   9.5328E-06  0.0810
   1.3414E-01   1.3740E-01   1.2431E-05  0.0702
   1.3740E-01   1.4074E-01   1.0933E-05  0.0739
   1.4074E-01   1.4417E-01   1.1300E-05  0.0718
   1.4417E-01   1.4767E-01   1.0702E-05  0.0729
   1.4767E-01   1.5127E-01   1.2118E-05  0.0677
   1.5127E-01   1.5495E-01   1.2399E-05  0.0661
   1.5495E-01   1.5872E-01   1.2174E-05  0.0659
   1.5872E-01   1.6258E-01   1.2525E-05  0.0642
   1.6258E-01   1.6654E-01   1.3609E-05  0.0609
   1.6654E-01   1.7059E-01   1.3676E-05  0.0600
   1.7059E-01   1.7474E-01   1.3531E-05  0.0595
   1.7474E-01   1.7899E-01   1.2516E-05  0.0613
   1.7899E-01   1.8334E-01   1.3352E-05  0.0586
   1.8334E-01   1.8781E-01   1.4092E-05  0.0564
   1.8781E-01   1.9237E-01   1.3467E-05  0.0569
   1.9237E-01   1.9706E-01   1.4628E-05  0.0540
   1.9706E-01   2.0185E-01   1.5556E-05  0.0517
   2.0185E-01   2.0676E-01   1.5597E-05  0.0510
   2.0676E-01   2.1179E-01   1.4475E-05  0.0523
   2.1179E-01   2.1694E-01   1.5664E-05  0.0497
   2.1694E-01   2.2222E-01   1.4646E-05  0.0508
   2.2222E-01   2.2763E-01   1.4847E-05  0.0498
   2.2763E-01   2.3317E-01   1.5593E-05  0.0481
   2.3317E-01   2.3884E-01   1.6317E-05  0.0464
   2.3884E-01   2.4465E-01   1.6120E-05  0.0462
   2.4465E-01   2.5061E-01   1.5266E-05  0.0468
   2.5061E-01   2.5670E-01   1.4504E-05  0.0475
   2.5670E-01   2.6295E-01   1.4349E-05  0.0472
   2.6295E-01   2.6935E-01   1.7358E-05  0.0424
   2.6935E-01   2.7590E-01   1.5882E-05  0.0438
   2.7590E-01   2.8261E-01   1.6524E-05  0.0424
   2.8261E-01   2.8949E-01   1.6462E-05  0.0420
   2.8949E-01   2.9653E-01   1.6085E-05  0.0420
   2.9653E-01   3.0375E-01   1.6049E-05  0.0415
   3.0375E-01   3.1114E-01   1.5644E-05  0.0416
   3.1114E-01   3.1871E-01   1.6634E-05  0.0398
   3.1871E-01   3.2646E-01   1.6246E-05  0.0398
   3.2646E-01   3.3441E-01   1.6755E-05  0.0387
   3.3441E-01   3.4254E-01   1.4494E-05  0.0411
   3.4254E-01   3.5088E-01   1.5403E-05  0.0394
   3.5088E-01   3.5941E-01   1.5512E-05  0.0388
   3.5941E-01   3.6816E-01   1.4939E-05  0.0391
   3.6816E-01   3.7712E-01   1.5251E-05  0.0382
   3.7712E-01   3.8629E-01   1.4744E-05  0.0384
   3.8629E-01   3.9569E-01   1.6009E-05  0.0364
   3.9569E-01   4.0532E-01   1.4576E-05  0.0377
   4.0532E-01   4.1518E-01   1.4461E-05  0.0374
   4.1518E-01   4.2528E-01   1.5327E-05  0.0359
   4.2528E-01   4.3563E-01   1.5846E-05  0.0349
   4.3563E-01   4.4623E-01   1.4197E-05  0.0364
   4.4623E-01   4.5708E-01   1.4683E-05  0.0354
   4.5708E-01   4.6821E-01   1.3393E-05  0.0366
   4.6821E-01   4.7960E-01   1.4248E-05  0.0350
   4.7960E-01   4.9127E-01   1.4126E-05  0.0348
   4.9127E-01   5.0322E-01   1.3835E-05  0.0347
   5.0322E-01   5.1546E-01   1.4571E-05  0.0334
   5.1546E-01   5.2800E-01   1.4446E-05  0.0331
   5.2800E-01   5.4085E-01   1.4483E-05  0.0327
   5.4085E-01   5.5401E-01   1.4059E-05  0.0328
   5.5401E-01   5.6749E-01   1.4649E-05  0.0318
   5.6749E-01   5.8130E-01   1.4293E-05  0.0318
   5.8130E-01   5.9544E-01   1.4630E-05  0.0310
   5.9544E-01   6.0993E-01   1.3828E-05  0.0315
   6.0993E-01   6.2477E-01   1.3774E-05  0.0312
   6.2477E-01   6.3997E-01   1.3559E-05  0.0310
   6.3997E-01   6.5554E-01   1.3529E-05  0.0307
   6.5554E-01   6.7149E-01   1.3187E-05  0.0308
   6.7149E-01   6.8783E-01   1.2439E-05  0.0313
   6.8783E-01   7.0456E-01   1.3130E-05  0.0301
   7.0456E-01   7.2171E-01   1.3295E-05  0.0295
   7.2171E-01   7.3927E-01   1.2829E-05  0.0297
   7.3927E-01   7.5725E-01   1.2830E-05  0.0293
   7.5725E-01   7.7568E-01   1.2348E-05  0.0295
   7.7568E-01   7.9455E-01   1.2714E-05  0.0288
   7.9455E-01   8.1388E-01   1.1643E-05  0.0297
   8.1388E-01   8.3368E-01   1.1829E-05  0.0291
   8.3368E-01   8.5397E-01   1.1868E-05  0.0287
   8.5397E-01   8.7475E-01   1.1499E-05  0.0288
   8.7475E-01   8.9603E-01   1.0980E-05  0.0291
   8.9603E-01   9.1783E-01   1.1164E-05  0.0285
   9.1783E-01   9.4016E-01   1.1082E-05  0.0283
   9.4016E-01   9.6304E-01   1.0815E-05  0.0283
   9.6304E-01   9.8647E-01   1.0888E-05  0.0278
   9.8647E-01   1.0105E+00   1.0745E-05  0.0277
   1.0105E+00   1.0351E+00   1.0597E-05  0.0275
   1.0351E+00   1.0602E+00   1.0514E-05  0.0273
   1.0602E+00   1.0860E+00   1.0707E-05  0.0267
   1.0860E+00   1.1125E+00   1.0961E-05  0.0260
   1.1125E+00   1.1395E+00   1.0945E-05  0.0257
   1.1395E+00   1.1673E+00   1.1319E-05  0.0249
   1.1673E+00   1.1957E+00   1.0916E-05  0.0250
   1.1957E+00   1.2247E+00   1.0854E-05  0.0248
   1.2247E+00   1.2545E+00   1.0593E-05  0.0248
   1.2545E+00   1.2851E+00   1.0053E-05  0.0251
   1.2851E+00   1.3163E+00   1.0047E-05  0.0248
   1.3163E+00   1.3484E+00   9.9200E-06  0.0246
   1.3484E+00   1.3812E+00   1.0094E-05  0.0240
   1.3812E+00   1.4148E+00   1.0798E-05  0.0229
   1.4148E+00   1.4492E+00   9.9948E-06  0.0235
   1.4492E+00   1.4845E+00   9.9624E-06  0.0232
   1.4845E+00   1.5206E+00   1.0023E-05  0.0229
   1.5206E+00   1.5576E+00   9.4667E-06  0.0232
   1.5576E+00   1.5955E+00   9.6184E-06  0.0227
   1.5955E+00   1.6343E+00   9.5124E-06  0.0225
   1.6343E+00   1.6741E+00   9.2925E-06  0.0225
   1.6741E+00   1.7148E+00   9.2552E-06  0.0222
   1.7148E+00   1.7565E+00   8.7714E-06  0.0225
   1.7565E+00   1.7992E+00   8.3803E-06  0.0227
   1.7992E+00   1.8430E+00   8.3931E-06  0.0224
   1.8430E+00   1.8879E+00   7.7094E-06  0.0231
   1.8879E+00   1.9338E+00   7.6031E-06  0.0229
   1.9338E+00   1.9808E+00   7.4277E-06  0.0229
   1.9808E+00   2.0290E+00   7.2514E-06  0.0230
   2.0290E+00   2.0784E+00   7.5858E-06  0.0221
   2.0784E+00   2.1290E+00   7.1653E-06  0.0224
   2.1290E+00   2.1808E+00   7.2703E-06  0.0220
   2.1808E+00   2.2338E+00   7.4201E-06  0.0215
   2.2338E+00   2.2882E+00   7.5643E-06  0.0211
   2.2882E+00   2.3439E+00   7.0898E-06  0.0216
   2.3439E+00   2.4009E+00   6.9853E-06  0.0214
   2.4009E+00   2.4593E+00   6.5480E-06  0.0219
   2.4593E+00   2.5191E+00   6.8388E-06  0.0212
   2.5191E+00   2.5804E+00   6.2897E-06  0.0218
   2.5804E+00   2.6432E+00   6.2768E-06  0.0216
   2.6432E+00   2.7075E+00   6.1092E-06  0.0217
   2.7075E+00   2.7734E+00   6.0065E-06  0.0217
   2.7734E+00   2.8409E+00   5.7772E-06  0.0219
   2.8409E+00   2.9100E+00   5.5377E-06  0.0221
   2.9100E+00   2.9808E+00   5.1594E-06  0.0226
   2.9808E+00   3.0533E+00   4.9001E-06  0.0230
   3.0533E+00   3.1276E+00   4.9407E-06  0.0226
   3.1276E+00   3.2037E+00   4.7697E-06  0.0228
   3.2037E+00   3.2817E+00   4.9040E-06  0.0222
   3.2817E+00   3.3615E+00   4.5712E-06  0.0228
   3.3615E+00   3.4433E+00   4.3432E-06  0.0231
   3.4433E+00   3.5271E+00   4.6568E-06  0.0220
   3.5271E+00   3.6129E+00   4.4638E-06  0.0223
   3.6129E+00   3.7008E+00   4.3268E-06  0.0224
   3.7008E+00   3.7908E+00   4.1360E-06  0.0227
   3.7908E+00   3.8831E+00   3.9955E-06  0.0228
   3.8831E+00   3.9776E+00   4.0390E-06  0.0224
   3.9776E+00   4.0743E+00   3.9643E-06  0.0223
   4.0743E+00   4.1735E+00   3.6599E-06  0.0230
   4.1735E+00   4.2750E+00   3.6754E-06  0.0227
   4.2750E+00   4.3790E+00   3.5755E-06  0.0227
   4.3790E+00   4.4856E+00   3.3151E-06  0.0233
   4.4856E+00   4.5947E+00   3.2300E-06  0.0234
   4.5947E+00   4.7065E+00   3.1438E-06  0.0234
   4.7065E+00   4.8210E+00   2.9228E-06  0.0240
   4.8210E+00   4.9383E+00   2.9747E-06  0.0235
   4.9383E+00   5.0585E+00   2.8303E-06  0.0238
   5.0585E+00   5.1815E+00   2.7265E-06  0.0240
   5.1815E+00   5.3076E+00   2.4990E-06  0.0248
   5.3076E+00   5.4368E+00   2.4241E-06  0.0248
   5.4368E+00   5.5690E+00   2.4645E-06  0.0244
   5.5690E+00   5.7045E+00   2.2942E-06  0.0250
   5.7045E+00   5.8433E+00   2.1252E-06  0.0257
   5.8433E+00   5.9855E+00   2.1042E-06  0.0256
   5.9855E+00   6.1311E+00   1.9368E-06  0.0263
   6.1311E+00   6.2803E+00   1.8823E-06  0.0264
   6.2803E+00   6.4331E+00   1.8160E-06  0.0266
   6.4331E+00   6.5896E+00   1.7487E-06  0.0268
   6.5896E+00   6.7500E+00   1.5631E-06  0.0281
   6.7500E+00   6.9142E+00   1.5124E-06  0.0282
   6.9142E+00   7.0824E+00   1.4029E-06  0.0289
   7.0824E+00   7.2548E+00   1.3215E-06  0.0295
   7.2548E+00   7.4313E+00   1.2691E-06  0.0297
   7.4313E+00   7.6121E+00   1.1762E-06  0.0305
   7.6121E+00   7.7973E+00   1.1400E-06  0.0306
   7.7973E+00   7.9870E+00   1.0378E-06  0.0318
   7.9870E+00   8.1813E+00   9.8763E-07  0.0322
   8.1813E+00   8.3804E+00   8.5813E-07  0.0341
   8.3804E+00   8.5843E+00   8.3177E-07  0.0343
   8.5843E+00   8.7931E+00   7.3375E-07  0.0360
   8.7931E+00   9.0071E+00   7.3897E-07  0.0355
   9.0071E+00   9.2262E+00   7.2053E-07  0.0355
   9.2262E+00   9.4507E+00   6.3799E-07  0.0373
   9.4507E+00   9.6807E+00   5.5909E-07  0.0394
   9.6807E+00   9.9162E+00   5.0930E-07  0.0408
   9.9162E+00   1.0157E+01   4.7021E-07  0.0420
   1.0157E+01   1.0405E+01   4.0890E-07  0.0445
   1.0405E+01   1.0658E+01   4.1140E-07  0.0438
   1.0658E+01   1.0917E+01   3.2030E-07  0.0491
   1.0917E+01   1.1183E+01   3.1549E-07  0.0489
   1.1183E+01   1.1455E+01   2.6462E-07  0.0527
   1.1455E+01   1.1733E+01   2.4829E-07  0.0538
   1.1733E+01   1.2019E+01   2.1437E-07  0.0572
   1.2019E+01   1.2311E+01   1.6072E-07  0.0652
   1.2311E+01   1.2611E+01   1.3287E-07  0.0709
   1.2611E+01   1.2918E+01   1.2319E-07  0.0727
   1.2918E+01   1.3232E+01   8.5269E-08  0.0864
   1.3232E+01   1.3554E+01   6.2122E-08  0.1000
   1.3554E+01   1.3884E+01   4.3059E-08  0.1187
   1.3884E+01   1.4222E+01   3.0787E-08  0.1387
   1.4222E+01   1.4568E+01   1.0404E-08  0.2357
   1.4568E+01   1.4922E+01   6.2069E-09  0.3015
   1.4922E+01   1.5285E+01   0.0000E+00  0.0000
   1.5285E+01   1.5657E+01   5.3778E-10  1.0000
   1.5657E+01   1.6038E+01   5.2501E-10  1.0000
   1.6038E+01   1.6428E+01   1.0251E-09  0.7071
   1.6428E+01   1.6828E+01   5.0036E-10  1.0000
   1.6828E+01   1.7237E+01   1.4654E-09  0.5774
   1.7237E+01   1.7657E+01   4.7687E-10  1.0000
   1.7657E+01   1.8086E+01   0.0000E+00  0.0000
   1.8086E+01   1.8526E+01   0.0000E+00  0.0000
   1.8526E+01   1.8977E+01   8.8739E-10  0.7071
   1.8977E+01   1.9439E+01   0.0000E+00  0.0000
   1.9439E+01   1.9912E+01   0.0000E+00  0.0000
   1.9912E+01   2.0396E+01   0.0000E+00  0.0000
   2.0396E+01   2.0893E+01   0.0000E+00  0.0000
   2.0893E+01   2.1401E+01   0.0000E+00  0.0000
   2.1401E+01   2.1922E+01   0.0000E+00  0.0000
   2.1922E+01   2.2455E+01   0.0000E+00  0.0000
   2.2455E+01   2.3001E+01   0.0000E+00  0.0000
   2.3001E+01   2.3561E+01   0.0000E+00  0.0000
   2.3561E+01   2.4134E+01   0.0000E+00  0.0000
   2.4134E+01   2.4721E+01   0.0000E+00  0.0000
   2.4721E+01   2.5323E+01   0.0000E+00  0.0000
   2.5323E+01   2.5939E+01   0.0000E+00  0.0000
   2.5939E+01   2.6570E+01   0.0000E+00  0.0000
   2.6570E+01   2.7217E+01   0.0000E+00  0.0000
   2.7217E+01   2.7879E+01   0.0000E+00  0.0000
   2.7879E+01   2.8557E+01   0.0000E+00  0.0000
   2.8557E+01   2.9252E+01   0.0000E+00  0.0000
   2.9252E+01   2.9964E+01   0.0000E+00  0.0000
   2.9964E+01   3.0693E+01   0.0000E+00  0.0000
   3.0693E+01   3.1440E+01   0.0000E+00  0.0000
   3.1440E+01   3.2205E+01   0.0000E+00  0.0000
   3.2205E+01   3.2988E+01   0.0000E+00  0.0000
   3.2988E+01   3.3791E+01   0.0000E+00  0.0000
   3.3791E+01   3.4613E+01   0.0000E+00  0.0000
   3.4613E+01   3.5455E+01   0.0000E+00  0.0000
   3.5455E+01   3.6318E+01   0.0000E+00  0.0000
   3.6318E+01   3.7201E+01   0.0000E+00  0.0000
   3.7201E+01   3.8106E+01   0.0000E+00  0.0000
   3.8106E+01   3.9034E+01   0.0000E+00  0.0000
   3.9034E+01   3.9983E+01   0.0000E+00  0.0000
   3.9983E+01   4.0956E+01   0.0000E+00  0.0000
   4.0956E+01   4.1953E+01   0.0000E+00  0.0000
   4.1953E+01   4.2973E+01   0.0000E+00  0.0000
   4.2973E+01   4.4019E+01   0.0000E+00  0.0000
   4.4019E+01   4.5090E+01   0.0000E+00  0.0000
   4.5090E+01   4.6187E+01   0.0000E+00  0.0000
   4.6187E+01   4.7311E+01   0.0000E+00  0.0000
   4.7311E+01   4.8462E+01   0.0000E+00  0.0000
   4.8462E+01   4.9641E+01   0.0000E+00  0.0000
   4.9641E+01   5.0849E+01   0.0000E+00  0.0000
   5.0849E+01   5.2086E+01   0.0000E+00  0.0000
   5.2086E+01   5.3353E+01   0.0000E+00  0.0000
   5.3353E+01   5.4651E+01   0.0000E+00  0.0000
   5.4651E+01   5.5981E+01   0.0000E+00  0.0000
   5.5981E+01   5.7343E+01   0.0000E+00  0.0000
   5.7343E+01   5.8738E+01   0.0000E+00  0.0000
   5.8738E+01   6.0168E+01   0.0000E+00  0.0000
   6.0168E+01   6.1632E+01   0.0000E+00  0.0000
   6.1632E+01   6.3131E+01   0.0000E+00  0.0000
   6.3131E+01   6.4667E+01   0.0000E+00  0.0000
   6.4667E+01   6.6240E+01   0.0000E+00  0.0000
   6.6240E+01   6.7852E+01   0.0000E+00  0.0000
   6.7852E+01   6.9503E+01   0.0000E+00  0.0000
   6.9503E+01   7.1194E+01   0.0000E+00  0.0000
   7.1194E+01   7.2926E+01   0.0000E+00  0.0000
   7.2926E+01   7.4701E+01   0.0000E+00  0.0000
   7.4701E+01   7.6518E+01   0.0000E+00  0.0000
   7.6518E+01   7.8380E+01   0.0000E+00  0.0000
   7.8380E+01   8.0287E+01   0.0000E+00  0.0000
   8.0287E+01   8.2240E+01   0.0000E+00  0.0000
   8.2240E+01   8.4241E+01   0.0000E+00  0.0000
   8.4241E+01   8.6291E+01   0.0000E+00  0.0000
   8.6291E+01   8.8391E+01   0.0000E+00  0.0000
   8.8391E+01   9.0541E+01   0.0000E+00  0.0000
   9.0541E+01   9.2744E+01   0.0000E+00  0.0000
   9.2744E+01   9.5001E+01   0.0000E+00  0.0000
   9.5001E+01   9.7312E+01   0.0000E+00  0.0000
   9.7312E+01   9.9680E+01   0.0000E+00  0.0000
   9.9680E+01   1.0211E+02   0.0000E+00  0.0000
   1.0211E+02   1.0459E+02   0.0000E+00  0.0000
   1.0459E+02   1.0713E+02   0.0000E+00  0.0000
   1.0713E+02   1.0974E+02   0.0000E+00  0.0000
   1.0974E+02   1.1241E+02   0.0000E+00  0.0000
   1.1241E+02   1.1515E+02   0.0000E+00  0.0000
   1.1515E+02   1.1795E+02   0.0000E+00  0.0000
   1.1795E+02   1.2082E+02   0.0000E+00  0.0000
   1.2082E+02   1.2376E+02   0.0000E+00  0.0000
   1.2376E+02   1.2677E+02   0.0000E+00  0.0000
   1.2677E+02   1.2985E+02   0.0000E+00  0.0000
   1.2985E+02   1.3301E+02   0.0000E+00  0.0000
   1.3301E+02   1.3625E+02   0.0000E+00  0.0000
   1.3625E+02   1.3956E+02   0.0000E+00  0.0000
   1.3956E+02   1.4296E+02   0.0000E+00  0.0000
   1.4296E+02   1.4644E+02   0.0000E+00  0.0000
   1.4644E+02   1.5000E+02   0.0000E+00  0.0000

#   sum over                 3.0068E-07
'no. =    1   reg = 121 - 221'
msuc: {\huge [t-cross] in region mesh}
msdr: {\it plotted by \ANGEL \version}
msdl: {\it calculated by \PHITS  3.26}
wt: s(0.7)
\vspace{-3}
  region surface crossing
  area  &=&   1.0000E+00 [cm^2]
e:
 
# Information for Restart Calculation
# This calculation was newly started
# istdev =  2 # 1:Batch variance, 2:History variance
# resc2  = 5.00000000000000000E+09 # Total source weight or Total source weight / maxcas
# resc3  = 5.00000000000000000E+09 # Total history number or Total batch number
# maxcas =   100000000 # History / Batch, only used for istdev=1
# bitrseed = 0110100000100010111000001110001111001110100100011111101000111001 # bit data of rseed
