[ T-Cross ]
    title = [t-cross] in region mesh
     mesh =  reg            # mesh type is region-wise
      reg =    1            # number of crossing regions
      non     r-from    r-to       area
      1       111       211        1.000000    
   e-type =    3            # e-mesh is log given by emin, emax and ne
     emin =  1.0000000E-02  # minimum value of e-mesh points
     emax =   150.0000      # maximum value of e-mesh points
#    edel =  2.4039514E-02  # mesh width of e-mesh points
       ne =    400          # number of e-mesh points
#    data = ( e(i), i = 1, ne + 1 )
#           1.00000E-02  1.02433E-02  1.04925E-02  1.07478E-02  1.10093E-02
#           1.12772E-02  1.15516E-02  1.18326E-02  1.21205E-02  1.24154E-02
#           1.27175E-02  1.30269E-02  1.33439E-02  1.36686E-02  1.40011E-02
#           1.43418E-02  1.46907E-02  1.50482E-02  1.54143E-02  1.57894E-02
#           1.61735E-02  1.65670E-02  1.69701E-02  1.73830E-02  1.78060E-02
#           1.82392E-02  1.86830E-02  1.91375E-02  1.96032E-02  2.00801E-02
#           2.05687E-02  2.10692E-02  2.15818E-02  2.21069E-02  2.26448E-02
#           2.31957E-02  2.37601E-02  2.43382E-02  2.49304E-02  2.55369E-02
#           2.61583E-02  2.67947E-02  2.74467E-02  2.81145E-02  2.87985E-02
#           2.94992E-02  3.02169E-02  3.09521E-02  3.17052E-02  3.24766E-02
#           3.32668E-02  3.40762E-02  3.49053E-02  3.57546E-02  3.66246E-02
#           3.75157E-02  3.84284E-02  3.93634E-02  4.03212E-02  4.13022E-02
#           4.23071E-02  4.33365E-02  4.43909E-02  4.54710E-02  4.65773E-02
#           4.77106E-02  4.88714E-02  5.00605E-02  5.12785E-02  5.25262E-02
#           5.38042E-02  5.51133E-02  5.64542E-02  5.78278E-02  5.92348E-02
#           6.06760E-02  6.21523E-02  6.36645E-02  6.52135E-02  6.68002E-02
#           6.84255E-02  7.00904E-02  7.17957E-02  7.35426E-02  7.53319E-02
#           7.71648E-02  7.90423E-02  8.09655E-02  8.29354E-02  8.49533E-02
#           8.70203E-02  8.91376E-02  9.13064E-02  9.35279E-02  9.58035E-02
#           9.81345E-02  1.00522E-01  1.02968E-01  1.05473E-01  1.08040E-01
#           1.10668E-01  1.13361E-01  1.16119E-01  1.18944E-01  1.21838E-01
#           1.24803E-01  1.27839E-01  1.30950E-01  1.34136E-01  1.37399E-01
#           1.40742E-01  1.44167E-01  1.47675E-01  1.51268E-01  1.54948E-01
#           1.58718E-01  1.62580E-01  1.66535E-01  1.70587E-01  1.74738E-01
#           1.78989E-01  1.83344E-01  1.87805E-01  1.92375E-01  1.97055E-01
#           2.01850E-01  2.06761E-01  2.11792E-01  2.16945E-01  2.22223E-01
#           2.27630E-01  2.33169E-01  2.38842E-01  2.44653E-01  2.50605E-01
#           2.56703E-01  2.62949E-01  2.69346E-01  2.75900E-01  2.82613E-01
#           2.89489E-01  2.96532E-01  3.03747E-01  3.11138E-01  3.18708E-01
#           3.26462E-01  3.34405E-01  3.42542E-01  3.50876E-01  3.59413E-01
#           3.68158E-01  3.77116E-01  3.86291E-01  3.95690E-01  4.05317E-01
#           4.15179E-01  4.25281E-01  4.35628E-01  4.46227E-01  4.57084E-01
#           4.68205E-01  4.79597E-01  4.91266E-01  5.03219E-01  5.15463E-01
#           5.28005E-01  5.40851E-01  5.54011E-01  5.67490E-01  5.81298E-01
#           5.95441E-01  6.09929E-01  6.24769E-01  6.39970E-01  6.55541E-01
#           6.71491E-01  6.87828E-01  7.04564E-01  7.21706E-01  7.39266E-01
#           7.57253E-01  7.75678E-01  7.94551E-01  8.13883E-01  8.33685E-01
#           8.53969E-01  8.74747E-01  8.96030E-01  9.17831E-01  9.40163E-01
#           9.63038E-01  9.86469E-01  1.01047E+00  1.03506E+00  1.06024E+00
#           1.08604E+00  1.11246E+00  1.13953E+00  1.16725E+00  1.19565E+00
#           1.22474E+00  1.25454E+00  1.28507E+00  1.31633E+00  1.34836E+00
#           1.38117E+00  1.41477E+00  1.44920E+00  1.48446E+00  1.52057E+00
#           1.55757E+00  1.59547E+00  1.63429E+00  1.67405E+00  1.71478E+00
#           1.75650E+00  1.79924E+00  1.84302E+00  1.88786E+00  1.93379E+00
#           1.98084E+00  2.02904E+00  2.07841E+00  2.12898E+00  2.18078E+00
#           2.23384E+00  2.28819E+00  2.34386E+00  2.40089E+00  2.45930E+00
#           2.51914E+00  2.58043E+00  2.64322E+00  2.70753E+00  2.77341E+00
#           2.84088E+00  2.91001E+00  2.98081E+00  3.05333E+00  3.12762E+00
#           3.20372E+00  3.28167E+00  3.36152E+00  3.44330E+00  3.52708E+00
#           3.61290E+00  3.70080E+00  3.79085E+00  3.88308E+00  3.97756E+00
#           4.07434E+00  4.17347E+00  4.27501E+00  4.37903E+00  4.48557E+00
#           4.59471E+00  4.70650E+00  4.82102E+00  4.93832E+00  5.05847E+00
#           5.18155E+00  5.30762E+00  5.43676E+00  5.56904E+00  5.70453E+00
#           5.84333E+00  5.98550E+00  6.13114E+00  6.28031E+00  6.43312E+00
#           6.58964E+00  6.74997E+00  6.91420E+00  7.08243E+00  7.25475E+00
#           7.43126E+00  7.61207E+00  7.79728E+00  7.98700E+00  8.18133E+00
#           8.38038E+00  8.58428E+00  8.79315E+00  9.00709E+00  9.22624E+00
#           9.45072E+00  9.68067E+00  9.91620E+00  1.01575E+01  1.04046E+01
#           1.06578E+01  1.09171E+01  1.11827E+01  1.14548E+01  1.17335E+01
#           1.20190E+01  1.23114E+01  1.26109E+01  1.29178E+01  1.32321E+01
#           1.35540E+01  1.38838E+01  1.42216E+01  1.45676E+01  1.49221E+01
#           1.52851E+01  1.56570E+01  1.60380E+01  1.64282E+01  1.68279E+01
#           1.72374E+01  1.76568E+01  1.80864E+01  1.85264E+01  1.89772E+01
#           1.94389E+01  1.99119E+01  2.03963E+01  2.08926E+01  2.14009E+01
#           2.19216E+01  2.24550E+01  2.30014E+01  2.35610E+01  2.41343E+01
#           2.47215E+01  2.53230E+01  2.59391E+01  2.65702E+01  2.72167E+01
#           2.78789E+01  2.85572E+01  2.92520E+01  2.99637E+01  3.06928E+01
#           3.14396E+01  3.22045E+01  3.29881E+01  3.37907E+01  3.46128E+01
#           3.54550E+01  3.63177E+01  3.72013E+01  3.81064E+01  3.90336E+01
#           3.99833E+01  4.09561E+01  4.19526E+01  4.29734E+01  4.40189E+01
#           4.50900E+01  4.61870E+01  4.73108E+01  4.84619E+01  4.96410E+01
#           5.08488E+01  5.20860E+01  5.33533E+01  5.46514E+01  5.59812E+01
#           5.73432E+01  5.87384E+01  6.01676E+01  6.16315E+01  6.31311E+01
#           6.46671E+01  6.62405E+01  6.78522E+01  6.95031E+01  7.11941E+01
#           7.29263E+01  7.47007E+01  7.65182E+01  7.83800E+01  8.02870E+01
#           8.22405E+01  8.42414E+01  8.62911E+01  8.83906E+01  9.05412E+01
#           9.27442E+01  9.50007E+01  9.73122E+01  9.96799E+01  1.02105E+02
#           1.04589E+02  1.07134E+02  1.09741E+02  1.12411E+02  1.15146E+02
#           1.17948E+02  1.20817E+02  1.23757E+02  1.26768E+02  1.29852E+02
#           1.33012E+02  1.36248E+02  1.39563E+02  1.42959E+02  1.46437E+02
#           1.50000E+02
     unit =    2            # unit is [1/cm^2/(MeV/n)/source]
     axis =  eng            # axis of output
     file = detector-12.out  # file name of output for the above axis
   output = f-curr          # surface crossing forward current spectrum
     part =  neutron  
# kf/name :  2112     
#    used :        main (  %)        temp (  %)       total (  %)
#  memory :         414 (  0)           0 (  0)         414 (  0)

#------------------------------------------------------------------------------
#newpage:
#   no. =    1   reg = 111 - 211

x: Energy [MeV/n]
y:  F-Curr [1/cm^2/(MeV/n)/source]         
p: xlog ylog afac(0.8) form(0.9)
h: n            x            y(neutron ),hh0l   n 
#  e-lower      e-upper      neutron     r.err 
   1.0000E-02   1.0243E-02   4.0227E-05  0.1417
   1.0243E-02   1.0493E-02   3.8755E-05  0.1422
   1.0493E-02   1.0748E-02   3.4137E-05  0.1508
   1.0748E-02   1.1009E-02   3.3959E-05  0.1492
   1.1009E-02   1.1277E-02   3.5617E-05  0.1444
   1.1277E-02   1.1552E-02   3.9822E-05  0.1349
   1.1552E-02   1.1833E-02   3.3239E-05  0.1459
   1.1833E-02   1.2121E-02   2.8929E-05  0.1531
   1.2121E-02   1.2415E-02   3.2217E-05  0.1439
   1.2415E-02   1.2718E-02   3.0075E-05  0.1471
   1.2718E-02   1.3027E-02   3.0028E-05  0.1460
   1.3027E-02   1.3344E-02   3.2215E-05  0.1386
   1.3344E-02   1.3669E-02   2.4481E-05  0.1577
   1.3669E-02   1.4001E-02   2.9064E-05  0.1426
   1.4001E-02   1.4342E-02   3.5411E-05  0.1281
   1.4342E-02   1.4691E-02   2.0018E-05  0.1690
   1.4691E-02   1.5048E-02   3.4072E-05  0.1274
   1.5048E-02   1.5414E-02   2.9328E-05  0.1351
   1.5414E-02   1.5789E-02   2.2555E-05  0.1527
   1.5789E-02   1.6174E-02   2.8362E-05  0.1343
   1.6174E-02   1.6567E-02   2.7031E-05  0.1362
   1.6567E-02   1.6970E-02   2.5241E-05  0.1396
   1.6970E-02   1.7383E-02   3.1225E-05  0.1241
   1.7383E-02   1.7806E-02   2.2342E-05  0.1442
   1.7806E-02   1.8239E-02   2.0457E-05  0.1493
   1.8239E-02   1.8683E-02   2.4213E-05  0.1361
   1.8683E-02   1.9138E-02   2.8116E-05  0.1239
   1.9138E-02   1.9603E-02   2.0891E-05  0.1429
   1.9603E-02   2.0080E-02   1.6189E-05  0.1602
   2.0080E-02   2.0569E-02   2.3849E-05  0.1303
   2.0569E-02   2.1069E-02   2.3675E-05  0.1292
   2.1069E-02   2.1582E-02   2.0890E-05  0.1362
   2.1582E-02   2.2107E-02   2.7486E-05  0.1172
   2.2107E-02   2.2645E-02   2.4164E-05  0.1233
   2.2645E-02   2.3196E-02   1.9539E-05  0.1358
   2.3196E-02   2.3760E-02   2.2169E-05  0.1254
   2.3760E-02   2.4338E-02   1.9157E-05  0.1329
   2.4338E-02   2.4930E-02   1.2366E-05  0.1633
   2.4930E-02   2.5537E-02   1.6662E-05  0.1393
   2.5537E-02   2.6158E-02   1.8542E-05  0.1314
   2.6158E-02   2.6795E-02   1.3392E-05  0.1526
   2.6795E-02   2.7447E-02   1.6874E-05  0.1338
   2.7447E-02   2.8114E-02   1.3464E-05  0.1480
   2.8114E-02   2.8799E-02   1.8013E-05  0.1257
   2.8799E-02   2.9499E-02   1.4548E-05  0.1389
   2.9499E-02   3.0217E-02   1.6212E-05  0.1303
   3.0217E-02   3.0952E-02   1.3928E-05  0.1384
   3.0952E-02   3.1705E-02   1.4440E-05  0.1345
   3.1705E-02   3.2477E-02   1.3611E-05  0.1375
   3.2477E-02   3.3267E-02   1.5227E-05  0.1279
   3.3267E-02   3.4076E-02   1.2437E-05  0.1393
   3.4076E-02   3.4905E-02   1.3556E-05  0.1326
   3.4905E-02   3.5755E-02   1.4368E-05  0.1273
   3.5755E-02   3.6625E-02   1.1618E-05  0.1401
   3.6625E-02   3.7516E-02   1.3120E-05  0.1303
   3.7516E-02   3.8428E-02   1.1362E-05  0.1387
   3.8428E-02   3.9363E-02   1.1107E-05  0.1376
   3.9363E-02   4.0321E-02   1.0891E-05  0.1371
   4.0321E-02   4.1302E-02   1.3604E-05  0.1216
   4.1302E-02   4.2307E-02   1.1635E-05  0.1300
   4.2307E-02   4.3337E-02   1.2630E-05  0.1232
   4.3337E-02   4.4391E-02   1.1027E-05  0.1295
   4.4391E-02   4.5471E-02   9.9619E-06  0.1350
   4.5471E-02   4.6577E-02   1.1047E-05  0.1272
   4.6577E-02   4.7711E-02   9.2446E-06  0.1371
   4.7711E-02   4.8871E-02   9.1784E-06  0.1363
   4.8871E-02   5.0061E-02   1.1455E-05  0.1205
   5.0061E-02   5.1279E-02   9.5190E-06  0.1304
   5.1279E-02   5.2526E-02   7.4629E-06  0.1448
   5.2526E-02   5.3804E-02   9.0434E-06  0.1308
   5.3804E-02   5.5113E-02   8.5820E-06  0.1322
   5.5113E-02   5.6454E-02   7.4142E-06  0.1411
   5.6454E-02   5.7828E-02   7.5733E-06  0.1373
   5.7828E-02   5.9235E-02   8.8729E-06  0.1256
   5.9235E-02   6.0676E-02   8.0058E-06  0.1313
   6.0676E-02   6.2152E-02   7.0789E-06  0.1372
   6.2152E-02   6.3665E-02   7.9162E-06  0.1287
   6.3665E-02   6.5214E-02   1.0312E-05  0.1113
   6.5214E-02   6.6800E-02   8.3110E-06  0.1225
   6.6800E-02   6.8426E-02   7.4669E-06  0.1272
   6.8426E-02   7.0090E-02   7.8727E-06  0.1226
   7.0090E-02   7.1796E-02   7.6319E-06  0.1233
   7.1796E-02   7.3543E-02   9.3723E-06  0.1099
   7.3543E-02   7.5332E-02   6.5647E-06  0.1298
   7.5332E-02   7.7165E-02   7.7275E-06  0.1182
   7.7165E-02   7.9042E-02   6.4561E-06  0.1268
   7.9042E-02   8.0965E-02   6.3587E-06  0.1271
   8.0965E-02   8.2935E-02   8.3853E-06  0.1093
   8.2935E-02   8.4953E-02   7.0704E-06  0.1176
   8.4953E-02   8.7020E-02   6.3610E-06  0.1228
   8.7020E-02   8.9138E-02   5.9333E-06  0.1260
   8.9138E-02   9.1306E-02   6.4470E-06  0.1185
   9.1306E-02   9.3528E-02   6.2685E-06  0.1196
   9.3528E-02   9.5804E-02   7.2665E-06  0.1088
   9.5804E-02   9.8134E-02   5.7202E-06  0.1219
   9.8134E-02   1.0052E-01   6.1728E-06  0.1154
   1.0052E-01   1.0297E-01   6.8106E-06  0.1092
   1.0297E-01   1.0547E-01   6.1641E-06  0.1133
   1.0547E-01   1.0804E-01   5.9774E-06  0.1134
   1.0804E-01   1.1067E-01   5.8439E-06  0.1137
   1.1067E-01   1.1336E-01   7.0201E-06  0.1025
   1.1336E-01   1.1612E-01   8.6902E-06  0.0907
   1.1612E-01   1.1894E-01   9.3062E-06  0.0865
   1.1894E-01   1.2184E-01   9.6524E-06  0.0843
   1.2184E-01   1.2480E-01   9.7026E-06  0.0830
   1.2480E-01   1.2784E-01   8.3595E-06  0.0880
   1.2784E-01   1.3095E-01   1.0480E-05  0.0779
   1.3095E-01   1.3414E-01   1.0559E-05  0.0767
   1.3414E-01   1.3740E-01   1.1317E-05  0.0732
   1.3740E-01   1.4074E-01   1.1841E-05  0.0707
   1.4074E-01   1.4417E-01   1.3674E-05  0.0650
   1.4417E-01   1.4767E-01   1.2353E-05  0.0676
   1.4767E-01   1.5127E-01   1.1467E-05  0.0694
   1.5127E-01   1.5495E-01   1.3552E-05  0.0629
   1.5495E-01   1.5872E-01   1.4044E-05  0.0612
   1.5872E-01   1.6258E-01   1.4440E-05  0.0596
   1.6258E-01   1.6654E-01   1.7077E-05  0.0541
   1.6654E-01   1.7059E-01   1.6278E-05  0.0548
   1.7059E-01   1.7474E-01   1.6607E-05  0.0537
   1.7474E-01   1.7899E-01   1.8751E-05  0.0498
   1.7899E-01   1.8334E-01   1.9334E-05  0.0485
   1.8334E-01   1.8781E-01   1.9905E-05  0.0472
   1.8781E-01   1.9237E-01   2.1071E-05  0.0454
   1.9237E-01   1.9706E-01   2.2757E-05  0.0431
   1.9706E-01   2.0185E-01   2.3049E-05  0.0424
   2.0185E-01   2.0676E-01   2.4116E-05  0.0410
   2.0676E-01   2.1179E-01   2.6864E-05  0.0383
   2.1179E-01   2.1694E-01   2.6072E-05  0.0384
   2.1694E-01   2.2222E-01   2.6763E-05  0.0375
   2.2222E-01   2.2763E-01   3.0192E-05  0.0348
   2.2763E-01   2.3317E-01   3.2485E-05  0.0332
   2.3317E-01   2.3884E-01   3.0901E-05  0.0336
   2.3884E-01   2.4465E-01   3.3145E-05  0.0321
   2.4465E-01   2.5061E-01   3.3149E-05  0.0317
   2.5061E-01   2.5670E-01   3.7449E-05  0.0295
   2.5670E-01   2.6295E-01   3.7705E-05  0.0290
   2.6295E-01   2.6935E-01   4.0379E-05  0.0277
   2.6935E-01   2.7590E-01   4.0257E-05  0.0274
   2.7590E-01   2.8261E-01   4.4587E-05  0.0258
   2.8261E-01   2.8949E-01   4.2970E-05  0.0259
   2.8949E-01   2.9653E-01   4.7108E-05  0.0245
   2.9653E-01   3.0375E-01   4.7909E-05  0.0240
   3.0375E-01   3.1114E-01   5.2528E-05  0.0226
   3.1114E-01   3.1871E-01   5.5006E-05  0.0218
   3.1871E-01   3.2646E-01   5.5245E-05  0.0215
   3.2646E-01   3.3441E-01   5.8175E-05  0.0207
   3.3441E-01   3.4254E-01   6.3745E-05  0.0196
   3.4254E-01   3.5088E-01   6.4468E-05  0.0192
   3.5088E-01   3.5941E-01   6.7280E-05  0.0186
   3.5941E-01   3.6816E-01   6.7498E-05  0.0183
   3.6816E-01   3.7712E-01   7.1063E-05  0.0177
   3.7712E-01   3.8629E-01   7.5014E-05  0.0170
   3.8629E-01   3.9569E-01   7.6600E-05  0.0166
   3.9569E-01   4.0532E-01   7.8403E-05  0.0162
   4.0532E-01   4.1518E-01   8.3164E-05  0.0156
   4.1518E-01   4.2528E-01   8.3770E-05  0.0153
   4.2528E-01   4.3563E-01   8.6494E-05  0.0149
   4.3563E-01   4.4623E-01   8.8917E-05  0.0145
   4.4623E-01   4.5708E-01   9.1902E-05  0.0141
   4.5708E-01   4.6821E-01   9.1469E-05  0.0140
   4.6821E-01   4.7960E-01   9.7342E-05  0.0134
   4.7960E-01   4.9127E-01   9.7024E-05  0.0132
   4.9127E-01   5.0322E-01   1.0058E-04  0.0128
   5.0322E-01   5.1546E-01   1.0038E-04  0.0127
   5.1546E-01   5.2800E-01   1.0444E-04  0.0123
   5.2800E-01   5.4085E-01   1.0788E-04  0.0120
   5.4085E-01   5.5401E-01   1.0838E-04  0.0118
   5.5401E-01   5.6749E-01   1.1346E-04  0.0114
   5.6749E-01   5.8130E-01   1.1393E-04  0.0112
   5.8130E-01   5.9544E-01   1.1645E-04  0.0110
   5.9544E-01   6.0993E-01   1.1564E-04  0.0109
   6.0993E-01   6.2477E-01   1.1695E-04  0.0107
   6.2477E-01   6.3997E-01   1.1919E-04  0.0105
   6.3997E-01   6.5554E-01   1.2295E-04  0.0102
   6.5554E-01   6.7149E-01   1.2349E-04  0.0100
   6.7149E-01   6.8783E-01   1.2668E-04  0.0098
   6.8783E-01   7.0456E-01   1.2673E-04  0.0097
   7.0456E-01   7.2171E-01   1.2543E-04  0.0096
   7.2171E-01   7.3927E-01   1.2928E-04  0.0093
   7.3927E-01   7.5725E-01   1.3108E-04  0.0092
   7.5725E-01   7.7568E-01   1.3036E-04  0.0091
   7.7568E-01   7.9455E-01   1.3255E-04  0.0089
   7.9455E-01   8.1388E-01   1.3166E-04  0.0088
   8.1388E-01   8.3368E-01   1.2981E-04  0.0088
   8.3368E-01   8.5397E-01   1.3359E-04  0.0085
   8.5397E-01   8.7475E-01   1.3272E-04  0.0085
   8.7475E-01   8.9603E-01   1.3311E-04  0.0084
   8.9603E-01   9.1783E-01   1.3545E-04  0.0082
   9.1783E-01   9.4016E-01   1.3333E-04  0.0082
   9.4016E-01   9.6304E-01   1.3301E-04  0.0081
   9.6304E-01   9.8647E-01   1.3236E-04  0.0080
   9.8647E-01   1.0105E+00   1.3052E-04  0.0079
   1.0105E+00   1.0351E+00   1.2763E-04  0.0079
   1.0351E+00   1.0602E+00   1.2891E-04  0.0078
   1.0602E+00   1.0860E+00   1.2768E-04  0.0077
   1.0860E+00   1.1125E+00   1.2853E-04  0.0076
   1.1125E+00   1.1395E+00   1.3020E-04  0.0075
   1.1395E+00   1.1673E+00   1.3117E-04  0.0074
   1.1673E+00   1.1957E+00   1.3232E-04  0.0072
   1.1957E+00   1.2247E+00   1.3258E-04  0.0071
   1.2247E+00   1.2545E+00   1.3126E-04  0.0071
   1.2545E+00   1.2851E+00   1.3303E-04  0.0070
   1.2851E+00   1.3163E+00   1.3282E-04  0.0069
   1.3163E+00   1.3484E+00   1.3301E-04  0.0068
   1.3484E+00   1.3812E+00   1.3396E-04  0.0067
   1.3812E+00   1.4148E+00   1.3444E-04  0.0066
   1.4148E+00   1.4492E+00   1.3374E-04  0.0065
   1.4492E+00   1.4845E+00   1.3290E-04  0.0065
   1.4845E+00   1.5206E+00   1.3363E-04  0.0064
   1.5206E+00   1.5576E+00   1.3341E-04  0.0063
   1.5576E+00   1.5955E+00   1.3277E-04  0.0062
   1.5955E+00   1.6343E+00   1.3126E-04  0.0062
   1.6343E+00   1.6741E+00   1.3002E-04  0.0061
   1.6741E+00   1.7148E+00   1.2970E-04  0.0061
   1.7148E+00   1.7565E+00   1.2598E-04  0.0061
   1.7565E+00   1.7992E+00   1.2106E-04  0.0061
   1.7992E+00   1.8430E+00   1.1344E-04  0.0062
   1.8430E+00   1.8879E+00   1.0751E-04  0.0063
   1.8879E+00   1.9338E+00   1.0473E-04  0.0063
   1.9338E+00   1.9808E+00   1.0326E-04  0.0062
   1.9808E+00   2.0290E+00   1.0109E-04  0.0062
   2.0290E+00   2.0784E+00   1.0016E-04  0.0062
   2.0784E+00   2.1290E+00   1.0277E-04  0.0060
   2.1290E+00   2.1808E+00   1.0517E-04  0.0059
   2.1808E+00   2.2338E+00   1.0553E-04  0.0058
   2.2338E+00   2.2882E+00   1.0240E-04  0.0058
   2.2882E+00   2.3439E+00   9.9556E-05  0.0058
   2.3439E+00   2.4009E+00   9.7634E-05  0.0058
   2.4009E+00   2.4593E+00   9.6028E-05  0.0058
   2.4593E+00   2.5191E+00   9.5404E-05  0.0058
   2.5191E+00   2.5804E+00   9.3287E-05  0.0057
   2.5804E+00   2.6432E+00   9.3192E-05  0.0057
   2.6432E+00   2.7075E+00   9.2188E-05  0.0056
   2.7075E+00   2.7734E+00   8.9627E-05  0.0057
   2.7734E+00   2.8409E+00   8.9707E-05  0.0056
   2.8409E+00   2.9100E+00   8.6940E-05  0.0056
   2.9100E+00   2.9808E+00   8.6356E-05  0.0056
   2.9808E+00   3.0533E+00   8.6561E-05  0.0055
   3.0533E+00   3.1276E+00   8.3754E-05  0.0055
   3.1276E+00   3.2037E+00   8.2279E-05  0.0055
   3.2037E+00   3.2817E+00   8.1182E-05  0.0055
   3.2817E+00   3.3615E+00   8.0260E-05  0.0055
   3.3615E+00   3.4433E+00   7.8948E-05  0.0054
   3.4433E+00   3.5271E+00   7.8552E-05  0.0054
   3.5271E+00   3.6129E+00   7.7036E-05  0.0054
   3.6129E+00   3.7008E+00   7.5191E-05  0.0054
   3.7008E+00   3.7908E+00   7.3886E-05  0.0054
   3.7908E+00   3.8831E+00   7.3302E-05  0.0053
   3.8831E+00   3.9776E+00   7.0654E-05  0.0054
   3.9776E+00   4.0743E+00   6.9094E-05  0.0054
   4.0743E+00   4.1735E+00   6.6611E-05  0.0054
   4.1735E+00   4.2750E+00   6.4802E-05  0.0054
   4.2750E+00   4.3790E+00   6.3777E-05  0.0054
   4.3790E+00   4.4856E+00   6.1191E-05  0.0054
   4.4856E+00   4.5947E+00   5.9915E-05  0.0054
   4.5947E+00   4.7065E+00   5.8133E-05  0.0054
   4.7065E+00   4.8210E+00   5.6210E-05  0.0054
   4.8210E+00   4.9383E+00   5.4728E-05  0.0055
   4.9383E+00   5.0585E+00   5.3599E-05  0.0054
   5.0585E+00   5.1815E+00   5.2351E-05  0.0054
   5.1815E+00   5.3076E+00   5.1069E-05  0.0054
   5.3076E+00   5.4368E+00   4.9346E-05  0.0055
   5.4368E+00   5.5690E+00   4.8851E-05  0.0054
   5.5690E+00   5.7045E+00   4.7635E-05  0.0054
   5.7045E+00   5.8433E+00   4.6855E-05  0.0054
   5.8433E+00   5.9855E+00   4.6088E-05  0.0054
   5.9855E+00   6.1311E+00   4.5283E-05  0.0054
   6.1311E+00   6.2803E+00   4.4643E-05  0.0054
   6.2803E+00   6.4331E+00   4.3562E-05  0.0054
   6.4331E+00   6.5896E+00   4.2294E-05  0.0054
   6.5896E+00   6.7500E+00   4.2024E-05  0.0053
   6.7500E+00   6.9142E+00   4.0722E-05  0.0054
   6.9142E+00   7.0824E+00   3.9654E-05  0.0054
   7.0824E+00   7.2548E+00   3.8514E-05  0.0054
   7.2548E+00   7.4313E+00   3.7222E-05  0.0054
   7.4313E+00   7.6121E+00   3.6007E-05  0.0054
   7.6121E+00   7.7973E+00   3.4756E-05  0.0055
   7.7973E+00   7.9870E+00   3.4063E-05  0.0055
   7.9870E+00   8.1813E+00   3.2867E-05  0.0055
   8.1813E+00   8.3804E+00   3.1163E-05  0.0056
   8.3804E+00   8.5843E+00   2.9986E-05  0.0056
   8.5843E+00   8.7931E+00   2.8489E-05  0.0057
   8.7931E+00   9.0071E+00   2.7220E-05  0.0058
   9.0071E+00   9.2262E+00   2.5851E-05  0.0059
   9.2262E+00   9.4507E+00   2.4366E-05  0.0060
   9.4507E+00   9.6807E+00   2.3123E-05  0.0061
   9.6807E+00   9.9162E+00   2.2098E-05  0.0062
   9.9162E+00   1.0157E+01   2.1951E-05  0.0061
   1.0157E+01   1.0405E+01   2.0872E-05  0.0062
   1.0405E+01   1.0658E+01   1.9705E-05  0.0063
   1.0658E+01   1.0917E+01   1.8647E-05  0.0064
   1.0917E+01   1.1183E+01   1.7235E-05  0.0066
   1.1183E+01   1.1455E+01   1.6240E-05  0.0067
   1.1455E+01   1.1733E+01   1.4950E-05  0.0069
   1.1733E+01   1.2019E+01   1.4098E-05  0.0070
   1.2019E+01   1.2311E+01   1.3295E-05  0.0072
   1.2311E+01   1.2611E+01   1.2194E-05  0.0074
   1.2611E+01   1.2918E+01   1.1202E-05  0.0076
   1.2918E+01   1.3232E+01   1.0344E-05  0.0078
   1.3232E+01   1.3554E+01   9.6213E-06  0.0080
   1.3554E+01   1.3884E+01   8.7768E-06  0.0083
   1.3884E+01   1.4222E+01   7.9938E-06  0.0086
   1.4222E+01   1.4568E+01   7.1591E-06  0.0090
   1.4568E+01   1.4922E+01   6.4786E-06  0.0093
   1.4922E+01   1.5285E+01   5.7837E-06  0.0098
   1.5285E+01   1.5657E+01   5.1886E-06  0.0102
   1.5657E+01   1.6038E+01   4.5900E-06  0.0107
   1.6038E+01   1.6428E+01   4.0325E-06  0.0113
   1.6428E+01   1.6828E+01   3.5863E-06  0.0118
   1.6828E+01   1.7237E+01   3.0511E-06  0.0126
   1.7237E+01   1.7657E+01   2.6786E-06  0.0133
   1.7657E+01   1.8086E+01   2.2701E-06  0.0143
   1.8086E+01   1.8526E+01   1.9348E-06  0.0153
   1.8526E+01   1.8977E+01   1.6186E-06  0.0166
   1.8977E+01   1.9439E+01   1.3588E-06  0.0179
   1.9439E+01   1.9912E+01   1.1049E-06  0.0196
   1.9912E+01   2.0396E+01   8.7105E-07  0.0218
   2.0396E+01   2.0893E+01   5.9566E-07  0.0260
   2.0893E+01   2.1401E+01   4.5364E-07  0.0294
   2.1401E+01   2.1922E+01   3.0113E-07  0.0357
   2.1922E+01   2.2455E+01   1.5974E-07  0.0485
   2.2455E+01   2.3001E+01   7.1017E-08  0.0718
   2.3001E+01   2.3561E+01   2.5373E-08  0.1187
   2.3561E+01   2.4134E+01   7.3265E-09  0.2182
   2.4134E+01   2.4721E+01   3.4060E-09  0.3162
   2.4721E+01   2.5323E+01   2.3275E-09  0.3780
   2.5323E+01   2.5939E+01   1.6230E-09  0.4472
   2.5939E+01   2.6570E+01   3.1690E-09  0.3162
   2.6570E+01   2.7217E+01   1.2375E-09  0.5000
   2.7217E+01   2.7879E+01   6.0404E-10  0.7071
   2.7879E+01   2.8557E+01   8.8454E-10  0.5774
   2.8557E+01   2.9252E+01   8.6353E-10  0.5774
   2.9252E+01   2.9964E+01   0.0000E+00  0.0000
   2.9964E+01   3.0693E+01   2.7433E-10  1.0000
   3.0693E+01   3.1440E+01   0.0000E+00  0.0000
   3.1440E+01   3.2205E+01   0.0000E+00  0.0000
   3.2205E+01   3.2988E+01   2.5524E-10  1.0000
   3.2988E+01   3.3791E+01   0.0000E+00  0.0000
   3.3791E+01   3.4613E+01   0.0000E+00  0.0000
   3.4613E+01   3.5455E+01   0.0000E+00  0.0000
   3.5455E+01   3.6318E+01   0.0000E+00  0.0000
   3.6318E+01   3.7201E+01   0.0000E+00  0.0000
   3.7201E+01   3.8106E+01   0.0000E+00  0.0000
   3.8106E+01   3.9034E+01   0.0000E+00  0.0000
   3.9034E+01   3.9983E+01   0.0000E+00  0.0000
   3.9983E+01   4.0956E+01   0.0000E+00  0.0000
   4.0956E+01   4.1953E+01   0.0000E+00  0.0000
   4.1953E+01   4.2973E+01   0.0000E+00  0.0000
   4.2973E+01   4.4019E+01   0.0000E+00  0.0000
   4.4019E+01   4.5090E+01   0.0000E+00  0.0000
   4.5090E+01   4.6187E+01   0.0000E+00  0.0000
   4.6187E+01   4.7311E+01   0.0000E+00  0.0000
   4.7311E+01   4.8462E+01   0.0000E+00  0.0000
   4.8462E+01   4.9641E+01   0.0000E+00  0.0000
   4.9641E+01   5.0849E+01   0.0000E+00  0.0000
   5.0849E+01   5.2086E+01   0.0000E+00  0.0000
   5.2086E+01   5.3353E+01   0.0000E+00  0.0000
   5.3353E+01   5.4651E+01   0.0000E+00  0.0000
   5.4651E+01   5.5981E+01   0.0000E+00  0.0000
   5.5981E+01   5.7343E+01   0.0000E+00  0.0000
   5.7343E+01   5.8738E+01   0.0000E+00  0.0000
   5.8738E+01   6.0168E+01   0.0000E+00  0.0000
   6.0168E+01   6.1632E+01   0.0000E+00  0.0000
   6.1632E+01   6.3131E+01   0.0000E+00  0.0000
   6.3131E+01   6.4667E+01   0.0000E+00  0.0000
   6.4667E+01   6.6240E+01   0.0000E+00  0.0000
   6.6240E+01   6.7852E+01   0.0000E+00  0.0000
   6.7852E+01   6.9503E+01   0.0000E+00  0.0000
   6.9503E+01   7.1194E+01   0.0000E+00  0.0000
   7.1194E+01   7.2926E+01   0.0000E+00  0.0000
   7.2926E+01   7.4701E+01   0.0000E+00  0.0000
   7.4701E+01   7.6518E+01   0.0000E+00  0.0000
   7.6518E+01   7.8380E+01   0.0000E+00  0.0000
   7.8380E+01   8.0287E+01   0.0000E+00  0.0000
   8.0287E+01   8.2240E+01   0.0000E+00  0.0000
   8.2240E+01   8.4241E+01   0.0000E+00  0.0000
   8.4241E+01   8.6291E+01   0.0000E+00  0.0000
   8.6291E+01   8.8391E+01   0.0000E+00  0.0000
   8.8391E+01   9.0541E+01   0.0000E+00  0.0000
   9.0541E+01   9.2744E+01   0.0000E+00  0.0000
   9.2744E+01   9.5001E+01   0.0000E+00  0.0000
   9.5001E+01   9.7312E+01   0.0000E+00  0.0000
   9.7312E+01   9.9680E+01   0.0000E+00  0.0000
   9.9680E+01   1.0211E+02   0.0000E+00  0.0000
   1.0211E+02   1.0459E+02   0.0000E+00  0.0000
   1.0459E+02   1.0713E+02   0.0000E+00  0.0000
   1.0713E+02   1.0974E+02   0.0000E+00  0.0000
   1.0974E+02   1.1241E+02   0.0000E+00  0.0000
   1.1241E+02   1.1515E+02   0.0000E+00  0.0000
   1.1515E+02   1.1795E+02   0.0000E+00  0.0000
   1.1795E+02   1.2082E+02   0.0000E+00  0.0000
   1.2082E+02   1.2376E+02   0.0000E+00  0.0000
   1.2376E+02   1.2677E+02   0.0000E+00  0.0000
   1.2677E+02   1.2985E+02   0.0000E+00  0.0000
   1.2985E+02   1.3301E+02   0.0000E+00  0.0000
   1.3301E+02   1.3625E+02   0.0000E+00  0.0000
   1.3625E+02   1.3956E+02   0.0000E+00  0.0000
   1.3956E+02   1.4296E+02   0.0000E+00  0.0000
   1.4296E+02   1.4644E+02   0.0000E+00  0.0000
   1.4644E+02   1.5000E+02   0.0000E+00  0.0000

#   sum over                 4.7001E-06
'no. =    1   reg = 111 - 211'
msuc: {\huge [t-cross] in region mesh}
msdr: {\it plotted by \ANGEL \version}
msdl: {\it calculated by \PHITS  3.26}
wt: s(0.7)
\vspace{-3}
  region surface crossing
  area  &=&   1.0000E+00 [cm^2]
e:
 
# Information for Restart Calculation
# This calculation was newly started
# istdev =  2 # 1:Batch variance, 2:History variance
# resc2  = 5.00000000000000000E+09 # Total source weight or Total source weight / maxcas
# resc3  = 5.00000000000000000E+09 # Total history number or Total batch number
# maxcas =   100000000 # History / Batch, only used for istdev=1
# bitrseed = 0110100000100010111000001110001111001110100100011111101000111001 # bit data of rseed
