[ T-Cross ]
    title = [t-cross] in region mesh
     mesh =  reg            # mesh type is region-wise
      reg =    1            # number of crossing regions
      non     r-from    r-to       area
      1       115       215        1.000000    
   e-type =    3            # e-mesh is log given by emin, emax and ne
     emin =  1.0000000E-02  # minimum value of e-mesh points
     emax =   150.0000      # maximum value of e-mesh points
#    edel =  2.4039514E-02  # mesh width of e-mesh points
       ne =    400          # number of e-mesh points
#    data = ( e(i), i = 1, ne + 1 )
#           1.00000E-02  1.02433E-02  1.04925E-02  1.07478E-02  1.10093E-02
#           1.12772E-02  1.15516E-02  1.18326E-02  1.21205E-02  1.24154E-02
#           1.27175E-02  1.30269E-02  1.33439E-02  1.36686E-02  1.40011E-02
#           1.43418E-02  1.46907E-02  1.50482E-02  1.54143E-02  1.57894E-02
#           1.61735E-02  1.65670E-02  1.69701E-02  1.73830E-02  1.78060E-02
#           1.82392E-02  1.86830E-02  1.91375E-02  1.96032E-02  2.00801E-02
#           2.05687E-02  2.10692E-02  2.15818E-02  2.21069E-02  2.26448E-02
#           2.31957E-02  2.37601E-02  2.43382E-02  2.49304E-02  2.55369E-02
#           2.61583E-02  2.67947E-02  2.74467E-02  2.81145E-02  2.87985E-02
#           2.94992E-02  3.02169E-02  3.09521E-02  3.17052E-02  3.24766E-02
#           3.32668E-02  3.40762E-02  3.49053E-02  3.57546E-02  3.66246E-02
#           3.75157E-02  3.84284E-02  3.93634E-02  4.03212E-02  4.13022E-02
#           4.23071E-02  4.33365E-02  4.43909E-02  4.54710E-02  4.65773E-02
#           4.77106E-02  4.88714E-02  5.00605E-02  5.12785E-02  5.25262E-02
#           5.38042E-02  5.51133E-02  5.64542E-02  5.78278E-02  5.92348E-02
#           6.06760E-02  6.21523E-02  6.36645E-02  6.52135E-02  6.68002E-02
#           6.84255E-02  7.00904E-02  7.17957E-02  7.35426E-02  7.53319E-02
#           7.71648E-02  7.90423E-02  8.09655E-02  8.29354E-02  8.49533E-02
#           8.70203E-02  8.91376E-02  9.13064E-02  9.35279E-02  9.58035E-02
#           9.81345E-02  1.00522E-01  1.02968E-01  1.05473E-01  1.08040E-01
#           1.10668E-01  1.13361E-01  1.16119E-01  1.18944E-01  1.21838E-01
#           1.24803E-01  1.27839E-01  1.30950E-01  1.34136E-01  1.37399E-01
#           1.40742E-01  1.44167E-01  1.47675E-01  1.51268E-01  1.54948E-01
#           1.58718E-01  1.62580E-01  1.66535E-01  1.70587E-01  1.74738E-01
#           1.78989E-01  1.83344E-01  1.87805E-01  1.92375E-01  1.97055E-01
#           2.01850E-01  2.06761E-01  2.11792E-01  2.16945E-01  2.22223E-01
#           2.27630E-01  2.33169E-01  2.38842E-01  2.44653E-01  2.50605E-01
#           2.56703E-01  2.62949E-01  2.69346E-01  2.75900E-01  2.82613E-01
#           2.89489E-01  2.96532E-01  3.03747E-01  3.11138E-01  3.18708E-01
#           3.26462E-01  3.34405E-01  3.42542E-01  3.50876E-01  3.59413E-01
#           3.68158E-01  3.77116E-01  3.86291E-01  3.95690E-01  4.05317E-01
#           4.15179E-01  4.25281E-01  4.35628E-01  4.46227E-01  4.57084E-01
#           4.68205E-01  4.79597E-01  4.91266E-01  5.03219E-01  5.15463E-01
#           5.28005E-01  5.40851E-01  5.54011E-01  5.67490E-01  5.81298E-01
#           5.95441E-01  6.09929E-01  6.24769E-01  6.39970E-01  6.55541E-01
#           6.71491E-01  6.87828E-01  7.04564E-01  7.21706E-01  7.39266E-01
#           7.57253E-01  7.75678E-01  7.94551E-01  8.13883E-01  8.33685E-01
#           8.53969E-01  8.74747E-01  8.96030E-01  9.17831E-01  9.40163E-01
#           9.63038E-01  9.86469E-01  1.01047E+00  1.03506E+00  1.06024E+00
#           1.08604E+00  1.11246E+00  1.13953E+00  1.16725E+00  1.19565E+00
#           1.22474E+00  1.25454E+00  1.28507E+00  1.31633E+00  1.34836E+00
#           1.38117E+00  1.41477E+00  1.44920E+00  1.48446E+00  1.52057E+00
#           1.55757E+00  1.59547E+00  1.63429E+00  1.67405E+00  1.71478E+00
#           1.75650E+00  1.79924E+00  1.84302E+00  1.88786E+00  1.93379E+00
#           1.98084E+00  2.02904E+00  2.07841E+00  2.12898E+00  2.18078E+00
#           2.23384E+00  2.28819E+00  2.34386E+00  2.40089E+00  2.45930E+00
#           2.51914E+00  2.58043E+00  2.64322E+00  2.70753E+00  2.77341E+00
#           2.84088E+00  2.91001E+00  2.98081E+00  3.05333E+00  3.12762E+00
#           3.20372E+00  3.28167E+00  3.36152E+00  3.44330E+00  3.52708E+00
#           3.61290E+00  3.70080E+00  3.79085E+00  3.88308E+00  3.97756E+00
#           4.07434E+00  4.17347E+00  4.27501E+00  4.37903E+00  4.48557E+00
#           4.59471E+00  4.70650E+00  4.82102E+00  4.93832E+00  5.05847E+00
#           5.18155E+00  5.30762E+00  5.43676E+00  5.56904E+00  5.70453E+00
#           5.84333E+00  5.98550E+00  6.13114E+00  6.28031E+00  6.43312E+00
#           6.58964E+00  6.74997E+00  6.91420E+00  7.08243E+00  7.25475E+00
#           7.43126E+00  7.61207E+00  7.79728E+00  7.98700E+00  8.18133E+00
#           8.38038E+00  8.58428E+00  8.79315E+00  9.00709E+00  9.22624E+00
#           9.45072E+00  9.68067E+00  9.91620E+00  1.01575E+01  1.04046E+01
#           1.06578E+01  1.09171E+01  1.11827E+01  1.14548E+01  1.17335E+01
#           1.20190E+01  1.23114E+01  1.26109E+01  1.29178E+01  1.32321E+01
#           1.35540E+01  1.38838E+01  1.42216E+01  1.45676E+01  1.49221E+01
#           1.52851E+01  1.56570E+01  1.60380E+01  1.64282E+01  1.68279E+01
#           1.72374E+01  1.76568E+01  1.80864E+01  1.85264E+01  1.89772E+01
#           1.94389E+01  1.99119E+01  2.03963E+01  2.08926E+01  2.14009E+01
#           2.19216E+01  2.24550E+01  2.30014E+01  2.35610E+01  2.41343E+01
#           2.47215E+01  2.53230E+01  2.59391E+01  2.65702E+01  2.72167E+01
#           2.78789E+01  2.85572E+01  2.92520E+01  2.99637E+01  3.06928E+01
#           3.14396E+01  3.22045E+01  3.29881E+01  3.37907E+01  3.46128E+01
#           3.54550E+01  3.63177E+01  3.72013E+01  3.81064E+01  3.90336E+01
#           3.99833E+01  4.09561E+01  4.19526E+01  4.29734E+01  4.40189E+01
#           4.50900E+01  4.61870E+01  4.73108E+01  4.84619E+01  4.96410E+01
#           5.08488E+01  5.20860E+01  5.33533E+01  5.46514E+01  5.59812E+01
#           5.73432E+01  5.87384E+01  6.01676E+01  6.16315E+01  6.31311E+01
#           6.46671E+01  6.62405E+01  6.78522E+01  6.95031E+01  7.11941E+01
#           7.29263E+01  7.47007E+01  7.65182E+01  7.83800E+01  8.02870E+01
#           8.22405E+01  8.42414E+01  8.62911E+01  8.83906E+01  9.05412E+01
#           9.27442E+01  9.50007E+01  9.73122E+01  9.96799E+01  1.02105E+02
#           1.04589E+02  1.07134E+02  1.09741E+02  1.12411E+02  1.15146E+02
#           1.17948E+02  1.20817E+02  1.23757E+02  1.26768E+02  1.29852E+02
#           1.33012E+02  1.36248E+02  1.39563E+02  1.42959E+02  1.46437E+02
#           1.50000E+02
     unit =    2            # unit is [1/cm^2/(MeV/n)/source]
     axis =  eng            # axis of output
     file = detector-16.out  # file name of output for the above axis
   output = f-curr          # surface crossing forward current spectrum
     part =  neutron  
# kf/name :  2112     
#    used :        main (  %)        temp (  %)       total (  %)
#  memory :         414 (  0)           0 (  0)         414 (  0)

#------------------------------------------------------------------------------
#newpage:
#   no. =    1   reg = 115 - 215

x: Energy [MeV/n]
y:  F-Curr [1/cm^2/(MeV/n)/source]         
p: xlog ylog afac(0.8) form(0.9)
h: n            x            y(neutron ),hh0l   n 
#  e-lower      e-upper      neutron     r.err 
   1.0000E-02   1.0243E-02   7.8090E-05  0.2294
   1.0243E-02   1.0493E-02   8.4260E-05  0.2182
   1.0493E-02   1.0748E-02   5.0922E-05  0.2774
   1.0748E-02   1.1009E-02   5.3537E-05  0.2673
   1.1009E-02   1.1277E-02   6.3465E-05  0.2425
   1.1277E-02   1.1552E-02   5.8313E-05  0.2500
   1.1552E-02   1.1833E-02   7.1159E-05  0.2236
   1.1833E-02   1.2121E-02   4.8628E-05  0.2673
   1.2121E-02   1.2415E-02   1.0173E-04  0.1826
   1.2415E-02   1.2718E-02   7.2829E-05  0.2132
   1.2718E-02   1.3027E-02   4.5245E-05  0.2673
   1.3027E-02   1.3344E-02   7.8875E-05  0.2000
   1.3344E-02   1.3669E-02   7.0842E-05  0.2085
   1.3669E-02   1.4001E-02   4.5104E-05  0.2582
   1.4001E-02   1.4342E-02   5.8710E-05  0.2236
   1.4342E-02   1.4691E-02   6.3047E-05  0.2132
   1.4691E-02   1.5048E-02   9.7919E-05  0.1690
   1.5048E-02   1.5414E-02   7.1012E-05  0.1961
   1.5414E-02   1.5789E-02   8.2657E-05  0.1796
   1.5789E-02   1.6174E-02   7.8091E-05  0.1826
   1.6174E-02   1.6567E-02   6.0989E-05  0.2041
   1.6567E-02   1.6970E-02   9.6753E-05  0.1601
   1.6970E-02   1.7383E-02   6.2970E-05  0.1961
   1.7383E-02   1.7806E-02   4.9652E-05  0.2182
   1.7806E-02   1.8239E-02   6.6939E-05  0.1857
   1.8239E-02   1.8683E-02   6.0842E-05  0.1925
   1.8683E-02   1.9138E-02   6.3796E-05  0.1857
   1.9138E-02   1.9603E-02   6.8724E-05  0.1768
   1.9603E-02   2.0080E-02   6.9188E-05  0.1741
   2.0080E-02   2.0569E-02   8.9036E-05  0.1512
   2.0569E-02   2.1069E-02   7.7929E-05  0.1601
   2.1069E-02   2.1582E-02   8.9733E-05  0.1474
   2.1582E-02   2.2107E-02   9.1411E-05  0.1443
   2.2107E-02   2.2645E-02   8.7380E-05  0.1459
   2.2645E-02   2.3196E-02   8.5305E-05  0.1459
   2.3196E-02   2.3760E-02   6.2016E-05  0.1690
   2.3760E-02   2.4338E-02   6.4003E-05  0.1644
   2.4338E-02   2.4930E-02   5.4039E-05  0.1768
   2.4930E-02   2.5537E-02   6.9241E-05  0.1543
   2.5537E-02   2.6158E-02   8.0472E-05  0.1414
   2.6158E-02   2.6795E-02   8.1703E-05  0.1387
   2.6795E-02   2.7447E-02   6.7491E-05  0.1508
   2.7447E-02   2.8114E-02   7.0380E-05  0.1459
   2.8114E-02   2.8799E-02   6.8709E-05  0.1459
   2.8799E-02   2.9499E-02   9.1338E-05  0.1250
   2.9499E-02   3.0217E-02   7.2450E-05  0.1387
   3.0217E-02   3.0952E-02   7.7530E-05  0.1325
   3.0952E-02   3.1705E-02   6.2410E-05  0.1459
   3.1705E-02   3.2477E-02   8.4261E-05  0.1240
   3.2477E-02   3.3267E-02   8.2259E-05  0.1240
   3.3267E-02   3.4076E-02   7.6599E-05  0.1270
   3.4076E-02   3.4905E-02   9.8902E-05  0.1104
   3.4905E-02   3.5755E-02   8.7133E-05  0.1162
   3.5755E-02   3.6625E-02   8.7363E-05  0.1147
   3.6625E-02   3.7516E-02   6.7332E-05  0.1291
   3.7516E-02   3.8428E-02   9.4217E-05  0.1078
   3.8428E-02   3.9363E-02   5.6685E-05  0.1374
   3.9363E-02   4.0321E-02   6.9956E-05  0.1222
   4.0321E-02   4.1302E-02   7.7468E-05  0.1147
   4.1302E-02   4.2307E-02   9.3679E-05  0.1030
   4.2307E-02   4.3337E-02   9.7633E-05  0.0996
   4.3337E-02   4.4391E-02   7.1130E-05  0.1155
   4.4391E-02   4.5471E-02   6.8514E-05  0.1162
   4.5471E-02   4.6577E-02   1.0304E-04  0.0937
   4.6577E-02   4.7711E-02   9.3535E-05  0.0971
   4.7711E-02   4.8871E-02   7.7530E-05  0.1054
   4.8871E-02   5.0061E-02   9.2508E-05  0.0953
   5.0061E-02   5.1279E-02   8.7027E-05  0.0971
   5.1279E-02   5.2526E-02   7.7746E-05  0.1015
   5.2526E-02   5.3804E-02   8.4507E-05  0.0962
   5.3804E-02   5.5113E-02   9.3194E-05  0.0905
   5.5113E-02   5.6454E-02   7.5320E-05  0.0995
   5.6454E-02   5.7828E-02   8.5179E-05  0.0925
   5.7828E-02   5.9235E-02   7.8891E-05  0.0949
   5.9235E-02   6.0676E-02   8.9507E-05  0.0880
   6.0676E-02   6.2152E-02   8.8736E-05  0.0874
   6.2152E-02   6.3665E-02   6.4806E-05  0.1010
   6.3665E-02   6.5214E-02   8.1342E-05  0.0891
   6.5214E-02   6.6800E-02   7.0078E-05  0.0948
   6.6800E-02   6.8426E-02   8.7984E-05  0.0836
   6.8426E-02   7.0090E-02   7.8986E-05  0.0871
   7.0090E-02   7.1796E-02   8.5026E-05  0.0830
   7.1796E-02   7.3543E-02   8.7014E-05  0.0811
   7.3543E-02   7.5332E-02   8.8859E-05  0.0793
   7.5332E-02   7.7165E-02   9.4387E-05  0.0760
   7.7165E-02   7.9042E-02   9.0014E-05  0.0769
   7.9042E-02   8.0965E-02   9.1516E-05  0.0754
   8.0965E-02   8.2935E-02   8.9342E-05  0.0754
   8.2935E-02   8.4953E-02   9.7131E-05  0.0714
   8.4953E-02   8.7020E-02   8.3697E-05  0.0760
   8.7020E-02   8.9138E-02   9.0683E-05  0.0722
   8.9138E-02   9.1306E-02   8.2535E-05  0.0747
   9.1306E-02   9.3528E-02   8.6876E-05  0.0720
   9.3528E-02   9.5804E-02   8.9207E-05  0.0702
   9.5804E-02   9.8134E-02   8.4728E-05  0.0711
   9.8134E-02   1.0052E-01   8.8789E-05  0.0687
   1.0052E-01   1.0297E-01   9.0360E-05  0.0673
   1.0297E-01   1.0547E-01   8.7415E-05  0.0676
   1.0547E-01   1.0804E-01   8.8909E-05  0.0662
   1.0804E-01   1.1067E-01   1.0119E-04  0.0613
   1.1067E-01   1.1336E-01   8.9833E-05  0.0642
   1.1336E-01   1.1612E-01   8.5620E-05  0.0651
   1.1612E-01   1.1894E-01   9.3796E-05  0.0614
   1.1894E-01   1.2184E-01   8.6446E-05  0.0632
   1.2184E-01   1.2480E-01   8.9056E-05  0.0615
   1.2480E-01   1.2784E-01   9.2210E-05  0.0598
   1.2784E-01   1.3095E-01   9.0403E-05  0.0596
   1.3095E-01   1.3414E-01   8.1918E-05  0.0619
   1.3414E-01   1.3740E-01   8.0892E-05  0.0615
   1.3740E-01   1.4074E-01   8.7944E-05  0.0583
   1.4074E-01   1.4417E-01   8.4687E-05  0.0587
   1.4417E-01   1.4767E-01   8.5296E-05  0.0578
   1.4767E-01   1.5127E-01   8.7154E-05  0.0565
   1.5127E-01   1.5495E-01   7.8115E-05  0.0590
   1.5495E-01   1.5872E-01   7.8021E-05  0.0583
   1.5872E-01   1.6258E-01   7.6391E-05  0.0582
   1.6258E-01   1.6654E-01   8.3424E-05  0.0550
   1.6654E-01   1.7059E-01   7.7939E-05  0.0562
   1.7059E-01   1.7474E-01   7.7340E-05  0.0558
   1.7474E-01   1.7899E-01   8.0912E-05  0.0539
   1.7899E-01   1.8334E-01   8.9469E-05  0.0506
   1.8334E-01   1.8781E-01   7.7114E-05  0.0539
   1.8781E-01   1.9237E-01   6.6529E-05  0.0574
   1.9237E-01   1.9706E-01   7.1465E-05  0.0547
   1.9706E-01   2.0185E-01   7.7797E-05  0.0518
   2.0185E-01   2.0676E-01   7.3913E-05  0.0525
   2.0676E-01   2.1179E-01   7.3022E-05  0.0522
   2.1179E-01   2.1694E-01   7.3160E-05  0.0515
   2.1694E-01   2.2222E-01   7.9001E-05  0.0490
   2.2222E-01   2.2763E-01   7.6384E-05  0.0492
   2.2763E-01   2.3317E-01   8.1160E-05  0.0471
   2.3317E-01   2.3884E-01   7.7470E-05  0.0477
   2.3884E-01   2.4465E-01   7.4116E-05  0.0482
   2.4465E-01   2.5061E-01   8.6265E-05  0.0441
   2.5061E-01   2.5670E-01   8.9464E-05  0.0428
   2.5670E-01   2.6295E-01   8.8240E-05  0.0426
   2.6295E-01   2.6935E-01   8.6593E-05  0.0425
   2.6935E-01   2.7590E-01   8.7261E-05  0.0418
   2.7590E-01   2.8261E-01   9.2192E-05  0.0402
   2.8261E-01   2.8949E-01   9.8042E-05  0.0385
   2.8949E-01   2.9653E-01   9.9241E-05  0.0378
   2.9653E-01   3.0375E-01   9.3438E-05  0.0385
   3.0375E-01   3.1114E-01   9.5818E-05  0.0376
   3.1114E-01   3.1871E-01   8.8655E-05  0.0386
   3.1871E-01   3.2646E-01   1.0209E-04  0.0355
   3.2646E-01   3.3441E-01   1.0600E-04  0.0345
   3.3441E-01   3.4254E-01   1.0818E-04  0.0337
   3.4254E-01   3.5088E-01   1.0957E-04  0.0331
   3.5088E-01   3.5941E-01   1.1109E-04  0.0325
   3.5941E-01   3.6816E-01   1.0641E-04  0.0328
   3.6816E-01   3.7712E-01   1.0769E-04  0.0322
   3.7712E-01   3.8629E-01   1.1088E-04  0.0313
   3.8629E-01   3.9569E-01   1.0909E-04  0.0312
   3.9569E-01   4.0532E-01   1.1935E-04  0.0295
   4.0532E-01   4.1518E-01   1.1700E-04  0.0294
   4.1518E-01   4.2528E-01   1.1498E-04  0.0293
   4.2528E-01   4.3563E-01   1.1896E-04  0.0285
   4.3563E-01   4.4623E-01   1.1490E-04  0.0286
   4.4623E-01   4.5708E-01   1.1998E-04  0.0277
   4.5708E-01   4.6821E-01   1.2441E-04  0.0269
   4.6821E-01   4.7960E-01   1.2293E-04  0.0267
   4.7960E-01   4.9127E-01   1.2228E-04  0.0265
   4.9127E-01   5.0322E-01   1.2311E-04  0.0261
   5.0322E-01   5.1546E-01   1.2765E-04  0.0253
   5.1546E-01   5.2800E-01   1.2605E-04  0.0251
   5.2800E-01   5.4085E-01   1.2129E-04  0.0253
   5.4085E-01   5.5401E-01   1.3287E-04  0.0239
   5.5401E-01   5.6749E-01   1.3381E-04  0.0235
   5.6749E-01   5.8130E-01   1.2574E-04  0.0240
   5.8130E-01   5.9544E-01   1.2396E-04  0.0239
   5.9544E-01   6.0993E-01   1.3414E-04  0.0227
   6.0993E-01   6.2477E-01   1.3624E-04  0.0222
   6.2477E-01   6.3997E-01   1.2874E-04  0.0226
   6.3997E-01   6.5554E-01   1.3562E-04  0.0218
   6.5554E-01   6.7149E-01   1.3678E-04  0.0214
   6.7149E-01   6.8783E-01   1.3819E-04  0.0210
   6.8783E-01   7.0456E-01   1.3185E-04  0.0213
   7.0456E-01   7.2171E-01   1.3626E-04  0.0207
   7.2171E-01   7.3927E-01   1.3638E-04  0.0204
   7.3927E-01   7.5725E-01   1.3659E-04  0.0202
   7.5725E-01   7.7568E-01   1.3715E-04  0.0199
   7.7568E-01   7.9455E-01   1.3623E-04  0.0197
   7.9455E-01   8.1388E-01   1.3892E-04  0.0193
   8.1388E-01   8.3368E-01   1.3737E-04  0.0192
   8.3368E-01   8.5397E-01   1.3946E-04  0.0188
   8.5397E-01   8.7475E-01   1.3791E-04  0.0187
   8.7475E-01   8.9603E-01   1.3464E-04  0.0187
   8.9603E-01   9.1783E-01   1.3907E-04  0.0182
   9.1783E-01   9.4016E-01   1.4075E-04  0.0178
   9.4016E-01   9.6304E-01   1.3619E-04  0.0179
   9.6304E-01   9.8647E-01   1.3792E-04  0.0176
   9.8647E-01   1.0105E+00   1.3182E-04  0.0178
   1.0105E+00   1.0351E+00   1.3772E-04  0.0172
   1.0351E+00   1.0602E+00   1.3448E-04  0.0172
   1.0602E+00   1.0860E+00   1.3768E-04  0.0168
   1.0860E+00   1.1125E+00   1.3681E-04  0.0166
   1.1125E+00   1.1395E+00   1.3646E-04  0.0164
   1.1395E+00   1.1673E+00   1.4474E-04  0.0158
   1.1673E+00   1.1957E+00   1.4230E-04  0.0157
   1.1957E+00   1.2247E+00   1.4287E-04  0.0155
   1.2247E+00   1.2545E+00   1.4478E-04  0.0152
   1.2545E+00   1.2851E+00   1.4371E-04  0.0151
   1.2851E+00   1.3163E+00   1.4474E-04  0.0149
   1.3163E+00   1.3484E+00   1.4369E-04  0.0147
   1.3484E+00   1.3812E+00   1.4336E-04  0.0146
   1.3812E+00   1.4148E+00   1.4725E-04  0.0142
   1.4148E+00   1.4492E+00   1.4680E-04  0.0141
   1.4492E+00   1.4845E+00   1.4793E-04  0.0138
   1.4845E+00   1.5206E+00   1.4537E-04  0.0138
   1.5206E+00   1.5576E+00   1.4506E-04  0.0136
   1.5576E+00   1.5955E+00   1.4251E-04  0.0136
   1.5955E+00   1.6343E+00   1.4668E-04  0.0132
   1.6343E+00   1.6741E+00   1.4440E-04  0.0132
   1.6741E+00   1.7148E+00   1.4461E-04  0.0130
   1.7148E+00   1.7565E+00   1.4400E-04  0.0129
   1.7565E+00   1.7992E+00   1.4452E-04  0.0127
   1.7992E+00   1.8430E+00   1.4469E-04  0.0126
   1.8430E+00   1.8879E+00   1.3919E-04  0.0126
   1.8879E+00   1.9338E+00   1.3769E-04  0.0126
   1.9338E+00   1.9808E+00   1.3793E-04  0.0124
   1.9808E+00   2.0290E+00   1.3793E-04  0.0123
   2.0290E+00   2.0784E+00   1.3447E-04  0.0123
   2.0784E+00   2.1290E+00   1.3599E-04  0.0121
   2.1290E+00   2.1808E+00   1.3316E-04  0.0120
   2.1808E+00   2.2338E+00   1.3135E-04  0.0120
   2.2338E+00   2.2882E+00   1.3030E-04  0.0119
   2.2882E+00   2.3439E+00   1.2958E-04  0.0118
   2.3439E+00   2.4009E+00   1.2599E-04  0.0118
   2.4009E+00   2.4593E+00   1.2439E-04  0.0117
   2.4593E+00   2.5191E+00   1.2446E-04  0.0116
   2.5191E+00   2.5804E+00   1.1977E-04  0.0117
   2.5804E+00   2.6432E+00   1.1900E-04  0.0116
   2.6432E+00   2.7075E+00   1.1669E-04  0.0115
   2.7075E+00   2.7734E+00   1.1397E-04  0.0115
   2.7734E+00   2.8409E+00   1.1340E-04  0.0114
   2.8409E+00   2.9100E+00   1.0861E-04  0.0115
   2.9100E+00   2.9808E+00   1.0712E-04  0.0115
   2.9808E+00   3.0533E+00   1.0580E-04  0.0114
   3.0533E+00   3.1276E+00   1.0357E-04  0.0114
   3.1276E+00   3.2037E+00   1.0010E-04  0.0114
   3.2037E+00   3.2817E+00   9.8625E-05  0.0114
   3.2817E+00   3.3615E+00   9.5920E-05  0.0114
   3.3615E+00   3.4433E+00   9.3032E-05  0.0115
   3.4433E+00   3.5271E+00   8.9000E-05  0.0116
   3.5271E+00   3.6129E+00   8.8054E-05  0.0115
   3.6129E+00   3.7008E+00   8.4409E-05  0.0116
   3.7008E+00   3.7908E+00   8.2006E-05  0.0116
   3.7908E+00   3.8831E+00   7.7123E-05  0.0118
   3.8831E+00   3.9776E+00   7.4635E-05  0.0119
   3.9776E+00   4.0743E+00   7.0487E-05  0.0121
   4.0743E+00   4.1735E+00   6.5167E-05  0.0124
   4.1735E+00   4.2750E+00   6.0938E-05  0.0127
   4.2750E+00   4.3790E+00   5.8447E-05  0.0128
   4.3790E+00   4.4856E+00   5.4468E-05  0.0131
   4.4856E+00   4.5947E+00   5.2034E-05  0.0133
   4.5947E+00   4.7065E+00   4.8454E-05  0.0136
   4.7065E+00   4.8210E+00   4.7223E-05  0.0136
   4.8210E+00   4.9383E+00   4.5584E-05  0.0137
   4.9383E+00   5.0585E+00   4.2510E-05  0.0140
   5.0585E+00   5.1815E+00   4.1157E-05  0.0140
   5.1815E+00   5.3076E+00   3.9299E-05  0.0142
   5.3076E+00   5.4368E+00   3.7049E-05  0.0144
   5.4368E+00   5.5690E+00   3.5887E-05  0.0145
   5.5690E+00   5.7045E+00   3.3850E-05  0.0148
   5.7045E+00   5.8433E+00   3.2042E-05  0.0150
   5.8433E+00   5.9855E+00   3.1304E-05  0.0150
   5.9855E+00   6.1311E+00   2.9109E-05  0.0153
   6.1311E+00   6.2803E+00   2.8276E-05  0.0154
   6.2803E+00   6.4331E+00   2.7257E-05  0.0155
   6.4331E+00   6.5896E+00   2.5742E-05  0.0157
   6.5896E+00   6.7500E+00   2.3757E-05  0.0162
   6.7500E+00   6.9142E+00   2.2641E-05  0.0164
   6.9142E+00   7.0824E+00   2.1427E-05  0.0166
   7.0824E+00   7.2548E+00   2.0548E-05  0.0168
   7.2548E+00   7.4313E+00   1.9301E-05  0.0171
   7.4313E+00   7.6121E+00   1.8385E-05  0.0173
   7.6121E+00   7.7973E+00   1.7552E-05  0.0175
   7.7973E+00   7.9870E+00   1.6716E-05  0.0177
   7.9870E+00   8.1813E+00   1.5451E-05  0.0182
   8.1813E+00   8.3804E+00   1.5201E-05  0.0182
   8.3804E+00   8.5843E+00   1.4445E-05  0.0184
   8.5843E+00   8.7931E+00   1.4023E-05  0.0185
   8.7931E+00   9.0071E+00   1.3783E-05  0.0184
   9.0071E+00   9.2262E+00   1.2487E-05  0.0191
   9.2262E+00   9.4507E+00   1.2300E-05  0.0190
   9.4507E+00   9.6807E+00   1.1474E-05  0.0195
   9.6807E+00   9.9162E+00   1.1286E-05  0.0194
   9.9162E+00   1.0157E+01   1.0692E-05  0.0197
   1.0157E+01   1.0405E+01   9.8632E-06  0.0202
   1.0405E+01   1.0658E+01   9.8086E-06  0.0201
   1.0658E+01   1.0917E+01   9.5724E-06  0.0201
   1.0917E+01   1.1183E+01   8.7283E-06  0.0208
   1.1183E+01   1.1455E+01   8.4295E-06  0.0209
   1.1455E+01   1.1733E+01   8.2335E-06  0.0209
   1.1733E+01   1.2019E+01   7.7176E-06  0.0213
   1.2019E+01   1.2311E+01   7.0400E-06  0.0220
   1.2311E+01   1.2611E+01   6.4682E-06  0.0227
   1.2611E+01   1.2918E+01   6.4956E-06  0.0224
   1.2918E+01   1.3232E+01   6.1775E-06  0.0227
   1.3232E+01   1.3554E+01   5.8260E-06  0.0231
   1.3554E+01   1.3884E+01   5.6571E-06  0.0231
   1.3884E+01   1.4222E+01   5.3466E-06  0.0235
   1.4222E+01   1.4568E+01   5.2222E-06  0.0235
   1.4568E+01   1.4922E+01   4.8020E-06  0.0242
   1.4922E+01   1.5285E+01   4.4648E-06  0.0248
   1.5285E+01   1.5657E+01   4.0817E-06  0.0257
   1.5657E+01   1.6038E+01   4.0772E-06  0.0254
   1.6038E+01   1.6428E+01   3.8286E-06  0.0259
   1.6428E+01   1.6828E+01   3.4825E-06  0.0268
   1.6828E+01   1.7237E+01   3.2410E-06  0.0275
   1.7237E+01   1.7657E+01   3.1307E-06  0.0276
   1.7657E+01   1.8086E+01   2.7798E-06  0.0289
   1.8086E+01   1.8526E+01   2.9269E-06  0.0279
   1.8526E+01   1.8977E+01   2.9328E-06  0.0275
   1.8977E+01   1.9439E+01   2.6422E-06  0.0286
   1.9439E+01   1.9912E+01   2.5414E-06  0.0288
   1.9912E+01   2.0396E+01   2.0868E-06  0.0315
   2.0396E+01   2.0893E+01   1.9466E-06  0.0322
   2.0893E+01   2.1401E+01   1.7213E-06  0.0338
   2.1401E+01   2.1922E+01   1.4327E-06  0.0366
   2.1922E+01   2.2455E+01   1.3293E-06  0.0376
   2.2455E+01   2.3001E+01   1.0177E-06  0.0424
   2.3001E+01   2.3561E+01   7.8086E-07  0.0478
   2.3561E+01   2.4134E+01   4.7448E-07  0.0606
   2.4134E+01   2.4721E+01   3.2868E-07  0.0720
   2.4721E+01   2.5323E+01   2.0615E-07  0.0898
   2.5323E+01   2.5939E+01   9.2513E-08  0.1325
   2.5939E+01   2.6570E+01   1.7429E-08  0.3015
   2.6570E+01   2.7217E+01   7.7343E-09  0.4472
   2.7217E+01   2.7879E+01   6.0404E-09  0.5000
   2.7879E+01   2.8557E+01   0.0000E+00  0.0000
   2.8557E+01   2.9252E+01   1.4392E-09  1.0000
   2.9252E+01   2.9964E+01   0.0000E+00  0.0000
   2.9964E+01   3.0693E+01   0.0000E+00  0.0000
   3.0693E+01   3.1440E+01   0.0000E+00  0.0000
   3.1440E+01   3.2205E+01   0.0000E+00  0.0000
   3.2205E+01   3.2988E+01   0.0000E+00  0.0000
   3.2988E+01   3.3791E+01   0.0000E+00  0.0000
   3.3791E+01   3.4613E+01   0.0000E+00  0.0000
   3.4613E+01   3.5455E+01   0.0000E+00  0.0000
   3.5455E+01   3.6318E+01   0.0000E+00  0.0000
   3.6318E+01   3.7201E+01   0.0000E+00  0.0000
   3.7201E+01   3.8106E+01   0.0000E+00  0.0000
   3.8106E+01   3.9034E+01   0.0000E+00  0.0000
   3.9034E+01   3.9983E+01   0.0000E+00  0.0000
   3.9983E+01   4.0956E+01   0.0000E+00  0.0000
   4.0956E+01   4.1953E+01   0.0000E+00  0.0000
   4.1953E+01   4.2973E+01   0.0000E+00  0.0000
   4.2973E+01   4.4019E+01   0.0000E+00  0.0000
   4.4019E+01   4.5090E+01   0.0000E+00  0.0000
   4.5090E+01   4.6187E+01   0.0000E+00  0.0000
   4.6187E+01   4.7311E+01   0.0000E+00  0.0000
   4.7311E+01   4.8462E+01   0.0000E+00  0.0000
   4.8462E+01   4.9641E+01   0.0000E+00  0.0000
   4.9641E+01   5.0849E+01   0.0000E+00  0.0000
   5.0849E+01   5.2086E+01   0.0000E+00  0.0000
   5.2086E+01   5.3353E+01   0.0000E+00  0.0000
   5.3353E+01   5.4651E+01   0.0000E+00  0.0000
   5.4651E+01   5.5981E+01   0.0000E+00  0.0000
   5.5981E+01   5.7343E+01   0.0000E+00  0.0000
   5.7343E+01   5.8738E+01   0.0000E+00  0.0000
   5.8738E+01   6.0168E+01   0.0000E+00  0.0000
   6.0168E+01   6.1632E+01   0.0000E+00  0.0000
   6.1632E+01   6.3131E+01   0.0000E+00  0.0000
   6.3131E+01   6.4667E+01   0.0000E+00  0.0000
   6.4667E+01   6.6240E+01   0.0000E+00  0.0000
   6.6240E+01   6.7852E+01   0.0000E+00  0.0000
   6.7852E+01   6.9503E+01   0.0000E+00  0.0000
   6.9503E+01   7.1194E+01   0.0000E+00  0.0000
   7.1194E+01   7.2926E+01   0.0000E+00  0.0000
   7.2926E+01   7.4701E+01   0.0000E+00  0.0000
   7.4701E+01   7.6518E+01   0.0000E+00  0.0000
   7.6518E+01   7.8380E+01   0.0000E+00  0.0000
   7.8380E+01   8.0287E+01   0.0000E+00  0.0000
   8.0287E+01   8.2240E+01   0.0000E+00  0.0000
   8.2240E+01   8.4241E+01   0.0000E+00  0.0000
   8.4241E+01   8.6291E+01   0.0000E+00  0.0000
   8.6291E+01   8.8391E+01   0.0000E+00  0.0000
   8.8391E+01   9.0541E+01   0.0000E+00  0.0000
   9.0541E+01   9.2744E+01   0.0000E+00  0.0000
   9.2744E+01   9.5001E+01   0.0000E+00  0.0000
   9.5001E+01   9.7312E+01   0.0000E+00  0.0000
   9.7312E+01   9.9680E+01   0.0000E+00  0.0000
   9.9680E+01   1.0211E+02   0.0000E+00  0.0000
   1.0211E+02   1.0459E+02   0.0000E+00  0.0000
   1.0459E+02   1.0713E+02   0.0000E+00  0.0000
   1.0713E+02   1.0974E+02   0.0000E+00  0.0000
   1.0974E+02   1.1241E+02   0.0000E+00  0.0000
   1.1241E+02   1.1515E+02   0.0000E+00  0.0000
   1.1515E+02   1.1795E+02   0.0000E+00  0.0000
   1.1795E+02   1.2082E+02   0.0000E+00  0.0000
   1.2082E+02   1.2376E+02   0.0000E+00  0.0000
   1.2376E+02   1.2677E+02   0.0000E+00  0.0000
   1.2677E+02   1.2985E+02   0.0000E+00  0.0000
   1.2985E+02   1.3301E+02   0.0000E+00  0.0000
   1.3301E+02   1.3625E+02   0.0000E+00  0.0000
   1.3625E+02   1.3956E+02   0.0000E+00  0.0000
   1.3956E+02   1.4296E+02   0.0000E+00  0.0000
   1.4296E+02   1.4644E+02   0.0000E+00  0.0000
   1.4644E+02   1.5000E+02   0.0000E+00  0.0000

#   sum over                 4.5778E-06
'no. =    1   reg = 115 - 215'
msuc: {\huge [t-cross] in region mesh}
msdr: {\it plotted by \ANGEL \version}
msdl: {\it calculated by \PHITS  3.26}
wt: s(0.7)
\vspace{-3}
  region surface crossing
  area  &=&   1.0000E+00 [cm^2]
e:
 
# Information for Restart Calculation
# This calculation was newly started
# istdev =  2 # 1:Batch variance, 2:History variance
# resc2  = 1.00000000000000000E+09 # Total source weight or Total source weight / maxcas
# resc3  = 1.00000000000000000E+09 # Total history number or Total batch number
# maxcas =   500000000 # History / Batch, only used for istdev=1
# bitrseed = 0001001110011001001001110000100100110111001111011100001000101100 # bit data of rseed
