[ T-Cross ]
    title = [t-cross] in region mesh
     mesh =  reg            # mesh type is region-wise
      reg =    1            # number of crossing regions
      non     r-from    r-to       area
      1       114       214        1.000000    
   e-type =    3            # e-mesh is log given by emin, emax and ne
     emin =  1.0000000E-02  # minimum value of e-mesh points
     emax =   150.0000      # maximum value of e-mesh points
#    edel =  2.4039514E-02  # mesh width of e-mesh points
       ne =    400          # number of e-mesh points
#    data = ( e(i), i = 1, ne + 1 )
#           1.00000E-02  1.02433E-02  1.04925E-02  1.07478E-02  1.10093E-02
#           1.12772E-02  1.15516E-02  1.18326E-02  1.21205E-02  1.24154E-02
#           1.27175E-02  1.30269E-02  1.33439E-02  1.36686E-02  1.40011E-02
#           1.43418E-02  1.46907E-02  1.50482E-02  1.54143E-02  1.57894E-02
#           1.61735E-02  1.65670E-02  1.69701E-02  1.73830E-02  1.78060E-02
#           1.82392E-02  1.86830E-02  1.91375E-02  1.96032E-02  2.00801E-02
#           2.05687E-02  2.10692E-02  2.15818E-02  2.21069E-02  2.26448E-02
#           2.31957E-02  2.37601E-02  2.43382E-02  2.49304E-02  2.55369E-02
#           2.61583E-02  2.67947E-02  2.74467E-02  2.81145E-02  2.87985E-02
#           2.94992E-02  3.02169E-02  3.09521E-02  3.17052E-02  3.24766E-02
#           3.32668E-02  3.40762E-02  3.49053E-02  3.57546E-02  3.66246E-02
#           3.75157E-02  3.84284E-02  3.93634E-02  4.03212E-02  4.13022E-02
#           4.23071E-02  4.33365E-02  4.43909E-02  4.54710E-02  4.65773E-02
#           4.77106E-02  4.88714E-02  5.00605E-02  5.12785E-02  5.25262E-02
#           5.38042E-02  5.51133E-02  5.64542E-02  5.78278E-02  5.92348E-02
#           6.06760E-02  6.21523E-02  6.36645E-02  6.52135E-02  6.68002E-02
#           6.84255E-02  7.00904E-02  7.17957E-02  7.35426E-02  7.53319E-02
#           7.71648E-02  7.90423E-02  8.09655E-02  8.29354E-02  8.49533E-02
#           8.70203E-02  8.91376E-02  9.13064E-02  9.35279E-02  9.58035E-02
#           9.81345E-02  1.00522E-01  1.02968E-01  1.05473E-01  1.08040E-01
#           1.10668E-01  1.13361E-01  1.16119E-01  1.18944E-01  1.21838E-01
#           1.24803E-01  1.27839E-01  1.30950E-01  1.34136E-01  1.37399E-01
#           1.40742E-01  1.44167E-01  1.47675E-01  1.51268E-01  1.54948E-01
#           1.58718E-01  1.62580E-01  1.66535E-01  1.70587E-01  1.74738E-01
#           1.78989E-01  1.83344E-01  1.87805E-01  1.92375E-01  1.97055E-01
#           2.01850E-01  2.06761E-01  2.11792E-01  2.16945E-01  2.22223E-01
#           2.27630E-01  2.33169E-01  2.38842E-01  2.44653E-01  2.50605E-01
#           2.56703E-01  2.62949E-01  2.69346E-01  2.75900E-01  2.82613E-01
#           2.89489E-01  2.96532E-01  3.03747E-01  3.11138E-01  3.18708E-01
#           3.26462E-01  3.34405E-01  3.42542E-01  3.50876E-01  3.59413E-01
#           3.68158E-01  3.77116E-01  3.86291E-01  3.95690E-01  4.05317E-01
#           4.15179E-01  4.25281E-01  4.35628E-01  4.46227E-01  4.57084E-01
#           4.68205E-01  4.79597E-01  4.91266E-01  5.03219E-01  5.15463E-01
#           5.28005E-01  5.40851E-01  5.54011E-01  5.67490E-01  5.81298E-01
#           5.95441E-01  6.09929E-01  6.24769E-01  6.39970E-01  6.55541E-01
#           6.71491E-01  6.87828E-01  7.04564E-01  7.21706E-01  7.39266E-01
#           7.57253E-01  7.75678E-01  7.94551E-01  8.13883E-01  8.33685E-01
#           8.53969E-01  8.74747E-01  8.96030E-01  9.17831E-01  9.40163E-01
#           9.63038E-01  9.86469E-01  1.01047E+00  1.03506E+00  1.06024E+00
#           1.08604E+00  1.11246E+00  1.13953E+00  1.16725E+00  1.19565E+00
#           1.22474E+00  1.25454E+00  1.28507E+00  1.31633E+00  1.34836E+00
#           1.38117E+00  1.41477E+00  1.44920E+00  1.48446E+00  1.52057E+00
#           1.55757E+00  1.59547E+00  1.63429E+00  1.67405E+00  1.71478E+00
#           1.75650E+00  1.79924E+00  1.84302E+00  1.88786E+00  1.93379E+00
#           1.98084E+00  2.02904E+00  2.07841E+00  2.12898E+00  2.18078E+00
#           2.23384E+00  2.28819E+00  2.34386E+00  2.40089E+00  2.45930E+00
#           2.51914E+00  2.58043E+00  2.64322E+00  2.70753E+00  2.77341E+00
#           2.84088E+00  2.91001E+00  2.98081E+00  3.05333E+00  3.12762E+00
#           3.20372E+00  3.28167E+00  3.36152E+00  3.44330E+00  3.52708E+00
#           3.61290E+00  3.70080E+00  3.79085E+00  3.88308E+00  3.97756E+00
#           4.07434E+00  4.17347E+00  4.27501E+00  4.37903E+00  4.48557E+00
#           4.59471E+00  4.70650E+00  4.82102E+00  4.93832E+00  5.05847E+00
#           5.18155E+00  5.30762E+00  5.43676E+00  5.56904E+00  5.70453E+00
#           5.84333E+00  5.98550E+00  6.13114E+00  6.28031E+00  6.43312E+00
#           6.58964E+00  6.74997E+00  6.91420E+00  7.08243E+00  7.25475E+00
#           7.43126E+00  7.61207E+00  7.79728E+00  7.98700E+00  8.18133E+00
#           8.38038E+00  8.58428E+00  8.79315E+00  9.00709E+00  9.22624E+00
#           9.45072E+00  9.68067E+00  9.91620E+00  1.01575E+01  1.04046E+01
#           1.06578E+01  1.09171E+01  1.11827E+01  1.14548E+01  1.17335E+01
#           1.20190E+01  1.23114E+01  1.26109E+01  1.29178E+01  1.32321E+01
#           1.35540E+01  1.38838E+01  1.42216E+01  1.45676E+01  1.49221E+01
#           1.52851E+01  1.56570E+01  1.60380E+01  1.64282E+01  1.68279E+01
#           1.72374E+01  1.76568E+01  1.80864E+01  1.85264E+01  1.89772E+01
#           1.94389E+01  1.99119E+01  2.03963E+01  2.08926E+01  2.14009E+01
#           2.19216E+01  2.24550E+01  2.30014E+01  2.35610E+01  2.41343E+01
#           2.47215E+01  2.53230E+01  2.59391E+01  2.65702E+01  2.72167E+01
#           2.78789E+01  2.85572E+01  2.92520E+01  2.99637E+01  3.06928E+01
#           3.14396E+01  3.22045E+01  3.29881E+01  3.37907E+01  3.46128E+01
#           3.54550E+01  3.63177E+01  3.72013E+01  3.81064E+01  3.90336E+01
#           3.99833E+01  4.09561E+01  4.19526E+01  4.29734E+01  4.40189E+01
#           4.50900E+01  4.61870E+01  4.73108E+01  4.84619E+01  4.96410E+01
#           5.08488E+01  5.20860E+01  5.33533E+01  5.46514E+01  5.59812E+01
#           5.73432E+01  5.87384E+01  6.01676E+01  6.16315E+01  6.31311E+01
#           6.46671E+01  6.62405E+01  6.78522E+01  6.95031E+01  7.11941E+01
#           7.29263E+01  7.47007E+01  7.65182E+01  7.83800E+01  8.02870E+01
#           8.22405E+01  8.42414E+01  8.62911E+01  8.83906E+01  9.05412E+01
#           9.27442E+01  9.50007E+01  9.73122E+01  9.96799E+01  1.02105E+02
#           1.04589E+02  1.07134E+02  1.09741E+02  1.12411E+02  1.15146E+02
#           1.17948E+02  1.20817E+02  1.23757E+02  1.26768E+02  1.29852E+02
#           1.33012E+02  1.36248E+02  1.39563E+02  1.42959E+02  1.46437E+02
#           1.50000E+02
     unit =    2            # unit is [1/cm^2/(MeV/n)/source]
     axis =  eng            # axis of output
     file = detector-15.out  # file name of output for the above axis
   output = f-curr          # surface crossing forward current spectrum
     part =  neutron  
# kf/name :  2112     
#    used :        main (  %)        temp (  %)       total (  %)
#  memory :         414 (  0)           0 (  0)         414 (  0)

#------------------------------------------------------------------------------
#newpage:
#   no. =    1   reg = 114 - 214

x: Energy [MeV/n]
y:  F-Curr [1/cm^2/(MeV/n)/source]         
p: xlog ylog afac(0.8) form(0.9)
h: n            x            y(neutron ),hh0l   n 
#  e-lower      e-upper      neutron     r.err 
   1.0000E-02   1.0243E-02   2.3790E-04  0.1453
   1.0243E-02   1.0493E-02   2.5912E-04  0.1387
   1.0493E-02   1.0748E-02   2.6530E-04  0.1350
   1.0748E-02   1.1009E-02   2.4757E-04  0.1387
   1.1009E-02   1.1277E-02   2.4287E-04  0.1375
   1.1277E-02   1.1552E-02   2.3867E-04  0.1376
   1.1552E-02   1.1833E-02   2.8964E-04  0.1232
   1.1833E-02   1.2121E-02   2.4171E-04  0.1334
   1.2121E-02   1.2415E-02   2.1417E-04  0.1401
   1.2415E-02   1.2718E-02   2.2272E-04  0.1361
   1.2718E-02   1.3027E-02   2.0857E-04  0.1387
   1.3027E-02   1.3344E-02   1.9469E-04  0.1416
   1.3344E-02   1.3669E-02   2.0502E-04  0.1362
   1.3669E-02   1.4001E-02   2.3986E-04  0.1243
   1.4001E-02   1.4342E-02   2.1200E-04  0.1313
   1.4342E-02   1.4691E-02   1.9802E-04  0.1337
   1.4691E-02   1.5048E-02   1.9688E-04  0.1325
   1.5048E-02   1.5414E-02   1.7563E-04  0.1387
   1.5414E-02   1.5789E-02   1.9584E-04  0.1296
   1.5789E-02   1.6174E-02   1.5215E-04  0.1459
   1.6174E-02   1.6567E-02   1.6337E-04  0.1382
   1.6567E-02   1.6970E-02   2.0275E-04  0.1231
   1.6970E-02   1.7383E-02   1.6673E-04  0.1341
   1.7383E-02   1.7806E-02   1.8453E-04  0.1261
   1.7806E-02   1.8239E-02   1.7009E-04  0.1294
   1.8239E-02   1.8683E-02   1.6190E-04  0.1314
   1.8683E-02   1.9138E-02   1.2635E-04  0.1459
   1.9138E-02   1.9603E-02   1.3590E-04  0.1401
   1.9603E-02   2.0080E-02   1.7582E-04  0.1215
   2.0080E-02   2.0569E-02   1.1192E-04  0.1508
   2.0569E-02   2.1069E-02   1.3971E-04  0.1328
   2.1069E-02   2.1582E-02   1.3571E-04  0.1337
   2.1582E-02   2.2107E-02   1.3029E-04  0.1348
   2.2107E-02   2.2645E-02   1.2026E-04  0.1387
   2.2645E-02   2.3196E-02   1.2531E-04  0.1337
   2.3196E-02   2.3760E-02   9.3144E-05  0.1534
   2.3760E-02   2.4338E-02   1.1848E-04  0.1344
   2.4338E-02   2.4930E-02   1.1577E-04  0.1339
   2.4930E-02   2.5537E-02   1.2034E-04  0.1300
   2.5537E-02   2.6158E-02   1.1031E-04  0.1345
   2.6158E-02   2.6795E-02   1.1522E-04  0.1302
   2.6795E-02   2.7447E-02   1.3184E-04  0.1204
   2.7447E-02   2.8114E-02   1.2112E-04  0.1240
   2.8114E-02   2.8799E-02   1.0065E-04  0.1335
   2.8799E-02   2.9499E-02   8.8662E-05  0.1415
   2.9499E-02   3.0217E-02   9.8025E-05  0.1326
   3.0217E-02   3.0952E-02   1.1408E-04  0.1215
   3.0952E-02   3.1705E-02   7.9297E-05  0.1438
   3.1705E-02   3.2477E-02   9.1511E-05  0.1325
   3.2477E-02   3.3267E-02   8.9301E-05  0.1318
   3.3267E-02   3.4076E-02   7.6957E-05  0.1408
   3.4076E-02   3.4905E-02   1.1044E-04  0.1164
   3.4905E-02   3.5755E-02   8.8715E-05  0.1283
   3.5755E-02   3.6625E-02   6.1495E-05  0.1525
   3.6625E-02   3.7516E-02   9.2069E-05  0.1227
   3.7516E-02   3.8428E-02   8.1973E-05  0.1287
   3.8428E-02   3.9363E-02   9.5443E-05  0.1179
   3.9363E-02   4.0321E-02   7.1494E-05  0.1343
   4.0321E-02   4.1302E-02   8.9428E-05  0.1188
   4.1302E-02   4.2307E-02   8.3464E-05  0.1214
   4.2307E-02   4.3337E-02   8.2602E-05  0.1206
   4.3337E-02   4.4391E-02   9.1426E-05  0.1130
   4.4391E-02   4.5471E-02   9.3751E-05  0.1105
   4.5471E-02   4.6577E-02   7.9947E-05  0.1183
   4.6577E-02   4.7711E-02   7.1164E-05  0.1241
   4.7711E-02   4.8871E-02   7.6666E-05  0.1180
   4.8871E-02   5.0061E-02   5.7379E-05  0.1344
   5.0061E-02   5.1279E-02   7.1491E-05  0.1195
   5.1279E-02   5.2526E-02   5.5488E-05  0.1337
   5.2526E-02   5.3804E-02   5.6723E-05  0.1304
   5.3804E-02   5.5113E-02   7.8647E-05  0.1098
   5.5113E-02   5.6454E-02   7.5942E-05  0.1105
   5.6454E-02   5.7828E-02   6.2537E-05  0.1204
   5.7828E-02   5.9235E-02   4.1544E-05  0.1459
   5.9235E-02   6.0676E-02   5.4684E-05  0.1255
   6.0676E-02   6.2152E-02   4.6984E-05  0.1337
   6.2152E-02   6.3665E-02   5.8366E-05  0.1187
   6.3665E-02   6.5214E-02   5.2059E-05  0.1238
   6.5214E-02   6.6800E-02   5.9311E-05  0.1144
   6.6800E-02   6.8426E-02   4.8209E-05  0.1260
   6.8426E-02   7.0090E-02   4.5145E-05  0.1282
   7.0090E-02   7.1796E-02   4.2866E-05  0.1302
   7.1796E-02   7.3543E-02   6.1585E-05  0.1073
   7.3543E-02   7.5332E-02   5.5112E-05  0.1121
   7.5332E-02   7.7165E-02   4.7990E-05  0.1188
   7.7165E-02   7.9042E-02   4.9147E-05  0.1156
   7.9042E-02   8.0965E-02   4.4909E-05  0.1196
   8.0965E-02   8.2935E-02   4.8149E-05  0.1145
   8.2935E-02   8.4953E-02   3.4995E-05  0.1325
   8.4953E-02   8.7020E-02   3.6689E-05  0.1272
   8.7020E-02   8.9138E-02   3.7238E-05  0.1253
   8.9138E-02   9.1306E-02   3.9488E-05  0.1197
   9.1306E-02   9.3528E-02   3.5757E-05  0.1250
   9.3528E-02   9.5804E-02   4.2678E-05  0.1132
   9.5804E-02   9.8134E-02   3.9406E-05  0.1160
   9.8134E-02   1.0052E-01   4.7792E-05  0.1043
   1.0052E-01   1.0297E-01   4.2664E-05  0.1084
   1.0297E-01   1.0547E-01   4.6626E-05  0.1030
   1.0547E-01   1.0804E-01   5.3676E-05  0.0946
   1.0804E-01   1.1067E-01   4.8950E-05  0.0981
   1.1067E-01   1.1336E-01   4.5899E-05  0.1001
   1.1336E-01   1.1612E-01   4.8999E-05  0.0957
   1.1612E-01   1.1894E-01   4.6175E-05  0.0976
   1.1894E-01   1.2184E-01   6.1465E-05  0.0835
   1.2184E-01   1.2480E-01   6.2049E-05  0.0820
   1.2480E-01   1.2784E-01   6.7370E-05  0.0779
   1.2784E-01   1.3095E-01   6.5372E-05  0.0779
   1.3095E-01   1.3414E-01   6.6584E-05  0.0763
   1.3414E-01   1.3740E-01   6.5879E-05  0.0758
   1.3740E-01   1.4074E-01   6.5961E-05  0.0750
   1.4074E-01   1.4417E-01   7.8837E-05  0.0677
   1.4417E-01   1.4767E-01   8.4498E-05  0.0647
   1.4767E-01   1.5127E-01   7.3993E-05  0.0683
   1.5127E-01   1.5495E-01   8.8491E-05  0.0618
   1.5495E-01   1.5872E-01   7.5126E-05  0.0660
   1.5872E-01   1.6258E-01   9.5764E-05  0.0579
   1.6258E-01   1.6654E-01   8.1223E-05  0.0621
   1.6654E-01   1.7059E-01   1.0696E-04  0.0535
   1.7059E-01   1.7474E-01   9.7447E-05  0.0553
   1.7474E-01   1.7899E-01   9.8847E-05  0.0543
   1.7899E-01   1.8334E-01   1.0408E-04  0.0523
   1.8334E-01   1.8781E-01   1.1023E-04  0.0502
   1.8781E-01   1.9237E-01   1.2108E-04  0.0474
   1.9237E-01   1.9706E-01   1.1802E-04  0.0473
   1.9706E-01   2.0185E-01   1.2675E-04  0.0452
   2.0185E-01   2.0676E-01   1.3643E-04  0.0430
   2.0676E-01   2.1179E-01   1.3401E-04  0.0429
   2.1179E-01   2.1694E-01   1.3808E-04  0.0417
   2.1694E-01   2.2222E-01   1.4241E-04  0.0406
   2.2222E-01   2.2763E-01   1.4961E-04  0.0391
   2.2763E-01   2.3317E-01   1.4255E-04  0.0396
   2.3317E-01   2.3884E-01   1.4977E-04  0.0382
   2.3884E-01   2.4465E-01   1.5279E-04  0.0373
   2.4465E-01   2.5061E-01   1.6311E-04  0.0357
   2.5061E-01   2.5670E-01   1.6596E-04  0.0350
   2.5670E-01   2.6295E-01   1.6844E-04  0.0343
   2.6295E-01   2.6935E-01   1.8181E-04  0.0326
   2.6935E-01   2.7590E-01   1.8371E-04  0.0321
   2.7590E-01   2.8261E-01   1.9145E-04  0.0310
   2.8261E-01   2.8949E-01   1.9570E-04  0.0303
   2.8949E-01   2.9653E-01   1.9593E-04  0.0299
   2.9653E-01   3.0375E-01   2.0406E-04  0.0290
   3.0375E-01   3.1114E-01   2.0332E-04  0.0287
   3.1114E-01   3.1871E-01   2.1801E-04  0.0274
   3.1871E-01   3.2646E-01   2.2014E-04  0.0269
   3.2646E-01   3.3441E-01   2.3223E-04  0.0259
   3.3441E-01   3.4254E-01   2.3313E-04  0.0255
   3.4254E-01   3.5088E-01   2.4232E-04  0.0248
   3.5088E-01   3.5941E-01   2.5153E-04  0.0240
   3.5941E-01   3.6816E-01   2.5449E-04  0.0236
   3.6816E-01   3.7712E-01   2.6379E-04  0.0229
   3.7712E-01   3.8629E-01   2.6386E-04  0.0226
   3.8629E-01   3.9569E-01   2.6890E-04  0.0221
   3.9569E-01   4.0532E-01   2.7336E-04  0.0217
   4.0532E-01   4.1518E-01   2.8573E-04  0.0209
   4.1518E-01   4.2528E-01   2.7456E-04  0.0211
   4.2528E-01   4.3563E-01   2.8032E-04  0.0206
   4.3563E-01   4.4623E-01   2.8963E-04  0.0201
   4.4623E-01   4.5708E-01   2.8934E-04  0.0198
   4.5708E-01   4.6821E-01   3.0909E-04  0.0189
   4.6821E-01   4.7960E-01   2.9908E-04  0.0190
   4.7960E-01   4.9127E-01   3.0135E-04  0.0188
   4.9127E-01   5.0322E-01   3.0260E-04  0.0185
   5.0322E-01   5.1546E-01   3.0400E-04  0.0182
   5.1546E-01   5.2800E-01   3.0716E-04  0.0179
   5.2800E-01   5.4085E-01   3.1110E-04  0.0176
   5.4085E-01   5.5401E-01   3.2580E-04  0.0170
   5.5401E-01   5.6749E-01   3.1743E-04  0.0170
   5.6749E-01   5.8130E-01   3.2391E-04  0.0166
   5.8130E-01   5.9544E-01   3.2284E-04  0.0164
   5.9544E-01   6.0993E-01   3.2408E-04  0.0162
   6.0993E-01   6.2477E-01   3.1873E-04  0.0161
   6.2477E-01   6.3997E-01   3.2590E-04  0.0158
   6.3997E-01   6.5554E-01   3.2191E-04  0.0157
   6.5554E-01   6.7149E-01   3.1531E-04  0.0157
   6.7149E-01   6.8783E-01   3.1296E-04  0.0155
   6.8783E-01   7.0456E-01   3.1157E-04  0.0154
   7.0456E-01   7.2171E-01   3.1425E-04  0.0151
   7.2171E-01   7.3927E-01   3.1587E-04  0.0149
   7.3927E-01   7.5725E-01   3.0524E-04  0.0150
   7.5725E-01   7.7568E-01   3.0324E-04  0.0148
   7.7568E-01   7.9455E-01   2.9250E-04  0.0149
   7.9455E-01   8.1388E-01   2.9182E-04  0.0148
   8.1388E-01   8.3368E-01   2.8403E-04  0.0148
   8.3368E-01   8.5397E-01   2.7497E-04  0.0148
   8.5397E-01   8.7475E-01   2.6002E-04  0.0151
   8.7475E-01   8.9603E-01   2.6443E-04  0.0148
   8.9603E-01   9.1783E-01   2.5101E-04  0.0150
   9.1783E-01   9.4016E-01   2.4466E-04  0.0150
   9.4016E-01   9.6304E-01   2.3556E-04  0.0151
   9.6304E-01   9.8647E-01   2.2729E-04  0.0152
   9.8647E-01   1.0105E+00   2.2095E-04  0.0152
   1.0105E+00   1.0351E+00   2.1872E-04  0.0151
   1.0351E+00   1.0602E+00   2.2065E-04  0.0148
   1.0602E+00   1.0860E+00   2.3020E-04  0.0143
   1.0860E+00   1.1125E+00   2.3491E-04  0.0140
   1.1125E+00   1.1395E+00   2.3996E-04  0.0137
   1.1395E+00   1.1673E+00   2.5087E-04  0.0132
   1.1673E+00   1.1957E+00   2.6022E-04  0.0128
   1.1957E+00   1.2247E+00   2.7140E-04  0.0124
   1.2247E+00   1.2545E+00   2.7421E-04  0.0122
   1.2545E+00   1.2851E+00   2.7367E-04  0.0121
   1.2851E+00   1.3163E+00   2.8714E-04  0.0116
   1.3163E+00   1.3484E+00   2.8952E-04  0.0114
   1.3484E+00   1.3812E+00   2.9671E-04  0.0112
   1.3812E+00   1.4148E+00   3.0518E-04  0.0109
   1.4148E+00   1.4492E+00   3.0425E-04  0.0107
   1.4492E+00   1.4845E+00   3.0021E-04  0.0107
   1.4845E+00   1.5206E+00   3.0773E-04  0.0104
   1.5206E+00   1.5576E+00   3.0241E-04  0.0104
   1.5576E+00   1.5955E+00   3.0899E-04  0.0101
   1.5955E+00   1.6343E+00   3.0224E-04  0.0101
   1.6343E+00   1.6741E+00   3.0849E-04  0.0099
   1.6741E+00   1.7148E+00   3.0508E-04  0.0098
   1.7148E+00   1.7565E+00   3.0218E-04  0.0097
   1.7565E+00   1.7992E+00   2.8894E-04  0.0098
   1.7992E+00   1.8430E+00   2.7592E-04  0.0099
   1.8430E+00   1.8879E+00   2.6355E-04  0.0100
   1.8879E+00   1.9338E+00   2.6840E-04  0.0098
   1.9338E+00   1.9808E+00   2.6182E-04  0.0097
   1.9808E+00   2.0290E+00   2.6035E-04  0.0097
   2.0290E+00   2.0784E+00   2.7612E-04  0.0093
   2.0784E+00   2.1290E+00   2.7015E-04  0.0092
   2.1290E+00   2.1808E+00   2.7305E-04  0.0090
   2.1808E+00   2.2338E+00   2.7310E-04  0.0090
   2.2338E+00   2.2882E+00   2.7130E-04  0.0089
   2.2882E+00   2.3439E+00   2.5716E-04  0.0090
   2.3439E+00   2.4009E+00   2.5701E-04  0.0089
   2.4009E+00   2.4593E+00   2.5804E-04  0.0088
   2.4593E+00   2.5191E+00   2.5741E-04  0.0087
   2.5191E+00   2.5804E+00   2.5262E-04  0.0087
   2.5804E+00   2.6432E+00   2.5153E-04  0.0086
   2.6432E+00   2.7075E+00   2.4842E-04  0.0086
   2.7075E+00   2.7734E+00   2.4219E-04  0.0086
   2.7734E+00   2.8409E+00   2.4018E-04  0.0085
   2.8409E+00   2.9100E+00   2.3702E-04  0.0085
   2.9100E+00   2.9808E+00   2.3635E-04  0.0084
   2.9808E+00   3.0533E+00   2.2960E-04  0.0084
   3.0533E+00   3.1276E+00   2.2554E-04  0.0084
   3.1276E+00   3.2037E+00   2.2158E-04  0.0084
   3.2037E+00   3.2817E+00   2.2241E-04  0.0083
   3.2817E+00   3.3615E+00   2.1553E-04  0.0083
   3.3615E+00   3.4433E+00   2.1216E-04  0.0083
   3.4433E+00   3.5271E+00   2.1447E-04  0.0081
   3.5271E+00   3.6129E+00   2.0802E-04  0.0082
   3.6129E+00   3.7008E+00   2.0264E-04  0.0082
   3.7008E+00   3.7908E+00   1.9859E-04  0.0082
   3.7908E+00   3.8831E+00   1.9435E-04  0.0082
   3.8831E+00   3.9776E+00   1.8879E-04  0.0082
   3.9776E+00   4.0743E+00   1.8664E-04  0.0081
   4.0743E+00   4.1735E+00   1.8100E-04  0.0082
   4.1735E+00   4.2750E+00   1.7470E-04  0.0082
   4.2750E+00   4.3790E+00   1.7165E-04  0.0082
   4.3790E+00   4.4856E+00   1.6714E-04  0.0082
   4.4856E+00   4.5947E+00   1.6003E-04  0.0083
   4.5947E+00   4.7065E+00   1.5502E-04  0.0083
   4.7065E+00   4.8210E+00   1.5226E-04  0.0083
   4.8210E+00   4.9383E+00   1.4840E-04  0.0083
   4.9383E+00   5.0585E+00   1.4371E-04  0.0083
   5.0585E+00   5.1815E+00   1.3966E-04  0.0083
   5.1815E+00   5.3076E+00   1.3450E-04  0.0084
   5.3076E+00   5.4368E+00   1.3071E-04  0.0084
   5.4368E+00   5.5690E+00   1.2655E-04  0.0084
   5.5690E+00   5.7045E+00   1.2381E-04  0.0084
   5.7045E+00   5.8433E+00   1.2030E-04  0.0085
   5.8433E+00   5.9855E+00   1.1544E-04  0.0085
   5.9855E+00   6.1311E+00   1.1364E-04  0.0085
   6.1311E+00   6.2803E+00   1.1028E-04  0.0085
   6.2803E+00   6.4331E+00   1.0719E-04  0.0086
   6.4331E+00   6.5896E+00   1.0113E-04  0.0087
   6.5896E+00   6.7500E+00   9.8311E-05  0.0087
   6.7500E+00   6.9142E+00   9.4115E-05  0.0088
   6.9142E+00   7.0824E+00   9.0553E-05  0.0089
   7.0824E+00   7.2548E+00   8.5694E-05  0.0090
   7.2548E+00   7.4313E+00   8.2388E-05  0.0091
   7.4313E+00   7.6121E+00   7.7876E-05  0.0093
   7.6121E+00   7.7973E+00   7.1986E-05  0.0095
   7.7973E+00   7.9870E+00   7.0239E-05  0.0095
   7.9870E+00   8.1813E+00   6.4918E-05  0.0098
   8.1813E+00   8.3804E+00   6.2035E-05  0.0099
   8.3804E+00   8.5843E+00   5.8155E-05  0.0101
   8.5843E+00   8.7931E+00   5.5799E-05  0.0102
   8.7931E+00   9.0071E+00   5.2024E-05  0.0104
   9.0071E+00   9.2262E+00   4.8773E-05  0.0107
   9.2262E+00   9.4507E+00   4.5826E-05  0.0109
   9.4507E+00   9.6807E+00   4.4902E-05  0.0109
   9.6807E+00   9.9162E+00   4.0972E-05  0.0113
   9.9162E+00   1.0157E+01   4.2310E-05  0.0110
   1.0157E+01   1.0405E+01   3.9311E-05  0.0113
   1.0405E+01   1.0658E+01   3.6574E-05  0.0115
   1.0658E+01   1.0917E+01   3.4239E-05  0.0118
   1.0917E+01   1.1183E+01   3.2230E-05  0.0120
   1.1183E+01   1.1455E+01   3.0989E-05  0.0121
   1.1455E+01   1.1733E+01   2.8563E-05  0.0124
   1.1733E+01   1.2019E+01   2.7223E-05  0.0126
   1.2019E+01   1.2311E+01   2.5509E-05  0.0129
   1.2311E+01   1.2611E+01   2.3727E-05  0.0132
   1.2611E+01   1.2918E+01   2.2989E-05  0.0133
   1.2918E+01   1.3232E+01   2.2033E-05  0.0134
   1.3232E+01   1.3554E+01   2.0630E-05  0.0137
   1.3554E+01   1.3884E+01   2.0304E-05  0.0136
   1.3884E+01   1.4222E+01   1.8759E-05  0.0140
   1.4222E+01   1.4568E+01   1.7893E-05  0.0142
   1.4568E+01   1.4922E+01   1.6596E-05  0.0145
   1.4922E+01   1.5285E+01   1.6057E-05  0.0146
   1.5285E+01   1.5657E+01   1.5166E-05  0.0149
   1.5657E+01   1.6038E+01   1.4084E-05  0.0152
   1.6038E+01   1.6428E+01   1.3373E-05  0.0155
   1.6428E+01   1.6828E+01   1.2528E-05  0.0158
   1.6828E+01   1.7237E+01   1.2247E-05  0.0158
   1.7237E+01   1.7657E+01   1.1117E-05  0.0164
   1.7657E+01   1.8086E+01   1.0423E-05  0.0167
   1.8086E+01   1.8526E+01   9.7257E-06  0.0171
   1.8526E+01   1.8977E+01   9.0172E-06  0.0175
   1.8977E+01   1.9439E+01   8.7268E-06  0.0176
   1.9439E+01   1.9912E+01   8.0438E-06  0.0181
   1.9912E+01   2.0396E+01   7.7765E-06  0.0182
   2.0396E+01   2.0893E+01   7.2946E-06  0.0186
   2.0893E+01   2.1401E+01   6.7820E-06  0.0190
   2.1401E+01   2.1922E+01   6.2272E-06  0.0196
   2.1922E+01   2.2455E+01   5.7676E-06  0.0202
   2.2455E+01   2.3001E+01   5.4430E-06  0.0205
   2.3001E+01   2.3561E+01   4.9407E-06  0.0213
   2.3561E+01   2.4134E+01   4.5333E-06  0.0219
   2.4134E+01   2.4721E+01   4.2340E-06  0.0224
   2.4721E+01   2.5323E+01   3.8030E-06  0.0234
   2.5323E+01   2.5939E+01   3.4530E-06  0.0242
   2.5939E+01   2.6570E+01   3.1155E-06  0.0252
   2.6570E+01   2.7217E+01   2.8153E-06  0.0262
   2.7217E+01   2.7879E+01   2.5880E-06  0.0270
   2.7879E+01   2.8557E+01   2.2943E-06  0.0283
   2.8557E+01   2.9252E+01   2.1301E-06  0.0291
   2.9252E+01   2.9964E+01   1.8178E-06  0.0311
   2.9964E+01   3.0693E+01   1.4454E-06  0.0344
   3.0693E+01   3.1440E+01   1.3357E-06  0.0354
   3.1440E+01   3.2205E+01   1.1275E-06  0.0381
   3.2205E+01   3.2988E+01   1.0545E-06  0.0389
   3.2988E+01   3.3791E+01   8.8771E-07  0.0419
   3.3791E+01   3.4613E+01   7.2067E-07  0.0459
   3.4613E+01   3.5455E+01   6.0262E-07  0.0496
   3.5455E+01   3.6318E+01   4.9702E-07  0.0540
   3.6318E+01   3.7201E+01   4.1165E-07  0.0586
   3.7201E+01   3.8106E+01   3.4249E-07  0.0635
   3.8106E+01   3.9034E+01   3.0335E-07  0.0667
   3.9034E+01   3.9983E+01   2.2507E-07  0.0765
   3.9983E+01   4.0956E+01   1.5804E-07  0.0902
   4.0956E+01   4.1953E+01   1.3924E-07  0.0949
   4.1953E+01   4.2973E+01   1.1266E-07  0.1043
   4.2973E+01   4.4019E+01   9.8032E-08  0.1104
   4.4019E+01   4.5090E+01   6.5359E-08  0.1336
   4.5090E+01   4.6187E+01   3.1903E-08  0.1890
   4.6187E+01   4.7311E+01   2.4471E-08  0.2132
   4.7311E+01   4.8462E+01   1.1945E-08  0.3015
   4.8462E+01   4.9641E+01   5.3006E-09  0.4472
   4.9641E+01   5.0849E+01   6.2096E-09  0.4082
   5.0849E+01   5.2086E+01   0.0000E+00  0.0000
   5.2086E+01   5.3353E+01   0.0000E+00  0.0000
   5.3353E+01   5.4651E+01   1.9258E-09  0.7071
   5.4651E+01   5.5981E+01   0.0000E+00  0.0000
   5.5981E+01   5.7343E+01   0.0000E+00  0.0000
   5.7343E+01   5.8738E+01   0.0000E+00  0.0000
   5.8738E+01   6.0168E+01   0.0000E+00  0.0000
   6.0168E+01   6.1632E+01   0.0000E+00  0.0000
   6.1632E+01   6.3131E+01   0.0000E+00  0.0000
   6.3131E+01   6.4667E+01   0.0000E+00  0.0000
   6.4667E+01   6.6240E+01   0.0000E+00  0.0000
   6.6240E+01   6.7852E+01   0.0000E+00  0.0000
   6.7852E+01   6.9503E+01   0.0000E+00  0.0000
   6.9503E+01   7.1194E+01   0.0000E+00  0.0000
   7.1194E+01   7.2926E+01   0.0000E+00  0.0000
   7.2926E+01   7.4701E+01   0.0000E+00  0.0000
   7.4701E+01   7.6518E+01   0.0000E+00  0.0000
   7.6518E+01   7.8380E+01   0.0000E+00  0.0000
   7.8380E+01   8.0287E+01   0.0000E+00  0.0000
   8.0287E+01   8.2240E+01   0.0000E+00  0.0000
   8.2240E+01   8.4241E+01   0.0000E+00  0.0000
   8.4241E+01   8.6291E+01   0.0000E+00  0.0000
   8.6291E+01   8.8391E+01   0.0000E+00  0.0000
   8.8391E+01   9.0541E+01   0.0000E+00  0.0000
   9.0541E+01   9.2744E+01   0.0000E+00  0.0000
   9.2744E+01   9.5001E+01   0.0000E+00  0.0000
   9.5001E+01   9.7312E+01   0.0000E+00  0.0000
   9.7312E+01   9.9680E+01   0.0000E+00  0.0000
   9.9680E+01   1.0211E+02   0.0000E+00  0.0000
   1.0211E+02   1.0459E+02   0.0000E+00  0.0000
   1.0459E+02   1.0713E+02   0.0000E+00  0.0000
   1.0713E+02   1.0974E+02   0.0000E+00  0.0000
   1.0974E+02   1.1241E+02   0.0000E+00  0.0000
   1.1241E+02   1.1515E+02   0.0000E+00  0.0000
   1.1515E+02   1.1795E+02   0.0000E+00  0.0000
   1.1795E+02   1.2082E+02   0.0000E+00  0.0000
   1.2082E+02   1.2376E+02   0.0000E+00  0.0000
   1.2376E+02   1.2677E+02   0.0000E+00  0.0000
   1.2677E+02   1.2985E+02   0.0000E+00  0.0000
   1.2985E+02   1.3301E+02   0.0000E+00  0.0000
   1.3301E+02   1.3625E+02   0.0000E+00  0.0000
   1.3625E+02   1.3956E+02   0.0000E+00  0.0000
   1.3956E+02   1.4296E+02   0.0000E+00  0.0000
   1.4296E+02   1.4644E+02   0.0000E+00  0.0000
   1.4644E+02   1.5000E+02   0.0000E+00  0.0000

#   sum over                 1.1891E-05
'no. =    1   reg = 114 - 214'
msuc: {\huge [t-cross] in region mesh}
msdr: {\it plotted by \ANGEL \version}
msdl: {\it calculated by \PHITS  3.26}
wt: s(0.7)
\vspace{-3}
  region surface crossing
  area  &=&   1.0000E+00 [cm^2]
e:
 
# Information for Restart Calculation
# This calculation was newly started
# istdev =  2 # 1:Batch variance, 2:History variance
# resc2  = 8.00000000000000000E+08 # Total source weight or Total source weight / maxcas
# resc3  = 8.00000000000000000E+08 # Total history number or Total batch number
# maxcas =   100000000 # History / Batch, only used for istdev=1
# bitrseed = 0100001000001110010000000000111111001100010000001010100011010001 # bit data of rseed
