[ T-Cross ]
    title = [t-cross] in region mesh
     mesh =  reg            # mesh type is region-wise
      reg =    1            # number of crossing regions
      non     r-from    r-to       area
      1       110       210        1.000000    
   e-type =    3            # e-mesh is log given by emin, emax and ne
     emin =  1.0000000E-02  # minimum value of e-mesh points
     emax =   150.0000      # maximum value of e-mesh points
#    edel =  2.4039514E-02  # mesh width of e-mesh points
       ne =    400          # number of e-mesh points
#    data = ( e(i), i = 1, ne + 1 )
#           1.00000E-02  1.02433E-02  1.04925E-02  1.07478E-02  1.10093E-02
#           1.12772E-02  1.15516E-02  1.18326E-02  1.21205E-02  1.24154E-02
#           1.27175E-02  1.30269E-02  1.33439E-02  1.36686E-02  1.40011E-02
#           1.43418E-02  1.46907E-02  1.50482E-02  1.54143E-02  1.57894E-02
#           1.61735E-02  1.65670E-02  1.69701E-02  1.73830E-02  1.78060E-02
#           1.82392E-02  1.86830E-02  1.91375E-02  1.96032E-02  2.00801E-02
#           2.05687E-02  2.10692E-02  2.15818E-02  2.21069E-02  2.26448E-02
#           2.31957E-02  2.37601E-02  2.43382E-02  2.49304E-02  2.55369E-02
#           2.61583E-02  2.67947E-02  2.74467E-02  2.81145E-02  2.87985E-02
#           2.94992E-02  3.02169E-02  3.09521E-02  3.17052E-02  3.24766E-02
#           3.32668E-02  3.40762E-02  3.49053E-02  3.57546E-02  3.66246E-02
#           3.75157E-02  3.84284E-02  3.93634E-02  4.03212E-02  4.13022E-02
#           4.23071E-02  4.33365E-02  4.43909E-02  4.54710E-02  4.65773E-02
#           4.77106E-02  4.88714E-02  5.00605E-02  5.12785E-02  5.25262E-02
#           5.38042E-02  5.51133E-02  5.64542E-02  5.78278E-02  5.92348E-02
#           6.06760E-02  6.21523E-02  6.36645E-02  6.52135E-02  6.68002E-02
#           6.84255E-02  7.00904E-02  7.17957E-02  7.35426E-02  7.53319E-02
#           7.71648E-02  7.90423E-02  8.09655E-02  8.29354E-02  8.49533E-02
#           8.70203E-02  8.91376E-02  9.13064E-02  9.35279E-02  9.58035E-02
#           9.81345E-02  1.00522E-01  1.02968E-01  1.05473E-01  1.08040E-01
#           1.10668E-01  1.13361E-01  1.16119E-01  1.18944E-01  1.21838E-01
#           1.24803E-01  1.27839E-01  1.30950E-01  1.34136E-01  1.37399E-01
#           1.40742E-01  1.44167E-01  1.47675E-01  1.51268E-01  1.54948E-01
#           1.58718E-01  1.62580E-01  1.66535E-01  1.70587E-01  1.74738E-01
#           1.78989E-01  1.83344E-01  1.87805E-01  1.92375E-01  1.97055E-01
#           2.01850E-01  2.06761E-01  2.11792E-01  2.16945E-01  2.22223E-01
#           2.27630E-01  2.33169E-01  2.38842E-01  2.44653E-01  2.50605E-01
#           2.56703E-01  2.62949E-01  2.69346E-01  2.75900E-01  2.82613E-01
#           2.89489E-01  2.96532E-01  3.03747E-01  3.11138E-01  3.18708E-01
#           3.26462E-01  3.34405E-01  3.42542E-01  3.50876E-01  3.59413E-01
#           3.68158E-01  3.77116E-01  3.86291E-01  3.95690E-01  4.05317E-01
#           4.15179E-01  4.25281E-01  4.35628E-01  4.46227E-01  4.57084E-01
#           4.68205E-01  4.79597E-01  4.91266E-01  5.03219E-01  5.15463E-01
#           5.28005E-01  5.40851E-01  5.54011E-01  5.67490E-01  5.81298E-01
#           5.95441E-01  6.09929E-01  6.24769E-01  6.39970E-01  6.55541E-01
#           6.71491E-01  6.87828E-01  7.04564E-01  7.21706E-01  7.39266E-01
#           7.57253E-01  7.75678E-01  7.94551E-01  8.13883E-01  8.33685E-01
#           8.53969E-01  8.74747E-01  8.96030E-01  9.17831E-01  9.40163E-01
#           9.63038E-01  9.86469E-01  1.01047E+00  1.03506E+00  1.06024E+00
#           1.08604E+00  1.11246E+00  1.13953E+00  1.16725E+00  1.19565E+00
#           1.22474E+00  1.25454E+00  1.28507E+00  1.31633E+00  1.34836E+00
#           1.38117E+00  1.41477E+00  1.44920E+00  1.48446E+00  1.52057E+00
#           1.55757E+00  1.59547E+00  1.63429E+00  1.67405E+00  1.71478E+00
#           1.75650E+00  1.79924E+00  1.84302E+00  1.88786E+00  1.93379E+00
#           1.98084E+00  2.02904E+00  2.07841E+00  2.12898E+00  2.18078E+00
#           2.23384E+00  2.28819E+00  2.34386E+00  2.40089E+00  2.45930E+00
#           2.51914E+00  2.58043E+00  2.64322E+00  2.70753E+00  2.77341E+00
#           2.84088E+00  2.91001E+00  2.98081E+00  3.05333E+00  3.12762E+00
#           3.20372E+00  3.28167E+00  3.36152E+00  3.44330E+00  3.52708E+00
#           3.61290E+00  3.70080E+00  3.79085E+00  3.88308E+00  3.97756E+00
#           4.07434E+00  4.17347E+00  4.27501E+00  4.37903E+00  4.48557E+00
#           4.59471E+00  4.70650E+00  4.82102E+00  4.93832E+00  5.05847E+00
#           5.18155E+00  5.30762E+00  5.43676E+00  5.56904E+00  5.70453E+00
#           5.84333E+00  5.98550E+00  6.13114E+00  6.28031E+00  6.43312E+00
#           6.58964E+00  6.74997E+00  6.91420E+00  7.08243E+00  7.25475E+00
#           7.43126E+00  7.61207E+00  7.79728E+00  7.98700E+00  8.18133E+00
#           8.38038E+00  8.58428E+00  8.79315E+00  9.00709E+00  9.22624E+00
#           9.45072E+00  9.68067E+00  9.91620E+00  1.01575E+01  1.04046E+01
#           1.06578E+01  1.09171E+01  1.11827E+01  1.14548E+01  1.17335E+01
#           1.20190E+01  1.23114E+01  1.26109E+01  1.29178E+01  1.32321E+01
#           1.35540E+01  1.38838E+01  1.42216E+01  1.45676E+01  1.49221E+01
#           1.52851E+01  1.56570E+01  1.60380E+01  1.64282E+01  1.68279E+01
#           1.72374E+01  1.76568E+01  1.80864E+01  1.85264E+01  1.89772E+01
#           1.94389E+01  1.99119E+01  2.03963E+01  2.08926E+01  2.14009E+01
#           2.19216E+01  2.24550E+01  2.30014E+01  2.35610E+01  2.41343E+01
#           2.47215E+01  2.53230E+01  2.59391E+01  2.65702E+01  2.72167E+01
#           2.78789E+01  2.85572E+01  2.92520E+01  2.99637E+01  3.06928E+01
#           3.14396E+01  3.22045E+01  3.29881E+01  3.37907E+01  3.46128E+01
#           3.54550E+01  3.63177E+01  3.72013E+01  3.81064E+01  3.90336E+01
#           3.99833E+01  4.09561E+01  4.19526E+01  4.29734E+01  4.40189E+01
#           4.50900E+01  4.61870E+01  4.73108E+01  4.84619E+01  4.96410E+01
#           5.08488E+01  5.20860E+01  5.33533E+01  5.46514E+01  5.59812E+01
#           5.73432E+01  5.87384E+01  6.01676E+01  6.16315E+01  6.31311E+01
#           6.46671E+01  6.62405E+01  6.78522E+01  6.95031E+01  7.11941E+01
#           7.29263E+01  7.47007E+01  7.65182E+01  7.83800E+01  8.02870E+01
#           8.22405E+01  8.42414E+01  8.62911E+01  8.83906E+01  9.05412E+01
#           9.27442E+01  9.50007E+01  9.73122E+01  9.96799E+01  1.02105E+02
#           1.04589E+02  1.07134E+02  1.09741E+02  1.12411E+02  1.15146E+02
#           1.17948E+02  1.20817E+02  1.23757E+02  1.26768E+02  1.29852E+02
#           1.33012E+02  1.36248E+02  1.39563E+02  1.42959E+02  1.46437E+02
#           1.50000E+02
     unit =    2            # unit is [1/cm^2/(MeV/n)/source]
     axis =  eng            # axis of output
     file = detector-11.out  # file name of output for the above axis
   output = f-curr          # surface crossing forward current spectrum
     part =  neutron  
# kf/name :  2112     
#    used :        main (  %)        temp (  %)       total (  %)
#  memory :         414 (  0)           0 (  0)         414 (  0)

#------------------------------------------------------------------------------
#newpage:
#   no. =    1   reg = 110 - 210

x: Energy [MeV/n]
y:  F-Curr [1/cm^2/(MeV/n)/source]         
p: xlog ylog afac(0.8) form(0.9)
h: n            x            y(neutron ),hh0l   n 
#  e-lower      e-upper      neutron     r.err 
   1.0000E-02   1.0243E-02   6.3239E-05  0.1132
   1.0243E-02   1.0493E-02   7.1279E-05  0.1053
   1.0493E-02   1.0748E-02   6.3443E-05  0.1102
   1.0748E-02   1.1009E-02   6.0869E-05  0.1113
   1.1009E-02   1.1277E-02   5.0753E-05  0.1199
   1.1277E-02   1.1552E-02   3.7362E-05  0.1384
   1.1552E-02   1.1833E-02   5.4328E-05  0.1136
   1.1833E-02   1.2121E-02   4.2585E-05  0.1267
   1.2121E-02   1.2415E-02   4.7638E-05  0.1188
   1.2415E-02   1.2718E-02   4.9686E-05  0.1146
   1.2718E-02   1.3027E-02   4.3284E-05  0.1212
   1.3027E-02   1.3344E-02   4.2577E-05  0.1203
   1.3344E-02   1.3669E-02   4.4705E-05  0.1168
   1.3669E-02   1.4001E-02   3.6930E-05  0.1271
   1.4001E-02   1.4342E-02   3.9861E-05  0.1210
   1.4342E-02   1.4691E-02   4.0422E-05  0.1182
   1.4691E-02   1.5048E-02   4.4483E-05  0.1114
   1.5048E-02   1.5414E-02   4.5927E-05  0.1086
   1.5414E-02   1.5789E-02   4.2640E-05  0.1116
   1.5789E-02   1.6174E-02   4.1487E-05  0.1115
   1.6174E-02   1.6567E-02   3.4962E-05  0.1204
   1.6567E-02   1.6970E-02   3.3962E-05  0.1198
   1.6970E-02   1.7383E-02   3.3885E-05  0.1188
   1.7383E-02   1.7806E-02   3.4399E-05  0.1162
   1.7806E-02   1.8239E-02   2.7136E-05  0.1302
   1.8239E-02   1.8683E-02   2.7923E-05  0.1263
   1.8683E-02   1.9138E-02   3.1396E-05  0.1180
   1.9138E-02   1.9603E-02   3.5663E-05  0.1095
   1.9603E-02   2.0080E-02   2.7868E-05  0.1216
   2.0080E-02   2.0569E-02   3.4669E-05  0.1082
   2.0569E-02   2.1069E-02   2.7757E-05  0.1196
   2.1069E-02   2.1582E-02   3.3721E-05  0.1073
   2.1582E-02   2.2107E-02   2.6146E-05  0.1200
   2.2107E-02   2.2645E-02   3.0067E-05  0.1106
   2.2645E-02   2.3196E-02   3.0531E-05  0.1086
   2.3196E-02   2.3760E-02   2.4172E-05  0.1206
   2.3760E-02   2.4338E-02   2.5216E-05  0.1167
   2.4338E-02   2.4930E-02   2.2085E-05  0.1228
   2.4930E-02   2.5537E-02   2.6606E-05  0.1106
   2.5537E-02   2.6158E-02   1.7299E-05  0.1357
   2.6158E-02   2.6795E-02   2.2616E-05  0.1172
   2.6795E-02   2.7447E-02   1.9502E-05  0.1250
   2.7447E-02   2.8114E-02   2.4163E-05  0.1111
   2.8114E-02   2.8799E-02   2.1712E-05  0.1155
   2.8799E-02   2.9499E-02   2.5865E-05  0.1044
   2.9499E-02   3.0217E-02   1.6204E-05  0.1304
   3.0217E-02   3.0952E-02   2.0265E-05  0.1155
   3.0952E-02   3.1705E-02   2.2667E-05  0.1072
   3.1705E-02   3.2477E-02   2.0560E-05  0.1114
   3.2477E-02   3.3267E-02   2.1078E-05  0.1092
   3.3267E-02   3.4076E-02   2.0042E-05  0.1105
   3.4076E-02   3.4905E-02   2.2514E-05  0.1028
   3.4905E-02   3.5755E-02   2.0080E-05  0.1076
   3.5755E-02   3.6625E-02   1.8686E-05  0.1103
   3.6625E-02   3.7516E-02   1.8741E-05  0.1087
   3.7516E-02   3.8428E-02   1.7511E-05  0.1113
   3.8428E-02   3.9363E-02   2.0149E-05  0.1023
   3.9363E-02   4.0321E-02   1.6507E-05  0.1115
   4.0321E-02   4.1302E-02   1.6191E-05  0.1114
   4.1302E-02   4.2307E-02   1.5563E-05  0.1126
   4.2307E-02   4.3337E-02   1.5481E-05  0.1115
   4.3337E-02   4.4391E-02   1.8445E-05  0.1006
   4.4391E-02   4.5471E-02   1.6788E-05  0.1043
   4.5471E-02   4.6577E-02   1.5006E-05  0.1092
   4.6577E-02   4.7711E-02   1.4036E-05  0.1116
   4.7711E-02   4.8871E-02   1.2238E-05  0.1181
   4.8871E-02   5.0061E-02   1.4531E-05  0.1069
   5.0061E-02   5.1279E-02   1.5495E-05  0.1021
   5.1279E-02   5.2526E-02   1.6164E-05  0.0990
   5.2526E-02   5.3804E-02   1.5409E-05  0.1005
   5.3804E-02   5.5113E-02   1.2011E-05  0.1122
   5.5113E-02   5.6454E-02   1.1482E-05  0.1134
   5.6454E-02   5.7828E-02   1.2620E-05  0.1068
   5.7828E-02   5.9235E-02   1.3227E-05  0.1030
   5.9235E-02   6.0676E-02   1.2016E-05  0.1070
   6.0676E-02   6.2152E-02   1.1082E-05  0.1095
   6.2152E-02   6.3665E-02   1.0017E-05  0.1141
   6.3665E-02   6.5214E-02   8.5908E-06  0.1222
   6.5214E-02   6.6800E-02   9.5205E-06  0.1142
   6.6800E-02   6.8426E-02   1.0269E-05  0.1087
   6.8426E-02   7.0090E-02   1.0741E-05  0.1055
   7.0090E-02   7.1796E-02   9.5206E-06  0.1103
   7.1796E-02   7.3543E-02   9.7251E-06  0.1076
   7.3543E-02   7.5332E-02   1.0552E-05  0.1023
   7.5332E-02   7.7165E-02   1.0364E-05  0.1022
   7.7165E-02   7.9042E-02   9.5923E-06  0.1048
   7.9042E-02   8.0965E-02   9.7942E-06  0.1026
   8.0965E-02   8.2935E-02   1.0165E-05  0.0992
   8.2935E-02   8.4953E-02   9.1291E-06  0.1038
   8.4953E-02   8.7020E-02   1.0005E-05  0.0976
   8.7020E-02   8.9138E-02   1.0394E-05  0.0949
   8.9138E-02   9.1306E-02   9.2760E-06  0.0991
   9.1306E-02   9.3528E-02   8.9161E-06  0.0996
   9.3528E-02   9.5804E-02   1.0459E-05  0.0910
   9.5804E-02   9.8134E-02   9.1654E-06  0.0961
   9.8134E-02   1.0052E-01   8.6801E-06  0.0975
   1.0052E-01   1.0297E-01   9.2932E-06  0.0930
   1.0297E-01   1.0547E-01   9.2754E-06  0.0923
   1.0547E-01   1.0804E-01   1.0175E-05  0.0871
   1.0804E-01   1.1067E-01   1.1418E-05  0.0814
   1.1067E-01   1.1336E-01   1.0468E-05  0.0838
   1.1336E-01   1.1612E-01   1.1645E-05  0.0786
   1.1612E-01   1.1894E-01   1.2694E-05  0.0744
   1.1894E-01   1.2184E-01   1.1597E-05  0.0769
   1.2184E-01   1.2480E-01   1.4493E-05  0.0679
   1.2480E-01   1.2784E-01   1.4648E-05  0.0667
   1.2784E-01   1.3095E-01   1.5317E-05  0.0644
   1.3095E-01   1.3414E-01   1.3933E-05  0.0667
   1.3414E-01   1.3740E-01   1.5689E-05  0.0622
   1.3740E-01   1.4074E-01   1.5560E-05  0.0617
   1.4074E-01   1.4417E-01   1.7762E-05  0.0571
   1.4417E-01   1.4767E-01   1.8796E-05  0.0548
   1.4767E-01   1.5127E-01   1.9299E-05  0.0534
   1.5127E-01   1.5495E-01   1.9839E-05  0.0521
   1.5495E-01   1.5872E-01   2.1031E-05  0.0500
   1.5872E-01   1.6258E-01   2.2593E-05  0.0477
   1.6258E-01   1.6654E-01   2.3516E-05  0.0462
   1.6654E-01   1.7059E-01   2.5064E-05  0.0441
   1.7059E-01   1.7474E-01   2.6105E-05  0.0428
   1.7474E-01   1.7899E-01   2.7625E-05  0.0411
   1.7899E-01   1.8334E-01   2.6581E-05  0.0414
   1.8334E-01   1.8781E-01   3.1817E-05  0.0374
   1.8781E-01   1.9237E-01   2.9851E-05  0.0381
   1.9237E-01   1.9706E-01   3.1658E-05  0.0366
   1.9706E-01   2.0185E-01   3.4312E-05  0.0347
   2.0185E-01   2.0676E-01   3.6253E-05  0.0334
   2.0676E-01   2.1179E-01   3.7170E-05  0.0326
   2.1179E-01   2.1694E-01   3.6710E-05  0.0324
   2.1694E-01   2.2222E-01   4.0614E-05  0.0304
   2.2222E-01   2.2763E-01   4.1653E-05  0.0297
   2.2763E-01   2.3317E-01   4.3429E-05  0.0287
   2.3317E-01   2.3884E-01   4.5587E-05  0.0277
   2.3884E-01   2.4465E-01   4.5223E-05  0.0275
   2.4465E-01   2.5061E-01   5.0363E-05  0.0257
   2.5061E-01   2.5670E-01   5.0317E-05  0.0254
   2.5670E-01   2.6295E-01   5.3104E-05  0.0245
   2.6295E-01   2.6935E-01   5.7001E-05  0.0233
   2.6935E-01   2.7590E-01   5.7568E-05  0.0229
   2.7590E-01   2.8261E-01   6.0166E-05  0.0222
   2.8261E-01   2.8949E-01   6.3182E-05  0.0214
   2.8949E-01   2.9653E-01   6.8639E-05  0.0203
   2.9653E-01   3.0375E-01   6.9799E-05  0.0198
   3.0375E-01   3.1114E-01   7.4935E-05  0.0189
   3.1114E-01   3.1871E-01   7.6736E-05  0.0185
   3.1871E-01   3.2646E-01   8.0084E-05  0.0179
   3.2646E-01   3.3441E-01   8.3417E-05  0.0173
   3.3441E-01   3.4254E-01   8.5273E-05  0.0169
   3.4254E-01   3.5088E-01   8.6824E-05  0.0166
   3.5088E-01   3.5941E-01   9.4725E-05  0.0157
   3.5941E-01   3.6816E-01   9.5194E-05  0.0154
   3.6816E-01   3.7712E-01   1.0059E-04  0.0148
   3.7712E-01   3.8629E-01   1.0551E-04  0.0143
   3.8629E-01   3.9569E-01   1.0796E-04  0.0140
   3.9569E-01   4.0532E-01   1.1269E-04  0.0135
   4.0532E-01   4.1518E-01   1.1637E-04  0.0131
   4.1518E-01   4.2528E-01   1.2363E-04  0.0126
   4.2528E-01   4.3563E-01   1.2520E-04  0.0124
   4.3563E-01   4.4623E-01   1.2760E-04  0.0121
   4.4623E-01   4.5708E-01   1.3161E-04  0.0118
   4.5708E-01   4.6821E-01   1.3425E-04  0.0115
   4.6821E-01   4.7960E-01   1.3823E-04  0.0112
   4.7960E-01   4.9127E-01   1.4241E-04  0.0109
   4.9127E-01   5.0322E-01   1.4791E-04  0.0106
   5.0322E-01   5.1546E-01   1.5189E-04  0.0103
   5.1546E-01   5.2800E-01   1.5475E-04  0.0101
   5.2800E-01   5.4085E-01   1.6024E-04  0.0098
   5.4085E-01   5.5401E-01   1.6476E-04  0.0096
   5.5401E-01   5.6749E-01   1.6649E-04  0.0094
   5.6749E-01   5.8130E-01   1.7143E-04  0.0092
   5.8130E-01   5.9544E-01   1.7459E-04  0.0090
   5.9544E-01   6.0993E-01   1.7994E-04  0.0087
   6.0993E-01   6.2477E-01   1.8539E-04  0.0085
   6.2477E-01   6.3997E-01   1.8515E-04  0.0084
   6.3997E-01   6.5554E-01   1.8992E-04  0.0082
   6.5554E-01   6.7149E-01   1.9127E-04  0.0081
   6.7149E-01   6.8783E-01   1.9403E-04  0.0079
   6.8783E-01   7.0456E-01   1.9719E-04  0.0077
   7.0456E-01   7.2171E-01   2.0136E-04  0.0076
   7.2171E-01   7.3927E-01   2.0435E-04  0.0074
   7.3927E-01   7.5725E-01   2.0380E-04  0.0074
   7.5725E-01   7.7568E-01   2.0763E-04  0.0072
   7.7568E-01   7.9455E-01   2.1079E-04  0.0071
   7.9455E-01   8.1388E-01   2.1111E-04  0.0070
   8.1388E-01   8.3368E-01   2.1195E-04  0.0069
   8.3368E-01   8.5397E-01   2.1468E-04  0.0067
   8.5397E-01   8.7475E-01   2.1410E-04  0.0067
   8.7475E-01   8.9603E-01   2.1497E-04  0.0066
   8.9603E-01   9.1783E-01   2.1561E-04  0.0065
   9.1783E-01   9.4016E-01   2.1467E-04  0.0064
   9.4016E-01   9.6304E-01   2.1274E-04  0.0064
   9.6304E-01   9.8647E-01   2.1203E-04  0.0063
   9.8647E-01   1.0105E+00   2.1187E-04  0.0062
   1.0105E+00   1.0351E+00   2.0931E-04  0.0062
   1.0351E+00   1.0602E+00   2.0648E-04  0.0062
   1.0602E+00   1.0860E+00   2.0970E-04  0.0060
   1.0860E+00   1.1125E+00   2.1208E-04  0.0059
   1.1125E+00   1.1395E+00   2.1276E-04  0.0059
   1.1395E+00   1.1673E+00   2.1368E-04  0.0058
   1.1673E+00   1.1957E+00   2.1832E-04  0.0056
   1.1957E+00   1.2247E+00   2.1865E-04  0.0056
   1.2247E+00   1.2545E+00   2.1748E-04  0.0055
   1.2545E+00   1.2851E+00   2.2033E-04  0.0054
   1.2851E+00   1.3163E+00   2.1942E-04  0.0054
   1.3163E+00   1.3484E+00   2.1969E-04  0.0053
   1.3484E+00   1.3812E+00   2.2017E-04  0.0052
   1.3812E+00   1.4148E+00   2.2169E-04  0.0051
   1.4148E+00   1.4492E+00   2.2267E-04  0.0051
   1.4492E+00   1.4845E+00   2.2230E-04  0.0050
   1.4845E+00   1.5206E+00   2.2353E-04  0.0049
   1.5206E+00   1.5576E+00   2.2131E-04  0.0049
   1.5576E+00   1.5955E+00   2.2150E-04  0.0048
   1.5955E+00   1.6343E+00   2.2110E-04  0.0048
   1.6343E+00   1.6741E+00   2.1669E-04  0.0048
   1.6741E+00   1.7148E+00   2.1657E-04  0.0047
   1.7148E+00   1.7565E+00   2.1239E-04  0.0047
   1.7565E+00   1.7992E+00   2.0256E-04  0.0047
   1.7992E+00   1.8430E+00   1.9174E-04  0.0048
   1.8430E+00   1.8879E+00   1.8217E-04  0.0048
   1.8879E+00   1.9338E+00   1.7737E-04  0.0048
   1.9338E+00   1.9808E+00   1.7245E-04  0.0048
   1.9808E+00   2.0290E+00   1.7175E-04  0.0048
   2.0290E+00   2.0784E+00   1.7143E-04  0.0047
   2.0784E+00   2.1290E+00   1.7157E-04  0.0047
   2.1290E+00   2.1808E+00   1.7573E-04  0.0045
   2.1808E+00   2.2338E+00   1.7833E-04  0.0044
   2.2338E+00   2.2882E+00   1.7691E-04  0.0044
   2.2882E+00   2.3439E+00   1.7017E-04  0.0045
   2.3439E+00   2.4009E+00   1.6536E-04  0.0045
   2.4009E+00   2.4593E+00   1.6450E-04  0.0044
   2.4593E+00   2.5191E+00   1.6443E-04  0.0044
   2.5191E+00   2.5804E+00   1.6218E-04  0.0044
   2.5804E+00   2.6432E+00   1.6035E-04  0.0043
   2.6432E+00   2.7075E+00   1.5890E-04  0.0043
   2.7075E+00   2.7734E+00   1.5631E-04  0.0043
   2.7734E+00   2.8409E+00   1.5596E-04  0.0042
   2.8409E+00   2.9100E+00   1.5523E-04  0.0042
   2.9100E+00   2.9808E+00   1.5109E-04  0.0042
   2.9808E+00   3.0533E+00   1.5036E-04  0.0042
   3.0533E+00   3.1276E+00   1.4849E-04  0.0042
   3.1276E+00   3.2037E+00   1.4669E-04  0.0041
   3.2037E+00   3.2817E+00   1.4605E-04  0.0041
   3.2817E+00   3.3615E+00   1.4339E-04  0.0041
   3.3615E+00   3.4433E+00   1.4274E-04  0.0040
   3.4433E+00   3.5271E+00   1.4117E-04  0.0040
   3.5271E+00   3.6129E+00   1.3881E-04  0.0040
   3.6129E+00   3.7008E+00   1.3777E-04  0.0040
   3.7008E+00   3.7908E+00   1.3674E-04  0.0040
   3.7908E+00   3.8831E+00   1.3511E-04  0.0039
   3.8831E+00   3.9776E+00   1.3151E-04  0.0039
   3.9776E+00   4.0743E+00   1.2987E-04  0.0039
   4.0743E+00   4.1735E+00   1.2811E-04  0.0039
   4.1735E+00   4.2750E+00   1.2461E-04  0.0039
   4.2750E+00   4.3790E+00   1.2155E-04  0.0039
   4.3790E+00   4.4856E+00   1.1849E-04  0.0039
   4.4856E+00   4.5947E+00   1.1640E-04  0.0039
   4.5947E+00   4.7065E+00   1.1465E-04  0.0039
   4.7065E+00   4.8210E+00   1.1203E-04  0.0039
   4.8210E+00   4.9383E+00   1.1003E-04  0.0039
   4.9383E+00   5.0585E+00   1.0841E-04  0.0038
   5.0585E+00   5.1815E+00   1.0711E-04  0.0038
   5.1815E+00   5.3076E+00   1.0508E-04  0.0038
   5.3076E+00   5.4368E+00   1.0366E-04  0.0038
   5.4368E+00   5.5690E+00   1.0183E-04  0.0038
   5.5690E+00   5.7045E+00   9.9908E-05  0.0038
   5.7045E+00   5.8433E+00   9.8723E-05  0.0037
   5.8433E+00   5.9855E+00   9.7255E-05  0.0037
   5.9855E+00   6.1311E+00   9.5883E-05  0.0037
   6.1311E+00   6.2803E+00   9.4556E-05  0.0037
   6.2803E+00   6.4331E+00   9.3265E-05  0.0037
   6.4331E+00   6.5896E+00   9.1983E-05  0.0037
   6.5896E+00   6.7500E+00   8.9886E-05  0.0037
   6.7500E+00   6.9142E+00   8.8147E-05  0.0037
   6.9142E+00   7.0824E+00   8.7556E-05  0.0036
   7.0824E+00   7.2548E+00   8.5387E-05  0.0036
   7.2548E+00   7.4313E+00   8.4282E-05  0.0036
   7.4313E+00   7.6121E+00   8.2655E-05  0.0036
   7.6121E+00   7.7973E+00   8.1153E-05  0.0036
   7.7973E+00   7.9870E+00   7.9552E-05  0.0036
   7.9870E+00   8.1813E+00   7.7895E-05  0.0036
   8.1813E+00   8.3804E+00   7.5325E-05  0.0036
   8.3804E+00   8.5843E+00   7.3900E-05  0.0036
   8.5843E+00   8.7931E+00   7.1870E-05  0.0036
   8.7931E+00   9.0071E+00   6.9867E-05  0.0036
   9.0071E+00   9.2262E+00   6.7314E-05  0.0036
   9.2262E+00   9.4507E+00   6.5435E-05  0.0037
   9.4507E+00   9.6807E+00   6.2579E-05  0.0037
   9.6807E+00   9.9162E+00   6.0963E-05  0.0037
   9.9162E+00   1.0157E+01   6.2402E-05  0.0036
   1.0157E+01   1.0405E+01   6.0628E-05  0.0036
   1.0405E+01   1.0658E+01   5.8421E-05  0.0037
   1.0658E+01   1.0917E+01   5.5789E-05  0.0037
   1.0917E+01   1.1183E+01   5.2792E-05  0.0038
   1.1183E+01   1.1455E+01   5.1057E-05  0.0038
   1.1455E+01   1.1733E+01   4.8961E-05  0.0038
   1.1733E+01   1.2019E+01   4.7011E-05  0.0039
   1.2019E+01   1.2311E+01   4.5204E-05  0.0039
   1.2311E+01   1.2611E+01   4.3276E-05  0.0039
   1.2611E+01   1.2918E+01   4.1168E-05  0.0040
   1.2918E+01   1.3232E+01   3.8923E-05  0.0040
   1.3232E+01   1.3554E+01   3.7024E-05  0.0041
   1.3554E+01   1.3884E+01   3.4994E-05  0.0042
   1.3884E+01   1.4222E+01   3.3152E-05  0.0042
   1.4222E+01   1.4568E+01   3.1025E-05  0.0043
   1.4568E+01   1.4922E+01   2.9481E-05  0.0044
   1.4922E+01   1.5285E+01   2.7355E-05  0.0045
   1.5285E+01   1.5657E+01   2.5489E-05  0.0046
   1.5657E+01   1.6038E+01   2.3643E-05  0.0047
   1.6038E+01   1.6428E+01   2.1954E-05  0.0048
   1.6428E+01   1.6828E+01   2.0242E-05  0.0050
   1.6828E+01   1.7237E+01   1.8824E-05  0.0051
   1.7237E+01   1.7657E+01   1.6990E-05  0.0053
   1.7657E+01   1.8086E+01   1.5471E-05  0.0055
   1.8086E+01   1.8526E+01   1.4074E-05  0.0057
   1.8526E+01   1.8977E+01   1.2748E-05  0.0059
   1.8977E+01   1.9439E+01   1.1319E-05  0.0062
   1.9439E+01   1.9912E+01   1.0253E-05  0.0064
   1.9912E+01   2.0396E+01   9.1638E-06  0.0067
   2.0396E+01   2.0893E+01   8.2566E-06  0.0070
   2.0893E+01   2.1401E+01   7.1862E-06  0.0074
   2.1401E+01   2.1922E+01   6.1598E-06  0.0079
   2.1922E+01   2.2455E+01   5.2864E-06  0.0084
   2.2455E+01   2.3001E+01   4.5908E-06  0.0089
   2.3001E+01   2.3561E+01   3.9275E-06  0.0095
   2.3561E+01   2.4134E+01   3.4456E-06  0.0101
   2.4134E+01   2.4721E+01   3.6982E-06  0.0096
   2.4721E+01   2.5323E+01   8.6299E-06  0.0062
   2.5323E+01   2.5939E+01   1.4434E-05  0.0047
   2.5939E+01   2.6570E+01   1.5069E-05  0.0046
   2.6570E+01   2.7217E+01   1.4787E-05  0.0046
   2.7217E+01   2.7879E+01   1.4431E-05  0.0046
   2.7879E+01   2.8557E+01   1.4003E-05  0.0046
   2.8557E+01   2.9252E+01   1.3490E-05  0.0046
   2.9252E+01   2.9964E+01   1.2983E-05  0.0047
   2.9964E+01   3.0693E+01   1.2541E-05  0.0047
   3.0693E+01   3.1440E+01   1.0007E-05  0.0052
   3.1440E+01   3.2205E+01   3.2358E-06  0.0090
   3.2205E+01   3.2988E+01   2.4657E-07  0.0322
   3.2988E+01   3.3791E+01   2.8905E-08  0.0928
   3.3791E+01   3.4613E+01   1.4596E-09  0.4082
   3.4613E+01   3.5455E+01   2.1374E-09  0.3333
   3.5455E+01   3.6318E+01   6.9553E-10  0.5774
   3.6318E+01   3.7201E+01   4.5267E-10  0.7071
   3.7201E+01   3.8106E+01   0.0000E+00  0.0000
   3.8106E+01   3.9034E+01   2.1571E-10  1.0000
   3.9034E+01   3.9983E+01   2.1059E-10  1.0000
   3.9983E+01   4.0956E+01   0.0000E+00  0.0000
   4.0956E+01   4.1953E+01   0.0000E+00  0.0000
   4.1953E+01   4.2973E+01   0.0000E+00  0.0000
   4.2973E+01   4.4019E+01   0.0000E+00  0.0000
   4.4019E+01   4.5090E+01   0.0000E+00  0.0000
   4.5090E+01   4.6187E+01   0.0000E+00  0.0000
   4.6187E+01   4.7311E+01   0.0000E+00  0.0000
   4.7311E+01   4.8462E+01   0.0000E+00  0.0000
   4.8462E+01   4.9641E+01   0.0000E+00  0.0000
   4.9641E+01   5.0849E+01   0.0000E+00  0.0000
   5.0849E+01   5.2086E+01   0.0000E+00  0.0000
   5.2086E+01   5.3353E+01   0.0000E+00  0.0000
   5.3353E+01   5.4651E+01   0.0000E+00  0.0000
   5.4651E+01   5.5981E+01   0.0000E+00  0.0000
   5.5981E+01   5.7343E+01   0.0000E+00  0.0000
   5.7343E+01   5.8738E+01   0.0000E+00  0.0000
   5.8738E+01   6.0168E+01   0.0000E+00  0.0000
   6.0168E+01   6.1632E+01   0.0000E+00  0.0000
   6.1632E+01   6.3131E+01   0.0000E+00  0.0000
   6.3131E+01   6.4667E+01   0.0000E+00  0.0000
   6.4667E+01   6.6240E+01   0.0000E+00  0.0000
   6.6240E+01   6.7852E+01   0.0000E+00  0.0000
   6.7852E+01   6.9503E+01   0.0000E+00  0.0000
   6.9503E+01   7.1194E+01   0.0000E+00  0.0000
   7.1194E+01   7.2926E+01   0.0000E+00  0.0000
   7.2926E+01   7.4701E+01   0.0000E+00  0.0000
   7.4701E+01   7.6518E+01   0.0000E+00  0.0000
   7.6518E+01   7.8380E+01   0.0000E+00  0.0000
   7.8380E+01   8.0287E+01   0.0000E+00  0.0000
   8.0287E+01   8.2240E+01   0.0000E+00  0.0000
   8.2240E+01   8.4241E+01   0.0000E+00  0.0000
   8.4241E+01   8.6291E+01   0.0000E+00  0.0000
   8.6291E+01   8.8391E+01   0.0000E+00  0.0000
   8.8391E+01   9.0541E+01   0.0000E+00  0.0000
   9.0541E+01   9.2744E+01   0.0000E+00  0.0000
   9.2744E+01   9.5001E+01   0.0000E+00  0.0000
   9.5001E+01   9.7312E+01   0.0000E+00  0.0000
   9.7312E+01   9.9680E+01   0.0000E+00  0.0000
   9.9680E+01   1.0211E+02   0.0000E+00  0.0000
   1.0211E+02   1.0459E+02   0.0000E+00  0.0000
   1.0459E+02   1.0713E+02   0.0000E+00  0.0000
   1.0713E+02   1.0974E+02   0.0000E+00  0.0000
   1.0974E+02   1.1241E+02   0.0000E+00  0.0000
   1.1241E+02   1.1515E+02   0.0000E+00  0.0000
   1.1515E+02   1.1795E+02   0.0000E+00  0.0000
   1.1795E+02   1.2082E+02   0.0000E+00  0.0000
   1.2082E+02   1.2376E+02   0.0000E+00  0.0000
   1.2376E+02   1.2677E+02   0.0000E+00  0.0000
   1.2677E+02   1.2985E+02   0.0000E+00  0.0000
   1.2985E+02   1.3301E+02   0.0000E+00  0.0000
   1.3301E+02   1.3625E+02   0.0000E+00  0.0000
   1.3625E+02   1.3956E+02   0.0000E+00  0.0000
   1.3956E+02   1.4296E+02   0.0000E+00  0.0000
   1.4296E+02   1.4644E+02   0.0000E+00  0.0000
   1.4644E+02   1.5000E+02   0.0000E+00  0.0000

#   sum over                 1.0652E-05
'no. =    1   reg = 110 - 210'
msuc: {\huge [t-cross] in region mesh}
msdr: {\it plotted by \ANGEL \version}
msdl: {\it calculated by \PHITS  3.26}
wt: s(0.7)
\vspace{-3}
  region surface crossing
  area  &=&   1.0000E+00 [cm^2]
e:
 
# Information for Restart Calculation
# This calculation was newly started
# istdev =  2 # 1:Batch variance, 2:History variance
# resc2  = 5.00000000000000000E+09 # Total source weight or Total source weight / maxcas
# resc3  = 5.00000000000000000E+09 # Total history number or Total batch number
# maxcas =   100000000 # History / Batch, only used for istdev=1
# bitrseed = 0110100000100010111000001110001111001110100100011111101000111001 # bit data of rseed
