[ T-Cross ]
    title = [t-cross] in region mesh
     mesh =  reg            # mesh type is region-wise
      reg =    1            # number of crossing regions
      non     r-from    r-to       area
      1       118       218        1.000000    
   e-type =    3            # e-mesh is log given by emin, emax and ne
     emin =  1.0000000E-02  # minimum value of e-mesh points
     emax =   150.0000      # maximum value of e-mesh points
#    edel =  2.4039514E-02  # mesh width of e-mesh points
       ne =    400          # number of e-mesh points
#    data = ( e(i), i = 1, ne + 1 )
#           1.00000E-02  1.02433E-02  1.04925E-02  1.07478E-02  1.10093E-02
#           1.12772E-02  1.15516E-02  1.18326E-02  1.21205E-02  1.24154E-02
#           1.27175E-02  1.30269E-02  1.33439E-02  1.36686E-02  1.40011E-02
#           1.43418E-02  1.46907E-02  1.50482E-02  1.54143E-02  1.57894E-02
#           1.61735E-02  1.65670E-02  1.69701E-02  1.73830E-02  1.78060E-02
#           1.82392E-02  1.86830E-02  1.91375E-02  1.96032E-02  2.00801E-02
#           2.05687E-02  2.10692E-02  2.15818E-02  2.21069E-02  2.26448E-02
#           2.31957E-02  2.37601E-02  2.43382E-02  2.49304E-02  2.55369E-02
#           2.61583E-02  2.67947E-02  2.74467E-02  2.81145E-02  2.87985E-02
#           2.94992E-02  3.02169E-02  3.09521E-02  3.17052E-02  3.24766E-02
#           3.32668E-02  3.40762E-02  3.49053E-02  3.57546E-02  3.66246E-02
#           3.75157E-02  3.84284E-02  3.93634E-02  4.03212E-02  4.13022E-02
#           4.23071E-02  4.33365E-02  4.43909E-02  4.54710E-02  4.65773E-02
#           4.77106E-02  4.88714E-02  5.00605E-02  5.12785E-02  5.25262E-02
#           5.38042E-02  5.51133E-02  5.64542E-02  5.78278E-02  5.92348E-02
#           6.06760E-02  6.21523E-02  6.36645E-02  6.52135E-02  6.68002E-02
#           6.84255E-02  7.00904E-02  7.17957E-02  7.35426E-02  7.53319E-02
#           7.71648E-02  7.90423E-02  8.09655E-02  8.29354E-02  8.49533E-02
#           8.70203E-02  8.91376E-02  9.13064E-02  9.35279E-02  9.58035E-02
#           9.81345E-02  1.00522E-01  1.02968E-01  1.05473E-01  1.08040E-01
#           1.10668E-01  1.13361E-01  1.16119E-01  1.18944E-01  1.21838E-01
#           1.24803E-01  1.27839E-01  1.30950E-01  1.34136E-01  1.37399E-01
#           1.40742E-01  1.44167E-01  1.47675E-01  1.51268E-01  1.54948E-01
#           1.58718E-01  1.62580E-01  1.66535E-01  1.70587E-01  1.74738E-01
#           1.78989E-01  1.83344E-01  1.87805E-01  1.92375E-01  1.97055E-01
#           2.01850E-01  2.06761E-01  2.11792E-01  2.16945E-01  2.22223E-01
#           2.27630E-01  2.33169E-01  2.38842E-01  2.44653E-01  2.50605E-01
#           2.56703E-01  2.62949E-01  2.69346E-01  2.75900E-01  2.82613E-01
#           2.89489E-01  2.96532E-01  3.03747E-01  3.11138E-01  3.18708E-01
#           3.26462E-01  3.34405E-01  3.42542E-01  3.50876E-01  3.59413E-01
#           3.68158E-01  3.77116E-01  3.86291E-01  3.95690E-01  4.05317E-01
#           4.15179E-01  4.25281E-01  4.35628E-01  4.46227E-01  4.57084E-01
#           4.68205E-01  4.79597E-01  4.91266E-01  5.03219E-01  5.15463E-01
#           5.28005E-01  5.40851E-01  5.54011E-01  5.67490E-01  5.81298E-01
#           5.95441E-01  6.09929E-01  6.24769E-01  6.39970E-01  6.55541E-01
#           6.71491E-01  6.87828E-01  7.04564E-01  7.21706E-01  7.39266E-01
#           7.57253E-01  7.75678E-01  7.94551E-01  8.13883E-01  8.33685E-01
#           8.53969E-01  8.74747E-01  8.96030E-01  9.17831E-01  9.40163E-01
#           9.63038E-01  9.86469E-01  1.01047E+00  1.03506E+00  1.06024E+00
#           1.08604E+00  1.11246E+00  1.13953E+00  1.16725E+00  1.19565E+00
#           1.22474E+00  1.25454E+00  1.28507E+00  1.31633E+00  1.34836E+00
#           1.38117E+00  1.41477E+00  1.44920E+00  1.48446E+00  1.52057E+00
#           1.55757E+00  1.59547E+00  1.63429E+00  1.67405E+00  1.71478E+00
#           1.75650E+00  1.79924E+00  1.84302E+00  1.88786E+00  1.93379E+00
#           1.98084E+00  2.02904E+00  2.07841E+00  2.12898E+00  2.18078E+00
#           2.23384E+00  2.28819E+00  2.34386E+00  2.40089E+00  2.45930E+00
#           2.51914E+00  2.58043E+00  2.64322E+00  2.70753E+00  2.77341E+00
#           2.84088E+00  2.91001E+00  2.98081E+00  3.05333E+00  3.12762E+00
#           3.20372E+00  3.28167E+00  3.36152E+00  3.44330E+00  3.52708E+00
#           3.61290E+00  3.70080E+00  3.79085E+00  3.88308E+00  3.97756E+00
#           4.07434E+00  4.17347E+00  4.27501E+00  4.37903E+00  4.48557E+00
#           4.59471E+00  4.70650E+00  4.82102E+00  4.93832E+00  5.05847E+00
#           5.18155E+00  5.30762E+00  5.43676E+00  5.56904E+00  5.70453E+00
#           5.84333E+00  5.98550E+00  6.13114E+00  6.28031E+00  6.43312E+00
#           6.58964E+00  6.74997E+00  6.91420E+00  7.08243E+00  7.25475E+00
#           7.43126E+00  7.61207E+00  7.79728E+00  7.98700E+00  8.18133E+00
#           8.38038E+00  8.58428E+00  8.79315E+00  9.00709E+00  9.22624E+00
#           9.45072E+00  9.68067E+00  9.91620E+00  1.01575E+01  1.04046E+01
#           1.06578E+01  1.09171E+01  1.11827E+01  1.14548E+01  1.17335E+01
#           1.20190E+01  1.23114E+01  1.26109E+01  1.29178E+01  1.32321E+01
#           1.35540E+01  1.38838E+01  1.42216E+01  1.45676E+01  1.49221E+01
#           1.52851E+01  1.56570E+01  1.60380E+01  1.64282E+01  1.68279E+01
#           1.72374E+01  1.76568E+01  1.80864E+01  1.85264E+01  1.89772E+01
#           1.94389E+01  1.99119E+01  2.03963E+01  2.08926E+01  2.14009E+01
#           2.19216E+01  2.24550E+01  2.30014E+01  2.35610E+01  2.41343E+01
#           2.47215E+01  2.53230E+01  2.59391E+01  2.65702E+01  2.72167E+01
#           2.78789E+01  2.85572E+01  2.92520E+01  2.99637E+01  3.06928E+01
#           3.14396E+01  3.22045E+01  3.29881E+01  3.37907E+01  3.46128E+01
#           3.54550E+01  3.63177E+01  3.72013E+01  3.81064E+01  3.90336E+01
#           3.99833E+01  4.09561E+01  4.19526E+01  4.29734E+01  4.40189E+01
#           4.50900E+01  4.61870E+01  4.73108E+01  4.84619E+01  4.96410E+01
#           5.08488E+01  5.20860E+01  5.33533E+01  5.46514E+01  5.59812E+01
#           5.73432E+01  5.87384E+01  6.01676E+01  6.16315E+01  6.31311E+01
#           6.46671E+01  6.62405E+01  6.78522E+01  6.95031E+01  7.11941E+01
#           7.29263E+01  7.47007E+01  7.65182E+01  7.83800E+01  8.02870E+01
#           8.22405E+01  8.42414E+01  8.62911E+01  8.83906E+01  9.05412E+01
#           9.27442E+01  9.50007E+01  9.73122E+01  9.96799E+01  1.02105E+02
#           1.04589E+02  1.07134E+02  1.09741E+02  1.12411E+02  1.15146E+02
#           1.17948E+02  1.20817E+02  1.23757E+02  1.26768E+02  1.29852E+02
#           1.33012E+02  1.36248E+02  1.39563E+02  1.42959E+02  1.46437E+02
#           1.50000E+02
     unit =    2            # unit is [1/cm^2/(MeV/n)/source]
     axis =  eng            # axis of output
     file = detector-19.out  # file name of output for the above axis
   output = f-curr          # surface crossing forward current spectrum
     part =  neutron  
# kf/name :  2112     
#    used :        main (  %)        temp (  %)       total (  %)
#  memory :         414 (  0)           0 (  0)         414 (  0)

#------------------------------------------------------------------------------
#newpage:
#   no. =    1   reg = 118 - 218

x: Energy [MeV/n]
y:  F-Curr [1/cm^2/(MeV/n)/source]         
p: xlog ylog afac(0.8) form(0.9)
h: n            x            y(neutron ),hh0l   n 
#  e-lower      e-upper      neutron     r.err 
   1.0000E-02   1.0243E-02   1.4024E-01  0.0054
   1.0243E-02   1.0493E-02   1.3949E-01  0.0054
   1.0493E-02   1.0748E-02   1.3696E-01  0.0053
   1.0748E-02   1.1009E-02   1.3445E-01  0.0053
   1.1009E-02   1.1277E-02   1.3214E-01  0.0053
   1.1277E-02   1.1552E-02   1.3037E-01  0.0053
   1.1552E-02   1.1833E-02   1.2713E-01  0.0053
   1.1833E-02   1.2121E-02   1.2450E-01  0.0053
   1.2121E-02   1.2415E-02   1.2272E-01  0.0053
   1.2415E-02   1.2718E-02   1.2056E-01  0.0052
   1.2718E-02   1.3027E-02   1.1774E-01  0.0052
   1.3027E-02   1.3344E-02   1.1694E-01  0.0052
   1.3344E-02   1.3669E-02   1.1418E-01  0.0052
   1.3669E-02   1.4001E-02   1.1135E-01  0.0052
   1.4001E-02   1.4342E-02   1.1000E-01  0.0052
   1.4342E-02   1.4691E-02   1.0758E-01  0.0052
   1.4691E-02   1.5048E-02   1.0566E-01  0.0051
   1.5048E-02   1.5414E-02   1.0470E-01  0.0051
   1.5414E-02   1.5789E-02   1.0272E-01  0.0051
   1.5789E-02   1.6174E-02   9.9740E-02  0.0051
   1.6174E-02   1.6567E-02   9.8497E-02  0.0051
   1.6567E-02   1.6970E-02   9.5269E-02  0.0051
   1.6970E-02   1.7383E-02   9.4823E-02  0.0051
   1.7383E-02   1.7806E-02   9.3303E-02  0.0050
   1.7806E-02   1.8239E-02   9.1162E-02  0.0050
   1.8239E-02   1.8683E-02   8.9212E-02  0.0050
   1.8683E-02   1.9138E-02   8.8010E-02  0.0050
   1.9138E-02   1.9603E-02   8.6804E-02  0.0050
   1.9603E-02   2.0080E-02   8.5262E-02  0.0050
   2.0080E-02   2.0569E-02   8.3563E-02  0.0049
   2.0569E-02   2.1069E-02   8.1344E-02  0.0050
   2.1069E-02   2.1582E-02   8.1142E-02  0.0049
   2.1582E-02   2.2107E-02   7.9478E-02  0.0049
   2.2107E-02   2.2645E-02   7.8091E-02  0.0049
   2.2645E-02   2.3196E-02   7.6253E-02  0.0049
   2.3196E-02   2.3760E-02   7.4976E-02  0.0049
   2.3760E-02   2.4338E-02   7.4015E-02  0.0048
   2.4338E-02   2.4930E-02   7.2594E-02  0.0048
   2.4930E-02   2.5537E-02   7.1185E-02  0.0048
   2.5537E-02   2.6158E-02   6.9798E-02  0.0048
   2.6158E-02   2.6795E-02   6.8554E-02  0.0048
   2.6795E-02   2.7447E-02   6.7939E-02  0.0048
   2.7447E-02   2.8114E-02   6.5842E-02  0.0048
   2.8114E-02   2.8799E-02   6.4873E-02  0.0047
   2.8799E-02   2.9499E-02   6.3437E-02  0.0047
   2.9499E-02   3.0217E-02   6.2283E-02  0.0047
   3.0217E-02   3.0952E-02   6.2036E-02  0.0047
   3.0952E-02   3.1705E-02   6.0246E-02  0.0047
   3.1705E-02   3.2477E-02   5.9288E-02  0.0047
   3.2477E-02   3.3267E-02   5.8723E-02  0.0046
   3.3267E-02   3.4076E-02   5.6940E-02  0.0047
   3.4076E-02   3.4905E-02   5.6169E-02  0.0046
   3.4905E-02   3.5755E-02   5.5102E-02  0.0046
   3.5755E-02   3.6625E-02   5.4549E-02  0.0046
   3.6625E-02   3.7516E-02   5.3105E-02  0.0046
   3.7516E-02   3.8428E-02   5.1661E-02  0.0046
   3.8428E-02   3.9363E-02   5.1360E-02  0.0046
   3.9363E-02   4.0321E-02   5.0263E-02  0.0046
   4.0321E-02   4.1302E-02   4.9246E-02  0.0046
   4.1302E-02   4.2307E-02   4.8653E-02  0.0045
   4.2307E-02   4.3337E-02   4.7709E-02  0.0045
   4.3337E-02   4.4391E-02   4.7063E-02  0.0045
   4.4391E-02   4.5471E-02   4.6177E-02  0.0045
   4.5471E-02   4.6577E-02   4.5183E-02  0.0045
   4.6577E-02   4.7711E-02   4.4773E-02  0.0044
   4.7711E-02   4.8871E-02   4.3407E-02  0.0045
   4.8871E-02   5.0061E-02   4.3029E-02  0.0044
   5.0061E-02   5.1279E-02   4.1968E-02  0.0044
   5.1279E-02   5.2526E-02   4.1456E-02  0.0044
   5.2526E-02   5.3804E-02   4.0969E-02  0.0044
   5.3804E-02   5.5113E-02   4.0097E-02  0.0044
   5.5113E-02   5.6454E-02   3.9300E-02  0.0044
   5.6454E-02   5.7828E-02   3.8612E-02  0.0043
   5.7828E-02   5.9235E-02   3.7870E-02  0.0043
   5.9235E-02   6.0676E-02   3.7188E-02  0.0043
   6.0676E-02   6.2152E-02   3.6512E-02  0.0043
   6.2152E-02   6.3665E-02   3.5989E-02  0.0043
   6.3665E-02   6.5214E-02   3.5203E-02  0.0043
   6.5214E-02   6.6800E-02   3.4468E-02  0.0043
   6.6800E-02   6.8426E-02   3.4424E-02  0.0042
   6.8426E-02   7.0090E-02   3.3429E-02  0.0042
   7.0090E-02   7.1796E-02   3.2852E-02  0.0042
   7.1796E-02   7.3543E-02   3.2429E-02  0.0042
   7.3543E-02   7.5332E-02   3.1807E-02  0.0042
   7.5332E-02   7.7165E-02   3.1114E-02  0.0042
   7.7165E-02   7.9042E-02   3.0590E-02  0.0042
   7.9042E-02   8.0965E-02   3.0085E-02  0.0042
   8.0965E-02   8.2935E-02   2.9545E-02  0.0041
   8.2935E-02   8.4953E-02   2.9073E-02  0.0041
   8.4953E-02   8.7020E-02   2.8773E-02  0.0041
   8.7020E-02   8.9138E-02   2.8098E-02  0.0041
   8.9138E-02   9.1306E-02   2.7432E-02  0.0041
   9.1306E-02   9.3528E-02   2.7063E-02  0.0041
   9.3528E-02   9.5804E-02   2.6595E-02  0.0041
   9.5804E-02   9.8134E-02   2.6209E-02  0.0040
   9.8134E-02   1.0052E-01   2.5925E-02  0.0040
   1.0052E-01   1.0297E-01   2.5328E-02  0.0040
   1.0297E-01   1.0547E-01   2.4662E-02  0.0040
   1.0547E-01   1.0804E-01   2.4540E-02  0.0040
   1.0804E-01   1.1067E-01   2.4090E-02  0.0040
   1.1067E-01   1.1336E-01   2.3528E-02  0.0040
   1.1336E-01   1.1612E-01   2.3216E-02  0.0040
   1.1612E-01   1.1894E-01   2.2804E-02  0.0039
   1.1894E-01   1.2184E-01   2.2302E-02  0.0039
   1.2184E-01   1.2480E-01   2.1884E-02  0.0039
   1.2480E-01   1.2784E-01   2.1599E-02  0.0039
   1.2784E-01   1.3095E-01   2.1237E-02  0.0039
   1.3095E-01   1.3414E-01   2.0834E-02  0.0039
   1.3414E-01   1.3740E-01   2.0509E-02  0.0039
   1.3740E-01   1.4074E-01   2.0135E-02  0.0039
   1.4074E-01   1.4417E-01   1.9889E-02  0.0038
   1.4417E-01   1.4767E-01   1.9586E-02  0.0038
   1.4767E-01   1.5127E-01   1.9138E-02  0.0038
   1.5127E-01   1.5495E-01   1.8827E-02  0.0038
   1.5495E-01   1.5872E-01   1.8627E-02  0.0038
   1.5872E-01   1.6258E-01   1.8262E-02  0.0038
   1.6258E-01   1.6654E-01   1.8061E-02  0.0037
   1.6654E-01   1.7059E-01   1.7565E-02  0.0038
   1.7059E-01   1.7474E-01   1.7336E-02  0.0037
   1.7474E-01   1.7899E-01   1.7016E-02  0.0037
   1.7899E-01   1.8334E-01   1.6731E-02  0.0037
   1.8334E-01   1.8781E-01   1.6307E-02  0.0037
   1.8781E-01   1.9237E-01   1.6142E-02  0.0037
   1.9237E-01   1.9706E-01   1.5803E-02  0.0037
   1.9706E-01   2.0185E-01   1.5560E-02  0.0037
   2.0185E-01   2.0676E-01   1.5327E-02  0.0036
   2.0676E-01   2.1179E-01   1.5099E-02  0.0036
   2.1179E-01   2.1694E-01   1.4771E-02  0.0036
   2.1694E-01   2.2222E-01   1.4492E-02  0.0036
   2.2222E-01   2.2763E-01   1.4333E-02  0.0036
   2.2763E-01   2.3317E-01   1.4031E-02  0.0036
   2.3317E-01   2.3884E-01   1.3831E-02  0.0036
   2.3884E-01   2.4465E-01   1.3555E-02  0.0036
   2.4465E-01   2.5061E-01   1.3396E-02  0.0035
   2.5061E-01   2.5670E-01   1.3034E-02  0.0036
   2.5670E-01   2.6295E-01   1.2851E-02  0.0035
   2.6295E-01   2.6935E-01   1.2568E-02  0.0035
   2.6935E-01   2.7590E-01   1.2377E-02  0.0035
   2.7590E-01   2.8261E-01   1.2204E-02  0.0035
   2.8261E-01   2.8949E-01   1.1918E-02  0.0035
   2.8949E-01   2.9653E-01   1.1808E-02  0.0035
   2.9653E-01   3.0375E-01   1.1532E-02  0.0035
   3.0375E-01   3.1114E-01   1.1321E-02  0.0035
   3.1114E-01   3.1871E-01   1.1158E-02  0.0034
   3.1871E-01   3.2646E-01   1.0921E-02  0.0034
   3.2646E-01   3.3441E-01   1.0654E-02  0.0034
   3.3441E-01   3.4254E-01   1.0514E-02  0.0034
   3.4254E-01   3.5088E-01   1.0328E-02  0.0034
   3.5088E-01   3.5941E-01   1.0075E-02  0.0034
   3.5941E-01   3.6816E-01   9.8921E-03  0.0034
   3.6816E-01   3.7712E-01   9.7032E-03  0.0034
   3.7712E-01   3.8629E-01   9.4986E-03  0.0034
   3.8629E-01   3.9569E-01   9.2964E-03  0.0034
   3.9569E-01   4.0532E-01   9.1187E-03  0.0034
   4.0532E-01   4.1518E-01   8.9466E-03  0.0034
   4.1518E-01   4.2528E-01   8.7465E-03  0.0034
   4.2528E-01   4.3563E-01   8.5759E-03  0.0034
   4.3563E-01   4.4623E-01   8.4766E-03  0.0033
   4.4623E-01   4.5708E-01   8.2475E-03  0.0033
   4.5708E-01   4.6821E-01   8.1116E-03  0.0033
   4.6821E-01   4.7960E-01   7.8919E-03  0.0033
   4.7960E-01   4.9127E-01   7.6909E-03  0.0033
   4.9127E-01   5.0322E-01   7.5995E-03  0.0033
   5.0322E-01   5.1546E-01   7.3867E-03  0.0033
   5.1546E-01   5.2800E-01   7.2044E-03  0.0033
   5.2800E-01   5.4085E-01   7.0527E-03  0.0033
   5.4085E-01   5.5401E-01   6.8895E-03  0.0033
   5.5401E-01   5.6749E-01   6.7427E-03  0.0033
   5.6749E-01   5.8130E-01   6.5807E-03  0.0033
   5.8130E-01   5.9544E-01   6.4473E-03  0.0033
   5.9544E-01   6.0993E-01   6.2467E-03  0.0033
   6.0993E-01   6.2477E-01   6.0901E-03  0.0033
   6.2477E-01   6.3997E-01   5.9521E-03  0.0033
   6.3997E-01   6.5554E-01   5.7695E-03  0.0033
   6.5554E-01   6.7149E-01   5.6632E-03  0.0033
   6.7149E-01   6.8783E-01   5.4760E-03  0.0033
   6.8783E-01   7.0456E-01   5.2992E-03  0.0034
   7.0456E-01   7.2171E-01   5.1688E-03  0.0034
   7.2171E-01   7.3927E-01   5.0624E-03  0.0034
   7.3927E-01   7.5725E-01   4.8950E-03  0.0034
   7.5725E-01   7.7568E-01   4.7244E-03  0.0034
   7.7568E-01   7.9455E-01   4.5498E-03  0.0034
   7.9455E-01   8.1388E-01   4.4083E-03  0.0034
   8.1388E-01   8.3368E-01   4.2667E-03  0.0034
   8.3368E-01   8.5397E-01   4.1370E-03  0.0035
   8.5397E-01   8.7475E-01   3.9888E-03  0.0035
   8.7475E-01   8.9603E-01   3.8249E-03  0.0035
   8.9603E-01   9.1783E-01   3.6986E-03  0.0035
   9.1783E-01   9.4016E-01   3.5417E-03  0.0036
   9.4016E-01   9.6304E-01   3.4054E-03  0.0036
   9.6304E-01   9.8647E-01   3.2534E-03  0.0036
   9.8647E-01   1.0105E+00   3.1623E-03  0.0036
   1.0105E+00   1.0351E+00   3.1395E-03  0.0036
   1.0351E+00   1.0602E+00   3.2078E-03  0.0035
   1.0602E+00   1.0860E+00   3.2484E-03  0.0035
   1.0860E+00   1.1125E+00   3.3045E-03  0.0034
   1.1125E+00   1.1395E+00   3.3870E-03  0.0033
   1.1395E+00   1.1673E+00   3.4871E-03  0.0032
   1.1673E+00   1.1957E+00   3.5899E-03  0.0031
   1.1957E+00   1.2247E+00   3.6798E-03  0.0031
   1.2247E+00   1.2545E+00   3.7022E-03  0.0030
   1.2545E+00   1.2851E+00   3.7637E-03  0.0030
   1.2851E+00   1.3163E+00   3.7796E-03  0.0029
   1.3163E+00   1.3484E+00   3.8454E-03  0.0029
   1.3484E+00   1.3812E+00   3.9359E-03  0.0028
   1.3812E+00   1.4148E+00   4.0288E-03  0.0027
   1.4148E+00   1.4492E+00   4.0180E-03  0.0027
   1.4492E+00   1.4845E+00   4.0446E-03  0.0027
   1.4845E+00   1.5206E+00   4.0500E-03  0.0026
   1.5206E+00   1.5576E+00   4.0457E-03  0.0026
   1.5576E+00   1.5955E+00   4.0621E-03  0.0026
   1.5955E+00   1.6343E+00   4.1106E-03  0.0025
   1.6343E+00   1.6741E+00   4.1973E-03  0.0025
   1.6741E+00   1.7148E+00   4.2771E-03  0.0024
   1.7148E+00   1.7565E+00   4.2570E-03  0.0024
   1.7565E+00   1.7992E+00   4.2252E-03  0.0024
   1.7992E+00   1.8430E+00   4.1946E-03  0.0023
   1.8430E+00   1.8879E+00   4.1912E-03  0.0023
   1.8879E+00   1.9338E+00   4.1913E-03  0.0023
   1.9338E+00   1.9808E+00   4.2455E-03  0.0022
   1.9808E+00   2.0290E+00   4.2421E-03  0.0022
   2.0290E+00   2.0784E+00   4.1763E-03  0.0022
   2.0784E+00   2.1290E+00   4.1092E-03  0.0022
   2.1290E+00   2.1808E+00   4.0439E-03  0.0022
   2.1808E+00   2.2338E+00   3.9872E-03  0.0022
   2.2338E+00   2.2882E+00   3.9419E-03  0.0022
   2.2882E+00   2.3439E+00   3.9316E-03  0.0021
   2.3439E+00   2.4009E+00   3.9272E-03  0.0021
   2.4009E+00   2.4593E+00   3.8791E-03  0.0021
   2.4593E+00   2.5191E+00   3.7666E-03  0.0021
   2.5191E+00   2.5804E+00   3.6645E-03  0.0021
   2.5804E+00   2.6432E+00   3.5703E-03  0.0021
   2.6432E+00   2.7075E+00   3.4768E-03  0.0021
   2.7075E+00   2.7734E+00   3.4133E-03  0.0021
   2.7734E+00   2.8409E+00   3.3510E-03  0.0021
   2.8409E+00   2.9100E+00   3.3070E-03  0.0021
   2.9100E+00   2.9808E+00   3.2363E-03  0.0021
   2.9808E+00   3.0533E+00   3.1566E-03  0.0021
   3.0533E+00   3.1276E+00   3.0286E-03  0.0021
   3.1276E+00   3.2037E+00   2.9129E-03  0.0021
   3.2037E+00   3.2817E+00   2.8043E-03  0.0021
   3.2817E+00   3.3615E+00   2.6945E-03  0.0022
   3.3615E+00   3.4433E+00   2.6051E-03  0.0022
   3.4433E+00   3.5271E+00   2.5028E-03  0.0022
   3.5271E+00   3.6129E+00   2.4249E-03  0.0022
   3.6129E+00   3.7008E+00   2.3451E-03  0.0022
   3.7008E+00   3.7908E+00   2.2460E-03  0.0022
   3.7908E+00   3.8831E+00   2.1506E-03  0.0023
   3.8831E+00   3.9776E+00   2.0646E-03  0.0023
   3.9776E+00   4.0743E+00   1.9866E-03  0.0023
   4.0743E+00   4.1735E+00   1.8744E-03  0.0023
   4.1735E+00   4.2750E+00   1.7873E-03  0.0024
   4.2750E+00   4.3790E+00   1.6875E-03  0.0024
   4.3790E+00   4.4856E+00   1.5973E-03  0.0024
   4.4856E+00   4.5947E+00   1.5126E-03  0.0025
   4.5947E+00   4.7065E+00   1.4314E-03  0.0025
   4.7065E+00   4.8210E+00   1.3606E-03  0.0025
   4.8210E+00   4.9383E+00   1.2907E-03  0.0026
   4.9383E+00   5.0585E+00   1.2264E-03  0.0026
   5.0585E+00   5.1815E+00   1.1562E-03  0.0027
   5.1815E+00   5.3076E+00   1.0778E-03  0.0027
   5.3076E+00   5.4368E+00   1.0170E-03  0.0028
   5.4368E+00   5.5690E+00   9.4796E-04  0.0028
   5.5690E+00   5.7045E+00   8.8475E-04  0.0029
   5.7045E+00   5.8433E+00   8.2790E-04  0.0030
   5.8433E+00   5.9855E+00   7.7948E-04  0.0030
   5.9855E+00   6.1311E+00   7.3208E-04  0.0031
   6.1311E+00   6.2803E+00   6.8603E-04  0.0031
   6.2803E+00   6.4331E+00   6.3721E-04  0.0032
   6.4331E+00   6.5896E+00   5.9273E-04  0.0033
   6.5896E+00   6.7500E+00   5.4653E-04  0.0034
   6.7500E+00   6.9142E+00   5.0817E-04  0.0035
   6.9142E+00   7.0824E+00   4.7356E-04  0.0035
   7.0824E+00   7.2548E+00   4.3868E-04  0.0036
   7.2548E+00   7.4313E+00   4.0821E-04  0.0037
   7.4313E+00   7.6121E+00   3.7609E-04  0.0038
   7.6121E+00   7.7973E+00   3.5020E-04  0.0039
   7.7973E+00   7.9870E+00   3.2159E-04  0.0041
   7.9870E+00   8.1813E+00   2.9893E-04  0.0042
   8.1813E+00   8.3804E+00   2.7572E-04  0.0043
   8.3804E+00   8.5843E+00   2.5410E-04  0.0044
   8.5843E+00   8.7931E+00   2.3431E-04  0.0045
   8.7931E+00   9.0071E+00   2.1521E-04  0.0047
   9.0071E+00   9.2262E+00   1.9973E-04  0.0048
   9.2262E+00   9.4507E+00   1.8467E-04  0.0049
   9.4507E+00   9.6807E+00   1.6923E-04  0.0051
   9.6807E+00   9.9162E+00   1.5760E-04  0.0052
   9.9162E+00   1.0157E+01   1.4493E-04  0.0053
   1.0157E+01   1.0405E+01   1.3358E-04  0.0055
   1.0405E+01   1.0658E+01   1.2428E-04  0.0056
   1.0658E+01   1.0917E+01   1.1491E-04  0.0058
   1.0917E+01   1.1183E+01   1.0565E-04  0.0060
   1.1183E+01   1.1455E+01   9.7988E-05  0.0061
   1.1455E+01   1.1733E+01   9.2953E-05  0.0062
   1.1733E+01   1.2019E+01   8.5201E-05  0.0064
   1.2019E+01   1.2311E+01   7.9289E-05  0.0066
   1.2311E+01   1.2611E+01   7.3853E-05  0.0067
   1.2611E+01   1.2918E+01   6.8320E-05  0.0069
   1.2918E+01   1.3232E+01   6.3855E-05  0.0070
   1.3232E+01   1.3554E+01   5.9485E-05  0.0072
   1.3554E+01   1.3884E+01   5.5960E-05  0.0073
   1.3884E+01   1.4222E+01   5.1904E-05  0.0075
   1.4222E+01   1.4568E+01   4.8477E-05  0.0077
   1.4568E+01   1.4922E+01   4.5739E-05  0.0078
   1.4922E+01   1.5285E+01   4.2575E-05  0.0080
   1.5285E+01   1.5657E+01   4.0297E-05  0.0082
   1.5657E+01   1.6038E+01   3.7879E-05  0.0083
   1.6038E+01   1.6428E+01   3.5525E-05  0.0085
   1.6428E+01   1.6828E+01   3.3736E-05  0.0086
   1.6828E+01   1.7237E+01   3.1565E-05  0.0088
   1.7237E+01   1.7657E+01   3.0148E-05  0.0089
   1.7657E+01   1.8086E+01   2.8232E-05  0.0091
   1.8086E+01   1.8526E+01   2.6752E-05  0.0092
   1.8526E+01   1.8977E+01   2.5596E-05  0.0093
   1.8977E+01   1.9439E+01   2.3736E-05  0.0095
   1.9439E+01   1.9912E+01   2.2517E-05  0.0097
   1.9912E+01   2.0396E+01   1.7289E-05  0.0109
   2.0396E+01   2.0893E+01   1.6626E-05  0.0110
   2.0893E+01   2.1401E+01   1.5909E-05  0.0111
   2.1401E+01   2.1922E+01   1.5180E-05  0.0112
   2.1922E+01   2.2455E+01   1.4939E-05  0.0112
   2.2455E+01   2.3001E+01   1.4595E-05  0.0112
   2.3001E+01   2.3561E+01   1.3569E-05  0.0115
   2.3561E+01   2.4134E+01   1.3343E-05  0.0114
   2.4134E+01   2.4721E+01   1.2997E-05  0.0114
   2.4721E+01   2.5323E+01   1.2540E-05  0.0115
   2.5323E+01   2.5939E+01   1.1924E-05  0.0117
   2.5939E+01   2.6570E+01   1.1625E-05  0.0117
   2.6570E+01   2.7217E+01   1.1233E-05  0.0117
   2.7217E+01   2.7879E+01   1.0705E-05  0.0119
   2.7879E+01   2.8557E+01   1.0256E-05  0.0120
   2.8557E+01   2.9252E+01   9.8472E-06  0.0121
   2.9252E+01   2.9964E+01   9.4278E-06  0.0122
   2.9964E+01   3.0693E+01   8.7718E-06  0.0125
   3.0693E+01   3.1440E+01   8.3880E-06  0.0126
   3.1440E+01   3.2205E+01   7.9613E-06  0.0128
   3.2205E+01   3.2988E+01   7.4646E-06  0.0131
   3.2988E+01   3.3791E+01   7.0419E-06  0.0133
   3.3791E+01   3.4613E+01   6.7895E-06  0.0134
   3.4613E+01   3.5455E+01   6.2803E-06  0.0138
   3.5455E+01   3.6318E+01   5.8819E-06  0.0140
   3.6318E+01   3.7201E+01   5.4242E-06  0.0144
   3.7201E+01   3.8106E+01   5.1462E-06  0.0147
   3.8106E+01   3.9034E+01   4.7511E-06  0.0151
   3.9034E+01   3.9983E+01   4.5245E-06  0.0153
   3.9983E+01   4.0956E+01   4.0696E-06  0.0159
   4.0956E+01   4.1953E+01   3.8073E-06  0.0162
   4.1953E+01   4.2973E+01   3.5269E-06  0.0167
   4.2973E+01   4.4019E+01   3.1504E-06  0.0174
   4.4019E+01   4.5090E+01   2.9337E-06  0.0178
   4.5090E+01   4.6187E+01   2.6634E-06  0.0185
   4.6187E+01   4.7311E+01   2.3813E-06  0.0193
   4.7311E+01   4.8462E+01   2.1232E-06  0.0202
   4.8462E+01   4.9641E+01   2.0134E-06  0.0205
   4.9641E+01   5.0849E+01   1.7668E-06  0.0216
   5.0849E+01   5.2086E+01   1.5867E-06  0.0226
   5.2086E+01   5.3353E+01   1.4645E-06  0.0232
   5.3353E+01   5.4651E+01   1.2957E-06  0.0244
   5.4651E+01   5.5981E+01   1.1078E-06  0.0261
   5.5981E+01   5.7343E+01   1.0161E-06  0.0269
   5.7343E+01   5.8738E+01   8.5579E-07  0.0289
   5.8738E+01   6.0168E+01   7.3820E-07  0.0308
   6.0168E+01   6.1632E+01   6.7490E-07  0.0318
   6.1632E+01   6.3131E+01   5.6350E-07  0.0344
   6.3131E+01   6.4667E+01   4.4726E-07  0.0382
   6.4667E+01   6.6240E+01   4.1121E-07  0.0393
   6.6240E+01   6.7852E+01   3.3195E-07  0.0432
   6.7852E+01   6.9503E+01   2.7864E-07  0.0466
   6.9503E+01   7.1194E+01   2.3654E-07  0.0500
   7.1194E+01   7.2926E+01   2.1418E-07  0.0519
   7.2926E+01   7.4701E+01   1.7302E-07  0.0571
   7.4701E+01   7.6518E+01   1.1444E-07  0.0693
   7.6518E+01   7.8380E+01   1.0796E-07  0.0705
   7.8380E+01   8.0287E+01   9.2289E-08  0.0754
   8.0287E+01   8.2240E+01   7.4740E-08  0.0828
   8.2240E+01   8.4241E+01   6.4968E-08  0.0877
   8.4241E+01   8.6291E+01   4.4885E-08  0.1043
   8.6291E+01   8.8391E+01   3.7627E-08  0.1125
   8.8391E+01   9.0541E+01   3.0689E-08  0.1231
   9.0541E+01   9.2744E+01   2.1335E-08  0.1459
   9.2744E+01   9.5001E+01   1.7726E-08  0.1581
   9.5001E+01   9.7312E+01   1.0383E-08  0.2041
   9.7312E+01   9.9680E+01   1.0136E-08  0.2041
   9.9680E+01   1.0211E+02   4.1232E-09  0.3162
   1.0211E+02   1.0459E+02   4.0253E-09  0.3162
   1.0459E+02   1.0713E+02   6.6804E-09  0.2425
   1.0713E+02   1.0974E+02   2.3018E-09  0.4082
   1.0974E+02   1.1241E+02   7.4904E-10  0.7071
   1.1241E+02   1.1515E+02   1.0969E-09  0.5774
   1.1515E+02   1.1795E+02   7.1388E-10  0.7071
   1.1795E+02   1.2082E+02   6.9692E-10  0.7071
   1.2082E+02   1.2376E+02   1.3607E-09  0.5000
   1.2376E+02   1.2677E+02   6.6421E-10  0.7071
   1.2677E+02   1.2985E+02   0.0000E+00  0.0000
   1.2985E+02   1.3301E+02   0.0000E+00  0.0000
   1.3301E+02   1.3625E+02   0.0000E+00  0.0000
   1.3625E+02   1.3956E+02   0.0000E+00  0.0000
   1.3956E+02   1.4296E+02   0.0000E+00  0.0000
   1.4296E+02   1.4644E+02   0.0000E+00  0.0000
   1.4644E+02   1.5000E+02   0.0000E+00  0.0000

#   sum over                 1.7992E-04
'no. =    1   reg = 118 - 218'
msuc: {\huge [t-cross] in region mesh}
msdr: {\it plotted by \ANGEL \version}
msdl: {\it calculated by \PHITS  3.26}
wt: s(0.7)
\vspace{-3}
  region surface crossing
  area  &=&   1.0000E+00 [cm^2]
e:
 
# Information for Restart Calculation
# This calculation was newly started
# istdev =  2 # 1:Batch variance, 2:History variance
# resc2  = 1.00000000000000000E+09 # Total source weight or Total source weight / maxcas
# resc3  = 1.00000000000000000E+09 # Total history number or Total batch number
# maxcas =   500000000 # History / Batch, only used for istdev=1
# bitrseed = 0001001110011001001001110000100100110111001111011100001000101100 # bit data of rseed
