[ T-Cross ]
    title = [t-cross] in region mesh
     mesh =  reg            # mesh type is region-wise
      reg =    1            # number of crossing regions
      non     r-from    r-to       area
      1       112       212        1.000000    
   e-type =    3            # e-mesh is log given by emin, emax and ne
     emin =  1.0000000E-02  # minimum value of e-mesh points
     emax =   150.0000      # maximum value of e-mesh points
#    edel =  2.4039514E-02  # mesh width of e-mesh points
       ne =    400          # number of e-mesh points
#    data = ( e(i), i = 1, ne + 1 )
#           1.00000E-02  1.02433E-02  1.04925E-02  1.07478E-02  1.10093E-02
#           1.12772E-02  1.15516E-02  1.18326E-02  1.21205E-02  1.24154E-02
#           1.27175E-02  1.30269E-02  1.33439E-02  1.36686E-02  1.40011E-02
#           1.43418E-02  1.46907E-02  1.50482E-02  1.54143E-02  1.57894E-02
#           1.61735E-02  1.65670E-02  1.69701E-02  1.73830E-02  1.78060E-02
#           1.82392E-02  1.86830E-02  1.91375E-02  1.96032E-02  2.00801E-02
#           2.05687E-02  2.10692E-02  2.15818E-02  2.21069E-02  2.26448E-02
#           2.31957E-02  2.37601E-02  2.43382E-02  2.49304E-02  2.55369E-02
#           2.61583E-02  2.67947E-02  2.74467E-02  2.81145E-02  2.87985E-02
#           2.94992E-02  3.02169E-02  3.09521E-02  3.17052E-02  3.24766E-02
#           3.32668E-02  3.40762E-02  3.49053E-02  3.57546E-02  3.66246E-02
#           3.75157E-02  3.84284E-02  3.93634E-02  4.03212E-02  4.13022E-02
#           4.23071E-02  4.33365E-02  4.43909E-02  4.54710E-02  4.65773E-02
#           4.77106E-02  4.88714E-02  5.00605E-02  5.12785E-02  5.25262E-02
#           5.38042E-02  5.51133E-02  5.64542E-02  5.78278E-02  5.92348E-02
#           6.06760E-02  6.21523E-02  6.36645E-02  6.52135E-02  6.68002E-02
#           6.84255E-02  7.00904E-02  7.17957E-02  7.35426E-02  7.53319E-02
#           7.71648E-02  7.90423E-02  8.09655E-02  8.29354E-02  8.49533E-02
#           8.70203E-02  8.91376E-02  9.13064E-02  9.35279E-02  9.58035E-02
#           9.81345E-02  1.00522E-01  1.02968E-01  1.05473E-01  1.08040E-01
#           1.10668E-01  1.13361E-01  1.16119E-01  1.18944E-01  1.21838E-01
#           1.24803E-01  1.27839E-01  1.30950E-01  1.34136E-01  1.37399E-01
#           1.40742E-01  1.44167E-01  1.47675E-01  1.51268E-01  1.54948E-01
#           1.58718E-01  1.62580E-01  1.66535E-01  1.70587E-01  1.74738E-01
#           1.78989E-01  1.83344E-01  1.87805E-01  1.92375E-01  1.97055E-01
#           2.01850E-01  2.06761E-01  2.11792E-01  2.16945E-01  2.22223E-01
#           2.27630E-01  2.33169E-01  2.38842E-01  2.44653E-01  2.50605E-01
#           2.56703E-01  2.62949E-01  2.69346E-01  2.75900E-01  2.82613E-01
#           2.89489E-01  2.96532E-01  3.03747E-01  3.11138E-01  3.18708E-01
#           3.26462E-01  3.34405E-01  3.42542E-01  3.50876E-01  3.59413E-01
#           3.68158E-01  3.77116E-01  3.86291E-01  3.95690E-01  4.05317E-01
#           4.15179E-01  4.25281E-01  4.35628E-01  4.46227E-01  4.57084E-01
#           4.68205E-01  4.79597E-01  4.91266E-01  5.03219E-01  5.15463E-01
#           5.28005E-01  5.40851E-01  5.54011E-01  5.67490E-01  5.81298E-01
#           5.95441E-01  6.09929E-01  6.24769E-01  6.39970E-01  6.55541E-01
#           6.71491E-01  6.87828E-01  7.04564E-01  7.21706E-01  7.39266E-01
#           7.57253E-01  7.75678E-01  7.94551E-01  8.13883E-01  8.33685E-01
#           8.53969E-01  8.74747E-01  8.96030E-01  9.17831E-01  9.40163E-01
#           9.63038E-01  9.86469E-01  1.01047E+00  1.03506E+00  1.06024E+00
#           1.08604E+00  1.11246E+00  1.13953E+00  1.16725E+00  1.19565E+00
#           1.22474E+00  1.25454E+00  1.28507E+00  1.31633E+00  1.34836E+00
#           1.38117E+00  1.41477E+00  1.44920E+00  1.48446E+00  1.52057E+00
#           1.55757E+00  1.59547E+00  1.63429E+00  1.67405E+00  1.71478E+00
#           1.75650E+00  1.79924E+00  1.84302E+00  1.88786E+00  1.93379E+00
#           1.98084E+00  2.02904E+00  2.07841E+00  2.12898E+00  2.18078E+00
#           2.23384E+00  2.28819E+00  2.34386E+00  2.40089E+00  2.45930E+00
#           2.51914E+00  2.58043E+00  2.64322E+00  2.70753E+00  2.77341E+00
#           2.84088E+00  2.91001E+00  2.98081E+00  3.05333E+00  3.12762E+00
#           3.20372E+00  3.28167E+00  3.36152E+00  3.44330E+00  3.52708E+00
#           3.61290E+00  3.70080E+00  3.79085E+00  3.88308E+00  3.97756E+00
#           4.07434E+00  4.17347E+00  4.27501E+00  4.37903E+00  4.48557E+00
#           4.59471E+00  4.70650E+00  4.82102E+00  4.93832E+00  5.05847E+00
#           5.18155E+00  5.30762E+00  5.43676E+00  5.56904E+00  5.70453E+00
#           5.84333E+00  5.98550E+00  6.13114E+00  6.28031E+00  6.43312E+00
#           6.58964E+00  6.74997E+00  6.91420E+00  7.08243E+00  7.25475E+00
#           7.43126E+00  7.61207E+00  7.79728E+00  7.98700E+00  8.18133E+00
#           8.38038E+00  8.58428E+00  8.79315E+00  9.00709E+00  9.22624E+00
#           9.45072E+00  9.68067E+00  9.91620E+00  1.01575E+01  1.04046E+01
#           1.06578E+01  1.09171E+01  1.11827E+01  1.14548E+01  1.17335E+01
#           1.20190E+01  1.23114E+01  1.26109E+01  1.29178E+01  1.32321E+01
#           1.35540E+01  1.38838E+01  1.42216E+01  1.45676E+01  1.49221E+01
#           1.52851E+01  1.56570E+01  1.60380E+01  1.64282E+01  1.68279E+01
#           1.72374E+01  1.76568E+01  1.80864E+01  1.85264E+01  1.89772E+01
#           1.94389E+01  1.99119E+01  2.03963E+01  2.08926E+01  2.14009E+01
#           2.19216E+01  2.24550E+01  2.30014E+01  2.35610E+01  2.41343E+01
#           2.47215E+01  2.53230E+01  2.59391E+01  2.65702E+01  2.72167E+01
#           2.78789E+01  2.85572E+01  2.92520E+01  2.99637E+01  3.06928E+01
#           3.14396E+01  3.22045E+01  3.29881E+01  3.37907E+01  3.46128E+01
#           3.54550E+01  3.63177E+01  3.72013E+01  3.81064E+01  3.90336E+01
#           3.99833E+01  4.09561E+01  4.19526E+01  4.29734E+01  4.40189E+01
#           4.50900E+01  4.61870E+01  4.73108E+01  4.84619E+01  4.96410E+01
#           5.08488E+01  5.20860E+01  5.33533E+01  5.46514E+01  5.59812E+01
#           5.73432E+01  5.87384E+01  6.01676E+01  6.16315E+01  6.31311E+01
#           6.46671E+01  6.62405E+01  6.78522E+01  6.95031E+01  7.11941E+01
#           7.29263E+01  7.47007E+01  7.65182E+01  7.83800E+01  8.02870E+01
#           8.22405E+01  8.42414E+01  8.62911E+01  8.83906E+01  9.05412E+01
#           9.27442E+01  9.50007E+01  9.73122E+01  9.96799E+01  1.02105E+02
#           1.04589E+02  1.07134E+02  1.09741E+02  1.12411E+02  1.15146E+02
#           1.17948E+02  1.20817E+02  1.23757E+02  1.26768E+02  1.29852E+02
#           1.33012E+02  1.36248E+02  1.39563E+02  1.42959E+02  1.46437E+02
#           1.50000E+02
     unit =    2            # unit is [1/cm^2/(MeV/n)/source]
     axis =  eng            # axis of output
     file = detector-13.out  # file name of output for the above axis
   output = f-curr          # surface crossing forward current spectrum
     part =  neutron  
# kf/name :  2112     
#    used :        main (  %)        temp (  %)       total (  %)
#  memory :         414 (  0)           0 (  0)         414 (  0)

#------------------------------------------------------------------------------
#newpage:
#   no. =    1   reg = 112 - 212

x: Energy [MeV/n]
y:  F-Curr [1/cm^2/(MeV/n)/source]         
p: xlog ylog afac(0.8) form(0.9)
h: n            x            y(neutron ),hh0l   n 
#  e-lower      e-upper      neutron     r.err 
   1.0000E-02   1.0243E-02   3.6990E-05  0.1491
   1.0243E-02   1.0493E-02   4.0926E-05  0.1400
   1.0493E-02   1.0748E-02   2.6636E-05  0.1715
   1.0748E-02   1.1009E-02   3.5946E-05  0.1459
   1.1009E-02   1.1277E-02   3.4346E-05  0.1474
   1.1277E-02   1.1552E-02   2.8427E-05  0.1601
   1.1552E-02   1.1833E-02   3.3445E-05  0.1459
   1.1833E-02   1.2121E-02   2.7093E-05  0.1601
   1.2121E-02   1.2415E-02   3.5266E-05  0.1387
   1.2415E-02   1.2718E-02   2.8470E-05  0.1525
   1.2718E-02   1.3027E-02   2.9732E-05  0.1474
   1.3027E-02   1.3344E-02   2.7764E-05  0.1508
   1.3344E-02   1.3669E-02   2.7721E-05  0.1491
   1.3669E-02   1.4001E-02   2.8265E-05  0.1459
   1.4001E-02   1.4342E-02   3.6400E-05  0.1270
   1.4342E-02   1.4691E-02   3.3243E-05  0.1313
   1.4691E-02   1.5048E-02   3.6370E-05  0.1240
   1.5048E-02   1.5414E-02   3.3321E-05  0.1280
   1.5414E-02   1.5789E-02   3.5196E-05  0.1231
   1.5789E-02   1.6174E-02   3.3319E-05  0.1250
   1.6174E-02   1.6567E-02   2.4904E-05  0.1429
   1.6567E-02   1.6970E-02   3.1755E-05  0.1250
   1.6970E-02   1.7383E-02   3.1485E-05  0.1240
   1.7383E-02   1.7806E-02   3.3101E-05  0.1195
   1.7806E-02   1.8239E-02   3.4623E-05  0.1155
   1.8239E-02   1.8683E-02   3.1998E-05  0.1187
   1.8683E-02   1.9138E-02   3.5198E-05  0.1118
   1.9138E-02   1.9603E-02   2.7919E-05  0.1240
   1.9603E-02   2.0080E-02   2.7256E-05  0.1240
   2.0080E-02   2.0569E-02   3.0293E-05  0.1162
   2.0569E-02   2.1069E-02   2.7975E-05  0.1195
   2.1069E-02   2.1582E-02   3.3162E-05  0.1085
   2.1582E-02   2.2107E-02   3.7326E-05  0.1010
   2.2107E-02   2.2645E-02   3.5324E-05  0.1026
   2.2645E-02   2.3196E-02   3.4485E-05  0.1026
   2.3196E-02   2.3760E-02   3.3311E-05  0.1031
   2.3760E-02   2.4338E-02   3.2520E-05  0.1031
   2.4338E-02   2.4930E-02   3.2086E-05  0.1026
   2.4930E-02   2.5537E-02   3.7588E-05  0.0937
   2.5537E-02   2.6158E-02   3.1867E-05  0.1005
   2.6158E-02   2.6795E-02   3.5824E-05  0.0937
   2.6795E-02   2.7447E-02   3.1905E-05  0.0981
   2.7447E-02   2.8114E-02   3.0548E-05  0.0990
   2.8114E-02   2.8799E-02   3.2746E-05  0.0945
   2.8799E-02   2.9499E-02   3.3396E-05  0.0925
   2.9499E-02   3.0217E-02   3.2324E-05  0.0928
   3.0217E-02   3.0952E-02   3.6997E-05  0.0857
   3.0952E-02   3.1705E-02   3.8508E-05  0.0830
   3.1705E-02   3.2477E-02   3.6297E-05  0.0845
   3.2477E-02   3.3267E-02   3.1132E-05  0.0902
   3.3267E-02   3.4076E-02   3.3852E-05  0.0854
   3.4076E-02   3.4905E-02   3.1842E-05  0.0870
   3.4905E-02   3.5755E-02   3.0143E-05  0.0884
   3.5755E-02   3.6625E-02   2.4370E-05  0.0971
   3.6625E-02   3.7516E-02   3.7482E-05  0.0774
   3.7516E-02   3.8428E-02   3.0456E-05  0.0848
   3.8428E-02   3.9363E-02   3.4225E-05  0.0791
   3.9363E-02   4.0321E-02   3.3621E-05  0.0788
   4.0321E-02   4.1302E-02   3.5065E-05  0.0762
   4.1302E-02   4.2307E-02   3.3635E-05  0.0769
   4.2307E-02   4.3337E-02   3.2836E-05  0.0769
   4.3337E-02   4.4391E-02   3.6039E-05  0.0725
   4.4391E-02   4.5471E-02   3.3516E-05  0.0743
   4.5471E-02   4.6577E-02   3.1816E-05  0.0754
   4.6577E-02   4.7711E-02   3.6885E-05  0.0692
   4.7711E-02   4.8871E-02   3.3080E-05  0.0722
   4.8871E-02   5.0061E-02   3.4985E-05  0.0693
   5.0061E-02   5.1279E-02   3.5139E-05  0.0684
   5.1279E-02   5.2526E-02   2.9015E-05  0.0743
   5.2526E-02   5.3804E-02   3.5681E-05  0.0662
   5.3804E-02   5.5113E-02   3.2389E-05  0.0687
   5.5113E-02   5.6454E-02   3.5646E-05  0.0647
   5.6454E-02   5.7828E-02   3.6110E-05  0.0635
   5.7828E-02   5.9235E-02   3.3831E-05  0.0648
   5.9235E-02   6.0676E-02   3.9133E-05  0.0595
   6.0676E-02   6.2152E-02   3.0888E-05  0.0662
   6.2152E-02   6.3665E-02   3.3725E-05  0.0626
   6.3665E-02   6.5214E-02   3.6410E-05  0.0595
   6.5214E-02   6.6800E-02   3.3025E-05  0.0618
   6.6800E-02   6.8426E-02   3.4701E-05  0.0595
   6.8426E-02   7.0090E-02   3.2916E-05  0.0604
   7.0090E-02   7.1796E-02   3.2603E-05  0.0600
   7.1796E-02   7.3543E-02   3.2630E-05  0.0592
   7.3543E-02   7.5332E-02   3.4649E-05  0.0568
   7.5332E-02   7.7165E-02   3.2626E-05  0.0578
   7.7165E-02   7.9042E-02   3.3875E-05  0.0561
   7.9042E-02   8.0965E-02   3.6710E-05  0.0532
   8.0965E-02   8.2935E-02   3.7361E-05  0.0521
   8.2935E-02   8.4953E-02   3.7861E-05  0.0512
   8.4953E-02   8.7020E-02   3.3963E-05  0.0534
   8.7020E-02   8.9138E-02   3.5517E-05  0.0516
   8.9138E-02   9.1306E-02   3.5965E-05  0.0506
   9.1306E-02   9.3528E-02   3.6641E-05  0.0496
   9.3528E-02   9.5804E-02   3.7441E-05  0.0485
   9.5804E-02   9.8134E-02   3.5779E-05  0.0490
   9.8134E-02   1.0052E-01   3.6688E-05  0.0478
   1.0052E-01   1.0297E-01   3.5899E-05  0.0477
   1.0297E-01   1.0547E-01   3.5844E-05  0.0472
   1.0547E-01   1.0804E-01   3.7331E-05  0.0457
   1.0804E-01   1.1067E-01   3.6216E-05  0.0458
   1.1067E-01   1.1336E-01   3.5207E-05  0.0459
   1.1336E-01   1.1612E-01   3.6546E-05  0.0445
   1.1612E-01   1.1894E-01   3.5749E-05  0.0445
   1.1894E-01   1.2184E-01   3.9046E-05  0.0421
   1.2184E-01   1.2480E-01   3.7714E-05  0.0423
   1.2480E-01   1.2784E-01   3.7213E-05  0.0421
   1.2784E-01   1.3095E-01   3.8065E-05  0.0411
   1.3095E-01   1.3414E-01   3.8228E-05  0.0405
   1.3414E-01   1.3740E-01   3.8730E-05  0.0398
   1.3740E-01   1.4074E-01   4.1340E-05  0.0380
   1.4074E-01   1.4417E-01   3.7262E-05  0.0396
   1.4417E-01   1.4767E-01   3.8886E-05  0.0383
   1.4767E-01   1.5127E-01   3.7740E-05  0.0384
   1.5127E-01   1.5495E-01   4.0430E-05  0.0367
   1.5495E-01   1.5872E-01   4.1326E-05  0.0358
   1.5872E-01   1.6258E-01   3.9775E-05  0.0361
   1.6258E-01   1.6654E-01   3.6707E-05  0.0371
   1.6654E-01   1.7059E-01   4.0771E-05  0.0348
   1.7059E-01   1.7474E-01   3.8742E-05  0.0353
   1.7474E-01   1.7899E-01   3.9327E-05  0.0346
   1.7899E-01   1.8334E-01   3.7199E-05  0.0351
   1.8334E-01   1.8781E-01   4.1695E-05  0.0328
   1.8781E-01   1.9237E-01   3.9873E-05  0.0331
   1.9237E-01   1.9706E-01   4.1490E-05  0.0321
   1.9706E-01   2.0185E-01   3.8961E-05  0.0327
   2.0185E-01   2.0676E-01   4.0927E-05  0.0315
   2.0676E-01   2.1179E-01   4.2062E-05  0.0307
   2.1179E-01   2.1694E-01   4.1024E-05  0.0308
   2.1694E-01   2.2222E-01   4.1414E-05  0.0302
   2.2222E-01   2.2763E-01   4.2428E-05  0.0295
   2.2763E-01   2.3317E-01   3.9614E-05  0.0302
   2.3317E-01   2.3884E-01   4.2904E-05  0.0287
   2.3884E-01   2.4465E-01   4.0198E-05  0.0293
   2.4465E-01   2.5061E-01   4.1864E-05  0.0283
   2.5061E-01   2.5670E-01   4.1952E-05  0.0280
   2.5670E-01   2.6295E-01   4.3934E-05  0.0270
   2.6295E-01   2.6935E-01   4.4109E-05  0.0266
   2.6935E-01   2.7590E-01   4.2817E-05  0.0267
   2.7590E-01   2.8261E-01   4.3379E-05  0.0262
   2.8261E-01   2.8949E-01   4.4705E-05  0.0255
   2.8949E-01   2.9653E-01   4.3842E-05  0.0254
   2.9653E-01   3.0375E-01   4.3244E-05  0.0253
   3.0375E-01   3.1114E-01   4.5978E-05  0.0243
   3.1114E-01   3.1871E-01   4.3090E-05  0.0248
   3.1871E-01   3.2646E-01   4.4336E-05  0.0241
   3.2646E-01   3.3441E-01   4.4063E-05  0.0239
   3.3441E-01   3.4254E-01   4.4148E-05  0.0236
   3.4254E-01   3.5088E-01   4.4083E-05  0.0233
   3.5088E-01   3.5941E-01   4.5847E-05  0.0226
   3.5941E-01   3.6816E-01   4.5170E-05  0.0225
   3.6816E-01   3.7712E-01   4.5503E-05  0.0222
   3.7712E-01   3.8629E-01   4.6733E-05  0.0216
   3.8629E-01   3.9569E-01   4.4644E-05  0.0218
   3.9569E-01   4.0532E-01   4.4809E-05  0.0215
   4.0532E-01   4.1518E-01   4.7761E-05  0.0206
   4.1518E-01   4.2528E-01   4.6250E-05  0.0207
   4.2528E-01   4.3563E-01   4.5751E-05  0.0206
   4.3563E-01   4.4623E-01   4.6645E-05  0.0201
   4.4623E-01   4.5708E-01   4.7748E-05  0.0196
   4.5708E-01   4.6821E-01   4.6542E-05  0.0197
   4.6821E-01   4.7960E-01   4.8684E-05  0.0190
   4.7960E-01   4.9127E-01   4.6277E-05  0.0193
   4.9127E-01   5.0322E-01   4.6516E-05  0.0190
   5.0322E-01   5.1546E-01   4.8139E-05  0.0184
   5.1546E-01   5.2800E-01   4.5321E-05  0.0188
   5.2800E-01   5.4085E-01   4.8417E-05  0.0179
   5.4085E-01   5.5401E-01   4.7890E-05  0.0178
   5.5401E-01   5.6749E-01   4.7242E-05  0.0177
   5.6749E-01   5.8130E-01   4.7815E-05  0.0174
   5.8130E-01   5.9544E-01   4.6877E-05  0.0174
   5.9544E-01   6.0993E-01   4.7682E-05  0.0170
   6.0993E-01   6.2477E-01   4.8746E-05  0.0166
   6.2477E-01   6.3997E-01   4.7325E-05  0.0167
   6.3997E-01   6.5554E-01   4.8218E-05  0.0163
   6.5554E-01   6.7149E-01   4.8026E-05  0.0162
   6.7149E-01   6.8783E-01   4.7827E-05  0.0160
   6.8783E-01   7.0456E-01   4.6787E-05  0.0160
   7.0456E-01   7.2171E-01   4.7939E-05  0.0156
   7.2171E-01   7.3927E-01   4.7256E-05  0.0155
   7.3927E-01   7.5725E-01   4.8368E-05  0.0152
   7.5725E-01   7.7568E-01   4.7046E-05  0.0152
   7.7568E-01   7.9455E-01   4.7370E-05  0.0150
   7.9455E-01   8.1388E-01   4.8872E-05  0.0145
   8.1388E-01   8.3368E-01   4.8004E-05  0.0145
   8.3368E-01   8.5397E-01   4.7327E-05  0.0144
   8.5397E-01   8.7475E-01   4.7888E-05  0.0142
   8.7475E-01   8.9603E-01   4.7277E-05  0.0141
   8.9603E-01   9.1783E-01   4.5365E-05  0.0142
   9.1783E-01   9.4016E-01   4.5944E-05  0.0140
   9.4016E-01   9.6304E-01   4.6584E-05  0.0137
   9.6304E-01   9.8647E-01   4.5870E-05  0.0136
   9.8647E-01   1.0105E+00   4.5872E-05  0.0135
   1.0105E+00   1.0351E+00   4.5628E-05  0.0134
   1.0351E+00   1.0602E+00   4.4680E-05  0.0133
   1.0602E+00   1.0860E+00   4.7301E-05  0.0128
   1.0860E+00   1.1125E+00   4.7177E-05  0.0127
   1.1125E+00   1.1395E+00   4.6898E-05  0.0126
   1.1395E+00   1.1673E+00   4.8504E-05  0.0122
   1.1673E+00   1.1957E+00   4.9697E-05  0.0119
   1.1957E+00   1.2247E+00   4.9912E-05  0.0117
   1.2247E+00   1.2545E+00   5.1102E-05  0.0115
   1.2545E+00   1.2851E+00   5.0439E-05  0.0114
   1.2851E+00   1.3163E+00   5.1441E-05  0.0112
   1.3163E+00   1.3484E+00   5.1837E-05  0.0110
   1.3484E+00   1.3812E+00   5.2953E-05  0.0107
   1.3812E+00   1.4148E+00   5.2837E-05  0.0106
   1.4148E+00   1.4492E+00   5.3796E-05  0.0104
   1.4492E+00   1.4845E+00   5.3931E-05  0.0103
   1.4845E+00   1.5206E+00   5.4754E-05  0.0101
   1.5206E+00   1.5576E+00   5.4318E-05  0.0100
   1.5576E+00   1.5955E+00   5.5635E-05  0.0097
   1.5955E+00   1.6343E+00   5.4721E-05  0.0097
   1.6343E+00   1.6741E+00   5.6227E-05  0.0095
   1.6741E+00   1.7148E+00   5.6424E-05  0.0093
   1.7148E+00   1.7565E+00   5.5846E-05  0.0093
   1.7565E+00   1.7992E+00   5.7140E-05  0.0091
   1.7992E+00   1.8430E+00   5.5851E-05  0.0090
   1.8430E+00   1.8879E+00   5.6005E-05  0.0089
   1.8879E+00   1.9338E+00   5.6844E-05  0.0088
   1.9338E+00   1.9808E+00   5.6985E-05  0.0086
   1.9808E+00   2.0290E+00   5.6785E-05  0.0086
   2.0290E+00   2.0784E+00   5.6206E-05  0.0085
   2.0784E+00   2.1290E+00   5.6295E-05  0.0084
   2.1290E+00   2.1808E+00   5.5626E-05  0.0083
   2.1808E+00   2.2338E+00   5.5496E-05  0.0082
   2.2338E+00   2.2882E+00   5.5108E-05  0.0082
   2.2882E+00   2.3439E+00   5.4622E-05  0.0081
   2.3439E+00   2.4009E+00   5.4349E-05  0.0080
   2.4009E+00   2.4593E+00   5.3667E-05  0.0080
   2.4593E+00   2.5191E+00   5.3800E-05  0.0079
   2.5191E+00   2.5804E+00   5.3155E-05  0.0078
   2.5804E+00   2.6432E+00   5.1911E-05  0.0078
   2.6432E+00   2.7075E+00   5.1073E-05  0.0078
   2.7075E+00   2.7734E+00   4.9959E-05  0.0078
   2.7734E+00   2.8409E+00   4.9586E-05  0.0077
   2.8409E+00   2.9100E+00   4.8803E-05  0.0077
   2.9100E+00   2.9808E+00   4.8202E-05  0.0077
   2.9808E+00   3.0533E+00   4.7390E-05  0.0076
   3.0533E+00   3.1276E+00   4.5676E-05  0.0077
   3.1276E+00   3.2037E+00   4.5839E-05  0.0076
   3.2037E+00   3.2817E+00   4.4493E-05  0.0076
   3.2817E+00   3.3615E+00   4.2826E-05  0.0077
   3.3615E+00   3.4433E+00   4.1309E-05  0.0077
   3.4433E+00   3.5271E+00   4.1057E-05  0.0076
   3.5271E+00   3.6129E+00   4.0122E-05  0.0076
   3.6129E+00   3.7008E+00   3.9137E-05  0.0076
   3.7008E+00   3.7908E+00   3.7571E-05  0.0077
   3.7908E+00   3.8831E+00   3.6884E-05  0.0077
   3.8831E+00   3.9776E+00   3.5397E-05  0.0077
   3.9776E+00   4.0743E+00   3.4009E-05  0.0078
   4.0743E+00   4.1735E+00   3.2919E-05  0.0078
   4.1735E+00   4.2750E+00   3.1606E-05  0.0079
   4.2750E+00   4.3790E+00   3.0720E-05  0.0079
   4.3790E+00   4.4856E+00   2.9408E-05  0.0080
   4.4856E+00   4.5947E+00   2.8089E-05  0.0081
   4.5947E+00   4.7065E+00   2.7019E-05  0.0081
   4.7065E+00   4.8210E+00   2.5958E-05  0.0082
   4.8210E+00   4.9383E+00   2.4841E-05  0.0083
   4.9383E+00   5.0585E+00   2.3690E-05  0.0084
   5.0585E+00   5.1815E+00   2.3052E-05  0.0084
   5.1815E+00   5.3076E+00   2.1506E-05  0.0086
   5.3076E+00   5.4368E+00   2.0644E-05  0.0087
   5.4368E+00   5.5690E+00   1.9701E-05  0.0088
   5.5690E+00   5.7045E+00   1.8376E-05  0.0090
   5.7045E+00   5.8433E+00   1.7995E-05  0.0089
   5.8433E+00   5.9855E+00   1.6946E-05  0.0091
   5.9855E+00   6.1311E+00   1.6237E-05  0.0092
   6.1311E+00   6.2803E+00   1.5426E-05  0.0093
   6.2803E+00   6.4331E+00   1.4634E-05  0.0095
   6.4331E+00   6.5896E+00   1.3678E-05  0.0097
   6.5896E+00   6.7500E+00   1.3102E-05  0.0098
   6.7500E+00   6.9142E+00   1.2643E-05  0.0098
   6.9142E+00   7.0824E+00   1.1791E-05  0.0100
   7.0824E+00   7.2548E+00   1.1040E-05  0.0103
   7.2548E+00   7.4313E+00   1.0531E-05  0.0104
   7.4313E+00   7.6121E+00   9.9575E-06  0.0105
   7.6121E+00   7.7973E+00   9.5153E-06  0.0107
   7.7973E+00   7.9870E+00   9.0542E-06  0.0108
   7.9870E+00   8.1813E+00   8.5329E-06  0.0110
   8.1813E+00   8.3804E+00   8.1660E-06  0.0111
   8.3804E+00   8.5843E+00   7.6684E-06  0.0113
   8.5843E+00   8.7931E+00   7.5701E-06  0.0112
   8.7931E+00   9.0071E+00   6.9242E-06  0.0116
   9.0071E+00   9.2262E+00   6.5462E-06  0.0118
   9.2262E+00   9.4507E+00   6.3284E-06  0.0119
   9.4507E+00   9.6807E+00   6.0445E-06  0.0120
   9.6807E+00   9.9162E+00   5.6127E-06  0.0123
   9.9162E+00   1.0157E+01   5.3152E-06  0.0125
   1.0157E+01   1.0405E+01   5.0554E-06  0.0127
   1.0405E+01   1.0658E+01   4.7019E-06  0.0130
   1.0658E+01   1.0917E+01   4.5116E-06  0.0131
   1.0917E+01   1.1183E+01   4.3058E-06  0.0132
   1.1183E+01   1.1455E+01   4.1002E-06  0.0134
   1.1455E+01   1.1733E+01   3.7961E-06  0.0137
   1.1733E+01   1.2019E+01   3.6716E-06  0.0138
   1.2019E+01   1.2311E+01   3.5065E-06  0.0140
   1.2311E+01   1.2611E+01   3.2706E-06  0.0143
   1.2611E+01   1.2918E+01   3.1046E-06  0.0145
   1.2918E+01   1.3232E+01   2.9485E-06  0.0147
   1.3232E+01   1.3554E+01   2.8135E-06  0.0149
   1.3554E+01   1.3884E+01   2.5835E-06  0.0153
   1.3884E+01   1.4222E+01   2.5296E-06  0.0153
   1.4222E+01   1.4568E+01   2.2842E-06  0.0159
   1.4568E+01   1.4922E+01   2.1383E-06  0.0162
   1.4922E+01   1.5285E+01   1.9928E-06  0.0166
   1.5285E+01   1.5657E+01   1.9242E-06  0.0167
   1.5657E+01   1.6038E+01   1.8388E-06  0.0169
   1.6038E+01   1.6428E+01   1.7144E-06  0.0173
   1.6428E+01   1.6828E+01   1.5531E-06  0.0179
   1.6828E+01   1.7237E+01   1.5123E-06  0.0180
   1.7237E+01   1.7657E+01   1.4173E-06  0.0183
   1.7657E+01   1.8086E+01   1.3045E-06  0.0189
   1.8086E+01   1.8526E+01   1.1789E-06  0.0196
   1.8526E+01   1.8977E+01   1.0968E-06  0.0201
   1.8977E+01   1.9439E+01   1.0513E-06  0.0203
   1.9439E+01   1.9912E+01   9.7428E-07  0.0208
   1.9912E+01   2.0396E+01   8.5743E-07  0.0219
   2.0396E+01   2.0893E+01   7.9837E-07  0.0225
   2.0893E+01   2.1401E+01   7.3298E-07  0.0232
   2.1401E+01   2.1922E+01   6.3222E-07  0.0246
   2.1922E+01   2.2455E+01   6.0333E-07  0.0249
   2.2455E+01   2.3001E+01   5.1689E-07  0.0266
   2.3001E+01   2.3561E+01   4.7602E-07  0.0274
   2.3561E+01   2.4134E+01   4.4831E-07  0.0279
   2.4134E+01   2.4721E+01   3.9611E-07  0.0293
   2.4721E+01   2.5323E+01   3.5146E-07  0.0308
   2.5323E+01   2.5939E+01   3.0059E-07  0.0329
   2.5939E+01   2.6570E+01   2.5447E-07  0.0353
   2.6570E+01   2.7217E+01   2.2089E-07  0.0374
   2.7217E+01   2.7879E+01   1.7517E-07  0.0415
   2.7879E+01   2.8557E+01   1.3799E-07  0.0462
   2.8557E+01   2.9252E+01   9.5852E-08  0.0548
   2.9252E+01   2.9964E+01   7.1095E-08  0.0629
   2.9964E+01   3.0693E+01   4.0601E-08  0.0822
   3.0693E+01   3.1440E+01   2.0622E-08  0.1140
   3.1440E+01   3.2205E+01   3.9218E-09  0.2582
   3.2205E+01   3.2988E+01   2.0420E-09  0.3536
   3.2988E+01   3.3791E+01   0.0000E+00  0.0000
   3.3791E+01   3.4613E+01   0.0000E+00  0.0000
   3.4613E+01   3.5455E+01   0.0000E+00  0.0000
   3.5455E+01   3.6318E+01   0.0000E+00  0.0000
   3.6318E+01   3.7201E+01   0.0000E+00  0.0000
   3.7201E+01   3.8106E+01   0.0000E+00  0.0000
   3.8106E+01   3.9034E+01   0.0000E+00  0.0000
   3.9034E+01   3.9983E+01   0.0000E+00  0.0000
   3.9983E+01   4.0956E+01   0.0000E+00  0.0000
   4.0956E+01   4.1953E+01   0.0000E+00  0.0000
   4.1953E+01   4.2973E+01   0.0000E+00  0.0000
   4.2973E+01   4.4019E+01   0.0000E+00  0.0000
   4.4019E+01   4.5090E+01   0.0000E+00  0.0000
   4.5090E+01   4.6187E+01   0.0000E+00  0.0000
   4.6187E+01   4.7311E+01   0.0000E+00  0.0000
   4.7311E+01   4.8462E+01   0.0000E+00  0.0000
   4.8462E+01   4.9641E+01   0.0000E+00  0.0000
   4.9641E+01   5.0849E+01   0.0000E+00  0.0000
   5.0849E+01   5.2086E+01   0.0000E+00  0.0000
   5.2086E+01   5.3353E+01   0.0000E+00  0.0000
   5.3353E+01   5.4651E+01   0.0000E+00  0.0000
   5.4651E+01   5.5981E+01   0.0000E+00  0.0000
   5.5981E+01   5.7343E+01   0.0000E+00  0.0000
   5.7343E+01   5.8738E+01   0.0000E+00  0.0000
   5.8738E+01   6.0168E+01   0.0000E+00  0.0000
   6.0168E+01   6.1632E+01   0.0000E+00  0.0000
   6.1632E+01   6.3131E+01   0.0000E+00  0.0000
   6.3131E+01   6.4667E+01   0.0000E+00  0.0000
   6.4667E+01   6.6240E+01   0.0000E+00  0.0000
   6.6240E+01   6.7852E+01   0.0000E+00  0.0000
   6.7852E+01   6.9503E+01   0.0000E+00  0.0000
   6.9503E+01   7.1194E+01   0.0000E+00  0.0000
   7.1194E+01   7.2926E+01   0.0000E+00  0.0000
   7.2926E+01   7.4701E+01   0.0000E+00  0.0000
   7.4701E+01   7.6518E+01   0.0000E+00  0.0000
   7.6518E+01   7.8380E+01   0.0000E+00  0.0000
   7.8380E+01   8.0287E+01   0.0000E+00  0.0000
   8.0287E+01   8.2240E+01   0.0000E+00  0.0000
   8.2240E+01   8.4241E+01   0.0000E+00  0.0000
   8.4241E+01   8.6291E+01   0.0000E+00  0.0000
   8.6291E+01   8.8391E+01   0.0000E+00  0.0000
   8.8391E+01   9.0541E+01   0.0000E+00  0.0000
   9.0541E+01   9.2744E+01   0.0000E+00  0.0000
   9.2744E+01   9.5001E+01   0.0000E+00  0.0000
   9.5001E+01   9.7312E+01   0.0000E+00  0.0000
   9.7312E+01   9.9680E+01   0.0000E+00  0.0000
   9.9680E+01   1.0211E+02   0.0000E+00  0.0000
   1.0211E+02   1.0459E+02   0.0000E+00  0.0000
   1.0459E+02   1.0713E+02   0.0000E+00  0.0000
   1.0713E+02   1.0974E+02   0.0000E+00  0.0000
   1.0974E+02   1.1241E+02   0.0000E+00  0.0000
   1.1241E+02   1.1515E+02   0.0000E+00  0.0000
   1.1515E+02   1.1795E+02   0.0000E+00  0.0000
   1.1795E+02   1.2082E+02   0.0000E+00  0.0000
   1.2082E+02   1.2376E+02   0.0000E+00  0.0000
   1.2376E+02   1.2677E+02   0.0000E+00  0.0000
   1.2677E+02   1.2985E+02   0.0000E+00  0.0000
   1.2985E+02   1.3301E+02   0.0000E+00  0.0000
   1.3301E+02   1.3625E+02   0.0000E+00  0.0000
   1.3625E+02   1.3956E+02   0.0000E+00  0.0000
   1.3956E+02   1.4296E+02   0.0000E+00  0.0000
   1.4296E+02   1.4644E+02   0.0000E+00  0.0000
   1.4644E+02   1.5000E+02   0.0000E+00  0.0000

#   sum over                 2.0350E-06
'no. =    1   reg = 112 - 212'
msuc: {\huge [t-cross] in region mesh}
msdr: {\it plotted by \ANGEL \version}
msdl: {\it calculated by \PHITS  3.26}
wt: s(0.7)
\vspace{-3}
  region surface crossing
  area  &=&   1.0000E+00 [cm^2]
e:
 
# Information for Restart Calculation
# This calculation was newly started
# istdev =  2 # 1:Batch variance, 2:History variance
# resc2  = 5.00000000000000000E+09 # Total source weight or Total source weight / maxcas
# resc3  = 5.00000000000000000E+09 # Total history number or Total batch number
# maxcas =   500000000 # History / Batch, only used for istdev=1
# bitrseed = 0110100000100010111000001110001111001110100100011111101000111001 # bit data of rseed
