[ T-Cross ]
    title = [t-cross] in region mesh
     mesh =  reg            # mesh type is region-wise
      reg =    1            # number of crossing regions
      non     r-from    r-to       area
      1       118       218        1.000000    
   e-type =    3            # e-mesh is log given by emin, emax and ne
     emin =  1.0000000E-02  # minimum value of e-mesh points
     emax =   150.0000      # maximum value of e-mesh points
#    edel =  2.4039514E-02  # mesh width of e-mesh points
       ne =    400          # number of e-mesh points
#    data = ( e(i), i = 1, ne + 1 )
#           1.00000E-02  1.02433E-02  1.04925E-02  1.07478E-02  1.10093E-02
#           1.12772E-02  1.15516E-02  1.18326E-02  1.21205E-02  1.24154E-02
#           1.27175E-02  1.30269E-02  1.33439E-02  1.36686E-02  1.40011E-02
#           1.43418E-02  1.46907E-02  1.50482E-02  1.54143E-02  1.57894E-02
#           1.61735E-02  1.65670E-02  1.69701E-02  1.73830E-02  1.78060E-02
#           1.82392E-02  1.86830E-02  1.91375E-02  1.96032E-02  2.00801E-02
#           2.05687E-02  2.10692E-02  2.15818E-02  2.21069E-02  2.26448E-02
#           2.31957E-02  2.37601E-02  2.43382E-02  2.49304E-02  2.55369E-02
#           2.61583E-02  2.67947E-02  2.74467E-02  2.81145E-02  2.87985E-02
#           2.94992E-02  3.02169E-02  3.09521E-02  3.17052E-02  3.24766E-02
#           3.32668E-02  3.40762E-02  3.49053E-02  3.57546E-02  3.66246E-02
#           3.75157E-02  3.84284E-02  3.93634E-02  4.03212E-02  4.13022E-02
#           4.23071E-02  4.33365E-02  4.43909E-02  4.54710E-02  4.65773E-02
#           4.77106E-02  4.88714E-02  5.00605E-02  5.12785E-02  5.25262E-02
#           5.38042E-02  5.51133E-02  5.64542E-02  5.78278E-02  5.92348E-02
#           6.06760E-02  6.21523E-02  6.36645E-02  6.52135E-02  6.68002E-02
#           6.84255E-02  7.00904E-02  7.17957E-02  7.35426E-02  7.53319E-02
#           7.71648E-02  7.90423E-02  8.09655E-02  8.29354E-02  8.49533E-02
#           8.70203E-02  8.91376E-02  9.13064E-02  9.35279E-02  9.58035E-02
#           9.81345E-02  1.00522E-01  1.02968E-01  1.05473E-01  1.08040E-01
#           1.10668E-01  1.13361E-01  1.16119E-01  1.18944E-01  1.21838E-01
#           1.24803E-01  1.27839E-01  1.30950E-01  1.34136E-01  1.37399E-01
#           1.40742E-01  1.44167E-01  1.47675E-01  1.51268E-01  1.54948E-01
#           1.58718E-01  1.62580E-01  1.66535E-01  1.70587E-01  1.74738E-01
#           1.78989E-01  1.83344E-01  1.87805E-01  1.92375E-01  1.97055E-01
#           2.01850E-01  2.06761E-01  2.11792E-01  2.16945E-01  2.22223E-01
#           2.27630E-01  2.33169E-01  2.38842E-01  2.44653E-01  2.50605E-01
#           2.56703E-01  2.62949E-01  2.69346E-01  2.75900E-01  2.82613E-01
#           2.89489E-01  2.96532E-01  3.03747E-01  3.11138E-01  3.18708E-01
#           3.26462E-01  3.34405E-01  3.42542E-01  3.50876E-01  3.59413E-01
#           3.68158E-01  3.77116E-01  3.86291E-01  3.95690E-01  4.05317E-01
#           4.15179E-01  4.25281E-01  4.35628E-01  4.46227E-01  4.57084E-01
#           4.68205E-01  4.79597E-01  4.91266E-01  5.03219E-01  5.15463E-01
#           5.28005E-01  5.40851E-01  5.54011E-01  5.67490E-01  5.81298E-01
#           5.95441E-01  6.09929E-01  6.24769E-01  6.39970E-01  6.55541E-01
#           6.71491E-01  6.87828E-01  7.04564E-01  7.21706E-01  7.39266E-01
#           7.57253E-01  7.75678E-01  7.94551E-01  8.13883E-01  8.33685E-01
#           8.53969E-01  8.74747E-01  8.96030E-01  9.17831E-01  9.40163E-01
#           9.63038E-01  9.86469E-01  1.01047E+00  1.03506E+00  1.06024E+00
#           1.08604E+00  1.11246E+00  1.13953E+00  1.16725E+00  1.19565E+00
#           1.22474E+00  1.25454E+00  1.28507E+00  1.31633E+00  1.34836E+00
#           1.38117E+00  1.41477E+00  1.44920E+00  1.48446E+00  1.52057E+00
#           1.55757E+00  1.59547E+00  1.63429E+00  1.67405E+00  1.71478E+00
#           1.75650E+00  1.79924E+00  1.84302E+00  1.88786E+00  1.93379E+00
#           1.98084E+00  2.02904E+00  2.07841E+00  2.12898E+00  2.18078E+00
#           2.23384E+00  2.28819E+00  2.34386E+00  2.40089E+00  2.45930E+00
#           2.51914E+00  2.58043E+00  2.64322E+00  2.70753E+00  2.77341E+00
#           2.84088E+00  2.91001E+00  2.98081E+00  3.05333E+00  3.12762E+00
#           3.20372E+00  3.28167E+00  3.36152E+00  3.44330E+00  3.52708E+00
#           3.61290E+00  3.70080E+00  3.79085E+00  3.88308E+00  3.97756E+00
#           4.07434E+00  4.17347E+00  4.27501E+00  4.37903E+00  4.48557E+00
#           4.59471E+00  4.70650E+00  4.82102E+00  4.93832E+00  5.05847E+00
#           5.18155E+00  5.30762E+00  5.43676E+00  5.56904E+00  5.70453E+00
#           5.84333E+00  5.98550E+00  6.13114E+00  6.28031E+00  6.43312E+00
#           6.58964E+00  6.74997E+00  6.91420E+00  7.08243E+00  7.25475E+00
#           7.43126E+00  7.61207E+00  7.79728E+00  7.98700E+00  8.18133E+00
#           8.38038E+00  8.58428E+00  8.79315E+00  9.00709E+00  9.22624E+00
#           9.45072E+00  9.68067E+00  9.91620E+00  1.01575E+01  1.04046E+01
#           1.06578E+01  1.09171E+01  1.11827E+01  1.14548E+01  1.17335E+01
#           1.20190E+01  1.23114E+01  1.26109E+01  1.29178E+01  1.32321E+01
#           1.35540E+01  1.38838E+01  1.42216E+01  1.45676E+01  1.49221E+01
#           1.52851E+01  1.56570E+01  1.60380E+01  1.64282E+01  1.68279E+01
#           1.72374E+01  1.76568E+01  1.80864E+01  1.85264E+01  1.89772E+01
#           1.94389E+01  1.99119E+01  2.03963E+01  2.08926E+01  2.14009E+01
#           2.19216E+01  2.24550E+01  2.30014E+01  2.35610E+01  2.41343E+01
#           2.47215E+01  2.53230E+01  2.59391E+01  2.65702E+01  2.72167E+01
#           2.78789E+01  2.85572E+01  2.92520E+01  2.99637E+01  3.06928E+01
#           3.14396E+01  3.22045E+01  3.29881E+01  3.37907E+01  3.46128E+01
#           3.54550E+01  3.63177E+01  3.72013E+01  3.81064E+01  3.90336E+01
#           3.99833E+01  4.09561E+01  4.19526E+01  4.29734E+01  4.40189E+01
#           4.50900E+01  4.61870E+01  4.73108E+01  4.84619E+01  4.96410E+01
#           5.08488E+01  5.20860E+01  5.33533E+01  5.46514E+01  5.59812E+01
#           5.73432E+01  5.87384E+01  6.01676E+01  6.16315E+01  6.31311E+01
#           6.46671E+01  6.62405E+01  6.78522E+01  6.95031E+01  7.11941E+01
#           7.29263E+01  7.47007E+01  7.65182E+01  7.83800E+01  8.02870E+01
#           8.22405E+01  8.42414E+01  8.62911E+01  8.83906E+01  9.05412E+01
#           9.27442E+01  9.50007E+01  9.73122E+01  9.96799E+01  1.02105E+02
#           1.04589E+02  1.07134E+02  1.09741E+02  1.12411E+02  1.15146E+02
#           1.17948E+02  1.20817E+02  1.23757E+02  1.26768E+02  1.29852E+02
#           1.33012E+02  1.36248E+02  1.39563E+02  1.42959E+02  1.46437E+02
#           1.50000E+02
     unit =    2            # unit is [1/cm^2/(MeV/n)/source]
     axis =  eng            # axis of output
     file = detector-19.out  # file name of output for the above axis
   output = f-curr          # surface crossing forward current spectrum
     part =  neutron  
# kf/name :  2112     
#    used :        main (  %)        temp (  %)       total (  %)
#  memory :         414 (  0)           0 (  0)         414 (  0)

#------------------------------------------------------------------------------
#newpage:
#   no. =    1   reg = 118 - 218

x: Energy [MeV/n]
y:  F-Curr [1/cm^2/(MeV/n)/source]         
p: xlog ylog afac(0.8) form(0.9)
h: n            x            y(neutron ),hh0l   n 
#  e-lower      e-upper      neutron     r.err 
   1.0000E-02   1.0243E-02   1.6010E-07  1.0000
   1.0243E-02   1.0493E-02   0.0000E+00  0.0000
   1.0493E-02   1.0748E-02   0.0000E+00  0.0000
   1.0748E-02   1.1009E-02   0.0000E+00  0.0000
   1.1009E-02   1.1277E-02   0.0000E+00  0.0000
   1.1277E-02   1.1552E-02   7.2891E-07  1.0000
   1.1552E-02   1.1833E-02   7.1159E-07  1.0000
   1.1833E-02   1.2121E-02   6.9469E-07  1.0000
   1.2121E-02   1.2415E-02   8.3076E-07  0.8368
   1.2415E-02   1.2718E-02   0.0000E+00  0.0000
   1.2718E-02   1.3027E-02   1.0839E-07  1.0000
   1.3027E-02   1.3344E-02   6.3100E-07  1.0000
   1.3344E-02   1.3669E-02   6.1601E-07  1.0000
   1.3669E-02   1.4001E-02   1.8041E-06  0.5774
   1.4001E-02   1.4342E-02   8.6667E-08  1.0000
   1.4342E-02   1.4691E-02   2.2926E-06  0.5000
   1.4691E-02   1.5048E-02   6.3766E-07  0.8860
   1.5048E-02   1.5414E-02   4.9105E-07  1.0000
   1.5414E-02   1.5789E-02   0.0000E+00  0.0000
   1.5789E-02   1.6174E-02   6.2945E-07  0.8450
   1.6174E-02   1.6567E-02   5.0824E-07  1.0000
   1.6567E-02   1.6970E-02   1.1633E-06  0.6208
   1.6970E-02   1.7383E-02   3.0014E-06  0.3966
   1.7383E-02   1.7806E-02   4.7288E-07  1.0000
   1.7806E-02   1.8239E-02   9.2329E-07  0.7071
   1.8239E-02   1.8683E-02   2.7041E-06  0.4082
   1.8683E-02   1.9138E-02   1.8380E-06  0.4806
   1.9138E-02   1.9603E-02   0.0000E+00  0.0000
   1.9603E-02   2.0080E-02   5.2259E-07  0.8264
   2.0080E-02   2.0569E-02   5.0355E-07  0.8342
   2.0569E-02   2.1069E-02   2.1980E-06  0.4166
   2.1069E-02   2.1582E-02   7.8029E-07  0.7071
   2.1582E-02   2.2107E-02   2.2575E-06  0.4084
   2.2107E-02   2.2645E-02   4.6032E-07  0.8303
   2.2645E-02   2.3196E-02   3.6300E-07  1.0000
   2.3196E-02   2.3760E-02   2.4806E-06  0.3780
   2.3760E-02   2.4338E-02   2.9319E-06  0.3384
   2.4338E-02   2.4930E-02   1.8132E-06  0.4221
   2.4930E-02   2.5537E-02   2.3652E-06  0.3696
   2.5537E-02   2.6158E-02   1.4125E-06  0.4603
   2.6158E-02   2.6795E-02   2.0259E-06  0.3831
   2.6795E-02   2.7447E-02   1.8407E-06  0.4082
   2.7447E-02   2.8114E-02   2.3726E-06  0.3537
   2.8114E-02   2.8799E-02   2.7081E-06  0.3155
   2.8799E-02   2.9499E-02   2.8543E-06  0.3162
   2.9499E-02   3.0217E-02   1.5006E-06  0.4213
   3.0217E-02   3.0952E-02   4.2717E-06  0.2490
   3.0952E-02   3.1705E-02   2.2384E-06  0.3375
   3.1705E-02   3.2477E-02   3.4331E-06  0.2729
   3.2477E-02   3.3267E-02   3.7652E-06  0.2539
   3.3267E-02   3.4076E-02   4.4794E-06  0.2341
   3.4076E-02   3.4905E-02   3.5864E-06  0.2551
   3.4905E-02   3.5755E-02   2.8259E-06  0.2887
   3.5755E-02   3.6625E-02   4.2350E-06  0.2309
   3.6625E-02   3.7516E-02   4.0616E-06  0.2303
   3.7516E-02   3.8428E-02   6.7151E-06  0.1769
   3.8428E-02   3.9363E-02   3.4524E-06  0.2427
   3.9363E-02   4.0321E-02   7.6898E-06  0.1634
   4.0321E-02   4.1302E-02   7.8558E-06  0.1586
   4.1302E-02   4.2307E-02   4.1996E-06  0.2137
   4.2307E-02   4.3337E-02   7.1469E-06  0.1640
   4.3337E-02   4.4391E-02   7.1584E-06  0.1602
   4.4391E-02   4.5471E-02   6.5806E-06  0.1652
   4.5471E-02   4.6577E-02   5.9992E-06  0.1715
   4.6577E-02   4.7711E-02   5.3380E-06  0.1796
   4.7711E-02   4.8871E-02   7.0048E-06  0.1533
   4.8871E-02   5.0061E-02   6.7482E-06  0.1562
   5.0061E-02   5.1279E-02   7.9731E-06  0.1419
   5.1279E-02   5.2526E-02   6.6632E-06  0.1542
   5.2526E-02   5.3804E-02   8.0496E-06  0.1375
   5.3804E-02   5.5113E-02   9.8829E-06  0.1237
   5.5113E-02   5.6454E-02   8.4620E-06  0.1323
   5.6454E-02   5.7828E-02   8.9584E-06  0.1250
   5.7828E-02   5.9235E-02   8.0284E-06  0.1312
   5.9235E-02   6.0676E-02   1.1687E-05  0.1077
   6.0676E-02   6.2152E-02   1.3104E-05  0.1009
   6.2152E-02   6.3665E-02   1.0133E-05  0.1128
   6.3665E-02   6.5214E-02   1.1813E-05  0.1031
   6.5214E-02   6.6800E-02   1.2824E-05  0.0971
   6.6800E-02   6.8426E-02   1.2260E-05  0.0992
   6.8426E-02   7.0090E-02   1.2967E-05  0.0947
   7.0090E-02   7.1796E-02   1.2771E-05  0.0942
   7.1796E-02   7.3543E-02   1.2386E-05  0.0951
   7.3543E-02   7.5332E-02   1.5649E-05  0.0834
   7.5332E-02   7.7165E-02   1.3664E-05  0.0879
   7.7165E-02   7.9042E-02   1.7234E-05  0.0778
   7.9042E-02   8.0965E-02   1.8566E-05  0.0738
   8.0965E-02   8.2935E-02   1.7422E-05  0.0748
   8.2935E-02   8.4953E-02   1.6228E-05  0.0770
   8.4953E-02   8.7020E-02   2.0916E-05  0.0669
   8.7020E-02   8.9138E-02   2.1742E-05  0.0651
   8.9138E-02   9.1306E-02   2.0739E-05  0.0657
   9.1306E-02   9.3528E-02   2.2234E-05  0.0627
   9.3528E-02   9.5804E-02   2.1647E-05  0.0627
   9.5804E-02   9.8134E-02   2.1572E-05  0.0623
   9.8134E-02   1.0052E-01   2.5762E-05  0.0561
   1.0052E-01   1.0297E-01   2.7158E-05  0.0542
   1.0297E-01   1.0547E-01   2.6221E-05  0.0545
   1.0547E-01   1.0804E-01   2.8951E-05  0.0513
   1.0804E-01   1.1067E-01   2.9465E-05  0.0500
   1.1067E-01   1.1336E-01   2.8030E-05  0.0507
   1.1336E-01   1.1612E-01   2.9387E-05  0.0491
   1.1612E-01   1.1894E-01   3.1937E-05  0.0465
   1.1894E-01   1.2184E-01   3.6976E-05  0.0427
   1.2184E-01   1.2480E-01   3.3434E-05  0.0442
   1.2480E-01   1.2784E-01   3.6077E-05  0.0421
   1.2784E-01   1.3095E-01   4.0277E-05  0.0394
   1.3095E-01   1.3414E-01   3.6642E-05  0.0408
   1.3414E-01   1.3740E-01   4.4598E-05  0.0366
   1.3740E-01   1.4074E-01   4.6135E-05  0.0355
   1.4074E-01   1.4417E-01   4.3690E-05  0.0361
   1.4417E-01   1.4767E-01   4.8368E-05  0.0339
   1.4767E-01   1.5127E-01   4.9267E-05  0.0332
   1.5127E-01   1.5495E-01   5.2937E-05  0.0317
   1.5495E-01   1.5872E-01   5.5298E-05  0.0306
   1.5872E-01   1.6258E-01   5.3803E-05  0.0306
   1.6258E-01   1.6654E-01   5.7429E-05  0.0293
   1.6654E-01   1.7059E-01   6.0067E-05  0.0283
   1.7059E-01   1.7474E-01   6.2056E-05  0.0275
   1.7474E-01   1.7899E-01   6.3696E-05  0.0268
   1.7899E-01   1.8334E-01   6.7233E-05  0.0258
   1.8334E-01   1.8781E-01   6.9518E-05  0.0251
   1.8781E-01   1.9237E-01   6.9264E-05  0.0248
   1.9237E-01   1.9706E-01   7.1956E-05  0.0240
   1.9706E-01   2.0185E-01   8.1497E-05  0.0223
   2.0185E-01   2.0676E-01   8.0318E-05  0.0223
   2.0676E-01   2.1179E-01   7.8801E-05  0.0222
   2.1179E-01   2.1694E-01   8.5162E-05  0.0211
   2.1694E-01   2.2222E-01   8.9971E-05  0.0203
   2.2222E-01   2.2763E-01   9.2928E-05  0.0197
   2.2763E-01   2.3317E-01   9.5843E-05  0.0192
   2.3317E-01   2.3884E-01   9.8144E-05  0.0187
   2.3884E-01   2.4465E-01   1.0123E-04  0.0182
   2.4465E-01   2.5061E-01   1.0399E-04  0.0178
   2.5061E-01   2.5670E-01   1.1002E-04  0.0171
   2.5670E-01   2.6295E-01   1.1200E-04  0.0167
   2.6295E-01   2.6935E-01   1.1533E-04  0.0163
   2.6935E-01   2.7590E-01   1.2059E-04  0.0157
   2.7590E-01   2.8261E-01   1.2675E-04  0.0152
   2.8261E-01   2.8949E-01   1.2860E-04  0.0149
   2.8949E-01   2.9653E-01   1.3319E-04  0.0144
   2.9653E-01   3.0375E-01   1.3543E-04  0.0142
   3.0375E-01   3.1114E-01   1.4158E-04  0.0137
   3.1114E-01   3.1871E-01   1.4239E-04  0.0135
   3.1871E-01   3.2646E-01   1.4517E-04  0.0132
   3.2646E-01   3.3441E-01   1.5801E-04  0.0125
   3.3441E-01   3.4254E-01   1.5804E-04  0.0124
   3.4254E-01   3.5088E-01   1.5754E-04  0.0122
   3.5088E-01   3.5941E-01   1.6425E-04  0.0118
   3.5941E-01   3.6816E-01   1.6696E-04  0.0116
   3.6816E-01   3.7712E-01   1.7547E-04  0.0112
   3.7712E-01   3.8629E-01   1.7973E-04  0.0109
   3.8629E-01   3.9569E-01   1.8195E-04  0.0107
   3.9569E-01   4.0532E-01   1.9041E-04  0.0104
   4.0532E-01   4.1518E-01   1.8748E-04  0.0103
   4.1518E-01   4.2528E-01   1.9051E-04  0.0101
   4.2528E-01   4.3563E-01   1.9794E-04  0.0098
   4.3563E-01   4.4623E-01   2.0005E-04  0.0096
   4.4623E-01   4.5708E-01   2.0553E-04  0.0094
   4.5708E-01   4.6821E-01   2.0878E-04  0.0092
   4.6821E-01   4.7960E-01   2.1321E-04  0.0090
   4.7960E-01   4.9127E-01   2.1503E-04  0.0089
   4.9127E-01   5.0322E-01   2.1957E-04  0.0087
   5.0322E-01   5.1546E-01   2.2178E-04  0.0085
   5.1546E-01   5.2800E-01   2.2707E-04  0.0083
   5.2800E-01   5.4085E-01   2.3348E-04  0.0081
   5.4085E-01   5.5401E-01   2.3621E-04  0.0080
   5.5401E-01   5.6749E-01   2.3879E-04  0.0078
   5.6749E-01   5.8130E-01   2.4402E-04  0.0077
   5.8130E-01   5.9544E-01   2.4676E-04  0.0075
   5.9544E-01   6.0993E-01   2.4680E-04  0.0074
   6.0993E-01   6.2477E-01   2.5374E-04  0.0072
   6.2477E-01   6.3997E-01   2.5788E-04  0.0071
   6.3997E-01   6.5554E-01   2.6102E-04  0.0070
   6.5554E-01   6.7149E-01   2.6254E-04  0.0069
   6.7149E-01   6.8783E-01   2.6554E-04  0.0067
   6.8783E-01   7.0456E-01   2.6847E-04  0.0066
   7.0456E-01   7.2171E-01   2.7392E-04  0.0065
   7.2171E-01   7.3927E-01   2.7348E-04  0.0064
   7.3927E-01   7.5725E-01   2.7856E-04  0.0063
   7.5725E-01   7.7568E-01   2.7919E-04  0.0062
   7.7568E-01   7.9455E-01   2.8240E-04  0.0061
   7.9455E-01   8.1388E-01   2.8445E-04  0.0060
   8.1388E-01   8.3368E-01   2.8646E-04  0.0059
   8.3368E-01   8.5397E-01   2.9110E-04  0.0058
   8.5397E-01   8.7475E-01   2.9059E-04  0.0057
   8.7475E-01   8.9603E-01   2.9199E-04  0.0056
   8.9603E-01   9.1783E-01   2.9240E-04  0.0055
   9.1783E-01   9.4016E-01   2.9764E-04  0.0054
   9.4016E-01   9.6304E-01   2.9571E-04  0.0054
   9.6304E-01   9.8647E-01   3.0179E-04  0.0053
   9.8647E-01   1.0105E+00   2.9753E-04  0.0052
   1.0105E+00   1.0351E+00   2.9186E-04  0.0052
   1.0351E+00   1.0602E+00   2.9040E-04  0.0052
   1.0602E+00   1.0860E+00   2.8196E-04  0.0052
   1.0860E+00   1.1125E+00   2.8085E-04  0.0051
   1.1125E+00   1.1395E+00   2.7662E-04  0.0051
   1.1395E+00   1.1673E+00   2.7439E-04  0.0051
   1.1673E+00   1.1957E+00   2.7565E-04  0.0050
   1.1957E+00   1.2247E+00   2.7274E-04  0.0050
   1.2247E+00   1.2545E+00   2.7064E-04  0.0049
   1.2545E+00   1.2851E+00   2.6508E-04  0.0049
   1.2851E+00   1.3163E+00   2.6389E-04  0.0049
   1.3163E+00   1.3484E+00   2.6052E-04  0.0048
   1.3484E+00   1.3812E+00   2.5250E-04  0.0048
   1.3812E+00   1.4148E+00   2.5089E-04  0.0048
   1.4148E+00   1.4492E+00   2.4845E-04  0.0048
   1.4492E+00   1.4845E+00   2.4361E-04  0.0048
   1.4845E+00   1.5206E+00   2.4419E-04  0.0047
   1.5206E+00   1.5576E+00   2.3888E-04  0.0047
   1.5576E+00   1.5955E+00   2.3328E-04  0.0047
   1.5955E+00   1.6343E+00   2.2883E-04  0.0047
   1.6343E+00   1.6741E+00   2.2391E-04  0.0047
   1.6741E+00   1.7148E+00   2.1918E-04  0.0047
   1.7148E+00   1.7565E+00   2.1510E-04  0.0046
   1.7565E+00   1.7992E+00   2.0950E-04  0.0046
   1.7992E+00   1.8430E+00   2.0706E-04  0.0046
   1.8430E+00   1.8879E+00   2.0288E-04  0.0046
   1.8879E+00   1.9338E+00   1.9531E-04  0.0046
   1.9338E+00   1.9808E+00   1.9075E-04  0.0046
   1.9808E+00   2.0290E+00   1.8928E-04  0.0046
   2.0290E+00   2.0784E+00   1.8399E-04  0.0046
   2.0784E+00   2.1290E+00   1.7795E-04  0.0046
   2.1290E+00   2.1808E+00   1.7433E-04  0.0046
   2.1808E+00   2.2338E+00   1.6902E-04  0.0046
   2.2338E+00   2.2882E+00   1.6538E-04  0.0046
   2.2882E+00   2.3439E+00   1.5862E-04  0.0046
   2.3439E+00   2.4009E+00   1.5296E-04  0.0047
   2.4009E+00   2.4593E+00   1.4924E-04  0.0047
   2.4593E+00   2.5191E+00   1.4355E-04  0.0047
   2.5191E+00   2.5804E+00   1.3923E-04  0.0047
   2.5804E+00   2.6432E+00   1.3307E-04  0.0047
   2.6432E+00   2.7075E+00   1.2876E-04  0.0048
   2.7075E+00   2.7734E+00   1.2447E-04  0.0048
   2.7734E+00   2.8409E+00   1.1963E-04  0.0048
   2.8409E+00   2.9100E+00   1.1553E-04  0.0048
   2.9100E+00   2.9808E+00   1.1108E-04  0.0049
   2.9808E+00   3.0533E+00   1.0647E-04  0.0049
   3.0533E+00   3.1276E+00   1.0289E-04  0.0050
   3.1276E+00   3.2037E+00   9.8450E-05  0.0050
   3.2037E+00   3.2817E+00   9.5009E-05  0.0050
   3.2817E+00   3.3615E+00   9.1523E-05  0.0051
   3.3615E+00   3.4433E+00   8.9187E-05  0.0051
   3.4433E+00   3.5271E+00   8.4535E-05  0.0051
   3.5271E+00   3.6129E+00   8.2365E-05  0.0051
   3.6129E+00   3.7008E+00   7.8896E-05  0.0052
   3.7008E+00   3.7908E+00   7.5727E-05  0.0052
   3.7908E+00   3.8831E+00   7.3243E-05  0.0053
   3.8831E+00   3.9776E+00   7.0614E-05  0.0053
   3.9776E+00   4.0743E+00   6.7258E-05  0.0053
   4.0743E+00   4.1735E+00   6.4830E-05  0.0054
   4.1735E+00   4.2750E+00   6.3248E-05  0.0054
   4.2750E+00   4.3790E+00   6.1108E-05  0.0054
   4.3790E+00   4.4856E+00   5.9217E-05  0.0054
   4.4856E+00   4.5947E+00   5.8103E-05  0.0054
   4.5947E+00   4.7065E+00   5.5952E-05  0.0055
   4.7065E+00   4.8210E+00   5.4805E-05  0.0055
   4.8210E+00   4.9383E+00   5.2886E-05  0.0055
   4.9383E+00   5.0585E+00   5.2576E-05  0.0054
   5.0585E+00   5.1815E+00   5.1219E-05  0.0054
   5.1815E+00   5.3076E+00   5.1245E-05  0.0054
   5.3076E+00   5.4368E+00   4.9916E-05  0.0054
   5.4368E+00   5.5690E+00   4.8641E-05  0.0054
   5.5690E+00   5.7045E+00   4.7450E-05  0.0054
   5.7045E+00   5.8433E+00   4.6141E-05  0.0054
   5.8433E+00   5.9855E+00   4.4878E-05  0.0054
   5.9855E+00   6.1311E+00   4.3896E-05  0.0054
   6.1311E+00   6.2803E+00   4.2938E-05  0.0054
   6.2803E+00   6.4331E+00   4.1686E-05  0.0055
   6.4331E+00   6.5896E+00   4.0404E-05  0.0055
   6.5896E+00   6.7500E+00   3.8818E-05  0.0055
   6.7500E+00   6.9142E+00   3.7921E-05  0.0055
   6.9142E+00   7.0824E+00   3.6963E-05  0.0055
   7.0824E+00   7.2548E+00   3.5702E-05  0.0056
   7.2548E+00   7.4313E+00   3.5047E-05  0.0056
   7.4313E+00   7.6121E+00   3.3635E-05  0.0056
   7.6121E+00   7.7973E+00   3.2697E-05  0.0056
   7.7973E+00   7.9870E+00   3.1328E-05  0.0057
   7.9870E+00   8.1813E+00   3.0318E-05  0.0057
   8.1813E+00   8.3804E+00   2.9022E-05  0.0058
   8.3804E+00   8.5843E+00   2.7498E-05  0.0059
   8.5843E+00   8.7931E+00   2.6558E-05  0.0059
   8.7931E+00   9.0071E+00   2.5257E-05  0.0060
   9.0071E+00   9.2262E+00   2.4270E-05  0.0060
   9.2262E+00   9.4507E+00   2.2891E-05  0.0061
   9.4507E+00   9.6807E+00   2.1956E-05  0.0062
   9.6807E+00   9.9162E+00   2.0718E-05  0.0063
   9.9162E+00   1.0157E+01   1.9645E-05  0.0064
   1.0157E+01   1.0405E+01   1.8466E-05  0.0065
   1.0405E+01   1.0658E+01   1.7457E-05  0.0066
   1.0658E+01   1.0917E+01   1.6643E-05  0.0067
   1.0917E+01   1.1183E+01   1.5649E-05  0.0068
   1.1183E+01   1.1455E+01   1.4428E-05  0.0070
   1.1455E+01   1.1733E+01   1.3648E-05  0.0071
   1.1733E+01   1.2019E+01   1.2714E-05  0.0073
   1.2019E+01   1.2311E+01   1.1926E-05  0.0075
   1.2311E+01   1.2611E+01   1.1217E-05  0.0076
   1.2611E+01   1.2918E+01   1.0411E-05  0.0078
   1.2918E+01   1.3232E+01   9.5521E-06  0.0081
   1.3232E+01   1.3554E+01   8.8775E-06  0.0083
   1.3554E+01   1.3884E+01   8.0155E-06  0.0086
   1.3884E+01   1.4222E+01   7.3413E-06  0.0089
   1.4222E+01   1.4568E+01   6.8541E-06  0.0091
   1.4568E+01   1.4922E+01   6.2328E-06  0.0094
   1.4922E+01   1.5285E+01   5.7370E-06  0.0097
   1.5285E+01   1.5657E+01   5.1674E-06  0.0101
   1.5657E+01   1.6038E+01   4.6572E-06  0.0105
   1.6038E+01   1.6428E+01   4.2280E-06  0.0109
   1.6428E+01   1.6828E+01   3.8615E-06  0.0113
   1.6828E+01   1.7237E+01   3.3229E-06  0.0121
   1.7237E+01   1.7657E+01   2.9982E-06  0.0126
   1.7657E+01   1.8086E+01   2.5821E-06  0.0134
   1.8086E+01   1.8526E+01   2.3295E-06  0.0139
   1.8526E+01   1.8977E+01   1.9822E-06  0.0149
   1.8977E+01   1.9439E+01   1.7922E-06  0.0155
   1.9439E+01   1.9912E+01   1.6191E-06  0.0161
   1.9912E+01   2.0396E+01   1.4903E-06  0.0166
   2.0396E+01   2.0893E+01   1.3404E-06  0.0173
   2.0893E+01   2.1401E+01   1.1449E-06  0.0185
   2.1401E+01   2.1922E+01   1.0382E-06  0.0192
   2.1922E+01   2.2455E+01   9.2843E-07  0.0201
   2.2455E+01   2.3001E+01   7.7020E-07  0.0218
   2.3001E+01   2.3561E+01   6.5220E-07  0.0234
   2.3561E+01   2.4134E+01   5.6554E-07  0.0248
   2.4134E+01   2.4721E+01   4.5333E-07  0.0274
   2.4721E+01   2.5323E+01   3.6243E-07  0.0303
   2.5323E+01   2.5939E+01   2.9474E-07  0.0332
   2.5939E+01   2.6570E+01   2.4781E-07  0.0358
   2.6570E+01   2.7217E+01   2.0542E-07  0.0388
   2.7217E+01   2.7879E+01   1.6974E-07  0.0422
   2.7879E+01   2.8557E+01   1.2708E-07  0.0482
   2.8557E+01   2.9252E+01   9.5564E-08  0.0549
   2.9252E+01   2.9964E+01   7.8963E-08  0.0597
   2.9964E+01   3.0693E+01   5.7336E-08  0.0692
   3.0693E+01   3.1440E+01   4.7671E-08  0.0750
   3.1440E+01   3.2205E+01   2.4054E-08  0.1043
   3.2205E+01   3.2988E+01   6.6364E-09  0.1961
   3.2988E+01   3.3791E+01   2.9902E-09  0.2887
   3.3791E+01   3.4613E+01   9.7305E-10  0.5000
   3.4613E+01   3.5455E+01   2.3749E-10  1.0000
   3.5455E+01   3.6318E+01   2.3184E-10  1.0000
   3.6318E+01   3.7201E+01   0.0000E+00  0.0000
   3.7201E+01   3.8106E+01   0.0000E+00  0.0000
   3.8106E+01   3.9034E+01   0.0000E+00  0.0000
   3.9034E+01   3.9983E+01   0.0000E+00  0.0000
   3.9983E+01   4.0956E+01   0.0000E+00  0.0000
   4.0956E+01   4.1953E+01   0.0000E+00  0.0000
   4.1953E+01   4.2973E+01   0.0000E+00  0.0000
   4.2973E+01   4.4019E+01   0.0000E+00  0.0000
   4.4019E+01   4.5090E+01   0.0000E+00  0.0000
   4.5090E+01   4.6187E+01   0.0000E+00  0.0000
   4.6187E+01   4.7311E+01   0.0000E+00  0.0000
   4.7311E+01   4.8462E+01   0.0000E+00  0.0000
   4.8462E+01   4.9641E+01   0.0000E+00  0.0000
   4.9641E+01   5.0849E+01   0.0000E+00  0.0000
   5.0849E+01   5.2086E+01   0.0000E+00  0.0000
   5.2086E+01   5.3353E+01   0.0000E+00  0.0000
   5.3353E+01   5.4651E+01   0.0000E+00  0.0000
   5.4651E+01   5.5981E+01   0.0000E+00  0.0000
   5.5981E+01   5.7343E+01   0.0000E+00  0.0000
   5.7343E+01   5.8738E+01   0.0000E+00  0.0000
   5.8738E+01   6.0168E+01   0.0000E+00  0.0000
   6.0168E+01   6.1632E+01   0.0000E+00  0.0000
   6.1632E+01   6.3131E+01   0.0000E+00  0.0000
   6.3131E+01   6.4667E+01   0.0000E+00  0.0000
   6.4667E+01   6.6240E+01   0.0000E+00  0.0000
   6.6240E+01   6.7852E+01   0.0000E+00  0.0000
   6.7852E+01   6.9503E+01   0.0000E+00  0.0000
   6.9503E+01   7.1194E+01   0.0000E+00  0.0000
   7.1194E+01   7.2926E+01   0.0000E+00  0.0000
   7.2926E+01   7.4701E+01   0.0000E+00  0.0000
   7.4701E+01   7.6518E+01   0.0000E+00  0.0000
   7.6518E+01   7.8380E+01   0.0000E+00  0.0000
   7.8380E+01   8.0287E+01   0.0000E+00  0.0000
   8.0287E+01   8.2240E+01   0.0000E+00  0.0000
   8.2240E+01   8.4241E+01   0.0000E+00  0.0000
   8.4241E+01   8.6291E+01   0.0000E+00  0.0000
   8.6291E+01   8.8391E+01   0.0000E+00  0.0000
   8.8391E+01   9.0541E+01   0.0000E+00  0.0000
   9.0541E+01   9.2744E+01   0.0000E+00  0.0000
   9.2744E+01   9.5001E+01   0.0000E+00  0.0000
   9.5001E+01   9.7312E+01   0.0000E+00  0.0000
   9.7312E+01   9.9680E+01   0.0000E+00  0.0000
   9.9680E+01   1.0211E+02   0.0000E+00  0.0000
   1.0211E+02   1.0459E+02   0.0000E+00  0.0000
   1.0459E+02   1.0713E+02   0.0000E+00  0.0000
   1.0713E+02   1.0974E+02   0.0000E+00  0.0000
   1.0974E+02   1.1241E+02   0.0000E+00  0.0000
   1.1241E+02   1.1515E+02   0.0000E+00  0.0000
   1.1515E+02   1.1795E+02   0.0000E+00  0.0000
   1.1795E+02   1.2082E+02   0.0000E+00  0.0000
   1.2082E+02   1.2376E+02   0.0000E+00  0.0000
   1.2376E+02   1.2677E+02   0.0000E+00  0.0000
   1.2677E+02   1.2985E+02   0.0000E+00  0.0000
   1.2985E+02   1.3301E+02   0.0000E+00  0.0000
   1.3301E+02   1.3625E+02   0.0000E+00  0.0000
   1.3625E+02   1.3956E+02   0.0000E+00  0.0000
   1.3956E+02   1.4296E+02   0.0000E+00  0.0000
   1.4296E+02   1.4644E+02   0.0000E+00  0.0000
   1.4644E+02   1.5000E+02   0.0000E+00  0.0000

#   sum over                 6.4743E-06
'no. =    1   reg = 118 - 218'
msuc: {\huge [t-cross] in region mesh}
msdr: {\it plotted by \ANGEL \version}
msdl: {\it calculated by \PHITS  3.26}
wt: s(0.7)
\vspace{-3}
  region surface crossing
  area  &=&   1.0000E+00 [cm^2]
e:
 
# Information for Restart Calculation
# This calculation was newly started
# istdev =  2 # 1:Batch variance, 2:History variance
# resc2  = 5.00000000000000000E+09 # Total source weight or Total source weight / maxcas
# resc3  = 5.00000000000000000E+09 # Total history number or Total batch number
# maxcas =   100000000 # History / Batch, only used for istdev=1
# bitrseed = 0110100000100010111000001110001111001110100100011111101000111001 # bit data of rseed
