[ T-Cross ]
    title = [t-cross] in region mesh
     mesh =  reg            # mesh type is region-wise
      reg =    1            # number of crossing regions
      non     r-from    r-to       area
      1       114       214        1.000000    
   e-type =    3            # e-mesh is log given by emin, emax and ne
     emin =  1.0000000E-02  # minimum value of e-mesh points
     emax =   150.0000      # maximum value of e-mesh points
#    edel =  2.4039514E-02  # mesh width of e-mesh points
       ne =    400          # number of e-mesh points
#    data = ( e(i), i = 1, ne + 1 )
#           1.00000E-02  1.02433E-02  1.04925E-02  1.07478E-02  1.10093E-02
#           1.12772E-02  1.15516E-02  1.18326E-02  1.21205E-02  1.24154E-02
#           1.27175E-02  1.30269E-02  1.33439E-02  1.36686E-02  1.40011E-02
#           1.43418E-02  1.46907E-02  1.50482E-02  1.54143E-02  1.57894E-02
#           1.61735E-02  1.65670E-02  1.69701E-02  1.73830E-02  1.78060E-02
#           1.82392E-02  1.86830E-02  1.91375E-02  1.96032E-02  2.00801E-02
#           2.05687E-02  2.10692E-02  2.15818E-02  2.21069E-02  2.26448E-02
#           2.31957E-02  2.37601E-02  2.43382E-02  2.49304E-02  2.55369E-02
#           2.61583E-02  2.67947E-02  2.74467E-02  2.81145E-02  2.87985E-02
#           2.94992E-02  3.02169E-02  3.09521E-02  3.17052E-02  3.24766E-02
#           3.32668E-02  3.40762E-02  3.49053E-02  3.57546E-02  3.66246E-02
#           3.75157E-02  3.84284E-02  3.93634E-02  4.03212E-02  4.13022E-02
#           4.23071E-02  4.33365E-02  4.43909E-02  4.54710E-02  4.65773E-02
#           4.77106E-02  4.88714E-02  5.00605E-02  5.12785E-02  5.25262E-02
#           5.38042E-02  5.51133E-02  5.64542E-02  5.78278E-02  5.92348E-02
#           6.06760E-02  6.21523E-02  6.36645E-02  6.52135E-02  6.68002E-02
#           6.84255E-02  7.00904E-02  7.17957E-02  7.35426E-02  7.53319E-02
#           7.71648E-02  7.90423E-02  8.09655E-02  8.29354E-02  8.49533E-02
#           8.70203E-02  8.91376E-02  9.13064E-02  9.35279E-02  9.58035E-02
#           9.81345E-02  1.00522E-01  1.02968E-01  1.05473E-01  1.08040E-01
#           1.10668E-01  1.13361E-01  1.16119E-01  1.18944E-01  1.21838E-01
#           1.24803E-01  1.27839E-01  1.30950E-01  1.34136E-01  1.37399E-01
#           1.40742E-01  1.44167E-01  1.47675E-01  1.51268E-01  1.54948E-01
#           1.58718E-01  1.62580E-01  1.66535E-01  1.70587E-01  1.74738E-01
#           1.78989E-01  1.83344E-01  1.87805E-01  1.92375E-01  1.97055E-01
#           2.01850E-01  2.06761E-01  2.11792E-01  2.16945E-01  2.22223E-01
#           2.27630E-01  2.33169E-01  2.38842E-01  2.44653E-01  2.50605E-01
#           2.56703E-01  2.62949E-01  2.69346E-01  2.75900E-01  2.82613E-01
#           2.89489E-01  2.96532E-01  3.03747E-01  3.11138E-01  3.18708E-01
#           3.26462E-01  3.34405E-01  3.42542E-01  3.50876E-01  3.59413E-01
#           3.68158E-01  3.77116E-01  3.86291E-01  3.95690E-01  4.05317E-01
#           4.15179E-01  4.25281E-01  4.35628E-01  4.46227E-01  4.57084E-01
#           4.68205E-01  4.79597E-01  4.91266E-01  5.03219E-01  5.15463E-01
#           5.28005E-01  5.40851E-01  5.54011E-01  5.67490E-01  5.81298E-01
#           5.95441E-01  6.09929E-01  6.24769E-01  6.39970E-01  6.55541E-01
#           6.71491E-01  6.87828E-01  7.04564E-01  7.21706E-01  7.39266E-01
#           7.57253E-01  7.75678E-01  7.94551E-01  8.13883E-01  8.33685E-01
#           8.53969E-01  8.74747E-01  8.96030E-01  9.17831E-01  9.40163E-01
#           9.63038E-01  9.86469E-01  1.01047E+00  1.03506E+00  1.06024E+00
#           1.08604E+00  1.11246E+00  1.13953E+00  1.16725E+00  1.19565E+00
#           1.22474E+00  1.25454E+00  1.28507E+00  1.31633E+00  1.34836E+00
#           1.38117E+00  1.41477E+00  1.44920E+00  1.48446E+00  1.52057E+00
#           1.55757E+00  1.59547E+00  1.63429E+00  1.67405E+00  1.71478E+00
#           1.75650E+00  1.79924E+00  1.84302E+00  1.88786E+00  1.93379E+00
#           1.98084E+00  2.02904E+00  2.07841E+00  2.12898E+00  2.18078E+00
#           2.23384E+00  2.28819E+00  2.34386E+00  2.40089E+00  2.45930E+00
#           2.51914E+00  2.58043E+00  2.64322E+00  2.70753E+00  2.77341E+00
#           2.84088E+00  2.91001E+00  2.98081E+00  3.05333E+00  3.12762E+00
#           3.20372E+00  3.28167E+00  3.36152E+00  3.44330E+00  3.52708E+00
#           3.61290E+00  3.70080E+00  3.79085E+00  3.88308E+00  3.97756E+00
#           4.07434E+00  4.17347E+00  4.27501E+00  4.37903E+00  4.48557E+00
#           4.59471E+00  4.70650E+00  4.82102E+00  4.93832E+00  5.05847E+00
#           5.18155E+00  5.30762E+00  5.43676E+00  5.56904E+00  5.70453E+00
#           5.84333E+00  5.98550E+00  6.13114E+00  6.28031E+00  6.43312E+00
#           6.58964E+00  6.74997E+00  6.91420E+00  7.08243E+00  7.25475E+00
#           7.43126E+00  7.61207E+00  7.79728E+00  7.98700E+00  8.18133E+00
#           8.38038E+00  8.58428E+00  8.79315E+00  9.00709E+00  9.22624E+00
#           9.45072E+00  9.68067E+00  9.91620E+00  1.01575E+01  1.04046E+01
#           1.06578E+01  1.09171E+01  1.11827E+01  1.14548E+01  1.17335E+01
#           1.20190E+01  1.23114E+01  1.26109E+01  1.29178E+01  1.32321E+01
#           1.35540E+01  1.38838E+01  1.42216E+01  1.45676E+01  1.49221E+01
#           1.52851E+01  1.56570E+01  1.60380E+01  1.64282E+01  1.68279E+01
#           1.72374E+01  1.76568E+01  1.80864E+01  1.85264E+01  1.89772E+01
#           1.94389E+01  1.99119E+01  2.03963E+01  2.08926E+01  2.14009E+01
#           2.19216E+01  2.24550E+01  2.30014E+01  2.35610E+01  2.41343E+01
#           2.47215E+01  2.53230E+01  2.59391E+01  2.65702E+01  2.72167E+01
#           2.78789E+01  2.85572E+01  2.92520E+01  2.99637E+01  3.06928E+01
#           3.14396E+01  3.22045E+01  3.29881E+01  3.37907E+01  3.46128E+01
#           3.54550E+01  3.63177E+01  3.72013E+01  3.81064E+01  3.90336E+01
#           3.99833E+01  4.09561E+01  4.19526E+01  4.29734E+01  4.40189E+01
#           4.50900E+01  4.61870E+01  4.73108E+01  4.84619E+01  4.96410E+01
#           5.08488E+01  5.20860E+01  5.33533E+01  5.46514E+01  5.59812E+01
#           5.73432E+01  5.87384E+01  6.01676E+01  6.16315E+01  6.31311E+01
#           6.46671E+01  6.62405E+01  6.78522E+01  6.95031E+01  7.11941E+01
#           7.29263E+01  7.47007E+01  7.65182E+01  7.83800E+01  8.02870E+01
#           8.22405E+01  8.42414E+01  8.62911E+01  8.83906E+01  9.05412E+01
#           9.27442E+01  9.50007E+01  9.73122E+01  9.96799E+01  1.02105E+02
#           1.04589E+02  1.07134E+02  1.09741E+02  1.12411E+02  1.15146E+02
#           1.17948E+02  1.20817E+02  1.23757E+02  1.26768E+02  1.29852E+02
#           1.33012E+02  1.36248E+02  1.39563E+02  1.42959E+02  1.46437E+02
#           1.50000E+02
     unit =    2            # unit is [1/cm^2/(MeV/n)/source]
     axis =  eng            # axis of output
     file = detector-15.out  # file name of output for the above axis
   output = f-curr          # surface crossing forward current spectrum
     part =  neutron  
# kf/name :  2112     
#    used :        main (  %)        temp (  %)       total (  %)
#  memory :         414 (  0)           0 (  0)         414 (  0)

#------------------------------------------------------------------------------
#newpage:
#   no. =    1   reg = 114 - 214

x: Energy [MeV/n]
y:  F-Curr [1/cm^2/(MeV/n)/source]         
p: xlog ylog afac(0.8) form(0.9)
h: n            x            y(neutron ),hh0l   n 
#  e-lower      e-upper      neutron     r.err 
   1.0000E-02   1.0243E-02   1.1204E-02  0.0271
   1.0243E-02   1.0493E-02   1.0841E-02  0.0272
   1.0493E-02   1.0748E-02   1.0545E-02  0.0273
   1.0748E-02   1.1009E-02   1.0906E-02  0.0265
   1.1009E-02   1.1277E-02   1.0796E-02  0.0263
   1.1277E-02   1.1552E-02   1.0576E-02  0.0263
   1.1552E-02   1.1833E-02   1.0610E-02  0.0259
   1.1833E-02   1.2121E-02   9.7118E-03  0.0267
   1.2121E-02   1.2415E-02   9.7456E-03  0.0264
   1.2415E-02   1.2718E-02   1.0242E-02  0.0254
   1.2718E-02   1.3027E-02   9.3915E-03  0.0262
   1.3027E-02   1.3344E-02   9.6827E-03  0.0255
   1.3344E-02   1.3669E-02   9.0493E-03  0.0261
   1.3669E-02   1.4001E-02   9.1831E-03  0.0256
   1.4001E-02   1.4342E-02   9.2761E-03  0.0252
   1.4342E-02   1.4691E-02   8.9584E-03  0.0253
   1.4691E-02   1.5048E-02   8.8351E-03  0.0252
   1.5048E-02   1.5414E-02   8.9175E-03  0.0248
   1.5414E-02   1.5789E-02   8.9270E-03  0.0244
   1.5789E-02   1.6174E-02   8.4729E-03  0.0248
   1.6174E-02   1.6567E-02   8.3783E-03  0.0246
   1.6567E-02   1.6970E-02   8.4249E-03  0.0243
   1.6970E-02   1.7383E-02   8.3314E-03  0.0241
   1.7383E-02   1.7806E-02   8.2092E-03  0.0240
   1.7806E-02   1.8239E-02   7.7880E-03  0.0243
   1.8239E-02   1.8683E-02   8.0356E-03  0.0237
   1.8683E-02   1.9138E-02   7.8404E-03  0.0237
   1.9138E-02   1.9603E-02   8.1502E-03  0.0230
   1.9603E-02   2.0080E-02   7.7281E-03  0.0233
   2.0080E-02   2.0569E-02   7.5323E-03  0.0233
   2.0569E-02   2.1069E-02   7.2614E-03  0.0235
   2.1069E-02   2.1582E-02   7.2840E-03  0.0231
   2.1582E-02   2.2107E-02   7.1910E-03  0.0230
   2.2107E-02   2.2645E-02   6.9123E-03  0.0232
   2.2645E-02   2.3196E-02   6.9188E-03  0.0229
   2.3196E-02   2.3760E-02   6.8643E-03  0.0227
   2.3760E-02   2.4338E-02   6.7843E-03  0.0226
   2.4338E-02   2.4930E-02   6.6535E-03  0.0225
   2.4930E-02   2.5537E-02   6.7560E-03  0.0221
   2.5537E-02   2.6158E-02   6.3895E-03  0.0224
   2.6158E-02   2.6795E-02   6.2299E-03  0.0225
   2.6795E-02   2.7447E-02   6.0773E-03  0.0225
   2.7447E-02   2.8114E-02   6.3522E-03  0.0217
   2.8114E-02   2.8799E-02   5.9557E-03  0.0222
   2.8799E-02   2.9499E-02   6.2881E-03  0.0213
   2.9499E-02   3.0217E-02   6.0551E-03  0.0215
   3.0217E-02   3.0952E-02   5.8406E-03  0.0216
   3.0952E-02   3.1705E-02   5.7257E-03  0.0215
   3.1705E-02   3.2477E-02   5.6312E-03  0.0215
   3.2477E-02   3.3267E-02   5.6493E-03  0.0212
   3.3267E-02   3.4076E-02   5.6375E-03  0.0209
   3.4076E-02   3.4905E-02   5.3793E-03  0.0212
   3.4905E-02   3.5755E-02   5.4140E-03  0.0209
   3.5755E-02   3.6625E-02   5.3774E-03  0.0207
   3.6625E-02   3.7516E-02   5.1756E-03  0.0208
   3.7516E-02   3.8428E-02   5.2039E-03  0.0205
   3.8428E-02   3.9363E-02   4.9990E-03  0.0207
   3.9363E-02   4.0321E-02   5.0368E-03  0.0204
   4.0321E-02   4.1302E-02   4.9671E-03  0.0203
   4.1302E-02   4.2307E-02   4.8462E-03  0.0203
   4.2307E-02   4.3337E-02   4.7000E-03  0.0203
   4.3337E-02   4.4391E-02   4.6301E-03  0.0202
   4.4391E-02   4.5471E-02   4.9330E-03  0.0194
   4.5471E-02   4.6577E-02   4.4887E-03  0.0201
   4.6577E-02   4.7711E-02   4.4279E-03  0.0200
   4.7711E-02   4.8871E-02   4.4726E-03  0.0196
   4.8871E-02   5.0061E-02   4.4555E-03  0.0194
   5.0061E-02   5.1279E-02   4.3752E-03  0.0194
   5.1279E-02   5.2526E-02   4.2368E-03  0.0195
   5.2526E-02   5.3804E-02   4.2535E-03  0.0192
   5.3804E-02   5.5113E-02   4.2510E-03  0.0190
   5.5113E-02   5.6454E-02   4.1135E-03  0.0190
   5.6454E-02   5.7828E-02   4.0376E-03  0.0190
   5.7828E-02   5.9235E-02   4.0867E-03  0.0187
   5.9235E-02   6.0676E-02   3.8870E-03  0.0189
   6.0676E-02   6.2152E-02   3.8570E-03  0.0187
   6.2152E-02   6.3665E-02   3.9829E-03  0.0182
   6.3665E-02   6.5214E-02   3.7430E-03  0.0186
   6.5214E-02   6.6800E-02   3.6989E-03  0.0185
   6.6800E-02   6.8426E-02   3.6129E-03  0.0185
   6.8426E-02   7.0090E-02   3.6196E-03  0.0182
   7.0090E-02   7.1796E-02   3.5277E-03  0.0182
   7.1796E-02   7.3543E-02   3.4542E-03  0.0182
   7.3543E-02   7.5332E-02   3.4158E-03  0.0181
   7.5332E-02   7.7165E-02   3.5038E-03  0.0176
   7.7165E-02   7.9042E-02   3.3651E-03  0.0178
   7.9042E-02   8.0965E-02   3.4048E-03  0.0175
   8.0965E-02   8.2935E-02   3.1909E-03  0.0178
   8.2935E-02   8.4953E-02   3.2980E-03  0.0173
   8.4953E-02   8.7020E-02   3.2743E-03  0.0172
   8.7020E-02   8.9138E-02   3.1786E-03  0.0172
   8.9138E-02   9.1306E-02   3.0681E-03  0.0173
   9.1306E-02   9.3528E-02   3.0537E-03  0.0172
   9.3528E-02   9.5804E-02   2.9495E-03  0.0173
   9.5804E-02   9.8134E-02   2.9335E-03  0.0171
   9.8134E-02   1.0052E-01   2.9007E-03  0.0170
   1.0052E-01   1.0297E-01   2.9479E-03  0.0167
   1.0297E-01   1.0547E-01   2.8504E-03  0.0167
   1.0547E-01   1.0804E-01   2.8298E-03  0.0166
   1.0804E-01   1.1067E-01   2.6858E-03  0.0168
   1.1067E-01   1.1336E-01   2.8166E-03  0.0162
   1.1336E-01   1.1612E-01   2.6858E-03  0.0164
   1.1612E-01   1.1894E-01   2.6440E-03  0.0164
   1.1894E-01   1.2184E-01   2.5888E-03  0.0163
   1.2184E-01   1.2480E-01   2.5415E-03  0.0163
   1.2480E-01   1.2784E-01   2.5318E-03  0.0161
   1.2784E-01   1.3095E-01   2.4807E-03  0.0161
   1.3095E-01   1.3414E-01   2.4029E-03  0.0162
   1.3414E-01   1.3740E-01   2.4476E-03  0.0158
   1.3740E-01   1.4074E-01   2.3853E-03  0.0158
   1.4074E-01   1.4417E-01   2.3187E-03  0.0159
   1.4417E-01   1.4767E-01   2.3443E-03  0.0156
   1.4767E-01   1.5127E-01   2.2761E-03  0.0156
   1.5127E-01   1.5495E-01   2.2318E-03  0.0156
   1.5495E-01   1.5872E-01   2.2249E-03  0.0154
   1.5872E-01   1.6258E-01   2.1897E-03  0.0154
   1.6258E-01   1.6654E-01   2.1746E-03  0.0152
   1.6654E-01   1.7059E-01   2.1392E-03  0.0152
   1.7059E-01   1.7474E-01   2.1164E-03  0.0151
   1.7474E-01   1.7899E-01   2.0426E-03  0.0152
   1.7899E-01   1.8334E-01   1.9908E-03  0.0152
   1.8334E-01   1.8781E-01   2.0198E-03  0.0149
   1.8781E-01   1.9237E-01   1.9298E-03  0.0151
   1.9237E-01   1.9706E-01   1.9232E-03  0.0149
   1.9706E-01   2.0185E-01   1.9076E-03  0.0148
   2.0185E-01   2.0676E-01   1.8969E-03  0.0147
   2.0676E-01   2.1179E-01   1.8284E-03  0.0148
   2.1179E-01   2.1694E-01   1.8416E-03  0.0145
   2.1694E-01   2.2222E-01   1.8024E-03  0.0145
   2.2222E-01   2.2763E-01   1.7652E-03  0.0145
   2.2763E-01   2.3317E-01   1.7752E-03  0.0143
   2.3317E-01   2.3884E-01   1.7398E-03  0.0142
   2.3884E-01   2.4465E-01   1.7050E-03  0.0142
   2.4465E-01   2.5061E-01   1.5939E-03  0.0145
   2.5061E-01   2.5670E-01   1.6220E-03  0.0142
   2.5670E-01   2.6295E-01   1.5926E-03  0.0142
   2.6295E-01   2.6935E-01   1.5738E-03  0.0141
   2.6935E-01   2.7590E-01   1.5720E-03  0.0139
   2.7590E-01   2.8261E-01   1.5424E-03  0.0139
   2.8261E-01   2.8949E-01   1.4697E-03  0.0141
   2.8949E-01   2.9653E-01   1.4362E-03  0.0141
   2.9653E-01   3.0375E-01   1.4570E-03  0.0138
   3.0375E-01   3.1114E-01   1.4121E-03  0.0138
   3.1114E-01   3.1871E-01   1.4140E-03  0.0137
   3.1871E-01   3.2646E-01   1.3615E-03  0.0138
   3.2646E-01   3.3441E-01   1.3531E-03  0.0136
   3.3441E-01   3.4254E-01   1.3451E-03  0.0135
   3.4254E-01   3.5088E-01   1.2927E-03  0.0136
   3.5088E-01   3.5941E-01   1.2894E-03  0.0135
   3.5941E-01   3.6816E-01   1.2883E-03  0.0133
   3.6816E-01   3.7712E-01   1.2461E-03  0.0134
   3.7712E-01   3.8629E-01   1.2599E-03  0.0132
   3.8629E-01   3.9569E-01   1.2102E-03  0.0133
   3.9569E-01   4.0532E-01   1.1978E-03  0.0132
   4.0532E-01   4.1518E-01   1.1405E-03  0.0133
   4.1518E-01   4.2528E-01   1.1226E-03  0.0133
   4.2528E-01   4.3563E-01   1.1048E-03  0.0132
   4.3563E-01   4.4623E-01   1.0659E-03  0.0133
   4.4623E-01   4.5708E-01   1.0946E-03  0.0130
   4.5708E-01   4.6821E-01   1.0215E-03  0.0133
   4.6821E-01   4.7960E-01   1.0027E-03  0.0132
   4.7960E-01   4.9127E-01   9.9683E-04  0.0131
   4.9127E-01   5.0322E-01   9.5692E-04  0.0132
   5.0322E-01   5.1546E-01   9.6392E-04  0.0130
   5.1546E-01   5.2800E-01   9.3832E-04  0.0130
   5.2800E-01   5.4085E-01   9.2412E-04  0.0130
   5.4085E-01   5.5401E-01   8.8105E-04  0.0131
   5.5401E-01   5.6749E-01   8.6131E-04  0.0131
   5.6749E-01   5.8130E-01   8.4563E-04  0.0131
   5.8130E-01   5.9544E-01   8.2809E-04  0.0131
   5.9544E-01   6.0993E-01   8.1353E-04  0.0130
   6.0993E-01   6.2477E-01   7.8558E-04  0.0131
   6.2477E-01   6.3997E-01   7.5350E-04  0.0132
   6.3997E-01   6.5554E-01   7.4048E-04  0.0132
   6.5554E-01   6.7149E-01   7.2239E-04  0.0132
   6.7149E-01   6.8783E-01   7.1135E-04  0.0131
   6.8783E-01   7.0456E-01   6.8382E-04  0.0132
   7.0456E-01   7.2171E-01   6.5474E-04  0.0134
   7.2171E-01   7.3927E-01   6.4249E-04  0.0133
   7.3927E-01   7.5725E-01   6.3101E-04  0.0133
   7.5725E-01   7.7568E-01   5.9985E-04  0.0135
   7.7568E-01   7.9455E-01   5.7490E-04  0.0136
   7.9455E-01   8.1388E-01   5.7159E-04  0.0135
   8.1388E-01   8.3368E-01   5.4397E-04  0.0136
   8.3368E-01   8.5397E-01   5.2647E-04  0.0137
   8.5397E-01   8.7475E-01   5.0621E-04  0.0138
   8.7475E-01   8.9603E-01   4.9372E-04  0.0138
   8.9603E-01   9.1783E-01   4.5585E-04  0.0142
   9.1783E-01   9.4016E-01   4.5514E-04  0.0140
   9.4016E-01   9.6304E-01   4.3384E-04  0.0142
   9.6304E-01   9.8647E-01   4.1756E-04  0.0143
   9.8647E-01   1.0105E+00   3.9281E-04  0.0146
   1.0105E+00   1.0351E+00   3.8632E-04  0.0145
   1.0351E+00   1.0602E+00   3.8866E-04  0.0143
   1.0602E+00   1.0860E+00   4.0254E-04  0.0139
   1.0860E+00   1.1125E+00   4.0879E-04  0.0136
   1.1125E+00   1.1395E+00   4.1453E-04  0.0134
   1.1395E+00   1.1673E+00   4.2531E-04  0.0130
   1.1673E+00   1.1957E+00   4.3964E-04  0.0127
   1.1957E+00   1.2247E+00   4.3388E-04  0.0126
   1.2247E+00   1.2545E+00   4.4210E-04  0.0123
   1.2545E+00   1.2851E+00   4.4666E-04  0.0121
   1.2851E+00   1.3163E+00   4.5281E-04  0.0119
   1.3163E+00   1.3484E+00   4.4609E-04  0.0118
   1.3484E+00   1.3812E+00   4.6780E-04  0.0114
   1.3812E+00   1.4148E+00   4.6228E-04  0.0114
   1.4148E+00   1.4492E+00   4.7068E-04  0.0111
   1.4492E+00   1.4845E+00   4.6273E-04  0.0111
   1.4845E+00   1.5206E+00   4.5739E-04  0.0110
   1.5206E+00   1.5576E+00   4.5034E-04  0.0110
   1.5576E+00   1.5955E+00   4.5961E-04  0.0107
   1.5955E+00   1.6343E+00   4.5769E-04  0.0106
   1.6343E+00   1.6741E+00   4.6470E-04  0.0104
   1.6741E+00   1.7148E+00   4.6466E-04  0.0103
   1.7148E+00   1.7565E+00   4.6153E-04  0.0102
   1.7565E+00   1.7992E+00   4.5221E-04  0.0102
   1.7992E+00   1.8430E+00   4.5147E-04  0.0101
   1.8430E+00   1.8879E+00   4.4726E-04  0.0100
   1.8879E+00   1.9338E+00   4.4774E-04  0.0099
   1.9338E+00   1.9808E+00   4.3897E-04  0.0098
   1.9808E+00   2.0290E+00   4.4183E-04  0.0097
   2.0290E+00   2.0784E+00   4.2606E-04  0.0098
   2.0784E+00   2.1290E+00   4.1954E-04  0.0097
   2.1290E+00   2.1808E+00   4.0587E-04  0.0098
   2.1808E+00   2.2338E+00   4.0309E-04  0.0097
   2.2338E+00   2.2882E+00   3.8796E-04  0.0097
   2.2882E+00   2.3439E+00   3.8632E-04  0.0096
   2.3439E+00   2.4009E+00   3.8623E-04  0.0095
   2.4009E+00   2.4593E+00   3.8206E-04  0.0095
   2.4593E+00   2.5191E+00   3.7218E-04  0.0095
   2.5191E+00   2.5804E+00   3.5414E-04  0.0096
   2.5804E+00   2.6432E+00   3.4168E-04  0.0097
   2.6432E+00   2.7075E+00   3.3770E-04  0.0096
   2.7075E+00   2.7734E+00   3.2471E-04  0.0097
   2.7734E+00   2.8409E+00   3.1139E-04  0.0098
   2.8409E+00   2.9100E+00   3.1096E-04  0.0097
   2.9100E+00   2.9808E+00   3.0021E-04  0.0097
   2.9808E+00   3.0533E+00   2.9162E-04  0.0097
   3.0533E+00   3.1276E+00   2.8486E-04  0.0097
   3.1276E+00   3.2037E+00   2.6574E-04  0.0099
   3.2037E+00   3.2817E+00   2.6022E-04  0.0099
   3.2817E+00   3.3615E+00   2.4680E-04  0.0101
   3.3615E+00   3.4433E+00   2.3407E-04  0.0102
   3.4433E+00   3.5271E+00   2.3152E-04  0.0102
   3.5271E+00   3.6129E+00   2.2224E-04  0.0102
   3.6129E+00   3.7008E+00   2.1572E-04  0.0103
   3.7008E+00   3.7908E+00   2.0837E-04  0.0103
   3.7908E+00   3.8831E+00   1.9627E-04  0.0105
   3.8831E+00   3.9776E+00   1.8794E-04  0.0106
   3.9776E+00   4.0743E+00   1.8428E-04  0.0106
   4.0743E+00   4.1735E+00   1.7349E-04  0.0108
   4.1735E+00   4.2750E+00   1.6304E-04  0.0110
   4.2750E+00   4.3790E+00   1.5725E-04  0.0111
   4.3790E+00   4.4856E+00   1.4865E-04  0.0112
   4.4856E+00   4.5947E+00   1.4105E-04  0.0114
   4.5947E+00   4.7065E+00   1.3818E-04  0.0114
   4.7065E+00   4.8210E+00   1.3101E-04  0.0115
   4.8210E+00   4.9383E+00   1.2684E-04  0.0116
   4.9383E+00   5.0585E+00   1.1717E-04  0.0119
   5.0585E+00   5.1815E+00   1.1398E-04  0.0119
   5.1815E+00   5.3076E+00   1.1140E-04  0.0119
   5.3076E+00   5.4368E+00   1.0294E-04  0.0123
   5.4368E+00   5.5690E+00   9.9251E-05  0.0123
   5.5690E+00   5.7045E+00   9.0672E-05  0.0128
   5.7045E+00   5.8433E+00   8.8389E-05  0.0128
   5.8433E+00   5.9855E+00   8.6402E-05  0.0128
   5.9855E+00   6.1311E+00   8.0992E-05  0.0130
   6.1311E+00   6.2803E+00   7.8230E-05  0.0131
   6.2803E+00   6.4331E+00   7.5063E-05  0.0132
   6.4331E+00   6.5896E+00   7.1050E-05  0.0134
   6.5896E+00   6.7500E+00   6.9937E-05  0.0134
   6.7500E+00   6.9142E+00   6.6169E-05  0.0136
   6.9142E+00   7.0824E+00   6.3140E-05  0.0137
   7.0824E+00   7.2548E+00   6.0619E-05  0.0138
   7.2548E+00   7.4313E+00   5.7185E-05  0.0141
   7.4313E+00   7.6121E+00   5.5877E-05  0.0141
   7.6121E+00   7.7973E+00   5.2843E-05  0.0143
   7.7973E+00   7.9870E+00   5.1193E-05  0.0144
   7.9870E+00   8.1813E+00   5.0527E-05  0.0143
   8.1813E+00   8.3804E+00   4.7664E-05  0.0145
   8.3804E+00   8.5843E+00   4.7901E-05  0.0143
   8.5843E+00   8.7931E+00   4.5164E-05  0.0146
   8.7931E+00   9.0071E+00   4.4974E-05  0.0144
   9.0071E+00   9.2262E+00   4.2806E-05  0.0146
   9.2262E+00   9.4507E+00   4.2738E-05  0.0144
   9.4507E+00   9.6807E+00   4.2967E-05  0.0142
   9.6807E+00   9.9162E+00   4.0783E-05  0.0144
   9.9162E+00   1.0157E+01   4.0569E-05  0.0143
   1.0157E+01   1.0405E+01   4.0410E-05  0.0141
   1.0405E+01   1.0658E+01   3.9537E-05  0.0141
   1.0658E+01   1.0917E+01   3.8822E-05  0.0141
   1.0917E+01   1.1183E+01   3.9052E-05  0.0139
   1.1183E+01   1.1455E+01   4.0488E-05  0.0135
   1.1455E+01   1.1733E+01   3.9221E-05  0.0135
   1.1733E+01   1.2019E+01   3.8275E-05  0.0135
   1.2019E+01   1.2311E+01   3.8224E-05  0.0134
   1.2311E+01   1.2611E+01   3.7924E-05  0.0132
   1.2611E+01   1.2918E+01   3.7910E-05  0.0131
   1.2918E+01   1.3232E+01   3.6939E-05  0.0131
   1.3232E+01   1.3554E+01   3.7783E-05  0.0128
   1.3554E+01   1.3884E+01   3.7310E-05  0.0127
   1.3884E+01   1.4222E+01   3.6127E-05  0.0128
   1.4222E+01   1.4568E+01   3.5772E-05  0.0127
   1.4568E+01   1.4922E+01   3.5416E-05  0.0126
   1.4922E+01   1.5285E+01   3.5511E-05  0.0124
   1.5285E+01   1.5657E+01   3.5047E-05  0.0124
   1.5657E+01   1.6038E+01   3.4810E-05  0.0123
   1.6038E+01   1.6428E+01   3.4578E-05  0.0122
   1.6428E+01   1.6828E+01   3.3914E-05  0.0121
   1.6828E+01   1.7237E+01   3.3517E-05  0.0121
   1.7237E+01   1.7657E+01   3.2904E-05  0.0120
   1.7657E+01   1.8086E+01   3.2875E-05  0.0119
   1.8086E+01   1.8526E+01   3.2144E-05  0.0119
   1.8526E+01   1.8977E+01   3.0684E-05  0.0120
   1.8977E+01   1.9439E+01   3.0516E-05  0.0119
   1.9439E+01   1.9912E+01   2.9368E-05  0.0120
   1.9912E+01   2.0396E+01   2.6809E-05  0.0124
   2.0396E+01   2.0893E+01   2.6526E-05  0.0123
   2.0893E+01   2.1401E+01   2.4980E-05  0.0126
   2.1401E+01   2.1922E+01   2.4509E-05  0.0125
   2.1922E+01   2.2455E+01   2.3327E-05  0.0127
   2.2455E+01   2.3001E+01   2.1862E-05  0.0129
   2.3001E+01   2.3561E+01   2.1374E-05  0.0129
   2.3561E+01   2.4134E+01   2.0260E-05  0.0131
   2.4134E+01   2.4721E+01   1.9138E-05  0.0133
   2.4721E+01   2.5323E+01   1.8451E-05  0.0134
   2.5323E+01   2.5939E+01   1.7685E-05  0.0135
   2.5939E+01   2.6570E+01   1.6146E-05  0.0140
   2.6570E+01   2.7217E+01   1.5366E-05  0.0142
   2.7217E+01   2.7879E+01   1.4419E-05  0.0145
   2.7879E+01   2.8557E+01   1.3498E-05  0.0148
   2.8557E+01   2.9252E+01   1.2700E-05  0.0151
   2.9252E+01   2.9964E+01   1.1996E-05  0.0153
   2.9964E+01   3.0693E+01   1.1196E-05  0.0157
   3.0693E+01   3.1440E+01   1.0407E-05  0.0160
   3.1440E+01   3.2205E+01   9.8386E-06  0.0163
   3.2205E+01   3.2988E+01   8.7243E-06  0.0171
   3.2988E+01   3.3791E+01   8.3077E-06  0.0173
   3.3791E+01   3.4613E+01   7.5387E-06  0.0180
   3.4613E+01   3.5455E+01   7.0296E-06  0.0184
   3.5455E+01   3.6318E+01   6.3386E-06  0.0191
   3.6318E+01   3.7201E+01   5.4253E-06  0.0204
   3.7201E+01   3.8106E+01   5.2876E-06  0.0204
   3.8106E+01   3.9034E+01   4.5774E-06  0.0217
   3.9034E+01   3.9983E+01   4.0981E-06  0.0227
   3.9983E+01   4.0956E+01   3.6944E-06  0.0236
   4.0956E+01   4.1953E+01   3.4340E-06  0.0242
   4.1953E+01   4.2973E+01   2.9116E-06  0.0259
   4.2973E+01   4.4019E+01   2.6531E-06  0.0269
   4.4019E+01   4.5090E+01   2.4127E-06  0.0278
   4.5090E+01   4.6187E+01   2.0764E-06  0.0296
   4.6187E+01   4.7311E+01   1.8082E-06  0.0314
   4.7311E+01   4.8462E+01   1.6280E-06  0.0327
   4.8462E+01   4.9641E+01   1.3994E-06  0.0348
   4.9641E+01   5.0849E+01   1.1856E-06  0.0374
   5.0849E+01   5.2086E+01   1.0378E-06  0.0395
   5.2086E+01   5.3353E+01   8.7588E-07  0.0424
   5.3353E+01   5.4651E+01   7.1950E-07  0.0463
   5.4651E+01   5.5981E+01   6.1517E-07  0.0494
   5.5981E+01   5.7343E+01   5.3008E-07  0.0526
   5.7343E+01   5.8738E+01   4.7735E-07  0.0548
   5.8738E+01   6.0168E+01   3.4006E-07  0.0642
   6.0168E+01   6.1632E+01   3.2105E-07  0.0652
   6.1632E+01   6.3131E+01   2.3874E-07  0.0747
   6.3131E+01   6.4667E+01   2.0442E-07  0.0798
   6.4667E+01   6.6240E+01   1.5508E-07  0.0905
   6.6240E+01   6.7852E+01   1.2161E-07  0.1010
   6.7852E+01   6.9503E+01   7.2688E-08  0.1291
   6.9503E+01   7.1194E+01   7.2144E-08  0.1280
   7.1194E+01   7.2926E+01   6.6966E-08  0.1313
   7.2926E+01   7.4701E+01   3.3815E-08  0.1826
   7.4701E+01   7.6518E+01   2.8610E-08  0.1961
   7.6518E+01   7.8380E+01   2.1485E-08  0.2236
   7.8380E+01   8.0287E+01   1.5731E-08  0.2582
   8.0287E+01   8.2240E+01   9.2145E-09  0.3333
   8.2240E+01   8.4241E+01   1.9990E-09  0.7071
   8.4241E+01   8.6291E+01   1.9515E-09  0.7071
   8.6291E+01   8.8391E+01   1.9052E-09  0.7071
   8.8391E+01   9.0541E+01   0.0000E+00  0.0000
   9.0541E+01   9.2744E+01   0.0000E+00  0.0000
   9.2744E+01   9.5001E+01   0.0000E+00  0.0000
   9.5001E+01   9.7312E+01   0.0000E+00  0.0000
   9.7312E+01   9.9680E+01   0.0000E+00  0.0000
   9.9680E+01   1.0211E+02   0.0000E+00  0.0000
   1.0211E+02   1.0459E+02   0.0000E+00  0.0000
   1.0459E+02   1.0713E+02   0.0000E+00  0.0000
   1.0713E+02   1.0974E+02   0.0000E+00  0.0000
   1.0974E+02   1.1241E+02   0.0000E+00  0.0000
   1.1241E+02   1.1515E+02   0.0000E+00  0.0000
   1.1515E+02   1.1795E+02   0.0000E+00  0.0000
   1.1795E+02   1.2082E+02   0.0000E+00  0.0000
   1.2082E+02   1.2376E+02   0.0000E+00  0.0000
   1.2376E+02   1.2677E+02   0.0000E+00  0.0000
   1.2677E+02   1.2985E+02   0.0000E+00  0.0000
   1.2985E+02   1.3301E+02   0.0000E+00  0.0000
   1.3301E+02   1.3625E+02   0.0000E+00  0.0000
   1.3625E+02   1.3956E+02   0.0000E+00  0.0000
   1.3956E+02   1.4296E+02   0.0000E+00  0.0000
   1.4296E+02   1.4644E+02   0.0000E+00  0.0000
   1.4644E+02   1.5000E+02   0.0000E+00  0.0000

#   sum over                 2.3594E-05
'no. =    1   reg = 114 - 214'
msuc: {\huge [t-cross] in region mesh}
msdr: {\it plotted by \ANGEL \version}
msdl: {\it calculated by \PHITS  3.26}
wt: s(0.7)
\vspace{-3}
  region surface crossing
  area  &=&   1.0000E+00 [cm^2]
e:
 
# Information for Restart Calculation
# This calculation was newly started
# istdev =  2 # 1:Batch variance, 2:History variance
# resc2  = 5.00000000000000000E+08 # Total source weight or Total source weight / maxcas
# resc3  = 5.00000000000000000E+08 # Total history number or Total batch number
# maxcas =   500000000 # History / Batch, only used for istdev=1
# bitrseed = 1101101111010011011000101101110001100110110010110001010100010001 # bit data of rseed
