[ T-Cross ]
    title = [t-cross] in region mesh
     mesh =  reg            # mesh type is region-wise
      reg =    1            # number of crossing regions
      non     r-from    r-to       area
      1       117       217        1.000000    
   e-type =    3            # e-mesh is log given by emin, emax and ne
     emin =  1.0000000E-02  # minimum value of e-mesh points
     emax =   150.0000      # maximum value of e-mesh points
#    edel =  2.4039514E-02  # mesh width of e-mesh points
       ne =    400          # number of e-mesh points
#    data = ( e(i), i = 1, ne + 1 )
#           1.00000E-02  1.02433E-02  1.04925E-02  1.07478E-02  1.10093E-02
#           1.12772E-02  1.15516E-02  1.18326E-02  1.21205E-02  1.24154E-02
#           1.27175E-02  1.30269E-02  1.33439E-02  1.36686E-02  1.40011E-02
#           1.43418E-02  1.46907E-02  1.50482E-02  1.54143E-02  1.57894E-02
#           1.61735E-02  1.65670E-02  1.69701E-02  1.73830E-02  1.78060E-02
#           1.82392E-02  1.86830E-02  1.91375E-02  1.96032E-02  2.00801E-02
#           2.05687E-02  2.10692E-02  2.15818E-02  2.21069E-02  2.26448E-02
#           2.31957E-02  2.37601E-02  2.43382E-02  2.49304E-02  2.55369E-02
#           2.61583E-02  2.67947E-02  2.74467E-02  2.81145E-02  2.87985E-02
#           2.94992E-02  3.02169E-02  3.09521E-02  3.17052E-02  3.24766E-02
#           3.32668E-02  3.40762E-02  3.49053E-02  3.57546E-02  3.66246E-02
#           3.75157E-02  3.84284E-02  3.93634E-02  4.03212E-02  4.13022E-02
#           4.23071E-02  4.33365E-02  4.43909E-02  4.54710E-02  4.65773E-02
#           4.77106E-02  4.88714E-02  5.00605E-02  5.12785E-02  5.25262E-02
#           5.38042E-02  5.51133E-02  5.64542E-02  5.78278E-02  5.92348E-02
#           6.06760E-02  6.21523E-02  6.36645E-02  6.52135E-02  6.68002E-02
#           6.84255E-02  7.00904E-02  7.17957E-02  7.35426E-02  7.53319E-02
#           7.71648E-02  7.90423E-02  8.09655E-02  8.29354E-02  8.49533E-02
#           8.70203E-02  8.91376E-02  9.13064E-02  9.35279E-02  9.58035E-02
#           9.81345E-02  1.00522E-01  1.02968E-01  1.05473E-01  1.08040E-01
#           1.10668E-01  1.13361E-01  1.16119E-01  1.18944E-01  1.21838E-01
#           1.24803E-01  1.27839E-01  1.30950E-01  1.34136E-01  1.37399E-01
#           1.40742E-01  1.44167E-01  1.47675E-01  1.51268E-01  1.54948E-01
#           1.58718E-01  1.62580E-01  1.66535E-01  1.70587E-01  1.74738E-01
#           1.78989E-01  1.83344E-01  1.87805E-01  1.92375E-01  1.97055E-01
#           2.01850E-01  2.06761E-01  2.11792E-01  2.16945E-01  2.22223E-01
#           2.27630E-01  2.33169E-01  2.38842E-01  2.44653E-01  2.50605E-01
#           2.56703E-01  2.62949E-01  2.69346E-01  2.75900E-01  2.82613E-01
#           2.89489E-01  2.96532E-01  3.03747E-01  3.11138E-01  3.18708E-01
#           3.26462E-01  3.34405E-01  3.42542E-01  3.50876E-01  3.59413E-01
#           3.68158E-01  3.77116E-01  3.86291E-01  3.95690E-01  4.05317E-01
#           4.15179E-01  4.25281E-01  4.35628E-01  4.46227E-01  4.57084E-01
#           4.68205E-01  4.79597E-01  4.91266E-01  5.03219E-01  5.15463E-01
#           5.28005E-01  5.40851E-01  5.54011E-01  5.67490E-01  5.81298E-01
#           5.95441E-01  6.09929E-01  6.24769E-01  6.39970E-01  6.55541E-01
#           6.71491E-01  6.87828E-01  7.04564E-01  7.21706E-01  7.39266E-01
#           7.57253E-01  7.75678E-01  7.94551E-01  8.13883E-01  8.33685E-01
#           8.53969E-01  8.74747E-01  8.96030E-01  9.17831E-01  9.40163E-01
#           9.63038E-01  9.86469E-01  1.01047E+00  1.03506E+00  1.06024E+00
#           1.08604E+00  1.11246E+00  1.13953E+00  1.16725E+00  1.19565E+00
#           1.22474E+00  1.25454E+00  1.28507E+00  1.31633E+00  1.34836E+00
#           1.38117E+00  1.41477E+00  1.44920E+00  1.48446E+00  1.52057E+00
#           1.55757E+00  1.59547E+00  1.63429E+00  1.67405E+00  1.71478E+00
#           1.75650E+00  1.79924E+00  1.84302E+00  1.88786E+00  1.93379E+00
#           1.98084E+00  2.02904E+00  2.07841E+00  2.12898E+00  2.18078E+00
#           2.23384E+00  2.28819E+00  2.34386E+00  2.40089E+00  2.45930E+00
#           2.51914E+00  2.58043E+00  2.64322E+00  2.70753E+00  2.77341E+00
#           2.84088E+00  2.91001E+00  2.98081E+00  3.05333E+00  3.12762E+00
#           3.20372E+00  3.28167E+00  3.36152E+00  3.44330E+00  3.52708E+00
#           3.61290E+00  3.70080E+00  3.79085E+00  3.88308E+00  3.97756E+00
#           4.07434E+00  4.17347E+00  4.27501E+00  4.37903E+00  4.48557E+00
#           4.59471E+00  4.70650E+00  4.82102E+00  4.93832E+00  5.05847E+00
#           5.18155E+00  5.30762E+00  5.43676E+00  5.56904E+00  5.70453E+00
#           5.84333E+00  5.98550E+00  6.13114E+00  6.28031E+00  6.43312E+00
#           6.58964E+00  6.74997E+00  6.91420E+00  7.08243E+00  7.25475E+00
#           7.43126E+00  7.61207E+00  7.79728E+00  7.98700E+00  8.18133E+00
#           8.38038E+00  8.58428E+00  8.79315E+00  9.00709E+00  9.22624E+00
#           9.45072E+00  9.68067E+00  9.91620E+00  1.01575E+01  1.04046E+01
#           1.06578E+01  1.09171E+01  1.11827E+01  1.14548E+01  1.17335E+01
#           1.20190E+01  1.23114E+01  1.26109E+01  1.29178E+01  1.32321E+01
#           1.35540E+01  1.38838E+01  1.42216E+01  1.45676E+01  1.49221E+01
#           1.52851E+01  1.56570E+01  1.60380E+01  1.64282E+01  1.68279E+01
#           1.72374E+01  1.76568E+01  1.80864E+01  1.85264E+01  1.89772E+01
#           1.94389E+01  1.99119E+01  2.03963E+01  2.08926E+01  2.14009E+01
#           2.19216E+01  2.24550E+01  2.30014E+01  2.35610E+01  2.41343E+01
#           2.47215E+01  2.53230E+01  2.59391E+01  2.65702E+01  2.72167E+01
#           2.78789E+01  2.85572E+01  2.92520E+01  2.99637E+01  3.06928E+01
#           3.14396E+01  3.22045E+01  3.29881E+01  3.37907E+01  3.46128E+01
#           3.54550E+01  3.63177E+01  3.72013E+01  3.81064E+01  3.90336E+01
#           3.99833E+01  4.09561E+01  4.19526E+01  4.29734E+01  4.40189E+01
#           4.50900E+01  4.61870E+01  4.73108E+01  4.84619E+01  4.96410E+01
#           5.08488E+01  5.20860E+01  5.33533E+01  5.46514E+01  5.59812E+01
#           5.73432E+01  5.87384E+01  6.01676E+01  6.16315E+01  6.31311E+01
#           6.46671E+01  6.62405E+01  6.78522E+01  6.95031E+01  7.11941E+01
#           7.29263E+01  7.47007E+01  7.65182E+01  7.83800E+01  8.02870E+01
#           8.22405E+01  8.42414E+01  8.62911E+01  8.83906E+01  9.05412E+01
#           9.27442E+01  9.50007E+01  9.73122E+01  9.96799E+01  1.02105E+02
#           1.04589E+02  1.07134E+02  1.09741E+02  1.12411E+02  1.15146E+02
#           1.17948E+02  1.20817E+02  1.23757E+02  1.26768E+02  1.29852E+02
#           1.33012E+02  1.36248E+02  1.39563E+02  1.42959E+02  1.46437E+02
#           1.50000E+02
     unit =    2            # unit is [1/cm^2/(MeV/n)/source]
     axis =  eng            # axis of output
     file = detector-18.out  # file name of output for the above axis
   output = f-curr          # surface crossing forward current spectrum
     part =  neutron  
# kf/name :  2112     
#    used :        main (  %)        temp (  %)       total (  %)
#  memory :         414 (  0)           0 (  0)         414 (  0)

#------------------------------------------------------------------------------
#newpage:
#   no. =    1   reg = 117 - 217

x: Energy [MeV/n]
y:  F-Curr [1/cm^2/(MeV/n)/source]         
p: xlog ylog afac(0.8) form(0.9)
h: n            x            y(neutron ),hh0l   n 
#  e-lower      e-upper      neutron     r.err 
   1.0000E-02   1.0243E-02   1.1960E-02  0.0262
   1.0243E-02   1.0493E-02   1.1026E-02  0.0270
   1.0493E-02   1.0748E-02   1.1226E-02  0.0264
   1.0748E-02   1.1009E-02   1.1365E-02  0.0259
   1.1009E-02   1.1277E-02   1.1551E-02  0.0254
   1.1277E-02   1.1552E-02   1.1539E-02  0.0251
   1.1552E-02   1.1833E-02   1.1471E-02  0.0249
   1.1833E-02   1.2121E-02   1.1428E-02  0.0247
   1.2121E-02   1.2415E-02   1.1312E-02  0.0245
   1.2415E-02   1.2718E-02   1.1831E-02  0.0237
   1.2718E-02   1.3027E-02   1.1133E-02  0.0241
   1.3027E-02   1.3344E-02   1.1541E-02  0.0234
   1.3344E-02   1.3669E-02   1.0854E-02  0.0238
   1.3669E-02   1.4001E-02   1.1510E-02  0.0229
   1.4001E-02   1.4342E-02   1.1067E-02  0.0230
   1.4342E-02   1.4691E-02   1.1635E-02  0.0222
   1.4691E-02   1.5048E-02   1.1543E-02  0.0220
   1.5048E-02   1.5414E-02   1.0799E-02  0.0225
   1.5414E-02   1.5789E-02   1.1055E-02  0.0220
   1.5789E-02   1.6174E-02   1.1245E-02  0.0215
   1.6174E-02   1.6567E-02   1.1258E-02  0.0212
   1.6567E-02   1.6970E-02   1.1169E-02  0.0211
   1.6970E-02   1.7383E-02   1.1213E-02  0.0208
   1.7383E-02   1.7806E-02   1.1254E-02  0.0205
   1.7806E-02   1.8239E-02   1.1416E-02  0.0201
   1.8239E-02   1.8683E-02   1.1073E-02  0.0202
   1.8683E-02   1.9138E-02   1.1149E-02  0.0199
   1.9138E-02   1.9603E-02   1.1146E-02  0.0196
   1.9603E-02   2.0080E-02   1.1127E-02  0.0194
   2.0080E-02   2.0569E-02   1.0766E-02  0.0195
   2.0569E-02   2.1069E-02   1.0746E-02  0.0193
   2.1069E-02   2.1582E-02   1.1076E-02  0.0188
   2.1582E-02   2.2107E-02   1.0924E-02  0.0187
   2.2107E-02   2.2645E-02   1.0861E-02  0.0185
   2.2645E-02   2.3196E-02   1.0934E-02  0.0182
   2.3196E-02   2.3760E-02   1.1018E-02  0.0179
   2.3760E-02   2.4338E-02   1.0981E-02  0.0178
   2.4338E-02   2.4930E-02   1.0879E-02  0.0176
   2.4930E-02   2.5537E-02   1.0835E-02  0.0175
   2.5537E-02   2.6158E-02   1.0751E-02  0.0173
   2.6158E-02   2.6795E-02   1.0408E-02  0.0174
   2.6795E-02   2.7447E-02   1.0691E-02  0.0169
   2.7447E-02   2.8114E-02   1.0704E-02  0.0167
   2.8114E-02   2.8799E-02   1.0683E-02  0.0165
   2.8799E-02   2.9499E-02   1.0861E-02  0.0162
   2.9499E-02   3.0217E-02   1.0845E-02  0.0160
   3.0217E-02   3.0952E-02   1.0462E-02  0.0161
   3.0952E-02   3.1705E-02   1.0511E-02  0.0159
   3.1705E-02   3.2477E-02   1.1141E-02  0.0153
   3.2477E-02   3.3267E-02   1.0423E-02  0.0156
   3.3267E-02   3.4076E-02   1.0845E-02  0.0151
   3.4076E-02   3.4905E-02   1.0377E-02  0.0152
   3.4905E-02   3.5755E-02   1.0597E-02  0.0149
   3.5755E-02   3.6625E-02   1.0752E-02  0.0146
   3.6625E-02   3.7516E-02   1.0671E-02  0.0145
   3.7516E-02   3.8428E-02   1.0813E-02  0.0142
   3.8428E-02   3.9363E-02   1.0218E-02  0.0145
   3.9363E-02   4.0321E-02   1.0443E-02  0.0141
   4.0321E-02   4.1302E-02   1.0507E-02  0.0139
   4.1302E-02   4.2307E-02   1.0600E-02  0.0137
   4.2307E-02   4.3337E-02   1.0487E-02  0.0136
   4.3337E-02   4.4391E-02   1.0385E-02  0.0135
   4.4391E-02   4.5471E-02   1.0255E-02  0.0134
   4.5471E-02   4.6577E-02   1.0458E-02  0.0131
   4.6577E-02   4.7711E-02   1.0404E-02  0.0130
   4.7711E-02   4.8871E-02   1.0363E-02  0.0129
   4.8871E-02   5.0061E-02   1.0169E-02  0.0129
   5.0061E-02   5.1279E-02   1.0210E-02  0.0127
   5.1279E-02   5.2526E-02   1.0093E-02  0.0126
   5.2526E-02   5.3804E-02   1.0202E-02  0.0124
   5.3804E-02   5.5113E-02   1.0204E-02  0.0122
   5.5113E-02   5.6454E-02   1.0291E-02  0.0120
   5.6454E-02   5.7828E-02   1.0235E-02  0.0119
   5.7828E-02   5.9235E-02   9.8664E-03  0.0120
   5.9235E-02   6.0676E-02   9.8985E-03  0.0118
   6.0676E-02   6.2152E-02   1.0005E-02  0.0116
   6.2152E-02   6.3665E-02   9.9642E-03  0.0115
   6.3665E-02   6.5214E-02   9.8863E-03  0.0114
   6.5214E-02   6.6800E-02   9.7977E-03  0.0113
   6.6800E-02   6.8426E-02   1.0043E-02  0.0111
   6.8426E-02   7.0090E-02   9.9072E-03  0.0110
   7.0090E-02   7.1796E-02   9.8361E-03  0.0109
   7.1796E-02   7.3543E-02   9.5521E-03  0.0110
   7.3543E-02   7.5332E-02   9.5878E-03  0.0108
   7.5332E-02   7.7165E-02   9.7824E-03  0.0106
   7.7165E-02   7.9042E-02   9.6038E-03  0.0105
   7.9042E-02   8.0965E-02   9.6092E-03  0.0104
   8.0965E-02   8.2935E-02   9.5033E-03  0.0103
   8.2935E-02   8.4953E-02   9.4723E-03  0.0102
   8.4953E-02   8.7020E-02   9.4089E-03  0.0101
   8.7020E-02   8.9138E-02   9.5793E-03  0.0099
   8.9138E-02   9.1306E-02   9.3564E-03  0.0099
   9.1306E-02   9.3528E-02   9.1792E-03  0.0099
   9.3528E-02   9.5804E-02   9.2920E-03  0.0097
   9.5804E-02   9.8134E-02   9.3600E-03  0.0096
   9.8134E-02   1.0052E-01   9.2143E-03  0.0095
   1.0052E-01   1.0297E-01   9.1562E-03  0.0095
   1.0297E-01   1.0547E-01   9.0864E-03  0.0094
   1.0547E-01   1.0804E-01   8.9913E-03  0.0093
   1.0804E-01   1.1067E-01   9.1810E-03  0.0091
   1.1067E-01   1.1336E-01   9.2307E-03  0.0090
   1.1336E-01   1.1612E-01   9.0317E-03  0.0090
   1.1612E-01   1.1894E-01   9.0264E-03  0.0089
   1.1894E-01   1.2184E-01   8.7387E-03  0.0089
   1.2184E-01   1.2480E-01   8.6978E-03  0.0088
   1.2480E-01   1.2784E-01   8.8232E-03  0.0086
   1.2784E-01   1.3095E-01   8.6933E-03  0.0086
   1.3095E-01   1.3414E-01   8.7153E-03  0.0085
   1.3414E-01   1.3740E-01   8.7105E-03  0.0084
   1.3740E-01   1.4074E-01   8.6125E-03  0.0083
   1.4074E-01   1.4417E-01   8.3834E-03  0.0083
   1.4417E-01   1.4767E-01   8.4848E-03  0.0082
   1.4767E-01   1.5127E-01   8.4227E-03  0.0081
   1.5127E-01   1.5495E-01   8.2789E-03  0.0081
   1.5495E-01   1.5872E-01   8.3339E-03  0.0080
   1.5872E-01   1.6258E-01   8.2890E-03  0.0079
   1.6258E-01   1.6654E-01   8.1842E-03  0.0079
   1.6654E-01   1.7059E-01   8.0860E-03  0.0078
   1.7059E-01   1.7474E-01   8.1821E-03  0.0077
   1.7474E-01   1.7899E-01   8.0689E-03  0.0076
   1.7899E-01   1.8334E-01   7.9739E-03  0.0076
   1.8334E-01   1.8781E-01   7.8015E-03  0.0076
   1.8781E-01   1.9237E-01   7.8624E-03  0.0075
   1.9237E-01   1.9706E-01   7.6661E-03  0.0075
   1.9706E-01   2.0185E-01   7.7614E-03  0.0073
   2.0185E-01   2.0676E-01   7.7627E-03  0.0072
   2.0676E-01   2.1179E-01   7.6109E-03  0.0072
   2.1179E-01   2.1694E-01   7.5571E-03  0.0072
   2.1694E-01   2.2222E-01   7.5117E-03  0.0071
   2.2222E-01   2.2763E-01   7.3928E-03  0.0071
   2.2763E-01   2.3317E-01   7.3003E-03  0.0070
   2.3317E-01   2.3884E-01   7.2427E-03  0.0070
   2.3884E-01   2.4465E-01   7.1249E-03  0.0070
   2.4465E-01   2.5061E-01   7.1276E-03  0.0069
   2.5061E-01   2.5670E-01   7.1058E-03  0.0068
   2.5670E-01   2.6295E-01   7.0534E-03  0.0067
   2.6295E-01   2.6935E-01   6.9218E-03  0.0067
   2.6935E-01   2.7590E-01   6.8508E-03  0.0067
   2.7590E-01   2.8261E-01   6.8081E-03  0.0066
   2.8261E-01   2.8949E-01   6.6988E-03  0.0066
   2.8949E-01   2.9653E-01   6.6294E-03  0.0065
   2.9653E-01   3.0375E-01   6.5576E-03  0.0065
   3.0375E-01   3.1114E-01   6.5209E-03  0.0064
   3.1114E-01   3.1871E-01   6.4302E-03  0.0064
   3.1871E-01   3.2646E-01   6.3047E-03  0.0064
   3.2646E-01   3.3441E-01   6.1942E-03  0.0064
   3.3441E-01   3.4254E-01   6.0871E-03  0.0064
   3.4254E-01   3.5088E-01   5.9667E-03  0.0063
   3.5088E-01   3.5941E-01   6.0250E-03  0.0062
   3.5941E-01   3.6816E-01   5.8945E-03  0.0062
   3.6816E-01   3.7712E-01   5.8130E-03  0.0062
   3.7712E-01   3.8629E-01   5.7831E-03  0.0061
   3.8629E-01   3.9569E-01   5.6856E-03  0.0061
   3.9569E-01   4.0532E-01   5.6407E-03  0.0061
   4.0532E-01   4.1518E-01   5.4830E-03  0.0061
   4.1518E-01   4.2528E-01   5.4017E-03  0.0061
   4.2528E-01   4.3563E-01   5.3269E-03  0.0060
   4.3563E-01   4.4623E-01   5.2368E-03  0.0060
   4.4623E-01   4.5708E-01   5.1327E-03  0.0060
   4.5708E-01   4.6821E-01   5.0586E-03  0.0060
   4.6821E-01   4.7960E-01   4.9729E-03  0.0059
   4.7960E-01   4.9127E-01   4.8268E-03  0.0060
   4.9127E-01   5.0322E-01   4.7314E-03  0.0060
   5.0322E-01   5.1546E-01   4.6226E-03  0.0060
   5.1546E-01   5.2800E-01   4.5885E-03  0.0059
   5.2800E-01   5.4085E-01   4.4909E-03  0.0059
   5.4085E-01   5.5401E-01   4.4396E-03  0.0059
   5.5401E-01   5.6749E-01   4.2569E-03  0.0059
   5.6749E-01   5.8130E-01   4.1835E-03  0.0059
   5.8130E-01   5.9544E-01   4.1013E-03  0.0059
   5.9544E-01   6.0993E-01   4.0299E-03  0.0059
   6.0993E-01   6.2477E-01   3.8893E-03  0.0059
   6.2477E-01   6.3997E-01   3.7897E-03  0.0059
   6.3997E-01   6.5554E-01   3.7055E-03  0.0059
   6.5554E-01   6.7149E-01   3.5992E-03  0.0059
   6.7149E-01   6.8783E-01   3.5040E-03  0.0059
   6.8783E-01   7.0456E-01   3.4535E-03  0.0059
   7.0456E-01   7.2171E-01   3.3193E-03  0.0059
   7.2171E-01   7.3927E-01   3.2255E-03  0.0059
   7.3927E-01   7.5725E-01   3.1502E-03  0.0059
   7.5725E-01   7.7568E-01   3.0432E-03  0.0060
   7.7568E-01   7.9455E-01   2.9385E-03  0.0060
   7.9455E-01   8.1388E-01   2.8235E-03  0.0061
   8.1388E-01   8.3368E-01   2.7305E-03  0.0061
   8.3368E-01   8.5397E-01   2.6689E-03  0.0061
   8.5397E-01   8.7475E-01   2.5304E-03  0.0062
   8.7475E-01   8.9603E-01   2.4473E-03  0.0062
   8.9603E-01   9.1783E-01   2.3248E-03  0.0063
   9.1783E-01   9.4016E-01   2.2134E-03  0.0064
   9.4016E-01   9.6304E-01   2.1242E-03  0.0064
   9.6304E-01   9.8647E-01   2.0274E-03  0.0065
   9.8647E-01   1.0105E+00   1.9545E-03  0.0065
   1.0105E+00   1.0351E+00   1.9346E-03  0.0065
   1.0351E+00   1.0602E+00   1.9368E-03  0.0064
   1.0602E+00   1.0860E+00   1.9550E-03  0.0063
   1.0860E+00   1.1125E+00   1.9568E-03  0.0062
   1.1125E+00   1.1395E+00   1.9768E-03  0.0061
   1.1395E+00   1.1673E+00   2.0217E-03  0.0060
   1.1673E+00   1.1957E+00   2.0666E-03  0.0058
   1.1957E+00   1.2247E+00   2.0914E-03  0.0057
   1.2247E+00   1.2545E+00   2.0899E-03  0.0057
   1.2545E+00   1.2851E+00   2.0991E-03  0.0056
   1.2851E+00   1.3163E+00   2.1015E-03  0.0055
   1.3163E+00   1.3484E+00   2.0763E-03  0.0055
   1.3484E+00   1.3812E+00   2.1051E-03  0.0054
   1.3812E+00   1.4148E+00   2.1561E-03  0.0053
   1.4148E+00   1.4492E+00   2.1127E-03  0.0053
   1.4492E+00   1.4845E+00   2.0652E-03  0.0052
   1.4845E+00   1.5206E+00   2.0452E-03  0.0052
   1.5206E+00   1.5576E+00   1.9927E-03  0.0052
   1.5576E+00   1.5955E+00   1.9956E-03  0.0051
   1.5955E+00   1.6343E+00   2.0125E-03  0.0051
   1.6343E+00   1.6741E+00   1.9837E-03  0.0050
   1.6741E+00   1.7148E+00   2.0011E-03  0.0050
   1.7148E+00   1.7565E+00   1.9710E-03  0.0049
   1.7565E+00   1.7992E+00   1.9288E-03  0.0049
   1.7992E+00   1.8430E+00   1.9032E-03  0.0049
   1.8430E+00   1.8879E+00   1.8429E-03  0.0049
   1.8879E+00   1.9338E+00   1.8176E-03  0.0049
   1.9338E+00   1.9808E+00   1.8174E-03  0.0048
   1.9808E+00   2.0290E+00   1.7848E-03  0.0048
   2.0290E+00   2.0784E+00   1.7310E-03  0.0048
   2.0784E+00   2.1290E+00   1.6773E-03  0.0049
   2.1290E+00   2.1808E+00   1.6322E-03  0.0049
   2.1808E+00   2.2338E+00   1.5928E-03  0.0049
   2.2338E+00   2.2882E+00   1.5293E-03  0.0049
   2.2882E+00   2.3439E+00   1.4941E-03  0.0049
   2.3439E+00   2.4009E+00   1.4772E-03  0.0049
   2.4009E+00   2.4593E+00   1.4505E-03  0.0049
   2.4593E+00   2.5191E+00   1.3981E-03  0.0049
   2.5191E+00   2.5804E+00   1.3337E-03  0.0050
   2.5804E+00   2.6432E+00   1.2795E-03  0.0050
   2.6432E+00   2.7075E+00   1.2322E-03  0.0050
   2.7075E+00   2.7734E+00   1.1820E-03  0.0051
   2.7734E+00   2.8409E+00   1.1504E-03  0.0051
   2.8409E+00   2.9100E+00   1.1026E-03  0.0051
   2.9100E+00   2.9808E+00   1.0656E-03  0.0052
   2.9808E+00   3.0533E+00   1.0361E-03  0.0052
   3.0533E+00   3.1276E+00   9.8507E-04  0.0052
   3.1276E+00   3.2037E+00   9.3744E-04  0.0053
   3.2037E+00   3.2817E+00   8.9508E-04  0.0054
   3.2817E+00   3.3615E+00   8.5335E-04  0.0054
   3.3615E+00   3.4433E+00   8.1501E-04  0.0055
   3.4433E+00   3.5271E+00   7.7505E-04  0.0056
   3.5271E+00   3.6129E+00   7.3832E-04  0.0056
   3.6129E+00   3.7008E+00   7.0717E-04  0.0057
   3.7008E+00   3.7908E+00   6.7314E-04  0.0058
   3.7908E+00   3.8831E+00   6.3691E-04  0.0058
   3.8831E+00   3.9776E+00   6.1000E-04  0.0059
   3.9776E+00   4.0743E+00   5.7643E-04  0.0060
   4.0743E+00   4.1735E+00   5.3708E-04  0.0061
   4.1735E+00   4.2750E+00   5.1337E-04  0.0062
   4.2750E+00   4.3790E+00   4.8371E-04  0.0063
   4.3790E+00   4.4856E+00   4.5571E-04  0.0064
   4.4856E+00   4.5947E+00   4.3215E-04  0.0065
   4.5947E+00   4.7065E+00   4.0391E-04  0.0067
   4.7065E+00   4.8210E+00   3.8717E-04  0.0067
   4.8210E+00   4.9383E+00   3.5465E-04  0.0069
   4.9383E+00   5.0585E+00   3.3764E-04  0.0070
   5.0585E+00   5.1815E+00   3.1584E-04  0.0072
   5.1815E+00   5.3076E+00   2.9780E-04  0.0073
   5.3076E+00   5.4368E+00   2.7398E-04  0.0075
   5.4368E+00   5.5690E+00   2.5812E-04  0.0077
   5.5690E+00   5.7045E+00   2.4443E-04  0.0078
   5.7045E+00   5.8433E+00   2.2504E-04  0.0080
   5.8433E+00   5.9855E+00   2.1126E-04  0.0082
   5.9855E+00   6.1311E+00   1.9468E-04  0.0084
   6.1311E+00   6.2803E+00   1.8401E-04  0.0085
   6.2803E+00   6.4331E+00   1.6824E-04  0.0088
   6.4331E+00   6.5896E+00   1.5547E-04  0.0091
   6.5896E+00   6.7500E+00   1.4832E-04  0.0092
   6.7500E+00   6.9142E+00   1.3755E-04  0.0094
   6.9142E+00   7.0824E+00   1.2710E-04  0.0097
   7.0824E+00   7.2548E+00   1.1835E-04  0.0099
   7.2548E+00   7.4313E+00   1.1212E-04  0.0101
   7.4313E+00   7.6121E+00   1.0287E-04  0.0104
   7.6121E+00   7.7973E+00   9.5865E-05  0.0106
   7.7973E+00   7.9870E+00   8.8639E-05  0.0109
   7.9870E+00   8.1813E+00   8.3677E-05  0.0111
   8.1813E+00   8.3804E+00   7.8063E-05  0.0113
   8.3804E+00   8.5843E+00   7.2589E-05  0.0116
   8.5843E+00   8.7931E+00   6.6747E-05  0.0120
   8.7931E+00   9.0071E+00   6.2456E-05  0.0122
   9.0071E+00   9.2262E+00   5.9010E-05  0.0124
   9.2262E+00   9.4507E+00   5.5327E-05  0.0127
   9.4507E+00   9.6807E+00   5.1091E-05  0.0130
   9.6807E+00   9.9162E+00   4.8688E-05  0.0132
   9.9162E+00   1.0157E+01   4.4191E-05  0.0137
   1.0157E+01   1.0405E+01   4.1960E-05  0.0139
   1.0405E+01   1.0658E+01   3.8874E-05  0.0142
   1.0658E+01   1.0917E+01   3.7850E-05  0.0143
   1.0917E+01   1.1183E+01   3.4707E-05  0.0147
   1.1183E+01   1.1455E+01   3.2630E-05  0.0150
   1.1455E+01   1.1733E+01   3.0430E-05  0.0153
   1.1733E+01   1.2019E+01   2.8527E-05  0.0156
   1.2019E+01   1.2311E+01   2.7453E-05  0.0158
   1.2311E+01   1.2611E+01   2.6290E-05  0.0159
   1.2611E+01   1.2918E+01   2.4124E-05  0.0164
   1.2918E+01   1.3232E+01   2.2459E-05  0.0168
   1.3232E+01   1.3554E+01   2.1653E-05  0.0169
   1.3554E+01   1.3884E+01   2.0456E-05  0.0172
   1.3884E+01   1.4222E+01   1.9005E-05  0.0176
   1.4222E+01   1.4568E+01   1.8045E-05  0.0179
   1.4568E+01   1.4922E+01   1.7484E-05  0.0180
   1.4922E+01   1.5285E+01   1.6438E-05  0.0183
   1.5285E+01   1.5657E+01   1.5499E-05  0.0186
   1.5657E+01   1.6038E+01   1.4522E-05  0.0190
   1.6038E+01   1.6428E+01   1.4192E-05  0.0190
   1.6428E+01   1.6828E+01   1.3114E-05  0.0195
   1.6828E+01   1.7237E+01   1.2234E-05  0.0200
   1.7237E+01   1.7657E+01   1.1929E-05  0.0200
   1.7657E+01   1.8086E+01   1.0987E-05  0.0206
   1.8086E+01   1.8526E+01   1.0521E-05  0.0208
   1.8526E+01   1.8977E+01   1.0420E-05  0.0206
   1.8977E+01   1.9439E+01   9.5944E-06  0.0212
   1.9439E+01   1.9912E+01   8.9034E-06  0.0218
   1.9912E+01   2.0396E+01   7.0241E-06  0.0242
   2.0396E+01   2.0893E+01   6.2749E-06  0.0253
   2.0893E+01   2.1401E+01   6.2085E-06  0.0252
   2.1401E+01   2.1922E+01   5.9881E-06  0.0253
   2.1922E+01   2.2455E+01   5.8458E-06  0.0253
   2.2455E+01   2.3001E+01   5.5020E-06  0.0258
   2.3001E+01   2.3561E+01   5.0675E-06  0.0266
   2.3561E+01   2.4134E+01   4.8983E-06  0.0267
   2.4134E+01   2.4721E+01   4.9216E-06  0.0263
   2.4721E+01   2.5323E+01   4.6484E-06  0.0267
   2.5323E+01   2.5939E+01   4.3660E-06  0.0273
   2.5939E+01   2.6570E+01   4.0975E-06  0.0278
   2.6570E+01   2.7217E+01   3.9290E-06  0.0281
   2.7217E+01   2.7879E+01   3.7451E-06  0.0284
   2.7879E+01   2.8557E+01   3.4615E-06  0.0292
   2.8557E+01   2.9252E+01   3.1548E-06  0.0302
   2.9252E+01   2.9964E+01   3.0489E-06  0.0304
   2.9964E+01   3.0693E+01   2.7955E-06  0.0313
   3.0693E+01   3.1440E+01   2.4746E-06  0.0329
   3.1440E+01   3.2205E+01   2.2982E-06  0.0337
   3.2205E+01   3.2988E+01   2.2079E-06  0.0340
   3.2988E+01   3.3791E+01   2.1081E-06  0.0344
   3.3791E+01   3.4613E+01   1.7758E-06  0.0370
   3.4613E+01   3.5455E+01   1.6149E-06  0.0383
   3.5455E+01   3.6318E+01   1.4444E-06  0.0401
   3.6318E+01   3.7201E+01   1.4802E-06  0.0391
   3.7201E+01   3.8106E+01   1.2573E-06  0.0419
   3.8106E+01   3.9034E+01   1.1605E-06  0.0431
   3.9034E+01   3.9983E+01   1.0045E-06  0.0458
   3.9983E+01   4.0956E+01   1.0464E-06  0.0443
   4.0956E+01   4.1953E+01   7.9278E-07  0.0503
   4.1953E+01   4.2973E+01   7.7787E-07  0.0502
   4.2973E+01   4.4019E+01   5.8915E-07  0.0570
   4.4019E+01   4.5090E+01   5.1540E-07  0.0602
   4.5090E+01   4.6187E+01   5.2139E-07  0.0591
   4.6187E+01   4.7311E+01   4.5561E-07  0.0625
   4.7311E+01   4.8462E+01   3.4054E-07  0.0714
   4.8462E+01   4.9641E+01   3.1549E-07  0.0733
   4.9641E+01   5.0849E+01   2.8978E-07  0.0756
   5.0849E+01   5.2086E+01   2.5057E-07  0.0803
   5.2086E+01   5.3353E+01   2.0358E-07  0.0880
   5.3353E+01   5.4651E+01   1.3404E-07  0.1072
   5.4651E+01   5.5981E+01   1.2183E-07  0.1111
   5.5981E+01   5.7343E+01   1.3215E-07  0.1054
   5.7343E+01   5.8738E+01   8.0275E-08  0.1336
   5.8738E+01   6.0168E+01   6.8572E-08  0.1429
   6.0168E+01   6.1632E+01   6.2845E-08  0.1474
   6.1632E+01   6.3131E+01   4.2680E-08  0.1768
   6.3131E+01   6.4667E+01   2.8645E-08  0.2132
   6.4667E+01   6.6240E+01   3.8134E-08  0.1826
   6.6240E+01   6.7852E+01   1.8614E-08  0.2582
   6.7852E+01   6.9503E+01   1.2115E-08  0.3162
   6.9503E+01   7.1194E+01   8.2788E-09  0.3780
   7.1194E+01   7.2926E+01   6.9276E-09  0.4082
   7.2926E+01   7.4701E+01   2.2543E-09  0.7071
   7.4701E+01   7.6518E+01   2.2008E-09  0.7071
   7.6518E+01   7.8380E+01   0.0000E+00  0.0000
   7.8380E+01   8.0287E+01   0.0000E+00  0.0000
   8.0287E+01   8.2240E+01   0.0000E+00  0.0000
   8.2240E+01   8.4241E+01   0.0000E+00  0.0000
   8.4241E+01   8.6291E+01   1.9515E-09  0.7071
   8.6291E+01   8.8391E+01   0.0000E+00  0.0000
   8.8391E+01   9.0541E+01   0.0000E+00  0.0000
   9.0541E+01   9.2744E+01   0.0000E+00  0.0000
   9.2744E+01   9.5001E+01   0.0000E+00  0.0000
   9.5001E+01   9.7312E+01   0.0000E+00  0.0000
   9.7312E+01   9.9680E+01   0.0000E+00  0.0000
   9.9680E+01   1.0211E+02   0.0000E+00  0.0000
   1.0211E+02   1.0459E+02   0.0000E+00  0.0000
   1.0459E+02   1.0713E+02   0.0000E+00  0.0000
   1.0713E+02   1.0974E+02   0.0000E+00  0.0000
   1.0974E+02   1.1241E+02   0.0000E+00  0.0000
   1.1241E+02   1.1515E+02   0.0000E+00  0.0000
   1.1515E+02   1.1795E+02   0.0000E+00  0.0000
   1.1795E+02   1.2082E+02   0.0000E+00  0.0000
   1.2082E+02   1.2376E+02   0.0000E+00  0.0000
   1.2376E+02   1.2677E+02   0.0000E+00  0.0000
   1.2677E+02   1.2985E+02   0.0000E+00  0.0000
   1.2985E+02   1.3301E+02   0.0000E+00  0.0000
   1.3301E+02   1.3625E+02   0.0000E+00  0.0000
   1.3625E+02   1.3956E+02   0.0000E+00  0.0000
   1.3956E+02   1.4296E+02   0.0000E+00  0.0000
   1.4296E+02   1.4644E+02   0.0000E+00  0.0000
   1.4644E+02   1.5000E+02   0.0000E+00  0.0000

#   sum over                 7.1373E-05
'no. =    1   reg = 117 - 217'
msuc: {\huge [t-cross] in region mesh}
msdr: {\it plotted by \ANGEL \version}
msdl: {\it calculated by \PHITS  3.26}
wt: s(0.7)
\vspace{-3}
  region surface crossing
  area  &=&   1.0000E+00 [cm^2]
e:
 
# Information for Restart Calculation
# This calculation was newly started
# istdev =  2 # 1:Batch variance, 2:History variance
# resc2  = 5.00000000000000000E+08 # Total source weight or Total source weight / maxcas
# resc3  = 5.00000000000000000E+08 # Total history number or Total batch number
# maxcas =   500000000 # History / Batch, only used for istdev=1
# bitrseed = 1101101111010011011000101101110001100110110010110001010100010001 # bit data of rseed
