[ T-Cross ]
    title = [t-cross] in region mesh
     mesh =  reg            # mesh type is region-wise
      reg =    1            # number of crossing regions
      non     r-from    r-to       area
      1       111       211        1.000000    
   e-type =    3            # e-mesh is log given by emin, emax and ne
     emin =  1.0000000E-02  # minimum value of e-mesh points
     emax =   150.0000      # maximum value of e-mesh points
#    edel =  2.4039514E-02  # mesh width of e-mesh points
       ne =    400          # number of e-mesh points
#    data = ( e(i), i = 1, ne + 1 )
#           1.00000E-02  1.02433E-02  1.04925E-02  1.07478E-02  1.10093E-02
#           1.12772E-02  1.15516E-02  1.18326E-02  1.21205E-02  1.24154E-02
#           1.27175E-02  1.30269E-02  1.33439E-02  1.36686E-02  1.40011E-02
#           1.43418E-02  1.46907E-02  1.50482E-02  1.54143E-02  1.57894E-02
#           1.61735E-02  1.65670E-02  1.69701E-02  1.73830E-02  1.78060E-02
#           1.82392E-02  1.86830E-02  1.91375E-02  1.96032E-02  2.00801E-02
#           2.05687E-02  2.10692E-02  2.15818E-02  2.21069E-02  2.26448E-02
#           2.31957E-02  2.37601E-02  2.43382E-02  2.49304E-02  2.55369E-02
#           2.61583E-02  2.67947E-02  2.74467E-02  2.81145E-02  2.87985E-02
#           2.94992E-02  3.02169E-02  3.09521E-02  3.17052E-02  3.24766E-02
#           3.32668E-02  3.40762E-02  3.49053E-02  3.57546E-02  3.66246E-02
#           3.75157E-02  3.84284E-02  3.93634E-02  4.03212E-02  4.13022E-02
#           4.23071E-02  4.33365E-02  4.43909E-02  4.54710E-02  4.65773E-02
#           4.77106E-02  4.88714E-02  5.00605E-02  5.12785E-02  5.25262E-02
#           5.38042E-02  5.51133E-02  5.64542E-02  5.78278E-02  5.92348E-02
#           6.06760E-02  6.21523E-02  6.36645E-02  6.52135E-02  6.68002E-02
#           6.84255E-02  7.00904E-02  7.17957E-02  7.35426E-02  7.53319E-02
#           7.71648E-02  7.90423E-02  8.09655E-02  8.29354E-02  8.49533E-02
#           8.70203E-02  8.91376E-02  9.13064E-02  9.35279E-02  9.58035E-02
#           9.81345E-02  1.00522E-01  1.02968E-01  1.05473E-01  1.08040E-01
#           1.10668E-01  1.13361E-01  1.16119E-01  1.18944E-01  1.21838E-01
#           1.24803E-01  1.27839E-01  1.30950E-01  1.34136E-01  1.37399E-01
#           1.40742E-01  1.44167E-01  1.47675E-01  1.51268E-01  1.54948E-01
#           1.58718E-01  1.62580E-01  1.66535E-01  1.70587E-01  1.74738E-01
#           1.78989E-01  1.83344E-01  1.87805E-01  1.92375E-01  1.97055E-01
#           2.01850E-01  2.06761E-01  2.11792E-01  2.16945E-01  2.22223E-01
#           2.27630E-01  2.33169E-01  2.38842E-01  2.44653E-01  2.50605E-01
#           2.56703E-01  2.62949E-01  2.69346E-01  2.75900E-01  2.82613E-01
#           2.89489E-01  2.96532E-01  3.03747E-01  3.11138E-01  3.18708E-01
#           3.26462E-01  3.34405E-01  3.42542E-01  3.50876E-01  3.59413E-01
#           3.68158E-01  3.77116E-01  3.86291E-01  3.95690E-01  4.05317E-01
#           4.15179E-01  4.25281E-01  4.35628E-01  4.46227E-01  4.57084E-01
#           4.68205E-01  4.79597E-01  4.91266E-01  5.03219E-01  5.15463E-01
#           5.28005E-01  5.40851E-01  5.54011E-01  5.67490E-01  5.81298E-01
#           5.95441E-01  6.09929E-01  6.24769E-01  6.39970E-01  6.55541E-01
#           6.71491E-01  6.87828E-01  7.04564E-01  7.21706E-01  7.39266E-01
#           7.57253E-01  7.75678E-01  7.94551E-01  8.13883E-01  8.33685E-01
#           8.53969E-01  8.74747E-01  8.96030E-01  9.17831E-01  9.40163E-01
#           9.63038E-01  9.86469E-01  1.01047E+00  1.03506E+00  1.06024E+00
#           1.08604E+00  1.11246E+00  1.13953E+00  1.16725E+00  1.19565E+00
#           1.22474E+00  1.25454E+00  1.28507E+00  1.31633E+00  1.34836E+00
#           1.38117E+00  1.41477E+00  1.44920E+00  1.48446E+00  1.52057E+00
#           1.55757E+00  1.59547E+00  1.63429E+00  1.67405E+00  1.71478E+00
#           1.75650E+00  1.79924E+00  1.84302E+00  1.88786E+00  1.93379E+00
#           1.98084E+00  2.02904E+00  2.07841E+00  2.12898E+00  2.18078E+00
#           2.23384E+00  2.28819E+00  2.34386E+00  2.40089E+00  2.45930E+00
#           2.51914E+00  2.58043E+00  2.64322E+00  2.70753E+00  2.77341E+00
#           2.84088E+00  2.91001E+00  2.98081E+00  3.05333E+00  3.12762E+00
#           3.20372E+00  3.28167E+00  3.36152E+00  3.44330E+00  3.52708E+00
#           3.61290E+00  3.70080E+00  3.79085E+00  3.88308E+00  3.97756E+00
#           4.07434E+00  4.17347E+00  4.27501E+00  4.37903E+00  4.48557E+00
#           4.59471E+00  4.70650E+00  4.82102E+00  4.93832E+00  5.05847E+00
#           5.18155E+00  5.30762E+00  5.43676E+00  5.56904E+00  5.70453E+00
#           5.84333E+00  5.98550E+00  6.13114E+00  6.28031E+00  6.43312E+00
#           6.58964E+00  6.74997E+00  6.91420E+00  7.08243E+00  7.25475E+00
#           7.43126E+00  7.61207E+00  7.79728E+00  7.98700E+00  8.18133E+00
#           8.38038E+00  8.58428E+00  8.79315E+00  9.00709E+00  9.22624E+00
#           9.45072E+00  9.68067E+00  9.91620E+00  1.01575E+01  1.04046E+01
#           1.06578E+01  1.09171E+01  1.11827E+01  1.14548E+01  1.17335E+01
#           1.20190E+01  1.23114E+01  1.26109E+01  1.29178E+01  1.32321E+01
#           1.35540E+01  1.38838E+01  1.42216E+01  1.45676E+01  1.49221E+01
#           1.52851E+01  1.56570E+01  1.60380E+01  1.64282E+01  1.68279E+01
#           1.72374E+01  1.76568E+01  1.80864E+01  1.85264E+01  1.89772E+01
#           1.94389E+01  1.99119E+01  2.03963E+01  2.08926E+01  2.14009E+01
#           2.19216E+01  2.24550E+01  2.30014E+01  2.35610E+01  2.41343E+01
#           2.47215E+01  2.53230E+01  2.59391E+01  2.65702E+01  2.72167E+01
#           2.78789E+01  2.85572E+01  2.92520E+01  2.99637E+01  3.06928E+01
#           3.14396E+01  3.22045E+01  3.29881E+01  3.37907E+01  3.46128E+01
#           3.54550E+01  3.63177E+01  3.72013E+01  3.81064E+01  3.90336E+01
#           3.99833E+01  4.09561E+01  4.19526E+01  4.29734E+01  4.40189E+01
#           4.50900E+01  4.61870E+01  4.73108E+01  4.84619E+01  4.96410E+01
#           5.08488E+01  5.20860E+01  5.33533E+01  5.46514E+01  5.59812E+01
#           5.73432E+01  5.87384E+01  6.01676E+01  6.16315E+01  6.31311E+01
#           6.46671E+01  6.62405E+01  6.78522E+01  6.95031E+01  7.11941E+01
#           7.29263E+01  7.47007E+01  7.65182E+01  7.83800E+01  8.02870E+01
#           8.22405E+01  8.42414E+01  8.62911E+01  8.83906E+01  9.05412E+01
#           9.27442E+01  9.50007E+01  9.73122E+01  9.96799E+01  1.02105E+02
#           1.04589E+02  1.07134E+02  1.09741E+02  1.12411E+02  1.15146E+02
#           1.17948E+02  1.20817E+02  1.23757E+02  1.26768E+02  1.29852E+02
#           1.33012E+02  1.36248E+02  1.39563E+02  1.42959E+02  1.46437E+02
#           1.50000E+02
     unit =    2            # unit is [1/cm^2/(MeV/n)/source]
     axis =  eng            # axis of output
     file = detector-12.out  # file name of output for the above axis
   output = f-curr          # surface crossing forward current spectrum
     part =  neutron  
# kf/name :  2112     
#    used :        main (  %)        temp (  %)       total (  %)
#  memory :         414 (  0)           0 (  0)         414 (  0)

#------------------------------------------------------------------------------
#newpage:
#   no. =    1   reg = 111 - 211

x: Energy [MeV/n]
y:  F-Curr [1/cm^2/(MeV/n)/source]         
p: xlog ylog afac(0.8) form(0.9)
h: n            x            y(neutron ),hh0l   n 
#  e-lower      e-upper      neutron     r.err 
   1.0000E-02   1.0243E-02   5.6883E-03  0.0380
   1.0243E-02   1.0493E-02   5.1519E-03  0.0395
   1.0493E-02   1.0748E-02   5.1941E-03  0.0388
   1.0748E-02   1.1009E-02   5.3384E-03  0.0379
   1.1009E-02   1.1277E-02   5.1070E-03  0.0382
   1.1277E-02   1.1552E-02   5.5178E-03  0.0363
   1.1552E-02   1.1833E-02   5.2089E-03  0.0370
   1.1833E-02   1.2121E-02   5.6895E-03  0.0349
   1.2121E-02   1.2415E-02   5.4798E-03  0.0352
   1.2415E-02   1.2718E-02   5.4026E-03  0.0350
   1.2718E-02   1.3027E-02   5.4811E-03  0.0343
   1.3027E-02   1.3344E-02   5.4519E-03  0.0340
   1.3344E-02   1.3669E-02   5.4271E-03  0.0337
   1.3669E-02   1.4001E-02   5.3282E-03  0.0336
   1.4001E-02   1.4342E-02   5.4013E-03  0.0330
   1.4342E-02   1.4691E-02   5.1354E-03  0.0334
   1.4691E-02   1.5048E-02   5.4163E-03  0.0321
   1.5048E-02   1.5414E-02   5.2658E-03  0.0322
   1.5414E-02   1.5789E-02   5.1834E-03  0.0321
   1.5789E-02   1.6174E-02   5.4039E-03  0.0310
   1.6174E-02   1.6567E-02   5.2755E-03  0.0310
   1.6567E-02   1.6970E-02   5.1800E-03  0.0309
   1.6970E-02   1.7383E-02   5.2798E-03  0.0303
   1.7383E-02   1.7806E-02   4.8470E-03  0.0312
   1.7806E-02   1.8239E-02   4.9996E-03  0.0304
   1.8239E-02   1.8683E-02   5.2144E-03  0.0294
   1.8683E-02   1.9138E-02   5.0817E-03  0.0294
   1.9138E-02   1.9603E-02   5.2359E-03  0.0286
   1.9603E-02   2.0080E-02   5.1325E-03  0.0286
   2.0080E-02   2.0569E-02   5.1825E-03  0.0281
   2.0569E-02   2.1069E-02   5.3232E-03  0.0274
   2.1069E-02   2.1582E-02   5.3177E-03  0.0271
   2.1582E-02   2.2107E-02   5.3742E-03  0.0266
   2.2107E-02   2.2645E-02   5.5031E-03  0.0260
   2.2645E-02   2.3196E-02   5.1038E-03  0.0267
   2.3196E-02   2.3760E-02   4.9577E-03  0.0267
   2.3760E-02   2.4338E-02   5.2378E-03  0.0257
   2.4338E-02   2.4930E-02   5.1303E-03  0.0257
   2.4930E-02   2.5537E-02   5.1799E-03  0.0252
   2.5537E-02   2.6158E-02   5.2854E-03  0.0247
   2.6158E-02   2.6795E-02   4.9713E-03  0.0251
   2.6795E-02   2.7447E-02   5.1416E-03  0.0244
   2.7447E-02   2.8114E-02   4.8098E-03  0.0250
   2.8114E-02   2.8799E-02   5.2131E-03  0.0237
   2.8799E-02   2.9499E-02   5.0065E-03  0.0239
   2.9499E-02   3.0217E-02   4.8959E-03  0.0239
   3.0217E-02   3.0952E-02   4.9184E-03  0.0235
   3.0952E-02   3.1705E-02   5.0777E-03  0.0229
   3.1705E-02   3.2477E-02   5.0608E-03  0.0226
   3.2477E-02   3.3267E-02   5.1203E-03  0.0222
   3.3267E-02   3.4076E-02   5.0358E-03  0.0222
   3.4076E-02   3.4905E-02   4.8703E-03  0.0223
   3.4905E-02   3.5755E-02   4.9218E-03  0.0219
   3.5755E-02   3.6625E-02   4.8325E-03  0.0218
   3.6625E-02   3.7516E-02   4.9287E-03  0.0213
   3.7516E-02   3.8428E-02   4.8138E-03  0.0213
   3.8428E-02   3.9363E-02   4.7701E-03  0.0212
   3.9363E-02   4.0321E-02   4.8176E-03  0.0208
   4.0321E-02   4.1302E-02   4.8683E-03  0.0205
   4.1302E-02   4.2307E-02   4.7586E-03  0.0205
   4.2307E-02   4.3337E-02   4.8807E-03  0.0200
   4.3337E-02   4.4391E-02   4.9127E-03  0.0196
   4.4391E-02   4.5471E-02   4.8256E-03  0.0196
   4.5471E-02   4.6577E-02   4.8285E-03  0.0193
   4.6577E-02   4.7711E-02   4.9627E-03  0.0189
   4.7711E-02   4.8871E-02   4.7604E-03  0.0190
   4.8871E-02   5.0061E-02   4.8239E-03  0.0187
   5.0061E-02   5.1279E-02   4.8686E-03  0.0184
   5.1279E-02   5.2526E-02   4.8684E-03  0.0182
   5.2526E-02   5.3804E-02   4.7167E-03  0.0182
   5.3804E-02   5.5113E-02   4.7514E-03  0.0179
   5.5113E-02   5.6454E-02   4.8145E-03  0.0176
   5.6454E-02   5.7828E-02   4.7220E-03  0.0176
   5.7828E-02   5.9235E-02   4.6709E-03  0.0175
   5.9235E-02   6.0676E-02   4.6502E-03  0.0173
   6.0676E-02   6.2152E-02   4.7484E-03  0.0169
   6.2152E-02   6.3665E-02   4.6792E-03  0.0168
   6.3665E-02   6.5214E-02   4.6882E-03  0.0166
   6.5214E-02   6.6800E-02   4.6512E-03  0.0165
   6.6800E-02   6.8426E-02   4.6601E-03  0.0162
   6.8426E-02   7.0090E-02   4.5974E-03  0.0162
   7.0090E-02   7.1796E-02   4.4999E-03  0.0161
   7.1796E-02   7.3543E-02   4.4148E-03  0.0161
   7.3543E-02   7.5332E-02   4.4150E-03  0.0159
   7.5332E-02   7.7165E-02   4.6364E-03  0.0153
   7.7165E-02   7.9042E-02   4.5092E-03  0.0154
   7.9042E-02   8.0965E-02   4.4292E-03  0.0153
   8.0965E-02   8.2935E-02   4.4397E-03  0.0151
   8.2935E-02   8.4953E-02   4.4839E-03  0.0149
   8.4953E-02   8.7020E-02   4.4161E-03  0.0148
   8.7020E-02   8.9138E-02   4.4019E-03  0.0146
   8.9138E-02   9.1306E-02   4.3333E-03  0.0146
   9.1306E-02   9.3528E-02   4.4617E-03  0.0142
   9.3528E-02   9.5804E-02   4.3153E-03  0.0143
   9.5804E-02   9.8134E-02   4.4441E-03  0.0139
   9.8134E-02   1.0052E-01   4.3058E-03  0.0140
   1.0052E-01   1.0297E-01   4.2833E-03  0.0138
   1.0297E-01   1.0547E-01   4.2582E-03  0.0137
   1.0547E-01   1.0804E-01   4.1890E-03  0.0136
   1.0804E-01   1.1067E-01   4.2363E-03  0.0134
   1.1067E-01   1.1336E-01   4.1610E-03  0.0134
   1.1336E-01   1.1612E-01   4.1071E-03  0.0133
   1.1612E-01   1.1894E-01   4.1858E-03  0.0130
   1.1894E-01   1.2184E-01   4.1845E-03  0.0129
   1.2184E-01   1.2480E-01   4.0494E-03  0.0129
   1.2480E-01   1.2784E-01   3.9624E-03  0.0129
   1.2784E-01   1.3095E-01   4.0843E-03  0.0125
   1.3095E-01   1.3414E-01   4.0808E-03  0.0124
   1.3414E-01   1.3740E-01   3.9998E-03  0.0124
   1.3740E-01   1.4074E-01   4.0275E-03  0.0122
   1.4074E-01   1.4417E-01   3.9610E-03  0.0121
   1.4417E-01   1.4767E-01   3.9981E-03  0.0119
   1.4767E-01   1.5127E-01   3.8619E-03  0.0120
   1.5127E-01   1.5495E-01   3.8503E-03  0.0119
   1.5495E-01   1.5872E-01   3.8568E-03  0.0117
   1.5872E-01   1.6258E-01   3.8071E-03  0.0117
   1.6258E-01   1.6654E-01   3.8408E-03  0.0115
   1.6654E-01   1.7059E-01   3.7676E-03  0.0114
   1.7059E-01   1.7474E-01   3.7875E-03  0.0113
   1.7474E-01   1.7899E-01   3.8151E-03  0.0111
   1.7899E-01   1.8334E-01   3.7557E-03  0.0111
   1.8334E-01   1.8781E-01   3.6495E-03  0.0111
   1.8781E-01   1.9237E-01   3.6481E-03  0.0110
   1.9237E-01   1.9706E-01   3.6341E-03  0.0108
   1.9706E-01   2.0185E-01   3.5299E-03  0.0109
   2.0185E-01   2.0676E-01   3.5413E-03  0.0107
   2.0676E-01   2.1179E-01   3.5423E-03  0.0106
   2.1179E-01   2.1694E-01   3.4779E-03  0.0106
   2.1694E-01   2.2222E-01   3.4836E-03  0.0104
   2.2222E-01   2.2763E-01   3.4388E-03  0.0104
   2.2763E-01   2.3317E-01   3.3620E-03  0.0104
   2.3317E-01   2.3884E-01   3.3773E-03  0.0102
   2.3884E-01   2.4465E-01   3.4024E-03  0.0101
   2.4465E-01   2.5061E-01   3.3068E-03  0.0101
   2.5061E-01   2.5670E-01   3.3270E-03  0.0099
   2.5670E-01   2.6295E-01   3.2550E-03  0.0099
   2.6295E-01   2.6935E-01   3.2089E-03  0.0099
   2.6935E-01   2.7590E-01   3.1577E-03  0.0098
   2.7590E-01   2.8261E-01   3.0899E-03  0.0098
   2.8261E-01   2.8949E-01   3.0966E-03  0.0097
   2.8949E-01   2.9653E-01   3.0121E-03  0.0097
   2.9653E-01   3.0375E-01   3.0016E-03  0.0096
   3.0375E-01   3.1114E-01   2.9583E-03  0.0096
   3.1114E-01   3.1871E-01   2.9579E-03  0.0095
   3.1871E-01   3.2646E-01   2.9230E-03  0.0094
   3.2646E-01   3.3441E-01   2.9125E-03  0.0093
   3.3441E-01   3.4254E-01   2.7858E-03  0.0094
   3.4254E-01   3.5088E-01   2.7830E-03  0.0093
   3.5088E-01   3.5941E-01   2.8042E-03  0.0091
   3.5941E-01   3.6816E-01   2.6960E-03  0.0092
   3.6816E-01   3.7712E-01   2.6989E-03  0.0091
   3.7712E-01   3.8629E-01   2.6325E-03  0.0091
   3.8629E-01   3.9569E-01   2.5912E-03  0.0091
   3.9569E-01   4.0532E-01   2.5510E-03  0.0090
   4.0532E-01   4.1518E-01   2.5259E-03  0.0090
   4.1518E-01   4.2528E-01   2.4712E-03  0.0090
   4.2528E-01   4.3563E-01   2.4466E-03  0.0089
   4.3563E-01   4.4623E-01   2.3432E-03  0.0090
   4.4623E-01   4.5708E-01   2.3656E-03  0.0088
   4.5708E-01   4.6821E-01   2.2600E-03  0.0089
   4.6821E-01   4.7960E-01   2.2936E-03  0.0088
   4.7960E-01   4.9127E-01   2.2093E-03  0.0088
   4.9127E-01   5.0322E-01   2.2130E-03  0.0087
   5.0322E-01   5.1546E-01   2.1505E-03  0.0087
   5.1546E-01   5.2800E-01   2.1059E-03  0.0087
   5.2800E-01   5.4085E-01   2.0380E-03  0.0087
   5.4085E-01   5.5401E-01   2.0074E-03  0.0087
   5.5401E-01   5.6749E-01   1.9741E-03  0.0087
   5.6749E-01   5.8130E-01   1.9088E-03  0.0087
   5.8130E-01   5.9544E-01   1.8800E-03  0.0087
   5.9544E-01   6.0993E-01   1.8232E-03  0.0087
   6.0993E-01   6.2477E-01   1.8140E-03  0.0086
   6.2477E-01   6.3997E-01   1.7441E-03  0.0087
   6.3997E-01   6.5554E-01   1.6519E-03  0.0088
   6.5554E-01   6.7149E-01   1.6512E-03  0.0087
   6.7149E-01   6.8783E-01   1.5949E-03  0.0088
   6.8783E-01   7.0456E-01   1.5182E-03  0.0089
   7.0456E-01   7.2171E-01   1.5174E-03  0.0088
   7.2171E-01   7.3927E-01   1.4482E-03  0.0089
   7.3927E-01   7.5725E-01   1.4045E-03  0.0089
   7.5725E-01   7.7568E-01   1.3545E-03  0.0090
   7.7568E-01   7.9455E-01   1.3219E-03  0.0090
   7.9455E-01   8.1388E-01   1.2843E-03  0.0090
   8.1388E-01   8.3368E-01   1.2396E-03  0.0090
   8.3368E-01   8.5397E-01   1.2010E-03  0.0091
   8.5397E-01   8.7475E-01   1.1459E-03  0.0092
   8.7475E-01   8.9603E-01   1.1042E-03  0.0092
   8.9603E-01   9.1783E-01   1.0465E-03  0.0094
   9.1783E-01   9.4016E-01   1.0095E-03  0.0094
   9.4016E-01   9.6304E-01   9.7128E-04  0.0095
   9.6304E-01   9.8647E-01   9.2628E-04  0.0096
   9.8647E-01   1.0105E+00   8.8561E-04  0.0097
   1.0105E+00   1.0351E+00   8.6425E-04  0.0097
   1.0351E+00   1.0602E+00   8.9065E-04  0.0094
   1.0602E+00   1.0860E+00   8.8109E-04  0.0094
   1.0860E+00   1.1125E+00   8.9789E-04  0.0092
   1.1125E+00   1.1395E+00   8.9784E-04  0.0091
   1.1395E+00   1.1673E+00   9.1461E-04  0.0089
   1.1673E+00   1.1957E+00   9.3422E-04  0.0087
   1.1957E+00   1.2247E+00   9.5888E-04  0.0085
   1.2247E+00   1.2545E+00   9.5795E-04  0.0084
   1.2545E+00   1.2851E+00   9.4332E-04  0.0083
   1.2851E+00   1.3163E+00   9.5271E-04  0.0082
   1.3163E+00   1.3484E+00   9.6954E-04  0.0080
   1.3484E+00   1.3812E+00   9.7413E-04  0.0079
   1.3812E+00   1.4148E+00   9.8325E-04  0.0078
   1.4148E+00   1.4492E+00   9.7523E-04  0.0077
   1.4492E+00   1.4845E+00   9.4725E-04  0.0077
   1.4845E+00   1.5206E+00   9.4991E-04  0.0076
   1.5206E+00   1.5576E+00   9.4076E-04  0.0076
   1.5576E+00   1.5955E+00   9.4150E-04  0.0075
   1.5955E+00   1.6343E+00   9.4212E-04  0.0074
   1.6343E+00   1.6741E+00   9.4089E-04  0.0073
   1.6741E+00   1.7148E+00   9.5122E-04  0.0072
   1.7148E+00   1.7565E+00   9.3207E-04  0.0072
   1.7565E+00   1.7992E+00   9.1260E-04  0.0072
   1.7992E+00   1.8430E+00   8.8887E-04  0.0072
   1.8430E+00   1.8879E+00   8.7251E-04  0.0072
   1.8879E+00   1.9338E+00   8.7357E-04  0.0071
   1.9338E+00   1.9808E+00   8.6609E-04  0.0070
   1.9808E+00   2.0290E+00   8.6083E-04  0.0069
   2.0290E+00   2.0784E+00   8.3149E-04  0.0070
   2.0784E+00   2.1290E+00   8.1781E-04  0.0070
   2.1290E+00   2.1808E+00   7.9707E-04  0.0070
   2.1808E+00   2.2338E+00   7.7574E-04  0.0070
   2.2338E+00   2.2882E+00   7.5660E-04  0.0070
   2.2882E+00   2.3439E+00   7.4933E-04  0.0069
   2.3439E+00   2.4009E+00   7.4058E-04  0.0069
   2.4009E+00   2.4593E+00   7.2503E-04  0.0069
   2.4593E+00   2.5191E+00   6.8800E-04  0.0070
   2.5191E+00   2.5804E+00   6.7349E-04  0.0070
   2.5804E+00   2.6432E+00   6.4825E-04  0.0070
   2.6432E+00   2.7075E+00   6.2847E-04  0.0070
   2.7075E+00   2.7734E+00   6.0960E-04  0.0071
   2.7734E+00   2.8409E+00   6.1047E-04  0.0070
   2.8409E+00   2.9100E+00   5.8333E-04  0.0070
   2.9100E+00   2.9808E+00   5.7782E-04  0.0070
   2.9808E+00   3.0533E+00   5.5269E-04  0.0071
   3.0533E+00   3.1276E+00   5.3003E-04  0.0071
   3.1276E+00   3.2037E+00   5.1350E-04  0.0072
   3.2037E+00   3.2817E+00   4.8841E-04  0.0073
   3.2817E+00   3.3615E+00   4.8044E-04  0.0072
   3.3615E+00   3.4433E+00   4.6085E-04  0.0073
   3.4433E+00   3.5271E+00   4.4895E-04  0.0073
   3.5271E+00   3.6129E+00   4.3316E-04  0.0073
   3.6129E+00   3.7008E+00   4.1356E-04  0.0074
   3.7008E+00   3.7908E+00   4.0380E-04  0.0074
   3.7908E+00   3.8831E+00   3.8740E-04  0.0075
   3.8831E+00   3.9776E+00   3.7721E-04  0.0075
   3.9776E+00   4.0743E+00   3.5847E-04  0.0076
   4.0743E+00   4.1735E+00   3.4405E-04  0.0077
   4.1735E+00   4.2750E+00   3.3260E-04  0.0077
   4.2750E+00   4.3790E+00   3.1594E-04  0.0078
   4.3790E+00   4.4856E+00   3.0387E-04  0.0079
   4.4856E+00   4.5947E+00   2.9284E-04  0.0079
   4.5947E+00   4.7065E+00   2.8708E-04  0.0079
   4.7065E+00   4.8210E+00   2.7496E-04  0.0080
   4.8210E+00   4.9383E+00   2.6546E-04  0.0080
   4.9383E+00   5.0585E+00   2.5341E-04  0.0081
   5.0585E+00   5.1815E+00   2.4437E-04  0.0082
   5.1815E+00   5.3076E+00   2.3587E-04  0.0082
   5.3076E+00   5.4368E+00   2.2526E-04  0.0083
   5.4368E+00   5.5690E+00   2.1373E-04  0.0084
   5.5690E+00   5.7045E+00   2.0871E-04  0.0084
   5.7045E+00   5.8433E+00   2.0096E-04  0.0085
   5.8433E+00   5.9855E+00   1.9839E-04  0.0084
   5.9855E+00   6.1311E+00   1.9128E-04  0.0085
   6.1311E+00   6.2803E+00   1.8321E-04  0.0086
   6.2803E+00   6.4331E+00   1.7796E-04  0.0086
   6.4331E+00   6.5896E+00   1.6889E-04  0.0087
   6.5896E+00   6.7500E+00   1.6657E-04  0.0087
   6.7500E+00   6.9142E+00   1.6049E-04  0.0087
   6.9142E+00   7.0824E+00   1.5642E-04  0.0087
   7.0824E+00   7.2548E+00   1.5496E-04  0.0087
   7.2548E+00   7.4313E+00   1.4791E-04  0.0088
   7.4313E+00   7.6121E+00   1.4466E-04  0.0087
   7.6121E+00   7.7973E+00   1.4222E-04  0.0087
   7.7973E+00   7.9870E+00   1.3808E-04  0.0087
   7.9870E+00   8.1813E+00   1.3667E-04  0.0087
   8.1813E+00   8.3804E+00   1.3007E-04  0.0088
   8.3804E+00   8.5843E+00   1.3140E-04  0.0086
   8.5843E+00   8.7931E+00   1.2873E-04  0.0086
   8.7931E+00   9.0071E+00   1.2478E-04  0.0087
   9.0071E+00   9.2262E+00   1.2441E-04  0.0086
   9.2262E+00   9.4507E+00   1.2302E-04  0.0085
   9.4507E+00   9.6807E+00   1.1966E-04  0.0085
   9.6807E+00   9.9162E+00   1.1777E-04  0.0085
   9.9162E+00   1.0157E+01   1.1697E-04  0.0084
   1.0157E+01   1.0405E+01   1.1516E-04  0.0084
   1.0405E+01   1.0658E+01   1.1299E-04  0.0084
   1.0658E+01   1.0917E+01   1.1190E-04  0.0083
   1.0917E+01   1.1183E+01   1.1081E-04  0.0082
   1.1183E+01   1.1455E+01   1.0652E-04  0.0083
   1.1455E+01   1.1733E+01   1.0819E-04  0.0081
   1.1733E+01   1.2019E+01   1.0518E-04  0.0082
   1.2019E+01   1.2311E+01   1.0554E-04  0.0080
   1.2311E+01   1.2611E+01   1.0247E-04  0.0081
   1.2611E+01   1.2918E+01   9.8936E-05  0.0081
   1.2918E+01   1.3232E+01   9.9160E-05  0.0080
   1.3232E+01   1.3554E+01   9.8013E-05  0.0080
   1.3554E+01   1.3884E+01   9.5736E-05  0.0080
   1.3884E+01   1.4222E+01   9.4481E-05  0.0079
   1.4222E+01   1.4568E+01   9.1852E-05  0.0079
   1.4568E+01   1.4922E+01   9.0607E-05  0.0079
   1.4922E+01   1.5285E+01   9.0141E-05  0.0078
   1.5285E+01   1.5657E+01   8.7101E-05  0.0079
   1.5657E+01   1.6038E+01   8.4584E-05  0.0079
   1.6038E+01   1.6428E+01   8.3776E-05  0.0078
   1.6428E+01   1.6828E+01   8.0098E-05  0.0079
   1.6828E+01   1.7237E+01   7.8488E-05  0.0079
   1.7237E+01   1.7657E+01   7.7165E-05  0.0079
   1.7657E+01   1.8086E+01   7.4518E-05  0.0079
   1.8086E+01   1.8526E+01   7.2030E-05  0.0079
   1.8526E+01   1.8977E+01   6.9733E-05  0.0080
   1.8977E+01   1.9439E+01   6.8092E-05  0.0080
   1.9439E+01   1.9912E+01   6.6504E-05  0.0080
   1.9912E+01   2.0396E+01   5.7549E-05  0.0085
   2.0396E+01   2.0893E+01   5.5781E-05  0.0085
   2.0893E+01   2.1401E+01   5.3681E-05  0.0086
   2.1401E+01   2.1922E+01   5.2087E-05  0.0086
   2.1922E+01   2.2455E+01   5.0633E-05  0.0086
   2.2455E+01   2.3001E+01   4.7629E-05  0.0088
   2.3001E+01   2.3561E+01   4.6208E-05  0.0088
   2.3561E+01   2.4134E+01   4.5079E-05  0.0088
   2.4134E+01   2.4721E+01   4.2462E-05  0.0090
   2.4721E+01   2.5323E+01   4.0576E-05  0.0091
   2.5323E+01   2.5939E+01   3.9093E-05  0.0091
   2.5939E+01   2.6570E+01   3.7071E-05  0.0092
   2.6570E+01   2.7217E+01   3.5711E-05  0.0093
   2.7217E+01   2.7879E+01   3.4521E-05  0.0094
   2.7879E+01   2.8557E+01   3.2649E-05  0.0095
   2.8557E+01   2.9252E+01   3.1418E-05  0.0096
   2.9252E+01   2.9964E+01   2.9450E-05  0.0098
   2.9964E+01   3.0693E+01   2.8498E-05  0.0098
   3.0693E+01   3.1440E+01   2.6434E-05  0.0101
   3.1440E+01   3.2205E+01   2.5053E-05  0.0102
   3.2205E+01   3.2988E+01   2.3699E-05  0.0104
   3.2988E+01   3.3791E+01   2.1726E-05  0.0107
   3.3791E+01   3.4613E+01   2.0444E-05  0.0109
   3.4613E+01   3.5455E+01   1.9153E-05  0.0111
   3.5455E+01   3.6318E+01   1.8084E-05  0.0113
   3.6318E+01   3.7201E+01   1.7023E-05  0.0115
   3.7201E+01   3.8106E+01   1.5529E-05  0.0119
   3.8106E+01   3.9034E+01   1.4476E-05  0.0122
   3.9034E+01   3.9983E+01   1.3069E-05  0.0127
   3.9983E+01   4.0956E+01   1.2454E-05  0.0128
   4.0956E+01   4.1953E+01   1.1073E-05  0.0135
   4.1953E+01   4.2973E+01   1.0347E-05  0.0138
   4.2973E+01   4.4019E+01   9.3690E-06  0.0143
   4.4019E+01   4.5090E+01   8.2707E-06  0.0150
   4.5090E+01   4.6187E+01   7.5419E-06  0.0155
   4.6187E+01   4.7311E+01   6.7558E-06  0.0162
   4.7311E+01   4.8462E+01   6.0898E-06  0.0169
   4.8462E+01   4.9641E+01   5.6195E-06  0.0174
   4.9641E+01   5.0849E+01   4.8501E-06  0.0185
   5.0849E+01   5.2086E+01   4.2289E-06  0.0196
   5.2086E+01   5.3353E+01   3.7308E-06  0.0206
   5.3353E+01   5.4651E+01   3.2724E-06  0.0217
   5.4651E+01   5.5981E+01   2.8111E-06  0.0231
   5.5981E+01   5.7343E+01   2.4125E-06  0.0247
   5.7343E+01   5.8738E+01   1.9725E-06  0.0270
   5.8738E+01   6.0168E+01   1.7577E-06  0.0282
   6.0168E+01   6.1632E+01   1.4591E-06  0.0306
   6.1632E+01   6.3131E+01   1.1497E-06  0.0341
   6.3131E+01   6.4667E+01   1.0117E-06  0.0359
   6.4667E+01   6.6240E+01   8.2115E-07  0.0393
   6.6240E+01   6.7852E+01   6.0434E-07  0.0453
   6.7852E+01   6.9503E+01   5.6575E-07  0.0463
   6.9503E+01   7.1194E+01   3.8201E-07  0.0556
   7.1194E+01   7.2926E+01   2.8634E-07  0.0635
   7.2926E+01   7.4701E+01   2.5136E-07  0.0670
   7.4701E+01   7.6518E+01   1.6176E-07  0.0825
   7.6518E+01   7.8380E+01   1.2891E-07  0.0913
   7.8380E+01   8.0287E+01   7.3412E-08  0.1195
   8.0287E+01   8.2240E+01   5.0168E-08  0.1429
   8.2240E+01   8.4241E+01   3.6982E-08  0.1644
   8.4241E+01   8.6291E+01   2.1467E-08  0.2132
   8.6291E+01   8.8391E+01   1.6194E-08  0.2425
   8.8391E+01   9.0541E+01   6.5098E-09  0.3780
   9.0541E+01   9.2744E+01   9.0788E-10  1.0000
   9.2744E+01   9.5001E+01   8.8631E-10  1.0000
   9.5001E+01   9.7312E+01   0.0000E+00  0.0000
   9.7312E+01   9.9680E+01   0.0000E+00  0.0000
   9.9680E+01   1.0211E+02   0.0000E+00  0.0000
   1.0211E+02   1.0459E+02   0.0000E+00  0.0000
   1.0459E+02   1.0713E+02   0.0000E+00  0.0000
   1.0713E+02   1.0974E+02   0.0000E+00  0.0000
   1.0974E+02   1.1241E+02   0.0000E+00  0.0000
   1.1241E+02   1.1515E+02   0.0000E+00  0.0000
   1.1515E+02   1.1795E+02   0.0000E+00  0.0000
   1.1795E+02   1.2082E+02   0.0000E+00  0.0000
   1.2082E+02   1.2376E+02   0.0000E+00  0.0000
   1.2376E+02   1.2677E+02   0.0000E+00  0.0000
   1.2677E+02   1.2985E+02   0.0000E+00  0.0000
   1.2985E+02   1.3301E+02   0.0000E+00  0.0000
   1.3301E+02   1.3625E+02   0.0000E+00  0.0000
   1.3625E+02   1.3956E+02   0.0000E+00  0.0000
   1.3956E+02   1.4296E+02   0.0000E+00  0.0000
   1.4296E+02   1.4644E+02   0.0000E+00  0.0000
   1.4644E+02   1.5000E+02   0.0000E+00  0.0000

#   sum over                 4.7896E-05
'no. =    1   reg = 111 - 211'
msuc: {\huge [t-cross] in region mesh}
msdr: {\it plotted by \ANGEL \version}
msdl: {\it calculated by \PHITS  3.26}
wt: s(0.7)
\vspace{-3}
  region surface crossing
  area  &=&   1.0000E+00 [cm^2]
e:
 
# Information for Restart Calculation
# This calculation was newly started
# istdev =  2 # 1:Batch variance, 2:History variance
# resc2  = 5.00000000000000000E+08 # Total source weight or Total source weight / maxcas
# resc3  = 5.00000000000000000E+08 # Total history number or Total batch number
# maxcas =   500000000 # History / Batch, only used for istdev=1
# bitrseed = 1101101111010011011000101101110001100110110010110001010100010001 # bit data of rseed
