[ T-Cross ]
    title = [t-cross] in region mesh
     mesh =  reg            # mesh type is region-wise
      reg =    1            # number of crossing regions
      non     r-from    r-to       area
      1       112       212        1.000000    
   e-type =    3            # e-mesh is log given by emin, emax and ne
     emin =  1.0000000E-02  # minimum value of e-mesh points
     emax =   150.0000      # maximum value of e-mesh points
#    edel =  2.4039514E-02  # mesh width of e-mesh points
       ne =    400          # number of e-mesh points
#    data = ( e(i), i = 1, ne + 1 )
#           1.00000E-02  1.02433E-02  1.04925E-02  1.07478E-02  1.10093E-02
#           1.12772E-02  1.15516E-02  1.18326E-02  1.21205E-02  1.24154E-02
#           1.27175E-02  1.30269E-02  1.33439E-02  1.36686E-02  1.40011E-02
#           1.43418E-02  1.46907E-02  1.50482E-02  1.54143E-02  1.57894E-02
#           1.61735E-02  1.65670E-02  1.69701E-02  1.73830E-02  1.78060E-02
#           1.82392E-02  1.86830E-02  1.91375E-02  1.96032E-02  2.00801E-02
#           2.05687E-02  2.10692E-02  2.15818E-02  2.21069E-02  2.26448E-02
#           2.31957E-02  2.37601E-02  2.43382E-02  2.49304E-02  2.55369E-02
#           2.61583E-02  2.67947E-02  2.74467E-02  2.81145E-02  2.87985E-02
#           2.94992E-02  3.02169E-02  3.09521E-02  3.17052E-02  3.24766E-02
#           3.32668E-02  3.40762E-02  3.49053E-02  3.57546E-02  3.66246E-02
#           3.75157E-02  3.84284E-02  3.93634E-02  4.03212E-02  4.13022E-02
#           4.23071E-02  4.33365E-02  4.43909E-02  4.54710E-02  4.65773E-02
#           4.77106E-02  4.88714E-02  5.00605E-02  5.12785E-02  5.25262E-02
#           5.38042E-02  5.51133E-02  5.64542E-02  5.78278E-02  5.92348E-02
#           6.06760E-02  6.21523E-02  6.36645E-02  6.52135E-02  6.68002E-02
#           6.84255E-02  7.00904E-02  7.17957E-02  7.35426E-02  7.53319E-02
#           7.71648E-02  7.90423E-02  8.09655E-02  8.29354E-02  8.49533E-02
#           8.70203E-02  8.91376E-02  9.13064E-02  9.35279E-02  9.58035E-02
#           9.81345E-02  1.00522E-01  1.02968E-01  1.05473E-01  1.08040E-01
#           1.10668E-01  1.13361E-01  1.16119E-01  1.18944E-01  1.21838E-01
#           1.24803E-01  1.27839E-01  1.30950E-01  1.34136E-01  1.37399E-01
#           1.40742E-01  1.44167E-01  1.47675E-01  1.51268E-01  1.54948E-01
#           1.58718E-01  1.62580E-01  1.66535E-01  1.70587E-01  1.74738E-01
#           1.78989E-01  1.83344E-01  1.87805E-01  1.92375E-01  1.97055E-01
#           2.01850E-01  2.06761E-01  2.11792E-01  2.16945E-01  2.22223E-01
#           2.27630E-01  2.33169E-01  2.38842E-01  2.44653E-01  2.50605E-01
#           2.56703E-01  2.62949E-01  2.69346E-01  2.75900E-01  2.82613E-01
#           2.89489E-01  2.96532E-01  3.03747E-01  3.11138E-01  3.18708E-01
#           3.26462E-01  3.34405E-01  3.42542E-01  3.50876E-01  3.59413E-01
#           3.68158E-01  3.77116E-01  3.86291E-01  3.95690E-01  4.05317E-01
#           4.15179E-01  4.25281E-01  4.35628E-01  4.46227E-01  4.57084E-01
#           4.68205E-01  4.79597E-01  4.91266E-01  5.03219E-01  5.15463E-01
#           5.28005E-01  5.40851E-01  5.54011E-01  5.67490E-01  5.81298E-01
#           5.95441E-01  6.09929E-01  6.24769E-01  6.39970E-01  6.55541E-01
#           6.71491E-01  6.87828E-01  7.04564E-01  7.21706E-01  7.39266E-01
#           7.57253E-01  7.75678E-01  7.94551E-01  8.13883E-01  8.33685E-01
#           8.53969E-01  8.74747E-01  8.96030E-01  9.17831E-01  9.40163E-01
#           9.63038E-01  9.86469E-01  1.01047E+00  1.03506E+00  1.06024E+00
#           1.08604E+00  1.11246E+00  1.13953E+00  1.16725E+00  1.19565E+00
#           1.22474E+00  1.25454E+00  1.28507E+00  1.31633E+00  1.34836E+00
#           1.38117E+00  1.41477E+00  1.44920E+00  1.48446E+00  1.52057E+00
#           1.55757E+00  1.59547E+00  1.63429E+00  1.67405E+00  1.71478E+00
#           1.75650E+00  1.79924E+00  1.84302E+00  1.88786E+00  1.93379E+00
#           1.98084E+00  2.02904E+00  2.07841E+00  2.12898E+00  2.18078E+00
#           2.23384E+00  2.28819E+00  2.34386E+00  2.40089E+00  2.45930E+00
#           2.51914E+00  2.58043E+00  2.64322E+00  2.70753E+00  2.77341E+00
#           2.84088E+00  2.91001E+00  2.98081E+00  3.05333E+00  3.12762E+00
#           3.20372E+00  3.28167E+00  3.36152E+00  3.44330E+00  3.52708E+00
#           3.61290E+00  3.70080E+00  3.79085E+00  3.88308E+00  3.97756E+00
#           4.07434E+00  4.17347E+00  4.27501E+00  4.37903E+00  4.48557E+00
#           4.59471E+00  4.70650E+00  4.82102E+00  4.93832E+00  5.05847E+00
#           5.18155E+00  5.30762E+00  5.43676E+00  5.56904E+00  5.70453E+00
#           5.84333E+00  5.98550E+00  6.13114E+00  6.28031E+00  6.43312E+00
#           6.58964E+00  6.74997E+00  6.91420E+00  7.08243E+00  7.25475E+00
#           7.43126E+00  7.61207E+00  7.79728E+00  7.98700E+00  8.18133E+00
#           8.38038E+00  8.58428E+00  8.79315E+00  9.00709E+00  9.22624E+00
#           9.45072E+00  9.68067E+00  9.91620E+00  1.01575E+01  1.04046E+01
#           1.06578E+01  1.09171E+01  1.11827E+01  1.14548E+01  1.17335E+01
#           1.20190E+01  1.23114E+01  1.26109E+01  1.29178E+01  1.32321E+01
#           1.35540E+01  1.38838E+01  1.42216E+01  1.45676E+01  1.49221E+01
#           1.52851E+01  1.56570E+01  1.60380E+01  1.64282E+01  1.68279E+01
#           1.72374E+01  1.76568E+01  1.80864E+01  1.85264E+01  1.89772E+01
#           1.94389E+01  1.99119E+01  2.03963E+01  2.08926E+01  2.14009E+01
#           2.19216E+01  2.24550E+01  2.30014E+01  2.35610E+01  2.41343E+01
#           2.47215E+01  2.53230E+01  2.59391E+01  2.65702E+01  2.72167E+01
#           2.78789E+01  2.85572E+01  2.92520E+01  2.99637E+01  3.06928E+01
#           3.14396E+01  3.22045E+01  3.29881E+01  3.37907E+01  3.46128E+01
#           3.54550E+01  3.63177E+01  3.72013E+01  3.81064E+01  3.90336E+01
#           3.99833E+01  4.09561E+01  4.19526E+01  4.29734E+01  4.40189E+01
#           4.50900E+01  4.61870E+01  4.73108E+01  4.84619E+01  4.96410E+01
#           5.08488E+01  5.20860E+01  5.33533E+01  5.46514E+01  5.59812E+01
#           5.73432E+01  5.87384E+01  6.01676E+01  6.16315E+01  6.31311E+01
#           6.46671E+01  6.62405E+01  6.78522E+01  6.95031E+01  7.11941E+01
#           7.29263E+01  7.47007E+01  7.65182E+01  7.83800E+01  8.02870E+01
#           8.22405E+01  8.42414E+01  8.62911E+01  8.83906E+01  9.05412E+01
#           9.27442E+01  9.50007E+01  9.73122E+01  9.96799E+01  1.02105E+02
#           1.04589E+02  1.07134E+02  1.09741E+02  1.12411E+02  1.15146E+02
#           1.17948E+02  1.20817E+02  1.23757E+02  1.26768E+02  1.29852E+02
#           1.33012E+02  1.36248E+02  1.39563E+02  1.42959E+02  1.46437E+02
#           1.50000E+02
     unit =    2            # unit is [1/cm^2/(MeV/n)/source]
     axis =  eng            # axis of output
     file = detector-13.out  # file name of output for the above axis
   output = f-curr          # surface crossing forward current spectrum
     part =  neutron  
# kf/name :  2112     
#    used :        main (  %)        temp (  %)       total (  %)
#  memory :         414 (  0)           0 (  0)         414 (  0)

#------------------------------------------------------------------------------
#newpage:
#   no. =    1   reg = 112 - 212

x: Energy [MeV/n]
y:  F-Curr [1/cm^2/(MeV/n)/source]         
p: xlog ylog afac(0.8) form(0.9)
h: n            x            y(neutron ),hh0l   n 
#  e-lower      e-upper      neutron     r.err 
   1.0000E-02   1.0243E-02   2.7948E-04  0.0990
   1.0243E-02   1.0493E-02   2.3539E-04  0.1066
   1.0493E-02   1.0748E-02   2.7942E-04  0.0967
   1.0748E-02   1.1009E-02   2.5749E-04  0.0995
   1.1009E-02   1.1277E-02   2.6630E-04  0.0967
   1.1277E-02   1.1552E-02   2.2596E-04  0.1037
   1.1552E-02   1.1833E-02   2.6329E-04  0.0949
   1.1833E-02   1.2121E-02   2.9409E-04  0.0887
   1.2121E-02   1.2415E-02   2.5997E-04  0.0933
   1.2415E-02   1.2718E-02   2.5159E-04  0.0937
   1.2718E-02   1.3027E-02   2.7578E-04  0.0884
   1.3027E-02   1.3344E-02   2.6712E-04  0.0887
   1.3344E-02   1.3669E-02   2.4435E-04  0.0917
   1.3669E-02   1.4001E-02   2.5459E-04  0.0887
   1.4001E-02   1.4342E-02   2.6615E-04  0.0857
   1.4342E-02   1.4691E-02   2.1971E-04  0.0933
   1.4691E-02   1.5048E-02   2.4993E-04  0.0864
   1.5048E-02   1.5414E-02   2.6766E-04  0.0825
   1.5414E-02   1.5789E-02   2.4886E-04  0.0845
   1.5789E-02   1.6174E-02   2.6898E-04  0.0803
   1.6174E-02   1.6567E-02   2.7106E-04  0.0791
   1.6567E-02   1.6970E-02   2.9109E-04  0.0754
   1.6970E-02   1.7383E-02   2.5026E-04  0.0803
   1.7383E-02   1.7806E-02   2.7900E-04  0.0752
   1.7806E-02   1.8239E-02   2.5390E-04  0.0778
   1.8239E-02   1.8683E-02   2.8092E-04  0.0731
   1.8683E-02   1.9138E-02   2.7278E-04  0.0733
   1.9138E-02   1.9603E-02   2.4483E-04  0.0765
   1.9603E-02   2.0080E-02   2.5159E-04  0.0745
   2.0080E-02   2.0569E-02   2.8792E-04  0.0688
   2.0569E-02   2.1069E-02   2.7309E-04  0.0698
   2.1069E-02   2.1582E-02   2.7700E-04  0.0685
   2.1582E-02   2.2107E-02   2.9962E-04  0.0651
   2.2107E-02   2.2645E-02   2.6524E-04  0.0684
   2.2645E-02   2.3196E-02   2.8556E-04  0.0651
   2.3196E-02   2.3760E-02   2.5751E-04  0.0677
   2.3760E-02   2.4338E-02   2.5716E-04  0.0670
   2.4338E-02   2.4930E-02   2.8145E-04  0.0632
   2.4930E-02   2.5537E-02   2.8136E-04  0.0625
   2.5537E-02   2.6158E-02   3.0365E-04  0.0594
   2.6158E-02   2.6795E-02   2.8177E-04  0.0610
   2.6795E-02   2.7447E-02   2.8837E-04  0.0595
   2.7447E-02   2.8114E-02   3.1147E-04  0.0566
   2.8114E-02   2.8799E-02   2.9140E-04  0.0578
   2.8799E-02   2.9499E-02   2.9114E-04  0.0572
   2.9499E-02   3.0217E-02   3.0002E-04  0.0556
   3.0217E-02   3.0952E-02   2.9470E-04  0.0555
   3.0952E-02   3.1705E-02   3.2134E-04  0.0525
   3.1705E-02   3.2477E-02   2.8692E-04  0.0549
   3.2477E-02   3.3267E-02   2.8432E-04  0.0545
   3.3267E-02   3.4076E-02   2.9651E-04  0.0527
   3.4076E-02   3.4905E-02   3.4013E-04  0.0486
   3.4905E-02   3.5755E-02   2.9947E-04  0.0512
   3.5755E-02   3.6625E-02   2.9274E-04  0.0512
   3.6625E-02   3.7516E-02   2.7307E-04  0.0523
   3.7516E-02   3.8428E-02   2.7389E-04  0.0516
   3.8428E-02   3.9363E-02   2.9376E-04  0.0493
   3.9363E-02   4.0321E-02   3.0280E-04  0.0479
   4.0321E-02   4.1302E-02   3.0512E-04  0.0472
   4.1302E-02   4.2307E-02   2.9223E-04  0.0476
   4.2307E-02   4.3337E-02   2.9921E-04  0.0465
   4.3337E-02   4.4391E-02   2.9716E-04  0.0461
   4.4391E-02   4.5471E-02   2.9998E-04  0.0454
   4.5471E-02   4.6577E-02   3.1455E-04  0.0438
   4.6577E-02   4.7711E-02   3.1414E-04  0.0433
   4.7711E-02   4.8871E-02   2.9921E-04  0.0438
   4.8871E-02   5.0061E-02   3.0219E-04  0.0431
   5.0061E-02   5.1279E-02   3.0323E-04  0.0425
   5.1279E-02   5.2526E-02   3.0778E-04  0.0417
   5.2526E-02   5.3804E-02   3.0464E-04  0.0414
   5.3804E-02   5.5113E-02   3.2185E-04  0.0398
   5.5113E-02   5.6454E-02   3.2017E-04  0.0394
   5.6454E-02   5.7828E-02   3.0674E-04  0.0398
   5.7828E-02   5.9235E-02   2.9424E-04  0.0401
   5.9235E-02   6.0676E-02   3.1640E-04  0.0382
   6.0676E-02   6.2152E-02   3.2875E-04  0.0371
   6.2152E-02   6.3665E-02   3.2491E-04  0.0368
   6.3665E-02   6.5214E-02   3.3785E-04  0.0357
   6.5214E-02   6.6800E-02   3.1974E-04  0.0362
   6.6800E-02   6.8426E-02   3.1440E-04  0.0361
   6.8426E-02   7.0090E-02   3.2295E-04  0.0352
   7.0090E-02   7.1796E-02   3.1235E-04  0.0354
   7.1796E-02   7.3543E-02   3.2745E-04  0.0341
   7.3543E-02   7.5332E-02   3.1706E-04  0.0343
   7.5332E-02   7.7165E-02   3.2626E-04  0.0334
   7.7165E-02   7.9042E-02   3.1851E-04  0.0334
   7.9042E-02   8.0965E-02   3.2308E-04  0.0328
   8.0965E-02   8.2935E-02   3.2150E-04  0.0324
   8.2935E-02   8.4953E-02   3.2708E-04  0.0318
   8.4953E-02   8.7020E-02   3.2511E-04  0.0315
   8.7020E-02   8.9138E-02   3.2117E-04  0.0313
   8.9138E-02   9.1306E-02   3.3198E-04  0.0304
   9.1306E-02   9.3528E-02   3.3190E-04  0.0301
   9.3528E-02   9.5804E-02   3.2109E-04  0.0302
   9.5804E-02   9.8134E-02   3.4807E-04  0.0287
   9.8134E-02   1.0052E-01   3.4873E-04  0.0283
   1.0052E-01   1.0297E-01   3.3881E-04  0.0284
   1.0297E-01   1.0547E-01   3.4993E-04  0.0276
   1.0547E-01   1.0804E-01   3.3226E-04  0.0280
   1.0804E-01   1.1067E-01   3.4948E-04  0.0269
   1.1067E-01   1.1336E-01   3.4390E-04  0.0268
   1.1336E-01   1.1612E-01   3.3936E-04  0.0267
   1.1612E-01   1.1894E-01   3.3861E-04  0.0264
   1.1894E-01   1.2184E-01   3.5314E-04  0.0255
   1.2184E-01   1.2480E-01   3.7467E-04  0.0245
   1.2480E-01   1.2784E-01   3.4974E-04  0.0251
   1.2784E-01   1.3095E-01   3.6908E-04  0.0241
   1.3095E-01   1.3414E-01   3.6680E-04  0.0239
   1.3414E-01   1.3740E-01   3.6054E-04  0.0238
   1.3740E-01   1.4074E-01   3.5816E-04  0.0236
   1.4074E-01   1.4417E-01   3.4537E-04  0.0237
   1.4417E-01   1.4767E-01   3.5921E-04  0.0230
   1.4767E-01   1.5127E-01   3.5253E-04  0.0229
   1.5127E-01   1.5495E-01   3.6535E-04  0.0223
   1.5495E-01   1.5872E-01   3.7807E-04  0.0216
   1.5872E-01   1.6258E-01   3.6305E-04  0.0218
   1.6258E-01   1.6654E-01   3.6943E-04  0.0214
   1.6654E-01   1.7059E-01   3.5835E-04  0.0214
   1.7059E-01   1.7474E-01   3.7401E-04  0.0207
   1.7474E-01   1.7899E-01   3.7728E-04  0.0204
   1.7899E-01   1.8334E-01   3.6709E-04  0.0204
   1.8334E-01   1.8781E-01   3.7900E-04  0.0199
   1.8781E-01   1.9237E-01   3.7510E-04  0.0197
   1.9237E-01   1.9706E-01   3.9112E-04  0.0191
   1.9706E-01   2.0185E-01   3.9670E-04  0.0187
   2.0185E-01   2.0676E-01   3.8063E-04  0.0189
   2.0676E-01   2.1179E-01   3.8550E-04  0.0185
   2.1179E-01   2.1694E-01   3.9077E-04  0.0182
   2.1694E-01   2.2222E-01   3.8079E-04  0.0182
   2.2222E-01   2.2763E-01   3.8211E-04  0.0180
   2.2763E-01   2.3317E-01   3.8844E-04  0.0176
   2.3317E-01   2.3884E-01   3.8897E-04  0.0174
   2.3884E-01   2.4465E-01   3.8976E-04  0.0172
   2.4465E-01   2.5061E-01   3.8504E-04  0.0171
   2.5061E-01   2.5670E-01   3.8858E-04  0.0168
   2.5670E-01   2.6295E-01   3.9013E-04  0.0165
   2.6295E-01   2.6935E-01   3.9311E-04  0.0163
   2.6935E-01   2.7590E-01   3.9420E-04  0.0161
   2.7590E-01   2.8261E-01   4.0003E-04  0.0158
   2.8261E-01   2.8949E-01   4.0148E-04  0.0155
   2.8949E-01   2.9653E-01   3.9128E-04  0.0156
   2.9653E-01   3.0375E-01   3.9238E-04  0.0153
   3.0375E-01   3.1114E-01   3.9375E-04  0.0151
   3.1114E-01   3.1871E-01   4.0382E-04  0.0148
   3.1871E-01   3.2646E-01   3.9672E-04  0.0147
   3.2646E-01   3.3441E-01   4.0073E-04  0.0145
   3.3441E-01   3.4254E-01   3.9039E-04  0.0145
   3.4254E-01   3.5088E-01   4.0227E-04  0.0141
   3.5088E-01   3.5941E-01   4.0623E-04  0.0139
   3.5941E-01   3.6816E-01   4.0016E-04  0.0138
   3.6816E-01   3.7712E-01   4.0309E-04  0.0136
   3.7712E-01   3.8629E-01   4.0056E-04  0.0135
   3.8629E-01   3.9569E-01   4.0332E-04  0.0133
   3.9569E-01   4.0532E-01   4.0606E-04  0.0131
   4.0532E-01   4.1518E-01   3.9310E-04  0.0131
   4.1518E-01   4.2528E-01   4.0310E-04  0.0128
   4.2528E-01   4.3563E-01   4.0306E-04  0.0126
   4.3563E-01   4.4623E-01   3.9849E-04  0.0126
   4.4623E-01   4.5708E-01   3.8169E-04  0.0127
   4.5708E-01   4.6821E-01   3.9696E-04  0.0123
   4.6821E-01   4.7960E-01   3.9192E-04  0.0122
   4.7960E-01   4.9127E-01   3.9129E-04  0.0121
   4.9127E-01   5.0322E-01   3.9388E-04  0.0119
   5.0322E-01   5.1546E-01   3.8893E-04  0.0118
   5.1546E-01   5.2800E-01   3.9208E-04  0.0116
   5.2800E-01   5.4085E-01   3.8671E-04  0.0116
   5.4085E-01   5.5401E-01   3.8657E-04  0.0114
   5.5401E-01   5.6749E-01   3.7801E-04  0.0114
   5.6749E-01   5.8130E-01   3.6854E-04  0.0114
   5.8130E-01   5.9544E-01   3.6771E-04  0.0113
   5.9544E-01   6.0993E-01   3.6730E-04  0.0112
   6.0993E-01   6.2477E-01   3.6386E-04  0.0111
   6.2477E-01   6.3997E-01   3.6361E-04  0.0110
   6.3997E-01   6.5554E-01   3.5521E-04  0.0110
   6.5554E-01   6.7149E-01   3.5409E-04  0.0109
   6.7149E-01   6.8783E-01   3.4817E-04  0.0108
   6.8783E-01   7.0456E-01   3.4442E-04  0.0108
   7.0456E-01   7.2171E-01   3.3639E-04  0.0108
   7.2171E-01   7.3927E-01   3.3641E-04  0.0106
   7.3927E-01   7.5725E-01   3.2705E-04  0.0106
   7.5725E-01   7.7568E-01   3.2540E-04  0.0105
   7.7568E-01   7.9455E-01   3.1370E-04  0.0106
   7.9455E-01   8.1388E-01   3.0657E-04  0.0106
   8.1388E-01   8.3368E-01   3.0097E-04  0.0106
   8.3368E-01   8.5397E-01   2.9849E-04  0.0105
   8.5397E-01   8.7475E-01   2.8575E-04  0.0106
   8.7475E-01   8.9603E-01   2.7975E-04  0.0106
   8.9603E-01   9.1783E-01   2.7570E-04  0.0105
   9.1783E-01   9.4016E-01   2.6235E-04  0.0107
   9.4016E-01   9.6304E-01   2.5224E-04  0.0107
   9.6304E-01   9.8647E-01   2.4204E-04  0.0108
   9.8647E-01   1.0105E+00   2.3573E-04  0.0109
   1.0105E+00   1.0351E+00   2.3393E-04  0.0108
   1.0351E+00   1.0602E+00   2.3284E-04  0.0107
   1.0602E+00   1.0860E+00   2.4384E-04  0.0103
   1.0860E+00   1.1125E+00   2.3988E-04  0.0103
   1.1125E+00   1.1395E+00   2.4623E-04  0.0100
   1.1395E+00   1.1673E+00   2.4989E-04  0.0098
   1.1673E+00   1.1957E+00   2.5893E-04  0.0095
   1.1957E+00   1.2247E+00   2.6764E-04  0.0093
   1.2247E+00   1.2545E+00   2.6628E-04  0.0092
   1.2545E+00   1.2851E+00   2.6840E-04  0.0090
   1.2851E+00   1.3163E+00   2.6405E-04  0.0090
   1.3163E+00   1.3484E+00   2.7268E-04  0.0087
   1.3484E+00   1.3812E+00   2.7675E-04  0.0086
   1.3812E+00   1.4148E+00   2.7986E-04  0.0084
   1.4148E+00   1.4492E+00   2.8720E-04  0.0082
   1.4492E+00   1.4845E+00   2.7794E-04  0.0082
   1.4845E+00   1.5206E+00   2.8249E-04  0.0081
   1.5206E+00   1.5576E+00   2.8332E-04  0.0080
   1.5576E+00   1.5955E+00   2.8192E-04  0.0079
   1.5955E+00   1.6343E+00   2.8794E-04  0.0077
   1.6343E+00   1.6741E+00   2.8991E-04  0.0076
   1.6741E+00   1.7148E+00   2.9800E-04  0.0074
   1.7148E+00   1.7565E+00   2.9624E-04  0.0073
   1.7565E+00   1.7992E+00   2.9791E-04  0.0072
   1.7992E+00   1.8430E+00   2.9634E-04  0.0072
   1.8430E+00   1.8879E+00   2.9899E-04  0.0071
   1.8879E+00   1.9338E+00   3.0285E-04  0.0069
   1.9338E+00   1.9808E+00   3.0243E-04  0.0068
   1.9808E+00   2.0290E+00   3.0657E-04  0.0067
   2.0290E+00   2.0784E+00   3.0508E-04  0.0067
   2.0784E+00   2.1290E+00   3.0563E-04  0.0066
   2.1290E+00   2.1808E+00   3.0140E-04  0.0065
   2.1808E+00   2.2338E+00   3.0755E-04  0.0064
   2.2338E+00   2.2882E+00   3.0508E-04  0.0063
   2.2882E+00   2.3439E+00   3.0551E-04  0.0063
   2.3439E+00   2.4009E+00   3.0622E-04  0.0062
   2.4009E+00   2.4593E+00   3.0891E-04  0.0061
   2.4593E+00   2.5191E+00   3.0464E-04  0.0061
   2.5191E+00   2.5804E+00   3.0708E-04  0.0060
   2.5804E+00   2.6432E+00   3.0553E-04  0.0059
   2.6432E+00   2.7075E+00   3.0417E-04  0.0058
   2.7075E+00   2.7734E+00   2.9923E-04  0.0058
   2.7734E+00   2.8409E+00   3.0127E-04  0.0057
   2.8409E+00   2.9100E+00   3.0586E-04  0.0056
   2.9100E+00   2.9808E+00   3.0309E-04  0.0056
   2.9808E+00   3.0533E+00   3.0224E-04  0.0055
   3.0533E+00   3.1276E+00   2.9646E-04  0.0055
   3.1276E+00   3.2037E+00   2.9978E-04  0.0054
   3.2037E+00   3.2817E+00   2.9344E-04  0.0054
   3.2817E+00   3.3615E+00   2.8984E-04  0.0054
   3.3615E+00   3.4433E+00   2.8659E-04  0.0053
   3.4433E+00   3.5271E+00   2.8638E-04  0.0053
   3.5271E+00   3.6129E+00   2.8157E-04  0.0053
   3.6129E+00   3.7008E+00   2.8307E-04  0.0052
   3.7008E+00   3.7908E+00   2.7956E-04  0.0051
   3.7908E+00   3.8831E+00   2.7451E-04  0.0051
   3.8831E+00   3.9776E+00   2.7194E-04  0.0051
   3.9776E+00   4.0743E+00   2.6927E-04  0.0051
   4.0743E+00   4.1735E+00   2.6255E-04  0.0051
   4.1735E+00   4.2750E+00   2.5771E-04  0.0050
   4.2750E+00   4.3790E+00   2.4996E-04  0.0051
   4.3790E+00   4.4856E+00   2.4779E-04  0.0050
   4.4856E+00   4.5947E+00   2.4122E-04  0.0050
   4.5947E+00   4.7065E+00   2.3719E-04  0.0050
   4.7065E+00   4.8210E+00   2.3647E-04  0.0050
   4.8210E+00   4.9383E+00   2.3127E-04  0.0050
   4.9383E+00   5.0585E+00   2.2469E-04  0.0050
   5.0585E+00   5.1815E+00   2.1827E-04  0.0050
   5.1815E+00   5.3076E+00   2.1374E-04  0.0050
   5.3076E+00   5.4368E+00   2.0722E-04  0.0050
   5.4368E+00   5.5690E+00   2.0126E-04  0.0050
   5.5690E+00   5.7045E+00   1.9501E-04  0.0050
   5.7045E+00   5.8433E+00   1.9181E-04  0.0050
   5.8433E+00   5.9855E+00   1.8457E-04  0.0050
   5.9855E+00   6.1311E+00   1.8366E-04  0.0050
   6.1311E+00   6.2803E+00   1.7542E-04  0.0050
   6.2803E+00   6.4331E+00   1.7014E-04  0.0051
   6.4331E+00   6.5896E+00   1.6467E-04  0.0051
   6.5896E+00   6.7500E+00   1.6005E-04  0.0051
   6.7500E+00   6.9142E+00   1.5451E-04  0.0051
   6.9142E+00   7.0824E+00   1.4937E-04  0.0052
   7.0824E+00   7.2548E+00   1.4354E-04  0.0052
   7.2548E+00   7.4313E+00   1.3994E-04  0.0052
   7.4313E+00   7.6121E+00   1.3504E-04  0.0052
   7.6121E+00   7.7973E+00   1.2957E-04  0.0053
   7.7973E+00   7.9870E+00   1.2659E-04  0.0053
   7.9870E+00   8.1813E+00   1.2247E-04  0.0053
   8.1813E+00   8.3804E+00   1.1761E-04  0.0053
   8.3804E+00   8.5843E+00   1.1509E-04  0.0053
   8.5843E+00   8.7931E+00   1.0971E-04  0.0054
   8.7931E+00   9.0071E+00   1.0633E-04  0.0054
   9.0071E+00   9.2262E+00   1.0245E-04  0.0054
   9.2262E+00   9.4507E+00   9.9546E-05  0.0055
   9.4507E+00   9.6807E+00   9.5932E-05  0.0055
   9.6807E+00   9.9162E+00   9.2476E-05  0.0055
   9.9162E+00   1.0157E+01   9.0112E-05  0.0055
   1.0157E+01   1.0405E+01   8.6982E-05  0.0056
   1.0405E+01   1.0658E+01   8.3690E-05  0.0056
   1.0658E+01   1.0917E+01   8.1148E-05  0.0056
   1.0917E+01   1.1183E+01   7.9226E-05  0.0056
   1.1183E+01   1.1455E+01   7.5988E-05  0.0057
   1.1455E+01   1.1733E+01   7.4086E-05  0.0057
   1.1733E+01   1.2019E+01   7.2021E-05  0.0057
   1.2019E+01   1.2311E+01   7.0702E-05  0.0057
   1.2311E+01   1.2611E+01   6.7301E-05  0.0058
   1.2611E+01   1.2918E+01   6.5665E-05  0.0058
   1.2918E+01   1.3232E+01   6.3436E-05  0.0058
   1.3232E+01   1.3554E+01   6.2105E-05  0.0058
   1.3554E+01   1.3884E+01   5.9865E-05  0.0058
   1.3884E+01   1.4222E+01   5.7756E-05  0.0058
   1.4222E+01   1.4568E+01   5.6018E-05  0.0059
   1.4568E+01   1.4922E+01   5.4786E-05  0.0059
   1.4922E+01   1.5285E+01   5.3102E-05  0.0059
   1.5285E+01   1.5657E+01   5.1172E-05  0.0059
   1.5657E+01   1.6038E+01   4.9420E-05  0.0060
   1.6038E+01   1.6428E+01   4.8244E-05  0.0060
   1.6428E+01   1.6828E+01   4.6789E-05  0.0060
   1.6828E+01   1.7237E+01   4.5612E-05  0.0060
   1.7237E+01   1.7657E+01   4.4011E-05  0.0060
   1.7657E+01   1.8086E+01   4.2444E-05  0.0060
   1.8086E+01   1.8526E+01   4.1129E-05  0.0061
   1.8526E+01   1.8977E+01   3.9588E-05  0.0061
   1.8977E+01   1.9439E+01   3.8591E-05  0.0061
   1.9439E+01   1.9912E+01   3.7260E-05  0.0062
   1.9912E+01   2.0396E+01   3.6636E-05  0.0061
   2.0396E+01   2.0893E+01   3.5616E-05  0.0061
   2.0893E+01   2.1401E+01   3.4279E-05  0.0062
   2.1401E+01   2.1922E+01   3.2890E-05  0.0062
   2.1922E+01   2.2455E+01   3.1753E-05  0.0063
   2.2455E+01   2.3001E+01   3.0260E-05  0.0064
   2.3001E+01   2.3561E+01   2.9015E-05  0.0064
   2.3561E+01   2.4134E+01   2.7876E-05  0.0065
   2.4134E+01   2.4721E+01   2.6928E-05  0.0065
   2.4721E+01   2.5323E+01   2.5713E-05  0.0066
   2.5323E+01   2.5939E+01   2.3991E-05  0.0067
   2.5939E+01   2.6570E+01   2.2896E-05  0.0068
   2.6570E+01   2.7217E+01   2.2000E-05  0.0068
   2.7217E+01   2.7879E+01   2.0940E-05  0.0069
   2.7879E+01   2.8557E+01   1.9586E-05  0.0071
   2.8557E+01   2.9252E+01   1.8689E-05  0.0072
   2.9252E+01   2.9964E+01   1.7441E-05  0.0073
   2.9964E+01   3.0693E+01   1.6536E-05  0.0074
   3.0693E+01   3.1440E+01   1.5411E-05  0.0076
   3.1440E+01   3.2205E+01   1.4361E-05  0.0078
   3.2205E+01   3.2988E+01   1.3474E-05  0.0079
   3.2988E+01   3.3791E+01   1.2624E-05  0.0081
   3.3791E+01   3.4613E+01   1.1603E-05  0.0084
   3.4613E+01   3.5455E+01   1.0746E-05  0.0086
   3.5455E+01   3.6318E+01   9.8866E-06  0.0088
   3.6318E+01   3.7201E+01   9.1297E-06  0.0091
   3.7201E+01   3.8106E+01   8.1432E-06  0.0095
   3.8106E+01   3.9034E+01   7.4658E-06  0.0098
   3.9034E+01   3.9983E+01   6.7634E-06  0.0102
   3.9983E+01   4.0956E+01   6.2512E-06  0.0105
   4.0956E+01   4.1953E+01   5.8418E-06  0.0107
   4.1953E+01   4.2973E+01   5.1087E-06  0.0113
   4.2973E+01   4.4019E+01   4.5378E-06  0.0119
   4.4019E+01   4.5090E+01   4.0678E-06  0.0124
   4.5090E+01   4.6187E+01   3.5665E-06  0.0131
   4.6187E+01   4.7311E+01   3.2213E-06  0.0136
   4.7311E+01   4.8462E+01   2.7602E-06  0.0145
   4.8462E+01   4.9641E+01   2.4742E-06  0.0151
   4.9641E+01   5.0849E+01   2.2581E-06  0.0156
   5.0849E+01   5.2086E+01   1.9350E-06  0.0167
   5.2086E+01   5.3353E+01   1.6145E-06  0.0181
   5.3353E+01   5.4651E+01   1.4585E-06  0.0188
   5.4651E+01   5.5981E+01   1.1892E-06  0.0205
   5.5981E+01   5.7343E+01   1.0817E-06  0.0213
   5.7343E+01   5.8738E+01   8.7825E-07  0.0233
   5.8738E+01   6.0168E+01   7.6036E-07  0.0248
   6.0168E+01   6.1632E+01   6.4393E-07  0.0266
   6.1632E+01   6.3131E+01   5.3839E-07  0.0287
   6.3131E+01   6.4667E+01   4.5051E-07  0.0310
   6.4667E+01   6.6240E+01   3.7075E-07  0.0338
   6.6240E+01   6.7852E+01   3.1354E-07  0.0363
   6.7852E+01   6.9503E+01   2.4997E-07  0.0402
   6.9503E+01   7.1194E+01   1.9672E-07  0.0448
   7.1194E+01   7.2926E+01   1.5818E-07  0.0493
   7.2926E+01   7.4701E+01   1.4315E-07  0.0512
   7.4701E+01   7.6518E+01   1.1004E-07  0.0577
   7.6518E+01   7.8380E+01   8.9880E-08  0.0631
   7.8380E+01   8.0287E+01   5.6982E-08  0.0783
   8.0287E+01   8.2240E+01   4.5390E-08  0.0867
   8.2240E+01   8.4241E+01   2.4988E-08  0.1155
   8.4241E+01   8.6291E+01   8.1314E-09  0.2000
   8.6291E+01   8.8391E+01   2.8578E-09  0.3333
   8.8391E+01   9.0541E+01   6.1998E-10  0.7071
   9.0541E+01   9.2744E+01   0.0000E+00  0.0000
   9.2744E+01   9.5001E+01   0.0000E+00  0.0000
   9.5001E+01   9.7312E+01   0.0000E+00  0.0000
   9.7312E+01   9.9680E+01   0.0000E+00  0.0000
   9.9680E+01   1.0211E+02   0.0000E+00  0.0000
   1.0211E+02   1.0459E+02   0.0000E+00  0.0000
   1.0459E+02   1.0713E+02   0.0000E+00  0.0000
   1.0713E+02   1.0974E+02   0.0000E+00  0.0000
   1.0974E+02   1.1241E+02   0.0000E+00  0.0000
   1.1241E+02   1.1515E+02   0.0000E+00  0.0000
   1.1515E+02   1.1795E+02   0.0000E+00  0.0000
   1.1795E+02   1.2082E+02   0.0000E+00  0.0000
   1.2082E+02   1.2376E+02   0.0000E+00  0.0000
   1.2376E+02   1.2677E+02   0.0000E+00  0.0000
   1.2677E+02   1.2985E+02   0.0000E+00  0.0000
   1.2985E+02   1.3301E+02   0.0000E+00  0.0000
   1.3301E+02   1.3625E+02   0.0000E+00  0.0000
   1.3625E+02   1.3956E+02   0.0000E+00  0.0000
   1.3956E+02   1.4296E+02   0.0000E+00  0.0000
   1.4296E+02   1.4644E+02   0.0000E+00  0.0000
   1.4644E+02   1.5000E+02   0.0000E+00  0.0000

#   sum over                 2.1120E-05
'no. =    1   reg = 112 - 212'
msuc: {\huge [t-cross] in region mesh}
msdr: {\it plotted by \ANGEL \version}
msdl: {\it calculated by \PHITS  3.26}
wt: s(0.7)
\vspace{-3}
  region surface crossing
  area  &=&   1.0000E+00 [cm^2]
e:
 
# Information for Restart Calculation
# This calculation was newly started
# istdev =  2 # 1:Batch variance, 2:History variance
# resc2  = 1.50000000000000000E+09 # Total source weight or Total source weight / maxcas
# resc3  = 1.50000000000000000E+09 # Total history number or Total batch number
# maxcas =   500000000 # History / Batch, only used for istdev=1
# bitrseed = 0000010101110101110110100110011001100101000001100111100100101101 # bit data of rseed
