[ T-Cross ]
    title = [t-cross] in region mesh
     mesh =  reg            # mesh type is region-wise
      reg =    1            # number of crossing regions
      non     r-from    r-to       area
      1       104       204        1.000000    
   e-type =    3            # e-mesh is log given by emin, emax and ne
     emin =  1.0000000E-02  # minimum value of e-mesh points
     emax =   150.0000      # maximum value of e-mesh points
#    edel =  2.4039514E-02  # mesh width of e-mesh points
       ne =    400          # number of e-mesh points
#    data = ( e(i), i = 1, ne + 1 )
#           1.00000E-02  1.02433E-02  1.04925E-02  1.07478E-02  1.10093E-02
#           1.12772E-02  1.15516E-02  1.18326E-02  1.21205E-02  1.24154E-02
#           1.27175E-02  1.30269E-02  1.33439E-02  1.36686E-02  1.40011E-02
#           1.43418E-02  1.46907E-02  1.50482E-02  1.54143E-02  1.57894E-02
#           1.61735E-02  1.65670E-02  1.69701E-02  1.73830E-02  1.78060E-02
#           1.82392E-02  1.86830E-02  1.91375E-02  1.96032E-02  2.00801E-02
#           2.05687E-02  2.10692E-02  2.15818E-02  2.21069E-02  2.26448E-02
#           2.31957E-02  2.37601E-02  2.43382E-02  2.49304E-02  2.55369E-02
#           2.61583E-02  2.67947E-02  2.74467E-02  2.81145E-02  2.87985E-02
#           2.94992E-02  3.02169E-02  3.09521E-02  3.17052E-02  3.24766E-02
#           3.32668E-02  3.40762E-02  3.49053E-02  3.57546E-02  3.66246E-02
#           3.75157E-02  3.84284E-02  3.93634E-02  4.03212E-02  4.13022E-02
#           4.23071E-02  4.33365E-02  4.43909E-02  4.54710E-02  4.65773E-02
#           4.77106E-02  4.88714E-02  5.00605E-02  5.12785E-02  5.25262E-02
#           5.38042E-02  5.51133E-02  5.64542E-02  5.78278E-02  5.92348E-02
#           6.06760E-02  6.21523E-02  6.36645E-02  6.52135E-02  6.68002E-02
#           6.84255E-02  7.00904E-02  7.17957E-02  7.35426E-02  7.53319E-02
#           7.71648E-02  7.90423E-02  8.09655E-02  8.29354E-02  8.49533E-02
#           8.70203E-02  8.91376E-02  9.13064E-02  9.35279E-02  9.58035E-02
#           9.81345E-02  1.00522E-01  1.02968E-01  1.05473E-01  1.08040E-01
#           1.10668E-01  1.13361E-01  1.16119E-01  1.18944E-01  1.21838E-01
#           1.24803E-01  1.27839E-01  1.30950E-01  1.34136E-01  1.37399E-01
#           1.40742E-01  1.44167E-01  1.47675E-01  1.51268E-01  1.54948E-01
#           1.58718E-01  1.62580E-01  1.66535E-01  1.70587E-01  1.74738E-01
#           1.78989E-01  1.83344E-01  1.87805E-01  1.92375E-01  1.97055E-01
#           2.01850E-01  2.06761E-01  2.11792E-01  2.16945E-01  2.22223E-01
#           2.27630E-01  2.33169E-01  2.38842E-01  2.44653E-01  2.50605E-01
#           2.56703E-01  2.62949E-01  2.69346E-01  2.75900E-01  2.82613E-01
#           2.89489E-01  2.96532E-01  3.03747E-01  3.11138E-01  3.18708E-01
#           3.26462E-01  3.34405E-01  3.42542E-01  3.50876E-01  3.59413E-01
#           3.68158E-01  3.77116E-01  3.86291E-01  3.95690E-01  4.05317E-01
#           4.15179E-01  4.25281E-01  4.35628E-01  4.46227E-01  4.57084E-01
#           4.68205E-01  4.79597E-01  4.91266E-01  5.03219E-01  5.15463E-01
#           5.28005E-01  5.40851E-01  5.54011E-01  5.67490E-01  5.81298E-01
#           5.95441E-01  6.09929E-01  6.24769E-01  6.39970E-01  6.55541E-01
#           6.71491E-01  6.87828E-01  7.04564E-01  7.21706E-01  7.39266E-01
#           7.57253E-01  7.75678E-01  7.94551E-01  8.13883E-01  8.33685E-01
#           8.53969E-01  8.74747E-01  8.96030E-01  9.17831E-01  9.40163E-01
#           9.63038E-01  9.86469E-01  1.01047E+00  1.03506E+00  1.06024E+00
#           1.08604E+00  1.11246E+00  1.13953E+00  1.16725E+00  1.19565E+00
#           1.22474E+00  1.25454E+00  1.28507E+00  1.31633E+00  1.34836E+00
#           1.38117E+00  1.41477E+00  1.44920E+00  1.48446E+00  1.52057E+00
#           1.55757E+00  1.59547E+00  1.63429E+00  1.67405E+00  1.71478E+00
#           1.75650E+00  1.79924E+00  1.84302E+00  1.88786E+00  1.93379E+00
#           1.98084E+00  2.02904E+00  2.07841E+00  2.12898E+00  2.18078E+00
#           2.23384E+00  2.28819E+00  2.34386E+00  2.40089E+00  2.45930E+00
#           2.51914E+00  2.58043E+00  2.64322E+00  2.70753E+00  2.77341E+00
#           2.84088E+00  2.91001E+00  2.98081E+00  3.05333E+00  3.12762E+00
#           3.20372E+00  3.28167E+00  3.36152E+00  3.44330E+00  3.52708E+00
#           3.61290E+00  3.70080E+00  3.79085E+00  3.88308E+00  3.97756E+00
#           4.07434E+00  4.17347E+00  4.27501E+00  4.37903E+00  4.48557E+00
#           4.59471E+00  4.70650E+00  4.82102E+00  4.93832E+00  5.05847E+00
#           5.18155E+00  5.30762E+00  5.43676E+00  5.56904E+00  5.70453E+00
#           5.84333E+00  5.98550E+00  6.13114E+00  6.28031E+00  6.43312E+00
#           6.58964E+00  6.74997E+00  6.91420E+00  7.08243E+00  7.25475E+00
#           7.43126E+00  7.61207E+00  7.79728E+00  7.98700E+00  8.18133E+00
#           8.38038E+00  8.58428E+00  8.79315E+00  9.00709E+00  9.22624E+00
#           9.45072E+00  9.68067E+00  9.91620E+00  1.01575E+01  1.04046E+01
#           1.06578E+01  1.09171E+01  1.11827E+01  1.14548E+01  1.17335E+01
#           1.20190E+01  1.23114E+01  1.26109E+01  1.29178E+01  1.32321E+01
#           1.35540E+01  1.38838E+01  1.42216E+01  1.45676E+01  1.49221E+01
#           1.52851E+01  1.56570E+01  1.60380E+01  1.64282E+01  1.68279E+01
#           1.72374E+01  1.76568E+01  1.80864E+01  1.85264E+01  1.89772E+01
#           1.94389E+01  1.99119E+01  2.03963E+01  2.08926E+01  2.14009E+01
#           2.19216E+01  2.24550E+01  2.30014E+01  2.35610E+01  2.41343E+01
#           2.47215E+01  2.53230E+01  2.59391E+01  2.65702E+01  2.72167E+01
#           2.78789E+01  2.85572E+01  2.92520E+01  2.99637E+01  3.06928E+01
#           3.14396E+01  3.22045E+01  3.29881E+01  3.37907E+01  3.46128E+01
#           3.54550E+01  3.63177E+01  3.72013E+01  3.81064E+01  3.90336E+01
#           3.99833E+01  4.09561E+01  4.19526E+01  4.29734E+01  4.40189E+01
#           4.50900E+01  4.61870E+01  4.73108E+01  4.84619E+01  4.96410E+01
#           5.08488E+01  5.20860E+01  5.33533E+01  5.46514E+01  5.59812E+01
#           5.73432E+01  5.87384E+01  6.01676E+01  6.16315E+01  6.31311E+01
#           6.46671E+01  6.62405E+01  6.78522E+01  6.95031E+01  7.11941E+01
#           7.29263E+01  7.47007E+01  7.65182E+01  7.83800E+01  8.02870E+01
#           8.22405E+01  8.42414E+01  8.62911E+01  8.83906E+01  9.05412E+01
#           9.27442E+01  9.50007E+01  9.73122E+01  9.96799E+01  1.02105E+02
#           1.04589E+02  1.07134E+02  1.09741E+02  1.12411E+02  1.15146E+02
#           1.17948E+02  1.20817E+02  1.23757E+02  1.26768E+02  1.29852E+02
#           1.33012E+02  1.36248E+02  1.39563E+02  1.42959E+02  1.46437E+02
#           1.50000E+02
     unit =    2            # unit is [1/cm^2/(MeV/n)/source]
     axis =  eng            # axis of output
     file = detector-05.out  # file name of output for the above axis
   output = f-curr          # surface crossing forward current spectrum
     part =  neutron  
# kf/name :  2112     
#    used :        main (  %)        temp (  %)       total (  %)
#  memory :         414 (  0)           0 (  0)         414 (  0)

#------------------------------------------------------------------------------
#newpage:
#   no. =    1   reg = 104 - 204

x: Energy [MeV/n]
y:  F-Curr [1/cm^2/(MeV/n)/source]         
p: xlog ylog afac(0.8) form(0.9)
h: n            x            y(neutron ),hh0l   n 
#  e-lower      e-upper      neutron     r.err 
   1.0000E-02   1.0243E-02   2.9017E-03  0.0238
   1.0243E-02   1.0493E-02   2.9499E-03  0.0233
   1.0493E-02   1.0748E-02   3.0428E-03  0.0227
   1.0748E-02   1.1009E-02   2.9369E-03  0.0228
   1.1009E-02   1.1277E-02   2.7506E-03  0.0233
   1.1277E-02   1.1552E-02   2.9958E-03  0.0221
   1.1552E-02   1.1833E-02   2.9047E-03  0.0221
   1.1833E-02   1.2121E-02   2.7941E-03  0.0223
   1.2121E-02   1.2415E-02   2.7494E-03  0.0222
   1.2415E-02   1.2718E-02   2.8350E-03  0.0216
   1.2718E-02   1.3027E-02   2.7948E-03  0.0215
   1.3027E-02   1.3344E-02   2.8452E-03  0.0211
   1.3344E-02   1.3669E-02   2.7832E-03  0.0210
   1.3669E-02   1.4001E-02   2.8157E-03  0.0207
   1.4001E-02   1.4342E-02   2.6960E-03  0.0209
   1.4342E-02   1.4691E-02   2.7580E-03  0.0204
   1.4691E-02   1.5048E-02   2.6287E-03  0.0206
   1.5048E-02   1.5414E-02   2.6985E-03  0.0201
   1.5414E-02   1.5789E-02   2.6973E-03  0.0199
   1.5789E-02   1.6174E-02   2.6770E-03  0.0197
   1.6174E-02   1.6567E-02   2.7552E-03  0.0192
   1.6567E-02   1.6970E-02   2.5587E-03  0.0197
   1.6970E-02   1.7383E-02   2.6568E-03  0.0191
   1.7383E-02   1.7806E-02   2.5531E-03  0.0192
   1.7806E-02   1.8239E-02   2.6489E-03  0.0187
   1.8239E-02   1.8683E-02   2.5675E-03  0.0187
   1.8683E-02   1.9138E-02   2.6095E-03  0.0184
   1.9138E-02   1.9603E-02   2.5243E-03  0.0184
   1.9603E-02   2.0080E-02   2.5034E-03  0.0183
   2.0080E-02   2.0569E-02   2.5524E-03  0.0179
   2.0569E-02   2.1069E-02   2.5177E-03  0.0178
   2.1069E-02   2.1582E-02   2.4856E-03  0.0177
   2.1582E-02   2.2107E-02   2.5290E-03  0.0174
   2.2107E-02   2.2645E-02   2.4779E-03  0.0173
   2.2645E-02   2.3196E-02   2.4230E-03  0.0173
   2.3196E-02   2.3760E-02   2.4530E-03  0.0170
   2.3760E-02   2.4338E-02   2.4750E-03  0.0167
   2.4338E-02   2.4930E-02   2.4314E-03  0.0167
   2.4930E-02   2.5537E-02   2.3931E-03  0.0166
   2.5537E-02   2.6158E-02   2.3318E-03  0.0166
   2.6158E-02   2.6795E-02   2.4530E-03  0.0160
   2.6795E-02   2.7447E-02   2.3530E-03  0.0161
   2.7447E-02   2.8114E-02   2.3723E-03  0.0159
   2.8114E-02   2.8799E-02   2.3150E-03  0.0159
   2.8799E-02   2.9499E-02   2.2452E-03  0.0159
   2.9499E-02   3.0217E-02   2.2264E-03  0.0158
   3.0217E-02   3.0952E-02   2.2922E-03  0.0154
   3.0952E-02   3.1705E-02   2.1920E-03  0.0156
   3.1705E-02   3.2477E-02   2.2214E-03  0.0153
   3.2477E-02   3.3267E-02   2.2121E-03  0.0151
   3.3267E-02   3.4076E-02   2.2908E-03  0.0147
   3.4076E-02   3.4905E-02   2.1865E-03  0.0149
   3.4905E-02   3.5755E-02   2.1611E-03  0.0148
   3.5755E-02   3.6625E-02   2.1944E-03  0.0145
   3.6625E-02   3.7516E-02   2.1095E-03  0.0146
   3.7516E-02   3.8428E-02   2.1657E-03  0.0142
   3.8428E-02   3.9363E-02   2.0723E-03  0.0144
   3.9363E-02   4.0321E-02   2.0882E-03  0.0141
   4.0321E-02   4.1302E-02   2.0513E-03  0.0141
   4.1302E-02   4.2307E-02   2.0471E-03  0.0139
   4.2307E-02   4.3337E-02   2.0185E-03  0.0139
   4.3337E-02   4.4391E-02   1.9861E-03  0.0138
   4.4391E-02   4.5471E-02   2.0291E-03  0.0135
   4.5471E-02   4.6577E-02   1.9941E-03  0.0135
   4.6577E-02   4.7711E-02   1.9642E-03  0.0134
   4.7711E-02   4.8871E-02   1.9290E-03  0.0134
   4.8871E-02   5.0061E-02   1.9368E-03  0.0132
   5.0061E-02   5.1279E-02   1.9348E-03  0.0130
   5.1279E-02   5.2526E-02   1.8638E-03  0.0131
   5.2526E-02   5.3804E-02   1.9346E-03  0.0127
   5.3804E-02   5.5113E-02   1.8831E-03  0.0127
   5.5113E-02   5.6454E-02   1.8624E-03  0.0127
   5.6454E-02   5.7828E-02   1.8457E-03  0.0126
   5.7828E-02   5.9235E-02   1.8399E-03  0.0124
   5.9235E-02   6.0676E-02   1.8136E-03  0.0124
   6.0676E-02   6.2152E-02   1.7967E-03  0.0123
   6.2152E-02   6.3665E-02   1.7602E-03  0.0123
   6.3665E-02   6.5214E-02   1.7567E-03  0.0121
   6.5214E-02   6.6800E-02   1.7625E-03  0.0120
   6.6800E-02   6.8426E-02   1.7579E-03  0.0118
   6.8426E-02   7.0090E-02   1.7322E-03  0.0118
   7.0090E-02   7.1796E-02   1.7430E-03  0.0116
   7.1796E-02   7.3543E-02   1.7063E-03  0.0116
   7.3543E-02   7.5332E-02   1.7090E-03  0.0114
   7.5332E-02   7.7165E-02   1.6705E-03  0.0114
   7.7165E-02   7.9042E-02   1.6387E-03  0.0114
   7.9042E-02   8.0965E-02   1.6355E-03  0.0113
   8.0965E-02   8.2935E-02   1.6138E-03  0.0112
   8.2935E-02   8.4953E-02   1.6322E-03  0.0110
   8.4953E-02   8.7020E-02   1.6367E-03  0.0109
   8.7020E-02   8.9138E-02   1.6273E-03  0.0108
   8.9138E-02   9.1306E-02   1.5845E-03  0.0108
   9.1306E-02   9.3528E-02   1.5630E-03  0.0107
   9.3528E-02   9.5804E-02   1.5458E-03  0.0107
   9.5804E-02   9.8134E-02   1.5269E-03  0.0106
   9.8134E-02   1.0052E-01   1.5350E-03  0.0104
   1.0052E-01   1.0297E-01   1.5124E-03  0.0104
   1.0297E-01   1.0547E-01   1.4969E-03  0.0103
   1.0547E-01   1.0804E-01   1.4947E-03  0.0102
   1.0804E-01   1.1067E-01   1.4708E-03  0.0102
   1.1067E-01   1.1336E-01   1.4158E-03  0.0102
   1.1336E-01   1.1612E-01   1.4608E-03  0.0100
   1.1612E-01   1.1894E-01   1.4237E-03  0.0100
   1.1894E-01   1.2184E-01   1.4223E-03  0.0099
   1.2184E-01   1.2480E-01   1.3806E-03  0.0099
   1.2480E-01   1.2784E-01   1.3835E-03  0.0098
   1.2784E-01   1.3095E-01   1.3691E-03  0.0097
   1.3095E-01   1.3414E-01   1.3619E-03  0.0096
   1.3414E-01   1.3740E-01   1.3525E-03  0.0095
   1.3740E-01   1.4074E-01   1.3451E-03  0.0094
   1.4074E-01   1.4417E-01   1.3230E-03  0.0094
   1.4417E-01   1.4767E-01   1.2985E-03  0.0094
   1.4767E-01   1.5127E-01   1.2976E-03  0.0093
   1.5127E-01   1.5495E-01   1.2633E-03  0.0093
   1.5495E-01   1.5872E-01   1.2620E-03  0.0092
   1.5872E-01   1.6258E-01   1.2394E-03  0.0091
   1.6258E-01   1.6654E-01   1.2359E-03  0.0090
   1.6654E-01   1.7059E-01   1.2279E-03  0.0090
   1.7059E-01   1.7474E-01   1.2354E-03  0.0088
   1.7474E-01   1.7899E-01   1.2027E-03  0.0088
   1.7899E-01   1.8334E-01   1.1764E-03  0.0088
   1.8334E-01   1.8781E-01   1.1785E-03  0.0087
   1.8781E-01   1.9237E-01   1.1523E-03  0.0087
   1.9237E-01   1.9706E-01   1.1349E-03  0.0087
   1.9706E-01   2.0185E-01   1.1284E-03  0.0086
   2.0185E-01   2.0676E-01   1.1189E-03  0.0085
   2.0676E-01   2.1179E-01   1.1063E-03  0.0085
   2.1179E-01   2.1694E-01   1.0819E-03  0.0085
   2.1694E-01   2.2222E-01   1.0777E-03  0.0084
   2.2222E-01   2.2763E-01   1.0554E-03  0.0084
   2.2763E-01   2.3317E-01   1.0497E-03  0.0083
   2.3317E-01   2.3884E-01   1.0370E-03  0.0082
   2.3884E-01   2.4465E-01   1.0229E-03  0.0082
   2.4465E-01   2.5061E-01   1.0046E-03  0.0082
   2.5061E-01   2.5670E-01   9.9422E-04  0.0081
   2.5670E-01   2.6295E-01   9.8684E-04  0.0081
   2.6295E-01   2.6935E-01   9.7900E-04  0.0080
   2.6935E-01   2.7590E-01   9.6426E-04  0.0080
   2.7590E-01   2.8261E-01   9.5816E-04  0.0079
   2.8261E-01   2.8949E-01   9.3194E-04  0.0079
   2.8949E-01   2.9653E-01   9.1074E-04  0.0079
   2.9653E-01   3.0375E-01   9.1137E-04  0.0078
   3.0375E-01   3.1114E-01   9.1992E-04  0.0077
   3.1114E-01   3.1871E-01   8.7683E-04  0.0078
   3.1871E-01   3.2646E-01   8.7715E-04  0.0077
   3.2646E-01   3.3441E-01   8.5838E-04  0.0077
   3.3441E-01   3.4254E-01   8.4220E-04  0.0076
   3.4254E-01   3.5088E-01   8.3090E-04  0.0076
   3.5088E-01   3.5941E-01   8.1491E-04  0.0076
   3.5941E-01   3.6816E-01   8.1241E-04  0.0075
   3.6816E-01   3.7712E-01   7.9767E-04  0.0075
   3.7712E-01   3.8629E-01   7.7349E-04  0.0075
   3.8629E-01   3.9569E-01   7.7548E-04  0.0074
   3.9569E-01   4.0532E-01   7.5945E-04  0.0074
   4.0532E-01   4.1518E-01   7.4139E-04  0.0074
   4.1518E-01   4.2528E-01   7.3374E-04  0.0073
   4.2528E-01   4.3563E-01   7.2526E-04  0.0073
   4.3563E-01   4.4623E-01   6.9549E-04  0.0074
   4.4623E-01   4.5708E-01   6.9636E-04  0.0073
   4.5708E-01   4.6821E-01   6.8845E-04  0.0072
   4.6821E-01   4.7960E-01   6.7071E-04  0.0072
   4.7960E-01   4.9127E-01   6.5305E-04  0.0072
   4.9127E-01   5.0322E-01   6.5014E-04  0.0072
   5.0322E-01   5.1546E-01   6.3932E-04  0.0071
   5.1546E-01   5.2800E-01   6.1797E-04  0.0072
   5.2800E-01   5.4085E-01   6.1113E-04  0.0071
   5.4085E-01   5.5401E-01   6.0125E-04  0.0071
   5.5401E-01   5.6749E-01   5.8570E-04  0.0071
   5.6749E-01   5.8130E-01   5.8496E-04  0.0070
   5.8130E-01   5.9544E-01   5.7181E-04  0.0070
   5.9544E-01   6.0993E-01   5.5162E-04  0.0071
   6.0993E-01   6.2477E-01   5.3691E-04  0.0071
   6.2477E-01   6.3997E-01   5.2374E-04  0.0071
   6.3997E-01   6.5554E-01   5.1189E-04  0.0071
   6.5554E-01   6.7149E-01   5.0180E-04  0.0071
   6.7149E-01   6.8783E-01   4.8209E-04  0.0071
   6.8783E-01   7.0456E-01   4.7712E-04  0.0071
   7.0456E-01   7.2171E-01   4.6939E-04  0.0071
   7.2171E-01   7.3927E-01   4.5246E-04  0.0071
   7.3927E-01   7.5725E-01   4.3557E-04  0.0071
   7.5725E-01   7.7568E-01   4.2778E-04  0.0071
   7.7568E-01   7.9455E-01   4.1935E-04  0.0071
   7.9455E-01   8.1388E-01   4.0335E-04  0.0072
   8.1388E-01   8.3368E-01   3.8842E-04  0.0072
   8.3368E-01   8.5397E-01   3.7816E-04  0.0072
   8.5397E-01   8.7475E-01   3.6752E-04  0.0072
   8.7475E-01   8.9603E-01   3.5505E-04  0.0073
   8.9603E-01   9.1783E-01   3.4306E-04  0.0073
   9.1783E-01   9.4016E-01   3.3404E-04  0.0073
   9.4016E-01   9.6304E-01   3.2192E-04  0.0074
   9.6304E-01   9.8647E-01   3.1195E-04  0.0074
   9.8647E-01   1.0105E+00   2.9851E-04  0.0075
   1.0105E+00   1.0351E+00   3.0467E-04  0.0073
   1.0351E+00   1.0602E+00   3.0199E-04  0.0073
   1.0602E+00   1.0860E+00   3.1126E-04  0.0071
   1.0860E+00   1.1125E+00   3.1393E-04  0.0069
   1.1125E+00   1.1395E+00   3.2178E-04  0.0068
   1.1395E+00   1.1673E+00   3.3669E-04  0.0065
   1.1673E+00   1.1957E+00   3.3731E-04  0.0065
   1.1957E+00   1.2247E+00   3.4804E-04  0.0063
   1.2247E+00   1.2545E+00   3.5065E-04  0.0062
   1.2545E+00   1.2851E+00   3.5457E-04  0.0061
   1.2851E+00   1.3163E+00   3.5841E-04  0.0060
   1.3163E+00   1.3484E+00   3.6248E-04  0.0059
   1.3484E+00   1.3812E+00   3.6614E-04  0.0058
   1.3812E+00   1.4148E+00   3.7463E-04  0.0056
   1.4148E+00   1.4492E+00   3.7259E-04  0.0056
   1.4492E+00   1.4845E+00   3.7308E-04  0.0055
   1.4845E+00   1.5206E+00   3.7219E-04  0.0055
   1.5206E+00   1.5576E+00   3.6959E-04  0.0054
   1.5576E+00   1.5955E+00   3.7673E-04  0.0053
   1.5955E+00   1.6343E+00   3.8015E-04  0.0052
   1.6343E+00   1.6741E+00   3.8242E-04  0.0051
   1.6741E+00   1.7148E+00   3.8633E-04  0.0050
   1.7148E+00   1.7565E+00   3.8564E-04  0.0050
   1.7565E+00   1.7992E+00   3.8268E-04  0.0049
   1.7992E+00   1.8430E+00   3.7755E-04  0.0049
   1.8430E+00   1.8879E+00   3.7607E-04  0.0049
   1.8879E+00   1.9338E+00   3.7799E-04  0.0048
   1.9338E+00   1.9808E+00   3.7586E-04  0.0048
   1.9808E+00   2.0290E+00   3.7597E-04  0.0047
   2.0290E+00   2.0784E+00   3.7106E-04  0.0047
   2.0784E+00   2.1290E+00   3.6705E-04  0.0046
   2.1290E+00   2.1808E+00   3.5656E-04  0.0047
   2.1808E+00   2.2338E+00   3.5121E-04  0.0046
   2.2338E+00   2.2882E+00   3.4920E-04  0.0046
   2.2882E+00   2.3439E+00   3.4145E-04  0.0046
   2.3439E+00   2.4009E+00   3.4148E-04  0.0045
   2.4009E+00   2.4593E+00   3.3608E-04  0.0045
   2.4593E+00   2.5191E+00   3.2651E-04  0.0045
   2.5191E+00   2.5804E+00   3.2029E-04  0.0045
   2.5804E+00   2.6432E+00   3.1394E-04  0.0045
   2.6432E+00   2.7075E+00   3.0654E-04  0.0045
   2.7075E+00   2.7734E+00   2.9571E-04  0.0045
   2.7734E+00   2.8409E+00   2.8757E-04  0.0045
   2.8409E+00   2.9100E+00   2.8397E-04  0.0045
   2.9100E+00   2.9808E+00   2.7643E-04  0.0045
   2.9808E+00   3.0533E+00   2.6986E-04  0.0045
   3.0533E+00   3.1276E+00   2.6133E-04  0.0045
   3.1276E+00   3.2037E+00   2.5414E-04  0.0045
   3.2037E+00   3.2817E+00   2.4538E-04  0.0046
   3.2817E+00   3.3615E+00   2.3549E-04  0.0046
   3.3615E+00   3.4433E+00   2.2549E-04  0.0047
   3.4433E+00   3.5271E+00   2.1730E-04  0.0047
   3.5271E+00   3.6129E+00   2.1316E-04  0.0047
   3.6129E+00   3.7008E+00   2.0495E-04  0.0047
   3.7008E+00   3.7908E+00   1.9612E-04  0.0048
   3.7908E+00   3.8831E+00   1.8816E-04  0.0048
   3.8831E+00   3.9776E+00   1.8172E-04  0.0048
   3.9776E+00   4.0743E+00   1.7484E-04  0.0049
   4.0743E+00   4.1735E+00   1.6720E-04  0.0049
   4.1735E+00   4.2750E+00   1.6233E-04  0.0049
   4.2750E+00   4.3790E+00   1.5508E-04  0.0050
   4.3790E+00   4.4856E+00   1.4865E-04  0.0050
   4.4856E+00   4.5947E+00   1.4259E-04  0.0051
   4.5947E+00   4.7065E+00   1.3661E-04  0.0051
   4.7065E+00   4.8210E+00   1.3045E-04  0.0052
   4.8210E+00   4.9383E+00   1.2553E-04  0.0052
   4.9383E+00   5.0585E+00   1.2142E-04  0.0052
   5.0585E+00   5.1815E+00   1.1536E-04  0.0053
   5.1815E+00   5.3076E+00   1.1041E-04  0.0054
   5.3076E+00   5.4368E+00   1.0623E-04  0.0054
   5.4368E+00   5.5690E+00   1.0097E-04  0.0055
   5.5690E+00   5.7045E+00   9.6687E-05  0.0055
   5.7045E+00   5.8433E+00   9.3233E-05  0.0056
   5.8433E+00   5.9855E+00   8.8347E-05  0.0056
   5.9855E+00   6.1311E+00   8.4961E-05  0.0057
   6.1311E+00   6.2803E+00   8.1792E-05  0.0057
   6.2803E+00   6.4331E+00   7.7047E-05  0.0058
   6.4331E+00   6.5896E+00   7.4240E-05  0.0059
   6.5896E+00   6.7500E+00   7.1425E-05  0.0059
   6.7500E+00   6.9142E+00   6.8283E-05  0.0060
   6.9142E+00   7.0824E+00   6.5649E-05  0.0060
   7.0824E+00   7.2548E+00   6.3379E-05  0.0061
   7.2548E+00   7.4313E+00   6.0509E-05  0.0061
   7.4313E+00   7.6121E+00   5.7724E-05  0.0062
   7.6121E+00   7.7973E+00   5.5894E-05  0.0062
   7.7973E+00   7.9870E+00   5.3283E-05  0.0063
   7.9870E+00   8.1813E+00   5.1274E-05  0.0063
   8.1813E+00   8.3804E+00   4.8801E-05  0.0064
   8.3804E+00   8.5843E+00   4.7099E-05  0.0065
   8.5843E+00   8.7931E+00   4.5416E-05  0.0065
   8.7931E+00   9.0071E+00   4.3487E-05  0.0066
   9.0071E+00   9.2262E+00   4.2286E-05  0.0066
   9.2262E+00   9.4507E+00   4.0376E-05  0.0066
   9.4507E+00   9.6807E+00   3.9263E-05  0.0067
   9.6807E+00   9.9162E+00   3.7865E-05  0.0067
   9.9162E+00   1.0157E+01   3.6357E-05  0.0068
   1.0157E+01   1.0405E+01   3.5541E-05  0.0067
   1.0405E+01   1.0658E+01   3.4659E-05  0.0067
   1.0658E+01   1.0917E+01   3.3170E-05  0.0068
   1.0917E+01   1.1183E+01   3.2282E-05  0.0068
   1.1183E+01   1.1455E+01   3.1050E-05  0.0069
   1.1455E+01   1.1733E+01   3.0822E-05  0.0068
   1.1733E+01   1.2019E+01   2.9976E-05  0.0068
   1.2019E+01   1.2311E+01   2.9225E-05  0.0068
   1.2311E+01   1.2611E+01   2.8101E-05  0.0069
   1.2611E+01   1.2918E+01   2.7549E-05  0.0069
   1.2918E+01   1.3232E+01   2.7042E-05  0.0069
   1.3232E+01   1.3554E+01   2.6710E-05  0.0068
   1.3554E+01   1.3884E+01   2.5776E-05  0.0069
   1.3884E+01   1.4222E+01   2.5470E-05  0.0068
   1.4222E+01   1.4568E+01   2.5541E-05  0.0067
   1.4568E+01   1.4922E+01   2.4473E-05  0.0068
   1.4922E+01   1.5285E+01   2.4451E-05  0.0067
   1.5285E+01   1.5657E+01   2.4013E-05  0.0067
   1.5657E+01   1.6038E+01   2.3518E-05  0.0067
   1.6038E+01   1.6428E+01   2.3311E-05  0.0066
   1.6428E+01   1.6828E+01   2.2917E-05  0.0066
   1.6828E+01   1.7237E+01   2.2445E-05  0.0066
   1.7237E+01   1.7657E+01   2.2755E-05  0.0065
   1.7657E+01   1.8086E+01   2.2162E-05  0.0065
   1.8086E+01   1.8526E+01   2.1857E-05  0.0064
   1.8526E+01   1.8977E+01   2.2003E-05  0.0064
   1.8977E+01   1.9439E+01   2.1886E-05  0.0063
   1.9439E+01   1.9912E+01   2.1650E-05  0.0063
   1.9912E+01   2.0396E+01   2.1474E-05  0.0062
   2.0396E+01   2.0893E+01   2.1479E-05  0.0061
   2.0893E+01   2.1401E+01   2.1450E-05  0.0061
   2.1401E+01   2.1922E+01   2.1259E-05  0.0060
   2.1922E+01   2.2455E+01   2.1203E-05  0.0059
   2.2455E+01   2.3001E+01   2.1079E-05  0.0059
   2.3001E+01   2.3561E+01   2.1414E-05  0.0058
   2.3561E+01   2.4134E+01   2.1050E-05  0.0058
   2.4134E+01   2.4721E+01   2.1170E-05  0.0057
   2.4721E+01   2.5323E+01   2.1059E-05  0.0056
   2.5323E+01   2.5939E+01   2.1073E-05  0.0056
   2.5939E+01   2.6570E+01   2.1205E-05  0.0055
   2.6570E+01   2.7217E+01   2.1082E-05  0.0054
   2.7217E+01   2.7879E+01   2.1389E-05  0.0053
   2.7879E+01   2.8557E+01   2.1382E-05  0.0053
   2.8557E+01   2.9252E+01   2.1358E-05  0.0052
   2.9252E+01   2.9964E+01   2.1511E-05  0.0051
   2.9964E+01   3.0693E+01   2.1679E-05  0.0050
   3.0693E+01   3.1440E+01   2.1950E-05  0.0049
   3.1440E+01   3.2205E+01   2.1850E-05  0.0049
   3.2205E+01   3.2988E+01   2.2090E-05  0.0048
   3.2988E+01   3.3791E+01   2.2375E-05  0.0047
   3.3791E+01   3.4613E+01   2.2743E-05  0.0046
   3.4613E+01   3.5455E+01   2.3099E-05  0.0045
   3.5455E+01   3.6318E+01   2.3398E-05  0.0045
   3.6318E+01   3.7201E+01   2.3860E-05  0.0044
   3.7201E+01   3.8106E+01   2.4392E-05  0.0043
   3.8106E+01   3.9034E+01   2.4914E-05  0.0042
   3.9034E+01   3.9983E+01   2.5539E-05  0.0041
   3.9983E+01   4.0956E+01   2.6449E-05  0.0039
   4.0956E+01   4.1953E+01   2.7280E-05  0.0038
   4.1953E+01   4.2973E+01   2.8208E-05  0.0037
   4.2973E+01   4.4019E+01   2.9436E-05  0.0036
   4.4019E+01   4.5090E+01   3.0916E-05  0.0035
   4.5090E+01   4.6187E+01   3.2209E-05  0.0034
   4.6187E+01   4.7311E+01   3.4434E-05  0.0032
   4.7311E+01   4.8462E+01   3.6382E-05  0.0031
   4.8462E+01   4.9641E+01   3.8790E-05  0.0030
   4.9641E+01   5.0849E+01   4.1523E-05  0.0028
   5.0849E+01   5.2086E+01   4.4655E-05  0.0027
   5.2086E+01   5.3353E+01   4.8069E-05  0.0026
   5.3353E+01   5.4651E+01   5.2037E-05  0.0024
   5.4651E+01   5.5981E+01   5.6830E-05  0.0023
   5.5981E+01   5.7343E+01   6.2319E-05  0.0022
   5.7343E+01   5.8738E+01   6.8217E-05  0.0021
   5.8738E+01   6.0168E+01   7.5547E-05  0.0019
   6.0168E+01   6.1632E+01   8.3078E-05  0.0018
   6.1632E+01   6.3131E+01   9.1766E-05  0.0017
   6.3131E+01   6.4667E+01   1.0168E-04  0.0016
   6.4667E+01   6.6240E+01   1.1209E-04  0.0015
   6.6240E+01   6.7852E+01   1.2352E-04  0.0014
   6.7852E+01   6.9503E+01   1.3604E-04  0.0013
   6.9503E+01   7.1194E+01   1.4854E-04  0.0013
   7.1194E+01   7.2926E+01   1.6176E-04  0.0012
   7.2926E+01   7.4701E+01   1.7491E-04  0.0011
   7.4701E+01   7.6518E+01   1.8649E-04  0.0011
   7.6518E+01   7.8380E+01   1.9794E-04  0.0010
   7.8380E+01   8.0287E+01   2.0690E-04  0.0010
   8.0287E+01   8.2240E+01   2.1404E-04  0.0010
   8.2240E+01   8.4241E+01   2.1794E-04  0.0010
   8.4241E+01   8.6291E+01   2.1914E-04  0.0009
   8.6291E+01   8.8391E+01   2.1727E-04  0.0009
   8.8391E+01   9.0541E+01   2.1207E-04  0.0009
   9.0541E+01   9.2744E+01   2.0360E-04  0.0009
   9.2744E+01   9.5001E+01   1.9323E-04  0.0010
   9.5001E+01   9.7312E+01   1.7973E-04  0.0010
   9.7312E+01   9.9680E+01   1.6599E-04  0.0010
   9.9680E+01   1.0211E+02   1.5136E-04  0.0010
   1.0211E+02   1.0459E+02   1.3592E-04  0.0011
   1.0459E+02   1.0713E+02   1.2126E-04  0.0011
   1.0713E+02   1.0974E+02   1.0709E-04  0.0012
   1.0974E+02   1.1241E+02   9.3943E-05  0.0013
   1.1241E+02   1.1515E+02   8.2182E-05  0.0013
   1.1515E+02   1.1795E+02   7.1633E-05  0.0014
   1.1795E+02   1.2082E+02   6.1908E-05  0.0015
   1.2082E+02   1.2376E+02   5.3508E-05  0.0016
   1.2376E+02   1.2677E+02   4.6251E-05  0.0017
   1.2677E+02   1.2985E+02   3.9793E-05  0.0018
   1.2985E+02   1.3301E+02   3.4293E-05  0.0019
   1.3301E+02   1.3625E+02   2.9525E-05  0.0020
   1.3625E+02   1.3956E+02   2.5316E-05  0.0022
   1.3956E+02   1.4296E+02   2.1938E-05  0.0023
   1.4296E+02   1.4644E+02   1.8818E-05  0.0025
   1.4644E+02   1.5000E+02   1.6287E-05  0.0026

#   sum over                 9.1265E-05
'no. =    1   reg = 104 - 204'
msuc: {\huge [t-cross] in region mesh}
msdr: {\it plotted by \ANGEL \version}
msdl: {\it calculated by \PHITS  3.26}
wt: s(0.7)
\vspace{-3}
  region surface crossing
  area  &=&   1.0000E+00 [cm^2]
e:
 
# Information for Restart Calculation
# This calculation was newly started
# istdev =  2 # 1:Batch variance, 2:History variance
# resc2  = 2.50000000000000000E+09 # Total source weight or Total source weight / maxcas
# resc3  = 2.50000000000000000E+09 # Total history number or Total batch number
# maxcas =   500000000 # History / Batch, only used for istdev=1
# bitrseed = 1100001110001001100010001100011001110101000011000110100101010100 # bit data of rseed
