10 <--- remaining batch number

-------------------------------------------------------------------------------
 start calculation
-------------------------------------------------------------------------------

 date = 2022-09-17
 time = 06h 34m 39

