[ T-Cross ]
    title = [t-cross] in region mesh
     mesh =  reg            # mesh type is region-wise
      reg =    1            # number of crossing regions
      non     r-from    r-to       area
      1       112       212        1.000000    
   e-type =    3            # e-mesh is log given by emin, emax and ne
     emin =  1.0000000E-02  # minimum value of e-mesh points
     emax =   150.0000      # maximum value of e-mesh points
#    edel =  2.4039514E-02  # mesh width of e-mesh points
       ne =    400          # number of e-mesh points
#    data = ( e(i), i = 1, ne + 1 )
#           1.00000E-02  1.02433E-02  1.04925E-02  1.07478E-02  1.10093E-02
#           1.12772E-02  1.15516E-02  1.18326E-02  1.21205E-02  1.24154E-02
#           1.27175E-02  1.30269E-02  1.33439E-02  1.36686E-02  1.40011E-02
#           1.43418E-02  1.46907E-02  1.50482E-02  1.54143E-02  1.57894E-02
#           1.61735E-02  1.65670E-02  1.69701E-02  1.73830E-02  1.78060E-02
#           1.82392E-02  1.86830E-02  1.91375E-02  1.96032E-02  2.00801E-02
#           2.05687E-02  2.10692E-02  2.15818E-02  2.21069E-02  2.26448E-02
#           2.31957E-02  2.37601E-02  2.43382E-02  2.49304E-02  2.55369E-02
#           2.61583E-02  2.67947E-02  2.74467E-02  2.81145E-02  2.87985E-02
#           2.94992E-02  3.02169E-02  3.09521E-02  3.17052E-02  3.24766E-02
#           3.32668E-02  3.40762E-02  3.49053E-02  3.57546E-02  3.66246E-02
#           3.75157E-02  3.84284E-02  3.93634E-02  4.03212E-02  4.13022E-02
#           4.23071E-02  4.33365E-02  4.43909E-02  4.54710E-02  4.65773E-02
#           4.77106E-02  4.88714E-02  5.00605E-02  5.12785E-02  5.25262E-02
#           5.38042E-02  5.51133E-02  5.64542E-02  5.78278E-02  5.92348E-02
#           6.06760E-02  6.21523E-02  6.36645E-02  6.52135E-02  6.68002E-02
#           6.84255E-02  7.00904E-02  7.17957E-02  7.35426E-02  7.53319E-02
#           7.71648E-02  7.90423E-02  8.09655E-02  8.29354E-02  8.49533E-02
#           8.70203E-02  8.91376E-02  9.13064E-02  9.35279E-02  9.58035E-02
#           9.81345E-02  1.00522E-01  1.02968E-01  1.05473E-01  1.08040E-01
#           1.10668E-01  1.13361E-01  1.16119E-01  1.18944E-01  1.21838E-01
#           1.24803E-01  1.27839E-01  1.30950E-01  1.34136E-01  1.37399E-01
#           1.40742E-01  1.44167E-01  1.47675E-01  1.51268E-01  1.54948E-01
#           1.58718E-01  1.62580E-01  1.66535E-01  1.70587E-01  1.74738E-01
#           1.78989E-01  1.83344E-01  1.87805E-01  1.92375E-01  1.97055E-01
#           2.01850E-01  2.06761E-01  2.11792E-01  2.16945E-01  2.22223E-01
#           2.27630E-01  2.33169E-01  2.38842E-01  2.44653E-01  2.50605E-01
#           2.56703E-01  2.62949E-01  2.69346E-01  2.75900E-01  2.82613E-01
#           2.89489E-01  2.96532E-01  3.03747E-01  3.11138E-01  3.18708E-01
#           3.26462E-01  3.34405E-01  3.42542E-01  3.50876E-01  3.59413E-01
#           3.68158E-01  3.77116E-01  3.86291E-01  3.95690E-01  4.05317E-01
#           4.15179E-01  4.25281E-01  4.35628E-01  4.46227E-01  4.57084E-01
#           4.68205E-01  4.79597E-01  4.91266E-01  5.03219E-01  5.15463E-01
#           5.28005E-01  5.40851E-01  5.54011E-01  5.67490E-01  5.81298E-01
#           5.95441E-01  6.09929E-01  6.24769E-01  6.39970E-01  6.55541E-01
#           6.71491E-01  6.87828E-01  7.04564E-01  7.21706E-01  7.39266E-01
#           7.57253E-01  7.75678E-01  7.94551E-01  8.13883E-01  8.33685E-01
#           8.53969E-01  8.74747E-01  8.96030E-01  9.17831E-01  9.40163E-01
#           9.63038E-01  9.86469E-01  1.01047E+00  1.03506E+00  1.06024E+00
#           1.08604E+00  1.11246E+00  1.13953E+00  1.16725E+00  1.19565E+00
#           1.22474E+00  1.25454E+00  1.28507E+00  1.31633E+00  1.34836E+00
#           1.38117E+00  1.41477E+00  1.44920E+00  1.48446E+00  1.52057E+00
#           1.55757E+00  1.59547E+00  1.63429E+00  1.67405E+00  1.71478E+00
#           1.75650E+00  1.79924E+00  1.84302E+00  1.88786E+00  1.93379E+00
#           1.98084E+00  2.02904E+00  2.07841E+00  2.12898E+00  2.18078E+00
#           2.23384E+00  2.28819E+00  2.34386E+00  2.40089E+00  2.45930E+00
#           2.51914E+00  2.58043E+00  2.64322E+00  2.70753E+00  2.77341E+00
#           2.84088E+00  2.91001E+00  2.98081E+00  3.05333E+00  3.12762E+00
#           3.20372E+00  3.28167E+00  3.36152E+00  3.44330E+00  3.52708E+00
#           3.61290E+00  3.70080E+00  3.79085E+00  3.88308E+00  3.97756E+00
#           4.07434E+00  4.17347E+00  4.27501E+00  4.37903E+00  4.48557E+00
#           4.59471E+00  4.70650E+00  4.82102E+00  4.93832E+00  5.05847E+00
#           5.18155E+00  5.30762E+00  5.43676E+00  5.56904E+00  5.70453E+00
#           5.84333E+00  5.98550E+00  6.13114E+00  6.28031E+00  6.43312E+00
#           6.58964E+00  6.74997E+00  6.91420E+00  7.08243E+00  7.25475E+00
#           7.43126E+00  7.61207E+00  7.79728E+00  7.98700E+00  8.18133E+00
#           8.38038E+00  8.58428E+00  8.79315E+00  9.00709E+00  9.22624E+00
#           9.45072E+00  9.68067E+00  9.91620E+00  1.01575E+01  1.04046E+01
#           1.06578E+01  1.09171E+01  1.11827E+01  1.14548E+01  1.17335E+01
#           1.20190E+01  1.23114E+01  1.26109E+01  1.29178E+01  1.32321E+01
#           1.35540E+01  1.38838E+01  1.42216E+01  1.45676E+01  1.49221E+01
#           1.52851E+01  1.56570E+01  1.60380E+01  1.64282E+01  1.68279E+01
#           1.72374E+01  1.76568E+01  1.80864E+01  1.85264E+01  1.89772E+01
#           1.94389E+01  1.99119E+01  2.03963E+01  2.08926E+01  2.14009E+01
#           2.19216E+01  2.24550E+01  2.30014E+01  2.35610E+01  2.41343E+01
#           2.47215E+01  2.53230E+01  2.59391E+01  2.65702E+01  2.72167E+01
#           2.78789E+01  2.85572E+01  2.92520E+01  2.99637E+01  3.06928E+01
#           3.14396E+01  3.22045E+01  3.29881E+01  3.37907E+01  3.46128E+01
#           3.54550E+01  3.63177E+01  3.72013E+01  3.81064E+01  3.90336E+01
#           3.99833E+01  4.09561E+01  4.19526E+01  4.29734E+01  4.40189E+01
#           4.50900E+01  4.61870E+01  4.73108E+01  4.84619E+01  4.96410E+01
#           5.08488E+01  5.20860E+01  5.33533E+01  5.46514E+01  5.59812E+01
#           5.73432E+01  5.87384E+01  6.01676E+01  6.16315E+01  6.31311E+01
#           6.46671E+01  6.62405E+01  6.78522E+01  6.95031E+01  7.11941E+01
#           7.29263E+01  7.47007E+01  7.65182E+01  7.83800E+01  8.02870E+01
#           8.22405E+01  8.42414E+01  8.62911E+01  8.83906E+01  9.05412E+01
#           9.27442E+01  9.50007E+01  9.73122E+01  9.96799E+01  1.02105E+02
#           1.04589E+02  1.07134E+02  1.09741E+02  1.12411E+02  1.15146E+02
#           1.17948E+02  1.20817E+02  1.23757E+02  1.26768E+02  1.29852E+02
#           1.33012E+02  1.36248E+02  1.39563E+02  1.42959E+02  1.46437E+02
#           1.50000E+02
     unit =    2            # unit is [1/cm^2/(MeV/n)/source]
     axis =  eng            # axis of output
     file = detector-13.out  # file name of output for the above axis
   output = f-curr          # surface crossing forward current spectrum
     part =  neutron  
# kf/name :  2112     
#    used :        main (  %)        temp (  %)       total (  %)
#  memory :         414 (  0)           0 (  0)         414 (  0)

#------------------------------------------------------------------------------
#newpage:
#   no. =    1   reg = 112 - 212

x: Energy [MeV/n]
y:  F-Curr [1/cm^2/(MeV/n)/source]         
p: xlog ylog afac(0.8) form(0.9)
h: n            x            y(neutron ),hh0l   n 
#  e-lower      e-upper      neutron     r.err 
   1.0000E-02   1.0243E-02   1.2001E-04  0.0828
   1.0243E-02   1.0493E-02   1.0512E-04  0.0874
   1.0493E-02   1.0748E-02   1.0184E-04  0.0877
   1.0748E-02   1.1009E-02   1.0172E-04  0.0867
   1.1009E-02   1.1277E-02   9.9303E-05  0.0867
   1.1277E-02   1.1552E-02   9.9131E-05  0.0857
   1.1552E-02   1.1833E-02   1.0389E-04  0.0828
   1.1833E-02   1.2121E-02   1.0142E-04  0.0828
   1.2121E-02   1.2415E-02   9.6981E-05  0.0836
   1.2415E-02   1.2718E-02   1.0858E-04  0.0781
   1.2718E-02   1.3027E-02   1.0988E-04  0.0767
   1.3027E-02   1.3344E-02   9.0864E-05  0.0833
   1.3344E-02   1.3669E-02   9.8562E-05  0.0791
   1.3669E-02   1.4001E-02   1.0885E-04  0.0743
   1.4001E-02   1.4342E-02   9.8045E-05  0.0774
   1.4342E-02   1.4691E-02   1.1119E-04  0.0718
   1.4691E-02   1.5048E-02   1.0687E-04  0.0724
   1.5048E-02   1.5414E-02   9.1770E-05  0.0772
   1.5414E-02   1.5789E-02   9.9722E-05  0.0731
   1.5789E-02   1.6174E-02   1.0516E-04  0.0704
   1.6174E-02   1.6567E-02   1.0724E-04  0.0688
   1.6567E-02   1.6970E-02   1.0965E-04  0.0673
   1.6970E-02   1.7383E-02   1.0172E-04  0.0690
   1.7383E-02   1.7806E-02   1.0120E-04  0.0684
   1.7806E-02   1.8239E-02   9.8330E-05  0.0685
   1.8239E-02   1.8683E-02   1.0816E-04  0.0645
   1.8683E-02   1.9138E-02   9.9874E-05  0.0664
   1.9138E-02   1.9603E-02   1.0609E-04  0.0636
   1.9603E-02   2.0080E-02   1.1406E-04  0.0606
   2.0080E-02   2.0569E-02   1.0725E-04  0.0618
   2.0569E-02   2.1069E-02   1.1235E-04  0.0596
   2.1069E-02   2.1582E-02   1.0183E-04  0.0619
   2.1582E-02   2.2107E-02   9.9028E-05  0.0620
   2.2107E-02   2.2645E-02   1.0114E-04  0.0606
   2.2645E-02   2.3196E-02   9.6921E-05  0.0612
   2.3196E-02   2.3760E-02   1.0400E-04  0.0583
   2.3760E-02   2.4338E-02   1.0829E-04  0.0565
   2.4338E-02   2.4930E-02   9.5581E-05  0.0594
   2.4930E-02   2.5537E-02   9.9575E-05  0.0575
   2.5537E-02   2.6158E-02   1.0590E-04  0.0551
   2.6158E-02   2.6795E-02   1.0087E-04  0.0558
   2.6795E-02   2.7447E-02   1.0277E-04  0.0546
   2.7447E-02   2.8114E-02   1.0991E-04  0.0522
   2.8114E-02   2.8799E-02   1.0759E-04  0.0521
   2.8799E-02   2.9499E-02   1.0276E-04  0.0527
   2.9499E-02   3.0217E-02   9.6971E-05  0.0536
   3.0217E-02   3.0952E-02   1.0364E-04  0.0512
   3.0952E-02   3.1705E-02   1.0915E-04  0.0493
   3.1705E-02   3.2477E-02   1.0034E-04  0.0508
   3.2477E-02   3.3267E-02   1.0706E-04  0.0486
   3.3267E-02   3.4076E-02   1.0156E-04  0.0493
   3.4076E-02   3.4905E-02   1.0180E-04  0.0487
   3.4905E-02   3.5755E-02   9.1137E-05  0.0508
   3.5755E-02   3.6625E-02   9.9547E-05  0.0481
   3.6625E-02   3.7516E-02   1.0930E-04  0.0453
   3.7516E-02   3.8428E-02   1.0452E-04  0.0458
   3.8428E-02   3.9363E-02   1.0118E-04  0.0460
   3.9363E-02   4.0321E-02   1.0713E-04  0.0442
   4.0321E-02   4.1302E-02   1.0540E-04  0.0440
   4.1302E-02   4.2307E-02   1.0329E-04  0.0439
   4.2307E-02   4.3337E-02   1.0453E-04  0.0431
   4.3337E-02   4.4391E-02   1.0926E-04  0.0417
   4.4391E-02   4.5471E-02   1.0981E-04  0.0411
   4.5471E-02   4.6577E-02   1.0431E-04  0.0416
   4.6577E-02   4.7711E-02   1.0501E-04  0.0410
   4.7711E-02   4.8871E-02   1.0510E-04  0.0405
   4.8871E-02   5.0061E-02   1.0697E-04  0.0397
   5.0061E-02   5.1279E-02   1.0985E-04  0.0387
   5.1279E-02   5.2526E-02   1.0067E-04  0.0399
   5.2526E-02   5.3804E-02   1.0720E-04  0.0382
   5.3804E-02   5.5113E-02   1.0587E-04  0.0380
   5.5113E-02   5.6454E-02   9.9482E-05  0.0387
   5.6454E-02   5.7828E-02   1.0061E-04  0.0380
   5.7828E-02   5.9235E-02   1.0903E-04  0.0361
   5.9235E-02   6.0676E-02   1.0436E-04  0.0365
   6.0676E-02   6.2152E-02   1.0486E-04  0.0359
   6.2152E-02   6.3665E-02   1.0356E-04  0.0357
   6.3665E-02   6.5214E-02   1.0394E-04  0.0352
   6.5214E-02   6.6800E-02   1.0853E-04  0.0341
   6.6800E-02   6.8426E-02   1.0595E-04  0.0341
   6.8426E-02   7.0090E-02   1.0223E-04  0.0343
   7.0090E-02   7.1796E-02   1.1610E-04  0.0318
   7.1796E-02   7.3543E-02   1.1060E-04  0.0322
   7.3543E-02   7.5332E-02   1.1736E-04  0.0309
   7.5332E-02   7.7165E-02   1.1119E-04  0.0313
   7.7165E-02   7.9042E-02   1.1334E-04  0.0307
   7.9042E-02   8.0965E-02   1.1096E-04  0.0306
   8.0965E-02   8.2935E-02   1.1838E-04  0.0293
   8.2935E-02   8.4953E-02   1.1412E-04  0.0295
   8.4953E-02   8.7020E-02   1.1350E-04  0.0292
   8.7020E-02   8.9138E-02   1.0957E-04  0.0294
   8.9138E-02   9.1306E-02   1.1490E-04  0.0283
   9.1306E-02   9.3528E-02   1.1622E-04  0.0278
   9.3528E-02   9.5804E-02   1.1742E-04  0.0274
   9.5804E-02   9.8134E-02   1.1883E-04  0.0269
   9.8134E-02   1.0052E-01   1.1434E-04  0.0271
   1.0052E-01   1.0297E-01   1.1933E-04  0.0262
   1.0297E-01   1.0547E-01   1.1735E-04  0.0261
   1.0547E-01   1.0804E-01   1.1386E-04  0.0262
   1.0804E-01   1.1067E-01   1.1877E-04  0.0253
   1.1067E-01   1.1336E-01   1.1751E-04  0.0251
   1.1336E-01   1.1612E-01   1.2182E-04  0.0244
   1.1612E-01   1.1894E-01   1.1921E-04  0.0244
   1.1894E-01   1.2184E-01   1.2205E-04  0.0238
   1.2184E-01   1.2480E-01   1.2279E-04  0.0234
   1.2480E-01   1.2784E-01   1.2199E-04  0.0232
   1.2784E-01   1.3095E-01   1.2455E-04  0.0227
   1.3095E-01   1.3414E-01   1.2399E-04  0.0225
   1.3414E-01   1.3740E-01   1.2446E-04  0.0222
   1.3740E-01   1.4074E-01   1.2390E-04  0.0220
   1.4074E-01   1.4417E-01   1.2358E-04  0.0217
   1.4417E-01   1.4767E-01   1.2552E-04  0.0213
   1.4767E-01   1.5127E-01   1.2638E-04  0.0210
   1.5127E-01   1.5495E-01   1.2868E-04  0.0205
   1.5495E-01   1.5872E-01   1.2626E-04  0.0205
   1.5872E-01   1.6258E-01   1.2772E-04  0.0201
   1.6258E-01   1.6654E-01   1.2802E-04  0.0199
   1.6654E-01   1.7059E-01   1.2690E-04  0.0197
   1.7059E-01   1.7474E-01   1.2789E-04  0.0194
   1.7474E-01   1.7899E-01   1.3129E-04  0.0189
   1.7899E-01   1.8334E-01   1.2877E-04  0.0189
   1.8334E-01   1.8781E-01   1.2872E-04  0.0187
   1.8781E-01   1.9237E-01   1.3244E-04  0.0182
   1.9237E-01   1.9706E-01   1.3515E-04  0.0178
   1.9706E-01   2.0185E-01   1.3394E-04  0.0176
   2.0185E-01   2.0676E-01   1.3565E-04  0.0173
   2.0676E-01   2.1179E-01   1.3502E-04  0.0172
   2.1179E-01   2.1694E-01   1.3992E-04  0.0167
   2.1694E-01   2.2222E-01   1.3841E-04  0.0165
   2.2222E-01   2.2763E-01   1.3575E-04  0.0165
   2.2763E-01   2.3317E-01   1.4018E-04  0.0160
   2.3317E-01   2.3884E-01   1.4151E-04  0.0158
   2.3884E-01   2.4465E-01   1.3788E-04  0.0158
   2.4465E-01   2.5061E-01   1.4273E-04  0.0153
   2.5061E-01   2.5670E-01   1.4414E-04  0.0151
   2.5670E-01   2.6295E-01   1.4073E-04  0.0151
   2.6295E-01   2.6935E-01   1.4174E-04  0.0149
   2.6935E-01   2.7590E-01   1.4414E-04  0.0146
   2.7590E-01   2.8261E-01   1.4554E-04  0.0143
   2.8261E-01   2.8949E-01   1.4523E-04  0.0142
   2.8949E-01   2.9653E-01   1.4652E-04  0.0139
   2.9653E-01   3.0375E-01   1.4453E-04  0.0138
   3.0375E-01   3.1114E-01   1.4559E-04  0.0136
   3.1114E-01   3.1871E-01   1.5112E-04  0.0132
   3.1871E-01   3.2646E-01   1.4629E-04  0.0133
   3.2646E-01   3.3441E-01   1.4802E-04  0.0130
   3.3441E-01   3.4254E-01   1.4870E-04  0.0129
   3.4254E-01   3.5088E-01   1.5151E-04  0.0126
   3.5088E-01   3.5941E-01   1.4703E-04  0.0126
   3.5941E-01   3.6816E-01   1.5127E-04  0.0123
   3.6816E-01   3.7712E-01   1.5612E-04  0.0120
   3.7712E-01   3.8629E-01   1.5249E-04  0.0120
   3.8629E-01   3.9569E-01   1.5550E-04  0.0117
   3.9569E-01   4.0532E-01   1.5473E-04  0.0116
   4.0532E-01   4.1518E-01   1.4972E-04  0.0116
   4.1518E-01   4.2528E-01   1.5502E-04  0.0113
   4.2528E-01   4.3563E-01   1.5675E-04  0.0111
   4.3563E-01   4.4623E-01   1.5794E-04  0.0109
   4.4623E-01   4.5708E-01   1.5632E-04  0.0109
   4.5708E-01   4.6821E-01   1.5828E-04  0.0107
   4.6821E-01   4.7960E-01   1.5735E-04  0.0106
   4.7960E-01   4.9127E-01   1.5579E-04  0.0105
   4.9127E-01   5.0322E-01   1.5767E-04  0.0103
   5.0322E-01   5.1546E-01   1.5815E-04  0.0102
   5.1546E-01   5.2800E-01   1.6062E-04  0.0100
   5.2800E-01   5.4085E-01   1.5579E-04  0.0100
   5.4085E-01   5.5401E-01   1.6262E-04  0.0097
   5.5401E-01   5.6749E-01   1.6058E-04  0.0096
   5.6749E-01   5.8130E-01   1.5870E-04  0.0096
   5.8130E-01   5.9544E-01   1.6120E-04  0.0094
   5.9544E-01   6.0993E-01   1.6081E-04  0.0093
   6.0993E-01   6.2477E-01   1.6054E-04  0.0092
   6.2477E-01   6.3997E-01   1.6219E-04  0.0090
   6.3997E-01   6.5554E-01   1.5925E-04  0.0090
   6.5554E-01   6.7149E-01   1.5886E-04  0.0089
   6.7149E-01   6.8783E-01   1.5770E-04  0.0088
   6.8783E-01   7.0456E-01   1.5946E-04  0.0087
   7.0456E-01   7.2171E-01   1.5666E-04  0.0086
   7.2171E-01   7.3927E-01   1.5640E-04  0.0085
   7.3927E-01   7.5725E-01   1.5373E-04  0.0085
   7.5725E-01   7.7568E-01   1.5397E-04  0.0084
   7.7568E-01   7.9455E-01   1.5161E-04  0.0084
   7.9455E-01   8.1388E-01   1.5157E-04  0.0083
   8.1388E-01   8.3368E-01   1.4810E-04  0.0083
   8.3368E-01   8.5397E-01   1.4729E-04  0.0082
   8.5397E-01   8.7475E-01   1.4466E-04  0.0082
   8.7475E-01   8.9603E-01   1.4122E-04  0.0082
   8.9603E-01   9.1783E-01   1.3879E-04  0.0081
   9.1783E-01   9.4016E-01   1.3421E-04  0.0082
   9.4016E-01   9.6304E-01   1.2998E-04  0.0082
   9.6304E-01   9.8647E-01   1.2554E-04  0.0082
   9.8647E-01   1.0105E+00   1.2174E-04  0.0083
   1.0105E+00   1.0351E+00   1.2039E-04  0.0082
   1.0351E+00   1.0602E+00   1.2187E-04  0.0081
   1.0602E+00   1.0860E+00   1.2049E-04  0.0080
   1.0860E+00   1.1125E+00   1.2280E-04  0.0079
   1.1125E+00   1.1395E+00   1.2490E-04  0.0077
   1.1395E+00   1.1673E+00   1.2684E-04  0.0075
   1.1673E+00   1.1957E+00   1.2843E-04  0.0074
   1.1957E+00   1.2247E+00   1.3312E-04  0.0072
   1.2247E+00   1.2545E+00   1.3341E-04  0.0071
   1.2545E+00   1.2851E+00   1.3243E-04  0.0070
   1.2851E+00   1.3163E+00   1.3459E-04  0.0069
   1.3163E+00   1.3484E+00   1.3426E-04  0.0068
   1.3484E+00   1.3812E+00   1.3702E-04  0.0067
   1.3812E+00   1.4148E+00   1.3959E-04  0.0065
   1.4148E+00   1.4492E+00   1.3879E-04  0.0065
   1.4492E+00   1.4845E+00   1.3854E-04  0.0064
   1.4845E+00   1.5206E+00   1.4019E-04  0.0063
   1.5206E+00   1.5576E+00   1.3933E-04  0.0062
   1.5576E+00   1.5955E+00   1.4196E-04  0.0061
   1.5955E+00   1.6343E+00   1.4175E-04  0.0060
   1.6343E+00   1.6741E+00   1.4339E-04  0.0059
   1.6741E+00   1.7148E+00   1.4530E-04  0.0058
   1.7148E+00   1.7565E+00   1.4683E-04  0.0057
   1.7565E+00   1.7992E+00   1.4606E-04  0.0057
   1.7992E+00   1.8430E+00   1.4730E-04  0.0056
   1.8430E+00   1.8879E+00   1.4627E-04  0.0055
   1.8879E+00   1.9338E+00   1.4744E-04  0.0054
   1.9338E+00   1.9808E+00   1.4844E-04  0.0054
   1.9808E+00   2.0290E+00   1.4932E-04  0.0053
   2.0290E+00   2.0784E+00   1.4943E-04  0.0052
   2.0784E+00   2.1290E+00   1.4681E-04  0.0052
   2.1290E+00   2.1808E+00   1.4731E-04  0.0051
   2.1808E+00   2.2338E+00   1.4623E-04  0.0051
   2.2338E+00   2.2882E+00   1.4501E-04  0.0050
   2.2882E+00   2.3439E+00   1.4651E-04  0.0050
   2.3439E+00   2.4009E+00   1.4551E-04  0.0049
   2.4009E+00   2.4593E+00   1.4730E-04  0.0048
   2.4593E+00   2.5191E+00   1.4531E-04  0.0048
   2.5191E+00   2.5804E+00   1.4431E-04  0.0048
   2.5804E+00   2.6432E+00   1.4440E-04  0.0047
   2.6432E+00   2.7075E+00   1.4257E-04  0.0047
   2.7075E+00   2.7734E+00   1.4024E-04  0.0046
   2.7734E+00   2.8409E+00   1.4067E-04  0.0046
   2.8409E+00   2.9100E+00   1.4068E-04  0.0045
   2.9100E+00   2.9808E+00   1.3983E-04  0.0045
   2.9808E+00   3.0533E+00   1.3819E-04  0.0045
   3.0533E+00   3.1276E+00   1.3484E-04  0.0045
   3.1276E+00   3.2037E+00   1.3294E-04  0.0044
   3.2037E+00   3.2817E+00   1.3159E-04  0.0044
   3.2817E+00   3.3615E+00   1.2802E-04  0.0044
   3.3615E+00   3.4433E+00   1.2682E-04  0.0044
   3.4433E+00   3.5271E+00   1.2692E-04  0.0043
   3.5271E+00   3.6129E+00   1.2404E-04  0.0043
   3.6129E+00   3.7008E+00   1.2103E-04  0.0043
   3.7008E+00   3.7908E+00   1.1874E-04  0.0043
   3.7908E+00   3.8831E+00   1.1608E-04  0.0043
   3.8831E+00   3.9776E+00   1.1331E-04  0.0043
   3.9776E+00   4.0743E+00   1.1181E-04  0.0043
   4.0743E+00   4.1735E+00   1.0784E-04  0.0043
   4.1735E+00   4.2750E+00   1.0456E-04  0.0043
   4.2750E+00   4.3790E+00   1.0270E-04  0.0043
   4.3790E+00   4.4856E+00   9.9287E-05  0.0043
   4.4856E+00   4.5947E+00   9.6142E-05  0.0044
   4.5947E+00   4.7065E+00   9.3081E-05  0.0044
   4.7065E+00   4.8210E+00   9.0031E-05  0.0044
   4.8210E+00   4.9383E+00   8.7590E-05  0.0044
   4.9383E+00   5.0585E+00   8.4430E-05  0.0044
   5.0585E+00   5.1815E+00   8.0395E-05  0.0045
   5.1815E+00   5.3076E+00   7.6798E-05  0.0045
   5.3076E+00   5.4368E+00   7.4559E-05  0.0045
   5.4368E+00   5.5690E+00   7.1468E-05  0.0046
   5.5690E+00   5.7045E+00   6.8685E-05  0.0046
   5.7045E+00   5.8433E+00   6.5253E-05  0.0047
   5.8433E+00   5.9855E+00   6.3187E-05  0.0047
   5.9855E+00   6.1311E+00   5.9804E-05  0.0048
   6.1311E+00   6.2803E+00   5.7248E-05  0.0048
   6.2803E+00   6.4331E+00   5.4251E-05  0.0049
   6.4331E+00   6.5896E+00   5.2243E-05  0.0049
   6.5896E+00   6.7500E+00   4.9016E-05  0.0050
   6.7500E+00   6.9142E+00   4.6527E-05  0.0051
   6.9142E+00   7.0824E+00   4.4099E-05  0.0052
   7.0824E+00   7.2548E+00   4.2363E-05  0.0052
   7.2548E+00   7.4313E+00   4.0249E-05  0.0053
   7.4313E+00   7.6121E+00   3.7974E-05  0.0054
   7.6121E+00   7.7973E+00   3.6099E-05  0.0055
   7.7973E+00   7.9870E+00   3.4376E-05  0.0055
   7.9870E+00   8.1813E+00   3.2289E-05  0.0056
   8.1813E+00   8.3804E+00   3.0843E-05  0.0057
   8.3804E+00   8.5843E+00   2.9001E-05  0.0058
   8.5843E+00   8.7931E+00   2.7443E-05  0.0059
   8.7931E+00   9.0071E+00   2.6097E-05  0.0060
   9.0071E+00   9.2262E+00   2.4760E-05  0.0061
   9.2262E+00   9.4507E+00   2.3673E-05  0.0061
   9.4507E+00   9.6807E+00   2.2621E-05  0.0062
   9.6807E+00   9.9162E+00   2.1336E-05  0.0063
   9.9162E+00   1.0157E+01   2.0350E-05  0.0064
   1.0157E+01   1.0405E+01   1.9433E-05  0.0064
   1.0405E+01   1.0658E+01   1.8471E-05  0.0065
   1.0658E+01   1.0917E+01   1.7719E-05  0.0066
   1.0917E+01   1.1183E+01   1.7183E-05  0.0066
   1.1183E+01   1.1455E+01   1.6184E-05  0.0067
   1.1455E+01   1.1733E+01   1.5574E-05  0.0068
   1.1733E+01   1.2019E+01   1.4842E-05  0.0069
   1.2019E+01   1.2311E+01   1.4328E-05  0.0069
   1.2311E+01   1.2611E+01   1.3469E-05  0.0070
   1.2611E+01   1.2918E+01   1.3270E-05  0.0070
   1.2918E+01   1.3232E+01   1.2355E-05  0.0072
   1.3232E+01   1.3554E+01   1.2033E-05  0.0072
   1.3554E+01   1.3884E+01   1.1628E-05  0.0072
   1.3884E+01   1.4222E+01   1.1156E-05  0.0073
   1.4222E+01   1.4568E+01   1.0631E-05  0.0074
   1.4568E+01   1.4922E+01   1.0295E-05  0.0074
   1.4922E+01   1.5285E+01   9.8305E-06  0.0075
   1.5285E+01   1.5657E+01   9.4076E-06  0.0076
   1.5657E+01   1.6038E+01   9.0467E-06  0.0076
   1.6038E+01   1.6428E+01   8.6168E-06  0.0077
   1.6428E+01   1.6828E+01   8.1861E-06  0.0078
   1.6828E+01   1.7237E+01   7.8600E-06  0.0079
   1.7237E+01   1.7657E+01   7.3479E-06  0.0081
   1.7657E+01   1.8086E+01   7.0718E-06  0.0081
   1.8086E+01   1.8526E+01   6.7119E-06  0.0082
   1.8526E+01   1.8977E+01   6.3897E-06  0.0083
   1.8977E+01   1.9439E+01   5.9915E-06  0.0085
   1.9439E+01   1.9912E+01   5.5418E-06  0.0087
   1.9912E+01   2.0396E+01   5.2284E-06  0.0089
   2.0396E+01   2.0893E+01   5.0026E-06  0.0090
   2.0893E+01   2.1401E+01   4.6981E-06  0.0092
   2.1401E+01   2.1922E+01   4.3476E-06  0.0094
   2.1922E+01   2.2455E+01   4.0253E-06  0.0097
   2.2455E+01   2.3001E+01   3.7914E-06  0.0098
   2.3001E+01   2.3561E+01   3.4997E-06  0.0101
   2.3561E+01   2.4134E+01   3.1905E-06  0.0105
   2.4134E+01   2.4721E+01   2.9070E-06  0.0108
   2.4721E+01   2.5323E+01   2.6408E-06  0.0112
   2.5323E+01   2.5939E+01   2.4245E-06  0.0116
   2.5939E+01   2.6570E+01   2.1489E-06  0.0121
   2.6570E+01   2.7217E+01   1.9215E-06  0.0127
   2.7217E+01   2.7879E+01   1.7475E-06  0.0131
   2.7879E+01   2.8557E+01   1.5205E-06  0.0139
   2.8557E+01   2.9252E+01   1.3543E-06  0.0146
   2.9252E+01   2.9964E+01   1.1732E-06  0.0155
   2.9964E+01   3.0693E+01   1.0213E-06  0.0164
   3.0693E+01   3.1440E+01   8.1363E-07  0.0181
   3.1440E+01   3.2205E+01   7.2162E-07  0.0190
   3.2205E+01   3.2988E+01   5.8987E-07  0.0208
   3.2988E+01   3.3791E+01   5.0185E-07  0.0223
   3.3791E+01   3.4613E+01   3.7244E-07  0.0256
   3.4613E+01   3.5455E+01   2.8023E-07  0.0291
   3.5455E+01   3.6318E+01   2.1886E-07  0.0325
   3.6318E+01   3.7201E+01   1.6681E-07  0.0368
   3.7201E+01   3.8106E+01   1.0142E-07  0.0467
   3.8106E+01   3.9034E+01   6.5145E-08  0.0575
   3.9034E+01   3.9983E+01   3.8327E-08  0.0741
   3.9983E+01   4.0956E+01   1.7269E-08  0.1091
   4.0956E+01   4.1953E+01   4.6162E-09  0.2085
   4.1953E+01   4.2973E+01   0.0000E+00  0.0000
   4.2973E+01   4.4019E+01   0.0000E+00  0.0000
   4.4019E+01   4.5090E+01   0.0000E+00  0.0000
   4.5090E+01   4.6187E+01   0.0000E+00  0.0000
   4.6187E+01   4.7311E+01   0.0000E+00  0.0000
   4.7311E+01   4.8462E+01   0.0000E+00  0.0000
   4.8462E+01   4.9641E+01   0.0000E+00  0.0000
   4.9641E+01   5.0849E+01   0.0000E+00  0.0000
   5.0849E+01   5.2086E+01   0.0000E+00  0.0000
   5.2086E+01   5.3353E+01   0.0000E+00  0.0000
   5.3353E+01   5.4651E+01   0.0000E+00  0.0000
   5.4651E+01   5.5981E+01   0.0000E+00  0.0000
   5.5981E+01   5.7343E+01   0.0000E+00  0.0000
   5.7343E+01   5.8738E+01   0.0000E+00  0.0000
   5.8738E+01   6.0168E+01   0.0000E+00  0.0000
   6.0168E+01   6.1632E+01   0.0000E+00  0.0000
   6.1632E+01   6.3131E+01   0.0000E+00  0.0000
   6.3131E+01   6.4667E+01   0.0000E+00  0.0000
   6.4667E+01   6.6240E+01   0.0000E+00  0.0000
   6.6240E+01   6.7852E+01   0.0000E+00  0.0000
   6.7852E+01   6.9503E+01   0.0000E+00  0.0000
   6.9503E+01   7.1194E+01   0.0000E+00  0.0000
   7.1194E+01   7.2926E+01   0.0000E+00  0.0000
   7.2926E+01   7.4701E+01   0.0000E+00  0.0000
   7.4701E+01   7.6518E+01   0.0000E+00  0.0000
   7.6518E+01   7.8380E+01   0.0000E+00  0.0000
   7.8380E+01   8.0287E+01   0.0000E+00  0.0000
   8.0287E+01   8.2240E+01   0.0000E+00  0.0000
   8.2240E+01   8.4241E+01   0.0000E+00  0.0000
   8.4241E+01   8.6291E+01   0.0000E+00  0.0000
   8.6291E+01   8.8391E+01   0.0000E+00  0.0000
   8.8391E+01   9.0541E+01   0.0000E+00  0.0000
   9.0541E+01   9.2744E+01   0.0000E+00  0.0000
   9.2744E+01   9.5001E+01   0.0000E+00  0.0000
   9.5001E+01   9.7312E+01   0.0000E+00  0.0000
   9.7312E+01   9.9680E+01   0.0000E+00  0.0000
   9.9680E+01   1.0211E+02   0.0000E+00  0.0000
   1.0211E+02   1.0459E+02   0.0000E+00  0.0000
   1.0459E+02   1.0713E+02   0.0000E+00  0.0000
   1.0713E+02   1.0974E+02   0.0000E+00  0.0000
   1.0974E+02   1.1241E+02   0.0000E+00  0.0000
   1.1241E+02   1.1515E+02   0.0000E+00  0.0000
   1.1515E+02   1.1795E+02   0.0000E+00  0.0000
   1.1795E+02   1.2082E+02   0.0000E+00  0.0000
   1.2082E+02   1.2376E+02   0.0000E+00  0.0000
   1.2376E+02   1.2677E+02   0.0000E+00  0.0000
   1.2677E+02   1.2985E+02   0.0000E+00  0.0000
   1.2985E+02   1.3301E+02   0.0000E+00  0.0000
   1.3301E+02   1.3625E+02   0.0000E+00  0.0000
   1.3625E+02   1.3956E+02   0.0000E+00  0.0000
   1.3956E+02   1.4296E+02   0.0000E+00  0.0000
   1.4296E+02   1.4644E+02   0.0000E+00  0.0000
   1.4644E+02   1.5000E+02   0.0000E+00  0.0000

#   sum over                 6.6783E-06
'no. =    1   reg = 112 - 212'
msuc: {\huge [t-cross] in region mesh}
msdr: {\it plotted by \ANGEL \version}
msdl: {\it calculated by \PHITS  3.26}
wt: s(0.7)
\vspace{-3}
  region surface crossing
  area  &=&   1.0000E+00 [cm^2]
e:
 
# Information for Restart Calculation
# This calculation was newly started
# istdev =  2 # 1:Batch variance, 2:History variance
# resc2  = 5.00000000000000000E+09 # Total source weight or Total source weight / maxcas
# resc3  = 5.00000000000000000E+09 # Total history number or Total batch number
# maxcas =   100000000 # History / Batch, only used for istdev=1
# bitrseed = 0110100000100010111000001110001111001110100100011111101000111001 # bit data of rseed
