[ T-Cross ]
    title = [t-cross] in region mesh
     mesh =  reg            # mesh type is region-wise
      reg =    1            # number of crossing regions
      non     r-from    r-to       area
      1       126       226        1.000000    
   e-type =    3            # e-mesh is log given by emin, emax and ne
     emin =  1.0000000E-02  # minimum value of e-mesh points
     emax =   150.0000      # maximum value of e-mesh points
#    edel =  2.4039514E-02  # mesh width of e-mesh points
       ne =    400          # number of e-mesh points
#    data = ( e(i), i = 1, ne + 1 )
#           1.00000E-02  1.02433E-02  1.04925E-02  1.07478E-02  1.10093E-02
#           1.12772E-02  1.15516E-02  1.18326E-02  1.21205E-02  1.24154E-02
#           1.27175E-02  1.30269E-02  1.33439E-02  1.36686E-02  1.40011E-02
#           1.43418E-02  1.46907E-02  1.50482E-02  1.54143E-02  1.57894E-02
#           1.61735E-02  1.65670E-02  1.69701E-02  1.73830E-02  1.78060E-02
#           1.82392E-02  1.86830E-02  1.91375E-02  1.96032E-02  2.00801E-02
#           2.05687E-02  2.10692E-02  2.15818E-02  2.21069E-02  2.26448E-02
#           2.31957E-02  2.37601E-02  2.43382E-02  2.49304E-02  2.55369E-02
#           2.61583E-02  2.67947E-02  2.74467E-02  2.81145E-02  2.87985E-02
#           2.94992E-02  3.02169E-02  3.09521E-02  3.17052E-02  3.24766E-02
#           3.32668E-02  3.40762E-02  3.49053E-02  3.57546E-02  3.66246E-02
#           3.75157E-02  3.84284E-02  3.93634E-02  4.03212E-02  4.13022E-02
#           4.23071E-02  4.33365E-02  4.43909E-02  4.54710E-02  4.65773E-02
#           4.77106E-02  4.88714E-02  5.00605E-02  5.12785E-02  5.25262E-02
#           5.38042E-02  5.51133E-02  5.64542E-02  5.78278E-02  5.92348E-02
#           6.06760E-02  6.21523E-02  6.36645E-02  6.52135E-02  6.68002E-02
#           6.84255E-02  7.00904E-02  7.17957E-02  7.35426E-02  7.53319E-02
#           7.71648E-02  7.90423E-02  8.09655E-02  8.29354E-02  8.49533E-02
#           8.70203E-02  8.91376E-02  9.13064E-02  9.35279E-02  9.58035E-02
#           9.81345E-02  1.00522E-01  1.02968E-01  1.05473E-01  1.08040E-01
#           1.10668E-01  1.13361E-01  1.16119E-01  1.18944E-01  1.21838E-01
#           1.24803E-01  1.27839E-01  1.30950E-01  1.34136E-01  1.37399E-01
#           1.40742E-01  1.44167E-01  1.47675E-01  1.51268E-01  1.54948E-01
#           1.58718E-01  1.62580E-01  1.66535E-01  1.70587E-01  1.74738E-01
#           1.78989E-01  1.83344E-01  1.87805E-01  1.92375E-01  1.97055E-01
#           2.01850E-01  2.06761E-01  2.11792E-01  2.16945E-01  2.22223E-01
#           2.27630E-01  2.33169E-01  2.38842E-01  2.44653E-01  2.50605E-01
#           2.56703E-01  2.62949E-01  2.69346E-01  2.75900E-01  2.82613E-01
#           2.89489E-01  2.96532E-01  3.03747E-01  3.11138E-01  3.18708E-01
#           3.26462E-01  3.34405E-01  3.42542E-01  3.50876E-01  3.59413E-01
#           3.68158E-01  3.77116E-01  3.86291E-01  3.95690E-01  4.05317E-01
#           4.15179E-01  4.25281E-01  4.35628E-01  4.46227E-01  4.57084E-01
#           4.68205E-01  4.79597E-01  4.91266E-01  5.03219E-01  5.15463E-01
#           5.28005E-01  5.40851E-01  5.54011E-01  5.67490E-01  5.81298E-01
#           5.95441E-01  6.09929E-01  6.24769E-01  6.39970E-01  6.55541E-01
#           6.71491E-01  6.87828E-01  7.04564E-01  7.21706E-01  7.39266E-01
#           7.57253E-01  7.75678E-01  7.94551E-01  8.13883E-01  8.33685E-01
#           8.53969E-01  8.74747E-01  8.96030E-01  9.17831E-01  9.40163E-01
#           9.63038E-01  9.86469E-01  1.01047E+00  1.03506E+00  1.06024E+00
#           1.08604E+00  1.11246E+00  1.13953E+00  1.16725E+00  1.19565E+00
#           1.22474E+00  1.25454E+00  1.28507E+00  1.31633E+00  1.34836E+00
#           1.38117E+00  1.41477E+00  1.44920E+00  1.48446E+00  1.52057E+00
#           1.55757E+00  1.59547E+00  1.63429E+00  1.67405E+00  1.71478E+00
#           1.75650E+00  1.79924E+00  1.84302E+00  1.88786E+00  1.93379E+00
#           1.98084E+00  2.02904E+00  2.07841E+00  2.12898E+00  2.18078E+00
#           2.23384E+00  2.28819E+00  2.34386E+00  2.40089E+00  2.45930E+00
#           2.51914E+00  2.58043E+00  2.64322E+00  2.70753E+00  2.77341E+00
#           2.84088E+00  2.91001E+00  2.98081E+00  3.05333E+00  3.12762E+00
#           3.20372E+00  3.28167E+00  3.36152E+00  3.44330E+00  3.52708E+00
#           3.61290E+00  3.70080E+00  3.79085E+00  3.88308E+00  3.97756E+00
#           4.07434E+00  4.17347E+00  4.27501E+00  4.37903E+00  4.48557E+00
#           4.59471E+00  4.70650E+00  4.82102E+00  4.93832E+00  5.05847E+00
#           5.18155E+00  5.30762E+00  5.43676E+00  5.56904E+00  5.70453E+00
#           5.84333E+00  5.98550E+00  6.13114E+00  6.28031E+00  6.43312E+00
#           6.58964E+00  6.74997E+00  6.91420E+00  7.08243E+00  7.25475E+00
#           7.43126E+00  7.61207E+00  7.79728E+00  7.98700E+00  8.18133E+00
#           8.38038E+00  8.58428E+00  8.79315E+00  9.00709E+00  9.22624E+00
#           9.45072E+00  9.68067E+00  9.91620E+00  1.01575E+01  1.04046E+01
#           1.06578E+01  1.09171E+01  1.11827E+01  1.14548E+01  1.17335E+01
#           1.20190E+01  1.23114E+01  1.26109E+01  1.29178E+01  1.32321E+01
#           1.35540E+01  1.38838E+01  1.42216E+01  1.45676E+01  1.49221E+01
#           1.52851E+01  1.56570E+01  1.60380E+01  1.64282E+01  1.68279E+01
#           1.72374E+01  1.76568E+01  1.80864E+01  1.85264E+01  1.89772E+01
#           1.94389E+01  1.99119E+01  2.03963E+01  2.08926E+01  2.14009E+01
#           2.19216E+01  2.24550E+01  2.30014E+01  2.35610E+01  2.41343E+01
#           2.47215E+01  2.53230E+01  2.59391E+01  2.65702E+01  2.72167E+01
#           2.78789E+01  2.85572E+01  2.92520E+01  2.99637E+01  3.06928E+01
#           3.14396E+01  3.22045E+01  3.29881E+01  3.37907E+01  3.46128E+01
#           3.54550E+01  3.63177E+01  3.72013E+01  3.81064E+01  3.90336E+01
#           3.99833E+01  4.09561E+01  4.19526E+01  4.29734E+01  4.40189E+01
#           4.50900E+01  4.61870E+01  4.73108E+01  4.84619E+01  4.96410E+01
#           5.08488E+01  5.20860E+01  5.33533E+01  5.46514E+01  5.59812E+01
#           5.73432E+01  5.87384E+01  6.01676E+01  6.16315E+01  6.31311E+01
#           6.46671E+01  6.62405E+01  6.78522E+01  6.95031E+01  7.11941E+01
#           7.29263E+01  7.47007E+01  7.65182E+01  7.83800E+01  8.02870E+01
#           8.22405E+01  8.42414E+01  8.62911E+01  8.83906E+01  9.05412E+01
#           9.27442E+01  9.50007E+01  9.73122E+01  9.96799E+01  1.02105E+02
#           1.04589E+02  1.07134E+02  1.09741E+02  1.12411E+02  1.15146E+02
#           1.17948E+02  1.20817E+02  1.23757E+02  1.26768E+02  1.29852E+02
#           1.33012E+02  1.36248E+02  1.39563E+02  1.42959E+02  1.46437E+02
#           1.50000E+02
     unit =    2            # unit is [1/cm^2/(MeV/n)/source]
     axis =  eng            # axis of output
     file = detector-27.out  # file name of output for the above axis
   output = f-curr          # surface crossing forward current spectrum
     part =  neutron  
# kf/name :  2112     
#    used :        main (  %)        temp (  %)       total (  %)
#  memory :         414 (  0)           0 (  0)         414 (  0)

#------------------------------------------------------------------------------
#newpage:
#   no. =    1   reg = 126 - 226

x: Energy [MeV/n]
y:  F-Curr [1/cm^2/(MeV/n)/source]         
p: xlog ylog afac(0.8) form(0.9)
h: n            x            y(neutron ),hh0l   n 
#  e-lower      e-upper      neutron     r.err 
   1.0000E-02   1.0243E-02   7.0692E-03  0.0341
   1.0243E-02   1.0493E-02   6.8451E-03  0.0342
   1.0493E-02   1.0748E-02   7.2231E-03  0.0329
   1.0748E-02   1.1009E-02   7.4110E-03  0.0321
   1.1009E-02   1.1277E-02   6.8990E-03  0.0329
   1.1277E-02   1.1552E-02   6.7424E-03  0.0329
   1.1552E-02   1.1833E-02   6.7459E-03  0.0325
   1.1833E-02   1.2121E-02   6.1758E-03  0.0335
   1.2121E-02   1.2415E-02   6.3275E-03  0.0327
   1.2415E-02   1.2718E-02   6.4487E-03  0.0320
   1.2718E-02   1.3027E-02   6.5670E-03  0.0314
   1.3027E-02   1.3344E-02   6.0639E-03  0.0323
   1.3344E-02   1.3669E-02   6.1786E-03  0.0316
   1.3669E-02   1.4001E-02   5.9838E-03  0.0317
   1.4001E-02   1.4342E-02   5.8945E-03  0.0316
   1.4342E-02   1.4691E-02   5.8462E-03  0.0313
   1.4691E-02   1.5048E-02   5.7241E-03  0.0313
   1.5048E-02   1.5414E-02   5.3150E-03  0.0321
   1.5414E-02   1.5789E-02   5.3114E-03  0.0317
   1.5789E-02   1.6174E-02   5.0291E-03  0.0322
   1.6174E-02   1.6567E-02   5.3823E-03  0.0307
   1.6567E-02   1.6970E-02   5.1601E-03  0.0310
   1.6970E-02   1.7383E-02   5.0085E-03  0.0311
   1.7383E-02   1.7806E-02   4.9227E-03  0.0310
   1.7806E-02   1.8239E-02   4.7596E-03  0.0311
   1.8239E-02   1.8683E-02   4.8854E-03  0.0304
   1.8683E-02   1.9138E-02   4.6197E-03  0.0309
   1.9138E-02   1.9603E-02   4.3597E-03  0.0314
   1.9603E-02   2.0080E-02   4.4637E-03  0.0306
   2.0080E-02   2.0569E-02   4.3679E-03  0.0306
   2.0569E-02   2.1069E-02   4.6198E-03  0.0294
   2.1069E-02   2.1582E-02   4.3267E-03  0.0300
   2.1582E-02   2.2107E-02   4.0564E-03  0.0306
   2.2107E-02   2.2645E-02   4.1943E-03  0.0298
   2.2645E-02   2.3196E-02   3.8986E-03  0.0305
   2.3196E-02   2.3760E-02   4.0293E-03  0.0297
   2.3760E-02   2.4338E-02   3.8229E-03  0.0301
   2.4338E-02   2.4930E-02   4.0090E-03  0.0290
   2.4930E-02   2.5537E-02   3.6434E-03  0.0301
   2.5537E-02   2.6158E-02   3.9431E-03  0.0286
   2.6158E-02   2.6795E-02   3.5572E-03  0.0297
   2.6795E-02   2.7447E-02   3.5770E-03  0.0293
   2.7447E-02   2.8114E-02   3.3992E-03  0.0297
   2.8114E-02   2.8799E-02   3.4559E-03  0.0291
   2.8799E-02   2.9499E-02   3.4380E-03  0.0288
   2.9499E-02   3.0217E-02   3.3801E-03  0.0287
   3.0217E-02   3.0952E-02   3.4331E-03  0.0281
   3.0952E-02   3.1705E-02   3.2001E-03  0.0288
   3.1705E-02   3.2477E-02   3.2615E-03  0.0282
   3.2477E-02   3.3267E-02   3.0297E-03  0.0289
   3.3267E-02   3.4076E-02   3.0689E-03  0.0284
   3.4076E-02   3.4905E-02   2.9550E-03  0.0286
   3.4905E-02   3.5755E-02   2.8047E-03  0.0290
   3.5755E-02   3.6625E-02   2.9841E-03  0.0278
   3.6625E-02   3.7516E-02   2.9559E-03  0.0276
   3.7516E-02   3.8428E-02   2.8375E-03  0.0278
   3.8428E-02   3.9363E-02   2.7508E-03  0.0279
   3.9363E-02   4.0321E-02   2.6395E-03  0.0281
   4.0321E-02   4.1302E-02   2.6971E-03  0.0275
   4.1302E-02   4.2307E-02   2.5296E-03  0.0280
   4.2307E-02   4.3337E-02   2.7279E-03  0.0267
   4.3337E-02   4.4391E-02   2.4260E-03  0.0280
   4.4391E-02   4.5471E-02   2.4387E-03  0.0276
   4.5471E-02   4.6577E-02   2.4314E-03  0.0273
   4.6577E-02   4.7711E-02   2.3878E-03  0.0272
   4.7711E-02   4.8871E-02   2.3483E-03  0.0271
   4.8871E-02   5.0061E-02   2.2471E-03  0.0274
   5.0061E-02   5.1279E-02   2.3284E-03  0.0266
   5.1279E-02   5.2526E-02   2.2971E-03  0.0264
   5.2526E-02   5.3804E-02   2.1659E-03  0.0269
   5.3804E-02   5.5113E-02   2.0518E-03  0.0273
   5.5113E-02   5.6454E-02   2.1000E-03  0.0267
   5.6454E-02   5.7828E-02   2.0647E-03  0.0266
   5.7828E-02   5.9235E-02   2.1194E-03  0.0259
   5.9235E-02   6.0676E-02   2.0455E-03  0.0260
   6.0676E-02   6.2152E-02   1.9766E-03  0.0262
   6.2152E-02   6.3665E-02   1.9323E-03  0.0262
   6.3665E-02   6.5214E-02   1.9006E-03  0.0261
   6.5214E-02   6.6800E-02   1.8390E-03  0.0262
   6.6800E-02   6.8426E-02   1.8470E-03  0.0258
   6.8426E-02   7.0090E-02   1.8404E-03  0.0255
   7.0090E-02   7.1796E-02   1.7533E-03  0.0259
   7.1796E-02   7.3543E-02   1.6681E-03  0.0262
   7.3543E-02   7.5332E-02   1.7179E-03  0.0255
   7.5332E-02   7.7165E-02   1.7011E-03  0.0253
   7.7165E-02   7.9042E-02   1.6277E-03  0.0256
   7.9042E-02   8.0965E-02   1.6265E-03  0.0253
   8.0965E-02   8.2935E-02   1.5635E-03  0.0255
   8.2935E-02   8.4953E-02   1.5947E-03  0.0249
   8.4953E-02   8.7020E-02   1.4674E-03  0.0257
   8.7020E-02   8.9138E-02   1.4934E-03  0.0251
   8.9138E-02   9.1306E-02   1.4847E-03  0.0249
   9.1306E-02   9.3528E-02   1.4593E-03  0.0248
   9.3528E-02   9.5804E-02   1.4396E-03  0.0247
   9.5804E-02   9.8134E-02   1.3831E-03  0.0249
   9.8134E-02   1.0052E-01   1.4592E-03  0.0240
   1.0052E-01   1.0297E-01   1.3983E-03  0.0242
   1.0297E-01   1.0547E-01   1.3260E-03  0.0245
   1.0547E-01   1.0804E-01   1.3374E-03  0.0241
   1.0804E-01   1.1067E-01   1.2873E-03  0.0243
   1.1067E-01   1.1336E-01   1.2731E-03  0.0242
   1.1336E-01   1.1612E-01   1.2726E-03  0.0239
   1.1612E-01   1.1894E-01   1.2098E-03  0.0242
   1.1894E-01   1.2184E-01   1.2156E-03  0.0238
   1.2184E-01   1.2480E-01   1.1496E-03  0.0242
   1.2480E-01   1.2784E-01   1.1526E-03  0.0239
   1.2784E-01   1.3095E-01   1.1246E-03  0.0239
   1.3095E-01   1.3414E-01   1.1224E-03  0.0236
   1.3414E-01   1.3740E-01   1.1025E-03  0.0236
   1.3740E-01   1.4074E-01   1.0930E-03  0.0234
   1.4074E-01   1.4417E-01   1.0825E-03  0.0232
   1.4417E-01   1.4767E-01   1.0468E-03  0.0233
   1.4767E-01   1.5127E-01   1.0476E-03  0.0231
   1.5127E-01   1.5495E-01   1.0482E-03  0.0228
   1.5495E-01   1.5872E-01   1.0021E-03  0.0230
   1.5872E-01   1.6258E-01   9.7521E-04  0.0230
   1.6258E-01   1.6654E-01   9.5912E-04  0.0230
   1.6654E-01   1.7059E-01   9.7040E-04  0.0226
   1.7059E-01   1.7474E-01   9.3000E-04  0.0228
   1.7474E-01   1.7899E-01   9.3473E-04  0.0224
   1.7899E-01   1.8334E-01   9.1528E-04  0.0224
   1.8334E-01   1.8781E-01   8.7381E-04  0.0227
   1.8781E-01   1.9237E-01   8.8720E-04  0.0222
   1.9237E-01   1.9706E-01   8.5245E-04  0.0224
   1.9706E-01   2.0185E-01   8.2469E-04  0.0225
   2.0185E-01   2.0676E-01   8.4013E-04  0.0220
   2.0676E-01   2.1179E-01   8.6032E-04  0.0215
   2.1179E-01   2.1694E-01   8.1699E-04  0.0218
   2.1694E-01   2.2222E-01   7.6803E-04  0.0222
   2.2222E-01   2.2763E-01   7.8937E-04  0.0216
   2.2763E-01   2.3317E-01   7.6592E-04  0.0217
   2.3317E-01   2.3884E-01   7.5478E-04  0.0216
   2.3884E-01   2.4465E-01   7.3892E-04  0.0216
   2.4465E-01   2.5061E-01   7.4354E-04  0.0213
   2.5061E-01   2.5670E-01   7.1374E-04  0.0214
   2.5670E-01   2.6295E-01   6.7982E-04  0.0217
   2.6295E-01   2.6935E-01   6.6367E-04  0.0217
   2.6935E-01   2.7590E-01   6.7568E-04  0.0213
   2.7590E-01   2.8261E-01   6.5278E-04  0.0214
   2.8261E-01   2.8949E-01   6.4745E-04  0.0212
   2.8949E-01   2.9653E-01   6.5308E-04  0.0209
   2.9653E-01   3.0375E-01   6.0611E-04  0.0214
   3.0375E-01   3.1114E-01   5.9077E-04  0.0214
   3.1114E-01   3.1871E-01   5.8281E-04  0.0213
   3.1871E-01   3.2646E-01   5.8702E-04  0.0210
   3.2646E-01   3.3441E-01   5.9372E-04  0.0206
   3.3441E-01   3.4254E-01   5.5824E-04  0.0210
   3.4254E-01   3.5088E-01   5.8241E-04  0.0203
   3.5088E-01   3.5941E-01   5.5757E-04  0.0205
   3.5941E-01   3.6816E-01   5.5576E-04  0.0203
   3.6816E-01   3.7712E-01   5.1264E-04  0.0209
   3.7712E-01   3.8629E-01   5.2335E-04  0.0204
   3.8629E-01   3.9569E-01   5.1028E-04  0.0204
   3.9569E-01   4.0532E-01   4.9899E-04  0.0204
   4.0532E-01   4.1518E-01   4.8065E-04  0.0205
   4.1518E-01   4.2528E-01   4.8071E-04  0.0203
   4.2528E-01   4.3563E-01   4.5731E-04  0.0206
   4.3563E-01   4.4623E-01   4.6324E-04  0.0202
   4.4623E-01   4.5708E-01   4.5906E-04  0.0200
   4.5708E-01   4.6821E-01   4.2873E-04  0.0205
   4.6821E-01   4.7960E-01   4.4637E-04  0.0198
   4.7960E-01   4.9127E-01   4.1563E-04  0.0203
   4.9127E-01   5.0322E-01   4.0693E-04  0.0203
   5.0322E-01   5.1546E-01   4.0396E-04  0.0201
   5.1546E-01   5.2800E-01   3.9269E-04  0.0202
   5.2800E-01   5.4085E-01   3.6601E-04  0.0206
   5.4085E-01   5.5401E-01   3.7114E-04  0.0202
   5.5401E-01   5.6749E-01   3.7138E-04  0.0200
   5.6749E-01   5.8130E-01   3.4619E-04  0.0205
   5.8130E-01   5.9544E-01   3.4871E-04  0.0201
   5.9544E-01   6.0993E-01   3.3284E-04  0.0204
   6.0993E-01   6.2477E-01   3.2614E-04  0.0203
   6.2477E-01   6.3997E-01   3.1629E-04  0.0204
   6.3997E-01   6.5554E-01   3.0814E-04  0.0204
   6.5554E-01   6.7149E-01   2.9781E-04  0.0205
   6.7149E-01   6.8783E-01   3.0200E-04  0.0201
   6.8783E-01   7.0456E-01   2.8030E-04  0.0206
   7.0456E-01   7.2171E-01   2.8117E-04  0.0204
   7.2171E-01   7.3927E-01   2.7210E-04  0.0205
   7.3927E-01   7.5725E-01   2.7014E-04  0.0203
   7.5725E-01   7.7568E-01   2.5303E-04  0.0207
   7.7568E-01   7.9455E-01   2.5603E-04  0.0203
   7.9455E-01   8.1388E-01   2.4353E-04  0.0206
   8.1388E-01   8.3368E-01   2.2401E-04  0.0212
   8.3368E-01   8.5397E-01   2.1879E-04  0.0212
   8.5397E-01   8.7475E-01   2.1706E-04  0.0211
   8.7475E-01   8.9603E-01   2.1049E-04  0.0211
   8.9603E-01   9.1783E-01   2.0311E-04  0.0213
   9.1783E-01   9.4016E-01   1.9072E-04  0.0217
   9.4016E-01   9.6304E-01   1.8877E-04  0.0215
   9.6304E-01   9.8647E-01   1.6994E-04  0.0224
   9.8647E-01   1.0105E+00   1.6707E-04  0.0223
   1.0105E+00   1.0351E+00   1.6660E-04  0.0221
   1.0351E+00   1.0602E+00   1.6614E-04  0.0219
   1.0602E+00   1.0860E+00   1.7204E-04  0.0212
   1.0860E+00   1.1125E+00   1.7976E-04  0.0205
   1.1125E+00   1.1395E+00   1.7749E-04  0.0204
   1.1395E+00   1.1673E+00   1.8575E-04  0.0197
   1.1673E+00   1.1957E+00   1.9345E-04  0.0191
   1.1957E+00   1.2247E+00   2.0226E-04  0.0184
   1.2247E+00   1.2545E+00   1.9974E-04  0.0183
   1.2545E+00   1.2851E+00   2.0115E-04  0.0180
   1.2851E+00   1.3163E+00   1.9740E-04  0.0180
   1.3163E+00   1.3484E+00   2.0782E-04  0.0173
   1.3484E+00   1.3812E+00   2.1209E-04  0.0170
   1.3812E+00   1.4148E+00   2.1812E-04  0.0165
   1.4148E+00   1.4492E+00   2.1771E-04  0.0163
   1.4492E+00   1.4845E+00   2.2187E-04  0.0160
   1.4845E+00   1.5206E+00   2.2510E-04  0.0157
   1.5206E+00   1.5576E+00   2.2559E-04  0.0155
   1.5576E+00   1.5955E+00   2.2292E-04  0.0154
   1.5955E+00   1.6343E+00   2.2551E-04  0.0151
   1.6343E+00   1.6741E+00   2.3061E-04  0.0148
   1.6741E+00   1.7148E+00   2.3498E-04  0.0145
   1.7148E+00   1.7565E+00   2.3882E-04  0.0142
   1.7565E+00   1.7992E+00   2.2702E-04  0.0144
   1.7992E+00   1.8430E+00   2.3008E-04  0.0141
   1.8430E+00   1.8879E+00   2.2992E-04  0.0139
   1.8879E+00   1.9338E+00   2.3247E-04  0.0137
   1.9338E+00   1.9808E+00   2.3277E-04  0.0135
   1.9808E+00   2.0290E+00   2.3222E-04  0.0134
   2.0290E+00   2.0784E+00   2.2699E-04  0.0134
   2.0784E+00   2.1290E+00   2.3038E-04  0.0131
   2.1290E+00   2.1808E+00   2.2243E-04  0.0132
   2.1808E+00   2.2338E+00   2.1953E-04  0.0131
   2.2338E+00   2.2882E+00   2.1221E-04  0.0132
   2.2882E+00   2.3439E+00   2.1745E-04  0.0129
   2.3439E+00   2.4009E+00   2.1575E-04  0.0128
   2.4009E+00   2.4593E+00   2.1306E-04  0.0127
   2.4593E+00   2.5191E+00   2.0857E-04  0.0127
   2.5191E+00   2.5804E+00   2.0087E-04  0.0127
   2.5804E+00   2.6432E+00   1.8804E-04  0.0130
   2.6432E+00   2.7075E+00   1.8992E-04  0.0128
   2.7075E+00   2.7734E+00   1.8334E-04  0.0129
   2.7734E+00   2.8409E+00   1.8035E-04  0.0128
   2.8409E+00   2.9100E+00   1.7885E-04  0.0127
   2.9100E+00   2.9808E+00   1.7415E-04  0.0127
   2.9808E+00   3.0533E+00   1.7064E-04  0.0127
   3.0533E+00   3.1276E+00   1.6296E-04  0.0129
   3.1276E+00   3.2037E+00   1.5477E-04  0.0130
   3.2037E+00   3.2817E+00   1.5153E-04  0.0130
   3.2817E+00   3.3615E+00   1.4513E-04  0.0131
   3.3615E+00   3.4433E+00   1.3936E-04  0.0132
   3.4433E+00   3.5271E+00   1.2919E-04  0.0136
   3.5271E+00   3.6129E+00   1.2895E-04  0.0134
   3.6129E+00   3.7008E+00   1.2288E-04  0.0136
   3.7008E+00   3.7908E+00   1.1757E-04  0.0138
   3.7908E+00   3.8831E+00   1.1245E-04  0.0139
   3.8831E+00   3.9776E+00   1.0883E-04  0.0140
   3.9776E+00   4.0743E+00   1.0428E-04  0.0141
   4.0743E+00   4.1735E+00   9.8172E-05  0.0143
   4.1735E+00   4.2750E+00   9.4718E-05  0.0144
   4.2750E+00   4.3790E+00   8.8545E-05  0.0147
   4.3790E+00   4.4856E+00   8.4659E-05  0.0149
   4.4856E+00   4.5947E+00   7.8396E-05  0.0153
   4.5947E+00   4.7065E+00   7.3278E-05  0.0156
   4.7065E+00   4.8210E+00   6.8848E-05  0.0159
   4.8210E+00   4.9383E+00   6.5849E-05  0.0161
   4.9383E+00   5.0585E+00   6.3020E-05  0.0163
   5.0585E+00   5.1815E+00   5.6469E-05  0.0170
   5.1815E+00   5.3076E+00   5.3668E-05  0.0172
   5.3076E+00   5.4368E+00   4.8026E-05  0.0180
   5.4368E+00   5.5690E+00   4.4648E-05  0.0184
   5.5690E+00   5.7045E+00   4.3321E-05  0.0185
   5.7045E+00   5.8433E+00   3.8834E-05  0.0193
   5.8433E+00   5.9855E+00   3.5450E-05  0.0199
   5.9855E+00   6.1311E+00   3.3063E-05  0.0204
   6.1311E+00   6.2803E+00   3.0876E-05  0.0208
   6.2803E+00   6.4331E+00   2.7866E-05  0.0217
   6.4331E+00   6.5896E+00   2.6239E-05  0.0221
   6.5896E+00   6.7500E+00   2.3501E-05  0.0231
   6.7500E+00   6.9142E+00   2.1104E-05  0.0240
   6.9142E+00   7.0824E+00   2.0353E-05  0.0242
   7.0824E+00   7.2548E+00   1.7520E-05  0.0257
   7.2548E+00   7.4313E+00   1.6237E-05  0.0264
   7.4313E+00   7.6121E+00   1.4717E-05  0.0274
   7.6121E+00   7.7973E+00   1.3326E-05  0.0285
   7.7973E+00   7.9870E+00   1.2271E-05  0.0293
   7.9870E+00   8.1813E+00   1.1218E-05  0.0303
   8.1813E+00   8.3804E+00   9.9870E-06  0.0317
   8.3804E+00   8.5843E+00   9.4114E-06  0.0323
   8.5843E+00   8.7931E+00   7.8951E-06  0.0348
   8.7931E+00   9.0071E+00   7.7076E-06  0.0348
   9.0071E+00   9.2262E+00   6.5298E-06  0.0374
   9.2262E+00   9.4507E+00   6.4148E-06  0.0373
   9.4507E+00   9.6807E+00   5.6536E-06  0.0392
   9.6807E+00   9.9162E+00   4.9206E-06  0.0414
   9.9162E+00   1.0157E+01   4.6007E-06  0.0424
   1.0157E+01   1.0405E+01   3.7266E-06  0.0466
   1.0405E+01   1.0658E+01   3.7764E-06  0.0456
   1.0658E+01   1.0917E+01   3.1314E-06  0.0495
   1.0917E+01   1.1183E+01   2.9591E-06  0.0503
   1.1183E+01   1.1455E+01   2.5470E-06  0.0536
   1.1455E+01   1.1733E+01   2.3466E-06  0.0552
   1.1733E+01   1.2019E+01   2.0351E-06  0.0584
   1.2019E+01   1.2311E+01   1.9184E-06  0.0594
   1.2311E+01   1.2611E+01   1.7360E-06  0.0618
   1.2611E+01   1.2918E+01   1.4601E-06  0.0667
   1.2918E+01   1.3232E+01   1.3554E-06  0.0683
   1.3232E+01   1.3554E+01   1.2269E-06  0.0709
   1.3554E+01   1.3884E+01   1.1189E-06  0.0734
   1.3884E+01   1.4222E+01   1.1782E-06  0.0708
   1.4222E+01   1.4568E+01   9.0167E-07  0.0798
   1.4568E+01   1.4922E+01   8.6051E-07  0.0805
   1.4922E+01   1.5285E+01   8.9791E-07  0.0782
   1.5285E+01   1.5657E+01   8.0667E-07  0.0814
   1.5657E+01   1.6038E+01   6.0901E-07  0.0928
   1.6038E+01   1.6428E+01   6.7911E-07  0.0865
   1.6428E+01   1.6828E+01   6.7048E-07  0.0862
   1.6828E+01   1.7237E+01   5.4954E-07  0.0938
   1.7237E+01   1.7657E+01   5.9132E-07  0.0896
   1.7657E+01   1.8086E+01   5.0745E-07  0.0956
   1.8086E+01   1.8526E+01   5.0675E-07  0.0946
   1.8526E+01   1.8977E+01   4.7697E-07  0.0963
   1.8977E+01   1.9439E+01   5.4794E-07  0.0886
   1.9439E+01   1.9912E+01   4.0172E-07  0.1026
   1.9912E+01   2.0396E+01   3.8392E-07  0.1037
   2.0396E+01   2.0893E+01   3.3047E-07  0.1104
   2.0893E+01   2.1401E+01   3.8164E-07  0.1015
   2.1401E+01   2.1922E+01   3.0728E-07  0.1118
   2.1922E+01   2.2455E+01   3.4498E-07  0.1043
   2.2455E+01   2.3001E+01   3.4044E-07  0.1037
   2.3001E+01   2.3561E+01   3.4665E-07  0.1015
   2.3561E+01   2.4134E+01   2.8260E-07  0.1111
   2.4134E+01   2.4721E+01   2.6226E-07  0.1140
   2.4721E+01   2.5323E+01   2.9926E-07  0.1054
   2.5323E+01   2.5939E+01   2.7916E-07  0.1078
   2.5939E+01   2.6570E+01   2.3450E-07  0.1162
   2.6570E+01   2.7217E+01   2.5368E-07  0.1104
   2.7217E+01   2.7879E+01   2.8390E-07  0.1031
   2.7879E+01   2.8557E+01   1.9165E-07  0.1240
   2.8557E+01   2.9252E+01   1.8998E-07  0.1231
   2.9252E+01   2.9964E+01   2.2481E-07  0.1118
   2.9964E+01   3.0693E+01   2.5239E-07  0.1043
   3.0693E+01   3.1440E+01   1.9283E-07  0.1179
   3.1440E+01   3.2205E+01   2.1439E-07  0.1104
   3.2205E+01   3.2988E+01   1.6080E-07  0.1260
   3.2988E+01   3.3791E+01   1.6197E-07  0.1240
   3.3791E+01   3.4613E+01   1.4353E-07  0.1302
   3.4613E+01   3.5455E+01   1.6149E-07  0.1213
   3.5455E+01   3.6318E+01   1.3679E-07  0.1302
   3.6318E+01   3.7201E+01   1.4486E-07  0.1250
   3.7201E+01   3.8106E+01   1.4362E-07  0.1240
   3.8106E+01   3.9034E+01   1.1001E-07  0.1400
   3.9034E+01   3.9983E+01   1.1161E-07  0.1374
   3.9983E+01   4.0956E+01   1.0691E-07  0.1387
   4.0956E+01   4.1953E+01   8.8310E-08  0.1508
   4.1953E+01   4.2973E+01   5.4862E-08  0.1890
   4.2973E+01   4.4019E+01   7.4600E-08  0.1601
   4.4019E+01   4.5090E+01   6.7226E-08  0.1667
   4.5090E+01   4.6187E+01   6.0160E-08  0.1741
   4.6187E+01   4.7311E+01   7.4749E-08  0.1543
   4.7311E+01   4.8462E+01   5.0386E-08  0.1857
   4.8462E+01   4.9641E+01   3.7316E-08  0.2132
   4.9641E+01   5.0849E+01   3.3118E-08  0.2236
   5.0849E+01   5.2086E+01   4.2031E-08  0.1961
   5.2086E+01   5.3353E+01   4.4189E-08  0.1890
   5.3353E+01   5.4651E+01   4.0058E-08  0.1961
   5.4651E+01   5.5981E+01   2.5569E-08  0.2425
   5.5981E+01   5.7343E+01   2.0557E-08  0.2673
   5.7343E+01   5.8738E+01   1.8635E-08  0.2774
   5.8738E+01   6.0168E+01   8.3966E-09  0.4082
   6.0168E+01   6.1632E+01   2.3225E-08  0.2425
   6.1632E+01   6.3131E+01   1.4671E-08  0.3015
   6.3131E+01   6.4667E+01   1.0416E-08  0.3536
   6.4667E+01   6.6240E+01   1.2711E-08  0.3162
   6.6240E+01   6.7852E+01   6.2047E-09  0.4472
   6.7852E+01   6.9503E+01   2.4229E-09  0.7071
   6.9503E+01   7.1194E+01   3.5481E-09  0.5774
   7.1194E+01   7.2926E+01   5.7730E-09  0.4472
   7.2926E+01   7.4701E+01   3.3815E-09  0.5774
   7.4701E+01   7.6518E+01   3.3012E-09  0.5774
   7.6518E+01   7.8380E+01   4.2970E-09  0.5000
   7.8380E+01   8.0287E+01   3.1462E-09  0.5774
   8.0287E+01   8.2240E+01   0.0000E+00  0.0000
   8.2240E+01   8.4241E+01   3.9980E-09  0.5000
   8.4241E+01   8.6291E+01   1.9515E-09  0.7071
   8.6291E+01   8.8391E+01   0.0000E+00  0.0000
   8.8391E+01   9.0541E+01   0.0000E+00  0.0000
   9.0541E+01   9.2744E+01   9.0788E-10  1.0000
   9.2744E+01   9.5001E+01   8.8631E-10  1.0000
   9.5001E+01   9.7312E+01   0.0000E+00  0.0000
   9.7312E+01   9.9680E+01   0.0000E+00  0.0000
   9.9680E+01   1.0211E+02   0.0000E+00  0.0000
   1.0211E+02   1.0459E+02   0.0000E+00  0.0000
   1.0459E+02   1.0713E+02   0.0000E+00  0.0000
   1.0713E+02   1.0974E+02   0.0000E+00  0.0000
   1.0974E+02   1.1241E+02   0.0000E+00  0.0000
   1.1241E+02   1.1515E+02   0.0000E+00  0.0000
   1.1515E+02   1.1795E+02   0.0000E+00  0.0000
   1.1795E+02   1.2082E+02   0.0000E+00  0.0000
   1.2082E+02   1.2376E+02   0.0000E+00  0.0000
   1.2376E+02   1.2677E+02   0.0000E+00  0.0000
   1.2677E+02   1.2985E+02   0.0000E+00  0.0000
   1.2985E+02   1.3301E+02   0.0000E+00  0.0000
   1.3301E+02   1.3625E+02   0.0000E+00  0.0000
   1.3625E+02   1.3956E+02   0.0000E+00  0.0000
   1.3956E+02   1.4296E+02   0.0000E+00  0.0000
   1.4296E+02   1.4644E+02   0.0000E+00  0.0000
   1.4644E+02   1.5000E+02   0.0000E+00  0.0000

#   sum over                 9.3581E-06
'no. =    1   reg = 126 - 226'
msuc: {\huge [t-cross] in region mesh}
msdr: {\it plotted by \ANGEL \version}
msdl: {\it calculated by \PHITS  3.26}
wt: s(0.7)
\vspace{-3}
  region surface crossing
  area  &=&   1.0000E+00 [cm^2]
e:
 
# Information for Restart Calculation
# This calculation was newly started
# istdev =  2 # 1:Batch variance, 2:History variance
# resc2  = 5.00000000000000000E+08 # Total source weight or Total source weight / maxcas
# resc3  = 5.00000000000000000E+08 # Total history number or Total batch number
# maxcas =   500000000 # History / Batch, only used for istdev=1
# bitrseed = 1101101111010011011000101101110001100110110010110001010100010001 # bit data of rseed
