[ T-Cross ]
    title = [t-cross] in region mesh
     mesh =  reg            # mesh type is region-wise
      reg =    1            # number of crossing regions
      non     r-from    r-to       area
      1       106       206        1.000000    
   e-type =    3            # e-mesh is log given by emin, emax and ne
     emin =  1.0000000E-02  # minimum value of e-mesh points
     emax =   150.0000      # maximum value of e-mesh points
#    edel =  2.4039514E-02  # mesh width of e-mesh points
       ne =    400          # number of e-mesh points
#    data = ( e(i), i = 1, ne + 1 )
#           1.00000E-02  1.02433E-02  1.04925E-02  1.07478E-02  1.10093E-02
#           1.12772E-02  1.15516E-02  1.18326E-02  1.21205E-02  1.24154E-02
#           1.27175E-02  1.30269E-02  1.33439E-02  1.36686E-02  1.40011E-02
#           1.43418E-02  1.46907E-02  1.50482E-02  1.54143E-02  1.57894E-02
#           1.61735E-02  1.65670E-02  1.69701E-02  1.73830E-02  1.78060E-02
#           1.82392E-02  1.86830E-02  1.91375E-02  1.96032E-02  2.00801E-02
#           2.05687E-02  2.10692E-02  2.15818E-02  2.21069E-02  2.26448E-02
#           2.31957E-02  2.37601E-02  2.43382E-02  2.49304E-02  2.55369E-02
#           2.61583E-02  2.67947E-02  2.74467E-02  2.81145E-02  2.87985E-02
#           2.94992E-02  3.02169E-02  3.09521E-02  3.17052E-02  3.24766E-02
#           3.32668E-02  3.40762E-02  3.49053E-02  3.57546E-02  3.66246E-02
#           3.75157E-02  3.84284E-02  3.93634E-02  4.03212E-02  4.13022E-02
#           4.23071E-02  4.33365E-02  4.43909E-02  4.54710E-02  4.65773E-02
#           4.77106E-02  4.88714E-02  5.00605E-02  5.12785E-02  5.25262E-02
#           5.38042E-02  5.51133E-02  5.64542E-02  5.78278E-02  5.92348E-02
#           6.06760E-02  6.21523E-02  6.36645E-02  6.52135E-02  6.68002E-02
#           6.84255E-02  7.00904E-02  7.17957E-02  7.35426E-02  7.53319E-02
#           7.71648E-02  7.90423E-02  8.09655E-02  8.29354E-02  8.49533E-02
#           8.70203E-02  8.91376E-02  9.13064E-02  9.35279E-02  9.58035E-02
#           9.81345E-02  1.00522E-01  1.02968E-01  1.05473E-01  1.08040E-01
#           1.10668E-01  1.13361E-01  1.16119E-01  1.18944E-01  1.21838E-01
#           1.24803E-01  1.27839E-01  1.30950E-01  1.34136E-01  1.37399E-01
#           1.40742E-01  1.44167E-01  1.47675E-01  1.51268E-01  1.54948E-01
#           1.58718E-01  1.62580E-01  1.66535E-01  1.70587E-01  1.74738E-01
#           1.78989E-01  1.83344E-01  1.87805E-01  1.92375E-01  1.97055E-01
#           2.01850E-01  2.06761E-01  2.11792E-01  2.16945E-01  2.22223E-01
#           2.27630E-01  2.33169E-01  2.38842E-01  2.44653E-01  2.50605E-01
#           2.56703E-01  2.62949E-01  2.69346E-01  2.75900E-01  2.82613E-01
#           2.89489E-01  2.96532E-01  3.03747E-01  3.11138E-01  3.18708E-01
#           3.26462E-01  3.34405E-01  3.42542E-01  3.50876E-01  3.59413E-01
#           3.68158E-01  3.77116E-01  3.86291E-01  3.95690E-01  4.05317E-01
#           4.15179E-01  4.25281E-01  4.35628E-01  4.46227E-01  4.57084E-01
#           4.68205E-01  4.79597E-01  4.91266E-01  5.03219E-01  5.15463E-01
#           5.28005E-01  5.40851E-01  5.54011E-01  5.67490E-01  5.81298E-01
#           5.95441E-01  6.09929E-01  6.24769E-01  6.39970E-01  6.55541E-01
#           6.71491E-01  6.87828E-01  7.04564E-01  7.21706E-01  7.39266E-01
#           7.57253E-01  7.75678E-01  7.94551E-01  8.13883E-01  8.33685E-01
#           8.53969E-01  8.74747E-01  8.96030E-01  9.17831E-01  9.40163E-01
#           9.63038E-01  9.86469E-01  1.01047E+00  1.03506E+00  1.06024E+00
#           1.08604E+00  1.11246E+00  1.13953E+00  1.16725E+00  1.19565E+00
#           1.22474E+00  1.25454E+00  1.28507E+00  1.31633E+00  1.34836E+00
#           1.38117E+00  1.41477E+00  1.44920E+00  1.48446E+00  1.52057E+00
#           1.55757E+00  1.59547E+00  1.63429E+00  1.67405E+00  1.71478E+00
#           1.75650E+00  1.79924E+00  1.84302E+00  1.88786E+00  1.93379E+00
#           1.98084E+00  2.02904E+00  2.07841E+00  2.12898E+00  2.18078E+00
#           2.23384E+00  2.28819E+00  2.34386E+00  2.40089E+00  2.45930E+00
#           2.51914E+00  2.58043E+00  2.64322E+00  2.70753E+00  2.77341E+00
#           2.84088E+00  2.91001E+00  2.98081E+00  3.05333E+00  3.12762E+00
#           3.20372E+00  3.28167E+00  3.36152E+00  3.44330E+00  3.52708E+00
#           3.61290E+00  3.70080E+00  3.79085E+00  3.88308E+00  3.97756E+00
#           4.07434E+00  4.17347E+00  4.27501E+00  4.37903E+00  4.48557E+00
#           4.59471E+00  4.70650E+00  4.82102E+00  4.93832E+00  5.05847E+00
#           5.18155E+00  5.30762E+00  5.43676E+00  5.56904E+00  5.70453E+00
#           5.84333E+00  5.98550E+00  6.13114E+00  6.28031E+00  6.43312E+00
#           6.58964E+00  6.74997E+00  6.91420E+00  7.08243E+00  7.25475E+00
#           7.43126E+00  7.61207E+00  7.79728E+00  7.98700E+00  8.18133E+00
#           8.38038E+00  8.58428E+00  8.79315E+00  9.00709E+00  9.22624E+00
#           9.45072E+00  9.68067E+00  9.91620E+00  1.01575E+01  1.04046E+01
#           1.06578E+01  1.09171E+01  1.11827E+01  1.14548E+01  1.17335E+01
#           1.20190E+01  1.23114E+01  1.26109E+01  1.29178E+01  1.32321E+01
#           1.35540E+01  1.38838E+01  1.42216E+01  1.45676E+01  1.49221E+01
#           1.52851E+01  1.56570E+01  1.60380E+01  1.64282E+01  1.68279E+01
#           1.72374E+01  1.76568E+01  1.80864E+01  1.85264E+01  1.89772E+01
#           1.94389E+01  1.99119E+01  2.03963E+01  2.08926E+01  2.14009E+01
#           2.19216E+01  2.24550E+01  2.30014E+01  2.35610E+01  2.41343E+01
#           2.47215E+01  2.53230E+01  2.59391E+01  2.65702E+01  2.72167E+01
#           2.78789E+01  2.85572E+01  2.92520E+01  2.99637E+01  3.06928E+01
#           3.14396E+01  3.22045E+01  3.29881E+01  3.37907E+01  3.46128E+01
#           3.54550E+01  3.63177E+01  3.72013E+01  3.81064E+01  3.90336E+01
#           3.99833E+01  4.09561E+01  4.19526E+01  4.29734E+01  4.40189E+01
#           4.50900E+01  4.61870E+01  4.73108E+01  4.84619E+01  4.96410E+01
#           5.08488E+01  5.20860E+01  5.33533E+01  5.46514E+01  5.59812E+01
#           5.73432E+01  5.87384E+01  6.01676E+01  6.16315E+01  6.31311E+01
#           6.46671E+01  6.62405E+01  6.78522E+01  6.95031E+01  7.11941E+01
#           7.29263E+01  7.47007E+01  7.65182E+01  7.83800E+01  8.02870E+01
#           8.22405E+01  8.42414E+01  8.62911E+01  8.83906E+01  9.05412E+01
#           9.27442E+01  9.50007E+01  9.73122E+01  9.96799E+01  1.02105E+02
#           1.04589E+02  1.07134E+02  1.09741E+02  1.12411E+02  1.15146E+02
#           1.17948E+02  1.20817E+02  1.23757E+02  1.26768E+02  1.29852E+02
#           1.33012E+02  1.36248E+02  1.39563E+02  1.42959E+02  1.46437E+02
#           1.50000E+02
     unit =    2            # unit is [1/cm^2/(MeV/n)/source]
     axis =  eng            # axis of output
     file = detector-07.out  # file name of output for the above axis
   output = f-curr          # surface crossing forward current spectrum
     part =  neutron  
# kf/name :  2112     
#    used :        main (  %)        temp (  %)       total (  %)
#  memory :         414 (  0)           0 (  0)         414 (  0)

#------------------------------------------------------------------------------
#newpage:
#   no. =    1   reg = 106 - 206

x: Energy [MeV/n]
y:  F-Curr [1/cm^2/(MeV/n)/source]         
p: xlog ylog afac(0.8) form(0.9)
h: n            x            y(neutron ),hh0l   n 
#  e-lower      e-upper      neutron     r.err 
   1.0000E-02   1.0243E-02   4.2541E-05  0.1387
   1.0243E-02   1.0493E-02   4.4611E-05  0.1337
   1.0493E-02   1.0748E-02   4.6943E-05  0.1291
   1.0748E-02   1.1009E-02   4.2011E-05  0.1348
   1.1009E-02   1.1277E-02   4.3926E-05  0.1302
   1.1277E-02   1.1552E-02   4.1043E-05  0.1329
   1.1552E-02   1.1833E-02   3.2688E-05  0.1474
   1.1833E-02   1.2121E-02   3.3154E-05  0.1444
   1.2121E-02   1.2415E-02   4.1285E-05  0.1280
   1.2415E-02   1.2718E-02   4.4176E-05  0.1222
   1.2718E-02   1.3027E-02   3.8069E-05  0.1302
   1.3027E-02   1.3344E-02   3.7815E-05  0.1288
   1.3344E-02   1.3669E-02   4.0204E-05  0.1232
   1.3669E-02   1.4001E-02   4.0830E-05  0.1213
   1.4001E-02   1.4342E-02   3.6888E-05  0.1260
   1.4342E-02   1.4691E-02   3.4331E-05  0.1291
   1.4691E-02   1.5048E-02   3.7350E-05  0.1222
   1.5048E-02   1.5414E-02   3.3381E-05  0.1271
   1.5414E-02   1.5789E-02   3.0244E-05  0.1325
   1.5789E-02   1.6174E-02   2.8070E-05  0.1361
   1.6174E-02   1.6567E-02   3.1163E-05  0.1271
   1.6567E-02   1.6970E-02   3.1005E-05  0.1262
   1.6970E-02   1.7383E-02   3.3714E-05  0.1196
   1.7383E-02   1.7806E-02   2.8542E-05  0.1281
   1.7806E-02   1.8239E-02   2.7897E-05  0.1281
   1.8239E-02   1.8683E-02   3.3134E-05  0.1163
   1.8683E-02   1.9138E-02   1.6704E-05  0.1622
   1.9138E-02   1.9603E-02   2.9001E-05  0.1213
   1.9603E-02   2.0080E-02   2.5034E-05  0.1291
   2.0080E-02   2.0569E-02   2.3963E-05  0.1303
   2.0569E-02   2.1069E-02   2.3873E-05  0.1288
   2.1069E-02   2.1582E-02   1.6360E-05  0.1532
   2.1582E-02   2.2107E-02   2.3484E-05  0.1270
   2.2107E-02   2.2645E-02   2.4367E-05  0.1231
   2.2645E-02   2.3196E-02   1.6561E-05  0.1475
   2.3196E-02   2.3760E-02   1.6927E-05  0.1444
   2.3760E-02   2.4338E-02   2.0037E-05  0.1313
   2.4338E-02   2.4930E-02   1.7841E-05  0.1374
   2.4930E-02   2.5537E-02   1.9429E-05  0.1302
   2.5537E-02   2.6158E-02   2.2722E-05  0.1187
   2.6158E-02   2.6795E-02   2.0041E-05  0.1250
   2.6795E-02   2.7447E-02   1.9168E-05  0.1261
   2.7447E-02   2.8114E-02   2.1218E-05  0.1185
   2.8114E-02   2.8799E-02   1.5474E-05  0.1374
   2.8799E-02   2.9499E-02   1.3840E-05  0.1430
   2.9499E-02   3.0217E-02   1.8678E-05  0.1217
   3.0217E-02   3.0952E-02   2.1539E-05  0.1119
   3.0952E-02   3.1705E-02   1.6434E-05  0.1270
   3.1705E-02   3.2477E-02   1.5227E-05  0.1302
   3.2477E-02   3.3267E-02   1.5234E-05  0.1283
   3.3267E-02   3.4076E-02   1.3842E-05  0.1323
   3.4076E-02   3.4905E-02   1.5795E-05  0.1231
   3.4905E-02   3.5755E-02   1.4556E-05  0.1270
   3.5755E-02   3.6625E-02   1.2132E-05  0.1374
   3.6625E-02   3.7516E-02   1.1381E-05  0.1396
   3.7516E-02   3.8428E-02   1.3020E-05  0.1293
   3.8428E-02   3.9363E-02   1.2564E-05  0.1302
   3.9363E-02   4.0321E-02   1.2692E-05  0.1280
   4.0321E-02   4.1302E-02   1.2006E-05  0.1302
   4.1302E-02   4.2307E-02   1.4106E-05  0.1187
   4.2307E-02   4.3337E-02   1.2746E-05  0.1231
   4.3337E-02   4.4391E-02   1.2496E-05  0.1231
   4.4391E-02   4.5471E-02   1.4948E-05  0.1111
   4.5471E-02   4.6577E-02   9.7176E-06  0.1361
   4.6577E-02   4.7711E-02   1.0521E-05  0.1292
   4.7711E-02   4.8871E-02   8.2555E-06  0.1443
   4.8871E-02   5.0061E-02   1.0823E-05  0.1242
   5.0061E-02   5.1279E-02   9.6861E-06  0.1297
   5.1279E-02   5.2526E-02   9.2245E-06  0.1314
   5.2526E-02   5.3804E-02   9.3139E-06  0.1292
   5.3804E-02   5.5113E-02   1.1094E-05  0.1171
   5.5113E-02   5.6454E-02   7.4795E-06  0.1405
   5.6454E-02   5.7828E-02   1.0961E-05  0.1148
   5.7828E-02   5.9235E-02   8.7975E-06  0.1270
   5.9235E-02   6.0676E-02   9.2620E-06  0.1222
   6.0676E-02   6.2152E-02   1.0011E-05  0.1162
   6.2152E-02   6.3665E-02   7.6588E-06  0.1313
   6.3665E-02   6.5214E-02   7.9737E-06  0.1270
   6.5214E-02   6.6800E-02   8.5236E-06  0.1213
   6.6800E-02   6.8426E-02   7.2336E-06  0.1302
   6.8426E-02   7.0090E-02   8.2591E-06  0.1204
   7.0090E-02   7.1796E-02   7.8467E-06  0.1222
   7.1796E-02   7.3543E-02   7.7471E-06  0.1206
   7.3543E-02   7.5332E-02   7.2212E-06  0.1241
   7.5332E-02   7.7165E-02   7.7233E-06  0.1187
   7.7165E-02   7.9042E-02   8.4938E-06  0.1118
   7.9042E-02   8.0965E-02   8.3676E-06  0.1112
   8.0965E-02   8.2935E-02   7.9049E-06  0.1132
   8.2935E-02   8.4953E-02   7.2228E-06  0.1170
   8.4953E-02   8.7020E-02   5.9157E-06  0.1271
   8.7020E-02   8.9138E-02   7.7118E-06  0.1102
   8.9138E-02   9.1306E-02   8.0128E-06  0.1072
   9.1306E-02   9.3528E-02   7.6258E-06  0.1085
   9.3528E-02   9.5804E-02   6.4457E-06  0.1164
   9.5804E-02   9.8134E-02   6.1656E-06  0.1179
   9.8134E-02   1.0052E-01   5.7356E-06  0.1205
   1.0052E-01   1.0297E-01   6.0406E-06  0.1162
   1.0297E-01   1.0547E-01   7.1481E-06  0.1054
   1.0547E-01   1.0804E-01   6.9040E-06  0.1060
   1.0804E-01   1.1067E-01   7.5687E-06  0.1000
   1.1067E-01   1.1336E-01   8.7152E-06  0.0921
   1.1336E-01   1.1612E-01   6.4362E-06  0.1058
   1.1612E-01   1.1894E-01   7.8315E-06  0.0948
   1.1894E-01   1.2184E-01   8.6799E-06  0.0891
   1.2184E-01   1.2480E-01   1.0092E-05  0.0817
   1.2480E-01   1.2784E-01   9.3944E-06  0.0836
   1.2784E-01   1.3095E-01   1.0199E-05  0.0793
   1.3095E-01   1.3414E-01   9.0106E-06  0.0832
   1.3414E-01   1.3740E-01   1.0657E-05  0.0756
   1.3740E-01   1.4074E-01   9.6598E-06  0.0784
   1.4074E-01   1.4417E-01   1.0258E-05  0.0753
   1.4417E-01   1.4767E-01   1.0236E-05  0.0744
   1.4767E-01   1.5127E-01   1.2113E-05  0.0677
   1.5127E-01   1.5495E-01   1.2376E-05  0.0661
   1.5495E-01   1.5872E-01   1.3607E-05  0.0623
   1.5872E-01   1.6258E-01   1.2571E-05  0.0641
   1.6258E-01   1.6654E-01   1.3361E-05  0.0614
   1.6654E-01   1.7059E-01   1.4716E-05  0.0578
   1.7059E-01   1.7474E-01   1.3267E-05  0.0601
   1.7474E-01   1.7899E-01   1.5467E-05  0.0550
   1.7899E-01   1.8334E-01   1.5886E-05  0.0537
   1.8334E-01   1.8781E-01   1.7320E-05  0.0508
   1.8781E-01   1.9237E-01   1.7618E-05  0.0497
   1.9237E-01   1.9706E-01   1.6802E-05  0.0503
   1.9706E-01   2.0185E-01   1.6633E-05  0.0500
   2.0185E-01   2.0676E-01   1.8910E-05  0.0463
   2.0676E-01   2.1179E-01   1.8171E-05  0.0467
   2.1179E-01   2.1694E-01   1.8983E-05  0.0451
   2.1694E-01   2.2222E-01   2.0595E-05  0.0428
   2.2222E-01   2.2763E-01   2.1188E-05  0.0417
   2.2763E-01   2.3317E-01   2.2017E-05  0.0404
   2.3317E-01   2.3884E-01   2.2172E-05  0.0398
   2.3884E-01   2.4465E-01   2.3512E-05  0.0382
   2.4465E-01   2.5061E-01   2.4567E-05  0.0369
   2.5061E-01   2.5670E-01   2.4934E-05  0.0362
   2.5670E-01   2.6295E-01   2.5672E-05  0.0352
   2.6295E-01   2.6935E-01   2.5381E-05  0.0350
   2.6935E-01   2.7590E-01   2.6021E-05  0.0342
   2.7590E-01   2.8261E-01   2.8006E-05  0.0325
   2.8261E-01   2.8949E-01   2.9035E-05  0.0316
   2.8949E-01   2.9653E-01   2.8283E-05  0.0316
   2.9653E-01   3.0375E-01   2.9698E-05  0.0305
   3.0375E-01   3.1114E-01   3.0705E-05  0.0296
   3.1114E-01   3.1871E-01   3.1176E-05  0.0291
   3.1871E-01   3.2646E-01   3.2367E-05  0.0282
   3.2646E-01   3.3441E-01   3.1200E-05  0.0284
   3.3441E-01   3.4254E-01   3.2991E-05  0.0272
   3.4254E-01   3.5088E-01   3.2403E-05  0.0272
   3.5088E-01   3.5941E-01   3.4725E-05  0.0259
   3.5941E-01   3.6816E-01   3.4255E-05  0.0258
   3.6816E-01   3.7712E-01   3.5521E-05  0.0250
   3.7712E-01   3.8629E-01   3.6002E-05  0.0246
   3.8629E-01   3.9569E-01   3.8069E-05  0.0236
   3.9569E-01   4.0532E-01   3.9128E-05  0.0230
   4.0532E-01   4.1518E-01   3.8812E-05  0.0228
   4.1518E-01   4.2528E-01   3.9170E-05  0.0224
   4.2528E-01   4.3563E-01   3.9951E-05  0.0219
   4.3563E-01   4.4623E-01   4.0609E-05  0.0215
   4.4623E-01   4.5708E-01   4.3242E-05  0.0206
   4.5708E-01   4.6821E-01   4.1963E-05  0.0206
   4.6821E-01   4.7960E-01   4.2533E-05  0.0203
   4.7960E-01   4.9127E-01   4.3640E-05  0.0198
   4.9127E-01   5.0322E-01   4.3920E-05  0.0195
   5.0322E-01   5.1546E-01   4.4514E-05  0.0191
   5.1546E-01   5.2800E-01   4.4895E-05  0.0188
   5.2800E-01   5.4085E-01   4.3107E-05  0.0190
   5.4085E-01   5.5401E-01   4.5825E-05  0.0182
   5.5401E-01   5.6749E-01   4.6785E-05  0.0178
   5.6749E-01   5.8130E-01   4.7710E-05  0.0174
   5.8130E-01   5.9544E-01   4.8672E-05  0.0170
   5.9544E-01   6.0993E-01   4.7386E-05  0.0170
   6.0993E-01   6.2477E-01   4.7998E-05  0.0167
   6.2477E-01   6.3997E-01   4.7449E-05  0.0166
   6.3997E-01   6.5554E-01   5.0546E-05  0.0159
   6.5554E-01   6.7149E-01   4.9099E-05  0.0159
   6.7149E-01   6.8783E-01   4.8841E-05  0.0158
   6.8783E-01   7.0456E-01   5.0264E-05  0.0154
   7.0456E-01   7.2171E-01   4.9891E-05  0.0152
   7.2171E-01   7.3927E-01   5.2738E-05  0.0146
   7.3927E-01   7.5725E-01   4.9409E-05  0.0150
   7.5725E-01   7.7568E-01   5.0157E-05  0.0147
   7.7568E-01   7.9455E-01   5.0102E-05  0.0145
   7.9455E-01   8.1388E-01   5.1366E-05  0.0141
   8.1388E-01   8.3368E-01   5.0085E-05  0.0142
   8.3368E-01   8.5397E-01   4.8418E-05  0.0142
   8.5397E-01   8.7475E-01   4.7619E-05  0.0142
   8.7475E-01   8.9603E-01   4.6880E-05  0.0141
   8.9603E-01   9.1783E-01   4.7209E-05  0.0139
   9.1783E-01   9.4016E-01   4.7789E-05  0.0136
   9.4016E-01   9.6304E-01   4.5273E-05  0.0138
   9.6304E-01   9.8647E-01   4.3596E-05  0.0139
   9.8647E-01   1.0105E+00   4.2134E-05  0.0140
   1.0105E+00   1.0351E+00   4.2438E-05  0.0138
   1.0351E+00   1.0602E+00   4.3529E-05  0.0134
   1.0602E+00   1.0860E+00   4.4778E-05  0.0131
   1.0860E+00   1.1125E+00   4.5868E-05  0.0128
   1.1125E+00   1.1395E+00   4.5739E-05  0.0127
   1.1395E+00   1.1673E+00   4.6464E-05  0.0124
   1.1673E+00   1.1957E+00   4.8531E-05  0.0120
   1.1957E+00   1.2247E+00   4.8803E-05  0.0118
   1.2247E+00   1.2545E+00   4.9207E-05  0.0116
   1.2545E+00   1.2851E+00   4.8928E-05  0.0115
   1.2851E+00   1.3163E+00   5.0141E-05  0.0112
   1.3163E+00   1.3484E+00   5.0511E-05  0.0111
   1.3484E+00   1.3812E+00   5.2309E-05  0.0107
   1.3812E+00   1.4148E+00   5.3126E-05  0.0105
   1.4148E+00   1.4492E+00   5.3301E-05  0.0104
   1.4492E+00   1.4845E+00   5.3214E-05  0.0103
   1.4845E+00   1.5206E+00   5.3761E-05  0.0101
   1.5206E+00   1.5576E+00   5.3853E-05  0.0100
   1.5576E+00   1.5955E+00   5.3953E-05  0.0098
   1.5955E+00   1.6343E+00   5.3741E-05  0.0097
   1.6343E+00   1.6741E+00   5.4247E-05  0.0096
   1.6741E+00   1.7148E+00   5.3310E-05  0.0095
   1.7148E+00   1.7565E+00   5.3261E-05  0.0094
   1.7565E+00   1.7992E+00   5.2853E-05  0.0093
   1.7992E+00   1.8430E+00   4.9916E-05  0.0095
   1.8430E+00   1.8879E+00   5.0143E-05  0.0093
   1.8879E+00   1.9338E+00   5.0577E-05  0.0092
   1.9338E+00   1.9808E+00   5.0456E-05  0.0091
   1.9808E+00   2.0290E+00   4.9848E-05  0.0090
   2.0290E+00   2.0784E+00   5.0001E-05  0.0089
   2.0784E+00   2.1290E+00   5.0245E-05  0.0087
   2.1290E+00   2.1808E+00   5.1792E-05  0.0085
   2.1808E+00   2.2338E+00   5.1497E-05  0.0084
   2.2338E+00   2.2882E+00   5.1568E-05  0.0083
   2.2882E+00   2.3439E+00   5.0682E-05  0.0083
   2.3439E+00   2.4009E+00   5.0065E-05  0.0083
   2.4009E+00   2.4593E+00   5.0706E-05  0.0081
   2.4593E+00   2.5191E+00   5.0441E-05  0.0080
   2.5191E+00   2.5804E+00   5.1114E-05  0.0079
   2.5804E+00   2.6432E+00   5.0657E-05  0.0078
   2.6432E+00   2.7075E+00   5.0253E-05  0.0078
   2.7075E+00   2.7734E+00   4.9435E-05  0.0077
   2.7734E+00   2.8409E+00   5.0050E-05  0.0076
   2.8409E+00   2.9100E+00   5.0525E-05  0.0075
   2.9100E+00   2.9808E+00   4.9127E-05  0.0075
   2.9808E+00   3.0533E+00   4.9631E-05  0.0074
   3.0533E+00   3.1276E+00   4.8881E-05  0.0073
   3.1276E+00   3.2037E+00   4.8613E-05  0.0073
   3.2037E+00   3.2817E+00   4.9179E-05  0.0072
   3.2817E+00   3.3615E+00   4.8893E-05  0.0071
   3.3615E+00   3.4433E+00   4.8670E-05  0.0070
   3.4433E+00   3.5271E+00   4.8535E-05  0.0070
   3.5271E+00   3.6129E+00   4.8359E-05  0.0069
   3.6129E+00   3.7008E+00   4.8166E-05  0.0068
   3.7008E+00   3.7908E+00   4.7805E-05  0.0068
   3.7908E+00   3.8831E+00   4.7542E-05  0.0067
   3.8831E+00   3.9776E+00   4.7130E-05  0.0067
   3.9776E+00   4.0743E+00   4.6888E-05  0.0066
   4.0743E+00   4.1735E+00   4.6124E-05  0.0066
   4.1735E+00   4.2750E+00   4.6022E-05  0.0065
   4.2750E+00   4.3790E+00   4.5149E-05  0.0065
   4.3790E+00   4.4856E+00   4.5044E-05  0.0064
   4.4856E+00   4.5947E+00   4.4308E-05  0.0064
   4.5947E+00   4.7065E+00   4.4051E-05  0.0063
   4.7065E+00   4.8210E+00   4.3422E-05  0.0063
   4.8210E+00   4.9383E+00   4.3253E-05  0.0062
   4.9383E+00   5.0585E+00   4.2802E-05  0.0062
   5.0585E+00   5.1815E+00   4.2636E-05  0.0061
   5.1815E+00   5.3076E+00   4.2123E-05  0.0061
   5.3076E+00   5.4368E+00   4.1465E-05  0.0061
   5.4368E+00   5.5690E+00   4.0926E-05  0.0060
   5.5690E+00   5.7045E+00   4.0623E-05  0.0060
   5.7045E+00   5.8433E+00   4.0396E-05  0.0059
   5.8433E+00   5.9855E+00   3.9653E-05  0.0059
   5.9855E+00   6.1311E+00   3.9858E-05  0.0058
   6.1311E+00   6.2803E+00   3.8999E-05  0.0058
   6.2803E+00   6.4331E+00   3.8759E-05  0.0058
   6.4331E+00   6.5896E+00   3.7993E-05  0.0058
   6.5896E+00   6.7500E+00   3.7967E-05  0.0057
   6.7500E+00   6.9142E+00   3.7072E-05  0.0057
   6.9142E+00   7.0824E+00   3.7231E-05  0.0056
   7.0824E+00   7.2548E+00   3.6595E-05  0.0056
   7.2548E+00   7.4313E+00   3.6497E-05  0.0056
   7.4313E+00   7.6121E+00   3.5758E-05  0.0055
   7.6121E+00   7.7973E+00   3.5045E-05  0.0055
   7.7973E+00   7.9870E+00   3.4888E-05  0.0055
   7.9870E+00   8.1813E+00   3.4278E-05  0.0055
   8.1813E+00   8.3804E+00   3.3869E-05  0.0054
   8.3804E+00   8.5843E+00   3.3725E-05  0.0054
   8.5843E+00   8.7931E+00   3.2719E-05  0.0054
   8.7931E+00   9.0071E+00   3.2090E-05  0.0054
   9.0071E+00   9.2262E+00   3.1465E-05  0.0054
   9.2262E+00   9.4507E+00   3.0537E-05  0.0054
   9.4507E+00   9.6807E+00   3.0335E-05  0.0053
   9.6807E+00   9.9162E+00   2.9214E-05  0.0054
   9.9162E+00   1.0157E+01   2.9858E-05  0.0053
   1.0157E+01   1.0405E+01   2.9079E-05  0.0053
   1.0405E+01   1.0658E+01   2.8264E-05  0.0053
   1.0658E+01   1.0917E+01   2.7455E-05  0.0053
   1.0917E+01   1.1183E+01   2.6537E-05  0.0053
   1.1183E+01   1.1455E+01   2.6100E-05  0.0053
   1.1455E+01   1.1733E+01   2.5397E-05  0.0053
   1.1733E+01   1.2019E+01   2.4772E-05  0.0053
   1.2019E+01   1.2311E+01   2.4099E-05  0.0053
   1.2311E+01   1.2611E+01   2.3320E-05  0.0053
   1.2611E+01   1.2918E+01   2.2670E-05  0.0054
   1.2918E+01   1.3232E+01   2.1787E-05  0.0054
   1.3232E+01   1.3554E+01   2.1155E-05  0.0054
   1.3554E+01   1.3884E+01   2.0308E-05  0.0055
   1.3884E+01   1.4222E+01   1.9336E-05  0.0055
   1.4222E+01   1.4568E+01   1.8387E-05  0.0056
   1.4568E+01   1.4922E+01   1.7627E-05  0.0057
   1.4922E+01   1.5285E+01   1.6641E-05  0.0058
   1.5285E+01   1.5657E+01   1.5723E-05  0.0058
   1.5657E+01   1.6038E+01   1.4382E-05  0.0060
   1.6038E+01   1.6428E+01   1.3221E-05  0.0062
   1.6428E+01   1.6828E+01   1.2247E-05  0.0064
   1.6828E+01   1.7237E+01   1.0930E-05  0.0067
   1.7237E+01   1.7657E+01   9.7302E-06  0.0070
   1.7657E+01   1.8086E+01   8.4552E-06  0.0074
   1.8086E+01   1.8526E+01   7.2669E-06  0.0079
   1.8526E+01   1.8977E+01   6.0096E-06  0.0086
   1.8977E+01   1.9439E+01   4.9475E-06  0.0094
   1.9439E+01   1.9912E+01   3.8854E-06  0.0104
   1.9912E+01   2.0396E+01   2.9756E-06  0.0118
   2.0396E+01   2.0893E+01   2.1227E-06  0.0138
   2.0893E+01   2.1401E+01   1.4845E-06  0.0163
   2.1401E+01   2.1922E+01   9.5717E-07  0.0200
   2.1922E+01   2.2455E+01   5.4634E-07  0.0262
   2.2455E+01   2.3001E+01   3.0859E-07  0.0344
   2.3001E+01   2.3561E+01   1.6153E-07  0.0470
   2.3561E+01   2.4134E+01   7.9196E-08  0.0664
   2.4134E+01   2.4721E+01   1.5667E-08  0.1474
   2.4721E+01   2.5323E+01   9.9752E-10  0.5774
   2.5323E+01   2.5939E+01   3.2461E-10  1.0000
   2.5939E+01   2.6570E+01   0.0000E+00  0.0000
   2.6570E+01   2.7217E+01   0.0000E+00  0.0000
   2.7217E+01   2.7879E+01   3.0202E-10  1.0000
   2.7879E+01   2.8557E+01   0.0000E+00  0.0000
   2.8557E+01   2.9252E+01   0.0000E+00  0.0000
   2.9252E+01   2.9964E+01   0.0000E+00  0.0000
   2.9964E+01   3.0693E+01   0.0000E+00  0.0000
   3.0693E+01   3.1440E+01   0.0000E+00  0.0000
   3.1440E+01   3.2205E+01   0.0000E+00  0.0000
   3.2205E+01   3.2988E+01   0.0000E+00  0.0000
   3.2988E+01   3.3791E+01   0.0000E+00  0.0000
   3.3791E+01   3.4613E+01   0.0000E+00  0.0000
   3.4613E+01   3.5455E+01   0.0000E+00  0.0000
   3.5455E+01   3.6318E+01   0.0000E+00  0.0000
   3.6318E+01   3.7201E+01   0.0000E+00  0.0000
   3.7201E+01   3.8106E+01   0.0000E+00  0.0000
   3.8106E+01   3.9034E+01   0.0000E+00  0.0000
   3.9034E+01   3.9983E+01   0.0000E+00  0.0000
   3.9983E+01   4.0956E+01   0.0000E+00  0.0000
   4.0956E+01   4.1953E+01   0.0000E+00  0.0000
   4.1953E+01   4.2973E+01   0.0000E+00  0.0000
   4.2973E+01   4.4019E+01   0.0000E+00  0.0000
   4.4019E+01   4.5090E+01   0.0000E+00  0.0000
   4.5090E+01   4.6187E+01   0.0000E+00  0.0000
   4.6187E+01   4.7311E+01   0.0000E+00  0.0000
   4.7311E+01   4.8462E+01   0.0000E+00  0.0000
   4.8462E+01   4.9641E+01   0.0000E+00  0.0000
   4.9641E+01   5.0849E+01   0.0000E+00  0.0000
   5.0849E+01   5.2086E+01   0.0000E+00  0.0000
   5.2086E+01   5.3353E+01   0.0000E+00  0.0000
   5.3353E+01   5.4651E+01   0.0000E+00  0.0000
   5.4651E+01   5.5981E+01   0.0000E+00  0.0000
   5.5981E+01   5.7343E+01   0.0000E+00  0.0000
   5.7343E+01   5.8738E+01   0.0000E+00  0.0000
   5.8738E+01   6.0168E+01   0.0000E+00  0.0000
   6.0168E+01   6.1632E+01   0.0000E+00  0.0000
   6.1632E+01   6.3131E+01   0.0000E+00  0.0000
   6.3131E+01   6.4667E+01   0.0000E+00  0.0000
   6.4667E+01   6.6240E+01   0.0000E+00  0.0000
   6.6240E+01   6.7852E+01   0.0000E+00  0.0000
   6.7852E+01   6.9503E+01   0.0000E+00  0.0000
   6.9503E+01   7.1194E+01   0.0000E+00  0.0000
   7.1194E+01   7.2926E+01   0.0000E+00  0.0000
   7.2926E+01   7.4701E+01   0.0000E+00  0.0000
   7.4701E+01   7.6518E+01   0.0000E+00  0.0000
   7.6518E+01   7.8380E+01   0.0000E+00  0.0000
   7.8380E+01   8.0287E+01   0.0000E+00  0.0000
   8.0287E+01   8.2240E+01   0.0000E+00  0.0000
   8.2240E+01   8.4241E+01   0.0000E+00  0.0000
   8.4241E+01   8.6291E+01   0.0000E+00  0.0000
   8.6291E+01   8.8391E+01   0.0000E+00  0.0000
   8.8391E+01   9.0541E+01   0.0000E+00  0.0000
   9.0541E+01   9.2744E+01   0.0000E+00  0.0000
   9.2744E+01   9.5001E+01   0.0000E+00  0.0000
   9.5001E+01   9.7312E+01   0.0000E+00  0.0000
   9.7312E+01   9.9680E+01   0.0000E+00  0.0000
   9.9680E+01   1.0211E+02   0.0000E+00  0.0000
   1.0211E+02   1.0459E+02   0.0000E+00  0.0000
   1.0459E+02   1.0713E+02   0.0000E+00  0.0000
   1.0713E+02   1.0974E+02   0.0000E+00  0.0000
   1.0974E+02   1.1241E+02   0.0000E+00  0.0000
   1.1241E+02   1.1515E+02   0.0000E+00  0.0000
   1.1515E+02   1.1795E+02   0.0000E+00  0.0000
   1.1795E+02   1.2082E+02   0.0000E+00  0.0000
   1.2082E+02   1.2376E+02   0.0000E+00  0.0000
   1.2376E+02   1.2677E+02   0.0000E+00  0.0000
   1.2677E+02   1.2985E+02   0.0000E+00  0.0000
   1.2985E+02   1.3301E+02   0.0000E+00  0.0000
   1.3301E+02   1.3625E+02   0.0000E+00  0.0000
   1.3625E+02   1.3956E+02   0.0000E+00  0.0000
   1.3956E+02   1.4296E+02   0.0000E+00  0.0000
   1.4296E+02   1.4644E+02   0.0000E+00  0.0000
   1.4644E+02   1.5000E+02   0.0000E+00  0.0000

#   sum over                 3.8546E-06
'no. =    1   reg = 106 - 206'
msuc: {\huge [t-cross] in region mesh}
msdr: {\it plotted by \ANGEL \version}
msdl: {\it calculated by \PHITS  3.26}
wt: s(0.7)
\vspace{-3}
  region surface crossing
  area  &=&   1.0000E+00 [cm^2]
e:
 
# Information for Restart Calculation
# This calculation was newly started
# istdev =  2 # 1:Batch variance, 2:History variance
# resc2  = 5.00000000000000000E+09 # Total source weight or Total source weight / maxcas
# resc3  = 5.00000000000000000E+09 # Total history number or Total batch number
# maxcas =   100000000 # History / Batch, only used for istdev=1
# bitrseed = 0110100000100010111000001110001111001110100100011111101000111001 # bit data of rseed
