[ T-Cross ]
    title = [t-cross] in region mesh
     mesh =  reg            # mesh type is region-wise
      reg =    1            # number of crossing regions
      non     r-from    r-to       area
      1       105       205        1.000000    
   e-type =    3            # e-mesh is log given by emin, emax and ne
     emin =  1.0000000E-02  # minimum value of e-mesh points
     emax =   150.0000      # maximum value of e-mesh points
#    edel =  2.4039514E-02  # mesh width of e-mesh points
       ne =    400          # number of e-mesh points
#    data = ( e(i), i = 1, ne + 1 )
#           1.00000E-02  1.02433E-02  1.04925E-02  1.07478E-02  1.10093E-02
#           1.12772E-02  1.15516E-02  1.18326E-02  1.21205E-02  1.24154E-02
#           1.27175E-02  1.30269E-02  1.33439E-02  1.36686E-02  1.40011E-02
#           1.43418E-02  1.46907E-02  1.50482E-02  1.54143E-02  1.57894E-02
#           1.61735E-02  1.65670E-02  1.69701E-02  1.73830E-02  1.78060E-02
#           1.82392E-02  1.86830E-02  1.91375E-02  1.96032E-02  2.00801E-02
#           2.05687E-02  2.10692E-02  2.15818E-02  2.21069E-02  2.26448E-02
#           2.31957E-02  2.37601E-02  2.43382E-02  2.49304E-02  2.55369E-02
#           2.61583E-02  2.67947E-02  2.74467E-02  2.81145E-02  2.87985E-02
#           2.94992E-02  3.02169E-02  3.09521E-02  3.17052E-02  3.24766E-02
#           3.32668E-02  3.40762E-02  3.49053E-02  3.57546E-02  3.66246E-02
#           3.75157E-02  3.84284E-02  3.93634E-02  4.03212E-02  4.13022E-02
#           4.23071E-02  4.33365E-02  4.43909E-02  4.54710E-02  4.65773E-02
#           4.77106E-02  4.88714E-02  5.00605E-02  5.12785E-02  5.25262E-02
#           5.38042E-02  5.51133E-02  5.64542E-02  5.78278E-02  5.92348E-02
#           6.06760E-02  6.21523E-02  6.36645E-02  6.52135E-02  6.68002E-02
#           6.84255E-02  7.00904E-02  7.17957E-02  7.35426E-02  7.53319E-02
#           7.71648E-02  7.90423E-02  8.09655E-02  8.29354E-02  8.49533E-02
#           8.70203E-02  8.91376E-02  9.13064E-02  9.35279E-02  9.58035E-02
#           9.81345E-02  1.00522E-01  1.02968E-01  1.05473E-01  1.08040E-01
#           1.10668E-01  1.13361E-01  1.16119E-01  1.18944E-01  1.21838E-01
#           1.24803E-01  1.27839E-01  1.30950E-01  1.34136E-01  1.37399E-01
#           1.40742E-01  1.44167E-01  1.47675E-01  1.51268E-01  1.54948E-01
#           1.58718E-01  1.62580E-01  1.66535E-01  1.70587E-01  1.74738E-01
#           1.78989E-01  1.83344E-01  1.87805E-01  1.92375E-01  1.97055E-01
#           2.01850E-01  2.06761E-01  2.11792E-01  2.16945E-01  2.22223E-01
#           2.27630E-01  2.33169E-01  2.38842E-01  2.44653E-01  2.50605E-01
#           2.56703E-01  2.62949E-01  2.69346E-01  2.75900E-01  2.82613E-01
#           2.89489E-01  2.96532E-01  3.03747E-01  3.11138E-01  3.18708E-01
#           3.26462E-01  3.34405E-01  3.42542E-01  3.50876E-01  3.59413E-01
#           3.68158E-01  3.77116E-01  3.86291E-01  3.95690E-01  4.05317E-01
#           4.15179E-01  4.25281E-01  4.35628E-01  4.46227E-01  4.57084E-01
#           4.68205E-01  4.79597E-01  4.91266E-01  5.03219E-01  5.15463E-01
#           5.28005E-01  5.40851E-01  5.54011E-01  5.67490E-01  5.81298E-01
#           5.95441E-01  6.09929E-01  6.24769E-01  6.39970E-01  6.55541E-01
#           6.71491E-01  6.87828E-01  7.04564E-01  7.21706E-01  7.39266E-01
#           7.57253E-01  7.75678E-01  7.94551E-01  8.13883E-01  8.33685E-01
#           8.53969E-01  8.74747E-01  8.96030E-01  9.17831E-01  9.40163E-01
#           9.63038E-01  9.86469E-01  1.01047E+00  1.03506E+00  1.06024E+00
#           1.08604E+00  1.11246E+00  1.13953E+00  1.16725E+00  1.19565E+00
#           1.22474E+00  1.25454E+00  1.28507E+00  1.31633E+00  1.34836E+00
#           1.38117E+00  1.41477E+00  1.44920E+00  1.48446E+00  1.52057E+00
#           1.55757E+00  1.59547E+00  1.63429E+00  1.67405E+00  1.71478E+00
#           1.75650E+00  1.79924E+00  1.84302E+00  1.88786E+00  1.93379E+00
#           1.98084E+00  2.02904E+00  2.07841E+00  2.12898E+00  2.18078E+00
#           2.23384E+00  2.28819E+00  2.34386E+00  2.40089E+00  2.45930E+00
#           2.51914E+00  2.58043E+00  2.64322E+00  2.70753E+00  2.77341E+00
#           2.84088E+00  2.91001E+00  2.98081E+00  3.05333E+00  3.12762E+00
#           3.20372E+00  3.28167E+00  3.36152E+00  3.44330E+00  3.52708E+00
#           3.61290E+00  3.70080E+00  3.79085E+00  3.88308E+00  3.97756E+00
#           4.07434E+00  4.17347E+00  4.27501E+00  4.37903E+00  4.48557E+00
#           4.59471E+00  4.70650E+00  4.82102E+00  4.93832E+00  5.05847E+00
#           5.18155E+00  5.30762E+00  5.43676E+00  5.56904E+00  5.70453E+00
#           5.84333E+00  5.98550E+00  6.13114E+00  6.28031E+00  6.43312E+00
#           6.58964E+00  6.74997E+00  6.91420E+00  7.08243E+00  7.25475E+00
#           7.43126E+00  7.61207E+00  7.79728E+00  7.98700E+00  8.18133E+00
#           8.38038E+00  8.58428E+00  8.79315E+00  9.00709E+00  9.22624E+00
#           9.45072E+00  9.68067E+00  9.91620E+00  1.01575E+01  1.04046E+01
#           1.06578E+01  1.09171E+01  1.11827E+01  1.14548E+01  1.17335E+01
#           1.20190E+01  1.23114E+01  1.26109E+01  1.29178E+01  1.32321E+01
#           1.35540E+01  1.38838E+01  1.42216E+01  1.45676E+01  1.49221E+01
#           1.52851E+01  1.56570E+01  1.60380E+01  1.64282E+01  1.68279E+01
#           1.72374E+01  1.76568E+01  1.80864E+01  1.85264E+01  1.89772E+01
#           1.94389E+01  1.99119E+01  2.03963E+01  2.08926E+01  2.14009E+01
#           2.19216E+01  2.24550E+01  2.30014E+01  2.35610E+01  2.41343E+01
#           2.47215E+01  2.53230E+01  2.59391E+01  2.65702E+01  2.72167E+01
#           2.78789E+01  2.85572E+01  2.92520E+01  2.99637E+01  3.06928E+01
#           3.14396E+01  3.22045E+01  3.29881E+01  3.37907E+01  3.46128E+01
#           3.54550E+01  3.63177E+01  3.72013E+01  3.81064E+01  3.90336E+01
#           3.99833E+01  4.09561E+01  4.19526E+01  4.29734E+01  4.40189E+01
#           4.50900E+01  4.61870E+01  4.73108E+01  4.84619E+01  4.96410E+01
#           5.08488E+01  5.20860E+01  5.33533E+01  5.46514E+01  5.59812E+01
#           5.73432E+01  5.87384E+01  6.01676E+01  6.16315E+01  6.31311E+01
#           6.46671E+01  6.62405E+01  6.78522E+01  6.95031E+01  7.11941E+01
#           7.29263E+01  7.47007E+01  7.65182E+01  7.83800E+01  8.02870E+01
#           8.22405E+01  8.42414E+01  8.62911E+01  8.83906E+01  9.05412E+01
#           9.27442E+01  9.50007E+01  9.73122E+01  9.96799E+01  1.02105E+02
#           1.04589E+02  1.07134E+02  1.09741E+02  1.12411E+02  1.15146E+02
#           1.17948E+02  1.20817E+02  1.23757E+02  1.26768E+02  1.29852E+02
#           1.33012E+02  1.36248E+02  1.39563E+02  1.42959E+02  1.46437E+02
#           1.50000E+02
     unit =    2            # unit is [1/cm^2/(MeV/n)/source]
     axis =  eng            # axis of output
     file = detector-06.out  # file name of output for the above axis
   output = f-curr          # surface crossing forward current spectrum
     part =  neutron  
# kf/name :  2112     
#    used :        main (  %)        temp (  %)       total (  %)
#  memory :         414 (  0)           0 (  0)         414 (  0)

#------------------------------------------------------------------------------
#newpage:
#   no. =    1   reg = 105 - 205

x: Energy [MeV/n]
y:  F-Curr [1/cm^2/(MeV/n)/source]         
p: xlog ylog afac(0.8) form(0.9)
h: n            x            y(neutron ),hh0l   n 
#  e-lower      e-upper      neutron     r.err 
   1.0000E-02   1.0243E-02   8.9475E-04  0.0301
   1.0243E-02   1.0493E-02   8.5731E-04  0.0304
   1.0493E-02   1.0748E-02   8.4657E-04  0.0303
   1.0748E-02   1.1009E-02   8.5606E-04  0.0297
   1.1009E-02   1.1277E-02   8.7624E-04  0.0290
   1.1277E-02   1.1552E-02   7.7432E-04  0.0305
   1.1552E-02   1.1833E-02   8.2665E-04  0.0292
   1.1833E-02   1.2121E-02   8.0912E-04  0.0291
   1.2121E-02   1.2415E-02   7.3535E-04  0.0302
   1.2415E-02   1.2718E-02   7.2489E-04  0.0301
   1.2718E-02   1.3027E-02   7.1638E-04  0.0299
   1.3027E-02   1.3344E-02   6.8375E-04  0.0302
   1.3344E-02   1.3669E-02   7.0767E-04  0.0293
   1.3669E-02   1.4001E-02   7.2638E-04  0.0286
   1.4001E-02   1.4342E-02   6.7166E-04  0.0294
   1.4342E-02   1.4691E-02   6.4074E-04  0.0298
   1.4691E-02   1.5048E-02   6.6226E-04  0.0289
   1.5048E-02   1.5414E-02   6.5295E-04  0.0288
   1.5414E-02   1.5789E-02   6.3312E-04  0.0289
   1.5789E-02   1.6174E-02   5.8691E-04  0.0296
   1.6174E-02   1.6567E-02   5.7218E-04  0.0296
   1.6567E-02   1.6970E-02   6.0366E-04  0.0285
   1.6970E-02   1.7383E-02   5.3060E-04  0.0300
   1.7383E-02   1.7806E-02   5.8035E-04  0.0284
   1.7806E-02   1.8239E-02   5.2556E-04  0.0295
   1.8239E-02   1.8683E-02   5.3468E-04  0.0289
   1.8683E-02   1.9138E-02   5.3999E-04  0.0284
   1.9138E-02   1.9603E-02   5.0299E-04  0.0291
   1.9603E-02   2.0080E-02   5.1407E-04  0.0284
   2.0080E-02   2.0569E-02   4.9427E-04  0.0286
   2.0569E-02   2.1069E-02   4.7642E-04  0.0288
   2.1069E-02   2.1582E-02   4.7985E-04  0.0284
   2.1582E-02   2.2107E-02   4.6691E-04  0.0284
   2.2107E-02   2.2645E-02   4.5032E-04  0.0286
   2.2645E-02   2.3196E-02   4.3654E-04  0.0287
   2.3196E-02   2.3760E-02   4.3892E-04  0.0283
   2.3760E-02   2.4338E-02   4.1862E-04  0.0286
   2.4338E-02   2.4930E-02   4.1122E-04  0.0285
   2.4930E-02   2.5537E-02   4.3333E-04  0.0275
   2.5537E-02   2.6158E-02   4.1599E-04  0.0277
   2.6158E-02   2.6795E-02   3.7846E-04  0.0286
   2.6795E-02   2.7447E-02   4.0106E-04  0.0275
   2.7447E-02   2.8114E-02   3.6726E-04  0.0284
   2.8114E-02   2.8799E-02   3.5118E-04  0.0287
   2.8799E-02   2.9499E-02   3.5473E-04  0.0282
   2.9499E-02   3.0217E-02   3.4296E-04  0.0284
   3.0217E-02   3.0952E-02   3.4363E-04  0.0280
   3.0952E-02   3.1705E-02   3.3389E-04  0.0280
   3.1705E-02   3.2477E-02   3.1791E-04  0.0284
   3.2477E-02   3.3267E-02   3.2845E-04  0.0276
   3.3267E-02   3.4076E-02   3.0656E-04  0.0282
   3.4076E-02   3.4905E-02   3.0306E-04  0.0280
   3.4905E-02   3.5755E-02   3.0380E-04  0.0277
   3.5755E-02   3.6625E-02   3.2273E-04  0.0266
   3.6625E-02   3.7516E-02   3.0245E-04  0.0271
   3.7516E-02   3.8428E-02   2.8797E-04  0.0275
   3.8428E-02   3.9363E-02   2.9312E-04  0.0269
   3.9363E-02   4.0321E-02   2.8927E-04  0.0268
   4.0321E-02   4.1302E-02   2.6843E-04  0.0274
   4.1302E-02   4.2307E-02   2.5721E-04  0.0277
   4.2307E-02   4.3337E-02   2.5752E-04  0.0273
   4.3337E-02   4.4391E-02   2.4734E-04  0.0275
   4.4391E-02   4.5471E-02   2.5025E-04  0.0271
   4.5471E-02   4.6577E-02   2.3944E-04  0.0273
   4.6577E-02   4.7711E-02   2.4592E-04  0.0266
   4.7711E-02   4.8871E-02   2.3861E-04  0.0267
   4.8871E-02   5.0061E-02   2.3794E-04  0.0264
   5.0061E-02   5.1279E-02   2.2007E-04  0.0272
   5.1279E-02   5.2526E-02   2.1871E-04  0.0269
   5.2526E-02   5.3804E-02   2.2193E-04  0.0264
   5.3804E-02   5.5113E-02   2.2033E-04  0.0262
   5.5113E-02   5.6454E-02   2.0255E-04  0.0270
   5.6454E-02   5.7828E-02   2.1072E-04  0.0262
   5.7828E-02   5.9235E-02   1.9954E-04  0.0265
   5.9235E-02   6.0676E-02   2.0355E-04  0.0260
   6.0676E-02   6.2152E-02   1.9962E-04  0.0259
   6.2152E-02   6.3665E-02   1.8792E-04  0.0264
   6.3665E-02   6.5214E-02   1.8604E-04  0.0262
   6.5214E-02   6.6800E-02   1.9125E-04  0.0256
   6.6800E-02   6.8426E-02   1.8999E-04  0.0253
   6.8426E-02   7.0090E-02   1.7772E-04  0.0259
   7.0090E-02   7.1796E-02   1.7395E-04  0.0258
   7.1796E-02   7.3543E-02   1.6674E-04  0.0261
   7.3543E-02   7.5332E-02   1.7265E-04  0.0253
   7.5332E-02   7.7165E-02   1.6633E-04  0.0255
   7.7165E-02   7.9042E-02   1.5092E-04  0.0264
   7.9042E-02   8.0965E-02   1.5719E-04  0.0256
   8.0965E-02   8.2935E-02   1.5462E-04  0.0255
   8.2935E-02   8.4953E-02   1.5787E-04  0.0249
   8.4953E-02   8.7020E-02   1.5041E-04  0.0252
   8.7020E-02   8.9138E-02   1.4416E-04  0.0254
   8.9138E-02   9.1306E-02   1.3587E-04  0.0259
   9.1306E-02   9.3528E-02   1.3886E-04  0.0253
   9.3528E-02   9.5804E-02   1.3284E-04  0.0256
   9.5804E-02   9.8134E-02   1.3221E-04  0.0253
   9.8134E-02   1.0052E-01   1.3105E-04  0.0252
   1.0052E-01   1.0297E-01   1.2365E-04  0.0256
   1.0297E-01   1.0547E-01   1.2271E-04  0.0254
   1.0547E-01   1.0804E-01   1.2178E-04  0.0252
   1.0804E-01   1.1067E-01   1.1970E-04  0.0251
   1.1067E-01   1.1336E-01   1.1430E-04  0.0254
   1.1336E-01   1.1612E-01   1.0526E-04  0.0261
   1.1612E-01   1.1894E-01   1.1241E-04  0.0250
   1.1894E-01   1.2184E-01   1.0889E-04  0.0251
   1.2184E-01   1.2480E-01   1.1034E-04  0.0246
   1.2480E-01   1.2784E-01   1.0831E-04  0.0245
   1.2784E-01   1.3095E-01   9.8599E-05  0.0254
   1.3095E-01   1.3414E-01   9.6456E-05  0.0254
   1.3414E-01   1.3740E-01   1.0035E-04  0.0246
   1.3740E-01   1.4074E-01   9.8680E-05  0.0245
   1.4074E-01   1.4417E-01   9.2217E-05  0.0250
   1.4417E-01   1.4767E-01   9.0196E-05  0.0250
   1.4767E-01   1.5127E-01   8.8445E-05  0.0250
   1.5127E-01   1.5495E-01   8.8422E-05  0.0247
   1.5495E-01   1.5872E-01   8.5240E-05  0.0248
   1.5872E-01   1.6258E-01   8.4714E-05  0.0246
   1.6258E-01   1.6654E-01   8.1043E-05  0.0249
   1.6654E-01   1.7059E-01   7.7386E-05  0.0251
   1.7059E-01   1.7474E-01   7.6444E-05  0.0250
   1.7474E-01   1.7899E-01   7.8478E-05  0.0244
   1.7899E-01   1.8334E-01   7.5851E-05  0.0245
   1.8334E-01   1.8781E-01   7.4584E-05  0.0244
   1.8781E-01   1.9237E-01   7.2285E-05  0.0245
   1.9237E-01   1.9706E-01   7.4906E-05  0.0238
   1.9706E-01   2.0185E-01   7.0766E-05  0.0241
   2.0185E-01   2.0676E-01   7.0700E-05  0.0239
   2.0676E-01   2.1179E-01   7.4791E-05  0.0229
   2.1179E-01   2.1694E-01   8.0518E-05  0.0218
   2.1694E-01   2.2222E-01   8.3705E-05  0.0212
   2.2222E-01   2.2763E-01   8.1347E-05  0.0212
   2.2763E-01   2.3317E-01   8.5384E-05  0.0205
   2.3317E-01   2.3884E-01   8.5540E-05  0.0202
   2.3884E-01   2.4465E-01   8.7996E-05  0.0197
   2.4465E-01   2.5061E-01   8.9790E-05  0.0193
   2.5061E-01   2.5670E-01   9.3117E-05  0.0187
   2.5670E-01   2.6295E-01   1.0031E-04  0.0178
   2.6295E-01   2.6935E-01   1.0415E-04  0.0172
   2.6935E-01   2.7590E-01   1.0336E-04  0.0171
   2.7590E-01   2.8261E-01   1.0757E-04  0.0166
   2.8261E-01   2.8949E-01   1.1252E-04  0.0160
   2.8949E-01   2.9653E-01   1.1429E-04  0.0157
   2.9653E-01   3.0375E-01   1.1337E-04  0.0155
   3.0375E-01   3.1114E-01   1.1864E-04  0.0150
   3.1114E-01   3.1871E-01   1.2525E-04  0.0144
   3.1871E-01   3.2646E-01   1.2901E-04  0.0141
   3.2646E-01   3.3441E-01   1.3189E-04  0.0137
   3.3441E-01   3.4254E-01   1.3202E-04  0.0136
   3.4254E-01   3.5088E-01   1.3352E-04  0.0133
   3.5088E-01   3.5941E-01   1.4215E-04  0.0128
   3.5941E-01   3.6816E-01   1.4551E-04  0.0125
   3.6816E-01   3.7712E-01   1.4244E-04  0.0124
   3.7712E-01   3.8629E-01   1.5183E-04  0.0119
   3.8629E-01   3.9569E-01   1.5341E-04  0.0117
   3.9569E-01   4.0532E-01   1.5383E-04  0.0116
   4.0532E-01   4.1518E-01   1.5810E-04  0.0113
   4.1518E-01   4.2528E-01   1.6476E-04  0.0109
   4.2528E-01   4.3563E-01   1.6640E-04  0.0107
   4.3563E-01   4.4623E-01   1.6568E-04  0.0106
   4.4623E-01   4.5708E-01   1.7199E-04  0.0103
   4.5708E-01   4.6821E-01   1.7357E-04  0.0101
   4.6821E-01   4.7960E-01   1.7622E-04  0.0099
   4.7960E-01   4.9127E-01   1.8049E-04  0.0097
   4.9127E-01   5.0322E-01   1.8109E-04  0.0096
   5.0322E-01   5.1546E-01   1.8061E-04  0.0095
   5.1546E-01   5.2800E-01   1.9026E-04  0.0091
   5.2800E-01   5.4085E-01   1.9137E-04  0.0090
   5.4085E-01   5.5401E-01   1.9392E-04  0.0088
   5.5401E-01   5.6749E-01   1.9502E-04  0.0087
   5.6749E-01   5.8130E-01   1.9843E-04  0.0085
   5.8130E-01   5.9544E-01   1.9908E-04  0.0084
   5.9544E-01   6.0993E-01   1.9897E-04  0.0083
   6.0993E-01   6.2477E-01   2.0337E-04  0.0081
   6.2477E-01   6.3997E-01   2.0300E-04  0.0080
   6.3997E-01   6.5554E-01   2.0559E-04  0.0079
   6.5554E-01   6.7149E-01   2.0597E-04  0.0078
   6.7149E-01   6.8783E-01   2.0928E-04  0.0076
   6.8783E-01   7.0456E-01   2.1034E-04  0.0075
   7.0456E-01   7.2171E-01   2.0651E-04  0.0075
   7.2171E-01   7.3927E-01   2.1026E-04  0.0073
   7.3927E-01   7.5725E-01   2.1228E-04  0.0072
   7.5725E-01   7.7568E-01   2.1070E-04  0.0071
   7.7568E-01   7.9455E-01   2.1165E-04  0.0070
   7.9455E-01   8.1388E-01   2.1296E-04  0.0069
   8.1388E-01   8.3368E-01   2.1275E-04  0.0069
   8.3368E-01   8.5397E-01   2.1286E-04  0.0068
   8.5397E-01   8.7475E-01   2.1740E-04  0.0066
   8.7475E-01   8.9603E-01   2.1403E-04  0.0066
   8.9603E-01   9.1783E-01   2.1605E-04  0.0065
   9.1783E-01   9.4016E-01   2.1573E-04  0.0064
   9.4016E-01   9.6304E-01   2.1563E-04  0.0063
   9.6304E-01   9.8647E-01   2.1740E-04  0.0062
   9.8647E-01   1.0105E+00   2.1467E-04  0.0062
   1.0105E+00   1.0351E+00   2.1382E-04  0.0061
   1.0351E+00   1.0602E+00   2.1324E-04  0.0061
   1.0602E+00   1.0860E+00   2.1155E-04  0.0060
   1.0860E+00   1.1125E+00   2.0871E-04  0.0060
   1.1125E+00   1.1395E+00   2.0741E-04  0.0059
   1.1395E+00   1.1673E+00   2.0796E-04  0.0059
   1.1673E+00   1.1957E+00   2.0610E-04  0.0058
   1.1957E+00   1.2247E+00   2.0589E-04  0.0057
   1.2247E+00   1.2545E+00   2.0627E-04  0.0057
   1.2545E+00   1.2851E+00   2.0507E-04  0.0056
   1.2851E+00   1.3163E+00   2.0336E-04  0.0056
   1.3163E+00   1.3484E+00   1.9998E-04  0.0056
   1.3484E+00   1.3812E+00   2.0107E-04  0.0055
   1.3812E+00   1.4148E+00   1.9919E-04  0.0054
   1.4148E+00   1.4492E+00   2.0243E-04  0.0053
   1.4492E+00   1.4845E+00   2.0106E-04  0.0053
   1.4845E+00   1.5206E+00   2.0105E-04  0.0052
   1.5206E+00   1.5576E+00   2.0045E-04  0.0052
   1.5576E+00   1.5955E+00   1.9630E-04  0.0052
   1.5955E+00   1.6343E+00   1.9586E-04  0.0051
   1.6343E+00   1.6741E+00   1.9259E-04  0.0051
   1.6741E+00   1.7148E+00   1.9063E-04  0.0050
   1.7148E+00   1.7565E+00   1.8987E-04  0.0050
   1.7565E+00   1.7992E+00   1.9120E-04  0.0049
   1.7992E+00   1.8430E+00   1.9076E-04  0.0049
   1.8430E+00   1.8879E+00   1.8615E-04  0.0049
   1.8879E+00   1.9338E+00   1.8595E-04  0.0048
   1.9338E+00   1.9808E+00   1.8517E-04  0.0048
   1.9808E+00   2.0290E+00   1.8531E-04  0.0047
   2.0290E+00   2.0784E+00   1.8486E-04  0.0047
   2.0784E+00   2.1290E+00   1.8240E-04  0.0046
   2.1290E+00   2.1808E+00   1.7897E-04  0.0046
   2.1808E+00   2.2338E+00   1.7710E-04  0.0046
   2.2338E+00   2.2882E+00   1.7553E-04  0.0046
   2.2882E+00   2.3439E+00   1.7430E-04  0.0045
   2.3439E+00   2.4009E+00   1.7235E-04  0.0045
   2.4009E+00   2.4593E+00   1.7258E-04  0.0044
   2.4593E+00   2.5191E+00   1.7059E-04  0.0044
   2.5191E+00   2.5804E+00   1.6877E-04  0.0044
   2.5804E+00   2.6432E+00   1.6801E-04  0.0043
   2.6432E+00   2.7075E+00   1.6604E-04  0.0043
   2.7075E+00   2.7734E+00   1.6500E-04  0.0043
   2.7734E+00   2.8409E+00   1.6179E-04  0.0043
   2.8409E+00   2.9100E+00   1.6102E-04  0.0042
   2.9100E+00   2.9808E+00   1.5822E-04  0.0042
   2.9808E+00   3.0533E+00   1.5716E-04  0.0042
   3.0533E+00   3.1276E+00   1.5555E-04  0.0041
   3.1276E+00   3.2037E+00   1.5452E-04  0.0041
   3.2037E+00   3.2817E+00   1.5121E-04  0.0041
   3.2817E+00   3.3615E+00   1.4865E-04  0.0041
   3.3615E+00   3.4433E+00   1.4671E-04  0.0041
   3.4433E+00   3.5271E+00   1.4521E-04  0.0040
   3.5271E+00   3.6129E+00   1.4352E-04  0.0040
   3.6129E+00   3.7008E+00   1.4144E-04  0.0040
   3.7008E+00   3.7908E+00   1.3865E-04  0.0040
   3.7908E+00   3.8831E+00   1.3640E-04  0.0040
   3.8831E+00   3.9776E+00   1.3521E-04  0.0039
   3.9776E+00   4.0743E+00   1.3311E-04  0.0039
   4.0743E+00   4.1735E+00   1.3024E-04  0.0039
   4.1735E+00   4.2750E+00   1.2814E-04  0.0039
   4.2750E+00   4.3790E+00   1.2632E-04  0.0039
   4.3790E+00   4.4856E+00   1.2475E-04  0.0039
   4.4856E+00   4.5947E+00   1.2215E-04  0.0039
   4.5947E+00   4.7065E+00   1.2046E-04  0.0038
   4.7065E+00   4.8210E+00   1.1795E-04  0.0038
   4.8210E+00   4.9383E+00   1.1631E-04  0.0038
   4.9383E+00   5.0585E+00   1.1499E-04  0.0038
   5.0585E+00   5.1815E+00   1.1629E-04  0.0037
   5.1815E+00   5.3076E+00   1.1448E-04  0.0037
   5.3076E+00   5.4368E+00   1.1222E-04  0.0037
   5.4368E+00   5.5690E+00   1.1064E-04  0.0037
   5.5690E+00   5.7045E+00   1.0828E-04  0.0037
   5.7045E+00   5.8433E+00   1.0578E-04  0.0037
   5.8433E+00   5.9855E+00   1.0373E-04  0.0037
   5.9855E+00   6.1311E+00   1.0123E-04  0.0037
   6.1311E+00   6.2803E+00   9.8971E-05  0.0037
   6.2803E+00   6.4331E+00   9.6589E-05  0.0037
   6.4331E+00   6.5896E+00   9.4923E-05  0.0037
   6.5896E+00   6.7500E+00   9.2744E-05  0.0037
   6.7500E+00   6.9142E+00   9.1594E-05  0.0036
   6.9142E+00   7.0824E+00   8.9719E-05  0.0036
   7.0824E+00   7.2548E+00   8.7664E-05  0.0036
   7.2548E+00   7.4313E+00   8.5813E-05  0.0036
   7.4313E+00   7.6121E+00   8.4393E-05  0.0036
   7.6121E+00   7.7973E+00   8.2166E-05  0.0036
   7.7973E+00   7.9870E+00   8.1244E-05  0.0036
   7.9870E+00   8.1813E+00   7.9338E-05  0.0036
   8.1813E+00   8.3804E+00   7.8024E-05  0.0036
   8.3804E+00   8.5843E+00   7.6802E-05  0.0036
   8.5843E+00   8.7931E+00   7.5322E-05  0.0036
   8.7931E+00   9.0071E+00   7.4665E-05  0.0035
   9.0071E+00   9.2262E+00   7.2520E-05  0.0035
   9.2262E+00   9.4507E+00   7.2051E-05  0.0035
   9.4507E+00   9.6807E+00   7.0908E-05  0.0035
   9.6807E+00   9.9162E+00   6.9582E-05  0.0035
   9.9162E+00   1.0157E+01   6.8448E-05  0.0035
   1.0157E+01   1.0405E+01   6.7259E-05  0.0035
   1.0405E+01   1.0658E+01   6.6224E-05  0.0035
   1.0658E+01   1.0917E+01   6.6137E-05  0.0034
   1.0917E+01   1.1183E+01   6.4620E-05  0.0034
   1.1183E+01   1.1455E+01   6.3838E-05  0.0034
   1.1455E+01   1.1733E+01   6.3471E-05  0.0034
   1.1733E+01   1.2019E+01   6.2680E-05  0.0033
   1.2019E+01   1.2311E+01   6.2001E-05  0.0033
   1.2311E+01   1.2611E+01   6.1310E-05  0.0033
   1.2611E+01   1.2918E+01   6.0375E-05  0.0033
   1.2918E+01   1.3232E+01   6.0452E-05  0.0032
   1.3232E+01   1.3554E+01   5.9904E-05  0.0032
   1.3554E+01   1.3884E+01   5.8993E-05  0.0032
   1.3884E+01   1.4222E+01   5.9043E-05  0.0032
   1.4222E+01   1.4568E+01   5.8571E-05  0.0031
   1.4568E+01   1.4922E+01   5.8186E-05  0.0031
   1.4922E+01   1.5285E+01   5.7883E-05  0.0031
   1.5285E+01   1.5657E+01   5.7176E-05  0.0031
   1.5657E+01   1.6038E+01   5.7296E-05  0.0030
   1.6038E+01   1.6428E+01   5.7006E-05  0.0030
   1.6428E+01   1.6828E+01   5.7077E-05  0.0030
   1.6828E+01   1.7237E+01   5.6866E-05  0.0029
   1.7237E+01   1.7657E+01   5.6562E-05  0.0029
   1.7657E+01   1.8086E+01   5.6889E-05  0.0029
   1.8086E+01   1.8526E+01   5.6480E-05  0.0028
   1.8526E+01   1.8977E+01   5.6436E-05  0.0028
   1.8977E+01   1.9439E+01   5.7101E-05  0.0028
   1.9439E+01   1.9912E+01   5.8226E-05  0.0027
   1.9912E+01   2.0396E+01   5.8928E-05  0.0026
   2.0396E+01   2.0893E+01   5.9301E-05  0.0026
   2.0893E+01   2.1401E+01   5.9789E-05  0.0026
   2.1401E+01   2.1922E+01   6.0311E-05  0.0025
   2.1922E+01   2.2455E+01   6.0580E-05  0.0025
   2.2455E+01   2.3001E+01   6.1556E-05  0.0024
   2.3001E+01   2.3561E+01   6.1807E-05  0.0024
   2.3561E+01   2.4134E+01   6.3068E-05  0.0024
   2.4134E+01   2.4721E+01   6.3954E-05  0.0023
   2.4721E+01   2.5323E+01   6.4464E-05  0.0023
   2.5323E+01   2.5939E+01   6.5841E-05  0.0022
   2.5939E+01   2.6570E+01   6.7374E-05  0.0022
   2.6570E+01   2.7217E+01   6.8365E-05  0.0021
   2.7217E+01   2.7879E+01   7.0055E-05  0.0021
   2.7879E+01   2.8557E+01   7.1420E-05  0.0020
   2.8557E+01   2.9252E+01   7.3381E-05  0.0020
   2.9252E+01   2.9964E+01   7.5822E-05  0.0019
   2.9964E+01   3.0693E+01   7.7992E-05  0.0019
   3.0693E+01   3.1440E+01   8.0616E-05  0.0018
   3.1440E+01   3.2205E+01   8.3295E-05  0.0018
   3.2205E+01   3.2988E+01   8.6056E-05  0.0017
   3.2988E+01   3.3791E+01   8.9495E-05  0.0017
   3.3791E+01   3.4613E+01   9.2807E-05  0.0016
   3.4613E+01   3.5455E+01   9.6046E-05  0.0016
   3.5455E+01   3.6318E+01   1.0071E-04  0.0015
   3.6318E+01   3.7201E+01   1.0474E-04  0.0015
   3.7201E+01   3.8106E+01   1.0945E-04  0.0014
   3.8106E+01   3.9034E+01   1.1396E-04  0.0014
   3.9034E+01   3.9983E+01   1.1898E-04  0.0013
   3.9983E+01   4.0956E+01   1.2425E-04  0.0013
   4.0956E+01   4.1953E+01   1.2944E-04  0.0012
   4.1953E+01   4.2973E+01   1.3490E-04  0.0012
   4.2973E+01   4.4019E+01   1.4029E-04  0.0012
   4.4019E+01   4.5090E+01   1.4572E-04  0.0011
   4.5090E+01   4.6187E+01   1.5069E-04  0.0011
   4.6187E+01   4.7311E+01   1.5554E-04  0.0011
   4.7311E+01   4.8462E+01   1.6063E-04  0.0010
   4.8462E+01   4.9641E+01   1.6416E-04  0.0010
   4.9641E+01   5.0849E+01   1.6748E-04  0.0010
   5.0849E+01   5.2086E+01   1.6999E-04  0.0010
   5.2086E+01   5.3353E+01   1.7153E-04  0.0010
   5.3353E+01   5.4651E+01   1.7226E-04  0.0009
   5.4651E+01   5.5981E+01   1.7186E-04  0.0009
   5.5981E+01   5.7343E+01   1.7050E-04  0.0009
   5.7343E+01   5.8738E+01   1.6779E-04  0.0009
   5.8738E+01   6.0168E+01   1.6441E-04  0.0009
   6.0168E+01   6.1632E+01   1.5941E-04  0.0009
   6.1632E+01   6.3131E+01   1.5398E-04  0.0009
   6.3131E+01   6.4667E+01   1.4721E-04  0.0009
   6.4667E+01   6.6240E+01   1.4015E-04  0.0010
   6.6240E+01   6.7852E+01   1.3219E-04  0.0010
   6.7852E+01   6.9503E+01   1.2395E-04  0.0010
   6.9503E+01   7.1194E+01   1.1546E-04  0.0010
   7.1194E+01   7.2926E+01   1.0691E-04  0.0010
   7.2926E+01   7.4701E+01   9.8160E-05  0.0011
   7.4701E+01   7.6518E+01   8.9785E-05  0.0011
   7.6518E+01   7.8380E+01   8.1458E-05  0.0011
   7.8380E+01   8.0287E+01   7.3434E-05  0.0012
   8.0287E+01   8.2240E+01   6.5915E-05  0.0012
   8.2240E+01   8.4241E+01   5.8602E-05  0.0013
   8.4241E+01   8.6291E+01   5.1833E-05  0.0014
   8.6291E+01   8.8391E+01   4.5484E-05  0.0014
   8.8391E+01   9.0541E+01   3.9638E-05  0.0015
   9.0541E+01   9.2744E+01   3.4143E-05  0.0016
   9.2744E+01   9.5001E+01   2.9086E-05  0.0017
   9.5001E+01   9.7312E+01   2.4643E-05  0.0019
   9.7312E+01   9.9680E+01   2.1943E-05  0.0020
   9.9680E+01   1.0211E+02   2.0677E-05  0.0020
   1.0211E+02   1.0459E+02   1.8769E-05  0.0021
   1.0459E+02   1.0713E+02   1.6068E-05  0.0022
   1.0713E+02   1.0974E+02   1.3225E-05  0.0024
   1.0974E+02   1.1241E+02   1.0986E-05  0.0026
   1.1241E+02   1.1515E+02   9.0263E-06  0.0028
   1.1515E+02   1.1795E+02   7.5464E-06  0.0031
   1.1795E+02   1.2082E+02   6.3318E-06  0.0033
   1.2082E+02   1.2376E+02   3.7633E-06  0.0043
   1.2376E+02   1.2677E+02   1.0756E-06  0.0079
   1.2677E+02   1.2985E+02   4.3445E-08  0.0386
   1.2985E+02   1.3301E+02   0.0000E+00  0.0000
   1.3301E+02   1.3625E+02   0.0000E+00  0.0000
   1.3625E+02   1.3956E+02   0.0000E+00  0.0000
   1.3956E+02   1.4296E+02   0.0000E+00  0.0000
   1.4296E+02   1.4644E+02   0.0000E+00  0.0000
   1.4644E+02   1.5000E+02   0.0000E+00  0.0000

#   sum over                 6.7139E-05
'no. =    1   reg = 105 - 205'
msuc: {\huge [t-cross] in region mesh}
msdr: {\it plotted by \ANGEL \version}
msdl: {\it calculated by \PHITS  3.28}
wt: s(0.7)
\vspace{-3}
  region surface crossing
  area  &=&   1.0000E+00 [cm^2]
e:
 
# Information for Restart Calculation
# This calculation was newly started
# istdev =  2 # 1:Batch variance, 2:History variance
# resc2  = 5.00000000000000000E+09 # Total source weight or Total source weight / maxcas
# resc3  = 5.00000000000000000E+09 # Total history number or Total batch number
# maxcas =   500000000 # History / Batch, only used for istdev=1
# bitrseed = 0110100000100010111000001110001111001110100100011111101000111001 # bit data of rseed
