[ T-Cross ]
    title = [t-cross] in region mesh
     mesh =  reg            # mesh type is region-wise
      reg =    1            # number of crossing regions
      non     r-from    r-to       area
      1       116       216        1.000000    
   e-type =    3            # e-mesh is log given by emin, emax and ne
     emin =  1.0000000E-02  # minimum value of e-mesh points
     emax =   150.0000      # maximum value of e-mesh points
#    edel =  2.4039514E-02  # mesh width of e-mesh points
       ne =    400          # number of e-mesh points
#    data = ( e(i), i = 1, ne + 1 )
#           1.00000E-02  1.02433E-02  1.04925E-02  1.07478E-02  1.10093E-02
#           1.12772E-02  1.15516E-02  1.18326E-02  1.21205E-02  1.24154E-02
#           1.27175E-02  1.30269E-02  1.33439E-02  1.36686E-02  1.40011E-02
#           1.43418E-02  1.46907E-02  1.50482E-02  1.54143E-02  1.57894E-02
#           1.61735E-02  1.65670E-02  1.69701E-02  1.73830E-02  1.78060E-02
#           1.82392E-02  1.86830E-02  1.91375E-02  1.96032E-02  2.00801E-02
#           2.05687E-02  2.10692E-02  2.15818E-02  2.21069E-02  2.26448E-02
#           2.31957E-02  2.37601E-02  2.43382E-02  2.49304E-02  2.55369E-02
#           2.61583E-02  2.67947E-02  2.74467E-02  2.81145E-02  2.87985E-02
#           2.94992E-02  3.02169E-02  3.09521E-02  3.17052E-02  3.24766E-02
#           3.32668E-02  3.40762E-02  3.49053E-02  3.57546E-02  3.66246E-02
#           3.75157E-02  3.84284E-02  3.93634E-02  4.03212E-02  4.13022E-02
#           4.23071E-02  4.33365E-02  4.43909E-02  4.54710E-02  4.65773E-02
#           4.77106E-02  4.88714E-02  5.00605E-02  5.12785E-02  5.25262E-02
#           5.38042E-02  5.51133E-02  5.64542E-02  5.78278E-02  5.92348E-02
#           6.06760E-02  6.21523E-02  6.36645E-02  6.52135E-02  6.68002E-02
#           6.84255E-02  7.00904E-02  7.17957E-02  7.35426E-02  7.53319E-02
#           7.71648E-02  7.90423E-02  8.09655E-02  8.29354E-02  8.49533E-02
#           8.70203E-02  8.91376E-02  9.13064E-02  9.35279E-02  9.58035E-02
#           9.81345E-02  1.00522E-01  1.02968E-01  1.05473E-01  1.08040E-01
#           1.10668E-01  1.13361E-01  1.16119E-01  1.18944E-01  1.21838E-01
#           1.24803E-01  1.27839E-01  1.30950E-01  1.34136E-01  1.37399E-01
#           1.40742E-01  1.44167E-01  1.47675E-01  1.51268E-01  1.54948E-01
#           1.58718E-01  1.62580E-01  1.66535E-01  1.70587E-01  1.74738E-01
#           1.78989E-01  1.83344E-01  1.87805E-01  1.92375E-01  1.97055E-01
#           2.01850E-01  2.06761E-01  2.11792E-01  2.16945E-01  2.22223E-01
#           2.27630E-01  2.33169E-01  2.38842E-01  2.44653E-01  2.50605E-01
#           2.56703E-01  2.62949E-01  2.69346E-01  2.75900E-01  2.82613E-01
#           2.89489E-01  2.96532E-01  3.03747E-01  3.11138E-01  3.18708E-01
#           3.26462E-01  3.34405E-01  3.42542E-01  3.50876E-01  3.59413E-01
#           3.68158E-01  3.77116E-01  3.86291E-01  3.95690E-01  4.05317E-01
#           4.15179E-01  4.25281E-01  4.35628E-01  4.46227E-01  4.57084E-01
#           4.68205E-01  4.79597E-01  4.91266E-01  5.03219E-01  5.15463E-01
#           5.28005E-01  5.40851E-01  5.54011E-01  5.67490E-01  5.81298E-01
#           5.95441E-01  6.09929E-01  6.24769E-01  6.39970E-01  6.55541E-01
#           6.71491E-01  6.87828E-01  7.04564E-01  7.21706E-01  7.39266E-01
#           7.57253E-01  7.75678E-01  7.94551E-01  8.13883E-01  8.33685E-01
#           8.53969E-01  8.74747E-01  8.96030E-01  9.17831E-01  9.40163E-01
#           9.63038E-01  9.86469E-01  1.01047E+00  1.03506E+00  1.06024E+00
#           1.08604E+00  1.11246E+00  1.13953E+00  1.16725E+00  1.19565E+00
#           1.22474E+00  1.25454E+00  1.28507E+00  1.31633E+00  1.34836E+00
#           1.38117E+00  1.41477E+00  1.44920E+00  1.48446E+00  1.52057E+00
#           1.55757E+00  1.59547E+00  1.63429E+00  1.67405E+00  1.71478E+00
#           1.75650E+00  1.79924E+00  1.84302E+00  1.88786E+00  1.93379E+00
#           1.98084E+00  2.02904E+00  2.07841E+00  2.12898E+00  2.18078E+00
#           2.23384E+00  2.28819E+00  2.34386E+00  2.40089E+00  2.45930E+00
#           2.51914E+00  2.58043E+00  2.64322E+00  2.70753E+00  2.77341E+00
#           2.84088E+00  2.91001E+00  2.98081E+00  3.05333E+00  3.12762E+00
#           3.20372E+00  3.28167E+00  3.36152E+00  3.44330E+00  3.52708E+00
#           3.61290E+00  3.70080E+00  3.79085E+00  3.88308E+00  3.97756E+00
#           4.07434E+00  4.17347E+00  4.27501E+00  4.37903E+00  4.48557E+00
#           4.59471E+00  4.70650E+00  4.82102E+00  4.93832E+00  5.05847E+00
#           5.18155E+00  5.30762E+00  5.43676E+00  5.56904E+00  5.70453E+00
#           5.84333E+00  5.98550E+00  6.13114E+00  6.28031E+00  6.43312E+00
#           6.58964E+00  6.74997E+00  6.91420E+00  7.08243E+00  7.25475E+00
#           7.43126E+00  7.61207E+00  7.79728E+00  7.98700E+00  8.18133E+00
#           8.38038E+00  8.58428E+00  8.79315E+00  9.00709E+00  9.22624E+00
#           9.45072E+00  9.68067E+00  9.91620E+00  1.01575E+01  1.04046E+01
#           1.06578E+01  1.09171E+01  1.11827E+01  1.14548E+01  1.17335E+01
#           1.20190E+01  1.23114E+01  1.26109E+01  1.29178E+01  1.32321E+01
#           1.35540E+01  1.38838E+01  1.42216E+01  1.45676E+01  1.49221E+01
#           1.52851E+01  1.56570E+01  1.60380E+01  1.64282E+01  1.68279E+01
#           1.72374E+01  1.76568E+01  1.80864E+01  1.85264E+01  1.89772E+01
#           1.94389E+01  1.99119E+01  2.03963E+01  2.08926E+01  2.14009E+01
#           2.19216E+01  2.24550E+01  2.30014E+01  2.35610E+01  2.41343E+01
#           2.47215E+01  2.53230E+01  2.59391E+01  2.65702E+01  2.72167E+01
#           2.78789E+01  2.85572E+01  2.92520E+01  2.99637E+01  3.06928E+01
#           3.14396E+01  3.22045E+01  3.29881E+01  3.37907E+01  3.46128E+01
#           3.54550E+01  3.63177E+01  3.72013E+01  3.81064E+01  3.90336E+01
#           3.99833E+01  4.09561E+01  4.19526E+01  4.29734E+01  4.40189E+01
#           4.50900E+01  4.61870E+01  4.73108E+01  4.84619E+01  4.96410E+01
#           5.08488E+01  5.20860E+01  5.33533E+01  5.46514E+01  5.59812E+01
#           5.73432E+01  5.87384E+01  6.01676E+01  6.16315E+01  6.31311E+01
#           6.46671E+01  6.62405E+01  6.78522E+01  6.95031E+01  7.11941E+01
#           7.29263E+01  7.47007E+01  7.65182E+01  7.83800E+01  8.02870E+01
#           8.22405E+01  8.42414E+01  8.62911E+01  8.83906E+01  9.05412E+01
#           9.27442E+01  9.50007E+01  9.73122E+01  9.96799E+01  1.02105E+02
#           1.04589E+02  1.07134E+02  1.09741E+02  1.12411E+02  1.15146E+02
#           1.17948E+02  1.20817E+02  1.23757E+02  1.26768E+02  1.29852E+02
#           1.33012E+02  1.36248E+02  1.39563E+02  1.42959E+02  1.46437E+02
#           1.50000E+02
     unit =    2            # unit is [1/cm^2/(MeV/n)/source]
     axis =  eng            # axis of output
     file = detector-17.out  # file name of output for the above axis
   output = f-curr          # surface crossing forward current spectrum
     part =  neutron  
# kf/name :  2112     
#    used :        main (  %)        temp (  %)       total (  %)
#  memory :         414 (  0)           0 (  0)         414 (  0)

#------------------------------------------------------------------------------
#newpage:
#   no. =    1   reg = 116 - 216

x: Energy [MeV/n]
y:  F-Curr [1/cm^2/(MeV/n)/source]         
p: xlog ylog afac(0.8) form(0.9)
h: n            x            y(neutron ),hh0l   n 
#  e-lower      e-upper      neutron     r.err 
   1.0000E-02   1.0243E-02   2.3981E-04  0.0767
   1.0243E-02   1.0493E-02   2.1718E-04  0.0796
   1.0493E-02   1.0748E-02   2.0779E-04  0.0801
   1.0748E-02   1.1009E-02   2.4666E-04  0.0730
   1.1009E-02   1.1277E-02   2.2113E-04  0.0761
   1.1277E-02   1.1552E-02   1.9139E-04  0.0809
   1.1552E-02   1.1833E-02   2.0866E-04  0.0763
   1.1833E-02   1.2121E-02   2.0031E-04  0.0771
   1.2121E-02   1.2415E-02   2.2849E-04  0.0713
   1.2415E-02   1.2718E-02   1.8905E-04  0.0774
   1.2718E-02   1.3027E-02   1.8977E-04  0.0765
   1.3027E-02   1.3344E-02   2.0300E-04  0.0730
   1.3344E-02   1.3669E-02   1.7491E-04  0.0777
   1.3669E-02   1.4001E-02   1.8335E-04  0.0750
   1.4001E-02   1.4342E-02   1.7030E-04  0.0769
   1.4342E-02   1.4691E-02   1.7819E-04  0.0742
   1.4691E-02   1.5048E-02   1.6779E-04  0.0756
   1.5048E-02   1.5414E-02   1.4250E-04  0.0810
   1.5414E-02   1.5789E-02   1.5476E-04  0.0769
   1.5789E-02   1.6174E-02   1.4309E-04  0.0789
   1.6174E-02   1.6567E-02   1.3824E-04  0.0794
   1.6567E-02   1.6970E-02   1.6164E-04  0.0726
   1.6970E-02   1.7383E-02   1.5373E-04  0.0735
   1.7383E-02   1.7806E-02   1.4115E-04  0.0758
   1.7806E-02   1.8239E-02   1.3121E-04  0.0776
   1.8239E-02   1.8683E-02   1.4736E-04  0.0724
   1.8683E-02   1.9138E-02   1.3996E-04  0.0734
   1.9138E-02   1.9603E-02   1.3071E-04  0.0750
   1.9603E-02   2.0080E-02   1.3909E-04  0.0719
   2.0080E-02   2.0569E-02   1.2735E-04  0.0742
   2.0569E-02   2.1069E-02   1.2595E-04  0.0738
   2.1069E-02   2.1582E-02   1.0317E-04  0.0802
   2.1582E-02   2.2107E-02   9.9810E-05  0.0809
   2.2107E-02   2.2645E-02   1.1056E-04  0.0760
   2.2645E-02   2.3196E-02   1.2478E-04  0.0707
   2.3196E-02   2.3760E-02   1.0838E-04  0.0748
   2.3760E-02   2.4338E-02   1.0847E-04  0.0739
   2.4338E-02   2.4930E-02   1.0166E-04  0.0754
   2.4930E-02   2.5537E-02   9.6277E-05  0.0767
   2.5537E-02   2.6158E-02   1.1167E-04  0.0703
   2.6158E-02   2.6795E-02   9.4820E-05  0.0752
   2.6795E-02   2.7447E-02   9.6275E-05  0.0739
   2.7447E-02   2.8114E-02   1.0549E-04  0.0697
   2.8114E-02   2.8799E-02   9.6129E-05  0.0723
   2.8799E-02   2.9499E-02   9.3775E-05  0.0721
   2.9499E-02   3.0217E-02   9.0777E-05  0.0726
   3.0217E-02   3.0952E-02   9.3154E-05  0.0707
   3.0952E-02   3.1705E-02   9.9390E-05  0.0678
   3.1705E-02   3.2477E-02   8.5941E-05  0.0719
   3.2477E-02   3.3267E-02   8.5724E-05  0.0711
   3.3267E-02   3.4076E-02   7.8870E-05  0.0733
   3.4076E-02   3.4905E-02   9.3392E-05  0.0664
   3.4905E-02   3.5755E-02   7.6299E-05  0.0727
   3.5755E-02   3.6625E-02   7.8047E-05  0.0710
   3.6625E-02   3.7516E-02   7.3064E-05  0.0727
   3.7516E-02   3.8428E-02   6.8512E-05  0.0741
   3.8428E-02   3.9363E-02   7.9550E-05  0.0679
   3.9363E-02   4.0321E-02   7.2932E-05  0.0701
   4.0321E-02   4.1302E-02   8.0213E-05  0.0660
   4.1302E-02   4.2307E-02   6.5565E-05  0.0720
   4.2307E-02   4.3337E-02   7.5404E-05  0.0665
   4.3337E-02   4.4391E-02   6.8593E-05  0.0688
   4.4391E-02   4.5471E-02   6.5740E-05  0.0695
   4.5471E-02   4.6577E-02   5.6259E-05  0.0742
   4.6577E-02   4.7711E-02   5.8532E-05  0.0719
   4.7711E-02   4.8871E-02   5.5897E-05  0.0728
   4.8871E-02   5.0061E-02   5.8669E-05  0.0701
   5.0061E-02   5.1279E-02   6.0901E-05  0.0680
   5.1279E-02   5.2526E-02   5.3340E-05  0.0718
   5.2526E-02   5.3804E-02   5.8517E-05  0.0678
   5.3804E-02   5.5113E-02   5.6693E-05  0.0679
   5.5113E-02   5.6454E-02   4.8850E-05  0.0723
   5.6454E-02   5.7828E-02   4.8469E-05  0.0718
   5.7828E-02   5.9235E-02   5.2108E-05  0.0682
   5.9235E-02   6.0676E-02   5.0063E-05  0.0688
   6.0676E-02   6.2152E-02   5.0008E-05  0.0681
   6.2152E-02   6.3665E-02   4.0377E-05  0.0748
   6.3665E-02   6.5214E-02   4.7346E-05  0.0684
   6.5214E-02   6.6800E-02   4.5882E-05  0.0686
   6.6800E-02   6.8426E-02   5.1214E-05  0.0643
   6.8426E-02   7.0090E-02   4.6554E-05  0.0665
   7.0090E-02   7.1796E-02   4.4379E-05  0.0674
   7.1796E-02   7.3543E-02   4.3739E-05  0.0669
   7.3543E-02   7.5332E-02   4.1193E-05  0.0682
   7.5332E-02   7.7165E-02   4.4068E-05  0.0651
   7.7165E-02   7.9042E-02   4.3123E-05  0.0651
   7.9042E-02   8.0965E-02   4.2125E-05  0.0651
   8.0965E-02   8.2935E-02   3.8415E-05  0.0674
   8.2935E-02   8.4953E-02   3.3667E-05  0.0710
   8.4953E-02   8.7020E-02   3.6697E-05  0.0672
   8.7020E-02   8.9138E-02   3.6359E-05  0.0666
   8.9138E-02   9.1306E-02   4.0650E-05  0.0623
   9.1306E-02   9.3528E-02   3.2347E-05  0.0691
   9.3528E-02   9.5804E-02   3.5970E-05  0.0647
   9.5804E-02   9.8134E-02   3.5779E-05  0.0641
   9.8134E-02   1.0052E-01   3.5303E-05  0.0637
   1.0052E-01   1.0297E-01   3.5209E-05  0.0631
   1.0297E-01   1.0547E-01   3.7241E-05  0.0605
   1.0547E-01   1.0804E-01   3.5972E-05  0.0610
   1.0804E-01   1.1067E-01   4.0502E-05  0.0567
   1.1067E-01   1.1336E-01   4.4802E-05  0.0533
   1.1336E-01   1.1612E-01   4.1610E-05  0.0546
   1.1612E-01   1.1894E-01   4.9409E-05  0.0495
   1.1894E-01   1.2184E-01   4.6543E-05  0.0504
   1.2184E-01   1.2480E-01   4.5423E-05  0.0504
   1.2480E-01   1.2784E-01   5.1825E-05  0.0467
   1.2784E-01   1.3095E-01   4.9361E-05  0.0473
   1.3095E-01   1.3414E-01   5.3387E-05  0.0449
   1.3414E-01   1.3740E-01   5.6150E-05  0.0432
   1.3740E-01   1.4074E-01   6.2698E-05  0.0404
   1.4074E-01   1.4417E-01   6.4460E-05  0.0394
   1.4417E-01   1.4767E-01   6.5377E-05  0.0387
   1.4767E-01   1.5127E-01   7.0591E-05  0.0368
   1.5127E-01   1.5495E-01   7.1368E-05  0.0361
   1.5495E-01   1.5872E-01   7.2938E-05  0.0353
   1.5872E-01   1.6258E-01   7.5629E-05  0.0343
   1.6258E-01   1.6654E-01   8.3829E-05  0.0321
   1.6654E-01   1.7059E-01   8.7612E-05  0.0311
   1.7059E-01   1.7474E-01   8.5602E-05  0.0311
   1.7474E-01   1.7899E-01   9.3865E-05  0.0293
   1.7899E-01   1.8334E-01   8.9493E-05  0.0297
   1.8334E-01   1.8781E-01   9.6112E-05  0.0283
   1.8781E-01   1.9237E-01   9.9544E-05  0.0275
   1.9237E-01   1.9706E-01   1.0945E-04  0.0259
   1.9706E-01   2.0185E-01   1.1264E-04  0.0252
   2.0185E-01   2.0676E-01   1.1316E-04  0.0248
   2.0676E-01   2.1179E-01   1.1720E-04  0.0241
   2.1179E-01   2.1694E-01   1.2221E-04  0.0233
   2.1694E-01   2.2222E-01   1.2741E-04  0.0226
   2.2222E-01   2.2763E-01   1.3038E-04  0.0221
   2.2763E-01   2.3317E-01   1.3586E-04  0.0214
   2.3317E-01   2.3884E-01   1.3839E-04  0.0209
   2.3884E-01   2.4465E-01   1.4562E-04  0.0201
   2.4465E-01   2.5061E-01   1.4624E-04  0.0199
   2.5061E-01   2.5670E-01   1.4908E-04  0.0194
   2.5670E-01   2.6295E-01   1.5823E-04  0.0186
   2.6295E-01   2.6935E-01   1.6503E-04  0.0180
   2.6935E-01   2.7590E-01   1.6594E-04  0.0178
   2.7590E-01   2.8261E-01   1.6633E-04  0.0175
   2.8261E-01   2.8949E-01   1.7294E-04  0.0170
   2.8949E-01   2.9653E-01   1.7997E-04  0.0164
   2.9653E-01   3.0375E-01   1.8658E-04  0.0160
   3.0375E-01   3.1114E-01   1.9634E-04  0.0154
   3.1114E-01   3.1871E-01   1.9251E-04  0.0153
   3.1871E-01   3.2646E-01   2.0161E-04  0.0148
   3.2646E-01   3.3441E-01   2.0319E-04  0.0146
   3.3441E-01   3.4254E-01   2.0531E-04  0.0143
   3.4254E-01   3.5088E-01   2.1114E-04  0.0140
   3.5088E-01   3.5941E-01   2.1457E-04  0.0137
   3.5941E-01   3.6816E-01   2.1796E-04  0.0134
   3.6816E-01   3.7712E-01   2.2668E-04  0.0130
   3.7712E-01   3.8629E-01   2.2889E-04  0.0128
   3.8629E-01   3.9569E-01   2.3469E-04  0.0125
   3.9569E-01   4.0532E-01   2.3646E-04  0.0123
   4.0532E-01   4.1518E-01   2.3704E-04  0.0121
   4.1518E-01   4.2528E-01   2.3949E-04  0.0119
   4.2528E-01   4.3563E-01   2.4320E-04  0.0117
   4.3563E-01   4.4623E-01   2.4962E-04  0.0114
   4.4623E-01   4.5708E-01   2.4768E-04  0.0113
   4.5708E-01   4.6821E-01   2.5020E-04  0.0111
   4.6821E-01   4.7960E-01   2.5396E-04  0.0109
   4.7960E-01   4.9127E-01   2.5955E-04  0.0106
   4.9127E-01   5.0322E-01   2.5046E-04  0.0107
   5.0322E-01   5.1546E-01   2.5619E-04  0.0104
   5.1546E-01   5.2800E-01   2.6032E-04  0.0102
   5.2800E-01   5.4085E-01   2.5818E-04  0.0102
   5.4085E-01   5.5401E-01   2.6142E-04  0.0100
   5.5401E-01   5.6749E-01   2.6306E-04  0.0098
   5.6749E-01   5.8130E-01   2.6122E-04  0.0097
   5.8130E-01   5.9544E-01   2.6379E-04  0.0096
   5.9544E-01   6.0993E-01   2.6728E-04  0.0094
   6.0993E-01   6.2477E-01   2.6735E-04  0.0093
   6.2477E-01   6.3997E-01   2.6874E-04  0.0091
   6.3997E-01   6.5554E-01   2.7245E-04  0.0090
   6.5554E-01   6.7149E-01   2.6563E-04  0.0090
   6.7149E-01   6.8783E-01   2.6379E-04  0.0089
   6.8783E-01   7.0456E-01   2.6432E-04  0.0088
   7.0456E-01   7.2171E-01   2.6687E-04  0.0086
   7.2171E-01   7.3927E-01   2.6140E-04  0.0086
   7.3927E-01   7.5725E-01   2.5941E-04  0.0086
   7.5725E-01   7.7568E-01   2.6035E-04  0.0084
   7.7568E-01   7.9455E-01   2.5496E-04  0.0084
   7.9455E-01   8.1388E-01   2.5319E-04  0.0084
   8.1388E-01   8.3368E-01   2.5516E-04  0.0082
   8.3368E-01   8.5397E-01   2.5447E-04  0.0081
   8.5397E-01   8.7475E-01   2.5035E-04  0.0081
   8.7475E-01   8.9603E-01   2.4530E-04  0.0081
   8.9603E-01   9.1783E-01   2.4253E-04  0.0080
   9.1783E-01   9.4016E-01   2.4290E-04  0.0079
   9.4016E-01   9.6304E-01   2.3744E-04  0.0079
   9.6304E-01   9.8647E-01   2.3375E-04  0.0079
   9.8647E-01   1.0105E+00   2.2901E-04  0.0079
   1.0105E+00   1.0351E+00   2.2755E-04  0.0078
   1.0351E+00   1.0602E+00   2.2366E-04  0.0078
   1.0602E+00   1.0860E+00   2.1946E-04  0.0077
   1.0860E+00   1.1125E+00   2.2294E-04  0.0076
   1.1125E+00   1.1395E+00   2.2269E-04  0.0075
   1.1395E+00   1.1673E+00   2.2347E-04  0.0074
   1.1673E+00   1.1957E+00   2.2175E-04  0.0073
   1.1957E+00   1.2247E+00   2.2128E-04  0.0072
   1.2247E+00   1.2545E+00   2.2173E-04  0.0071
   1.2545E+00   1.2851E+00   2.1893E-04  0.0071
   1.2851E+00   1.3163E+00   2.1722E-04  0.0070
   1.3163E+00   1.3484E+00   2.1782E-04  0.0069
   1.3484E+00   1.3812E+00   2.1948E-04  0.0068
   1.3812E+00   1.4148E+00   2.1495E-04  0.0068
   1.4148E+00   1.4492E+00   2.1361E-04  0.0067
   1.4492E+00   1.4845E+00   2.1095E-04  0.0067
   1.4845E+00   1.5206E+00   2.0904E-04  0.0066
   1.5206E+00   1.5576E+00   2.0526E-04  0.0066
   1.5576E+00   1.5955E+00   2.0072E-04  0.0066
   1.5955E+00   1.6343E+00   1.9852E-04  0.0065
   1.6343E+00   1.6741E+00   1.9544E-04  0.0065
   1.6741E+00   1.7148E+00   1.8970E-04  0.0065
   1.7148E+00   1.7565E+00   1.8761E-04  0.0065
   1.7565E+00   1.7992E+00   1.7786E-04  0.0065
   1.7992E+00   1.8430E+00   1.6562E-04  0.0067
   1.8430E+00   1.8879E+00   1.5359E-04  0.0068
   1.8879E+00   1.9338E+00   1.5061E-04  0.0068
   1.9338E+00   1.9808E+00   1.4470E-04  0.0069
   1.9808E+00   2.0290E+00   1.4343E-04  0.0068
   2.0290E+00   2.0784E+00   1.4070E-04  0.0068
   2.0784E+00   2.1290E+00   1.4065E-04  0.0067
   2.1290E+00   2.1808E+00   1.3811E-04  0.0066
   2.1808E+00   2.2338E+00   1.3908E-04  0.0065
   2.2338E+00   2.2882E+00   1.3407E-04  0.0066
   2.2882E+00   2.3439E+00   1.3022E-04  0.0066
   2.3439E+00   2.4009E+00   1.2376E-04  0.0067
   2.4009E+00   2.4593E+00   1.2019E-04  0.0067
   2.4593E+00   2.5191E+00   1.1969E-04  0.0067
   2.5191E+00   2.5804E+00   1.1602E-04  0.0067
   2.5804E+00   2.6432E+00   1.1386E-04  0.0067
   2.6432E+00   2.7075E+00   1.1111E-04  0.0067
   2.7075E+00   2.7734E+00   1.0735E-04  0.0067
   2.7734E+00   2.8409E+00   1.0416E-04  0.0067
   2.8409E+00   2.9100E+00   1.0044E-04  0.0068
   2.9100E+00   2.9808E+00   9.8349E-05  0.0068
   2.9808E+00   3.0533E+00   9.7204E-05  0.0068
   3.0533E+00   3.1276E+00   9.3580E-05  0.0068
   3.1276E+00   3.2037E+00   9.1996E-05  0.0068
   3.2037E+00   3.2817E+00   9.0242E-05  0.0068
   3.2817E+00   3.3615E+00   8.8759E-05  0.0067
   3.3615E+00   3.4433E+00   8.9127E-05  0.0067
   3.4433E+00   3.5271E+00   8.6916E-05  0.0067
   3.5271E+00   3.6129E+00   8.6409E-05  0.0066
   3.6129E+00   3.7008E+00   8.4332E-05  0.0066
   3.7008E+00   3.7908E+00   8.3866E-05  0.0065
   3.7908E+00   3.8831E+00   8.1494E-05  0.0066
   3.8831E+00   3.9776E+00   8.0245E-05  0.0065
   3.9776E+00   4.0743E+00   7.8258E-05  0.0066
   4.0743E+00   4.1735E+00   7.6608E-05  0.0065
   4.1735E+00   4.2750E+00   7.5146E-05  0.0065
   4.2750E+00   4.3790E+00   7.3734E-05  0.0065
   4.3790E+00   4.4856E+00   7.2697E-05  0.0065
   4.4856E+00   4.5947E+00   7.1447E-05  0.0065
   4.5947E+00   4.7065E+00   6.8776E-05  0.0065
   4.7065E+00   4.8210E+00   6.7291E-05  0.0065
   4.8210E+00   4.9383E+00   6.7009E-05  0.0064
   4.9383E+00   5.0585E+00   6.6198E-05  0.0064
   5.0585E+00   5.1815E+00   6.4053E-05  0.0064
   5.1815E+00   5.3076E+00   6.3702E-05  0.0064
   5.3076E+00   5.4368E+00   6.1986E-05  0.0064
   5.4368E+00   5.5690E+00   6.1072E-05  0.0064
   5.5690E+00   5.7045E+00   5.9384E-05  0.0064
   5.7045E+00   5.8433E+00   5.8611E-05  0.0064
   5.8433E+00   5.9855E+00   5.7573E-05  0.0063
   5.9855E+00   6.1311E+00   5.6478E-05  0.0063
   6.1311E+00   6.2803E+00   5.5058E-05  0.0063
   6.2803E+00   6.4331E+00   5.3225E-05  0.0064
   6.4331E+00   6.5896E+00   5.1729E-05  0.0064
   6.5896E+00   6.7500E+00   5.0668E-05  0.0064
   6.7500E+00   6.9142E+00   4.9144E-05  0.0064
   6.9142E+00   7.0824E+00   4.8258E-05  0.0064
   7.0824E+00   7.2548E+00   4.6398E-05  0.0065
   7.2548E+00   7.4313E+00   4.5138E-05  0.0065
   7.4313E+00   7.6121E+00   4.3457E-05  0.0065
   7.6121E+00   7.7973E+00   4.2206E-05  0.0066
   7.7973E+00   7.9870E+00   4.0714E-05  0.0066
   7.9870E+00   8.1813E+00   3.9044E-05  0.0067
   8.1813E+00   8.3804E+00   3.8420E-05  0.0066
   8.3804E+00   8.5843E+00   3.6847E-05  0.0067
   8.5843E+00   8.7931E+00   3.5271E-05  0.0068
   8.7931E+00   9.0071E+00   3.4107E-05  0.0068
   9.0071E+00   9.2262E+00   3.2620E-05  0.0069
   9.2262E+00   9.4507E+00   3.1251E-05  0.0070
   9.4507E+00   9.6807E+00   2.9874E-05  0.0070
   9.6807E+00   9.9162E+00   2.9004E-05  0.0071
   9.9162E+00   1.0157E+01   2.8963E-05  0.0070
   1.0157E+01   1.0405E+01   2.7629E-05  0.0071
   1.0405E+01   1.0658E+01   2.6327E-05  0.0072
   1.0658E+01   1.0917E+01   2.4806E-05  0.0073
   1.0917E+01   1.1183E+01   2.3564E-05  0.0074
   1.1183E+01   1.1455E+01   2.2017E-05  0.0076
   1.1455E+01   1.1733E+01   2.0978E-05  0.0077
   1.1733E+01   1.2019E+01   2.0097E-05  0.0077
   1.2019E+01   1.2311E+01   1.8985E-05  0.0079
   1.2311E+01   1.2611E+01   1.7830E-05  0.0080
   1.2611E+01   1.2918E+01   1.6726E-05  0.0082
   1.2918E+01   1.3232E+01   1.6056E-05  0.0083
   1.3232E+01   1.3554E+01   1.5271E-05  0.0084
   1.3554E+01   1.3884E+01   1.4182E-05  0.0086
   1.3884E+01   1.4222E+01   1.3324E-05  0.0087
   1.4222E+01   1.4568E+01   1.2332E-05  0.0090
   1.4568E+01   1.4922E+01   1.1452E-05  0.0092
   1.4922E+01   1.5285E+01   1.0677E-05  0.0094
   1.5285E+01   1.5657E+01   9.9282E-06  0.0097
   1.5657E+01   1.6038E+01   9.0906E-06  0.0100
   1.6038E+01   1.6428E+01   8.4667E-06  0.0102
   1.6428E+01   1.6828E+01   7.7535E-06  0.0105
   1.6828E+01   1.7237E+01   6.9438E-06  0.0110
   1.7237E+01   1.7657E+01   6.4413E-06  0.0113
   1.7657E+01   1.8086E+01   6.0572E-06  0.0115
   1.8086E+01   1.8526E+01   5.8942E-06  0.0115
   1.8526E+01   1.8977E+01   5.7201E-06  0.0116
   1.8977E+01   1.9439E+01   5.1665E-06  0.0120
   1.9439E+01   1.9912E+01   4.7383E-06  0.0124
   1.9912E+01   2.0396E+01   4.2649E-06  0.0129
   2.0396E+01   2.0893E+01   3.8314E-06  0.0135
   2.0893E+01   2.1401E+01   3.4447E-06  0.0140
   2.1401E+01   2.1922E+01   3.0218E-06  0.0148
   2.1922E+01   2.2455E+01   2.6235E-06  0.0157
   2.2455E+01   2.3001E+01   2.2551E-06  0.0167
   2.3001E+01   2.3561E+01   1.9243E-06  0.0179
   2.3561E+01   2.4134E+01   1.6542E-06  0.0191
   2.4134E+01   2.4721E+01   1.3606E-06  0.0208
   2.4721E+01   2.5323E+01   1.1431E-06  0.0224
   2.5323E+01   2.5939E+01   9.4864E-07  0.0243
   2.5939E+01   2.6570E+01   8.0645E-07  0.0260
   2.6570E+01   2.7217E+01   7.2435E-07  0.0271
   2.7217E+01   2.7879E+01   6.0248E-07  0.0294
   2.7879E+01   2.8557E+01   4.6820E-07  0.0330
   2.8557E+01   2.9252E+01   4.1886E-07  0.0344
   2.9252E+01   2.9964E+01   3.2461E-07  0.0386
   2.9964E+01   3.0693E+01   2.7102E-07  0.0418
   3.0693E+01   3.1440E+01   1.9902E-07  0.0482
   3.1440E+01   3.2205E+01   1.1270E-07  0.0632
   3.2205E+01   3.2988E+01   3.4766E-08  0.1125
   3.2988E+01   3.3791E+01   1.7185E-08  0.1581
   3.3791E+01   3.4613E+01   5.8719E-09  0.2673
   3.4613E+01   3.5455E+01   5.3229E-09  0.2774
   3.5455E+01   3.6318E+01   1.1992E-09  0.5774
   3.6318E+01   3.7201E+01   0.0000E+00  0.0000
   3.7201E+01   3.8106E+01   3.8097E-10  1.0000
   3.8106E+01   3.9034E+01   0.0000E+00  0.0000
   3.9034E+01   3.9983E+01   0.0000E+00  0.0000
   3.9983E+01   4.0956E+01   0.0000E+00  0.0000
   4.0956E+01   4.1953E+01   0.0000E+00  0.0000
   4.1953E+01   4.2973E+01   0.0000E+00  0.0000
   4.2973E+01   4.4019E+01   0.0000E+00  0.0000
   4.4019E+01   4.5090E+01   0.0000E+00  0.0000
   4.5090E+01   4.6187E+01   0.0000E+00  0.0000
   4.6187E+01   4.7311E+01   0.0000E+00  0.0000
   4.7311E+01   4.8462E+01   0.0000E+00  0.0000
   4.8462E+01   4.9641E+01   0.0000E+00  0.0000
   4.9641E+01   5.0849E+01   0.0000E+00  0.0000
   5.0849E+01   5.2086E+01   0.0000E+00  0.0000
   5.2086E+01   5.3353E+01   0.0000E+00  0.0000
   5.3353E+01   5.4651E+01   0.0000E+00  0.0000
   5.4651E+01   5.5981E+01   0.0000E+00  0.0000
   5.5981E+01   5.7343E+01   0.0000E+00  0.0000
   5.7343E+01   5.8738E+01   0.0000E+00  0.0000
   5.8738E+01   6.0168E+01   0.0000E+00  0.0000
   6.0168E+01   6.1632E+01   0.0000E+00  0.0000
   6.1632E+01   6.3131E+01   0.0000E+00  0.0000
   6.3131E+01   6.4667E+01   0.0000E+00  0.0000
   6.4667E+01   6.6240E+01   0.0000E+00  0.0000
   6.6240E+01   6.7852E+01   0.0000E+00  0.0000
   6.7852E+01   6.9503E+01   0.0000E+00  0.0000
   6.9503E+01   7.1194E+01   0.0000E+00  0.0000
   7.1194E+01   7.2926E+01   0.0000E+00  0.0000
   7.2926E+01   7.4701E+01   0.0000E+00  0.0000
   7.4701E+01   7.6518E+01   0.0000E+00  0.0000
   7.6518E+01   7.8380E+01   0.0000E+00  0.0000
   7.8380E+01   8.0287E+01   0.0000E+00  0.0000
   8.0287E+01   8.2240E+01   0.0000E+00  0.0000
   8.2240E+01   8.4241E+01   0.0000E+00  0.0000
   8.4241E+01   8.6291E+01   0.0000E+00  0.0000
   8.6291E+01   8.8391E+01   0.0000E+00  0.0000
   8.8391E+01   9.0541E+01   0.0000E+00  0.0000
   9.0541E+01   9.2744E+01   0.0000E+00  0.0000
   9.2744E+01   9.5001E+01   0.0000E+00  0.0000
   9.5001E+01   9.7312E+01   0.0000E+00  0.0000
   9.7312E+01   9.9680E+01   0.0000E+00  0.0000
   9.9680E+01   1.0211E+02   0.0000E+00  0.0000
   1.0211E+02   1.0459E+02   0.0000E+00  0.0000
   1.0459E+02   1.0713E+02   0.0000E+00  0.0000
   1.0713E+02   1.0974E+02   0.0000E+00  0.0000
   1.0974E+02   1.1241E+02   0.0000E+00  0.0000
   1.1241E+02   1.1515E+02   0.0000E+00  0.0000
   1.1515E+02   1.1795E+02   0.0000E+00  0.0000
   1.1795E+02   1.2082E+02   0.0000E+00  0.0000
   1.2082E+02   1.2376E+02   0.0000E+00  0.0000
   1.2376E+02   1.2677E+02   0.0000E+00  0.0000
   1.2677E+02   1.2985E+02   0.0000E+00  0.0000
   1.2985E+02   1.3301E+02   0.0000E+00  0.0000
   1.3301E+02   1.3625E+02   0.0000E+00  0.0000
   1.3625E+02   1.3956E+02   0.0000E+00  0.0000
   1.3956E+02   1.4296E+02   0.0000E+00  0.0000
   1.4296E+02   1.4644E+02   0.0000E+00  0.0000
   1.4644E+02   1.5000E+02   0.0000E+00  0.0000

#   sum over                 6.9811E-06
'no. =    1   reg = 116 - 216'
msuc: {\huge [t-cross] in region mesh}
msdr: {\it plotted by \ANGEL \version}
msdl: {\it calculated by \PHITS  3.26}
wt: s(0.7)
\vspace{-3}
  region surface crossing
  area  &=&   1.0000E+00 [cm^2]
e:
 
# Information for Restart Calculation
# This calculation was newly started
# istdev =  2 # 1:Batch variance, 2:History variance
# resc2  = 2.90000000000000000E+09 # Total source weight or Total source weight / maxcas
# resc3  = 2.90000000000000000E+09 # Total history number or Total batch number
# maxcas =   100000000 # History / Batch, only used for istdev=1
# bitrseed = 1001010110000101011111100111000010011110001100100100010101000100 # bit data of rseed
