[ T-Cross ]
    title = [t-cross] in region mesh
     mesh =  reg            # mesh type is region-wise
      reg =    1            # number of crossing regions
      non     r-from    r-to       area
      1       121       221        1.000000    
   e-type =    3            # e-mesh is log given by emin, emax and ne
     emin =  1.0000000E-02  # minimum value of e-mesh points
     emax =   150.0000      # maximum value of e-mesh points
#    edel =  2.4039514E-02  # mesh width of e-mesh points
       ne =    400          # number of e-mesh points
#    data = ( e(i), i = 1, ne + 1 )
#           1.00000E-02  1.02433E-02  1.04925E-02  1.07478E-02  1.10093E-02
#           1.12772E-02  1.15516E-02  1.18326E-02  1.21205E-02  1.24154E-02
#           1.27175E-02  1.30269E-02  1.33439E-02  1.36686E-02  1.40011E-02
#           1.43418E-02  1.46907E-02  1.50482E-02  1.54143E-02  1.57894E-02
#           1.61735E-02  1.65670E-02  1.69701E-02  1.73830E-02  1.78060E-02
#           1.82392E-02  1.86830E-02  1.91375E-02  1.96032E-02  2.00801E-02
#           2.05687E-02  2.10692E-02  2.15818E-02  2.21069E-02  2.26448E-02
#           2.31957E-02  2.37601E-02  2.43382E-02  2.49304E-02  2.55369E-02
#           2.61583E-02  2.67947E-02  2.74467E-02  2.81145E-02  2.87985E-02
#           2.94992E-02  3.02169E-02  3.09521E-02  3.17052E-02  3.24766E-02
#           3.32668E-02  3.40762E-02  3.49053E-02  3.57546E-02  3.66246E-02
#           3.75157E-02  3.84284E-02  3.93634E-02  4.03212E-02  4.13022E-02
#           4.23071E-02  4.33365E-02  4.43909E-02  4.54710E-02  4.65773E-02
#           4.77106E-02  4.88714E-02  5.00605E-02  5.12785E-02  5.25262E-02
#           5.38042E-02  5.51133E-02  5.64542E-02  5.78278E-02  5.92348E-02
#           6.06760E-02  6.21523E-02  6.36645E-02  6.52135E-02  6.68002E-02
#           6.84255E-02  7.00904E-02  7.17957E-02  7.35426E-02  7.53319E-02
#           7.71648E-02  7.90423E-02  8.09655E-02  8.29354E-02  8.49533E-02
#           8.70203E-02  8.91376E-02  9.13064E-02  9.35279E-02  9.58035E-02
#           9.81345E-02  1.00522E-01  1.02968E-01  1.05473E-01  1.08040E-01
#           1.10668E-01  1.13361E-01  1.16119E-01  1.18944E-01  1.21838E-01
#           1.24803E-01  1.27839E-01  1.30950E-01  1.34136E-01  1.37399E-01
#           1.40742E-01  1.44167E-01  1.47675E-01  1.51268E-01  1.54948E-01
#           1.58718E-01  1.62580E-01  1.66535E-01  1.70587E-01  1.74738E-01
#           1.78989E-01  1.83344E-01  1.87805E-01  1.92375E-01  1.97055E-01
#           2.01850E-01  2.06761E-01  2.11792E-01  2.16945E-01  2.22223E-01
#           2.27630E-01  2.33169E-01  2.38842E-01  2.44653E-01  2.50605E-01
#           2.56703E-01  2.62949E-01  2.69346E-01  2.75900E-01  2.82613E-01
#           2.89489E-01  2.96532E-01  3.03747E-01  3.11138E-01  3.18708E-01
#           3.26462E-01  3.34405E-01  3.42542E-01  3.50876E-01  3.59413E-01
#           3.68158E-01  3.77116E-01  3.86291E-01  3.95690E-01  4.05317E-01
#           4.15179E-01  4.25281E-01  4.35628E-01  4.46227E-01  4.57084E-01
#           4.68205E-01  4.79597E-01  4.91266E-01  5.03219E-01  5.15463E-01
#           5.28005E-01  5.40851E-01  5.54011E-01  5.67490E-01  5.81298E-01
#           5.95441E-01  6.09929E-01  6.24769E-01  6.39970E-01  6.55541E-01
#           6.71491E-01  6.87828E-01  7.04564E-01  7.21706E-01  7.39266E-01
#           7.57253E-01  7.75678E-01  7.94551E-01  8.13883E-01  8.33685E-01
#           8.53969E-01  8.74747E-01  8.96030E-01  9.17831E-01  9.40163E-01
#           9.63038E-01  9.86469E-01  1.01047E+00  1.03506E+00  1.06024E+00
#           1.08604E+00  1.11246E+00  1.13953E+00  1.16725E+00  1.19565E+00
#           1.22474E+00  1.25454E+00  1.28507E+00  1.31633E+00  1.34836E+00
#           1.38117E+00  1.41477E+00  1.44920E+00  1.48446E+00  1.52057E+00
#           1.55757E+00  1.59547E+00  1.63429E+00  1.67405E+00  1.71478E+00
#           1.75650E+00  1.79924E+00  1.84302E+00  1.88786E+00  1.93379E+00
#           1.98084E+00  2.02904E+00  2.07841E+00  2.12898E+00  2.18078E+00
#           2.23384E+00  2.28819E+00  2.34386E+00  2.40089E+00  2.45930E+00
#           2.51914E+00  2.58043E+00  2.64322E+00  2.70753E+00  2.77341E+00
#           2.84088E+00  2.91001E+00  2.98081E+00  3.05333E+00  3.12762E+00
#           3.20372E+00  3.28167E+00  3.36152E+00  3.44330E+00  3.52708E+00
#           3.61290E+00  3.70080E+00  3.79085E+00  3.88308E+00  3.97756E+00
#           4.07434E+00  4.17347E+00  4.27501E+00  4.37903E+00  4.48557E+00
#           4.59471E+00  4.70650E+00  4.82102E+00  4.93832E+00  5.05847E+00
#           5.18155E+00  5.30762E+00  5.43676E+00  5.56904E+00  5.70453E+00
#           5.84333E+00  5.98550E+00  6.13114E+00  6.28031E+00  6.43312E+00
#           6.58964E+00  6.74997E+00  6.91420E+00  7.08243E+00  7.25475E+00
#           7.43126E+00  7.61207E+00  7.79728E+00  7.98700E+00  8.18133E+00
#           8.38038E+00  8.58428E+00  8.79315E+00  9.00709E+00  9.22624E+00
#           9.45072E+00  9.68067E+00  9.91620E+00  1.01575E+01  1.04046E+01
#           1.06578E+01  1.09171E+01  1.11827E+01  1.14548E+01  1.17335E+01
#           1.20190E+01  1.23114E+01  1.26109E+01  1.29178E+01  1.32321E+01
#           1.35540E+01  1.38838E+01  1.42216E+01  1.45676E+01  1.49221E+01
#           1.52851E+01  1.56570E+01  1.60380E+01  1.64282E+01  1.68279E+01
#           1.72374E+01  1.76568E+01  1.80864E+01  1.85264E+01  1.89772E+01
#           1.94389E+01  1.99119E+01  2.03963E+01  2.08926E+01  2.14009E+01
#           2.19216E+01  2.24550E+01  2.30014E+01  2.35610E+01  2.41343E+01
#           2.47215E+01  2.53230E+01  2.59391E+01  2.65702E+01  2.72167E+01
#           2.78789E+01  2.85572E+01  2.92520E+01  2.99637E+01  3.06928E+01
#           3.14396E+01  3.22045E+01  3.29881E+01  3.37907E+01  3.46128E+01
#           3.54550E+01  3.63177E+01  3.72013E+01  3.81064E+01  3.90336E+01
#           3.99833E+01  4.09561E+01  4.19526E+01  4.29734E+01  4.40189E+01
#           4.50900E+01  4.61870E+01  4.73108E+01  4.84619E+01  4.96410E+01
#           5.08488E+01  5.20860E+01  5.33533E+01  5.46514E+01  5.59812E+01
#           5.73432E+01  5.87384E+01  6.01676E+01  6.16315E+01  6.31311E+01
#           6.46671E+01  6.62405E+01  6.78522E+01  6.95031E+01  7.11941E+01
#           7.29263E+01  7.47007E+01  7.65182E+01  7.83800E+01  8.02870E+01
#           8.22405E+01  8.42414E+01  8.62911E+01  8.83906E+01  9.05412E+01
#           9.27442E+01  9.50007E+01  9.73122E+01  9.96799E+01  1.02105E+02
#           1.04589E+02  1.07134E+02  1.09741E+02  1.12411E+02  1.15146E+02
#           1.17948E+02  1.20817E+02  1.23757E+02  1.26768E+02  1.29852E+02
#           1.33012E+02  1.36248E+02  1.39563E+02  1.42959E+02  1.46437E+02
#           1.50000E+02
     unit =    2            # unit is [1/cm^2/(MeV/n)/source]
     axis =  eng            # axis of output
     file = detector-22.out  # file name of output for the above axis
   output = f-curr          # surface crossing forward current spectrum
     part =  neutron  
# kf/name :  2112     
#    used :        main (  %)        temp (  %)       total (  %)
#  memory :         414 (  0)           0 (  0)         414 (  0)

#------------------------------------------------------------------------------
#newpage:
#   no. =    1   reg = 121 - 221

x: Energy [MeV/n]
y:  F-Curr [1/cm^2/(MeV/n)/source]         
p: xlog ylog afac(0.8) form(0.9)
h: n            x            y(neutron ),hh0l   n 
#  e-lower      e-upper      neutron     r.err 
   1.0000E-02   1.0243E-02   9.6160E-04  0.0461
   1.0243E-02   1.0493E-02   8.3172E-04  0.0490
   1.0493E-02   1.0748E-02   9.0666E-04  0.0464
   1.0748E-02   1.1009E-02   8.5531E-04  0.0472
   1.1009E-02   1.1277E-02   8.3035E-04  0.0473
   1.1277E-02   1.1552E-02   8.1590E-04  0.0472
   1.1552E-02   1.1833E-02   8.3154E-04  0.0461
   1.1833E-02   1.2121E-02   7.8433E-04  0.0470
   1.2121E-02   1.2415E-02   7.8525E-04  0.0464
   1.2415E-02   1.2718E-02   8.5831E-04  0.0438
   1.2718E-02   1.3027E-02   7.7833E-04  0.0454
   1.3027E-02   1.3344E-02   6.7743E-04  0.0482
   1.3344E-02   1.3669E-02   7.0842E-04  0.0466
   1.3669E-02   1.4001E-02   6.9933E-04  0.0463
   1.4001E-02   1.4342E-02   7.2539E-04  0.0449
   1.4342E-02   1.4691E-02   6.5507E-04  0.0467
   1.4691E-02   1.5048E-02   6.6260E-04  0.0459
   1.5048E-02   1.5414E-02   6.8512E-04  0.0445
   1.5414E-02   1.5789E-02   6.9567E-04  0.0437
   1.5789E-02   1.6174E-02   6.5671E-04  0.0444
   1.6174E-02   1.6567E-02   6.5443E-04  0.0440
   1.6567E-02   1.6970E-02   6.4830E-04  0.0436
   1.6970E-02   1.7383E-02   6.1708E-04  0.0442
   1.7383E-02   1.7806E-02   6.0348E-04  0.0442
   1.7806E-02   1.8239E-02   6.1276E-04  0.0432
   1.8239E-02   1.8683E-02   6.0818E-04  0.0430
   1.8683E-02   1.9138E-02   5.8210E-04  0.0434
   1.9138E-02   1.9603E-02   6.0086E-04  0.0422
   1.9603E-02   2.0080E-02   5.5268E-04  0.0435
   2.0080E-02   2.0569E-02   5.3844E-04  0.0435
   2.0569E-02   2.1069E-02   5.2384E-04  0.0436
   2.1069E-02   2.1582E-02   5.7895E-04  0.0410
   2.1582E-02   2.2107E-02   5.2712E-04  0.0424
   2.2107E-02   2.2645E-02   5.0963E-04  0.0426
   2.2645E-02   2.3196E-02   4.8460E-04  0.0432
   2.3196E-02   2.3760E-02   5.3686E-04  0.0406
   2.3760E-02   2.4338E-02   5.0487E-04  0.0413
   2.4338E-02   2.4930E-02   5.1575E-04  0.0404
   2.4930E-02   2.5537E-02   4.9221E-04  0.0409
   2.5537E-02   2.6158E-02   5.0361E-04  0.0399
   2.6158E-02   2.6795E-02   4.6059E-04  0.0412
   2.6795E-02   2.7447E-02   4.6608E-04  0.0405
   2.7447E-02   2.8114E-02   4.5843E-04  0.0403
   2.8114E-02   2.8799E-02   4.2360E-04  0.0415
   2.8799E-02   2.9499E-02   4.6129E-04  0.0393
   2.9499E-02   3.0217E-02   4.7614E-04  0.0382
   3.0217E-02   3.0952E-02   4.2806E-04  0.0398
   3.0952E-02   3.1705E-02   4.3261E-04  0.0391
   3.1705E-02   3.2477E-02   4.3171E-04  0.0387
   3.2477E-02   3.3267E-02   4.0032E-04  0.0397
   3.3267E-02   3.4076E-02   4.0573E-04  0.0390
   3.4076E-02   3.4905E-02   3.7521E-04  0.0400
   3.4905E-02   3.5755E-02   3.7816E-04  0.0394
   3.5755E-02   3.6625E-02   3.5847E-04  0.0400
   3.6625E-02   3.7516E-02   3.4920E-04  0.0400
   3.7516E-02   3.8428E-02   3.6972E-04  0.0384
   3.8428E-02   3.9363E-02   3.7220E-04  0.0379
   3.9363E-02   4.0321E-02   3.3766E-04  0.0393
   4.0321E-02   4.1302E-02   3.4775E-04  0.0382
   4.1302E-02   4.2307E-02   3.4041E-04  0.0382
   4.2307E-02   4.3337E-02   3.1563E-04  0.0392
   4.3337E-02   4.4391E-02   3.1545E-04  0.0387
   4.4391E-02   4.5471E-02   3.2335E-04  0.0378
   4.5471E-02   4.6577E-02   3.0457E-04  0.0384
   4.6577E-02   4.7711E-02   3.2967E-04  0.0365
   4.7711E-02   4.8871E-02   3.0469E-04  0.0375
   4.8871E-02   5.0061E-02   3.1298E-04  0.0366
   5.0061E-02   5.1279E-02   3.0963E-04  0.0364
   5.1279E-02   5.2526E-02   3.0571E-04  0.0362
   5.2526E-02   5.3804E-02   2.8682E-04  0.0369
   5.3804E-02   5.5113E-02   2.6877E-04  0.0376
   5.5113E-02   5.6454E-02   3.0027E-04  0.0352
   5.6454E-02   5.7828E-02   2.6858E-04  0.0368
   5.7828E-02   5.9235E-02   2.7156E-04  0.0361
   5.9235E-02   6.0676E-02   2.7632E-04  0.0354
   6.0676E-02   6.2152E-02   2.5807E-04  0.0362
   6.2152E-02   6.3665E-02   2.6531E-04  0.0353
   6.3665E-02   6.5214E-02   2.4939E-04  0.0359
   6.5214E-02   6.6800E-02   2.4259E-04  0.0360
   6.6800E-02   6.8426E-02   2.5639E-04  0.0346
   6.8426E-02   7.0090E-02   2.4176E-04  0.0352
   7.0090E-02   7.1796E-02   2.3877E-04  0.0350
   7.1796E-02   7.3543E-02   2.2831E-04  0.0354
   7.3543E-02   7.5332E-02   2.3459E-04  0.0344
   7.5332E-02   7.7165E-02   2.2604E-04  0.0347
   7.7165E-02   7.9042E-02   2.1804E-04  0.0349
   7.9042E-02   8.0965E-02   2.0160E-04  0.0359
   8.0965E-02   8.2935E-02   2.1158E-04  0.0346
   8.2935E-02   8.4953E-02   2.0272E-04  0.0349
   8.4953E-02   8.7020E-02   2.1477E-04  0.0335
   8.7020E-02   8.9138E-02   2.0756E-04  0.0337
   8.9138E-02   9.1306E-02   2.0112E-04  0.0338
   9.1306E-02   9.3528E-02   1.9520E-04  0.0339
   9.3528E-02   9.5804E-02   2.0126E-04  0.0330
   9.5804E-02   9.8134E-02   1.8413E-04  0.0341
   9.8134E-02   1.0052E-01   1.8509E-04  0.0336
   1.0052E-01   1.0297E-01   1.9022E-04  0.0327
   1.0297E-01   1.0547E-01   1.6995E-04  0.0342
   1.0547E-01   1.0804E-01   1.7737E-04  0.0331
   1.0804E-01   1.1067E-01   1.6705E-04  0.0337
   1.1067E-01   1.1336E-01   1.6771E-04  0.0332
   1.1336E-01   1.1612E-01   1.6798E-04  0.0328
   1.1612E-01   1.1894E-01   1.6824E-04  0.0324
   1.1894E-01   1.2184E-01   1.6155E-04  0.0326
   1.2184E-01   1.2480E-01   1.5332E-04  0.0331
   1.2480E-01   1.2784E-01   1.4777E-04  0.0333
   1.2784E-01   1.3095E-01   1.3763E-04  0.0341
   1.3095E-01   1.3414E-01   1.4440E-04  0.0329
   1.3414E-01   1.3740E-01   1.4180E-04  0.0328
   1.3740E-01   1.4074E-01   1.4199E-04  0.0324
   1.4074E-01   1.4417E-01   1.2679E-04  0.0339
   1.4417E-01   1.4767E-01   1.2986E-04  0.0331
   1.4767E-01   1.5127E-01   1.2140E-04  0.0338
   1.5127E-01   1.5495E-01   1.2433E-04  0.0330
   1.5495E-01   1.5872E-01   1.1302E-04  0.0342
   1.5872E-01   1.6258E-01   1.1158E-04  0.0340
   1.6258E-01   1.6654E-01   1.1440E-04  0.0332
   1.6654E-01   1.7059E-01   1.1290E-04  0.0330
   1.7059E-01   1.7474E-01   1.1238E-04  0.0327
   1.7474E-01   1.7899E-01   1.0008E-04  0.0342
   1.7899E-01   1.8334E-01   1.0593E-04  0.0329
   1.8334E-01   1.8781E-01   1.0735E-04  0.0323
   1.8781E-01   1.9237E-01   9.8358E-05  0.0333
   1.9237E-01   1.9706E-01   1.0230E-04  0.0323
   1.9706E-01   2.0185E-01   9.5212E-05  0.0330
   2.0185E-01   2.0676E-01   9.6507E-05  0.0324
   2.0676E-01   2.1179E-01   9.8119E-05  0.0318
   2.1179E-01   2.1694E-01   1.0016E-04  0.0311
   2.1694E-01   2.2222E-01   9.7943E-05  0.0311
   2.2222E-01   2.2763E-01   9.7661E-05  0.0307
   2.2763E-01   2.3317E-01   1.0628E-04  0.0291
   2.3317E-01   2.3884E-01   1.0166E-04  0.0294
   2.3884E-01   2.4465E-01   1.0593E-04  0.0284
   2.4465E-01   2.5061E-01   1.0892E-04  0.0277
   2.5061E-01   2.5670E-01   1.1248E-04  0.0270
   2.5670E-01   2.6295E-01   1.1042E-04  0.0269
   2.6295E-01   2.6935E-01   1.1506E-04  0.0260
   2.6935E-01   2.7590E-01   1.1170E-04  0.0261
   2.7590E-01   2.8261E-01   1.1388E-04  0.0255
   2.8261E-01   2.8949E-01   1.1888E-04  0.0247
   2.8949E-01   2.9653E-01   1.2375E-04  0.0239
   2.9653E-01   3.0375E-01   1.2361E-04  0.0236
   3.0375E-01   3.1114E-01   1.1978E-04  0.0237
   3.1114E-01   3.1871E-01   1.2392E-04  0.0230
   3.1871E-01   3.2646E-01   1.2224E-04  0.0229
   3.2646E-01   3.3441E-01   1.2551E-04  0.0223
   3.3441E-01   3.4254E-01   1.2792E-04  0.0219
   3.4254E-01   3.5088E-01   1.3093E-04  0.0214
   3.5088E-01   3.5941E-01   1.2815E-04  0.0213
   3.5941E-01   3.6816E-01   1.3140E-04  0.0208
   3.6816E-01   3.7712E-01   1.2411E-04  0.0211
   3.7712E-01   3.8629E-01   1.2945E-04  0.0205
   3.8629E-01   3.9569E-01   1.3311E-04  0.0199
   3.9569E-01   4.0532E-01   1.3809E-04  0.0194
   4.0532E-01   4.1518E-01   1.3630E-04  0.0192
   4.1518E-01   4.2528E-01   1.3526E-04  0.0191
   4.2528E-01   4.3563E-01   1.3423E-04  0.0189
   4.3563E-01   4.4623E-01   1.3081E-04  0.0189
   4.4623E-01   4.5708E-01   1.3510E-04  0.0184
   4.5708E-01   4.6821E-01   1.3331E-04  0.0183
   4.6821E-01   4.7960E-01   1.3608E-04  0.0179
   4.7960E-01   4.9127E-01   1.3730E-04  0.0176
   4.9127E-01   5.0322E-01   1.3702E-04  0.0174
   5.0322E-01   5.1546E-01   1.3601E-04  0.0173
   5.1546E-01   5.2800E-01   1.3353E-04  0.0172
   5.2800E-01   5.4085E-01   1.3511E-04  0.0169
   5.4085E-01   5.5401E-01   1.3497E-04  0.0167
   5.5401E-01   5.6749E-01   1.3707E-04  0.0164
   5.6749E-01   5.8130E-01   1.3502E-04  0.0163
   5.8130E-01   5.9544E-01   1.3691E-04  0.0160
   5.9544E-01   6.0993E-01   1.3283E-04  0.0161
   6.0993E-01   6.2477E-01   1.3785E-04  0.0156
   6.2477E-01   6.3997E-01   1.3256E-04  0.0157
   6.3997E-01   6.5554E-01   1.3510E-04  0.0154
   6.5554E-01   6.7149E-01   1.3544E-04  0.0152
   6.7149E-01   6.8783E-01   1.3133E-04  0.0152
   6.8783E-01   7.0456E-01   1.3236E-04  0.0150
   7.0456E-01   7.2171E-01   1.3059E-04  0.0149
   7.2171E-01   7.3927E-01   1.3175E-04  0.0147
   7.3927E-01   7.5725E-01   1.3293E-04  0.0144
   7.5725E-01   7.7568E-01   1.2929E-04  0.0144
   7.7568E-01   7.9455E-01   1.2643E-04  0.0144
   7.9455E-01   8.1388E-01   1.2297E-04  0.0145
   8.1388E-01   8.3368E-01   1.2545E-04  0.0141
   8.3368E-01   8.5397E-01   1.1904E-04  0.0144
   8.5397E-01   8.7475E-01   1.2145E-04  0.0140
   8.7475E-01   8.9603E-01   1.1647E-04  0.0142
   8.9603E-01   9.1783E-01   1.1560E-04  0.0140
   9.1783E-01   9.4016E-01   1.0721E-04  0.0144
   9.4016E-01   9.6304E-01   1.0935E-04  0.0141
   9.6304E-01   9.8647E-01   1.0498E-04  0.0142
   9.8647E-01   1.0105E+00   9.9893E-05  0.0144
   1.0105E+00   1.0351E+00   9.6110E-05  0.0145
   1.0351E+00   1.0602E+00   9.2537E-05  0.0146
   1.0602E+00   1.0860E+00   9.2170E-05  0.0144
   1.0860E+00   1.1125E+00   8.9156E-05  0.0145
   1.1125E+00   1.1395E+00   8.7309E-05  0.0145
   1.1395E+00   1.1673E+00   8.6085E-05  0.0144
   1.1673E+00   1.1957E+00   8.4621E-05  0.0144
   1.1957E+00   1.2247E+00   8.3453E-05  0.0143
   1.2247E+00   1.2545E+00   7.8957E-05  0.0145
   1.2545E+00   1.2851E+00   7.8339E-05  0.0144
   1.2851E+00   1.3163E+00   7.5089E-05  0.0145
   1.3163E+00   1.3484E+00   7.1795E-05  0.0147
   1.3484E+00   1.3812E+00   6.9729E-05  0.0147
   1.3812E+00   1.4148E+00   7.0920E-05  0.0144
   1.4148E+00   1.4492E+00   6.8605E-05  0.0145
   1.4492E+00   1.4845E+00   6.5993E-05  0.0146
   1.4845E+00   1.5206E+00   6.4551E-05  0.0146
   1.5206E+00   1.5576E+00   6.1095E-05  0.0148
   1.5576E+00   1.5955E+00   5.8846E-05  0.0149
   1.5955E+00   1.6343E+00   5.7806E-05  0.0148
   1.6343E+00   1.6741E+00   5.8636E-05  0.0146
   1.6741E+00   1.7148E+00   5.6094E-05  0.0147
   1.7148E+00   1.7565E+00   5.3902E-05  0.0148
   1.7565E+00   1.7992E+00   5.1434E-05  0.0150
   1.7992E+00   1.8430E+00   5.0725E-05  0.0149
   1.8430E+00   1.8879E+00   4.9186E-05  0.0150
   1.8879E+00   1.9338E+00   4.6968E-05  0.0151
   1.9338E+00   1.9808E+00   4.5957E-05  0.0151
   1.9808E+00   2.0290E+00   4.5376E-05  0.0150
   2.0290E+00   2.0784E+00   4.5249E-05  0.0149
   2.0784E+00   2.1290E+00   4.4460E-05  0.0148
   2.1290E+00   2.1808E+00   4.1864E-05  0.0151
   2.1808E+00   2.2338E+00   4.1167E-05  0.0150
   2.2338E+00   2.2882E+00   3.9558E-05  0.0152
   2.2882E+00   2.3439E+00   4.0276E-05  0.0148
   2.3439E+00   2.4009E+00   3.8593E-05  0.0150
   2.4009E+00   2.4593E+00   3.7382E-05  0.0150
   2.4593E+00   2.5191E+00   3.7328E-05  0.0149
   2.5191E+00   2.5804E+00   3.5068E-05  0.0152
   2.5804E+00   2.6432E+00   3.6110E-05  0.0148
   2.6432E+00   2.7075E+00   3.3418E-05  0.0152
   2.7075E+00   2.7734E+00   3.3792E-05  0.0149
   2.7734E+00   2.8409E+00   3.1981E-05  0.0151
   2.8409E+00   2.9100E+00   3.1149E-05  0.0152
   2.9100E+00   2.9808E+00   2.9829E-05  0.0153
   2.9808E+00   3.0533E+00   2.8449E-05  0.0155
   3.0533E+00   3.1276E+00   2.7152E-05  0.0157
   3.1276E+00   3.2037E+00   2.6986E-05  0.0155
   3.2037E+00   3.2817E+00   2.6172E-05  0.0156
   3.2817E+00   3.3615E+00   2.4324E-05  0.0160
   3.3615E+00   3.4433E+00   2.4724E-05  0.0156
   3.4433E+00   3.5271E+00   2.3647E-05  0.0158
   3.5271E+00   3.6129E+00   2.3160E-05  0.0158
   3.6129E+00   3.7008E+00   2.2332E-05  0.0159
   3.7008E+00   3.7908E+00   2.1839E-05  0.0159
   3.7908E+00   3.8831E+00   2.0769E-05  0.0161
   3.8831E+00   3.9776E+00   2.0026E-05  0.0162
   3.9776E+00   4.0743E+00   1.9839E-05  0.0161
   4.0743E+00   4.1735E+00   1.8473E-05  0.0164
   4.1735E+00   4.2750E+00   1.8067E-05  0.0164
   4.2750E+00   4.3790E+00   1.7317E-05  0.0166
   4.3790E+00   4.4856E+00   1.6979E-05  0.0166
   4.4856E+00   4.5947E+00   1.6097E-05  0.0168
   4.5947E+00   4.7065E+00   1.5882E-05  0.0167
   4.7065E+00   4.8210E+00   1.4853E-05  0.0171
   4.8210E+00   4.9383E+00   1.4644E-05  0.0170
   4.9383E+00   5.0585E+00   1.3749E-05  0.0173
   5.0585E+00   5.1815E+00   1.2729E-05  0.0178
   5.1815E+00   5.3076E+00   1.2443E-05  0.0178
   5.3076E+00   5.4368E+00   1.1694E-05  0.0181
   5.4368E+00   5.5690E+00   1.1319E-05  0.0182
   5.5690E+00   5.7045E+00   1.0462E-05  0.0187
   5.7045E+00   5.8433E+00   1.0568E-05  0.0184
   5.8433E+00   5.9855E+00   9.5262E-06  0.0191
   5.9855E+00   6.1311E+00   9.3237E-06  0.0191
   6.1311E+00   6.2803E+00   8.5416E-06  0.0198
   6.2803E+00   6.4331E+00   7.7556E-06  0.0205
   6.4331E+00   6.5896E+00   7.9709E-06  0.0199
   6.5896E+00   6.7500E+00   7.0348E-06  0.0210
   6.7500E+00   6.9142E+00   6.7308E-06  0.0212
   6.9142E+00   7.0824E+00   6.4684E-06  0.0214
   7.0824E+00   7.2548E+00   5.7885E-06  0.0223
   7.2548E+00   7.4313E+00   5.6707E-06  0.0223
   7.4313E+00   7.6121E+00   5.4476E-06  0.0225
   7.6121E+00   7.7973E+00   5.0265E-06  0.0231
   7.7973E+00   7.9870E+00   4.6259E-06  0.0238
   7.9870E+00   8.1813E+00   4.4372E-06  0.0240
   8.1813E+00   8.3804E+00   4.2205E-06  0.0244
   8.3804E+00   8.5843E+00   4.0534E-06  0.0245
   8.5843E+00   8.7931E+00   3.6209E-06  0.0257
   8.7931E+00   9.0071E+00   3.4677E-06  0.0259
   9.0071E+00   9.2262E+00   3.3059E-06  0.0262
   9.2262E+00   9.4507E+00   3.3723E-06  0.0256
   9.4507E+00   9.6807E+00   3.0394E-06  0.0267
   9.6807E+00   9.9162E+00   2.9341E-06  0.0268
   9.9162E+00   1.0157E+01   2.7577E-06  0.0274
   1.0157E+01   1.0405E+01   2.8917E-06  0.0264
   1.0405E+01   1.0658E+01   2.9200E-06  0.0260
   1.0658E+01   1.0917E+01   2.9707E-06  0.0254
   1.0917E+01   1.1183E+01   2.9012E-06  0.0254
   1.1183E+01   1.1455E+01   2.7242E-06  0.0259
   1.1455E+01   1.1733E+01   2.4854E-06  0.0268
   1.1733E+01   1.2019E+01   2.3880E-06  0.0271
   1.2019E+01   1.2311E+01   2.1211E-06  0.0284
   1.2311E+01   1.2611E+01   2.0222E-06  0.0287
   1.2611E+01   1.2918E+01   1.9377E-06  0.0290
   1.2918E+01   1.3232E+01   1.8361E-06  0.0294
   1.3232E+01   1.3554E+01   1.6984E-06  0.0302
   1.3554E+01   1.3884E+01   1.7707E-06  0.0292
   1.3884E+01   1.4222E+01   1.5293E-06  0.0311
   1.4222E+01   1.4568E+01   1.3851E-06  0.0323
   1.4568E+01   1.4922E+01   1.3832E-06  0.0319
   1.4922E+01   1.5285E+01   1.2307E-06  0.0334
   1.5285E+01   1.5657E+01   1.1145E-06  0.0347
   1.5657E+01   1.6038E+01   9.9946E-07  0.0362
   1.6038E+01   1.6428E+01   1.0067E-06  0.0357
   1.6428E+01   1.6828E+01   9.2319E-07  0.0368
   1.6828E+01   1.7237E+01   9.1611E-07  0.0365
   1.7237E+01   1.7657E+01   7.7032E-07  0.0393
   1.7657E+01   1.8086E+01   7.5209E-07  0.0393
   1.8086E+01   1.8526E+01   6.9366E-07  0.0405
   1.8526E+01   1.8977E+01   6.6443E-07  0.0409
   1.8977E+01   1.9439E+01   6.3263E-07  0.0414
   1.9439E+01   1.9912E+01   4.8841E-07  0.0465
   1.9912E+01   2.0396E+01   4.6649E-07  0.0470
   2.0396E+01   2.0893E+01   4.0302E-07  0.0500
   2.0893E+01   2.1401E+01   3.9049E-07  0.0502
   2.1401E+01   2.1922E+01   3.4569E-07  0.0527
   2.1922E+01   2.2455E+01   2.9717E-07  0.0562
   2.2455E+01   2.3001E+01   2.4893E-07  0.0606
   2.3001E+01   2.3561E+01   2.0370E-07  0.0662
   2.3561E+01   2.4134E+01   1.6398E-07  0.0729
   2.4134E+01   2.4721E+01   1.3964E-07  0.0781
   2.4721E+01   2.5323E+01   1.1139E-07  0.0864
   2.5323E+01   2.5939E+01   8.1152E-08  0.1000
   2.5939E+01   2.6570E+01   5.9418E-08  0.1155
   2.6570E+01   2.7217E+01   4.4085E-08  0.1325
   2.7217E+01   2.7879E+01   2.4162E-08  0.1768
   2.7879E+01   2.8557E+01   2.7273E-08  0.1644
   2.8557E+01   2.9252E+01   1.5831E-08  0.2132
   2.9252E+01   2.9964E+01   6.3227E-09  0.3333
   2.9964E+01   3.0693E+01   4.8008E-09  0.3780
   3.0693E+01   3.1440E+01   4.0172E-09  0.4082
   3.1440E+01   3.2205E+01   2.6146E-09  0.5000
   3.2205E+01   3.2988E+01   3.1906E-09  0.4472
   3.2988E+01   3.3791E+01   1.2459E-09  0.7071
   3.3791E+01   3.4613E+01   6.0816E-10  1.0000
   3.4613E+01   3.5455E+01   5.9371E-10  1.0000
   3.5455E+01   3.6318E+01   5.7961E-10  1.0000
   3.6318E+01   3.7201E+01   5.6584E-10  1.0000
   3.7201E+01   3.8106E+01   0.0000E+00  0.0000
   3.8106E+01   3.9034E+01   0.0000E+00  0.0000
   3.9034E+01   3.9983E+01   0.0000E+00  0.0000
   3.9983E+01   4.0956E+01   5.1397E-10  1.0000
   4.0956E+01   4.1953E+01   0.0000E+00  0.0000
   4.1953E+01   4.2973E+01   0.0000E+00  0.0000
   4.2973E+01   4.4019E+01   0.0000E+00  0.0000
   4.4019E+01   4.5090E+01   0.0000E+00  0.0000
   4.5090E+01   4.6187E+01   0.0000E+00  0.0000
   4.6187E+01   4.7311E+01   0.0000E+00  0.0000
   4.7311E+01   4.8462E+01   0.0000E+00  0.0000
   4.8462E+01   4.9641E+01   0.0000E+00  0.0000
   4.9641E+01   5.0849E+01   0.0000E+00  0.0000
   5.0849E+01   5.2086E+01   0.0000E+00  0.0000
   5.2086E+01   5.3353E+01   0.0000E+00  0.0000
   5.3353E+01   5.4651E+01   0.0000E+00  0.0000
   5.4651E+01   5.5981E+01   0.0000E+00  0.0000
   5.5981E+01   5.7343E+01   0.0000E+00  0.0000
   5.7343E+01   5.8738E+01   0.0000E+00  0.0000
   5.8738E+01   6.0168E+01   0.0000E+00  0.0000
   6.0168E+01   6.1632E+01   0.0000E+00  0.0000
   6.1632E+01   6.3131E+01   0.0000E+00  0.0000
   6.3131E+01   6.4667E+01   0.0000E+00  0.0000
   6.4667E+01   6.6240E+01   0.0000E+00  0.0000
   6.6240E+01   6.7852E+01   0.0000E+00  0.0000
   6.7852E+01   6.9503E+01   0.0000E+00  0.0000
   6.9503E+01   7.1194E+01   0.0000E+00  0.0000
   7.1194E+01   7.2926E+01   0.0000E+00  0.0000
   7.2926E+01   7.4701E+01   0.0000E+00  0.0000
   7.4701E+01   7.6518E+01   0.0000E+00  0.0000
   7.6518E+01   7.8380E+01   0.0000E+00  0.0000
   7.8380E+01   8.0287E+01   0.0000E+00  0.0000
   8.0287E+01   8.2240E+01   0.0000E+00  0.0000
   8.2240E+01   8.4241E+01   0.0000E+00  0.0000
   8.4241E+01   8.6291E+01   0.0000E+00  0.0000
   8.6291E+01   8.8391E+01   0.0000E+00  0.0000
   8.8391E+01   9.0541E+01   0.0000E+00  0.0000
   9.0541E+01   9.2744E+01   0.0000E+00  0.0000
   9.2744E+01   9.5001E+01   0.0000E+00  0.0000
   9.5001E+01   9.7312E+01   0.0000E+00  0.0000
   9.7312E+01   9.9680E+01   0.0000E+00  0.0000
   9.9680E+01   1.0211E+02   0.0000E+00  0.0000
   1.0211E+02   1.0459E+02   0.0000E+00  0.0000
   1.0459E+02   1.0713E+02   0.0000E+00  0.0000
   1.0713E+02   1.0974E+02   0.0000E+00  0.0000
   1.0974E+02   1.1241E+02   0.0000E+00  0.0000
   1.1241E+02   1.1515E+02   0.0000E+00  0.0000
   1.1515E+02   1.1795E+02   0.0000E+00  0.0000
   1.1795E+02   1.2082E+02   0.0000E+00  0.0000
   1.2082E+02   1.2376E+02   0.0000E+00  0.0000
   1.2376E+02   1.2677E+02   0.0000E+00  0.0000
   1.2677E+02   1.2985E+02   0.0000E+00  0.0000
   1.2985E+02   1.3301E+02   0.0000E+00  0.0000
   1.3301E+02   1.3625E+02   0.0000E+00  0.0000
   1.3625E+02   1.3956E+02   0.0000E+00  0.0000
   1.3956E+02   1.4296E+02   0.0000E+00  0.0000
   1.4296E+02   1.4644E+02   0.0000E+00  0.0000
   1.4644E+02   1.5000E+02   0.0000E+00  0.0000

#   sum over                 2.2354E-06
'no. =    1   reg = 121 - 221'
msuc: {\huge [t-cross] in region mesh}
msdr: {\it plotted by \ANGEL \version}
msdl: {\it calculated by \PHITS  3.26}
wt: s(0.7)
\vspace{-3}
  region surface crossing
  area  &=&   1.0000E+00 [cm^2]
e:
 
# Information for Restart Calculation
# This calculation was newly started
# istdev =  2 # 1:Batch variance, 2:History variance
# resc2  = 2.00000000000000000E+09 # Total source weight or Total source weight / maxcas
# resc3  = 2.00000000000000000E+09 # Total history number or Total batch number
# maxcas =   500000000 # History / Batch, only used for istdev=1
# bitrseed = 0011011010010000100111110110001101100001010011100000011100000110 # bit data of rseed
