9 <--- number of remaining batches 

-------------------------------------------------------------------------------
bat[       1] ncas =      500000000.
 bitrseed = 0100001010011000001011101100011110011000110110100110010000000000
          cpu time =   2 h. 59 m. 33.93 s.

 date = 2022-06-09
 time = 12h 18m 32s

