[ T-Cross ]
    title = [t-cross] in region mesh
     mesh =  reg            # mesh type is region-wise
      reg =    1            # number of crossing regions
      non     r-from    r-to       area
      1       107       207        1.000000    
   e-type =    3            # e-mesh is log given by emin, emax and ne
     emin =  1.0000000E-02  # minimum value of e-mesh points
     emax =   150.0000      # maximum value of e-mesh points
#    edel =  2.4039514E-02  # mesh width of e-mesh points
       ne =    400          # number of e-mesh points
#    data = ( e(i), i = 1, ne + 1 )
#           1.00000E-02  1.02433E-02  1.04925E-02  1.07478E-02  1.10093E-02
#           1.12772E-02  1.15516E-02  1.18326E-02  1.21205E-02  1.24154E-02
#           1.27175E-02  1.30269E-02  1.33439E-02  1.36686E-02  1.40011E-02
#           1.43418E-02  1.46907E-02  1.50482E-02  1.54143E-02  1.57894E-02
#           1.61735E-02  1.65670E-02  1.69701E-02  1.73830E-02  1.78060E-02
#           1.82392E-02  1.86830E-02  1.91375E-02  1.96032E-02  2.00801E-02
#           2.05687E-02  2.10692E-02  2.15818E-02  2.21069E-02  2.26448E-02
#           2.31957E-02  2.37601E-02  2.43382E-02  2.49304E-02  2.55369E-02
#           2.61583E-02  2.67947E-02  2.74467E-02  2.81145E-02  2.87985E-02
#           2.94992E-02  3.02169E-02  3.09521E-02  3.17052E-02  3.24766E-02
#           3.32668E-02  3.40762E-02  3.49053E-02  3.57546E-02  3.66246E-02
#           3.75157E-02  3.84284E-02  3.93634E-02  4.03212E-02  4.13022E-02
#           4.23071E-02  4.33365E-02  4.43909E-02  4.54710E-02  4.65773E-02
#           4.77106E-02  4.88714E-02  5.00605E-02  5.12785E-02  5.25262E-02
#           5.38042E-02  5.51133E-02  5.64542E-02  5.78278E-02  5.92348E-02
#           6.06760E-02  6.21523E-02  6.36645E-02  6.52135E-02  6.68002E-02
#           6.84255E-02  7.00904E-02  7.17957E-02  7.35426E-02  7.53319E-02
#           7.71648E-02  7.90423E-02  8.09655E-02  8.29354E-02  8.49533E-02
#           8.70203E-02  8.91376E-02  9.13064E-02  9.35279E-02  9.58035E-02
#           9.81345E-02  1.00522E-01  1.02968E-01  1.05473E-01  1.08040E-01
#           1.10668E-01  1.13361E-01  1.16119E-01  1.18944E-01  1.21838E-01
#           1.24803E-01  1.27839E-01  1.30950E-01  1.34136E-01  1.37399E-01
#           1.40742E-01  1.44167E-01  1.47675E-01  1.51268E-01  1.54948E-01
#           1.58718E-01  1.62580E-01  1.66535E-01  1.70587E-01  1.74738E-01
#           1.78989E-01  1.83344E-01  1.87805E-01  1.92375E-01  1.97055E-01
#           2.01850E-01  2.06761E-01  2.11792E-01  2.16945E-01  2.22223E-01
#           2.27630E-01  2.33169E-01  2.38842E-01  2.44653E-01  2.50605E-01
#           2.56703E-01  2.62949E-01  2.69346E-01  2.75900E-01  2.82613E-01
#           2.89489E-01  2.96532E-01  3.03747E-01  3.11138E-01  3.18708E-01
#           3.26462E-01  3.34405E-01  3.42542E-01  3.50876E-01  3.59413E-01
#           3.68158E-01  3.77116E-01  3.86291E-01  3.95690E-01  4.05317E-01
#           4.15179E-01  4.25281E-01  4.35628E-01  4.46227E-01  4.57084E-01
#           4.68205E-01  4.79597E-01  4.91266E-01  5.03219E-01  5.15463E-01
#           5.28005E-01  5.40851E-01  5.54011E-01  5.67490E-01  5.81298E-01
#           5.95441E-01  6.09929E-01  6.24769E-01  6.39970E-01  6.55541E-01
#           6.71491E-01  6.87828E-01  7.04564E-01  7.21706E-01  7.39266E-01
#           7.57253E-01  7.75678E-01  7.94551E-01  8.13883E-01  8.33685E-01
#           8.53969E-01  8.74747E-01  8.96030E-01  9.17831E-01  9.40163E-01
#           9.63038E-01  9.86469E-01  1.01047E+00  1.03506E+00  1.06024E+00
#           1.08604E+00  1.11246E+00  1.13953E+00  1.16725E+00  1.19565E+00
#           1.22474E+00  1.25454E+00  1.28507E+00  1.31633E+00  1.34836E+00
#           1.38117E+00  1.41477E+00  1.44920E+00  1.48446E+00  1.52057E+00
#           1.55757E+00  1.59547E+00  1.63429E+00  1.67405E+00  1.71478E+00
#           1.75650E+00  1.79924E+00  1.84302E+00  1.88786E+00  1.93379E+00
#           1.98084E+00  2.02904E+00  2.07841E+00  2.12898E+00  2.18078E+00
#           2.23384E+00  2.28819E+00  2.34386E+00  2.40089E+00  2.45930E+00
#           2.51914E+00  2.58043E+00  2.64322E+00  2.70753E+00  2.77341E+00
#           2.84088E+00  2.91001E+00  2.98081E+00  3.05333E+00  3.12762E+00
#           3.20372E+00  3.28167E+00  3.36152E+00  3.44330E+00  3.52708E+00
#           3.61290E+00  3.70080E+00  3.79085E+00  3.88308E+00  3.97756E+00
#           4.07434E+00  4.17347E+00  4.27501E+00  4.37903E+00  4.48557E+00
#           4.59471E+00  4.70650E+00  4.82102E+00  4.93832E+00  5.05847E+00
#           5.18155E+00  5.30762E+00  5.43676E+00  5.56904E+00  5.70453E+00
#           5.84333E+00  5.98550E+00  6.13114E+00  6.28031E+00  6.43312E+00
#           6.58964E+00  6.74997E+00  6.91420E+00  7.08243E+00  7.25475E+00
#           7.43126E+00  7.61207E+00  7.79728E+00  7.98700E+00  8.18133E+00
#           8.38038E+00  8.58428E+00  8.79315E+00  9.00709E+00  9.22624E+00
#           9.45072E+00  9.68067E+00  9.91620E+00  1.01575E+01  1.04046E+01
#           1.06578E+01  1.09171E+01  1.11827E+01  1.14548E+01  1.17335E+01
#           1.20190E+01  1.23114E+01  1.26109E+01  1.29178E+01  1.32321E+01
#           1.35540E+01  1.38838E+01  1.42216E+01  1.45676E+01  1.49221E+01
#           1.52851E+01  1.56570E+01  1.60380E+01  1.64282E+01  1.68279E+01
#           1.72374E+01  1.76568E+01  1.80864E+01  1.85264E+01  1.89772E+01
#           1.94389E+01  1.99119E+01  2.03963E+01  2.08926E+01  2.14009E+01
#           2.19216E+01  2.24550E+01  2.30014E+01  2.35610E+01  2.41343E+01
#           2.47215E+01  2.53230E+01  2.59391E+01  2.65702E+01  2.72167E+01
#           2.78789E+01  2.85572E+01  2.92520E+01  2.99637E+01  3.06928E+01
#           3.14396E+01  3.22045E+01  3.29881E+01  3.37907E+01  3.46128E+01
#           3.54550E+01  3.63177E+01  3.72013E+01  3.81064E+01  3.90336E+01
#           3.99833E+01  4.09561E+01  4.19526E+01  4.29734E+01  4.40189E+01
#           4.50900E+01  4.61870E+01  4.73108E+01  4.84619E+01  4.96410E+01
#           5.08488E+01  5.20860E+01  5.33533E+01  5.46514E+01  5.59812E+01
#           5.73432E+01  5.87384E+01  6.01676E+01  6.16315E+01  6.31311E+01
#           6.46671E+01  6.62405E+01  6.78522E+01  6.95031E+01  7.11941E+01
#           7.29263E+01  7.47007E+01  7.65182E+01  7.83800E+01  8.02870E+01
#           8.22405E+01  8.42414E+01  8.62911E+01  8.83906E+01  9.05412E+01
#           9.27442E+01  9.50007E+01  9.73122E+01  9.96799E+01  1.02105E+02
#           1.04589E+02  1.07134E+02  1.09741E+02  1.12411E+02  1.15146E+02
#           1.17948E+02  1.20817E+02  1.23757E+02  1.26768E+02  1.29852E+02
#           1.33012E+02  1.36248E+02  1.39563E+02  1.42959E+02  1.46437E+02
#           1.50000E+02
     unit =    2            # unit is [1/cm^2/(MeV/n)/source]
     axis =  eng            # axis of output
     file = detector-08.out  # file name of output for the above axis
   output = f-curr          # surface crossing forward current spectrum
     part =  neutron  
# kf/name :  2112     
#    used :        main (  %)        temp (  %)       total (  %)
#  memory :         414 (  0)           0 (  0)         414 (  0)

#------------------------------------------------------------------------------
#newpage:
#   no. =    1   reg = 107 - 207

x: Energy [MeV/n]
y:  F-Curr [1/cm^2/(MeV/n)/source]         
p: xlog ylog afac(0.8) form(0.9)
h: n            x            y(neutron ),hh0l   n 
#  e-lower      e-upper      neutron     r.err 
   1.0000E-02   1.0243E-02   1.2202E-04  0.0818
   1.0243E-02   1.0493E-02   1.2572E-04  0.0797
   1.0493E-02   1.0748E-02   1.2315E-04  0.0796
   1.0748E-02   1.1009E-02   1.1889E-04  0.0800
   1.1009E-02   1.1277E-02   1.0762E-04  0.0831
   1.1277E-02   1.1552E-02   1.0955E-04  0.0814
   1.1552E-02   1.1833E-02   1.0799E-04  0.0809
   1.1833E-02   1.2121E-02   9.8472E-05  0.0835
   1.2121E-02   1.2415E-02   8.7977E-05  0.0873
   1.2415E-02   1.2718E-02   8.2298E-05  0.0894
   1.2718E-02   1.3027E-02   8.4334E-05  0.0871
   1.3027E-02   1.3344E-02   9.9818E-05  0.0792
   1.3344E-02   1.3669E-02   9.7313E-05  0.0792
   1.3669E-02   1.4001E-02   8.6786E-05  0.0830
   1.4001E-02   1.4342E-02   8.7478E-05  0.0818
   1.4342E-02   1.4691E-02   7.5159E-05  0.0871
   1.4691E-02   1.5048E-02   7.4031E-05  0.0867
   1.5048E-02   1.5414E-02   8.5561E-05  0.0795
   1.5414E-02   1.5789E-02   7.8281E-05  0.0823
   1.5789E-02   1.6174E-02   7.7737E-05  0.0816
   1.6174E-02   1.6567E-02   6.6931E-05  0.0866
   1.6567E-02   1.6970E-02   6.6840E-05  0.0860
   1.6970E-02   1.7383E-02   7.4814E-05  0.0802
   1.7383E-02   1.7806E-02   6.4211E-05  0.0855
   1.7806E-02   1.8239E-02   6.7905E-05  0.0821
   1.8239E-02   1.8683E-02   7.0796E-05  0.0796
   1.8683E-02   1.9138E-02   6.6656E-05  0.0809
   1.9138E-02   1.9603E-02   6.4624E-05  0.0810
   1.9603E-02   2.0080E-02   5.5833E-05  0.0866
   2.0080E-02   2.0569E-02   6.4430E-05  0.0793
   2.0569E-02   2.1069E-02   6.1744E-05  0.0804
   2.1069E-02   2.1582E-02   5.6585E-05  0.0825
   2.1582E-02   2.2107E-02   5.6612E-05  0.0816
   2.2107E-02   2.2645E-02   5.1313E-05  0.0848
   2.2645E-02   2.3196E-02   4.6927E-05  0.0874
   2.3196E-02   2.3760E-02   5.8141E-05  0.0778
   2.3760E-02   2.4338E-02   5.3679E-05  0.0801
   2.4338E-02   2.4930E-02   5.7062E-05  0.0767
   2.4930E-02   2.5537E-02   5.1000E-05  0.0800
   2.5537E-02   2.6158E-02   4.7014E-05  0.0825
   2.6158E-02   2.6795E-02   4.5287E-05  0.0831
   2.6795E-02   2.7447E-02   4.3901E-05  0.0834
   2.7447E-02   2.8114E-02   3.9721E-05  0.0866
   2.8114E-02   2.8799E-02   4.8468E-05  0.0773
   2.8799E-02   2.9499E-02   3.8337E-05  0.0860
   2.9499E-02   3.0217E-02   3.7320E-05  0.0862
   3.0217E-02   3.0952E-02   4.5552E-05  0.0770
   3.0952E-02   3.1705E-02   3.6332E-05  0.0853
   3.1705E-02   3.2477E-02   3.9786E-05  0.0804
   3.2477E-02   3.3267E-02   3.4659E-05  0.0849
   3.3267E-02   3.4076E-02   4.0216E-05  0.0780
   3.4076E-02   3.4905E-02   3.7823E-05  0.0796
   3.4905E-02   3.5755E-02   3.6454E-05  0.0800
   3.5755E-02   3.6625E-02   3.5505E-05  0.0802
   3.6625E-02   3.7516E-02   3.5533E-05  0.0793
   3.7516E-02   3.8428E-02   2.9408E-05  0.0860
   3.8428E-02   3.9363E-02   3.3867E-05  0.0792
   3.9363E-02   4.0321E-02   2.8884E-05  0.0846
   4.0321E-02   4.1302E-02   3.4519E-05  0.0765
   4.1302E-02   4.2307E-02   2.8691E-05  0.0829
   4.2307E-02   4.3337E-02   2.7815E-05  0.0831
   4.3337E-02   4.4391E-02   2.9143E-05  0.0804
   4.4391E-02   4.5471E-02   3.1382E-05  0.0765
   4.5471E-02   4.6577E-02   3.0472E-05  0.0766
   4.6577E-02   4.7711E-02   2.8409E-05  0.0783
   4.7711E-02   4.8871E-02   2.8415E-05  0.0775
   4.8871E-02   5.0061E-02   2.7052E-05  0.0786
   5.0061E-02   5.1279E-02   2.4675E-05  0.0811
   5.1279E-02   5.2526E-02   2.4176E-05  0.0813
   5.2526E-02   5.3804E-02   2.6369E-05  0.0769
   5.3804E-02   5.5113E-02   2.5328E-05  0.0773
   5.5113E-02   5.6454E-02   2.2234E-05  0.0811
   5.6454E-02   5.7828E-02   2.2990E-05  0.0793
   5.7828E-02   5.9235E-02   2.5652E-05  0.0740
   5.9235E-02   6.0676E-02   2.1155E-05  0.0805
   6.0676E-02   6.2152E-02   1.7971E-05  0.0865
   6.2152E-02   6.3665E-02   2.2394E-05  0.0767
   6.3665E-02   6.5214E-02   2.2505E-05  0.0754
   6.5214E-02   6.6800E-02   1.9023E-05  0.0808
   6.6800E-02   6.8426E-02   1.8548E-05  0.0811
   6.8426E-02   7.0090E-02   2.2399E-05  0.0729
   7.0090E-02   7.1796E-02   1.8171E-05  0.0802
   7.1796E-02   7.3543E-02   1.6159E-05  0.0835
   7.3543E-02   7.5332E-02   1.9318E-05  0.0755
   7.5332E-02   7.7165E-02   1.8507E-05  0.0763
   7.7165E-02   7.9042E-02   1.8718E-05  0.0751
   7.9042E-02   8.0965E-02   1.3701E-05  0.0865
   8.0965E-02   8.2935E-02   1.4869E-05  0.0820
   8.2935E-02   8.4953E-02   1.7343E-05  0.0753
   8.4953E-02   8.7020E-02   1.6895E-05  0.0754
   8.7020E-02   8.9138E-02   1.6021E-05  0.0766
   8.9138E-02   9.1306E-02   1.3747E-05  0.0814
   9.1306E-02   9.3528E-02   1.6025E-05  0.0747
   9.3528E-02   9.5804E-02   1.4597E-05  0.0771
   9.5804E-02   9.8134E-02   1.3674E-05  0.0789
   9.8134E-02   1.0052E-01   1.3146E-05  0.0795
   1.0052E-01   1.0297E-01   1.4303E-05  0.0751
   1.0297E-01   1.0547E-01   1.1767E-05  0.0821
   1.0547E-01   1.0804E-01   1.3305E-05  0.0763
   1.0804E-01   1.1067E-01   1.2513E-05  0.0776
   1.1067E-01   1.1336E-01   1.3365E-05  0.0743
   1.1336E-01   1.1612E-01   1.1755E-05  0.0782
   1.1612E-01   1.1894E-01   1.2917E-05  0.0736
   1.1894E-01   1.2184E-01   1.3490E-05  0.0712
   1.2184E-01   1.2480E-01   1.0786E-05  0.0787
   1.2480E-01   1.2784E-01   1.0961E-05  0.0770
   1.2784E-01   1.3095E-01   1.1194E-05  0.0755
   1.3095E-01   1.3414E-01   1.0260E-05  0.0779
   1.3414E-01   1.3740E-01   1.0970E-05  0.0742
   1.3740E-01   1.4074E-01   9.3905E-06  0.0795
   1.4074E-01   1.4417E-01   1.0960E-05  0.0729
   1.4417E-01   1.4767E-01   9.7929E-06  0.0757
   1.4767E-01   1.5127E-01   1.0164E-05  0.0737
   1.5127E-01   1.5495E-01   9.3087E-06  0.0761
   1.5495E-01   1.5872E-01   1.0036E-05  0.0724
   1.5872E-01   1.6258E-01   8.9614E-06  0.0757
   1.6258E-01   1.6654E-01   9.4836E-06  0.0728
   1.6654E-01   1.7059E-01   8.6115E-06  0.0753
   1.7059E-01   1.7474E-01   8.6202E-06  0.0744
   1.7474E-01   1.7899E-01   7.9542E-06  0.0765
   1.7899E-01   1.8334E-01   8.5386E-06  0.0730
   1.8334E-01   1.8781E-01   7.4984E-06  0.0770
   1.8781E-01   1.9237E-01   7.9566E-06  0.0738
   1.9237E-01   1.9706E-01   8.4515E-06  0.0707
   1.9706E-01   2.0185E-01   7.9136E-06  0.0723
   2.0185E-01   2.0676E-01   9.6156E-06  0.0648
   2.0676E-01   2.1179E-01   8.6627E-06  0.0674
   2.1179E-01   2.1694E-01   8.7568E-06  0.0662
   2.1694E-01   2.2222E-01   9.3274E-06  0.0635
   2.2222E-01   2.2763E-01   8.7788E-06  0.0646
   2.2763E-01   2.3317E-01   9.4913E-06  0.0615
   2.3317E-01   2.3884E-01   1.0691E-05  0.0571
   2.3884E-01   2.4465E-01   1.1570E-05  0.0543
   2.4465E-01   2.5061E-01   1.0618E-05  0.0559
   2.5061E-01   2.5670E-01   1.0874E-05  0.0547
   2.5670E-01   2.6295E-01   1.3049E-05  0.0493
   2.6295E-01   2.6935E-01   1.2477E-05  0.0498
   2.6935E-01   2.7590E-01   1.1914E-05  0.0503
   2.7590E-01   2.8261E-01   1.3012E-05  0.0476
   2.8261E-01   2.8949E-01   1.2346E-05  0.0483
   2.8949E-01   2.9653E-01   1.2879E-05  0.0467
   2.9653E-01   3.0375E-01   1.4036E-05  0.0443
   3.0375E-01   3.1114E-01   1.3864E-05  0.0440
   3.1114E-01   3.1871E-01   1.3407E-05  0.0442
   3.1871E-01   3.2646E-01   1.4653E-05  0.0418
   3.2646E-01   3.3441E-01   1.6033E-05  0.0395
   3.3441E-01   3.4254E-01   1.5552E-05  0.0396
   3.4254E-01   3.5088E-01   1.5531E-05  0.0391
   3.5088E-01   3.5941E-01   1.5895E-05  0.0382
   3.5941E-01   3.6816E-01   1.5866E-05  0.0378
   3.6816E-01   3.7712E-01   1.5265E-05  0.0381
   3.7712E-01   3.8629E-01   1.7078E-05  0.0356
   3.8629E-01   3.9569E-01   1.7254E-05  0.0350
   3.9569E-01   4.0532E-01   1.7472E-05  0.0343
   4.0532E-01   4.1518E-01   1.9307E-05  0.0322
   4.1518E-01   4.2528E-01   1.8108E-05  0.0329
   4.2528E-01   4.3563E-01   1.8655E-05  0.0320
   4.3563E-01   4.4623E-01   1.9158E-05  0.0312
   4.4623E-01   4.5708E-01   1.9091E-05  0.0309
   4.5708E-01   4.6821E-01   2.0163E-05  0.0297
   4.6821E-01   4.7960E-01   2.0560E-05  0.0291
   4.7960E-01   4.9127E-01   1.9602E-05  0.0294
   4.9127E-01   5.0322E-01   1.9595E-05  0.0291
   5.0322E-01   5.1546E-01   2.0463E-05  0.0281
   5.1546E-01   5.2800E-01   2.0887E-05  0.0275
   5.2800E-01   5.4085E-01   2.1326E-05  0.0269
   5.4085E-01   5.5401E-01   1.9717E-05  0.0276
   5.5401E-01   5.6749E-01   2.1893E-05  0.0259
   5.6749E-01   5.8130E-01   2.0895E-05  0.0262
   5.8130E-01   5.9544E-01   2.2181E-05  0.0251
   5.9544E-01   6.0993E-01   2.1952E-05  0.0250
   6.0993E-01   6.2477E-01   2.3119E-05  0.0240
   6.2477E-01   6.3997E-01   2.2190E-05  0.0242
   6.3997E-01   6.5554E-01   2.1853E-05  0.0241
   6.5554E-01   6.7149E-01   2.3003E-05  0.0232
   6.7149E-01   6.8783E-01   2.1801E-05  0.0236
   6.8783E-01   7.0456E-01   2.1291E-05  0.0236
   7.0456E-01   7.2171E-01   2.1193E-05  0.0233
   7.2171E-01   7.3927E-01   2.2121E-05  0.0226
   7.3927E-01   7.5725E-01   2.1733E-05  0.0225
   7.5725E-01   7.7568E-01   2.1027E-05  0.0226
   7.7568E-01   7.9455E-01   2.0722E-05  0.0225
   7.9455E-01   8.1388E-01   2.0930E-05  0.0221
   8.1388E-01   8.3368E-01   1.9760E-05  0.0225
   8.3368E-01   8.5397E-01   1.9956E-05  0.0221
   8.5397E-01   8.7475E-01   2.0392E-05  0.0216
   8.7475E-01   8.9603E-01   1.9783E-05  0.0217
   8.9603E-01   9.1783E-01   1.9448E-05  0.0216
   9.1783E-01   9.4016E-01   1.8791E-05  0.0217
   9.4016E-01   9.6304E-01   1.8786E-05  0.0215
   9.6304E-01   9.8647E-01   1.7802E-05  0.0218
   9.8647E-01   1.0105E+00   1.7496E-05  0.0217
   1.0105E+00   1.0351E+00   1.8731E-05  0.0207
   1.0351E+00   1.0602E+00   1.9095E-05  0.0203
   1.0602E+00   1.0860E+00   1.9111E-05  0.0200
   1.0860E+00   1.1125E+00   2.0341E-05  0.0192
   1.1125E+00   1.1395E+00   2.0771E-05  0.0188
   1.1395E+00   1.1673E+00   2.1578E-05  0.0182
   1.1673E+00   1.1957E+00   2.1820E-05  0.0179
   1.1957E+00   1.2247E+00   2.2171E-05  0.0175
   1.2247E+00   1.2545E+00   2.3526E-05  0.0168
   1.2545E+00   1.2851E+00   2.3399E-05  0.0167
   1.2851E+00   1.3163E+00   2.4581E-05  0.0161
   1.3163E+00   1.3484E+00   2.4551E-05  0.0159
   1.3484E+00   1.3812E+00   2.5680E-05  0.0153
   1.3812E+00   1.4148E+00   2.6594E-05  0.0149
   1.4148E+00   1.4492E+00   2.6634E-05  0.0147
   1.4492E+00   1.4845E+00   2.6619E-05  0.0145
   1.4845E+00   1.5206E+00   2.8383E-05  0.0139
   1.5206E+00   1.5576E+00   2.8642E-05  0.0137
   1.5576E+00   1.5955E+00   2.8388E-05  0.0136
   1.5955E+00   1.6343E+00   2.9224E-05  0.0132
   1.6343E+00   1.6741E+00   3.0202E-05  0.0129
   1.6741E+00   1.7148E+00   3.0740E-05  0.0126
   1.7148E+00   1.7565E+00   3.1323E-05  0.0123
   1.7565E+00   1.7992E+00   3.1543E-05  0.0121
   1.7992E+00   1.8430E+00   3.1969E-05  0.0119
   1.8430E+00   1.8879E+00   3.2384E-05  0.0117
   1.8879E+00   1.9338E+00   3.2981E-05  0.0114
   1.9338E+00   1.9808E+00   3.3565E-05  0.0112
   1.9808E+00   2.0290E+00   3.4430E-05  0.0109
   2.0290E+00   2.0784E+00   3.4166E-05  0.0109
   2.0784E+00   2.1290E+00   3.5222E-05  0.0106
   2.1290E+00   2.1808E+00   3.5478E-05  0.0104
   2.1808E+00   2.2338E+00   3.5758E-05  0.0102
   2.2338E+00   2.2882E+00   3.6327E-05  0.0100
   2.2882E+00   2.3439E+00   3.6449E-05  0.0099
   2.3439E+00   2.4009E+00   3.7068E-05  0.0097
   2.4009E+00   2.4593E+00   3.8126E-05  0.0094
   2.4593E+00   2.5191E+00   3.7797E-05  0.0094
   2.5191E+00   2.5804E+00   3.8104E-05  0.0092
   2.5804E+00   2.6432E+00   3.7951E-05  0.0091
   2.6432E+00   2.7075E+00   3.8411E-05  0.0090
   2.7075E+00   2.7734E+00   3.8553E-05  0.0088
   2.7734E+00   2.8409E+00   3.8559E-05  0.0087
   2.8409E+00   2.9100E+00   3.8797E-05  0.0086
   2.9100E+00   2.9808E+00   3.9180E-05  0.0085
   2.9808E+00   3.0533E+00   4.0024E-05  0.0083
   3.0533E+00   3.1276E+00   3.9631E-05  0.0082
   3.1276E+00   3.2037E+00   3.9474E-05  0.0081
   3.2037E+00   3.2817E+00   3.9565E-05  0.0080
   3.2817E+00   3.3615E+00   3.8691E-05  0.0080
   3.3615E+00   3.4433E+00   3.8646E-05  0.0079
   3.4433E+00   3.5271E+00   3.9139E-05  0.0078
   3.5271E+00   3.6129E+00   3.9256E-05  0.0077
   3.6129E+00   3.7008E+00   3.9025E-05  0.0076
   3.7008E+00   3.7908E+00   3.9016E-05  0.0075
   3.7908E+00   3.8831E+00   3.8212E-05  0.0075
   3.8831E+00   3.9776E+00   3.8457E-05  0.0074
   3.9776E+00   4.0743E+00   3.9178E-05  0.0072
   4.0743E+00   4.1735E+00   3.8172E-05  0.0073
   4.1735E+00   4.2750E+00   3.8188E-05  0.0072
   4.2750E+00   4.3790E+00   3.7308E-05  0.0072
   4.3790E+00   4.4856E+00   3.7010E-05  0.0071
   4.4856E+00   4.5947E+00   3.7104E-05  0.0070
   4.5947E+00   4.7065E+00   3.6742E-05  0.0070
   4.7065E+00   4.8210E+00   3.6195E-05  0.0069
   4.8210E+00   4.9383E+00   3.6230E-05  0.0068
   4.9383E+00   5.0585E+00   3.6025E-05  0.0068
   5.0585E+00   5.1815E+00   3.4833E-05  0.0068
   5.1815E+00   5.3076E+00   3.4511E-05  0.0068
   5.3076E+00   5.4368E+00   3.3530E-05  0.0068
   5.4368E+00   5.5690E+00   3.3305E-05  0.0067
   5.5690E+00   5.7045E+00   3.1989E-05  0.0068
   5.7045E+00   5.8433E+00   3.1170E-05  0.0068
   5.8433E+00   5.9855E+00   3.0104E-05  0.0068
   5.9855E+00   6.1311E+00   2.9641E-05  0.0068
   6.1311E+00   6.2803E+00   2.9140E-05  0.0068
   6.2803E+00   6.4331E+00   2.7966E-05  0.0068
   6.4331E+00   6.5896E+00   2.6808E-05  0.0069
   6.5896E+00   6.7500E+00   2.5812E-05  0.0069
   6.7500E+00   6.9142E+00   2.5031E-05  0.0070
   6.9142E+00   7.0824E+00   2.3936E-05  0.0070
   7.0824E+00   7.2548E+00   2.3028E-05  0.0071
   7.2548E+00   7.4313E+00   2.2040E-05  0.0072
   7.4313E+00   7.6121E+00   2.1129E-05  0.0072
   7.6121E+00   7.7973E+00   2.0401E-05  0.0073
   7.7973E+00   7.9870E+00   1.9667E-05  0.0073
   7.9870E+00   8.1813E+00   1.8625E-05  0.0074
   8.1813E+00   8.3804E+00   1.7955E-05  0.0075
   8.3804E+00   8.5843E+00   1.6997E-05  0.0076
   8.5843E+00   8.7931E+00   1.6265E-05  0.0077
   8.7931E+00   9.0071E+00   1.5413E-05  0.0078
   9.0071E+00   9.2262E+00   1.4656E-05  0.0079
   9.2262E+00   9.4507E+00   1.3638E-05  0.0081
   9.4507E+00   9.6807E+00   1.3337E-05  0.0081
   9.6807E+00   9.9162E+00   1.2715E-05  0.0082
   9.9162E+00   1.0157E+01   1.1847E-05  0.0084
   1.0157E+01   1.0405E+01   1.1165E-05  0.0085
   1.0405E+01   1.0658E+01   1.0547E-05  0.0086
   1.0658E+01   1.0917E+01   1.0190E-05  0.0087
   1.0917E+01   1.1183E+01   9.7308E-06  0.0088
   1.1183E+01   1.1455E+01   9.1025E-06  0.0090
   1.1455E+01   1.1733E+01   8.6514E-06  0.0091
   1.1733E+01   1.2019E+01   8.1430E-06  0.0093
   1.2019E+01   1.2311E+01   7.7969E-06  0.0094
   1.2311E+01   1.2611E+01   7.2906E-06  0.0096
   1.2611E+01   1.2918E+01   6.9192E-06  0.0097
   1.2918E+01   1.3232E+01   6.4745E-06  0.0099
   1.3232E+01   1.3554E+01   6.2037E-06  0.0100
   1.3554E+01   1.3884E+01   5.8662E-06  0.0102
   1.3884E+01   1.4222E+01   5.4151E-06  0.0105
   1.4222E+01   1.4568E+01   5.1325E-06  0.0106
   1.4568E+01   1.4922E+01   4.7705E-06  0.0109
   1.4922E+01   1.5285E+01   4.5618E-06  0.0110
   1.5285E+01   1.5657E+01   4.2184E-06  0.0113
   1.5657E+01   1.6038E+01   3.9849E-06  0.0115
   1.6038E+01   1.6428E+01   3.6428E-06  0.0119
   1.6428E+01   1.6828E+01   3.4613E-06  0.0120
   1.6828E+01   1.7237E+01   3.1270E-06  0.0125
   1.7237E+01   1.7657E+01   2.9055E-06  0.0128
   1.7657E+01   1.8086E+01   2.5955E-06  0.0134
   1.8086E+01   1.8526E+01   2.2907E-06  0.0141
   1.8526E+01   1.8977E+01   1.9777E-06  0.0150
   1.8977E+01   1.9439E+01   1.6847E-06  0.0160
   1.9439E+01   1.9912E+01   1.4081E-06  0.0173
   1.9912E+01   2.0396E+01   1.1344E-06  0.0191
   2.0396E+01   2.0893E+01   9.5313E-07  0.0206
   2.0893E+01   2.1401E+01   7.8492E-07  0.0224
   2.1401E+01   2.1922E+01   5.9996E-07  0.0253
   2.1922E+01   2.2455E+01   4.3534E-07  0.0293
   2.2455E+01   2.3001E+01   2.7309E-07  0.0366
   2.3001E+01   2.3561E+01   1.3509E-07  0.0514
   2.3561E+01   2.4134E+01   3.7679E-08  0.0962
   2.4134E+01   2.4721E+01   2.7248E-09  0.3536
   2.4721E+01   2.5323E+01   0.0000E+00  0.0000
   2.5323E+01   2.5939E+01   0.0000E+00  0.0000
   2.5939E+01   2.6570E+01   0.0000E+00  0.0000
   2.6570E+01   2.7217E+01   0.0000E+00  0.0000
   2.7217E+01   2.7879E+01   0.0000E+00  0.0000
   2.7879E+01   2.8557E+01   0.0000E+00  0.0000
   2.8557E+01   2.9252E+01   0.0000E+00  0.0000
   2.9252E+01   2.9964E+01   0.0000E+00  0.0000
   2.9964E+01   3.0693E+01   0.0000E+00  0.0000
   3.0693E+01   3.1440E+01   0.0000E+00  0.0000
   3.1440E+01   3.2205E+01   0.0000E+00  0.0000
   3.2205E+01   3.2988E+01   0.0000E+00  0.0000
   3.2988E+01   3.3791E+01   0.0000E+00  0.0000
   3.3791E+01   3.4613E+01   0.0000E+00  0.0000
   3.4613E+01   3.5455E+01   0.0000E+00  0.0000
   3.5455E+01   3.6318E+01   0.0000E+00  0.0000
   3.6318E+01   3.7201E+01   0.0000E+00  0.0000
   3.7201E+01   3.8106E+01   0.0000E+00  0.0000
   3.8106E+01   3.9034E+01   0.0000E+00  0.0000
   3.9034E+01   3.9983E+01   0.0000E+00  0.0000
   3.9983E+01   4.0956E+01   0.0000E+00  0.0000
   4.0956E+01   4.1953E+01   0.0000E+00  0.0000
   4.1953E+01   4.2973E+01   0.0000E+00  0.0000
   4.2973E+01   4.4019E+01   0.0000E+00  0.0000
   4.4019E+01   4.5090E+01   0.0000E+00  0.0000
   4.5090E+01   4.6187E+01   0.0000E+00  0.0000
   4.6187E+01   4.7311E+01   0.0000E+00  0.0000
   4.7311E+01   4.8462E+01   0.0000E+00  0.0000
   4.8462E+01   4.9641E+01   0.0000E+00  0.0000
   4.9641E+01   5.0849E+01   0.0000E+00  0.0000
   5.0849E+01   5.2086E+01   0.0000E+00  0.0000
   5.2086E+01   5.3353E+01   0.0000E+00  0.0000
   5.3353E+01   5.4651E+01   0.0000E+00  0.0000
   5.4651E+01   5.5981E+01   0.0000E+00  0.0000
   5.5981E+01   5.7343E+01   0.0000E+00  0.0000
   5.7343E+01   5.8738E+01   0.0000E+00  0.0000
   5.8738E+01   6.0168E+01   0.0000E+00  0.0000
   6.0168E+01   6.1632E+01   0.0000E+00  0.0000
   6.1632E+01   6.3131E+01   0.0000E+00  0.0000
   6.3131E+01   6.4667E+01   0.0000E+00  0.0000
   6.4667E+01   6.6240E+01   0.0000E+00  0.0000
   6.6240E+01   6.7852E+01   0.0000E+00  0.0000
   6.7852E+01   6.9503E+01   0.0000E+00  0.0000
   6.9503E+01   7.1194E+01   0.0000E+00  0.0000
   7.1194E+01   7.2926E+01   0.0000E+00  0.0000
   7.2926E+01   7.4701E+01   0.0000E+00  0.0000
   7.4701E+01   7.6518E+01   0.0000E+00  0.0000
   7.6518E+01   7.8380E+01   0.0000E+00  0.0000
   7.8380E+01   8.0287E+01   0.0000E+00  0.0000
   8.0287E+01   8.2240E+01   0.0000E+00  0.0000
   8.2240E+01   8.4241E+01   0.0000E+00  0.0000
   8.4241E+01   8.6291E+01   0.0000E+00  0.0000
   8.6291E+01   8.8391E+01   0.0000E+00  0.0000
   8.8391E+01   9.0541E+01   0.0000E+00  0.0000
   9.0541E+01   9.2744E+01   0.0000E+00  0.0000
   9.2744E+01   9.5001E+01   0.0000E+00  0.0000
   9.5001E+01   9.7312E+01   0.0000E+00  0.0000
   9.7312E+01   9.9680E+01   0.0000E+00  0.0000
   9.9680E+01   1.0211E+02   0.0000E+00  0.0000
   1.0211E+02   1.0459E+02   0.0000E+00  0.0000
   1.0459E+02   1.0713E+02   0.0000E+00  0.0000
   1.0713E+02   1.0974E+02   0.0000E+00  0.0000
   1.0974E+02   1.1241E+02   0.0000E+00  0.0000
   1.1241E+02   1.1515E+02   0.0000E+00  0.0000
   1.1515E+02   1.1795E+02   0.0000E+00  0.0000
   1.1795E+02   1.2082E+02   0.0000E+00  0.0000
   1.2082E+02   1.2376E+02   0.0000E+00  0.0000
   1.2376E+02   1.2677E+02   0.0000E+00  0.0000
   1.2677E+02   1.2985E+02   0.0000E+00  0.0000
   1.2985E+02   1.3301E+02   0.0000E+00  0.0000
   1.3301E+02   1.3625E+02   0.0000E+00  0.0000
   1.3625E+02   1.3956E+02   0.0000E+00  0.0000
   1.3956E+02   1.4296E+02   0.0000E+00  0.0000
   1.4296E+02   1.4644E+02   0.0000E+00  0.0000
   1.4644E+02   1.5000E+02   0.0000E+00  0.0000

#   sum over                 2.1707E-06
'no. =    1   reg = 107 - 207'
msuc: {\huge [t-cross] in region mesh}
msdr: {\it plotted by \ANGEL \version}
msdl: {\it calculated by \PHITS  3.26}
wt: s(0.7)
\vspace{-3}
  region surface crossing
  area  &=&   1.0000E+00 [cm^2]
e:
 
# Information for Restart Calculation
# This calculation was newly started
# istdev =  2 # 1:Batch variance, 2:History variance
# resc2  = 5.00000000000000000E+09 # Total source weight or Total source weight / maxcas
# resc3  = 5.00000000000000000E+09 # Total history number or Total batch number
# maxcas =   500000000 # History / Batch, only used for istdev=1
# bitrseed = 0110100000100010111000001110001111001110100100011111101000111001 # bit data of rseed
