[ T-Cross ]
    title = [t-cross] in region mesh
     mesh =  reg            # mesh type is region-wise
      reg =    1            # number of crossing regions
      non     r-from    r-to       area
      1       116       216        1.000000    
   e-type =    3            # e-mesh is log given by emin, emax and ne
     emin =  1.0000000E-02  # minimum value of e-mesh points
     emax =   150.0000      # maximum value of e-mesh points
#    edel =  2.4039514E-02  # mesh width of e-mesh points
       ne =    400          # number of e-mesh points
#    data = ( e(i), i = 1, ne + 1 )
#           1.00000E-02  1.02433E-02  1.04925E-02  1.07478E-02  1.10093E-02
#           1.12772E-02  1.15516E-02  1.18326E-02  1.21205E-02  1.24154E-02
#           1.27175E-02  1.30269E-02  1.33439E-02  1.36686E-02  1.40011E-02
#           1.43418E-02  1.46907E-02  1.50482E-02  1.54143E-02  1.57894E-02
#           1.61735E-02  1.65670E-02  1.69701E-02  1.73830E-02  1.78060E-02
#           1.82392E-02  1.86830E-02  1.91375E-02  1.96032E-02  2.00801E-02
#           2.05687E-02  2.10692E-02  2.15818E-02  2.21069E-02  2.26448E-02
#           2.31957E-02  2.37601E-02  2.43382E-02  2.49304E-02  2.55369E-02
#           2.61583E-02  2.67947E-02  2.74467E-02  2.81145E-02  2.87985E-02
#           2.94992E-02  3.02169E-02  3.09521E-02  3.17052E-02  3.24766E-02
#           3.32668E-02  3.40762E-02  3.49053E-02  3.57546E-02  3.66246E-02
#           3.75157E-02  3.84284E-02  3.93634E-02  4.03212E-02  4.13022E-02
#           4.23071E-02  4.33365E-02  4.43909E-02  4.54710E-02  4.65773E-02
#           4.77106E-02  4.88714E-02  5.00605E-02  5.12785E-02  5.25262E-02
#           5.38042E-02  5.51133E-02  5.64542E-02  5.78278E-02  5.92348E-02
#           6.06760E-02  6.21523E-02  6.36645E-02  6.52135E-02  6.68002E-02
#           6.84255E-02  7.00904E-02  7.17957E-02  7.35426E-02  7.53319E-02
#           7.71648E-02  7.90423E-02  8.09655E-02  8.29354E-02  8.49533E-02
#           8.70203E-02  8.91376E-02  9.13064E-02  9.35279E-02  9.58035E-02
#           9.81345E-02  1.00522E-01  1.02968E-01  1.05473E-01  1.08040E-01
#           1.10668E-01  1.13361E-01  1.16119E-01  1.18944E-01  1.21838E-01
#           1.24803E-01  1.27839E-01  1.30950E-01  1.34136E-01  1.37399E-01
#           1.40742E-01  1.44167E-01  1.47675E-01  1.51268E-01  1.54948E-01
#           1.58718E-01  1.62580E-01  1.66535E-01  1.70587E-01  1.74738E-01
#           1.78989E-01  1.83344E-01  1.87805E-01  1.92375E-01  1.97055E-01
#           2.01850E-01  2.06761E-01  2.11792E-01  2.16945E-01  2.22223E-01
#           2.27630E-01  2.33169E-01  2.38842E-01  2.44653E-01  2.50605E-01
#           2.56703E-01  2.62949E-01  2.69346E-01  2.75900E-01  2.82613E-01
#           2.89489E-01  2.96532E-01  3.03747E-01  3.11138E-01  3.18708E-01
#           3.26462E-01  3.34405E-01  3.42542E-01  3.50876E-01  3.59413E-01
#           3.68158E-01  3.77116E-01  3.86291E-01  3.95690E-01  4.05317E-01
#           4.15179E-01  4.25281E-01  4.35628E-01  4.46227E-01  4.57084E-01
#           4.68205E-01  4.79597E-01  4.91266E-01  5.03219E-01  5.15463E-01
#           5.28005E-01  5.40851E-01  5.54011E-01  5.67490E-01  5.81298E-01
#           5.95441E-01  6.09929E-01  6.24769E-01  6.39970E-01  6.55541E-01
#           6.71491E-01  6.87828E-01  7.04564E-01  7.21706E-01  7.39266E-01
#           7.57253E-01  7.75678E-01  7.94551E-01  8.13883E-01  8.33685E-01
#           8.53969E-01  8.74747E-01  8.96030E-01  9.17831E-01  9.40163E-01
#           9.63038E-01  9.86469E-01  1.01047E+00  1.03506E+00  1.06024E+00
#           1.08604E+00  1.11246E+00  1.13953E+00  1.16725E+00  1.19565E+00
#           1.22474E+00  1.25454E+00  1.28507E+00  1.31633E+00  1.34836E+00
#           1.38117E+00  1.41477E+00  1.44920E+00  1.48446E+00  1.52057E+00
#           1.55757E+00  1.59547E+00  1.63429E+00  1.67405E+00  1.71478E+00
#           1.75650E+00  1.79924E+00  1.84302E+00  1.88786E+00  1.93379E+00
#           1.98084E+00  2.02904E+00  2.07841E+00  2.12898E+00  2.18078E+00
#           2.23384E+00  2.28819E+00  2.34386E+00  2.40089E+00  2.45930E+00
#           2.51914E+00  2.58043E+00  2.64322E+00  2.70753E+00  2.77341E+00
#           2.84088E+00  2.91001E+00  2.98081E+00  3.05333E+00  3.12762E+00
#           3.20372E+00  3.28167E+00  3.36152E+00  3.44330E+00  3.52708E+00
#           3.61290E+00  3.70080E+00  3.79085E+00  3.88308E+00  3.97756E+00
#           4.07434E+00  4.17347E+00  4.27501E+00  4.37903E+00  4.48557E+00
#           4.59471E+00  4.70650E+00  4.82102E+00  4.93832E+00  5.05847E+00
#           5.18155E+00  5.30762E+00  5.43676E+00  5.56904E+00  5.70453E+00
#           5.84333E+00  5.98550E+00  6.13114E+00  6.28031E+00  6.43312E+00
#           6.58964E+00  6.74997E+00  6.91420E+00  7.08243E+00  7.25475E+00
#           7.43126E+00  7.61207E+00  7.79728E+00  7.98700E+00  8.18133E+00
#           8.38038E+00  8.58428E+00  8.79315E+00  9.00709E+00  9.22624E+00
#           9.45072E+00  9.68067E+00  9.91620E+00  1.01575E+01  1.04046E+01
#           1.06578E+01  1.09171E+01  1.11827E+01  1.14548E+01  1.17335E+01
#           1.20190E+01  1.23114E+01  1.26109E+01  1.29178E+01  1.32321E+01
#           1.35540E+01  1.38838E+01  1.42216E+01  1.45676E+01  1.49221E+01
#           1.52851E+01  1.56570E+01  1.60380E+01  1.64282E+01  1.68279E+01
#           1.72374E+01  1.76568E+01  1.80864E+01  1.85264E+01  1.89772E+01
#           1.94389E+01  1.99119E+01  2.03963E+01  2.08926E+01  2.14009E+01
#           2.19216E+01  2.24550E+01  2.30014E+01  2.35610E+01  2.41343E+01
#           2.47215E+01  2.53230E+01  2.59391E+01  2.65702E+01  2.72167E+01
#           2.78789E+01  2.85572E+01  2.92520E+01  2.99637E+01  3.06928E+01
#           3.14396E+01  3.22045E+01  3.29881E+01  3.37907E+01  3.46128E+01
#           3.54550E+01  3.63177E+01  3.72013E+01  3.81064E+01  3.90336E+01
#           3.99833E+01  4.09561E+01  4.19526E+01  4.29734E+01  4.40189E+01
#           4.50900E+01  4.61870E+01  4.73108E+01  4.84619E+01  4.96410E+01
#           5.08488E+01  5.20860E+01  5.33533E+01  5.46514E+01  5.59812E+01
#           5.73432E+01  5.87384E+01  6.01676E+01  6.16315E+01  6.31311E+01
#           6.46671E+01  6.62405E+01  6.78522E+01  6.95031E+01  7.11941E+01
#           7.29263E+01  7.47007E+01  7.65182E+01  7.83800E+01  8.02870E+01
#           8.22405E+01  8.42414E+01  8.62911E+01  8.83906E+01  9.05412E+01
#           9.27442E+01  9.50007E+01  9.73122E+01  9.96799E+01  1.02105E+02
#           1.04589E+02  1.07134E+02  1.09741E+02  1.12411E+02  1.15146E+02
#           1.17948E+02  1.20817E+02  1.23757E+02  1.26768E+02  1.29852E+02
#           1.33012E+02  1.36248E+02  1.39563E+02  1.42959E+02  1.46437E+02
#           1.50000E+02
     unit =    2            # unit is [1/cm^2/(MeV/n)/source]
     axis =  eng            # axis of output
     file = detector-17.out  # file name of output for the above axis
   output = f-curr          # surface crossing forward current spectrum
     part =  neutron  
# kf/name :  2112     
#    used :        main (  %)        temp (  %)       total (  %)
#  memory :         414 (  0)           0 (  0)         414 (  0)

#------------------------------------------------------------------------------
#newpage:
#   no. =    1   reg = 116 - 216

x: Energy [MeV/n]
y:  F-Curr [1/cm^2/(MeV/n)/source]         
p: xlog ylog afac(0.8) form(0.9)
h: n            x            y(neutron ),hh0l   n 
#  e-lower      e-upper      neutron     r.err 
   1.0000E-02   1.0243E-02   3.2880E-04  0.1581
   1.0243E-02   1.0493E-02   5.3766E-04  0.1222
   1.0493E-02   1.0748E-02   3.6821E-04  0.1459
   1.0748E-02   1.1009E-02   3.2887E-04  0.1525
   1.1009E-02   1.1277E-02   4.3305E-04  0.1313
   1.1277E-02   1.1552E-02   3.4988E-04  0.1443
   1.1552E-02   1.1833E-02   4.1984E-04  0.1302
   1.1833E-02   1.2121E-02   3.4735E-04  0.1414
   1.2121E-02   1.2415E-02   3.2553E-04  0.1443
   1.2415E-02   1.2718E-02   3.2442E-04  0.1429
   1.2718E-02   1.3027E-02   3.6196E-04  0.1336
   1.3027E-02   1.3344E-02   2.7764E-04  0.1508
   1.3344E-02   1.3669E-02   3.3881E-04  0.1348
   1.3669E-02   1.4001E-02   3.1873E-04  0.1374
   1.4001E-02   1.4342E-02   4.2271E-04  0.1179
   1.4342E-02   1.4691E-02   4.6999E-04  0.1104
   1.4691E-02   1.5048E-02   4.0287E-04  0.1179
   1.5048E-02   1.5414E-02   4.4792E-04  0.1104
   1.5414E-02   1.5789E-02   3.6796E-04  0.1204
   1.5789E-02   1.6174E-02   2.8113E-04  0.1361
   1.6174E-02   1.6567E-02   4.3200E-04  0.1085
   1.6567E-02   1.6970E-02   3.6716E-04  0.1162
   1.6970E-02   1.7383E-02   4.3110E-04  0.1060
   1.7383E-02   1.7806E-02   4.2086E-04  0.1060
   1.7806E-02   1.8239E-02   3.6932E-04  0.1118
   1.8239E-02   1.8683E-02   3.4702E-04  0.1140
   1.8683E-02   1.9138E-02   3.6958E-04  0.1091
   1.9138E-02   1.9603E-02   4.1234E-04  0.1021
   1.9603E-02   2.0080E-02   5.0738E-04  0.0909
   2.0080E-02   2.0569E-02   4.0527E-04  0.1005
   2.0569E-02   2.1069E-02   3.9564E-04  0.1005
   2.1069E-02   2.1582E-02   5.2670E-04  0.0861
   2.1582E-02   2.2107E-02   4.1897E-04  0.0953
   2.2107E-02   2.2645E-02   4.3876E-04  0.0921
   2.2645E-02   2.3196E-02   4.2834E-04  0.0921
   2.3196E-02   2.3760E-02   4.1817E-04  0.0921
   2.3760E-02   2.4338E-02   4.2899E-04  0.0898
   2.4338E-02   2.4930E-02   3.9854E-04  0.0921
   2.4930E-02   2.5537E-02   3.6599E-04  0.0949
   2.5537E-02   2.6158E-02   4.1202E-04  0.0884
   2.6158E-02   2.6795E-02   3.8023E-04  0.0909
   2.6795E-02   2.7447E-02   5.0005E-04  0.0783
   2.7447E-02   2.8114E-02   3.7436E-04  0.0894
   2.8114E-02   2.8799E-02   4.2979E-04  0.0825
   2.8799E-02   2.9499E-02   4.6240E-04  0.0786
   2.9499E-02   3.0217E-02   3.8733E-04  0.0848
   3.0217E-02   3.0952E-02   4.2981E-04  0.0796
   3.0952E-02   3.1705E-02   4.4351E-04  0.0774
   3.1705E-02   3.2477E-02   4.2779E-04  0.0778
   3.2477E-02   3.3267E-02   4.0750E-04  0.0788
   3.3267E-02   3.4076E-02   4.5465E-04  0.0737
   3.4076E-02   3.4905E-02   3.7149E-04  0.0806
   3.4905E-02   3.5755E-02   4.3331E-04  0.0737
   3.5755E-02   3.6625E-02   4.4141E-04  0.0722
   3.6625E-02   3.7516E-02   4.7357E-04  0.0688
   3.7516E-02   3.8428E-02   4.1631E-04  0.0725
   3.8428E-02   3.9363E-02   3.9786E-04  0.0733
   3.9363E-02   4.0321E-02   5.0744E-04  0.0642
   4.0321E-02   4.1302E-02   4.4646E-04  0.0676
   4.1302E-02   4.2307E-02   4.6969E-04  0.0651
   4.2307E-02   4.3337E-02   4.6825E-04  0.0644
   4.3337E-02   4.4391E-02   4.7609E-04  0.0631
   4.4391E-02   4.5471E-02   4.8701E-04  0.0617
   4.5471E-02   4.6577E-02   4.9532E-04  0.0604
   4.6577E-02   4.7711E-02   4.5003E-04  0.0626
   4.7711E-02   4.8871E-02   5.0825E-04  0.0582
   4.8871E-02   5.0061E-02   4.6422E-04  0.0602
   5.0061E-02   5.1279E-02   4.7290E-04  0.0589
   5.1279E-02   5.2526E-02   4.6007E-04  0.0590
   5.2526E-02   5.3804E-02   4.8200E-04  0.0570
   5.3804E-02   5.5113E-02   4.5833E-04  0.0577
   5.5113E-02   5.6454E-02   4.6534E-04  0.0566
   5.6454E-02   5.7828E-02   5.1107E-04  0.0534
   5.7828E-02   5.9235E-02   4.7051E-04  0.0550
   5.9235E-02   6.0676E-02   4.7321E-04  0.0542
   6.0676E-02   6.2152E-02   5.0532E-04  0.0518
   6.2152E-02   6.3665E-02   4.6885E-04  0.0531
   6.3665E-02   6.5214E-02   4.7772E-04  0.0520
   6.5214E-02   6.6800E-02   5.2688E-04  0.0489
   6.6800E-02   6.8426E-02   4.6637E-04  0.0514
   6.8426E-02   7.0090E-02   4.7452E-04  0.0503
   7.0090E-02   7.1796E-02   4.8670E-04  0.0491
   7.1796E-02   7.3543E-02   5.2323E-04  0.0468
   7.3543E-02   7.5332E-02   5.6557E-04  0.0445
   7.5332E-02   7.7165E-02   5.0303E-04  0.0466
   7.7165E-02   7.9042E-02   5.4967E-04  0.0440
   7.9042E-02   8.0965E-02   5.1894E-04  0.0448
   8.0965E-02   8.2935E-02   5.8783E-04  0.0416
   8.2935E-02   8.4953E-02   5.5405E-04  0.0423
   8.4953E-02   8.7020E-02   5.3314E-04  0.0426
   8.7020E-02   8.9138E-02   5.2426E-04  0.0424
   8.9138E-02   9.1306E-02   5.4777E-04  0.0410
   9.1306E-02   9.3528E-02   5.7707E-04  0.0395
   9.3528E-02   9.5804E-02   5.7479E-04  0.0391
   9.5804E-02   9.8134E-02   5.6543E-04  0.0390
   9.8134E-02   1.0052E-01   5.2184E-04  0.0401
   1.0052E-01   1.0297E-01   5.0781E-04  0.0401
   1.0297E-01   1.0547E-01   5.4445E-04  0.0383
   1.0547E-01   1.0804E-01   5.3853E-04  0.0380
   1.0804E-01   1.1067E-01   5.3335E-04  0.0378
   1.1067E-01   1.1336E-01   5.3776E-04  0.0372
   1.1336E-01   1.1612E-01   5.7502E-04  0.0355
   1.1612E-01   1.1894E-01   5.5924E-04  0.0356
   1.1894E-01   1.2184E-01   5.7498E-04  0.0347
   1.2184E-01   1.2480E-01   5.9168E-04  0.0338
   1.2480E-01   1.2784E-01   5.6973E-04  0.0340
   1.2784E-01   1.3095E-01   5.8577E-04  0.0331
   1.3095E-01   1.3414E-01   5.7751E-04  0.0330
   1.3414E-01   1.3740E-01   5.9933E-04  0.0320
   1.3740E-01   1.4074E-01   5.7672E-04  0.0322
   1.4074E-01   1.4417E-01   5.8522E-04  0.0316
   1.4417E-01   1.4767E-01   6.1579E-04  0.0304
   1.4767E-01   1.5127E-01   6.0116E-04  0.0304
   1.5127E-01   1.5495E-01   5.8308E-04  0.0305
   1.5495E-01   1.5872E-01   5.8992E-04  0.0300
   1.5872E-01   1.6258E-01   6.3288E-04  0.0286
   1.6258E-01   1.6654E-01   6.0470E-04  0.0289
   1.6654E-01   1.7059E-01   5.8984E-04  0.0289
   1.7059E-01   1.7474E-01   6.3269E-04  0.0276
   1.7474E-01   1.7899E-01   6.0402E-04  0.0279
   1.7899E-01   1.8334E-01   6.1034E-04  0.0275
   1.8334E-01   1.8781E-01   6.2409E-04  0.0268
   1.8781E-01   1.9237E-01   6.2021E-04  0.0266
   1.9237E-01   1.9706E-01   6.6017E-04  0.0255
   1.9706E-01   2.0185E-01   6.3823E-04  0.0256
   2.0185E-01   2.0676E-01   6.4750E-04  0.0251
   2.0676E-01   2.1179E-01   6.2616E-04  0.0252
   2.1179E-01   2.1694E-01   6.3186E-04  0.0248
   2.1694E-01   2.2222E-01   6.6118E-04  0.0239
   2.2222E-01   2.2763E-01   6.5657E-04  0.0237
   2.2763E-01   2.3317E-01   6.4928E-04  0.0236
   2.3317E-01   2.3884E-01   6.6418E-04  0.0231
   2.3884E-01   2.4465E-01   6.9624E-04  0.0222
   2.4465E-01   2.5061E-01   6.4879E-04  0.0228
   2.5061E-01   2.5670E-01   6.6421E-04  0.0222
   2.5670E-01   2.6295E-01   6.9711E-04  0.0214
   2.6295E-01   2.6935E-01   6.9431E-04  0.0212
   2.6935E-01   2.7590E-01   7.0131E-04  0.0209
   2.7590E-01   2.8261E-01   6.9359E-04  0.0207
   2.8261E-01   2.8949E-01   6.8686E-04  0.0206
   2.8949E-01   2.9653E-01   7.1783E-04  0.0199
   2.9653E-01   3.0375E-01   6.7167E-04  0.0203
   3.0375E-01   3.1114E-01   7.2716E-04  0.0193
   3.1114E-01   3.1871E-01   7.2019E-04  0.0192
   3.1871E-01   3.2646E-01   6.9947E-04  0.0192
   3.2646E-01   3.3441E-01   7.3322E-04  0.0185
   3.3441E-01   3.4254E-01   7.1949E-04  0.0185
   3.4254E-01   3.5088E-01   7.2915E-04  0.0181
   3.5088E-01   3.5941E-01   7.5834E-04  0.0176
   3.5941E-01   3.6816E-01   7.3644E-04  0.0176
   3.6816E-01   3.7712E-01   7.4395E-04  0.0173
   3.7712E-01   3.8629E-01   7.5178E-04  0.0170
   3.8629E-01   3.9569E-01   7.3499E-04  0.0170
   3.9569E-01   4.0532E-01   7.3311E-04  0.0168
   4.0532E-01   4.1518E-01   7.4855E-04  0.0165
   4.1518E-01   4.2528E-01   7.5829E-04  0.0162
   4.2528E-01   4.3563E-01   7.3545E-04  0.0162
   4.3563E-01   4.4623E-01   7.5817E-04  0.0158
   4.4623E-01   4.5708E-01   7.6245E-04  0.0155
   4.5708E-01   4.6821E-01   7.4920E-04  0.0155
   4.6821E-01   4.7960E-01   7.6371E-04  0.0152
   4.7960E-01   4.9127E-01   7.7179E-04  0.0149
   4.9127E-01   5.0322E-01   7.8224E-04  0.0146
   5.0322E-01   5.1546E-01   7.7378E-04  0.0145
   5.1546E-01   5.2800E-01   7.8507E-04  0.0143
   5.2800E-01   5.4085E-01   7.7662E-04  0.0142
   5.4085E-01   5.5401E-01   7.9457E-04  0.0138
   5.5401E-01   5.6749E-01   8.0582E-04  0.0136
   5.6749E-01   5.8130E-01   7.7320E-04  0.0137
   5.8130E-01   5.9544E-01   7.9288E-04  0.0134
   5.9544E-01   6.0993E-01   7.8923E-04  0.0132
   6.0993E-01   6.2477E-01   7.7453E-04  0.0132
   6.2477E-01   6.3997E-01   7.8599E-04  0.0129
   6.3997E-01   6.5554E-01   7.8967E-04  0.0128
   6.5554E-01   6.7149E-01   7.6352E-04  0.0128
   6.7149E-01   6.8783E-01   7.7072E-04  0.0126
   6.8783E-01   7.0456E-01   7.7405E-04  0.0124
   7.0456E-01   7.2171E-01   7.8355E-04  0.0122
   7.2171E-01   7.3927E-01   7.6174E-04  0.0122
   7.3927E-01   7.5725E-01   7.6967E-04  0.0120
   7.5725E-01   7.7568E-01   7.6876E-04  0.0119
   7.7568E-01   7.9455E-01   7.4647E-04  0.0119
   7.9455E-01   8.1388E-01   7.4452E-04  0.0118
   8.1388E-01   8.3368E-01   7.4294E-04  0.0117
   8.3368E-01   8.5397E-01   7.3732E-04  0.0116
   8.5397E-01   8.7475E-01   7.0325E-04  0.0117
   8.7475E-01   8.9603E-01   6.8721E-04  0.0117
   8.9603E-01   9.1783E-01   6.8400E-04  0.0116
   9.1783E-01   9.4016E-01   6.5396E-04  0.0117
   9.4016E-01   9.6304E-01   6.3025E-04  0.0118
   9.6304E-01   9.8647E-01   6.0952E-04  0.0118
   9.8647E-01   1.0105E+00   5.9671E-04  0.0118
   1.0105E+00   1.0351E+00   5.7456E-04  0.0119
   1.0351E+00   1.0602E+00   5.8562E-04  0.0116
   1.0602E+00   1.0860E+00   5.8791E-04  0.0115
   1.0860E+00   1.1125E+00   5.9287E-04  0.0113
   1.1125E+00   1.1395E+00   5.7908E-04  0.0113
   1.1395E+00   1.1673E+00   5.8852E-04  0.0111
   1.1673E+00   1.1957E+00   6.0894E-04  0.0108
   1.1957E+00   1.2247E+00   6.1991E-04  0.0105
   1.2247E+00   1.2545E+00   6.0103E-04  0.0106
   1.2545E+00   1.2851E+00   6.1892E-04  0.0103
   1.2851E+00   1.3163E+00   6.0003E-04  0.0103
   1.3163E+00   1.3484E+00   6.0823E-04  0.0101
   1.3484E+00   1.3812E+00   6.1628E-04  0.0099
   1.3812E+00   1.4148E+00   6.2470E-04  0.0098
   1.4148E+00   1.4492E+00   6.1471E-04  0.0097
   1.4492E+00   1.4845E+00   6.1355E-04  0.0096
   1.4845E+00   1.5206E+00   6.0828E-04  0.0095
   1.5206E+00   1.5576E+00   6.1449E-04  0.0094
   1.5576E+00   1.5955E+00   6.0253E-04  0.0094
   1.5955E+00   1.6343E+00   6.0929E-04  0.0092
   1.6343E+00   1.6741E+00   6.1167E-04  0.0091
   1.6741E+00   1.7148E+00   6.0372E-04  0.0090
   1.7148E+00   1.7565E+00   6.1176E-04  0.0089
   1.7565E+00   1.7992E+00   6.0498E-04  0.0088
   1.7992E+00   1.8430E+00   6.0393E-04  0.0087
   1.8430E+00   1.8879E+00   6.0205E-04  0.0086
   1.8879E+00   1.9338E+00   5.9064E-04  0.0086
   1.9338E+00   1.9808E+00   5.9702E-04  0.0084
   1.9808E+00   2.0290E+00   5.8881E-04  0.0084
   2.0290E+00   2.0784E+00   5.9131E-04  0.0083
   2.0784E+00   2.1290E+00   5.8203E-04  0.0082
   2.1290E+00   2.1808E+00   5.6510E-04  0.0083
   2.1808E+00   2.2338E+00   5.5530E-04  0.0082
   2.2338E+00   2.2882E+00   5.4468E-04  0.0082
   2.2882E+00   2.3439E+00   5.4899E-04  0.0081
   2.3439E+00   2.4009E+00   5.4810E-04  0.0080
   2.4009E+00   2.4593E+00   5.4937E-04  0.0079
   2.4593E+00   2.5191E+00   5.2999E-04  0.0079
   2.5191E+00   2.5804E+00   5.2370E-04  0.0079
   2.5804E+00   2.6432E+00   5.1018E-04  0.0079
   2.6432E+00   2.7075E+00   5.0268E-04  0.0079
   2.7075E+00   2.7734E+00   4.8260E-04  0.0079
   2.7734E+00   2.8409E+00   4.8403E-04  0.0078
   2.8409E+00   2.9100E+00   4.6757E-04  0.0079
   2.9100E+00   2.9808E+00   4.6514E-04  0.0078
   2.9808E+00   3.0533E+00   4.5682E-04  0.0078
   3.0533E+00   3.1276E+00   4.4122E-04  0.0078
   3.1276E+00   3.2037E+00   4.2145E-04  0.0079
   3.2037E+00   3.2817E+00   4.1550E-04  0.0079
   3.2817E+00   3.3615E+00   3.9568E-04  0.0080
   3.3615E+00   3.4433E+00   3.8547E-04  0.0080
   3.4433E+00   3.5271E+00   3.7722E-04  0.0080
   3.5271E+00   3.6129E+00   3.6083E-04  0.0080
   3.6129E+00   3.7008E+00   3.5437E-04  0.0080
   3.7008E+00   3.7908E+00   3.3958E-04  0.0081
   3.7908E+00   3.8831E+00   3.2784E-04  0.0081
   3.8831E+00   3.9776E+00   3.1261E-04  0.0082
   3.9776E+00   4.0743E+00   2.9720E-04  0.0083
   4.0743E+00   4.1735E+00   2.8406E-04  0.0084
   4.1735E+00   4.2750E+00   2.6855E-04  0.0086
   4.2750E+00   4.3790E+00   2.6074E-04  0.0086
   4.3790E+00   4.4856E+00   2.5222E-04  0.0086
   4.4856E+00   4.5947E+00   2.3394E-04  0.0089
   4.5947E+00   4.7065E+00   2.2153E-04  0.0090
   4.7065E+00   4.8210E+00   2.1389E-04  0.0090
   4.8210E+00   4.9383E+00   2.0235E-04  0.0092
   4.9383E+00   5.0585E+00   1.9189E-04  0.0093
   5.0585E+00   5.1815E+00   1.7973E-04  0.0095
   5.1815E+00   5.3076E+00   1.6925E-04  0.0097
   5.3076E+00   5.4368E+00   1.5880E-04  0.0099
   5.4368E+00   5.5690E+00   1.4910E-04  0.0101
   5.5690E+00   5.7045E+00   1.4197E-04  0.0102
   5.7045E+00   5.8433E+00   1.3133E-04  0.0105
   5.8433E+00   5.9855E+00   1.2191E-04  0.0107
   5.9855E+00   6.1311E+00   1.1410E-04  0.0110
   6.1311E+00   6.2803E+00   1.0817E-04  0.0111
   6.2803E+00   6.4331E+00   1.0103E-04  0.0114
   6.4331E+00   6.5896E+00   9.2459E-05  0.0118
   6.5896E+00   6.7500E+00   8.7282E-05  0.0120
   6.7500E+00   6.9142E+00   8.2231E-05  0.0122
   6.9142E+00   7.0824E+00   7.6694E-05  0.0125
   7.0824E+00   7.2548E+00   7.1007E-05  0.0128
   7.2548E+00   7.4313E+00   6.4448E-05  0.0133
   7.4313E+00   7.6121E+00   5.9267E-05  0.0137
   7.6121E+00   7.7973E+00   5.4933E-05  0.0140
   7.7973E+00   7.9870E+00   5.0624E-05  0.0144
   7.9870E+00   8.1813E+00   4.8907E-05  0.0145
   8.1813E+00   8.3804E+00   4.4454E-05  0.0150
   8.3804E+00   8.5843E+00   4.2015E-05  0.0153
   8.5843E+00   8.7931E+00   3.7225E-05  0.0160
   8.7931E+00   9.0071E+00   3.5121E-05  0.0163
   9.0071E+00   9.2262E+00   3.2256E-05  0.0168
   9.2262E+00   9.4507E+00   3.1067E-05  0.0169
   9.4507E+00   9.6807E+00   2.7937E-05  0.0176
   9.6807E+00   9.9162E+00   2.6552E-05  0.0179
   9.9162E+00   1.0157E+01   2.4413E-05  0.0184
   1.0157E+01   1.0405E+01   2.3274E-05  0.0186
   1.0405E+01   1.0658E+01   2.1655E-05  0.0191
   1.0658E+01   1.0917E+01   1.9671E-05  0.0198
   1.0917E+01   1.1183E+01   1.8850E-05  0.0200
   1.1183E+01   1.1455E+01   1.7506E-05  0.0205
   1.1455E+01   1.1733E+01   1.6498E-05  0.0208
   1.1733E+01   1.2019E+01   1.5353E-05  0.0214
   1.2019E+01   1.2311E+01   1.4564E-05  0.0217
   1.2311E+01   1.2611E+01   1.3320E-05  0.0224
   1.2611E+01   1.2918E+01   1.3196E-05  0.0222
   1.2918E+01   1.3232E+01   1.1744E-05  0.0233
   1.3232E+01   1.3554E+01   1.1027E-05  0.0237
   1.3554E+01   1.3884E+01   1.0613E-05  0.0239
   1.3884E+01   1.4222E+01   9.9200E-06  0.0244
   1.4222E+01   1.4568E+01   9.3173E-06  0.0249
   1.4568E+01   1.4922E+01   8.9747E-06  0.0251
   1.4922E+01   1.5285E+01   8.4613E-06  0.0255
   1.5285E+01   1.5657E+01   8.0963E-06  0.0258
   1.5657E+01   1.6038E+01   7.6178E-06  0.0262
   1.6038E+01   1.6428E+01   7.3856E-06  0.0264
   1.6428E+01   1.6828E+01   7.3653E-06  0.0261
   1.6828E+01   1.7237E+01   6.9119E-06  0.0266
   1.7237E+01   1.7657E+01   6.1445E-06  0.0279
   1.7657E+01   1.8086E+01   5.9730E-06  0.0279
   1.8086E+01   1.8526E+01   5.7447E-06  0.0281
   1.8526E+01   1.8977E+01   5.4796E-06  0.0285
   1.8977E+01   1.9439E+01   5.2152E-06  0.0288
   1.9439E+01   1.9912E+01   4.8756E-06  0.0294
   1.9912E+01   2.0396E+01   4.7433E-06  0.0295
   2.0396E+01   2.0893E+01   4.5702E-06  0.0297
   2.0893E+01   2.1401E+01   4.3908E-06  0.0299
   2.1401E+01   2.1922E+01   4.1521E-06  0.0304
   2.1922E+01   2.2455E+01   4.0010E-06  0.0306
   2.2455E+01   2.3001E+01   3.7083E-06  0.0314
   2.3001E+01   2.3561E+01   3.3521E-06  0.0327
   2.3561E+01   2.4134E+01   3.3388E-06  0.0323
   2.4134E+01   2.4721E+01   3.0313E-06  0.0335
   2.4721E+01   2.5323E+01   2.7997E-06  0.0345
   2.5323E+01   2.5939E+01   2.7624E-06  0.0343
   2.5939E+01   2.6570E+01   2.4750E-06  0.0358
   2.6570E+01   2.7217E+01   2.5307E-06  0.0350
   2.7217E+01   2.7879E+01   2.2350E-06  0.0368
   2.7879E+01   2.8557E+01   2.1347E-06  0.0372
   2.8557E+01   2.9252E+01   1.9775E-06  0.0382
   2.9252E+01   2.9964E+01   2.0542E-06  0.0370
   2.9964E+01   3.0693E+01   1.6926E-06  0.0403
   3.0693E+01   3.1440E+01   1.6631E-06  0.0401
   3.1440E+01   3.2205E+01   1.4537E-06  0.0424
   3.2205E+01   3.2988E+01   1.4064E-06  0.0426
   3.2988E+01   3.3791E+01   1.1512E-06  0.0465
   3.3791E+01   3.4613E+01   1.1725E-06  0.0455
   3.4613E+01   3.5455E+01   1.0996E-06  0.0465
   3.5455E+01   3.6318E+01   8.6246E-07  0.0518
   3.6318E+01   3.7201E+01   7.9444E-07  0.0534
   3.7201E+01   3.8106E+01   7.2475E-07  0.0552
   3.8106E+01   3.9034E+01   6.5577E-07  0.0574
   3.9034E+01   3.9983E+01   5.7070E-07  0.0607
   3.9983E+01   4.0956E+01   5.1397E-07  0.0632
   4.0956E+01   4.1953E+01   4.4556E-07  0.0671
   4.1953E+01   4.2973E+01   3.6640E-07  0.0731
   4.2973E+01   4.4019E+01   4.3612E-07  0.0662
   4.4019E+01   4.5090E+01   3.2679E-07  0.0756
   4.5090E+01   4.6187E+01   2.8075E-07  0.0806
   4.6187E+01   4.7311E+01   2.2958E-07  0.0880
   4.7311E+01   4.8462E+01   2.0328E-07  0.0925
   4.8462E+01   4.9641E+01   1.9337E-07  0.0937
   4.9641E+01   5.0849E+01   1.4903E-07  0.1054
   5.0849E+01   5.2086E+01   1.2609E-07  0.1132
   5.2086E+01   5.3353E+01   1.2310E-07  0.1132
   5.3353E+01   5.4651E+01   1.1093E-07  0.1179
   5.4651E+01   5.5981E+01   7.9716E-08  0.1374
   5.5981E+01   5.7343E+01   5.8734E-08  0.1581
   5.7343E+01   5.8738E+01   6.1640E-08  0.1525
   5.8738E+01   6.0168E+01   6.0176E-08  0.1525
   6.0168E+01   6.1632E+01   4.0986E-08  0.1826
   6.1632E+01   6.3131E+01   4.2680E-08  0.1768
   6.3131E+01   6.4667E+01   3.7760E-08  0.1857
   6.4667E+01   6.6240E+01   3.8134E-08  0.1826
   6.6240E+01   6.7852E+01   3.2264E-08  0.1961
   6.7852E+01   6.9503E+01   2.9075E-08  0.2041
   6.9503E+01   7.1194E+01   2.4836E-08  0.2182
   7.1194E+01   7.2926E+01   1.3855E-08  0.2887
   7.2926E+01   7.4701E+01   1.6908E-08  0.2582
   7.4701E+01   7.6518E+01   8.8032E-09  0.3536
   7.6518E+01   7.8380E+01   4.2970E-09  0.5000
   7.8380E+01   8.0287E+01   3.1462E-09  0.5774
   8.0287E+01   8.2240E+01   1.0238E-09  1.0000
   8.2240E+01   8.4241E+01   0.0000E+00  0.0000
   8.4241E+01   8.6291E+01   0.0000E+00  0.0000
   8.6291E+01   8.8391E+01   0.0000E+00  0.0000
   8.8391E+01   9.0541E+01   0.0000E+00  0.0000
   9.0541E+01   9.2744E+01   0.0000E+00  0.0000
   9.2744E+01   9.5001E+01   0.0000E+00  0.0000
   9.5001E+01   9.7312E+01   0.0000E+00  0.0000
   9.7312E+01   9.9680E+01   0.0000E+00  0.0000
   9.9680E+01   1.0211E+02   0.0000E+00  0.0000
   1.0211E+02   1.0459E+02   0.0000E+00  0.0000
   1.0459E+02   1.0713E+02   0.0000E+00  0.0000
   1.0713E+02   1.0974E+02   0.0000E+00  0.0000
   1.0974E+02   1.1241E+02   0.0000E+00  0.0000
   1.1241E+02   1.1515E+02   0.0000E+00  0.0000
   1.1515E+02   1.1795E+02   0.0000E+00  0.0000
   1.1795E+02   1.2082E+02   0.0000E+00  0.0000
   1.2082E+02   1.2376E+02   0.0000E+00  0.0000
   1.2376E+02   1.2677E+02   0.0000E+00  0.0000
   1.2677E+02   1.2985E+02   0.0000E+00  0.0000
   1.2985E+02   1.3301E+02   0.0000E+00  0.0000
   1.3301E+02   1.3625E+02   0.0000E+00  0.0000
   1.3625E+02   1.3956E+02   0.0000E+00  0.0000
   1.3956E+02   1.4296E+02   0.0000E+00  0.0000
   1.4296E+02   1.4644E+02   0.0000E+00  0.0000
   1.4644E+02   1.5000E+02   0.0000E+00  0.0000

#   sum over                 1.9742E-05
'no. =    1   reg = 116 - 216'
msuc: {\huge [t-cross] in region mesh}
msdr: {\it plotted by \ANGEL \version}
msdl: {\it calculated by \PHITS  3.26}
wt: s(0.7)
\vspace{-3}
  region surface crossing
  area  &=&   1.0000E+00 [cm^2]
e:
 
# Information for Restart Calculation
# This calculation was newly started
# istdev =  2 # 1:Batch variance, 2:History variance
# resc2  = 5.00000000000000000E+08 # Total source weight or Total source weight / maxcas
# resc3  = 5.00000000000000000E+08 # Total history number or Total batch number
# maxcas =   500000000 # History / Batch, only used for istdev=1
# bitrseed = 1101101111010011011000101101110001100110110010110001010100010001 # bit data of rseed
