[ T-Cross ]
    title = [t-cross] in region mesh
     mesh =  reg            # mesh type is region-wise
      reg =    1            # number of crossing regions
      non     r-from    r-to       area
      1       112       212        1.000000    
   e-type =    3            # e-mesh is log given by emin, emax and ne
     emin =  1.0000000E-02  # minimum value of e-mesh points
     emax =   150.0000      # maximum value of e-mesh points
#    edel =  2.4039514E-02  # mesh width of e-mesh points
       ne =    400          # number of e-mesh points
#    data = ( e(i), i = 1, ne + 1 )
#           1.00000E-02  1.02433E-02  1.04925E-02  1.07478E-02  1.10093E-02
#           1.12772E-02  1.15516E-02  1.18326E-02  1.21205E-02  1.24154E-02
#           1.27175E-02  1.30269E-02  1.33439E-02  1.36686E-02  1.40011E-02
#           1.43418E-02  1.46907E-02  1.50482E-02  1.54143E-02  1.57894E-02
#           1.61735E-02  1.65670E-02  1.69701E-02  1.73830E-02  1.78060E-02
#           1.82392E-02  1.86830E-02  1.91375E-02  1.96032E-02  2.00801E-02
#           2.05687E-02  2.10692E-02  2.15818E-02  2.21069E-02  2.26448E-02
#           2.31957E-02  2.37601E-02  2.43382E-02  2.49304E-02  2.55369E-02
#           2.61583E-02  2.67947E-02  2.74467E-02  2.81145E-02  2.87985E-02
#           2.94992E-02  3.02169E-02  3.09521E-02  3.17052E-02  3.24766E-02
#           3.32668E-02  3.40762E-02  3.49053E-02  3.57546E-02  3.66246E-02
#           3.75157E-02  3.84284E-02  3.93634E-02  4.03212E-02  4.13022E-02
#           4.23071E-02  4.33365E-02  4.43909E-02  4.54710E-02  4.65773E-02
#           4.77106E-02  4.88714E-02  5.00605E-02  5.12785E-02  5.25262E-02
#           5.38042E-02  5.51133E-02  5.64542E-02  5.78278E-02  5.92348E-02
#           6.06760E-02  6.21523E-02  6.36645E-02  6.52135E-02  6.68002E-02
#           6.84255E-02  7.00904E-02  7.17957E-02  7.35426E-02  7.53319E-02
#           7.71648E-02  7.90423E-02  8.09655E-02  8.29354E-02  8.49533E-02
#           8.70203E-02  8.91376E-02  9.13064E-02  9.35279E-02  9.58035E-02
#           9.81345E-02  1.00522E-01  1.02968E-01  1.05473E-01  1.08040E-01
#           1.10668E-01  1.13361E-01  1.16119E-01  1.18944E-01  1.21838E-01
#           1.24803E-01  1.27839E-01  1.30950E-01  1.34136E-01  1.37399E-01
#           1.40742E-01  1.44167E-01  1.47675E-01  1.51268E-01  1.54948E-01
#           1.58718E-01  1.62580E-01  1.66535E-01  1.70587E-01  1.74738E-01
#           1.78989E-01  1.83344E-01  1.87805E-01  1.92375E-01  1.97055E-01
#           2.01850E-01  2.06761E-01  2.11792E-01  2.16945E-01  2.22223E-01
#           2.27630E-01  2.33169E-01  2.38842E-01  2.44653E-01  2.50605E-01
#           2.56703E-01  2.62949E-01  2.69346E-01  2.75900E-01  2.82613E-01
#           2.89489E-01  2.96532E-01  3.03747E-01  3.11138E-01  3.18708E-01
#           3.26462E-01  3.34405E-01  3.42542E-01  3.50876E-01  3.59413E-01
#           3.68158E-01  3.77116E-01  3.86291E-01  3.95690E-01  4.05317E-01
#           4.15179E-01  4.25281E-01  4.35628E-01  4.46227E-01  4.57084E-01
#           4.68205E-01  4.79597E-01  4.91266E-01  5.03219E-01  5.15463E-01
#           5.28005E-01  5.40851E-01  5.54011E-01  5.67490E-01  5.81298E-01
#           5.95441E-01  6.09929E-01  6.24769E-01  6.39970E-01  6.55541E-01
#           6.71491E-01  6.87828E-01  7.04564E-01  7.21706E-01  7.39266E-01
#           7.57253E-01  7.75678E-01  7.94551E-01  8.13883E-01  8.33685E-01
#           8.53969E-01  8.74747E-01  8.96030E-01  9.17831E-01  9.40163E-01
#           9.63038E-01  9.86469E-01  1.01047E+00  1.03506E+00  1.06024E+00
#           1.08604E+00  1.11246E+00  1.13953E+00  1.16725E+00  1.19565E+00
#           1.22474E+00  1.25454E+00  1.28507E+00  1.31633E+00  1.34836E+00
#           1.38117E+00  1.41477E+00  1.44920E+00  1.48446E+00  1.52057E+00
#           1.55757E+00  1.59547E+00  1.63429E+00  1.67405E+00  1.71478E+00
#           1.75650E+00  1.79924E+00  1.84302E+00  1.88786E+00  1.93379E+00
#           1.98084E+00  2.02904E+00  2.07841E+00  2.12898E+00  2.18078E+00
#           2.23384E+00  2.28819E+00  2.34386E+00  2.40089E+00  2.45930E+00
#           2.51914E+00  2.58043E+00  2.64322E+00  2.70753E+00  2.77341E+00
#           2.84088E+00  2.91001E+00  2.98081E+00  3.05333E+00  3.12762E+00
#           3.20372E+00  3.28167E+00  3.36152E+00  3.44330E+00  3.52708E+00
#           3.61290E+00  3.70080E+00  3.79085E+00  3.88308E+00  3.97756E+00
#           4.07434E+00  4.17347E+00  4.27501E+00  4.37903E+00  4.48557E+00
#           4.59471E+00  4.70650E+00  4.82102E+00  4.93832E+00  5.05847E+00
#           5.18155E+00  5.30762E+00  5.43676E+00  5.56904E+00  5.70453E+00
#           5.84333E+00  5.98550E+00  6.13114E+00  6.28031E+00  6.43312E+00
#           6.58964E+00  6.74997E+00  6.91420E+00  7.08243E+00  7.25475E+00
#           7.43126E+00  7.61207E+00  7.79728E+00  7.98700E+00  8.18133E+00
#           8.38038E+00  8.58428E+00  8.79315E+00  9.00709E+00  9.22624E+00
#           9.45072E+00  9.68067E+00  9.91620E+00  1.01575E+01  1.04046E+01
#           1.06578E+01  1.09171E+01  1.11827E+01  1.14548E+01  1.17335E+01
#           1.20190E+01  1.23114E+01  1.26109E+01  1.29178E+01  1.32321E+01
#           1.35540E+01  1.38838E+01  1.42216E+01  1.45676E+01  1.49221E+01
#           1.52851E+01  1.56570E+01  1.60380E+01  1.64282E+01  1.68279E+01
#           1.72374E+01  1.76568E+01  1.80864E+01  1.85264E+01  1.89772E+01
#           1.94389E+01  1.99119E+01  2.03963E+01  2.08926E+01  2.14009E+01
#           2.19216E+01  2.24550E+01  2.30014E+01  2.35610E+01  2.41343E+01
#           2.47215E+01  2.53230E+01  2.59391E+01  2.65702E+01  2.72167E+01
#           2.78789E+01  2.85572E+01  2.92520E+01  2.99637E+01  3.06928E+01
#           3.14396E+01  3.22045E+01  3.29881E+01  3.37907E+01  3.46128E+01
#           3.54550E+01  3.63177E+01  3.72013E+01  3.81064E+01  3.90336E+01
#           3.99833E+01  4.09561E+01  4.19526E+01  4.29734E+01  4.40189E+01
#           4.50900E+01  4.61870E+01  4.73108E+01  4.84619E+01  4.96410E+01
#           5.08488E+01  5.20860E+01  5.33533E+01  5.46514E+01  5.59812E+01
#           5.73432E+01  5.87384E+01  6.01676E+01  6.16315E+01  6.31311E+01
#           6.46671E+01  6.62405E+01  6.78522E+01  6.95031E+01  7.11941E+01
#           7.29263E+01  7.47007E+01  7.65182E+01  7.83800E+01  8.02870E+01
#           8.22405E+01  8.42414E+01  8.62911E+01  8.83906E+01  9.05412E+01
#           9.27442E+01  9.50007E+01  9.73122E+01  9.96799E+01  1.02105E+02
#           1.04589E+02  1.07134E+02  1.09741E+02  1.12411E+02  1.15146E+02
#           1.17948E+02  1.20817E+02  1.23757E+02  1.26768E+02  1.29852E+02
#           1.33012E+02  1.36248E+02  1.39563E+02  1.42959E+02  1.46437E+02
#           1.50000E+02
     unit =    2            # unit is [1/cm^2/(MeV/n)/source]
     axis =  eng            # axis of output
     file = detector-13.out  # file name of output for the above axis
   output = f-curr          # surface crossing forward current spectrum
     part =  neutron  
# kf/name :  2112     
#    used :        main (  %)        temp (  %)       total (  %)
#  memory :         414 (  0)           0 (  0)         414 (  0)

#------------------------------------------------------------------------------
#newpage:
#   no. =    1   reg = 112 - 212

x: Energy [MeV/n]
y:  F-Curr [1/cm^2/(MeV/n)/source]         
p: xlog ylog afac(0.8) form(0.9)
h: n            x            y(neutron ),hh0l   n 
#  e-lower      e-upper      neutron     r.err 
   1.0000E-02   1.0243E-02   2.2701E-03  0.0246
   1.0243E-02   1.0493E-02   2.2817E-03  0.0242
   1.0493E-02   1.0748E-02   2.2066E-03  0.0243
   1.0748E-02   1.1009E-02   2.1810E-03  0.0242
   1.1009E-02   1.1277E-02   2.2337E-03  0.0236
   1.1277E-02   1.1552E-02   2.2171E-03  0.0234
   1.1552E-02   1.1833E-02   2.1953E-03  0.0232
   1.1833E-02   1.2121E-02   2.1894E-03  0.0230
   1.2121E-02   1.2415E-02   2.2426E-03  0.0225
   1.2415E-02   1.2718E-02   2.0845E-03  0.0230
   1.2718E-02   1.3027E-02   2.2547E-03  0.0219
   1.3027E-02   1.3344E-02   2.1696E-03  0.0220
   1.3344E-02   1.3669E-02   2.1951E-03  0.0216
   1.3669E-02   1.4001E-02   2.1850E-03  0.0214
   1.4001E-02   1.4342E-02   2.1605E-03  0.0213
   1.4342E-02   1.4691E-02   2.2448E-03  0.0206
   1.4691E-02   1.5048E-02   2.1272E-03  0.0209
   1.5048E-02   1.5414E-02   2.1932E-03  0.0204
   1.5414E-02   1.5789E-02   2.1624E-03  0.0203
   1.5789E-02   1.6174E-02   2.1614E-03  0.0200
   1.6174E-02   1.6567E-02   2.2100E-03  0.0196
   1.6567E-02   1.6970E-02   2.2013E-03  0.0194
   1.6970E-02   1.7383E-02   2.1499E-03  0.0194
   1.7383E-02   1.7806E-02   2.1642E-03  0.0191
   1.7806E-02   1.8239E-02   2.1982E-03  0.0187
   1.8239E-02   1.8683E-02   2.1850E-03  0.0185
   1.8683E-02   1.9138E-02   2.1485E-03  0.0185
   1.9138E-02   1.9603E-02   2.1705E-03  0.0182
   1.9603E-02   2.0080E-02   2.1288E-03  0.0181
   2.0080E-02   2.0569E-02   2.1710E-03  0.0177
   2.0569E-02   2.1069E-02   2.1261E-03  0.0177
   2.1069E-02   2.1582E-02   2.1250E-03  0.0175
   2.1582E-02   2.2107E-02   2.1793E-03  0.0171
   2.2107E-02   2.2645E-02   2.0723E-03  0.0173
   2.2645E-02   2.3196E-02   2.1266E-03  0.0169
   2.3196E-02   2.3760E-02   2.1452E-03  0.0166
   2.3760E-02   2.4338E-02   2.1228E-03  0.0165
   2.4338E-02   2.4930E-02   2.1278E-03  0.0163
   2.4930E-02   2.5537E-02   2.1217E-03  0.0161
   2.5537E-02   2.6158E-02   2.1381E-03  0.0158
   2.6158E-02   2.6795E-02   2.1358E-03  0.0157
   2.6795E-02   2.7447E-02   2.0881E-03  0.0156
   2.7447E-02   2.8114E-02   2.0735E-03  0.0155
   2.8114E-02   2.8799E-02   2.1465E-03  0.0151
   2.8799E-02   2.9499E-02   2.0808E-03  0.0151
   2.9499E-02   3.0217E-02   2.0648E-03  0.0150
   3.0217E-02   3.0952E-02   2.0412E-03  0.0149
   3.0952E-02   3.1705E-02   2.0794E-03  0.0146
   3.1705E-02   3.2477E-02   2.1173E-03  0.0143
   3.2477E-02   3.3267E-02   2.0324E-03  0.0144
   3.3267E-02   3.4076E-02   2.0414E-03  0.0142
   3.4076E-02   3.4905E-02   2.0661E-03  0.0139
   3.4905E-02   3.5755E-02   2.0272E-03  0.0139
   3.5755E-02   3.6625E-02   2.1053E-03  0.0135
   3.6625E-02   3.7516E-02   2.0364E-03  0.0136
   3.7516E-02   3.8428E-02   1.9705E-03  0.0136
   3.8428E-02   3.9363E-02   2.0104E-03  0.0133
   3.9363E-02   4.0321E-02   2.0171E-03  0.0131
   4.0321E-02   4.1302E-02   2.0410E-03  0.0129
   4.1302E-02   4.2307E-02   2.0128E-03  0.0128
   4.2307E-02   4.3337E-02   2.0262E-03  0.0126
   4.3337E-02   4.4391E-02   2.0463E-03  0.0124
   4.4391E-02   4.5471E-02   2.0236E-03  0.0123
   4.5471E-02   4.6577E-02   2.0108E-03  0.0122
   4.6577E-02   4.7711E-02   2.0251E-03  0.0121
   4.7711E-02   4.8871E-02   2.0434E-03  0.0119
   4.8871E-02   5.0061E-02   2.0133E-03  0.0118
   5.0061E-02   5.1279E-02   1.9885E-03  0.0117
   5.1279E-02   5.2526E-02   1.9730E-03  0.0116
   5.2526E-02   5.3804E-02   1.9690E-03  0.0115
   5.3804E-02   5.5113E-02   1.9571E-03  0.0114
   5.5113E-02   5.6454E-02   1.9720E-03  0.0112
   5.6454E-02   5.7828E-02   1.9662E-03  0.0111
   5.7828E-02   5.9235E-02   1.9436E-03  0.0110
   5.9235E-02   6.0676E-02   1.9530E-03  0.0109
   6.0676E-02   6.2152E-02   1.9292E-03  0.0108
   6.2152E-02   6.3665E-02   1.9594E-03  0.0106
   6.3665E-02   6.5214E-02   1.9193E-03  0.0106
   6.5214E-02   6.6800E-02   1.9130E-03  0.0105
   6.6800E-02   6.8426E-02   1.9018E-03  0.0104
   6.8426E-02   7.0090E-02   1.8927E-03  0.0103
   7.0090E-02   7.1796E-02   1.9126E-03  0.0101
   7.1796E-02   7.3543E-02   1.9294E-03  0.0099
   7.3543E-02   7.5332E-02   1.8718E-03  0.0100
   7.5332E-02   7.7165E-02   1.8906E-03  0.0098
   7.7165E-02   7.9042E-02   1.8978E-03  0.0097
   7.9042E-02   8.0965E-02   1.8802E-03  0.0096
   8.0965E-02   8.2935E-02   1.8887E-03  0.0095
   8.2935E-02   8.4953E-02   1.8931E-03  0.0093
   8.4953E-02   8.7020E-02   1.8236E-03  0.0094
   8.7020E-02   8.9138E-02   1.8190E-03  0.0093
   8.9138E-02   9.1306E-02   1.8175E-03  0.0092
   9.1306E-02   9.3528E-02   1.8274E-03  0.0091
   9.3528E-02   9.5804E-02   1.8120E-03  0.0090
   9.5804E-02   9.8134E-02   1.8208E-03  0.0089
   9.8134E-02   1.0052E-01   1.8211E-03  0.0088
   1.0052E-01   1.0297E-01   1.8012E-03  0.0087
   1.0297E-01   1.0547E-01   1.7781E-03  0.0087
   1.0547E-01   1.0804E-01   1.7996E-03  0.0085
   1.0804E-01   1.1067E-01   1.7544E-03  0.0085
   1.1067E-01   1.1336E-01   1.7652E-03  0.0084
   1.1336E-01   1.1612E-01   1.7868E-03  0.0082
   1.1612E-01   1.1894E-01   1.7627E-03  0.0082
   1.1894E-01   1.2184E-01   1.7461E-03  0.0081
   1.2184E-01   1.2480E-01   1.7404E-03  0.0080
   1.2480E-01   1.2784E-01   1.7095E-03  0.0080
   1.2784E-01   1.3095E-01   1.7133E-03  0.0079
   1.3095E-01   1.3414E-01   1.7078E-03  0.0078
   1.3414E-01   1.3740E-01   1.6824E-03  0.0078
   1.3740E-01   1.4074E-01   1.6665E-03  0.0077
   1.4074E-01   1.4417E-01   1.6907E-03  0.0076
   1.4417E-01   1.4767E-01   1.6552E-03  0.0076
   1.4767E-01   1.5127E-01   1.6408E-03  0.0075
   1.5127E-01   1.5495E-01   1.6356E-03  0.0074
   1.5495E-01   1.5872E-01   1.6280E-03  0.0074
   1.5872E-01   1.6258E-01   1.6200E-03  0.0073
   1.6258E-01   1.6654E-01   1.6143E-03  0.0072
   1.6654E-01   1.7059E-01   1.6184E-03  0.0071
   1.7059E-01   1.7474E-01   1.5868E-03  0.0071
   1.7474E-01   1.7899E-01   1.5652E-03  0.0071
   1.7899E-01   1.8334E-01   1.5763E-03  0.0070
   1.8334E-01   1.8781E-01   1.5542E-03  0.0069
   1.8781E-01   1.9237E-01   1.5549E-03  0.0068
   1.9237E-01   1.9706E-01   1.5449E-03  0.0068
   1.9706E-01   2.0185E-01   1.5224E-03  0.0068
   2.0185E-01   2.0676E-01   1.5076E-03  0.0067
   2.0676E-01   2.1179E-01   1.5042E-03  0.0066
   2.1179E-01   2.1694E-01   1.4792E-03  0.0066
   2.1694E-01   2.2222E-01   1.4690E-03  0.0066
   2.2222E-01   2.2763E-01   1.4685E-03  0.0065
   2.2763E-01   2.3317E-01   1.4434E-03  0.0065
   2.3317E-01   2.3884E-01   1.4396E-03  0.0064
   2.3884E-01   2.4465E-01   1.4343E-03  0.0063
   2.4465E-01   2.5061E-01   1.4066E-03  0.0063
   2.5061E-01   2.5670E-01   1.3902E-03  0.0063
   2.5670E-01   2.6295E-01   1.3905E-03  0.0062
   2.6295E-01   2.6935E-01   1.3781E-03  0.0061
   2.6935E-01   2.7590E-01   1.3332E-03  0.0062
   2.7590E-01   2.8261E-01   1.3333E-03  0.0061
   2.8261E-01   2.8949E-01   1.3351E-03  0.0060
   2.8949E-01   2.9653E-01   1.3259E-03  0.0060
   2.9653E-01   3.0375E-01   1.2983E-03  0.0060
   3.0375E-01   3.1114E-01   1.2653E-03  0.0060
   3.1114E-01   3.1871E-01   1.2572E-03  0.0059
   3.1871E-01   3.2646E-01   1.2487E-03  0.0059
   3.2646E-01   3.3441E-01   1.2444E-03  0.0058
   3.3441E-01   3.4254E-01   1.2170E-03  0.0058
   3.4254E-01   3.5088E-01   1.2023E-03  0.0058
   3.5088E-01   3.5941E-01   1.1903E-03  0.0057
   3.5941E-01   3.6816E-01   1.1629E-03  0.0057
   3.6816E-01   3.7712E-01   1.1601E-03  0.0057
   3.7712E-01   3.8629E-01   1.1446E-03  0.0056
   3.8629E-01   3.9569E-01   1.1294E-03  0.0056
   3.9569E-01   4.0532E-01   1.1030E-03  0.0056
   4.0532E-01   4.1518E-01   1.0888E-03  0.0056
   4.1518E-01   4.2528E-01   1.0757E-03  0.0055
   4.2528E-01   4.3563E-01   1.0551E-03  0.0055
   4.3563E-01   4.4623E-01   1.0314E-03  0.0055
   4.4623E-01   4.5708E-01   1.0229E-03  0.0055
   4.5708E-01   4.6821E-01   9.9659E-04  0.0055
   4.6821E-01   4.7960E-01   9.8331E-04  0.0055
   4.7960E-01   4.9127E-01   9.7314E-04  0.0054
   4.9127E-01   5.0322E-01   9.5968E-04  0.0054
   5.0322E-01   5.1546E-01   9.2396E-04  0.0054
   5.1546E-01   5.2800E-01   9.0985E-04  0.0054
   5.2800E-01   5.4085E-01   8.9906E-04  0.0054
   5.4085E-01   5.5401E-01   8.7749E-04  0.0054
   5.5401E-01   5.6749E-01   8.6380E-04  0.0054
   5.6749E-01   5.8130E-01   8.3763E-04  0.0054
   5.8130E-01   5.9544E-01   8.1619E-04  0.0054
   5.9544E-01   6.0993E-01   7.9938E-04  0.0054
   6.0993E-01   6.2477E-01   7.7850E-04  0.0054
   6.2477E-01   6.3997E-01   7.7119E-04  0.0053
   6.3997E-01   6.5554E-01   7.3716E-04  0.0054
   6.5554E-01   6.7149E-01   7.2611E-04  0.0054
   6.7149E-01   6.8783E-01   7.1115E-04  0.0054
   6.8783E-01   7.0456E-01   6.9363E-04  0.0054
   7.0456E-01   7.2171E-01   6.6563E-04  0.0054
   7.2171E-01   7.3927E-01   6.4625E-04  0.0054
   7.3927E-01   7.5725E-01   6.2670E-04  0.0054
   7.5725E-01   7.7568E-01   6.1360E-04  0.0054
   7.7568E-01   7.9455E-01   5.8766E-04  0.0055
   7.9455E-01   8.1388E-01   5.7293E-04  0.0055
   8.1388E-01   8.3368E-01   5.5250E-04  0.0055
   8.3368E-01   8.5397E-01   5.3223E-04  0.0056
   8.5397E-01   8.7475E-01   5.1155E-04  0.0056
   8.7475E-01   8.9603E-01   4.9651E-04  0.0056
   8.9603E-01   9.1783E-01   4.7251E-04  0.0057
   9.1783E-01   9.4016E-01   4.4854E-04  0.0058
   9.4016E-01   9.6304E-01   4.3320E-04  0.0058
   9.6304E-01   9.8647E-01   4.2055E-04  0.0058
   9.8647E-01   1.0105E+00   4.0260E-04  0.0059
   1.0105E+00   1.0351E+00   3.9642E-04  0.0058
   1.0351E+00   1.0602E+00   4.0111E-04  0.0057
   1.0602E+00   1.0860E+00   4.0316E-04  0.0057
   1.0860E+00   1.1125E+00   4.1357E-04  0.0055
   1.1125E+00   1.1395E+00   4.1528E-04  0.0054
   1.1395E+00   1.1673E+00   4.1883E-04  0.0054
   1.1673E+00   1.1957E+00   4.3734E-04  0.0052
   1.1957E+00   1.2247E+00   4.3666E-04  0.0051
   1.2247E+00   1.2545E+00   4.4203E-04  0.0050
   1.2545E+00   1.2851E+00   4.4029E-04  0.0050
   1.2851E+00   1.3163E+00   4.4097E-04  0.0049
   1.3163E+00   1.3484E+00   4.4971E-04  0.0048
   1.3484E+00   1.3812E+00   4.5220E-04  0.0047
   1.3812E+00   1.4148E+00   4.6205E-04  0.0046
   1.4148E+00   1.4492E+00   4.5372E-04  0.0046
   1.4492E+00   1.4845E+00   4.4993E-04  0.0046
   1.4845E+00   1.5206E+00   4.4832E-04  0.0045
   1.5206E+00   1.5576E+00   4.4163E-04  0.0045
   1.5576E+00   1.5955E+00   4.4641E-04  0.0044
   1.5955E+00   1.6343E+00   4.4349E-04  0.0044
   1.6343E+00   1.6741E+00   4.4667E-04  0.0043
   1.6741E+00   1.7148E+00   4.4921E-04  0.0043
   1.7148E+00   1.7565E+00   4.4526E-04  0.0042
   1.7565E+00   1.7992E+00   4.3675E-04  0.0042
   1.7992E+00   1.8430E+00   4.3206E-04  0.0042
   1.8430E+00   1.8879E+00   4.2656E-04  0.0042
   1.8879E+00   1.9338E+00   4.2039E-04  0.0042
   1.9338E+00   1.9808E+00   4.2226E-04  0.0041
   1.9808E+00   2.0290E+00   4.2393E-04  0.0040
   2.0290E+00   2.0784E+00   4.0970E-04  0.0041
   2.0784E+00   2.1290E+00   4.0233E-04  0.0040
   2.1290E+00   2.1808E+00   3.9167E-04  0.0041
   2.1808E+00   2.2338E+00   3.8514E-04  0.0040
   2.2338E+00   2.2882E+00   3.7702E-04  0.0040
   2.2882E+00   2.3439E+00   3.7243E-04  0.0040
   2.3439E+00   2.4009E+00   3.6850E-04  0.0040
   2.4009E+00   2.4593E+00   3.6385E-04  0.0040
   2.4593E+00   2.5191E+00   3.5468E-04  0.0040
   2.5191E+00   2.5804E+00   3.4220E-04  0.0040
   2.5804E+00   2.6432E+00   3.3306E-04  0.0040
   2.6432E+00   2.7075E+00   3.2251E-04  0.0040
   2.7075E+00   2.7734E+00   3.1411E-04  0.0040
   2.7734E+00   2.8409E+00   3.0942E-04  0.0040
   2.8409E+00   2.9100E+00   3.0261E-04  0.0040
   2.9100E+00   2.9808E+00   2.9793E-04  0.0040
   2.9808E+00   3.0533E+00   2.9061E-04  0.0040
   3.0533E+00   3.1276E+00   2.8145E-04  0.0040
   3.1276E+00   3.2037E+00   2.7036E-04  0.0040
   3.2037E+00   3.2817E+00   2.6073E-04  0.0041
   3.2817E+00   3.3615E+00   2.5228E-04  0.0041
   3.3615E+00   3.4433E+00   2.4346E-04  0.0041
   3.4433E+00   3.5271E+00   2.3910E-04  0.0041
   3.5271E+00   3.6129E+00   2.3287E-04  0.0041
   3.6129E+00   3.7008E+00   2.2669E-04  0.0041
   3.7008E+00   3.7908E+00   2.1747E-04  0.0041
   3.7908E+00   3.8831E+00   2.1127E-04  0.0041
   3.8831E+00   3.9776E+00   2.0313E-04  0.0042
   3.9776E+00   4.0743E+00   1.9716E-04  0.0042
   4.0743E+00   4.1735E+00   1.9088E-04  0.0042
   4.1735E+00   4.2750E+00   1.8152E-04  0.0043
   4.2750E+00   4.3790E+00   1.7497E-04  0.0043
   4.3790E+00   4.4856E+00   1.6888E-04  0.0043
   4.4856E+00   4.5947E+00   1.6362E-04  0.0043
   4.5947E+00   4.7065E+00   1.5706E-04  0.0044
   4.7065E+00   4.8210E+00   1.5283E-04  0.0044
   4.8210E+00   4.9383E+00   1.4807E-04  0.0044
   4.9383E+00   5.0585E+00   1.4207E-04  0.0044
   5.0585E+00   5.1815E+00   1.3602E-04  0.0045
   5.1815E+00   5.3076E+00   1.3086E-04  0.0045
   5.3076E+00   5.4368E+00   1.2543E-04  0.0045
   5.4368E+00   5.5690E+00   1.2069E-04  0.0046
   5.5690E+00   5.7045E+00   1.1591E-04  0.0046
   5.7045E+00   5.8433E+00   1.1239E-04  0.0046
   5.8433E+00   5.9855E+00   1.0824E-04  0.0047
   5.9855E+00   6.1311E+00   1.0518E-04  0.0047
   6.1311E+00   6.2803E+00   1.0160E-04  0.0047
   6.2803E+00   6.4331E+00   9.7345E-05  0.0047
   6.4331E+00   6.5896E+00   9.3329E-05  0.0048
   6.5896E+00   6.7500E+00   9.0003E-05  0.0048
   6.7500E+00   6.9142E+00   8.7059E-05  0.0048
   6.9142E+00   7.0824E+00   8.5023E-05  0.0048
   7.0824E+00   7.2548E+00   8.0990E-05  0.0049
   7.2548E+00   7.4313E+00   7.9122E-05  0.0049
   7.4313E+00   7.6121E+00   7.6724E-05  0.0049
   7.6121E+00   7.7973E+00   7.4923E-05  0.0049
   7.7973E+00   7.9870E+00   7.2936E-05  0.0049
   7.9870E+00   8.1813E+00   7.0889E-05  0.0049
   8.1813E+00   8.3804E+00   6.8733E-05  0.0049
   8.3804E+00   8.5843E+00   6.7447E-05  0.0049
   8.5843E+00   8.7931E+00   6.4927E-05  0.0050
   8.7931E+00   9.0071E+00   6.4571E-05  0.0049
   9.0071E+00   9.2262E+00   6.2909E-05  0.0049
   9.2262E+00   9.4507E+00   6.2332E-05  0.0049
   9.4507E+00   9.6807E+00   6.0645E-05  0.0049
   9.6807E+00   9.9162E+00   5.9501E-05  0.0049
   9.9162E+00   1.0157E+01   5.9446E-05  0.0048
   1.0157E+01   1.0405E+01   5.7973E-05  0.0048
   1.0405E+01   1.0658E+01   5.7386E-05  0.0048
   1.0658E+01   1.0917E+01   5.7216E-05  0.0047
   1.0917E+01   1.1183E+01   5.6500E-05  0.0047
   1.1183E+01   1.1455E+01   5.6346E-05  0.0047
   1.1455E+01   1.1733E+01   5.5717E-05  0.0046
   1.1733E+01   1.2019E+01   5.4880E-05  0.0046
   1.2019E+01   1.2311E+01   5.4844E-05  0.0046
   1.2311E+01   1.2611E+01   5.4477E-05  0.0045
   1.2611E+01   1.2918E+01   5.4293E-05  0.0045
   1.2918E+01   1.3232E+01   5.3764E-05  0.0044
   1.3232E+01   1.3554E+01   5.3907E-05  0.0044
   1.3554E+01   1.3884E+01   5.3483E-05  0.0043
   1.3884E+01   1.4222E+01   5.3422E-05  0.0043
   1.4222E+01   1.4568E+01   5.2903E-05  0.0043
   1.4568E+01   1.4922E+01   5.2593E-05  0.0042
   1.4922E+01   1.5285E+01   5.2346E-05  0.0042
   1.5285E+01   1.5657E+01   5.2021E-05  0.0042
   1.5657E+01   1.6038E+01   5.1770E-05  0.0041
   1.6038E+01   1.6428E+01   5.1199E-05  0.0041
   1.6428E+01   1.6828E+01   5.0438E-05  0.0041
   1.6828E+01   1.7237E+01   5.0058E-05  0.0040
   1.7237E+01   1.7657E+01   4.9559E-05  0.0040
   1.7657E+01   1.8086E+01   4.8989E-05  0.0040
   1.8086E+01   1.8526E+01   4.8927E-05  0.0039
   1.8526E+01   1.8977E+01   4.8064E-05  0.0039
   1.8977E+01   1.9439E+01   4.7287E-05  0.0039
   1.9439E+01   1.9912E+01   4.6701E-05  0.0039
   1.9912E+01   2.0396E+01   4.8998E-05  0.0037
   2.0396E+01   2.0893E+01   4.9769E-05  0.0037
   2.0893E+01   2.1401E+01   4.8513E-05  0.0037
   2.1401E+01   2.1922E+01   4.7243E-05  0.0037
   2.1922E+01   2.2455E+01   4.6184E-05  0.0037
   2.2455E+01   2.3001E+01   4.5031E-05  0.0037
   2.3001E+01   2.3561E+01   4.3527E-05  0.0037
   2.3561E+01   2.4134E+01   4.2463E-05  0.0037
   2.4134E+01   2.4721E+01   4.1374E-05  0.0037
   2.4721E+01   2.5323E+01   3.9875E-05  0.0037
   2.5323E+01   2.5939E+01   3.8691E-05  0.0037
   2.5939E+01   2.6570E+01   3.7518E-05  0.0038
   2.6570E+01   2.7217E+01   3.6195E-05  0.0038
   2.7217E+01   2.7879E+01   3.5128E-05  0.0038
   2.7879E+01   2.8557E+01   3.3975E-05  0.0038
   2.8557E+01   2.9252E+01   3.2423E-05  0.0038
   2.9252E+01   2.9964E+01   3.1515E-05  0.0039
   2.9964E+01   3.0693E+01   2.9982E-05  0.0039
   3.0693E+01   3.1440E+01   2.8994E-05  0.0039
   3.1440E+01   3.2205E+01   2.7577E-05  0.0040
   3.2205E+01   3.2988E+01   2.6393E-05  0.0040
   3.2988E+01   3.3791E+01   2.5183E-05  0.0041
   3.3791E+01   3.4613E+01   2.4081E-05  0.0041
   3.4613E+01   3.5455E+01   2.2909E-05  0.0042
   3.5455E+01   3.6318E+01   2.1715E-05  0.0042
   3.6318E+01   3.7201E+01   2.0571E-05  0.0043
   3.7201E+01   3.8106E+01   1.9521E-05  0.0043
   3.8106E+01   3.9034E+01   1.8386E-05  0.0044
   3.9034E+01   3.9983E+01   1.7305E-05  0.0045
   3.9983E+01   4.0956E+01   1.6261E-05  0.0046
   4.0956E+01   4.1953E+01   1.5088E-05  0.0047
   4.1953E+01   4.2973E+01   1.4088E-05  0.0048
   4.2973E+01   4.4019E+01   1.3259E-05  0.0049
   4.4019E+01   4.5090E+01   1.2311E-05  0.0050
   4.5090E+01   4.6187E+01   1.1359E-05  0.0052
   4.6187E+01   4.7311E+01   1.0488E-05  0.0053
   4.7311E+01   4.8462E+01   9.6217E-06  0.0055
   4.8462E+01   4.9641E+01   8.9069E-06  0.0056
   4.9641E+01   5.0849E+01   8.1724E-06  0.0058
   5.0849E+01   5.2086E+01   7.4753E-06  0.0060
   5.2086E+01   5.3353E+01   6.7222E-06  0.0063
   5.3353E+01   5.4651E+01   6.1545E-06  0.0065
   5.4651E+01   5.5981E+01   5.4871E-06  0.0068
   5.5981E+01   5.7343E+01   4.9158E-06  0.0071
   5.7343E+01   5.8738E+01   4.4077E-06  0.0074
   5.8738E+01   6.0168E+01   3.9256E-06  0.0077
   6.0168E+01   6.1632E+01   3.3882E-06  0.0082
   6.1632E+01   6.3131E+01   3.0512E-06  0.0085
   6.3131E+01   6.4667E+01   2.6588E-06  0.0090
   6.4667E+01   6.6240E+01   2.2719E-06  0.0097
   6.6240E+01   6.7852E+01   1.9992E-06  0.0102
   6.7852E+01   6.9503E+01   1.7304E-06  0.0108
   6.9503E+01   7.1194E+01   1.4486E-06  0.0117
   7.1194E+01   7.2926E+01   1.2085E-06  0.0126
   7.2926E+01   7.4701E+01   1.0522E-06  0.0134
   7.4701E+01   7.6518E+01   8.7206E-07  0.0145
   7.6518E+01   7.8380E+01   7.3748E-07  0.0156
   7.8380E+01   8.0287E+01   6.2120E-07  0.0168
   8.0287E+01   8.2240E+01   4.8615E-07  0.0187
   8.2240E+01   8.4241E+01   3.9747E-07  0.0205
   8.4241E+01   8.6291E+01   3.2444E-07  0.0224
   8.6291E+01   8.8391E+01   2.5990E-07  0.0247
   8.8391E+01   9.0541E+01   1.9390E-07  0.0283
   9.0541E+01   9.2744E+01   1.4602E-07  0.0322
   9.2744E+01   9.5001E+01   1.1995E-07  0.0351
   9.5001E+01   9.7312E+01   9.3304E-08  0.0393
   9.7312E+01   9.9680E+01   6.2790E-08  0.0474
   9.9680E+01   1.0211E+02   4.5768E-08  0.0548
   1.0211E+02   1.0459E+02   3.1800E-08  0.0650
   1.0459E+02   1.0713E+02   2.1220E-08  0.0786
   1.0713E+02   1.0974E+02   1.3811E-08  0.0962
   1.0974E+02   1.1241E+02   7.7401E-09  0.1270
   1.1241E+02   1.1515E+02   4.8750E-09  0.1581
   1.1515E+02   1.1795E+02   2.0227E-09  0.2425
   1.1795E+02   1.2082E+02   1.1615E-09  0.3162
   1.2082E+02   1.2376E+02   1.1339E-10  1.0000
   1.2376E+02   1.2677E+02   0.0000E+00  0.0000
   1.2677E+02   1.2985E+02   0.0000E+00  0.0000
   1.2985E+02   1.3301E+02   0.0000E+00  0.0000
   1.3301E+02   1.3625E+02   0.0000E+00  0.0000
   1.3625E+02   1.3956E+02   0.0000E+00  0.0000
   1.3956E+02   1.4296E+02   0.0000E+00  0.0000
   1.4296E+02   1.4644E+02   0.0000E+00  0.0000
   1.4644E+02   1.5000E+02   0.0000E+00  0.0000

#   sum over                 2.6785E-05
'no. =    1   reg = 112 - 212'
msuc: {\huge [t-cross] in region mesh}
msdr: {\it plotted by \ANGEL \version}
msdl: {\it calculated by \PHITS  3.26}
wt: s(0.7)
\vspace{-3}
  region surface crossing
  area  &=&   1.0000E+00 [cm^2]
e:
 
# Information for Restart Calculation
# This calculation was newly started
# istdev =  2 # 1:Batch variance, 2:History variance
# resc2  = 3.00000000000000000E+09 # Total source weight or Total source weight / maxcas
# resc3  = 3.00000000000000000E+09 # Total history number or Total batch number
# maxcas =   500000000 # History / Batch, only used for istdev=1
# bitrseed = 0110110011111001100110101011100000010010001000001101100100111101 # bit data of rseed
