[ T-Cross ]
    title = [t-cross] in region mesh
     mesh =  reg            # mesh type is region-wise
      reg =    1            # number of crossing regions
      non     r-from    r-to       area
      1       121       221        1.000000    
   e-type =    3            # e-mesh is log given by emin, emax and ne
     emin =  1.0000000E-02  # minimum value of e-mesh points
     emax =   150.0000      # maximum value of e-mesh points
#    edel =  2.4039514E-02  # mesh width of e-mesh points
       ne =    400          # number of e-mesh points
#    data = ( e(i), i = 1, ne + 1 )
#           1.00000E-02  1.02433E-02  1.04925E-02  1.07478E-02  1.10093E-02
#           1.12772E-02  1.15516E-02  1.18326E-02  1.21205E-02  1.24154E-02
#           1.27175E-02  1.30269E-02  1.33439E-02  1.36686E-02  1.40011E-02
#           1.43418E-02  1.46907E-02  1.50482E-02  1.54143E-02  1.57894E-02
#           1.61735E-02  1.65670E-02  1.69701E-02  1.73830E-02  1.78060E-02
#           1.82392E-02  1.86830E-02  1.91375E-02  1.96032E-02  2.00801E-02
#           2.05687E-02  2.10692E-02  2.15818E-02  2.21069E-02  2.26448E-02
#           2.31957E-02  2.37601E-02  2.43382E-02  2.49304E-02  2.55369E-02
#           2.61583E-02  2.67947E-02  2.74467E-02  2.81145E-02  2.87985E-02
#           2.94992E-02  3.02169E-02  3.09521E-02  3.17052E-02  3.24766E-02
#           3.32668E-02  3.40762E-02  3.49053E-02  3.57546E-02  3.66246E-02
#           3.75157E-02  3.84284E-02  3.93634E-02  4.03212E-02  4.13022E-02
#           4.23071E-02  4.33365E-02  4.43909E-02  4.54710E-02  4.65773E-02
#           4.77106E-02  4.88714E-02  5.00605E-02  5.12785E-02  5.25262E-02
#           5.38042E-02  5.51133E-02  5.64542E-02  5.78278E-02  5.92348E-02
#           6.06760E-02  6.21523E-02  6.36645E-02  6.52135E-02  6.68002E-02
#           6.84255E-02  7.00904E-02  7.17957E-02  7.35426E-02  7.53319E-02
#           7.71648E-02  7.90423E-02  8.09655E-02  8.29354E-02  8.49533E-02
#           8.70203E-02  8.91376E-02  9.13064E-02  9.35279E-02  9.58035E-02
#           9.81345E-02  1.00522E-01  1.02968E-01  1.05473E-01  1.08040E-01
#           1.10668E-01  1.13361E-01  1.16119E-01  1.18944E-01  1.21838E-01
#           1.24803E-01  1.27839E-01  1.30950E-01  1.34136E-01  1.37399E-01
#           1.40742E-01  1.44167E-01  1.47675E-01  1.51268E-01  1.54948E-01
#           1.58718E-01  1.62580E-01  1.66535E-01  1.70587E-01  1.74738E-01
#           1.78989E-01  1.83344E-01  1.87805E-01  1.92375E-01  1.97055E-01
#           2.01850E-01  2.06761E-01  2.11792E-01  2.16945E-01  2.22223E-01
#           2.27630E-01  2.33169E-01  2.38842E-01  2.44653E-01  2.50605E-01
#           2.56703E-01  2.62949E-01  2.69346E-01  2.75900E-01  2.82613E-01
#           2.89489E-01  2.96532E-01  3.03747E-01  3.11138E-01  3.18708E-01
#           3.26462E-01  3.34405E-01  3.42542E-01  3.50876E-01  3.59413E-01
#           3.68158E-01  3.77116E-01  3.86291E-01  3.95690E-01  4.05317E-01
#           4.15179E-01  4.25281E-01  4.35628E-01  4.46227E-01  4.57084E-01
#           4.68205E-01  4.79597E-01  4.91266E-01  5.03219E-01  5.15463E-01
#           5.28005E-01  5.40851E-01  5.54011E-01  5.67490E-01  5.81298E-01
#           5.95441E-01  6.09929E-01  6.24769E-01  6.39970E-01  6.55541E-01
#           6.71491E-01  6.87828E-01  7.04564E-01  7.21706E-01  7.39266E-01
#           7.57253E-01  7.75678E-01  7.94551E-01  8.13883E-01  8.33685E-01
#           8.53969E-01  8.74747E-01  8.96030E-01  9.17831E-01  9.40163E-01
#           9.63038E-01  9.86469E-01  1.01047E+00  1.03506E+00  1.06024E+00
#           1.08604E+00  1.11246E+00  1.13953E+00  1.16725E+00  1.19565E+00
#           1.22474E+00  1.25454E+00  1.28507E+00  1.31633E+00  1.34836E+00
#           1.38117E+00  1.41477E+00  1.44920E+00  1.48446E+00  1.52057E+00
#           1.55757E+00  1.59547E+00  1.63429E+00  1.67405E+00  1.71478E+00
#           1.75650E+00  1.79924E+00  1.84302E+00  1.88786E+00  1.93379E+00
#           1.98084E+00  2.02904E+00  2.07841E+00  2.12898E+00  2.18078E+00
#           2.23384E+00  2.28819E+00  2.34386E+00  2.40089E+00  2.45930E+00
#           2.51914E+00  2.58043E+00  2.64322E+00  2.70753E+00  2.77341E+00
#           2.84088E+00  2.91001E+00  2.98081E+00  3.05333E+00  3.12762E+00
#           3.20372E+00  3.28167E+00  3.36152E+00  3.44330E+00  3.52708E+00
#           3.61290E+00  3.70080E+00  3.79085E+00  3.88308E+00  3.97756E+00
#           4.07434E+00  4.17347E+00  4.27501E+00  4.37903E+00  4.48557E+00
#           4.59471E+00  4.70650E+00  4.82102E+00  4.93832E+00  5.05847E+00
#           5.18155E+00  5.30762E+00  5.43676E+00  5.56904E+00  5.70453E+00
#           5.84333E+00  5.98550E+00  6.13114E+00  6.28031E+00  6.43312E+00
#           6.58964E+00  6.74997E+00  6.91420E+00  7.08243E+00  7.25475E+00
#           7.43126E+00  7.61207E+00  7.79728E+00  7.98700E+00  8.18133E+00
#           8.38038E+00  8.58428E+00  8.79315E+00  9.00709E+00  9.22624E+00
#           9.45072E+00  9.68067E+00  9.91620E+00  1.01575E+01  1.04046E+01
#           1.06578E+01  1.09171E+01  1.11827E+01  1.14548E+01  1.17335E+01
#           1.20190E+01  1.23114E+01  1.26109E+01  1.29178E+01  1.32321E+01
#           1.35540E+01  1.38838E+01  1.42216E+01  1.45676E+01  1.49221E+01
#           1.52851E+01  1.56570E+01  1.60380E+01  1.64282E+01  1.68279E+01
#           1.72374E+01  1.76568E+01  1.80864E+01  1.85264E+01  1.89772E+01
#           1.94389E+01  1.99119E+01  2.03963E+01  2.08926E+01  2.14009E+01
#           2.19216E+01  2.24550E+01  2.30014E+01  2.35610E+01  2.41343E+01
#           2.47215E+01  2.53230E+01  2.59391E+01  2.65702E+01  2.72167E+01
#           2.78789E+01  2.85572E+01  2.92520E+01  2.99637E+01  3.06928E+01
#           3.14396E+01  3.22045E+01  3.29881E+01  3.37907E+01  3.46128E+01
#           3.54550E+01  3.63177E+01  3.72013E+01  3.81064E+01  3.90336E+01
#           3.99833E+01  4.09561E+01  4.19526E+01  4.29734E+01  4.40189E+01
#           4.50900E+01  4.61870E+01  4.73108E+01  4.84619E+01  4.96410E+01
#           5.08488E+01  5.20860E+01  5.33533E+01  5.46514E+01  5.59812E+01
#           5.73432E+01  5.87384E+01  6.01676E+01  6.16315E+01  6.31311E+01
#           6.46671E+01  6.62405E+01  6.78522E+01  6.95031E+01  7.11941E+01
#           7.29263E+01  7.47007E+01  7.65182E+01  7.83800E+01  8.02870E+01
#           8.22405E+01  8.42414E+01  8.62911E+01  8.83906E+01  9.05412E+01
#           9.27442E+01  9.50007E+01  9.73122E+01  9.96799E+01  1.02105E+02
#           1.04589E+02  1.07134E+02  1.09741E+02  1.12411E+02  1.15146E+02
#           1.17948E+02  1.20817E+02  1.23757E+02  1.26768E+02  1.29852E+02
#           1.33012E+02  1.36248E+02  1.39563E+02  1.42959E+02  1.46437E+02
#           1.50000E+02
     unit =    2            # unit is [1/cm^2/(MeV/n)/source]
     axis =  eng            # axis of output
     file = detector-22.out  # file name of output for the above axis
   output = f-curr          # surface crossing forward current spectrum
     part =  neutron  
# kf/name :  2112     
#    used :        main (  %)        temp (  %)       total (  %)
#  memory :         414 (  0)           0 (  0)         414 (  0)

#------------------------------------------------------------------------------
#newpage:
#   no. =    1   reg = 121 - 221

x: Energy [MeV/n]
y:  F-Curr [1/cm^2/(MeV/n)/source]         
p: xlog ylog afac(0.8) form(0.9)
h: n            x            y(neutron ),hh0l   n 
#  e-lower      e-upper      neutron     r.err 
   1.0000E-02   1.0243E-02   3.0957E-02  0.0163
   1.0243E-02   1.0493E-02   3.1128E-02  0.0161
   1.0493E-02   1.0748E-02   3.0953E-02  0.0159
   1.0748E-02   1.1009E-02   2.8933E-02  0.0163
   1.1009E-02   1.1277E-02   3.0172E-02  0.0157
   1.1277E-02   1.1552E-02   2.8602E-02  0.0160
   1.1552E-02   1.1833E-02   2.8474E-02  0.0158
   1.1833E-02   1.2121E-02   2.8204E-02  0.0157
   1.2121E-02   1.2415E-02   2.7090E-02  0.0158
   1.2415E-02   1.2718E-02   2.7370E-02  0.0156
   1.2718E-02   1.3027E-02   2.6190E-02  0.0157
   1.3027E-02   1.3344E-02   2.6142E-02  0.0155
   1.3344E-02   1.3669E-02   2.5423E-02  0.0156
   1.3669E-02   1.4001E-02   2.4404E-02  0.0157
   1.4001E-02   1.4342E-02   2.3942E-02  0.0157
   1.4342E-02   1.4691E-02   2.4121E-02  0.0154
   1.4691E-02   1.5048E-02   2.4060E-02  0.0152
   1.5048E-02   1.5414E-02   2.2751E-02  0.0155
   1.5414E-02   1.5789E-02   2.2872E-02  0.0153
   1.5789E-02   1.6174E-02   2.2626E-02  0.0152
   1.6174E-02   1.6567E-02   2.2540E-02  0.0150
   1.6567E-02   1.6970E-02   2.2134E-02  0.0150
   1.6970E-02   1.7383E-02   2.1356E-02  0.0151
   1.7383E-02   1.7806E-02   2.0587E-02  0.0152
   1.7806E-02   1.8239E-02   2.0977E-02  0.0148
   1.8239E-02   1.8683E-02   1.9404E-02  0.0152
   1.8683E-02   1.9138E-02   1.9970E-02  0.0148
   1.9138E-02   1.9603E-02   1.9745E-02  0.0147
   1.9603E-02   2.0080E-02   1.9134E-02  0.0148
   2.0080E-02   2.0569E-02   1.8804E-02  0.0148
   2.0569E-02   2.1069E-02   1.8008E-02  0.0149
   2.1069E-02   2.1582E-02   1.7795E-02  0.0148
   2.1582E-02   2.2107E-02   1.8037E-02  0.0145
   2.2107E-02   2.2645E-02   1.7097E-02  0.0147
   2.2645E-02   2.3196E-02   1.7319E-02  0.0145
   2.3196E-02   2.3760E-02   1.6797E-02  0.0145
   2.3760E-02   2.4338E-02   1.6322E-02  0.0146
   2.4338E-02   2.4930E-02   1.6022E-02  0.0145
   2.4930E-02   2.5537E-02   1.5655E-02  0.0145
   2.5537E-02   2.6158E-02   1.5872E-02  0.0142
   2.6158E-02   2.6795E-02   1.4983E-02  0.0145
   2.6795E-02   2.7447E-02   1.5166E-02  0.0142
   2.7447E-02   2.8114E-02   1.4996E-02  0.0141
   2.8114E-02   2.8799E-02   1.4531E-02  0.0142
   2.8799E-02   2.9499E-02   1.4346E-02  0.0141
   2.9499E-02   3.0217E-02   1.3977E-02  0.0141
   3.0217E-02   3.0952E-02   1.3645E-02  0.0141
   3.0952E-02   3.1705E-02   1.3589E-02  0.0140
   3.1705E-02   3.2477E-02   1.3280E-02  0.0140
   3.2477E-02   3.3267E-02   1.2830E-02  0.0140
   3.3267E-02   3.4076E-02   1.2760E-02  0.0139
   3.4076E-02   3.4905E-02   1.2438E-02  0.0139
   3.4905E-02   3.5755E-02   1.2201E-02  0.0139
   3.5755E-02   3.6625E-02   1.1985E-02  0.0139
   3.6625E-02   3.7516E-02   1.1957E-02  0.0137
   3.7516E-02   3.8428E-02   1.1771E-02  0.0136
   3.8428E-02   3.9363E-02   1.1524E-02  0.0136
   3.9363E-02   4.0321E-02   1.1333E-02  0.0136
   4.0321E-02   4.1302E-02   1.1249E-02  0.0135
   4.1302E-02   4.2307E-02   1.0821E-02  0.0136
   4.2307E-02   4.3337E-02   1.0733E-02  0.0135
   4.3337E-02   4.4391E-02   1.0449E-02  0.0135
   4.4391E-02   4.5471E-02   1.0366E-02  0.0134
   4.5471E-02   4.6577E-02   1.0172E-02  0.0133
   4.6577E-02   4.7711E-02   1.0215E-02  0.0131
   4.7711E-02   4.8871E-02   9.6163E-03  0.0134
   4.8871E-02   5.0061E-02   9.7134E-03  0.0132
   5.0061E-02   5.1279E-02   9.4268E-03  0.0132
   5.1279E-02   5.2526E-02   9.2566E-03  0.0132
   5.2526E-02   5.3804E-02   8.9671E-03  0.0132
   5.3804E-02   5.5113E-02   9.2048E-03  0.0129
   5.5113E-02   5.6454E-02   8.8146E-03  0.0130
   5.6454E-02   5.7828E-02   8.5456E-03  0.0131
   5.7828E-02   5.9235E-02   8.2488E-03  0.0131
   5.9235E-02   6.0676E-02   8.4476E-03  0.0128
   6.0676E-02   6.2152E-02   8.2612E-03  0.0128
   6.2152E-02   6.3665E-02   8.1318E-03  0.0128
   6.3665E-02   6.5214E-02   7.8863E-03  0.0128
   6.5214E-02   6.6800E-02   7.7129E-03  0.0128
   6.6800E-02   6.8426E-02   7.6546E-03  0.0127
   6.8426E-02   7.0090E-02   7.5250E-03  0.0126
   7.0090E-02   7.1796E-02   7.3744E-03  0.0126
   7.1796E-02   7.3543E-02   7.3195E-03  0.0125
   7.3543E-02   7.5332E-02   7.2021E-03  0.0125
   7.5332E-02   7.7165E-02   6.9017E-03  0.0126
   7.7165E-02   7.9042E-02   6.8911E-03  0.0124
   7.9042E-02   8.0965E-02   6.8107E-03  0.0124
   8.0965E-02   8.2935E-02   6.5966E-03  0.0124
   8.2935E-02   8.4953E-02   6.5326E-03  0.0123
   8.4953E-02   8.7020E-02   6.5071E-03  0.0122
   8.7020E-02   8.9138E-02   6.2505E-03  0.0123
   8.9138E-02   9.1306E-02   6.2666E-03  0.0121
   9.1306E-02   9.3528E-02   6.0381E-03  0.0122
   9.3528E-02   9.5804E-02   6.1553E-03  0.0120
   9.5804E-02   9.8134E-02   5.8267E-03  0.0121
   9.8134E-02   1.0052E-01   5.7897E-03  0.0120
   1.0052E-01   1.0297E-01   5.7213E-03  0.0120
   1.0297E-01   1.0547E-01   5.5594E-03  0.0120
   1.0547E-01   1.0804E-01   5.3732E-03  0.0120
   1.0804E-01   1.1067E-01   5.4483E-03  0.0118
   1.1067E-01   1.1336E-01   5.3256E-03  0.0118
   1.1336E-01   1.1612E-01   5.2230E-03  0.0118
   1.1612E-01   1.1894E-01   5.1776E-03  0.0117
   1.1894E-01   1.2184E-01   5.0850E-03  0.0117
   1.2184E-01   1.2480E-01   4.9433E-03  0.0117
   1.2480E-01   1.2784E-01   4.9839E-03  0.0115
   1.2784E-01   1.3095E-01   4.8279E-03  0.0115
   1.3095E-01   1.3414E-01   4.7525E-03  0.0115
   1.3414E-01   1.3740E-01   4.5189E-03  0.0116
   1.3740E-01   1.4074E-01   4.5964E-03  0.0114
   1.4074E-01   1.4417E-01   4.4358E-03  0.0115
   1.4417E-01   1.4767E-01   4.3889E-03  0.0114
   1.4767E-01   1.5127E-01   4.3181E-03  0.0114
   1.5127E-01   1.5495E-01   4.2120E-03  0.0114
   1.5495E-01   1.5872E-01   4.2101E-03  0.0112
   1.5872E-01   1.6258E-01   4.1137E-03  0.0112
   1.6258E-01   1.6654E-01   4.1262E-03  0.0111
   1.6654E-01   1.7059E-01   3.9621E-03  0.0112
   1.7059E-01   1.7474E-01   3.8600E-03  0.0112
   1.7474E-01   1.7899E-01   3.8593E-03  0.0110
   1.7899E-01   1.8334E-01   3.7663E-03  0.0110
   1.8334E-01   1.8781E-01   3.6867E-03  0.0110
   1.8781E-01   1.9237E-01   3.5947E-03  0.0110
   1.9237E-01   1.9706E-01   3.5670E-03  0.0109
   1.9706E-01   2.0185E-01   3.5155E-03  0.0109
   2.0185E-01   2.0676E-01   3.4399E-03  0.0109
   2.0676E-01   2.1179E-01   3.4159E-03  0.0108
   2.1179E-01   2.1694E-01   3.3568E-03  0.0108
   2.1694E-01   2.2222E-01   3.2332E-03  0.0108
   2.2222E-01   2.2763E-01   3.2057E-03  0.0107
   2.2763E-01   2.3317E-01   3.1565E-03  0.0107
   2.3317E-01   2.3884E-01   3.1185E-03  0.0106
   2.3884E-01   2.4465E-01   3.1130E-03  0.0105
   2.4465E-01   2.5061E-01   3.0084E-03  0.0106
   2.5061E-01   2.5670E-01   2.9488E-03  0.0105
   2.5670E-01   2.6295E-01   2.8972E-03  0.0105
   2.6295E-01   2.6935E-01   2.8544E-03  0.0105
   2.6935E-01   2.7590E-01   2.7810E-03  0.0105
   2.7590E-01   2.8261E-01   2.7139E-03  0.0105
   2.8261E-01   2.8949E-01   2.6707E-03  0.0104
   2.8949E-01   2.9653E-01   2.6501E-03  0.0104
   2.9653E-01   3.0375E-01   2.5927E-03  0.0103
   3.0375E-01   3.1114E-01   2.5522E-03  0.0103
   3.1114E-01   3.1871E-01   2.5168E-03  0.0102
   3.1871E-01   3.2646E-01   2.4988E-03  0.0102
   3.2646E-01   3.3441E-01   2.4026E-03  0.0102
   3.3441E-01   3.4254E-01   2.3438E-03  0.0102
   3.4254E-01   3.5088E-01   2.3414E-03  0.0101
   3.5088E-01   3.5941E-01   2.3118E-03  0.0101
   3.5941E-01   3.6816E-01   2.2413E-03  0.0101
   3.6816E-01   3.7712E-01   2.2316E-03  0.0100
   3.7712E-01   3.8629E-01   2.1629E-03  0.0100
   3.8629E-01   3.9569E-01   2.1130E-03  0.0100
   3.9569E-01   4.0532E-01   2.0402E-03  0.0101
   4.0532E-01   4.1518E-01   2.0001E-03  0.0101
   4.1518E-01   4.2528E-01   1.9620E-03  0.0100
   4.2528E-01   4.3563E-01   1.9397E-03  0.0100
   4.3563E-01   4.4623E-01   1.9039E-03  0.0100
   4.4623E-01   4.5708E-01   1.8677E-03  0.0099
   4.5708E-01   4.6821E-01   1.8032E-03  0.0100
   4.6821E-01   4.7960E-01   1.7565E-03  0.0100
   4.7960E-01   4.9127E-01   1.7601E-03  0.0099
   4.9127E-01   5.0322E-01   1.7049E-03  0.0099
   5.0322E-01   5.1546E-01   1.6637E-03  0.0099
   5.1546E-01   5.2800E-01   1.6210E-03  0.0099
   5.2800E-01   5.4085E-01   1.5767E-03  0.0099
   5.4085E-01   5.5401E-01   1.5464E-03  0.0099
   5.5401E-01   5.6749E-01   1.5095E-03  0.0099
   5.6749E-01   5.8130E-01   1.4982E-03  0.0098
   5.8130E-01   5.9544E-01   1.4366E-03  0.0099
   5.9544E-01   6.0993E-01   1.4084E-03  0.0099
   6.0993E-01   6.2477E-01   1.3760E-03  0.0099
   6.2477E-01   6.3997E-01   1.3383E-03  0.0099
   6.3997E-01   6.5554E-01   1.2951E-03  0.0100
   6.5554E-01   6.7149E-01   1.2473E-03  0.0100
   6.7149E-01   6.8783E-01   1.2138E-03  0.0100
   6.8783E-01   7.0456E-01   1.1814E-03  0.0101
   7.0456E-01   7.2171E-01   1.1278E-03  0.0102
   7.2171E-01   7.3927E-01   1.1163E-03  0.0101
   7.3927E-01   7.5725E-01   1.0987E-03  0.0101
   7.5725E-01   7.7568E-01   1.0575E-03  0.0101
   7.7568E-01   7.9455E-01   1.0050E-03  0.0103
   7.9455E-01   8.1388E-01   9.7631E-04  0.0103
   8.1388E-01   8.3368E-01   9.4337E-04  0.0103
   8.3368E-01   8.5397E-01   9.0252E-04  0.0105
   8.5397E-01   8.7475E-01   8.8277E-04  0.0104
   8.7475E-01   8.9603E-01   8.4160E-04  0.0106
   8.9603E-01   9.1783E-01   8.1381E-04  0.0106
   9.1783E-01   9.4016E-01   7.7478E-04  0.0108
   9.4016E-01   9.6304E-01   7.3801E-04  0.0109
   9.6304E-01   9.8647E-01   7.1767E-04  0.0109
   9.8647E-01   1.0105E+00   6.8762E-04  0.0110
   1.0105E+00   1.0351E+00   6.7365E-04  0.0110
   1.0351E+00   1.0602E+00   6.8965E-04  0.0107
   1.0602E+00   1.0860E+00   7.1056E-04  0.0104
   1.0860E+00   1.1125E+00   6.9917E-04  0.0104
   1.1125E+00   1.1395E+00   7.1504E-04  0.0102
   1.1395E+00   1.1673E+00   7.4722E-04  0.0098
   1.1673E+00   1.1957E+00   7.6309E-04  0.0096
   1.1957E+00   1.2247E+00   7.7205E-04  0.0094
   1.2247E+00   1.2545E+00   7.9063E-04  0.0092
   1.2545E+00   1.2851E+00   7.9668E-04  0.0091
   1.2851E+00   1.3163E+00   7.8691E-04  0.0090
   1.3163E+00   1.3484E+00   8.2267E-04  0.0087
   1.3484E+00   1.3812E+00   8.2648E-04  0.0086
   1.3812E+00   1.4148E+00   8.3541E-04  0.0084
   1.4148E+00   1.4492E+00   8.4090E-04  0.0083
   1.4492E+00   1.4845E+00   8.3312E-04  0.0083
   1.4845E+00   1.5206E+00   8.3499E-04  0.0081
   1.5206E+00   1.5576E+00   8.3623E-04  0.0080
   1.5576E+00   1.5955E+00   8.3732E-04  0.0079
   1.5955E+00   1.6343E+00   8.4948E-04  0.0078
   1.6343E+00   1.6741E+00   8.4759E-04  0.0077
   1.6741E+00   1.7148E+00   8.6175E-04  0.0076
   1.7148E+00   1.7565E+00   8.5878E-04  0.0075
   1.7565E+00   1.7992E+00   8.5373E-04  0.0074
   1.7992E+00   1.8430E+00   8.4117E-04  0.0074
   1.8430E+00   1.8879E+00   8.2768E-04  0.0073
   1.8879E+00   1.9338E+00   8.3201E-04  0.0072
   1.9338E+00   1.9808E+00   8.3722E-04  0.0071
   1.9808E+00   2.0290E+00   8.3307E-04  0.0071
   2.0290E+00   2.0784E+00   8.1405E-04  0.0071
   2.0784E+00   2.1290E+00   8.0049E-04  0.0070
   2.1290E+00   2.1808E+00   7.8250E-04  0.0070
   2.1808E+00   2.2338E+00   7.6329E-04  0.0070
   2.2338E+00   2.2882E+00   7.5572E-04  0.0070
   2.2882E+00   2.3439E+00   7.4499E-04  0.0069
   2.3439E+00   2.4009E+00   7.3601E-04  0.0069
   2.4009E+00   2.4593E+00   7.2827E-04  0.0069
   2.4593E+00   2.5191E+00   7.0171E-04  0.0069
   2.5191E+00   2.5804E+00   6.7909E-04  0.0069
   2.5804E+00   2.6432E+00   6.4937E-04  0.0070
   2.6432E+00   2.7075E+00   6.3009E-04  0.0070
   2.7075E+00   2.7734E+00   6.1989E-04  0.0070
   2.7734E+00   2.8409E+00   6.0321E-04  0.0070
   2.8409E+00   2.9100E+00   5.8842E-04  0.0070
   2.9100E+00   2.9808E+00   5.7520E-04  0.0070
   2.9808E+00   3.0533E+00   5.5210E-04  0.0071
   3.0533E+00   3.1276E+00   5.2384E-04  0.0072
   3.1276E+00   3.2037E+00   5.0359E-04  0.0072
   3.2037E+00   3.2817E+00   4.7523E-04  0.0074
   3.2817E+00   3.3615E+00   4.5603E-04  0.0074
   3.3615E+00   3.4433E+00   4.3253E-04  0.0075
   3.4433E+00   3.5271E+00   4.2167E-04  0.0075
   3.5271E+00   3.6129E+00   4.0318E-04  0.0076
   3.6129E+00   3.7008E+00   3.8046E-04  0.0077
   3.7008E+00   3.7908E+00   3.6346E-04  0.0078
   3.7908E+00   3.8831E+00   3.4179E-04  0.0080
   3.8831E+00   3.9776E+00   3.2615E-04  0.0081
   3.9776E+00   4.0743E+00   3.1285E-04  0.0081
   4.0743E+00   4.1735E+00   2.9442E-04  0.0083
   4.1735E+00   4.2750E+00   2.7297E-04  0.0085
   4.2750E+00   4.3790E+00   2.6125E-04  0.0086
   4.3790E+00   4.4856E+00   2.3646E-04  0.0089
   4.4856E+00   4.5947E+00   2.2641E-04  0.0090
   4.5947E+00   4.7065E+00   2.0899E-04  0.0093
   4.7065E+00   4.8210E+00   1.9811E-04  0.0094
   4.8210E+00   4.9383E+00   1.8295E-04  0.0097
   4.9383E+00   5.0585E+00   1.7068E-04  0.0099
   5.0585E+00   5.1815E+00   1.5698E-04  0.0102
   5.1815E+00   5.3076E+00   1.4711E-04  0.0104
   5.3076E+00   5.4368E+00   1.3695E-04  0.0106
   5.4368E+00   5.5690E+00   1.2616E-04  0.0109
   5.5690E+00   5.7045E+00   1.1430E-04  0.0114
   5.7045E+00   5.8433E+00   1.0594E-04  0.0117
   5.8433E+00   5.9855E+00   9.6868E-05  0.0121
   5.9855E+00   6.1311E+00   9.0001E-05  0.0124
   6.1311E+00   6.2803E+00   8.4129E-05  0.0126
   6.2803E+00   6.4331E+00   7.6974E-05  0.0130
   6.4331E+00   6.5896E+00   6.9530E-05  0.0136
   6.5896E+00   6.7500E+00   6.3269E-05  0.0140
   6.7500E+00   6.9142E+00   5.8393E-05  0.0144
   6.9142E+00   7.0824E+00   5.2619E-05  0.0150
   7.0824E+00   7.2548E+00   4.7620E-05  0.0156
   7.2548E+00   7.4313E+00   4.2954E-05  0.0162
   7.4313E+00   7.6121E+00   4.0015E-05  0.0166
   7.6121E+00   7.7973E+00   3.5128E-05  0.0175
   7.7973E+00   7.9870E+00   3.2365E-05  0.0180
   7.9870E+00   8.1813E+00   3.0767E-05  0.0183
   8.1813E+00   8.3804E+00   2.6756E-05  0.0194
   8.3804E+00   8.5843E+00   2.4453E-05  0.0200
   8.5843E+00   8.7931E+00   2.2129E-05  0.0208
   8.7931E+00   9.0071E+00   2.0239E-05  0.0215
   9.0071E+00   9.2262E+00   1.7609E-05  0.0227
   9.2262E+00   9.4507E+00   1.6211E-05  0.0234
   9.4507E+00   9.6807E+00   1.5169E-05  0.0239
   9.6807E+00   9.9162E+00   1.2941E-05  0.0256
   9.9162E+00   1.0157E+01   1.1866E-05  0.0264
   1.0157E+01   1.0405E+01   1.0512E-05  0.0276
   1.0405E+01   1.0658E+01   9.6108E-06  0.0286
   1.0658E+01   1.0917E+01   9.0355E-06  0.0292
   1.0917E+01   1.1183E+01   7.9399E-06  0.0307
   1.1183E+01   1.1455E+01   6.6193E-06  0.0332
   1.1455E+01   1.1733E+01   6.3472E-06  0.0335
   1.1733E+01   1.2019E+01   6.2315E-06  0.0334
   1.2019E+01   1.2311E+01   5.1568E-06  0.0363
   1.2311E+01   1.2611E+01   4.4801E-06  0.0384
   1.2611E+01   1.2918E+01   4.5986E-06  0.0375
   1.2918E+01   1.3232E+01   3.7353E-06  0.0411
   1.3232E+01   1.3554E+01   3.8422E-06  0.0400
   1.3554E+01   1.3884E+01   3.3992E-06  0.0421
   1.3884E+01   1.4222E+01   2.9485E-06  0.0446
   1.4222E+01   1.4568E+01   2.9796E-06  0.0439
   1.4568E+01   1.4922E+01   2.6013E-06  0.0464
   1.4922E+01   1.5285E+01   2.3439E-06  0.0484
   1.5285E+01   1.5657E+01   2.2587E-06  0.0486
   1.5657E+01   1.6038E+01   2.1131E-06  0.0497
   1.6038E+01   1.6428E+01   1.8733E-06  0.0521
   1.6428E+01   1.6828E+01   1.9289E-06  0.0508
   1.6828E+01   1.7237E+01   1.7634E-06  0.0523
   1.7237E+01   1.7657E+01   1.6047E-06  0.0543
   1.7657E+01   1.8086E+01   1.6969E-06  0.0523
   1.8086E+01   1.8526E+01   1.6089E-06  0.0530
   1.8526E+01   1.8977E+01   1.3045E-06  0.0582
   1.8977E+01   1.9439E+01   1.2626E-06  0.0585
   1.9439E+01   1.9912E+01   1.3722E-06  0.0554
   1.9912E+01   2.0396E+01   1.0609E-06  0.0624
   2.0396E+01   2.0893E+01   1.1405E-06  0.0594
   2.0893E+01   2.1401E+01   9.4820E-07  0.0644
   2.1401E+01   2.1922E+01   1.0678E-06  0.0600
   2.1922E+01   2.2455E+01   8.9244E-07  0.0648
   2.2455E+01   2.3001E+01   9.6642E-07  0.0615
   2.3001E+01   2.3561E+01   9.5776E-07  0.0611
   2.3561E+01   2.4134E+01   8.4779E-07  0.0642
   2.4134E+01   2.4721E+01   7.9359E-07  0.0655
   2.4721E+01   2.5323E+01   7.4481E-07  0.0668
   2.5323E+01   2.5939E+01   6.6220E-07  0.0700
   2.5939E+01   2.6570E+01   6.8133E-07  0.0682
   2.6570E+01   2.7217E+01   6.3421E-07  0.0698
   2.7217E+01   2.7879E+01   5.8894E-07  0.0716
   2.7879E+01   2.8557E+01   5.4252E-07  0.0737
   2.8557E+01   2.9252E+01   5.9296E-07  0.0697
   2.9252E+01   2.9964E+01   4.9176E-07  0.0756
   2.9964E+01   3.0693E+01   4.3345E-07  0.0796
   3.0693E+01   3.1440E+01   4.4725E-07  0.0774
   3.1440E+01   3.2205E+01   4.1310E-07  0.0796
   3.2205E+01   3.2988E+01   3.9308E-07  0.0806
   3.2988E+01   3.3791E+01   3.5882E-07  0.0833
   3.3791E+01   3.4613E+01   3.1867E-07  0.0874
   3.4613E+01   3.5455E+01   3.2060E-07  0.0861
   3.5455E+01   3.6318E+01   2.9908E-07  0.0880
   3.6318E+01   3.7201E+01   2.4218E-07  0.0967
   3.7201E+01   3.8106E+01   2.5631E-07  0.0928
   3.8106E+01   3.9034E+01   2.0061E-07  0.1037
   3.9034E+01   3.9983E+01   1.7058E-07  0.1111
   3.9983E+01   4.0956E+01   1.8503E-07  0.1054
   4.0956E+01   4.1953E+01   1.6257E-07  0.1111
   4.1953E+01   4.2973E+01   1.0385E-07  0.1374
   4.2973E+01   4.4019E+01   9.9467E-08  0.1387
   4.4019E+01   4.5090E+01   1.1018E-07  0.1302
   4.5090E+01   4.6187E+01   9.6621E-08  0.1374
   4.6187E+01   4.7311E+01   8.7207E-08  0.1429
   4.7311E+01   4.8462E+01   6.9498E-08  0.1581
   4.8462E+01   4.9641E+01   7.2936E-08  0.1525
   4.9641E+01   5.0849E+01   3.4774E-08  0.2182
   5.0849E+01   5.2086E+01   4.2031E-08  0.1961
   5.2086E+01   5.3353E+01   2.8407E-08  0.2357
   5.3353E+01   5.4651E+01   3.0814E-08  0.2236
   5.4651E+01   5.5981E+01   2.5569E-08  0.2425
   5.5981E+01   5.7343E+01   1.9089E-08  0.2774
   5.7343E+01   5.8738E+01   1.0034E-08  0.3780
   5.8738E+01   6.0168E+01   1.6793E-08  0.2887
   6.0168E+01   6.1632E+01   5.4648E-09  0.5000
   6.1632E+01   6.3131E+01   1.0670E-08  0.3536
   6.3131E+01   6.4667E+01   2.6041E-09  0.7071
   6.4667E+01   6.6240E+01   7.6268E-09  0.4082
   6.6240E+01   6.7852E+01   3.7228E-09  0.5774
   6.7852E+01   6.9503E+01   2.4229E-09  0.7071
   6.9503E+01   7.1194E+01   7.0961E-09  0.4082
   7.1194E+01   7.2926E+01   4.6184E-09  0.5000
   7.2926E+01   7.4701E+01   0.0000E+00  0.0000
   7.4701E+01   7.6518E+01   1.1004E-09  1.0000
   7.6518E+01   7.8380E+01   2.1485E-09  0.7071
   7.8380E+01   8.0287E+01   0.0000E+00  0.0000
   8.0287E+01   8.2240E+01   0.0000E+00  0.0000
   8.2240E+01   8.4241E+01   0.0000E+00  0.0000
   8.4241E+01   8.6291E+01   9.7577E-10  1.0000
   8.6291E+01   8.8391E+01   0.0000E+00  0.0000
   8.8391E+01   9.0541E+01   0.0000E+00  0.0000
   9.0541E+01   9.2744E+01   0.0000E+00  0.0000
   9.2744E+01   9.5001E+01   0.0000E+00  0.0000
   9.5001E+01   9.7312E+01   0.0000E+00  0.0000
   9.7312E+01   9.9680E+01   0.0000E+00  0.0000
   9.9680E+01   1.0211E+02   0.0000E+00  0.0000
   1.0211E+02   1.0459E+02   0.0000E+00  0.0000
   1.0459E+02   1.0713E+02   0.0000E+00  0.0000
   1.0713E+02   1.0974E+02   0.0000E+00  0.0000
   1.0974E+02   1.1241E+02   0.0000E+00  0.0000
   1.1241E+02   1.1515E+02   0.0000E+00  0.0000
   1.1515E+02   1.1795E+02   0.0000E+00  0.0000
   1.1795E+02   1.2082E+02   0.0000E+00  0.0000
   1.2082E+02   1.2376E+02   0.0000E+00  0.0000
   1.2376E+02   1.2677E+02   0.0000E+00  0.0000
   1.2677E+02   1.2985E+02   0.0000E+00  0.0000
   1.2985E+02   1.3301E+02   0.0000E+00  0.0000
   1.3301E+02   1.3625E+02   0.0000E+00  0.0000
   1.3625E+02   1.3956E+02   0.0000E+00  0.0000
   1.3956E+02   1.4296E+02   0.0000E+00  0.0000
   1.4296E+02   1.4644E+02   0.0000E+00  0.0000
   1.4644E+02   1.5000E+02   0.0000E+00  0.0000

#   sum over                 3.4641E-05
'no. =    1   reg = 121 - 221'
msuc: {\huge [t-cross] in region mesh}
msdr: {\it plotted by \ANGEL \version}
msdl: {\it calculated by \PHITS  3.26}
wt: s(0.7)
\vspace{-3}
  region surface crossing
  area  &=&   1.0000E+00 [cm^2]
e:
 
# Information for Restart Calculation
# This calculation was newly started
# istdev =  2 # 1:Batch variance, 2:History variance
# resc2  = 5.00000000000000000E+08 # Total source weight or Total source weight / maxcas
# resc3  = 5.00000000000000000E+08 # Total history number or Total batch number
# maxcas =   500000000 # History / Batch, only used for istdev=1
# bitrseed = 1101101111010011011000101101110001100110110010110001010100010001 # bit data of rseed
