[ T-Cross ]
    title = [t-cross] in region mesh
     mesh =  reg            # mesh type is region-wise
      reg =    1            # number of crossing regions
      non     r-from    r-to       area
      1       105       205        1.000000    
   e-type =    3            # e-mesh is log given by emin, emax and ne
     emin =  1.0000000E-02  # minimum value of e-mesh points
     emax =   150.0000      # maximum value of e-mesh points
#    edel =  2.4039514E-02  # mesh width of e-mesh points
       ne =    400          # number of e-mesh points
#    data = ( e(i), i = 1, ne + 1 )
#           1.00000E-02  1.02433E-02  1.04925E-02  1.07478E-02  1.10093E-02
#           1.12772E-02  1.15516E-02  1.18326E-02  1.21205E-02  1.24154E-02
#           1.27175E-02  1.30269E-02  1.33439E-02  1.36686E-02  1.40011E-02
#           1.43418E-02  1.46907E-02  1.50482E-02  1.54143E-02  1.57894E-02
#           1.61735E-02  1.65670E-02  1.69701E-02  1.73830E-02  1.78060E-02
#           1.82392E-02  1.86830E-02  1.91375E-02  1.96032E-02  2.00801E-02
#           2.05687E-02  2.10692E-02  2.15818E-02  2.21069E-02  2.26448E-02
#           2.31957E-02  2.37601E-02  2.43382E-02  2.49304E-02  2.55369E-02
#           2.61583E-02  2.67947E-02  2.74467E-02  2.81145E-02  2.87985E-02
#           2.94992E-02  3.02169E-02  3.09521E-02  3.17052E-02  3.24766E-02
#           3.32668E-02  3.40762E-02  3.49053E-02  3.57546E-02  3.66246E-02
#           3.75157E-02  3.84284E-02  3.93634E-02  4.03212E-02  4.13022E-02
#           4.23071E-02  4.33365E-02  4.43909E-02  4.54710E-02  4.65773E-02
#           4.77106E-02  4.88714E-02  5.00605E-02  5.12785E-02  5.25262E-02
#           5.38042E-02  5.51133E-02  5.64542E-02  5.78278E-02  5.92348E-02
#           6.06760E-02  6.21523E-02  6.36645E-02  6.52135E-02  6.68002E-02
#           6.84255E-02  7.00904E-02  7.17957E-02  7.35426E-02  7.53319E-02
#           7.71648E-02  7.90423E-02  8.09655E-02  8.29354E-02  8.49533E-02
#           8.70203E-02  8.91376E-02  9.13064E-02  9.35279E-02  9.58035E-02
#           9.81345E-02  1.00522E-01  1.02968E-01  1.05473E-01  1.08040E-01
#           1.10668E-01  1.13361E-01  1.16119E-01  1.18944E-01  1.21838E-01
#           1.24803E-01  1.27839E-01  1.30950E-01  1.34136E-01  1.37399E-01
#           1.40742E-01  1.44167E-01  1.47675E-01  1.51268E-01  1.54948E-01
#           1.58718E-01  1.62580E-01  1.66535E-01  1.70587E-01  1.74738E-01
#           1.78989E-01  1.83344E-01  1.87805E-01  1.92375E-01  1.97055E-01
#           2.01850E-01  2.06761E-01  2.11792E-01  2.16945E-01  2.22223E-01
#           2.27630E-01  2.33169E-01  2.38842E-01  2.44653E-01  2.50605E-01
#           2.56703E-01  2.62949E-01  2.69346E-01  2.75900E-01  2.82613E-01
#           2.89489E-01  2.96532E-01  3.03747E-01  3.11138E-01  3.18708E-01
#           3.26462E-01  3.34405E-01  3.42542E-01  3.50876E-01  3.59413E-01
#           3.68158E-01  3.77116E-01  3.86291E-01  3.95690E-01  4.05317E-01
#           4.15179E-01  4.25281E-01  4.35628E-01  4.46227E-01  4.57084E-01
#           4.68205E-01  4.79597E-01  4.91266E-01  5.03219E-01  5.15463E-01
#           5.28005E-01  5.40851E-01  5.54011E-01  5.67490E-01  5.81298E-01
#           5.95441E-01  6.09929E-01  6.24769E-01  6.39970E-01  6.55541E-01
#           6.71491E-01  6.87828E-01  7.04564E-01  7.21706E-01  7.39266E-01
#           7.57253E-01  7.75678E-01  7.94551E-01  8.13883E-01  8.33685E-01
#           8.53969E-01  8.74747E-01  8.96030E-01  9.17831E-01  9.40163E-01
#           9.63038E-01  9.86469E-01  1.01047E+00  1.03506E+00  1.06024E+00
#           1.08604E+00  1.11246E+00  1.13953E+00  1.16725E+00  1.19565E+00
#           1.22474E+00  1.25454E+00  1.28507E+00  1.31633E+00  1.34836E+00
#           1.38117E+00  1.41477E+00  1.44920E+00  1.48446E+00  1.52057E+00
#           1.55757E+00  1.59547E+00  1.63429E+00  1.67405E+00  1.71478E+00
#           1.75650E+00  1.79924E+00  1.84302E+00  1.88786E+00  1.93379E+00
#           1.98084E+00  2.02904E+00  2.07841E+00  2.12898E+00  2.18078E+00
#           2.23384E+00  2.28819E+00  2.34386E+00  2.40089E+00  2.45930E+00
#           2.51914E+00  2.58043E+00  2.64322E+00  2.70753E+00  2.77341E+00
#           2.84088E+00  2.91001E+00  2.98081E+00  3.05333E+00  3.12762E+00
#           3.20372E+00  3.28167E+00  3.36152E+00  3.44330E+00  3.52708E+00
#           3.61290E+00  3.70080E+00  3.79085E+00  3.88308E+00  3.97756E+00
#           4.07434E+00  4.17347E+00  4.27501E+00  4.37903E+00  4.48557E+00
#           4.59471E+00  4.70650E+00  4.82102E+00  4.93832E+00  5.05847E+00
#           5.18155E+00  5.30762E+00  5.43676E+00  5.56904E+00  5.70453E+00
#           5.84333E+00  5.98550E+00  6.13114E+00  6.28031E+00  6.43312E+00
#           6.58964E+00  6.74997E+00  6.91420E+00  7.08243E+00  7.25475E+00
#           7.43126E+00  7.61207E+00  7.79728E+00  7.98700E+00  8.18133E+00
#           8.38038E+00  8.58428E+00  8.79315E+00  9.00709E+00  9.22624E+00
#           9.45072E+00  9.68067E+00  9.91620E+00  1.01575E+01  1.04046E+01
#           1.06578E+01  1.09171E+01  1.11827E+01  1.14548E+01  1.17335E+01
#           1.20190E+01  1.23114E+01  1.26109E+01  1.29178E+01  1.32321E+01
#           1.35540E+01  1.38838E+01  1.42216E+01  1.45676E+01  1.49221E+01
#           1.52851E+01  1.56570E+01  1.60380E+01  1.64282E+01  1.68279E+01
#           1.72374E+01  1.76568E+01  1.80864E+01  1.85264E+01  1.89772E+01
#           1.94389E+01  1.99119E+01  2.03963E+01  2.08926E+01  2.14009E+01
#           2.19216E+01  2.24550E+01  2.30014E+01  2.35610E+01  2.41343E+01
#           2.47215E+01  2.53230E+01  2.59391E+01  2.65702E+01  2.72167E+01
#           2.78789E+01  2.85572E+01  2.92520E+01  2.99637E+01  3.06928E+01
#           3.14396E+01  3.22045E+01  3.29881E+01  3.37907E+01  3.46128E+01
#           3.54550E+01  3.63177E+01  3.72013E+01  3.81064E+01  3.90336E+01
#           3.99833E+01  4.09561E+01  4.19526E+01  4.29734E+01  4.40189E+01
#           4.50900E+01  4.61870E+01  4.73108E+01  4.84619E+01  4.96410E+01
#           5.08488E+01  5.20860E+01  5.33533E+01  5.46514E+01  5.59812E+01
#           5.73432E+01  5.87384E+01  6.01676E+01  6.16315E+01  6.31311E+01
#           6.46671E+01  6.62405E+01  6.78522E+01  6.95031E+01  7.11941E+01
#           7.29263E+01  7.47007E+01  7.65182E+01  7.83800E+01  8.02870E+01
#           8.22405E+01  8.42414E+01  8.62911E+01  8.83906E+01  9.05412E+01
#           9.27442E+01  9.50007E+01  9.73122E+01  9.96799E+01  1.02105E+02
#           1.04589E+02  1.07134E+02  1.09741E+02  1.12411E+02  1.15146E+02
#           1.17948E+02  1.20817E+02  1.23757E+02  1.26768E+02  1.29852E+02
#           1.33012E+02  1.36248E+02  1.39563E+02  1.42959E+02  1.46437E+02
#           1.50000E+02
     unit =    2            # unit is [1/cm^2/(MeV/n)/source]
     axis =  eng            # axis of output
     file = detector-06.out  # file name of output for the above axis
   output = f-curr          # surface crossing forward current spectrum
     part =  neutron  
# kf/name :  2112     
#    used :        main (  %)        temp (  %)       total (  %)
#  memory :         414 (  0)           0 (  0)         414 (  0)

#------------------------------------------------------------------------------
#newpage:
#   no. =    1   reg = 105 - 205

x: Energy [MeV/n]
y:  F-Curr [1/cm^2/(MeV/n)/source]         
p: xlog ylog afac(0.8) form(0.9)
h: n            x            y(neutron ),hh0l   n 
#  e-lower      e-upper      neutron     r.err 
   1.0000E-02   1.0243E-02   2.6880E-04  0.0553
   1.0243E-02   1.0493E-02   2.7044E-04  0.0545
   1.0493E-02   1.0748E-02   2.7498E-04  0.0534
   1.0748E-02   1.1009E-02   2.4321E-04  0.0561
   1.1009E-02   1.1277E-02   2.6207E-04  0.0534
   1.1277E-02   1.1552E-02   2.5293E-04  0.0537
   1.1552E-02   1.1833E-02   2.3910E-04  0.0546
   1.1833E-02   1.2121E-02   2.5078E-04  0.0526
   1.2121E-02   1.2415E-02   2.5975E-04  0.0511
   1.2415E-02   1.2718E-02   2.5490E-04  0.0510
   1.2718E-02   1.3027E-02   2.3786E-04  0.0521
   1.3027E-02   1.3344E-02   2.3600E-04  0.0517
   1.3344E-02   1.3669E-02   2.3717E-04  0.0510
   1.3669E-02   1.4001E-02   2.1590E-04  0.0528
   1.4001E-02   1.4342E-02   2.4482E-04  0.0490
   1.4342E-02   1.4691E-02   2.1207E-04  0.0520
   1.4691E-02   1.5048E-02   2.3445E-04  0.0489
   1.5048E-02   1.5414E-02   2.0047E-04  0.0522
   1.5414E-02   1.5789E-02   2.2664E-04  0.0485
   1.5789E-02   1.6174E-02   2.1709E-04  0.0490
   1.6174E-02   1.6567E-02   2.1194E-04  0.0490
   1.6567E-02   1.6970E-02   2.0343E-04  0.0494
   1.6970E-02   1.7383E-02   1.9666E-04  0.0496
   1.7383E-02   1.7806E-02   2.1090E-04  0.0474
   1.7806E-02   1.8239E-02   2.0728E-04  0.0472
   1.8239E-02   1.8683E-02   2.0686E-04  0.0467
   1.8683E-02   1.9138E-02   2.1691E-04  0.0450
   1.9138E-02   1.9603E-02   2.0746E-04  0.0455
   1.9603E-02   2.0080E-02   2.0002E-04  0.0458
   2.0080E-02   2.0569E-02   1.9240E-04  0.0461
   2.0569E-02   2.1069E-02   1.9822E-04  0.0449
   2.1069E-02   2.1582E-02   1.8103E-04  0.0464
   2.1582E-02   2.2107E-02   1.8206E-04  0.0457
   2.2107E-02   2.2645E-02   1.9633E-04  0.0435
   2.2645E-02   2.3196E-02   2.0509E-04  0.0421
   2.3196E-02   2.3760E-02   1.8250E-04  0.0441
   2.3760E-02   2.4338E-02   1.8682E-04  0.0430
   2.4338E-02   2.4930E-02   1.7596E-04  0.0438
   2.4930E-02   2.5537E-02   1.8530E-04  0.0422
   2.5537E-02   2.6158E-02   1.6642E-04  0.0440
   2.6158E-02   2.6795E-02   1.6906E-04  0.0431
   2.6795E-02   2.7447E-02   1.5584E-04  0.0444
   2.7447E-02   2.8114E-02   1.7326E-04  0.0416
   2.8114E-02   2.8799E-02   1.6432E-04  0.0422
   2.8799E-02   2.9499E-02   1.7640E-04  0.0402
   2.9499E-02   3.0217E-02   1.5995E-04  0.0417
   3.0217E-02   3.0952E-02   1.7084E-04  0.0399
   3.0952E-02   3.1705E-02   1.5908E-04  0.0409
   3.1705E-02   3.2477E-02   1.7526E-04  0.0385
   3.2477E-02   3.3267E-02   1.5680E-04  0.0402
   3.3267E-02   3.4076E-02   1.4010E-04  0.0420
   3.4076E-02   3.4905E-02   1.5631E-04  0.0393
   3.4905E-02   3.5755E-02   1.5048E-04  0.0396
   3.5755E-02   3.6625E-02   1.4898E-04  0.0393
   3.6625E-02   3.7516E-02   1.3725E-04  0.0404
   3.7516E-02   3.8428E-02   1.4527E-04  0.0388
   3.8428E-02   3.9363E-02   1.3711E-04  0.0395
   3.9363E-02   4.0321E-02   1.3532E-04  0.0393
   4.0321E-02   4.1302E-02   1.3190E-04  0.0393
   4.1302E-02   4.2307E-02   1.4051E-04  0.0376
   4.2307E-02   4.3337E-02   1.4028E-04  0.0372
   4.3337E-02   4.4391E-02   1.3221E-04  0.0379
   4.4391E-02   4.5471E-02   1.3351E-04  0.0372
   4.5471E-02   4.6577E-02   1.3197E-04  0.0370
   4.6577E-02   4.7711E-02   1.2424E-04  0.0377
   4.7711E-02   4.8871E-02   1.1612E-04  0.0385
   4.8871E-02   5.0061E-02   1.1875E-04  0.0376
   5.0061E-02   5.1279E-02   1.2102E-04  0.0368
   5.1279E-02   5.2526E-02   1.1846E-04  0.0368
   5.2526E-02   5.3804E-02   1.1518E-04  0.0369
   5.3804E-02   5.5113E-02   1.0893E-04  0.0375
   5.5113E-02   5.6454E-02   1.1365E-04  0.0362
   5.6454E-02   5.7828E-02   1.0731E-04  0.0368
   5.7828E-02   5.9235E-02   1.1002E-04  0.0359
   5.9235E-02   6.0676E-02   1.0560E-04  0.0362
   6.0676E-02   6.2152E-02   1.0960E-04  0.0352
   6.2152E-02   6.3665E-02   1.0528E-04  0.0354
   6.3665E-02   6.5214E-02   1.0355E-04  0.0353
   6.5214E-02   6.6800E-02   1.0033E-04  0.0354
   6.6800E-02   6.8426E-02   1.0017E-04  0.0350
   6.8426E-02   7.0090E-02   9.8147E-05  0.0350
   7.0090E-02   7.1796E-02   9.8631E-05  0.0345
   7.1796E-02   7.3543E-02   1.0121E-04  0.0336
   7.3543E-02   7.5332E-02   9.7354E-05  0.0339
   7.5332E-02   7.7165E-02   9.3732E-05  0.0341
   7.7165E-02   7.9042E-02   9.0760E-05  0.0343
   7.9042E-02   8.0965E-02   8.5172E-05  0.0349
   8.0965E-02   8.2935E-02   8.8733E-05  0.0338
   8.2935E-02   8.4953E-02   8.6229E-05  0.0339
   8.4953E-02   8.7020E-02   8.6213E-05  0.0335
   8.7020E-02   8.9138E-02   8.5109E-05  0.0333
   8.9138E-02   9.1306E-02   8.1244E-05  0.0337
   9.1306E-02   9.3528E-02   7.8594E-05  0.0338
   9.3528E-02   9.5804E-02   7.7957E-05  0.0336
   9.5804E-02   9.8134E-02   7.6792E-05  0.0334
   9.8134E-02   1.0052E-01   7.7313E-05  0.0329
   1.0052E-01   1.0297E-01   7.4741E-05  0.0331
   1.0297E-01   1.0547E-01   7.5760E-05  0.0325
   1.0547E-01   1.0804E-01   6.6556E-05  0.0342
   1.0804E-01   1.1067E-01   7.0834E-05  0.0328
   1.1067E-01   1.1336E-01   6.6774E-05  0.0334
   1.1336E-01   1.1612E-01   6.5914E-05  0.0332
   1.1612E-01   1.1894E-01   6.4348E-05  0.0332
   1.1894E-01   1.2184E-01   6.6690E-05  0.0322
   1.2184E-01   1.2480E-01   6.3959E-05  0.0325
   1.2480E-01   1.2784E-01   5.8619E-05  0.0335
   1.2784E-01   1.3095E-01   6.1792E-05  0.0323
   1.3095E-01   1.3414E-01   5.8378E-05  0.0328
   1.3414E-01   1.3740E-01   5.8708E-05  0.0323
   1.3740E-01   1.4074E-01   6.1321E-05  0.0312
   1.4074E-01   1.4417E-01   5.6419E-05  0.0322
   1.4417E-01   1.4767E-01   5.6162E-05  0.0319
   1.4767E-01   1.5127E-01   5.1266E-05  0.0330
   1.5127E-01   1.5495E-01   5.1461E-05  0.0325
   1.5495E-01   1.5872E-01   4.9443E-05  0.0328
   1.5872E-01   1.6258E-01   4.7233E-05  0.0331
   1.6258E-01   1.6654E-01   4.8841E-05  0.0322
   1.6654E-01   1.7059E-01   4.7632E-05  0.0322
   1.7059E-01   1.7474E-01   4.4091E-05  0.0331
   1.7474E-01   1.7899E-01   4.5913E-05  0.0320
   1.7899E-01   1.8334E-01   4.4777E-05  0.0320
   1.8334E-01   1.8781E-01   4.1023E-05  0.0331
   1.8781E-01   1.9237E-01   4.0705E-05  0.0328
   1.9237E-01   1.9706E-01   4.2387E-05  0.0318
   1.9706E-01   2.0185E-01   3.8169E-05  0.0331
   2.0185E-01   2.0676E-01   3.6448E-05  0.0334
   2.0676E-01   2.1179E-01   3.8325E-05  0.0322
   2.1179E-01   2.1694E-01   3.5998E-05  0.0328
   2.1694E-01   2.2222E-01   3.3798E-05  0.0335
   2.2222E-01   2.2763E-01   3.0887E-05  0.0346
   2.2763E-01   2.3317E-01   3.2645E-05  0.0333
   2.3317E-01   2.3884E-01   3.0635E-05  0.0339
   2.3884E-01   2.4465E-01   3.1732E-05  0.0329
   2.4465E-01   2.5061E-01   3.0743E-05  0.0331
   2.5061E-01   2.5670E-01   2.9127E-05  0.0336
   2.5670E-01   2.6295E-01   2.9204E-05  0.0331
   2.6295E-01   2.6935E-01   2.7385E-05  0.0338
   2.6935E-01   2.7590E-01   2.6826E-05  0.0338
   2.7590E-01   2.8261E-01   2.4684E-05  0.0347
   2.8261E-01   2.8949E-01   2.2745E-05  0.0358
   2.8949E-01   2.9653E-01   2.3284E-05  0.0349
   2.9653E-01   3.0375E-01   2.2121E-05  0.0354
   3.0375E-01   3.1114E-01   2.0080E-05  0.0367
   3.1114E-01   3.1871E-01   2.0607E-05  0.0359
   3.1871E-01   3.2646E-01   2.0066E-05  0.0359
   3.2646E-01   3.3441E-01   1.6946E-05  0.0385
   3.3441E-01   3.4254E-01   1.9394E-05  0.0356
   3.4254E-01   3.5088E-01   1.8622E-05  0.0359
   3.5088E-01   3.5941E-01   1.7758E-05  0.0363
   3.5941E-01   3.6816E-01   1.6833E-05  0.0369
   3.6816E-01   3.7712E-01   1.6411E-05  0.0369
   3.7712E-01   3.8629E-01   1.5999E-05  0.0369
   3.8629E-01   3.9569E-01   1.4342E-05  0.0385
   3.9569E-01   4.0532E-01   1.4604E-05  0.0377
   4.0532E-01   4.1518E-01   1.3324E-05  0.0390
   4.1518E-01   4.2528E-01   1.3107E-05  0.0389
   4.2528E-01   4.3563E-01   1.2931E-05  0.0387
   4.3563E-01   4.4623E-01   1.1397E-05  0.0407
   4.4623E-01   4.5708E-01   1.2269E-05  0.0387
   4.5708E-01   4.6821E-01   1.0952E-05  0.0405
   4.6821E-01   4.7960E-01   9.9721E-06  0.0420
   4.7960E-01   4.9127E-01   9.8552E-06  0.0417
   4.9127E-01   5.0322E-01   9.8721E-06  0.0412
   5.0322E-01   5.1546E-01   8.8862E-06  0.0429
   5.1546E-01   5.2800E-01   8.9941E-06  0.0421
   5.2800E-01   5.4085E-01   8.8427E-06  0.0420
   5.4085E-01   5.5401E-01   8.5491E-06  0.0422
   5.5401E-01   5.6749E-01   7.4780E-06  0.0445
   5.6749E-01   5.8130E-01   8.0536E-06  0.0424
   5.8130E-01   5.9544E-01   7.4664E-06  0.0435
   5.9544E-01   6.0993E-01   7.0957E-06  0.0441
   6.0993E-01   6.2477E-01   6.5498E-06  0.0454
   6.2477E-01   6.3997E-01   6.4601E-06  0.0451
   6.3997E-01   6.5554E-01   6.2809E-06  0.0452
   6.5554E-01   6.7149E-01   5.7806E-06  0.0466
   6.7149E-01   6.8783E-01   5.3373E-06  0.0479
   6.8783E-01   7.0456E-01   5.8558E-06  0.0452
   7.0456E-01   7.2171E-01   5.4017E-06  0.0465
   7.2171E-01   7.3927E-01   4.9659E-06  0.0479
   7.3927E-01   7.5725E-01   4.7034E-06  0.0486
   7.5725E-01   7.7568E-01   4.5374E-06  0.0489
   7.7568E-01   7.9455E-01   4.2283E-06  0.0501
   7.9455E-01   8.1388E-01   4.4589E-06  0.0482
   8.1388E-01   8.3368E-01   4.2823E-06  0.0486
   8.3368E-01   8.5397E-01   4.2890E-06  0.0479
   8.5397E-01   8.7475E-01   4.0620E-06  0.0487
   8.7475E-01   8.9603E-01   3.7870E-06  0.0498
   8.9603E-01   9.1783E-01   3.6879E-06  0.0499
   9.1783E-01   9.4016E-01   3.4839E-06  0.0507
   9.4016E-01   9.6304E-01   3.8864E-06  0.0474
   9.6304E-01   9.8647E-01   3.3118E-06  0.0508
   9.8647E-01   1.0105E+00   3.5831E-06  0.0482
   1.0105E+00   1.0351E+00   3.7339E-06  0.0467
   1.0351E+00   1.0602E+00   3.4308E-06  0.0481
   1.0602E+00   1.0860E+00   3.5431E-06  0.0468
   1.0860E+00   1.1125E+00   3.5876E-06  0.0459
   1.1125E+00   1.1395E+00   3.9605E-06  0.0432
   1.1395E+00   1.1673E+00   4.4075E-06  0.0405
   1.1673E+00   1.1957E+00   4.6408E-06  0.0390
   1.1957E+00   1.2247E+00   5.2181E-06  0.0363
   1.2247E+00   1.2545E+00   4.9129E-06  0.0370
   1.2545E+00   1.2851E+00   5.3532E-06  0.0350
   1.2851E+00   1.3163E+00   5.3475E-06  0.0346
   1.3163E+00   1.3484E+00   5.6264E-06  0.0333
   1.3484E+00   1.3812E+00   5.8525E-06  0.0323
   1.3812E+00   1.4148E+00   6.3860E-06  0.0305
   1.4148E+00   1.4492E+00   6.1239E-06  0.0308
   1.4492E+00   1.4845E+00   6.5003E-06  0.0295
   1.4845E+00   1.5206E+00   6.7446E-06  0.0287
   1.5206E+00   1.5576E+00   6.7628E-06  0.0283
   1.5576E+00   1.5955E+00   6.7763E-06  0.0279
   1.5955E+00   1.6343E+00   7.2645E-06  0.0266
   1.6343E+00   1.6741E+00   7.4088E-06  0.0261
   1.6741E+00   1.7148E+00   7.7779E-06  0.0251
   1.7148E+00   1.7565E+00   7.3295E-06  0.0256
   1.7565E+00   1.7992E+00   7.8386E-06  0.0244
   1.7992E+00   1.8430E+00   7.9128E-06  0.0240
   1.8430E+00   1.8879E+00   7.9479E-06  0.0237
   1.8879E+00   1.9338E+00   7.7417E-06  0.0237
   1.9338E+00   1.9808E+00   7.9871E-06  0.0231
   1.9808E+00   2.0290E+00   8.7021E-06  0.0218
   2.0290E+00   2.0784E+00   8.2928E-06  0.0221
   2.0784E+00   2.1290E+00   8.0800E-06  0.0221
   2.1290E+00   2.1808E+00   8.2163E-06  0.0217
   2.1808E+00   2.2338E+00   8.7373E-06  0.0208
   2.2338E+00   2.2882E+00   8.4267E-06  0.0209
   2.2882E+00   2.3439E+00   8.8193E-06  0.0202
   2.3439E+00   2.4009E+00   8.2556E-06  0.0206
   2.4009E+00   2.4593E+00   8.9599E-06  0.0195
   2.4593E+00   2.5191E+00   8.6134E-06  0.0197
   2.5191E+00   2.5804E+00   8.3909E-06  0.0197
   2.5804E+00   2.6432E+00   8.0626E-06  0.0199
   2.6432E+00   2.7075E+00   7.9954E-06  0.0197
   2.7075E+00   2.7734E+00   8.3459E-06  0.0191
   2.7734E+00   2.8409E+00   7.9758E-06  0.0193
   2.8409E+00   2.9100E+00   8.2117E-06  0.0188
   2.9100E+00   2.9808E+00   8.2002E-06  0.0186
   2.9808E+00   3.0533E+00   8.1434E-06  0.0184
   3.0533E+00   3.1276E+00   7.8207E-06  0.0186
   3.1276E+00   3.2037E+00   7.5981E-06  0.0186
   3.2037E+00   3.2817E+00   7.3189E-06  0.0187
   3.2817E+00   3.3615E+00   7.1864E-06  0.0187
   3.3615E+00   3.4433E+00   7.0059E-06  0.0187
   3.4433E+00   3.5271E+00   6.7893E-06  0.0188
   3.5271E+00   3.6129E+00   7.1525E-06  0.0181
   3.6129E+00   3.7008E+00   6.9553E-06  0.0181
   3.7008E+00   3.7908E+00   6.5546E-06  0.0184
   3.7908E+00   3.8831E+00   6.5811E-06  0.0182
   3.8831E+00   3.9776E+00   6.5983E-06  0.0179
   3.9776E+00   4.0743E+00   6.6441E-06  0.0176
   4.0743E+00   4.1735E+00   6.4661E-06  0.0177
   4.1735E+00   4.2750E+00   6.0270E-06  0.0181
   4.2750E+00   4.3790E+00   5.9626E-06  0.0180
   4.3790E+00   4.4856E+00   6.0125E-06  0.0177
   4.4856E+00   4.5947E+00   5.8128E-06  0.0178
   4.5947E+00   4.7065E+00   5.9718E-06  0.0173
   4.7065E+00   4.8210E+00   6.0028E-06  0.0171
   4.8210E+00   4.9383E+00   5.8329E-06  0.0171
   4.9383E+00   5.0585E+00   5.5562E-06  0.0173
   5.0585E+00   5.1815E+00   5.6859E-06  0.0169
   5.1815E+00   5.3076E+00   5.4763E-06  0.0170
   5.3076E+00   5.4368E+00   5.5801E-06  0.0167
   5.4368E+00   5.5690E+00   5.4037E-06  0.0167
   5.5690E+00   5.7045E+00   5.3417E-06  0.0166
   5.7045E+00   5.8433E+00   5.3028E-06  0.0165
   5.8433E+00   5.9855E+00   5.2950E-06  0.0163
   5.9855E+00   6.1311E+00   5.3917E-06  0.0160
   6.1311E+00   6.2803E+00   5.4285E-06  0.0157
   6.2803E+00   6.4331E+00   5.3650E-06  0.0156
   6.4331E+00   6.5896E+00   5.3475E-06  0.0155
   6.5896E+00   6.7500E+00   5.3801E-06  0.0152
   6.7500E+00   6.9142E+00   5.2840E-06  0.0152
   6.9142E+00   7.0824E+00   5.4735E-06  0.0147
   7.0824E+00   7.2548E+00   5.4439E-06  0.0146
   7.2548E+00   7.4313E+00   5.2874E-06  0.0146
   7.4313E+00   7.6121E+00   5.4013E-06  0.0143
   7.6121E+00   7.7973E+00   5.4091E-06  0.0141
   7.7973E+00   7.9870E+00   5.3860E-06  0.0140
   7.9870E+00   8.1813E+00   5.4382E-06  0.0138
   8.1813E+00   8.3804E+00   5.3954E-06  0.0136
   8.3804E+00   8.5843E+00   5.4365E-06  0.0134
   8.5843E+00   8.7931E+00   5.5300E-06  0.0132
   8.7931E+00   9.0071E+00   5.4823E-06  0.0131
   9.0071E+00   9.2262E+00   5.5524E-06  0.0128
   9.2262E+00   9.4507E+00   5.5145E-06  0.0127
   9.4507E+00   9.6807E+00   5.5535E-06  0.0125
   9.6807E+00   9.9162E+00   5.5893E-06  0.0123
   9.9162E+00   1.0157E+01   5.5523E-06  0.0122
   1.0157E+01   1.0405E+01   5.4981E-06  0.0121
   1.0405E+01   1.0658E+01   5.5188E-06  0.0120
   1.0658E+01   1.0917E+01   5.5609E-06  0.0118
   1.0917E+01   1.1183E+01   5.4036E-06  0.0118
   1.1183E+01   1.1455E+01   5.4321E-06  0.0116
   1.1455E+01   1.1733E+01   5.2443E-06  0.0117
   1.1733E+01   1.2019E+01   5.2178E-06  0.0116
   1.2019E+01   1.2311E+01   5.1554E-06  0.0115
   1.2311E+01   1.2611E+01   4.9515E-06  0.0116
   1.2611E+01   1.2918E+01   4.9098E-06  0.0115
   1.2918E+01   1.3232E+01   4.8530E-06  0.0115
   1.3232E+01   1.3554E+01   4.7029E-06  0.0115
   1.3554E+01   1.3884E+01   4.4284E-06  0.0117
   1.3884E+01   1.4222E+01   4.3194E-06  0.0117
   1.4222E+01   1.4568E+01   4.2101E-06  0.0117
   1.4568E+01   1.4922E+01   3.9332E-06  0.0120
   1.4922E+01   1.5285E+01   3.7453E-06  0.0121
   1.5285E+01   1.5657E+01   3.6609E-06  0.0121
   1.5657E+01   1.6038E+01   3.4721E-06  0.0123
   1.6038E+01   1.6428E+01   3.2108E-06  0.0126
   1.6428E+01   1.6828E+01   3.0372E-06  0.0128
   1.6828E+01   1.7237E+01   2.8183E-06  0.0132
   1.7237E+01   1.7657E+01   2.6555E-06  0.0134
   1.7657E+01   1.8086E+01   2.3880E-06  0.0140
   1.8086E+01   1.8526E+01   2.2329E-06  0.0143
   1.8526E+01   1.8977E+01   2.0989E-06  0.0145
   1.8977E+01   1.9439E+01   1.8045E-06  0.0155
   1.9439E+01   1.9912E+01   1.6855E-06  0.0158
   1.9912E+01   2.0396E+01   1.7669E-06  0.0153
   2.0396E+01   2.0893E+01   1.6387E-06  0.0157
   2.0893E+01   2.1401E+01   1.4526E-06  0.0165
   2.1401E+01   2.1922E+01   1.2598E-06  0.0175
   2.1922E+01   2.2455E+01   1.1152E-06  0.0183
   2.2455E+01   2.3001E+01   1.0191E-06  0.0190
   2.3001E+01   2.3561E+01   9.0272E-07  0.0199
   2.3561E+01   2.4134E+01   7.3963E-07  0.0217
   2.4134E+01   2.4721E+01   6.4202E-07  0.0230
   2.4721E+01   2.5323E+01   5.5063E-07  0.0246
   2.5323E+01   2.5939E+01   4.4244E-07  0.0271
   2.5939E+01   2.6570E+01   3.5334E-07  0.0299
   2.6570E+01   2.7217E+01   2.8400E-07  0.0330
   2.7217E+01   2.7879E+01   2.4071E-07  0.0354
   2.7879E+01   2.8557E+01   1.6718E-07  0.0420
   2.8557E+01   2.9252E+01   1.1715E-07  0.0496
   2.9252E+01   2.9964E+01   6.9128E-08  0.0638
   2.9964E+01   3.0693E+01   2.6336E-08  0.1021
   3.0693E+01   3.1440E+01   5.3563E-10  0.7071
   3.1440E+01   3.2205E+01   0.0000E+00  0.0000
   3.2205E+01   3.2988E+01   0.0000E+00  0.0000
   3.2988E+01   3.3791E+01   0.0000E+00  0.0000
   3.3791E+01   3.4613E+01   0.0000E+00  0.0000
   3.4613E+01   3.5455E+01   0.0000E+00  0.0000
   3.5455E+01   3.6318E+01   0.0000E+00  0.0000
   3.6318E+01   3.7201E+01   0.0000E+00  0.0000
   3.7201E+01   3.8106E+01   0.0000E+00  0.0000
   3.8106E+01   3.9034E+01   0.0000E+00  0.0000
   3.9034E+01   3.9983E+01   0.0000E+00  0.0000
   3.9983E+01   4.0956E+01   0.0000E+00  0.0000
   4.0956E+01   4.1953E+01   0.0000E+00  0.0000
   4.1953E+01   4.2973E+01   0.0000E+00  0.0000
   4.2973E+01   4.4019E+01   0.0000E+00  0.0000
   4.4019E+01   4.5090E+01   0.0000E+00  0.0000
   4.5090E+01   4.6187E+01   0.0000E+00  0.0000
   4.6187E+01   4.7311E+01   0.0000E+00  0.0000
   4.7311E+01   4.8462E+01   0.0000E+00  0.0000
   4.8462E+01   4.9641E+01   0.0000E+00  0.0000
   4.9641E+01   5.0849E+01   0.0000E+00  0.0000
   5.0849E+01   5.2086E+01   0.0000E+00  0.0000
   5.2086E+01   5.3353E+01   0.0000E+00  0.0000
   5.3353E+01   5.4651E+01   0.0000E+00  0.0000
   5.4651E+01   5.5981E+01   0.0000E+00  0.0000
   5.5981E+01   5.7343E+01   0.0000E+00  0.0000
   5.7343E+01   5.8738E+01   0.0000E+00  0.0000
   5.8738E+01   6.0168E+01   0.0000E+00  0.0000
   6.0168E+01   6.1632E+01   0.0000E+00  0.0000
   6.1632E+01   6.3131E+01   0.0000E+00  0.0000
   6.3131E+01   6.4667E+01   0.0000E+00  0.0000
   6.4667E+01   6.6240E+01   0.0000E+00  0.0000
   6.6240E+01   6.7852E+01   0.0000E+00  0.0000
   6.7852E+01   6.9503E+01   0.0000E+00  0.0000
   6.9503E+01   7.1194E+01   0.0000E+00  0.0000
   7.1194E+01   7.2926E+01   0.0000E+00  0.0000
   7.2926E+01   7.4701E+01   0.0000E+00  0.0000
   7.4701E+01   7.6518E+01   0.0000E+00  0.0000
   7.6518E+01   7.8380E+01   0.0000E+00  0.0000
   7.8380E+01   8.0287E+01   0.0000E+00  0.0000
   8.0287E+01   8.2240E+01   0.0000E+00  0.0000
   8.2240E+01   8.4241E+01   0.0000E+00  0.0000
   8.4241E+01   8.6291E+01   0.0000E+00  0.0000
   8.6291E+01   8.8391E+01   0.0000E+00  0.0000
   8.8391E+01   9.0541E+01   0.0000E+00  0.0000
   9.0541E+01   9.2744E+01   0.0000E+00  0.0000
   9.2744E+01   9.5001E+01   0.0000E+00  0.0000
   9.5001E+01   9.7312E+01   0.0000E+00  0.0000
   9.7312E+01   9.9680E+01   0.0000E+00  0.0000
   9.9680E+01   1.0211E+02   0.0000E+00  0.0000
   1.0211E+02   1.0459E+02   0.0000E+00  0.0000
   1.0459E+02   1.0713E+02   0.0000E+00  0.0000
   1.0713E+02   1.0974E+02   0.0000E+00  0.0000
   1.0974E+02   1.1241E+02   0.0000E+00  0.0000
   1.1241E+02   1.1515E+02   0.0000E+00  0.0000
   1.1515E+02   1.1795E+02   0.0000E+00  0.0000
   1.1795E+02   1.2082E+02   0.0000E+00  0.0000
   1.2082E+02   1.2376E+02   0.0000E+00  0.0000
   1.2376E+02   1.2677E+02   0.0000E+00  0.0000
   1.2677E+02   1.2985E+02   0.0000E+00  0.0000
   1.2985E+02   1.3301E+02   0.0000E+00  0.0000
   1.3301E+02   1.3625E+02   0.0000E+00  0.0000
   1.3625E+02   1.3956E+02   0.0000E+00  0.0000
   1.3956E+02   1.4296E+02   0.0000E+00  0.0000
   1.4296E+02   1.4644E+02   0.0000E+00  0.0000
   1.4644E+02   1.5000E+02   0.0000E+00  0.0000

#   sum over                 8.3456E-07
'no. =    1   reg = 105 - 205'
msuc: {\huge [t-cross] in region mesh}
msdr: {\it plotted by \ANGEL \version}
msdl: {\it calculated by \PHITS  3.26}
wt: s(0.7)
\vspace{-3}
  region surface crossing
  area  &=&   1.0000E+00 [cm^2]
e:
 
# Information for Restart Calculation
# This calculation was newly started
# istdev =  2 # 1:Batch variance, 2:History variance
# resc2  = 5.00000000000000000E+09 # Total source weight or Total source weight / maxcas
# resc3  = 5.00000000000000000E+09 # Total history number or Total batch number
# maxcas =   500000000 # History / Batch, only used for istdev=1
# bitrseed = 0110100000100010111000001110001111001110100100011111101000111001 # bit data of rseed
