[ T-Cross ]
    title = [t-cross] in region mesh
     mesh =  reg            # mesh type is region-wise
      reg =    1            # number of crossing regions
      non     r-from    r-to       area
      1       117       217        1.000000    
   e-type =    3            # e-mesh is log given by emin, emax and ne
     emin =  1.0000000E-02  # minimum value of e-mesh points
     emax =   150.0000      # maximum value of e-mesh points
#    edel =  2.4039514E-02  # mesh width of e-mesh points
       ne =    400          # number of e-mesh points
#    data = ( e(i), i = 1, ne + 1 )
#           1.00000E-02  1.02433E-02  1.04925E-02  1.07478E-02  1.10093E-02
#           1.12772E-02  1.15516E-02  1.18326E-02  1.21205E-02  1.24154E-02
#           1.27175E-02  1.30269E-02  1.33439E-02  1.36686E-02  1.40011E-02
#           1.43418E-02  1.46907E-02  1.50482E-02  1.54143E-02  1.57894E-02
#           1.61735E-02  1.65670E-02  1.69701E-02  1.73830E-02  1.78060E-02
#           1.82392E-02  1.86830E-02  1.91375E-02  1.96032E-02  2.00801E-02
#           2.05687E-02  2.10692E-02  2.15818E-02  2.21069E-02  2.26448E-02
#           2.31957E-02  2.37601E-02  2.43382E-02  2.49304E-02  2.55369E-02
#           2.61583E-02  2.67947E-02  2.74467E-02  2.81145E-02  2.87985E-02
#           2.94992E-02  3.02169E-02  3.09521E-02  3.17052E-02  3.24766E-02
#           3.32668E-02  3.40762E-02  3.49053E-02  3.57546E-02  3.66246E-02
#           3.75157E-02  3.84284E-02  3.93634E-02  4.03212E-02  4.13022E-02
#           4.23071E-02  4.33365E-02  4.43909E-02  4.54710E-02  4.65773E-02
#           4.77106E-02  4.88714E-02  5.00605E-02  5.12785E-02  5.25262E-02
#           5.38042E-02  5.51133E-02  5.64542E-02  5.78278E-02  5.92348E-02
#           6.06760E-02  6.21523E-02  6.36645E-02  6.52135E-02  6.68002E-02
#           6.84255E-02  7.00904E-02  7.17957E-02  7.35426E-02  7.53319E-02
#           7.71648E-02  7.90423E-02  8.09655E-02  8.29354E-02  8.49533E-02
#           8.70203E-02  8.91376E-02  9.13064E-02  9.35279E-02  9.58035E-02
#           9.81345E-02  1.00522E-01  1.02968E-01  1.05473E-01  1.08040E-01
#           1.10668E-01  1.13361E-01  1.16119E-01  1.18944E-01  1.21838E-01
#           1.24803E-01  1.27839E-01  1.30950E-01  1.34136E-01  1.37399E-01
#           1.40742E-01  1.44167E-01  1.47675E-01  1.51268E-01  1.54948E-01
#           1.58718E-01  1.62580E-01  1.66535E-01  1.70587E-01  1.74738E-01
#           1.78989E-01  1.83344E-01  1.87805E-01  1.92375E-01  1.97055E-01
#           2.01850E-01  2.06761E-01  2.11792E-01  2.16945E-01  2.22223E-01
#           2.27630E-01  2.33169E-01  2.38842E-01  2.44653E-01  2.50605E-01
#           2.56703E-01  2.62949E-01  2.69346E-01  2.75900E-01  2.82613E-01
#           2.89489E-01  2.96532E-01  3.03747E-01  3.11138E-01  3.18708E-01
#           3.26462E-01  3.34405E-01  3.42542E-01  3.50876E-01  3.59413E-01
#           3.68158E-01  3.77116E-01  3.86291E-01  3.95690E-01  4.05317E-01
#           4.15179E-01  4.25281E-01  4.35628E-01  4.46227E-01  4.57084E-01
#           4.68205E-01  4.79597E-01  4.91266E-01  5.03219E-01  5.15463E-01
#           5.28005E-01  5.40851E-01  5.54011E-01  5.67490E-01  5.81298E-01
#           5.95441E-01  6.09929E-01  6.24769E-01  6.39970E-01  6.55541E-01
#           6.71491E-01  6.87828E-01  7.04564E-01  7.21706E-01  7.39266E-01
#           7.57253E-01  7.75678E-01  7.94551E-01  8.13883E-01  8.33685E-01
#           8.53969E-01  8.74747E-01  8.96030E-01  9.17831E-01  9.40163E-01
#           9.63038E-01  9.86469E-01  1.01047E+00  1.03506E+00  1.06024E+00
#           1.08604E+00  1.11246E+00  1.13953E+00  1.16725E+00  1.19565E+00
#           1.22474E+00  1.25454E+00  1.28507E+00  1.31633E+00  1.34836E+00
#           1.38117E+00  1.41477E+00  1.44920E+00  1.48446E+00  1.52057E+00
#           1.55757E+00  1.59547E+00  1.63429E+00  1.67405E+00  1.71478E+00
#           1.75650E+00  1.79924E+00  1.84302E+00  1.88786E+00  1.93379E+00
#           1.98084E+00  2.02904E+00  2.07841E+00  2.12898E+00  2.18078E+00
#           2.23384E+00  2.28819E+00  2.34386E+00  2.40089E+00  2.45930E+00
#           2.51914E+00  2.58043E+00  2.64322E+00  2.70753E+00  2.77341E+00
#           2.84088E+00  2.91001E+00  2.98081E+00  3.05333E+00  3.12762E+00
#           3.20372E+00  3.28167E+00  3.36152E+00  3.44330E+00  3.52708E+00
#           3.61290E+00  3.70080E+00  3.79085E+00  3.88308E+00  3.97756E+00
#           4.07434E+00  4.17347E+00  4.27501E+00  4.37903E+00  4.48557E+00
#           4.59471E+00  4.70650E+00  4.82102E+00  4.93832E+00  5.05847E+00
#           5.18155E+00  5.30762E+00  5.43676E+00  5.56904E+00  5.70453E+00
#           5.84333E+00  5.98550E+00  6.13114E+00  6.28031E+00  6.43312E+00
#           6.58964E+00  6.74997E+00  6.91420E+00  7.08243E+00  7.25475E+00
#           7.43126E+00  7.61207E+00  7.79728E+00  7.98700E+00  8.18133E+00
#           8.38038E+00  8.58428E+00  8.79315E+00  9.00709E+00  9.22624E+00
#           9.45072E+00  9.68067E+00  9.91620E+00  1.01575E+01  1.04046E+01
#           1.06578E+01  1.09171E+01  1.11827E+01  1.14548E+01  1.17335E+01
#           1.20190E+01  1.23114E+01  1.26109E+01  1.29178E+01  1.32321E+01
#           1.35540E+01  1.38838E+01  1.42216E+01  1.45676E+01  1.49221E+01
#           1.52851E+01  1.56570E+01  1.60380E+01  1.64282E+01  1.68279E+01
#           1.72374E+01  1.76568E+01  1.80864E+01  1.85264E+01  1.89772E+01
#           1.94389E+01  1.99119E+01  2.03963E+01  2.08926E+01  2.14009E+01
#           2.19216E+01  2.24550E+01  2.30014E+01  2.35610E+01  2.41343E+01
#           2.47215E+01  2.53230E+01  2.59391E+01  2.65702E+01  2.72167E+01
#           2.78789E+01  2.85572E+01  2.92520E+01  2.99637E+01  3.06928E+01
#           3.14396E+01  3.22045E+01  3.29881E+01  3.37907E+01  3.46128E+01
#           3.54550E+01  3.63177E+01  3.72013E+01  3.81064E+01  3.90336E+01
#           3.99833E+01  4.09561E+01  4.19526E+01  4.29734E+01  4.40189E+01
#           4.50900E+01  4.61870E+01  4.73108E+01  4.84619E+01  4.96410E+01
#           5.08488E+01  5.20860E+01  5.33533E+01  5.46514E+01  5.59812E+01
#           5.73432E+01  5.87384E+01  6.01676E+01  6.16315E+01  6.31311E+01
#           6.46671E+01  6.62405E+01  6.78522E+01  6.95031E+01  7.11941E+01
#           7.29263E+01  7.47007E+01  7.65182E+01  7.83800E+01  8.02870E+01
#           8.22405E+01  8.42414E+01  8.62911E+01  8.83906E+01  9.05412E+01
#           9.27442E+01  9.50007E+01  9.73122E+01  9.96799E+01  1.02105E+02
#           1.04589E+02  1.07134E+02  1.09741E+02  1.12411E+02  1.15146E+02
#           1.17948E+02  1.20817E+02  1.23757E+02  1.26768E+02  1.29852E+02
#           1.33012E+02  1.36248E+02  1.39563E+02  1.42959E+02  1.46437E+02
#           1.50000E+02
     unit =    2            # unit is [1/cm^2/(MeV/n)/source]
     axis =  eng            # axis of output
     file = detector-18.out  # file name of output for the above axis
   output = f-curr          # surface crossing forward current spectrum
     part =  neutron  
# kf/name :  2112     
#    used :        main (  %)        temp (  %)       total (  %)
#  memory :         414 (  0)           0 (  0)         414 (  0)

#------------------------------------------------------------------------------
#newpage:
#   no. =    1   reg = 117 - 217

x: Energy [MeV/n]
y:  F-Curr [1/cm^2/(MeV/n)/source]         
p: xlog ylog afac(0.8) form(0.9)
h: n            x            y(neutron ),hh0l   n 
#  e-lower      e-upper      neutron     r.err 
   1.0000E-02   1.0243E-02   9.3160E-05  0.1213
   1.0243E-02   1.0493E-02   1.0031E-04  0.1155
   1.0493E-02   1.0748E-02   1.1838E-04  0.1048
   1.0748E-02   1.1009E-02   9.7091E-05  0.1145
   1.1009E-02   1.1277E-02   9.9552E-05  0.1118
   1.1277E-02   1.1552E-02   8.6254E-05  0.1187
   1.1552E-02   1.1833E-02   9.9623E-05  0.1091
   1.1833E-02   1.2121E-02   9.2626E-05  0.1118
   1.2121E-02   1.2415E-02   9.3095E-05  0.1100
   1.2415E-02   1.2718E-02   8.8829E-05  0.1113
   1.2718E-02   1.3027E-02   9.3722E-05  0.1072
   1.3027E-02   1.3344E-02   9.3599E-05  0.1060
   1.3344E-02   1.3669E-02   9.5123E-05  0.1037
   1.3669E-02   1.4001E-02   8.8374E-05  0.1064
   1.4001E-02   1.4342E-02   7.7450E-05  0.1123
   1.4342E-02   1.4691E-02   8.8361E-05  0.1038
   1.4691E-02   1.5048E-02   9.2324E-05  0.1005
   1.5048E-02   1.5414E-02   9.4683E-05  0.0981
   1.5414E-02   1.5789E-02   1.0754E-04  0.0909
   1.5789E-02   1.6174E-02   1.0715E-04  0.0898
   1.6174E-02   1.6567E-02   9.9954E-05  0.0921
   1.6567E-02   1.6970E-02   9.0964E-05  0.0953
   1.6970E-02   1.7383E-02   1.0185E-04  0.0890
   1.7383E-02   1.7806E-02   1.0285E-04  0.0875
   1.7806E-02   1.8239E-02   9.6297E-05  0.0893
   1.8239E-02   1.8683E-02   1.0601E-04  0.0841
   1.8683E-02   1.9138E-02   1.0266E-04  0.0845
   1.9138E-02   1.9603E-02   9.8791E-05  0.0851
   1.9603E-02   2.0080E-02   1.0972E-04  0.0798
   2.0080E-02   2.0569E-02   1.0370E-04  0.0811
   2.0569E-02   2.1069E-02   1.0257E-04  0.0806
   2.1069E-02   2.1582E-02   1.0046E-04  0.0803
   2.1582E-02   2.2107E-02   1.0595E-04  0.0773
   2.2107E-02   2.2645E-02   1.1084E-04  0.0747
   2.2645E-02   2.3196E-02   1.0265E-04  0.0767
   2.3196E-02   2.3760E-02   1.0749E-04  0.0741
   2.3760E-02   2.4338E-02   1.1483E-04  0.0708
   2.4338E-02   2.4930E-02   1.0403E-04  0.0735
   2.4930E-02   2.5537E-02   1.1009E-04  0.0706
   2.5537E-02   2.6158E-02   1.0646E-04  0.0709
   2.6158E-02   2.6795E-02   1.0431E-04  0.0708
   2.6795E-02   2.7447E-02   1.1427E-04  0.0669
   2.7447E-02   2.8114E-02   1.1489E-04  0.0659
   2.8114E-02   2.8799E-02   9.7703E-05  0.0706
   2.8799E-02   2.9499E-02   1.0418E-04  0.0676
   2.9499E-02   3.0217E-02   1.1524E-04  0.0635
   3.0217E-02   3.0952E-02   1.0891E-04  0.0645
   3.0952E-02   3.1705E-02   1.1846E-04  0.0611
   3.1705E-02   3.2477E-02   1.0953E-04  0.0628
   3.2477E-02   3.3267E-02   1.2228E-04  0.0587
   3.3267E-02   3.4076E-02   1.1819E-04  0.0590
   3.4076E-02   3.4905E-02   1.1170E-04  0.0599
   3.4905E-02   3.5755E-02   1.1650E-04  0.0579
   3.5755E-02   3.6625E-02   1.1615E-04  0.0574
   3.6625E-02   3.7516E-02   1.2084E-04  0.0556
   3.7516E-02   3.8428E-02   1.0632E-04  0.0586
   3.8428E-02   3.9363E-02   1.2625E-04  0.0531
   3.9363E-02   4.0321E-02   1.1369E-04  0.0553
   4.0321E-02   4.1302E-02   1.1873E-04  0.0535
   4.1302E-02   4.2307E-02   1.2117E-04  0.0523
   4.2307E-02   4.3337E-02   1.1279E-04  0.0535
   4.3337E-02   4.4391E-02   1.2055E-04  0.0512
   4.4391E-02   4.5471E-02   1.1429E-04  0.0519
   4.5471E-02   4.6577E-02   1.1915E-04  0.0502
   4.6577E-02   4.7711E-02   1.2383E-04  0.0487
   4.7711E-02   4.8871E-02   1.0773E-04  0.0516
   4.8871E-02   5.0061E-02   1.2255E-04  0.0478
   5.0061E-02   5.1279E-02   1.3240E-04  0.0454
   5.1279E-02   5.2526E-02   1.1117E-04  0.0490
   5.2526E-02   5.3804E-02   1.1858E-04  0.0469
   5.3804E-02   5.5113E-02   1.2182E-04  0.0457
   5.5113E-02   5.6454E-02   1.1356E-04  0.0467
   5.6454E-02   5.7828E-02   1.1411E-04  0.0461
   5.7828E-02   5.9235E-02   1.1166E-04  0.0460
   5.9235E-02   6.0676E-02   1.1617E-04  0.0446
   6.0676E-02   6.2152E-02   1.0574E-04  0.0462
   6.2152E-02   6.3665E-02   1.2409E-04  0.0421
   6.3665E-02   6.5214E-02   1.1571E-04  0.0431
   6.5214E-02   6.6800E-02   1.1394E-04  0.0429
   6.6800E-02   6.8426E-02   1.1731E-04  0.0418
   6.8426E-02   7.0090E-02   1.1273E-04  0.0421
   7.0090E-02   7.1796E-02   1.1760E-04  0.0407
   7.1796E-02   7.3543E-02   1.1817E-04  0.0402
   7.3543E-02   7.5332E-02   1.1587E-04  0.0401
   7.5332E-02   7.7165E-02   1.1372E-04  0.0400
   7.7165E-02   7.9042E-02   1.0575E-04  0.0410
   7.9042E-02   8.0965E-02   1.2183E-04  0.0377
   8.0965E-02   8.2935E-02   1.2104E-04  0.0373
   8.2935E-02   8.4953E-02   1.1441E-04  0.0380
   8.4953E-02   8.7020E-02   1.0815E-04  0.0386
   8.7020E-02   8.9138E-02   1.1041E-04  0.0377
   8.9138E-02   9.1306E-02   1.1352E-04  0.0368
   9.1306E-02   9.3528E-02   1.1036E-04  0.0368
   9.3528E-02   9.5804E-02   1.0846E-04  0.0367
   9.5804E-02   9.8134E-02   1.0779E-04  0.0364
   9.8134E-02   1.0052E-01   1.1528E-04  0.0348
   1.0052E-01   1.0297E-01   1.0339E-04  0.0363
   1.0297E-01   1.0547E-01   1.1413E-04  0.0341
   1.0547E-01   1.0804E-01   1.1001E-04  0.0343
   1.0804E-01   1.1067E-01   9.9725E-05  0.0357
   1.1067E-01   1.1336E-01   9.6435E-05  0.0358
   1.1336E-01   1.1612E-01   9.5679E-05  0.0355
   1.1612E-01   1.1894E-01   1.0082E-04  0.0342
   1.1894E-01   1.2184E-01   1.0560E-04  0.0330
   1.2184E-01   1.2480E-01   9.6888E-05  0.0340
   1.2480E-01   1.2784E-01   9.7229E-05  0.0336
   1.2784E-01   1.3095E-01   9.7476E-05  0.0331
   1.3095E-01   1.3414E-01   9.4920E-05  0.0332
   1.3414E-01   1.3740E-01   9.6550E-05  0.0325
   1.3740E-01   1.4074E-01   9.1890E-05  0.0329
   1.4074E-01   1.4417E-01   8.9899E-05  0.0329
   1.4417E-01   1.4767E-01   8.6806E-05  0.0331
   1.4767E-01   1.5127E-01   8.7093E-05  0.0326
   1.5127E-01   1.5495E-01   8.2162E-05  0.0332
   1.5495E-01   1.5872E-01   9.0259E-05  0.0313
   1.5872E-01   1.6258E-01   8.3558E-05  0.0321
   1.6258E-01   1.6654E-01   8.4693E-05  0.0315
   1.6654E-01   1.7059E-01   7.4505E-05  0.0332
   1.7059E-01   1.7474E-01   7.7298E-05  0.0322
   1.7474E-01   1.7899E-01   7.5238E-05  0.0323
   1.7899E-01   1.8334E-01   7.6380E-05  0.0316
   1.8334E-01   1.8781E-01   6.8508E-05  0.0330
   1.8781E-01   1.9237E-01   7.1302E-05  0.0320
   1.9237E-01   1.9706E-01   6.8853E-05  0.0321
   1.9706E-01   2.0185E-01   6.4117E-05  0.0329
   2.0185E-01   2.0676E-01   6.4166E-05  0.0325
   2.0676E-01   2.1179E-01   6.5485E-05  0.0318
   2.1179E-01   2.1694E-01   6.8498E-05  0.0307
   2.1694E-01   2.2222E-01   6.6044E-05  0.0309
   2.2222E-01   2.2763E-01   7.1233E-05  0.0294
   2.2763E-01   2.3317E-01   6.9620E-05  0.0294
   2.3317E-01   2.3884E-01   7.1895E-05  0.0286
   2.3884E-01   2.4465E-01   7.4805E-05  0.0277
   2.4465E-01   2.5061E-01   7.2892E-05  0.0277
   2.5061E-01   2.5670E-01   7.4554E-05  0.0271
   2.5670E-01   2.6295E-01   7.6964E-05  0.0263
   2.6295E-01   2.6935E-01   7.6970E-05  0.0260
   2.6935E-01   2.7590E-01   7.7316E-05  0.0256
   2.7590E-01   2.8261E-01   8.1274E-05  0.0247
   2.8261E-01   2.8949E-01   8.4389E-05  0.0240
   2.8949E-01   2.9653E-01   7.9136E-05  0.0244
   2.9653E-01   3.0375E-01   8.1653E-05  0.0238
   3.0375E-01   3.1114E-01   8.3861E-05  0.0232
   3.1114E-01   3.1871E-01   8.4657E-05  0.0228
   3.1871E-01   3.2646E-01   8.3971E-05  0.0226
   3.2646E-01   3.3441E-01   8.7738E-05  0.0218
   3.3441E-01   3.4254E-01   8.5753E-05  0.0218
   3.4254E-01   3.5088E-01   8.8597E-05  0.0212
   3.5088E-01   3.5941E-01   8.5012E-05  0.0214
   3.5941E-01   3.6816E-01   8.7861E-05  0.0208
   3.6816E-01   3.7712E-01   8.9914E-05  0.0203
   3.7712E-01   3.8629E-01   9.0254E-05  0.0200
   3.8629E-01   3.9569E-01   8.9575E-05  0.0199
   3.9569E-01   4.0532E-01   9.0705E-05  0.0195
   4.0532E-01   4.1518E-01   9.2555E-05  0.0191
   4.1518E-01   4.2528E-01   9.3283E-05  0.0188
   4.2528E-01   4.3563E-01   8.9155E-05  0.0190
   4.3563E-01   4.4623E-01   9.1546E-05  0.0185
   4.4623E-01   4.5708E-01   9.1580E-05  0.0183
   4.5708E-01   4.6821E-01   9.4486E-05  0.0178
   4.6821E-01   4.7960E-01   9.4087E-05  0.0176
   4.7960E-01   4.9127E-01   9.0287E-05  0.0178
   4.9127E-01   5.0322E-01   9.2030E-05  0.0174
   5.0322E-01   5.1546E-01   9.1704E-05  0.0172
   5.1546E-01   5.2800E-01   9.0834E-05  0.0171
   5.2800E-01   5.4085E-01   9.2124E-05  0.0168
   5.4085E-01   5.5401E-01   8.9895E-05  0.0168
   5.5401E-01   5.6749E-01   9.1470E-05  0.0164
   5.6749E-01   5.8130E-01   8.7958E-05  0.0165
   5.8130E-01   5.9544E-01   8.9801E-05  0.0162
   5.9544E-01   6.0993E-01   8.9416E-05  0.0160
   6.0993E-01   6.2477E-01   9.0475E-05  0.0157
   6.2477E-01   6.3997E-01   8.9138E-05  0.0157
   6.3997E-01   6.5554E-01   8.7641E-05  0.0156
   6.5554E-01   6.7149E-01   8.9261E-05  0.0153
   6.7149E-01   6.8783E-01   8.8788E-05  0.0151
   6.8783E-01   7.0456E-01   8.3658E-05  0.0154
   7.0456E-01   7.2171E-01   8.7365E-05  0.0149
   7.2171E-01   7.3927E-01   8.3965E-05  0.0150
   7.3927E-01   7.5725E-01   8.5004E-05  0.0147
   7.5725E-01   7.7568E-01   8.4982E-05  0.0146
   7.7568E-01   7.9455E-01   8.2577E-05  0.0146
   7.9455E-01   8.1388E-01   8.3903E-05  0.0143
   8.1388E-01   8.3368E-01   8.0681E-05  0.0144
   8.3368E-01   8.5397E-01   8.1276E-05  0.0142
   8.5397E-01   8.7475E-01   8.0657E-05  0.0141
   8.7475E-01   8.9603E-01   7.9432E-05  0.0140
   8.9603E-01   9.1783E-01   7.9771E-05  0.0138
   9.1783E-01   9.4016E-01   7.7900E-05  0.0138
   9.4016E-01   9.6304E-01   7.7338E-05  0.0137
   9.6304E-01   9.8647E-01   7.8447E-05  0.0134
   9.8647E-01   1.0105E+00   7.6811E-05  0.0134
   1.0105E+00   1.0351E+00   7.7374E-05  0.0132
   1.0351E+00   1.0602E+00   7.6218E-05  0.0132
   1.0602E+00   1.0860E+00   7.5460E-05  0.0131
   1.0860E+00   1.1125E+00   7.4252E-05  0.0130
   1.1125E+00   1.1395E+00   7.3835E-05  0.0129
   1.1395E+00   1.1673E+00   7.0545E-05  0.0130
   1.1673E+00   1.1957E+00   7.1642E-05  0.0128
   1.1957E+00   1.2247E+00   7.1479E-05  0.0126
   1.2247E+00   1.2545E+00   6.9624E-05  0.0127
   1.2545E+00   1.2851E+00   7.0388E-05  0.0124
   1.2851E+00   1.3163E+00   6.7890E-05  0.0125
   1.3163E+00   1.3484E+00   6.6062E-05  0.0125
   1.3484E+00   1.3812E+00   6.4729E-05  0.0125
   1.3812E+00   1.4148E+00   6.3578E-05  0.0125
   1.4148E+00   1.4492E+00   6.3223E-05  0.0124
   1.4492E+00   1.4845E+00   6.3036E-05  0.0122
   1.4845E+00   1.5206E+00   6.1042E-05  0.0123
   1.5206E+00   1.5576E+00   5.8099E-05  0.0124
   1.5576E+00   1.5955E+00   5.6869E-05  0.0124
   1.5955E+00   1.6343E+00   5.8612E-05  0.0121
   1.6343E+00   1.6741E+00   5.6488E-05  0.0122
   1.6741E+00   1.7148E+00   5.5219E-05  0.0121
   1.7148E+00   1.7565E+00   5.2492E-05  0.0123
   1.7565E+00   1.7992E+00   5.1584E-05  0.0123
   1.7992E+00   1.8430E+00   5.0976E-05  0.0122
   1.8430E+00   1.8879E+00   5.0189E-05  0.0121
   1.8879E+00   1.9338E+00   5.1257E-05  0.0119
   1.9338E+00   1.9808E+00   4.9862E-05  0.0119
   1.9808E+00   2.0290E+00   4.9720E-05  0.0118
   2.0290E+00   2.0784E+00   4.8257E-05  0.0118
   2.0784E+00   2.1290E+00   4.9092E-05  0.0116
   2.1290E+00   2.1808E+00   4.8420E-05  0.0115
   2.1808E+00   2.2338E+00   4.9147E-05  0.0113
   2.2338E+00   2.2882E+00   4.7833E-05  0.0113
   2.2882E+00   2.3439E+00   4.8233E-05  0.0111
   2.3439E+00   2.4009E+00   4.8245E-05  0.0110
   2.4009E+00   2.4593E+00   4.6472E-05  0.0111
   2.4593E+00   2.5191E+00   4.7085E-05  0.0108
   2.5191E+00   2.5804E+00   4.7866E-05  0.0106
   2.5804E+00   2.6432E+00   4.6279E-05  0.0107
   2.6432E+00   2.7075E+00   4.6116E-05  0.0106
   2.7075E+00   2.7734E+00   4.5700E-05  0.0105
   2.7734E+00   2.8409E+00   4.6128E-05  0.0103
   2.8409E+00   2.9100E+00   4.5488E-05  0.0103
   2.9100E+00   2.9808E+00   4.4931E-05  0.0102
   2.9808E+00   3.0533E+00   4.4781E-05  0.0101
   3.0533E+00   3.1276E+00   4.3877E-05  0.0101
   3.1276E+00   3.2037E+00   4.2937E-05  0.0101
   3.2037E+00   3.2817E+00   4.2627E-05  0.0100
   3.2817E+00   3.3615E+00   4.2193E-05  0.0099
   3.3615E+00   3.4433E+00   4.1063E-05  0.0099
   3.4433E+00   3.5271E+00   4.1274E-05  0.0098
   3.5271E+00   3.6129E+00   4.0221E-05  0.0098
   3.6129E+00   3.7008E+00   3.9908E-05  0.0097
   3.7008E+00   3.7908E+00   3.7958E-05  0.0099
   3.7908E+00   3.8831E+00   3.5510E-05  0.0101
   3.8831E+00   3.9776E+00   3.3596E-05  0.0102
   3.9776E+00   4.0743E+00   3.1288E-05  0.0105
   4.0743E+00   4.1735E+00   2.9524E-05  0.0107
   4.1735E+00   4.2750E+00   2.9307E-05  0.0106
   4.2750E+00   4.3790E+00   2.8486E-05  0.0106
   4.3790E+00   4.4856E+00   2.8441E-05  0.0105
   4.4856E+00   4.5947E+00   2.7878E-05  0.0104
   4.5947E+00   4.7065E+00   2.7611E-05  0.0104
   4.7065E+00   4.8210E+00   2.7698E-05  0.0102
   4.8210E+00   4.9383E+00   2.6377E-05  0.0104
   4.9383E+00   5.0585E+00   2.5893E-05  0.0103
   5.0585E+00   5.1815E+00   2.5817E-05  0.0102
   5.1815E+00   5.3076E+00   2.5316E-05  0.0102
   5.3076E+00   5.4368E+00   2.4875E-05  0.0102
   5.4368E+00   5.5690E+00   2.4393E-05  0.0101
   5.5690E+00   5.7045E+00   2.4009E-05  0.0101
   5.7045E+00   5.8433E+00   2.3564E-05  0.0101
   5.8433E+00   5.9855E+00   2.2892E-05  0.0101
   5.9855E+00   6.1311E+00   2.2509E-05  0.0101
   6.1311E+00   6.2803E+00   2.1958E-05  0.0101
   6.2803E+00   6.4331E+00   2.1321E-05  0.0101
   6.4331E+00   6.5896E+00   2.1063E-05  0.0100
   6.5896E+00   6.7500E+00   2.0721E-05  0.0100
   6.7500E+00   6.9142E+00   1.9890E-05  0.0101
   6.9142E+00   7.0824E+00   1.9982E-05  0.0099
   7.0824E+00   7.2548E+00   1.8717E-05  0.0102
   7.2548E+00   7.4313E+00   1.8266E-05  0.0102
   7.4313E+00   7.6121E+00   1.7713E-05  0.0102
   7.6121E+00   7.7973E+00   1.7568E-05  0.0101
   7.7973E+00   7.9870E+00   1.6953E-05  0.0102
   7.9870E+00   8.1813E+00   1.6257E-05  0.0103
   8.1813E+00   8.3804E+00   1.5636E-05  0.0103
   8.3804E+00   8.5843E+00   1.4749E-05  0.0105
   8.5843E+00   8.7931E+00   1.4292E-05  0.0106
   8.7931E+00   9.0071E+00   1.3980E-05  0.0106
   9.0071E+00   9.2262E+00   1.3495E-05  0.0106
   9.2262E+00   9.4507E+00   1.2705E-05  0.0108
   9.4507E+00   9.6807E+00   1.2303E-05  0.0108
   9.6807E+00   9.9162E+00   1.1678E-05  0.0110
   9.9162E+00   1.0157E+01   1.1256E-05  0.0111
   1.0157E+01   1.0405E+01   1.0890E-05  0.0111
   1.0405E+01   1.0658E+01   1.0593E-05  0.0111
   1.0658E+01   1.0917E+01   1.0028E-05  0.0113
   1.0917E+01   1.1183E+01   9.7309E-06  0.0114
   1.1183E+01   1.1455E+01   9.3566E-06  0.0114
   1.1455E+01   1.1733E+01   8.8663E-06  0.0116
   1.1733E+01   1.2019E+01   8.5538E-06  0.0117
   1.2019E+01   1.2311E+01   8.0503E-06  0.0119
   1.2311E+01   1.2611E+01   7.6084E-06  0.0121
   1.2611E+01   1.2918E+01   7.3418E-06  0.0122
   1.2918E+01   1.3232E+01   7.1597E-06  0.0122
   1.3232E+01   1.3554E+01   6.8997E-06  0.0122
   1.3554E+01   1.3884E+01   6.6763E-06  0.0123
   1.3884E+01   1.4222E+01   6.4374E-06  0.0124
   1.4222E+01   1.4568E+01   6.0505E-06  0.0126
   1.4568E+01   1.4922E+01   5.7898E-06  0.0127
   1.4922E+01   1.5285E+01   5.7191E-06  0.0127
   1.5285E+01   1.5657E+01   5.5205E-06  0.0127
   1.5657E+01   1.6038E+01   5.2688E-06  0.0129
   1.6038E+01   1.6428E+01   5.1669E-06  0.0129
   1.6428E+01   1.6828E+01   5.0858E-06  0.0128
   1.6828E+01   1.7237E+01   4.8323E-06  0.0130
   1.7237E+01   1.7657E+01   4.6870E-06  0.0130
   1.7657E+01   1.8086E+01   4.3949E-06  0.0133
   1.8086E+01   1.8526E+01   4.3085E-06  0.0133
   1.8526E+01   1.8977E+01   4.1226E-06  0.0134
   1.8977E+01   1.9439E+01   4.1012E-06  0.0133
   1.9439E+01   1.9912E+01   3.9658E-06  0.0133
   1.9912E+01   2.0396E+01   3.8647E-06  0.0133
   2.0396E+01   2.0893E+01   3.7695E-06  0.0133
   2.0893E+01   2.1401E+01   3.5725E-06  0.0135
   2.1401E+01   2.1922E+01   3.5580E-06  0.0134
   2.1922E+01   2.2455E+01   3.4323E-06  0.0135
   2.2455E+01   2.3001E+01   3.2104E-06  0.0138
   2.3001E+01   2.3561E+01   3.1508E-06  0.0137
   2.3561E+01   2.4134E+01   2.8568E-06  0.0143
   2.4134E+01   2.4721E+01   2.5789E-06  0.0148
   2.4721E+01   2.5323E+01   2.2494E-06  0.0157
   2.5323E+01   2.5939E+01   1.8984E-06  0.0169
   2.5939E+01   2.6570E+01   1.4477E-06  0.0191
   2.6570E+01   2.7217E+01   1.0555E-06  0.0221
   2.7217E+01   2.7879E+01   6.2116E-07  0.0285
   2.7879E+01   2.8557E+01   3.1205E-07  0.0397
   2.8557E+01   2.9252E+01   1.4824E-07  0.0569
   2.9252E+01   2.9964E+01   5.6202E-08  0.0913
   2.9964E+01   3.0693E+01   3.6578E-09  0.3536
   3.0693E+01   3.1440E+01   2.2318E-09  0.4472
   3.1440E+01   3.2205E+01   8.7152E-10  0.7071
   3.2205E+01   3.2988E+01   8.5082E-10  0.7071
   3.2988E+01   3.3791E+01   0.0000E+00  0.0000
   3.3791E+01   3.4613E+01   0.0000E+00  0.0000
   3.4613E+01   3.5455E+01   0.0000E+00  0.0000
   3.5455E+01   3.6318E+01   0.0000E+00  0.0000
   3.6318E+01   3.7201E+01   0.0000E+00  0.0000
   3.7201E+01   3.8106E+01   0.0000E+00  0.0000
   3.8106E+01   3.9034E+01   0.0000E+00  0.0000
   3.9034E+01   3.9983E+01   0.0000E+00  0.0000
   3.9983E+01   4.0956E+01   0.0000E+00  0.0000
   4.0956E+01   4.1953E+01   0.0000E+00  0.0000
   4.1953E+01   4.2973E+01   0.0000E+00  0.0000
   4.2973E+01   4.4019E+01   0.0000E+00  0.0000
   4.4019E+01   4.5090E+01   0.0000E+00  0.0000
   4.5090E+01   4.6187E+01   0.0000E+00  0.0000
   4.6187E+01   4.7311E+01   0.0000E+00  0.0000
   4.7311E+01   4.8462E+01   0.0000E+00  0.0000
   4.8462E+01   4.9641E+01   0.0000E+00  0.0000
   4.9641E+01   5.0849E+01   0.0000E+00  0.0000
   5.0849E+01   5.2086E+01   0.0000E+00  0.0000
   5.2086E+01   5.3353E+01   0.0000E+00  0.0000
   5.3353E+01   5.4651E+01   0.0000E+00  0.0000
   5.4651E+01   5.5981E+01   0.0000E+00  0.0000
   5.5981E+01   5.7343E+01   0.0000E+00  0.0000
   5.7343E+01   5.8738E+01   0.0000E+00  0.0000
   5.8738E+01   6.0168E+01   0.0000E+00  0.0000
   6.0168E+01   6.1632E+01   0.0000E+00  0.0000
   6.1632E+01   6.3131E+01   0.0000E+00  0.0000
   6.3131E+01   6.4667E+01   0.0000E+00  0.0000
   6.4667E+01   6.6240E+01   0.0000E+00  0.0000
   6.6240E+01   6.7852E+01   0.0000E+00  0.0000
   6.7852E+01   6.9503E+01   0.0000E+00  0.0000
   6.9503E+01   7.1194E+01   0.0000E+00  0.0000
   7.1194E+01   7.2926E+01   0.0000E+00  0.0000
   7.2926E+01   7.4701E+01   0.0000E+00  0.0000
   7.4701E+01   7.6518E+01   0.0000E+00  0.0000
   7.6518E+01   7.8380E+01   0.0000E+00  0.0000
   7.8380E+01   8.0287E+01   0.0000E+00  0.0000
   8.0287E+01   8.2240E+01   0.0000E+00  0.0000
   8.2240E+01   8.4241E+01   0.0000E+00  0.0000
   8.4241E+01   8.6291E+01   0.0000E+00  0.0000
   8.6291E+01   8.8391E+01   0.0000E+00  0.0000
   8.8391E+01   9.0541E+01   0.0000E+00  0.0000
   9.0541E+01   9.2744E+01   0.0000E+00  0.0000
   9.2744E+01   9.5001E+01   0.0000E+00  0.0000
   9.5001E+01   9.7312E+01   0.0000E+00  0.0000
   9.7312E+01   9.9680E+01   0.0000E+00  0.0000
   9.9680E+01   1.0211E+02   0.0000E+00  0.0000
   1.0211E+02   1.0459E+02   0.0000E+00  0.0000
   1.0459E+02   1.0713E+02   0.0000E+00  0.0000
   1.0713E+02   1.0974E+02   0.0000E+00  0.0000
   1.0974E+02   1.1241E+02   0.0000E+00  0.0000
   1.1241E+02   1.1515E+02   0.0000E+00  0.0000
   1.1515E+02   1.1795E+02   0.0000E+00  0.0000
   1.1795E+02   1.2082E+02   0.0000E+00  0.0000
   1.2082E+02   1.2376E+02   0.0000E+00  0.0000
   1.2376E+02   1.2677E+02   0.0000E+00  0.0000
   1.2677E+02   1.2985E+02   0.0000E+00  0.0000
   1.2985E+02   1.3301E+02   0.0000E+00  0.0000
   1.3301E+02   1.3625E+02   0.0000E+00  0.0000
   1.3625E+02   1.3956E+02   0.0000E+00  0.0000
   1.3956E+02   1.4296E+02   0.0000E+00  0.0000
   1.4296E+02   1.4644E+02   0.0000E+00  0.0000
   1.4644E+02   1.5000E+02   0.0000E+00  0.0000

#   sum over                 2.9208E-06
'no. =    1   reg = 117 - 217'
msuc: {\huge [t-cross] in region mesh}
msdr: {\it plotted by \ANGEL \version}
msdl: {\it calculated by \PHITS  3.26}
wt: s(0.7)
\vspace{-3}
  region surface crossing
  area  &=&   1.0000E+00 [cm^2]
e:
 
# Information for Restart Calculation
# This calculation was newly started
# istdev =  2 # 1:Batch variance, 2:History variance
# resc2  = 3.00000000000000000E+09 # Total source weight or Total source weight / maxcas
# resc3  = 3.00000000000000000E+09 # Total history number or Total batch number
# maxcas =   500000000 # History / Batch, only used for istdev=1
# bitrseed = 0110110011111001100110101011100000010010001000001101100100111101 # bit data of rseed
