[ T-Cross ]
    title = [t-cross] in region mesh
     mesh =  reg            # mesh type is region-wise
      reg =    1            # number of crossing regions
      non     r-from    r-to       area
      1       105       205        1.000000    
   e-type =    3            # e-mesh is log given by emin, emax and ne
     emin =  1.0000000E-02  # minimum value of e-mesh points
     emax =   150.0000      # maximum value of e-mesh points
#    edel =  2.4039514E-02  # mesh width of e-mesh points
       ne =    400          # number of e-mesh points
#    data = ( e(i), i = 1, ne + 1 )
#           1.00000E-02  1.02433E-02  1.04925E-02  1.07478E-02  1.10093E-02
#           1.12772E-02  1.15516E-02  1.18326E-02  1.21205E-02  1.24154E-02
#           1.27175E-02  1.30269E-02  1.33439E-02  1.36686E-02  1.40011E-02
#           1.43418E-02  1.46907E-02  1.50482E-02  1.54143E-02  1.57894E-02
#           1.61735E-02  1.65670E-02  1.69701E-02  1.73830E-02  1.78060E-02
#           1.82392E-02  1.86830E-02  1.91375E-02  1.96032E-02  2.00801E-02
#           2.05687E-02  2.10692E-02  2.15818E-02  2.21069E-02  2.26448E-02
#           2.31957E-02  2.37601E-02  2.43382E-02  2.49304E-02  2.55369E-02
#           2.61583E-02  2.67947E-02  2.74467E-02  2.81145E-02  2.87985E-02
#           2.94992E-02  3.02169E-02  3.09521E-02  3.17052E-02  3.24766E-02
#           3.32668E-02  3.40762E-02  3.49053E-02  3.57546E-02  3.66246E-02
#           3.75157E-02  3.84284E-02  3.93634E-02  4.03212E-02  4.13022E-02
#           4.23071E-02  4.33365E-02  4.43909E-02  4.54710E-02  4.65773E-02
#           4.77106E-02  4.88714E-02  5.00605E-02  5.12785E-02  5.25262E-02
#           5.38042E-02  5.51133E-02  5.64542E-02  5.78278E-02  5.92348E-02
#           6.06760E-02  6.21523E-02  6.36645E-02  6.52135E-02  6.68002E-02
#           6.84255E-02  7.00904E-02  7.17957E-02  7.35426E-02  7.53319E-02
#           7.71648E-02  7.90423E-02  8.09655E-02  8.29354E-02  8.49533E-02
#           8.70203E-02  8.91376E-02  9.13064E-02  9.35279E-02  9.58035E-02
#           9.81345E-02  1.00522E-01  1.02968E-01  1.05473E-01  1.08040E-01
#           1.10668E-01  1.13361E-01  1.16119E-01  1.18944E-01  1.21838E-01
#           1.24803E-01  1.27839E-01  1.30950E-01  1.34136E-01  1.37399E-01
#           1.40742E-01  1.44167E-01  1.47675E-01  1.51268E-01  1.54948E-01
#           1.58718E-01  1.62580E-01  1.66535E-01  1.70587E-01  1.74738E-01
#           1.78989E-01  1.83344E-01  1.87805E-01  1.92375E-01  1.97055E-01
#           2.01850E-01  2.06761E-01  2.11792E-01  2.16945E-01  2.22223E-01
#           2.27630E-01  2.33169E-01  2.38842E-01  2.44653E-01  2.50605E-01
#           2.56703E-01  2.62949E-01  2.69346E-01  2.75900E-01  2.82613E-01
#           2.89489E-01  2.96532E-01  3.03747E-01  3.11138E-01  3.18708E-01
#           3.26462E-01  3.34405E-01  3.42542E-01  3.50876E-01  3.59413E-01
#           3.68158E-01  3.77116E-01  3.86291E-01  3.95690E-01  4.05317E-01
#           4.15179E-01  4.25281E-01  4.35628E-01  4.46227E-01  4.57084E-01
#           4.68205E-01  4.79597E-01  4.91266E-01  5.03219E-01  5.15463E-01
#           5.28005E-01  5.40851E-01  5.54011E-01  5.67490E-01  5.81298E-01
#           5.95441E-01  6.09929E-01  6.24769E-01  6.39970E-01  6.55541E-01
#           6.71491E-01  6.87828E-01  7.04564E-01  7.21706E-01  7.39266E-01
#           7.57253E-01  7.75678E-01  7.94551E-01  8.13883E-01  8.33685E-01
#           8.53969E-01  8.74747E-01  8.96030E-01  9.17831E-01  9.40163E-01
#           9.63038E-01  9.86469E-01  1.01047E+00  1.03506E+00  1.06024E+00
#           1.08604E+00  1.11246E+00  1.13953E+00  1.16725E+00  1.19565E+00
#           1.22474E+00  1.25454E+00  1.28507E+00  1.31633E+00  1.34836E+00
#           1.38117E+00  1.41477E+00  1.44920E+00  1.48446E+00  1.52057E+00
#           1.55757E+00  1.59547E+00  1.63429E+00  1.67405E+00  1.71478E+00
#           1.75650E+00  1.79924E+00  1.84302E+00  1.88786E+00  1.93379E+00
#           1.98084E+00  2.02904E+00  2.07841E+00  2.12898E+00  2.18078E+00
#           2.23384E+00  2.28819E+00  2.34386E+00  2.40089E+00  2.45930E+00
#           2.51914E+00  2.58043E+00  2.64322E+00  2.70753E+00  2.77341E+00
#           2.84088E+00  2.91001E+00  2.98081E+00  3.05333E+00  3.12762E+00
#           3.20372E+00  3.28167E+00  3.36152E+00  3.44330E+00  3.52708E+00
#           3.61290E+00  3.70080E+00  3.79085E+00  3.88308E+00  3.97756E+00
#           4.07434E+00  4.17347E+00  4.27501E+00  4.37903E+00  4.48557E+00
#           4.59471E+00  4.70650E+00  4.82102E+00  4.93832E+00  5.05847E+00
#           5.18155E+00  5.30762E+00  5.43676E+00  5.56904E+00  5.70453E+00
#           5.84333E+00  5.98550E+00  6.13114E+00  6.28031E+00  6.43312E+00
#           6.58964E+00  6.74997E+00  6.91420E+00  7.08243E+00  7.25475E+00
#           7.43126E+00  7.61207E+00  7.79728E+00  7.98700E+00  8.18133E+00
#           8.38038E+00  8.58428E+00  8.79315E+00  9.00709E+00  9.22624E+00
#           9.45072E+00  9.68067E+00  9.91620E+00  1.01575E+01  1.04046E+01
#           1.06578E+01  1.09171E+01  1.11827E+01  1.14548E+01  1.17335E+01
#           1.20190E+01  1.23114E+01  1.26109E+01  1.29178E+01  1.32321E+01
#           1.35540E+01  1.38838E+01  1.42216E+01  1.45676E+01  1.49221E+01
#           1.52851E+01  1.56570E+01  1.60380E+01  1.64282E+01  1.68279E+01
#           1.72374E+01  1.76568E+01  1.80864E+01  1.85264E+01  1.89772E+01
#           1.94389E+01  1.99119E+01  2.03963E+01  2.08926E+01  2.14009E+01
#           2.19216E+01  2.24550E+01  2.30014E+01  2.35610E+01  2.41343E+01
#           2.47215E+01  2.53230E+01  2.59391E+01  2.65702E+01  2.72167E+01
#           2.78789E+01  2.85572E+01  2.92520E+01  2.99637E+01  3.06928E+01
#           3.14396E+01  3.22045E+01  3.29881E+01  3.37907E+01  3.46128E+01
#           3.54550E+01  3.63177E+01  3.72013E+01  3.81064E+01  3.90336E+01
#           3.99833E+01  4.09561E+01  4.19526E+01  4.29734E+01  4.40189E+01
#           4.50900E+01  4.61870E+01  4.73108E+01  4.84619E+01  4.96410E+01
#           5.08488E+01  5.20860E+01  5.33533E+01  5.46514E+01  5.59812E+01
#           5.73432E+01  5.87384E+01  6.01676E+01  6.16315E+01  6.31311E+01
#           6.46671E+01  6.62405E+01  6.78522E+01  6.95031E+01  7.11941E+01
#           7.29263E+01  7.47007E+01  7.65182E+01  7.83800E+01  8.02870E+01
#           8.22405E+01  8.42414E+01  8.62911E+01  8.83906E+01  9.05412E+01
#           9.27442E+01  9.50007E+01  9.73122E+01  9.96799E+01  1.02105E+02
#           1.04589E+02  1.07134E+02  1.09741E+02  1.12411E+02  1.15146E+02
#           1.17948E+02  1.20817E+02  1.23757E+02  1.26768E+02  1.29852E+02
#           1.33012E+02  1.36248E+02  1.39563E+02  1.42959E+02  1.46437E+02
#           1.50000E+02
     unit =    2            # unit is [1/cm^2/(MeV/n)/source]
     axis =  eng            # axis of output
     file = detector-06.out  # file name of output for the above axis
   output = f-curr          # surface crossing forward current spectrum
     part =  neutron  
# kf/name :  2112     
#    used :        main (  %)        temp (  %)       total (  %)
#  memory :         414 (  0)           0 (  0)         414 (  0)

#------------------------------------------------------------------------------
#newpage:
#   no. =    1   reg = 105 - 205

x: Energy [MeV/n]
y:  F-Curr [1/cm^2/(MeV/n)/source]         
p: xlog ylog afac(0.8) form(0.9)
h: n            x            y(neutron ),hh0l   n 
#  e-lower      e-upper      neutron     r.err 
   1.0000E-02   1.0243E-02   3.4250E-05  0.2000
   1.0243E-02   1.0493E-02   1.4975E-05  0.2967
   1.0493E-02   1.0748E-02   1.9585E-05  0.2582
   1.0748E-02   1.1009E-02   1.9120E-05  0.2582
   1.1009E-02   1.1277E-02   2.3644E-05  0.2294
   1.1277E-02   1.1552E-02   1.7008E-05  0.2673
   1.1552E-02   1.1833E-02   2.4906E-05  0.2182
   1.1833E-02   1.2121E-02   1.4107E-05  0.2847
   1.2121E-02   1.2415E-02   2.7128E-05  0.2041
   1.2415E-02   1.2718E-02   3.0897E-05  0.1890
   1.2718E-02   1.3027E-02   2.4777E-05  0.2085
   1.3027E-02   1.3344E-02   3.1550E-05  0.1826
   1.3344E-02   1.3669E-02   2.4641E-05  0.2041
   1.3669E-02   1.4001E-02   2.1048E-05  0.2182
   1.4001E-02   1.4342E-02   2.6419E-05  0.1925
   1.4342E-02   1.4691E-02   1.6376E-05  0.2407
   1.4691E-02   1.5048E-02   2.5179E-05  0.1925
   1.5048E-02   1.5414E-02   1.7298E-05  0.2294
   1.5414E-02   1.5789E-02   2.4154E-05  0.1913
   1.5789E-02   1.6174E-02   2.2560E-05  0.1961
   1.6174E-02   1.6567E-02   2.2024E-05  0.1961
   1.6567E-02   1.6970E-02   2.6462E-05  0.1768
   1.6970E-02   1.7383E-02   2.4219E-05  0.1826
   1.7383E-02   1.7806E-02   2.2856E-05  0.1857
   1.7806E-02   1.8239E-02   2.3852E-05  0.1796
   1.8239E-02   1.8683E-02   2.1940E-05  0.1845
   1.8683E-02   1.9138E-02   3.0798E-05  0.1543
   1.9138E-02   1.9603E-02   2.0889E-05  0.1847
   1.9603E-02   2.0080E-02   2.2364E-05  0.1768
   2.0080E-02   2.0569E-02   2.7973E-05  0.1562
   2.0569E-02   2.1069E-02   2.6643E-05  0.1581
   2.1069E-02   2.1582E-02   3.3920E-05  0.1383
   2.1582E-02   2.2107E-02   2.0948E-05  0.1741
   2.2107E-02   2.2645E-02   2.9747E-05  0.1443
   2.2645E-02   2.3196E-02   2.2990E-05  0.1622
   2.3196E-02   2.3760E-02   2.4806E-05  0.1543
   2.3760E-02   2.4338E-02   2.3064E-05  0.1581
   2.4338E-02   2.4930E-02   2.9271E-05  0.1387
   2.4930E-02   2.5537E-02   3.4346E-05  0.1262
   2.5537E-02   2.6158E-02   2.8433E-05  0.1374
   2.6158E-02   2.6795E-02   3.2995E-05  0.1260
   2.6795E-02   2.7447E-02   2.4626E-05  0.1439
   2.7447E-02   2.8114E-02   2.8105E-05  0.1330
   2.8114E-02   2.8799E-02   2.2416E-05  0.1474
   2.8799E-02   2.9499E-02   2.8068E-05  0.1302
   2.9499E-02   3.0217E-02   2.9723E-05  0.1250
   3.0217E-02   3.0952E-02   2.3123E-05  0.1400
   3.0952E-02   3.1705E-02   2.7664E-05  0.1262
   3.1705E-02   3.2477E-02   2.7223E-05  0.1260
   3.2477E-02   3.3267E-02   2.5732E-05  0.1280
   3.3267E-02   3.4076E-02   2.8057E-05  0.1211
   3.4076E-02   3.4905E-02   2.8000E-05  0.1195
   3.4905E-02   3.5755E-02   3.2969E-05  0.1091
   3.5755E-02   3.6625E-02   3.1228E-05  0.1106
   3.6625E-02   3.7516E-02   3.1095E-05  0.1096
   3.7516E-02   3.8428E-02   2.9215E-05  0.1118
   3.8428E-02   3.9363E-02   2.8877E-05  0.1111
   3.9363E-02   4.0321E-02   3.2716E-05  0.1031
   4.0321E-02   4.1302E-02   3.3977E-05  0.1000
   4.1302E-02   4.2307E-02   3.2175E-05  0.1015
   4.2307E-02   4.3337E-02   3.0487E-05  0.1030
   4.3337E-02   4.4391E-02   3.2562E-05  0.0985
   4.4391E-02   4.5471E-02   3.0907E-05  0.0999
   4.5471E-02   4.6577E-02   3.0188E-05  0.0998
   4.6577E-02   4.7711E-02   3.5198E-05  0.0913
   4.7711E-02   4.8871E-02   3.2602E-05  0.0937
   4.8871E-02   5.0061E-02   2.9612E-05  0.0971
   5.0061E-02   5.1279E-02   3.2073E-05  0.0923
   5.1279E-02   5.2526E-02   2.9264E-05  0.0954
   5.2526E-02   5.3804E-02   3.2640E-05  0.0893
   5.3804E-02   5.5113E-02   3.2629E-05  0.0883
   5.5113E-02   5.6454E-02   2.8090E-05  0.0941
   5.6454E-02   5.7828E-02   2.7948E-05  0.0931
   5.7828E-02   5.9235E-02   2.8709E-05  0.0908
   5.9235E-02   6.0676E-02   3.3584E-05  0.0829
   6.0676E-02   6.2152E-02   2.9649E-05  0.0872
   6.2152E-02   6.3665E-02   3.2403E-05  0.0825
   6.3665E-02   6.5214E-02   3.6583E-05  0.0767
   6.5214E-02   6.6800E-02   2.8991E-05  0.0851
   6.6800E-02   6.8426E-02   3.1174E-05  0.0811
   6.8426E-02   7.0090E-02   3.5091E-05  0.0755
   7.0090E-02   7.1796E-02   2.8733E-05  0.0825
   7.1796E-02   7.3543E-02   3.3236E-05  0.0757
   7.3543E-02   7.5332E-02   2.9482E-05  0.0794
   7.5332E-02   7.7165E-02   3.0371E-05  0.0774
   7.7165E-02   7.9042E-02   3.0264E-05  0.0765
   7.9042E-02   8.0965E-02   3.1199E-05  0.0745
   8.0965E-02   8.2935E-02   3.0143E-05  0.0749
   8.2935E-02   8.4953E-02   3.0089E-05  0.0741
   8.4953E-02   8.7020E-02   3.1474E-05  0.0716
   8.7020E-02   8.9138E-02   3.3560E-05  0.0685
   8.9138E-02   9.1306E-02   3.1815E-05  0.0695
   9.1306E-02   9.3528E-02   3.0183E-05  0.0705
   9.3528E-02   9.5804E-02   3.3355E-05  0.0662
   9.5804E-02   9.8134E-02   2.8886E-05  0.0704
   9.8134E-02   1.0052E-01   3.3086E-05  0.0650
   1.0052E-01   1.0297E-01   3.0052E-05  0.0673
   1.0297E-01   1.0547E-01   2.9138E-05  0.0676
   1.0547E-01   1.0804E-01   3.4032E-05  0.0618
   1.0804E-01   1.1067E-01   2.9356E-05  0.0657
   1.1067E-01   1.1336E-01   2.9010E-05  0.0653
   1.1336E-01   1.1612E-01   3.0818E-05  0.0626
   1.1612E-01   1.1894E-01   2.9633E-05  0.0631
   1.1894E-01   1.2184E-01   3.1252E-05  0.0607
   1.2184E-01   1.2480E-01   3.0922E-05  0.0603
   1.2480E-01   1.2784E-01   3.2230E-05  0.0583
   1.2784E-01   1.3095E-01   2.9110E-05  0.0606
   1.3095E-01   1.3414E-01   2.9051E-05  0.0600
   1.3414E-01   1.3740E-01   2.7270E-05  0.0612
   1.3740E-01   1.4074E-01   2.8866E-05  0.0587
   1.4074E-01   1.4417E-01   2.5086E-05  0.0622
   1.4417E-01   1.4767E-01   2.5973E-05  0.0605
   1.4767E-01   1.5127E-01   2.6162E-05  0.0595
   1.5127E-01   1.5495E-01   2.7363E-05  0.0575
   1.5495E-01   1.5872E-01   3.1240E-05  0.0531
   1.5872E-01   1.6258E-01   2.8312E-05  0.0552
   1.6258E-01   1.6654E-01   2.3591E-05  0.0597
   1.6654E-01   1.7059E-01   2.5760E-05  0.0565
   1.7059E-01   1.7474E-01   2.6101E-05  0.0555
   1.7474E-01   1.7899E-01   2.5011E-05  0.0560
   1.7899E-01   1.8334E-01   2.4007E-05  0.0564
   1.8334E-01   1.8781E-01   2.6377E-05  0.0532
   1.8781E-01   1.9237E-01   2.1155E-05  0.0587
   1.9237E-01   1.9706E-01   2.2575E-05  0.0562
   1.9706E-01   2.0185E-01   1.9826E-05  0.0592
   2.0185E-01   2.0676E-01   2.3304E-05  0.0539
   2.0676E-01   2.1179E-01   2.3510E-05  0.0530
   2.1179E-01   2.1694E-01   2.2865E-05  0.0532
   2.1694E-01   2.2222E-01   2.2996E-05  0.0524
   2.2222E-01   2.2763E-01   2.4624E-05  0.0500
   2.2763E-01   2.3317E-01   2.4586E-05  0.0495
   2.3317E-01   2.3884E-01   2.2042E-05  0.0516
   2.3884E-01   2.4465E-01   2.2456E-05  0.0505
   2.4465E-01   2.5061E-01   2.4641E-05  0.0476
   2.5061E-01   2.5670E-01   2.5147E-05  0.0466
   2.5670E-01   2.6295E-01   2.5599E-05  0.0456
   2.6295E-01   2.6935E-01   2.6216E-05  0.0446
   2.6935E-01   2.7590E-01   2.6464E-05  0.0438
   2.7590E-01   2.8261E-01   2.6209E-05  0.0435
   2.8261E-01   2.8949E-01   2.4487E-05  0.0445
   2.8949E-01   2.9653E-01   2.6738E-05  0.0420
   2.9653E-01   3.0375E-01   2.6750E-05  0.0416
   3.0375E-01   3.1114E-01   2.6558E-05  0.0412
   3.1114E-01   3.1871E-01   2.7498E-05  0.0400
   3.1871E-01   3.2646E-01   2.8506E-05  0.0388
   3.2646E-01   3.3441E-01   2.6004E-05  0.0401
   3.3441E-01   3.4254E-01   2.5928E-05  0.0397
   3.4254E-01   3.5088E-01   2.7677E-05  0.0380
   3.5088E-01   3.5941E-01   2.7773E-05  0.0375
   3.5941E-01   3.6816E-01   2.9634E-05  0.0358
   3.6816E-01   3.7712E-01   3.0111E-05  0.0352
   3.7712E-01   3.8629E-01   2.8177E-05  0.0359
   3.8629E-01   3.9569E-01   2.7831E-05  0.0357
   3.9569E-01   4.0532E-01   2.9833E-05  0.0340
   4.0532E-01   4.1518E-01   2.9091E-05  0.0341
   4.1518E-01   4.2528E-01   2.9142E-05  0.0336
   4.2528E-01   4.3563E-01   2.9808E-05  0.0329
   4.3563E-01   4.4623E-01   2.9635E-05  0.0326
   4.4623E-01   4.5708E-01   3.0557E-05  0.0317
   4.5708E-01   4.6821E-01   3.0332E-05  0.0314
   4.6821E-01   4.7960E-01   2.7484E-05  0.0326
   4.7960E-01   4.9127E-01   2.9052E-05  0.0313
   4.9127E-01   5.0322E-01   3.0304E-05  0.0303
   5.0322E-01   5.1546E-01   3.0887E-05  0.0297
   5.1546E-01   5.2800E-01   3.0723E-05  0.0294
   5.2800E-01   5.4085E-01   3.0723E-05  0.0290
   5.4085E-01   5.5401E-01   3.0108E-05  0.0290
   5.5401E-01   5.6749E-01   3.2080E-05  0.0277
   5.6749E-01   5.8130E-01   3.1465E-05  0.0277
   5.8130E-01   5.9544E-01   3.0125E-05  0.0280
   5.9544E-01   6.0993E-01   3.2629E-05  0.0265
   6.0993E-01   6.2477E-01   3.2378E-05  0.0263
   6.2477E-01   6.3997E-01   3.2965E-05  0.0258
   6.3997E-01   6.5554E-01   3.2423E-05  0.0257
   6.5554E-01   6.7149E-01   3.2953E-05  0.0252
   6.7149E-01   6.8783E-01   3.2414E-05  0.0251
   6.8783E-01   7.0456E-01   3.1721E-05  0.0250
   7.0456E-01   7.2171E-01   3.2390E-05  0.0245
   7.2171E-01   7.3927E-01   3.3404E-05  0.0238
   7.3927E-01   7.5725E-01   3.2573E-05  0.0238
   7.5725E-01   7.7568E-01   3.4765E-05  0.0228
   7.7568E-01   7.9455E-01   3.4172E-05  0.0227
   7.9455E-01   8.1388E-01   3.3535E-05  0.0227
   8.1388E-01   8.3368E-01   3.4947E-05  0.0219
   8.3368E-01   8.5397E-01   3.5165E-05  0.0216
   8.5397E-01   8.7475E-01   3.5153E-05  0.0214
   8.7475E-01   8.9603E-01   3.5049E-05  0.0211
   8.9603E-01   9.1783E-01   3.5946E-05  0.0206
   9.1783E-01   9.4016E-01   3.4281E-05  0.0209
   9.4016E-01   9.6304E-01   3.6081E-05  0.0201
   9.6304E-01   9.8647E-01   3.6256E-05  0.0198
   9.8647E-01   1.0105E+00   3.6475E-05  0.0195
   1.0105E+00   1.0351E+00   3.5742E-05  0.0195
   1.0351E+00   1.0602E+00   3.7781E-05  0.0187
   1.0602E+00   1.0860E+00   3.7329E-05  0.0186
   1.0860E+00   1.1125E+00   3.8700E-05  0.0180
   1.1125E+00   1.1395E+00   3.8893E-05  0.0178
   1.1395E+00   1.1673E+00   3.9026E-05  0.0175
   1.1673E+00   1.1957E+00   3.9015E-05  0.0173
   1.1957E+00   1.2247E+00   3.9473E-05  0.0170
   1.2247E+00   1.2545E+00   3.9880E-05  0.0167
   1.2545E+00   1.2851E+00   3.9795E-05  0.0166
   1.2851E+00   1.3163E+00   3.9679E-05  0.0164
   1.3163E+00   1.3484E+00   4.0197E-05  0.0161
   1.3484E+00   1.3812E+00   3.8327E-05  0.0163
   1.3812E+00   1.4148E+00   3.9801E-05  0.0158
   1.4148E+00   1.4492E+00   3.9162E-05  0.0157
   1.4492E+00   1.4845E+00   4.0728E-05  0.0152
   1.4845E+00   1.5206E+00   3.9259E-05  0.0153
   1.5206E+00   1.5576E+00   3.9226E-05  0.0152
   1.5576E+00   1.5955E+00   3.9872E-05  0.0148
   1.5955E+00   1.6343E+00   3.9608E-05  0.0147
   1.6343E+00   1.6741E+00   4.0092E-05  0.0145
   1.6741E+00   1.7148E+00   4.0724E-05  0.0142
   1.7148E+00   1.7565E+00   4.0607E-05  0.0140
   1.7565E+00   1.7992E+00   3.9912E-05  0.0140
   1.7992E+00   1.8430E+00   4.0939E-05  0.0136
   1.8430E+00   1.8879E+00   3.9919E-05  0.0136
   1.8879E+00   1.9338E+00   4.0495E-05  0.0134
   1.9338E+00   1.9808E+00   4.0479E-05  0.0132
   1.9808E+00   2.0290E+00   3.9399E-05  0.0132
   2.0290E+00   2.0784E+00   4.1154E-05  0.0128
   2.0784E+00   2.1290E+00   4.0744E-05  0.0127
   2.1290E+00   2.1808E+00   4.0467E-05  0.0126
   2.1808E+00   2.2338E+00   3.9968E-05  0.0125
   2.2338E+00   2.2882E+00   4.0674E-05  0.0123
   2.2882E+00   2.3439E+00   4.0369E-05  0.0122
   2.3439E+00   2.4009E+00   3.9855E-05  0.0121
   2.4009E+00   2.4593E+00   4.0184E-05  0.0119
   2.4593E+00   2.5191E+00   4.0853E-05  0.0117
   2.5191E+00   2.5804E+00   3.9690E-05  0.0117
   2.5804E+00   2.6432E+00   4.0725E-05  0.0114
   2.6432E+00   2.7075E+00   4.0644E-05  0.0113
   2.7075E+00   2.7734E+00   3.9807E-05  0.0113
   2.7734E+00   2.8409E+00   4.0277E-05  0.0111
   2.8409E+00   2.9100E+00   3.9804E-05  0.0110
   2.9100E+00   2.9808E+00   4.0585E-05  0.0108
   2.9808E+00   3.0533E+00   3.9316E-05  0.0108
   3.0533E+00   3.1276E+00   3.9255E-05  0.0107
   3.1276E+00   3.2037E+00   3.9365E-05  0.0105
   3.2037E+00   3.2817E+00   3.9590E-05  0.0104
   3.2817E+00   3.3615E+00   4.0029E-05  0.0102
   3.3615E+00   3.4433E+00   3.9374E-05  0.0102
   3.4433E+00   3.5271E+00   3.9567E-05  0.0100
   3.5271E+00   3.6129E+00   4.0544E-05  0.0098
   3.6129E+00   3.7008E+00   4.0608E-05  0.0097
   3.7008E+00   3.7908E+00   4.1077E-05  0.0095
   3.7908E+00   3.8831E+00   4.0300E-05  0.0095
   3.8831E+00   3.9776E+00   4.0877E-05  0.0093
   3.9776E+00   4.0743E+00   4.1302E-05  0.0091
   4.0743E+00   4.1735E+00   4.1224E-05  0.0090
   4.1735E+00   4.2750E+00   4.1264E-05  0.0089
   4.2750E+00   4.3790E+00   4.0577E-05  0.0089
   4.3790E+00   4.4856E+00   4.1465E-05  0.0087
   4.4856E+00   4.5947E+00   4.0844E-05  0.0086
   4.5947E+00   4.7065E+00   4.0961E-05  0.0085
   4.7065E+00   4.8210E+00   4.0864E-05  0.0084
   4.8210E+00   4.9383E+00   4.1283E-05  0.0083
   4.9383E+00   5.0585E+00   4.0015E-05  0.0083
   5.0585E+00   5.1815E+00   4.0474E-05  0.0082
   5.1815E+00   5.3076E+00   4.0082E-05  0.0081
   5.3076E+00   5.4368E+00   4.0513E-05  0.0080
   5.4368E+00   5.5690E+00   3.9803E-05  0.0080
   5.5690E+00   5.7045E+00   4.0019E-05  0.0078
   5.7045E+00   5.8433E+00   4.0039E-05  0.0077
   5.8433E+00   5.9855E+00   3.9785E-05  0.0077
   5.9855E+00   6.1311E+00   4.0135E-05  0.0076
   6.1311E+00   6.2803E+00   4.0069E-05  0.0075
   6.2803E+00   6.4331E+00   3.9828E-05  0.0074
   6.4331E+00   6.5896E+00   4.0398E-05  0.0073
   6.5896E+00   6.7500E+00   4.0255E-05  0.0072
   6.7500E+00   6.9142E+00   4.0641E-05  0.0071
   6.9142E+00   7.0824E+00   4.1243E-05  0.0069
   7.0824E+00   7.2548E+00   4.0662E-05  0.0069
   7.2548E+00   7.4313E+00   4.1030E-05  0.0068
   7.4313E+00   7.6121E+00   4.1365E-05  0.0067
   7.6121E+00   7.7973E+00   4.1742E-05  0.0066
   7.7973E+00   7.9870E+00   4.1471E-05  0.0065
   7.9870E+00   8.1813E+00   4.2070E-05  0.0064
   8.1813E+00   8.3804E+00   4.2192E-05  0.0063
   8.3804E+00   8.5843E+00   4.2760E-05  0.0062
   8.5843E+00   8.7931E+00   4.3206E-05  0.0061
   8.7931E+00   9.0071E+00   4.3593E-05  0.0060
   9.0071E+00   9.2262E+00   4.3722E-05  0.0059
   9.2262E+00   9.4507E+00   4.4697E-05  0.0058
   9.4507E+00   9.6807E+00   4.4752E-05  0.0057
   9.6807E+00   9.9162E+00   4.5303E-05  0.0056
   9.9162E+00   1.0157E+01   4.5641E-05  0.0055
   1.0157E+01   1.0405E+01   4.5824E-05  0.0054
   1.0405E+01   1.0658E+01   4.6294E-05  0.0053
   1.0658E+01   1.0917E+01   4.6392E-05  0.0053
   1.0917E+01   1.1183E+01   4.6815E-05  0.0052
   1.1183E+01   1.1455E+01   4.6795E-05  0.0051
   1.1455E+01   1.1733E+01   4.6798E-05  0.0051
   1.1733E+01   1.2019E+01   4.5833E-05  0.0050
   1.2019E+01   1.2311E+01   4.4800E-05  0.0050
   1.2311E+01   1.2611E+01   4.4048E-05  0.0050
   1.2611E+01   1.2918E+01   4.3974E-05  0.0050
   1.2918E+01   1.3232E+01   4.3054E-05  0.0050
   1.3232E+01   1.3554E+01   4.2090E-05  0.0050
   1.3554E+01   1.3884E+01   4.1990E-05  0.0049
   1.3884E+01   1.4222E+01   4.0826E-05  0.0049
   1.4222E+01   1.4568E+01   4.0105E-05  0.0049
   1.4568E+01   1.4922E+01   3.8856E-05  0.0049
   1.4922E+01   1.5285E+01   3.7438E-05  0.0050
   1.5285E+01   1.5657E+01   3.6423E-05  0.0050
   1.5657E+01   1.6038E+01   3.4839E-05  0.0050
   1.6038E+01   1.6428E+01   3.3692E-05  0.0050
   1.6428E+01   1.6828E+01   3.2071E-05  0.0051
   1.6828E+01   1.7237E+01   3.0379E-05  0.0052
   1.7237E+01   1.7657E+01   2.9194E-05  0.0052
   1.7657E+01   1.8086E+01   2.7285E-05  0.0053
   1.8086E+01   1.8526E+01   2.5817E-05  0.0054
   1.8526E+01   1.8977E+01   2.4177E-05  0.0055
   1.8977E+01   1.9439E+01   2.2729E-05  0.0056
   1.9439E+01   1.9912E+01   2.1047E-05  0.0058
   1.9912E+01   2.0396E+01   1.9593E-05  0.0059
   2.0396E+01   2.0893E+01   1.8093E-05  0.0061
   2.0893E+01   2.1401E+01   1.6457E-05  0.0063
   2.1401E+01   2.1922E+01   1.5203E-05  0.0065
   2.1922E+01   2.2455E+01   1.3832E-05  0.0067
   2.2455E+01   2.3001E+01   1.2286E-05  0.0070
   2.3001E+01   2.3561E+01   1.1235E-05  0.0073
   2.3561E+01   2.4134E+01   9.9943E-06  0.0076
   2.4134E+01   2.4721E+01   8.5819E-06  0.0081
   2.4721E+01   2.5323E+01   7.4154E-06  0.0086
   2.5323E+01   2.5939E+01   6.2963E-06  0.0093
   2.5939E+01   2.6570E+01   5.3202E-06  0.0100
   2.6570E+01   2.7217E+01   4.3008E-06  0.0109
   2.7217E+01   2.7879E+01   3.5387E-06  0.0119
   2.7879E+01   2.8557E+01   2.8222E-06  0.0132
   2.8557E+01   2.9252E+01   2.1939E-06  0.0148
   2.9252E+01   2.9964E+01   1.7207E-06  0.0165
   2.9964E+01   3.0693E+01   1.3173E-06  0.0186
   3.0693E+01   3.1440E+01   1.1927E-06  0.0193
   3.1440E+01   3.2205E+01   1.0907E-06  0.0200
   3.2205E+01   3.2988E+01   1.0750E-06  0.0199
   3.2988E+01   3.3791E+01   1.0702E-06  0.0197
   3.3791E+01   3.4613E+01   1.0168E-06  0.0200
   3.4613E+01   3.5455E+01   1.0402E-06  0.0195
   3.5455E+01   3.6318E+01   1.0097E-06  0.0196
   3.6318E+01   3.7201E+01   9.3138E-07  0.0201
   3.7201E+01   3.8106E+01   1.0849E-06  0.0184
   3.8106E+01   3.9034E+01   1.5413E-06  0.0153
   3.9034E+01   3.9983E+01   2.4348E-06  0.0120
   3.9983E+01   4.0956E+01   2.9533E-06  0.0108
   4.0956E+01   4.1953E+01   3.0667E-06  0.0104
   4.1953E+01   4.2973E+01   3.7375E-06  0.0093
   4.2973E+01   4.4019E+01   3.8585E-06  0.0091
   4.4019E+01   4.5090E+01   3.3881E-06  0.0096
   4.5090E+01   4.6187E+01   2.1348E-06  0.0119
   4.6187E+01   4.7311E+01   1.2856E-06  0.0152
   4.7311E+01   4.8462E+01   9.7935E-07  0.0172
   4.8462E+01   4.9641E+01   6.2759E-08  0.0671
   4.9641E+01   5.0849E+01   0.0000E+00  0.0000
   5.0849E+01   5.2086E+01   0.0000E+00  0.0000
   5.2086E+01   5.3353E+01   0.0000E+00  0.0000
   5.3353E+01   5.4651E+01   0.0000E+00  0.0000
   5.4651E+01   5.5981E+01   0.0000E+00  0.0000
   5.5981E+01   5.7343E+01   0.0000E+00  0.0000
   5.7343E+01   5.8738E+01   0.0000E+00  0.0000
   5.8738E+01   6.0168E+01   0.0000E+00  0.0000
   6.0168E+01   6.1632E+01   0.0000E+00  0.0000
   6.1632E+01   6.3131E+01   0.0000E+00  0.0000
   6.3131E+01   6.4667E+01   0.0000E+00  0.0000
   6.4667E+01   6.6240E+01   0.0000E+00  0.0000
   6.6240E+01   6.7852E+01   0.0000E+00  0.0000
   6.7852E+01   6.9503E+01   0.0000E+00  0.0000
   6.9503E+01   7.1194E+01   0.0000E+00  0.0000
   7.1194E+01   7.2926E+01   0.0000E+00  0.0000
   7.2926E+01   7.4701E+01   0.0000E+00  0.0000
   7.4701E+01   7.6518E+01   0.0000E+00  0.0000
   7.6518E+01   7.8380E+01   0.0000E+00  0.0000
   7.8380E+01   8.0287E+01   0.0000E+00  0.0000
   8.0287E+01   8.2240E+01   0.0000E+00  0.0000
   8.2240E+01   8.4241E+01   0.0000E+00  0.0000
   8.4241E+01   8.6291E+01   0.0000E+00  0.0000
   8.6291E+01   8.8391E+01   0.0000E+00  0.0000
   8.8391E+01   9.0541E+01   0.0000E+00  0.0000
   9.0541E+01   9.2744E+01   0.0000E+00  0.0000
   9.2744E+01   9.5001E+01   0.0000E+00  0.0000
   9.5001E+01   9.7312E+01   0.0000E+00  0.0000
   9.7312E+01   9.9680E+01   0.0000E+00  0.0000
   9.9680E+01   1.0211E+02   0.0000E+00  0.0000
   1.0211E+02   1.0459E+02   0.0000E+00  0.0000
   1.0459E+02   1.0713E+02   0.0000E+00  0.0000
   1.0713E+02   1.0974E+02   0.0000E+00  0.0000
   1.0974E+02   1.1241E+02   0.0000E+00  0.0000
   1.1241E+02   1.1515E+02   0.0000E+00  0.0000
   1.1515E+02   1.1795E+02   0.0000E+00  0.0000
   1.1795E+02   1.2082E+02   0.0000E+00  0.0000
   1.2082E+02   1.2376E+02   0.0000E+00  0.0000
   1.2376E+02   1.2677E+02   0.0000E+00  0.0000
   1.2677E+02   1.2985E+02   0.0000E+00  0.0000
   1.2985E+02   1.3301E+02   0.0000E+00  0.0000
   1.3301E+02   1.3625E+02   0.0000E+00  0.0000
   1.3625E+02   1.3956E+02   0.0000E+00  0.0000
   1.3956E+02   1.4296E+02   0.0000E+00  0.0000
   1.4296E+02   1.4644E+02   0.0000E+00  0.0000
   1.4644E+02   1.5000E+02   0.0000E+00  0.0000

#   sum over                 5.8936E-06
'no. =    1   reg = 105 - 205'
msuc: {\huge [t-cross] in region mesh}
msdr: {\it plotted by \ANGEL \version}
msdl: {\it calculated by \PHITS  3.26}
wt: s(0.7)
\vspace{-3}
  region surface crossing
  area  &=&   1.0000E+00 [cm^2]
e:
 
# Information for Restart Calculation
# This calculation was newly started
# istdev =  2 # 1:Batch variance, 2:History variance
# resc2  = 3.00000000000000000E+09 # Total source weight or Total source weight / maxcas
# resc3  = 3.00000000000000000E+09 # Total history number or Total batch number
# maxcas =   500000000 # History / Batch, only used for istdev=1
# bitrseed = 0110110011111001100110101011100000010010001000001101100100111101 # bit data of rseed
