[ T-Cross ]
    title = [t-cross] in region mesh
     mesh =  reg            # mesh type is region-wise
      reg =    1            # number of crossing regions
      non     r-from    r-to       area
      1       110       210        1.000000    
   e-type =    3            # e-mesh is log given by emin, emax and ne
     emin =  1.0000000E-02  # minimum value of e-mesh points
     emax =   150.0000      # maximum value of e-mesh points
#    edel =  2.4039514E-02  # mesh width of e-mesh points
       ne =    400          # number of e-mesh points
#    data = ( e(i), i = 1, ne + 1 )
#           1.00000E-02  1.02433E-02  1.04925E-02  1.07478E-02  1.10093E-02
#           1.12772E-02  1.15516E-02  1.18326E-02  1.21205E-02  1.24154E-02
#           1.27175E-02  1.30269E-02  1.33439E-02  1.36686E-02  1.40011E-02
#           1.43418E-02  1.46907E-02  1.50482E-02  1.54143E-02  1.57894E-02
#           1.61735E-02  1.65670E-02  1.69701E-02  1.73830E-02  1.78060E-02
#           1.82392E-02  1.86830E-02  1.91375E-02  1.96032E-02  2.00801E-02
#           2.05687E-02  2.10692E-02  2.15818E-02  2.21069E-02  2.26448E-02
#           2.31957E-02  2.37601E-02  2.43382E-02  2.49304E-02  2.55369E-02
#           2.61583E-02  2.67947E-02  2.74467E-02  2.81145E-02  2.87985E-02
#           2.94992E-02  3.02169E-02  3.09521E-02  3.17052E-02  3.24766E-02
#           3.32668E-02  3.40762E-02  3.49053E-02  3.57546E-02  3.66246E-02
#           3.75157E-02  3.84284E-02  3.93634E-02  4.03212E-02  4.13022E-02
#           4.23071E-02  4.33365E-02  4.43909E-02  4.54710E-02  4.65773E-02
#           4.77106E-02  4.88714E-02  5.00605E-02  5.12785E-02  5.25262E-02
#           5.38042E-02  5.51133E-02  5.64542E-02  5.78278E-02  5.92348E-02
#           6.06760E-02  6.21523E-02  6.36645E-02  6.52135E-02  6.68002E-02
#           6.84255E-02  7.00904E-02  7.17957E-02  7.35426E-02  7.53319E-02
#           7.71648E-02  7.90423E-02  8.09655E-02  8.29354E-02  8.49533E-02
#           8.70203E-02  8.91376E-02  9.13064E-02  9.35279E-02  9.58035E-02
#           9.81345E-02  1.00522E-01  1.02968E-01  1.05473E-01  1.08040E-01
#           1.10668E-01  1.13361E-01  1.16119E-01  1.18944E-01  1.21838E-01
#           1.24803E-01  1.27839E-01  1.30950E-01  1.34136E-01  1.37399E-01
#           1.40742E-01  1.44167E-01  1.47675E-01  1.51268E-01  1.54948E-01
#           1.58718E-01  1.62580E-01  1.66535E-01  1.70587E-01  1.74738E-01
#           1.78989E-01  1.83344E-01  1.87805E-01  1.92375E-01  1.97055E-01
#           2.01850E-01  2.06761E-01  2.11792E-01  2.16945E-01  2.22223E-01
#           2.27630E-01  2.33169E-01  2.38842E-01  2.44653E-01  2.50605E-01
#           2.56703E-01  2.62949E-01  2.69346E-01  2.75900E-01  2.82613E-01
#           2.89489E-01  2.96532E-01  3.03747E-01  3.11138E-01  3.18708E-01
#           3.26462E-01  3.34405E-01  3.42542E-01  3.50876E-01  3.59413E-01
#           3.68158E-01  3.77116E-01  3.86291E-01  3.95690E-01  4.05317E-01
#           4.15179E-01  4.25281E-01  4.35628E-01  4.46227E-01  4.57084E-01
#           4.68205E-01  4.79597E-01  4.91266E-01  5.03219E-01  5.15463E-01
#           5.28005E-01  5.40851E-01  5.54011E-01  5.67490E-01  5.81298E-01
#           5.95441E-01  6.09929E-01  6.24769E-01  6.39970E-01  6.55541E-01
#           6.71491E-01  6.87828E-01  7.04564E-01  7.21706E-01  7.39266E-01
#           7.57253E-01  7.75678E-01  7.94551E-01  8.13883E-01  8.33685E-01
#           8.53969E-01  8.74747E-01  8.96030E-01  9.17831E-01  9.40163E-01
#           9.63038E-01  9.86469E-01  1.01047E+00  1.03506E+00  1.06024E+00
#           1.08604E+00  1.11246E+00  1.13953E+00  1.16725E+00  1.19565E+00
#           1.22474E+00  1.25454E+00  1.28507E+00  1.31633E+00  1.34836E+00
#           1.38117E+00  1.41477E+00  1.44920E+00  1.48446E+00  1.52057E+00
#           1.55757E+00  1.59547E+00  1.63429E+00  1.67405E+00  1.71478E+00
#           1.75650E+00  1.79924E+00  1.84302E+00  1.88786E+00  1.93379E+00
#           1.98084E+00  2.02904E+00  2.07841E+00  2.12898E+00  2.18078E+00
#           2.23384E+00  2.28819E+00  2.34386E+00  2.40089E+00  2.45930E+00
#           2.51914E+00  2.58043E+00  2.64322E+00  2.70753E+00  2.77341E+00
#           2.84088E+00  2.91001E+00  2.98081E+00  3.05333E+00  3.12762E+00
#           3.20372E+00  3.28167E+00  3.36152E+00  3.44330E+00  3.52708E+00
#           3.61290E+00  3.70080E+00  3.79085E+00  3.88308E+00  3.97756E+00
#           4.07434E+00  4.17347E+00  4.27501E+00  4.37903E+00  4.48557E+00
#           4.59471E+00  4.70650E+00  4.82102E+00  4.93832E+00  5.05847E+00
#           5.18155E+00  5.30762E+00  5.43676E+00  5.56904E+00  5.70453E+00
#           5.84333E+00  5.98550E+00  6.13114E+00  6.28031E+00  6.43312E+00
#           6.58964E+00  6.74997E+00  6.91420E+00  7.08243E+00  7.25475E+00
#           7.43126E+00  7.61207E+00  7.79728E+00  7.98700E+00  8.18133E+00
#           8.38038E+00  8.58428E+00  8.79315E+00  9.00709E+00  9.22624E+00
#           9.45072E+00  9.68067E+00  9.91620E+00  1.01575E+01  1.04046E+01
#           1.06578E+01  1.09171E+01  1.11827E+01  1.14548E+01  1.17335E+01
#           1.20190E+01  1.23114E+01  1.26109E+01  1.29178E+01  1.32321E+01
#           1.35540E+01  1.38838E+01  1.42216E+01  1.45676E+01  1.49221E+01
#           1.52851E+01  1.56570E+01  1.60380E+01  1.64282E+01  1.68279E+01
#           1.72374E+01  1.76568E+01  1.80864E+01  1.85264E+01  1.89772E+01
#           1.94389E+01  1.99119E+01  2.03963E+01  2.08926E+01  2.14009E+01
#           2.19216E+01  2.24550E+01  2.30014E+01  2.35610E+01  2.41343E+01
#           2.47215E+01  2.53230E+01  2.59391E+01  2.65702E+01  2.72167E+01
#           2.78789E+01  2.85572E+01  2.92520E+01  2.99637E+01  3.06928E+01
#           3.14396E+01  3.22045E+01  3.29881E+01  3.37907E+01  3.46128E+01
#           3.54550E+01  3.63177E+01  3.72013E+01  3.81064E+01  3.90336E+01
#           3.99833E+01  4.09561E+01  4.19526E+01  4.29734E+01  4.40189E+01
#           4.50900E+01  4.61870E+01  4.73108E+01  4.84619E+01  4.96410E+01
#           5.08488E+01  5.20860E+01  5.33533E+01  5.46514E+01  5.59812E+01
#           5.73432E+01  5.87384E+01  6.01676E+01  6.16315E+01  6.31311E+01
#           6.46671E+01  6.62405E+01  6.78522E+01  6.95031E+01  7.11941E+01
#           7.29263E+01  7.47007E+01  7.65182E+01  7.83800E+01  8.02870E+01
#           8.22405E+01  8.42414E+01  8.62911E+01  8.83906E+01  9.05412E+01
#           9.27442E+01  9.50007E+01  9.73122E+01  9.96799E+01  1.02105E+02
#           1.04589E+02  1.07134E+02  1.09741E+02  1.12411E+02  1.15146E+02
#           1.17948E+02  1.20817E+02  1.23757E+02  1.26768E+02  1.29852E+02
#           1.33012E+02  1.36248E+02  1.39563E+02  1.42959E+02  1.46437E+02
#           1.50000E+02
     unit =    2            # unit is [1/cm^2/(MeV/n)/source]
     axis =  eng            # axis of output
     file = detector-11.out  # file name of output for the above axis
   output = f-curr          # surface crossing forward current spectrum
     part =  neutron  
# kf/name :  2112     
#    used :        main (  %)        temp (  %)       total (  %)
#  memory :         414 (  0)           0 (  0)         414 (  0)

#------------------------------------------------------------------------------
#newpage:
#   no. =    1   reg = 110 - 210

x: Energy [MeV/n]
y:  F-Curr [1/cm^2/(MeV/n)/source]         
p: xlog ylog afac(0.8) form(0.9)
h: n            x            y(neutron ),hh0l   n 
#  e-lower      e-upper      neutron     r.err 
   1.0000E-02   1.0243E-02   7.1495E-05  0.1382
   1.0243E-02   1.0493E-02   7.1115E-05  0.1370
   1.0493E-02   1.0748E-02   1.0729E-04  0.1102
   1.0748E-02   1.1009E-02   7.7118E-05  0.1283
   1.1009E-02   1.1277E-02   9.4575E-05  0.1147
   1.1277E-02   1.1552E-02   7.6744E-05  0.1257
   1.1552E-02   1.1833E-02   9.0135E-05  0.1147
   1.1833E-02   1.2121E-02   9.8994E-05  0.1080
   1.2121E-02   1.2415E-02   6.7254E-05  0.1294
   1.2415E-02   1.2718E-02   9.4898E-05  0.1078
   1.2718E-02   1.3027E-02   9.9287E-05  0.1041
   1.3027E-02   1.3344E-02   9.8857E-05  0.1031
   1.3344E-02   1.3669E-02   9.1375E-05  0.1060
   1.3669E-02   1.4001E-02   1.0424E-04  0.0981
   1.4001E-02   1.4342E-02   9.0022E-05  0.1043
   1.4342E-02   1.4691E-02   9.1704E-05  0.1021
   1.4691E-02   1.5048E-02   7.1948E-05  0.1138
   1.5048E-02   1.5414E-02   1.0760E-04  0.0919
   1.5414E-02   1.5789E-02   9.3460E-05  0.0975
   1.5789E-02   1.6174E-02   7.3753E-05  0.1085
   1.6174E-02   1.6567E-02   1.0250E-04  0.0909
   1.6567E-02   1.6970E-02   1.0006E-04  0.0909
   1.6970E-02   1.7383E-02   8.8145E-05  0.0956
   1.7383E-02   1.7806E-02   8.8379E-05  0.0944
   1.7806E-02   1.8239E-02   1.0014E-04  0.0876
   1.8239E-02   1.8683E-02   8.8730E-05  0.0920
   1.8683E-02   1.9138E-02   9.2028E-05  0.0892
   1.9138E-02   1.9603E-02   8.5905E-05  0.0913
   1.9603E-02   2.0080E-02   1.0972E-04  0.0798
   2.0080E-02   2.0569E-02   9.3471E-05  0.0854
   2.0569E-02   2.1069E-02   9.7911E-05  0.0825
   2.1069E-02   2.1582E-02   9.0961E-05  0.0844
   2.1582E-02   2.2107E-02   1.0315E-04  0.0784
   2.2107E-02   2.2645E-02   9.9155E-05  0.0791
   2.2645E-02   2.3196E-02   9.6195E-05  0.0793
   2.3196E-02   2.3760E-02   1.1023E-04  0.0731
   2.3760E-02   2.4338E-02   1.0742E-04  0.0732
   2.4338E-02   2.4930E-02   1.0853E-04  0.0719
   2.4930E-02   2.5537E-02   1.0283E-04  0.0731
   2.5537E-02   2.6158E-02   1.1013E-04  0.0698
   2.6158E-02   2.6795E-02   1.0343E-04  0.0711
   2.6795E-02   2.7447E-02   1.1308E-04  0.0672
   2.7447E-02   2.8114E-02   1.1730E-04  0.0652
   2.8114E-02   2.8799E-02   1.1117E-04  0.0662
   2.8799E-02   2.9499E-02   1.0449E-04  0.0674
   2.9499E-02   3.0217E-02   1.0435E-04  0.0667
   3.0217E-02   3.0952E-02   1.0156E-04  0.0668
   3.0952E-02   3.1705E-02   1.1893E-04  0.0610
   3.1705E-02   3.2477E-02   9.9583E-05  0.0658
   3.2477E-02   3.3267E-02   9.7428E-05  0.0657
   3.3267E-02   3.4076E-02   1.1119E-04  0.0609
   3.4076E-02   3.4905E-02   1.0252E-04  0.0626
   3.4905E-02   3.5755E-02   1.0079E-04  0.0623
   3.5755E-02   3.6625E-02   1.1239E-04  0.0584
   3.6625E-02   3.7516E-02   1.0505E-04  0.0596
   3.7516E-02   3.8428E-02   1.0888E-04  0.0579
   3.8428E-02   3.9363E-02   1.0764E-04  0.0575
   3.9363E-02   4.0321E-02   1.0664E-04  0.0571
   4.0321E-02   4.1302E-02   1.0550E-04  0.0567
   4.1302E-02   4.2307E-02   1.1560E-04  0.0535
   4.2307E-02   4.3337E-02   1.0507E-04  0.0555
   4.3337E-02   4.4391E-02   1.0672E-04  0.0544
   4.4391E-02   4.5471E-02   1.1120E-04  0.0527
   4.5471E-02   4.6577E-02   1.1218E-04  0.0518
   4.6577E-02   4.7711E-02   1.1207E-04  0.0512
   4.7711E-02   4.8871E-02   1.0720E-04  0.0517
   4.8871E-02   5.0061E-02   1.1666E-04  0.0490
   5.0061E-02   5.1279E-02   1.0749E-04  0.0504
   5.1279E-02   5.2526E-02   1.0504E-04  0.0504
   5.2526E-02   5.3804E-02   9.9159E-05  0.0513
   5.3804E-02   5.5113E-02   1.2022E-04  0.0460
   5.5113E-02   5.6454E-02   1.0486E-04  0.0487
   5.6454E-02   5.7828E-02   1.0827E-04  0.0473
   5.7828E-02   5.9235E-02   1.1640E-04  0.0451
   5.9235E-02   6.0676E-02   1.1444E-04  0.0449
   6.0676E-02   6.2152E-02   1.1316E-04  0.0446
   6.2152E-02   6.3665E-02   1.0727E-04  0.0453
   6.3665E-02   6.5214E-02   1.1642E-04  0.0430
   6.5214E-02   6.6800E-02   1.1884E-04  0.0420
   6.6800E-02   6.8426E-02   1.1440E-04  0.0423
   6.8426E-02   7.0090E-02   1.1909E-04  0.0410
   7.0090E-02   7.1796E-02   1.1627E-04  0.0410
   7.1796E-02   7.3543E-02   1.1856E-04  0.0401
   7.3543E-02   7.5332E-02   1.1528E-04  0.0402
   7.5332E-02   7.7165E-02   1.1097E-04  0.0405
   7.7165E-02   7.9042E-02   1.0590E-04  0.0409
   7.9042E-02   8.0965E-02   1.1781E-04  0.0383
   8.0965E-02   8.2935E-02   1.0762E-04  0.0396
   8.2935E-02   8.4953E-02   1.1056E-04  0.0386
   8.4953E-02   8.7020E-02   1.0971E-04  0.0383
   8.7020E-02   8.9138E-02   1.0995E-04  0.0378
   8.9138E-02   9.1306E-02   1.1768E-04  0.0361
   9.1306E-02   9.3528E-02   1.1580E-04  0.0360
   9.3528E-02   9.5804E-02   1.0675E-04  0.0370
   9.5804E-02   9.8134E-02   1.1420E-04  0.0354
   9.8134E-02   1.0052E-01   1.0979E-04  0.0356
   1.0052E-01   1.0297E-01   1.1505E-04  0.0344
   1.0297E-01   1.0547E-01   1.1169E-04  0.0345
   1.0547E-01   1.0804E-01   1.0242E-04  0.0356
   1.0804E-01   1.1067E-01   1.1235E-04  0.0336
   1.1067E-01   1.1336E-01   1.0469E-04  0.0344
   1.1336E-01   1.1612E-01   1.0328E-04  0.0342
   1.1612E-01   1.1894E-01   1.0540E-04  0.0334
   1.1894E-01   1.2184E-01   1.0662E-04  0.0328
   1.2184E-01   1.2480E-01   1.1020E-04  0.0319
   1.2480E-01   1.2784E-01   9.9553E-05  0.0332
   1.2784E-01   1.3095E-01   1.0168E-04  0.0324
   1.3095E-01   1.3414E-01   1.0315E-04  0.0318
   1.3414E-01   1.3740E-01   1.0174E-04  0.0317
   1.3740E-01   1.4074E-01   9.4707E-05  0.0324
   1.4074E-01   1.4417E-01   9.7466E-05  0.0316
   1.4417E-01   1.4767E-01   9.1150E-05  0.0323
   1.4767E-01   1.5127E-01   9.2686E-05  0.0316
   1.5127E-01   1.5495E-01   9.3671E-05  0.0311
   1.5495E-01   1.5872E-01   9.2852E-05  0.0308
   1.5872E-01   1.6258E-01   8.8959E-05  0.0311
   1.6258E-01   1.6654E-01   9.1610E-05  0.0303
   1.6654E-01   1.7059E-01   8.4609E-05  0.0312
   1.7059E-01   1.7474E-01   7.7752E-05  0.0321
   1.7474E-01   1.7899E-01   8.4856E-05  0.0304
   1.7899E-01   1.8334E-01   8.0295E-05  0.0309
   1.8334E-01   1.8781E-01   8.0940E-05  0.0304
   1.8781E-01   1.9237E-01   8.2952E-05  0.0296
   1.9237E-01   1.9706E-01   7.4644E-05  0.0309
   1.9706E-01   2.0185E-01   7.5254E-05  0.0304
   2.0185E-01   2.0676E-01   7.9192E-05  0.0293
   2.0676E-01   2.1179E-01   7.5050E-05  0.0297
   2.1179E-01   2.1694E-01   7.8514E-05  0.0287
   2.1694E-01   2.2222E-01   7.8607E-05  0.0283
   2.2222E-01   2.2763E-01   8.5133E-05  0.0269
   2.2763E-01   2.3317E-01   8.3337E-05  0.0268
   2.3317E-01   2.3884E-01   8.6479E-05  0.0260
   2.3884E-01   2.4465E-01   8.8395E-05  0.0255
   2.4465E-01   2.5061E-01   9.1214E-05  0.0248
   2.5061E-01   2.5670E-01   9.2478E-05  0.0243
   2.5670E-01   2.6295E-01   9.1923E-05  0.0241
   2.6295E-01   2.6935E-01   9.3709E-05  0.0236
   2.6935E-01   2.7590E-01   9.7075E-05  0.0229
   2.7590E-01   2.8261E-01   9.7964E-05  0.0225
   2.8261E-01   2.8949E-01   9.8592E-05  0.0222
   2.8949E-01   2.9653E-01   1.0491E-04  0.0212
   2.9653E-01   3.0375E-01   1.0551E-04  0.0209
   3.0375E-01   3.1114E-01   1.0617E-04  0.0206
   3.1114E-01   3.1871E-01   1.1104E-04  0.0199
   3.1871E-01   3.2646E-01   1.0947E-04  0.0198
   3.2646E-01   3.3441E-01   1.0904E-04  0.0196
   3.3441E-01   3.4254E-01   1.1952E-04  0.0185
   3.4254E-01   3.5088E-01   1.2066E-04  0.0182
   3.5088E-01   3.5941E-01   1.1834E-04  0.0182
   3.5941E-01   3.6816E-01   1.2280E-04  0.0176
   3.6816E-01   3.7712E-01   1.2290E-04  0.0174
   3.7712E-01   3.8629E-01   1.2357E-04  0.0171
   3.8629E-01   3.9569E-01   1.2839E-04  0.0166
   3.9569E-01   4.0532E-01   1.2730E-04  0.0165
   4.0532E-01   4.1518E-01   1.3023E-04  0.0161
   4.1518E-01   4.2528E-01   1.3427E-04  0.0157
   4.2528E-01   4.3563E-01   1.3259E-04  0.0156
   4.3563E-01   4.4623E-01   1.3420E-04  0.0153
   4.4623E-01   4.5708E-01   1.3721E-04  0.0149
   4.5708E-01   4.6821E-01   1.3637E-04  0.0148
   4.6821E-01   4.7960E-01   1.4053E-04  0.0144
   4.7960E-01   4.9127E-01   1.4015E-04  0.0143
   4.9127E-01   5.0322E-01   1.4165E-04  0.0140
   5.0322E-01   5.1546E-01   1.4351E-04  0.0138
   5.1546E-01   5.2800E-01   1.4467E-04  0.0135
   5.2800E-01   5.4085E-01   1.4640E-04  0.0133
   5.4085E-01   5.5401E-01   1.5015E-04  0.0130
   5.5401E-01   5.6749E-01   1.5089E-04  0.0128
   5.6749E-01   5.8130E-01   1.5052E-04  0.0127
   5.8130E-01   5.9544E-01   1.4879E-04  0.0126
   5.9544E-01   6.0993E-01   1.4928E-04  0.0124
   6.0993E-01   6.2477E-01   1.5320E-04  0.0121
   6.2477E-01   6.3997E-01   1.5588E-04  0.0118
   6.3997E-01   6.5554E-01   1.5448E-04  0.0118
   6.5554E-01   6.7149E-01   1.5580E-04  0.0116
   6.7149E-01   6.8783E-01   1.5594E-04  0.0114
   6.8783E-01   7.0456E-01   1.5567E-04  0.0113
   7.0456E-01   7.2171E-01   1.5722E-04  0.0111
   7.2171E-01   7.3927E-01   1.5536E-04  0.0110
   7.3927E-01   7.5725E-01   1.5588E-04  0.0109
   7.5725E-01   7.7568E-01   1.5785E-04  0.0107
   7.7568E-01   7.9455E-01   1.5966E-04  0.0105
   7.9455E-01   8.1388E-01   1.5943E-04  0.0104
   8.1388E-01   8.3368E-01   1.5910E-04  0.0103
   8.3368E-01   8.5397E-01   1.6017E-04  0.0101
   8.5397E-01   8.7475E-01   1.6113E-04  0.0100
   8.7475E-01   8.9603E-01   1.6049E-04  0.0099
   8.9603E-01   9.1783E-01   1.5775E-04  0.0098
   9.1783E-01   9.4016E-01   1.6061E-04  0.0096
   9.4016E-01   9.6304E-01   1.6024E-04  0.0095
   9.6304E-01   9.8647E-01   1.6100E-04  0.0094
   9.8647E-01   1.0105E+00   1.6077E-04  0.0093
   1.0105E+00   1.0351E+00   1.6143E-04  0.0092
   1.0351E+00   1.0602E+00   1.5898E-04  0.0091
   1.0602E+00   1.0860E+00   1.6183E-04  0.0089
   1.0860E+00   1.1125E+00   1.5891E-04  0.0089
   1.1125E+00   1.1395E+00   1.6047E-04  0.0088
   1.1395E+00   1.1673E+00   1.6090E-04  0.0086
   1.1673E+00   1.1957E+00   1.5934E-04  0.0086
   1.1957E+00   1.2247E+00   1.6023E-04  0.0084
   1.2247E+00   1.2545E+00   1.6097E-04  0.0083
   1.2545E+00   1.2851E+00   1.5881E-04  0.0083
   1.2851E+00   1.3163E+00   1.5956E-04  0.0082
   1.3163E+00   1.3484E+00   1.6231E-04  0.0080
   1.3484E+00   1.3812E+00   1.6027E-04  0.0080
   1.3812E+00   1.4148E+00   1.6135E-04  0.0078
   1.4148E+00   1.4492E+00   1.5952E-04  0.0078
   1.4492E+00   1.4845E+00   1.6214E-04  0.0076
   1.4845E+00   1.5206E+00   1.6185E-04  0.0075
   1.5206E+00   1.5576E+00   1.6290E-04  0.0074
   1.5576E+00   1.5955E+00   1.6312E-04  0.0073
   1.5955E+00   1.6343E+00   1.6148E-04  0.0073
   1.6343E+00   1.6741E+00   1.6265E-04  0.0072
   1.6741E+00   1.7148E+00   1.6206E-04  0.0071
   1.7148E+00   1.7565E+00   1.6480E-04  0.0070
   1.7565E+00   1.7992E+00   1.6323E-04  0.0069
   1.7992E+00   1.8430E+00   1.6299E-04  0.0068
   1.8430E+00   1.8879E+00   1.6289E-04  0.0067
   1.8879E+00   1.9338E+00   1.5993E-04  0.0067
   1.9338E+00   1.9808E+00   1.6023E-04  0.0066
   1.9808E+00   2.0290E+00   1.6007E-04  0.0066
   2.0290E+00   2.0784E+00   1.5956E-04  0.0065
   2.0784E+00   2.1290E+00   1.6032E-04  0.0064
   2.1290E+00   2.1808E+00   1.5659E-04  0.0064
   2.1808E+00   2.2338E+00   1.5587E-04  0.0063
   2.2338E+00   2.2882E+00   1.5518E-04  0.0063
   2.2882E+00   2.3439E+00   1.5336E-04  0.0062
   2.3439E+00   2.4009E+00   1.5490E-04  0.0061
   2.4009E+00   2.4593E+00   1.5240E-04  0.0061
   2.4593E+00   2.5191E+00   1.5018E-04  0.0061
   2.5191E+00   2.5804E+00   1.4983E-04  0.0060
   2.5804E+00   2.6432E+00   1.4909E-04  0.0060
   2.6432E+00   2.7075E+00   1.4731E-04  0.0059
   2.7075E+00   2.7734E+00   1.4427E-04  0.0059
   2.7734E+00   2.8409E+00   1.4306E-04  0.0059
   2.8409E+00   2.9100E+00   1.4171E-04  0.0058
   2.9100E+00   2.9808E+00   1.4046E-04  0.0058
   2.9808E+00   3.0533E+00   1.3826E-04  0.0058
   3.0533E+00   3.1276E+00   1.3697E-04  0.0057
   3.1276E+00   3.2037E+00   1.3379E-04  0.0057
   3.2037E+00   3.2817E+00   1.3219E-04  0.0057
   3.2817E+00   3.3615E+00   1.3122E-04  0.0056
   3.3615E+00   3.4433E+00   1.2852E-04  0.0056
   3.4433E+00   3.5271E+00   1.2690E-04  0.0056
   3.5271E+00   3.6129E+00   1.2356E-04  0.0056
   3.6129E+00   3.7008E+00   1.2075E-04  0.0056
   3.7008E+00   3.7908E+00   1.1943E-04  0.0056
   3.7908E+00   3.8831E+00   1.1668E-04  0.0056
   3.8831E+00   3.9776E+00   1.1421E-04  0.0056
   3.9776E+00   4.0743E+00   1.1090E-04  0.0056
   4.0743E+00   4.1735E+00   1.0934E-04  0.0055
   4.1735E+00   4.2750E+00   1.0655E-04  0.0055
   4.2750E+00   4.3790E+00   1.0526E-04  0.0055
   4.3790E+00   4.4856E+00   1.0130E-04  0.0056
   4.4856E+00   4.5947E+00   9.8793E-05  0.0056
   4.5947E+00   4.7065E+00   9.6995E-05  0.0055
   4.7065E+00   4.8210E+00   9.4235E-05  0.0056
   4.8210E+00   4.9383E+00   9.0713E-05  0.0056
   4.9383E+00   5.0585E+00   8.8670E-05  0.0056
   5.0585E+00   5.1815E+00   8.5796E-05  0.0056
   5.1815E+00   5.3076E+00   8.4501E-05  0.0056
   5.3076E+00   5.4368E+00   8.2349E-05  0.0056
   5.4368E+00   5.5690E+00   8.0767E-05  0.0056
   5.5690E+00   5.7045E+00   7.9149E-05  0.0056
   5.7045E+00   5.8433E+00   7.8654E-05  0.0055
   5.8433E+00   5.9855E+00   7.6939E-05  0.0055
   5.9855E+00   6.1311E+00   7.6667E-05  0.0055
   6.1311E+00   6.2803E+00   7.4844E-05  0.0055
   6.2803E+00   6.4331E+00   7.3630E-05  0.0054
   6.4331E+00   6.5896E+00   7.3115E-05  0.0054
   6.5896E+00   6.7500E+00   7.1409E-05  0.0054
   6.7500E+00   6.9142E+00   6.9354E-05  0.0054
   6.9142E+00   7.0824E+00   6.9257E-05  0.0053
   7.0824E+00   7.2548E+00   6.7499E-05  0.0054
   7.2548E+00   7.4313E+00   6.7220E-05  0.0053
   7.4313E+00   7.6121E+00   6.5985E-05  0.0053
   7.6121E+00   7.7973E+00   6.4583E-05  0.0053
   7.7973E+00   7.9870E+00   6.3619E-05  0.0053
   7.9870E+00   8.1813E+00   6.1437E-05  0.0053
   8.1813E+00   8.3804E+00   5.8744E-05  0.0053
   8.3804E+00   8.5843E+00   5.5486E-05  0.0054
   8.5843E+00   8.7931E+00   5.1271E-05  0.0056
   8.7931E+00   9.0071E+00   4.7376E-05  0.0057
   9.0071E+00   9.2262E+00   4.5554E-05  0.0058
   9.2262E+00   9.4507E+00   4.3512E-05  0.0058
   9.4507E+00   9.6807E+00   4.1675E-05  0.0059
   9.6807E+00   9.9162E+00   4.0419E-05  0.0059
   9.9162E+00   1.0157E+01   3.9488E-05  0.0059
   1.0157E+01   1.0405E+01   3.8448E-05  0.0059
   1.0405E+01   1.0658E+01   3.7505E-05  0.0059
   1.0658E+01   1.0917E+01   3.7370E-05  0.0059
   1.0917E+01   1.1183E+01   3.5547E-05  0.0059
   1.1183E+01   1.1455E+01   3.4649E-05  0.0059
   1.1455E+01   1.1733E+01   3.3730E-05  0.0060
   1.1733E+01   1.2019E+01   3.2503E-05  0.0060
   1.2019E+01   1.2311E+01   3.1573E-05  0.0060
   1.2311E+01   1.2611E+01   3.0554E-05  0.0060
   1.2611E+01   1.2918E+01   2.9482E-05  0.0061
   1.2918E+01   1.3232E+01   2.8237E-05  0.0061
   1.3232E+01   1.3554E+01   2.7060E-05  0.0062
   1.3554E+01   1.3884E+01   2.6323E-05  0.0062
   1.3884E+01   1.4222E+01   2.4921E-05  0.0063
   1.4222E+01   1.4568E+01   2.3817E-05  0.0064
   1.4568E+01   1.4922E+01   2.2885E-05  0.0064
   1.4922E+01   1.5285E+01   2.1566E-05  0.0065
   1.5285E+01   1.5657E+01   2.0389E-05  0.0066
   1.5657E+01   1.6038E+01   1.9716E-05  0.0067
   1.6038E+01   1.6428E+01   1.8512E-05  0.0068
   1.6428E+01   1.6828E+01   1.7546E-05  0.0069
   1.6828E+01   1.7237E+01   1.6692E-05  0.0070
   1.7237E+01   1.7657E+01   1.5601E-05  0.0071
   1.7657E+01   1.8086E+01   1.4901E-05  0.0072
   1.8086E+01   1.8526E+01   1.4253E-05  0.0073
   1.8526E+01   1.8977E+01   1.3596E-05  0.0074
   1.8977E+01   1.9439E+01   1.2905E-05  0.0075
   1.9439E+01   1.9912E+01   1.2061E-05  0.0076
   1.9912E+01   2.0396E+01   1.1547E-05  0.0077
   2.0396E+01   2.0893E+01   1.0882E-05  0.0079
   2.0893E+01   2.1401E+01   1.0267E-05  0.0080
   2.1401E+01   2.1922E+01   9.8988E-06  0.0080
   2.1922E+01   2.2455E+01   9.5362E-06  0.0081
   2.2455E+01   2.3001E+01   8.8631E-06  0.0083
   2.3001E+01   2.3561E+01   8.5442E-06  0.0083
   2.3561E+01   2.4134E+01   8.3278E-06  0.0084
   2.4134E+01   2.4721E+01   8.0154E-06  0.0084
   2.4721E+01   2.5323E+01   7.7369E-06  0.0085
   2.5323E+01   2.5939E+01   7.5217E-06  0.0085
   2.5939E+01   2.6570E+01   7.1223E-06  0.0086
   2.6570E+01   2.7217E+01   6.9433E-06  0.0086
   2.7217E+01   2.7879E+01   6.5247E-06  0.0088
   2.7879E+01   2.8557E+01   6.3889E-06  0.0088
   2.8557E+01   2.9252E+01   6.1009E-06  0.0089
   2.9252E+01   2.9964E+01   5.7208E-06  0.0090
   2.9964E+01   3.0693E+01   5.4012E-06  0.0092
   3.0693E+01   3.1440E+01   5.3304E-06  0.0092
   3.1440E+01   3.2205E+01   5.1568E-06  0.0092
   3.2205E+01   3.2988E+01   5.2904E-06  0.0090
   3.2988E+01   3.3791E+01   5.8001E-06  0.0085
   3.3791E+01   3.4613E+01   6.3771E-06  0.0080
   3.4613E+01   3.5455E+01   6.5194E-06  0.0078
   3.5455E+01   3.6318E+01   6.2246E-06  0.0079
   3.6318E+01   3.7201E+01   6.2733E-06  0.0078
   3.7201E+01   3.8106E+01   5.9634E-06  0.0079
   3.8106E+01   3.9034E+01   4.6162E-06  0.0088
   3.9034E+01   3.9983E+01   3.0648E-06  0.0107
   3.9983E+01   4.0956E+01   2.0202E-06  0.0130
   4.0956E+01   4.1953E+01   1.2644E-06  0.0163
   4.1953E+01   4.2973E+01   4.0951E-07  0.0282
   4.2973E+01   4.4019E+01   1.2752E-08  0.1581
   4.4019E+01   4.5090E+01   1.8674E-09  0.4082
   4.5090E+01   4.6187E+01   0.0000E+00  0.0000
   4.6187E+01   4.7311E+01   0.0000E+00  0.0000
   4.7311E+01   4.8462E+01   0.0000E+00  0.0000
   4.8462E+01   4.9641E+01   0.0000E+00  0.0000
   4.9641E+01   5.0849E+01   0.0000E+00  0.0000
   5.0849E+01   5.2086E+01   0.0000E+00  0.0000
   5.2086E+01   5.3353E+01   0.0000E+00  0.0000
   5.3353E+01   5.4651E+01   0.0000E+00  0.0000
   5.4651E+01   5.5981E+01   0.0000E+00  0.0000
   5.5981E+01   5.7343E+01   0.0000E+00  0.0000
   5.7343E+01   5.8738E+01   0.0000E+00  0.0000
   5.8738E+01   6.0168E+01   0.0000E+00  0.0000
   6.0168E+01   6.1632E+01   0.0000E+00  0.0000
   6.1632E+01   6.3131E+01   0.0000E+00  0.0000
   6.3131E+01   6.4667E+01   0.0000E+00  0.0000
   6.4667E+01   6.6240E+01   0.0000E+00  0.0000
   6.6240E+01   6.7852E+01   0.0000E+00  0.0000
   6.7852E+01   6.9503E+01   0.0000E+00  0.0000
   6.9503E+01   7.1194E+01   0.0000E+00  0.0000
   7.1194E+01   7.2926E+01   0.0000E+00  0.0000
   7.2926E+01   7.4701E+01   0.0000E+00  0.0000
   7.4701E+01   7.6518E+01   0.0000E+00  0.0000
   7.6518E+01   7.8380E+01   0.0000E+00  0.0000
   7.8380E+01   8.0287E+01   0.0000E+00  0.0000
   8.0287E+01   8.2240E+01   0.0000E+00  0.0000
   8.2240E+01   8.4241E+01   0.0000E+00  0.0000
   8.4241E+01   8.6291E+01   0.0000E+00  0.0000
   8.6291E+01   8.8391E+01   0.0000E+00  0.0000
   8.8391E+01   9.0541E+01   0.0000E+00  0.0000
   9.0541E+01   9.2744E+01   0.0000E+00  0.0000
   9.2744E+01   9.5001E+01   0.0000E+00  0.0000
   9.5001E+01   9.7312E+01   0.0000E+00  0.0000
   9.7312E+01   9.9680E+01   0.0000E+00  0.0000
   9.9680E+01   1.0211E+02   0.0000E+00  0.0000
   1.0211E+02   1.0459E+02   0.0000E+00  0.0000
   1.0459E+02   1.0713E+02   0.0000E+00  0.0000
   1.0713E+02   1.0974E+02   0.0000E+00  0.0000
   1.0974E+02   1.1241E+02   0.0000E+00  0.0000
   1.1241E+02   1.1515E+02   0.0000E+00  0.0000
   1.1515E+02   1.1795E+02   0.0000E+00  0.0000
   1.1795E+02   1.2082E+02   0.0000E+00  0.0000
   1.2082E+02   1.2376E+02   0.0000E+00  0.0000
   1.2376E+02   1.2677E+02   0.0000E+00  0.0000
   1.2677E+02   1.2985E+02   0.0000E+00  0.0000
   1.2985E+02   1.3301E+02   0.0000E+00  0.0000
   1.3301E+02   1.3625E+02   0.0000E+00  0.0000
   1.3625E+02   1.3956E+02   0.0000E+00  0.0000
   1.3956E+02   1.4296E+02   0.0000E+00  0.0000
   1.4296E+02   1.4644E+02   0.0000E+00  0.0000
   1.4644E+02   1.5000E+02   0.0000E+00  0.0000

#   sum over                 9.0503E-06
'no. =    1   reg = 110 - 210'
msuc: {\huge [t-cross] in region mesh}
msdr: {\it plotted by \ANGEL \version}
msdl: {\it calculated by \PHITS  3.26}
wt: s(0.7)
\vspace{-3}
  region surface crossing
  area  &=&   1.0000E+00 [cm^2]
e:
 
# Information for Restart Calculation
# This calculation was newly started
# istdev =  2 # 1:Batch variance, 2:History variance
# resc2  = 3.00000000000000000E+09 # Total source weight or Total source weight / maxcas
# resc3  = 3.00000000000000000E+09 # Total history number or Total batch number
# maxcas =   500000000 # History / Batch, only used for istdev=1
# bitrseed = 0110110011111001100110101011100000010010001000001101100100111101 # bit data of rseed
