[ T-Cross ]
    title = [t-cross] in region mesh
     mesh =  reg            # mesh type is region-wise
      reg =    1            # number of crossing regions
      non     r-from    r-to       area
      1       111       211        1.000000    
   e-type =    3            # e-mesh is log given by emin, emax and ne
     emin =  1.0000000E-02  # minimum value of e-mesh points
     emax =   150.0000      # maximum value of e-mesh points
#    edel =  2.4039514E-02  # mesh width of e-mesh points
       ne =    400          # number of e-mesh points
#    data = ( e(i), i = 1, ne + 1 )
#           1.00000E-02  1.02433E-02  1.04925E-02  1.07478E-02  1.10093E-02
#           1.12772E-02  1.15516E-02  1.18326E-02  1.21205E-02  1.24154E-02
#           1.27175E-02  1.30269E-02  1.33439E-02  1.36686E-02  1.40011E-02
#           1.43418E-02  1.46907E-02  1.50482E-02  1.54143E-02  1.57894E-02
#           1.61735E-02  1.65670E-02  1.69701E-02  1.73830E-02  1.78060E-02
#           1.82392E-02  1.86830E-02  1.91375E-02  1.96032E-02  2.00801E-02
#           2.05687E-02  2.10692E-02  2.15818E-02  2.21069E-02  2.26448E-02
#           2.31957E-02  2.37601E-02  2.43382E-02  2.49304E-02  2.55369E-02
#           2.61583E-02  2.67947E-02  2.74467E-02  2.81145E-02  2.87985E-02
#           2.94992E-02  3.02169E-02  3.09521E-02  3.17052E-02  3.24766E-02
#           3.32668E-02  3.40762E-02  3.49053E-02  3.57546E-02  3.66246E-02
#           3.75157E-02  3.84284E-02  3.93634E-02  4.03212E-02  4.13022E-02
#           4.23071E-02  4.33365E-02  4.43909E-02  4.54710E-02  4.65773E-02
#           4.77106E-02  4.88714E-02  5.00605E-02  5.12785E-02  5.25262E-02
#           5.38042E-02  5.51133E-02  5.64542E-02  5.78278E-02  5.92348E-02
#           6.06760E-02  6.21523E-02  6.36645E-02  6.52135E-02  6.68002E-02
#           6.84255E-02  7.00904E-02  7.17957E-02  7.35426E-02  7.53319E-02
#           7.71648E-02  7.90423E-02  8.09655E-02  8.29354E-02  8.49533E-02
#           8.70203E-02  8.91376E-02  9.13064E-02  9.35279E-02  9.58035E-02
#           9.81345E-02  1.00522E-01  1.02968E-01  1.05473E-01  1.08040E-01
#           1.10668E-01  1.13361E-01  1.16119E-01  1.18944E-01  1.21838E-01
#           1.24803E-01  1.27839E-01  1.30950E-01  1.34136E-01  1.37399E-01
#           1.40742E-01  1.44167E-01  1.47675E-01  1.51268E-01  1.54948E-01
#           1.58718E-01  1.62580E-01  1.66535E-01  1.70587E-01  1.74738E-01
#           1.78989E-01  1.83344E-01  1.87805E-01  1.92375E-01  1.97055E-01
#           2.01850E-01  2.06761E-01  2.11792E-01  2.16945E-01  2.22223E-01
#           2.27630E-01  2.33169E-01  2.38842E-01  2.44653E-01  2.50605E-01
#           2.56703E-01  2.62949E-01  2.69346E-01  2.75900E-01  2.82613E-01
#           2.89489E-01  2.96532E-01  3.03747E-01  3.11138E-01  3.18708E-01
#           3.26462E-01  3.34405E-01  3.42542E-01  3.50876E-01  3.59413E-01
#           3.68158E-01  3.77116E-01  3.86291E-01  3.95690E-01  4.05317E-01
#           4.15179E-01  4.25281E-01  4.35628E-01  4.46227E-01  4.57084E-01
#           4.68205E-01  4.79597E-01  4.91266E-01  5.03219E-01  5.15463E-01
#           5.28005E-01  5.40851E-01  5.54011E-01  5.67490E-01  5.81298E-01
#           5.95441E-01  6.09929E-01  6.24769E-01  6.39970E-01  6.55541E-01
#           6.71491E-01  6.87828E-01  7.04564E-01  7.21706E-01  7.39266E-01
#           7.57253E-01  7.75678E-01  7.94551E-01  8.13883E-01  8.33685E-01
#           8.53969E-01  8.74747E-01  8.96030E-01  9.17831E-01  9.40163E-01
#           9.63038E-01  9.86469E-01  1.01047E+00  1.03506E+00  1.06024E+00
#           1.08604E+00  1.11246E+00  1.13953E+00  1.16725E+00  1.19565E+00
#           1.22474E+00  1.25454E+00  1.28507E+00  1.31633E+00  1.34836E+00
#           1.38117E+00  1.41477E+00  1.44920E+00  1.48446E+00  1.52057E+00
#           1.55757E+00  1.59547E+00  1.63429E+00  1.67405E+00  1.71478E+00
#           1.75650E+00  1.79924E+00  1.84302E+00  1.88786E+00  1.93379E+00
#           1.98084E+00  2.02904E+00  2.07841E+00  2.12898E+00  2.18078E+00
#           2.23384E+00  2.28819E+00  2.34386E+00  2.40089E+00  2.45930E+00
#           2.51914E+00  2.58043E+00  2.64322E+00  2.70753E+00  2.77341E+00
#           2.84088E+00  2.91001E+00  2.98081E+00  3.05333E+00  3.12762E+00
#           3.20372E+00  3.28167E+00  3.36152E+00  3.44330E+00  3.52708E+00
#           3.61290E+00  3.70080E+00  3.79085E+00  3.88308E+00  3.97756E+00
#           4.07434E+00  4.17347E+00  4.27501E+00  4.37903E+00  4.48557E+00
#           4.59471E+00  4.70650E+00  4.82102E+00  4.93832E+00  5.05847E+00
#           5.18155E+00  5.30762E+00  5.43676E+00  5.56904E+00  5.70453E+00
#           5.84333E+00  5.98550E+00  6.13114E+00  6.28031E+00  6.43312E+00
#           6.58964E+00  6.74997E+00  6.91420E+00  7.08243E+00  7.25475E+00
#           7.43126E+00  7.61207E+00  7.79728E+00  7.98700E+00  8.18133E+00
#           8.38038E+00  8.58428E+00  8.79315E+00  9.00709E+00  9.22624E+00
#           9.45072E+00  9.68067E+00  9.91620E+00  1.01575E+01  1.04046E+01
#           1.06578E+01  1.09171E+01  1.11827E+01  1.14548E+01  1.17335E+01
#           1.20190E+01  1.23114E+01  1.26109E+01  1.29178E+01  1.32321E+01
#           1.35540E+01  1.38838E+01  1.42216E+01  1.45676E+01  1.49221E+01
#           1.52851E+01  1.56570E+01  1.60380E+01  1.64282E+01  1.68279E+01
#           1.72374E+01  1.76568E+01  1.80864E+01  1.85264E+01  1.89772E+01
#           1.94389E+01  1.99119E+01  2.03963E+01  2.08926E+01  2.14009E+01
#           2.19216E+01  2.24550E+01  2.30014E+01  2.35610E+01  2.41343E+01
#           2.47215E+01  2.53230E+01  2.59391E+01  2.65702E+01  2.72167E+01
#           2.78789E+01  2.85572E+01  2.92520E+01  2.99637E+01  3.06928E+01
#           3.14396E+01  3.22045E+01  3.29881E+01  3.37907E+01  3.46128E+01
#           3.54550E+01  3.63177E+01  3.72013E+01  3.81064E+01  3.90336E+01
#           3.99833E+01  4.09561E+01  4.19526E+01  4.29734E+01  4.40189E+01
#           4.50900E+01  4.61870E+01  4.73108E+01  4.84619E+01  4.96410E+01
#           5.08488E+01  5.20860E+01  5.33533E+01  5.46514E+01  5.59812E+01
#           5.73432E+01  5.87384E+01  6.01676E+01  6.16315E+01  6.31311E+01
#           6.46671E+01  6.62405E+01  6.78522E+01  6.95031E+01  7.11941E+01
#           7.29263E+01  7.47007E+01  7.65182E+01  7.83800E+01  8.02870E+01
#           8.22405E+01  8.42414E+01  8.62911E+01  8.83906E+01  9.05412E+01
#           9.27442E+01  9.50007E+01  9.73122E+01  9.96799E+01  1.02105E+02
#           1.04589E+02  1.07134E+02  1.09741E+02  1.12411E+02  1.15146E+02
#           1.17948E+02  1.20817E+02  1.23757E+02  1.26768E+02  1.29852E+02
#           1.33012E+02  1.36248E+02  1.39563E+02  1.42959E+02  1.46437E+02
#           1.50000E+02
     unit =    2            # unit is [1/cm^2/(MeV/n)/source]
     axis =  eng            # axis of output
     file = detector-12.out  # file name of output for the above axis
   output = f-curr          # surface crossing forward current spectrum
     part =  neutron  
# kf/name :  2112     
#    used :        main (  %)        temp (  %)       total (  %)
#  memory :         414 (  0)           0 (  0)         414 (  0)

#------------------------------------------------------------------------------
#newpage:
#   no. =    1   reg = 111 - 211

x: Energy [MeV/n]
y:  F-Curr [1/cm^2/(MeV/n)/source]         
p: xlog ylog afac(0.8) form(0.9)
h: n            x            y(neutron ),hh0l   n 
#  e-lower      e-upper      neutron     r.err 
   1.0000E-02   1.0243E-02   1.8138E-02  0.0151
   1.0243E-02   1.0493E-02   1.7899E-02  0.0150
   1.0493E-02   1.0748E-02   1.7513E-02  0.0150
   1.0748E-02   1.1009E-02   1.7744E-02  0.0147
   1.1009E-02   1.1277E-02   1.7712E-02  0.0145
   1.1277E-02   1.1552E-02   1.7184E-02  0.0146
   1.1552E-02   1.1833E-02   1.7176E-02  0.0144
   1.1833E-02   1.2121E-02   1.7034E-02  0.0143
   1.2121E-02   1.2415E-02   1.6782E-02  0.0142
   1.2415E-02   1.2718E-02   1.6340E-02  0.0142
   1.2718E-02   1.3027E-02   1.6283E-02  0.0141
   1.3027E-02   1.3344E-02   1.6210E-02  0.0140
   1.3344E-02   1.3669E-02   1.6294E-02  0.0137
   1.3669E-02   1.4001E-02   1.6012E-02  0.0137
   1.4001E-02   1.4342E-02   1.6298E-02  0.0134
   1.4342E-02   1.4691E-02   1.5607E-02  0.0136
   1.4691E-02   1.5048E-02   1.5659E-02  0.0134
   1.5048E-02   1.5414E-02   1.5631E-02  0.0132
   1.5414E-02   1.5789E-02   1.5241E-02  0.0132
   1.5789E-02   1.6174E-02   1.5220E-02  0.0131
   1.6174E-02   1.6567E-02   1.5130E-02  0.0130
   1.6567E-02   1.6970E-02   1.4821E-02  0.0129
   1.6970E-02   1.7383E-02   1.4696E-02  0.0128
   1.7383E-02   1.7806E-02   1.4413E-02  0.0128
   1.7806E-02   1.8239E-02   1.4380E-02  0.0127
   1.8239E-02   1.8683E-02   1.4589E-02  0.0124
   1.8683E-02   1.9138E-02   1.4218E-02  0.0124
   1.9138E-02   1.9603E-02   1.3940E-02  0.0124
   1.9603E-02   2.0080E-02   1.4087E-02  0.0122
   2.0080E-02   2.0569E-02   1.3640E-02  0.0122
   2.0569E-02   2.1069E-02   1.3656E-02  0.0121
   2.1069E-02   2.1582E-02   1.3259E-02  0.0121
   2.1582E-02   2.2107E-02   1.3494E-02  0.0119
   2.2107E-02   2.2645E-02   1.3286E-02  0.0118
   2.2645E-02   2.3196E-02   1.3300E-02  0.0117
   2.3196E-02   2.3760E-02   1.3007E-02  0.0117
   2.3760E-02   2.4338E-02   1.2690E-02  0.0117
   2.4338E-02   2.4930E-02   1.2605E-02  0.0116
   2.4930E-02   2.5537E-02   1.2709E-02  0.0114
   2.5537E-02   2.6158E-02   1.2615E-02  0.0113
   2.6158E-02   2.6795E-02   1.2480E-02  0.0112
   2.6795E-02   2.7447E-02   1.2240E-02  0.0112
   2.7447E-02   2.8114E-02   1.2156E-02  0.0111
   2.8114E-02   2.8799E-02   1.2284E-02  0.0109
   2.8799E-02   2.9499E-02   1.2034E-02  0.0109
   2.9499E-02   3.0217E-02   1.2032E-02  0.0108
   3.0217E-02   3.0952E-02   1.1687E-02  0.0108
   3.0952E-02   3.1705E-02   1.1617E-02  0.0107
   3.1705E-02   3.2477E-02   1.1581E-02  0.0106
   3.2477E-02   3.3267E-02   1.1451E-02  0.0105
   3.3267E-02   3.4076E-02   1.1324E-02  0.0104
   3.4076E-02   3.4905E-02   1.1131E-02  0.0104
   3.4905E-02   3.5755E-02   1.0865E-02  0.0104
   3.5755E-02   3.6625E-02   1.0918E-02  0.0103
   3.6625E-02   3.7516E-02   1.0739E-02  0.0102
   3.7516E-02   3.8428E-02   1.0900E-02  0.0100
   3.8428E-02   3.9363E-02   1.0501E-02  0.0101
   3.9363E-02   4.0321E-02   1.0513E-02  0.0100
   4.0321E-02   4.1302E-02   1.0213E-02  0.0100
   4.1302E-02   4.2307E-02   1.0370E-02  0.0098
   4.2307E-02   4.3337E-02   1.0303E-02  0.0097
   4.3337E-02   4.4391E-02   1.0244E-02  0.0096
   4.4391E-02   4.5471E-02   1.0048E-02  0.0096
   4.5471E-02   4.6577E-02   1.0027E-02  0.0095
   4.6577E-02   4.7711E-02   9.8415E-03  0.0095
   4.7711E-02   4.8871E-02   9.6620E-03  0.0094
   4.8871E-02   5.0061E-02   9.7281E-03  0.0093
   5.0061E-02   5.1279E-02   9.5442E-03  0.0093
   5.1279E-02   5.2526E-02   9.4602E-03  0.0092
   5.2526E-02   5.3804E-02   9.5504E-03  0.0091
   5.3804E-02   5.5113E-02   9.2827E-03  0.0091
   5.5113E-02   5.6454E-02   9.0895E-03  0.0091
   5.6454E-02   5.7828E-02   9.1775E-03  0.0089
   5.7828E-02   5.9235E-02   8.8742E-03  0.0090
   5.9235E-02   6.0676E-02   8.8771E-03  0.0088
   6.0676E-02   6.2152E-02   8.7862E-03  0.0088
   6.2152E-02   6.3665E-02   8.7369E-03  0.0087
   6.3665E-02   6.5214E-02   8.5713E-03  0.0087
   6.5214E-02   6.6800E-02   8.6819E-03  0.0085
   6.6800E-02   6.8426E-02   8.5978E-03  0.0085
   6.8426E-02   7.0090E-02   8.4819E-03  0.0084
   7.0090E-02   7.1796E-02   8.1801E-03  0.0085
   7.1796E-02   7.3543E-02   8.2011E-03  0.0084
   7.3543E-02   7.5332E-02   8.2108E-03  0.0083
   7.5332E-02   7.7165E-02   8.0545E-03  0.0082
   7.7165E-02   7.9042E-02   7.9039E-03  0.0082
   7.9042E-02   8.0965E-02   7.9790E-03  0.0081
   8.0965E-02   8.2935E-02   7.8169E-03  0.0081
   8.2935E-02   8.4953E-02   7.7170E-03  0.0080
   8.4953E-02   8.7020E-02   7.6014E-03  0.0080
   8.7020E-02   8.9138E-02   7.6870E-03  0.0078
   8.9138E-02   9.1306E-02   7.3553E-03  0.0079
   9.1306E-02   9.3528E-02   7.3768E-03  0.0078
   9.3528E-02   9.5804E-02   7.2697E-03  0.0078
   9.5804E-02   9.8134E-02   7.1820E-03  0.0077
   9.8134E-02   1.0052E-01   7.1464E-03  0.0077
   1.0052E-01   1.0297E-01   7.0468E-03  0.0076
   1.0297E-01   1.0547E-01   7.0165E-03  0.0075
   1.0547E-01   1.0804E-01   6.8836E-03  0.0075
   1.0804E-01   1.1067E-01   6.7745E-03  0.0075
   1.1067E-01   1.1336E-01   6.7547E-03  0.0074
   1.1336E-01   1.1612E-01   6.6883E-03  0.0074
   1.1612E-01   1.1894E-01   6.5466E-03  0.0074
   1.1894E-01   1.2184E-01   6.5668E-03  0.0073
   1.2184E-01   1.2480E-01   6.4933E-03  0.0072
   1.2480E-01   1.2784E-01   6.4211E-03  0.0072
   1.2784E-01   1.3095E-01   6.3650E-03  0.0071
   1.3095E-01   1.3414E-01   6.2357E-03  0.0071
   1.3414E-01   1.3740E-01   6.2113E-03  0.0070
   1.3740E-01   1.4074E-01   6.2110E-03  0.0069
   1.4074E-01   1.4417E-01   6.0474E-03  0.0069
   1.4417E-01   1.4767E-01   6.0136E-03  0.0069
   1.4767E-01   1.5127E-01   5.9632E-03  0.0068
   1.5127E-01   1.5495E-01   5.9071E-03  0.0068
   1.5495E-01   1.5872E-01   5.7375E-03  0.0068
   1.5872E-01   1.6258E-01   5.7389E-03  0.0067
   1.6258E-01   1.6654E-01   5.6149E-03  0.0067
   1.6654E-01   1.7059E-01   5.5867E-03  0.0066
   1.7059E-01   1.7474E-01   5.4998E-03  0.0066
   1.7474E-01   1.7899E-01   5.4512E-03  0.0066
   1.7899E-01   1.8334E-01   5.3486E-03  0.0066
   1.8334E-01   1.8781E-01   5.3179E-03  0.0065
   1.8781E-01   1.9237E-01   5.2538E-03  0.0065
   1.9237E-01   1.9706E-01   5.1423E-03  0.0064
   1.9706E-01   2.0185E-01   5.1073E-03  0.0064
   2.0185E-01   2.0676E-01   5.0976E-03  0.0063
   2.0676E-01   2.1179E-01   4.9606E-03  0.0063
   2.1179E-01   2.1694E-01   4.8757E-03  0.0063
   2.1694E-01   2.2222E-01   4.7681E-03  0.0063
   2.2222E-01   2.2763E-01   4.8624E-03  0.0062
   2.2763E-01   2.3317E-01   4.6790E-03  0.0062
   2.3317E-01   2.3884E-01   4.6209E-03  0.0062
   2.3884E-01   2.4465E-01   4.5762E-03  0.0061
   2.4465E-01   2.5061E-01   4.5473E-03  0.0061
   2.5061E-01   2.5670E-01   4.4348E-03  0.0061
   2.5670E-01   2.6295E-01   4.4022E-03  0.0060
   2.6295E-01   2.6935E-01   4.2982E-03  0.0060
   2.6935E-01   2.7590E-01   4.2546E-03  0.0060
   2.7590E-01   2.8261E-01   4.2288E-03  0.0059
   2.8261E-01   2.8949E-01   4.1047E-03  0.0060
   2.8949E-01   2.9653E-01   4.0804E-03  0.0059
   2.9653E-01   3.0375E-01   4.0338E-03  0.0059
   3.0375E-01   3.1114E-01   3.9645E-03  0.0058
   3.1114E-01   3.1871E-01   3.8601E-03  0.0059
   3.1871E-01   3.2646E-01   3.7729E-03  0.0058
   3.2646E-01   3.3441E-01   3.7769E-03  0.0058
   3.3441E-01   3.4254E-01   3.7031E-03  0.0058
   3.4254E-01   3.5088E-01   3.6597E-03  0.0057
   3.5088E-01   3.5941E-01   3.6266E-03  0.0057
   3.5941E-01   3.6816E-01   3.5460E-03  0.0057
   3.6816E-01   3.7712E-01   3.4927E-03  0.0057
   3.7712E-01   3.8629E-01   3.3727E-03  0.0057
   3.8629E-01   3.9569E-01   3.3512E-03  0.0056
   3.9569E-01   4.0532E-01   3.2784E-03  0.0056
   4.0532E-01   4.1518E-01   3.2001E-03  0.0056
   4.1518E-01   4.2528E-01   3.1618E-03  0.0056
   4.2528E-01   4.3563E-01   3.1005E-03  0.0056
   4.3563E-01   4.4623E-01   3.0560E-03  0.0056
   4.4623E-01   4.5708E-01   3.0258E-03  0.0055
   4.5708E-01   4.6821E-01   2.9281E-03  0.0055
   4.6821E-01   4.7960E-01   2.8801E-03  0.0055
   4.7960E-01   4.9127E-01   2.8215E-03  0.0055
   4.9127E-01   5.0322E-01   2.7689E-03  0.0055
   5.0322E-01   5.1546E-01   2.6971E-03  0.0055
   5.1546E-01   5.2800E-01   2.6583E-03  0.0055
   5.2800E-01   5.4085E-01   2.5606E-03  0.0055
   5.4085E-01   5.5401E-01   2.5237E-03  0.0055
   5.5401E-01   5.6749E-01   2.4650E-03  0.0055
   5.6749E-01   5.8130E-01   2.4076E-03  0.0055
   5.8130E-01   5.9544E-01   2.3307E-03  0.0055
   5.9544E-01   6.0993E-01   2.2929E-03  0.0055
   6.0993E-01   6.2477E-01   2.2390E-03  0.0055
   6.2477E-01   6.3997E-01   2.1998E-03  0.0055
   6.3997E-01   6.5554E-01   2.1214E-03  0.0055
   6.5554E-01   6.7149E-01   2.0875E-03  0.0055
   6.7149E-01   6.8783E-01   2.0196E-03  0.0055
   6.8783E-01   7.0456E-01   1.9491E-03  0.0055
   7.0456E-01   7.2171E-01   1.8963E-03  0.0056
   7.2171E-01   7.3927E-01   1.8511E-03  0.0055
   7.3927E-01   7.5725E-01   1.7758E-03  0.0056
   7.5725E-01   7.7568E-01   1.7325E-03  0.0056
   7.7568E-01   7.9455E-01   1.6768E-03  0.0056
   7.9455E-01   8.1388E-01   1.6261E-03  0.0056
   8.1388E-01   8.3368E-01   1.5687E-03  0.0057
   8.3368E-01   8.5397E-01   1.5023E-03  0.0057
   8.5397E-01   8.7475E-01   1.4662E-03  0.0057
   8.7475E-01   8.9603E-01   1.3933E-03  0.0058
   8.9603E-01   9.1783E-01   1.3513E-03  0.0058
   9.1783E-01   9.4016E-01   1.2870E-03  0.0059
   9.4016E-01   9.6304E-01   1.2342E-03  0.0060
   9.6304E-01   9.8647E-01   1.1897E-03  0.0060
   9.8647E-01   1.0105E+00   1.1403E-03  0.0060
   1.0105E+00   1.0351E+00   1.1365E-03  0.0060
   1.0351E+00   1.0602E+00   1.1471E-03  0.0059
   1.0602E+00   1.0860E+00   1.1660E-03  0.0058
   1.0860E+00   1.1125E+00   1.1746E-03  0.0057
   1.1125E+00   1.1395E+00   1.1929E-03  0.0056
   1.1395E+00   1.1673E+00   1.2347E-03  0.0054
   1.1673E+00   1.1957E+00   1.2593E-03  0.0053
   1.1957E+00   1.2247E+00   1.3052E-03  0.0051
   1.2247E+00   1.2545E+00   1.2918E-03  0.0051
   1.2545E+00   1.2851E+00   1.3038E-03  0.0050
   1.2851E+00   1.3163E+00   1.3084E-03  0.0049
   1.3163E+00   1.3484E+00   1.3328E-03  0.0048
   1.3484E+00   1.3812E+00   1.3441E-03  0.0048
   1.3812E+00   1.4148E+00   1.3681E-03  0.0047
   1.4148E+00   1.4492E+00   1.3654E-03  0.0046
   1.4492E+00   1.4845E+00   1.3469E-03  0.0046
   1.4845E+00   1.5206E+00   1.3407E-03  0.0045
   1.5206E+00   1.5576E+00   1.3478E-03  0.0045
   1.5576E+00   1.5955E+00   1.3564E-03  0.0044
   1.5955E+00   1.6343E+00   1.3647E-03  0.0043
   1.6343E+00   1.6741E+00   1.3608E-03  0.0043
   1.6741E+00   1.7148E+00   1.3832E-03  0.0042
   1.7148E+00   1.7565E+00   1.3691E-03  0.0042
   1.7565E+00   1.7992E+00   1.3495E-03  0.0042
   1.7992E+00   1.8430E+00   1.3446E-03  0.0041
   1.8430E+00   1.8879E+00   1.3304E-03  0.0041
   1.8879E+00   1.9338E+00   1.3244E-03  0.0041
   1.9338E+00   1.9808E+00   1.3318E-03  0.0040
   1.9808E+00   2.0290E+00   1.3268E-03  0.0040
   2.0290E+00   2.0784E+00   1.3029E-03  0.0039
   2.0784E+00   2.1290E+00   1.2733E-03  0.0039
   2.1290E+00   2.1808E+00   1.2457E-03  0.0039
   2.1808E+00   2.2338E+00   1.2222E-03  0.0039
   2.2338E+00   2.2882E+00   1.2075E-03  0.0039
   2.2882E+00   2.3439E+00   1.2016E-03  0.0039
   2.3439E+00   2.4009E+00   1.1996E-03  0.0038
   2.4009E+00   2.4593E+00   1.1750E-03  0.0038
   2.4593E+00   2.5191E+00   1.1446E-03  0.0038
   2.5191E+00   2.5804E+00   1.1145E-03  0.0038
   2.5804E+00   2.6432E+00   1.0787E-03  0.0038
   2.6432E+00   2.7075E+00   1.0489E-03  0.0039
   2.7075E+00   2.7734E+00   1.0188E-03  0.0039
   2.7734E+00   2.8409E+00   9.9752E-04  0.0039
   2.8409E+00   2.9100E+00   9.9089E-04  0.0038
   2.9100E+00   2.9808E+00   9.6002E-04  0.0038
   2.9808E+00   3.0533E+00   9.4781E-04  0.0038
   3.0533E+00   3.1276E+00   9.1497E-04  0.0038
   3.1276E+00   3.2037E+00   8.8266E-04  0.0039
   3.2037E+00   3.2817E+00   8.5138E-04  0.0039
   3.2817E+00   3.3615E+00   8.1738E-04  0.0039
   3.3615E+00   3.4433E+00   7.9451E-04  0.0039
   3.4433E+00   3.5271E+00   7.7026E-04  0.0039
   3.5271E+00   3.6129E+00   7.5096E-04  0.0039
   3.6129E+00   3.7008E+00   7.3355E-04  0.0039
   3.7008E+00   3.7908E+00   7.0216E-04  0.0040
   3.7908E+00   3.8831E+00   6.7499E-04  0.0040
   3.8831E+00   3.9776E+00   6.5786E-04  0.0040
   3.9776E+00   4.0743E+00   6.3847E-04  0.0040
   4.0743E+00   4.1735E+00   6.1157E-04  0.0041
   4.1735E+00   4.2750E+00   5.8081E-04  0.0041
   4.2750E+00   4.3790E+00   5.6061E-04  0.0041
   4.3790E+00   4.4856E+00   5.3875E-04  0.0042
   4.4856E+00   4.5947E+00   5.1632E-04  0.0042
   4.5947E+00   4.7065E+00   4.9868E-04  0.0042
   4.7065E+00   4.8210E+00   4.7998E-04  0.0043
   4.8210E+00   4.9383E+00   4.6477E-04  0.0043
   4.9383E+00   5.0585E+00   4.4529E-04  0.0043
   5.0585E+00   5.1815E+00   4.2724E-04  0.0044
   5.1815E+00   5.3076E+00   4.0810E-04  0.0044
   5.3076E+00   5.4368E+00   3.9514E-04  0.0044
   5.4368E+00   5.5690E+00   3.7730E-04  0.0045
   5.5690E+00   5.7045E+00   3.5843E-04  0.0045
   5.7045E+00   5.8433E+00   3.4569E-04  0.0046
   5.8433E+00   5.9855E+00   3.2913E-04  0.0046
   5.9855E+00   6.1311E+00   3.1925E-04  0.0046
   6.1311E+00   6.2803E+00   3.0696E-04  0.0047
   6.2803E+00   6.4331E+00   2.9381E-04  0.0047
   6.4331E+00   6.5896E+00   2.7834E-04  0.0048
   6.5896E+00   6.7500E+00   2.7121E-04  0.0048
   6.7500E+00   6.9142E+00   2.6049E-04  0.0048
   6.9142E+00   7.0824E+00   2.5075E-04  0.0049
   7.0824E+00   7.2548E+00   2.4274E-04  0.0049
   7.2548E+00   7.4313E+00   2.3449E-04  0.0049
   7.4313E+00   7.6121E+00   2.2430E-04  0.0050
   7.6121E+00   7.7973E+00   2.1875E-04  0.0050
   7.7973E+00   7.9870E+00   2.1115E-04  0.0050
   7.9870E+00   8.1813E+00   2.0178E-04  0.0051
   8.1813E+00   8.3804E+00   1.9585E-04  0.0051
   8.3804E+00   8.5843E+00   1.9257E-04  0.0050
   8.5843E+00   8.7931E+00   1.8544E-04  0.0051
   8.7931E+00   9.0071E+00   1.8261E-04  0.0051
   9.0071E+00   9.2262E+00   1.7731E-04  0.0051
   9.2262E+00   9.4507E+00   1.7282E-04  0.0051
   9.4507E+00   9.6807E+00   1.6913E-04  0.0051
   9.6807E+00   9.9162E+00   1.6474E-04  0.0051
   9.9162E+00   1.0157E+01   1.6178E-04  0.0051
   1.0157E+01   1.0405E+01   1.5894E-04  0.0050
   1.0405E+01   1.0658E+01   1.5633E-04  0.0050
   1.0658E+01   1.0917E+01   1.5336E-04  0.0050
   1.0917E+01   1.1183E+01   1.5164E-04  0.0050
   1.1183E+01   1.1455E+01   1.4969E-04  0.0050
   1.1455E+01   1.1733E+01   1.4793E-04  0.0049
   1.1733E+01   1.2019E+01   1.4743E-04  0.0049
   1.2019E+01   1.2311E+01   1.4376E-04  0.0049
   1.2311E+01   1.2611E+01   1.4301E-04  0.0048
   1.2611E+01   1.2918E+01   1.4095E-04  0.0048
   1.2918E+01   1.3232E+01   1.3865E-04  0.0048
   1.3232E+01   1.3554E+01   1.3730E-04  0.0048
   1.3554E+01   1.3884E+01   1.3789E-04  0.0047
   1.3884E+01   1.4222E+01   1.3500E-04  0.0047
   1.4222E+01   1.4568E+01   1.3400E-04  0.0046
   1.4568E+01   1.4922E+01   1.3206E-04  0.0046
   1.4922E+01   1.5285E+01   1.3144E-04  0.0046
   1.5285E+01   1.5657E+01   1.2966E-04  0.0046
   1.5657E+01   1.6038E+01   1.2798E-04  0.0045
   1.6038E+01   1.6428E+01   1.2672E-04  0.0045
   1.6428E+01   1.6828E+01   1.2482E-04  0.0045
   1.6828E+01   1.7237E+01   1.2304E-04  0.0045
   1.7237E+01   1.7657E+01   1.2176E-04  0.0044
   1.7657E+01   1.8086E+01   1.1906E-04  0.0044
   1.8086E+01   1.8526E+01   1.1829E-04  0.0044
   1.8526E+01   1.8977E+01   1.1527E-04  0.0044
   1.8977E+01   1.9439E+01   1.1330E-04  0.0044
   1.9439E+01   1.9912E+01   1.1098E-04  0.0044
   1.9912E+01   2.0396E+01   9.8370E-05  0.0046
   2.0396E+01   2.0893E+01   9.7598E-05  0.0045
   2.0893E+01   2.1401E+01   9.5062E-05  0.0046
   2.1401E+01   2.1922E+01   9.2596E-05  0.0046
   2.1922E+01   2.2455E+01   9.0775E-05  0.0045
   2.2455E+01   2.3001E+01   8.7816E-05  0.0046
   2.3001E+01   2.3561E+01   8.5982E-05  0.0046
   2.3561E+01   2.4134E+01   8.4524E-05  0.0045
   2.4134E+01   2.4721E+01   8.1891E-05  0.0046
   2.4721E+01   2.5323E+01   7.9216E-05  0.0046
   2.5323E+01   2.5939E+01   7.6857E-05  0.0046
   2.5939E+01   2.6570E+01   7.4739E-05  0.0046
   2.6570E+01   2.7217E+01   7.2288E-05  0.0046
   2.7217E+01   2.7879E+01   7.0244E-05  0.0046
   2.7879E+01   2.8557E+01   6.7747E-05  0.0047
   2.8557E+01   2.9252E+01   6.5665E-05  0.0047
   2.9252E+01   2.9964E+01   6.3721E-05  0.0047
   2.9964E+01   3.0693E+01   6.0879E-05  0.0047
   3.0693E+01   3.1440E+01   5.8992E-05  0.0048
   3.1440E+01   3.2205E+01   5.6720E-05  0.0048
   3.2205E+01   3.2988E+01   5.4380E-05  0.0048
   3.2988E+01   3.3791E+01   5.2465E-05  0.0049
   3.3791E+01   3.4613E+01   5.0382E-05  0.0049
   3.4613E+01   3.5455E+01   4.7801E-05  0.0050
   3.5455E+01   3.6318E+01   4.6241E-05  0.0050
   3.6318E+01   3.7201E+01   4.4060E-05  0.0051
   3.7201E+01   3.8106E+01   4.2115E-05  0.0051
   3.8106E+01   3.9034E+01   3.9603E-05  0.0052
   3.9034E+01   3.9983E+01   3.7791E-05  0.0053
   3.9983E+01   4.0956E+01   3.6017E-05  0.0053
   4.0956E+01   4.1953E+01   3.4090E-05  0.0054
   4.1953E+01   4.2973E+01   3.2006E-05  0.0055
   4.2973E+01   4.4019E+01   3.0263E-05  0.0056
   4.4019E+01   4.5090E+01   2.8705E-05  0.0057
   4.5090E+01   4.6187E+01   2.7029E-05  0.0058
   4.6187E+01   4.7311E+01   2.5374E-05  0.0059
   4.7311E+01   4.8462E+01   2.3705E-05  0.0061
   4.8462E+01   4.9641E+01   2.2148E-05  0.0062
   4.9641E+01   5.0849E+01   2.0756E-05  0.0063
   5.0849E+01   5.2086E+01   1.9223E-05  0.0065
   5.2086E+01   5.3353E+01   1.7866E-05  0.0066
   5.3353E+01   5.4651E+01   1.6481E-05  0.0068
   5.4651E+01   5.5981E+01   1.5100E-05  0.0071
   5.5981E+01   5.7343E+01   1.3847E-05  0.0073
   5.7343E+01   5.8738E+01   1.2687E-05  0.0075
   5.8738E+01   6.0168E+01   1.1686E-05  0.0077
   6.0168E+01   6.1632E+01   1.0464E-05  0.0081
   6.1632E+01   6.3131E+01   9.6603E-06  0.0083
   6.3131E+01   6.4667E+01   8.6952E-06  0.0087
   6.4667E+01   6.6240E+01   7.7787E-06  0.0090
   6.6240E+01   6.7852E+01   6.9244E-06  0.0095
   6.7852E+01   6.9503E+01   6.0543E-06  0.0100
   6.9503E+01   7.1194E+01   5.4415E-06  0.0104
   7.1194E+01   7.2926E+01   4.7015E-06  0.0111
   7.2926E+01   7.4701E+01   4.0443E-06  0.0118
   7.4701E+01   7.6518E+01   3.5526E-06  0.0124
   7.6518E+01   7.8380E+01   3.1239E-06  0.0131
   7.8380E+01   8.0287E+01   2.6198E-06  0.0141
   8.0287E+01   8.2240E+01   2.1966E-06  0.0153
   8.2240E+01   8.4241E+01   1.8826E-06  0.0163
   8.4241E+01   8.6291E+01   1.6500E-06  0.0172
   8.6291E+01   8.8391E+01   1.3775E-06  0.0186
   8.8391E+01   9.0541E+01   1.1513E-06  0.0201
   9.0541E+01   9.2744E+01   9.1423E-07  0.0223
   9.2744E+01   9.5001E+01   7.7109E-07  0.0240
   9.5001E+01   9.7312E+01   6.0092E-07  0.0268
   9.7312E+01   9.9680E+01   4.9078E-07  0.0293
   9.9680E+01   1.0211E+02   3.9171E-07  0.0324
   1.0211E+02   1.0459E+02   3.0673E-07  0.0362
   1.0459E+02   1.0713E+02   2.2045E-07  0.0422
   1.0713E+02   1.0974E+02   1.9450E-07  0.0444
   1.0974E+02   1.1241E+02   1.3408E-07  0.0529
   1.1241E+02   1.1515E+02   8.8115E-08  0.0644
   1.1515E+02   1.1795E+02   7.3887E-08  0.0695
   1.1795E+02   1.2082E+02   4.4603E-08  0.0884
   1.2082E+02   1.2376E+02   2.8916E-08  0.1085
   1.2376E+02   1.2677E+02   1.8266E-08  0.1348
   1.2677E+02   1.2985E+02   8.7538E-09  0.1925
   1.2985E+02   1.3301E+02   4.1147E-09  0.2774
   1.3301E+02   1.3625E+02   2.4720E-09  0.3536
   1.3625E+02   1.3956E+02   6.0331E-10  0.7071
   1.3956E+02   1.4296E+02   0.0000E+00  0.0000
   1.4296E+02   1.4644E+02   0.0000E+00  0.0000
   1.4644E+02   1.5000E+02   0.0000E+00  0.0000

#   sum over                 7.8207E-05
'no. =    1   reg = 111 - 211'
msuc: {\huge [t-cross] in region mesh}
msdr: {\it plotted by \ANGEL \version}
msdl: {\it calculated by \PHITS  3.26}
wt: s(0.7)
\vspace{-3}
  region surface crossing
  area  &=&   1.0000E+00 [cm^2]
e:
 
# Information for Restart Calculation
# This calculation was newly started
# istdev =  2 # 1:Batch variance, 2:History variance
# resc2  = 1.00000000000000000E+09 # Total source weight or Total source weight / maxcas
# resc3  = 1.00000000000000000E+09 # Total history number or Total batch number
# maxcas =   500000000 # History / Batch, only used for istdev=1
# bitrseed = 0001001110011001001001110000100100110111001111011100001000101100 # bit data of rseed
