[ T-Cross ]
    title = [t-cross] in region mesh
     mesh =  reg            # mesh type is region-wise
      reg =    1            # number of crossing regions
      non     r-from    r-to       area
      1       125       225        1.000000    
   e-type =    3            # e-mesh is log given by emin, emax and ne
     emin =  1.0000000E-02  # minimum value of e-mesh points
     emax =   150.0000      # maximum value of e-mesh points
#    edel =  2.4039514E-02  # mesh width of e-mesh points
       ne =    400          # number of e-mesh points
#    data = ( e(i), i = 1, ne + 1 )
#           1.00000E-02  1.02433E-02  1.04925E-02  1.07478E-02  1.10093E-02
#           1.12772E-02  1.15516E-02  1.18326E-02  1.21205E-02  1.24154E-02
#           1.27175E-02  1.30269E-02  1.33439E-02  1.36686E-02  1.40011E-02
#           1.43418E-02  1.46907E-02  1.50482E-02  1.54143E-02  1.57894E-02
#           1.61735E-02  1.65670E-02  1.69701E-02  1.73830E-02  1.78060E-02
#           1.82392E-02  1.86830E-02  1.91375E-02  1.96032E-02  2.00801E-02
#           2.05687E-02  2.10692E-02  2.15818E-02  2.21069E-02  2.26448E-02
#           2.31957E-02  2.37601E-02  2.43382E-02  2.49304E-02  2.55369E-02
#           2.61583E-02  2.67947E-02  2.74467E-02  2.81145E-02  2.87985E-02
#           2.94992E-02  3.02169E-02  3.09521E-02  3.17052E-02  3.24766E-02
#           3.32668E-02  3.40762E-02  3.49053E-02  3.57546E-02  3.66246E-02
#           3.75157E-02  3.84284E-02  3.93634E-02  4.03212E-02  4.13022E-02
#           4.23071E-02  4.33365E-02  4.43909E-02  4.54710E-02  4.65773E-02
#           4.77106E-02  4.88714E-02  5.00605E-02  5.12785E-02  5.25262E-02
#           5.38042E-02  5.51133E-02  5.64542E-02  5.78278E-02  5.92348E-02
#           6.06760E-02  6.21523E-02  6.36645E-02  6.52135E-02  6.68002E-02
#           6.84255E-02  7.00904E-02  7.17957E-02  7.35426E-02  7.53319E-02
#           7.71648E-02  7.90423E-02  8.09655E-02  8.29354E-02  8.49533E-02
#           8.70203E-02  8.91376E-02  9.13064E-02  9.35279E-02  9.58035E-02
#           9.81345E-02  1.00522E-01  1.02968E-01  1.05473E-01  1.08040E-01
#           1.10668E-01  1.13361E-01  1.16119E-01  1.18944E-01  1.21838E-01
#           1.24803E-01  1.27839E-01  1.30950E-01  1.34136E-01  1.37399E-01
#           1.40742E-01  1.44167E-01  1.47675E-01  1.51268E-01  1.54948E-01
#           1.58718E-01  1.62580E-01  1.66535E-01  1.70587E-01  1.74738E-01
#           1.78989E-01  1.83344E-01  1.87805E-01  1.92375E-01  1.97055E-01
#           2.01850E-01  2.06761E-01  2.11792E-01  2.16945E-01  2.22223E-01
#           2.27630E-01  2.33169E-01  2.38842E-01  2.44653E-01  2.50605E-01
#           2.56703E-01  2.62949E-01  2.69346E-01  2.75900E-01  2.82613E-01
#           2.89489E-01  2.96532E-01  3.03747E-01  3.11138E-01  3.18708E-01
#           3.26462E-01  3.34405E-01  3.42542E-01  3.50876E-01  3.59413E-01
#           3.68158E-01  3.77116E-01  3.86291E-01  3.95690E-01  4.05317E-01
#           4.15179E-01  4.25281E-01  4.35628E-01  4.46227E-01  4.57084E-01
#           4.68205E-01  4.79597E-01  4.91266E-01  5.03219E-01  5.15463E-01
#           5.28005E-01  5.40851E-01  5.54011E-01  5.67490E-01  5.81298E-01
#           5.95441E-01  6.09929E-01  6.24769E-01  6.39970E-01  6.55541E-01
#           6.71491E-01  6.87828E-01  7.04564E-01  7.21706E-01  7.39266E-01
#           7.57253E-01  7.75678E-01  7.94551E-01  8.13883E-01  8.33685E-01
#           8.53969E-01  8.74747E-01  8.96030E-01  9.17831E-01  9.40163E-01
#           9.63038E-01  9.86469E-01  1.01047E+00  1.03506E+00  1.06024E+00
#           1.08604E+00  1.11246E+00  1.13953E+00  1.16725E+00  1.19565E+00
#           1.22474E+00  1.25454E+00  1.28507E+00  1.31633E+00  1.34836E+00
#           1.38117E+00  1.41477E+00  1.44920E+00  1.48446E+00  1.52057E+00
#           1.55757E+00  1.59547E+00  1.63429E+00  1.67405E+00  1.71478E+00
#           1.75650E+00  1.79924E+00  1.84302E+00  1.88786E+00  1.93379E+00
#           1.98084E+00  2.02904E+00  2.07841E+00  2.12898E+00  2.18078E+00
#           2.23384E+00  2.28819E+00  2.34386E+00  2.40089E+00  2.45930E+00
#           2.51914E+00  2.58043E+00  2.64322E+00  2.70753E+00  2.77341E+00
#           2.84088E+00  2.91001E+00  2.98081E+00  3.05333E+00  3.12762E+00
#           3.20372E+00  3.28167E+00  3.36152E+00  3.44330E+00  3.52708E+00
#           3.61290E+00  3.70080E+00  3.79085E+00  3.88308E+00  3.97756E+00
#           4.07434E+00  4.17347E+00  4.27501E+00  4.37903E+00  4.48557E+00
#           4.59471E+00  4.70650E+00  4.82102E+00  4.93832E+00  5.05847E+00
#           5.18155E+00  5.30762E+00  5.43676E+00  5.56904E+00  5.70453E+00
#           5.84333E+00  5.98550E+00  6.13114E+00  6.28031E+00  6.43312E+00
#           6.58964E+00  6.74997E+00  6.91420E+00  7.08243E+00  7.25475E+00
#           7.43126E+00  7.61207E+00  7.79728E+00  7.98700E+00  8.18133E+00
#           8.38038E+00  8.58428E+00  8.79315E+00  9.00709E+00  9.22624E+00
#           9.45072E+00  9.68067E+00  9.91620E+00  1.01575E+01  1.04046E+01
#           1.06578E+01  1.09171E+01  1.11827E+01  1.14548E+01  1.17335E+01
#           1.20190E+01  1.23114E+01  1.26109E+01  1.29178E+01  1.32321E+01
#           1.35540E+01  1.38838E+01  1.42216E+01  1.45676E+01  1.49221E+01
#           1.52851E+01  1.56570E+01  1.60380E+01  1.64282E+01  1.68279E+01
#           1.72374E+01  1.76568E+01  1.80864E+01  1.85264E+01  1.89772E+01
#           1.94389E+01  1.99119E+01  2.03963E+01  2.08926E+01  2.14009E+01
#           2.19216E+01  2.24550E+01  2.30014E+01  2.35610E+01  2.41343E+01
#           2.47215E+01  2.53230E+01  2.59391E+01  2.65702E+01  2.72167E+01
#           2.78789E+01  2.85572E+01  2.92520E+01  2.99637E+01  3.06928E+01
#           3.14396E+01  3.22045E+01  3.29881E+01  3.37907E+01  3.46128E+01
#           3.54550E+01  3.63177E+01  3.72013E+01  3.81064E+01  3.90336E+01
#           3.99833E+01  4.09561E+01  4.19526E+01  4.29734E+01  4.40189E+01
#           4.50900E+01  4.61870E+01  4.73108E+01  4.84619E+01  4.96410E+01
#           5.08488E+01  5.20860E+01  5.33533E+01  5.46514E+01  5.59812E+01
#           5.73432E+01  5.87384E+01  6.01676E+01  6.16315E+01  6.31311E+01
#           6.46671E+01  6.62405E+01  6.78522E+01  6.95031E+01  7.11941E+01
#           7.29263E+01  7.47007E+01  7.65182E+01  7.83800E+01  8.02870E+01
#           8.22405E+01  8.42414E+01  8.62911E+01  8.83906E+01  9.05412E+01
#           9.27442E+01  9.50007E+01  9.73122E+01  9.96799E+01  1.02105E+02
#           1.04589E+02  1.07134E+02  1.09741E+02  1.12411E+02  1.15146E+02
#           1.17948E+02  1.20817E+02  1.23757E+02  1.26768E+02  1.29852E+02
#           1.33012E+02  1.36248E+02  1.39563E+02  1.42959E+02  1.46437E+02
#           1.50000E+02
     unit =    2            # unit is [1/cm^2/(MeV/n)/source]
     axis =  eng            # axis of output
     file = detector-26.out  # file name of output for the above axis
   output = f-curr          # surface crossing forward current spectrum
     part =  neutron  
# kf/name :  2112     
#    used :        main (  %)        temp (  %)       total (  %)
#  memory :         414 (  0)           0 (  0)         414 (  0)

#------------------------------------------------------------------------------
#newpage:
#   no. =    1   reg = 125 - 225

x: Energy [MeV/n]
y:  F-Curr [1/cm^2/(MeV/n)/source]         
p: xlog ylog afac(0.8) form(0.9)
h: n            x            y(neutron ),hh0l   n 
#  e-lower      e-upper      neutron     r.err 
   1.0000E-02   1.0243E-02   9.8640E-05  0.1443
   1.0243E-02   1.0493E-02   1.0833E-04  0.1361
   1.0493E-02   1.0748E-02   6.2673E-05  0.1768
   1.0748E-02   1.1009E-02   1.0707E-04  0.1336
   1.1009E-02   1.1277E-02   8.7731E-05  0.1459
   1.1277E-02   1.1552E-02   9.8403E-05  0.1361
   1.1552E-02   1.1833E-02   1.0674E-04  0.1291
   1.1833E-02   1.2121E-02   8.3363E-05  0.1443
   1.2121E-02   1.2415E-02   8.4774E-05  0.1414
   1.2415E-02   1.2718E-02   8.7726E-05  0.1374
   1.2718E-02   1.3027E-02   6.7867E-05  0.1543
   1.3027E-02   1.3344E-02   1.1043E-04  0.1195
   1.3344E-02   1.3669E-02   8.0082E-05  0.1387
   1.3669E-02   1.4001E-02   8.2690E-05  0.1348
   1.4001E-02   1.4342E-02   1.0274E-04  0.1195
   1.4342E-02   1.4691E-02   8.5973E-05  0.1291
   1.4691E-02   1.5048E-02   9.9318E-05  0.1187
   1.5048E-02   1.5414E-02   9.9690E-05  0.1170
   1.5414E-02   1.5789E-02   8.7990E-05  0.1231
   1.5789E-02   1.6174E-02   9.8915E-05  0.1147
   1.6174E-02   1.6567E-02   1.0165E-04  0.1118
   1.6567E-02   1.6970E-02   1.1536E-04  0.1037
   1.6970E-02   1.7383E-02   1.0535E-04  0.1072
   1.7383E-02   1.7806E-02   1.0049E-04  0.1085
   1.7806E-02   1.8239E-02   9.5791E-05  0.1098
   1.8239E-02   1.8683E-02   1.1267E-04  0.1000
   1.8683E-02   1.9138E-02   1.2209E-04  0.0949
   1.9138E-02   1.9603E-02   9.1274E-05  0.1085
   1.9603E-02   2.0080E-02   1.3209E-04  0.0891
   2.0080E-02   2.0569E-02   9.0060E-05  0.1066
   2.0569E-02   2.1069E-02   1.1290E-04  0.0941
   2.1069E-02   2.1582E-02   1.0924E-04  0.0945
   2.1582E-02   2.2107E-02   1.1617E-04  0.0905
   2.2107E-02   2.2645E-02   1.0597E-04  0.0937
   2.2645E-02   2.3196E-02   1.1888E-04  0.0874
   2.3196E-02   2.3760E-02   9.3910E-05  0.0971
   2.3760E-02   2.4338E-02   1.0811E-04  0.0894
   2.4338E-02   2.4930E-02   1.1145E-04  0.0870
   2.4930E-02   2.5537E-02   9.6443E-05  0.0925
   2.5537E-02   2.6158E-02   1.1105E-04  0.0851
   2.6158E-02   2.6795E-02   1.3984E-04  0.0750
   2.6795E-02   2.7447E-02   1.1888E-04  0.0803
   2.7447E-02   2.8114E-02   1.2504E-04  0.0774
   2.8114E-02   2.8799E-02   1.0891E-04  0.0819
   2.8799E-02   2.9499E-02   1.0989E-04  0.0806
   2.9499E-02   3.0217E-02   1.2609E-04  0.0743
   3.0217E-02   3.0952E-02   1.1017E-04  0.0786
   3.0952E-02   3.1705E-02   1.2017E-04  0.0743
   3.1705E-02   3.2477E-02   1.1797E-04  0.0741
   3.2477E-02   3.3267E-02   1.1453E-04  0.0743
   3.3267E-02   3.4076E-02   1.1490E-04  0.0733
   3.4076E-02   3.4905E-02   1.2242E-04  0.0702
   3.4905E-02   3.5755E-02   1.0126E-04  0.0762
   3.5755E-02   3.6625E-02   1.1840E-04  0.0697
   3.6625E-02   3.7516E-02   1.2793E-04  0.0662
   3.7516E-02   3.8428E-02   1.1394E-04  0.0693
   3.8428E-02   3.9363E-02   1.2032E-04  0.0667
   3.9363E-02   4.0321E-02   1.3469E-04  0.0623
   4.0321E-02   4.1302E-02   1.0397E-04  0.0700
   4.1302E-02   4.2307E-02   1.3334E-04  0.0611
   4.2307E-02   4.3337E-02   1.1949E-04  0.0638
   4.3337E-02   4.4391E-02   1.2803E-04  0.0609
   4.4391E-02   4.5471E-02   1.1897E-04  0.0624
   4.5471E-02   4.6577E-02   1.1796E-04  0.0619
   4.6577E-02   4.7711E-02   1.2265E-04  0.0600
   4.7711E-02   4.8871E-02   1.2836E-04  0.0579
   4.8871E-02   5.0061E-02   1.2741E-04  0.0574
   5.0061E-02   5.1279E-02   1.3218E-04  0.0557
   5.1279E-02   5.2526E-02   1.3305E-04  0.0549
   5.2526E-02   5.3804E-02   1.2598E-04  0.0557
   5.3804E-02   5.5113E-02   1.2642E-04  0.0550
   5.5113E-02   5.6454E-02   1.2678E-04  0.0542
   5.6454E-02   5.7828E-02   1.2704E-04  0.0535
   5.7828E-02   5.9235E-02   1.2900E-04  0.0525
   5.9235E-02   6.0676E-02   1.1587E-04  0.0547
   6.0676E-02   6.2152E-02   1.2599E-04  0.0518
   6.2152E-02   6.3665E-02   1.2796E-04  0.0508
   6.3665E-02   6.5214E-02   1.3234E-04  0.0494
   6.5214E-02   6.6800E-02   1.3204E-04  0.0489
   6.6800E-02   6.8426E-02   1.3490E-04  0.0477
   6.8426E-02   7.0090E-02   1.3305E-04  0.0475
   7.0090E-02   7.1796E-02   1.3355E-04  0.0468
   7.1796E-02   7.3543E-02   1.3424E-04  0.0462
   7.3543E-02   7.5332E-02   1.3357E-04  0.0457
   7.5332E-02   7.7165E-02   1.3012E-04  0.0458
   7.7165E-02   7.9042E-02   1.4035E-04  0.0436
   7.9042E-02   8.0965E-02   1.4949E-04  0.0417
   8.0965E-02   8.2935E-02   1.3351E-04  0.0436
   8.2935E-02   8.4953E-02   1.4917E-04  0.0408
   8.4953E-02   8.7020E-02   1.3353E-04  0.0426
   8.7020E-02   8.9138E-02   1.4854E-04  0.0399
   8.9138E-02   9.1306E-02   1.4640E-04  0.0397
   9.1306E-02   9.3528E-02   1.4809E-04  0.0390
   9.3528E-02   9.5804E-02   1.3755E-04  0.0400
   9.5804E-02   9.8134E-02   1.3943E-04  0.0392
   9.8134E-02   1.0052E-01   1.4009E-04  0.0387
   1.0052E-01   1.0297E-01   1.4249E-04  0.0379
   1.0297E-01   1.0547E-01   1.4469E-04  0.0371
   1.0547E-01   1.0804E-01   1.4457E-04  0.0367
   1.0804E-01   1.1067E-01   1.3733E-04  0.0372
   1.1067E-01   1.1336E-01   1.4577E-04  0.0357
   1.1336E-01   1.1612E-01   1.4847E-04  0.0349
   1.1612E-01   1.1894E-01   1.3662E-04  0.0360
   1.1894E-01   1.2184E-01   1.4375E-04  0.0347
   1.2184E-01   1.2480E-01   1.5551E-04  0.0329
   1.2480E-01   1.2784E-01   1.3996E-04  0.0343
   1.2784E-01   1.3095E-01   1.5528E-04  0.0322
   1.3095E-01   1.3414E-01   1.5175E-04  0.0322
   1.3414E-01   1.3740E-01   1.5382E-04  0.0316
   1.3740E-01   1.4074E-01   1.4762E-04  0.0318
   1.4074E-01   1.4417E-01   1.5886E-04  0.0303
   1.4417E-01   1.4767E-01   1.4468E-04  0.0314
   1.4767E-01   1.5127E-01   1.5725E-04  0.0297
   1.5127E-01   1.5495E-01   1.4849E-04  0.0302
   1.5495E-01   1.5872E-01   1.5676E-04  0.0291
   1.5872E-01   1.6258E-01   1.5679E-04  0.0287
   1.6258E-01   1.6654E-01   1.5547E-04  0.0285
   1.6654E-01   1.7059E-01   1.5499E-04  0.0282
   1.7059E-01   1.7474E-01   1.5299E-04  0.0281
   1.7474E-01   1.7899E-01   1.6718E-04  0.0265
   1.7899E-01   1.8334E-01   1.6430E-04  0.0264
   1.8334E-01   1.8781E-01   1.5860E-04  0.0266
   1.8781E-01   1.9237E-01   1.6567E-04  0.0257
   1.9237E-01   1.9706E-01   1.6696E-04  0.0253
   1.9706E-01   2.0185E-01   1.6634E-04  0.0250
   2.0185E-01   2.0676E-01   1.6931E-04  0.0245
   2.0676E-01   2.1179E-01   1.6479E-04  0.0246
   2.1179E-01   2.1694E-01   1.7048E-04  0.0239
   2.1694E-01   2.2222E-01   1.6245E-04  0.0241
   2.2222E-01   2.2763E-01   1.6886E-04  0.0234
   2.2763E-01   2.3317E-01   1.6566E-04  0.0233
   2.3317E-01   2.3884E-01   1.6622E-04  0.0230
   2.3884E-01   2.4465E-01   1.7268E-04  0.0223
   2.4465E-01   2.5061E-01   1.7102E-04  0.0222
   2.5061E-01   2.5670E-01   1.7737E-04  0.0215
   2.5670E-01   2.6295E-01   1.7148E-04  0.0216
   2.6295E-01   2.6935E-01   1.7561E-04  0.0211
   2.6935E-01   2.7590E-01   1.7479E-04  0.0209
   2.7590E-01   2.8261E-01   1.7176E-04  0.0208
   2.8261E-01   2.8949E-01   1.7488E-04  0.0204
   2.8949E-01   2.9653E-01   1.8343E-04  0.0197
   2.9653E-01   3.0375E-01   1.8053E-04  0.0196
   3.0375E-01   3.1114E-01   1.8666E-04  0.0190
   3.1114E-01   3.1871E-01   1.7939E-04  0.0192
   3.1871E-01   3.2646E-01   1.8402E-04  0.0187
   3.2646E-01   3.3441E-01   1.8116E-04  0.0186
   3.3441E-01   3.4254E-01   1.8611E-04  0.0182
   3.4254E-01   3.5088E-01   1.7983E-04  0.0183
   3.5088E-01   3.5941E-01   1.8871E-04  0.0176
   3.5941E-01   3.6816E-01   1.9140E-04  0.0173
   3.6816E-01   3.7712E-01   1.8671E-04  0.0173
   3.7712E-01   3.8629E-01   1.8446E-04  0.0172
   3.8629E-01   3.9569E-01   1.8987E-04  0.0167
   3.9569E-01   4.0532E-01   1.9382E-04  0.0164
   4.0532E-01   4.1518E-01   1.8202E-04  0.0167
   4.1518E-01   4.2528E-01   1.8913E-04  0.0162
   4.2528E-01   4.3563E-01   1.9097E-04  0.0159
   4.3563E-01   4.4623E-01   1.9468E-04  0.0156
   4.4623E-01   4.5708E-01   1.9264E-04  0.0155
   4.5708E-01   4.6821E-01   1.9544E-04  0.0152
   4.6821E-01   4.7960E-01   1.9306E-04  0.0151
   4.7960E-01   4.9127E-01   1.9449E-04  0.0148
   4.9127E-01   5.0322E-01   1.9217E-04  0.0148
   5.0322E-01   5.1546E-01   1.9728E-04  0.0144
   5.1546E-01   5.2800E-01   1.9672E-04  0.0142
   5.2800E-01   5.4085E-01   1.9227E-04  0.0142
   5.4085E-01   5.5401E-01   1.9169E-04  0.0141
   5.5401E-01   5.6749E-01   1.8984E-04  0.0140
   5.6749E-01   5.8130E-01   2.0027E-04  0.0134
   5.8130E-01   5.9544E-01   1.9833E-04  0.0134
   5.9544E-01   6.0993E-01   1.9589E-04  0.0133
   6.0993E-01   6.2477E-01   1.9151E-04  0.0133
   6.2477E-01   6.3997E-01   1.9061E-04  0.0131
   6.3997E-01   6.5554E-01   1.8689E-04  0.0131
   6.5554E-01   6.7149E-01   1.8920E-04  0.0129
   6.7149E-01   6.8783E-01   1.8659E-04  0.0128
   6.8783E-01   7.0456E-01   1.8361E-04  0.0128
   7.0456E-01   7.2171E-01   1.8752E-04  0.0125
   7.2171E-01   7.3927E-01   1.7993E-04  0.0126
   7.3927E-01   7.5725E-01   1.8368E-04  0.0123
   7.5725E-01   7.7568E-01   1.8361E-04  0.0122
   7.7568E-01   7.9455E-01   1.7520E-04  0.0123
   7.9455E-01   8.1388E-01   1.7360E-04  0.0122
   8.1388E-01   8.3368E-01   1.7356E-04  0.0121
   8.3368E-01   8.5397E-01   1.6926E-04  0.0121
   8.5397E-01   8.7475E-01   1.6234E-04  0.0122
   8.7475E-01   8.9603E-01   1.5768E-04  0.0122
   8.9603E-01   9.1783E-01   1.5436E-04  0.0122
   9.1783E-01   9.4016E-01   1.5019E-04  0.0122
   9.4016E-01   9.6304E-01   1.4339E-04  0.0123
   9.6304E-01   9.8647E-01   1.3791E-04  0.0124
   9.8647E-01   1.0105E+00   1.2874E-04  0.0127
   1.0105E+00   1.0351E+00   1.2822E-04  0.0126
   1.0351E+00   1.0602E+00   1.3116E-04  0.0123
   1.0602E+00   1.0860E+00   1.2537E-04  0.0124
   1.0860E+00   1.1125E+00   1.2763E-04  0.0122
   1.1125E+00   1.1395E+00   1.2673E-04  0.0121
   1.1395E+00   1.1673E+00   1.2768E-04  0.0119
   1.1673E+00   1.1957E+00   1.2812E-04  0.0117
   1.1957E+00   1.2247E+00   1.3110E-04  0.0114
   1.2247E+00   1.2545E+00   1.2562E-04  0.0116
   1.2545E+00   1.2851E+00   1.2788E-04  0.0113
   1.2851E+00   1.3163E+00   1.2331E-04  0.0114
   1.3163E+00   1.3484E+00   1.2108E-04  0.0114
   1.3484E+00   1.3812E+00   1.2529E-04  0.0110
   1.3812E+00   1.4148E+00   1.2312E-04  0.0110
   1.4148E+00   1.4492E+00   1.2284E-04  0.0109
   1.4492E+00   1.4845E+00   1.1828E-04  0.0109
   1.4845E+00   1.5206E+00   1.1667E-04  0.0109
   1.5206E+00   1.5576E+00   1.1255E-04  0.0110
   1.5576E+00   1.5955E+00   1.1254E-04  0.0108
   1.5955E+00   1.6343E+00   1.0899E-04  0.0109
   1.6343E+00   1.6741E+00   1.0586E-04  0.0109
   1.6741E+00   1.7148E+00   1.0393E-04  0.0109
   1.7148E+00   1.7565E+00   1.0334E-04  0.0108
   1.7565E+00   1.7992E+00   9.9726E-05  0.0108
   1.7992E+00   1.8430E+00   9.6946E-05  0.0109
   1.8430E+00   1.8879E+00   9.4621E-05  0.0109
   1.8879E+00   1.9338E+00   8.9783E-05  0.0110
   1.9338E+00   1.9808E+00   8.8660E-05  0.0109
   1.9808E+00   2.0290E+00   8.5407E-05  0.0110
   2.0290E+00   2.0784E+00   8.3850E-05  0.0110
   2.0784E+00   2.1290E+00   7.9767E-05  0.0111
   2.1290E+00   2.1808E+00   7.6666E-05  0.0112
   2.1808E+00   2.2338E+00   7.4604E-05  0.0112
   2.2338E+00   2.2882E+00   7.1475E-05  0.0113
   2.2882E+00   2.3439E+00   6.7303E-05  0.0116
   2.3439E+00   2.4009E+00   6.6011E-05  0.0115
   2.4009E+00   2.4593E+00   6.2428E-05  0.0117
   2.4593E+00   2.5191E+00   5.9834E-05  0.0118
   2.5191E+00   2.5804E+00   5.6805E-05  0.0120
   2.5804E+00   2.6432E+00   5.4190E-05  0.0121
   2.6432E+00   2.7075E+00   5.2506E-05  0.0122
   2.7075E+00   2.7734E+00   4.9119E-05  0.0124
   2.7734E+00   2.8409E+00   4.6488E-05  0.0126
   2.8409E+00   2.9100E+00   4.4856E-05  0.0127
   2.9100E+00   2.9808E+00   4.3491E-05  0.0127
   2.9808E+00   3.0533E+00   4.1182E-05  0.0129
   3.0533E+00   3.1276E+00   3.9093E-05  0.0131
   3.1276E+00   3.2037E+00   3.7330E-05  0.0133
   3.2037E+00   3.2817E+00   3.4327E-05  0.0137
   3.2817E+00   3.3615E+00   3.3036E-05  0.0138
   3.3615E+00   3.4433E+00   3.1209E-05  0.0140
   3.4433E+00   3.5271E+00   2.9396E-05  0.0142
   3.5271E+00   3.6129E+00   2.7550E-05  0.0145
   3.6129E+00   3.7008E+00   2.7001E-05  0.0145
   3.7008E+00   3.7908E+00   2.4863E-05  0.0149
   3.7908E+00   3.8831E+00   2.3860E-05  0.0151
   3.8831E+00   3.9776E+00   2.2230E-05  0.0154
   3.9776E+00   4.0743E+00   2.1118E-05  0.0156
   4.0743E+00   4.1735E+00   1.9217E-05  0.0162
   4.1735E+00   4.2750E+00   1.8714E-05  0.0162
   4.2750E+00   4.3790E+00   1.7784E-05  0.0164
   4.3790E+00   4.4856E+00   1.6678E-05  0.0168
   4.4856E+00   4.5947E+00   1.5432E-05  0.0172
   4.5947E+00   4.7065E+00   1.4730E-05  0.0174
   4.7065E+00   4.8210E+00   1.4212E-05  0.0175
   4.8210E+00   4.9383E+00   1.2954E-05  0.0181
   4.9383E+00   5.0585E+00   1.2307E-05  0.0184
   5.0585E+00   5.1815E+00   1.1605E-05  0.0187
   5.1815E+00   5.3076E+00   1.0462E-05  0.0195
   5.3076E+00   5.4368E+00   1.0251E-05  0.0194
   5.4368E+00   5.5690E+00   9.4761E-06  0.0200
   5.5690E+00   5.7045E+00   8.5130E-06  0.0208
   5.7045E+00   5.8433E+00   8.2459E-06  0.0209
   5.8433E+00   5.9855E+00   7.4803E-06  0.0217
   5.9855E+00   6.1311E+00   7.0658E-06  0.0220
   6.1311E+00   6.2803E+00   6.4605E-06  0.0228
   6.2803E+00   6.4331E+00   5.8931E-06  0.0236
   6.4331E+00   6.5896E+00   5.6941E-06  0.0237
   6.5896E+00   6.7500E+00   5.2376E-06  0.0244
   6.7500E+00   6.9142E+00   4.9594E-06  0.0248
   6.9142E+00   7.0824E+00   4.5712E-06  0.0255
   7.0824E+00   7.2548E+00   4.1420E-06  0.0264
   7.2548E+00   7.4313E+00   3.9260E-06  0.0269
   7.4313E+00   7.6121E+00   3.5120E-06  0.0280
   7.6121E+00   7.7973E+00   3.3003E-06  0.0286
   7.7973E+00   7.9870E+00   2.9900E-06  0.0297
   7.9870E+00   8.1813E+00   2.7621E-06  0.0305
   8.1813E+00   8.3804E+00   2.6173E-06  0.0310
   8.3804E+00   8.5843E+00   2.3001E-06  0.0326
   8.5843E+00   8.7931E+00   2.2263E-06  0.0328
   8.7931E+00   9.0071E+00   2.0379E-06  0.0338
   9.0071E+00   9.2262E+00   1.9393E-06  0.0343
   9.2262E+00   9.4507E+00   1.7106E-06  0.0361
   9.4507E+00   9.6807E+00   1.5786E-06  0.0371
   9.6807E+00   9.9162E+00   1.4223E-06  0.0386
   9.9162E+00   1.0157E+01   1.2496E-06  0.0407
   1.0157E+01   1.0405E+01   1.2533E-06  0.0402
   1.0405E+01   1.0658E+01   1.0685E-06  0.0430
   1.0658E+01   1.0917E+01   9.6216E-07  0.0447
   1.0917E+01   1.1183E+01   9.0260E-07  0.0457
   1.1183E+01   1.1455E+01   8.2879E-07  0.0471
   1.1455E+01   1.1733E+01   7.3017E-07  0.0496
   1.1733E+01   1.2019E+01   6.4977E-07  0.0519
   1.2019E+01   1.2311E+01   6.6768E-07  0.0505
   1.2311E+01   1.2611E+01   6.0007E-07  0.0527
   1.2611E+01   1.2918E+01   5.5242E-07  0.0543
   1.2918E+01   1.3232E+01   4.6691E-07  0.0583
   1.3232E+01   1.3554E+01   4.6281E-07  0.0579
   1.3554E+01   1.3884E+01   4.0178E-07  0.0614
   1.3884E+01   1.4222E+01   4.0334E-07  0.0606
   1.4222E+01   1.4568E+01   3.6558E-07  0.0629
   1.4568E+01   1.4922E+01   3.3574E-07  0.0648
   1.4922E+01   1.5285E+01   3.3190E-07  0.0644
   1.5285E+01   1.5657E+01   2.6755E-07  0.0709
   1.5657E+01   1.6038E+01   2.5988E-07  0.0711
   1.6038E+01   1.6428E+01   2.3961E-07  0.0731
   1.6428E+01   1.6828E+01   2.3017E-07  0.0737
   1.6828E+01   1.7237E+01   2.0699E-07  0.0768
   1.7237E+01   1.7657E+01   2.0982E-07  0.0754
   1.7657E+01   1.8086E+01   1.7807E-07  0.0808
   1.8086E+01   1.8526E+01   1.8293E-07  0.0788
   1.8526E+01   1.8977E+01   1.6638E-07  0.0816
   1.8977E+01   1.9439E+01   1.5594E-07  0.0833
   1.9439E+01   1.9912E+01   1.5435E-07  0.0828
   1.9912E+01   2.0396E+01   1.4862E-07  0.0833
   2.0396E+01   2.0893E+01   1.2393E-07  0.0902
   2.0893E+01   2.1401E+01   1.2689E-07  0.0880
   2.1401E+01   2.1922E+01   1.2291E-07  0.0884
   2.1922E+01   2.2455E+01   9.6556E-08  0.0985
   2.2455E+01   2.3001E+01   9.5177E-08  0.0981
   2.3001E+01   2.3561E+01   9.5597E-08  0.0967
   2.3561E+01   2.4134E+01   8.0243E-08  0.1043
   2.4134E+01   2.4721E+01   8.8555E-08  0.0981
   2.4721E+01   2.5323E+01   7.9801E-08  0.1021
   2.5323E+01   2.5939E+01   6.9791E-08  0.1078
   2.5939E+01   2.6570E+01   7.2886E-08  0.1043
   2.6570E+01   2.7217E+01   6.4968E-08  0.1091
   2.7217E+01   2.7879E+01   6.2670E-08  0.1098
   2.7879E+01   2.8557E+01   5.8970E-08  0.1118
   2.8557E+01   2.9252E+01   4.7494E-08  0.1231
   2.9252E+01   2.9964E+01   4.4259E-08  0.1260
   2.9964E+01   3.0693E+01   4.3207E-08  0.1260
   3.0693E+01   3.1440E+01   3.2138E-08  0.1443
   3.1440E+01   3.2205E+01   3.7911E-08  0.1313
   3.2205E+01   3.2988E+01   3.3820E-08  0.1374
   3.2988E+01   3.3791E+01   2.8033E-08  0.1491
   3.3791E+01   3.4613E+01   2.4326E-08  0.1581
   3.4613E+01   3.5455E+01   2.2561E-08  0.1622
   3.5455E+01   3.6318E+01   2.6662E-08  0.1474
   3.6318E+01   3.7201E+01   2.3765E-08  0.1543
   3.7201E+01   3.8106E+01   1.7124E-08  0.1796
   3.8106E+01   3.9034E+01   1.4561E-08  0.1925
   3.9034E+01   3.9983E+01   1.3688E-08  0.1961
   3.9983E+01   4.0956E+01   1.2849E-08  0.2000
   4.0956E+01   4.1953E+01   1.1039E-08  0.2132
   4.1953E+01   4.2973E+01   7.8374E-09  0.2500
   4.2973E+01   4.4019E+01   7.6513E-09  0.2500
   4.4019E+01   4.5090E+01   1.2138E-08  0.1961
   4.5090E+01   4.6187E+01   5.9248E-09  0.2774
   4.6187E+01   4.7311E+01   2.6696E-09  0.4082
   4.7311E+01   4.8462E+01   3.9093E-09  0.3333
   4.8462E+01   4.9641E+01   5.0886E-09  0.2887
   4.9641E+01   5.0849E+01   6.2096E-09  0.2582
   5.0849E+01   5.2086E+01   2.4248E-09  0.4082
   5.2086E+01   5.3353E+01   5.5236E-09  0.2673
   5.3353E+01   5.4651E+01   2.6962E-09  0.3780
   5.4651E+01   5.5981E+01   2.6321E-09  0.3780
   5.5981E+01   5.7343E+01   1.8354E-09  0.4472
   5.7343E+01   5.8738E+01   2.8670E-09  0.3536
   5.8738E+01   6.0168E+01   1.3994E-09  0.5000
   6.0168E+01   6.1632E+01   1.7077E-09  0.4472
   6.1632E+01   6.3131E+01   1.3337E-09  0.5000
   6.3131E+01   6.4667E+01   6.5103E-10  0.7071
   6.4667E+01   6.6240E+01   0.0000E+00  0.0000
   6.6240E+01   6.7852E+01   3.1023E-10  1.0000
   6.7852E+01   6.9503E+01   0.0000E+00  0.0000
   6.9503E+01   7.1194E+01   0.0000E+00  0.0000
   7.1194E+01   7.2926E+01   0.0000E+00  0.0000
   7.2926E+01   7.4701E+01   2.8179E-10  1.0000
   7.4701E+01   7.6518E+01   0.0000E+00  0.0000
   7.6518E+01   7.8380E+01   0.0000E+00  0.0000
   7.8380E+01   8.0287E+01   0.0000E+00  0.0000
   8.0287E+01   8.2240E+01   0.0000E+00  0.0000
   8.2240E+01   8.4241E+01   0.0000E+00  0.0000
   8.4241E+01   8.6291E+01   0.0000E+00  0.0000
   8.6291E+01   8.8391E+01   0.0000E+00  0.0000
   8.8391E+01   9.0541E+01   0.0000E+00  0.0000
   9.0541E+01   9.2744E+01   0.0000E+00  0.0000
   9.2744E+01   9.5001E+01   0.0000E+00  0.0000
   9.5001E+01   9.7312E+01   0.0000E+00  0.0000
   9.7312E+01   9.9680E+01   0.0000E+00  0.0000
   9.9680E+01   1.0211E+02   0.0000E+00  0.0000
   1.0211E+02   1.0459E+02   0.0000E+00  0.0000
   1.0459E+02   1.0713E+02   0.0000E+00  0.0000
   1.0713E+02   1.0974E+02   0.0000E+00  0.0000
   1.0974E+02   1.1241E+02   0.0000E+00  0.0000
   1.1241E+02   1.1515E+02   0.0000E+00  0.0000
   1.1515E+02   1.1795E+02   0.0000E+00  0.0000
   1.1795E+02   1.2082E+02   0.0000E+00  0.0000
   1.2082E+02   1.2376E+02   0.0000E+00  0.0000
   1.2376E+02   1.2677E+02   0.0000E+00  0.0000
   1.2677E+02   1.2985E+02   0.0000E+00  0.0000
   1.2985E+02   1.3301E+02   0.0000E+00  0.0000
   1.3301E+02   1.3625E+02   0.0000E+00  0.0000
   1.3625E+02   1.3956E+02   0.0000E+00  0.0000
   1.3956E+02   1.4296E+02   0.0000E+00  0.0000
   1.4296E+02   1.4644E+02   0.0000E+00  0.0000
   1.4644E+02   1.5000E+02   0.0000E+00  0.0000

#   sum over                 2.7853E-06
'no. =    1   reg = 125 - 225'
msuc: {\huge [t-cross] in region mesh}
msdr: {\it plotted by \ANGEL \version}
msdl: {\it calculated by \PHITS  3.26}
wt: s(0.7)
\vspace{-3}
  region surface crossing
  area  &=&   1.0000E+00 [cm^2]
e:
 
# Information for Restart Calculation
# This calculation was newly started
# istdev =  2 # 1:Batch variance, 2:History variance
# resc2  = 2.00000000000000000E+09 # Total source weight or Total source weight / maxcas
# resc3  = 2.00000000000000000E+09 # Total history number or Total batch number
# maxcas =   500000000 # History / Batch, only used for istdev=1
# bitrseed = 0011011010010000100111110110001101100001010011100000011100000110 # bit data of rseed
