[ T-Cross ]
    title = [t-cross] in region mesh
     mesh =  reg            # mesh type is region-wise
      reg =    1            # number of crossing regions
      non     r-from    r-to       area
      1       116       216        1.000000    
   e-type =    3            # e-mesh is log given by emin, emax and ne
     emin =  1.0000000E-02  # minimum value of e-mesh points
     emax =   150.0000      # maximum value of e-mesh points
#    edel =  2.4039514E-02  # mesh width of e-mesh points
       ne =    400          # number of e-mesh points
#    data = ( e(i), i = 1, ne + 1 )
#           1.00000E-02  1.02433E-02  1.04925E-02  1.07478E-02  1.10093E-02
#           1.12772E-02  1.15516E-02  1.18326E-02  1.21205E-02  1.24154E-02
#           1.27175E-02  1.30269E-02  1.33439E-02  1.36686E-02  1.40011E-02
#           1.43418E-02  1.46907E-02  1.50482E-02  1.54143E-02  1.57894E-02
#           1.61735E-02  1.65670E-02  1.69701E-02  1.73830E-02  1.78060E-02
#           1.82392E-02  1.86830E-02  1.91375E-02  1.96032E-02  2.00801E-02
#           2.05687E-02  2.10692E-02  2.15818E-02  2.21069E-02  2.26448E-02
#           2.31957E-02  2.37601E-02  2.43382E-02  2.49304E-02  2.55369E-02
#           2.61583E-02  2.67947E-02  2.74467E-02  2.81145E-02  2.87985E-02
#           2.94992E-02  3.02169E-02  3.09521E-02  3.17052E-02  3.24766E-02
#           3.32668E-02  3.40762E-02  3.49053E-02  3.57546E-02  3.66246E-02
#           3.75157E-02  3.84284E-02  3.93634E-02  4.03212E-02  4.13022E-02
#           4.23071E-02  4.33365E-02  4.43909E-02  4.54710E-02  4.65773E-02
#           4.77106E-02  4.88714E-02  5.00605E-02  5.12785E-02  5.25262E-02
#           5.38042E-02  5.51133E-02  5.64542E-02  5.78278E-02  5.92348E-02
#           6.06760E-02  6.21523E-02  6.36645E-02  6.52135E-02  6.68002E-02
#           6.84255E-02  7.00904E-02  7.17957E-02  7.35426E-02  7.53319E-02
#           7.71648E-02  7.90423E-02  8.09655E-02  8.29354E-02  8.49533E-02
#           8.70203E-02  8.91376E-02  9.13064E-02  9.35279E-02  9.58035E-02
#           9.81345E-02  1.00522E-01  1.02968E-01  1.05473E-01  1.08040E-01
#           1.10668E-01  1.13361E-01  1.16119E-01  1.18944E-01  1.21838E-01
#           1.24803E-01  1.27839E-01  1.30950E-01  1.34136E-01  1.37399E-01
#           1.40742E-01  1.44167E-01  1.47675E-01  1.51268E-01  1.54948E-01
#           1.58718E-01  1.62580E-01  1.66535E-01  1.70587E-01  1.74738E-01
#           1.78989E-01  1.83344E-01  1.87805E-01  1.92375E-01  1.97055E-01
#           2.01850E-01  2.06761E-01  2.11792E-01  2.16945E-01  2.22223E-01
#           2.27630E-01  2.33169E-01  2.38842E-01  2.44653E-01  2.50605E-01
#           2.56703E-01  2.62949E-01  2.69346E-01  2.75900E-01  2.82613E-01
#           2.89489E-01  2.96532E-01  3.03747E-01  3.11138E-01  3.18708E-01
#           3.26462E-01  3.34405E-01  3.42542E-01  3.50876E-01  3.59413E-01
#           3.68158E-01  3.77116E-01  3.86291E-01  3.95690E-01  4.05317E-01
#           4.15179E-01  4.25281E-01  4.35628E-01  4.46227E-01  4.57084E-01
#           4.68205E-01  4.79597E-01  4.91266E-01  5.03219E-01  5.15463E-01
#           5.28005E-01  5.40851E-01  5.54011E-01  5.67490E-01  5.81298E-01
#           5.95441E-01  6.09929E-01  6.24769E-01  6.39970E-01  6.55541E-01
#           6.71491E-01  6.87828E-01  7.04564E-01  7.21706E-01  7.39266E-01
#           7.57253E-01  7.75678E-01  7.94551E-01  8.13883E-01  8.33685E-01
#           8.53969E-01  8.74747E-01  8.96030E-01  9.17831E-01  9.40163E-01
#           9.63038E-01  9.86469E-01  1.01047E+00  1.03506E+00  1.06024E+00
#           1.08604E+00  1.11246E+00  1.13953E+00  1.16725E+00  1.19565E+00
#           1.22474E+00  1.25454E+00  1.28507E+00  1.31633E+00  1.34836E+00
#           1.38117E+00  1.41477E+00  1.44920E+00  1.48446E+00  1.52057E+00
#           1.55757E+00  1.59547E+00  1.63429E+00  1.67405E+00  1.71478E+00
#           1.75650E+00  1.79924E+00  1.84302E+00  1.88786E+00  1.93379E+00
#           1.98084E+00  2.02904E+00  2.07841E+00  2.12898E+00  2.18078E+00
#           2.23384E+00  2.28819E+00  2.34386E+00  2.40089E+00  2.45930E+00
#           2.51914E+00  2.58043E+00  2.64322E+00  2.70753E+00  2.77341E+00
#           2.84088E+00  2.91001E+00  2.98081E+00  3.05333E+00  3.12762E+00
#           3.20372E+00  3.28167E+00  3.36152E+00  3.44330E+00  3.52708E+00
#           3.61290E+00  3.70080E+00  3.79085E+00  3.88308E+00  3.97756E+00
#           4.07434E+00  4.17347E+00  4.27501E+00  4.37903E+00  4.48557E+00
#           4.59471E+00  4.70650E+00  4.82102E+00  4.93832E+00  5.05847E+00
#           5.18155E+00  5.30762E+00  5.43676E+00  5.56904E+00  5.70453E+00
#           5.84333E+00  5.98550E+00  6.13114E+00  6.28031E+00  6.43312E+00
#           6.58964E+00  6.74997E+00  6.91420E+00  7.08243E+00  7.25475E+00
#           7.43126E+00  7.61207E+00  7.79728E+00  7.98700E+00  8.18133E+00
#           8.38038E+00  8.58428E+00  8.79315E+00  9.00709E+00  9.22624E+00
#           9.45072E+00  9.68067E+00  9.91620E+00  1.01575E+01  1.04046E+01
#           1.06578E+01  1.09171E+01  1.11827E+01  1.14548E+01  1.17335E+01
#           1.20190E+01  1.23114E+01  1.26109E+01  1.29178E+01  1.32321E+01
#           1.35540E+01  1.38838E+01  1.42216E+01  1.45676E+01  1.49221E+01
#           1.52851E+01  1.56570E+01  1.60380E+01  1.64282E+01  1.68279E+01
#           1.72374E+01  1.76568E+01  1.80864E+01  1.85264E+01  1.89772E+01
#           1.94389E+01  1.99119E+01  2.03963E+01  2.08926E+01  2.14009E+01
#           2.19216E+01  2.24550E+01  2.30014E+01  2.35610E+01  2.41343E+01
#           2.47215E+01  2.53230E+01  2.59391E+01  2.65702E+01  2.72167E+01
#           2.78789E+01  2.85572E+01  2.92520E+01  2.99637E+01  3.06928E+01
#           3.14396E+01  3.22045E+01  3.29881E+01  3.37907E+01  3.46128E+01
#           3.54550E+01  3.63177E+01  3.72013E+01  3.81064E+01  3.90336E+01
#           3.99833E+01  4.09561E+01  4.19526E+01  4.29734E+01  4.40189E+01
#           4.50900E+01  4.61870E+01  4.73108E+01  4.84619E+01  4.96410E+01
#           5.08488E+01  5.20860E+01  5.33533E+01  5.46514E+01  5.59812E+01
#           5.73432E+01  5.87384E+01  6.01676E+01  6.16315E+01  6.31311E+01
#           6.46671E+01  6.62405E+01  6.78522E+01  6.95031E+01  7.11941E+01
#           7.29263E+01  7.47007E+01  7.65182E+01  7.83800E+01  8.02870E+01
#           8.22405E+01  8.42414E+01  8.62911E+01  8.83906E+01  9.05412E+01
#           9.27442E+01  9.50007E+01  9.73122E+01  9.96799E+01  1.02105E+02
#           1.04589E+02  1.07134E+02  1.09741E+02  1.12411E+02  1.15146E+02
#           1.17948E+02  1.20817E+02  1.23757E+02  1.26768E+02  1.29852E+02
#           1.33012E+02  1.36248E+02  1.39563E+02  1.42959E+02  1.46437E+02
#           1.50000E+02
     unit =    2            # unit is [1/cm^2/(MeV/n)/source]
     axis =  eng            # axis of output
     file = detector-17.out  # file name of output for the above axis
   output = f-curr          # surface crossing forward current spectrum
     part =  neutron  
# kf/name :  2112     
#    used :        main (  %)        temp (  %)       total (  %)
#  memory :         414 (  0)           0 (  0)         414 (  0)

#------------------------------------------------------------------------------
#newpage:
#   no. =    1   reg = 116 - 216

x: Energy [MeV/n]
y:  F-Curr [1/cm^2/(MeV/n)/source]         
p: xlog ylog afac(0.8) form(0.9)
h: n            x            y(neutron ),hh0l   n 
#  e-lower      e-upper      neutron     r.err 
   1.0000E-02   1.0243E-02   1.9914E-04  0.0641
   1.0243E-02   1.0493E-02   2.1210E-04  0.0613
   1.0493E-02   1.0748E-02   1.8919E-04  0.0642
   1.0748E-02   1.1009E-02   2.0788E-04  0.0605
   1.1009E-02   1.1277E-02   1.9296E-04  0.0621
   1.1277E-02   1.1552E-02   1.8454E-04  0.0627
   1.1552E-02   1.1833E-02   1.9521E-04  0.0603
   1.1833E-02   1.2121E-02   2.0151E-04  0.0586
   1.2121E-02   1.2415E-02   1.8944E-04  0.0597
   1.2415E-02   1.2718E-02   1.7548E-04  0.0613
   1.2718E-02   1.3027E-02   1.8075E-04  0.0596
   1.3027E-02   1.3344E-02   1.6647E-04  0.0614
   1.3344E-02   1.3669E-02   1.6420E-04  0.0611
   1.3669E-02   1.4001E-02   1.6219E-04  0.0608
   1.4001E-02   1.4342E-02   1.7426E-04  0.0578
   1.4342E-02   1.4691E-02   1.5332E-04  0.0610
   1.4691E-02   1.5048E-02   1.4566E-04  0.0618
   1.5048E-02   1.5414E-02   1.3908E-04  0.0625
   1.5414E-02   1.5789E-02   1.3844E-04  0.0618
   1.5789E-02   1.6174E-02   1.3642E-04  0.0616
   1.6174E-02   1.6567E-02   1.3532E-04  0.0610
   1.6567E-02   1.6970E-02   1.4324E-04  0.0586
   1.6970E-02   1.7383E-02   1.4096E-04  0.0585
   1.7383E-02   1.7806E-02   1.3390E-04  0.0592
   1.7806E-02   1.8239E-02   1.2889E-04  0.0597
   1.8239E-02   1.8683E-02   1.1392E-04  0.0628
   1.8683E-02   1.9138E-02   1.1987E-04  0.0604
   1.9138E-02   1.9603E-02   1.1650E-04  0.0606
   1.9603E-02   2.0080E-02   1.1573E-04  0.0601
   2.0080E-02   2.0569E-02   1.1846E-04  0.0586
   2.0569E-02   2.1069E-02   1.2739E-04  0.0559
   2.1069E-02   2.1582E-02   9.7975E-05  0.0629
   2.1582E-02   2.2107E-02   1.0773E-04  0.0592
   2.2107E-02   2.2645E-02   9.9588E-05  0.0609
   2.2645E-02   2.3196E-02   1.0497E-04  0.0586
   2.3196E-02   2.3760E-02   9.3702E-05  0.0613
   2.3760E-02   2.4338E-02   9.1503E-05  0.0613
   2.4338E-02   2.4930E-02   1.0339E-04  0.0570
   2.4930E-02   2.5537E-02   8.8744E-05  0.0608
   2.5537E-02   2.6158E-02   8.3093E-05  0.0620
   2.6158E-02   2.6795E-02   8.6515E-05  0.0601
   2.6795E-02   2.7447E-02   8.5882E-05  0.0596
   2.7447E-02   2.8114E-02   8.8550E-05  0.0580
   2.8114E-02   2.8799E-02   8.9538E-05  0.0569
   2.8799E-02   2.9499E-02   7.9972E-05  0.0597
   2.9499E-02   3.0217E-02   8.3437E-05  0.0576
   3.0217E-02   3.0952E-02   8.0949E-05  0.0578
   3.0952E-02   3.1705E-02   7.6650E-05  0.0587
   3.1705E-02   3.2477E-02   6.6525E-05  0.0623
   3.2477E-02   3.3267E-02   7.0530E-05  0.0596
   3.3267E-02   3.4076E-02   7.6477E-05  0.0567
   3.4076E-02   3.4905E-02   7.4981E-05  0.0566
   3.4905E-02   3.5755E-02   6.4555E-05  0.0602
   3.5755E-02   3.6625E-02   7.1989E-05  0.0564
   3.6625E-02   3.7516E-02   6.3678E-05  0.0592
   3.7516E-02   3.8428E-02   6.7720E-05  0.0568
   3.8428E-02   3.9363E-02   6.1381E-05  0.0588
   3.9363E-02   4.0321E-02   6.0540E-05  0.0585
   4.0321E-02   4.1302E-02   6.2287E-05  0.0571
   4.1302E-02   4.2307E-02   5.8673E-05  0.0580
   4.2307E-02   4.3337E-02   6.1897E-05  0.0559
   4.3337E-02   4.4391E-02   5.9018E-05  0.0565
   4.4391E-02   4.5471E-02   5.4251E-05  0.0583
   4.5471E-02   4.6577E-02   5.6511E-05  0.0563
   4.6577E-02   4.7711E-02   5.3542E-05  0.0571
   4.7711E-02   4.8871E-02   5.2969E-05  0.0569
   4.8871E-02   5.0061E-02   5.1316E-05  0.0570
   5.0061E-02   5.1279E-02   5.1884E-05  0.0561
   5.1279E-02   5.2526E-02   5.4160E-05  0.0542
   5.2526E-02   5.3804E-02   4.8812E-05  0.0565
   5.3804E-02   5.5113E-02   5.0955E-05  0.0546
   5.5113E-02   5.6454E-02   4.7308E-05  0.0560
   5.6454E-02   5.7828E-02   4.6684E-05  0.0557
   5.7828E-02   5.9235E-02   4.5989E-05  0.0554
   5.9235E-02   6.0676E-02   3.8686E-05  0.0598
   6.0676E-02   6.2152E-02   4.2852E-05  0.0561
   6.2152E-02   6.3665E-02   4.7226E-05  0.0527
   6.3665E-02   6.5214E-02   3.9063E-05  0.0573
   6.5214E-02   6.6800E-02   4.3489E-05  0.0537
   6.6800E-02   6.8426E-02   3.8162E-05  0.0566
   6.8426E-02   7.0090E-02   4.3558E-05  0.0523
   7.0090E-02   7.1796E-02   4.0826E-05  0.0534
   7.1796E-02   7.3543E-02   3.8199E-05  0.0546
   7.3543E-02   7.5332E-02   3.6430E-05  0.0552
   7.5332E-02   7.7165E-02   3.6370E-05  0.0547
   7.7165E-02   7.9042E-02   3.4049E-05  0.0557
   7.9042E-02   8.0965E-02   3.4973E-05  0.0543
   8.0965E-02   8.2935E-02   3.6927E-05  0.0523
   8.2935E-02   8.4953E-02   3.4577E-05  0.0534
   8.4953E-02   8.7020E-02   3.3850E-05  0.0532
   8.7020E-02   8.9138E-02   3.3497E-05  0.0530
   8.9138E-02   9.1306E-02   3.2393E-05  0.0532
   9.1306E-02   9.3528E-02   3.2240E-05  0.0526
   9.3528E-02   9.5804E-02   3.3411E-05  0.0511
   9.5804E-02   9.8134E-02   3.1091E-05  0.0524
   9.8134E-02   1.0052E-01   3.1710E-05  0.0512
   1.0052E-01   1.0297E-01   3.2621E-05  0.0499
   1.0297E-01   1.0547E-01   3.4656E-05  0.0479
   1.0547E-01   1.0804E-01   3.3713E-05  0.0479
   1.0804E-01   1.1067E-01   3.7226E-05  0.0450
   1.1067E-01   1.1336E-01   3.7369E-05  0.0444
   1.1336E-01   1.1612E-01   3.7852E-05  0.0436
   1.1612E-01   1.1894E-01   4.2523E-05  0.0407
   1.1894E-01   1.2184E-01   4.2901E-05  0.0401
   1.2184E-01   1.2480E-01   4.6160E-05  0.0381
   1.2480E-01   1.2784E-01   4.6134E-05  0.0377
   1.2784E-01   1.3095E-01   4.9288E-05  0.0360
   1.3095E-01   1.3414E-01   5.0519E-05  0.0352
   1.3414E-01   1.3740E-01   5.3783E-05  0.0337
   1.3740E-01   1.4074E-01   5.2511E-05  0.0336
   1.4074E-01   1.4417E-01   5.6163E-05  0.0322
   1.4417E-01   1.4767E-01   6.3354E-05  0.0299
   1.4767E-01   1.5127E-01   6.2632E-05  0.0297
   1.5127E-01   1.5495E-01   6.4471E-05  0.0290
   1.5495E-01   1.5872E-01   6.7422E-05  0.0280
   1.5872E-01   1.6258E-01   6.8546E-05  0.0274
   1.6258E-01   1.6654E-01   7.1017E-05  0.0266
   1.6654E-01   1.7059E-01   7.3245E-05  0.0259
   1.7059E-01   1.7474E-01   7.8553E-05  0.0247
   1.7474E-01   1.7899E-01   7.9277E-05  0.0243
   1.7899E-01   1.8334E-01   8.4181E-05  0.0233
   1.8334E-01   1.8781E-01   8.4256E-05  0.0230
   1.8781E-01   1.9237E-01   9.6235E-05  0.0213
   1.9237E-01   1.9706E-01   9.2395E-05  0.0215
   1.9706E-01   2.0185E-01   9.7671E-05  0.0206
   2.0185E-01   2.0676E-01   9.8917E-05  0.0202
   2.0676E-01   2.1179E-01   1.0461E-04  0.0194
   2.1179E-01   2.1694E-01   1.0887E-04  0.0188
   2.1694E-01   2.2222E-01   1.1065E-04  0.0185
   2.2222E-01   2.2763E-01   1.1820E-04  0.0176
   2.2763E-01   2.3317E-01   1.1742E-04  0.0175
   2.3317E-01   2.3884E-01   1.2330E-04  0.0169
   2.3884E-01   2.4465E-01   1.2614E-04  0.0165
   2.4465E-01   2.5061E-01   1.3452E-04  0.0158
   2.5061E-01   2.5670E-01   1.3644E-04  0.0155
   2.5670E-01   2.6295E-01   1.3755E-04  0.0152
   2.6295E-01   2.6935E-01   1.4112E-04  0.0148
   2.6935E-01   2.7590E-01   1.4689E-04  0.0144
   2.7590E-01   2.8261E-01   1.5207E-04  0.0140
   2.8261E-01   2.8949E-01   1.5244E-04  0.0138
   2.8949E-01   2.9653E-01   1.6129E-04  0.0132
   2.9653E-01   3.0375E-01   1.6632E-04  0.0129
   3.0375E-01   3.1114E-01   1.6736E-04  0.0127
   3.1114E-01   3.1871E-01   1.7138E-04  0.0124
   3.1871E-01   3.2646E-01   1.7531E-04  0.0121
   3.2646E-01   3.3441E-01   1.7816E-04  0.0119
   3.3441E-01   3.4254E-01   1.8319E-04  0.0116
   3.4254E-01   3.5088E-01   1.8546E-04  0.0113
   3.5088E-01   3.5941E-01   1.8606E-04  0.0112
   3.5941E-01   3.6816E-01   1.9367E-04  0.0108
   3.6816E-01   3.7712E-01   1.9211E-04  0.0108
   3.7712E-01   3.8629E-01   1.9638E-04  0.0105
   3.8629E-01   3.9569E-01   2.0271E-04  0.0102
   3.9569E-01   4.0532E-01   2.0437E-04  0.0101
   4.0532E-01   4.1518E-01   2.0176E-04  0.0100
   4.1518E-01   4.2528E-01   2.1094E-04  0.0097
   4.2528E-01   4.3563E-01   2.1191E-04  0.0095
   4.3563E-01   4.4623E-01   2.1107E-04  0.0094
   4.4623E-01   4.5708E-01   2.1012E-04  0.0093
   4.5708E-01   4.6821E-01   2.1567E-04  0.0091
   4.6821E-01   4.7960E-01   2.2084E-04  0.0089
   4.7960E-01   4.9127E-01   2.1917E-04  0.0088
   4.9127E-01   5.0322E-01   2.2150E-04  0.0087
   5.0322E-01   5.1546E-01   2.2323E-04  0.0085
   5.1546E-01   5.2800E-01   2.2470E-04  0.0084
   5.2800E-01   5.4085E-01   2.2002E-04  0.0084
   5.4085E-01   5.5401E-01   2.2630E-04  0.0082
   5.5401E-01   5.6749E-01   2.2486E-04  0.0081
   5.6749E-01   5.8130E-01   2.2990E-04  0.0079
   5.8130E-01   5.9544E-01   2.3146E-04  0.0078
   5.9544E-01   6.0993E-01   2.3130E-04  0.0077
   6.0993E-01   6.2477E-01   2.3196E-04  0.0076
   6.2477E-01   6.3997E-01   2.3245E-04  0.0075
   6.3997E-01   6.5554E-01   2.3037E-04  0.0074
   6.5554E-01   6.7149E-01   2.3103E-04  0.0073
   6.7149E-01   6.8783E-01   2.2964E-04  0.0073
   6.8783E-01   7.0456E-01   2.3019E-04  0.0072
   7.0456E-01   7.2171E-01   2.2978E-04  0.0071
   7.2171E-01   7.3927E-01   2.2611E-04  0.0071
   7.3927E-01   7.5725E-01   2.2587E-04  0.0070
   7.5725E-01   7.7568E-01   2.2329E-04  0.0069
   7.7568E-01   7.9455E-01   2.2245E-04  0.0069
   7.9455E-01   8.1388E-01   2.2155E-04  0.0068
   8.1388E-01   8.3368E-01   2.2083E-04  0.0067
   8.3368E-01   8.5397E-01   2.1732E-04  0.0067
   8.5397E-01   8.7475E-01   2.1741E-04  0.0066
   8.7475E-01   8.9603E-01   2.1297E-04  0.0066
   8.9603E-01   9.1783E-01   2.1622E-04  0.0065
   9.1783E-01   9.4016E-01   2.0802E-04  0.0065
   9.4016E-01   9.6304E-01   2.0648E-04  0.0065
   9.6304E-01   9.8647E-01   2.0590E-04  0.0064
   9.8647E-01   1.0105E+00   2.0084E-04  0.0064
   1.0105E+00   1.0351E+00   1.9901E-04  0.0063
   1.0351E+00   1.0602E+00   1.9558E-04  0.0063
   1.0602E+00   1.0860E+00   1.9443E-04  0.0063
   1.0860E+00   1.1125E+00   1.9404E-04  0.0062
   1.1125E+00   1.1395E+00   1.9454E-04  0.0061
   1.1395E+00   1.1673E+00   1.9567E-04  0.0060
   1.1673E+00   1.1957E+00   1.9782E-04  0.0059
   1.1957E+00   1.2247E+00   1.9584E-04  0.0059
   1.2247E+00   1.2545E+00   1.9622E-04  0.0058
   1.2545E+00   1.2851E+00   1.9151E-04  0.0058
   1.2851E+00   1.3163E+00   1.9174E-04  0.0057
   1.3163E+00   1.3484E+00   1.9102E-04  0.0056
   1.3484E+00   1.3812E+00   1.8925E-04  0.0056
   1.3812E+00   1.4148E+00   1.8801E-04  0.0055
   1.4148E+00   1.4492E+00   1.8793E-04  0.0055
   1.4492E+00   1.4845E+00   1.8500E-04  0.0054
   1.4845E+00   1.5206E+00   1.8319E-04  0.0054
   1.5206E+00   1.5576E+00   1.8147E-04  0.0053
   1.5576E+00   1.5955E+00   1.7864E-04  0.0053
   1.5955E+00   1.6343E+00   1.7417E-04  0.0053
   1.6343E+00   1.6741E+00   1.7228E-04  0.0053
   1.6741E+00   1.7148E+00   1.6705E-04  0.0053
   1.7148E+00   1.7565E+00   1.6449E-04  0.0052
   1.7565E+00   1.7992E+00   1.5715E-04  0.0053
   1.7992E+00   1.8430E+00   1.4755E-04  0.0054
   1.8430E+00   1.8879E+00   1.3753E-04  0.0055
   1.8879E+00   1.9338E+00   1.3421E-04  0.0055
   1.9338E+00   1.9808E+00   1.3055E-04  0.0055
   1.9808E+00   2.0290E+00   1.2720E-04  0.0055
   2.0290E+00   2.0784E+00   1.2425E-04  0.0055
   2.0784E+00   2.1290E+00   1.2398E-04  0.0054
   2.1290E+00   2.1808E+00   1.2444E-04  0.0053
   2.1808E+00   2.2338E+00   1.2327E-04  0.0053
   2.2338E+00   2.2882E+00   1.1989E-04  0.0053
   2.2882E+00   2.3439E+00   1.1518E-04  0.0054
   2.3439E+00   2.4009E+00   1.1127E-04  0.0054
   2.4009E+00   2.4593E+00   1.0744E-04  0.0054
   2.4593E+00   2.5191E+00   1.0612E-04  0.0054
   2.5191E+00   2.5804E+00   1.0324E-04  0.0054
   2.5804E+00   2.6432E+00   1.0059E-04  0.0054
   2.6432E+00   2.7075E+00   9.8525E-05  0.0054
   2.7075E+00   2.7734E+00   9.4864E-05  0.0054
   2.7734E+00   2.8409E+00   9.2679E-05  0.0054
   2.8409E+00   2.9100E+00   9.0096E-05  0.0055
   2.9100E+00   2.9808E+00   8.7241E-05  0.0055
   2.9808E+00   3.0533E+00   8.6559E-05  0.0054
   3.0533E+00   3.1276E+00   8.4063E-05  0.0055
   3.1276E+00   3.2037E+00   8.2239E-05  0.0055
   3.2037E+00   3.2817E+00   8.0702E-05  0.0055
   3.2817E+00   3.3615E+00   7.9470E-05  0.0054
   3.3615E+00   3.4433E+00   7.8181E-05  0.0054
   3.4433E+00   3.5271E+00   7.7824E-05  0.0054
   3.5271E+00   3.6129E+00   7.7735E-05  0.0053
   3.6129E+00   3.7008E+00   7.5738E-05  0.0053
   3.7008E+00   3.7908E+00   7.4080E-05  0.0053
   3.7908E+00   3.8831E+00   7.3224E-05  0.0053
   3.8831E+00   3.9776E+00   7.1327E-05  0.0053
   3.9776E+00   4.0743E+00   7.0116E-05  0.0053
   4.0743E+00   4.1735E+00   6.8294E-05  0.0053
   4.1735E+00   4.2750E+00   6.6775E-05  0.0053
   4.2750E+00   4.3790E+00   6.5498E-05  0.0053
   4.3790E+00   4.4856E+00   6.4140E-05  0.0053
   4.4856E+00   4.5947E+00   6.2383E-05  0.0053
   4.5947E+00   4.7065E+00   6.1174E-05  0.0053
   4.7065E+00   4.8210E+00   5.9951E-05  0.0053
   4.8210E+00   4.9383E+00   5.8676E-05  0.0052
   4.9383E+00   5.0585E+00   5.8424E-05  0.0052
   5.0585E+00   5.1815E+00   5.7307E-05  0.0052
   5.1815E+00   5.3076E+00   5.6017E-05  0.0052
   5.3076E+00   5.4368E+00   5.4950E-05  0.0052
   5.4368E+00   5.5690E+00   5.3474E-05  0.0052
   5.5690E+00   5.7045E+00   5.2679E-05  0.0052
   5.7045E+00   5.8433E+00   5.1018E-05  0.0052
   5.8433E+00   5.9855E+00   5.0160E-05  0.0052
   5.9855E+00   6.1311E+00   4.9040E-05  0.0052
   6.1311E+00   6.2803E+00   4.7663E-05  0.0052
   6.2803E+00   6.4331E+00   4.6586E-05  0.0052
   6.4331E+00   6.5896E+00   4.5339E-05  0.0052
   6.5896E+00   6.7500E+00   4.4108E-05  0.0052
   6.7500E+00   6.9142E+00   4.2750E-05  0.0052
   6.9142E+00   7.0824E+00   4.1375E-05  0.0053
   7.0824E+00   7.2548E+00   4.0054E-05  0.0053
   7.2548E+00   7.4313E+00   3.8519E-05  0.0053
   7.4313E+00   7.6121E+00   3.7757E-05  0.0053
   7.6121E+00   7.7973E+00   3.6239E-05  0.0054
   7.7973E+00   7.9870E+00   3.5228E-05  0.0054
   7.9870E+00   8.1813E+00   3.3517E-05  0.0055
   8.1813E+00   8.3804E+00   3.2540E-05  0.0055
   8.3804E+00   8.5843E+00   3.1309E-05  0.0055
   8.5843E+00   8.7931E+00   2.9940E-05  0.0056
   8.7931E+00   9.0071E+00   2.8734E-05  0.0057
   9.0071E+00   9.2262E+00   2.7839E-05  0.0057
   9.2262E+00   9.4507E+00   2.6393E-05  0.0058
   9.4507E+00   9.6807E+00   2.5134E-05  0.0058
   9.6807E+00   9.9162E+00   2.4026E-05  0.0059
   9.9162E+00   1.0157E+01   2.4013E-05  0.0059
   1.0157E+01   1.0405E+01   2.2620E-05  0.0060
   1.0405E+01   1.0658E+01   2.1529E-05  0.0060
   1.0658E+01   1.0917E+01   2.0150E-05  0.0062
   1.0917E+01   1.1183E+01   1.9243E-05  0.0062
   1.1183E+01   1.1455E+01   1.8078E-05  0.0064
   1.1455E+01   1.1733E+01   1.7252E-05  0.0064
   1.1733E+01   1.2019E+01   1.6092E-05  0.0066
   1.2019E+01   1.2311E+01   1.5292E-05  0.0067
   1.2311E+01   1.2611E+01   1.4410E-05  0.0068
   1.2611E+01   1.2918E+01   1.3339E-05  0.0070
   1.2918E+01   1.3232E+01   1.2445E-05  0.0071
   1.3232E+01   1.3554E+01   1.1614E-05  0.0073
   1.3554E+01   1.3884E+01   1.1030E-05  0.0074
   1.3884E+01   1.4222E+01   1.0269E-05  0.0076
   1.4222E+01   1.4568E+01   9.3521E-06  0.0079
   1.4568E+01   1.4922E+01   8.5918E-06  0.0081
   1.4922E+01   1.5285E+01   7.8961E-06  0.0084
   1.5285E+01   1.5657E+01   7.3419E-06  0.0086
   1.5657E+01   1.6038E+01   6.5953E-06  0.0089
   1.6038E+01   1.6428E+01   6.0222E-06  0.0092
   1.6428E+01   1.6828E+01   5.4395E-06  0.0096
   1.6828E+01   1.7237E+01   4.8969E-06  0.0100
   1.7237E+01   1.7657E+01   4.5050E-06  0.0103
   1.7657E+01   1.8086E+01   4.0013E-06  0.0108
   1.8086E+01   1.8526E+01   4.0166E-06  0.0106
   1.8526E+01   1.8977E+01   4.0367E-06  0.0105
   1.8977E+01   1.9439E+01   3.8672E-06  0.0106
   1.9439E+01   1.9912E+01   3.5330E-06  0.0109
   1.9912E+01   2.0396E+01   3.1837E-06  0.0114
   2.0396E+01   2.0893E+01   2.8247E-06  0.0119
   2.0893E+01   2.1401E+01   2.5542E-06  0.0124
   2.1401E+01   2.1922E+01   2.2274E-06  0.0131
   2.1922E+01   2.2455E+01   1.9131E-06  0.0140
   2.2455E+01   2.3001E+01   1.7436E-06  0.0145
   2.3001E+01   2.3561E+01   1.5017E-06  0.0154
   2.3561E+01   2.4134E+01   1.2664E-06  0.0166
   2.4134E+01   2.4721E+01   1.0194E-06  0.0183
   2.4721E+01   2.5323E+01   8.7516E-07  0.0195
   2.5323E+01   2.5939E+01   7.1836E-07  0.0213
   2.5939E+01   2.6570E+01   6.1795E-07  0.0226
   2.6570E+01   2.7217E+01   5.2500E-07  0.0243
   2.7217E+01   2.7879E+01   4.8263E-07  0.0250
   2.7879E+01   2.8557E+01   3.9893E-07  0.0272
   2.8557E+01   2.9252E+01   2.5503E-07  0.0336
   2.9252E+01   2.9964E+01   8.8517E-08  0.0563
   2.9964E+01   3.0693E+01   2.4690E-08  0.1054
   3.0693E+01   3.1440E+01   9.1058E-09  0.1715
   3.1440E+01   3.2205E+01   7.0593E-09  0.1925
   3.2205E+01   3.2988E+01   2.2972E-09  0.3333
   3.2988E+01   3.3791E+01   2.2426E-09  0.3333
   3.3791E+01   3.4613E+01   7.2979E-10  0.5774
   3.4613E+01   3.5455E+01   4.7497E-10  0.7071
   3.5455E+01   3.6318E+01   0.0000E+00  0.0000
   3.6318E+01   3.7201E+01   0.0000E+00  0.0000
   3.7201E+01   3.8106E+01   0.0000E+00  0.0000
   3.8106E+01   3.9034E+01   0.0000E+00  0.0000
   3.9034E+01   3.9983E+01   0.0000E+00  0.0000
   3.9983E+01   4.0956E+01   0.0000E+00  0.0000
   4.0956E+01   4.1953E+01   0.0000E+00  0.0000
   4.1953E+01   4.2973E+01   0.0000E+00  0.0000
   4.2973E+01   4.4019E+01   0.0000E+00  0.0000
   4.4019E+01   4.5090E+01   0.0000E+00  0.0000
   4.5090E+01   4.6187E+01   0.0000E+00  0.0000
   4.6187E+01   4.7311E+01   0.0000E+00  0.0000
   4.7311E+01   4.8462E+01   0.0000E+00  0.0000
   4.8462E+01   4.9641E+01   0.0000E+00  0.0000
   4.9641E+01   5.0849E+01   0.0000E+00  0.0000
   5.0849E+01   5.2086E+01   0.0000E+00  0.0000
   5.2086E+01   5.3353E+01   0.0000E+00  0.0000
   5.3353E+01   5.4651E+01   0.0000E+00  0.0000
   5.4651E+01   5.5981E+01   0.0000E+00  0.0000
   5.5981E+01   5.7343E+01   0.0000E+00  0.0000
   5.7343E+01   5.8738E+01   0.0000E+00  0.0000
   5.8738E+01   6.0168E+01   0.0000E+00  0.0000
   6.0168E+01   6.1632E+01   0.0000E+00  0.0000
   6.1632E+01   6.3131E+01   0.0000E+00  0.0000
   6.3131E+01   6.4667E+01   0.0000E+00  0.0000
   6.4667E+01   6.6240E+01   0.0000E+00  0.0000
   6.6240E+01   6.7852E+01   0.0000E+00  0.0000
   6.7852E+01   6.9503E+01   0.0000E+00  0.0000
   6.9503E+01   7.1194E+01   0.0000E+00  0.0000
   7.1194E+01   7.2926E+01   0.0000E+00  0.0000
   7.2926E+01   7.4701E+01   0.0000E+00  0.0000
   7.4701E+01   7.6518E+01   0.0000E+00  0.0000
   7.6518E+01   7.8380E+01   0.0000E+00  0.0000
   7.8380E+01   8.0287E+01   0.0000E+00  0.0000
   8.0287E+01   8.2240E+01   0.0000E+00  0.0000
   8.2240E+01   8.4241E+01   0.0000E+00  0.0000
   8.4241E+01   8.6291E+01   0.0000E+00  0.0000
   8.6291E+01   8.8391E+01   0.0000E+00  0.0000
   8.8391E+01   9.0541E+01   0.0000E+00  0.0000
   9.0541E+01   9.2744E+01   0.0000E+00  0.0000
   9.2744E+01   9.5001E+01   0.0000E+00  0.0000
   9.5001E+01   9.7312E+01   0.0000E+00  0.0000
   9.7312E+01   9.9680E+01   0.0000E+00  0.0000
   9.9680E+01   1.0211E+02   0.0000E+00  0.0000
   1.0211E+02   1.0459E+02   0.0000E+00  0.0000
   1.0459E+02   1.0713E+02   0.0000E+00  0.0000
   1.0713E+02   1.0974E+02   0.0000E+00  0.0000
   1.0974E+02   1.1241E+02   0.0000E+00  0.0000
   1.1241E+02   1.1515E+02   0.0000E+00  0.0000
   1.1515E+02   1.1795E+02   0.0000E+00  0.0000
   1.1795E+02   1.2082E+02   0.0000E+00  0.0000
   1.2082E+02   1.2376E+02   0.0000E+00  0.0000
   1.2376E+02   1.2677E+02   0.0000E+00  0.0000
   1.2677E+02   1.2985E+02   0.0000E+00  0.0000
   1.2985E+02   1.3301E+02   0.0000E+00  0.0000
   1.3301E+02   1.3625E+02   0.0000E+00  0.0000
   1.3625E+02   1.3956E+02   0.0000E+00  0.0000
   1.3956E+02   1.4296E+02   0.0000E+00  0.0000
   1.4296E+02   1.4644E+02   0.0000E+00  0.0000
   1.4644E+02   1.5000E+02   0.0000E+00  0.0000

#   sum over                 6.0200E-06
'no. =    1   reg = 116 - 216'
msuc: {\huge [t-cross] in region mesh}
msdr: {\it plotted by \ANGEL \version}
msdl: {\it calculated by \PHITS  3.26}
wt: s(0.7)
\vspace{-3}
  region surface crossing
  area  &=&   1.0000E+00 [cm^2]
e:
 
# Information for Restart Calculation
# This calculation was newly started
# istdev =  2 # 1:Batch variance, 2:History variance
# resc2  = 5.00000000000000000E+09 # Total source weight or Total source weight / maxcas
# resc3  = 5.00000000000000000E+09 # Total history number or Total batch number
# maxcas =   100000000 # History / Batch, only used for istdev=1
# bitrseed = 0110100000100010111000001110001111001110100100011111101000111001 # bit data of rseed
