9 <--- number of remaining batches 

-------------------------------------------------------------------------------
bat[       1] ncas =      500000000.
 bitrseed = 0100001010011000001011101100011110011000110110100110010000000000
          cpu time =   2 h. 49 m. 34.03 s.

 date = 2022-05-19
 time = 10h 13m 32s

