[ T-Cross ]
    title = [t-cross] in region mesh
     mesh =  reg            # mesh type is region-wise
      reg =    1            # number of crossing regions
      non     r-from    r-to       area
      1       125       225        1.000000    
   e-type =    3            # e-mesh is log given by emin, emax and ne
     emin =  1.0000000E-02  # minimum value of e-mesh points
     emax =   150.0000      # maximum value of e-mesh points
#    edel =  2.4039514E-02  # mesh width of e-mesh points
       ne =    400          # number of e-mesh points
#    data = ( e(i), i = 1, ne + 1 )
#           1.00000E-02  1.02433E-02  1.04925E-02  1.07478E-02  1.10093E-02
#           1.12772E-02  1.15516E-02  1.18326E-02  1.21205E-02  1.24154E-02
#           1.27175E-02  1.30269E-02  1.33439E-02  1.36686E-02  1.40011E-02
#           1.43418E-02  1.46907E-02  1.50482E-02  1.54143E-02  1.57894E-02
#           1.61735E-02  1.65670E-02  1.69701E-02  1.73830E-02  1.78060E-02
#           1.82392E-02  1.86830E-02  1.91375E-02  1.96032E-02  2.00801E-02
#           2.05687E-02  2.10692E-02  2.15818E-02  2.21069E-02  2.26448E-02
#           2.31957E-02  2.37601E-02  2.43382E-02  2.49304E-02  2.55369E-02
#           2.61583E-02  2.67947E-02  2.74467E-02  2.81145E-02  2.87985E-02
#           2.94992E-02  3.02169E-02  3.09521E-02  3.17052E-02  3.24766E-02
#           3.32668E-02  3.40762E-02  3.49053E-02  3.57546E-02  3.66246E-02
#           3.75157E-02  3.84284E-02  3.93634E-02  4.03212E-02  4.13022E-02
#           4.23071E-02  4.33365E-02  4.43909E-02  4.54710E-02  4.65773E-02
#           4.77106E-02  4.88714E-02  5.00605E-02  5.12785E-02  5.25262E-02
#           5.38042E-02  5.51133E-02  5.64542E-02  5.78278E-02  5.92348E-02
#           6.06760E-02  6.21523E-02  6.36645E-02  6.52135E-02  6.68002E-02
#           6.84255E-02  7.00904E-02  7.17957E-02  7.35426E-02  7.53319E-02
#           7.71648E-02  7.90423E-02  8.09655E-02  8.29354E-02  8.49533E-02
#           8.70203E-02  8.91376E-02  9.13064E-02  9.35279E-02  9.58035E-02
#           9.81345E-02  1.00522E-01  1.02968E-01  1.05473E-01  1.08040E-01
#           1.10668E-01  1.13361E-01  1.16119E-01  1.18944E-01  1.21838E-01
#           1.24803E-01  1.27839E-01  1.30950E-01  1.34136E-01  1.37399E-01
#           1.40742E-01  1.44167E-01  1.47675E-01  1.51268E-01  1.54948E-01
#           1.58718E-01  1.62580E-01  1.66535E-01  1.70587E-01  1.74738E-01
#           1.78989E-01  1.83344E-01  1.87805E-01  1.92375E-01  1.97055E-01
#           2.01850E-01  2.06761E-01  2.11792E-01  2.16945E-01  2.22223E-01
#           2.27630E-01  2.33169E-01  2.38842E-01  2.44653E-01  2.50605E-01
#           2.56703E-01  2.62949E-01  2.69346E-01  2.75900E-01  2.82613E-01
#           2.89489E-01  2.96532E-01  3.03747E-01  3.11138E-01  3.18708E-01
#           3.26462E-01  3.34405E-01  3.42542E-01  3.50876E-01  3.59413E-01
#           3.68158E-01  3.77116E-01  3.86291E-01  3.95690E-01  4.05317E-01
#           4.15179E-01  4.25281E-01  4.35628E-01  4.46227E-01  4.57084E-01
#           4.68205E-01  4.79597E-01  4.91266E-01  5.03219E-01  5.15463E-01
#           5.28005E-01  5.40851E-01  5.54011E-01  5.67490E-01  5.81298E-01
#           5.95441E-01  6.09929E-01  6.24769E-01  6.39970E-01  6.55541E-01
#           6.71491E-01  6.87828E-01  7.04564E-01  7.21706E-01  7.39266E-01
#           7.57253E-01  7.75678E-01  7.94551E-01  8.13883E-01  8.33685E-01
#           8.53969E-01  8.74747E-01  8.96030E-01  9.17831E-01  9.40163E-01
#           9.63038E-01  9.86469E-01  1.01047E+00  1.03506E+00  1.06024E+00
#           1.08604E+00  1.11246E+00  1.13953E+00  1.16725E+00  1.19565E+00
#           1.22474E+00  1.25454E+00  1.28507E+00  1.31633E+00  1.34836E+00
#           1.38117E+00  1.41477E+00  1.44920E+00  1.48446E+00  1.52057E+00
#           1.55757E+00  1.59547E+00  1.63429E+00  1.67405E+00  1.71478E+00
#           1.75650E+00  1.79924E+00  1.84302E+00  1.88786E+00  1.93379E+00
#           1.98084E+00  2.02904E+00  2.07841E+00  2.12898E+00  2.18078E+00
#           2.23384E+00  2.28819E+00  2.34386E+00  2.40089E+00  2.45930E+00
#           2.51914E+00  2.58043E+00  2.64322E+00  2.70753E+00  2.77341E+00
#           2.84088E+00  2.91001E+00  2.98081E+00  3.05333E+00  3.12762E+00
#           3.20372E+00  3.28167E+00  3.36152E+00  3.44330E+00  3.52708E+00
#           3.61290E+00  3.70080E+00  3.79085E+00  3.88308E+00  3.97756E+00
#           4.07434E+00  4.17347E+00  4.27501E+00  4.37903E+00  4.48557E+00
#           4.59471E+00  4.70650E+00  4.82102E+00  4.93832E+00  5.05847E+00
#           5.18155E+00  5.30762E+00  5.43676E+00  5.56904E+00  5.70453E+00
#           5.84333E+00  5.98550E+00  6.13114E+00  6.28031E+00  6.43312E+00
#           6.58964E+00  6.74997E+00  6.91420E+00  7.08243E+00  7.25475E+00
#           7.43126E+00  7.61207E+00  7.79728E+00  7.98700E+00  8.18133E+00
#           8.38038E+00  8.58428E+00  8.79315E+00  9.00709E+00  9.22624E+00
#           9.45072E+00  9.68067E+00  9.91620E+00  1.01575E+01  1.04046E+01
#           1.06578E+01  1.09171E+01  1.11827E+01  1.14548E+01  1.17335E+01
#           1.20190E+01  1.23114E+01  1.26109E+01  1.29178E+01  1.32321E+01
#           1.35540E+01  1.38838E+01  1.42216E+01  1.45676E+01  1.49221E+01
#           1.52851E+01  1.56570E+01  1.60380E+01  1.64282E+01  1.68279E+01
#           1.72374E+01  1.76568E+01  1.80864E+01  1.85264E+01  1.89772E+01
#           1.94389E+01  1.99119E+01  2.03963E+01  2.08926E+01  2.14009E+01
#           2.19216E+01  2.24550E+01  2.30014E+01  2.35610E+01  2.41343E+01
#           2.47215E+01  2.53230E+01  2.59391E+01  2.65702E+01  2.72167E+01
#           2.78789E+01  2.85572E+01  2.92520E+01  2.99637E+01  3.06928E+01
#           3.14396E+01  3.22045E+01  3.29881E+01  3.37907E+01  3.46128E+01
#           3.54550E+01  3.63177E+01  3.72013E+01  3.81064E+01  3.90336E+01
#           3.99833E+01  4.09561E+01  4.19526E+01  4.29734E+01  4.40189E+01
#           4.50900E+01  4.61870E+01  4.73108E+01  4.84619E+01  4.96410E+01
#           5.08488E+01  5.20860E+01  5.33533E+01  5.46514E+01  5.59812E+01
#           5.73432E+01  5.87384E+01  6.01676E+01  6.16315E+01  6.31311E+01
#           6.46671E+01  6.62405E+01  6.78522E+01  6.95031E+01  7.11941E+01
#           7.29263E+01  7.47007E+01  7.65182E+01  7.83800E+01  8.02870E+01
#           8.22405E+01  8.42414E+01  8.62911E+01  8.83906E+01  9.05412E+01
#           9.27442E+01  9.50007E+01  9.73122E+01  9.96799E+01  1.02105E+02
#           1.04589E+02  1.07134E+02  1.09741E+02  1.12411E+02  1.15146E+02
#           1.17948E+02  1.20817E+02  1.23757E+02  1.26768E+02  1.29852E+02
#           1.33012E+02  1.36248E+02  1.39563E+02  1.42959E+02  1.46437E+02
#           1.50000E+02
     unit =    2            # unit is [1/cm^2/(MeV/n)/source]
     axis =  eng            # axis of output
     file = detector-26.out  # file name of output for the above axis
   output = f-curr          # surface crossing forward current spectrum
     part =  neutron  
# kf/name :  2112     
#    used :        main (  %)        temp (  %)       total (  %)
#  memory :         414 (  0)           0 (  0)         414 (  0)

#------------------------------------------------------------------------------
#newpage:
#   no. =    1   reg = 125 - 225

x: Energy [MeV/n]
y:  F-Curr [1/cm^2/(MeV/n)/source]         
p: xlog ylog afac(0.8) form(0.9)
h: n            x            y(neutron ),hh0l   n 
#  e-lower      e-upper      neutron     r.err 
   1.0000E-02   1.0243E-02   1.0160E-04  0.1160
   1.0243E-02   1.0493E-02   1.3375E-04  0.1000
   1.0493E-02   1.0748E-02   1.0054E-04  0.1136
   1.0748E-02   1.1009E-02   1.0580E-04  0.1098
   1.1009E-02   1.1277E-02   9.1007E-05  0.1168
   1.1277E-02   1.1552E-02   7.8358E-05  0.1243
   1.1552E-02   1.1833E-02   1.1208E-04  0.1027
   1.1833E-02   1.2121E-02   9.8415E-05  0.1085
   1.2121E-02   1.2415E-02   9.7387E-05  0.1076
   1.2415E-02   1.2718E-02   1.0662E-04  0.1015
   1.2718E-02   1.3027E-02   1.1179E-04  0.0979
   1.3027E-02   1.3344E-02   9.7805E-05  0.1034
   1.3344E-02   1.3669E-02   9.1030E-05  0.1060
   1.3669E-02   1.4001E-02   9.9228E-05  0.1005
   1.4001E-02   1.4342E-02   7.4366E-05  0.1147
   1.4342E-02   1.4691E-02   1.0603E-04  0.0947
   1.4691E-02   1.5048E-02   9.5508E-05  0.0986
   1.5048E-02   1.5414E-02   9.9235E-05  0.0958
   1.5414E-02   1.5789E-02   9.7467E-05  0.0953
   1.5789E-02   1.6174E-02   8.7902E-05  0.0992
   1.6174E-02   1.6567E-02   1.0122E-04  0.0914
   1.6567E-02   1.6970E-02   9.4823E-05  0.0932
   1.6970E-02   1.7383E-02   7.8452E-05  0.1014
   1.7383E-02   1.7806E-02   8.3542E-05  0.0971
   1.7806E-02   1.8239E-02   8.1557E-05  0.0971
   1.8239E-02   1.8683E-02   7.1465E-05  0.1025
   1.8683E-02   1.9138E-02   8.5209E-05  0.0927
   1.9138E-02   1.9603E-02   8.4473E-05  0.0921
   1.9603E-02   2.0080E-02   7.2202E-05  0.0983
   2.0080E-02   2.0569E-02   6.6958E-05  0.1009
   2.0569E-02   2.1069E-02   7.9262E-05  0.0915
   2.1069E-02   2.1582E-02   6.4374E-05  0.1005
   2.1582E-02   2.2107E-02   7.6098E-05  0.0911
   2.2107E-02   2.2645E-02   7.0028E-05  0.0941
   2.2645E-02   2.3196E-02   6.9056E-05  0.0935
   2.3196E-02   2.3760E-02   8.0325E-05  0.0857
   2.3760E-02   2.4338E-02   6.9292E-05  0.0912
   2.4338E-02   2.4930E-02   5.8542E-05  0.0981
   2.4930E-02   2.5537E-02   6.1812E-05  0.0941
   2.5537E-02   2.6158E-02   5.4989E-05  0.0987
   2.6158E-02   2.6795E-02   6.3110E-05  0.0910
   2.6795E-02   2.7447E-02   6.0924E-05  0.0916
   2.7447E-02   2.8114E-02   7.5372E-05  0.0814
   2.8114E-02   2.8799E-02   6.7645E-05  0.0847
   2.8799E-02   2.9499E-02   6.4288E-05  0.0860
   2.9499E-02   3.0217E-02   6.9213E-05  0.0817
   3.0217E-02   3.0952E-02   6.3701E-05  0.0843
   3.0952E-02   3.1705E-02   4.7424E-05  0.0966
   3.1705E-02   3.2477E-02   5.6606E-05  0.0874
   3.2477E-02   3.3267E-02   4.5137E-05  0.0967
   3.3267E-02   3.4076E-02   5.5184E-05  0.0864
   3.4076E-02   3.4905E-02   6.1097E-05  0.0809
   3.4905E-02   3.5755E-02   5.8231E-05  0.0820
   3.5755E-02   3.6625E-02   6.2648E-05  0.0780
   3.6625E-02   3.7516E-02   5.4240E-05  0.0829
   3.7516E-02   3.8428E-02   4.6378E-05  0.0887
   3.8428E-02   3.9363E-02   6.0347E-05  0.0768
   3.9363E-02   4.0321E-02   4.4087E-05  0.0887
   4.0321E-02   4.1302E-02   5.0003E-05  0.0824
   4.1302E-02   4.2307E-02   4.7824E-05  0.0832
   4.2307E-02   4.3337E-02   4.8574E-05  0.0816
   4.3337E-02   4.4391E-02   5.3742E-05  0.0767
   4.4391E-02   4.5471E-02   5.4009E-05  0.0756
   4.5471E-02   4.6577E-02   4.3517E-05  0.0831
   4.6577E-02   4.7711E-02   4.8246E-05  0.0779
   4.7711E-02   4.8871E-02   4.5608E-05  0.0792
   4.8871E-02   5.0061E-02   4.5181E-05  0.0786
   5.0061E-02   5.1279E-02   4.2907E-05  0.0797
   5.1279E-02   5.2526E-02   4.4884E-05  0.0770
   5.2526E-02   5.3804E-02   3.9124E-05  0.0816
   5.3804E-02   5.5113E-02   4.3995E-05  0.0760
   5.5113E-02   5.6454E-02   4.2383E-05  0.0765
   5.6454E-02   5.7828E-02   3.9344E-05  0.0785
   5.7828E-02   5.9235E-02   3.9446E-05  0.0774
   5.9235E-02   6.0676E-02   4.3759E-05  0.0727
   6.0676E-02   6.2152E-02   3.6239E-05  0.0789
   6.2152E-02   6.3665E-02   3.6845E-05  0.0771
   6.3665E-02   6.5214E-02   3.8304E-05  0.0750
   6.5214E-02   6.6800E-02   3.3891E-05  0.0787
   6.6800E-02   6.8426E-02   3.6020E-05  0.0754
   6.8426E-02   7.0090E-02   3.5340E-05  0.0752
   7.0090E-02   7.1796E-02   3.6814E-05  0.0728
   7.1796E-02   7.3543E-02   3.2183E-05  0.0769
   7.3543E-02   7.5332E-02   3.4867E-05  0.0731
   7.5332E-02   7.7165E-02   3.2553E-05  0.0747
   7.7165E-02   7.9042E-02   3.3969E-05  0.0722
   7.9042E-02   8.0965E-02   3.1979E-05  0.0736
   8.0965E-02   8.2935E-02   3.2403E-05  0.0722
   8.2935E-02   8.4953E-02   3.0037E-05  0.0740
   8.4953E-02   8.7020E-02   3.4321E-05  0.0685
   8.7020E-02   8.9138E-02   3.1716E-05  0.0704
   8.9138E-02   9.1306E-02   2.9530E-05  0.0719
   9.1306E-02   9.3528E-02   2.8303E-05  0.0727
   9.3528E-02   9.5804E-02   3.1074E-05  0.0686
   9.5804E-02   9.8134E-02   3.1603E-05  0.0672
   9.8134E-02   1.0052E-01   2.4501E-05  0.0754
   1.0052E-01   1.0297E-01   2.6492E-05  0.0716
   1.0297E-01   1.0547E-01   2.6362E-05  0.0710
   1.0547E-01   1.0804E-01   3.0477E-05  0.0652
   1.0804E-01   1.1067E-01   2.6712E-05  0.0688
   1.1067E-01   1.1336E-01   2.3723E-05  0.0722
   1.1336E-01   1.1612E-01   2.6225E-05  0.0677
   1.1612E-01   1.1894E-01   2.3750E-05  0.0704
   1.1894E-01   1.2184E-01   2.5780E-05  0.0667
   1.2184E-01   1.2480E-01   2.2373E-05  0.0708
   1.2480E-01   1.2784E-01   2.1005E-05  0.0722
   1.2784E-01   1.3095E-01   2.1701E-05  0.0701
   1.3095E-01   1.3414E-01   2.2353E-05  0.0684
   1.3414E-01   1.3740E-01   2.0817E-05  0.0700
   1.3740E-01   1.4074E-01   2.2435E-05  0.0667
   1.4074E-01   1.4417E-01   1.9194E-05  0.0712
   1.4417E-01   1.4767E-01   2.1708E-05  0.0660
   1.4767E-01   1.5127E-01   2.0008E-05  0.0680
   1.5127E-01   1.5495E-01   1.9442E-05  0.0682
   1.5495E-01   1.5872E-01   1.9673E-05  0.0670
   1.5872E-01   1.6258E-01   1.8299E-05  0.0687
   1.6258E-01   1.6654E-01   1.7160E-05  0.0700
   1.6654E-01   1.7059E-01   1.7340E-05  0.0688
   1.7059E-01   1.7474E-01   1.7307E-05  0.0681
   1.7474E-01   1.7899E-01   1.6008E-05  0.0700
   1.7899E-01   1.8334E-01   1.5214E-05  0.0708
   1.8334E-01   1.8781E-01   1.3997E-05  0.0729
   1.8781E-01   1.9237E-01   1.3771E-05  0.0727
   1.9237E-01   1.9706E-01   1.6020E-05  0.0666
   1.9706E-01   2.0185E-01   1.4236E-05  0.0698
   2.0185E-01   2.0676E-01   1.3144E-05  0.0717
   2.0676E-01   2.1179E-01   1.1982E-05  0.0743
   2.1179E-01   2.1694E-01   1.3002E-05  0.0704
   2.1694E-01   2.2222E-01   1.2283E-05  0.0717
   2.2222E-01   2.2763E-01   1.2649E-05  0.0697
   2.2763E-01   2.3317E-01   1.3731E-05  0.0661
   2.3317E-01   2.3884E-01   1.2599E-05  0.0682
   2.3884E-01   2.4465E-01   1.3508E-05  0.0651
   2.4465E-01   2.5061E-01   1.0789E-05  0.0720
   2.5061E-01   2.5670E-01   1.1975E-05  0.0675
   2.5670E-01   2.6295E-01   1.2453E-05  0.0654
   2.6295E-01   2.6935E-01   1.2727E-05  0.0639
   2.6935E-01   2.7590E-01   1.1257E-05  0.0670
   2.7590E-01   2.8261E-01   1.2643E-05  0.0625
   2.8261E-01   2.8949E-01   1.1206E-05  0.0657
   2.8949E-01   2.9653E-01   1.1258E-05  0.0647
   2.9653E-01   3.0375E-01   1.2131E-05  0.0615
   3.0375E-01   3.1114E-01   1.1495E-05  0.0625
   3.1114E-01   3.1871E-01   1.1695E-05  0.0612
   3.1871E-01   3.2646E-01   1.1769E-05  0.0603
   3.2646E-01   3.3441E-01   1.0252E-05  0.0637
   3.3441E-01   3.4254E-01   1.2383E-05  0.0573
   3.4254E-01   3.5088E-01   9.5984E-06  0.0643
   3.5088E-01   3.5941E-01   1.0797E-05  0.0599
   3.5941E-01   3.6816E-01   1.0877E-05  0.0590
   3.6816E-01   3.7712E-01   1.0282E-05  0.0601
   3.7712E-01   3.8629E-01   1.0353E-05  0.0591
   3.8629E-01   3.9569E-01   9.3767E-06  0.0613
   3.9569E-01   4.0532E-01   1.0079E-05  0.0584
   4.0532E-01   4.1518E-01   1.1245E-05  0.0546
   4.1518E-01   4.2528E-01   1.0114E-05  0.0570
   4.2528E-01   4.3563E-01   9.6635E-06  0.0575
   4.3563E-01   4.4623E-01   9.1663E-06  0.0584
   4.4623E-01   4.5708E-01   8.9601E-06  0.0583
   4.5708E-01   4.6821E-01   9.0528E-06  0.0574
   4.6821E-01   4.7960E-01   9.4632E-06  0.0553
   4.7960E-01   4.9127E-01   9.3571E-06  0.0551
   4.9127E-01   5.0322E-01   8.8287E-06  0.0560
   5.0322E-01   5.1546E-01   8.1175E-06  0.0576
   5.1546E-01   5.2800E-01   9.0891E-06  0.0539
   5.2800E-01   5.4085E-01   8.7156E-06  0.0543
   5.4085E-01   5.5401E-01   8.2295E-06  0.0552
   5.5401E-01   5.6749E-01   7.3921E-06  0.0575
   5.6749E-01   5.8130E-01   8.6435E-06  0.0526
   5.8130E-01   5.9544E-01   7.8158E-06  0.0547
   5.9544E-01   6.0993E-01   7.4360E-06  0.0553
   6.0993E-01   6.2477E-01   8.1337E-06  0.0523
   6.2477E-01   6.3997E-01   7.8609E-06  0.0525
   6.3997E-01   6.5554E-01   8.2904E-06  0.0505
   6.5554E-01   6.7149E-01   8.1868E-06  0.0503
   6.7149E-01   6.8783E-01   7.5349E-06  0.0517
   6.8783E-01   7.0456E-01   7.1493E-06  0.0525
   7.0456E-01   7.2171E-01   7.2786E-06  0.0513
   7.2171E-01   7.3927E-01   7.4649E-06  0.0501
   7.3927E-01   7.5725E-01   6.9082E-06  0.0515
   7.5725E-01   7.7568E-01   7.0164E-06  0.0504
   7.7568E-01   7.9455E-01   7.3553E-06  0.0487
   7.9455E-01   8.1388E-01   7.0913E-06  0.0489
   8.1388E-01   8.3368E-01   6.8030E-06  0.0494
   8.3368E-01   8.5397E-01   7.1844E-06  0.0476
   8.5397E-01   8.7475E-01   7.0341E-06  0.0473
   8.7475E-01   8.9603E-01   7.0840E-06  0.0466
   8.9603E-01   9.1783E-01   6.8092E-06  0.0471
   9.1783E-01   9.4016E-01   6.8680E-06  0.0463
   9.4016E-01   9.6304E-01   7.3629E-06  0.0442
   9.6304E-01   9.8647E-01   7.1128E-06  0.0445
   9.8647E-01   1.0105E+00   6.9498E-06  0.0444
   1.0105E+00   1.0351E+00   7.1110E-06  0.0433
   1.0351E+00   1.0602E+00   6.7635E-06  0.0440
   1.0602E+00   1.0860E+00   6.9213E-06  0.0430
   1.0860E+00   1.1125E+00   6.8565E-06  0.0427
   1.1125E+00   1.1395E+00   6.4649E-06  0.0434
   1.1395E+00   1.1673E+00   6.7319E-06  0.0420
   1.1673E+00   1.1957E+00   7.1828E-06  0.0401
   1.1957E+00   1.2247E+00   6.5771E-06  0.0415
   1.2247E+00   1.2545E+00   6.7886E-06  0.0404
   1.2545E+00   1.2851E+00   6.2494E-06  0.0415
   1.2851E+00   1.3163E+00   6.7713E-06  0.0395
   1.3163E+00   1.3484E+00   6.8288E-06  0.0388
   1.3484E+00   1.3812E+00   6.3998E-06  0.0396
   1.3812E+00   1.4148E+00   6.1915E-06  0.0398
   1.4148E+00   1.4492E+00   6.8622E-06  0.0373
   1.4492E+00   1.4845E+00   6.5231E-06  0.0378
   1.4845E+00   1.5206E+00   6.3064E-06  0.0381
   1.5206E+00   1.5576E+00   6.5833E-06  0.0368
   1.5576E+00   1.5955E+00   6.1486E-06  0.0377
   1.5955E+00   1.6343E+00   6.4949E-06  0.0362
   1.6343E+00   1.6741E+00   6.5085E-06  0.0357
   1.6741E+00   1.7148E+00   6.1667E-06  0.0362
   1.7148E+00   1.7565E+00   6.4354E-06  0.0350
   1.7565E+00   1.7992E+00   6.3294E-06  0.0349
   1.7992E+00   1.8430E+00   6.3470E-06  0.0345
   1.8430E+00   1.8879E+00   6.0560E-06  0.0349
   1.8879E+00   1.9338E+00   6.1708E-06  0.0341
   1.9338E+00   1.9808E+00   5.8666E-06  0.0346
   1.9808E+00   2.0290E+00   6.0826E-06  0.0336
   2.0290E+00   2.0784E+00   5.6690E-06  0.0344
   2.0784E+00   2.1290E+00   5.7584E-06  0.0337
   2.1290E+00   2.1808E+00   5.8998E-06  0.0329
   2.1808E+00   2.2338E+00   6.2071E-06  0.0317
   2.2338E+00   2.2882E+00   5.6390E-06  0.0328
   2.2882E+00   2.3439E+00   5.8466E-06  0.0319
   2.3439E+00   2.4009E+00   5.7438E-06  0.0318
   2.4009E+00   2.4593E+00   5.4630E-06  0.0322
   2.4593E+00   2.5191E+00   5.6112E-06  0.0314
   2.5191E+00   2.5804E+00   5.1306E-06  0.0324
   2.5804E+00   2.6432E+00   5.2734E-06  0.0316
   2.6432E+00   2.7075E+00   5.1683E-06  0.0316
   2.7075E+00   2.7734E+00   5.0821E-06  0.0315
   2.7734E+00   2.8409E+00   4.5523E-06  0.0328
   2.8409E+00   2.9100E+00   3.0033E-06  0.0399
   2.9100E+00   2.9808E+00   2.8632E-06  0.0403
   2.9808E+00   3.0533E+00   2.6581E-06  0.0414
   3.0533E+00   3.1276E+00   2.4103E-06  0.0430
   3.1276E+00   3.2037E+00   2.4388E-06  0.0422
   3.2037E+00   3.2817E+00   2.2738E-06  0.0432
   3.2817E+00   3.3615E+00   2.3095E-06  0.0424
   3.3615E+00   3.4433E+00   2.1697E-06  0.0431
   3.4433E+00   3.5271E+00   1.9721E-06  0.0446
   3.5271E+00   3.6129E+00   2.1771E-06  0.0421
   3.6129E+00   3.7008E+00   1.9667E-06  0.0438
   3.7008E+00   3.7908E+00   1.9664E-06  0.0433
   3.7908E+00   3.8831E+00   1.9641E-06  0.0427
   3.8831E+00   3.9776E+00   1.9944E-06  0.0419
   3.9776E+00   4.0743E+00   1.7290E-06  0.0445
   4.0743E+00   4.1735E+00   1.7831E-06  0.0433
   4.1735E+00   4.2750E+00   1.7494E-06  0.0431
   4.2750E+00   4.3790E+00   1.6631E-06  0.0438
   4.3790E+00   4.4856E+00   1.6734E-06  0.0431
   4.4856E+00   4.5947E+00   1.6106E-06  0.0434
   4.5947E+00   4.7065E+00   1.5092E-06  0.0443
   4.7065E+00   4.8210E+00   1.4510E-06  0.0447
   4.8210E+00   4.9383E+00   1.4722E-06  0.0438
   4.9383E+00   5.0585E+00   1.3182E-06  0.0458
   5.0585E+00   5.1815E+00   1.3529E-06  0.0446
   5.1815E+00   5.3076E+00   1.1644E-06  0.0476
   5.3076E+00   5.4368E+00   1.2924E-06  0.0446
   5.4368E+00   5.5690E+00   1.1163E-06  0.0474
   5.5690E+00   5.7045E+00   1.3122E-06  0.0432
   5.7045E+00   5.8433E+00   1.1332E-06  0.0460
   5.8433E+00   5.9855E+00   1.1595E-06  0.0449
   5.9855E+00   6.1311E+00   1.1005E-06  0.0455
   6.1311E+00   6.2803E+00   1.0988E-06  0.0450
   6.2803E+00   6.4331E+00   1.1044E-06  0.0444
   6.4331E+00   6.5896E+00   1.0433E-06  0.0451
   6.5896E+00   6.7500E+00   1.0485E-06  0.0445
   6.7500E+00   6.9142E+00   1.0268E-06  0.0444
   6.9142E+00   7.0824E+00   1.0126E-06  0.0442
   7.0824E+00   7.2548E+00   9.4791E-07  0.0451
   7.2548E+00   7.4313E+00   8.7683E-07  0.0464
   7.4313E+00   7.6121E+00   8.8638E-07  0.0456
   7.6121E+00   7.7973E+00   8.9000E-07  0.0449
   7.7973E+00   7.9870E+00   8.1380E-07  0.0465
   7.9870E+00   8.1813E+00   8.5375E-07  0.0448
   8.1813E+00   8.3804E+00   7.6339E-07  0.0468
   8.3804E+00   8.5843E+00   7.7378E-07  0.0460
   8.5843E+00   8.7931E+00   6.9928E-07  0.0478
   8.7931E+00   9.0071E+00   7.1383E-07  0.0467
   9.0071E+00   9.2262E+00   6.8013E-07  0.0473
   9.2262E+00   9.4507E+00   6.6404E-07  0.0473
   9.4507E+00   9.6807E+00   5.7772E-07  0.0501
   9.6807E+00   9.9162E+00   6.3339E-07  0.0472
   9.9162E+00   1.0157E+01   6.0928E-07  0.0476
   1.0157E+01   1.0405E+01   6.3978E-07  0.0459
   1.0405E+01   1.0658E+01   7.1316E-07  0.0429
   1.0658E+01   1.0917E+01   7.5196E-07  0.0413
   1.0917E+01   1.1183E+01   6.5421E-07  0.0438
   1.1183E+01   1.1455E+01   6.0759E-07  0.0449
   1.1455E+01   1.1733E+01   6.1854E-07  0.0440
   1.1733E+01   1.2019E+01   5.4026E-07  0.0465
   1.2019E+01   1.2311E+01   5.1840E-07  0.0469
   1.2311E+01   1.2611E+01   4.5091E-07  0.0497
   1.2611E+01   1.2918E+01   3.9529E-07  0.0524
   1.2918E+01   1.3232E+01   4.3232E-07  0.0495
   1.3232E+01   1.3554E+01   4.1244E-07  0.0501
   1.3554E+01   1.3884E+01   3.6843E-07  0.0524
   1.3884E+01   1.4222E+01   2.9869E-07  0.0574
   1.4222E+01   1.4568E+01   2.9040E-07  0.0576
   1.4568E+01   1.4922E+01   2.5532E-07  0.0606
   1.4922E+01   1.5285E+01   2.4070E-07  0.0617
   1.5285E+01   1.5657E+01   1.7871E-07  0.0708
   1.5657E+01   1.6038E+01   1.2338E-07  0.0842
   1.6038E+01   1.6428E+01   1.1916E-07  0.0846
   1.6428E+01   1.6828E+01   1.0102E-07  0.0908
   1.6828E+01   1.7237E+01   5.9431E-08  0.1170
   1.7237E+01   1.7657E+01   4.5303E-08  0.1325
   1.7657E+01   1.8086E+01   5.4314E-09  0.3780
   1.8086E+01   1.8526E+01   3.0299E-09  0.5000
   1.8526E+01   1.8977E+01   2.2185E-09  0.5774
   1.8977E+01   1.9439E+01   7.2192E-10  1.0000
   1.9439E+01   1.9912E+01   7.0478E-10  1.0000
   1.9912E+01   2.0396E+01   0.0000E+00  0.0000
   2.0396E+01   2.0893E+01   0.0000E+00  0.0000
   2.0893E+01   2.1401E+01   0.0000E+00  0.0000
   2.1401E+01   2.1922E+01   0.0000E+00  0.0000
   2.1922E+01   2.2455E+01   0.0000E+00  0.0000
   2.2455E+01   2.3001E+01   0.0000E+00  0.0000
   2.3001E+01   2.3561E+01   0.0000E+00  0.0000
   2.3561E+01   2.4134E+01   0.0000E+00  0.0000
   2.4134E+01   2.4721E+01   0.0000E+00  0.0000
   2.4721E+01   2.5323E+01   0.0000E+00  0.0000
   2.5323E+01   2.5939E+01   0.0000E+00  0.0000
   2.5939E+01   2.6570E+01   0.0000E+00  0.0000
   2.6570E+01   2.7217E+01   0.0000E+00  0.0000
   2.7217E+01   2.7879E+01   0.0000E+00  0.0000
   2.7879E+01   2.8557E+01   0.0000E+00  0.0000
   2.8557E+01   2.9252E+01   0.0000E+00  0.0000
   2.9252E+01   2.9964E+01   0.0000E+00  0.0000
   2.9964E+01   3.0693E+01   0.0000E+00  0.0000
   3.0693E+01   3.1440E+01   0.0000E+00  0.0000
   3.1440E+01   3.2205E+01   0.0000E+00  0.0000
   3.2205E+01   3.2988E+01   0.0000E+00  0.0000
   3.2988E+01   3.3791E+01   0.0000E+00  0.0000
   3.3791E+01   3.4613E+01   0.0000E+00  0.0000
   3.4613E+01   3.5455E+01   0.0000E+00  0.0000
   3.5455E+01   3.6318E+01   0.0000E+00  0.0000
   3.6318E+01   3.7201E+01   0.0000E+00  0.0000
   3.7201E+01   3.8106E+01   0.0000E+00  0.0000
   3.8106E+01   3.9034E+01   0.0000E+00  0.0000
   3.9034E+01   3.9983E+01   0.0000E+00  0.0000
   3.9983E+01   4.0956E+01   0.0000E+00  0.0000
   4.0956E+01   4.1953E+01   0.0000E+00  0.0000
   4.1953E+01   4.2973E+01   0.0000E+00  0.0000
   4.2973E+01   4.4019E+01   0.0000E+00  0.0000
   4.4019E+01   4.5090E+01   0.0000E+00  0.0000
   4.5090E+01   4.6187E+01   0.0000E+00  0.0000
   4.6187E+01   4.7311E+01   0.0000E+00  0.0000
   4.7311E+01   4.8462E+01   0.0000E+00  0.0000
   4.8462E+01   4.9641E+01   0.0000E+00  0.0000
   4.9641E+01   5.0849E+01   0.0000E+00  0.0000
   5.0849E+01   5.2086E+01   0.0000E+00  0.0000
   5.2086E+01   5.3353E+01   0.0000E+00  0.0000
   5.3353E+01   5.4651E+01   0.0000E+00  0.0000
   5.4651E+01   5.5981E+01   0.0000E+00  0.0000
   5.5981E+01   5.7343E+01   0.0000E+00  0.0000
   5.7343E+01   5.8738E+01   0.0000E+00  0.0000
   5.8738E+01   6.0168E+01   0.0000E+00  0.0000
   6.0168E+01   6.1632E+01   0.0000E+00  0.0000
   6.1632E+01   6.3131E+01   0.0000E+00  0.0000
   6.3131E+01   6.4667E+01   0.0000E+00  0.0000
   6.4667E+01   6.6240E+01   0.0000E+00  0.0000
   6.6240E+01   6.7852E+01   0.0000E+00  0.0000
   6.7852E+01   6.9503E+01   0.0000E+00  0.0000
   6.9503E+01   7.1194E+01   0.0000E+00  0.0000
   7.1194E+01   7.2926E+01   0.0000E+00  0.0000
   7.2926E+01   7.4701E+01   0.0000E+00  0.0000
   7.4701E+01   7.6518E+01   0.0000E+00  0.0000
   7.6518E+01   7.8380E+01   0.0000E+00  0.0000
   7.8380E+01   8.0287E+01   0.0000E+00  0.0000
   8.0287E+01   8.2240E+01   0.0000E+00  0.0000
   8.2240E+01   8.4241E+01   0.0000E+00  0.0000
   8.4241E+01   8.6291E+01   0.0000E+00  0.0000
   8.6291E+01   8.8391E+01   0.0000E+00  0.0000
   8.8391E+01   9.0541E+01   0.0000E+00  0.0000
   9.0541E+01   9.2744E+01   0.0000E+00  0.0000
   9.2744E+01   9.5001E+01   0.0000E+00  0.0000
   9.5001E+01   9.7312E+01   0.0000E+00  0.0000
   9.7312E+01   9.9680E+01   0.0000E+00  0.0000
   9.9680E+01   1.0211E+02   0.0000E+00  0.0000
   1.0211E+02   1.0459E+02   0.0000E+00  0.0000
   1.0459E+02   1.0713E+02   0.0000E+00  0.0000
   1.0713E+02   1.0974E+02   0.0000E+00  0.0000
   1.0974E+02   1.1241E+02   0.0000E+00  0.0000
   1.1241E+02   1.1515E+02   0.0000E+00  0.0000
   1.1515E+02   1.1795E+02   0.0000E+00  0.0000
   1.1795E+02   1.2082E+02   0.0000E+00  0.0000
   1.2082E+02   1.2376E+02   0.0000E+00  0.0000
   1.2376E+02   1.2677E+02   0.0000E+00  0.0000
   1.2677E+02   1.2985E+02   0.0000E+00  0.0000
   1.2985E+02   1.3301E+02   0.0000E+00  0.0000
   1.3301E+02   1.3625E+02   0.0000E+00  0.0000
   1.3625E+02   1.3956E+02   0.0000E+00  0.0000
   1.3956E+02   1.4296E+02   0.0000E+00  0.0000
   1.4296E+02   1.4644E+02   0.0000E+00  0.0000
   1.4644E+02   1.5000E+02   0.0000E+00  0.0000

#   sum over                 2.3982E-07
'no. =    1   reg = 125 - 225'
msuc: {\huge [t-cross] in region mesh}
msdr: {\it plotted by \ANGEL \version}
msdl: {\it calculated by \PHITS  3.26}
wt: s(0.7)
\vspace{-3}
  region surface crossing
  area  &=&   1.0000E+00 [cm^2]
e:
 
# Information for Restart Calculation
# This calculation was newly started
# istdev =  2 # 1:Batch variance, 2:History variance
# resc2  = 3.00000000000000000E+09 # Total source weight or Total source weight / maxcas
# resc3  = 3.00000000000000000E+09 # Total history number or Total batch number
# maxcas =   500000000 # History / Batch, only used for istdev=1
# bitrseed = 0110110011111001100110101011100000010010001000001101100100111101 # bit data of rseed
