[ T-Cross ]
    title = [t-cross] in region mesh
     mesh =  reg            # mesh type is region-wise
      reg =    1            # number of crossing regions
      non     r-from    r-to       area
      1       114       214        1.000000    
   e-type =    3            # e-mesh is log given by emin, emax and ne
     emin =  1.0000000E-02  # minimum value of e-mesh points
     emax =   150.0000      # maximum value of e-mesh points
#    edel =  2.4039514E-02  # mesh width of e-mesh points
       ne =    400          # number of e-mesh points
#    data = ( e(i), i = 1, ne + 1 )
#           1.00000E-02  1.02433E-02  1.04925E-02  1.07478E-02  1.10093E-02
#           1.12772E-02  1.15516E-02  1.18326E-02  1.21205E-02  1.24154E-02
#           1.27175E-02  1.30269E-02  1.33439E-02  1.36686E-02  1.40011E-02
#           1.43418E-02  1.46907E-02  1.50482E-02  1.54143E-02  1.57894E-02
#           1.61735E-02  1.65670E-02  1.69701E-02  1.73830E-02  1.78060E-02
#           1.82392E-02  1.86830E-02  1.91375E-02  1.96032E-02  2.00801E-02
#           2.05687E-02  2.10692E-02  2.15818E-02  2.21069E-02  2.26448E-02
#           2.31957E-02  2.37601E-02  2.43382E-02  2.49304E-02  2.55369E-02
#           2.61583E-02  2.67947E-02  2.74467E-02  2.81145E-02  2.87985E-02
#           2.94992E-02  3.02169E-02  3.09521E-02  3.17052E-02  3.24766E-02
#           3.32668E-02  3.40762E-02  3.49053E-02  3.57546E-02  3.66246E-02
#           3.75157E-02  3.84284E-02  3.93634E-02  4.03212E-02  4.13022E-02
#           4.23071E-02  4.33365E-02  4.43909E-02  4.54710E-02  4.65773E-02
#           4.77106E-02  4.88714E-02  5.00605E-02  5.12785E-02  5.25262E-02
#           5.38042E-02  5.51133E-02  5.64542E-02  5.78278E-02  5.92348E-02
#           6.06760E-02  6.21523E-02  6.36645E-02  6.52135E-02  6.68002E-02
#           6.84255E-02  7.00904E-02  7.17957E-02  7.35426E-02  7.53319E-02
#           7.71648E-02  7.90423E-02  8.09655E-02  8.29354E-02  8.49533E-02
#           8.70203E-02  8.91376E-02  9.13064E-02  9.35279E-02  9.58035E-02
#           9.81345E-02  1.00522E-01  1.02968E-01  1.05473E-01  1.08040E-01
#           1.10668E-01  1.13361E-01  1.16119E-01  1.18944E-01  1.21838E-01
#           1.24803E-01  1.27839E-01  1.30950E-01  1.34136E-01  1.37399E-01
#           1.40742E-01  1.44167E-01  1.47675E-01  1.51268E-01  1.54948E-01
#           1.58718E-01  1.62580E-01  1.66535E-01  1.70587E-01  1.74738E-01
#           1.78989E-01  1.83344E-01  1.87805E-01  1.92375E-01  1.97055E-01
#           2.01850E-01  2.06761E-01  2.11792E-01  2.16945E-01  2.22223E-01
#           2.27630E-01  2.33169E-01  2.38842E-01  2.44653E-01  2.50605E-01
#           2.56703E-01  2.62949E-01  2.69346E-01  2.75900E-01  2.82613E-01
#           2.89489E-01  2.96532E-01  3.03747E-01  3.11138E-01  3.18708E-01
#           3.26462E-01  3.34405E-01  3.42542E-01  3.50876E-01  3.59413E-01
#           3.68158E-01  3.77116E-01  3.86291E-01  3.95690E-01  4.05317E-01
#           4.15179E-01  4.25281E-01  4.35628E-01  4.46227E-01  4.57084E-01
#           4.68205E-01  4.79597E-01  4.91266E-01  5.03219E-01  5.15463E-01
#           5.28005E-01  5.40851E-01  5.54011E-01  5.67490E-01  5.81298E-01
#           5.95441E-01  6.09929E-01  6.24769E-01  6.39970E-01  6.55541E-01
#           6.71491E-01  6.87828E-01  7.04564E-01  7.21706E-01  7.39266E-01
#           7.57253E-01  7.75678E-01  7.94551E-01  8.13883E-01  8.33685E-01
#           8.53969E-01  8.74747E-01  8.96030E-01  9.17831E-01  9.40163E-01
#           9.63038E-01  9.86469E-01  1.01047E+00  1.03506E+00  1.06024E+00
#           1.08604E+00  1.11246E+00  1.13953E+00  1.16725E+00  1.19565E+00
#           1.22474E+00  1.25454E+00  1.28507E+00  1.31633E+00  1.34836E+00
#           1.38117E+00  1.41477E+00  1.44920E+00  1.48446E+00  1.52057E+00
#           1.55757E+00  1.59547E+00  1.63429E+00  1.67405E+00  1.71478E+00
#           1.75650E+00  1.79924E+00  1.84302E+00  1.88786E+00  1.93379E+00
#           1.98084E+00  2.02904E+00  2.07841E+00  2.12898E+00  2.18078E+00
#           2.23384E+00  2.28819E+00  2.34386E+00  2.40089E+00  2.45930E+00
#           2.51914E+00  2.58043E+00  2.64322E+00  2.70753E+00  2.77341E+00
#           2.84088E+00  2.91001E+00  2.98081E+00  3.05333E+00  3.12762E+00
#           3.20372E+00  3.28167E+00  3.36152E+00  3.44330E+00  3.52708E+00
#           3.61290E+00  3.70080E+00  3.79085E+00  3.88308E+00  3.97756E+00
#           4.07434E+00  4.17347E+00  4.27501E+00  4.37903E+00  4.48557E+00
#           4.59471E+00  4.70650E+00  4.82102E+00  4.93832E+00  5.05847E+00
#           5.18155E+00  5.30762E+00  5.43676E+00  5.56904E+00  5.70453E+00
#           5.84333E+00  5.98550E+00  6.13114E+00  6.28031E+00  6.43312E+00
#           6.58964E+00  6.74997E+00  6.91420E+00  7.08243E+00  7.25475E+00
#           7.43126E+00  7.61207E+00  7.79728E+00  7.98700E+00  8.18133E+00
#           8.38038E+00  8.58428E+00  8.79315E+00  9.00709E+00  9.22624E+00
#           9.45072E+00  9.68067E+00  9.91620E+00  1.01575E+01  1.04046E+01
#           1.06578E+01  1.09171E+01  1.11827E+01  1.14548E+01  1.17335E+01
#           1.20190E+01  1.23114E+01  1.26109E+01  1.29178E+01  1.32321E+01
#           1.35540E+01  1.38838E+01  1.42216E+01  1.45676E+01  1.49221E+01
#           1.52851E+01  1.56570E+01  1.60380E+01  1.64282E+01  1.68279E+01
#           1.72374E+01  1.76568E+01  1.80864E+01  1.85264E+01  1.89772E+01
#           1.94389E+01  1.99119E+01  2.03963E+01  2.08926E+01  2.14009E+01
#           2.19216E+01  2.24550E+01  2.30014E+01  2.35610E+01  2.41343E+01
#           2.47215E+01  2.53230E+01  2.59391E+01  2.65702E+01  2.72167E+01
#           2.78789E+01  2.85572E+01  2.92520E+01  2.99637E+01  3.06928E+01
#           3.14396E+01  3.22045E+01  3.29881E+01  3.37907E+01  3.46128E+01
#           3.54550E+01  3.63177E+01  3.72013E+01  3.81064E+01  3.90336E+01
#           3.99833E+01  4.09561E+01  4.19526E+01  4.29734E+01  4.40189E+01
#           4.50900E+01  4.61870E+01  4.73108E+01  4.84619E+01  4.96410E+01
#           5.08488E+01  5.20860E+01  5.33533E+01  5.46514E+01  5.59812E+01
#           5.73432E+01  5.87384E+01  6.01676E+01  6.16315E+01  6.31311E+01
#           6.46671E+01  6.62405E+01  6.78522E+01  6.95031E+01  7.11941E+01
#           7.29263E+01  7.47007E+01  7.65182E+01  7.83800E+01  8.02870E+01
#           8.22405E+01  8.42414E+01  8.62911E+01  8.83906E+01  9.05412E+01
#           9.27442E+01  9.50007E+01  9.73122E+01  9.96799E+01  1.02105E+02
#           1.04589E+02  1.07134E+02  1.09741E+02  1.12411E+02  1.15146E+02
#           1.17948E+02  1.20817E+02  1.23757E+02  1.26768E+02  1.29852E+02
#           1.33012E+02  1.36248E+02  1.39563E+02  1.42959E+02  1.46437E+02
#           1.50000E+02
     unit =    2            # unit is [1/cm^2/(MeV/n)/source]
     axis =  eng            # axis of output
     file = detector-15.out  # file name of output for the above axis
   output = f-curr          # surface crossing forward current spectrum
     part =  neutron  
# kf/name :  2112     
#    used :        main (  %)        temp (  %)       total (  %)
#  memory :         414 (  0)           0 (  0)         414 (  0)

#------------------------------------------------------------------------------
#newpage:
#   no. =    1   reg = 114 - 214

x: Energy [MeV/n]
y:  F-Curr [1/cm^2/(MeV/n)/source]         
p: xlog ylog afac(0.8) form(0.9)
h: n            x            y(neutron ),hh0l   n 
#  e-lower      e-upper      neutron     r.err 
   1.0000E-02   1.0243E-02   4.5060E-03  0.0174
   1.0243E-02   1.0493E-02   4.4638E-03  0.0173
   1.0493E-02   1.0748E-02   4.3003E-03  0.0174
   1.0748E-02   1.1009E-02   4.3390E-03  0.0171
   1.1009E-02   1.1277E-02   4.4052E-03  0.0168
   1.1277E-02   1.1552E-02   4.3370E-03  0.0167
   1.1552E-02   1.1833E-02   4.2684E-03  0.0167
   1.1833E-02   1.2121E-02   4.2289E-03  0.0166
   1.2121E-02   1.2415E-02   4.2150E-03  0.0164
   1.2415E-02   1.2718E-02   4.3278E-03  0.0160
   1.2718E-02   1.3027E-02   4.1668E-03  0.0161
   1.3027E-02   1.3344E-02   4.1657E-03  0.0159
   1.3344E-02   1.3669E-02   4.1530E-03  0.0157
   1.3669E-02   1.4001E-02   4.0919E-03  0.0157
   1.4001E-02   1.4342E-02   4.0187E-03  0.0156
   1.4342E-02   1.4691E-02   4.0808E-03  0.0153
   1.4691E-02   1.5048E-02   3.9765E-03  0.0153
   1.5048E-02   1.5414E-02   3.9066E-03  0.0153
   1.5414E-02   1.5789E-02   3.9120E-03  0.0151
   1.5789E-02   1.6174E-02   3.8455E-03  0.0150
   1.6174E-02   1.6567E-02   3.8863E-03  0.0148
   1.6567E-02   1.6970E-02   3.7924E-03  0.0148
   1.6970E-02   1.7383E-02   3.7447E-03  0.0147
   1.7383E-02   1.7806E-02   3.7389E-03  0.0145
   1.7806E-02   1.8239E-02   3.6389E-03  0.0145
   1.8239E-02   1.8683E-02   3.7463E-03  0.0142
   1.8683E-02   1.9138E-02   3.7119E-03  0.0141
   1.9138E-02   1.9603E-02   3.7229E-03  0.0139
   1.9603E-02   2.0080E-02   3.6387E-03  0.0139
   2.0080E-02   2.0569E-02   3.5788E-03  0.0138
   2.0569E-02   2.1069E-02   3.5884E-03  0.0136
   2.1069E-02   2.1582E-02   3.4934E-03  0.0136
   2.1582E-02   2.2107E-02   3.4714E-03  0.0135
   2.2107E-02   2.2645E-02   3.4249E-03  0.0135
   2.2645E-02   2.3196E-02   3.4107E-03  0.0133
   2.3196E-02   2.3760E-02   3.3846E-03  0.0132
   2.3760E-02   2.4338E-02   3.4331E-03  0.0130
   2.4338E-02   2.4930E-02   3.2761E-03  0.0131
   2.4930E-02   2.5537E-02   3.2409E-03  0.0130
   2.5537E-02   2.6158E-02   3.3179E-03  0.0127
   2.6158E-02   2.6795E-02   3.2548E-03  0.0127
   2.6795E-02   2.7447E-02   3.2051E-03  0.0126
   2.7447E-02   2.8114E-02   3.1519E-03  0.0126
   2.8114E-02   2.8799E-02   3.1745E-03  0.0124
   2.8799E-02   2.9499E-02   3.0862E-03  0.0124
   2.9499E-02   3.0217E-02   3.0027E-03  0.0124
   3.0217E-02   3.0952E-02   3.0951E-03  0.0121
   3.0952E-02   3.1705E-02   2.9872E-03  0.0122
   3.1705E-02   3.2477E-02   2.9450E-03  0.0121
   3.2477E-02   3.3267E-02   2.9734E-03  0.0119
   3.3267E-02   3.4076E-02   2.9587E-03  0.0118
   3.4076E-02   3.4905E-02   2.9206E-03  0.0117
   3.4905E-02   3.5755E-02   2.8609E-03  0.0117
   3.5755E-02   3.6625E-02   2.9104E-03  0.0115
   3.6625E-02   3.7516E-02   2.8409E-03  0.0115
   3.7516E-02   3.8428E-02   2.7966E-03  0.0114
   3.8428E-02   3.9363E-02   2.7790E-03  0.0113
   3.9363E-02   4.0321E-02   2.7756E-03  0.0112
   4.0321E-02   4.1302E-02   2.6961E-03  0.0112
   4.1302E-02   4.2307E-02   2.6846E-03  0.0111
   4.2307E-02   4.3337E-02   2.6767E-03  0.0110
   4.3337E-02   4.4391E-02   2.6350E-03  0.0110
   4.4391E-02   4.5471E-02   2.6512E-03  0.0108
   4.5471E-02   4.6577E-02   2.6008E-03  0.0108
   4.6577E-02   4.7711E-02   2.5977E-03  0.0106
   4.7711E-02   4.8871E-02   2.5668E-03  0.0106
   4.8871E-02   5.0061E-02   2.5420E-03  0.0105
   5.0061E-02   5.1279E-02   2.5148E-03  0.0104
   5.1279E-02   5.2526E-02   2.4752E-03  0.0104
   5.2526E-02   5.3804E-02   2.4258E-03  0.0104
   5.3804E-02   5.5113E-02   2.3997E-03  0.0103
   5.5113E-02   5.6454E-02   2.4033E-03  0.0102
   5.6454E-02   5.7828E-02   2.3269E-03  0.0102
   5.7828E-02   5.9235E-02   2.3506E-03  0.0100
   5.9235E-02   6.0676E-02   2.2778E-03  0.0101
   6.0676E-02   6.2152E-02   2.3216E-03  0.0099
   6.2152E-02   6.3665E-02   2.2776E-03  0.0098
   6.3665E-02   6.5214E-02   2.2457E-03  0.0098
   6.5214E-02   6.6800E-02   2.1984E-03  0.0098
   6.6800E-02   6.8426E-02   2.1896E-03  0.0097
   6.8426E-02   7.0090E-02   2.1655E-03  0.0096
   7.0090E-02   7.1796E-02   2.1185E-03  0.0096
   7.1796E-02   7.3543E-02   2.0570E-03  0.0096
   7.3543E-02   7.5332E-02   2.0763E-03  0.0095
   7.5332E-02   7.7165E-02   2.0283E-03  0.0095
   7.7165E-02   7.9042E-02   2.0174E-03  0.0094
   7.9042E-02   8.0965E-02   1.9789E-03  0.0094
   8.0965E-02   8.2935E-02   2.0181E-03  0.0092
   8.2935E-02   8.4953E-02   1.9821E-03  0.0091
   8.4953E-02   8.7020E-02   1.9066E-03  0.0092
   8.7020E-02   8.9138E-02   1.9183E-03  0.0091
   8.9138E-02   9.1306E-02   1.9237E-03  0.0089
   9.1306E-02   9.3528E-02   1.8850E-03  0.0089
   9.3528E-02   9.5804E-02   1.8676E-03  0.0089
   9.5804E-02   9.8134E-02   1.8342E-03  0.0088
   9.8134E-02   1.0052E-01   1.8174E-03  0.0088
   1.0052E-01   1.0297E-01   1.7940E-03  0.0087
   1.0297E-01   1.0547E-01   1.7522E-03  0.0087
   1.0547E-01   1.0804E-01   1.7182E-03  0.0087
   1.0804E-01   1.1067E-01   1.7355E-03  0.0085
   1.1067E-01   1.1336E-01   1.7013E-03  0.0085
   1.1336E-01   1.1612E-01   1.6399E-03  0.0086
   1.1612E-01   1.1894E-01   1.6574E-03  0.0084
   1.1894E-01   1.2184E-01   1.6311E-03  0.0084
   1.2184E-01   1.2480E-01   1.6208E-03  0.0083
   1.2480E-01   1.2784E-01   1.5972E-03  0.0083
   1.2784E-01   1.3095E-01   1.5793E-03  0.0082
   1.3095E-01   1.3414E-01   1.5543E-03  0.0082
   1.3414E-01   1.3740E-01   1.5320E-03  0.0082
   1.3740E-01   1.4074E-01   1.5165E-03  0.0081
   1.4074E-01   1.4417E-01   1.5051E-03  0.0080
   1.4417E-01   1.4767E-01   1.4580E-03  0.0081
   1.4767E-01   1.5127E-01   1.4552E-03  0.0080
   1.5127E-01   1.5495E-01   1.4408E-03  0.0079
   1.5495E-01   1.5872E-01   1.4144E-03  0.0079
   1.5872E-01   1.6258E-01   1.3845E-03  0.0079
   1.6258E-01   1.6654E-01   1.3794E-03  0.0078
   1.6654E-01   1.7059E-01   1.3608E-03  0.0078
   1.7059E-01   1.7474E-01   1.3533E-03  0.0077
   1.7474E-01   1.7899E-01   1.3220E-03  0.0077
   1.7899E-01   1.8334E-01   1.3281E-03  0.0076
   1.8334E-01   1.8781E-01   1.2805E-03  0.0076
   1.8781E-01   1.9237E-01   1.2810E-03  0.0075
   1.9237E-01   1.9706E-01   1.2664E-03  0.0075
   1.9706E-01   2.0185E-01   1.2580E-03  0.0074
   2.0185E-01   2.0676E-01   1.2417E-03  0.0074
   2.0676E-01   2.1179E-01   1.2157E-03  0.0074
   2.1179E-01   2.1694E-01   1.1820E-03  0.0074
   2.1694E-01   2.2222E-01   1.1632E-03  0.0074
   2.2222E-01   2.2763E-01   1.1462E-03  0.0073
   2.2763E-01   2.3317E-01   1.1535E-03  0.0072
   2.3317E-01   2.3884E-01   1.1214E-03  0.0072
   2.3884E-01   2.4465E-01   1.1079E-03  0.0072
   2.4465E-01   2.5061E-01   1.0870E-03  0.0072
   2.5061E-01   2.5670E-01   1.0774E-03  0.0071
   2.5670E-01   2.6295E-01   1.0653E-03  0.0071
   2.6295E-01   2.6935E-01   1.0425E-03  0.0071
   2.6935E-01   2.7590E-01   1.0218E-03  0.0071
   2.7590E-01   2.8261E-01   9.9756E-04  0.0071
   2.8261E-01   2.8949E-01   9.9071E-04  0.0070
   2.8949E-01   2.9653E-01   9.9527E-04  0.0069
   2.9653E-01   3.0375E-01   9.7588E-04  0.0069
   3.0375E-01   3.1114E-01   9.4296E-04  0.0069
   3.1114E-01   3.1871E-01   9.4817E-04  0.0068
   3.1871E-01   3.2646E-01   9.3173E-04  0.0068
   3.2646E-01   3.3441E-01   9.2114E-04  0.0067
   3.3441E-01   3.4254E-01   9.0100E-04  0.0067
   3.4254E-01   3.5088E-01   8.9234E-04  0.0067
   3.5088E-01   3.5941E-01   8.7161E-04  0.0067
   3.5941E-01   3.6816E-01   8.5140E-04  0.0067
   3.6816E-01   3.7712E-01   8.4803E-04  0.0066
   3.7712E-01   3.8629E-01   8.3725E-04  0.0066
   3.8629E-01   3.9569E-01   8.0447E-04  0.0066
   3.9569E-01   4.0532E-01   7.9990E-04  0.0066
   4.0532E-01   4.1518E-01   7.9040E-04  0.0065
   4.1518E-01   4.2528E-01   7.7775E-04  0.0065
   4.2528E-01   4.3563E-01   7.6974E-04  0.0065
   4.3563E-01   4.4623E-01   7.4201E-04  0.0065
   4.4623E-01   4.5708E-01   7.2776E-04  0.0065
   4.5708E-01   4.6821E-01   7.2020E-04  0.0065
   4.6821E-01   4.7960E-01   7.0753E-04  0.0064
   4.7960E-01   4.9127E-01   6.9225E-04  0.0064
   4.9127E-01   5.0322E-01   6.8162E-04  0.0064
   5.0322E-01   5.1546E-01   6.6482E-04  0.0064
   5.1546E-01   5.2800E-01   6.5089E-04  0.0064
   5.2800E-01   5.4085E-01   6.4486E-04  0.0063
   5.4085E-01   5.5401E-01   6.2722E-04  0.0064
   5.5401E-01   5.6749E-01   6.2197E-04  0.0063
   5.6749E-01   5.8130E-01   6.1195E-04  0.0063
   5.8130E-01   5.9544E-01   5.8943E-04  0.0063
   5.9544E-01   6.0993E-01   5.7414E-04  0.0063
   6.0993E-01   6.2477E-01   5.6744E-04  0.0063
   6.2477E-01   6.3997E-01   5.5877E-04  0.0063
   6.3997E-01   6.5554E-01   5.4491E-04  0.0063
   6.5554E-01   6.7149E-01   5.3170E-04  0.0063
   6.7149E-01   6.8783E-01   5.1287E-04  0.0063
   6.8783E-01   7.0456E-01   5.0298E-04  0.0063
   7.0456E-01   7.2171E-01   4.8993E-04  0.0063
   7.2171E-01   7.3927E-01   4.7518E-04  0.0063
   7.3927E-01   7.5725E-01   4.6997E-04  0.0063
   7.5725E-01   7.7568E-01   4.5627E-04  0.0063
   7.7568E-01   7.9455E-01   4.4278E-04  0.0063
   7.9455E-01   8.1388E-01   4.3141E-04  0.0063
   8.1388E-01   8.3368E-01   4.1873E-04  0.0063
   8.3368E-01   8.5397E-01   4.0493E-04  0.0064
   8.5397E-01   8.7475E-01   3.9205E-04  0.0064
   8.7475E-01   8.9603E-01   3.7996E-04  0.0064
   8.9603E-01   9.1783E-01   3.7363E-04  0.0064
   9.1783E-01   9.4016E-01   3.5977E-04  0.0064
   9.4016E-01   9.6304E-01   3.4691E-04  0.0065
   9.6304E-01   9.8647E-01   3.3773E-04  0.0065
   9.8647E-01   1.0105E+00   3.2877E-04  0.0065
   1.0105E+00   1.0351E+00   3.3149E-04  0.0064
   1.0351E+00   1.0602E+00   3.3821E-04  0.0063
   1.0602E+00   1.0860E+00   3.4594E-04  0.0061
   1.0860E+00   1.1125E+00   3.5676E-04  0.0059
   1.1125E+00   1.1395E+00   3.6766E-04  0.0058
   1.1395E+00   1.1673E+00   3.7595E-04  0.0057
   1.1673E+00   1.1957E+00   3.9081E-04  0.0055
   1.1957E+00   1.2247E+00   4.0072E-04  0.0053
   1.2247E+00   1.2545E+00   4.0263E-04  0.0053
   1.2545E+00   1.2851E+00   4.1652E-04  0.0051
   1.2851E+00   1.3163E+00   4.2276E-04  0.0050
   1.3163E+00   1.3484E+00   4.3122E-04  0.0049
   1.3484E+00   1.3812E+00   4.4362E-04  0.0048
   1.3812E+00   1.4148E+00   4.6189E-04  0.0046
   1.4148E+00   1.4492E+00   4.6530E-04  0.0046
   1.4492E+00   1.4845E+00   4.6610E-04  0.0045
   1.4845E+00   1.5206E+00   4.7615E-04  0.0044
   1.5206E+00   1.5576E+00   4.7607E-04  0.0044
   1.5576E+00   1.5955E+00   4.9144E-04  0.0042
   1.5955E+00   1.6343E+00   5.0137E-04  0.0041
   1.6343E+00   1.6741E+00   5.1453E-04  0.0040
   1.6741E+00   1.7148E+00   5.2956E-04  0.0039
   1.7148E+00   1.7565E+00   5.3515E-04  0.0039
   1.7565E+00   1.7992E+00   5.3902E-04  0.0038
   1.7992E+00   1.8430E+00   5.4485E-04  0.0037
   1.8430E+00   1.8879E+00   5.5438E-04  0.0037
   1.8879E+00   1.9338E+00   5.6378E-04  0.0036
   1.9338E+00   1.9808E+00   5.7008E-04  0.0035
   1.9808E+00   2.0290E+00   5.8635E-04  0.0034
   2.0290E+00   2.0784E+00   5.9092E-04  0.0034
   2.0784E+00   2.1290E+00   5.9230E-04  0.0033
   2.1290E+00   2.1808E+00   5.9362E-04  0.0033
   2.1808E+00   2.2338E+00   5.9863E-04  0.0032
   2.2338E+00   2.2882E+00   6.1093E-04  0.0032
   2.2882E+00   2.3439E+00   6.1737E-04  0.0031
   2.3439E+00   2.4009E+00   6.2979E-04  0.0030
   2.4009E+00   2.4593E+00   6.3867E-04  0.0030
   2.4593E+00   2.5191E+00   6.4026E-04  0.0030
   2.5191E+00   2.5804E+00   6.3585E-04  0.0029
   2.5804E+00   2.6432E+00   6.3390E-04  0.0029
   2.6432E+00   2.7075E+00   6.3518E-04  0.0029
   2.7075E+00   2.7734E+00   6.3998E-04  0.0028
   2.7734E+00   2.8409E+00   6.4824E-04  0.0028
   2.8409E+00   2.9100E+00   6.6054E-04  0.0027
   2.9100E+00   2.9808E+00   6.6910E-04  0.0027
   2.9808E+00   3.0533E+00   6.6784E-04  0.0026
   3.0533E+00   3.1276E+00   6.6521E-04  0.0026
   3.1276E+00   3.2037E+00   6.5487E-04  0.0026
   3.2037E+00   3.2817E+00   6.4978E-04  0.0026
   3.2817E+00   3.3615E+00   6.4733E-04  0.0025
   3.3615E+00   3.4433E+00   6.4117E-04  0.0025
   3.4433E+00   3.5271E+00   6.4839E-04  0.0025
   3.5271E+00   3.6129E+00   6.5639E-04  0.0024
   3.6129E+00   3.7008E+00   6.4998E-04  0.0024
   3.7008E+00   3.7908E+00   6.4044E-04  0.0024
   3.7908E+00   3.8831E+00   6.3371E-04  0.0024
   3.8831E+00   3.9776E+00   6.3180E-04  0.0024
   3.9776E+00   4.0743E+00   6.2973E-04  0.0023
   4.0743E+00   4.1735E+00   6.1619E-04  0.0023
   4.1735E+00   4.2750E+00   6.0655E-04  0.0023
   4.2750E+00   4.3790E+00   5.9022E-04  0.0023
   4.3790E+00   4.4856E+00   5.8024E-04  0.0023
   4.4856E+00   4.5947E+00   5.6927E-04  0.0023
   4.5947E+00   4.7065E+00   5.5953E-04  0.0023
   4.7065E+00   4.8210E+00   5.5502E-04  0.0023
   4.8210E+00   4.9383E+00   5.4575E-04  0.0023
   4.9383E+00   5.0585E+00   5.3754E-04  0.0023
   5.0585E+00   5.1815E+00   5.1888E-04  0.0023
   5.1815E+00   5.3076E+00   5.0764E-04  0.0023
   5.3076E+00   5.4368E+00   4.9219E-04  0.0023
   5.4368E+00   5.5690E+00   4.8008E-04  0.0023
   5.5690E+00   5.7045E+00   4.6360E-04  0.0023
   5.7045E+00   5.8433E+00   4.4934E-04  0.0023
   5.8433E+00   5.9855E+00   4.4039E-04  0.0023
   5.9855E+00   6.1311E+00   4.2807E-04  0.0023
   6.1311E+00   6.2803E+00   4.1333E-04  0.0023
   6.2803E+00   6.4331E+00   3.9663E-04  0.0023
   6.4331E+00   6.5896E+00   3.8290E-04  0.0024
   6.5896E+00   6.7500E+00   3.7000E-04  0.0024
   6.7500E+00   6.9142E+00   3.5383E-04  0.0024
   6.9142E+00   7.0824E+00   3.4392E-04  0.0024
   7.0824E+00   7.2548E+00   3.2929E-04  0.0024
   7.2548E+00   7.4313E+00   3.1587E-04  0.0024
   7.4313E+00   7.6121E+00   3.0327E-04  0.0025
   7.6121E+00   7.7973E+00   2.8905E-04  0.0025
   7.7973E+00   7.9870E+00   2.7984E-04  0.0025
   7.9870E+00   8.1813E+00   2.6796E-04  0.0025
   8.1813E+00   8.3804E+00   2.5679E-04  0.0026
   8.3804E+00   8.5843E+00   2.4596E-04  0.0026
   8.5843E+00   8.7931E+00   2.3513E-04  0.0026
   8.7931E+00   9.0071E+00   2.2413E-04  0.0026
   9.0071E+00   9.2262E+00   2.1570E-04  0.0027
   9.2262E+00   9.4507E+00   2.0526E-04  0.0027
   9.4507E+00   9.6807E+00   1.9581E-04  0.0027
   9.6807E+00   9.9162E+00   1.8712E-04  0.0027
   9.9162E+00   1.0157E+01   1.7881E-04  0.0028
   1.0157E+01   1.0405E+01   1.7044E-04  0.0028
   1.0405E+01   1.0658E+01   1.6251E-04  0.0028
   1.0658E+01   1.0917E+01   1.5506E-04  0.0029
   1.0917E+01   1.1183E+01   1.4902E-04  0.0029
   1.1183E+01   1.1455E+01   1.4227E-04  0.0029
   1.1455E+01   1.1733E+01   1.3625E-04  0.0030
   1.1733E+01   1.2019E+01   1.3026E-04  0.0030
   1.2019E+01   1.2311E+01   1.2435E-04  0.0030
   1.2311E+01   1.2611E+01   1.1947E-04  0.0031
   1.2611E+01   1.2918E+01   1.1416E-04  0.0031
   1.2918E+01   1.3232E+01   1.0940E-04  0.0031
   1.3232E+01   1.3554E+01   1.0438E-04  0.0031
   1.3554E+01   1.3884E+01   1.0043E-04  0.0032
   1.3884E+01   1.4222E+01   9.6499E-05  0.0032
   1.4222E+01   1.4568E+01   9.2962E-05  0.0032
   1.4568E+01   1.4922E+01   8.8952E-05  0.0033
   1.4922E+01   1.5285E+01   8.5577E-05  0.0033
   1.5285E+01   1.5657E+01   8.1800E-05  0.0033
   1.5657E+01   1.6038E+01   7.9415E-05  0.0033
   1.6038E+01   1.6428E+01   7.6912E-05  0.0033
   1.6428E+01   1.6828E+01   7.3493E-05  0.0034
   1.6828E+01   1.7237E+01   7.1059E-05  0.0034
   1.7237E+01   1.7657E+01   6.8863E-05  0.0034
   1.7657E+01   1.8086E+01   6.6183E-05  0.0034
   1.8086E+01   1.8526E+01   6.4140E-05  0.0034
   1.8526E+01   1.8977E+01   6.2188E-05  0.0034
   1.8977E+01   1.9439E+01   6.0425E-05  0.0035
   1.9439E+01   1.9912E+01   5.8219E-05  0.0035
   1.9912E+01   2.0396E+01   5.6394E-05  0.0035
   2.0396E+01   2.0893E+01   5.5859E-05  0.0035
   2.0893E+01   2.1401E+01   5.4207E-05  0.0035
   2.1401E+01   2.1922E+01   5.2463E-05  0.0035
   2.1922E+01   2.2455E+01   5.0968E-05  0.0035
   2.2455E+01   2.3001E+01   4.9256E-05  0.0035
   2.3001E+01   2.3561E+01   4.7812E-05  0.0035
   2.3561E+01   2.4134E+01   4.6208E-05  0.0035
   2.4134E+01   2.4721E+01   4.5022E-05  0.0036
   2.4721E+01   2.5323E+01   4.3257E-05  0.0036
   2.5323E+01   2.5939E+01   4.1901E-05  0.0036
   2.5939E+01   2.6570E+01   4.0329E-05  0.0036
   2.6570E+01   2.7217E+01   3.9219E-05  0.0036
   2.7217E+01   2.7879E+01   3.7737E-05  0.0037
   2.7879E+01   2.8557E+01   3.6438E-05  0.0037
   2.8557E+01   2.9252E+01   3.5057E-05  0.0037
   2.9252E+01   2.9964E+01   3.3666E-05  0.0037
   2.9964E+01   3.0693E+01   3.2155E-05  0.0038
   3.0693E+01   3.1440E+01   3.1032E-05  0.0038
   3.1440E+01   3.2205E+01   2.9760E-05  0.0038
   3.2205E+01   3.2988E+01   2.8378E-05  0.0039
   3.2988E+01   3.3791E+01   2.7121E-05  0.0039
   3.3791E+01   3.4613E+01   2.5867E-05  0.0040
   3.4613E+01   3.5455E+01   2.4664E-05  0.0040
   3.5455E+01   3.6318E+01   2.3426E-05  0.0041
   3.6318E+01   3.7201E+01   2.2272E-05  0.0041
   3.7201E+01   3.8106E+01   2.1050E-05  0.0042
   3.8106E+01   3.9034E+01   1.9865E-05  0.0043
   3.9034E+01   3.9983E+01   1.8825E-05  0.0043
   3.9983E+01   4.0956E+01   1.7751E-05  0.0044
   4.0956E+01   4.1953E+01   1.6771E-05  0.0045
   4.1953E+01   4.2973E+01   1.5597E-05  0.0046
   4.2973E+01   4.4019E+01   1.4627E-05  0.0047
   4.4019E+01   4.5090E+01   1.3734E-05  0.0048
   4.5090E+01   4.6187E+01   1.2748E-05  0.0049
   4.6187E+01   4.7311E+01   1.1791E-05  0.0050
   4.7311E+01   4.8462E+01   1.1054E-05  0.0051
   4.8462E+01   4.9641E+01   1.0101E-05  0.0053
   4.9641E+01   5.0849E+01   9.3335E-06  0.0054
   5.0849E+01   5.2086E+01   8.6365E-06  0.0056
   5.2086E+01   5.3353E+01   7.9592E-06  0.0057
   5.3353E+01   5.4651E+01   7.2538E-06  0.0060
   5.4651E+01   5.5981E+01   6.6220E-06  0.0062
   5.5981E+01   5.7343E+01   6.0149E-06  0.0064
   5.7343E+01   5.8738E+01   5.4988E-06  0.0066
   5.8738E+01   6.0168E+01   4.9048E-06  0.0069
   6.0168E+01   6.1632E+01   4.4549E-06  0.0071
   6.1632E+01   6.3131E+01   4.0486E-06  0.0074
   6.3131E+01   6.4667E+01   3.5600E-06  0.0078
   6.4667E+01   6.6240E+01   3.1793E-06  0.0082
   6.6240E+01   6.7852E+01   2.8058E-06  0.0086
   6.7852E+01   6.9503E+01   2.5198E-06  0.0090
   6.9503E+01   7.1194E+01   2.1915E-06  0.0095
   7.1194E+01   7.2926E+01   1.9159E-06  0.0100
   7.2926E+01   7.4701E+01   1.6904E-06  0.0105
   7.4701E+01   7.6518E+01   1.4446E-06  0.0113
   7.6518E+01   7.8380E+01   1.2750E-06  0.0119
   7.8380E+01   8.0287E+01   1.1187E-06  0.0125
   8.0287E+01   8.2240E+01   9.2606E-07  0.0136
   8.2240E+01   8.4241E+01   8.0461E-07  0.0144
   8.4241E+01   8.6291E+01   6.9068E-07  0.0153
   8.6291E+01   8.8391E+01   5.8823E-07  0.0164
   8.8391E+01   9.0541E+01   4.8296E-07  0.0179
   9.0541E+01   9.2744E+01   4.1717E-07  0.0190
   9.2744E+01   9.5001E+01   3.4079E-07  0.0208
   9.5001E+01   9.7312E+01   2.8251E-07  0.0226
   9.7312E+01   9.9680E+01   2.2272E-07  0.0251
   9.9680E+01   1.0211E+02   1.8403E-07  0.0273
   1.0211E+02   1.0459E+02   1.5699E-07  0.0292
   1.0459E+02   1.0713E+02   1.2837E-07  0.0319
   1.0713E+02   1.0974E+02   9.3095E-08  0.0371
   1.0974E+02   1.1241E+02   8.1396E-08  0.0392
   1.1241E+02   1.1515E+02   5.7769E-08  0.0459
   1.1515E+02   1.1795E+02   4.5569E-08  0.0511
   1.1795E+02   1.2082E+02   3.5078E-08  0.0575
   1.2082E+02   1.2376E+02   2.6308E-08  0.0657
   1.2376E+02   1.2677E+02   1.9041E-08  0.0762
   1.2677E+02   1.2985E+02   1.5238E-08  0.0842
   1.2985E+02   1.3301E+02   9.4954E-09  0.1054
   1.3301E+02   1.3625E+02   6.6949E-09  0.1240
   1.3625E+02   1.3956E+02   4.3238E-09  0.1525
   1.3956E+02   1.4296E+02   2.8468E-09  0.1857
   1.4296E+02   1.4644E+02   1.4375E-09  0.2582
   1.4644E+02   1.5000E+02   1.0291E-09  0.3015

#   sum over                 4.5003E-05
'no. =    1   reg = 114 - 214'
msuc: {\huge [t-cross] in region mesh}
msdr: {\it plotted by \ANGEL \version}
msdl: {\it calculated by \PHITS  3.26}
wt: s(0.7)
\vspace{-3}
  region surface crossing
  area  &=&   1.0000E+00 [cm^2]
e:
 
# Information for Restart Calculation
# This calculation was newly started
# istdev =  2 # 1:Batch variance, 2:History variance
# resc2  = 3.00000000000000000E+09 # Total source weight or Total source weight / maxcas
# resc3  = 3.00000000000000000E+09 # Total history number or Total batch number
# maxcas =   500000000 # History / Batch, only used for istdev=1
# bitrseed = 0110110011111001100110101011100000010010001000001101100100111101 # bit data of rseed
