[ T-Cross ]
    title = [t-cross] in region mesh
     mesh =  reg            # mesh type is region-wise
      reg =    1            # number of crossing regions
      non     r-from    r-to       area
      1       118       218        1.000000    
   e-type =    3            # e-mesh is log given by emin, emax and ne
     emin =  1.0000000E-02  # minimum value of e-mesh points
     emax =   150.0000      # maximum value of e-mesh points
#    edel =  2.4039514E-02  # mesh width of e-mesh points
       ne =    400          # number of e-mesh points
#    data = ( e(i), i = 1, ne + 1 )
#           1.00000E-02  1.02433E-02  1.04925E-02  1.07478E-02  1.10093E-02
#           1.12772E-02  1.15516E-02  1.18326E-02  1.21205E-02  1.24154E-02
#           1.27175E-02  1.30269E-02  1.33439E-02  1.36686E-02  1.40011E-02
#           1.43418E-02  1.46907E-02  1.50482E-02  1.54143E-02  1.57894E-02
#           1.61735E-02  1.65670E-02  1.69701E-02  1.73830E-02  1.78060E-02
#           1.82392E-02  1.86830E-02  1.91375E-02  1.96032E-02  2.00801E-02
#           2.05687E-02  2.10692E-02  2.15818E-02  2.21069E-02  2.26448E-02
#           2.31957E-02  2.37601E-02  2.43382E-02  2.49304E-02  2.55369E-02
#           2.61583E-02  2.67947E-02  2.74467E-02  2.81145E-02  2.87985E-02
#           2.94992E-02  3.02169E-02  3.09521E-02  3.17052E-02  3.24766E-02
#           3.32668E-02  3.40762E-02  3.49053E-02  3.57546E-02  3.66246E-02
#           3.75157E-02  3.84284E-02  3.93634E-02  4.03212E-02  4.13022E-02
#           4.23071E-02  4.33365E-02  4.43909E-02  4.54710E-02  4.65773E-02
#           4.77106E-02  4.88714E-02  5.00605E-02  5.12785E-02  5.25262E-02
#           5.38042E-02  5.51133E-02  5.64542E-02  5.78278E-02  5.92348E-02
#           6.06760E-02  6.21523E-02  6.36645E-02  6.52135E-02  6.68002E-02
#           6.84255E-02  7.00904E-02  7.17957E-02  7.35426E-02  7.53319E-02
#           7.71648E-02  7.90423E-02  8.09655E-02  8.29354E-02  8.49533E-02
#           8.70203E-02  8.91376E-02  9.13064E-02  9.35279E-02  9.58035E-02
#           9.81345E-02  1.00522E-01  1.02968E-01  1.05473E-01  1.08040E-01
#           1.10668E-01  1.13361E-01  1.16119E-01  1.18944E-01  1.21838E-01
#           1.24803E-01  1.27839E-01  1.30950E-01  1.34136E-01  1.37399E-01
#           1.40742E-01  1.44167E-01  1.47675E-01  1.51268E-01  1.54948E-01
#           1.58718E-01  1.62580E-01  1.66535E-01  1.70587E-01  1.74738E-01
#           1.78989E-01  1.83344E-01  1.87805E-01  1.92375E-01  1.97055E-01
#           2.01850E-01  2.06761E-01  2.11792E-01  2.16945E-01  2.22223E-01
#           2.27630E-01  2.33169E-01  2.38842E-01  2.44653E-01  2.50605E-01
#           2.56703E-01  2.62949E-01  2.69346E-01  2.75900E-01  2.82613E-01
#           2.89489E-01  2.96532E-01  3.03747E-01  3.11138E-01  3.18708E-01
#           3.26462E-01  3.34405E-01  3.42542E-01  3.50876E-01  3.59413E-01
#           3.68158E-01  3.77116E-01  3.86291E-01  3.95690E-01  4.05317E-01
#           4.15179E-01  4.25281E-01  4.35628E-01  4.46227E-01  4.57084E-01
#           4.68205E-01  4.79597E-01  4.91266E-01  5.03219E-01  5.15463E-01
#           5.28005E-01  5.40851E-01  5.54011E-01  5.67490E-01  5.81298E-01
#           5.95441E-01  6.09929E-01  6.24769E-01  6.39970E-01  6.55541E-01
#           6.71491E-01  6.87828E-01  7.04564E-01  7.21706E-01  7.39266E-01
#           7.57253E-01  7.75678E-01  7.94551E-01  8.13883E-01  8.33685E-01
#           8.53969E-01  8.74747E-01  8.96030E-01  9.17831E-01  9.40163E-01
#           9.63038E-01  9.86469E-01  1.01047E+00  1.03506E+00  1.06024E+00
#           1.08604E+00  1.11246E+00  1.13953E+00  1.16725E+00  1.19565E+00
#           1.22474E+00  1.25454E+00  1.28507E+00  1.31633E+00  1.34836E+00
#           1.38117E+00  1.41477E+00  1.44920E+00  1.48446E+00  1.52057E+00
#           1.55757E+00  1.59547E+00  1.63429E+00  1.67405E+00  1.71478E+00
#           1.75650E+00  1.79924E+00  1.84302E+00  1.88786E+00  1.93379E+00
#           1.98084E+00  2.02904E+00  2.07841E+00  2.12898E+00  2.18078E+00
#           2.23384E+00  2.28819E+00  2.34386E+00  2.40089E+00  2.45930E+00
#           2.51914E+00  2.58043E+00  2.64322E+00  2.70753E+00  2.77341E+00
#           2.84088E+00  2.91001E+00  2.98081E+00  3.05333E+00  3.12762E+00
#           3.20372E+00  3.28167E+00  3.36152E+00  3.44330E+00  3.52708E+00
#           3.61290E+00  3.70080E+00  3.79085E+00  3.88308E+00  3.97756E+00
#           4.07434E+00  4.17347E+00  4.27501E+00  4.37903E+00  4.48557E+00
#           4.59471E+00  4.70650E+00  4.82102E+00  4.93832E+00  5.05847E+00
#           5.18155E+00  5.30762E+00  5.43676E+00  5.56904E+00  5.70453E+00
#           5.84333E+00  5.98550E+00  6.13114E+00  6.28031E+00  6.43312E+00
#           6.58964E+00  6.74997E+00  6.91420E+00  7.08243E+00  7.25475E+00
#           7.43126E+00  7.61207E+00  7.79728E+00  7.98700E+00  8.18133E+00
#           8.38038E+00  8.58428E+00  8.79315E+00  9.00709E+00  9.22624E+00
#           9.45072E+00  9.68067E+00  9.91620E+00  1.01575E+01  1.04046E+01
#           1.06578E+01  1.09171E+01  1.11827E+01  1.14548E+01  1.17335E+01
#           1.20190E+01  1.23114E+01  1.26109E+01  1.29178E+01  1.32321E+01
#           1.35540E+01  1.38838E+01  1.42216E+01  1.45676E+01  1.49221E+01
#           1.52851E+01  1.56570E+01  1.60380E+01  1.64282E+01  1.68279E+01
#           1.72374E+01  1.76568E+01  1.80864E+01  1.85264E+01  1.89772E+01
#           1.94389E+01  1.99119E+01  2.03963E+01  2.08926E+01  2.14009E+01
#           2.19216E+01  2.24550E+01  2.30014E+01  2.35610E+01  2.41343E+01
#           2.47215E+01  2.53230E+01  2.59391E+01  2.65702E+01  2.72167E+01
#           2.78789E+01  2.85572E+01  2.92520E+01  2.99637E+01  3.06928E+01
#           3.14396E+01  3.22045E+01  3.29881E+01  3.37907E+01  3.46128E+01
#           3.54550E+01  3.63177E+01  3.72013E+01  3.81064E+01  3.90336E+01
#           3.99833E+01  4.09561E+01  4.19526E+01  4.29734E+01  4.40189E+01
#           4.50900E+01  4.61870E+01  4.73108E+01  4.84619E+01  4.96410E+01
#           5.08488E+01  5.20860E+01  5.33533E+01  5.46514E+01  5.59812E+01
#           5.73432E+01  5.87384E+01  6.01676E+01  6.16315E+01  6.31311E+01
#           6.46671E+01  6.62405E+01  6.78522E+01  6.95031E+01  7.11941E+01
#           7.29263E+01  7.47007E+01  7.65182E+01  7.83800E+01  8.02870E+01
#           8.22405E+01  8.42414E+01  8.62911E+01  8.83906E+01  9.05412E+01
#           9.27442E+01  9.50007E+01  9.73122E+01  9.96799E+01  1.02105E+02
#           1.04589E+02  1.07134E+02  1.09741E+02  1.12411E+02  1.15146E+02
#           1.17948E+02  1.20817E+02  1.23757E+02  1.26768E+02  1.29852E+02
#           1.33012E+02  1.36248E+02  1.39563E+02  1.42959E+02  1.46437E+02
#           1.50000E+02
     unit =    2            # unit is [1/cm^2/(MeV/n)/source]
     axis =  eng            # axis of output
     file = detector-19.out  # file name of output for the above axis
   output = f-curr          # surface crossing forward current spectrum
     part =  neutron  
# kf/name :  2112     
#    used :        main (  %)        temp (  %)       total (  %)
#  memory :         414 (  0)           0 (  0)         414 (  0)

#------------------------------------------------------------------------------
#newpage:
#   no. =    1   reg = 118 - 218

x: Energy [MeV/n]
y:  F-Curr [1/cm^2/(MeV/n)/source]         
p: xlog ylog afac(0.8) form(0.9)
h: n            x            y(neutron ),hh0l   n 
#  e-lower      e-upper      neutron     r.err 
   1.0000E-02   1.0243E-02   7.3540E-04  0.0334
   1.0243E-02   1.0493E-02   7.6031E-04  0.0325
   1.0493E-02   1.0748E-02   7.5951E-04  0.0321
   1.0748E-02   1.1009E-02   7.5982E-04  0.0317
   1.1009E-02   1.1277E-02   7.9231E-04  0.0307
   1.1277E-02   1.1552E-02   7.5093E-04  0.0311
   1.1552E-02   1.1833E-02   7.3376E-04  0.0311
   1.1833E-02   1.2121E-02   7.6363E-04  0.0301
   1.2121E-02   1.2415E-02   7.3919E-04  0.0303
   1.2415E-02   1.2718E-02   7.3060E-04  0.0301
   1.2718E-02   1.3027E-02   7.2455E-04  0.0298
   1.3027E-02   1.3344E-02   7.6084E-04  0.0288
   1.3344E-02   1.3669E-02   6.8722E-04  0.0299
   1.3669E-02   1.4001E-02   7.0322E-04  0.0292
   1.4001E-02   1.4342E-02   7.1908E-04  0.0286
   1.4342E-02   1.4691E-02   7.4134E-04  0.0278
   1.4691E-02   1.5048E-02   7.1221E-04  0.0280
   1.5048E-02   1.5414E-02   7.2660E-04  0.0274
   1.5414E-02   1.5789E-02   6.9813E-04  0.0276
   1.5789E-02   1.6174E-02   7.1490E-04  0.0270
   1.6174E-02   1.6567E-02   7.2486E-04  0.0265
   1.6567E-02   1.6970E-02   7.2618E-04  0.0261
   1.6970E-02   1.7383E-02   6.8416E-04  0.0266
   1.7383E-02   1.7806E-02   7.2311E-04  0.0256
   1.7806E-02   1.8239E-02   7.1803E-04  0.0253
   1.8239E-02   1.8683E-02   7.0564E-04  0.0252
   1.8683E-02   1.9138E-02   6.9183E-04  0.0252
   1.9138E-02   1.9603E-02   7.1109E-04  0.0246
   1.9603E-02   2.0080E-02   7.0999E-04  0.0243
   2.0080E-02   2.0569E-02   7.0022E-04  0.0242
   2.0569E-02   2.1069E-02   7.0914E-04  0.0237
   2.1069E-02   2.1582E-02   6.9457E-04  0.0237
   2.1582E-02   2.2107E-02   6.7058E-04  0.0238
   2.2107E-02   2.2645E-02   6.8608E-04  0.0233
   2.2645E-02   2.3196E-02   6.9244E-04  0.0229
   2.3196E-02   2.3760E-02   6.5441E-04  0.0233
   2.3760E-02   2.4338E-02   7.0262E-04  0.0222
   2.4338E-02   2.4930E-02   6.7204E-04  0.0224
   2.4930E-02   2.5537E-02   6.8045E-04  0.0220
   2.5537E-02   2.6158E-02   7.0884E-04  0.0213
   2.6158E-02   2.6795E-02   6.5214E-04  0.0219
   2.6795E-02   2.7447E-02   6.8078E-04  0.0212
   2.7447E-02   2.8114E-02   6.8131E-04  0.0210
   2.8114E-02   2.8799E-02   6.7658E-04  0.0208
   2.8799E-02   2.9499E-02   6.5007E-04  0.0209
   2.9499E-02   3.0217E-02   6.4765E-04  0.0207
   3.0217E-02   3.0952E-02   6.4300E-04  0.0206
   3.0952E-02   3.1705E-02   6.4405E-04  0.0203
   3.1705E-02   3.2477E-02   6.5574E-04  0.0199
   3.2477E-02   3.3267E-02   6.4886E-04  0.0197
   3.3267E-02   3.4076E-02   6.3712E-04  0.0197
   3.4076E-02   3.4905E-02   6.2217E-04  0.0197
   3.4905E-02   3.5755E-02   6.5242E-04  0.0190
   3.5755E-02   3.6625E-02   6.3677E-04  0.0190
   3.6625E-02   3.7516E-02   6.2850E-04  0.0189
   3.7516E-02   3.8428E-02   6.4419E-04  0.0184
   3.8428E-02   3.9363E-02   6.2416E-04  0.0185
   3.9363E-02   4.0321E-02   6.2144E-04  0.0183
   4.0321E-02   4.1302E-02   6.2295E-04  0.0181
   4.1302E-02   4.2307E-02   6.0256E-04  0.0182
   4.2307E-02   4.3337E-02   6.0601E-04  0.0179
   4.3337E-02   4.4391E-02   6.0850E-04  0.0176
   4.4391E-02   4.5471E-02   5.9132E-04  0.0177
   4.5471E-02   4.6577E-02   5.9479E-04  0.0174
   4.6577E-02   4.7711E-02   5.8285E-04  0.0174
   4.7711E-02   4.8871E-02   5.8360E-04  0.0172
   4.8871E-02   5.0061E-02   5.9573E-04  0.0168
   5.0061E-02   5.1279E-02   5.7078E-04  0.0170
   5.1279E-02   5.2526E-02   5.8126E-04  0.0166
   5.2526E-02   5.3804E-02   5.6573E-04  0.0166
   5.3804E-02   5.5113E-02   5.6660E-04  0.0164
   5.5113E-02   5.6454E-02   5.5470E-04  0.0164
   5.6454E-02   5.7828E-02   5.6402E-04  0.0161
   5.7828E-02   5.9235E-02   5.6284E-04  0.0159
   5.9235E-02   6.0676E-02   5.4622E-04  0.0159
   6.0676E-02   6.2152E-02   5.2818E-04  0.0160
   6.2152E-02   6.3665E-02   5.5324E-04  0.0155
   6.3665E-02   6.5214E-02   5.4307E-04  0.0154
   6.5214E-02   6.6800E-02   5.3404E-04  0.0154
   6.6800E-02   6.8426E-02   5.2967E-04  0.0152
   6.8426E-02   7.0090E-02   5.2538E-04  0.0151
   7.0090E-02   7.1796E-02   5.0918E-04  0.0152
   7.1796E-02   7.3543E-02   5.2565E-04  0.0147
   7.3543E-02   7.5332E-02   5.0875E-04  0.0148
   7.5332E-02   7.7165E-02   5.0816E-04  0.0146
   7.7165E-02   7.9042E-02   4.8538E-04  0.0148
   7.9042E-02   8.0965E-02   5.0048E-04  0.0144
   8.0965E-02   8.2935E-02   4.8719E-04  0.0144
   8.2935E-02   8.4953E-02   4.8417E-04  0.0143
   8.4953E-02   8.7020E-02   4.7736E-04  0.0142
   8.7020E-02   8.9138E-02   4.7888E-04  0.0140
   8.9138E-02   9.1306E-02   4.6173E-04  0.0141
   9.1306E-02   9.3528E-02   4.6144E-04  0.0140
   9.3528E-02   9.5804E-02   4.5329E-04  0.0139
   9.5804E-02   9.8134E-02   4.4425E-04  0.0139
   9.8134E-02   1.0052E-01   4.4146E-04  0.0138
   1.0052E-01   1.0297E-01   4.3186E-04  0.0137
   1.0297E-01   1.0547E-01   4.2518E-04  0.0137
   1.0547E-01   1.0804E-01   4.3305E-04  0.0134
   1.0804E-01   1.1067E-01   4.1913E-04  0.0135
   1.1067E-01   1.1336E-01   4.1926E-04  0.0133
   1.1336E-01   1.1612E-01   4.0577E-04  0.0134
   1.1612E-01   1.1894E-01   3.9122E-04  0.0134
   1.1894E-01   1.2184E-01   3.9018E-04  0.0133
   1.2184E-01   1.2480E-01   3.8359E-04  0.0132
   1.2480E-01   1.2784E-01   3.7718E-04  0.0132
   1.2784E-01   1.3095E-01   3.6252E-04  0.0133
   1.3095E-01   1.3414E-01   3.5997E-04  0.0132
   1.3414E-01   1.3740E-01   3.5262E-04  0.0132
   1.3740E-01   1.4074E-01   3.4078E-04  0.0132
   1.4074E-01   1.4417E-01   3.4315E-04  0.0130
   1.4417E-01   1.4767E-01   3.4259E-04  0.0129
   1.4767E-01   1.5127E-01   3.4005E-04  0.0128
   1.5127E-01   1.5495E-01   3.1970E-04  0.0130
   1.5495E-01   1.5872E-01   3.0892E-04  0.0131
   1.5872E-01   1.6258E-01   3.0010E-04  0.0131
   1.6258E-01   1.6654E-01   3.0154E-04  0.0129
   1.6654E-01   1.7059E-01   2.8977E-04  0.0130
   1.7059E-01   1.7474E-01   2.8118E-04  0.0131
   1.7474E-01   1.7899E-01   2.7316E-04  0.0131
   1.7899E-01   1.8334E-01   2.7235E-04  0.0130
   1.8334E-01   1.8781E-01   2.5998E-04  0.0131
   1.8781E-01   1.9237E-01   2.5029E-04  0.0132
   1.9237E-01   1.9706E-01   2.4887E-04  0.0131
   1.9706E-01   2.0185E-01   2.4481E-04  0.0130
   2.0185E-01   2.0676E-01   2.4092E-04  0.0130
   2.0676E-01   2.1179E-01   2.4863E-04  0.0126
   2.1179E-01   2.1694E-01   2.4609E-04  0.0125
   2.1694E-01   2.2222E-01   2.5693E-04  0.0121
   2.2222E-01   2.2763E-01   2.5924E-04  0.0119
   2.2763E-01   2.3317E-01   2.6252E-04  0.0117
   2.3317E-01   2.3884E-01   2.6766E-04  0.0115
   2.3884E-01   2.4465E-01   2.7260E-04  0.0112
   2.4465E-01   2.5061E-01   2.7587E-04  0.0110
   2.5061E-01   2.5670E-01   2.7946E-04  0.0108
   2.5670E-01   2.6295E-01   2.8357E-04  0.0106
   2.6295E-01   2.6935E-01   2.8882E-04  0.0104
   2.6935E-01   2.7590E-01   2.9306E-04  0.0102
   2.7590E-01   2.8261E-01   2.8861E-04  0.0101
   2.8261E-01   2.8949E-01   2.9803E-04  0.0099
   2.8949E-01   2.9653E-01   2.9694E-04  0.0098
   2.9653E-01   3.0375E-01   2.9879E-04  0.0096
   3.0375E-01   3.1114E-01   3.0221E-04  0.0095
   3.1114E-01   3.1871E-01   3.0448E-04  0.0093
   3.1871E-01   3.2646E-01   3.1122E-04  0.0091
   3.2646E-01   3.3441E-01   3.1554E-04  0.0089
   3.3441E-01   3.4254E-01   3.1476E-04  0.0088
   3.4254E-01   3.5088E-01   3.1613E-04  0.0087
   3.5088E-01   3.5941E-01   3.1853E-04  0.0086
   3.5941E-01   3.6816E-01   3.2039E-04  0.0084
   3.6816E-01   3.7712E-01   3.2221E-04  0.0083
   3.7712E-01   3.8629E-01   3.2920E-04  0.0081
   3.8629E-01   3.9569E-01   3.2696E-04  0.0081
   3.9569E-01   4.0532E-01   3.3002E-04  0.0079
   4.0532E-01   4.1518E-01   3.3452E-04  0.0078
   4.1518E-01   4.2528E-01   3.3361E-04  0.0077
   4.2528E-01   4.3563E-01   3.3213E-04  0.0076
   4.3563E-01   4.4623E-01   3.4047E-04  0.0074
   4.4623E-01   4.5708E-01   3.3937E-04  0.0074
   4.5708E-01   4.6821E-01   3.4005E-04  0.0073
   4.6821E-01   4.7960E-01   3.4464E-04  0.0071
   4.7960E-01   4.9127E-01   3.4438E-04  0.0070
   4.9127E-01   5.0322E-01   3.4474E-04  0.0070
   5.0322E-01   5.1546E-01   3.4097E-04  0.0069
   5.1546E-01   5.2800E-01   3.4723E-04  0.0068
   5.2800E-01   5.4085E-01   3.4895E-04  0.0067
   5.4085E-01   5.5401E-01   3.4801E-04  0.0066
   5.5401E-01   5.6749E-01   3.5048E-04  0.0065
   5.6749E-01   5.8130E-01   3.4618E-04  0.0065
   5.8130E-01   5.9544E-01   3.4766E-04  0.0064
   5.9544E-01   6.0993E-01   3.5019E-04  0.0063
   6.0993E-01   6.2477E-01   3.4819E-04  0.0062
   6.2477E-01   6.3997E-01   3.4799E-04  0.0061
   6.3997E-01   6.5554E-01   3.5076E-04  0.0060
   6.5554E-01   6.7149E-01   3.4880E-04  0.0060
   6.7149E-01   6.8783E-01   3.5211E-04  0.0059
   6.8783E-01   7.0456E-01   3.5072E-04  0.0058
   7.0456E-01   7.2171E-01   3.4840E-04  0.0058
   7.2171E-01   7.3927E-01   3.5083E-04  0.0057
   7.3927E-01   7.5725E-01   3.4537E-04  0.0057
   7.5725E-01   7.7568E-01   3.4836E-04  0.0056
   7.7568E-01   7.9455E-01   3.4252E-04  0.0056
   7.9455E-01   8.1388E-01   3.4648E-04  0.0055
   8.1388E-01   8.3368E-01   3.4087E-04  0.0054
   8.3368E-01   8.5397E-01   3.4030E-04  0.0054
   8.5397E-01   8.7475E-01   3.3447E-04  0.0054
   8.7475E-01   8.9603E-01   3.3396E-04  0.0053
   8.9603E-01   9.1783E-01   3.3033E-04  0.0053
   9.1783E-01   9.4016E-01   3.2094E-04  0.0053
   9.4016E-01   9.6304E-01   3.1809E-04  0.0052
   9.6304E-01   9.8647E-01   3.1014E-04  0.0052
   9.8647E-01   1.0105E+00   2.9825E-04  0.0053
   1.0105E+00   1.0351E+00   2.9176E-04  0.0053
   1.0351E+00   1.0602E+00   2.8956E-04  0.0052
   1.0602E+00   1.0860E+00   2.8268E-04  0.0052
   1.0860E+00   1.1125E+00   2.8375E-04  0.0052
   1.1125E+00   1.1395E+00   2.7834E-04  0.0051
   1.1395E+00   1.1673E+00   2.7739E-04  0.0051
   1.1673E+00   1.1957E+00   2.7392E-04  0.0051
   1.1957E+00   1.2247E+00   2.7101E-04  0.0050
   1.2247E+00   1.2545E+00   2.6474E-04  0.0050
   1.2545E+00   1.2851E+00   2.6224E-04  0.0050
   1.2851E+00   1.3163E+00   2.5782E-04  0.0050
   1.3163E+00   1.3484E+00   2.5219E-04  0.0050
   1.3484E+00   1.3812E+00   2.5025E-04  0.0049
   1.3812E+00   1.4148E+00   2.4925E-04  0.0049
   1.4148E+00   1.4492E+00   2.4336E-04  0.0049
   1.4492E+00   1.4845E+00   2.3840E-04  0.0049
   1.4845E+00   1.5206E+00   2.3222E-04  0.0049
   1.5206E+00   1.5576E+00   2.3025E-04  0.0048
   1.5576E+00   1.5955E+00   2.2389E-04  0.0048
   1.5955E+00   1.6343E+00   2.1641E-04  0.0049
   1.6343E+00   1.6741E+00   2.1320E-04  0.0048
   1.6741E+00   1.7148E+00   2.0984E-04  0.0048
   1.7148E+00   1.7565E+00   2.0683E-04  0.0048
   1.7565E+00   1.7992E+00   2.0227E-04  0.0048
   1.7992E+00   1.8430E+00   1.9791E-04  0.0048
   1.8430E+00   1.8879E+00   1.9350E-04  0.0048
   1.8879E+00   1.9338E+00   1.8953E-04  0.0048
   1.9338E+00   1.9808E+00   1.8312E-04  0.0048
   1.9808E+00   2.0290E+00   1.8126E-04  0.0048
   2.0290E+00   2.0784E+00   1.7806E-04  0.0048
   2.0784E+00   2.1290E+00   1.7302E-04  0.0048
   2.1290E+00   2.1808E+00   1.7132E-04  0.0047
   2.1808E+00   2.2338E+00   1.6403E-04  0.0048
   2.2338E+00   2.2882E+00   1.6140E-04  0.0048
   2.2882E+00   2.3439E+00   1.5681E-04  0.0048
   2.3439E+00   2.4009E+00   1.5288E-04  0.0048
   2.4009E+00   2.4593E+00   1.5166E-04  0.0047
   2.4593E+00   2.5191E+00   1.4716E-04  0.0048
   2.5191E+00   2.5804E+00   1.4380E-04  0.0047
   2.5804E+00   2.6432E+00   1.4086E-04  0.0047
   2.6432E+00   2.7075E+00   1.3781E-04  0.0047
   2.7075E+00   2.7734E+00   1.3452E-04  0.0047
   2.7734E+00   2.8409E+00   1.3293E-04  0.0047
   2.8409E+00   2.9100E+00   1.2891E-04  0.0047
   2.9100E+00   2.9808E+00   1.2741E-04  0.0047
   2.9808E+00   3.0533E+00   1.2319E-04  0.0047
   3.0533E+00   3.1276E+00   1.2044E-04  0.0047
   3.1276E+00   3.2037E+00   1.1813E-04  0.0047
   3.2037E+00   3.2817E+00   1.1520E-04  0.0047
   3.2817E+00   3.3615E+00   1.1128E-04  0.0047
   3.3615E+00   3.4433E+00   1.1091E-04  0.0047
   3.4433E+00   3.5271E+00   1.0592E-04  0.0047
   3.5271E+00   3.6129E+00   1.0390E-04  0.0047
   3.6129E+00   3.7008E+00   1.0190E-04  0.0047
   3.7008E+00   3.7908E+00   9.8687E-05  0.0047
   3.7908E+00   3.8831E+00   9.6655E-05  0.0047
   3.8831E+00   3.9776E+00   9.4951E-05  0.0047
   3.9776E+00   4.0743E+00   9.1445E-05  0.0047
   4.0743E+00   4.1735E+00   9.0169E-05  0.0047
   4.1735E+00   4.2750E+00   8.6789E-05  0.0048
   4.2750E+00   4.3790E+00   8.4117E-05  0.0048
   4.3790E+00   4.4856E+00   8.1770E-05  0.0048
   4.4856E+00   4.5947E+00   7.8876E-05  0.0048
   4.5947E+00   4.7065E+00   7.6419E-05  0.0048
   4.7065E+00   4.8210E+00   7.3948E-05  0.0048
   4.8210E+00   4.9383E+00   7.0815E-05  0.0049
   4.9383E+00   5.0585E+00   6.8577E-05  0.0049
   5.0585E+00   5.1815E+00   6.6340E-05  0.0049
   5.1815E+00   5.3076E+00   6.3893E-05  0.0050
   5.3076E+00   5.4368E+00   6.1320E-05  0.0050
   5.4368E+00   5.5690E+00   5.9267E-05  0.0050
   5.5690E+00   5.7045E+00   5.6194E-05  0.0051
   5.7045E+00   5.8433E+00   5.3967E-05  0.0052
   5.8433E+00   5.9855E+00   5.1743E-05  0.0052
   5.9855E+00   6.1311E+00   4.9576E-05  0.0053
   6.1311E+00   6.2803E+00   4.7626E-05  0.0053
   6.2803E+00   6.4331E+00   4.5276E-05  0.0054
   6.4331E+00   6.5896E+00   4.3038E-05  0.0054
   6.5896E+00   6.7500E+00   4.0823E-05  0.0055
   6.7500E+00   6.9142E+00   3.8847E-05  0.0056
   6.9142E+00   7.0824E+00   3.6679E-05  0.0057
   7.0824E+00   7.2548E+00   3.4670E-05  0.0058
   7.2548E+00   7.4313E+00   3.2933E-05  0.0059
   7.4313E+00   7.6121E+00   3.0947E-05  0.0060
   7.6121E+00   7.7973E+00   2.9225E-05  0.0061
   7.7973E+00   7.9870E+00   2.7170E-05  0.0062
   7.9870E+00   8.1813E+00   2.5503E-05  0.0063
   8.1813E+00   8.3804E+00   2.4384E-05  0.0064
   8.3804E+00   8.5843E+00   2.2956E-05  0.0065
   8.5843E+00   8.7931E+00   2.1602E-05  0.0066
   8.7931E+00   9.0071E+00   2.0643E-05  0.0067
   9.0071E+00   9.2262E+00   1.9276E-05  0.0069
   9.2262E+00   9.4507E+00   1.8106E-05  0.0070
   9.4507E+00   9.6807E+00   1.7024E-05  0.0071
   9.6807E+00   9.9162E+00   1.6113E-05  0.0073
   9.9162E+00   1.0157E+01   1.4958E-05  0.0074
   1.0157E+01   1.0405E+01   1.4456E-05  0.0075
   1.0405E+01   1.0658E+01   1.3820E-05  0.0076
   1.0658E+01   1.0917E+01   1.3305E-05  0.0076
   1.0917E+01   1.1183E+01   1.2644E-05  0.0077
   1.1183E+01   1.1455E+01   1.2163E-05  0.0078
   1.1455E+01   1.1733E+01   1.1074E-05  0.0080
   1.1733E+01   1.2019E+01   1.0380E-05  0.0082
   1.2019E+01   1.2311E+01   9.5456E-06  0.0085
   1.2311E+01   1.2611E+01   8.9102E-06  0.0087
   1.2611E+01   1.2918E+01   8.2776E-06  0.0089
   1.2918E+01   1.3232E+01   7.9438E-06  0.0089
   1.3232E+01   1.3554E+01   7.3957E-06  0.0092
   1.3554E+01   1.3884E+01   6.8595E-06  0.0094
   1.3884E+01   1.4222E+01   6.4893E-06  0.0095
   1.4222E+01   1.4568E+01   5.9938E-06  0.0098
   1.4568E+01   1.4922E+01   5.5654E-06  0.0101
   1.4922E+01   1.5285E+01   5.1229E-06  0.0104
   1.5285E+01   1.5657E+01   4.8169E-06  0.0106
   1.5657E+01   1.6038E+01   4.4443E-06  0.0109
   1.6038E+01   1.6428E+01   3.9945E-06  0.0113
   1.6428E+01   1.6828E+01   3.6844E-06  0.0117
   1.6828E+01   1.7237E+01   3.4258E-06  0.0119
   1.7237E+01   1.7657E+01   3.0937E-06  0.0124
   1.7657E+01   1.8086E+01   2.8550E-06  0.0128
   1.8086E+01   1.8526E+01   2.5636E-06  0.0133
   1.8526E+01   1.8977E+01   2.4296E-06  0.0135
   1.8977E+01   1.9439E+01   2.2235E-06  0.0140
   1.9439E+01   1.9912E+01   1.9533E-06  0.0147
   1.9912E+01   2.0396E+01   1.7322E-06  0.0154
   2.0396E+01   2.0893E+01   1.5657E-06  0.0160
   2.0893E+01   2.1401E+01   1.3763E-06  0.0169
   2.1401E+01   2.1922E+01   1.2806E-06  0.0173
   2.1922E+01   2.2455E+01   1.1332E-06  0.0182
   2.2455E+01   2.3001E+01   1.0045E-06  0.0191
   2.3001E+01   2.3561E+01   9.0201E-07  0.0199
   2.3561E+01   2.4134E+01   8.3034E-07  0.0205
   2.4134E+01   2.4721E+01   6.9822E-07  0.0221
   2.4721E+01   2.5323E+01   6.1347E-07  0.0233
   2.5323E+01   2.5939E+01   5.5346E-07  0.0242
   2.5939E+01   2.6570E+01   4.8517E-07  0.0256
   2.6570E+01   2.7217E+01   4.2229E-07  0.0271
   2.7217E+01   2.7879E+01   3.6212E-07  0.0289
   2.7879E+01   2.8557E+01   3.2964E-07  0.0299
   2.8557E+01   2.9252E+01   2.6280E-07  0.0331
   2.9252E+01   2.9964E+01   2.2677E-07  0.0352
   2.9964E+01   3.0693E+01   1.8984E-07  0.0380
   3.0693E+01   3.1440E+01   1.7837E-07  0.0387
   3.1440E+01   3.2205E+01   1.6236E-07  0.0401
   3.2205E+01   3.2988E+01   1.3171E-07  0.0440
   3.2988E+01   3.3791E+01   1.2160E-07  0.0453
   3.3791E+01   3.4613E+01   9.9738E-08  0.0494
   3.4613E+01   3.5455E+01   9.2144E-08  0.0508
   3.5455E+01   3.6318E+01   8.2305E-08  0.0531
   3.6318E+01   3.7201E+01   6.4053E-08  0.0594
   3.7201E+01   3.8106E+01   6.7172E-08  0.0574
   3.8106E+01   3.9034E+01   5.5007E-08  0.0626
   3.9034E+01   3.9983E+01   5.0962E-08  0.0643
   3.9983E+01   4.0956E+01   4.8313E-08  0.0652
   4.0956E+01   4.1953E+01   4.1947E-08  0.0692
   4.1953E+01   4.2973E+01   3.1350E-08  0.0791
   4.2973E+01   4.4019E+01   2.7927E-08  0.0828
   4.4019E+01   4.5090E+01   2.0915E-08  0.0945
   4.5090E+01   4.6187E+01   1.8230E-08  0.1000
   4.6187E+01   4.7311E+01   1.4416E-08  0.1111
   4.7311E+01   4.8462E+01   1.0772E-08  0.1270
   4.8462E+01   4.9641E+01   6.9544E-09  0.1562
   4.9641E+01   5.0849E+01   5.4645E-09  0.1741
   5.0849E+01   5.2086E+01   4.2031E-09  0.1961
   5.2086E+01   5.3353E+01   2.3672E-09  0.2582
   5.3353E+01   5.4651E+01   2.6192E-09  0.2425
   5.4651E+01   5.5981E+01   1.3537E-09  0.3333
   5.5981E+01   5.7343E+01   1.1747E-09  0.3536
   5.7343E+01   5.8738E+01   4.3004E-10  0.5774
   5.8738E+01   6.0168E+01   5.5977E-10  0.5000
   6.0168E+01   6.1632E+01   2.7324E-10  0.7071
   6.1632E+01   6.3131E+01   1.3337E-10  1.0000
   6.3131E+01   6.4667E+01   3.9062E-10  0.5774
   6.4667E+01   6.6240E+01   0.0000E+00  0.0000
   6.6240E+01   6.7852E+01   0.0000E+00  0.0000
   6.7852E+01   6.9503E+01   0.0000E+00  0.0000
   6.9503E+01   7.1194E+01   0.0000E+00  0.0000
   7.1194E+01   7.2926E+01   0.0000E+00  0.0000
   7.2926E+01   7.4701E+01   0.0000E+00  0.0000
   7.4701E+01   7.6518E+01   0.0000E+00  0.0000
   7.6518E+01   7.8380E+01   0.0000E+00  0.0000
   7.8380E+01   8.0287E+01   0.0000E+00  0.0000
   8.0287E+01   8.2240E+01   0.0000E+00  0.0000
   8.2240E+01   8.4241E+01   0.0000E+00  0.0000
   8.4241E+01   8.6291E+01   0.0000E+00  0.0000
   8.6291E+01   8.8391E+01   0.0000E+00  0.0000
   8.8391E+01   9.0541E+01   0.0000E+00  0.0000
   9.0541E+01   9.2744E+01   0.0000E+00  0.0000
   9.2744E+01   9.5001E+01   0.0000E+00  0.0000
   9.5001E+01   9.7312E+01   0.0000E+00  0.0000
   9.7312E+01   9.9680E+01   0.0000E+00  0.0000
   9.9680E+01   1.0211E+02   0.0000E+00  0.0000
   1.0211E+02   1.0459E+02   0.0000E+00  0.0000
   1.0459E+02   1.0713E+02   0.0000E+00  0.0000
   1.0713E+02   1.0974E+02   0.0000E+00  0.0000
   1.0974E+02   1.1241E+02   0.0000E+00  0.0000
   1.1241E+02   1.1515E+02   0.0000E+00  0.0000
   1.1515E+02   1.1795E+02   0.0000E+00  0.0000
   1.1795E+02   1.2082E+02   0.0000E+00  0.0000
   1.2082E+02   1.2376E+02   0.0000E+00  0.0000
   1.2376E+02   1.2677E+02   0.0000E+00  0.0000
   1.2677E+02   1.2985E+02   0.0000E+00  0.0000
   1.2985E+02   1.3301E+02   0.0000E+00  0.0000
   1.3301E+02   1.3625E+02   0.0000E+00  0.0000
   1.3625E+02   1.3956E+02   0.0000E+00  0.0000
   1.3956E+02   1.4296E+02   0.0000E+00  0.0000
   1.4296E+02   1.4644E+02   0.0000E+00  0.0000
   1.4644E+02   1.5000E+02   0.0000E+00  0.0000

#   sum over                 7.7694E-06
'no. =    1   reg = 118 - 218'
msuc: {\huge [t-cross] in region mesh}
msdr: {\it plotted by \ANGEL \version}
msdl: {\it calculated by \PHITS  3.26}
wt: s(0.7)
\vspace{-3}
  region surface crossing
  area  &=&   1.0000E+00 [cm^2]
e:
 
# Information for Restart Calculation
# This calculation was newly started
# istdev =  2 # 1:Batch variance, 2:History variance
# resc2  = 5.00000000000000000E+09 # Total source weight or Total source weight / maxcas
# resc3  = 5.00000000000000000E+09 # Total history number or Total batch number
# maxcas =   500000000 # History / Batch, only used for istdev=1
# bitrseed = 0110100000100010111000001110001111001110100100011111101000111001 # bit data of rseed
