[ T-Cross ]
    title = [t-cross] in region mesh
     mesh =  reg            # mesh type is region-wise
      reg =    1            # number of crossing regions
      non     r-from    r-to       area
      1       111       211        1.000000    
   e-type =    3            # e-mesh is log given by emin, emax and ne
     emin =  1.0000000E-02  # minimum value of e-mesh points
     emax =   150.0000      # maximum value of e-mesh points
#    edel =  2.4039514E-02  # mesh width of e-mesh points
       ne =    400          # number of e-mesh points
#    data = ( e(i), i = 1, ne + 1 )
#           1.00000E-02  1.02433E-02  1.04925E-02  1.07478E-02  1.10093E-02
#           1.12772E-02  1.15516E-02  1.18326E-02  1.21205E-02  1.24154E-02
#           1.27175E-02  1.30269E-02  1.33439E-02  1.36686E-02  1.40011E-02
#           1.43418E-02  1.46907E-02  1.50482E-02  1.54143E-02  1.57894E-02
#           1.61735E-02  1.65670E-02  1.69701E-02  1.73830E-02  1.78060E-02
#           1.82392E-02  1.86830E-02  1.91375E-02  1.96032E-02  2.00801E-02
#           2.05687E-02  2.10692E-02  2.15818E-02  2.21069E-02  2.26448E-02
#           2.31957E-02  2.37601E-02  2.43382E-02  2.49304E-02  2.55369E-02
#           2.61583E-02  2.67947E-02  2.74467E-02  2.81145E-02  2.87985E-02
#           2.94992E-02  3.02169E-02  3.09521E-02  3.17052E-02  3.24766E-02
#           3.32668E-02  3.40762E-02  3.49053E-02  3.57546E-02  3.66246E-02
#           3.75157E-02  3.84284E-02  3.93634E-02  4.03212E-02  4.13022E-02
#           4.23071E-02  4.33365E-02  4.43909E-02  4.54710E-02  4.65773E-02
#           4.77106E-02  4.88714E-02  5.00605E-02  5.12785E-02  5.25262E-02
#           5.38042E-02  5.51133E-02  5.64542E-02  5.78278E-02  5.92348E-02
#           6.06760E-02  6.21523E-02  6.36645E-02  6.52135E-02  6.68002E-02
#           6.84255E-02  7.00904E-02  7.17957E-02  7.35426E-02  7.53319E-02
#           7.71648E-02  7.90423E-02  8.09655E-02  8.29354E-02  8.49533E-02
#           8.70203E-02  8.91376E-02  9.13064E-02  9.35279E-02  9.58035E-02
#           9.81345E-02  1.00522E-01  1.02968E-01  1.05473E-01  1.08040E-01
#           1.10668E-01  1.13361E-01  1.16119E-01  1.18944E-01  1.21838E-01
#           1.24803E-01  1.27839E-01  1.30950E-01  1.34136E-01  1.37399E-01
#           1.40742E-01  1.44167E-01  1.47675E-01  1.51268E-01  1.54948E-01
#           1.58718E-01  1.62580E-01  1.66535E-01  1.70587E-01  1.74738E-01
#           1.78989E-01  1.83344E-01  1.87805E-01  1.92375E-01  1.97055E-01
#           2.01850E-01  2.06761E-01  2.11792E-01  2.16945E-01  2.22223E-01
#           2.27630E-01  2.33169E-01  2.38842E-01  2.44653E-01  2.50605E-01
#           2.56703E-01  2.62949E-01  2.69346E-01  2.75900E-01  2.82613E-01
#           2.89489E-01  2.96532E-01  3.03747E-01  3.11138E-01  3.18708E-01
#           3.26462E-01  3.34405E-01  3.42542E-01  3.50876E-01  3.59413E-01
#           3.68158E-01  3.77116E-01  3.86291E-01  3.95690E-01  4.05317E-01
#           4.15179E-01  4.25281E-01  4.35628E-01  4.46227E-01  4.57084E-01
#           4.68205E-01  4.79597E-01  4.91266E-01  5.03219E-01  5.15463E-01
#           5.28005E-01  5.40851E-01  5.54011E-01  5.67490E-01  5.81298E-01
#           5.95441E-01  6.09929E-01  6.24769E-01  6.39970E-01  6.55541E-01
#           6.71491E-01  6.87828E-01  7.04564E-01  7.21706E-01  7.39266E-01
#           7.57253E-01  7.75678E-01  7.94551E-01  8.13883E-01  8.33685E-01
#           8.53969E-01  8.74747E-01  8.96030E-01  9.17831E-01  9.40163E-01
#           9.63038E-01  9.86469E-01  1.01047E+00  1.03506E+00  1.06024E+00
#           1.08604E+00  1.11246E+00  1.13953E+00  1.16725E+00  1.19565E+00
#           1.22474E+00  1.25454E+00  1.28507E+00  1.31633E+00  1.34836E+00
#           1.38117E+00  1.41477E+00  1.44920E+00  1.48446E+00  1.52057E+00
#           1.55757E+00  1.59547E+00  1.63429E+00  1.67405E+00  1.71478E+00
#           1.75650E+00  1.79924E+00  1.84302E+00  1.88786E+00  1.93379E+00
#           1.98084E+00  2.02904E+00  2.07841E+00  2.12898E+00  2.18078E+00
#           2.23384E+00  2.28819E+00  2.34386E+00  2.40089E+00  2.45930E+00
#           2.51914E+00  2.58043E+00  2.64322E+00  2.70753E+00  2.77341E+00
#           2.84088E+00  2.91001E+00  2.98081E+00  3.05333E+00  3.12762E+00
#           3.20372E+00  3.28167E+00  3.36152E+00  3.44330E+00  3.52708E+00
#           3.61290E+00  3.70080E+00  3.79085E+00  3.88308E+00  3.97756E+00
#           4.07434E+00  4.17347E+00  4.27501E+00  4.37903E+00  4.48557E+00
#           4.59471E+00  4.70650E+00  4.82102E+00  4.93832E+00  5.05847E+00
#           5.18155E+00  5.30762E+00  5.43676E+00  5.56904E+00  5.70453E+00
#           5.84333E+00  5.98550E+00  6.13114E+00  6.28031E+00  6.43312E+00
#           6.58964E+00  6.74997E+00  6.91420E+00  7.08243E+00  7.25475E+00
#           7.43126E+00  7.61207E+00  7.79728E+00  7.98700E+00  8.18133E+00
#           8.38038E+00  8.58428E+00  8.79315E+00  9.00709E+00  9.22624E+00
#           9.45072E+00  9.68067E+00  9.91620E+00  1.01575E+01  1.04046E+01
#           1.06578E+01  1.09171E+01  1.11827E+01  1.14548E+01  1.17335E+01
#           1.20190E+01  1.23114E+01  1.26109E+01  1.29178E+01  1.32321E+01
#           1.35540E+01  1.38838E+01  1.42216E+01  1.45676E+01  1.49221E+01
#           1.52851E+01  1.56570E+01  1.60380E+01  1.64282E+01  1.68279E+01
#           1.72374E+01  1.76568E+01  1.80864E+01  1.85264E+01  1.89772E+01
#           1.94389E+01  1.99119E+01  2.03963E+01  2.08926E+01  2.14009E+01
#           2.19216E+01  2.24550E+01  2.30014E+01  2.35610E+01  2.41343E+01
#           2.47215E+01  2.53230E+01  2.59391E+01  2.65702E+01  2.72167E+01
#           2.78789E+01  2.85572E+01  2.92520E+01  2.99637E+01  3.06928E+01
#           3.14396E+01  3.22045E+01  3.29881E+01  3.37907E+01  3.46128E+01
#           3.54550E+01  3.63177E+01  3.72013E+01  3.81064E+01  3.90336E+01
#           3.99833E+01  4.09561E+01  4.19526E+01  4.29734E+01  4.40189E+01
#           4.50900E+01  4.61870E+01  4.73108E+01  4.84619E+01  4.96410E+01
#           5.08488E+01  5.20860E+01  5.33533E+01  5.46514E+01  5.59812E+01
#           5.73432E+01  5.87384E+01  6.01676E+01  6.16315E+01  6.31311E+01
#           6.46671E+01  6.62405E+01  6.78522E+01  6.95031E+01  7.11941E+01
#           7.29263E+01  7.47007E+01  7.65182E+01  7.83800E+01  8.02870E+01
#           8.22405E+01  8.42414E+01  8.62911E+01  8.83906E+01  9.05412E+01
#           9.27442E+01  9.50007E+01  9.73122E+01  9.96799E+01  1.02105E+02
#           1.04589E+02  1.07134E+02  1.09741E+02  1.12411E+02  1.15146E+02
#           1.17948E+02  1.20817E+02  1.23757E+02  1.26768E+02  1.29852E+02
#           1.33012E+02  1.36248E+02  1.39563E+02  1.42959E+02  1.46437E+02
#           1.50000E+02
     unit =    2            # unit is [1/cm^2/(MeV/n)/source]
     axis =  eng            # axis of output
     file = detector-12.out  # file name of output for the above axis
   output = f-curr          # surface crossing forward current spectrum
     part =  neutron  
# kf/name :  2112     
#    used :        main (  %)        temp (  %)       total (  %)
#  memory :         414 (  0)           0 (  0)         414 (  0)

#------------------------------------------------------------------------------
#newpage:
#   no. =    1   reg = 111 - 211

x: Energy [MeV/n]
y:  F-Curr [1/cm^2/(MeV/n)/source]         
p: xlog ylog afac(0.8) form(0.9)
h: n            x            y(neutron ),hh0l   n 
#  e-lower      e-upper      neutron     r.err 
   1.0000E-02   1.0243E-02   4.3155E-04  0.0976
   1.0243E-02   1.0493E-02   4.3334E-04  0.0962
   1.0493E-02   1.0748E-02   3.6429E-04  0.1037
   1.0748E-02   1.1009E-02   3.8623E-04  0.0995
   1.1009E-02   1.1277E-02   4.5172E-04  0.0909
   1.1277E-02   1.1552E-02   3.8632E-04  0.0971
   1.1552E-02   1.1833E-02   3.7003E-04  0.0981
   1.1833E-02   1.2121E-02   4.1682E-04  0.0913
   1.2121E-02   1.2415E-02   3.7640E-04  0.0949
   1.2415E-02   1.2718E-02   3.7739E-04  0.0937
   1.2718E-02   1.3027E-02   4.1044E-04  0.0887
   1.3027E-02   1.3344E-02   3.5652E-04  0.0941
   1.3344E-02   1.3669E-02   3.5421E-04  0.0933
   1.3669E-02   1.4001E-02   4.4502E-04  0.0822
   1.4001E-02   1.4342E-02   4.3152E-04  0.0825
   1.4342E-02   1.4691E-02   4.8718E-04  0.0767
   1.4691E-02   1.5048E-02   3.6930E-04  0.0870
   1.5048E-02   1.5414E-02   4.0149E-04  0.0825
   1.5414E-02   1.5789E-02   4.3195E-04  0.0786
   1.5789E-02   1.6174E-02   3.9045E-04  0.0816
   1.6174E-02   1.6567E-02   3.9135E-04  0.0806
   1.6567E-02   1.6970E-02   3.8701E-04  0.0801
   1.6970E-02   1.7383E-02   4.1899E-04  0.0760
   1.7383E-02   1.7806E-02   3.9722E-04  0.0772
   1.7806E-02   1.8239E-02   4.3625E-04  0.0727
   1.8239E-02   1.8683E-02   4.0110E-04  0.0750
   1.8683E-02   1.9138E-02   4.3558E-04  0.0711
   1.9138E-02   1.9603E-02   4.4026E-04  0.0698
   1.9603E-02   2.0080E-02   4.8851E-04  0.0655
   2.0080E-02   2.0569E-02   3.8071E-04  0.0733
   2.0569E-02   2.1069E-02   4.5559E-04  0.0662
   2.1069E-02   2.1582E-02   3.9990E-04  0.0698
   2.1582E-02   2.2107E-02   4.7991E-04  0.0630
   2.2107E-02   2.2645E-02   4.5921E-04  0.0636
   2.2645E-02   2.3196E-02   4.1745E-04  0.0659
   2.3196E-02   2.3760E-02   4.3588E-04  0.0638
   2.3760E-02   2.4338E-02   4.2726E-04  0.0636
   2.4338E-02   2.4930E-02   4.5089E-04  0.0612
   2.4930E-02   2.5537E-02   4.2699E-04  0.0621
   2.5537E-02   2.6158E-02   4.5064E-04  0.0598
   2.6158E-02   2.6795E-02   4.3365E-04  0.0602
   2.6795E-02   2.7447E-02   4.0188E-04  0.0618
   2.7447E-02   2.8114E-02   4.6271E-04  0.0569
   2.8114E-02   2.8799E-02   4.3418E-04  0.0580
   2.8799E-02   2.9499E-02   4.0960E-04  0.0590
   2.9499E-02   3.0217E-02   4.3052E-04  0.0569
   3.0217E-02   3.0952E-02   4.5974E-04  0.0544
   3.0952E-02   3.1705E-02   4.6741E-04  0.0533
   3.1705E-02   3.2477E-02   4.4205E-04  0.0542
   3.2477E-02   3.3267E-02   4.7964E-04  0.0514
   3.3267E-02   3.4076E-02   4.6145E-04  0.0517
   3.4076E-02   3.4905E-02   4.7883E-04  0.0502
   3.4905E-02   3.5755E-02   4.6039E-04  0.0506
   3.5755E-02   3.6625E-02   4.4486E-04  0.0508
   3.6625E-02   3.7516E-02   4.7469E-04  0.0486
   3.7516E-02   3.8428E-02   4.6232E-04  0.0487
   3.8428E-02   3.9363E-02   4.6738E-04  0.0478
   3.9363E-02   4.0321E-02   4.9805E-04  0.0458
   4.0321E-02   4.1302E-02   4.9488E-04  0.0454
   4.1302E-02   4.2307E-02   4.8661E-04  0.0452
   4.2307E-02   4.3337E-02   4.7116E-04  0.0454
   4.3337E-02   4.4391E-02   4.6187E-04  0.0453
   4.4391E-02   4.5471E-02   4.4257E-04  0.0457
   4.5471E-02   4.6577E-02   4.5013E-04  0.0448
   4.6577E-02   4.7711E-02   5.1709E-04  0.0413
   4.7711E-02   4.8871E-02   4.4365E-04  0.0441
   4.8871E-02   5.0061E-02   4.8357E-04  0.0417
   5.0061E-02   5.1279E-02   4.6633E-04  0.0420
   5.1279E-02   5.2526E-02   4.9533E-04  0.0402
   5.2526E-02   5.3804E-02   4.8670E-04  0.0401
   5.3804E-02   5.5113E-02   4.9347E-04  0.0393
   5.5113E-02   5.6454E-02   4.8473E-04  0.0392
   5.6454E-02   5.7828E-02   4.9142E-04  0.0385
   5.7828E-02   5.9235E-02   4.9538E-04  0.0379
   5.9235E-02   6.0676E-02   4.7737E-04  0.0381
   6.0676E-02   6.2152E-02   5.0735E-04  0.0365
   6.2152E-02   6.3665E-02   4.8075E-04  0.0371
   6.3665E-02   6.5214E-02   5.0678E-04  0.0357
   6.5214E-02   6.6800E-02   4.7709E-04  0.0363
   6.6800E-02   6.8426E-02   4.6207E-04  0.0365
   6.8426E-02   7.0090E-02   4.8173E-04  0.0353
   7.0090E-02   7.1796E-02   5.2892E-04  0.0333
   7.1796E-02   7.3543E-02   5.1063E-04  0.0335
   7.3543E-02   7.5332E-02   5.1304E-04  0.0330
   7.5332E-02   7.7165E-02   4.9267E-04  0.0333
   7.7165E-02   7.9042E-02   5.3316E-04  0.0316
   7.9042E-02   8.0965E-02   5.2830E-04  0.0314
   8.0965E-02   8.2935E-02   4.8428E-04  0.0324
   8.2935E-02   8.4953E-02   4.9706E-04  0.0316
   8.4953E-02   8.7020E-02   5.0508E-04  0.0309
   8.7020E-02   8.9138E-02   5.1009E-04  0.0304
   8.9138E-02   9.1306E-02   5.2287E-04  0.0297
   9.1306E-02   9.3528E-02   5.1788E-04  0.0295
   9.3528E-02   9.5804E-02   5.1591E-04  0.0292
   9.5804E-02   9.8134E-02   5.1395E-04  0.0289
   9.8134E-02   1.0052E-01   5.3901E-04  0.0279
   1.0052E-01   1.0297E-01   5.1149E-04  0.0283
   1.0297E-01   1.0547E-01   5.5483E-04  0.0268
   1.0547E-01   1.0804E-01   5.5217E-04  0.0266
   1.0804E-01   1.1067E-01   5.3829E-04  0.0266
   1.1067E-01   1.1336E-01   5.3516E-04  0.0263
   1.1336E-01   1.1612E-01   5.0468E-04  0.0268
   1.1612E-01   1.1894E-01   5.6632E-04  0.0250
   1.1894E-01   1.2184E-01   5.3766E-04  0.0254
   1.2184E-01   1.2480E-01   5.4513E-04  0.0249
   1.2480E-01   1.2784E-01   5.6512E-04  0.0241
   1.2784E-01   1.3095E-01   5.5201E-04  0.0241
   1.3095E-01   1.3414E-01   5.6935E-04  0.0235
   1.3414E-01   1.3740E-01   5.7329E-04  0.0231
   1.3740E-01   1.4074E-01   5.6775E-04  0.0230
   1.4074E-01   1.4417E-01   5.6331E-04  0.0228
   1.4417E-01   1.4767E-01   5.6903E-04  0.0224
   1.4767E-01   1.5127E-01   5.5802E-04  0.0223
   1.5127E-01   1.5495E-01   5.6977E-04  0.0218
   1.5495E-01   1.5872E-01   5.8382E-04  0.0213
   1.5872E-01   1.6258E-01   5.7461E-04  0.0212
   1.6258E-01   1.6654E-01   5.8119E-04  0.0209
   1.6654E-01   1.7059E-01   5.8133E-04  0.0206
   1.7059E-01   1.7474E-01   5.9414E-04  0.0201
   1.7474E-01   1.7899E-01   6.1743E-04  0.0195
   1.7899E-01   1.8334E-01   6.0471E-04  0.0195
   1.8334E-01   1.8781E-01   6.0369E-04  0.0193
   1.8781E-01   1.9237E-01   6.0073E-04  0.0191
   1.9237E-01   1.9706E-01   5.9073E-04  0.0190
   1.9706E-01   2.0185E-01   6.0538E-04  0.0186
   2.0185E-01   2.0676E-01   6.1146E-04  0.0182
   2.0676E-01   2.1179E-01   6.1443E-04  0.0180
   2.1179E-01   2.1694E-01   6.2448E-04  0.0176
   2.1694E-01   2.2222E-01   6.1818E-04  0.0175
   2.2222E-01   2.2763E-01   6.1884E-04  0.0173
   2.2763E-01   2.3317E-01   6.2310E-04  0.0170
   2.3317E-01   2.3884E-01   6.4038E-04  0.0166
   2.3884E-01   2.4465E-01   6.3636E-04  0.0164
   2.4465E-01   2.5061E-01   6.5098E-04  0.0161
   2.5061E-01   2.5670E-01   6.5929E-04  0.0158
   2.5670E-01   2.6295E-01   6.4924E-04  0.0157
   2.6295E-01   2.6935E-01   6.4390E-04  0.0156
   2.6935E-01   2.7590E-01   6.6805E-04  0.0151
   2.7590E-01   2.8261E-01   6.5427E-04  0.0151
   2.8261E-01   2.8949E-01   6.4643E-04  0.0150
   2.8949E-01   2.9653E-01   6.4457E-04  0.0148
   2.9653E-01   3.0375E-01   6.6210E-04  0.0145
   3.0375E-01   3.1114E-01   6.6762E-04  0.0142
   3.1114E-01   3.1871E-01   6.6709E-04  0.0141
   3.1871E-01   3.2646E-01   6.8168E-04  0.0138
   3.2646E-01   3.3441E-01   6.7253E-04  0.0137
   3.3441E-01   3.4254E-01   6.6492E-04  0.0136
   3.4254E-01   3.5088E-01   6.9520E-04  0.0131
   3.5088E-01   3.5941E-01   6.8419E-04  0.0131
   3.5941E-01   3.6816E-01   6.7892E-04  0.0130
   3.6816E-01   3.7712E-01   6.7686E-04  0.0128
   3.7712E-01   3.8629E-01   7.1484E-04  0.0123
   3.8629E-01   3.9569E-01   6.9456E-04  0.0124
   3.9569E-01   4.0532E-01   7.0533E-04  0.0121
   4.0532E-01   4.1518E-01   6.9501E-04  0.0121
   4.1518E-01   4.2528E-01   6.9781E-04  0.0119
   4.2528E-01   4.3563E-01   6.8742E-04  0.0119
   4.3563E-01   4.4623E-01   7.0237E-04  0.0116
   4.4623E-01   4.5708E-01   6.9881E-04  0.0115
   4.5708E-01   4.6821E-01   7.0397E-04  0.0113
   4.6821E-01   4.7960E-01   7.0581E-04  0.0112
   4.7960E-01   4.9127E-01   7.0263E-04  0.0110
   4.9127E-01   5.0322E-01   6.9661E-04  0.0110
   5.0322E-01   5.1546E-01   7.1408E-04  0.0107
   5.1546E-01   5.2800E-01   7.1163E-04  0.0106
   5.2800E-01   5.4085E-01   7.1582E-04  0.0104
   5.4085E-01   5.5401E-01   7.0558E-04  0.0104
   5.5401E-01   5.6749E-01   7.0600E-04  0.0103
   5.6749E-01   5.8130E-01   7.2124E-04  0.0100
   5.8130E-01   5.9544E-01   7.0361E-04  0.0100
   5.9544E-01   6.0993E-01   6.9232E-04  0.0100
   6.0993E-01   6.2477E-01   7.0283E-04  0.0098
   6.2477E-01   6.3997E-01   6.8748E-04  0.0098
   6.3997E-01   6.5554E-01   6.9626E-04  0.0096
   6.5554E-01   6.7149E-01   6.8201E-04  0.0096
   6.7149E-01   6.8783E-01   6.7867E-04  0.0095
   6.8783E-01   7.0456E-01   6.6837E-04  0.0095
   7.0456E-01   7.2171E-01   6.5961E-04  0.0094
   7.2171E-01   7.3927E-01   6.5861E-04  0.0093
   7.3927E-01   7.5725E-01   6.5692E-04  0.0092
   7.5725E-01   7.7568E-01   6.5497E-04  0.0091
   7.7568E-01   7.9455E-01   6.4614E-04  0.0091
   7.9455E-01   8.1388E-01   6.2958E-04  0.0091
   8.1388E-01   8.3368E-01   6.2361E-04  0.0090
   8.3368E-01   8.5397E-01   6.0397E-04  0.0090
   8.5397E-01   8.7475E-01   6.0714E-04  0.0089
   8.7475E-01   8.9603E-01   5.8934E-04  0.0089
   8.9603E-01   9.1783E-01   5.6185E-04  0.0090
   9.1783E-01   9.4016E-01   5.4696E-04  0.0091
   9.4016E-01   9.6304E-01   5.3484E-04  0.0090
   9.6304E-01   9.8647E-01   5.0974E-04  0.0092
   9.8647E-01   1.0105E+00   4.8876E-04  0.0092
   1.0105E+00   1.0351E+00   4.9094E-04  0.0091
   1.0351E+00   1.0602E+00   4.9961E-04  0.0089
   1.0602E+00   1.0860E+00   4.9712E-04  0.0088
   1.0860E+00   1.1125E+00   4.9939E-04  0.0087
   1.1125E+00   1.1395E+00   5.0966E-04  0.0085
   1.1395E+00   1.1673E+00   5.1133E-04  0.0084
   1.1673E+00   1.1957E+00   5.2649E-04  0.0082
   1.1957E+00   1.2247E+00   5.4247E-04  0.0080
   1.2247E+00   1.2545E+00   5.3601E-04  0.0079
   1.2545E+00   1.2851E+00   5.4493E-04  0.0078
   1.2851E+00   1.3163E+00   5.4096E-04  0.0077
   1.3163E+00   1.3484E+00   5.4959E-04  0.0075
   1.3484E+00   1.3812E+00   5.6624E-04  0.0073
   1.3812E+00   1.4148E+00   5.6530E-04  0.0073
   1.4148E+00   1.4492E+00   5.7192E-04  0.0071
   1.4492E+00   1.4845E+00   5.6931E-04  0.0071
   1.4845E+00   1.5206E+00   5.6332E-04  0.0070
   1.5206E+00   1.5576E+00   5.6981E-04  0.0069
   1.5576E+00   1.5955E+00   5.7235E-04  0.0068
   1.5955E+00   1.6343E+00   5.7261E-04  0.0067
   1.6343E+00   1.6741E+00   5.8164E-04  0.0066
   1.6741E+00   1.7148E+00   5.9674E-04  0.0064
   1.7148E+00   1.7565E+00   5.9472E-04  0.0064
   1.7565E+00   1.7992E+00   5.8777E-04  0.0063
   1.7992E+00   1.8430E+00   5.8875E-04  0.0062
   1.8430E+00   1.8879E+00   5.8939E-04  0.0062
   1.8879E+00   1.9338E+00   5.9079E-04  0.0061
   1.9338E+00   1.9808E+00   6.0228E-04  0.0059
   1.9808E+00   2.0290E+00   6.0255E-04  0.0059
   2.0290E+00   2.0784E+00   6.0333E-04  0.0058
   2.0784E+00   2.1290E+00   5.9628E-04  0.0058
   2.1290E+00   2.1808E+00   5.9500E-04  0.0057
   2.1808E+00   2.2338E+00   5.8722E-04  0.0057
   2.2338E+00   2.2882E+00   5.8672E-04  0.0056
   2.2882E+00   2.3439E+00   5.8492E-04  0.0055
   2.3439E+00   2.4009E+00   5.9451E-04  0.0054
   2.4009E+00   2.4593E+00   5.9507E-04  0.0054
   2.4593E+00   2.5191E+00   5.8749E-04  0.0053
   2.5191E+00   2.5804E+00   5.8475E-04  0.0053
   2.5804E+00   2.6432E+00   5.8329E-04  0.0052
   2.6432E+00   2.7075E+00   5.6893E-04  0.0052
   2.7075E+00   2.7734E+00   5.6119E-04  0.0052
   2.7734E+00   2.8409E+00   5.6609E-04  0.0051
   2.8409E+00   2.9100E+00   5.6071E-04  0.0051
   2.9100E+00   2.9808E+00   5.5640E-04  0.0050
   2.9808E+00   3.0533E+00   5.5575E-04  0.0050
   3.0533E+00   3.1276E+00   5.4462E-04  0.0050
   3.1276E+00   3.2037E+00   5.3717E-04  0.0049
   3.2037E+00   3.2817E+00   5.2825E-04  0.0049
   3.2817E+00   3.3615E+00   5.2146E-04  0.0049
   3.3615E+00   3.4433E+00   5.1003E-04  0.0049
   3.4433E+00   3.5271E+00   5.0438E-04  0.0049
   3.5271E+00   3.6129E+00   4.9750E-04  0.0048
   3.6129E+00   3.7008E+00   4.9237E-04  0.0048
   3.7008E+00   3.7908E+00   4.7510E-04  0.0048
   3.7908E+00   3.8831E+00   4.7038E-04  0.0048
   3.8831E+00   3.9776E+00   4.6058E-04  0.0048
   3.9776E+00   4.0743E+00   4.5272E-04  0.0048
   4.0743E+00   4.1735E+00   4.4412E-04  0.0048
   4.1735E+00   4.2750E+00   4.2751E-04  0.0048
   4.2750E+00   4.3790E+00   4.1555E-04  0.0048
   4.3790E+00   4.4856E+00   4.0773E-04  0.0048
   4.4856E+00   4.5947E+00   3.9731E-04  0.0048
   4.5947E+00   4.7065E+00   3.8219E-04  0.0048
   4.7065E+00   4.8210E+00   3.7543E-04  0.0048
   4.8210E+00   4.9383E+00   3.6898E-04  0.0048
   4.9383E+00   5.0585E+00   3.5645E-04  0.0048
   5.0585E+00   5.1815E+00   3.4545E-04  0.0049
   5.1815E+00   5.3076E+00   3.3001E-04  0.0049
   5.3076E+00   5.4368E+00   3.2515E-04  0.0049
   5.4368E+00   5.5690E+00   3.1071E-04  0.0049
   5.5690E+00   5.7045E+00   2.9964E-04  0.0050
   5.7045E+00   5.8433E+00   2.8928E-04  0.0050
   5.8433E+00   5.9855E+00   2.7918E-04  0.0050
   5.9855E+00   6.1311E+00   2.7030E-04  0.0050
   6.1311E+00   6.2803E+00   2.5966E-04  0.0051
   6.2803E+00   6.4331E+00   2.4976E-04  0.0051
   6.4331E+00   6.5896E+00   2.4108E-04  0.0051
   6.5896E+00   6.7500E+00   2.3132E-04  0.0052
   6.7500E+00   6.9142E+00   2.2380E-04  0.0052
   6.9142E+00   7.0824E+00   2.1108E-04  0.0053
   7.0824E+00   7.2548E+00   2.0540E-04  0.0053
   7.2548E+00   7.4313E+00   1.9959E-04  0.0053
   7.4313E+00   7.6121E+00   1.8961E-04  0.0054
   7.6121E+00   7.7973E+00   1.8231E-04  0.0054
   7.7973E+00   7.9870E+00   1.7519E-04  0.0055
   7.9870E+00   8.1813E+00   1.6761E-04  0.0055
   8.1813E+00   8.3804E+00   1.6102E-04  0.0056
   8.3804E+00   8.5843E+00   1.5580E-04  0.0056
   8.5843E+00   8.7931E+00   1.4793E-04  0.0057
   8.7931E+00   9.0071E+00   1.4434E-04  0.0057
   9.0071E+00   9.2262E+00   1.3799E-04  0.0058
   9.2262E+00   9.4507E+00   1.3349E-04  0.0058
   9.4507E+00   9.6807E+00   1.2828E-04  0.0058
   9.6807E+00   9.9162E+00   1.2508E-04  0.0058
   9.9162E+00   1.0157E+01   1.1983E-04  0.0059
   1.0157E+01   1.0405E+01   1.1527E-04  0.0059
   1.0405E+01   1.0658E+01   1.1249E-04  0.0059
   1.0658E+01   1.0917E+01   1.0803E-04  0.0060
   1.0917E+01   1.1183E+01   1.0473E-04  0.0060
   1.1183E+01   1.1455E+01   1.0055E-04  0.0060
   1.1455E+01   1.1733E+01   9.9050E-05  0.0060
   1.1733E+01   1.2019E+01   9.5108E-05  0.0061
   1.2019E+01   1.2311E+01   9.0992E-05  0.0061
   1.2311E+01   1.2611E+01   8.8888E-05  0.0061
   1.2611E+01   1.2918E+01   8.6465E-05  0.0061
   1.2918E+01   1.3232E+01   8.3614E-05  0.0062
   1.3232E+01   1.3554E+01   8.1628E-05  0.0062
   1.3554E+01   1.3884E+01   7.8266E-05  0.0062
   1.3884E+01   1.4222E+01   7.6473E-05  0.0062
   1.4222E+01   1.4568E+01   7.4518E-05  0.0062
   1.4568E+01   1.4922E+01   7.1954E-05  0.0063
   1.4922E+01   1.5285E+01   7.0084E-05  0.0063
   1.5285E+01   1.5657E+01   6.7743E-05  0.0063
   1.5657E+01   1.6038E+01   6.5676E-05  0.0063
   1.6038E+01   1.6428E+01   6.3784E-05  0.0063
   1.6428E+01   1.6828E+01   6.1728E-05  0.0064
   1.6828E+01   1.7237E+01   6.0100E-05  0.0064
   1.7237E+01   1.7657E+01   5.8967E-05  0.0064
   1.7657E+01   1.8086E+01   5.7196E-05  0.0064
   1.8086E+01   1.8526E+01   5.5136E-05  0.0064
   1.8526E+01   1.8977E+01   5.3020E-05  0.0065
   1.8977E+01   1.9439E+01   5.1589E-05  0.0065
   1.9439E+01   1.9912E+01   5.0469E-05  0.0065
   1.9912E+01   2.0396E+01   4.8509E-05  0.0065
   2.0396E+01   2.0893E+01   4.6891E-05  0.0066
   2.0893E+01   2.1401E+01   4.5275E-05  0.0066
   2.1401E+01   2.1922E+01   4.3923E-05  0.0066
   2.1922E+01   2.2455E+01   4.2312E-05  0.0067
   2.2455E+01   2.3001E+01   4.0985E-05  0.0067
   2.3001E+01   2.3561E+01   3.9666E-05  0.0067
   2.3561E+01   2.4134E+01   3.8175E-05  0.0068
   2.4134E+01   2.4721E+01   3.7031E-05  0.0068
   2.4721E+01   2.5323E+01   3.5186E-05  0.0069
   2.5323E+01   2.5939E+01   3.3600E-05  0.0070
   2.5939E+01   2.6570E+01   3.2599E-05  0.0070
   2.6570E+01   2.7217E+01   3.1279E-05  0.0070
   2.7217E+01   2.7879E+01   2.9958E-05  0.0071
   2.7879E+01   2.8557E+01   2.8752E-05  0.0072
   2.8557E+01   2.9252E+01   2.7024E-05  0.0073
   2.9252E+01   2.9964E+01   2.5891E-05  0.0074
   2.9964E+01   3.0693E+01   2.4983E-05  0.0074
   3.0693E+01   3.1440E+01   2.3959E-05  0.0075
   3.1440E+01   3.2205E+01   2.2528E-05  0.0076
   3.2205E+01   3.2988E+01   2.1608E-05  0.0077
   3.2988E+01   3.3791E+01   2.0276E-05  0.0078
   3.3791E+01   3.4613E+01   1.9251E-05  0.0080
   3.4613E+01   3.5455E+01   1.8257E-05  0.0081
   3.5455E+01   3.6318E+01   1.7204E-05  0.0082
   3.6318E+01   3.7201E+01   1.6064E-05  0.0084
   3.7201E+01   3.8106E+01   1.5192E-05  0.0085
   3.8106E+01   3.9034E+01   1.4183E-05  0.0087
   3.9034E+01   3.9983E+01   1.3501E-05  0.0088
   3.9983E+01   4.0956E+01   1.2406E-05  0.0091
   4.0956E+01   4.1953E+01   1.1688E-05  0.0093
   4.1953E+01   4.2973E+01   1.0797E-05  0.0095
   4.2973E+01   4.4019E+01   9.8874E-06  0.0098
   4.4019E+01   4.5090E+01   9.0708E-06  0.0101
   4.5090E+01   4.6187E+01   8.5938E-06  0.0103
   4.6187E+01   4.7311E+01   7.6528E-06  0.0108
   4.7311E+01   4.8462E+01   7.0054E-06  0.0111
   4.8462E+01   4.9641E+01   6.3590E-06  0.0115
   4.9641E+01   5.0849E+01   5.8246E-06  0.0119
   5.0849E+01   5.2086E+01   5.2781E-06  0.0124
   5.2086E+01   5.3353E+01   4.7250E-06  0.0129
   5.3353E+01   5.4651E+01   4.2769E-06  0.0134
   5.4651E+01   5.5981E+01   3.7941E-06  0.0141
   5.5981E+01   5.7343E+01   3.4110E-06  0.0147
   5.7343E+01   5.8738E+01   3.0189E-06  0.0154
   5.8738E+01   6.0168E+01   2.6337E-06  0.0163
   6.0168E+01   6.1632E+01   2.3259E-06  0.0171
   6.1632E+01   6.3131E+01   1.9639E-06  0.0184
   6.3131E+01   6.4667E+01   1.7168E-06  0.0195
   6.4667E+01   6.6240E+01   1.5679E-06  0.0201
   6.6240E+01   6.7852E+01   1.3489E-06  0.0214
   6.7852E+01   6.9503E+01   1.1473E-06  0.0230
   6.9503E+01   7.1194E+01   9.8518E-07  0.0245
   7.1194E+01   7.2926E+01   8.1918E-07  0.0265
   7.2926E+01   7.4701E+01   7.1181E-07  0.0281
   7.4701E+01   7.6518E+01   6.2282E-07  0.0297
   7.6518E+01   7.8380E+01   5.1511E-07  0.0323
   7.8380E+01   8.0287E+01   4.3680E-07  0.0346
   8.0287E+01   8.2240E+01   4.0493E-07  0.0356
   8.2240E+01   8.4241E+01   3.2484E-07  0.0392
   8.4241E+01   8.6291E+01   2.7907E-07  0.0418
   8.6291E+01   8.8391E+01   2.1052E-07  0.0476
   8.8391E+01   9.0541E+01   1.5623E-07  0.0546
   9.0541E+01   9.2744E+01   1.2801E-07  0.0595
   9.2744E+01   9.5001E+01   9.3063E-08  0.0690
   9.5001E+01   9.7312E+01   6.6625E-08  0.0806
   9.7312E+01   9.9680E+01   4.0124E-08  0.1026
   9.9680E+01   1.0211E+02   1.7730E-08  0.1525
   1.0211E+02   1.0459E+02   1.6101E-09  0.5000
   1.0459E+02   1.0713E+02   7.8593E-10  0.7071
   1.0713E+02   1.0974E+02   0.0000E+00  0.0000
   1.0974E+02   1.1241E+02   0.0000E+00  0.0000
   1.1241E+02   1.1515E+02   0.0000E+00  0.0000
   1.1515E+02   1.1795E+02   0.0000E+00  0.0000
   1.1795E+02   1.2082E+02   0.0000E+00  0.0000
   1.2082E+02   1.2376E+02   0.0000E+00  0.0000
   1.2376E+02   1.2677E+02   0.0000E+00  0.0000
   1.2677E+02   1.2985E+02   0.0000E+00  0.0000
   1.2985E+02   1.3301E+02   0.0000E+00  0.0000
   1.3301E+02   1.3625E+02   0.0000E+00  0.0000
   1.3625E+02   1.3956E+02   0.0000E+00  0.0000
   1.3956E+02   1.4296E+02   0.0000E+00  0.0000
   1.4296E+02   1.4644E+02   0.0000E+00  0.0000
   1.4644E+02   1.5000E+02   0.0000E+00  0.0000

#   sum over                 3.4338E-05
'no. =    1   reg = 111 - 211'
msuc: {\huge [t-cross] in region mesh}
msdr: {\it plotted by \ANGEL \version}
msdl: {\it calculated by \PHITS  3.26}
wt: s(0.7)
\vspace{-3}
  region surface crossing
  area  &=&   1.0000E+00 [cm^2]
e:
 
# Information for Restart Calculation
# This calculation was newly started
# istdev =  2 # 1:Batch variance, 2:History variance
# resc2  = 1.00000000000000000E+09 # Total source weight or Total source weight / maxcas
# resc3  = 1.00000000000000000E+09 # Total history number or Total batch number
# maxcas =   500000000 # History / Batch, only used for istdev=1
# bitrseed = 0001001110011001001001110000100100110111001111011100001000101100 # bit data of rseed
