[ T-Cross ]
    title = [t-cross] in region mesh
     mesh =  reg            # mesh type is region-wise
      reg =    1            # number of crossing regions
      non     r-from    r-to       area
      1       114       214        1.000000    
   e-type =    3            # e-mesh is log given by emin, emax and ne
     emin =  1.0000000E-02  # minimum value of e-mesh points
     emax =   150.0000      # maximum value of e-mesh points
#    edel =  2.4039514E-02  # mesh width of e-mesh points
       ne =    400          # number of e-mesh points
#    data = ( e(i), i = 1, ne + 1 )
#           1.00000E-02  1.02433E-02  1.04925E-02  1.07478E-02  1.10093E-02
#           1.12772E-02  1.15516E-02  1.18326E-02  1.21205E-02  1.24154E-02
#           1.27175E-02  1.30269E-02  1.33439E-02  1.36686E-02  1.40011E-02
#           1.43418E-02  1.46907E-02  1.50482E-02  1.54143E-02  1.57894E-02
#           1.61735E-02  1.65670E-02  1.69701E-02  1.73830E-02  1.78060E-02
#           1.82392E-02  1.86830E-02  1.91375E-02  1.96032E-02  2.00801E-02
#           2.05687E-02  2.10692E-02  2.15818E-02  2.21069E-02  2.26448E-02
#           2.31957E-02  2.37601E-02  2.43382E-02  2.49304E-02  2.55369E-02
#           2.61583E-02  2.67947E-02  2.74467E-02  2.81145E-02  2.87985E-02
#           2.94992E-02  3.02169E-02  3.09521E-02  3.17052E-02  3.24766E-02
#           3.32668E-02  3.40762E-02  3.49053E-02  3.57546E-02  3.66246E-02
#           3.75157E-02  3.84284E-02  3.93634E-02  4.03212E-02  4.13022E-02
#           4.23071E-02  4.33365E-02  4.43909E-02  4.54710E-02  4.65773E-02
#           4.77106E-02  4.88714E-02  5.00605E-02  5.12785E-02  5.25262E-02
#           5.38042E-02  5.51133E-02  5.64542E-02  5.78278E-02  5.92348E-02
#           6.06760E-02  6.21523E-02  6.36645E-02  6.52135E-02  6.68002E-02
#           6.84255E-02  7.00904E-02  7.17957E-02  7.35426E-02  7.53319E-02
#           7.71648E-02  7.90423E-02  8.09655E-02  8.29354E-02  8.49533E-02
#           8.70203E-02  8.91376E-02  9.13064E-02  9.35279E-02  9.58035E-02
#           9.81345E-02  1.00522E-01  1.02968E-01  1.05473E-01  1.08040E-01
#           1.10668E-01  1.13361E-01  1.16119E-01  1.18944E-01  1.21838E-01
#           1.24803E-01  1.27839E-01  1.30950E-01  1.34136E-01  1.37399E-01
#           1.40742E-01  1.44167E-01  1.47675E-01  1.51268E-01  1.54948E-01
#           1.58718E-01  1.62580E-01  1.66535E-01  1.70587E-01  1.74738E-01
#           1.78989E-01  1.83344E-01  1.87805E-01  1.92375E-01  1.97055E-01
#           2.01850E-01  2.06761E-01  2.11792E-01  2.16945E-01  2.22223E-01
#           2.27630E-01  2.33169E-01  2.38842E-01  2.44653E-01  2.50605E-01
#           2.56703E-01  2.62949E-01  2.69346E-01  2.75900E-01  2.82613E-01
#           2.89489E-01  2.96532E-01  3.03747E-01  3.11138E-01  3.18708E-01
#           3.26462E-01  3.34405E-01  3.42542E-01  3.50876E-01  3.59413E-01
#           3.68158E-01  3.77116E-01  3.86291E-01  3.95690E-01  4.05317E-01
#           4.15179E-01  4.25281E-01  4.35628E-01  4.46227E-01  4.57084E-01
#           4.68205E-01  4.79597E-01  4.91266E-01  5.03219E-01  5.15463E-01
#           5.28005E-01  5.40851E-01  5.54011E-01  5.67490E-01  5.81298E-01
#           5.95441E-01  6.09929E-01  6.24769E-01  6.39970E-01  6.55541E-01
#           6.71491E-01  6.87828E-01  7.04564E-01  7.21706E-01  7.39266E-01
#           7.57253E-01  7.75678E-01  7.94551E-01  8.13883E-01  8.33685E-01
#           8.53969E-01  8.74747E-01  8.96030E-01  9.17831E-01  9.40163E-01
#           9.63038E-01  9.86469E-01  1.01047E+00  1.03506E+00  1.06024E+00
#           1.08604E+00  1.11246E+00  1.13953E+00  1.16725E+00  1.19565E+00
#           1.22474E+00  1.25454E+00  1.28507E+00  1.31633E+00  1.34836E+00
#           1.38117E+00  1.41477E+00  1.44920E+00  1.48446E+00  1.52057E+00
#           1.55757E+00  1.59547E+00  1.63429E+00  1.67405E+00  1.71478E+00
#           1.75650E+00  1.79924E+00  1.84302E+00  1.88786E+00  1.93379E+00
#           1.98084E+00  2.02904E+00  2.07841E+00  2.12898E+00  2.18078E+00
#           2.23384E+00  2.28819E+00  2.34386E+00  2.40089E+00  2.45930E+00
#           2.51914E+00  2.58043E+00  2.64322E+00  2.70753E+00  2.77341E+00
#           2.84088E+00  2.91001E+00  2.98081E+00  3.05333E+00  3.12762E+00
#           3.20372E+00  3.28167E+00  3.36152E+00  3.44330E+00  3.52708E+00
#           3.61290E+00  3.70080E+00  3.79085E+00  3.88308E+00  3.97756E+00
#           4.07434E+00  4.17347E+00  4.27501E+00  4.37903E+00  4.48557E+00
#           4.59471E+00  4.70650E+00  4.82102E+00  4.93832E+00  5.05847E+00
#           5.18155E+00  5.30762E+00  5.43676E+00  5.56904E+00  5.70453E+00
#           5.84333E+00  5.98550E+00  6.13114E+00  6.28031E+00  6.43312E+00
#           6.58964E+00  6.74997E+00  6.91420E+00  7.08243E+00  7.25475E+00
#           7.43126E+00  7.61207E+00  7.79728E+00  7.98700E+00  8.18133E+00
#           8.38038E+00  8.58428E+00  8.79315E+00  9.00709E+00  9.22624E+00
#           9.45072E+00  9.68067E+00  9.91620E+00  1.01575E+01  1.04046E+01
#           1.06578E+01  1.09171E+01  1.11827E+01  1.14548E+01  1.17335E+01
#           1.20190E+01  1.23114E+01  1.26109E+01  1.29178E+01  1.32321E+01
#           1.35540E+01  1.38838E+01  1.42216E+01  1.45676E+01  1.49221E+01
#           1.52851E+01  1.56570E+01  1.60380E+01  1.64282E+01  1.68279E+01
#           1.72374E+01  1.76568E+01  1.80864E+01  1.85264E+01  1.89772E+01
#           1.94389E+01  1.99119E+01  2.03963E+01  2.08926E+01  2.14009E+01
#           2.19216E+01  2.24550E+01  2.30014E+01  2.35610E+01  2.41343E+01
#           2.47215E+01  2.53230E+01  2.59391E+01  2.65702E+01  2.72167E+01
#           2.78789E+01  2.85572E+01  2.92520E+01  2.99637E+01  3.06928E+01
#           3.14396E+01  3.22045E+01  3.29881E+01  3.37907E+01  3.46128E+01
#           3.54550E+01  3.63177E+01  3.72013E+01  3.81064E+01  3.90336E+01
#           3.99833E+01  4.09561E+01  4.19526E+01  4.29734E+01  4.40189E+01
#           4.50900E+01  4.61870E+01  4.73108E+01  4.84619E+01  4.96410E+01
#           5.08488E+01  5.20860E+01  5.33533E+01  5.46514E+01  5.59812E+01
#           5.73432E+01  5.87384E+01  6.01676E+01  6.16315E+01  6.31311E+01
#           6.46671E+01  6.62405E+01  6.78522E+01  6.95031E+01  7.11941E+01
#           7.29263E+01  7.47007E+01  7.65182E+01  7.83800E+01  8.02870E+01
#           8.22405E+01  8.42414E+01  8.62911E+01  8.83906E+01  9.05412E+01
#           9.27442E+01  9.50007E+01  9.73122E+01  9.96799E+01  1.02105E+02
#           1.04589E+02  1.07134E+02  1.09741E+02  1.12411E+02  1.15146E+02
#           1.17948E+02  1.20817E+02  1.23757E+02  1.26768E+02  1.29852E+02
#           1.33012E+02  1.36248E+02  1.39563E+02  1.42959E+02  1.46437E+02
#           1.50000E+02
     unit =    2            # unit is [1/cm^2/(MeV/n)/source]
     axis =  eng            # axis of output
     file = detector-15.out  # file name of output for the above axis
   output = f-curr          # surface crossing forward current spectrum
     part =  neutron  
# kf/name :  2112     
#    used :        main (  %)        temp (  %)       total (  %)
#  memory :         414 (  0)           0 (  0)         414 (  0)

#------------------------------------------------------------------------------
#newpage:
#   no. =    1   reg = 114 - 214

x: Energy [MeV/n]
y:  F-Curr [1/cm^2/(MeV/n)/source]         
p: xlog ylog afac(0.8) form(0.9)
h: n            x            y(neutron ),hh0l   n 
#  e-lower      e-upper      neutron     r.err 
   1.0000E-02   1.0243E-02   4.6875E-03  0.0148
   1.0243E-02   1.0493E-02   4.6082E-03  0.0148
   1.0493E-02   1.0748E-02   4.6579E-03  0.0145
   1.0748E-02   1.1009E-02   4.5812E-03  0.0144
   1.1009E-02   1.1277E-02   4.4575E-03  0.0145
   1.1277E-02   1.1552E-02   4.4400E-03  0.0143
   1.1552E-02   1.1833E-02   4.4577E-03  0.0141
   1.1833E-02   1.2121E-02   4.3518E-03  0.0141
   1.2121E-02   1.2415E-02   4.3353E-03  0.0140
   1.2415E-02   1.2718E-02   4.3085E-03  0.0139
   1.2718E-02   1.3027E-02   4.2914E-03  0.0137
   1.3027E-02   1.3344E-02   4.3287E-03  0.0135
   1.3344E-02   1.3669E-02   4.1920E-03  0.0136
   1.3669E-02   1.4001E-02   4.1544E-03  0.0135
   1.4001E-02   1.4342E-02   4.1203E-03  0.0133
   1.4342E-02   1.4691E-02   4.1475E-03  0.0131
   1.4691E-02   1.5048E-02   4.0518E-03  0.0131
   1.5048E-02   1.5414E-02   4.0484E-03  0.0130
   1.5414E-02   1.5789E-02   3.9809E-03  0.0129
   1.5789E-02   1.6174E-02   3.9026E-03  0.0129
   1.6174E-02   1.6567E-02   3.9729E-03  0.0126
   1.6567E-02   1.6970E-02   3.8943E-03  0.0126
   1.6970E-02   1.7383E-02   3.9214E-03  0.0124
   1.7383E-02   1.7806E-02   3.8262E-03  0.0124
   1.7806E-02   1.8239E-02   3.7463E-03  0.0124
   1.8239E-02   1.8683E-02   3.7361E-03  0.0123
   1.8683E-02   1.9138E-02   3.8127E-03  0.0120
   1.9138E-02   1.9603E-02   3.8061E-03  0.0119
   1.9603E-02   2.0080E-02   3.7684E-03  0.0118
   2.0080E-02   2.0569E-02   3.6889E-03  0.0118
   2.0569E-02   2.1069E-02   3.6425E-03  0.0117
   2.1069E-02   2.1582E-02   3.5023E-03  0.0118
   2.1582E-02   2.2107E-02   3.5900E-03  0.0115
   2.2107E-02   2.2645E-02   3.5893E-03  0.0114
   2.2645E-02   2.3196E-02   3.4818E-03  0.0114
   2.3196E-02   2.3760E-02   3.5373E-03  0.0112
   2.3760E-02   2.4338E-02   3.4901E-03  0.0111
   2.4338E-02   2.4930E-02   3.4300E-03  0.0111
   2.4930E-02   2.5537E-02   3.3788E-03  0.0110
   2.5537E-02   2.6158E-02   3.3895E-03  0.0109
   2.6158E-02   2.6795E-02   3.2430E-03  0.0110
   2.6795E-02   2.7447E-02   3.2634E-03  0.0108
   2.7447E-02   2.8114E-02   3.3199E-03  0.0106
   2.8114E-02   2.8799E-02   3.2416E-03  0.0106
   2.8799E-02   2.9499E-02   3.2015E-03  0.0106
   2.9499E-02   3.0217E-02   3.1878E-03  0.0105
   3.0217E-02   3.0952E-02   3.1425E-03  0.0104
   3.0952E-02   3.1705E-02   3.1316E-03  0.0103
   3.1705E-02   3.2477E-02   3.1326E-03  0.0102
   3.2477E-02   3.3267E-02   3.0452E-03  0.0102
   3.3267E-02   3.4076E-02   2.9928E-03  0.0102
   3.4076E-02   3.4905E-02   3.0336E-03  0.0100
   3.4905E-02   3.5755E-02   2.9382E-03  0.0100
   3.5755E-02   3.6625E-02   2.9249E-03  0.0099
   3.6625E-02   3.7516E-02   2.8900E-03  0.0099
   3.7516E-02   3.8428E-02   2.8576E-03  0.0098
   3.8428E-02   3.9363E-02   2.8920E-03  0.0096
   3.9363E-02   4.0321E-02   2.8247E-03  0.0096
   4.0321E-02   4.1302E-02   2.7774E-03  0.0096
   4.1302E-02   4.2307E-02   2.7587E-03  0.0095
   4.2307E-02   4.3337E-02   2.7308E-03  0.0094
   4.3337E-02   4.4391E-02   2.7488E-03  0.0093
   4.4391E-02   4.5471E-02   2.6655E-03  0.0093
   4.5471E-02   4.6577E-02   2.6155E-03  0.0093
   4.6577E-02   4.7711E-02   2.6687E-03  0.0091
   4.7711E-02   4.8871E-02   2.5660E-03  0.0092
   4.8871E-02   5.0061E-02   2.6277E-03  0.0089
   5.0061E-02   5.1279E-02   2.5166E-03  0.0090
   5.1279E-02   5.2526E-02   2.5142E-03  0.0089
   5.2526E-02   5.3804E-02   2.4780E-03  0.0089
   5.3804E-02   5.5113E-02   2.4869E-03  0.0088
   5.5113E-02   5.6454E-02   2.4242E-03  0.0088
   5.6454E-02   5.7828E-02   2.4578E-03  0.0086
   5.7828E-02   5.9235E-02   2.3905E-03  0.0086
   5.9235E-02   6.0676E-02   2.3336E-03  0.0086
   6.0676E-02   6.2152E-02   2.3288E-03  0.0085
   6.2152E-02   6.3665E-02   2.2943E-03  0.0085
   6.3665E-02   6.5214E-02   2.3046E-03  0.0084
   6.5214E-02   6.6800E-02   2.2607E-03  0.0083
   6.6800E-02   6.8426E-02   2.2086E-03  0.0083
   6.8426E-02   7.0090E-02   2.1736E-03  0.0083
   7.0090E-02   7.1796E-02   2.1380E-03  0.0083
   7.1796E-02   7.3543E-02   2.1829E-03  0.0081
   7.3543E-02   7.5332E-02   2.1291E-03  0.0081
   7.5332E-02   7.7165E-02   2.1087E-03  0.0080
   7.7165E-02   7.9042E-02   2.0998E-03  0.0080
   7.9042E-02   8.0965E-02   2.0306E-03  0.0080
   8.0965E-02   8.2935E-02   2.0031E-03  0.0080
   8.2935E-02   8.4953E-02   2.0058E-03  0.0079
   8.4953E-02   8.7020E-02   1.9482E-03  0.0079
   8.7020E-02   8.9138E-02   1.9364E-03  0.0078
   8.9138E-02   9.1306E-02   1.9183E-03  0.0078
   9.1306E-02   9.3528E-02   1.9101E-03  0.0077
   9.3528E-02   9.5804E-02   1.8521E-03  0.0077
   9.5804E-02   9.8134E-02   1.8568E-03  0.0076
   9.8134E-02   1.0052E-01   1.8664E-03  0.0075
   1.0052E-01   1.0297E-01   1.8302E-03  0.0075
   1.0297E-01   1.0547E-01   1.7914E-03  0.0075
   1.0547E-01   1.0804E-01   1.7813E-03  0.0074
   1.0804E-01   1.1067E-01   1.7544E-03  0.0074
   1.1067E-01   1.1336E-01   1.7010E-03  0.0074
   1.1336E-01   1.1612E-01   1.6886E-03  0.0073
   1.1612E-01   1.1894E-01   1.7009E-03  0.0072
   1.1894E-01   1.2184E-01   1.6683E-03  0.0072
   1.2184E-01   1.2480E-01   1.6406E-03  0.0072
   1.2480E-01   1.2784E-01   1.6115E-03  0.0071
   1.2784E-01   1.3095E-01   1.5835E-03  0.0071
   1.3095E-01   1.3414E-01   1.5787E-03  0.0070
   1.3414E-01   1.3740E-01   1.5668E-03  0.0070
   1.3740E-01   1.4074E-01   1.5315E-03  0.0070
   1.4074E-01   1.4417E-01   1.5212E-03  0.0069
   1.4417E-01   1.4767E-01   1.5124E-03  0.0069
   1.4767E-01   1.5127E-01   1.4689E-03  0.0069
   1.5127E-01   1.5495E-01   1.4441E-03  0.0069
   1.5495E-01   1.5872E-01   1.4386E-03  0.0068
   1.5872E-01   1.6258E-01   1.3960E-03  0.0068
   1.6258E-01   1.6654E-01   1.3822E-03  0.0068
   1.6654E-01   1.7059E-01   1.3794E-03  0.0067
   1.7059E-01   1.7474E-01   1.3735E-03  0.0066
   1.7474E-01   1.7899E-01   1.3367E-03  0.0066
   1.7899E-01   1.8334E-01   1.3428E-03  0.0065
   1.8334E-01   1.8781E-01   1.3003E-03  0.0066
   1.8781E-01   1.9237E-01   1.3009E-03  0.0065
   1.9237E-01   1.9706E-01   1.2745E-03  0.0065
   1.9706E-01   2.0185E-01   1.2633E-03  0.0064
   2.0185E-01   2.0676E-01   1.2493E-03  0.0064
   2.0676E-01   2.1179E-01   1.2116E-03  0.0064
   2.1179E-01   2.1694E-01   1.1957E-03  0.0064
   2.1694E-01   2.2222E-01   1.1919E-03  0.0063
   2.2222E-01   2.2763E-01   1.1618E-03  0.0063
   2.2763E-01   2.3317E-01   1.1596E-03  0.0062
   2.3317E-01   2.3884E-01   1.1312E-03  0.0062
   2.3884E-01   2.4465E-01   1.1234E-03  0.0062
   2.4465E-01   2.5061E-01   1.1071E-03  0.0062
   2.5061E-01   2.5670E-01   1.0947E-03  0.0061
   2.5670E-01   2.6295E-01   1.0749E-03  0.0061
   2.6295E-01   2.6935E-01   1.0632E-03  0.0061
   2.6935E-01   2.7590E-01   1.0426E-03  0.0060
   2.7590E-01   2.8261E-01   1.0170E-03  0.0061
   2.8261E-01   2.8949E-01   1.0113E-03  0.0060
   2.8949E-01   2.9653E-01   9.9867E-04  0.0060
   2.9653E-01   3.0375E-01   9.7381E-04  0.0060
   3.0375E-01   3.1114E-01   9.7090E-04  0.0059
   3.1114E-01   3.1871E-01   9.4380E-04  0.0059
   3.1871E-01   3.2646E-01   9.4090E-04  0.0059
   3.2646E-01   3.3441E-01   9.2565E-04  0.0058
   3.3441E-01   3.4254E-01   9.0974E-04  0.0058
   3.4254E-01   3.5088E-01   8.8920E-04  0.0058
   3.5088E-01   3.5941E-01   8.8003E-04  0.0058
   3.5941E-01   3.6816E-01   8.5965E-04  0.0058
   3.6816E-01   3.7712E-01   8.4939E-04  0.0057
   3.7712E-01   3.8629E-01   8.3743E-04  0.0057
   3.8629E-01   3.9569E-01   8.2847E-04  0.0057
   3.9569E-01   4.0532E-01   8.1457E-04  0.0056
   4.0532E-01   4.1518E-01   8.0118E-04  0.0056
   4.1518E-01   4.2528E-01   7.8230E-04  0.0056
   4.2528E-01   4.3563E-01   7.6804E-04  0.0056
   4.3563E-01   4.4623E-01   7.6689E-04  0.0055
   4.4623E-01   4.5708E-01   7.4218E-04  0.0056
   4.5708E-01   4.6821E-01   7.2443E-04  0.0056
   4.6821E-01   4.7960E-01   7.2137E-04  0.0055
   4.7960E-01   4.9127E-01   7.0394E-04  0.0055
   4.9127E-01   5.0322E-01   6.8665E-04  0.0055
   5.0322E-01   5.1546E-01   6.7697E-04  0.0055
   5.1546E-01   5.2800E-01   6.6296E-04  0.0055
   5.2800E-01   5.4085E-01   6.4375E-04  0.0055
   5.4085E-01   5.5401E-01   6.3244E-04  0.0055
   5.5401E-01   5.6749E-01   6.1967E-04  0.0055
   5.6749E-01   5.8130E-01   6.0565E-04  0.0055
   5.8130E-01   5.9544E-01   5.9331E-04  0.0055
   5.9544E-01   6.0993E-01   5.8162E-04  0.0054
   6.0993E-01   6.2477E-01   5.7432E-04  0.0054
   6.2477E-01   6.3997E-01   5.6136E-04  0.0054
   6.3997E-01   6.5554E-01   5.4507E-04  0.0054
   6.5554E-01   6.7149E-01   5.3135E-04  0.0054
   6.7149E-01   6.8783E-01   5.2097E-04  0.0054
   6.8783E-01   7.0456E-01   5.0405E-04  0.0054
   7.0456E-01   7.2171E-01   4.9472E-04  0.0054
   7.2171E-01   7.3927E-01   4.7860E-04  0.0055
   7.3927E-01   7.5725E-01   4.7371E-04  0.0054
   7.5725E-01   7.7568E-01   4.5794E-04  0.0054
   7.7568E-01   7.9455E-01   4.4003E-04  0.0055
   7.9455E-01   8.1388E-01   4.3105E-04  0.0055
   8.1388E-01   8.3368E-01   4.2306E-04  0.0055
   8.3368E-01   8.5397E-01   4.0368E-04  0.0055
   8.5397E-01   8.7475E-01   3.9246E-04  0.0055
   8.7475E-01   8.9603E-01   3.8203E-04  0.0055
   8.9603E-01   9.1783E-01   3.7049E-04  0.0056
   9.1783E-01   9.4016E-01   3.5970E-04  0.0056
   9.4016E-01   9.6304E-01   3.4544E-04  0.0056
   9.6304E-01   9.8647E-01   3.3728E-04  0.0056
   9.8647E-01   1.0105E+00   3.2867E-04  0.0056
   1.0105E+00   1.0351E+00   3.3073E-04  0.0055
   1.0351E+00   1.0602E+00   3.3701E-04  0.0054
   1.0602E+00   1.0860E+00   3.4176E-04  0.0053
   1.0860E+00   1.1125E+00   3.5268E-04  0.0052
   1.1125E+00   1.1395E+00   3.6084E-04  0.0051
   1.1395E+00   1.1673E+00   3.7325E-04  0.0049
   1.1673E+00   1.1957E+00   3.8669E-04  0.0048
   1.1957E+00   1.2247E+00   3.9916E-04  0.0046
   1.2247E+00   1.2545E+00   4.0449E-04  0.0046
   1.2545E+00   1.2851E+00   4.1008E-04  0.0045
   1.2851E+00   1.3163E+00   4.2106E-04  0.0044
   1.3163E+00   1.3484E+00   4.2487E-04  0.0043
   1.3484E+00   1.3812E+00   4.3793E-04  0.0042
   1.3812E+00   1.4148E+00   4.5191E-04  0.0041
   1.4148E+00   1.4492E+00   4.5816E-04  0.0040
   1.4492E+00   1.4845E+00   4.6135E-04  0.0039
   1.4845E+00   1.5206E+00   4.6788E-04  0.0038
   1.5206E+00   1.5576E+00   4.7308E-04  0.0038
   1.5576E+00   1.5955E+00   4.7974E-04  0.0037
   1.5955E+00   1.6343E+00   4.9343E-04  0.0036
   1.6343E+00   1.6741E+00   5.0185E-04  0.0035
   1.6741E+00   1.7148E+00   5.1849E-04  0.0034
   1.7148E+00   1.7565E+00   5.2345E-04  0.0034
   1.7565E+00   1.7992E+00   5.2707E-04  0.0033
   1.7992E+00   1.8430E+00   5.3723E-04  0.0033
   1.8430E+00   1.8879E+00   5.3871E-04  0.0032
   1.8879E+00   1.9338E+00   5.5067E-04  0.0031
   1.9338E+00   1.9808E+00   5.6213E-04  0.0031
   1.9808E+00   2.0290E+00   5.7331E-04  0.0030
   2.0290E+00   2.0784E+00   5.7249E-04  0.0030
   2.0784E+00   2.1290E+00   5.7376E-04  0.0029
   2.1290E+00   2.1808E+00   5.7700E-04  0.0029
   2.1808E+00   2.2338E+00   5.8278E-04  0.0028
   2.2338E+00   2.2882E+00   5.8880E-04  0.0028
   2.2882E+00   2.3439E+00   5.9755E-04  0.0027
   2.3439E+00   2.4009E+00   6.1423E-04  0.0027
   2.4009E+00   2.4593E+00   6.1746E-04  0.0026
   2.4593E+00   2.5191E+00   6.1404E-04  0.0026
   2.5191E+00   2.5804E+00   6.1060E-04  0.0026
   2.5804E+00   2.6432E+00   6.0634E-04  0.0026
   2.6432E+00   2.7075E+00   6.1008E-04  0.0025
   2.7075E+00   2.7734E+00   6.1455E-04  0.0025
   2.7734E+00   2.8409E+00   6.2001E-04  0.0024
   2.8409E+00   2.9100E+00   6.3253E-04  0.0024
   2.9100E+00   2.9808E+00   6.3772E-04  0.0024
   2.9808E+00   3.0533E+00   6.3359E-04  0.0023
   3.0533E+00   3.1276E+00   6.2911E-04  0.0023
   3.1276E+00   3.2037E+00   6.1900E-04  0.0023
   3.2037E+00   3.2817E+00   6.1291E-04  0.0023
   3.2817E+00   3.3615E+00   6.0944E-04  0.0023
   3.3615E+00   3.4433E+00   6.0849E-04  0.0022
   3.4433E+00   3.5271E+00   6.0674E-04  0.0022
   3.5271E+00   3.6129E+00   6.1171E-04  0.0022
   3.6129E+00   3.7008E+00   6.0760E-04  0.0022
   3.7008E+00   3.7908E+00   5.9889E-04  0.0022
   3.7908E+00   3.8831E+00   5.9067E-04  0.0021
   3.8831E+00   3.9776E+00   5.8711E-04  0.0021
   3.9776E+00   4.0743E+00   5.8331E-04  0.0021
   4.0743E+00   4.1735E+00   5.7091E-04  0.0021
   4.1735E+00   4.2750E+00   5.5602E-04  0.0021
   4.2750E+00   4.3790E+00   5.4372E-04  0.0021
   4.3790E+00   4.4856E+00   5.3319E-04  0.0021
   4.4856E+00   4.5947E+00   5.2422E-04  0.0021
   4.5947E+00   4.7065E+00   5.1314E-04  0.0021
   4.7065E+00   4.8210E+00   5.0536E-04  0.0021
   4.8210E+00   4.9383E+00   4.9389E-04  0.0021
   4.9383E+00   5.0585E+00   4.8539E-04  0.0021
   5.0585E+00   5.1815E+00   4.7018E-04  0.0021
   5.1815E+00   5.3076E+00   4.5490E-04  0.0021
   5.3076E+00   5.4368E+00   4.3974E-04  0.0021
   5.4368E+00   5.5690E+00   4.2623E-04  0.0021
   5.5690E+00   5.7045E+00   4.1355E-04  0.0021
   5.7045E+00   5.8433E+00   4.0104E-04  0.0021
   5.8433E+00   5.9855E+00   3.9009E-04  0.0021
   5.9855E+00   6.1311E+00   3.7803E-04  0.0021
   6.1311E+00   6.2803E+00   3.6467E-04  0.0021
   6.2803E+00   6.4331E+00   3.5013E-04  0.0022
   6.4331E+00   6.5896E+00   3.3569E-04  0.0022
   6.5896E+00   6.7500E+00   3.2211E-04  0.0022
   6.7500E+00   6.9142E+00   3.0843E-04  0.0022
   6.9142E+00   7.0824E+00   2.9932E-04  0.0022
   7.0824E+00   7.2548E+00   2.8613E-04  0.0023
   7.2548E+00   7.4313E+00   2.7273E-04  0.0023
   7.4313E+00   7.6121E+00   2.6067E-04  0.0023
   7.6121E+00   7.7973E+00   2.5078E-04  0.0023
   7.7973E+00   7.9870E+00   2.3856E-04  0.0023
   7.9870E+00   8.1813E+00   2.2943E-04  0.0024
   8.1813E+00   8.3804E+00   2.1789E-04  0.0024
   8.3804E+00   8.5843E+00   2.0813E-04  0.0024
   8.5843E+00   8.7931E+00   1.9887E-04  0.0025
   8.7931E+00   9.0071E+00   1.9031E-04  0.0025
   9.0071E+00   9.2262E+00   1.8067E-04  0.0025
   9.2262E+00   9.4507E+00   1.7343E-04  0.0025
   9.4507E+00   9.6807E+00   1.6486E-04  0.0026
   9.6807E+00   9.9162E+00   1.5726E-04  0.0026
   9.9162E+00   1.0157E+01   1.5045E-04  0.0026
   1.0157E+01   1.0405E+01   1.4358E-04  0.0027
   1.0405E+01   1.0658E+01   1.3635E-04  0.0027
   1.0658E+01   1.0917E+01   1.3065E-04  0.0027
   1.0917E+01   1.1183E+01   1.2488E-04  0.0027
   1.1183E+01   1.1455E+01   1.1939E-04  0.0028
   1.1455E+01   1.1733E+01   1.1431E-04  0.0028
   1.1733E+01   1.2019E+01   1.0924E-04  0.0028
   1.2019E+01   1.2311E+01   1.0443E-04  0.0029
   1.2311E+01   1.2611E+01   1.0002E-04  0.0029
   1.2611E+01   1.2918E+01   9.5600E-05  0.0029
   1.2918E+01   1.3232E+01   9.1814E-05  0.0029
   1.3232E+01   1.3554E+01   8.7909E-05  0.0030
   1.3554E+01   1.3884E+01   8.4158E-05  0.0030
   1.3884E+01   1.4222E+01   8.0802E-05  0.0030
   1.4222E+01   1.4568E+01   7.7727E-05  0.0030
   1.4568E+01   1.4922E+01   7.4898E-05  0.0031
   1.4922E+01   1.5285E+01   7.2355E-05  0.0031
   1.5285E+01   1.5657E+01   6.9182E-05  0.0031
   1.5657E+01   1.6038E+01   6.6843E-05  0.0031
   1.6038E+01   1.6428E+01   6.4379E-05  0.0032
   1.6428E+01   1.6828E+01   6.2315E-05  0.0032
   1.6828E+01   1.7237E+01   5.9697E-05  0.0032
   1.7237E+01   1.7657E+01   5.7702E-05  0.0032
   1.7657E+01   1.8086E+01   5.5610E-05  0.0032
   1.8086E+01   1.8526E+01   5.3676E-05  0.0033
   1.8526E+01   1.8977E+01   5.2060E-05  0.0033
   1.8977E+01   1.9439E+01   5.0035E-05  0.0033
   1.9439E+01   1.9912E+01   4.8827E-05  0.0033
   1.9912E+01   2.0396E+01   4.6655E-05  0.0033
   2.0396E+01   2.0893E+01   4.5674E-05  0.0033
   2.0893E+01   2.1401E+01   4.3854E-05  0.0033
   2.1401E+01   2.1922E+01   4.2524E-05  0.0034
   2.1922E+01   2.2455E+01   4.1197E-05  0.0034
   2.2455E+01   2.3001E+01   3.9538E-05  0.0034
   2.3001E+01   2.3561E+01   3.8079E-05  0.0034
   2.3561E+01   2.4134E+01   3.6618E-05  0.0035
   2.4134E+01   2.4721E+01   3.5356E-05  0.0035
   2.4721E+01   2.5323E+01   3.3697E-05  0.0035
   2.5323E+01   2.5939E+01   3.2368E-05  0.0035
   2.5939E+01   2.6570E+01   3.1163E-05  0.0036
   2.6570E+01   2.7217E+01   2.9813E-05  0.0036
   2.7217E+01   2.7879E+01   2.8361E-05  0.0036
   2.7879E+01   2.8557E+01   2.7028E-05  0.0037
   2.8557E+01   2.9252E+01   2.5633E-05  0.0037
   2.9252E+01   2.9964E+01   2.4398E-05  0.0038
   2.9964E+01   3.0693E+01   2.3104E-05  0.0039
   3.0693E+01   3.1440E+01   2.1995E-05  0.0039
   3.1440E+01   3.2205E+01   2.0921E-05  0.0040
   3.2205E+01   3.2988E+01   1.9563E-05  0.0040
   3.2988E+01   3.3791E+01   1.8306E-05  0.0041
   3.3791E+01   3.4613E+01   1.7232E-05  0.0042
   3.4613E+01   3.5455E+01   1.6237E-05  0.0043
   3.5455E+01   3.6318E+01   1.5157E-05  0.0044
   3.6318E+01   3.7201E+01   1.4103E-05  0.0045
   3.7201E+01   3.8106E+01   1.3200E-05  0.0046
   3.8106E+01   3.9034E+01   1.2196E-05  0.0047
   3.9034E+01   3.9983E+01   1.1272E-05  0.0048
   3.9983E+01   4.0956E+01   1.0428E-05  0.0050
   4.0956E+01   4.1953E+01   9.6767E-06  0.0051
   4.1953E+01   4.2973E+01   8.8245E-06  0.0053
   4.2973E+01   4.4019E+01   8.1611E-06  0.0054
   4.4019E+01   4.5090E+01   7.3262E-06  0.0056
   4.5090E+01   4.6187E+01   6.7694E-06  0.0058
   4.6187E+01   4.7311E+01   6.2201E-06  0.0060
   4.7311E+01   4.8462E+01   5.5653E-06  0.0062
   4.8462E+01   4.9641E+01   5.0498E-06  0.0065
   4.9641E+01   5.0849E+01   4.5564E-06  0.0067
   5.0849E+01   5.2086E+01   4.1404E-06  0.0070
   5.2086E+01   5.3353E+01   3.6655E-06  0.0073
   5.3353E+01   5.4651E+01   3.2246E-06  0.0077
   5.4651E+01   5.5981E+01   2.9019E-06  0.0080
   5.5981E+01   5.7343E+01   2.5509E-06  0.0085
   5.7343E+01   5.8738E+01   2.3138E-06  0.0088
   5.8738E+01   6.0168E+01   2.0056E-06  0.0093
   6.0168E+01   6.1632E+01   1.7566E-06  0.0099
   6.1632E+01   6.3131E+01   1.4921E-06  0.0106
   6.3131E+01   6.4667E+01   1.3245E-06  0.0111
   6.4667E+01   6.6240E+01   1.1202E-06  0.0119
   6.6240E+01   6.7852E+01   9.8282E-07  0.0126
   6.7852E+01   6.9503E+01   8.5560E-07  0.0133
   6.9503E+01   7.1194E+01   7.2233E-07  0.0143
   7.1194E+01   7.2926E+01   6.4167E-07  0.0150
   7.2926E+01   7.4701E+01   5.4625E-07  0.0161
   7.4701E+01   7.6518E+01   4.7606E-07  0.0170
   7.6518E+01   7.8380E+01   3.9224E-07  0.0185
   7.8380E+01   8.0287E+01   3.3219E-07  0.0199
   8.0287E+01   8.2240E+01   2.8194E-07  0.0213
   8.2240E+01   8.4241E+01   2.4526E-07  0.0226
   8.4241E+01   8.6291E+01   2.0345E-07  0.0245
   8.6291E+01   8.8391E+01   1.7802E-07  0.0259
   8.8391E+01   9.0541E+01   1.4368E-07  0.0284
   9.0541E+01   9.2744E+01   1.2086E-07  0.0306
   9.2744E+01   9.5001E+01   1.0337E-07  0.0327
   9.5001E+01   9.7312E+01   8.6418E-08  0.0354
   9.7312E+01   9.9680E+01   7.0639E-08  0.0387
   9.9680E+01   1.0211E+02   6.0405E-08  0.0413
   1.0211E+02   1.0459E+02   4.7297E-08  0.0461
   1.0459E+02   1.0713E+02   3.9198E-08  0.0501
   1.0713E+02   1.0974E+02   2.9444E-08  0.0571
   1.0974E+02   1.1241E+02   1.6479E-08  0.0754
   1.1241E+02   1.1515E+02   1.3985E-08  0.0808
   1.1515E+02   1.1795E+02   7.2280E-09  0.1111
   1.1795E+02   1.2082E+02   3.4846E-09  0.1581
   1.2082E+02   1.2376E+02   1.0206E-09  0.2887
   1.2376E+02   1.2677E+02   7.4723E-10  0.3333
   1.2677E+02   1.2985E+02   8.1054E-11  1.0000
   1.2985E+02   1.3301E+02   1.5826E-10  0.7071
   1.3301E+02   1.3625E+02   0.0000E+00  0.0000
   1.3625E+02   1.3956E+02   0.0000E+00  0.0000
   1.3956E+02   1.4296E+02   0.0000E+00  0.0000
   1.4296E+02   1.4644E+02   0.0000E+00  0.0000
   1.4644E+02   1.5000E+02   0.0000E+00  0.0000

#   sum over                 3.9732E-05
'no. =    1   reg = 114 - 214'
msuc: {\huge [t-cross] in region mesh}
msdr: {\it plotted by \ANGEL \version}
msdl: {\it calculated by \PHITS  3.26}
wt: s(0.7)
\vspace{-3}
  region surface crossing
  area  &=&   1.0000E+00 [cm^2]
e:
 
# Information for Restart Calculation
# This calculation was newly started
# istdev =  2 # 1:Batch variance, 2:History variance
# resc2  = 4.00000000000000000E+09 # Total source weight or Total source weight / maxcas
# resc3  = 4.00000000000000000E+09 # Total history number or Total batch number
# maxcas =   500000000 # History / Batch, only used for istdev=1
# bitrseed = 1000111101111101011101111011110101001010011101000111000001010111 # bit data of rseed
