[ T-Cross ]
    title = [t-cross] in region mesh
     mesh =  reg            # mesh type is region-wise
      reg =    1            # number of crossing regions
      non     r-from    r-to       area
      1       126       226        1.000000    
   e-type =    3            # e-mesh is log given by emin, emax and ne
     emin =  1.0000000E-02  # minimum value of e-mesh points
     emax =   150.0000      # maximum value of e-mesh points
#    edel =  2.4039514E-02  # mesh width of e-mesh points
       ne =    400          # number of e-mesh points
#    data = ( e(i), i = 1, ne + 1 )
#           1.00000E-02  1.02433E-02  1.04925E-02  1.07478E-02  1.10093E-02
#           1.12772E-02  1.15516E-02  1.18326E-02  1.21205E-02  1.24154E-02
#           1.27175E-02  1.30269E-02  1.33439E-02  1.36686E-02  1.40011E-02
#           1.43418E-02  1.46907E-02  1.50482E-02  1.54143E-02  1.57894E-02
#           1.61735E-02  1.65670E-02  1.69701E-02  1.73830E-02  1.78060E-02
#           1.82392E-02  1.86830E-02  1.91375E-02  1.96032E-02  2.00801E-02
#           2.05687E-02  2.10692E-02  2.15818E-02  2.21069E-02  2.26448E-02
#           2.31957E-02  2.37601E-02  2.43382E-02  2.49304E-02  2.55369E-02
#           2.61583E-02  2.67947E-02  2.74467E-02  2.81145E-02  2.87985E-02
#           2.94992E-02  3.02169E-02  3.09521E-02  3.17052E-02  3.24766E-02
#           3.32668E-02  3.40762E-02  3.49053E-02  3.57546E-02  3.66246E-02
#           3.75157E-02  3.84284E-02  3.93634E-02  4.03212E-02  4.13022E-02
#           4.23071E-02  4.33365E-02  4.43909E-02  4.54710E-02  4.65773E-02
#           4.77106E-02  4.88714E-02  5.00605E-02  5.12785E-02  5.25262E-02
#           5.38042E-02  5.51133E-02  5.64542E-02  5.78278E-02  5.92348E-02
#           6.06760E-02  6.21523E-02  6.36645E-02  6.52135E-02  6.68002E-02
#           6.84255E-02  7.00904E-02  7.17957E-02  7.35426E-02  7.53319E-02
#           7.71648E-02  7.90423E-02  8.09655E-02  8.29354E-02  8.49533E-02
#           8.70203E-02  8.91376E-02  9.13064E-02  9.35279E-02  9.58035E-02
#           9.81345E-02  1.00522E-01  1.02968E-01  1.05473E-01  1.08040E-01
#           1.10668E-01  1.13361E-01  1.16119E-01  1.18944E-01  1.21838E-01
#           1.24803E-01  1.27839E-01  1.30950E-01  1.34136E-01  1.37399E-01
#           1.40742E-01  1.44167E-01  1.47675E-01  1.51268E-01  1.54948E-01
#           1.58718E-01  1.62580E-01  1.66535E-01  1.70587E-01  1.74738E-01
#           1.78989E-01  1.83344E-01  1.87805E-01  1.92375E-01  1.97055E-01
#           2.01850E-01  2.06761E-01  2.11792E-01  2.16945E-01  2.22223E-01
#           2.27630E-01  2.33169E-01  2.38842E-01  2.44653E-01  2.50605E-01
#           2.56703E-01  2.62949E-01  2.69346E-01  2.75900E-01  2.82613E-01
#           2.89489E-01  2.96532E-01  3.03747E-01  3.11138E-01  3.18708E-01
#           3.26462E-01  3.34405E-01  3.42542E-01  3.50876E-01  3.59413E-01
#           3.68158E-01  3.77116E-01  3.86291E-01  3.95690E-01  4.05317E-01
#           4.15179E-01  4.25281E-01  4.35628E-01  4.46227E-01  4.57084E-01
#           4.68205E-01  4.79597E-01  4.91266E-01  5.03219E-01  5.15463E-01
#           5.28005E-01  5.40851E-01  5.54011E-01  5.67490E-01  5.81298E-01
#           5.95441E-01  6.09929E-01  6.24769E-01  6.39970E-01  6.55541E-01
#           6.71491E-01  6.87828E-01  7.04564E-01  7.21706E-01  7.39266E-01
#           7.57253E-01  7.75678E-01  7.94551E-01  8.13883E-01  8.33685E-01
#           8.53969E-01  8.74747E-01  8.96030E-01  9.17831E-01  9.40163E-01
#           9.63038E-01  9.86469E-01  1.01047E+00  1.03506E+00  1.06024E+00
#           1.08604E+00  1.11246E+00  1.13953E+00  1.16725E+00  1.19565E+00
#           1.22474E+00  1.25454E+00  1.28507E+00  1.31633E+00  1.34836E+00
#           1.38117E+00  1.41477E+00  1.44920E+00  1.48446E+00  1.52057E+00
#           1.55757E+00  1.59547E+00  1.63429E+00  1.67405E+00  1.71478E+00
#           1.75650E+00  1.79924E+00  1.84302E+00  1.88786E+00  1.93379E+00
#           1.98084E+00  2.02904E+00  2.07841E+00  2.12898E+00  2.18078E+00
#           2.23384E+00  2.28819E+00  2.34386E+00  2.40089E+00  2.45930E+00
#           2.51914E+00  2.58043E+00  2.64322E+00  2.70753E+00  2.77341E+00
#           2.84088E+00  2.91001E+00  2.98081E+00  3.05333E+00  3.12762E+00
#           3.20372E+00  3.28167E+00  3.36152E+00  3.44330E+00  3.52708E+00
#           3.61290E+00  3.70080E+00  3.79085E+00  3.88308E+00  3.97756E+00
#           4.07434E+00  4.17347E+00  4.27501E+00  4.37903E+00  4.48557E+00
#           4.59471E+00  4.70650E+00  4.82102E+00  4.93832E+00  5.05847E+00
#           5.18155E+00  5.30762E+00  5.43676E+00  5.56904E+00  5.70453E+00
#           5.84333E+00  5.98550E+00  6.13114E+00  6.28031E+00  6.43312E+00
#           6.58964E+00  6.74997E+00  6.91420E+00  7.08243E+00  7.25475E+00
#           7.43126E+00  7.61207E+00  7.79728E+00  7.98700E+00  8.18133E+00
#           8.38038E+00  8.58428E+00  8.79315E+00  9.00709E+00  9.22624E+00
#           9.45072E+00  9.68067E+00  9.91620E+00  1.01575E+01  1.04046E+01
#           1.06578E+01  1.09171E+01  1.11827E+01  1.14548E+01  1.17335E+01
#           1.20190E+01  1.23114E+01  1.26109E+01  1.29178E+01  1.32321E+01
#           1.35540E+01  1.38838E+01  1.42216E+01  1.45676E+01  1.49221E+01
#           1.52851E+01  1.56570E+01  1.60380E+01  1.64282E+01  1.68279E+01
#           1.72374E+01  1.76568E+01  1.80864E+01  1.85264E+01  1.89772E+01
#           1.94389E+01  1.99119E+01  2.03963E+01  2.08926E+01  2.14009E+01
#           2.19216E+01  2.24550E+01  2.30014E+01  2.35610E+01  2.41343E+01
#           2.47215E+01  2.53230E+01  2.59391E+01  2.65702E+01  2.72167E+01
#           2.78789E+01  2.85572E+01  2.92520E+01  2.99637E+01  3.06928E+01
#           3.14396E+01  3.22045E+01  3.29881E+01  3.37907E+01  3.46128E+01
#           3.54550E+01  3.63177E+01  3.72013E+01  3.81064E+01  3.90336E+01
#           3.99833E+01  4.09561E+01  4.19526E+01  4.29734E+01  4.40189E+01
#           4.50900E+01  4.61870E+01  4.73108E+01  4.84619E+01  4.96410E+01
#           5.08488E+01  5.20860E+01  5.33533E+01  5.46514E+01  5.59812E+01
#           5.73432E+01  5.87384E+01  6.01676E+01  6.16315E+01  6.31311E+01
#           6.46671E+01  6.62405E+01  6.78522E+01  6.95031E+01  7.11941E+01
#           7.29263E+01  7.47007E+01  7.65182E+01  7.83800E+01  8.02870E+01
#           8.22405E+01  8.42414E+01  8.62911E+01  8.83906E+01  9.05412E+01
#           9.27442E+01  9.50007E+01  9.73122E+01  9.96799E+01  1.02105E+02
#           1.04589E+02  1.07134E+02  1.09741E+02  1.12411E+02  1.15146E+02
#           1.17948E+02  1.20817E+02  1.23757E+02  1.26768E+02  1.29852E+02
#           1.33012E+02  1.36248E+02  1.39563E+02  1.42959E+02  1.46437E+02
#           1.50000E+02
     unit =    2            # unit is [1/cm^2/(MeV/n)/source]
     axis =  eng            # axis of output
     file = detector-27.out  # file name of output for the above axis
   output = f-curr          # surface crossing forward current spectrum
     part =  neutron  
# kf/name :  2112     
#    used :        main (  %)        temp (  %)       total (  %)
#  memory :         414 (  0)           0 (  0)         414 (  0)

#------------------------------------------------------------------------------
#newpage:
#   no. =    1   reg = 126 - 226

x: Energy [MeV/n]
y:  F-Curr [1/cm^2/(MeV/n)/source]         
p: xlog ylog afac(0.8) form(0.9)
h: n            x            y(neutron ),hh0l   n 
#  e-lower      e-upper      neutron     r.err 
   1.0000E-02   1.0243E-02   1.4733E-04  0.1358
   1.0243E-02   1.0493E-02   1.4177E-04  0.1374
   1.0493E-02   1.0748E-02   1.2247E-04  0.1451
   1.0748E-02   1.1009E-02   1.3240E-04  0.1378
   1.1009E-02   1.1277E-02   1.2293E-04  0.1411
   1.1277E-02   1.1552E-02   9.7344E-05  0.1564
   1.1552E-02   1.1833E-02   1.0570E-04  0.1490
   1.1833E-02   1.2121E-02   1.5674E-04  0.1211
   1.2121E-02   1.2415E-02   1.2947E-04  0.1319
   1.2415E-02   1.2718E-02   1.0453E-04  0.1448
   1.2718E-02   1.3027E-02   9.5614E-05  0.1485
   1.3027E-02   1.3344E-02   1.2667E-04  0.1287
   1.3344E-02   1.3669E-02   1.0394E-04  0.1399
   1.3669E-02   1.4001E-02   1.1606E-04  0.1308
   1.4001E-02   1.4342E-02   1.2720E-04  0.1240
   1.4342E-02   1.4691E-02   1.2361E-04  0.1238
   1.4691E-02   1.5048E-02   1.2145E-04  0.1231
   1.5048E-02   1.5414E-02   8.4690E-05  0.1460
   1.5414E-02   1.5789E-02   9.8033E-05  0.1345
   1.5789E-02   1.6174E-02   1.1627E-04  0.1222
   1.6174E-02   1.6567E-02   7.2421E-05  0.1519
   1.6567E-02   1.6970E-02   1.0025E-04  0.1279
   1.6970E-02   1.7383E-02   7.8362E-05  0.1430
   1.7383E-02   1.7806E-02   8.0736E-05  0.1386
   1.7806E-02   1.8239E-02   9.6119E-05  0.1255
   1.8239E-02   1.8683E-02   9.8622E-05  0.1219
   1.8683E-02   1.9138E-02   9.6369E-05  0.1223
   1.9138E-02   1.9603E-02   6.7968E-05  0.1446
   1.9603E-02   2.0080E-02   6.6828E-05  0.1427
   2.0080E-02   2.0569E-02   8.7005E-05  0.1243
   2.0569E-02   2.1069E-02   9.3300E-05  0.1189
   2.1069E-02   2.1582E-02   8.3088E-05  0.1244
   2.1582E-02   2.2107E-02   7.5591E-05  0.1292
   2.2107E-02   2.2645E-02   8.5424E-05  0.1199
   2.2645E-02   2.3196E-02   8.0905E-05  0.1217
   2.3196E-02   2.3760E-02   6.8367E-05  0.1308
   2.3760E-02   2.4338E-02   8.3919E-05  0.1169
   2.4338E-02   2.4930E-02   6.3398E-05  0.1329
   2.4930E-02   2.5537E-02   5.3780E-05  0.1421
   2.5537E-02   2.6158E-02   8.2218E-05  0.1139
   2.6158E-02   2.6795E-02   5.9930E-05  0.1320
   2.6795E-02   2.7447E-02   6.3807E-05  0.1263
   2.7447E-02   2.8114E-02   5.4087E-05  0.1347
   2.8114E-02   2.8799E-02   7.0431E-05  0.1175
   2.8799E-02   2.9499E-02   3.9821E-05  0.1536
   2.9499E-02   3.0217E-02   5.9191E-05  0.1249
   3.0217E-02   3.0952E-02   6.1264E-05  0.1213
   3.0952E-02   3.1705E-02   5.8048E-05  0.1225
   3.1705E-02   3.2477E-02   5.9572E-05  0.1198
   3.2477E-02   3.3267E-02   5.5598E-05  0.1227
   3.3267E-02   3.4076E-02   5.7101E-05  0.1199
   3.4076E-02   3.4905E-02   4.5702E-05  0.1320
   3.4905E-02   3.5755E-02   4.5639E-05  0.1310
   3.5755E-02   3.6625E-02   5.2785E-05  0.1200
   3.6625E-02   3.7516E-02   4.7485E-05  0.1252
   3.7516E-02   3.8428E-02   4.8675E-05  0.1222
   3.8428E-02   3.9363E-02   4.3057E-05  0.1284
   3.9363E-02   4.0321E-02   5.2390E-05  0.1151
   4.0321E-02   4.1302E-02   4.1974E-05  0.1268
   4.1302E-02   4.2307E-02   3.6934E-05  0.1334
   4.2307E-02   4.3337E-02   4.2718E-05  0.1226
   4.3337E-02   4.4391E-02   4.0476E-05  0.1242
   4.4391E-02   4.5471E-02   4.1916E-05  0.1207
   4.5471E-02   4.6577E-02   3.4514E-05  0.1310
   4.6577E-02   4.7711E-02   4.1767E-05  0.1187
   4.7711E-02   4.8871E-02   4.5253E-05  0.1122
   4.8871E-02   5.0061E-02   4.0332E-05  0.1173
   5.0061E-02   5.1279E-02   3.2173E-05  0.1298
   5.1279E-02   5.2526E-02   3.3416E-05  0.1260
   5.2526E-02   5.3804E-02   3.1495E-05  0.1277
   5.3804E-02   5.5113E-02   3.0097E-05  0.1291
   5.5113E-02   5.6454E-02   3.4083E-05  0.1198
   5.6454E-02   5.7828E-02   3.2513E-05  0.1215
   5.7828E-02   5.9235E-02   2.5477E-05  0.1348
   5.9235E-02   6.0676E-02   3.8624E-05  0.1089
   6.0676E-02   6.2152E-02   2.8102E-05  0.1266
   6.2152E-02   6.3665E-02   3.8479E-05  0.1064
   6.3665E-02   6.5214E-02   2.3008E-05  0.1355
   6.5214E-02   6.6800E-02   3.1405E-05  0.1153
   6.6800E-02   6.8426E-02   2.7392E-05  0.1218
   6.8426E-02   7.0090E-02   2.0631E-05  0.1388
   7.0090E-02   7.1796E-02   2.5114E-05  0.1240
   7.1796E-02   7.3543E-02   3.0980E-05  0.1105
   7.3543E-02   7.5332E-02   2.7068E-05  0.1169
   7.5332E-02   7.7165E-02   2.6771E-05  0.1162
   7.7165E-02   7.9042E-02   2.0568E-05  0.1306
   7.9042E-02   8.0965E-02   2.2577E-05  0.1238
   8.0965E-02   8.2935E-02   2.0256E-05  0.1285
   8.2935E-02   8.4953E-02   2.0306E-05  0.1265
   8.4953E-02   8.7020E-02   1.9969E-05  0.1265
   8.7020E-02   8.9138E-02   1.8029E-05  0.1312
   8.9138E-02   9.1306E-02   2.1414E-05  0.1195
   9.1306E-02   9.3528E-02   1.8913E-05  0.1253
   9.3528E-02   9.5804E-02   2.0034E-05  0.1207
   9.5804E-02   9.8134E-02   2.1228E-05  0.1147
   9.8134E-02   1.0052E-01   1.8372E-05  0.1228
   1.0052E-01   1.0297E-01   2.0670E-05  0.1143
   1.0297E-01   1.0547E-01   1.7099E-05  0.1246
   1.0547E-01   1.0804E-01   1.6892E-05  0.1234
   1.0804E-01   1.1067E-01   1.9692E-05  0.1131
   1.1067E-01   1.1336E-01   1.6838E-05  0.1205
   1.1336E-01   1.1612E-01   1.7098E-05  0.1184
   1.1612E-01   1.1894E-01   1.9243E-05  0.1104
   1.1894E-01   1.2184E-01   1.2358E-05  0.1361
   1.2184E-01   1.2480E-01   1.7830E-05  0.1117
   1.2480E-01   1.2784E-01   1.6439E-05  0.1150
   1.2784E-01   1.3095E-01   1.5545E-05  0.1171
   1.3095E-01   1.3414E-01   1.5056E-05  0.1170
   1.3414E-01   1.3740E-01   1.4545E-05  0.1179
   1.3740E-01   1.4074E-01   1.5605E-05  0.1123
   1.4074E-01   1.4417E-01   1.1713E-05  0.1281
   1.4417E-01   1.4767E-01   1.0821E-05  0.1318
   1.4767E-01   1.5127E-01   1.2167E-05  0.1214
   1.5127E-01   1.5495E-01   1.3139E-05  0.1164
   1.5495E-01   1.5872E-01   9.5057E-06  0.1358
   1.5872E-01   1.6258E-01   1.3122E-05  0.1142
   1.6258E-01   1.6654E-01   1.2180E-05  0.1175
   1.6654E-01   1.7059E-01   9.7676E-06  0.1295
   1.7059E-01   1.7474E-01   1.0105E-05  0.1253
   1.7474E-01   1.7899E-01   8.6548E-06  0.1336
   1.7899E-01   1.8334E-01   1.1393E-05  0.1153
   1.8334E-01   1.8781E-01   9.8343E-06  0.1222
   1.8781E-01   1.9237E-01   1.1027E-05  0.1147
   1.9237E-01   1.9706E-01   1.1222E-05  0.1122
   1.9706E-01   2.0185E-01   9.5500E-06  0.1202
   2.0185E-01   2.0676E-01   1.0431E-05  0.1137
   2.0676E-01   2.1179E-01   1.1845E-05  0.1052
   2.1179E-01   2.1694E-01   1.0438E-05  0.1105
   2.1694E-01   2.2222E-01   1.1045E-05  0.1059
   2.2222E-01   2.2763E-01   1.2445E-05  0.0989
   2.2763E-01   2.3317E-01   1.2502E-05  0.0978
   2.3317E-01   2.3884E-01   1.2287E-05  0.0972
   2.3884E-01   2.4465E-01   1.0882E-05  0.1024
   2.4465E-01   2.5061E-01   1.3585E-05  0.0902
   2.5061E-01   2.5670E-01   1.3377E-05  0.0896
   2.5670E-01   2.6295E-01   1.4079E-05  0.0868
   2.6295E-01   2.6935E-01   1.5024E-05  0.0827
   2.6935E-01   2.7590E-01   1.5280E-05  0.0814
   2.7590E-01   2.8261E-01   1.4806E-05  0.0815
   2.8261E-01   2.8949E-01   1.7559E-05  0.0740
   2.8949E-01   2.9653E-01   1.7070E-05  0.0740
   2.9653E-01   3.0375E-01   1.8486E-05  0.0702
   3.0375E-01   3.1114E-01   1.9890E-05  0.0670
   3.1114E-01   3.1871E-01   1.6277E-05  0.0732
   3.1871E-01   3.2646E-01   1.9927E-05  0.0652
   3.2646E-01   3.3441E-01   1.9167E-05  0.0659
   3.3441E-01   3.4254E-01   1.6998E-05  0.0690
   3.4254E-01   3.5088E-01   1.8210E-05  0.0659
   3.5088E-01   3.5941E-01   2.0087E-05  0.0621
   3.5941E-01   3.6816E-01   2.1945E-05  0.0586
   3.6816E-01   3.7712E-01   2.0015E-05  0.0607
   3.7712E-01   3.8629E-01   2.0828E-05  0.0586
   3.8629E-01   3.9569E-01   2.2833E-05  0.0555
   3.9569E-01   4.0532E-01   1.8381E-05  0.0611
   4.0532E-01   4.1518E-01   2.3275E-05  0.0535
   4.1518E-01   4.2528E-01   2.1121E-05  0.0556
   4.2528E-01   4.3563E-01   2.2723E-05  0.0528
   4.3563E-01   4.4623E-01   2.5635E-05  0.0493
   4.4623E-01   4.5708E-01   2.4299E-05  0.0500
   4.5708E-01   4.6821E-01   2.4456E-05  0.0492
   4.6821E-01   4.7960E-01   2.4938E-05  0.0481
   4.7960E-01   4.9127E-01   2.6433E-05  0.0462
   4.9127E-01   5.0322E-01   2.5731E-05  0.0463
   5.0322E-01   5.1546E-01   2.4240E-05  0.0470
   5.1546E-01   5.2800E-01   2.8036E-05  0.0431
   5.2800E-01   5.4085E-01   2.7553E-05  0.0431
   5.4085E-01   5.5401E-01   2.8509E-05  0.0418
   5.5401E-01   5.6749E-01   2.8526E-05  0.0413
   5.6749E-01   5.8130E-01   2.8239E-05  0.0410
   5.8130E-01   5.9544E-01   2.7767E-05  0.0409
   5.9544E-01   6.0993E-01   2.8976E-05  0.0395
   6.0993E-01   6.2477E-01   2.6193E-05  0.0410
   6.2477E-01   6.3997E-01   2.7499E-05  0.0396
   6.3997E-01   6.5554E-01   2.8655E-05  0.0384
   6.5554E-01   6.7149E-01   2.8642E-05  0.0379
   6.7149E-01   6.8783E-01   2.8939E-05  0.0372
   6.8783E-01   7.0456E-01   2.7645E-05  0.0377
   7.0456E-01   7.2171E-01   2.7642E-05  0.0372
   7.2171E-01   7.3927E-01   2.8067E-05  0.0365
   7.3927E-01   7.5725E-01   2.8172E-05  0.0360
   7.5725E-01   7.7568E-01   2.7339E-05  0.0361
   7.7568E-01   7.9455E-01   2.8989E-05  0.0346
   7.9455E-01   8.1388E-01   2.6386E-05  0.0358
   8.1388E-01   8.3368E-01   2.7763E-05  0.0345
   8.3368E-01   8.5397E-01   2.7853E-05  0.0341
   8.5397E-01   8.7475E-01   2.9056E-05  0.0329
   8.7475E-01   8.9603E-01   2.6537E-05  0.0340
   8.9603E-01   9.1783E-01   2.6317E-05  0.0337
   9.1783E-01   9.4016E-01   2.8159E-05  0.0323
   9.4016E-01   9.6304E-01   2.5775E-05  0.0334
   9.6304E-01   9.8647E-01   2.6795E-05  0.0322
   9.8647E-01   1.0105E+00   2.7147E-05  0.0316
   1.0105E+00   1.0351E+00   2.6243E-05  0.0319
   1.0351E+00   1.0602E+00   2.3045E-05  0.0336
   1.0602E+00   1.0860E+00   2.4076E-05  0.0323
   1.0860E+00   1.1125E+00   2.3342E-05  0.0325
   1.1125E+00   1.1395E+00   2.3083E-05  0.0323
   1.1395E+00   1.1673E+00   2.4094E-05  0.0313
   1.1673E+00   1.1957E+00   2.2976E-05  0.0316
   1.1957E+00   1.2247E+00   2.4033E-05  0.0306
   1.2247E+00   1.2545E+00   2.0500E-05  0.0327
   1.2545E+00   1.2851E+00   2.1903E-05  0.0312
   1.2851E+00   1.3163E+00   2.1189E-05  0.0313
   1.3163E+00   1.3484E+00   2.1075E-05  0.0311
   1.3484E+00   1.3812E+00   2.0390E-05  0.0312
   1.3812E+00   1.4148E+00   1.9301E-05  0.0317
   1.4148E+00   1.4492E+00   2.1027E-05  0.0300
   1.4492E+00   1.4845E+00   1.8980E-05  0.0313
   1.4845E+00   1.5206E+00   1.9615E-05  0.0303
   1.5206E+00   1.5576E+00   1.7769E-05  0.0316
   1.5576E+00   1.5955E+00   1.8224E-05  0.0307
   1.5955E+00   1.6343E+00   1.7776E-05  0.0308
   1.6343E+00   1.6741E+00   1.7732E-05  0.0304
   1.6741E+00   1.7148E+00   1.6584E-05  0.0311
   1.7148E+00   1.7565E+00   1.6331E-05  0.0309
   1.7565E+00   1.7992E+00   1.5855E-05  0.0310
   1.7992E+00   1.8430E+00   1.6098E-05  0.0304
   1.8430E+00   1.8879E+00   1.5031E-05  0.0310
   1.8879E+00   1.9338E+00   1.4765E-05  0.0310
   1.9338E+00   1.9808E+00   1.4713E-05  0.0307
   1.9808E+00   2.0290E+00   1.3282E-05  0.0318
   2.0290E+00   2.0784E+00   1.4305E-05  0.0303
   2.0784E+00   2.1290E+00   1.2898E-05  0.0316
   2.1290E+00   2.1808E+00   1.3352E-05  0.0307
   2.1808E+00   2.2338E+00   1.2145E-05  0.0317
   2.2338E+00   2.2882E+00   1.1900E-05  0.0317
   2.2882E+00   2.3439E+00   1.1667E-05  0.0316
   2.3439E+00   2.4009E+00   1.1302E-05  0.0318
   2.4009E+00   2.4593E+00   1.1353E-05  0.0313
   2.4593E+00   2.5191E+00   1.0791E-05  0.0317
   2.5191E+00   2.5804E+00   1.0260E-05  0.0321
   2.5804E+00   2.6432E+00   1.0139E-05  0.0319
   2.6432E+00   2.7075E+00   1.0573E-05  0.0310
   2.7075E+00   2.7734E+00   9.2428E-06  0.0326
   2.7734E+00   2.8409E+00   9.2133E-06  0.0323
   2.8409E+00   2.9100E+00   9.2341E-06  0.0319
   2.9100E+00   2.9808E+00   8.3557E-06  0.0331
   2.9808E+00   3.0533E+00   8.6477E-06  0.0322
   3.0533E+00   3.1276E+00   8.4562E-06  0.0321
   3.1276E+00   3.2037E+00   8.1005E-06  0.0325
   3.2037E+00   3.2817E+00   7.7491E-06  0.0328
   3.2817E+00   3.3615E+00   7.9306E-06  0.0320
   3.3615E+00   3.4433E+00   7.3286E-06  0.0330
   3.4433E+00   3.5271E+00   7.3707E-06  0.0325
   3.5271E+00   3.6129E+00   7.0206E-06  0.0329
   3.6129E+00   3.7008E+00   6.5531E-06  0.0335
   3.7008E+00   3.7908E+00   6.8276E-06  0.0325
   3.7908E+00   3.8831E+00   6.6269E-06  0.0325
   3.8831E+00   3.9776E+00   5.9751E-06  0.0340
   3.9776E+00   4.0743E+00   6.1494E-06  0.0330
   4.0743E+00   4.1735E+00   6.0303E-06  0.0330
   4.1735E+00   4.2750E+00   5.7580E-06  0.0333
   4.2750E+00   4.3790E+00   5.7536E-06  0.0329
   4.3790E+00   4.4856E+00   5.5566E-06  0.0332
   4.4856E+00   4.5947E+00   5.6707E-06  0.0324
   4.5947E+00   4.7065E+00   5.3956E-06  0.0329
   4.7065E+00   4.8210E+00   5.1099E-06  0.0333
   4.8210E+00   4.9383E+00   5.6099E-06  0.0315
   4.9383E+00   5.0585E+00   5.0927E-06  0.0327
   5.0585E+00   5.1815E+00   4.8785E-06  0.0330
   5.1815E+00   5.3076E+00   4.8917E-06  0.0326
   5.3076E+00   5.4368E+00   4.6617E-06  0.0329
   5.4368E+00   5.5690E+00   4.7119E-06  0.0324
   5.5690E+00   5.7045E+00   4.4880E-06  0.0328
   5.7045E+00   5.8433E+00   4.1465E-06  0.0337
   5.8433E+00   5.9855E+00   4.1228E-06  0.0335
   5.9855E+00   6.1311E+00   3.9989E-06  0.0336
   6.1311E+00   6.2803E+00   3.9334E-06  0.0334
   6.2803E+00   6.4331E+00   3.5480E-06  0.0348
   6.4331E+00   6.5896E+00   3.6862E-06  0.0338
   6.5896E+00   6.7500E+00   3.4867E-06  0.0342
   6.7500E+00   6.9142E+00   3.4123E-06  0.0342
   6.9142E+00   7.0824E+00   3.0155E-06  0.0360
   7.0824E+00   7.2548E+00   3.0454E-06  0.0355
   7.2548E+00   7.4313E+00   2.9719E-06  0.0355
   7.4313E+00   7.6121E+00   2.9092E-06  0.0354
   7.6121E+00   7.7973E+00   2.7087E-06  0.0363
   7.7973E+00   7.9870E+00   2.6375E-06  0.0364
   7.9870E+00   8.1813E+00   2.4174E-06  0.0376
   8.1813E+00   8.3804E+00   2.4235E-06  0.0371
   8.3804E+00   8.5843E+00   2.2657E-06  0.0378
   8.5843E+00   8.7931E+00   2.1761E-06  0.0382
   8.7931E+00   9.0071E+00   2.1601E-06  0.0379
   9.0071E+00   9.2262E+00   1.8773E-06  0.0401
   9.2262E+00   9.4507E+00   1.8415E-06  0.0401
   9.4507E+00   9.6807E+00   1.8585E-06  0.0394
   9.6807E+00   9.9162E+00   1.7312E-06  0.0404
   9.9162E+00   1.0157E+01   1.7420E-06  0.0397
   1.0157E+01   1.0405E+01   1.6028E-06  0.0409
   1.0405E+01   1.0658E+01   1.5098E-06  0.0417
   1.0658E+01   1.0917E+01   1.3941E-06  0.0429
   1.0917E+01   1.1183E+01   1.4578E-06  0.0414
   1.1183E+01   1.1455E+01   1.3550E-06  0.0425
   1.1455E+01   1.1733E+01   1.2674E-06  0.0434
   1.1733E+01   1.2019E+01   1.1502E-06  0.0450
   1.2019E+01   1.2311E+01   1.0665E-06  0.0462
   1.2311E+01   1.2611E+01   9.4588E-07  0.0485
   1.2611E+01   1.2918E+01   9.8976E-07  0.0468
   1.2918E+01   1.3232E+01   9.2749E-07  0.0478
   1.3232E+01   1.3554E+01   8.7495E-07  0.0486
   1.3554E+01   1.3884E+01   8.7129E-07  0.0482
   1.3884E+01   1.4222E+01   8.0033E-07  0.0496
   1.4222E+01   1.4568E+01   7.4754E-07  0.0508
   1.4568E+01   1.4922E+01   6.6924E-07  0.0530
   1.4922E+01   1.5285E+01   7.0511E-07  0.0510
   1.5285E+01   1.5657E+01   5.7184E-07  0.0560
   1.5657E+01   1.6038E+01   5.9501E-07  0.0542
   1.6038E+01   1.6428E+01   5.4500E-07  0.0560
   1.6428E+01   1.6828E+01   4.6367E-07  0.0600
   1.6828E+01   1.7237E+01   4.5917E-07  0.0595
   1.7237E+01   1.7657E+01   4.7846E-07  0.0576
   1.7657E+01   1.8086E+01   3.7709E-07  0.0642
   1.8086E+01   1.8526E+01   3.9843E-07  0.0617
   1.8526E+01   1.8977E+01   3.4904E-07  0.0651
   1.8977E+01   1.9439E+01   3.6529E-07  0.0629
   1.9439E+01   1.9912E+01   3.1010E-07  0.0674
   1.9912E+01   2.0396E+01   2.6145E-07  0.0725
   2.0396E+01   2.0893E+01   2.4584E-07  0.0739
   2.0893E+01   2.1401E+01   2.1377E-07  0.0783
   2.1401E+01   2.1922E+01   2.1125E-07  0.0778
   2.1922E+01   2.2455E+01   2.2748E-07  0.0741
   2.2455E+01   2.3001E+01   1.9890E-07  0.0783
   2.3001E+01   2.3561E+01   1.4533E-07  0.0905
   2.3561E+01   2.4134E+01   1.4769E-07  0.0887
   2.4134E+01   2.4721E+01   1.2261E-07  0.0962
   2.4721E+01   2.5323E+01   1.1638E-07  0.0976
   2.5323E+01   2.5939E+01   9.5218E-08  0.1066
   2.5939E+01   2.6570E+01   8.5562E-08  0.1111
   2.6570E+01   2.7217E+01   8.1468E-08  0.1125
   2.7217E+01   2.7879E+01   5.4364E-08  0.1361
   2.7879E+01   2.8557E+01   5.8970E-08  0.1291
   2.8557E+01   2.9252E+01   5.0853E-08  0.1374
   2.9252E+01   2.9964E+01   3.7468E-08  0.1581
   2.9964E+01   3.0693E+01   2.8348E-08  0.1796
   3.0693E+01   3.1440E+01   2.4996E-08  0.1890
   3.1440E+01   3.2205E+01   2.8760E-08  0.1741
   3.2205E+01   3.2988E+01   2.2972E-08  0.1925
   3.2988E+01   3.3791E+01   1.1628E-08  0.2673
   3.3791E+01   3.4613E+01   1.2163E-08  0.2582
   3.4613E+01   3.5455E+01   1.7416E-08  0.2132
   3.5455E+01   3.6318E+01   1.0819E-08  0.2673
   3.6318E+01   3.7201E+01   1.4335E-08  0.2294
   3.7201E+01   3.8106E+01   8.8384E-09  0.2887
   3.8106E+01   3.9034E+01   6.4714E-09  0.3333
   3.9034E+01   3.9983E+01   1.4039E-09  0.7071
   3.9983E+01   4.0956E+01   5.4823E-09  0.3536
   4.0956E+01   4.1953E+01   2.6760E-09  0.5000
   4.1953E+01   4.2973E+01   1.9594E-09  0.5774
   4.2973E+01   4.4019E+01   4.4632E-09  0.3780
   4.4019E+01   4.5090E+01   0.0000E+00  0.0000
   4.5090E+01   4.6187E+01   1.2154E-09  0.7071
   4.6187E+01   4.7311E+01   5.9324E-10  1.0000
   4.7311E+01   4.8462E+01   1.1583E-09  0.7071
   4.8462E+01   4.9641E+01   5.6539E-10  1.0000
   4.9641E+01   5.0849E+01   5.5197E-10  1.0000
   5.0849E+01   5.2086E+01   5.3885E-10  1.0000
   5.2086E+01   5.3353E+01   5.2606E-10  1.0000
   5.3353E+01   5.4651E+01   5.1356E-10  1.0000
   5.4651E+01   5.5981E+01   0.0000E+00  0.0000
   5.5981E+01   5.7343E+01   0.0000E+00  0.0000
   5.7343E+01   5.8738E+01   0.0000E+00  0.0000
   5.8738E+01   6.0168E+01   0.0000E+00  0.0000
   6.0168E+01   6.1632E+01   0.0000E+00  0.0000
   6.1632E+01   6.3131E+01   4.4458E-10  1.0000
   6.3131E+01   6.4667E+01   0.0000E+00  0.0000
   6.4667E+01   6.6240E+01   0.0000E+00  0.0000
   6.6240E+01   6.7852E+01   0.0000E+00  0.0000
   6.7852E+01   6.9503E+01   0.0000E+00  0.0000
   6.9503E+01   7.1194E+01   0.0000E+00  0.0000
   7.1194E+01   7.2926E+01   0.0000E+00  0.0000
   7.2926E+01   7.4701E+01   0.0000E+00  0.0000
   7.4701E+01   7.6518E+01   0.0000E+00  0.0000
   7.6518E+01   7.8380E+01   0.0000E+00  0.0000
   7.8380E+01   8.0287E+01   0.0000E+00  0.0000
   8.0287E+01   8.2240E+01   0.0000E+00  0.0000
   8.2240E+01   8.4241E+01   0.0000E+00  0.0000
   8.4241E+01   8.6291E+01   0.0000E+00  0.0000
   8.6291E+01   8.8391E+01   0.0000E+00  0.0000
   8.8391E+01   9.0541E+01   0.0000E+00  0.0000
   9.0541E+01   9.2744E+01   0.0000E+00  0.0000
   9.2744E+01   9.5001E+01   0.0000E+00  0.0000
   9.5001E+01   9.7312E+01   0.0000E+00  0.0000
   9.7312E+01   9.9680E+01   0.0000E+00  0.0000
   9.9680E+01   1.0211E+02   0.0000E+00  0.0000
   1.0211E+02   1.0459E+02   0.0000E+00  0.0000
   1.0459E+02   1.0713E+02   0.0000E+00  0.0000
   1.0713E+02   1.0974E+02   0.0000E+00  0.0000
   1.0974E+02   1.1241E+02   0.0000E+00  0.0000
   1.1241E+02   1.1515E+02   0.0000E+00  0.0000
   1.1515E+02   1.1795E+02   0.0000E+00  0.0000
   1.1795E+02   1.2082E+02   0.0000E+00  0.0000
   1.2082E+02   1.2376E+02   0.0000E+00  0.0000
   1.2376E+02   1.2677E+02   0.0000E+00  0.0000
   1.2677E+02   1.2985E+02   0.0000E+00  0.0000
   1.2985E+02   1.3301E+02   0.0000E+00  0.0000
   1.3301E+02   1.3625E+02   0.0000E+00  0.0000
   1.3625E+02   1.3956E+02   0.0000E+00  0.0000
   1.3956E+02   1.4296E+02   0.0000E+00  0.0000
   1.4296E+02   1.4644E+02   0.0000E+00  0.0000
   1.4644E+02   1.5000E+02   0.0000E+00  0.0000

#   sum over                 6.1383E-07
'no. =    1   reg = 126 - 226'
msuc: {\huge [t-cross] in region mesh}
msdr: {\it plotted by \ANGEL \version}
msdl: {\it calculated by \PHITS  3.26}
wt: s(0.7)
\vspace{-3}
  region surface crossing
  area  &=&   1.0000E+00 [cm^2]
e:
 
# Information for Restart Calculation
# This calculation was newly started
# istdev =  2 # 1:Batch variance, 2:History variance
# resc2  = 1.50000000000000000E+09 # Total source weight or Total source weight / maxcas
# resc3  = 1.50000000000000000E+09 # Total history number or Total batch number
# maxcas =   500000000 # History / Batch, only used for istdev=1
# bitrseed = 0000010101110101110110100110011001100101000001100111100100101101 # bit data of rseed
