[ T-Cross ]
    title = [t-cross] in region mesh
     mesh =  reg            # mesh type is region-wise
      reg =    1            # number of crossing regions
      non     r-from    r-to       area
      1       115       215        1.000000    
   e-type =    3            # e-mesh is log given by emin, emax and ne
     emin =  1.0000000E-02  # minimum value of e-mesh points
     emax =   150.0000      # maximum value of e-mesh points
#    edel =  2.4039514E-02  # mesh width of e-mesh points
       ne =    400          # number of e-mesh points
#    data = ( e(i), i = 1, ne + 1 )
#           1.00000E-02  1.02433E-02  1.04925E-02  1.07478E-02  1.10093E-02
#           1.12772E-02  1.15516E-02  1.18326E-02  1.21205E-02  1.24154E-02
#           1.27175E-02  1.30269E-02  1.33439E-02  1.36686E-02  1.40011E-02
#           1.43418E-02  1.46907E-02  1.50482E-02  1.54143E-02  1.57894E-02
#           1.61735E-02  1.65670E-02  1.69701E-02  1.73830E-02  1.78060E-02
#           1.82392E-02  1.86830E-02  1.91375E-02  1.96032E-02  2.00801E-02
#           2.05687E-02  2.10692E-02  2.15818E-02  2.21069E-02  2.26448E-02
#           2.31957E-02  2.37601E-02  2.43382E-02  2.49304E-02  2.55369E-02
#           2.61583E-02  2.67947E-02  2.74467E-02  2.81145E-02  2.87985E-02
#           2.94992E-02  3.02169E-02  3.09521E-02  3.17052E-02  3.24766E-02
#           3.32668E-02  3.40762E-02  3.49053E-02  3.57546E-02  3.66246E-02
#           3.75157E-02  3.84284E-02  3.93634E-02  4.03212E-02  4.13022E-02
#           4.23071E-02  4.33365E-02  4.43909E-02  4.54710E-02  4.65773E-02
#           4.77106E-02  4.88714E-02  5.00605E-02  5.12785E-02  5.25262E-02
#           5.38042E-02  5.51133E-02  5.64542E-02  5.78278E-02  5.92348E-02
#           6.06760E-02  6.21523E-02  6.36645E-02  6.52135E-02  6.68002E-02
#           6.84255E-02  7.00904E-02  7.17957E-02  7.35426E-02  7.53319E-02
#           7.71648E-02  7.90423E-02  8.09655E-02  8.29354E-02  8.49533E-02
#           8.70203E-02  8.91376E-02  9.13064E-02  9.35279E-02  9.58035E-02
#           9.81345E-02  1.00522E-01  1.02968E-01  1.05473E-01  1.08040E-01
#           1.10668E-01  1.13361E-01  1.16119E-01  1.18944E-01  1.21838E-01
#           1.24803E-01  1.27839E-01  1.30950E-01  1.34136E-01  1.37399E-01
#           1.40742E-01  1.44167E-01  1.47675E-01  1.51268E-01  1.54948E-01
#           1.58718E-01  1.62580E-01  1.66535E-01  1.70587E-01  1.74738E-01
#           1.78989E-01  1.83344E-01  1.87805E-01  1.92375E-01  1.97055E-01
#           2.01850E-01  2.06761E-01  2.11792E-01  2.16945E-01  2.22223E-01
#           2.27630E-01  2.33169E-01  2.38842E-01  2.44653E-01  2.50605E-01
#           2.56703E-01  2.62949E-01  2.69346E-01  2.75900E-01  2.82613E-01
#           2.89489E-01  2.96532E-01  3.03747E-01  3.11138E-01  3.18708E-01
#           3.26462E-01  3.34405E-01  3.42542E-01  3.50876E-01  3.59413E-01
#           3.68158E-01  3.77116E-01  3.86291E-01  3.95690E-01  4.05317E-01
#           4.15179E-01  4.25281E-01  4.35628E-01  4.46227E-01  4.57084E-01
#           4.68205E-01  4.79597E-01  4.91266E-01  5.03219E-01  5.15463E-01
#           5.28005E-01  5.40851E-01  5.54011E-01  5.67490E-01  5.81298E-01
#           5.95441E-01  6.09929E-01  6.24769E-01  6.39970E-01  6.55541E-01
#           6.71491E-01  6.87828E-01  7.04564E-01  7.21706E-01  7.39266E-01
#           7.57253E-01  7.75678E-01  7.94551E-01  8.13883E-01  8.33685E-01
#           8.53969E-01  8.74747E-01  8.96030E-01  9.17831E-01  9.40163E-01
#           9.63038E-01  9.86469E-01  1.01047E+00  1.03506E+00  1.06024E+00
#           1.08604E+00  1.11246E+00  1.13953E+00  1.16725E+00  1.19565E+00
#           1.22474E+00  1.25454E+00  1.28507E+00  1.31633E+00  1.34836E+00
#           1.38117E+00  1.41477E+00  1.44920E+00  1.48446E+00  1.52057E+00
#           1.55757E+00  1.59547E+00  1.63429E+00  1.67405E+00  1.71478E+00
#           1.75650E+00  1.79924E+00  1.84302E+00  1.88786E+00  1.93379E+00
#           1.98084E+00  2.02904E+00  2.07841E+00  2.12898E+00  2.18078E+00
#           2.23384E+00  2.28819E+00  2.34386E+00  2.40089E+00  2.45930E+00
#           2.51914E+00  2.58043E+00  2.64322E+00  2.70753E+00  2.77341E+00
#           2.84088E+00  2.91001E+00  2.98081E+00  3.05333E+00  3.12762E+00
#           3.20372E+00  3.28167E+00  3.36152E+00  3.44330E+00  3.52708E+00
#           3.61290E+00  3.70080E+00  3.79085E+00  3.88308E+00  3.97756E+00
#           4.07434E+00  4.17347E+00  4.27501E+00  4.37903E+00  4.48557E+00
#           4.59471E+00  4.70650E+00  4.82102E+00  4.93832E+00  5.05847E+00
#           5.18155E+00  5.30762E+00  5.43676E+00  5.56904E+00  5.70453E+00
#           5.84333E+00  5.98550E+00  6.13114E+00  6.28031E+00  6.43312E+00
#           6.58964E+00  6.74997E+00  6.91420E+00  7.08243E+00  7.25475E+00
#           7.43126E+00  7.61207E+00  7.79728E+00  7.98700E+00  8.18133E+00
#           8.38038E+00  8.58428E+00  8.79315E+00  9.00709E+00  9.22624E+00
#           9.45072E+00  9.68067E+00  9.91620E+00  1.01575E+01  1.04046E+01
#           1.06578E+01  1.09171E+01  1.11827E+01  1.14548E+01  1.17335E+01
#           1.20190E+01  1.23114E+01  1.26109E+01  1.29178E+01  1.32321E+01
#           1.35540E+01  1.38838E+01  1.42216E+01  1.45676E+01  1.49221E+01
#           1.52851E+01  1.56570E+01  1.60380E+01  1.64282E+01  1.68279E+01
#           1.72374E+01  1.76568E+01  1.80864E+01  1.85264E+01  1.89772E+01
#           1.94389E+01  1.99119E+01  2.03963E+01  2.08926E+01  2.14009E+01
#           2.19216E+01  2.24550E+01  2.30014E+01  2.35610E+01  2.41343E+01
#           2.47215E+01  2.53230E+01  2.59391E+01  2.65702E+01  2.72167E+01
#           2.78789E+01  2.85572E+01  2.92520E+01  2.99637E+01  3.06928E+01
#           3.14396E+01  3.22045E+01  3.29881E+01  3.37907E+01  3.46128E+01
#           3.54550E+01  3.63177E+01  3.72013E+01  3.81064E+01  3.90336E+01
#           3.99833E+01  4.09561E+01  4.19526E+01  4.29734E+01  4.40189E+01
#           4.50900E+01  4.61870E+01  4.73108E+01  4.84619E+01  4.96410E+01
#           5.08488E+01  5.20860E+01  5.33533E+01  5.46514E+01  5.59812E+01
#           5.73432E+01  5.87384E+01  6.01676E+01  6.16315E+01  6.31311E+01
#           6.46671E+01  6.62405E+01  6.78522E+01  6.95031E+01  7.11941E+01
#           7.29263E+01  7.47007E+01  7.65182E+01  7.83800E+01  8.02870E+01
#           8.22405E+01  8.42414E+01  8.62911E+01  8.83906E+01  9.05412E+01
#           9.27442E+01  9.50007E+01  9.73122E+01  9.96799E+01  1.02105E+02
#           1.04589E+02  1.07134E+02  1.09741E+02  1.12411E+02  1.15146E+02
#           1.17948E+02  1.20817E+02  1.23757E+02  1.26768E+02  1.29852E+02
#           1.33012E+02  1.36248E+02  1.39563E+02  1.42959E+02  1.46437E+02
#           1.50000E+02
     unit =    2            # unit is [1/cm^2/(MeV/n)/source]
     axis =  eng            # axis of output
     file = detector-16.out  # file name of output for the above axis
   output = f-curr          # surface crossing forward current spectrum
     part =  neutron  
# kf/name :  2112     
#    used :        main (  %)        temp (  %)       total (  %)
#  memory :         414 (  0)           0 (  0)         414 (  0)

#------------------------------------------------------------------------------
#newpage:
#   no. =    1   reg = 115 - 215

x: Energy [MeV/n]
y:  F-Curr [1/cm^2/(MeV/n)/source]         
p: xlog ylog afac(0.8) form(0.9)
h: n            x            y(neutron ),hh0l   n 
#  e-lower      e-upper      neutron     r.err 
   1.0000E-02   1.0243E-02   1.3229E-03  0.0451
   1.0243E-02   1.0493E-02   1.3625E-03  0.0440
   1.0493E-02   1.0748E-02   1.3247E-03  0.0441
   1.0748E-02   1.1009E-02   1.1697E-03  0.0463
   1.1009E-02   1.1277E-02   1.3089E-03  0.0433
   1.1277E-02   1.1552E-02   1.2685E-03  0.0435
   1.1552E-02   1.1833E-02   1.2641E-03  0.0430
   1.1833E-02   1.2121E-02   1.1016E-03  0.0455
   1.2121E-02   1.2415E-02   1.0363E-03  0.0463
   1.2415E-02   1.2718E-02   1.0988E-03  0.0446
   1.2718E-02   1.3027E-02   1.0573E-03  0.0448
   1.3027E-02   1.3344E-02   1.1504E-03  0.0425
   1.3344E-02   1.3669E-02   1.0359E-03  0.0442
   1.3669E-02   1.4001E-02   1.0646E-03  0.0431
   1.4001E-02   1.4342E-02   1.0091E-03  0.0438
   1.4342E-02   1.4691E-02   1.0057E-03  0.0433
   1.4691E-02   1.5048E-02   8.8411E-04  0.0456
   1.5048E-02   1.5414E-02   9.8502E-04  0.0427
   1.5414E-02   1.5789E-02   9.4868E-04  0.0430
   1.5789E-02   1.6174E-02   8.7588E-04  0.0442
   1.6174E-02   1.6567E-02   8.5891E-04  0.0442
   1.6567E-02   1.6970E-02   8.3994E-04  0.0441
   1.6970E-02   1.7383E-02   8.8833E-04  0.0424
   1.7383E-02   1.7806E-02   8.2548E-04  0.0434
   1.7806E-02   1.8239E-02   7.6011E-04  0.0447
   1.8239E-02   1.8683E-02   7.4442E-04  0.0446
   1.8683E-02   1.9138E-02   8.1644E-04  0.0422
   1.9138E-02   1.9603E-02   6.9865E-04  0.0450
   1.9603E-02   2.0080E-02   7.4453E-04  0.0431
   2.0080E-02   2.0569E-02   6.4274E-04  0.0457
   2.0569E-02   2.1069E-02   7.5977E-04  0.0417
   2.1069E-02   2.1582E-02   6.9729E-04  0.0429
   2.1582E-02   2.2107E-02   7.1165E-04  0.0420
   2.2107E-02   2.2645E-02   6.5279E-04  0.0433
   2.2645E-02   2.3196E-02   6.2275E-04  0.0438
   2.3196E-02   2.3760E-02   6.5925E-04  0.0420
   2.3760E-02   2.4338E-02   6.0908E-04  0.0431
   2.4338E-02   2.4930E-02   6.0914E-04  0.0427
   2.4930E-02   2.5537E-02   6.2047E-04  0.0418
   2.5537E-02   2.6158E-02   5.9627E-04  0.0422
   2.6158E-02   2.6795E-02   5.5661E-04  0.0431
   2.6795E-02   2.7447E-02   5.4312E-04  0.0431
   2.7447E-02   2.8114E-02   5.7068E-04  0.0416
   2.8114E-02   2.8799E-02   5.2493E-04  0.0428
   2.8799E-02   2.9499E-02   5.6262E-04  0.0409
   2.9499E-02   3.0217E-02   5.4828E-04  0.0409
   3.0217E-02   3.0952E-02   4.9332E-04  0.0425
   3.0952E-02   3.1705E-02   4.9178E-04  0.0421
   3.1705E-02   3.2477E-02   4.4253E-04  0.0439
   3.2477E-02   3.3267E-02   4.8309E-04  0.0414
   3.3267E-02   3.4076E-02   4.7744E-04  0.0411
   3.4076E-02   3.4905E-02   4.5459E-04  0.0417
   3.4905E-02   3.5755E-02   4.7508E-04  0.0404
   3.5755E-02   3.6625E-02   4.3719E-04  0.0416
   3.6625E-02   3.7516E-02   4.1636E-04  0.0421
   3.7516E-02   3.8428E-02   4.1169E-04  0.0419
   3.8428E-02   3.9363E-02   4.3458E-04  0.0402
   3.9363E-02   4.0321E-02   3.9886E-04  0.0415
   4.0321E-02   4.1302E-02   3.9332E-04  0.0413
   4.1302E-02   4.2307E-02   3.6445E-04  0.0424
   4.2307E-02   4.3337E-02   4.0496E-04  0.0398
   4.3337E-02   4.4391E-02   3.7171E-04  0.0410
   4.4391E-02   4.5471E-02   3.4588E-04  0.0419
   4.5471E-02   4.6577E-02   3.3904E-04  0.0419
   4.6577E-02   4.7711E-02   3.5108E-04  0.0407
   4.7711E-02   4.8871E-02   3.1498E-04  0.0424
   4.8871E-02   5.0061E-02   3.2381E-04  0.0414
   5.0061E-02   5.1279E-02   3.3252E-04  0.0404
   5.1279E-02   5.2526E-02   3.2013E-04  0.0405
   5.2526E-02   5.3804E-02   3.2981E-04  0.0395
   5.3804E-02   5.5113E-02   3.1817E-04  0.0397
   5.5113E-02   5.6454E-02   3.0433E-04  0.0402
   5.6454E-02   5.7828E-02   2.8930E-04  0.0407
   5.7828E-02   5.9235E-02   2.5605E-04  0.0426
   5.9235E-02   6.0676E-02   2.7864E-04  0.0405
   6.0676E-02   6.2152E-02   2.6780E-04  0.0409
   6.2152E-02   6.3665E-02   2.7997E-04  0.0394
   6.3665E-02   6.5214E-02   2.6295E-04  0.0402
   6.5214E-02   6.6800E-02   2.5946E-04  0.0400
   6.6800E-02   6.8426E-02   2.6365E-04  0.0392
   6.8426E-02   7.0090E-02   2.3734E-04  0.0408
   7.0090E-02   7.1796E-02   2.4659E-04  0.0396
   7.1796E-02   7.3543E-02   2.3616E-04  0.0399
   7.3543E-02   7.5332E-02   2.3530E-04  0.0395
   7.5332E-02   7.7165E-02   2.3205E-04  0.0392
   7.7165E-02   7.9042E-02   2.1222E-04  0.0406
   7.9042E-02   8.0965E-02   2.3591E-04  0.0381
   8.0965E-02   8.2935E-02   2.1442E-04  0.0394
   8.2935E-02   8.4953E-02   2.0054E-04  0.0403
   8.4953E-02   8.7020E-02   2.0075E-04  0.0398
   8.7020E-02   8.9138E-02   1.9091E-04  0.0404
   8.9138E-02   9.1306E-02   1.9646E-04  0.0393
   9.1306E-02   9.3528E-02   1.9309E-04  0.0391
   9.3528E-02   9.5804E-02   1.8559E-04  0.0394
   9.5804E-02   9.8134E-02   1.8268E-04  0.0392
   9.8134E-02   1.0052E-01   1.8312E-04  0.0388
   1.0052E-01   1.0297E-01   1.5407E-04  0.0417
   1.0297E-01   1.0547E-01   1.8330E-04  0.0378
   1.0547E-01   1.0804E-01   1.8177E-04  0.0375
   1.0804E-01   1.1067E-01   1.6279E-04  0.0392
   1.1067E-01   1.1336E-01   1.6462E-04  0.0385
   1.1336E-01   1.1612E-01   1.6233E-04  0.0383
   1.1612E-01   1.1894E-01   1.6215E-04  0.0379
   1.1894E-01   1.2184E-01   1.5278E-04  0.0385
   1.2184E-01   1.2480E-01   1.4749E-04  0.0388
   1.2480E-01   1.2784E-01   1.5108E-04  0.0379
   1.2784E-01   1.3095E-01   1.4312E-04  0.0384
   1.3095E-01   1.3414E-01   1.4895E-04  0.0373
   1.3414E-01   1.3740E-01   1.4191E-04  0.0377
   1.3740E-01   1.4074E-01   1.3919E-04  0.0375
   1.4074E-01   1.4417E-01   1.2635E-04  0.0390
   1.4417E-01   1.4767E-01   1.2481E-04  0.0388
   1.4767E-01   1.5127E-01   1.2166E-04  0.0388
   1.5127E-01   1.5495E-01   1.2520E-04  0.0377
   1.5495E-01   1.5872E-01   1.1746E-04  0.0386
   1.5872E-01   1.6258E-01   1.2600E-04  0.0367
   1.6258E-01   1.6654E-01   1.2221E-04  0.0369
   1.6654E-01   1.7059E-01   1.1776E-04  0.0371
   1.7059E-01   1.7474E-01   1.1454E-04  0.0371
   1.7474E-01   1.7899E-01   1.0519E-04  0.0383
   1.7899E-01   1.8334E-01   1.0163E-04  0.0386
   1.8334E-01   1.8781E-01   1.1965E-04  0.0351
   1.8781E-01   1.9237E-01   1.0770E-04  0.0366
   1.9237E-01   1.9706E-01   1.1088E-04  0.0356
   1.9706E-01   2.0185E-01   9.6733E-05  0.0376
   2.0185E-01   2.0676E-01   1.0598E-04  0.0355
   2.0676E-01   2.1179E-01   1.1258E-04  0.0341
   2.1179E-01   2.1694E-01   1.1597E-04  0.0332
   2.1694E-01   2.2222E-01   1.1798E-04  0.0325
   2.2222E-01   2.2763E-01   1.2021E-04  0.0318
   2.2763E-01   2.3317E-01   1.2997E-04  0.0302
   2.3317E-01   2.3884E-01   1.3443E-04  0.0293
   2.3884E-01   2.4465E-01   1.4216E-04  0.0282
   2.4465E-01   2.5061E-01   1.4453E-04  0.0276
   2.5061E-01   2.5670E-01   1.4304E-04  0.0275
   2.5670E-01   2.6295E-01   1.4988E-04  0.0265
   2.6295E-01   2.6935E-01   1.6021E-04  0.0253
   2.6935E-01   2.7590E-01   1.6780E-04  0.0244
   2.7590E-01   2.8261E-01   1.7347E-04  0.0237
   2.8261E-01   2.8949E-01   1.7620E-04  0.0233
   2.8949E-01   2.9653E-01   1.8260E-04  0.0226
   2.9653E-01   3.0375E-01   1.8930E-04  0.0219
   3.0375E-01   3.1114E-01   1.9947E-04  0.0211
   3.1114E-01   3.1871E-01   2.0634E-04  0.0205
   3.1871E-01   3.2646E-01   2.0582E-04  0.0203
   3.2646E-01   3.3441E-01   2.2138E-04  0.0193
   3.3441E-01   3.4254E-01   2.2649E-04  0.0189
   3.4254E-01   3.5088E-01   2.3447E-04  0.0183
   3.5088E-01   3.5941E-01   2.2714E-04  0.0184
   3.5941E-01   3.6816E-01   2.4519E-04  0.0175
   3.6816E-01   3.7712E-01   2.5387E-04  0.0170
   3.7712E-01   3.8629E-01   2.6630E-04  0.0164
   3.8629E-01   3.9569E-01   2.7062E-04  0.0161
   3.9569E-01   4.0532E-01   2.8885E-04  0.0154
   4.0532E-01   4.1518E-01   2.8309E-04  0.0153
   4.1518E-01   4.2528E-01   3.0288E-04  0.0146
   4.2528E-01   4.3563E-01   3.1315E-04  0.0142
   4.3563E-01   4.4623E-01   3.2313E-04  0.0138
   4.4623E-01   4.5708E-01   3.2816E-04  0.0136
   4.5708E-01   4.6821E-01   3.3592E-04  0.0132
   4.6821E-01   4.7960E-01   3.5183E-04  0.0128
   4.7960E-01   4.9127E-01   3.5357E-04  0.0126
   4.9127E-01   5.0322E-01   3.7222E-04  0.0121
   5.0322E-01   5.1546E-01   3.7316E-04  0.0120
   5.1546E-01   5.2800E-01   3.7699E-04  0.0118
   5.2800E-01   5.4085E-01   3.9294E-04  0.0114
   5.4085E-01   5.5401E-01   4.1080E-04  0.0110
   5.5401E-01   5.6749E-01   4.2293E-04  0.0107
   5.6749E-01   5.8130E-01   4.3800E-04  0.0104
   5.8130E-01   5.9544E-01   4.4323E-04  0.0102
   5.9544E-01   6.0993E-01   4.6220E-04  0.0099
   6.0993E-01   6.2477E-01   4.6563E-04  0.0097
   6.2477E-01   6.3997E-01   4.7777E-04  0.0095
   6.3997E-01   6.5554E-01   4.8624E-04  0.0093
   6.5554E-01   6.7149E-01   4.9428E-04  0.0091
   6.7149E-01   6.8783E-01   5.0719E-04  0.0089
   6.8783E-01   7.0456E-01   5.2724E-04  0.0086
   7.0456E-01   7.2171E-01   5.3817E-04  0.0084
   7.2171E-01   7.3927E-01   5.4638E-04  0.0083
   7.3927E-01   7.5725E-01   5.6138E-04  0.0081
   7.5725E-01   7.7568E-01   5.7112E-04  0.0079
   7.7568E-01   7.9455E-01   5.8273E-04  0.0077
   7.9455E-01   8.1388E-01   5.9625E-04  0.0075
   8.1388E-01   8.3368E-01   6.0579E-04  0.0074
   8.3368E-01   8.5397E-01   6.1530E-04  0.0072
   8.5397E-01   8.7475E-01   6.3056E-04  0.0071
   8.7475E-01   8.9603E-01   6.3897E-04  0.0069
   8.9603E-01   9.1783E-01   6.4876E-04  0.0068
   9.1783E-01   9.4016E-01   6.6150E-04  0.0067
   9.4016E-01   9.6304E-01   6.7251E-04  0.0065
   9.6304E-01   9.8647E-01   6.8785E-04  0.0064
   9.8647E-01   1.0105E+00   6.9275E-04  0.0063
   1.0105E+00   1.0351E+00   6.8893E-04  0.0062
   1.0351E+00   1.0602E+00   6.9614E-04  0.0061
   1.0602E+00   1.0860E+00   6.9196E-04  0.0061
   1.0860E+00   1.1125E+00   7.0508E-04  0.0059
   1.1125E+00   1.1395E+00   7.0212E-04  0.0059
   1.1395E+00   1.1673E+00   7.1701E-04  0.0057
   1.1673E+00   1.1957E+00   7.2219E-04  0.0056
   1.1957E+00   1.2247E+00   7.3477E-04  0.0055
   1.2247E+00   1.2545E+00   7.2506E-04  0.0055
   1.2545E+00   1.2851E+00   7.2709E-04  0.0054
   1.2851E+00   1.3163E+00   7.2374E-04  0.0054
   1.3163E+00   1.3484E+00   7.2664E-04  0.0053
   1.3484E+00   1.3812E+00   7.3862E-04  0.0052
   1.3812E+00   1.4148E+00   7.3911E-04  0.0051
   1.4148E+00   1.4492E+00   7.4873E-04  0.0050
   1.4492E+00   1.4845E+00   7.5192E-04  0.0050
   1.4845E+00   1.5206E+00   7.5033E-04  0.0049
   1.5206E+00   1.5576E+00   7.4249E-04  0.0049
   1.5576E+00   1.5955E+00   7.3183E-04  0.0049
   1.5955E+00   1.6343E+00   7.2460E-04  0.0048
   1.6343E+00   1.6741E+00   7.0974E-04  0.0048
   1.6741E+00   1.7148E+00   7.0759E-04  0.0048
   1.7148E+00   1.7565E+00   7.0741E-04  0.0047
   1.7565E+00   1.7992E+00   7.0706E-04  0.0046
   1.7992E+00   1.8430E+00   7.0413E-04  0.0046
   1.8430E+00   1.8879E+00   6.8821E-04  0.0046
   1.8879E+00   1.9338E+00   6.8484E-04  0.0046
   1.9338E+00   1.9808E+00   6.8353E-04  0.0045
   1.9808E+00   2.0290E+00   6.8396E-04  0.0044
   2.0290E+00   2.0784E+00   6.7066E-04  0.0044
   2.0784E+00   2.1290E+00   6.5729E-04  0.0044
   2.1290E+00   2.1808E+00   6.4409E-04  0.0044
   2.1808E+00   2.2338E+00   6.3223E-04  0.0044
   2.2338E+00   2.2882E+00   6.1754E-04  0.0044
   2.2882E+00   2.3439E+00   6.1255E-04  0.0044
   2.3439E+00   2.4009E+00   5.9793E-04  0.0044
   2.4009E+00   2.4593E+00   5.9292E-04  0.0043
   2.4593E+00   2.5191E+00   5.9722E-04  0.0043
   2.5191E+00   2.5804E+00   5.8044E-04  0.0043
   2.5804E+00   2.6432E+00   5.6850E-04  0.0043
   2.6432E+00   2.7075E+00   5.5448E-04  0.0043
   2.7075E+00   2.7734E+00   5.4285E-04  0.0043
   2.7734E+00   2.8409E+00   5.3047E-04  0.0043
   2.8409E+00   2.9100E+00   5.1532E-04  0.0043
   2.9100E+00   2.9808E+00   5.1330E-04  0.0042
   2.9808E+00   3.0533E+00   5.0315E-04  0.0042
   3.0533E+00   3.1276E+00   4.9215E-04  0.0042
   3.1276E+00   3.2037E+00   4.7846E-04  0.0042
   3.2037E+00   3.2817E+00   4.6742E-04  0.0042
   3.2817E+00   3.3615E+00   4.5536E-04  0.0042
   3.3615E+00   3.4433E+00   4.4674E-04  0.0042
   3.4433E+00   3.5271E+00   4.3621E-04  0.0042
   3.5271E+00   3.6129E+00   4.2967E-04  0.0042
   3.6129E+00   3.7008E+00   4.1000E-04  0.0043
   3.7008E+00   3.7908E+00   4.0460E-04  0.0042
   3.7908E+00   3.8831E+00   3.9734E-04  0.0042
   3.8831E+00   3.9776E+00   3.8888E-04  0.0042
   3.9776E+00   4.0743E+00   3.7875E-04  0.0042
   4.0743E+00   4.1735E+00   3.6935E-04  0.0042
   4.1735E+00   4.2750E+00   3.6238E-04  0.0042
   4.2750E+00   4.3790E+00   3.5563E-04  0.0042
   4.3790E+00   4.4856E+00   3.5047E-04  0.0042
   4.4856E+00   4.5947E+00   3.4214E-04  0.0042
   4.5947E+00   4.7065E+00   3.3413E-04  0.0042
   4.7065E+00   4.8210E+00   3.2728E-04  0.0042
   4.8210E+00   4.9383E+00   3.1745E-04  0.0042
   4.9383E+00   5.0585E+00   3.1622E-04  0.0041
   5.0585E+00   5.1815E+00   3.1367E-04  0.0041
   5.1815E+00   5.3076E+00   3.0333E-04  0.0041
   5.3076E+00   5.4368E+00   2.9645E-04  0.0041
   5.4368E+00   5.5690E+00   2.8732E-04  0.0042
   5.5690E+00   5.7045E+00   2.7548E-04  0.0042
   5.7045E+00   5.8433E+00   2.6988E-04  0.0042
   5.8433E+00   5.9855E+00   2.6262E-04  0.0042
   5.9855E+00   6.1311E+00   2.5481E-04  0.0042
   6.1311E+00   6.2803E+00   2.4865E-04  0.0042
   6.2803E+00   6.4331E+00   2.3889E-04  0.0042
   6.4331E+00   6.5896E+00   2.3358E-04  0.0042
   6.5896E+00   6.7500E+00   2.2410E-04  0.0043
   6.7500E+00   6.9142E+00   2.1846E-04  0.0043
   6.9142E+00   7.0824E+00   2.1286E-04  0.0043
   7.0824E+00   7.2548E+00   2.0455E-04  0.0043
   7.2548E+00   7.4313E+00   1.9802E-04  0.0043
   7.4313E+00   7.6121E+00   1.9430E-04  0.0043
   7.6121E+00   7.7973E+00   1.8720E-04  0.0044
   7.7973E+00   7.9870E+00   1.8254E-04  0.0044
   7.9870E+00   8.1813E+00   1.7639E-04  0.0044
   8.1813E+00   8.3804E+00   1.7092E-04  0.0044
   8.3804E+00   8.5843E+00   1.6522E-04  0.0044
   8.5843E+00   8.7931E+00   1.5989E-04  0.0044
   8.7931E+00   9.0071E+00   1.5582E-04  0.0045
   9.0071E+00   9.2262E+00   1.5092E-04  0.0045
   9.2262E+00   9.4507E+00   1.4522E-04  0.0045
   9.4507E+00   9.6807E+00   1.4129E-04  0.0045
   9.6807E+00   9.9162E+00   1.3517E-04  0.0046
   9.9162E+00   1.0157E+01   1.3039E-04  0.0046
   1.0157E+01   1.0405E+01   1.2721E-04  0.0046
   1.0405E+01   1.0658E+01   1.2251E-04  0.0046
   1.0658E+01   1.0917E+01   1.1869E-04  0.0046
   1.0917E+01   1.1183E+01   1.1399E-04  0.0047
   1.1183E+01   1.1455E+01   1.0927E-04  0.0047
   1.1455E+01   1.1733E+01   1.0498E-04  0.0048
   1.1733E+01   1.2019E+01   1.0185E-04  0.0048
   1.2019E+01   1.2311E+01   9.7563E-05  0.0048
   1.2311E+01   1.2611E+01   9.4542E-05  0.0048
   1.2611E+01   1.2918E+01   9.1092E-05  0.0049
   1.2918E+01   1.3232E+01   8.6731E-05  0.0049
   1.3232E+01   1.3554E+01   8.3179E-05  0.0050
   1.3554E+01   1.3884E+01   7.9422E-05  0.0050
   1.3884E+01   1.4222E+01   7.5871E-05  0.0051
   1.4222E+01   1.4568E+01   7.3822E-05  0.0051
   1.4568E+01   1.4922E+01   7.1371E-05  0.0051
   1.4922E+01   1.5285E+01   6.7233E-05  0.0052
   1.5285E+01   1.5657E+01   6.4335E-05  0.0053
   1.5657E+01   1.6038E+01   6.1710E-05  0.0053
   1.6038E+01   1.6428E+01   5.8430E-05  0.0054
   1.6428E+01   1.6828E+01   5.5886E-05  0.0055
   1.6828E+01   1.7237E+01   5.3880E-05  0.0055
   1.7237E+01   1.7657E+01   5.1298E-05  0.0056
   1.7657E+01   1.8086E+01   4.8874E-05  0.0056
   1.8086E+01   1.8526E+01   4.6686E-05  0.0057
   1.8526E+01   1.8977E+01   4.4675E-05  0.0058
   1.8977E+01   1.9439E+01   4.3259E-05  0.0058
   1.9439E+01   1.9912E+01   4.3132E-05  0.0057
   1.9912E+01   2.0396E+01   4.2267E-05  0.0057
   2.0396E+01   2.0893E+01   4.0049E-05  0.0058
   2.0893E+01   2.1401E+01   3.7628E-05  0.0059
   2.1401E+01   2.1922E+01   3.5649E-05  0.0060
   2.1922E+01   2.2455E+01   3.3930E-05  0.0061
   2.2455E+01   2.3001E+01   3.1953E-05  0.0062
   2.3001E+01   2.3561E+01   2.9855E-05  0.0063
   2.3561E+01   2.4134E+01   2.8258E-05  0.0064
   2.4134E+01   2.4721E+01   2.6238E-05  0.0066
   2.4721E+01   2.5323E+01   2.5032E-05  0.0067
   2.5323E+01   2.5939E+01   2.2978E-05  0.0069
   2.5939E+01   2.6570E+01   2.1479E-05  0.0070
   2.6570E+01   2.7217E+01   2.0045E-05  0.0072
   2.7217E+01   2.7879E+01   1.8650E-05  0.0073
   2.7879E+01   2.8557E+01   1.7216E-05  0.0076
   2.8557E+01   2.9252E+01   1.5746E-05  0.0078
   2.9252E+01   2.9964E+01   1.4563E-05  0.0080
   2.9964E+01   3.0693E+01   1.3452E-05  0.0082
   3.0693E+01   3.1440E+01   1.2300E-05  0.0085
   3.1440E+01   3.2205E+01   1.1333E-05  0.0088
   3.2205E+01   3.2988E+01   1.0255E-05  0.0091
   3.2988E+01   3.3791E+01   9.4025E-06  0.0094
   3.3791E+01   3.4613E+01   8.6180E-06  0.0097
   3.4613E+01   3.5455E+01   7.8093E-06  0.0101
   3.5455E+01   3.6318E+01   7.1910E-06  0.0104
   3.6318E+01   3.7201E+01   6.5215E-06  0.0108
   3.7201E+01   3.8106E+01   5.8429E-06  0.0112
   3.8106E+01   3.9034E+01   5.1347E-06  0.0118
   3.9034E+01   3.9983E+01   4.7024E-06  0.0122
   3.9983E+01   4.0956E+01   4.2892E-06  0.0126
   4.0956E+01   4.1953E+01   3.7338E-06  0.0134
   4.1953E+01   4.2973E+01   3.3466E-06  0.0140
   4.2973E+01   4.4019E+01   3.0605E-06  0.0144
   4.4019E+01   4.5090E+01   2.6903E-06  0.0152
   4.5090E+01   4.6187E+01   2.3936E-06  0.0159
   4.6187E+01   4.7311E+01   2.2134E-06  0.0164
   4.7311E+01   4.8462E+01   1.9043E-06  0.0174
   4.8462E+01   4.9641E+01   1.7493E-06  0.0180
   4.9641E+01   5.0849E+01   1.4920E-06  0.0192
   5.0849E+01   5.2086E+01   1.3148E-06  0.0202
   5.2086E+01   5.3353E+01   1.1242E-06  0.0216
   5.3353E+01   5.4651E+01   1.0009E-06  0.0227
   5.4651E+01   5.5981E+01   8.8741E-07  0.0238
   5.5981E+01   5.7343E+01   7.5816E-07  0.0254
   5.7343E+01   5.8738E+01   6.3360E-07  0.0275
   5.8738E+01   6.0168E+01   5.3831E-07  0.0294
   6.0168E+01   6.1632E+01   4.4948E-07  0.0318
   6.1632E+01   6.3131E+01   3.6767E-07  0.0348
   6.3131E+01   6.4667E+01   3.1553E-07  0.0371
   6.4667E+01   6.6240E+01   2.3770E-07  0.0422
   6.6240E+01   6.7852E+01   1.7952E-07  0.0480
   6.7852E+01   6.9503E+01   1.4538E-07  0.0527
   6.9503E+01   7.1194E+01   1.0605E-07  0.0610
   7.1194E+01   7.2926E+01   7.9667E-08  0.0695
   7.2926E+01   7.4701E+01   6.0116E-08  0.0791
   7.4701E+01   7.6518E+01   4.1448E-08  0.0941
   7.6518E+01   7.8380E+01   3.1512E-08  0.1066
   7.8380E+01   8.0287E+01   2.3072E-08  0.1231
   8.0287E+01   8.2240E+01   1.6040E-08  0.1459
   8.2240E+01   8.4241E+01   1.0328E-08  0.1796
   8.4241E+01   8.6291E+01   5.2041E-09  0.2500
   8.6291E+01   8.8391E+01   2.5403E-09  0.3536
   8.8391E+01   9.0541E+01   1.8599E-09  0.4082
   9.0541E+01   9.2744E+01   1.2105E-09  0.5000
   9.2744E+01   9.5001E+01   2.9544E-10  1.0000
   9.5001E+01   9.7312E+01   0.0000E+00  0.0000
   9.7312E+01   9.9680E+01   5.6314E-10  0.7071
   9.9680E+01   1.0211E+02   0.0000E+00  0.0000
   1.0211E+02   1.0459E+02   0.0000E+00  0.0000
   1.0459E+02   1.0713E+02   0.0000E+00  0.0000
   1.0713E+02   1.0974E+02   0.0000E+00  0.0000
   1.0974E+02   1.1241E+02   0.0000E+00  0.0000
   1.1241E+02   1.1515E+02   0.0000E+00  0.0000
   1.1515E+02   1.1795E+02   0.0000E+00  0.0000
   1.1795E+02   1.2082E+02   0.0000E+00  0.0000
   1.2082E+02   1.2376E+02   0.0000E+00  0.0000
   1.2376E+02   1.2677E+02   0.0000E+00  0.0000
   1.2677E+02   1.2985E+02   0.0000E+00  0.0000
   1.2985E+02   1.3301E+02   0.0000E+00  0.0000
   1.3301E+02   1.3625E+02   0.0000E+00  0.0000
   1.3625E+02   1.3956E+02   0.0000E+00  0.0000
   1.3956E+02   1.4296E+02   0.0000E+00  0.0000
   1.4296E+02   1.4644E+02   0.0000E+00  0.0000
   1.4644E+02   1.5000E+02   0.0000E+00  0.0000

#   sum over                 3.0826E-05
'no. =    1   reg = 115 - 215'
msuc: {\huge [t-cross] in region mesh}
msdr: {\it plotted by \ANGEL \version}
msdl: {\it calculated by \PHITS  3.26}
wt: s(0.7)
\vspace{-3}
  region surface crossing
  area  &=&   1.0000E+00 [cm^2]
e:
 
# Information for Restart Calculation
# This calculation was newly started
# istdev =  2 # 1:Batch variance, 2:History variance
# resc2  = 1.50000000000000000E+09 # Total source weight or Total source weight / maxcas
# resc3  = 1.50000000000000000E+09 # Total history number or Total batch number
# maxcas =   500000000 # History / Batch, only used for istdev=1
# bitrseed = 0000010101110101110110100110011001100101000001100111100100101101 # bit data of rseed
