[ T-Cross ]
    title = [t-cross] in region mesh
     mesh =  reg            # mesh type is region-wise
      reg =    1            # number of crossing regions
      non     r-from    r-to       area
      1       116       216        1.000000    
   e-type =    3            # e-mesh is log given by emin, emax and ne
     emin =  1.0000000E-02  # minimum value of e-mesh points
     emax =   150.0000      # maximum value of e-mesh points
#    edel =  2.4039514E-02  # mesh width of e-mesh points
       ne =    400          # number of e-mesh points
#    data = ( e(i), i = 1, ne + 1 )
#           1.00000E-02  1.02433E-02  1.04925E-02  1.07478E-02  1.10093E-02
#           1.12772E-02  1.15516E-02  1.18326E-02  1.21205E-02  1.24154E-02
#           1.27175E-02  1.30269E-02  1.33439E-02  1.36686E-02  1.40011E-02
#           1.43418E-02  1.46907E-02  1.50482E-02  1.54143E-02  1.57894E-02
#           1.61735E-02  1.65670E-02  1.69701E-02  1.73830E-02  1.78060E-02
#           1.82392E-02  1.86830E-02  1.91375E-02  1.96032E-02  2.00801E-02
#           2.05687E-02  2.10692E-02  2.15818E-02  2.21069E-02  2.26448E-02
#           2.31957E-02  2.37601E-02  2.43382E-02  2.49304E-02  2.55369E-02
#           2.61583E-02  2.67947E-02  2.74467E-02  2.81145E-02  2.87985E-02
#           2.94992E-02  3.02169E-02  3.09521E-02  3.17052E-02  3.24766E-02
#           3.32668E-02  3.40762E-02  3.49053E-02  3.57546E-02  3.66246E-02
#           3.75157E-02  3.84284E-02  3.93634E-02  4.03212E-02  4.13022E-02
#           4.23071E-02  4.33365E-02  4.43909E-02  4.54710E-02  4.65773E-02
#           4.77106E-02  4.88714E-02  5.00605E-02  5.12785E-02  5.25262E-02
#           5.38042E-02  5.51133E-02  5.64542E-02  5.78278E-02  5.92348E-02
#           6.06760E-02  6.21523E-02  6.36645E-02  6.52135E-02  6.68002E-02
#           6.84255E-02  7.00904E-02  7.17957E-02  7.35426E-02  7.53319E-02
#           7.71648E-02  7.90423E-02  8.09655E-02  8.29354E-02  8.49533E-02
#           8.70203E-02  8.91376E-02  9.13064E-02  9.35279E-02  9.58035E-02
#           9.81345E-02  1.00522E-01  1.02968E-01  1.05473E-01  1.08040E-01
#           1.10668E-01  1.13361E-01  1.16119E-01  1.18944E-01  1.21838E-01
#           1.24803E-01  1.27839E-01  1.30950E-01  1.34136E-01  1.37399E-01
#           1.40742E-01  1.44167E-01  1.47675E-01  1.51268E-01  1.54948E-01
#           1.58718E-01  1.62580E-01  1.66535E-01  1.70587E-01  1.74738E-01
#           1.78989E-01  1.83344E-01  1.87805E-01  1.92375E-01  1.97055E-01
#           2.01850E-01  2.06761E-01  2.11792E-01  2.16945E-01  2.22223E-01
#           2.27630E-01  2.33169E-01  2.38842E-01  2.44653E-01  2.50605E-01
#           2.56703E-01  2.62949E-01  2.69346E-01  2.75900E-01  2.82613E-01
#           2.89489E-01  2.96532E-01  3.03747E-01  3.11138E-01  3.18708E-01
#           3.26462E-01  3.34405E-01  3.42542E-01  3.50876E-01  3.59413E-01
#           3.68158E-01  3.77116E-01  3.86291E-01  3.95690E-01  4.05317E-01
#           4.15179E-01  4.25281E-01  4.35628E-01  4.46227E-01  4.57084E-01
#           4.68205E-01  4.79597E-01  4.91266E-01  5.03219E-01  5.15463E-01
#           5.28005E-01  5.40851E-01  5.54011E-01  5.67490E-01  5.81298E-01
#           5.95441E-01  6.09929E-01  6.24769E-01  6.39970E-01  6.55541E-01
#           6.71491E-01  6.87828E-01  7.04564E-01  7.21706E-01  7.39266E-01
#           7.57253E-01  7.75678E-01  7.94551E-01  8.13883E-01  8.33685E-01
#           8.53969E-01  8.74747E-01  8.96030E-01  9.17831E-01  9.40163E-01
#           9.63038E-01  9.86469E-01  1.01047E+00  1.03506E+00  1.06024E+00
#           1.08604E+00  1.11246E+00  1.13953E+00  1.16725E+00  1.19565E+00
#           1.22474E+00  1.25454E+00  1.28507E+00  1.31633E+00  1.34836E+00
#           1.38117E+00  1.41477E+00  1.44920E+00  1.48446E+00  1.52057E+00
#           1.55757E+00  1.59547E+00  1.63429E+00  1.67405E+00  1.71478E+00
#           1.75650E+00  1.79924E+00  1.84302E+00  1.88786E+00  1.93379E+00
#           1.98084E+00  2.02904E+00  2.07841E+00  2.12898E+00  2.18078E+00
#           2.23384E+00  2.28819E+00  2.34386E+00  2.40089E+00  2.45930E+00
#           2.51914E+00  2.58043E+00  2.64322E+00  2.70753E+00  2.77341E+00
#           2.84088E+00  2.91001E+00  2.98081E+00  3.05333E+00  3.12762E+00
#           3.20372E+00  3.28167E+00  3.36152E+00  3.44330E+00  3.52708E+00
#           3.61290E+00  3.70080E+00  3.79085E+00  3.88308E+00  3.97756E+00
#           4.07434E+00  4.17347E+00  4.27501E+00  4.37903E+00  4.48557E+00
#           4.59471E+00  4.70650E+00  4.82102E+00  4.93832E+00  5.05847E+00
#           5.18155E+00  5.30762E+00  5.43676E+00  5.56904E+00  5.70453E+00
#           5.84333E+00  5.98550E+00  6.13114E+00  6.28031E+00  6.43312E+00
#           6.58964E+00  6.74997E+00  6.91420E+00  7.08243E+00  7.25475E+00
#           7.43126E+00  7.61207E+00  7.79728E+00  7.98700E+00  8.18133E+00
#           8.38038E+00  8.58428E+00  8.79315E+00  9.00709E+00  9.22624E+00
#           9.45072E+00  9.68067E+00  9.91620E+00  1.01575E+01  1.04046E+01
#           1.06578E+01  1.09171E+01  1.11827E+01  1.14548E+01  1.17335E+01
#           1.20190E+01  1.23114E+01  1.26109E+01  1.29178E+01  1.32321E+01
#           1.35540E+01  1.38838E+01  1.42216E+01  1.45676E+01  1.49221E+01
#           1.52851E+01  1.56570E+01  1.60380E+01  1.64282E+01  1.68279E+01
#           1.72374E+01  1.76568E+01  1.80864E+01  1.85264E+01  1.89772E+01
#           1.94389E+01  1.99119E+01  2.03963E+01  2.08926E+01  2.14009E+01
#           2.19216E+01  2.24550E+01  2.30014E+01  2.35610E+01  2.41343E+01
#           2.47215E+01  2.53230E+01  2.59391E+01  2.65702E+01  2.72167E+01
#           2.78789E+01  2.85572E+01  2.92520E+01  2.99637E+01  3.06928E+01
#           3.14396E+01  3.22045E+01  3.29881E+01  3.37907E+01  3.46128E+01
#           3.54550E+01  3.63177E+01  3.72013E+01  3.81064E+01  3.90336E+01
#           3.99833E+01  4.09561E+01  4.19526E+01  4.29734E+01  4.40189E+01
#           4.50900E+01  4.61870E+01  4.73108E+01  4.84619E+01  4.96410E+01
#           5.08488E+01  5.20860E+01  5.33533E+01  5.46514E+01  5.59812E+01
#           5.73432E+01  5.87384E+01  6.01676E+01  6.16315E+01  6.31311E+01
#           6.46671E+01  6.62405E+01  6.78522E+01  6.95031E+01  7.11941E+01
#           7.29263E+01  7.47007E+01  7.65182E+01  7.83800E+01  8.02870E+01
#           8.22405E+01  8.42414E+01  8.62911E+01  8.83906E+01  9.05412E+01
#           9.27442E+01  9.50007E+01  9.73122E+01  9.96799E+01  1.02105E+02
#           1.04589E+02  1.07134E+02  1.09741E+02  1.12411E+02  1.15146E+02
#           1.17948E+02  1.20817E+02  1.23757E+02  1.26768E+02  1.29852E+02
#           1.33012E+02  1.36248E+02  1.39563E+02  1.42959E+02  1.46437E+02
#           1.50000E+02
     unit =    2            # unit is [1/cm^2/(MeV/n)/source]
     axis =  eng            # axis of output
     file = detector-17.out  # file name of output for the above axis
   output = f-curr          # surface crossing forward current spectrum
     part =  neutron  
# kf/name :  2112     
#    used :        main (  %)        temp (  %)       total (  %)
#  memory :         414 (  0)           0 (  0)         414 (  0)

#------------------------------------------------------------------------------
#newpage:
#   no. =    1   reg = 116 - 216

x: Energy [MeV/n]
y:  F-Curr [1/cm^2/(MeV/n)/source]         
p: xlog ylog afac(0.8) form(0.9)
h: n            x            y(neutron ),hh0l   n 
#  e-lower      e-upper      neutron     r.err 
   1.0000E-02   1.0243E-02   3.7260E-03  0.0469
   1.0243E-02   1.0493E-02   3.9722E-03  0.0449
   1.0493E-02   1.0748E-02   4.1402E-03  0.0434
   1.0748E-02   1.1009E-02   3.7977E-03  0.0448
   1.1009E-02   1.1277E-02   3.6230E-03  0.0454
   1.1277E-02   1.1552E-02   3.7594E-03  0.0440
   1.1552E-02   1.1833E-02   3.6181E-03  0.0443
   1.1833E-02   1.2121E-02   3.4058E-03  0.0451
   1.2121E-02   1.2415E-02   3.1712E-03  0.0462
   1.2415E-02   1.2718E-02   3.4045E-03  0.0441
   1.2718E-02   1.3027E-02   3.2715E-03  0.0444
   1.3027E-02   1.3344E-02   3.4601E-03  0.0426
   1.3344E-02   1.3669E-02   2.9293E-03  0.0458
   1.3669E-02   1.4001E-02   3.2894E-03  0.0427
   1.4001E-02   1.4342E-02   3.3111E-03  0.0420
   1.4342E-02   1.4691E-02   3.0080E-03  0.0436
   1.4691E-02   1.5048E-02   3.0537E-03  0.0427
   1.5048E-02   1.5414E-02   2.9515E-03  0.0429
   1.5414E-02   1.5789E-02   3.2339E-03  0.0406
   1.5789E-02   1.6174E-02   2.9787E-03  0.0417
   1.6174E-02   1.6567E-02   2.6927E-03  0.0434
   1.6567E-02   1.6970E-02   2.6075E-03  0.0435
   1.6970E-02   1.7383E-02   2.6746E-03  0.0425
   1.7383E-02   1.7806E-02   2.7711E-03  0.0413
   1.7806E-02   1.8239E-02   2.6908E-03  0.0414
   1.8239E-02   1.8683E-02   2.4449E-03  0.0428
   1.8683E-02   1.9138E-02   2.4415E-03  0.0424
   1.9138E-02   1.9603E-02   2.4286E-03  0.0420
   1.9603E-02   2.0080E-02   2.3240E-03  0.0424
   2.0080E-02   2.0569E-02   2.2188E-03  0.0429
   2.0569E-02   2.1069E-02   2.3378E-03  0.0413
   2.1069E-02   2.1582E-02   2.1983E-03  0.0421
   2.1582E-02   2.2107E-02   2.1942E-03  0.0416
   2.2107E-02   2.2645E-02   2.2215E-03  0.0408
   2.2645E-02   2.3196E-02   2.1604E-03  0.0409
   2.3196E-02   2.3760E-02   2.0331E-03  0.0417
   2.3760E-02   2.4338E-02   2.0214E-03  0.0413
   2.4338E-02   2.4930E-02   2.1463E-03  0.0396
   2.4930E-02   2.5537E-02   1.9772E-03  0.0408
   2.5537E-02   2.6158E-02   1.9270E-03  0.0408
   2.6158E-02   2.6795E-02   1.8437E-03  0.0412
   2.6795E-02   2.7447E-02   1.8587E-03  0.0406
   2.7447E-02   2.8114E-02   1.9293E-03  0.0393
   2.8114E-02   2.8799E-02   1.8057E-03  0.0401
   2.8799E-02   2.9499E-02   1.8191E-03  0.0395
   2.9499E-02   3.0217E-02   1.8065E-03  0.0392
   3.0217E-02   3.0952E-02   1.6229E-03  0.0409
   3.0952E-02   3.1705E-02   1.6266E-03  0.0403
   3.1705E-02   3.2477E-02   1.6294E-03  0.0398
   3.2477E-02   3.3267E-02   1.6609E-03  0.0390
   3.3267E-02   3.4076E-02   1.6540E-03  0.0386
   3.4076E-02   3.4905E-02   1.4985E-03  0.0401
   3.4905E-02   3.5755E-02   1.5345E-03  0.0391
   3.5755E-02   3.6625E-02   1.5552E-03  0.0384
   3.6625E-02   3.7516E-02   1.4129E-03  0.0398
   3.7516E-02   3.8428E-02   1.4860E-03  0.0383
   3.8428E-02   3.9363E-02   1.4111E-03  0.0389
   3.9363E-02   4.0321E-02   1.3977E-03  0.0386
   4.0321E-02   4.1302E-02   1.2595E-03  0.0401
   4.1302E-02   4.2307E-02   1.3605E-03  0.0382
   4.2307E-02   4.3337E-02   1.2896E-03  0.0387
   4.3337E-02   4.4391E-02   1.3106E-03  0.0380
   4.4391E-02   4.5471E-02   1.2548E-03  0.0383
   4.5471E-02   4.6577E-02   1.2841E-03  0.0374
   4.6577E-02   4.7711E-02   1.1946E-03  0.0384
   4.7711E-02   4.8871E-02   1.1683E-03  0.0383
   4.8871E-02   5.0061E-02   1.1718E-03  0.0378
   5.0061E-02   5.1279E-02   1.1183E-03  0.0382
   5.1279E-02   5.2526E-02   1.0871E-03  0.0383
   5.2526E-02   5.3804E-02   1.1038E-03  0.0376
   5.3804E-02   5.5113E-02   1.0770E-03  0.0376
   5.5113E-02   5.6454E-02   1.0583E-03  0.0375
   5.6454E-02   5.7828E-02   9.9800E-04  0.0381
   5.7828E-02   5.9235E-02   1.0454E-03  0.0368
   5.9235E-02   6.0676E-02   9.7132E-04  0.0377
   6.0676E-02   6.2152E-02   9.9351E-04  0.0369
   6.2152E-02   6.3665E-02   9.2515E-04  0.0378
   6.3665E-02   6.5214E-02   9.0250E-04  0.0378
   6.5214E-02   6.6800E-02   8.4817E-04  0.0385
   6.6800E-02   6.8426E-02   8.9994E-04  0.0369
   6.8426E-02   7.0090E-02   8.7204E-04  0.0370
   7.0090E-02   7.1796E-02   8.6938E-04  0.0367
   7.1796E-02   7.3543E-02   8.6750E-04  0.0362
   7.3543E-02   7.5332E-02   8.0593E-04  0.0372
   7.5332E-02   7.7165E-02   8.3961E-04  0.0360
   7.7165E-02   7.9042E-02   8.2554E-04  0.0359
   7.9042E-02   8.0965E-02   7.6941E-04  0.0367
   8.0965E-02   8.2935E-02   8.0118E-04  0.0355
   8.2935E-02   8.4953E-02   7.4947E-04  0.0363
   8.4953E-02   8.7020E-02   7.2980E-04  0.0363
   8.7020E-02   8.9138E-02   7.0764E-04  0.0364
   8.9138E-02   9.1306E-02   6.9935E-04  0.0362
   9.1306E-02   9.3528E-02   6.8268E-04  0.0362
   9.3528E-02   9.5804E-02   6.9952E-04  0.0354
   9.5804E-02   9.8134E-02   6.5269E-04  0.0362
   9.8134E-02   1.0052E-01   6.1790E-04  0.0367
   1.0052E-01   1.0297E-01   6.3254E-04  0.0359
   1.0297E-01   1.0547E-01   6.0335E-04  0.0363
   1.0547E-01   1.0804E-01   6.4969E-04  0.0346
   1.0804E-01   1.1067E-01   5.7836E-04  0.0362
   1.1067E-01   1.1336E-01   5.9966E-04  0.0351
   1.1336E-01   1.1612E-01   5.6748E-04  0.0357
   1.1612E-01   1.1894E-01   5.5535E-04  0.0356
   1.1894E-01   1.2184E-01   5.5247E-04  0.0353
   1.2184E-01   1.2480E-01   5.3087E-04  0.0356
   1.2480E-01   1.2784E-01   5.5331E-04  0.0344
   1.2784E-01   1.3095E-01   5.5168E-04  0.0341
   1.3095E-01   1.3414E-01   5.1470E-04  0.0348
   1.3414E-01   1.3740E-01   4.4876E-04  0.0368
   1.3740E-01   1.4074E-01   4.6993E-04  0.0356
   1.4074E-01   1.4417E-01   5.2046E-04  0.0334
   1.4417E-01   1.4767E-01   4.6956E-04  0.0347
   1.4767E-01   1.5127E-01   4.3327E-04  0.0358
   1.5127E-01   1.5495E-01   4.5561E-04  0.0345
   1.5495E-01   1.5872E-01   4.3731E-04  0.0348
   1.5872E-01   1.6258E-01   4.0122E-04  0.0358
   1.6258E-01   1.6654E-01   4.0318E-04  0.0353
   1.6654E-01   1.7059E-01   4.2023E-04  0.0342
   1.7059E-01   1.7474E-01   4.0074E-04  0.0346
   1.7474E-01   1.7899E-01   4.1570E-04  0.0336
   1.7899E-01   1.8334E-01   3.9156E-04  0.0341
   1.8334E-01   1.8781E-01   3.7921E-04  0.0343
   1.8781E-01   1.9237E-01   3.5836E-04  0.0349
   1.9237E-01   1.9706E-01   3.5484E-04  0.0346
   1.9706E-01   2.0185E-01   3.7790E-04  0.0331
   2.0185E-01   2.0676E-01   3.5237E-04  0.0339
   2.0676E-01   2.1179E-01   3.5872E-04  0.0332
   2.1179E-01   2.1694E-01   3.9894E-04  0.0311
   2.1694E-01   2.2222E-01   4.0780E-04  0.0304
   2.2222E-01   2.2763E-01   4.0668E-04  0.0301
   2.2763E-01   2.3317E-01   4.1237E-04  0.0295
   2.3317E-01   2.3884E-01   4.3064E-04  0.0286
   2.3884E-01   2.4465E-01   4.4809E-04  0.0277
   2.4465E-01   2.5061E-01   4.5081E-04  0.0272
   2.5061E-01   2.5670E-01   4.6459E-04  0.0265
   2.5670E-01   2.6295E-01   4.9210E-04  0.0254
   2.6295E-01   2.6935E-01   4.7345E-04  0.0256
   2.6935E-01   2.7590E-01   4.7979E-04  0.0252
   2.7590E-01   2.8261E-01   4.9230E-04  0.0245
   2.8261E-01   2.8949E-01   5.2363E-04  0.0235
   2.8949E-01   2.9653E-01   5.1935E-04  0.0233
   2.9653E-01   3.0375E-01   5.2185E-04  0.0230
   3.0375E-01   3.1114E-01   5.3752E-04  0.0224
   3.1114E-01   3.1871E-01   5.5424E-04  0.0218
   3.1871E-01   3.2646E-01   5.6725E-04  0.0213
   3.2646E-01   3.3441E-01   5.5966E-04  0.0212
   3.3441E-01   3.4254E-01   5.8932E-04  0.0204
   3.4254E-01   3.5088E-01   5.8484E-04  0.0202
   3.5088E-01   3.5941E-01   6.1424E-04  0.0195
   3.5941E-01   3.6816E-01   6.1718E-04  0.0192
   3.6816E-01   3.7712E-01   6.2463E-04  0.0189
   3.7712E-01   3.8629E-01   6.2204E-04  0.0187
   3.8629E-01   3.9569E-01   6.3397E-04  0.0183
   3.9569E-01   4.0532E-01   6.4648E-04  0.0179
   4.0532E-01   4.1518E-01   6.5694E-04  0.0175
   4.1518E-01   4.2528E-01   6.4366E-04  0.0175
   4.2528E-01   4.3563E-01   6.6920E-04  0.0170
   4.3563E-01   4.4623E-01   6.6841E-04  0.0168
   4.4623E-01   4.5708E-01   6.6896E-04  0.0166
   4.5708E-01   4.6821E-01   6.5624E-04  0.0165
   4.6821E-01   4.7960E-01   6.8799E-04  0.0159
   4.7960E-01   4.9127E-01   6.9677E-04  0.0156
   4.9127E-01   5.0322E-01   7.0310E-04  0.0154
   5.0322E-01   5.1546E-01   7.0051E-04  0.0152
   5.1546E-01   5.2800E-01   7.2581E-04  0.0148
   5.2800E-01   5.4085E-01   7.0928E-04  0.0148
   5.4085E-01   5.5401E-01   7.1830E-04  0.0145
   5.5401E-01   5.6749E-01   7.3373E-04  0.0142
   5.6749E-01   5.8130E-01   7.2856E-04  0.0141
   5.8130E-01   5.9544E-01   7.2327E-04  0.0139
   5.9544E-01   6.0993E-01   7.3419E-04  0.0137
   6.0993E-01   6.2477E-01   7.2752E-04  0.0136
   6.2477E-01   6.3997E-01   7.1484E-04  0.0135
   6.3997E-01   6.5554E-01   7.1216E-04  0.0134
   6.5554E-01   6.7149E-01   7.4204E-04  0.0130
   6.7149E-01   6.8783E-01   7.3760E-04  0.0128
   6.8783E-01   7.0456E-01   7.3959E-04  0.0127
   7.0456E-01   7.2171E-01   7.2650E-04  0.0126
   7.2171E-01   7.3927E-01   7.1025E-04  0.0126
   7.3927E-01   7.5725E-01   7.0121E-04  0.0126
   7.5725E-01   7.7568E-01   6.8811E-04  0.0125
   7.7568E-01   7.9455E-01   6.9329E-04  0.0123
   7.9455E-01   8.1388E-01   6.8735E-04  0.0122
   8.1388E-01   8.3368E-01   6.7082E-04  0.0122
   8.3368E-01   8.5397E-01   6.5044E-04  0.0123
   8.5397E-01   8.7475E-01   6.6265E-04  0.0120
   8.7475E-01   8.9603E-01   6.3804E-04  0.0121
   8.9603E-01   9.1783E-01   6.2091E-04  0.0121
   9.1783E-01   9.4016E-01   6.1276E-04  0.0121
   9.4016E-01   9.6304E-01   5.9657E-04  0.0121
   9.6304E-01   9.8647E-01   5.7196E-04  0.0122
   9.8647E-01   1.0105E+00   5.4588E-04  0.0123
   1.0105E+00   1.0351E+00   5.5601E-04  0.0121
   1.0351E+00   1.0602E+00   5.5657E-04  0.0119
   1.0602E+00   1.0860E+00   5.4874E-04  0.0118
   1.0860E+00   1.1125E+00   5.6129E-04  0.0116
   1.1125E+00   1.1395E+00   5.5098E-04  0.0115
   1.1395E+00   1.1673E+00   5.6593E-04  0.0113
   1.1673E+00   1.1957E+00   5.8610E-04  0.0109
   1.1957E+00   1.2247E+00   5.8782E-04  0.0108
   1.2247E+00   1.2545E+00   5.7544E-04  0.0108
   1.2545E+00   1.2851E+00   5.8836E-04  0.0105
   1.2851E+00   1.3163E+00   5.8280E-04  0.0104
   1.3163E+00   1.3484E+00   5.9309E-04  0.0102
   1.3484E+00   1.3812E+00   5.9050E-04  0.0101
   1.3812E+00   1.4148E+00   6.0452E-04  0.0099
   1.4148E+00   1.4492E+00   6.0502E-04  0.0098
   1.4492E+00   1.4845E+00   6.0289E-04  0.0097
   1.4845E+00   1.5206E+00   5.9401E-04  0.0096
   1.5206E+00   1.5576E+00   5.8031E-04  0.0096
   1.5576E+00   1.5955E+00   5.8730E-04  0.0094
   1.5955E+00   1.6343E+00   5.8963E-04  0.0093
   1.6343E+00   1.6741E+00   5.8068E-04  0.0093
   1.6741E+00   1.7148E+00   5.9267E-04  0.0091
   1.7148E+00   1.7565E+00   5.9096E-04  0.0090
   1.7565E+00   1.7992E+00   5.8037E-04  0.0089
   1.7992E+00   1.8430E+00   5.8970E-04  0.0088
   1.8430E+00   1.8879E+00   5.7664E-04  0.0088
   1.8879E+00   1.9338E+00   5.8116E-04  0.0086
   1.9338E+00   1.9808E+00   5.7704E-04  0.0085
   1.9808E+00   2.0290E+00   5.6942E-04  0.0085
   2.0290E+00   2.0784E+00   5.6596E-04  0.0084
   2.0784E+00   2.1290E+00   5.5453E-04  0.0084
   2.1290E+00   2.1808E+00   5.5056E-04  0.0083
   2.1808E+00   2.2338E+00   5.4861E-04  0.0082
   2.2338E+00   2.2882E+00   5.3861E-04  0.0082
   2.2882E+00   2.3439E+00   5.3420E-04  0.0082
   2.3439E+00   2.4009E+00   5.3285E-04  0.0081
   2.4009E+00   2.4593E+00   5.2353E-04  0.0080
   2.4593E+00   2.5191E+00   5.2315E-04  0.0080
   2.5191E+00   2.5804E+00   5.1815E-04  0.0079
   2.5804E+00   2.6432E+00   5.0832E-04  0.0079
   2.6432E+00   2.7075E+00   5.0199E-04  0.0078
   2.7075E+00   2.7734E+00   4.9356E-04  0.0078
   2.7734E+00   2.8409E+00   4.7316E-04  0.0079
   2.8409E+00   2.9100E+00   4.7498E-04  0.0078
   2.9100E+00   2.9808E+00   4.6890E-04  0.0077
   2.9808E+00   3.0533E+00   4.5833E-04  0.0077
   3.0533E+00   3.1276E+00   4.5336E-04  0.0077
   3.1276E+00   3.2037E+00   4.4205E-04  0.0077
   3.2037E+00   3.2817E+00   4.3904E-04  0.0076
   3.2817E+00   3.3615E+00   4.2225E-04  0.0077
   3.3615E+00   3.4433E+00   4.1310E-04  0.0076
   3.4433E+00   3.5271E+00   4.0805E-04  0.0076
   3.5271E+00   3.6129E+00   3.9826E-04  0.0076
   3.6129E+00   3.7008E+00   3.9035E-04  0.0076
   3.7008E+00   3.7908E+00   3.8502E-04  0.0076
   3.7908E+00   3.8831E+00   3.8149E-04  0.0075
   3.8831E+00   3.9776E+00   3.6806E-04  0.0075
   3.9776E+00   4.0743E+00   3.6530E-04  0.0075
   4.0743E+00   4.1735E+00   3.5310E-04  0.0075
   4.1735E+00   4.2750E+00   3.4295E-04  0.0075
   4.2750E+00   4.3790E+00   3.3204E-04  0.0076
   4.3790E+00   4.4856E+00   3.2488E-04  0.0076
   4.4856E+00   4.5947E+00   3.1511E-04  0.0076
   4.5947E+00   4.7065E+00   3.0979E-04  0.0076
   4.7065E+00   4.8210E+00   3.0252E-04  0.0076
   4.8210E+00   4.9383E+00   2.9313E-04  0.0076
   4.9383E+00   5.0585E+00   2.8109E-04  0.0077
   5.0585E+00   5.1815E+00   2.7520E-04  0.0077
   5.1815E+00   5.3076E+00   2.6775E-04  0.0077
   5.3076E+00   5.4368E+00   2.5888E-04  0.0077
   5.4368E+00   5.5690E+00   2.4925E-04  0.0078
   5.5690E+00   5.7045E+00   2.4307E-04  0.0078
   5.7045E+00   5.8433E+00   2.3343E-04  0.0078
   5.8433E+00   5.9855E+00   2.2961E-04  0.0078
   5.9855E+00   6.1311E+00   2.1748E-04  0.0079
   6.1311E+00   6.2803E+00   2.1294E-04  0.0079
   6.2803E+00   6.4331E+00   2.0061E-04  0.0080
   6.4331E+00   6.5896E+00   1.9759E-04  0.0080
   6.5896E+00   6.7500E+00   1.9006E-04  0.0081
   6.7500E+00   6.9142E+00   1.8287E-04  0.0081
   6.9142E+00   7.0824E+00   1.7671E-04  0.0082
   7.0824E+00   7.2548E+00   1.6940E-04  0.0083
   7.2548E+00   7.4313E+00   1.6482E-04  0.0083
   7.4313E+00   7.6121E+00   1.5571E-04  0.0084
   7.6121E+00   7.7973E+00   1.4931E-04  0.0085
   7.7973E+00   7.9870E+00   1.4241E-04  0.0086
   7.9870E+00   8.1813E+00   1.3699E-04  0.0086
   8.1813E+00   8.3804E+00   1.3091E-04  0.0087
   8.3804E+00   8.5843E+00   1.2502E-04  0.0088
   8.5843E+00   8.7931E+00   1.2078E-04  0.0089
   8.7931E+00   9.0071E+00   1.1507E-04  0.0090
   9.0071E+00   9.2262E+00   1.1082E-04  0.0091
   9.2262E+00   9.4507E+00   1.0477E-04  0.0092
   9.4507E+00   9.6807E+00   1.0028E-04  0.0093
   9.6807E+00   9.9162E+00   9.6516E-05  0.0094
   9.9162E+00   1.0157E+01   9.2725E-05  0.0094
   1.0157E+01   1.0405E+01   8.8818E-05  0.0095
   1.0405E+01   1.0658E+01   8.7937E-05  0.0095
   1.0658E+01   1.0917E+01   8.5539E-05  0.0095
   1.0917E+01   1.1183E+01   7.9675E-05  0.0097
   1.1183E+01   1.1455E+01   7.7473E-05  0.0097
   1.1455E+01   1.1733E+01   7.5095E-05  0.0098
   1.1733E+01   1.2019E+01   7.0273E-05  0.0100
   1.2019E+01   1.2311E+01   6.7596E-05  0.0100
   1.2311E+01   1.2611E+01   6.3152E-05  0.0103
   1.2611E+01   1.2918E+01   5.8841E-05  0.0105
   1.2918E+01   1.3232E+01   5.6917E-05  0.0106
   1.3232E+01   1.3554E+01   5.4104E-05  0.0107
   1.3554E+01   1.3884E+01   5.1304E-05  0.0109
   1.3884E+01   1.4222E+01   4.8149E-05  0.0111
   1.4222E+01   1.4568E+01   4.5806E-05  0.0112
   1.4568E+01   1.4922E+01   4.2092E-05  0.0116
   1.4922E+01   1.5285E+01   4.0571E-05  0.0116
   1.5285E+01   1.5657E+01   3.7411E-05  0.0120
   1.5657E+01   1.6038E+01   3.5055E-05  0.0122
   1.6038E+01   1.6428E+01   3.3002E-05  0.0125
   1.6428E+01   1.6828E+01   3.1433E-05  0.0126
   1.6828E+01   1.7237E+01   2.9439E-05  0.0129
   1.7237E+01   1.7657E+01   2.8056E-05  0.0130
   1.7657E+01   1.8086E+01   2.6418E-05  0.0133
   1.8086E+01   1.8526E+01   2.4875E-05  0.0135
   1.8526E+01   1.8977E+01   2.3832E-05  0.0136
   1.8977E+01   1.9439E+01   2.2425E-05  0.0139
   1.9439E+01   1.9912E+01   2.1486E-05  0.0140
   1.9912E+01   2.0396E+01   2.0360E-05  0.0142
   2.0396E+01   2.0893E+01   1.8805E-05  0.0146
   2.0893E+01   2.1401E+01   1.7134E-05  0.0152
   2.1401E+01   2.1922E+01   1.6447E-05  0.0153
   2.1922E+01   2.2455E+01   1.5513E-05  0.0155
   2.2455E+01   2.3001E+01   1.4496E-05  0.0159
   2.3001E+01   2.3561E+01   1.3430E-05  0.0163
   2.3561E+01   2.4134E+01   1.2026E-05  0.0170
   2.4134E+01   2.4721E+01   1.1533E-05  0.0172
   2.4721E+01   2.5323E+01   1.0481E-05  0.0178
   2.5323E+01   2.5939E+01   1.0157E-05  0.0179
   2.5939E+01   2.6570E+01   9.3390E-06  0.0184
   2.6570E+01   2.7217E+01   8.1828E-06  0.0194
   2.7217E+01   2.7879E+01   7.5264E-06  0.0200
   2.7879E+01   2.8557E+01   7.1471E-06  0.0203
   2.8557E+01   2.9252E+01   6.4420E-06  0.0211
   2.9252E+01   2.9964E+01   5.9180E-06  0.0218
   2.9964E+01   3.0693E+01   5.6430E-06  0.0220
   3.0693E+01   3.1440E+01   5.0376E-06  0.0231
   3.1440E+01   3.2205E+01   4.7506E-06  0.0235
   3.2205E+01   3.2988E+01   4.1554E-06  0.0248
   3.2988E+01   3.3791E+01   3.7203E-06  0.0259
   3.3791E+01   3.4613E+01   3.3497E-06  0.0269
   3.4613E+01   3.5455E+01   3.0493E-06  0.0279
   3.5455E+01   3.6318E+01   2.7543E-06  0.0290
   3.6318E+01   3.7201E+01   2.5327E-06  0.0299
   3.7201E+01   3.8106E+01   2.2096E-06  0.0316
   3.8106E+01   3.9034E+01   2.0385E-06  0.0325
   3.9034E+01   3.9983E+01   1.7795E-06  0.0344
   3.9983E+01   4.0956E+01   1.5666E-06  0.0362
   4.0956E+01   4.1953E+01   1.4069E-06  0.0378
   4.1953E+01   4.2973E+01   1.1972E-06  0.0405
   4.2973E+01   4.4019E+01   1.0042E-06  0.0436
   4.4019E+01   4.5090E+01   8.8514E-07  0.0459
   4.5090E+01   4.6187E+01   7.8573E-07  0.0482
   4.6187E+01   4.7311E+01   6.2113E-07  0.0535
   4.7311E+01   4.8462E+01   6.7934E-07  0.0506
   4.8462E+01   4.9641E+01   4.9189E-07  0.0587
   4.9641E+01   5.0849E+01   4.7193E-07  0.0592
   5.0849E+01   5.2086E+01   3.7343E-07  0.0658
   5.2086E+01   5.3353E+01   3.2668E-07  0.0695
   5.3353E+01   5.4651E+01   2.5421E-07  0.0778
   5.4651E+01   5.5981E+01   2.4517E-07  0.0783
   5.5981E+01   5.7343E+01   2.1438E-07  0.0828
   5.7343E+01   5.8738E+01   1.3188E-07  0.1043
   5.8738E+01   6.0168E+01   1.5394E-07  0.0953
   6.0168E+01   6.1632E+01   1.3115E-07  0.1021
   6.1632E+01   6.3131E+01   8.8027E-08  0.1231
   6.3131E+01   6.4667E+01   1.0286E-07  0.1125
   6.4667E+01   6.6240E+01   5.8472E-08  0.1474
   6.6240E+01   6.7852E+01   4.8397E-08  0.1601
   6.7852E+01   6.9503E+01   5.0881E-08  0.1543
   6.9503E+01   7.1194E+01   2.9567E-08  0.2000
   7.1194E+01   7.2926E+01   3.4638E-08  0.1826
   7.2926E+01   7.4701E+01   2.0289E-08  0.2357
   7.4701E+01   7.6518E+01   2.0908E-08  0.2294
   7.6518E+01   7.8380E+01   1.1817E-08  0.3015
   7.8380E+01   8.0287E+01   8.3899E-09  0.3536
   8.0287E+01   8.2240E+01   3.0715E-09  0.5774
   8.2240E+01   8.4241E+01   2.9985E-09  0.5774
   8.4241E+01   8.6291E+01   1.9515E-09  0.7071
   8.6291E+01   8.8391E+01   3.8104E-09  0.5000
   8.8391E+01   9.0541E+01   9.2997E-10  1.0000
   9.0541E+01   9.2744E+01   0.0000E+00  0.0000
   9.2744E+01   9.5001E+01   0.0000E+00  0.0000
   9.5001E+01   9.7312E+01   2.5958E-09  0.5774
   9.7312E+01   9.9680E+01   0.0000E+00  0.0000
   9.9680E+01   1.0211E+02   8.2464E-10  1.0000
   1.0211E+02   1.0459E+02   0.0000E+00  0.0000
   1.0459E+02   1.0713E+02   0.0000E+00  0.0000
   1.0713E+02   1.0974E+02   0.0000E+00  0.0000
   1.0974E+02   1.1241E+02   0.0000E+00  0.0000
   1.1241E+02   1.1515E+02   0.0000E+00  0.0000
   1.1515E+02   1.1795E+02   0.0000E+00  0.0000
   1.1795E+02   1.2082E+02   0.0000E+00  0.0000
   1.2082E+02   1.2376E+02   0.0000E+00  0.0000
   1.2376E+02   1.2677E+02   0.0000E+00  0.0000
   1.2677E+02   1.2985E+02   0.0000E+00  0.0000
   1.2985E+02   1.3301E+02   0.0000E+00  0.0000
   1.3301E+02   1.3625E+02   0.0000E+00  0.0000
   1.3625E+02   1.3956E+02   0.0000E+00  0.0000
   1.3956E+02   1.4296E+02   0.0000E+00  0.0000
   1.4296E+02   1.4644E+02   0.0000E+00  0.0000
   1.4644E+02   1.5000E+02   0.0000E+00  0.0000

#   sum over                 2.6472E-05
'no. =    1   reg = 116 - 216'
msuc: {\huge [t-cross] in region mesh}
msdr: {\it plotted by \ANGEL \version}
msdl: {\it calculated by \PHITS  3.26}
wt: s(0.7)
\vspace{-3}
  region surface crossing
  area  &=&   1.0000E+00 [cm^2]
e:
 
# Information for Restart Calculation
# This calculation was newly started
# istdev =  2 # 1:Batch variance, 2:History variance
# resc2  = 5.00000000000000000E+08 # Total source weight or Total source weight / maxcas
# resc3  = 5.00000000000000000E+08 # Total history number or Total batch number
# maxcas =   500000000 # History / Batch, only used for istdev=1
# bitrseed = 1101101111010011011000101101110001100110110010110001010100010001 # bit data of rseed
