[ T-Cross ]
    title = [t-cross] in region mesh
     mesh =  reg            # mesh type is region-wise
      reg =    1            # number of crossing regions
      non     r-from    r-to       area
      1       105       205        1.000000    
   e-type =    3            # e-mesh is log given by emin, emax and ne
     emin =  1.0000000E-02  # minimum value of e-mesh points
     emax =   150.0000      # maximum value of e-mesh points
#    edel =  2.4039514E-02  # mesh width of e-mesh points
       ne =    400          # number of e-mesh points
#    data = ( e(i), i = 1, ne + 1 )
#           1.00000E-02  1.02433E-02  1.04925E-02  1.07478E-02  1.10093E-02
#           1.12772E-02  1.15516E-02  1.18326E-02  1.21205E-02  1.24154E-02
#           1.27175E-02  1.30269E-02  1.33439E-02  1.36686E-02  1.40011E-02
#           1.43418E-02  1.46907E-02  1.50482E-02  1.54143E-02  1.57894E-02
#           1.61735E-02  1.65670E-02  1.69701E-02  1.73830E-02  1.78060E-02
#           1.82392E-02  1.86830E-02  1.91375E-02  1.96032E-02  2.00801E-02
#           2.05687E-02  2.10692E-02  2.15818E-02  2.21069E-02  2.26448E-02
#           2.31957E-02  2.37601E-02  2.43382E-02  2.49304E-02  2.55369E-02
#           2.61583E-02  2.67947E-02  2.74467E-02  2.81145E-02  2.87985E-02
#           2.94992E-02  3.02169E-02  3.09521E-02  3.17052E-02  3.24766E-02
#           3.32668E-02  3.40762E-02  3.49053E-02  3.57546E-02  3.66246E-02
#           3.75157E-02  3.84284E-02  3.93634E-02  4.03212E-02  4.13022E-02
#           4.23071E-02  4.33365E-02  4.43909E-02  4.54710E-02  4.65773E-02
#           4.77106E-02  4.88714E-02  5.00605E-02  5.12785E-02  5.25262E-02
#           5.38042E-02  5.51133E-02  5.64542E-02  5.78278E-02  5.92348E-02
#           6.06760E-02  6.21523E-02  6.36645E-02  6.52135E-02  6.68002E-02
#           6.84255E-02  7.00904E-02  7.17957E-02  7.35426E-02  7.53319E-02
#           7.71648E-02  7.90423E-02  8.09655E-02  8.29354E-02  8.49533E-02
#           8.70203E-02  8.91376E-02  9.13064E-02  9.35279E-02  9.58035E-02
#           9.81345E-02  1.00522E-01  1.02968E-01  1.05473E-01  1.08040E-01
#           1.10668E-01  1.13361E-01  1.16119E-01  1.18944E-01  1.21838E-01
#           1.24803E-01  1.27839E-01  1.30950E-01  1.34136E-01  1.37399E-01
#           1.40742E-01  1.44167E-01  1.47675E-01  1.51268E-01  1.54948E-01
#           1.58718E-01  1.62580E-01  1.66535E-01  1.70587E-01  1.74738E-01
#           1.78989E-01  1.83344E-01  1.87805E-01  1.92375E-01  1.97055E-01
#           2.01850E-01  2.06761E-01  2.11792E-01  2.16945E-01  2.22223E-01
#           2.27630E-01  2.33169E-01  2.38842E-01  2.44653E-01  2.50605E-01
#           2.56703E-01  2.62949E-01  2.69346E-01  2.75900E-01  2.82613E-01
#           2.89489E-01  2.96532E-01  3.03747E-01  3.11138E-01  3.18708E-01
#           3.26462E-01  3.34405E-01  3.42542E-01  3.50876E-01  3.59413E-01
#           3.68158E-01  3.77116E-01  3.86291E-01  3.95690E-01  4.05317E-01
#           4.15179E-01  4.25281E-01  4.35628E-01  4.46227E-01  4.57084E-01
#           4.68205E-01  4.79597E-01  4.91266E-01  5.03219E-01  5.15463E-01
#           5.28005E-01  5.40851E-01  5.54011E-01  5.67490E-01  5.81298E-01
#           5.95441E-01  6.09929E-01  6.24769E-01  6.39970E-01  6.55541E-01
#           6.71491E-01  6.87828E-01  7.04564E-01  7.21706E-01  7.39266E-01
#           7.57253E-01  7.75678E-01  7.94551E-01  8.13883E-01  8.33685E-01
#           8.53969E-01  8.74747E-01  8.96030E-01  9.17831E-01  9.40163E-01
#           9.63038E-01  9.86469E-01  1.01047E+00  1.03506E+00  1.06024E+00
#           1.08604E+00  1.11246E+00  1.13953E+00  1.16725E+00  1.19565E+00
#           1.22474E+00  1.25454E+00  1.28507E+00  1.31633E+00  1.34836E+00
#           1.38117E+00  1.41477E+00  1.44920E+00  1.48446E+00  1.52057E+00
#           1.55757E+00  1.59547E+00  1.63429E+00  1.67405E+00  1.71478E+00
#           1.75650E+00  1.79924E+00  1.84302E+00  1.88786E+00  1.93379E+00
#           1.98084E+00  2.02904E+00  2.07841E+00  2.12898E+00  2.18078E+00
#           2.23384E+00  2.28819E+00  2.34386E+00  2.40089E+00  2.45930E+00
#           2.51914E+00  2.58043E+00  2.64322E+00  2.70753E+00  2.77341E+00
#           2.84088E+00  2.91001E+00  2.98081E+00  3.05333E+00  3.12762E+00
#           3.20372E+00  3.28167E+00  3.36152E+00  3.44330E+00  3.52708E+00
#           3.61290E+00  3.70080E+00  3.79085E+00  3.88308E+00  3.97756E+00
#           4.07434E+00  4.17347E+00  4.27501E+00  4.37903E+00  4.48557E+00
#           4.59471E+00  4.70650E+00  4.82102E+00  4.93832E+00  5.05847E+00
#           5.18155E+00  5.30762E+00  5.43676E+00  5.56904E+00  5.70453E+00
#           5.84333E+00  5.98550E+00  6.13114E+00  6.28031E+00  6.43312E+00
#           6.58964E+00  6.74997E+00  6.91420E+00  7.08243E+00  7.25475E+00
#           7.43126E+00  7.61207E+00  7.79728E+00  7.98700E+00  8.18133E+00
#           8.38038E+00  8.58428E+00  8.79315E+00  9.00709E+00  9.22624E+00
#           9.45072E+00  9.68067E+00  9.91620E+00  1.01575E+01  1.04046E+01
#           1.06578E+01  1.09171E+01  1.11827E+01  1.14548E+01  1.17335E+01
#           1.20190E+01  1.23114E+01  1.26109E+01  1.29178E+01  1.32321E+01
#           1.35540E+01  1.38838E+01  1.42216E+01  1.45676E+01  1.49221E+01
#           1.52851E+01  1.56570E+01  1.60380E+01  1.64282E+01  1.68279E+01
#           1.72374E+01  1.76568E+01  1.80864E+01  1.85264E+01  1.89772E+01
#           1.94389E+01  1.99119E+01  2.03963E+01  2.08926E+01  2.14009E+01
#           2.19216E+01  2.24550E+01  2.30014E+01  2.35610E+01  2.41343E+01
#           2.47215E+01  2.53230E+01  2.59391E+01  2.65702E+01  2.72167E+01
#           2.78789E+01  2.85572E+01  2.92520E+01  2.99637E+01  3.06928E+01
#           3.14396E+01  3.22045E+01  3.29881E+01  3.37907E+01  3.46128E+01
#           3.54550E+01  3.63177E+01  3.72013E+01  3.81064E+01  3.90336E+01
#           3.99833E+01  4.09561E+01  4.19526E+01  4.29734E+01  4.40189E+01
#           4.50900E+01  4.61870E+01  4.73108E+01  4.84619E+01  4.96410E+01
#           5.08488E+01  5.20860E+01  5.33533E+01  5.46514E+01  5.59812E+01
#           5.73432E+01  5.87384E+01  6.01676E+01  6.16315E+01  6.31311E+01
#           6.46671E+01  6.62405E+01  6.78522E+01  6.95031E+01  7.11941E+01
#           7.29263E+01  7.47007E+01  7.65182E+01  7.83800E+01  8.02870E+01
#           8.22405E+01  8.42414E+01  8.62911E+01  8.83906E+01  9.05412E+01
#           9.27442E+01  9.50007E+01  9.73122E+01  9.96799E+01  1.02105E+02
#           1.04589E+02  1.07134E+02  1.09741E+02  1.12411E+02  1.15146E+02
#           1.17948E+02  1.20817E+02  1.23757E+02  1.26768E+02  1.29852E+02
#           1.33012E+02  1.36248E+02  1.39563E+02  1.42959E+02  1.46437E+02
#           1.50000E+02
     unit =    2            # unit is [1/cm^2/(MeV/n)/source]
     axis =  eng            # axis of output
     file = detector-06.out  # file name of output for the above axis
   output = f-curr          # surface crossing forward current spectrum
     part =  neutron  
# kf/name :  2112     
#    used :        main (  %)        temp (  %)       total (  %)
#  memory :         414 (  0)           0 (  0)         414 (  0)

#------------------------------------------------------------------------------
#newpage:
#   no. =    1   reg = 105 - 205

x: Energy [MeV/n]
y:  F-Curr [1/cm^2/(MeV/n)/source]         
p: xlog ylog afac(0.8) form(0.9)
h: n            x            y(neutron ),hh0l   n 
#  e-lower      e-upper      neutron     r.err 
   1.0000E-02   1.0243E-02   1.1379E-05  0.2673
   1.0243E-02   1.0493E-02   8.7873E-06  0.3015
   1.0493E-02   1.0748E-02   1.2375E-05  0.2502
   1.0748E-02   1.1009E-02   4.5808E-06  0.4082
   1.1009E-02   1.1277E-02   3.7217E-06  0.4472
   1.1277E-02   1.1552E-02   6.4905E-06  0.3334
   1.1552E-02   1.1833E-02   6.3938E-06  0.3333
   1.1833E-02   1.2121E-02   5.4596E-06  0.3539
   1.2121E-02   1.2415E-02   6.0840E-06  0.3333
   1.2415E-02   1.2718E-02   7.1279E-06  0.3020
   1.2718E-02   1.3027E-02   5.0343E-06  0.3544
   1.3027E-02   1.3344E-02   6.2945E-06  0.3162
   1.3344E-02   1.3669E-02   7.1715E-06  0.2900
   1.3669E-02   1.4001E-02   6.0012E-06  0.3162
   1.4001E-02   1.4342E-02   3.5183E-06  0.4082
   1.4342E-02   1.4691E-02   3.9987E-06  0.3780
   1.4691E-02   1.5048E-02   3.3447E-06  0.4082
   1.5048E-02   1.5414E-02   4.3483E-06  0.3536
   1.5414E-02   1.5789E-02   1.5986E-06  0.5774
   1.5789E-02   1.6174E-02   1.5604E-06  0.5774
   1.6174E-02   1.6567E-02   1.5237E-06  0.5774
   1.6567E-02   1.6970E-02   1.9765E-06  0.5000
   1.6970E-02   1.7383E-02   2.4128E-06  0.4472
   1.7383E-02   1.7806E-02   4.7162E-06  0.3162
   1.7806E-02   1.8239E-02   3.2221E-06  0.3780
   1.8239E-02   1.8683E-02   3.0024E-06  0.3803
   1.8683E-02   1.9138E-02   4.3539E-06  0.3163
   1.9138E-02   1.9603E-02   3.4226E-06  0.3536
   1.9603E-02   2.0080E-02   2.9311E-06  0.3780
   2.0080E-02   2.0569E-02   3.2601E-06  0.3536
   2.0569E-02   2.1069E-02   3.5781E-06  0.3333
   2.1069E-02   2.1582E-02   3.8918E-06  0.3162
   2.1582E-02   2.2107E-02   2.6624E-06  0.3780
   2.2107E-02   2.2645E-02   3.3394E-06  0.3333
   2.2645E-02   2.3196E-02   1.8120E-06  0.4472
   2.3196E-02   2.3760E-02   2.8973E-06  0.3462
   2.3760E-02   2.4338E-02   4.7881E-06  0.2674
   2.4338E-02   2.4930E-02   4.4399E-06  0.2741
   2.4930E-02   2.5537E-02   2.6287E-06  0.3536
   2.5537E-02   2.6158E-02   1.9278E-06  0.4082
   2.6158E-02   2.6795E-02   1.8802E-06  0.4082
   2.6795E-02   2.7447E-02   1.5289E-06  0.4472
   2.7447E-02   2.8114E-02   1.7929E-06  0.4082
   2.8114E-02   2.8799E-02   2.8604E-06  0.3167
   2.8799E-02   2.9499E-02   3.6996E-06  0.2774
   2.9499E-02   3.0217E-02   2.5021E-06  0.3333
   3.0217E-02   3.0952E-02   2.7142E-06  0.3162
   3.0952E-02   3.1705E-02   2.9151E-06  0.3015
   3.1705E-02   3.2477E-02   1.5488E-06  0.4082
   3.2477E-02   3.3267E-02   1.7673E-06  0.3780
   3.3267E-02   3.4076E-02   3.3651E-06  0.2683
   3.4076E-02   3.4905E-02   1.6849E-06  0.3780
   3.4905E-02   3.5755E-02   1.5784E-06  0.3788
   3.5755E-02   3.6625E-02   2.0453E-06  0.3334
   3.6625E-02   3.7516E-02   1.3438E-06  0.4082
   3.7516E-02   3.8428E-02   1.4902E-06  0.3788
   3.8428E-02   3.9363E-02   2.0992E-06  0.3166
   3.9363E-02   4.0321E-02   2.2818E-06  0.3015
   4.0321E-02   4.1302E-02   1.4220E-06  0.3780
   4.1302E-02   4.2307E-02   1.9777E-06  0.3162
   4.2307E-02   4.3337E-02   2.1314E-06  0.3015
   4.3337E-02   4.4391E-02   2.0830E-06  0.3015
   4.4391E-02   4.5471E-02   1.6640E-06  0.3333
   4.5471E-02   4.6577E-02   2.3823E-06  0.2730
   4.6577E-02   4.7711E-02   1.7261E-06  0.3167
   4.7711E-02   4.8871E-02   2.0566E-06  0.2887
   4.8871E-02   5.0061E-02   1.6551E-06  0.3164
   5.0061E-02   5.1279E-02   1.1474E-06  0.3780
   5.1279E-02   5.2526E-02   1.1185E-06  0.3780
   5.2526E-02   5.3804E-02   1.8726E-06  0.2887
   5.3804E-02   5.5113E-02   1.3728E-06  0.3333
   5.5113E-02   5.6454E-02   1.3256E-06  0.3335
   5.6454E-02   5.7828E-02   8.6984E-07  0.4083
   5.7828E-02   5.9235E-02   9.9127E-07  0.3780
   5.9235E-02   6.0676E-02   1.0805E-06  0.3543
   6.0676E-02   6.2152E-02   1.7555E-06  0.2774
   6.2152E-02   6.3665E-02   6.5991E-07  0.4472
   6.3665E-02   6.5214E-02   1.5461E-06  0.2887
   6.5214E-02   6.6800E-02   1.7317E-06  0.2676
   6.6800E-02   6.8426E-02   9.8153E-07  0.3536
   6.8426E-02   7.0090E-02   4.5650E-07  0.5019
   7.0090E-02   7.1796E-02   1.6264E-06  0.2673
   7.1796E-02   7.3543E-02   1.0259E-06  0.3333
   7.3543E-02   7.5332E-02   6.6683E-07  0.4083
   7.5332E-02   7.7165E-02   7.5843E-07  0.3780
   7.7165E-02   7.9042E-02   1.3589E-06  0.2778
   7.9042E-02   8.0965E-02   5.1797E-07  0.4472
   8.0965E-02   8.2935E-02   1.2095E-06  0.2887
   8.2935E-02   8.4953E-02   1.5818E-06  0.2500
   8.4953E-02   8.7020E-02   7.7071E-07  0.3536
   8.7020E-02   8.9138E-02   1.4127E-06  0.2582
   8.9138E-02   9.1306E-02   7.3506E-07  0.3536
   9.1306E-02   9.3528E-02   1.1675E-06  0.2774
   9.3528E-02   9.5804E-02   7.8934E-07  0.3333
   9.5804E-02   9.8134E-02   8.5507E-07  0.3162
   9.8134E-02   1.0052E-01   4.1815E-07  0.4472
   1.0052E-01   1.0297E-01   7.3327E-07  0.3333
   1.0297E-01   1.0547E-01   7.1660E-07  0.3333
   1.0547E-01   1.0804E-01   7.7796E-07  0.3162
   1.0804E-01   1.1067E-01   1.0612E-06  0.2673
   1.1067E-01   1.1336E-01   5.1922E-07  0.3780
   1.1336E-01   1.1612E-01   1.1570E-06  0.2500
   1.1612E-01   1.1894E-01   1.1302E-06  0.2500
   1.1894E-01   1.2184E-01   1.2348E-06  0.2357
   1.2184E-01   1.2480E-01   1.6557E-06  0.2006
   1.2480E-01   1.2784E-01   1.4447E-06  0.2132
   1.2784E-01   1.3095E-01   1.6534E-06  0.1962
   1.3095E-01   1.3414E-01   1.6161E-06  0.1962
   1.3414E-01   1.3740E-01   2.0568E-06  0.1716
   1.3740E-01   1.4074E-01   8.9391E-07  0.2582
   1.4074E-01   1.4417E-01   1.7460E-06  0.1826
   1.4417E-01   1.4767E-01   2.2081E-06  0.1602
   1.4767E-01   1.5127E-01   1.7754E-06  0.1768
   1.5127E-01   1.5495E-01   1.5947E-06  0.1832
   1.5495E-01   1.5872E-01   2.0637E-06  0.1601
   1.5872E-01   1.6258E-01   2.2096E-06  0.1525
   1.6258E-01   1.6654E-01   2.3574E-06  0.1459
   1.6654E-01   1.7059E-01   2.0660E-06  0.1543
   1.7059E-01   1.7474E-01   2.7188E-06  0.1317
   1.7474E-01   1.7899E-01   2.8159E-06  0.1291
   1.7899E-01   1.8334E-01   3.1036E-06  0.1213
   1.8334E-01   1.8781E-01   2.6503E-06  0.1293
   1.8781E-01   1.9237E-01   2.5689E-06  0.1302
   1.9237E-01   1.9706E-01   2.6398E-06  0.1270
   1.9706E-01   2.0185E-01   2.9488E-06  0.1187
   2.0185E-01   2.0676E-01   2.8326E-06  0.1196
   2.0676E-01   2.1179E-01   2.8328E-06  0.1179
   2.1179E-01   2.1694E-01   3.0468E-06  0.1125
   2.1694E-01   2.2222E-01   3.2101E-06  0.1085
   2.2222E-01   2.2763E-01   3.8590E-06  0.0976
   2.2763E-01   2.3317E-01   3.6596E-06  0.0990
   2.3317E-01   2.3884E-01   3.6450E-06  0.0979
   2.3884E-01   2.4465E-01   3.8383E-06  0.0945
   2.4465E-01   2.5061E-01   3.6048E-06  0.0962
   2.5061E-01   2.5670E-01   4.3084E-06  0.0868
   2.5670E-01   2.6295E-01   3.4743E-06  0.0958
   2.6295E-01   2.6935E-01   4.3977E-06  0.0840
   2.6935E-01   2.7590E-01   4.6769E-06  0.0806
   2.7590E-01   2.8261E-01   4.8801E-06  0.0779
   2.8261E-01   2.8949E-01   4.2263E-06  0.0828
   2.8949E-01   2.9653E-01   4.4133E-06  0.0798
   2.9653E-01   3.0375E-01   4.4373E-06  0.0788
   3.0375E-01   3.1114E-01   5.0961E-06  0.0726
   3.1114E-01   3.1871E-01   5.3932E-06  0.0698
   3.1871E-01   3.2646E-01   5.0737E-06  0.0710
   3.2646E-01   3.3441E-01   5.3254E-06  0.0685
   3.3441E-01   3.4254E-01   4.9236E-06  0.0704
   3.4254E-01   3.5088E-01   6.0868E-06  0.0625
   3.5088E-01   3.5941E-01   5.8356E-06  0.0631
   3.5941E-01   3.6816E-01   5.6865E-06  0.0632
   3.6816E-01   3.7712E-01   5.8600E-06  0.0615
   3.7712E-01   3.8629E-01   5.7963E-06  0.0611
   3.8629E-01   3.9569E-01   6.4518E-06  0.0572
   3.9569E-01   4.0532E-01   6.2953E-06  0.0573
   4.0532E-01   4.1518E-01   5.7314E-06  0.0593
   4.1518E-01   4.2528E-01   7.1211E-06  0.0525
   4.2528E-01   4.3563E-01   6.7975E-06  0.0531
   4.3563E-01   4.4623E-01   6.7540E-06  0.0526
   4.4623E-01   4.5708E-01   6.2694E-06  0.0540
   4.5708E-01   4.6821E-01   6.5104E-06  0.0523
   4.6821E-01   4.7960E-01   7.4067E-06  0.0485
   4.7960E-01   4.9127E-01   7.7096E-06  0.0470
   4.9127E-01   5.0322E-01   8.2064E-06  0.0449
   5.0322E-01   5.1546E-01   7.2759E-06  0.0472
   5.1546E-01   5.2800E-01   8.0803E-06  0.0443
   5.2800E-01   5.4085E-01   7.5343E-06  0.0452
   5.4085E-01   5.5401E-01   7.8914E-06  0.0437
   5.5401E-01   5.6749E-01   7.9501E-06  0.0430
   5.6749E-01   5.8130E-01   7.1519E-06  0.0448
   5.8130E-01   5.9544E-01   8.3253E-06  0.0410
   5.9544E-01   6.0993E-01   8.6151E-06  0.0399
   6.0993E-01   6.2477E-01   7.7553E-06  0.0415
   6.2477E-01   6.3997E-01   8.1269E-06  0.0401
   6.3997E-01   6.5554E-01   8.3750E-06  0.0390
   6.5554E-01   6.7149E-01   8.2295E-06  0.0388
   6.7149E-01   6.8783E-01   8.7714E-06  0.0372
   6.8783E-01   7.0456E-01   8.1106E-06  0.0382
   7.0456E-01   7.2171E-01   8.5977E-06  0.0367
   7.2171E-01   7.3927E-01   8.8079E-06  0.0358
   7.3927E-01   7.5725E-01   7.9981E-06  0.0371
   7.5725E-01   7.7568E-01   8.7317E-06  0.0351
   7.7568E-01   7.9455E-01   8.4490E-06  0.0353
   7.9455E-01   8.1388E-01   8.4369E-06  0.0348
   8.1388E-01   8.3368E-01   7.9168E-06  0.0355
   8.3368E-01   8.5397E-01   8.3246E-06  0.0342
   8.5397E-01   8.7475E-01   7.7047E-06  0.0352
   8.7475E-01   8.9603E-01   8.3737E-06  0.0333
   8.9603E-01   9.1783E-01   7.5557E-06  0.0346
   9.1783E-01   9.4016E-01   7.0562E-06  0.0354
   9.4016E-01   9.6304E-01   7.1567E-06  0.0348
   9.6304E-01   9.8647E-01   6.7971E-06  0.0352
   9.8647E-01   1.0105E+00   6.9387E-06  0.0345
   1.0105E+00   1.0351E+00   7.2817E-06  0.0332
   1.0351E+00   1.0602E+00   7.4676E-06  0.0324
   1.0602E+00   1.0860E+00   7.3269E-06  0.0323
   1.0860E+00   1.1125E+00   7.4496E-06  0.0316
   1.1125E+00   1.1395E+00   7.6697E-06  0.0308
   1.1395E+00   1.1673E+00   7.9206E-06  0.0300
   1.1673E+00   1.1957E+00   7.7692E-06  0.0299
   1.1957E+00   1.2247E+00   8.5642E-06  0.0281
   1.2247E+00   1.2545E+00   8.5867E-06  0.0277
   1.2545E+00   1.2851E+00   9.0112E-06  0.0268
   1.2851E+00   1.3163E+00   8.9819E-06  0.0265
   1.3163E+00   1.3484E+00   9.4859E-06  0.0255
   1.3484E+00   1.3812E+00   9.4417E-06  0.0252
   1.3812E+00   1.4148E+00   1.0073E-05  0.0241
   1.4148E+00   1.4492E+00   9.5684E-06  0.0244
   1.4492E+00   1.4845E+00   9.3047E-06  0.0245
   1.4845E+00   1.5206E+00   1.0198E-05  0.0231
   1.5206E+00   1.5576E+00   9.4598E-06  0.0237
   1.5576E+00   1.5955E+00   1.0467E-05  0.0222
   1.5955E+00   1.6343E+00   1.0333E-05  0.0221
   1.6343E+00   1.6741E+00   1.0232E-05  0.0220
   1.6741E+00   1.7148E+00   1.0191E-05  0.0217
   1.7148E+00   1.7565E+00   1.0101E-05  0.0216
   1.7565E+00   1.7992E+00   9.7895E-06  0.0216
   1.7992E+00   1.8430E+00   9.4004E-06  0.0218
   1.8430E+00   1.8879E+00   9.4279E-06  0.0214
   1.8879E+00   1.9338E+00   9.3122E-06  0.0213
   1.9338E+00   1.9808E+00   9.3446E-06  0.0210
   1.9808E+00   2.0290E+00   9.3969E-06  0.0207
   2.0290E+00   2.0784E+00   9.5946E-06  0.0202
   2.0784E+00   2.1290E+00   9.5101E-06  0.0200
   2.1290E+00   2.1808E+00   9.8695E-06  0.0194
   2.1808E+00   2.2338E+00   9.7389E-06  0.0193
   2.2338E+00   2.2882E+00   1.0298E-05  0.0186
   2.2882E+00   2.3439E+00   9.6402E-06  0.0190
   2.3439E+00   2.4009E+00   9.9689E-06  0.0184
   2.4009E+00   2.4593E+00   1.0205E-05  0.0180
   2.4593E+00   2.5191E+00   9.8599E-06  0.0181
   2.5191E+00   2.5804E+00   9.7822E-06  0.0180
   2.5804E+00   2.6432E+00   9.7498E-06  0.0178
   2.6432E+00   2.7075E+00   1.0068E-05  0.0173
   2.7075E+00   2.7734E+00   9.9267E-06  0.0172
   2.7734E+00   2.8409E+00   9.8144E-06  0.0171
   2.8409E+00   2.9100E+00   1.0041E-05  0.0167
   2.9100E+00   2.9808E+00   9.7909E-06  0.0167
   2.9808E+00   3.0533E+00   1.0134E-05  0.0163
   3.0533E+00   3.1276E+00   9.8267E-06  0.0163
   3.1276E+00   3.2037E+00   9.9050E-06  0.0161
   3.2037E+00   3.2817E+00   9.6952E-06  0.0161
   3.2817E+00   3.3615E+00   9.7345E-06  0.0159
   3.3615E+00   3.4433E+00   9.4904E-06  0.0159
   3.4433E+00   3.5271E+00   9.9031E-06  0.0154
   3.5271E+00   3.6129E+00   9.8322E-06  0.0152
   3.6129E+00   3.7008E+00   9.8202E-06  0.0151
   3.7008E+00   3.7908E+00   9.6096E-06  0.0151
   3.7908E+00   3.8831E+00   9.4472E-06  0.0150
   3.8831E+00   3.9776E+00   9.6895E-06  0.0147
   3.9776E+00   4.0743E+00   9.3813E-06  0.0147
   4.0743E+00   4.1735E+00   9.2029E-06  0.0147
   4.1735E+00   4.2750E+00   9.1751E-06  0.0145
   4.2750E+00   4.3790E+00   9.0353E-06  0.0145
   4.3790E+00   4.4856E+00   9.0031E-06  0.0143
   4.4856E+00   4.5947E+00   8.8064E-06  0.0143
   4.5947E+00   4.7065E+00   8.6069E-06  0.0143
   4.7065E+00   4.8210E+00   8.6551E-06  0.0141
   4.8210E+00   4.9383E+00   8.6634E-06  0.0139
   4.9383E+00   5.0585E+00   8.3904E-06  0.0140
   5.0585E+00   5.1815E+00   8.3446E-06  0.0138
   5.1815E+00   5.3076E+00   8.6061E-06  0.0135
   5.3076E+00   5.4368E+00   8.1865E-06  0.0136
   5.4368E+00   5.5690E+00   8.0949E-06  0.0136
   5.5690E+00   5.7045E+00   8.1132E-06  0.0134
   5.7045E+00   5.8433E+00   7.9978E-06  0.0133
   5.8433E+00   5.9855E+00   7.8378E-06  0.0133
   5.9855E+00   6.1311E+00   7.8162E-06  0.0132
   6.1311E+00   6.2803E+00   7.6627E-06  0.0131
   6.2803E+00   6.4331E+00   7.5546E-06  0.0131
   6.4331E+00   6.5896E+00   7.6974E-06  0.0128
   6.5896E+00   6.7500E+00   7.4344E-06  0.0129
   6.7500E+00   6.9142E+00   7.3220E-06  0.0128
   6.9142E+00   7.0824E+00   7.4044E-06  0.0126
   7.0824E+00   7.2548E+00   7.4541E-06  0.0124
   7.2548E+00   7.4313E+00   7.1698E-06  0.0125
   7.4313E+00   7.6121E+00   7.0311E-06  0.0125
   7.6121E+00   7.7973E+00   6.9301E-06  0.0124
   7.7973E+00   7.9870E+00   6.9796E-06  0.0122
   7.9870E+00   8.1813E+00   6.8267E-06  0.0122
   8.1813E+00   8.3804E+00   6.8701E-06  0.0120
   8.3804E+00   8.5843E+00   6.6784E-06  0.0121
   8.5843E+00   8.7931E+00   6.3478E-06  0.0122
   8.7931E+00   9.0071E+00   6.3385E-06  0.0121
   9.0071E+00   9.2262E+00   6.1732E-06  0.0121
   9.2262E+00   9.4507E+00   6.0280E-06  0.0121
   9.4507E+00   9.6807E+00   5.8091E-06  0.0122
   9.6807E+00   9.9162E+00   5.7957E-06  0.0121
   9.9162E+00   1.0157E+01   5.8180E-06  0.0119
   1.0157E+01   1.0405E+01   5.6346E-06  0.0120
   1.0405E+01   1.0658E+01   5.5793E-06  0.0119
   1.0658E+01   1.0917E+01   5.2581E-06  0.0121
   1.0917E+01   1.1183E+01   5.1280E-06  0.0121
   1.1183E+01   1.1455E+01   4.9307E-06  0.0122
   1.1455E+01   1.1733E+01   4.8009E-06  0.0122
   1.1733E+01   1.2019E+01   4.6602E-06  0.0123
   1.2019E+01   1.2311E+01   4.4672E-06  0.0124
   1.2311E+01   1.2611E+01   4.3685E-06  0.0124
   1.2611E+01   1.2918E+01   4.1479E-06  0.0125
   1.2918E+01   1.3232E+01   4.0490E-06  0.0125
   1.3232E+01   1.3554E+01   3.8281E-06  0.0127
   1.3554E+01   1.3884E+01   3.5835E-06  0.0130
   1.3884E+01   1.4222E+01   3.3886E-06  0.0132
   1.4222E+01   1.4568E+01   3.1605E-06  0.0135
   1.4568E+01   1.4922E+01   2.9359E-06  0.0139
   1.4922E+01   1.5285E+01   2.7029E-06  0.0143
   1.5285E+01   1.5657E+01   2.3652E-06  0.0151
   1.5657E+01   1.6038E+01   2.1964E-06  0.0155
   1.6038E+01   1.6428E+01   1.8745E-06  0.0165
   1.6428E+01   1.6828E+01   1.5791E-06  0.0178
   1.6828E+01   1.7237E+01   1.2356E-06  0.0199
   1.7237E+01   1.7657E+01   9.6185E-07  0.0223
   1.7657E+01   1.8086E+01   6.4013E-07  0.0270
   1.8086E+01   1.8526E+01   4.5812E-07  0.0315
   1.8526E+01   1.8977E+01   3.0792E-07  0.0380
   1.8977E+01   1.9439E+01   2.0098E-07  0.0464
   1.9439E+01   1.9912E+01   1.3024E-07  0.0570
   1.9912E+01   2.0396E+01   6.0685E-08  0.0825
   2.0396E+01   2.0893E+01   1.5718E-08  0.1601
   2.0893E+01   2.1401E+01   7.8688E-10  0.7071
   2.1401E+01   2.1922E+01   0.0000E+00  0.0000
   2.1922E+01   2.2455E+01   0.0000E+00  0.0000
   2.2455E+01   2.3001E+01   3.6607E-10  1.0000
   2.3001E+01   2.3561E+01   0.0000E+00  0.0000
   2.3561E+01   2.4134E+01   0.0000E+00  0.0000
   2.4134E+01   2.4721E+01   0.0000E+00  0.0000
   2.4721E+01   2.5323E+01   0.0000E+00  0.0000
   2.5323E+01   2.5939E+01   0.0000E+00  0.0000
   2.5939E+01   2.6570E+01   0.0000E+00  0.0000
   2.6570E+01   2.7217E+01   0.0000E+00  0.0000
   2.7217E+01   2.7879E+01   0.0000E+00  0.0000
   2.7879E+01   2.8557E+01   0.0000E+00  0.0000
   2.8557E+01   2.9252E+01   0.0000E+00  0.0000
   2.9252E+01   2.9964E+01   0.0000E+00  0.0000
   2.9964E+01   3.0693E+01   0.0000E+00  0.0000
   3.0693E+01   3.1440E+01   0.0000E+00  0.0000
   3.1440E+01   3.2205E+01   0.0000E+00  0.0000
   3.2205E+01   3.2988E+01   0.0000E+00  0.0000
   3.2988E+01   3.3791E+01   0.0000E+00  0.0000
   3.3791E+01   3.4613E+01   0.0000E+00  0.0000
   3.4613E+01   3.5455E+01   0.0000E+00  0.0000
   3.5455E+01   3.6318E+01   0.0000E+00  0.0000
   3.6318E+01   3.7201E+01   0.0000E+00  0.0000
   3.7201E+01   3.8106E+01   0.0000E+00  0.0000
   3.8106E+01   3.9034E+01   0.0000E+00  0.0000
   3.9034E+01   3.9983E+01   0.0000E+00  0.0000
   3.9983E+01   4.0956E+01   0.0000E+00  0.0000
   4.0956E+01   4.1953E+01   0.0000E+00  0.0000
   4.1953E+01   4.2973E+01   0.0000E+00  0.0000
   4.2973E+01   4.4019E+01   0.0000E+00  0.0000
   4.4019E+01   4.5090E+01   0.0000E+00  0.0000
   4.5090E+01   4.6187E+01   0.0000E+00  0.0000
   4.6187E+01   4.7311E+01   0.0000E+00  0.0000
   4.7311E+01   4.8462E+01   0.0000E+00  0.0000
   4.8462E+01   4.9641E+01   0.0000E+00  0.0000
   4.9641E+01   5.0849E+01   0.0000E+00  0.0000
   5.0849E+01   5.2086E+01   0.0000E+00  0.0000
   5.2086E+01   5.3353E+01   0.0000E+00  0.0000
   5.3353E+01   5.4651E+01   0.0000E+00  0.0000
   5.4651E+01   5.5981E+01   0.0000E+00  0.0000
   5.5981E+01   5.7343E+01   0.0000E+00  0.0000
   5.7343E+01   5.8738E+01   0.0000E+00  0.0000
   5.8738E+01   6.0168E+01   0.0000E+00  0.0000
   6.0168E+01   6.1632E+01   0.0000E+00  0.0000
   6.1632E+01   6.3131E+01   0.0000E+00  0.0000
   6.3131E+01   6.4667E+01   0.0000E+00  0.0000
   6.4667E+01   6.6240E+01   0.0000E+00  0.0000
   6.6240E+01   6.7852E+01   0.0000E+00  0.0000
   6.7852E+01   6.9503E+01   0.0000E+00  0.0000
   6.9503E+01   7.1194E+01   0.0000E+00  0.0000
   7.1194E+01   7.2926E+01   0.0000E+00  0.0000
   7.2926E+01   7.4701E+01   0.0000E+00  0.0000
   7.4701E+01   7.6518E+01   0.0000E+00  0.0000
   7.6518E+01   7.8380E+01   0.0000E+00  0.0000
   7.8380E+01   8.0287E+01   0.0000E+00  0.0000
   8.0287E+01   8.2240E+01   0.0000E+00  0.0000
   8.2240E+01   8.4241E+01   0.0000E+00  0.0000
   8.4241E+01   8.6291E+01   0.0000E+00  0.0000
   8.6291E+01   8.8391E+01   0.0000E+00  0.0000
   8.8391E+01   9.0541E+01   0.0000E+00  0.0000
   9.0541E+01   9.2744E+01   0.0000E+00  0.0000
   9.2744E+01   9.5001E+01   0.0000E+00  0.0000
   9.5001E+01   9.7312E+01   0.0000E+00  0.0000
   9.7312E+01   9.9680E+01   0.0000E+00  0.0000
   9.9680E+01   1.0211E+02   0.0000E+00  0.0000
   1.0211E+02   1.0459E+02   0.0000E+00  0.0000
   1.0459E+02   1.0713E+02   0.0000E+00  0.0000
   1.0713E+02   1.0974E+02   0.0000E+00  0.0000
   1.0974E+02   1.1241E+02   0.0000E+00  0.0000
   1.1241E+02   1.1515E+02   0.0000E+00  0.0000
   1.1515E+02   1.1795E+02   0.0000E+00  0.0000
   1.1795E+02   1.2082E+02   0.0000E+00  0.0000
   1.2082E+02   1.2376E+02   0.0000E+00  0.0000
   1.2376E+02   1.2677E+02   0.0000E+00  0.0000
   1.2677E+02   1.2985E+02   0.0000E+00  0.0000
   1.2985E+02   1.3301E+02   0.0000E+00  0.0000
   1.3301E+02   1.3625E+02   0.0000E+00  0.0000
   1.3625E+02   1.3956E+02   0.0000E+00  0.0000
   1.3956E+02   1.4296E+02   0.0000E+00  0.0000
   1.4296E+02   1.4644E+02   0.0000E+00  0.0000
   1.4644E+02   1.5000E+02   0.0000E+00  0.0000

#   sum over                 7.0769E-07
'no. =    1   reg = 105 - 205'
msuc: {\huge [t-cross] in region mesh}
msdr: {\it plotted by \ANGEL \version}
msdl: {\it calculated by \PHITS  3.26}
wt: s(0.7)
\vspace{-3}
  region surface crossing
  area  &=&   1.0000E+00 [cm^2]
e:
 
# Information for Restart Calculation
# This calculation was newly started
# istdev =  2 # 1:Batch variance, 2:History variance
# resc2  = 5.00000000000000000E+09 # Total source weight or Total source weight / maxcas
# resc3  = 5.00000000000000000E+09 # Total history number or Total batch number
# maxcas =   100000000 # History / Batch, only used for istdev=1
# bitrseed = 0110100000100010111000001110001111001110100100011111101000111001 # bit data of rseed
