[ T-Cross ]
    title = [t-cross] in region mesh
     mesh =  reg            # mesh type is region-wise
      reg =    1            # number of crossing regions
      non     r-from    r-to       area
      1       115       215        1.000000    
   e-type =    3            # e-mesh is log given by emin, emax and ne
     emin =  1.0000000E-02  # minimum value of e-mesh points
     emax =   150.0000      # maximum value of e-mesh points
#    edel =  2.4039514E-02  # mesh width of e-mesh points
       ne =    400          # number of e-mesh points
#    data = ( e(i), i = 1, ne + 1 )
#           1.00000E-02  1.02433E-02  1.04925E-02  1.07478E-02  1.10093E-02
#           1.12772E-02  1.15516E-02  1.18326E-02  1.21205E-02  1.24154E-02
#           1.27175E-02  1.30269E-02  1.33439E-02  1.36686E-02  1.40011E-02
#           1.43418E-02  1.46907E-02  1.50482E-02  1.54143E-02  1.57894E-02
#           1.61735E-02  1.65670E-02  1.69701E-02  1.73830E-02  1.78060E-02
#           1.82392E-02  1.86830E-02  1.91375E-02  1.96032E-02  2.00801E-02
#           2.05687E-02  2.10692E-02  2.15818E-02  2.21069E-02  2.26448E-02
#           2.31957E-02  2.37601E-02  2.43382E-02  2.49304E-02  2.55369E-02
#           2.61583E-02  2.67947E-02  2.74467E-02  2.81145E-02  2.87985E-02
#           2.94992E-02  3.02169E-02  3.09521E-02  3.17052E-02  3.24766E-02
#           3.32668E-02  3.40762E-02  3.49053E-02  3.57546E-02  3.66246E-02
#           3.75157E-02  3.84284E-02  3.93634E-02  4.03212E-02  4.13022E-02
#           4.23071E-02  4.33365E-02  4.43909E-02  4.54710E-02  4.65773E-02
#           4.77106E-02  4.88714E-02  5.00605E-02  5.12785E-02  5.25262E-02
#           5.38042E-02  5.51133E-02  5.64542E-02  5.78278E-02  5.92348E-02
#           6.06760E-02  6.21523E-02  6.36645E-02  6.52135E-02  6.68002E-02
#           6.84255E-02  7.00904E-02  7.17957E-02  7.35426E-02  7.53319E-02
#           7.71648E-02  7.90423E-02  8.09655E-02  8.29354E-02  8.49533E-02
#           8.70203E-02  8.91376E-02  9.13064E-02  9.35279E-02  9.58035E-02
#           9.81345E-02  1.00522E-01  1.02968E-01  1.05473E-01  1.08040E-01
#           1.10668E-01  1.13361E-01  1.16119E-01  1.18944E-01  1.21838E-01
#           1.24803E-01  1.27839E-01  1.30950E-01  1.34136E-01  1.37399E-01
#           1.40742E-01  1.44167E-01  1.47675E-01  1.51268E-01  1.54948E-01
#           1.58718E-01  1.62580E-01  1.66535E-01  1.70587E-01  1.74738E-01
#           1.78989E-01  1.83344E-01  1.87805E-01  1.92375E-01  1.97055E-01
#           2.01850E-01  2.06761E-01  2.11792E-01  2.16945E-01  2.22223E-01
#           2.27630E-01  2.33169E-01  2.38842E-01  2.44653E-01  2.50605E-01
#           2.56703E-01  2.62949E-01  2.69346E-01  2.75900E-01  2.82613E-01
#           2.89489E-01  2.96532E-01  3.03747E-01  3.11138E-01  3.18708E-01
#           3.26462E-01  3.34405E-01  3.42542E-01  3.50876E-01  3.59413E-01
#           3.68158E-01  3.77116E-01  3.86291E-01  3.95690E-01  4.05317E-01
#           4.15179E-01  4.25281E-01  4.35628E-01  4.46227E-01  4.57084E-01
#           4.68205E-01  4.79597E-01  4.91266E-01  5.03219E-01  5.15463E-01
#           5.28005E-01  5.40851E-01  5.54011E-01  5.67490E-01  5.81298E-01
#           5.95441E-01  6.09929E-01  6.24769E-01  6.39970E-01  6.55541E-01
#           6.71491E-01  6.87828E-01  7.04564E-01  7.21706E-01  7.39266E-01
#           7.57253E-01  7.75678E-01  7.94551E-01  8.13883E-01  8.33685E-01
#           8.53969E-01  8.74747E-01  8.96030E-01  9.17831E-01  9.40163E-01
#           9.63038E-01  9.86469E-01  1.01047E+00  1.03506E+00  1.06024E+00
#           1.08604E+00  1.11246E+00  1.13953E+00  1.16725E+00  1.19565E+00
#           1.22474E+00  1.25454E+00  1.28507E+00  1.31633E+00  1.34836E+00
#           1.38117E+00  1.41477E+00  1.44920E+00  1.48446E+00  1.52057E+00
#           1.55757E+00  1.59547E+00  1.63429E+00  1.67405E+00  1.71478E+00
#           1.75650E+00  1.79924E+00  1.84302E+00  1.88786E+00  1.93379E+00
#           1.98084E+00  2.02904E+00  2.07841E+00  2.12898E+00  2.18078E+00
#           2.23384E+00  2.28819E+00  2.34386E+00  2.40089E+00  2.45930E+00
#           2.51914E+00  2.58043E+00  2.64322E+00  2.70753E+00  2.77341E+00
#           2.84088E+00  2.91001E+00  2.98081E+00  3.05333E+00  3.12762E+00
#           3.20372E+00  3.28167E+00  3.36152E+00  3.44330E+00  3.52708E+00
#           3.61290E+00  3.70080E+00  3.79085E+00  3.88308E+00  3.97756E+00
#           4.07434E+00  4.17347E+00  4.27501E+00  4.37903E+00  4.48557E+00
#           4.59471E+00  4.70650E+00  4.82102E+00  4.93832E+00  5.05847E+00
#           5.18155E+00  5.30762E+00  5.43676E+00  5.56904E+00  5.70453E+00
#           5.84333E+00  5.98550E+00  6.13114E+00  6.28031E+00  6.43312E+00
#           6.58964E+00  6.74997E+00  6.91420E+00  7.08243E+00  7.25475E+00
#           7.43126E+00  7.61207E+00  7.79728E+00  7.98700E+00  8.18133E+00
#           8.38038E+00  8.58428E+00  8.79315E+00  9.00709E+00  9.22624E+00
#           9.45072E+00  9.68067E+00  9.91620E+00  1.01575E+01  1.04046E+01
#           1.06578E+01  1.09171E+01  1.11827E+01  1.14548E+01  1.17335E+01
#           1.20190E+01  1.23114E+01  1.26109E+01  1.29178E+01  1.32321E+01
#           1.35540E+01  1.38838E+01  1.42216E+01  1.45676E+01  1.49221E+01
#           1.52851E+01  1.56570E+01  1.60380E+01  1.64282E+01  1.68279E+01
#           1.72374E+01  1.76568E+01  1.80864E+01  1.85264E+01  1.89772E+01
#           1.94389E+01  1.99119E+01  2.03963E+01  2.08926E+01  2.14009E+01
#           2.19216E+01  2.24550E+01  2.30014E+01  2.35610E+01  2.41343E+01
#           2.47215E+01  2.53230E+01  2.59391E+01  2.65702E+01  2.72167E+01
#           2.78789E+01  2.85572E+01  2.92520E+01  2.99637E+01  3.06928E+01
#           3.14396E+01  3.22045E+01  3.29881E+01  3.37907E+01  3.46128E+01
#           3.54550E+01  3.63177E+01  3.72013E+01  3.81064E+01  3.90336E+01
#           3.99833E+01  4.09561E+01  4.19526E+01  4.29734E+01  4.40189E+01
#           4.50900E+01  4.61870E+01  4.73108E+01  4.84619E+01  4.96410E+01
#           5.08488E+01  5.20860E+01  5.33533E+01  5.46514E+01  5.59812E+01
#           5.73432E+01  5.87384E+01  6.01676E+01  6.16315E+01  6.31311E+01
#           6.46671E+01  6.62405E+01  6.78522E+01  6.95031E+01  7.11941E+01
#           7.29263E+01  7.47007E+01  7.65182E+01  7.83800E+01  8.02870E+01
#           8.22405E+01  8.42414E+01  8.62911E+01  8.83906E+01  9.05412E+01
#           9.27442E+01  9.50007E+01  9.73122E+01  9.96799E+01  1.02105E+02
#           1.04589E+02  1.07134E+02  1.09741E+02  1.12411E+02  1.15146E+02
#           1.17948E+02  1.20817E+02  1.23757E+02  1.26768E+02  1.29852E+02
#           1.33012E+02  1.36248E+02  1.39563E+02  1.42959E+02  1.46437E+02
#           1.50000E+02
     unit =    2            # unit is [1/cm^2/(MeV/n)/source]
     axis =  eng            # axis of output
     file = detector-16.out  # file name of output for the above axis
   output = f-curr          # surface crossing forward current spectrum
     part =  neutron  
# kf/name :  2112     
#    used :        main (  %)        temp (  %)       total (  %)
#  memory :         414 (  0)           0 (  0)         414 (  0)

#------------------------------------------------------------------------------
#newpage:
#   no. =    1   reg = 115 - 215

x: Energy [MeV/n]
y:  F-Curr [1/cm^2/(MeV/n)/source]         
p: xlog ylog afac(0.8) form(0.9)
h: n            x            y(neutron ),hh0l   n 
#  e-lower      e-upper      neutron     r.err 
   1.0000E-02   1.0243E-02   0.0000E+00  0.0000
   1.0243E-02   1.0493E-02   0.0000E+00  0.0000
   1.0493E-02   1.0748E-02   0.0000E+00  0.0000
   1.0748E-02   1.1009E-02   0.0000E+00  0.0000
   1.1009E-02   1.1277E-02   7.4664E-07  1.0000
   1.1277E-02   1.1552E-02   0.0000E+00  0.0000
   1.1552E-02   1.1833E-02   0.0000E+00  0.0000
   1.1833E-02   1.2121E-02   0.0000E+00  0.0000
   1.2121E-02   1.2415E-02   0.0000E+00  0.0000
   1.2415E-02   1.2718E-02   6.6208E-07  1.0000
   1.2718E-02   1.3027E-02   6.4636E-07  1.0000
   1.3027E-02   1.3344E-02   0.0000E+00  0.0000
   1.3344E-02   1.3669E-02   0.0000E+00  0.0000
   1.3669E-02   1.4001E-02   6.0138E-07  1.0000
   1.4001E-02   1.4342E-02   0.0000E+00  0.0000
   1.4342E-02   1.4691E-02   0.0000E+00  0.0000
   1.4691E-02   1.5048E-02   5.5954E-07  1.0000
   1.5048E-02   1.5414E-02   0.0000E+00  0.0000
   1.5414E-02   1.5789E-02   0.0000E+00  0.0000
   1.5789E-02   1.6174E-02   0.0000E+00  0.0000
   1.6174E-02   1.6567E-02   5.0824E-07  1.0000
   1.6567E-02   1.6970E-02   2.4808E-07  1.0000
   1.6970E-02   1.7383E-02   0.0000E+00  0.0000
   1.7383E-02   1.7806E-02   1.8915E-06  0.5000
   1.7806E-02   1.8239E-02   1.1080E-07  1.0000
   1.8239E-02   1.8683E-02   0.0000E+00  0.0000
   1.8683E-02   1.9138E-02   1.0865E-07  1.0000
   1.9138E-02   1.9603E-02   4.2952E-07  1.0000
   1.9603E-02   2.0080E-02   9.1699E-07  0.6326
   2.0080E-02   2.0569E-02   9.0186E-07  0.6485
   2.0569E-02   2.1069E-02   3.9964E-07  1.0000
   2.1069E-02   2.1582E-02   7.8029E-07  0.7071
   2.1582E-02   2.2107E-02   4.7470E-07  0.8263
   2.2107E-02   2.2645E-02   1.2002E-06  0.5412
   2.2645E-02   2.3196E-02   1.4520E-06  0.5000
   2.3196E-02   2.3760E-02   1.1508E-06  0.5388
   2.3760E-02   2.4338E-02   4.8312E-07  0.7703
   2.4338E-02   2.4930E-02   1.3510E-06  0.5000
   2.4930E-02   2.5537E-02   6.5944E-07  0.7071
   2.5537E-02   2.6158E-02   1.0419E-06  0.5401
   2.6158E-02   2.6795E-02   7.0266E-07  0.6412
   2.6795E-02   2.7447E-02   1.8971E-06  0.3972
   2.7447E-02   2.8114E-02   1.2589E-06  0.4783
   2.8114E-02   2.8799E-02   1.6206E-06  0.4151
   2.8799E-02   2.9499E-02   1.1352E-06  0.5000
   2.9499E-02   3.0217E-02   2.6169E-06  0.3208
   3.0217E-02   3.0952E-02   2.1918E-06  0.3319
   3.0952E-02   3.1705E-02   1.0623E-06  0.5000
   3.1705E-02   3.2477E-02   5.8015E-07  0.6409
   3.2477E-02   3.3267E-02   1.3642E-06  0.3936
   3.3267E-02   3.4076E-02   1.0291E-06  0.4818
   3.4076E-02   3.4905E-02   2.7350E-06  0.2783
   3.4905E-02   3.5755E-02   2.1850E-06  0.3135
   3.5755E-02   3.6625E-02   2.1384E-06  0.3242
   3.6625E-02   3.7516E-02   1.7357E-06  0.3435
   3.7516E-02   3.8428E-02   1.3147E-06  0.4082
   3.8428E-02   3.9363E-02   2.6048E-06  0.2749
   3.9363E-02   4.0321E-02   1.9686E-06  0.3133
   4.0321E-02   4.1302E-02   2.9153E-06  0.2550
   4.1302E-02   4.2307E-02   3.9394E-06  0.2213
   4.2307E-02   4.3337E-02   4.0617E-06  0.2120
   4.3337E-02   4.4391E-02   5.3653E-06  0.1851
   4.4391E-02   4.5471E-02   3.0604E-06  0.2426
   4.5471E-02   4.6577E-02   3.6379E-06  0.2184
   4.6577E-02   4.7711E-02   2.0402E-06  0.2800
   4.7711E-02   4.8871E-02   2.5290E-06  0.2507
   4.8871E-02   5.0061E-02   2.8884E-06  0.2328
   5.0061E-02   5.1279E-02   4.2524E-06  0.1909
   5.1279E-02   5.2526E-02   3.1887E-06  0.2128
   5.2526E-02   5.3804E-02   3.0285E-06  0.2224
   5.3804E-02   5.5113E-02   3.7401E-06  0.1915
   5.5113E-02   5.6454E-02   2.8816E-06  0.2215
   5.6454E-02   5.7828E-02   4.6214E-06  0.1757
   5.7828E-02   5.9235E-02   5.4383E-06  0.1572
   5.9235E-02   6.0676E-02   5.8723E-06  0.1501
   6.0676E-02   6.2152E-02   5.7245E-06  0.1482
   6.2152E-02   6.3665E-02   6.7601E-06  0.1367
   6.3665E-02   6.5214E-02   5.8107E-06  0.1443
   6.5214E-02   6.6800E-02   5.7802E-06  0.1425
   6.6800E-02   6.8426E-02   6.1566E-06  0.1376
   6.8426E-02   7.0090E-02   5.9447E-06  0.1378
   7.0090E-02   7.1796E-02   6.9596E-06  0.1267
   7.1796E-02   7.3543E-02   6.4373E-06  0.1310
   7.3543E-02   7.5332E-02   6.5042E-06  0.1264
   7.5332E-02   7.7165E-02   7.8897E-06  0.1138
   7.7165E-02   7.9042E-02   9.1912E-06  0.1050
   7.9042E-02   8.0965E-02   8.9717E-06  0.1039
   8.0965E-02   8.2935E-02   1.0751E-05  0.0944
   8.2935E-02   8.4953E-02   7.5471E-06  0.1121
   8.4953E-02   8.7020E-02   9.0082E-06  0.1006
   8.7020E-02   8.9138E-02   1.1654E-05  0.0875
   8.9138E-02   9.1306E-02   1.2021E-05  0.0855
   9.1306E-02   9.3528E-02   1.1916E-05  0.0842
   9.3528E-02   9.5804E-02   1.1878E-05  0.0841
   9.5804E-02   9.8134E-02   1.1757E-05  0.0822
   9.8134E-02   1.0052E-01   1.2253E-05  0.0793
   1.0052E-01   1.0297E-01   1.3415E-05  0.0761
   1.0297E-01   1.0547E-01   1.2334E-05  0.0778
   1.0547E-01   1.0804E-01   1.2906E-05  0.0745
   1.0804E-01   1.1067E-01   1.5066E-05  0.0694
   1.1067E-01   1.1336E-01   1.4238E-05  0.0697
   1.1336E-01   1.1612E-01   1.6679E-05  0.0643
   1.1612E-01   1.1894E-01   1.5565E-05  0.0651
   1.1894E-01   1.2184E-01   1.7274E-05  0.0615
   1.2184E-01   1.2480E-01   1.9241E-05  0.0578
   1.2480E-01   1.2784E-01   1.8852E-05  0.0572
   1.2784E-01   1.3095E-01   2.0291E-05  0.0544
   1.3095E-01   1.3414E-01   2.1731E-05  0.0526
   1.3414E-01   1.3740E-01   2.0989E-05  0.0523
   1.3740E-01   1.4074E-01   2.2531E-05  0.0500
   1.4074E-01   1.4417E-01   2.4576E-05  0.0474
   1.4417E-01   1.4767E-01   2.4710E-05  0.0465
   1.4767E-01   1.5127E-01   2.6500E-05  0.0446
   1.5127E-01   1.5495E-01   2.6796E-05  0.0439
   1.5495E-01   1.5872E-01   2.7599E-05  0.0425
   1.5872E-01   1.6258E-01   2.9997E-05  0.0405
   1.6258E-01   1.6654E-01   2.9466E-05  0.0403
   1.6654E-01   1.7059E-01   3.0726E-05  0.0389
   1.7059E-01   1.7474E-01   3.2826E-05  0.0374
   1.7474E-01   1.7899E-01   3.6107E-05  0.0350
   1.7899E-01   1.8334E-01   3.5338E-05  0.0350
   1.8334E-01   1.8781E-01   3.5825E-05  0.0344
   1.8781E-01   1.9237E-01   4.0867E-05  0.0318
   1.9237E-01   1.9706E-01   4.1652E-05  0.0311
   1.9706E-01   2.0185E-01   4.4283E-05  0.0298
   2.0185E-01   2.0676E-01   4.1769E-05  0.0303
   2.0676E-01   2.1179E-01   4.4310E-05  0.0291
   2.1179E-01   2.1694E-01   4.8667E-05  0.0276
   2.1694E-01   2.2222E-01   5.0087E-05  0.0268
   2.2222E-01   2.2763E-01   4.9772E-05  0.0266
   2.2763E-01   2.3317E-01   5.5060E-05  0.0250
   2.3317E-01   2.3884E-01   5.6984E-05  0.0243
   2.3884E-01   2.4465E-01   5.7162E-05  0.0239
   2.4465E-01   2.5061E-01   6.0885E-05  0.0229
   2.5061E-01   2.5670E-01   6.2808E-05  0.0223
   2.5670E-01   2.6295E-01   6.4176E-05  0.0218
   2.6295E-01   2.6935E-01   7.1055E-05  0.0205
   2.6935E-01   2.7590E-01   7.2310E-05  0.0201
   2.7590E-01   2.8261E-01   7.5083E-05  0.0195
   2.8261E-01   2.8949E-01   7.8389E-05  0.0188
   2.8949E-01   2.9653E-01   7.9848E-05  0.0185
   2.9653E-01   3.0375E-01   8.3468E-05  0.0178
   3.0375E-01   3.1114E-01   8.1299E-05  0.0178
   3.1114E-01   3.1871E-01   8.5688E-05  0.0172
   3.1871E-01   3.2646E-01   9.0085E-05  0.0166
   3.2646E-01   3.3441E-01   9.3736E-05  0.0161
   3.3441E-01   3.4254E-01   9.9248E-05  0.0154
   3.4254E-01   3.5088E-01   1.0407E-04  0.0149
   3.5088E-01   3.5941E-01   1.0631E-04  0.0146
   3.5941E-01   3.6816E-01   1.1316E-04  0.0140
   3.6816E-01   3.7712E-01   1.1408E-04  0.0137
   3.7712E-01   3.8629E-01   1.1798E-04  0.0134
   3.8629E-01   3.9569E-01   1.2056E-04  0.0131
   3.9569E-01   4.0532E-01   1.2511E-04  0.0127
   4.0532E-01   4.1518E-01   1.3300E-04  0.0122
   4.1518E-01   4.2528E-01   1.3709E-04  0.0118
   4.2528E-01   4.3563E-01   1.4092E-04  0.0115
   4.3563E-01   4.4623E-01   1.4377E-04  0.0113
   4.4623E-01   4.5708E-01   1.5272E-04  0.0108
   4.5708E-01   4.6821E-01   1.5323E-04  0.0107
   4.6821E-01   4.7960E-01   1.6061E-04  0.0103
   4.7960E-01   4.9127E-01   1.6633E-04  0.0100
   4.9127E-01   5.0322E-01   1.7148E-04  0.0098
   5.0322E-01   5.1546E-01   1.7078E-04  0.0097
   5.1546E-01   5.2800E-01   1.8208E-04  0.0092
   5.2800E-01   5.4085E-01   1.8935E-04  0.0090
   5.4085E-01   5.5401E-01   1.9386E-04  0.0087
   5.5401E-01   5.6749E-01   2.0272E-04  0.0085
   5.6749E-01   5.8130E-01   2.1030E-04  0.0082
   5.8130E-01   5.9544E-01   2.1737E-04  0.0080
   5.9544E-01   6.0993E-01   2.2352E-04  0.0078
   6.0993E-01   6.2477E-01   2.3120E-04  0.0075
   6.2477E-01   6.3997E-01   2.4292E-04  0.0073
   6.3997E-01   6.5554E-01   2.4842E-04  0.0071
   6.5554E-01   6.7149E-01   2.5900E-04  0.0069
   6.7149E-01   6.8783E-01   2.6286E-04  0.0067
   6.8783E-01   7.0456E-01   2.6892E-04  0.0066
   7.0456E-01   7.2171E-01   2.7876E-04  0.0064
   7.2171E-01   7.3927E-01   2.8759E-04  0.0062
   7.3927E-01   7.5725E-01   2.9600E-04  0.0061
   7.5725E-01   7.7568E-01   3.0165E-04  0.0059
   7.7568E-01   7.9455E-01   3.1101E-04  0.0058
   7.9455E-01   8.1388E-01   3.2137E-04  0.0056
   8.1388E-01   8.3368E-01   3.2695E-04  0.0055
   8.3368E-01   8.5397E-01   3.3678E-04  0.0053
   8.5397E-01   8.7475E-01   3.4442E-04  0.0052
   8.7475E-01   8.9603E-01   3.4865E-04  0.0051
   8.9603E-01   9.1783E-01   3.6154E-04  0.0050
   9.1783E-01   9.4016E-01   3.7054E-04  0.0049
   9.4016E-01   9.6304E-01   3.7767E-04  0.0047
   9.6304E-01   9.8647E-01   3.8036E-04  0.0047
   9.8647E-01   1.0105E+00   3.8346E-04  0.0046
   1.0105E+00   1.0351E+00   3.8092E-04  0.0046
   1.0351E+00   1.0602E+00   3.7769E-04  0.0045
   1.0602E+00   1.0860E+00   3.7472E-04  0.0045
   1.0860E+00   1.1125E+00   3.7433E-04  0.0044
   1.1125E+00   1.1395E+00   3.7631E-04  0.0044
   1.1395E+00   1.1673E+00   3.7450E-04  0.0043
   1.1673E+00   1.1957E+00   3.8113E-04  0.0042
   1.1957E+00   1.2247E+00   3.8252E-04  0.0042
   1.2247E+00   1.2545E+00   3.7953E-04  0.0041
   1.2545E+00   1.2851E+00   3.7485E-04  0.0041
   1.2851E+00   1.3163E+00   3.7120E-04  0.0041
   1.3163E+00   1.3484E+00   3.7208E-04  0.0040
   1.3484E+00   1.3812E+00   3.7068E-04  0.0040
   1.3812E+00   1.4148E+00   3.7460E-04  0.0039
   1.4148E+00   1.4492E+00   3.6929E-04  0.0039
   1.4492E+00   1.4845E+00   3.6961E-04  0.0038
   1.4845E+00   1.5206E+00   3.7015E-04  0.0038
   1.5206E+00   1.5576E+00   3.6672E-04  0.0038
   1.5576E+00   1.5955E+00   3.6009E-04  0.0038
   1.5955E+00   1.6343E+00   3.5494E-04  0.0037
   1.6343E+00   1.6741E+00   3.5282E-04  0.0037
   1.6741E+00   1.7148E+00   3.4917E-04  0.0037
   1.7148E+00   1.7565E+00   3.4294E-04  0.0037
   1.7565E+00   1.7992E+00   3.4234E-04  0.0036
   1.7992E+00   1.8430E+00   3.4599E-04  0.0036
   1.8430E+00   1.8879E+00   3.3948E-04  0.0035
   1.8879E+00   1.9338E+00   3.3615E-04  0.0035
   1.9338E+00   1.9808E+00   3.3157E-04  0.0035
   1.9808E+00   2.0290E+00   3.2980E-04  0.0035
   2.0290E+00   2.0784E+00   3.2687E-04  0.0034
   2.0784E+00   2.1290E+00   3.2198E-04  0.0034
   2.1290E+00   2.1808E+00   3.1768E-04  0.0034
   2.1808E+00   2.2338E+00   3.1531E-04  0.0034
   2.2338E+00   2.2882E+00   3.0825E-04  0.0034
   2.2882E+00   2.3439E+00   3.0198E-04  0.0034
   2.3439E+00   2.4009E+00   2.9620E-04  0.0033
   2.4009E+00   2.4593E+00   2.9030E-04  0.0033
   2.4593E+00   2.5191E+00   2.8452E-04  0.0033
   2.5191E+00   2.5804E+00   2.8048E-04  0.0033
   2.5804E+00   2.6432E+00   2.7298E-04  0.0033
   2.6432E+00   2.7075E+00   2.6622E-04  0.0033
   2.7075E+00   2.7734E+00   2.6052E-04  0.0033
   2.7734E+00   2.8409E+00   2.5753E-04  0.0033
   2.8409E+00   2.9100E+00   2.5082E-04  0.0033
   2.9100E+00   2.9808E+00   2.4555E-04  0.0033
   2.9808E+00   3.0533E+00   2.4021E-04  0.0033
   3.0533E+00   3.1276E+00   2.3545E-04  0.0033
   3.1276E+00   3.2037E+00   2.2830E-04  0.0033
   3.2037E+00   3.2817E+00   2.2295E-04  0.0033
   3.2817E+00   3.3615E+00   2.1607E-04  0.0033
   3.3615E+00   3.4433E+00   2.1176E-04  0.0033
   3.4433E+00   3.5271E+00   2.0690E-04  0.0033
   3.5271E+00   3.6129E+00   2.0120E-04  0.0033
   3.6129E+00   3.7008E+00   1.9511E-04  0.0033
   3.7008E+00   3.7908E+00   1.8972E-04  0.0033
   3.7908E+00   3.8831E+00   1.8431E-04  0.0033
   3.8831E+00   3.9776E+00   1.7672E-04  0.0033
   3.9776E+00   4.0743E+00   1.7070E-04  0.0033
   4.0743E+00   4.1735E+00   1.6357E-04  0.0034
   4.1735E+00   4.2750E+00   1.5775E-04  0.0034
   4.2750E+00   4.3790E+00   1.5261E-04  0.0034
   4.3790E+00   4.4856E+00   1.4902E-04  0.0034
   4.4856E+00   4.5947E+00   1.4398E-04  0.0034
   4.5947E+00   4.7065E+00   1.3971E-04  0.0034
   4.7065E+00   4.8210E+00   1.3527E-04  0.0034
   4.8210E+00   4.9383E+00   1.3079E-04  0.0035
   4.9383E+00   5.0585E+00   1.2776E-04  0.0035
   5.0585E+00   5.1815E+00   1.2486E-04  0.0035
   5.1815E+00   5.3076E+00   1.2203E-04  0.0035
   5.3076E+00   5.4368E+00   1.1773E-04  0.0035
   5.4368E+00   5.5690E+00   1.1373E-04  0.0035
   5.5690E+00   5.7045E+00   1.0970E-04  0.0035
   5.7045E+00   5.8433E+00   1.0659E-04  0.0035
   5.8433E+00   5.9855E+00   1.0376E-04  0.0035
   5.9855E+00   6.1311E+00   1.0107E-04  0.0036
   6.1311E+00   6.2803E+00   9.8686E-05  0.0036
   6.2803E+00   6.4331E+00   9.6434E-05  0.0036
   6.4331E+00   6.5896E+00   9.4356E-05  0.0036
   6.5896E+00   6.7500E+00   9.2798E-05  0.0036
   6.7500E+00   6.9142E+00   9.0177E-05  0.0036
   6.9142E+00   7.0824E+00   8.7462E-05  0.0036
   7.0824E+00   7.2548E+00   8.5498E-05  0.0036
   7.2548E+00   7.4313E+00   8.3586E-05  0.0036
   7.4313E+00   7.6121E+00   8.2049E-05  0.0036
   7.6121E+00   7.7973E+00   8.0453E-05  0.0036
   7.7973E+00   7.9870E+00   7.8807E-05  0.0036
   7.9870E+00   8.1813E+00   7.6798E-05  0.0036
   8.1813E+00   8.3804E+00   7.4642E-05  0.0036
   8.3804E+00   8.5843E+00   7.3149E-05  0.0036
   8.5843E+00   8.7931E+00   7.0410E-05  0.0036
   8.7931E+00   9.0071E+00   6.8484E-05  0.0036
   9.0071E+00   9.2262E+00   6.5932E-05  0.0036
   9.2262E+00   9.4507E+00   6.3395E-05  0.0037
   9.4507E+00   9.6807E+00   6.1526E-05  0.0037
   9.6807E+00   9.9162E+00   6.0102E-05  0.0037
   9.9162E+00   1.0157E+01   5.8041E-05  0.0037
   1.0157E+01   1.0405E+01   5.6113E-05  0.0037
   1.0405E+01   1.0658E+01   5.4652E-05  0.0037
   1.0658E+01   1.0917E+01   5.3137E-05  0.0037
   1.0917E+01   1.1183E+01   5.1527E-05  0.0038
   1.1183E+01   1.1455E+01   4.9823E-05  0.0038
   1.1455E+01   1.1733E+01   4.8178E-05  0.0038
   1.1733E+01   1.2019E+01   4.6373E-05  0.0038
   1.2019E+01   1.2311E+01   4.5062E-05  0.0038
   1.2311E+01   1.2611E+01   4.2907E-05  0.0039
   1.2611E+01   1.2918E+01   4.2053E-05  0.0039
   1.2918E+01   1.3232E+01   3.9935E-05  0.0039
   1.3232E+01   1.3554E+01   3.8292E-05  0.0040
   1.3554E+01   1.3884E+01   3.6958E-05  0.0040
   1.3884E+01   1.4222E+01   3.5645E-05  0.0040
   1.4222E+01   1.4568E+01   3.4364E-05  0.0040
   1.4568E+01   1.4922E+01   3.2771E-05  0.0041
   1.4922E+01   1.5285E+01   3.1376E-05  0.0041
   1.5285E+01   1.5657E+01   3.0059E-05  0.0042
   1.5657E+01   1.6038E+01   2.8869E-05  0.0042
   1.6038E+01   1.6428E+01   2.7352E-05  0.0043
   1.6428E+01   1.6828E+01   2.5933E-05  0.0043
   1.6828E+01   1.7237E+01   2.4032E-05  0.0045
   1.7237E+01   1.7657E+01   2.2673E-05  0.0045
   1.7657E+01   1.8086E+01   2.1319E-05  0.0046
   1.8086E+01   1.8526E+01   2.0194E-05  0.0047
   1.8526E+01   1.8977E+01   1.9115E-05  0.0048
   1.8977E+01   1.9439E+01   1.7905E-05  0.0049
   1.9439E+01   1.9912E+01   1.6999E-05  0.0050
   1.9912E+01   2.0396E+01   1.7510E-05  0.0049
   2.0396E+01   2.0893E+01   1.6900E-05  0.0049
   2.0893E+01   2.1401E+01   1.5818E-05  0.0050
   2.1401E+01   2.1922E+01   1.5073E-05  0.0050
   2.1922E+01   2.2455E+01   1.4027E-05  0.0052
   2.2455E+01   2.3001E+01   1.3300E-05  0.0052
   2.3001E+01   2.3561E+01   1.2489E-05  0.0053
   2.3561E+01   2.4134E+01   1.1634E-05  0.0055
   2.4134E+01   2.4721E+01   1.0982E-05  0.0056
   2.4721E+01   2.5323E+01   1.0063E-05  0.0057
   2.5323E+01   2.5939E+01   9.4205E-06  0.0059
   2.5939E+01   2.6570E+01   8.7562E-06  0.0060
   2.6570E+01   2.7217E+01   8.1173E-06  0.0062
   2.7217E+01   2.7879E+01   7.4569E-06  0.0064
   2.7879E+01   2.8557E+01   6.8352E-06  0.0066
   2.8557E+01   2.9252E+01   6.2465E-06  0.0068
   2.9252E+01   2.9964E+01   5.7146E-06  0.0070
   2.9964E+01   3.0693E+01   5.2200E-06  0.0072
   3.0693E+01   3.1440E+01   4.7093E-06  0.0075
   3.1440E+01   3.2205E+01   4.2518E-06  0.0078
   3.2205E+01   3.2988E+01   3.8700E-06  0.0081
   3.2988E+01   3.3791E+01   3.4410E-06  0.0085
   3.3791E+01   3.4613E+01   3.1181E-06  0.0088
   3.4613E+01   3.5455E+01   2.7553E-06  0.0093
   3.5455E+01   3.6318E+01   2.4100E-06  0.0098
   3.6318E+01   3.7201E+01   2.1366E-06  0.0103
   3.7201E+01   3.8106E+01   1.9109E-06  0.0108
   3.8106E+01   3.9034E+01   1.6690E-06  0.0114
   3.9034E+01   3.9983E+01   1.4510E-06  0.0120
   3.9983E+01   4.0956E+01   1.2323E-06  0.0129
   4.0956E+01   4.1953E+01   1.0553E-06  0.0138
   4.1953E+01   4.2973E+01   9.3462E-07  0.0145
   4.2973E+01   4.4019E+01   7.9592E-07  0.0155
   4.4019E+01   4.5090E+01   6.8757E-07  0.0165
   4.5090E+01   4.6187E+01   5.8155E-07  0.0177
   4.6187E+01   4.7311E+01   4.6540E-07  0.0196
   4.7311E+01   4.8462E+01   3.9458E-07  0.0210
   4.8462E+01   4.9641E+01   3.1278E-07  0.0233
   4.9641E+01   5.0849E+01   2.6759E-07  0.0249
   5.0849E+01   5.2086E+01   2.0757E-07  0.0279
   5.2086E+01   5.3353E+01   1.6287E-07  0.0311
   5.3353E+01   5.4651E+01   1.3882E-07  0.0333
   5.4651E+01   5.5981E+01   1.0348E-07  0.0381
   5.5981E+01   5.7343E+01   8.5018E-08  0.0416
   5.7343E+01   5.8738E+01   6.0063E-08  0.0489
   5.8738E+01   6.0168E+01   4.1423E-08  0.0581
   6.0168E+01   6.1632E+01   2.9646E-08  0.0679
   6.1632E+01   6.3131E+01   1.8139E-08  0.0857
   6.3131E+01   6.4667E+01   7.2915E-09  0.1336
   6.4667E+01   6.6240E+01   4.1947E-09  0.1741
   6.6240E+01   6.7852E+01   6.2047E-10  0.4472
   6.7852E+01   6.9503E+01   4.8459E-10  0.5000
   6.9503E+01   7.1194E+01   1.1827E-10  1.0000
   7.1194E+01   7.2926E+01   0.0000E+00  0.0000
   7.2926E+01   7.4701E+01   0.0000E+00  0.0000
   7.4701E+01   7.6518E+01   0.0000E+00  0.0000
   7.6518E+01   7.8380E+01   0.0000E+00  0.0000
   7.8380E+01   8.0287E+01   0.0000E+00  0.0000
   8.0287E+01   8.2240E+01   0.0000E+00  0.0000
   8.2240E+01   8.4241E+01   0.0000E+00  0.0000
   8.4241E+01   8.6291E+01   0.0000E+00  0.0000
   8.6291E+01   8.8391E+01   0.0000E+00  0.0000
   8.8391E+01   9.0541E+01   0.0000E+00  0.0000
   9.0541E+01   9.2744E+01   0.0000E+00  0.0000
   9.2744E+01   9.5001E+01   0.0000E+00  0.0000
   9.5001E+01   9.7312E+01   0.0000E+00  0.0000
   9.7312E+01   9.9680E+01   0.0000E+00  0.0000
   9.9680E+01   1.0211E+02   0.0000E+00  0.0000
   1.0211E+02   1.0459E+02   0.0000E+00  0.0000
   1.0459E+02   1.0713E+02   0.0000E+00  0.0000
   1.0713E+02   1.0974E+02   0.0000E+00  0.0000
   1.0974E+02   1.1241E+02   0.0000E+00  0.0000
   1.1241E+02   1.1515E+02   0.0000E+00  0.0000
   1.1515E+02   1.1795E+02   0.0000E+00  0.0000
   1.1795E+02   1.2082E+02   0.0000E+00  0.0000
   1.2082E+02   1.2376E+02   0.0000E+00  0.0000
   1.2376E+02   1.2677E+02   0.0000E+00  0.0000
   1.2677E+02   1.2985E+02   0.0000E+00  0.0000
   1.2985E+02   1.3301E+02   0.0000E+00  0.0000
   1.3301E+02   1.3625E+02   0.0000E+00  0.0000
   1.3625E+02   1.3956E+02   0.0000E+00  0.0000
   1.3956E+02   1.4296E+02   0.0000E+00  0.0000
   1.4296E+02   1.4644E+02   0.0000E+00  0.0000
   1.4644E+02   1.5000E+02   0.0000E+00  0.0000

#   sum over                 1.3896E-05
'no. =    1   reg = 115 - 215'
msuc: {\huge [t-cross] in region mesh}
msdr: {\it plotted by \ANGEL \version}
msdl: {\it calculated by \PHITS  3.26}
wt: s(0.7)
\vspace{-3}
  region surface crossing
  area  &=&   1.0000E+00 [cm^2]
e:
 
# Information for Restart Calculation
# This calculation was newly started
# istdev =  2 # 1:Batch variance, 2:History variance
# resc2  = 5.00000000000000000E+09 # Total source weight or Total source weight / maxcas
# resc3  = 5.00000000000000000E+09 # Total history number or Total batch number
# maxcas =   100000000 # History / Batch, only used for istdev=1
# bitrseed = 0110100000100010111000001110001111001110100100011111101000111001 # bit data of rseed
