[ T-Cross ]
    title = [t-cross] in region mesh
     mesh =  reg            # mesh type is region-wise
      reg =    1            # number of crossing regions
      non     r-from    r-to       area
      1       110       210        1.000000    
   e-type =    3            # e-mesh is log given by emin, emax and ne
     emin =  1.0000000E-02  # minimum value of e-mesh points
     emax =   150.0000      # maximum value of e-mesh points
#    edel =  2.4039514E-02  # mesh width of e-mesh points
       ne =    400          # number of e-mesh points
#    data = ( e(i), i = 1, ne + 1 )
#           1.00000E-02  1.02433E-02  1.04925E-02  1.07478E-02  1.10093E-02
#           1.12772E-02  1.15516E-02  1.18326E-02  1.21205E-02  1.24154E-02
#           1.27175E-02  1.30269E-02  1.33439E-02  1.36686E-02  1.40011E-02
#           1.43418E-02  1.46907E-02  1.50482E-02  1.54143E-02  1.57894E-02
#           1.61735E-02  1.65670E-02  1.69701E-02  1.73830E-02  1.78060E-02
#           1.82392E-02  1.86830E-02  1.91375E-02  1.96032E-02  2.00801E-02
#           2.05687E-02  2.10692E-02  2.15818E-02  2.21069E-02  2.26448E-02
#           2.31957E-02  2.37601E-02  2.43382E-02  2.49304E-02  2.55369E-02
#           2.61583E-02  2.67947E-02  2.74467E-02  2.81145E-02  2.87985E-02
#           2.94992E-02  3.02169E-02  3.09521E-02  3.17052E-02  3.24766E-02
#           3.32668E-02  3.40762E-02  3.49053E-02  3.57546E-02  3.66246E-02
#           3.75157E-02  3.84284E-02  3.93634E-02  4.03212E-02  4.13022E-02
#           4.23071E-02  4.33365E-02  4.43909E-02  4.54710E-02  4.65773E-02
#           4.77106E-02  4.88714E-02  5.00605E-02  5.12785E-02  5.25262E-02
#           5.38042E-02  5.51133E-02  5.64542E-02  5.78278E-02  5.92348E-02
#           6.06760E-02  6.21523E-02  6.36645E-02  6.52135E-02  6.68002E-02
#           6.84255E-02  7.00904E-02  7.17957E-02  7.35426E-02  7.53319E-02
#           7.71648E-02  7.90423E-02  8.09655E-02  8.29354E-02  8.49533E-02
#           8.70203E-02  8.91376E-02  9.13064E-02  9.35279E-02  9.58035E-02
#           9.81345E-02  1.00522E-01  1.02968E-01  1.05473E-01  1.08040E-01
#           1.10668E-01  1.13361E-01  1.16119E-01  1.18944E-01  1.21838E-01
#           1.24803E-01  1.27839E-01  1.30950E-01  1.34136E-01  1.37399E-01
#           1.40742E-01  1.44167E-01  1.47675E-01  1.51268E-01  1.54948E-01
#           1.58718E-01  1.62580E-01  1.66535E-01  1.70587E-01  1.74738E-01
#           1.78989E-01  1.83344E-01  1.87805E-01  1.92375E-01  1.97055E-01
#           2.01850E-01  2.06761E-01  2.11792E-01  2.16945E-01  2.22223E-01
#           2.27630E-01  2.33169E-01  2.38842E-01  2.44653E-01  2.50605E-01
#           2.56703E-01  2.62949E-01  2.69346E-01  2.75900E-01  2.82613E-01
#           2.89489E-01  2.96532E-01  3.03747E-01  3.11138E-01  3.18708E-01
#           3.26462E-01  3.34405E-01  3.42542E-01  3.50876E-01  3.59413E-01
#           3.68158E-01  3.77116E-01  3.86291E-01  3.95690E-01  4.05317E-01
#           4.15179E-01  4.25281E-01  4.35628E-01  4.46227E-01  4.57084E-01
#           4.68205E-01  4.79597E-01  4.91266E-01  5.03219E-01  5.15463E-01
#           5.28005E-01  5.40851E-01  5.54011E-01  5.67490E-01  5.81298E-01
#           5.95441E-01  6.09929E-01  6.24769E-01  6.39970E-01  6.55541E-01
#           6.71491E-01  6.87828E-01  7.04564E-01  7.21706E-01  7.39266E-01
#           7.57253E-01  7.75678E-01  7.94551E-01  8.13883E-01  8.33685E-01
#           8.53969E-01  8.74747E-01  8.96030E-01  9.17831E-01  9.40163E-01
#           9.63038E-01  9.86469E-01  1.01047E+00  1.03506E+00  1.06024E+00
#           1.08604E+00  1.11246E+00  1.13953E+00  1.16725E+00  1.19565E+00
#           1.22474E+00  1.25454E+00  1.28507E+00  1.31633E+00  1.34836E+00
#           1.38117E+00  1.41477E+00  1.44920E+00  1.48446E+00  1.52057E+00
#           1.55757E+00  1.59547E+00  1.63429E+00  1.67405E+00  1.71478E+00
#           1.75650E+00  1.79924E+00  1.84302E+00  1.88786E+00  1.93379E+00
#           1.98084E+00  2.02904E+00  2.07841E+00  2.12898E+00  2.18078E+00
#           2.23384E+00  2.28819E+00  2.34386E+00  2.40089E+00  2.45930E+00
#           2.51914E+00  2.58043E+00  2.64322E+00  2.70753E+00  2.77341E+00
#           2.84088E+00  2.91001E+00  2.98081E+00  3.05333E+00  3.12762E+00
#           3.20372E+00  3.28167E+00  3.36152E+00  3.44330E+00  3.52708E+00
#           3.61290E+00  3.70080E+00  3.79085E+00  3.88308E+00  3.97756E+00
#           4.07434E+00  4.17347E+00  4.27501E+00  4.37903E+00  4.48557E+00
#           4.59471E+00  4.70650E+00  4.82102E+00  4.93832E+00  5.05847E+00
#           5.18155E+00  5.30762E+00  5.43676E+00  5.56904E+00  5.70453E+00
#           5.84333E+00  5.98550E+00  6.13114E+00  6.28031E+00  6.43312E+00
#           6.58964E+00  6.74997E+00  6.91420E+00  7.08243E+00  7.25475E+00
#           7.43126E+00  7.61207E+00  7.79728E+00  7.98700E+00  8.18133E+00
#           8.38038E+00  8.58428E+00  8.79315E+00  9.00709E+00  9.22624E+00
#           9.45072E+00  9.68067E+00  9.91620E+00  1.01575E+01  1.04046E+01
#           1.06578E+01  1.09171E+01  1.11827E+01  1.14548E+01  1.17335E+01
#           1.20190E+01  1.23114E+01  1.26109E+01  1.29178E+01  1.32321E+01
#           1.35540E+01  1.38838E+01  1.42216E+01  1.45676E+01  1.49221E+01
#           1.52851E+01  1.56570E+01  1.60380E+01  1.64282E+01  1.68279E+01
#           1.72374E+01  1.76568E+01  1.80864E+01  1.85264E+01  1.89772E+01
#           1.94389E+01  1.99119E+01  2.03963E+01  2.08926E+01  2.14009E+01
#           2.19216E+01  2.24550E+01  2.30014E+01  2.35610E+01  2.41343E+01
#           2.47215E+01  2.53230E+01  2.59391E+01  2.65702E+01  2.72167E+01
#           2.78789E+01  2.85572E+01  2.92520E+01  2.99637E+01  3.06928E+01
#           3.14396E+01  3.22045E+01  3.29881E+01  3.37907E+01  3.46128E+01
#           3.54550E+01  3.63177E+01  3.72013E+01  3.81064E+01  3.90336E+01
#           3.99833E+01  4.09561E+01  4.19526E+01  4.29734E+01  4.40189E+01
#           4.50900E+01  4.61870E+01  4.73108E+01  4.84619E+01  4.96410E+01
#           5.08488E+01  5.20860E+01  5.33533E+01  5.46514E+01  5.59812E+01
#           5.73432E+01  5.87384E+01  6.01676E+01  6.16315E+01  6.31311E+01
#           6.46671E+01  6.62405E+01  6.78522E+01  6.95031E+01  7.11941E+01
#           7.29263E+01  7.47007E+01  7.65182E+01  7.83800E+01  8.02870E+01
#           8.22405E+01  8.42414E+01  8.62911E+01  8.83906E+01  9.05412E+01
#           9.27442E+01  9.50007E+01  9.73122E+01  9.96799E+01  1.02105E+02
#           1.04589E+02  1.07134E+02  1.09741E+02  1.12411E+02  1.15146E+02
#           1.17948E+02  1.20817E+02  1.23757E+02  1.26768E+02  1.29852E+02
#           1.33012E+02  1.36248E+02  1.39563E+02  1.42959E+02  1.46437E+02
#           1.50000E+02
     unit =    2            # unit is [1/cm^2/(MeV/n)/source]
     axis =  eng            # axis of output
     file = detector-11.out  # file name of output for the above axis
   output = f-curr          # surface crossing forward current spectrum
     part =  neutron  
# kf/name :  2112     
#    used :        main (  %)        temp (  %)       total (  %)
#  memory :         414 (  0)           0 (  0)         414 (  0)

#------------------------------------------------------------------------------
#newpage:
#   no. =    1   reg = 110 - 210

x: Energy [MeV/n]
y:  F-Curr [1/cm^2/(MeV/n)/source]         
p: xlog ylog afac(0.8) form(0.9)
h: n            x            y(neutron ),hh0l   n 
#  e-lower      e-upper      neutron     r.err 
   1.0000E-02   1.0243E-02   7.6521E-07  1.0000
   1.0243E-02   1.0493E-02   3.8566E-07  1.0000
   1.0493E-02   1.0748E-02   0.0000E+00  0.0000
   1.0748E-02   1.1009E-02   9.4212E-07  0.8333
   1.1009E-02   1.1277E-02   0.0000E+00  0.0000
   1.1277E-02   1.1552E-02   7.2891E-07  1.0000
   1.1552E-02   1.1833E-02   1.4232E-06  0.7071
   1.1833E-02   1.2121E-02   0.0000E+00  0.0000
   1.2121E-02   1.2415E-02   6.7819E-07  1.0000
   1.2415E-02   1.2718E-02   8.1703E-07  0.8322
   1.2718E-02   1.3027E-02   0.0000E+00  0.0000
   1.3027E-02   1.3344E-02   6.3100E-07  1.0000
   1.3344E-02   1.3669E-02   0.0000E+00  0.0000
   1.3669E-02   1.4001E-02   0.0000E+00  0.0000
   1.4001E-02   1.4342E-02   1.1742E-06  0.7071
   1.4342E-02   1.4691E-02   8.0311E-07  0.7428
   1.4691E-02   1.5048E-02   1.6786E-06  0.5774
   1.5048E-02   1.5414E-02   1.0925E-06  0.7071
   1.5414E-02   1.5789E-02   0.0000E+00  0.0000
   1.5789E-02   1.6174E-02   0.0000E+00  0.0000
   1.6174E-02   1.6567E-02   7.1285E-07  0.7686
   1.6567E-02   1.6970E-02   1.4885E-06  0.5774
   1.6970E-02   1.7383E-02   1.9375E-06  0.5000
   1.7383E-02   1.7806E-02   9.4575E-07  0.7071
   1.7806E-02   1.8239E-02   9.2329E-07  0.7071
   1.8239E-02   1.8683E-02   1.3520E-06  0.5774
   1.8683E-02   1.9138E-02   1.0319E-07  1.0000
   1.9138E-02   1.9603E-02   9.4823E-07  0.6475
   1.9603E-02   2.0080E-02   2.0966E-06  0.4472
   2.0080E-02   2.0569E-02   4.0936E-07  1.0000
   2.0569E-02   2.1069E-02   7.9928E-07  0.7071
   2.1069E-02   2.1582E-02   1.5724E-06  0.4663
   2.1582E-02   2.2107E-02   2.0412E-06  0.4226
   2.2107E-02   2.2645E-02   1.1829E-06  0.5474
   2.2645E-02   2.3196E-02   9.0750E-07  0.6000
   2.3196E-02   2.3760E-02   1.7719E-06  0.4472
   2.3760E-02   2.4338E-02   2.5022E-06  0.3610
   2.4338E-02   2.4930E-02   1.6887E-06  0.4472
   2.4930E-02   2.5537E-02   2.3999E-06  0.3493
   2.5537E-02   2.6158E-02   1.6094E-06  0.4472
   2.6158E-02   2.6795E-02   2.1003E-06  0.3626
   2.6795E-02   2.7447E-02   1.5252E-06  0.4190
   2.7447E-02   2.8114E-02   1.8649E-06  0.3950
   2.8114E-02   2.8799E-02   2.4604E-06  0.3266
   2.8799E-02   2.9499E-02   2.2781E-06  0.3379
   2.9499E-02   3.0217E-02   1.8586E-06  0.3555
   3.0217E-02   3.0952E-02   3.3208E-06  0.2663
   3.0952E-02   3.1705E-02   3.3056E-06  0.2718
   3.1705E-02   3.2477E-02   1.9543E-06  0.3567
   3.2477E-02   3.3267E-02   1.9325E-06  0.3531
   3.3267E-02   3.4076E-02   2.1141E-06  0.3340
   3.4076E-02   3.4905E-02   3.8485E-06  0.2456
   3.4905E-02   3.5755E-02   2.8744E-06  0.2768
   3.5755E-02   3.6625E-02   3.2870E-06  0.2625
   3.6625E-02   3.7516E-02   2.9656E-06  0.2657
   3.7516E-02   3.8428E-02   4.2154E-06  0.2226
   3.8428E-02   3.9363E-02   5.5684E-06  0.1914
   3.9363E-02   4.0321E-02   3.6140E-06  0.2341
   4.0321E-02   4.1302E-02   5.6939E-06  0.1837
   4.1302E-02   4.2307E-02   5.2593E-06  0.1862
   4.2307E-02   4.3337E-02   6.3584E-06  0.1721
   4.3337E-02   4.4391E-02   6.9139E-06  0.1617
   4.4391E-02   4.5471E-02   5.3264E-06  0.1799
   4.5471E-02   4.6577E-02   6.7028E-06  0.1603
   4.6577E-02   4.7711E-02   7.9108E-06  0.1440
   4.7711E-02   4.8871E-02   6.5779E-06  0.1527
   4.8871E-02   5.0061E-02   5.1802E-06  0.1704
   5.0061E-02   5.1279E-02   5.6476E-06  0.1653
   5.1279E-02   5.2526E-02   7.0489E-06  0.1460
   5.2526E-02   5.3804E-02   6.6340E-06  0.1462
   5.3804E-02   5.5113E-02   7.4773E-06  0.1391
   5.5113E-02   5.6454E-02   9.5244E-06  0.1221
   5.6454E-02   5.7828E-02   8.8887E-06  0.1247
   5.7828E-02   5.9235E-02   1.0343E-05  0.1134
   5.9235E-02   6.0676E-02   1.0434E-05  0.1117
   6.0676E-02   6.2152E-02   1.2099E-05  0.1032
   6.2152E-02   6.3665E-02   1.0793E-05  0.1066
   6.3665E-02   6.5214E-02   8.6729E-06  0.1172
   6.5214E-02   6.6800E-02   1.0644E-05  0.1057
   6.6800E-02   6.8426E-02   1.2021E-05  0.0982
   6.8426E-02   7.0090E-02   1.1267E-05  0.1004
   7.0090E-02   7.1796E-02   1.3762E-05  0.0901
   7.1796E-02   7.3543E-02   1.3182E-05  0.0892
   7.3543E-02   7.5332E-02   1.4483E-05  0.0857
   7.5332E-02   7.7165E-02   1.6439E-05  0.0800
   7.7165E-02   7.9042E-02   1.6284E-05  0.0786
   7.9042E-02   8.0965E-02   1.4365E-05  0.0829
   8.0965E-02   8.2935E-02   1.6369E-05  0.0766
   8.2935E-02   8.4953E-02   1.7179E-05  0.0742
   8.4953E-02   8.7020E-02   1.7492E-05  0.0720
   8.7020E-02   8.9138E-02   1.9834E-05  0.0675
   8.9138E-02   9.1306E-02   1.8439E-05  0.0689
   9.1306E-02   9.3528E-02   1.8186E-05  0.0679
   9.3528E-02   9.5804E-02   2.6059E-05  0.0567
   9.5804E-02   9.8134E-02   2.3189E-05  0.0591
   9.8134E-02   1.0052E-01   2.3618E-05  0.0579
   1.0052E-01   1.0297E-01   2.4724E-05  0.0555
   1.0297E-01   1.0547E-01   2.5450E-05  0.0544
   1.0547E-01   1.0804E-01   2.6461E-05  0.0526
   1.0804E-01   1.1067E-01   2.7673E-05  0.0511
   1.1067E-01   1.1336E-01   2.8159E-05  0.0501
   1.1336E-01   1.1612E-01   3.1582E-05  0.0467
   1.1612E-01   1.1894E-01   2.9932E-05  0.0473
   1.1894E-01   1.2184E-01   3.3299E-05  0.0443
   1.2184E-01   1.2480E-01   3.6491E-05  0.0418
   1.2480E-01   1.2784E-01   3.7876E-05  0.0404
   1.2784E-01   1.3095E-01   3.6009E-05  0.0411
   1.3095E-01   1.3414E-01   3.5171E-05  0.0410
   1.3414E-01   1.3740E-01   3.7624E-05  0.0393
   1.3740E-01   1.4074E-01   3.9665E-05  0.0378
   1.4074E-01   1.4417E-01   4.6571E-05  0.0346
   1.4417E-01   1.4767E-01   4.4143E-05  0.0349
   1.4767E-01   1.5127E-01   4.6855E-05  0.0335
   1.5127E-01   1.5495E-01   4.8142E-05  0.0327
   1.5495E-01   1.5872E-01   5.1995E-05  0.0312
   1.5872E-01   1.6258E-01   5.3349E-05  0.0304
   1.6258E-01   1.6654E-01   5.5850E-05  0.0293
   1.6654E-01   1.7059E-01   5.7078E-05  0.0286
   1.7059E-01   1.7474E-01   5.9980E-05  0.0276
   1.7474E-01   1.7899E-01   5.9974E-05  0.0272
   1.7899E-01   1.8334E-01   6.2503E-05  0.0264
   1.8334E-01   1.8781E-01   6.6828E-05  0.0252
   1.8781E-01   1.9237E-01   7.1152E-05  0.0242
   1.9237E-01   1.9706E-01   6.9931E-05  0.0241
   1.9706E-01   2.0185E-01   7.4643E-05  0.0231
   2.0185E-01   2.0676E-01   7.5227E-05  0.0226
   2.0676E-01   2.1179E-01   8.0274E-05  0.0217
   2.1179E-01   2.1694E-01   8.1948E-05  0.0213
   2.1694E-01   2.2222E-01   8.3795E-05  0.0208
   2.2222E-01   2.2763E-01   9.1617E-05  0.0196
   2.2763E-01   2.3317E-01   9.2128E-05  0.0194
   2.3317E-01   2.3884E-01   9.5088E-05  0.0188
   2.3884E-01   2.4465E-01   9.6133E-05  0.0185
   2.4465E-01   2.5061E-01   1.0135E-04  0.0178
   2.5061E-01   2.5670E-01   1.0580E-04  0.0172
   2.5670E-01   2.6295E-01   1.0932E-04  0.0167
   2.6295E-01   2.6935E-01   1.1469E-04  0.0162
   2.6935E-01   2.7590E-01   1.1927E-04  0.0157
   2.7590E-01   2.8261E-01   1.2112E-04  0.0153
   2.8261E-01   2.8949E-01   1.2484E-04  0.0149
   2.8949E-01   2.9653E-01   1.2955E-04  0.0145
   2.9653E-01   3.0375E-01   1.3470E-04  0.0141
   3.0375E-01   3.1114E-01   1.4086E-04  0.0136
   3.1114E-01   3.1871E-01   1.4260E-04  0.0133
   3.1871E-01   3.2646E-01   1.4880E-04  0.0129
   3.2646E-01   3.3441E-01   1.5303E-04  0.0126
   3.3441E-01   3.4254E-01   1.5708E-04  0.0123
   3.4254E-01   3.5088E-01   1.6523E-04  0.0118
   3.5088E-01   3.5941E-01   1.6997E-04  0.0115
   3.5941E-01   3.6816E-01   1.7270E-04  0.0113
   3.6816E-01   3.7712E-01   1.7980E-04  0.0110
   3.7712E-01   3.8629E-01   1.8283E-04  0.0107
   3.8629E-01   3.9569E-01   1.8976E-04  0.0104
   3.9569E-01   4.0532E-01   1.9661E-04  0.0101
   4.0532E-01   4.1518E-01   2.0133E-04  0.0099
   4.1518E-01   4.2528E-01   2.0695E-04  0.0096
   4.2528E-01   4.3563E-01   2.1391E-04  0.0094
   4.3563E-01   4.4623E-01   2.2092E-04  0.0091
   4.4623E-01   4.5708E-01   2.2169E-04  0.0090
   4.5708E-01   4.6821E-01   2.2571E-04  0.0088
   4.6821E-01   4.7960E-01   2.2965E-04  0.0086
   4.7960E-01   4.9127E-01   2.3763E-04  0.0084
   4.9127E-01   5.0322E-01   2.4761E-04  0.0081
   5.0322E-01   5.1546E-01   2.5747E-04  0.0079
   5.1546E-01   5.2800E-01   2.5650E-04  0.0078
   5.2800E-01   5.4085E-01   2.6633E-04  0.0076
   5.4085E-01   5.5401E-01   2.7630E-04  0.0073
   5.5401E-01   5.6749E-01   2.8612E-04  0.0071
   5.6749E-01   5.8130E-01   2.9189E-04  0.0070
   5.8130E-01   5.9544E-01   3.0059E-04  0.0068
   5.9544E-01   6.0993E-01   3.0792E-04  0.0066
   6.0993E-01   6.2477E-01   3.1308E-04  0.0065
   6.2477E-01   6.3997E-01   3.1910E-04  0.0064
   6.3997E-01   6.5554E-01   3.2869E-04  0.0062
   6.5554E-01   6.7149E-01   3.3829E-04  0.0060
   6.7149E-01   6.8783E-01   3.4479E-04  0.0059
   6.8783E-01   7.0456E-01   3.5275E-04  0.0058
   7.0456E-01   7.2171E-01   3.6054E-04  0.0056
   7.2171E-01   7.3927E-01   3.7116E-04  0.0055
   7.3927E-01   7.5725E-01   3.7717E-04  0.0054
   7.5725E-01   7.7568E-01   3.8541E-04  0.0053
   7.7568E-01   7.9455E-01   3.9338E-04  0.0051
   7.9455E-01   8.1388E-01   4.0248E-04  0.0050
   8.1388E-01   8.3368E-01   4.0943E-04  0.0049
   8.3368E-01   8.5397E-01   4.2257E-04  0.0048
   8.5397E-01   8.7475E-01   4.2406E-04  0.0047
   8.7475E-01   8.9603E-01   4.3432E-04  0.0046
   8.9603E-01   9.1783E-01   4.3971E-04  0.0045
   9.1783E-01   9.4016E-01   4.5414E-04  0.0044
   9.4016E-01   9.6304E-01   4.5538E-04  0.0043
   9.6304E-01   9.8647E-01   4.6352E-04  0.0042
   9.8647E-01   1.0105E+00   4.6487E-04  0.0042
   1.0105E+00   1.0351E+00   4.6508E-04  0.0041
   1.0351E+00   1.0602E+00   4.6563E-04  0.0041
   1.0602E+00   1.0860E+00   4.6183E-04  0.0040
   1.0860E+00   1.1125E+00   4.5926E-04  0.0040
   1.1125E+00   1.1395E+00   4.6117E-04  0.0040
   1.1395E+00   1.1673E+00   4.6154E-04  0.0039
   1.1673E+00   1.1957E+00   4.6832E-04  0.0038
   1.1957E+00   1.2247E+00   4.6936E-04  0.0038
   1.2247E+00   1.2545E+00   4.6966E-04  0.0037
   1.2545E+00   1.2851E+00   4.6610E-04  0.0037
   1.2851E+00   1.3163E+00   4.6233E-04  0.0037
   1.3163E+00   1.3484E+00   4.5867E-04  0.0036
   1.3484E+00   1.3812E+00   4.6237E-04  0.0036
   1.3812E+00   1.4148E+00   4.6802E-04  0.0035
   1.4148E+00   1.4492E+00   4.6374E-04  0.0035
   1.4492E+00   1.4845E+00   4.6474E-04  0.0034
   1.4845E+00   1.5206E+00   4.6512E-04  0.0034
   1.5206E+00   1.5576E+00   4.5825E-04  0.0034
   1.5576E+00   1.5955E+00   4.5637E-04  0.0033
   1.5955E+00   1.6343E+00   4.5252E-04  0.0033
   1.6343E+00   1.6741E+00   4.4992E-04  0.0033
   1.6741E+00   1.7148E+00   4.4474E-04  0.0033
   1.7148E+00   1.7565E+00   4.4497E-04  0.0032
   1.7565E+00   1.7992E+00   4.4346E-04  0.0032
   1.7992E+00   1.8430E+00   4.4649E-04  0.0031
   1.8430E+00   1.8879E+00   4.4200E-04  0.0031
   1.8879E+00   1.9338E+00   4.4081E-04  0.0031
   1.9338E+00   1.9808E+00   4.3699E-04  0.0031
   1.9808E+00   2.0290E+00   4.3601E-04  0.0030
   2.0290E+00   2.0784E+00   4.3615E-04  0.0030
   2.0784E+00   2.1290E+00   4.3348E-04  0.0030
   2.1290E+00   2.1808E+00   4.3110E-04  0.0029
   2.1808E+00   2.2338E+00   4.2597E-04  0.0029
   2.2338E+00   2.2882E+00   4.2116E-04  0.0029
   2.2882E+00   2.3439E+00   4.2020E-04  0.0029
   2.3439E+00   2.4009E+00   4.1254E-04  0.0028
   2.4009E+00   2.4593E+00   4.0762E-04  0.0028
   2.4593E+00   2.5191E+00   4.0722E-04  0.0028
   2.5191E+00   2.5804E+00   3.9848E-04  0.0028
   2.5804E+00   2.6432E+00   3.9267E-04  0.0028
   2.6432E+00   2.7075E+00   3.8695E-04  0.0028
   2.7075E+00   2.7734E+00   3.8318E-04  0.0027
   2.7734E+00   2.8409E+00   3.7942E-04  0.0027
   2.8409E+00   2.9100E+00   3.7528E-04  0.0027
   2.9100E+00   2.9808E+00   3.7153E-04  0.0027
   2.9808E+00   3.0533E+00   3.6733E-04  0.0027
   3.0533E+00   3.1276E+00   3.6277E-04  0.0027
   3.1276E+00   3.2037E+00   3.5473E-04  0.0027
   3.2037E+00   3.2817E+00   3.4932E-04  0.0026
   3.2817E+00   3.3615E+00   3.4477E-04  0.0026
   3.3615E+00   3.4433E+00   3.4128E-04  0.0026
   3.4433E+00   3.5271E+00   3.3573E-04  0.0026
   3.5271E+00   3.6129E+00   3.3082E-04  0.0026
   3.6129E+00   3.7008E+00   3.2551E-04  0.0026
   3.7008E+00   3.7908E+00   3.1723E-04  0.0026
   3.7908E+00   3.8831E+00   3.1117E-04  0.0026
   3.8831E+00   3.9776E+00   3.0356E-04  0.0026
   3.9776E+00   4.0743E+00   2.9451E-04  0.0026
   4.0743E+00   4.1735E+00   2.8896E-04  0.0026
   4.1735E+00   4.2750E+00   2.8191E-04  0.0026
   4.2750E+00   4.3790E+00   2.7482E-04  0.0026
   4.3790E+00   4.4856E+00   2.6909E-04  0.0026
   4.4856E+00   4.5947E+00   2.6422E-04  0.0026
   4.5947E+00   4.7065E+00   2.6025E-04  0.0025
   4.7065E+00   4.8210E+00   2.5549E-04  0.0025
   4.8210E+00   4.9383E+00   2.5177E-04  0.0025
   4.9383E+00   5.0585E+00   2.5139E-04  0.0025
   5.0585E+00   5.1815E+00   2.6032E-04  0.0024
   5.1815E+00   5.3076E+00   2.6466E-04  0.0024
   5.3076E+00   5.4368E+00   2.5899E-04  0.0024
   5.4368E+00   5.5690E+00   2.5521E-04  0.0024
   5.5690E+00   5.7045E+00   2.4835E-04  0.0024
   5.7045E+00   5.8433E+00   2.4165E-04  0.0024
   5.8433E+00   5.9855E+00   2.3862E-04  0.0024
   5.9855E+00   6.1311E+00   2.3435E-04  0.0024
   6.1311E+00   6.2803E+00   2.3143E-04  0.0024
   6.2803E+00   6.4331E+00   2.2872E-04  0.0023
   6.4331E+00   6.5896E+00   2.2529E-04  0.0023
   6.5896E+00   6.7500E+00   2.2253E-04  0.0023
   6.7500E+00   6.9142E+00   2.1828E-04  0.0023
   6.9142E+00   7.0824E+00   2.1464E-04  0.0023
   7.0824E+00   7.2548E+00   2.1204E-04  0.0023
   7.2548E+00   7.4313E+00   2.1037E-04  0.0023
   7.4313E+00   7.6121E+00   2.0759E-04  0.0023
   7.6121E+00   7.7973E+00   2.0473E-04  0.0023
   7.7973E+00   7.9870E+00   2.0154E-04  0.0023
   7.9870E+00   8.1813E+00   2.0018E-04  0.0022
   8.1813E+00   8.3804E+00   1.9768E-04  0.0022
   8.3804E+00   8.5843E+00   1.9506E-04  0.0022
   8.5843E+00   8.7931E+00   1.9173E-04  0.0022
   8.7931E+00   9.0071E+00   1.8822E-04  0.0022
   9.0071E+00   9.2262E+00   1.8418E-04  0.0022
   9.2262E+00   9.4507E+00   1.8177E-04  0.0022
   9.4507E+00   9.6807E+00   1.7885E-04  0.0022
   9.6807E+00   9.9162E+00   1.7670E-04  0.0022
   9.9162E+00   1.0157E+01   1.7410E-04  0.0022
   1.0157E+01   1.0405E+01   1.7178E-04  0.0021
   1.0405E+01   1.0658E+01   1.7082E-04  0.0021
   1.0658E+01   1.0917E+01   1.6932E-04  0.0021
   1.0917E+01   1.1183E+01   1.6761E-04  0.0021
   1.1183E+01   1.1455E+01   1.6544E-04  0.0021
   1.1455E+01   1.1733E+01   1.6335E-04  0.0021
   1.1733E+01   1.2019E+01   1.6136E-04  0.0021
   1.2019E+01   1.2311E+01   1.5928E-04  0.0021
   1.2311E+01   1.2611E+01   1.5793E-04  0.0020
   1.2611E+01   1.2918E+01   1.5676E-04  0.0020
   1.2918E+01   1.3232E+01   1.5494E-04  0.0020
   1.3232E+01   1.3554E+01   1.5229E-04  0.0020
   1.3554E+01   1.3884E+01   1.5064E-04  0.0020
   1.3884E+01   1.4222E+01   1.4883E-04  0.0020
   1.4222E+01   1.4568E+01   1.4723E-04  0.0020
   1.4568E+01   1.4922E+01   1.4485E-04  0.0020
   1.4922E+01   1.5285E+01   1.4319E-04  0.0019
   1.5285E+01   1.5657E+01   1.4161E-04  0.0019
   1.5657E+01   1.6038E+01   1.3925E-04  0.0019
   1.6038E+01   1.6428E+01   1.3700E-04  0.0019
   1.6428E+01   1.6828E+01   1.3455E-04  0.0019
   1.6828E+01   1.7237E+01   1.3241E-04  0.0019
   1.7237E+01   1.7657E+01   1.2978E-04  0.0019
   1.7657E+01   1.8086E+01   1.2759E-04  0.0019
   1.8086E+01   1.8526E+01   1.2482E-04  0.0019
   1.8526E+01   1.8977E+01   1.2234E-04  0.0019
   1.8977E+01   1.9439E+01   1.2037E-04  0.0019
   1.9439E+01   1.9912E+01   1.1756E-04  0.0019
   1.9912E+01   2.0396E+01   1.2545E-04  0.0018
   2.0396E+01   2.0893E+01   1.2501E-04  0.0018
   2.0893E+01   2.1401E+01   1.2263E-04  0.0018
   2.1401E+01   2.1922E+01   1.1992E-04  0.0018
   2.1922E+01   2.2455E+01   1.1669E-04  0.0018
   2.2455E+01   2.3001E+01   1.1427E-04  0.0018
   2.3001E+01   2.3561E+01   1.1119E-04  0.0018
   2.3561E+01   2.4134E+01   1.0855E-04  0.0018
   2.4134E+01   2.4721E+01   1.0536E-04  0.0018
   2.4721E+01   2.5323E+01   1.0285E-04  0.0018
   2.5323E+01   2.5939E+01   9.9542E-05  0.0018
   2.5939E+01   2.6570E+01   9.6550E-05  0.0018
   2.6570E+01   2.7217E+01   9.3492E-05  0.0018
   2.7217E+01   2.7879E+01   9.0146E-05  0.0018
   2.7879E+01   2.8557E+01   8.7303E-05  0.0018
   2.8557E+01   2.9252E+01   8.4164E-05  0.0018
   2.9252E+01   2.9964E+01   8.1069E-05  0.0019
   2.9964E+01   3.0693E+01   7.7956E-05  0.0019
   3.0693E+01   3.1440E+01   7.4724E-05  0.0019
   3.1440E+01   3.2205E+01   7.1676E-05  0.0019
   3.2205E+01   3.2988E+01   6.8714E-05  0.0019
   3.2988E+01   3.3791E+01   6.5674E-05  0.0019
   3.3791E+01   3.4613E+01   6.2570E-05  0.0020
   3.4613E+01   3.5455E+01   5.9558E-05  0.0020
   3.5455E+01   3.6318E+01   5.6248E-05  0.0020
   3.6318E+01   3.7201E+01   5.3265E-05  0.0021
   3.7201E+01   3.8106E+01   5.0190E-05  0.0021
   3.8106E+01   3.9034E+01   4.7284E-05  0.0021
   3.9034E+01   3.9983E+01   4.4535E-05  0.0022
   3.9983E+01   4.0956E+01   4.1734E-05  0.0022
   4.0956E+01   4.1953E+01   3.9042E-05  0.0023
   4.1953E+01   4.2973E+01   3.6159E-05  0.0023
   4.2973E+01   4.4019E+01   3.3529E-05  0.0024
   4.4019E+01   4.5090E+01   3.0947E-05  0.0025
   4.5090E+01   4.6187E+01   2.8331E-05  0.0025
   4.6187E+01   4.7311E+01   2.6002E-05  0.0026
   4.7311E+01   4.8462E+01   2.3583E-05  0.0027
   4.8462E+01   4.9641E+01   2.1319E-05  0.0028
   4.9641E+01   5.0849E+01   1.9219E-05  0.0029
   5.0849E+01   5.2086E+01   1.7375E-05  0.0031
   5.2086E+01   5.3353E+01   1.5453E-05  0.0032
   5.3353E+01   5.4651E+01   1.3717E-05  0.0034
   5.4651E+01   5.5981E+01   1.1983E-05  0.0035
   5.5981E+01   5.7343E+01   1.0501E-05  0.0037
   5.7343E+01   5.8738E+01   9.1059E-06  0.0040
   5.8738E+01   6.0168E+01   7.6643E-06  0.0043
   6.0168E+01   6.1632E+01   6.5416E-06  0.0046
   6.1632E+01   6.3131E+01   5.4110E-06  0.0050
   6.3131E+01   6.4667E+01   4.4619E-06  0.0054
   6.4667E+01   6.6240E+01   3.5421E-06  0.0060
   6.6240E+01   6.7852E+01   2.8003E-06  0.0067
   6.7852E+01   6.9503E+01   2.1323E-06  0.0075
   6.9503E+01   7.1194E+01   1.5571E-06  0.0087
   7.1194E+01   7.2926E+01   1.0709E-06  0.0104
   7.2926E+01   7.4701E+01   6.8735E-07  0.0128
   7.4701E+01   7.6518E+01   4.0583E-07  0.0165
   7.6518E+01   7.8380E+01   1.9756E-07  0.0233
   7.8380E+01   8.0287E+01   7.5824E-08  0.0372
   8.0287E+01   8.2240E+01   2.0477E-08  0.0707
   8.2240E+01   8.4241E+01   2.6987E-09  0.1925
   8.4241E+01   8.6291E+01   0.0000E+00  0.0000
   8.6291E+01   8.8391E+01   0.0000E+00  0.0000
   8.8391E+01   9.0541E+01   0.0000E+00  0.0000
   9.0541E+01   9.2744E+01   0.0000E+00  0.0000
   9.2744E+01   9.5001E+01   0.0000E+00  0.0000
   9.5001E+01   9.7312E+01   0.0000E+00  0.0000
   9.7312E+01   9.9680E+01   0.0000E+00  0.0000
   9.9680E+01   1.0211E+02   0.0000E+00  0.0000
   1.0211E+02   1.0459E+02   0.0000E+00  0.0000
   1.0459E+02   1.0713E+02   0.0000E+00  0.0000
   1.0713E+02   1.0974E+02   0.0000E+00  0.0000
   1.0974E+02   1.1241E+02   0.0000E+00  0.0000
   1.1241E+02   1.1515E+02   0.0000E+00  0.0000
   1.1515E+02   1.1795E+02   0.0000E+00  0.0000
   1.1795E+02   1.2082E+02   0.0000E+00  0.0000
   1.2082E+02   1.2376E+02   0.0000E+00  0.0000
   1.2376E+02   1.2677E+02   0.0000E+00  0.0000
   1.2677E+02   1.2985E+02   0.0000E+00  0.0000
   1.2985E+02   1.3301E+02   0.0000E+00  0.0000
   1.3301E+02   1.3625E+02   0.0000E+00  0.0000
   1.3625E+02   1.3956E+02   0.0000E+00  0.0000
   1.3956E+02   1.4296E+02   0.0000E+00  0.0000
   1.4296E+02   1.4644E+02   0.0000E+00  0.0000
   1.4644E+02   1.5000E+02   0.0000E+00  0.0000

#   sum over                 4.2072E-05
'no. =    1   reg = 110 - 210'
msuc: {\huge [t-cross] in region mesh}
msdr: {\it plotted by \ANGEL \version}
msdl: {\it calculated by \PHITS  3.26}
wt: s(0.7)
\vspace{-3}
  region surface crossing
  area  &=&   1.0000E+00 [cm^2]
e:
 
# Information for Restart Calculation
# This calculation was newly started
# istdev =  2 # 1:Batch variance, 2:History variance
# resc2  = 5.00000000000000000E+09 # Total source weight or Total source weight / maxcas
# resc3  = 5.00000000000000000E+09 # Total history number or Total batch number
# maxcas =   100000000 # History / Batch, only used for istdev=1
# bitrseed = 0110100000100010111000001110001111001110100100011111101000111001 # bit data of rseed
