[ T-Cross ]
    title = [t-cross] in region mesh
     mesh =  reg            # mesh type is region-wise
      reg =    1            # number of crossing regions
      non     r-from    r-to       area
      1       116       216        1.000000    
   e-type =    3            # e-mesh is log given by emin, emax and ne
     emin =  1.0000000E-02  # minimum value of e-mesh points
     emax =   150.0000      # maximum value of e-mesh points
#    edel =  2.4039514E-02  # mesh width of e-mesh points
       ne =    400          # number of e-mesh points
#    data = ( e(i), i = 1, ne + 1 )
#           1.00000E-02  1.02433E-02  1.04925E-02  1.07478E-02  1.10093E-02
#           1.12772E-02  1.15516E-02  1.18326E-02  1.21205E-02  1.24154E-02
#           1.27175E-02  1.30269E-02  1.33439E-02  1.36686E-02  1.40011E-02
#           1.43418E-02  1.46907E-02  1.50482E-02  1.54143E-02  1.57894E-02
#           1.61735E-02  1.65670E-02  1.69701E-02  1.73830E-02  1.78060E-02
#           1.82392E-02  1.86830E-02  1.91375E-02  1.96032E-02  2.00801E-02
#           2.05687E-02  2.10692E-02  2.15818E-02  2.21069E-02  2.26448E-02
#           2.31957E-02  2.37601E-02  2.43382E-02  2.49304E-02  2.55369E-02
#           2.61583E-02  2.67947E-02  2.74467E-02  2.81145E-02  2.87985E-02
#           2.94992E-02  3.02169E-02  3.09521E-02  3.17052E-02  3.24766E-02
#           3.32668E-02  3.40762E-02  3.49053E-02  3.57546E-02  3.66246E-02
#           3.75157E-02  3.84284E-02  3.93634E-02  4.03212E-02  4.13022E-02
#           4.23071E-02  4.33365E-02  4.43909E-02  4.54710E-02  4.65773E-02
#           4.77106E-02  4.88714E-02  5.00605E-02  5.12785E-02  5.25262E-02
#           5.38042E-02  5.51133E-02  5.64542E-02  5.78278E-02  5.92348E-02
#           6.06760E-02  6.21523E-02  6.36645E-02  6.52135E-02  6.68002E-02
#           6.84255E-02  7.00904E-02  7.17957E-02  7.35426E-02  7.53319E-02
#           7.71648E-02  7.90423E-02  8.09655E-02  8.29354E-02  8.49533E-02
#           8.70203E-02  8.91376E-02  9.13064E-02  9.35279E-02  9.58035E-02
#           9.81345E-02  1.00522E-01  1.02968E-01  1.05473E-01  1.08040E-01
#           1.10668E-01  1.13361E-01  1.16119E-01  1.18944E-01  1.21838E-01
#           1.24803E-01  1.27839E-01  1.30950E-01  1.34136E-01  1.37399E-01
#           1.40742E-01  1.44167E-01  1.47675E-01  1.51268E-01  1.54948E-01
#           1.58718E-01  1.62580E-01  1.66535E-01  1.70587E-01  1.74738E-01
#           1.78989E-01  1.83344E-01  1.87805E-01  1.92375E-01  1.97055E-01
#           2.01850E-01  2.06761E-01  2.11792E-01  2.16945E-01  2.22223E-01
#           2.27630E-01  2.33169E-01  2.38842E-01  2.44653E-01  2.50605E-01
#           2.56703E-01  2.62949E-01  2.69346E-01  2.75900E-01  2.82613E-01
#           2.89489E-01  2.96532E-01  3.03747E-01  3.11138E-01  3.18708E-01
#           3.26462E-01  3.34405E-01  3.42542E-01  3.50876E-01  3.59413E-01
#           3.68158E-01  3.77116E-01  3.86291E-01  3.95690E-01  4.05317E-01
#           4.15179E-01  4.25281E-01  4.35628E-01  4.46227E-01  4.57084E-01
#           4.68205E-01  4.79597E-01  4.91266E-01  5.03219E-01  5.15463E-01
#           5.28005E-01  5.40851E-01  5.54011E-01  5.67490E-01  5.81298E-01
#           5.95441E-01  6.09929E-01  6.24769E-01  6.39970E-01  6.55541E-01
#           6.71491E-01  6.87828E-01  7.04564E-01  7.21706E-01  7.39266E-01
#           7.57253E-01  7.75678E-01  7.94551E-01  8.13883E-01  8.33685E-01
#           8.53969E-01  8.74747E-01  8.96030E-01  9.17831E-01  9.40163E-01
#           9.63038E-01  9.86469E-01  1.01047E+00  1.03506E+00  1.06024E+00
#           1.08604E+00  1.11246E+00  1.13953E+00  1.16725E+00  1.19565E+00
#           1.22474E+00  1.25454E+00  1.28507E+00  1.31633E+00  1.34836E+00
#           1.38117E+00  1.41477E+00  1.44920E+00  1.48446E+00  1.52057E+00
#           1.55757E+00  1.59547E+00  1.63429E+00  1.67405E+00  1.71478E+00
#           1.75650E+00  1.79924E+00  1.84302E+00  1.88786E+00  1.93379E+00
#           1.98084E+00  2.02904E+00  2.07841E+00  2.12898E+00  2.18078E+00
#           2.23384E+00  2.28819E+00  2.34386E+00  2.40089E+00  2.45930E+00
#           2.51914E+00  2.58043E+00  2.64322E+00  2.70753E+00  2.77341E+00
#           2.84088E+00  2.91001E+00  2.98081E+00  3.05333E+00  3.12762E+00
#           3.20372E+00  3.28167E+00  3.36152E+00  3.44330E+00  3.52708E+00
#           3.61290E+00  3.70080E+00  3.79085E+00  3.88308E+00  3.97756E+00
#           4.07434E+00  4.17347E+00  4.27501E+00  4.37903E+00  4.48557E+00
#           4.59471E+00  4.70650E+00  4.82102E+00  4.93832E+00  5.05847E+00
#           5.18155E+00  5.30762E+00  5.43676E+00  5.56904E+00  5.70453E+00
#           5.84333E+00  5.98550E+00  6.13114E+00  6.28031E+00  6.43312E+00
#           6.58964E+00  6.74997E+00  6.91420E+00  7.08243E+00  7.25475E+00
#           7.43126E+00  7.61207E+00  7.79728E+00  7.98700E+00  8.18133E+00
#           8.38038E+00  8.58428E+00  8.79315E+00  9.00709E+00  9.22624E+00
#           9.45072E+00  9.68067E+00  9.91620E+00  1.01575E+01  1.04046E+01
#           1.06578E+01  1.09171E+01  1.11827E+01  1.14548E+01  1.17335E+01
#           1.20190E+01  1.23114E+01  1.26109E+01  1.29178E+01  1.32321E+01
#           1.35540E+01  1.38838E+01  1.42216E+01  1.45676E+01  1.49221E+01
#           1.52851E+01  1.56570E+01  1.60380E+01  1.64282E+01  1.68279E+01
#           1.72374E+01  1.76568E+01  1.80864E+01  1.85264E+01  1.89772E+01
#           1.94389E+01  1.99119E+01  2.03963E+01  2.08926E+01  2.14009E+01
#           2.19216E+01  2.24550E+01  2.30014E+01  2.35610E+01  2.41343E+01
#           2.47215E+01  2.53230E+01  2.59391E+01  2.65702E+01  2.72167E+01
#           2.78789E+01  2.85572E+01  2.92520E+01  2.99637E+01  3.06928E+01
#           3.14396E+01  3.22045E+01  3.29881E+01  3.37907E+01  3.46128E+01
#           3.54550E+01  3.63177E+01  3.72013E+01  3.81064E+01  3.90336E+01
#           3.99833E+01  4.09561E+01  4.19526E+01  4.29734E+01  4.40189E+01
#           4.50900E+01  4.61870E+01  4.73108E+01  4.84619E+01  4.96410E+01
#           5.08488E+01  5.20860E+01  5.33533E+01  5.46514E+01  5.59812E+01
#           5.73432E+01  5.87384E+01  6.01676E+01  6.16315E+01  6.31311E+01
#           6.46671E+01  6.62405E+01  6.78522E+01  6.95031E+01  7.11941E+01
#           7.29263E+01  7.47007E+01  7.65182E+01  7.83800E+01  8.02870E+01
#           8.22405E+01  8.42414E+01  8.62911E+01  8.83906E+01  9.05412E+01
#           9.27442E+01  9.50007E+01  9.73122E+01  9.96799E+01  1.02105E+02
#           1.04589E+02  1.07134E+02  1.09741E+02  1.12411E+02  1.15146E+02
#           1.17948E+02  1.20817E+02  1.23757E+02  1.26768E+02  1.29852E+02
#           1.33012E+02  1.36248E+02  1.39563E+02  1.42959E+02  1.46437E+02
#           1.50000E+02
     unit =    2            # unit is [1/cm^2/(MeV/n)/source]
     axis =  eng            # axis of output
     file = detector-17.out  # file name of output for the above axis
   output = f-curr          # surface crossing forward current spectrum
     part =  neutron  
# kf/name :  2112     
#    used :        main (  %)        temp (  %)       total (  %)
#  memory :         414 (  0)           0 (  0)         414 (  0)

#------------------------------------------------------------------------------
#newpage:
#   no. =    1   reg = 116 - 216

x: Energy [MeV/n]
y:  F-Curr [1/cm^2/(MeV/n)/source]         
p: xlog ylog afac(0.8) form(0.9)
h: n            x            y(neutron ),hh0l   n 
#  e-lower      e-upper      neutron     r.err 
   1.0000E-02   1.0243E-02   1.5824E-04  0.1140
   1.0243E-02   1.0493E-02   1.7855E-04  0.1060
   1.0493E-02   1.0748E-02   1.8802E-04  0.1021
   1.0748E-02   1.1009E-02   2.1223E-04  0.0949
   1.1009E-02   1.1277E-02   1.8853E-04  0.0995
   1.1277E-02   1.1552E-02   2.0045E-04  0.0953
   1.1552E-02   1.1833E-02   2.0484E-04  0.0931
   1.1833E-02   1.2121E-02   2.2230E-04  0.0884
   1.2121E-02   1.2415E-02   1.9328E-04  0.0937
   1.2415E-02   1.2718E-02   1.6244E-04  0.1009
   1.2718E-02   1.3027E-02   1.9391E-04  0.0913
   1.3027E-02   1.3344E-02   2.1139E-04  0.0864
   1.3344E-02   1.3669E-02   1.9558E-04  0.0887
   1.3669E-02   1.4001E-02   2.0898E-04  0.0848
   1.4001E-02   1.4342E-02   1.7540E-04  0.0914
   1.4342E-02   1.4691E-02   2.0490E-04  0.0836
   1.4691E-02   1.5048E-02   1.9304E-04  0.0851
   1.5048E-02   1.5414E-02   1.9255E-04  0.0842
   1.5414E-02   1.5789E-02   2.1664E-04  0.0784
   1.5789E-02   1.6174E-02   1.8742E-04  0.0833
   1.6174E-02   1.6567E-02   2.0457E-04  0.0788
   1.6567E-02   1.6970E-02   2.2657E-04  0.0739
   1.6970E-02   1.7383E-02   2.1192E-04  0.0755
   1.7383E-02   1.7806E-02   1.9388E-04  0.0781
   1.7806E-02   1.8239E-02   2.1813E-04  0.0727
   1.8239E-02   1.8683E-02   2.0224E-04  0.0746
   1.8683E-02   1.9138E-02   2.0679E-04  0.0729
   1.9138E-02   1.9603E-02   2.0939E-04  0.0716
   1.9603E-02   2.0080E-02   2.0525E-04  0.0714
   2.0080E-02   2.0569E-02   2.1422E-04  0.0691
   2.0569E-02   2.1069E-02   2.4977E-04  0.0632
   2.1069E-02   2.1582E-02   2.2726E-04  0.0654
   2.1582E-02   2.2107E-02   2.2377E-04  0.0652
   2.2107E-02   2.2645E-02   1.9800E-04  0.0685
   2.2645E-02   2.3196E-02   2.0736E-04  0.0661
   2.3196E-02   2.3760E-02   2.1307E-04  0.0644
   2.3760E-02   2.4338E-02   2.1074E-04  0.0640
   2.4338E-02   2.4930E-02   2.0112E-04  0.0648
   2.4930E-02   2.5537E-02   2.3628E-04  0.0590
   2.5537E-02   2.6158E-02   2.4289E-04  0.0575
   2.6158E-02   2.6795E-02   2.3657E-04  0.0576
   2.6795E-02   2.7447E-02   2.2151E-04  0.0588
   2.7447E-02   2.8114E-02   2.3435E-04  0.0565
   2.8114E-02   2.8799E-02   2.5378E-04  0.0537
   2.8799E-02   2.9499E-02   2.0787E-04  0.0586
   2.9499E-02   3.0217E-02   2.1909E-04  0.0564
   3.0217E-02   3.0952E-02   2.4551E-04  0.0526
   3.0952E-02   3.1705E-02   2.3968E-04  0.0526
   3.1705E-02   3.2477E-02   2.2945E-04  0.0531
   3.2477E-02   3.3267E-02   2.2364E-04  0.0532
   3.3267E-02   3.4076E-02   2.1691E-04  0.0534
   3.4076E-02   3.4905E-02   2.5329E-04  0.0488
   3.4905E-02   3.5755E-02   2.3646E-04  0.0499
   3.5755E-02   3.6625E-02   2.3507E-04  0.0494
   3.6625E-02   3.7516E-02   2.3101E-04  0.0493
   3.7516E-02   3.8428E-02   2.1837E-04  0.0501
   3.8428E-02   3.9363E-02   2.4251E-04  0.0469
   3.9363E-02   4.0321E-02   2.6147E-04  0.0447
   4.0321E-02   4.1302E-02   2.2924E-04  0.0471
   4.1302E-02   4.2307E-02   2.3957E-04  0.0456
   4.2307E-02   4.3337E-02   2.1334E-04  0.0477
   4.3337E-02   4.4391E-02   2.2524E-04  0.0459
   4.4391E-02   4.5471E-02   2.4297E-04  0.0436
   4.5471E-02   4.6577E-02   2.3423E-04  0.0439
   4.6577E-02   4.7711E-02   2.3304E-04  0.0435
   4.7711E-02   4.8871E-02   2.6325E-04  0.0404
   4.8871E-02   5.0061E-02   2.6078E-04  0.0402
   5.0061E-02   5.1279E-02   2.3652E-04  0.0417
   5.1279E-02   5.2526E-02   2.3184E-04  0.0416
   5.2526E-02   5.3804E-02   2.4899E-04  0.0396
   5.3804E-02   5.5113E-02   2.3659E-04  0.0402
   5.5113E-02   5.6454E-02   2.5390E-04  0.0383
   5.6454E-02   5.7828E-02   2.3320E-04  0.0395
   5.7828E-02   5.9235E-02   2.2778E-04  0.0395
   5.9235E-02   6.0676E-02   2.4816E-04  0.0374
   6.0676E-02   6.2152E-02   2.3883E-04  0.0376
   6.2152E-02   6.3665E-02   2.4344E-04  0.0368
   6.3665E-02   6.5214E-02   2.3961E-04  0.0367
   6.5214E-02   6.6800E-02   2.3287E-04  0.0368
   6.6800E-02   6.8426E-02   2.4544E-04  0.0354
   6.8426E-02   7.0090E-02   2.4421E-04  0.0351
   7.0090E-02   7.1796E-02   2.3256E-04  0.0355
   7.1796E-02   7.3543E-02   2.2677E-04  0.0355
   7.3543E-02   7.5332E-02   2.2418E-04  0.0353
   7.5332E-02   7.7165E-02   2.3252E-04  0.0342
   7.7165E-02   7.9042E-02   2.3227E-04  0.0339
   7.9042E-02   8.0965E-02   2.3471E-04  0.0333
   8.0965E-02   8.2935E-02   2.2534E-04  0.0336
   8.2935E-02   8.4953E-02   2.2367E-04  0.0333
   8.4953E-02   8.7020E-02   2.0617E-04  0.0342
   8.7020E-02   8.9138E-02   2.2663E-04  0.0323
   8.9138E-02   9.1306E-02   2.2738E-04  0.0318
   9.1306E-02   9.3528E-02   2.0856E-04  0.0328
   9.3528E-02   9.5804E-02   2.2865E-04  0.0310
   9.5804E-02   9.8134E-02   2.3048E-04  0.0305
   9.8134E-02   1.0052E-01   2.2101E-04  0.0308
   1.0052E-01   1.0297E-01   2.1581E-04  0.0308
   1.0297E-01   1.0547E-01   2.3233E-04  0.0293
   1.0547E-01   1.0804E-01   2.1271E-04  0.0302
   1.0804E-01   1.1067E-01   2.1351E-04  0.0298
   1.1067E-01   1.1336E-01   2.2620E-04  0.0286
   1.1336E-01   1.1612E-01   2.0094E-04  0.0300
   1.1612E-01   1.1894E-01   2.0409E-04  0.0294
   1.1894E-01   1.2184E-01   2.0519E-04  0.0290
   1.2184E-01   1.2480E-01   1.9816E-04  0.0292
   1.2480E-01   1.2784E-01   2.0646E-04  0.0282
   1.2784E-01   1.3095E-01   2.0114E-04  0.0283
   1.3095E-01   1.3414E-01   1.9739E-04  0.0282
   1.3414E-01   1.3740E-01   1.9097E-04  0.0283
   1.3740E-01   1.4074E-01   1.9371E-04  0.0278
   1.4074E-01   1.4417E-01   1.8805E-04  0.0278
   1.4417E-01   1.4767E-01   1.9015E-04  0.0274
   1.4767E-01   1.5127E-01   1.8842E-04  0.0272
   1.5127E-01   1.5495E-01   1.8002E-04  0.0275
   1.5495E-01   1.5872E-01   1.7740E-04  0.0273
   1.5872E-01   1.6258E-01   1.7938E-04  0.0269
   1.6258E-01   1.6654E-01   1.6977E-04  0.0273
   1.6654E-01   1.7059E-01   1.7148E-04  0.0268
   1.7059E-01   1.7474E-01   1.6650E-04  0.0269
   1.7474E-01   1.7899E-01   1.6698E-04  0.0265
   1.7899E-01   1.8334E-01   1.5813E-04  0.0269
   1.8334E-01   1.8781E-01   1.5647E-04  0.0268
   1.8781E-01   1.9237E-01   1.4732E-04  0.0272
   1.9237E-01   1.9706E-01   1.5333E-04  0.0264
   1.9706E-01   2.0185E-01   1.4294E-04  0.0270
   2.0185E-01   2.0676E-01   1.4141E-04  0.0268
   2.0676E-01   2.1179E-01   1.5147E-04  0.0256
   2.1179E-01   2.1694E-01   1.4908E-04  0.0255
   2.1694E-01   2.2222E-01   1.5201E-04  0.0249
   2.2222E-01   2.2763E-01   1.6231E-04  0.0239
   2.2763E-01   2.3317E-01   1.5848E-04  0.0239
   2.3317E-01   2.3884E-01   1.6325E-04  0.0232
   2.3884E-01   2.4465E-01   1.5858E-04  0.0233
   2.4465E-01   2.5061E-01   1.6199E-04  0.0228
   2.5061E-01   2.5670E-01   1.7045E-04  0.0219
   2.5670E-01   2.6295E-01   1.7395E-04  0.0214
   2.6295E-01   2.6935E-01   1.7390E-04  0.0212
   2.6935E-01   2.7590E-01   1.7116E-04  0.0211
   2.7590E-01   2.8261E-01   1.7723E-04  0.0205
   2.8261E-01   2.8949E-01   1.8281E-04  0.0199
   2.8949E-01   2.9653E-01   1.9008E-04  0.0193
   2.9653E-01   3.0375E-01   1.9495E-04  0.0188
   3.0375E-01   3.1114E-01   1.8939E-04  0.0189
   3.1114E-01   3.1871E-01   1.9512E-04  0.0184
   3.1871E-01   3.2646E-01   1.9690E-04  0.0181
   3.2646E-01   3.3441E-01   2.0326E-04  0.0176
   3.3441E-01   3.4254E-01   2.0583E-04  0.0173
   3.4254E-01   3.5088E-01   2.0682E-04  0.0170
   3.5088E-01   3.5941E-01   2.0647E-04  0.0168
   3.5941E-01   3.6816E-01   2.1179E-04  0.0164
   3.6816E-01   3.7712E-01   2.1202E-04  0.0162
   3.7712E-01   3.8629E-01   2.1428E-04  0.0159
   3.8629E-01   3.9569E-01   2.2026E-04  0.0155
   3.9569E-01   4.0532E-01   2.2054E-04  0.0153
   4.0532E-01   4.1518E-01   2.2251E-04  0.0151
   4.1518E-01   4.2528E-01   2.2316E-04  0.0149
   4.2528E-01   4.3563E-01   2.2211E-04  0.0147
   4.3563E-01   4.4623E-01   2.3125E-04  0.0143
   4.4623E-01   4.5708E-01   2.3198E-04  0.0141
   4.5708E-01   4.6821E-01   2.3022E-04  0.0140
   4.6821E-01   4.7960E-01   2.3568E-04  0.0136
   4.7960E-01   4.9127E-01   2.3950E-04  0.0134
   4.9127E-01   5.0322E-01   2.4262E-04  0.0131
   5.0322E-01   5.1546E-01   2.4536E-04  0.0129
   5.1546E-01   5.2800E-01   2.4763E-04  0.0127
   5.2800E-01   5.4085E-01   2.4741E-04  0.0125
   5.4085E-01   5.5401E-01   2.4775E-04  0.0124
   5.5401E-01   5.6749E-01   2.5201E-04  0.0121
   5.6749E-01   5.8130E-01   2.5246E-04  0.0120
   5.8130E-01   5.9544E-01   2.5542E-04  0.0118
   5.9544E-01   6.0993E-01   2.5767E-04  0.0116
   6.0993E-01   6.2477E-01   2.6260E-04  0.0113
   6.2477E-01   6.3997E-01   2.5427E-04  0.0114
   6.3997E-01   6.5554E-01   2.6245E-04  0.0111
   6.5554E-01   6.7149E-01   2.6094E-04  0.0109
   6.7149E-01   6.8783E-01   2.6479E-04  0.0107
   6.8783E-01   7.0456E-01   2.6771E-04  0.0106
   7.0456E-01   7.2171E-01   2.6674E-04  0.0104
   7.2171E-01   7.3927E-01   2.6332E-04  0.0104
   7.3927E-01   7.5725E-01   2.6756E-04  0.0102
   7.5725E-01   7.7568E-01   2.6850E-04  0.0100
   7.7568E-01   7.9455E-01   2.6949E-04  0.0099
   7.9455E-01   8.1388E-01   2.7143E-04  0.0098
   8.1388E-01   8.3368E-01   2.7225E-04  0.0096
   8.3368E-01   8.5397E-01   2.7170E-04  0.0095
   8.5397E-01   8.7475E-01   2.7142E-04  0.0094
   8.7475E-01   8.9603E-01   2.6936E-04  0.0093
   8.9603E-01   9.1783E-01   2.7108E-04  0.0092
   9.1783E-01   9.4016E-01   2.7177E-04  0.0091
   9.4016E-01   9.6304E-01   2.6578E-04  0.0091
   9.6304E-01   9.8647E-01   2.5953E-04  0.0091
   9.8647E-01   1.0105E+00   2.5833E-04  0.0090
   1.0105E+00   1.0351E+00   2.5547E-04  0.0089
   1.0351E+00   1.0602E+00   2.5870E-04  0.0088
   1.0602E+00   1.0860E+00   2.6184E-04  0.0086
   1.0860E+00   1.1125E+00   2.5510E-04  0.0086
   1.1125E+00   1.1395E+00   2.5918E-04  0.0084
   1.1395E+00   1.1673E+00   2.6053E-04  0.0083
   1.1673E+00   1.1957E+00   2.5875E-04  0.0082
   1.1957E+00   1.2247E+00   2.6608E-04  0.0080
   1.2247E+00   1.2545E+00   2.6715E-04  0.0079
   1.2545E+00   1.2851E+00   2.6818E-04  0.0078
   1.2851E+00   1.3163E+00   2.6428E-04  0.0078
   1.3163E+00   1.3484E+00   2.6514E-04  0.0077
   1.3484E+00   1.3812E+00   2.6574E-04  0.0076
   1.3812E+00   1.4148E+00   2.6548E-04  0.0075
   1.4148E+00   1.4492E+00   2.6551E-04  0.0074
   1.4492E+00   1.4845E+00   2.6394E-04  0.0073
   1.4845E+00   1.5206E+00   2.6182E-04  0.0073
   1.5206E+00   1.5576E+00   2.6004E-04  0.0072
   1.5576E+00   1.5955E+00   2.5401E-04  0.0072
   1.5955E+00   1.6343E+00   2.5510E-04  0.0071
   1.6343E+00   1.6741E+00   2.5319E-04  0.0070
   1.6741E+00   1.7148E+00   2.5303E-04  0.0070
   1.7148E+00   1.7565E+00   2.5285E-04  0.0069
   1.7565E+00   1.7992E+00   2.4744E-04  0.0069
   1.7992E+00   1.8430E+00   2.4062E-04  0.0069
   1.8430E+00   1.8879E+00   2.4268E-04  0.0068
   1.8879E+00   1.9338E+00   2.3600E-04  0.0068
   1.9338E+00   1.9808E+00   2.3361E-04  0.0067
   1.9808E+00   2.0290E+00   2.3100E-04  0.0067
   2.0290E+00   2.0784E+00   2.2766E-04  0.0067
   2.0784E+00   2.1290E+00   2.2550E-04  0.0066
   2.1290E+00   2.1808E+00   2.1788E-04  0.0066
   2.1808E+00   2.2338E+00   2.1458E-04  0.0066
   2.2338E+00   2.2882E+00   2.0982E-04  0.0066
   2.2882E+00   2.3439E+00   2.0538E-04  0.0066
   2.3439E+00   2.4009E+00   2.0335E-04  0.0066
   2.4009E+00   2.4593E+00   1.9996E-04  0.0065
   2.4593E+00   2.5191E+00   1.9798E-04  0.0065
   2.5191E+00   2.5804E+00   1.9156E-04  0.0065
   2.5804E+00   2.6432E+00   1.8709E-04  0.0065
   2.6432E+00   2.7075E+00   1.8386E-04  0.0065
   2.7075E+00   2.7734E+00   1.7944E-04  0.0065
   2.7734E+00   2.8409E+00   1.7626E-04  0.0065
   2.8409E+00   2.9100E+00   1.7166E-04  0.0065
   2.9100E+00   2.9808E+00   1.6735E-04  0.0065
   2.9808E+00   3.0533E+00   1.6411E-04  0.0065
   3.0533E+00   3.1276E+00   1.5959E-04  0.0065
   3.1276E+00   3.2037E+00   1.5377E-04  0.0065
   3.2037E+00   3.2817E+00   1.5010E-04  0.0065
   3.2817E+00   3.3615E+00   1.4944E-04  0.0065
   3.3615E+00   3.4433E+00   1.4418E-04  0.0065
   3.4433E+00   3.5271E+00   1.3880E-04  0.0065
   3.5271E+00   3.6129E+00   1.3689E-04  0.0065
   3.6129E+00   3.7008E+00   1.3318E-04  0.0065
   3.7008E+00   3.7908E+00   1.2765E-04  0.0066
   3.7908E+00   3.8831E+00   1.2396E-04  0.0066
   3.8831E+00   3.9776E+00   1.2054E-04  0.0066
   3.9776E+00   4.0743E+00   1.1672E-04  0.0066
   4.0743E+00   4.1735E+00   1.1019E-04  0.0068
   4.1735E+00   4.2750E+00   1.0526E-04  0.0068
   4.2750E+00   4.3790E+00   1.0254E-04  0.0068
   4.3790E+00   4.4856E+00   9.8049E-05  0.0069
   4.4856E+00   4.5947E+00   9.4263E-05  0.0070
   4.5947E+00   4.7065E+00   9.0463E-05  0.0070
   4.7065E+00   4.8210E+00   8.6938E-05  0.0071
   4.8210E+00   4.9383E+00   8.3504E-05  0.0071
   4.9383E+00   5.0585E+00   7.9045E-05  0.0072
   5.0585E+00   5.1815E+00   7.7814E-05  0.0072
   5.1815E+00   5.3076E+00   7.3842E-05  0.0073
   5.3076E+00   5.4368E+00   7.0961E-05  0.0074
   5.4368E+00   5.5690E+00   6.8288E-05  0.0074
   5.5690E+00   5.7045E+00   6.5846E-05  0.0075
   5.7045E+00   5.8433E+00   6.2602E-05  0.0076
   5.8433E+00   5.9855E+00   6.0534E-05  0.0076
   5.9855E+00   6.1311E+00   5.7467E-05  0.0077
   6.1311E+00   6.2803E+00   5.4315E-05  0.0078
   6.2803E+00   6.4331E+00   5.2347E-05  0.0079
   6.4331E+00   6.5896E+00   4.8884E-05  0.0081
   6.5896E+00   6.7500E+00   4.7416E-05  0.0081
   6.7500E+00   6.9142E+00   4.5236E-05  0.0082
   6.9142E+00   7.0824E+00   4.2604E-05  0.0083
   7.0824E+00   7.2548E+00   4.0018E-05  0.0085
   7.2548E+00   7.4313E+00   3.7806E-05  0.0086
   7.4313E+00   7.6121E+00   3.5433E-05  0.0088
   7.6121E+00   7.7973E+00   3.2894E-05  0.0091
   7.7973E+00   7.9870E+00   3.1819E-05  0.0091
   7.9870E+00   8.1813E+00   2.9692E-05  0.0093
   8.1813E+00   8.3804E+00   2.7827E-05  0.0095
   8.3804E+00   8.5843E+00   2.6563E-05  0.0096
   8.5843E+00   8.7931E+00   2.5598E-05  0.0097
   8.7931E+00   9.0071E+00   2.4172E-05  0.0098
   9.0071E+00   9.2262E+00   2.2730E-05  0.0100
   9.2262E+00   9.4507E+00   2.1919E-05  0.0101
   9.4507E+00   9.6807E+00   2.1113E-05  0.0101
   9.6807E+00   9.9162E+00   2.0070E-05  0.0103
   9.9162E+00   1.0157E+01   1.9172E-05  0.0104
   1.0157E+01   1.0405E+01   1.8117E-05  0.0106
   1.0405E+01   1.0658E+01   1.7669E-05  0.0106
   1.0658E+01   1.0917E+01   1.6871E-05  0.0107
   1.0917E+01   1.1183E+01   1.6330E-05  0.0107
   1.1183E+01   1.1455E+01   1.5771E-05  0.0108
   1.1455E+01   1.1733E+01   1.4712E-05  0.0110
   1.1733E+01   1.2019E+01   1.3902E-05  0.0112
   1.2019E+01   1.2311E+01   1.3146E-05  0.0114
   1.2311E+01   1.2611E+01   1.2880E-05  0.0114
   1.2611E+01   1.2918E+01   1.2061E-05  0.0116
   1.2918E+01   1.3232E+01   1.1544E-05  0.0117
   1.3232E+01   1.3554E+01   1.1076E-05  0.0118
   1.3554E+01   1.3884E+01   1.0372E-05  0.0121
   1.3884E+01   1.4222E+01   9.9870E-06  0.0122
   1.4222E+01   1.4568E+01   9.4115E-06  0.0124
   1.4568E+01   1.4922E+01   8.9723E-06  0.0125
   1.4922E+01   1.5285E+01   8.5473E-06  0.0127
   1.5285E+01   1.5657E+01   8.1527E-06  0.0128
   1.5657E+01   1.6038E+01   7.5345E-06  0.0132
   1.6038E+01   1.6428E+01   7.2469E-06  0.0133
   1.6428E+01   1.6828E+01   6.8234E-06  0.0135
   1.6828E+01   1.7237E+01   6.5120E-06  0.0137
   1.7237E+01   1.7657E+01   6.0253E-06  0.0141
   1.7657E+01   1.8086E+01   5.9837E-06  0.0139
   1.8086E+01   1.8526E+01   5.6777E-06  0.0141
   1.8526E+01   1.8977E+01   5.3480E-06  0.0144
   1.8977E+01   1.9439E+01   5.0963E-06  0.0146
   1.9439E+01   1.9912E+01   5.0432E-06  0.0145
   1.9912E+01   2.0396E+01   4.7247E-06  0.0148
   2.0396E+01   2.0893E+01   4.4684E-06  0.0150
   2.0893E+01   2.1401E+01   4.2748E-06  0.0152
   2.1401E+01   2.1922E+01   3.9917E-06  0.0155
   2.1922E+01   2.2455E+01   3.9222E-06  0.0155
   2.2455E+01   2.3001E+01   3.6140E-06  0.0159
   2.3001E+01   2.3561E+01   3.2664E-06  0.0165
   2.3561E+01   2.4134E+01   2.8774E-06  0.0174
   2.4134E+01   2.4721E+01   2.6618E-06  0.0179
   2.4721E+01   2.5323E+01   2.3250E-06  0.0189
   2.5323E+01   2.5939E+01   1.9493E-06  0.0204
   2.5939E+01   2.6570E+01   1.6122E-06  0.0222
   2.6570E+01   2.7217E+01   1.3721E-06  0.0237
   2.7217E+01   2.7879E+01   1.0880E-06  0.0263
   2.7879E+01   2.8557E+01   9.1034E-07  0.0285
   2.8557E+01   2.9252E+01   6.3398E-07  0.0337
   2.9252E+01   2.9964E+01   4.8825E-07  0.0379
   2.9964E+01   3.0693E+01   3.1000E-07  0.0470
   3.0693E+01   3.1440E+01   2.0957E-07  0.0565
   3.1440E+01   3.2205E+01   1.4576E-07  0.0670
   3.2205E+01   3.2988E+01   7.3383E-08  0.0933
   3.2988E+01   3.3791E+01   4.1738E-08  0.1222
   3.3791E+01   3.4613E+01   2.6759E-08  0.1508
   3.4613E+01   3.5455E+01   2.3155E-08  0.1601
   3.5455E+01   3.6318E+01   1.2172E-08  0.2182
   3.6318E+01   3.7201E+01   5.0926E-09  0.3333
   3.7201E+01   3.8106E+01   6.0764E-09  0.3015
   3.8106E+01   3.9034E+01   3.7750E-09  0.3780
   3.9034E+01   3.9983E+01   0.0000E+00  0.0000
   3.9983E+01   4.0956E+01   0.0000E+00  0.0000
   4.0956E+01   4.1953E+01   0.0000E+00  0.0000
   4.1953E+01   4.2973E+01   0.0000E+00  0.0000
   4.2973E+01   4.4019E+01   0.0000E+00  0.0000
   4.4019E+01   4.5090E+01   0.0000E+00  0.0000
   4.5090E+01   4.6187E+01   0.0000E+00  0.0000
   4.6187E+01   4.7311E+01   0.0000E+00  0.0000
   4.7311E+01   4.8462E+01   0.0000E+00  0.0000
   4.8462E+01   4.9641E+01   0.0000E+00  0.0000
   4.9641E+01   5.0849E+01   0.0000E+00  0.0000
   5.0849E+01   5.2086E+01   0.0000E+00  0.0000
   5.2086E+01   5.3353E+01   0.0000E+00  0.0000
   5.3353E+01   5.4651E+01   0.0000E+00  0.0000
   5.4651E+01   5.5981E+01   0.0000E+00  0.0000
   5.5981E+01   5.7343E+01   0.0000E+00  0.0000
   5.7343E+01   5.8738E+01   0.0000E+00  0.0000
   5.8738E+01   6.0168E+01   0.0000E+00  0.0000
   6.0168E+01   6.1632E+01   0.0000E+00  0.0000
   6.1632E+01   6.3131E+01   0.0000E+00  0.0000
   6.3131E+01   6.4667E+01   0.0000E+00  0.0000
   6.4667E+01   6.6240E+01   0.0000E+00  0.0000
   6.6240E+01   6.7852E+01   0.0000E+00  0.0000
   6.7852E+01   6.9503E+01   0.0000E+00  0.0000
   6.9503E+01   7.1194E+01   0.0000E+00  0.0000
   7.1194E+01   7.2926E+01   0.0000E+00  0.0000
   7.2926E+01   7.4701E+01   0.0000E+00  0.0000
   7.4701E+01   7.6518E+01   0.0000E+00  0.0000
   7.6518E+01   7.8380E+01   0.0000E+00  0.0000
   7.8380E+01   8.0287E+01   0.0000E+00  0.0000
   8.0287E+01   8.2240E+01   0.0000E+00  0.0000
   8.2240E+01   8.4241E+01   0.0000E+00  0.0000
   8.4241E+01   8.6291E+01   0.0000E+00  0.0000
   8.6291E+01   8.8391E+01   0.0000E+00  0.0000
   8.8391E+01   9.0541E+01   0.0000E+00  0.0000
   9.0541E+01   9.2744E+01   0.0000E+00  0.0000
   9.2744E+01   9.5001E+01   0.0000E+00  0.0000
   9.5001E+01   9.7312E+01   0.0000E+00  0.0000
   9.7312E+01   9.9680E+01   0.0000E+00  0.0000
   9.9680E+01   1.0211E+02   0.0000E+00  0.0000
   1.0211E+02   1.0459E+02   0.0000E+00  0.0000
   1.0459E+02   1.0713E+02   0.0000E+00  0.0000
   1.0713E+02   1.0974E+02   0.0000E+00  0.0000
   1.0974E+02   1.1241E+02   0.0000E+00  0.0000
   1.1241E+02   1.1515E+02   0.0000E+00  0.0000
   1.1515E+02   1.1795E+02   0.0000E+00  0.0000
   1.1795E+02   1.2082E+02   0.0000E+00  0.0000
   1.2082E+02   1.2376E+02   0.0000E+00  0.0000
   1.2376E+02   1.2677E+02   0.0000E+00  0.0000
   1.2677E+02   1.2985E+02   0.0000E+00  0.0000
   1.2985E+02   1.3301E+02   0.0000E+00  0.0000
   1.3301E+02   1.3625E+02   0.0000E+00  0.0000
   1.3625E+02   1.3956E+02   0.0000E+00  0.0000
   1.3956E+02   1.4296E+02   0.0000E+00  0.0000
   1.4296E+02   1.4644E+02   0.0000E+00  0.0000
   1.4644E+02   1.5000E+02   0.0000E+00  0.0000

#   sum over                 8.2852E-06
'no. =    1   reg = 116 - 216'
msuc: {\huge [t-cross] in region mesh}
msdr: {\it plotted by \ANGEL \version}
msdl: {\it calculated by \PHITS  3.26}
wt: s(0.7)
\vspace{-3}
  region surface crossing
  area  &=&   1.0000E+00 [cm^2]
e:
 
# Information for Restart Calculation
# This calculation was newly started
# istdev =  2 # 1:Batch variance, 2:History variance
# resc2  = 2.00000000000000000E+09 # Total source weight or Total source weight / maxcas
# resc3  = 2.00000000000000000E+09 # Total history number or Total batch number
# maxcas =   500000000 # History / Batch, only used for istdev=1
# bitrseed = 0011011010010000100111110110001101100001010011100000011100000110 # bit data of rseed
