[ T-Cross ]
    title = [t-cross] in region mesh
     mesh =  reg            # mesh type is region-wise
      reg =    1            # number of crossing regions
      non     r-from    r-to       area
      1       107       207        1.000000    
   e-type =    3            # e-mesh is log given by emin, emax and ne
     emin =  1.0000000E-02  # minimum value of e-mesh points
     emax =   150.0000      # maximum value of e-mesh points
#    edel =  2.4039514E-02  # mesh width of e-mesh points
       ne =    400          # number of e-mesh points
#    data = ( e(i), i = 1, ne + 1 )
#           1.00000E-02  1.02433E-02  1.04925E-02  1.07478E-02  1.10093E-02
#           1.12772E-02  1.15516E-02  1.18326E-02  1.21205E-02  1.24154E-02
#           1.27175E-02  1.30269E-02  1.33439E-02  1.36686E-02  1.40011E-02
#           1.43418E-02  1.46907E-02  1.50482E-02  1.54143E-02  1.57894E-02
#           1.61735E-02  1.65670E-02  1.69701E-02  1.73830E-02  1.78060E-02
#           1.82392E-02  1.86830E-02  1.91375E-02  1.96032E-02  2.00801E-02
#           2.05687E-02  2.10692E-02  2.15818E-02  2.21069E-02  2.26448E-02
#           2.31957E-02  2.37601E-02  2.43382E-02  2.49304E-02  2.55369E-02
#           2.61583E-02  2.67947E-02  2.74467E-02  2.81145E-02  2.87985E-02
#           2.94992E-02  3.02169E-02  3.09521E-02  3.17052E-02  3.24766E-02
#           3.32668E-02  3.40762E-02  3.49053E-02  3.57546E-02  3.66246E-02
#           3.75157E-02  3.84284E-02  3.93634E-02  4.03212E-02  4.13022E-02
#           4.23071E-02  4.33365E-02  4.43909E-02  4.54710E-02  4.65773E-02
#           4.77106E-02  4.88714E-02  5.00605E-02  5.12785E-02  5.25262E-02
#           5.38042E-02  5.51133E-02  5.64542E-02  5.78278E-02  5.92348E-02
#           6.06760E-02  6.21523E-02  6.36645E-02  6.52135E-02  6.68002E-02
#           6.84255E-02  7.00904E-02  7.17957E-02  7.35426E-02  7.53319E-02
#           7.71648E-02  7.90423E-02  8.09655E-02  8.29354E-02  8.49533E-02
#           8.70203E-02  8.91376E-02  9.13064E-02  9.35279E-02  9.58035E-02
#           9.81345E-02  1.00522E-01  1.02968E-01  1.05473E-01  1.08040E-01
#           1.10668E-01  1.13361E-01  1.16119E-01  1.18944E-01  1.21838E-01
#           1.24803E-01  1.27839E-01  1.30950E-01  1.34136E-01  1.37399E-01
#           1.40742E-01  1.44167E-01  1.47675E-01  1.51268E-01  1.54948E-01
#           1.58718E-01  1.62580E-01  1.66535E-01  1.70587E-01  1.74738E-01
#           1.78989E-01  1.83344E-01  1.87805E-01  1.92375E-01  1.97055E-01
#           2.01850E-01  2.06761E-01  2.11792E-01  2.16945E-01  2.22223E-01
#           2.27630E-01  2.33169E-01  2.38842E-01  2.44653E-01  2.50605E-01
#           2.56703E-01  2.62949E-01  2.69346E-01  2.75900E-01  2.82613E-01
#           2.89489E-01  2.96532E-01  3.03747E-01  3.11138E-01  3.18708E-01
#           3.26462E-01  3.34405E-01  3.42542E-01  3.50876E-01  3.59413E-01
#           3.68158E-01  3.77116E-01  3.86291E-01  3.95690E-01  4.05317E-01
#           4.15179E-01  4.25281E-01  4.35628E-01  4.46227E-01  4.57084E-01
#           4.68205E-01  4.79597E-01  4.91266E-01  5.03219E-01  5.15463E-01
#           5.28005E-01  5.40851E-01  5.54011E-01  5.67490E-01  5.81298E-01
#           5.95441E-01  6.09929E-01  6.24769E-01  6.39970E-01  6.55541E-01
#           6.71491E-01  6.87828E-01  7.04564E-01  7.21706E-01  7.39266E-01
#           7.57253E-01  7.75678E-01  7.94551E-01  8.13883E-01  8.33685E-01
#           8.53969E-01  8.74747E-01  8.96030E-01  9.17831E-01  9.40163E-01
#           9.63038E-01  9.86469E-01  1.01047E+00  1.03506E+00  1.06024E+00
#           1.08604E+00  1.11246E+00  1.13953E+00  1.16725E+00  1.19565E+00
#           1.22474E+00  1.25454E+00  1.28507E+00  1.31633E+00  1.34836E+00
#           1.38117E+00  1.41477E+00  1.44920E+00  1.48446E+00  1.52057E+00
#           1.55757E+00  1.59547E+00  1.63429E+00  1.67405E+00  1.71478E+00
#           1.75650E+00  1.79924E+00  1.84302E+00  1.88786E+00  1.93379E+00
#           1.98084E+00  2.02904E+00  2.07841E+00  2.12898E+00  2.18078E+00
#           2.23384E+00  2.28819E+00  2.34386E+00  2.40089E+00  2.45930E+00
#           2.51914E+00  2.58043E+00  2.64322E+00  2.70753E+00  2.77341E+00
#           2.84088E+00  2.91001E+00  2.98081E+00  3.05333E+00  3.12762E+00
#           3.20372E+00  3.28167E+00  3.36152E+00  3.44330E+00  3.52708E+00
#           3.61290E+00  3.70080E+00  3.79085E+00  3.88308E+00  3.97756E+00
#           4.07434E+00  4.17347E+00  4.27501E+00  4.37903E+00  4.48557E+00
#           4.59471E+00  4.70650E+00  4.82102E+00  4.93832E+00  5.05847E+00
#           5.18155E+00  5.30762E+00  5.43676E+00  5.56904E+00  5.70453E+00
#           5.84333E+00  5.98550E+00  6.13114E+00  6.28031E+00  6.43312E+00
#           6.58964E+00  6.74997E+00  6.91420E+00  7.08243E+00  7.25475E+00
#           7.43126E+00  7.61207E+00  7.79728E+00  7.98700E+00  8.18133E+00
#           8.38038E+00  8.58428E+00  8.79315E+00  9.00709E+00  9.22624E+00
#           9.45072E+00  9.68067E+00  9.91620E+00  1.01575E+01  1.04046E+01
#           1.06578E+01  1.09171E+01  1.11827E+01  1.14548E+01  1.17335E+01
#           1.20190E+01  1.23114E+01  1.26109E+01  1.29178E+01  1.32321E+01
#           1.35540E+01  1.38838E+01  1.42216E+01  1.45676E+01  1.49221E+01
#           1.52851E+01  1.56570E+01  1.60380E+01  1.64282E+01  1.68279E+01
#           1.72374E+01  1.76568E+01  1.80864E+01  1.85264E+01  1.89772E+01
#           1.94389E+01  1.99119E+01  2.03963E+01  2.08926E+01  2.14009E+01
#           2.19216E+01  2.24550E+01  2.30014E+01  2.35610E+01  2.41343E+01
#           2.47215E+01  2.53230E+01  2.59391E+01  2.65702E+01  2.72167E+01
#           2.78789E+01  2.85572E+01  2.92520E+01  2.99637E+01  3.06928E+01
#           3.14396E+01  3.22045E+01  3.29881E+01  3.37907E+01  3.46128E+01
#           3.54550E+01  3.63177E+01  3.72013E+01  3.81064E+01  3.90336E+01
#           3.99833E+01  4.09561E+01  4.19526E+01  4.29734E+01  4.40189E+01
#           4.50900E+01  4.61870E+01  4.73108E+01  4.84619E+01  4.96410E+01
#           5.08488E+01  5.20860E+01  5.33533E+01  5.46514E+01  5.59812E+01
#           5.73432E+01  5.87384E+01  6.01676E+01  6.16315E+01  6.31311E+01
#           6.46671E+01  6.62405E+01  6.78522E+01  6.95031E+01  7.11941E+01
#           7.29263E+01  7.47007E+01  7.65182E+01  7.83800E+01  8.02870E+01
#           8.22405E+01  8.42414E+01  8.62911E+01  8.83906E+01  9.05412E+01
#           9.27442E+01  9.50007E+01  9.73122E+01  9.96799E+01  1.02105E+02
#           1.04589E+02  1.07134E+02  1.09741E+02  1.12411E+02  1.15146E+02
#           1.17948E+02  1.20817E+02  1.23757E+02  1.26768E+02  1.29852E+02
#           1.33012E+02  1.36248E+02  1.39563E+02  1.42959E+02  1.46437E+02
#           1.50000E+02
     unit =    2            # unit is [1/cm^2/(MeV/n)/source]
     axis =  eng            # axis of output
     file = detector-08.out  # file name of output for the above axis
   output = f-curr          # surface crossing forward current spectrum
     part =  neutron  
# kf/name :  2112     
#    used :        main (  %)        temp (  %)       total (  %)
#  memory :         414 (  0)           0 (  0)         414 (  0)

#------------------------------------------------------------------------------
#newpage:
#   no. =    1   reg = 107 - 207

x: Energy [MeV/n]
y:  F-Curr [1/cm^2/(MeV/n)/source]         
p: xlog ylog afac(0.8) form(0.9)
h: n            x            y(neutron ),hh0l   n 
#  e-lower      e-upper      neutron     r.err 
   1.0000E-02   1.0243E-02   3.9707E-04  0.0643
   1.0243E-02   1.0493E-02   3.8514E-04  0.0645
   1.0493E-02   1.0748E-02   3.9922E-04  0.0625
   1.0748E-02   1.1009E-02   4.1750E-04  0.0605
   1.1009E-02   1.1277E-02   4.3478E-04  0.0585
   1.1277E-02   1.1552E-02   3.9813E-04  0.0604
   1.1552E-02   1.1833E-02   4.7560E-04  0.0546
   1.1833E-02   1.2121E-02   4.4007E-04  0.0561
   1.2121E-02   1.2415E-02   4.2116E-04  0.0567
   1.2415E-02   1.2718E-02   4.2236E-04  0.0559
   1.2718E-02   1.3027E-02   3.5183E-04  0.0605
   1.3027E-02   1.3344E-02   4.2364E-04  0.0545
   1.3344E-02   1.3669E-02   3.6017E-04  0.0584
   1.3669E-02   1.4001E-02   4.1619E-04  0.0537
   1.4001E-02   1.4342E-02   3.7901E-04  0.0556
   1.4342E-02   1.4691E-02   4.0948E-04  0.0528
   1.4691E-02   1.5048E-02   3.9404E-04  0.0532
   1.5048E-02   1.5414E-02   3.9024E-04  0.0528
   1.5414E-02   1.5789E-02   3.7132E-04  0.0535
   1.5789E-02   1.6174E-02   3.6771E-04  0.0532
   1.6174E-02   1.6567E-02   3.9183E-04  0.0509
   1.6567E-02   1.6970E-02   3.5042E-04  0.0531
   1.6970E-02   1.7383E-02   3.8617E-04  0.0501
   1.7383E-02   1.7806E-02   3.8143E-04  0.0497
   1.7806E-02   1.8239E-02   3.6898E-04  0.0500
   1.8239E-02   1.8683E-02   3.7300E-04  0.0491
   1.8683E-02   1.9138E-02   3.6548E-04  0.0489
   1.9138E-02   1.9603E-02   3.5764E-04  0.0489
   1.9603E-02   2.0080E-02   3.8040E-04  0.0469
   2.0080E-02   2.0569E-02   3.6173E-04  0.0475
   2.0569E-02   2.1069E-02   3.6449E-04  0.0468
   2.1069E-02   2.1582E-02   3.7435E-04  0.0456
   2.1582E-02   2.2107E-02   3.3335E-04  0.0477
   2.2107E-02   2.2645E-02   3.2214E-04  0.0480
   2.2645E-02   2.3196E-02   3.3369E-04  0.0466
   2.3196E-02   2.3760E-02   3.1327E-04  0.0475
   2.3760E-02   2.4338E-02   3.4552E-04  0.0447
   2.4338E-02   2.4930E-02   3.5978E-04  0.0433
   2.4930E-02   2.5537E-02   3.2709E-04  0.0448
   2.5537E-02   2.6158E-02   3.4289E-04  0.0432
   2.6158E-02   2.6795E-02   3.2556E-04  0.0439
   2.6795E-02   2.7447E-02   3.3225E-04  0.0429
   2.7447E-02   2.8114E-02   3.0622E-04  0.0442
   2.8114E-02   2.8799E-02   3.1516E-04  0.0430
   2.8799E-02   2.9499E-02   3.2749E-04  0.0417
   2.9499E-02   3.0217E-02   3.2129E-04  0.0415
   3.0217E-02   3.0952E-02   3.2557E-04  0.0408
   3.0952E-02   3.1705E-02   3.1399E-04  0.0411
   3.1705E-02   3.2477E-02   3.2451E-04  0.0399
   3.2477E-02   3.3267E-02   3.0063E-04  0.0410
   3.3267E-02   3.4076E-02   3.1149E-04  0.0398
   3.4076E-02   3.4905E-02   3.1597E-04  0.0390
   3.4905E-02   3.5755E-02   3.0974E-04  0.0389
   3.5755E-02   3.6625E-02   3.0844E-04  0.0385
   3.6625E-02   3.7516E-02   3.0275E-04  0.0385
   3.7516E-02   3.8428E-02   2.9538E-04  0.0385
   3.8428E-02   3.9363E-02   3.0201E-04  0.0376
   3.9363E-02   4.0321E-02   2.9084E-04  0.0379
   4.0321E-02   4.1302E-02   2.8665E-04  0.0377
   4.1302E-02   4.2307E-02   2.8225E-04  0.0375
   4.2307E-02   4.3337E-02   2.7774E-04  0.0374
   4.3337E-02   4.4391E-02   2.8952E-04  0.0362
   4.4391E-02   4.5471E-02   2.8152E-04  0.0362
   4.5471E-02   4.6577E-02   2.7958E-04  0.0359
   4.6577E-02   4.7711E-02   2.6395E-04  0.0365
   4.7711E-02   4.8871E-02   2.7584E-04  0.0353
   4.8871E-02   5.0061E-02   2.6341E-04  0.0357
   5.0061E-02   5.1279E-02   2.7765E-04  0.0344
   5.1279E-02   5.2526E-02   2.7081E-04  0.0344
   5.2526E-02   5.3804E-02   2.5074E-04  0.0353
   5.3804E-02   5.5113E-02   2.5201E-04  0.0348
   5.5113E-02   5.6454E-02   2.5983E-04  0.0339
   5.6454E-02   5.7828E-02   2.5389E-04  0.0338
   5.7828E-02   5.9235E-02   2.5851E-04  0.0331
   5.9235E-02   6.0676E-02   2.2766E-04  0.0349
   6.0676E-02   6.2152E-02   2.4382E-04  0.0333
   6.2152E-02   6.3665E-02   2.3393E-04  0.0336
   6.3665E-02   6.5214E-02   2.3916E-04  0.0328
   6.5214E-02   6.6800E-02   2.2810E-04  0.0332
   6.6800E-02   6.8426E-02   2.4140E-04  0.0319
   6.8426E-02   7.0090E-02   2.2809E-04  0.0324
   7.0090E-02   7.1796E-02   2.2478E-04  0.0322
   7.1796E-02   7.3543E-02   2.3072E-04  0.0315
   7.3543E-02   7.5332E-02   2.2220E-04  0.0317
   7.5332E-02   7.7165E-02   2.1037E-04  0.0322
   7.7165E-02   7.9042E-02   2.1339E-04  0.0315
   7.9042E-02   8.0965E-02   2.1626E-04  0.0309
   8.0965E-02   8.2935E-02   1.9665E-04  0.0321
   8.2935E-02   8.4953E-02   2.1169E-04  0.0306
   8.4953E-02   8.7020E-02   2.0969E-04  0.0303
   8.7020E-02   8.9138E-02   2.0744E-04  0.0301
   8.9138E-02   9.1306E-02   2.0394E-04  0.0300
   9.1306E-02   9.3528E-02   1.9799E-04  0.0301
   9.3528E-02   9.5804E-02   2.0193E-04  0.0295
   9.5804E-02   9.8134E-02   2.0696E-04  0.0288
   9.8134E-02   1.0052E-01   1.7929E-04  0.0305
   1.0052E-01   1.0297E-01   1.8602E-04  0.0296
   1.0297E-01   1.0547E-01   1.8340E-04  0.0295
   1.0547E-01   1.0804E-01   1.7440E-04  0.0299
   1.0804E-01   1.1067E-01   1.7887E-04  0.0291
   1.1067E-01   1.1336E-01   1.7991E-04  0.0287
   1.1336E-01   1.1612E-01   1.7015E-04  0.0291
   1.1612E-01   1.1894E-01   1.7187E-04  0.0287
   1.1894E-01   1.2184E-01   1.5829E-04  0.0295
   1.2184E-01   1.2480E-01   1.5496E-04  0.0295
   1.2480E-01   1.2784E-01   1.6227E-04  0.0285
   1.2784E-01   1.3095E-01   1.5814E-04  0.0285
   1.3095E-01   1.3414E-01   1.5651E-04  0.0283
   1.3414E-01   1.3740E-01   1.5487E-04  0.0281
   1.3740E-01   1.4074E-01   1.5093E-04  0.0281
   1.4074E-01   1.4417E-01   1.3835E-04  0.0290
   1.4417E-01   1.4767E-01   1.3854E-04  0.0286
   1.4767E-01   1.5127E-01   1.4713E-04  0.0275
   1.5127E-01   1.5495E-01   1.4492E-04  0.0273
   1.5495E-01   1.5872E-01   1.3487E-04  0.0280
   1.5872E-01   1.6258E-01   1.3807E-04  0.0274
   1.6258E-01   1.6654E-01   1.3082E-04  0.0278
   1.6654E-01   1.7059E-01   1.2729E-04  0.0278
   1.7059E-01   1.7474E-01   1.2565E-04  0.0276
   1.7474E-01   1.7899E-01   1.2006E-04  0.0279
   1.7899E-01   1.8334E-01   1.1964E-04  0.0277
   1.8334E-01   1.8781E-01   1.1776E-04  0.0275
   1.8781E-01   1.9237E-01   1.1290E-04  0.0278
   1.9237E-01   1.9706E-01   1.1602E-04  0.0271
   1.9706E-01   2.0185E-01   1.0980E-04  0.0275
   2.0185E-01   2.0676E-01   1.0563E-04  0.0277
   2.0676E-01   2.1179E-01   1.1166E-04  0.0266
   2.1179E-01   2.1694E-01   1.1819E-04  0.0256
   2.1694E-01   2.2222E-01   1.0851E-04  0.0264
   2.2222E-01   2.2763E-01   1.1751E-04  0.0251
   2.2763E-01   2.3317E-01   1.2832E-04  0.0237
   2.3317E-01   2.3884E-01   1.2388E-04  0.0238
   2.3884E-01   2.4465E-01   1.2202E-04  0.0237
   2.4465E-01   2.5061E-01   1.2456E-04  0.0232
   2.5061E-01   2.5670E-01   1.3290E-04  0.0222
   2.5670E-01   2.6295E-01   1.2941E-04  0.0222
   2.6295E-01   2.6935E-01   1.3738E-04  0.0213
   2.6935E-01   2.7590E-01   1.3316E-04  0.0214
   2.7590E-01   2.8261E-01   1.3848E-04  0.0207
   2.8261E-01   2.8949E-01   1.4030E-04  0.0203
   2.8949E-01   2.9653E-01   1.4693E-04  0.0196
   2.9653E-01   3.0375E-01   1.5194E-04  0.0191
   3.0375E-01   3.1114E-01   1.5103E-04  0.0189
   3.1114E-01   3.1871E-01   1.5188E-04  0.0186
   3.1871E-01   3.2646E-01   1.5036E-04  0.0185
   3.2646E-01   3.3441E-01   1.4884E-04  0.0184
   3.3441E-01   3.4254E-01   1.5838E-04  0.0176
   3.4254E-01   3.5088E-01   1.5799E-04  0.0174
   3.5088E-01   3.5941E-01   1.5619E-04  0.0173
   3.5941E-01   3.6816E-01   1.6106E-04  0.0168
   3.6816E-01   3.7712E-01   1.5896E-04  0.0167
   3.7712E-01   3.8629E-01   1.6606E-04  0.0162
   3.8629E-01   3.9569E-01   1.6165E-04  0.0162
   3.9569E-01   4.0532E-01   1.6334E-04  0.0159
   4.0532E-01   4.1518E-01   1.6604E-04  0.0156
   4.1518E-01   4.2528E-01   1.6599E-04  0.0154
   4.2528E-01   4.3563E-01   1.7260E-04  0.0149
   4.3563E-01   4.4623E-01   1.6946E-04  0.0149
   4.4623E-01   4.5708E-01   1.6767E-04  0.0148
   4.5708E-01   4.6821E-01   1.7528E-04  0.0143
   4.6821E-01   4.7960E-01   1.7510E-04  0.0141
   4.7960E-01   4.9127E-01   1.7515E-04  0.0140
   4.9127E-01   5.0322E-01   1.7570E-04  0.0138
   5.0322E-01   5.1546E-01   1.7232E-04  0.0138
   5.1546E-01   5.2800E-01   1.7895E-04  0.0133
   5.2800E-01   5.4085E-01   1.7877E-04  0.0132
   5.4085E-01   5.5401E-01   1.8012E-04  0.0130
   5.5401E-01   5.6749E-01   1.7820E-04  0.0129
   5.6749E-01   5.8130E-01   1.8109E-04  0.0126
   5.8130E-01   5.9544E-01   1.7991E-04  0.0125
   5.9544E-01   6.0993E-01   1.8487E-04  0.0122
   6.0993E-01   6.2477E-01   1.8332E-04  0.0121
   6.2477E-01   6.3997E-01   1.8017E-04  0.0121
   6.3997E-01   6.5554E-01   1.9537E-04  0.0115
   6.5554E-01   6.7149E-01   1.9373E-04  0.0114
   6.7149E-01   6.8783E-01   1.9219E-04  0.0113
   6.8783E-01   7.0456E-01   1.9128E-04  0.0112
   7.0456E-01   7.2171E-01   1.9235E-04  0.0110
   7.2171E-01   7.3927E-01   1.9238E-04  0.0109
   7.3927E-01   7.5725E-01   1.9569E-04  0.0106
   7.5725E-01   7.7568E-01   1.9756E-04  0.0105
   7.7568E-01   7.9455E-01   1.9528E-04  0.0104
   7.9455E-01   8.1388E-01   1.9829E-04  0.0102
   8.1388E-01   8.3368E-01   1.9467E-04  0.0102
   8.3368E-01   8.5397E-01   2.0009E-04  0.0099
   8.5397E-01   8.7475E-01   2.0145E-04  0.0098
   8.7475E-01   8.9603E-01   2.0263E-04  0.0096
   8.9603E-01   9.1783E-01   2.0388E-04  0.0095
   9.1783E-01   9.4016E-01   2.0650E-04  0.0093
   9.4016E-01   9.6304E-01   2.0981E-04  0.0091
   9.6304E-01   9.8647E-01   2.0762E-04  0.0091
   9.8647E-01   1.0105E+00   2.1306E-04  0.0088
   1.0105E+00   1.0351E+00   2.1447E-04  0.0087
   1.0351E+00   1.0602E+00   2.1676E-04  0.0085
   1.0602E+00   1.0860E+00   2.1288E-04  0.0085
   1.0860E+00   1.1125E+00   2.1621E-04  0.0084
   1.1125E+00   1.1395E+00   2.1766E-04  0.0082
   1.1395E+00   1.1673E+00   2.1556E-04  0.0082
   1.1673E+00   1.1957E+00   2.2040E-04  0.0080
   1.1957E+00   1.2247E+00   2.2637E-04  0.0078
   1.2247E+00   1.2545E+00   2.2069E-04  0.0078
   1.2545E+00   1.2851E+00   2.2377E-04  0.0076
   1.2851E+00   1.3163E+00   2.2593E-04  0.0075
   1.3163E+00   1.3484E+00   2.2560E-04  0.0074
   1.3484E+00   1.3812E+00   2.2820E-04  0.0073
   1.3812E+00   1.4148E+00   2.3090E-04  0.0072
   1.4148E+00   1.4492E+00   2.2628E-04  0.0072
   1.4492E+00   1.4845E+00   2.3323E-04  0.0070
   1.4845E+00   1.5206E+00   2.3318E-04  0.0069
   1.5206E+00   1.5576E+00   2.3545E-04  0.0068
   1.5576E+00   1.5955E+00   2.3454E-04  0.0067
   1.5955E+00   1.6343E+00   2.3415E-04  0.0066
   1.6343E+00   1.6741E+00   2.3703E-04  0.0065
   1.6741E+00   1.7148E+00   2.3839E-04  0.0064
   1.7148E+00   1.7565E+00   2.3998E-04  0.0063
   1.7565E+00   1.7992E+00   2.3927E-04  0.0062
   1.7992E+00   1.8430E+00   2.3866E-04  0.0062
   1.8430E+00   1.8879E+00   2.3742E-04  0.0061
   1.8879E+00   1.9338E+00   2.4005E-04  0.0060
   1.9338E+00   1.9808E+00   2.4017E-04  0.0059
   1.9808E+00   2.0290E+00   2.4234E-04  0.0058
   2.0290E+00   2.0784E+00   2.4263E-04  0.0058
   2.0784E+00   2.1290E+00   2.4407E-04  0.0057
   2.1290E+00   2.1808E+00   2.4120E-04  0.0057
   2.1808E+00   2.2338E+00   2.4280E-04  0.0056
   2.2338E+00   2.2882E+00   2.4350E-04  0.0055
   2.2882E+00   2.3439E+00   2.4233E-04  0.0054
   2.3439E+00   2.4009E+00   2.4129E-04  0.0054
   2.4009E+00   2.4593E+00   2.4179E-04  0.0053
   2.4593E+00   2.5191E+00   2.4374E-04  0.0052
   2.5191E+00   2.5804E+00   2.4262E-04  0.0052
   2.5804E+00   2.6432E+00   2.4156E-04  0.0051
   2.6432E+00   2.7075E+00   2.4132E-04  0.0051
   2.7075E+00   2.7734E+00   2.3900E-04  0.0050
   2.7734E+00   2.8409E+00   2.3756E-04  0.0050
   2.8409E+00   2.9100E+00   2.3665E-04  0.0049
   2.9100E+00   2.9808E+00   2.3579E-04  0.0049
   2.9808E+00   3.0533E+00   2.3632E-04  0.0048
   3.0533E+00   3.1276E+00   2.3504E-04  0.0048
   3.1276E+00   3.2037E+00   2.3252E-04  0.0047
   3.2037E+00   3.2817E+00   2.2980E-04  0.0047
   3.2817E+00   3.3615E+00   2.3143E-04  0.0046
   3.3615E+00   3.4433E+00   2.2811E-04  0.0046
   3.4433E+00   3.5271E+00   2.2668E-04  0.0046
   3.5271E+00   3.6129E+00   2.2386E-04  0.0046
   3.6129E+00   3.7008E+00   2.2166E-04  0.0045
   3.7008E+00   3.7908E+00   2.2168E-04  0.0045
   3.7908E+00   3.8831E+00   2.2044E-04  0.0044
   3.8831E+00   3.9776E+00   2.1807E-04  0.0044
   3.9776E+00   4.0743E+00   2.1542E-04  0.0044
   4.0743E+00   4.1735E+00   2.1397E-04  0.0043
   4.1735E+00   4.2750E+00   2.1188E-04  0.0043
   4.2750E+00   4.3790E+00   2.0920E-04  0.0043
   4.3790E+00   4.4856E+00   2.0742E-04  0.0043
   4.4856E+00   4.5947E+00   2.0676E-04  0.0042
   4.5947E+00   4.7065E+00   2.0389E-04  0.0042
   4.7065E+00   4.8210E+00   2.0080E-04  0.0042
   4.8210E+00   4.9383E+00   1.9950E-04  0.0041
   4.9383E+00   5.0585E+00   1.9656E-04  0.0041
   5.0585E+00   5.1815E+00   1.9520E-04  0.0041
   5.1815E+00   5.3076E+00   1.9178E-04  0.0041
   5.3076E+00   5.4368E+00   1.8886E-04  0.0040
   5.4368E+00   5.5690E+00   1.8699E-04  0.0040
   5.5690E+00   5.7045E+00   1.8397E-04  0.0040
   5.7045E+00   5.8433E+00   1.7976E-04  0.0040
   5.8433E+00   5.9855E+00   1.7596E-04  0.0040
   5.9855E+00   6.1311E+00   1.7268E-04  0.0040
   6.1311E+00   6.2803E+00   1.7043E-04  0.0040
   6.2803E+00   6.4331E+00   1.6529E-04  0.0040
   6.4331E+00   6.5896E+00   1.6283E-04  0.0040
   6.5896E+00   6.7500E+00   1.5999E-04  0.0039
   6.7500E+00   6.9142E+00   1.5684E-04  0.0039
   6.9142E+00   7.0824E+00   1.5261E-04  0.0039
   7.0824E+00   7.2548E+00   1.4923E-04  0.0039
   7.2548E+00   7.4313E+00   1.4660E-04  0.0039
   7.4313E+00   7.6121E+00   1.4198E-04  0.0039
   7.6121E+00   7.7973E+00   1.3884E-04  0.0039
   7.7973E+00   7.9870E+00   1.3566E-04  0.0039
   7.9870E+00   8.1813E+00   1.3277E-04  0.0039
   8.1813E+00   8.3804E+00   1.2934E-04  0.0039
   8.3804E+00   8.5843E+00   1.2607E-04  0.0039
   8.5843E+00   8.7931E+00   1.2330E-04  0.0039
   8.7931E+00   9.0071E+00   1.1989E-04  0.0039
   9.0071E+00   9.2262E+00   1.1693E-04  0.0039
   9.2262E+00   9.4507E+00   1.1397E-04  0.0040
   9.4507E+00   9.6807E+00   1.1145E-04  0.0039
   9.6807E+00   9.9162E+00   1.0815E-04  0.0040
   9.9162E+00   1.0157E+01   1.0540E-04  0.0040
   1.0157E+01   1.0405E+01   1.0442E-04  0.0039
   1.0405E+01   1.0658E+01   1.0195E-04  0.0039
   1.0658E+01   1.0917E+01   1.0002E-04  0.0039
   1.0917E+01   1.1183E+01   9.8790E-05  0.0039
   1.1183E+01   1.1455E+01   9.6747E-05  0.0039
   1.1455E+01   1.1733E+01   9.5206E-05  0.0039
   1.1733E+01   1.2019E+01   9.4747E-05  0.0038
   1.2019E+01   1.2311E+01   9.2705E-05  0.0038
   1.2311E+01   1.2611E+01   9.1915E-05  0.0038
   1.2611E+01   1.2918E+01   9.0614E-05  0.0038
   1.2918E+01   1.3232E+01   8.8218E-05  0.0038
   1.3232E+01   1.3554E+01   8.5409E-05  0.0038
   1.3554E+01   1.3884E+01   8.3082E-05  0.0038
   1.3884E+01   1.4222E+01   8.0974E-05  0.0038
   1.4222E+01   1.4568E+01   7.8423E-05  0.0038
   1.4568E+01   1.4922E+01   7.5917E-05  0.0039
   1.4922E+01   1.5285E+01   7.4140E-05  0.0039
   1.5285E+01   1.5657E+01   7.2823E-05  0.0038
   1.5657E+01   1.6038E+01   7.0976E-05  0.0038
   1.6038E+01   1.6428E+01   6.8638E-05  0.0039
   1.6428E+01   1.6828E+01   6.7117E-05  0.0039
   1.6828E+01   1.7237E+01   6.5499E-05  0.0039
   1.7237E+01   1.7657E+01   6.3469E-05  0.0039
   1.7657E+01   1.8086E+01   6.1118E-05  0.0039
   1.8086E+01   1.8526E+01   5.9918E-05  0.0039
   1.8526E+01   1.8977E+01   5.8067E-05  0.0039
   1.8977E+01   1.9439E+01   5.6129E-05  0.0039
   1.9439E+01   1.9912E+01   5.4768E-05  0.0039
   1.9912E+01   2.0396E+01   5.2704E-05  0.0040
   2.0396E+01   2.0893E+01   5.0637E-05  0.0040
   2.0893E+01   2.1401E+01   4.8497E-05  0.0040
   2.1401E+01   2.1922E+01   4.7053E-05  0.0040
   2.1922E+01   2.2455E+01   4.4739E-05  0.0041
   2.2455E+01   2.3001E+01   4.2572E-05  0.0041
   2.3001E+01   2.3561E+01   4.0737E-05  0.0042
   2.3561E+01   2.4134E+01   3.8751E-05  0.0042
   2.4134E+01   2.4721E+01   3.6825E-05  0.0043
   2.4721E+01   2.5323E+01   3.4545E-05  0.0044
   2.5323E+01   2.5939E+01   3.2682E-05  0.0045
   2.5939E+01   2.6570E+01   3.0607E-05  0.0046
   2.6570E+01   2.7217E+01   2.8628E-05  0.0046
   2.7217E+01   2.7879E+01   2.6726E-05  0.0048
   2.7879E+01   2.8557E+01   2.4778E-05  0.0049
   2.8557E+01   2.9252E+01   2.3202E-05  0.0050
   2.9252E+01   2.9964E+01   2.1253E-05  0.0051
   2.9964E+01   3.0693E+01   1.9491E-05  0.0053
   3.0693E+01   3.1440E+01   1.7980E-05  0.0055
   3.1440E+01   3.2205E+01   1.6227E-05  0.0057
   3.2205E+01   3.2988E+01   1.4750E-05  0.0059
   3.2988E+01   3.3791E+01   1.3298E-05  0.0061
   3.3791E+01   3.4613E+01   1.2122E-05  0.0063
   3.4613E+01   3.5455E+01   1.0836E-05  0.0066
   3.5455E+01   3.6318E+01   9.6600E-06  0.0069
   3.6318E+01   3.7201E+01   8.3781E-06  0.0074
   3.7201E+01   3.8106E+01   7.3744E-06  0.0077
   3.8106E+01   3.9034E+01   6.3700E-06  0.0082
   3.9034E+01   3.9983E+01   5.6286E-06  0.0087
   3.9983E+01   4.0956E+01   5.1150E-06  0.0090
   4.0956E+01   4.1953E+01   4.7486E-06  0.0092
   4.1953E+01   4.2973E+01   4.2326E-06  0.0096
   4.2973E+01   4.4019E+01   3.7235E-06  0.0101
   4.4019E+01   4.5090E+01   3.4408E-06  0.0104
   4.5090E+01   4.6187E+01   3.2005E-06  0.0107
   4.6187E+01   4.7311E+01   3.0761E-06  0.0108
   4.7311E+01   4.8462E+01   3.2341E-06  0.0104
   4.8462E+01   4.9641E+01   4.0111E-06  0.0092
   4.9641E+01   5.0849E+01   6.0543E-06  0.0074
   5.0849E+01   5.2086E+01   7.3091E-06  0.0067
   5.2086E+01   5.3353E+01   8.3567E-06  0.0061
   5.3353E+01   5.4651E+01   9.7528E-06  0.0056
   5.4651E+01   5.5981E+01   9.5416E-06  0.0056
   5.5981E+01   5.7343E+01   9.0612E-06  0.0057
   5.7343E+01   5.8738E+01   7.6522E-06  0.0061
   5.8738E+01   6.0168E+01   4.5286E-06  0.0079
   6.0168E+01   6.1632E+01   2.6463E-06  0.0102
   6.1632E+01   6.3131E+01   6.7861E-07  0.0198
   6.3131E+01   6.4667E+01   3.9062E-09  0.2582
   6.4667E+01   6.6240E+01   0.0000E+00  0.0000
   6.6240E+01   6.7852E+01   0.0000E+00  0.0000
   6.7852E+01   6.9503E+01   0.0000E+00  0.0000
   6.9503E+01   7.1194E+01   0.0000E+00  0.0000
   7.1194E+01   7.2926E+01   0.0000E+00  0.0000
   7.2926E+01   7.4701E+01   0.0000E+00  0.0000
   7.4701E+01   7.6518E+01   0.0000E+00  0.0000
   7.6518E+01   7.8380E+01   0.0000E+00  0.0000
   7.8380E+01   8.0287E+01   0.0000E+00  0.0000
   8.0287E+01   8.2240E+01   0.0000E+00  0.0000
   8.2240E+01   8.4241E+01   0.0000E+00  0.0000
   8.4241E+01   8.6291E+01   0.0000E+00  0.0000
   8.6291E+01   8.8391E+01   0.0000E+00  0.0000
   8.8391E+01   9.0541E+01   0.0000E+00  0.0000
   9.0541E+01   9.2744E+01   0.0000E+00  0.0000
   9.2744E+01   9.5001E+01   0.0000E+00  0.0000
   9.5001E+01   9.7312E+01   0.0000E+00  0.0000
   9.7312E+01   9.9680E+01   0.0000E+00  0.0000
   9.9680E+01   1.0211E+02   0.0000E+00  0.0000
   1.0211E+02   1.0459E+02   0.0000E+00  0.0000
   1.0459E+02   1.0713E+02   0.0000E+00  0.0000
   1.0713E+02   1.0974E+02   0.0000E+00  0.0000
   1.0974E+02   1.1241E+02   0.0000E+00  0.0000
   1.1241E+02   1.1515E+02   0.0000E+00  0.0000
   1.1515E+02   1.1795E+02   0.0000E+00  0.0000
   1.1795E+02   1.2082E+02   0.0000E+00  0.0000
   1.2082E+02   1.2376E+02   0.0000E+00  0.0000
   1.2376E+02   1.2677E+02   0.0000E+00  0.0000
   1.2677E+02   1.2985E+02   0.0000E+00  0.0000
   1.2985E+02   1.3301E+02   0.0000E+00  0.0000
   1.3301E+02   1.3625E+02   0.0000E+00  0.0000
   1.3625E+02   1.3956E+02   0.0000E+00  0.0000
   1.3956E+02   1.4296E+02   0.0000E+00  0.0000
   1.4296E+02   1.4644E+02   0.0000E+00  0.0000
   1.4644E+02   1.5000E+02   0.0000E+00  0.0000

#   sum over                 2.1189E-05
'no. =    1   reg = 107 - 207'
msuc: {\huge [t-cross] in region mesh}
msdr: {\it plotted by \ANGEL \version}
msdl: {\it calculated by \PHITS  3.26}
wt: s(0.7)
\vspace{-3}
  region surface crossing
  area  &=&   1.0000E+00 [cm^2]
e:
 
# Information for Restart Calculation
# This calculation was newly started
# istdev =  2 # 1:Batch variance, 2:History variance
# resc2  = 2.50000000000000000E+09 # Total source weight or Total source weight / maxcas
# resc3  = 2.50000000000000000E+09 # Total history number or Total batch number
# maxcas =   500000000 # History / Batch, only used for istdev=1
# bitrseed = 1100001110001001100010001100011001110101000011000110100101010100 # bit data of rseed
