[ T-Cross ]
    title = [t-cross] in region mesh
     mesh =  reg            # mesh type is region-wise
      reg =    1            # number of crossing regions
      non     r-from    r-to       area
      1       113       213        1.000000    
   e-type =    3            # e-mesh is log given by emin, emax and ne
     emin =  1.0000000E-02  # minimum value of e-mesh points
     emax =   150.0000      # maximum value of e-mesh points
#    edel =  2.4039514E-02  # mesh width of e-mesh points
       ne =    400          # number of e-mesh points
#    data = ( e(i), i = 1, ne + 1 )
#           1.00000E-02  1.02433E-02  1.04925E-02  1.07478E-02  1.10093E-02
#           1.12772E-02  1.15516E-02  1.18326E-02  1.21205E-02  1.24154E-02
#           1.27175E-02  1.30269E-02  1.33439E-02  1.36686E-02  1.40011E-02
#           1.43418E-02  1.46907E-02  1.50482E-02  1.54143E-02  1.57894E-02
#           1.61735E-02  1.65670E-02  1.69701E-02  1.73830E-02  1.78060E-02
#           1.82392E-02  1.86830E-02  1.91375E-02  1.96032E-02  2.00801E-02
#           2.05687E-02  2.10692E-02  2.15818E-02  2.21069E-02  2.26448E-02
#           2.31957E-02  2.37601E-02  2.43382E-02  2.49304E-02  2.55369E-02
#           2.61583E-02  2.67947E-02  2.74467E-02  2.81145E-02  2.87985E-02
#           2.94992E-02  3.02169E-02  3.09521E-02  3.17052E-02  3.24766E-02
#           3.32668E-02  3.40762E-02  3.49053E-02  3.57546E-02  3.66246E-02
#           3.75157E-02  3.84284E-02  3.93634E-02  4.03212E-02  4.13022E-02
#           4.23071E-02  4.33365E-02  4.43909E-02  4.54710E-02  4.65773E-02
#           4.77106E-02  4.88714E-02  5.00605E-02  5.12785E-02  5.25262E-02
#           5.38042E-02  5.51133E-02  5.64542E-02  5.78278E-02  5.92348E-02
#           6.06760E-02  6.21523E-02  6.36645E-02  6.52135E-02  6.68002E-02
#           6.84255E-02  7.00904E-02  7.17957E-02  7.35426E-02  7.53319E-02
#           7.71648E-02  7.90423E-02  8.09655E-02  8.29354E-02  8.49533E-02
#           8.70203E-02  8.91376E-02  9.13064E-02  9.35279E-02  9.58035E-02
#           9.81345E-02  1.00522E-01  1.02968E-01  1.05473E-01  1.08040E-01
#           1.10668E-01  1.13361E-01  1.16119E-01  1.18944E-01  1.21838E-01
#           1.24803E-01  1.27839E-01  1.30950E-01  1.34136E-01  1.37399E-01
#           1.40742E-01  1.44167E-01  1.47675E-01  1.51268E-01  1.54948E-01
#           1.58718E-01  1.62580E-01  1.66535E-01  1.70587E-01  1.74738E-01
#           1.78989E-01  1.83344E-01  1.87805E-01  1.92375E-01  1.97055E-01
#           2.01850E-01  2.06761E-01  2.11792E-01  2.16945E-01  2.22223E-01
#           2.27630E-01  2.33169E-01  2.38842E-01  2.44653E-01  2.50605E-01
#           2.56703E-01  2.62949E-01  2.69346E-01  2.75900E-01  2.82613E-01
#           2.89489E-01  2.96532E-01  3.03747E-01  3.11138E-01  3.18708E-01
#           3.26462E-01  3.34405E-01  3.42542E-01  3.50876E-01  3.59413E-01
#           3.68158E-01  3.77116E-01  3.86291E-01  3.95690E-01  4.05317E-01
#           4.15179E-01  4.25281E-01  4.35628E-01  4.46227E-01  4.57084E-01
#           4.68205E-01  4.79597E-01  4.91266E-01  5.03219E-01  5.15463E-01
#           5.28005E-01  5.40851E-01  5.54011E-01  5.67490E-01  5.81298E-01
#           5.95441E-01  6.09929E-01  6.24769E-01  6.39970E-01  6.55541E-01
#           6.71491E-01  6.87828E-01  7.04564E-01  7.21706E-01  7.39266E-01
#           7.57253E-01  7.75678E-01  7.94551E-01  8.13883E-01  8.33685E-01
#           8.53969E-01  8.74747E-01  8.96030E-01  9.17831E-01  9.40163E-01
#           9.63038E-01  9.86469E-01  1.01047E+00  1.03506E+00  1.06024E+00
#           1.08604E+00  1.11246E+00  1.13953E+00  1.16725E+00  1.19565E+00
#           1.22474E+00  1.25454E+00  1.28507E+00  1.31633E+00  1.34836E+00
#           1.38117E+00  1.41477E+00  1.44920E+00  1.48446E+00  1.52057E+00
#           1.55757E+00  1.59547E+00  1.63429E+00  1.67405E+00  1.71478E+00
#           1.75650E+00  1.79924E+00  1.84302E+00  1.88786E+00  1.93379E+00
#           1.98084E+00  2.02904E+00  2.07841E+00  2.12898E+00  2.18078E+00
#           2.23384E+00  2.28819E+00  2.34386E+00  2.40089E+00  2.45930E+00
#           2.51914E+00  2.58043E+00  2.64322E+00  2.70753E+00  2.77341E+00
#           2.84088E+00  2.91001E+00  2.98081E+00  3.05333E+00  3.12762E+00
#           3.20372E+00  3.28167E+00  3.36152E+00  3.44330E+00  3.52708E+00
#           3.61290E+00  3.70080E+00  3.79085E+00  3.88308E+00  3.97756E+00
#           4.07434E+00  4.17347E+00  4.27501E+00  4.37903E+00  4.48557E+00
#           4.59471E+00  4.70650E+00  4.82102E+00  4.93832E+00  5.05847E+00
#           5.18155E+00  5.30762E+00  5.43676E+00  5.56904E+00  5.70453E+00
#           5.84333E+00  5.98550E+00  6.13114E+00  6.28031E+00  6.43312E+00
#           6.58964E+00  6.74997E+00  6.91420E+00  7.08243E+00  7.25475E+00
#           7.43126E+00  7.61207E+00  7.79728E+00  7.98700E+00  8.18133E+00
#           8.38038E+00  8.58428E+00  8.79315E+00  9.00709E+00  9.22624E+00
#           9.45072E+00  9.68067E+00  9.91620E+00  1.01575E+01  1.04046E+01
#           1.06578E+01  1.09171E+01  1.11827E+01  1.14548E+01  1.17335E+01
#           1.20190E+01  1.23114E+01  1.26109E+01  1.29178E+01  1.32321E+01
#           1.35540E+01  1.38838E+01  1.42216E+01  1.45676E+01  1.49221E+01
#           1.52851E+01  1.56570E+01  1.60380E+01  1.64282E+01  1.68279E+01
#           1.72374E+01  1.76568E+01  1.80864E+01  1.85264E+01  1.89772E+01
#           1.94389E+01  1.99119E+01  2.03963E+01  2.08926E+01  2.14009E+01
#           2.19216E+01  2.24550E+01  2.30014E+01  2.35610E+01  2.41343E+01
#           2.47215E+01  2.53230E+01  2.59391E+01  2.65702E+01  2.72167E+01
#           2.78789E+01  2.85572E+01  2.92520E+01  2.99637E+01  3.06928E+01
#           3.14396E+01  3.22045E+01  3.29881E+01  3.37907E+01  3.46128E+01
#           3.54550E+01  3.63177E+01  3.72013E+01  3.81064E+01  3.90336E+01
#           3.99833E+01  4.09561E+01  4.19526E+01  4.29734E+01  4.40189E+01
#           4.50900E+01  4.61870E+01  4.73108E+01  4.84619E+01  4.96410E+01
#           5.08488E+01  5.20860E+01  5.33533E+01  5.46514E+01  5.59812E+01
#           5.73432E+01  5.87384E+01  6.01676E+01  6.16315E+01  6.31311E+01
#           6.46671E+01  6.62405E+01  6.78522E+01  6.95031E+01  7.11941E+01
#           7.29263E+01  7.47007E+01  7.65182E+01  7.83800E+01  8.02870E+01
#           8.22405E+01  8.42414E+01  8.62911E+01  8.83906E+01  9.05412E+01
#           9.27442E+01  9.50007E+01  9.73122E+01  9.96799E+01  1.02105E+02
#           1.04589E+02  1.07134E+02  1.09741E+02  1.12411E+02  1.15146E+02
#           1.17948E+02  1.20817E+02  1.23757E+02  1.26768E+02  1.29852E+02
#           1.33012E+02  1.36248E+02  1.39563E+02  1.42959E+02  1.46437E+02
#           1.50000E+02
     unit =    2            # unit is [1/cm^2/(MeV/n)/source]
     axis =  eng            # axis of output
     file = detector-14.out  # file name of output for the above axis
   output = f-curr          # surface crossing forward current spectrum
     part =  neutron  
# kf/name :  2112     
#    used :        main (  %)        temp (  %)       total (  %)
#  memory :         414 (  0)           0 (  0)         414 (  0)

#------------------------------------------------------------------------------
#newpage:
#   no. =    1   reg = 113 - 213

x: Energy [MeV/n]
y:  F-Curr [1/cm^2/(MeV/n)/source]         
p: xlog ylog afac(0.8) form(0.9)
h: n            x            y(neutron ),hh0l   n 
#  e-lower      e-upper      neutron     r.err 
   1.0000E-02   1.0243E-02   4.7330E-05  0.1313
   1.0243E-02   1.0493E-02   5.0957E-05  0.1252
   1.0493E-02   1.0748E-02   5.5623E-05  0.1187
   1.0748E-02   1.1009E-02   5.1242E-05  0.1222
   1.1009E-02   1.1277E-02   3.7512E-05  0.1408
   1.1277E-02   1.1552E-02   3.9611E-05  0.1353
   1.1552E-02   1.1833E-02   4.6965E-05  0.1231
   1.1833E-02   1.2121E-02   4.5091E-05  0.1235
   1.2121E-02   1.2415E-02   4.1736E-05  0.1271
   1.2415E-02   1.2718E-02   3.6022E-05  0.1352
   1.2718E-02   1.3027E-02   4.3148E-05  0.1220
   1.3027E-02   1.3344E-02   4.5805E-05  0.1170
   1.3344E-02   1.3669E-02   3.6961E-05  0.1291
   1.3669E-02   1.4001E-02   3.6392E-05  0.1281
   1.4001E-02   1.4342E-02   3.2974E-05  0.1333
   1.4342E-02   1.4691E-02   3.8974E-05  0.1213
   1.4691E-02   1.5048E-02   3.7008E-05  0.1229
   1.5048E-02   1.5414E-02   3.6599E-05  0.1222
   1.5414E-02   1.5789E-02   4.3562E-05  0.1103
   1.5789E-02   1.6174E-02   4.2257E-05  0.1109
   1.6174E-02   1.6567E-02   2.9615E-05  0.1308
   1.6567E-02   1.6970E-02   3.7957E-05  0.1141
   1.6970E-02   1.7383E-02   3.5583E-05  0.1164
   1.7383E-02   1.7806E-02   3.6049E-05  0.1144
   1.7806E-02   1.8239E-02   3.7656E-05  0.1104
   1.8239E-02   1.8683E-02   3.5725E-05  0.1122
   1.8683E-02   1.9138E-02   3.2118E-05  0.1170
   1.9138E-02   1.9603E-02   2.8349E-05  0.1231
   1.9603E-02   2.0080E-02   3.0763E-05  0.1165
   2.0080E-02   2.0569E-02   3.4531E-05  0.1087
   2.0569E-02   2.1069E-02   2.9630E-05  0.1160
   2.1069E-02   2.1582E-02   3.1706E-05  0.1108
   2.1582E-02   2.2107E-02   3.0089E-05  0.1125
   2.2107E-02   2.2645E-02   3.1482E-05  0.1080
   2.2645E-02   2.3196E-02   2.9501E-05  0.1108
   2.3196E-02   2.3760E-02   3.3381E-05  0.1029
   2.3760E-02   2.4338E-02   2.8713E-05  0.1094
   2.4338E-02   2.4930E-02   3.1297E-05  0.1037
   2.4930E-02   2.5537E-02   2.7490E-05  0.1093
   2.5537E-02   2.6158E-02   2.8789E-05  0.1055
   2.6158E-02   2.6795E-02   2.8076E-05  0.1056
   2.6795E-02   2.7447E-02   2.8057E-05  0.1044
   2.7447E-02   2.8114E-02   2.6056E-05  0.1072
   2.8114E-02   2.8799E-02   2.9092E-05  0.1001
   2.8799E-02   2.9499E-02   2.6175E-05  0.1041
   2.9499E-02   3.0217E-02   2.4318E-05  0.1069
   3.0217E-02   3.0952E-02   2.3705E-05  0.1071
   3.0952E-02   3.1705E-02   2.6422E-05  0.1001
   3.1705E-02   3.2477E-02   2.3399E-05  0.1052
   3.2477E-02   3.3267E-02   2.1301E-05  0.1089
   3.3267E-02   3.4076E-02   2.4254E-05  0.1009
   3.4076E-02   3.4905E-02   2.3186E-05  0.1015
   3.4905E-02   3.5755E-02   2.9672E-05  0.0891
   3.5755E-02   3.6625E-02   2.3565E-05  0.0987
   3.6625E-02   3.7516E-02   2.2725E-05  0.0993
   3.7516E-02   3.8428E-02   1.9407E-05  0.1060
   3.8428E-02   3.9363E-02   2.1696E-05  0.0991
   3.9363E-02   4.0321E-02   2.3279E-05  0.0945
   4.0321E-02   4.1302E-02   2.2221E-05  0.0958
   4.1302E-02   4.2307E-02   1.9577E-05  0.1007
   4.2307E-02   4.3337E-02   2.0298E-05  0.0977
   4.3337E-02   4.4391E-02   2.0689E-05  0.0954
   4.4391E-02   4.5471E-02   2.0862E-05  0.0941
   4.5471E-02   4.6577E-02   2.2297E-05  0.0899
   4.6577E-02   4.7711E-02   2.0914E-05  0.0917
   4.7711E-02   4.8871E-02   2.1457E-05  0.0895
   4.8871E-02   5.0061E-02   1.5092E-05  0.1049
   5.0061E-02   5.1279E-02   1.9989E-05  0.0905
   5.1279E-02   5.2526E-02   1.9175E-05  0.0912
   5.2526E-02   5.3804E-02   1.7980E-05  0.0930
   5.3804E-02   5.5113E-02   1.5319E-05  0.0998
   5.5113E-02   5.6454E-02   1.8823E-05  0.0888
   5.6454E-02   5.7828E-02   1.8702E-05  0.0881
   5.7828E-02   5.9235E-02   1.7399E-05  0.0903
   5.9235E-02   6.0676E-02   1.3736E-05  0.1002
   6.0676E-02   6.2152E-02   1.4040E-05  0.0981
   6.2152E-02   6.3665E-02   1.3755E-05  0.0981
   6.3665E-02   6.5214E-02   1.4780E-05  0.0933
   6.5214E-02   6.6800E-02   1.3982E-05  0.0947
   6.6800E-02   6.8426E-02   1.7307E-05  0.0842
   6.8426E-02   7.0090E-02   1.5377E-05  0.0884
   7.0090E-02   7.1796E-02   1.4001E-05  0.0914
   7.1796E-02   7.3543E-02   1.3369E-05  0.0923
   7.3543E-02   7.5332E-02   1.5184E-05  0.0856
   7.5332E-02   7.7165E-02   1.3054E-05  0.0913
   7.7165E-02   7.9042E-02   1.2536E-05  0.0920
   7.9042E-02   8.0965E-02   1.3695E-05  0.0870
   8.0965E-02   8.2935E-02   1.3063E-05  0.0880
   8.2935E-02   8.4953E-02   1.4468E-05  0.0826
   8.4953E-02   8.7020E-02   1.3984E-05  0.0831
   8.7020E-02   8.9138E-02   1.3271E-05  0.0843
   8.9138E-02   9.1306E-02   1.3187E-05  0.0836
   9.1306E-02   9.3528E-02   1.1086E-05  0.0897
   9.3528E-02   9.5804E-02   1.0956E-05  0.0894
   9.5804E-02   9.8134E-02   1.2312E-05  0.0834
   9.8134E-02   1.0052E-01   1.1070E-05  0.0867
   1.0052E-01   1.0297E-01   1.0569E-05  0.0879
   1.0297E-01   1.0547E-01   1.2401E-05  0.0802
   1.0547E-01   1.0804E-01   9.3747E-06  0.0909
   1.0804E-01   1.1067E-01   1.0131E-05  0.0866
   1.1067E-01   1.1336E-01   1.1110E-05  0.0816
   1.1336E-01   1.1612E-01   9.8126E-06  0.0859
   1.1612E-01   1.1894E-01   1.0077E-05  0.0837
   1.1894E-01   1.2184E-01   9.1229E-06  0.0868
   1.2184E-01   1.2480E-01   1.0200E-05  0.0813
   1.2480E-01   1.2784E-01   8.3677E-06  0.0884
   1.2784E-01   1.3095E-01   7.7803E-06  0.0909
   1.3095E-01   1.3414E-01   7.1819E-06  0.0934
   1.3414E-01   1.3740E-01   9.7937E-06  0.0789
   1.3740E-01   1.4074E-01   7.6879E-06  0.0881
   1.4074E-01   1.4417E-01   8.2051E-06  0.0843
   1.4417E-01   1.4767E-01   9.0088E-06  0.0794
   1.4767E-01   1.5127E-01   8.4249E-06  0.0810
   1.5127E-01   1.5495E-01   7.9151E-06  0.0827
   1.5495E-01   1.5872E-01   7.7555E-06  0.0825
   1.5872E-01   1.6258E-01   7.3407E-06  0.0838
   1.6258E-01   1.6654E-01   8.4373E-06  0.0773
   1.6654E-01   1.7059E-01   7.4337E-06  0.0814
   1.7059E-01   1.7474E-01   6.9741E-06  0.0830
   1.7474E-01   1.7899E-01   6.2406E-06  0.0864
   1.7899E-01   1.8334E-01   5.7097E-06  0.0896
   1.8334E-01   1.8781E-01   6.6860E-06  0.0819
   1.8781E-01   1.9237E-01   6.3547E-06  0.0828
   1.9237E-01   1.9706E-01   5.8794E-06  0.0851
   1.9706E-01   2.0185E-01   6.2324E-06  0.0817
   2.0185E-01   2.0676E-01   7.4792E-06  0.0737
   2.0676E-01   2.1179E-01   6.5148E-06  0.0780
   2.1179E-01   2.1694E-01   7.4486E-06  0.0719
   2.1694E-01   2.2222E-01   7.5205E-06  0.0709
   2.2222E-01   2.2763E-01   7.3428E-06  0.0708
   2.2763E-01   2.3317E-01   7.5473E-06  0.0691
   2.3317E-01   2.3884E-01   9.0648E-06  0.0622
   2.3884E-01   2.4465E-01   7.3384E-06  0.0685
   2.4465E-01   2.5061E-01   7.8510E-06  0.0653
   2.5061E-01   2.5670E-01   8.2035E-06  0.0631
   2.5670E-01   2.6295E-01   8.3771E-06  0.0617
   2.6295E-01   2.6935E-01   7.9623E-06  0.0626
   2.6935E-01   2.7590E-01   8.6148E-06  0.0594
   2.7590E-01   2.8261E-01   9.0397E-06  0.0573
   2.8261E-01   2.8949E-01   8.9259E-06  0.0570
   2.8949E-01   2.9653E-01   8.8459E-06  0.0565
   2.9653E-01   3.0375E-01   9.7234E-06  0.0534
   3.0375E-01   3.1114E-01   9.5362E-06  0.0531
   3.1114E-01   3.1871E-01   1.0358E-05  0.0504
   3.1871E-01   3.2646E-01   1.0981E-05  0.0483
   3.2646E-01   3.3441E-01   1.0735E-05  0.0483
   3.3441E-01   3.4254E-01   1.1045E-05  0.0470
   3.4254E-01   3.5088E-01   1.1121E-05  0.0464
   3.5088E-01   3.5941E-01   1.1909E-05  0.0442
   3.5941E-01   3.6816E-01   1.2144E-05  0.0433
   3.6816E-01   3.7712E-01   1.2458E-05  0.0422
   3.7712E-01   3.8629E-01   1.2202E-05  0.0421
   3.8629E-01   3.9569E-01   1.2915E-05  0.0405
   3.9569E-01   4.0532E-01   1.3438E-05  0.0392
   4.0532E-01   4.1518E-01   1.3604E-05  0.0385
   4.1518E-01   4.2528E-01   1.3232E-05  0.0386
   4.2528E-01   4.3563E-01   1.4297E-05  0.0367
   4.3563E-01   4.4623E-01   1.5002E-05  0.0354
   4.4623E-01   4.5708E-01   1.4729E-05  0.0353
   4.5708E-01   4.6821E-01   1.6978E-05  0.0325
   4.6821E-01   4.7960E-01   1.6525E-05  0.0325
   4.7960E-01   4.9127E-01   1.6326E-05  0.0323
   4.9127E-01   5.0322E-01   1.7494E-05  0.0309
   5.0322E-01   5.1546E-01   1.5994E-05  0.0319
   5.1546E-01   5.2800E-01   1.8122E-05  0.0296
   5.2800E-01   5.4085E-01   1.8443E-05  0.0290
   5.4085E-01   5.5401E-01   1.8920E-05  0.0283
   5.5401E-01   5.6749E-01   1.9227E-05  0.0277
   5.6749E-01   5.8130E-01   2.0723E-05  0.0263
   5.8130E-01   5.9544E-01   2.1177E-05  0.0258
   5.9544E-01   6.0993E-01   2.0859E-05  0.0256
   6.0993E-01   6.2477E-01   2.3222E-05  0.0240
   6.2477E-01   6.3997E-01   2.3481E-05  0.0236
   6.3997E-01   6.5554E-01   2.4091E-05  0.0230
   6.5554E-01   6.7149E-01   2.4151E-05  0.0227
   6.7149E-01   6.8783E-01   2.4944E-05  0.0221
   6.8783E-01   7.0456E-01   2.5725E-05  0.0215
   7.0456E-01   7.2171E-01   2.6870E-05  0.0208
   7.2171E-01   7.3927E-01   2.8516E-05  0.0199
   7.3927E-01   7.5725E-01   2.8619E-05  0.0196
   7.5725E-01   7.7568E-01   3.0054E-05  0.0189
   7.7568E-01   7.9455E-01   3.0368E-05  0.0186
   7.9455E-01   8.1388E-01   3.2352E-05  0.0178
   8.1388E-01   8.3368E-01   3.3994E-05  0.0172
   8.3368E-01   8.5397E-01   3.5027E-05  0.0167
   8.5397E-01   8.7475E-01   3.4742E-05  0.0166
   8.7475E-01   8.9603E-01   3.6945E-05  0.0159
   8.9603E-01   9.1783E-01   3.8072E-05  0.0155
   9.1783E-01   9.4016E-01   3.9250E-05  0.0151
   9.4016E-01   9.6304E-01   4.1012E-05  0.0146
   9.6304E-01   9.8647E-01   4.2072E-05  0.0142
   9.8647E-01   1.0105E+00   4.3071E-05  0.0139
   1.0105E+00   1.0351E+00   4.5255E-05  0.0134
   1.0351E+00   1.0602E+00   4.5764E-05  0.0131
   1.0602E+00   1.0860E+00   4.6426E-05  0.0129
   1.0860E+00   1.1125E+00   4.8525E-05  0.0124
   1.1125E+00   1.1395E+00   5.1378E-05  0.0120
   1.1395E+00   1.1673E+00   5.2670E-05  0.0117
   1.1673E+00   1.1957E+00   5.4310E-05  0.0114
   1.1957E+00   1.2247E+00   5.6763E-05  0.0110
   1.2247E+00   1.2545E+00   5.8315E-05  0.0107
   1.2545E+00   1.2851E+00   5.8525E-05  0.0105
   1.2851E+00   1.3163E+00   6.1682E-05  0.0101
   1.3163E+00   1.3484E+00   6.3362E-05  0.0099
   1.3484E+00   1.3812E+00   6.6341E-05  0.0096
   1.3812E+00   1.4148E+00   6.9373E-05  0.0092
   1.4148E+00   1.4492E+00   7.1183E-05  0.0090
   1.4492E+00   1.4845E+00   7.2242E-05  0.0088
   1.4845E+00   1.5206E+00   7.6898E-05  0.0085
   1.5206E+00   1.5576E+00   7.6447E-05  0.0084
   1.5576E+00   1.5955E+00   7.7834E-05  0.0082
   1.5955E+00   1.6343E+00   7.9309E-05  0.0080
   1.6343E+00   1.6741E+00   8.2191E-05  0.0078
   1.6741E+00   1.7148E+00   8.3404E-05  0.0076
   1.7148E+00   1.7565E+00   8.4391E-05  0.0075
   1.7565E+00   1.7992E+00   8.8788E-05  0.0072
   1.7992E+00   1.8430E+00   8.9293E-05  0.0071
   1.8430E+00   1.8879E+00   9.1807E-05  0.0069
   1.8879E+00   1.9338E+00   9.4431E-05  0.0068
   1.9338E+00   1.9808E+00   9.4976E-05  0.0067
   1.9808E+00   2.0290E+00   9.8358E-05  0.0065
   2.0290E+00   2.0784E+00   9.9142E-05  0.0064
   2.0784E+00   2.1290E+00   1.0002E-04  0.0063
   2.1290E+00   2.1808E+00   9.9855E-05  0.0062
   2.1808E+00   2.2338E+00   1.0180E-04  0.0061
   2.2338E+00   2.2882E+00   1.0183E-04  0.0060
   2.2882E+00   2.3439E+00   1.0363E-04  0.0059
   2.3439E+00   2.4009E+00   1.0547E-04  0.0057
   2.4009E+00   2.4593E+00   1.0837E-04  0.0056
   2.4593E+00   2.5191E+00   1.1034E-04  0.0055
   2.5191E+00   2.5804E+00   1.1077E-04  0.0054
   2.5804E+00   2.6432E+00   1.0881E-04  0.0054
   2.6432E+00   2.7075E+00   1.0999E-04  0.0053
   2.7075E+00   2.7734E+00   1.0976E-04  0.0052
   2.7734E+00   2.8409E+00   1.0929E-04  0.0052
   2.8409E+00   2.9100E+00   1.0952E-04  0.0051
   2.9100E+00   2.9808E+00   1.1011E-04  0.0050
   2.9808E+00   3.0533E+00   1.1124E-04  0.0050
   3.0533E+00   3.1276E+00   1.1039E-04  0.0049
   3.1276E+00   3.2037E+00   1.0852E-04  0.0049
   3.2037E+00   3.2817E+00   1.0900E-04  0.0048
   3.2817E+00   3.3615E+00   1.0732E-04  0.0048
   3.3615E+00   3.4433E+00   1.0733E-04  0.0048
   3.4433E+00   3.5271E+00   1.0628E-04  0.0047
   3.5271E+00   3.6129E+00   1.0637E-04  0.0047
   3.6129E+00   3.7008E+00   1.0460E-04  0.0046
   3.7008E+00   3.7908E+00   1.0344E-04  0.0046
   3.7908E+00   3.8831E+00   1.0280E-04  0.0046
   3.8831E+00   3.9776E+00   1.0253E-04  0.0045
   3.9776E+00   4.0743E+00   1.0138E-04  0.0045
   4.0743E+00   4.1735E+00   9.9712E-05  0.0045
   4.1735E+00   4.2750E+00   9.9046E-05  0.0044
   4.2750E+00   4.3790E+00   9.7240E-05  0.0044
   4.3790E+00   4.4856E+00   9.6928E-05  0.0044
   4.4856E+00   4.5947E+00   9.6757E-05  0.0043
   4.5947E+00   4.7065E+00   9.5864E-05  0.0043
   4.7065E+00   4.8210E+00   9.6130E-05  0.0043
   4.8210E+00   4.9383E+00   9.7662E-05  0.0042
   4.9383E+00   5.0585E+00   9.9315E-05  0.0041
   5.0585E+00   5.1815E+00   9.9076E-05  0.0040
   5.1815E+00   5.3076E+00   9.7939E-05  0.0040
   5.3076E+00   5.4368E+00   9.6850E-05  0.0040
   5.4368E+00   5.5690E+00   9.5441E-05  0.0040
   5.5690E+00   5.7045E+00   9.3637E-05  0.0040
   5.7045E+00   5.8433E+00   9.2270E-05  0.0039
   5.8433E+00   5.9855E+00   9.0820E-05  0.0039
   5.9855E+00   6.1311E+00   8.9152E-05  0.0039
   6.1311E+00   6.2803E+00   8.7110E-05  0.0039
   6.2803E+00   6.4331E+00   8.5258E-05  0.0039
   6.4331E+00   6.5896E+00   8.3700E-05  0.0039
   6.5896E+00   6.7500E+00   8.1543E-05  0.0039
   6.7500E+00   6.9142E+00   7.9440E-05  0.0039
   6.9142E+00   7.0824E+00   7.8263E-05  0.0039
   7.0824E+00   7.2548E+00   7.6521E-05  0.0039
   7.2548E+00   7.4313E+00   7.4801E-05  0.0039
   7.4313E+00   7.6121E+00   7.3029E-05  0.0039
   7.6121E+00   7.7973E+00   7.0917E-05  0.0039
   7.7973E+00   7.9870E+00   6.9061E-05  0.0039
   7.9870E+00   8.1813E+00   6.7391E-05  0.0039
   8.1813E+00   8.3804E+00   6.5682E-05  0.0039
   8.3804E+00   8.5843E+00   6.3304E-05  0.0039
   8.5843E+00   8.7931E+00   6.1322E-05  0.0039
   8.7931E+00   9.0071E+00   5.9249E-05  0.0040
   9.0071E+00   9.2262E+00   5.7275E-05  0.0040
   9.2262E+00   9.4507E+00   5.4987E-05  0.0040
   9.4507E+00   9.6807E+00   5.2826E-05  0.0041
   9.6807E+00   9.9162E+00   5.1043E-05  0.0041
   9.9162E+00   1.0157E+01   4.9191E-05  0.0041
   1.0157E+01   1.0405E+01   4.7344E-05  0.0041
   1.0405E+01   1.0658E+01   4.5195E-05  0.0042
   1.0658E+01   1.0917E+01   4.4009E-05  0.0042
   1.0917E+01   1.1183E+01   4.1988E-05  0.0042
   1.1183E+01   1.1455E+01   4.0159E-05  0.0043
   1.1455E+01   1.1733E+01   3.8264E-05  0.0043
   1.1733E+01   1.2019E+01   3.6557E-05  0.0044
   1.2019E+01   1.2311E+01   3.5368E-05  0.0044
   1.2311E+01   1.2611E+01   3.3831E-05  0.0044
   1.2611E+01   1.2918E+01   3.2086E-05  0.0045
   1.2918E+01   1.3232E+01   3.0865E-05  0.0045
   1.3232E+01   1.3554E+01   2.9103E-05  0.0046
   1.3554E+01   1.3884E+01   2.7499E-05  0.0047
   1.3884E+01   1.4222E+01   2.6008E-05  0.0048
   1.4222E+01   1.4568E+01   2.4892E-05  0.0048
   1.4568E+01   1.4922E+01   2.3359E-05  0.0049
   1.4922E+01   1.5285E+01   2.1959E-05  0.0050
   1.5285E+01   1.5657E+01   2.0666E-05  0.0051
   1.5657E+01   1.6038E+01   1.9486E-05  0.0052
   1.6038E+01   1.6428E+01   1.8399E-05  0.0053
   1.6428E+01   1.6828E+01   1.7202E-05  0.0054
   1.6828E+01   1.7237E+01   1.6220E-05  0.0055
   1.7237E+01   1.7657E+01   1.4927E-05  0.0057
   1.7657E+01   1.8086E+01   1.3991E-05  0.0058
   1.8086E+01   1.8526E+01   1.2900E-05  0.0059
   1.8526E+01   1.8977E+01   1.1969E-05  0.0061
   1.8977E+01   1.9439E+01   1.1284E-05  0.0062
   1.9439E+01   1.9912E+01   1.0632E-05  0.0063
   1.9912E+01   2.0396E+01   1.0182E-05  0.0064
   2.0396E+01   2.0893E+01   9.4733E-06  0.0065
   2.0893E+01   2.1401E+01   8.4925E-06  0.0068
   2.1401E+01   2.1922E+01   7.8544E-06  0.0070
   2.1922E+01   2.2455E+01   7.1234E-06  0.0073
   2.2455E+01   2.3001E+01   6.5149E-06  0.0075
   2.3001E+01   2.3561E+01   5.8187E-06  0.0078
   2.3561E+01   2.4134E+01   5.3145E-06  0.0081
   2.4134E+01   2.4721E+01   4.7166E-06  0.0085
   2.4721E+01   2.5323E+01   4.1231E-06  0.0090
   2.5323E+01   2.5939E+01   3.7142E-06  0.0093
   2.5939E+01   2.6570E+01   3.2533E-06  0.0099
   2.6570E+01   2.7217E+01   2.8431E-06  0.0104
   2.7217E+01   2.7879E+01   2.4126E-06  0.0112
   2.7879E+01   2.8557E+01   2.0601E-06  0.0120
   2.8557E+01   2.9252E+01   1.6445E-06  0.0132
   2.9252E+01   2.9964E+01   1.3500E-06  0.0144
   2.9964E+01   3.0693E+01   1.1264E-06  0.0156
   3.0693E+01   3.1440E+01   9.2504E-07  0.0170
   3.1440E+01   3.2205E+01   7.6554E-07  0.0185
   3.2205E+01   3.2988E+01   6.1514E-07  0.0204
   3.2988E+01   3.3791E+01   5.0933E-07  0.0221
   3.3791E+01   3.4613E+01   4.1039E-07  0.0243
   3.4613E+01   3.5455E+01   3.3010E-07  0.0268
   3.5455E+01   3.6318E+01   2.5549E-07  0.0301
   3.6318E+01   3.7201E+01   2.0710E-07  0.0331
   3.7201E+01   3.8106E+01   1.7500E-07  0.0355
   3.8106E+01   3.9034E+01   1.3288E-07  0.0403
   3.9034E+01   3.9983E+01   1.0529E-07  0.0447
   3.9983E+01   4.0956E+01   7.7095E-08  0.0516
   4.0956E+01   4.1953E+01   6.0612E-08  0.0575
   4.1953E+01   4.2973E+01   3.7620E-08  0.0722
   4.2973E+01   4.4019E+01   2.4484E-08  0.0884
   4.4019E+01   4.5090E+01   1.3445E-08  0.1179
   4.5090E+01   4.6187E+01   5.4691E-09  0.1826
   4.6187E+01   4.7311E+01   1.6018E-09  0.3333
   4.7311E+01   4.8462E+01   5.2124E-10  0.5774
   4.8462E+01   4.9641E+01   0.0000E+00  0.0000
   4.9641E+01   5.0849E+01   1.6559E-10  1.0000
   5.0849E+01   5.2086E+01   0.0000E+00  0.0000
   5.2086E+01   5.3353E+01   0.0000E+00  0.0000
   5.3353E+01   5.4651E+01   0.0000E+00  0.0000
   5.4651E+01   5.5981E+01   0.0000E+00  0.0000
   5.5981E+01   5.7343E+01   0.0000E+00  0.0000
   5.7343E+01   5.8738E+01   0.0000E+00  0.0000
   5.8738E+01   6.0168E+01   0.0000E+00  0.0000
   6.0168E+01   6.1632E+01   0.0000E+00  0.0000
   6.1632E+01   6.3131E+01   0.0000E+00  0.0000
   6.3131E+01   6.4667E+01   0.0000E+00  0.0000
   6.4667E+01   6.6240E+01   0.0000E+00  0.0000
   6.6240E+01   6.7852E+01   0.0000E+00  0.0000
   6.7852E+01   6.9503E+01   0.0000E+00  0.0000
   6.9503E+01   7.1194E+01   0.0000E+00  0.0000
   7.1194E+01   7.2926E+01   0.0000E+00  0.0000
   7.2926E+01   7.4701E+01   0.0000E+00  0.0000
   7.4701E+01   7.6518E+01   0.0000E+00  0.0000
   7.6518E+01   7.8380E+01   0.0000E+00  0.0000
   7.8380E+01   8.0287E+01   0.0000E+00  0.0000
   8.0287E+01   8.2240E+01   0.0000E+00  0.0000
   8.2240E+01   8.4241E+01   0.0000E+00  0.0000
   8.4241E+01   8.6291E+01   0.0000E+00  0.0000
   8.6291E+01   8.8391E+01   0.0000E+00  0.0000
   8.8391E+01   9.0541E+01   0.0000E+00  0.0000
   9.0541E+01   9.2744E+01   0.0000E+00  0.0000
   9.2744E+01   9.5001E+01   0.0000E+00  0.0000
   9.5001E+01   9.7312E+01   0.0000E+00  0.0000
   9.7312E+01   9.9680E+01   0.0000E+00  0.0000
   9.9680E+01   1.0211E+02   0.0000E+00  0.0000
   1.0211E+02   1.0459E+02   0.0000E+00  0.0000
   1.0459E+02   1.0713E+02   0.0000E+00  0.0000
   1.0713E+02   1.0974E+02   0.0000E+00  0.0000
   1.0974E+02   1.1241E+02   0.0000E+00  0.0000
   1.1241E+02   1.1515E+02   0.0000E+00  0.0000
   1.1515E+02   1.1795E+02   0.0000E+00  0.0000
   1.1795E+02   1.2082E+02   0.0000E+00  0.0000
   1.2082E+02   1.2376E+02   0.0000E+00  0.0000
   1.2376E+02   1.2677E+02   0.0000E+00  0.0000
   1.2677E+02   1.2985E+02   0.0000E+00  0.0000
   1.2985E+02   1.3301E+02   0.0000E+00  0.0000
   1.3301E+02   1.3625E+02   0.0000E+00  0.0000
   1.3625E+02   1.3956E+02   0.0000E+00  0.0000
   1.3956E+02   1.4296E+02   0.0000E+00  0.0000
   1.4296E+02   1.4644E+02   0.0000E+00  0.0000
   1.4644E+02   1.5000E+02   0.0000E+00  0.0000

#   sum over                 7.1508E-06
'no. =    1   reg = 113 - 213'
msuc: {\huge [t-cross] in region mesh}
msdr: {\it plotted by \ANGEL \version}
msdl: {\it calculated by \PHITS  3.26}
wt: s(0.7)
\vspace{-3}
  region surface crossing
  area  &=&   1.0000E+00 [cm^2]
e:
 
# Information for Restart Calculation
# This calculation was newly started
# istdev =  2 # 1:Batch variance, 2:History variance
# resc2  = 5.00000000000000000E+09 # Total source weight or Total source weight / maxcas
# resc3  = 5.00000000000000000E+09 # Total history number or Total batch number
# maxcas =   500000000 # History / Batch, only used for istdev=1
# bitrseed = 0110100000100010111000001110001111001110100100011111101000111001 # bit data of rseed
