[ T-Cross ]
    title = [t-cross] in region mesh
     mesh =  reg            # mesh type is region-wise
      reg =    1            # number of crossing regions
      non     r-from    r-to       area
      1       121       221        1.000000    
   e-type =    3            # e-mesh is log given by emin, emax and ne
     emin =  1.0000000E-02  # minimum value of e-mesh points
     emax =   150.0000      # maximum value of e-mesh points
#    edel =  2.4039514E-02  # mesh width of e-mesh points
       ne =    400          # number of e-mesh points
#    data = ( e(i), i = 1, ne + 1 )
#           1.00000E-02  1.02433E-02  1.04925E-02  1.07478E-02  1.10093E-02
#           1.12772E-02  1.15516E-02  1.18326E-02  1.21205E-02  1.24154E-02
#           1.27175E-02  1.30269E-02  1.33439E-02  1.36686E-02  1.40011E-02
#           1.43418E-02  1.46907E-02  1.50482E-02  1.54143E-02  1.57894E-02
#           1.61735E-02  1.65670E-02  1.69701E-02  1.73830E-02  1.78060E-02
#           1.82392E-02  1.86830E-02  1.91375E-02  1.96032E-02  2.00801E-02
#           2.05687E-02  2.10692E-02  2.15818E-02  2.21069E-02  2.26448E-02
#           2.31957E-02  2.37601E-02  2.43382E-02  2.49304E-02  2.55369E-02
#           2.61583E-02  2.67947E-02  2.74467E-02  2.81145E-02  2.87985E-02
#           2.94992E-02  3.02169E-02  3.09521E-02  3.17052E-02  3.24766E-02
#           3.32668E-02  3.40762E-02  3.49053E-02  3.57546E-02  3.66246E-02
#           3.75157E-02  3.84284E-02  3.93634E-02  4.03212E-02  4.13022E-02
#           4.23071E-02  4.33365E-02  4.43909E-02  4.54710E-02  4.65773E-02
#           4.77106E-02  4.88714E-02  5.00605E-02  5.12785E-02  5.25262E-02
#           5.38042E-02  5.51133E-02  5.64542E-02  5.78278E-02  5.92348E-02
#           6.06760E-02  6.21523E-02  6.36645E-02  6.52135E-02  6.68002E-02
#           6.84255E-02  7.00904E-02  7.17957E-02  7.35426E-02  7.53319E-02
#           7.71648E-02  7.90423E-02  8.09655E-02  8.29354E-02  8.49533E-02
#           8.70203E-02  8.91376E-02  9.13064E-02  9.35279E-02  9.58035E-02
#           9.81345E-02  1.00522E-01  1.02968E-01  1.05473E-01  1.08040E-01
#           1.10668E-01  1.13361E-01  1.16119E-01  1.18944E-01  1.21838E-01
#           1.24803E-01  1.27839E-01  1.30950E-01  1.34136E-01  1.37399E-01
#           1.40742E-01  1.44167E-01  1.47675E-01  1.51268E-01  1.54948E-01
#           1.58718E-01  1.62580E-01  1.66535E-01  1.70587E-01  1.74738E-01
#           1.78989E-01  1.83344E-01  1.87805E-01  1.92375E-01  1.97055E-01
#           2.01850E-01  2.06761E-01  2.11792E-01  2.16945E-01  2.22223E-01
#           2.27630E-01  2.33169E-01  2.38842E-01  2.44653E-01  2.50605E-01
#           2.56703E-01  2.62949E-01  2.69346E-01  2.75900E-01  2.82613E-01
#           2.89489E-01  2.96532E-01  3.03747E-01  3.11138E-01  3.18708E-01
#           3.26462E-01  3.34405E-01  3.42542E-01  3.50876E-01  3.59413E-01
#           3.68158E-01  3.77116E-01  3.86291E-01  3.95690E-01  4.05317E-01
#           4.15179E-01  4.25281E-01  4.35628E-01  4.46227E-01  4.57084E-01
#           4.68205E-01  4.79597E-01  4.91266E-01  5.03219E-01  5.15463E-01
#           5.28005E-01  5.40851E-01  5.54011E-01  5.67490E-01  5.81298E-01
#           5.95441E-01  6.09929E-01  6.24769E-01  6.39970E-01  6.55541E-01
#           6.71491E-01  6.87828E-01  7.04564E-01  7.21706E-01  7.39266E-01
#           7.57253E-01  7.75678E-01  7.94551E-01  8.13883E-01  8.33685E-01
#           8.53969E-01  8.74747E-01  8.96030E-01  9.17831E-01  9.40163E-01
#           9.63038E-01  9.86469E-01  1.01047E+00  1.03506E+00  1.06024E+00
#           1.08604E+00  1.11246E+00  1.13953E+00  1.16725E+00  1.19565E+00
#           1.22474E+00  1.25454E+00  1.28507E+00  1.31633E+00  1.34836E+00
#           1.38117E+00  1.41477E+00  1.44920E+00  1.48446E+00  1.52057E+00
#           1.55757E+00  1.59547E+00  1.63429E+00  1.67405E+00  1.71478E+00
#           1.75650E+00  1.79924E+00  1.84302E+00  1.88786E+00  1.93379E+00
#           1.98084E+00  2.02904E+00  2.07841E+00  2.12898E+00  2.18078E+00
#           2.23384E+00  2.28819E+00  2.34386E+00  2.40089E+00  2.45930E+00
#           2.51914E+00  2.58043E+00  2.64322E+00  2.70753E+00  2.77341E+00
#           2.84088E+00  2.91001E+00  2.98081E+00  3.05333E+00  3.12762E+00
#           3.20372E+00  3.28167E+00  3.36152E+00  3.44330E+00  3.52708E+00
#           3.61290E+00  3.70080E+00  3.79085E+00  3.88308E+00  3.97756E+00
#           4.07434E+00  4.17347E+00  4.27501E+00  4.37903E+00  4.48557E+00
#           4.59471E+00  4.70650E+00  4.82102E+00  4.93832E+00  5.05847E+00
#           5.18155E+00  5.30762E+00  5.43676E+00  5.56904E+00  5.70453E+00
#           5.84333E+00  5.98550E+00  6.13114E+00  6.28031E+00  6.43312E+00
#           6.58964E+00  6.74997E+00  6.91420E+00  7.08243E+00  7.25475E+00
#           7.43126E+00  7.61207E+00  7.79728E+00  7.98700E+00  8.18133E+00
#           8.38038E+00  8.58428E+00  8.79315E+00  9.00709E+00  9.22624E+00
#           9.45072E+00  9.68067E+00  9.91620E+00  1.01575E+01  1.04046E+01
#           1.06578E+01  1.09171E+01  1.11827E+01  1.14548E+01  1.17335E+01
#           1.20190E+01  1.23114E+01  1.26109E+01  1.29178E+01  1.32321E+01
#           1.35540E+01  1.38838E+01  1.42216E+01  1.45676E+01  1.49221E+01
#           1.52851E+01  1.56570E+01  1.60380E+01  1.64282E+01  1.68279E+01
#           1.72374E+01  1.76568E+01  1.80864E+01  1.85264E+01  1.89772E+01
#           1.94389E+01  1.99119E+01  2.03963E+01  2.08926E+01  2.14009E+01
#           2.19216E+01  2.24550E+01  2.30014E+01  2.35610E+01  2.41343E+01
#           2.47215E+01  2.53230E+01  2.59391E+01  2.65702E+01  2.72167E+01
#           2.78789E+01  2.85572E+01  2.92520E+01  2.99637E+01  3.06928E+01
#           3.14396E+01  3.22045E+01  3.29881E+01  3.37907E+01  3.46128E+01
#           3.54550E+01  3.63177E+01  3.72013E+01  3.81064E+01  3.90336E+01
#           3.99833E+01  4.09561E+01  4.19526E+01  4.29734E+01  4.40189E+01
#           4.50900E+01  4.61870E+01  4.73108E+01  4.84619E+01  4.96410E+01
#           5.08488E+01  5.20860E+01  5.33533E+01  5.46514E+01  5.59812E+01
#           5.73432E+01  5.87384E+01  6.01676E+01  6.16315E+01  6.31311E+01
#           6.46671E+01  6.62405E+01  6.78522E+01  6.95031E+01  7.11941E+01
#           7.29263E+01  7.47007E+01  7.65182E+01  7.83800E+01  8.02870E+01
#           8.22405E+01  8.42414E+01  8.62911E+01  8.83906E+01  9.05412E+01
#           9.27442E+01  9.50007E+01  9.73122E+01  9.96799E+01  1.02105E+02
#           1.04589E+02  1.07134E+02  1.09741E+02  1.12411E+02  1.15146E+02
#           1.17948E+02  1.20817E+02  1.23757E+02  1.26768E+02  1.29852E+02
#           1.33012E+02  1.36248E+02  1.39563E+02  1.42959E+02  1.46437E+02
#           1.50000E+02
     unit =    2            # unit is [1/cm^2/(MeV/n)/source]
     axis =  eng            # axis of output
     file = detector-22.out  # file name of output for the above axis
   output = f-curr          # surface crossing forward current spectrum
     part =  neutron  
# kf/name :  2112     
#    used :        main (  %)        temp (  %)       total (  %)
#  memory :         414 (  0)           0 (  0)         414 (  0)

#------------------------------------------------------------------------------
#newpage:
#   no. =    1   reg = 121 - 221

x: Energy [MeV/n]
y:  F-Curr [1/cm^2/(MeV/n)/source]         
p: xlog ylog afac(0.8) form(0.9)
h: n            x            y(neutron ),hh0l   n 
#  e-lower      e-upper      neutron     r.err 
   1.0000E-02   1.0243E-02   5.4417E-04  0.0389
   1.0243E-02   1.0493E-02   5.5291E-04  0.0381
   1.0493E-02   1.0748E-02   5.4683E-04  0.0379
   1.0748E-02   1.1009E-02   5.8125E-04  0.0363
   1.1009E-02   1.1277E-02   5.3161E-04  0.0375
   1.1277E-02   1.1552E-02   5.3429E-04  0.0369
   1.1552E-02   1.1833E-02   5.1946E-04  0.0370
   1.1833E-02   1.2121E-02   5.4811E-04  0.0356
   1.2121E-02   1.2415E-02   5.8596E-04  0.0340
   1.2415E-02   1.2718E-02   5.3960E-04  0.0350
   1.2718E-02   1.3027E-02   5.7396E-04  0.0336
   1.3027E-02   1.3344E-02   5.5718E-04  0.0337
   1.3344E-02   1.3669E-02   5.2731E-04  0.0342
   1.3669E-02   1.4001E-02   5.3764E-04  0.0334
   1.4001E-02   1.4342E-02   5.8181E-04  0.0318
   1.4342E-02   1.4691E-02   5.2443E-04  0.0331
   1.4691E-02   1.5048E-02   5.7912E-04  0.0311
   1.5048E-02   1.5414E-02   5.7793E-04  0.0307
   1.5414E-02   1.5789E-02   5.6794E-04  0.0306
   1.5789E-02   1.6174E-02   5.9089E-04  0.0297
   1.6174E-02   1.6567E-02   6.1650E-04  0.0287
   1.6567E-02   1.6970E-02   5.8250E-04  0.0292
   1.6970E-02   1.7383E-02   5.9918E-04  0.0284
   1.7383E-02   1.7806E-02   6.0055E-04  0.0281
   1.7806E-02   1.8239E-02   5.7175E-04  0.0284
   1.8239E-02   1.8683E-02   5.8814E-04  0.0277
   1.8683E-02   1.9138E-02   5.9529E-04  0.0272
   1.9138E-02   1.9603E-02   5.7857E-04  0.0272
   1.9603E-02   2.0080E-02   6.0550E-04  0.0263
   2.0080E-02   2.0569E-02   5.8743E-04  0.0264
   2.0569E-02   2.1069E-02   6.1025E-04  0.0256
   2.1069E-02   2.1582E-02   6.2618E-04  0.0250
   2.1582E-02   2.2107E-02   6.2845E-04  0.0246
   2.2107E-02   2.2645E-02   6.0720E-04  0.0247
   2.2645E-02   2.3196E-02   6.0730E-04  0.0244
   2.3196E-02   2.3760E-02   6.0528E-04  0.0242
   2.3760E-02   2.4338E-02   6.0785E-04  0.0239
   2.4338E-02   2.4930E-02   6.1739E-04  0.0234
   2.4930E-02   2.5537E-02   6.2630E-04  0.0229
   2.5537E-02   2.6158E-02   6.1835E-04  0.0228
   2.6158E-02   2.6795E-02   6.0649E-04  0.0228
   2.6795E-02   2.7447E-02   6.2061E-04  0.0222
   2.7447E-02   2.8114E-02   6.2983E-04  0.0218
   2.8114E-02   2.8799E-02   6.4060E-04  0.0214
   2.8799E-02   2.9499E-02   6.4736E-04  0.0210
   2.9499E-02   3.0217E-02   6.5567E-04  0.0206
   3.0217E-02   3.0952E-02   6.2935E-04  0.0208
   3.0952E-02   3.1705E-02   6.3273E-04  0.0205
   3.1705E-02   3.2477E-02   6.3027E-04  0.0203
   3.2477E-02   3.3267E-02   6.0796E-04  0.0204
   3.3267E-02   3.4076E-02   6.4195E-04  0.0196
   3.4076E-02   3.4905E-02   6.3056E-04  0.0196
   3.4905E-02   3.5755E-02   6.5161E-04  0.0190
   3.5755E-02   3.6625E-02   6.6396E-04  0.0186
   3.6625E-02   3.7516E-02   6.3853E-04  0.0187
   3.7516E-02   3.8428E-02   6.7310E-04  0.0180
   3.8428E-02   3.9363E-02   6.8172E-04  0.0177
   3.9363E-02   4.0321E-02   6.5957E-04  0.0178
   4.0321E-02   4.1302E-02   6.5400E-04  0.0177
   4.1302E-02   4.2307E-02   6.6185E-04  0.0173
   4.2307E-02   4.3337E-02   6.7653E-04  0.0169
   4.3337E-02   4.4391E-02   6.6483E-04  0.0169
   4.4391E-02   4.5471E-02   6.6200E-04  0.0167
   4.5471E-02   4.6577E-02   6.7890E-04  0.0163
   4.6577E-02   4.7711E-02   6.6472E-04  0.0163
   4.7711E-02   4.8871E-02   6.7761E-04  0.0159
   4.8871E-02   5.0061E-02   6.7901E-04  0.0157
   5.0061E-02   5.1279E-02   6.6929E-04  0.0157
   5.1279E-02   5.2526E-02   6.8497E-04  0.0153
   5.2526E-02   5.3804E-02   6.8380E-04  0.0151
   5.3804E-02   5.5113E-02   6.7864E-04  0.0150
   5.5113E-02   5.6454E-02   6.6498E-04  0.0150
   5.6454E-02   5.7828E-02   7.0480E-04  0.0144
   5.7828E-02   5.9235E-02   6.7719E-04  0.0145
   5.9235E-02   6.0676E-02   6.9677E-04  0.0141
   6.0676E-02   6.2152E-02   6.8503E-04  0.0141
   6.2152E-02   6.3665E-02   6.9521E-04  0.0138
   6.3665E-02   6.5214E-02   6.9373E-04  0.0136
   6.5214E-02   6.6800E-02   7.0139E-04  0.0134
   6.6800E-02   6.8426E-02   7.1919E-04  0.0131
   6.8426E-02   7.0090E-02   7.2944E-04  0.0128
   7.0090E-02   7.1796E-02   7.0941E-04  0.0129
   7.1796E-02   7.3543E-02   7.2050E-04  0.0126
   7.3543E-02   7.5332E-02   7.0841E-04  0.0126
   7.5332E-02   7.7165E-02   7.3141E-04  0.0122
   7.7165E-02   7.9042E-02   7.0611E-04  0.0123
   7.9042E-02   8.0965E-02   7.2760E-04  0.0120
   8.0965E-02   8.2935E-02   7.1936E-04  0.0119
   8.2935E-02   8.4953E-02   7.2977E-04  0.0117
   8.4953E-02   8.7020E-02   7.2483E-04  0.0116
   8.7020E-02   8.9138E-02   7.3935E-04  0.0113
   8.9138E-02   9.1306E-02   7.1805E-04  0.0113
   9.1306E-02   9.3528E-02   7.3561E-04  0.0111
   9.3528E-02   9.5804E-02   7.3602E-04  0.0109
   9.5804E-02   9.8134E-02   7.3840E-04  0.0108
   9.8134E-02   1.0052E-01   7.4687E-04  0.0106
   1.0052E-01   1.0297E-01   7.4896E-04  0.0104
   1.0297E-01   1.0547E-01   7.6442E-04  0.0102
   1.0547E-01   1.0804E-01   7.2935E-04  0.0103
   1.0804E-01   1.1067E-01   7.2880E-04  0.0102
   1.1067E-01   1.1336E-01   7.4481E-04  0.0100
   1.1336E-01   1.1612E-01   7.3886E-04  0.0099
   1.1612E-01   1.1894E-01   7.5012E-04  0.0097
   1.1894E-01   1.2184E-01   7.4184E-04  0.0097
   1.2184E-01   1.2480E-01   7.6227E-04  0.0094
   1.2480E-01   1.2784E-01   7.5820E-04  0.0093
   1.2784E-01   1.3095E-01   7.5790E-04  0.0092
   1.3095E-01   1.3414E-01   7.6595E-04  0.0091
   1.3414E-01   1.3740E-01   7.4932E-04  0.0090
   1.3740E-01   1.4074E-01   7.7869E-04  0.0088
   1.4074E-01   1.4417E-01   7.7071E-04  0.0087
   1.4417E-01   1.4767E-01   7.6649E-04  0.0086
   1.4767E-01   1.5127E-01   7.6044E-04  0.0086
   1.5127E-01   1.5495E-01   7.7517E-04  0.0084
   1.5495E-01   1.5872E-01   7.6562E-04  0.0083
   1.5872E-01   1.6258E-01   7.7457E-04  0.0082
   1.6258E-01   1.6654E-01   7.7577E-04  0.0081
   1.6654E-01   1.7059E-01   7.7341E-04  0.0080
   1.7059E-01   1.7474E-01   7.8260E-04  0.0078
   1.7474E-01   1.7899E-01   7.7723E-04  0.0078
   1.7899E-01   1.8334E-01   7.7803E-04  0.0077
   1.8334E-01   1.8781E-01   7.8784E-04  0.0075
   1.8781E-01   1.9237E-01   7.5670E-04  0.0076
   1.9237E-01   1.9706E-01   7.8453E-04  0.0074
   1.9706E-01   2.0185E-01   7.8788E-04  0.0073
   2.0185E-01   2.0676E-01   7.7776E-04  0.0072
   2.0676E-01   2.1179E-01   7.7308E-04  0.0072
   2.1179E-01   2.1694E-01   7.6853E-04  0.0071
   2.1694E-01   2.2222E-01   7.6780E-04  0.0070
   2.2222E-01   2.2763E-01   7.7537E-04  0.0069
   2.2763E-01   2.3317E-01   7.6706E-04  0.0069
   2.3317E-01   2.3884E-01   7.7487E-04  0.0067
   2.3884E-01   2.4465E-01   7.6943E-04  0.0067
   2.4465E-01   2.5061E-01   7.6563E-04  0.0066
   2.5061E-01   2.5670E-01   7.6877E-04  0.0065
   2.5670E-01   2.6295E-01   7.7561E-04  0.0064
   2.6295E-01   2.6935E-01   7.6858E-04  0.0064
   2.6935E-01   2.7590E-01   7.7357E-04  0.0063
   2.7590E-01   2.8261E-01   7.6712E-04  0.0062
   2.8261E-01   2.8949E-01   7.5334E-04  0.0062
   2.8949E-01   2.9653E-01   7.5725E-04  0.0061
   2.9653E-01   3.0375E-01   7.4808E-04  0.0061
   3.0375E-01   3.1114E-01   7.5547E-04  0.0060
   3.1114E-01   3.1871E-01   7.5033E-04  0.0059
   3.1871E-01   3.2646E-01   7.5218E-04  0.0059
   3.2646E-01   3.3441E-01   7.4321E-04  0.0058
   3.3441E-01   3.4254E-01   7.4349E-04  0.0058
   3.4254E-01   3.5088E-01   7.4852E-04  0.0057
   3.5088E-01   3.5941E-01   7.3790E-04  0.0056
   3.5941E-01   3.6816E-01   7.3222E-04  0.0056
   3.6816E-01   3.7712E-01   7.2956E-04  0.0055
   3.7712E-01   3.8629E-01   7.3278E-04  0.0055
   3.8629E-01   3.9569E-01   7.2618E-04  0.0054
   3.9569E-01   4.0532E-01   7.1800E-04  0.0054
   4.0532E-01   4.1518E-01   7.1314E-04  0.0053
   4.1518E-01   4.2528E-01   7.0896E-04  0.0053
   4.2528E-01   4.3563E-01   7.0895E-04  0.0052
   4.3563E-01   4.4623E-01   6.9631E-04  0.0052
   4.4623E-01   4.5708E-01   6.9096E-04  0.0052
   4.5708E-01   4.6821E-01   6.8489E-04  0.0051
   4.6821E-01   4.7960E-01   6.8760E-04  0.0051
   4.7960E-01   4.9127E-01   6.7454E-04  0.0050
   4.9127E-01   5.0322E-01   6.6632E-04  0.0050
   5.0322E-01   5.1546E-01   6.5952E-04  0.0050
   5.1546E-01   5.2800E-01   6.5603E-04  0.0049
   5.2800E-01   5.4085E-01   6.4408E-04  0.0049
   5.4085E-01   5.5401E-01   6.3436E-04  0.0049
   5.5401E-01   5.6749E-01   6.2847E-04  0.0049
   5.6749E-01   5.8130E-01   6.2050E-04  0.0048
   5.8130E-01   5.9544E-01   6.1229E-04  0.0048
   5.9544E-01   6.0993E-01   5.9820E-04  0.0048
   6.0993E-01   6.2477E-01   5.9182E-04  0.0048
   6.2477E-01   6.3997E-01   5.7927E-04  0.0048
   6.3997E-01   6.5554E-01   5.7047E-04  0.0047
   6.5554E-01   6.7149E-01   5.5924E-04  0.0047
   6.7149E-01   6.8783E-01   5.5196E-04  0.0047
   6.8783E-01   7.0456E-01   5.4199E-04  0.0047
   7.0456E-01   7.2171E-01   5.3015E-04  0.0047
   7.2171E-01   7.3927E-01   5.1385E-04  0.0047
   7.3927E-01   7.5725E-01   4.9965E-04  0.0047
   7.5725E-01   7.7568E-01   4.8932E-04  0.0047
   7.7568E-01   7.9455E-01   4.7596E-04  0.0047
   7.9455E-01   8.1388E-01   4.6600E-04  0.0047
   8.1388E-01   8.3368E-01   4.5214E-04  0.0047
   8.3368E-01   8.5397E-01   4.3622E-04  0.0048
   8.5397E-01   8.7475E-01   4.2080E-04  0.0048
   8.7475E-01   8.9603E-01   4.0529E-04  0.0048
   8.9603E-01   9.1783E-01   3.9497E-04  0.0048
   9.1783E-01   9.4016E-01   3.7689E-04  0.0049
   9.4016E-01   9.6304E-01   3.6517E-04  0.0049
   9.6304E-01   9.8647E-01   3.4770E-04  0.0050
   9.8647E-01   1.0105E+00   3.3544E-04  0.0050
   1.0105E+00   1.0351E+00   3.3604E-04  0.0049
   1.0351E+00   1.0602E+00   3.3707E-04  0.0049
   1.0602E+00   1.0860E+00   3.3992E-04  0.0048
   1.0860E+00   1.1125E+00   3.3917E-04  0.0047
   1.1125E+00   1.1395E+00   3.4396E-04  0.0046
   1.1395E+00   1.1673E+00   3.4821E-04  0.0046
   1.1673E+00   1.1957E+00   3.5656E-04  0.0044
   1.1957E+00   1.2247E+00   3.6185E-04  0.0044
   1.2247E+00   1.2545E+00   3.5786E-04  0.0043
   1.2545E+00   1.2851E+00   3.5822E-04  0.0043
   1.2851E+00   1.3163E+00   3.6068E-04  0.0042
   1.3163E+00   1.3484E+00   3.6372E-04  0.0041
   1.3484E+00   1.3812E+00   3.6450E-04  0.0041
   1.3812E+00   1.4148E+00   3.6808E-04  0.0040
   1.4148E+00   1.4492E+00   3.6187E-04  0.0040
   1.4492E+00   1.4845E+00   3.5820E-04  0.0040
   1.4845E+00   1.5206E+00   3.5481E-04  0.0040
   1.5206E+00   1.5576E+00   3.5391E-04  0.0039
   1.5576E+00   1.5955E+00   3.4925E-04  0.0039
   1.5955E+00   1.6343E+00   3.4783E-04  0.0038
   1.6343E+00   1.6741E+00   3.4794E-04  0.0038
   1.6741E+00   1.7148E+00   3.4728E-04  0.0038
   1.7148E+00   1.7565E+00   3.4202E-04  0.0037
   1.7565E+00   1.7992E+00   3.3596E-04  0.0037
   1.7992E+00   1.8430E+00   3.2884E-04  0.0037
   1.8430E+00   1.8879E+00   3.2322E-04  0.0037
   1.8879E+00   1.9338E+00   3.1538E-04  0.0037
   1.9338E+00   1.9808E+00   3.1429E-04  0.0037
   1.9808E+00   2.0290E+00   3.1048E-04  0.0037
   2.0290E+00   2.0784E+00   2.9974E-04  0.0037
   2.0784E+00   2.1290E+00   2.9118E-04  0.0037
   2.1290E+00   2.1808E+00   2.8416E-04  0.0037
   2.1808E+00   2.2338E+00   2.7585E-04  0.0037
   2.2338E+00   2.2882E+00   2.6623E-04  0.0037
   2.2882E+00   2.3439E+00   2.5966E-04  0.0037
   2.3439E+00   2.4009E+00   2.5148E-04  0.0037
   2.4009E+00   2.4593E+00   2.4682E-04  0.0037
   2.4593E+00   2.5191E+00   2.3621E-04  0.0038
   2.5191E+00   2.5804E+00   2.2560E-04  0.0038
   2.5804E+00   2.6432E+00   2.1875E-04  0.0038
   2.6432E+00   2.7075E+00   2.0957E-04  0.0039
   2.7075E+00   2.7734E+00   1.9990E-04  0.0039
   2.7734E+00   2.8409E+00   1.8952E-04  0.0040
   2.8409E+00   2.9100E+00   1.8148E-04  0.0040
   2.9100E+00   2.9808E+00   1.7427E-04  0.0040
   2.9808E+00   3.0533E+00   1.6613E-04  0.0041
   3.0533E+00   3.1276E+00   1.5872E-04  0.0041
   3.1276E+00   3.2037E+00   1.5089E-04  0.0042
   3.2037E+00   3.2817E+00   1.4348E-04  0.0042
   3.2817E+00   3.3615E+00   1.3470E-04  0.0043
   3.3615E+00   3.4433E+00   1.2759E-04  0.0044
   3.4433E+00   3.5271E+00   1.1992E-04  0.0045
   3.5271E+00   3.6129E+00   1.1411E-04  0.0045
   3.6129E+00   3.7008E+00   1.0735E-04  0.0046
   3.7008E+00   3.7908E+00   1.0125E-04  0.0047
   3.7908E+00   3.8831E+00   9.5729E-05  0.0048
   3.8831E+00   3.9776E+00   8.8757E-05  0.0049
   3.9776E+00   4.0743E+00   8.5429E-05  0.0049
   4.0743E+00   4.1735E+00   7.9878E-05  0.0050
   4.1735E+00   4.2750E+00   7.5284E-05  0.0051
   4.2750E+00   4.3790E+00   7.0788E-05  0.0052
   4.3790E+00   4.4856E+00   6.5658E-05  0.0053
   4.4856E+00   4.5947E+00   6.2168E-05  0.0054
   4.5947E+00   4.7065E+00   5.7621E-05  0.0056
   4.7065E+00   4.8210E+00   5.2955E-05  0.0057
   4.8210E+00   4.9383E+00   5.0205E-05  0.0058
   4.9383E+00   5.0585E+00   4.6845E-05  0.0060
   5.0585E+00   5.1815E+00   4.4141E-05  0.0061
   5.1815E+00   5.3076E+00   4.2025E-05  0.0061
   5.3076E+00   5.4368E+00   3.8768E-05  0.0063
   5.4368E+00   5.5690E+00   3.6401E-05  0.0064
   5.5690E+00   5.7045E+00   3.4126E-05  0.0066
   5.7045E+00   5.8433E+00   3.1530E-05  0.0068
   5.8433E+00   5.9855E+00   2.9192E-05  0.0069
   5.9855E+00   6.1311E+00   2.7132E-05  0.0071
   6.1311E+00   6.2803E+00   2.5134E-05  0.0073
   6.2803E+00   6.4331E+00   2.3758E-05  0.0074
   6.4331E+00   6.5896E+00   2.2153E-05  0.0076
   6.5896E+00   6.7500E+00   2.0498E-05  0.0078
   6.7500E+00   6.9142E+00   1.9057E-05  0.0080
   6.9142E+00   7.0824E+00   1.7520E-05  0.0082
   7.0824E+00   7.2548E+00   1.6251E-05  0.0084
   7.2548E+00   7.4313E+00   1.5161E-05  0.0086
   7.4313E+00   7.6121E+00   1.3762E-05  0.0090
   7.6121E+00   7.7973E+00   1.2979E-05  0.0091
   7.7973E+00   7.9870E+00   1.1964E-05  0.0094
   7.9870E+00   8.1813E+00   1.1123E-05  0.0096
   8.1813E+00   8.3804E+00   1.0217E-05  0.0099
   8.3804E+00   8.5843E+00   9.4933E-06  0.0102
   8.5843E+00   8.7931E+00   8.8695E-06  0.0104
   8.7931E+00   9.0071E+00   8.2124E-06  0.0107
   9.0071E+00   9.2262E+00   7.5478E-06  0.0110
   9.2262E+00   9.4507E+00   6.9578E-06  0.0113
   9.4507E+00   9.6807E+00   6.4064E-06  0.0116
   9.6807E+00   9.9162E+00   6.0224E-06  0.0119
   9.9162E+00   1.0157E+01   5.4296E-06  0.0123
   1.0157E+01   1.0405E+01   4.9891E-06  0.0127
   1.0405E+01   1.0658E+01   4.6028E-06  0.0131
   1.0658E+01   1.0917E+01   4.2474E-06  0.0135
   1.0917E+01   1.1183E+01   3.9470E-06  0.0138
   1.1183E+01   1.1455E+01   3.6254E-06  0.0142
   1.1455E+01   1.1733E+01   3.3293E-06  0.0147
   1.1733E+01   1.2019E+01   3.0366E-06  0.0152
   1.2019E+01   1.2311E+01   2.8581E-06  0.0155
   1.2311E+01   1.2611E+01   2.6377E-06  0.0159
   1.2611E+01   1.2918E+01   2.3902E-06  0.0165
   1.2918E+01   1.3232E+01   2.2059E-06  0.0170
   1.3232E+01   1.3554E+01   2.0590E-06  0.0174
   1.3554E+01   1.3884E+01   1.8485E-06  0.0181
   1.3884E+01   1.4222E+01   1.7007E-06  0.0187
   1.4222E+01   1.4568E+01   1.6268E-06  0.0188
   1.4568E+01   1.4922E+01   1.4888E-06  0.0195
   1.4922E+01   1.5285E+01   1.3953E-06  0.0199
   1.5285E+01   1.5657E+01   1.2821E-06  0.0205
   1.5657E+01   1.6038E+01   1.1823E-06  0.0211
   1.6038E+01   1.6428E+01   1.1291E-06  0.0213
   1.6428E+01   1.6828E+01   9.9046E-07  0.0225
   1.6828E+01   1.7237E+01   9.3641E-07  0.0228
   1.7237E+01   1.7657E+01   8.8818E-07  0.0232
   1.7657E+01   1.8086E+01   8.3845E-07  0.0236
   1.8086E+01   1.8526E+01   7.8036E-07  0.0241
   1.8526E+01   1.8977E+01   7.1257E-07  0.0250
   1.8977E+01   1.9439E+01   6.8612E-07  0.0251
   1.9439E+01   1.9912E+01   6.5417E-07  0.0254
   1.9912E+01   2.0396E+01   5.9446E-07  0.0264
   2.0396E+01   2.0893E+01   5.8760E-07  0.0262
   2.0893E+01   2.1401E+01   5.4138E-07  0.0270
   2.1401E+01   2.1922E+01   5.0163E-07  0.0277
   2.1922E+01   2.2455E+01   5.1596E-07  0.0270
   2.2455E+01   2.3001E+01   4.6491E-07  0.0281
   2.3001E+01   2.3561E+01   4.4814E-07  0.0282
   2.3561E+01   2.4134E+01   4.2703E-07  0.0286
   2.4134E+01   2.4721E+01   4.0361E-07  0.0290
   2.4721E+01   2.5323E+01   3.6941E-07  0.0300
   2.5323E+01   2.5939E+01   3.5610E-07  0.0302
   2.5939E+01   2.6570E+01   3.3781E-07  0.0306
   2.6570E+01   2.7217E+01   3.0628E-07  0.0318
   2.7217E+01   2.7879E+01   3.0293E-07  0.0316
   2.7879E+01   2.8557E+01   2.7804E-07  0.0326
   2.8557E+01   2.9252E+01   2.7345E-07  0.0324
   2.9252E+01   2.9964E+01   2.3211E-07  0.0348
   2.9964E+01   3.0693E+01   2.3373E-07  0.0343
   3.0693E+01   3.1440E+01   2.3461E-07  0.0338
   3.1440E+01   3.2205E+01   1.9871E-07  0.0363
   3.2205E+01   3.2988E+01   1.8582E-07  0.0371
   3.2988E+01   3.3791E+01   1.5574E-07  0.0400
   3.3791E+01   3.4613E+01   1.5058E-07  0.0402
   3.4613E+01   3.5455E+01   1.4225E-07  0.0409
   3.5455E+01   3.6318E+01   1.3215E-07  0.0419
   3.6318E+01   3.7201E+01   1.1521E-07  0.0443
   3.7201E+01   3.8106E+01   1.0606E-07  0.0456
   3.8106E+01   3.9034E+01   9.3619E-08  0.0480
   3.9034E+01   3.9983E+01   8.5078E-08  0.0498
   3.9983E+01   4.0956E+01   7.9562E-08  0.0508
   4.0956E+01   4.1953E+01   6.7637E-08  0.0545
   4.1953E+01   4.2973E+01   6.5443E-08  0.0547
   4.2973E+01   4.4019E+01   5.5472E-08  0.0587
   4.4019E+01   4.5090E+01   5.3781E-08  0.0589
   4.5090E+01   4.6187E+01   4.3935E-08  0.0644
   4.6187E+01   4.7311E+01   3.7730E-08  0.0687
   4.7311E+01   4.8462E+01   3.1274E-08  0.0745
   4.8462E+01   4.9641E+01   2.5273E-08  0.0819
   4.9641E+01   5.0849E+01   2.4342E-08  0.0825
   5.0849E+01   5.2086E+01   2.4572E-08  0.0811
   5.2086E+01   5.3353E+01   1.6886E-08  0.0967
   5.3353E+01   5.4651E+01   1.5407E-08  0.1000
   5.4651E+01   5.5981E+01   1.1581E-08  0.1140
   5.5981E+01   5.7343E+01   9.5443E-09  0.1240
   5.7343E+01   5.8738E+01   7.4541E-09  0.1387
   5.8738E+01   6.0168E+01   4.3382E-09  0.1796
   6.0168E+01   6.1632E+01   4.7817E-09  0.1690
   6.1632E+01   6.3131E+01   4.2680E-09  0.1768
   6.3131E+01   6.4667E+01   3.3854E-09  0.1961
   6.4667E+01   6.6240E+01   2.2880E-09  0.2357
   6.6240E+01   6.7852E+01   2.3578E-09  0.2294
   6.7852E+01   6.9503E+01   1.8172E-09  0.2582
   6.9503E+01   7.1194E+01   1.3010E-09  0.3015
   7.1194E+01   7.2926E+01   4.6184E-10  0.5000
   7.2926E+01   7.4701E+01   5.6358E-10  0.4472
   7.4701E+01   7.6518E+01   1.3205E-09  0.2887
   7.6518E+01   7.8380E+01   7.5198E-10  0.3780
   7.8380E+01   8.0287E+01   4.1950E-10  0.5000
   8.0287E+01   8.2240E+01   2.0477E-10  0.7071
   8.2240E+01   8.4241E+01   9.9951E-11  1.0000
   8.4241E+01   8.6291E+01   9.7577E-11  1.0000
   8.6291E+01   8.8391E+01   9.5259E-11  1.0000
   8.8391E+01   9.0541E+01   0.0000E+00  0.0000
   9.0541E+01   9.2744E+01   9.0788E-11  1.0000
   9.2744E+01   9.5001E+01   0.0000E+00  0.0000
   9.5001E+01   9.7312E+01   8.6526E-11  1.0000
   9.7312E+01   9.9680E+01   0.0000E+00  0.0000
   9.9680E+01   1.0211E+02   0.0000E+00  0.0000
   1.0211E+02   1.0459E+02   0.0000E+00  0.0000
   1.0459E+02   1.0713E+02   0.0000E+00  0.0000
   1.0713E+02   1.0974E+02   0.0000E+00  0.0000
   1.0974E+02   1.1241E+02   0.0000E+00  0.0000
   1.1241E+02   1.1515E+02   0.0000E+00  0.0000
   1.1515E+02   1.1795E+02   0.0000E+00  0.0000
   1.1795E+02   1.2082E+02   0.0000E+00  0.0000
   1.2082E+02   1.2376E+02   0.0000E+00  0.0000
   1.2376E+02   1.2677E+02   0.0000E+00  0.0000
   1.2677E+02   1.2985E+02   0.0000E+00  0.0000
   1.2985E+02   1.3301E+02   0.0000E+00  0.0000
   1.3301E+02   1.3625E+02   0.0000E+00  0.0000
   1.3625E+02   1.3956E+02   0.0000E+00  0.0000
   1.3956E+02   1.4296E+02   0.0000E+00  0.0000
   1.4296E+02   1.4644E+02   0.0000E+00  0.0000
   1.4644E+02   1.5000E+02   0.0000E+00  0.0000

#   sum over                 9.9225E-06
'no. =    1   reg = 121 - 221'
msuc: {\huge [t-cross] in region mesh}
msdr: {\it plotted by \ANGEL \version}
msdl: {\it calculated by \PHITS  3.26}
wt: s(0.7)
\vspace{-3}
  region surface crossing
  area  &=&   1.0000E+00 [cm^2]
e:
 
# Information for Restart Calculation
# This calculation was newly started
# istdev =  2 # 1:Batch variance, 2:History variance
# resc2  = 5.00000000000000000E+09 # Total source weight or Total source weight / maxcas
# resc3  = 5.00000000000000000E+09 # Total history number or Total batch number
# maxcas =   500000000 # History / Batch, only used for istdev=1
# bitrseed = 0110100000100010111000001110001111001110100100011111101000111001 # bit data of rseed
