[ T-Cross ]
    title = [t-cross] in region mesh
     mesh =  reg            # mesh type is region-wise
      reg =    1            # number of crossing regions
      non     r-from    r-to       area
      1       104       204        1.000000    
   e-type =    3            # e-mesh is log given by emin, emax and ne
     emin =  1.0000000E-02  # minimum value of e-mesh points
     emax =   150.0000      # maximum value of e-mesh points
#    edel =  2.4039514E-02  # mesh width of e-mesh points
       ne =    400          # number of e-mesh points
#    data = ( e(i), i = 1, ne + 1 )
#           1.00000E-02  1.02433E-02  1.04925E-02  1.07478E-02  1.10093E-02
#           1.12772E-02  1.15516E-02  1.18326E-02  1.21205E-02  1.24154E-02
#           1.27175E-02  1.30269E-02  1.33439E-02  1.36686E-02  1.40011E-02
#           1.43418E-02  1.46907E-02  1.50482E-02  1.54143E-02  1.57894E-02
#           1.61735E-02  1.65670E-02  1.69701E-02  1.73830E-02  1.78060E-02
#           1.82392E-02  1.86830E-02  1.91375E-02  1.96032E-02  2.00801E-02
#           2.05687E-02  2.10692E-02  2.15818E-02  2.21069E-02  2.26448E-02
#           2.31957E-02  2.37601E-02  2.43382E-02  2.49304E-02  2.55369E-02
#           2.61583E-02  2.67947E-02  2.74467E-02  2.81145E-02  2.87985E-02
#           2.94992E-02  3.02169E-02  3.09521E-02  3.17052E-02  3.24766E-02
#           3.32668E-02  3.40762E-02  3.49053E-02  3.57546E-02  3.66246E-02
#           3.75157E-02  3.84284E-02  3.93634E-02  4.03212E-02  4.13022E-02
#           4.23071E-02  4.33365E-02  4.43909E-02  4.54710E-02  4.65773E-02
#           4.77106E-02  4.88714E-02  5.00605E-02  5.12785E-02  5.25262E-02
#           5.38042E-02  5.51133E-02  5.64542E-02  5.78278E-02  5.92348E-02
#           6.06760E-02  6.21523E-02  6.36645E-02  6.52135E-02  6.68002E-02
#           6.84255E-02  7.00904E-02  7.17957E-02  7.35426E-02  7.53319E-02
#           7.71648E-02  7.90423E-02  8.09655E-02  8.29354E-02  8.49533E-02
#           8.70203E-02  8.91376E-02  9.13064E-02  9.35279E-02  9.58035E-02
#           9.81345E-02  1.00522E-01  1.02968E-01  1.05473E-01  1.08040E-01
#           1.10668E-01  1.13361E-01  1.16119E-01  1.18944E-01  1.21838E-01
#           1.24803E-01  1.27839E-01  1.30950E-01  1.34136E-01  1.37399E-01
#           1.40742E-01  1.44167E-01  1.47675E-01  1.51268E-01  1.54948E-01
#           1.58718E-01  1.62580E-01  1.66535E-01  1.70587E-01  1.74738E-01
#           1.78989E-01  1.83344E-01  1.87805E-01  1.92375E-01  1.97055E-01
#           2.01850E-01  2.06761E-01  2.11792E-01  2.16945E-01  2.22223E-01
#           2.27630E-01  2.33169E-01  2.38842E-01  2.44653E-01  2.50605E-01
#           2.56703E-01  2.62949E-01  2.69346E-01  2.75900E-01  2.82613E-01
#           2.89489E-01  2.96532E-01  3.03747E-01  3.11138E-01  3.18708E-01
#           3.26462E-01  3.34405E-01  3.42542E-01  3.50876E-01  3.59413E-01
#           3.68158E-01  3.77116E-01  3.86291E-01  3.95690E-01  4.05317E-01
#           4.15179E-01  4.25281E-01  4.35628E-01  4.46227E-01  4.57084E-01
#           4.68205E-01  4.79597E-01  4.91266E-01  5.03219E-01  5.15463E-01
#           5.28005E-01  5.40851E-01  5.54011E-01  5.67490E-01  5.81298E-01
#           5.95441E-01  6.09929E-01  6.24769E-01  6.39970E-01  6.55541E-01
#           6.71491E-01  6.87828E-01  7.04564E-01  7.21706E-01  7.39266E-01
#           7.57253E-01  7.75678E-01  7.94551E-01  8.13883E-01  8.33685E-01
#           8.53969E-01  8.74747E-01  8.96030E-01  9.17831E-01  9.40163E-01
#           9.63038E-01  9.86469E-01  1.01047E+00  1.03506E+00  1.06024E+00
#           1.08604E+00  1.11246E+00  1.13953E+00  1.16725E+00  1.19565E+00
#           1.22474E+00  1.25454E+00  1.28507E+00  1.31633E+00  1.34836E+00
#           1.38117E+00  1.41477E+00  1.44920E+00  1.48446E+00  1.52057E+00
#           1.55757E+00  1.59547E+00  1.63429E+00  1.67405E+00  1.71478E+00
#           1.75650E+00  1.79924E+00  1.84302E+00  1.88786E+00  1.93379E+00
#           1.98084E+00  2.02904E+00  2.07841E+00  2.12898E+00  2.18078E+00
#           2.23384E+00  2.28819E+00  2.34386E+00  2.40089E+00  2.45930E+00
#           2.51914E+00  2.58043E+00  2.64322E+00  2.70753E+00  2.77341E+00
#           2.84088E+00  2.91001E+00  2.98081E+00  3.05333E+00  3.12762E+00
#           3.20372E+00  3.28167E+00  3.36152E+00  3.44330E+00  3.52708E+00
#           3.61290E+00  3.70080E+00  3.79085E+00  3.88308E+00  3.97756E+00
#           4.07434E+00  4.17347E+00  4.27501E+00  4.37903E+00  4.48557E+00
#           4.59471E+00  4.70650E+00  4.82102E+00  4.93832E+00  5.05847E+00
#           5.18155E+00  5.30762E+00  5.43676E+00  5.56904E+00  5.70453E+00
#           5.84333E+00  5.98550E+00  6.13114E+00  6.28031E+00  6.43312E+00
#           6.58964E+00  6.74997E+00  6.91420E+00  7.08243E+00  7.25475E+00
#           7.43126E+00  7.61207E+00  7.79728E+00  7.98700E+00  8.18133E+00
#           8.38038E+00  8.58428E+00  8.79315E+00  9.00709E+00  9.22624E+00
#           9.45072E+00  9.68067E+00  9.91620E+00  1.01575E+01  1.04046E+01
#           1.06578E+01  1.09171E+01  1.11827E+01  1.14548E+01  1.17335E+01
#           1.20190E+01  1.23114E+01  1.26109E+01  1.29178E+01  1.32321E+01
#           1.35540E+01  1.38838E+01  1.42216E+01  1.45676E+01  1.49221E+01
#           1.52851E+01  1.56570E+01  1.60380E+01  1.64282E+01  1.68279E+01
#           1.72374E+01  1.76568E+01  1.80864E+01  1.85264E+01  1.89772E+01
#           1.94389E+01  1.99119E+01  2.03963E+01  2.08926E+01  2.14009E+01
#           2.19216E+01  2.24550E+01  2.30014E+01  2.35610E+01  2.41343E+01
#           2.47215E+01  2.53230E+01  2.59391E+01  2.65702E+01  2.72167E+01
#           2.78789E+01  2.85572E+01  2.92520E+01  2.99637E+01  3.06928E+01
#           3.14396E+01  3.22045E+01  3.29881E+01  3.37907E+01  3.46128E+01
#           3.54550E+01  3.63177E+01  3.72013E+01  3.81064E+01  3.90336E+01
#           3.99833E+01  4.09561E+01  4.19526E+01  4.29734E+01  4.40189E+01
#           4.50900E+01  4.61870E+01  4.73108E+01  4.84619E+01  4.96410E+01
#           5.08488E+01  5.20860E+01  5.33533E+01  5.46514E+01  5.59812E+01
#           5.73432E+01  5.87384E+01  6.01676E+01  6.16315E+01  6.31311E+01
#           6.46671E+01  6.62405E+01  6.78522E+01  6.95031E+01  7.11941E+01
#           7.29263E+01  7.47007E+01  7.65182E+01  7.83800E+01  8.02870E+01
#           8.22405E+01  8.42414E+01  8.62911E+01  8.83906E+01  9.05412E+01
#           9.27442E+01  9.50007E+01  9.73122E+01  9.96799E+01  1.02105E+02
#           1.04589E+02  1.07134E+02  1.09741E+02  1.12411E+02  1.15146E+02
#           1.17948E+02  1.20817E+02  1.23757E+02  1.26768E+02  1.29852E+02
#           1.33012E+02  1.36248E+02  1.39563E+02  1.42959E+02  1.46437E+02
#           1.50000E+02
     unit =    2            # unit is [1/cm^2/(MeV/n)/source]
     axis =  eng            # axis of output
     file = detector-05.out  # file name of output for the above axis
   output = f-curr          # surface crossing forward current spectrum
     part =  neutron  
# kf/name :  2112     
#    used :        main (  %)        temp (  %)       total (  %)
#  memory :         414 (  0)           0 (  0)         414 (  0)

#------------------------------------------------------------------------------
#newpage:
#   no. =    1   reg = 104 - 204

x: Energy [MeV/n]
y:  F-Curr [1/cm^2/(MeV/n)/source]         
p: xlog ylog afac(0.8) form(0.9)
h: n            x            y(neutron ),hh0l   n 
#  e-lower      e-upper      neutron     r.err 
   1.0000E-02   1.0243E-02   1.0686E-05  0.2774
   1.0243E-02   1.0493E-02   3.2099E-06  0.5000
   1.0493E-02   1.0748E-02   3.9171E-06  0.4472
   1.0748E-02   1.1009E-02   7.6481E-06  0.3162
   1.1009E-02   1.1277E-02   2.9866E-06  0.5000
   1.1277E-02   1.1552E-02   2.9156E-06  0.5000
   1.1552E-02   1.1833E-02   5.6928E-06  0.3536
   1.1833E-02   1.2121E-02   6.9469E-06  0.3162
   1.2121E-02   1.2415E-02   8.8165E-06  0.2774
   1.2415E-02   1.2718E-02   5.2967E-06  0.3536
   1.2718E-02   1.3027E-02   5.8172E-06  0.3333
   1.3027E-02   1.3344E-02   3.7860E-06  0.4082
   1.3344E-02   1.3669E-02   3.6961E-06  0.4082
   1.3669E-02   1.4001E-02   4.2097E-06  0.3780
   1.4001E-02   1.4342E-02   4.1097E-06  0.3780
   1.4342E-02   1.4691E-02   6.3047E-06  0.3015
   1.4691E-02   1.5048E-02   7.8335E-06  0.2673
   1.5048E-02   1.5414E-02   4.9162E-06  0.3333
   1.5414E-02   1.5789E-02   5.8660E-06  0.3015
   1.5789E-02   1.6174E-02   5.7267E-06  0.3015
   1.6174E-02   1.6567E-02   6.0989E-06  0.2887
   1.6567E-02   1.6970E-02   3.4732E-06  0.3780
   1.6970E-02   1.7383E-02   5.3282E-06  0.3015
   1.7383E-02   1.7806E-02   5.6745E-06  0.2887
   1.7806E-02   1.8239E-02   6.0014E-06  0.2774
   1.8239E-02   1.8683E-02   7.2109E-06  0.2500
   1.8683E-02   1.9138E-02   4.3997E-06  0.3162
   1.9138E-02   1.9603E-02   9.0200E-06  0.2182
   1.9603E-02   2.0080E-02   6.2898E-06  0.2582
   2.0080E-02   2.0569E-02   3.2749E-06  0.3536
   2.0569E-02   2.1069E-02   9.1917E-06  0.2085
   2.1069E-02   2.1582E-02   1.0534E-05  0.1925
   2.1582E-02   2.2107E-02   8.3793E-06  0.2132
   2.2107E-02   2.2645E-02   4.8338E-06  0.2774
   2.2645E-02   2.3196E-02   5.0820E-06  0.2673
   2.3196E-02   2.3760E-02   7.0875E-06  0.2236
   2.3760E-02   2.4338E-02   5.8813E-06  0.2425
   2.4338E-02   2.4930E-02   7.0926E-06  0.2182
   2.4930E-02   2.5537E-02   1.0221E-05  0.1796
   2.5537E-02   2.6158E-02   6.1159E-06  0.2294
   2.6158E-02   2.6795E-02   5.0279E-06  0.2500
   2.6795E-02   2.7447E-02   4.9085E-06  0.2500
   2.7447E-02   2.8114E-02   5.3908E-06  0.2357
   2.8114E-02   2.8799E-02   7.6018E-06  0.1961
   2.8799E-02   2.9499E-02   8.5630E-06  0.1826
   2.9499E-02   3.0217E-02   8.3596E-06  0.1826
   3.0217E-02   3.0952E-02   5.4407E-06  0.2236
   3.0952E-02   3.1705E-02   6.9049E-06  0.1961
   3.1705E-02   3.2477E-02   6.7409E-06  0.1961
   3.2477E-02   3.3267E-02   5.5683E-06  0.2132
   3.3267E-02   3.4076E-02   7.1657E-06  0.1857
   3.4076E-02   3.4905E-02   6.5131E-06  0.1925
   3.4905E-02   3.5755E-02   6.5939E-06  0.1890
   3.5755E-02   3.6625E-02   5.9774E-06  0.1961
   3.6625E-02   3.7516E-02   6.7332E-06  0.1826
   3.7516E-02   3.8428E-02   7.0115E-06  0.1768
   3.8428E-02   3.9363E-02   4.7059E-06  0.2132
   3.9363E-02   4.0321E-02   8.5618E-06  0.1562
   4.0321E-02   4.1302E-02   4.2811E-06  0.2182
   4.1302E-02   4.2307E-02   7.7618E-06  0.1601
   4.2307E-02   4.3337E-02   7.3832E-06  0.1622
   4.3337E-02   4.4391E-02   8.5356E-06  0.1491
   4.4391E-02   4.5471E-02   7.7773E-06  0.1543
   4.5471E-02   4.6577E-02   6.8695E-06  0.1622
   4.6577E-02   4.7711E-02   8.2946E-06  0.1459
   4.7711E-02   4.8871E-02   7.7530E-06  0.1491
   4.8871E-02   5.0061E-02   8.7463E-06  0.1387
   5.0061E-02   5.1279E-02   5.9113E-06  0.1667
   5.1279E-02   5.2526E-02   6.8930E-06  0.1525
   5.2526E-02   5.3804E-02   7.6682E-06  0.1429
   5.3804E-02   5.5113E-02   7.6388E-06  0.1414
   5.5113E-02   5.6454E-02   7.1591E-06  0.1443
   5.6454E-02   5.7828E-02   7.1347E-06  0.1429
   5.7828E-02   5.9235E-02   8.1024E-06  0.1325
   5.9235E-02   6.0676E-02   6.1059E-06  0.1508
   6.0676E-02   6.2152E-02   8.0117E-06  0.1299
   6.2152E-02   6.3665E-02   6.2160E-06  0.1459
   6.3665E-02   6.5214E-02   8.0051E-06  0.1270
   6.5214E-02   6.6800E-02   6.6805E-06  0.1374
   6.6800E-02   6.8426E-02   7.6293E-06  0.1270
   6.8426E-02   7.0090E-02   1.0211E-05  0.1085
   7.0090E-02   7.1796E-02   7.9749E-06  0.1213
   7.1796E-02   7.3543E-02   8.1289E-06  0.1187
   7.3543E-02   7.5332E-02   7.9358E-06  0.1187
   7.5332E-02   7.7165E-02   8.9476E-06  0.1104
   7.7165E-02   7.9042E-02   8.9482E-06  0.1091
   7.9042E-02   8.0965E-02   8.7356E-06  0.1091
   8.0965E-02   8.2935E-02   6.3961E-06  0.1260
   8.2935E-02   8.4953E-02   8.0419E-06  0.1109
   8.4953E-02   8.7020E-02   7.7408E-06  0.1118
   8.7020E-02   8.9138E-02   8.0292E-06  0.1085
   8.9138E-02   9.1306E-02   8.9451E-06  0.1015
   9.1306E-02   9.3528E-02   7.2022E-06  0.1118
   9.3528E-02   9.5804E-02   8.7010E-06  0.1005
   9.5804E-02   9.8134E-02   8.3227E-06  0.1015
   9.8134E-02   1.0052E-01   8.3763E-06  0.1000
   1.0052E-01   1.0297E-01   9.8537E-06  0.0910
   1.0297E-01   1.0547E-01   8.7016E-06  0.0958
   1.0547E-01   1.0804E-01   9.1184E-06  0.0925
   1.0804E-01   1.1067E-01   8.5214E-06  0.0945
   1.1067E-01   1.1336E-01   8.6161E-06  0.0928
   1.1336E-01   1.1612E-01   1.0007E-05  0.0851
   1.1612E-01   1.1894E-01   9.7690E-06  0.0851
   1.1894E-01   1.2184E-01   8.6385E-06  0.0894
   1.2184E-01   1.2480E-01   8.7032E-06  0.0880
   1.2480E-01   1.2784E-01   8.8917E-06  0.0861
   1.2784E-01   1.3095E-01   9.4521E-06  0.0825
   1.3095E-01   1.3414E-01   9.0392E-06  0.0833
   1.3414E-01   1.3740E-01   9.6825E-06  0.0796
   1.3740E-01   1.4074E-01   1.0769E-05  0.0745
   1.4074E-01   1.4417E-01   8.7607E-06  0.0816
   1.4417E-01   1.4767E-01   7.9254E-06  0.0848
   1.4767E-01   1.5127E-01   7.8485E-06  0.0842
   1.5127E-01   1.5495E-01   9.5640E-06  0.0754
   1.5495E-01   1.5872E-01   1.0504E-05  0.0711
   1.5872E-01   1.6258E-01   8.8043E-06  0.0767
   1.6258E-01   1.6654E-01   7.6851E-06  0.0811
   1.6654E-01   1.7059E-01   9.4276E-06  0.0724
   1.7059E-01   1.7474E-01   8.7218E-06  0.0743
   1.7474E-01   1.7899E-01   9.3849E-06  0.0708
   1.7899E-01   1.8334E-01   8.6338E-06  0.0729
   1.8334E-01   1.8781E-01   9.3377E-06  0.0693
   1.8781E-01   1.9237E-01   9.3666E-06  0.0684
   1.9237E-01   1.9706E-01   8.5886E-06  0.0705
   1.9706E-01   2.0185E-01   8.3552E-06  0.0705
   2.0185E-01   2.0676E-01   6.8823E-06  0.0769
   2.0676E-01   2.1179E-01   8.0705E-06  0.0702
   2.1179E-01   2.1694E-01   7.2384E-06  0.0732
   2.1694E-01   2.2222E-01   8.6010E-06  0.0664
   2.2222E-01   2.2763E-01   8.7357E-06  0.0651
   2.2763E-01   2.3317E-01   8.6306E-06  0.0647
   2.3317E-01   2.3884E-01   8.0026E-06  0.0664
   2.3884E-01   2.4465E-01   8.2599E-06  0.0645
   2.4465E-01   2.5061E-01   8.3997E-06  0.0632
   2.5061E-01   2.5670E-01   9.6489E-06  0.0583
   2.5670E-01   2.6295E-01   9.2863E-06  0.0587
   2.6295E-01   2.6935E-01   8.7889E-06  0.0596
   2.6935E-01   2.7590E-01   8.9809E-06  0.0583
   2.7590E-01   2.8261E-01   8.9381E-06  0.0577
   2.8261E-01   2.8949E-01   8.6676E-06  0.0579
   2.8949E-01   2.9653E-01   8.9728E-06  0.0563
   2.9653E-01   3.0375E-01   9.2864E-06  0.0546
   3.0375E-01   3.1114E-01   9.5025E-06  0.0534
   3.1114E-01   3.1871E-01   8.8680E-06  0.0546
   3.1871E-01   3.2646E-01   8.8466E-06  0.0540
   3.2646E-01   3.3441E-01   9.5681E-06  0.0513
   3.3441E-01   3.4254E-01   1.0668E-05  0.0480
   3.4254E-01   3.5088E-01   1.0247E-05  0.0484
   3.5088E-01   3.5941E-01   9.1835E-06  0.0505
   3.5941E-01   3.6816E-01   9.0111E-06  0.0504
   3.6816E-01   3.7712E-01   1.0114E-05  0.0470
   3.7712E-01   3.8629E-01   1.0332E-05  0.0459
   3.8629E-01   3.9569E-01   1.0086E-05  0.0459
   3.9569E-01   4.0532E-01   1.0660E-05  0.0441
   4.0532E-01   4.1518E-01   9.4549E-06  0.0463
   4.1518E-01   4.2528E-01   1.0061E-05  0.0444
   4.2528E-01   4.3563E-01   1.0766E-05  0.0424
   4.3563E-01   4.4623E-01   1.0793E-05  0.0418
   4.4623E-01   4.5708E-01   1.1053E-05  0.0408
   4.5708E-01   4.6821E-01   1.1240E-05  0.0400
   4.6821E-01   4.7960E-01   1.1306E-05  0.0394
   4.7960E-01   4.9127E-01   1.1796E-05  0.0381
   4.9127E-01   5.0322E-01   1.1805E-05  0.0376
   5.0322E-01   5.1546E-01   1.2055E-05  0.0368
   5.1546E-01   5.2800E-01   1.1253E-05  0.0376
   5.2800E-01   5.4085E-01   1.2081E-05  0.0359
   5.4085E-01   5.5401E-01   1.2071E-05  0.0355
   5.5401E-01   5.6749E-01   1.2080E-05  0.0350
   5.6749E-01   5.8130E-01   1.2713E-05  0.0337
   5.8130E-01   5.9544E-01   1.2536E-05  0.0336
   5.9544E-01   6.0993E-01   1.2765E-05  0.0329
   6.0993E-01   6.2477E-01   1.2785E-05  0.0325
   6.2477E-01   6.3997E-01   1.2683E-05  0.0322
   6.3997E-01   6.5554E-01   1.2960E-05  0.0315
   6.5554E-01   6.7149E-01   1.2976E-05  0.0311
   6.7149E-01   6.8783E-01   1.3166E-05  0.0305
   6.8783E-01   7.0456E-01   1.2771E-05  0.0306
   7.0456E-01   7.2171E-01   1.2839E-05  0.0301
   7.2171E-01   7.3927E-01   1.3865E-05  0.0287
   7.3927E-01   7.5725E-01   1.3912E-05  0.0283
   7.5725E-01   7.7568E-01   1.3748E-05  0.0281
   7.7568E-01   7.9455E-01   1.4591E-05  0.0269
   7.9455E-01   8.1388E-01   1.3888E-05  0.0273
   8.1388E-01   8.3368E-01   1.3655E-05  0.0272
   8.3368E-01   8.5397E-01   1.4269E-05  0.0263
   8.5397E-01   8.7475E-01   1.4424E-05  0.0258
   8.7475E-01   8.9603E-01   1.3423E-05  0.0265
   8.9603E-01   9.1783E-01   1.3163E-05  0.0264
   9.1783E-01   9.4016E-01   1.3677E-05  0.0256
   9.4016E-01   9.6304E-01   1.3972E-05  0.0250
   9.6304E-01   9.8647E-01   1.3529E-05  0.0251
   9.8647E-01   1.0105E+00   1.3827E-05  0.0245
   1.0105E+00   1.0351E+00   1.3562E-05  0.0245
   1.0351E+00   1.0602E+00   1.3434E-05  0.0243
   1.0602E+00   1.0860E+00   1.3847E-05  0.0237
   1.0860E+00   1.1125E+00   1.3223E-05  0.0239
   1.1125E+00   1.1395E+00   1.3949E-05  0.0230
   1.1395E+00   1.1673E+00   1.3684E-05  0.0230
   1.1673E+00   1.1957E+00   1.4159E-05  0.0223
   1.1957E+00   1.2247E+00   1.4096E-05  0.0221
   1.2247E+00   1.2545E+00   1.4188E-05  0.0217
   1.2545E+00   1.2851E+00   1.3785E-05  0.0218
   1.2851E+00   1.3163E+00   1.3485E-05  0.0218
   1.3163E+00   1.3484E+00   1.3932E-05  0.0212
   1.3484E+00   1.3812E+00   1.3649E-05  0.0211
   1.3812E+00   1.4148E+00   1.4196E-05  0.0205
   1.4148E+00   1.4492E+00   1.4156E-05  0.0203
   1.4492E+00   1.4845E+00   1.3700E-05  0.0203
   1.4845E+00   1.5206E+00   1.4483E-05  0.0196
   1.5206E+00   1.5576E+00   1.4227E-05  0.0195
   1.5576E+00   1.5955E+00   1.4283E-05  0.0192
   1.5955E+00   1.6343E+00   1.4606E-05  0.0188
   1.6343E+00   1.6741E+00   1.4575E-05  0.0186
   1.6741E+00   1.7148E+00   1.4772E-05  0.0182
   1.7148E+00   1.7565E+00   1.4466E-05  0.0182
   1.7565E+00   1.7992E+00   1.5196E-05  0.0175
   1.7992E+00   1.8430E+00   1.5199E-05  0.0173
   1.8430E+00   1.8879E+00   1.5557E-05  0.0169
   1.8879E+00   1.9338E+00   1.5878E-05  0.0166
   1.9338E+00   1.9808E+00   1.6581E-05  0.0160
   1.9808E+00   2.0290E+00   1.6834E-05  0.0157
   2.0290E+00   2.0784E+00   1.7382E-05  0.0153
   2.0784E+00   2.1290E+00   1.7468E-05  0.0150
   2.1290E+00   2.1808E+00   1.7317E-05  0.0149
   2.1808E+00   2.2338E+00   1.7381E-05  0.0147
   2.2338E+00   2.2882E+00   1.7674E-05  0.0144
   2.2882E+00   2.3439E+00   1.7952E-05  0.0141
   2.3439E+00   2.4009E+00   1.8670E-05  0.0137
   2.4009E+00   2.4593E+00   1.8120E-05  0.0137
   2.4593E+00   2.5191E+00   1.8327E-05  0.0135
   2.5191E+00   2.5804E+00   1.8817E-05  0.0132
   2.5804E+00   2.6432E+00   1.8182E-05  0.0132
   2.6432E+00   2.7075E+00   1.8987E-05  0.0128
   2.7075E+00   2.7734E+00   1.8667E-05  0.0128
   2.7734E+00   2.8409E+00   1.8880E-05  0.0125
   2.8409E+00   2.9100E+00   1.8709E-05  0.0124
   2.9100E+00   2.9808E+00   1.8495E-05  0.0124
   2.9808E+00   3.0533E+00   1.9282E-05  0.0120
   3.0533E+00   3.1276E+00   1.9121E-05  0.0119
   3.1276E+00   3.2037E+00   1.9067E-05  0.0117
   3.2037E+00   3.2817E+00   1.8726E-05  0.0117
   3.2817E+00   3.3615E+00   1.9693E-05  0.0113
   3.3615E+00   3.4433E+00   1.9781E-05  0.0111
   3.4433E+00   3.5271E+00   1.9972E-05  0.0109
   3.5271E+00   3.6129E+00   2.0140E-05  0.0108
   3.6129E+00   3.7008E+00   1.9552E-05  0.0108
   3.7008E+00   3.7908E+00   2.0088E-05  0.0105
   3.7908E+00   3.8831E+00   1.9989E-05  0.0104
   3.8831E+00   3.9776E+00   2.0312E-05  0.0102
   3.9776E+00   4.0743E+00   2.0719E-05  0.0100
   4.0743E+00   4.1735E+00   2.0516E-05  0.0099
   4.1735E+00   4.2750E+00   2.0763E-05  0.0097
   4.2750E+00   4.3790E+00   2.0837E-05  0.0096
   4.3790E+00   4.4856E+00   2.0977E-05  0.0095
   4.4856E+00   4.5947E+00   2.0944E-05  0.0094
   4.5947E+00   4.7065E+00   2.1330E-05  0.0092
   4.7065E+00   4.8210E+00   2.1285E-05  0.0091
   4.8210E+00   4.9383E+00   2.0998E-05  0.0090
   4.9383E+00   5.0585E+00   2.1407E-05  0.0088
   5.0585E+00   5.1815E+00   2.1018E-05  0.0088
   5.1815E+00   5.3076E+00   2.1363E-05  0.0086
   5.3076E+00   5.4368E+00   2.2011E-05  0.0084
   5.4368E+00   5.5690E+00   2.1574E-05  0.0084
   5.5690E+00   5.7045E+00   2.2265E-05  0.0081
   5.7045E+00   5.8433E+00   2.1926E-05  0.0081
   5.8433E+00   5.9855E+00   2.2067E-05  0.0080
   5.9855E+00   6.1311E+00   2.1765E-05  0.0079
   6.1311E+00   6.2803E+00   2.1587E-05  0.0079
   6.2803E+00   6.4331E+00   2.1768E-05  0.0078
   6.4331E+00   6.5896E+00   2.1448E-05  0.0077
   6.5896E+00   6.7500E+00   2.1141E-05  0.0077
   6.7500E+00   6.9142E+00   2.0952E-05  0.0076
   6.9142E+00   7.0824E+00   2.0609E-05  0.0076
   7.0824E+00   7.2548E+00   2.0426E-05  0.0075
   7.2548E+00   7.4313E+00   2.0248E-05  0.0075
   7.4313E+00   7.6121E+00   1.9825E-05  0.0075
   7.6121E+00   7.7973E+00   1.9137E-05  0.0075
   7.7973E+00   7.9870E+00   1.8633E-05  0.0075
   7.9870E+00   8.1813E+00   1.8250E-05  0.0075
   8.1813E+00   8.3804E+00   1.7686E-05  0.0075
   8.3804E+00   8.5843E+00   1.6387E-05  0.0077
   8.5843E+00   8.7931E+00   1.5650E-05  0.0078
   8.7931E+00   9.0071E+00   1.4651E-05  0.0080
   9.0071E+00   9.2262E+00   1.3424E-05  0.0082
   9.2262E+00   9.4507E+00   1.2799E-05  0.0083
   9.4507E+00   9.6807E+00   1.2627E-05  0.0083
   9.6807E+00   9.9162E+00   1.1764E-05  0.0085
   9.9162E+00   1.0157E+01   1.1034E-05  0.0087
   1.0157E+01   1.0405E+01   1.0304E-05  0.0089
   1.0405E+01   1.0658E+01   9.6816E-06  0.0090
   1.0658E+01   1.0917E+01   9.0085E-06  0.0093
   1.0917E+01   1.1183E+01   8.1538E-06  0.0096
   1.1183E+01   1.1455E+01   7.3992E-06  0.0100
   1.1455E+01   1.1733E+01   6.5259E-06  0.0105
   1.1733E+01   1.2019E+01   5.8414E-06  0.0110
   1.2019E+01   1.2311E+01   5.1480E-06  0.0115
   1.2311E+01   1.2611E+01   4.4908E-06  0.0122
   1.2611E+01   1.2918E+01   3.7363E-06  0.0132
   1.2918E+01   1.3232E+01   3.1932E-06  0.0141
   1.3232E+01   1.3554E+01   2.6329E-06  0.0154
   1.3554E+01   1.3884E+01   2.1944E-06  0.0166
   1.3884E+01   1.4222E+01   1.6826E-06  0.0188
   1.4222E+01   1.4568E+01   1.3589E-06  0.0206
   1.4568E+01   1.4922E+01   9.4458E-07  0.0244
   1.4922E+01   1.5285E+01   5.8557E-07  0.0307
   1.5285E+01   1.5657E+01   5.0336E-07  0.0327
   1.5657E+01   1.6038E+01   5.1503E-07  0.0319
   1.6038E+01   1.6428E+01   4.8742E-07  0.0324
   1.6428E+01   1.6828E+01   4.8635E-07  0.0321
   1.6828E+01   1.7237E+01   4.8848E-07  0.0316
   1.7237E+01   1.7657E+01   4.7878E-07  0.0316
   1.7657E+01   1.8086E+01   4.9022E-07  0.0308
   1.8086E+01   1.8526E+01   4.8630E-07  0.0306
   1.8526E+01   1.8977E+01   4.5479E-07  0.0312
   1.8977E+01   1.9439E+01   4.4398E-07  0.0312
   1.9439E+01   1.9912E+01   4.5416E-07  0.0305
   1.9912E+01   2.0396E+01   4.1530E-07  0.0315
   2.0396E+01   2.0893E+01   4.0382E-07  0.0316
   2.0893E+01   2.1401E+01   3.4584E-07  0.0337
   2.1401E+01   2.1922E+01   3.3877E-07  0.0337
   2.1922E+01   2.2455E+01   3.4985E-07  0.0327
   2.2455E+01   2.3001E+01   3.6277E-07  0.0318
   2.3001E+01   2.3561E+01   3.4093E-07  0.0324
   2.3561E+01   2.4134E+01   3.4923E-07  0.0316
   2.4134E+01   2.4721E+01   3.4775E-07  0.0313
   2.4721E+01   2.5323E+01   3.6110E-07  0.0303
   2.5323E+01   2.5939E+01   4.5705E-07  0.0267
   2.5939E+01   2.6570E+01   4.9278E-07  0.0254
   2.6570E+01   2.7217E+01   5.2933E-07  0.0242
   2.7217E+01   2.7879E+01   5.5814E-07  0.0233
   2.7879E+01   2.8557E+01   5.5933E-07  0.0230
   2.8557E+01   2.9252E+01   6.8565E-07  0.0205
   2.9252E+01   2.9964E+01   6.0473E-07  0.0216
   2.9964E+01   3.0693E+01   4.4661E-07  0.0248
   3.0693E+01   3.1440E+01   3.7709E-07  0.0267
   3.1440E+01   3.2205E+01   2.9309E-07  0.0299
   3.2205E+01   3.2988E+01   2.6112E-07  0.0313
   3.2988E+01   3.3791E+01   4.9836E-09  0.2236
   3.3791E+01   3.4613E+01   0.0000E+00  0.0000
   3.4613E+01   3.5455E+01   0.0000E+00  0.0000
   3.5455E+01   3.6318E+01   0.0000E+00  0.0000
   3.6318E+01   3.7201E+01   0.0000E+00  0.0000
   3.7201E+01   3.8106E+01   0.0000E+00  0.0000
   3.8106E+01   3.9034E+01   0.0000E+00  0.0000
   3.9034E+01   3.9983E+01   0.0000E+00  0.0000
   3.9983E+01   4.0956E+01   0.0000E+00  0.0000
   4.0956E+01   4.1953E+01   0.0000E+00  0.0000
   4.1953E+01   4.2973E+01   0.0000E+00  0.0000
   4.2973E+01   4.4019E+01   0.0000E+00  0.0000
   4.4019E+01   4.5090E+01   0.0000E+00  0.0000
   4.5090E+01   4.6187E+01   0.0000E+00  0.0000
   4.6187E+01   4.7311E+01   0.0000E+00  0.0000
   4.7311E+01   4.8462E+01   0.0000E+00  0.0000
   4.8462E+01   4.9641E+01   0.0000E+00  0.0000
   4.9641E+01   5.0849E+01   0.0000E+00  0.0000
   5.0849E+01   5.2086E+01   0.0000E+00  0.0000
   5.2086E+01   5.3353E+01   0.0000E+00  0.0000
   5.3353E+01   5.4651E+01   0.0000E+00  0.0000
   5.4651E+01   5.5981E+01   0.0000E+00  0.0000
   5.5981E+01   5.7343E+01   0.0000E+00  0.0000
   5.7343E+01   5.8738E+01   0.0000E+00  0.0000
   5.8738E+01   6.0168E+01   0.0000E+00  0.0000
   6.0168E+01   6.1632E+01   0.0000E+00  0.0000
   6.1632E+01   6.3131E+01   0.0000E+00  0.0000
   6.3131E+01   6.4667E+01   0.0000E+00  0.0000
   6.4667E+01   6.6240E+01   0.0000E+00  0.0000
   6.6240E+01   6.7852E+01   0.0000E+00  0.0000
   6.7852E+01   6.9503E+01   0.0000E+00  0.0000
   6.9503E+01   7.1194E+01   0.0000E+00  0.0000
   7.1194E+01   7.2926E+01   0.0000E+00  0.0000
   7.2926E+01   7.4701E+01   0.0000E+00  0.0000
   7.4701E+01   7.6518E+01   0.0000E+00  0.0000
   7.6518E+01   7.8380E+01   0.0000E+00  0.0000
   7.8380E+01   8.0287E+01   0.0000E+00  0.0000
   8.0287E+01   8.2240E+01   0.0000E+00  0.0000
   8.2240E+01   8.4241E+01   0.0000E+00  0.0000
   8.4241E+01   8.6291E+01   0.0000E+00  0.0000
   8.6291E+01   8.8391E+01   0.0000E+00  0.0000
   8.8391E+01   9.0541E+01   0.0000E+00  0.0000
   9.0541E+01   9.2744E+01   0.0000E+00  0.0000
   9.2744E+01   9.5001E+01   0.0000E+00  0.0000
   9.5001E+01   9.7312E+01   0.0000E+00  0.0000
   9.7312E+01   9.9680E+01   0.0000E+00  0.0000
   9.9680E+01   1.0211E+02   0.0000E+00  0.0000
   1.0211E+02   1.0459E+02   0.0000E+00  0.0000
   1.0459E+02   1.0713E+02   0.0000E+00  0.0000
   1.0713E+02   1.0974E+02   0.0000E+00  0.0000
   1.0974E+02   1.1241E+02   0.0000E+00  0.0000
   1.1241E+02   1.1515E+02   0.0000E+00  0.0000
   1.1515E+02   1.1795E+02   0.0000E+00  0.0000
   1.1795E+02   1.2082E+02   0.0000E+00  0.0000
   1.2082E+02   1.2376E+02   0.0000E+00  0.0000
   1.2376E+02   1.2677E+02   0.0000E+00  0.0000
   1.2677E+02   1.2985E+02   0.0000E+00  0.0000
   1.2985E+02   1.3301E+02   0.0000E+00  0.0000
   1.3301E+02   1.3625E+02   0.0000E+00  0.0000
   1.3625E+02   1.3956E+02   0.0000E+00  0.0000
   1.3956E+02   1.4296E+02   0.0000E+00  0.0000
   1.4296E+02   1.4644E+02   0.0000E+00  0.0000
   1.4644E+02   1.5000E+02   0.0000E+00  0.0000

#   sum over                 1.3933E-06
'no. =    1   reg = 104 - 204'
msuc: {\huge [t-cross] in region mesh}
msdr: {\it plotted by \ANGEL \version}
msdl: {\it calculated by \PHITS  3.26}
wt: s(0.7)
\vspace{-3}
  region surface crossing
  area  &=&   1.0000E+00 [cm^2]
e:
 
# Information for Restart Calculation
# This calculation was newly started
# istdev =  2 # 1:Batch variance, 2:History variance
# resc2  = 5.00000000000000000E+09 # Total source weight or Total source weight / maxcas
# resc3  = 5.00000000000000000E+09 # Total history number or Total batch number
# maxcas =   500000000 # History / Batch, only used for istdev=1
# bitrseed = 0110100000100010111000001110001111001110100100011111101000111001 # bit data of rseed
