[ T-Cross ]
    title = [t-cross] in region mesh
     mesh =  reg            # mesh type is region-wise
      reg =    1            # number of crossing regions
      non     r-from    r-to       area
      1       121       221        1.000000    
   e-type =    3            # e-mesh is log given by emin, emax and ne
     emin =  1.0000000E-02  # minimum value of e-mesh points
     emax =   150.0000      # maximum value of e-mesh points
#    edel =  2.4039514E-02  # mesh width of e-mesh points
       ne =    400          # number of e-mesh points
#    data = ( e(i), i = 1, ne + 1 )
#           1.00000E-02  1.02433E-02  1.04925E-02  1.07478E-02  1.10093E-02
#           1.12772E-02  1.15516E-02  1.18326E-02  1.21205E-02  1.24154E-02
#           1.27175E-02  1.30269E-02  1.33439E-02  1.36686E-02  1.40011E-02
#           1.43418E-02  1.46907E-02  1.50482E-02  1.54143E-02  1.57894E-02
#           1.61735E-02  1.65670E-02  1.69701E-02  1.73830E-02  1.78060E-02
#           1.82392E-02  1.86830E-02  1.91375E-02  1.96032E-02  2.00801E-02
#           2.05687E-02  2.10692E-02  2.15818E-02  2.21069E-02  2.26448E-02
#           2.31957E-02  2.37601E-02  2.43382E-02  2.49304E-02  2.55369E-02
#           2.61583E-02  2.67947E-02  2.74467E-02  2.81145E-02  2.87985E-02
#           2.94992E-02  3.02169E-02  3.09521E-02  3.17052E-02  3.24766E-02
#           3.32668E-02  3.40762E-02  3.49053E-02  3.57546E-02  3.66246E-02
#           3.75157E-02  3.84284E-02  3.93634E-02  4.03212E-02  4.13022E-02
#           4.23071E-02  4.33365E-02  4.43909E-02  4.54710E-02  4.65773E-02
#           4.77106E-02  4.88714E-02  5.00605E-02  5.12785E-02  5.25262E-02
#           5.38042E-02  5.51133E-02  5.64542E-02  5.78278E-02  5.92348E-02
#           6.06760E-02  6.21523E-02  6.36645E-02  6.52135E-02  6.68002E-02
#           6.84255E-02  7.00904E-02  7.17957E-02  7.35426E-02  7.53319E-02
#           7.71648E-02  7.90423E-02  8.09655E-02  8.29354E-02  8.49533E-02
#           8.70203E-02  8.91376E-02  9.13064E-02  9.35279E-02  9.58035E-02
#           9.81345E-02  1.00522E-01  1.02968E-01  1.05473E-01  1.08040E-01
#           1.10668E-01  1.13361E-01  1.16119E-01  1.18944E-01  1.21838E-01
#           1.24803E-01  1.27839E-01  1.30950E-01  1.34136E-01  1.37399E-01
#           1.40742E-01  1.44167E-01  1.47675E-01  1.51268E-01  1.54948E-01
#           1.58718E-01  1.62580E-01  1.66535E-01  1.70587E-01  1.74738E-01
#           1.78989E-01  1.83344E-01  1.87805E-01  1.92375E-01  1.97055E-01
#           2.01850E-01  2.06761E-01  2.11792E-01  2.16945E-01  2.22223E-01
#           2.27630E-01  2.33169E-01  2.38842E-01  2.44653E-01  2.50605E-01
#           2.56703E-01  2.62949E-01  2.69346E-01  2.75900E-01  2.82613E-01
#           2.89489E-01  2.96532E-01  3.03747E-01  3.11138E-01  3.18708E-01
#           3.26462E-01  3.34405E-01  3.42542E-01  3.50876E-01  3.59413E-01
#           3.68158E-01  3.77116E-01  3.86291E-01  3.95690E-01  4.05317E-01
#           4.15179E-01  4.25281E-01  4.35628E-01  4.46227E-01  4.57084E-01
#           4.68205E-01  4.79597E-01  4.91266E-01  5.03219E-01  5.15463E-01
#           5.28005E-01  5.40851E-01  5.54011E-01  5.67490E-01  5.81298E-01
#           5.95441E-01  6.09929E-01  6.24769E-01  6.39970E-01  6.55541E-01
#           6.71491E-01  6.87828E-01  7.04564E-01  7.21706E-01  7.39266E-01
#           7.57253E-01  7.75678E-01  7.94551E-01  8.13883E-01  8.33685E-01
#           8.53969E-01  8.74747E-01  8.96030E-01  9.17831E-01  9.40163E-01
#           9.63038E-01  9.86469E-01  1.01047E+00  1.03506E+00  1.06024E+00
#           1.08604E+00  1.11246E+00  1.13953E+00  1.16725E+00  1.19565E+00
#           1.22474E+00  1.25454E+00  1.28507E+00  1.31633E+00  1.34836E+00
#           1.38117E+00  1.41477E+00  1.44920E+00  1.48446E+00  1.52057E+00
#           1.55757E+00  1.59547E+00  1.63429E+00  1.67405E+00  1.71478E+00
#           1.75650E+00  1.79924E+00  1.84302E+00  1.88786E+00  1.93379E+00
#           1.98084E+00  2.02904E+00  2.07841E+00  2.12898E+00  2.18078E+00
#           2.23384E+00  2.28819E+00  2.34386E+00  2.40089E+00  2.45930E+00
#           2.51914E+00  2.58043E+00  2.64322E+00  2.70753E+00  2.77341E+00
#           2.84088E+00  2.91001E+00  2.98081E+00  3.05333E+00  3.12762E+00
#           3.20372E+00  3.28167E+00  3.36152E+00  3.44330E+00  3.52708E+00
#           3.61290E+00  3.70080E+00  3.79085E+00  3.88308E+00  3.97756E+00
#           4.07434E+00  4.17347E+00  4.27501E+00  4.37903E+00  4.48557E+00
#           4.59471E+00  4.70650E+00  4.82102E+00  4.93832E+00  5.05847E+00
#           5.18155E+00  5.30762E+00  5.43676E+00  5.56904E+00  5.70453E+00
#           5.84333E+00  5.98550E+00  6.13114E+00  6.28031E+00  6.43312E+00
#           6.58964E+00  6.74997E+00  6.91420E+00  7.08243E+00  7.25475E+00
#           7.43126E+00  7.61207E+00  7.79728E+00  7.98700E+00  8.18133E+00
#           8.38038E+00  8.58428E+00  8.79315E+00  9.00709E+00  9.22624E+00
#           9.45072E+00  9.68067E+00  9.91620E+00  1.01575E+01  1.04046E+01
#           1.06578E+01  1.09171E+01  1.11827E+01  1.14548E+01  1.17335E+01
#           1.20190E+01  1.23114E+01  1.26109E+01  1.29178E+01  1.32321E+01
#           1.35540E+01  1.38838E+01  1.42216E+01  1.45676E+01  1.49221E+01
#           1.52851E+01  1.56570E+01  1.60380E+01  1.64282E+01  1.68279E+01
#           1.72374E+01  1.76568E+01  1.80864E+01  1.85264E+01  1.89772E+01
#           1.94389E+01  1.99119E+01  2.03963E+01  2.08926E+01  2.14009E+01
#           2.19216E+01  2.24550E+01  2.30014E+01  2.35610E+01  2.41343E+01
#           2.47215E+01  2.53230E+01  2.59391E+01  2.65702E+01  2.72167E+01
#           2.78789E+01  2.85572E+01  2.92520E+01  2.99637E+01  3.06928E+01
#           3.14396E+01  3.22045E+01  3.29881E+01  3.37907E+01  3.46128E+01
#           3.54550E+01  3.63177E+01  3.72013E+01  3.81064E+01  3.90336E+01
#           3.99833E+01  4.09561E+01  4.19526E+01  4.29734E+01  4.40189E+01
#           4.50900E+01  4.61870E+01  4.73108E+01  4.84619E+01  4.96410E+01
#           5.08488E+01  5.20860E+01  5.33533E+01  5.46514E+01  5.59812E+01
#           5.73432E+01  5.87384E+01  6.01676E+01  6.16315E+01  6.31311E+01
#           6.46671E+01  6.62405E+01  6.78522E+01  6.95031E+01  7.11941E+01
#           7.29263E+01  7.47007E+01  7.65182E+01  7.83800E+01  8.02870E+01
#           8.22405E+01  8.42414E+01  8.62911E+01  8.83906E+01  9.05412E+01
#           9.27442E+01  9.50007E+01  9.73122E+01  9.96799E+01  1.02105E+02
#           1.04589E+02  1.07134E+02  1.09741E+02  1.12411E+02  1.15146E+02
#           1.17948E+02  1.20817E+02  1.23757E+02  1.26768E+02  1.29852E+02
#           1.33012E+02  1.36248E+02  1.39563E+02  1.42959E+02  1.46437E+02
#           1.50000E+02
     unit =    2            # unit is [1/cm^2/(MeV/n)/source]
     axis =  eng            # axis of output
     file = detector-22.out  # file name of output for the above axis
   output = f-curr          # surface crossing forward current spectrum
     part =  neutron  
# kf/name :  2112     
#    used :        main (  %)        temp (  %)       total (  %)
#  memory :         414 (  0)           0 (  0)         414 (  0)

#------------------------------------------------------------------------------
#newpage:
#   no. =    1   reg = 121 - 221

x: Energy [MeV/n]
y:  F-Curr [1/cm^2/(MeV/n)/source]         
p: xlog ylog afac(0.8) form(0.9)
h: n            x            y(neutron ),hh0l   n 
#  e-lower      e-upper      neutron     r.err 
   1.0000E-02   1.0243E-02   9.3708E-05  0.0937
   1.0243E-02   1.0493E-02   1.0994E-04  0.0854
   1.0493E-02   1.0748E-02   1.0419E-04  0.0867
   1.0748E-02   1.1009E-02   1.0248E-04  0.0864
   1.1009E-02   1.1277E-02   1.0602E-04  0.0839
   1.1277E-02   1.1552E-02   9.3300E-05  0.0884
   1.1552E-02   1.1833E-02   1.0033E-04  0.0842
   1.1833E-02   1.2121E-02   1.0837E-04  0.0801
   1.2121E-02   1.2415E-02   9.6981E-05  0.0836
   1.2415E-02   1.2718E-02   1.0858E-04  0.0781
   1.2718E-02   1.3027E-02   1.0665E-04  0.0778
   1.3027E-02   1.3344E-02   9.8436E-05  0.0801
   1.3344E-02   1.3669E-02   9.6714E-05  0.0798
   1.3669E-02   1.4001E-02   9.2613E-05  0.0806
   1.4001E-02   1.4342E-02   1.0626E-04  0.0743
   1.4342E-02   1.4691E-02   1.0317E-04  0.0745
   1.4691E-02   1.5048E-02   9.1764E-05  0.0781
   1.5048E-02   1.5414E-02   1.0051E-04  0.0737
   1.5414E-02   1.5789E-02   1.0825E-04  0.0702
   1.5789E-02   1.6174E-02   9.7874E-05  0.0729
   1.6174E-02   1.6567E-02   1.0927E-04  0.0682
   1.6567E-02   1.6970E-02   1.0420E-04  0.0690
   1.6970E-02   1.7383E-02   1.0802E-04  0.0670
   1.7383E-02   1.7806E-02   1.0592E-04  0.0668
   1.7806E-02   1.8239E-02   8.8174E-05  0.0724
   1.8239E-02   1.8683E-02   1.1988E-04  0.0613
   1.8683E-02   1.9138E-02   9.5035E-05  0.0680
   1.9138E-02   1.9603E-02   1.0094E-04  0.0652
   1.9603E-02   2.0080E-02   1.0441E-04  0.0634
   2.0080E-02   2.0569E-02   1.1421E-04  0.0599
   2.0569E-02   2.1069E-02   1.2109E-04  0.0574
   2.1069E-02   2.1582E-02   1.0924E-04  0.0598
   2.1582E-02   2.2107E-02   1.0893E-04  0.0591
   2.2107E-02   2.2645E-02   1.0523E-04  0.0594
   2.2645E-02   2.3196E-02   1.1108E-04  0.0572
   2.3196E-02   2.3760E-02   9.9934E-05  0.0595
   2.3760E-02   2.4338E-02   1.0829E-04  0.0565
   2.4338E-02   2.4930E-02   1.2159E-04  0.0527
   2.4930E-02   2.5537E-02   1.0815E-04  0.0552
   2.5537E-02   2.6158E-02   1.0365E-04  0.0557
   2.6158E-02   2.6795E-02   1.2098E-04  0.0510
   2.6795E-02   2.7447E-02   1.1811E-04  0.0510
   2.7447E-02   2.8114E-02   1.1171E-04  0.0518
   2.8114E-02   2.8799E-02   1.2163E-04  0.0490
   2.8799E-02   2.9499E-02   1.1189E-04  0.0505
   2.9499E-02   3.0217E-02   1.1369E-04  0.0495
   3.0217E-02   3.0952E-02   1.1779E-04  0.0481
   3.0952E-02   3.1705E-02   1.2084E-04  0.0469
   3.1705E-02   3.2477E-02   1.0759E-04  0.0491
   3.2477E-02   3.3267E-02   1.0757E-04  0.0485
   3.3267E-02   3.4076E-02   1.2305E-04  0.0448
   3.4076E-02   3.4905E-02   1.1989E-04  0.0449
   3.4905E-02   3.5755E-02   1.2104E-04  0.0441
   3.5755E-02   3.6625E-02   1.2231E-04  0.0434
   3.6625E-02   3.7516E-02   1.0728E-04  0.0457
   3.7516E-02   3.8428E-02   1.2511E-04  0.0418
   3.8428E-02   3.9363E-02   1.2556E-04  0.0413
   3.9363E-02   4.0321E-02   1.1632E-04  0.0424
   4.0321E-02   4.1302E-02   1.1396E-04  0.0423
   4.1302E-02   4.2307E-02   1.1961E-04  0.0408
   4.2307E-02   4.3337E-02   1.1619E-04  0.0409
   4.3337E-02   4.4391E-02   1.1305E-04  0.0410
   4.4391E-02   4.5471E-02   1.1425E-04  0.0403
   4.5471E-02   4.6577E-02   1.1660E-04  0.0394
   4.6577E-02   4.7711E-02   1.2601E-04  0.0374
   4.7711E-02   4.8871E-02   1.2267E-04  0.0375
   4.8871E-02   5.0061E-02   1.2161E-04  0.0372
   5.0061E-02   5.1279E-02   1.2167E-04  0.0367
   5.1279E-02   5.2526E-02   1.2279E-04  0.0361
   5.2526E-02   5.3804E-02   1.1534E-04  0.0368
   5.3804E-02   5.5113E-02   1.2436E-04  0.0350
   5.5113E-02   5.6454E-02   1.2543E-04  0.0345
   5.6454E-02   5.7828E-02   1.2333E-04  0.0344
   5.7828E-02   5.9235E-02   1.2026E-04  0.0344
   5.9235E-02   6.0676E-02   1.2684E-04  0.0331
   6.0676E-02   6.2152E-02   1.2802E-04  0.0325
   6.2152E-02   6.3665E-02   1.3298E-04  0.0315
   6.3665E-02   6.5214E-02   1.2447E-04  0.0322
   6.5214E-02   6.6800E-02   1.1716E-04  0.0328
   6.6800E-02   6.8426E-02   1.3068E-04  0.0307
   6.8426E-02   7.0090E-02   1.2938E-04  0.0305
   7.0090E-02   7.1796E-02   1.2889E-04  0.0302
   7.1796E-02   7.3543E-02   1.3396E-04  0.0292
   7.3543E-02   7.5332E-02   1.3927E-04  0.0283
   7.5332E-02   7.7165E-02   1.3280E-04  0.0287
   7.7165E-02   7.9042E-02   1.3145E-04  0.0285
   7.9042E-02   8.0965E-02   1.3530E-04  0.0277
   8.0965E-02   8.2935E-02   1.2721E-04  0.0283
   8.2935E-02   8.4953E-02   1.3579E-04  0.0270
   8.4953E-02   8.7020E-02   1.3662E-04  0.0266
   8.7020E-02   8.9138E-02   1.3215E-04  0.0267
   8.9138E-02   9.1306E-02   1.4072E-04  0.0256
   9.1306E-02   9.3528E-02   1.3693E-04  0.0256
   9.3528E-02   9.5804E-02   1.3482E-04  0.0255
   9.5804E-02   9.8134E-02   1.3651E-04  0.0251
   9.8134E-02   1.0052E-01   1.3553E-04  0.0249
   1.0052E-01   1.0297E-01   1.4588E-04  0.0237
   1.0297E-01   1.0547E-01   1.3931E-04  0.0239
   1.0547E-01   1.0804E-01   1.3592E-04  0.0239
   1.0804E-01   1.1067E-01   1.3939E-04  0.0234
   1.1067E-01   1.1336E-01   1.4358E-04  0.0227
   1.1336E-01   1.1612E-01   1.4756E-04  0.0222
   1.1612E-01   1.1894E-01   1.4873E-04  0.0218
   1.1894E-01   1.2184E-01   1.4748E-04  0.0216
   1.2184E-01   1.2480E-01   1.4462E-04  0.0216
   1.2480E-01   1.2784E-01   1.4576E-04  0.0213
   1.2784E-01   1.3095E-01   1.5168E-04  0.0206
   1.3095E-01   1.3414E-01   1.4733E-04  0.0206
   1.3414E-01   1.3740E-01   1.4438E-04  0.0206
   1.3740E-01   1.4074E-01   1.5256E-04  0.0198
   1.4074E-01   1.4417E-01   1.5209E-04  0.0196
   1.4417E-01   1.4767E-01   1.5777E-04  0.0190
   1.4767E-01   1.5127E-01   1.4907E-04  0.0193
   1.5127E-01   1.5495E-01   1.5916E-04  0.0185
   1.5495E-01   1.5872E-01   1.5172E-04  0.0187
   1.5872E-01   1.6258E-01   1.5646E-04  0.0182
   1.6258E-01   1.6654E-01   1.5102E-04  0.0183
   1.6654E-01   1.7059E-01   1.5763E-04  0.0177
   1.7059E-01   1.7474E-01   1.5940E-04  0.0174
   1.7474E-01   1.7899E-01   1.5971E-04  0.0172
   1.7899E-01   1.8334E-01   1.5954E-04  0.0170
   1.8334E-01   1.8781E-01   1.6306E-04  0.0166
   1.8781E-01   1.9237E-01   1.6186E-04  0.0164
   1.9237E-01   1.9706E-01   1.6164E-04  0.0163
   1.9706E-01   2.0185E-01   1.6423E-04  0.0159
   2.0185E-01   2.0676E-01   1.6750E-04  0.0156
   2.0676E-01   2.1179E-01   1.6149E-04  0.0157
   2.1179E-01   2.1694E-01   1.7178E-04  0.0150
   2.1694E-01   2.2222E-01   1.6808E-04  0.0150
   2.2222E-01   2.2763E-01   1.7063E-04  0.0147
   2.2763E-01   2.3317E-01   1.7160E-04  0.0145
   2.3317E-01   2.3884E-01   1.7567E-04  0.0142
   2.3884E-01   2.4465E-01   1.7182E-04  0.0142
   2.4465E-01   2.5061E-01   1.7547E-04  0.0138
   2.5061E-01   2.5670E-01   1.7965E-04  0.0135
   2.5670E-01   2.6295E-01   1.7551E-04  0.0135
   2.6295E-01   2.6935E-01   1.7725E-04  0.0133
   2.6935E-01   2.7590E-01   1.7548E-04  0.0132
   2.7590E-01   2.8261E-01   1.7677E-04  0.0130
   2.8261E-01   2.8949E-01   1.7927E-04  0.0127
   2.8949E-01   2.9653E-01   1.8251E-04  0.0125
   2.9653E-01   3.0375E-01   1.7561E-04  0.0126
   3.0375E-01   3.1114E-01   1.8489E-04  0.0121
   3.1114E-01   3.1871E-01   1.8007E-04  0.0121
   3.1871E-01   3.2646E-01   1.8544E-04  0.0118
   3.2646E-01   3.3441E-01   1.8466E-04  0.0117
   3.3441E-01   3.4254E-01   1.8603E-04  0.0115
   3.4254E-01   3.5088E-01   1.9092E-04  0.0112
   3.5088E-01   3.5941E-01   1.8601E-04  0.0112
   3.5941E-01   3.6816E-01   1.8560E-04  0.0111
   3.6816E-01   3.7712E-01   1.8949E-04  0.0109
   3.7712E-01   3.8629E-01   1.9136E-04  0.0107
   3.8629E-01   3.9569E-01   1.9115E-04  0.0106
   3.9569E-01   4.0532E-01   1.9268E-04  0.0104
   4.0532E-01   4.1518E-01   1.9388E-04  0.0102
   4.1518E-01   4.2528E-01   1.9508E-04  0.0101
   4.2528E-01   4.3563E-01   1.9531E-04  0.0100
   4.3563E-01   4.4623E-01   1.9820E-04  0.0098
   4.4623E-01   4.5708E-01   1.9908E-04  0.0096
   4.5708E-01   4.6821E-01   1.9892E-04  0.0095
   4.6821E-01   4.7960E-01   1.9966E-04  0.0094
   4.7960E-01   4.9127E-01   1.9868E-04  0.0093
   4.9127E-01   5.0322E-01   2.0059E-04  0.0091
   5.0322E-01   5.1546E-01   2.0027E-04  0.0090
   5.1546E-01   5.2800E-01   2.0010E-04  0.0089
   5.2800E-01   5.4085E-01   1.9578E-04  0.0089
   5.4085E-01   5.5401E-01   2.0118E-04  0.0087
   5.5401E-01   5.6749E-01   2.0174E-04  0.0086
   5.6749E-01   5.8130E-01   2.0093E-04  0.0085
   5.8130E-01   5.9544E-01   2.0145E-04  0.0084
   5.9544E-01   6.0993E-01   2.0469E-04  0.0082
   6.0993E-01   6.2477E-01   2.0624E-04  0.0081
   6.2477E-01   6.3997E-01   2.0322E-04  0.0080
   6.3997E-01   6.5554E-01   2.0394E-04  0.0079
   6.5554E-01   6.7149E-01   2.0410E-04  0.0078
   6.7149E-01   6.8783E-01   2.0667E-04  0.0077
   6.8783E-01   7.0456E-01   2.0130E-04  0.0077
   7.0456E-01   7.2171E-01   2.0037E-04  0.0076
   7.2171E-01   7.3927E-01   1.9951E-04  0.0076
   7.3927E-01   7.5725E-01   1.9822E-04  0.0075
   7.5725E-01   7.7568E-01   1.9684E-04  0.0074
   7.7568E-01   7.9455E-01   1.9585E-04  0.0074
   7.9455E-01   8.1388E-01   1.9371E-04  0.0073
   8.1388E-01   8.3368E-01   1.9494E-04  0.0072
   8.3368E-01   8.5397E-01   1.9161E-04  0.0072
   8.5397E-01   8.7475E-01   1.8806E-04  0.0072
   8.7475E-01   8.9603E-01   1.8164E-04  0.0072
   8.9603E-01   9.1783E-01   1.8024E-04  0.0071
   9.1783E-01   9.4016E-01   1.7529E-04  0.0071
   9.4016E-01   9.6304E-01   1.6941E-04  0.0072
   9.6304E-01   9.8647E-01   1.6229E-04  0.0073
   9.8647E-01   1.0105E+00   1.5586E-04  0.0073
   1.0105E+00   1.0351E+00   1.5169E-04  0.0073
   1.0351E+00   1.0602E+00   1.5195E-04  0.0072
   1.0602E+00   1.0860E+00   1.5228E-04  0.0071
   1.0860E+00   1.1125E+00   1.4693E-04  0.0072
   1.1125E+00   1.1395E+00   1.4667E-04  0.0071
   1.1395E+00   1.1673E+00   1.4496E-04  0.0071
   1.1673E+00   1.1957E+00   1.4583E-04  0.0070
   1.1957E+00   1.2247E+00   1.4429E-04  0.0069
   1.2247E+00   1.2545E+00   1.4512E-04  0.0068
   1.2545E+00   1.2851E+00   1.4180E-04  0.0068
   1.2851E+00   1.3163E+00   1.3753E-04  0.0068
   1.3163E+00   1.3484E+00   1.3532E-04  0.0068
   1.3484E+00   1.3812E+00   1.3439E-04  0.0067
   1.3812E+00   1.4148E+00   1.3402E-04  0.0067
   1.4148E+00   1.4492E+00   1.3318E-04  0.0066
   1.4492E+00   1.4845E+00   1.2836E-04  0.0066
   1.4845E+00   1.5206E+00   1.2433E-04  0.0067
   1.5206E+00   1.5576E+00   1.2222E-04  0.0067
   1.5576E+00   1.5955E+00   1.1926E-04  0.0067
   1.5955E+00   1.6343E+00   1.1598E-04  0.0067
   1.6343E+00   1.6741E+00   1.1149E-04  0.0067
   1.6741E+00   1.7148E+00   1.0987E-04  0.0067
   1.7148E+00   1.7565E+00   1.0786E-04  0.0067
   1.7565E+00   1.7992E+00   1.0356E-04  0.0067
   1.7992E+00   1.8430E+00   9.9064E-05  0.0068
   1.8430E+00   1.8879E+00   9.6561E-05  0.0068
   1.8879E+00   1.9338E+00   9.2495E-05  0.0069
   1.9338E+00   1.9808E+00   9.0254E-05  0.0069
   1.9808E+00   2.0290E+00   8.7726E-05  0.0069
   2.0290E+00   2.0784E+00   8.5215E-05  0.0069
   2.0784E+00   2.1290E+00   8.1538E-05  0.0070
   2.1290E+00   2.1808E+00   7.7929E-05  0.0070
   2.1808E+00   2.2338E+00   7.4906E-05  0.0071
   2.2338E+00   2.2882E+00   7.1756E-05  0.0072
   2.2882E+00   2.3439E+00   6.8877E-05  0.0072
   2.3439E+00   2.4009E+00   6.5289E-05  0.0073
   2.4009E+00   2.4593E+00   6.3190E-05  0.0074
   2.4593E+00   2.5191E+00   6.0511E-05  0.0074
   2.5191E+00   2.5804E+00   5.7676E-05  0.0075
   2.5804E+00   2.6432E+00   5.4923E-05  0.0076
   2.6432E+00   2.7075E+00   5.2829E-05  0.0077
   2.7075E+00   2.7734E+00   5.0082E-05  0.0078
   2.7734E+00   2.8409E+00   4.8068E-05  0.0079
   2.8409E+00   2.9100E+00   4.5746E-05  0.0080
   2.9100E+00   2.9808E+00   4.3374E-05  0.0081
   2.9808E+00   3.0533E+00   4.1497E-05  0.0082
   3.0533E+00   3.1276E+00   3.9743E-05  0.0082
   3.1276E+00   3.2037E+00   3.8100E-05  0.0083
   3.2037E+00   3.2817E+00   3.5766E-05  0.0085
   3.2817E+00   3.3615E+00   3.4049E-05  0.0086
   3.3615E+00   3.4433E+00   3.2837E-05  0.0086
   3.4433E+00   3.5271E+00   2.9962E-05  0.0089
   3.5271E+00   3.6129E+00   2.9014E-05  0.0090
   3.6129E+00   3.7008E+00   2.7597E-05  0.0091
   3.7008E+00   3.7908E+00   2.6464E-05  0.0092
   3.7908E+00   3.8831E+00   2.4448E-05  0.0094
   3.8831E+00   3.9776E+00   2.3688E-05  0.0095
   3.9776E+00   4.0743E+00   2.2259E-05  0.0096
   4.0743E+00   4.1735E+00   2.0959E-05  0.0098
   4.1735E+00   4.2750E+00   1.9547E-05  0.0100
   4.2750E+00   4.3790E+00   1.8556E-05  0.0102
   4.3790E+00   4.4856E+00   1.7634E-05  0.0103
   4.4856E+00   4.5947E+00   1.6632E-05  0.0105
   4.5947E+00   4.7065E+00   1.5349E-05  0.0108
   4.7065E+00   4.8210E+00   1.4400E-05  0.0110
   4.8210E+00   4.9383E+00   1.3588E-05  0.0112
   4.9383E+00   5.0585E+00   1.2740E-05  0.0114
   5.0585E+00   5.1815E+00   1.2031E-05  0.0116
   5.1815E+00   5.3076E+00   1.1455E-05  0.0118
   5.3076E+00   5.4368E+00   1.0503E-05  0.0121
   5.4368E+00   5.5690E+00   9.8730E-06  0.0124
   5.5690E+00   5.7045E+00   9.2074E-06  0.0127
   5.7045E+00   5.8433E+00   8.3951E-06  0.0131
   5.8433E+00   5.9855E+00   7.9846E-06  0.0133
   5.9855E+00   6.1311E+00   7.3823E-06  0.0136
   6.1311E+00   6.2803E+00   6.8222E-06  0.0140
   6.2803E+00   6.4331E+00   6.4651E-06  0.0142
   6.4331E+00   6.5896E+00   5.9985E-06  0.0146
   6.5896E+00   6.7500E+00   5.6171E-06  0.0149
   6.7500E+00   6.9142E+00   5.1287E-06  0.0154
   6.9142E+00   7.0824E+00   4.6003E-06  0.0161
   7.0824E+00   7.2548E+00   4.3802E-06  0.0163
   7.2548E+00   7.4313E+00   4.0218E-06  0.0168
   7.4313E+00   7.6121E+00   3.6160E-06  0.0175
   7.6121E+00   7.7973E+00   3.3913E-06  0.0178
   7.7973E+00   7.9870E+00   3.1511E-06  0.0183
   7.9870E+00   8.1813E+00   2.8575E-06  0.0190
   8.1813E+00   8.3804E+00   2.6359E-06  0.0195
   8.3804E+00   8.5843E+00   2.4061E-06  0.0202
   8.5843E+00   8.7931E+00   2.2551E-06  0.0206
   8.7931E+00   9.0071E+00   2.1085E-06  0.0211
   9.0071E+00   9.2262E+00   1.8175E-06  0.0224
   9.2262E+00   9.4507E+00   1.6972E-06  0.0229
   9.4507E+00   9.6807E+00   1.5256E-06  0.0239
   9.6807E+00   9.9162E+00   1.4524E-06  0.0242
   9.9162E+00   1.0157E+01   1.3458E-06  0.0248
   1.0157E+01   1.0405E+01   1.2074E-06  0.0259
   1.0405E+01   1.0658E+01   1.1333E-06  0.0264
   1.0658E+01   1.0917E+01   1.0023E-06  0.0277
   1.0917E+01   1.1183E+01   9.0618E-07  0.0288
   1.1183E+01   1.1455E+01   8.1482E-07  0.0300
   1.1455E+01   1.1733E+01   7.8004E-07  0.0303
   1.1733E+01   1.2019E+01   7.3034E-07  0.0310
   1.2019E+01   1.2311E+01   6.4802E-07  0.0325
   1.2311E+01   1.2611E+01   6.4097E-07  0.0323
   1.2611E+01   1.2918E+01   5.5079E-07  0.0344
   1.2918E+01   1.3232E+01   4.8711E-07  0.0361
   1.3232E+01   1.3554E+01   4.5132E-07  0.0371
   1.3554E+01   1.3884E+01   4.0724E-07  0.0386
   1.3884E+01   1.4222E+01   3.8188E-07  0.0394
   1.4222E+01   1.4568E+01   3.4564E-07  0.0409
   1.4568E+01   1.4922E+01   3.2643E-07  0.0416
   1.4922E+01   1.5285E+01   3.2749E-07  0.0410
   1.5285E+01   1.5657E+01   2.9309E-07  0.0428
   1.5657E+01   1.6038E+01   2.6880E-07  0.0442
   1.6038E+01   1.6428E+01   2.5729E-07  0.0446
   1.6428E+01   1.6828E+01   2.3017E-07  0.0466
   1.6828E+01   1.7237E+01   2.1249E-07  0.0479
   1.7237E+01   1.7657E+01   2.2556E-07  0.0460
   1.7657E+01   1.8086E+01   1.8389E-07  0.0503
   1.8086E+01   1.8526E+01   1.7180E-07  0.0514
   1.8526E+01   1.8977E+01   1.7038E-07  0.0510
   1.8977E+01   1.9439E+01   1.4771E-07  0.0542
   1.9439E+01   1.9912E+01   1.5012E-07  0.0531
   1.9912E+01   2.0396E+01   1.4985E-07  0.0525
   2.0396E+01   2.0893E+01   1.2735E-07  0.0563
   2.0893E+01   2.1401E+01   1.2079E-07  0.0571
   2.1401E+01   2.1922E+01   1.1945E-07  0.0567
   2.1922E+01   2.2455E+01   1.1024E-07  0.0583
   2.2455E+01   2.3001E+01   1.1092E-07  0.0574
   2.3001E+01   2.3561E+01   9.8635E-08  0.0602
   2.3561E+01   2.4134E+01   8.2336E-08  0.0651
   2.4134E+01   2.4721E+01   8.0040E-08  0.0652
   2.4721E+01   2.5323E+01   7.1156E-08  0.0684
   2.5323E+01   2.5939E+01   7.5958E-08  0.0654
   2.5939E+01   2.6570E+01   7.1936E-08  0.0664
   2.6570E+01   2.7217E+01   6.4040E-08  0.0695
   2.7217E+01   2.7879E+01   5.8290E-08  0.0720
   2.7879E+01   2.8557E+01   4.6291E-08  0.0798
   2.8557E+01   2.9252E+01   4.7494E-08  0.0778
   2.9252E+01   2.9964E+01   4.1308E-08  0.0825
   2.9964E+01   3.0693E+01   3.5389E-08  0.0880
   3.0693E+01   3.1440E+01   3.6691E-08  0.0854
   3.1440E+01   3.2205E+01   3.1375E-08  0.0913
   3.2205E+01   3.2988E+01   2.8843E-08  0.0941
   3.2988E+01   3.3791E+01   2.6912E-08  0.0962
   3.3791E+01   3.4613E+01   2.0677E-08  0.1085
   3.4613E+01   3.5455E+01   1.7336E-08  0.1170
   3.5455E+01   3.6318E+01   1.9939E-08  0.1078
   3.6318E+01   3.7201E+01   1.7428E-08  0.1140
   3.7201E+01   3.8106E+01   1.3037E-08  0.1302
   3.8106E+01   3.9034E+01   1.3158E-08  0.1280
   3.9034E+01   3.9983E+01   1.1161E-08  0.1374
   3.9983E+01   4.0956E+01   7.4011E-09  0.1667
   4.0956E+01   4.1953E+01   7.8274E-09  0.1601
   4.1953E+01   4.2973E+01   9.2090E-09  0.1459
   4.2973E+01   4.4019E+01   5.9297E-09  0.1796
   4.4019E+01   4.5090E+01   8.0298E-09  0.1525
   4.5090E+01   4.6187E+01   5.1045E-09  0.1890
   4.6187E+01   4.7311E+01   4.2713E-09  0.2041
   4.7311E+01   4.8462E+01   3.1274E-09  0.2357
   4.8462E+01   4.9641E+01   5.0886E-09  0.1826
   4.9641E+01   5.0849E+01   2.3183E-09  0.2673
   5.0849E+01   5.2086E+01   3.0715E-09  0.2294
   5.2086E+01   5.3353E+01   2.6829E-09  0.2425
   5.3353E+01   5.4651E+01   3.2354E-09  0.2182
   5.4651E+01   5.5981E+01   2.7074E-09  0.2357
   5.5981E+01   5.7343E+01   2.9367E-09  0.2236
   5.7343E+01   5.8738E+01   1.8635E-09  0.2774
   5.8738E+01   6.0168E+01   2.0991E-09  0.2582
   6.0168E+01   6.1632E+01   1.5028E-09  0.3015
   6.1632E+01   6.3131E+01   1.6005E-09  0.2887
   6.3131E+01   6.4667E+01   9.1144E-10  0.3780
   6.4667E+01   6.6240E+01   7.6268E-10  0.4082
   6.6240E+01   6.7852E+01   4.9638E-10  0.5000
   6.7852E+01   6.9503E+01   0.0000E+00  0.0000
   6.9503E+01   7.1194E+01   0.0000E+00  0.0000
   7.1194E+01   7.2926E+01   0.0000E+00  0.0000
   7.2926E+01   7.4701E+01   0.0000E+00  0.0000
   7.4701E+01   7.6518E+01   0.0000E+00  0.0000
   7.6518E+01   7.8380E+01   0.0000E+00  0.0000
   7.8380E+01   8.0287E+01   0.0000E+00  0.0000
   8.0287E+01   8.2240E+01   0.0000E+00  0.0000
   8.2240E+01   8.4241E+01   0.0000E+00  0.0000
   8.4241E+01   8.6291E+01   0.0000E+00  0.0000
   8.6291E+01   8.8391E+01   0.0000E+00  0.0000
   8.8391E+01   9.0541E+01   0.0000E+00  0.0000
   9.0541E+01   9.2744E+01   0.0000E+00  0.0000
   9.2744E+01   9.5001E+01   0.0000E+00  0.0000
   9.5001E+01   9.7312E+01   0.0000E+00  0.0000
   9.7312E+01   9.9680E+01   0.0000E+00  0.0000
   9.9680E+01   1.0211E+02   0.0000E+00  0.0000
   1.0211E+02   1.0459E+02   0.0000E+00  0.0000
   1.0459E+02   1.0713E+02   0.0000E+00  0.0000
   1.0713E+02   1.0974E+02   0.0000E+00  0.0000
   1.0974E+02   1.1241E+02   0.0000E+00  0.0000
   1.1241E+02   1.1515E+02   0.0000E+00  0.0000
   1.1515E+02   1.1795E+02   0.0000E+00  0.0000
   1.1795E+02   1.2082E+02   0.0000E+00  0.0000
   1.2082E+02   1.2376E+02   0.0000E+00  0.0000
   1.2376E+02   1.2677E+02   0.0000E+00  0.0000
   1.2677E+02   1.2985E+02   0.0000E+00  0.0000
   1.2985E+02   1.3301E+02   0.0000E+00  0.0000
   1.3301E+02   1.3625E+02   0.0000E+00  0.0000
   1.3625E+02   1.3956E+02   0.0000E+00  0.0000
   1.3956E+02   1.4296E+02   0.0000E+00  0.0000
   1.4296E+02   1.4644E+02   0.0000E+00  0.0000
   1.4644E+02   1.5000E+02   0.0000E+00  0.0000

#   sum over                 2.9386E-06
'no. =    1   reg = 121 - 221'
msuc: {\huge [t-cross] in region mesh}
msdr: {\it plotted by \ANGEL \version}
msdl: {\it calculated by \PHITS  3.26}
wt: s(0.7)
\vspace{-3}
  region surface crossing
  area  &=&   1.0000E+00 [cm^2]
e:
 
# Information for Restart Calculation
# This calculation was newly started
# istdev =  2 # 1:Batch variance, 2:History variance
# resc2  = 5.00000000000000000E+09 # Total source weight or Total source weight / maxcas
# resc3  = 5.00000000000000000E+09 # Total history number or Total batch number
# maxcas =   500000000 # History / Batch, only used for istdev=1
# bitrseed = 0110100000100010111000001110001111001110100100011111101000111001 # bit data of rseed
