[ T-Cross ]
    title = [t-cross] in region mesh
     mesh =  reg            # mesh type is region-wise
      reg =    1            # number of crossing regions
      non     r-from    r-to       area
      1       112       212        1.000000    
   e-type =    3            # e-mesh is log given by emin, emax and ne
     emin =  1.0000000E-02  # minimum value of e-mesh points
     emax =   150.0000      # maximum value of e-mesh points
#    edel =  2.4039514E-02  # mesh width of e-mesh points
       ne =    400          # number of e-mesh points
#    data = ( e(i), i = 1, ne + 1 )
#           1.00000E-02  1.02433E-02  1.04925E-02  1.07478E-02  1.10093E-02
#           1.12772E-02  1.15516E-02  1.18326E-02  1.21205E-02  1.24154E-02
#           1.27175E-02  1.30269E-02  1.33439E-02  1.36686E-02  1.40011E-02
#           1.43418E-02  1.46907E-02  1.50482E-02  1.54143E-02  1.57894E-02
#           1.61735E-02  1.65670E-02  1.69701E-02  1.73830E-02  1.78060E-02
#           1.82392E-02  1.86830E-02  1.91375E-02  1.96032E-02  2.00801E-02
#           2.05687E-02  2.10692E-02  2.15818E-02  2.21069E-02  2.26448E-02
#           2.31957E-02  2.37601E-02  2.43382E-02  2.49304E-02  2.55369E-02
#           2.61583E-02  2.67947E-02  2.74467E-02  2.81145E-02  2.87985E-02
#           2.94992E-02  3.02169E-02  3.09521E-02  3.17052E-02  3.24766E-02
#           3.32668E-02  3.40762E-02  3.49053E-02  3.57546E-02  3.66246E-02
#           3.75157E-02  3.84284E-02  3.93634E-02  4.03212E-02  4.13022E-02
#           4.23071E-02  4.33365E-02  4.43909E-02  4.54710E-02  4.65773E-02
#           4.77106E-02  4.88714E-02  5.00605E-02  5.12785E-02  5.25262E-02
#           5.38042E-02  5.51133E-02  5.64542E-02  5.78278E-02  5.92348E-02
#           6.06760E-02  6.21523E-02  6.36645E-02  6.52135E-02  6.68002E-02
#           6.84255E-02  7.00904E-02  7.17957E-02  7.35426E-02  7.53319E-02
#           7.71648E-02  7.90423E-02  8.09655E-02  8.29354E-02  8.49533E-02
#           8.70203E-02  8.91376E-02  9.13064E-02  9.35279E-02  9.58035E-02
#           9.81345E-02  1.00522E-01  1.02968E-01  1.05473E-01  1.08040E-01
#           1.10668E-01  1.13361E-01  1.16119E-01  1.18944E-01  1.21838E-01
#           1.24803E-01  1.27839E-01  1.30950E-01  1.34136E-01  1.37399E-01
#           1.40742E-01  1.44167E-01  1.47675E-01  1.51268E-01  1.54948E-01
#           1.58718E-01  1.62580E-01  1.66535E-01  1.70587E-01  1.74738E-01
#           1.78989E-01  1.83344E-01  1.87805E-01  1.92375E-01  1.97055E-01
#           2.01850E-01  2.06761E-01  2.11792E-01  2.16945E-01  2.22223E-01
#           2.27630E-01  2.33169E-01  2.38842E-01  2.44653E-01  2.50605E-01
#           2.56703E-01  2.62949E-01  2.69346E-01  2.75900E-01  2.82613E-01
#           2.89489E-01  2.96532E-01  3.03747E-01  3.11138E-01  3.18708E-01
#           3.26462E-01  3.34405E-01  3.42542E-01  3.50876E-01  3.59413E-01
#           3.68158E-01  3.77116E-01  3.86291E-01  3.95690E-01  4.05317E-01
#           4.15179E-01  4.25281E-01  4.35628E-01  4.46227E-01  4.57084E-01
#           4.68205E-01  4.79597E-01  4.91266E-01  5.03219E-01  5.15463E-01
#           5.28005E-01  5.40851E-01  5.54011E-01  5.67490E-01  5.81298E-01
#           5.95441E-01  6.09929E-01  6.24769E-01  6.39970E-01  6.55541E-01
#           6.71491E-01  6.87828E-01  7.04564E-01  7.21706E-01  7.39266E-01
#           7.57253E-01  7.75678E-01  7.94551E-01  8.13883E-01  8.33685E-01
#           8.53969E-01  8.74747E-01  8.96030E-01  9.17831E-01  9.40163E-01
#           9.63038E-01  9.86469E-01  1.01047E+00  1.03506E+00  1.06024E+00
#           1.08604E+00  1.11246E+00  1.13953E+00  1.16725E+00  1.19565E+00
#           1.22474E+00  1.25454E+00  1.28507E+00  1.31633E+00  1.34836E+00
#           1.38117E+00  1.41477E+00  1.44920E+00  1.48446E+00  1.52057E+00
#           1.55757E+00  1.59547E+00  1.63429E+00  1.67405E+00  1.71478E+00
#           1.75650E+00  1.79924E+00  1.84302E+00  1.88786E+00  1.93379E+00
#           1.98084E+00  2.02904E+00  2.07841E+00  2.12898E+00  2.18078E+00
#           2.23384E+00  2.28819E+00  2.34386E+00  2.40089E+00  2.45930E+00
#           2.51914E+00  2.58043E+00  2.64322E+00  2.70753E+00  2.77341E+00
#           2.84088E+00  2.91001E+00  2.98081E+00  3.05333E+00  3.12762E+00
#           3.20372E+00  3.28167E+00  3.36152E+00  3.44330E+00  3.52708E+00
#           3.61290E+00  3.70080E+00  3.79085E+00  3.88308E+00  3.97756E+00
#           4.07434E+00  4.17347E+00  4.27501E+00  4.37903E+00  4.48557E+00
#           4.59471E+00  4.70650E+00  4.82102E+00  4.93832E+00  5.05847E+00
#           5.18155E+00  5.30762E+00  5.43676E+00  5.56904E+00  5.70453E+00
#           5.84333E+00  5.98550E+00  6.13114E+00  6.28031E+00  6.43312E+00
#           6.58964E+00  6.74997E+00  6.91420E+00  7.08243E+00  7.25475E+00
#           7.43126E+00  7.61207E+00  7.79728E+00  7.98700E+00  8.18133E+00
#           8.38038E+00  8.58428E+00  8.79315E+00  9.00709E+00  9.22624E+00
#           9.45072E+00  9.68067E+00  9.91620E+00  1.01575E+01  1.04046E+01
#           1.06578E+01  1.09171E+01  1.11827E+01  1.14548E+01  1.17335E+01
#           1.20190E+01  1.23114E+01  1.26109E+01  1.29178E+01  1.32321E+01
#           1.35540E+01  1.38838E+01  1.42216E+01  1.45676E+01  1.49221E+01
#           1.52851E+01  1.56570E+01  1.60380E+01  1.64282E+01  1.68279E+01
#           1.72374E+01  1.76568E+01  1.80864E+01  1.85264E+01  1.89772E+01
#           1.94389E+01  1.99119E+01  2.03963E+01  2.08926E+01  2.14009E+01
#           2.19216E+01  2.24550E+01  2.30014E+01  2.35610E+01  2.41343E+01
#           2.47215E+01  2.53230E+01  2.59391E+01  2.65702E+01  2.72167E+01
#           2.78789E+01  2.85572E+01  2.92520E+01  2.99637E+01  3.06928E+01
#           3.14396E+01  3.22045E+01  3.29881E+01  3.37907E+01  3.46128E+01
#           3.54550E+01  3.63177E+01  3.72013E+01  3.81064E+01  3.90336E+01
#           3.99833E+01  4.09561E+01  4.19526E+01  4.29734E+01  4.40189E+01
#           4.50900E+01  4.61870E+01  4.73108E+01  4.84619E+01  4.96410E+01
#           5.08488E+01  5.20860E+01  5.33533E+01  5.46514E+01  5.59812E+01
#           5.73432E+01  5.87384E+01  6.01676E+01  6.16315E+01  6.31311E+01
#           6.46671E+01  6.62405E+01  6.78522E+01  6.95031E+01  7.11941E+01
#           7.29263E+01  7.47007E+01  7.65182E+01  7.83800E+01  8.02870E+01
#           8.22405E+01  8.42414E+01  8.62911E+01  8.83906E+01  9.05412E+01
#           9.27442E+01  9.50007E+01  9.73122E+01  9.96799E+01  1.02105E+02
#           1.04589E+02  1.07134E+02  1.09741E+02  1.12411E+02  1.15146E+02
#           1.17948E+02  1.20817E+02  1.23757E+02  1.26768E+02  1.29852E+02
#           1.33012E+02  1.36248E+02  1.39563E+02  1.42959E+02  1.46437E+02
#           1.50000E+02
     unit =    2            # unit is [1/cm^2/(MeV/n)/source]
     axis =  eng            # axis of output
     file = detector-13.out  # file name of output for the above axis
   output = f-curr          # surface crossing forward current spectrum
     part =  neutron  
# kf/name :  2112     
#    used :        main (  %)        temp (  %)       total (  %)
#  memory :         414 (  0)           0 (  0)         414 (  0)

#------------------------------------------------------------------------------
#newpage:
#   no. =    1   reg = 112 - 212

x: Energy [MeV/n]
y:  F-Curr [1/cm^2/(MeV/n)/source]         
p: xlog ylog afac(0.8) form(0.9)
h: n            x            y(neutron ),hh0l   n 
#  e-lower      e-upper      neutron     r.err 
   1.0000E-02   1.0243E-02   3.9045E-05  0.1447
   1.0243E-02   1.0493E-02   3.1297E-05  0.1601
   1.0493E-02   1.0748E-02   2.2828E-05  0.1849
   1.0748E-02   1.1009E-02   3.3866E-05  0.1490
   1.1009E-02   1.1277E-02   2.2497E-05  0.1818
   1.1277E-02   1.1552E-02   3.0614E-05  0.1543
   1.1552E-02   1.1833E-02   3.1410E-05  0.1503
   1.1833E-02   1.2121E-02   2.5704E-05  0.1644
   1.2121E-02   1.2415E-02   3.1651E-05  0.1450
   1.2415E-02   1.2718E-02   3.5752E-05  0.1361
   1.2718E-02   1.3027E-02   2.5531E-05  0.1586
   1.3027E-02   1.3344E-02   2.4690E-05  0.1596
   1.3344E-02   1.3669E-02   2.9261E-05  0.1447
   1.3669E-02   1.4001E-02   2.3153E-05  0.1606
   1.4001E-02   1.4342E-02   2.7192E-05  0.1465
   1.4342E-02   1.4691E-02   2.2439E-05  0.1596
   1.4691E-02   1.5048E-02   2.6951E-05  0.1439
   1.5048E-02   1.5414E-02   3.1499E-05  0.1312
   1.5414E-02   1.5789E-02   2.3997E-05  0.1491
   1.5789E-02   1.6174E-02   2.0385E-05  0.1595
   1.6174E-02   1.6567E-02   2.1414E-05  0.1538
   1.6567E-02   1.6970E-02   2.2410E-05  0.1486
   1.6970E-02   1.7383E-02   2.4704E-05  0.1400
   1.7383E-02   1.7806E-02   1.8915E-05  0.1581
   1.7806E-02   1.8239E-02   2.6391E-05  0.1321
   1.8239E-02   1.8683E-02   1.9234E-05  0.1524
   1.8683E-02   1.9138E-02   2.1119E-05  0.1443
   1.9138E-02   1.9603E-02   1.9758E-05  0.1474
   1.9603E-02   2.0080E-02   2.3063E-05  0.1348
   2.0080E-02   2.0569E-02   1.9035E-05  0.1463
   2.0569E-02   2.1069E-02   1.6849E-05  0.1538
   2.1069E-02   2.1582E-02   1.9897E-05  0.1400
   2.1582E-02   2.2107E-02   1.8334E-05  0.1440
   2.2107E-02   2.2645E-02   1.9335E-05  0.1387
   2.2645E-02   2.3196E-02   1.8985E-05  0.1379
   2.3196E-02   2.3760E-02   1.4580E-05  0.1557
   2.3760E-02   2.4338E-02   1.4232E-05  0.1557
   2.4338E-02   2.4930E-02   1.5078E-05  0.1490
   2.4930E-02   2.5537E-02   1.5705E-05  0.1443
   2.5537E-02   2.6158E-02   1.1910E-05  0.1644
   2.6158E-02   2.6795E-02   1.7481E-05  0.1336
   2.6795E-02   2.7447E-02   1.3345E-05  0.1503
   2.7447E-02   2.8114E-02   1.4226E-05  0.1447
   2.8114E-02   2.8799E-02   1.1300E-05  0.1601
   2.8799E-02   2.9499E-02   1.1988E-05  0.1534
   2.9499E-02   3.0217E-02   1.3375E-05  0.1443
   3.0217E-02   3.0952E-02   1.5254E-05  0.1327
   3.0952E-02   3.1705E-02   1.0794E-05  0.1561
   3.1705E-02   3.2477E-02   1.2135E-05  0.1454
   3.2477E-02   3.3267E-02   1.1390E-05  0.1491
   3.3267E-02   3.4076E-02   1.1646E-05  0.1455
   3.4076E-02   3.4905E-02   1.1820E-05  0.1429
   3.4905E-02   3.5755E-02   1.0780E-05  0.1470
   3.5755E-02   3.6625E-02   7.6195E-06  0.1721
   3.6625E-02   3.7516E-02   1.1969E-05  0.1366
   3.7516E-02   3.8428E-02   9.4564E-06  0.1520
   3.8428E-02   3.9363E-02   1.0307E-05  0.1438
   3.9363E-02   4.0321E-02   1.1903E-05  0.1325
   4.0321E-02   4.1302E-02   1.1009E-05  0.1361
   4.1302E-02   4.2307E-02   1.0177E-05  0.1390
   4.2307E-02   4.3337E-02   7.9661E-06  0.1562
   4.3337E-02   4.4391E-02   8.9421E-06  0.1455
   4.4391E-02   4.5471E-02   1.0518E-05  0.1321
   4.5471E-02   4.6577E-02   8.8580E-06  0.1421
   4.6577E-02   4.7711E-02   8.7020E-06  0.1420
   4.7711E-02   4.8871E-02   7.2643E-06  0.1538
   4.8871E-02   5.0061E-02   7.1193E-06  0.1532
   5.0061E-02   5.1279E-02   7.7673E-06  0.1450
   5.1279E-02   5.2526E-02   7.1893E-06  0.1484
   5.2526E-02   5.3804E-02   7.3552E-06  0.1459
   5.3804E-02   5.5113E-02   9.3194E-06  0.1280
   5.5113E-02   5.6454E-02   6.5298E-06  0.1503
   5.6454E-02   5.7828E-02   8.7363E-06  0.1291
   5.7828E-02   5.9235E-02   7.6986E-06  0.1357
   5.9235E-02   6.0676E-02   8.1875E-06  0.1302
   6.0676E-02   6.2152E-02   6.0052E-06  0.1489
   6.2152E-02   6.3665E-02   5.5082E-06  0.1543
   6.3665E-02   6.5214E-02   7.3786E-06  0.1321
   6.5214E-02   6.6800E-02   5.8149E-06  0.1470
   6.6800E-02   6.8426E-02   5.9066E-06  0.1443
   6.8426E-02   7.0090E-02   5.9780E-06  0.1411
   7.0090E-02   7.1796E-02   5.8223E-06  0.1414
   7.1796E-02   7.3543E-02   6.1253E-06  0.1364
   7.3543E-02   7.5332E-02   5.8332E-06  0.1382
   7.5332E-02   7.7165E-02   5.5415E-06  0.1396
   7.7165E-02   7.9042E-02   5.2365E-06  0.1424
   7.9042E-02   8.0965E-02   5.3558E-06  0.1390
   8.0965E-02   8.2935E-02   6.1613E-06  0.1279
   8.2935E-02   8.4953E-02   4.8708E-06  0.1425
   8.4953E-02   8.7020E-02   4.1274E-06  0.1524
   8.7020E-02   8.9138E-02   4.9120E-06  0.1380
   8.9138E-02   9.1306E-02   5.2103E-06  0.1327
   9.1306E-02   9.3528E-02   4.6499E-06  0.1386
   9.3528E-02   9.5804E-02   4.9657E-06  0.1327
   9.5804E-02   9.8134E-02   3.8734E-06  0.1486
   9.8134E-02   1.0052E-01   4.1879E-06  0.1405
   1.0052E-01   1.0297E-01   5.2890E-06  0.1240
   1.0297E-01   1.0547E-01   4.0192E-06  0.1405
   1.0547E-01   1.0804E-01   5.0917E-06  0.1235
   1.0804E-01   1.1067E-01   3.3221E-06  0.1507
   1.1067E-01   1.1336E-01   4.4937E-06  0.1283
   1.1336E-01   1.1612E-01   5.1587E-06  0.1180
   1.1612E-01   1.1894E-01   4.5062E-06  0.1250
   1.1894E-01   1.2184E-01   4.1119E-06  0.1294
   1.2184E-01   1.2480E-01   3.7955E-06  0.1331
   1.2480E-01   1.2784E-01   3.9647E-06  0.1287
   1.2784E-01   1.3095E-01   3.7294E-06  0.1313
   1.3095E-01   1.3414E-01   2.9929E-06  0.1442
   1.3414E-01   1.3740E-01   3.5237E-06  0.1316
   1.3740E-01   1.4074E-01   4.1362E-06  0.1197
   1.4074E-01   1.4417E-01   3.7269E-06  0.1247
   1.4417E-01   1.4767E-01   3.7793E-06  0.1226
   1.4767E-01   1.5127E-01   2.8569E-06  0.1385
   1.5127E-01   1.5495E-01   3.0431E-06  0.1336
   1.5495E-01   1.5872E-01   2.6611E-06  0.1410
   1.5872E-01   1.6258E-01   2.0716E-06  0.1581
   1.6258E-01   1.6654E-01   2.5345E-06  0.1411
   1.6654E-01   1.7059E-01   3.3891E-06  0.1203
   1.7059E-01   1.7474E-01   2.2889E-06  0.1447
   1.7474E-01   1.7899E-01   3.1989E-06  0.1213
   1.7899E-01   1.8334E-01   2.8933E-06  0.1260
   1.8334E-01   1.8781E-01   2.8470E-06  0.1252
   1.8781E-01   1.9237E-01   1.8892E-06  0.1520
   1.9237E-01   1.9706E-01   2.4783E-06  0.1307
   1.9706E-01   2.0185E-01   2.2309E-06  0.1362
   2.0185E-01   2.0676E-01   2.2935E-06  0.1323
   2.0676E-01   2.1179E-01   2.9221E-06  0.1164
   2.1179E-01   2.1694E-01   3.2910E-06  0.1083
   2.1694E-01   2.2222E-01   2.0521E-06  0.1357
   2.2222E-01   2.2763E-01   2.9460E-06  0.1118
   2.2763E-01   2.3317E-01   3.7260E-06  0.0984
   2.3317E-01   2.3884E-01   3.7369E-06  0.0969
   2.3884E-01   2.4465E-01   3.4682E-06  0.0994
   2.4465E-01   2.5061E-01   3.5882E-06  0.0965
   2.5061E-01   2.5670E-01   3.8098E-06  0.0925
   2.5670E-01   2.6295E-01   4.2953E-06  0.0863
   2.6295E-01   2.6935E-01   3.8962E-06  0.0893
   2.6935E-01   2.7590E-01   3.8101E-06  0.0893
   2.7590E-01   2.8261E-01   4.5562E-06  0.0805
   2.8261E-01   2.8949E-01   4.4353E-06  0.0807
   2.8949E-01   2.9653E-01   4.2407E-06  0.0816
   2.9653E-01   3.0375E-01   4.3876E-06  0.0793
   3.0375E-01   3.1114E-01   5.2533E-06  0.0716
   3.1114E-01   3.1871E-01   4.5343E-06  0.0759
   3.1871E-01   3.2646E-01   5.7783E-06  0.0666
   3.2646E-01   3.3441E-01   4.9557E-06  0.0710
   3.3441E-01   3.4254E-01   5.3464E-06  0.0677
   3.4254E-01   3.5088E-01   5.2470E-06  0.0674
   3.5088E-01   3.5941E-01   5.4310E-06  0.0654
   3.5941E-01   3.6816E-01   5.1069E-06  0.0667
   3.6816E-01   3.7712E-01   6.0280E-06  0.0607
   3.7712E-01   3.8629E-01   5.3067E-06  0.0640
   3.8629E-01   3.9569E-01   5.5968E-06  0.0613
   3.9569E-01   4.0532E-01   5.7326E-06  0.0600
   4.0532E-01   4.1518E-01   6.5328E-06  0.0555
   4.1518E-01   4.2528E-01   6.3093E-06  0.0559
   4.2528E-01   4.3563E-01   6.1434E-06  0.0559
   4.3563E-01   4.4623E-01   6.2820E-06  0.0546
   4.4623E-01   4.5708E-01   6.4671E-06  0.0532
   4.5708E-01   4.6821E-01   7.2976E-06  0.0495
   4.6821E-01   4.7960E-01   7.1307E-06  0.0494
   4.7960E-01   4.9127E-01   6.9837E-06  0.0494
   4.9127E-01   5.0322E-01   7.1230E-06  0.0483
   5.0322E-01   5.1546E-01   6.3465E-06  0.0505
   5.1546E-01   5.2800E-01   7.3732E-06  0.0463
   5.2800E-01   5.4085E-01   8.0890E-06  0.0438
   5.4085E-01   5.5401E-01   6.9008E-06  0.0468
   5.5401E-01   5.6749E-01   8.1571E-06  0.0425
   5.6749E-01   5.8130E-01   8.0075E-06  0.0424
   5.8130E-01   5.9544E-01   7.8196E-06  0.0423
   5.9544E-01   6.0993E-01   8.3516E-06  0.0405
   6.0993E-01   6.2477E-01   8.1313E-06  0.0406
   6.2477E-01   6.3997E-01   7.8811E-06  0.0407
   6.3997E-01   6.5554E-01   7.6765E-06  0.0408
   6.5554E-01   6.7149E-01   7.8230E-06  0.0399
   6.7149E-01   6.8783E-01   8.5724E-06  0.0377
   6.8783E-01   7.0456E-01   7.8785E-06  0.0388
   7.0456E-01   7.2171E-01   8.3150E-06  0.0373
   7.2171E-01   7.3927E-01   7.8094E-06  0.0381
   7.3927E-01   7.5725E-01   8.6660E-06  0.0357
   7.5725E-01   7.7568E-01   7.9294E-06  0.0369
   7.7568E-01   7.9455E-01   8.0409E-06  0.0362
   7.9455E-01   8.1388E-01   8.0738E-06  0.0357
   8.1388E-01   8.3368E-01   7.6348E-06  0.0362
   8.3368E-01   8.5397E-01   7.3118E-06  0.0366
   8.5397E-01   8.7475E-01   7.8642E-06  0.0348
   8.7475E-01   8.9603E-01   7.4452E-06  0.0354
   8.9603E-01   9.1783E-01   7.3041E-06  0.0353
   9.1783E-01   9.4016E-01   7.4361E-06  0.0345
   9.4016E-01   9.6304E-01   7.1339E-06  0.0348
   9.6304E-01   9.8647E-01   7.1201E-06  0.0344
   9.8647E-01   1.0105E+00   6.9646E-06  0.0344
   1.0105E+00   1.0351E+00   7.0487E-06  0.0339
   1.0351E+00   1.0602E+00   7.3357E-06  0.0327
   1.0602E+00   1.0860E+00   7.4621E-06  0.0321
   1.0860E+00   1.1125E+00   7.3700E-06  0.0320
   1.1125E+00   1.1395E+00   7.7665E-06  0.0307
   1.1395E+00   1.1673E+00   8.2257E-06  0.0295
   1.1673E+00   1.1957E+00   9.0959E-06  0.0277
   1.1957E+00   1.2247E+00   9.1834E-06  0.0273
   1.2247E+00   1.2545E+00   8.9472E-06  0.0273
   1.2545E+00   1.2851E+00   9.2973E-06  0.0264
   1.2851E+00   1.3163E+00   9.6749E-06  0.0256
   1.3163E+00   1.3484E+00   9.9690E-06  0.0249
   1.3484E+00   1.3812E+00   1.0047E-05  0.0245
   1.3812E+00   1.4148E+00   1.0133E-05  0.0241
   1.4148E+00   1.4492E+00   1.0855E-05  0.0230
   1.4492E+00   1.4845E+00   1.0199E-05  0.0235
   1.4845E+00   1.5206E+00   1.0639E-05  0.0227
   1.5206E+00   1.5576E+00   1.0875E-05  0.0222
   1.5576E+00   1.5955E+00   1.1488E-05  0.0213
   1.5955E+00   1.6343E+00   1.1377E-05  0.0212
   1.6343E+00   1.6741E+00   1.1696E-05  0.0207
   1.6741E+00   1.7148E+00   1.1388E-05  0.0207
   1.7148E+00   1.7565E+00   1.1938E-05  0.0199
   1.7565E+00   1.7992E+00   1.2315E-05  0.0194
   1.7992E+00   1.8430E+00   1.1857E-05  0.0195
   1.8430E+00   1.8879E+00   1.2195E-05  0.0190
   1.8879E+00   1.9338E+00   1.2674E-05  0.0185
   1.9338E+00   1.9808E+00   1.2494E-05  0.0184
   1.9808E+00   2.0290E+00   1.2703E-05  0.0180
   2.0290E+00   2.0784E+00   1.2890E-05  0.0176
   2.0784E+00   2.1290E+00   1.2896E-05  0.0174
   2.1290E+00   2.1808E+00   1.2671E-05  0.0174
   2.1808E+00   2.2338E+00   1.2445E-05  0.0173
   2.2338E+00   2.2882E+00   1.2775E-05  0.0169
   2.2882E+00   2.3439E+00   1.2860E-05  0.0166
   2.3439E+00   2.4009E+00   1.3133E-05  0.0163
   2.4009E+00   2.4593E+00   1.3796E-05  0.0157
   2.4593E+00   2.5191E+00   1.3244E-05  0.0158
   2.5191E+00   2.5804E+00   1.3146E-05  0.0157
   2.5804E+00   2.6432E+00   1.2954E-05  0.0156
   2.6432E+00   2.7075E+00   1.3353E-05  0.0152
   2.7075E+00   2.7734E+00   1.2763E-05  0.0153
   2.7734E+00   2.8409E+00   1.3001E-05  0.0150
   2.8409E+00   2.9100E+00   1.3286E-05  0.0147
   2.9100E+00   2.9808E+00   1.3093E-05  0.0146
   2.9808E+00   3.0533E+00   1.3392E-05  0.0143
   3.0533E+00   3.1276E+00   1.3739E-05  0.0139
   3.1276E+00   3.2037E+00   1.3236E-05  0.0140
   3.2037E+00   3.2817E+00   1.3239E-05  0.0139
   3.2817E+00   3.3615E+00   1.3196E-05  0.0137
   3.3615E+00   3.4433E+00   1.2923E-05  0.0137
   3.4433E+00   3.5271E+00   1.3176E-05  0.0134
   3.5271E+00   3.6129E+00   1.3306E-05  0.0132
   3.6129E+00   3.7008E+00   1.3040E-05  0.0132
   3.7008E+00   3.7908E+00   1.3003E-05  0.0130
   3.7908E+00   3.8831E+00   1.3116E-05  0.0128
   3.8831E+00   3.9776E+00   1.3149E-05  0.0126
   3.9776E+00   4.0743E+00   1.2908E-05  0.0126
   4.0743E+00   4.1735E+00   1.2835E-05  0.0125
   4.1735E+00   4.2750E+00   1.2351E-05  0.0126
   4.2750E+00   4.3790E+00   1.2184E-05  0.0125
   4.3790E+00   4.4856E+00   1.2192E-05  0.0124
   4.4856E+00   4.5947E+00   1.1935E-05  0.0123
   4.5947E+00   4.7065E+00   1.1429E-05  0.0125
   4.7065E+00   4.8210E+00   1.1167E-05  0.0125
   4.8210E+00   4.9383E+00   1.0748E-05  0.0125
   4.9383E+00   5.0585E+00   1.0194E-05  0.0127
   5.0585E+00   5.1815E+00   9.9722E-06  0.0127
   5.1815E+00   5.3076E+00   9.7022E-06  0.0127
   5.3076E+00   5.4368E+00   9.4102E-06  0.0128
   5.4368E+00   5.5690E+00   9.0644E-06  0.0129
   5.5690E+00   5.7045E+00   8.9218E-06  0.0128
   5.7045E+00   5.8433E+00   8.6801E-06  0.0128
   5.8433E+00   5.9855E+00   8.5765E-06  0.0128
   5.9855E+00   6.1311E+00   8.2195E-06  0.0129
   6.1311E+00   6.2803E+00   7.9735E-06  0.0129
   6.2803E+00   6.4331E+00   7.8311E-06  0.0129
   6.4331E+00   6.5896E+00   7.6140E-06  0.0129
   6.5896E+00   6.7500E+00   7.3593E-06  0.0130
   6.7500E+00   6.9142E+00   6.9416E-06  0.0132
   6.9142E+00   7.0824E+00   6.9467E-06  0.0131
   7.0824E+00   7.2548E+00   6.4166E-06  0.0134
   7.2548E+00   7.4313E+00   6.1949E-06  0.0135
   7.4313E+00   7.6121E+00   6.0073E-06  0.0135
   7.6121E+00   7.7973E+00   5.8813E-06  0.0135
   7.7973E+00   7.9870E+00   5.6275E-06  0.0137
   7.9870E+00   8.1813E+00   5.4524E-06  0.0137
   8.1813E+00   8.3804E+00   5.1420E-06  0.0140
   8.3804E+00   8.5843E+00   4.8482E-06  0.0142
   8.5843E+00   8.7931E+00   4.6668E-06  0.0143
   8.7931E+00   9.0071E+00   4.4444E-06  0.0145
   9.0071E+00   9.2262E+00   4.2178E-06  0.0147
   9.2262E+00   9.4507E+00   4.0962E-06  0.0147
   9.4507E+00   9.6807E+00   3.9881E-06  0.0148
   9.6807E+00   9.9162E+00   3.6349E-06  0.0153
   9.9162E+00   1.0157E+01   3.5148E-06  0.0153
   1.0157E+01   1.0405E+01   3.5433E-06  0.0151
   1.0405E+01   1.0658E+01   3.2134E-06  0.0157
   1.0658E+01   1.0917E+01   3.2284E-06  0.0154
   1.0917E+01   1.1183E+01   3.0374E-06  0.0157
   1.1183E+01   1.1455E+01   2.8313E-06  0.0161
   1.1455E+01   1.1733E+01   2.5491E-06  0.0168
   1.1733E+01   1.2019E+01   2.3397E-06  0.0173
   1.2019E+01   1.2311E+01   2.2553E-06  0.0174
   1.2311E+01   1.2611E+01   2.1079E-06  0.0178
   1.2611E+01   1.2918E+01   2.0096E-06  0.0180
   1.2918E+01   1.3232E+01   1.8677E-06  0.0184
   1.3232E+01   1.3554E+01   1.7848E-06  0.0186
   1.3554E+01   1.3884E+01   1.6245E-06  0.0193
   1.3884E+01   1.4222E+01   1.5255E-06  0.0197
   1.4222E+01   1.4568E+01   1.3631E-06  0.0206
   1.4568E+01   1.4922E+01   1.2331E-06  0.0214
   1.4922E+01   1.5285E+01   1.1412E-06  0.0220
   1.5285E+01   1.5657E+01   9.6821E-07  0.0236
   1.5657E+01   1.6038E+01   8.5043E-07  0.0248
   1.6038E+01   1.6428E+01   6.7998E-07  0.0274
   1.6428E+01   1.6828E+01   5.3194E-07  0.0307
   1.6828E+01   1.7237E+01   4.4967E-07  0.0330
   1.7237E+01   1.7657E+01   3.1409E-07  0.0390
   1.7657E+01   1.8086E+01   2.8901E-07  0.0401
   1.8086E+01   1.8526E+01   2.1352E-07  0.0461
   1.8526E+01   1.8977E+01   1.7142E-07  0.0509
   1.8977E+01   1.9439E+01   1.1565E-07  0.0612
   1.9439E+01   1.9912E+01   7.4072E-08  0.0755
   1.9912E+01   2.0396E+01   3.1374E-08  0.1147
   2.0396E+01   2.0893E+01   1.0075E-08  0.2000
   2.0893E+01   2.1401E+01   2.7541E-09  0.3780
   2.1401E+01   2.1922E+01   1.1523E-09  0.5774
   2.1922E+01   2.2455E+01   7.4995E-10  0.7071
   2.2455E+01   2.3001E+01   0.0000E+00  0.0000
   2.3001E+01   2.3561E+01   0.0000E+00  0.0000
   2.3561E+01   2.4134E+01   0.0000E+00  0.0000
   2.4134E+01   2.4721E+01   0.0000E+00  0.0000
   2.4721E+01   2.5323E+01   0.0000E+00  0.0000
   2.5323E+01   2.5939E+01   0.0000E+00  0.0000
   2.5939E+01   2.6570E+01   0.0000E+00  0.0000
   2.6570E+01   2.7217E+01   0.0000E+00  0.0000
   2.7217E+01   2.7879E+01   0.0000E+00  0.0000
   2.7879E+01   2.8557E+01   0.0000E+00  0.0000
   2.8557E+01   2.9252E+01   0.0000E+00  0.0000
   2.9252E+01   2.9964E+01   0.0000E+00  0.0000
   2.9964E+01   3.0693E+01   0.0000E+00  0.0000
   3.0693E+01   3.1440E+01   0.0000E+00  0.0000
   3.1440E+01   3.2205E+01   0.0000E+00  0.0000
   3.2205E+01   3.2988E+01   0.0000E+00  0.0000
   3.2988E+01   3.3791E+01   0.0000E+00  0.0000
   3.3791E+01   3.4613E+01   0.0000E+00  0.0000
   3.4613E+01   3.5455E+01   0.0000E+00  0.0000
   3.5455E+01   3.6318E+01   0.0000E+00  0.0000
   3.6318E+01   3.7201E+01   0.0000E+00  0.0000
   3.7201E+01   3.8106E+01   0.0000E+00  0.0000
   3.8106E+01   3.9034E+01   0.0000E+00  0.0000
   3.9034E+01   3.9983E+01   0.0000E+00  0.0000
   3.9983E+01   4.0956E+01   0.0000E+00  0.0000
   4.0956E+01   4.1953E+01   0.0000E+00  0.0000
   4.1953E+01   4.2973E+01   0.0000E+00  0.0000
   4.2973E+01   4.4019E+01   0.0000E+00  0.0000
   4.4019E+01   4.5090E+01   0.0000E+00  0.0000
   4.5090E+01   4.6187E+01   0.0000E+00  0.0000
   4.6187E+01   4.7311E+01   0.0000E+00  0.0000
   4.7311E+01   4.8462E+01   0.0000E+00  0.0000
   4.8462E+01   4.9641E+01   0.0000E+00  0.0000
   4.9641E+01   5.0849E+01   0.0000E+00  0.0000
   5.0849E+01   5.2086E+01   0.0000E+00  0.0000
   5.2086E+01   5.3353E+01   0.0000E+00  0.0000
   5.3353E+01   5.4651E+01   0.0000E+00  0.0000
   5.4651E+01   5.5981E+01   0.0000E+00  0.0000
   5.5981E+01   5.7343E+01   0.0000E+00  0.0000
   5.7343E+01   5.8738E+01   0.0000E+00  0.0000
   5.8738E+01   6.0168E+01   0.0000E+00  0.0000
   6.0168E+01   6.1632E+01   0.0000E+00  0.0000
   6.1632E+01   6.3131E+01   0.0000E+00  0.0000
   6.3131E+01   6.4667E+01   0.0000E+00  0.0000
   6.4667E+01   6.6240E+01   0.0000E+00  0.0000
   6.6240E+01   6.7852E+01   0.0000E+00  0.0000
   6.7852E+01   6.9503E+01   0.0000E+00  0.0000
   6.9503E+01   7.1194E+01   0.0000E+00  0.0000
   7.1194E+01   7.2926E+01   0.0000E+00  0.0000
   7.2926E+01   7.4701E+01   0.0000E+00  0.0000
   7.4701E+01   7.6518E+01   0.0000E+00  0.0000
   7.6518E+01   7.8380E+01   0.0000E+00  0.0000
   7.8380E+01   8.0287E+01   0.0000E+00  0.0000
   8.0287E+01   8.2240E+01   0.0000E+00  0.0000
   8.2240E+01   8.4241E+01   0.0000E+00  0.0000
   8.4241E+01   8.6291E+01   0.0000E+00  0.0000
   8.6291E+01   8.8391E+01   0.0000E+00  0.0000
   8.8391E+01   9.0541E+01   0.0000E+00  0.0000
   9.0541E+01   9.2744E+01   0.0000E+00  0.0000
   9.2744E+01   9.5001E+01   0.0000E+00  0.0000
   9.5001E+01   9.7312E+01   0.0000E+00  0.0000
   9.7312E+01   9.9680E+01   0.0000E+00  0.0000
   9.9680E+01   1.0211E+02   0.0000E+00  0.0000
   1.0211E+02   1.0459E+02   0.0000E+00  0.0000
   1.0459E+02   1.0713E+02   0.0000E+00  0.0000
   1.0713E+02   1.0974E+02   0.0000E+00  0.0000
   1.0974E+02   1.1241E+02   0.0000E+00  0.0000
   1.1241E+02   1.1515E+02   0.0000E+00  0.0000
   1.1515E+02   1.1795E+02   0.0000E+00  0.0000
   1.1795E+02   1.2082E+02   0.0000E+00  0.0000
   1.2082E+02   1.2376E+02   0.0000E+00  0.0000
   1.2376E+02   1.2677E+02   0.0000E+00  0.0000
   1.2677E+02   1.2985E+02   0.0000E+00  0.0000
   1.2985E+02   1.3301E+02   0.0000E+00  0.0000
   1.3301E+02   1.3625E+02   0.0000E+00  0.0000
   1.3625E+02   1.3956E+02   0.0000E+00  0.0000
   1.3956E+02   1.4296E+02   0.0000E+00  0.0000
   1.4296E+02   1.4644E+02   0.0000E+00  0.0000
   1.4644E+02   1.5000E+02   0.0000E+00  0.0000

#   sum over                 6.6804E-07
'no. =    1   reg = 112 - 212'
msuc: {\huge [t-cross] in region mesh}
msdr: {\it plotted by \ANGEL \version}
msdl: {\it calculated by \PHITS  3.26}
wt: s(0.7)
\vspace{-3}
  region surface crossing
  area  &=&   1.0000E+00 [cm^2]
e:
 
# Information for Restart Calculation
# This calculation was newly started
# istdev =  2 # 1:Batch variance, 2:History variance
# resc2  = 5.00000000000000000E+09 # Total source weight or Total source weight / maxcas
# resc3  = 5.00000000000000000E+09 # Total history number or Total batch number
# maxcas =   500000000 # History / Batch, only used for istdev=1
# bitrseed = 0110100000100010111000001110001111001110100100011111101000111001 # bit data of rseed
