[ T-Cross ]
    title = [t-cross] in region mesh
     mesh =  reg            # mesh type is region-wise
      reg =    1            # number of crossing regions
      non     r-from    r-to       area
      1       109       209        1.000000    
   e-type =    3            # e-mesh is log given by emin, emax and ne
     emin =  1.0000000E-02  # minimum value of e-mesh points
     emax =   150.0000      # maximum value of e-mesh points
#    edel =  2.4039514E-02  # mesh width of e-mesh points
       ne =    400          # number of e-mesh points
#    data = ( e(i), i = 1, ne + 1 )
#           1.00000E-02  1.02433E-02  1.04925E-02  1.07478E-02  1.10093E-02
#           1.12772E-02  1.15516E-02  1.18326E-02  1.21205E-02  1.24154E-02
#           1.27175E-02  1.30269E-02  1.33439E-02  1.36686E-02  1.40011E-02
#           1.43418E-02  1.46907E-02  1.50482E-02  1.54143E-02  1.57894E-02
#           1.61735E-02  1.65670E-02  1.69701E-02  1.73830E-02  1.78060E-02
#           1.82392E-02  1.86830E-02  1.91375E-02  1.96032E-02  2.00801E-02
#           2.05687E-02  2.10692E-02  2.15818E-02  2.21069E-02  2.26448E-02
#           2.31957E-02  2.37601E-02  2.43382E-02  2.49304E-02  2.55369E-02
#           2.61583E-02  2.67947E-02  2.74467E-02  2.81145E-02  2.87985E-02
#           2.94992E-02  3.02169E-02  3.09521E-02  3.17052E-02  3.24766E-02
#           3.32668E-02  3.40762E-02  3.49053E-02  3.57546E-02  3.66246E-02
#           3.75157E-02  3.84284E-02  3.93634E-02  4.03212E-02  4.13022E-02
#           4.23071E-02  4.33365E-02  4.43909E-02  4.54710E-02  4.65773E-02
#           4.77106E-02  4.88714E-02  5.00605E-02  5.12785E-02  5.25262E-02
#           5.38042E-02  5.51133E-02  5.64542E-02  5.78278E-02  5.92348E-02
#           6.06760E-02  6.21523E-02  6.36645E-02  6.52135E-02  6.68002E-02
#           6.84255E-02  7.00904E-02  7.17957E-02  7.35426E-02  7.53319E-02
#           7.71648E-02  7.90423E-02  8.09655E-02  8.29354E-02  8.49533E-02
#           8.70203E-02  8.91376E-02  9.13064E-02  9.35279E-02  9.58035E-02
#           9.81345E-02  1.00522E-01  1.02968E-01  1.05473E-01  1.08040E-01
#           1.10668E-01  1.13361E-01  1.16119E-01  1.18944E-01  1.21838E-01
#           1.24803E-01  1.27839E-01  1.30950E-01  1.34136E-01  1.37399E-01
#           1.40742E-01  1.44167E-01  1.47675E-01  1.51268E-01  1.54948E-01
#           1.58718E-01  1.62580E-01  1.66535E-01  1.70587E-01  1.74738E-01
#           1.78989E-01  1.83344E-01  1.87805E-01  1.92375E-01  1.97055E-01
#           2.01850E-01  2.06761E-01  2.11792E-01  2.16945E-01  2.22223E-01
#           2.27630E-01  2.33169E-01  2.38842E-01  2.44653E-01  2.50605E-01
#           2.56703E-01  2.62949E-01  2.69346E-01  2.75900E-01  2.82613E-01
#           2.89489E-01  2.96532E-01  3.03747E-01  3.11138E-01  3.18708E-01
#           3.26462E-01  3.34405E-01  3.42542E-01  3.50876E-01  3.59413E-01
#           3.68158E-01  3.77116E-01  3.86291E-01  3.95690E-01  4.05317E-01
#           4.15179E-01  4.25281E-01  4.35628E-01  4.46227E-01  4.57084E-01
#           4.68205E-01  4.79597E-01  4.91266E-01  5.03219E-01  5.15463E-01
#           5.28005E-01  5.40851E-01  5.54011E-01  5.67490E-01  5.81298E-01
#           5.95441E-01  6.09929E-01  6.24769E-01  6.39970E-01  6.55541E-01
#           6.71491E-01  6.87828E-01  7.04564E-01  7.21706E-01  7.39266E-01
#           7.57253E-01  7.75678E-01  7.94551E-01  8.13883E-01  8.33685E-01
#           8.53969E-01  8.74747E-01  8.96030E-01  9.17831E-01  9.40163E-01
#           9.63038E-01  9.86469E-01  1.01047E+00  1.03506E+00  1.06024E+00
#           1.08604E+00  1.11246E+00  1.13953E+00  1.16725E+00  1.19565E+00
#           1.22474E+00  1.25454E+00  1.28507E+00  1.31633E+00  1.34836E+00
#           1.38117E+00  1.41477E+00  1.44920E+00  1.48446E+00  1.52057E+00
#           1.55757E+00  1.59547E+00  1.63429E+00  1.67405E+00  1.71478E+00
#           1.75650E+00  1.79924E+00  1.84302E+00  1.88786E+00  1.93379E+00
#           1.98084E+00  2.02904E+00  2.07841E+00  2.12898E+00  2.18078E+00
#           2.23384E+00  2.28819E+00  2.34386E+00  2.40089E+00  2.45930E+00
#           2.51914E+00  2.58043E+00  2.64322E+00  2.70753E+00  2.77341E+00
#           2.84088E+00  2.91001E+00  2.98081E+00  3.05333E+00  3.12762E+00
#           3.20372E+00  3.28167E+00  3.36152E+00  3.44330E+00  3.52708E+00
#           3.61290E+00  3.70080E+00  3.79085E+00  3.88308E+00  3.97756E+00
#           4.07434E+00  4.17347E+00  4.27501E+00  4.37903E+00  4.48557E+00
#           4.59471E+00  4.70650E+00  4.82102E+00  4.93832E+00  5.05847E+00
#           5.18155E+00  5.30762E+00  5.43676E+00  5.56904E+00  5.70453E+00
#           5.84333E+00  5.98550E+00  6.13114E+00  6.28031E+00  6.43312E+00
#           6.58964E+00  6.74997E+00  6.91420E+00  7.08243E+00  7.25475E+00
#           7.43126E+00  7.61207E+00  7.79728E+00  7.98700E+00  8.18133E+00
#           8.38038E+00  8.58428E+00  8.79315E+00  9.00709E+00  9.22624E+00
#           9.45072E+00  9.68067E+00  9.91620E+00  1.01575E+01  1.04046E+01
#           1.06578E+01  1.09171E+01  1.11827E+01  1.14548E+01  1.17335E+01
#           1.20190E+01  1.23114E+01  1.26109E+01  1.29178E+01  1.32321E+01
#           1.35540E+01  1.38838E+01  1.42216E+01  1.45676E+01  1.49221E+01
#           1.52851E+01  1.56570E+01  1.60380E+01  1.64282E+01  1.68279E+01
#           1.72374E+01  1.76568E+01  1.80864E+01  1.85264E+01  1.89772E+01
#           1.94389E+01  1.99119E+01  2.03963E+01  2.08926E+01  2.14009E+01
#           2.19216E+01  2.24550E+01  2.30014E+01  2.35610E+01  2.41343E+01
#           2.47215E+01  2.53230E+01  2.59391E+01  2.65702E+01  2.72167E+01
#           2.78789E+01  2.85572E+01  2.92520E+01  2.99637E+01  3.06928E+01
#           3.14396E+01  3.22045E+01  3.29881E+01  3.37907E+01  3.46128E+01
#           3.54550E+01  3.63177E+01  3.72013E+01  3.81064E+01  3.90336E+01
#           3.99833E+01  4.09561E+01  4.19526E+01  4.29734E+01  4.40189E+01
#           4.50900E+01  4.61870E+01  4.73108E+01  4.84619E+01  4.96410E+01
#           5.08488E+01  5.20860E+01  5.33533E+01  5.46514E+01  5.59812E+01
#           5.73432E+01  5.87384E+01  6.01676E+01  6.16315E+01  6.31311E+01
#           6.46671E+01  6.62405E+01  6.78522E+01  6.95031E+01  7.11941E+01
#           7.29263E+01  7.47007E+01  7.65182E+01  7.83800E+01  8.02870E+01
#           8.22405E+01  8.42414E+01  8.62911E+01  8.83906E+01  9.05412E+01
#           9.27442E+01  9.50007E+01  9.73122E+01  9.96799E+01  1.02105E+02
#           1.04589E+02  1.07134E+02  1.09741E+02  1.12411E+02  1.15146E+02
#           1.17948E+02  1.20817E+02  1.23757E+02  1.26768E+02  1.29852E+02
#           1.33012E+02  1.36248E+02  1.39563E+02  1.42959E+02  1.46437E+02
#           1.50000E+02
     unit =    2            # unit is [1/cm^2/(MeV/n)/source]
     axis =  eng            # axis of output
     file = detector-10.out  # file name of output for the above axis
   output = f-curr          # surface crossing forward current spectrum
     part =  neutron  
# kf/name :  2112     
#    used :        main (  %)        temp (  %)       total (  %)
#  memory :         414 (  0)           0 (  0)         414 (  0)

#------------------------------------------------------------------------------
#newpage:
#   no. =    1   reg = 109 - 209

x: Energy [MeV/n]
y:  F-Curr [1/cm^2/(MeV/n)/source]         
p: xlog ylog afac(0.8) form(0.9)
h: n            x            y(neutron ),hh0l   n 
#  e-lower      e-upper      neutron     r.err 
   1.0000E-02   1.0243E-02   7.6976E-04  0.1024
   1.0243E-02   1.0493E-02   8.6755E-04  0.0955
   1.0493E-02   1.0748E-02   8.1322E-04  0.0975
   1.0748E-02   1.1009E-02   7.1689E-04  0.1026
   1.1009E-02   1.1277E-02   6.3946E-04  0.1075
   1.1277E-02   1.1552E-02   6.7989E-04  0.1027
   1.1552E-02   1.1833E-02   6.8338E-04  0.1014
   1.1833E-02   1.2121E-02   7.2670E-04  0.0972
   1.2121E-02   1.2415E-02   6.4838E-04  0.1020
   1.2415E-02   1.2718E-02   5.8573E-04  0.1054
   1.2718E-02   1.3027E-02   7.5261E-04  0.0923
   1.3027E-02   1.3344E-02   6.7604E-04  0.0963
   1.3344E-02   1.3669E-02   5.7751E-04  0.1027
   1.3669E-02   1.4001E-02   5.8120E-04  0.1011
   1.4001E-02   1.4342E-02   7.7757E-04  0.0864
   1.4342E-02   1.4691E-02   6.9724E-04  0.0903
   1.4691E-02   1.5048E-02   5.6030E-04  0.0990
   1.5048E-02   1.5414E-02   6.4577E-04  0.0912
   1.5414E-02   1.5789E-02   5.5185E-04  0.0979
   1.5789E-02   1.6174E-02   5.0249E-04  0.1009
   1.6174E-02   1.6567E-02   5.5960E-04  0.0950
   1.6567E-02   1.6970E-02   4.7883E-04  0.1013
   1.6970E-02   1.7383E-02   4.9948E-04  0.0978
   1.7383E-02   1.7806E-02   4.1259E-04  0.1065
   1.7806E-02   1.8239E-02   4.9847E-04  0.0956
   1.8239E-02   1.8683E-02   4.7382E-04  0.0969
   1.8683E-02   1.9138E-02   3.4736E-04  0.1117
   1.9138E-02   1.9603E-02   4.4971E-04  0.0969
   1.9603E-02   2.0080E-02   3.4431E-04  0.1094
   2.0080E-02   2.0569E-02   4.4365E-04  0.0955
   2.0569E-02   2.1069E-02   4.0357E-04  0.0989
   2.1069E-02   2.1582E-02   4.1419E-04  0.0970
   2.1582E-02   2.2107E-02   3.0243E-04  0.1116
   2.2107E-02   2.2645E-02   3.8410E-04  0.0980
   2.2645E-02   2.3196E-02   3.7321E-04  0.0978
   2.3196E-02   2.3760E-02   3.2806E-04  0.1029
   2.3760E-02   2.4338E-02   4.1289E-04  0.0912
   2.4338E-02   2.4930E-02   3.4283E-04  0.0985
   2.4930E-02   2.5537E-02   3.3860E-04  0.0981
   2.5537E-02   2.6158E-02   2.8545E-04  0.1057
   2.6158E-02   2.6795E-02   3.7640E-04  0.0910
   2.6795E-02   2.7447E-02   3.2707E-04  0.0961
   2.7447E-02   2.8114E-02   2.6579E-04  0.1055
   2.8114E-02   2.8799E-02   2.9103E-04  0.0992
   2.8799E-02   2.9499E-02   2.6188E-04  0.1032
   2.9499E-02   3.0217E-02   3.3854E-04  0.0904
   3.0217E-02   3.0952E-02   2.6561E-04  0.1006
   3.0952E-02   3.1705E-02   3.0657E-04  0.0927
   3.1705E-02   3.2477E-02   2.6132E-04  0.0985
   3.2477E-02   3.3267E-02   2.1067E-04  0.1090
   3.3267E-02   3.4076E-02   2.0958E-04  0.1078
   3.4076E-02   3.4905E-02   2.2885E-04  0.1024
   3.4905E-02   3.5755E-02   2.5782E-04  0.0951
   3.5755E-02   3.6625E-02   1.9494E-04  0.1072
   3.6625E-02   3.7516E-02   2.3327E-04  0.0972
   3.7516E-02   3.8428E-02   2.1629E-04  0.1001
   3.8428E-02   3.9363E-02   2.3262E-04  0.0953
   3.9363E-02   4.0321E-02   1.7979E-04  0.1072
   4.0321E-02   4.1302E-02   1.8353E-04  0.1047
   4.1302E-02   4.2307E-02   1.9382E-04  0.1001
   4.2307E-02   4.3337E-02   1.7363E-04  0.1045
   4.3337E-02   4.4391E-02   1.9882E-04  0.0974
   4.4391E-02   4.5471E-02   1.9376E-04  0.0975
   4.5471E-02   4.6577E-02   1.8168E-04  0.0990
   4.6577E-02   4.7711E-02   1.6465E-04  0.1017
   4.7711E-02   4.8871E-02   1.8171E-04  0.0970
   4.8871E-02   5.0061E-02   1.7398E-04  0.0979
   5.0061E-02   5.1279E-02   1.6507E-04  0.0986
   5.1279E-02   5.2526E-02   1.2606E-04  0.1120
   5.2526E-02   5.3804E-02   1.2651E-04  0.1104
   5.3804E-02   5.5113E-02   1.3684E-04  0.1045
   5.5113E-02   5.6454E-02   1.7861E-04  0.0908
   5.6454E-02   5.7828E-02   1.4746E-04  0.0989
   5.7828E-02   5.9235E-02   1.2367E-04  0.1067
   5.9235E-02   6.0676E-02   1.4831E-04  0.0959
   6.0676E-02   6.2152E-02   1.4514E-04  0.0957
   6.2152E-02   6.3665E-02   1.5872E-04  0.0910
   6.3665E-02   6.5214E-02   1.2629E-04  0.1005
   6.5214E-02   6.6800E-02   1.2689E-04  0.0991
   6.6800E-02   6.8426E-02   1.2951E-04  0.0968
   6.8426E-02   7.0090E-02   1.2755E-04  0.0964
   7.0090E-02   7.1796E-02   1.1714E-04  0.0991
   7.1796E-02   7.3543E-02   1.1957E-04  0.0974
   7.3543E-02   7.5332E-02   1.0298E-04  0.1037
   7.5332E-02   7.7165E-02   1.2823E-04  0.0914
   7.7165E-02   7.9042E-02   1.0564E-04  0.0997
   7.9042E-02   8.0965E-02   1.0320E-04  0.1007
   8.0965E-02   8.2935E-02   1.1027E-04  0.0957
   8.2935E-02   8.4953E-02   1.0036E-04  0.0986
   8.4953E-02   8.7020E-02   9.6988E-05  0.0992
   8.7020E-02   8.9138E-02   9.0744E-05  0.1013
   8.9138E-02   9.1306E-02   1.0082E-04  0.0950
   9.1306E-02   9.3528E-02   9.4879E-05  0.0965
   9.3528E-02   9.5804E-02   9.2683E-05  0.0972
   9.5804E-02   9.8134E-02   7.7779E-05  0.1041
   9.8134E-02   1.0052E-01   7.3759E-05  0.1057
   1.0052E-01   1.0297E-01   7.5610E-05  0.1030
   1.0297E-01   1.0547E-01   8.0391E-05  0.0988
   1.0547E-01   1.0804E-01   7.3869E-05  0.1017
   1.0804E-01   1.1067E-01   7.7298E-05  0.0981
   1.1067E-01   1.1336E-01   8.4754E-05  0.0928
   1.1336E-01   1.1612E-01   6.6201E-05  0.1036
   1.1612E-01   1.1894E-01   6.0499E-05  0.1079
   1.1894E-01   1.2184E-01   6.2646E-05  0.1041
   1.2184E-01   1.2480E-01   7.6048E-05  0.0937
   1.2480E-01   1.2784E-01   7.1769E-05  0.0952
   1.2784E-01   1.3095E-01   7.2443E-05  0.0932
   1.3095E-01   1.3414E-01   7.6537E-05  0.0896
   1.3414E-01   1.3740E-01   5.6213E-05  0.1038
   1.3740E-01   1.4074E-01   7.6337E-05  0.0879
   1.4074E-01   1.4417E-01   5.4428E-05  0.1026
   1.4417E-01   1.4767E-01   7.2488E-05  0.0880
   1.4767E-01   1.5127E-01   6.7467E-05  0.0905
   1.5127E-01   1.5495E-01   5.9313E-05  0.0951
   1.5495E-01   1.5872E-01   5.6740E-05  0.0963
   1.5872E-01   1.6258E-01   6.9279E-05  0.0858
   1.6258E-01   1.6654E-01   4.8619E-05  0.1006
   1.6654E-01   1.7059E-01   5.4657E-05  0.0938
   1.7059E-01   1.7474E-01   5.7656E-05  0.0910
   1.7474E-01   1.7899E-01   5.0349E-05  0.0960
   1.7899E-01   1.8334E-01   5.0805E-05  0.0946
   1.8334E-01   1.8781E-01   4.8692E-05  0.0950
   1.8781E-01   1.9237E-01   5.6218E-05  0.0874
   1.9237E-01   1.9706E-01   5.4086E-05  0.0883
   1.9706E-01   2.0185E-01   5.2693E-05  0.0884
   2.0185E-01   2.0676E-01   5.3419E-05  0.0864
   2.0676E-01   2.1179E-01   6.2265E-05  0.0793
   2.1179E-01   2.1694E-01   6.2668E-05  0.0781
   2.1694E-01   2.2222E-01   6.6517E-05  0.0750
   2.2222E-01   2.2763E-01   6.7382E-05  0.0737
   2.2763E-01   2.3317E-01   6.6378E-05  0.0732
   2.3317E-01   2.3884E-01   7.9108E-05  0.0663
   2.3884E-01   2.4465E-01   6.6202E-05  0.0717
   2.4465E-01   2.5061E-01   7.8266E-05  0.0650
   2.5061E-01   2.5670E-01   7.3206E-05  0.0666
   2.5670E-01   2.6295E-01   7.8883E-05  0.0632
   2.6295E-01   2.6935E-01   7.6563E-05  0.0636
   2.6935E-01   2.7590E-01   9.1757E-05  0.0572
   2.7590E-01   2.8261E-01   9.2204E-05  0.0566
   2.8261E-01   2.8949E-01   9.9543E-05  0.0535
   2.8949E-01   2.9653E-01   9.9145E-05  0.0533
   2.9653E-01   3.0375E-01   9.9555E-05  0.0524
   3.0375E-01   3.1114E-01   1.0576E-04  0.0501
   3.1114E-01   3.1871E-01   1.1989E-04  0.0466
   3.1871E-01   3.2646E-01   1.1953E-04  0.0462
   3.2646E-01   3.3441E-01   1.1371E-04  0.0468
   3.3441E-01   3.4254E-01   1.2486E-04  0.0441
   3.4254E-01   3.5088E-01   1.2360E-04  0.0438
   3.5088E-01   3.5941E-01   1.3901E-04  0.0408
   3.5941E-01   3.6816E-01   1.5268E-04  0.0385
   3.6816E-01   3.7712E-01   1.5446E-04  0.0378
   3.7712E-01   3.8629E-01   1.5182E-04  0.0377
   3.8629E-01   3.9569E-01   1.5944E-04  0.0363
   3.9569E-01   4.0532E-01   1.5645E-04  0.0363
   4.0532E-01   4.1518E-01   1.7159E-04  0.0342
   4.1518E-01   4.2528E-01   1.8854E-04  0.0323
   4.2528E-01   4.3563E-01   1.7786E-04  0.0328
   4.3563E-01   4.4623E-01   1.7675E-04  0.0325
   4.4623E-01   4.5708E-01   1.8450E-04  0.0314
   4.5708E-01   4.6821E-01   1.9229E-04  0.0304
   4.6821E-01   4.7960E-01   2.1454E-04  0.0285
   4.7960E-01   4.9127E-01   2.1205E-04  0.0283
   4.9127E-01   5.0322E-01   2.2173E-04  0.0273
   5.0322E-01   5.1546E-01   2.2566E-04  0.0268
   5.1546E-01   5.2800E-01   2.2648E-04  0.0264
   5.2800E-01   5.4085E-01   2.4351E-04  0.0252
   5.4085E-01   5.5401E-01   2.4980E-04  0.0245
   5.5401E-01   5.6749E-01   2.6475E-04  0.0236
   5.6749E-01   5.8130E-01   2.8267E-04  0.0225
   5.8130E-01   5.9544E-01   2.8123E-04  0.0223
   5.9544E-01   6.0993E-01   2.8892E-04  0.0218
   6.0993E-01   6.2477E-01   2.9466E-04  0.0213
   6.2477E-01   6.3997E-01   2.9977E-04  0.0208
   6.3997E-01   6.5554E-01   3.1025E-04  0.0202
   6.5554E-01   6.7149E-01   3.2103E-04  0.0197
   6.7149E-01   6.8783E-01   3.1072E-04  0.0197
   6.8783E-01   7.0456E-01   3.3651E-04  0.0188
   7.0456E-01   7.2171E-01   3.4095E-04  0.0184
   7.2171E-01   7.3927E-01   3.4138E-04  0.0182
   7.3927E-01   7.5725E-01   3.4751E-04  0.0178
   7.5725E-01   7.7568E-01   3.5624E-04  0.0174
   7.7568E-01   7.9455E-01   3.8059E-04  0.0166
   7.9455E-01   8.1388E-01   3.9423E-04  0.0161
   8.1388E-01   8.3368E-01   3.8847E-04  0.0161
   8.3368E-01   8.5397E-01   4.0508E-04  0.0155
   8.5397E-01   8.7475E-01   4.0143E-04  0.0154
   8.7475E-01   8.9603E-01   4.0312E-04  0.0152
   8.9603E-01   9.1783E-01   4.2244E-04  0.0147
   9.1783E-01   9.4016E-01   4.1979E-04  0.0145
   9.4016E-01   9.6304E-01   4.4445E-04  0.0140
   9.6304E-01   9.8647E-01   4.4044E-04  0.0139
   9.8647E-01   1.0105E+00   4.5207E-04  0.0135
   1.0105E+00   1.0351E+00   4.4816E-04  0.0134
   1.0351E+00   1.0602E+00   4.6416E-04  0.0130
   1.0602E+00   1.0860E+00   4.6463E-04  0.0129
   1.0860E+00   1.1125E+00   4.6526E-04  0.0127
   1.1125E+00   1.1395E+00   4.6657E-04  0.0125
   1.1395E+00   1.1673E+00   4.6597E-04  0.0124
   1.1673E+00   1.1957E+00   4.8569E-04  0.0120
   1.1957E+00   1.2247E+00   4.8813E-04  0.0118
   1.2247E+00   1.2545E+00   4.9045E-04  0.0116
   1.2545E+00   1.2851E+00   4.9523E-04  0.0114
   1.2851E+00   1.3163E+00   4.8578E-04  0.0114
   1.3163E+00   1.3484E+00   4.9910E-04  0.0111
   1.3484E+00   1.3812E+00   5.0192E-04  0.0110
   1.3812E+00   1.4148E+00   5.0109E-04  0.0108
   1.4148E+00   1.4492E+00   5.1372E-04  0.0106
   1.4492E+00   1.4845E+00   5.1953E-04  0.0104
   1.4845E+00   1.5206E+00   5.2771E-04  0.0102
   1.5206E+00   1.5576E+00   5.1453E-04  0.0102
   1.5576E+00   1.5955E+00   5.1405E-04  0.0101
   1.5955E+00   1.6343E+00   5.1563E-04  0.0099
   1.6343E+00   1.6741E+00   5.0989E-04  0.0099
   1.6741E+00   1.7148E+00   5.1490E-04  0.0097
   1.7148E+00   1.7565E+00   5.1742E-04  0.0096
   1.7565E+00   1.7992E+00   5.2244E-04  0.0094
   1.7992E+00   1.8430E+00   5.2500E-04  0.0093
   1.8430E+00   1.8879E+00   5.1228E-04  0.0093
   1.8879E+00   1.9338E+00   5.1986E-04  0.0091
   1.9338E+00   1.9808E+00   5.1414E-04  0.0090
   1.9808E+00   2.0290E+00   5.1534E-04  0.0089
   2.0290E+00   2.0784E+00   5.1584E-04  0.0088
   2.0784E+00   2.1290E+00   5.1127E-04  0.0087
   2.1290E+00   2.1808E+00   5.1233E-04  0.0086
   2.1808E+00   2.2338E+00   5.1185E-04  0.0085
   2.2338E+00   2.2882E+00   5.0055E-04  0.0085
   2.2882E+00   2.3439E+00   5.0073E-04  0.0084
   2.3439E+00   2.4009E+00   4.9165E-04  0.0084
   2.4009E+00   2.4593E+00   4.8835E-04  0.0083
   2.4593E+00   2.5191E+00   4.8124E-04  0.0083
   2.5191E+00   2.5804E+00   4.9280E-04  0.0081
   2.5804E+00   2.6432E+00   4.8420E-04  0.0081
   2.6432E+00   2.7075E+00   4.7853E-04  0.0080
   2.7075E+00   2.7734E+00   4.7173E-04  0.0080
   2.7734E+00   2.8409E+00   4.6963E-04  0.0079
   2.8409E+00   2.9100E+00   4.5942E-04  0.0079
   2.9100E+00   2.9808E+00   4.6151E-04  0.0078
   2.9808E+00   3.0533E+00   4.4538E-04  0.0078
   3.0533E+00   3.1276E+00   4.4423E-04  0.0077
   3.1276E+00   3.2037E+00   4.4280E-04  0.0077
   3.2037E+00   3.2817E+00   4.3306E-04  0.0077
   3.2817E+00   3.3615E+00   4.3141E-04  0.0076
   3.3615E+00   3.4433E+00   4.2895E-04  0.0075
   3.4433E+00   3.5271E+00   4.1538E-04  0.0075
   3.5271E+00   3.6129E+00   4.1549E-04  0.0074
   3.6129E+00   3.7008E+00   4.0464E-04  0.0075
   3.7008E+00   3.7908E+00   4.0004E-04  0.0074
   3.7908E+00   3.8831E+00   3.9674E-04  0.0074
   3.8831E+00   3.9776E+00   3.8940E-04  0.0073
   3.9776E+00   4.0743E+00   3.8534E-04  0.0073
   4.0743E+00   4.1735E+00   3.7925E-04  0.0073
   4.1735E+00   4.2750E+00   3.7860E-04  0.0072
   4.2750E+00   4.3790E+00   3.6399E-04  0.0072
   4.3790E+00   4.4856E+00   3.6284E-04  0.0072
   4.4856E+00   4.5947E+00   3.5314E-04  0.0072
   4.5947E+00   4.7065E+00   3.4792E-04  0.0071
   4.7065E+00   4.8210E+00   3.3972E-04  0.0071
   4.8210E+00   4.9383E+00   3.3154E-04  0.0071
   4.9383E+00   5.0585E+00   3.1892E-04  0.0072
   5.0585E+00   5.1815E+00   3.1207E-04  0.0072
   5.1815E+00   5.3076E+00   3.0425E-04  0.0072
   5.3076E+00   5.4368E+00   2.9851E-04  0.0072
   5.4368E+00   5.5690E+00   2.9385E-04  0.0071
   5.5690E+00   5.7045E+00   2.8272E-04  0.0072
   5.7045E+00   5.8433E+00   2.8314E-04  0.0071
   5.8433E+00   5.9855E+00   2.7285E-04  0.0071
   5.9855E+00   6.1311E+00   2.6325E-04  0.0072
   6.1311E+00   6.2803E+00   2.5778E-04  0.0072
   6.2803E+00   6.4331E+00   2.4982E-04  0.0072
   6.4331E+00   6.5896E+00   2.4026E-04  0.0073
   6.5896E+00   6.7500E+00   2.3089E-04  0.0073
   6.7500E+00   6.9142E+00   2.2700E-04  0.0073
   6.9142E+00   7.0824E+00   2.1593E-04  0.0074
   7.0824E+00   7.2548E+00   2.1223E-04  0.0074
   7.2548E+00   7.4313E+00   2.0321E-04  0.0074
   7.4313E+00   7.6121E+00   1.9522E-04  0.0075
   7.6121E+00   7.7973E+00   1.8421E-04  0.0076
   7.7973E+00   7.9870E+00   1.7729E-04  0.0077
   7.9870E+00   8.1813E+00   1.7130E-04  0.0077
   8.1813E+00   8.3804E+00   1.6326E-04  0.0078
   8.3804E+00   8.5843E+00   1.5586E-04  0.0079
   8.5843E+00   8.7931E+00   1.4694E-04  0.0080
   8.7931E+00   9.0071E+00   1.4367E-04  0.0080
   9.0071E+00   9.2262E+00   1.3400E-04  0.0082
   9.2262E+00   9.4507E+00   1.2739E-04  0.0083
   9.4507E+00   9.6807E+00   1.2186E-04  0.0084
   9.6807E+00   9.9162E+00   1.1799E-04  0.0085
   9.9162E+00   1.0157E+01   1.0977E-04  0.0087
   1.0157E+01   1.0405E+01   1.0527E-04  0.0087
   1.0405E+01   1.0658E+01   1.0175E-04  0.0088
   1.0658E+01   1.0917E+01   9.8241E-05  0.0088
   1.0917E+01   1.1183E+01   9.4318E-05  0.0089
   1.1183E+01   1.1455E+01   9.1481E-05  0.0089
   1.1455E+01   1.1733E+01   8.9453E-05  0.0089
   1.1733E+01   1.2019E+01   8.4107E-05  0.0091
   1.2019E+01   1.2311E+01   8.1361E-05  0.0092
   1.2311E+01   1.2611E+01   7.7775E-05  0.0093
   1.2611E+01   1.2918E+01   7.5760E-05  0.0093
   1.2918E+01   1.3232E+01   7.3253E-05  0.0093
   1.3232E+01   1.3554E+01   6.8532E-05  0.0095
   1.3554E+01   1.3884E+01   6.7551E-05  0.0095
   1.3884E+01   1.4222E+01   6.3186E-05  0.0097
   1.4222E+01   1.4568E+01   6.1231E-05  0.0097
   1.4568E+01   1.4922E+01   5.8821E-05  0.0098
   1.4922E+01   1.5285E+01   5.6115E-05  0.0099
   1.5285E+01   1.5657E+01   5.2630E-05  0.0101
   1.5657E+01   1.6038E+01   4.9365E-05  0.0103
   1.6038E+01   1.6428E+01   4.7632E-05  0.0104
   1.6428E+01   1.6828E+01   4.5013E-05  0.0105
   1.6828E+01   1.7237E+01   4.3059E-05  0.0106
   1.7237E+01   1.7657E+01   4.0533E-05  0.0108
   1.7657E+01   1.8086E+01   3.7913E-05  0.0111
   1.8086E+01   1.8526E+01   3.5709E-05  0.0113
   1.8526E+01   1.8977E+01   3.4650E-05  0.0113
   1.8977E+01   1.9439E+01   3.3297E-05  0.0114
   1.9439E+01   1.9912E+01   3.2329E-05  0.0114
   1.9912E+01   2.0396E+01   3.0235E-05  0.0117
   2.0396E+01   2.0893E+01   2.9464E-05  0.0117
   2.0893E+01   2.1401E+01   2.7643E-05  0.0119
   2.1401E+01   2.1922E+01   2.6207E-05  0.0121
   2.1922E+01   2.2455E+01   2.4662E-05  0.0123
   2.2455E+01   2.3001E+01   2.3988E-05  0.0124
   2.3001E+01   2.3561E+01   2.3236E-05  0.0124
   2.3561E+01   2.4134E+01   2.3016E-05  0.0123
   2.4134E+01   2.4721E+01   2.1914E-05  0.0125
   2.4721E+01   2.5323E+01   2.1231E-05  0.0125
   2.5323E+01   2.5939E+01   2.0892E-05  0.0125
   2.5939E+01   2.6570E+01   1.9927E-05  0.0126
   2.6570E+01   2.7217E+01   1.9481E-05  0.0126
   2.7217E+01   2.7879E+01   1.8324E-05  0.0128
   2.7879E+01   2.8557E+01   1.8239E-05  0.0127
   2.8557E+01   2.9252E+01   1.7924E-05  0.0127
   2.9252E+01   2.9964E+01   1.7127E-05  0.0128
   2.9964E+01   3.0693E+01   1.6814E-05  0.0128
   3.0693E+01   3.1440E+01   1.6203E-05  0.0129
   3.1440E+01   3.2205E+01   1.5044E-05  0.0132
   3.2205E+01   3.2988E+01   1.4388E-05  0.0133
   3.2988E+01   3.3791E+01   1.3384E-05  0.0136
   3.3791E+01   3.4613E+01   1.3146E-05  0.0136
   3.4613E+01   3.5455E+01   1.2418E-05  0.0138
   3.5455E+01   3.6318E+01   1.1662E-05  0.0141
   3.6318E+01   3.7201E+01   1.0765E-05  0.0145
   3.7201E+01   3.8106E+01   1.0063E-05  0.0148
   3.8106E+01   3.9034E+01   9.3706E-06  0.0152
   3.9034E+01   3.9983E+01   8.4236E-06  0.0158
   3.9983E+01   4.0956E+01   7.2634E-06  0.0168
   4.0956E+01   4.1953E+01   5.7140E-06  0.0187
   4.1953E+01   4.2973E+01   3.6111E-06  0.0233
   4.2973E+01   4.4019E+01   2.4828E-06  0.0278
   4.4019E+01   4.5090E+01   1.2568E-06  0.0385
   4.5090E+01   4.6187E+01   1.2397E-07  0.1213
   4.6187E+01   4.7311E+01   7.1189E-09  0.5000
   4.7311E+01   4.8462E+01   0.0000E+00  0.0000
   4.8462E+01   4.9641E+01   0.0000E+00  0.0000
   4.9641E+01   5.0849E+01   0.0000E+00  0.0000
   5.0849E+01   5.2086E+01   0.0000E+00  0.0000
   5.2086E+01   5.3353E+01   0.0000E+00  0.0000
   5.3353E+01   5.4651E+01   0.0000E+00  0.0000
   5.4651E+01   5.5981E+01   0.0000E+00  0.0000
   5.5981E+01   5.7343E+01   0.0000E+00  0.0000
   5.7343E+01   5.8738E+01   0.0000E+00  0.0000
   5.8738E+01   6.0168E+01   0.0000E+00  0.0000
   6.0168E+01   6.1632E+01   0.0000E+00  0.0000
   6.1632E+01   6.3131E+01   0.0000E+00  0.0000
   6.3131E+01   6.4667E+01   0.0000E+00  0.0000
   6.4667E+01   6.6240E+01   0.0000E+00  0.0000
   6.6240E+01   6.7852E+01   0.0000E+00  0.0000
   6.7852E+01   6.9503E+01   0.0000E+00  0.0000
   6.9503E+01   7.1194E+01   0.0000E+00  0.0000
   7.1194E+01   7.2926E+01   0.0000E+00  0.0000
   7.2926E+01   7.4701E+01   0.0000E+00  0.0000
   7.4701E+01   7.6518E+01   0.0000E+00  0.0000
   7.6518E+01   7.8380E+01   0.0000E+00  0.0000
   7.8380E+01   8.0287E+01   0.0000E+00  0.0000
   8.0287E+01   8.2240E+01   0.0000E+00  0.0000
   8.2240E+01   8.4241E+01   0.0000E+00  0.0000
   8.4241E+01   8.6291E+01   0.0000E+00  0.0000
   8.6291E+01   8.8391E+01   0.0000E+00  0.0000
   8.8391E+01   9.0541E+01   0.0000E+00  0.0000
   9.0541E+01   9.2744E+01   0.0000E+00  0.0000
   9.2744E+01   9.5001E+01   0.0000E+00  0.0000
   9.5001E+01   9.7312E+01   0.0000E+00  0.0000
   9.7312E+01   9.9680E+01   0.0000E+00  0.0000
   9.9680E+01   1.0211E+02   0.0000E+00  0.0000
   1.0211E+02   1.0459E+02   0.0000E+00  0.0000
   1.0459E+02   1.0713E+02   0.0000E+00  0.0000
   1.0713E+02   1.0974E+02   0.0000E+00  0.0000
   1.0974E+02   1.1241E+02   0.0000E+00  0.0000
   1.1241E+02   1.1515E+02   0.0000E+00  0.0000
   1.1515E+02   1.1795E+02   0.0000E+00  0.0000
   1.1795E+02   1.2082E+02   0.0000E+00  0.0000
   1.2082E+02   1.2376E+02   0.0000E+00  0.0000
   1.2376E+02   1.2677E+02   0.0000E+00  0.0000
   1.2677E+02   1.2985E+02   0.0000E+00  0.0000
   1.2985E+02   1.3301E+02   0.0000E+00  0.0000
   1.3301E+02   1.3625E+02   0.0000E+00  0.0000
   1.3625E+02   1.3956E+02   0.0000E+00  0.0000
   1.3956E+02   1.4296E+02   0.0000E+00  0.0000
   1.4296E+02   1.4644E+02   0.0000E+00  0.0000
   1.4644E+02   1.5000E+02   0.0000E+00  0.0000

#   sum over                 2.6567E-05
'no. =    1   reg = 109 - 209'
msuc: {\huge [t-cross] in region mesh}
msdr: {\it plotted by \ANGEL \version}
msdl: {\it calculated by \PHITS  3.26}
wt: s(0.7)
\vspace{-3}
  region surface crossing
  area  &=&   1.0000E+00 [cm^2]
e:
 
# Information for Restart Calculation
# This calculation was newly started
# istdev =  2 # 1:Batch variance, 2:History variance
# resc2  = 5.00000000000000000E+08 # Total source weight or Total source weight / maxcas
# resc3  = 5.00000000000000000E+08 # Total history number or Total batch number
# maxcas =   500000000 # History / Batch, only used for istdev=1
# bitrseed = 1011101111111101000111101101010011111001010110111001011111010111 # bit data of rseed
