[ T-Cross ]
    title = [t-cross] in region mesh
     mesh =  reg            # mesh type is region-wise
      reg =    1            # number of crossing regions
      non     r-from    r-to       area
      1       118       218        1.000000    
   e-type =    3            # e-mesh is log given by emin, emax and ne
     emin =  1.0000000E-02  # minimum value of e-mesh points
     emax =   150.0000      # maximum value of e-mesh points
#    edel =  2.4039514E-02  # mesh width of e-mesh points
       ne =    400          # number of e-mesh points
#    data = ( e(i), i = 1, ne + 1 )
#           1.00000E-02  1.02433E-02  1.04925E-02  1.07478E-02  1.10093E-02
#           1.12772E-02  1.15516E-02  1.18326E-02  1.21205E-02  1.24154E-02
#           1.27175E-02  1.30269E-02  1.33439E-02  1.36686E-02  1.40011E-02
#           1.43418E-02  1.46907E-02  1.50482E-02  1.54143E-02  1.57894E-02
#           1.61735E-02  1.65670E-02  1.69701E-02  1.73830E-02  1.78060E-02
#           1.82392E-02  1.86830E-02  1.91375E-02  1.96032E-02  2.00801E-02
#           2.05687E-02  2.10692E-02  2.15818E-02  2.21069E-02  2.26448E-02
#           2.31957E-02  2.37601E-02  2.43382E-02  2.49304E-02  2.55369E-02
#           2.61583E-02  2.67947E-02  2.74467E-02  2.81145E-02  2.87985E-02
#           2.94992E-02  3.02169E-02  3.09521E-02  3.17052E-02  3.24766E-02
#           3.32668E-02  3.40762E-02  3.49053E-02  3.57546E-02  3.66246E-02
#           3.75157E-02  3.84284E-02  3.93634E-02  4.03212E-02  4.13022E-02
#           4.23071E-02  4.33365E-02  4.43909E-02  4.54710E-02  4.65773E-02
#           4.77106E-02  4.88714E-02  5.00605E-02  5.12785E-02  5.25262E-02
#           5.38042E-02  5.51133E-02  5.64542E-02  5.78278E-02  5.92348E-02
#           6.06760E-02  6.21523E-02  6.36645E-02  6.52135E-02  6.68002E-02
#           6.84255E-02  7.00904E-02  7.17957E-02  7.35426E-02  7.53319E-02
#           7.71648E-02  7.90423E-02  8.09655E-02  8.29354E-02  8.49533E-02
#           8.70203E-02  8.91376E-02  9.13064E-02  9.35279E-02  9.58035E-02
#           9.81345E-02  1.00522E-01  1.02968E-01  1.05473E-01  1.08040E-01
#           1.10668E-01  1.13361E-01  1.16119E-01  1.18944E-01  1.21838E-01
#           1.24803E-01  1.27839E-01  1.30950E-01  1.34136E-01  1.37399E-01
#           1.40742E-01  1.44167E-01  1.47675E-01  1.51268E-01  1.54948E-01
#           1.58718E-01  1.62580E-01  1.66535E-01  1.70587E-01  1.74738E-01
#           1.78989E-01  1.83344E-01  1.87805E-01  1.92375E-01  1.97055E-01
#           2.01850E-01  2.06761E-01  2.11792E-01  2.16945E-01  2.22223E-01
#           2.27630E-01  2.33169E-01  2.38842E-01  2.44653E-01  2.50605E-01
#           2.56703E-01  2.62949E-01  2.69346E-01  2.75900E-01  2.82613E-01
#           2.89489E-01  2.96532E-01  3.03747E-01  3.11138E-01  3.18708E-01
#           3.26462E-01  3.34405E-01  3.42542E-01  3.50876E-01  3.59413E-01
#           3.68158E-01  3.77116E-01  3.86291E-01  3.95690E-01  4.05317E-01
#           4.15179E-01  4.25281E-01  4.35628E-01  4.46227E-01  4.57084E-01
#           4.68205E-01  4.79597E-01  4.91266E-01  5.03219E-01  5.15463E-01
#           5.28005E-01  5.40851E-01  5.54011E-01  5.67490E-01  5.81298E-01
#           5.95441E-01  6.09929E-01  6.24769E-01  6.39970E-01  6.55541E-01
#           6.71491E-01  6.87828E-01  7.04564E-01  7.21706E-01  7.39266E-01
#           7.57253E-01  7.75678E-01  7.94551E-01  8.13883E-01  8.33685E-01
#           8.53969E-01  8.74747E-01  8.96030E-01  9.17831E-01  9.40163E-01
#           9.63038E-01  9.86469E-01  1.01047E+00  1.03506E+00  1.06024E+00
#           1.08604E+00  1.11246E+00  1.13953E+00  1.16725E+00  1.19565E+00
#           1.22474E+00  1.25454E+00  1.28507E+00  1.31633E+00  1.34836E+00
#           1.38117E+00  1.41477E+00  1.44920E+00  1.48446E+00  1.52057E+00
#           1.55757E+00  1.59547E+00  1.63429E+00  1.67405E+00  1.71478E+00
#           1.75650E+00  1.79924E+00  1.84302E+00  1.88786E+00  1.93379E+00
#           1.98084E+00  2.02904E+00  2.07841E+00  2.12898E+00  2.18078E+00
#           2.23384E+00  2.28819E+00  2.34386E+00  2.40089E+00  2.45930E+00
#           2.51914E+00  2.58043E+00  2.64322E+00  2.70753E+00  2.77341E+00
#           2.84088E+00  2.91001E+00  2.98081E+00  3.05333E+00  3.12762E+00
#           3.20372E+00  3.28167E+00  3.36152E+00  3.44330E+00  3.52708E+00
#           3.61290E+00  3.70080E+00  3.79085E+00  3.88308E+00  3.97756E+00
#           4.07434E+00  4.17347E+00  4.27501E+00  4.37903E+00  4.48557E+00
#           4.59471E+00  4.70650E+00  4.82102E+00  4.93832E+00  5.05847E+00
#           5.18155E+00  5.30762E+00  5.43676E+00  5.56904E+00  5.70453E+00
#           5.84333E+00  5.98550E+00  6.13114E+00  6.28031E+00  6.43312E+00
#           6.58964E+00  6.74997E+00  6.91420E+00  7.08243E+00  7.25475E+00
#           7.43126E+00  7.61207E+00  7.79728E+00  7.98700E+00  8.18133E+00
#           8.38038E+00  8.58428E+00  8.79315E+00  9.00709E+00  9.22624E+00
#           9.45072E+00  9.68067E+00  9.91620E+00  1.01575E+01  1.04046E+01
#           1.06578E+01  1.09171E+01  1.11827E+01  1.14548E+01  1.17335E+01
#           1.20190E+01  1.23114E+01  1.26109E+01  1.29178E+01  1.32321E+01
#           1.35540E+01  1.38838E+01  1.42216E+01  1.45676E+01  1.49221E+01
#           1.52851E+01  1.56570E+01  1.60380E+01  1.64282E+01  1.68279E+01
#           1.72374E+01  1.76568E+01  1.80864E+01  1.85264E+01  1.89772E+01
#           1.94389E+01  1.99119E+01  2.03963E+01  2.08926E+01  2.14009E+01
#           2.19216E+01  2.24550E+01  2.30014E+01  2.35610E+01  2.41343E+01
#           2.47215E+01  2.53230E+01  2.59391E+01  2.65702E+01  2.72167E+01
#           2.78789E+01  2.85572E+01  2.92520E+01  2.99637E+01  3.06928E+01
#           3.14396E+01  3.22045E+01  3.29881E+01  3.37907E+01  3.46128E+01
#           3.54550E+01  3.63177E+01  3.72013E+01  3.81064E+01  3.90336E+01
#           3.99833E+01  4.09561E+01  4.19526E+01  4.29734E+01  4.40189E+01
#           4.50900E+01  4.61870E+01  4.73108E+01  4.84619E+01  4.96410E+01
#           5.08488E+01  5.20860E+01  5.33533E+01  5.46514E+01  5.59812E+01
#           5.73432E+01  5.87384E+01  6.01676E+01  6.16315E+01  6.31311E+01
#           6.46671E+01  6.62405E+01  6.78522E+01  6.95031E+01  7.11941E+01
#           7.29263E+01  7.47007E+01  7.65182E+01  7.83800E+01  8.02870E+01
#           8.22405E+01  8.42414E+01  8.62911E+01  8.83906E+01  9.05412E+01
#           9.27442E+01  9.50007E+01  9.73122E+01  9.96799E+01  1.02105E+02
#           1.04589E+02  1.07134E+02  1.09741E+02  1.12411E+02  1.15146E+02
#           1.17948E+02  1.20817E+02  1.23757E+02  1.26768E+02  1.29852E+02
#           1.33012E+02  1.36248E+02  1.39563E+02  1.42959E+02  1.46437E+02
#           1.50000E+02
     unit =    2            # unit is [1/cm^2/(MeV/n)/source]
     axis =  eng            # axis of output
     file = detector-19.out  # file name of output for the above axis
   output = f-curr          # surface crossing forward current spectrum
     part =  neutron  
# kf/name :  2112     
#    used :        main (  %)        temp (  %)       total (  %)
#  memory :         414 (  0)           0 (  0)         414 (  0)

#------------------------------------------------------------------------------
#newpage:
#   no. =    1   reg = 118 - 218

x: Energy [MeV/n]
y:  F-Curr [1/cm^2/(MeV/n)/source]         
p: xlog ylog afac(0.8) form(0.9)
h: n            x            y(neutron ),hh0l   n 
#  e-lower      e-upper      neutron     r.err 
   1.0000E-02   1.0243E-02   2.5313E-03  0.0569
   1.0243E-02   1.0493E-02   2.5719E-03  0.0557
   1.0493E-02   1.0748E-02   3.0121E-03  0.0509
   1.0748E-02   1.1009E-02   2.7157E-03  0.0530
   1.1009E-02   1.1277E-02   2.4476E-03  0.0551
   1.1277E-02   1.1552E-02   2.5625E-03  0.0532
   1.1552E-02   1.1833E-02   2.3149E-03  0.0553
   1.1833E-02   1.2121E-02   2.4017E-03  0.0537
   1.2121E-02   1.2415E-02   2.2831E-03  0.0544
   1.2415E-02   1.2718E-02   2.3137E-03  0.0533
   1.2718E-02   1.3027E-02   2.2985E-03  0.0529
   1.3027E-02   1.3344E-02   2.2029E-03  0.0535
   1.3344E-02   1.3669E-02   2.0989E-03  0.0541
   1.3669E-02   1.4001E-02   2.0904E-03  0.0535
   1.4001E-02   1.4342E-02   1.9368E-03  0.0550
   1.4342E-02   1.4691E-02   2.1051E-03  0.0521
   1.4691E-02   1.5048E-02   1.9796E-03  0.0530
   1.5048E-02   1.5414E-02   1.9681E-03  0.0526
   1.5414E-02   1.5789E-02   1.8812E-03  0.0532
   1.5789E-02   1.6174E-02   1.8220E-03  0.0533
   1.6174E-02   1.6567E-02   1.8700E-03  0.0520
   1.6567E-02   1.6970E-02   1.6058E-03  0.0555
   1.6970E-02   1.7383E-02   1.7793E-03  0.0520
   1.7383E-02   1.7806E-02   1.7893E-03  0.0513
   1.7806E-02   1.8239E-02   1.7331E-03  0.0515
   1.8239E-02   1.8683E-02   1.6885E-03  0.0516
   1.8683E-02   1.9138E-02   1.7661E-03  0.0498
   1.9138E-02   1.9603E-02   1.7086E-03  0.0501
   1.9603E-02   2.0080E-02   1.5291E-03  0.0522
   2.0080E-02   2.0569E-02   1.5449E-03  0.0514
   2.0569E-02   2.1069E-02   1.6368E-03  0.0493
   2.1069E-02   2.1582E-02   1.4659E-03  0.0515
   2.1582E-02   2.2107E-02   1.3876E-03  0.0523
   2.2107E-02   2.2645E-02   1.4523E-03  0.0505
   2.2645E-02   2.3196E-02   1.4498E-03  0.0499
   2.3196E-02   2.3760E-02   1.2167E-03  0.0539
   2.3760E-02   2.4338E-02   1.2826E-03  0.0518
   2.4338E-02   2.4930E-02   1.4155E-03  0.0488
   2.4930E-02   2.5537E-02   1.2402E-03  0.0514
   2.5537E-02   2.6158E-02   1.2247E-03  0.0511
   2.6158E-02   2.6795E-02   1.3067E-03  0.0489
   2.6795E-02   2.7447E-02   1.2597E-03  0.0493
   2.7447E-02   2.8114E-02   1.1875E-03  0.0501
   2.8114E-02   2.8799E-02   1.2148E-03  0.0490
   2.8799E-02   2.9499E-02   1.1452E-03  0.0498
   2.9499E-02   3.0217E-02   1.1668E-03  0.0487
   3.0217E-02   3.0952E-02   1.1375E-03  0.0488
   3.0952E-02   3.1705E-02   1.0082E-03  0.0512
   3.1705E-02   3.2477E-02   1.1173E-03  0.0481
   3.2477E-02   3.3267E-02   9.9250E-04  0.0504
   3.3267E-02   3.4076E-02   1.0159E-03  0.0492
   3.4076E-02   3.4905E-02   1.0519E-03  0.0478
   3.4905E-02   3.5755E-02   9.4468E-04  0.0498
   3.5755E-02   3.6625E-02   9.8134E-04  0.0483
   3.6625E-02   3.7516E-02   9.9769E-04  0.0473
   3.7516E-02   3.8428E-02   9.1852E-04  0.0487
   3.8428E-02   3.9363E-02   9.8729E-04  0.0464
   3.9363E-02   4.0321E-02   8.8189E-04  0.0485
   4.0321E-02   4.1302E-02   8.7109E-04  0.0482
   4.1302E-02   4.2307E-02   8.6769E-04  0.0478
   4.2307E-02   4.3337E-02   8.9106E-04  0.0466
   4.3337E-02   4.4391E-02   7.7766E-04  0.0492
   4.4391E-02   4.5471E-02   8.1657E-04  0.0475
   4.5471E-02   4.6577E-02   8.3437E-04  0.0464
   4.6577E-02   4.7711E-02   7.7893E-04  0.0475
   4.7711E-02   4.8871E-02   7.5488E-04  0.0475
   4.8871E-02   5.0061E-02   7.2367E-04  0.0481
   5.0061E-02   5.1279E-02   6.9607E-04  0.0484
   5.1279E-02   5.2526E-02   7.2734E-04  0.0469
   5.2526E-02   5.3804E-02   6.9675E-04  0.0473
   5.3804E-02   5.5113E-02   6.3520E-04  0.0490
   5.5113E-02   5.6454E-02   6.1703E-04  0.0490
   5.6454E-02   5.7828E-02   6.2737E-04  0.0481
   5.7828E-02   5.9235E-02   6.4397E-04  0.0469
   5.9235E-02   6.0676E-02   6.2890E-04  0.0469
   6.0676E-02   6.2152E-02   6.4820E-04  0.0456
   6.2152E-02   6.3665E-02   6.3249E-04  0.0456
   6.3665E-02   6.5214E-02   6.1265E-04  0.0458
   6.5214E-02   6.6800E-02   5.9309E-04  0.0460
   6.6800E-02   6.8426E-02   5.8099E-04  0.0459
   6.8426E-02   7.0090E-02   5.6356E-04  0.0461
   7.0090E-02   7.1796E-02   4.9565E-04  0.0486
   7.1796E-02   7.3543E-02   5.6009E-04  0.0451
   7.3543E-02   7.5332E-02   5.2254E-04  0.0462
   7.5332E-02   7.7165E-02   5.4035E-04  0.0448
   7.7165E-02   7.9042E-02   4.7957E-04  0.0470
   7.9042E-02   8.0965E-02   4.3381E-04  0.0488
   8.0965E-02   8.2935E-02   4.4026E-04  0.0480
   8.2935E-02   8.4953E-02   4.5444E-04  0.0466
   8.4953E-02   8.7020E-02   4.8495E-04  0.0446
   8.7020E-02   8.9138E-02   4.2240E-04  0.0472
   8.9138E-02   9.1306E-02   4.6558E-04  0.0444
   9.1306E-02   9.3528E-02   4.1624E-04  0.0464
   9.3528E-02   9.5804E-02   4.5161E-04  0.0440
   9.5804E-02   9.8134E-02   4.2057E-04  0.0450
   9.8134E-02   1.0052E-01   3.9563E-04  0.0459
   1.0052E-01   1.0297E-01   3.8136E-04  0.0462
   1.0297E-01   1.0547E-01   3.7234E-04  0.0462
   1.0547E-01   1.0804E-01   3.5189E-04  0.0470
   1.0804E-01   1.1067E-01   3.5645E-04  0.0461
   1.1067E-01   1.1336E-01   3.7670E-04  0.0442
   1.1336E-01   1.1612E-01   3.4379E-04  0.0458
   1.1612E-01   1.1894E-01   3.2275E-04  0.0467
   1.1894E-01   1.2184E-01   3.3575E-04  0.0453
   1.2184E-01   1.2480E-01   3.3268E-04  0.0449
   1.2480E-01   1.2784E-01   3.2497E-04  0.0448
   1.2784E-01   1.3095E-01   3.2069E-04  0.0447
   1.3095E-01   1.3414E-01   3.0740E-04  0.0451
   1.3414E-01   1.3740E-01   2.7641E-04  0.0469
   1.3740E-01   1.4074E-01   2.8325E-04  0.0459
   1.4074E-01   1.4417E-01   2.6714E-04  0.0466
   1.4417E-01   1.4767E-01   2.6000E-04  0.0467
   1.4767E-01   1.5127E-01   2.4552E-04  0.0474
   1.5127E-01   1.5495E-01   2.3763E-04  0.0476
   1.5495E-01   1.5872E-01   2.3615E-04  0.0473
   1.5872E-01   1.6258E-01   2.4856E-04  0.0456
   1.6258E-01   1.6654E-01   2.3078E-04  0.0467
   1.6654E-01   1.7059E-01   2.2563E-04  0.0467
   1.7059E-01   1.7474E-01   2.4041E-04  0.0447
   1.7474E-01   1.7899E-01   2.1408E-04  0.0468
   1.7899E-01   1.8334E-01   2.2041E-04  0.0455
   1.8334E-01   1.8781E-01   2.0597E-04  0.0465
   1.8781E-01   1.9237E-01   1.9483E-04  0.0473
   1.9237E-01   1.9706E-01   1.9087E-04  0.0472
   1.9706E-01   2.0185E-01   2.1276E-04  0.0441
   2.0185E-01   2.0676E-01   1.7833E-04  0.0477
   2.0676E-01   2.1179E-01   1.8755E-04  0.0460
   2.1179E-01   2.1694E-01   2.0726E-04  0.0432
   2.1694E-01   2.2222E-01   2.1197E-04  0.0422
   2.2222E-01   2.2763E-01   2.2504E-04  0.0405
   2.2763E-01   2.3317E-01   2.1826E-04  0.0406
   2.3317E-01   2.3884E-01   2.5020E-04  0.0374
   2.3884E-01   2.4465E-01   2.2215E-04  0.0392
   2.4465E-01   2.5061E-01   2.3115E-04  0.0380
   2.5061E-01   2.5670E-01   2.6558E-04  0.0350
   2.5670E-01   2.6295E-01   2.5292E-04  0.0354
   2.6295E-01   2.6935E-01   2.6100E-04  0.0345
   2.6935E-01   2.7590E-01   2.4551E-04  0.0352
   2.7590E-01   2.8261E-01   2.7057E-04  0.0331
   2.8261E-01   2.8949E-01   2.8617E-04  0.0318
   2.8949E-01   2.9653E-01   2.8717E-04  0.0313
   2.9653E-01   3.0375E-01   2.8999E-04  0.0308
   3.0375E-01   3.1114E-01   2.8867E-04  0.0305
   3.1114E-01   3.1871E-01   3.0130E-04  0.0295
   3.1871E-01   3.2646E-01   2.8909E-04  0.0298
   3.2646E-01   3.3441E-01   3.1406E-04  0.0282
   3.3441E-01   3.4254E-01   2.9800E-04  0.0286
   3.4254E-01   3.5088E-01   3.1286E-04  0.0276
   3.5088E-01   3.5941E-01   3.2929E-04  0.0266
   3.5941E-01   3.6816E-01   3.1522E-04  0.0268
   3.6816E-01   3.7712E-01   3.2614E-04  0.0261
   3.7712E-01   3.8629E-01   3.2855E-04  0.0257
   3.8629E-01   3.9569E-01   3.3372E-04  0.0251
   3.9569E-01   4.0532E-01   3.2511E-04  0.0252
   4.0532E-01   4.1518E-01   3.2564E-04  0.0248
   4.1518E-01   4.2528E-01   3.2914E-04  0.0244
   4.2528E-01   4.3563E-01   3.4029E-04  0.0237
   4.3563E-01   4.4623E-01   3.3173E-04  0.0238
   4.4623E-01   4.5708E-01   3.5393E-04  0.0227
   4.5708E-01   4.6821E-01   3.3458E-04  0.0231
   4.6821E-01   4.7960E-01   3.3686E-04  0.0227
   4.7960E-01   4.9127E-01   3.4578E-04  0.0222
   4.9127E-01   5.0322E-01   3.4704E-04  0.0219
   5.0322E-01   5.1546E-01   3.4708E-04  0.0216
   5.1546E-01   5.2800E-01   3.4790E-04  0.0213
   5.2800E-01   5.4085E-01   3.4997E-04  0.0210
   5.4085E-01   5.5401E-01   3.4899E-04  0.0208
   5.5401E-01   5.6749E-01   3.4686E-04  0.0206
   5.6749E-01   5.8130E-01   3.4572E-04  0.0204
   5.8130E-01   5.9544E-01   3.4868E-04  0.0200
   5.9544E-01   6.0993E-01   3.3648E-04  0.0202
   6.0993E-01   6.2477E-01   3.2910E-04  0.0201
   6.2477E-01   6.3997E-01   3.3261E-04  0.0198
   6.3997E-01   6.5554E-01   3.3301E-04  0.0195
   6.5554E-01   6.7149E-01   3.2633E-04  0.0195
   6.7149E-01   6.8783E-01   3.4052E-04  0.0189
   6.8783E-01   7.0456E-01   3.2673E-04  0.0190
   7.0456E-01   7.2171E-01   3.4420E-04  0.0183
   7.2171E-01   7.3927E-01   3.2946E-04  0.0185
   7.3927E-01   7.5725E-01   3.2358E-04  0.0184
   7.5725E-01   7.7568E-01   3.1502E-04  0.0185
   7.7568E-01   7.9455E-01   3.2738E-04  0.0179
   7.9455E-01   8.1388E-01   3.1265E-04  0.0181
   8.1388E-01   8.3368E-01   3.2086E-04  0.0176
   8.3368E-01   8.5397E-01   3.1677E-04  0.0175
   8.5397E-01   8.7475E-01   3.1040E-04  0.0175
   8.7475E-01   8.9603E-01   3.0894E-04  0.0173
   8.9603E-01   9.1783E-01   3.0846E-04  0.0171
   9.1783E-01   9.4016E-01   3.0458E-04  0.0170
   9.4016E-01   9.6304E-01   2.9623E-04  0.0171
   9.6304E-01   9.8647E-01   2.9118E-04  0.0170
   9.8647E-01   1.0105E+00   2.9268E-04  0.0168
   1.0105E+00   1.0351E+00   2.8696E-04  0.0167
   1.0351E+00   1.0602E+00   2.8931E-04  0.0165
   1.0602E+00   1.0860E+00   2.8026E-04  0.0165
   1.0860E+00   1.1125E+00   2.9189E-04  0.0160
   1.1125E+00   1.1395E+00   2.7227E-04  0.0164
   1.1395E+00   1.1673E+00   2.7430E-04  0.0161
   1.1673E+00   1.1957E+00   2.7024E-04  0.0160
   1.1957E+00   1.2247E+00   2.7211E-04  0.0158
   1.2247E+00   1.2545E+00   2.6223E-04  0.0159
   1.2545E+00   1.2851E+00   2.5627E-04  0.0159
   1.2851E+00   1.3163E+00   2.5932E-04  0.0156
   1.3163E+00   1.3484E+00   2.5190E-04  0.0156
   1.3484E+00   1.3812E+00   2.4742E-04  0.0156
   1.3812E+00   1.4148E+00   2.5159E-04  0.0153
   1.4148E+00   1.4492E+00   2.4450E-04  0.0153
   1.4492E+00   1.4845E+00   2.3702E-04  0.0153
   1.4845E+00   1.5206E+00   2.3959E-04  0.0151
   1.5206E+00   1.5576E+00   2.3878E-04  0.0149
   1.5576E+00   1.5955E+00   2.3971E-04  0.0147
   1.5955E+00   1.6343E+00   2.2670E-04  0.0150
   1.6343E+00   1.6741E+00   2.3204E-04  0.0146
   1.6741E+00   1.7148E+00   2.2138E-04  0.0148
   1.7148E+00   1.7565E+00   2.2381E-04  0.0145
   1.7565E+00   1.7992E+00   2.1982E-04  0.0145
   1.7992E+00   1.8430E+00   2.1540E-04  0.0144
   1.8430E+00   1.8879E+00   2.1637E-04  0.0143
   1.8879E+00   1.9338E+00   2.1585E-04  0.0141
   1.9338E+00   1.9808E+00   2.1461E-04  0.0140
   1.9808E+00   2.0290E+00   2.1195E-04  0.0139
   2.0290E+00   2.0784E+00   2.1455E-04  0.0136
   2.0784E+00   2.1290E+00   2.0583E-04  0.0138
   2.1290E+00   2.1808E+00   2.0782E-04  0.0135
   2.1808E+00   2.2338E+00   2.0238E-04  0.0135
   2.2338E+00   2.2882E+00   2.0285E-04  0.0134
   2.2882E+00   2.3439E+00   2.0239E-04  0.0132
   2.3439E+00   2.4009E+00   1.9628E-04  0.0133
   2.4009E+00   2.4593E+00   1.9441E-04  0.0132
   2.4593E+00   2.5191E+00   1.9280E-04  0.0131
   2.5191E+00   2.5804E+00   1.9225E-04  0.0129
   2.5804E+00   2.6432E+00   1.9113E-04  0.0128
   2.6432E+00   2.7075E+00   1.8994E-04  0.0127
   2.7075E+00   2.7734E+00   1.7847E-04  0.0130
   2.7734E+00   2.8409E+00   1.8448E-04  0.0126
   2.8409E+00   2.9100E+00   1.7739E-04  0.0127
   2.9100E+00   2.9808E+00   1.7647E-04  0.0126
   2.9808E+00   3.0533E+00   1.7373E-04  0.0125
   3.0533E+00   3.1276E+00   1.6759E-04  0.0126
   3.1276E+00   3.2037E+00   1.5991E-04  0.0127
   3.2037E+00   3.2817E+00   1.5438E-04  0.0128
   3.2817E+00   3.3615E+00   1.4026E-04  0.0133
   3.3615E+00   3.4433E+00   1.3229E-04  0.0135
   3.4433E+00   3.5271E+00   1.2465E-04  0.0138
   3.5271E+00   3.6129E+00   1.1827E-04  0.0140
   3.6129E+00   3.7008E+00   1.1195E-04  0.0142
   3.7008E+00   3.7908E+00   1.0594E-04  0.0144
   3.7908E+00   3.8831E+00   1.0114E-04  0.0145
   3.8831E+00   3.9776E+00   9.9600E-05  0.0145
   3.9776E+00   4.0743E+00   9.6744E-05  0.0145
   4.0743E+00   4.1735E+00   9.4875E-05  0.0145
   4.1735E+00   4.2750E+00   9.3203E-05  0.0145
   4.2750E+00   4.3790E+00   8.6588E-05  0.0148
   4.3790E+00   4.4856E+00   8.6821E-05  0.0146
   4.4856E+00   4.5947E+00   8.5138E-05  0.0146
   4.5947E+00   4.7065E+00   8.3403E-05  0.0146
   4.7065E+00   4.8210E+00   8.0769E-05  0.0146
   4.8210E+00   4.9383E+00   7.6681E-05  0.0148
   4.9383E+00   5.0585E+00   7.2823E-05  0.0150
   5.0585E+00   5.1815E+00   7.1446E-05  0.0150
   5.1815E+00   5.3076E+00   6.9447E-05  0.0151
   5.3076E+00   5.4368E+00   6.5885E-05  0.0153
   5.4368E+00   5.5690E+00   6.4041E-05  0.0153
   5.5690E+00   5.7045E+00   6.2244E-05  0.0153
   5.7045E+00   5.8433E+00   6.1324E-05  0.0153
   5.8433E+00   5.9855E+00   6.0216E-05  0.0152
   5.9855E+00   6.1311E+00   5.8248E-05  0.0153
   6.1311E+00   6.2803E+00   5.5840E-05  0.0154
   6.2803E+00   6.4331E+00   5.6455E-05  0.0152
   6.4331E+00   6.5896E+00   5.2450E-05  0.0156
   6.5896E+00   6.7500E+00   4.9908E-05  0.0158
   6.7500E+00   6.9142E+00   4.8025E-05  0.0159
   6.9142E+00   7.0824E+00   4.7221E-05  0.0158
   7.0824E+00   7.2548E+00   4.5628E-05  0.0159
   7.2548E+00   7.4313E+00   4.4901E-05  0.0158
   7.4313E+00   7.6121E+00   4.4399E-05  0.0158
   7.6121E+00   7.7973E+00   4.2621E-05  0.0159
   7.7973E+00   7.9870E+00   4.0166E-05  0.0162
   7.9870E+00   8.1813E+00   3.9324E-05  0.0162
   8.1813E+00   8.3804E+00   3.8451E-05  0.0161
   8.3804E+00   8.5843E+00   3.6451E-05  0.0164
   8.5843E+00   8.7931E+00   3.6107E-05  0.0163
   8.7931E+00   9.0071E+00   3.4849E-05  0.0164
   9.0071E+00   9.2262E+00   3.2603E-05  0.0167
   9.2262E+00   9.4507E+00   3.3205E-05  0.0164
   9.4507E+00   9.6807E+00   2.9889E-05  0.0170
   9.6807E+00   9.9162E+00   2.9211E-05  0.0170
   9.9162E+00   1.0157E+01   2.8698E-05  0.0170
   1.0157E+01   1.0405E+01   2.9126E-05  0.0166
   1.0405E+01   1.0658E+01   3.0837E-05  0.0160
   1.0658E+01   1.0917E+01   3.2331E-05  0.0154
   1.0917E+01   1.1183E+01   3.1232E-05  0.0155
   1.1183E+01   1.1455E+01   3.0179E-05  0.0156
   1.1455E+01   1.1733E+01   2.8716E-05  0.0158
   1.1733E+01   1.2019E+01   2.7556E-05  0.0159
   1.2019E+01   1.2311E+01   2.5348E-05  0.0164
   1.2311E+01   1.2611E+01   2.4359E-05  0.0165
   1.2611E+01   1.2918E+01   2.3142E-05  0.0168
   1.2918E+01   1.3232E+01   2.3213E-05  0.0165
   1.3232E+01   1.3554E+01   2.2637E-05  0.0166
   1.3554E+01   1.3884E+01   2.1533E-05  0.0168
   1.3884E+01   1.4222E+01   2.0596E-05  0.0169
   1.4222E+01   1.4568E+01   1.9168E-05  0.0174
   1.4568E+01   1.4922E+01   1.8518E-05  0.0174
   1.4922E+01   1.5285E+01   1.7446E-05  0.0178
   1.5285E+01   1.5657E+01   1.5992E-05  0.0183
   1.5657E+01   1.6038E+01   1.5631E-05  0.0183
   1.6038E+01   1.6428E+01   1.4835E-05  0.0186
   1.6428E+01   1.6828E+01   1.3823E-05  0.0190
   1.6828E+01   1.7237E+01   1.3888E-05  0.0188
   1.7237E+01   1.7657E+01   1.3004E-05  0.0191
   1.7657E+01   1.8086E+01   1.2414E-05  0.0194
   1.8086E+01   1.8526E+01   1.1781E-05  0.0196
   1.8526E+01   1.8977E+01   1.1014E-05  0.0201
   1.8977E+01   1.9439E+01   1.0298E-05  0.0205
   1.9439E+01   1.9912E+01   9.5540E-06  0.0210
   1.9912E+01   2.0396E+01   8.9871E-06  0.0214
   2.0396E+01   2.0893E+01   8.2860E-06  0.0221
   2.0893E+01   2.1401E+01   7.4479E-06  0.0230
   2.1401E+01   2.1922E+01   6.6602E-06  0.0240
   2.1922E+01   2.2455E+01   5.6809E-06  0.0257
   2.2455E+01   2.3001E+01   4.7406E-06  0.0278
   2.3001E+01   2.3561E+01   4.0597E-06  0.0297
   2.3561E+01   2.4134E+01   3.5342E-06  0.0314
   2.4134E+01   2.4721E+01   2.6737E-06  0.0357
   2.4721E+01   2.5323E+01   2.1380E-06  0.0394
   2.5323E+01   2.5939E+01   1.6101E-06  0.0449
   2.5939E+01   2.6570E+01   1.0838E-06  0.0541
   2.6570E+01   2.7217E+01   5.9709E-07  0.0720
   2.7217E+01   2.7879E+01   3.7753E-07  0.0894
   2.7879E+01   2.8557E+01   1.6217E-07  0.1348
   2.8557E+01   2.9252E+01   4.3177E-08  0.2582
   2.9252E+01   2.9964E+01   5.6202E-09  0.7071
   2.9964E+01   3.0693E+01   2.7433E-09  1.0000
   3.0693E+01   3.1440E+01   2.6782E-09  1.0000
   3.1440E+01   3.2205E+01   0.0000E+00  0.0000
   3.2205E+01   3.2988E+01   0.0000E+00  0.0000
   3.2988E+01   3.3791E+01   0.0000E+00  0.0000
   3.3791E+01   3.4613E+01   0.0000E+00  0.0000
   3.4613E+01   3.5455E+01   0.0000E+00  0.0000
   3.5455E+01   3.6318E+01   0.0000E+00  0.0000
   3.6318E+01   3.7201E+01   0.0000E+00  0.0000
   3.7201E+01   3.8106E+01   0.0000E+00  0.0000
   3.8106E+01   3.9034E+01   0.0000E+00  0.0000
   3.9034E+01   3.9983E+01   0.0000E+00  0.0000
   3.9983E+01   4.0956E+01   0.0000E+00  0.0000
   4.0956E+01   4.1953E+01   0.0000E+00  0.0000
   4.1953E+01   4.2973E+01   0.0000E+00  0.0000
   4.2973E+01   4.4019E+01   0.0000E+00  0.0000
   4.4019E+01   4.5090E+01   0.0000E+00  0.0000
   4.5090E+01   4.6187E+01   0.0000E+00  0.0000
   4.6187E+01   4.7311E+01   0.0000E+00  0.0000
   4.7311E+01   4.8462E+01   0.0000E+00  0.0000
   4.8462E+01   4.9641E+01   0.0000E+00  0.0000
   4.9641E+01   5.0849E+01   0.0000E+00  0.0000
   5.0849E+01   5.2086E+01   0.0000E+00  0.0000
   5.2086E+01   5.3353E+01   0.0000E+00  0.0000
   5.3353E+01   5.4651E+01   0.0000E+00  0.0000
   5.4651E+01   5.5981E+01   0.0000E+00  0.0000
   5.5981E+01   5.7343E+01   0.0000E+00  0.0000
   5.7343E+01   5.8738E+01   0.0000E+00  0.0000
   5.8738E+01   6.0168E+01   0.0000E+00  0.0000
   6.0168E+01   6.1632E+01   0.0000E+00  0.0000
   6.1632E+01   6.3131E+01   0.0000E+00  0.0000
   6.3131E+01   6.4667E+01   0.0000E+00  0.0000
   6.4667E+01   6.6240E+01   0.0000E+00  0.0000
   6.6240E+01   6.7852E+01   0.0000E+00  0.0000
   6.7852E+01   6.9503E+01   0.0000E+00  0.0000
   6.9503E+01   7.1194E+01   0.0000E+00  0.0000
   7.1194E+01   7.2926E+01   0.0000E+00  0.0000
   7.2926E+01   7.4701E+01   0.0000E+00  0.0000
   7.4701E+01   7.6518E+01   0.0000E+00  0.0000
   7.6518E+01   7.8380E+01   0.0000E+00  0.0000
   7.8380E+01   8.0287E+01   0.0000E+00  0.0000
   8.0287E+01   8.2240E+01   0.0000E+00  0.0000
   8.2240E+01   8.4241E+01   0.0000E+00  0.0000
   8.4241E+01   8.6291E+01   0.0000E+00  0.0000
   8.6291E+01   8.8391E+01   0.0000E+00  0.0000
   8.8391E+01   9.0541E+01   0.0000E+00  0.0000
   9.0541E+01   9.2744E+01   0.0000E+00  0.0000
   9.2744E+01   9.5001E+01   0.0000E+00  0.0000
   9.5001E+01   9.7312E+01   0.0000E+00  0.0000
   9.7312E+01   9.9680E+01   0.0000E+00  0.0000
   9.9680E+01   1.0211E+02   0.0000E+00  0.0000
   1.0211E+02   1.0459E+02   0.0000E+00  0.0000
   1.0459E+02   1.0713E+02   0.0000E+00  0.0000
   1.0713E+02   1.0974E+02   0.0000E+00  0.0000
   1.0974E+02   1.1241E+02   0.0000E+00  0.0000
   1.1241E+02   1.1515E+02   0.0000E+00  0.0000
   1.1515E+02   1.1795E+02   0.0000E+00  0.0000
   1.1795E+02   1.2082E+02   0.0000E+00  0.0000
   1.2082E+02   1.2376E+02   0.0000E+00  0.0000
   1.2376E+02   1.2677E+02   0.0000E+00  0.0000
   1.2677E+02   1.2985E+02   0.0000E+00  0.0000
   1.2985E+02   1.3301E+02   0.0000E+00  0.0000
   1.3301E+02   1.3625E+02   0.0000E+00  0.0000
   1.3625E+02   1.3956E+02   0.0000E+00  0.0000
   1.3956E+02   1.4296E+02   0.0000E+00  0.0000
   1.4296E+02   1.4644E+02   0.0000E+00  0.0000
   1.4644E+02   1.5000E+02   0.0000E+00  0.0000

#   sum over                 9.7197E-06
'no. =    1   reg = 118 - 218'
msuc: {\huge [t-cross] in region mesh}
msdr: {\it plotted by \ANGEL \version}
msdl: {\it calculated by \PHITS  3.26}
wt: s(0.7)
\vspace{-3}
  region surface crossing
  area  &=&   1.0000E+00 [cm^2]
e:
 
# Information for Restart Calculation
# This calculation was newly started
# istdev =  2 # 1:Batch variance, 2:History variance
# resc2  = 5.00000000000000000E+08 # Total source weight or Total source weight / maxcas
# resc3  = 5.00000000000000000E+08 # Total history number or Total batch number
# maxcas =   500000000 # History / Batch, only used for istdev=1
# bitrseed = 1011101111111101000111101101010011111001010110111001011111010111 # bit data of rseed
