[ T-Cross ]
    title = [t-cross] in region mesh
     mesh =  reg            # mesh type is region-wise
      reg =    1            # number of crossing regions
      non     r-from    r-to       area
      1       100       200        1.000000    
   e-type =    3            # e-mesh is log given by emin, emax and ne
     emin =  1.0000000E-02  # minimum value of e-mesh points
     emax =   150.0000      # maximum value of e-mesh points
#    edel =  2.4039514E-02  # mesh width of e-mesh points
       ne =    400          # number of e-mesh points
#    data = ( e(i), i = 1, ne + 1 )
#           1.00000E-02  1.02433E-02  1.04925E-02  1.07478E-02  1.10093E-02
#           1.12772E-02  1.15516E-02  1.18326E-02  1.21205E-02  1.24154E-02
#           1.27175E-02  1.30269E-02  1.33439E-02  1.36686E-02  1.40011E-02
#           1.43418E-02  1.46907E-02  1.50482E-02  1.54143E-02  1.57894E-02
#           1.61735E-02  1.65670E-02  1.69701E-02  1.73830E-02  1.78060E-02
#           1.82392E-02  1.86830E-02  1.91375E-02  1.96032E-02  2.00801E-02
#           2.05687E-02  2.10692E-02  2.15818E-02  2.21069E-02  2.26448E-02
#           2.31957E-02  2.37601E-02  2.43382E-02  2.49304E-02  2.55369E-02
#           2.61583E-02  2.67947E-02  2.74467E-02  2.81145E-02  2.87985E-02
#           2.94992E-02  3.02169E-02  3.09521E-02  3.17052E-02  3.24766E-02
#           3.32668E-02  3.40762E-02  3.49053E-02  3.57546E-02  3.66246E-02
#           3.75157E-02  3.84284E-02  3.93634E-02  4.03212E-02  4.13022E-02
#           4.23071E-02  4.33365E-02  4.43909E-02  4.54710E-02  4.65773E-02
#           4.77106E-02  4.88714E-02  5.00605E-02  5.12785E-02  5.25262E-02
#           5.38042E-02  5.51133E-02  5.64542E-02  5.78278E-02  5.92348E-02
#           6.06760E-02  6.21523E-02  6.36645E-02  6.52135E-02  6.68002E-02
#           6.84255E-02  7.00904E-02  7.17957E-02  7.35426E-02  7.53319E-02
#           7.71648E-02  7.90423E-02  8.09655E-02  8.29354E-02  8.49533E-02
#           8.70203E-02  8.91376E-02  9.13064E-02  9.35279E-02  9.58035E-02
#           9.81345E-02  1.00522E-01  1.02968E-01  1.05473E-01  1.08040E-01
#           1.10668E-01  1.13361E-01  1.16119E-01  1.18944E-01  1.21838E-01
#           1.24803E-01  1.27839E-01  1.30950E-01  1.34136E-01  1.37399E-01
#           1.40742E-01  1.44167E-01  1.47675E-01  1.51268E-01  1.54948E-01
#           1.58718E-01  1.62580E-01  1.66535E-01  1.70587E-01  1.74738E-01
#           1.78989E-01  1.83344E-01  1.87805E-01  1.92375E-01  1.97055E-01
#           2.01850E-01  2.06761E-01  2.11792E-01  2.16945E-01  2.22223E-01
#           2.27630E-01  2.33169E-01  2.38842E-01  2.44653E-01  2.50605E-01
#           2.56703E-01  2.62949E-01  2.69346E-01  2.75900E-01  2.82613E-01
#           2.89489E-01  2.96532E-01  3.03747E-01  3.11138E-01  3.18708E-01
#           3.26462E-01  3.34405E-01  3.42542E-01  3.50876E-01  3.59413E-01
#           3.68158E-01  3.77116E-01  3.86291E-01  3.95690E-01  4.05317E-01
#           4.15179E-01  4.25281E-01  4.35628E-01  4.46227E-01  4.57084E-01
#           4.68205E-01  4.79597E-01  4.91266E-01  5.03219E-01  5.15463E-01
#           5.28005E-01  5.40851E-01  5.54011E-01  5.67490E-01  5.81298E-01
#           5.95441E-01  6.09929E-01  6.24769E-01  6.39970E-01  6.55541E-01
#           6.71491E-01  6.87828E-01  7.04564E-01  7.21706E-01  7.39266E-01
#           7.57253E-01  7.75678E-01  7.94551E-01  8.13883E-01  8.33685E-01
#           8.53969E-01  8.74747E-01  8.96030E-01  9.17831E-01  9.40163E-01
#           9.63038E-01  9.86469E-01  1.01047E+00  1.03506E+00  1.06024E+00
#           1.08604E+00  1.11246E+00  1.13953E+00  1.16725E+00  1.19565E+00
#           1.22474E+00  1.25454E+00  1.28507E+00  1.31633E+00  1.34836E+00
#           1.38117E+00  1.41477E+00  1.44920E+00  1.48446E+00  1.52057E+00
#           1.55757E+00  1.59547E+00  1.63429E+00  1.67405E+00  1.71478E+00
#           1.75650E+00  1.79924E+00  1.84302E+00  1.88786E+00  1.93379E+00
#           1.98084E+00  2.02904E+00  2.07841E+00  2.12898E+00  2.18078E+00
#           2.23384E+00  2.28819E+00  2.34386E+00  2.40089E+00  2.45930E+00
#           2.51914E+00  2.58043E+00  2.64322E+00  2.70753E+00  2.77341E+00
#           2.84088E+00  2.91001E+00  2.98081E+00  3.05333E+00  3.12762E+00
#           3.20372E+00  3.28167E+00  3.36152E+00  3.44330E+00  3.52708E+00
#           3.61290E+00  3.70080E+00  3.79085E+00  3.88308E+00  3.97756E+00
#           4.07434E+00  4.17347E+00  4.27501E+00  4.37903E+00  4.48557E+00
#           4.59471E+00  4.70650E+00  4.82102E+00  4.93832E+00  5.05847E+00
#           5.18155E+00  5.30762E+00  5.43676E+00  5.56904E+00  5.70453E+00
#           5.84333E+00  5.98550E+00  6.13114E+00  6.28031E+00  6.43312E+00
#           6.58964E+00  6.74997E+00  6.91420E+00  7.08243E+00  7.25475E+00
#           7.43126E+00  7.61207E+00  7.79728E+00  7.98700E+00  8.18133E+00
#           8.38038E+00  8.58428E+00  8.79315E+00  9.00709E+00  9.22624E+00
#           9.45072E+00  9.68067E+00  9.91620E+00  1.01575E+01  1.04046E+01
#           1.06578E+01  1.09171E+01  1.11827E+01  1.14548E+01  1.17335E+01
#           1.20190E+01  1.23114E+01  1.26109E+01  1.29178E+01  1.32321E+01
#           1.35540E+01  1.38838E+01  1.42216E+01  1.45676E+01  1.49221E+01
#           1.52851E+01  1.56570E+01  1.60380E+01  1.64282E+01  1.68279E+01
#           1.72374E+01  1.76568E+01  1.80864E+01  1.85264E+01  1.89772E+01
#           1.94389E+01  1.99119E+01  2.03963E+01  2.08926E+01  2.14009E+01
#           2.19216E+01  2.24550E+01  2.30014E+01  2.35610E+01  2.41343E+01
#           2.47215E+01  2.53230E+01  2.59391E+01  2.65702E+01  2.72167E+01
#           2.78789E+01  2.85572E+01  2.92520E+01  2.99637E+01  3.06928E+01
#           3.14396E+01  3.22045E+01  3.29881E+01  3.37907E+01  3.46128E+01
#           3.54550E+01  3.63177E+01  3.72013E+01  3.81064E+01  3.90336E+01
#           3.99833E+01  4.09561E+01  4.19526E+01  4.29734E+01  4.40189E+01
#           4.50900E+01  4.61870E+01  4.73108E+01  4.84619E+01  4.96410E+01
#           5.08488E+01  5.20860E+01  5.33533E+01  5.46514E+01  5.59812E+01
#           5.73432E+01  5.87384E+01  6.01676E+01  6.16315E+01  6.31311E+01
#           6.46671E+01  6.62405E+01  6.78522E+01  6.95031E+01  7.11941E+01
#           7.29263E+01  7.47007E+01  7.65182E+01  7.83800E+01  8.02870E+01
#           8.22405E+01  8.42414E+01  8.62911E+01  8.83906E+01  9.05412E+01
#           9.27442E+01  9.50007E+01  9.73122E+01  9.96799E+01  1.02105E+02
#           1.04589E+02  1.07134E+02  1.09741E+02  1.12411E+02  1.15146E+02
#           1.17948E+02  1.20817E+02  1.23757E+02  1.26768E+02  1.29852E+02
#           1.33012E+02  1.36248E+02  1.39563E+02  1.42959E+02  1.46437E+02
#           1.50000E+02
     unit =    2            # unit is [1/cm^2/(MeV/n)/source]
     axis =  eng            # axis of output
     file = detector-01.out  # file name of output for the above axis
   output = f-curr          # surface crossing forward current spectrum
     part =  neutron  
# kf/name :  2112     
#    used :        main (  %)        temp (  %)       total (  %)
#  memory :         414 (  0)           0 (  0)         414 (  0)

#------------------------------------------------------------------------------
#newpage:
#   no. =    1   reg = 100 - 200

x: Energy [MeV/n]
y:  F-Curr [1/cm^2/(MeV/n)/source]         
p: xlog ylog afac(0.8) form(0.9)
h: n            x            y(neutron ),hh0l   n 
#  e-lower      e-upper      neutron     r.err 
   1.0000E-02   1.0243E-02   0.0000E+00  0.0000
   1.0243E-02   1.0493E-02   1.6050E-05  0.7071
   1.0493E-02   1.0748E-02   0.0000E+00  0.0000
   1.0748E-02   1.1009E-02   1.5296E-05  0.7071
   1.1009E-02   1.1277E-02   1.4933E-05  0.7071
   1.1277E-02   1.1552E-02   0.0000E+00  0.0000
   1.1552E-02   1.1833E-02   2.1348E-05  0.5774
   1.1833E-02   1.2121E-02   0.0000E+00  0.0000
   1.2121E-02   1.2415E-02   0.0000E+00  0.0000
   1.2415E-02   1.2718E-02   8.6141E-06  0.7859
   1.2718E-02   1.3027E-02   6.4636E-06  1.0000
   1.3027E-02   1.3344E-02   1.8930E-05  0.5774
   1.3344E-02   1.3669E-02   6.1601E-06  1.0000
   1.3669E-02   1.4001E-02   1.2028E-05  0.7071
   1.4001E-02   1.4342E-02   1.7613E-05  0.5774
   1.4342E-02   1.4691E-02   1.1463E-05  0.7071
   1.4691E-02   1.5048E-02   5.5954E-06  1.0000
   1.5048E-02   1.5414E-02   0.0000E+00  0.0000
   1.5414E-02   1.5789E-02   5.3327E-06  1.0000
   1.5789E-02   1.6174E-02   0.0000E+00  0.0000
   1.6174E-02   1.6567E-02   5.0824E-06  1.0000
   1.6567E-02   1.6970E-02   1.1443E-05  0.6204
   1.6970E-02   1.7383E-02   0.0000E+00  0.0000
   1.7383E-02   1.7806E-02   2.3644E-06  1.0000
   1.7806E-02   1.8239E-02   4.6165E-06  1.0000
   1.8239E-02   1.8683E-02   4.5068E-06  1.0000
   1.8683E-02   1.9138E-02   5.0136E-06  0.8861
   1.9138E-02   1.9603E-02   1.1921E-06  0.7078
   1.9603E-02   2.0080E-02   4.1932E-06  1.0000
   2.0080E-02   2.0569E-02   0.0000E+00  0.0000
   2.0569E-02   2.1069E-02   3.9964E-06  1.0000
   2.1069E-02   2.1582E-02   0.0000E+00  0.0000
   2.1582E-02   2.2107E-02   5.7132E-06  0.7454
   2.2107E-02   2.2645E-02   3.7183E-06  1.0000
   2.2645E-02   2.3196E-02   2.3425E-06  0.8069
   2.3196E-02   2.3760E-02   5.3157E-06  0.7454
   2.3760E-02   2.4338E-02   6.9192E-06  0.7071
   2.4338E-02   2.4930E-02   6.7548E-06  0.7071
   2.4930E-02   2.5537E-02   3.2972E-06  1.0000
   2.5537E-02   2.6158E-02   9.6566E-06  0.5774
   2.6158E-02   2.6795E-02   3.1424E-06  1.0000
   2.6795E-02   2.7447E-02   0.0000E+00  0.0000
   2.7447E-02   2.8114E-02   0.0000E+00  0.0000
   2.8114E-02   2.8799E-02   2.9238E-06  1.0000
   2.8799E-02   2.9499E-02   2.8543E-06  1.0000
   2.9499E-02   3.0217E-02   2.7865E-06  1.0000
   3.0217E-02   3.0952E-02   0.0000E+00  0.0000
   3.0952E-02   3.1705E-02   0.0000E+00  0.0000
   3.1705E-02   3.2477E-02   2.5926E-06  1.0000
   3.2477E-02   3.3267E-02   3.8761E-07  1.0000
   3.3267E-02   3.4076E-02   2.8734E-06  0.8713
   3.4076E-02   3.4905E-02   2.4122E-06  1.0000
   3.4905E-02   3.5755E-02   2.3550E-06  1.0000
   3.5755E-02   3.6625E-02   6.8970E-06  0.5774
   3.6625E-02   3.7516E-02   2.2444E-06  1.0000
   3.7516E-02   3.8428E-02   6.5733E-06  0.5774
   3.8428E-02   3.9363E-02   2.1391E-06  1.0000
   3.9363E-02   4.0321E-02   2.0882E-06  1.0000
   4.0321E-02   4.1302E-02   0.0000E+00  0.0000
   4.1302E-02   4.2307E-02   4.9755E-06  0.6000
   4.2307E-02   4.3337E-02   3.1448E-07  1.0000
   4.3337E-02   4.4391E-02   3.7936E-06  0.7071
   4.4391E-02   4.5471E-02   0.0000E+00  0.0000
   4.5471E-02   4.6577E-02   1.8078E-06  1.0000
   4.6577E-02   4.7711E-02   3.5296E-06  0.7071
   4.7711E-02   4.8871E-02   3.4458E-06  0.7071
   4.8871E-02   5.0061E-02   1.6820E-06  1.0000
   5.0061E-02   5.1279E-02   0.0000E+00  0.0000
   5.1279E-02   5.2526E-02   2.8399E-07  1.0000
   5.2526E-02   5.3804E-02   1.5649E-06  1.0000
   5.3804E-02   5.5113E-02   3.0555E-06  0.7071
   5.5113E-02   5.6454E-02   2.4519E-07  1.0000
   5.6454E-02   5.7828E-02   0.0000E+00  0.0000
   5.7828E-02   5.9235E-02   1.4215E-06  1.0000
   5.9235E-02   6.0676E-02   4.1631E-06  0.5774
   6.0676E-02   6.2152E-02   1.3547E-06  1.0000
   6.2152E-02   6.3665E-02   3.9677E-06  0.5774
   6.3665E-02   6.5214E-02   3.8734E-06  0.5774
   6.5214E-02   6.6800E-02   6.3024E-07  1.0000
   6.6800E-02   6.8426E-02   0.0000E+00  0.0000
   6.8426E-02   7.0090E-02   1.2013E-06  1.0000
   7.0090E-02   7.1796E-02   0.0000E+00  0.0000
   7.1796E-02   7.3543E-02   1.1449E-06  1.0000
   7.3543E-02   7.5332E-02   1.2826E-06  0.8809
   7.5332E-02   7.7165E-02   0.0000E+00  0.0000
   7.7165E-02   7.9042E-02   1.0653E-06  1.0000
   7.9042E-02   8.0965E-02   0.0000E+00  0.0000
   8.0965E-02   8.2935E-02   0.0000E+00  0.0000
   8.2935E-02   8.4953E-02   1.9823E-06  0.7071
   8.4953E-02   8.7020E-02   0.0000E+00  0.0000
   8.7020E-02   8.9138E-02   1.8892E-06  0.7071
   8.9138E-02   9.1306E-02   0.0000E+00  0.0000
   9.1306E-02   9.3528E-02   0.0000E+00  0.0000
   9.3528E-02   9.5804E-02   1.0350E-06  0.8625
   9.5804E-02   9.8134E-02   1.7160E-06  0.7071
   9.8134E-02   1.0052E-01   1.6753E-06  0.7071
   1.0052E-01   1.0297E-01   8.1773E-07  1.0000
   1.0297E-01   1.0547E-01   7.9831E-07  1.0000
   1.0547E-01   1.0804E-01   7.7935E-07  1.0000
   1.0804E-01   1.1067E-01   7.6084E-07  1.0000
   1.1067E-01   1.1336E-01   2.2283E-06  0.5774
   1.1336E-01   1.1612E-01   2.1754E-06  0.5774
   1.1612E-01   1.1894E-01   7.0790E-07  1.0000
   1.1894E-01   1.2184E-01   6.9108E-07  1.0000
   1.2184E-01   1.2480E-01   6.7467E-07  1.0000
   1.2480E-01   1.2784E-01   1.3173E-06  0.7071
   1.2784E-01   1.3095E-01   0.0000E+00  0.0000
   1.3095E-01   1.3414E-01   1.2554E-06  0.7071
   1.3414E-01   1.3740E-01   6.1281E-07  1.0000
   1.3740E-01   1.4074E-01   5.9826E-07  1.0000
   1.4074E-01   1.4417E-01   0.0000E+00  0.0000
   1.4417E-01   1.4767E-01   1.1404E-06  0.7071
   1.4767E-01   1.5127E-01   5.5663E-07  1.0000
   1.5127E-01   1.5495E-01   6.3640E-07  0.8663
   1.5495E-01   1.5872E-01   3.3958E-07  0.8112
   1.5872E-01   1.6258E-01   1.0358E-06  0.7071
   1.6258E-01   1.6654E-01   1.0112E-06  0.7071
   1.6654E-01   1.7059E-01   0.0000E+00  0.0000
   1.7059E-01   1.7474E-01   0.0000E+00  0.0000
   1.7474E-01   1.7899E-01   1.4113E-06  0.5774
   1.7899E-01   1.8334E-01   4.5925E-07  1.0000
   1.8334E-01   1.8781E-01   4.4834E-07  1.0000
   1.8781E-01   1.9237E-01   8.7538E-07  0.7071
   1.9237E-01   1.9706E-01   4.2729E-07  1.0000
   1.9706E-01   2.0185E-01   1.2514E-06  0.5774
   2.0185E-01   2.0676E-01   8.1447E-07  0.7071
   2.0676E-01   2.1179E-01   1.1927E-06  0.5774
   2.1179E-01   2.1694E-01   5.8218E-07  0.7454
   2.1694E-01   2.2222E-01   3.7890E-07  1.0000
   2.2222E-01   2.2763E-01   7.3980E-07  0.7071
   2.2763E-01   2.3317E-01   7.2223E-07  0.7071
   2.3317E-01   2.3884E-01   3.5254E-07  1.0000
   2.3884E-01   2.4465E-01   1.3767E-06  0.5000
   2.4465E-01   2.5061E-01   2.5199E-06  0.3590
   2.5061E-01   2.5670E-01   9.8402E-07  0.5774
   2.5670E-01   2.6295E-01   3.2022E-07  1.0000
   2.6295E-01   2.6935E-01   6.2522E-07  0.7071
   2.6935E-01   2.7590E-01   3.5594E-07  0.8692
   2.7590E-01   2.8261E-01   3.4763E-07  0.8689
   2.8261E-01   2.8949E-01   2.1814E-06  0.3590
   2.8949E-01   2.9653E-01   5.6790E-07  0.7071
   2.9653E-01   3.0375E-01   2.2176E-06  0.3536
   3.0375E-01   3.1114E-01   1.3531E-06  0.4472
   3.1114E-01   3.1871E-01   7.0152E-07  0.5679
   3.1871E-01   3.2646E-01   5.5723E-07  0.6588
   3.2646E-01   3.3441E-01   2.0143E-06  0.3536
   3.3441E-01   3.4254E-01   9.8324E-07  0.5000
   3.4254E-01   3.5088E-01   9.5989E-07  0.5000
   3.5088E-01   3.5941E-01   2.5770E-06  0.3015
   3.5941E-01   3.6816E-01   7.1933E-07  0.5526
   3.6816E-01   3.7712E-01   1.3396E-06  0.4082
   3.7712E-01   3.8629E-01   1.1988E-06  0.4166
   3.8629E-01   3.9569E-01   1.5960E-06  0.3590
   3.9569E-01   4.0532E-01   1.3168E-06  0.3884
   4.0532E-01   4.1518E-01   2.6655E-06  0.2745
   4.1518E-01   4.2528E-01   1.7819E-06  0.3333
   4.2528E-01   4.3563E-01   1.9329E-06  0.3162
   4.3563E-01   4.4623E-01   3.3965E-06  0.2357
   4.4623E-01   4.5708E-01   2.4723E-06  0.2641
   4.5708E-01   4.6821E-01   2.8458E-06  0.2472
   4.6821E-01   4.7960E-01   4.3013E-06  0.2010
   4.7960E-01   4.9127E-01   2.2876E-06  0.2708
   4.9127E-01   5.0322E-01   4.0158E-06  0.2041
   5.0322E-01   5.1546E-01   3.2944E-06  0.2219
   5.1546E-01   5.2800E-01   4.4275E-06  0.1881
   5.2800E-01   5.4085E-01   3.5807E-06  0.2085
   5.4085E-01   5.5401E-01   4.2795E-06  0.1863
   5.5401E-01   5.6749E-01   3.8049E-06  0.1960
   5.6749E-01   5.8130E-01   4.4903E-06  0.1796
   5.8130E-01   5.9544E-01   5.8890E-06  0.1543
   5.9544E-01   6.0993E-01   4.3778E-06  0.1750
   6.0993E-01   6.2477E-01   2.9442E-06  0.2113
   6.2477E-01   6.3997E-01   5.2519E-06  0.1561
   6.3997E-01   6.5554E-01   6.3497E-06  0.1417
   6.5554E-01   6.7149E-01   6.1443E-06  0.1429
   6.7149E-01   6.8783E-01   6.5299E-06  0.1359
   6.8783E-01   7.0456E-01   4.9988E-06  0.1536
   7.0456E-01   7.2171E-01   6.0258E-06  0.1386
   7.2171E-01   7.3927E-01   5.6543E-06  0.1414
   7.3927E-01   7.5725E-01   5.4671E-06  0.1410
   7.5725E-01   7.7568E-01   7.9599E-06  0.1166
   7.7568E-01   7.9455E-01   7.8610E-06  0.1160
   7.9455E-01   8.1388E-01   8.0856E-06  0.1127
   8.1388E-01   8.3368E-01   9.4880E-06  0.1028
   8.3368E-01   8.5397E-01   7.9535E-06  0.1107
   8.5397E-01   8.7475E-01   8.5166E-06  0.1058
   8.7475E-01   8.9603E-01   9.5054E-06  0.0994
   8.9603E-01   9.1783E-01   8.9539E-06  0.1007
   9.1783E-01   9.4016E-01   1.0432E-05  0.0921
   9.4016E-01   9.6304E-01   9.9659E-06  0.0934
   9.6304E-01   9.8647E-01   1.1408E-05  0.0864
   9.8647E-01   1.0105E+00   1.2441E-05  0.0816
   1.0105E+00   1.0351E+00   1.1915E-05  0.0824
   1.0351E+00   1.0602E+00   1.0561E-05  0.0860
   1.0602E+00   1.0860E+00   1.0616E-05  0.0853
   1.0860E+00   1.1125E+00   1.2696E-05  0.0770
   1.1125E+00   1.1395E+00   1.2668E-05  0.0761
   1.1395E+00   1.1673E+00   1.3354E-05  0.0732
   1.1673E+00   1.1957E+00   1.4775E-05  0.0689
   1.1957E+00   1.2247E+00   1.3538E-05  0.0712
   1.2247E+00   1.2545E+00   1.4416E-05  0.0681
   1.2545E+00   1.2851E+00   1.4166E-05  0.0678
   1.2851E+00   1.3163E+00   1.3575E-05  0.0683
   1.3163E+00   1.3484E+00   1.5705E-05  0.0628
   1.3484E+00   1.3812E+00   1.6310E-05  0.0608
   1.3812E+00   1.4148E+00   1.6638E-05  0.0596
   1.4148E+00   1.4492E+00   1.6751E-05  0.0588
   1.4492E+00   1.4845E+00   1.6379E-05  0.0586
   1.4845E+00   1.5206E+00   1.8778E-05  0.0540
   1.5206E+00   1.5576E+00   1.7192E-05  0.0558
   1.5576E+00   1.5955E+00   1.8066E-05  0.0538
   1.5955E+00   1.6343E+00   1.7328E-05  0.0543
   1.6343E+00   1.6741E+00   1.8651E-05  0.0517
   1.6741E+00   1.7148E+00   1.9115E-05  0.0505
   1.7148E+00   1.7565E+00   1.8346E-05  0.0510
   1.7565E+00   1.7992E+00   1.9635E-05  0.0486
   1.7992E+00   1.8430E+00   1.9170E-05  0.0486
   1.8430E+00   1.8879E+00   2.1186E-05  0.0458
   1.8879E+00   1.9338E+00   2.0519E-05  0.0459
   1.9338E+00   1.9808E+00   2.2654E-05  0.0432
   1.9808E+00   2.0290E+00   2.1403E-05  0.0439
   2.0290E+00   2.0784E+00   2.0994E-05  0.0437
   2.0784E+00   2.1290E+00   2.3107E-05  0.0412
   2.1290E+00   2.1808E+00   2.1429E-05  0.0423
   2.1808E+00   2.2338E+00   2.3397E-05  0.0400
   2.2338E+00   2.2882E+00   2.3176E-05  0.0397
   2.2882E+00   2.3439E+00   2.2528E-05  0.0398
   2.3439E+00   2.4009E+00   2.4205E-05  0.0379
   2.4009E+00   2.4593E+00   2.3436E-05  0.0381
   2.4593E+00   2.5191E+00   2.4065E-05  0.0372
   2.5191E+00   2.5804E+00   2.4661E-05  0.0362
   2.5804E+00   2.6432E+00   2.5834E-05  0.0350
   2.6432E+00   2.7075E+00   2.4589E-05  0.0354
   2.7075E+00   2.7734E+00   2.4399E-05  0.0351
   2.7734E+00   2.8409E+00   2.4261E-05  0.0348
   2.8409E+00   2.9100E+00   2.4361E-05  0.0343
   2.9100E+00   2.9808E+00   2.6688E-05  0.0324
   2.9808E+00   3.0533E+00   2.5485E-05  0.0327
   3.0533E+00   3.1276E+00   2.5561E-05  0.0324
   3.1276E+00   3.2037E+00   2.7466E-05  0.0308
   3.2037E+00   3.2817E+00   2.7214E-05  0.0306
   3.2817E+00   3.3615E+00   2.7497E-05  0.0301
   3.3615E+00   3.4433E+00   2.7079E-05  0.0300
   3.4433E+00   3.5271E+00   2.6115E-05  0.0302
   3.5271E+00   3.6129E+00   2.9060E-05  0.0282
   3.6129E+00   3.7008E+00   2.8574E-05  0.0282
   3.7008E+00   3.7908E+00   2.6327E-05  0.0290
   3.7908E+00   3.8831E+00   2.7730E-05  0.0279
   3.8831E+00   3.9776E+00   2.7848E-05  0.0275
   3.9776E+00   4.0743E+00   2.8772E-05  0.0267
   4.0743E+00   4.1735E+00   2.9638E-05  0.0260
   4.1735E+00   4.2750E+00   2.8700E-05  0.0261
   4.2750E+00   4.3790E+00   2.8970E-05  0.0257
   4.3790E+00   4.4856E+00   2.8646E-05  0.0255
   4.4856E+00   4.5947E+00   3.0262E-05  0.0245
   4.5947E+00   4.7065E+00   3.0151E-05  0.0243
   4.7065E+00   4.8210E+00   3.1473E-05  0.0235
   4.8210E+00   4.9383E+00   2.9969E-05  0.0238
   4.9383E+00   5.0585E+00   3.0969E-05  0.0231
   5.0585E+00   5.1815E+00   3.0364E-05  0.0231
   5.1815E+00   5.3076E+00   3.0403E-05  0.0228
   5.3076E+00   5.4368E+00   3.1118E-05  0.0223
   5.4368E+00   5.5690E+00   3.0514E-05  0.0222
   5.5690E+00   5.7045E+00   3.0277E-05  0.0220
   5.7045E+00   5.8433E+00   3.1448E-05  0.0214
   5.8433E+00   5.9855E+00   3.0760E-05  0.0213
   5.9855E+00   6.1311E+00   3.0165E-05  0.0213
   6.1311E+00   6.2803E+00   3.0922E-05  0.0208
   6.2803E+00   6.4331E+00   3.1718E-05  0.0203
   6.4331E+00   6.5896E+00   2.9602E-05  0.0207
   6.5896E+00   6.7500E+00   3.1664E-05  0.0198
   6.7500E+00   6.9142E+00   3.1119E-05  0.0198
   6.9142E+00   7.0824E+00   3.2053E-05  0.0192
   7.0824E+00   7.2548E+00   3.1562E-05  0.0192
   7.2548E+00   7.4313E+00   3.2493E-05  0.0187
   7.4313E+00   7.6121E+00   3.1670E-05  0.0187
   7.6121E+00   7.7973E+00   3.0548E-05  0.0188
   7.7973E+00   7.9870E+00   3.0720E-05  0.0185
   7.9870E+00   8.1813E+00   3.0449E-05  0.0184
   8.1813E+00   8.3804E+00   3.0569E-05  0.0181
   8.3804E+00   8.5843E+00   3.0535E-05  0.0179
   8.5843E+00   8.7931E+00   3.1433E-05  0.0174
   8.7931E+00   9.0071E+00   3.1001E-05  0.0174
   9.0071E+00   9.2262E+00   3.0169E-05  0.0174
   9.2262E+00   9.4507E+00   2.9664E-05  0.0173
   9.4507E+00   9.6807E+00   2.9917E-05  0.0170
   9.6807E+00   9.9162E+00   2.9761E-05  0.0169
   9.9162E+00   1.0157E+01   2.9207E-05  0.0168
   1.0157E+01   1.0405E+01   2.8535E-05  0.0168
   1.0405E+01   1.0658E+01   2.7991E-05  0.0168
   1.0658E+01   1.0917E+01   2.8873E-05  0.0163
   1.0917E+01   1.1183E+01   2.8338E-05  0.0163
   1.1183E+01   1.1455E+01   2.6643E-05  0.0166
   1.1455E+01   1.1733E+01   2.6726E-05  0.0164
   1.1733E+01   1.2019E+01   2.5804E-05  0.0165
   1.2019E+01   1.2311E+01   2.5387E-05  0.0164
   1.2311E+01   1.2611E+01   2.4909E-05  0.0164
   1.2611E+01   1.2918E+01   2.4584E-05  0.0163
   1.2918E+01   1.3232E+01   2.3879E-05  0.0163
   1.3232E+01   1.3554E+01   2.3262E-05  0.0163
   1.3554E+01   1.3884E+01   2.1700E-05  0.0167
   1.3884E+01   1.4222E+01   2.1109E-05  0.0167
   1.4222E+01   1.4568E+01   2.1293E-05  0.0165
   1.4568E+01   1.4922E+01   1.9435E-05  0.0170
   1.4922E+01   1.5285E+01   1.8898E-05  0.0171
   1.5285E+01   1.5657E+01   1.7519E-05  0.0175
   1.5657E+01   1.6038E+01   1.7282E-05  0.0174
   1.6038E+01   1.6428E+01   1.5451E-05  0.0182
   1.6428E+01   1.6828E+01   1.4708E-05  0.0184
   1.6828E+01   1.7237E+01   1.4103E-05  0.0186
   1.7237E+01   1.7657E+01   1.3214E-05  0.0190
   1.7657E+01   1.8086E+01   1.1778E-05  0.0199
   1.8086E+01   1.8526E+01   1.1421E-05  0.0199
   1.8526E+01   1.8977E+01   1.0002E-05  0.0211
   1.8977E+01   1.9439E+01   9.5684E-06  0.0213
   1.9439E+01   1.9912E+01   8.0006E-06  0.0230
   1.9912E+01   2.0396E+01   7.9551E-06  0.0228
   2.0396E+01   2.0893E+01   7.0246E-06  0.0240
   2.0893E+01   2.1401E+01   6.5508E-06  0.0245
   2.1401E+01   2.1922E+01   5.6040E-06  0.0262
   2.1922E+01   2.2455E+01   4.9534E-06  0.0275
   2.2455E+01   2.3001E+01   4.2098E-06  0.0295
   2.3001E+01   2.3561E+01   3.6845E-06  0.0311
   2.3561E+01   2.4134E+01   3.1365E-06  0.0334
   2.4134E+01   2.4721E+01   2.7452E-06  0.0352
   2.4721E+01   2.5323E+01   2.4406E-06  0.0369
   2.5323E+01   2.5939E+01   1.9314E-06  0.0410
   2.5939E+01   2.6570E+01   1.7746E-06  0.0423
   2.6570E+01   2.7217E+01   1.5623E-06  0.0445
   2.7217E+01   2.7879E+01   1.2927E-06  0.0483
   2.7879E+01   2.8557E+01   1.0320E-06  0.0535
   2.8557E+01   2.9252E+01   8.9232E-07  0.0568
   2.9252E+01   2.9964E+01   6.7161E-07  0.0647
   2.9964E+01   3.0693E+01   5.3221E-07  0.0718
   3.0693E+01   3.1440E+01   4.8207E-07  0.0745
   3.1440E+01   3.2205E+01   5.5951E-07  0.0684
   3.2205E+01   3.2988E+01   5.6664E-07  0.0671
   3.2988E+01   3.3791E+01   5.2827E-07  0.0687
   3.3791E+01   3.4613E+01   4.6463E-07  0.0724
   3.4613E+01   3.5455E+01   5.8184E-07  0.0639
   3.5455E+01   3.6318E+01   4.7992E-07  0.0695
   3.6318E+01   3.7201E+01   5.6584E-07  0.0632
   3.7201E+01   3.8106E+01   5.4135E-07  0.0639
   3.8106E+01   3.9034E+01   4.8320E-07  0.0668
   3.9034E+01   3.9983E+01   5.6859E-07  0.0609
   3.9983E+01   4.0956E+01   5.3658E-07  0.0619
   4.0956E+01   4.1953E+01   6.2619E-07  0.0566
   4.1953E+01   4.2973E+01   6.0740E-07  0.0568
   4.2973E+01   4.4019E+01   5.3176E-07  0.0600
   4.4019E+01   4.5090E+01   4.5004E-07  0.0644
   4.5090E+01   4.6187E+01   3.7190E-07  0.0700
   4.6187E+01   4.7311E+01   1.7619E-07  0.1005
   4.7311E+01   4.8462E+01   1.6158E-07  0.1037
   4.8462E+01   4.9641E+01   6.1063E-08  0.1667
   4.9641E+01   5.0849E+01   0.0000E+00  0.0000
   5.0849E+01   5.2086E+01   0.0000E+00  0.0000
   5.2086E+01   5.3353E+01   0.0000E+00  0.0000
   5.3353E+01   5.4651E+01   0.0000E+00  0.0000
   5.4651E+01   5.5981E+01   0.0000E+00  0.0000
   5.5981E+01   5.7343E+01   0.0000E+00  0.0000
   5.7343E+01   5.8738E+01   0.0000E+00  0.0000
   5.8738E+01   6.0168E+01   0.0000E+00  0.0000
   6.0168E+01   6.1632E+01   0.0000E+00  0.0000
   6.1632E+01   6.3131E+01   0.0000E+00  0.0000
   6.3131E+01   6.4667E+01   0.0000E+00  0.0000
   6.4667E+01   6.6240E+01   0.0000E+00  0.0000
   6.6240E+01   6.7852E+01   0.0000E+00  0.0000
   6.7852E+01   6.9503E+01   0.0000E+00  0.0000
   6.9503E+01   7.1194E+01   0.0000E+00  0.0000
   7.1194E+01   7.2926E+01   0.0000E+00  0.0000
   7.2926E+01   7.4701E+01   0.0000E+00  0.0000
   7.4701E+01   7.6518E+01   0.0000E+00  0.0000
   7.6518E+01   7.8380E+01   0.0000E+00  0.0000
   7.8380E+01   8.0287E+01   0.0000E+00  0.0000
   8.0287E+01   8.2240E+01   0.0000E+00  0.0000
   8.2240E+01   8.4241E+01   0.0000E+00  0.0000
   8.4241E+01   8.6291E+01   0.0000E+00  0.0000
   8.6291E+01   8.8391E+01   0.0000E+00  0.0000
   8.8391E+01   9.0541E+01   0.0000E+00  0.0000
   9.0541E+01   9.2744E+01   0.0000E+00  0.0000
   9.2744E+01   9.5001E+01   0.0000E+00  0.0000
   9.5001E+01   9.7312E+01   0.0000E+00  0.0000
   9.7312E+01   9.9680E+01   0.0000E+00  0.0000
   9.9680E+01   1.0211E+02   0.0000E+00  0.0000
   1.0211E+02   1.0459E+02   0.0000E+00  0.0000
   1.0459E+02   1.0713E+02   0.0000E+00  0.0000
   1.0713E+02   1.0974E+02   0.0000E+00  0.0000
   1.0974E+02   1.1241E+02   0.0000E+00  0.0000
   1.1241E+02   1.1515E+02   0.0000E+00  0.0000
   1.1515E+02   1.1795E+02   0.0000E+00  0.0000
   1.1795E+02   1.2082E+02   0.0000E+00  0.0000
   1.2082E+02   1.2376E+02   0.0000E+00  0.0000
   1.2376E+02   1.2677E+02   0.0000E+00  0.0000
   1.2677E+02   1.2985E+02   0.0000E+00  0.0000
   1.2985E+02   1.3301E+02   0.0000E+00  0.0000
   1.3301E+02   1.3625E+02   0.0000E+00  0.0000
   1.3625E+02   1.3956E+02   0.0000E+00  0.0000
   1.3956E+02   1.4296E+02   0.0000E+00  0.0000
   1.4296E+02   1.4644E+02   0.0000E+00  0.0000
   1.4644E+02   1.5000E+02   0.0000E+00  0.0000

#   sum over                 3.2275E-06
'no. =    1   reg = 100 - 200'
msuc: {\huge [t-cross] in region mesh}
msdr: {\it plotted by \ANGEL \version}
msdl: {\it calculated by \PHITS  3.26}
wt: s(0.7)
\vspace{-3}
  region surface crossing
  area  &=&   1.0000E+00 [cm^2]
e:
 
# Information for Restart Calculation
# This calculation was newly started
# istdev =  2 # 1:Batch variance, 2:History variance
# resc2  = 5.00000000000000000E+08 # Total source weight or Total source weight / maxcas
# resc3  = 5.00000000000000000E+08 # Total history number or Total batch number
# maxcas =   500000000 # History / Batch, only used for istdev=1
# bitrseed = 1011101111111101000111101101010011111001010110111001011111010111 # bit data of rseed
