[ T-Cross ]
    title = [t-cross] in region mesh
     mesh =  reg            # mesh type is region-wise
      reg =    1            # number of crossing regions
      non     r-from    r-to       area
      1       111       211        1.000000    
   e-type =    3            # e-mesh is log given by emin, emax and ne
     emin =  1.0000000E-02  # minimum value of e-mesh points
     emax =   150.0000      # maximum value of e-mesh points
#    edel =  2.4039514E-02  # mesh width of e-mesh points
       ne =    400          # number of e-mesh points
#    data = ( e(i), i = 1, ne + 1 )
#           1.00000E-02  1.02433E-02  1.04925E-02  1.07478E-02  1.10093E-02
#           1.12772E-02  1.15516E-02  1.18326E-02  1.21205E-02  1.24154E-02
#           1.27175E-02  1.30269E-02  1.33439E-02  1.36686E-02  1.40011E-02
#           1.43418E-02  1.46907E-02  1.50482E-02  1.54143E-02  1.57894E-02
#           1.61735E-02  1.65670E-02  1.69701E-02  1.73830E-02  1.78060E-02
#           1.82392E-02  1.86830E-02  1.91375E-02  1.96032E-02  2.00801E-02
#           2.05687E-02  2.10692E-02  2.15818E-02  2.21069E-02  2.26448E-02
#           2.31957E-02  2.37601E-02  2.43382E-02  2.49304E-02  2.55369E-02
#           2.61583E-02  2.67947E-02  2.74467E-02  2.81145E-02  2.87985E-02
#           2.94992E-02  3.02169E-02  3.09521E-02  3.17052E-02  3.24766E-02
#           3.32668E-02  3.40762E-02  3.49053E-02  3.57546E-02  3.66246E-02
#           3.75157E-02  3.84284E-02  3.93634E-02  4.03212E-02  4.13022E-02
#           4.23071E-02  4.33365E-02  4.43909E-02  4.54710E-02  4.65773E-02
#           4.77106E-02  4.88714E-02  5.00605E-02  5.12785E-02  5.25262E-02
#           5.38042E-02  5.51133E-02  5.64542E-02  5.78278E-02  5.92348E-02
#           6.06760E-02  6.21523E-02  6.36645E-02  6.52135E-02  6.68002E-02
#           6.84255E-02  7.00904E-02  7.17957E-02  7.35426E-02  7.53319E-02
#           7.71648E-02  7.90423E-02  8.09655E-02  8.29354E-02  8.49533E-02
#           8.70203E-02  8.91376E-02  9.13064E-02  9.35279E-02  9.58035E-02
#           9.81345E-02  1.00522E-01  1.02968E-01  1.05473E-01  1.08040E-01
#           1.10668E-01  1.13361E-01  1.16119E-01  1.18944E-01  1.21838E-01
#           1.24803E-01  1.27839E-01  1.30950E-01  1.34136E-01  1.37399E-01
#           1.40742E-01  1.44167E-01  1.47675E-01  1.51268E-01  1.54948E-01
#           1.58718E-01  1.62580E-01  1.66535E-01  1.70587E-01  1.74738E-01
#           1.78989E-01  1.83344E-01  1.87805E-01  1.92375E-01  1.97055E-01
#           2.01850E-01  2.06761E-01  2.11792E-01  2.16945E-01  2.22223E-01
#           2.27630E-01  2.33169E-01  2.38842E-01  2.44653E-01  2.50605E-01
#           2.56703E-01  2.62949E-01  2.69346E-01  2.75900E-01  2.82613E-01
#           2.89489E-01  2.96532E-01  3.03747E-01  3.11138E-01  3.18708E-01
#           3.26462E-01  3.34405E-01  3.42542E-01  3.50876E-01  3.59413E-01
#           3.68158E-01  3.77116E-01  3.86291E-01  3.95690E-01  4.05317E-01
#           4.15179E-01  4.25281E-01  4.35628E-01  4.46227E-01  4.57084E-01
#           4.68205E-01  4.79597E-01  4.91266E-01  5.03219E-01  5.15463E-01
#           5.28005E-01  5.40851E-01  5.54011E-01  5.67490E-01  5.81298E-01
#           5.95441E-01  6.09929E-01  6.24769E-01  6.39970E-01  6.55541E-01
#           6.71491E-01  6.87828E-01  7.04564E-01  7.21706E-01  7.39266E-01
#           7.57253E-01  7.75678E-01  7.94551E-01  8.13883E-01  8.33685E-01
#           8.53969E-01  8.74747E-01  8.96030E-01  9.17831E-01  9.40163E-01
#           9.63038E-01  9.86469E-01  1.01047E+00  1.03506E+00  1.06024E+00
#           1.08604E+00  1.11246E+00  1.13953E+00  1.16725E+00  1.19565E+00
#           1.22474E+00  1.25454E+00  1.28507E+00  1.31633E+00  1.34836E+00
#           1.38117E+00  1.41477E+00  1.44920E+00  1.48446E+00  1.52057E+00
#           1.55757E+00  1.59547E+00  1.63429E+00  1.67405E+00  1.71478E+00
#           1.75650E+00  1.79924E+00  1.84302E+00  1.88786E+00  1.93379E+00
#           1.98084E+00  2.02904E+00  2.07841E+00  2.12898E+00  2.18078E+00
#           2.23384E+00  2.28819E+00  2.34386E+00  2.40089E+00  2.45930E+00
#           2.51914E+00  2.58043E+00  2.64322E+00  2.70753E+00  2.77341E+00
#           2.84088E+00  2.91001E+00  2.98081E+00  3.05333E+00  3.12762E+00
#           3.20372E+00  3.28167E+00  3.36152E+00  3.44330E+00  3.52708E+00
#           3.61290E+00  3.70080E+00  3.79085E+00  3.88308E+00  3.97756E+00
#           4.07434E+00  4.17347E+00  4.27501E+00  4.37903E+00  4.48557E+00
#           4.59471E+00  4.70650E+00  4.82102E+00  4.93832E+00  5.05847E+00
#           5.18155E+00  5.30762E+00  5.43676E+00  5.56904E+00  5.70453E+00
#           5.84333E+00  5.98550E+00  6.13114E+00  6.28031E+00  6.43312E+00
#           6.58964E+00  6.74997E+00  6.91420E+00  7.08243E+00  7.25475E+00
#           7.43126E+00  7.61207E+00  7.79728E+00  7.98700E+00  8.18133E+00
#           8.38038E+00  8.58428E+00  8.79315E+00  9.00709E+00  9.22624E+00
#           9.45072E+00  9.68067E+00  9.91620E+00  1.01575E+01  1.04046E+01
#           1.06578E+01  1.09171E+01  1.11827E+01  1.14548E+01  1.17335E+01
#           1.20190E+01  1.23114E+01  1.26109E+01  1.29178E+01  1.32321E+01
#           1.35540E+01  1.38838E+01  1.42216E+01  1.45676E+01  1.49221E+01
#           1.52851E+01  1.56570E+01  1.60380E+01  1.64282E+01  1.68279E+01
#           1.72374E+01  1.76568E+01  1.80864E+01  1.85264E+01  1.89772E+01
#           1.94389E+01  1.99119E+01  2.03963E+01  2.08926E+01  2.14009E+01
#           2.19216E+01  2.24550E+01  2.30014E+01  2.35610E+01  2.41343E+01
#           2.47215E+01  2.53230E+01  2.59391E+01  2.65702E+01  2.72167E+01
#           2.78789E+01  2.85572E+01  2.92520E+01  2.99637E+01  3.06928E+01
#           3.14396E+01  3.22045E+01  3.29881E+01  3.37907E+01  3.46128E+01
#           3.54550E+01  3.63177E+01  3.72013E+01  3.81064E+01  3.90336E+01
#           3.99833E+01  4.09561E+01  4.19526E+01  4.29734E+01  4.40189E+01
#           4.50900E+01  4.61870E+01  4.73108E+01  4.84619E+01  4.96410E+01
#           5.08488E+01  5.20860E+01  5.33533E+01  5.46514E+01  5.59812E+01
#           5.73432E+01  5.87384E+01  6.01676E+01  6.16315E+01  6.31311E+01
#           6.46671E+01  6.62405E+01  6.78522E+01  6.95031E+01  7.11941E+01
#           7.29263E+01  7.47007E+01  7.65182E+01  7.83800E+01  8.02870E+01
#           8.22405E+01  8.42414E+01  8.62911E+01  8.83906E+01  9.05412E+01
#           9.27442E+01  9.50007E+01  9.73122E+01  9.96799E+01  1.02105E+02
#           1.04589E+02  1.07134E+02  1.09741E+02  1.12411E+02  1.15146E+02
#           1.17948E+02  1.20817E+02  1.23757E+02  1.26768E+02  1.29852E+02
#           1.33012E+02  1.36248E+02  1.39563E+02  1.42959E+02  1.46437E+02
#           1.50000E+02
     unit =    2            # unit is [1/cm^2/(MeV/n)/source]
     axis =  eng            # axis of output
     file = detector-12.out  # file name of output for the above axis
   output = f-curr          # surface crossing forward current spectrum
     part =  neutron  
# kf/name :  2112     
#    used :        main (  %)        temp (  %)       total (  %)
#  memory :         414 (  0)           0 (  0)         414 (  0)

#------------------------------------------------------------------------------
#newpage:
#   no. =    1   reg = 111 - 211

x: Energy [MeV/n]
y:  F-Curr [1/cm^2/(MeV/n)/source]         
p: xlog ylog afac(0.8) form(0.9)
h: n            x            y(neutron ),hh0l   n 
#  e-lower      e-upper      neutron     r.err 
   1.0000E-02   1.0243E-02   8.8929E-03  0.0115
   1.0243E-02   1.0493E-02   8.8800E-03  0.0114
   1.0493E-02   1.0748E-02   8.7228E-03  0.0113
   1.0748E-02   1.1009E-02   8.7205E-03  0.0112
   1.1009E-02   1.1277E-02   8.7037E-03  0.0111
   1.1277E-02   1.1552E-02   8.6474E-03  0.0110
   1.1552E-02   1.1833E-02   8.6565E-03  0.0108
   1.1833E-02   1.2121E-02   8.5005E-03  0.0108
   1.2121E-02   1.2415E-02   8.4018E-03  0.0107
   1.2415E-02   1.2718E-02   8.4761E-03  0.0106
   1.2718E-02   1.3027E-02   8.3888E-03  0.0105
   1.3027E-02   1.3344E-02   8.2702E-03  0.0104
   1.3344E-02   1.3669E-02   8.2731E-03  0.0103
   1.3669E-02   1.4001E-02   8.2119E-03  0.0102
   1.4001E-02   1.4342E-02   8.1825E-03  0.0101
   1.4342E-02   1.4691E-02   8.1732E-03  0.0100
   1.4691E-02   1.5048E-02   7.9594E-03  0.0100
   1.5048E-02   1.5414E-02   7.9358E-03  0.0099
   1.5414E-02   1.5789E-02   7.8989E-03  0.0098
   1.5789E-02   1.6174E-02   7.9794E-03  0.0097
   1.6174E-02   1.6567E-02   7.8291E-03  0.0096
   1.6567E-02   1.6970E-02   7.9440E-03  0.0094
   1.6970E-02   1.7383E-02   7.7314E-03  0.0095
   1.7383E-02   1.7806E-02   7.6971E-03  0.0094
   1.7806E-02   1.8239E-02   7.6811E-03  0.0093
   1.8239E-02   1.8683E-02   7.4897E-03  0.0093
   1.8683E-02   1.9138E-02   7.5509E-03  0.0091
   1.9138E-02   1.9603E-02   7.3323E-03  0.0091
   1.9603E-02   2.0080E-02   7.5691E-03  0.0089
   2.0080E-02   2.0569E-02   7.4094E-03  0.0089
   2.0569E-02   2.1069E-02   7.3505E-03  0.0088
   2.1069E-02   2.1582E-02   7.1675E-03  0.0088
   2.1582E-02   2.2107E-02   7.2976E-03  0.0086
   2.2107E-02   2.2645E-02   7.0924E-03  0.0087
   2.2645E-02   2.3196E-02   7.2004E-03  0.0085
   2.3196E-02   2.3760E-02   7.1934E-03  0.0084
   2.3760E-02   2.4338E-02   6.9407E-03  0.0084
   2.4338E-02   2.4930E-02   6.9322E-03  0.0083
   2.4930E-02   2.5537E-02   7.0164E-03  0.0082
   2.5537E-02   2.6158E-02   6.9263E-03  0.0081
   2.6158E-02   2.6795E-02   6.8076E-03  0.0081
   2.6795E-02   2.7447E-02   6.7708E-03  0.0080
   2.7447E-02   2.8114E-02   6.6797E-03  0.0080
   2.8114E-02   2.8799E-02   6.7349E-03  0.0079
   2.8799E-02   2.9499E-02   6.5804E-03  0.0079
   2.9499E-02   3.0217E-02   6.5744E-03  0.0078
   3.0217E-02   3.0952E-02   6.4909E-03  0.0077
   3.0952E-02   3.1705E-02   6.5589E-03  0.0076
   3.1705E-02   3.2477E-02   6.4551E-03  0.0076
   3.2477E-02   3.3267E-02   6.3700E-03  0.0075
   3.3267E-02   3.4076E-02   6.3632E-03  0.0074
   3.4076E-02   3.4905E-02   6.3213E-03  0.0074
   3.4905E-02   3.5755E-02   6.2690E-03  0.0073
   3.5755E-02   3.6625E-02   6.2729E-03  0.0072
   3.6625E-02   3.7516E-02   6.2164E-03  0.0072
   3.7516E-02   3.8428E-02   6.0743E-03  0.0072
   3.8428E-02   3.9363E-02   5.9837E-03  0.0071
   3.9363E-02   4.0321E-02   5.9493E-03  0.0071
   4.0321E-02   4.1302E-02   5.9157E-03  0.0070
   4.1302E-02   4.2307E-02   5.9242E-03  0.0069
   4.2307E-02   4.3337E-02   5.8846E-03  0.0069
   4.3337E-02   4.4391E-02   5.7574E-03  0.0069
   4.4391E-02   4.5471E-02   5.7818E-03  0.0068
   4.5471E-02   4.6577E-02   5.7648E-03  0.0067
   4.6577E-02   4.7711E-02   5.7304E-03  0.0066
   4.7711E-02   4.8871E-02   5.6005E-03  0.0066
   4.8871E-02   5.0061E-02   5.5595E-03  0.0066
   5.0061E-02   5.1279E-02   5.4887E-03  0.0065
   5.1279E-02   5.2526E-02   5.4097E-03  0.0065
   5.2526E-02   5.3804E-02   5.3696E-03  0.0065
   5.3804E-02   5.5113E-02   5.3720E-03  0.0064
   5.5113E-02   5.6454E-02   5.3983E-03  0.0063
   5.6454E-02   5.7828E-02   5.2964E-03  0.0063
   5.7828E-02   5.9235E-02   5.2713E-03  0.0062
   5.9235E-02   6.0676E-02   5.2071E-03  0.0062
   6.0676E-02   6.2152E-02   5.1635E-03  0.0061
   6.2152E-02   6.3665E-02   5.0867E-03  0.0061
   6.3665E-02   6.5214E-02   5.0405E-03  0.0060
   6.5214E-02   6.6800E-02   5.0293E-03  0.0060
   6.6800E-02   6.8426E-02   4.9962E-03  0.0059
   6.8426E-02   7.0090E-02   4.9455E-03  0.0059
   7.0090E-02   7.1796E-02   4.8722E-03  0.0059
   7.1796E-02   7.3543E-02   4.8366E-03  0.0058
   7.3543E-02   7.5332E-02   4.7892E-03  0.0058
   7.5332E-02   7.7165E-02   4.6847E-03  0.0058
   7.7165E-02   7.9042E-02   4.7405E-03  0.0057
   7.9042E-02   8.0965E-02   4.6817E-03  0.0056
   8.0965E-02   8.2935E-02   4.6019E-03  0.0056
   8.2935E-02   8.4953E-02   4.5543E-03  0.0056
   8.4953E-02   8.7020E-02   4.5312E-03  0.0055
   8.7020E-02   8.9138E-02   4.4799E-03  0.0055
   8.9138E-02   9.1306E-02   4.4515E-03  0.0054
   9.1306E-02   9.3528E-02   4.4136E-03  0.0054
   9.3528E-02   9.5804E-02   4.3746E-03  0.0054
   9.5804E-02   9.8134E-02   4.3268E-03  0.0053
   9.8134E-02   1.0052E-01   4.3021E-03  0.0053
   1.0052E-01   1.0297E-01   4.2207E-03  0.0053
   1.0297E-01   1.0547E-01   4.1538E-03  0.0052
   1.0547E-01   1.0804E-01   4.1418E-03  0.0052
   1.0804E-01   1.1067E-01   4.1017E-03  0.0051
   1.1067E-01   1.1336E-01   4.0588E-03  0.0051
   1.1336E-01   1.1612E-01   3.9967E-03  0.0051
   1.1612E-01   1.1894E-01   3.9159E-03  0.0051
   1.1894E-01   1.2184E-01   3.9646E-03  0.0050
   1.2184E-01   1.2480E-01   3.9165E-03  0.0050
   1.2480E-01   1.2784E-01   3.8367E-03  0.0050
   1.2784E-01   1.3095E-01   3.7962E-03  0.0049
   1.3095E-01   1.3414E-01   3.7790E-03  0.0049
   1.3414E-01   1.3740E-01   3.7432E-03  0.0048
   1.3740E-01   1.4074E-01   3.7005E-03  0.0048
   1.4074E-01   1.4417E-01   3.6948E-03  0.0048
   1.4417E-01   1.4767E-01   3.6270E-03  0.0047
   1.4767E-01   1.5127E-01   3.6130E-03  0.0047
   1.5127E-01   1.5495E-01   3.5211E-03  0.0047
   1.5495E-01   1.5872E-01   3.5540E-03  0.0046
   1.5872E-01   1.6258E-01   3.4482E-03  0.0046
   1.6258E-01   1.6654E-01   3.4347E-03  0.0046
   1.6654E-01   1.7059E-01   3.3821E-03  0.0046
   1.7059E-01   1.7474E-01   3.3824E-03  0.0045
   1.7474E-01   1.7899E-01   3.3118E-03  0.0045
   1.7899E-01   1.8334E-01   3.2668E-03  0.0045
   1.8334E-01   1.8781E-01   3.2301E-03  0.0045
   1.8781E-01   1.9237E-01   3.2231E-03  0.0044
   1.9237E-01   1.9706E-01   3.1638E-03  0.0044
   1.9706E-01   2.0185E-01   3.1345E-03  0.0044
   2.0185E-01   2.0676E-01   3.0626E-03  0.0044
   2.0676E-01   2.1179E-01   3.0541E-03  0.0043
   2.1179E-01   2.1694E-01   3.0152E-03  0.0043
   2.1694E-01   2.2222E-01   2.9653E-03  0.0043
   2.2222E-01   2.2763E-01   2.9369E-03  0.0042
   2.2763E-01   2.3317E-01   2.8979E-03  0.0042
   2.3317E-01   2.3884E-01   2.8456E-03  0.0042
   2.3884E-01   2.4465E-01   2.8396E-03  0.0042
   2.4465E-01   2.5061E-01   2.7833E-03  0.0042
   2.5061E-01   2.5670E-01   2.7629E-03  0.0041
   2.5670E-01   2.6295E-01   2.7367E-03  0.0041
   2.6295E-01   2.6935E-01   2.6846E-03  0.0041
   2.6935E-01   2.7590E-01   2.6493E-03  0.0041
   2.7590E-01   2.8261E-01   2.6207E-03  0.0040
   2.8261E-01   2.8949E-01   2.5777E-03  0.0040
   2.8949E-01   2.9653E-01   2.5487E-03  0.0040
   2.9653E-01   3.0375E-01   2.5094E-03  0.0040
   3.0375E-01   3.1114E-01   2.4875E-03  0.0039
   3.1114E-01   3.1871E-01   2.4565E-03  0.0039
   3.1871E-01   3.2646E-01   2.4255E-03  0.0039
   3.2646E-01   3.3441E-01   2.3642E-03  0.0039
   3.3441E-01   3.4254E-01   2.3484E-03  0.0039
   3.4254E-01   3.5088E-01   2.3155E-03  0.0038
   3.5088E-01   3.5941E-01   2.2991E-03  0.0038
   3.5941E-01   3.6816E-01   2.2304E-03  0.0038
   3.6816E-01   3.7712E-01   2.2084E-03  0.0038
   3.7712E-01   3.8629E-01   2.1927E-03  0.0038
   3.8629E-01   3.9569E-01   2.1471E-03  0.0038
   3.9569E-01   4.0532E-01   2.1193E-03  0.0037
   4.0532E-01   4.1518E-01   2.0712E-03  0.0037
   4.1518E-01   4.2528E-01   2.0360E-03  0.0037
   4.2528E-01   4.3563E-01   2.0060E-03  0.0037
   4.3563E-01   4.4623E-01   1.9756E-03  0.0037
   4.4623E-01   4.5708E-01   1.9395E-03  0.0037
   4.5708E-01   4.6821E-01   1.9162E-03  0.0037
   4.6821E-01   4.7960E-01   1.8775E-03  0.0037
   4.7960E-01   4.9127E-01   1.8417E-03  0.0036
   4.9127E-01   5.0322E-01   1.8147E-03  0.0036
   5.0322E-01   5.1546E-01   1.7766E-03  0.0036
   5.1546E-01   5.2800E-01   1.7429E-03  0.0036
   5.2800E-01   5.4085E-01   1.7037E-03  0.0036
   5.4085E-01   5.5401E-01   1.6806E-03  0.0036
   5.5401E-01   5.6749E-01   1.6421E-03  0.0036
   5.6749E-01   5.8130E-01   1.6144E-03  0.0036
   5.8130E-01   5.9544E-01   1.5792E-03  0.0036
   5.9544E-01   6.0993E-01   1.5551E-03  0.0036
   6.0993E-01   6.2477E-01   1.5216E-03  0.0036
   6.2477E-01   6.3997E-01   1.4774E-03  0.0036
   6.3997E-01   6.5554E-01   1.4427E-03  0.0036
   6.5554E-01   6.7149E-01   1.4100E-03  0.0036
   6.7149E-01   6.8783E-01   1.3796E-03  0.0036
   6.8783E-01   7.0456E-01   1.3516E-03  0.0036
   7.0456E-01   7.2171E-01   1.3196E-03  0.0036
   7.2171E-01   7.3927E-01   1.2836E-03  0.0036
   7.3927E-01   7.5725E-01   1.2508E-03  0.0036
   7.5725E-01   7.7568E-01   1.2178E-03  0.0036
   7.7568E-01   7.9455E-01   1.1944E-03  0.0036
   7.9455E-01   8.1388E-01   1.1523E-03  0.0036
   8.1388E-01   8.3368E-01   1.1254E-03  0.0036
   8.3368E-01   8.5397E-01   1.0897E-03  0.0036
   8.5397E-01   8.7475E-01   1.0554E-03  0.0036
   8.7475E-01   8.9603E-01   1.0194E-03  0.0036
   8.9603E-01   9.1783E-01   9.9273E-04  0.0036
   9.1783E-01   9.4016E-01   9.4999E-04  0.0037
   9.4016E-01   9.6304E-01   9.2302E-04  0.0037
   9.6304E-01   9.8647E-01   8.9546E-04  0.0037
   9.8647E-01   1.0105E+00   8.7385E-04  0.0037
   1.0105E+00   1.0351E+00   8.7597E-04  0.0036
   1.0351E+00   1.0602E+00   8.9328E-04  0.0036
   1.0602E+00   1.0860E+00   9.0975E-04  0.0035
   1.0860E+00   1.1125E+00   9.2443E-04  0.0034
   1.1125E+00   1.1395E+00   9.5742E-04  0.0033
   1.1395E+00   1.1673E+00   9.7958E-04  0.0032
   1.1673E+00   1.1957E+00   1.0134E-03  0.0032
   1.1957E+00   1.2247E+00   1.0383E-03  0.0031
   1.2247E+00   1.2545E+00   1.0486E-03  0.0030
   1.2545E+00   1.2851E+00   1.0641E-03  0.0030
   1.2851E+00   1.3163E+00   1.0844E-03  0.0029
   1.3163E+00   1.3484E+00   1.1001E-03  0.0028
   1.3484E+00   1.3812E+00   1.1311E-03  0.0028
   1.3812E+00   1.4148E+00   1.1595E-03  0.0027
   1.4148E+00   1.4492E+00   1.1659E-03  0.0027
   1.4492E+00   1.4845E+00   1.1762E-03  0.0026
   1.4845E+00   1.5206E+00   1.1744E-03  0.0026
   1.5206E+00   1.5576E+00   1.1804E-03  0.0026
   1.5576E+00   1.5955E+00   1.2087E-03  0.0025
   1.5955E+00   1.6343E+00   1.2256E-03  0.0025
   1.6343E+00   1.6741E+00   1.2510E-03  0.0024
   1.6741E+00   1.7148E+00   1.2767E-03  0.0023
   1.7148E+00   1.7565E+00   1.2829E-03  0.0023
   1.7565E+00   1.7992E+00   1.2855E-03  0.0023
   1.7992E+00   1.8430E+00   1.2945E-03  0.0022
   1.8430E+00   1.8879E+00   1.2949E-03  0.0022
   1.8879E+00   1.9338E+00   1.3083E-03  0.0022
   1.9338E+00   1.9808E+00   1.3291E-03  0.0021
   1.9808E+00   2.0290E+00   1.3441E-03  0.0021
   2.0290E+00   2.0784E+00   1.3356E-03  0.0021
   2.0784E+00   2.1290E+00   1.3319E-03  0.0021
   2.1290E+00   2.1808E+00   1.3275E-03  0.0020
   2.1808E+00   2.2338E+00   1.3253E-03  0.0020
   2.2338E+00   2.2882E+00   1.3263E-03  0.0020
   2.2882E+00   2.3439E+00   1.3398E-03  0.0020
   2.3439E+00   2.4009E+00   1.3506E-03  0.0019
   2.4009E+00   2.4593E+00   1.3516E-03  0.0019
   2.4593E+00   2.5191E+00   1.3382E-03  0.0019
   2.5191E+00   2.5804E+00   1.3302E-03  0.0019
   2.5804E+00   2.6432E+00   1.3135E-03  0.0019
   2.6432E+00   2.7075E+00   1.3013E-03  0.0018
   2.7075E+00   2.7734E+00   1.2993E-03  0.0018
   2.7734E+00   2.8409E+00   1.2926E-03  0.0018
   2.8409E+00   2.9100E+00   1.3032E-03  0.0018
   2.9100E+00   2.9808E+00   1.2988E-03  0.0018
   2.9808E+00   3.0533E+00   1.2869E-03  0.0018
   3.0533E+00   3.1276E+00   1.2700E-03  0.0017
   3.1276E+00   3.2037E+00   1.2428E-03  0.0017
   3.2037E+00   3.2817E+00   1.2211E-03  0.0017
   3.2817E+00   3.3615E+00   1.2032E-03  0.0017
   3.3615E+00   3.4433E+00   1.1805E-03  0.0017
   3.4433E+00   3.5271E+00   1.1714E-03  0.0017
   3.5271E+00   3.6129E+00   1.1625E-03  0.0017
   3.6129E+00   3.7008E+00   1.1471E-03  0.0017
   3.7008E+00   3.7908E+00   1.1252E-03  0.0017
   3.7908E+00   3.8831E+00   1.0975E-03  0.0017
   3.8831E+00   3.9776E+00   1.0841E-03  0.0017
   3.9776E+00   4.0743E+00   1.0630E-03  0.0017
   4.0743E+00   4.1735E+00   1.0385E-03  0.0017
   4.1735E+00   4.2750E+00   1.0088E-03  0.0017
   4.2750E+00   4.3790E+00   9.7973E-04  0.0017
   4.3790E+00   4.4856E+00   9.5193E-04  0.0017
   4.4856E+00   4.5947E+00   9.2774E-04  0.0017
   4.5947E+00   4.7065E+00   9.0371E-04  0.0017
   4.7065E+00   4.8210E+00   8.8431E-04  0.0017
   4.8210E+00   4.9383E+00   8.6513E-04  0.0017
   4.9383E+00   5.0585E+00   8.4272E-04  0.0017
   5.0585E+00   5.1815E+00   8.1178E-04  0.0017
   5.1815E+00   5.3076E+00   7.8823E-04  0.0017
   5.3076E+00   5.4368E+00   7.5984E-04  0.0017
   5.4368E+00   5.5690E+00   7.3316E-04  0.0017
   5.5690E+00   5.7045E+00   7.1061E-04  0.0017
   5.7045E+00   5.8433E+00   6.8523E-04  0.0017
   5.8433E+00   5.9855E+00   6.6320E-04  0.0017
   5.9855E+00   6.1311E+00   6.4380E-04  0.0017
   6.1311E+00   6.2803E+00   6.2095E-04  0.0018
   6.2803E+00   6.4331E+00   5.9547E-04  0.0018
   6.4331E+00   6.5896E+00   5.7507E-04  0.0018
   6.5896E+00   6.7500E+00   5.5317E-04  0.0018
   6.7500E+00   6.9142E+00   5.3556E-04  0.0018
   6.9142E+00   7.0824E+00   5.1448E-04  0.0018
   7.0824E+00   7.2548E+00   4.9916E-04  0.0018
   7.2548E+00   7.4313E+00   4.7789E-04  0.0018
   7.4313E+00   7.6121E+00   4.6014E-04  0.0019
   7.6121E+00   7.7973E+00   4.4246E-04  0.0019
   7.7973E+00   7.9870E+00   4.2815E-04  0.0019
   7.9870E+00   8.1813E+00   4.1312E-04  0.0019
   8.1813E+00   8.3804E+00   3.9764E-04  0.0019
   8.3804E+00   8.5843E+00   3.8326E-04  0.0019
   8.5843E+00   8.7931E+00   3.6953E-04  0.0019
   8.7931E+00   9.0071E+00   3.5683E-04  0.0019
   9.0071E+00   9.2262E+00   3.4484E-04  0.0019
   9.2262E+00   9.4507E+00   3.3279E-04  0.0020
   9.4507E+00   9.6807E+00   3.2369E-04  0.0020
   9.6807E+00   9.9162E+00   3.1302E-04  0.0020
   9.9162E+00   1.0157E+01   3.0377E-04  0.0020
   1.0157E+01   1.0405E+01   2.9363E-04  0.0020
   1.0405E+01   1.0658E+01   2.8592E-04  0.0020
   1.0658E+01   1.0917E+01   2.7695E-04  0.0020
   1.0917E+01   1.1183E+01   2.6901E-04  0.0020
   1.1183E+01   1.1455E+01   2.6193E-04  0.0020
   1.1455E+01   1.1733E+01   2.5427E-04  0.0020
   1.1733E+01   1.2019E+01   2.4688E-04  0.0020
   1.2019E+01   1.2311E+01   2.4005E-04  0.0020
   1.2311E+01   1.2611E+01   2.3351E-04  0.0020
   1.2611E+01   1.2918E+01   2.2750E-04  0.0020
   1.2918E+01   1.3232E+01   2.2216E-04  0.0020
   1.3232E+01   1.3554E+01   2.1749E-04  0.0020
   1.3554E+01   1.3884E+01   2.1147E-04  0.0020
   1.3884E+01   1.4222E+01   2.0566E-04  0.0020
   1.4222E+01   1.4568E+01   2.0101E-04  0.0020
   1.4568E+01   1.4922E+01   1.9668E-04  0.0020
   1.4922E+01   1.5285E+01   1.9182E-04  0.0020
   1.5285E+01   1.5657E+01   1.8710E-04  0.0020
   1.5657E+01   1.6038E+01   1.8171E-04  0.0020
   1.6038E+01   1.6428E+01   1.7809E-04  0.0020
   1.6428E+01   1.6828E+01   1.7351E-04  0.0020
   1.6828E+01   1.7237E+01   1.6983E-04  0.0020
   1.7237E+01   1.7657E+01   1.6500E-04  0.0020
   1.7657E+01   1.8086E+01   1.6131E-04  0.0020
   1.8086E+01   1.8526E+01   1.5683E-04  0.0020
   1.8526E+01   1.8977E+01   1.5301E-04  0.0020
   1.8977E+01   1.9439E+01   1.4934E-04  0.0020
   1.9439E+01   1.9912E+01   1.4497E-04  0.0020
   1.9912E+01   2.0396E+01   1.4334E-04  0.0020
   2.0396E+01   2.0893E+01   1.4178E-04  0.0020
   2.0893E+01   2.1401E+01   1.3774E-04  0.0020
   2.1401E+01   2.1922E+01   1.3447E-04  0.0020
   2.1922E+01   2.2455E+01   1.3015E-04  0.0020
   2.2455E+01   2.3001E+01   1.2666E-04  0.0020
   2.3001E+01   2.3561E+01   1.2328E-04  0.0020
   2.3561E+01   2.4134E+01   1.1952E-04  0.0020
   2.4134E+01   2.4721E+01   1.1599E-04  0.0020
   2.4721E+01   2.5323E+01   1.1236E-04  0.0021
   2.5323E+01   2.5939E+01   1.0897E-04  0.0021
   2.5939E+01   2.6570E+01   1.0534E-04  0.0021
   2.6570E+01   2.7217E+01   1.0146E-04  0.0021
   2.7217E+01   2.7879E+01   9.8421E-05  0.0021
   2.7879E+01   2.8557E+01   9.5064E-05  0.0021
   2.8557E+01   2.9252E+01   9.1544E-05  0.0021
   2.9252E+01   2.9964E+01   8.8339E-05  0.0021
   2.9964E+01   3.0693E+01   8.4691E-05  0.0022
   3.0693E+01   3.1440E+01   8.1158E-05  0.0022
   3.1440E+01   3.2205E+01   7.7735E-05  0.0022
   3.2205E+01   3.2988E+01   7.4576E-05  0.0022
   3.2988E+01   3.3791E+01   7.1856E-05  0.0022
   3.3791E+01   3.4613E+01   6.8405E-05  0.0023
   3.4613E+01   3.5455E+01   6.4956E-05  0.0023
   3.5455E+01   3.6318E+01   6.2322E-05  0.0023
   3.6318E+01   3.7201E+01   5.9453E-05  0.0023
   3.7201E+01   3.8106E+01   5.6555E-05  0.0024
   3.8106E+01   3.9034E+01   5.3579E-05  0.0024
   3.9034E+01   3.9983E+01   5.0945E-05  0.0024
   3.9983E+01   4.0956E+01   4.8370E-05  0.0025
   4.0956E+01   4.1953E+01   4.5558E-05  0.0025
   4.1953E+01   4.2973E+01   4.3161E-05  0.0025
   4.2973E+01   4.4019E+01   4.0687E-05  0.0026
   4.4019E+01   4.5090E+01   3.8249E-05  0.0026
   4.5090E+01   4.6187E+01   3.5838E-05  0.0027
   4.6187E+01   4.7311E+01   3.3576E-05  0.0028
   4.7311E+01   4.8462E+01   3.1384E-05  0.0028
   4.8462E+01   4.9641E+01   2.9202E-05  0.0029
   4.9641E+01   5.0849E+01   2.7286E-05  0.0029
   5.0849E+01   5.2086E+01   2.5176E-05  0.0030
   5.2086E+01   5.3353E+01   2.3481E-05  0.0031
   5.3353E+01   5.4651E+01   2.1647E-05  0.0032
   5.4651E+01   5.5981E+01   1.9838E-05  0.0033
   5.5981E+01   5.7343E+01   1.8191E-05  0.0034
   5.7343E+01   5.8738E+01   1.6636E-05  0.0035
   5.8738E+01   6.0168E+01   1.5141E-05  0.0036
   6.0168E+01   6.1632E+01   1.3723E-05  0.0038
   6.1632E+01   6.3131E+01   1.2528E-05  0.0039
   6.3131E+01   6.4667E+01   1.1138E-05  0.0041
   6.4667E+01   6.6240E+01   1.0056E-05  0.0042
   6.6240E+01   6.7852E+01   8.9741E-06  0.0044
   6.7852E+01   6.9503E+01   7.9626E-06  0.0047
   6.9503E+01   7.1194E+01   7.0274E-06  0.0049
   7.1194E+01   7.2926E+01   6.2460E-06  0.0051
   7.2926E+01   7.4701E+01   5.4378E-06  0.0054
   7.4701E+01   7.6518E+01   4.7374E-06  0.0058
   7.6518E+01   7.8380E+01   4.1420E-06  0.0061
   7.8380E+01   8.0287E+01   3.6231E-06  0.0064
   8.0287E+01   8.2240E+01   3.1051E-06  0.0069
   8.2240E+01   8.4241E+01   2.6603E-06  0.0073
   8.4241E+01   8.6291E+01   2.2712E-06  0.0078
   8.6291E+01   8.8391E+01   1.9554E-06  0.0083
   8.8391E+01   9.0541E+01   1.6773E-06  0.0089
   9.0541E+01   9.2744E+01   1.4182E-06  0.0096
   9.2744E+01   9.5001E+01   1.2260E-06  0.0102
   9.5001E+01   9.7312E+01   1.0288E-06  0.0110
   9.7312E+01   9.9680E+01   8.7789E-07  0.0117
   9.9680E+01   1.0211E+02   7.1508E-07  0.0128
   1.0211E+02   1.0459E+02   6.1012E-07  0.0137
   1.0459E+02   1.0713E+02   4.9671E-07  0.0150
   1.0713E+02   1.0974E+02   3.9909E-07  0.0166
   1.0974E+02   1.1241E+02   3.3482E-07  0.0179
   1.1241E+02   1.1515E+02   2.7255E-07  0.0196
   1.1515E+02   1.1795E+02   2.2100E-07  0.0215
   1.1795E+02   1.2082E+02   1.8140E-07  0.0234
   1.2082E+02   1.2376E+02   1.4375E-07  0.0260
   1.2376E+02   1.2677E+02   1.1140E-07  0.0292
   1.2677E+02   1.2985E+02   8.7168E-08  0.0326
   1.2985E+02   1.3301E+02   7.3884E-08  0.0350
   1.3301E+02   1.3625E+02   5.2000E-08  0.0412
   1.3625E+02   1.3956E+02   3.0080E-08  0.0535
   1.3956E+02   1.4296E+02   8.8348E-09  0.0976
   1.4296E+02   1.4644E+02   9.8570E-10  0.2887
   1.4644E+02   1.5000E+02   0.0000E+00  0.0000

#   sum over                 9.2717E-05
'no. =    1   reg = 111 - 211'
msuc: {\huge [t-cross] in region mesh}
msdr: {\it plotted by \ANGEL \version}
msdl: {\it calculated by \PHITS  3.26}
wt: s(0.7)
\vspace{-3}
  region surface crossing
  area  &=&   1.0000E+00 [cm^2]
e:
 
# Information for Restart Calculation
# This calculation was newly started
# istdev =  2 # 1:Batch variance, 2:History variance
# resc2  = 3.50000000000000000E+09 # Total source weight or Total source weight / maxcas
# resc3  = 3.50000000000000000E+09 # Total history number or Total batch number
# maxcas =   500000000 # History / Batch, only used for istdev=1
# bitrseed = 0000101100011000111110010011011110110000110001011001110010110101 # bit data of rseed
