[ T-Cross ]
    title = [t-cross] in region mesh
     mesh =  reg            # mesh type is region-wise
      reg =    1            # number of crossing regions
      non     r-from    r-to       area
      1       110       210        1.000000    
   e-type =    3            # e-mesh is log given by emin, emax and ne
     emin =  1.0000000E-02  # minimum value of e-mesh points
     emax =   150.0000      # maximum value of e-mesh points
#    edel =  2.4039514E-02  # mesh width of e-mesh points
       ne =    400          # number of e-mesh points
#    data = ( e(i), i = 1, ne + 1 )
#           1.00000E-02  1.02433E-02  1.04925E-02  1.07478E-02  1.10093E-02
#           1.12772E-02  1.15516E-02  1.18326E-02  1.21205E-02  1.24154E-02
#           1.27175E-02  1.30269E-02  1.33439E-02  1.36686E-02  1.40011E-02
#           1.43418E-02  1.46907E-02  1.50482E-02  1.54143E-02  1.57894E-02
#           1.61735E-02  1.65670E-02  1.69701E-02  1.73830E-02  1.78060E-02
#           1.82392E-02  1.86830E-02  1.91375E-02  1.96032E-02  2.00801E-02
#           2.05687E-02  2.10692E-02  2.15818E-02  2.21069E-02  2.26448E-02
#           2.31957E-02  2.37601E-02  2.43382E-02  2.49304E-02  2.55369E-02
#           2.61583E-02  2.67947E-02  2.74467E-02  2.81145E-02  2.87985E-02
#           2.94992E-02  3.02169E-02  3.09521E-02  3.17052E-02  3.24766E-02
#           3.32668E-02  3.40762E-02  3.49053E-02  3.57546E-02  3.66246E-02
#           3.75157E-02  3.84284E-02  3.93634E-02  4.03212E-02  4.13022E-02
#           4.23071E-02  4.33365E-02  4.43909E-02  4.54710E-02  4.65773E-02
#           4.77106E-02  4.88714E-02  5.00605E-02  5.12785E-02  5.25262E-02
#           5.38042E-02  5.51133E-02  5.64542E-02  5.78278E-02  5.92348E-02
#           6.06760E-02  6.21523E-02  6.36645E-02  6.52135E-02  6.68002E-02
#           6.84255E-02  7.00904E-02  7.17957E-02  7.35426E-02  7.53319E-02
#           7.71648E-02  7.90423E-02  8.09655E-02  8.29354E-02  8.49533E-02
#           8.70203E-02  8.91376E-02  9.13064E-02  9.35279E-02  9.58035E-02
#           9.81345E-02  1.00522E-01  1.02968E-01  1.05473E-01  1.08040E-01
#           1.10668E-01  1.13361E-01  1.16119E-01  1.18944E-01  1.21838E-01
#           1.24803E-01  1.27839E-01  1.30950E-01  1.34136E-01  1.37399E-01
#           1.40742E-01  1.44167E-01  1.47675E-01  1.51268E-01  1.54948E-01
#           1.58718E-01  1.62580E-01  1.66535E-01  1.70587E-01  1.74738E-01
#           1.78989E-01  1.83344E-01  1.87805E-01  1.92375E-01  1.97055E-01
#           2.01850E-01  2.06761E-01  2.11792E-01  2.16945E-01  2.22223E-01
#           2.27630E-01  2.33169E-01  2.38842E-01  2.44653E-01  2.50605E-01
#           2.56703E-01  2.62949E-01  2.69346E-01  2.75900E-01  2.82613E-01
#           2.89489E-01  2.96532E-01  3.03747E-01  3.11138E-01  3.18708E-01
#           3.26462E-01  3.34405E-01  3.42542E-01  3.50876E-01  3.59413E-01
#           3.68158E-01  3.77116E-01  3.86291E-01  3.95690E-01  4.05317E-01
#           4.15179E-01  4.25281E-01  4.35628E-01  4.46227E-01  4.57084E-01
#           4.68205E-01  4.79597E-01  4.91266E-01  5.03219E-01  5.15463E-01
#           5.28005E-01  5.40851E-01  5.54011E-01  5.67490E-01  5.81298E-01
#           5.95441E-01  6.09929E-01  6.24769E-01  6.39970E-01  6.55541E-01
#           6.71491E-01  6.87828E-01  7.04564E-01  7.21706E-01  7.39266E-01
#           7.57253E-01  7.75678E-01  7.94551E-01  8.13883E-01  8.33685E-01
#           8.53969E-01  8.74747E-01  8.96030E-01  9.17831E-01  9.40163E-01
#           9.63038E-01  9.86469E-01  1.01047E+00  1.03506E+00  1.06024E+00
#           1.08604E+00  1.11246E+00  1.13953E+00  1.16725E+00  1.19565E+00
#           1.22474E+00  1.25454E+00  1.28507E+00  1.31633E+00  1.34836E+00
#           1.38117E+00  1.41477E+00  1.44920E+00  1.48446E+00  1.52057E+00
#           1.55757E+00  1.59547E+00  1.63429E+00  1.67405E+00  1.71478E+00
#           1.75650E+00  1.79924E+00  1.84302E+00  1.88786E+00  1.93379E+00
#           1.98084E+00  2.02904E+00  2.07841E+00  2.12898E+00  2.18078E+00
#           2.23384E+00  2.28819E+00  2.34386E+00  2.40089E+00  2.45930E+00
#           2.51914E+00  2.58043E+00  2.64322E+00  2.70753E+00  2.77341E+00
#           2.84088E+00  2.91001E+00  2.98081E+00  3.05333E+00  3.12762E+00
#           3.20372E+00  3.28167E+00  3.36152E+00  3.44330E+00  3.52708E+00
#           3.61290E+00  3.70080E+00  3.79085E+00  3.88308E+00  3.97756E+00
#           4.07434E+00  4.17347E+00  4.27501E+00  4.37903E+00  4.48557E+00
#           4.59471E+00  4.70650E+00  4.82102E+00  4.93832E+00  5.05847E+00
#           5.18155E+00  5.30762E+00  5.43676E+00  5.56904E+00  5.70453E+00
#           5.84333E+00  5.98550E+00  6.13114E+00  6.28031E+00  6.43312E+00
#           6.58964E+00  6.74997E+00  6.91420E+00  7.08243E+00  7.25475E+00
#           7.43126E+00  7.61207E+00  7.79728E+00  7.98700E+00  8.18133E+00
#           8.38038E+00  8.58428E+00  8.79315E+00  9.00709E+00  9.22624E+00
#           9.45072E+00  9.68067E+00  9.91620E+00  1.01575E+01  1.04046E+01
#           1.06578E+01  1.09171E+01  1.11827E+01  1.14548E+01  1.17335E+01
#           1.20190E+01  1.23114E+01  1.26109E+01  1.29178E+01  1.32321E+01
#           1.35540E+01  1.38838E+01  1.42216E+01  1.45676E+01  1.49221E+01
#           1.52851E+01  1.56570E+01  1.60380E+01  1.64282E+01  1.68279E+01
#           1.72374E+01  1.76568E+01  1.80864E+01  1.85264E+01  1.89772E+01
#           1.94389E+01  1.99119E+01  2.03963E+01  2.08926E+01  2.14009E+01
#           2.19216E+01  2.24550E+01  2.30014E+01  2.35610E+01  2.41343E+01
#           2.47215E+01  2.53230E+01  2.59391E+01  2.65702E+01  2.72167E+01
#           2.78789E+01  2.85572E+01  2.92520E+01  2.99637E+01  3.06928E+01
#           3.14396E+01  3.22045E+01  3.29881E+01  3.37907E+01  3.46128E+01
#           3.54550E+01  3.63177E+01  3.72013E+01  3.81064E+01  3.90336E+01
#           3.99833E+01  4.09561E+01  4.19526E+01  4.29734E+01  4.40189E+01
#           4.50900E+01  4.61870E+01  4.73108E+01  4.84619E+01  4.96410E+01
#           5.08488E+01  5.20860E+01  5.33533E+01  5.46514E+01  5.59812E+01
#           5.73432E+01  5.87384E+01  6.01676E+01  6.16315E+01  6.31311E+01
#           6.46671E+01  6.62405E+01  6.78522E+01  6.95031E+01  7.11941E+01
#           7.29263E+01  7.47007E+01  7.65182E+01  7.83800E+01  8.02870E+01
#           8.22405E+01  8.42414E+01  8.62911E+01  8.83906E+01  9.05412E+01
#           9.27442E+01  9.50007E+01  9.73122E+01  9.96799E+01  1.02105E+02
#           1.04589E+02  1.07134E+02  1.09741E+02  1.12411E+02  1.15146E+02
#           1.17948E+02  1.20817E+02  1.23757E+02  1.26768E+02  1.29852E+02
#           1.33012E+02  1.36248E+02  1.39563E+02  1.42959E+02  1.46437E+02
#           1.50000E+02
     unit =    2            # unit is [1/cm^2/(MeV/n)/source]
     axis =  eng            # axis of output
     file = detector-11.out  # file name of output for the above axis
   output = f-curr          # surface crossing forward current spectrum
     part =  neutron  
# kf/name :  2112     
#    used :        main (  %)        temp (  %)       total (  %)
#  memory :         414 (  0)           0 (  0)         414 (  0)

#------------------------------------------------------------------------------
#newpage:
#   no. =    1   reg = 110 - 210

x: Energy [MeV/n]
y:  F-Curr [1/cm^2/(MeV/n)/source]         
p: xlog ylog afac(0.8) form(0.9)
h: n            x            y(neutron ),hh0l   n 
#  e-lower      e-upper      neutron     r.err 
   1.0000E-02   1.0243E-02   6.8270E-03  0.0346
   1.0243E-02   1.0493E-02   6.5114E-03  0.0350
   1.0493E-02   1.0748E-02   6.1962E-03  0.0355
   1.0748E-02   1.1009E-02   5.9596E-03  0.0357
   1.1009E-02   1.1277E-02   5.9173E-03  0.0354
   1.1277E-02   1.1552E-02   5.8519E-03  0.0352
   1.1552E-02   1.1833E-02   5.9203E-03  0.0346
   1.1833E-02   1.2121E-02   5.8813E-03  0.0343
   1.2121E-02   1.2415E-02   5.7967E-03  0.0341
   1.2415E-02   1.2718E-02   5.7062E-03  0.0340
   1.2718E-02   1.3027E-02   5.3324E-03  0.0347
   1.3027E-02   1.3344E-02   5.3453E-03  0.0343
   1.3344E-02   1.3669E-02   5.2482E-03  0.0342
   1.3669E-02   1.4001E-02   4.7801E-03  0.0354
   1.4001E-02   1.4342E-02   5.0199E-03  0.0341
   1.4342E-02   1.4691E-02   4.7320E-03  0.0347
   1.4691E-02   1.5048E-02   4.7800E-03  0.0341
   1.5048E-02   1.5414E-02   4.6954E-03  0.0340
   1.5414E-02   1.5789E-02   4.4991E-03  0.0344
   1.5789E-02   1.6174E-02   4.4590E-03  0.0341
   1.6174E-02   1.6567E-02   4.5250E-03  0.0334
   1.6567E-02   1.6970E-02   4.0781E-03  0.0348
   1.6970E-02   1.7383E-02   4.3904E-03  0.0331
   1.7383E-02   1.7806E-02   4.3677E-03  0.0328
   1.7806E-02   1.8239E-02   4.1541E-03  0.0333
   1.8239E-02   1.8683E-02   4.2010E-03  0.0327
   1.8683E-02   1.9138E-02   3.8785E-03  0.0336
   1.9138E-02   1.9603E-02   4.0380E-03  0.0325
   1.9603E-02   2.0080E-02   3.7084E-03  0.0335
   2.0080E-02   2.0569E-02   3.7942E-03  0.0328
   2.0569E-02   2.1069E-02   3.8007E-03  0.0323
   2.1069E-02   2.1582E-02   3.6192E-03  0.0327
   2.1582E-02   2.2107E-02   3.3124E-03  0.0338
   2.2107E-02   2.2645E-02   3.4197E-03  0.0329
   2.2645E-02   2.3196E-02   3.2373E-03  0.0334
   2.3196E-02   2.3760E-02   3.2952E-03  0.0327
   2.3760E-02   2.4338E-02   3.2362E-03  0.0326
   2.4338E-02   2.4930E-02   3.3021E-03  0.0319
   2.4930E-02   2.5537E-02   2.9650E-03  0.0333
   2.5537E-02   2.6158E-02   2.9993E-03  0.0327
   2.6158E-02   2.6795E-02   2.9824E-03  0.0324
   2.6795E-02   2.7447E-02   2.9890E-03  0.0319
   2.7447E-02   2.8114E-02   3.0427E-03  0.0313
   2.8114E-02   2.8799E-02   2.8001E-03  0.0323
   2.8799E-02   2.9499E-02   2.7827E-03  0.0320
   2.9499E-02   3.0217E-02   2.7079E-03  0.0320
   3.0217E-02   3.0952E-02   2.6494E-03  0.0320
   3.0952E-02   3.1705E-02   2.6532E-03  0.0316
   3.1705E-02   3.2477E-02   2.6469E-03  0.0312
   3.2477E-02   3.3267E-02   2.5036E-03  0.0317
   3.3267E-02   3.4076E-02   2.4124E-03  0.0319
   3.4076E-02   3.4905E-02   2.3549E-03  0.0319
   3.4905E-02   3.5755E-02   2.3775E-03  0.0314
   3.5755E-02   3.6625E-02   2.2389E-03  0.0319
   3.6625E-02   3.7516E-02   2.2846E-03  0.0313
   3.7516E-02   3.8428E-02   2.1998E-03  0.0315
   3.8428E-02   3.9363E-02   2.2442E-03  0.0308
   3.9363E-02   4.0321E-02   2.0887E-03  0.0316
   4.0321E-02   4.1302E-02   2.1207E-03  0.0309
   4.1302E-02   4.2307E-02   2.1244E-03  0.0305
   4.2307E-02   4.3337E-02   2.1404E-03  0.0301
   4.3337E-02   4.4391E-02   1.9765E-03  0.0309
   4.4391E-02   4.5471E-02   1.9117E-03  0.0310
   4.5471E-02   4.6577E-02   1.9433E-03  0.0304
   4.6577E-02   4.7711E-02   1.8464E-03  0.0308
   4.7711E-02   4.8871E-02   1.9015E-03  0.0300
   4.8871E-02   5.0061E-02   1.8341E-03  0.0302
   5.0061E-02   5.1279E-02   1.9129E-03  0.0292
   5.1279E-02   5.2526E-02   1.7259E-03  0.0304
   5.2526E-02   5.3804E-02   1.7223E-03  0.0300
   5.3804E-02   5.5113E-02   1.7225E-03  0.0297
   5.5113E-02   5.6454E-02   1.5838E-03  0.0306
   5.6454E-02   5.7828E-02   1.6294E-03  0.0298
   5.7828E-02   5.9235E-02   1.5985E-03  0.0298
   5.9235E-02   6.0676E-02   1.6603E-03  0.0289
   6.0676E-02   6.2152E-02   1.5758E-03  0.0293
   6.2152E-02   6.3665E-02   1.5693E-03  0.0290
   6.3665E-02   6.5214E-02   1.4752E-03  0.0295
   6.5214E-02   6.6800E-02   1.4759E-03  0.0291
   6.6800E-02   6.8426E-02   1.4525E-03  0.0290
   6.8426E-02   7.0090E-02   1.4300E-03  0.0289
   7.0090E-02   7.1796E-02   1.3357E-03  0.0295
   7.1796E-02   7.3543E-02   1.3419E-03  0.0291
   7.3543E-02   7.5332E-02   1.3891E-03  0.0283
   7.5332E-02   7.7165E-02   1.2621E-03  0.0293
   7.7165E-02   7.9042E-02   1.2632E-03  0.0290
   7.9042E-02   8.0965E-02   1.2443E-03  0.0288
   8.0965E-02   8.2935E-02   1.2024E-03  0.0290
   8.2935E-02   8.4953E-02   1.2040E-03  0.0286
   8.4953E-02   8.7020E-02   1.1592E-03  0.0288
   8.7020E-02   8.9138E-02   1.1812E-03  0.0282
   8.9138E-02   9.1306E-02   1.1100E-03  0.0287
   9.1306E-02   9.3528E-02   1.0925E-03  0.0287
   9.3528E-02   9.5804E-02   1.0975E-03  0.0282
   9.5804E-02   9.8134E-02   1.0291E-03  0.0288
   9.8134E-02   1.0052E-01   1.0456E-03  0.0282
   1.0052E-01   1.0297E-01   9.6927E-04  0.0290
   1.0297E-01   1.0547E-01   1.0337E-03  0.0277
   1.0547E-01   1.0804E-01   9.8461E-04  0.0281
   1.0804E-01   1.1067E-01   9.8244E-04  0.0278
   1.1067E-01   1.1336E-01   9.4740E-04  0.0279
   1.1336E-01   1.1612E-01   9.4135E-04  0.0277
   1.1612E-01   1.1894E-01   9.2631E-04  0.0276
   1.1894E-01   1.2184E-01   8.7410E-04  0.0280
   1.2184E-01   1.2480E-01   9.0470E-04  0.0272
   1.2480E-01   1.2784E-01   8.4461E-04  0.0278
   1.2784E-01   1.3095E-01   8.5628E-04  0.0273
   1.3095E-01   1.3414E-01   8.3899E-04  0.0273
   1.3414E-01   1.3740E-01   8.1299E-04  0.0274
   1.3740E-01   1.4074E-01   7.9856E-04  0.0273
   1.4074E-01   1.4417E-01   8.4792E-04  0.0262
   1.4417E-01   1.4767E-01   7.6419E-04  0.0272
   1.4767E-01   1.5127E-01   7.5845E-04  0.0270
   1.5127E-01   1.5495E-01   7.0549E-04  0.0277
   1.5495E-01   1.5872E-01   7.2884E-04  0.0269
   1.5872E-01   1.6258E-01   7.1836E-04  0.0268
   1.6258E-01   1.6654E-01   7.1447E-04  0.0265
   1.6654E-01   1.7059E-01   6.8985E-04  0.0267
   1.7059E-01   1.7474E-01   6.6995E-04  0.0268
   1.7474E-01   1.7899E-01   6.3833E-04  0.0271
   1.7899E-01   1.8334E-01   6.3866E-04  0.0268
   1.8334E-01   1.8781E-01   6.1512E-04  0.0269
   1.8781E-01   1.9237E-01   6.1885E-04  0.0265
   1.9237E-01   1.9706E-01   6.1471E-04  0.0263
   1.9706E-01   2.0185E-01   6.2721E-04  0.0257
   2.0185E-01   2.0676E-01   6.0515E-04  0.0259
   2.0676E-01   2.1179E-01   6.5338E-04  0.0246
   2.1179E-01   2.1694E-01   6.4407E-04  0.0245
   2.1694E-01   2.2222E-01   6.8656E-04  0.0234
   2.2222E-01   2.2763E-01   6.9152E-04  0.0231
   2.2763E-01   2.3317E-01   6.9246E-04  0.0228
   2.3317E-01   2.3884E-01   7.2708E-04  0.0220
   2.3884E-01   2.4465E-01   7.4752E-04  0.0214
   2.4465E-01   2.5061E-01   7.5910E-04  0.0210
   2.5061E-01   2.5670E-01   7.8965E-04  0.0203
   2.5670E-01   2.6295E-01   7.8022E-04  0.0202
   2.6295E-01   2.6935E-01   7.9750E-04  0.0197
   2.6935E-01   2.7590E-01   8.2447E-04  0.0192
   2.7590E-01   2.8261E-01   8.4794E-04  0.0187
   2.8261E-01   2.8949E-01   8.4569E-04  0.0185
   2.8949E-01   2.9653E-01   9.0417E-04  0.0177
   2.9653E-01   3.0375E-01   9.1235E-04  0.0174
   3.0375E-01   3.1114E-01   9.4318E-04  0.0169
   3.1114E-01   3.1871E-01   9.4706E-04  0.0167
   3.1871E-01   3.2646E-01   9.7897E-04  0.0162
   3.2646E-01   3.3441E-01   9.9945E-04  0.0158
   3.3441E-01   3.4254E-01   9.7761E-04  0.0158
   3.4254E-01   3.5088E-01   1.0211E-03  0.0153
   3.5088E-01   3.5941E-01   1.0053E-03  0.0152
   3.5941E-01   3.6816E-01   1.0441E-03  0.0148
   3.6816E-01   3.7712E-01   1.0688E-03  0.0144
   3.7712E-01   3.8629E-01   1.0844E-03  0.0141
   3.8629E-01   3.9569E-01   1.1074E-03  0.0138
   3.9569E-01   4.0532E-01   1.1009E-03  0.0137
   4.0532E-01   4.1518E-01   1.1151E-03  0.0134
   4.1518E-01   4.2528E-01   1.1408E-03  0.0131
   4.2528E-01   4.3563E-01   1.1698E-03  0.0128
   4.3563E-01   4.4623E-01   1.1641E-03  0.0127
   4.4623E-01   4.5708E-01   1.2089E-03  0.0123
   4.5708E-01   4.6821E-01   1.2074E-03  0.0122
   4.6821E-01   4.7960E-01   1.2229E-03  0.0120
   4.7960E-01   4.9127E-01   1.2610E-03  0.0116
   4.9127E-01   5.0322E-01   1.2316E-03  0.0116
   5.0322E-01   5.1546E-01   1.2358E-03  0.0115
   5.1546E-01   5.2800E-01   1.2756E-03  0.0111
   5.2800E-01   5.4085E-01   1.2642E-03  0.0111
   5.4085E-01   5.5401E-01   1.2836E-03  0.0108
   5.5401E-01   5.6749E-01   1.2806E-03  0.0107
   5.6749E-01   5.8130E-01   1.3039E-03  0.0105
   5.8130E-01   5.9544E-01   1.2762E-03  0.0105
   5.9544E-01   6.0993E-01   1.3182E-03  0.0102
   6.0993E-01   6.2477E-01   1.3178E-03  0.0101
   6.2477E-01   6.3997E-01   1.2910E-03  0.0101
   6.3997E-01   6.5554E-01   1.3128E-03  0.0099
   6.5554E-01   6.7149E-01   1.3044E-03  0.0098
   6.7149E-01   6.8783E-01   1.3192E-03  0.0096
   6.8783E-01   7.0456E-01   1.3108E-03  0.0095
   7.0456E-01   7.2171E-01   1.2922E-03  0.0095
   7.2171E-01   7.3927E-01   1.3115E-03  0.0093
   7.3927E-01   7.5725E-01   1.2733E-03  0.0093
   7.5725E-01   7.7568E-01   1.2764E-03  0.0092
   7.7568E-01   7.9455E-01   1.2674E-03  0.0091
   7.9455E-01   8.1388E-01   1.2544E-03  0.0090
   8.1388E-01   8.3368E-01   1.2245E-03  0.0090
   8.3368E-01   8.5397E-01   1.2230E-03  0.0089
   8.5397E-01   8.7475E-01   1.2098E-03  0.0089
   8.7475E-01   8.9603E-01   1.1931E-03  0.0088
   8.9603E-01   9.1783E-01   1.1622E-03  0.0089
   9.1783E-01   9.4016E-01   1.1568E-03  0.0088
   9.4016E-01   9.6304E-01   1.1282E-03  0.0088
   9.6304E-01   9.8647E-01   1.1045E-03  0.0088
   9.8647E-01   1.0105E+00   1.0915E-03  0.0087
   1.0105E+00   1.0351E+00   1.0741E-03  0.0087
   1.0351E+00   1.0602E+00   1.0876E-03  0.0085
   1.0602E+00   1.0860E+00   1.1037E-03  0.0084
   1.0860E+00   1.1125E+00   1.0992E-03  0.0083
   1.1125E+00   1.1395E+00   1.1182E-03  0.0081
   1.1395E+00   1.1673E+00   1.1496E-03  0.0079
   1.1673E+00   1.1957E+00   1.1788E-03  0.0077
   1.1957E+00   1.2247E+00   1.1939E-03  0.0076
   1.2247E+00   1.2545E+00   1.1885E-03  0.0075
   1.2545E+00   1.2851E+00   1.2027E-03  0.0074
   1.2851E+00   1.3163E+00   1.2084E-03  0.0072
   1.3163E+00   1.3484E+00   1.2305E-03  0.0071
   1.3484E+00   1.3812E+00   1.2516E-03  0.0070
   1.3812E+00   1.4148E+00   1.2604E-03  0.0068
   1.4148E+00   1.4492E+00   1.2628E-03  0.0068
   1.4492E+00   1.4845E+00   1.2661E-03  0.0067
   1.4845E+00   1.5206E+00   1.2567E-03  0.0066
   1.5206E+00   1.5576E+00   1.2668E-03  0.0065
   1.5576E+00   1.5955E+00   1.2616E-03  0.0064
   1.5955E+00   1.6343E+00   1.2639E-03  0.0064
   1.6343E+00   1.6741E+00   1.2730E-03  0.0063
   1.6741E+00   1.7148E+00   1.2813E-03  0.0062
   1.7148E+00   1.7565E+00   1.2989E-03  0.0060
   1.7565E+00   1.7992E+00   1.2729E-03  0.0060
   1.7992E+00   1.8430E+00   1.2767E-03  0.0060
   1.8430E+00   1.8879E+00   1.2739E-03  0.0059
   1.8879E+00   1.9338E+00   1.2684E-03  0.0058
   1.9338E+00   1.9808E+00   1.2831E-03  0.0057
   1.9808E+00   2.0290E+00   1.2890E-03  0.0056
   2.0290E+00   2.0784E+00   1.2775E-03  0.0056
   2.0784E+00   2.1290E+00   1.2565E-03  0.0056
   2.1290E+00   2.1808E+00   1.2639E-03  0.0055
   2.1808E+00   2.2338E+00   1.2412E-03  0.0055
   2.2338E+00   2.2882E+00   1.2376E-03  0.0054
   2.2882E+00   2.3439E+00   1.2265E-03  0.0054
   2.3439E+00   2.4009E+00   1.2359E-03  0.0053
   2.4009E+00   2.4593E+00   1.2345E-03  0.0052
   2.4593E+00   2.5191E+00   1.2195E-03  0.0052
   2.5191E+00   2.5804E+00   1.2153E-03  0.0052
   2.5804E+00   2.6432E+00   1.2025E-03  0.0051
   2.6432E+00   2.7075E+00   1.1761E-03  0.0051
   2.7075E+00   2.7734E+00   1.1794E-03  0.0050
   2.7734E+00   2.8409E+00   1.1672E-03  0.0050
   2.8409E+00   2.9100E+00   1.1639E-03  0.0050
   2.9100E+00   2.9808E+00   1.1744E-03  0.0049
   2.9808E+00   3.0533E+00   1.1600E-03  0.0049
   3.0533E+00   3.1276E+00   1.1441E-03  0.0048
   3.1276E+00   3.2037E+00   1.1247E-03  0.0048
   3.2037E+00   3.2817E+00   1.1083E-03  0.0048
   3.2817E+00   3.3615E+00   1.1063E-03  0.0047
   3.3615E+00   3.4433E+00   1.0842E-03  0.0047
   3.4433E+00   3.5271E+00   1.0789E-03  0.0047
   3.5271E+00   3.6129E+00   1.0606E-03  0.0047
   3.6129E+00   3.7008E+00   1.0540E-03  0.0046
   3.7008E+00   3.7908E+00   1.0336E-03  0.0046
   3.7908E+00   3.8831E+00   1.0306E-03  0.0046
   3.8831E+00   3.9776E+00   1.0132E-03  0.0046
   3.9776E+00   4.0743E+00   9.9714E-04  0.0045
   4.0743E+00   4.1735E+00   9.9096E-04  0.0045
   4.1735E+00   4.2750E+00   9.7133E-04  0.0045
   4.2750E+00   4.3790E+00   9.6347E-04  0.0045
   4.3790E+00   4.4856E+00   9.4781E-04  0.0044
   4.4856E+00   4.5947E+00   9.4080E-04  0.0044
   4.5947E+00   4.7065E+00   9.4101E-04  0.0043
   4.7065E+00   4.8210E+00   9.3756E-04  0.0043
   4.8210E+00   4.9383E+00   9.2486E-04  0.0043
   4.9383E+00   5.0585E+00   9.1899E-04  0.0042
   5.0585E+00   5.1815E+00   9.0636E-04  0.0042
   5.1815E+00   5.3076E+00   8.9355E-04  0.0042
   5.3076E+00   5.4368E+00   8.7253E-04  0.0042
   5.4368E+00   5.5690E+00   8.5828E-04  0.0042
   5.5690E+00   5.7045E+00   8.4228E-04  0.0042
   5.7045E+00   5.8433E+00   8.2713E-04  0.0042
   5.8433E+00   5.9855E+00   8.0720E-04  0.0042
   5.9855E+00   6.1311E+00   7.8775E-04  0.0042
   6.1311E+00   6.2803E+00   7.8813E-04  0.0041
   6.2803E+00   6.4331E+00   7.6276E-04  0.0041
   6.4331E+00   6.5896E+00   7.4912E-04  0.0041
   6.5896E+00   6.7500E+00   7.3301E-04  0.0041
   6.7500E+00   6.9142E+00   7.2096E-04  0.0041
   6.9142E+00   7.0824E+00   7.1136E-04  0.0041
   7.0824E+00   7.2548E+00   6.9412E-04  0.0041
   7.2548E+00   7.4313E+00   6.7940E-04  0.0041
   7.4313E+00   7.6121E+00   6.7323E-04  0.0040
   7.6121E+00   7.7973E+00   6.5605E-04  0.0040
   7.7973E+00   7.9870E+00   6.3784E-04  0.0041
   7.9870E+00   8.1813E+00   6.2301E-04  0.0041
   8.1813E+00   8.3804E+00   6.0605E-04  0.0041
   8.3804E+00   8.5843E+00   5.9733E-04  0.0040
   8.5843E+00   8.7931E+00   5.8164E-04  0.0041
   8.7931E+00   9.0071E+00   5.6691E-04  0.0041
   9.0071E+00   9.2262E+00   5.4941E-04  0.0041
   9.2262E+00   9.4507E+00   5.3875E-04  0.0041
   9.4507E+00   9.6807E+00   5.2284E-04  0.0041
   9.6807E+00   9.9162E+00   5.1214E-04  0.0041
   9.9162E+00   1.0157E+01   4.9986E-04  0.0041
   1.0157E+01   1.0405E+01   4.8652E-04  0.0041
   1.0405E+01   1.0658E+01   4.8583E-04  0.0040
   1.0658E+01   1.0917E+01   4.7343E-04  0.0040
   1.0917E+01   1.1183E+01   4.6236E-04  0.0040
   1.1183E+01   1.1455E+01   4.5065E-04  0.0040
   1.1455E+01   1.1733E+01   4.3725E-04  0.0040
   1.1733E+01   1.2019E+01   4.2763E-04  0.0040
   1.2019E+01   1.2311E+01   4.1141E-04  0.0041
   1.2311E+01   1.2611E+01   3.9972E-04  0.0041
   1.2611E+01   1.2918E+01   3.9100E-04  0.0041
   1.2918E+01   1.3232E+01   3.7900E-04  0.0041
   1.3232E+01   1.3554E+01   3.6768E-04  0.0041
   1.3554E+01   1.3884E+01   3.5911E-04  0.0041
   1.3884E+01   1.4222E+01   3.4657E-04  0.0041
   1.4222E+01   1.4568E+01   3.3463E-04  0.0042
   1.4568E+01   1.4922E+01   3.2357E-04  0.0042
   1.4922E+01   1.5285E+01   3.1268E-04  0.0042
   1.5285E+01   1.5657E+01   3.0050E-04  0.0042
   1.5657E+01   1.6038E+01   2.8957E-04  0.0043
   1.6038E+01   1.6428E+01   2.8546E-04  0.0042
   1.6428E+01   1.6828E+01   2.7206E-04  0.0043
   1.6828E+01   1.7237E+01   2.6331E-04  0.0043
   1.7237E+01   1.7657E+01   2.5442E-04  0.0043
   1.7657E+01   1.8086E+01   2.4236E-04  0.0044
   1.8086E+01   1.8526E+01   2.3553E-04  0.0044
   1.8526E+01   1.8977E+01   2.2741E-04  0.0044
   1.8977E+01   1.9439E+01   2.2002E-04  0.0044
   1.9439E+01   1.9912E+01   2.1507E-04  0.0044
   1.9912E+01   2.0396E+01   2.1468E-04  0.0044
   2.0396E+01   2.0893E+01   2.0603E-04  0.0044
   2.0893E+01   2.1401E+01   1.9612E-04  0.0045
   2.1401E+01   2.1922E+01   1.9078E-04  0.0045
   2.1922E+01   2.2455E+01   1.8111E-04  0.0046
   2.2455E+01   2.3001E+01   1.7225E-04  0.0046
   2.3001E+01   2.3561E+01   1.6351E-04  0.0047
   2.3561E+01   2.4134E+01   1.5813E-04  0.0047
   2.4134E+01   2.4721E+01   1.4885E-04  0.0048
   2.4721E+01   2.5323E+01   1.4092E-04  0.0049
   2.5323E+01   2.5939E+01   1.3587E-04  0.0049
   2.5939E+01   2.6570E+01   1.2821E-04  0.0050
   2.6570E+01   2.7217E+01   1.2122E-04  0.0051
   2.7217E+01   2.7879E+01   1.1419E-04  0.0051
   2.7879E+01   2.8557E+01   1.0691E-04  0.0053
   2.8557E+01   2.9252E+01   1.0105E-04  0.0053
   2.9252E+01   2.9964E+01   9.4433E-05  0.0055
   2.9964E+01   3.0693E+01   8.8267E-05  0.0056
   3.0693E+01   3.1440E+01   8.3045E-05  0.0057
   3.1440E+01   3.2205E+01   7.8280E-05  0.0058
   3.2205E+01   3.2988E+01   7.1619E-05  0.0060
   3.2988E+01   3.3791E+01   6.8201E-05  0.0060
   3.3791E+01   3.4613E+01   6.3550E-05  0.0062
   3.4613E+01   3.5455E+01   5.8744E-05  0.0064
   3.5455E+01   3.6318E+01   5.4092E-05  0.0065
   3.6318E+01   3.7201E+01   5.0426E-05  0.0067
   3.7201E+01   3.8106E+01   4.6747E-05  0.0069
   3.8106E+01   3.9034E+01   4.2683E-05  0.0071
   3.9034E+01   3.9983E+01   3.9121E-05  0.0073
   3.9983E+01   4.0956E+01   3.6562E-05  0.0075
   4.0956E+01   4.1953E+01   3.3592E-05  0.0077
   4.1953E+01   4.2973E+01   3.0168E-05  0.0081
   4.2973E+01   4.4019E+01   2.7388E-05  0.0084
   4.4019E+01   4.5090E+01   2.5441E-05  0.0086
   4.5090E+01   4.6187E+01   2.2884E-05  0.0089
   4.6187E+01   4.7311E+01   2.1026E-05  0.0092
   4.7311E+01   4.8462E+01   1.9046E-05  0.0096
   4.8462E+01   4.9641E+01   1.7130E-05  0.0100
   4.9641E+01   5.0849E+01   1.5464E-05  0.0103
   5.0849E+01   5.2086E+01   1.3663E-05  0.0109
   5.2086E+01   5.3353E+01   1.2453E-05  0.0113
   5.3353E+01   5.4651E+01   1.0991E-05  0.0118
   5.4651E+01   5.5981E+01   9.6472E-06  0.0125
   5.5981E+01   5.7343E+01   8.6251E-06  0.0130
   5.7343E+01   5.8738E+01   7.5659E-06  0.0138
   5.8738E+01   6.0168E+01   6.5535E-06  0.0146
   6.0168E+01   6.1632E+01   5.5495E-06  0.0157
   6.1632E+01   6.3131E+01   5.0215E-06  0.0163
   6.3131E+01   6.4667E+01   4.1757E-06  0.0177
   6.4667E+01   6.6240E+01   3.7168E-06  0.0185
   6.6240E+01   6.7852E+01   2.9944E-06  0.0204
   6.7852E+01   6.9503E+01   2.5429E-06  0.0218
   6.9503E+01   7.1194E+01   2.1194E-06  0.0236
   7.1194E+01   7.2926E+01   1.7065E-06  0.0260
   7.2926E+01   7.4701E+01   1.5341E-06  0.0271
   7.4701E+01   7.6518E+01   1.1994E-06  0.0303
   7.6518E+01   7.8380E+01   9.7006E-07  0.0333
   7.8380E+01   8.0287E+01   7.7502E-07  0.0368
   8.0287E+01   8.2240E+01   5.8051E-07  0.0420
   8.2240E+01   8.4241E+01   4.7977E-07  0.0456
   8.4241E+01   8.6291E+01   4.6154E-07  0.0460
   8.6291E+01   8.8391E+01   2.8292E-07  0.0580
   8.8391E+01   9.0541E+01   2.1296E-07  0.0661
   9.0541E+01   9.2744E+01   1.2166E-07  0.0864
   9.2744E+01   9.5001E+01   8.6859E-08  0.1010
   9.5001E+01   9.7312E+01   4.1532E-08  0.1443
   9.7312E+01   9.9680E+01   2.7031E-08  0.1768
   9.9680E+01   1.0211E+02   5.7725E-09  0.3780
   1.0211E+02   1.0459E+02   2.4152E-09  0.5774
   1.0459E+02   1.0713E+02   7.8593E-10  1.0000
   1.0713E+02   1.0974E+02   0.0000E+00  0.0000
   1.0974E+02   1.1241E+02   0.0000E+00  0.0000
   1.1241E+02   1.1515E+02   0.0000E+00  0.0000
   1.1515E+02   1.1795E+02   0.0000E+00  0.0000
   1.1795E+02   1.2082E+02   0.0000E+00  0.0000
   1.2082E+02   1.2376E+02   0.0000E+00  0.0000
   1.2376E+02   1.2677E+02   0.0000E+00  0.0000
   1.2677E+02   1.2985E+02   0.0000E+00  0.0000
   1.2985E+02   1.3301E+02   0.0000E+00  0.0000
   1.3301E+02   1.3625E+02   0.0000E+00  0.0000
   1.3625E+02   1.3956E+02   0.0000E+00  0.0000
   1.3956E+02   1.4296E+02   0.0000E+00  0.0000
   1.4296E+02   1.4644E+02   0.0000E+00  0.0000
   1.4644E+02   1.5000E+02   0.0000E+00  0.0000

#   sum over                 9.8994E-05
'no. =    1   reg = 110 - 210'
msuc: {\huge [t-cross] in region mesh}
msdr: {\it plotted by \ANGEL \version}
msdl: {\it calculated by \PHITS  3.26}
wt: s(0.7)
\vspace{-3}
  region surface crossing
  area  &=&   1.0000E+00 [cm^2]
e:
 
# Information for Restart Calculation
# This calculation was newly started
# istdev =  2 # 1:Batch variance, 2:History variance
# resc2  = 5.00000000000000000E+08 # Total source weight or Total source weight / maxcas
# resc3  = 5.00000000000000000E+08 # Total history number or Total batch number
# maxcas =   500000000 # History / Batch, only used for istdev=1
# bitrseed = 1101101111010011011000101101110001100110110010110001010100010001 # bit data of rseed
