[ T-Cross ]
    title = [t-cross] in region mesh
     mesh =  reg            # mesh type is region-wise
      reg =    1            # number of crossing regions
      non     r-from    r-to       area
      1       105       205        1.000000    
   e-type =    3            # e-mesh is log given by emin, emax and ne
     emin =  1.0000000E-02  # minimum value of e-mesh points
     emax =   150.0000      # maximum value of e-mesh points
#    edel =  2.4039514E-02  # mesh width of e-mesh points
       ne =    400          # number of e-mesh points
#    data = ( e(i), i = 1, ne + 1 )
#           1.00000E-02  1.02433E-02  1.04925E-02  1.07478E-02  1.10093E-02
#           1.12772E-02  1.15516E-02  1.18326E-02  1.21205E-02  1.24154E-02
#           1.27175E-02  1.30269E-02  1.33439E-02  1.36686E-02  1.40011E-02
#           1.43418E-02  1.46907E-02  1.50482E-02  1.54143E-02  1.57894E-02
#           1.61735E-02  1.65670E-02  1.69701E-02  1.73830E-02  1.78060E-02
#           1.82392E-02  1.86830E-02  1.91375E-02  1.96032E-02  2.00801E-02
#           2.05687E-02  2.10692E-02  2.15818E-02  2.21069E-02  2.26448E-02
#           2.31957E-02  2.37601E-02  2.43382E-02  2.49304E-02  2.55369E-02
#           2.61583E-02  2.67947E-02  2.74467E-02  2.81145E-02  2.87985E-02
#           2.94992E-02  3.02169E-02  3.09521E-02  3.17052E-02  3.24766E-02
#           3.32668E-02  3.40762E-02  3.49053E-02  3.57546E-02  3.66246E-02
#           3.75157E-02  3.84284E-02  3.93634E-02  4.03212E-02  4.13022E-02
#           4.23071E-02  4.33365E-02  4.43909E-02  4.54710E-02  4.65773E-02
#           4.77106E-02  4.88714E-02  5.00605E-02  5.12785E-02  5.25262E-02
#           5.38042E-02  5.51133E-02  5.64542E-02  5.78278E-02  5.92348E-02
#           6.06760E-02  6.21523E-02  6.36645E-02  6.52135E-02  6.68002E-02
#           6.84255E-02  7.00904E-02  7.17957E-02  7.35426E-02  7.53319E-02
#           7.71648E-02  7.90423E-02  8.09655E-02  8.29354E-02  8.49533E-02
#           8.70203E-02  8.91376E-02  9.13064E-02  9.35279E-02  9.58035E-02
#           9.81345E-02  1.00522E-01  1.02968E-01  1.05473E-01  1.08040E-01
#           1.10668E-01  1.13361E-01  1.16119E-01  1.18944E-01  1.21838E-01
#           1.24803E-01  1.27839E-01  1.30950E-01  1.34136E-01  1.37399E-01
#           1.40742E-01  1.44167E-01  1.47675E-01  1.51268E-01  1.54948E-01
#           1.58718E-01  1.62580E-01  1.66535E-01  1.70587E-01  1.74738E-01
#           1.78989E-01  1.83344E-01  1.87805E-01  1.92375E-01  1.97055E-01
#           2.01850E-01  2.06761E-01  2.11792E-01  2.16945E-01  2.22223E-01
#           2.27630E-01  2.33169E-01  2.38842E-01  2.44653E-01  2.50605E-01
#           2.56703E-01  2.62949E-01  2.69346E-01  2.75900E-01  2.82613E-01
#           2.89489E-01  2.96532E-01  3.03747E-01  3.11138E-01  3.18708E-01
#           3.26462E-01  3.34405E-01  3.42542E-01  3.50876E-01  3.59413E-01
#           3.68158E-01  3.77116E-01  3.86291E-01  3.95690E-01  4.05317E-01
#           4.15179E-01  4.25281E-01  4.35628E-01  4.46227E-01  4.57084E-01
#           4.68205E-01  4.79597E-01  4.91266E-01  5.03219E-01  5.15463E-01
#           5.28005E-01  5.40851E-01  5.54011E-01  5.67490E-01  5.81298E-01
#           5.95441E-01  6.09929E-01  6.24769E-01  6.39970E-01  6.55541E-01
#           6.71491E-01  6.87828E-01  7.04564E-01  7.21706E-01  7.39266E-01
#           7.57253E-01  7.75678E-01  7.94551E-01  8.13883E-01  8.33685E-01
#           8.53969E-01  8.74747E-01  8.96030E-01  9.17831E-01  9.40163E-01
#           9.63038E-01  9.86469E-01  1.01047E+00  1.03506E+00  1.06024E+00
#           1.08604E+00  1.11246E+00  1.13953E+00  1.16725E+00  1.19565E+00
#           1.22474E+00  1.25454E+00  1.28507E+00  1.31633E+00  1.34836E+00
#           1.38117E+00  1.41477E+00  1.44920E+00  1.48446E+00  1.52057E+00
#           1.55757E+00  1.59547E+00  1.63429E+00  1.67405E+00  1.71478E+00
#           1.75650E+00  1.79924E+00  1.84302E+00  1.88786E+00  1.93379E+00
#           1.98084E+00  2.02904E+00  2.07841E+00  2.12898E+00  2.18078E+00
#           2.23384E+00  2.28819E+00  2.34386E+00  2.40089E+00  2.45930E+00
#           2.51914E+00  2.58043E+00  2.64322E+00  2.70753E+00  2.77341E+00
#           2.84088E+00  2.91001E+00  2.98081E+00  3.05333E+00  3.12762E+00
#           3.20372E+00  3.28167E+00  3.36152E+00  3.44330E+00  3.52708E+00
#           3.61290E+00  3.70080E+00  3.79085E+00  3.88308E+00  3.97756E+00
#           4.07434E+00  4.17347E+00  4.27501E+00  4.37903E+00  4.48557E+00
#           4.59471E+00  4.70650E+00  4.82102E+00  4.93832E+00  5.05847E+00
#           5.18155E+00  5.30762E+00  5.43676E+00  5.56904E+00  5.70453E+00
#           5.84333E+00  5.98550E+00  6.13114E+00  6.28031E+00  6.43312E+00
#           6.58964E+00  6.74997E+00  6.91420E+00  7.08243E+00  7.25475E+00
#           7.43126E+00  7.61207E+00  7.79728E+00  7.98700E+00  8.18133E+00
#           8.38038E+00  8.58428E+00  8.79315E+00  9.00709E+00  9.22624E+00
#           9.45072E+00  9.68067E+00  9.91620E+00  1.01575E+01  1.04046E+01
#           1.06578E+01  1.09171E+01  1.11827E+01  1.14548E+01  1.17335E+01
#           1.20190E+01  1.23114E+01  1.26109E+01  1.29178E+01  1.32321E+01
#           1.35540E+01  1.38838E+01  1.42216E+01  1.45676E+01  1.49221E+01
#           1.52851E+01  1.56570E+01  1.60380E+01  1.64282E+01  1.68279E+01
#           1.72374E+01  1.76568E+01  1.80864E+01  1.85264E+01  1.89772E+01
#           1.94389E+01  1.99119E+01  2.03963E+01  2.08926E+01  2.14009E+01
#           2.19216E+01  2.24550E+01  2.30014E+01  2.35610E+01  2.41343E+01
#           2.47215E+01  2.53230E+01  2.59391E+01  2.65702E+01  2.72167E+01
#           2.78789E+01  2.85572E+01  2.92520E+01  2.99637E+01  3.06928E+01
#           3.14396E+01  3.22045E+01  3.29881E+01  3.37907E+01  3.46128E+01
#           3.54550E+01  3.63177E+01  3.72013E+01  3.81064E+01  3.90336E+01
#           3.99833E+01  4.09561E+01  4.19526E+01  4.29734E+01  4.40189E+01
#           4.50900E+01  4.61870E+01  4.73108E+01  4.84619E+01  4.96410E+01
#           5.08488E+01  5.20860E+01  5.33533E+01  5.46514E+01  5.59812E+01
#           5.73432E+01  5.87384E+01  6.01676E+01  6.16315E+01  6.31311E+01
#           6.46671E+01  6.62405E+01  6.78522E+01  6.95031E+01  7.11941E+01
#           7.29263E+01  7.47007E+01  7.65182E+01  7.83800E+01  8.02870E+01
#           8.22405E+01  8.42414E+01  8.62911E+01  8.83906E+01  9.05412E+01
#           9.27442E+01  9.50007E+01  9.73122E+01  9.96799E+01  1.02105E+02
#           1.04589E+02  1.07134E+02  1.09741E+02  1.12411E+02  1.15146E+02
#           1.17948E+02  1.20817E+02  1.23757E+02  1.26768E+02  1.29852E+02
#           1.33012E+02  1.36248E+02  1.39563E+02  1.42959E+02  1.46437E+02
#           1.50000E+02
     unit =    2            # unit is [1/cm^2/(MeV/n)/source]
     axis =  eng            # axis of output
     file = detector-06.out  # file name of output for the above axis
   output = f-curr          # surface crossing forward current spectrum
     part =  neutron  
# kf/name :  2112     
#    used :        main (  %)        temp (  %)       total (  %)
#  memory :         414 (  0)           0 (  0)         414 (  0)

#------------------------------------------------------------------------------
#newpage:
#   no. =    1   reg = 105 - 205

x: Energy [MeV/n]
y:  F-Curr [1/cm^2/(MeV/n)/source]         
p: xlog ylog afac(0.8) form(0.9)
h: n            x            y(neutron ),hh0l   n 
#  e-lower      e-upper      neutron     r.err 
   1.0000E-02   1.0243E-02   2.1007E-03  0.0624
   1.0243E-02   1.0493E-02   2.3162E-03  0.0588
   1.0493E-02   1.0748E-02   1.9920E-03  0.0626
   1.0748E-02   1.1009E-02   1.9442E-03  0.0627
   1.1009E-02   1.1277E-02   1.9886E-03  0.0611
   1.1277E-02   1.1552E-02   2.1356E-03  0.0583
   1.1552E-02   1.1833E-02   1.8050E-03  0.0627
   1.1833E-02   1.2121E-02   1.7416E-03  0.0630
   1.2121E-02   1.2415E-02   1.8433E-03  0.0605
   1.2415E-02   1.2718E-02   1.7616E-03  0.0612
   1.2718E-02   1.3027E-02   1.7908E-03  0.0600
   1.3027E-02   1.3344E-02   1.5669E-03  0.0633
   1.3344E-02   1.3669E-02   1.6539E-03  0.0608
   1.3669E-02   1.4001E-02   1.6034E-03  0.0611
   1.4001E-02   1.4342E-02   1.4285E-03  0.0639
   1.4342E-02   1.4691E-02   1.5413E-03  0.0609
   1.4691E-02   1.5048E-02   1.6884E-03  0.0575
   1.5048E-02   1.5414E-02   1.4591E-03  0.0610
   1.5414E-02   1.5789E-02   1.4485E-03  0.0606
   1.5789E-02   1.6174E-02   1.5007E-03  0.0588
   1.6174E-02   1.6567E-02   1.4517E-03  0.0589
   1.6567E-02   1.6970E-02   1.3265E-03  0.0611
   1.6970E-02   1.7383E-02   1.5640E-03  0.0555
   1.7383E-02   1.7806E-02   1.3883E-03  0.0583
   1.7806E-02   1.8239E-02   1.2580E-03  0.0605
   1.8239E-02   1.8683E-02   1.3842E-03  0.0569
   1.8683E-02   1.9138E-02   1.1888E-03  0.0608
   1.9138E-02   1.9603E-02   1.2142E-03  0.0594
   1.9603E-02   2.0080E-02   1.2242E-03  0.0585
   2.0080E-02   2.0569E-02   1.2374E-03  0.0574
   2.0569E-02   2.1069E-02   1.2114E-03  0.0573
   2.1069E-02   2.1582E-02   1.2471E-03  0.0559
   2.1582E-02   2.2107E-02   1.0734E-03  0.0595
   2.2107E-02   2.2645E-02   1.1049E-03  0.0578
   2.2645E-02   2.3196E-02   1.0575E-03  0.0585
   2.3196E-02   2.3760E-02   1.0399E-03  0.0583
   2.3760E-02   2.4338E-02   1.0493E-03  0.0573
   2.4338E-02   2.4930E-02   1.1106E-03  0.0551
   2.4930E-02   2.5537E-02   1.0017E-03  0.0571
   2.5537E-02   2.6158E-02   1.1106E-03  0.0537
   2.6158E-02   2.6795E-02   1.0268E-03  0.0552
   2.6795E-02   2.7447E-02   1.0519E-03  0.0538
   2.7447E-02   2.8114E-02   9.3661E-04  0.0564
   2.8114E-02   2.8799E-02   8.6488E-04  0.0579
   2.8799E-02   2.9499E-02   9.2751E-04  0.0554
   2.9499E-02   3.0217E-02   9.5327E-04  0.0540
   3.0217E-02   3.0952E-02   9.6432E-04  0.0530
   3.0952E-02   3.1705E-02   8.8354E-04  0.0547
   3.1705E-02   3.2477E-02   8.2727E-04  0.0558
   3.2477E-02   3.3267E-02   8.2491E-04  0.0553
   3.3267E-02   3.4076E-02   8.2383E-04  0.0547
   3.4076E-02   3.4905E-02   8.0516E-04  0.0547
   3.4905E-02   3.5755E-02   7.9133E-04  0.0545
   3.5755E-02   3.6625E-02   8.7673E-04  0.0511
   3.6625E-02   3.7516E-02   7.8347E-04  0.0534
   3.7516E-02   3.8428E-02   7.2903E-04  0.0547
   3.8428E-02   3.9363E-02   8.1042E-04  0.0513
   3.9363E-02   4.0321E-02   7.2367E-04  0.0535
   4.0321E-02   4.1302E-02   7.7519E-04  0.0511
   4.1302E-02   4.2307E-02   7.5689E-04  0.0511
   4.2307E-02   4.3337E-02   6.5620E-04  0.0541
   4.3337E-02   4.4391E-02   6.6417E-04  0.0533
   4.4391E-02   4.5471E-02   6.4842E-04  0.0533
   4.5471E-02   4.6577E-02   6.3291E-04  0.0533
   4.6577E-02   4.7711E-02   6.7990E-04  0.0508
   4.7711E-02   4.8871E-02   5.9873E-04  0.0536
   4.8871E-02   5.0061E-02   6.1011E-04  0.0524
   5.0061E-02   5.1279E-02   5.8569E-04  0.0528
   5.1279E-02   5.2526E-02   6.0625E-04  0.0513
   5.2526E-02   5.3804E-02   6.3630E-04  0.0495
   5.3804E-02   5.5113E-02   5.2080E-04  0.0540
   5.5113E-02   5.6454E-02   5.4558E-04  0.0522
   5.6454E-02   5.7828E-02   5.1254E-04  0.0532
   5.7828E-02   5.9235E-02   5.0481E-04  0.0530
   5.9235E-02   6.0676E-02   5.3129E-04  0.0510
   6.0676E-02   6.2152E-02   5.3361E-04  0.0503
   6.2152E-02   6.3665E-02   5.1273E-04  0.0507
   6.3665E-02   6.5214E-02   5.1452E-04  0.0500
   6.5214E-02   6.6800E-02   4.5031E-04  0.0527
   6.6800E-02   6.8426E-02   4.8351E-04  0.0503
   6.8426E-02   7.0090E-02   4.6180E-04  0.0509
   7.0090E-02   7.1796E-02   4.6748E-04  0.0500
   7.1796E-02   7.3543E-02   4.2784E-04  0.0516
   7.3543E-02   7.5332E-02   4.2828E-04  0.0510
   7.5332E-02   7.7165E-02   3.9299E-04  0.0525
   7.7165E-02   7.9042E-02   4.2004E-04  0.0503
   7.9042E-02   8.0965E-02   4.3522E-04  0.0488
   8.0965E-02   8.2935E-02   4.2179E-04  0.0490
   8.2935E-02   8.4953E-02   4.0565E-04  0.0493
   8.4953E-02   8.7020E-02   3.7916E-04  0.0504
   8.7020E-02   8.9138E-02   3.7254E-04  0.0503
   8.9138E-02   9.1306E-02   3.4556E-04  0.0516
   9.1306E-02   9.3528E-02   3.7409E-04  0.0490
   9.3528E-02   9.5804E-02   4.0883E-04  0.0463
   9.5804E-02   9.8134E-02   3.8012E-04  0.0474
   9.8134E-02   1.0052E-01   3.7434E-04  0.0472
   1.0052E-01   1.0297E-01   3.3027E-04  0.0497
   1.0297E-01   1.0547E-01   3.5342E-04  0.0474
   1.0547E-01   1.0804E-01   3.2351E-04  0.0489
   1.0804E-01   1.1067E-01   3.2601E-04  0.0482
   1.1067E-01   1.1336E-01   3.0280E-04  0.0494
   1.1336E-01   1.1612E-01   2.8818E-04  0.0500
   1.1612E-01   1.1894E-01   2.8929E-04  0.0493
   1.1894E-01   1.2184E-01   2.7767E-04  0.0498
   1.2184E-01   1.2480E-01   2.9852E-04  0.0474
   1.2480E-01   1.2784E-01   2.7899E-04  0.0485
   1.2784E-01   1.3095E-01   2.7439E-04  0.0483
   1.3095E-01   1.3414E-01   2.4887E-04  0.0501
   1.3414E-01   1.3740E-01   2.5030E-04  0.0493
   1.3740E-01   1.4074E-01   2.5609E-04  0.0482
   1.4074E-01   1.4417E-01   2.3124E-04  0.0501
   1.4417E-01   1.4767E-01   2.2728E-04  0.0500
   1.4767E-01   1.5127E-01   2.4836E-04  0.0473
   1.5127E-01   1.5495E-01   2.4514E-04  0.0470
   1.5495E-01   1.5872E-01   2.3690E-04  0.0472
   1.5872E-01   1.6258E-01   2.1811E-04  0.0486
   1.6258E-01   1.6654E-01   2.3937E-04  0.0458
   1.6654E-01   1.7059E-01   2.0846E-04  0.0486
   1.7059E-01   1.7474E-01   2.1726E-04  0.0470
   1.7474E-01   1.7899E-01   2.1386E-04  0.0468
   1.7899E-01   1.8334E-01   2.0831E-04  0.0468
   1.8334E-01   1.8781E-01   1.9410E-04  0.0480
   1.8781E-01   1.9237E-01   1.8506E-04  0.0485
   1.9237E-01   1.9706E-01   1.9609E-04  0.0466
   1.9706E-01   2.0185E-01   2.0681E-04  0.0448
   2.0185E-01   2.0676E-01   2.0335E-04  0.0446
   2.0676E-01   2.1179E-01   2.1045E-04  0.0434
   2.1179E-01   2.1694E-01   2.0831E-04  0.0431
   2.1694E-01   2.2222E-01   2.1606E-04  0.0418
   2.2222E-01   2.2763E-01   2.2390E-04  0.0405
   2.2763E-01   2.3317E-01   2.1984E-04  0.0404
   2.3317E-01   2.3884E-01   2.1298E-04  0.0406
   2.3884E-01   2.4465E-01   2.3017E-04  0.0385
   2.4465E-01   2.5061E-01   2.3765E-04  0.0374
   2.5061E-01   2.5670E-01   2.5199E-04  0.0360
   2.5670E-01   2.6295E-01   2.6234E-04  0.0348
   2.6295E-01   2.6935E-01   2.4766E-04  0.0354
   2.6935E-01   2.7590E-01   2.5100E-04  0.0348
   2.7590E-01   2.8261E-01   2.6485E-04  0.0335
   2.8261E-01   2.8949E-01   2.7033E-04  0.0327
   2.8949E-01   2.9653E-01   2.7018E-04  0.0323
   2.9653E-01   3.0375E-01   2.6424E-04  0.0323
   3.0375E-01   3.1114E-01   2.6518E-04  0.0319
   3.1114E-01   3.1871E-01   2.8921E-04  0.0301
   3.1871E-01   3.2646E-01   2.9414E-04  0.0295
   3.2646E-01   3.3441E-01   2.7069E-04  0.0304
   3.3441E-01   3.4254E-01   3.0167E-04  0.0285
   3.4254E-01   3.5088E-01   2.9626E-04  0.0284
   3.5088E-01   3.5941E-01   3.1691E-04  0.0271
   3.5941E-01   3.6816E-01   3.0166E-04  0.0275
   3.6816E-01   3.7712E-01   3.0478E-04  0.0270
   3.7712E-01   3.8629E-01   3.2210E-04  0.0259
   3.8629E-01   3.9569E-01   3.0686E-04  0.0263
   3.9569E-01   4.0532E-01   3.2130E-04  0.0253
   4.0532E-01   4.1518E-01   3.2245E-04  0.0250
   4.1518E-01   4.2528E-01   3.3876E-04  0.0241
   4.2528E-01   4.3563E-01   3.2985E-04  0.0241
   4.3563E-01   4.4623E-01   3.3674E-04  0.0236
   4.4623E-01   4.5708E-01   3.3896E-04  0.0232
   4.5708E-01   4.6821E-01   3.3583E-04  0.0231
   4.6821E-01   4.7960E-01   3.4470E-04  0.0225
   4.7960E-01   4.9127E-01   3.5215E-04  0.0220
   4.9127E-01   5.0322E-01   3.3170E-04  0.0224
   5.0322E-01   5.1546E-01   3.5052E-04  0.0215
   5.1546E-01   5.2800E-01   3.4938E-04  0.0213
   5.2800E-01   5.4085E-01   3.6192E-04  0.0207
   5.4085E-01   5.5401E-01   3.5910E-04  0.0205
   5.5401E-01   5.6749E-01   3.6798E-04  0.0200
   5.6749E-01   5.8130E-01   3.6548E-04  0.0199
   5.8130E-01   5.9544E-01   3.6460E-04  0.0196
   5.9544E-01   6.0993E-01   3.6555E-04  0.0194
   6.0993E-01   6.2477E-01   3.5746E-04  0.0194
   6.2477E-01   6.3997E-01   3.6832E-04  0.0188
   6.3997E-01   6.5554E-01   3.5776E-04  0.0189
   6.5554E-01   6.7149E-01   3.5664E-04  0.0187
   6.7149E-01   6.8783E-01   3.6366E-04  0.0183
   6.8783E-01   7.0456E-01   3.6451E-04  0.0180
   7.0456E-01   7.2171E-01   3.5025E-04  0.0182
   7.2171E-01   7.3927E-01   3.4795E-04  0.0180
   7.3927E-01   7.5725E-01   3.5283E-04  0.0177
   7.5725E-01   7.7568E-01   3.4701E-04  0.0176
   7.7568E-01   7.9455E-01   3.5785E-04  0.0172
   7.9455E-01   8.1388E-01   3.3897E-04  0.0174
   8.1388E-01   8.3368E-01   3.3667E-04  0.0173
   8.3368E-01   8.5397E-01   3.4771E-04  0.0168
   8.5397E-01   8.7475E-01   3.2750E-04  0.0171
   8.7475E-01   8.9603E-01   3.2272E-04  0.0170
   8.9603E-01   9.1783E-01   3.3026E-04  0.0166
   9.1783E-01   9.4016E-01   3.1804E-04  0.0167
   9.4016E-01   9.6304E-01   3.0773E-04  0.0168
   9.6304E-01   9.8647E-01   2.9927E-04  0.0168
   9.8647E-01   1.0105E+00   2.8812E-04  0.0170
   1.0105E+00   1.0351E+00   2.9008E-04  0.0167
   1.0351E+00   1.0602E+00   2.8964E-04  0.0165
   1.0602E+00   1.0860E+00   2.9286E-04  0.0162
   1.0860E+00   1.1125E+00   2.9073E-04  0.0161
   1.1125E+00   1.1395E+00   2.9148E-04  0.0159
   1.1395E+00   1.1673E+00   2.9136E-04  0.0157
   1.1673E+00   1.1957E+00   3.0217E-04  0.0152
   1.1957E+00   1.2247E+00   2.9362E-04  0.0153
   1.2247E+00   1.2545E+00   2.9887E-04  0.0149
   1.2545E+00   1.2851E+00   2.9237E-04  0.0149
   1.2851E+00   1.3163E+00   3.0053E-04  0.0145
   1.3163E+00   1.3484E+00   3.0752E-04  0.0142
   1.3484E+00   1.3812E+00   2.9660E-04  0.0143
   1.3812E+00   1.4148E+00   3.0777E-04  0.0139
   1.4148E+00   1.4492E+00   3.0735E-04  0.0137
   1.4492E+00   1.4845E+00   2.9530E-04  0.0138
   1.4845E+00   1.5206E+00   2.9473E-04  0.0137
   1.5206E+00   1.5576E+00   3.0194E-04  0.0133
   1.5576E+00   1.5955E+00   2.9265E-04  0.0134
   1.5955E+00   1.6343E+00   2.8625E-04  0.0134
   1.6343E+00   1.6741E+00   2.9082E-04  0.0131
   1.6741E+00   1.7148E+00   2.8118E-04  0.0132
   1.7148E+00   1.7565E+00   2.8672E-04  0.0129
   1.7565E+00   1.7992E+00   2.8600E-04  0.0127
   1.7992E+00   1.8430E+00   2.8335E-04  0.0127
   1.8430E+00   1.8879E+00   2.8270E-04  0.0125
   1.8879E+00   1.9338E+00   2.7566E-04  0.0125
   1.9338E+00   1.9808E+00   2.7800E-04  0.0123
   1.9808E+00   2.0290E+00   2.8131E-04  0.0121
   2.0290E+00   2.0784E+00   2.7018E-04  0.0122
   2.0784E+00   2.1290E+00   2.6899E-04  0.0121
   2.1290E+00   2.1808E+00   2.6562E-04  0.0120
   2.1808E+00   2.2338E+00   2.6668E-04  0.0118
   2.2338E+00   2.2882E+00   2.5697E-04  0.0119
   2.2882E+00   2.3439E+00   2.5971E-04  0.0117
   2.3439E+00   2.4009E+00   2.5999E-04  0.0116
   2.4009E+00   2.4593E+00   2.6070E-04  0.0114
   2.4593E+00   2.5191E+00   2.5829E-04  0.0113
   2.5191E+00   2.5804E+00   2.4880E-04  0.0114
   2.5804E+00   2.6432E+00   2.5081E-04  0.0112
   2.6432E+00   2.7075E+00   2.4658E-04  0.0112
   2.7075E+00   2.7734E+00   2.4858E-04  0.0110
   2.7734E+00   2.8409E+00   2.4753E-04  0.0109
   2.8409E+00   2.9100E+00   2.3875E-04  0.0110
   2.9100E+00   2.9808E+00   2.4842E-04  0.0106
   2.9808E+00   3.0533E+00   2.3579E-04  0.0108
   3.0533E+00   3.1276E+00   2.3986E-04  0.0106
   3.1276E+00   3.2037E+00   2.3740E-04  0.0105
   3.2037E+00   3.2817E+00   2.2778E-04  0.0106
   3.2817E+00   3.3615E+00   2.2927E-04  0.0104
   3.3615E+00   3.4433E+00   2.2457E-04  0.0104
   3.4433E+00   3.5271E+00   2.2251E-04  0.0103
   3.5271E+00   3.6129E+00   2.2120E-04  0.0102
   3.6129E+00   3.7008E+00   2.1985E-04  0.0101
   3.7008E+00   3.7908E+00   2.1509E-04  0.0101
   3.7908E+00   3.8831E+00   2.1224E-04  0.0101
   3.8831E+00   3.9776E+00   2.1191E-04  0.0100
   3.9776E+00   4.0743E+00   2.1033E-04  0.0099
   4.0743E+00   4.1735E+00   2.0873E-04  0.0098
   4.1735E+00   4.2750E+00   2.0372E-04  0.0098
   4.2750E+00   4.3790E+00   2.0156E-04  0.0097
   4.3790E+00   4.4856E+00   2.0285E-04  0.0096
   4.4856E+00   4.5947E+00   1.9954E-04  0.0096
   4.5947E+00   4.7065E+00   2.0213E-04  0.0094
   4.7065E+00   4.8210E+00   2.0064E-04  0.0093
   4.8210E+00   4.9383E+00   2.0416E-04  0.0091
   4.9383E+00   5.0585E+00   1.9734E-04  0.0092
   5.0585E+00   5.1815E+00   1.9806E-04  0.0090
   5.1815E+00   5.3076E+00   1.9415E-04  0.0090
   5.3076E+00   5.4368E+00   1.8980E-04  0.0090
   5.4368E+00   5.5690E+00   1.8739E-04  0.0090
   5.5690E+00   5.7045E+00   1.8812E-04  0.0088
   5.7045E+00   5.8433E+00   1.8377E-04  0.0088
   5.8433E+00   5.9855E+00   1.8007E-04  0.0088
   5.9855E+00   6.1311E+00   1.8030E-04  0.0087
   6.1311E+00   6.2803E+00   1.8078E-04  0.0086
   6.2803E+00   6.4331E+00   1.7940E-04  0.0085
   6.4331E+00   6.5896E+00   1.7700E-04  0.0085
   6.5896E+00   6.7500E+00   1.7532E-04  0.0084
   6.7500E+00   6.9142E+00   1.7222E-04  0.0084
   6.9142E+00   7.0824E+00   1.7136E-04  0.0083
   7.0824E+00   7.2548E+00   1.7020E-04  0.0082
   7.2548E+00   7.4313E+00   1.6767E-04  0.0082
   7.4313E+00   7.6121E+00   1.6759E-04  0.0081
   7.6121E+00   7.7973E+00   1.6852E-04  0.0080
   7.7973E+00   7.9870E+00   1.6551E-04  0.0080
   7.9870E+00   8.1813E+00   1.6123E-04  0.0080
   8.1813E+00   8.3804E+00   1.6262E-04  0.0079
   8.3804E+00   8.5843E+00   1.6250E-04  0.0078
   8.5843E+00   8.7931E+00   1.5979E-04  0.0077
   8.7931E+00   9.0071E+00   1.5926E-04  0.0077
   9.0071E+00   9.2262E+00   1.5636E-04  0.0076
   9.2262E+00   9.4507E+00   1.5755E-04  0.0075
   9.4507E+00   9.6807E+00   1.5675E-04  0.0074
   9.6807E+00   9.9162E+00   1.5527E-04  0.0074
   9.9162E+00   1.0157E+01   1.5697E-04  0.0073
   1.0157E+01   1.0405E+01   1.5400E-04  0.0072
   1.0405E+01   1.0658E+01   1.5608E-04  0.0071
   1.0658E+01   1.0917E+01   1.5702E-04  0.0070
   1.0917E+01   1.1183E+01   1.5647E-04  0.0069
   1.1183E+01   1.1455E+01   1.6012E-04  0.0068
   1.1455E+01   1.1733E+01   1.5904E-04  0.0067
   1.1733E+01   1.2019E+01   1.6045E-04  0.0066
   1.2019E+01   1.2311E+01   1.5903E-04  0.0066
   1.2311E+01   1.2611E+01   1.5876E-04  0.0065
   1.2611E+01   1.2918E+01   1.6107E-04  0.0064
   1.2918E+01   1.3232E+01   1.6123E-04  0.0063
   1.3232E+01   1.3554E+01   1.6421E-04  0.0062
   1.3554E+01   1.3884E+01   1.6564E-04  0.0061
   1.3884E+01   1.4222E+01   1.6711E-04  0.0060
   1.4222E+01   1.4568E+01   1.6891E-04  0.0058
   1.4568E+01   1.4922E+01   1.6998E-04  0.0058
   1.4922E+01   1.5285E+01   1.7447E-04  0.0056
   1.5285E+01   1.5657E+01   1.7476E-04  0.0055
   1.5657E+01   1.6038E+01   1.7716E-04  0.0054
   1.6038E+01   1.6428E+01   1.8013E-04  0.0053
   1.6428E+01   1.6828E+01   1.8187E-04  0.0052
   1.6828E+01   1.7237E+01   1.8477E-04  0.0051
   1.7237E+01   1.7657E+01   1.8848E-04  0.0050
   1.7657E+01   1.8086E+01   1.9169E-04  0.0049
   1.8086E+01   1.8526E+01   1.9710E-04  0.0048
   1.8526E+01   1.8977E+01   2.0029E-04  0.0047
   1.8977E+01   1.9439E+01   2.0315E-04  0.0046
   1.9439E+01   1.9912E+01   2.0883E-04  0.0045
   1.9912E+01   2.0396E+01   2.1487E-04  0.0044
   2.0396E+01   2.0893E+01   2.1948E-04  0.0043
   2.0893E+01   2.1401E+01   2.2342E-04  0.0042
   2.1401E+01   2.1922E+01   2.2881E-04  0.0041
   2.1922E+01   2.2455E+01   2.3158E-04  0.0040
   2.2455E+01   2.3001E+01   2.3779E-04  0.0039
   2.3001E+01   2.3561E+01   2.4277E-04  0.0038
   2.3561E+01   2.4134E+01   2.4572E-04  0.0038
   2.4134E+01   2.4721E+01   2.4951E-04  0.0037
   2.4721E+01   2.5323E+01   2.5532E-04  0.0036
   2.5323E+01   2.5939E+01   2.5730E-04  0.0036
   2.5939E+01   2.6570E+01   2.6207E-04  0.0035
   2.6570E+01   2.7217E+01   2.6601E-04  0.0034
   2.7217E+01   2.7879E+01   2.6772E-04  0.0034
   2.7879E+01   2.8557E+01   2.7028E-04  0.0033
   2.8557E+01   2.9252E+01   2.7330E-04  0.0032
   2.9252E+01   2.9964E+01   2.7771E-04  0.0032
   2.9964E+01   3.0693E+01   2.7728E-04  0.0031
   3.0693E+01   3.1440E+01   2.7638E-04  0.0031
   3.1440E+01   3.2205E+01   2.7586E-04  0.0031
   3.2205E+01   3.2988E+01   2.7692E-04  0.0030
   3.2988E+01   3.3791E+01   2.7605E-04  0.0030
   3.3791E+01   3.4613E+01   2.7364E-04  0.0030
   3.4613E+01   3.5455E+01   2.7217E-04  0.0030
   3.5455E+01   3.6318E+01   2.6859E-04  0.0029
   3.6318E+01   3.7201E+01   2.6344E-04  0.0029
   3.7201E+01   3.8106E+01   2.6025E-04  0.0029
   3.8106E+01   3.9034E+01   2.5690E-04  0.0029
   3.9034E+01   3.9983E+01   2.5013E-04  0.0029
   3.9983E+01   4.0956E+01   2.4465E-04  0.0029
   4.0956E+01   4.1953E+01   2.3663E-04  0.0029
   4.1953E+01   4.2973E+01   2.2866E-04  0.0029
   4.2973E+01   4.4019E+01   2.1995E-04  0.0029
   4.4019E+01   4.5090E+01   2.1137E-04  0.0030
   4.5090E+01   4.6187E+01   2.0235E-04  0.0030
   4.6187E+01   4.7311E+01   1.9320E-04  0.0030
   4.7311E+01   4.8462E+01   1.8424E-04  0.0031
   4.8462E+01   4.9641E+01   1.7371E-04  0.0031
   4.9641E+01   5.0849E+01   1.6469E-04  0.0032
   5.0849E+01   5.2086E+01   1.5258E-04  0.0033
   5.2086E+01   5.3353E+01   1.4249E-04  0.0033
   5.3353E+01   5.4651E+01   1.3235E-04  0.0034
   5.4651E+01   5.5981E+01   1.2283E-04  0.0035
   5.5981E+01   5.7343E+01   1.1365E-04  0.0036
   5.7343E+01   5.8738E+01   1.0541E-04  0.0037
   5.8738E+01   6.0168E+01   9.6132E-05  0.0038
   6.0168E+01   6.1632E+01   8.7940E-05  0.0039
   6.1632E+01   6.3131E+01   8.0710E-05  0.0041
   6.3131E+01   6.4667E+01   7.3615E-05  0.0042
   6.4667E+01   6.6240E+01   6.6198E-05  0.0044
   6.6240E+01   6.7852E+01   5.9595E-05  0.0046
   6.7852E+01   6.9503E+01   5.3250E-05  0.0048
   6.9503E+01   7.1194E+01   4.7620E-05  0.0050
   7.1194E+01   7.2926E+01   4.2069E-05  0.0052
   7.2926E+01   7.4701E+01   3.7225E-05  0.0055
   7.4701E+01   7.6518E+01   3.3362E-05  0.0057
   7.6518E+01   7.8380E+01   2.9883E-05  0.0060
   7.8380E+01   8.0287E+01   2.6227E-05  0.0063
   8.0287E+01   8.2240E+01   2.3004E-05  0.0067
   8.2240E+01   8.4241E+01   2.0561E-05  0.0070
   8.4241E+01   8.6291E+01   1.8001E-05  0.0074
   8.6291E+01   8.8391E+01   1.5819E-05  0.0078
   8.8391E+01   9.0541E+01   1.3861E-05  0.0082
   9.0541E+01   9.2744E+01   1.2007E-05  0.0087
   9.2744E+01   9.5001E+01   1.0635E-05  0.0091
   9.5001E+01   9.7312E+01   9.0480E-06  0.0098
   9.7312E+01   9.9680E+01   7.6547E-06  0.0105
   9.9680E+01   1.0211E+02   6.1964E-06  0.0115
   1.0211E+02   1.0459E+02   5.0549E-06  0.0126
   1.0459E+02   1.0713E+02   3.7772E-06  0.0144
   1.0713E+02   1.0974E+02   2.2565E-06  0.0184
   1.0974E+02   1.1241E+02   7.0335E-07  0.0326
   1.1241E+02   1.1515E+02   9.5062E-08  0.0877
   1.1515E+02   1.1795E+02   0.0000E+00  0.0000
   1.1795E+02   1.2082E+02   0.0000E+00  0.0000
   1.2082E+02   1.2376E+02   0.0000E+00  0.0000
   1.2376E+02   1.2677E+02   0.0000E+00  0.0000
   1.2677E+02   1.2985E+02   0.0000E+00  0.0000
   1.2985E+02   1.3301E+02   0.0000E+00  0.0000
   1.3301E+02   1.3625E+02   0.0000E+00  0.0000
   1.3625E+02   1.3956E+02   0.0000E+00  0.0000
   1.3956E+02   1.4296E+02   0.0000E+00  0.0000
   1.4296E+02   1.4644E+02   0.0000E+00  0.0000
   1.4644E+02   1.5000E+02   0.0000E+00  0.0000

#   sum over                 9.2276E-05
'no. =    1   reg = 105 - 205'
msuc: {\huge [t-cross] in region mesh}
msdr: {\it plotted by \ANGEL \version}
msdl: {\it calculated by \PHITS  3.26}
wt: s(0.7)
\vspace{-3}
  region surface crossing
  area  &=&   1.0000E+00 [cm^2]
e:
 
# Information for Restart Calculation
# This calculation was newly started
# istdev =  2 # 1:Batch variance, 2:History variance
# resc2  = 5.00000000000000000E+08 # Total source weight or Total source weight / maxcas
# resc3  = 5.00000000000000000E+08 # Total history number or Total batch number
# maxcas =   500000000 # History / Batch, only used for istdev=1
# bitrseed = 1101101111010011011000101101110001100110110010110001010100010001 # bit data of rseed
