[ T-Cross ]
    title = [t-cross] in region mesh
     mesh =  reg            # mesh type is region-wise
      reg =    1            # number of crossing regions
      non     r-from    r-to       area
      1       119       219        1.000000    
   e-type =    3            # e-mesh is log given by emin, emax and ne
     emin =  1.0000000E-02  # minimum value of e-mesh points
     emax =   150.0000      # maximum value of e-mesh points
#    edel =  2.4039514E-02  # mesh width of e-mesh points
       ne =    400          # number of e-mesh points
#    data = ( e(i), i = 1, ne + 1 )
#           1.00000E-02  1.02433E-02  1.04925E-02  1.07478E-02  1.10093E-02
#           1.12772E-02  1.15516E-02  1.18326E-02  1.21205E-02  1.24154E-02
#           1.27175E-02  1.30269E-02  1.33439E-02  1.36686E-02  1.40011E-02
#           1.43418E-02  1.46907E-02  1.50482E-02  1.54143E-02  1.57894E-02
#           1.61735E-02  1.65670E-02  1.69701E-02  1.73830E-02  1.78060E-02
#           1.82392E-02  1.86830E-02  1.91375E-02  1.96032E-02  2.00801E-02
#           2.05687E-02  2.10692E-02  2.15818E-02  2.21069E-02  2.26448E-02
#           2.31957E-02  2.37601E-02  2.43382E-02  2.49304E-02  2.55369E-02
#           2.61583E-02  2.67947E-02  2.74467E-02  2.81145E-02  2.87985E-02
#           2.94992E-02  3.02169E-02  3.09521E-02  3.17052E-02  3.24766E-02
#           3.32668E-02  3.40762E-02  3.49053E-02  3.57546E-02  3.66246E-02
#           3.75157E-02  3.84284E-02  3.93634E-02  4.03212E-02  4.13022E-02
#           4.23071E-02  4.33365E-02  4.43909E-02  4.54710E-02  4.65773E-02
#           4.77106E-02  4.88714E-02  5.00605E-02  5.12785E-02  5.25262E-02
#           5.38042E-02  5.51133E-02  5.64542E-02  5.78278E-02  5.92348E-02
#           6.06760E-02  6.21523E-02  6.36645E-02  6.52135E-02  6.68002E-02
#           6.84255E-02  7.00904E-02  7.17957E-02  7.35426E-02  7.53319E-02
#           7.71648E-02  7.90423E-02  8.09655E-02  8.29354E-02  8.49533E-02
#           8.70203E-02  8.91376E-02  9.13064E-02  9.35279E-02  9.58035E-02
#           9.81345E-02  1.00522E-01  1.02968E-01  1.05473E-01  1.08040E-01
#           1.10668E-01  1.13361E-01  1.16119E-01  1.18944E-01  1.21838E-01
#           1.24803E-01  1.27839E-01  1.30950E-01  1.34136E-01  1.37399E-01
#           1.40742E-01  1.44167E-01  1.47675E-01  1.51268E-01  1.54948E-01
#           1.58718E-01  1.62580E-01  1.66535E-01  1.70587E-01  1.74738E-01
#           1.78989E-01  1.83344E-01  1.87805E-01  1.92375E-01  1.97055E-01
#           2.01850E-01  2.06761E-01  2.11792E-01  2.16945E-01  2.22223E-01
#           2.27630E-01  2.33169E-01  2.38842E-01  2.44653E-01  2.50605E-01
#           2.56703E-01  2.62949E-01  2.69346E-01  2.75900E-01  2.82613E-01
#           2.89489E-01  2.96532E-01  3.03747E-01  3.11138E-01  3.18708E-01
#           3.26462E-01  3.34405E-01  3.42542E-01  3.50876E-01  3.59413E-01
#           3.68158E-01  3.77116E-01  3.86291E-01  3.95690E-01  4.05317E-01
#           4.15179E-01  4.25281E-01  4.35628E-01  4.46227E-01  4.57084E-01
#           4.68205E-01  4.79597E-01  4.91266E-01  5.03219E-01  5.15463E-01
#           5.28005E-01  5.40851E-01  5.54011E-01  5.67490E-01  5.81298E-01
#           5.95441E-01  6.09929E-01  6.24769E-01  6.39970E-01  6.55541E-01
#           6.71491E-01  6.87828E-01  7.04564E-01  7.21706E-01  7.39266E-01
#           7.57253E-01  7.75678E-01  7.94551E-01  8.13883E-01  8.33685E-01
#           8.53969E-01  8.74747E-01  8.96030E-01  9.17831E-01  9.40163E-01
#           9.63038E-01  9.86469E-01  1.01047E+00  1.03506E+00  1.06024E+00
#           1.08604E+00  1.11246E+00  1.13953E+00  1.16725E+00  1.19565E+00
#           1.22474E+00  1.25454E+00  1.28507E+00  1.31633E+00  1.34836E+00
#           1.38117E+00  1.41477E+00  1.44920E+00  1.48446E+00  1.52057E+00
#           1.55757E+00  1.59547E+00  1.63429E+00  1.67405E+00  1.71478E+00
#           1.75650E+00  1.79924E+00  1.84302E+00  1.88786E+00  1.93379E+00
#           1.98084E+00  2.02904E+00  2.07841E+00  2.12898E+00  2.18078E+00
#           2.23384E+00  2.28819E+00  2.34386E+00  2.40089E+00  2.45930E+00
#           2.51914E+00  2.58043E+00  2.64322E+00  2.70753E+00  2.77341E+00
#           2.84088E+00  2.91001E+00  2.98081E+00  3.05333E+00  3.12762E+00
#           3.20372E+00  3.28167E+00  3.36152E+00  3.44330E+00  3.52708E+00
#           3.61290E+00  3.70080E+00  3.79085E+00  3.88308E+00  3.97756E+00
#           4.07434E+00  4.17347E+00  4.27501E+00  4.37903E+00  4.48557E+00
#           4.59471E+00  4.70650E+00  4.82102E+00  4.93832E+00  5.05847E+00
#           5.18155E+00  5.30762E+00  5.43676E+00  5.56904E+00  5.70453E+00
#           5.84333E+00  5.98550E+00  6.13114E+00  6.28031E+00  6.43312E+00
#           6.58964E+00  6.74997E+00  6.91420E+00  7.08243E+00  7.25475E+00
#           7.43126E+00  7.61207E+00  7.79728E+00  7.98700E+00  8.18133E+00
#           8.38038E+00  8.58428E+00  8.79315E+00  9.00709E+00  9.22624E+00
#           9.45072E+00  9.68067E+00  9.91620E+00  1.01575E+01  1.04046E+01
#           1.06578E+01  1.09171E+01  1.11827E+01  1.14548E+01  1.17335E+01
#           1.20190E+01  1.23114E+01  1.26109E+01  1.29178E+01  1.32321E+01
#           1.35540E+01  1.38838E+01  1.42216E+01  1.45676E+01  1.49221E+01
#           1.52851E+01  1.56570E+01  1.60380E+01  1.64282E+01  1.68279E+01
#           1.72374E+01  1.76568E+01  1.80864E+01  1.85264E+01  1.89772E+01
#           1.94389E+01  1.99119E+01  2.03963E+01  2.08926E+01  2.14009E+01
#           2.19216E+01  2.24550E+01  2.30014E+01  2.35610E+01  2.41343E+01
#           2.47215E+01  2.53230E+01  2.59391E+01  2.65702E+01  2.72167E+01
#           2.78789E+01  2.85572E+01  2.92520E+01  2.99637E+01  3.06928E+01
#           3.14396E+01  3.22045E+01  3.29881E+01  3.37907E+01  3.46128E+01
#           3.54550E+01  3.63177E+01  3.72013E+01  3.81064E+01  3.90336E+01
#           3.99833E+01  4.09561E+01  4.19526E+01  4.29734E+01  4.40189E+01
#           4.50900E+01  4.61870E+01  4.73108E+01  4.84619E+01  4.96410E+01
#           5.08488E+01  5.20860E+01  5.33533E+01  5.46514E+01  5.59812E+01
#           5.73432E+01  5.87384E+01  6.01676E+01  6.16315E+01  6.31311E+01
#           6.46671E+01  6.62405E+01  6.78522E+01  6.95031E+01  7.11941E+01
#           7.29263E+01  7.47007E+01  7.65182E+01  7.83800E+01  8.02870E+01
#           8.22405E+01  8.42414E+01  8.62911E+01  8.83906E+01  9.05412E+01
#           9.27442E+01  9.50007E+01  9.73122E+01  9.96799E+01  1.02105E+02
#           1.04589E+02  1.07134E+02  1.09741E+02  1.12411E+02  1.15146E+02
#           1.17948E+02  1.20817E+02  1.23757E+02  1.26768E+02  1.29852E+02
#           1.33012E+02  1.36248E+02  1.39563E+02  1.42959E+02  1.46437E+02
#           1.50000E+02
     unit =    2            # unit is [1/cm^2/(MeV/n)/source]
     axis =  eng            # axis of output
     file = detector-20.out  # file name of output for the above axis
   output = f-curr          # surface crossing forward current spectrum
     part =  neutron  
# kf/name :  2112     
#    used :        main (  %)        temp (  %)       total (  %)
#  memory :         414 (  0)           0 (  0)         414 (  0)

#------------------------------------------------------------------------------
#newpage:
#   no. =    1   reg = 119 - 219

x: Energy [MeV/n]
y:  F-Curr [1/cm^2/(MeV/n)/source]         
p: xlog ylog afac(0.8) form(0.9)
h: n            x            y(neutron ),hh0l   n 
#  e-lower      e-upper      neutron     r.err 
   1.0000E-02   1.0243E-02   2.7154E-03  0.0547
   1.0243E-02   1.0493E-02   2.6113E-03  0.0551
   1.0493E-02   1.0748E-02   2.4410E-03  0.0564
   1.0748E-02   1.1009E-02   2.6821E-03  0.0530
   1.1009E-02   1.1277E-02   2.3400E-03  0.0562
   1.1277E-02   1.1552E-02   2.3791E-03  0.0550
   1.1552E-02   1.1833E-02   2.2821E-03  0.0556
   1.1833E-02   1.2121E-02   2.1550E-03  0.0565
   1.2121E-02   1.2415E-02   2.3154E-03  0.0539
   1.2415E-02   1.2718E-02   2.4951E-03  0.0513
   1.2718E-02   1.3027E-02   2.2801E-03  0.0530
   1.3027E-02   1.3344E-02   2.1354E-03  0.0541
   1.3344E-02   1.3669E-02   1.9431E-03  0.0560
   1.3669E-02   1.4001E-02   2.0352E-03  0.0541
   1.4001E-02   1.4342E-02   2.1296E-03  0.0522
   1.4342E-02   1.4691E-02   1.9700E-03  0.0537
   1.4691E-02   1.5048E-02   1.8153E-03  0.0554
   1.5048E-02   1.5414E-02   1.9411E-03  0.0528
   1.5414E-02   1.5789E-02   1.8042E-03  0.0541
   1.5789E-02   1.6174E-02   1.7562E-03  0.0542
   1.6174E-02   1.6567E-02   1.7853E-03  0.0532
   1.6567E-02   1.6970E-02   1.6633E-03  0.0544
   1.6970E-02   1.7383E-02   1.7421E-03  0.0524
   1.7383E-02   1.7806E-02   1.6678E-03  0.0529
   1.7806E-02   1.8239E-02   1.7054E-03  0.0518
   1.8239E-02   1.8683E-02   1.4734E-03  0.0551
   1.8683E-02   1.9138E-02   1.4052E-03  0.0557
   1.9138E-02   1.9603E-02   1.4782E-03  0.0536
   1.9603E-02   2.0080E-02   1.4186E-03  0.0541
   2.0080E-02   2.0569E-02   1.4583E-03  0.0527
   2.0569E-02   2.1069E-02   1.3308E-03  0.0545
   2.1069E-02   2.1582E-02   1.4016E-03  0.0525
   2.1582E-02   2.2107E-02   1.3499E-03  0.0528
   2.2107E-02   2.2645E-02   1.2845E-03  0.0535
   2.2645E-02   2.3196E-02   1.2780E-03  0.0530
   2.3196E-02   2.3760E-02   1.2199E-03  0.0536
   2.3760E-02   2.4338E-02   1.1887E-03  0.0536
   2.4338E-02   2.4930E-02   1.1624E-03  0.0536
   2.4930E-02   2.5537E-02   1.2227E-03  0.0517
   2.5537E-02   2.6158E-02   1.1423E-03  0.0529
   2.6158E-02   2.6795E-02   1.1602E-03  0.0518
   2.6795E-02   2.7447E-02   1.0152E-03  0.0548
   2.7447E-02   2.8114E-02   1.0534E-03  0.0530
   2.8114E-02   2.8799E-02   9.3245E-04  0.0557
   2.8799E-02   2.9499E-02   1.0960E-03  0.0506
   2.9499E-02   3.0217E-02   9.8303E-04  0.0530
   3.0217E-02   3.0952E-02   1.0460E-03  0.0507
   3.0952E-02   3.1705E-02   9.5366E-04  0.0526
   3.1705E-02   3.2477E-02   1.0790E-03  0.0489
   3.2477E-02   3.3267E-02   8.4045E-04  0.0546
   3.3267E-02   3.4076E-02   8.8982E-04  0.0525
   3.4076E-02   3.4905E-02   8.8553E-04  0.0519
   3.4905E-02   3.5755E-02   9.5559E-04  0.0494
   3.5755E-02   3.6625E-02   8.8650E-04  0.0506
   3.6625E-02   3.7516E-02   7.9166E-04  0.0529
   3.7516E-02   3.8428E-02   7.2993E-04  0.0544
   3.8428E-02   3.9363E-02   7.7350E-04  0.0523
   3.9363E-02   4.0321E-02   8.2657E-04  0.0501
   4.0321E-02   4.1302E-02   7.7606E-04  0.0509
   4.1302E-02   4.2307E-02   7.1178E-04  0.0526
   4.2307E-02   4.3337E-02   7.5312E-04  0.0506
   4.3337E-02   4.4391E-02   7.1525E-04  0.0514
   4.4391E-02   4.5471E-02   6.5914E-04  0.0528
   4.5471E-02   4.6577E-02   6.8682E-04  0.0511
   4.6577E-02   4.7711E-02   7.0349E-04  0.0498
   4.7711E-02   4.8871E-02   7.0067E-04  0.0494
   4.8871E-02   5.0061E-02   6.7203E-04  0.0498
   5.0061E-02   5.1279E-02   5.9893E-04  0.0520
   5.1279E-02   5.2526E-02   6.5100E-04  0.0494
   5.2526E-02   5.3804E-02   5.8462E-04  0.0513
   5.3804E-02   5.5113E-02   6.1153E-04  0.0498
   5.5113E-02   5.6454E-02   6.0319E-04  0.0496
   5.6454E-02   5.7828E-02   5.2522E-04  0.0524
   5.7828E-02   5.9235E-02   5.5393E-04  0.0504
   5.9235E-02   6.0676E-02   5.3901E-04  0.0506
   6.0676E-02   6.2152E-02   5.1946E-04  0.0508
   6.2152E-02   6.3665E-02   5.2657E-04  0.0498
   6.3665E-02   6.5214E-02   5.4605E-04  0.0484
   6.5214E-02   6.6800E-02   5.0395E-04  0.0498
   6.6800E-02   6.8426E-02   5.1154E-04  0.0489
   6.8426E-02   7.0090E-02   5.1181E-04  0.0483
   7.0090E-02   7.1796E-02   4.8787E-04  0.0488
   7.1796E-02   7.3543E-02   4.2628E-04  0.0516
   7.3543E-02   7.5332E-02   4.4488E-04  0.0498
   7.5332E-02   7.7165E-02   4.5501E-04  0.0487
   7.7165E-02   7.9042E-02   4.2683E-04  0.0498
   7.9042E-02   8.0965E-02   3.6849E-04  0.0529
   8.0965E-02   8.2935E-02   4.3944E-04  0.0479
   8.2935E-02   8.4953E-02   3.6732E-04  0.0516
   8.4953E-02   8.7020E-02   4.2120E-04  0.0477
   8.7020E-02   8.9138E-02   3.8479E-04  0.0493
   8.9138E-02   9.1306E-02   3.5783E-04  0.0505
   9.1306E-02   9.3528E-02   3.7001E-04  0.0491
   9.3528E-02   9.5804E-02   3.7653E-04  0.0481
   9.5804E-02   9.8134E-02   3.5540E-04  0.0489
   9.8134E-02   1.0052E-01   3.6413E-04  0.0477
   1.0052E-01   1.0297E-01   3.3969E-04  0.0488
   1.0297E-01   1.0547E-01   3.2831E-04  0.0491
   1.0547E-01   1.0804E-01   3.1278E-04  0.0496
   1.0804E-01   1.1067E-01   2.9216E-04  0.0506
   1.1067E-01   1.1336E-01   2.8365E-04  0.0509
   1.1336E-01   1.1612E-01   2.9668E-04  0.0493
   1.1612E-01   1.1894E-01   2.9469E-04  0.0488
   1.1894E-01   1.2184E-01   2.4718E-04  0.0526
   1.2184E-01   1.2480E-01   2.6621E-04  0.0500
   1.2480E-01   1.2784E-01   2.8591E-04  0.0478
   1.2784E-01   1.3095E-01   2.7932E-04  0.0478
   1.3095E-01   1.3414E-01   2.6619E-04  0.0483
   1.3414E-01   1.3740E-01   2.5236E-04  0.0490
   1.3740E-01   1.4074E-01   2.3598E-04  0.0501
   1.4074E-01   1.4417E-01   2.5834E-04  0.0474
   1.4417E-01   1.4767E-01   2.5465E-04  0.0472
   1.4767E-01   1.5127E-01   2.5224E-04  0.0468
   1.5127E-01   1.5495E-01   2.4769E-04  0.0466
   1.5495E-01   1.5872E-01   2.2360E-04  0.0485
   1.5872E-01   1.6258E-01   2.0523E-04  0.0500
   1.6258E-01   1.6654E-01   2.1602E-04  0.0482
   1.6654E-01   1.7059E-01   1.9838E-04  0.0496
   1.7059E-01   1.7474E-01   1.9807E-04  0.0491
   1.7474E-01   1.7899E-01   2.1159E-04  0.0469
   1.7899E-01   1.8334E-01   2.1795E-04  0.0457
   1.8334E-01   1.8781E-01   1.9872E-04  0.0472
   1.8781E-01   1.9237E-01   1.9625E-04  0.0470
   1.9237E-01   1.9706E-01   1.7082E-04  0.0498
   1.9706E-01   2.0185E-01   1.8279E-04  0.0475
   2.0185E-01   2.0676E-01   1.9300E-04  0.0457
   2.0676E-01   2.1179E-01   1.8822E-04  0.0456
   2.1179E-01   2.1694E-01   1.9341E-04  0.0446
   2.1694E-01   2.2222E-01   1.8782E-04  0.0446
   2.2222E-01   2.2763E-01   2.0655E-04  0.0421
   2.2763E-01   2.3317E-01   2.1959E-04  0.0403
   2.3317E-01   2.3884E-01   2.1023E-04  0.0407
   2.3884E-01   2.4465E-01   2.3934E-04  0.0377
   2.4465E-01   2.5061E-01   2.5427E-04  0.0361
   2.5061E-01   2.5670E-01   2.6234E-04  0.0351
   2.5670E-01   2.6295E-01   2.5943E-04  0.0349
   2.6295E-01   2.6935E-01   2.6879E-04  0.0339
   2.6935E-01   2.7590E-01   2.7849E-04  0.0329
   2.7590E-01   2.8261E-01   2.8098E-04  0.0323
   2.8261E-01   2.8949E-01   3.0125E-04  0.0308
   2.8949E-01   2.9653E-01   2.9322E-04  0.0309
   2.9653E-01   3.0375E-01   3.0688E-04  0.0299
   3.0375E-01   3.1114E-01   3.2383E-04  0.0287
   3.1114E-01   3.1871E-01   3.2853E-04  0.0282
   3.1871E-01   3.2646E-01   3.5142E-04  0.0269
   3.2646E-01   3.3441E-01   3.5668E-04  0.0264
   3.3441E-01   3.4254E-01   3.5351E-04  0.0262
   3.4254E-01   3.5088E-01   3.6026E-04  0.0257
   3.5088E-01   3.5941E-01   3.7619E-04  0.0248
   3.5941E-01   3.6816E-01   4.0174E-04  0.0237
   3.6816E-01   3.7712E-01   4.0629E-04  0.0233
   3.7712E-01   3.8629E-01   4.1541E-04  0.0228
   3.8629E-01   3.9569E-01   4.3910E-04  0.0219
   3.9569E-01   4.0532E-01   4.3043E-04  0.0218
   4.0532E-01   4.1518E-01   4.3930E-04  0.0214
   4.1518E-01   4.2528E-01   4.6048E-04  0.0206
   4.2528E-01   4.3563E-01   4.6284E-04  0.0203
   4.3563E-01   4.4623E-01   4.7295E-04  0.0198
   4.4623E-01   4.5708E-01   4.8096E-04  0.0194
   4.5708E-01   4.6821E-01   4.8150E-04  0.0192
   4.6821E-01   4.7960E-01   4.8314E-04  0.0189
   4.7960E-01   4.9127E-01   5.1970E-04  0.0180
   4.9127E-01   5.0322E-01   5.1538E-04  0.0179
   5.0322E-01   5.1546E-01   5.2892E-04  0.0174
   5.1546E-01   5.2800E-01   5.2327E-04  0.0173
   5.2800E-01   5.4085E-01   5.4159E-04  0.0168
   5.4085E-01   5.5401E-01   5.3032E-04  0.0168
   5.5401E-01   5.6749E-01   5.6075E-04  0.0161
   5.6749E-01   5.8130E-01   5.6469E-04  0.0159
   5.8130E-01   5.9544E-01   5.7209E-04  0.0156
   5.9544E-01   6.0993E-01   5.7506E-04  0.0154
   6.0993E-01   6.2477E-01   5.9056E-04  0.0150
   6.2477E-01   6.3997E-01   5.8573E-04  0.0149
   6.3997E-01   6.5554E-01   5.8488E-04  0.0147
   6.5554E-01   6.7149E-01   5.9626E-04  0.0144
   6.7149E-01   6.8783E-01   6.0595E-04  0.0141
   6.8783E-01   7.0456E-01   6.0810E-04  0.0139
   7.0456E-01   7.2171E-01   5.9855E-04  0.0138
   7.2171E-01   7.3927E-01   6.0551E-04  0.0136
   7.3927E-01   7.5725E-01   6.2025E-04  0.0133
   7.5725E-01   7.7568E-01   6.1065E-04  0.0132
   7.7568E-01   7.9455E-01   6.1996E-04  0.0130
   7.9455E-01   8.1388E-01   6.0600E-04  0.0130
   8.1388E-01   8.3368E-01   6.1589E-04  0.0127
   8.3368E-01   8.5397E-01   6.1646E-04  0.0125
   8.5397E-01   8.7475E-01   6.0554E-04  0.0125
   8.7475E-01   8.9603E-01   6.1650E-04  0.0122
   8.9603E-01   9.1783E-01   6.0186E-04  0.0122
   9.1783E-01   9.4016E-01   6.0753E-04  0.0120
   9.4016E-01   9.6304E-01   6.1823E-04  0.0118
   9.6304E-01   9.8647E-01   6.1026E-04  0.0117
   9.8647E-01   1.0105E+00   6.0960E-04  0.0116
   1.0105E+00   1.0351E+00   5.9981E-04  0.0115
   1.0351E+00   1.0602E+00   5.7887E-04  0.0116
   1.0602E+00   1.0860E+00   5.7156E-04  0.0115
   1.0860E+00   1.1125E+00   5.6391E-04  0.0115
   1.1125E+00   1.1395E+00   5.6268E-04  0.0113
   1.1395E+00   1.1673E+00   5.5238E-04  0.0113
   1.1673E+00   1.1957E+00   5.5122E-04  0.0112
   1.1957E+00   1.2247E+00   5.4573E-04  0.0111
   1.2247E+00   1.2545E+00   5.3883E-04  0.0110
   1.2545E+00   1.2851E+00   5.2719E-04  0.0110
   1.2851E+00   1.3163E+00   5.1582E-04  0.0110
   1.3163E+00   1.3484E+00   5.0443E-04  0.0110
   1.3484E+00   1.3812E+00   5.0016E-04  0.0109
   1.3812E+00   1.4148E+00   4.9701E-04  0.0108
   1.4148E+00   1.4492E+00   4.8190E-04  0.0109
   1.4492E+00   1.4845E+00   4.8997E-04  0.0106
   1.4845E+00   1.5206E+00   4.7448E-04  0.0107
   1.5206E+00   1.5576E+00   4.6827E-04  0.0106
   1.5576E+00   1.5955E+00   4.5411E-04  0.0106
   1.5955E+00   1.6343E+00   4.5306E-04  0.0105
   1.6343E+00   1.6741E+00   4.4178E-04  0.0105
   1.6741E+00   1.7148E+00   4.3183E-04  0.0105
   1.7148E+00   1.7565E+00   4.1195E-04  0.0107
   1.7565E+00   1.7992E+00   4.0424E-04  0.0106
   1.7992E+00   1.8430E+00   3.9889E-04  0.0106
   1.8430E+00   1.8879E+00   3.9225E-04  0.0105
   1.8879E+00   1.9338E+00   3.8201E-04  0.0105
   1.9338E+00   1.9808E+00   3.7229E-04  0.0106
   1.9808E+00   2.0290E+00   3.6870E-04  0.0105
   2.0290E+00   2.0784E+00   3.5705E-04  0.0105
   2.0784E+00   2.1290E+00   3.4969E-04  0.0105
   2.1290E+00   2.1808E+00   3.4263E-04  0.0105
   2.1808E+00   2.2338E+00   3.2451E-04  0.0106
   2.2338E+00   2.2882E+00   3.1622E-04  0.0107
   2.2882E+00   2.3439E+00   3.0986E-04  0.0106
   2.3439E+00   2.4009E+00   3.1069E-04  0.0105
   2.4009E+00   2.4593E+00   3.0396E-04  0.0105
   2.4593E+00   2.5191E+00   2.8835E-04  0.0106
   2.5191E+00   2.5804E+00   2.8040E-04  0.0106
   2.5804E+00   2.6432E+00   2.7550E-04  0.0106
   2.6432E+00   2.7075E+00   2.7314E-04  0.0105
   2.7075E+00   2.7734E+00   2.6176E-04  0.0106
   2.7734E+00   2.8409E+00   2.5857E-04  0.0106
   2.8409E+00   2.9100E+00   2.4239E-04  0.0108
   2.9100E+00   2.9808E+00   2.3555E-04  0.0108
   2.9808E+00   3.0533E+00   2.3043E-04  0.0108
   3.0533E+00   3.1276E+00   2.2708E-04  0.0107
   3.1276E+00   3.2037E+00   2.1895E-04  0.0108
   3.2037E+00   3.2817E+00   2.0971E-04  0.0109
   3.2817E+00   3.3615E+00   2.0491E-04  0.0109
   3.3615E+00   3.4433E+00   2.0150E-04  0.0109
   3.4433E+00   3.5271E+00   1.8961E-04  0.0111
   3.5271E+00   3.6129E+00   1.9525E-04  0.0108
   3.6129E+00   3.7008E+00   1.8479E-04  0.0109
   3.7008E+00   3.7908E+00   1.8034E-04  0.0110
   3.7908E+00   3.8831E+00   1.7890E-04  0.0109
   3.8831E+00   3.9776E+00   1.7107E-04  0.0110
   3.9776E+00   4.0743E+00   1.6765E-04  0.0110
   4.0743E+00   4.1735E+00   1.6453E-04  0.0109
   4.1735E+00   4.2750E+00   1.5956E-04  0.0110
   4.2750E+00   4.3790E+00   1.5746E-04  0.0109
   4.3790E+00   4.4856E+00   1.5174E-04  0.0110
   4.4856E+00   4.5947E+00   1.5324E-04  0.0108
   4.5947E+00   4.7065E+00   1.5104E-04  0.0108
   4.7065E+00   4.8210E+00   1.4770E-04  0.0108
   4.8210E+00   4.9383E+00   1.4280E-04  0.0108
   4.9383E+00   5.0585E+00   1.3842E-04  0.0108
   5.0585E+00   5.1815E+00   1.3819E-04  0.0107
   5.1815E+00   5.3076E+00   1.3128E-04  0.0109
   5.3076E+00   5.4368E+00   1.2689E-04  0.0109
   5.4368E+00   5.5690E+00   1.2493E-04  0.0109
   5.5690E+00   5.7045E+00   1.1554E-04  0.0112
   5.7045E+00   5.8433E+00   1.1462E-04  0.0111
   5.8433E+00   5.9855E+00   1.1150E-04  0.0111
   5.9855E+00   6.1311E+00   1.0709E-04  0.0112
   6.1311E+00   6.2803E+00   1.0412E-04  0.0113
   6.2803E+00   6.4331E+00   1.0100E-04  0.0113
   6.4331E+00   6.5896E+00   9.6813E-05  0.0114
   6.5896E+00   6.7500E+00   9.3590E-05  0.0115
   6.7500E+00   6.9142E+00   9.0059E-05  0.0115
   6.9142E+00   7.0824E+00   8.6573E-05  0.0116
   7.0824E+00   7.2548E+00   8.3062E-05  0.0117
   7.2548E+00   7.4313E+00   8.2744E-05  0.0116
   7.4313E+00   7.6121E+00   7.7018E-05  0.0119
   7.6121E+00   7.7973E+00   7.3702E-05  0.0120
   7.7973E+00   7.9870E+00   7.0760E-05  0.0121
   7.9870E+00   8.1813E+00   6.9472E-05  0.0121
   8.1813E+00   8.3804E+00   6.5082E-05  0.0124
   8.3804E+00   8.5843E+00   6.2680E-05  0.0125
   8.5843E+00   8.7931E+00   6.2415E-05  0.0123
   8.7931E+00   9.0071E+00   5.7390E-05  0.0127
   9.0071E+00   9.2262E+00   5.6402E-05  0.0127
   9.2262E+00   9.4507E+00   5.4037E-05  0.0128
   9.4507E+00   9.6807E+00   5.2572E-05  0.0128
   9.6807E+00   9.9162E+00   4.9874E-05  0.0130
   9.9162E+00   1.0157E+01   4.7100E-05  0.0132
   1.0157E+01   1.0405E+01   4.5700E-05  0.0133
   1.0405E+01   1.0658E+01   4.3137E-05  0.0135
   1.0658E+01   1.0917E+01   4.1615E-05  0.0136
   1.0917E+01   1.1183E+01   3.8101E-05  0.0140
   1.1183E+01   1.1455E+01   3.8015E-05  0.0139
   1.1455E+01   1.1733E+01   3.6590E-05  0.0140
   1.1733E+01   1.2019E+01   3.5053E-05  0.0141
   1.2019E+01   1.2311E+01   3.2370E-05  0.0145
   1.2311E+01   1.2611E+01   3.0537E-05  0.0148
   1.2611E+01   1.2918E+01   2.8997E-05  0.0150
   1.2918E+01   1.3232E+01   2.7066E-05  0.0153
   1.3232E+01   1.3554E+01   2.6972E-05  0.0152
   1.3554E+01   1.3884E+01   2.5188E-05  0.0155
   1.3884E+01   1.4222E+01   2.4141E-05  0.0157
   1.4222E+01   1.4568E+01   2.2214E-05  0.0161
   1.4568E+01   1.4922E+01   2.0707E-05  0.0165
   1.4922E+01   1.5285E+01   2.0216E-05  0.0165
   1.5285E+01   1.5657E+01   1.8804E-05  0.0169
   1.5657E+01   1.6038E+01   1.7841E-05  0.0172
   1.6038E+01   1.6428E+01   1.6458E-05  0.0176
   1.6428E+01   1.6828E+01   1.5286E-05  0.0181
   1.6828E+01   1.7237E+01   1.4714E-05  0.0182
   1.7237E+01   1.7657E+01   1.3516E-05  0.0188
   1.7657E+01   1.8086E+01   1.2826E-05  0.0191
   1.8086E+01   1.8526E+01   1.2317E-05  0.0192
   1.8526E+01   1.8977E+01   1.1203E-05  0.0199
   1.8977E+01   1.9439E+01   1.0742E-05  0.0201
   1.9439E+01   1.9912E+01   1.0305E-05  0.0203
   1.9912E+01   2.0396E+01   9.4412E-06  0.0209
   2.0396E+01   2.0893E+01   8.9228E-06  0.0213
   2.0893E+01   2.1401E+01   8.1757E-06  0.0219
   2.1401E+01   2.1922E+01   7.5859E-06  0.0225
   2.1922E+01   2.2455E+01   6.7908E-06  0.0235
   2.2455E+01   2.3001E+01   6.3989E-06  0.0239
   2.3001E+01   2.3561E+01   5.9931E-06  0.0244
   2.3561E+01   2.4134E+01   5.3414E-06  0.0256
   2.4134E+01   2.4721E+01   4.5640E-06  0.0273
   2.4721E+01   2.5323E+01   4.2661E-06  0.0279
   2.5323E+01   2.5939E+01   3.7557E-06  0.0294
   2.5939E+01   2.6570E+01   3.3338E-06  0.0308
   2.6570E+01   2.7217E+01   2.9266E-06  0.0325
   2.7217E+01   2.7879E+01   2.5944E-06  0.0341
   2.7879E+01   2.8557E+01   2.4885E-06  0.0344
   2.8557E+01   2.9252E+01   2.1416E-06  0.0367
   2.9252E+01   2.9964E+01   1.7113E-06  0.0405
   2.9964E+01   3.0693E+01   1.6460E-06  0.0408
   3.0693E+01   3.1440E+01   1.3685E-06  0.0442
   3.1440E+01   3.2205E+01   1.1765E-06  0.0471
   3.2205E+01   3.2988E+01   9.6738E-07  0.0514
   3.2988E+01   3.3791E+01   8.7214E-07  0.0535
   3.3791E+01   3.4613E+01   6.8844E-07  0.0594
   3.4613E+01   3.5455E+01   6.5783E-07  0.0601
   3.5455E+01   3.6318E+01   6.3293E-07  0.0605
   3.6318E+01   3.7201E+01   4.7757E-07  0.0688
   3.7201E+01   3.8106E+01   3.6238E-07  0.0781
   3.8106E+01   3.9034E+01   3.6024E-07  0.0774
   3.9034E+01   3.9983E+01   2.5692E-07  0.0905
   3.9983E+01   4.0956E+01   2.6315E-07  0.0884
   4.0956E+01   4.1953E+01   1.9669E-07  0.1010
   4.1953E+01   4.2973E+01   1.9594E-07  0.1000
   4.2973E+01   4.4019E+01   1.3964E-07  0.1170
   4.4019E+01   4.5090E+01   1.4379E-07  0.1140
   4.5090E+01   4.6187E+01   1.0391E-07  0.1325
   4.6187E+01   4.7311E+01   9.7885E-08  0.1348
   4.7311E+01   4.8462E+01   6.6023E-08  0.1622
   4.8462E+01   4.9641E+01   4.5797E-08  0.1925
   4.9641E+01   5.0849E+01   4.6365E-08  0.1890
   5.0849E+01   5.2086E+01   3.0715E-08  0.2294
   5.2086E+01   5.3353E+01   2.9985E-08  0.2294
   5.3353E+01   5.4651E+01   9.2441E-09  0.4082
   5.4651E+01   5.5981E+01   7.5204E-09  0.4472
   5.5981E+01   5.7343E+01   1.0279E-08  0.3780
   5.7343E+01   5.8738E+01   5.7339E-09  0.5000
   5.8738E+01   6.0168E+01   6.9972E-09  0.4472
   6.0168E+01   6.1632E+01   4.0986E-09  0.5774
   6.1632E+01   6.3131E+01   4.0012E-09  0.5774
   6.3131E+01   6.4667E+01   0.0000E+00  0.0000
   6.4667E+01   6.6240E+01   2.5423E-09  0.7071
   6.6240E+01   6.7852E+01   1.2409E-09  1.0000
   6.7852E+01   6.9503E+01   2.4229E-09  0.7071
   6.9503E+01   7.1194E+01   0.0000E+00  0.0000
   7.1194E+01   7.2926E+01   0.0000E+00  0.0000
   7.2926E+01   7.4701E+01   0.0000E+00  0.0000
   7.4701E+01   7.6518E+01   0.0000E+00  0.0000
   7.6518E+01   7.8380E+01   0.0000E+00  0.0000
   7.8380E+01   8.0287E+01   0.0000E+00  0.0000
   8.0287E+01   8.2240E+01   0.0000E+00  0.0000
   8.2240E+01   8.4241E+01   0.0000E+00  0.0000
   8.4241E+01   8.6291E+01   0.0000E+00  0.0000
   8.6291E+01   8.8391E+01   0.0000E+00  0.0000
   8.8391E+01   9.0541E+01   0.0000E+00  0.0000
   9.0541E+01   9.2744E+01   0.0000E+00  0.0000
   9.2744E+01   9.5001E+01   0.0000E+00  0.0000
   9.5001E+01   9.7312E+01   0.0000E+00  0.0000
   9.7312E+01   9.9680E+01   0.0000E+00  0.0000
   9.9680E+01   1.0211E+02   0.0000E+00  0.0000
   1.0211E+02   1.0459E+02   0.0000E+00  0.0000
   1.0459E+02   1.0713E+02   0.0000E+00  0.0000
   1.0713E+02   1.0974E+02   0.0000E+00  0.0000
   1.0974E+02   1.1241E+02   0.0000E+00  0.0000
   1.1241E+02   1.1515E+02   0.0000E+00  0.0000
   1.1515E+02   1.1795E+02   0.0000E+00  0.0000
   1.1795E+02   1.2082E+02   0.0000E+00  0.0000
   1.2082E+02   1.2376E+02   0.0000E+00  0.0000
   1.2376E+02   1.2677E+02   0.0000E+00  0.0000
   1.2677E+02   1.2985E+02   0.0000E+00  0.0000
   1.2985E+02   1.3301E+02   0.0000E+00  0.0000
   1.3301E+02   1.3625E+02   0.0000E+00  0.0000
   1.3625E+02   1.3956E+02   0.0000E+00  0.0000
   1.3956E+02   1.4296E+02   0.0000E+00  0.0000
   1.4296E+02   1.4644E+02   0.0000E+00  0.0000
   1.4644E+02   1.5000E+02   0.0000E+00  0.0000

#   sum over                 1.5467E-05
'no. =    1   reg = 119 - 219'
msuc: {\huge [t-cross] in region mesh}
msdr: {\it plotted by \ANGEL \version}
msdl: {\it calculated by \PHITS  3.26}
wt: s(0.7)
\vspace{-3}
  region surface crossing
  area  &=&   1.0000E+00 [cm^2]
e:
 
# Information for Restart Calculation
# This calculation was newly started
# istdev =  2 # 1:Batch variance, 2:History variance
# resc2  = 5.00000000000000000E+08 # Total source weight or Total source weight / maxcas
# resc3  = 5.00000000000000000E+08 # Total history number or Total batch number
# maxcas =   500000000 # History / Batch, only used for istdev=1
# bitrseed = 1101101111010011011000101101110001100110110010110001010100010001 # bit data of rseed
