[ T-Cross ]
    title = [t-cross] in region mesh
     mesh =  reg            # mesh type is region-wise
      reg =    1            # number of crossing regions
      non     r-from    r-to       area
      1       118       218        1.000000    
   e-type =    3            # e-mesh is log given by emin, emax and ne
     emin =  1.0000000E-02  # minimum value of e-mesh points
     emax =   150.0000      # maximum value of e-mesh points
#    edel =  2.4039514E-02  # mesh width of e-mesh points
       ne =    400          # number of e-mesh points
#    data = ( e(i), i = 1, ne + 1 )
#           1.00000E-02  1.02433E-02  1.04925E-02  1.07478E-02  1.10093E-02
#           1.12772E-02  1.15516E-02  1.18326E-02  1.21205E-02  1.24154E-02
#           1.27175E-02  1.30269E-02  1.33439E-02  1.36686E-02  1.40011E-02
#           1.43418E-02  1.46907E-02  1.50482E-02  1.54143E-02  1.57894E-02
#           1.61735E-02  1.65670E-02  1.69701E-02  1.73830E-02  1.78060E-02
#           1.82392E-02  1.86830E-02  1.91375E-02  1.96032E-02  2.00801E-02
#           2.05687E-02  2.10692E-02  2.15818E-02  2.21069E-02  2.26448E-02
#           2.31957E-02  2.37601E-02  2.43382E-02  2.49304E-02  2.55369E-02
#           2.61583E-02  2.67947E-02  2.74467E-02  2.81145E-02  2.87985E-02
#           2.94992E-02  3.02169E-02  3.09521E-02  3.17052E-02  3.24766E-02
#           3.32668E-02  3.40762E-02  3.49053E-02  3.57546E-02  3.66246E-02
#           3.75157E-02  3.84284E-02  3.93634E-02  4.03212E-02  4.13022E-02
#           4.23071E-02  4.33365E-02  4.43909E-02  4.54710E-02  4.65773E-02
#           4.77106E-02  4.88714E-02  5.00605E-02  5.12785E-02  5.25262E-02
#           5.38042E-02  5.51133E-02  5.64542E-02  5.78278E-02  5.92348E-02
#           6.06760E-02  6.21523E-02  6.36645E-02  6.52135E-02  6.68002E-02
#           6.84255E-02  7.00904E-02  7.17957E-02  7.35426E-02  7.53319E-02
#           7.71648E-02  7.90423E-02  8.09655E-02  8.29354E-02  8.49533E-02
#           8.70203E-02  8.91376E-02  9.13064E-02  9.35279E-02  9.58035E-02
#           9.81345E-02  1.00522E-01  1.02968E-01  1.05473E-01  1.08040E-01
#           1.10668E-01  1.13361E-01  1.16119E-01  1.18944E-01  1.21838E-01
#           1.24803E-01  1.27839E-01  1.30950E-01  1.34136E-01  1.37399E-01
#           1.40742E-01  1.44167E-01  1.47675E-01  1.51268E-01  1.54948E-01
#           1.58718E-01  1.62580E-01  1.66535E-01  1.70587E-01  1.74738E-01
#           1.78989E-01  1.83344E-01  1.87805E-01  1.92375E-01  1.97055E-01
#           2.01850E-01  2.06761E-01  2.11792E-01  2.16945E-01  2.22223E-01
#           2.27630E-01  2.33169E-01  2.38842E-01  2.44653E-01  2.50605E-01
#           2.56703E-01  2.62949E-01  2.69346E-01  2.75900E-01  2.82613E-01
#           2.89489E-01  2.96532E-01  3.03747E-01  3.11138E-01  3.18708E-01
#           3.26462E-01  3.34405E-01  3.42542E-01  3.50876E-01  3.59413E-01
#           3.68158E-01  3.77116E-01  3.86291E-01  3.95690E-01  4.05317E-01
#           4.15179E-01  4.25281E-01  4.35628E-01  4.46227E-01  4.57084E-01
#           4.68205E-01  4.79597E-01  4.91266E-01  5.03219E-01  5.15463E-01
#           5.28005E-01  5.40851E-01  5.54011E-01  5.67490E-01  5.81298E-01
#           5.95441E-01  6.09929E-01  6.24769E-01  6.39970E-01  6.55541E-01
#           6.71491E-01  6.87828E-01  7.04564E-01  7.21706E-01  7.39266E-01
#           7.57253E-01  7.75678E-01  7.94551E-01  8.13883E-01  8.33685E-01
#           8.53969E-01  8.74747E-01  8.96030E-01  9.17831E-01  9.40163E-01
#           9.63038E-01  9.86469E-01  1.01047E+00  1.03506E+00  1.06024E+00
#           1.08604E+00  1.11246E+00  1.13953E+00  1.16725E+00  1.19565E+00
#           1.22474E+00  1.25454E+00  1.28507E+00  1.31633E+00  1.34836E+00
#           1.38117E+00  1.41477E+00  1.44920E+00  1.48446E+00  1.52057E+00
#           1.55757E+00  1.59547E+00  1.63429E+00  1.67405E+00  1.71478E+00
#           1.75650E+00  1.79924E+00  1.84302E+00  1.88786E+00  1.93379E+00
#           1.98084E+00  2.02904E+00  2.07841E+00  2.12898E+00  2.18078E+00
#           2.23384E+00  2.28819E+00  2.34386E+00  2.40089E+00  2.45930E+00
#           2.51914E+00  2.58043E+00  2.64322E+00  2.70753E+00  2.77341E+00
#           2.84088E+00  2.91001E+00  2.98081E+00  3.05333E+00  3.12762E+00
#           3.20372E+00  3.28167E+00  3.36152E+00  3.44330E+00  3.52708E+00
#           3.61290E+00  3.70080E+00  3.79085E+00  3.88308E+00  3.97756E+00
#           4.07434E+00  4.17347E+00  4.27501E+00  4.37903E+00  4.48557E+00
#           4.59471E+00  4.70650E+00  4.82102E+00  4.93832E+00  5.05847E+00
#           5.18155E+00  5.30762E+00  5.43676E+00  5.56904E+00  5.70453E+00
#           5.84333E+00  5.98550E+00  6.13114E+00  6.28031E+00  6.43312E+00
#           6.58964E+00  6.74997E+00  6.91420E+00  7.08243E+00  7.25475E+00
#           7.43126E+00  7.61207E+00  7.79728E+00  7.98700E+00  8.18133E+00
#           8.38038E+00  8.58428E+00  8.79315E+00  9.00709E+00  9.22624E+00
#           9.45072E+00  9.68067E+00  9.91620E+00  1.01575E+01  1.04046E+01
#           1.06578E+01  1.09171E+01  1.11827E+01  1.14548E+01  1.17335E+01
#           1.20190E+01  1.23114E+01  1.26109E+01  1.29178E+01  1.32321E+01
#           1.35540E+01  1.38838E+01  1.42216E+01  1.45676E+01  1.49221E+01
#           1.52851E+01  1.56570E+01  1.60380E+01  1.64282E+01  1.68279E+01
#           1.72374E+01  1.76568E+01  1.80864E+01  1.85264E+01  1.89772E+01
#           1.94389E+01  1.99119E+01  2.03963E+01  2.08926E+01  2.14009E+01
#           2.19216E+01  2.24550E+01  2.30014E+01  2.35610E+01  2.41343E+01
#           2.47215E+01  2.53230E+01  2.59391E+01  2.65702E+01  2.72167E+01
#           2.78789E+01  2.85572E+01  2.92520E+01  2.99637E+01  3.06928E+01
#           3.14396E+01  3.22045E+01  3.29881E+01  3.37907E+01  3.46128E+01
#           3.54550E+01  3.63177E+01  3.72013E+01  3.81064E+01  3.90336E+01
#           3.99833E+01  4.09561E+01  4.19526E+01  4.29734E+01  4.40189E+01
#           4.50900E+01  4.61870E+01  4.73108E+01  4.84619E+01  4.96410E+01
#           5.08488E+01  5.20860E+01  5.33533E+01  5.46514E+01  5.59812E+01
#           5.73432E+01  5.87384E+01  6.01676E+01  6.16315E+01  6.31311E+01
#           6.46671E+01  6.62405E+01  6.78522E+01  6.95031E+01  7.11941E+01
#           7.29263E+01  7.47007E+01  7.65182E+01  7.83800E+01  8.02870E+01
#           8.22405E+01  8.42414E+01  8.62911E+01  8.83906E+01  9.05412E+01
#           9.27442E+01  9.50007E+01  9.73122E+01  9.96799E+01  1.02105E+02
#           1.04589E+02  1.07134E+02  1.09741E+02  1.12411E+02  1.15146E+02
#           1.17948E+02  1.20817E+02  1.23757E+02  1.26768E+02  1.29852E+02
#           1.33012E+02  1.36248E+02  1.39563E+02  1.42959E+02  1.46437E+02
#           1.50000E+02
     unit =    2            # unit is [1/cm^2/(MeV/n)/source]
     axis =  eng            # axis of output
     file = detector-19.out  # file name of output for the above axis
   output = f-curr          # surface crossing forward current spectrum
     part =  neutron  
# kf/name :  2112     
#    used :        main (  %)        temp (  %)       total (  %)
#  memory :         414 (  0)           0 (  0)         414 (  0)

#------------------------------------------------------------------------------
#newpage:
#   no. =    1   reg = 118 - 218

x: Energy [MeV/n]
y:  F-Curr [1/cm^2/(MeV/n)/source]         
p: xlog ylog afac(0.8) form(0.9)
h: n            x            y(neutron ),hh0l   n 
#  e-lower      e-upper      neutron     r.err 
   1.0000E-02   1.0243E-02   2.8235E-03  0.0535
   1.0243E-02   1.0493E-02   2.7962E-03  0.0534
   1.0493E-02   1.0748E-02   2.6762E-03  0.0537
   1.0748E-02   1.1009E-02   2.6584E-03  0.0533
   1.1009E-02   1.1277E-02   2.5461E-03  0.0538
   1.1277E-02   1.1552E-02   2.3873E-03  0.0550
   1.1552E-02   1.1833E-02   2.3757E-03  0.0544
   1.1833E-02   1.2121E-02   2.5004E-03  0.0524
   1.2121E-02   1.2415E-02   2.2186E-03  0.0550
   1.2415E-02   1.2718E-02   2.2751E-03  0.0537
   1.2718E-02   1.3027E-02   2.2265E-03  0.0536
   1.3027E-02   1.3344E-02   2.3672E-03  0.0514
   1.3344E-02   1.3669E-02   2.1007E-03  0.0539
   1.3669E-02   1.4001E-02   2.2567E-03  0.0514
   1.4001E-02   1.4342E-02   2.1688E-03  0.0518
   1.4342E-02   1.4691E-02   2.1133E-03  0.0518
   1.4691E-02   1.5048E-02   1.9523E-03  0.0533
   1.5048E-02   1.5414E-02   2.0402E-03  0.0515
   1.5414E-02   1.5789E-02   1.8253E-03  0.0538
   1.5789E-02   1.6174E-02   1.8249E-03  0.0533
   1.6174E-02   1.6567E-02   1.7764E-03  0.0532
   1.6567E-02   1.6970E-02   1.7454E-03  0.0530
   1.6970E-02   1.7383E-02   1.6675E-03  0.0537
   1.7383E-02   1.7806E-02   1.7305E-03  0.0520
   1.7806E-02   1.8239E-02   1.7718E-03  0.0508
   1.8239E-02   1.8683E-02   1.6888E-03  0.0513
   1.8683E-02   1.9138E-02   1.5947E-03  0.0522
   1.9138E-02   1.9603E-02   1.5249E-03  0.0527
   1.9603E-02   2.0080E-02   1.5028E-03  0.0527
   2.0080E-02   2.0569E-02   1.4627E-03  0.0526
   2.0569E-02   2.1069E-02   1.4716E-03  0.0519
   2.1069E-02   2.1582E-02   1.5500E-03  0.0499
   2.1582E-02   2.2107E-02   1.4544E-03  0.0510
   2.2107E-02   2.2645E-02   1.4842E-03  0.0498
   2.2645E-02   2.3196E-02   1.3520E-03  0.0515
   2.3196E-02   2.3760E-02   1.3284E-03  0.0514
   2.3760E-02   2.4338E-02   1.2663E-03  0.0520
   2.4338E-02   2.4930E-02   1.2724E-03  0.0512
   2.4930E-02   2.5537E-02   1.1645E-03  0.0529
   2.5537E-02   2.6158E-02   1.1005E-03  0.0538
   2.6158E-02   2.6795E-02   1.1780E-03  0.0514
   2.6795E-02   2.7447E-02   1.2837E-03  0.0487
   2.7447E-02   2.8114E-02   1.2430E-03  0.0488
   2.8114E-02   2.8799E-02   1.0795E-03  0.0517
   2.8799E-02   2.9499E-02   1.0948E-03  0.0508
   2.9499E-02   3.0217E-02   1.0536E-03  0.0512
   3.0217E-02   3.0952E-02   1.0761E-03  0.0500
   3.0952E-02   3.1705E-02   1.1296E-03  0.0483
   3.1705E-02   3.2477E-02   1.0719E-03  0.0490
   3.2477E-02   3.3267E-02   9.8472E-04  0.0503
   3.3267E-02   3.4076E-02   1.0348E-03  0.0486
   3.4076E-02   3.4905E-02   9.2558E-04  0.0508
   3.4905E-02   3.5755E-02   9.4119E-04  0.0498
   3.5755E-02   3.6625E-02   9.2139E-04  0.0497
   3.6625E-02   3.7516E-02   9.1731E-04  0.0491
   3.7516E-02   3.8428E-02   8.6666E-04  0.0501
   3.8428E-02   3.9363E-02   8.1685E-04  0.0509
   3.9363E-02   4.0321E-02   8.5743E-04  0.0492
   4.0321E-02   4.1302E-02   8.1144E-04  0.0499
   4.1302E-02   4.2307E-02   7.5824E-04  0.0510
   4.2307E-02   4.3337E-02   7.3800E-04  0.0511
   4.3337E-02   4.4391E-02   7.6626E-04  0.0495
   4.4391E-02   4.5471E-02   7.3832E-04  0.0498
   4.5471E-02   4.6577E-02   7.0212E-04  0.0504
   4.6577E-02   4.7711E-02   7.2157E-04  0.0492
   4.7711E-02   4.8871E-02   6.8541E-04  0.0498
   4.8871E-02   5.0061E-02   6.8527E-04  0.0493
   5.0061E-02   5.1279E-02   6.7904E-04  0.0490
   5.1279E-02   5.2526E-02   6.2288E-04  0.0506
   5.2526E-02   5.3804E-02   6.1361E-04  0.0503
   5.3804E-02   5.5113E-02   6.6230E-04  0.0478
   5.5113E-02   5.6454E-02   6.0425E-04  0.0494
   5.6454E-02   5.7828E-02   6.4048E-04  0.0475
   5.7828E-02   5.9235E-02   5.8569E-04  0.0490
   5.9235E-02   6.0676E-02   6.6548E-04  0.0455
   6.0676E-02   6.2152E-02   5.8034E-04  0.0480
   6.2152E-02   6.3665E-02   5.7067E-04  0.0479
   6.3665E-02   6.5214E-02   5.4755E-04  0.0483
   6.5214E-02   6.6800E-02   5.4698E-04  0.0478
   6.6800E-02   6.8426E-02   5.0474E-04  0.0492
   6.8426E-02   7.0090E-02   5.0463E-04  0.0485
   7.0090E-02   7.1796E-02   4.3621E-04  0.0516
   7.1796E-02   7.3543E-02   4.8547E-04  0.0483
   7.3543E-02   7.5332E-02   4.7869E-04  0.0480
   7.5332E-02   7.7165E-02   4.8886E-04  0.0471
   7.7165E-02   7.9042E-02   4.3245E-04  0.0494
   7.9042E-02   8.0965E-02   4.5668E-04  0.0475
   8.0965E-02   8.2935E-02   4.3084E-04  0.0483
   8.2935E-02   8.4953E-02   4.2092E-04  0.0482
   8.4953E-02   8.7020E-02   4.4563E-04  0.0464
   8.7020E-02   8.9138E-02   3.7656E-04  0.0499
   8.9138E-02   9.1306E-02   3.9060E-04  0.0483
   9.1306E-02   9.3528E-02   3.5490E-04  0.0501
   9.3528E-02   9.5804E-02   3.7355E-04  0.0483
   9.5804E-02   9.8134E-02   3.7958E-04  0.0473
   9.8134E-02   1.0052E-01   3.9460E-04  0.0458
   1.0052E-01   1.0297E-01   3.8081E-04  0.0462
   1.0297E-01   1.0547E-01   3.5741E-04  0.0470
   1.0547E-01   1.0804E-01   3.5485E-04  0.0465
   1.0804E-01   1.1067E-01   3.3666E-04  0.0473
   1.1067E-01   1.1336E-01   3.0832E-04  0.0488
   1.1336E-01   1.1612E-01   3.2862E-04  0.0467
   1.1612E-01   1.1894E-01   3.1860E-04  0.0469
   1.1894E-01   1.2184E-01   2.9903E-04  0.0479
   1.2184E-01   1.2480E-01   2.8605E-04  0.0483
   1.2480E-01   1.2784E-01   2.8640E-04  0.0478
   1.2784E-01   1.3095E-01   2.7804E-04  0.0479
   1.3095E-01   1.3414E-01   2.6454E-04  0.0484
   1.3414E-01   1.3740E-01   2.7718E-04  0.0468
   1.3740E-01   1.4074E-01   2.6898E-04  0.0469
   1.4074E-01   1.4417E-01   2.3885E-04  0.0491
   1.4417E-01   1.4767E-01   2.4940E-04  0.0476
   1.4767E-01   1.5127E-01   2.6232E-04  0.0458
   1.5127E-01   1.5495E-01   2.1754E-04  0.0496
   1.5495E-01   1.5872E-01   2.3932E-04  0.0468
   1.5872E-01   1.6258E-01   2.3777E-04  0.0464
   1.6258E-01   1.6654E-01   2.6030E-04  0.0439
   1.6654E-01   1.7059E-01   2.0345E-04  0.0489
   1.7059E-01   1.7474E-01   2.1039E-04  0.0476
   1.7474E-01   1.7899E-01   1.9452E-04  0.0488
   1.7899E-01   1.8334E-01   2.0296E-04  0.0473
   1.8334E-01   1.8781E-01   1.8964E-04  0.0484
   1.8781E-01   1.9237E-01   2.0396E-04  0.0461
   1.9237E-01   1.9706E-01   2.1005E-04  0.0448
   1.9706E-01   2.0185E-01   2.0380E-04  0.0450
   2.0185E-01   2.0676E-01   2.0555E-04  0.0442
   2.0676E-01   2.1179E-01   2.0710E-04  0.0436
   2.1179E-01   2.1694E-01   2.1674E-04  0.0420
   2.1694E-01   2.2222E-01   2.1901E-04  0.0414
   2.2222E-01   2.2763E-01   2.3716E-04  0.0393
   2.2763E-01   2.3317E-01   2.4306E-04  0.0384
   2.3317E-01   2.3884E-01   2.5137E-04  0.0372
   2.3884E-01   2.4465E-01   2.6103E-04  0.0361
   2.4465E-01   2.5061E-01   2.6646E-04  0.0353
   2.5061E-01   2.5670E-01   2.7506E-04  0.0343
   2.5670E-01   2.6295E-01   2.7807E-04  0.0337
   2.6295E-01   2.6935E-01   2.8664E-04  0.0328
   2.6935E-01   2.7590E-01   3.0770E-04  0.0313
   2.7590E-01   2.8261E-01   3.1560E-04  0.0306
   2.8261E-01   2.8949E-01   2.9427E-04  0.0313
   2.8949E-01   2.9653E-01   3.2658E-04  0.0293
   2.9653E-01   3.0375E-01   3.4488E-04  0.0282
   3.0375E-01   3.1114E-01   3.3946E-04  0.0280
   3.1114E-01   3.1871E-01   3.6116E-04  0.0268
   3.1871E-01   3.2646E-01   3.8700E-04  0.0256
   3.2646E-01   3.3441E-01   3.8922E-04  0.0252
   3.3441E-01   3.4254E-01   3.9731E-04  0.0247
   3.4254E-01   3.5088E-01   4.1448E-04  0.0239
   3.5088E-01   3.5941E-01   4.1451E-04  0.0236
   3.5941E-01   3.6816E-01   4.3826E-04  0.0227
   3.6816E-01   3.7712E-01   4.5129E-04  0.0221
   3.7712E-01   3.8629E-01   4.4569E-04  0.0220
   3.8629E-01   3.9569E-01   4.7853E-04  0.0209
   3.9569E-01   4.0532E-01   4.7911E-04  0.0207
   4.0532E-01   4.1518E-01   4.8682E-04  0.0203
   4.1518E-01   4.2528E-01   4.9816E-04  0.0198
   4.2528E-01   4.3563E-01   5.1390E-04  0.0193
   4.3563E-01   4.4623E-01   5.2091E-04  0.0189
   4.4623E-01   4.5708E-01   5.3724E-04  0.0184
   4.5708E-01   4.6821E-01   5.5654E-04  0.0179
   4.6821E-01   4.7960E-01   5.7215E-04  0.0174
   4.7960E-01   4.9127E-01   5.6548E-04  0.0173
   4.9127E-01   5.0322E-01   5.8357E-04  0.0168
   5.0322E-01   5.1546E-01   5.9921E-04  0.0164
   5.1546E-01   5.2800E-01   6.1400E-04  0.0160
   5.2800E-01   5.4085E-01   6.1534E-04  0.0158
   5.4085E-01   5.5401E-01   6.2028E-04  0.0155
   5.5401E-01   5.6749E-01   6.4619E-04  0.0150
   5.6749E-01   5.8130E-01   6.5616E-04  0.0148
   5.8130E-01   5.9544E-01   6.6317E-04  0.0145
   5.9544E-01   6.0993E-01   6.6321E-04  0.0143
   6.0993E-01   6.2477E-01   6.5987E-04  0.0142
   6.2477E-01   6.3997E-01   6.8091E-04  0.0138
   6.3997E-01   6.5554E-01   6.9538E-04  0.0135
   6.5554E-01   6.7149E-01   7.0074E-04  0.0133
   6.7149E-01   6.8783E-01   7.1016E-04  0.0130
   6.8783E-01   7.0456E-01   7.0326E-04  0.0129
   7.0456E-01   7.2171E-01   7.1705E-04  0.0126
   7.2171E-01   7.3927E-01   7.2127E-04  0.0125
   7.3927E-01   7.5725E-01   7.1698E-04  0.0123
   7.5725E-01   7.7568E-01   7.0922E-04  0.0123
   7.7568E-01   7.9455E-01   7.1339E-04  0.0121
   7.9455E-01   8.1388E-01   7.2700E-04  0.0118
   8.1388E-01   8.3368E-01   7.3074E-04  0.0116
   8.3368E-01   8.5397E-01   7.3572E-04  0.0115
   8.5397E-01   8.7475E-01   7.4121E-04  0.0113
   8.7475E-01   8.9603E-01   7.2945E-04  0.0112
   8.9603E-01   9.1783E-01   7.3142E-04  0.0111
   9.1783E-01   9.4016E-01   7.3538E-04  0.0109
   9.4016E-01   9.6304E-01   7.4783E-04  0.0107
   9.6304E-01   9.8647E-01   7.4061E-04  0.0106
   9.8647E-01   1.0105E+00   7.3487E-04  0.0105
   1.0105E+00   1.0351E+00   7.2135E-04  0.0105
   1.0351E+00   1.0602E+00   7.0873E-04  0.0105
   1.0602E+00   1.0860E+00   7.0852E-04  0.0104
   1.0860E+00   1.1125E+00   7.0502E-04  0.0103
   1.1125E+00   1.1395E+00   6.8456E-04  0.0103
   1.1395E+00   1.1673E+00   6.9305E-04  0.0101
   1.1673E+00   1.1957E+00   6.9117E-04  0.0100
   1.1957E+00   1.2247E+00   6.7891E-04  0.0100
   1.2247E+00   1.2545E+00   6.7901E-04  0.0098
   1.2545E+00   1.2851E+00   6.5487E-04  0.0099
   1.2851E+00   1.3163E+00   6.5228E-04  0.0098
   1.3163E+00   1.3484E+00   6.3990E-04  0.0098
   1.3484E+00   1.3812E+00   6.3956E-04  0.0097
   1.3812E+00   1.4148E+00   6.2865E-04  0.0096
   1.4148E+00   1.4492E+00   6.2910E-04  0.0095
   1.4492E+00   1.4845E+00   6.2152E-04  0.0094
   1.4845E+00   1.5206E+00   6.2081E-04  0.0093
   1.5206E+00   1.5576E+00   6.0178E-04  0.0094
   1.5576E+00   1.5955E+00   5.9114E-04  0.0093
   1.5955E+00   1.6343E+00   5.7956E-04  0.0093
   1.6343E+00   1.6741E+00   5.6385E-04  0.0093
   1.6741E+00   1.7148E+00   5.3897E-04  0.0094
   1.7148E+00   1.7565E+00   5.3681E-04  0.0093
   1.7565E+00   1.7992E+00   5.2725E-04  0.0093
   1.7992E+00   1.8430E+00   5.2176E-04  0.0092
   1.8430E+00   1.8879E+00   5.1908E-04  0.0092
   1.8879E+00   1.9338E+00   4.9073E-04  0.0093
   1.9338E+00   1.9808E+00   4.8359E-04  0.0093
   1.9808E+00   2.0290E+00   4.8741E-04  0.0091
   2.0290E+00   2.0784E+00   4.6787E-04  0.0092
   2.0784E+00   2.1290E+00   4.5871E-04  0.0092
   2.1290E+00   2.1808E+00   4.4907E-04  0.0092
   2.1808E+00   2.2338E+00   4.3902E-04  0.0092
   2.2338E+00   2.2882E+00   4.2874E-04  0.0092
   2.2882E+00   2.3439E+00   4.1485E-04  0.0092
   2.3439E+00   2.4009E+00   4.0604E-04  0.0092
   2.4009E+00   2.4593E+00   4.0229E-04  0.0091
   2.4593E+00   2.5191E+00   3.8692E-04  0.0092
   2.5191E+00   2.5804E+00   3.7983E-04  0.0092
   2.5804E+00   2.6432E+00   3.6802E-04  0.0092
   2.6432E+00   2.7075E+00   3.5752E-04  0.0092
   2.7075E+00   2.7734E+00   3.5621E-04  0.0091
   2.7734E+00   2.8409E+00   3.4071E-04  0.0092
   2.8409E+00   2.9100E+00   3.3322E-04  0.0092
   2.9100E+00   2.9808E+00   3.2178E-04  0.0093
   2.9808E+00   3.0533E+00   3.1281E-04  0.0093
   3.0533E+00   3.1276E+00   3.0596E-04  0.0093
   3.1276E+00   3.2037E+00   3.0130E-04  0.0092
   3.2037E+00   3.2817E+00   2.9096E-04  0.0093
   3.2817E+00   3.3615E+00   2.7673E-04  0.0094
   3.3615E+00   3.4433E+00   2.7224E-04  0.0094
   3.4433E+00   3.5271E+00   2.6517E-04  0.0094
   3.5271E+00   3.6129E+00   2.5553E-04  0.0094
   3.6129E+00   3.7008E+00   2.5264E-04  0.0094
   3.7008E+00   3.7908E+00   2.4636E-04  0.0094
   3.7908E+00   3.8831E+00   2.3677E-04  0.0094
   3.8831E+00   3.9776E+00   2.2907E-04  0.0095
   3.9776E+00   4.0743E+00   2.2538E-04  0.0095
   4.0743E+00   4.1735E+00   2.2085E-04  0.0094
   4.1735E+00   4.2750E+00   2.1747E-04  0.0094
   4.2750E+00   4.3790E+00   2.1284E-04  0.0094
   4.3790E+00   4.4856E+00   2.0993E-04  0.0093
   4.4856E+00   4.5947E+00   2.0610E-04  0.0093
   4.5947E+00   4.7065E+00   2.0038E-04  0.0093
   4.7065E+00   4.8210E+00   1.9533E-04  0.0093
   4.8210E+00   4.9383E+00   1.8974E-04  0.0094
   4.9383E+00   5.0585E+00   1.8471E-04  0.0094
   5.0585E+00   5.1815E+00   1.8394E-04  0.0093
   5.1815E+00   5.3076E+00   1.7812E-04  0.0093
   5.3076E+00   5.4368E+00   1.7047E-04  0.0094
   5.4368E+00   5.5690E+00   1.6890E-04  0.0094
   5.5690E+00   5.7045E+00   1.6156E-04  0.0095
   5.7045E+00   5.8433E+00   1.5835E-04  0.0095
   5.8433E+00   5.9855E+00   1.5169E-04  0.0095
   5.9855E+00   6.1311E+00   1.4644E-04  0.0096
   6.1311E+00   6.2803E+00   1.4281E-04  0.0096
   6.2803E+00   6.4331E+00   1.3673E-04  0.0097
   6.4331E+00   6.5896E+00   1.3339E-04  0.0097
   6.5896E+00   6.7500E+00   1.2764E-04  0.0098
   6.7500E+00   6.9142E+00   1.2172E-04  0.0099
   6.9142E+00   7.0824E+00   1.1906E-04  0.0099
   7.0824E+00   7.2548E+00   1.1505E-04  0.0100
   7.2548E+00   7.4313E+00   1.0978E-04  0.0101
   7.4313E+00   7.6121E+00   1.0789E-04  0.0101
   7.6121E+00   7.7973E+00   1.0194E-04  0.0102
   7.7973E+00   7.9870E+00   9.7658E-05  0.0103
   7.9870E+00   8.1813E+00   9.6657E-05  0.0103
   8.1813E+00   8.3804E+00   9.2551E-05  0.0104
   8.3804E+00   8.5843E+00   8.6333E-05  0.0106
   8.5843E+00   8.7931E+00   8.5344E-05  0.0106
   8.7931E+00   9.0071E+00   8.3238E-05  0.0106
   9.0071E+00   9.2262E+00   7.8781E-05  0.0107
   9.2262E+00   9.4507E+00   7.5380E-05  0.0108
   9.4507E+00   9.6807E+00   7.3130E-05  0.0109
   9.6807E+00   9.9162E+00   6.9153E-05  0.0111
   9.9162E+00   1.0157E+01   6.6645E-05  0.0111
   1.0157E+01   1.0405E+01   6.3696E-05  0.0112
   1.0405E+01   1.0658E+01   6.1215E-05  0.0113
   1.0658E+01   1.0917E+01   5.8693E-05  0.0114
   1.0917E+01   1.1183E+01   5.5823E-05  0.0116
   1.1183E+01   1.1455E+01   5.2681E-05  0.0118
   1.1455E+01   1.1733E+01   5.1941E-05  0.0117
   1.1733E+01   1.2019E+01   4.8561E-05  0.0120
   1.2019E+01   1.2311E+01   4.5396E-05  0.0123
   1.2311E+01   1.2611E+01   4.4041E-05  0.0123
   1.2611E+01   1.2918E+01   4.1979E-05  0.0125
   1.2918E+01   1.3232E+01   4.0267E-05  0.0126
   1.3232E+01   1.3554E+01   3.7858E-05  0.0128
   1.3554E+01   1.3884E+01   3.7937E-05  0.0126
   1.3884E+01   1.4222E+01   3.3594E-05  0.0133
   1.4222E+01   1.4568E+01   3.3026E-05  0.0132
   1.4568E+01   1.4922E+01   3.1085E-05  0.0135
   1.4922E+01   1.5285E+01   2.9298E-05  0.0137
   1.5285E+01   1.5657E+01   2.8067E-05  0.0138
   1.5657E+01   1.6038E+01   2.5930E-05  0.0142
   1.6038E+01   1.6428E+01   2.4531E-05  0.0145
   1.6428E+01   1.6828E+01   2.2878E-05  0.0148
   1.6828E+01   1.7237E+01   2.2157E-05  0.0148
   1.7237E+01   1.7657E+01   2.1111E-05  0.0150
   1.7657E+01   1.8086E+01   1.9051E-05  0.0156
   1.8086E+01   1.8526E+01   1.8466E-05  0.0157
   1.8526E+01   1.8977E+01   1.6959E-05  0.0162
   1.8977E+01   1.9439E+01   1.6607E-05  0.0161
   1.9439E+01   1.9912E+01   1.5422E-05  0.0166
   1.9912E+01   2.0396E+01   1.4767E-05  0.0167
   2.0396E+01   2.0893E+01   1.3892E-05  0.0170
   2.0893E+01   2.1401E+01   1.3121E-05  0.0173
   2.1401E+01   2.1922E+01   1.1849E-05  0.0180
   2.1922E+01   2.2455E+01   1.1077E-05  0.0184
   2.2455E+01   2.3001E+01   1.0188E-05  0.0190
   2.3001E+01   2.3561E+01   9.2023E-06  0.0197
   2.3561E+01   2.4134E+01   8.3976E-06  0.0204
   2.4134E+01   2.4721E+01   7.7315E-06  0.0210
   2.4721E+01   2.5323E+01   7.1988E-06  0.0215
   2.5323E+01   2.5939E+01   6.7551E-06  0.0219
   2.5939E+01   2.6570E+01   5.8373E-06  0.0233
   2.6570E+01   2.7217E+01   5.1881E-06  0.0244
   2.7217E+01   2.7879E+01   4.5726E-06  0.0257
   2.7879E+01   2.8557E+01   4.0217E-06  0.0271
   2.8557E+01   2.9252E+01   3.6643E-06  0.0280
   2.9252E+01   2.9964E+01   3.4845E-06  0.0284
   2.9964E+01   3.0693E+01   2.9957E-06  0.0303
   3.0693E+01   3.1440E+01   2.5496E-06  0.0324
   3.1440E+01   3.2205E+01   2.2354E-06  0.0342
   3.2205E+01   3.2988E+01   1.9092E-06  0.0366
   3.2988E+01   3.3791E+01   1.7542E-06  0.0377
   3.3791E+01   3.4613E+01   1.4742E-06  0.0406
   3.4613E+01   3.5455E+01   1.3204E-06  0.0424
   3.5455E+01   3.6318E+01   1.0549E-06  0.0469
   3.6318E+01   3.7201E+01   9.9362E-07  0.0477
   3.7201E+01   3.8106E+01   8.3081E-07  0.0516
   3.8106E+01   3.9034E+01   6.9028E-07  0.0559
   3.9034E+01   3.9983E+01   5.6859E-07  0.0609
   3.9983E+01   4.0956E+01   5.6331E-07  0.0604
   4.0956E+01   4.1953E+01   4.3352E-07  0.0680
   4.1953E+01   4.2973E+01   3.6052E-07  0.0737
   4.2973E+01   4.4019E+01   3.3666E-07  0.0754
   4.4019E+01   4.5090E+01   2.2969E-07  0.0902
   4.5090E+01   4.6187E+01   2.2970E-07  0.0891
   4.6187E+01   4.7311E+01   2.1179E-07  0.0917
   4.7311E+01   4.8462E+01   1.3552E-07  0.1132
   4.8462E+01   4.9641E+01   1.1364E-07  0.1222
   4.9641E+01   5.0849E+01   1.0101E-07  0.1280
   5.0849E+01   5.2086E+01   7.7595E-08  0.1443
   5.2086E+01   5.3353E+01   5.0501E-08  0.1768
   5.3353E+01   5.4651E+01   4.6220E-08  0.1826
   5.4651E+01   5.5981E+01   3.6098E-08  0.2041
   5.5981E+01   5.7343E+01   3.5241E-08  0.2041
   5.7343E+01   5.8738E+01   2.7236E-08  0.2294
   5.8738E+01   6.0168E+01   1.1195E-08  0.3536
   6.0168E+01   6.1632E+01   1.2296E-08  0.3333
   6.1632E+01   6.3131E+01   1.2004E-08  0.3333
   6.3131E+01   6.4667E+01   1.0416E-08  0.3536
   6.4667E+01   6.6240E+01   6.3557E-09  0.4472
   6.6240E+01   6.7852E+01   3.7228E-09  0.5774
   6.7852E+01   6.9503E+01   7.2688E-09  0.4082
   6.9503E+01   7.1194E+01   1.1827E-09  1.0000
   7.1194E+01   7.2926E+01   3.4638E-09  0.5774
   7.2926E+01   7.4701E+01   0.0000E+00  0.0000
   7.4701E+01   7.6518E+01   0.0000E+00  0.0000
   7.6518E+01   7.8380E+01   1.0743E-09  1.0000
   7.8380E+01   8.0287E+01   1.0487E-09  1.0000
   8.0287E+01   8.2240E+01   0.0000E+00  0.0000
   8.2240E+01   8.4241E+01   0.0000E+00  0.0000
   8.4241E+01   8.6291E+01   0.0000E+00  0.0000
   8.6291E+01   8.8391E+01   0.0000E+00  0.0000
   8.8391E+01   9.0541E+01   0.0000E+00  0.0000
   9.0541E+01   9.2744E+01   0.0000E+00  0.0000
   9.2744E+01   9.5001E+01   0.0000E+00  0.0000
   9.5001E+01   9.7312E+01   0.0000E+00  0.0000
   9.7312E+01   9.9680E+01   0.0000E+00  0.0000
   9.9680E+01   1.0211E+02   0.0000E+00  0.0000
   1.0211E+02   1.0459E+02   0.0000E+00  0.0000
   1.0459E+02   1.0713E+02   0.0000E+00  0.0000
   1.0713E+02   1.0974E+02   0.0000E+00  0.0000
   1.0974E+02   1.1241E+02   0.0000E+00  0.0000
   1.1241E+02   1.1515E+02   0.0000E+00  0.0000
   1.1515E+02   1.1795E+02   0.0000E+00  0.0000
   1.1795E+02   1.2082E+02   0.0000E+00  0.0000
   1.2082E+02   1.2376E+02   0.0000E+00  0.0000
   1.2376E+02   1.2677E+02   0.0000E+00  0.0000
   1.2677E+02   1.2985E+02   0.0000E+00  0.0000
   1.2985E+02   1.3301E+02   0.0000E+00  0.0000
   1.3301E+02   1.3625E+02   0.0000E+00  0.0000
   1.3625E+02   1.3956E+02   0.0000E+00  0.0000
   1.3956E+02   1.4296E+02   0.0000E+00  0.0000
   1.4296E+02   1.4644E+02   0.0000E+00  0.0000
   1.4644E+02   1.5000E+02   0.0000E+00  0.0000

#   sum over                 2.0258E-05
'no. =    1   reg = 118 - 218'
msuc: {\huge [t-cross] in region mesh}
msdr: {\it plotted by \ANGEL \version}
msdl: {\it calculated by \PHITS  3.26}
wt: s(0.7)
\vspace{-3}
  region surface crossing
  area  &=&   1.0000E+00 [cm^2]
e:
 
# Information for Restart Calculation
# This calculation was newly started
# istdev =  2 # 1:Batch variance, 2:History variance
# resc2  = 5.00000000000000000E+08 # Total source weight or Total source weight / maxcas
# resc3  = 5.00000000000000000E+08 # Total history number or Total batch number
# maxcas =   500000000 # History / Batch, only used for istdev=1
# bitrseed = 1101101111010011011000101101110001100110110010110001010100010001 # bit data of rseed
