[ T-Cross ]
    title = [t-cross] in region mesh
     mesh =  reg            # mesh type is region-wise
      reg =    1            # number of crossing regions
      non     r-from    r-to       area
      1       114       214        1.000000    
   e-type =    3            # e-mesh is log given by emin, emax and ne
     emin =  1.0000000E-02  # minimum value of e-mesh points
     emax =   150.0000      # maximum value of e-mesh points
#    edel =  2.4039514E-02  # mesh width of e-mesh points
       ne =    400          # number of e-mesh points
#    data = ( e(i), i = 1, ne + 1 )
#           1.00000E-02  1.02433E-02  1.04925E-02  1.07478E-02  1.10093E-02
#           1.12772E-02  1.15516E-02  1.18326E-02  1.21205E-02  1.24154E-02
#           1.27175E-02  1.30269E-02  1.33439E-02  1.36686E-02  1.40011E-02
#           1.43418E-02  1.46907E-02  1.50482E-02  1.54143E-02  1.57894E-02
#           1.61735E-02  1.65670E-02  1.69701E-02  1.73830E-02  1.78060E-02
#           1.82392E-02  1.86830E-02  1.91375E-02  1.96032E-02  2.00801E-02
#           2.05687E-02  2.10692E-02  2.15818E-02  2.21069E-02  2.26448E-02
#           2.31957E-02  2.37601E-02  2.43382E-02  2.49304E-02  2.55369E-02
#           2.61583E-02  2.67947E-02  2.74467E-02  2.81145E-02  2.87985E-02
#           2.94992E-02  3.02169E-02  3.09521E-02  3.17052E-02  3.24766E-02
#           3.32668E-02  3.40762E-02  3.49053E-02  3.57546E-02  3.66246E-02
#           3.75157E-02  3.84284E-02  3.93634E-02  4.03212E-02  4.13022E-02
#           4.23071E-02  4.33365E-02  4.43909E-02  4.54710E-02  4.65773E-02
#           4.77106E-02  4.88714E-02  5.00605E-02  5.12785E-02  5.25262E-02
#           5.38042E-02  5.51133E-02  5.64542E-02  5.78278E-02  5.92348E-02
#           6.06760E-02  6.21523E-02  6.36645E-02  6.52135E-02  6.68002E-02
#           6.84255E-02  7.00904E-02  7.17957E-02  7.35426E-02  7.53319E-02
#           7.71648E-02  7.90423E-02  8.09655E-02  8.29354E-02  8.49533E-02
#           8.70203E-02  8.91376E-02  9.13064E-02  9.35279E-02  9.58035E-02
#           9.81345E-02  1.00522E-01  1.02968E-01  1.05473E-01  1.08040E-01
#           1.10668E-01  1.13361E-01  1.16119E-01  1.18944E-01  1.21838E-01
#           1.24803E-01  1.27839E-01  1.30950E-01  1.34136E-01  1.37399E-01
#           1.40742E-01  1.44167E-01  1.47675E-01  1.51268E-01  1.54948E-01
#           1.58718E-01  1.62580E-01  1.66535E-01  1.70587E-01  1.74738E-01
#           1.78989E-01  1.83344E-01  1.87805E-01  1.92375E-01  1.97055E-01
#           2.01850E-01  2.06761E-01  2.11792E-01  2.16945E-01  2.22223E-01
#           2.27630E-01  2.33169E-01  2.38842E-01  2.44653E-01  2.50605E-01
#           2.56703E-01  2.62949E-01  2.69346E-01  2.75900E-01  2.82613E-01
#           2.89489E-01  2.96532E-01  3.03747E-01  3.11138E-01  3.18708E-01
#           3.26462E-01  3.34405E-01  3.42542E-01  3.50876E-01  3.59413E-01
#           3.68158E-01  3.77116E-01  3.86291E-01  3.95690E-01  4.05317E-01
#           4.15179E-01  4.25281E-01  4.35628E-01  4.46227E-01  4.57084E-01
#           4.68205E-01  4.79597E-01  4.91266E-01  5.03219E-01  5.15463E-01
#           5.28005E-01  5.40851E-01  5.54011E-01  5.67490E-01  5.81298E-01
#           5.95441E-01  6.09929E-01  6.24769E-01  6.39970E-01  6.55541E-01
#           6.71491E-01  6.87828E-01  7.04564E-01  7.21706E-01  7.39266E-01
#           7.57253E-01  7.75678E-01  7.94551E-01  8.13883E-01  8.33685E-01
#           8.53969E-01  8.74747E-01  8.96030E-01  9.17831E-01  9.40163E-01
#           9.63038E-01  9.86469E-01  1.01047E+00  1.03506E+00  1.06024E+00
#           1.08604E+00  1.11246E+00  1.13953E+00  1.16725E+00  1.19565E+00
#           1.22474E+00  1.25454E+00  1.28507E+00  1.31633E+00  1.34836E+00
#           1.38117E+00  1.41477E+00  1.44920E+00  1.48446E+00  1.52057E+00
#           1.55757E+00  1.59547E+00  1.63429E+00  1.67405E+00  1.71478E+00
#           1.75650E+00  1.79924E+00  1.84302E+00  1.88786E+00  1.93379E+00
#           1.98084E+00  2.02904E+00  2.07841E+00  2.12898E+00  2.18078E+00
#           2.23384E+00  2.28819E+00  2.34386E+00  2.40089E+00  2.45930E+00
#           2.51914E+00  2.58043E+00  2.64322E+00  2.70753E+00  2.77341E+00
#           2.84088E+00  2.91001E+00  2.98081E+00  3.05333E+00  3.12762E+00
#           3.20372E+00  3.28167E+00  3.36152E+00  3.44330E+00  3.52708E+00
#           3.61290E+00  3.70080E+00  3.79085E+00  3.88308E+00  3.97756E+00
#           4.07434E+00  4.17347E+00  4.27501E+00  4.37903E+00  4.48557E+00
#           4.59471E+00  4.70650E+00  4.82102E+00  4.93832E+00  5.05847E+00
#           5.18155E+00  5.30762E+00  5.43676E+00  5.56904E+00  5.70453E+00
#           5.84333E+00  5.98550E+00  6.13114E+00  6.28031E+00  6.43312E+00
#           6.58964E+00  6.74997E+00  6.91420E+00  7.08243E+00  7.25475E+00
#           7.43126E+00  7.61207E+00  7.79728E+00  7.98700E+00  8.18133E+00
#           8.38038E+00  8.58428E+00  8.79315E+00  9.00709E+00  9.22624E+00
#           9.45072E+00  9.68067E+00  9.91620E+00  1.01575E+01  1.04046E+01
#           1.06578E+01  1.09171E+01  1.11827E+01  1.14548E+01  1.17335E+01
#           1.20190E+01  1.23114E+01  1.26109E+01  1.29178E+01  1.32321E+01
#           1.35540E+01  1.38838E+01  1.42216E+01  1.45676E+01  1.49221E+01
#           1.52851E+01  1.56570E+01  1.60380E+01  1.64282E+01  1.68279E+01
#           1.72374E+01  1.76568E+01  1.80864E+01  1.85264E+01  1.89772E+01
#           1.94389E+01  1.99119E+01  2.03963E+01  2.08926E+01  2.14009E+01
#           2.19216E+01  2.24550E+01  2.30014E+01  2.35610E+01  2.41343E+01
#           2.47215E+01  2.53230E+01  2.59391E+01  2.65702E+01  2.72167E+01
#           2.78789E+01  2.85572E+01  2.92520E+01  2.99637E+01  3.06928E+01
#           3.14396E+01  3.22045E+01  3.29881E+01  3.37907E+01  3.46128E+01
#           3.54550E+01  3.63177E+01  3.72013E+01  3.81064E+01  3.90336E+01
#           3.99833E+01  4.09561E+01  4.19526E+01  4.29734E+01  4.40189E+01
#           4.50900E+01  4.61870E+01  4.73108E+01  4.84619E+01  4.96410E+01
#           5.08488E+01  5.20860E+01  5.33533E+01  5.46514E+01  5.59812E+01
#           5.73432E+01  5.87384E+01  6.01676E+01  6.16315E+01  6.31311E+01
#           6.46671E+01  6.62405E+01  6.78522E+01  6.95031E+01  7.11941E+01
#           7.29263E+01  7.47007E+01  7.65182E+01  7.83800E+01  8.02870E+01
#           8.22405E+01  8.42414E+01  8.62911E+01  8.83906E+01  9.05412E+01
#           9.27442E+01  9.50007E+01  9.73122E+01  9.96799E+01  1.02105E+02
#           1.04589E+02  1.07134E+02  1.09741E+02  1.12411E+02  1.15146E+02
#           1.17948E+02  1.20817E+02  1.23757E+02  1.26768E+02  1.29852E+02
#           1.33012E+02  1.36248E+02  1.39563E+02  1.42959E+02  1.46437E+02
#           1.50000E+02
     unit =    2            # unit is [1/cm^2/(MeV/n)/source]
     axis =  eng            # axis of output
     file = detector-15.out  # file name of output for the above axis
   output = f-curr          # surface crossing forward current spectrum
     part =  neutron  
# kf/name :  2112     
#    used :        main (  %)        temp (  %)       total (  %)
#  memory :         414 (  0)           0 (  0)         414 (  0)

#------------------------------------------------------------------------------
#newpage:
#   no. =    1   reg = 114 - 214

x: Energy [MeV/n]
y:  F-Curr [1/cm^2/(MeV/n)/source]         
p: xlog ylog afac(0.8) form(0.9)
h: n            x            y(neutron ),hh0l   n 
#  e-lower      e-upper      neutron     r.err 
   1.0000E-02   1.0243E-02   7.9734E-05  0.1015
   1.0243E-02   1.0493E-02   8.3458E-05  0.0981
   1.0493E-02   1.0748E-02   9.2443E-05  0.0921
   1.0748E-02   1.1009E-02   7.4186E-05  0.1015
   1.1009E-02   1.1277E-02   8.5117E-05  0.0937
   1.1277E-02   1.1552E-02   7.9451E-05  0.0958
   1.1552E-02   1.1833E-02   8.8949E-05  0.0894
   1.1833E-02   1.2121E-02   7.2248E-05  0.0981
   1.2121E-02   1.2415E-02   8.9521E-05  0.0870
   1.2415E-02   1.2718E-02   9.2691E-05  0.0845
   1.2718E-02   1.3027E-02   9.5661E-05  0.0822
   1.3027E-02   1.3344E-02   8.7078E-05  0.0851
   1.3344E-02   1.3669E-02   7.5154E-05  0.0905
   1.3669E-02   1.4001E-02   8.4194E-05  0.0845
   1.4001E-02   1.4342E-02   8.0432E-05  0.0854
   1.4342E-02   1.4691E-02   8.1961E-05  0.0836
   1.4691E-02   1.5048E-02   9.2883E-05  0.0776
   1.5048E-02   1.5414E-02   7.8660E-05  0.0833
   1.5414E-02   1.5789E-02   7.8391E-05  0.0825
   1.5789E-02   1.6174E-02   9.0065E-05  0.0760
   1.6174E-02   1.6567E-02   9.3008E-05  0.0739
   1.6567E-02   1.6970E-02   7.9883E-05  0.0788
   1.6970E-02   1.7383E-02   1.0027E-04  0.0695
   1.7383E-02   1.7806E-02   9.2684E-05  0.0714
   1.7806E-02   1.8239E-02   9.2329E-05  0.0707
   1.8239E-02   1.8683E-02   8.4277E-05  0.0731
   1.8683E-02   1.9138E-02   9.2395E-05  0.0690
   1.9138E-02   1.9603E-02   9.1489E-05  0.0685
   1.9603E-02   2.0080E-02   8.8896E-05  0.0687
   2.0080E-02   2.0569E-02   7.9826E-05  0.0716
   2.0569E-02   2.1069E-02   8.9519E-05  0.0668
   2.1069E-02   2.1582E-02   8.5052E-05  0.0677
   2.1582E-02   2.2107E-02   1.0436E-04  0.0604
   2.2107E-02   2.2645E-02   9.4817E-05  0.0626
   2.2645E-02   2.3196E-02   9.3654E-05  0.0623
   2.3196E-02   2.3760E-02   8.2924E-05  0.0654
   2.3760E-02   2.4338E-02   1.0344E-04  0.0578
   2.4338E-02   2.4930E-02   9.8283E-05  0.0586
   2.4930E-02   2.5537E-02   9.1992E-05  0.0599
   2.5537E-02   2.6158E-02   9.8820E-05  0.0571
   2.6158E-02   2.6795E-02   9.5844E-05  0.0573
   2.6795E-02   2.7447E-02   9.8169E-05  0.0559
   2.7447E-02   2.8114E-02   9.2842E-05  0.0568
   2.8114E-02   2.8799E-02   8.8883E-05  0.0574
   2.8799E-02   2.9499E-02   1.0704E-04  0.0516
   2.9499E-02   3.0217E-02   9.1119E-05  0.0553
   3.0217E-02   3.0952E-02   1.0392E-04  0.0512
   3.0952E-02   3.1705E-02   8.8967E-05  0.0546
   3.1705E-02   3.2477E-02   9.2557E-05  0.0529
   3.2477E-02   3.3267E-02   9.2637E-05  0.0523
   3.3267E-02   3.4076E-02   1.0032E-04  0.0496
   3.4076E-02   3.4905E-02   1.0035E-04  0.0490
   3.4905E-02   3.5755E-02   9.8672E-05  0.0489
   3.5755E-02   3.6625E-02   9.8628E-05  0.0483
   3.6625E-02   3.7516E-02   1.0145E-04  0.0470
   3.7516E-02   3.8428E-02   1.0123E-04  0.0465
   3.8428E-02   3.9363E-02   9.9680E-05  0.0463
   3.9363E-02   4.0321E-02   9.5850E-05  0.0467
   4.0321E-02   4.1302E-02   1.0621E-04  0.0438
   4.1302E-02   4.2307E-02   9.6725E-05  0.0454
   4.2307E-02   4.3337E-02   9.1901E-05  0.0460
   4.3337E-02   4.4391E-02   1.0110E-04  0.0433
   4.4391E-02   4.5471E-02   9.8698E-05  0.0433
   4.5471E-02   4.6577E-02   9.7257E-05  0.0431
   4.6577E-02   4.7711E-02   1.0589E-04  0.0408
   4.7711E-02   4.8871E-02   1.0458E-04  0.0406
   4.8871E-02   5.0061E-02   1.0159E-04  0.0407
   5.0061E-02   5.1279E-02   1.0870E-04  0.0389
   5.1279E-02   5.2526E-02   9.8906E-05  0.0403
   5.2526E-02   5.3804E-02   1.0172E-04  0.0392
   5.3804E-02   5.5113E-02   1.0297E-04  0.0385
   5.5113E-02   5.6454E-02   1.0933E-04  0.0369
   5.6454E-02   5.7828E-02   1.0396E-04  0.0374
   5.7828E-02   5.9235E-02   1.0718E-04  0.0364
   5.9235E-02   6.0676E-02   1.0547E-04  0.0363
   6.0676E-02   6.2152E-02   1.0635E-04  0.0357
   6.2152E-02   6.3665E-02   1.0858E-04  0.0349
   6.3665E-02   6.5214E-02   1.0820E-04  0.0345
   6.5214E-02   6.6800E-02   1.1029E-04  0.0338
   6.6800E-02   6.8426E-02   1.0989E-04  0.0335
   6.8426E-02   7.0090E-02   1.0535E-04  0.0338
   7.0090E-02   7.1796E-02   1.1481E-04  0.0320
   7.1796E-02   7.3543E-02   1.1071E-04  0.0322
   7.3543E-02   7.5332E-02   1.1088E-04  0.0318
   7.5332E-02   7.7165E-02   1.0901E-04  0.0316
   7.7165E-02   7.9042E-02   1.1111E-04  0.0310
   7.9042E-02   8.0965E-02   1.0618E-04  0.0313
   8.0965E-02   8.2935E-02   1.0934E-04  0.0305
   8.2935E-02   8.4953E-02   1.1725E-04  0.0291
   8.4953E-02   8.7020E-02   1.1002E-04  0.0297
   8.7020E-02   8.9138E-02   1.1713E-04  0.0284
   8.9138E-02   9.1306E-02   1.1435E-04  0.0284
   9.1306E-02   9.3528E-02   1.1532E-04  0.0279
   9.3528E-02   9.5804E-02   1.1724E-04  0.0274
   9.5804E-02   9.8134E-02   1.1652E-04  0.0271
   9.8134E-02   1.0052E-01   1.1459E-04  0.0270
   1.0052E-01   1.0297E-01   1.1645E-04  0.0265
   1.0297E-01   1.0547E-01   1.1807E-04  0.0260
   1.0547E-01   1.0804E-01   1.1651E-04  0.0259
   1.0804E-01   1.1067E-01   1.1846E-04  0.0253
   1.1067E-01   1.1336E-01   1.1639E-04  0.0253
   1.1336E-01   1.1612E-01   1.1667E-04  0.0249
   1.1612E-01   1.1894E-01   1.2501E-04  0.0238
   1.1894E-01   1.2184E-01   1.2439E-04  0.0236
   1.2184E-01   1.2480E-01   1.2427E-04  0.0233
   1.2480E-01   1.2784E-01   1.2442E-04  0.0230
   1.2784E-01   1.3095E-01   1.2436E-04  0.0227
   1.3095E-01   1.3414E-01   1.2705E-04  0.0222
   1.3414E-01   1.3740E-01   1.2452E-04  0.0222
   1.3740E-01   1.4074E-01   1.2569E-04  0.0218
   1.4074E-01   1.4417E-01   1.3147E-04  0.0211
   1.4417E-01   1.4767E-01   1.2994E-04  0.0209
   1.4767E-01   1.5127E-01   1.2658E-04  0.0210
   1.5127E-01   1.5495E-01   1.2661E-04  0.0207
   1.5495E-01   1.5872E-01   1.3024E-04  0.0202
   1.5872E-01   1.6258E-01   1.2782E-04  0.0201
   1.6258E-01   1.6654E-01   1.3120E-04  0.0196
   1.6654E-01   1.7059E-01   1.3194E-04  0.0193
   1.7059E-01   1.7474E-01   1.3145E-04  0.0191
   1.7474E-01   1.7899E-01   1.2970E-04  0.0190
   1.7899E-01   1.8334E-01   1.3245E-04  0.0186
   1.8334E-01   1.8781E-01   1.3365E-04  0.0183
   1.8781E-01   1.9237E-01   1.3730E-04  0.0179
   1.9237E-01   1.9706E-01   1.3626E-04  0.0177
   1.9706E-01   2.0185E-01   1.3862E-04  0.0173
   2.0185E-01   2.0676E-01   1.4013E-04  0.0170
   2.0676E-01   2.1179E-01   1.4058E-04  0.0168
   2.1179E-01   2.1694E-01   1.3860E-04  0.0167
   2.1694E-01   2.2222E-01   1.3849E-04  0.0165
   2.2222E-01   2.2763E-01   1.4219E-04  0.0161
   2.2763E-01   2.3317E-01   1.4486E-04  0.0158
   2.3317E-01   2.3884E-01   1.4077E-04  0.0158
   2.3884E-01   2.4465E-01   1.4169E-04  0.0156
   2.4465E-01   2.5061E-01   1.4622E-04  0.0152
   2.5061E-01   2.5670E-01   1.4691E-04  0.0149
   2.5670E-01   2.6295E-01   1.4304E-04  0.0150
   2.6295E-01   2.6935E-01   1.4943E-04  0.0145
   2.6935E-01   2.7590E-01   1.4405E-04  0.0146
   2.7590E-01   2.8261E-01   1.5126E-04  0.0140
   2.8261E-01   2.8949E-01   1.5000E-04  0.0139
   2.8949E-01   2.9653E-01   1.4274E-04  0.0141
   2.9653E-01   3.0375E-01   1.5246E-04  0.0135
   3.0375E-01   3.1114E-01   1.5147E-04  0.0134
   3.1114E-01   3.1871E-01   1.5093E-04  0.0132
   3.1871E-01   3.2646E-01   1.5186E-04  0.0130
   3.2646E-01   3.3441E-01   1.5342E-04  0.0128
   3.3441E-01   3.4254E-01   1.5385E-04  0.0126
   3.4254E-01   3.5088E-01   1.5296E-04  0.0125
   3.5088E-01   3.5941E-01   1.6106E-04  0.0121
   3.5941E-01   3.6816E-01   1.5774E-04  0.0120
   3.6816E-01   3.7712E-01   1.6279E-04  0.0117
   3.7712E-01   3.8629E-01   1.5818E-04  0.0117
   3.8629E-01   3.9569E-01   1.5951E-04  0.0116
   3.9569E-01   4.0532E-01   1.6177E-04  0.0113
   4.0532E-01   4.1518E-01   1.5803E-04  0.0113
   4.1518E-01   4.2528E-01   1.6338E-04  0.0110
   4.2528E-01   4.3563E-01   1.6284E-04  0.0109
   4.3563E-01   4.4623E-01   1.6454E-04  0.0107
   4.4623E-01   4.5708E-01   1.6452E-04  0.0106
   4.5708E-01   4.6821E-01   1.6718E-04  0.0104
   4.6821E-01   4.7960E-01   1.6765E-04  0.0102
   4.7960E-01   4.9127E-01   1.6733E-04  0.0101
   4.9127E-01   5.0322E-01   1.6632E-04  0.0100
   5.0322E-01   5.1546E-01   1.6640E-04  0.0099
   5.1546E-01   5.2800E-01   1.6623E-04  0.0098
   5.2800E-01   5.4085E-01   1.6793E-04  0.0096
   5.4085E-01   5.5401E-01   1.6910E-04  0.0095
   5.5401E-01   5.6749E-01   1.6752E-04  0.0094
   5.6749E-01   5.8130E-01   1.6590E-04  0.0093
   5.8130E-01   5.9544E-01   1.7109E-04  0.0091
   5.9544E-01   6.0993E-01   1.7053E-04  0.0090
   6.0993E-01   6.2477E-01   1.6924E-04  0.0089
   6.2477E-01   6.3997E-01   1.6943E-04  0.0088
   6.3997E-01   6.5554E-01   1.6920E-04  0.0087
   6.5554E-01   6.7149E-01   1.7013E-04  0.0086
   6.7149E-01   6.8783E-01   1.6941E-04  0.0085
   6.8783E-01   7.0456E-01   1.7115E-04  0.0084
   7.0456E-01   7.2171E-01   1.6843E-04  0.0083
   7.2171E-01   7.3927E-01   1.6778E-04  0.0082
   7.3927E-01   7.5725E-01   1.6770E-04  0.0081
   7.5725E-01   7.7568E-01   1.6716E-04  0.0081
   7.7568E-01   7.9455E-01   1.6768E-04  0.0080
   7.9455E-01   8.1388E-01   1.6505E-04  0.0079
   8.1388E-01   8.3368E-01   1.6566E-04  0.0078
   8.3368E-01   8.5397E-01   1.6227E-04  0.0078
   8.5397E-01   8.7475E-01   1.5943E-04  0.0078
   8.7475E-01   8.9603E-01   1.5416E-04  0.0078
   8.9603E-01   9.1783E-01   1.5407E-04  0.0077
   9.1783E-01   9.4016E-01   1.4977E-04  0.0077
   9.4016E-01   9.6304E-01   1.4458E-04  0.0078
   9.6304E-01   9.8647E-01   1.4129E-04  0.0078
   9.8647E-01   1.0105E+00   1.3575E-04  0.0078
   1.0105E+00   1.0351E+00   1.3487E-04  0.0078
   1.0351E+00   1.0602E+00   1.3525E-04  0.0077
   1.0602E+00   1.0860E+00   1.3745E-04  0.0075
   1.0860E+00   1.1125E+00   1.3604E-04  0.0075
   1.1125E+00   1.1395E+00   1.3770E-04  0.0073
   1.1395E+00   1.1673E+00   1.4066E-04  0.0072
   1.1673E+00   1.1957E+00   1.4253E-04  0.0070
   1.1957E+00   1.2247E+00   1.4511E-04  0.0069
   1.2247E+00   1.2545E+00   1.4453E-04  0.0068
   1.2545E+00   1.2851E+00   1.4700E-04  0.0067
   1.2851E+00   1.3163E+00   1.4557E-04  0.0066
   1.3163E+00   1.3484E+00   1.4914E-04  0.0065
   1.3484E+00   1.3812E+00   1.5052E-04  0.0064
   1.3812E+00   1.4148E+00   1.5430E-04  0.0062
   1.4148E+00   1.4492E+00   1.5386E-04  0.0061
   1.4492E+00   1.4845E+00   1.5432E-04  0.0061
   1.4845E+00   1.5206E+00   1.5414E-04  0.0060
   1.5206E+00   1.5576E+00   1.5341E-04  0.0059
   1.5576E+00   1.5955E+00   1.5378E-04  0.0059
   1.5955E+00   1.6343E+00   1.5650E-04  0.0057
   1.6343E+00   1.6741E+00   1.5732E-04  0.0057
   1.6741E+00   1.7148E+00   1.6063E-04  0.0055
   1.7148E+00   1.7565E+00   1.6239E-04  0.0054
   1.7565E+00   1.7992E+00   1.6090E-04  0.0054
   1.7992E+00   1.8430E+00   1.6158E-04  0.0053
   1.8430E+00   1.8879E+00   1.6138E-04  0.0053
   1.8879E+00   1.9338E+00   1.6255E-04  0.0052
   1.9338E+00   1.9808E+00   1.6202E-04  0.0051
   1.9808E+00   2.0290E+00   1.6590E-04  0.0050
   2.0290E+00   2.0784E+00   1.6482E-04  0.0050
   2.0784E+00   2.1290E+00   1.6428E-04  0.0049
   2.1290E+00   2.1808E+00   1.6356E-04  0.0049
   2.1808E+00   2.2338E+00   1.6308E-04  0.0048
   2.2338E+00   2.2882E+00   1.6368E-04  0.0047
   2.2882E+00   2.3439E+00   1.6346E-04  0.0047
   2.3439E+00   2.4009E+00   1.6415E-04  0.0046
   2.4009E+00   2.4593E+00   1.6720E-04  0.0045
   2.4593E+00   2.5191E+00   1.6425E-04  0.0045
   2.5191E+00   2.5804E+00   1.6147E-04  0.0045
   2.5804E+00   2.6432E+00   1.6175E-04  0.0044
   2.6432E+00   2.7075E+00   1.5923E-04  0.0044
   2.7075E+00   2.7734E+00   1.5895E-04  0.0044
   2.7734E+00   2.8409E+00   1.5825E-04  0.0043
   2.8409E+00   2.9100E+00   1.5889E-04  0.0043
   2.9100E+00   2.9808E+00   1.5868E-04  0.0042
   2.9808E+00   3.0533E+00   1.5719E-04  0.0042
   3.0533E+00   3.1276E+00   1.5501E-04  0.0042
   3.1276E+00   3.2037E+00   1.5298E-04  0.0041
   3.2037E+00   3.2817E+00   1.4948E-04  0.0041
   3.2817E+00   3.3615E+00   1.4809E-04  0.0041
   3.3615E+00   3.4433E+00   1.4634E-04  0.0041
   3.4433E+00   3.5271E+00   1.4356E-04  0.0041
   3.5271E+00   3.6129E+00   1.4297E-04  0.0040
   3.6129E+00   3.7008E+00   1.4222E-04  0.0040
   3.7008E+00   3.7908E+00   1.3913E-04  0.0040
   3.7908E+00   3.8831E+00   1.3750E-04  0.0040
   3.8831E+00   3.9776E+00   1.3331E-04  0.0040
   3.9776E+00   4.0743E+00   1.3180E-04  0.0040
   4.0743E+00   4.1735E+00   1.2938E-04  0.0040
   4.1735E+00   4.2750E+00   1.2539E-04  0.0040
   4.2750E+00   4.3790E+00   1.2219E-04  0.0040
   4.3790E+00   4.4856E+00   1.1917E-04  0.0040
   4.4856E+00   4.5947E+00   1.1635E-04  0.0040
   4.5947E+00   4.7065E+00   1.1368E-04  0.0040
   4.7065E+00   4.8210E+00   1.1076E-04  0.0040
   4.8210E+00   4.9383E+00   1.0815E-04  0.0040
   4.9383E+00   5.0585E+00   1.0621E-04  0.0040
   5.0585E+00   5.1815E+00   1.0204E-04  0.0040
   5.1815E+00   5.3076E+00   9.8980E-05  0.0040
   5.3076E+00   5.4368E+00   9.5151E-05  0.0040
   5.4368E+00   5.5690E+00   9.2111E-05  0.0041
   5.5690E+00   5.7045E+00   8.8549E-05  0.0041
   5.7045E+00   5.8433E+00   8.6168E-05  0.0041
   5.8433E+00   5.9855E+00   8.3909E-05  0.0041
   5.9855E+00   6.1311E+00   8.0710E-05  0.0041
   6.1311E+00   6.2803E+00   7.7364E-05  0.0042
   6.2803E+00   6.4331E+00   7.4645E-05  0.0042
   6.4331E+00   6.5896E+00   7.1709E-05  0.0042
   6.5896E+00   6.7500E+00   6.7991E-05  0.0043
   6.7500E+00   6.9142E+00   6.5855E-05  0.0043
   6.9142E+00   7.0824E+00   6.3524E-05  0.0043
   7.0824E+00   7.2548E+00   6.0633E-05  0.0044
   7.2548E+00   7.4313E+00   5.8121E-05  0.0044
   7.4313E+00   7.6121E+00   5.5872E-05  0.0044
   7.6121E+00   7.7973E+00   5.3392E-05  0.0045
   7.7973E+00   7.9870E+00   5.1347E-05  0.0045
   7.9870E+00   8.1813E+00   4.9054E-05  0.0046
   8.1813E+00   8.3804E+00   4.6601E-05  0.0046
   8.3804E+00   8.5843E+00   4.4668E-05  0.0047
   8.5843E+00   8.7931E+00   4.2615E-05  0.0047
   8.7931E+00   9.0071E+00   4.0818E-05  0.0048
   9.0071E+00   9.2262E+00   3.9357E-05  0.0048
   9.2262E+00   9.4507E+00   3.7361E-05  0.0049
   9.4507E+00   9.6807E+00   3.5875E-05  0.0049
   9.6807E+00   9.9162E+00   3.4375E-05  0.0050
   9.9162E+00   1.0157E+01   3.2778E-05  0.0050
   1.0157E+01   1.0405E+01   3.1358E-05  0.0051
   1.0405E+01   1.0658E+01   2.9952E-05  0.0051
   1.0658E+01   1.0917E+01   2.8466E-05  0.0052
   1.0917E+01   1.1183E+01   2.7573E-05  0.0052
   1.1183E+01   1.1455E+01   2.6463E-05  0.0053
   1.1455E+01   1.1733E+01   2.5321E-05  0.0053
   1.1733E+01   1.2019E+01   2.4238E-05  0.0054
   1.2019E+01   1.2311E+01   2.3073E-05  0.0054
   1.2311E+01   1.2611E+01   2.2265E-05  0.0055
   1.2611E+01   1.2918E+01   2.1541E-05  0.0055
   1.2918E+01   1.3232E+01   2.0440E-05  0.0056
   1.3232E+01   1.3554E+01   1.9761E-05  0.0056
   1.3554E+01   1.3884E+01   1.9102E-05  0.0056
   1.3884E+01   1.4222E+01   1.8109E-05  0.0057
   1.4222E+01   1.4568E+01   1.7714E-05  0.0057
   1.4568E+01   1.4922E+01   1.6779E-05  0.0058
   1.4922E+01   1.5285E+01   1.6180E-05  0.0058
   1.5285E+01   1.5657E+01   1.5411E-05  0.0059
   1.5657E+01   1.6038E+01   1.4955E-05  0.0059
   1.6038E+01   1.6428E+01   1.4410E-05  0.0060
   1.6428E+01   1.6828E+01   1.3798E-05  0.0060
   1.6828E+01   1.7237E+01   1.3118E-05  0.0061
   1.7237E+01   1.7657E+01   1.2654E-05  0.0061
   1.7657E+01   1.8086E+01   1.2128E-05  0.0062
   1.8086E+01   1.8526E+01   1.1714E-05  0.0062
   1.8526E+01   1.8977E+01   1.1150E-05  0.0063
   1.8977E+01   1.9439E+01   1.0833E-05  0.0063
   1.9439E+01   1.9912E+01   1.0331E-05  0.0064
   1.9912E+01   2.0396E+01   9.2724E-06  0.0067
   2.0396E+01   2.0893E+01   8.8974E-06  0.0067
   2.0893E+01   2.1401E+01   8.6475E-06  0.0067
   2.1401E+01   2.1922E+01   8.1559E-06  0.0069
   2.1922E+01   2.2455E+01   7.6761E-06  0.0070
   2.2455E+01   2.3001E+01   7.4121E-06  0.0070
   2.3001E+01   2.3561E+01   7.1292E-06  0.0071
   2.3561E+01   2.4134E+01   6.6738E-06  0.0072
   2.4134E+01   2.4721E+01   6.4015E-06  0.0073
   2.4721E+01   2.5323E+01   6.0273E-06  0.0074
   2.5323E+01   2.5939E+01   5.7290E-06  0.0075
   2.5939E+01   2.6570E+01   5.3882E-06  0.0077
   2.6570E+01   2.7217E+01   5.0567E-06  0.0078
   2.7217E+01   2.7879E+01   4.8239E-06  0.0079
   2.7879E+01   2.8557E+01   4.4773E-06  0.0081
   2.8557E+01   2.9252E+01   4.2276E-06  0.0083
   2.9252E+01   2.9964E+01   3.8647E-06  0.0085
   2.9964E+01   3.0693E+01   3.6931E-06  0.0086
   3.0693E+01   3.1440E+01   3.3707E-06  0.0089
   3.1440E+01   3.2205E+01   3.1701E-06  0.0091
   3.2205E+01   3.2988E+01   2.8549E-06  0.0095
   3.2988E+01   3.3791E+01   2.6192E-06  0.0098
   3.3791E+01   3.4613E+01   2.4156E-06  0.0100
   3.4613E+01   3.5455E+01   2.2084E-06  0.0104
   3.5455E+01   3.6318E+01   2.0191E-06  0.0107
   3.6318E+01   3.7201E+01   1.8136E-06  0.0112
   3.7201E+01   3.8106E+01   1.6510E-06  0.0116
   3.8106E+01   3.9034E+01   1.4778E-06  0.0121
   3.9034E+01   3.9983E+01   1.3339E-06  0.0126
   3.9983E+01   4.0956E+01   1.1914E-06  0.0131
   4.0956E+01   4.1953E+01   1.0665E-06  0.0137
   4.1953E+01   4.2973E+01   9.3599E-07  0.0145
   4.2973E+01   4.4019E+01   8.3782E-07  0.0151
   4.4019E+01   4.5090E+01   7.1633E-07  0.0161
   4.5090E+01   4.6187E+01   6.3533E-07  0.0169
   4.6187E+01   4.7311E+01   5.5901E-07  0.0178
   4.7311E+01   4.8462E+01   4.7954E-07  0.0190
   4.8462E+01   4.9641E+01   4.3134E-07  0.0198
   4.9641E+01   5.0849E+01   3.6811E-07  0.0212
   5.0849E+01   5.2086E+01   3.2121E-07  0.0224
   5.2086E+01   5.3353E+01   2.7018E-07  0.0242
   5.3353E+01   5.4651E+01   2.3449E-07  0.0256
   5.4651E+01   5.5981E+01   2.0741E-07  0.0269
   5.5981E+01   5.7343E+01   1.8340E-07  0.0283
   5.7343E+01   5.8738E+01   1.5152E-07  0.0308
   5.8738E+01   6.0168E+01   1.4176E-07  0.0314
   6.0168E+01   6.1632E+01   1.2596E-07  0.0329
   6.1632E+01   6.3131E+01   1.0777E-07  0.0352
   6.3131E+01   6.4667E+01   8.5675E-08  0.0390
   6.4667E+01   6.6240E+01   7.0802E-08  0.0424
   6.6240E+01   6.7852E+01   5.7704E-08  0.0464
   6.7852E+01   6.9503E+01   4.4461E-08  0.0522
   6.9503E+01   7.1194E+01   3.3115E-08  0.0598
   7.1194E+01   7.2926E+01   2.3323E-08  0.0704
   7.2926E+01   7.4701E+01   1.2173E-08  0.0962
   7.4701E+01   7.6518E+01   3.5213E-09  0.1768
   7.6518E+01   7.8380E+01   2.2559E-09  0.2182
   7.8380E+01   8.0287E+01   6.2925E-10  0.4082
   8.0287E+01   8.2240E+01   0.0000E+00  0.0000
   8.2240E+01   8.4241E+01   0.0000E+00  0.0000
   8.4241E+01   8.6291E+01   0.0000E+00  0.0000
   8.6291E+01   8.8391E+01   0.0000E+00  0.0000
   8.8391E+01   9.0541E+01   0.0000E+00  0.0000
   9.0541E+01   9.2744E+01   0.0000E+00  0.0000
   9.2744E+01   9.5001E+01   0.0000E+00  0.0000
   9.5001E+01   9.7312E+01   0.0000E+00  0.0000
   9.7312E+01   9.9680E+01   0.0000E+00  0.0000
   9.9680E+01   1.0211E+02   0.0000E+00  0.0000
   1.0211E+02   1.0459E+02   0.0000E+00  0.0000
   1.0459E+02   1.0713E+02   0.0000E+00  0.0000
   1.0713E+02   1.0974E+02   0.0000E+00  0.0000
   1.0974E+02   1.1241E+02   0.0000E+00  0.0000
   1.1241E+02   1.1515E+02   0.0000E+00  0.0000
   1.1515E+02   1.1795E+02   0.0000E+00  0.0000
   1.1795E+02   1.2082E+02   0.0000E+00  0.0000
   1.2082E+02   1.2376E+02   0.0000E+00  0.0000
   1.2376E+02   1.2677E+02   0.0000E+00  0.0000
   1.2677E+02   1.2985E+02   0.0000E+00  0.0000
   1.2985E+02   1.3301E+02   0.0000E+00  0.0000
   1.3301E+02   1.3625E+02   0.0000E+00  0.0000
   1.3625E+02   1.3956E+02   0.0000E+00  0.0000
   1.3956E+02   1.4296E+02   0.0000E+00  0.0000
   1.4296E+02   1.4644E+02   0.0000E+00  0.0000
   1.4644E+02   1.5000E+02   0.0000E+00  0.0000

#   sum over                 8.6917E-06
'no. =    1   reg = 114 - 214'
msuc: {\huge [t-cross] in region mesh}
msdr: {\it plotted by \ANGEL \version}
msdl: {\it calculated by \PHITS  3.26}
wt: s(0.7)
\vspace{-3}
  region surface crossing
  area  &=&   1.0000E+00 [cm^2]
e:
 
# Information for Restart Calculation
# This calculation was newly started
# istdev =  2 # 1:Batch variance, 2:History variance
# resc2  = 5.00000000000000000E+09 # Total source weight or Total source weight / maxcas
# resc3  = 5.00000000000000000E+09 # Total history number or Total batch number
# maxcas =   500000000 # History / Batch, only used for istdev=1
# bitrseed = 0110100000100010111000001110001111001110100100011111101000111001 # bit data of rseed
