0 <--- number of remaining batches 

-------------------------------------------------------------------------------
bat[      10] ncas =     5000000000.
 bitrseed = 0001011101011011011000011100010110101100100111100111010011101011
          cpu time =   6 h.  5 m.  7.09 s.

 date = 2022-07-14
 time = 23h 32m 26s

-------------------------------------------------------------------------------
next initial random seed:
 bitrseed = 0110100000100010111000001110001111001110100100011111101000111001
