4 <--- number of remaining batches 

-------------------------------------------------------------------------------
bat[      46] ncas =     4600000000.
 bitrseed = 0001011101011011011000011100010110101100100111100111010011101011
          cpu time =  32 m. 18.06 s.

 date = 2022-05-15
 time = 04h 23m 48s

