0 <--- number of remaining batches 

-------------------------------------------------------------------------------
bat[      10] ncas =     5000000000.
 bitrseed = 0001011101011011011000011100010110101100100111100111010011101011
          cpu time =   4 h. 37 m. 11.33 s.

 date = 2022-05-19
 time = 12h 55m 54s

