[ T-Cross ]
    title = [t-cross] in region mesh
     mesh =  reg            # mesh type is region-wise
      reg =    1            # number of crossing regions
      non     r-from    r-to       area
      1       105       205        1.000000    
   e-type =    3            # e-mesh is log given by emin, emax and ne
     emin =  1.0000000E-02  # minimum value of e-mesh points
     emax =   150.0000      # maximum value of e-mesh points
#    edel =  2.4039514E-02  # mesh width of e-mesh points
       ne =    400          # number of e-mesh points
#    data = ( e(i), i = 1, ne + 1 )
#           1.00000E-02  1.02433E-02  1.04925E-02  1.07478E-02  1.10093E-02
#           1.12772E-02  1.15516E-02  1.18326E-02  1.21205E-02  1.24154E-02
#           1.27175E-02  1.30269E-02  1.33439E-02  1.36686E-02  1.40011E-02
#           1.43418E-02  1.46907E-02  1.50482E-02  1.54143E-02  1.57894E-02
#           1.61735E-02  1.65670E-02  1.69701E-02  1.73830E-02  1.78060E-02
#           1.82392E-02  1.86830E-02  1.91375E-02  1.96032E-02  2.00801E-02
#           2.05687E-02  2.10692E-02  2.15818E-02  2.21069E-02  2.26448E-02
#           2.31957E-02  2.37601E-02  2.43382E-02  2.49304E-02  2.55369E-02
#           2.61583E-02  2.67947E-02  2.74467E-02  2.81145E-02  2.87985E-02
#           2.94992E-02  3.02169E-02  3.09521E-02  3.17052E-02  3.24766E-02
#           3.32668E-02  3.40762E-02  3.49053E-02  3.57546E-02  3.66246E-02
#           3.75157E-02  3.84284E-02  3.93634E-02  4.03212E-02  4.13022E-02
#           4.23071E-02  4.33365E-02  4.43909E-02  4.54710E-02  4.65773E-02
#           4.77106E-02  4.88714E-02  5.00605E-02  5.12785E-02  5.25262E-02
#           5.38042E-02  5.51133E-02  5.64542E-02  5.78278E-02  5.92348E-02
#           6.06760E-02  6.21523E-02  6.36645E-02  6.52135E-02  6.68002E-02
#           6.84255E-02  7.00904E-02  7.17957E-02  7.35426E-02  7.53319E-02
#           7.71648E-02  7.90423E-02  8.09655E-02  8.29354E-02  8.49533E-02
#           8.70203E-02  8.91376E-02  9.13064E-02  9.35279E-02  9.58035E-02
#           9.81345E-02  1.00522E-01  1.02968E-01  1.05473E-01  1.08040E-01
#           1.10668E-01  1.13361E-01  1.16119E-01  1.18944E-01  1.21838E-01
#           1.24803E-01  1.27839E-01  1.30950E-01  1.34136E-01  1.37399E-01
#           1.40742E-01  1.44167E-01  1.47675E-01  1.51268E-01  1.54948E-01
#           1.58718E-01  1.62580E-01  1.66535E-01  1.70587E-01  1.74738E-01
#           1.78989E-01  1.83344E-01  1.87805E-01  1.92375E-01  1.97055E-01
#           2.01850E-01  2.06761E-01  2.11792E-01  2.16945E-01  2.22223E-01
#           2.27630E-01  2.33169E-01  2.38842E-01  2.44653E-01  2.50605E-01
#           2.56703E-01  2.62949E-01  2.69346E-01  2.75900E-01  2.82613E-01
#           2.89489E-01  2.96532E-01  3.03747E-01  3.11138E-01  3.18708E-01
#           3.26462E-01  3.34405E-01  3.42542E-01  3.50876E-01  3.59413E-01
#           3.68158E-01  3.77116E-01  3.86291E-01  3.95690E-01  4.05317E-01
#           4.15179E-01  4.25281E-01  4.35628E-01  4.46227E-01  4.57084E-01
#           4.68205E-01  4.79597E-01  4.91266E-01  5.03219E-01  5.15463E-01
#           5.28005E-01  5.40851E-01  5.54011E-01  5.67490E-01  5.81298E-01
#           5.95441E-01  6.09929E-01  6.24769E-01  6.39970E-01  6.55541E-01
#           6.71491E-01  6.87828E-01  7.04564E-01  7.21706E-01  7.39266E-01
#           7.57253E-01  7.75678E-01  7.94551E-01  8.13883E-01  8.33685E-01
#           8.53969E-01  8.74747E-01  8.96030E-01  9.17831E-01  9.40163E-01
#           9.63038E-01  9.86469E-01  1.01047E+00  1.03506E+00  1.06024E+00
#           1.08604E+00  1.11246E+00  1.13953E+00  1.16725E+00  1.19565E+00
#           1.22474E+00  1.25454E+00  1.28507E+00  1.31633E+00  1.34836E+00
#           1.38117E+00  1.41477E+00  1.44920E+00  1.48446E+00  1.52057E+00
#           1.55757E+00  1.59547E+00  1.63429E+00  1.67405E+00  1.71478E+00
#           1.75650E+00  1.79924E+00  1.84302E+00  1.88786E+00  1.93379E+00
#           1.98084E+00  2.02904E+00  2.07841E+00  2.12898E+00  2.18078E+00
#           2.23384E+00  2.28819E+00  2.34386E+00  2.40089E+00  2.45930E+00
#           2.51914E+00  2.58043E+00  2.64322E+00  2.70753E+00  2.77341E+00
#           2.84088E+00  2.91001E+00  2.98081E+00  3.05333E+00  3.12762E+00
#           3.20372E+00  3.28167E+00  3.36152E+00  3.44330E+00  3.52708E+00
#           3.61290E+00  3.70080E+00  3.79085E+00  3.88308E+00  3.97756E+00
#           4.07434E+00  4.17347E+00  4.27501E+00  4.37903E+00  4.48557E+00
#           4.59471E+00  4.70650E+00  4.82102E+00  4.93832E+00  5.05847E+00
#           5.18155E+00  5.30762E+00  5.43676E+00  5.56904E+00  5.70453E+00
#           5.84333E+00  5.98550E+00  6.13114E+00  6.28031E+00  6.43312E+00
#           6.58964E+00  6.74997E+00  6.91420E+00  7.08243E+00  7.25475E+00
#           7.43126E+00  7.61207E+00  7.79728E+00  7.98700E+00  8.18133E+00
#           8.38038E+00  8.58428E+00  8.79315E+00  9.00709E+00  9.22624E+00
#           9.45072E+00  9.68067E+00  9.91620E+00  1.01575E+01  1.04046E+01
#           1.06578E+01  1.09171E+01  1.11827E+01  1.14548E+01  1.17335E+01
#           1.20190E+01  1.23114E+01  1.26109E+01  1.29178E+01  1.32321E+01
#           1.35540E+01  1.38838E+01  1.42216E+01  1.45676E+01  1.49221E+01
#           1.52851E+01  1.56570E+01  1.60380E+01  1.64282E+01  1.68279E+01
#           1.72374E+01  1.76568E+01  1.80864E+01  1.85264E+01  1.89772E+01
#           1.94389E+01  1.99119E+01  2.03963E+01  2.08926E+01  2.14009E+01
#           2.19216E+01  2.24550E+01  2.30014E+01  2.35610E+01  2.41343E+01
#           2.47215E+01  2.53230E+01  2.59391E+01  2.65702E+01  2.72167E+01
#           2.78789E+01  2.85572E+01  2.92520E+01  2.99637E+01  3.06928E+01
#           3.14396E+01  3.22045E+01  3.29881E+01  3.37907E+01  3.46128E+01
#           3.54550E+01  3.63177E+01  3.72013E+01  3.81064E+01  3.90336E+01
#           3.99833E+01  4.09561E+01  4.19526E+01  4.29734E+01  4.40189E+01
#           4.50900E+01  4.61870E+01  4.73108E+01  4.84619E+01  4.96410E+01
#           5.08488E+01  5.20860E+01  5.33533E+01  5.46514E+01  5.59812E+01
#           5.73432E+01  5.87384E+01  6.01676E+01  6.16315E+01  6.31311E+01
#           6.46671E+01  6.62405E+01  6.78522E+01  6.95031E+01  7.11941E+01
#           7.29263E+01  7.47007E+01  7.65182E+01  7.83800E+01  8.02870E+01
#           8.22405E+01  8.42414E+01  8.62911E+01  8.83906E+01  9.05412E+01
#           9.27442E+01  9.50007E+01  9.73122E+01  9.96799E+01  1.02105E+02
#           1.04589E+02  1.07134E+02  1.09741E+02  1.12411E+02  1.15146E+02
#           1.17948E+02  1.20817E+02  1.23757E+02  1.26768E+02  1.29852E+02
#           1.33012E+02  1.36248E+02  1.39563E+02  1.42959E+02  1.46437E+02
#           1.50000E+02
     unit =    2            # unit is [1/cm^2/(MeV/n)/source]
     axis =  eng            # axis of output
     file = detector-06.out  # file name of output for the above axis
   output = f-curr          # surface crossing forward current spectrum
     part =  neutron  
# kf/name :  2112     
#    used :        main (  %)        temp (  %)       total (  %)
#  memory :         414 (  0)           0 (  0)         414 (  0)

#------------------------------------------------------------------------------
#newpage:
#   no. =    1   reg = 105 - 205

x: Energy [MeV/n]
y:  F-Curr [1/cm^2/(MeV/n)/source]         
p: xlog ylog afac(0.8) form(0.9)
h: n            x            y(neutron ),hh0l   n 
#  e-lower      e-upper      neutron     r.err 
   1.0000E-02   1.0243E-02   1.3938E-03  0.0762
   1.0243E-02   1.0493E-02   1.5858E-03  0.0706
   1.0493E-02   1.0748E-02   1.4290E-03  0.0738
   1.0748E-02   1.1009E-02   1.4253E-03  0.0728
   1.1009E-02   1.1277E-02   1.4857E-03  0.0705
   1.1277E-02   1.1552E-02   1.3486E-03  0.0731
   1.1552E-02   1.1833E-02   1.5295E-03  0.0679
   1.1833E-02   1.2121E-02   1.2543E-03  0.0737
   1.2121E-02   1.2415E-02   1.2427E-03  0.0736
   1.2415E-02   1.2718E-02   1.2792E-03  0.0716
   1.2718E-02   1.3027E-02   1.2060E-03  0.0725
   1.3027E-02   1.3344E-02   1.2351E-03  0.0710
   1.3344E-02   1.3669E-02   1.2696E-03  0.0692
   1.3669E-02   1.4001E-02   1.2150E-03  0.0700
   1.4001E-02   1.4342E-02   1.0749E-03  0.0733
   1.4342E-02   1.4691E-02   1.0857E-03  0.0721
   1.4691E-02   1.5048E-02   1.1420E-03  0.0697
   1.5048E-02   1.5414E-02   9.5280E-04  0.0753
   1.5414E-02   1.5789E-02   1.2144E-03  0.0659
   1.5789E-02   1.6174E-02   1.1150E-03  0.0679
   1.6174E-02   1.6567E-02   9.4538E-04  0.0730
   1.6567E-02   1.6970E-02   9.4565E-04  0.0720
   1.6970E-02   1.7383E-02   9.2988E-04  0.0718
   1.7383E-02   1.7806E-02   9.8081E-04  0.0690
   1.7806E-02   1.8239E-02   8.6150E-04  0.0726
   1.8239E-02   1.8683E-02   9.5514E-04  0.0684
   1.8683E-02   1.9138E-02   9.3943E-04  0.0681
   1.9138E-02   1.9603E-02   9.0554E-04  0.0686
   1.9603E-02   2.0080E-02   8.9672E-04  0.0677
   2.0080E-02   2.0569E-02   7.7456E-04  0.0724
   2.0569E-02   2.1069E-02   8.7101E-04  0.0674
   2.1069E-02   2.1582E-02   8.0503E-04  0.0692
   2.1582E-02   2.2107E-02   8.8404E-04  0.0654
   2.2107E-02   2.2645E-02   8.8894E-04  0.0645
   2.2645E-02   2.3196E-02   7.7848E-04  0.0679
   2.3196E-02   2.3760E-02   7.0365E-04  0.0707
   2.3760E-02   2.4338E-02   7.2937E-04  0.0686
   2.4338E-02   2.4930E-02   6.7650E-04  0.0702
   2.4930E-02   2.5537E-02   7.0214E-04  0.0681
   2.5537E-02   2.6158E-02   6.3790E-04  0.0705
   2.6158E-02   2.6795E-02   6.8748E-04  0.0673
   2.6795E-02   2.7447E-02   6.1429E-04  0.0701
   2.7447E-02   2.8114E-02   7.4908E-04  0.0630
   2.8114E-02   2.8799E-02   6.6124E-04  0.0661
   2.8799E-02   2.9499E-02   6.0945E-04  0.0681
   2.9499E-02   3.0217E-02   6.3216E-04  0.0660
   3.0217E-02   3.0952E-02   5.8420E-04  0.0679
   3.0952E-02   3.1705E-02   5.7872E-04  0.0674
   3.1705E-02   3.2477E-02   6.5199E-04  0.0627
   3.2477E-02   3.3267E-02   5.5668E-04  0.0670
   3.3267E-02   3.4076E-02   5.2211E-04  0.0684
   3.4076E-02   3.4905E-02   6.0734E-04  0.0626
   3.4905E-02   3.5755E-02   5.3784E-04  0.0658
   3.5755E-02   3.6625E-02   4.9644E-04  0.0676
   3.6625E-02   3.7516E-02   5.4192E-04  0.0640
   3.7516E-02   3.8428E-02   4.6261E-04  0.0683
   3.8428E-02   3.9363E-02   4.8847E-04  0.0658
   3.9363E-02   4.0321E-02   4.2214E-04  0.0700
   4.0321E-02   4.1302E-02   5.1138E-04  0.0628
   4.1302E-02   4.2307E-02   4.4892E-04  0.0662
   4.2307E-02   4.3337E-02   4.3626E-04  0.0664
   4.3337E-02   4.4391E-02   4.3362E-04  0.0659
   4.4391E-02   4.5471E-02   3.9916E-04  0.0675
   4.5471E-02   4.6577E-02   4.1884E-04  0.0653
   4.6577E-02   4.7711E-02   4.1963E-04  0.0645
   4.7711E-02   4.8871E-02   4.3776E-04  0.0625
   4.8871E-02   5.0061E-02   4.0483E-04  0.0640
   5.0061E-02   5.1279E-02   3.8652E-04  0.0647
   5.1279E-02   5.2526E-02   3.6795E-04  0.0655
   5.2526E-02   5.3804E-02   3.9319E-04  0.0629
   5.3804E-02   5.5113E-02   3.4938E-04  0.0658
   5.5113E-02   5.6454E-02   3.6267E-04  0.0637
   5.6454E-02   5.7828E-02   3.5719E-04  0.0636
   5.7828E-02   5.9235E-02   3.3549E-04  0.0647
   5.9235E-02   6.0676E-02   3.2945E-04  0.0647
   6.0676E-02   6.2152E-02   3.5876E-04  0.0612
   6.2152E-02   6.3665E-02   3.1656E-04  0.0642
   6.3665E-02   6.5214E-02   3.1540E-04  0.0636
   6.5214E-02   6.6800E-02   3.1085E-04  0.0634
   6.6800E-02   6.8426E-02   3.1189E-04  0.0625
   6.8426E-02   7.0090E-02   2.9725E-04  0.0632
   7.0090E-02   7.1796E-02   3.1518E-04  0.0607
   7.1796E-02   7.3543E-02   2.8834E-04  0.0627
   7.3543E-02   7.5332E-02   3.0388E-04  0.0603
   7.5332E-02   7.7165E-02   2.8323E-04  0.0618
   7.7165E-02   7.9042E-02   2.5672E-04  0.0639
   7.9042E-02   8.0965E-02   2.9769E-04  0.0588
   8.0965E-02   8.2935E-02   2.7498E-04  0.0604
   8.2935E-02   8.4953E-02   2.5885E-04  0.0614
   8.4953E-02   8.7020E-02   2.2049E-04  0.0660
   8.7020E-02   8.9138E-02   2.4576E-04  0.0616
   8.9138E-02   9.1306E-02   2.0006E-04  0.0676
   9.1306E-02   9.3528E-02   2.4149E-04  0.0607
   9.3528E-02   9.5804E-02   2.1482E-04  0.0636
   9.5804E-02   9.8134E-02   2.1313E-04  0.0631
   9.8134E-02   1.0052E-01   2.3014E-04  0.0600
   1.0052E-01   1.0297E-01   2.1024E-04  0.0622
   1.0297E-01   1.0547E-01   1.9739E-04  0.0632
   1.0547E-01   1.0804E-01   2.2595E-04  0.0585
   1.0804E-01   1.1067E-01   1.9730E-04  0.0618
   1.1067E-01   1.1336E-01   2.1225E-04  0.0589
   1.1336E-01   1.1612E-01   1.8080E-04  0.0630
   1.1612E-01   1.1894E-01   2.0374E-04  0.0586
   1.1894E-01   1.2184E-01   1.7270E-04  0.0628
   1.2184E-01   1.2480E-01   1.7044E-04  0.0626
   1.2480E-01   1.2784E-01   1.8343E-04  0.0595
   1.2784E-01   1.3095E-01   1.8088E-04  0.0592
   1.3095E-01   1.3414E-01   1.7703E-04  0.0592
   1.3414E-01   1.3740E-01   1.8002E-04  0.0580
   1.3740E-01   1.4074E-01   1.6543E-04  0.0598
   1.4074E-01   1.4417E-01   1.6439E-04  0.0593
   1.4417E-01   1.4767E-01   1.7397E-04  0.0570
   1.4767E-01   1.5127E-01   1.4325E-04  0.0620
   1.5127E-01   1.5495E-01   1.5499E-04  0.0589
   1.5495E-01   1.5872E-01   1.5462E-04  0.0580
   1.5872E-01   1.6258E-01   1.4153E-04  0.0602
   1.6258E-01   1.6654E-01   1.3977E-04  0.0598
   1.6654E-01   1.7059E-01   1.4957E-04  0.0572
   1.7059E-01   1.7474E-01   1.2639E-04  0.0615
   1.7474E-01   1.7899E-01   1.2723E-04  0.0605
   1.7899E-01   1.8334E-01   1.2387E-04  0.0606
   1.8334E-01   1.8781E-01   1.1661E-04  0.0617
   1.8781E-01   1.9237E-01   1.2678E-04  0.0585
   1.9237E-01   1.9706E-01   1.2056E-04  0.0591
   1.9706E-01   2.0185E-01   1.2575E-04  0.0573
   2.0185E-01   2.0676E-01   1.1805E-04  0.0584
   2.0676E-01   2.1179E-01   1.4207E-04  0.0527
   2.1179E-01   2.1694E-01   1.2676E-04  0.0551
   2.1694E-01   2.2222E-01   1.3106E-04  0.0535
   2.2222E-01   2.2763E-01   1.4137E-04  0.0508
   2.2763E-01   2.3317E-01   1.6012E-04  0.0473
   2.3317E-01   2.3884E-01   1.4265E-04  0.0494
   2.3884E-01   2.4465E-01   1.6535E-04  0.0454
   2.4465E-01   2.5061E-01   1.7610E-04  0.0435
   2.5061E-01   2.5670E-01   1.5872E-04  0.0452
   2.5670E-01   2.6295E-01   1.7357E-04  0.0427
   2.6295E-01   2.6935E-01   1.8350E-04  0.0410
   2.6935E-01   2.7590E-01   1.8737E-04  0.0402
   2.7590E-01   2.8261E-01   1.9214E-04  0.0392
   2.8261E-01   2.8949E-01   2.0727E-04  0.0373
   2.8949E-01   2.9653E-01   2.0862E-04  0.0367
   2.9653E-01   3.0375E-01   2.0363E-04  0.0367
   3.0375E-01   3.1114E-01   2.1167E-04  0.0356
   3.1114E-01   3.1871E-01   2.2932E-04  0.0337
   3.1871E-01   3.2646E-01   2.2238E-04  0.0339
   3.2646E-01   3.3441E-01   2.1904E-04  0.0337
   3.3441E-01   3.4254E-01   2.3910E-04  0.0319
   3.4254E-01   3.5088E-01   2.5159E-04  0.0308
   3.5088E-01   3.5941E-01   2.5269E-04  0.0302
   3.5941E-01   3.6816E-01   2.5721E-04  0.0297
   3.6816E-01   3.7712E-01   2.6585E-04  0.0288
   3.7712E-01   3.8629E-01   2.7671E-04  0.0279
   3.8629E-01   3.9569E-01   2.7396E-04  0.0277
   3.9569E-01   4.0532E-01   2.7577E-04  0.0273
   4.0532E-01   4.1518E-01   2.8007E-04  0.0268
   4.1518E-01   4.2528E-01   2.9861E-04  0.0256
   4.2528E-01   4.3563E-01   2.8567E-04  0.0259
   4.3563E-01   4.4623E-01   3.0085E-04  0.0249
   4.4623E-01   4.5708E-01   3.0330E-04  0.0245
   4.5708E-01   4.6821E-01   3.1255E-04  0.0238
   4.6821E-01   4.7960E-01   3.1517E-04  0.0234
   4.7960E-01   4.9127E-01   3.2168E-04  0.0229
   4.9127E-01   5.0322E-01   3.3841E-04  0.0221
   5.0322E-01   5.1546E-01   3.3513E-04  0.0219
   5.1546E-01   5.2800E-01   3.3291E-04  0.0218
   5.2800E-01   5.4085E-01   3.4890E-04  0.0210
   5.4085E-01   5.5401E-01   3.5509E-04  0.0206
   5.5401E-01   5.6749E-01   3.6795E-04  0.0200
   5.6749E-01   5.8130E-01   3.5988E-04  0.0199
   5.8130E-01   5.9544E-01   3.7556E-04  0.0193
   5.9544E-01   6.0993E-01   3.8741E-04  0.0188
   6.0993E-01   6.2477E-01   3.8196E-04  0.0187
   6.2477E-01   6.3997E-01   3.8334E-04  0.0184
   6.3997E-01   6.5554E-01   3.8439E-04  0.0182
   6.5554E-01   6.7149E-01   3.9988E-04  0.0176
   6.7149E-01   6.8783E-01   3.9290E-04  0.0175
   6.8783E-01   7.0456E-01   4.0107E-04  0.0172
   7.0456E-01   7.2171E-01   3.9947E-04  0.0170
   7.2171E-01   7.3927E-01   4.0703E-04  0.0166
   7.3927E-01   7.5725E-01   3.9940E-04  0.0166
   7.5725E-01   7.7568E-01   4.1210E-04  0.0161
   7.7568E-01   7.9455E-01   4.0566E-04  0.0161
   7.9455E-01   8.1388E-01   4.1822E-04  0.0156
   8.1388E-01   8.3368E-01   4.2286E-04  0.0153
   8.3368E-01   8.5397E-01   4.2327E-04  0.0152
   8.5397E-01   8.7475E-01   4.3229E-04  0.0148
   8.7475E-01   8.9603E-01   4.1990E-04  0.0149
   8.9603E-01   9.1783E-01   4.1778E-04  0.0147
   9.1783E-01   9.4016E-01   4.4125E-04  0.0142
   9.4016E-01   9.6304E-01   4.2877E-04  0.0142
   9.6304E-01   9.8647E-01   4.2129E-04  0.0141
   9.8647E-01   1.0105E+00   4.4165E-04  0.0136
   1.0105E+00   1.0351E+00   4.3747E-04  0.0135
   1.0351E+00   1.0602E+00   4.2871E-04  0.0135
   1.0602E+00   1.0860E+00   4.2451E-04  0.0134
   1.0860E+00   1.1125E+00   4.2487E-04  0.0133
   1.1125E+00   1.1395E+00   4.3517E-04  0.0129
   1.1395E+00   1.1673E+00   4.3309E-04  0.0128
   1.1673E+00   1.1957E+00   4.3093E-04  0.0127
   1.1957E+00   1.2247E+00   4.2425E-04  0.0126
   1.2247E+00   1.2545E+00   4.3441E-04  0.0123
   1.2545E+00   1.2851E+00   4.3344E-04  0.0122
   1.2851E+00   1.3163E+00   4.2784E-04  0.0121
   1.3163E+00   1.3484E+00   4.2877E-04  0.0120
   1.3484E+00   1.3812E+00   4.3089E-04  0.0118
   1.3812E+00   1.4148E+00   4.3177E-04  0.0117
   1.4148E+00   1.4492E+00   4.3277E-04  0.0115
   1.4492E+00   1.4845E+00   4.3201E-04  0.0114
   1.4845E+00   1.5206E+00   4.4329E-04  0.0111
   1.5206E+00   1.5576E+00   4.2999E-04  0.0111
   1.5576E+00   1.5955E+00   4.2864E-04  0.0110
   1.5955E+00   1.6343E+00   4.1712E-04  0.0110
   1.6343E+00   1.6741E+00   4.1532E-04  0.0109
   1.6741E+00   1.7148E+00   4.1316E-04  0.0108
   1.7148E+00   1.7565E+00   4.1395E-04  0.0107
   1.7565E+00   1.7992E+00   4.1381E-04  0.0106
   1.7992E+00   1.8430E+00   4.0798E-04  0.0105
   1.8430E+00   1.8879E+00   4.0492E-04  0.0104
   1.8879E+00   1.9338E+00   4.0600E-04  0.0103
   1.9338E+00   1.9808E+00   4.0123E-04  0.0102
   1.9808E+00   2.0290E+00   3.9863E-04  0.0101
   2.0290E+00   2.0784E+00   4.0122E-04  0.0100
   2.0784E+00   2.1290E+00   3.9900E-04  0.0099
   2.1290E+00   2.1808E+00   3.9417E-04  0.0098
   2.1808E+00   2.2338E+00   3.8786E-04  0.0098
   2.2338E+00   2.2882E+00   3.8216E-04  0.0097
   2.2882E+00   2.3439E+00   3.8082E-04  0.0096
   2.3439E+00   2.4009E+00   3.7748E-04  0.0096
   2.4009E+00   2.4593E+00   3.8161E-04  0.0094
   2.4593E+00   2.5191E+00   3.7621E-04  0.0094
   2.5191E+00   2.5804E+00   3.7950E-04  0.0092
   2.5804E+00   2.6432E+00   3.6688E-04  0.0093
   2.6432E+00   2.7075E+00   3.6172E-04  0.0092
   2.7075E+00   2.7734E+00   3.5937E-04  0.0091
   2.7734E+00   2.8409E+00   3.6314E-04  0.0090
   2.8409E+00   2.9100E+00   3.5536E-04  0.0090
   2.9100E+00   2.9808E+00   3.5119E-04  0.0089
   2.9808E+00   3.0533E+00   3.4891E-04  0.0088
   3.0533E+00   3.1276E+00   3.4291E-04  0.0088
   3.1276E+00   3.2037E+00   3.3899E-04  0.0088
   3.2037E+00   3.2817E+00   3.3462E-04  0.0087
   3.2817E+00   3.3615E+00   3.3032E-04  0.0087
   3.3615E+00   3.4433E+00   3.2864E-04  0.0086
   3.4433E+00   3.5271E+00   3.2423E-04  0.0085
   3.5271E+00   3.6129E+00   3.2517E-04  0.0084
   3.6129E+00   3.7008E+00   3.1714E-04  0.0084
   3.7008E+00   3.7908E+00   3.1051E-04  0.0084
   3.7908E+00   3.8831E+00   3.0289E-04  0.0084
   3.8831E+00   3.9776E+00   3.0786E-04  0.0083
   3.9776E+00   4.0743E+00   3.0094E-04  0.0082
   4.0743E+00   4.1735E+00   2.9798E-04  0.0082
   4.1735E+00   4.2750E+00   2.9138E-04  0.0082
   4.2750E+00   4.3790E+00   2.9033E-04  0.0081
   4.3790E+00   4.4856E+00   2.8592E-04  0.0081
   4.4856E+00   4.5947E+00   2.7793E-04  0.0081
   4.5947E+00   4.7065E+00   2.7636E-04  0.0080
   4.7065E+00   4.8210E+00   2.7663E-04  0.0079
   4.8210E+00   4.9383E+00   2.7126E-04  0.0079
   4.9383E+00   5.0585E+00   2.7005E-04  0.0078
   5.0585E+00   5.1815E+00   2.6819E-04  0.0078
   5.1815E+00   5.3076E+00   2.6709E-04  0.0077
   5.3076E+00   5.4368E+00   2.6604E-04  0.0076
   5.4368E+00   5.5690E+00   2.5932E-04  0.0076
   5.5690E+00   5.7045E+00   2.5430E-04  0.0076
   5.7045E+00   5.8433E+00   2.5006E-04  0.0076
   5.8433E+00   5.9855E+00   2.4586E-04  0.0075
   5.9855E+00   6.1311E+00   2.4441E-04  0.0075
   6.1311E+00   6.2803E+00   2.3942E-04  0.0075
   6.2803E+00   6.4331E+00   2.3862E-04  0.0074
   6.4331E+00   6.5896E+00   2.2972E-04  0.0074
   6.5896E+00   6.7500E+00   2.2802E-04  0.0074
   6.7500E+00   6.9142E+00   2.2338E-04  0.0074
   6.9142E+00   7.0824E+00   2.2355E-04  0.0073
   7.0824E+00   7.2548E+00   2.1777E-04  0.0073
   7.2548E+00   7.4313E+00   2.1597E-04  0.0072
   7.4313E+00   7.6121E+00   2.1709E-04  0.0071
   7.6121E+00   7.7973E+00   2.0934E-04  0.0072
   7.7973E+00   7.9870E+00   2.1158E-04  0.0070
   7.9870E+00   8.1813E+00   2.0944E-04  0.0070
   8.1813E+00   8.3804E+00   2.0839E-04  0.0069
   8.3804E+00   8.5843E+00   2.0660E-04  0.0069
   8.5843E+00   8.7931E+00   2.0532E-04  0.0068
   8.7931E+00   9.0071E+00   2.0316E-04  0.0068
   9.0071E+00   9.2262E+00   2.0004E-04  0.0067
   9.2262E+00   9.4507E+00   2.0195E-04  0.0066
   9.4507E+00   9.6807E+00   2.0162E-04  0.0066
   9.6807E+00   9.9162E+00   2.0115E-04  0.0065
   9.9162E+00   1.0157E+01   1.9960E-04  0.0064
   1.0157E+01   1.0405E+01   2.0065E-04  0.0063
   1.0405E+01   1.0658E+01   1.9954E-04  0.0063
   1.0658E+01   1.0917E+01   2.0016E-04  0.0062
   1.0917E+01   1.1183E+01   2.0006E-04  0.0061
   1.1183E+01   1.1455E+01   2.0116E-04  0.0060
   1.1455E+01   1.1733E+01   2.0302E-04  0.0059
   1.1733E+01   1.2019E+01   2.0355E-04  0.0059
   1.2019E+01   1.2311E+01   2.0243E-04  0.0058
   1.2311E+01   1.2611E+01   2.0520E-04  0.0057
   1.2611E+01   1.2918E+01   2.0801E-04  0.0056
   1.2918E+01   1.3232E+01   2.1309E-04  0.0055
   1.3232E+01   1.3554E+01   2.1326E-04  0.0054
   1.3554E+01   1.3884E+01   2.1598E-04  0.0053
   1.3884E+01   1.4222E+01   2.1651E-04  0.0052
   1.4222E+01   1.4568E+01   2.2068E-04  0.0051
   1.4568E+01   1.4922E+01   2.2310E-04  0.0050
   1.4922E+01   1.5285E+01   2.2797E-04  0.0049
   1.5285E+01   1.5657E+01   2.3209E-04  0.0048
   1.5657E+01   1.6038E+01   2.3751E-04  0.0047
   1.6038E+01   1.6428E+01   2.4203E-04  0.0046
   1.6428E+01   1.6828E+01   2.4720E-04  0.0045
   1.6828E+01   1.7237E+01   2.4961E-04  0.0044
   1.7237E+01   1.7657E+01   2.5802E-04  0.0043
   1.7657E+01   1.8086E+01   2.6220E-04  0.0042
   1.8086E+01   1.8526E+01   2.6978E-04  0.0041
   1.8526E+01   1.8977E+01   2.7338E-04  0.0040
   1.8977E+01   1.9439E+01   2.8064E-04  0.0039
   1.9439E+01   1.9912E+01   2.9252E-04  0.0038
   1.9912E+01   2.0396E+01   2.9780E-04  0.0037
   2.0396E+01   2.0893E+01   3.1035E-04  0.0036
   2.0893E+01   2.1401E+01   3.1551E-04  0.0035
   2.1401E+01   2.1922E+01   3.2068E-04  0.0035
   2.1922E+01   2.2455E+01   3.2857E-04  0.0034
   2.2455E+01   2.3001E+01   3.3303E-04  0.0033
   2.3001E+01   2.3561E+01   3.3891E-04  0.0032
   2.3561E+01   2.4134E+01   3.4619E-04  0.0032
   2.4134E+01   2.4721E+01   3.5141E-04  0.0031
   2.4721E+01   2.5323E+01   3.5550E-04  0.0031
   2.5323E+01   2.5939E+01   3.6189E-04  0.0030
   2.5939E+01   2.6570E+01   3.6373E-04  0.0030
   2.6570E+01   2.7217E+01   3.6943E-04  0.0029
   2.7217E+01   2.7879E+01   3.7229E-04  0.0028
   2.7879E+01   2.8557E+01   3.7422E-04  0.0028
   2.8557E+01   2.9252E+01   3.7507E-04  0.0028
   2.9252E+01   2.9964E+01   3.7738E-04  0.0027
   2.9964E+01   3.0693E+01   3.7593E-04  0.0027
   3.0693E+01   3.1440E+01   3.7822E-04  0.0027
   3.1440E+01   3.2205E+01   3.7559E-04  0.0026
   3.2205E+01   3.2988E+01   3.7560E-04  0.0026
   3.2988E+01   3.3791E+01   3.7458E-04  0.0026
   3.3791E+01   3.4613E+01   3.7119E-04  0.0026
   3.4613E+01   3.5455E+01   3.6487E-04  0.0026
   3.5455E+01   3.6318E+01   3.5927E-04  0.0025
   3.6318E+01   3.7201E+01   3.5285E-04  0.0025
   3.7201E+01   3.8106E+01   3.4546E-04  0.0025
   3.8106E+01   3.9034E+01   3.3902E-04  0.0025
   3.9034E+01   3.9983E+01   3.2805E-04  0.0025
   3.9983E+01   4.0956E+01   3.1877E-04  0.0025
   4.0956E+01   4.1953E+01   3.0953E-04  0.0025
   4.1953E+01   4.2973E+01   3.0161E-04  0.0025
   4.2973E+01   4.4019E+01   2.8948E-04  0.0026
   4.4019E+01   4.5090E+01   2.7732E-04  0.0026
   4.5090E+01   4.6187E+01   2.6468E-04  0.0026
   4.6187E+01   4.7311E+01   2.5348E-04  0.0026
   4.7311E+01   4.8462E+01   2.3909E-04  0.0027
   4.8462E+01   4.9641E+01   2.2430E-04  0.0027
   4.9641E+01   5.0849E+01   2.0942E-04  0.0028
   5.0849E+01   5.2086E+01   1.9284E-04  0.0029
   5.2086E+01   5.3353E+01   1.7736E-04  0.0030
   5.3353E+01   5.4651E+01   1.6358E-04  0.0031
   5.4651E+01   5.5981E+01   1.4830E-04  0.0032
   5.5981E+01   5.7343E+01   1.3476E-04  0.0033
   5.7343E+01   5.8738E+01   1.2188E-04  0.0034
   5.8738E+01   6.0168E+01   1.0965E-04  0.0036
   6.0168E+01   6.1632E+01   9.7366E-05  0.0037
   6.1632E+01   6.3131E+01   8.6917E-05  0.0039
   6.3131E+01   6.4667E+01   7.6967E-05  0.0041
   6.4667E+01   6.6240E+01   6.7845E-05  0.0043
   6.6240E+01   6.7852E+01   5.9621E-05  0.0046
   6.7852E+01   6.9503E+01   5.1590E-05  0.0048
   6.9503E+01   7.1194E+01   4.4918E-05  0.0051
   7.1194E+01   7.2926E+01   3.8942E-05  0.0054
   7.2926E+01   7.4701E+01   3.3861E-05  0.0058
   7.4701E+01   7.6518E+01   2.8728E-05  0.0062
   7.6518E+01   7.8380E+01   2.4555E-05  0.0066
   7.8380E+01   8.0287E+01   2.1093E-05  0.0071
   8.0287E+01   8.2240E+01   1.7933E-05  0.0076
   8.2240E+01   8.4241E+01   1.5478E-05  0.0080
   8.4241E+01   8.6291E+01   1.3229E-05  0.0086
   8.6291E+01   8.8391E+01   1.1023E-05  0.0093
   8.8391E+01   9.0541E+01   9.7377E-06  0.0098
   9.0541E+01   9.2744E+01   8.4569E-06  0.0104
   9.2744E+01   9.5001E+01   6.5162E-06  0.0117
   9.5001E+01   9.7312E+01   3.3261E-06  0.0161
   9.7312E+01   9.9680E+01   8.9961E-07  0.0306
   9.9680E+01   1.0211E+02   2.8863E-08  0.1690
   1.0211E+02   1.0459E+02   0.0000E+00  0.0000
   1.0459E+02   1.0713E+02   0.0000E+00  0.0000
   1.0713E+02   1.0974E+02   0.0000E+00  0.0000
   1.0974E+02   1.1241E+02   0.0000E+00  0.0000
   1.1241E+02   1.1515E+02   0.0000E+00  0.0000
   1.1515E+02   1.1795E+02   0.0000E+00  0.0000
   1.1795E+02   1.2082E+02   0.0000E+00  0.0000
   1.2082E+02   1.2376E+02   0.0000E+00  0.0000
   1.2376E+02   1.2677E+02   0.0000E+00  0.0000
   1.2677E+02   1.2985E+02   0.0000E+00  0.0000
   1.2985E+02   1.3301E+02   0.0000E+00  0.0000
   1.3301E+02   1.3625E+02   0.0000E+00  0.0000
   1.3625E+02   1.3956E+02   0.0000E+00  0.0000
   1.3956E+02   1.4296E+02   0.0000E+00  0.0000
   1.4296E+02   1.4644E+02   0.0000E+00  0.0000
   1.4644E+02   1.5000E+02   0.0000E+00  0.0000

#   sum over                 1.1843E-04
'no. =    1   reg = 105 - 205'
msuc: {\huge [t-cross] in region mesh}
msdr: {\it plotted by \ANGEL \version}
msdl: {\it calculated by \PHITS  3.26}
wt: s(0.7)
\vspace{-3}
  region surface crossing
  area  &=&   1.0000E+00 [cm^2]
e:
 
# Information for Restart Calculation
# This calculation was newly started
# istdev =  2 # 1:Batch variance, 2:History variance
# resc2  = 5.00000000000000000E+08 # Total source weight or Total source weight / maxcas
# resc3  = 5.00000000000000000E+08 # Total history number or Total batch number
# maxcas =   500000000 # History / Batch, only used for istdev=1
# bitrseed = 1101101111010011011000101101110001100110110010110001010100010001 # bit data of rseed
