[ T-Cross ]
    title = [t-cross] in region mesh
     mesh =  reg            # mesh type is region-wise
      reg =    1            # number of crossing regions
      non     r-from    r-to       area
      1       100       200        1.000000    
   e-type =    3            # e-mesh is log given by emin, emax and ne
     emin =  1.0000000E-02  # minimum value of e-mesh points
     emax =   150.0000      # maximum value of e-mesh points
#    edel =  2.4039514E-02  # mesh width of e-mesh points
       ne =    400          # number of e-mesh points
#    data = ( e(i), i = 1, ne + 1 )
#           1.00000E-02  1.02433E-02  1.04925E-02  1.07478E-02  1.10093E-02
#           1.12772E-02  1.15516E-02  1.18326E-02  1.21205E-02  1.24154E-02
#           1.27175E-02  1.30269E-02  1.33439E-02  1.36686E-02  1.40011E-02
#           1.43418E-02  1.46907E-02  1.50482E-02  1.54143E-02  1.57894E-02
#           1.61735E-02  1.65670E-02  1.69701E-02  1.73830E-02  1.78060E-02
#           1.82392E-02  1.86830E-02  1.91375E-02  1.96032E-02  2.00801E-02
#           2.05687E-02  2.10692E-02  2.15818E-02  2.21069E-02  2.26448E-02
#           2.31957E-02  2.37601E-02  2.43382E-02  2.49304E-02  2.55369E-02
#           2.61583E-02  2.67947E-02  2.74467E-02  2.81145E-02  2.87985E-02
#           2.94992E-02  3.02169E-02  3.09521E-02  3.17052E-02  3.24766E-02
#           3.32668E-02  3.40762E-02  3.49053E-02  3.57546E-02  3.66246E-02
#           3.75157E-02  3.84284E-02  3.93634E-02  4.03212E-02  4.13022E-02
#           4.23071E-02  4.33365E-02  4.43909E-02  4.54710E-02  4.65773E-02
#           4.77106E-02  4.88714E-02  5.00605E-02  5.12785E-02  5.25262E-02
#           5.38042E-02  5.51133E-02  5.64542E-02  5.78278E-02  5.92348E-02
#           6.06760E-02  6.21523E-02  6.36645E-02  6.52135E-02  6.68002E-02
#           6.84255E-02  7.00904E-02  7.17957E-02  7.35426E-02  7.53319E-02
#           7.71648E-02  7.90423E-02  8.09655E-02  8.29354E-02  8.49533E-02
#           8.70203E-02  8.91376E-02  9.13064E-02  9.35279E-02  9.58035E-02
#           9.81345E-02  1.00522E-01  1.02968E-01  1.05473E-01  1.08040E-01
#           1.10668E-01  1.13361E-01  1.16119E-01  1.18944E-01  1.21838E-01
#           1.24803E-01  1.27839E-01  1.30950E-01  1.34136E-01  1.37399E-01
#           1.40742E-01  1.44167E-01  1.47675E-01  1.51268E-01  1.54948E-01
#           1.58718E-01  1.62580E-01  1.66535E-01  1.70587E-01  1.74738E-01
#           1.78989E-01  1.83344E-01  1.87805E-01  1.92375E-01  1.97055E-01
#           2.01850E-01  2.06761E-01  2.11792E-01  2.16945E-01  2.22223E-01
#           2.27630E-01  2.33169E-01  2.38842E-01  2.44653E-01  2.50605E-01
#           2.56703E-01  2.62949E-01  2.69346E-01  2.75900E-01  2.82613E-01
#           2.89489E-01  2.96532E-01  3.03747E-01  3.11138E-01  3.18708E-01
#           3.26462E-01  3.34405E-01  3.42542E-01  3.50876E-01  3.59413E-01
#           3.68158E-01  3.77116E-01  3.86291E-01  3.95690E-01  4.05317E-01
#           4.15179E-01  4.25281E-01  4.35628E-01  4.46227E-01  4.57084E-01
#           4.68205E-01  4.79597E-01  4.91266E-01  5.03219E-01  5.15463E-01
#           5.28005E-01  5.40851E-01  5.54011E-01  5.67490E-01  5.81298E-01
#           5.95441E-01  6.09929E-01  6.24769E-01  6.39970E-01  6.55541E-01
#           6.71491E-01  6.87828E-01  7.04564E-01  7.21706E-01  7.39266E-01
#           7.57253E-01  7.75678E-01  7.94551E-01  8.13883E-01  8.33685E-01
#           8.53969E-01  8.74747E-01  8.96030E-01  9.17831E-01  9.40163E-01
#           9.63038E-01  9.86469E-01  1.01047E+00  1.03506E+00  1.06024E+00
#           1.08604E+00  1.11246E+00  1.13953E+00  1.16725E+00  1.19565E+00
#           1.22474E+00  1.25454E+00  1.28507E+00  1.31633E+00  1.34836E+00
#           1.38117E+00  1.41477E+00  1.44920E+00  1.48446E+00  1.52057E+00
#           1.55757E+00  1.59547E+00  1.63429E+00  1.67405E+00  1.71478E+00
#           1.75650E+00  1.79924E+00  1.84302E+00  1.88786E+00  1.93379E+00
#           1.98084E+00  2.02904E+00  2.07841E+00  2.12898E+00  2.18078E+00
#           2.23384E+00  2.28819E+00  2.34386E+00  2.40089E+00  2.45930E+00
#           2.51914E+00  2.58043E+00  2.64322E+00  2.70753E+00  2.77341E+00
#           2.84088E+00  2.91001E+00  2.98081E+00  3.05333E+00  3.12762E+00
#           3.20372E+00  3.28167E+00  3.36152E+00  3.44330E+00  3.52708E+00
#           3.61290E+00  3.70080E+00  3.79085E+00  3.88308E+00  3.97756E+00
#           4.07434E+00  4.17347E+00  4.27501E+00  4.37903E+00  4.48557E+00
#           4.59471E+00  4.70650E+00  4.82102E+00  4.93832E+00  5.05847E+00
#           5.18155E+00  5.30762E+00  5.43676E+00  5.56904E+00  5.70453E+00
#           5.84333E+00  5.98550E+00  6.13114E+00  6.28031E+00  6.43312E+00
#           6.58964E+00  6.74997E+00  6.91420E+00  7.08243E+00  7.25475E+00
#           7.43126E+00  7.61207E+00  7.79728E+00  7.98700E+00  8.18133E+00
#           8.38038E+00  8.58428E+00  8.79315E+00  9.00709E+00  9.22624E+00
#           9.45072E+00  9.68067E+00  9.91620E+00  1.01575E+01  1.04046E+01
#           1.06578E+01  1.09171E+01  1.11827E+01  1.14548E+01  1.17335E+01
#           1.20190E+01  1.23114E+01  1.26109E+01  1.29178E+01  1.32321E+01
#           1.35540E+01  1.38838E+01  1.42216E+01  1.45676E+01  1.49221E+01
#           1.52851E+01  1.56570E+01  1.60380E+01  1.64282E+01  1.68279E+01
#           1.72374E+01  1.76568E+01  1.80864E+01  1.85264E+01  1.89772E+01
#           1.94389E+01  1.99119E+01  2.03963E+01  2.08926E+01  2.14009E+01
#           2.19216E+01  2.24550E+01  2.30014E+01  2.35610E+01  2.41343E+01
#           2.47215E+01  2.53230E+01  2.59391E+01  2.65702E+01  2.72167E+01
#           2.78789E+01  2.85572E+01  2.92520E+01  2.99637E+01  3.06928E+01
#           3.14396E+01  3.22045E+01  3.29881E+01  3.37907E+01  3.46128E+01
#           3.54550E+01  3.63177E+01  3.72013E+01  3.81064E+01  3.90336E+01
#           3.99833E+01  4.09561E+01  4.19526E+01  4.29734E+01  4.40189E+01
#           4.50900E+01  4.61870E+01  4.73108E+01  4.84619E+01  4.96410E+01
#           5.08488E+01  5.20860E+01  5.33533E+01  5.46514E+01  5.59812E+01
#           5.73432E+01  5.87384E+01  6.01676E+01  6.16315E+01  6.31311E+01
#           6.46671E+01  6.62405E+01  6.78522E+01  6.95031E+01  7.11941E+01
#           7.29263E+01  7.47007E+01  7.65182E+01  7.83800E+01  8.02870E+01
#           8.22405E+01  8.42414E+01  8.62911E+01  8.83906E+01  9.05412E+01
#           9.27442E+01  9.50007E+01  9.73122E+01  9.96799E+01  1.02105E+02
#           1.04589E+02  1.07134E+02  1.09741E+02  1.12411E+02  1.15146E+02
#           1.17948E+02  1.20817E+02  1.23757E+02  1.26768E+02  1.29852E+02
#           1.33012E+02  1.36248E+02  1.39563E+02  1.42959E+02  1.46437E+02
#           1.50000E+02
     unit =    2            # unit is [1/cm^2/(MeV/n)/source]
     axis =  eng            # axis of output
     file = detector-01.out  # file name of output for the above axis
   output = f-curr          # surface crossing forward current spectrum
     part =  neutron  
# kf/name :  2112     
#    used :        main (  %)        temp (  %)       total (  %)
#  memory :         414 (  0)           0 (  0)         414 (  0)

#------------------------------------------------------------------------------
#newpage:
#   no. =    1   reg = 100 - 200

x: Energy [MeV/n]
y:  F-Curr [1/cm^2/(MeV/n)/source]         
p: xlog ylog afac(0.8) form(0.9)
h: n            x            y(neutron ),hh0l   n 
#  e-lower      e-upper      neutron     r.err 
   1.0000E-02   1.0243E-02   2.0494E-05  0.2000
   1.0243E-02   1.0493E-02   1.1856E-05  0.2585
   1.0493E-02   1.0748E-02   1.7930E-05  0.2070
   1.0748E-02   1.1009E-02   2.5182E-05  0.1741
   1.1009E-02   1.1277E-02   1.5627E-05  0.2182
   1.1277E-02   1.1552E-02   1.6684E-05  0.2085
   1.1552E-02   1.1833E-02   1.2755E-05  0.2357
   1.1833E-02   1.2121E-02   1.8705E-05  0.1925
   1.2121E-02   1.2415E-02   1.7544E-05  0.1961
   1.2415E-02   1.2718E-02   1.4773E-05  0.2101
   1.2718E-02   1.3027E-02   2.0617E-05  0.1768
   1.3027E-02   1.3344E-02   1.5586E-05  0.2001
   1.3344E-02   1.3669E-02   1.8340E-05  0.1826
   1.3669E-02   1.4001E-02   1.7374E-05  0.1857
   1.4001E-02   1.4342E-02   1.4017E-05  0.2041
   1.4342E-02   1.4691E-02   1.7048E-05  0.1826
   1.4691E-02   1.5048E-02   1.9522E-05  0.1690
   1.5048E-02   1.5414E-02   1.2420E-05  0.2087
   1.5414E-02   1.5789E-02   1.7553E-05  0.1741
   1.5789E-02   1.6174E-02   1.0376E-05  0.2236
   1.6174E-02   1.6567E-02   1.2173E-05  0.2041
   1.6567E-02   1.6970E-02   1.3339E-05  0.1925
   1.6970E-02   1.7383E-02   2.1153E-05  0.1508
   1.7383E-02   1.7806E-02   1.0367E-05  0.2132
   1.7806E-02   1.8239E-02   1.1975E-05  0.1961
   1.8239E-02   1.8683E-02   1.1223E-05  0.2000
   1.8683E-02   1.9138E-02   1.1841E-05  0.1925
   1.9138E-02   1.9603E-02   1.4558E-05  0.1715
   1.9603E-02   2.0080E-02   9.5976E-06  0.2085
   2.0080E-02   2.0569E-02   1.3472E-05  0.1732
   2.0569E-02   2.1069E-02   9.9203E-06  0.2000
   2.1069E-02   2.1582E-02   1.1281E-05  0.1857
   2.1582E-02   2.2107E-02   1.2149E-05  0.1768
   2.2107E-02   2.2645E-02   1.1382E-05  0.1797
   2.2645E-02   2.3196E-02   1.0133E-05  0.1890
   2.3196E-02   2.3760E-02   1.0725E-05  0.1804
   2.3760E-02   2.4338E-02   7.9329E-06  0.2085
   2.4338E-02   2.4930E-02   1.0357E-05  0.1797
   2.4930E-02   2.5537E-02   8.5547E-06  0.1961
   2.5537E-02   2.6158E-02   9.6297E-06  0.1826
   2.6158E-02   2.6795E-02   8.1268E-06  0.1961
   2.6795E-02   2.7447E-02   9.4850E-06  0.1796
   2.7447E-02   2.8114E-02   7.4645E-06  0.2000
   2.8114E-02   2.8799E-02   8.1086E-06  0.1891
   2.8799E-02   2.9499E-02   8.0806E-06  0.1861
   2.9499E-02   3.0217E-02   4.7177E-06  0.2425
   3.0217E-02   3.0952E-02   6.8238E-06  0.1987
   3.0952E-02   3.1705E-02   8.2071E-06  0.1796
   3.1705E-02   3.2477E-02   8.0047E-06  0.1796
   3.2477E-02   3.3267E-02   8.3283E-06  0.1729
   3.3267E-02   3.4076E-02   5.2446E-06  0.2154
   3.4076E-02   3.4905E-02   6.7385E-06  0.1890
   3.4905E-02   3.5755E-02   5.8551E-06  0.2000
   3.5755E-02   3.6625E-02   7.5451E-06  0.1741
   3.6625E-02   3.7516E-02   4.9065E-06  0.2133
   3.7516E-02   3.8428E-02   6.5442E-06  0.1826
   3.8428E-02   3.9363E-02   5.9706E-06  0.1890
   3.9363E-02   4.0321E-02   5.5573E-06  0.1927
   4.0321E-02   4.1302E-02   7.8798E-06  0.1602
   4.1302E-02   4.2307E-02   5.5521E-06  0.1890
   4.2307E-02   4.3337E-02   5.8068E-06  0.1826
   4.3337E-02   4.4391E-02   5.3996E-06  0.1861
   4.4391E-02   4.5471E-02   6.8101E-06  0.1644
   4.5471E-02   4.6577E-02   5.1960E-06  0.1858
   4.6577E-02   4.7711E-02   4.2224E-06  0.2041
   4.7711E-02   4.8871E-02   5.5547E-06  0.1747
   4.8871E-02   5.0061E-02   5.4323E-06  0.1744
   5.0061E-02   5.1279E-02   4.8934E-06  0.1826
   5.1279E-02   5.2526E-02   5.5919E-06  0.1690
   5.2526E-02   5.3804E-02   5.9282E-06  0.1622
   5.3804E-02   5.5113E-02   3.9586E-06  0.1961
   5.5113E-02   5.6454E-02   4.2828E-06  0.1858
   5.6454E-02   5.7828E-02   5.6461E-06  0.1601
   5.7828E-02   5.9235E-02   4.3649E-06  0.1791
   5.9235E-02   6.0676E-02   3.4332E-06  0.2001
   6.0676E-02   6.2152E-02   3.8786E-06  0.1859
   6.2152E-02   6.3665E-02   3.3293E-06  0.1966
   6.3665E-02   6.5214E-02   4.3726E-06  0.1715
   6.5214E-02   6.6800E-02   3.5152E-06  0.1890
   6.6800E-02   6.8426E-02   3.6803E-06  0.1826
   6.8426E-02   7.0090E-02   2.6058E-06  0.2134
   7.0090E-02   7.1796E-02   3.8866E-06  0.1728
   7.1796E-02   7.3543E-02   2.3973E-06  0.2182
   7.3543E-02   7.5332E-02   3.1207E-06  0.1890
   7.5332E-02   7.7165E-02   3.7683E-06  0.1692
   7.7165E-02   7.9042E-02   3.3936E-06  0.1768
   7.9042E-02   8.0965E-02   3.1076E-06  0.1826
   8.0965E-02   8.2935E-02   3.6490E-06  0.1667
   8.2935E-02   8.4953E-02   4.8980E-06  0.1412
   8.4953E-02   8.7020E-02   3.2448E-06  0.1710
   8.7020E-02   8.9138E-02   2.9029E-06  0.1797
   8.9138E-02   9.1306E-02   2.8237E-06  0.1797
   9.1306E-02   9.3528E-02   2.5076E-06  0.1890
   9.3528E-02   9.5804E-02   2.5099E-06  0.1859
   9.5804E-02   9.8134E-02   2.5658E-06  0.1826
   9.8134E-02   1.0052E-01   2.8007E-06  0.1720
   1.0052E-01   1.0297E-01   1.7650E-06  0.2138
   1.0297E-01   1.0547E-01   2.8329E-06  0.1669
   1.0547E-01   1.0804E-01   3.0252E-06  0.1601
   1.0804E-01   1.1067E-01   3.6189E-06  0.1444
   1.1067E-01   1.1336E-01   3.5543E-06  0.1443
   1.1336E-01   1.1612E-01   3.1336E-06  0.1509
   1.1612E-01   1.1894E-01   3.3486E-06  0.1446
   1.1894E-01   1.2184E-01   4.2719E-06  0.1270
   1.2184E-01   1.2480E-01   4.9070E-06  0.1170
   1.2480E-01   1.2784E-01   4.8716E-06  0.1159
   1.2784E-01   1.3095E-01   4.3425E-06  0.1211
   1.3095E-01   1.3414E-01   4.5482E-06  0.1171
   1.3414E-01   1.3740E-01   4.0621E-06  0.1220
   1.3740E-01   1.4074E-01   4.7471E-06  0.1119
   1.4074E-01   1.4417E-01   4.8877E-06  0.1088
   1.4417E-01   1.4767E-01   4.7349E-06  0.1092
   1.4767E-01   1.5127E-01   4.8109E-06  0.1072
   1.5127E-01   1.5495E-01   5.5152E-06  0.0988
   1.5495E-01   1.5872E-01   5.5404E-06  0.0975
   1.5872E-01   1.6258E-01   5.8379E-06  0.0937
   1.6258E-01   1.6654E-01   5.8750E-06  0.0923
   1.6654E-01   1.7059E-01   6.7482E-06  0.0852
   1.7059E-01   1.7474E-01   7.3981E-06  0.0804
   1.7474E-01   1.7899E-01   7.5653E-06  0.0786
   1.7899E-01   1.8334E-01   7.9475E-06  0.0756
   1.8334E-01   1.8781E-01   7.2325E-06  0.0784
   1.8781E-01   1.9237E-01   8.6354E-06  0.0709
   1.9237E-01   1.9706E-01   7.2177E-06  0.0767
   1.9706E-01   2.0185E-01   8.6498E-06  0.0692
   2.0185E-01   2.0676E-01   8.3652E-06  0.0694
   2.0676E-01   2.1179E-01   9.3939E-06  0.0648
   2.1179E-01   2.1694E-01   8.5919E-06  0.0670
   2.1694E-01   2.2222E-01   8.7664E-06  0.0654
   2.2222E-01   2.2763E-01   1.0518E-05  0.0590
   2.2763E-01   2.3317E-01   1.0130E-05  0.0595
   2.3317E-01   2.3884E-01   9.2634E-06  0.0614
   2.3884E-01   2.4465E-01   1.0985E-05  0.0558
   2.4465E-01   2.5061E-01   1.0527E-05  0.0563
   2.5061E-01   2.5670E-01   1.0595E-05  0.0554
   2.5670E-01   2.6295E-01   1.2239E-05  0.0510
   2.6295E-01   2.6935E-01   1.2309E-05  0.0502
   2.6935E-01   2.7590E-01   1.1917E-05  0.0504
   2.7590E-01   2.8261E-01   1.3109E-05  0.0475
   2.8261E-01   2.8949E-01   1.3166E-05  0.0468
   2.8949E-01   2.9653E-01   1.2386E-05  0.0477
   2.9653E-01   3.0375E-01   1.4040E-05  0.0443
   3.0375E-01   3.1114E-01   1.3617E-05  0.0444
   3.1114E-01   3.1871E-01   1.4803E-05  0.0421
   3.1871E-01   3.2646E-01   1.4668E-05  0.0417
   3.2646E-01   3.3441E-01   1.5208E-05  0.0405
   3.3441E-01   3.4254E-01   1.5112E-05  0.0401
   3.4254E-01   3.5088E-01   1.6537E-05  0.0379
   3.5088E-01   3.5941E-01   1.5683E-05  0.0385
   3.5941E-01   3.6816E-01   1.5493E-05  0.0383
   3.6816E-01   3.7712E-01   1.6467E-05  0.0367
   3.7712E-01   3.8629E-01   1.7540E-05  0.0351
   3.8629E-01   3.9569E-01   1.7168E-05  0.0350
   3.9569E-01   4.0532E-01   1.6713E-05  0.0351
   4.0532E-01   4.1518E-01   1.7035E-05  0.0343
   4.1518E-01   4.2528E-01   1.7380E-05  0.0336
   4.2528E-01   4.3563E-01   1.7848E-05  0.0328
   4.3563E-01   4.4623E-01   1.8626E-05  0.0317
   4.4623E-01   4.5708E-01   1.8895E-05  0.0311
   4.5708E-01   4.6821E-01   1.8177E-05  0.0313
   4.6821E-01   4.7960E-01   1.9562E-05  0.0298
   4.7960E-01   4.9127E-01   1.8668E-05  0.0301
   4.9127E-01   5.0322E-01   2.0559E-05  0.0284
   5.0322E-01   5.1546E-01   1.9282E-05  0.0290
   5.1546E-01   5.2800E-01   2.0073E-05  0.0280
   5.2800E-01   5.4085E-01   2.0501E-05  0.0274
   5.4085E-01   5.5401E-01   1.9541E-05  0.0277
   5.5401E-01   5.6749E-01   2.1017E-05  0.0264
   5.6749E-01   5.8130E-01   1.9523E-05  0.0271
   5.8130E-01   5.9544E-01   2.0254E-05  0.0263
   5.9544E-01   6.0993E-01   1.9953E-05  0.0262
   6.0993E-01   6.2477E-01   1.9804E-05  0.0260
   6.2477E-01   6.3997E-01   2.0684E-05  0.0251
   6.3997E-01   6.5554E-01   2.0447E-05  0.0249
   6.5554E-01   6.7149E-01   2.0257E-05  0.0247
   6.7149E-01   6.8783E-01   1.9985E-05  0.0246
   6.8783E-01   7.0456E-01   2.0244E-05  0.0242
   7.0456E-01   7.2171E-01   1.9146E-05  0.0245
   7.2171E-01   7.3927E-01   1.9673E-05  0.0239
   7.3927E-01   7.5725E-01   2.0005E-05  0.0234
   7.5725E-01   7.7568E-01   1.9845E-05  0.0232
   7.7568E-01   7.9455E-01   1.9685E-05  0.0231
   7.9455E-01   8.1388E-01   1.9139E-05  0.0231
   8.1388E-01   8.3368E-01   1.8480E-05  0.0232
   8.3368E-01   8.5397E-01   1.8041E-05  0.0232
   8.5397E-01   8.7475E-01   1.8612E-05  0.0226
   8.7475E-01   8.9603E-01   1.7841E-05  0.0228
   8.9603E-01   9.1783E-01   1.7613E-05  0.0227
   9.1783E-01   9.4016E-01   1.6905E-05  0.0228
   9.4016E-01   9.6304E-01   1.6032E-05  0.0232
   9.6304E-01   9.8647E-01   1.5534E-05  0.0232
   9.8647E-01   1.0105E+00   1.4637E-05  0.0237
   1.0105E+00   1.0351E+00   1.5081E-05  0.0230
   1.0351E+00   1.0602E+00   1.5689E-05  0.0223
   1.0602E+00   1.0860E+00   1.5617E-05  0.0221
   1.0860E+00   1.1125E+00   1.5662E-05  0.0218
   1.1125E+00   1.1395E+00   1.6021E-05  0.0213
   1.1395E+00   1.1673E+00   1.6136E-05  0.0210
   1.1673E+00   1.1957E+00   1.6670E-05  0.0203
   1.1957E+00   1.2247E+00   1.7547E-05  0.0196
   1.2247E+00   1.2545E+00   1.7712E-05  0.0193
   1.2545E+00   1.2851E+00   1.8000E-05  0.0189
   1.2851E+00   1.3163E+00   1.7775E-05  0.0188
   1.3163E+00   1.3484E+00   1.8635E-05  0.0181
   1.3484E+00   1.3812E+00   1.8011E-05  0.0182
   1.3812E+00   1.4148E+00   1.8533E-05  0.0177
   1.4148E+00   1.4492E+00   1.9127E-05  0.0172
   1.4492E+00   1.4845E+00   1.9085E-05  0.0170
   1.4845E+00   1.5206E+00   1.8228E-05  0.0172
   1.5206E+00   1.5576E+00   1.9112E-05  0.0166
   1.5576E+00   1.5955E+00   1.7965E-05  0.0169
   1.5955E+00   1.6343E+00   1.8328E-05  0.0165
   1.6343E+00   1.6741E+00   1.8540E-05  0.0162
   1.6741E+00   1.7148E+00   1.8313E-05  0.0161
   1.7148E+00   1.7565E+00   1.8729E-05  0.0158
   1.7565E+00   1.7992E+00   1.7183E-05  0.0162
   1.7992E+00   1.8430E+00   1.6613E-05  0.0163
   1.8430E+00   1.8879E+00   1.6542E-05  0.0161
   1.8879E+00   1.9338E+00   1.6526E-05  0.0159
   1.9338E+00   1.9808E+00   1.6736E-05  0.0156
   1.9808E+00   2.0290E+00   1.6586E-05  0.0155
   2.0290E+00   2.0784E+00   1.6717E-05  0.0152
   2.0784E+00   2.1290E+00   1.6945E-05  0.0149
   2.1290E+00   2.1808E+00   1.6776E-05  0.0148
   2.1808E+00   2.2338E+00   1.6935E-05  0.0146
   2.2338E+00   2.2882E+00   1.6929E-05  0.0144
   2.2882E+00   2.3439E+00   1.6341E-05  0.0145
   2.3439E+00   2.4009E+00   1.5606E-05  0.0147
   2.4009E+00   2.4593E+00   1.6454E-05  0.0141
   2.4593E+00   2.5191E+00   1.6000E-05  0.0142
   2.5191E+00   2.5804E+00   1.5670E-05  0.0141
   2.5804E+00   2.6432E+00   1.5723E-05  0.0140
   2.6432E+00   2.7075E+00   1.5906E-05  0.0137
   2.7075E+00   2.7734E+00   1.5752E-05  0.0136
   2.7734E+00   2.8409E+00   1.5582E-05  0.0135
   2.8409E+00   2.9100E+00   1.5855E-05  0.0133
   2.9100E+00   2.9808E+00   1.5407E-05  0.0133
   2.9808E+00   3.0533E+00   1.4995E-05  0.0133
   3.0533E+00   3.1276E+00   1.4632E-05  0.0133
   3.1276E+00   3.2037E+00   1.4552E-05  0.0132
   3.2037E+00   3.2817E+00   1.4597E-05  0.0130
   3.2817E+00   3.3615E+00   1.4503E-05  0.0129
   3.3615E+00   3.4433E+00   1.4497E-05  0.0128
   3.4433E+00   3.5271E+00   1.4418E-05  0.0127
   3.5271E+00   3.6129E+00   1.4368E-05  0.0125
   3.6129E+00   3.7008E+00   1.4329E-05  0.0124
   3.7008E+00   3.7908E+00   1.4035E-05  0.0124
   3.7908E+00   3.8831E+00   1.4196E-05  0.0122
   3.8831E+00   3.9776E+00   1.3795E-05  0.0122
   3.9776E+00   4.0743E+00   1.3638E-05  0.0122
   4.0743E+00   4.1735E+00   1.3377E-05  0.0121
   4.1735E+00   4.2750E+00   1.3534E-05  0.0119
   4.2750E+00   4.3790E+00   1.3001E-05  0.0120
   4.3790E+00   4.4856E+00   1.3215E-05  0.0118
   4.4856E+00   4.5947E+00   1.2578E-05  0.0119
   4.5947E+00   4.7065E+00   1.2211E-05  0.0119
   4.7065E+00   4.8210E+00   1.2201E-05  0.0118
   4.8210E+00   4.9383E+00   1.2172E-05  0.0117
   4.9383E+00   5.0585E+00   1.2046E-05  0.0116
   5.0585E+00   5.1815E+00   1.1859E-05  0.0116
   5.1815E+00   5.3076E+00   1.1818E-05  0.0114
   5.3076E+00   5.4368E+00   1.1525E-05  0.0114
   5.4368E+00   5.5690E+00   1.1430E-05  0.0113
   5.5690E+00   5.7045E+00   1.1051E-05  0.0114
   5.7045E+00   5.8433E+00   1.1146E-05  0.0112
   5.8433E+00   5.9855E+00   1.1173E-05  0.0111
   5.9855E+00   6.1311E+00   1.1031E-05  0.0110
   6.1311E+00   6.2803E+00   1.0922E-05  0.0110
   6.2803E+00   6.4331E+00   1.0621E-05  0.0110
   6.4331E+00   6.5896E+00   1.0610E-05  0.0109
   6.5896E+00   6.7500E+00   1.0549E-05  0.0108
   6.7500E+00   6.9142E+00   1.0328E-05  0.0107
   6.9142E+00   7.0824E+00   1.0173E-05  0.0107
   7.0824E+00   7.2548E+00   1.0022E-05  0.0106
   7.2548E+00   7.4313E+00   9.9142E-06  0.0106
   7.4313E+00   7.6121E+00   9.5275E-06  0.0107
   7.6121E+00   7.7973E+00   9.5370E-06  0.0105
   7.7973E+00   7.9870E+00   9.4322E-06  0.0105
   7.9870E+00   8.1813E+00   9.4125E-06  0.0104
   8.1813E+00   8.3804E+00   9.0305E-06  0.0105
   8.3804E+00   8.5843E+00   8.9602E-06  0.0104
   8.5843E+00   8.7931E+00   8.7468E-06  0.0104
   8.7931E+00   9.0071E+00   8.7035E-06  0.0103
   9.0071E+00   9.2262E+00   8.3429E-06  0.0104
   9.2262E+00   9.4507E+00   8.3312E-06  0.0103
   9.4507E+00   9.6807E+00   8.0252E-06  0.0103
   9.6807E+00   9.9162E+00   8.0064E-06  0.0103
   9.9162E+00   1.0157E+01   8.2081E-06  0.0100
   1.0157E+01   1.0405E+01   7.9973E-06  0.0100
   1.0405E+01   1.0658E+01   7.7819E-06  0.0100
   1.0658E+01   1.0917E+01   7.6687E-06  0.0100
   1.0917E+01   1.1183E+01   7.6541E-06  0.0099
   1.1183E+01   1.1455E+01   7.5243E-06  0.0099
   1.1455E+01   1.1733E+01   7.2547E-06  0.0099
   1.1733E+01   1.2019E+01   7.2443E-06  0.0098
   1.2019E+01   1.2311E+01   7.1838E-06  0.0097
   1.2311E+01   1.2611E+01   7.0789E-06  0.0097
   1.2611E+01   1.2918E+01   6.8640E-06  0.0097
   1.2918E+01   1.3232E+01   6.9921E-06  0.0095
   1.3232E+01   1.3554E+01   6.8807E-06  0.0095
   1.3554E+01   1.3884E+01   6.6186E-06  0.0096
   1.3884E+01   1.4222E+01   6.6001E-06  0.0095
   1.4222E+01   1.4568E+01   6.6421E-06  0.0093
   1.4568E+01   1.4922E+01   6.5976E-06  0.0092
   1.4922E+01   1.5285E+01   6.4022E-06  0.0093
   1.5285E+01   1.5657E+01   6.4296E-06  0.0091
   1.5657E+01   1.6038E+01   6.1636E-06  0.0092
   1.6038E+01   1.6428E+01   6.1685E-06  0.0091
   1.6428E+01   1.6828E+01   6.1413E-06  0.0090
   1.6828E+01   1.7237E+01   6.0134E-06  0.0090
   1.7237E+01   1.7657E+01   5.8509E-06  0.0090
   1.7657E+01   1.8086E+01   5.7224E-06  0.0090
   1.8086E+01   1.8526E+01   5.7194E-06  0.0089
   1.8526E+01   1.8977E+01   5.5289E-06  0.0090
   1.8977E+01   1.9439E+01   5.5295E-06  0.0089
   1.9439E+01   1.9912E+01   5.6022E-06  0.0087
   1.9912E+01   2.0396E+01   5.4241E-06  0.0087
   2.0396E+01   2.0893E+01   5.2827E-06  0.0087
   2.0893E+01   2.1401E+01   5.1812E-06  0.0087
   2.1401E+01   2.1922E+01   5.1588E-06  0.0086
   2.1922E+01   2.2455E+01   5.0618E-06  0.0086
   2.2455E+01   2.3001E+01   4.9719E-06  0.0086
   2.3001E+01   2.3561E+01   4.8427E-06  0.0086
   2.3561E+01   2.4134E+01   4.7549E-06  0.0086
   2.4134E+01   2.4721E+01   4.6549E-06  0.0086
   2.4721E+01   2.5323E+01   4.4955E-06  0.0086
   2.5323E+01   2.5939E+01   4.3105E-06  0.0087
   2.5939E+01   2.6570E+01   4.2588E-06  0.0086
   2.6570E+01   2.7217E+01   4.1929E-06  0.0086
   2.7217E+01   2.7879E+01   4.0244E-06  0.0087
   2.7879E+01   2.8557E+01   4.5492E-06  0.0081
   2.8557E+01   2.9252E+01   4.8211E-06  0.0077
   2.9252E+01   2.9964E+01   4.7589E-06  0.0077
   2.9964E+01   3.0693E+01   4.6733E-06  0.0077
   3.0693E+01   3.1440E+01   4.5947E-06  0.0076
   3.1440E+01   3.2205E+01   4.5200E-06  0.0076
   3.2205E+01   3.2988E+01   4.4533E-06  0.0076
   3.2988E+01   3.3791E+01   4.3799E-06  0.0075
   3.3791E+01   3.4613E+01   4.2822E-06  0.0075
   3.4613E+01   3.5455E+01   4.2132E-06  0.0075
   3.5455E+01   3.6318E+01   4.1764E-06  0.0075
   3.6318E+01   3.7201E+01   4.0836E-06  0.0074
   3.7201E+01   3.8106E+01   4.0898E-06  0.0074
   3.8106E+01   3.9034E+01   3.9618E-06  0.0074
   3.9034E+01   3.9983E+01   3.9399E-06  0.0073
   3.9983E+01   4.0956E+01   3.8548E-06  0.0073
   4.0956E+01   4.1953E+01   3.8453E-06  0.0072
   4.1953E+01   4.2973E+01   3.7749E-06  0.0072
   4.2973E+01   4.4019E+01   3.7470E-06  0.0071
   4.4019E+01   4.5090E+01   3.6494E-06  0.0072
   4.5090E+01   4.6187E+01   3.6120E-06  0.0071
   4.6187E+01   4.7311E+01   3.5082E-06  0.0071
   4.7311E+01   4.8462E+01   3.2183E-06  0.0073
   4.8462E+01   4.9641E+01   2.4149E-06  0.0084
   4.9641E+01   5.0849E+01   2.3676E-06  0.0084
   5.0849E+01   5.2086E+01   2.2267E-06  0.0085
   5.2086E+01   5.3353E+01   2.1727E-06  0.0085
   5.3353E+01   5.4651E+01   2.0955E-06  0.0086
   5.4651E+01   5.5981E+01   2.0168E-06  0.0086
   5.5981E+01   5.7343E+01   1.9068E-06  0.0088
   5.7343E+01   5.8738E+01   1.7974E-06  0.0089
   5.8738E+01   6.0168E+01   1.7175E-06  0.0090
   6.0168E+01   6.1632E+01   1.6323E-06  0.0091
   6.1632E+01   6.3131E+01   1.5317E-06  0.0093
   6.3131E+01   6.4667E+01   1.3988E-06  0.0096
   6.4667E+01   6.6240E+01   1.2599E-06  0.0100
   6.6240E+01   6.7852E+01   1.1463E-06  0.0104
   6.7852E+01   6.9503E+01   9.5524E-07  0.0113
   6.9503E+01   7.1194E+01   8.6454E-07  0.0117
   7.1194E+01   7.2926E+01   4.3528E-08  0.0515
   7.2926E+01   7.4701E+01   0.0000E+00  0.0000
   7.4701E+01   7.6518E+01   0.0000E+00  0.0000
   7.6518E+01   7.8380E+01   0.0000E+00  0.0000
   7.8380E+01   8.0287E+01   0.0000E+00  0.0000
   8.0287E+01   8.2240E+01   0.0000E+00  0.0000
   8.2240E+01   8.4241E+01   0.0000E+00  0.0000
   8.4241E+01   8.6291E+01   0.0000E+00  0.0000
   8.6291E+01   8.8391E+01   0.0000E+00  0.0000
   8.8391E+01   9.0541E+01   0.0000E+00  0.0000
   9.0541E+01   9.2744E+01   0.0000E+00  0.0000
   9.2744E+01   9.5001E+01   0.0000E+00  0.0000
   9.5001E+01   9.7312E+01   0.0000E+00  0.0000
   9.7312E+01   9.9680E+01   0.0000E+00  0.0000
   9.9680E+01   1.0211E+02   0.0000E+00  0.0000
   1.0211E+02   1.0459E+02   0.0000E+00  0.0000
   1.0459E+02   1.0713E+02   0.0000E+00  0.0000
   1.0713E+02   1.0974E+02   0.0000E+00  0.0000
   1.0974E+02   1.1241E+02   0.0000E+00  0.0000
   1.1241E+02   1.1515E+02   0.0000E+00  0.0000
   1.1515E+02   1.1795E+02   0.0000E+00  0.0000
   1.1795E+02   1.2082E+02   0.0000E+00  0.0000
   1.2082E+02   1.2376E+02   0.0000E+00  0.0000
   1.2376E+02   1.2677E+02   0.0000E+00  0.0000
   1.2677E+02   1.2985E+02   0.0000E+00  0.0000
   1.2985E+02   1.3301E+02   0.0000E+00  0.0000
   1.3301E+02   1.3625E+02   0.0000E+00  0.0000
   1.3625E+02   1.3956E+02   0.0000E+00  0.0000
   1.3956E+02   1.4296E+02   0.0000E+00  0.0000
   1.4296E+02   1.4644E+02   0.0000E+00  0.0000
   1.4644E+02   1.5000E+02   0.0000E+00  0.0000

#   sum over                 2.3222E-06
'no. =    1   reg = 100 - 200'
msuc: {\huge [t-cross] in region mesh}
msdr: {\it plotted by \ANGEL \version}
msdl: {\it calculated by \PHITS  3.26}
wt: s(0.7)
\vspace{-3}
  region surface crossing
  area  &=&   1.0000E+00 [cm^2]
e:
 
# Information for Restart Calculation
# This calculation was newly started
# istdev =  2 # 1:Batch variance, 2:History variance
# resc2  = 5.00000000000000000E+09 # Total source weight or Total source weight / maxcas
# resc3  = 5.00000000000000000E+09 # Total history number or Total batch number
# maxcas =   100000000 # History / Batch, only used for istdev=1
# bitrseed = 0110100000100010111000001110001111001110100100011111101000111001 # bit data of rseed
