[ T-Cross ]
    title = [t-cross] in region mesh
     mesh =  reg            # mesh type is region-wise
      reg =    1            # number of crossing regions
      non     r-from    r-to       area
      1       108       208        1.000000    
   e-type =    3            # e-mesh is log given by emin, emax and ne
     emin =  1.0000000E-02  # minimum value of e-mesh points
     emax =   150.0000      # maximum value of e-mesh points
#    edel =  2.4039514E-02  # mesh width of e-mesh points
       ne =    400          # number of e-mesh points
#    data = ( e(i), i = 1, ne + 1 )
#           1.00000E-02  1.02433E-02  1.04925E-02  1.07478E-02  1.10093E-02
#           1.12772E-02  1.15516E-02  1.18326E-02  1.21205E-02  1.24154E-02
#           1.27175E-02  1.30269E-02  1.33439E-02  1.36686E-02  1.40011E-02
#           1.43418E-02  1.46907E-02  1.50482E-02  1.54143E-02  1.57894E-02
#           1.61735E-02  1.65670E-02  1.69701E-02  1.73830E-02  1.78060E-02
#           1.82392E-02  1.86830E-02  1.91375E-02  1.96032E-02  2.00801E-02
#           2.05687E-02  2.10692E-02  2.15818E-02  2.21069E-02  2.26448E-02
#           2.31957E-02  2.37601E-02  2.43382E-02  2.49304E-02  2.55369E-02
#           2.61583E-02  2.67947E-02  2.74467E-02  2.81145E-02  2.87985E-02
#           2.94992E-02  3.02169E-02  3.09521E-02  3.17052E-02  3.24766E-02
#           3.32668E-02  3.40762E-02  3.49053E-02  3.57546E-02  3.66246E-02
#           3.75157E-02  3.84284E-02  3.93634E-02  4.03212E-02  4.13022E-02
#           4.23071E-02  4.33365E-02  4.43909E-02  4.54710E-02  4.65773E-02
#           4.77106E-02  4.88714E-02  5.00605E-02  5.12785E-02  5.25262E-02
#           5.38042E-02  5.51133E-02  5.64542E-02  5.78278E-02  5.92348E-02
#           6.06760E-02  6.21523E-02  6.36645E-02  6.52135E-02  6.68002E-02
#           6.84255E-02  7.00904E-02  7.17957E-02  7.35426E-02  7.53319E-02
#           7.71648E-02  7.90423E-02  8.09655E-02  8.29354E-02  8.49533E-02
#           8.70203E-02  8.91376E-02  9.13064E-02  9.35279E-02  9.58035E-02
#           9.81345E-02  1.00522E-01  1.02968E-01  1.05473E-01  1.08040E-01
#           1.10668E-01  1.13361E-01  1.16119E-01  1.18944E-01  1.21838E-01
#           1.24803E-01  1.27839E-01  1.30950E-01  1.34136E-01  1.37399E-01
#           1.40742E-01  1.44167E-01  1.47675E-01  1.51268E-01  1.54948E-01
#           1.58718E-01  1.62580E-01  1.66535E-01  1.70587E-01  1.74738E-01
#           1.78989E-01  1.83344E-01  1.87805E-01  1.92375E-01  1.97055E-01
#           2.01850E-01  2.06761E-01  2.11792E-01  2.16945E-01  2.22223E-01
#           2.27630E-01  2.33169E-01  2.38842E-01  2.44653E-01  2.50605E-01
#           2.56703E-01  2.62949E-01  2.69346E-01  2.75900E-01  2.82613E-01
#           2.89489E-01  2.96532E-01  3.03747E-01  3.11138E-01  3.18708E-01
#           3.26462E-01  3.34405E-01  3.42542E-01  3.50876E-01  3.59413E-01
#           3.68158E-01  3.77116E-01  3.86291E-01  3.95690E-01  4.05317E-01
#           4.15179E-01  4.25281E-01  4.35628E-01  4.46227E-01  4.57084E-01
#           4.68205E-01  4.79597E-01  4.91266E-01  5.03219E-01  5.15463E-01
#           5.28005E-01  5.40851E-01  5.54011E-01  5.67490E-01  5.81298E-01
#           5.95441E-01  6.09929E-01  6.24769E-01  6.39970E-01  6.55541E-01
#           6.71491E-01  6.87828E-01  7.04564E-01  7.21706E-01  7.39266E-01
#           7.57253E-01  7.75678E-01  7.94551E-01  8.13883E-01  8.33685E-01
#           8.53969E-01  8.74747E-01  8.96030E-01  9.17831E-01  9.40163E-01
#           9.63038E-01  9.86469E-01  1.01047E+00  1.03506E+00  1.06024E+00
#           1.08604E+00  1.11246E+00  1.13953E+00  1.16725E+00  1.19565E+00
#           1.22474E+00  1.25454E+00  1.28507E+00  1.31633E+00  1.34836E+00
#           1.38117E+00  1.41477E+00  1.44920E+00  1.48446E+00  1.52057E+00
#           1.55757E+00  1.59547E+00  1.63429E+00  1.67405E+00  1.71478E+00
#           1.75650E+00  1.79924E+00  1.84302E+00  1.88786E+00  1.93379E+00
#           1.98084E+00  2.02904E+00  2.07841E+00  2.12898E+00  2.18078E+00
#           2.23384E+00  2.28819E+00  2.34386E+00  2.40089E+00  2.45930E+00
#           2.51914E+00  2.58043E+00  2.64322E+00  2.70753E+00  2.77341E+00
#           2.84088E+00  2.91001E+00  2.98081E+00  3.05333E+00  3.12762E+00
#           3.20372E+00  3.28167E+00  3.36152E+00  3.44330E+00  3.52708E+00
#           3.61290E+00  3.70080E+00  3.79085E+00  3.88308E+00  3.97756E+00
#           4.07434E+00  4.17347E+00  4.27501E+00  4.37903E+00  4.48557E+00
#           4.59471E+00  4.70650E+00  4.82102E+00  4.93832E+00  5.05847E+00
#           5.18155E+00  5.30762E+00  5.43676E+00  5.56904E+00  5.70453E+00
#           5.84333E+00  5.98550E+00  6.13114E+00  6.28031E+00  6.43312E+00
#           6.58964E+00  6.74997E+00  6.91420E+00  7.08243E+00  7.25475E+00
#           7.43126E+00  7.61207E+00  7.79728E+00  7.98700E+00  8.18133E+00
#           8.38038E+00  8.58428E+00  8.79315E+00  9.00709E+00  9.22624E+00
#           9.45072E+00  9.68067E+00  9.91620E+00  1.01575E+01  1.04046E+01
#           1.06578E+01  1.09171E+01  1.11827E+01  1.14548E+01  1.17335E+01
#           1.20190E+01  1.23114E+01  1.26109E+01  1.29178E+01  1.32321E+01
#           1.35540E+01  1.38838E+01  1.42216E+01  1.45676E+01  1.49221E+01
#           1.52851E+01  1.56570E+01  1.60380E+01  1.64282E+01  1.68279E+01
#           1.72374E+01  1.76568E+01  1.80864E+01  1.85264E+01  1.89772E+01
#           1.94389E+01  1.99119E+01  2.03963E+01  2.08926E+01  2.14009E+01
#           2.19216E+01  2.24550E+01  2.30014E+01  2.35610E+01  2.41343E+01
#           2.47215E+01  2.53230E+01  2.59391E+01  2.65702E+01  2.72167E+01
#           2.78789E+01  2.85572E+01  2.92520E+01  2.99637E+01  3.06928E+01
#           3.14396E+01  3.22045E+01  3.29881E+01  3.37907E+01  3.46128E+01
#           3.54550E+01  3.63177E+01  3.72013E+01  3.81064E+01  3.90336E+01
#           3.99833E+01  4.09561E+01  4.19526E+01  4.29734E+01  4.40189E+01
#           4.50900E+01  4.61870E+01  4.73108E+01  4.84619E+01  4.96410E+01
#           5.08488E+01  5.20860E+01  5.33533E+01  5.46514E+01  5.59812E+01
#           5.73432E+01  5.87384E+01  6.01676E+01  6.16315E+01  6.31311E+01
#           6.46671E+01  6.62405E+01  6.78522E+01  6.95031E+01  7.11941E+01
#           7.29263E+01  7.47007E+01  7.65182E+01  7.83800E+01  8.02870E+01
#           8.22405E+01  8.42414E+01  8.62911E+01  8.83906E+01  9.05412E+01
#           9.27442E+01  9.50007E+01  9.73122E+01  9.96799E+01  1.02105E+02
#           1.04589E+02  1.07134E+02  1.09741E+02  1.12411E+02  1.15146E+02
#           1.17948E+02  1.20817E+02  1.23757E+02  1.26768E+02  1.29852E+02
#           1.33012E+02  1.36248E+02  1.39563E+02  1.42959E+02  1.46437E+02
#           1.50000E+02
     unit =    2            # unit is [1/cm^2/(MeV/n)/source]
     axis =  eng            # axis of output
     file = detector-09.out  # file name of output for the above axis
   output = f-curr          # surface crossing forward current spectrum
     part =  neutron  
# kf/name :  2112     
#    used :        main (  %)        temp (  %)       total (  %)
#  memory :         414 (  0)           0 (  0)         414 (  0)

#------------------------------------------------------------------------------
#newpage:
#   no. =    1   reg = 108 - 208

x: Energy [MeV/n]
y:  F-Curr [1/cm^2/(MeV/n)/source]         
p: xlog ylog afac(0.8) form(0.9)
h: n            x            y(neutron ),hh0l   n 
#  e-lower      e-upper      neutron     r.err 
   1.0000E-02   1.0243E-02   3.9987E-04  0.0752
   1.0243E-02   1.0493E-02   3.6403E-04  0.0779
   1.0493E-02   1.0748E-02   3.5876E-04  0.0777
   1.0748E-02   1.1009E-02   3.1957E-04  0.0811
   1.1009E-02   1.1277E-02   3.4860E-04  0.0769
   1.1277E-02   1.1552E-02   3.8858E-04  0.0718
   1.1552E-02   1.1833E-02   3.4134E-04  0.0758
   1.1833E-02   1.2121E-02   3.4509E-04  0.0745
   1.2121E-02   1.2415E-02   3.4037E-04  0.0741
   1.2415E-02   1.2718E-02   3.3059E-04  0.0744
   1.2718E-02   1.3027E-02   3.1812E-04  0.0748
   1.3027E-02   1.3344E-02   2.8571E-04  0.0779
   1.3344E-02   1.3669E-02   2.9606E-04  0.0757
   1.3669E-02   1.4001E-02   2.9972E-04  0.0745
   1.4001E-02   1.4342E-02   2.5928E-04  0.0788
   1.4342E-02   1.4691E-02   3.0433E-04  0.0720
   1.4691E-02   1.5048E-02   2.4383E-04  0.0794
   1.5048E-02   1.5414E-02   2.7051E-04  0.0747
   1.5414E-02   1.5789E-02   2.5406E-04  0.0761
   1.5789E-02   1.6174E-02   2.5588E-04  0.0747
   1.6174E-02   1.6567E-02   2.5004E-04  0.0749
   1.6567E-02   1.6970E-02   2.3868E-04  0.0758
   1.6970E-02   1.7383E-02   2.4375E-04  0.0739
   1.7383E-02   1.7806E-02   2.1274E-04  0.0781
   1.7806E-02   1.8239E-02   2.3482E-04  0.0736
   1.8239E-02   1.8683E-02   2.2839E-04  0.0736
   1.8683E-02   1.9138E-02   2.1100E-04  0.0758
   1.9138E-02   1.9603E-02   2.0688E-04  0.0755
   1.9603E-02   2.0080E-02   2.3693E-04  0.0699
   2.0080E-02   2.0569E-02   2.2484E-04  0.0708
   2.0569E-02   2.1069E-02   1.9227E-04  0.0755
   2.1069E-02   2.1582E-02   1.9245E-04  0.0747
   2.1582E-02   2.2107E-02   1.9702E-04  0.0729
   2.2107E-02   2.2645E-02   2.1484E-04  0.0691
   2.2645E-02   2.3196E-02   2.0138E-04  0.0704
   2.3196E-02   2.3760E-02   1.9865E-04  0.0701
   2.3760E-02   2.4338E-02   1.8435E-04  0.0719
   2.4338E-02   2.4930E-02   1.7399E-04  0.0732
   2.4930E-02   2.5537E-02   1.6773E-04  0.0735
   2.5537E-02   2.6158E-02   1.7156E-04  0.0718
   2.6158E-02   2.6795E-02   1.6287E-04  0.0730
   2.6795E-02   2.7447E-02   1.5253E-04  0.0742
   2.7447E-02   2.8114E-02   1.5059E-04  0.0739
   2.8114E-02   2.8799E-02   1.5413E-04  0.0722
   2.8799E-02   2.9499E-02   1.6273E-04  0.0695
   2.9499E-02   3.0217E-02   1.6730E-04  0.0678
   3.0217E-02   3.0952E-02   1.5577E-04  0.0693
   3.0952E-02   3.1705E-02   1.1514E-04  0.0796
   3.1705E-02   3.2477E-02   1.3072E-04  0.0740
   3.2477E-02   3.3267E-02   1.2965E-04  0.0732
   3.3267E-02   3.4076E-02   1.2297E-04  0.0744
   3.4076E-02   3.4905E-02   1.2993E-04  0.0714
   3.4905E-02   3.5755E-02   1.2551E-04  0.0718
   3.5755E-02   3.6625E-02   1.2454E-04  0.0712
   3.6625E-02   3.7516E-02   1.0984E-04  0.0751
   3.7516E-02   3.8428E-02   1.2724E-04  0.0689
   3.8428E-02   3.9363E-02   1.2280E-04  0.0691
   3.9363E-02   4.0321E-02   1.0519E-04  0.0740
   4.0321E-02   4.1302E-02   1.1222E-04  0.0707
   4.1302E-02   4.2307E-02   1.0297E-04  0.0729
   4.2307E-02   4.3337E-02   9.1673E-05  0.0765
   4.3337E-02   4.4391E-02   1.1204E-04  0.0683
   4.4391E-02   4.5471E-02   1.0306E-04  0.0704
   4.5471E-02   4.6577E-02   1.1204E-04  0.0666
   4.6577E-02   4.7711E-02   9.4901E-05  0.0716
   4.7711E-02   4.8871E-02   9.6192E-05  0.0704
   4.8871E-02   5.0061E-02   9.8744E-05  0.0685
   5.0061E-02   5.1279E-02   9.3867E-05  0.0694
   5.1279E-02   5.2526E-02   8.3457E-05  0.0727
   5.2526E-02   5.3804E-02   9.0633E-05  0.0690
   5.3804E-02   5.5113E-02   9.5035E-05  0.0665
   5.5113E-02   5.6454E-02   8.0019E-05  0.0716
   5.6454E-02   5.7828E-02   8.4531E-05  0.0689
   5.7828E-02   5.9235E-02   8.4125E-05  0.0681
   5.9235E-02   6.0676E-02   7.8589E-05  0.0696
   6.0676E-02   6.2152E-02   8.4516E-05  0.0664
   6.2152E-02   6.3665E-02   7.9269E-05  0.0678
   6.3665E-02   6.5214E-02   7.2579E-05  0.0699
   6.5214E-02   6.6800E-02   7.2396E-05  0.0692
   6.6800E-02   6.8426E-02   7.3381E-05  0.0678
   6.8426E-02   7.0090E-02   7.2827E-05  0.0674
   7.0090E-02   7.1796E-02   6.9379E-05  0.0682
   7.1796E-02   7.3543E-02   6.5401E-05  0.0694
   7.3543E-02   7.5332E-02   6.4963E-05  0.0686
   7.5332E-02   7.7165E-02   6.3474E-05  0.0688
   7.7165E-02   7.9042E-02   6.7104E-05  0.0662
   7.9042E-02   8.0965E-02   6.6956E-05  0.0655
   8.0965E-02   8.2935E-02   6.5991E-05  0.0650
   8.2935E-02   8.4953E-02   6.1606E-05  0.0666
   8.4953E-02   8.7020E-02   6.2409E-05  0.0654
   8.7020E-02   8.9138E-02   6.3307E-05  0.0640
   8.9138E-02   9.1306E-02   5.6538E-05  0.0670
   9.1306E-02   9.3528E-02   6.1936E-05  0.0632
   9.3528E-02   9.5804E-02   6.5125E-05  0.0610
   9.5804E-02   9.8134E-02   6.5162E-05  0.0602
   9.8134E-02   1.0052E-01   6.0602E-05  0.0617
   1.0052E-01   1.0297E-01   5.3866E-05  0.0644
   1.0297E-01   1.0547E-01   6.1426E-05  0.0598
   1.0547E-01   1.0804E-01   6.6725E-05  0.0568
   1.0804E-01   1.1067E-01   7.0448E-05  0.0546
   1.1067E-01   1.1336E-01   7.1992E-05  0.0532
   1.1336E-01   1.1612E-01   6.8301E-05  0.0541
   1.1612E-01   1.1894E-01   8.3994E-05  0.0482
   1.1894E-01   1.2184E-01   7.5190E-05  0.0503
   1.2184E-01   1.2480E-01   7.9079E-05  0.0485
   1.2480E-01   1.2784E-01   8.7736E-05  0.0454
   1.2784E-01   1.3095E-01   8.6203E-05  0.0453
   1.3095E-01   1.3414E-01   9.4780E-05  0.0427
   1.3414E-01   1.3740E-01   1.0025E-04  0.0410
   1.3740E-01   1.4074E-01   1.0099E-04  0.0404
   1.4074E-01   1.4417E-01   1.0526E-04  0.0391
   1.4417E-01   1.4767E-01   1.0410E-04  0.0388
   1.4767E-01   1.5127E-01   1.0788E-04  0.0377
   1.5127E-01   1.5495E-01   1.1787E-04  0.0357
   1.5495E-01   1.5872E-01   1.2521E-04  0.0342
   1.5872E-01   1.6258E-01   1.2982E-04  0.0332
   1.6258E-01   1.6654E-01   1.2615E-04  0.0332
   1.6654E-01   1.7059E-01   1.3842E-04  0.0313
   1.7059E-01   1.7474E-01   1.4075E-04  0.0307
   1.7474E-01   1.7899E-01   1.4232E-04  0.0302
   1.7899E-01   1.8334E-01   1.5773E-04  0.0283
   1.8334E-01   1.8781E-01   1.5776E-04  0.0280
   1.8781E-01   1.9237E-01   1.5357E-04  0.0280
   1.9237E-01   1.9706E-01   1.5196E-04  0.0278
   1.9706E-01   2.0185E-01   1.7693E-04  0.0255
   2.0185E-01   2.0676E-01   1.7415E-04  0.0254
   2.0676E-01   2.1179E-01   1.7993E-04  0.0247
   2.1179E-01   2.1694E-01   1.8830E-04  0.0238
   2.1694E-01   2.2222E-01   1.9144E-04  0.0233
   2.2222E-01   2.2763E-01   1.9662E-04  0.0228
   2.2763E-01   2.3317E-01   2.0510E-04  0.0220
   2.3317E-01   2.3884E-01   2.1252E-04  0.0214
   2.3884E-01   2.4465E-01   2.2138E-04  0.0207
   2.4465E-01   2.5061E-01   2.2106E-04  0.0205
   2.5061E-01   2.5670E-01   2.3441E-04  0.0196
   2.5670E-01   2.6295E-01   2.4630E-04  0.0189
   2.6295E-01   2.6935E-01   2.4360E-04  0.0188
   2.6935E-01   2.7590E-01   2.4761E-04  0.0184
   2.7590E-01   2.8261E-01   2.5513E-04  0.0179
   2.8261E-01   2.8949E-01   2.5849E-04  0.0176
   2.8949E-01   2.9653E-01   2.6973E-04  0.0170
   2.9653E-01   3.0375E-01   2.7734E-04  0.0166
   3.0375E-01   3.1114E-01   2.8688E-04  0.0161
   3.1114E-01   3.1871E-01   2.8912E-04  0.0159
   3.1871E-01   3.2646E-01   2.9718E-04  0.0155
   3.2646E-01   3.3441E-01   3.1424E-04  0.0149
   3.3441E-01   3.4254E-01   3.1606E-04  0.0146
   3.4254E-01   3.5088E-01   3.2435E-04  0.0143
   3.5088E-01   3.5941E-01   3.2437E-04  0.0141
   3.5941E-01   3.6816E-01   3.4103E-04  0.0136
   3.6816E-01   3.7712E-01   3.4244E-04  0.0134
   3.7712E-01   3.8629E-01   3.4506E-04  0.0132
   3.8629E-01   3.9569E-01   3.5124E-04  0.0129
   3.9569E-01   4.0532E-01   3.5436E-04  0.0127
   4.0532E-01   4.1518E-01   3.5650E-04  0.0125
   4.1518E-01   4.2528E-01   3.6489E-04  0.0122
   4.2528E-01   4.3563E-01   3.8012E-04  0.0118
   4.3563E-01   4.4623E-01   3.8130E-04  0.0117
   4.4623E-01   4.5708E-01   3.8659E-04  0.0114
   4.5708E-01   4.6821E-01   3.8600E-04  0.0113
   4.6821E-01   4.7960E-01   3.8941E-04  0.0111
   4.7960E-01   4.9127E-01   3.9619E-04  0.0109
   4.9127E-01   5.0322E-01   3.9372E-04  0.0108
   5.0322E-01   5.1546E-01   4.0282E-04  0.0106
   5.1546E-01   5.2800E-01   4.0604E-04  0.0104
   5.2800E-01   5.4085E-01   4.0710E-04  0.0102
   5.4085E-01   5.5401E-01   4.1803E-04  0.0100
   5.5401E-01   5.6749E-01   4.1191E-04  0.0099
   5.6749E-01   5.8130E-01   4.1437E-04  0.0098
   5.8130E-01   5.9544E-01   4.2001E-04  0.0096
   5.9544E-01   6.0993E-01   4.1971E-04  0.0095
   6.0993E-01   6.2477E-01   4.1558E-04  0.0094
   6.2477E-01   6.3997E-01   4.1640E-04  0.0093
   6.3997E-01   6.5554E-01   4.2293E-04  0.0091
   6.5554E-01   6.7149E-01   4.1550E-04  0.0091
   6.7149E-01   6.8783E-01   4.0908E-04  0.0091
   6.8783E-01   7.0456E-01   4.0966E-04  0.0089
   7.0456E-01   7.2171E-01   4.0923E-04  0.0088
   7.2171E-01   7.3927E-01   4.0631E-04  0.0088
   7.3927E-01   7.5725E-01   3.9361E-04  0.0088
   7.5725E-01   7.7568E-01   3.9257E-04  0.0087
   7.7568E-01   7.9455E-01   3.8649E-04  0.0087
   7.9455E-01   8.1388E-01   3.7757E-04  0.0087
   8.1388E-01   8.3368E-01   3.7778E-04  0.0086
   8.3368E-01   8.5397E-01   3.6545E-04  0.0086
   8.5397E-01   8.7475E-01   3.5161E-04  0.0086
   8.7475E-01   8.9603E-01   3.5149E-04  0.0085
   8.9603E-01   9.1783E-01   3.3588E-04  0.0086
   9.1783E-01   9.4016E-01   3.2060E-04  0.0087
   9.4016E-01   9.6304E-01   3.1336E-04  0.0087
   9.6304E-01   9.8647E-01   3.0138E-04  0.0088
   9.8647E-01   1.0105E+00   2.9267E-04  0.0088
   1.0105E+00   1.0351E+00   2.9721E-04  0.0086
   1.0351E+00   1.0602E+00   2.9743E-04  0.0085
   1.0602E+00   1.0860E+00   3.0046E-04  0.0084
   1.0860E+00   1.1125E+00   3.0757E-04  0.0082
   1.1125E+00   1.1395E+00   3.1831E-04  0.0079
   1.1395E+00   1.1673E+00   3.2384E-04  0.0078
   1.1673E+00   1.1957E+00   3.3556E-04  0.0075
   1.1957E+00   1.2247E+00   3.3872E-04  0.0074
   1.2247E+00   1.2545E+00   3.4511E-04  0.0073
   1.2545E+00   1.2851E+00   3.5150E-04  0.0071
   1.2851E+00   1.3163E+00   3.5467E-04  0.0070
   1.3163E+00   1.3484E+00   3.6099E-04  0.0068
   1.3484E+00   1.3812E+00   3.6825E-04  0.0067
   1.3812E+00   1.4148E+00   3.7491E-04  0.0065
   1.4148E+00   1.4492E+00   3.7354E-04  0.0065
   1.4492E+00   1.4845E+00   3.7744E-04  0.0064
   1.4845E+00   1.5206E+00   3.7799E-04  0.0063
   1.5206E+00   1.5576E+00   3.7282E-04  0.0062
   1.5576E+00   1.5955E+00   3.7755E-04  0.0061
   1.5955E+00   1.6343E+00   3.7628E-04  0.0061
   1.6343E+00   1.6741E+00   3.7935E-04  0.0060
   1.6741E+00   1.7148E+00   3.7746E-04  0.0059
   1.7148E+00   1.7565E+00   3.7058E-04  0.0059
   1.7565E+00   1.7992E+00   3.5981E-04  0.0059
   1.7992E+00   1.8430E+00   3.4282E-04  0.0060
   1.8430E+00   1.8879E+00   3.3779E-04  0.0059
   1.8879E+00   1.9338E+00   3.3139E-04  0.0059
   1.9338E+00   1.9808E+00   3.3385E-04  0.0058
   1.9808E+00   2.0290E+00   3.3966E-04  0.0057
   2.0290E+00   2.0784E+00   3.4331E-04  0.0056
   2.0784E+00   2.1290E+00   3.4580E-04  0.0055
   2.1290E+00   2.1808E+00   3.5408E-04  0.0053
   2.1808E+00   2.2338E+00   3.5681E-04  0.0053
   2.2338E+00   2.2882E+00   3.4872E-04  0.0053
   2.2882E+00   2.3439E+00   3.4027E-04  0.0053
   2.3439E+00   2.4009E+00   3.4492E-04  0.0052
   2.4009E+00   2.4593E+00   3.4333E-04  0.0051
   2.4593E+00   2.5191E+00   3.4743E-04  0.0050
   2.5191E+00   2.5804E+00   3.4079E-04  0.0050
   2.5804E+00   2.6432E+00   3.4074E-04  0.0050
   2.6432E+00   2.7075E+00   3.4148E-04  0.0049
   2.7075E+00   2.7734E+00   3.3799E-04  0.0049
   2.7734E+00   2.8409E+00   3.4078E-04  0.0048
   2.8409E+00   2.9100E+00   3.4080E-04  0.0047
   2.9100E+00   2.9808E+00   3.3850E-04  0.0047
   2.9808E+00   3.0533E+00   3.3654E-04  0.0047
   3.0533E+00   3.1276E+00   3.3260E-04  0.0046
   3.1276E+00   3.2037E+00   3.3084E-04  0.0046
   3.2037E+00   3.2817E+00   3.3064E-04  0.0046
   3.2817E+00   3.3615E+00   3.2795E-04  0.0045
   3.3615E+00   3.4433E+00   3.2846E-04  0.0045
   3.4433E+00   3.5271E+00   3.3141E-04  0.0044
   3.5271E+00   3.6129E+00   3.2762E-04  0.0044
   3.6129E+00   3.7008E+00   3.2897E-04  0.0043
   3.7008E+00   3.7908E+00   3.2532E-04  0.0043
   3.7908E+00   3.8831E+00   3.2069E-04  0.0043
   3.8831E+00   3.9776E+00   3.2130E-04  0.0042
   3.9776E+00   4.0743E+00   3.1390E-04  0.0042
   4.0743E+00   4.1735E+00   3.1093E-04  0.0042
   4.1735E+00   4.2750E+00   3.0938E-04  0.0041
   4.2750E+00   4.3790E+00   3.0224E-04  0.0041
   4.3790E+00   4.4856E+00   2.9739E-04  0.0041
   4.4856E+00   4.5947E+00   2.9394E-04  0.0041
   4.5947E+00   4.7065E+00   2.9103E-04  0.0041
   4.7065E+00   4.8210E+00   2.8557E-04  0.0041
   4.8210E+00   4.9383E+00   2.8481E-04  0.0040
   4.9383E+00   5.0585E+00   2.7999E-04  0.0040
   5.0585E+00   5.1815E+00   2.8013E-04  0.0040
   5.1815E+00   5.3076E+00   2.7586E-04  0.0039
   5.3076E+00   5.4368E+00   2.7200E-04  0.0039
   5.4368E+00   5.5690E+00   2.7028E-04  0.0039
   5.5690E+00   5.7045E+00   2.6793E-04  0.0039
   5.7045E+00   5.8433E+00   2.6262E-04  0.0038
   5.8433E+00   5.9855E+00   2.6255E-04  0.0038
   5.9855E+00   6.1311E+00   2.5842E-04  0.0038
   6.1311E+00   6.2803E+00   2.5624E-04  0.0038
   6.2803E+00   6.4331E+00   2.5336E-04  0.0037
   6.4331E+00   6.5896E+00   2.5183E-04  0.0037
   6.5896E+00   6.7500E+00   2.4862E-04  0.0037
   6.7500E+00   6.9142E+00   2.4499E-04  0.0037
   6.9142E+00   7.0824E+00   2.4186E-04  0.0037
   7.0824E+00   7.2548E+00   2.3865E-04  0.0036
   7.2548E+00   7.4313E+00   2.3561E-04  0.0036
   7.4313E+00   7.6121E+00   2.3433E-04  0.0036
   7.6121E+00   7.7973E+00   2.3121E-04  0.0036
   7.7973E+00   7.9870E+00   2.2846E-04  0.0035
   7.9870E+00   8.1813E+00   2.2422E-04  0.0035
   8.1813E+00   8.3804E+00   2.1913E-04  0.0035
   8.3804E+00   8.5843E+00   2.1483E-04  0.0035
   8.5843E+00   8.7931E+00   2.1265E-04  0.0035
   8.7931E+00   9.0071E+00   2.0792E-04  0.0035
   9.0071E+00   9.2262E+00   2.0487E-04  0.0035
   9.2262E+00   9.4507E+00   2.0016E-04  0.0035
   9.4507E+00   9.6807E+00   1.9691E-04  0.0035
   9.6807E+00   9.9162E+00   1.9560E-04  0.0035
   9.9162E+00   1.0157E+01   2.0175E-04  0.0034
   1.0157E+01   1.0405E+01   1.9673E-04  0.0034
   1.0405E+01   1.0658E+01   1.9252E-04  0.0034
   1.0658E+01   1.0917E+01   1.8689E-04  0.0034
   1.0917E+01   1.1183E+01   1.8181E-04  0.0034
   1.1183E+01   1.1455E+01   1.7904E-04  0.0034
   1.1455E+01   1.1733E+01   1.7599E-04  0.0034
   1.1733E+01   1.2019E+01   1.7455E-04  0.0033
   1.2019E+01   1.2311E+01   1.7255E-04  0.0033
   1.2311E+01   1.2611E+01   1.6948E-04  0.0033
   1.2611E+01   1.2918E+01   1.6753E-04  0.0033
   1.2918E+01   1.3232E+01   1.6554E-04  0.0033
   1.3232E+01   1.3554E+01   1.6348E-04  0.0032
   1.3554E+01   1.3884E+01   1.6084E-04  0.0032
   1.3884E+01   1.4222E+01   1.5874E-04  0.0032
   1.4222E+01   1.4568E+01   1.5657E-04  0.0032
   1.4568E+01   1.4922E+01   1.5498E-04  0.0032
   1.4922E+01   1.5285E+01   1.5183E-04  0.0032
   1.5285E+01   1.5657E+01   1.5056E-04  0.0031
   1.5657E+01   1.6038E+01   1.4897E-04  0.0031
   1.6038E+01   1.6428E+01   1.4621E-04  0.0031
   1.6428E+01   1.6828E+01   1.4346E-04  0.0031
   1.6828E+01   1.7237E+01   1.4192E-04  0.0031
   1.7237E+01   1.7657E+01   1.3843E-04  0.0031
   1.7657E+01   1.8086E+01   1.3602E-04  0.0031
   1.8086E+01   1.8526E+01   1.3410E-04  0.0031
   1.8526E+01   1.8977E+01   1.3167E-04  0.0031
   1.8977E+01   1.9439E+01   1.2956E-04  0.0030
   1.9439E+01   1.9912E+01   1.2861E-04  0.0030
   1.9912E+01   2.0396E+01   1.2726E-04  0.0030
   2.0396E+01   2.0893E+01   1.2494E-04  0.0030
   2.0893E+01   2.1401E+01   1.2207E-04  0.0030
   2.1401E+01   2.1922E+01   1.1993E-04  0.0030
   2.1922E+01   2.2455E+01   1.1765E-04  0.0030
   2.2455E+01   2.3001E+01   1.1463E-04  0.0030
   2.3001E+01   2.3561E+01   1.1200E-04  0.0030
   2.3561E+01   2.4134E+01   1.0931E-04  0.0030
   2.4134E+01   2.4721E+01   1.0706E-04  0.0030
   2.4721E+01   2.5323E+01   1.0436E-04  0.0030
   2.5323E+01   2.5939E+01   1.0130E-04  0.0030
   2.5939E+01   2.6570E+01   9.9685E-05  0.0030
   2.6570E+01   2.7217E+01   9.6720E-05  0.0030
   2.7217E+01   2.7879E+01   9.4514E-05  0.0030
   2.7879E+01   2.8557E+01   9.1433E-05  0.0030
   2.8557E+01   2.9252E+01   8.8348E-05  0.0030
   2.9252E+01   2.9964E+01   8.5472E-05  0.0030
   2.9964E+01   3.0693E+01   8.1664E-05  0.0031
   3.0693E+01   3.1440E+01   7.8083E-05  0.0031
   3.1440E+01   3.2205E+01   7.4407E-05  0.0031
   3.2205E+01   3.2988E+01   7.0801E-05  0.0032
   3.2988E+01   3.3791E+01   6.7167E-05  0.0032
   3.3791E+01   3.4613E+01   6.4158E-05  0.0032
   3.4613E+01   3.5455E+01   5.9777E-05  0.0033
   3.5455E+01   3.6318E+01   5.6191E-05  0.0034
   3.6318E+01   3.7201E+01   5.2126E-05  0.0035
   3.7201E+01   3.8106E+01   4.8858E-05  0.0035
   3.8106E+01   3.9034E+01   4.5032E-05  0.0036
   3.9034E+01   3.9983E+01   4.1113E-05  0.0038
   3.9983E+01   4.0956E+01   3.7628E-05  0.0039
   4.0956E+01   4.1953E+01   3.3742E-05  0.0041
   4.1953E+01   4.2973E+01   3.0537E-05  0.0042
   4.2973E+01   4.4019E+01   2.7055E-05  0.0044
   4.4019E+01   4.5090E+01   2.3576E-05  0.0047
   4.5090E+01   4.6187E+01   1.9782E-05  0.0051
   4.6187E+01   4.7311E+01   1.7228E-05  0.0054
   4.7311E+01   4.8462E+01   1.4320E-05  0.0058
   4.8462E+01   4.9641E+01   1.1995E-05  0.0063
   4.9641E+01   5.0849E+01   9.8972E-06  0.0068
   5.0849E+01   5.2086E+01   8.1560E-06  0.0074
   5.2086E+01   5.3353E+01   6.4008E-06  0.0083
   5.3353E+01   5.4651E+01   5.0885E-06  0.0092
   5.4651E+01   5.5981E+01   4.0080E-06  0.0102
   5.5981E+01   5.7343E+01   3.1101E-06  0.0115
   5.7343E+01   5.8738E+01   2.4162E-06  0.0128
   5.8738E+01   6.0168E+01   2.0241E-06  0.0139
   6.0168E+01   6.1632E+01   1.6432E-06  0.0152
   6.1632E+01   6.3131E+01   1.4382E-06  0.0160
   6.3131E+01   6.4667E+01   1.2015E-06  0.0174
   6.4667E+01   6.6240E+01   4.4737E-07  0.0281
   6.6240E+01   6.7852E+01   4.0330E-08  0.0925
   6.7852E+01   6.9503E+01   3.3652E-10  1.0000
   6.9503E+01   7.1194E+01   0.0000E+00  0.0000
   7.1194E+01   7.2926E+01   0.0000E+00  0.0000
   7.2926E+01   7.4701E+01   0.0000E+00  0.0000
   7.4701E+01   7.6518E+01   0.0000E+00  0.0000
   7.6518E+01   7.8380E+01   0.0000E+00  0.0000
   7.8380E+01   8.0287E+01   0.0000E+00  0.0000
   8.0287E+01   8.2240E+01   0.0000E+00  0.0000
   8.2240E+01   8.4241E+01   0.0000E+00  0.0000
   8.4241E+01   8.6291E+01   0.0000E+00  0.0000
   8.6291E+01   8.8391E+01   0.0000E+00  0.0000
   8.8391E+01   9.0541E+01   0.0000E+00  0.0000
   9.0541E+01   9.2744E+01   0.0000E+00  0.0000
   9.2744E+01   9.5001E+01   0.0000E+00  0.0000
   9.5001E+01   9.7312E+01   0.0000E+00  0.0000
   9.7312E+01   9.9680E+01   0.0000E+00  0.0000
   9.9680E+01   1.0211E+02   0.0000E+00  0.0000
   1.0211E+02   1.0459E+02   0.0000E+00  0.0000
   1.0459E+02   1.0713E+02   0.0000E+00  0.0000
   1.0713E+02   1.0974E+02   0.0000E+00  0.0000
   1.0974E+02   1.1241E+02   0.0000E+00  0.0000
   1.1241E+02   1.1515E+02   0.0000E+00  0.0000
   1.1515E+02   1.1795E+02   0.0000E+00  0.0000
   1.1795E+02   1.2082E+02   0.0000E+00  0.0000
   1.2082E+02   1.2376E+02   0.0000E+00  0.0000
   1.2376E+02   1.2677E+02   0.0000E+00  0.0000
   1.2677E+02   1.2985E+02   0.0000E+00  0.0000
   1.2985E+02   1.3301E+02   0.0000E+00  0.0000
   1.3301E+02   1.3625E+02   0.0000E+00  0.0000
   1.3625E+02   1.3956E+02   0.0000E+00  0.0000
   1.3956E+02   1.4296E+02   0.0000E+00  0.0000
   1.4296E+02   1.4644E+02   0.0000E+00  0.0000
   1.4644E+02   1.5000E+02   0.0000E+00  0.0000

#   sum over                 4.1925E-05
'no. =    1   reg = 108 - 208'
msuc: {\huge [t-cross] in region mesh}
msdr: {\it plotted by \ANGEL \version}
msdl: {\it calculated by \PHITS  3.26}
wt: s(0.7)
\vspace{-3}
  region surface crossing
  area  &=&   1.0000E+00 [cm^2]
e:
 
# Information for Restart Calculation
# This calculation was newly started
# istdev =  2 # 1:Batch variance, 2:History variance
# resc2  = 1.80000000000000000E+09 # Total source weight or Total source weight / maxcas
# resc3  = 1.80000000000000000E+09 # Total history number or Total batch number
# maxcas =   100000000 # History / Batch, only used for istdev=1
# bitrseed = 0100100101011000101100110010101110011100000011101000101001100110 # bit data of rseed
