[ T-Cross ]
    title = [t-cross] in region mesh
     mesh =  reg            # mesh type is region-wise
      reg =    1            # number of crossing regions
      non     r-from    r-to       area
      1       110       210        1.000000    
   e-type =    3            # e-mesh is log given by emin, emax and ne
     emin =  1.0000000E-02  # minimum value of e-mesh points
     emax =   150.0000      # maximum value of e-mesh points
#    edel =  2.4039514E-02  # mesh width of e-mesh points
       ne =    400          # number of e-mesh points
#    data = ( e(i), i = 1, ne + 1 )
#           1.00000E-02  1.02433E-02  1.04925E-02  1.07478E-02  1.10093E-02
#           1.12772E-02  1.15516E-02  1.18326E-02  1.21205E-02  1.24154E-02
#           1.27175E-02  1.30269E-02  1.33439E-02  1.36686E-02  1.40011E-02
#           1.43418E-02  1.46907E-02  1.50482E-02  1.54143E-02  1.57894E-02
#           1.61735E-02  1.65670E-02  1.69701E-02  1.73830E-02  1.78060E-02
#           1.82392E-02  1.86830E-02  1.91375E-02  1.96032E-02  2.00801E-02
#           2.05687E-02  2.10692E-02  2.15818E-02  2.21069E-02  2.26448E-02
#           2.31957E-02  2.37601E-02  2.43382E-02  2.49304E-02  2.55369E-02
#           2.61583E-02  2.67947E-02  2.74467E-02  2.81145E-02  2.87985E-02
#           2.94992E-02  3.02169E-02  3.09521E-02  3.17052E-02  3.24766E-02
#           3.32668E-02  3.40762E-02  3.49053E-02  3.57546E-02  3.66246E-02
#           3.75157E-02  3.84284E-02  3.93634E-02  4.03212E-02  4.13022E-02
#           4.23071E-02  4.33365E-02  4.43909E-02  4.54710E-02  4.65773E-02
#           4.77106E-02  4.88714E-02  5.00605E-02  5.12785E-02  5.25262E-02
#           5.38042E-02  5.51133E-02  5.64542E-02  5.78278E-02  5.92348E-02
#           6.06760E-02  6.21523E-02  6.36645E-02  6.52135E-02  6.68002E-02
#           6.84255E-02  7.00904E-02  7.17957E-02  7.35426E-02  7.53319E-02
#           7.71648E-02  7.90423E-02  8.09655E-02  8.29354E-02  8.49533E-02
#           8.70203E-02  8.91376E-02  9.13064E-02  9.35279E-02  9.58035E-02
#           9.81345E-02  1.00522E-01  1.02968E-01  1.05473E-01  1.08040E-01
#           1.10668E-01  1.13361E-01  1.16119E-01  1.18944E-01  1.21838E-01
#           1.24803E-01  1.27839E-01  1.30950E-01  1.34136E-01  1.37399E-01
#           1.40742E-01  1.44167E-01  1.47675E-01  1.51268E-01  1.54948E-01
#           1.58718E-01  1.62580E-01  1.66535E-01  1.70587E-01  1.74738E-01
#           1.78989E-01  1.83344E-01  1.87805E-01  1.92375E-01  1.97055E-01
#           2.01850E-01  2.06761E-01  2.11792E-01  2.16945E-01  2.22223E-01
#           2.27630E-01  2.33169E-01  2.38842E-01  2.44653E-01  2.50605E-01
#           2.56703E-01  2.62949E-01  2.69346E-01  2.75900E-01  2.82613E-01
#           2.89489E-01  2.96532E-01  3.03747E-01  3.11138E-01  3.18708E-01
#           3.26462E-01  3.34405E-01  3.42542E-01  3.50876E-01  3.59413E-01
#           3.68158E-01  3.77116E-01  3.86291E-01  3.95690E-01  4.05317E-01
#           4.15179E-01  4.25281E-01  4.35628E-01  4.46227E-01  4.57084E-01
#           4.68205E-01  4.79597E-01  4.91266E-01  5.03219E-01  5.15463E-01
#           5.28005E-01  5.40851E-01  5.54011E-01  5.67490E-01  5.81298E-01
#           5.95441E-01  6.09929E-01  6.24769E-01  6.39970E-01  6.55541E-01
#           6.71491E-01  6.87828E-01  7.04564E-01  7.21706E-01  7.39266E-01
#           7.57253E-01  7.75678E-01  7.94551E-01  8.13883E-01  8.33685E-01
#           8.53969E-01  8.74747E-01  8.96030E-01  9.17831E-01  9.40163E-01
#           9.63038E-01  9.86469E-01  1.01047E+00  1.03506E+00  1.06024E+00
#           1.08604E+00  1.11246E+00  1.13953E+00  1.16725E+00  1.19565E+00
#           1.22474E+00  1.25454E+00  1.28507E+00  1.31633E+00  1.34836E+00
#           1.38117E+00  1.41477E+00  1.44920E+00  1.48446E+00  1.52057E+00
#           1.55757E+00  1.59547E+00  1.63429E+00  1.67405E+00  1.71478E+00
#           1.75650E+00  1.79924E+00  1.84302E+00  1.88786E+00  1.93379E+00
#           1.98084E+00  2.02904E+00  2.07841E+00  2.12898E+00  2.18078E+00
#           2.23384E+00  2.28819E+00  2.34386E+00  2.40089E+00  2.45930E+00
#           2.51914E+00  2.58043E+00  2.64322E+00  2.70753E+00  2.77341E+00
#           2.84088E+00  2.91001E+00  2.98081E+00  3.05333E+00  3.12762E+00
#           3.20372E+00  3.28167E+00  3.36152E+00  3.44330E+00  3.52708E+00
#           3.61290E+00  3.70080E+00  3.79085E+00  3.88308E+00  3.97756E+00
#           4.07434E+00  4.17347E+00  4.27501E+00  4.37903E+00  4.48557E+00
#           4.59471E+00  4.70650E+00  4.82102E+00  4.93832E+00  5.05847E+00
#           5.18155E+00  5.30762E+00  5.43676E+00  5.56904E+00  5.70453E+00
#           5.84333E+00  5.98550E+00  6.13114E+00  6.28031E+00  6.43312E+00
#           6.58964E+00  6.74997E+00  6.91420E+00  7.08243E+00  7.25475E+00
#           7.43126E+00  7.61207E+00  7.79728E+00  7.98700E+00  8.18133E+00
#           8.38038E+00  8.58428E+00  8.79315E+00  9.00709E+00  9.22624E+00
#           9.45072E+00  9.68067E+00  9.91620E+00  1.01575E+01  1.04046E+01
#           1.06578E+01  1.09171E+01  1.11827E+01  1.14548E+01  1.17335E+01
#           1.20190E+01  1.23114E+01  1.26109E+01  1.29178E+01  1.32321E+01
#           1.35540E+01  1.38838E+01  1.42216E+01  1.45676E+01  1.49221E+01
#           1.52851E+01  1.56570E+01  1.60380E+01  1.64282E+01  1.68279E+01
#           1.72374E+01  1.76568E+01  1.80864E+01  1.85264E+01  1.89772E+01
#           1.94389E+01  1.99119E+01  2.03963E+01  2.08926E+01  2.14009E+01
#           2.19216E+01  2.24550E+01  2.30014E+01  2.35610E+01  2.41343E+01
#           2.47215E+01  2.53230E+01  2.59391E+01  2.65702E+01  2.72167E+01
#           2.78789E+01  2.85572E+01  2.92520E+01  2.99637E+01  3.06928E+01
#           3.14396E+01  3.22045E+01  3.29881E+01  3.37907E+01  3.46128E+01
#           3.54550E+01  3.63177E+01  3.72013E+01  3.81064E+01  3.90336E+01
#           3.99833E+01  4.09561E+01  4.19526E+01  4.29734E+01  4.40189E+01
#           4.50900E+01  4.61870E+01  4.73108E+01  4.84619E+01  4.96410E+01
#           5.08488E+01  5.20860E+01  5.33533E+01  5.46514E+01  5.59812E+01
#           5.73432E+01  5.87384E+01  6.01676E+01  6.16315E+01  6.31311E+01
#           6.46671E+01  6.62405E+01  6.78522E+01  6.95031E+01  7.11941E+01
#           7.29263E+01  7.47007E+01  7.65182E+01  7.83800E+01  8.02870E+01
#           8.22405E+01  8.42414E+01  8.62911E+01  8.83906E+01  9.05412E+01
#           9.27442E+01  9.50007E+01  9.73122E+01  9.96799E+01  1.02105E+02
#           1.04589E+02  1.07134E+02  1.09741E+02  1.12411E+02  1.15146E+02
#           1.17948E+02  1.20817E+02  1.23757E+02  1.26768E+02  1.29852E+02
#           1.33012E+02  1.36248E+02  1.39563E+02  1.42959E+02  1.46437E+02
#           1.50000E+02
     unit =    2            # unit is [1/cm^2/(MeV/n)/source]
     axis =  eng            # axis of output
     file = detector-11.out  # file name of output for the above axis
   output = f-curr          # surface crossing forward current spectrum
     part =  neutron  
# kf/name :  2112     
#    used :        main (  %)        temp (  %)       total (  %)
#  memory :         414 (  0)           0 (  0)         414 (  0)

#------------------------------------------------------------------------------
#newpage:
#   no. =    1   reg = 110 - 210

x: Energy [MeV/n]
y:  F-Curr [1/cm^2/(MeV/n)/source]         
p: xlog ylog afac(0.8) form(0.9)
h: n            x            y(neutron ),hh0l   n 
#  e-lower      e-upper      neutron     r.err 
   1.0000E-02   1.0243E-02   3.4635E-04  0.0808
   1.0243E-02   1.0493E-02   2.8002E-04  0.0889
   1.0493E-02   1.0748E-02   3.5480E-04  0.0780
   1.0748E-02   1.1009E-02   3.2979E-04  0.0798
   1.1009E-02   1.1277E-02   2.7904E-04  0.0858
   1.1277E-02   1.1552E-02   3.8464E-04  0.0721
   1.1552E-02   1.1833E-02   3.4658E-04  0.0749
   1.1833E-02   1.2121E-02   2.9629E-04  0.0804
   1.2121E-02   1.2415E-02   2.8871E-04  0.0804
   1.2415E-02   1.2718E-02   2.9134E-04  0.0789
   1.2718E-02   1.3027E-02   2.6857E-04  0.0814
   1.3027E-02   1.3344E-02   3.1136E-04  0.0746
   1.3344E-02   1.3669E-02   3.4958E-04  0.0695
   1.3669E-02   1.4001E-02   2.6429E-04  0.0791
   1.4001E-02   1.4342E-02   2.6989E-04  0.0772
   1.4342E-02   1.4691E-02   2.6543E-04  0.0772
   1.4691E-02   1.5048E-02   2.8646E-04  0.0733
   1.5048E-02   1.5414E-02   2.6525E-04  0.0753
   1.5414E-02   1.5789E-02   2.4513E-04  0.0774
   1.5789E-02   1.6174E-02   2.4549E-04  0.0763
   1.6174E-02   1.6567E-02   2.6754E-04  0.0723
   1.6567E-02   1.6970E-02   2.2673E-04  0.0775
   1.6970E-02   1.7383E-02   2.2526E-04  0.0769
   1.7383E-02   1.7806E-02   2.0480E-04  0.0797
   1.7806E-02   1.8239E-02   2.1046E-04  0.0779
   1.8239E-02   1.8683E-02   2.0010E-04  0.0787
   1.8683E-02   1.9138E-02   1.9356E-04  0.0791
   1.9138E-02   1.9603E-02   1.9725E-04  0.0772
   1.9603E-02   2.0080E-02   1.8857E-04  0.0782
   2.0080E-02   2.0569E-02   1.8800E-04  0.0774
   2.0569E-02   2.1069E-02   1.8412E-04  0.0774
   2.1069E-02   2.1582E-02   1.7171E-04  0.0791
   2.1582E-02   2.2107E-02   1.7826E-04  0.0767
   2.2107E-02   2.2645E-02   1.6325E-04  0.0791
   2.2645E-02   2.3196E-02   1.6747E-04  0.0772
   2.3196E-02   2.3760E-02   1.6181E-04  0.0776
   2.3760E-02   2.4338E-02   1.6417E-04  0.0761
   2.4338E-02   2.4930E-02   1.6565E-04  0.0750
   2.4930E-02   2.5537E-02   1.5981E-04  0.0754
   2.5537E-02   2.6158E-02   1.7240E-04  0.0717
   2.6158E-02   2.6795E-02   1.3767E-04  0.0793
   2.6795E-02   2.7447E-02   1.4430E-04  0.0763
   2.7447E-02   2.8114E-02   1.2870E-04  0.0801
   2.8114E-02   2.8799E-02   1.6053E-04  0.0709
   2.8799E-02   2.9499E-02   1.3773E-04  0.0754
   2.9499E-02   3.0217E-02   1.3402E-04  0.0756
   3.0217E-02   3.0952E-02   1.3653E-04  0.0740
   3.0952E-02   3.1705E-02   1.2661E-04  0.0761
   3.1705E-02   3.2477E-02   1.2922E-04  0.0744
   3.2477E-02   3.3267E-02   1.2586E-04  0.0744
   3.3267E-02   3.4076E-02   1.2505E-04  0.0738
   3.4076E-02   3.4905E-02   1.2164E-04  0.0738
   3.4905E-02   3.5755E-02   1.1725E-04  0.0742
   3.5755E-02   3.6625E-02   1.1429E-04  0.0742
   3.6625E-02   3.7516E-02   1.0607E-04  0.0762
   3.7516E-02   3.8428E-02   1.0904E-04  0.0743
   3.8428E-02   3.9363E-02   1.0756E-04  0.0740
   3.9363E-02   4.0321E-02   1.2733E-04  0.0671
   4.0321E-02   4.1302E-02   1.1977E-04  0.0684
   4.1302E-02   4.2307E-02   9.2182E-05  0.0772
   4.2307E-02   4.3337E-02   9.8847E-05  0.0737
   4.3337E-02   4.4391E-02   1.0017E-04  0.0721
   4.4391E-02   4.5471E-02   9.7875E-05  0.0722
   4.5471E-02   4.6577E-02   9.8743E-05  0.0709
   4.6577E-02   4.7711E-02   9.7347E-05  0.0707
   4.7711E-02   4.8871E-02   9.1505E-05  0.0719
   4.8871E-02   5.0061E-02   9.2831E-05  0.0707
   5.0061E-02   5.1279E-02   8.9667E-05  0.0710
   5.1279E-02   5.2526E-02   7.6121E-05  0.0762
   5.2526E-02   5.3804E-02   8.2608E-05  0.0721
   5.3804E-02   5.5113E-02   7.1974E-05  0.0762
   5.5113E-02   5.6454E-02   8.3488E-05  0.0701
   5.6454E-02   5.7828E-02   7.6100E-05  0.0723
   5.7828E-02   5.9235E-02   7.9138E-05  0.0704
   5.9235E-02   6.0676E-02   7.5930E-05  0.0710
   6.0676E-02   6.2152E-02   7.8554E-05  0.0689
   6.2152E-02   6.3665E-02   6.6413E-05  0.0740
   6.3665E-02   6.5214E-02   7.9881E-05  0.0667
   6.5214E-02   6.6800E-02   7.2591E-05  0.0691
   6.6800E-02   6.8426E-02   6.6922E-05  0.0710
   6.8426E-02   7.0090E-02   6.3286E-05  0.0721
   7.0090E-02   7.1796E-02   6.7530E-05  0.0692
   7.1796E-02   7.3543E-02   6.4592E-05  0.0699
   7.3543E-02   7.5332E-02   7.0646E-05  0.0659
   7.5332E-02   7.7165E-02   5.8779E-05  0.0714
   7.7165E-02   7.9042E-02   5.7862E-05  0.0711
   7.9042E-02   8.0965E-02   6.2416E-05  0.0676
   8.0965E-02   8.2935E-02   6.1367E-05  0.0675
   8.2935E-02   8.4953E-02   5.9568E-05  0.0677
   8.4953E-02   8.7020E-02   5.8800E-05  0.0673
   8.7020E-02   8.9138E-02   5.7008E-05  0.0676
   8.9138E-02   9.1306E-02   5.7866E-05  0.0663
   9.1306E-02   9.3528E-02   5.6188E-05  0.0664
   9.3528E-02   9.5804E-02   5.7618E-05  0.0648
   9.5804E-02   9.8134E-02   5.8030E-05  0.0638
   9.8134E-02   1.0052E-01   6.0136E-05  0.0620
   1.0052E-01   1.0297E-01   5.8601E-05  0.0620
   1.0297E-01   1.0547E-01   5.7852E-05  0.0616
   1.0547E-01   1.0804E-01   5.8758E-05  0.0604
   1.0804E-01   1.1067E-01   5.8968E-05  0.0596
   1.1067E-01   1.1336E-01   6.3197E-05  0.0568
   1.1336E-01   1.1612E-01   7.6952E-05  0.0509
   1.1612E-01   1.1894E-01   7.3432E-05  0.0514
   1.1894E-01   1.2184E-01   7.8750E-05  0.0491
   1.2184E-01   1.2480E-01   8.1369E-05  0.0478
   1.2480E-01   1.2784E-01   8.1980E-05  0.0470
   1.2784E-01   1.3095E-01   8.8507E-05  0.0447
   1.3095E-01   1.3414E-01   9.8433E-05  0.0419
   1.3414E-01   1.3740E-01   9.4180E-05  0.0424
   1.3740E-01   1.4074E-01   9.9817E-05  0.0406
   1.4074E-01   1.4417E-01   9.7779E-05  0.0406
   1.4417E-01   1.4767E-01   1.0441E-04  0.0388
   1.4767E-01   1.5127E-01   1.0848E-04  0.0376
   1.5127E-01   1.5495E-01   1.1753E-04  0.0357
   1.5495E-01   1.5872E-01   1.1323E-04  0.0359
   1.5872E-01   1.6258E-01   1.2266E-04  0.0341
   1.6258E-01   1.6654E-01   1.2427E-04  0.0335
   1.6654E-01   1.7059E-01   1.3432E-04  0.0318
   1.7059E-01   1.7474E-01   1.4106E-04  0.0306
   1.7474E-01   1.7899E-01   1.4410E-04  0.0300
   1.7899E-01   1.8334E-01   1.4692E-04  0.0293
   1.8334E-01   1.8781E-01   1.4679E-04  0.0290
   1.8781E-01   1.9237E-01   1.5993E-04  0.0274
   1.9237E-01   1.9706E-01   1.5840E-04  0.0273
   1.9706E-01   2.0185E-01   1.6832E-04  0.0261
   2.0185E-01   2.0676E-01   1.6751E-04  0.0258
   2.0676E-01   2.1179E-01   1.8404E-04  0.0244
   2.1179E-01   2.1694E-01   1.8453E-04  0.0241
   2.1694E-01   2.2222E-01   1.9038E-04  0.0234
   2.2222E-01   2.2763E-01   1.9373E-04  0.0229
   2.2763E-01   2.3317E-01   2.0083E-04  0.0222
   2.3317E-01   2.3884E-01   2.0560E-04  0.0217
   2.3884E-01   2.4465E-01   2.1380E-04  0.0210
   2.4465E-01   2.5061E-01   2.2805E-04  0.0201
   2.5061E-01   2.5670E-01   2.2897E-04  0.0199
   2.5670E-01   2.6295E-01   2.3892E-04  0.0192
   2.6295E-01   2.6935E-01   2.4170E-04  0.0189
   2.6935E-01   2.7590E-01   2.5226E-04  0.0182
   2.7590E-01   2.8261E-01   2.6056E-04  0.0177
   2.8261E-01   2.8949E-01   2.6366E-04  0.0174
   2.8949E-01   2.9653E-01   2.6325E-04  0.0172
   2.9653E-01   3.0375E-01   2.7452E-04  0.0167
   3.0375E-01   3.1114E-01   2.8187E-04  0.0162
   3.1114E-01   3.1871E-01   2.9042E-04  0.0158
   3.1871E-01   3.2646E-01   3.0364E-04  0.0153
   3.2646E-01   3.3441E-01   3.0510E-04  0.0151
   3.3441E-01   3.4254E-01   3.1149E-04  0.0147
   3.4254E-01   3.5088E-01   3.1311E-04  0.0145
   3.5088E-01   3.5941E-01   3.2357E-04  0.0141
   3.5941E-01   3.6816E-01   3.3676E-04  0.0137
   3.6816E-01   3.7712E-01   3.3869E-04  0.0135
   3.7712E-01   3.8629E-01   3.5467E-04  0.0130
   3.8629E-01   3.9569E-01   3.5279E-04  0.0129
   3.9569E-01   4.0532E-01   3.6371E-04  0.0125
   4.0532E-01   4.1518E-01   3.7022E-04  0.0123
   4.1518E-01   4.2528E-01   3.7271E-04  0.0121
   4.2528E-01   4.3563E-01   3.7854E-04  0.0118
   4.3563E-01   4.4623E-01   3.8844E-04  0.0115
   4.4623E-01   4.5708E-01   3.8193E-04  0.0115
   4.5708E-01   4.6821E-01   3.8826E-04  0.0113
   4.6821E-01   4.7960E-01   3.9370E-04  0.0111
   4.7960E-01   4.9127E-01   3.9807E-04  0.0109
   4.9127E-01   5.0322E-01   3.9985E-04  0.0107
   5.0322E-01   5.1546E-01   4.1165E-04  0.0104
   5.1546E-01   5.2800E-01   4.0581E-04  0.0104
   5.2800E-01   5.4085E-01   4.0825E-04  0.0102
   5.4085E-01   5.5401E-01   4.1418E-04  0.0100
   5.5401E-01   5.6749E-01   4.2137E-04  0.0098
   5.6749E-01   5.8130E-01   4.1475E-04  0.0098
   5.8130E-01   5.9544E-01   4.2267E-04  0.0096
   5.9544E-01   6.0993E-01   4.1627E-04  0.0095
   6.0993E-01   6.2477E-01   4.1677E-04  0.0094
   6.2477E-01   6.3997E-01   4.2234E-04  0.0092
   6.3997E-01   6.5554E-01   4.1696E-04  0.0092
   6.5554E-01   6.7149E-01   4.1605E-04  0.0091
   6.7149E-01   6.8783E-01   4.2547E-04  0.0089
   6.8783E-01   7.0456E-01   4.1314E-04  0.0089
   7.0456E-01   7.2171E-01   4.0887E-04  0.0088
   7.2171E-01   7.3927E-01   4.0208E-04  0.0088
   7.3927E-01   7.5725E-01   3.9167E-04  0.0088
   7.5725E-01   7.7568E-01   3.9792E-04  0.0086
   7.7568E-01   7.9455E-01   3.8637E-04  0.0087
   7.9455E-01   8.1388E-01   3.7502E-04  0.0087
   8.1388E-01   8.3368E-01   3.6841E-04  0.0087
   8.3368E-01   8.5397E-01   3.5888E-04  0.0087
   8.5397E-01   8.7475E-01   3.5028E-04  0.0087
   8.7475E-01   8.9603E-01   3.3431E-04  0.0087
   8.9603E-01   9.1783E-01   3.2297E-04  0.0088
   9.1783E-01   9.4016E-01   3.1375E-04  0.0088
   9.4016E-01   9.6304E-01   3.0446E-04  0.0088
   9.6304E-01   9.8647E-01   2.9023E-04  0.0089
   9.8647E-01   1.0105E+00   2.8814E-04  0.0089
   1.0105E+00   1.0351E+00   2.8680E-04  0.0088
   1.0351E+00   1.0602E+00   2.8858E-04  0.0086
   1.0602E+00   1.0860E+00   2.9508E-04  0.0084
   1.0860E+00   1.1125E+00   3.0434E-04  0.0082
   1.1125E+00   1.1395E+00   3.1349E-04  0.0080
   1.1395E+00   1.1673E+00   3.2290E-04  0.0078
   1.1673E+00   1.1957E+00   3.2884E-04  0.0076
   1.1957E+00   1.2247E+00   3.3747E-04  0.0074
   1.2247E+00   1.2545E+00   3.4241E-04  0.0073
   1.2545E+00   1.2851E+00   3.4620E-04  0.0071
   1.2851E+00   1.3163E+00   3.4999E-04  0.0070
   1.3163E+00   1.3484E+00   3.6169E-04  0.0068
   1.3484E+00   1.3812E+00   3.6778E-04  0.0067
   1.3812E+00   1.4148E+00   3.7162E-04  0.0066
   1.4148E+00   1.4492E+00   3.7633E-04  0.0064
   1.4492E+00   1.4845E+00   3.7395E-04  0.0064
   1.4845E+00   1.5206E+00   3.7299E-04  0.0063
   1.5206E+00   1.5576E+00   3.7492E-04  0.0062
   1.5576E+00   1.5955E+00   3.7214E-04  0.0062
   1.5955E+00   1.6343E+00   3.7754E-04  0.0060
   1.6343E+00   1.6741E+00   3.7211E-04  0.0060
   1.6741E+00   1.7148E+00   3.7751E-04  0.0059
   1.7148E+00   1.7565E+00   3.6876E-04  0.0059
   1.7565E+00   1.7992E+00   3.5214E-04  0.0059
   1.7992E+00   1.8430E+00   3.3223E-04  0.0060
   1.8430E+00   1.8879E+00   3.2829E-04  0.0060
   1.8879E+00   1.9338E+00   3.2430E-04  0.0059
   1.9338E+00   1.9808E+00   3.2140E-04  0.0059
   1.9808E+00   2.0290E+00   3.2672E-04  0.0058
   2.0290E+00   2.0784E+00   3.2967E-04  0.0056
   2.0784E+00   2.1290E+00   3.3893E-04  0.0055
   2.1290E+00   2.1808E+00   3.4485E-04  0.0054
   2.1808E+00   2.2338E+00   3.4668E-04  0.0053
   2.2338E+00   2.2882E+00   3.3874E-04  0.0053
   2.2882E+00   2.3439E+00   3.3160E-04  0.0053
   2.3439E+00   2.4009E+00   3.3393E-04  0.0052
   2.4009E+00   2.4593E+00   3.3435E-04  0.0052
   2.4593E+00   2.5191E+00   3.3318E-04  0.0051
   2.5191E+00   2.5804E+00   3.3246E-04  0.0051
   2.5804E+00   2.6432E+00   3.2802E-04  0.0050
   2.6432E+00   2.7075E+00   3.2845E-04  0.0050
   2.7075E+00   2.7734E+00   3.2576E-04  0.0049
   2.7734E+00   2.8409E+00   3.2456E-04  0.0049
   2.8409E+00   2.9100E+00   3.2743E-04  0.0048
   2.9100E+00   2.9808E+00   3.2823E-04  0.0048
   2.9808E+00   3.0533E+00   3.2335E-04  0.0047
   3.0533E+00   3.1276E+00   3.2121E-04  0.0047
   3.1276E+00   3.2037E+00   3.1781E-04  0.0047
   3.2037E+00   3.2817E+00   3.1982E-04  0.0046
   3.2817E+00   3.3615E+00   3.1311E-04  0.0046
   3.3615E+00   3.4433E+00   3.1556E-04  0.0045
   3.4433E+00   3.5271E+00   3.1300E-04  0.0045
   3.5271E+00   3.6129E+00   3.1217E-04  0.0045
   3.6129E+00   3.7008E+00   3.0858E-04  0.0044
   3.7008E+00   3.7908E+00   3.0465E-04  0.0044
   3.7908E+00   3.8831E+00   3.0283E-04  0.0044
   3.8831E+00   3.9776E+00   2.9999E-04  0.0043
   3.9776E+00   4.0743E+00   2.9701E-04  0.0043
   4.0743E+00   4.1735E+00   2.9018E-04  0.0043
   4.1735E+00   4.2750E+00   2.8880E-04  0.0043
   4.2750E+00   4.3790E+00   2.8076E-04  0.0043
   4.3790E+00   4.4856E+00   2.7439E-04  0.0043
   4.4856E+00   4.5947E+00   2.6722E-04  0.0043
   4.5947E+00   4.7065E+00   2.6477E-04  0.0042
   4.7065E+00   4.8210E+00   2.6162E-04  0.0042
   4.8210E+00   4.9383E+00   2.5714E-04  0.0042
   4.9383E+00   5.0585E+00   2.5300E-04  0.0042
   5.0585E+00   5.1815E+00   2.5181E-04  0.0042
   5.1815E+00   5.3076E+00   2.4807E-04  0.0041
   5.3076E+00   5.4368E+00   2.4293E-04  0.0041
   5.4368E+00   5.5690E+00   2.3920E-04  0.0041
   5.5690E+00   5.7045E+00   2.3647E-04  0.0041
   5.7045E+00   5.8433E+00   2.3243E-04  0.0041
   5.8433E+00   5.9855E+00   2.2978E-04  0.0041
   5.9855E+00   6.1311E+00   2.2682E-04  0.0040
   6.1311E+00   6.2803E+00   2.2181E-04  0.0040
   6.2803E+00   6.4331E+00   2.2107E-04  0.0040
   6.4331E+00   6.5896E+00   2.1546E-04  0.0040
   6.5896E+00   6.7500E+00   2.1088E-04  0.0040
   6.7500E+00   6.9142E+00   2.0744E-04  0.0040
   6.9142E+00   7.0824E+00   2.0307E-04  0.0040
   7.0824E+00   7.2548E+00   1.9915E-04  0.0040
   7.2548E+00   7.4313E+00   1.9574E-04  0.0040
   7.4313E+00   7.6121E+00   1.9012E-04  0.0040
   7.6121E+00   7.7973E+00   1.8662E-04  0.0040
   7.7973E+00   7.9870E+00   1.8307E-04  0.0039
   7.9870E+00   8.1813E+00   1.7775E-04  0.0040
   8.1813E+00   8.3804E+00   1.7307E-04  0.0040
   8.3804E+00   8.5843E+00   1.6679E-04  0.0040
   8.5843E+00   8.7931E+00   1.6085E-04  0.0040
   8.7931E+00   9.0071E+00   1.5725E-04  0.0040
   9.0071E+00   9.2262E+00   1.5229E-04  0.0040
   9.2262E+00   9.4507E+00   1.4858E-04  0.0040
   9.4507E+00   9.6807E+00   1.4343E-04  0.0041
   9.6807E+00   9.9162E+00   1.4059E-04  0.0041
   9.9162E+00   1.0157E+01   1.4592E-04  0.0040
   1.0157E+01   1.0405E+01   1.4057E-04  0.0040
   1.0405E+01   1.0658E+01   1.3541E-04  0.0040
   1.0658E+01   1.0917E+01   1.3027E-04  0.0040
   1.0917E+01   1.1183E+01   1.2457E-04  0.0041
   1.1183E+01   1.1455E+01   1.2069E-04  0.0041
   1.1455E+01   1.1733E+01   1.1814E-04  0.0041
   1.1733E+01   1.2019E+01   1.1426E-04  0.0041
   1.2019E+01   1.2311E+01   1.1148E-04  0.0041
   1.2311E+01   1.2611E+01   1.0822E-04  0.0041
   1.2611E+01   1.2918E+01   1.0582E-04  0.0041
   1.2918E+01   1.3232E+01   1.0196E-04  0.0042
   1.3232E+01   1.3554E+01   1.0006E-04  0.0041
   1.3554E+01   1.3884E+01   9.6461E-05  0.0042
   1.3884E+01   1.4222E+01   9.4997E-05  0.0042
   1.4222E+01   1.4568E+01   9.2153E-05  0.0042
   1.4568E+01   1.4922E+01   8.9746E-05  0.0042
   1.4922E+01   1.5285E+01   8.6164E-05  0.0042
   1.5285E+01   1.5657E+01   8.3674E-05  0.0042
   1.5657E+01   1.6038E+01   8.1474E-05  0.0042
   1.6038E+01   1.6428E+01   7.8733E-05  0.0042
   1.6428E+01   1.6828E+01   7.6537E-05  0.0043
   1.6828E+01   1.7237E+01   7.3704E-05  0.0043
   1.7237E+01   1.7657E+01   7.0989E-05  0.0043
   1.7657E+01   1.8086E+01   6.8572E-05  0.0043
   1.8086E+01   1.8526E+01   6.6016E-05  0.0044
   1.8526E+01   1.8977E+01   6.4027E-05  0.0044
   1.8977E+01   1.9439E+01   6.1385E-05  0.0044
   1.9439E+01   1.9912E+01   5.9650E-05  0.0044
   1.9912E+01   2.0396E+01   5.8126E-05  0.0044
   2.0396E+01   2.0893E+01   5.6151E-05  0.0045
   2.0893E+01   2.1401E+01   5.4040E-05  0.0045
   2.1401E+01   2.1922E+01   5.1581E-05  0.0045
   2.1922E+01   2.2455E+01   5.0213E-05  0.0046
   2.2455E+01   2.3001E+01   4.7323E-05  0.0046
   2.3001E+01   2.3561E+01   4.5671E-05  0.0047
   2.3561E+01   2.4134E+01   4.3835E-05  0.0047
   2.4134E+01   2.4721E+01   4.3034E-05  0.0047
   2.4721E+01   2.5323E+01   4.1890E-05  0.0047
   2.5323E+01   2.5939E+01   4.0005E-05  0.0047
   2.5939E+01   2.6570E+01   3.7974E-05  0.0048
   2.6570E+01   2.7217E+01   3.5859E-05  0.0049
   2.7217E+01   2.7879E+01   3.3892E-05  0.0050
   2.7879E+01   2.8557E+01   3.2105E-05  0.0051
   2.8557E+01   2.9252E+01   3.0115E-05  0.0052
   2.9252E+01   2.9964E+01   2.8258E-05  0.0053
   2.9964E+01   3.0693E+01   2.6127E-05  0.0054
   3.0693E+01   3.1440E+01   2.4580E-05  0.0055
   3.1440E+01   3.2205E+01   2.2820E-05  0.0056
   3.2205E+01   3.2988E+01   2.0908E-05  0.0058
   3.2988E+01   3.3791E+01   1.9432E-05  0.0060
   3.3791E+01   3.4613E+01   1.7756E-05  0.0062
   3.4613E+01   3.5455E+01   1.6445E-05  0.0063
   3.5455E+01   3.6318E+01   1.4908E-05  0.0066
   3.6318E+01   3.7201E+01   1.3609E-05  0.0068
   3.7201E+01   3.8106E+01   1.2419E-05  0.0070
   3.8106E+01   3.9034E+01   1.1003E-05  0.0074
   3.9034E+01   3.9983E+01   9.7585E-06  0.0077
   3.9983E+01   4.0956E+01   8.5798E-06  0.0082
   4.0956E+01   4.1953E+01   7.5604E-06  0.0086
   4.1953E+01   4.2973E+01   6.3200E-06  0.0093
   4.2973E+01   4.4019E+01   5.4627E-06  0.0099
   4.4019E+01   4.5090E+01   4.6109E-06  0.0106
   4.5090E+01   4.6187E+01   3.9707E-06  0.0113
   4.6187E+01   4.7311E+01   3.3825E-06  0.0121
   4.7311E+01   4.8462E+01   2.8407E-06  0.0130
   4.8462E+01   4.9641E+01   2.3087E-06  0.0143
   4.9641E+01   5.0849E+01   1.9806E-06  0.0152
   5.0849E+01   5.2086E+01   1.6615E-06  0.0164
   5.2086E+01   5.3353E+01   1.3511E-06  0.0180
   5.3353E+01   5.4651E+01   1.1084E-06  0.0196
   5.4651E+01   5.5981E+01   9.4883E-07  0.0210
   5.5981E+01   5.7343E+01   8.6429E-07  0.0217
   5.7343E+01   5.8738E+01   7.7169E-07  0.0227
   5.8738E+01   6.0168E+01   5.7804E-07  0.0259
   6.0168E+01   6.1632E+01   2.8614E-07  0.0364
   6.1632E+01   6.3131E+01   6.1500E-08  0.0776
   6.3131E+01   6.4667E+01   1.9531E-08  0.1361
   6.4667E+01   6.6240E+01   4.9433E-09  0.2673
   6.6240E+01   6.7852E+01   6.8941E-10  0.7071
   6.7852E+01   6.9503E+01   0.0000E+00  0.0000
   6.9503E+01   7.1194E+01   0.0000E+00  0.0000
   7.1194E+01   7.2926E+01   0.0000E+00  0.0000
   7.2926E+01   7.4701E+01   0.0000E+00  0.0000
   7.4701E+01   7.6518E+01   0.0000E+00  0.0000
   7.6518E+01   7.8380E+01   0.0000E+00  0.0000
   7.8380E+01   8.0287E+01   0.0000E+00  0.0000
   8.0287E+01   8.2240E+01   0.0000E+00  0.0000
   8.2240E+01   8.4241E+01   0.0000E+00  0.0000
   8.4241E+01   8.6291E+01   0.0000E+00  0.0000
   8.6291E+01   8.8391E+01   0.0000E+00  0.0000
   8.8391E+01   9.0541E+01   0.0000E+00  0.0000
   9.0541E+01   9.2744E+01   0.0000E+00  0.0000
   9.2744E+01   9.5001E+01   0.0000E+00  0.0000
   9.5001E+01   9.7312E+01   0.0000E+00  0.0000
   9.7312E+01   9.9680E+01   0.0000E+00  0.0000
   9.9680E+01   1.0211E+02   0.0000E+00  0.0000
   1.0211E+02   1.0459E+02   0.0000E+00  0.0000
   1.0459E+02   1.0713E+02   0.0000E+00  0.0000
   1.0713E+02   1.0974E+02   0.0000E+00  0.0000
   1.0974E+02   1.1241E+02   0.0000E+00  0.0000
   1.1241E+02   1.1515E+02   0.0000E+00  0.0000
   1.1515E+02   1.1795E+02   0.0000E+00  0.0000
   1.1795E+02   1.2082E+02   0.0000E+00  0.0000
   1.2082E+02   1.2376E+02   0.0000E+00  0.0000
   1.2376E+02   1.2677E+02   0.0000E+00  0.0000
   1.2677E+02   1.2985E+02   0.0000E+00  0.0000
   1.2985E+02   1.3301E+02   0.0000E+00  0.0000
   1.3301E+02   1.3625E+02   0.0000E+00  0.0000
   1.3625E+02   1.3956E+02   0.0000E+00  0.0000
   1.3956E+02   1.4296E+02   0.0000E+00  0.0000
   1.4296E+02   1.4644E+02   0.0000E+00  0.0000
   1.4644E+02   1.5000E+02   0.0000E+00  0.0000

#   sum over                 2.7219E-05
'no. =    1   reg = 110 - 210'
msuc: {\huge [t-cross] in region mesh}
msdr: {\it plotted by \ANGEL \version}
msdl: {\it calculated by \PHITS  3.26}
wt: s(0.7)
\vspace{-3}
  region surface crossing
  area  &=&   1.0000E+00 [cm^2]
e:
 
# Information for Restart Calculation
# This calculation was newly started
# istdev =  2 # 1:Batch variance, 2:History variance
# resc2  = 1.80000000000000000E+09 # Total source weight or Total source weight / maxcas
# resc3  = 1.80000000000000000E+09 # Total history number or Total batch number
# maxcas =   100000000 # History / Batch, only used for istdev=1
# bitrseed = 0100100101011000101100110010101110011100000011101000101001100110 # bit data of rseed
