[ T-Cross ]
    title = [t-cross] in region mesh
     mesh =  reg            # mesh type is region-wise
      reg =    1            # number of crossing regions
      non     r-from    r-to       area
      1       106       206        1.000000    
   e-type =    3            # e-mesh is log given by emin, emax and ne
     emin =  1.0000000E-02  # minimum value of e-mesh points
     emax =   150.0000      # maximum value of e-mesh points
#    edel =  2.4039514E-02  # mesh width of e-mesh points
       ne =    400          # number of e-mesh points
#    data = ( e(i), i = 1, ne + 1 )
#           1.00000E-02  1.02433E-02  1.04925E-02  1.07478E-02  1.10093E-02
#           1.12772E-02  1.15516E-02  1.18326E-02  1.21205E-02  1.24154E-02
#           1.27175E-02  1.30269E-02  1.33439E-02  1.36686E-02  1.40011E-02
#           1.43418E-02  1.46907E-02  1.50482E-02  1.54143E-02  1.57894E-02
#           1.61735E-02  1.65670E-02  1.69701E-02  1.73830E-02  1.78060E-02
#           1.82392E-02  1.86830E-02  1.91375E-02  1.96032E-02  2.00801E-02
#           2.05687E-02  2.10692E-02  2.15818E-02  2.21069E-02  2.26448E-02
#           2.31957E-02  2.37601E-02  2.43382E-02  2.49304E-02  2.55369E-02
#           2.61583E-02  2.67947E-02  2.74467E-02  2.81145E-02  2.87985E-02
#           2.94992E-02  3.02169E-02  3.09521E-02  3.17052E-02  3.24766E-02
#           3.32668E-02  3.40762E-02  3.49053E-02  3.57546E-02  3.66246E-02
#           3.75157E-02  3.84284E-02  3.93634E-02  4.03212E-02  4.13022E-02
#           4.23071E-02  4.33365E-02  4.43909E-02  4.54710E-02  4.65773E-02
#           4.77106E-02  4.88714E-02  5.00605E-02  5.12785E-02  5.25262E-02
#           5.38042E-02  5.51133E-02  5.64542E-02  5.78278E-02  5.92348E-02
#           6.06760E-02  6.21523E-02  6.36645E-02  6.52135E-02  6.68002E-02
#           6.84255E-02  7.00904E-02  7.17957E-02  7.35426E-02  7.53319E-02
#           7.71648E-02  7.90423E-02  8.09655E-02  8.29354E-02  8.49533E-02
#           8.70203E-02  8.91376E-02  9.13064E-02  9.35279E-02  9.58035E-02
#           9.81345E-02  1.00522E-01  1.02968E-01  1.05473E-01  1.08040E-01
#           1.10668E-01  1.13361E-01  1.16119E-01  1.18944E-01  1.21838E-01
#           1.24803E-01  1.27839E-01  1.30950E-01  1.34136E-01  1.37399E-01
#           1.40742E-01  1.44167E-01  1.47675E-01  1.51268E-01  1.54948E-01
#           1.58718E-01  1.62580E-01  1.66535E-01  1.70587E-01  1.74738E-01
#           1.78989E-01  1.83344E-01  1.87805E-01  1.92375E-01  1.97055E-01
#           2.01850E-01  2.06761E-01  2.11792E-01  2.16945E-01  2.22223E-01
#           2.27630E-01  2.33169E-01  2.38842E-01  2.44653E-01  2.50605E-01
#           2.56703E-01  2.62949E-01  2.69346E-01  2.75900E-01  2.82613E-01
#           2.89489E-01  2.96532E-01  3.03747E-01  3.11138E-01  3.18708E-01
#           3.26462E-01  3.34405E-01  3.42542E-01  3.50876E-01  3.59413E-01
#           3.68158E-01  3.77116E-01  3.86291E-01  3.95690E-01  4.05317E-01
#           4.15179E-01  4.25281E-01  4.35628E-01  4.46227E-01  4.57084E-01
#           4.68205E-01  4.79597E-01  4.91266E-01  5.03219E-01  5.15463E-01
#           5.28005E-01  5.40851E-01  5.54011E-01  5.67490E-01  5.81298E-01
#           5.95441E-01  6.09929E-01  6.24769E-01  6.39970E-01  6.55541E-01
#           6.71491E-01  6.87828E-01  7.04564E-01  7.21706E-01  7.39266E-01
#           7.57253E-01  7.75678E-01  7.94551E-01  8.13883E-01  8.33685E-01
#           8.53969E-01  8.74747E-01  8.96030E-01  9.17831E-01  9.40163E-01
#           9.63038E-01  9.86469E-01  1.01047E+00  1.03506E+00  1.06024E+00
#           1.08604E+00  1.11246E+00  1.13953E+00  1.16725E+00  1.19565E+00
#           1.22474E+00  1.25454E+00  1.28507E+00  1.31633E+00  1.34836E+00
#           1.38117E+00  1.41477E+00  1.44920E+00  1.48446E+00  1.52057E+00
#           1.55757E+00  1.59547E+00  1.63429E+00  1.67405E+00  1.71478E+00
#           1.75650E+00  1.79924E+00  1.84302E+00  1.88786E+00  1.93379E+00
#           1.98084E+00  2.02904E+00  2.07841E+00  2.12898E+00  2.18078E+00
#           2.23384E+00  2.28819E+00  2.34386E+00  2.40089E+00  2.45930E+00
#           2.51914E+00  2.58043E+00  2.64322E+00  2.70753E+00  2.77341E+00
#           2.84088E+00  2.91001E+00  2.98081E+00  3.05333E+00  3.12762E+00
#           3.20372E+00  3.28167E+00  3.36152E+00  3.44330E+00  3.52708E+00
#           3.61290E+00  3.70080E+00  3.79085E+00  3.88308E+00  3.97756E+00
#           4.07434E+00  4.17347E+00  4.27501E+00  4.37903E+00  4.48557E+00
#           4.59471E+00  4.70650E+00  4.82102E+00  4.93832E+00  5.05847E+00
#           5.18155E+00  5.30762E+00  5.43676E+00  5.56904E+00  5.70453E+00
#           5.84333E+00  5.98550E+00  6.13114E+00  6.28031E+00  6.43312E+00
#           6.58964E+00  6.74997E+00  6.91420E+00  7.08243E+00  7.25475E+00
#           7.43126E+00  7.61207E+00  7.79728E+00  7.98700E+00  8.18133E+00
#           8.38038E+00  8.58428E+00  8.79315E+00  9.00709E+00  9.22624E+00
#           9.45072E+00  9.68067E+00  9.91620E+00  1.01575E+01  1.04046E+01
#           1.06578E+01  1.09171E+01  1.11827E+01  1.14548E+01  1.17335E+01
#           1.20190E+01  1.23114E+01  1.26109E+01  1.29178E+01  1.32321E+01
#           1.35540E+01  1.38838E+01  1.42216E+01  1.45676E+01  1.49221E+01
#           1.52851E+01  1.56570E+01  1.60380E+01  1.64282E+01  1.68279E+01
#           1.72374E+01  1.76568E+01  1.80864E+01  1.85264E+01  1.89772E+01
#           1.94389E+01  1.99119E+01  2.03963E+01  2.08926E+01  2.14009E+01
#           2.19216E+01  2.24550E+01  2.30014E+01  2.35610E+01  2.41343E+01
#           2.47215E+01  2.53230E+01  2.59391E+01  2.65702E+01  2.72167E+01
#           2.78789E+01  2.85572E+01  2.92520E+01  2.99637E+01  3.06928E+01
#           3.14396E+01  3.22045E+01  3.29881E+01  3.37907E+01  3.46128E+01
#           3.54550E+01  3.63177E+01  3.72013E+01  3.81064E+01  3.90336E+01
#           3.99833E+01  4.09561E+01  4.19526E+01  4.29734E+01  4.40189E+01
#           4.50900E+01  4.61870E+01  4.73108E+01  4.84619E+01  4.96410E+01
#           5.08488E+01  5.20860E+01  5.33533E+01  5.46514E+01  5.59812E+01
#           5.73432E+01  5.87384E+01  6.01676E+01  6.16315E+01  6.31311E+01
#           6.46671E+01  6.62405E+01  6.78522E+01  6.95031E+01  7.11941E+01
#           7.29263E+01  7.47007E+01  7.65182E+01  7.83800E+01  8.02870E+01
#           8.22405E+01  8.42414E+01  8.62911E+01  8.83906E+01  9.05412E+01
#           9.27442E+01  9.50007E+01  9.73122E+01  9.96799E+01  1.02105E+02
#           1.04589E+02  1.07134E+02  1.09741E+02  1.12411E+02  1.15146E+02
#           1.17948E+02  1.20817E+02  1.23757E+02  1.26768E+02  1.29852E+02
#           1.33012E+02  1.36248E+02  1.39563E+02  1.42959E+02  1.46437E+02
#           1.50000E+02
     unit =    2            # unit is [1/cm^2/(MeV/n)/source]
     axis =  eng            # axis of output
     file = detector-07.out  # file name of output for the above axis
   output = f-curr          # surface crossing forward current spectrum
     part =  neutron  
# kf/name :  2112     
#    used :        main (  %)        temp (  %)       total (  %)
#  memory :         414 (  0)           0 (  0)         414 (  0)

#------------------------------------------------------------------------------
#newpage:
#   no. =    1   reg = 106 - 206

x: Energy [MeV/n]
y:  F-Curr [1/cm^2/(MeV/n)/source]         
p: xlog ylog afac(0.8) form(0.9)
h: n            x            y(neutron ),hh0l   n 
#  e-lower      e-upper      neutron     r.err 
   1.0000E-02   1.0243E-02   6.1899E-03  0.0363
   1.0243E-02   1.0493E-02   6.1941E-03  0.0359
   1.0493E-02   1.0748E-02   6.2445E-03  0.0354
   1.0748E-02   1.1009E-02   5.9322E-03  0.0358
   1.1009E-02   1.1277E-02   5.6365E-03  0.0363
   1.1277E-02   1.1552E-02   5.3314E-03  0.0369
   1.1552E-02   1.1833E-02   5.5872E-03  0.0356
   1.1833E-02   1.2121E-02   5.4169E-03  0.0357
   1.2121E-02   1.2415E-02   5.2443E-03  0.0359
   1.2415E-02   1.2718E-02   5.2308E-03  0.0355
   1.2718E-02   1.3027E-02   5.2889E-03  0.0349
   1.3027E-02   1.3344E-02   5.2782E-03  0.0345
   1.3344E-02   1.3669E-02   4.4910E-03  0.0369
   1.3669E-02   1.4001E-02   4.9581E-03  0.0348
   1.4001E-02   1.4342E-02   4.7507E-03  0.0351
   1.4342E-02   1.4691E-02   4.6901E-03  0.0349
   1.4691E-02   1.5048E-02   4.7128E-03  0.0344
   1.5048E-02   1.5414E-02   4.5338E-03  0.0346
   1.5414E-02   1.5789E-02   4.6591E-03  0.0338
   1.5789E-02   1.6174E-02   4.4745E-03  0.0340
   1.6174E-02   1.6567E-02   4.1998E-03  0.0347
   1.6567E-02   1.6970E-02   4.4538E-03  0.0333
   1.6970E-02   1.7383E-02   4.1573E-03  0.0341
   1.7383E-02   1.7806E-02   4.3239E-03  0.0330
   1.7806E-02   1.8239E-02   4.1791E-03  0.0332
   1.8239E-02   1.8683E-02   4.2319E-03  0.0325
   1.8683E-02   1.9138E-02   3.7561E-03  0.0341
   1.9138E-02   1.9603E-02   4.0816E-03  0.0324
   1.9603E-02   2.0080E-02   3.6184E-03  0.0340
   2.0080E-02   2.0569E-02   3.9486E-03  0.0321
   2.0569E-02   2.1069E-02   3.6809E-03  0.0329
   2.1069E-02   2.1582E-02   3.5614E-03  0.0330
   2.1582E-02   2.2107E-02   3.4561E-03  0.0331
   2.2107E-02   2.2645E-02   3.1475E-03  0.0343
   2.2645E-02   2.3196E-02   3.4821E-03  0.0322
   2.3196E-02   2.3760E-02   3.4132E-03  0.0321
   2.3760E-02   2.4338E-02   3.0156E-03  0.0338
   2.4338E-02   2.4930E-02   3.1746E-03  0.0325
   2.4930E-02   2.5537E-02   3.1866E-03  0.0321
   2.5537E-02   2.6158E-02   3.0275E-03  0.0325
   2.6158E-02   2.6795E-02   2.9995E-03  0.0323
   2.6795E-02   2.7447E-02   2.7105E-03  0.0336
   2.7447E-02   2.8114E-02   2.8111E-03  0.0326
   2.8114E-02   2.8799E-02   2.7445E-03  0.0326
   2.8799E-02   2.9499E-02   3.0241E-03  0.0306
   2.9499E-02   3.0217E-02   2.7072E-03  0.0320
   3.0217E-02   3.0952E-02   2.6686E-03  0.0319
   3.0952E-02   3.1705E-02   2.7967E-03  0.0308
   3.1705E-02   3.2477E-02   2.4303E-03  0.0326
   3.2477E-02   3.3267E-02   2.5015E-03  0.0317
   3.3267E-02   3.4076E-02   2.4982E-03  0.0314
   3.4076E-02   3.4905E-02   2.3837E-03  0.0317
   3.4905E-02   3.5755E-02   2.3153E-03  0.0318
   3.5755E-02   3.6625E-02   2.4610E-03  0.0305
   3.6625E-02   3.7516E-02   2.2068E-03  0.0318
   3.7516E-02   3.8428E-02   2.2473E-03  0.0312
   3.8428E-02   3.9363E-02   2.2629E-03  0.0307
   3.9363E-02   4.0321E-02   2.1151E-03  0.0314
   4.0321E-02   4.1302E-02   2.0656E-03  0.0313
   4.1302E-02   4.2307E-02   2.0764E-03  0.0309
   4.2307E-02   4.3337E-02   2.0494E-03  0.0307
   4.3337E-02   4.4391E-02   2.0370E-03  0.0305
   4.4391E-02   4.5471E-02   1.9894E-03  0.0304
   4.5471E-02   4.6577E-02   1.9736E-03  0.0302
   4.6577E-02   4.7711E-02   1.8578E-03  0.0308
   4.7711E-02   4.8871E-02   1.8949E-03  0.0301
   4.8871E-02   5.0061E-02   1.8063E-03  0.0304
   5.0061E-02   5.1279E-02   1.7616E-03  0.0304
   5.1279E-02   5.2526E-02   1.6601E-03  0.0310
   5.2526E-02   5.3804E-02   1.7140E-03  0.0302
   5.3804E-02   5.5113E-02   1.6550E-03  0.0303
   5.5113E-02   5.6454E-02   1.5674E-03  0.0307
   5.6454E-02   5.7828E-02   1.5904E-03  0.0302
   5.7828E-02   5.9235E-02   1.6060E-03  0.0297
   5.9235E-02   6.0676E-02   1.5693E-03  0.0296
   6.0676E-02   6.2152E-02   1.5007E-03  0.0300
   6.2152E-02   6.3665E-02   1.4315E-03  0.0303
   6.3665E-02   6.5214E-02   1.4343E-03  0.0299
   6.5214E-02   6.6800E-02   1.4350E-03  0.0296
   6.6800E-02   6.8426E-02   1.4266E-03  0.0293
   6.8426E-02   7.0090E-02   1.4437E-03  0.0288
   7.0090E-02   7.1796E-02   1.2984E-03  0.0300
   7.1796E-02   7.3543E-02   1.3744E-03  0.0288
   7.3543E-02   7.5332E-02   1.3055E-03  0.0292
   7.5332E-02   7.7165E-02   1.2935E-03  0.0290
   7.7165E-02   7.9042E-02   1.3567E-03  0.0280
   7.9042E-02   8.0965E-02   1.2324E-03  0.0290
   8.0965E-02   8.2935E-02   1.2384E-03  0.0286
   8.2935E-02   8.4953E-02   1.2122E-03  0.0285
   8.4953E-02   8.7020E-02   1.1566E-03  0.0289
   8.7020E-02   8.9138E-02   1.1758E-03  0.0283
   8.9138E-02   9.1306E-02   1.1303E-03  0.0285
   9.1306E-02   9.3528E-02   1.1214E-03  0.0283
   9.3528E-02   9.5804E-02   1.0469E-03  0.0289
   9.5804E-02   9.8134E-02   9.8668E-04  0.0294
   9.8134E-02   1.0052E-01   1.0313E-03  0.0284
   1.0052E-01   1.0297E-01   1.0317E-03  0.0281
   1.0297E-01   1.0547E-01   9.4948E-04  0.0289
   1.0547E-01   1.0804E-01   9.7667E-04  0.0282
   1.0804E-01   1.1067E-01   9.5243E-04  0.0282
   1.1067E-01   1.1336E-01   8.8448E-04  0.0289
   1.1336E-01   1.1612E-01   9.1235E-04  0.0281
   1.1612E-01   1.1894E-01   8.6918E-04  0.0285
   1.1894E-01   1.2184E-01   8.4063E-04  0.0286
   1.2184E-01   1.2480E-01   8.3493E-04  0.0284
   1.2480E-01   1.2784E-01   8.6170E-04  0.0276
   1.2784E-01   1.3095E-01   8.2361E-04  0.0279
   1.3095E-01   1.3414E-01   8.1295E-04  0.0277
   1.3414E-01   1.3740E-01   7.9780E-04  0.0276
   1.3740E-01   1.4074E-01   7.5760E-04  0.0280
   1.4074E-01   1.4417E-01   8.0111E-04  0.0269
   1.4417E-01   1.4767E-01   7.3161E-04  0.0279
   1.4767E-01   1.5127E-01   6.8311E-04  0.0285
   1.5127E-01   1.5495E-01   7.0521E-04  0.0277
   1.5495E-01   1.5872E-01   6.9447E-04  0.0276
   1.5872E-01   1.6258E-01   6.8377E-04  0.0275
   1.6258E-01   1.6654E-01   6.5118E-04  0.0278
   1.6654E-01   1.7059E-01   6.5496E-04  0.0274
   1.7059E-01   1.7474E-01   6.3845E-04  0.0274
   1.7474E-01   1.7899E-01   6.0765E-04  0.0278
   1.7899E-01   1.8334E-01   5.9101E-04  0.0278
   1.8334E-01   1.8781E-01   5.8986E-04  0.0275
   1.8781E-01   1.9237E-01   5.9685E-04  0.0270
   1.9237E-01   1.9706E-01   5.5262E-04  0.0277
   1.9706E-01   2.0185E-01   5.6911E-04  0.0270
   2.0185E-01   2.0676E-01   5.7948E-04  0.0264
   2.0676E-01   2.1179E-01   5.9510E-04  0.0258
   2.1179E-01   2.1694E-01   5.8143E-04  0.0258
   2.1694E-01   2.2222E-01   6.4798E-04  0.0241
   2.2222E-01   2.2763E-01   6.3163E-04  0.0241
   2.2763E-01   2.3317E-01   6.6839E-04  0.0232
   2.3317E-01   2.3884E-01   6.8341E-04  0.0227
   2.3884E-01   2.4465E-01   6.5929E-04  0.0228
   2.4465E-01   2.5061E-01   6.8916E-04  0.0220
   2.5061E-01   2.5670E-01   7.1065E-04  0.0214
   2.5670E-01   2.6295E-01   6.9513E-04  0.0214
   2.6295E-01   2.6935E-01   7.3080E-04  0.0206
   2.6935E-01   2.7590E-01   7.7560E-04  0.0198
   2.7590E-01   2.8261E-01   7.4549E-04  0.0199
   2.8261E-01   2.8949E-01   7.8253E-04  0.0192
   2.8949E-01   2.9653E-01   7.9490E-04  0.0189
   2.9653E-01   3.0375E-01   7.8471E-04  0.0187
   3.0375E-01   3.1114E-01   8.2425E-04  0.0181
   3.1114E-01   3.1871E-01   8.4620E-04  0.0176
   3.1871E-01   3.2646E-01   8.7909E-04  0.0171
   3.2646E-01   3.3441E-01   8.4550E-04  0.0172
   3.3441E-01   3.4254E-01   8.7132E-04  0.0168
   3.4254E-01   3.5088E-01   8.9971E-04  0.0163
   3.5088E-01   3.5941E-01   9.1028E-04  0.0160
   3.5941E-01   3.6816E-01   9.1611E-04  0.0158
   3.6816E-01   3.7712E-01   9.4124E-04  0.0154
   3.7712E-01   3.8629E-01   9.4016E-04  0.0152
   3.8629E-01   3.9569E-01   9.7228E-04  0.0147
   3.9569E-01   4.0532E-01   9.8562E-04  0.0145
   4.0532E-01   4.1518E-01   9.8616E-04  0.0143
   4.1518E-01   4.2528E-01   9.8332E-04  0.0142
   4.2528E-01   4.3563E-01   1.0245E-03  0.0137
   4.3563E-01   4.4623E-01   1.0036E-03  0.0137
   4.4623E-01   4.5708E-01   1.0228E-03  0.0134
   4.5708E-01   4.6821E-01   1.0283E-03  0.0132
   4.6821E-01   4.7960E-01   1.0200E-03  0.0131
   4.7960E-01   4.9127E-01   1.0600E-03  0.0127
   4.9127E-01   5.0322E-01   1.0707E-03  0.0125
   5.0322E-01   5.1546E-01   1.0693E-03  0.0123
   5.1546E-01   5.2800E-01   1.0500E-03  0.0123
   5.2800E-01   5.4085E-01   1.0913E-03  0.0119
   5.4085E-01   5.5401E-01   1.0822E-03  0.0118
   5.5401E-01   5.6749E-01   1.1053E-03  0.0116
   5.6749E-01   5.8130E-01   1.0983E-03  0.0115
   5.8130E-01   5.9544E-01   1.1103E-03  0.0113
   5.9544E-01   6.0993E-01   1.0840E-03  0.0113
   6.0993E-01   6.2477E-01   1.0816E-03  0.0111
   6.2477E-01   6.3997E-01   1.1012E-03  0.0109
   6.3997E-01   6.5554E-01   1.0974E-03  0.0108
   6.5554E-01   6.7149E-01   1.1091E-03  0.0106
   6.7149E-01   6.8783E-01   1.1079E-03  0.0105
   6.8783E-01   7.0456E-01   1.1047E-03  0.0104
   7.0456E-01   7.2171E-01   1.0733E-03  0.0104
   7.2171E-01   7.3927E-01   1.0940E-03  0.0102
   7.3927E-01   7.5725E-01   1.1014E-03  0.0100
   7.5725E-01   7.7568E-01   1.0882E-03  0.0100
   7.7568E-01   7.9455E-01   1.0717E-03  0.0099
   7.9455E-01   8.1388E-01   1.0564E-03  0.0099
   8.1388E-01   8.3368E-01   1.0500E-03  0.0098
   8.3368E-01   8.5397E-01   1.0325E-03  0.0097
   8.5397E-01   8.7475E-01   1.0142E-03  0.0097
   8.7475E-01   8.9603E-01   1.0087E-03  0.0096
   8.9603E-01   9.1783E-01   9.9038E-04  0.0096
   9.1783E-01   9.4016E-01   9.6056E-04  0.0096
   9.4016E-01   9.6304E-01   9.4704E-04  0.0096
   9.6304E-01   9.8647E-01   9.1919E-04  0.0096
   9.8647E-01   1.0105E+00   9.1270E-04  0.0095
   1.0105E+00   1.0351E+00   8.8747E-04  0.0095
   1.0351E+00   1.0602E+00   8.9746E-04  0.0094
   1.0602E+00   1.0860E+00   8.9893E-04  0.0093
   1.0860E+00   1.1125E+00   8.9615E-04  0.0092
   1.1125E+00   1.1395E+00   8.9471E-04  0.0091
   1.1395E+00   1.1673E+00   9.0682E-04  0.0089
   1.1673E+00   1.1957E+00   9.0835E-04  0.0088
   1.1957E+00   1.2247E+00   9.1054E-04  0.0087
   1.2247E+00   1.2545E+00   9.1448E-04  0.0085
   1.2545E+00   1.2851E+00   9.1946E-04  0.0084
   1.2851E+00   1.3163E+00   9.2752E-04  0.0083
   1.3163E+00   1.3484E+00   9.1453E-04  0.0082
   1.3484E+00   1.3812E+00   9.2999E-04  0.0081
   1.3812E+00   1.4148E+00   9.3122E-04  0.0080
   1.4148E+00   1.4492E+00   9.2783E-04  0.0079
   1.4492E+00   1.4845E+00   9.2123E-04  0.0078
   1.4845E+00   1.5206E+00   9.0650E-04  0.0078
   1.5206E+00   1.5576E+00   9.1976E-04  0.0076
   1.5576E+00   1.5955E+00   9.0303E-04  0.0076
   1.5955E+00   1.6343E+00   8.9450E-04  0.0076
   1.6343E+00   1.6741E+00   8.9798E-04  0.0075
   1.6741E+00   1.7148E+00   9.1800E-04  0.0073
   1.7148E+00   1.7565E+00   8.9699E-04  0.0073
   1.7565E+00   1.7992E+00   8.8834E-04  0.0072
   1.7992E+00   1.8430E+00   8.8389E-04  0.0072
   1.8430E+00   1.8879E+00   8.7827E-04  0.0071
   1.8879E+00   1.9338E+00   8.7321E-04  0.0070
   1.9338E+00   1.9808E+00   8.6666E-04  0.0070
   1.9808E+00   2.0290E+00   8.6929E-04  0.0069
   2.0290E+00   2.0784E+00   8.6080E-04  0.0068
   2.0784E+00   2.1290E+00   8.5890E-04  0.0068
   2.1290E+00   2.1808E+00   8.4817E-04  0.0067
   2.1808E+00   2.2338E+00   8.4647E-04  0.0066
   2.2338E+00   2.2882E+00   8.4092E-04  0.0066
   2.2882E+00   2.3439E+00   8.2891E-04  0.0066
   2.3439E+00   2.4009E+00   8.2696E-04  0.0065
   2.4009E+00   2.4593E+00   8.1792E-04  0.0064
   2.4593E+00   2.5191E+00   8.0823E-04  0.0064
   2.5191E+00   2.5804E+00   8.0324E-04  0.0064
   2.5804E+00   2.6432E+00   8.0141E-04  0.0063
   2.6432E+00   2.7075E+00   7.9150E-04  0.0062
   2.7075E+00   2.7734E+00   7.8368E-04  0.0062
   2.7734E+00   2.8409E+00   7.7356E-04  0.0062
   2.8409E+00   2.9100E+00   7.7092E-04  0.0061
   2.9100E+00   2.9808E+00   7.6430E-04  0.0061
   2.9808E+00   3.0533E+00   7.5906E-04  0.0060
   3.0533E+00   3.1276E+00   7.5700E-04  0.0059
   3.1276E+00   3.2037E+00   7.5150E-04  0.0059
   3.2037E+00   3.2817E+00   7.3454E-04  0.0059
   3.2817E+00   3.3615E+00   7.2811E-04  0.0058
   3.3615E+00   3.4433E+00   7.2089E-04  0.0058
   3.4433E+00   3.5271E+00   7.1551E-04  0.0058
   3.5271E+00   3.6129E+00   7.0536E-04  0.0057
   3.6129E+00   3.7008E+00   7.0259E-04  0.0057
   3.7008E+00   3.7908E+00   6.9463E-04  0.0056
   3.7908E+00   3.8831E+00   6.8709E-04  0.0056
   3.8831E+00   3.9776E+00   6.6958E-04  0.0056
   3.9776E+00   4.0743E+00   6.7297E-04  0.0055
   4.0743E+00   4.1735E+00   6.6018E-04  0.0055
   4.1735E+00   4.2750E+00   6.5950E-04  0.0054
   4.2750E+00   4.3790E+00   6.4242E-04  0.0055
   4.3790E+00   4.4856E+00   6.3770E-04  0.0054
   4.4856E+00   4.5947E+00   6.3669E-04  0.0053
   4.5947E+00   4.7065E+00   6.4166E-04  0.0053
   4.7065E+00   4.8210E+00   6.3752E-04  0.0052
   4.8210E+00   4.9383E+00   6.3175E-04  0.0052
   4.9383E+00   5.0585E+00   6.1983E-04  0.0052
   5.0585E+00   5.1815E+00   6.1436E-04  0.0051
   5.1815E+00   5.3076E+00   6.1008E-04  0.0051
   5.3076E+00   5.4368E+00   6.0351E-04  0.0051
   5.4368E+00   5.5690E+00   5.9429E-04  0.0050
   5.5690E+00   5.7045E+00   5.8566E-04  0.0050
   5.7045E+00   5.8433E+00   5.7637E-04  0.0050
   5.8433E+00   5.9855E+00   5.7182E-04  0.0049
   5.9855E+00   6.1311E+00   5.7205E-04  0.0049
   6.1311E+00   6.2803E+00   5.6035E-04  0.0049
   6.2803E+00   6.4331E+00   5.4797E-04  0.0049
   6.4331E+00   6.5896E+00   5.4397E-04  0.0048
   6.5896E+00   6.7500E+00   5.3720E-04  0.0048
   6.7500E+00   6.9142E+00   5.3268E-04  0.0048
   6.9142E+00   7.0824E+00   5.2640E-04  0.0047
   7.0824E+00   7.2548E+00   5.2577E-04  0.0047
   7.2548E+00   7.4313E+00   5.1539E-04  0.0047
   7.4313E+00   7.6121E+00   5.1162E-04  0.0046
   7.6121E+00   7.7973E+00   5.0664E-04  0.0046
   7.7973E+00   7.9870E+00   4.9599E-04  0.0046
   7.9870E+00   8.1813E+00   4.9274E-04  0.0046
   8.1813E+00   8.3804E+00   4.8464E-04  0.0045
   8.3804E+00   8.5843E+00   4.7819E-04  0.0045
   8.5843E+00   8.7931E+00   4.7328E-04  0.0045
   8.7931E+00   9.0071E+00   4.6784E-04  0.0045
   9.0071E+00   9.2262E+00   4.6638E-04  0.0044
   9.2262E+00   9.4507E+00   4.5922E-04  0.0044
   9.4507E+00   9.6807E+00   4.5362E-04  0.0044
   9.6807E+00   9.9162E+00   4.5176E-04  0.0043
   9.9162E+00   1.0157E+01   4.4728E-04  0.0043
   1.0157E+01   1.0405E+01   4.4864E-04  0.0042
   1.0405E+01   1.0658E+01   4.4261E-04  0.0042
   1.0658E+01   1.0917E+01   4.4252E-04  0.0042
   1.0917E+01   1.1183E+01   4.3912E-04  0.0041
   1.1183E+01   1.1455E+01   4.3804E-04  0.0041
   1.1455E+01   1.1733E+01   4.3310E-04  0.0041
   1.1733E+01   1.2019E+01   4.3350E-04  0.0040
   1.2019E+01   1.2311E+01   4.3166E-04  0.0040
   1.2311E+01   1.2611E+01   4.2968E-04  0.0039
   1.2611E+01   1.2918E+01   4.3056E-04  0.0039
   1.2918E+01   1.3232E+01   4.2846E-04  0.0039
   1.3232E+01   1.3554E+01   4.2720E-04  0.0038
   1.3554E+01   1.3884E+01   4.2529E-04  0.0038
   1.3884E+01   1.4222E+01   4.2542E-04  0.0037
   1.4222E+01   1.4568E+01   4.2473E-04  0.0037
   1.4568E+01   1.4922E+01   4.2386E-04  0.0036
   1.4922E+01   1.5285E+01   4.2241E-04  0.0036
   1.5285E+01   1.5657E+01   4.2278E-04  0.0036
   1.5657E+01   1.6038E+01   4.2216E-04  0.0035
   1.6038E+01   1.6428E+01   4.2124E-04  0.0035
   1.6428E+01   1.6828E+01   4.2223E-04  0.0034
   1.6828E+01   1.7237E+01   4.2426E-04  0.0034
   1.7237E+01   1.7657E+01   4.2177E-04  0.0034
   1.7657E+01   1.8086E+01   4.2068E-04  0.0033
   1.8086E+01   1.8526E+01   4.2010E-04  0.0033
   1.8526E+01   1.8977E+01   4.2042E-04  0.0032
   1.8977E+01   1.9439E+01   4.2192E-04  0.0032
   1.9439E+01   1.9912E+01   4.2454E-04  0.0032
   1.9912E+01   2.0396E+01   4.3213E-04  0.0031
   2.0396E+01   2.0893E+01   4.3339E-04  0.0031
   2.0893E+01   2.1401E+01   4.3314E-04  0.0030
   2.1401E+01   2.1922E+01   4.2808E-04  0.0030
   2.1922E+01   2.2455E+01   4.2704E-04  0.0030
   2.2455E+01   2.3001E+01   4.2673E-04  0.0029
   2.3001E+01   2.3561E+01   4.2498E-04  0.0029
   2.3561E+01   2.4134E+01   4.2148E-04  0.0029
   2.4134E+01   2.4721E+01   4.2040E-04  0.0028
   2.4721E+01   2.5323E+01   4.1725E-04  0.0028
   2.5323E+01   2.5939E+01   4.1415E-04  0.0028
   2.5939E+01   2.6570E+01   4.1144E-04  0.0028
   2.6570E+01   2.7217E+01   4.0446E-04  0.0028
   2.7217E+01   2.7879E+01   4.0133E-04  0.0027
   2.7879E+01   2.8557E+01   3.9581E-04  0.0027
   2.8557E+01   2.9252E+01   3.8999E-04  0.0027
   2.9252E+01   2.9964E+01   3.8367E-04  0.0027
   2.9964E+01   3.0693E+01   3.7712E-04  0.0027
   3.0693E+01   3.1440E+01   3.7026E-04  0.0027
   3.1440E+01   3.2205E+01   3.6191E-04  0.0027
   3.2205E+01   3.2988E+01   3.5459E-04  0.0027
   3.2988E+01   3.3791E+01   3.4696E-04  0.0027
   3.3791E+01   3.4613E+01   3.3605E-04  0.0027
   3.4613E+01   3.5455E+01   3.2764E-04  0.0027
   3.5455E+01   3.6318E+01   3.1549E-04  0.0027
   3.6318E+01   3.7201E+01   3.0585E-04  0.0027
   3.7201E+01   3.8106E+01   2.9623E-04  0.0027
   3.8106E+01   3.9034E+01   2.8409E-04  0.0028
   3.9034E+01   3.9983E+01   2.7476E-04  0.0028
   3.9983E+01   4.0956E+01   2.6205E-04  0.0028
   4.0956E+01   4.1953E+01   2.5218E-04  0.0028
   4.1953E+01   4.2973E+01   2.4018E-04  0.0029
   4.2973E+01   4.4019E+01   2.2760E-04  0.0029
   4.4019E+01   4.5090E+01   2.1681E-04  0.0029
   4.5090E+01   4.6187E+01   2.0498E-04  0.0030
   4.6187E+01   4.7311E+01   1.9418E-04  0.0030
   4.7311E+01   4.8462E+01   1.8296E-04  0.0031
   4.8462E+01   4.9641E+01   1.7275E-04  0.0031
   4.9641E+01   5.0849E+01   1.6085E-04  0.0032
   5.0849E+01   5.2086E+01   1.5161E-04  0.0033
   5.2086E+01   5.3353E+01   1.4200E-04  0.0033
   5.3353E+01   5.4651E+01   1.3260E-04  0.0034
   5.4651E+01   5.5981E+01   1.2380E-04  0.0035
   5.5981E+01   5.7343E+01   1.1428E-04  0.0036
   5.7343E+01   5.8738E+01   1.0660E-04  0.0037
   5.8738E+01   6.0168E+01   9.7798E-05  0.0038
   6.0168E+01   6.1632E+01   8.8849E-05  0.0039
   6.1632E+01   6.3131E+01   8.1110E-05  0.0041
   6.3131E+01   6.4667E+01   7.3353E-05  0.0042
   6.4667E+01   6.6240E+01   6.6581E-05  0.0044
   6.6240E+01   6.7852E+01   6.0020E-05  0.0045
   6.7852E+01   6.9503E+01   5.4865E-05  0.0047
   6.9503E+01   7.1194E+01   4.8865E-05  0.0049
   7.1194E+01   7.2926E+01   4.4212E-05  0.0051
   7.2926E+01   7.4701E+01   3.9621E-05  0.0053
   7.4701E+01   7.6518E+01   3.5549E-05  0.0056
   7.6518E+01   7.8380E+01   3.1771E-05  0.0058
   7.8380E+01   8.0287E+01   2.7980E-05  0.0061
   8.0287E+01   8.2240E+01   2.4841E-05  0.0064
   8.2240E+01   8.4241E+01   2.2071E-05  0.0067
   8.4241E+01   8.6291E+01   1.9610E-05  0.0071
   8.6291E+01   8.8391E+01   1.7023E-05  0.0075
   8.8391E+01   9.0541E+01   1.5002E-05  0.0079
   9.0541E+01   9.2744E+01   1.2905E-05  0.0084
   9.2744E+01   9.5001E+01   1.0775E-05  0.0091
   9.5001E+01   9.7312E+01   8.7798E-06  0.0099
   9.7312E+01   9.9680E+01   7.1454E-06  0.0109
   9.9680E+01   1.0211E+02   5.7890E-06  0.0119
   1.0211E+02   1.0459E+02   3.3853E-06  0.0154
   1.0459E+02   1.0713E+02   1.1577E-06  0.0261
   1.0713E+02   1.0974E+02   1.9105E-07  0.0634
   1.0974E+02   1.1241E+02   1.4981E-09  0.7071
   1.1241E+02   1.1515E+02   0.0000E+00  0.0000
   1.1515E+02   1.1795E+02   0.0000E+00  0.0000
   1.1795E+02   1.2082E+02   0.0000E+00  0.0000
   1.2082E+02   1.2376E+02   0.0000E+00  0.0000
   1.2376E+02   1.2677E+02   0.0000E+00  0.0000
   1.2677E+02   1.2985E+02   0.0000E+00  0.0000
   1.2985E+02   1.3301E+02   0.0000E+00  0.0000
   1.3301E+02   1.3625E+02   0.0000E+00  0.0000
   1.3625E+02   1.3956E+02   0.0000E+00  0.0000
   1.3956E+02   1.4296E+02   0.0000E+00  0.0000
   1.4296E+02   1.4644E+02   0.0000E+00  0.0000
   1.4644E+02   1.5000E+02   0.0000E+00  0.0000

#   sum over                 1.5453E-04
'no. =    1   reg = 106 - 206'
msuc: {\huge [t-cross] in region mesh}
msdr: {\it plotted by \ANGEL \version}
msdl: {\it calculated by \PHITS  3.26}
wt: s(0.7)
\vspace{-3}
  region surface crossing
  area  &=&   1.0000E+00 [cm^2]
e:
 
# Information for Restart Calculation
# This calculation was newly started
# istdev =  2 # 1:Batch variance, 2:History variance
# resc2  = 5.00000000000000000E+08 # Total source weight or Total source weight / maxcas
# resc3  = 5.00000000000000000E+08 # Total history number or Total batch number
# maxcas =   500000000 # History / Batch, only used for istdev=1
# bitrseed = 1101101111010011011000101101110001100110110010110001010100010001 # bit data of rseed
