[ T-Cross ]
    title = [t-cross] in region mesh
     mesh =  reg            # mesh type is region-wise
      reg =    1            # number of crossing regions
      non     r-from    r-to       area
      1       100       200        1.000000    
   e-type =    3            # e-mesh is log given by emin, emax and ne
     emin =  1.0000000E-02  # minimum value of e-mesh points
     emax =   150.0000      # maximum value of e-mesh points
#    edel =  2.4039514E-02  # mesh width of e-mesh points
       ne =    400          # number of e-mesh points
#    data = ( e(i), i = 1, ne + 1 )
#           1.00000E-02  1.02433E-02  1.04925E-02  1.07478E-02  1.10093E-02
#           1.12772E-02  1.15516E-02  1.18326E-02  1.21205E-02  1.24154E-02
#           1.27175E-02  1.30269E-02  1.33439E-02  1.36686E-02  1.40011E-02
#           1.43418E-02  1.46907E-02  1.50482E-02  1.54143E-02  1.57894E-02
#           1.61735E-02  1.65670E-02  1.69701E-02  1.73830E-02  1.78060E-02
#           1.82392E-02  1.86830E-02  1.91375E-02  1.96032E-02  2.00801E-02
#           2.05687E-02  2.10692E-02  2.15818E-02  2.21069E-02  2.26448E-02
#           2.31957E-02  2.37601E-02  2.43382E-02  2.49304E-02  2.55369E-02
#           2.61583E-02  2.67947E-02  2.74467E-02  2.81145E-02  2.87985E-02
#           2.94992E-02  3.02169E-02  3.09521E-02  3.17052E-02  3.24766E-02
#           3.32668E-02  3.40762E-02  3.49053E-02  3.57546E-02  3.66246E-02
#           3.75157E-02  3.84284E-02  3.93634E-02  4.03212E-02  4.13022E-02
#           4.23071E-02  4.33365E-02  4.43909E-02  4.54710E-02  4.65773E-02
#           4.77106E-02  4.88714E-02  5.00605E-02  5.12785E-02  5.25262E-02
#           5.38042E-02  5.51133E-02  5.64542E-02  5.78278E-02  5.92348E-02
#           6.06760E-02  6.21523E-02  6.36645E-02  6.52135E-02  6.68002E-02
#           6.84255E-02  7.00904E-02  7.17957E-02  7.35426E-02  7.53319E-02
#           7.71648E-02  7.90423E-02  8.09655E-02  8.29354E-02  8.49533E-02
#           8.70203E-02  8.91376E-02  9.13064E-02  9.35279E-02  9.58035E-02
#           9.81345E-02  1.00522E-01  1.02968E-01  1.05473E-01  1.08040E-01
#           1.10668E-01  1.13361E-01  1.16119E-01  1.18944E-01  1.21838E-01
#           1.24803E-01  1.27839E-01  1.30950E-01  1.34136E-01  1.37399E-01
#           1.40742E-01  1.44167E-01  1.47675E-01  1.51268E-01  1.54948E-01
#           1.58718E-01  1.62580E-01  1.66535E-01  1.70587E-01  1.74738E-01
#           1.78989E-01  1.83344E-01  1.87805E-01  1.92375E-01  1.97055E-01
#           2.01850E-01  2.06761E-01  2.11792E-01  2.16945E-01  2.22223E-01
#           2.27630E-01  2.33169E-01  2.38842E-01  2.44653E-01  2.50605E-01
#           2.56703E-01  2.62949E-01  2.69346E-01  2.75900E-01  2.82613E-01
#           2.89489E-01  2.96532E-01  3.03747E-01  3.11138E-01  3.18708E-01
#           3.26462E-01  3.34405E-01  3.42542E-01  3.50876E-01  3.59413E-01
#           3.68158E-01  3.77116E-01  3.86291E-01  3.95690E-01  4.05317E-01
#           4.15179E-01  4.25281E-01  4.35628E-01  4.46227E-01  4.57084E-01
#           4.68205E-01  4.79597E-01  4.91266E-01  5.03219E-01  5.15463E-01
#           5.28005E-01  5.40851E-01  5.54011E-01  5.67490E-01  5.81298E-01
#           5.95441E-01  6.09929E-01  6.24769E-01  6.39970E-01  6.55541E-01
#           6.71491E-01  6.87828E-01  7.04564E-01  7.21706E-01  7.39266E-01
#           7.57253E-01  7.75678E-01  7.94551E-01  8.13883E-01  8.33685E-01
#           8.53969E-01  8.74747E-01  8.96030E-01  9.17831E-01  9.40163E-01
#           9.63038E-01  9.86469E-01  1.01047E+00  1.03506E+00  1.06024E+00
#           1.08604E+00  1.11246E+00  1.13953E+00  1.16725E+00  1.19565E+00
#           1.22474E+00  1.25454E+00  1.28507E+00  1.31633E+00  1.34836E+00
#           1.38117E+00  1.41477E+00  1.44920E+00  1.48446E+00  1.52057E+00
#           1.55757E+00  1.59547E+00  1.63429E+00  1.67405E+00  1.71478E+00
#           1.75650E+00  1.79924E+00  1.84302E+00  1.88786E+00  1.93379E+00
#           1.98084E+00  2.02904E+00  2.07841E+00  2.12898E+00  2.18078E+00
#           2.23384E+00  2.28819E+00  2.34386E+00  2.40089E+00  2.45930E+00
#           2.51914E+00  2.58043E+00  2.64322E+00  2.70753E+00  2.77341E+00
#           2.84088E+00  2.91001E+00  2.98081E+00  3.05333E+00  3.12762E+00
#           3.20372E+00  3.28167E+00  3.36152E+00  3.44330E+00  3.52708E+00
#           3.61290E+00  3.70080E+00  3.79085E+00  3.88308E+00  3.97756E+00
#           4.07434E+00  4.17347E+00  4.27501E+00  4.37903E+00  4.48557E+00
#           4.59471E+00  4.70650E+00  4.82102E+00  4.93832E+00  5.05847E+00
#           5.18155E+00  5.30762E+00  5.43676E+00  5.56904E+00  5.70453E+00
#           5.84333E+00  5.98550E+00  6.13114E+00  6.28031E+00  6.43312E+00
#           6.58964E+00  6.74997E+00  6.91420E+00  7.08243E+00  7.25475E+00
#           7.43126E+00  7.61207E+00  7.79728E+00  7.98700E+00  8.18133E+00
#           8.38038E+00  8.58428E+00  8.79315E+00  9.00709E+00  9.22624E+00
#           9.45072E+00  9.68067E+00  9.91620E+00  1.01575E+01  1.04046E+01
#           1.06578E+01  1.09171E+01  1.11827E+01  1.14548E+01  1.17335E+01
#           1.20190E+01  1.23114E+01  1.26109E+01  1.29178E+01  1.32321E+01
#           1.35540E+01  1.38838E+01  1.42216E+01  1.45676E+01  1.49221E+01
#           1.52851E+01  1.56570E+01  1.60380E+01  1.64282E+01  1.68279E+01
#           1.72374E+01  1.76568E+01  1.80864E+01  1.85264E+01  1.89772E+01
#           1.94389E+01  1.99119E+01  2.03963E+01  2.08926E+01  2.14009E+01
#           2.19216E+01  2.24550E+01  2.30014E+01  2.35610E+01  2.41343E+01
#           2.47215E+01  2.53230E+01  2.59391E+01  2.65702E+01  2.72167E+01
#           2.78789E+01  2.85572E+01  2.92520E+01  2.99637E+01  3.06928E+01
#           3.14396E+01  3.22045E+01  3.29881E+01  3.37907E+01  3.46128E+01
#           3.54550E+01  3.63177E+01  3.72013E+01  3.81064E+01  3.90336E+01
#           3.99833E+01  4.09561E+01  4.19526E+01  4.29734E+01  4.40189E+01
#           4.50900E+01  4.61870E+01  4.73108E+01  4.84619E+01  4.96410E+01
#           5.08488E+01  5.20860E+01  5.33533E+01  5.46514E+01  5.59812E+01
#           5.73432E+01  5.87384E+01  6.01676E+01  6.16315E+01  6.31311E+01
#           6.46671E+01  6.62405E+01  6.78522E+01  6.95031E+01  7.11941E+01
#           7.29263E+01  7.47007E+01  7.65182E+01  7.83800E+01  8.02870E+01
#           8.22405E+01  8.42414E+01  8.62911E+01  8.83906E+01  9.05412E+01
#           9.27442E+01  9.50007E+01  9.73122E+01  9.96799E+01  1.02105E+02
#           1.04589E+02  1.07134E+02  1.09741E+02  1.12411E+02  1.15146E+02
#           1.17948E+02  1.20817E+02  1.23757E+02  1.26768E+02  1.29852E+02
#           1.33012E+02  1.36248E+02  1.39563E+02  1.42959E+02  1.46437E+02
#           1.50000E+02
     unit =    2            # unit is [1/cm^2/(MeV/n)/source]
     axis =  eng            # axis of output
     file = detector-01.out  # file name of output for the above axis
   output = f-curr          # surface crossing forward current spectrum
     part =  neutron  
# kf/name :  2112     
#    used :        main (  %)        temp (  %)       total (  %)
#  memory :         414 (  0)           0 (  0)         414 (  0)

#------------------------------------------------------------------------------
#newpage:
#   no. =    1   reg = 100 - 200

x: Energy [MeV/n]
y:  F-Curr [1/cm^2/(MeV/n)/source]         
p: xlog ylog afac(0.8) form(0.9)
h: n            x            y(neutron ),hh0l   n 
#  e-lower      e-upper      neutron     r.err 
   1.0000E-02   1.0243E-02   5.4376E-04  0.1228
   1.0243E-02   1.0493E-02   3.5309E-04  0.1508
   1.0493E-02   1.0748E-02   3.9171E-04  0.1414
   1.0748E-02   1.1009E-02   4.7137E-04  0.1270
   1.1009E-02   1.1277E-02   4.5673E-04  0.1277
   1.1277E-02   1.1552E-02   3.7539E-04  0.1390
   1.1552E-02   1.1833E-02   3.8575E-04  0.1350
   1.1833E-02   1.2121E-02   3.2651E-04  0.1459
   1.2121E-02   1.2415E-02   4.1663E-04  0.1272
   1.2415E-02   1.2718E-02   3.9725E-04  0.1291
   1.2718E-02   1.3027E-02   3.6619E-04  0.1324
   1.3027E-02   1.3344E-02   3.9223E-04  0.1267
   1.3344E-02   1.3669E-02   2.6582E-04  0.1520
   1.3669E-02   1.4001E-02   2.5362E-04  0.1537
   1.4001E-02   1.4342E-02   3.4167E-04  0.1309
   1.4342E-02   1.4691E-02   3.8401E-04  0.1217
   1.4691E-02   1.5048E-02   3.3935E-04  0.1280
   1.5048E-02   1.5414E-02   3.1777E-04  0.1309
   1.5414E-02   1.5789E-02   3.0130E-04  0.1327
   1.5789E-02   1.6174E-02   3.1236E-04  0.1291
   1.6174E-02   1.6567E-02   2.6496E-04  0.1383
   1.6567E-02   1.6970E-02   3.2827E-04  0.1228
   1.6970E-02   1.7383E-02   2.9402E-04  0.1277
   1.7383E-02   1.7806E-02   2.6368E-04  0.1332
   1.7806E-02   1.8239E-02   2.9291E-04  0.1252
   1.8239E-02   1.8683E-02   3.3413E-04  0.1160
   1.8683E-02   1.9138E-02   2.6282E-04  0.1287
   1.9138E-02   1.9603E-02   2.3911E-04  0.1336
   1.9603E-02   2.0080E-02   2.6690E-04  0.1250
   2.0080E-02   2.0569E-02   3.0497E-04  0.1157
   2.0569E-02   2.1069E-02   2.5241E-04  0.1257
   2.1069E-02   2.1582E-02   2.1967E-04  0.1330
   2.1582E-02   2.2107E-02   2.5328E-04  0.1224
   2.2107E-02   2.2645E-02   2.2599E-04  0.1278
   2.2645E-02   2.3196E-02   2.2975E-04  0.1254
   2.3196E-02   2.3760E-02   2.2776E-04  0.1239
   2.3760E-02   2.4338E-02   2.0808E-04  0.1288
   2.4338E-02   2.4930E-02   2.1615E-04  0.1250
   2.4930E-02   2.5537E-02   2.2137E-04  0.1219
   2.5537E-02   2.6158E-02   1.9468E-04  0.1276
   2.6158E-02   2.6795E-02   2.3725E-04  0.1149
   2.6795E-02   2.7447E-02   1.9065E-04  0.1267
   2.7447E-02   2.8114E-02   2.0109E-04  0.1219
   2.8114E-02   2.8799E-02   1.4231E-04  0.1428
   2.8799E-02   2.9499E-02   2.0923E-04  0.1166
   2.9499E-02   3.0217E-02   1.5605E-04  0.1336
   3.0217E-02   3.0952E-02   1.7917E-04  0.1227
   3.0952E-02   3.1705E-02   2.3985E-04  0.1048
   3.1705E-02   3.2477E-02   1.5848E-04  0.1278
   3.2477E-02   3.3267E-02   1.6124E-04  0.1249
   3.3267E-02   3.4076E-02   2.1125E-04  0.1079
   3.4076E-02   3.4905E-02   1.5382E-04  0.1248
   3.4905E-02   3.5755E-02   2.0253E-04  0.1078
   3.5755E-02   3.6625E-02   1.5894E-04  0.1202
   3.6625E-02   3.7516E-02   1.5747E-04  0.1193
   3.7516E-02   3.8428E-02   1.7948E-04  0.1101
   3.8428E-02   3.9363E-02   1.6723E-04  0.1130
   3.9363E-02   4.0321E-02   1.6378E-04  0.1127
   4.0321E-02   4.1302E-02   1.4604E-04  0.1178
   4.1302E-02   4.2307E-02   1.6222E-04  0.1101
   4.2307E-02   4.3337E-02   1.7326E-04  0.1055
   4.3337E-02   4.4391E-02   1.3784E-04  0.1170
   4.4391E-02   4.5471E-02   1.4041E-04  0.1144
   4.5471E-02   4.6577E-02   9.7619E-05  0.1361
   4.6577E-02   4.7711E-02   1.1677E-04  0.1228
   4.7711E-02   4.8871E-02   1.5799E-04  0.1042
   4.8871E-02   5.0061E-02   1.4332E-04  0.1079
   5.0061E-02   5.1279E-02   1.4344E-04  0.1068
   5.1279E-02   5.2526E-02   1.1841E-04  0.1159
   5.2526E-02   5.3804E-02   1.1264E-04  0.1173
   5.3804E-02   5.5113E-02   1.3781E-04  0.1052
   5.5113E-02   5.6454E-02   1.0391E-04  0.1195
   5.6454E-02   5.7828E-02   1.1589E-04  0.1117
   5.7828E-02   5.9235E-02   1.0894E-04  0.1139
   5.9235E-02   6.0676E-02   1.1078E-04  0.1116
   6.0676E-02   6.2152E-02   1.0383E-04  0.1139
   6.2152E-02   6.3665E-02   8.7950E-05  0.1219
   6.3665E-02   6.5214E-02   1.1298E-04  0.1068
   6.5214E-02   6.6800E-02   1.0860E-04  0.1077
   6.6800E-02   6.8426E-02   9.1276E-05  0.1160
   6.8426E-02   7.0090E-02   9.5933E-05  0.1115
   7.0090E-02   7.1796E-02   8.8342E-05  0.1150
   7.1796E-02   7.3543E-02   9.4112E-05  0.1102
   7.3543E-02   7.5332E-02   9.7801E-05  0.1064
   7.5332E-02   7.7165E-02   8.3140E-05  0.1144
   7.7165E-02   7.9042E-02   8.6818E-05  0.1106
   7.9042E-02   8.0965E-02   8.4895E-05  0.1104
   8.0965E-02   8.2935E-02   7.1894E-05  0.1184
   8.2935E-02   8.4953E-02   7.5164E-05  0.1144
   8.4953E-02   8.7020E-02   7.7046E-05  0.1118
   8.7020E-02   8.9138E-02   6.7241E-05  0.1180
   8.9138E-02   9.1306E-02   8.6526E-05  0.1027
   9.1306E-02   9.3528E-02   7.8619E-05  0.1065
   9.3528E-02   9.5804E-02   7.1899E-05  0.1102
   9.5804E-02   9.8134E-02   6.3620E-05  0.1160
   9.8134E-02   1.0052E-01   6.8119E-05  0.1104
   1.0052E-01   1.0297E-01   7.4963E-05  0.1042
   1.0297E-01   1.0547E-01   6.5461E-05  0.1104
   1.0547E-01   1.0804E-01   7.5345E-05  0.1015
   1.0804E-01   1.1067E-01   7.4339E-05  0.1010
   1.1067E-01   1.1336E-01   6.0494E-05  0.1105
   1.1336E-01   1.1612E-01   7.1638E-05  0.1004
   1.1612E-01   1.1894E-01   5.6509E-05  0.1116
   1.1894E-01   1.2184E-01   5.7589E-05  0.1094
   1.2184E-01   1.2480E-01   4.9251E-05  0.1170
   1.2480E-01   1.2784E-01   5.0715E-05  0.1140
   1.2784E-01   1.3095E-01   6.2056E-05  0.1016
   1.3095E-01   1.3414E-01   5.8485E-05  0.1035
   1.3414E-01   1.3740E-01   5.5030E-05  0.1052
   1.3740E-01   1.4074E-01   6.4313E-05  0.0961
   1.4074E-01   1.4417E-01   5.0909E-05  0.1070
   1.4417E-01   1.4767E-01   5.2456E-05  0.1043
   1.4767E-01   1.5127E-01   5.1842E-05  0.1036
   1.5127E-01   1.5495E-01   4.2929E-05  0.1122
   1.5495E-01   1.5872E-01   4.8645E-05  0.1042
   1.5872E-01   1.6258E-01   4.4540E-05  0.1075
   1.6258E-01   1.6654E-01   5.3526E-05  0.0967
   1.6654E-01   1.7059E-01   3.9095E-05  0.1122
   1.7059E-01   1.7474E-01   4.8102E-05  0.0998
   1.7474E-01   1.7899E-01   4.3210E-05  0.1040
   1.7899E-01   1.8334E-01   4.1872E-05  0.1044
   1.8334E-01   1.8781E-01   3.5874E-05  0.1112
   1.8781E-01   1.9237E-01   4.3034E-05  0.1005
   1.9237E-01   1.9706E-01   4.8234E-05  0.0939
   1.9706E-01   2.0185E-01   3.9349E-05  0.1028
   2.0185E-01   2.0676E-01   3.8829E-05  0.1023
   2.0676E-01   2.1179E-01   4.0329E-05  0.0991
   2.1179E-01   2.1694E-01   4.7101E-05  0.0907
   2.1694E-01   2.2222E-01   4.2437E-05  0.0943
   2.2222E-01   2.2763E-01   5.3023E-05  0.0831
   2.2763E-01   2.3317E-01   4.8441E-05  0.0861
   2.3317E-01   2.3884E-01   4.3674E-05  0.0896
   2.3884E-01   2.4465E-01   4.5482E-05  0.0868
   2.4465E-01   2.5061E-01   5.2175E-05  0.0801
   2.5061E-01   2.5670E-01   4.9186E-05  0.0815
   2.5670E-01   2.6295E-01   5.1451E-05  0.0785
   2.6295E-01   2.6935E-01   5.0638E-05  0.0783
   2.6935E-01   2.7590E-01   5.3049E-05  0.0756
   2.7590E-01   2.8261E-01   5.6930E-05  0.0722
   2.8261E-01   2.8949E-01   5.5397E-05  0.0724
   2.8949E-01   2.9653E-01   5.7180E-05  0.0702
   2.9653E-01   3.0375E-01   5.0445E-05  0.0739
   3.0375E-01   3.1114E-01   6.6158E-05  0.0638
   3.1114E-01   3.1871E-01   6.0846E-05  0.0655
   3.1871E-01   3.2646E-01   6.6051E-05  0.0623
   3.2646E-01   3.3441E-01   6.0238E-05  0.0645
   3.3441E-01   3.4254E-01   6.0159E-05  0.0638
   3.4254E-01   3.5088E-01   6.1183E-05  0.0625
   3.5088E-01   3.5941E-01   5.8524E-05  0.0632
   3.5941E-01   3.6816E-01   6.5833E-05  0.0588
   3.6816E-01   3.7712E-01   6.3839E-05  0.0589
   3.7712E-01   3.8629E-01   6.1029E-05  0.0596
   3.8629E-01   3.9569E-01   6.7955E-05  0.0558
   3.9569E-01   4.0532E-01   6.5453E-05  0.0562
   4.0532E-01   4.1518E-01   7.1212E-05  0.0533
   4.1518E-01   4.2528E-01   6.6649E-05  0.0543
   4.2528E-01   4.3563E-01   7.8590E-05  0.0495
   4.3563E-01   4.4623E-01   7.2305E-05  0.0510
   4.4623E-01   4.5708E-01   6.5172E-05  0.0530
   4.5708E-01   4.6821E-01   6.9379E-05  0.0508
   4.6821E-01   4.7960E-01   7.0515E-05  0.0497
   4.7960E-01   4.9127E-01   6.8731E-05  0.0499
   4.9127E-01   5.0322E-01   7.3538E-05  0.0476
   5.0322E-01   5.1546E-01   7.6460E-05  0.0461
   5.1546E-01   5.2800E-01   7.3424E-05  0.0465
   5.2800E-01   5.4085E-01   7.4658E-05  0.0455
   5.4085E-01   5.5401E-01   7.2125E-05  0.0458
   5.5401E-01   5.6749E-01   7.5290E-05  0.0442
   5.6749E-01   5.8130E-01   7.3517E-05  0.0442
   5.8130E-01   5.9544E-01   7.2046E-05  0.0442
   5.9544E-01   6.0993E-01   7.6320E-05  0.0424
   6.0993E-01   6.2477E-01   7.4957E-05  0.0423
   6.2477E-01   6.3997E-01   7.4246E-05  0.0420
   6.3997E-01   6.5554E-01   8.3222E-05  0.0391
   6.5554E-01   6.7149E-01   7.0651E-05  0.0420
   6.7149E-01   6.8783E-01   7.3052E-05  0.0408
   6.8783E-01   7.0456E-01   7.4548E-05  0.0399
   7.0456E-01   7.2171E-01   7.3661E-05  0.0396
   7.2171E-01   7.3927E-01   7.4327E-05  0.0390
   7.3927E-01   7.5725E-01   7.2403E-05  0.0391
   7.5725E-01   7.7568E-01   7.0229E-05  0.0392
   7.7568E-01   7.9455E-01   7.1972E-05  0.0383
   7.9455E-01   8.1388E-01   6.8800E-05  0.0386
   8.1388E-01   8.3368E-01   8.0015E-05  0.0354
   8.3368E-01   8.5397E-01   7.4539E-05  0.0362
   8.5397E-01   8.7475E-01   7.1315E-05  0.0367
   8.7475E-01   8.9603E-01   6.6055E-05  0.0376
   8.9603E-01   9.1783E-01   6.7531E-05  0.0368
   9.1783E-01   9.4016E-01   6.5714E-05  0.0368
   9.4016E-01   9.6304E-01   6.5174E-05  0.0365
   9.6304E-01   9.8647E-01   6.7910E-05  0.0354
   9.8647E-01   1.0105E+00   6.0560E-05  0.0370
   1.0105E+00   1.0351E+00   6.1192E-05  0.0364
   1.0351E+00   1.0602E+00   5.9591E-05  0.0364
   1.0602E+00   1.0860E+00   5.8659E-05  0.0362
   1.0860E+00   1.1125E+00   6.0421E-05  0.0353
   1.1125E+00   1.1395E+00   5.8331E-05  0.0355
   1.1395E+00   1.1673E+00   6.0529E-05  0.0344
   1.1673E+00   1.1957E+00   6.2433E-05  0.0335
   1.1957E+00   1.2247E+00   6.0910E-05  0.0335
   1.2247E+00   1.2545E+00   6.0983E-05  0.0331
   1.2545E+00   1.2851E+00   6.3678E-05  0.0320
   1.2851E+00   1.3163E+00   6.1409E-05  0.0322
   1.3163E+00   1.3484E+00   6.1772E-05  0.0317
   1.3484E+00   1.3812E+00   6.2675E-05  0.0311
   1.3812E+00   1.4148E+00   6.3688E-05  0.0304
   1.4148E+00   1.4492E+00   6.3366E-05  0.0302
   1.4492E+00   1.4845E+00   6.1009E-05  0.0304
   1.4845E+00   1.5206E+00   6.3405E-05  0.0294
   1.5206E+00   1.5576E+00   5.9227E-05  0.0301
   1.5576E+00   1.5955E+00   6.0692E-05  0.0294
   1.5955E+00   1.6343E+00   5.8674E-05  0.0295
   1.6343E+00   1.6741E+00   6.1174E-05  0.0286
   1.6741E+00   1.7148E+00   6.2045E-05  0.0280
   1.7148E+00   1.7565E+00   6.1822E-05  0.0277
   1.7565E+00   1.7992E+00   6.0998E-05  0.0276
   1.7992E+00   1.8430E+00   6.1270E-05  0.0272
   1.8430E+00   1.8879E+00   6.0672E-05  0.0270
   1.8879E+00   1.9338E+00   5.9320E-05  0.0270
   1.9338E+00   1.9808E+00   6.2117E-05  0.0261
   1.9808E+00   2.0290E+00   5.7419E-05  0.0268
   2.0290E+00   2.0784E+00   6.1444E-05  0.0256
   2.0784E+00   2.1290E+00   6.0662E-05  0.0254
   2.1290E+00   2.1808E+00   5.9784E-05  0.0253
   2.1808E+00   2.2338E+00   5.4975E-05  0.0261
   2.2338E+00   2.2882E+00   5.7433E-05  0.0252
   2.2882E+00   2.3439E+00   5.7190E-05  0.0250
   2.3439E+00   2.4009E+00   5.9248E-05  0.0243
   2.4009E+00   2.4593E+00   5.5993E-05  0.0247
   2.4593E+00   2.5191E+00   5.4520E-05  0.0247
   2.5191E+00   2.5804E+00   5.5378E-05  0.0242
   2.5804E+00   2.6432E+00   5.4093E-05  0.0242
   2.6432E+00   2.7075E+00   5.4437E-05  0.0238
   2.7075E+00   2.7734E+00   5.5781E-05  0.0232
   2.7734E+00   2.8409E+00   5.1934E-05  0.0238
   2.8409E+00   2.9100E+00   5.2194E-05  0.0235
   2.9100E+00   2.9808E+00   5.2207E-05  0.0232
   2.9808E+00   3.0533E+00   5.3112E-05  0.0227
   3.0533E+00   3.1276E+00   5.4054E-05  0.0222
   3.1276E+00   3.2037E+00   5.3134E-05  0.0222
   3.2037E+00   3.2817E+00   5.2433E-05  0.0221
   3.2817E+00   3.3615E+00   5.2447E-05  0.0218
   3.3615E+00   3.4433E+00   5.2144E-05  0.0216
   3.4433E+00   3.5271E+00   5.0650E-05  0.0216
   3.5271E+00   3.6129E+00   5.1164E-05  0.0213
   3.6129E+00   3.7008E+00   5.2435E-05  0.0208
   3.7008E+00   3.7908E+00   5.0719E-05  0.0209
   3.7908E+00   3.8831E+00   5.0748E-05  0.0206
   3.8831E+00   3.9776E+00   4.9613E-05  0.0206
   3.9776E+00   4.0743E+00   4.8693E-05  0.0205
   4.0743E+00   4.1735E+00   5.0663E-05  0.0199
   4.1735E+00   4.2750E+00   4.7749E-05  0.0203
   4.2750E+00   4.3790E+00   4.7636E-05  0.0200
   4.3790E+00   4.4856E+00   4.6895E-05  0.0200
   4.4856E+00   4.5947E+00   4.8008E-05  0.0195
   4.5947E+00   4.7065E+00   4.9353E-05  0.0190
   4.7065E+00   4.8210E+00   4.9551E-05  0.0187
   4.8210E+00   4.9383E+00   4.9700E-05  0.0185
   4.9383E+00   5.0585E+00   4.6993E-05  0.0188
   5.0585E+00   5.1815E+00   4.7978E-05  0.0184
   5.1815E+00   5.3076E+00   4.9140E-05  0.0179
   5.3076E+00   5.4368E+00   4.8762E-05  0.0178
   5.4368E+00   5.5690E+00   4.8353E-05  0.0176
   5.5690E+00   5.7045E+00   4.6988E-05  0.0177
   5.7045E+00   5.8433E+00   4.7025E-05  0.0175
   5.8433E+00   5.9855E+00   4.7361E-05  0.0172
   5.9855E+00   6.1311E+00   4.5367E-05  0.0174
   6.1311E+00   6.2803E+00   4.7106E-05  0.0168
   6.2803E+00   6.4331E+00   4.5792E-05  0.0169
   6.4331E+00   6.5896E+00   4.6736E-05  0.0165
   6.5896E+00   6.7500E+00   4.6606E-05  0.0163
   6.7500E+00   6.9142E+00   4.7303E-05  0.0160
   6.9142E+00   7.0824E+00   4.8230E-05  0.0157
   7.0824E+00   7.2548E+00   4.7760E-05  0.0156
   7.2548E+00   7.4313E+00   4.6041E-05  0.0157
   7.4313E+00   7.6121E+00   4.8741E-05  0.0150
   7.6121E+00   7.7973E+00   4.7522E-05  0.0151
   7.7973E+00   7.9870E+00   4.7776E-05  0.0148
   7.9870E+00   8.1813E+00   4.8086E-05  0.0146
   8.1813E+00   8.3804E+00   4.8739E-05  0.0143
   8.3804E+00   8.5843E+00   5.0198E-05  0.0140
   8.5843E+00   8.7931E+00   4.9692E-05  0.0139
   8.7931E+00   9.0071E+00   4.9767E-05  0.0137
   9.0071E+00   9.2262E+00   4.8717E-05  0.0137
   9.2262E+00   9.4507E+00   5.0538E-05  0.0133
   9.4507E+00   9.6807E+00   5.1522E-05  0.0130
   9.6807E+00   9.9162E+00   5.2676E-05  0.0127
   9.9162E+00   1.0157E+01   5.2393E-05  0.0126
   1.0157E+01   1.0405E+01   5.3035E-05  0.0123
   1.0405E+01   1.0658E+01   5.3966E-05  0.0121
   1.0658E+01   1.0917E+01   5.4289E-05  0.0119
   1.0917E+01   1.1183E+01   5.5911E-05  0.0116
   1.1183E+01   1.1455E+01   5.7955E-05  0.0113
   1.1455E+01   1.1733E+01   5.8737E-05  0.0110
   1.1733E+01   1.2019E+01   5.8873E-05  0.0109
   1.2019E+01   1.2311E+01   6.0889E-05  0.0106
   1.2311E+01   1.2611E+01   6.2284E-05  0.0104
   1.2611E+01   1.2918E+01   6.4658E-05  0.0100
   1.2918E+01   1.3232E+01   6.5707E-05  0.0098
   1.3232E+01   1.3554E+01   6.7833E-05  0.0096
   1.3554E+01   1.3884E+01   6.9184E-05  0.0094
   1.3884E+01   1.4222E+01   7.1644E-05  0.0091
   1.4222E+01   1.4568E+01   7.2869E-05  0.0089
   1.4568E+01   1.4922E+01   7.5958E-05  0.0086
   1.4922E+01   1.5285E+01   7.8258E-05  0.0084
   1.5285E+01   1.5657E+01   8.1192E-05  0.0081
   1.5657E+01   1.6038E+01   8.3182E-05  0.0079
   1.6038E+01   1.6428E+01   8.6778E-05  0.0077
   1.6428E+01   1.6828E+01   8.8320E-05  0.0075
   1.6828E+01   1.7237E+01   9.3506E-05  0.0072
   1.7237E+01   1.7657E+01   9.5786E-05  0.0071
   1.7657E+01   1.8086E+01   1.0044E-04  0.0068
   1.8086E+01   1.8526E+01   1.0558E-04  0.0066
   1.8526E+01   1.8977E+01   1.0834E-04  0.0064
   1.8977E+01   1.9439E+01   1.1304E-04  0.0062
   1.9439E+01   1.9912E+01   1.1902E-04  0.0060
   1.9912E+01   2.0396E+01   1.2363E-04  0.0058
   2.0396E+01   2.0893E+01   1.3068E-04  0.0056
   2.0893E+01   2.1401E+01   1.3459E-04  0.0054
   2.1401E+01   2.1922E+01   1.3950E-04  0.0052
   2.1922E+01   2.2455E+01   1.4589E-04  0.0051
   2.2455E+01   2.3001E+01   1.5062E-04  0.0049
   2.3001E+01   2.3561E+01   1.5579E-04  0.0048
   2.3561E+01   2.4134E+01   1.6074E-04  0.0047
   2.4134E+01   2.4721E+01   1.6562E-04  0.0045
   2.4721E+01   2.5323E+01   1.7106E-04  0.0044
   2.5323E+01   2.5939E+01   1.7330E-04  0.0043
   2.5939E+01   2.6570E+01   1.7999E-04  0.0042
   2.6570E+01   2.7217E+01   1.8455E-04  0.0041
   2.7217E+01   2.7879E+01   1.8842E-04  0.0040
   2.7879E+01   2.8557E+01   1.9175E-04  0.0039
   2.8557E+01   2.9252E+01   1.9697E-04  0.0038
   2.9252E+01   2.9964E+01   2.0017E-04  0.0037
   2.9964E+01   3.0693E+01   2.0343E-04  0.0037
   3.0693E+01   3.1440E+01   2.0593E-04  0.0036
   3.1440E+01   3.2205E+01   2.0636E-04  0.0036
   3.2205E+01   3.2988E+01   2.0912E-04  0.0035
   3.2988E+01   3.3791E+01   2.1007E-04  0.0034
   3.3791E+01   3.4613E+01   2.1279E-04  0.0034
   3.4613E+01   3.5455E+01   2.1148E-04  0.0034
   3.5455E+01   3.6318E+01   2.1242E-04  0.0033
   3.6318E+01   3.7201E+01   2.0969E-04  0.0033
   3.7201E+01   3.8106E+01   2.0837E-04  0.0033
   3.8106E+01   3.9034E+01   2.0532E-04  0.0032
   3.9034E+01   3.9983E+01   2.0197E-04  0.0032
   3.9983E+01   4.0956E+01   1.9705E-04  0.0032
   4.0956E+01   4.1953E+01   1.9227E-04  0.0032
   4.1953E+01   4.2973E+01   1.8649E-04  0.0032
   4.2973E+01   4.4019E+01   1.7890E-04  0.0033
   4.4019E+01   4.5090E+01   1.6940E-04  0.0033
   4.5090E+01   4.6187E+01   1.5963E-04  0.0034
   4.6187E+01   4.7311E+01   1.4975E-04  0.0034
   4.7311E+01   4.8462E+01   1.3941E-04  0.0035
   4.8462E+01   4.9641E+01   1.2796E-04  0.0036
   4.9641E+01   5.0849E+01   1.1686E-04  0.0038
   5.0849E+01   5.2086E+01   1.0584E-04  0.0039
   5.2086E+01   5.3353E+01   9.4521E-05  0.0041
   5.3353E+01   5.4651E+01   8.4927E-05  0.0043
   5.4651E+01   5.5981E+01   7.5355E-05  0.0045
   5.5981E+01   5.7343E+01   6.6098E-05  0.0047
   5.7343E+01   5.8738E+01   5.8366E-05  0.0050
   5.8738E+01   6.0168E+01   5.0928E-05  0.0052
   6.0168E+01   6.1632E+01   4.4321E-05  0.0056
   6.1632E+01   6.3131E+01   3.8530E-05  0.0059
   6.3131E+01   6.4667E+01   3.3493E-05  0.0062
   6.4667E+01   6.6240E+01   2.9021E-05  0.0066
   6.6240E+01   6.7852E+01   2.5336E-05  0.0070
   6.7852E+01   6.9503E+01   2.1434E-05  0.0075
   6.9503E+01   7.1194E+01   1.8870E-05  0.0079
   7.1194E+01   7.2926E+01   1.6336E-05  0.0084
   7.2926E+01   7.4701E+01   1.4043E-05  0.0090
   7.4701E+01   7.6518E+01   1.2459E-05  0.0094
   7.6518E+01   7.8380E+01   1.0446E-05  0.0101
   7.8380E+01   8.0287E+01   9.3506E-06  0.0106
   8.0287E+01   8.2240E+01   8.0995E-06  0.0112
   8.2240E+01   8.4241E+01   7.0066E-06  0.0119
   8.4241E+01   8.6291E+01   5.9366E-06  0.0128
   8.6291E+01   8.8391E+01   5.2174E-06  0.0135
   8.8391E+01   9.0541E+01   4.6136E-06  0.0142
   9.0541E+01   9.2744E+01   4.0446E-06  0.0150
   9.2744E+01   9.5001E+01   3.3653E-06  0.0162
   9.5001E+01   9.7312E+01   2.7074E-06  0.0179
   9.7312E+01   9.9680E+01   2.3018E-06  0.0192
   9.9680E+01   1.0211E+02   1.7821E-06  0.0215
   1.0211E+02   1.0459E+02   1.2929E-06  0.0250
   1.0459E+02   1.0713E+02   7.1834E-07  0.0331
   1.0713E+02   1.0974E+02   2.1253E-07  0.0601
   1.0974E+02   1.1241E+02   2.3220E-08  0.1796
   1.1241E+02   1.1515E+02   0.0000E+00  0.0000
   1.1515E+02   1.1795E+02   0.0000E+00  0.0000
   1.1795E+02   1.2082E+02   0.0000E+00  0.0000
   1.2082E+02   1.2376E+02   0.0000E+00  0.0000
   1.2376E+02   1.2677E+02   0.0000E+00  0.0000
   1.2677E+02   1.2985E+02   0.0000E+00  0.0000
   1.2985E+02   1.3301E+02   0.0000E+00  0.0000
   1.3301E+02   1.3625E+02   0.0000E+00  0.0000
   1.3625E+02   1.3956E+02   0.0000E+00  0.0000
   1.3956E+02   1.4296E+02   0.0000E+00  0.0000
   1.4296E+02   1.4644E+02   0.0000E+00  0.0000
   1.4644E+02   1.5000E+02   0.0000E+00  0.0000

#   sum over                 5.3854E-05
'no. =    1   reg = 100 - 200'
msuc: {\huge [t-cross] in region mesh}
msdr: {\it plotted by \ANGEL \version}
msdl: {\it calculated by \PHITS  3.26}
wt: s(0.7)
\vspace{-3}
  region surface crossing
  area  &=&   1.0000E+00 [cm^2]
e:
 
# Information for Restart Calculation
# This calculation was newly started
# istdev =  2 # 1:Batch variance, 2:History variance
# resc2  = 5.00000000000000000E+08 # Total source weight or Total source weight / maxcas
# resc3  = 5.00000000000000000E+08 # Total history number or Total batch number
# maxcas =   500000000 # History / Batch, only used for istdev=1
# bitrseed = 1101101111010011011000101101110001100110110010110001010100010001 # bit data of rseed
