[ T-Cross ]
    title = [t-cross] in region mesh
     mesh =  reg            # mesh type is region-wise
      reg =    1            # number of crossing regions
      non     r-from    r-to       area
      1       100       200        1.000000    
   e-type =    3            # e-mesh is log given by emin, emax and ne
     emin =  1.0000000E-02  # minimum value of e-mesh points
     emax =   150.0000      # maximum value of e-mesh points
#    edel =  2.4039514E-02  # mesh width of e-mesh points
       ne =    400          # number of e-mesh points
#    data = ( e(i), i = 1, ne + 1 )
#           1.00000E-02  1.02433E-02  1.04925E-02  1.07478E-02  1.10093E-02
#           1.12772E-02  1.15516E-02  1.18326E-02  1.21205E-02  1.24154E-02
#           1.27175E-02  1.30269E-02  1.33439E-02  1.36686E-02  1.40011E-02
#           1.43418E-02  1.46907E-02  1.50482E-02  1.54143E-02  1.57894E-02
#           1.61735E-02  1.65670E-02  1.69701E-02  1.73830E-02  1.78060E-02
#           1.82392E-02  1.86830E-02  1.91375E-02  1.96032E-02  2.00801E-02
#           2.05687E-02  2.10692E-02  2.15818E-02  2.21069E-02  2.26448E-02
#           2.31957E-02  2.37601E-02  2.43382E-02  2.49304E-02  2.55369E-02
#           2.61583E-02  2.67947E-02  2.74467E-02  2.81145E-02  2.87985E-02
#           2.94992E-02  3.02169E-02  3.09521E-02  3.17052E-02  3.24766E-02
#           3.32668E-02  3.40762E-02  3.49053E-02  3.57546E-02  3.66246E-02
#           3.75157E-02  3.84284E-02  3.93634E-02  4.03212E-02  4.13022E-02
#           4.23071E-02  4.33365E-02  4.43909E-02  4.54710E-02  4.65773E-02
#           4.77106E-02  4.88714E-02  5.00605E-02  5.12785E-02  5.25262E-02
#           5.38042E-02  5.51133E-02  5.64542E-02  5.78278E-02  5.92348E-02
#           6.06760E-02  6.21523E-02  6.36645E-02  6.52135E-02  6.68002E-02
#           6.84255E-02  7.00904E-02  7.17957E-02  7.35426E-02  7.53319E-02
#           7.71648E-02  7.90423E-02  8.09655E-02  8.29354E-02  8.49533E-02
#           8.70203E-02  8.91376E-02  9.13064E-02  9.35279E-02  9.58035E-02
#           9.81345E-02  1.00522E-01  1.02968E-01  1.05473E-01  1.08040E-01
#           1.10668E-01  1.13361E-01  1.16119E-01  1.18944E-01  1.21838E-01
#           1.24803E-01  1.27839E-01  1.30950E-01  1.34136E-01  1.37399E-01
#           1.40742E-01  1.44167E-01  1.47675E-01  1.51268E-01  1.54948E-01
#           1.58718E-01  1.62580E-01  1.66535E-01  1.70587E-01  1.74738E-01
#           1.78989E-01  1.83344E-01  1.87805E-01  1.92375E-01  1.97055E-01
#           2.01850E-01  2.06761E-01  2.11792E-01  2.16945E-01  2.22223E-01
#           2.27630E-01  2.33169E-01  2.38842E-01  2.44653E-01  2.50605E-01
#           2.56703E-01  2.62949E-01  2.69346E-01  2.75900E-01  2.82613E-01
#           2.89489E-01  2.96532E-01  3.03747E-01  3.11138E-01  3.18708E-01
#           3.26462E-01  3.34405E-01  3.42542E-01  3.50876E-01  3.59413E-01
#           3.68158E-01  3.77116E-01  3.86291E-01  3.95690E-01  4.05317E-01
#           4.15179E-01  4.25281E-01  4.35628E-01  4.46227E-01  4.57084E-01
#           4.68205E-01  4.79597E-01  4.91266E-01  5.03219E-01  5.15463E-01
#           5.28005E-01  5.40851E-01  5.54011E-01  5.67490E-01  5.81298E-01
#           5.95441E-01  6.09929E-01  6.24769E-01  6.39970E-01  6.55541E-01
#           6.71491E-01  6.87828E-01  7.04564E-01  7.21706E-01  7.39266E-01
#           7.57253E-01  7.75678E-01  7.94551E-01  8.13883E-01  8.33685E-01
#           8.53969E-01  8.74747E-01  8.96030E-01  9.17831E-01  9.40163E-01
#           9.63038E-01  9.86469E-01  1.01047E+00  1.03506E+00  1.06024E+00
#           1.08604E+00  1.11246E+00  1.13953E+00  1.16725E+00  1.19565E+00
#           1.22474E+00  1.25454E+00  1.28507E+00  1.31633E+00  1.34836E+00
#           1.38117E+00  1.41477E+00  1.44920E+00  1.48446E+00  1.52057E+00
#           1.55757E+00  1.59547E+00  1.63429E+00  1.67405E+00  1.71478E+00
#           1.75650E+00  1.79924E+00  1.84302E+00  1.88786E+00  1.93379E+00
#           1.98084E+00  2.02904E+00  2.07841E+00  2.12898E+00  2.18078E+00
#           2.23384E+00  2.28819E+00  2.34386E+00  2.40089E+00  2.45930E+00
#           2.51914E+00  2.58043E+00  2.64322E+00  2.70753E+00  2.77341E+00
#           2.84088E+00  2.91001E+00  2.98081E+00  3.05333E+00  3.12762E+00
#           3.20372E+00  3.28167E+00  3.36152E+00  3.44330E+00  3.52708E+00
#           3.61290E+00  3.70080E+00  3.79085E+00  3.88308E+00  3.97756E+00
#           4.07434E+00  4.17347E+00  4.27501E+00  4.37903E+00  4.48557E+00
#           4.59471E+00  4.70650E+00  4.82102E+00  4.93832E+00  5.05847E+00
#           5.18155E+00  5.30762E+00  5.43676E+00  5.56904E+00  5.70453E+00
#           5.84333E+00  5.98550E+00  6.13114E+00  6.28031E+00  6.43312E+00
#           6.58964E+00  6.74997E+00  6.91420E+00  7.08243E+00  7.25475E+00
#           7.43126E+00  7.61207E+00  7.79728E+00  7.98700E+00  8.18133E+00
#           8.38038E+00  8.58428E+00  8.79315E+00  9.00709E+00  9.22624E+00
#           9.45072E+00  9.68067E+00  9.91620E+00  1.01575E+01  1.04046E+01
#           1.06578E+01  1.09171E+01  1.11827E+01  1.14548E+01  1.17335E+01
#           1.20190E+01  1.23114E+01  1.26109E+01  1.29178E+01  1.32321E+01
#           1.35540E+01  1.38838E+01  1.42216E+01  1.45676E+01  1.49221E+01
#           1.52851E+01  1.56570E+01  1.60380E+01  1.64282E+01  1.68279E+01
#           1.72374E+01  1.76568E+01  1.80864E+01  1.85264E+01  1.89772E+01
#           1.94389E+01  1.99119E+01  2.03963E+01  2.08926E+01  2.14009E+01
#           2.19216E+01  2.24550E+01  2.30014E+01  2.35610E+01  2.41343E+01
#           2.47215E+01  2.53230E+01  2.59391E+01  2.65702E+01  2.72167E+01
#           2.78789E+01  2.85572E+01  2.92520E+01  2.99637E+01  3.06928E+01
#           3.14396E+01  3.22045E+01  3.29881E+01  3.37907E+01  3.46128E+01
#           3.54550E+01  3.63177E+01  3.72013E+01  3.81064E+01  3.90336E+01
#           3.99833E+01  4.09561E+01  4.19526E+01  4.29734E+01  4.40189E+01
#           4.50900E+01  4.61870E+01  4.73108E+01  4.84619E+01  4.96410E+01
#           5.08488E+01  5.20860E+01  5.33533E+01  5.46514E+01  5.59812E+01
#           5.73432E+01  5.87384E+01  6.01676E+01  6.16315E+01  6.31311E+01
#           6.46671E+01  6.62405E+01  6.78522E+01  6.95031E+01  7.11941E+01
#           7.29263E+01  7.47007E+01  7.65182E+01  7.83800E+01  8.02870E+01
#           8.22405E+01  8.42414E+01  8.62911E+01  8.83906E+01  9.05412E+01
#           9.27442E+01  9.50007E+01  9.73122E+01  9.96799E+01  1.02105E+02
#           1.04589E+02  1.07134E+02  1.09741E+02  1.12411E+02  1.15146E+02
#           1.17948E+02  1.20817E+02  1.23757E+02  1.26768E+02  1.29852E+02
#           1.33012E+02  1.36248E+02  1.39563E+02  1.42959E+02  1.46437E+02
#           1.50000E+02
     unit =    2            # unit is [1/cm^2/(MeV/n)/source]
     axis =  eng            # axis of output
     file = detector-01.out  # file name of output for the above axis
   output = f-curr          # surface crossing forward current spectrum
     part =  neutron  
# kf/name :  2112     
#    used :        main (  %)        temp (  %)       total (  %)
#  memory :         414 (  0)           0 (  0)         414 (  0)

#------------------------------------------------------------------------------
#newpage:
#   no. =    1   reg = 100 - 200

x: Energy [MeV/n]
y:  F-Curr [1/cm^2/(MeV/n)/source]         
p: xlog ylog afac(0.8) form(0.9)
h: n            x            y(neutron ),hh0l   n 
#  e-lower      e-upper      neutron     r.err 
   1.0000E-02   1.0243E-02   1.0047E-03  0.0302
   1.0243E-02   1.0493E-02   1.1003E-03  0.0285
   1.0493E-02   1.0748E-02   1.0890E-03  0.0283
   1.0748E-02   1.1009E-02   1.0435E-03  0.0285
   1.1009E-02   1.1277E-02   1.0494E-03  0.0281
   1.1277E-02   1.1552E-02   1.0521E-03  0.0277
   1.1552E-02   1.1833E-02   9.9702E-04  0.0282
   1.1833E-02   1.2121E-02   1.0490E-03  0.0271
   1.2121E-02   1.2415E-02   1.0369E-03  0.0270
   1.2415E-02   1.2718E-02   1.0130E-03  0.0269
   1.2718E-02   1.3027E-02   9.9323E-04  0.0269
   1.3027E-02   1.3344E-02   9.9418E-04  0.0266
   1.3344E-02   1.3669E-02   9.4456E-04  0.0269
   1.3669E-02   1.4001E-02   1.0277E-03  0.0255
   1.4001E-02   1.4342E-02   1.0261E-03  0.0252
   1.4342E-02   1.4691E-02   9.6990E-04  0.0256
   1.4691E-02   1.5048E-02   9.6427E-04  0.0254
   1.5048E-02   1.5414E-02   1.0093E-03  0.0245
   1.5414E-02   1.5789E-02   9.6937E-04  0.0247
   1.5789E-02   1.6174E-02   9.5734E-04  0.0246
   1.6174E-02   1.6567E-02   9.5719E-04  0.0243
   1.6567E-02   1.6970E-02   9.2618E-04  0.0244
   1.6970E-02   1.7383E-02   9.6823E-04  0.0236
   1.7383E-02   1.7806E-02   9.4628E-04  0.0236
   1.7806E-02   1.8239E-02   9.4022E-04  0.0234
   1.8239E-02   1.8683E-02   9.8248E-04  0.0226
   1.8683E-02   1.9138E-02   9.4155E-04  0.0228
   1.9138E-02   1.9603E-02   9.2873E-04  0.0227
   1.9603E-02   2.0080E-02   9.7003E-04  0.0219
   2.0080E-02   2.0569E-02   9.5563E-04  0.0218
   2.0569E-02   2.1069E-02   9.2982E-04  0.0219
   2.1069E-02   2.1582E-02   9.1467E-04  0.0218
   2.1582E-02   2.2107E-02   9.0818E-04  0.0216
   2.2107E-02   2.2645E-02   9.2917E-04  0.0211
   2.2645E-02   2.3196E-02   9.1637E-04  0.0210
   2.3196E-02   2.3760E-02   9.1036E-04  0.0208
   2.3760E-02   2.4338E-02   8.7374E-04  0.0210
   2.4338E-02   2.4930E-02   8.9764E-04  0.0204
   2.4930E-02   2.5537E-02   8.9317E-04  0.0203
   2.5537E-02   2.6158E-02   9.0522E-04  0.0199
   2.6158E-02   2.6795E-02   9.1445E-04  0.0195
   2.6795E-02   2.7447E-02   8.8625E-04  0.0196
   2.7447E-02   2.8114E-02   8.7485E-04  0.0195
   2.8114E-02   2.8799E-02   8.9597E-04  0.0190
   2.8799E-02   2.9499E-02   8.6454E-04  0.0192
   2.9499E-02   3.0217E-02   8.6506E-04  0.0189
   3.0217E-02   3.0952E-02   8.7051E-04  0.0186
   3.0952E-02   3.1705E-02   8.7993E-04  0.0183
   3.1705E-02   3.2477E-02   8.5183E-04  0.0184
   3.2477E-02   3.3267E-02   8.5409E-04  0.0181
   3.3267E-02   3.4076E-02   8.3765E-04  0.0181
   3.4076E-02   3.4905E-02   8.4804E-04  0.0178
   3.4905E-02   3.5755E-02   8.4700E-04  0.0176
   3.5755E-02   3.6625E-02   8.3173E-04  0.0175
   3.6625E-02   3.7516E-02   8.3317E-04  0.0173
   3.7516E-02   3.8428E-02   8.1825E-04  0.0172
   3.8428E-02   3.9363E-02   8.4944E-04  0.0167
   3.9363E-02   4.0321E-02   8.1604E-04  0.0169
   4.0321E-02   4.1302E-02   8.3403E-04  0.0165
   4.1302E-02   4.2307E-02   7.9343E-04  0.0167
   4.2307E-02   4.3337E-02   8.0524E-04  0.0164
   4.3337E-02   4.4391E-02   8.1973E-04  0.0160
   4.4391E-02   4.5471E-02   8.2114E-04  0.0158
   4.5471E-02   4.6577E-02   8.1610E-04  0.0157
   4.6577E-02   4.7711E-02   7.9789E-04  0.0157
   4.7711E-02   4.8871E-02   8.2335E-04  0.0152
   4.8871E-02   5.0061E-02   7.6735E-04  0.0156
   5.0061E-02   5.1279E-02   7.8780E-04  0.0152
   5.1279E-02   5.2526E-02   7.5573E-04  0.0154
   5.2526E-02   5.3804E-02   7.7951E-04  0.0149
   5.3804E-02   5.5113E-02   7.7551E-04  0.0148
   5.5113E-02   5.6454E-02   7.6762E-04  0.0147
   5.6454E-02   5.7828E-02   7.8190E-04  0.0144
   5.7828E-02   5.9235E-02   7.5575E-04  0.0145
   5.9235E-02   6.0676E-02   7.5090E-04  0.0143
   6.0676E-02   6.2152E-02   7.4571E-04  0.0142
   6.2152E-02   6.3665E-02   7.3975E-04  0.0141
   6.3665E-02   6.5214E-02   7.2835E-04  0.0140
   6.5214E-02   6.6800E-02   7.3710E-04  0.0138
   6.6800E-02   6.8426E-02   7.2670E-04  0.0137
   6.8426E-02   7.0090E-02   7.2452E-04  0.0136
   7.0090E-02   7.1796E-02   7.1904E-04  0.0135
   7.1796E-02   7.3543E-02   7.3784E-04  0.0131
   7.3543E-02   7.5332E-02   7.2379E-04  0.0131
   7.5332E-02   7.7165E-02   7.3618E-04  0.0128
   7.7165E-02   7.9042E-02   7.2000E-04  0.0128
   7.9042E-02   8.0965E-02   7.1526E-04  0.0127
   8.0965E-02   8.2935E-02   7.2331E-04  0.0125
   8.2935E-02   8.4953E-02   6.8752E-04  0.0127
   8.4953E-02   8.7020E-02   6.7861E-04  0.0126
   8.7020E-02   8.9138E-02   6.8416E-04  0.0124
   8.9138E-02   9.1306E-02   6.8774E-04  0.0122
   9.1306E-02   9.3528E-02   6.7320E-04  0.0122
   9.3528E-02   9.5804E-02   6.8075E-04  0.0120
   9.5804E-02   9.8134E-02   6.7487E-04  0.0119
   9.8134E-02   1.0052E-01   6.5838E-04  0.0119
   1.0052E-01   1.0297E-01   6.5382E-04  0.0118
   1.0297E-01   1.0547E-01   6.5284E-04  0.0117
   1.0547E-01   1.0804E-01   6.4478E-04  0.0116
   1.0804E-01   1.1067E-01   6.4434E-04  0.0115
   1.1067E-01   1.1336E-01   6.2830E-04  0.0115
   1.1336E-01   1.1612E-01   6.3319E-04  0.0113
   1.1612E-01   1.1894E-01   6.4214E-04  0.0111
   1.1894E-01   1.2184E-01   6.2973E-04  0.0110
   1.2184E-01   1.2480E-01   6.2909E-04  0.0109
   1.2480E-01   1.2784E-01   6.1495E-04  0.0109
   1.2784E-01   1.3095E-01   6.1613E-04  0.0108
   1.3095E-01   1.3414E-01   6.0234E-04  0.0108
   1.3414E-01   1.3740E-01   6.1278E-04  0.0105
   1.3740E-01   1.4074E-01   6.0278E-04  0.0105
   1.4074E-01   1.4417E-01   5.9294E-04  0.0105
   1.4417E-01   1.4767E-01   5.8620E-04  0.0104
   1.4767E-01   1.5127E-01   5.9046E-04  0.0102
   1.5127E-01   1.5495E-01   5.7414E-04  0.0103
   1.5495E-01   1.5872E-01   5.6056E-04  0.0103
   1.5872E-01   1.6258E-01   5.7130E-04  0.0100
   1.6258E-01   1.6654E-01   5.7638E-04  0.0099
   1.6654E-01   1.7059E-01   5.6412E-04  0.0099
   1.7059E-01   1.7474E-01   5.5955E-04  0.0098
   1.7474E-01   1.7899E-01   5.5217E-04  0.0097
   1.7899E-01   1.8334E-01   5.4538E-04  0.0097
   1.8334E-01   1.8781E-01   5.3756E-04  0.0096
   1.8781E-01   1.9237E-01   5.2951E-04  0.0096
   1.9237E-01   1.9706E-01   5.2685E-04  0.0095
   1.9706E-01   2.0185E-01   5.1981E-04  0.0094
   2.0185E-01   2.0676E-01   5.1723E-04  0.0094
   2.0676E-01   2.1179E-01   5.1643E-04  0.0092
   2.1179E-01   2.1694E-01   5.1193E-04  0.0092
   2.1694E-01   2.2222E-01   5.0899E-04  0.0091
   2.2222E-01   2.2763E-01   5.0430E-04  0.0090
   2.2763E-01   2.3317E-01   5.0430E-04  0.0089
   2.3317E-01   2.3884E-01   4.8771E-04  0.0090
   2.3884E-01   2.4465E-01   4.8362E-04  0.0089
   2.4465E-01   2.5061E-01   4.7415E-04  0.0089
   2.5061E-01   2.5670E-01   4.7084E-04  0.0088
   2.5670E-01   2.6295E-01   4.6709E-04  0.0087
   2.6295E-01   2.6935E-01   4.6676E-04  0.0086
   2.6935E-01   2.7590E-01   4.6195E-04  0.0086
   2.7590E-01   2.8261E-01   4.5064E-04  0.0086
   2.8261E-01   2.8949E-01   4.4059E-04  0.0086
   2.8949E-01   2.9653E-01   4.3993E-04  0.0085
   2.9653E-01   3.0375E-01   4.3286E-04  0.0084
   3.0375E-01   3.1114E-01   4.2725E-04  0.0084
   3.1114E-01   3.1871E-01   4.2608E-04  0.0083
   3.1871E-01   3.2646E-01   4.1975E-04  0.0083
   3.2646E-01   3.3441E-01   4.0986E-04  0.0083
   3.3441E-01   3.4254E-01   4.0512E-04  0.0082
   3.4254E-01   3.5088E-01   4.0297E-04  0.0081
   3.5088E-01   3.5941E-01   3.9480E-04  0.0081
   3.5941E-01   3.6816E-01   3.8779E-04  0.0081
   3.6816E-01   3.7712E-01   3.8024E-04  0.0081
   3.7712E-01   3.8629E-01   3.7721E-04  0.0080
   3.8629E-01   3.9569E-01   3.6719E-04  0.0080
   3.9569E-01   4.0532E-01   3.6050E-04  0.0080
   4.0532E-01   4.1518E-01   3.5536E-04  0.0080
   4.1518E-01   4.2528E-01   3.5277E-04  0.0079
   4.2528E-01   4.3563E-01   3.4383E-04  0.0079
   4.3563E-01   4.4623E-01   3.3831E-04  0.0079
   4.4623E-01   4.5708E-01   3.3878E-04  0.0078
   4.5708E-01   4.6821E-01   3.2217E-04  0.0079
   4.6821E-01   4.7960E-01   3.1859E-04  0.0078
   4.7960E-01   4.9127E-01   3.1119E-04  0.0078
   4.9127E-01   5.0322E-01   3.0589E-04  0.0078
   5.0322E-01   5.1546E-01   3.0258E-04  0.0077
   5.1546E-01   5.2800E-01   2.9211E-04  0.0078
   5.2800E-01   5.4085E-01   2.8676E-04  0.0078
   5.4085E-01   5.5401E-01   2.8259E-04  0.0077
   5.5401E-01   5.6749E-01   2.7782E-04  0.0077
   5.6749E-01   5.8130E-01   2.6902E-04  0.0077
   5.8130E-01   5.9544E-01   2.6395E-04  0.0077
   5.9544E-01   6.0993E-01   2.5392E-04  0.0078
   6.0993E-01   6.2477E-01   2.4939E-04  0.0077
   6.2477E-01   6.3997E-01   2.4393E-04  0.0077
   6.3997E-01   6.5554E-01   2.3868E-04  0.0077
   6.5554E-01   6.7149E-01   2.3242E-04  0.0077
   6.7149E-01   6.8783E-01   2.2236E-04  0.0078
   6.8783E-01   7.0456E-01   2.1811E-04  0.0078
   7.0456E-01   7.2171E-01   2.1057E-04  0.0078
   7.2171E-01   7.3927E-01   2.0718E-04  0.0078
   7.3927E-01   7.5725E-01   1.9686E-04  0.0079
   7.5725E-01   7.7568E-01   1.9217E-04  0.0079
   7.7568E-01   7.9455E-01   1.8696E-04  0.0079
   7.9455E-01   8.1388E-01   1.8074E-04  0.0080
   8.1388E-01   8.3368E-01   1.7604E-04  0.0080
   8.3368E-01   8.5397E-01   1.6769E-04  0.0081
   8.5397E-01   8.7475E-01   1.6153E-04  0.0081
   8.7475E-01   8.9603E-01   1.5378E-04  0.0082
   8.9603E-01   9.1783E-01   1.4895E-04  0.0083
   9.1783E-01   9.4016E-01   1.4184E-04  0.0084
   9.4016E-01   9.6304E-01   1.3632E-04  0.0084
   9.6304E-01   9.8647E-01   1.2898E-04  0.0086
   9.8647E-01   1.0105E+00   1.2406E-04  0.0086
   1.0105E+00   1.0351E+00   1.2420E-04  0.0085
   1.0351E+00   1.0602E+00   1.2579E-04  0.0084
   1.0602E+00   1.0860E+00   1.2532E-04  0.0083
   1.0860E+00   1.1125E+00   1.2672E-04  0.0081
   1.1125E+00   1.1395E+00   1.2845E-04  0.0080
   1.1395E+00   1.1673E+00   1.3105E-04  0.0078
   1.1673E+00   1.1957E+00   1.3256E-04  0.0077
   1.1957E+00   1.2247E+00   1.3702E-04  0.0075
   1.2247E+00   1.2545E+00   1.3666E-04  0.0074
   1.2545E+00   1.2851E+00   1.3565E-04  0.0073
   1.2851E+00   1.3163E+00   1.3554E-04  0.0072
   1.3163E+00   1.3484E+00   1.3614E-04  0.0071
   1.3484E+00   1.3812E+00   1.3981E-04  0.0070
   1.3812E+00   1.4148E+00   1.4252E-04  0.0068
   1.4148E+00   1.4492E+00   1.3993E-04  0.0068
   1.4492E+00   1.4845E+00   1.3778E-04  0.0068
   1.4845E+00   1.5206E+00   1.3730E-04  0.0067
   1.5206E+00   1.5576E+00   1.3638E-04  0.0066
   1.5576E+00   1.5955E+00   1.3548E-04  0.0066
   1.5955E+00   1.6343E+00   1.3560E-04  0.0065
   1.6343E+00   1.6741E+00   1.3523E-04  0.0064
   1.6741E+00   1.7148E+00   1.3527E-04  0.0064
   1.7148E+00   1.7565E+00   1.3477E-04  0.0063
   1.7565E+00   1.7992E+00   1.3181E-04  0.0063
   1.7992E+00   1.8430E+00   1.2979E-04  0.0063
   1.8430E+00   1.8879E+00   1.2830E-04  0.0062
   1.8879E+00   1.9338E+00   1.2640E-04  0.0062
   1.9338E+00   1.9808E+00   1.2580E-04  0.0061
   1.9808E+00   2.0290E+00   1.2594E-04  0.0061
   2.0290E+00   2.0784E+00   1.2121E-04  0.0061
   2.0784E+00   2.1290E+00   1.1875E-04  0.0061
   2.1290E+00   2.1808E+00   1.1605E-04  0.0061
   2.1808E+00   2.2338E+00   1.1283E-04  0.0061
   2.2338E+00   2.2882E+00   1.0921E-04  0.0061
   2.2882E+00   2.3439E+00   1.0728E-04  0.0061
   2.3439E+00   2.4009E+00   1.0530E-04  0.0061
   2.4009E+00   2.4593E+00   1.0329E-04  0.0061
   2.4593E+00   2.5191E+00   9.9144E-05  0.0061
   2.5191E+00   2.5804E+00   9.5690E-05  0.0062
   2.5804E+00   2.6432E+00   9.2674E-05  0.0062
   2.6432E+00   2.7075E+00   9.0086E-05  0.0062
   2.7075E+00   2.7734E+00   8.6011E-05  0.0063
   2.7734E+00   2.8409E+00   8.2880E-05  0.0063
   2.8409E+00   2.9100E+00   7.9916E-05  0.0063
   2.9100E+00   2.9808E+00   7.8823E-05  0.0063
   2.9808E+00   3.0533E+00   7.5227E-05  0.0064
   3.0533E+00   3.1276E+00   7.2263E-05  0.0064
   3.1276E+00   3.2037E+00   6.9823E-05  0.0065
   3.2037E+00   3.2817E+00   6.6303E-05  0.0066
   3.2817E+00   3.3615E+00   6.2934E-05  0.0067
   3.3615E+00   3.4433E+00   5.9411E-05  0.0068
   3.4433E+00   3.5271E+00   5.6764E-05  0.0068
   3.5271E+00   3.6129E+00   5.4416E-05  0.0069
   3.6129E+00   3.7008E+00   5.2198E-05  0.0070
   3.7008E+00   3.7908E+00   5.0146E-05  0.0070
   3.7908E+00   3.8831E+00   4.7531E-05  0.0071
   3.8831E+00   3.9776E+00   4.5170E-05  0.0072
   3.9776E+00   4.0743E+00   4.2938E-05  0.0073
   4.0743E+00   4.1735E+00   4.0548E-05  0.0074
   4.1735E+00   4.2750E+00   3.7702E-05  0.0076
   4.2750E+00   4.3790E+00   3.5997E-05  0.0077
   4.3790E+00   4.4856E+00   3.3864E-05  0.0078
   4.4856E+00   4.5947E+00   3.1516E-05  0.0080
   4.5947E+00   4.7065E+00   2.9849E-05  0.0082
   4.7065E+00   4.8210E+00   2.8214E-05  0.0083
   4.8210E+00   4.9383E+00   2.6699E-05  0.0084
   4.9383E+00   5.0585E+00   2.4650E-05  0.0087
   5.0585E+00   5.1815E+00   2.3299E-05  0.0088
   5.1815E+00   5.3076E+00   2.2032E-05  0.0089
   5.3076E+00   5.4368E+00   2.1450E-05  0.0090
   5.4368E+00   5.5690E+00   1.9475E-05  0.0093
   5.5690E+00   5.7045E+00   1.8211E-05  0.0095
   5.7045E+00   5.8433E+00   1.7140E-05  0.0097
   5.8433E+00   5.9855E+00   1.5968E-05  0.0099
   5.9855E+00   6.1311E+00   1.5133E-05  0.0100
   6.1311E+00   6.2803E+00   1.4526E-05  0.0101
   6.2803E+00   6.4331E+00   1.3515E-05  0.0104
   6.4331E+00   6.5896E+00   1.2324E-05  0.0107
   6.5896E+00   6.7500E+00   1.1808E-05  0.0108
   6.7500E+00   6.9142E+00   1.1293E-05  0.0109
   6.9142E+00   7.0824E+00   1.0507E-05  0.0112
   7.0824E+00   7.2548E+00   1.0355E-05  0.0112
   7.2548E+00   7.4313E+00   9.7594E-06  0.0114
   7.4313E+00   7.6121E+00   9.4944E-06  0.0114
   7.6121E+00   7.7973E+00   8.8177E-06  0.0117
   7.7973E+00   7.9870E+00   8.3682E-06  0.0118
   7.9870E+00   8.1813E+00   8.0642E-06  0.0119
   8.1813E+00   8.3804E+00   7.8241E-06  0.0119
   8.3804E+00   8.5843E+00   7.5380E-06  0.0120
   8.5843E+00   8.7931E+00   7.5169E-06  0.0119
   8.7931E+00   9.0071E+00   7.2714E-06  0.0119
   9.0071E+00   9.2262E+00   6.8872E-06  0.0121
   9.2262E+00   9.4507E+00   6.7697E-06  0.0121
   9.4507E+00   9.6807E+00   6.6475E-06  0.0121
   9.6807E+00   9.9162E+00   6.4033E-06  0.0121
   9.9162E+00   1.0157E+01   6.3548E-06  0.0120
   1.0157E+01   1.0405E+01   6.2120E-06  0.0120
   1.0405E+01   1.0658E+01   6.1487E-06  0.0119
   1.0658E+01   1.0917E+01   5.9924E-06  0.0120
   1.0917E+01   1.1183E+01   5.9379E-06  0.0119
   1.1183E+01   1.1455E+01   5.9014E-06  0.0118
   1.1455E+01   1.1733E+01   5.7983E-06  0.0117
   1.1733E+01   1.2019E+01   5.9022E-06  0.0115
   1.2019E+01   1.2311E+01   5.7085E-06  0.0115
   1.2311E+01   1.2611E+01   5.6456E-06  0.0115
   1.2611E+01   1.2918E+01   5.6925E-06  0.0113
   1.2918E+01   1.3232E+01   5.5312E-06  0.0113
   1.3232E+01   1.3554E+01   5.6510E-06  0.0110
   1.3554E+01   1.3884E+01   5.6084E-06  0.0110
   1.3884E+01   1.4222E+01   5.5265E-06  0.0109
   1.4222E+01   1.4568E+01   5.5613E-06  0.0107
   1.4568E+01   1.4922E+01   5.5414E-06  0.0106
   1.4922E+01   1.5285E+01   5.5790E-06  0.0105
   1.5285E+01   1.5657E+01   5.6153E-06  0.0103
   1.5657E+01   1.6038E+01   5.5266E-06  0.0103
   1.6038E+01   1.6428E+01   5.6487E-06  0.0100
   1.6428E+01   1.6828E+01   5.5838E-06  0.0100
   1.6828E+01   1.7237E+01   5.4709E-06  0.0100
   1.7237E+01   1.7657E+01   5.6804E-06  0.0097
   1.7657E+01   1.8086E+01   5.5754E-06  0.0096
   1.8086E+01   1.8526E+01   5.6311E-06  0.0095
   1.8526E+01   1.8977E+01   5.5930E-06  0.0094
   1.8977E+01   1.9439E+01   5.6344E-06  0.0092
   1.9439E+01   1.9912E+01   5.6502E-06  0.0091
   1.9912E+01   2.0396E+01   5.6217E-06  0.0090
   2.0396E+01   2.0893E+01   5.7586E-06  0.0088
   2.0893E+01   2.1401E+01   5.6831E-06  0.0088
   2.1401E+01   2.1922E+01   5.8093E-06  0.0086
   2.1922E+01   2.2455E+01   5.7988E-06  0.0085
   2.2455E+01   2.3001E+01   5.8266E-06  0.0084
   2.3001E+01   2.3561E+01   5.9582E-06  0.0082
   2.3561E+01   2.4134E+01   5.9190E-06  0.0081
   2.4134E+01   2.4721E+01   6.0547E-06  0.0079
   2.4721E+01   2.5323E+01   6.1270E-06  0.0078
   2.5323E+01   2.5939E+01   6.2188E-06  0.0076
   2.5939E+01   2.6570E+01   6.4453E-06  0.0074
   2.6570E+01   2.7217E+01   6.4559E-06  0.0073
   2.7217E+01   2.7879E+01   6.7163E-06  0.0071
   2.7879E+01   2.8557E+01   6.8159E-06  0.0069
   2.8557E+01   2.9252E+01   7.0551E-06  0.0067
   2.9252E+01   2.9964E+01   7.3074E-06  0.0065
   2.9964E+01   3.0693E+01   7.4731E-06  0.0064
   3.0693E+01   3.1440E+01   7.7441E-06  0.0062
   3.1440E+01   3.2205E+01   8.1525E-06  0.0060
   3.2205E+01   3.2988E+01   8.4702E-06  0.0058
   3.2988E+01   3.3791E+01   9.0475E-06  0.0055
   3.3791E+01   3.4613E+01   9.6392E-06  0.0053
   3.4613E+01   3.5455E+01   1.0271E-05  0.0051
   3.5455E+01   3.6318E+01   1.1093E-05  0.0048
   3.6318E+01   3.7201E+01   1.2028E-05  0.0046
   3.7201E+01   3.8106E+01   1.2888E-05  0.0044
   3.8106E+01   3.9034E+01   1.4293E-05  0.0041
   3.9034E+01   3.9983E+01   1.5703E-05  0.0039
   3.9983E+01   4.0956E+01   1.7407E-05  0.0036
   4.0956E+01   4.1953E+01   1.9342E-05  0.0034
   4.1953E+01   4.2973E+01   2.1344E-05  0.0032
   4.2973E+01   4.4019E+01   2.3876E-05  0.0030
   4.4019E+01   4.5090E+01   2.6529E-05  0.0028
   4.5090E+01   4.6187E+01   2.9312E-05  0.0026
   4.6187E+01   4.7311E+01   3.2218E-05  0.0025
   4.7311E+01   4.8462E+01   3.5268E-05  0.0023
   4.8462E+01   4.9641E+01   3.8364E-05  0.0022
   4.9641E+01   5.0849E+01   4.1282E-05  0.0021
   5.0849E+01   5.2086E+01   4.3964E-05  0.0020
   5.2086E+01   5.3353E+01   4.6245E-05  0.0019
   5.3353E+01   5.4651E+01   4.7772E-05  0.0019
   5.4651E+01   5.5981E+01   4.8886E-05  0.0018
   5.5981E+01   5.7343E+01   4.9203E-05  0.0018
   5.7343E+01   5.8738E+01   4.8835E-05  0.0018
   5.8738E+01   6.0168E+01   4.7210E-05  0.0018
   6.0168E+01   6.1632E+01   4.5807E-05  0.0018
   6.1632E+01   6.3131E+01   4.2961E-05  0.0019
   6.3131E+01   6.4667E+01   3.9869E-05  0.0019
   6.4667E+01   6.6240E+01   3.6352E-05  0.0020
   6.6240E+01   6.7852E+01   3.2747E-05  0.0021
   6.7852E+01   6.9503E+01   2.9111E-05  0.0022
   6.9503E+01   7.1194E+01   2.5613E-05  0.0023
   7.1194E+01   7.2926E+01   2.2440E-05  0.0024
   7.2926E+01   7.4701E+01   1.9430E-05  0.0025
   7.4701E+01   7.6518E+01   1.6868E-05  0.0027
   7.6518E+01   7.8380E+01   1.4306E-05  0.0029
   7.8380E+01   8.0287E+01   1.2323E-05  0.0031
   8.0287E+01   8.2240E+01   1.0574E-05  0.0033
   8.2240E+01   8.4241E+01   9.0347E-06  0.0035
   8.4241E+01   8.6291E+01   7.7201E-06  0.0037
   8.6291E+01   8.8391E+01   6.5993E-06  0.0040
   8.8391E+01   9.0541E+01   5.6754E-06  0.0043
   9.0541E+01   9.2744E+01   4.9429E-06  0.0045
   9.2744E+01   9.5001E+01   4.2758E-06  0.0048
   9.5001E+01   9.7312E+01   3.6817E-06  0.0051
   9.7312E+01   9.9680E+01   3.1876E-06  0.0054
   9.9680E+01   1.0211E+02   2.7893E-06  0.0057
   1.0211E+02   1.0459E+02   2.4317E-06  0.0061
   1.0459E+02   1.0713E+02   2.0597E-06  0.0065
   1.0713E+02   1.0974E+02   1.7250E-06  0.0070
   1.0974E+02   1.1241E+02   1.4310E-06  0.0076
   1.1241E+02   1.1515E+02   1.1202E-06  0.0085
   1.1515E+02   1.1795E+02   8.3738E-07  0.0097
   1.1795E+02   1.2082E+02   6.1058E-07  0.0113
   1.2082E+02   1.2376E+02   4.3604E-07  0.0132
   1.2376E+02   1.2677E+02   2.6524E-07  0.0167
   1.2677E+02   1.2985E+02   1.0591E-07  0.0261
   1.2985E+02   1.3301E+02   4.5015E-09  0.1250
   1.3301E+02   1.3625E+02   0.0000E+00  0.0000
   1.3625E+02   1.3956E+02   0.0000E+00  0.0000
   1.3956E+02   1.4296E+02   0.0000E+00  0.0000
   1.4296E+02   1.4644E+02   0.0000E+00  0.0000
   1.4644E+02   1.5000E+02   0.0000E+00  0.0000

#   sum over                 1.6125E-05
'no. =    1   reg = 100 - 200'
msuc: {\huge [t-cross] in region mesh}
msdr: {\it plotted by \ANGEL \version}
msdl: {\it calculated by \PHITS  3.26}
wt: s(0.7)
\vspace{-3}
  region surface crossing
  area  &=&   1.0000E+00 [cm^2]
e:
 
# Information for Restart Calculation
# This calculation was newly started
# istdev =  2 # 1:Batch variance, 2:History variance
# resc2  = 4.50000000000000000E+09 # Total source weight or Total source weight / maxcas
# resc3  = 4.50000000000000000E+09 # Total history number or Total batch number
# maxcas =   500000000 # History / Batch, only used for istdev=1
# bitrseed = 0001011101011011011000011100010110101100100111100111010011101011 # bit data of rseed
