[ T-Cross ]
    title = [t-cross] in region mesh
     mesh =  reg            # mesh type is region-wise
      reg =    1            # number of crossing regions
      non     r-from    r-to       area
      1       119       219        1.000000    
   e-type =    3            # e-mesh is log given by emin, emax and ne
     emin =  1.0000000E-02  # minimum value of e-mesh points
     emax =   150.0000      # maximum value of e-mesh points
#    edel =  2.4039514E-02  # mesh width of e-mesh points
       ne =    400          # number of e-mesh points
#    data = ( e(i), i = 1, ne + 1 )
#           1.00000E-02  1.02433E-02  1.04925E-02  1.07478E-02  1.10093E-02
#           1.12772E-02  1.15516E-02  1.18326E-02  1.21205E-02  1.24154E-02
#           1.27175E-02  1.30269E-02  1.33439E-02  1.36686E-02  1.40011E-02
#           1.43418E-02  1.46907E-02  1.50482E-02  1.54143E-02  1.57894E-02
#           1.61735E-02  1.65670E-02  1.69701E-02  1.73830E-02  1.78060E-02
#           1.82392E-02  1.86830E-02  1.91375E-02  1.96032E-02  2.00801E-02
#           2.05687E-02  2.10692E-02  2.15818E-02  2.21069E-02  2.26448E-02
#           2.31957E-02  2.37601E-02  2.43382E-02  2.49304E-02  2.55369E-02
#           2.61583E-02  2.67947E-02  2.74467E-02  2.81145E-02  2.87985E-02
#           2.94992E-02  3.02169E-02  3.09521E-02  3.17052E-02  3.24766E-02
#           3.32668E-02  3.40762E-02  3.49053E-02  3.57546E-02  3.66246E-02
#           3.75157E-02  3.84284E-02  3.93634E-02  4.03212E-02  4.13022E-02
#           4.23071E-02  4.33365E-02  4.43909E-02  4.54710E-02  4.65773E-02
#           4.77106E-02  4.88714E-02  5.00605E-02  5.12785E-02  5.25262E-02
#           5.38042E-02  5.51133E-02  5.64542E-02  5.78278E-02  5.92348E-02
#           6.06760E-02  6.21523E-02  6.36645E-02  6.52135E-02  6.68002E-02
#           6.84255E-02  7.00904E-02  7.17957E-02  7.35426E-02  7.53319E-02
#           7.71648E-02  7.90423E-02  8.09655E-02  8.29354E-02  8.49533E-02
#           8.70203E-02  8.91376E-02  9.13064E-02  9.35279E-02  9.58035E-02
#           9.81345E-02  1.00522E-01  1.02968E-01  1.05473E-01  1.08040E-01
#           1.10668E-01  1.13361E-01  1.16119E-01  1.18944E-01  1.21838E-01
#           1.24803E-01  1.27839E-01  1.30950E-01  1.34136E-01  1.37399E-01
#           1.40742E-01  1.44167E-01  1.47675E-01  1.51268E-01  1.54948E-01
#           1.58718E-01  1.62580E-01  1.66535E-01  1.70587E-01  1.74738E-01
#           1.78989E-01  1.83344E-01  1.87805E-01  1.92375E-01  1.97055E-01
#           2.01850E-01  2.06761E-01  2.11792E-01  2.16945E-01  2.22223E-01
#           2.27630E-01  2.33169E-01  2.38842E-01  2.44653E-01  2.50605E-01
#           2.56703E-01  2.62949E-01  2.69346E-01  2.75900E-01  2.82613E-01
#           2.89489E-01  2.96532E-01  3.03747E-01  3.11138E-01  3.18708E-01
#           3.26462E-01  3.34405E-01  3.42542E-01  3.50876E-01  3.59413E-01
#           3.68158E-01  3.77116E-01  3.86291E-01  3.95690E-01  4.05317E-01
#           4.15179E-01  4.25281E-01  4.35628E-01  4.46227E-01  4.57084E-01
#           4.68205E-01  4.79597E-01  4.91266E-01  5.03219E-01  5.15463E-01
#           5.28005E-01  5.40851E-01  5.54011E-01  5.67490E-01  5.81298E-01
#           5.95441E-01  6.09929E-01  6.24769E-01  6.39970E-01  6.55541E-01
#           6.71491E-01  6.87828E-01  7.04564E-01  7.21706E-01  7.39266E-01
#           7.57253E-01  7.75678E-01  7.94551E-01  8.13883E-01  8.33685E-01
#           8.53969E-01  8.74747E-01  8.96030E-01  9.17831E-01  9.40163E-01
#           9.63038E-01  9.86469E-01  1.01047E+00  1.03506E+00  1.06024E+00
#           1.08604E+00  1.11246E+00  1.13953E+00  1.16725E+00  1.19565E+00
#           1.22474E+00  1.25454E+00  1.28507E+00  1.31633E+00  1.34836E+00
#           1.38117E+00  1.41477E+00  1.44920E+00  1.48446E+00  1.52057E+00
#           1.55757E+00  1.59547E+00  1.63429E+00  1.67405E+00  1.71478E+00
#           1.75650E+00  1.79924E+00  1.84302E+00  1.88786E+00  1.93379E+00
#           1.98084E+00  2.02904E+00  2.07841E+00  2.12898E+00  2.18078E+00
#           2.23384E+00  2.28819E+00  2.34386E+00  2.40089E+00  2.45930E+00
#           2.51914E+00  2.58043E+00  2.64322E+00  2.70753E+00  2.77341E+00
#           2.84088E+00  2.91001E+00  2.98081E+00  3.05333E+00  3.12762E+00
#           3.20372E+00  3.28167E+00  3.36152E+00  3.44330E+00  3.52708E+00
#           3.61290E+00  3.70080E+00  3.79085E+00  3.88308E+00  3.97756E+00
#           4.07434E+00  4.17347E+00  4.27501E+00  4.37903E+00  4.48557E+00
#           4.59471E+00  4.70650E+00  4.82102E+00  4.93832E+00  5.05847E+00
#           5.18155E+00  5.30762E+00  5.43676E+00  5.56904E+00  5.70453E+00
#           5.84333E+00  5.98550E+00  6.13114E+00  6.28031E+00  6.43312E+00
#           6.58964E+00  6.74997E+00  6.91420E+00  7.08243E+00  7.25475E+00
#           7.43126E+00  7.61207E+00  7.79728E+00  7.98700E+00  8.18133E+00
#           8.38038E+00  8.58428E+00  8.79315E+00  9.00709E+00  9.22624E+00
#           9.45072E+00  9.68067E+00  9.91620E+00  1.01575E+01  1.04046E+01
#           1.06578E+01  1.09171E+01  1.11827E+01  1.14548E+01  1.17335E+01
#           1.20190E+01  1.23114E+01  1.26109E+01  1.29178E+01  1.32321E+01
#           1.35540E+01  1.38838E+01  1.42216E+01  1.45676E+01  1.49221E+01
#           1.52851E+01  1.56570E+01  1.60380E+01  1.64282E+01  1.68279E+01
#           1.72374E+01  1.76568E+01  1.80864E+01  1.85264E+01  1.89772E+01
#           1.94389E+01  1.99119E+01  2.03963E+01  2.08926E+01  2.14009E+01
#           2.19216E+01  2.24550E+01  2.30014E+01  2.35610E+01  2.41343E+01
#           2.47215E+01  2.53230E+01  2.59391E+01  2.65702E+01  2.72167E+01
#           2.78789E+01  2.85572E+01  2.92520E+01  2.99637E+01  3.06928E+01
#           3.14396E+01  3.22045E+01  3.29881E+01  3.37907E+01  3.46128E+01
#           3.54550E+01  3.63177E+01  3.72013E+01  3.81064E+01  3.90336E+01
#           3.99833E+01  4.09561E+01  4.19526E+01  4.29734E+01  4.40189E+01
#           4.50900E+01  4.61870E+01  4.73108E+01  4.84619E+01  4.96410E+01
#           5.08488E+01  5.20860E+01  5.33533E+01  5.46514E+01  5.59812E+01
#           5.73432E+01  5.87384E+01  6.01676E+01  6.16315E+01  6.31311E+01
#           6.46671E+01  6.62405E+01  6.78522E+01  6.95031E+01  7.11941E+01
#           7.29263E+01  7.47007E+01  7.65182E+01  7.83800E+01  8.02870E+01
#           8.22405E+01  8.42414E+01  8.62911E+01  8.83906E+01  9.05412E+01
#           9.27442E+01  9.50007E+01  9.73122E+01  9.96799E+01  1.02105E+02
#           1.04589E+02  1.07134E+02  1.09741E+02  1.12411E+02  1.15146E+02
#           1.17948E+02  1.20817E+02  1.23757E+02  1.26768E+02  1.29852E+02
#           1.33012E+02  1.36248E+02  1.39563E+02  1.42959E+02  1.46437E+02
#           1.50000E+02
     unit =    2            # unit is [1/cm^2/(MeV/n)/source]
     axis =  eng            # axis of output
     file = detector-20.out  # file name of output for the above axis
   output = f-curr          # surface crossing forward current spectrum
     part =  neutron  
# kf/name :  2112     
#    used :        main (  %)        temp (  %)       total (  %)
#  memory :         414 (  0)           0 (  0)         414 (  0)

#------------------------------------------------------------------------------
#newpage:
#   no. =    1   reg = 119 - 219

x: Energy [MeV/n]
y:  F-Curr [1/cm^2/(MeV/n)/source]         
p: xlog ylog afac(0.8) form(0.9)
h: n            x            y(neutron ),hh0l   n 
#  e-lower      e-upper      neutron     r.err 
   1.0000E-02   1.0243E-02   7.6446E-05  0.1037
   1.0243E-02   1.0493E-02   7.7038E-05  0.1021
   1.0493E-02   1.0748E-02   7.8342E-05  0.1000
   1.0748E-02   1.1009E-02   8.7953E-05  0.0933
   1.1009E-02   1.1277E-02   8.8104E-05  0.0921
   1.1277E-02   1.1552E-02   8.5282E-05  0.0925
   1.1552E-02   1.1833E-02   8.3968E-05  0.0921
   1.1833E-02   1.2121E-02   7.7805E-05  0.0945
   1.2121E-02   1.2415E-02   8.9521E-05  0.0870
   1.2415E-02   1.2718E-02   7.9450E-05  0.0913
   1.2718E-02   1.3027E-02   9.1136E-05  0.0842
   1.3027E-02   1.3344E-02   9.7174E-05  0.0806
   1.3344E-02   1.3669E-02   8.9938E-05  0.0828
   1.3669E-02   1.4001E-02   1.0344E-04  0.0762
   1.4001E-02   1.4342E-02   9.9220E-05  0.0769
   1.4342E-02   1.4691E-02   8.4827E-05  0.0822
   1.4691E-02   1.5048E-02   9.1205E-05  0.0783
   1.5048E-02   1.5414E-02   9.3408E-05  0.0765
   1.5414E-02   1.5789E-02   1.0399E-04  0.0716
   1.5789E-02   1.6174E-02   8.7982E-05  0.0769
   1.6174E-02   1.6567E-02   1.0063E-04  0.0711
   1.6567E-02   1.6970E-02   1.0122E-04  0.0700
   1.6970E-02   1.7383E-02   9.1548E-05  0.0727
   1.7383E-02   1.7806E-02   9.4103E-05  0.0709
   1.7806E-02   1.8239E-02   9.6022E-05  0.0693
   1.8239E-02   1.8683E-02   8.1573E-05  0.0743
   1.8683E-02   1.9138E-02   9.9434E-05  0.0665
   1.9138E-02   1.9603E-02   9.2777E-05  0.0680
   1.9603E-02   2.0080E-02   9.2670E-05  0.0673
   2.0080E-02   2.0569E-02   9.8656E-05  0.0644
   2.0569E-02   2.1069E-02   9.2316E-05  0.0658
   2.1069E-02   2.1582E-02   1.0807E-04  0.0601
   2.1582E-02   2.2107E-02   9.0268E-05  0.0650
   2.2107E-02   2.2645E-02   9.4817E-05  0.0626
   2.2645E-02   2.3196E-02   9.7647E-05  0.0610
   2.3196E-02   2.3760E-02   1.0383E-04  0.0584
   2.3760E-02   2.4338E-02   1.0206E-04  0.0582
   2.4338E-02   2.4930E-02   1.0335E-04  0.0572
   2.4930E-02   2.5537E-02   1.0287E-04  0.0566
   2.5537E-02   2.6158E-02   1.0494E-04  0.0554
   2.6158E-02   2.6795E-02   9.7101E-05  0.0571
   2.6795E-02   2.7447E-02   1.0277E-04  0.0546
   2.7447E-02   2.8114E-02   1.1231E-04  0.0516
   2.8114E-02   2.8799E-02   1.0643E-04  0.0524
   2.8799E-02   2.9499E-02   1.0447E-04  0.0523
   2.9499E-02   3.0217E-02   1.0979E-04  0.0504
   3.0217E-02   3.0952E-02   1.0963E-04  0.0498
   3.0952E-02   3.1705E-02   1.1791E-04  0.0475
   3.1705E-02   3.2477E-02   1.0682E-04  0.0493
   3.2477E-02   3.3267E-02   1.0479E-04  0.0491
   3.3267E-02   3.4076E-02   1.0897E-04  0.0476
   3.4076E-02   3.4905E-02   1.1748E-04  0.0453
   3.4905E-02   3.5755E-02   1.0739E-04  0.0468
   3.5755E-02   3.6625E-02   1.1012E-04  0.0457
   3.6625E-02   3.7516E-02   1.1559E-04  0.0441
   3.7516E-02   3.8428E-02   1.1175E-04  0.0443
   3.8428E-02   3.9363E-02   1.2428E-04  0.0415
   3.9363E-02   4.0321E-02   1.1214E-04  0.0432
   4.0321E-02   4.1302E-02   1.2721E-04  0.0400
   4.1302E-02   4.2307E-02   1.2260E-04  0.0403
   4.2307E-02   4.3337E-02   1.2474E-04  0.0395
   4.3337E-02   4.4391E-02   1.4074E-04  0.0367
   4.4391E-02   4.5471E-02   1.3333E-04  0.0373
   4.5471E-02   4.6577E-02   1.3269E-04  0.0369
   4.6577E-02   4.7711E-02   1.2742E-04  0.0372
   4.7711E-02   4.8871E-02   1.3335E-04  0.0359
   4.8871E-02   5.0061E-02   1.3170E-04  0.0357
   5.0061E-02   5.1279E-02   1.4351E-04  0.0338
   5.1279E-02   5.2526E-02   1.3594E-04  0.0343
   5.2526E-02   5.3804E-02   1.3318E-04  0.0343
   5.3804E-02   5.5113E-02   1.3582E-04  0.0335
   5.5113E-02   5.6454E-02   1.3543E-04  0.0332
   5.6454E-02   5.7828E-02   1.4298E-04  0.0319
   5.7828E-02   5.9235E-02   1.4613E-04  0.0312
   5.9235E-02   6.0676E-02   1.4279E-04  0.0312
   6.0676E-02   6.2152E-02   1.5227E-04  0.0298
   6.2152E-02   6.3665E-02   1.5236E-04  0.0295
   6.3665E-02   6.5214E-02   1.5313E-04  0.0290
   6.5214E-02   6.6800E-02   1.5038E-04  0.0290
   6.6800E-02   6.8426E-02   1.5357E-04  0.0283
   6.8426E-02   7.0090E-02   1.4596E-04  0.0287
   7.0090E-02   7.1796E-02   1.5879E-04  0.0272
   7.1796E-02   7.3543E-02   1.5514E-04  0.0272
   7.3543E-02   7.5332E-02   1.4944E-04  0.0273
   7.5332E-02   7.7165E-02   1.6651E-04  0.0256
   7.7165E-02   7.9042E-02   1.5414E-04  0.0263
   7.9042E-02   8.0965E-02   1.5922E-04  0.0256
   8.0965E-02   8.2935E-02   1.6214E-04  0.0250
   8.2935E-02   8.4953E-02   1.6909E-04  0.0242
   8.4953E-02   8.7020E-02   1.6720E-04  0.0241
   8.7020E-02   8.9138E-02   1.7324E-04  0.0234
   8.9138E-02   9.1306E-02   1.7586E-04  0.0229
   9.1306E-02   9.3528E-02   1.7420E-04  0.0227
   9.3528E-02   9.5804E-02   1.7797E-04  0.0222
   9.5804E-02   9.8134E-02   1.7855E-04  0.0219
   9.8134E-02   1.0052E-01   1.7490E-04  0.0219
   1.0052E-01   1.0297E-01   1.8072E-04  0.0213
   1.0297E-01   1.0547E-01   1.8321E-04  0.0209
   1.0547E-01   1.0804E-01   1.9055E-04  0.0202
   1.0804E-01   1.1067E-01   1.9165E-04  0.0199
   1.1067E-01   1.1336E-01   1.8733E-04  0.0199
   1.1336E-01   1.1612E-01   1.9615E-04  0.0192
   1.1612E-01   1.1894E-01   1.9149E-04  0.0192
   1.1894E-01   1.2184E-01   1.9758E-04  0.0187
   1.2184E-01   1.2480E-01   1.9376E-04  0.0187
   1.2480E-01   1.2784E-01   1.9667E-04  0.0183
   1.2784E-01   1.3095E-01   2.0859E-04  0.0176
   1.3095E-01   1.3414E-01   1.9855E-04  0.0178
   1.3414E-01   1.3740E-01   2.0376E-04  0.0173
   1.3740E-01   1.4074E-01   2.0664E-04  0.0170
   1.4074E-01   1.4417E-01   2.0372E-04  0.0169
   1.4417E-01   1.4767E-01   2.1188E-04  0.0164
   1.4767E-01   1.5127E-01   2.1035E-04  0.0163
   1.5127E-01   1.5495E-01   2.0622E-04  0.0162
   1.5495E-01   1.5872E-01   2.1528E-04  0.0157
   1.5872E-01   1.6258E-01   2.1980E-04  0.0154
   1.6258E-01   1.6654E-01   2.1554E-04  0.0153
   1.6654E-01   1.7059E-01   2.1994E-04  0.0150
   1.7059E-01   1.7474E-01   2.2508E-04  0.0146
   1.7474E-01   1.7899E-01   2.2458E-04  0.0145
   1.7899E-01   1.8334E-01   2.2852E-04  0.0142
   1.8334E-01   1.8781E-01   2.3072E-04  0.0139
   1.8781E-01   1.9237E-01   2.2528E-04  0.0139
   1.9237E-01   1.9706E-01   2.3193E-04  0.0136
   1.9706E-01   2.0185E-01   2.3573E-04  0.0133
   2.0185E-01   2.0676E-01   2.3937E-04  0.0130
   2.0676E-01   2.1179E-01   2.3591E-04  0.0130
   2.1179E-01   2.1694E-01   2.3916E-04  0.0127
   2.1694E-01   2.2222E-01   2.3446E-04  0.0127
   2.2222E-01   2.2763E-01   2.4295E-04  0.0123
   2.2763E-01   2.3317E-01   2.4350E-04  0.0122
   2.3317E-01   2.3884E-01   2.4737E-04  0.0119
   2.3884E-01   2.4465E-01   2.4009E-04  0.0120
   2.4465E-01   2.5061E-01   2.4863E-04  0.0116
   2.5061E-01   2.5670E-01   2.4646E-04  0.0115
   2.5670E-01   2.6295E-01   2.5041E-04  0.0113
   2.6295E-01   2.6935E-01   2.5306E-04  0.0111
   2.6935E-01   2.7590E-01   2.4821E-04  0.0111
   2.7590E-01   2.8261E-01   2.5405E-04  0.0108
   2.8261E-01   2.8949E-01   2.5849E-04  0.0106
   2.8949E-01   2.9653E-01   2.5317E-04  0.0106
   2.9653E-01   3.0375E-01   2.5863E-04  0.0104
   3.0375E-01   3.1114E-01   2.5755E-04  0.0103
   3.1114E-01   3.1871E-01   2.5888E-04  0.0101
   3.1871E-01   3.2646E-01   2.6099E-04  0.0099
   3.2646E-01   3.3441E-01   2.5574E-04  0.0099
   3.3441E-01   3.4254E-01   2.5859E-04  0.0098
   3.4254E-01   3.5088E-01   2.6212E-04  0.0096
   3.5088E-01   3.5941E-01   2.6098E-04  0.0095
   3.5941E-01   3.6816E-01   2.5945E-04  0.0094
   3.6816E-01   3.7712E-01   2.5898E-04  0.0093
   3.7712E-01   3.8629E-01   2.6383E-04  0.0091
   3.8629E-01   3.9569E-01   2.5937E-04  0.0091
   3.9569E-01   4.0532E-01   2.6165E-04  0.0089
   4.0532E-01   4.1518E-01   2.6470E-04  0.0088
   4.1518E-01   4.2528E-01   2.6000E-04  0.0087
   4.2528E-01   4.3563E-01   2.6441E-04  0.0086
   4.3563E-01   4.4623E-01   2.6257E-04  0.0085
   4.4623E-01   4.5708E-01   2.5992E-04  0.0084
   4.5708E-01   4.6821E-01   2.6312E-04  0.0083
   4.6821E-01   4.7960E-01   2.6184E-04  0.0082
   4.7960E-01   4.9127E-01   2.6330E-04  0.0081
   4.9127E-01   5.0322E-01   2.6322E-04  0.0080
   5.0322E-01   5.1546E-01   2.5607E-04  0.0080
   5.1546E-01   5.2800E-01   2.6110E-04  0.0078
   5.2800E-01   5.4085E-01   2.5594E-04  0.0078
   5.4085E-01   5.5401E-01   2.5206E-04  0.0078
   5.5401E-01   5.6749E-01   2.5258E-04  0.0077
   5.6749E-01   5.8130E-01   2.4820E-04  0.0076
   5.8130E-01   5.9544E-01   2.4915E-04  0.0075
   5.9544E-01   6.0993E-01   2.4754E-04  0.0075
   6.0993E-01   6.2477E-01   2.4349E-04  0.0074
   6.2477E-01   6.3997E-01   2.4194E-04  0.0074
   6.3997E-01   6.5554E-01   2.4070E-04  0.0073
   6.5554E-01   6.7149E-01   2.3208E-04  0.0074
   6.7149E-01   6.8783E-01   2.3472E-04  0.0072
   6.8783E-01   7.0456E-01   2.3010E-04  0.0072
   7.0456E-01   7.2171E-01   2.2754E-04  0.0072
   7.2171E-01   7.3927E-01   2.2467E-04  0.0071
   7.3927E-01   7.5725E-01   2.1937E-04  0.0071
   7.5725E-01   7.7568E-01   2.1924E-04  0.0070
   7.7568E-01   7.9455E-01   2.1192E-04  0.0071
   7.9455E-01   8.1388E-01   2.0997E-04  0.0070
   8.1388E-01   8.3368E-01   2.0516E-04  0.0070
   8.3368E-01   8.5397E-01   2.0016E-04  0.0070
   8.5397E-01   8.7475E-01   1.9470E-04  0.0070
   8.7475E-01   8.9603E-01   1.8981E-04  0.0070
   8.9603E-01   9.1783E-01   1.8527E-04  0.0070
   9.1783E-01   9.4016E-01   1.8088E-04  0.0070
   9.4016E-01   9.6304E-01   1.7475E-04  0.0071
   9.6304E-01   9.8647E-01   1.6474E-04  0.0072
   9.8647E-01   1.0105E+00   1.5827E-04  0.0073
   1.0105E+00   1.0351E+00   1.5612E-04  0.0072
   1.0351E+00   1.0602E+00   1.5111E-04  0.0073
   1.0602E+00   1.0860E+00   1.4807E-04  0.0072
   1.0860E+00   1.1125E+00   1.4257E-04  0.0073
   1.1125E+00   1.1395E+00   1.4008E-04  0.0073
   1.1395E+00   1.1673E+00   1.3470E-04  0.0073
   1.1673E+00   1.1957E+00   1.3310E-04  0.0073
   1.1957E+00   1.2247E+00   1.3025E-04  0.0073
   1.2247E+00   1.2545E+00   1.2676E-04  0.0073
   1.2545E+00   1.2851E+00   1.2131E-04  0.0074
   1.2851E+00   1.3163E+00   1.1696E-04  0.0074
   1.3163E+00   1.3484E+00   1.1358E-04  0.0074
   1.3484E+00   1.3812E+00   1.1195E-04  0.0074
   1.3812E+00   1.4148E+00   1.0620E-04  0.0075
   1.4148E+00   1.4492E+00   1.0316E-04  0.0075
   1.4492E+00   1.4845E+00   9.8117E-05  0.0076
   1.4845E+00   1.5206E+00   9.4911E-05  0.0076
   1.5206E+00   1.5576E+00   8.7602E-05  0.0079
   1.5576E+00   1.5955E+00   8.6012E-05  0.0078
   1.5955E+00   1.6343E+00   8.2758E-05  0.0079
   1.6343E+00   1.6741E+00   7.7770E-05  0.0080
   1.6741E+00   1.7148E+00   7.5358E-05  0.0081
   1.7148E+00   1.7565E+00   7.1181E-05  0.0082
   1.7565E+00   1.7992E+00   6.7487E-05  0.0083
   1.7992E+00   1.8430E+00   6.3851E-05  0.0085
   1.8430E+00   1.8879E+00   5.9618E-05  0.0087
   1.8879E+00   1.9338E+00   5.7740E-05  0.0087
   1.9338E+00   1.9808E+00   5.2390E-05  0.0090
   1.9808E+00   2.0290E+00   5.0333E-05  0.0091
   2.0290E+00   2.0784E+00   4.7630E-05  0.0092
   2.0784E+00   2.1290E+00   4.4339E-05  0.0094
   2.1290E+00   2.1808E+00   4.1576E-05  0.0096
   2.1808E+00   2.2338E+00   3.9815E-05  0.0097
   2.2338E+00   2.2882E+00   3.6290E-05  0.0101
   2.2882E+00   2.3439E+00   3.4336E-05  0.0102
   2.3439E+00   2.4009E+00   3.1683E-05  0.0105
   2.4009E+00   2.4593E+00   2.9431E-05  0.0108
   2.4593E+00   2.5191E+00   2.7766E-05  0.0110
   2.5191E+00   2.5804E+00   2.5755E-05  0.0113
   2.5804E+00   2.6432E+00   2.4175E-05  0.0115
   2.6432E+00   2.7075E+00   2.2155E-05  0.0118
   2.7075E+00   2.7734E+00   2.0648E-05  0.0121
   2.7734E+00   2.8409E+00   1.9188E-05  0.0124
   2.8409E+00   2.9100E+00   1.6967E-05  0.0131
   2.9100E+00   2.9808E+00   1.5864E-05  0.0133
   2.9808E+00   3.0533E+00   1.4781E-05  0.0137
   3.0533E+00   3.1276E+00   1.3552E-05  0.0141
   3.1276E+00   3.2037E+00   1.2287E-05  0.0146
   3.2037E+00   3.2817E+00   1.1728E-05  0.0148
   3.2817E+00   3.3615E+00   1.0605E-05  0.0154
   3.3615E+00   3.4433E+00   9.6053E-06  0.0160
   3.4433E+00   3.5271E+00   8.6705E-06  0.0166
   3.5271E+00   3.6129E+00   8.0287E-06  0.0170
   3.6129E+00   3.7008E+00   7.2488E-06  0.0177
   3.7008E+00   3.7908E+00   6.6235E-06  0.0183
   3.7908E+00   3.8831E+00   6.0390E-06  0.0189
   3.8831E+00   3.9776E+00   5.7262E-06  0.0192
   3.9776E+00   4.0743E+00   5.0735E-06  0.0202
   4.0743E+00   4.1735E+00   4.6403E-06  0.0209
   4.1735E+00   4.2750E+00   4.3036E-06  0.0214
   4.2750E+00   4.3790E+00   3.8399E-06  0.0224
   4.3790E+00   4.4856E+00   3.3751E-06  0.0236
   4.4856E+00   4.5947E+00   3.1795E-06  0.0240
   4.5947E+00   4.7065E+00   2.8374E-06  0.0251
   4.7065E+00   4.8210E+00   2.6984E-06  0.0254
   4.8210E+00   4.9383E+00   2.2899E-06  0.0273
   4.9383E+00   5.0585E+00   2.1023E-06  0.0281
   5.0585E+00   5.1815E+00   1.9045E-06  0.0292
   5.1815E+00   5.3076E+00   1.7387E-06  0.0302
   5.3076E+00   5.4368E+00   1.6324E-06  0.0308
   5.4368E+00   5.5690E+00   1.3910E-06  0.0330
   5.5690E+00   5.7045E+00   1.2399E-06  0.0345
   5.7045E+00   5.8433E+00   1.1585E-06  0.0353
   5.8433E+00   5.9855E+00   1.0382E-06  0.0368
   5.9855E+00   6.1311E+00   9.3386E-07  0.0383
   6.1311E+00   6.2803E+00   8.3526E-07  0.0401
   6.2803E+00   6.4331E+00   7.9971E-07  0.0405
   6.4331E+00   6.5896E+00   6.8744E-07  0.0431
   6.5896E+00   6.7500E+00   5.8504E-07  0.0462
   6.7500E+00   6.9142E+00   5.6140E-07  0.0466
   6.9142E+00   7.0824E+00   5.7660E-07  0.0454
   7.0824E+00   7.2548E+00   4.7353E-07  0.0495
   7.2548E+00   7.4313E+00   4.5662E-07  0.0498
   7.4313E+00   7.6121E+00   4.4909E-07  0.0496
   7.6121E+00   7.7973E+00   3.5690E-07  0.0550
   7.7973E+00   7.9870E+00   3.4157E-07  0.0556
   7.9870E+00   8.1813E+00   3.3242E-07  0.0556
   8.1813E+00   8.3804E+00   2.8936E-07  0.0589
   8.3804E+00   8.5843E+00   3.0015E-07  0.0572
   8.5843E+00   8.7931E+00   2.4514E-07  0.0624
   8.7931E+00   9.0071E+00   2.2342E-07  0.0646
   9.0071E+00   9.2262E+00   2.1994E-07  0.0644
   9.2262E+00   9.4507E+00   1.9512E-07  0.0676
   9.4507E+00   9.6807E+00   1.9135E-07  0.0674
   9.6807E+00   9.9162E+00   1.7407E-07  0.0698
   9.9162E+00   1.0157E+01   1.6247E-07  0.0714
   1.0157E+01   1.0405E+01   1.2624E-07  0.0801
   1.0405E+01   1.0658E+01   1.3668E-07  0.0760
   1.0658E+01   1.0917E+01   1.2649E-07  0.0781
   1.0917E+01   1.1183E+01   1.1595E-07  0.0806
   1.1183E+01   1.1455E+01   9.6294E-08  0.0872
   1.1455E+01   1.1733E+01   9.8312E-08  0.0854
   1.1733E+01   1.2019E+01   7.8463E-08  0.0945
   1.2019E+01   1.2311E+01   7.7283E-08  0.0941
   1.2311E+01   1.2611E+01   7.3444E-08  0.0953
   1.2611E+01   1.2918E+01   5.4101E-08  0.1098
   1.2918E+01   1.3232E+01   5.0589E-08  0.1120
   1.3232E+01   1.3554E+01   4.0379E-08  0.1240
   1.3554E+01   1.3884E+01   4.7607E-08  0.1127
   1.3884E+01   1.4222E+01   3.0491E-08  0.1390
   1.4222E+01   1.4568E+01   2.8611E-08  0.1418
   1.4568E+01   1.4922E+01   3.1035E-08  0.1348
   1.4922E+01   1.5285E+01   2.5891E-08  0.1459
   1.5285E+01   1.5657E+01   2.1780E-08  0.1566
   1.5657E+01   1.6038E+01   2.8875E-08  0.1348
   1.6038E+01   1.6428E+01   1.0507E-08  0.2195
   1.6428E+01   1.6828E+01   9.5069E-09  0.2294
   1.6828E+01   1.7237E+01   1.1235E-08  0.2085
   1.7237E+01   1.7657E+01   9.5375E-09  0.2236
   1.7657E+01   1.8086E+01   4.6555E-09  0.3162
   1.8086E+01   1.8526E+01   3.6359E-09  0.3536
   1.8526E+01   1.8977E+01   3.1058E-09  0.3780
   1.8977E+01   1.9439E+01   2.5989E-09  0.4082
   1.9439E+01   1.9912E+01   1.2686E-09  0.5774
   1.9912E+01   2.0396E+01   4.1282E-10  1.0000
   2.0396E+01   2.0893E+01   1.2090E-09  0.5774
   2.0893E+01   2.1401E+01   3.9344E-10  1.0000
   2.1401E+01   2.1922E+01   0.0000E+00  0.0000
   2.1922E+01   2.2455E+01   0.0000E+00  0.0000
   2.2455E+01   2.3001E+01   0.0000E+00  0.0000
   2.3001E+01   2.3561E+01   0.0000E+00  0.0000
   2.3561E+01   2.4134E+01   0.0000E+00  0.0000
   2.4134E+01   2.4721E+01   0.0000E+00  0.0000
   2.4721E+01   2.5323E+01   0.0000E+00  0.0000
   2.5323E+01   2.5939E+01   0.0000E+00  0.0000
   2.5939E+01   2.6570E+01   0.0000E+00  0.0000
   2.6570E+01   2.7217E+01   0.0000E+00  0.0000
   2.7217E+01   2.7879E+01   0.0000E+00  0.0000
   2.7879E+01   2.8557E+01   0.0000E+00  0.0000
   2.8557E+01   2.9252E+01   0.0000E+00  0.0000
   2.9252E+01   2.9964E+01   0.0000E+00  0.0000
   2.9964E+01   3.0693E+01   0.0000E+00  0.0000
   3.0693E+01   3.1440E+01   0.0000E+00  0.0000
   3.1440E+01   3.2205E+01   0.0000E+00  0.0000
   3.2205E+01   3.2988E+01   0.0000E+00  0.0000
   3.2988E+01   3.3791E+01   0.0000E+00  0.0000
   3.3791E+01   3.4613E+01   0.0000E+00  0.0000
   3.4613E+01   3.5455E+01   0.0000E+00  0.0000
   3.5455E+01   3.6318E+01   0.0000E+00  0.0000
   3.6318E+01   3.7201E+01   0.0000E+00  0.0000
   3.7201E+01   3.8106E+01   0.0000E+00  0.0000
   3.8106E+01   3.9034E+01   0.0000E+00  0.0000
   3.9034E+01   3.9983E+01   0.0000E+00  0.0000
   3.9983E+01   4.0956E+01   0.0000E+00  0.0000
   4.0956E+01   4.1953E+01   0.0000E+00  0.0000
   4.1953E+01   4.2973E+01   0.0000E+00  0.0000
   4.2973E+01   4.4019E+01   0.0000E+00  0.0000
   4.4019E+01   4.5090E+01   0.0000E+00  0.0000
   4.5090E+01   4.6187E+01   0.0000E+00  0.0000
   4.6187E+01   4.7311E+01   0.0000E+00  0.0000
   4.7311E+01   4.8462E+01   0.0000E+00  0.0000
   4.8462E+01   4.9641E+01   0.0000E+00  0.0000
   4.9641E+01   5.0849E+01   0.0000E+00  0.0000
   5.0849E+01   5.2086E+01   0.0000E+00  0.0000
   5.2086E+01   5.3353E+01   0.0000E+00  0.0000
   5.3353E+01   5.4651E+01   0.0000E+00  0.0000
   5.4651E+01   5.5981E+01   0.0000E+00  0.0000
   5.5981E+01   5.7343E+01   0.0000E+00  0.0000
   5.7343E+01   5.8738E+01   0.0000E+00  0.0000
   5.8738E+01   6.0168E+01   0.0000E+00  0.0000
   6.0168E+01   6.1632E+01   0.0000E+00  0.0000
   6.1632E+01   6.3131E+01   0.0000E+00  0.0000
   6.3131E+01   6.4667E+01   0.0000E+00  0.0000
   6.4667E+01   6.6240E+01   0.0000E+00  0.0000
   6.6240E+01   6.7852E+01   0.0000E+00  0.0000
   6.7852E+01   6.9503E+01   0.0000E+00  0.0000
   6.9503E+01   7.1194E+01   0.0000E+00  0.0000
   7.1194E+01   7.2926E+01   0.0000E+00  0.0000
   7.2926E+01   7.4701E+01   0.0000E+00  0.0000
   7.4701E+01   7.6518E+01   0.0000E+00  0.0000
   7.6518E+01   7.8380E+01   0.0000E+00  0.0000
   7.8380E+01   8.0287E+01   0.0000E+00  0.0000
   8.0287E+01   8.2240E+01   0.0000E+00  0.0000
   8.2240E+01   8.4241E+01   0.0000E+00  0.0000
   8.4241E+01   8.6291E+01   0.0000E+00  0.0000
   8.6291E+01   8.8391E+01   0.0000E+00  0.0000
   8.8391E+01   9.0541E+01   0.0000E+00  0.0000
   9.0541E+01   9.2744E+01   0.0000E+00  0.0000
   9.2744E+01   9.5001E+01   0.0000E+00  0.0000
   9.5001E+01   9.7312E+01   0.0000E+00  0.0000
   9.7312E+01   9.9680E+01   0.0000E+00  0.0000
   9.9680E+01   1.0211E+02   0.0000E+00  0.0000
   1.0211E+02   1.0459E+02   0.0000E+00  0.0000
   1.0459E+02   1.0713E+02   0.0000E+00  0.0000
   1.0713E+02   1.0974E+02   0.0000E+00  0.0000
   1.0974E+02   1.1241E+02   0.0000E+00  0.0000
   1.1241E+02   1.1515E+02   0.0000E+00  0.0000
   1.1515E+02   1.1795E+02   0.0000E+00  0.0000
   1.1795E+02   1.2082E+02   0.0000E+00  0.0000
   1.2082E+02   1.2376E+02   0.0000E+00  0.0000
   1.2376E+02   1.2677E+02   0.0000E+00  0.0000
   1.2677E+02   1.2985E+02   0.0000E+00  0.0000
   1.2985E+02   1.3301E+02   0.0000E+00  0.0000
   1.3301E+02   1.3625E+02   0.0000E+00  0.0000
   1.3625E+02   1.3956E+02   0.0000E+00  0.0000
   1.3956E+02   1.4296E+02   0.0000E+00  0.0000
   1.4296E+02   1.4644E+02   0.0000E+00  0.0000
   1.4644E+02   1.5000E+02   0.0000E+00  0.0000

#   sum over                 2.4103E-06
'no. =    1   reg = 119 - 219'
msuc: {\huge [t-cross] in region mesh}
msdr: {\it plotted by \ANGEL \version}
msdl: {\it calculated by \PHITS  3.26}
wt: s(0.7)
\vspace{-3}
  region surface crossing
  area  &=&   1.0000E+00 [cm^2]
e:
 
# Information for Restart Calculation
# This calculation was newly started
# istdev =  2 # 1:Batch variance, 2:History variance
# resc2  = 5.00000000000000000E+09 # Total source weight or Total source weight / maxcas
# resc3  = 5.00000000000000000E+09 # Total history number or Total batch number
# maxcas =   500000000 # History / Batch, only used for istdev=1
# bitrseed = 0110100000100010111000001110001111001110100100011111101000111001 # bit data of rseed
