[ T-Cross ]
    title = [t-cross] in region mesh
     mesh =  reg            # mesh type is region-wise
      reg =    1            # number of crossing regions
      non     r-from    r-to       area
      1       116       216        1.000000    
   e-type =    3            # e-mesh is log given by emin, emax and ne
     emin =  1.0000000E-02  # minimum value of e-mesh points
     emax =   150.0000      # maximum value of e-mesh points
#    edel =  2.4039514E-02  # mesh width of e-mesh points
       ne =    400          # number of e-mesh points
#    data = ( e(i), i = 1, ne + 1 )
#           1.00000E-02  1.02433E-02  1.04925E-02  1.07478E-02  1.10093E-02
#           1.12772E-02  1.15516E-02  1.18326E-02  1.21205E-02  1.24154E-02
#           1.27175E-02  1.30269E-02  1.33439E-02  1.36686E-02  1.40011E-02
#           1.43418E-02  1.46907E-02  1.50482E-02  1.54143E-02  1.57894E-02
#           1.61735E-02  1.65670E-02  1.69701E-02  1.73830E-02  1.78060E-02
#           1.82392E-02  1.86830E-02  1.91375E-02  1.96032E-02  2.00801E-02
#           2.05687E-02  2.10692E-02  2.15818E-02  2.21069E-02  2.26448E-02
#           2.31957E-02  2.37601E-02  2.43382E-02  2.49304E-02  2.55369E-02
#           2.61583E-02  2.67947E-02  2.74467E-02  2.81145E-02  2.87985E-02
#           2.94992E-02  3.02169E-02  3.09521E-02  3.17052E-02  3.24766E-02
#           3.32668E-02  3.40762E-02  3.49053E-02  3.57546E-02  3.66246E-02
#           3.75157E-02  3.84284E-02  3.93634E-02  4.03212E-02  4.13022E-02
#           4.23071E-02  4.33365E-02  4.43909E-02  4.54710E-02  4.65773E-02
#           4.77106E-02  4.88714E-02  5.00605E-02  5.12785E-02  5.25262E-02
#           5.38042E-02  5.51133E-02  5.64542E-02  5.78278E-02  5.92348E-02
#           6.06760E-02  6.21523E-02  6.36645E-02  6.52135E-02  6.68002E-02
#           6.84255E-02  7.00904E-02  7.17957E-02  7.35426E-02  7.53319E-02
#           7.71648E-02  7.90423E-02  8.09655E-02  8.29354E-02  8.49533E-02
#           8.70203E-02  8.91376E-02  9.13064E-02  9.35279E-02  9.58035E-02
#           9.81345E-02  1.00522E-01  1.02968E-01  1.05473E-01  1.08040E-01
#           1.10668E-01  1.13361E-01  1.16119E-01  1.18944E-01  1.21838E-01
#           1.24803E-01  1.27839E-01  1.30950E-01  1.34136E-01  1.37399E-01
#           1.40742E-01  1.44167E-01  1.47675E-01  1.51268E-01  1.54948E-01
#           1.58718E-01  1.62580E-01  1.66535E-01  1.70587E-01  1.74738E-01
#           1.78989E-01  1.83344E-01  1.87805E-01  1.92375E-01  1.97055E-01
#           2.01850E-01  2.06761E-01  2.11792E-01  2.16945E-01  2.22223E-01
#           2.27630E-01  2.33169E-01  2.38842E-01  2.44653E-01  2.50605E-01
#           2.56703E-01  2.62949E-01  2.69346E-01  2.75900E-01  2.82613E-01
#           2.89489E-01  2.96532E-01  3.03747E-01  3.11138E-01  3.18708E-01
#           3.26462E-01  3.34405E-01  3.42542E-01  3.50876E-01  3.59413E-01
#           3.68158E-01  3.77116E-01  3.86291E-01  3.95690E-01  4.05317E-01
#           4.15179E-01  4.25281E-01  4.35628E-01  4.46227E-01  4.57084E-01
#           4.68205E-01  4.79597E-01  4.91266E-01  5.03219E-01  5.15463E-01
#           5.28005E-01  5.40851E-01  5.54011E-01  5.67490E-01  5.81298E-01
#           5.95441E-01  6.09929E-01  6.24769E-01  6.39970E-01  6.55541E-01
#           6.71491E-01  6.87828E-01  7.04564E-01  7.21706E-01  7.39266E-01
#           7.57253E-01  7.75678E-01  7.94551E-01  8.13883E-01  8.33685E-01
#           8.53969E-01  8.74747E-01  8.96030E-01  9.17831E-01  9.40163E-01
#           9.63038E-01  9.86469E-01  1.01047E+00  1.03506E+00  1.06024E+00
#           1.08604E+00  1.11246E+00  1.13953E+00  1.16725E+00  1.19565E+00
#           1.22474E+00  1.25454E+00  1.28507E+00  1.31633E+00  1.34836E+00
#           1.38117E+00  1.41477E+00  1.44920E+00  1.48446E+00  1.52057E+00
#           1.55757E+00  1.59547E+00  1.63429E+00  1.67405E+00  1.71478E+00
#           1.75650E+00  1.79924E+00  1.84302E+00  1.88786E+00  1.93379E+00
#           1.98084E+00  2.02904E+00  2.07841E+00  2.12898E+00  2.18078E+00
#           2.23384E+00  2.28819E+00  2.34386E+00  2.40089E+00  2.45930E+00
#           2.51914E+00  2.58043E+00  2.64322E+00  2.70753E+00  2.77341E+00
#           2.84088E+00  2.91001E+00  2.98081E+00  3.05333E+00  3.12762E+00
#           3.20372E+00  3.28167E+00  3.36152E+00  3.44330E+00  3.52708E+00
#           3.61290E+00  3.70080E+00  3.79085E+00  3.88308E+00  3.97756E+00
#           4.07434E+00  4.17347E+00  4.27501E+00  4.37903E+00  4.48557E+00
#           4.59471E+00  4.70650E+00  4.82102E+00  4.93832E+00  5.05847E+00
#           5.18155E+00  5.30762E+00  5.43676E+00  5.56904E+00  5.70453E+00
#           5.84333E+00  5.98550E+00  6.13114E+00  6.28031E+00  6.43312E+00
#           6.58964E+00  6.74997E+00  6.91420E+00  7.08243E+00  7.25475E+00
#           7.43126E+00  7.61207E+00  7.79728E+00  7.98700E+00  8.18133E+00
#           8.38038E+00  8.58428E+00  8.79315E+00  9.00709E+00  9.22624E+00
#           9.45072E+00  9.68067E+00  9.91620E+00  1.01575E+01  1.04046E+01
#           1.06578E+01  1.09171E+01  1.11827E+01  1.14548E+01  1.17335E+01
#           1.20190E+01  1.23114E+01  1.26109E+01  1.29178E+01  1.32321E+01
#           1.35540E+01  1.38838E+01  1.42216E+01  1.45676E+01  1.49221E+01
#           1.52851E+01  1.56570E+01  1.60380E+01  1.64282E+01  1.68279E+01
#           1.72374E+01  1.76568E+01  1.80864E+01  1.85264E+01  1.89772E+01
#           1.94389E+01  1.99119E+01  2.03963E+01  2.08926E+01  2.14009E+01
#           2.19216E+01  2.24550E+01  2.30014E+01  2.35610E+01  2.41343E+01
#           2.47215E+01  2.53230E+01  2.59391E+01  2.65702E+01  2.72167E+01
#           2.78789E+01  2.85572E+01  2.92520E+01  2.99637E+01  3.06928E+01
#           3.14396E+01  3.22045E+01  3.29881E+01  3.37907E+01  3.46128E+01
#           3.54550E+01  3.63177E+01  3.72013E+01  3.81064E+01  3.90336E+01
#           3.99833E+01  4.09561E+01  4.19526E+01  4.29734E+01  4.40189E+01
#           4.50900E+01  4.61870E+01  4.73108E+01  4.84619E+01  4.96410E+01
#           5.08488E+01  5.20860E+01  5.33533E+01  5.46514E+01  5.59812E+01
#           5.73432E+01  5.87384E+01  6.01676E+01  6.16315E+01  6.31311E+01
#           6.46671E+01  6.62405E+01  6.78522E+01  6.95031E+01  7.11941E+01
#           7.29263E+01  7.47007E+01  7.65182E+01  7.83800E+01  8.02870E+01
#           8.22405E+01  8.42414E+01  8.62911E+01  8.83906E+01  9.05412E+01
#           9.27442E+01  9.50007E+01  9.73122E+01  9.96799E+01  1.02105E+02
#           1.04589E+02  1.07134E+02  1.09741E+02  1.12411E+02  1.15146E+02
#           1.17948E+02  1.20817E+02  1.23757E+02  1.26768E+02  1.29852E+02
#           1.33012E+02  1.36248E+02  1.39563E+02  1.42959E+02  1.46437E+02
#           1.50000E+02
     unit =    2            # unit is [1/cm^2/(MeV/n)/source]
     axis =  eng            # axis of output
     file = detector-17.out  # file name of output for the above axis
   output = f-curr          # surface crossing forward current spectrum
     part =  neutron  
# kf/name :  2112     
#    used :        main (  %)        temp (  %)       total (  %)
#  memory :         414 (  0)           0 (  0)         414 (  0)

#------------------------------------------------------------------------------
#newpage:
#   no. =    1   reg = 116 - 216

x: Energy [MeV/n]
y:  F-Curr [1/cm^2/(MeV/n)/source]         
p: xlog ylog afac(0.8) form(0.9)
h: n            x            y(neutron ),hh0l   n 
#  e-lower      e-upper      neutron     r.err 
   1.0000E-02   1.0243E-02   1.6781E-03  0.0404
   1.0243E-02   1.0493E-02   1.6988E-03  0.0396
   1.0493E-02   1.0748E-02   1.6556E-03  0.0397
   1.0748E-02   1.1009E-02   1.6370E-03  0.0394
   1.1009E-02   1.1277E-02   1.6878E-03  0.0384
   1.1277E-02   1.1552E-02   1.5331E-03  0.0398
   1.1552E-02   1.1833E-02   1.6219E-03  0.0382
   1.1833E-02   1.2121E-02   1.5125E-03  0.0391
   1.2121E-02   1.2415E-02   1.5855E-03  0.0377
   1.2415E-02   1.2718E-02   1.5248E-03  0.0380
   1.2718E-02   1.3027E-02   1.6153E-03  0.0365
   1.3027E-02   1.3344E-02   1.5383E-03  0.0370
   1.3344E-02   1.3669E-02   1.5430E-03  0.0365
   1.3669E-02   1.4001E-02   1.5404E-03  0.0361
   1.4001E-02   1.4342E-02   1.5284E-03  0.0358
   1.4342E-02   1.4691E-02   1.4945E-03  0.0357
   1.4691E-02   1.5048E-02   1.4945E-03  0.0353
   1.5048E-02   1.5414E-02   1.4146E-03  0.0358
   1.5414E-02   1.5789E-02   1.4635E-03  0.0348
   1.5789E-02   1.6174E-02   1.4557E-03  0.0345
   1.6174E-02   1.6567E-02   1.3108E-03  0.0359
   1.6567E-02   1.6970E-02   1.3187E-03  0.0354
   1.6970E-02   1.7383E-02   1.3779E-03  0.0342
   1.7383E-02   1.7806E-02   1.3417E-03  0.0342
   1.7806E-02   1.8239E-02   1.3136E-03  0.0342
   1.8239E-02   1.8683E-02   1.2723E-03  0.0343
   1.8683E-02   1.9138E-02   1.3480E-03  0.0330
   1.9138E-02   1.9603E-02   1.3408E-03  0.0327
   1.9603E-02   2.0080E-02   1.2917E-03  0.0329
   2.0080E-02   2.0569E-02   1.2483E-03  0.0330
   2.0569E-02   2.1069E-02   1.2540E-03  0.0326
   2.1069E-02   2.1582E-02   1.2403E-03  0.0324
   2.1582E-02   2.2107E-02   1.2088E-03  0.0324
   2.2107E-02   2.2645E-02   1.1893E-03  0.0323
   2.2645E-02   2.3196E-02   1.1585E-03  0.0323
   2.3196E-02   2.3760E-02   1.2094E-03  0.0312
   2.3760E-02   2.4338E-02   1.1607E-03  0.0315
   2.4338E-02   2.4930E-02   1.1194E-03  0.0317
   2.4930E-02   2.5537E-02   1.1614E-03  0.0307
   2.5537E-02   2.6158E-02   1.1081E-03  0.0311
   2.6158E-02   2.6795E-02   1.1050E-03  0.0307
   2.6795E-02   2.7447E-02   1.1227E-03  0.0301
   2.7447E-02   2.8114E-02   1.0457E-03  0.0308
   2.8114E-02   2.8799E-02   1.0569E-03  0.0303
   2.8799E-02   2.9499E-02   1.0414E-03  0.0302
   2.9499E-02   3.0217E-02   1.0589E-03  0.0296
   3.0217E-02   3.0952E-02   9.9082E-04  0.0302
   3.0952E-02   3.1705E-02   1.0348E-03  0.0292
   3.1705E-02   3.2477E-02   9.9230E-04  0.0295
   3.2477E-02   3.3267E-02   1.0208E-03  0.0287
   3.3267E-02   3.4076E-02   9.6062E-04  0.0293
   3.4076E-02   3.4905E-02   9.7051E-04  0.0288
   3.4905E-02   3.5755E-02   9.2412E-04  0.0291
   3.5755E-02   3.6625E-02   1.0023E-03  0.0276
   3.6625E-02   3.7516E-02   9.3382E-04  0.0283
   3.7516E-02   3.8428E-02   9.1273E-04  0.0283
   3.8428E-02   3.9363E-02   8.8788E-04  0.0283
   3.9363E-02   4.0321E-02   8.6927E-04  0.0283
   4.0321E-02   4.1302E-02   9.0094E-04  0.0274
   4.1302E-02   4.2307E-02   8.9653E-04  0.0272
   4.2307E-02   4.3337E-02   8.7280E-04  0.0272
   4.3337E-02   4.4391E-02   8.7434E-04  0.0269
   4.4391E-02   4.5471E-02   8.3674E-04  0.0271
   4.5471E-02   4.6577E-02   8.1899E-04  0.0271
   4.6577E-02   4.7711E-02   8.2297E-04  0.0267
   4.7711E-02   4.8871E-02   8.0590E-04  0.0267
   4.8871E-02   5.0061E-02   8.3429E-04  0.0259
   5.0061E-02   5.1279E-02   7.6884E-04  0.0266
   5.1279E-02   5.2526E-02   7.8599E-04  0.0260
   5.2526E-02   5.3804E-02   7.8506E-04  0.0258
   5.3804E-02   5.5113E-02   7.5823E-04  0.0259
   5.5113E-02   5.6454E-02   7.4305E-04  0.0258
   5.6454E-02   5.7828E-02   7.1119E-04  0.0261
   5.7828E-02   5.9235E-02   7.3278E-04  0.0254
   5.9235E-02   6.0676E-02   7.5499E-04  0.0247
   6.0676E-02   6.2152E-02   6.8274E-04  0.0257
   6.2152E-02   6.3665E-02   6.8679E-04  0.0253
   6.3665E-02   6.5214E-02   7.0873E-04  0.0246
   6.5214E-02   6.6800E-02   6.6955E-04  0.0250
   6.6800E-02   6.8426E-02   6.6277E-04  0.0249
   6.8426E-02   7.0090E-02   6.2061E-04  0.0254
   7.0090E-02   7.1796E-02   5.9824E-04  0.0255
   7.1796E-02   7.3543E-02   6.1974E-04  0.0248
   7.3543E-02   7.5332E-02   5.9536E-04  0.0250
   7.5332E-02   7.7165E-02   6.1799E-04  0.0242
   7.7165E-02   7.9042E-02   6.0982E-04  0.0241
   7.9042E-02   8.0965E-02   6.0048E-04  0.0240
   8.0965E-02   8.2935E-02   5.9690E-04  0.0238
   8.2935E-02   8.4953E-02   5.5580E-04  0.0244
   8.4953E-02   8.7020E-02   5.7144E-04  0.0237
   8.7020E-02   8.9138E-02   5.3880E-04  0.0241
   8.9138E-02   9.1306E-02   5.4860E-04  0.0236
   9.1306E-02   9.3528E-02   5.3235E-04  0.0237
   9.3528E-02   9.5804E-02   5.2804E-04  0.0235
   9.5804E-02   9.8134E-02   5.1376E-04  0.0236
   9.8134E-02   1.0052E-01   5.1848E-04  0.0232
   1.0052E-01   1.0297E-01   5.0514E-04  0.0232
   1.0297E-01   1.0547E-01   4.8790E-04  0.0233
   1.0547E-01   1.0804E-01   4.5982E-04  0.0237
   1.0804E-01   1.1067E-01   4.6977E-04  0.0232
   1.1067E-01   1.1336E-01   4.5849E-04  0.0232
   1.1336E-01   1.1612E-01   4.5064E-04  0.0231
   1.1612E-01   1.1894E-01   4.5505E-04  0.0228
   1.1894E-01   1.2184E-01   4.3279E-04  0.0231
   1.2184E-01   1.2480E-01   4.2169E-04  0.0231
   1.2480E-01   1.2784E-01   4.0835E-04  0.0232
   1.2784E-01   1.3095E-01   4.0548E-04  0.0230
   1.3095E-01   1.3414E-01   3.9821E-04  0.0229
   1.3414E-01   1.3740E-01   3.8854E-04  0.0229
   1.3740E-01   1.4074E-01   3.7676E-04  0.0230
   1.4074E-01   1.4417E-01   3.7040E-04  0.0229
   1.4417E-01   1.4767E-01   3.6932E-04  0.0226
   1.4767E-01   1.5127E-01   3.4886E-04  0.0230
   1.5127E-01   1.5495E-01   3.4922E-04  0.0227
   1.5495E-01   1.5872E-01   3.4526E-04  0.0226
   1.5872E-01   1.6258E-01   3.3035E-04  0.0228
   1.6258E-01   1.6654E-01   3.2607E-04  0.0227
   1.6654E-01   1.7059E-01   3.1743E-04  0.0228
   1.7059E-01   1.7474E-01   3.0547E-04  0.0229
   1.7474E-01   1.7899E-01   3.0234E-04  0.0227
   1.7899E-01   1.8334E-01   2.8886E-04  0.0230
   1.8334E-01   1.8781E-01   2.8912E-04  0.0227
   1.8781E-01   1.9237E-01   2.8580E-04  0.0226
   1.9237E-01   1.9706E-01   2.5768E-04  0.0235
   1.9706E-01   2.0185E-01   2.8123E-04  0.0222
   2.0185E-01   2.0676E-01   2.8342E-04  0.0219
   2.0676E-01   2.1179E-01   2.8800E-04  0.0214
   2.1179E-01   2.1694E-01   2.9511E-04  0.0209
   2.1694E-01   2.2222E-01   2.9648E-04  0.0206
   2.2222E-01   2.2763E-01   3.0048E-04  0.0202
   2.2763E-01   2.3317E-01   3.2108E-04  0.0193
   2.3317E-01   2.3884E-01   3.1132E-04  0.0194
   2.3884E-01   2.4465E-01   3.1701E-04  0.0190
   2.4465E-01   2.5061E-01   3.1860E-04  0.0187
   2.5061E-01   2.5670E-01   3.3116E-04  0.0181
   2.5670E-01   2.6295E-01   3.2963E-04  0.0180
   2.6295E-01   2.6935E-01   3.3337E-04  0.0177
   2.6935E-01   2.7590E-01   3.4965E-04  0.0170
   2.7590E-01   2.8261E-01   3.6210E-04  0.0165
   2.8261E-01   2.8949E-01   3.8147E-04  0.0159
   2.8949E-01   2.9653E-01   3.7864E-04  0.0158
   2.9653E-01   3.0375E-01   3.8076E-04  0.0156
   3.0375E-01   3.1114E-01   3.7720E-04  0.0154
   3.1114E-01   3.1871E-01   3.8627E-04  0.0151
   3.1871E-01   3.2646E-01   4.0701E-04  0.0145
   3.2646E-01   3.3441E-01   3.9903E-04  0.0145
   3.3441E-01   3.4254E-01   4.1404E-04  0.0140
   3.4254E-01   3.5088E-01   4.2708E-04  0.0137
   3.5088E-01   3.5941E-01   4.1338E-04  0.0137
   3.5941E-01   3.6816E-01   4.1808E-04  0.0135
   3.6816E-01   3.7712E-01   4.2311E-04  0.0132
   3.7712E-01   3.8629E-01   4.4236E-04  0.0128
   3.8629E-01   3.9569E-01   4.3468E-04  0.0128
   3.9569E-01   4.0532E-01   4.4555E-04  0.0124
   4.0532E-01   4.1518E-01   4.4831E-04  0.0123
   4.1518E-01   4.2528E-01   4.4939E-04  0.0121
   4.2528E-01   4.3563E-01   4.6222E-04  0.0118
   4.3563E-01   4.4623E-01   4.6296E-04  0.0116
   4.4623E-01   4.5708E-01   4.6658E-04  0.0115
   4.5708E-01   4.6821E-01   4.7167E-04  0.0113
   4.6821E-01   4.7960E-01   4.7445E-04  0.0111
   4.7960E-01   4.9127E-01   4.8204E-04  0.0109
   4.9127E-01   5.0322E-01   4.9617E-04  0.0106
   5.0322E-01   5.1546E-01   4.9304E-04  0.0105
   5.1546E-01   5.2800E-01   4.9236E-04  0.0104
   5.2800E-01   5.4085E-01   4.9754E-04  0.0102
   5.4085E-01   5.5401E-01   4.9301E-04  0.0101
   5.5401E-01   5.6749E-01   5.0596E-04  0.0099
   5.6749E-01   5.8130E-01   5.0870E-04  0.0097
   5.8130E-01   5.9544E-01   5.1682E-04  0.0095
   5.9544E-01   6.0993E-01   5.1219E-04  0.0095
   6.0993E-01   6.2477E-01   5.1395E-04  0.0093
   6.2477E-01   6.3997E-01   5.0410E-04  0.0093
   6.3997E-01   6.5554E-01   5.1023E-04  0.0091
   6.5554E-01   6.7149E-01   5.1297E-04  0.0090
   6.7149E-01   6.8783E-01   5.1359E-04  0.0089
   6.8783E-01   7.0456E-01   5.2041E-04  0.0087
   7.0456E-01   7.2171E-01   5.1274E-04  0.0087
   7.2171E-01   7.3927E-01   5.1407E-04  0.0086
   7.3927E-01   7.5725E-01   5.1198E-04  0.0085
   7.5725E-01   7.7568E-01   5.0983E-04  0.0084
   7.7568E-01   7.9455E-01   5.1890E-04  0.0082
   7.9455E-01   8.1388E-01   5.0794E-04  0.0082
   8.1388E-01   8.3368E-01   5.0707E-04  0.0081
   8.3368E-01   8.5397E-01   5.0515E-04  0.0080
   8.5397E-01   8.7475E-01   4.9022E-04  0.0081
   8.7475E-01   8.9603E-01   4.9193E-04  0.0080
   8.9603E-01   9.1783E-01   4.7807E-04  0.0080
   9.1783E-01   9.4016E-01   4.7411E-04  0.0079
   9.4016E-01   9.6304E-01   4.6258E-04  0.0079
   9.6304E-01   9.8647E-01   4.4733E-04  0.0080
   9.8647E-01   1.0105E+00   4.3898E-04  0.0079
   1.0105E+00   1.0351E+00   4.2990E-04  0.0079
   1.0351E+00   1.0602E+00   4.2279E-04  0.0079
   1.0602E+00   1.0860E+00   4.3118E-04  0.0077
   1.0860E+00   1.1125E+00   4.3618E-04  0.0076
   1.1125E+00   1.1395E+00   4.3758E-04  0.0075
   1.1395E+00   1.1673E+00   4.4605E-04  0.0073
   1.1673E+00   1.1957E+00   4.4958E-04  0.0072
   1.1957E+00   1.2247E+00   4.5736E-04  0.0071
   1.2247E+00   1.2545E+00   4.5484E-04  0.0070
   1.2545E+00   1.2851E+00   4.5181E-04  0.0069
   1.2851E+00   1.3163E+00   4.5402E-04  0.0068
   1.3163E+00   1.3484E+00   4.5248E-04  0.0068
   1.3484E+00   1.3812E+00   4.5612E-04  0.0067
   1.3812E+00   1.4148E+00   4.6457E-04  0.0065
   1.4148E+00   1.4492E+00   4.5585E-04  0.0065
   1.4492E+00   1.4845E+00   4.5682E-04  0.0064
   1.4845E+00   1.5206E+00   4.5753E-04  0.0063
   1.5206E+00   1.5576E+00   4.5551E-04  0.0063
   1.5576E+00   1.5955E+00   4.5087E-04  0.0062
   1.5955E+00   1.6343E+00   4.5521E-04  0.0061
   1.6343E+00   1.6741E+00   4.5216E-04  0.0061
   1.6741E+00   1.7148E+00   4.5452E-04  0.0060
   1.7148E+00   1.7565E+00   4.5456E-04  0.0059
   1.7565E+00   1.7992E+00   4.5156E-04  0.0059
   1.7992E+00   1.8430E+00   4.4887E-04  0.0058
   1.8430E+00   1.8879E+00   4.4511E-04  0.0058
   1.8879E+00   1.9338E+00   4.4116E-04  0.0057
   1.9338E+00   1.9808E+00   4.3905E-04  0.0057
   1.9808E+00   2.0290E+00   4.3705E-04  0.0056
   2.0290E+00   2.0784E+00   4.3442E-04  0.0056
   2.0784E+00   2.1290E+00   4.2369E-04  0.0056
   2.1290E+00   2.1808E+00   4.1858E-04  0.0055
   2.1808E+00   2.2338E+00   4.1840E-04  0.0055
   2.2338E+00   2.2882E+00   4.0978E-04  0.0055
   2.2882E+00   2.3439E+00   3.9703E-04  0.0055
   2.3439E+00   2.4009E+00   3.9835E-04  0.0054
   2.4009E+00   2.4593E+00   3.9129E-04  0.0054
   2.4593E+00   2.5191E+00   3.8503E-04  0.0054
   2.5191E+00   2.5804E+00   3.8388E-04  0.0053
   2.5804E+00   2.6432E+00   3.7397E-04  0.0053
   2.6432E+00   2.7075E+00   3.6867E-04  0.0053
   2.7075E+00   2.7734E+00   3.5988E-04  0.0053
   2.7734E+00   2.8409E+00   3.5345E-04  0.0053
   2.8409E+00   2.9100E+00   3.4714E-04  0.0053
   2.9100E+00   2.9808E+00   3.4503E-04  0.0052
   2.9808E+00   3.0533E+00   3.3645E-04  0.0052
   3.0533E+00   3.1276E+00   3.2959E-04  0.0052
   3.1276E+00   3.2037E+00   3.2065E-04  0.0052
   3.2037E+00   3.2817E+00   3.1400E-04  0.0052
   3.2817E+00   3.3615E+00   3.0620E-04  0.0052
   3.3615E+00   3.4433E+00   2.9961E-04  0.0052
   3.4433E+00   3.5271E+00   2.8964E-04  0.0052
   3.5271E+00   3.6129E+00   2.8604E-04  0.0052
   3.6129E+00   3.7008E+00   2.7773E-04  0.0052
   3.7008E+00   3.7908E+00   2.6920E-04  0.0052
   3.7908E+00   3.8831E+00   2.6103E-04  0.0052
   3.8831E+00   3.9776E+00   2.5474E-04  0.0052
   3.9776E+00   4.0743E+00   2.5193E-04  0.0052
   4.0743E+00   4.1735E+00   2.4425E-04  0.0052
   4.1735E+00   4.2750E+00   2.3750E-04  0.0052
   4.2750E+00   4.3790E+00   2.3023E-04  0.0053
   4.3790E+00   4.4856E+00   2.2348E-04  0.0053
   4.4856E+00   4.5947E+00   2.1702E-04  0.0053
   4.5947E+00   4.7065E+00   2.1073E-04  0.0053
   4.7065E+00   4.8210E+00   2.0414E-04  0.0053
   4.8210E+00   4.9383E+00   1.9717E-04  0.0054
   4.9383E+00   5.0585E+00   1.8852E-04  0.0054
   5.0585E+00   5.1815E+00   1.8235E-04  0.0054
   5.1815E+00   5.3076E+00   1.7678E-04  0.0055
   5.3076E+00   5.4368E+00   1.6993E-04  0.0055
   5.4368E+00   5.5690E+00   1.6436E-04  0.0055
   5.5690E+00   5.7045E+00   1.5669E-04  0.0056
   5.7045E+00   5.8433E+00   1.5125E-04  0.0056
   5.8433E+00   5.9855E+00   1.4647E-04  0.0056
   5.9855E+00   6.1311E+00   1.3816E-04  0.0057
   6.1311E+00   6.2803E+00   1.3226E-04  0.0058
   6.2803E+00   6.4331E+00   1.2760E-04  0.0058
   6.4331E+00   6.5896E+00   1.2173E-04  0.0059
   6.5896E+00   6.7500E+00   1.1657E-04  0.0060
   6.7500E+00   6.9142E+00   1.1121E-04  0.0060
   6.9142E+00   7.0824E+00   1.0609E-04  0.0061
   7.0824E+00   7.2548E+00   1.0072E-04  0.0062
   7.2548E+00   7.4313E+00   9.5710E-05  0.0063
   7.4313E+00   7.6121E+00   9.0356E-05  0.0064
   7.6121E+00   7.7973E+00   8.5387E-05  0.0065
   7.7973E+00   7.9870E+00   7.9894E-05  0.0066
   7.9870E+00   8.1813E+00   7.6462E-05  0.0067
   8.1813E+00   8.3804E+00   7.2747E-05  0.0068
   8.3804E+00   8.5843E+00   6.9098E-05  0.0069
   8.5843E+00   8.7931E+00   6.5010E-05  0.0070
   8.7931E+00   9.0071E+00   6.2378E-05  0.0071
   9.0071E+00   9.2262E+00   5.7758E-05  0.0072
   9.2262E+00   9.4507E+00   5.5702E-05  0.0073
   9.4507E+00   9.6807E+00   5.2521E-05  0.0074
   9.6807E+00   9.9162E+00   4.9146E-05  0.0076
   9.9162E+00   1.0157E+01   4.7121E-05  0.0076
   1.0157E+01   1.0405E+01   4.5186E-05  0.0077
   1.0405E+01   1.0658E+01   4.3346E-05  0.0078
   1.0658E+01   1.0917E+01   4.2453E-05  0.0078
   1.0917E+01   1.1183E+01   3.9890E-05  0.0079
   1.1183E+01   1.1455E+01   3.8134E-05  0.0080
   1.1455E+01   1.1733E+01   3.5575E-05  0.0082
   1.1733E+01   1.2019E+01   3.3704E-05  0.0083
   1.2019E+01   1.2311E+01   3.1961E-05  0.0084
   1.2311E+01   1.2611E+01   3.0220E-05  0.0086
   1.2611E+01   1.2918E+01   2.8281E-05  0.0088
   1.2918E+01   1.3232E+01   2.6529E-05  0.0089
   1.3232E+01   1.3554E+01   2.5309E-05  0.0090
   1.3554E+01   1.3884E+01   2.3626E-05  0.0092
   1.3884E+01   1.4222E+01   2.2122E-05  0.0094
   1.4222E+01   1.4568E+01   2.1217E-05  0.0095
   1.4568E+01   1.4922E+01   1.9556E-05  0.0098
   1.4922E+01   1.5285E+01   1.8508E-05  0.0100
   1.5285E+01   1.5657E+01   1.7126E-05  0.0102
   1.5657E+01   1.6038E+01   1.5643E-05  0.0106
   1.6038E+01   1.6428E+01   1.4592E-05  0.0108
   1.6428E+01   1.6828E+01   1.3880E-05  0.0110
   1.6828E+01   1.7237E+01   1.2751E-05  0.0113
   1.7237E+01   1.7657E+01   1.1861E-05  0.0116
   1.7657E+01   1.8086E+01   1.1067E-05  0.0118
   1.8086E+01   1.8526E+01   1.0113E-05  0.0122
   1.8526E+01   1.8977E+01   9.4600E-06  0.0125
   1.8977E+01   1.9439E+01   9.1189E-06  0.0126
   1.9439E+01   1.9912E+01   8.4599E-06  0.0129
   1.9912E+01   2.0396E+01   7.8285E-06  0.0133
   2.0396E+01   2.0893E+01   7.0514E-06  0.0138
   2.0893E+01   2.1401E+01   6.4459E-06  0.0143
   2.1401E+01   2.1922E+01   5.7794E-06  0.0149
   2.1922E+01   2.2455E+01   5.0334E-06  0.0158
   2.2455E+01   2.3001E+01   4.8479E-06  0.0159
   2.3001E+01   2.3561E+01   4.2944E-06  0.0167
   2.3561E+01   2.4134E+01   3.9889E-06  0.0171
   2.4134E+01   2.4721E+01   3.5093E-06  0.0180
   2.4721E+01   2.5323E+01   3.1433E-06  0.0188
   2.5323E+01   2.5939E+01   2.8306E-06  0.0196
   2.5939E+01   2.6570E+01   2.5014E-06  0.0205
   2.6570E+01   2.7217E+01   2.0831E-06  0.0222
   2.7217E+01   2.7879E+01   1.9652E-06  0.0226
   2.7879E+01   2.8557E+01   1.7563E-06  0.0237
   2.8557E+01   2.9252E+01   1.4891E-06  0.0254
   2.9252E+01   2.9964E+01   1.3619E-06  0.0262
   2.9964E+01   3.0693E+01   1.2208E-06  0.0274
   3.0693E+01   3.1440E+01   9.7932E-07  0.0302
   3.1440E+01   3.2205E+01   9.2642E-07  0.0307
   3.2205E+01   3.2988E+01   7.9636E-07  0.0327
   3.2988E+01   3.3791E+01   6.6864E-07  0.0352
   3.3791E+01   3.4613E+01   5.8545E-07  0.0372
   3.4613E+01   3.5455E+01   5.1455E-07  0.0392
   3.5455E+01   3.6318E+01   4.5132E-07  0.0414
   3.6318E+01   3.7201E+01   3.7119E-07  0.0451
   3.7201E+01   3.8106E+01   3.4323E-07  0.0463
   3.8106E+01   3.9034E+01   3.0200E-07  0.0488
   3.9034E+01   3.9983E+01   2.8570E-07  0.0496
   3.9983E+01   4.0956E+01   2.1861E-07  0.0560
   4.0956E+01   4.1953E+01   2.2746E-07  0.0542
   4.1953E+01   4.2973E+01   1.8091E-07  0.0601
   4.2973E+01   4.4019E+01   1.5621E-07  0.0639
   4.4019E+01   4.5090E+01   1.2698E-07  0.0700
   4.5090E+01   4.6187E+01   1.1242E-07  0.0735
   4.6187E+01   4.7311E+01   8.3054E-08  0.0845
   4.7311E+01   4.8462E+01   8.3977E-08  0.0830
   4.8462E+01   4.9641E+01   7.9721E-08  0.0842
   4.9641E+01   5.0849E+01   4.9125E-08  0.1060
   5.0849E+01   5.2086E+01   4.0953E-08  0.1147
   5.2086E+01   5.3353E+01   3.8928E-08  0.1162
   5.3353E+01   5.4651E+01   1.7461E-08  0.1715
   5.4651E+01   5.5981E+01   1.9553E-08  0.1601
   5.5981E+01   5.7343E+01   1.5662E-08  0.1768
   5.7343E+01   5.8738E+01   1.2423E-08  0.1961
   5.8738E+01   6.0168E+01   1.0729E-08  0.2085
   6.0168E+01   6.1632E+01   7.7417E-09  0.2425
   6.1632E+01   6.3131E+01   4.8904E-09  0.3015
   6.3131E+01   6.4667E+01   8.6804E-10  0.7071
   6.4667E+01   6.6240E+01   3.3897E-09  0.3536
   6.6240E+01   6.7852E+01   8.2729E-10  0.7071
   6.7852E+01   6.9503E+01   8.0764E-10  0.7071
   6.9503E+01   7.1194E+01   0.0000E+00  0.0000
   7.1194E+01   7.2926E+01   0.0000E+00  0.0000
   7.2926E+01   7.4701E+01   0.0000E+00  0.0000
   7.4701E+01   7.6518E+01   0.0000E+00  0.0000
   7.6518E+01   7.8380E+01   0.0000E+00  0.0000
   7.8380E+01   8.0287E+01   0.0000E+00  0.0000
   8.0287E+01   8.2240E+01   0.0000E+00  0.0000
   8.2240E+01   8.4241E+01   0.0000E+00  0.0000
   8.4241E+01   8.6291E+01   0.0000E+00  0.0000
   8.6291E+01   8.8391E+01   0.0000E+00  0.0000
   8.8391E+01   9.0541E+01   0.0000E+00  0.0000
   9.0541E+01   9.2744E+01   0.0000E+00  0.0000
   9.2744E+01   9.5001E+01   0.0000E+00  0.0000
   9.5001E+01   9.7312E+01   0.0000E+00  0.0000
   9.7312E+01   9.9680E+01   0.0000E+00  0.0000
   9.9680E+01   1.0211E+02   0.0000E+00  0.0000
   1.0211E+02   1.0459E+02   0.0000E+00  0.0000
   1.0459E+02   1.0713E+02   0.0000E+00  0.0000
   1.0713E+02   1.0974E+02   0.0000E+00  0.0000
   1.0974E+02   1.1241E+02   0.0000E+00  0.0000
   1.1241E+02   1.1515E+02   0.0000E+00  0.0000
   1.1515E+02   1.1795E+02   0.0000E+00  0.0000
   1.1795E+02   1.2082E+02   0.0000E+00  0.0000
   1.2082E+02   1.2376E+02   0.0000E+00  0.0000
   1.2376E+02   1.2677E+02   0.0000E+00  0.0000
   1.2677E+02   1.2985E+02   0.0000E+00  0.0000
   1.2985E+02   1.3301E+02   0.0000E+00  0.0000
   1.3301E+02   1.3625E+02   0.0000E+00  0.0000
   1.3625E+02   1.3956E+02   0.0000E+00  0.0000
   1.3956E+02   1.4296E+02   0.0000E+00  0.0000
   1.4296E+02   1.4644E+02   0.0000E+00  0.0000
   1.4644E+02   1.5000E+02   0.0000E+00  0.0000

#   sum over                 1.7261E-05
'no. =    1   reg = 116 - 216'
msuc: {\huge [t-cross] in region mesh}
msdr: {\it plotted by \ANGEL \version}
msdl: {\it calculated by \PHITS  3.26}
wt: s(0.7)
\vspace{-3}
  region surface crossing
  area  &=&   1.0000E+00 [cm^2]
e:
 
# Information for Restart Calculation
# This calculation was newly started
# istdev =  2 # 1:Batch variance, 2:History variance
# resc2  = 1.50000000000000000E+09 # Total source weight or Total source weight / maxcas
# resc3  = 1.50000000000000000E+09 # Total history number or Total batch number
# maxcas =   500000000 # History / Batch, only used for istdev=1
# bitrseed = 0000010101110101110110100110011001100101000001100111100100101101 # bit data of rseed
