[ T-Cross ]
    title = [t-cross] in region mesh
     mesh =  reg            # mesh type is region-wise
      reg =    1            # number of crossing regions
      non     r-from    r-to       area
      1       112       212        1.000000    
   e-type =    3            # e-mesh is log given by emin, emax and ne
     emin =  1.0000000E-02  # minimum value of e-mesh points
     emax =   150.0000      # maximum value of e-mesh points
#    edel =  2.4039514E-02  # mesh width of e-mesh points
       ne =    400          # number of e-mesh points
#    data = ( e(i), i = 1, ne + 1 )
#           1.00000E-02  1.02433E-02  1.04925E-02  1.07478E-02  1.10093E-02
#           1.12772E-02  1.15516E-02  1.18326E-02  1.21205E-02  1.24154E-02
#           1.27175E-02  1.30269E-02  1.33439E-02  1.36686E-02  1.40011E-02
#           1.43418E-02  1.46907E-02  1.50482E-02  1.54143E-02  1.57894E-02
#           1.61735E-02  1.65670E-02  1.69701E-02  1.73830E-02  1.78060E-02
#           1.82392E-02  1.86830E-02  1.91375E-02  1.96032E-02  2.00801E-02
#           2.05687E-02  2.10692E-02  2.15818E-02  2.21069E-02  2.26448E-02
#           2.31957E-02  2.37601E-02  2.43382E-02  2.49304E-02  2.55369E-02
#           2.61583E-02  2.67947E-02  2.74467E-02  2.81145E-02  2.87985E-02
#           2.94992E-02  3.02169E-02  3.09521E-02  3.17052E-02  3.24766E-02
#           3.32668E-02  3.40762E-02  3.49053E-02  3.57546E-02  3.66246E-02
#           3.75157E-02  3.84284E-02  3.93634E-02  4.03212E-02  4.13022E-02
#           4.23071E-02  4.33365E-02  4.43909E-02  4.54710E-02  4.65773E-02
#           4.77106E-02  4.88714E-02  5.00605E-02  5.12785E-02  5.25262E-02
#           5.38042E-02  5.51133E-02  5.64542E-02  5.78278E-02  5.92348E-02
#           6.06760E-02  6.21523E-02  6.36645E-02  6.52135E-02  6.68002E-02
#           6.84255E-02  7.00904E-02  7.17957E-02  7.35426E-02  7.53319E-02
#           7.71648E-02  7.90423E-02  8.09655E-02  8.29354E-02  8.49533E-02
#           8.70203E-02  8.91376E-02  9.13064E-02  9.35279E-02  9.58035E-02
#           9.81345E-02  1.00522E-01  1.02968E-01  1.05473E-01  1.08040E-01
#           1.10668E-01  1.13361E-01  1.16119E-01  1.18944E-01  1.21838E-01
#           1.24803E-01  1.27839E-01  1.30950E-01  1.34136E-01  1.37399E-01
#           1.40742E-01  1.44167E-01  1.47675E-01  1.51268E-01  1.54948E-01
#           1.58718E-01  1.62580E-01  1.66535E-01  1.70587E-01  1.74738E-01
#           1.78989E-01  1.83344E-01  1.87805E-01  1.92375E-01  1.97055E-01
#           2.01850E-01  2.06761E-01  2.11792E-01  2.16945E-01  2.22223E-01
#           2.27630E-01  2.33169E-01  2.38842E-01  2.44653E-01  2.50605E-01
#           2.56703E-01  2.62949E-01  2.69346E-01  2.75900E-01  2.82613E-01
#           2.89489E-01  2.96532E-01  3.03747E-01  3.11138E-01  3.18708E-01
#           3.26462E-01  3.34405E-01  3.42542E-01  3.50876E-01  3.59413E-01
#           3.68158E-01  3.77116E-01  3.86291E-01  3.95690E-01  4.05317E-01
#           4.15179E-01  4.25281E-01  4.35628E-01  4.46227E-01  4.57084E-01
#           4.68205E-01  4.79597E-01  4.91266E-01  5.03219E-01  5.15463E-01
#           5.28005E-01  5.40851E-01  5.54011E-01  5.67490E-01  5.81298E-01
#           5.95441E-01  6.09929E-01  6.24769E-01  6.39970E-01  6.55541E-01
#           6.71491E-01  6.87828E-01  7.04564E-01  7.21706E-01  7.39266E-01
#           7.57253E-01  7.75678E-01  7.94551E-01  8.13883E-01  8.33685E-01
#           8.53969E-01  8.74747E-01  8.96030E-01  9.17831E-01  9.40163E-01
#           9.63038E-01  9.86469E-01  1.01047E+00  1.03506E+00  1.06024E+00
#           1.08604E+00  1.11246E+00  1.13953E+00  1.16725E+00  1.19565E+00
#           1.22474E+00  1.25454E+00  1.28507E+00  1.31633E+00  1.34836E+00
#           1.38117E+00  1.41477E+00  1.44920E+00  1.48446E+00  1.52057E+00
#           1.55757E+00  1.59547E+00  1.63429E+00  1.67405E+00  1.71478E+00
#           1.75650E+00  1.79924E+00  1.84302E+00  1.88786E+00  1.93379E+00
#           1.98084E+00  2.02904E+00  2.07841E+00  2.12898E+00  2.18078E+00
#           2.23384E+00  2.28819E+00  2.34386E+00  2.40089E+00  2.45930E+00
#           2.51914E+00  2.58043E+00  2.64322E+00  2.70753E+00  2.77341E+00
#           2.84088E+00  2.91001E+00  2.98081E+00  3.05333E+00  3.12762E+00
#           3.20372E+00  3.28167E+00  3.36152E+00  3.44330E+00  3.52708E+00
#           3.61290E+00  3.70080E+00  3.79085E+00  3.88308E+00  3.97756E+00
#           4.07434E+00  4.17347E+00  4.27501E+00  4.37903E+00  4.48557E+00
#           4.59471E+00  4.70650E+00  4.82102E+00  4.93832E+00  5.05847E+00
#           5.18155E+00  5.30762E+00  5.43676E+00  5.56904E+00  5.70453E+00
#           5.84333E+00  5.98550E+00  6.13114E+00  6.28031E+00  6.43312E+00
#           6.58964E+00  6.74997E+00  6.91420E+00  7.08243E+00  7.25475E+00
#           7.43126E+00  7.61207E+00  7.79728E+00  7.98700E+00  8.18133E+00
#           8.38038E+00  8.58428E+00  8.79315E+00  9.00709E+00  9.22624E+00
#           9.45072E+00  9.68067E+00  9.91620E+00  1.01575E+01  1.04046E+01
#           1.06578E+01  1.09171E+01  1.11827E+01  1.14548E+01  1.17335E+01
#           1.20190E+01  1.23114E+01  1.26109E+01  1.29178E+01  1.32321E+01
#           1.35540E+01  1.38838E+01  1.42216E+01  1.45676E+01  1.49221E+01
#           1.52851E+01  1.56570E+01  1.60380E+01  1.64282E+01  1.68279E+01
#           1.72374E+01  1.76568E+01  1.80864E+01  1.85264E+01  1.89772E+01
#           1.94389E+01  1.99119E+01  2.03963E+01  2.08926E+01  2.14009E+01
#           2.19216E+01  2.24550E+01  2.30014E+01  2.35610E+01  2.41343E+01
#           2.47215E+01  2.53230E+01  2.59391E+01  2.65702E+01  2.72167E+01
#           2.78789E+01  2.85572E+01  2.92520E+01  2.99637E+01  3.06928E+01
#           3.14396E+01  3.22045E+01  3.29881E+01  3.37907E+01  3.46128E+01
#           3.54550E+01  3.63177E+01  3.72013E+01  3.81064E+01  3.90336E+01
#           3.99833E+01  4.09561E+01  4.19526E+01  4.29734E+01  4.40189E+01
#           4.50900E+01  4.61870E+01  4.73108E+01  4.84619E+01  4.96410E+01
#           5.08488E+01  5.20860E+01  5.33533E+01  5.46514E+01  5.59812E+01
#           5.73432E+01  5.87384E+01  6.01676E+01  6.16315E+01  6.31311E+01
#           6.46671E+01  6.62405E+01  6.78522E+01  6.95031E+01  7.11941E+01
#           7.29263E+01  7.47007E+01  7.65182E+01  7.83800E+01  8.02870E+01
#           8.22405E+01  8.42414E+01  8.62911E+01  8.83906E+01  9.05412E+01
#           9.27442E+01  9.50007E+01  9.73122E+01  9.96799E+01  1.02105E+02
#           1.04589E+02  1.07134E+02  1.09741E+02  1.12411E+02  1.15146E+02
#           1.17948E+02  1.20817E+02  1.23757E+02  1.26768E+02  1.29852E+02
#           1.33012E+02  1.36248E+02  1.39563E+02  1.42959E+02  1.46437E+02
#           1.50000E+02
     unit =    2            # unit is [1/cm^2/(MeV/n)/source]
     axis =  eng            # axis of output
     file = detector-13.out  # file name of output for the above axis
   output = f-curr          # surface crossing forward current spectrum
     part =  neutron  
# kf/name :  2112     
#    used :        main (  %)        temp (  %)       total (  %)
#  memory :         414 (  0)           0 (  0)         414 (  0)

#------------------------------------------------------------------------------
#newpage:
#   no. =    1   reg = 112 - 212

x: Energy [MeV/n]
y:  F-Curr [1/cm^2/(MeV/n)/source]         
p: xlog ylog afac(0.8) form(0.9)
h: n            x            y(neutron ),hh0l   n 
#  e-lower      e-upper      neutron     r.err 
   1.0000E-02   1.0243E-02   4.2293E-04  0.0804
   1.0243E-02   1.0493E-02   4.2985E-04  0.0787
   1.0493E-02   1.0748E-02   3.7285E-04  0.0835
   1.0748E-02   1.1009E-02   4.6020E-04  0.0742
   1.1009E-02   1.1277E-02   4.5545E-04  0.0738
   1.1277E-02   1.1552E-02   4.1669E-04  0.0763
   1.1552E-02   1.1833E-02   4.7087E-04  0.0709
   1.1833E-02   1.2121E-02   3.5304E-04  0.0809
   1.2121E-02   1.2415E-02   3.9204E-04  0.0757
   1.2415E-02   1.2718E-02   4.0163E-04  0.0740
   1.2718E-02   1.3027E-02   3.9563E-04  0.0737
   1.3027E-02   1.3344E-02   4.0700E-04  0.0718
   1.3344E-02   1.3669E-02   4.1893E-04  0.0699
   1.3669E-02   1.4001E-02   3.5252E-04  0.0753
   1.4001E-02   1.4342E-02   3.8567E-04  0.0711
   1.4342E-02   1.4691E-02   3.7486E-04  0.0714
   1.4691E-02   1.5048E-02   4.0716E-04  0.0676
   1.5048E-02   1.5414E-02   3.6626E-04  0.0705
   1.5414E-02   1.5789E-02   3.6915E-04  0.0692
   1.5789E-02   1.6174E-02   3.6241E-04  0.0690
   1.6174E-02   1.6567E-02   3.8664E-04  0.0661
   1.6567E-02   1.6970E-02   3.3021E-04  0.0707
   1.6970E-02   1.7383E-02   3.8621E-04  0.0646
   1.7383E-02   1.7806E-02   3.9512E-04  0.0631
   1.7806E-02   1.8239E-02   3.9805E-04  0.0621
   1.8239E-02   1.8683E-02   3.4755E-04  0.0657
   1.8683E-02   1.9138E-02   3.2873E-04  0.0668
   1.9138E-02   1.9603E-02   3.1289E-04  0.0675
   1.9603E-02   2.0080E-02   3.4520E-04  0.0635
   2.0080E-02   2.0569E-02   3.2472E-04  0.0647
   2.0569E-02   2.1069E-02   3.0743E-04  0.0658
   2.1069E-02   2.1582E-02   3.0440E-04  0.0653
   2.1582E-02   2.2107E-02   2.9730E-04  0.0652
   2.2107E-02   2.2645E-02   2.8595E-04  0.0658
   2.2645E-02   2.3196E-02   2.9119E-04  0.0644
   2.3196E-02   2.3760E-02   3.1342E-04  0.0614
   2.3760E-02   2.4338E-02   3.1370E-04  0.0606
   2.4338E-02   2.4930E-02   3.0678E-04  0.0606
   2.4930E-02   2.5537E-02   2.9953E-04  0.0605
   2.5537E-02   2.6158E-02   2.9488E-04  0.0602
   2.6158E-02   2.6795E-02   2.8926E-04  0.0601
   2.6795E-02   2.7447E-02   2.8871E-04  0.0595
   2.7447E-02   2.8114E-02   2.7340E-04  0.0604
   2.8114E-02   2.8799E-02   3.0330E-04  0.0566
   2.8799E-02   2.9499E-02   2.6318E-04  0.0601
   2.9499E-02   3.0217E-02   2.9596E-04  0.0560
   3.0217E-02   3.0952E-02   2.9031E-04  0.0558
   3.0952E-02   3.1705E-02   2.5529E-04  0.0589
   3.1705E-02   3.2477E-02   2.7713E-04  0.0558
   3.2477E-02   3.3267E-02   2.8401E-04  0.0544
   3.3267E-02   3.4076E-02   2.7675E-04  0.0546
   3.4076E-02   3.4905E-02   2.7598E-04  0.0539
   3.4905E-02   3.5755E-02   2.5799E-04  0.0551
   3.5755E-02   3.6625E-02   2.5579E-04  0.0547
   3.6625E-02   3.7516E-02   2.6395E-04  0.0532
   3.7516E-02   3.8428E-02   2.7015E-04  0.0519
   3.8428E-02   3.9363E-02   2.5067E-04  0.0533
   3.9363E-02   4.0321E-02   2.4889E-04  0.0528
   4.0321E-02   4.1302E-02   2.4869E-04  0.0522
   4.1302E-02   4.2307E-02   2.3153E-04  0.0535
   4.2307E-02   4.3337E-02   2.3758E-04  0.0522
   4.3337E-02   4.4391E-02   2.2573E-04  0.0528
   4.4391E-02   4.5471E-02   2.4910E-04  0.0497
   4.5471E-02   4.6577E-02   2.3249E-04  0.0509
   4.6577E-02   4.7711E-02   2.1884E-04  0.0518
   4.7711E-02   4.8871E-02   2.2121E-04  0.0509
   4.8871E-02   5.0061E-02   2.1894E-04  0.0505
   5.0061E-02   5.1279E-02   1.9157E-04  0.0535
   5.1279E-02   5.2526E-02   2.1715E-04  0.0495
   5.2526E-02   5.3804E-02   2.2698E-04  0.0479
   5.3804E-02   5.5113E-02   2.3329E-04  0.0466
   5.5113E-02   5.6454E-02   2.0966E-04  0.0486
   5.6454E-02   5.7828E-02   2.0422E-04  0.0487
   5.7828E-02   5.9235E-02   1.9998E-04  0.0486
   5.9235E-02   6.0676E-02   1.9172E-04  0.0491
   6.0676E-02   6.2152E-02   1.9598E-04  0.0480
   6.2152E-02   6.3665E-02   1.9771E-04  0.0471
   6.3665E-02   6.5214E-02   2.0106E-04  0.0462
   6.5214E-02   6.6800E-02   1.7890E-04  0.0484
   6.6800E-02   6.8426E-02   1.7985E-04  0.0477
   6.8426E-02   7.0090E-02   1.9549E-04  0.0452
   7.0090E-02   7.1796E-02   1.8645E-04  0.0457
   7.1796E-02   7.3543E-02   1.9494E-04  0.0442
   7.3543E-02   7.5332E-02   1.7605E-04  0.0459
   7.5332E-02   7.7165E-02   1.8322E-04  0.0445
   7.7165E-02   7.9042E-02   1.7025E-04  0.0456
   7.9042E-02   8.0965E-02   1.8527E-04  0.0432
   8.0965E-02   8.2935E-02   1.6936E-04  0.0447
   8.2935E-02   8.4953E-02   1.7155E-04  0.0438
   8.4953E-02   8.7020E-02   1.5726E-04  0.0452
   8.7020E-02   8.9138E-02   1.5479E-04  0.0450
   8.9138E-02   9.1306E-02   1.6731E-04  0.0428
   9.1306E-02   9.3528E-02   1.4830E-04  0.0449
   9.3528E-02   9.5804E-02   1.4592E-04  0.0447
   9.5804E-02   9.8134E-02   1.4209E-04  0.0448
   9.8134E-02   1.0052E-01   1.4378E-04  0.0440
   1.0052E-01   1.0297E-01   1.3542E-04  0.0448
   1.0297E-01   1.0547E-01   1.3268E-04  0.0447
   1.0547E-01   1.0804E-01   1.4049E-04  0.0430
   1.0804E-01   1.1067E-01   1.3642E-04  0.0431
   1.1067E-01   1.1336E-01   1.4127E-04  0.0418
   1.1336E-01   1.1612E-01   1.2600E-04  0.0437
   1.1612E-01   1.1894E-01   1.2851E-04  0.0428
   1.1894E-01   1.2184E-01   1.3794E-04  0.0408
   1.2184E-01   1.2480E-01   1.2914E-04  0.0417
   1.2480E-01   1.2784E-01   1.3031E-04  0.0410
   1.2784E-01   1.3095E-01   1.1182E-04  0.0437
   1.3095E-01   1.3414E-01   1.2829E-04  0.0403
   1.3414E-01   1.3740E-01   1.2344E-04  0.0406
   1.3740E-01   1.4074E-01   1.1606E-04  0.0414
   1.4074E-01   1.4417E-01   1.1257E-04  0.0415
   1.4417E-01   1.4767E-01   1.1555E-04  0.0405
   1.4767E-01   1.5127E-01   1.1429E-04  0.0402
   1.5127E-01   1.5495E-01   1.0852E-04  0.0408
   1.5495E-01   1.5872E-01   1.0774E-04  0.0405
   1.5872E-01   1.6258E-01   1.0340E-04  0.0408
   1.6258E-01   1.6654E-01   9.9146E-05  0.0412
   1.6654E-01   1.7059E-01   9.6765E-05  0.0411
   1.7059E-01   1.7474E-01   8.6673E-05  0.0430
   1.7474E-01   1.7899E-01   9.2384E-05  0.0411
   1.7899E-01   1.8334E-01   9.4396E-05  0.0402
   1.8334E-01   1.8781E-01   8.8662E-05  0.0410
   1.8781E-01   1.9237E-01   8.7000E-05  0.0409
   1.9237E-01   1.9706E-01   8.4699E-05  0.0409
   1.9706E-01   2.0185E-01   8.5936E-05  0.0402
   2.0185E-01   2.0676E-01   8.4866E-05  0.0399
   2.0676E-01   2.1179E-01   8.9696E-05  0.0384
   2.1179E-01   2.1694E-01   9.1204E-05  0.0376
   2.1694E-01   2.2222E-01   9.6281E-05  0.0362
   2.2222E-01   2.2763E-01   9.4361E-05  0.0361
   2.2763E-01   2.3317E-01   9.7627E-05  0.0351
   2.3317E-01   2.3884E-01   1.0049E-04  0.0341
   2.3884E-01   2.4465E-01   1.0652E-04  0.0328
   2.4465E-01   2.5061E-01   1.0957E-04  0.0319
   2.5061E-01   2.5670E-01   1.0976E-04  0.0315
   2.5670E-01   2.6295E-01   1.1362E-04  0.0306
   2.6295E-01   2.6935E-01   1.1118E-04  0.0306
   2.6935E-01   2.7590E-01   1.1291E-04  0.0300
   2.7590E-01   2.8261E-01   1.1895E-04  0.0289
   2.8261E-01   2.8949E-01   1.2393E-04  0.0279
   2.8949E-01   2.9653E-01   1.2054E-04  0.0280
   2.9653E-01   3.0375E-01   1.2269E-04  0.0274
   3.0375E-01   3.1114E-01   1.2160E-04  0.0272
   3.1114E-01   3.1871E-01   1.3313E-04  0.0257
   3.1871E-01   3.2646E-01   1.3102E-04  0.0256
   3.2646E-01   3.3441E-01   1.3828E-04  0.0246
   3.3441E-01   3.4254E-01   1.3778E-04  0.0243
   3.4254E-01   3.5088E-01   1.4158E-04  0.0237
   3.5088E-01   3.5941E-01   1.4619E-04  0.0231
   3.5941E-01   3.6816E-01   1.4688E-04  0.0227
   3.6816E-01   3.7712E-01   1.4926E-04  0.0223
   3.7712E-01   3.8629E-01   1.5129E-04  0.0219
   3.8629E-01   3.9569E-01   1.5700E-04  0.0212
   3.9569E-01   4.0532E-01   1.5818E-04  0.0209
   4.0532E-01   4.1518E-01   1.5232E-04  0.0210
   4.1518E-01   4.2528E-01   1.6308E-04  0.0201
   4.2528E-01   4.3563E-01   1.6802E-04  0.0195
   4.3563E-01   4.4623E-01   1.6377E-04  0.0196
   4.4623E-01   4.5708E-01   1.6578E-04  0.0192
   4.5708E-01   4.6821E-01   1.7307E-04  0.0186
   4.6821E-01   4.7960E-01   1.7470E-04  0.0183
   4.7960E-01   4.9127E-01   1.7885E-04  0.0178
   4.9127E-01   5.0322E-01   1.7545E-04  0.0178
   5.0322E-01   5.1546E-01   1.7845E-04  0.0174
   5.1546E-01   5.2800E-01   1.8360E-04  0.0170
   5.2800E-01   5.4085E-01   1.7916E-04  0.0170
   5.4085E-01   5.5401E-01   1.8234E-04  0.0166
   5.5401E-01   5.6749E-01   1.8376E-04  0.0164
   5.6749E-01   5.8130E-01   1.8398E-04  0.0162
   5.8130E-01   5.9544E-01   1.9395E-04  0.0156
   5.9544E-01   6.0993E-01   1.9073E-04  0.0155
   6.0993E-01   6.2477E-01   1.9409E-04  0.0152
   6.2477E-01   6.3997E-01   1.9208E-04  0.0151
   6.3997E-01   6.5554E-01   2.0077E-04  0.0146
   6.5554E-01   6.7149E-01   2.0471E-04  0.0143
   6.7149E-01   6.8783E-01   1.9879E-04  0.0143
   6.8783E-01   7.0456E-01   2.0409E-04  0.0139
   7.0456E-01   7.2171E-01   2.0086E-04  0.0139
   7.2171E-01   7.3927E-01   1.9996E-04  0.0137
   7.3927E-01   7.5725E-01   1.9838E-04  0.0136
   7.5725E-01   7.7568E-01   2.0045E-04  0.0134
   7.7568E-01   7.9455E-01   2.0264E-04  0.0132
   7.9455E-01   8.1388E-01   2.0012E-04  0.0131
   8.1388E-01   8.3368E-01   2.0262E-04  0.0129
   8.3368E-01   8.5397E-01   1.9937E-04  0.0128
   8.5397E-01   8.7475E-01   1.9697E-04  0.0127
   8.7475E-01   8.9603E-01   1.9503E-04  0.0126
   8.9603E-01   9.1783E-01   1.9845E-04  0.0124
   9.1783E-01   9.4016E-01   1.9682E-04  0.0123
   9.4016E-01   9.6304E-01   1.8947E-04  0.0124
   9.6304E-01   9.8647E-01   1.9059E-04  0.0122
   9.8647E-01   1.0105E+00   1.8564E-04  0.0122
   1.0105E+00   1.0351E+00   1.8798E-04  0.0120
   1.0351E+00   1.0602E+00   1.9302E-04  0.0117
   1.0602E+00   1.0860E+00   1.9441E-04  0.0115
   1.0860E+00   1.1125E+00   1.9891E-04  0.0112
   1.1125E+00   1.1395E+00   1.9881E-04  0.0111
   1.1395E+00   1.1673E+00   2.0839E-04  0.0107
   1.1673E+00   1.1957E+00   2.1305E-04  0.0105
   1.1957E+00   1.2247E+00   2.1575E-04  0.0103
   1.2247E+00   1.2545E+00   2.2182E-04  0.0100
   1.2545E+00   1.2851E+00   2.2821E-04  0.0098
   1.2851E+00   1.3163E+00   2.2788E-04  0.0096
   1.3163E+00   1.3484E+00   2.3361E-04  0.0094
   1.3484E+00   1.3812E+00   2.3761E-04  0.0092
   1.3812E+00   1.4148E+00   2.4877E-04  0.0089
   1.4148E+00   1.4492E+00   2.5089E-04  0.0088
   1.4492E+00   1.4845E+00   2.5336E-04  0.0086
   1.4845E+00   1.5206E+00   2.5611E-04  0.0085
   1.5206E+00   1.5576E+00   2.5624E-04  0.0084
   1.5576E+00   1.5955E+00   2.6041E-04  0.0082
   1.5955E+00   1.6343E+00   2.6537E-04  0.0080
   1.6343E+00   1.6741E+00   2.7238E-04  0.0078
   1.6741E+00   1.7148E+00   2.7628E-04  0.0077
   1.7148E+00   1.7565E+00   2.7853E-04  0.0075
   1.7565E+00   1.7992E+00   2.8545E-04  0.0074
   1.7992E+00   1.8430E+00   2.8753E-04  0.0073
   1.8430E+00   1.8879E+00   2.9222E-04  0.0071
   1.8879E+00   1.9338E+00   2.9095E-04  0.0070
   1.9338E+00   1.9808E+00   2.9569E-04  0.0069
   1.9808E+00   2.0290E+00   3.0515E-04  0.0067
   2.0290E+00   2.0784E+00   3.1061E-04  0.0066
   2.0784E+00   2.1290E+00   3.0489E-04  0.0066
   2.1290E+00   2.1808E+00   3.0833E-04  0.0064
   2.1808E+00   2.2338E+00   3.0916E-04  0.0064
   2.2338E+00   2.2882E+00   3.0553E-04  0.0063
   2.2882E+00   2.3439E+00   3.1594E-04  0.0061
   2.3439E+00   2.4009E+00   3.2016E-04  0.0060
   2.4009E+00   2.4593E+00   3.2212E-04  0.0059
   2.4593E+00   2.5191E+00   3.2273E-04  0.0059
   2.5191E+00   2.5804E+00   3.2218E-04  0.0058
   2.5804E+00   2.6432E+00   3.2677E-04  0.0057
   2.6432E+00   2.7075E+00   3.2556E-04  0.0056
   2.7075E+00   2.7734E+00   3.2783E-04  0.0055
   2.7734E+00   2.8409E+00   3.2581E-04  0.0055
   2.8409E+00   2.9100E+00   3.2896E-04  0.0054
   2.9100E+00   2.9808E+00   3.2853E-04  0.0053
   2.9808E+00   3.0533E+00   3.3281E-04  0.0052
   3.0533E+00   3.1276E+00   3.2996E-04  0.0052
   3.1276E+00   3.2037E+00   3.2818E-04  0.0051
   3.2037E+00   3.2817E+00   3.2438E-04  0.0051
   3.2817E+00   3.3615E+00   3.2624E-04  0.0050
   3.3615E+00   3.4433E+00   3.2139E-04  0.0050
   3.4433E+00   3.5271E+00   3.2400E-04  0.0049
   3.5271E+00   3.6129E+00   3.2054E-04  0.0049
   3.6129E+00   3.7008E+00   3.1618E-04  0.0049
   3.7008E+00   3.7908E+00   3.1410E-04  0.0048
   3.7908E+00   3.8831E+00   3.1201E-04  0.0048
   3.8831E+00   3.9776E+00   3.1056E-04  0.0048
   3.9776E+00   4.0743E+00   3.0990E-04  0.0047
   4.0743E+00   4.1735E+00   3.0823E-04  0.0047
   4.1735E+00   4.2750E+00   2.9924E-04  0.0047
   4.2750E+00   4.3790E+00   2.9827E-04  0.0046
   4.3790E+00   4.4856E+00   2.9866E-04  0.0046
   4.4856E+00   4.5947E+00   2.9401E-04  0.0045
   4.5947E+00   4.7065E+00   2.9075E-04  0.0045
   4.7065E+00   4.8210E+00   2.8988E-04  0.0045
   4.8210E+00   4.9383E+00   2.8452E-04  0.0045
   4.9383E+00   5.0585E+00   2.8047E-04  0.0044
   5.0585E+00   5.1815E+00   2.7599E-04  0.0044
   5.1815E+00   5.3076E+00   2.7148E-04  0.0044
   5.3076E+00   5.4368E+00   2.6557E-04  0.0044
   5.4368E+00   5.5690E+00   2.5995E-04  0.0044
   5.5690E+00   5.7045E+00   2.5288E-04  0.0044
   5.7045E+00   5.8433E+00   2.4867E-04  0.0044
   5.8433E+00   5.9855E+00   2.4266E-04  0.0044
   5.9855E+00   6.1311E+00   2.3907E-04  0.0044
   6.1311E+00   6.2803E+00   2.3249E-04  0.0044
   6.2803E+00   6.4331E+00   2.2649E-04  0.0044
   6.4331E+00   6.5896E+00   2.2066E-04  0.0044
   6.5896E+00   6.7500E+00   2.1534E-04  0.0044
   6.7500E+00   6.9142E+00   2.1217E-04  0.0044
   6.9142E+00   7.0824E+00   2.0398E-04  0.0044
   7.0824E+00   7.2548E+00   1.9831E-04  0.0044
   7.2548E+00   7.4313E+00   1.9282E-04  0.0044
   7.4313E+00   7.6121E+00   1.8525E-04  0.0045
   7.6121E+00   7.7973E+00   1.8048E-04  0.0045
   7.7973E+00   7.9870E+00   1.7393E-04  0.0045
   7.9870E+00   8.1813E+00   1.6751E-04  0.0045
   8.1813E+00   8.3804E+00   1.6076E-04  0.0046
   8.3804E+00   8.5843E+00   1.5591E-04  0.0046
   8.5843E+00   8.7931E+00   1.4938E-04  0.0046
   8.7931E+00   9.0071E+00   1.4487E-04  0.0046
   9.0071E+00   9.2262E+00   1.3980E-04  0.0047
   9.2262E+00   9.4507E+00   1.3483E-04  0.0047
   9.4507E+00   9.6807E+00   1.2936E-04  0.0047
   9.6807E+00   9.9162E+00   1.2573E-04  0.0047
   9.9162E+00   1.0157E+01   1.2020E-04  0.0048
   1.0157E+01   1.0405E+01   1.1634E-04  0.0048
   1.0405E+01   1.0658E+01   1.1295E-04  0.0048
   1.0658E+01   1.0917E+01   1.0910E-04  0.0049
   1.0917E+01   1.1183E+01   1.0484E-04  0.0049
   1.1183E+01   1.1455E+01   1.0105E-04  0.0049
   1.1455E+01   1.1733E+01   9.7153E-05  0.0050
   1.1733E+01   1.2019E+01   9.4159E-05  0.0050
   1.2019E+01   1.2311E+01   8.9248E-05  0.0051
   1.2311E+01   1.2611E+01   8.6427E-05  0.0051
   1.2611E+01   1.2918E+01   8.2425E-05  0.0051
   1.2918E+01   1.3232E+01   7.9955E-05  0.0051
   1.3232E+01   1.3554E+01   7.6162E-05  0.0052
   1.3554E+01   1.3884E+01   7.3051E-05  0.0053
   1.3884E+01   1.4222E+01   6.9902E-05  0.0053
   1.4222E+01   1.4568E+01   6.6704E-05  0.0054
   1.4568E+01   1.4922E+01   6.3245E-05  0.0055
   1.4922E+01   1.5285E+01   6.0702E-05  0.0055
   1.5285E+01   1.5657E+01   5.8272E-05  0.0055
   1.5657E+01   1.6038E+01   5.5262E-05  0.0056
   1.6038E+01   1.6428E+01   5.2527E-05  0.0057
   1.6428E+01   1.6828E+01   5.0235E-05  0.0058
   1.6828E+01   1.7237E+01   4.8080E-05  0.0058
   1.7237E+01   1.7657E+01   4.5358E-05  0.0059
   1.7657E+01   1.8086E+01   4.3238E-05  0.0060
   1.8086E+01   1.8526E+01   4.1417E-05  0.0060
   1.8526E+01   1.8977E+01   3.9001E-05  0.0062
   1.8977E+01   1.9439E+01   3.7547E-05  0.0062
   1.9439E+01   1.9912E+01   3.6596E-05  0.0062
   1.9912E+01   2.0396E+01   3.5615E-05  0.0062
   2.0396E+01   2.0893E+01   3.4103E-05  0.0063
   2.0893E+01   2.1401E+01   3.1591E-05  0.0064
   2.1401E+01   2.1922E+01   3.0272E-05  0.0065
   2.1922E+01   2.2455E+01   2.7981E-05  0.0067
   2.2455E+01   2.3001E+01   2.6753E-05  0.0068
   2.3001E+01   2.3561E+01   2.4716E-05  0.0069
   2.3561E+01   2.4134E+01   2.3415E-05  0.0070
   2.4134E+01   2.4721E+01   2.1773E-05  0.0072
   2.4721E+01   2.5323E+01   2.0346E-05  0.0074
   2.5323E+01   2.5939E+01   1.8829E-05  0.0076
   2.5939E+01   2.6570E+01   1.7461E-05  0.0078
   2.6570E+01   2.7217E+01   1.6195E-05  0.0080
   2.7217E+01   2.7879E+01   1.5105E-05  0.0082
   2.7879E+01   2.8557E+01   1.3993E-05  0.0084
   2.8557E+01   2.9252E+01   1.2593E-05  0.0087
   2.9252E+01   2.9964E+01   1.1407E-05  0.0091
   2.9964E+01   3.0693E+01   1.0437E-05  0.0094
   3.0693E+01   3.1440E+01   9.6066E-06  0.0096
   3.1440E+01   3.2205E+01   8.8991E-06  0.0099
   3.2205E+01   3.2988E+01   7.8820E-06  0.0104
   3.2988E+01   3.3791E+01   7.1166E-06  0.0108
   3.3791E+01   3.4613E+01   6.3711E-06  0.0113
   3.4613E+01   3.5455E+01   5.6767E-06  0.0118
   3.5455E+01   3.6318E+01   5.0983E-06  0.0123
   3.6318E+01   3.7201E+01   4.6452E-06  0.0127
   3.7201E+01   3.8106E+01   4.0937E-06  0.0134
   3.8106E+01   3.9034E+01   3.6376E-06  0.0141
   3.9034E+01   3.9983E+01   3.1715E-06  0.0149
   3.9983E+01   4.0956E+01   2.8460E-06  0.0155
   4.0956E+01   4.1953E+01   2.5075E-06  0.0163
   4.1953E+01   4.2973E+01   2.2193E-06  0.0172
   4.2973E+01   4.4019E+01   1.9371E-06  0.0181
   4.4019E+01   4.5090E+01   1.6352E-06  0.0195
   4.5090E+01   4.6187E+01   1.3861E-06  0.0209
   4.6187E+01   4.7311E+01   1.2701E-06  0.0216
   4.7311E+01   4.8462E+01   1.1068E-06  0.0229
   4.8462E+01   4.9641E+01   9.9227E-07  0.0239
   4.9641E+01   5.0849E+01   8.7486E-07  0.0251
   5.0849E+01   5.2086E+01   7.1991E-07  0.0274
   5.2086E+01   5.3353E+01   6.4284E-07  0.0286
   5.3353E+01   5.4651E+01   5.4643E-07  0.0307
   5.4651E+01   5.5981E+01   4.6075E-07  0.0330
   5.5981E+01   5.7343E+01   3.5143E-07  0.0373
   5.7343E+01   5.8738E+01   3.0915E-07  0.0393
   5.8738E+01   6.0168E+01   2.4303E-07  0.0438
   6.0168E+01   6.1632E+01   1.9309E-07  0.0486
   6.1632E+01   6.3131E+01   1.7516E-07  0.0504
   6.3131E+01   6.4667E+01   1.2804E-07  0.0582
   6.4667E+01   6.6240E+01   8.6861E-08  0.0698
   6.6240E+01   6.7852E+01   5.9979E-08  0.0830
   6.7852E+01   6.9503E+01   3.7959E-08  0.1031
   6.9503E+01   7.1194E+01   2.2077E-08  0.1336
   7.1194E+01   7.2926E+01   1.8474E-08  0.1443
   7.2926E+01   7.4701E+01   1.2023E-08  0.1768
   7.4701E+01   7.6518E+01   4.4016E-09  0.2887
   7.6518E+01   7.8380E+01   0.0000E+00  0.0000
   7.8380E+01   8.0287E+01   3.4958E-10  1.0000
   8.0287E+01   8.2240E+01   0.0000E+00  0.0000
   8.2240E+01   8.4241E+01   0.0000E+00  0.0000
   8.4241E+01   8.6291E+01   0.0000E+00  0.0000
   8.6291E+01   8.8391E+01   0.0000E+00  0.0000
   8.8391E+01   9.0541E+01   0.0000E+00  0.0000
   9.0541E+01   9.2744E+01   0.0000E+00  0.0000
   9.2744E+01   9.5001E+01   0.0000E+00  0.0000
   9.5001E+01   9.7312E+01   0.0000E+00  0.0000
   9.7312E+01   9.9680E+01   0.0000E+00  0.0000
   9.9680E+01   1.0211E+02   0.0000E+00  0.0000
   1.0211E+02   1.0459E+02   0.0000E+00  0.0000
   1.0459E+02   1.0713E+02   0.0000E+00  0.0000
   1.0713E+02   1.0974E+02   0.0000E+00  0.0000
   1.0974E+02   1.1241E+02   0.0000E+00  0.0000
   1.1241E+02   1.1515E+02   0.0000E+00  0.0000
   1.1515E+02   1.1795E+02   0.0000E+00  0.0000
   1.1795E+02   1.2082E+02   0.0000E+00  0.0000
   1.2082E+02   1.2376E+02   0.0000E+00  0.0000
   1.2376E+02   1.2677E+02   0.0000E+00  0.0000
   1.2677E+02   1.2985E+02   0.0000E+00  0.0000
   1.2985E+02   1.3301E+02   0.0000E+00  0.0000
   1.3301E+02   1.3625E+02   0.0000E+00  0.0000
   1.3625E+02   1.3956E+02   0.0000E+00  0.0000
   1.3956E+02   1.4296E+02   0.0000E+00  0.0000
   1.4296E+02   1.4644E+02   0.0000E+00  0.0000
   1.4644E+02   1.5000E+02   0.0000E+00  0.0000

#   sum over                 2.1886E-05
'no. =    1   reg = 112 - 212'
msuc: {\huge [t-cross] in region mesh}
msdr: {\it plotted by \ANGEL \version}
msdl: {\it calculated by \PHITS  3.26}
wt: s(0.7)
\vspace{-3}
  region surface crossing
  area  &=&   1.0000E+00 [cm^2]
e:
 
# Information for Restart Calculation
# This calculation was newly started
# istdev =  2 # 1:Batch variance, 2:History variance
# resc2  = 1.50000000000000000E+09 # Total source weight or Total source weight / maxcas
# resc3  = 1.50000000000000000E+09 # Total history number or Total batch number
# maxcas =   500000000 # History / Batch, only used for istdev=1
# bitrseed = 0000010101110101110110100110011001100101000001100111100100101101 # bit data of rseed
