[ T-Cross ]
    title = [t-cross] in region mesh
     mesh =  reg            # mesh type is region-wise
      reg =    1            # number of crossing regions
      non     r-from    r-to       area
      1       126       226        1.000000    
   e-type =    3            # e-mesh is log given by emin, emax and ne
     emin =  1.0000000E-02  # minimum value of e-mesh points
     emax =   150.0000      # maximum value of e-mesh points
#    edel =  2.4039514E-02  # mesh width of e-mesh points
       ne =    400          # number of e-mesh points
#    data = ( e(i), i = 1, ne + 1 )
#           1.00000E-02  1.02433E-02  1.04925E-02  1.07478E-02  1.10093E-02
#           1.12772E-02  1.15516E-02  1.18326E-02  1.21205E-02  1.24154E-02
#           1.27175E-02  1.30269E-02  1.33439E-02  1.36686E-02  1.40011E-02
#           1.43418E-02  1.46907E-02  1.50482E-02  1.54143E-02  1.57894E-02
#           1.61735E-02  1.65670E-02  1.69701E-02  1.73830E-02  1.78060E-02
#           1.82392E-02  1.86830E-02  1.91375E-02  1.96032E-02  2.00801E-02
#           2.05687E-02  2.10692E-02  2.15818E-02  2.21069E-02  2.26448E-02
#           2.31957E-02  2.37601E-02  2.43382E-02  2.49304E-02  2.55369E-02
#           2.61583E-02  2.67947E-02  2.74467E-02  2.81145E-02  2.87985E-02
#           2.94992E-02  3.02169E-02  3.09521E-02  3.17052E-02  3.24766E-02
#           3.32668E-02  3.40762E-02  3.49053E-02  3.57546E-02  3.66246E-02
#           3.75157E-02  3.84284E-02  3.93634E-02  4.03212E-02  4.13022E-02
#           4.23071E-02  4.33365E-02  4.43909E-02  4.54710E-02  4.65773E-02
#           4.77106E-02  4.88714E-02  5.00605E-02  5.12785E-02  5.25262E-02
#           5.38042E-02  5.51133E-02  5.64542E-02  5.78278E-02  5.92348E-02
#           6.06760E-02  6.21523E-02  6.36645E-02  6.52135E-02  6.68002E-02
#           6.84255E-02  7.00904E-02  7.17957E-02  7.35426E-02  7.53319E-02
#           7.71648E-02  7.90423E-02  8.09655E-02  8.29354E-02  8.49533E-02
#           8.70203E-02  8.91376E-02  9.13064E-02  9.35279E-02  9.58035E-02
#           9.81345E-02  1.00522E-01  1.02968E-01  1.05473E-01  1.08040E-01
#           1.10668E-01  1.13361E-01  1.16119E-01  1.18944E-01  1.21838E-01
#           1.24803E-01  1.27839E-01  1.30950E-01  1.34136E-01  1.37399E-01
#           1.40742E-01  1.44167E-01  1.47675E-01  1.51268E-01  1.54948E-01
#           1.58718E-01  1.62580E-01  1.66535E-01  1.70587E-01  1.74738E-01
#           1.78989E-01  1.83344E-01  1.87805E-01  1.92375E-01  1.97055E-01
#           2.01850E-01  2.06761E-01  2.11792E-01  2.16945E-01  2.22223E-01
#           2.27630E-01  2.33169E-01  2.38842E-01  2.44653E-01  2.50605E-01
#           2.56703E-01  2.62949E-01  2.69346E-01  2.75900E-01  2.82613E-01
#           2.89489E-01  2.96532E-01  3.03747E-01  3.11138E-01  3.18708E-01
#           3.26462E-01  3.34405E-01  3.42542E-01  3.50876E-01  3.59413E-01
#           3.68158E-01  3.77116E-01  3.86291E-01  3.95690E-01  4.05317E-01
#           4.15179E-01  4.25281E-01  4.35628E-01  4.46227E-01  4.57084E-01
#           4.68205E-01  4.79597E-01  4.91266E-01  5.03219E-01  5.15463E-01
#           5.28005E-01  5.40851E-01  5.54011E-01  5.67490E-01  5.81298E-01
#           5.95441E-01  6.09929E-01  6.24769E-01  6.39970E-01  6.55541E-01
#           6.71491E-01  6.87828E-01  7.04564E-01  7.21706E-01  7.39266E-01
#           7.57253E-01  7.75678E-01  7.94551E-01  8.13883E-01  8.33685E-01
#           8.53969E-01  8.74747E-01  8.96030E-01  9.17831E-01  9.40163E-01
#           9.63038E-01  9.86469E-01  1.01047E+00  1.03506E+00  1.06024E+00
#           1.08604E+00  1.11246E+00  1.13953E+00  1.16725E+00  1.19565E+00
#           1.22474E+00  1.25454E+00  1.28507E+00  1.31633E+00  1.34836E+00
#           1.38117E+00  1.41477E+00  1.44920E+00  1.48446E+00  1.52057E+00
#           1.55757E+00  1.59547E+00  1.63429E+00  1.67405E+00  1.71478E+00
#           1.75650E+00  1.79924E+00  1.84302E+00  1.88786E+00  1.93379E+00
#           1.98084E+00  2.02904E+00  2.07841E+00  2.12898E+00  2.18078E+00
#           2.23384E+00  2.28819E+00  2.34386E+00  2.40089E+00  2.45930E+00
#           2.51914E+00  2.58043E+00  2.64322E+00  2.70753E+00  2.77341E+00
#           2.84088E+00  2.91001E+00  2.98081E+00  3.05333E+00  3.12762E+00
#           3.20372E+00  3.28167E+00  3.36152E+00  3.44330E+00  3.52708E+00
#           3.61290E+00  3.70080E+00  3.79085E+00  3.88308E+00  3.97756E+00
#           4.07434E+00  4.17347E+00  4.27501E+00  4.37903E+00  4.48557E+00
#           4.59471E+00  4.70650E+00  4.82102E+00  4.93832E+00  5.05847E+00
#           5.18155E+00  5.30762E+00  5.43676E+00  5.56904E+00  5.70453E+00
#           5.84333E+00  5.98550E+00  6.13114E+00  6.28031E+00  6.43312E+00
#           6.58964E+00  6.74997E+00  6.91420E+00  7.08243E+00  7.25475E+00
#           7.43126E+00  7.61207E+00  7.79728E+00  7.98700E+00  8.18133E+00
#           8.38038E+00  8.58428E+00  8.79315E+00  9.00709E+00  9.22624E+00
#           9.45072E+00  9.68067E+00  9.91620E+00  1.01575E+01  1.04046E+01
#           1.06578E+01  1.09171E+01  1.11827E+01  1.14548E+01  1.17335E+01
#           1.20190E+01  1.23114E+01  1.26109E+01  1.29178E+01  1.32321E+01
#           1.35540E+01  1.38838E+01  1.42216E+01  1.45676E+01  1.49221E+01
#           1.52851E+01  1.56570E+01  1.60380E+01  1.64282E+01  1.68279E+01
#           1.72374E+01  1.76568E+01  1.80864E+01  1.85264E+01  1.89772E+01
#           1.94389E+01  1.99119E+01  2.03963E+01  2.08926E+01  2.14009E+01
#           2.19216E+01  2.24550E+01  2.30014E+01  2.35610E+01  2.41343E+01
#           2.47215E+01  2.53230E+01  2.59391E+01  2.65702E+01  2.72167E+01
#           2.78789E+01  2.85572E+01  2.92520E+01  2.99637E+01  3.06928E+01
#           3.14396E+01  3.22045E+01  3.29881E+01  3.37907E+01  3.46128E+01
#           3.54550E+01  3.63177E+01  3.72013E+01  3.81064E+01  3.90336E+01
#           3.99833E+01  4.09561E+01  4.19526E+01  4.29734E+01  4.40189E+01
#           4.50900E+01  4.61870E+01  4.73108E+01  4.84619E+01  4.96410E+01
#           5.08488E+01  5.20860E+01  5.33533E+01  5.46514E+01  5.59812E+01
#           5.73432E+01  5.87384E+01  6.01676E+01  6.16315E+01  6.31311E+01
#           6.46671E+01  6.62405E+01  6.78522E+01  6.95031E+01  7.11941E+01
#           7.29263E+01  7.47007E+01  7.65182E+01  7.83800E+01  8.02870E+01
#           8.22405E+01  8.42414E+01  8.62911E+01  8.83906E+01  9.05412E+01
#           9.27442E+01  9.50007E+01  9.73122E+01  9.96799E+01  1.02105E+02
#           1.04589E+02  1.07134E+02  1.09741E+02  1.12411E+02  1.15146E+02
#           1.17948E+02  1.20817E+02  1.23757E+02  1.26768E+02  1.29852E+02
#           1.33012E+02  1.36248E+02  1.39563E+02  1.42959E+02  1.46437E+02
#           1.50000E+02
     unit =    2            # unit is [1/cm^2/(MeV/n)/source]
     axis =  eng            # axis of output
     file = detector-27.out  # file name of output for the above axis
   output = f-curr          # surface crossing forward current spectrum
     part =  neutron  
# kf/name :  2112     
#    used :        main (  %)        temp (  %)       total (  %)
#  memory :         414 (  0)           0 (  0)         414 (  0)

#------------------------------------------------------------------------------
#newpage:
#   no. =    1   reg = 126 - 226

x: Energy [MeV/n]
y:  F-Curr [1/cm^2/(MeV/n)/source]         
p: xlog ylog afac(0.8) form(0.9)
h: n            x            y(neutron ),hh0l   n 
#  e-lower      e-upper      neutron     r.err 
   1.0000E-02   1.0243E-02   2.0604E-04  0.0628
   1.0243E-02   1.0493E-02   2.1257E-04  0.0610
   1.0493E-02   1.0748E-02   1.9286E-04  0.0634
   1.0748E-02   1.1009E-02   1.9969E-04  0.0616
   1.1009E-02   1.1277E-02   1.8008E-04  0.0642
   1.1277E-02   1.1552E-02   1.7583E-04  0.0641
   1.1552E-02   1.1833E-02   1.6717E-04  0.0648
   1.1833E-02   1.2121E-02   1.6193E-04  0.0652
   1.2121E-02   1.2415E-02   1.7978E-04  0.0612
   1.2415E-02   1.2718E-02   1.8138E-04  0.0600
   1.2718E-02   1.3027E-02   1.5731E-04  0.0638
   1.3027E-02   1.3344E-02   1.8333E-04  0.0585
   1.3344E-02   1.3669E-02   1.5790E-04  0.0621
   1.3669E-02   1.4001E-02   1.6507E-04  0.0600
   1.4001E-02   1.4342E-02   1.6103E-04  0.0600
   1.4342E-02   1.4691E-02   1.5005E-04  0.0616
   1.4691E-02   1.5048E-02   1.4528E-04  0.0617
   1.5048E-02   1.5414E-02   1.3443E-04  0.0633
   1.5414E-02   1.5789E-02   1.3061E-04  0.0635
   1.5789E-02   1.6174E-02   1.4405E-04  0.0598
   1.6174E-02   1.6567E-02   1.2265E-04  0.0641
   1.6567E-02   1.6970E-02   1.3515E-04  0.0603
   1.6970E-02   1.7383E-02   1.4227E-04  0.0580
   1.7383E-02   1.7806E-02   1.1798E-04  0.0628
   1.7806E-02   1.8239E-02   1.2139E-04  0.0614
   1.8239E-02   1.8683E-02   1.2384E-04  0.0600
   1.8683E-02   1.9138E-02   1.0646E-04  0.0639
   1.9138E-02   1.9603E-02   1.1550E-04  0.0606
   1.9603E-02   2.0080E-02   1.0957E-04  0.0616
   2.0080E-02   2.0569E-02   1.0781E-04  0.0614
   2.0569E-02   2.1069E-02   1.1421E-04  0.0588
   2.1069E-02   2.1582E-02   1.0367E-04  0.0611
   2.1582E-02   2.2107E-02   1.0160E-04  0.0610
   2.2107E-02   2.2645E-02   9.7938E-05  0.0613
   2.2645E-02   2.3196E-02   1.0234E-04  0.0593
   2.3196E-02   2.3760E-02   1.0276E-04  0.0586
   2.3760E-02   2.4338E-02   9.5553E-05  0.0598
   2.4338E-02   2.4930E-02   9.2808E-05  0.0601
   2.4930E-02   2.5537E-02   9.1410E-05  0.0597
   2.5537E-02   2.6158E-02   8.8519E-05  0.0600
   2.6158E-02   2.6795E-02   8.8540E-05  0.0592
   2.6795E-02   2.7447E-02   9.1751E-05  0.0576
   2.7447E-02   2.8114E-02   8.6808E-05  0.0586
   2.8114E-02   2.8799E-02   8.3931E-05  0.0587
   2.8799E-02   2.9499E-02   7.2083E-05  0.0626
   2.9499E-02   3.0217E-02   8.1093E-05  0.0583
   3.0217E-02   3.0952E-02   7.8711E-05  0.0585
   3.0952E-02   3.1705E-02   7.5060E-05  0.0592
   3.1705E-02   3.2477E-02   7.0680E-05  0.0603
   3.2477E-02   3.3267E-02   7.1382E-05  0.0592
   3.3267E-02   3.4076E-02   6.7054E-05  0.0604
   3.4076E-02   3.4905E-02   7.5399E-05  0.0563
   3.4905E-02   3.5755E-02   6.2954E-05  0.0608
   3.5755E-02   3.6625E-02   6.6294E-05  0.0585
   3.6625E-02   3.7516E-02   6.7605E-05  0.0572
   3.7516E-02   3.8428E-02   6.2565E-05  0.0589
   3.8428E-02   3.9363E-02   6.1374E-05  0.0586
   3.9363E-02   4.0321E-02   6.1477E-05  0.0581
   4.0321E-02   4.1302E-02   5.6459E-05  0.0598
   4.1302E-02   4.2307E-02   5.0228E-05  0.0626
   4.2307E-02   4.3337E-02   5.5553E-05  0.0589
   4.3337E-02   4.4391E-02   5.6911E-05  0.0572
   4.4391E-02   4.5471E-02   4.9621E-05  0.0608
   4.5471E-02   4.6577E-02   5.1395E-05  0.0590
   4.6577E-02   4.7711E-02   4.7783E-05  0.0605
   4.7711E-02   4.8871E-02   5.7623E-05  0.0545
   4.8871E-02   5.0061E-02   4.4558E-05  0.0611
   5.0061E-02   5.1279E-02   4.4821E-05  0.0602
   5.1279E-02   5.2526E-02   4.7772E-05  0.0576
   5.2526E-02   5.3804E-02   4.6145E-05  0.0578
   5.3804E-02   5.5113E-02   4.6489E-05  0.0570
   5.5113E-02   5.6454E-02   4.2129E-05  0.0592
   5.6454E-02   5.7828E-02   4.9801E-05  0.0539
   5.7828E-02   5.9235E-02   4.6125E-05  0.0552
   5.9235E-02   6.0676E-02   3.9400E-05  0.0589
   6.0676E-02   6.2152E-02   4.2731E-05  0.0560
   6.2152E-02   6.3665E-02   4.0356E-05  0.0570
   6.3665E-02   6.5214E-02   3.6869E-05  0.0589
   6.5214E-02   6.6800E-02   3.6976E-05  0.0580
   6.6800E-02   6.8426E-02   3.8897E-05  0.0559
   6.8426E-02   7.0090E-02   3.5093E-05  0.0582
   7.0090E-02   7.1796E-02   3.7412E-05  0.0558
   7.1796E-02   7.3543E-02   3.1717E-05  0.0597
   7.3543E-02   7.5332E-02   3.8399E-05  0.0537
   7.5332E-02   7.7165E-02   3.3504E-05  0.0567
   7.7165E-02   7.9042E-02   3.4446E-05  0.0554
   7.9042E-02   8.0965E-02   3.2012E-05  0.0566
   8.0965E-02   8.2935E-02   3.0392E-05  0.0575
   8.2935E-02   8.4953E-02   3.0874E-05  0.0564
   8.4953E-02   8.7020E-02   3.0856E-05  0.0557
   8.7020E-02   8.9138E-02   2.9274E-05  0.0566
   8.9138E-02   9.1306E-02   2.8103E-05  0.0570
   9.1306E-02   9.3528E-02   2.7902E-05  0.0565
   9.3528E-02   9.5804E-02   2.9306E-05  0.0546
   9.5804E-02   9.8134E-02   2.5152E-05  0.0580
   9.8134E-02   1.0052E-01   2.5849E-05  0.0566
   1.0052E-01   1.0297E-01   2.5462E-05  0.0562
   1.0297E-01   1.0547E-01   2.6801E-05  0.0543
   1.0547E-01   1.0804E-01   2.3594E-05  0.0573
   1.0804E-01   1.1067E-01   2.5170E-05  0.0546
   1.1067E-01   1.1336E-01   2.3218E-05  0.0563
   1.1336E-01   1.1612E-01   2.3638E-05  0.0551
   1.1612E-01   1.1894E-01   2.0019E-05  0.0591
   1.1894E-01   1.2184E-01   2.4699E-05  0.0526
   1.2184E-01   1.2480E-01   2.1465E-05  0.0559
   1.2480E-01   1.2784E-01   2.2578E-05  0.0538
   1.2784E-01   1.3095E-01   1.9449E-05  0.0573
   1.3095E-01   1.3414E-01   1.9884E-05  0.0558
   1.3414E-01   1.3740E-01   1.9162E-05  0.0562
   1.3740E-01   1.4074E-01   1.8536E-05  0.0565
   1.4074E-01   1.4417E-01   1.6805E-05  0.0587
   1.4417E-01   1.4767E-01   1.6585E-05  0.0582
   1.4767E-01   1.5127E-01   1.6829E-05  0.0572
   1.5127E-01   1.5495E-01   1.6160E-05  0.0577
   1.5495E-01   1.5872E-01   1.7909E-05  0.0540
   1.5872E-01   1.6258E-01   1.6624E-05  0.0555
   1.6258E-01   1.6654E-01   1.7894E-05  0.0529
   1.6654E-01   1.7059E-01   1.6911E-05  0.0537
   1.7059E-01   1.7474E-01   1.7013E-05  0.0529
   1.7474E-01   1.7899E-01   1.4186E-05  0.0574
   1.7899E-01   1.8334E-01   1.5148E-05  0.0548
   1.8334E-01   1.8781E-01   1.4823E-05  0.0548
   1.8781E-01   1.9237E-01   1.5118E-05  0.0536
   1.9237E-01   1.9706E-01   1.4105E-05  0.0548
   1.9706E-01   2.0185E-01   1.3849E-05  0.0546
   2.0185E-01   2.0676E-01   1.4193E-05  0.0533
   2.0676E-01   2.1179E-01   1.4600E-05  0.0519
   2.1179E-01   2.1694E-01   1.4650E-05  0.0512
   2.1694E-01   2.2222E-01   1.5727E-05  0.0488
   2.2222E-01   2.2763E-01   1.7661E-05  0.0455
   2.2763E-01   2.3317E-01   1.6441E-05  0.0466
   2.3317E-01   2.3884E-01   1.7457E-05  0.0447
   2.3884E-01   2.4465E-01   1.8547E-05  0.0428
   2.4465E-01   2.5061E-01   1.8111E-05  0.0429
   2.5061E-01   2.5670E-01   1.8927E-05  0.0413
   2.5670E-01   2.6295E-01   2.1599E-05  0.0383
   2.6295E-01   2.6935E-01   2.0411E-05  0.0389
   2.6935E-01   2.7590E-01   2.1416E-05  0.0375
   2.7590E-01   2.8261E-01   2.2080E-05  0.0366
   2.8261E-01   2.8949E-01   2.2184E-05  0.0360
   2.8949E-01   2.9653E-01   2.2409E-05  0.0354
   2.9653E-01   3.0375E-01   2.3916E-05  0.0338
   3.0375E-01   3.1114E-01   2.3668E-05  0.0336
   3.1114E-01   3.1871E-01   2.5056E-05  0.0322
   3.1871E-01   3.2646E-01   2.6249E-05  0.0311
   3.2646E-01   3.3441E-01   2.6049E-05  0.0309
   3.3441E-01   3.4254E-01   2.6720E-05  0.0301
   3.4254E-01   3.5088E-01   2.8550E-05  0.0288
   3.5088E-01   3.5941E-01   2.7232E-05  0.0292
   3.5941E-01   3.6816E-01   3.0382E-05  0.0272
   3.6816E-01   3.7712E-01   3.1890E-05  0.0263
   3.7712E-01   3.8629E-01   3.1355E-05  0.0261
   3.8629E-01   3.9569E-01   3.2266E-05  0.0255
   3.9569E-01   4.0532E-01   3.2762E-05  0.0250
   4.0532E-01   4.1518E-01   3.2916E-05  0.0246
   4.1518E-01   4.2528E-01   3.4423E-05  0.0238
   4.2528E-01   4.3563E-01   3.4170E-05  0.0236
   4.3563E-01   4.4623E-01   3.5709E-05  0.0228
   4.4623E-01   4.5708E-01   3.5420E-05  0.0226
   4.5708E-01   4.6821E-01   3.7133E-05  0.0218
   4.6821E-01   4.7960E-01   3.7049E-05  0.0216
   4.7960E-01   4.9127E-01   3.8150E-05  0.0210
   4.9127E-01   5.0322E-01   3.9793E-05  0.0203
   5.0322E-01   5.1546E-01   3.9246E-05  0.0202
   5.1546E-01   5.2800E-01   4.1209E-05  0.0195
   5.2800E-01   5.4085E-01   4.2003E-05  0.0191
   5.4085E-01   5.5401E-01   4.1643E-05  0.0189
   5.5401E-01   5.6749E-01   4.1286E-05  0.0188
   5.6749E-01   5.8130E-01   4.3915E-05  0.0180
   5.8130E-01   5.9544E-01   4.2893E-05  0.0180
   5.9544E-01   6.0993E-01   4.4211E-05  0.0175
   6.0993E-01   6.2477E-01   4.4647E-05  0.0172
   6.2477E-01   6.3997E-01   4.6382E-05  0.0167
   6.3997E-01   6.5554E-01   4.6376E-05  0.0165
   6.5554E-01   6.7149E-01   4.6378E-05  0.0163
   6.7149E-01   6.8783E-01   4.6763E-05  0.0160
   6.8783E-01   7.0456E-01   4.6114E-05  0.0159
   7.0456E-01   7.2171E-01   4.6163E-05  0.0157
   7.2171E-01   7.3927E-01   4.7710E-05  0.0153
   7.3927E-01   7.5725E-01   4.6898E-05  0.0153
   7.5725E-01   7.7568E-01   4.7077E-05  0.0150
   7.7568E-01   7.9455E-01   4.8593E-05  0.0146
   7.9455E-01   8.1388E-01   4.8168E-05  0.0145
   8.1388E-01   8.3368E-01   4.7879E-05  0.0144
   8.3368E-01   8.5397E-01   4.8430E-05  0.0141
   8.5397E-01   8.7475E-01   4.8599E-05  0.0139
   8.7475E-01   8.9603E-01   4.8581E-05  0.0138
   8.9603E-01   9.1783E-01   4.8268E-05  0.0136
   9.1783E-01   9.4016E-01   4.8556E-05  0.0134
   9.4016E-01   9.6304E-01   4.9807E-05  0.0131
   9.6304E-01   9.8647E-01   4.8630E-05  0.0131
   9.8647E-01   1.0105E+00   4.8377E-05  0.0130
   1.0105E+00   1.0351E+00   4.7961E-05  0.0129
   1.0351E+00   1.0602E+00   4.7030E-05  0.0128
   1.0602E+00   1.0860E+00   4.4794E-05  0.0130
   1.0860E+00   1.1125E+00   4.4671E-05  0.0129
   1.1125E+00   1.1395E+00   4.5072E-05  0.0127
   1.1395E+00   1.1673E+00   4.4001E-05  0.0127
   1.1673E+00   1.1957E+00   4.4287E-05  0.0125
   1.1957E+00   1.2247E+00   4.4050E-05  0.0123
   1.2247E+00   1.2545E+00   4.4040E-05  0.0122
   1.2545E+00   1.2851E+00   4.1817E-05  0.0124
   1.2851E+00   1.3163E+00   4.0748E-05  0.0124
   1.3163E+00   1.3484E+00   4.0626E-05  0.0122
   1.3484E+00   1.3812E+00   4.0748E-05  0.0121
   1.3812E+00   1.4148E+00   4.0676E-05  0.0119
   1.4148E+00   1.4492E+00   4.0435E-05  0.0118
   1.4492E+00   1.4845E+00   3.9852E-05  0.0118
   1.4845E+00   1.5206E+00   3.9566E-05  0.0117
   1.5206E+00   1.5576E+00   3.8658E-05  0.0117
   1.5576E+00   1.5955E+00   3.6799E-05  0.0118
   1.5955E+00   1.6343E+00   3.6648E-05  0.0117
   1.6343E+00   1.6741E+00   3.4736E-05  0.0119
   1.6741E+00   1.7148E+00   3.4480E-05  0.0118
   1.7148E+00   1.7565E+00   3.3131E-05  0.0119
   1.7565E+00   1.7992E+00   3.1802E-05  0.0120
   1.7992E+00   1.8430E+00   3.1508E-05  0.0119
   1.8430E+00   1.8879E+00   3.1749E-05  0.0117
   1.8879E+00   1.9338E+00   3.0229E-05  0.0118
   1.9338E+00   1.9808E+00   2.9792E-05  0.0118
   1.9808E+00   2.0290E+00   2.9358E-05  0.0117
   2.0290E+00   2.0784E+00   2.8197E-05  0.0118
   2.0784E+00   2.1290E+00   2.7301E-05  0.0119
   2.1290E+00   2.1808E+00   2.6274E-05  0.0119
   2.1808E+00   2.2338E+00   2.5395E-05  0.0120
   2.2338E+00   2.2882E+00   2.4707E-05  0.0120
   2.2882E+00   2.3439E+00   2.3886E-05  0.0121
   2.3439E+00   2.4009E+00   2.3436E-05  0.0121
   2.4009E+00   2.4593E+00   2.2847E-05  0.0121
   2.4593E+00   2.5191E+00   2.2459E-05  0.0120
   2.5191E+00   2.5804E+00   2.1292E-05  0.0122
   2.5804E+00   2.6432E+00   2.0770E-05  0.0122
   2.6432E+00   2.7075E+00   1.9911E-05  0.0123
   2.7075E+00   2.7734E+00   1.9500E-05  0.0123
   2.7734E+00   2.8409E+00   1.8657E-05  0.0124
   2.8409E+00   2.9100E+00   1.8047E-05  0.0125
   2.9100E+00   2.9808E+00   1.7836E-05  0.0124
   2.9808E+00   3.0533E+00   1.7395E-05  0.0124
   3.0533E+00   3.1276E+00   1.6619E-05  0.0125
   3.1276E+00   3.2037E+00   1.6750E-05  0.0123
   3.2037E+00   3.2817E+00   1.5861E-05  0.0125
   3.2817E+00   3.3615E+00   1.5683E-05  0.0124
   3.3615E+00   3.4433E+00   1.5135E-05  0.0125
   3.4433E+00   3.5271E+00   1.4770E-05  0.0125
   3.5271E+00   3.6129E+00   1.4155E-05  0.0126
   3.6129E+00   3.7008E+00   1.3942E-05  0.0126
   3.7008E+00   3.7908E+00   1.3859E-05  0.0125
   3.7908E+00   3.8831E+00   1.3412E-05  0.0125
   3.8831E+00   3.9776E+00   1.3374E-05  0.0124
   3.9776E+00   4.0743E+00   1.3297E-05  0.0123
   4.0743E+00   4.1735E+00   1.2744E-05  0.0124
   4.1735E+00   4.2750E+00   1.2631E-05  0.0123
   4.2750E+00   4.3790E+00   1.2262E-05  0.0123
   4.3790E+00   4.4856E+00   1.2466E-05  0.0121
   4.4856E+00   4.5947E+00   1.2160E-05  0.0121
   4.5947E+00   4.7065E+00   1.1706E-05  0.0122
   4.7065E+00   4.8210E+00   1.1564E-05  0.0122
   4.8210E+00   4.9383E+00   1.1244E-05  0.0122
   4.9383E+00   5.0585E+00   1.1007E-05  0.0122
   5.0585E+00   5.1815E+00   1.0636E-05  0.0122
   5.1815E+00   5.3076E+00   1.0519E-05  0.0121
   5.3076E+00   5.4368E+00   1.0149E-05  0.0122
   5.4368E+00   5.5690E+00   9.7592E-06  0.0123
   5.5690E+00   5.7045E+00   9.2961E-06  0.0125
   5.7045E+00   5.8433E+00   8.9620E-06  0.0126
   5.8433E+00   5.9855E+00   8.7302E-06  0.0126
   5.9855E+00   6.1311E+00   8.5835E-06  0.0125
   6.1311E+00   6.2803E+00   8.0933E-06  0.0128
   6.2803E+00   6.4331E+00   7.6672E-06  0.0130
   6.4331E+00   6.5896E+00   7.2850E-06  0.0131
   6.5896E+00   6.7500E+00   7.0572E-06  0.0132
   6.7500E+00   6.9142E+00   6.7431E-06  0.0133
   6.9142E+00   7.0824E+00   6.3722E-06  0.0136
   7.0824E+00   7.2548E+00   6.2484E-06  0.0136
   7.2548E+00   7.4313E+00   5.8964E-06  0.0138
   7.4313E+00   7.6121E+00   5.6680E-06  0.0139
   7.6121E+00   7.7973E+00   5.2633E-06  0.0143
   7.7973E+00   7.9870E+00   5.1226E-06  0.0143
   7.9870E+00   8.1813E+00   4.8781E-06  0.0145
   8.1813E+00   8.3804E+00   4.5942E-06  0.0147
   8.3804E+00   8.5843E+00   4.4179E-06  0.0148
   8.5843E+00   8.7931E+00   4.2686E-06  0.0149
   8.7931E+00   9.0071E+00   3.9669E-06  0.0153
   9.0071E+00   9.2262E+00   3.8464E-06  0.0154
   9.2262E+00   9.4507E+00   3.6186E-06  0.0157
   9.4507E+00   9.6807E+00   3.4284E-06  0.0159
   9.6807E+00   9.9162E+00   3.1890E-06  0.0163
   9.9162E+00   1.0157E+01   3.1014E-06  0.0163
   1.0157E+01   1.0405E+01   2.8490E-06  0.0168
   1.0405E+01   1.0658E+01   2.6872E-06  0.0171
   1.0658E+01   1.0917E+01   2.5560E-06  0.0173
   1.0917E+01   1.1183E+01   2.3798E-06  0.0178
   1.1183E+01   1.1455E+01   2.2813E-06  0.0179
   1.1455E+01   1.1733E+01   2.0806E-06  0.0186
   1.1733E+01   1.2019E+01   1.9452E-06  0.0190
   1.2019E+01   1.2311E+01   1.8879E-06  0.0190
   1.2311E+01   1.2611E+01   1.7723E-06  0.0194
   1.2611E+01   1.2918E+01   1.6657E-06  0.0198
   1.2918E+01   1.3232E+01   1.4915E-06  0.0206
   1.3232E+01   1.3554E+01   1.4036E-06  0.0210
   1.3554E+01   1.3884E+01   1.2705E-06  0.0218
   1.3884E+01   1.4222E+01   1.1987E-06  0.0222
   1.4222E+01   1.4568E+01   1.0877E-06  0.0230
   1.4568E+01   1.4922E+01   1.0469E-06  0.0232
   1.4922E+01   1.5285E+01   9.4198E-07  0.0242
   1.5285E+01   1.5657E+01   8.2256E-07  0.0256
   1.5657E+01   1.6038E+01   7.8254E-07  0.0259
   1.6038E+01   1.6428E+01   7.5897E-07  0.0260
   1.6428E+01   1.6828E+01   6.9250E-07  0.0269
   1.6828E+01   1.7237E+01   6.0718E-07  0.0284
   1.7237E+01   1.7657E+01   5.3601E-07  0.0298
   1.7657E+01   1.8086E+01   5.1583E-07  0.0300
   1.8086E+01   1.8526E+01   4.5812E-07  0.0315
   1.8526E+01   1.8977E+01   4.3837E-07  0.0318
   1.8977E+01   1.9439E+01   3.6601E-07  0.0344
   1.9439E+01   1.9912E+01   3.5732E-07  0.0344
   1.9912E+01   2.0396E+01   3.3686E-07  0.0350
   2.0396E+01   2.0893E+01   2.8090E-07  0.0379
   2.0893E+01   2.1401E+01   2.5692E-07  0.0391
   2.1401E+01   2.1922E+01   2.2162E-07  0.0416
   2.1922E+01   2.2455E+01   2.0474E-07  0.0428
   2.2455E+01   2.3001E+01   1.7571E-07  0.0456
   2.3001E+01   2.3561E+01   1.4545E-07  0.0496
   2.3561E+01   2.4134E+01   1.2839E-07  0.0521
   2.4134E+01   2.4721E+01   1.0865E-07  0.0560
   2.4721E+01   2.5323E+01   8.0134E-08  0.0644
   2.5323E+01   2.5939E+01   7.5309E-08  0.0657
   2.5939E+01   2.6570E+01   7.0034E-08  0.0673
   2.6570E+01   2.7217E+01   5.1356E-08  0.0776
   2.7217E+01   2.7879E+01   4.0169E-08  0.0867
   2.7879E+01   2.8557E+01   4.2458E-08  0.0833
   2.8557E+01   2.9252E+01   3.3966E-08  0.0921
   2.9252E+01   2.9964E+01   2.9506E-08  0.0976
   2.9964E+01   3.0693E+01   1.8380E-08  0.1222
   3.0693E+01   3.1440E+01   2.0086E-08  0.1155
   3.1440E+01   3.2205E+01   1.4119E-08  0.1361
   3.2205E+01   3.2988E+01   1.0720E-08  0.1543
   3.2988E+01   3.3791E+01   1.0715E-08  0.1525
   3.3791E+01   3.4613E+01   8.5142E-09  0.1690
   3.4613E+01   3.5455E+01   5.9371E-09  0.2000
   3.5455E+01   3.6318E+01   4.8687E-09  0.2182
   3.6318E+01   3.7201E+01   2.9424E-09  0.2774
   3.7201E+01   3.8106E+01   4.8611E-09  0.2132
   3.8106E+01   3.9034E+01   2.8043E-09  0.2774
   3.9034E+01   3.9983E+01   2.1059E-09  0.3162
   3.9983E+01   4.0956E+01   1.4391E-09  0.3780
   4.0956E+01   4.1953E+01   1.0035E-09  0.4472
   4.1953E+01   4.2973E+01   1.1756E-09  0.4082
   4.2973E+01   4.4019E+01   9.5641E-10  0.4472
   4.4019E+01   4.5090E+01   7.4695E-10  0.5000
   4.5090E+01   4.6187E+01   5.4691E-10  0.5774
   4.6187E+01   4.7311E+01   0.0000E+00  0.0000
   4.7311E+01   4.8462E+01   3.4749E-10  0.7071
   4.8462E+01   4.9641E+01   0.0000E+00  0.0000
   4.9641E+01   5.0849E+01   0.0000E+00  0.0000
   5.0849E+01   5.2086E+01   1.6166E-10  1.0000
   5.2086E+01   5.3353E+01   0.0000E+00  0.0000
   5.3353E+01   5.4651E+01   0.0000E+00  0.0000
   5.4651E+01   5.5981E+01   0.0000E+00  0.0000
   5.5981E+01   5.7343E+01   0.0000E+00  0.0000
   5.7343E+01   5.8738E+01   0.0000E+00  0.0000
   5.8738E+01   6.0168E+01   1.3994E-10  1.0000
   6.0168E+01   6.1632E+01   0.0000E+00  0.0000
   6.1632E+01   6.3131E+01   0.0000E+00  0.0000
   6.3131E+01   6.4667E+01   0.0000E+00  0.0000
   6.4667E+01   6.6240E+01   0.0000E+00  0.0000
   6.6240E+01   6.7852E+01   0.0000E+00  0.0000
   6.7852E+01   6.9503E+01   0.0000E+00  0.0000
   6.9503E+01   7.1194E+01   0.0000E+00  0.0000
   7.1194E+01   7.2926E+01   0.0000E+00  0.0000
   7.2926E+01   7.4701E+01   0.0000E+00  0.0000
   7.4701E+01   7.6518E+01   0.0000E+00  0.0000
   7.6518E+01   7.8380E+01   0.0000E+00  0.0000
   7.8380E+01   8.0287E+01   0.0000E+00  0.0000
   8.0287E+01   8.2240E+01   0.0000E+00  0.0000
   8.2240E+01   8.4241E+01   0.0000E+00  0.0000
   8.4241E+01   8.6291E+01   0.0000E+00  0.0000
   8.6291E+01   8.8391E+01   0.0000E+00  0.0000
   8.8391E+01   9.0541E+01   0.0000E+00  0.0000
   9.0541E+01   9.2744E+01   0.0000E+00  0.0000
   9.2744E+01   9.5001E+01   0.0000E+00  0.0000
   9.5001E+01   9.7312E+01   0.0000E+00  0.0000
   9.7312E+01   9.9680E+01   0.0000E+00  0.0000
   9.9680E+01   1.0211E+02   0.0000E+00  0.0000
   1.0211E+02   1.0459E+02   0.0000E+00  0.0000
   1.0459E+02   1.0713E+02   0.0000E+00  0.0000
   1.0713E+02   1.0974E+02   0.0000E+00  0.0000
   1.0974E+02   1.1241E+02   0.0000E+00  0.0000
   1.1241E+02   1.1515E+02   0.0000E+00  0.0000
   1.1515E+02   1.1795E+02   0.0000E+00  0.0000
   1.1795E+02   1.2082E+02   0.0000E+00  0.0000
   1.2082E+02   1.2376E+02   0.0000E+00  0.0000
   1.2376E+02   1.2677E+02   0.0000E+00  0.0000
   1.2677E+02   1.2985E+02   0.0000E+00  0.0000
   1.2985E+02   1.3301E+02   0.0000E+00  0.0000
   1.3301E+02   1.3625E+02   0.0000E+00  0.0000
   1.3625E+02   1.3956E+02   0.0000E+00  0.0000
   1.3956E+02   1.4296E+02   0.0000E+00  0.0000
   1.4296E+02   1.4644E+02   0.0000E+00  0.0000
   1.4644E+02   1.5000E+02   0.0000E+00  0.0000

#   sum over                 1.1356E-06
'no. =    1   reg = 126 - 226'
msuc: {\huge [t-cross] in region mesh}
msdr: {\it plotted by \ANGEL \version}
msdl: {\it calculated by \PHITS  3.28}
wt: s(0.7)
\vspace{-3}
  region surface crossing
  area  &=&   1.0000E+00 [cm^2]
e:
 
# Information for Restart Calculation
# This calculation was newly started
# istdev =  2 # 1:Batch variance, 2:History variance
# resc2  = 5.00000000000000000E+09 # Total source weight or Total source weight / maxcas
# resc3  = 5.00000000000000000E+09 # Total history number or Total batch number
# maxcas =   500000000 # History / Batch, only used for istdev=1
# bitrseed = 0110100000100010111000001110001111001110100100011111101000111001 # bit data of rseed
