[ T-Cross ]
    title = [t-cross] in region mesh
     mesh =  reg            # mesh type is region-wise
      reg =    1            # number of crossing regions
      non     r-from    r-to       area
      1       104       204        1.000000    
   e-type =    3            # e-mesh is log given by emin, emax and ne
     emin =  1.0000000E-02  # minimum value of e-mesh points
     emax =   150.0000      # maximum value of e-mesh points
#    edel =  2.4039514E-02  # mesh width of e-mesh points
       ne =    400          # number of e-mesh points
#    data = ( e(i), i = 1, ne + 1 )
#           1.00000E-02  1.02433E-02  1.04925E-02  1.07478E-02  1.10093E-02
#           1.12772E-02  1.15516E-02  1.18326E-02  1.21205E-02  1.24154E-02
#           1.27175E-02  1.30269E-02  1.33439E-02  1.36686E-02  1.40011E-02
#           1.43418E-02  1.46907E-02  1.50482E-02  1.54143E-02  1.57894E-02
#           1.61735E-02  1.65670E-02  1.69701E-02  1.73830E-02  1.78060E-02
#           1.82392E-02  1.86830E-02  1.91375E-02  1.96032E-02  2.00801E-02
#           2.05687E-02  2.10692E-02  2.15818E-02  2.21069E-02  2.26448E-02
#           2.31957E-02  2.37601E-02  2.43382E-02  2.49304E-02  2.55369E-02
#           2.61583E-02  2.67947E-02  2.74467E-02  2.81145E-02  2.87985E-02
#           2.94992E-02  3.02169E-02  3.09521E-02  3.17052E-02  3.24766E-02
#           3.32668E-02  3.40762E-02  3.49053E-02  3.57546E-02  3.66246E-02
#           3.75157E-02  3.84284E-02  3.93634E-02  4.03212E-02  4.13022E-02
#           4.23071E-02  4.33365E-02  4.43909E-02  4.54710E-02  4.65773E-02
#           4.77106E-02  4.88714E-02  5.00605E-02  5.12785E-02  5.25262E-02
#           5.38042E-02  5.51133E-02  5.64542E-02  5.78278E-02  5.92348E-02
#           6.06760E-02  6.21523E-02  6.36645E-02  6.52135E-02  6.68002E-02
#           6.84255E-02  7.00904E-02  7.17957E-02  7.35426E-02  7.53319E-02
#           7.71648E-02  7.90423E-02  8.09655E-02  8.29354E-02  8.49533E-02
#           8.70203E-02  8.91376E-02  9.13064E-02  9.35279E-02  9.58035E-02
#           9.81345E-02  1.00522E-01  1.02968E-01  1.05473E-01  1.08040E-01
#           1.10668E-01  1.13361E-01  1.16119E-01  1.18944E-01  1.21838E-01
#           1.24803E-01  1.27839E-01  1.30950E-01  1.34136E-01  1.37399E-01
#           1.40742E-01  1.44167E-01  1.47675E-01  1.51268E-01  1.54948E-01
#           1.58718E-01  1.62580E-01  1.66535E-01  1.70587E-01  1.74738E-01
#           1.78989E-01  1.83344E-01  1.87805E-01  1.92375E-01  1.97055E-01
#           2.01850E-01  2.06761E-01  2.11792E-01  2.16945E-01  2.22223E-01
#           2.27630E-01  2.33169E-01  2.38842E-01  2.44653E-01  2.50605E-01
#           2.56703E-01  2.62949E-01  2.69346E-01  2.75900E-01  2.82613E-01
#           2.89489E-01  2.96532E-01  3.03747E-01  3.11138E-01  3.18708E-01
#           3.26462E-01  3.34405E-01  3.42542E-01  3.50876E-01  3.59413E-01
#           3.68158E-01  3.77116E-01  3.86291E-01  3.95690E-01  4.05317E-01
#           4.15179E-01  4.25281E-01  4.35628E-01  4.46227E-01  4.57084E-01
#           4.68205E-01  4.79597E-01  4.91266E-01  5.03219E-01  5.15463E-01
#           5.28005E-01  5.40851E-01  5.54011E-01  5.67490E-01  5.81298E-01
#           5.95441E-01  6.09929E-01  6.24769E-01  6.39970E-01  6.55541E-01
#           6.71491E-01  6.87828E-01  7.04564E-01  7.21706E-01  7.39266E-01
#           7.57253E-01  7.75678E-01  7.94551E-01  8.13883E-01  8.33685E-01
#           8.53969E-01  8.74747E-01  8.96030E-01  9.17831E-01  9.40163E-01
#           9.63038E-01  9.86469E-01  1.01047E+00  1.03506E+00  1.06024E+00
#           1.08604E+00  1.11246E+00  1.13953E+00  1.16725E+00  1.19565E+00
#           1.22474E+00  1.25454E+00  1.28507E+00  1.31633E+00  1.34836E+00
#           1.38117E+00  1.41477E+00  1.44920E+00  1.48446E+00  1.52057E+00
#           1.55757E+00  1.59547E+00  1.63429E+00  1.67405E+00  1.71478E+00
#           1.75650E+00  1.79924E+00  1.84302E+00  1.88786E+00  1.93379E+00
#           1.98084E+00  2.02904E+00  2.07841E+00  2.12898E+00  2.18078E+00
#           2.23384E+00  2.28819E+00  2.34386E+00  2.40089E+00  2.45930E+00
#           2.51914E+00  2.58043E+00  2.64322E+00  2.70753E+00  2.77341E+00
#           2.84088E+00  2.91001E+00  2.98081E+00  3.05333E+00  3.12762E+00
#           3.20372E+00  3.28167E+00  3.36152E+00  3.44330E+00  3.52708E+00
#           3.61290E+00  3.70080E+00  3.79085E+00  3.88308E+00  3.97756E+00
#           4.07434E+00  4.17347E+00  4.27501E+00  4.37903E+00  4.48557E+00
#           4.59471E+00  4.70650E+00  4.82102E+00  4.93832E+00  5.05847E+00
#           5.18155E+00  5.30762E+00  5.43676E+00  5.56904E+00  5.70453E+00
#           5.84333E+00  5.98550E+00  6.13114E+00  6.28031E+00  6.43312E+00
#           6.58964E+00  6.74997E+00  6.91420E+00  7.08243E+00  7.25475E+00
#           7.43126E+00  7.61207E+00  7.79728E+00  7.98700E+00  8.18133E+00
#           8.38038E+00  8.58428E+00  8.79315E+00  9.00709E+00  9.22624E+00
#           9.45072E+00  9.68067E+00  9.91620E+00  1.01575E+01  1.04046E+01
#           1.06578E+01  1.09171E+01  1.11827E+01  1.14548E+01  1.17335E+01
#           1.20190E+01  1.23114E+01  1.26109E+01  1.29178E+01  1.32321E+01
#           1.35540E+01  1.38838E+01  1.42216E+01  1.45676E+01  1.49221E+01
#           1.52851E+01  1.56570E+01  1.60380E+01  1.64282E+01  1.68279E+01
#           1.72374E+01  1.76568E+01  1.80864E+01  1.85264E+01  1.89772E+01
#           1.94389E+01  1.99119E+01  2.03963E+01  2.08926E+01  2.14009E+01
#           2.19216E+01  2.24550E+01  2.30014E+01  2.35610E+01  2.41343E+01
#           2.47215E+01  2.53230E+01  2.59391E+01  2.65702E+01  2.72167E+01
#           2.78789E+01  2.85572E+01  2.92520E+01  2.99637E+01  3.06928E+01
#           3.14396E+01  3.22045E+01  3.29881E+01  3.37907E+01  3.46128E+01
#           3.54550E+01  3.63177E+01  3.72013E+01  3.81064E+01  3.90336E+01
#           3.99833E+01  4.09561E+01  4.19526E+01  4.29734E+01  4.40189E+01
#           4.50900E+01  4.61870E+01  4.73108E+01  4.84619E+01  4.96410E+01
#           5.08488E+01  5.20860E+01  5.33533E+01  5.46514E+01  5.59812E+01
#           5.73432E+01  5.87384E+01  6.01676E+01  6.16315E+01  6.31311E+01
#           6.46671E+01  6.62405E+01  6.78522E+01  6.95031E+01  7.11941E+01
#           7.29263E+01  7.47007E+01  7.65182E+01  7.83800E+01  8.02870E+01
#           8.22405E+01  8.42414E+01  8.62911E+01  8.83906E+01  9.05412E+01
#           9.27442E+01  9.50007E+01  9.73122E+01  9.96799E+01  1.02105E+02
#           1.04589E+02  1.07134E+02  1.09741E+02  1.12411E+02  1.15146E+02
#           1.17948E+02  1.20817E+02  1.23757E+02  1.26768E+02  1.29852E+02
#           1.33012E+02  1.36248E+02  1.39563E+02  1.42959E+02  1.46437E+02
#           1.50000E+02
     unit =    2            # unit is [1/cm^2/(MeV/n)/source]
     axis =  eng            # axis of output
     file = detector-05.out  # file name of output for the above axis
   output = f-curr          # surface crossing forward current spectrum
     part =  neutron  
# kf/name :  2112     
#    used :        main (  %)        temp (  %)       total (  %)
#  memory :         414 (  0)           0 (  0)         414 (  0)

#------------------------------------------------------------------------------
#newpage:
#   no. =    1   reg = 104 - 204

x: Energy [MeV/n]
y:  F-Curr [1/cm^2/(MeV/n)/source]         
p: xlog ylog afac(0.8) form(0.9)
h: n            x            y(neutron ),hh0l   n 
#  e-lower      e-upper      neutron     r.err 
   1.0000E-02   1.0243E-02   3.0085E-04  0.0523
   1.0243E-02   1.0493E-02   3.3945E-04  0.0486
   1.0493E-02   1.0748E-02   3.2669E-04  0.0490
   1.0748E-02   1.1009E-02   3.5946E-04  0.0461
   1.1009E-02   1.1277E-02   3.5540E-04  0.0458
   1.1277E-02   1.1552E-02   3.4186E-04  0.0462
   1.1552E-02   1.1833E-02   3.2947E-04  0.0465
   1.1833E-02   1.2121E-02   3.2928E-04  0.0459
   1.2121E-02   1.2415E-02   3.5164E-04  0.0439
   1.2415E-02   1.2718E-02   3.5289E-04  0.0433
   1.2718E-02   1.3027E-02   3.4063E-04  0.0436
   1.3027E-02   1.3344E-02   3.5652E-04  0.0421
   1.3344E-02   1.3669E-02   3.5236E-04  0.0418
   1.3669E-02   1.4001E-02   3.3557E-04  0.0423
   1.4001E-02   1.4342E-02   3.5343E-04  0.0408
   1.4342E-02   1.4691E-02   3.5020E-04  0.0405
   1.4691E-02   1.5048E-02   3.5363E-04  0.0398
   1.5048E-02   1.5414E-02   3.4414E-04  0.0398
   1.5414E-02   1.5789E-02   3.4449E-04  0.0393
   1.5789E-02   1.6174E-02   3.4360E-04  0.0389
   1.6174E-02   1.6567E-02   3.4611E-04  0.0383
   1.6567E-02   1.6970E-02   3.3938E-04  0.0382
   1.6970E-02   1.7383E-02   3.5651E-04  0.0369
   1.7383E-02   1.7806E-02   3.7357E-04  0.0356
   1.7806E-02   1.8239E-02   3.5870E-04  0.0359
   1.8239E-02   1.8683E-02   3.5018E-04  0.0359
   1.8683E-02   1.9138E-02   3.5770E-04  0.0351
   1.9138E-02   1.9603E-02   3.6016E-04  0.0345
   1.9603E-02   2.0080E-02   3.6900E-04  0.0337
   2.0080E-02   2.0569E-02   3.5000E-04  0.0342
   2.0569E-02   2.1069E-02   3.7486E-04  0.0327
   2.1069E-02   2.1582E-02   3.7766E-04  0.0321
   2.1582E-02   2.2107E-02   3.4508E-04  0.0332
   2.2107E-02   2.2645E-02   3.6886E-04  0.0318
   2.2645E-02   2.3196E-02   3.7353E-04  0.0312
   2.3196E-02   2.3760E-02   3.6253E-04  0.0313
   2.3760E-02   2.4338E-02   3.6776E-04  0.0307
   2.4338E-02   2.4930E-02   3.6949E-04  0.0302
   2.4930E-02   2.5537E-02   3.8050E-04  0.0294
   2.5537E-02   2.6158E-02   3.5601E-04  0.0301
   2.6158E-02   2.6795E-02   3.8840E-04  0.0284
   2.6795E-02   2.7447E-02   3.9574E-04  0.0278
   2.7447E-02   2.8114E-02   3.8515E-04  0.0279
   2.8114E-02   2.8799E-02   3.9354E-04  0.0273
   2.8799E-02   2.9499E-02   3.8248E-04  0.0273
   2.9499E-02   3.0217E-02   3.7381E-04  0.0273
   3.0217E-02   3.0952E-02   3.8139E-04  0.0267
   3.0952E-02   3.1705E-02   3.9451E-04  0.0259
   3.1705E-02   3.2477E-02   3.9227E-04  0.0257
   3.2477E-02   3.3267E-02   4.0434E-04  0.0250
   3.3267E-02   3.4076E-02   4.0622E-04  0.0247
   3.4076E-02   3.4905E-02   3.9320E-04  0.0248
   3.4905E-02   3.5755E-02   4.0811E-04  0.0240
   3.5755E-02   3.6625E-02   3.9727E-04  0.0241
   3.6625E-02   3.7516E-02   3.8626E-04  0.0241
   3.7516E-02   3.8428E-02   3.8782E-04  0.0238
   3.8428E-02   3.9363E-02   3.8909E-04  0.0234
   3.9363E-02   4.0321E-02   4.1097E-04  0.0225
   4.0321E-02   4.1302E-02   3.9917E-04  0.0226
   4.1302E-02   4.2307E-02   4.1357E-04  0.0219
   4.2307E-02   4.3337E-02   4.0841E-04  0.0218
   4.3337E-02   4.4391E-02   4.1578E-04  0.0214
   4.4391E-02   4.5471E-02   3.9331E-04  0.0217
   4.5471E-02   4.6577E-02   4.1181E-04  0.0210
   4.6577E-02   4.7711E-02   4.0467E-04  0.0209
   4.7711E-02   4.8871E-02   4.2280E-04  0.0202
   4.8871E-02   5.0061E-02   4.1074E-04  0.0202
   5.0061E-02   5.1279E-02   4.0952E-04  0.0200
   5.1279E-02   5.2526E-02   4.1486E-04  0.0197
   5.2526E-02   5.3804E-02   4.1737E-04  0.0194
   5.3804E-02   5.5113E-02   4.1319E-04  0.0192
   5.5113E-02   5.6454E-02   4.2231E-04  0.0188
   5.6454E-02   5.7828E-02   4.0420E-04  0.0190
   5.7828E-02   5.9235E-02   4.1940E-04  0.0184
   5.9235E-02   6.0676E-02   4.2464E-04  0.0181
   6.0676E-02   6.2152E-02   4.1442E-04  0.0181
   6.2152E-02   6.3665E-02   4.2269E-04  0.0177
   6.3665E-02   6.5214E-02   4.3060E-04  0.0173
   6.5214E-02   6.6800E-02   4.3550E-04  0.0170
   6.6800E-02   6.8426E-02   4.1291E-04  0.0173
   6.8426E-02   7.0090E-02   4.3343E-04  0.0166
   7.0090E-02   7.1796E-02   4.3270E-04  0.0165
   7.1796E-02   7.3543E-02   4.3896E-04  0.0162
   7.3543E-02   7.5332E-02   4.3787E-04  0.0160
   7.5332E-02   7.7165E-02   4.3451E-04  0.0158
   7.7165E-02   7.9042E-02   4.3702E-04  0.0156
   7.9042E-02   8.0965E-02   4.3418E-04  0.0155
   8.0965E-02   8.2935E-02   4.2432E-04  0.0155
   8.2935E-02   8.4953E-02   4.3288E-04  0.0151
   8.4953E-02   8.7020E-02   4.2961E-04  0.0150
   8.7020E-02   8.9138E-02   4.3650E-04  0.0147
   8.9138E-02   9.1306E-02   4.5085E-04  0.0143
   9.1306E-02   9.3528E-02   4.4419E-04  0.0142
   9.3528E-02   9.5804E-02   4.3782E-04  0.0142
   9.5804E-02   9.8134E-02   4.4496E-04  0.0139
   9.8134E-02   1.0052E-01   4.3226E-04  0.0139
   1.0052E-01   1.0297E-01   4.4730E-04  0.0135
   1.0297E-01   1.0547E-01   4.3951E-04  0.0135
   1.0547E-01   1.0804E-01   4.4216E-04  0.0133
   1.0804E-01   1.1067E-01   4.4517E-04  0.0131
   1.1067E-01   1.1336E-01   4.4711E-04  0.0129
   1.1336E-01   1.1612E-01   4.5712E-04  0.0126
   1.1612E-01   1.1894E-01   4.6275E-04  0.0124
   1.1894E-01   1.2184E-01   4.5577E-04  0.0123
   1.2184E-01   1.2480E-01   4.5702E-04  0.0122
   1.2480E-01   1.2784E-01   4.5861E-04  0.0120
   1.2784E-01   1.3095E-01   4.6450E-04  0.0118
   1.3095E-01   1.3414E-01   4.6822E-04  0.0116
   1.3414E-01   1.3740E-01   4.6191E-04  0.0115
   1.3740E-01   1.4074E-01   4.5860E-04  0.0114
   1.4074E-01   1.4417E-01   4.6441E-04  0.0112
   1.4417E-01   1.4767E-01   4.6030E-04  0.0111
   1.4767E-01   1.5127E-01   4.5794E-04  0.0110
   1.5127E-01   1.5495E-01   4.6665E-04  0.0108
   1.5495E-01   1.5872E-01   4.5509E-04  0.0108
   1.5872E-01   1.6258E-01   4.6803E-04  0.0105
   1.6258E-01   1.6654E-01   4.6955E-04  0.0104
   1.6654E-01   1.7059E-01   4.6400E-04  0.0103
   1.7059E-01   1.7474E-01   4.6375E-04  0.0102
   1.7474E-01   1.7899E-01   4.6515E-04  0.0101
   1.7899E-01   1.8334E-01   4.7291E-04  0.0099
   1.8334E-01   1.8781E-01   4.7533E-04  0.0097
   1.8781E-01   1.9237E-01   4.6817E-04  0.0097
   1.9237E-01   1.9706E-01   4.6771E-04  0.0096
   1.9706E-01   2.0185E-01   4.6232E-04  0.0095
   2.0185E-01   2.0676E-01   4.6545E-04  0.0094
   2.0676E-01   2.1179E-01   4.6924E-04  0.0092
   2.1179E-01   2.1694E-01   4.7591E-04  0.0090
   2.1694E-01   2.2222E-01   4.7152E-04  0.0090
   2.2222E-01   2.2763E-01   4.7950E-04  0.0088
   2.2763E-01   2.3317E-01   4.6475E-04  0.0088
   2.3317E-01   2.3884E-01   4.6926E-04  0.0087
   2.3884E-01   2.4465E-01   4.6469E-04  0.0086
   2.4465E-01   2.5061E-01   4.6302E-04  0.0085
   2.5061E-01   2.5670E-01   4.6556E-04  0.0084
   2.5670E-01   2.6295E-01   4.6963E-04  0.0083
   2.6295E-01   2.6935E-01   4.6358E-04  0.0082
   2.6935E-01   2.7590E-01   4.6008E-04  0.0081
   2.7590E-01   2.8261E-01   4.6494E-04  0.0080
   2.8261E-01   2.8949E-01   4.6779E-04  0.0079
   2.8949E-01   2.9653E-01   4.6224E-04  0.0078
   2.9653E-01   3.0375E-01   4.6503E-04  0.0077
   3.0375E-01   3.1114E-01   4.6602E-04  0.0076
   3.1114E-01   3.1871E-01   4.6334E-04  0.0076
   3.1871E-01   3.2646E-01   4.5669E-04  0.0075
   3.2646E-01   3.3441E-01   4.5652E-04  0.0074
   3.3441E-01   3.4254E-01   4.5502E-04  0.0073
   3.4254E-01   3.5088E-01   4.5614E-04  0.0073
   3.5088E-01   3.5941E-01   4.5746E-04  0.0072
   3.5941E-01   3.6816E-01   4.5269E-04  0.0071
   3.6816E-01   3.7712E-01   4.5166E-04  0.0070
   3.7712E-01   3.8629E-01   4.4594E-04  0.0070
   3.8629E-01   3.9569E-01   4.4443E-04  0.0069
   3.9569E-01   4.0532E-01   4.4210E-04  0.0069
   4.0532E-01   4.1518E-01   4.3716E-04  0.0068
   4.1518E-01   4.2528E-01   4.4272E-04  0.0067
   4.2528E-01   4.3563E-01   4.3864E-04  0.0066
   4.3563E-01   4.4623E-01   4.3244E-04  0.0066
   4.4623E-01   4.5708E-01   4.2571E-04  0.0066
   4.5708E-01   4.6821E-01   4.2460E-04  0.0065
   4.6821E-01   4.7960E-01   4.2154E-04  0.0065
   4.7960E-01   4.9127E-01   4.1627E-04  0.0064
   4.9127E-01   5.0322E-01   4.1277E-04  0.0064
   5.0322E-01   5.1546E-01   4.1152E-04  0.0063
   5.1546E-01   5.2800E-01   4.0553E-04  0.0063
   5.2800E-01   5.4085E-01   4.0092E-04  0.0062
   5.4085E-01   5.5401E-01   3.9702E-04  0.0062
   5.5401E-01   5.6749E-01   3.9335E-04  0.0061
   5.6749E-01   5.8130E-01   3.8739E-04  0.0061
   5.8130E-01   5.9544E-01   3.7953E-04  0.0061
   5.9544E-01   6.0993E-01   3.7603E-04  0.0061
   6.0993E-01   6.2477E-01   3.6873E-04  0.0060
   6.2477E-01   6.3997E-01   3.6429E-04  0.0060
   6.3997E-01   6.5554E-01   3.5925E-04  0.0060
   6.5554E-01   6.7149E-01   3.5365E-04  0.0060
   6.7149E-01   6.8783E-01   3.4849E-04  0.0059
   6.8783E-01   7.0456E-01   3.3904E-04  0.0059
   7.0456E-01   7.2171E-01   3.3169E-04  0.0059
   7.2171E-01   7.3927E-01   3.2397E-04  0.0059
   7.3927E-01   7.5725E-01   3.1679E-04  0.0059
   7.5725E-01   7.7568E-01   3.1228E-04  0.0059
   7.7568E-01   7.9455E-01   3.0467E-04  0.0059
   7.9455E-01   8.1388E-01   2.9674E-04  0.0059
   8.1388E-01   8.3368E-01   2.9129E-04  0.0059
   8.3368E-01   8.5397E-01   2.7901E-04  0.0059
   8.5397E-01   8.7475E-01   2.6941E-04  0.0060
   8.7475E-01   8.9603E-01   2.6086E-04  0.0060
   8.9603E-01   9.1783E-01   2.5390E-04  0.0060
   9.1783E-01   9.4016E-01   2.4471E-04  0.0061
   9.4016E-01   9.6304E-01   2.3454E-04  0.0061
   9.6304E-01   9.8647E-01   2.2535E-04  0.0062
   9.8647E-01   1.0105E+00   2.1676E-04  0.0062
   1.0105E+00   1.0351E+00   2.1745E-04  0.0061
   1.0351E+00   1.0602E+00   2.1932E-04  0.0060
   1.0602E+00   1.0860E+00   2.2017E-04  0.0059
   1.0860E+00   1.1125E+00   2.2291E-04  0.0058
   1.1125E+00   1.1395E+00   2.2539E-04  0.0057
   1.1395E+00   1.1673E+00   2.2915E-04  0.0056
   1.1673E+00   1.1957E+00   2.3501E-04  0.0055
   1.1957E+00   1.2247E+00   2.3793E-04  0.0054
   1.2247E+00   1.2545E+00   2.3675E-04  0.0053
   1.2545E+00   1.2851E+00   2.3614E-04  0.0053
   1.2851E+00   1.3163E+00   2.3864E-04  0.0052
   1.3163E+00   1.3484E+00   2.3736E-04  0.0051
   1.3484E+00   1.3812E+00   2.3963E-04  0.0050
   1.3812E+00   1.4148E+00   2.4570E-04  0.0049
   1.4148E+00   1.4492E+00   2.4464E-04  0.0049
   1.4492E+00   1.4845E+00   2.4066E-04  0.0049
   1.4845E+00   1.5206E+00   2.3957E-04  0.0048
   1.5206E+00   1.5576E+00   2.3722E-04  0.0048
   1.5576E+00   1.5955E+00   2.3703E-04  0.0047
   1.5955E+00   1.6343E+00   2.3489E-04  0.0047
   1.6343E+00   1.6741E+00   2.3592E-04  0.0046
   1.6741E+00   1.7148E+00   2.3710E-04  0.0046
   1.7148E+00   1.7565E+00   2.3355E-04  0.0045
   1.7565E+00   1.7992E+00   2.3097E-04  0.0045
   1.7992E+00   1.8430E+00   2.2701E-04  0.0045
   1.8430E+00   1.8879E+00   2.2507E-04  0.0045
   1.8879E+00   1.9338E+00   2.2122E-04  0.0044
   1.9338E+00   1.9808E+00   2.1956E-04  0.0044
   1.9808E+00   2.0290E+00   2.1719E-04  0.0044
   2.0290E+00   2.0784E+00   2.1401E-04  0.0044
   2.0784E+00   2.1290E+00   2.0804E-04  0.0044
   2.1290E+00   2.1808E+00   2.0439E-04  0.0043
   2.1808E+00   2.2338E+00   1.9868E-04  0.0044
   2.2338E+00   2.2882E+00   1.9414E-04  0.0044
   2.2882E+00   2.3439E+00   1.9077E-04  0.0043
   2.3439E+00   2.4009E+00   1.8840E-04  0.0043
   2.4009E+00   2.4593E+00   1.8531E-04  0.0043
   2.4593E+00   2.5191E+00   1.8003E-04  0.0043
   2.5191E+00   2.5804E+00   1.7365E-04  0.0043
   2.5804E+00   2.6432E+00   1.6818E-04  0.0044
   2.6432E+00   2.7075E+00   1.6346E-04  0.0044
   2.7075E+00   2.7734E+00   1.5788E-04  0.0044
   2.7734E+00   2.8409E+00   1.5303E-04  0.0044
   2.8409E+00   2.9100E+00   1.4893E-04  0.0044
   2.9100E+00   2.9808E+00   1.4416E-04  0.0044
   2.9808E+00   3.0533E+00   1.4078E-04  0.0044
   3.0533E+00   3.1276E+00   1.3485E-04  0.0045
   3.1276E+00   3.2037E+00   1.3059E-04  0.0045
   3.2037E+00   3.2817E+00   1.2524E-04  0.0045
   3.2817E+00   3.3615E+00   1.2049E-04  0.0046
   3.3615E+00   3.4433E+00   1.1630E-04  0.0046
   3.4433E+00   3.5271E+00   1.1279E-04  0.0046
   3.5271E+00   3.6129E+00   1.0798E-04  0.0046
   3.6129E+00   3.7008E+00   1.0404E-04  0.0047
   3.7008E+00   3.7908E+00   1.0011E-04  0.0047
   3.7908E+00   3.8831E+00   9.6002E-05  0.0048
   3.8831E+00   3.9776E+00   9.3269E-05  0.0048
   3.9776E+00   4.0743E+00   8.9699E-05  0.0048
   4.0743E+00   4.1735E+00   8.6822E-05  0.0048
   4.1735E+00   4.2750E+00   8.2046E-05  0.0049
   4.2750E+00   4.3790E+00   7.9517E-05  0.0049
   4.3790E+00   4.4856E+00   7.6906E-05  0.0049
   4.4856E+00   4.5947E+00   7.3906E-05  0.0050
   4.5947E+00   4.7065E+00   7.0227E-05  0.0050
   4.7065E+00   4.8210E+00   6.8677E-05  0.0050
   4.8210E+00   4.9383E+00   6.5337E-05  0.0051
   4.9383E+00   5.0585E+00   6.2717E-05  0.0052
   5.0585E+00   5.1815E+00   6.0834E-05  0.0052
   5.1815E+00   5.3076E+00   5.8576E-05  0.0052
   5.3076E+00   5.4368E+00   5.5498E-05  0.0053
   5.4368E+00   5.5690E+00   5.3844E-05  0.0053
   5.5690E+00   5.7045E+00   5.1457E-05  0.0054
   5.7045E+00   5.8433E+00   5.0066E-05  0.0054
   5.8433E+00   5.9855E+00   4.8204E-05  0.0054
   5.9855E+00   6.1311E+00   4.6007E-05  0.0055
   6.1311E+00   6.2803E+00   4.4195E-05  0.0055
   6.2803E+00   6.4331E+00   4.2825E-05  0.0055
   6.4331E+00   6.5896E+00   4.1099E-05  0.0056
   6.5896E+00   6.7500E+00   3.9833E-05  0.0056
   6.7500E+00   6.9142E+00   3.8623E-05  0.0056
   6.9142E+00   7.0824E+00   3.7434E-05  0.0056
   7.0824E+00   7.2548E+00   3.6115E-05  0.0057
   7.2548E+00   7.4313E+00   3.5060E-05  0.0057
   7.4313E+00   7.6121E+00   3.3334E-05  0.0058
   7.6121E+00   7.7973E+00   3.2507E-05  0.0058
   7.7973E+00   7.9870E+00   3.1352E-05  0.0058
   7.9870E+00   8.1813E+00   3.0514E-05  0.0058
   8.1813E+00   8.3804E+00   2.9829E-05  0.0058
   8.3804E+00   8.5843E+00   2.8494E-05  0.0059
   8.5843E+00   8.7931E+00   2.7808E-05  0.0059
   8.7931E+00   9.0071E+00   2.7399E-05  0.0058
   9.0071E+00   9.2262E+00   2.6594E-05  0.0059
   9.2262E+00   9.4507E+00   2.6055E-05  0.0058
   9.4507E+00   9.6807E+00   2.5185E-05  0.0059
   9.6807E+00   9.9162E+00   2.4196E-05  0.0059
   9.9162E+00   1.0157E+01   2.3979E-05  0.0059
   1.0157E+01   1.0405E+01   2.3616E-05  0.0059
   1.0405E+01   1.0658E+01   2.3251E-05  0.0058
   1.0658E+01   1.0917E+01   2.2721E-05  0.0058
   1.0917E+01   1.1183E+01   2.2353E-05  0.0058
   1.1183E+01   1.1455E+01   2.2185E-05  0.0058
   1.1455E+01   1.1733E+01   2.1628E-05  0.0058
   1.1733E+01   1.2019E+01   2.1517E-05  0.0057
   1.2019E+01   1.2311E+01   2.1248E-05  0.0057
   1.2311E+01   1.2611E+01   2.1047E-05  0.0056
   1.2611E+01   1.2918E+01   2.0678E-05  0.0056
   1.2918E+01   1.3232E+01   2.0579E-05  0.0056
   1.3232E+01   1.3554E+01   2.0382E-05  0.0055
   1.3554E+01   1.3884E+01   2.0255E-05  0.0055
   1.3884E+01   1.4222E+01   2.0145E-05  0.0054
   1.4222E+01   1.4568E+01   2.0104E-05  0.0054
   1.4568E+01   1.4922E+01   1.9986E-05  0.0053
   1.4922E+01   1.5285E+01   2.0042E-05  0.0052
   1.5285E+01   1.5657E+01   2.0020E-05  0.0052
   1.5657E+01   1.6038E+01   1.9771E-05  0.0052
   1.6038E+01   1.6428E+01   1.9823E-05  0.0051
   1.6428E+01   1.6828E+01   1.9997E-05  0.0050
   1.6828E+01   1.7237E+01   1.9955E-05  0.0049
   1.7237E+01   1.7657E+01   1.9881E-05  0.0049
   1.7657E+01   1.8086E+01   1.9968E-05  0.0048
   1.8086E+01   1.8526E+01   2.0151E-05  0.0047
   1.8526E+01   1.8977E+01   2.0414E-05  0.0047
   1.8977E+01   1.9439E+01   2.0368E-05  0.0046
   1.9439E+01   1.9912E+01   2.0437E-05  0.0045
   1.9912E+01   2.0396E+01   2.0817E-05  0.0045
   2.0396E+01   2.0893E+01   2.1065E-05  0.0044
   2.0893E+01   2.1401E+01   2.1126E-05  0.0043
   2.1401E+01   2.1922E+01   2.1448E-05  0.0042
   2.1922E+01   2.2455E+01   2.1635E-05  0.0042
   2.2455E+01   2.3001E+01   2.1959E-05  0.0041
   2.3001E+01   2.3561E+01   2.2175E-05  0.0040
   2.3561E+01   2.4134E+01   2.2696E-05  0.0039
   2.4134E+01   2.4721E+01   2.2943E-05  0.0039
   2.4721E+01   2.5323E+01   2.3496E-05  0.0038
   2.5323E+01   2.5939E+01   2.3777E-05  0.0037
   2.5939E+01   2.6570E+01   2.4264E-05  0.0036
   2.6570E+01   2.7217E+01   2.4952E-05  0.0035
   2.7217E+01   2.7879E+01   2.5383E-05  0.0034
   2.7879E+01   2.8557E+01   2.6259E-05  0.0034
   2.8557E+01   2.9252E+01   2.6979E-05  0.0033
   2.9252E+01   2.9964E+01   2.7923E-05  0.0032
   2.9964E+01   3.0693E+01   2.9239E-05  0.0031
   3.0693E+01   3.1440E+01   3.0179E-05  0.0030
   3.1440E+01   3.2205E+01   3.1578E-05  0.0029
   3.2205E+01   3.2988E+01   3.2958E-05  0.0028
   3.2988E+01   3.3791E+01   3.4632E-05  0.0027
   3.3791E+01   3.4613E+01   3.6494E-05  0.0026
   3.4613E+01   3.5455E+01   3.8661E-05  0.0025
   3.5455E+01   3.6318E+01   4.1167E-05  0.0024
   3.6318E+01   3.7201E+01   4.4184E-05  0.0023
   3.7201E+01   3.8106E+01   4.7426E-05  0.0022
   3.8106E+01   3.9034E+01   5.0811E-05  0.0021
   3.9034E+01   3.9983E+01   5.5016E-05  0.0020
   3.9983E+01   4.0956E+01   5.9446E-05  0.0019
   4.0956E+01   4.1953E+01   6.4513E-05  0.0018
   4.1953E+01   4.2973E+01   7.0310E-05  0.0017
   4.2973E+01   4.4019E+01   7.6526E-05  0.0016
   4.4019E+01   4.5090E+01   8.3417E-05  0.0015
   4.5090E+01   4.6187E+01   9.1182E-05  0.0014
   4.6187E+01   4.7311E+01   9.9386E-05  0.0013
   4.7311E+01   4.8462E+01   1.0759E-04  0.0013
   4.8462E+01   4.9641E+01   1.1694E-04  0.0012
   4.9641E+01   5.0849E+01   1.2596E-04  0.0011
   5.0849E+01   5.2086E+01   1.3512E-04  0.0011
   5.2086E+01   5.3353E+01   1.4383E-04  0.0010
   5.3353E+01   5.4651E+01   1.5218E-04  0.0010
   5.4651E+01   5.5981E+01   1.5939E-04  0.0010
   5.5981E+01   5.7343E+01   1.6548E-04  0.0009
   5.7343E+01   5.8738E+01   1.7002E-04  0.0009
   5.8738E+01   6.0168E+01   1.7229E-04  0.0009
   6.0168E+01   6.1632E+01   1.7297E-04  0.0009
   6.1632E+01   6.3131E+01   1.7180E-04  0.0009
   6.3131E+01   6.4667E+01   1.6803E-04  0.0009
   6.4667E+01   6.6240E+01   1.6247E-04  0.0009
   6.6240E+01   6.7852E+01   1.5529E-04  0.0009
   6.7852E+01   6.9503E+01   1.4608E-04  0.0009
   6.9503E+01   7.1194E+01   1.3644E-04  0.0009
   7.1194E+01   7.2926E+01   1.2575E-04  0.0010
   7.2926E+01   7.4701E+01   1.1486E-04  0.0010
   7.4701E+01   7.6518E+01   1.0389E-04  0.0010
   7.6518E+01   7.8380E+01   9.3243E-05  0.0011
   7.8380E+01   8.0287E+01   8.3397E-05  0.0011
   8.0287E+01   8.2240E+01   7.3886E-05  0.0012
   8.2240E+01   8.4241E+01   6.5169E-05  0.0012
   8.4241E+01   8.6291E+01   5.7343E-05  0.0013
   8.6291E+01   8.8391E+01   5.0079E-05  0.0014
   8.8391E+01   9.0541E+01   4.3749E-05  0.0015
   9.0541E+01   9.2744E+01   3.8074E-05  0.0015
   9.2744E+01   9.5001E+01   3.2985E-05  0.0016
   9.5001E+01   9.7312E+01   2.8572E-05  0.0017
   9.7312E+01   9.9680E+01   2.4793E-05  0.0018
   9.9680E+01   1.0211E+02   2.1359E-05  0.0020
   1.0211E+02   1.0459E+02   1.8543E-05  0.0021
   1.0459E+02   1.0713E+02   1.6165E-05  0.0022
   1.0713E+02   1.0974E+02   1.4129E-05  0.0023
   1.0974E+02   1.1241E+02   1.2319E-05  0.0025
   1.1241E+02   1.1515E+02   1.1024E-05  0.0026
   1.1515E+02   1.1795E+02   9.9086E-06  0.0027
   1.1795E+02   1.2082E+02   8.5694E-06  0.0029
   1.2082E+02   1.2376E+02   7.1358E-06  0.0031
   1.2376E+02   1.2677E+02   5.9182E-06  0.0034
   1.2677E+02   1.2985E+02   4.8419E-06  0.0037
   1.2985E+02   1.3301E+02   3.8241E-06  0.0041
   1.3301E+02   1.3625E+02   2.8222E-06  0.0047
   1.3625E+02   1.3956E+02   2.0265E-06  0.0055
   1.3956E+02   1.4296E+02   1.1111E-06  0.0073
   1.4296E+02   1.4644E+02   2.4506E-07  0.0153
   1.4644E+02   1.5000E+02   0.0000E+00  0.0000

#   sum over                 5.6011E-05
'no. =    1   reg = 104 - 204'
msuc: {\huge [t-cross] in region mesh}
msdr: {\it plotted by \ANGEL \version}
msdl: {\it calculated by \PHITS  3.26}
wt: s(0.7)
\vspace{-3}
  region surface crossing
  area  &=&   1.0000E+00 [cm^2]
e:
 
# Information for Restart Calculation
# This calculation was newly started
# istdev =  2 # 1:Batch variance, 2:History variance
# resc2  = 5.00000000000000000E+09 # Total source weight or Total source weight / maxcas
# resc3  = 5.00000000000000000E+09 # Total history number or Total batch number
# maxcas =   500000000 # History / Batch, only used for istdev=1
# bitrseed = 0110100000100010111000001110001111001110100100011111101000111001 # bit data of rseed
