[ T-Cross ]
    title = [t-cross] in region mesh
     mesh =  reg            # mesh type is region-wise
      reg =    1            # number of crossing regions
      non     r-from    r-to       area
      1       113       213        1.000000    
   e-type =    3            # e-mesh is log given by emin, emax and ne
     emin =  1.0000000E-02  # minimum value of e-mesh points
     emax =   150.0000      # maximum value of e-mesh points
#    edel =  2.4039514E-02  # mesh width of e-mesh points
       ne =    400          # number of e-mesh points
#    data = ( e(i), i = 1, ne + 1 )
#           1.00000E-02  1.02433E-02  1.04925E-02  1.07478E-02  1.10093E-02
#           1.12772E-02  1.15516E-02  1.18326E-02  1.21205E-02  1.24154E-02
#           1.27175E-02  1.30269E-02  1.33439E-02  1.36686E-02  1.40011E-02
#           1.43418E-02  1.46907E-02  1.50482E-02  1.54143E-02  1.57894E-02
#           1.61735E-02  1.65670E-02  1.69701E-02  1.73830E-02  1.78060E-02
#           1.82392E-02  1.86830E-02  1.91375E-02  1.96032E-02  2.00801E-02
#           2.05687E-02  2.10692E-02  2.15818E-02  2.21069E-02  2.26448E-02
#           2.31957E-02  2.37601E-02  2.43382E-02  2.49304E-02  2.55369E-02
#           2.61583E-02  2.67947E-02  2.74467E-02  2.81145E-02  2.87985E-02
#           2.94992E-02  3.02169E-02  3.09521E-02  3.17052E-02  3.24766E-02
#           3.32668E-02  3.40762E-02  3.49053E-02  3.57546E-02  3.66246E-02
#           3.75157E-02  3.84284E-02  3.93634E-02  4.03212E-02  4.13022E-02
#           4.23071E-02  4.33365E-02  4.43909E-02  4.54710E-02  4.65773E-02
#           4.77106E-02  4.88714E-02  5.00605E-02  5.12785E-02  5.25262E-02
#           5.38042E-02  5.51133E-02  5.64542E-02  5.78278E-02  5.92348E-02
#           6.06760E-02  6.21523E-02  6.36645E-02  6.52135E-02  6.68002E-02
#           6.84255E-02  7.00904E-02  7.17957E-02  7.35426E-02  7.53319E-02
#           7.71648E-02  7.90423E-02  8.09655E-02  8.29354E-02  8.49533E-02
#           8.70203E-02  8.91376E-02  9.13064E-02  9.35279E-02  9.58035E-02
#           9.81345E-02  1.00522E-01  1.02968E-01  1.05473E-01  1.08040E-01
#           1.10668E-01  1.13361E-01  1.16119E-01  1.18944E-01  1.21838E-01
#           1.24803E-01  1.27839E-01  1.30950E-01  1.34136E-01  1.37399E-01
#           1.40742E-01  1.44167E-01  1.47675E-01  1.51268E-01  1.54948E-01
#           1.58718E-01  1.62580E-01  1.66535E-01  1.70587E-01  1.74738E-01
#           1.78989E-01  1.83344E-01  1.87805E-01  1.92375E-01  1.97055E-01
#           2.01850E-01  2.06761E-01  2.11792E-01  2.16945E-01  2.22223E-01
#           2.27630E-01  2.33169E-01  2.38842E-01  2.44653E-01  2.50605E-01
#           2.56703E-01  2.62949E-01  2.69346E-01  2.75900E-01  2.82613E-01
#           2.89489E-01  2.96532E-01  3.03747E-01  3.11138E-01  3.18708E-01
#           3.26462E-01  3.34405E-01  3.42542E-01  3.50876E-01  3.59413E-01
#           3.68158E-01  3.77116E-01  3.86291E-01  3.95690E-01  4.05317E-01
#           4.15179E-01  4.25281E-01  4.35628E-01  4.46227E-01  4.57084E-01
#           4.68205E-01  4.79597E-01  4.91266E-01  5.03219E-01  5.15463E-01
#           5.28005E-01  5.40851E-01  5.54011E-01  5.67490E-01  5.81298E-01
#           5.95441E-01  6.09929E-01  6.24769E-01  6.39970E-01  6.55541E-01
#           6.71491E-01  6.87828E-01  7.04564E-01  7.21706E-01  7.39266E-01
#           7.57253E-01  7.75678E-01  7.94551E-01  8.13883E-01  8.33685E-01
#           8.53969E-01  8.74747E-01  8.96030E-01  9.17831E-01  9.40163E-01
#           9.63038E-01  9.86469E-01  1.01047E+00  1.03506E+00  1.06024E+00
#           1.08604E+00  1.11246E+00  1.13953E+00  1.16725E+00  1.19565E+00
#           1.22474E+00  1.25454E+00  1.28507E+00  1.31633E+00  1.34836E+00
#           1.38117E+00  1.41477E+00  1.44920E+00  1.48446E+00  1.52057E+00
#           1.55757E+00  1.59547E+00  1.63429E+00  1.67405E+00  1.71478E+00
#           1.75650E+00  1.79924E+00  1.84302E+00  1.88786E+00  1.93379E+00
#           1.98084E+00  2.02904E+00  2.07841E+00  2.12898E+00  2.18078E+00
#           2.23384E+00  2.28819E+00  2.34386E+00  2.40089E+00  2.45930E+00
#           2.51914E+00  2.58043E+00  2.64322E+00  2.70753E+00  2.77341E+00
#           2.84088E+00  2.91001E+00  2.98081E+00  3.05333E+00  3.12762E+00
#           3.20372E+00  3.28167E+00  3.36152E+00  3.44330E+00  3.52708E+00
#           3.61290E+00  3.70080E+00  3.79085E+00  3.88308E+00  3.97756E+00
#           4.07434E+00  4.17347E+00  4.27501E+00  4.37903E+00  4.48557E+00
#           4.59471E+00  4.70650E+00  4.82102E+00  4.93832E+00  5.05847E+00
#           5.18155E+00  5.30762E+00  5.43676E+00  5.56904E+00  5.70453E+00
#           5.84333E+00  5.98550E+00  6.13114E+00  6.28031E+00  6.43312E+00
#           6.58964E+00  6.74997E+00  6.91420E+00  7.08243E+00  7.25475E+00
#           7.43126E+00  7.61207E+00  7.79728E+00  7.98700E+00  8.18133E+00
#           8.38038E+00  8.58428E+00  8.79315E+00  9.00709E+00  9.22624E+00
#           9.45072E+00  9.68067E+00  9.91620E+00  1.01575E+01  1.04046E+01
#           1.06578E+01  1.09171E+01  1.11827E+01  1.14548E+01  1.17335E+01
#           1.20190E+01  1.23114E+01  1.26109E+01  1.29178E+01  1.32321E+01
#           1.35540E+01  1.38838E+01  1.42216E+01  1.45676E+01  1.49221E+01
#           1.52851E+01  1.56570E+01  1.60380E+01  1.64282E+01  1.68279E+01
#           1.72374E+01  1.76568E+01  1.80864E+01  1.85264E+01  1.89772E+01
#           1.94389E+01  1.99119E+01  2.03963E+01  2.08926E+01  2.14009E+01
#           2.19216E+01  2.24550E+01  2.30014E+01  2.35610E+01  2.41343E+01
#           2.47215E+01  2.53230E+01  2.59391E+01  2.65702E+01  2.72167E+01
#           2.78789E+01  2.85572E+01  2.92520E+01  2.99637E+01  3.06928E+01
#           3.14396E+01  3.22045E+01  3.29881E+01  3.37907E+01  3.46128E+01
#           3.54550E+01  3.63177E+01  3.72013E+01  3.81064E+01  3.90336E+01
#           3.99833E+01  4.09561E+01  4.19526E+01  4.29734E+01  4.40189E+01
#           4.50900E+01  4.61870E+01  4.73108E+01  4.84619E+01  4.96410E+01
#           5.08488E+01  5.20860E+01  5.33533E+01  5.46514E+01  5.59812E+01
#           5.73432E+01  5.87384E+01  6.01676E+01  6.16315E+01  6.31311E+01
#           6.46671E+01  6.62405E+01  6.78522E+01  6.95031E+01  7.11941E+01
#           7.29263E+01  7.47007E+01  7.65182E+01  7.83800E+01  8.02870E+01
#           8.22405E+01  8.42414E+01  8.62911E+01  8.83906E+01  9.05412E+01
#           9.27442E+01  9.50007E+01  9.73122E+01  9.96799E+01  1.02105E+02
#           1.04589E+02  1.07134E+02  1.09741E+02  1.12411E+02  1.15146E+02
#           1.17948E+02  1.20817E+02  1.23757E+02  1.26768E+02  1.29852E+02
#           1.33012E+02  1.36248E+02  1.39563E+02  1.42959E+02  1.46437E+02
#           1.50000E+02
     unit =    2            # unit is [1/cm^2/(MeV/n)/source]
     axis =  eng            # axis of output
     file = detector-14.out  # file name of output for the above axis
   output = f-curr          # surface crossing forward current spectrum
     part =  neutron  
# kf/name :  2112     
#    used :        main (  %)        temp (  %)       total (  %)
#  memory :         414 (  0)           0 (  0)         414 (  0)

#------------------------------------------------------------------------------
#newpage:
#   no. =    1   reg = 113 - 213

x: Energy [MeV/n]
y:  F-Curr [1/cm^2/(MeV/n)/source]         
p: xlog ylog afac(0.8) form(0.9)
h: n            x            y(neutron ),hh0l   n 
#  e-lower      e-upper      neutron     r.err 
   1.0000E-02   1.0243E-02   7.2336E-05  0.1066
   1.0243E-02   1.0493E-02   7.7840E-05  0.1015
   1.0493E-02   1.0748E-02   4.7005E-05  0.1291
   1.0748E-02   1.1009E-02   6.0420E-05  0.1125
   1.1009E-02   1.1277E-02   5.6745E-05  0.1147
   1.1277E-02   1.1552E-02   6.9246E-05  0.1026
   1.1552E-02   1.1833E-02   6.5467E-05  0.1043
   1.1833E-02   1.2121E-02   6.6690E-05  0.1021
   1.2121E-02   1.2415E-02   7.5279E-05  0.0949
   1.2415E-02   1.2718E-02   5.6939E-05  0.1078
   1.2718E-02   1.3027E-02   4.8477E-05  0.1155
   1.3027E-02   1.3344E-02   5.6790E-05  0.1054
   1.3344E-02   1.3669E-02   6.9610E-05  0.0941
   1.3669E-02   1.4001E-02   6.0138E-05  0.1000
   1.4001E-02   1.4342E-02   6.2819E-05  0.0967
   1.4342E-02   1.4691E-02   7.0498E-05  0.0902
   1.4691E-02   1.5048E-02   7.6097E-05  0.0857
   1.5048E-02   1.5414E-02   7.7021E-05  0.0842
   1.5414E-02   1.5789E-02   6.9325E-05  0.0877
   1.5789E-02   1.6174E-02   7.4447E-05  0.0836
   1.6174E-02   1.6567E-02   6.0481E-05  0.0917
   1.6567E-02   1.6970E-02   6.0036E-05  0.0909
   1.6970E-02   1.7383E-02   7.3142E-05  0.0814
   1.7383E-02   1.7806E-02   7.3769E-05  0.0801
   1.7806E-02   1.8239E-02   6.8785E-05  0.0819
   1.8239E-02   1.8683E-02   6.5349E-05  0.0830
   1.8683E-02   1.9138E-02   7.8755E-05  0.0747
   1.9138E-02   1.9603E-02   6.7006E-05  0.0801
   1.9603E-02   2.0080E-02   6.8349E-05  0.0783
   2.0080E-02   2.0569E-02   6.2223E-05  0.0811
   2.0569E-02   2.1069E-02   7.5132E-05  0.0729
   2.1069E-02   2.1582E-02   6.3204E-05  0.0786
   2.1582E-02   2.2107E-02   6.8177E-05  0.0747
   2.2107E-02   2.2645E-02   6.8045E-05  0.0739
   2.2645E-02   2.3196E-02   7.8226E-05  0.0681
   2.3196E-02   2.3760E-02   7.0167E-05  0.0711
   2.3760E-02   2.4338E-02   6.4694E-05  0.0731
   2.4338E-02   2.4930E-02   8.2071E-05  0.0642
   2.4930E-02   2.5537E-02   7.6495E-05  0.0657
   2.5537E-02   2.6158E-02   7.2425E-05  0.0667
   2.6158E-02   2.6795E-02   7.2590E-05  0.0658
   2.6795E-02   2.7447E-02   7.2400E-05  0.0651
   2.7447E-02   2.8114E-02   7.2477E-05  0.0643
   2.8114E-02   2.8799E-02   7.3094E-05  0.0632
   2.8799E-02   2.9499E-02   7.1073E-05  0.0634
   2.9499E-02   3.0217E-02   7.6351E-05  0.0604
   3.0217E-02   3.0952E-02   7.1001E-05  0.0619
   3.0952E-02   3.1705E-02   6.8518E-05  0.0623
   3.1705E-02   3.2477E-02   7.6224E-05  0.0583
   3.2477E-02   3.3267E-02   8.3525E-05  0.0550
   3.3267E-02   3.4076E-02   7.8205E-05  0.0562
   3.4076E-02   3.4905E-02   6.7302E-05  0.0599
   3.4905E-02   3.5755E-02   7.3003E-05  0.0568
   3.5755E-02   3.6625E-02   7.2649E-05  0.0563
   3.6625E-02   3.7516E-02   7.6310E-05  0.0542
   3.7516E-02   3.8428E-02   7.4059E-05  0.0544
   3.8428E-02   3.9363E-02   7.7006E-05  0.0527
   3.9363E-02   4.0321E-02   7.5386E-05  0.0526
   4.0321E-02   4.1302E-02   8.3584E-05  0.0494
   4.1302E-02   4.2307E-02   7.5628E-05  0.0513
   4.2307E-02   4.3337E-02   7.7232E-05  0.0501
   4.3337E-02   4.4391E-02   8.1088E-05  0.0484
   4.4391E-02   4.5471E-02   7.5366E-05  0.0496
   4.5471E-02   4.6577E-02   8.0807E-05  0.0473
   4.6577E-02   4.7711E-02   8.0652E-05  0.0468
   4.7711E-02   4.8871E-02   6.9950E-05  0.0496
   4.8871E-02   5.0061E-02   7.5184E-05  0.0473
   5.0061E-02   5.1279E-02   7.6436E-05  0.0463
   5.1279E-02   5.2526E-02   7.8868E-05  0.0451
   5.2526E-02   5.3804E-02   7.3161E-05  0.0462
   5.3804E-02   5.5113E-02   7.9520E-05  0.0438
   5.5113E-02   5.6454E-02   7.9794E-05  0.0432
   5.6454E-02   5.7828E-02   7.7316E-05  0.0434
   5.7828E-02   5.9235E-02   7.3774E-05  0.0439
   5.9235E-02   6.0676E-02   7.4658E-05  0.0431
   6.0676E-02   6.2152E-02   8.0472E-05  0.0410
   6.2152E-02   6.3665E-02   7.9486E-05  0.0408
   6.3665E-02   6.5214E-02   7.2175E-05  0.0423
   6.5214E-02   6.6800E-02   7.5377E-05  0.0409
   6.6800E-02   6.8426E-02   8.4538E-05  0.0382
   6.8426E-02   7.0090E-02   8.1149E-05  0.0385
   7.0090E-02   7.1796E-02   7.5058E-05  0.0395
   7.1796E-02   7.3543E-02   8.2549E-05  0.0372
   7.3543E-02   7.5332E-02   8.6344E-05  0.0360
   7.5332E-02   7.7165E-02   7.4527E-05  0.0383
   7.7165E-02   7.9042E-02   7.4568E-05  0.0378
   7.9042E-02   8.0965E-02   7.6437E-05  0.0369
   8.0965E-02   8.2935E-02   8.1829E-05  0.0352
   8.2935E-02   8.4953E-02   7.7804E-05  0.0357
   8.4953E-02   8.7020E-02   7.8182E-05  0.0352
   8.7020E-02   8.9138E-02   7.8970E-05  0.0346
   8.9138E-02   9.1306E-02   7.5711E-05  0.0349
   9.1306E-02   9.3528E-02   7.7558E-05  0.0341
   9.3528E-02   9.5804E-02   8.2176E-05  0.0327
   9.5804E-02   9.8134E-02   8.1683E-05  0.0324
   9.8134E-02   1.0052E-01   7.7732E-05  0.0328
   1.0052E-01   1.0297E-01   7.5231E-05  0.0330
   1.0297E-01   1.0547E-01   8.3104E-05  0.0310
   1.0547E-01   1.0804E-01   8.2377E-05  0.0308
   1.0804E-01   1.1067E-01   7.8899E-05  0.0311
   1.1067E-01   1.1336E-01   7.4239E-05  0.0316
   1.1336E-01   1.1612E-01   7.9038E-05  0.0303
   1.1612E-01   1.1894E-01   7.8931E-05  0.0299
   1.1894E-01   1.2184E-01   7.7263E-05  0.0299
   1.2184E-01   1.2480E-01   7.8734E-05  0.0293
   1.2480E-01   1.2784E-01   7.6534E-05  0.0293
   1.2784E-01   1.3095E-01   7.7031E-05  0.0289
   1.3095E-01   1.3414E-01   7.6582E-05  0.0286
   1.3414E-01   1.3740E-01   7.4671E-05  0.0286
   1.3740E-01   1.4074E-01   8.1303E-05  0.0271
   1.4074E-01   1.4417E-01   7.7970E-05  0.0274
   1.4417E-01   1.4767E-01   7.6575E-05  0.0273
   1.4767E-01   1.5127E-01   7.7010E-05  0.0269
   1.5127E-01   1.5495E-01   8.0533E-05  0.0260
   1.5495E-01   1.5872E-01   7.7878E-05  0.0261
   1.5872E-01   1.6258E-01   8.1777E-05  0.0252
   1.6258E-01   1.6654E-01   7.4601E-05  0.0260
   1.6654E-01   1.7059E-01   7.4236E-05  0.0258
   1.7059E-01   1.7474E-01   7.7002E-05  0.0250
   1.7474E-01   1.7899E-01   7.5220E-05  0.0250
   1.7899E-01   1.8334E-01   8.0736E-05  0.0239
   1.8334E-01   1.8781E-01   7.5231E-05  0.0244
   1.8781E-01   1.9237E-01   7.5020E-05  0.0242
   1.9237E-01   1.9706E-01   7.7212E-05  0.0235
   1.9706E-01   2.0185E-01   7.5086E-05  0.0236
   2.0185E-01   2.0676E-01   7.6805E-05  0.0230
   2.0676E-01   2.1179E-01   7.7008E-05  0.0227
   2.1179E-01   2.1694E-01   7.3898E-05  0.0229
   2.1694E-01   2.2222E-01   7.6917E-05  0.0222
   2.2222E-01   2.2763E-01   7.5053E-05  0.0222
   2.2763E-01   2.3317E-01   7.2692E-05  0.0223
   2.3317E-01   2.3884E-01   7.5108E-05  0.0217
   2.3884E-01   2.4465E-01   7.6352E-05  0.0212
   2.4465E-01   2.5061E-01   7.4320E-05  0.0213
   2.5061E-01   2.5670E-01   7.5212E-05  0.0209
   2.5670E-01   2.6295E-01   7.4899E-05  0.0207
   2.6295E-01   2.6935E-01   7.2229E-05  0.0208
   2.6935E-01   2.7590E-01   7.2207E-05  0.0206
   2.7590E-01   2.8261E-01   7.4618E-05  0.0200
   2.8261E-01   2.8949E-01   7.5841E-05  0.0196
   2.8949E-01   2.9653E-01   7.3344E-05  0.0197
   2.9653E-01   3.0375E-01   7.1491E-05  0.0197
   3.0375E-01   3.1114E-01   7.3880E-05  0.0191
   3.1114E-01   3.1871E-01   7.1425E-05  0.0192
   3.1871E-01   3.2646E-01   7.0553E-05  0.0191
   3.2646E-01   3.3441E-01   7.0627E-05  0.0189
   3.3441E-01   3.4254E-01   7.0757E-05  0.0186
   3.4254E-01   3.5088E-01   7.1128E-05  0.0184
   3.5088E-01   3.5941E-01   7.1055E-05  0.0182
   3.5941E-01   3.6816E-01   7.0396E-05  0.0180
   3.6816E-01   3.7712E-01   6.9818E-05  0.0179
   3.7712E-01   3.8629E-01   7.0906E-05  0.0175
   3.8629E-01   3.9569E-01   6.8754E-05  0.0176
   3.9569E-01   4.0532E-01   7.0444E-05  0.0172
   4.0532E-01   4.1518E-01   6.7493E-05  0.0173
   4.1518E-01   4.2528E-01   6.4772E-05  0.0175
   4.2528E-01   4.3563E-01   6.7070E-05  0.0170
   4.3563E-01   4.4623E-01   6.5864E-05  0.0169
   4.4623E-01   4.5708E-01   6.5312E-05  0.0168
   4.5708E-01   4.6821E-01   6.5712E-05  0.0165
   4.6821E-01   4.7960E-01   6.4941E-05  0.0164
   4.7960E-01   4.9127E-01   6.5130E-05  0.0162
   4.9127E-01   5.0322E-01   6.3884E-05  0.0162
   5.0322E-01   5.1546E-01   6.4123E-05  0.0160
   5.1546E-01   5.2800E-01   6.3716E-05  0.0158
   5.2800E-01   5.4085E-01   6.1650E-05  0.0159
   5.4085E-01   5.5401E-01   6.2093E-05  0.0156
   5.5401E-01   5.6749E-01   6.2443E-05  0.0154
   5.6749E-01   5.8130E-01   5.9127E-05  0.0157
   5.8130E-01   5.9544E-01   5.9696E-05  0.0154
   5.9544E-01   6.0993E-01   5.7691E-05  0.0155
   6.0993E-01   6.2477E-01   5.7695E-05  0.0153
   6.2477E-01   6.3997E-01   5.7996E-05  0.0151
   6.3997E-01   6.5554E-01   5.5321E-05  0.0152
   6.5554E-01   6.7149E-01   5.3831E-05  0.0153
   6.7149E-01   6.8783E-01   5.4144E-05  0.0150
   6.8783E-01   7.0456E-01   5.3461E-05  0.0150
   7.0456E-01   7.2171E-01   5.3061E-05  0.0148
   7.2171E-01   7.3927E-01   5.1556E-05  0.0149
   7.3927E-01   7.5725E-01   5.0754E-05  0.0148
   7.5725E-01   7.7568E-01   4.9146E-05  0.0149
   7.7568E-01   7.9455E-01   4.6644E-05  0.0151
   7.9455E-01   8.1388E-01   4.6348E-05  0.0149
   8.1388E-01   8.3368E-01   4.6818E-05  0.0147
   8.3368E-01   8.5397E-01   4.4793E-05  0.0148
   8.5397E-01   8.7475E-01   4.3455E-05  0.0149
   8.7475E-01   8.9603E-01   4.1699E-05  0.0150
   8.9603E-01   9.1783E-01   4.1117E-05  0.0149
   9.1783E-01   9.4016E-01   3.9187E-05  0.0151
   9.4016E-01   9.6304E-01   3.8173E-05  0.0151
   9.6304E-01   9.8647E-01   3.6750E-05  0.0152
   9.8647E-01   1.0105E+00   3.6239E-05  0.0152
   1.0105E+00   1.0351E+00   3.6176E-05  0.0150
   1.0351E+00   1.0602E+00   3.6134E-05  0.0148
   1.0602E+00   1.0860E+00   3.7222E-05  0.0144
   1.0860E+00   1.1125E+00   3.7678E-05  0.0142
   1.1125E+00   1.1395E+00   3.8815E-05  0.0138
   1.1395E+00   1.1673E+00   4.0273E-05  0.0134
   1.1673E+00   1.1957E+00   4.1021E-05  0.0131
   1.1957E+00   1.2247E+00   4.2848E-05  0.0127
   1.2247E+00   1.2545E+00   4.3139E-05  0.0125
   1.2545E+00   1.2851E+00   4.4067E-05  0.0122
   1.2851E+00   1.3163E+00   4.5368E-05  0.0119
   1.3163E+00   1.3484E+00   4.6029E-05  0.0116
   1.3484E+00   1.3812E+00   4.8420E-05  0.0112
   1.3812E+00   1.4148E+00   4.7847E-05  0.0112
   1.4148E+00   1.4492E+00   4.9441E-05  0.0108
   1.4492E+00   1.4845E+00   4.9529E-05  0.0107
   1.4845E+00   1.5206E+00   5.0288E-05  0.0105
   1.5206E+00   1.5576E+00   5.1267E-05  0.0103
   1.5576E+00   1.5955E+00   5.2366E-05  0.0100
   1.5955E+00   1.6343E+00   5.2719E-05  0.0099
   1.6343E+00   1.6741E+00   5.5023E-05  0.0096
   1.6741E+00   1.7148E+00   5.7882E-05  0.0092
   1.7148E+00   1.7565E+00   5.7993E-05  0.0091
   1.7565E+00   1.7992E+00   5.9637E-05  0.0089
   1.7992E+00   1.8430E+00   6.0020E-05  0.0087
   1.8430E+00   1.8879E+00   6.1792E-05  0.0085
   1.8879E+00   1.9338E+00   6.4278E-05  0.0082
   1.9338E+00   1.9808E+00   6.5240E-05  0.0081
   1.9808E+00   2.0290E+00   6.7525E-05  0.0078
   2.0290E+00   2.0784E+00   6.8032E-05  0.0077
   2.0784E+00   2.1290E+00   6.9799E-05  0.0075
   2.1290E+00   2.1808E+00   7.0286E-05  0.0074
   2.1808E+00   2.2338E+00   7.3236E-05  0.0072
   2.2338E+00   2.2882E+00   7.4575E-05  0.0070
   2.2882E+00   2.3439E+00   7.8287E-05  0.0068
   2.3439E+00   2.4009E+00   8.1513E-05  0.0066
   2.4009E+00   2.4593E+00   8.4180E-05  0.0064
   2.4593E+00   2.5191E+00   8.4418E-05  0.0063
   2.5191E+00   2.5804E+00   8.5261E-05  0.0062
   2.5804E+00   2.6432E+00   8.7895E-05  0.0060
   2.6432E+00   2.7075E+00   8.9368E-05  0.0059
   2.7075E+00   2.7734E+00   9.2396E-05  0.0057
   2.7734E+00   2.8409E+00   9.5378E-05  0.0056
   2.8409E+00   2.9100E+00   1.0040E-04  0.0054
   2.9100E+00   2.9808E+00   1.0334E-04  0.0052
   2.9808E+00   3.0533E+00   1.0491E-04  0.0051
   3.0533E+00   3.1276E+00   1.0590E-04  0.0050
   3.1276E+00   3.2037E+00   1.0645E-04  0.0050
   3.2037E+00   3.2817E+00   1.0846E-04  0.0049
   3.2817E+00   3.3615E+00   1.0946E-04  0.0048
   3.3615E+00   3.4433E+00   1.1146E-04  0.0047
   3.4433E+00   3.5271E+00   1.1446E-04  0.0046
   3.5271E+00   3.6129E+00   1.1842E-04  0.0044
   3.6129E+00   3.7008E+00   1.1941E-04  0.0044
   3.7008E+00   3.7908E+00   1.2055E-04  0.0043
   3.7908E+00   3.8831E+00   1.2223E-04  0.0042
   3.8831E+00   3.9776E+00   1.2367E-04  0.0041
   3.9776E+00   4.0743E+00   1.2614E-04  0.0040
   4.0743E+00   4.1735E+00   1.2516E-04  0.0040
   4.1735E+00   4.2750E+00   1.2457E-04  0.0040
   4.2750E+00   4.3790E+00   1.2430E-04  0.0039
   4.3790E+00   4.4856E+00   1.2398E-04  0.0039
   4.4856E+00   4.5947E+00   1.2444E-04  0.0038
   4.5947E+00   4.7065E+00   1.2478E-04  0.0038
   4.7065E+00   4.8210E+00   1.2641E-04  0.0037
   4.8210E+00   4.9383E+00   1.2726E-04  0.0037
   4.9383E+00   5.0585E+00   1.2575E-04  0.0036
   5.0585E+00   5.1815E+00   1.2430E-04  0.0036
   5.1815E+00   5.3076E+00   1.2235E-04  0.0036
   5.3076E+00   5.4368E+00   1.2068E-04  0.0036
   5.4368E+00   5.5690E+00   1.1933E-04  0.0036
   5.5690E+00   5.7045E+00   1.1791E-04  0.0035
   5.7045E+00   5.8433E+00   1.1642E-04  0.0035
   5.8433E+00   5.9855E+00   1.1631E-04  0.0035
   5.9855E+00   6.1311E+00   1.1504E-04  0.0035
   6.1311E+00   6.2803E+00   1.1280E-04  0.0034
   6.2803E+00   6.4331E+00   1.1031E-04  0.0034
   6.4331E+00   6.5896E+00   1.0867E-04  0.0034
   6.5896E+00   6.7500E+00   1.0546E-04  0.0034
   6.7500E+00   6.9142E+00   1.0398E-04  0.0034
   6.9142E+00   7.0824E+00   1.0237E-04  0.0034
   7.0824E+00   7.2548E+00   9.9970E-05  0.0034
   7.2548E+00   7.4313E+00   9.7335E-05  0.0034
   7.4313E+00   7.6121E+00   9.5446E-05  0.0034
   7.6121E+00   7.7973E+00   9.2905E-05  0.0034
   7.7973E+00   7.9870E+00   9.1496E-05  0.0034
   7.9870E+00   8.1813E+00   8.9056E-05  0.0034
   8.1813E+00   8.3804E+00   8.6352E-05  0.0034
   8.3804E+00   8.5843E+00   8.3724E-05  0.0034
   8.5843E+00   8.7931E+00   8.1866E-05  0.0034
   8.7931E+00   9.0071E+00   8.0303E-05  0.0034
   9.0071E+00   9.2262E+00   7.7670E-05  0.0034
   9.2262E+00   9.4507E+00   7.5968E-05  0.0034
   9.4507E+00   9.6807E+00   7.4329E-05  0.0034
   9.6807E+00   9.9162E+00   7.1937E-05  0.0034
   9.9162E+00   1.0157E+01   7.0469E-05  0.0034
   1.0157E+01   1.0405E+01   6.8775E-05  0.0034
   1.0405E+01   1.0658E+01   6.6853E-05  0.0034
   1.0658E+01   1.0917E+01   6.4959E-05  0.0034
   1.0917E+01   1.1183E+01   6.3935E-05  0.0034
   1.1183E+01   1.1455E+01   6.1782E-05  0.0034
   1.1455E+01   1.1733E+01   5.9804E-05  0.0035
   1.1733E+01   1.2019E+01   5.8215E-05  0.0035
   1.2019E+01   1.2311E+01   5.7201E-05  0.0035
   1.2311E+01   1.2611E+01   5.6058E-05  0.0035
   1.2611E+01   1.2918E+01   5.4518E-05  0.0035
   1.2918E+01   1.3232E+01   5.2968E-05  0.0035
   1.3232E+01   1.3554E+01   5.1686E-05  0.0035
   1.3554E+01   1.3884E+01   5.0552E-05  0.0035
   1.3884E+01   1.4222E+01   4.9575E-05  0.0035
   1.4222E+01   1.4568E+01   4.7854E-05  0.0035
   1.4568E+01   1.4922E+01   4.7133E-05  0.0035
   1.4922E+01   1.5285E+01   4.5651E-05  0.0035
   1.5285E+01   1.5657E+01   4.5261E-05  0.0034
   1.5657E+01   1.6038E+01   4.3828E-05  0.0035
   1.6038E+01   1.6428E+01   4.3121E-05  0.0034
   1.6428E+01   1.6828E+01   4.1899E-05  0.0035
   1.6828E+01   1.7237E+01   4.0990E-05  0.0035
   1.7237E+01   1.7657E+01   4.0112E-05  0.0034
   1.7657E+01   1.8086E+01   3.8798E-05  0.0035
   1.8086E+01   1.8526E+01   3.8372E-05  0.0034
   1.8526E+01   1.8977E+01   3.7225E-05  0.0035
   1.8977E+01   1.9439E+01   3.6248E-05  0.0035
   1.9439E+01   1.9912E+01   3.5419E-05  0.0035
   1.9912E+01   2.0396E+01   3.7281E-05  0.0033
   2.0396E+01   2.0893E+01   3.7209E-05  0.0033
   2.0893E+01   2.1401E+01   3.6088E-05  0.0033
   2.1401E+01   2.1922E+01   3.5132E-05  0.0033
   2.1922E+01   2.2455E+01   3.4168E-05  0.0033
   2.2455E+01   2.3001E+01   3.3141E-05  0.0033
   2.3001E+01   2.3561E+01   3.2185E-05  0.0033
   2.3561E+01   2.4134E+01   3.1122E-05  0.0033
   2.4134E+01   2.4721E+01   2.9991E-05  0.0034
   2.4721E+01   2.5323E+01   2.9101E-05  0.0034
   2.5323E+01   2.5939E+01   2.8086E-05  0.0034
   2.5939E+01   2.6570E+01   2.7197E-05  0.0034
   2.6570E+01   2.7217E+01   2.6053E-05  0.0034
   2.7217E+01   2.7879E+01   2.5043E-05  0.0035
   2.7879E+01   2.8557E+01   2.4209E-05  0.0035
   2.8557E+01   2.9252E+01   2.3258E-05  0.0035
   2.9252E+01   2.9964E+01   2.2387E-05  0.0035
   2.9964E+01   3.0693E+01   2.1395E-05  0.0036
   3.0693E+01   3.1440E+01   2.0390E-05  0.0036
   3.1440E+01   3.2205E+01   1.9388E-05  0.0037
   3.2205E+01   3.2988E+01   1.8561E-05  0.0037
   3.2988E+01   3.3791E+01   1.7650E-05  0.0038
   3.3791E+01   3.4613E+01   1.6757E-05  0.0038
   3.4613E+01   3.5455E+01   1.5906E-05  0.0039
   3.5455E+01   3.6318E+01   1.4882E-05  0.0039
   3.6318E+01   3.7201E+01   1.4117E-05  0.0040
   3.7201E+01   3.8106E+01   1.3354E-05  0.0041
   3.8106E+01   3.9034E+01   1.2469E-05  0.0042
   3.9034E+01   3.9983E+01   1.1836E-05  0.0042
   3.9983E+01   4.0956E+01   1.1013E-05  0.0043
   4.0956E+01   4.1953E+01   1.0260E-05  0.0044
   4.1953E+01   4.2973E+01   9.6232E-06  0.0045
   4.2973E+01   4.4019E+01   8.9151E-06  0.0046
   4.4019E+01   4.5090E+01   8.2542E-06  0.0048
   4.5090E+01   4.6187E+01   7.6919E-06  0.0049
   4.6187E+01   4.7311E+01   7.0637E-06  0.0050
   4.7311E+01   4.8462E+01   6.5613E-06  0.0051
   4.8462E+01   4.9641E+01   5.9490E-06  0.0053
   4.9641E+01   5.0849E+01   5.5029E-06  0.0055
   5.0849E+01   5.2086E+01   4.9425E-06  0.0057
   5.2086E+01   5.3353E+01   4.6000E-06  0.0059
   5.3353E+01   5.4651E+01   4.1495E-06  0.0061
   5.4651E+01   5.5981E+01   3.7455E-06  0.0063
   5.5981E+01   5.7343E+01   3.3794E-06  0.0066
   5.7343E+01   5.8738E+01   3.0393E-06  0.0069
   5.8738E+01   6.0168E+01   2.7573E-06  0.0071
   6.0168E+01   6.1632E+01   2.4415E-06  0.0075
   6.1632E+01   6.3131E+01   2.1608E-06  0.0079
   6.3131E+01   6.4667E+01   1.9174E-06  0.0082
   6.4667E+01   6.6240E+01   1.6825E-06  0.0087
   6.6240E+01   6.7852E+01   1.4778E-06  0.0092
   6.7852E+01   6.9503E+01   1.2987E-06  0.0097
   6.9503E+01   7.1194E+01   1.1412E-06  0.0102
   7.1194E+01   7.2926E+01   9.7783E-07  0.0109
   7.2926E+01   7.4701E+01   8.3535E-07  0.0116
   7.4701E+01   7.6518E+01   7.1922E-07  0.0124
   7.6518E+01   7.8380E+01   6.2006E-07  0.0132
   7.8380E+01   8.0287E+01   5.4126E-07  0.0139
   8.0287E+01   8.2240E+01   4.4035E-07  0.0152
   8.2240E+01   8.4241E+01   3.8021E-07  0.0162
   8.4241E+01   8.6291E+01   3.1488E-07  0.0176
   8.6291E+01   8.8391E+01   2.8406E-07  0.0183
   8.8391E+01   9.0541E+01   2.2598E-07  0.0203
   9.0541E+01   9.2744E+01   1.9338E-07  0.0217
   9.2744E+01   9.5001E+01   1.7017E-07  0.0228
   9.5001E+01   9.7312E+01   1.4242E-07  0.0246
   9.7312E+01   9.9680E+01   1.1725E-07  0.0268
   9.9680E+01   1.0211E+02   1.0316E-07  0.0283
   1.0211E+02   1.0459E+02   9.6768E-08  0.0288
   1.0459E+02   1.0713E+02   8.0715E-08  0.0312
   1.0713E+02   1.0974E+02   7.2046E-08  0.0326
   1.0974E+02   1.1241E+02   5.8575E-08  0.0358
   1.1241E+02   1.1515E+02   4.3948E-08  0.0408
   1.1515E+02   1.1795E+02   3.8835E-08  0.0429
   1.1795E+02   1.2082E+02   2.9340E-08  0.0487
   1.2082E+02   1.2376E+02   2.0411E-08  0.0577
   1.2376E+02   1.2677E+02   1.0827E-08  0.0783
   1.2677E+02   1.2985E+02   4.2796E-09  0.1231
   1.2985E+02   1.3301E+02   8.8624E-10  0.2673
   1.3301E+02   1.3625E+02   3.7080E-10  0.4082
   1.3625E+02   1.3956E+02   0.0000E+00  0.0000
   1.3956E+02   1.4296E+02   0.0000E+00  0.0000
   1.4296E+02   1.4644E+02   0.0000E+00  0.0000
   1.4644E+02   1.5000E+02   0.0000E+00  0.0000

#   sum over                 1.3410E-05
'no. =    1   reg = 113 - 213'
msuc: {\huge [t-cross] in region mesh}
msdr: {\it plotted by \ANGEL \version}
msdl: {\it calculated by \PHITS  3.26}
wt: s(0.7)
\vspace{-3}
  region surface crossing
  area  &=&   1.0000E+00 [cm^2]
e:
 
# Information for Restart Calculation
# This calculation was newly started
# istdev =  2 # 1:Batch variance, 2:History variance
# resc2  = 5.00000000000000000E+09 # Total source weight or Total source weight / maxcas
# resc3  = 5.00000000000000000E+09 # Total history number or Total batch number
# maxcas =   500000000 # History / Batch, only used for istdev=1
# bitrseed = 0110100000100010111000001110001111001110100100011111101000111001 # bit data of rseed
