[ T-Cross ]
    title = [t-cross] in region mesh
     mesh =  reg            # mesh type is region-wise
      reg =    1            # number of crossing regions
      non     r-from    r-to       area
      1       121       221        1.000000    
   e-type =    3            # e-mesh is log given by emin, emax and ne
     emin =  1.0000000E-02  # minimum value of e-mesh points
     emax =   150.0000      # maximum value of e-mesh points
#    edel =  2.4039514E-02  # mesh width of e-mesh points
       ne =    400          # number of e-mesh points
#    data = ( e(i), i = 1, ne + 1 )
#           1.00000E-02  1.02433E-02  1.04925E-02  1.07478E-02  1.10093E-02
#           1.12772E-02  1.15516E-02  1.18326E-02  1.21205E-02  1.24154E-02
#           1.27175E-02  1.30269E-02  1.33439E-02  1.36686E-02  1.40011E-02
#           1.43418E-02  1.46907E-02  1.50482E-02  1.54143E-02  1.57894E-02
#           1.61735E-02  1.65670E-02  1.69701E-02  1.73830E-02  1.78060E-02
#           1.82392E-02  1.86830E-02  1.91375E-02  1.96032E-02  2.00801E-02
#           2.05687E-02  2.10692E-02  2.15818E-02  2.21069E-02  2.26448E-02
#           2.31957E-02  2.37601E-02  2.43382E-02  2.49304E-02  2.55369E-02
#           2.61583E-02  2.67947E-02  2.74467E-02  2.81145E-02  2.87985E-02
#           2.94992E-02  3.02169E-02  3.09521E-02  3.17052E-02  3.24766E-02
#           3.32668E-02  3.40762E-02  3.49053E-02  3.57546E-02  3.66246E-02
#           3.75157E-02  3.84284E-02  3.93634E-02  4.03212E-02  4.13022E-02
#           4.23071E-02  4.33365E-02  4.43909E-02  4.54710E-02  4.65773E-02
#           4.77106E-02  4.88714E-02  5.00605E-02  5.12785E-02  5.25262E-02
#           5.38042E-02  5.51133E-02  5.64542E-02  5.78278E-02  5.92348E-02
#           6.06760E-02  6.21523E-02  6.36645E-02  6.52135E-02  6.68002E-02
#           6.84255E-02  7.00904E-02  7.17957E-02  7.35426E-02  7.53319E-02
#           7.71648E-02  7.90423E-02  8.09655E-02  8.29354E-02  8.49533E-02
#           8.70203E-02  8.91376E-02  9.13064E-02  9.35279E-02  9.58035E-02
#           9.81345E-02  1.00522E-01  1.02968E-01  1.05473E-01  1.08040E-01
#           1.10668E-01  1.13361E-01  1.16119E-01  1.18944E-01  1.21838E-01
#           1.24803E-01  1.27839E-01  1.30950E-01  1.34136E-01  1.37399E-01
#           1.40742E-01  1.44167E-01  1.47675E-01  1.51268E-01  1.54948E-01
#           1.58718E-01  1.62580E-01  1.66535E-01  1.70587E-01  1.74738E-01
#           1.78989E-01  1.83344E-01  1.87805E-01  1.92375E-01  1.97055E-01
#           2.01850E-01  2.06761E-01  2.11792E-01  2.16945E-01  2.22223E-01
#           2.27630E-01  2.33169E-01  2.38842E-01  2.44653E-01  2.50605E-01
#           2.56703E-01  2.62949E-01  2.69346E-01  2.75900E-01  2.82613E-01
#           2.89489E-01  2.96532E-01  3.03747E-01  3.11138E-01  3.18708E-01
#           3.26462E-01  3.34405E-01  3.42542E-01  3.50876E-01  3.59413E-01
#           3.68158E-01  3.77116E-01  3.86291E-01  3.95690E-01  4.05317E-01
#           4.15179E-01  4.25281E-01  4.35628E-01  4.46227E-01  4.57084E-01
#           4.68205E-01  4.79597E-01  4.91266E-01  5.03219E-01  5.15463E-01
#           5.28005E-01  5.40851E-01  5.54011E-01  5.67490E-01  5.81298E-01
#           5.95441E-01  6.09929E-01  6.24769E-01  6.39970E-01  6.55541E-01
#           6.71491E-01  6.87828E-01  7.04564E-01  7.21706E-01  7.39266E-01
#           7.57253E-01  7.75678E-01  7.94551E-01  8.13883E-01  8.33685E-01
#           8.53969E-01  8.74747E-01  8.96030E-01  9.17831E-01  9.40163E-01
#           9.63038E-01  9.86469E-01  1.01047E+00  1.03506E+00  1.06024E+00
#           1.08604E+00  1.11246E+00  1.13953E+00  1.16725E+00  1.19565E+00
#           1.22474E+00  1.25454E+00  1.28507E+00  1.31633E+00  1.34836E+00
#           1.38117E+00  1.41477E+00  1.44920E+00  1.48446E+00  1.52057E+00
#           1.55757E+00  1.59547E+00  1.63429E+00  1.67405E+00  1.71478E+00
#           1.75650E+00  1.79924E+00  1.84302E+00  1.88786E+00  1.93379E+00
#           1.98084E+00  2.02904E+00  2.07841E+00  2.12898E+00  2.18078E+00
#           2.23384E+00  2.28819E+00  2.34386E+00  2.40089E+00  2.45930E+00
#           2.51914E+00  2.58043E+00  2.64322E+00  2.70753E+00  2.77341E+00
#           2.84088E+00  2.91001E+00  2.98081E+00  3.05333E+00  3.12762E+00
#           3.20372E+00  3.28167E+00  3.36152E+00  3.44330E+00  3.52708E+00
#           3.61290E+00  3.70080E+00  3.79085E+00  3.88308E+00  3.97756E+00
#           4.07434E+00  4.17347E+00  4.27501E+00  4.37903E+00  4.48557E+00
#           4.59471E+00  4.70650E+00  4.82102E+00  4.93832E+00  5.05847E+00
#           5.18155E+00  5.30762E+00  5.43676E+00  5.56904E+00  5.70453E+00
#           5.84333E+00  5.98550E+00  6.13114E+00  6.28031E+00  6.43312E+00
#           6.58964E+00  6.74997E+00  6.91420E+00  7.08243E+00  7.25475E+00
#           7.43126E+00  7.61207E+00  7.79728E+00  7.98700E+00  8.18133E+00
#           8.38038E+00  8.58428E+00  8.79315E+00  9.00709E+00  9.22624E+00
#           9.45072E+00  9.68067E+00  9.91620E+00  1.01575E+01  1.04046E+01
#           1.06578E+01  1.09171E+01  1.11827E+01  1.14548E+01  1.17335E+01
#           1.20190E+01  1.23114E+01  1.26109E+01  1.29178E+01  1.32321E+01
#           1.35540E+01  1.38838E+01  1.42216E+01  1.45676E+01  1.49221E+01
#           1.52851E+01  1.56570E+01  1.60380E+01  1.64282E+01  1.68279E+01
#           1.72374E+01  1.76568E+01  1.80864E+01  1.85264E+01  1.89772E+01
#           1.94389E+01  1.99119E+01  2.03963E+01  2.08926E+01  2.14009E+01
#           2.19216E+01  2.24550E+01  2.30014E+01  2.35610E+01  2.41343E+01
#           2.47215E+01  2.53230E+01  2.59391E+01  2.65702E+01  2.72167E+01
#           2.78789E+01  2.85572E+01  2.92520E+01  2.99637E+01  3.06928E+01
#           3.14396E+01  3.22045E+01  3.29881E+01  3.37907E+01  3.46128E+01
#           3.54550E+01  3.63177E+01  3.72013E+01  3.81064E+01  3.90336E+01
#           3.99833E+01  4.09561E+01  4.19526E+01  4.29734E+01  4.40189E+01
#           4.50900E+01  4.61870E+01  4.73108E+01  4.84619E+01  4.96410E+01
#           5.08488E+01  5.20860E+01  5.33533E+01  5.46514E+01  5.59812E+01
#           5.73432E+01  5.87384E+01  6.01676E+01  6.16315E+01  6.31311E+01
#           6.46671E+01  6.62405E+01  6.78522E+01  6.95031E+01  7.11941E+01
#           7.29263E+01  7.47007E+01  7.65182E+01  7.83800E+01  8.02870E+01
#           8.22405E+01  8.42414E+01  8.62911E+01  8.83906E+01  9.05412E+01
#           9.27442E+01  9.50007E+01  9.73122E+01  9.96799E+01  1.02105E+02
#           1.04589E+02  1.07134E+02  1.09741E+02  1.12411E+02  1.15146E+02
#           1.17948E+02  1.20817E+02  1.23757E+02  1.26768E+02  1.29852E+02
#           1.33012E+02  1.36248E+02  1.39563E+02  1.42959E+02  1.46437E+02
#           1.50000E+02
     unit =    2            # unit is [1/cm^2/(MeV/n)/source]
     axis =  eng            # axis of output
     file = detector-22.out  # file name of output for the above axis
   output = f-curr          # surface crossing forward current spectrum
     part =  neutron  
# kf/name :  2112     
#    used :        main (  %)        temp (  %)       total (  %)
#  memory :         414 (  0)           0 (  0)         414 (  0)

#------------------------------------------------------------------------------
#newpage:
#   no. =    1   reg = 121 - 221

x: Energy [MeV/n]
y:  F-Curr [1/cm^2/(MeV/n)/source]         
p: xlog ylog afac(0.8) form(0.9)
h: n            x            y(neutron ),hh0l   n 
#  e-lower      e-upper      neutron     r.err 
   1.0000E-02   1.0243E-02   1.5289E-03  0.0733
   1.0243E-02   1.0493E-02   1.6050E-03  0.0707
   1.0493E-02   1.0748E-02   1.7079E-03  0.0677
   1.0748E-02   1.1009E-02   1.7438E-03  0.0662
   1.1009E-02   1.1277E-02   1.8069E-03  0.0643
   1.1277E-02   1.1552E-02   1.7567E-03  0.0644
   1.1552E-02   1.1833E-02   1.4943E-03  0.0690
   1.1833E-02   1.2121E-02   1.8409E-03  0.0614
   1.2121E-02   1.2415E-02   1.5598E-03  0.0659
   1.2415E-02   1.2718E-02   1.7016E-03  0.0624
   1.2718E-02   1.3027E-02   1.5706E-03  0.0642
   1.3027E-02   1.3344E-02   1.4071E-03  0.0670
   1.3344E-02   1.3669E-02   1.4661E-03  0.0648
   1.3669E-02   1.4001E-02   1.6598E-03  0.0602
   1.4001E-02   1.4342E-02   1.7672E-03  0.0576
   1.4342E-02   1.4691E-02   1.6392E-03  0.0591
   1.4691E-02   1.5048E-02   1.5499E-03  0.0601
   1.5048E-02   1.5414E-02   1.5240E-03  0.0599
   1.5414E-02   1.5789E-02   1.7705E-03  0.0549
   1.5789E-02   1.6174E-02   1.7336E-03  0.0548
   1.6174E-02   1.6567E-02   1.7890E-03  0.0533
   1.6567E-02   1.6970E-02   1.6522E-03  0.0548
   1.6970E-02   1.7383E-02   1.6711E-03  0.0538
   1.7383E-02   1.7806E-02   1.6598E-03  0.0534
   1.7806E-02   1.8239E-02   1.6619E-03  0.0527
   1.8239E-02   1.8683E-02   1.8162E-03  0.0498
   1.8683E-02   1.9138E-02   1.5575E-03  0.0531
   1.9138E-02   1.9603E-02   1.5033E-03  0.0535
   1.9603E-02   2.0080E-02   1.7821E-03  0.0485
   2.0080E-02   2.0569E-02   1.6006E-03  0.0506
   2.0569E-02   2.1069E-02   1.4907E-03  0.0518
   2.1069E-02   2.1582E-02   1.5625E-03  0.0500
   2.1582E-02   2.2107E-02   1.6035E-03  0.0487
   2.2107E-02   2.2645E-02   1.7253E-03  0.0464
   2.2645E-02   2.3196E-02   1.5536E-03  0.0483
   2.3196E-02   2.3760E-02   1.4778E-03  0.0490
   2.3760E-02   2.4338E-02   1.7713E-03  0.0442
   2.4338E-02   2.4930E-02   1.6718E-03  0.0449
   2.4930E-02   2.5537E-02   1.6585E-03  0.0446
   2.5537E-02   2.6158E-02   1.6304E-03  0.0444
   2.6158E-02   2.6795E-02   1.6781E-03  0.0433
   2.6795E-02   2.7447E-02   1.6382E-03  0.0433
   2.7447E-02   2.8114E-02   1.5124E-03  0.0445
   2.8114E-02   2.8799E-02   1.5087E-03  0.0440
   2.8799E-02   2.9499E-02   1.6155E-03  0.0420
   2.9499E-02   3.0217E-02   1.6552E-03  0.0410
   3.0217E-02   3.0952E-02   1.5914E-03  0.0413
   3.0952E-02   3.1705E-02   1.6465E-03  0.0402
   3.1705E-02   3.2477E-02   1.5737E-03  0.0406
   3.2477E-02   3.3267E-02   1.5541E-03  0.0404
   3.3267E-02   3.4076E-02   1.5592E-03  0.0398
   3.4076E-02   3.4905E-02   1.5004E-03  0.0401
   3.4905E-02   3.5755E-02   1.6296E-03  0.0380
   3.5755E-02   3.6625E-02   1.6139E-03  0.0377
   3.6625E-02   3.7516E-02   1.6766E-03  0.0366
   3.7516E-02   3.8428E-02   1.6981E-03  0.0359
   3.8428E-02   3.9363E-02   1.5893E-03  0.0367
   3.9363E-02   4.0321E-02   1.4795E-03  0.0376
   4.0321E-02   4.1302E-02   1.6533E-03  0.0351
   4.1302E-02   4.2307E-02   1.5404E-03  0.0359
   4.2307E-02   4.3337E-02   1.5641E-03  0.0352
   4.3337E-02   4.4391E-02   1.5326E-03  0.0352
   4.4391E-02   4.5471E-02   1.4888E-03  0.0353
   4.5471E-02   4.6577E-02   1.5691E-03  0.0339
   4.6577E-02   4.7711E-02   1.5901E-03  0.0333
   4.7711E-02   4.8871E-02   1.6221E-03  0.0326
   4.8871E-02   5.0061E-02   1.5390E-03  0.0331
   5.0061E-02   5.1279E-02   1.6272E-03  0.0318
   5.1279E-02   5.2526E-02   1.6062E-03  0.0316
   5.2526E-02   5.3804E-02   1.5618E-03  0.0317
   5.3804E-02   5.5113E-02   1.5415E-03  0.0315
   5.5113E-02   5.6454E-02   1.5496E-03  0.0310
   5.6454E-02   5.7828E-02   1.5318E-03  0.0308
   5.7828E-02   5.9235E-02   1.4186E-03  0.0317
   5.9235E-02   6.0676E-02   1.5001E-03  0.0304
   6.0676E-02   6.2152E-02   1.5173E-03  0.0299
   6.2152E-02   6.3665E-02   1.5765E-03  0.0290
   6.3665E-02   6.5214E-02   1.5565E-03  0.0288
   6.5214E-02   6.6800E-02   1.5233E-03  0.0288
   6.6800E-02   6.8426E-02   1.5726E-03  0.0280
   6.8426E-02   7.0090E-02   1.4710E-03  0.0286
   7.0090E-02   7.1796E-02   1.4507E-03  0.0284
   7.1796E-02   7.3543E-02   1.5227E-03  0.0274
   7.3543E-02   7.5332E-02   1.5257E-03  0.0271
   7.5332E-02   7.7165E-02   1.4916E-03  0.0270
   7.7165E-02   7.9042E-02   1.5297E-03  0.0264
   7.9042E-02   8.0965E-02   1.4809E-03  0.0265
   8.0965E-02   8.2935E-02   1.4417E-03  0.0265
   8.2935E-02   8.4953E-02   1.4976E-03  0.0257
   8.4953E-02   8.7020E-02   1.5041E-03  0.0254
   8.7020E-02   8.9138E-02   1.4660E-03  0.0254
   8.9138E-02   9.1306E-02   1.5041E-03  0.0248
   9.1306E-02   9.3528E-02   1.5026E-03  0.0245
   9.3528E-02   9.5804E-02   1.4027E-03  0.0250
   9.5804E-02   9.8134E-02   1.4972E-03  0.0240
   9.8134E-02   1.0052E-01   1.3859E-03  0.0246
   1.0052E-01   1.0297E-01   1.4527E-03  0.0237
   1.0297E-01   1.0547E-01   1.4944E-03  0.0231
   1.0547E-01   1.0804E-01   1.4558E-03  0.0231
   1.0804E-01   1.1067E-01   1.4509E-03  0.0229
   1.1067E-01   1.1336E-01   1.4476E-03  0.0227
   1.1336E-01   1.1612E-01   1.3582E-03  0.0231
   1.1612E-01   1.1894E-01   1.4427E-03  0.0222
   1.1894E-01   1.2184E-01   1.3728E-03  0.0224
   1.2184E-01   1.2480E-01   1.3466E-03  0.0224
   1.2480E-01   1.2784E-01   1.3963E-03  0.0217
   1.2784E-01   1.3095E-01   1.3757E-03  0.0216
   1.3095E-01   1.3414E-01   1.3860E-03  0.0213
   1.3414E-01   1.3740E-01   1.3586E-03  0.0212
   1.3740E-01   1.4074E-01   1.3580E-03  0.0210
   1.4074E-01   1.4417E-01   1.3126E-03  0.0211
   1.4417E-01   1.4767E-01   1.3713E-03  0.0204
   1.4767E-01   1.5127E-01   1.3604E-03  0.0202
   1.5127E-01   1.5495E-01   1.3618E-03  0.0200
   1.5495E-01   1.5872E-01   1.3761E-03  0.0196
   1.5872E-01   1.6258E-01   1.3445E-03  0.0196
   1.6258E-01   1.6654E-01   1.3340E-03  0.0195
   1.6654E-01   1.7059E-01   1.3458E-03  0.0192
   1.7059E-01   1.7474E-01   1.3225E-03  0.0191
   1.7474E-01   1.7899E-01   1.3028E-03  0.0190
   1.7899E-01   1.8334E-01   1.2880E-03  0.0189
   1.8334E-01   1.8781E-01   1.3033E-03  0.0185
   1.8781E-01   1.9237E-01   1.2991E-03  0.0184
   1.9237E-01   1.9706E-01   1.2524E-03  0.0185
   1.9706E-01   2.0185E-01   1.2694E-03  0.0181
   2.0185E-01   2.0676E-01   1.2618E-03  0.0180
   2.0676E-01   2.1179E-01   1.2635E-03  0.0177
   2.1179E-01   2.1694E-01   1.2626E-03  0.0175
   2.1694E-01   2.2222E-01   1.2496E-03  0.0174
   2.2222E-01   2.2763E-01   1.2146E-03  0.0175
   2.2763E-01   2.3317E-01   1.2545E-03  0.0170
   2.3317E-01   2.3884E-01   1.2346E-03  0.0169
   2.3884E-01   2.4465E-01   1.2092E-03  0.0169
   2.4465E-01   2.5061E-01   1.2133E-03  0.0166
   2.5061E-01   2.5670E-01   1.1687E-03  0.0168
   2.5670E-01   2.6295E-01   1.1400E-03  0.0168
   2.6295E-01   2.6935E-01   1.1341E-03  0.0166
   2.6935E-01   2.7590E-01   1.1261E-03  0.0165
   2.7590E-01   2.8261E-01   1.1578E-03  0.0160
   2.8261E-01   2.8949E-01   1.1579E-03  0.0158
   2.8949E-01   2.9653E-01   1.1244E-03  0.0159
   2.9653E-01   3.0375E-01   1.1060E-03  0.0158
   3.0375E-01   3.1114E-01   1.1307E-03  0.0155
   3.1114E-01   3.1871E-01   1.1183E-03  0.0154
   3.1871E-01   3.2646E-01   1.0670E-03  0.0155
   3.2646E-01   3.3441E-01   1.1018E-03  0.0151
   3.3441E-01   3.4254E-01   1.0578E-03  0.0152
   3.4254E-01   3.5088E-01   1.0177E-03  0.0154
   3.5088E-01   3.5941E-01   1.0409E-03  0.0150
   3.5941E-01   3.6816E-01   1.0271E-03  0.0149
   3.6816E-01   3.7712E-01   1.0136E-03  0.0148
   3.7712E-01   3.8629E-01   9.8458E-04  0.0149
   3.8629E-01   3.9569E-01   9.8162E-04  0.0147
   3.9569E-01   4.0532E-01   9.9268E-04  0.0145
   4.0532E-01   4.1518E-01   9.5683E-04  0.0146
   4.1518E-01   4.2528E-01   9.4143E-04  0.0145
   4.2528E-01   4.3563E-01   9.4526E-04  0.0143
   4.3563E-01   4.4623E-01   9.3139E-04  0.0142
   4.4623E-01   4.5708E-01   9.3395E-04  0.0140
   4.5708E-01   4.6821E-01   8.8569E-04  0.0142
   4.6821E-01   4.7960E-01   8.9038E-04  0.0140
   4.7960E-01   4.9127E-01   8.8560E-04  0.0139
   4.9127E-01   5.0322E-01   8.6121E-04  0.0139
   5.0322E-01   5.1546E-01   8.3798E-04  0.0140
   5.1546E-01   5.2800E-01   8.3657E-04  0.0138
   5.2800E-01   5.4085E-01   8.1717E-04  0.0138
   5.4085E-01   5.5401E-01   7.9791E-04  0.0138
   5.5401E-01   5.6749E-01   8.0507E-04  0.0136
   5.6749E-01   5.8130E-01   7.8747E-04  0.0136
   5.8130E-01   5.9544E-01   7.6799E-04  0.0136
   5.9544E-01   6.0993E-01   7.3677E-04  0.0137
   6.0993E-01   6.2477E-01   7.3430E-04  0.0135
   6.2477E-01   6.3997E-01   7.0995E-04  0.0136
   6.3997E-01   6.5554E-01   7.0323E-04  0.0135
   6.5554E-01   6.7149E-01   6.9368E-04  0.0134
   6.7149E-01   6.8783E-01   6.7750E-04  0.0134
   6.8783E-01   7.0456E-01   6.6219E-04  0.0134
   7.0456E-01   7.2171E-01   6.4547E-04  0.0134
   7.2171E-01   7.3927E-01   6.2251E-04  0.0135
   7.3927E-01   7.5725E-01   6.1478E-04  0.0134
   7.5725E-01   7.7568E-01   5.9649E-04  0.0135
   7.7568E-01   7.9455E-01   5.7622E-04  0.0136
   7.9455E-01   8.1388E-01   5.4521E-04  0.0138
   8.1388E-01   8.3368E-01   5.2529E-04  0.0139
   8.3368E-01   8.5397E-01   5.2129E-04  0.0138
   8.5397E-01   8.7475E-01   4.9943E-04  0.0139
   8.7475E-01   8.9603E-01   4.9175E-04  0.0138
   8.9603E-01   9.1783E-01   4.5768E-04  0.0142
   9.1783E-01   9.4016E-01   4.4193E-04  0.0142
   9.4016E-01   9.6304E-01   4.2151E-04  0.0144
   9.6304E-01   9.8647E-01   3.9887E-04  0.0146
   9.8647E-01   1.0105E+00   3.9922E-04  0.0144
   1.0105E+00   1.0351E+00   3.9670E-04  0.0143
   1.0351E+00   1.0602E+00   4.0697E-04  0.0140
   1.0602E+00   1.0860E+00   4.0323E-04  0.0139
   1.0860E+00   1.1125E+00   4.1678E-04  0.0135
   1.1125E+00   1.1395E+00   4.2908E-04  0.0131
   1.1395E+00   1.1673E+00   4.2866E-04  0.0130
   1.1673E+00   1.1957E+00   4.4049E-04  0.0126
   1.1957E+00   1.2247E+00   4.4240E-04  0.0125
   1.2247E+00   1.2545E+00   4.5763E-04  0.0121
   1.2545E+00   1.2851E+00   4.4994E-04  0.0121
   1.2851E+00   1.3163E+00   4.5301E-04  0.0119
   1.3163E+00   1.3484E+00   4.5430E-04  0.0117
   1.3484E+00   1.3812E+00   4.6771E-04  0.0114
   1.3812E+00   1.4148E+00   4.5850E-04  0.0114
   1.4148E+00   1.4492E+00   4.6409E-04  0.0112
   1.4492E+00   1.4845E+00   4.6852E-04  0.0110
   1.4845E+00   1.5206E+00   4.5429E-04  0.0110
   1.5206E+00   1.5576E+00   4.5596E-04  0.0109
   1.5576E+00   1.5955E+00   4.5009E-04  0.0108
   1.5955E+00   1.6343E+00   4.5993E-04  0.0106
   1.6343E+00   1.6741E+00   4.5557E-04  0.0105
   1.6741E+00   1.7148E+00   4.5678E-04  0.0104
   1.7148E+00   1.7565E+00   4.5573E-04  0.0103
   1.7565E+00   1.7992E+00   4.4753E-04  0.0102
   1.7992E+00   1.8430E+00   4.3758E-04  0.0102
   1.8430E+00   1.8879E+00   4.3524E-04  0.0101
   1.8879E+00   1.9338E+00   4.3039E-04  0.0101
   1.9338E+00   1.9808E+00   4.3408E-04  0.0099
   1.9808E+00   2.0290E+00   4.1784E-04  0.0100
   2.0290E+00   2.0784E+00   4.2068E-04  0.0098
   2.0784E+00   2.1290E+00   4.0523E-04  0.0099
   2.1290E+00   2.1808E+00   3.8811E-04  0.0100
   2.1808E+00   2.2338E+00   3.8487E-04  0.0099
   2.2338E+00   2.2882E+00   3.7668E-04  0.0099
   2.2882E+00   2.3439E+00   3.6978E-04  0.0099
   2.3439E+00   2.4009E+00   3.5474E-04  0.0099
   2.4009E+00   2.4593E+00   3.5592E-04  0.0098
   2.4593E+00   2.5191E+00   3.3496E-04  0.0100
   2.5191E+00   2.5804E+00   3.3214E-04  0.0099
   2.5804E+00   2.6432E+00   3.1183E-04  0.0101
   2.6432E+00   2.7075E+00   3.0093E-04  0.0102
   2.7075E+00   2.7734E+00   2.9023E-04  0.0102
   2.7734E+00   2.8409E+00   2.8226E-04  0.0102
   2.8409E+00   2.9100E+00   2.7045E-04  0.0103
   2.9100E+00   2.9808E+00   2.5989E-04  0.0104
   2.9808E+00   3.0533E+00   2.4808E-04  0.0105
   3.0533E+00   3.1276E+00   2.3353E-04  0.0107
   3.1276E+00   3.2037E+00   2.2932E-04  0.0107
   3.2037E+00   3.2817E+00   2.1490E-04  0.0109
   3.2817E+00   3.3615E+00   2.0211E-04  0.0111
   3.3615E+00   3.4433E+00   1.9385E-04  0.0112
   3.4433E+00   3.5271E+00   1.8512E-04  0.0114
   3.5271E+00   3.6129E+00   1.7396E-04  0.0116
   3.6129E+00   3.7008E+00   1.6076E-04  0.0119
   3.7008E+00   3.7908E+00   1.5047E-04  0.0121
   3.7908E+00   3.8831E+00   1.4527E-04  0.0122
   3.8831E+00   3.9776E+00   1.3884E-04  0.0123
   3.9776E+00   4.0743E+00   1.3343E-04  0.0124
   4.0743E+00   4.1735E+00   1.2103E-04  0.0129
   4.1735E+00   4.2750E+00   1.1662E-04  0.0130
   4.2750E+00   4.3790E+00   1.0821E-04  0.0133
   4.3790E+00   4.4856E+00   1.0071E-04  0.0136
   4.4856E+00   4.5947E+00   9.3634E-05  0.0140
   4.5947E+00   4.7065E+00   8.7966E-05  0.0143
   4.7065E+00   4.8210E+00   8.1930E-05  0.0146
   4.8210E+00   4.9383E+00   7.6778E-05  0.0149
   4.9383E+00   5.0585E+00   7.1567E-05  0.0152
   5.0585E+00   5.1815E+00   7.0550E-05  0.0152
   5.1815E+00   5.3076E+00   6.2988E-05  0.0159
   5.3076E+00   5.4368E+00   5.9998E-05  0.0161
   5.4368E+00   5.5690E+00   5.7106E-05  0.0163
   5.5690E+00   5.7045E+00   5.2096E-05  0.0168
   5.7045E+00   5.8433E+00   4.6781E-05  0.0175
   5.8433E+00   5.9855E+00   4.3088E-05  0.0181
   5.9855E+00   6.1311E+00   4.1509E-05  0.0182
   6.1311E+00   6.2803E+00   3.9363E-05  0.0184
   6.2803E+00   6.4331E+00   3.6897E-05  0.0188
   6.4331E+00   6.5896E+00   3.4078E-05  0.0194
   6.5896E+00   6.7500E+00   3.2158E-05  0.0197
   6.7500E+00   6.9142E+00   2.9580E-05  0.0203
   6.9142E+00   7.0824E+00   2.7219E-05  0.0209
   7.0824E+00   7.2548E+00   2.5650E-05  0.0213
   7.2548E+00   7.4313E+00   2.3386E-05  0.0220
   7.4313E+00   7.6121E+00   2.2267E-05  0.0223
   7.6121E+00   7.7973E+00   2.0253E-05  0.0231
   7.7973E+00   7.9870E+00   1.8101E-05  0.0241
   7.9870E+00   8.1813E+00   1.7270E-05  0.0244
   8.1813E+00   8.3804E+00   1.6030E-05  0.0250
   8.3804E+00   8.5843E+00   1.4747E-05  0.0258
   8.5843E+00   8.7931E+00   1.3971E-05  0.0262
   8.7931E+00   9.0071E+00   1.2026E-05  0.0279
   9.0071E+00   9.2262E+00   1.2142E-05  0.0274
   9.2262E+00   9.4507E+00   1.0232E-05  0.0295
   9.4507E+00   9.6807E+00   9.5545E-06  0.0301
   9.6807E+00   9.9162E+00   9.5696E-06  0.0298
   9.9162E+00   1.0157E+01   8.6169E-06  0.0310
   1.0157E+01   1.0405E+01   8.1573E-06  0.0315
   1.0405E+01   1.0658E+01   7.2999E-06  0.0329
   1.0658E+01   1.0917E+01   6.6638E-06  0.0340
   1.0917E+01   1.1183E+01   6.2495E-06  0.0347
   1.1183E+01   1.1455E+01   6.0459E-06  0.0349
   1.1455E+01   1.1733E+01   5.3641E-06  0.0365
   1.1733E+01   1.2019E+01   5.1701E-06  0.0368
   1.2019E+01   1.2311E+01   4.5960E-06  0.0385
   1.2311E+01   1.2611E+01   4.1029E-06  0.0403
   1.2611E+01   1.2918E+01   3.5231E-06  0.0430
   1.2918E+01   1.3232E+01   3.4935E-06  0.0427
   1.3232E+01   1.3554E+01   3.4105E-06  0.0427
   1.3554E+01   1.3884E+01   3.0323E-06  0.0447
   1.3884E+01   1.4222E+01   2.6376E-06  0.0474
   1.4222E+01   1.4568E+01   2.4363E-06  0.0487
   1.4568E+01   1.4922E+01   2.4207E-06  0.0484
   1.4922E+01   1.5285E+01   2.1704E-06  0.0504
   1.5285E+01   1.5657E+01   2.0328E-06  0.0514
   1.5657E+01   1.6038E+01   2.0003E-06  0.0512
   1.6038E+01   1.6428E+01   1.7477E-06  0.0542
   1.6428E+01   1.6828E+01   1.4285E-06  0.0592
   1.6828E+01   1.7237E+01   1.4312E-06  0.0584
   1.7237E+01   1.7657E+01   1.5689E-06  0.0551
   1.7657E+01   1.8086E+01   1.2290E-06  0.0615
   1.8086E+01   1.8526E+01   1.1862E-06  0.0619
   1.8526E+01   1.8977E+01   1.1935E-06  0.0610
   1.8977E+01   1.9439E+01   1.0699E-06  0.0636
   1.9439E+01   1.9912E+01   1.1883E-06  0.0597
   1.9912E+01   2.0396E+01   9.3298E-07  0.0665
   2.0396E+01   2.0893E+01   9.4709E-07  0.0652
   2.0893E+01   2.1401E+01   8.0262E-07  0.0700
   2.1401E+01   2.1922E+01   7.9892E-07  0.0693
   2.1922E+01   2.2455E+01   9.0744E-07  0.0643
   2.2455E+01   2.3001E+01   5.9303E-07  0.0786
   2.3001E+01   2.3561E+01   6.6829E-07  0.0731
   2.3561E+01   2.4134E+01   6.8730E-07  0.0712
   2.4134E+01   2.4721E+01   6.7779E-07  0.0709
   2.4721E+01   2.5323E+01   5.6526E-07  0.0767
   2.5323E+01   2.5939E+01   5.5833E-07  0.0762
   2.5939E+01   2.6570E+01   5.4823E-07  0.0760
   2.6570E+01   2.7217E+01   5.5996E-07  0.0743
   2.7217E+01   2.7879E+01   5.1948E-07  0.0762
   2.7879E+01   2.8557E+01   4.6881E-07  0.0793
   2.8557E+01   2.9252E+01   3.7995E-07  0.0870
   2.9252E+01   2.9964E+01   4.2713E-07  0.0811
   2.9964E+01   3.0693E+01   3.8955E-07  0.0839
   3.0693E+01   3.1440E+01   3.2406E-07  0.0909
   3.1440E+01   3.2205E+01   2.9283E-07  0.0945
   3.2205E+01   3.2988E+01   2.7566E-07  0.0962
   3.2988E+01   3.3791E+01   2.6413E-07  0.0971
   3.3791E+01   3.4613E+01   2.6272E-07  0.0962
   3.4613E+01   3.5455E+01   1.9236E-07  0.1111
   3.5455E+01   3.6318E+01   2.1098E-07  0.1048
   3.6318E+01   3.7201E+01   1.7881E-07  0.1125
   3.7201E+01   3.8106E+01   1.6130E-07  0.1170
   3.8106E+01   3.9034E+01   1.4668E-07  0.1213
   3.9034E+01   3.9983E+01   1.1582E-07  0.1348
   3.9983E+01   4.0956E+01   1.2130E-07  0.1302
   4.0956E+01   4.1953E+01   1.1842E-07  0.1302
   4.1953E+01   4.2973E+01   9.9927E-08  0.1400
   4.2973E+01   4.4019E+01   1.2051E-07  0.1260
   4.4019E+01   4.5090E+01   8.9635E-08  0.1443
   4.5090E+01   4.6187E+01   9.2975E-08  0.1400
   4.6187E+01   4.7311E+01   7.4749E-08  0.1543
   4.7311E+01   4.8462E+01   7.1236E-08  0.1562
   4.8462E+01   4.9641E+01   5.2582E-08  0.1796
   4.9641E+01   5.0849E+01   7.4515E-08  0.1491
   5.0849E+01   5.2086E+01   3.3948E-08  0.2182
   5.2086E+01   5.3353E+01   3.7876E-08  0.2041
   5.3353E+01   5.4651E+01   2.4651E-08  0.2500
   5.4651E+01   5.5981E+01   2.1057E-08  0.2673
   5.5981E+01   5.7343E+01   2.4962E-08  0.2425
   5.7343E+01   5.8738E+01   2.0069E-08  0.2673
   5.8738E+01   6.0168E+01   6.9972E-09  0.4472
   6.0168E+01   6.1632E+01   3.0056E-08  0.2132
   6.1632E+01   6.3131E+01   8.0024E-09  0.4082
   6.3131E+01   6.4667E+01   1.0416E-08  0.3536
   6.4667E+01   6.6240E+01   1.1440E-08  0.3333
   6.6240E+01   6.7852E+01   4.9638E-09  0.5000
   6.7852E+01   6.9503E+01   3.6344E-09  0.5774
   6.9503E+01   7.1194E+01   3.5481E-09  0.5774
   7.1194E+01   7.2926E+01   1.1546E-09  1.0000
   7.2926E+01   7.4701E+01   2.2543E-09  0.7071
   7.4701E+01   7.6518E+01   0.0000E+00  0.0000
   7.6518E+01   7.8380E+01   4.2970E-09  0.5000
   7.8380E+01   8.0287E+01   1.0487E-09  1.0000
   8.0287E+01   8.2240E+01   1.0238E-09  1.0000
   8.2240E+01   8.4241E+01   9.9951E-10  1.0000
   8.4241E+01   8.6291E+01   0.0000E+00  0.0000
   8.6291E+01   8.8391E+01   9.5259E-10  1.0000
   8.8391E+01   9.0541E+01   0.0000E+00  0.0000
   9.0541E+01   9.2744E+01   0.0000E+00  0.0000
   9.2744E+01   9.5001E+01   0.0000E+00  0.0000
   9.5001E+01   9.7312E+01   0.0000E+00  0.0000
   9.7312E+01   9.9680E+01   0.0000E+00  0.0000
   9.9680E+01   1.0211E+02   0.0000E+00  0.0000
   1.0211E+02   1.0459E+02   0.0000E+00  0.0000
   1.0459E+02   1.0713E+02   0.0000E+00  0.0000
   1.0713E+02   1.0974E+02   7.6727E-10  1.0000
   1.0974E+02   1.1241E+02   0.0000E+00  0.0000
   1.1241E+02   1.1515E+02   0.0000E+00  0.0000
   1.1515E+02   1.1795E+02   0.0000E+00  0.0000
   1.1795E+02   1.2082E+02   0.0000E+00  0.0000
   1.2082E+02   1.2376E+02   0.0000E+00  0.0000
   1.2376E+02   1.2677E+02   0.0000E+00  0.0000
   1.2677E+02   1.2985E+02   0.0000E+00  0.0000
   1.2985E+02   1.3301E+02   0.0000E+00  0.0000
   1.3301E+02   1.3625E+02   0.0000E+00  0.0000
   1.3625E+02   1.3956E+02   0.0000E+00  0.0000
   1.3956E+02   1.4296E+02   0.0000E+00  0.0000
   1.4296E+02   1.4644E+02   0.0000E+00  0.0000
   1.4644E+02   1.5000E+02   0.0000E+00  0.0000

#   sum over                 1.4241E-05
'no. =    1   reg = 121 - 221'
msuc: {\huge [t-cross] in region mesh}
msdr: {\it plotted by \ANGEL \version}
msdl: {\it calculated by \PHITS  3.26}
wt: s(0.7)
\vspace{-3}
  region surface crossing
  area  &=&   1.0000E+00 [cm^2]
e:
 
# Information for Restart Calculation
# This calculation was newly started
# istdev =  2 # 1:Batch variance, 2:History variance
# resc2  = 5.00000000000000000E+08 # Total source weight or Total source weight / maxcas
# resc3  = 5.00000000000000000E+08 # Total history number or Total batch number
# maxcas =   500000000 # History / Batch, only used for istdev=1
# bitrseed = 1101101111010011011000101101110001100110110010110001010100010001 # bit data of rseed
