[ T-Cross ]
    title = [t-cross] in region mesh
     mesh =  reg            # mesh type is region-wise
      reg =    1            # number of crossing regions
      non     r-from    r-to       area
      1       111       211        1.000000    
   e-type =    3            # e-mesh is log given by emin, emax and ne
     emin =  1.0000000E-02  # minimum value of e-mesh points
     emax =   150.0000      # maximum value of e-mesh points
#    edel =  2.4039514E-02  # mesh width of e-mesh points
       ne =    400          # number of e-mesh points
#    data = ( e(i), i = 1, ne + 1 )
#           1.00000E-02  1.02433E-02  1.04925E-02  1.07478E-02  1.10093E-02
#           1.12772E-02  1.15516E-02  1.18326E-02  1.21205E-02  1.24154E-02
#           1.27175E-02  1.30269E-02  1.33439E-02  1.36686E-02  1.40011E-02
#           1.43418E-02  1.46907E-02  1.50482E-02  1.54143E-02  1.57894E-02
#           1.61735E-02  1.65670E-02  1.69701E-02  1.73830E-02  1.78060E-02
#           1.82392E-02  1.86830E-02  1.91375E-02  1.96032E-02  2.00801E-02
#           2.05687E-02  2.10692E-02  2.15818E-02  2.21069E-02  2.26448E-02
#           2.31957E-02  2.37601E-02  2.43382E-02  2.49304E-02  2.55369E-02
#           2.61583E-02  2.67947E-02  2.74467E-02  2.81145E-02  2.87985E-02
#           2.94992E-02  3.02169E-02  3.09521E-02  3.17052E-02  3.24766E-02
#           3.32668E-02  3.40762E-02  3.49053E-02  3.57546E-02  3.66246E-02
#           3.75157E-02  3.84284E-02  3.93634E-02  4.03212E-02  4.13022E-02
#           4.23071E-02  4.33365E-02  4.43909E-02  4.54710E-02  4.65773E-02
#           4.77106E-02  4.88714E-02  5.00605E-02  5.12785E-02  5.25262E-02
#           5.38042E-02  5.51133E-02  5.64542E-02  5.78278E-02  5.92348E-02
#           6.06760E-02  6.21523E-02  6.36645E-02  6.52135E-02  6.68002E-02
#           6.84255E-02  7.00904E-02  7.17957E-02  7.35426E-02  7.53319E-02
#           7.71648E-02  7.90423E-02  8.09655E-02  8.29354E-02  8.49533E-02
#           8.70203E-02  8.91376E-02  9.13064E-02  9.35279E-02  9.58035E-02
#           9.81345E-02  1.00522E-01  1.02968E-01  1.05473E-01  1.08040E-01
#           1.10668E-01  1.13361E-01  1.16119E-01  1.18944E-01  1.21838E-01
#           1.24803E-01  1.27839E-01  1.30950E-01  1.34136E-01  1.37399E-01
#           1.40742E-01  1.44167E-01  1.47675E-01  1.51268E-01  1.54948E-01
#           1.58718E-01  1.62580E-01  1.66535E-01  1.70587E-01  1.74738E-01
#           1.78989E-01  1.83344E-01  1.87805E-01  1.92375E-01  1.97055E-01
#           2.01850E-01  2.06761E-01  2.11792E-01  2.16945E-01  2.22223E-01
#           2.27630E-01  2.33169E-01  2.38842E-01  2.44653E-01  2.50605E-01
#           2.56703E-01  2.62949E-01  2.69346E-01  2.75900E-01  2.82613E-01
#           2.89489E-01  2.96532E-01  3.03747E-01  3.11138E-01  3.18708E-01
#           3.26462E-01  3.34405E-01  3.42542E-01  3.50876E-01  3.59413E-01
#           3.68158E-01  3.77116E-01  3.86291E-01  3.95690E-01  4.05317E-01
#           4.15179E-01  4.25281E-01  4.35628E-01  4.46227E-01  4.57084E-01
#           4.68205E-01  4.79597E-01  4.91266E-01  5.03219E-01  5.15463E-01
#           5.28005E-01  5.40851E-01  5.54011E-01  5.67490E-01  5.81298E-01
#           5.95441E-01  6.09929E-01  6.24769E-01  6.39970E-01  6.55541E-01
#           6.71491E-01  6.87828E-01  7.04564E-01  7.21706E-01  7.39266E-01
#           7.57253E-01  7.75678E-01  7.94551E-01  8.13883E-01  8.33685E-01
#           8.53969E-01  8.74747E-01  8.96030E-01  9.17831E-01  9.40163E-01
#           9.63038E-01  9.86469E-01  1.01047E+00  1.03506E+00  1.06024E+00
#           1.08604E+00  1.11246E+00  1.13953E+00  1.16725E+00  1.19565E+00
#           1.22474E+00  1.25454E+00  1.28507E+00  1.31633E+00  1.34836E+00
#           1.38117E+00  1.41477E+00  1.44920E+00  1.48446E+00  1.52057E+00
#           1.55757E+00  1.59547E+00  1.63429E+00  1.67405E+00  1.71478E+00
#           1.75650E+00  1.79924E+00  1.84302E+00  1.88786E+00  1.93379E+00
#           1.98084E+00  2.02904E+00  2.07841E+00  2.12898E+00  2.18078E+00
#           2.23384E+00  2.28819E+00  2.34386E+00  2.40089E+00  2.45930E+00
#           2.51914E+00  2.58043E+00  2.64322E+00  2.70753E+00  2.77341E+00
#           2.84088E+00  2.91001E+00  2.98081E+00  3.05333E+00  3.12762E+00
#           3.20372E+00  3.28167E+00  3.36152E+00  3.44330E+00  3.52708E+00
#           3.61290E+00  3.70080E+00  3.79085E+00  3.88308E+00  3.97756E+00
#           4.07434E+00  4.17347E+00  4.27501E+00  4.37903E+00  4.48557E+00
#           4.59471E+00  4.70650E+00  4.82102E+00  4.93832E+00  5.05847E+00
#           5.18155E+00  5.30762E+00  5.43676E+00  5.56904E+00  5.70453E+00
#           5.84333E+00  5.98550E+00  6.13114E+00  6.28031E+00  6.43312E+00
#           6.58964E+00  6.74997E+00  6.91420E+00  7.08243E+00  7.25475E+00
#           7.43126E+00  7.61207E+00  7.79728E+00  7.98700E+00  8.18133E+00
#           8.38038E+00  8.58428E+00  8.79315E+00  9.00709E+00  9.22624E+00
#           9.45072E+00  9.68067E+00  9.91620E+00  1.01575E+01  1.04046E+01
#           1.06578E+01  1.09171E+01  1.11827E+01  1.14548E+01  1.17335E+01
#           1.20190E+01  1.23114E+01  1.26109E+01  1.29178E+01  1.32321E+01
#           1.35540E+01  1.38838E+01  1.42216E+01  1.45676E+01  1.49221E+01
#           1.52851E+01  1.56570E+01  1.60380E+01  1.64282E+01  1.68279E+01
#           1.72374E+01  1.76568E+01  1.80864E+01  1.85264E+01  1.89772E+01
#           1.94389E+01  1.99119E+01  2.03963E+01  2.08926E+01  2.14009E+01
#           2.19216E+01  2.24550E+01  2.30014E+01  2.35610E+01  2.41343E+01
#           2.47215E+01  2.53230E+01  2.59391E+01  2.65702E+01  2.72167E+01
#           2.78789E+01  2.85572E+01  2.92520E+01  2.99637E+01  3.06928E+01
#           3.14396E+01  3.22045E+01  3.29881E+01  3.37907E+01  3.46128E+01
#           3.54550E+01  3.63177E+01  3.72013E+01  3.81064E+01  3.90336E+01
#           3.99833E+01  4.09561E+01  4.19526E+01  4.29734E+01  4.40189E+01
#           4.50900E+01  4.61870E+01  4.73108E+01  4.84619E+01  4.96410E+01
#           5.08488E+01  5.20860E+01  5.33533E+01  5.46514E+01  5.59812E+01
#           5.73432E+01  5.87384E+01  6.01676E+01  6.16315E+01  6.31311E+01
#           6.46671E+01  6.62405E+01  6.78522E+01  6.95031E+01  7.11941E+01
#           7.29263E+01  7.47007E+01  7.65182E+01  7.83800E+01  8.02870E+01
#           8.22405E+01  8.42414E+01  8.62911E+01  8.83906E+01  9.05412E+01
#           9.27442E+01  9.50007E+01  9.73122E+01  9.96799E+01  1.02105E+02
#           1.04589E+02  1.07134E+02  1.09741E+02  1.12411E+02  1.15146E+02
#           1.17948E+02  1.20817E+02  1.23757E+02  1.26768E+02  1.29852E+02
#           1.33012E+02  1.36248E+02  1.39563E+02  1.42959E+02  1.46437E+02
#           1.50000E+02
     unit =    2            # unit is [1/cm^2/(MeV/n)/source]
     axis =  eng            # axis of output
     file = detector-12.out  # file name of output for the above axis
   output = f-curr          # surface crossing forward current spectrum
     part =  neutron  
# kf/name :  2112     
#    used :        main (  %)        temp (  %)       total (  %)
#  memory :         414 (  0)           0 (  0)         414 (  0)

#------------------------------------------------------------------------------
#newpage:
#   no. =    1   reg = 111 - 211

x: Energy [MeV/n]
y:  F-Curr [1/cm^2/(MeV/n)/source]         
p: xlog ylog afac(0.8) form(0.9)
h: n            x            y(neutron ),hh0l   n 
#  e-lower      e-upper      neutron     r.err 
   1.0000E-02   1.0243E-02   1.0527E-03  0.0395
   1.0243E-02   1.0493E-02   1.0439E-03  0.0392
   1.0493E-02   1.0748E-02   1.1247E-03  0.0373
   1.0748E-02   1.1009E-02   1.0957E-03  0.0373
   1.1009E-02   1.1277E-02   9.8810E-04  0.0388
   1.1277E-02   1.1552E-02   9.7753E-04  0.0386
   1.1552E-02   1.1833E-02   9.3596E-04  0.0389
   1.1833E-02   1.2121E-02   9.7161E-04  0.0378
   1.2121E-02   1.2415E-02   9.7969E-04  0.0372
   1.2415E-02   1.2718E-02   9.7103E-04  0.0369
   1.2718E-02   1.3027E-02   1.0203E-03  0.0356
   1.3027E-02   1.3344E-02   9.1932E-04  0.0370
   1.3344E-02   1.3669E-02   9.5647E-04  0.0359
   1.3669E-02   1.4001E-02   9.6702E-04  0.0352
   1.4001E-02   1.4342E-02   9.3373E-04  0.0354
   1.4342E-02   1.4691E-02   9.0668E-04  0.0355
   1.4691E-02   1.5048E-02   9.1913E-04  0.0349
   1.5048E-02   1.5414E-02   8.2020E-04  0.0365
   1.5414E-02   1.5789E-02   9.0050E-04  0.0344
   1.5789E-02   1.6174E-02   8.7620E-04  0.0344
   1.6174E-02   1.6567E-02   9.4456E-04  0.0328
   1.6567E-02   1.6970E-02   8.7744E-04  0.0336
   1.6970E-02   1.7383E-02   8.3700E-04  0.0340
   1.7383E-02   1.7806E-02   8.3892E-04  0.0335
   1.7806E-02   1.8239E-02   8.5860E-04  0.0328
   1.8239E-02   1.8683E-02   8.3428E-04  0.0328
   1.8683E-02   1.9138E-02   8.1406E-04  0.0329
   1.9138E-02   1.9603E-02   8.3904E-04  0.0320
   1.9603E-02   2.0080E-02   8.1398E-04  0.0321
   2.0080E-02   2.0569E-02   8.0327E-04  0.0319
   2.0569E-02   2.1069E-02   7.7963E-04  0.0320
   2.1069E-02   2.1582E-02   7.7245E-04  0.0317
   2.1582E-02   2.2107E-02   7.2970E-04  0.0323
   2.2107E-02   2.2645E-02   7.5751E-04  0.0313
   2.2645E-02   2.3196E-02   7.3129E-04  0.0315
   2.3196E-02   2.3760E-02   6.9455E-04  0.0319
   2.3760E-02   2.4338E-02   7.5694E-04  0.0302
   2.4338E-02   2.4930E-02   7.0180E-04  0.0310
   2.4930E-02   2.5537E-02   7.1967E-04  0.0302
   2.5537E-02   2.6158E-02   7.9420E-04  0.0284
   2.6158E-02   2.6795E-02   7.4373E-04  0.0290
   2.6795E-02   2.7447E-02   6.9241E-04  0.0297
   2.7447E-02   2.8114E-02   6.4938E-04  0.0303
   2.8114E-02   2.8799E-02   6.9408E-04  0.0290
   2.8799E-02   2.9499E-02   6.7315E-04  0.0291
   2.9499E-02   3.0217E-02   6.6638E-04  0.0289
   3.0217E-02   3.0952E-02   6.6695E-04  0.0285
   3.0952E-02   3.1705E-02   6.8143E-04  0.0279
   3.1705E-02   3.2477E-02   6.2432E-04  0.0288
   3.2477E-02   3.3267E-02   6.2800E-04  0.0284
   3.3267E-02   3.4076E-02   6.2096E-04  0.0282
   3.4076E-02   3.4905E-02   6.4102E-04  0.0274
   3.4905E-02   3.5755E-02   6.0381E-04  0.0279
   3.5755E-02   3.6625E-02   6.1120E-04  0.0274
   3.6625E-02   3.7516E-02   6.2122E-04  0.0269
   3.7516E-02   3.8428E-02   5.9673E-04  0.0271
   3.8428E-02   3.9363E-02   5.8257E-04  0.0271
   3.9363E-02   4.0321E-02   5.8878E-04  0.0266
   4.0321E-02   4.1302E-02   5.7116E-04  0.0267
   4.1302E-02   4.2307E-02   5.8178E-04  0.0261
   4.2307E-02   4.3337E-02   5.4858E-04  0.0266
   4.3337E-02   4.4391E-02   5.6468E-04  0.0259
   4.4391E-02   4.5471E-02   5.3972E-04  0.0262
   4.5471E-02   4.6577E-02   5.4073E-04  0.0258
   4.6577E-02   4.7711E-02   5.1932E-04  0.0260
   4.7711E-02   4.8871E-02   5.3800E-04  0.0253
   4.8871E-02   5.0061E-02   5.0153E-04  0.0259
   5.0061E-02   5.1279E-02   5.2318E-04  0.0250
   5.1279E-02   5.2526E-02   5.0441E-04  0.0252
   5.2526E-02   5.3804E-02   4.8744E-04  0.0253
   5.3804E-02   5.5113E-02   4.8831E-04  0.0250
   5.5113E-02   5.6454E-02   4.9403E-04  0.0245
   5.6454E-02   5.7828E-02   4.8021E-04  0.0246
   5.7828E-02   5.9235E-02   4.7022E-04  0.0246
   5.9235E-02   6.0676E-02   4.7005E-04  0.0243
   6.0676E-02   6.2152E-02   4.5914E-04  0.0243
   6.2152E-02   6.3665E-02   4.5402E-04  0.0241
   6.3665E-02   6.5214E-02   4.4283E-04  0.0241
   6.5214E-02   6.6800E-02   4.4263E-04  0.0238
   6.6800E-02   6.8426E-02   4.3606E-04  0.0237
   6.8426E-02   7.0090E-02   4.3741E-04  0.0234
   7.0090E-02   7.1796E-02   4.2595E-04  0.0234
   7.1796E-02   7.3543E-02   4.2259E-04  0.0233
   7.3543E-02   7.5332E-02   4.1837E-04  0.0231
   7.5332E-02   7.7165E-02   3.9739E-04  0.0234
   7.7165E-02   7.9042E-02   3.9494E-04  0.0232
   7.9042E-02   8.0965E-02   3.8048E-04  0.0233
   8.0965E-02   8.2935E-02   3.9639E-04  0.0226
   8.2935E-02   8.4953E-02   3.9361E-04  0.0224
   8.4953E-02   8.7020E-02   3.7567E-04  0.0227
   8.7020E-02   8.9138E-02   3.6498E-04  0.0227
   8.9138E-02   9.1306E-02   3.6794E-04  0.0224
   9.1306E-02   9.3528E-02   3.7449E-04  0.0219
   9.3528E-02   9.5804E-02   3.6046E-04  0.0221
   9.5804E-02   9.8134E-02   3.5144E-04  0.0221
   9.8134E-02   1.0052E-01   3.5300E-04  0.0218
   1.0052E-01   1.0297E-01   3.4939E-04  0.0216
   1.0297E-01   1.0547E-01   3.3100E-04  0.0219
   1.0547E-01   1.0804E-01   3.2881E-04  0.0217
   1.0804E-01   1.1067E-01   3.3930E-04  0.0212
   1.1067E-01   1.1336E-01   3.0712E-04  0.0220
   1.1336E-01   1.1612E-01   3.0641E-04  0.0217
   1.1612E-01   1.1894E-01   2.9518E-04  0.0219
   1.1894E-01   1.2184E-01   2.8541E-04  0.0220
   1.2184E-01   1.2480E-01   2.9069E-04  0.0215
   1.2480E-01   1.2784E-01   2.8930E-04  0.0213
   1.2784E-01   1.3095E-01   2.9361E-04  0.0209
   1.3095E-01   1.3414E-01   2.6986E-04  0.0215
   1.3414E-01   1.3740E-01   2.7294E-04  0.0212
   1.3740E-01   1.4074E-01   2.7227E-04  0.0209
   1.4074E-01   1.4417E-01   2.6835E-04  0.0208
   1.4417E-01   1.4767E-01   2.5861E-04  0.0210
   1.4767E-01   1.5127E-01   2.5287E-04  0.0210
   1.5127E-01   1.5495E-01   2.5451E-04  0.0206
   1.5495E-01   1.5872E-01   2.5153E-04  0.0205
   1.5872E-01   1.6258E-01   2.3764E-04  0.0209
   1.6258E-01   1.6654E-01   2.4140E-04  0.0204
   1.6654E-01   1.7059E-01   2.2853E-04  0.0208
   1.7059E-01   1.7474E-01   2.1832E-04  0.0210
   1.7474E-01   1.7899E-01   2.2459E-04  0.0204
   1.7899E-01   1.8334E-01   2.1648E-04  0.0206
   1.8334E-01   1.8781E-01   2.1260E-04  0.0205
   1.8781E-01   1.9237E-01   2.0243E-04  0.0208
   1.9237E-01   1.9706E-01   2.0899E-04  0.0202
   1.9706E-01   2.0185E-01   1.9279E-04  0.0208
   2.0185E-01   2.0676E-01   2.1247E-04  0.0196
   2.0676E-01   2.1179E-01   2.1086E-04  0.0194
   2.1179E-01   2.1694E-01   2.1077E-04  0.0192
   2.1694E-01   2.2222E-01   2.1348E-04  0.0188
   2.2222E-01   2.2763E-01   2.1799E-04  0.0184
   2.2763E-01   2.3317E-01   2.2938E-04  0.0177
   2.3317E-01   2.3884E-01   2.2948E-04  0.0175
   2.3884E-01   2.4465E-01   2.3730E-04  0.0170
   2.4465E-01   2.5061E-01   2.4190E-04  0.0166
   2.5061E-01   2.5670E-01   2.5015E-04  0.0162
   2.5670E-01   2.6295E-01   2.5133E-04  0.0159
   2.6295E-01   2.6935E-01   2.6916E-04  0.0152
   2.6935E-01   2.7590E-01   2.6532E-04  0.0152
   2.7590E-01   2.8261E-01   2.6554E-04  0.0150
   2.8261E-01   2.8949E-01   2.7351E-04  0.0146
   2.8949E-01   2.9653E-01   2.7988E-04  0.0142
   2.9653E-01   3.0375E-01   2.9380E-04  0.0137
   3.0375E-01   3.1114E-01   2.8837E-04  0.0137
   3.1114E-01   3.1871E-01   2.9648E-04  0.0133
   3.1871E-01   3.2646E-01   3.0327E-04  0.0130
   3.2646E-01   3.3441E-01   2.9879E-04  0.0130
   3.3441E-01   3.4254E-01   3.1279E-04  0.0125
   3.4254E-01   3.5088E-01   3.1179E-04  0.0124
   3.5088E-01   3.5941E-01   3.1469E-04  0.0122
   3.5941E-01   3.6816E-01   3.2622E-04  0.0118
   3.6816E-01   3.7712E-01   3.3596E-04  0.0115
   3.7712E-01   3.8629E-01   3.3305E-04  0.0114
   3.8629E-01   3.9569E-01   3.3553E-04  0.0112
   3.9569E-01   4.0532E-01   3.4336E-04  0.0110
   4.0532E-01   4.1518E-01   3.5485E-04  0.0107
   4.1518E-01   4.2528E-01   3.5807E-04  0.0105
   4.2528E-01   4.3563E-01   3.5816E-04  0.0104
   4.3563E-01   4.4623E-01   3.6114E-04  0.0102
   4.4623E-01   4.5708E-01   3.7203E-04  0.0099
   4.5708E-01   4.6821E-01   3.6849E-04  0.0099
   4.6821E-01   4.7960E-01   3.7714E-04  0.0096
   4.7960E-01   4.9127E-01   3.8336E-04  0.0094
   4.9127E-01   5.0322E-01   3.8714E-04  0.0093
   5.0322E-01   5.1546E-01   3.9491E-04  0.0091
   5.1546E-01   5.2800E-01   4.0263E-04  0.0089
   5.2800E-01   5.4085E-01   3.9301E-04  0.0089
   5.4085E-01   5.5401E-01   4.0558E-04  0.0086
   5.5401E-01   5.6749E-01   4.0774E-04  0.0085
   5.6749E-01   5.8130E-01   4.0825E-04  0.0084
   5.8130E-01   5.9544E-01   4.1460E-04  0.0082
   5.9544E-01   6.0993E-01   4.1730E-04  0.0081
   6.0993E-01   6.2477E-01   4.1269E-04  0.0081
   6.2477E-01   6.3997E-01   4.1865E-04  0.0079
   6.3997E-01   6.5554E-01   4.2683E-04  0.0077
   6.5554E-01   6.7149E-01   4.2143E-04  0.0077
   6.7149E-01   6.8783E-01   4.2220E-04  0.0076
   6.8783E-01   7.0456E-01   4.2448E-04  0.0075
   7.0456E-01   7.2171E-01   4.3077E-04  0.0073
   7.2171E-01   7.3927E-01   4.2929E-04  0.0073
   7.3927E-01   7.5725E-01   4.3163E-04  0.0072
   7.5725E-01   7.7568E-01   4.3294E-04  0.0071
   7.7568E-01   7.9455E-01   4.2635E-04  0.0070
   7.9455E-01   8.1388E-01   4.3509E-04  0.0069
   8.1388E-01   8.3368E-01   4.2728E-04  0.0069
   8.3368E-01   8.5397E-01   4.2668E-04  0.0068
   8.5397E-01   8.7475E-01   4.2384E-04  0.0067
   8.7475E-01   8.9603E-01   4.2035E-04  0.0067
   8.9603E-01   9.1783E-01   4.2024E-04  0.0066
   9.1783E-01   9.4016E-01   4.0821E-04  0.0066
   9.4016E-01   9.6304E-01   4.0517E-04  0.0066
   9.6304E-01   9.8647E-01   3.9844E-04  0.0065
   9.8647E-01   1.0105E+00   3.9052E-04  0.0065
   1.0105E+00   1.0351E+00   3.8528E-04  0.0065
   1.0351E+00   1.0602E+00   3.9235E-04  0.0063
   1.0602E+00   1.0860E+00   3.9244E-04  0.0063
   1.0860E+00   1.1125E+00   4.0045E-04  0.0061
   1.1125E+00   1.1395E+00   4.0593E-04  0.0060
   1.1395E+00   1.1673E+00   4.1495E-04  0.0059
   1.1673E+00   1.1957E+00   4.2358E-04  0.0058
   1.1957E+00   1.2247E+00   4.3029E-04  0.0056
   1.2247E+00   1.2545E+00   4.3475E-04  0.0055
   1.2545E+00   1.2851E+00   4.4017E-04  0.0054
   1.2851E+00   1.3163E+00   4.4093E-04  0.0054
   1.3163E+00   1.3484E+00   4.4467E-04  0.0053
   1.3484E+00   1.3812E+00   4.5244E-04  0.0052
   1.3812E+00   1.4148E+00   4.6007E-04  0.0051
   1.4148E+00   1.4492E+00   4.6431E-04  0.0050
   1.4492E+00   1.4845E+00   4.6527E-04  0.0049
   1.4845E+00   1.5206E+00   4.7022E-04  0.0048
   1.5206E+00   1.5576E+00   4.7802E-04  0.0047
   1.5576E+00   1.5955E+00   4.7536E-04  0.0047
   1.5955E+00   1.6343E+00   4.7500E-04  0.0046
   1.6343E+00   1.6741E+00   4.7999E-04  0.0046
   1.6741E+00   1.7148E+00   4.9253E-04  0.0045
   1.7148E+00   1.7565E+00   4.9343E-04  0.0044
   1.7565E+00   1.7992E+00   4.9433E-04  0.0043
   1.7992E+00   1.8430E+00   4.9388E-04  0.0043
   1.8430E+00   1.8879E+00   4.9224E-04  0.0042
   1.8879E+00   1.9338E+00   4.9222E-04  0.0042
   1.9338E+00   1.9808E+00   5.0002E-04  0.0041
   1.9808E+00   2.0290E+00   5.0326E-04  0.0040
   2.0290E+00   2.0784E+00   5.0124E-04  0.0040
   2.0784E+00   2.1290E+00   5.0233E-04  0.0040
   2.1290E+00   2.1808E+00   4.9354E-04  0.0039
   2.1808E+00   2.2338E+00   4.9700E-04  0.0039
   2.2338E+00   2.2882E+00   4.9349E-04  0.0039
   2.2882E+00   2.3439E+00   4.9289E-04  0.0038
   2.3439E+00   2.4009E+00   5.0071E-04  0.0037
   2.4009E+00   2.4593E+00   4.9780E-04  0.0037
   2.4593E+00   2.5191E+00   4.9732E-04  0.0037
   2.5191E+00   2.5804E+00   4.9083E-04  0.0036
   2.5804E+00   2.6432E+00   4.8606E-04  0.0036
   2.6432E+00   2.7075E+00   4.8316E-04  0.0036
   2.7075E+00   2.7734E+00   4.8218E-04  0.0035
   2.7734E+00   2.8409E+00   4.7343E-04  0.0035
   2.8409E+00   2.9100E+00   4.8214E-04  0.0035
   2.9100E+00   2.9808E+00   4.7975E-04  0.0034
   2.9808E+00   3.0533E+00   4.7376E-04  0.0034
   3.0533E+00   3.1276E+00   4.6975E-04  0.0034
   3.1276E+00   3.2037E+00   4.6501E-04  0.0034
   3.2037E+00   3.2817E+00   4.5897E-04  0.0033
   3.2817E+00   3.3615E+00   4.5551E-04  0.0033
   3.3615E+00   3.4433E+00   4.4815E-04  0.0033
   3.4433E+00   3.5271E+00   4.4235E-04  0.0033
   3.5271E+00   3.6129E+00   4.3827E-04  0.0033
   3.6129E+00   3.7008E+00   4.3399E-04  0.0032
   3.7008E+00   3.7908E+00   4.2671E-04  0.0032
   3.7908E+00   3.8831E+00   4.2110E-04  0.0032
   3.8831E+00   3.9776E+00   4.1280E-04  0.0032
   3.9776E+00   4.0743E+00   4.1220E-04  0.0032
   4.0743E+00   4.1735E+00   4.0510E-04  0.0031
   4.1735E+00   4.2750E+00   3.9887E-04  0.0031
   4.2750E+00   4.3790E+00   3.9397E-04  0.0031
   4.3790E+00   4.4856E+00   3.9073E-04  0.0031
   4.4856E+00   4.5947E+00   3.8617E-04  0.0031
   4.5947E+00   4.7065E+00   3.7944E-04  0.0031
   4.7065E+00   4.8210E+00   3.7808E-04  0.0030
   4.8210E+00   4.9383E+00   3.7603E-04  0.0030
   4.9383E+00   5.0585E+00   3.6674E-04  0.0030
   5.0585E+00   5.1815E+00   3.6241E-04  0.0030
   5.1815E+00   5.3076E+00   3.5382E-04  0.0030
   5.3076E+00   5.4368E+00   3.4684E-04  0.0030
   5.4368E+00   5.5690E+00   3.3682E-04  0.0030
   5.5690E+00   5.7045E+00   3.3485E-04  0.0030
   5.7045E+00   5.8433E+00   3.2494E-04  0.0030
   5.8433E+00   5.9855E+00   3.1836E-04  0.0030
   5.9855E+00   6.1311E+00   3.1510E-04  0.0029
   6.1311E+00   6.2803E+00   3.0734E-04  0.0029
   6.2803E+00   6.4331E+00   3.0006E-04  0.0029
   6.4331E+00   6.5896E+00   2.9342E-04  0.0029
   6.5896E+00   6.7500E+00   2.8441E-04  0.0030
   6.7500E+00   6.9142E+00   2.7947E-04  0.0029
   6.9142E+00   7.0824E+00   2.7287E-04  0.0029
   7.0824E+00   7.2548E+00   2.6900E-04  0.0029
   7.2548E+00   7.4313E+00   2.6141E-04  0.0029
   7.4313E+00   7.6121E+00   2.5410E-04  0.0029
   7.6121E+00   7.7973E+00   2.4781E-04  0.0029
   7.7973E+00   7.9870E+00   2.4214E-04  0.0029
   7.9870E+00   8.1813E+00   2.3536E-04  0.0030
   8.1813E+00   8.3804E+00   2.2842E-04  0.0030
   8.3804E+00   8.5843E+00   2.2226E-04  0.0030
   8.5843E+00   8.7931E+00   2.1516E-04  0.0030
   8.7931E+00   9.0071E+00   2.0962E-04  0.0030
   9.0071E+00   9.2262E+00   2.0261E-04  0.0030
   9.2262E+00   9.4507E+00   1.9732E-04  0.0030
   9.4507E+00   9.6807E+00   1.9195E-04  0.0030
   9.6807E+00   9.9162E+00   1.8613E-04  0.0030
   9.9162E+00   1.0157E+01   1.8009E-04  0.0030
   1.0157E+01   1.0405E+01   1.7588E-04  0.0030
   1.0405E+01   1.0658E+01   1.7148E-04  0.0030
   1.0658E+01   1.0917E+01   1.6616E-04  0.0030
   1.0917E+01   1.1183E+01   1.6167E-04  0.0031
   1.1183E+01   1.1455E+01   1.5633E-04  0.0031
   1.1455E+01   1.1733E+01   1.5231E-04  0.0031
   1.1733E+01   1.2019E+01   1.4785E-04  0.0031
   1.2019E+01   1.2311E+01   1.4115E-04  0.0031
   1.2311E+01   1.2611E+01   1.3773E-04  0.0031
   1.2611E+01   1.2918E+01   1.3293E-04  0.0031
   1.2918E+01   1.3232E+01   1.2881E-04  0.0031
   1.3232E+01   1.3554E+01   1.2353E-04  0.0032
   1.3554E+01   1.3884E+01   1.2060E-04  0.0032
   1.3884E+01   1.4222E+01   1.1563E-04  0.0032
   1.4222E+01   1.4568E+01   1.1194E-04  0.0032
   1.4568E+01   1.4922E+01   1.0781E-04  0.0032
   1.4922E+01   1.5285E+01   1.0379E-04  0.0033
   1.5285E+01   1.5657E+01   9.9559E-05  0.0033
   1.5657E+01   1.6038E+01   9.5539E-05  0.0033
   1.6038E+01   1.6428E+01   9.2252E-05  0.0033
   1.6428E+01   1.6828E+01   8.8792E-05  0.0034
   1.6828E+01   1.7237E+01   8.5136E-05  0.0034
   1.7237E+01   1.7657E+01   8.1820E-05  0.0034
   1.7657E+01   1.8086E+01   7.8590E-05  0.0034
   1.8086E+01   1.8526E+01   7.5542E-05  0.0035
   1.8526E+01   1.8977E+01   7.1833E-05  0.0035
   1.8977E+01   1.9439E+01   6.9888E-05  0.0035
   1.9439E+01   1.9912E+01   6.8117E-05  0.0035
   1.9912E+01   2.0396E+01   6.6345E-05  0.0035
   2.0396E+01   2.0893E+01   6.3474E-05  0.0036
   2.0893E+01   2.1401E+01   6.0582E-05  0.0036
   2.1401E+01   2.1922E+01   5.8150E-05  0.0036
   2.1922E+01   2.2455E+01   5.4994E-05  0.0037
   2.2455E+01   2.3001E+01   5.2498E-05  0.0037
   2.3001E+01   2.3561E+01   4.9896E-05  0.0038
   2.3561E+01   2.4134E+01   4.7539E-05  0.0038
   2.4134E+01   2.4721E+01   4.4978E-05  0.0039
   2.4721E+01   2.5323E+01   4.2418E-05  0.0040
   2.5323E+01   2.5939E+01   4.0297E-05  0.0040
   2.5939E+01   2.6570E+01   3.8101E-05  0.0041
   2.6570E+01   2.7217E+01   3.5964E-05  0.0041
   2.7217E+01   2.7879E+01   3.4124E-05  0.0042
   2.7879E+01   2.8557E+01   3.1904E-05  0.0043
   2.8557E+01   2.9252E+01   2.9788E-05  0.0044
   2.9252E+01   2.9964E+01   2.7973E-05  0.0045
   2.9964E+01   3.0693E+01   2.6014E-05  0.0046
   3.0693E+01   3.1440E+01   2.4609E-05  0.0047
   3.1440E+01   3.2205E+01   2.2598E-05  0.0048
   3.2205E+01   3.2988E+01   2.1112E-05  0.0049
   3.2988E+01   3.3791E+01   1.9494E-05  0.0051
   3.3791E+01   3.4613E+01   1.8109E-05  0.0052
   3.4613E+01   3.5455E+01   1.6512E-05  0.0054
   3.5455E+01   3.6318E+01   1.5396E-05  0.0055
   3.6318E+01   3.7201E+01   1.4174E-05  0.0057
   3.7201E+01   3.8106E+01   1.2878E-05  0.0059
   3.8106E+01   3.9034E+01   1.1767E-05  0.0061
   3.9034E+01   3.9983E+01   1.0491E-05  0.0063
   3.9983E+01   4.0956E+01   9.6202E-06  0.0065
   4.0956E+01   4.1953E+01   8.9120E-06  0.0067
   4.1953E+01   4.2973E+01   7.8794E-06  0.0071
   4.2973E+01   4.4019E+01   7.1115E-06  0.0073
   4.4019E+01   4.5090E+01   6.3842E-06  0.0076
   4.5090E+01   4.6187E+01   5.7662E-06  0.0080
   4.6187E+01   4.7311E+01   5.0281E-06  0.0084
   4.7311E+01   4.8462E+01   4.5452E-06  0.0087
   4.8462E+01   4.9641E+01   3.9982E-06  0.0092
   4.9641E+01   5.0849E+01   3.4890E-06  0.0097
   5.0849E+01   5.2086E+01   3.0592E-06  0.0103
   5.2086E+01   5.3353E+01   2.7286E-06  0.0108
   5.3353E+01   5.4651E+01   2.3616E-06  0.0114
   5.4651E+01   5.5981E+01   2.0392E-06  0.0121
   5.5981E+01   5.7343E+01   1.7368E-06  0.0130
   5.7343E+01   5.8738E+01   1.5430E-06  0.0136
   5.8738E+01   6.0168E+01   1.2939E-06  0.0147
   6.0168E+01   6.1632E+01   1.1337E-06  0.0155
   6.1632E+01   6.3131E+01   9.6483E-07  0.0166
   6.3131E+01   6.4667E+01   8.3280E-07  0.0177
   6.4667E+01   6.6240E+01   7.2099E-07  0.0188
   6.6240E+01   6.7852E+01   6.0012E-07  0.0203
   6.7852E+01   6.9503E+01   5.2020E-07  0.0216
   6.9503E+01   7.1194E+01   4.4895E-07  0.0230
   7.1194E+01   7.2926E+01   3.6023E-07  0.0253
   7.2926E+01   7.4701E+01   2.8021E-07  0.0284
   7.4701E+01   7.6518E+01   2.4539E-07  0.0299
   7.6518E+01   7.8380E+01   1.7876E-07  0.0347
   7.8380E+01   8.0287E+01   1.3298E-07  0.0397
   8.0287E+01   8.2240E+01   9.5626E-08  0.0463
   8.2240E+01   8.4241E+01   5.8771E-08  0.0583
   8.4241E+01   8.6291E+01   3.0639E-08  0.0798
   8.6291E+01   8.8391E+01   1.6385E-08  0.1078
   8.8391E+01   9.0541E+01   1.0788E-08  0.1313
   9.0541E+01   9.2744E+01   2.9052E-09  0.2500
   9.2744E+01   9.5001E+01   1.5954E-09  0.3333
   9.5001E+01   9.7312E+01   3.4610E-10  0.7071
   9.7312E+01   9.9680E+01   0.0000E+00  0.0000
   9.9680E+01   1.0211E+02   0.0000E+00  0.0000
   1.0211E+02   1.0459E+02   0.0000E+00  0.0000
   1.0459E+02   1.0713E+02   0.0000E+00  0.0000
   1.0713E+02   1.0974E+02   0.0000E+00  0.0000
   1.0974E+02   1.1241E+02   0.0000E+00  0.0000
   1.1241E+02   1.1515E+02   0.0000E+00  0.0000
   1.1515E+02   1.1795E+02   0.0000E+00  0.0000
   1.1795E+02   1.2082E+02   0.0000E+00  0.0000
   1.2082E+02   1.2376E+02   0.0000E+00  0.0000
   1.2376E+02   1.2677E+02   0.0000E+00  0.0000
   1.2677E+02   1.2985E+02   0.0000E+00  0.0000
   1.2985E+02   1.3301E+02   0.0000E+00  0.0000
   1.3301E+02   1.3625E+02   0.0000E+00  0.0000
   1.3625E+02   1.3956E+02   0.0000E+00  0.0000
   1.3956E+02   1.4296E+02   0.0000E+00  0.0000
   1.4296E+02   1.4644E+02   0.0000E+00  0.0000
   1.4644E+02   1.5000E+02   0.0000E+00  0.0000

#   sum over                 3.5224E-05
'no. =    1   reg = 111 - 211'
msuc: {\huge [t-cross] in region mesh}
msdr: {\it plotted by \ANGEL \version}
msdl: {\it calculated by \PHITS  3.26}
wt: s(0.7)
\vspace{-3}
  region surface crossing
  area  &=&   1.0000E+00 [cm^2]
e:
 
# Information for Restart Calculation
# This calculation was newly started
# istdev =  2 # 1:Batch variance, 2:History variance
# resc2  = 2.50000000000000000E+09 # Total source weight or Total source weight / maxcas
# resc3  = 2.50000000000000000E+09 # Total history number or Total batch number
# maxcas =   500000000 # History / Batch, only used for istdev=1
# bitrseed = 1100001110001001100010001100011001110101000011000110100101010100 # bit data of rseed
