[ T-Cross ]
    title = [t-cross] in region mesh
     mesh =  reg            # mesh type is region-wise
      reg =    1            # number of crossing regions
      non     r-from    r-to       area
      1       116       216        1.000000    
   e-type =    3            # e-mesh is log given by emin, emax and ne
     emin =  1.0000000E-02  # minimum value of e-mesh points
     emax =   150.0000      # maximum value of e-mesh points
#    edel =  2.4039514E-02  # mesh width of e-mesh points
       ne =    400          # number of e-mesh points
#    data = ( e(i), i = 1, ne + 1 )
#           1.00000E-02  1.02433E-02  1.04925E-02  1.07478E-02  1.10093E-02
#           1.12772E-02  1.15516E-02  1.18326E-02  1.21205E-02  1.24154E-02
#           1.27175E-02  1.30269E-02  1.33439E-02  1.36686E-02  1.40011E-02
#           1.43418E-02  1.46907E-02  1.50482E-02  1.54143E-02  1.57894E-02
#           1.61735E-02  1.65670E-02  1.69701E-02  1.73830E-02  1.78060E-02
#           1.82392E-02  1.86830E-02  1.91375E-02  1.96032E-02  2.00801E-02
#           2.05687E-02  2.10692E-02  2.15818E-02  2.21069E-02  2.26448E-02
#           2.31957E-02  2.37601E-02  2.43382E-02  2.49304E-02  2.55369E-02
#           2.61583E-02  2.67947E-02  2.74467E-02  2.81145E-02  2.87985E-02
#           2.94992E-02  3.02169E-02  3.09521E-02  3.17052E-02  3.24766E-02
#           3.32668E-02  3.40762E-02  3.49053E-02  3.57546E-02  3.66246E-02
#           3.75157E-02  3.84284E-02  3.93634E-02  4.03212E-02  4.13022E-02
#           4.23071E-02  4.33365E-02  4.43909E-02  4.54710E-02  4.65773E-02
#           4.77106E-02  4.88714E-02  5.00605E-02  5.12785E-02  5.25262E-02
#           5.38042E-02  5.51133E-02  5.64542E-02  5.78278E-02  5.92348E-02
#           6.06760E-02  6.21523E-02  6.36645E-02  6.52135E-02  6.68002E-02
#           6.84255E-02  7.00904E-02  7.17957E-02  7.35426E-02  7.53319E-02
#           7.71648E-02  7.90423E-02  8.09655E-02  8.29354E-02  8.49533E-02
#           8.70203E-02  8.91376E-02  9.13064E-02  9.35279E-02  9.58035E-02
#           9.81345E-02  1.00522E-01  1.02968E-01  1.05473E-01  1.08040E-01
#           1.10668E-01  1.13361E-01  1.16119E-01  1.18944E-01  1.21838E-01
#           1.24803E-01  1.27839E-01  1.30950E-01  1.34136E-01  1.37399E-01
#           1.40742E-01  1.44167E-01  1.47675E-01  1.51268E-01  1.54948E-01
#           1.58718E-01  1.62580E-01  1.66535E-01  1.70587E-01  1.74738E-01
#           1.78989E-01  1.83344E-01  1.87805E-01  1.92375E-01  1.97055E-01
#           2.01850E-01  2.06761E-01  2.11792E-01  2.16945E-01  2.22223E-01
#           2.27630E-01  2.33169E-01  2.38842E-01  2.44653E-01  2.50605E-01
#           2.56703E-01  2.62949E-01  2.69346E-01  2.75900E-01  2.82613E-01
#           2.89489E-01  2.96532E-01  3.03747E-01  3.11138E-01  3.18708E-01
#           3.26462E-01  3.34405E-01  3.42542E-01  3.50876E-01  3.59413E-01
#           3.68158E-01  3.77116E-01  3.86291E-01  3.95690E-01  4.05317E-01
#           4.15179E-01  4.25281E-01  4.35628E-01  4.46227E-01  4.57084E-01
#           4.68205E-01  4.79597E-01  4.91266E-01  5.03219E-01  5.15463E-01
#           5.28005E-01  5.40851E-01  5.54011E-01  5.67490E-01  5.81298E-01
#           5.95441E-01  6.09929E-01  6.24769E-01  6.39970E-01  6.55541E-01
#           6.71491E-01  6.87828E-01  7.04564E-01  7.21706E-01  7.39266E-01
#           7.57253E-01  7.75678E-01  7.94551E-01  8.13883E-01  8.33685E-01
#           8.53969E-01  8.74747E-01  8.96030E-01  9.17831E-01  9.40163E-01
#           9.63038E-01  9.86469E-01  1.01047E+00  1.03506E+00  1.06024E+00
#           1.08604E+00  1.11246E+00  1.13953E+00  1.16725E+00  1.19565E+00
#           1.22474E+00  1.25454E+00  1.28507E+00  1.31633E+00  1.34836E+00
#           1.38117E+00  1.41477E+00  1.44920E+00  1.48446E+00  1.52057E+00
#           1.55757E+00  1.59547E+00  1.63429E+00  1.67405E+00  1.71478E+00
#           1.75650E+00  1.79924E+00  1.84302E+00  1.88786E+00  1.93379E+00
#           1.98084E+00  2.02904E+00  2.07841E+00  2.12898E+00  2.18078E+00
#           2.23384E+00  2.28819E+00  2.34386E+00  2.40089E+00  2.45930E+00
#           2.51914E+00  2.58043E+00  2.64322E+00  2.70753E+00  2.77341E+00
#           2.84088E+00  2.91001E+00  2.98081E+00  3.05333E+00  3.12762E+00
#           3.20372E+00  3.28167E+00  3.36152E+00  3.44330E+00  3.52708E+00
#           3.61290E+00  3.70080E+00  3.79085E+00  3.88308E+00  3.97756E+00
#           4.07434E+00  4.17347E+00  4.27501E+00  4.37903E+00  4.48557E+00
#           4.59471E+00  4.70650E+00  4.82102E+00  4.93832E+00  5.05847E+00
#           5.18155E+00  5.30762E+00  5.43676E+00  5.56904E+00  5.70453E+00
#           5.84333E+00  5.98550E+00  6.13114E+00  6.28031E+00  6.43312E+00
#           6.58964E+00  6.74997E+00  6.91420E+00  7.08243E+00  7.25475E+00
#           7.43126E+00  7.61207E+00  7.79728E+00  7.98700E+00  8.18133E+00
#           8.38038E+00  8.58428E+00  8.79315E+00  9.00709E+00  9.22624E+00
#           9.45072E+00  9.68067E+00  9.91620E+00  1.01575E+01  1.04046E+01
#           1.06578E+01  1.09171E+01  1.11827E+01  1.14548E+01  1.17335E+01
#           1.20190E+01  1.23114E+01  1.26109E+01  1.29178E+01  1.32321E+01
#           1.35540E+01  1.38838E+01  1.42216E+01  1.45676E+01  1.49221E+01
#           1.52851E+01  1.56570E+01  1.60380E+01  1.64282E+01  1.68279E+01
#           1.72374E+01  1.76568E+01  1.80864E+01  1.85264E+01  1.89772E+01
#           1.94389E+01  1.99119E+01  2.03963E+01  2.08926E+01  2.14009E+01
#           2.19216E+01  2.24550E+01  2.30014E+01  2.35610E+01  2.41343E+01
#           2.47215E+01  2.53230E+01  2.59391E+01  2.65702E+01  2.72167E+01
#           2.78789E+01  2.85572E+01  2.92520E+01  2.99637E+01  3.06928E+01
#           3.14396E+01  3.22045E+01  3.29881E+01  3.37907E+01  3.46128E+01
#           3.54550E+01  3.63177E+01  3.72013E+01  3.81064E+01  3.90336E+01
#           3.99833E+01  4.09561E+01  4.19526E+01  4.29734E+01  4.40189E+01
#           4.50900E+01  4.61870E+01  4.73108E+01  4.84619E+01  4.96410E+01
#           5.08488E+01  5.20860E+01  5.33533E+01  5.46514E+01  5.59812E+01
#           5.73432E+01  5.87384E+01  6.01676E+01  6.16315E+01  6.31311E+01
#           6.46671E+01  6.62405E+01  6.78522E+01  6.95031E+01  7.11941E+01
#           7.29263E+01  7.47007E+01  7.65182E+01  7.83800E+01  8.02870E+01
#           8.22405E+01  8.42414E+01  8.62911E+01  8.83906E+01  9.05412E+01
#           9.27442E+01  9.50007E+01  9.73122E+01  9.96799E+01  1.02105E+02
#           1.04589E+02  1.07134E+02  1.09741E+02  1.12411E+02  1.15146E+02
#           1.17948E+02  1.20817E+02  1.23757E+02  1.26768E+02  1.29852E+02
#           1.33012E+02  1.36248E+02  1.39563E+02  1.42959E+02  1.46437E+02
#           1.50000E+02
     unit =    2            # unit is [1/cm^2/(MeV/n)/source]
     axis =  eng            # axis of output
     file = detector-17.out  # file name of output for the above axis
   output = f-curr          # surface crossing forward current spectrum
     part =  neutron  
# kf/name :  2112     
#    used :        main (  %)        temp (  %)       total (  %)
#  memory :         414 (  0)           0 (  0)         414 (  0)

#------------------------------------------------------------------------------
#newpage:
#   no. =    1   reg = 116 - 216

x: Energy [MeV/n]
y:  F-Curr [1/cm^2/(MeV/n)/source]         
p: xlog ylog afac(0.8) form(0.9)
h: n            x            y(neutron ),hh0l   n 
#  e-lower      e-upper      neutron     r.err 
   1.0000E-02   1.0243E-02   6.5431E-03  0.0354
   1.0243E-02   1.0493E-02   6.9013E-03  0.0341
   1.0493E-02   1.0748E-02   6.5650E-03  0.0345
   1.0748E-02   1.1009E-02   6.7686E-03  0.0336
   1.1009E-02   1.1277E-02   6.7123E-03  0.0334
   1.1277E-02   1.1552E-02   6.7278E-03  0.0329
   1.1552E-02   1.1833E-02   6.7103E-03  0.0326
   1.1833E-02   1.2121E-02   6.6204E-03  0.0324
   1.2121E-02   1.2415E-02   6.5140E-03  0.0323
   1.2415E-02   1.2718E-02   6.4023E-03  0.0322
   1.2718E-02   1.3027E-02   6.3731E-03  0.0318
   1.3027E-02   1.3344E-02   6.6508E-03  0.0308
   1.3344E-02   1.3669E-02   6.8994E-03  0.0299
   1.3669E-02   1.4001E-02   6.4408E-03  0.0306
   1.4001E-02   1.4342E-02   6.0706E-03  0.0311
   1.4342E-02   1.4691E-02   6.2818E-03  0.0302
   1.4691E-02   1.5048E-02   6.3116E-03  0.0298
   1.5048E-02   1.5414E-02   6.7079E-03  0.0285
   1.5414E-02   1.5789E-02   6.6446E-03  0.0283
   1.5789E-02   1.6174E-02   6.7419E-03  0.0278
   1.6174E-02   1.6567E-02   6.3937E-03  0.0282
   1.6567E-02   1.6970E-02   6.5197E-03  0.0276
   1.6970E-02   1.7383E-02   6.2049E-03  0.0279
   1.7383E-02   1.7806E-02   6.4169E-03  0.0271
   1.7806E-02   1.8239E-02   6.3707E-03  0.0269
   1.8239E-02   1.8683E-02   6.5439E-03  0.0262
   1.8683E-02   1.9138E-02   6.4984E-03  0.0260
   1.9138E-02   1.9603E-02   6.2625E-03  0.0262
   1.9603E-02   2.0080E-02   6.3234E-03  0.0258
   2.0080E-02   2.0569E-02   6.6235E-03  0.0249
   2.0569E-02   2.1069E-02   6.2983E-03  0.0252
   2.1069E-02   2.1582E-02   6.3457E-03  0.0248
   2.1582E-02   2.2107E-02   5.9417E-03  0.0253
   2.2107E-02   2.2645E-02   6.3118E-03  0.0243
   2.2645E-02   2.3196E-02   6.1928E-03  0.0242
   2.3196E-02   2.3760E-02   6.2902E-03  0.0237
   2.3760E-02   2.4338E-02   5.8952E-03  0.0242
   2.4338E-02   2.4930E-02   6.4154E-03  0.0229
   2.4930E-02   2.5537E-02   6.2779E-03  0.0229
   2.5537E-02   2.6158E-02   6.3734E-03  0.0225
   2.6158E-02   2.6795E-02   6.1073E-03  0.0227
   2.6795E-02   2.7447E-02   6.1018E-03  0.0224
   2.7447E-02   2.8114E-02   6.1246E-03  0.0221
   2.8114E-02   2.8799E-02   6.2569E-03  0.0216
   2.8799E-02   2.9499E-02   6.0155E-03  0.0218
   2.9499E-02   3.0217E-02   5.9019E-03  0.0217
   3.0217E-02   3.0952E-02   6.2133E-03  0.0209
   3.0952E-02   3.1705E-02   6.0298E-03  0.0210
   3.1705E-02   3.2477E-02   5.7920E-03  0.0212
   3.2477E-02   3.3267E-02   5.7987E-03  0.0209
   3.3267E-02   3.4076E-02   6.0069E-03  0.0203
   3.4076E-02   3.4905E-02   6.0813E-03  0.0199
   3.4905E-02   3.5755E-02   5.7849E-03  0.0202
   3.5755E-02   3.6625E-02   5.9131E-03  0.0197
   3.6625E-02   3.7516E-02   5.6604E-03  0.0199
   3.7516E-02   3.8428E-02   6.0091E-03  0.0191
   3.8428E-02   3.9363E-02   5.8129E-03  0.0192
   3.9363E-02   4.0321E-02   5.8032E-03  0.0190
   4.0321E-02   4.1302E-02   5.7694E-03  0.0188
   4.1302E-02   4.2307E-02   5.7458E-03  0.0186
   4.2307E-02   4.3337E-02   5.9454E-03  0.0181
   4.3337E-02   4.4391E-02   5.7302E-03  0.0182
   4.4391E-02   4.5471E-02   5.6867E-03  0.0180
   4.5471E-02   4.6577E-02   5.7233E-03  0.0178
   4.6577E-02   4.7711E-02   5.7145E-03  0.0176
   4.7711E-02   4.8871E-02   5.6115E-03  0.0175
   4.8871E-02   5.0061E-02   5.5808E-03  0.0174
   5.0061E-02   5.1279E-02   5.5418E-03  0.0172
   5.1279E-02   5.2526E-02   5.4623E-03  0.0171
   5.2526E-02   5.3804E-02   5.6760E-03  0.0166
   5.3804E-02   5.5113E-02   5.4908E-03  0.0167
   5.5113E-02   5.6454E-02   5.3678E-03  0.0167
   5.6454E-02   5.7828E-02   5.5184E-03  0.0162
   5.7828E-02   5.9235E-02   5.3660E-03  0.0163
   5.9235E-02   6.0676E-02   5.3815E-03  0.0161
   6.0676E-02   6.2152E-02   5.5030E-03  0.0157
   6.2152E-02   6.3665E-02   5.3656E-03  0.0157
   6.3665E-02   6.5214E-02   5.4829E-03  0.0153
   6.5214E-02   6.6800E-02   5.3470E-03  0.0154
   6.6800E-02   6.8426E-02   5.3812E-03  0.0151
   6.8426E-02   7.0090E-02   5.4497E-03  0.0148
   7.0090E-02   7.1796E-02   5.3678E-03  0.0148
   7.1796E-02   7.3543E-02   5.2140E-03  0.0148
   7.3543E-02   7.5332E-02   5.1304E-03  0.0148
   7.5332E-02   7.7165E-02   5.1984E-03  0.0145
   7.7165E-02   7.9042E-02   5.2986E-03  0.0142
   7.9042E-02   8.0965E-02   5.1166E-03  0.0143
   8.0965E-02   8.2935E-02   5.0915E-03  0.0141
   8.2935E-02   8.4953E-02   4.8838E-03  0.0142
   8.4953E-02   8.7020E-02   4.9734E-03  0.0139
   8.7020E-02   8.9138E-02   5.1769E-03  0.0135
   8.9138E-02   9.1306E-02   4.9304E-03  0.0137
   9.1306E-02   9.3528E-02   4.9236E-03  0.0135
   9.3528E-02   9.5804E-02   4.9890E-03  0.0133
   9.5804E-02   9.8134E-02   5.0627E-03  0.0130
   9.8134E-02   1.0052E-01   4.8608E-03  0.0131
   1.0052E-01   1.0297E-01   4.9215E-03  0.0129
   1.0297E-01   1.0547E-01   4.8757E-03  0.0128
   1.0547E-01   1.0804E-01   4.7548E-03  0.0128
   1.0804E-01   1.1067E-01   4.7567E-03  0.0126
   1.1067E-01   1.1336E-01   4.7076E-03  0.0126
   1.1336E-01   1.1612E-01   4.7528E-03  0.0124
   1.1612E-01   1.1894E-01   4.7645E-03  0.0122
   1.1894E-01   1.2184E-01   4.6182E-03  0.0122
   1.2184E-01   1.2480E-01   4.6835E-03  0.0120
   1.2480E-01   1.2784E-01   4.6780E-03  0.0119
   1.2784E-01   1.3095E-01   4.6399E-03  0.0118
   1.3095E-01   1.3414E-01   4.5441E-03  0.0118
   1.3414E-01   1.3740E-01   4.5367E-03  0.0116
   1.3740E-01   1.4074E-01   4.5551E-03  0.0115
   1.4074E-01   1.4417E-01   4.5284E-03  0.0114
   1.4417E-01   1.4767E-01   4.5050E-03  0.0113
   1.4767E-01   1.5127E-01   4.4862E-03  0.0111
   1.5127E-01   1.5495E-01   4.3804E-03  0.0111
   1.5495E-01   1.5872E-01   4.3178E-03  0.0111
   1.5872E-01   1.6258E-01   4.2178E-03  0.0111
   1.6258E-01   1.6654E-01   4.3161E-03  0.0108
   1.6654E-01   1.7059E-01   4.2738E-03  0.0107
   1.7059E-01   1.7474E-01   4.2669E-03  0.0106
   1.7474E-01   1.7899E-01   4.2190E-03  0.0106
   1.7899E-01   1.8334E-01   4.1835E-03  0.0105
   1.8334E-01   1.8781E-01   4.0485E-03  0.0105
   1.8781E-01   1.9237E-01   4.1390E-03  0.0103
   1.9237E-01   1.9706E-01   4.0965E-03  0.0102
   1.9706E-01   2.0185E-01   4.0427E-03  0.0102
   2.0185E-01   2.0676E-01   3.9878E-03  0.0101
   2.0676E-01   2.1179E-01   4.0426E-03  0.0099
   2.1179E-01   2.1694E-01   3.9043E-03  0.0100
   2.1694E-01   2.2222E-01   3.8689E-03  0.0099
   2.2222E-01   2.2763E-01   3.8185E-03  0.0098
   2.2763E-01   2.3317E-01   3.7859E-03  0.0098
   2.3317E-01   2.3884E-01   3.7318E-03  0.0097
   2.3884E-01   2.4465E-01   3.8341E-03  0.0095
   2.4465E-01   2.5061E-01   3.6902E-03  0.0095
   2.5061E-01   2.5670E-01   3.7339E-03  0.0094
   2.5670E-01   2.6295E-01   3.6711E-03  0.0093
   2.6295E-01   2.6935E-01   3.6128E-03  0.0093
   2.6935E-01   2.7590E-01   3.6088E-03  0.0092
   2.7590E-01   2.8261E-01   3.5115E-03  0.0092
   2.8261E-01   2.8949E-01   3.4727E-03  0.0092
   2.8949E-01   2.9653E-01   3.4936E-03  0.0090
   2.9653E-01   3.0375E-01   3.4407E-03  0.0090
   3.0375E-01   3.1114E-01   3.3986E-03  0.0089
   3.1114E-01   3.1871E-01   3.3830E-03  0.0088
   3.1871E-01   3.2646E-01   3.3558E-03  0.0088
   3.2646E-01   3.3441E-01   3.2826E-03  0.0088
   3.3441E-01   3.4254E-01   3.2920E-03  0.0086
   3.4254E-01   3.5088E-01   3.2531E-03  0.0086
   3.5088E-01   3.5941E-01   3.1826E-03  0.0086
   3.5941E-01   3.6816E-01   3.1366E-03  0.0085
   3.6816E-01   3.7712E-01   3.1154E-03  0.0085
   3.7712E-01   3.8629E-01   3.0606E-03  0.0084
   3.8629E-01   3.9569E-01   3.0037E-03  0.0084
   3.9569E-01   4.0532E-01   2.9596E-03  0.0084
   4.0532E-01   4.1518E-01   2.9407E-03  0.0083
   4.1518E-01   4.2528E-01   2.8891E-03  0.0083
   4.2528E-01   4.3563E-01   2.8405E-03  0.0083
   4.3563E-01   4.4623E-01   2.8013E-03  0.0082
   4.4623E-01   4.5708E-01   2.7416E-03  0.0082
   4.5708E-01   4.6821E-01   2.7227E-03  0.0081
   4.6821E-01   4.7960E-01   2.6717E-03  0.0081
   4.7960E-01   4.9127E-01   2.6215E-03  0.0081
   4.9127E-01   5.0322E-01   2.5887E-03  0.0080
   5.0322E-01   5.1546E-01   2.5655E-03  0.0080
   5.1546E-01   5.2800E-01   2.4731E-03  0.0080
   5.2800E-01   5.4085E-01   2.4558E-03  0.0080
   5.4085E-01   5.5401E-01   2.4181E-03  0.0079
   5.5401E-01   5.6749E-01   2.3558E-03  0.0079
   5.6749E-01   5.8130E-01   2.3116E-03  0.0079
   5.8130E-01   5.9544E-01   2.2536E-03  0.0079
   5.9544E-01   6.0993E-01   2.2045E-03  0.0079
   6.0993E-01   6.2477E-01   2.1706E-03  0.0079
   6.2477E-01   6.3997E-01   2.1159E-03  0.0079
   6.3997E-01   6.5554E-01   2.0947E-03  0.0078
   6.5554E-01   6.7149E-01   2.0171E-03  0.0079
   6.7149E-01   6.8783E-01   1.9836E-03  0.0079
   6.8783E-01   7.0456E-01   1.9340E-03  0.0079
   7.0456E-01   7.2171E-01   1.8921E-03  0.0079
   7.2171E-01   7.3927E-01   1.8524E-03  0.0078
   7.3927E-01   7.5725E-01   1.8028E-03  0.0079
   7.5725E-01   7.7568E-01   1.7723E-03  0.0078
   7.7568E-01   7.9455E-01   1.6913E-03  0.0079
   7.9455E-01   8.1388E-01   1.6449E-03  0.0079
   8.1388E-01   8.3368E-01   1.5939E-03  0.0080
   8.3368E-01   8.5397E-01   1.5597E-03  0.0080
   8.5397E-01   8.7475E-01   1.4977E-03  0.0080
   8.7475E-01   8.9603E-01   1.4481E-03  0.0081
   8.9603E-01   9.1783E-01   1.4014E-03  0.0081
   9.1783E-01   9.4016E-01   1.3595E-03  0.0081
   9.4016E-01   9.6304E-01   1.3104E-03  0.0082
   9.6304E-01   9.8647E-01   1.2646E-03  0.0082
   9.8647E-01   1.0105E+00   1.2149E-03  0.0083
   1.0105E+00   1.0351E+00   1.2348E-03  0.0081
   1.0351E+00   1.0602E+00   1.2576E-03  0.0079
   1.0602E+00   1.0860E+00   1.2665E-03  0.0078
   1.0860E+00   1.1125E+00   1.2813E-03  0.0077
   1.1125E+00   1.1395E+00   1.3206E-03  0.0075
   1.1395E+00   1.1673E+00   1.3517E-03  0.0073
   1.1673E+00   1.1957E+00   1.3785E-03  0.0071
   1.1957E+00   1.2247E+00   1.4141E-03  0.0070
   1.2247E+00   1.2545E+00   1.4398E-03  0.0068
   1.2545E+00   1.2851E+00   1.4397E-03  0.0067
   1.2851E+00   1.3163E+00   1.4628E-03  0.0066
   1.3163E+00   1.3484E+00   1.4831E-03  0.0065
   1.3484E+00   1.3812E+00   1.5136E-03  0.0064
   1.3812E+00   1.4148E+00   1.5510E-03  0.0062
   1.4148E+00   1.4492E+00   1.5324E-03  0.0062
   1.4492E+00   1.4845E+00   1.5493E-03  0.0061
   1.4845E+00   1.5206E+00   1.5360E-03  0.0060
   1.5206E+00   1.5576E+00   1.5557E-03  0.0059
   1.5576E+00   1.5955E+00   1.5631E-03  0.0058
   1.5955E+00   1.6343E+00   1.5689E-03  0.0057
   1.6343E+00   1.6741E+00   1.6135E-03  0.0056
   1.6741E+00   1.7148E+00   1.6368E-03  0.0055
   1.7148E+00   1.7565E+00   1.6328E-03  0.0054
   1.7565E+00   1.7992E+00   1.6217E-03  0.0054
   1.7992E+00   1.8430E+00   1.6103E-03  0.0053
   1.8430E+00   1.8879E+00   1.6046E-03  0.0053
   1.8879E+00   1.9338E+00   1.6248E-03  0.0052
   1.9338E+00   1.9808E+00   1.6312E-03  0.0051
   1.9808E+00   2.0290E+00   1.6559E-03  0.0050
   2.0290E+00   2.0784E+00   1.6345E-03  0.0050
   2.0784E+00   2.1290E+00   1.5988E-03  0.0050
   2.1290E+00   2.1808E+00   1.6024E-03  0.0049
   2.1808E+00   2.2338E+00   1.5636E-03  0.0049
   2.2338E+00   2.2882E+00   1.5598E-03  0.0049
   2.2882E+00   2.3439E+00   1.5645E-03  0.0048
   2.3439E+00   2.4009E+00   1.5712E-03  0.0047
   2.4009E+00   2.4593E+00   1.5560E-03  0.0047
   2.4593E+00   2.5191E+00   1.5337E-03  0.0047
   2.5191E+00   2.5804E+00   1.4962E-03  0.0047
   2.5804E+00   2.6432E+00   1.4817E-03  0.0046
   2.6432E+00   2.7075E+00   1.4571E-03  0.0046
   2.7075E+00   2.7734E+00   1.4245E-03  0.0046
   2.7734E+00   2.8409E+00   1.4158E-03  0.0046
   2.8409E+00   2.9100E+00   1.4085E-03  0.0045
   2.9100E+00   2.9808E+00   1.3898E-03  0.0045
   2.9808E+00   3.0533E+00   1.3562E-03  0.0045
   3.0533E+00   3.1276E+00   1.3419E-03  0.0045
   3.1276E+00   3.2037E+00   1.2975E-03  0.0045
   3.2037E+00   3.2817E+00   1.2553E-03  0.0045
   3.2817E+00   3.3615E+00   1.2371E-03  0.0045
   3.3615E+00   3.4433E+00   1.2109E-03  0.0045
   3.4433E+00   3.5271E+00   1.1839E-03  0.0045
   3.5271E+00   3.6129E+00   1.1595E-03  0.0045
   3.6129E+00   3.7008E+00   1.1335E-03  0.0045
   3.7008E+00   3.7908E+00   1.0873E-03  0.0045
   3.7908E+00   3.8831E+00   1.0733E-03  0.0045
   3.8831E+00   3.9776E+00   1.0291E-03  0.0045
   3.9776E+00   4.0743E+00   1.0043E-03  0.0045
   4.0743E+00   4.1735E+00   9.7115E-04  0.0046
   4.1735E+00   4.2750E+00   9.3922E-04  0.0046
   4.2750E+00   4.3790E+00   9.0626E-04  0.0046
   4.3790E+00   4.4856E+00   8.6213E-04  0.0047
   4.4856E+00   4.5947E+00   8.3172E-04  0.0047
   4.5947E+00   4.7065E+00   8.0297E-04  0.0047
   4.7065E+00   4.8210E+00   7.7513E-04  0.0047
   4.8210E+00   4.9383E+00   7.4067E-04  0.0048
   4.9383E+00   5.0585E+00   7.1355E-04  0.0048
   5.0585E+00   5.1815E+00   6.7755E-04  0.0049
   5.1815E+00   5.3076E+00   6.5181E-04  0.0049
   5.3076E+00   5.4368E+00   6.2125E-04  0.0050
   5.4368E+00   5.5690E+00   5.8758E-04  0.0051
   5.5690E+00   5.7045E+00   5.6074E-04  0.0051
   5.7045E+00   5.8433E+00   5.3108E-04  0.0052
   5.8433E+00   5.9855E+00   5.0683E-04  0.0053
   5.9855E+00   6.1311E+00   4.8194E-04  0.0053
   6.1311E+00   6.2803E+00   4.5431E-04  0.0054
   6.2803E+00   6.4331E+00   4.3097E-04  0.0055
   6.4331E+00   6.5896E+00   4.0013E-04  0.0057
   6.5896E+00   6.7500E+00   3.7841E-04  0.0057
   6.7500E+00   6.9142E+00   3.6361E-04  0.0058
   6.9142E+00   7.0824E+00   3.3871E-04  0.0059
   7.0824E+00   7.2548E+00   3.2031E-04  0.0060
   7.2548E+00   7.4313E+00   2.9936E-04  0.0062
   7.4313E+00   7.6121E+00   2.7958E-04  0.0063
   7.6121E+00   7.7973E+00   2.6458E-04  0.0064
   7.7973E+00   7.9870E+00   2.4634E-04  0.0065
   7.9870E+00   8.1813E+00   2.3261E-04  0.0067
   8.1813E+00   8.3804E+00   2.1699E-04  0.0068
   8.3804E+00   8.5843E+00   2.0325E-04  0.0069
   8.5843E+00   8.7931E+00   1.8954E-04  0.0071
   8.7931E+00   9.0071E+00   1.7753E-04  0.0073
   9.0071E+00   9.2262E+00   1.6633E-04  0.0074
   9.2262E+00   9.4507E+00   1.5822E-04  0.0075
   9.4507E+00   9.6807E+00   1.4684E-04  0.0077
   9.6807E+00   9.9162E+00   1.3650E-04  0.0079
   9.9162E+00   1.0157E+01   1.2611E-04  0.0081
   1.0157E+01   1.0405E+01   1.1912E-04  0.0082
   1.0405E+01   1.0658E+01   1.1258E-04  0.0084
   1.0658E+01   1.0917E+01   1.0460E-04  0.0086
   1.0917E+01   1.1183E+01   9.8787E-05  0.0087
   1.1183E+01   1.1455E+01   9.1843E-05  0.0089
   1.1455E+01   1.1733E+01   8.6848E-05  0.0091
   1.1733E+01   1.2019E+01   8.2025E-05  0.0092
   1.2019E+01   1.2311E+01   7.5867E-05  0.0095
   1.2311E+01   1.2611E+01   7.1154E-05  0.0097
   1.2611E+01   1.2918E+01   6.7225E-05  0.0098
   1.2918E+01   1.3232E+01   6.3694E-05  0.0100
   1.3232E+01   1.3554E+01   5.8876E-05  0.0103
   1.3554E+01   1.3884E+01   5.6801E-05  0.0103
   1.3884E+01   1.4222E+01   5.3445E-05  0.0105
   1.4222E+01   1.4568E+01   4.9396E-05  0.0108
   1.4568E+01   1.4922E+01   4.6707E-05  0.0110
   1.4922E+01   1.5285E+01   4.4829E-05  0.0111
   1.5285E+01   1.5657E+01   4.2124E-05  0.0113
   1.5657E+01   1.6038E+01   3.9908E-05  0.0115
   1.6038E+01   1.6428E+01   3.8294E-05  0.0116
   1.6428E+01   1.6828E+01   3.6461E-05  0.0117
   1.6828E+01   1.7237E+01   3.5563E-05  0.0117
   1.7237E+01   1.7657E+01   3.2830E-05  0.0121
   1.7657E+01   1.8086E+01   3.1606E-05  0.0121
   1.8086E+01   1.8526E+01   3.0237E-05  0.0123
   1.8526E+01   1.8977E+01   2.9013E-05  0.0124
   1.8977E+01   1.9439E+01   2.7293E-05  0.0126
   1.9439E+01   1.9912E+01   2.6695E-05  0.0126
   1.9912E+01   2.0396E+01   2.5265E-05  0.0128
   2.0396E+01   2.0893E+01   2.3838E-05  0.0130
   2.0893E+01   2.1401E+01   2.3433E-05  0.0130
   2.1401E+01   2.1922E+01   2.2719E-05  0.0130
   2.1922E+01   2.2455E+01   2.1171E-05  0.0133
   2.2455E+01   2.3001E+01   2.0862E-05  0.0132
   2.3001E+01   2.3561E+01   1.9959E-05  0.0134
   2.3561E+01   2.4134E+01   1.9468E-05  0.0134
   2.4134E+01   2.4721E+01   1.8406E-05  0.0136
   2.4721E+01   2.5323E+01   1.7792E-05  0.0137
   2.5323E+01   2.5939E+01   1.7061E-05  0.0138
   2.5939E+01   2.6570E+01   1.6165E-05  0.0140
   2.6570E+01   2.7217E+01   1.5806E-05  0.0140
   2.7217E+01   2.7879E+01   1.5418E-05  0.0140
   2.7879E+01   2.8557E+01   1.3713E-05  0.0147
   2.8557E+01   2.9252E+01   1.3362E-05  0.0147
   2.9252E+01   2.9964E+01   1.2836E-05  0.0148
   2.9964E+01   3.0693E+01   1.2493E-05  0.0148
   3.0693E+01   3.1440E+01   1.1993E-05  0.0149
   3.1440E+01   3.2205E+01   1.1433E-05  0.0151
   3.2205E+01   3.2988E+01   1.0776E-05  0.0154
   3.2988E+01   3.3791E+01   1.0102E-05  0.0157
   3.3791E+01   3.4613E+01   9.5943E-06  0.0159
   3.4613E+01   3.5455E+01   8.9318E-06  0.0163
   3.5455E+01   3.6318E+01   8.2768E-06  0.0167
   3.6318E+01   3.7201E+01   7.7520E-06  0.0171
   3.7201E+01   3.8106E+01   7.1834E-06  0.0175
   3.8106E+01   3.9034E+01   6.8381E-06  0.0178
   3.9034E+01   3.9983E+01   6.3661E-06  0.0182
   3.9983E+01   4.0956E+01   5.9497E-06  0.0186
   4.0956E+01   4.1953E+01   5.3809E-06  0.0193
   4.1953E+01   4.2973E+01   5.1453E-06  0.0195
   4.2973E+01   4.4019E+01   4.6596E-06  0.0203
   4.4019E+01   4.5090E+01   4.3323E-06  0.0208
   4.5090E+01   4.6187E+01   4.0508E-06  0.0212
   4.6187E+01   4.7311E+01   3.5488E-06  0.0224
   4.7311E+01   4.8462E+01   3.3064E-06  0.0229
   4.8462E+01   4.9641E+01   3.0921E-06  0.0234
   4.9641E+01   5.0849E+01   2.5683E-06  0.0254
   5.0849E+01   5.2086E+01   2.4669E-06  0.0256
   5.2086E+01   5.3353E+01   2.2189E-06  0.0267
   5.3353E+01   5.4651E+01   1.9166E-06  0.0284
   5.4651E+01   5.5981E+01   1.6861E-06  0.0299
   5.5981E+01   5.7343E+01   1.4346E-06  0.0320
   5.7343E+01   5.8738E+01   1.3159E-06  0.0330
   5.8738E+01   6.0168E+01   1.1895E-06  0.0343
   6.0168E+01   6.1632E+01   1.0602E-06  0.0359
   6.1632E+01   6.3131E+01   9.4429E-07  0.0376
   6.3131E+01   6.4667E+01   8.2551E-07  0.0397
   6.4667E+01   6.6240E+01   7.1183E-07  0.0423
   6.6240E+01   6.7852E+01   6.1178E-07  0.0450
   6.7852E+01   6.9503E+01   5.2456E-07  0.0481
   6.9503E+01   7.1194E+01   4.6361E-07  0.0505
   7.1194E+01   7.2926E+01   3.9603E-07  0.0540
   7.2926E+01   7.4701E+01   3.0772E-07  0.0605
   7.4701E+01   7.6518E+01   2.3108E-07  0.0690
   7.6518E+01   7.8380E+01   2.0841E-07  0.0718
   7.8380E+01   8.0287E+01   2.0136E-07  0.0722
   8.0287E+01   8.2240E+01   1.5153E-07  0.0822
   8.2240E+01   8.4241E+01   1.3294E-07  0.0867
   8.4241E+01   8.6291E+01   9.3674E-08  0.1021
   8.6291E+01   8.8391E+01   7.9065E-08  0.1098
   8.8391E+01   9.0541E+01   6.8818E-08  0.1162
   9.0541E+01   9.2744E+01   3.4499E-08  0.1622
   9.2744E+01   9.5001E+01   3.8998E-08  0.1508
   9.5001E+01   9.7312E+01   3.5476E-08  0.1562
   9.7312E+01   9.9680E+01   2.4497E-08  0.1857
   9.9680E+01   1.0211E+02   1.5668E-08  0.2294
   1.0211E+02   1.0459E+02   1.6101E-08  0.2236
   1.0459E+02   1.0713E+02   9.4312E-09  0.2887
   1.0713E+02   1.0974E+02   7.6727E-09  0.3162
   1.0974E+02   1.1241E+02   6.7414E-09  0.3333
   1.1241E+02   1.1515E+02   3.6562E-09  0.4472
   1.1515E+02   1.1795E+02   1.4278E-09  0.7071
   1.1795E+02   1.2082E+02   3.4846E-09  0.4472
   1.2082E+02   1.2376E+02   6.8037E-10  1.0000
   1.2376E+02   1.2677E+02   6.6421E-10  1.0000
   1.2677E+02   1.2985E+02   0.0000E+00  0.0000
   1.2985E+02   1.3301E+02   6.3303E-10  1.0000
   1.3301E+02   1.3625E+02   0.0000E+00  0.0000
   1.3625E+02   1.3956E+02   6.0331E-10  1.0000
   1.3956E+02   1.4296E+02   0.0000E+00  0.0000
   1.4296E+02   1.4644E+02   0.0000E+00  0.0000
   1.4644E+02   1.5000E+02   0.0000E+00  0.0000

#   sum over                 6.9468E-05
'no. =    1   reg = 116 - 216'
msuc: {\huge [t-cross] in region mesh}
msdr: {\it plotted by \ANGEL \version}
msdl: {\it calculated by \PHITS  3.26}
wt: s(0.7)
\vspace{-3}
  region surface crossing
  area  &=&   1.0000E+00 [cm^2]
e:
 
# Information for Restart Calculation
# This calculation was newly started
# istdev =  2 # 1:Batch variance, 2:History variance
# resc2  = 5.00000000000000000E+08 # Total source weight or Total source weight / maxcas
# resc3  = 5.00000000000000000E+08 # Total history number or Total batch number
# maxcas =   500000000 # History / Batch, only used for istdev=1
# bitrseed = 1101101111010011011000101101110001100110110010110001010100010001 # bit data of rseed
