[ T-Cross ]
    title = [t-cross] in region mesh
     mesh =  reg            # mesh type is region-wise
      reg =    1            # number of crossing regions
      non     r-from    r-to       area
      1       107       207        1.000000    
   e-type =    3            # e-mesh is log given by emin, emax and ne
     emin =  1.0000000E-02  # minimum value of e-mesh points
     emax =   150.0000      # maximum value of e-mesh points
#    edel =  2.4039514E-02  # mesh width of e-mesh points
       ne =    400          # number of e-mesh points
#    data = ( e(i), i = 1, ne + 1 )
#           1.00000E-02  1.02433E-02  1.04925E-02  1.07478E-02  1.10093E-02
#           1.12772E-02  1.15516E-02  1.18326E-02  1.21205E-02  1.24154E-02
#           1.27175E-02  1.30269E-02  1.33439E-02  1.36686E-02  1.40011E-02
#           1.43418E-02  1.46907E-02  1.50482E-02  1.54143E-02  1.57894E-02
#           1.61735E-02  1.65670E-02  1.69701E-02  1.73830E-02  1.78060E-02
#           1.82392E-02  1.86830E-02  1.91375E-02  1.96032E-02  2.00801E-02
#           2.05687E-02  2.10692E-02  2.15818E-02  2.21069E-02  2.26448E-02
#           2.31957E-02  2.37601E-02  2.43382E-02  2.49304E-02  2.55369E-02
#           2.61583E-02  2.67947E-02  2.74467E-02  2.81145E-02  2.87985E-02
#           2.94992E-02  3.02169E-02  3.09521E-02  3.17052E-02  3.24766E-02
#           3.32668E-02  3.40762E-02  3.49053E-02  3.57546E-02  3.66246E-02
#           3.75157E-02  3.84284E-02  3.93634E-02  4.03212E-02  4.13022E-02
#           4.23071E-02  4.33365E-02  4.43909E-02  4.54710E-02  4.65773E-02
#           4.77106E-02  4.88714E-02  5.00605E-02  5.12785E-02  5.25262E-02
#           5.38042E-02  5.51133E-02  5.64542E-02  5.78278E-02  5.92348E-02
#           6.06760E-02  6.21523E-02  6.36645E-02  6.52135E-02  6.68002E-02
#           6.84255E-02  7.00904E-02  7.17957E-02  7.35426E-02  7.53319E-02
#           7.71648E-02  7.90423E-02  8.09655E-02  8.29354E-02  8.49533E-02
#           8.70203E-02  8.91376E-02  9.13064E-02  9.35279E-02  9.58035E-02
#           9.81345E-02  1.00522E-01  1.02968E-01  1.05473E-01  1.08040E-01
#           1.10668E-01  1.13361E-01  1.16119E-01  1.18944E-01  1.21838E-01
#           1.24803E-01  1.27839E-01  1.30950E-01  1.34136E-01  1.37399E-01
#           1.40742E-01  1.44167E-01  1.47675E-01  1.51268E-01  1.54948E-01
#           1.58718E-01  1.62580E-01  1.66535E-01  1.70587E-01  1.74738E-01
#           1.78989E-01  1.83344E-01  1.87805E-01  1.92375E-01  1.97055E-01
#           2.01850E-01  2.06761E-01  2.11792E-01  2.16945E-01  2.22223E-01
#           2.27630E-01  2.33169E-01  2.38842E-01  2.44653E-01  2.50605E-01
#           2.56703E-01  2.62949E-01  2.69346E-01  2.75900E-01  2.82613E-01
#           2.89489E-01  2.96532E-01  3.03747E-01  3.11138E-01  3.18708E-01
#           3.26462E-01  3.34405E-01  3.42542E-01  3.50876E-01  3.59413E-01
#           3.68158E-01  3.77116E-01  3.86291E-01  3.95690E-01  4.05317E-01
#           4.15179E-01  4.25281E-01  4.35628E-01  4.46227E-01  4.57084E-01
#           4.68205E-01  4.79597E-01  4.91266E-01  5.03219E-01  5.15463E-01
#           5.28005E-01  5.40851E-01  5.54011E-01  5.67490E-01  5.81298E-01
#           5.95441E-01  6.09929E-01  6.24769E-01  6.39970E-01  6.55541E-01
#           6.71491E-01  6.87828E-01  7.04564E-01  7.21706E-01  7.39266E-01
#           7.57253E-01  7.75678E-01  7.94551E-01  8.13883E-01  8.33685E-01
#           8.53969E-01  8.74747E-01  8.96030E-01  9.17831E-01  9.40163E-01
#           9.63038E-01  9.86469E-01  1.01047E+00  1.03506E+00  1.06024E+00
#           1.08604E+00  1.11246E+00  1.13953E+00  1.16725E+00  1.19565E+00
#           1.22474E+00  1.25454E+00  1.28507E+00  1.31633E+00  1.34836E+00
#           1.38117E+00  1.41477E+00  1.44920E+00  1.48446E+00  1.52057E+00
#           1.55757E+00  1.59547E+00  1.63429E+00  1.67405E+00  1.71478E+00
#           1.75650E+00  1.79924E+00  1.84302E+00  1.88786E+00  1.93379E+00
#           1.98084E+00  2.02904E+00  2.07841E+00  2.12898E+00  2.18078E+00
#           2.23384E+00  2.28819E+00  2.34386E+00  2.40089E+00  2.45930E+00
#           2.51914E+00  2.58043E+00  2.64322E+00  2.70753E+00  2.77341E+00
#           2.84088E+00  2.91001E+00  2.98081E+00  3.05333E+00  3.12762E+00
#           3.20372E+00  3.28167E+00  3.36152E+00  3.44330E+00  3.52708E+00
#           3.61290E+00  3.70080E+00  3.79085E+00  3.88308E+00  3.97756E+00
#           4.07434E+00  4.17347E+00  4.27501E+00  4.37903E+00  4.48557E+00
#           4.59471E+00  4.70650E+00  4.82102E+00  4.93832E+00  5.05847E+00
#           5.18155E+00  5.30762E+00  5.43676E+00  5.56904E+00  5.70453E+00
#           5.84333E+00  5.98550E+00  6.13114E+00  6.28031E+00  6.43312E+00
#           6.58964E+00  6.74997E+00  6.91420E+00  7.08243E+00  7.25475E+00
#           7.43126E+00  7.61207E+00  7.79728E+00  7.98700E+00  8.18133E+00
#           8.38038E+00  8.58428E+00  8.79315E+00  9.00709E+00  9.22624E+00
#           9.45072E+00  9.68067E+00  9.91620E+00  1.01575E+01  1.04046E+01
#           1.06578E+01  1.09171E+01  1.11827E+01  1.14548E+01  1.17335E+01
#           1.20190E+01  1.23114E+01  1.26109E+01  1.29178E+01  1.32321E+01
#           1.35540E+01  1.38838E+01  1.42216E+01  1.45676E+01  1.49221E+01
#           1.52851E+01  1.56570E+01  1.60380E+01  1.64282E+01  1.68279E+01
#           1.72374E+01  1.76568E+01  1.80864E+01  1.85264E+01  1.89772E+01
#           1.94389E+01  1.99119E+01  2.03963E+01  2.08926E+01  2.14009E+01
#           2.19216E+01  2.24550E+01  2.30014E+01  2.35610E+01  2.41343E+01
#           2.47215E+01  2.53230E+01  2.59391E+01  2.65702E+01  2.72167E+01
#           2.78789E+01  2.85572E+01  2.92520E+01  2.99637E+01  3.06928E+01
#           3.14396E+01  3.22045E+01  3.29881E+01  3.37907E+01  3.46128E+01
#           3.54550E+01  3.63177E+01  3.72013E+01  3.81064E+01  3.90336E+01
#           3.99833E+01  4.09561E+01  4.19526E+01  4.29734E+01  4.40189E+01
#           4.50900E+01  4.61870E+01  4.73108E+01  4.84619E+01  4.96410E+01
#           5.08488E+01  5.20860E+01  5.33533E+01  5.46514E+01  5.59812E+01
#           5.73432E+01  5.87384E+01  6.01676E+01  6.16315E+01  6.31311E+01
#           6.46671E+01  6.62405E+01  6.78522E+01  6.95031E+01  7.11941E+01
#           7.29263E+01  7.47007E+01  7.65182E+01  7.83800E+01  8.02870E+01
#           8.22405E+01  8.42414E+01  8.62911E+01  8.83906E+01  9.05412E+01
#           9.27442E+01  9.50007E+01  9.73122E+01  9.96799E+01  1.02105E+02
#           1.04589E+02  1.07134E+02  1.09741E+02  1.12411E+02  1.15146E+02
#           1.17948E+02  1.20817E+02  1.23757E+02  1.26768E+02  1.29852E+02
#           1.33012E+02  1.36248E+02  1.39563E+02  1.42959E+02  1.46437E+02
#           1.50000E+02
     unit =    2            # unit is [1/cm^2/(MeV/n)/source]
     axis =  eng            # axis of output
     file = detector-08.out  # file name of output for the above axis
   output = f-curr          # surface crossing forward current spectrum
     part =  neutron  
# kf/name :  2112     
#    used :        main (  %)        temp (  %)       total (  %)
#  memory :         414 (  0)           0 (  0)         414 (  0)

#------------------------------------------------------------------------------
#newpage:
#   no. =    1   reg = 107 - 207

x: Energy [MeV/n]
y:  F-Curr [1/cm^2/(MeV/n)/source]         
p: xlog ylog afac(0.8) form(0.9)
h: n            x            y(neutron ),hh0l   n 
#  e-lower      e-upper      neutron     r.err 
   1.0000E-02   1.0243E-02   8.6557E-03  0.0308
   1.0243E-02   1.0493E-02   8.7310E-03  0.0303
   1.0493E-02   1.0748E-02   8.8369E-03  0.0298
   1.0748E-02   1.1009E-02   9.1854E-03  0.0289
   1.1009E-02   1.1277E-02   8.7992E-03  0.0291
   1.1277E-02   1.1552E-02   8.8781E-03  0.0287
   1.1552E-02   1.1833E-02   8.6743E-03  0.0286
   1.1833E-02   1.2121E-02   8.9407E-03  0.0279
   1.2121E-02   1.2415E-02   8.5452E-03  0.0282
   1.2415E-02   1.2718E-02   8.9580E-03  0.0272
   1.2718E-02   1.3027E-02   8.4059E-03  0.0277
   1.3027E-02   1.3344E-02   8.6447E-03  0.0270
   1.3344E-02   1.3669E-02   8.7782E-03  0.0265
   1.3669E-02   1.4001E-02   8.6238E-03  0.0264
   1.4001E-02   1.4342E-02   8.5775E-03  0.0262
   1.4342E-02   1.4691E-02   8.8008E-03  0.0255
   1.4691E-02   1.5048E-02   8.3987E-03  0.0258
   1.5048E-02   1.5414E-02   8.2702E-03  0.0257
   1.5414E-02   1.5789E-02   8.4044E-03  0.0252
   1.5789E-02   1.6174E-02   8.9753E-03  0.0241
   1.6174E-02   1.6567E-02   8.6198E-03  0.0243
   1.6567E-02   1.6970E-02   8.7822E-03  0.0238
   1.6970E-02   1.7383E-02   8.5857E-03  0.0238
   1.7383E-02   1.7806E-02   8.0862E-03  0.0242
   1.7806E-02   1.8239E-02   8.6466E-03  0.0231
   1.8239E-02   1.8683E-02   8.4863E-03  0.0230
   1.8683E-02   1.9138E-02   8.8611E-03  0.0223
   1.9138E-02   1.9603E-02   8.7000E-03  0.0222
   1.9603E-02   2.0080E-02   8.4724E-03  0.0222
   2.0080E-02   2.0569E-02   8.4103E-03  0.0221
   2.0569E-02   2.1069E-02   8.2925E-03  0.0220
   2.1069E-02   2.1582E-02   8.4720E-03  0.0215
   2.1582E-02   2.2107E-02   8.3908E-03  0.0213
   2.2107E-02   2.2645E-02   8.2361E-03  0.0212
   2.2645E-02   2.3196E-02   8.0295E-03  0.0213
   2.3196E-02   2.3760E-02   8.4448E-03  0.0205
   2.3760E-02   2.4338E-02   7.8567E-03  0.0210
   2.4338E-02   2.4930E-02   8.5314E-03  0.0199
   2.4930E-02   2.5537E-02   8.0056E-03  0.0203
   2.5537E-02   2.6158E-02   8.1132E-03  0.0199
   2.6158E-02   2.6795E-02   8.4688E-03  0.0193
   2.6795E-02   2.7447E-02   8.3658E-03  0.0191
   2.7447E-02   2.8114E-02   8.2450E-03  0.0191
   2.8114E-02   2.8799E-02   8.2012E-03  0.0189
   2.8799E-02   2.9499E-02   8.2747E-03  0.0186
   2.9499E-02   3.0217E-02   8.1004E-03  0.0185
   3.0217E-02   3.0952E-02   7.6850E-03  0.0188
   3.0952E-02   3.1705E-02   7.9712E-03  0.0183
   3.1705E-02   3.2477E-02   8.1292E-03  0.0179
   3.2477E-02   3.3267E-02   8.2006E-03  0.0176
   3.3267E-02   3.4076E-02   7.9342E-03  0.0176
   3.4076E-02   3.4905E-02   7.9677E-03  0.0174
   3.4905E-02   3.5755E-02   7.8137E-03  0.0174
   3.5755E-02   3.6625E-02   7.7132E-03  0.0173
   3.6625E-02   3.7516E-02   7.6007E-03  0.0172
   3.7516E-02   3.8428E-02   7.8003E-03  0.0168
   3.8428E-02   3.9363E-02   7.8343E-03  0.0165
   3.9363E-02   4.0321E-02   8.0084E-03  0.0161
   4.0321E-02   4.1302E-02   7.6928E-03  0.0163
   4.1302E-02   4.2307E-02   7.6802E-03  0.0161
   4.2307E-02   4.3337E-02   7.5872E-03  0.0160
   4.3337E-02   4.4391E-02   7.7939E-03  0.0156
   4.4391E-02   4.5471E-02   7.5736E-03  0.0156
   4.5471E-02   4.6577E-02   7.7408E-03  0.0153
   4.6577E-02   4.7711E-02   7.6875E-03  0.0152
   4.7711E-02   4.8871E-02   7.7703E-03  0.0149
   4.8871E-02   5.0061E-02   7.7110E-03  0.0148
   5.0061E-02   5.1279E-02   7.9277E-03  0.0144
   5.1279E-02   5.2526E-02   7.6760E-03  0.0144
   5.2526E-02   5.3804E-02   7.5211E-03  0.0144
   5.3804E-02   5.5113E-02   7.6129E-03  0.0142
   5.5113E-02   5.6454E-02   7.5916E-03  0.0140
   5.6454E-02   5.7828E-02   7.3334E-03  0.0141
   5.7828E-02   5.9235E-02   7.5850E-03  0.0137
   5.9235E-02   6.0676E-02   7.2286E-03  0.0139
   6.0676E-02   6.2152E-02   7.4470E-03  0.0135
   6.2152E-02   6.3665E-02   7.2847E-03  0.0135
   6.3665E-02   6.5214E-02   7.3156E-03  0.0133
   6.5214E-02   6.6800E-02   7.0789E-03  0.0133
   6.6800E-02   6.8426E-02   7.1937E-03  0.0131
   6.8426E-02   7.0090E-02   7.1448E-03  0.0130
   7.0090E-02   7.1796E-02   7.1926E-03  0.0128
   7.1796E-02   7.3543E-02   7.2164E-03  0.0126
   7.3543E-02   7.5332E-02   7.2054E-03  0.0125
   7.5332E-02   7.7165E-02   6.9830E-03  0.0125
   7.7165E-02   7.9042E-02   7.0195E-03  0.0123
   7.9042E-02   8.0965E-02   7.0410E-03  0.0122
   8.0965E-02   8.2935E-02   6.9052E-03  0.0121
   8.2935E-02   8.4953E-02   6.9836E-03  0.0119
   8.4953E-02   8.7020E-02   6.9928E-03  0.0118
   8.7020E-02   8.9138E-02   6.7308E-03  0.0118
   8.9138E-02   9.1306E-02   6.8956E-03  0.0116
   9.1306E-02   9.3528E-02   6.7624E-03  0.0115
   9.3528E-02   9.5804E-02   6.7033E-03  0.0115
   9.5804E-02   9.8134E-02   6.7105E-03  0.0113
   9.8134E-02   1.0052E-01   6.6114E-03  0.0113
   1.0052E-01   1.0297E-01   6.6588E-03  0.0111
   1.0297E-01   1.0547E-01   6.6411E-03  0.0110
   1.0547E-01   1.0804E-01   6.6506E-03  0.0108
   1.0804E-01   1.1067E-01   6.4911E-03  0.0108
   1.1067E-01   1.1336E-01   6.5690E-03  0.0106
   1.1336E-01   1.1612E-01   6.5899E-03  0.0105
   1.1612E-01   1.1894E-01   6.3644E-03  0.0105
   1.1894E-01   1.2184E-01   6.3217E-03  0.0105
   1.2184E-01   1.2480E-01   6.5217E-03  0.0102
   1.2480E-01   1.2784E-01   6.3928E-03  0.0102
   1.2784E-01   1.3095E-01   6.4361E-03  0.0100
   1.3095E-01   1.3414E-01   6.1928E-03  0.0101
   1.3414E-01   1.3740E-01   6.1812E-03  0.0100
   1.3740E-01   1.4074E-01   6.1707E-03  0.0098
   1.4074E-01   1.4417E-01   6.0300E-03  0.0098
   1.4417E-01   1.4767E-01   6.1405E-03  0.0096
   1.4767E-01   1.5127E-01   6.0434E-03  0.0096
   1.5127E-01   1.5495E-01   6.0275E-03  0.0095
   1.5495E-01   1.5872E-01   5.9875E-03  0.0094
   1.5872E-01   1.6258E-01   5.9049E-03  0.0094
   1.6258E-01   1.6654E-01   5.9395E-03  0.0092
   1.6654E-01   1.7059E-01   5.8323E-03  0.0092
   1.7059E-01   1.7474E-01   5.7971E-03  0.0091
   1.7474E-01   1.7899E-01   5.7544E-03  0.0090
   1.7899E-01   1.8334E-01   5.7636E-03  0.0089
   1.8334E-01   1.8781E-01   5.6529E-03  0.0089
   1.8781E-01   1.9237E-01   5.5219E-03  0.0089
   1.9237E-01   1.9706E-01   5.6294E-03  0.0087
   1.9706E-01   2.0185E-01   5.5847E-03  0.0086
   2.0185E-01   2.0676E-01   5.5974E-03  0.0085
   2.0676E-01   2.1179E-01   5.5569E-03  0.0085
   2.1179E-01   2.1694E-01   5.4410E-03  0.0084
   2.1694E-01   2.2222E-01   5.3531E-03  0.0084
   2.2222E-01   2.2763E-01   5.3508E-03  0.0083
   2.2763E-01   2.3317E-01   5.2580E-03  0.0083
   2.3317E-01   2.3884E-01   5.2969E-03  0.0082
   2.3884E-01   2.4465E-01   5.1977E-03  0.0081
   2.4465E-01   2.5061E-01   5.1305E-03  0.0081
   2.5061E-01   2.5670E-01   5.1020E-03  0.0080
   2.5670E-01   2.6295E-01   5.0761E-03  0.0079
   2.6295E-01   2.6935E-01   5.0013E-03  0.0079
   2.6935E-01   2.7590E-01   4.9547E-03  0.0078
   2.7590E-01   2.8261E-01   4.8842E-03  0.0078
   2.8261E-01   2.8949E-01   4.8697E-03  0.0077
   2.8949E-01   2.9653E-01   4.8108E-03  0.0077
   2.9653E-01   3.0375E-01   4.7045E-03  0.0077
   3.0375E-01   3.1114E-01   4.6942E-03  0.0076
   3.1114E-01   3.1871E-01   4.7042E-03  0.0075
   3.1871E-01   3.2646E-01   4.5855E-03  0.0075
   3.2646E-01   3.3441E-01   4.5719E-03  0.0074
   3.3441E-01   3.4254E-01   4.4962E-03  0.0074
   3.4254E-01   3.5088E-01   4.4564E-03  0.0073
   3.5088E-01   3.5941E-01   4.3407E-03  0.0073
   3.5941E-01   3.6816E-01   4.3326E-03  0.0073
   3.6816E-01   3.7712E-01   4.2415E-03  0.0073
   3.7712E-01   3.8629E-01   4.2059E-03  0.0072
   3.8629E-01   3.9569E-01   4.1857E-03  0.0071
   3.9569E-01   4.0532E-01   4.0651E-03  0.0071
   4.0532E-01   4.1518E-01   4.0639E-03  0.0071
   4.1518E-01   4.2528E-01   3.9805E-03  0.0071
   4.2528E-01   4.3563E-01   3.9445E-03  0.0070
   4.3563E-01   4.4623E-01   3.8968E-03  0.0070
   4.4623E-01   4.5708E-01   3.8460E-03  0.0069
   4.5708E-01   4.6821E-01   3.7743E-03  0.0069
   4.6821E-01   4.7960E-01   3.7069E-03  0.0069
   4.7960E-01   4.9127E-01   3.6639E-03  0.0068
   4.9127E-01   5.0322E-01   3.5982E-03  0.0068
   5.0322E-01   5.1546E-01   3.5584E-03  0.0068
   5.1546E-01   5.2800E-01   3.4852E-03  0.0068
   5.2800E-01   5.4085E-01   3.4063E-03  0.0068
   5.4085E-01   5.5401E-01   3.3462E-03  0.0067
   5.5401E-01   5.6749E-01   3.2925E-03  0.0067
   5.6749E-01   5.8130E-01   3.1970E-03  0.0067
   5.8130E-01   5.9544E-01   3.1978E-03  0.0067
   5.9544E-01   6.0993E-01   3.1015E-03  0.0067
   6.0993E-01   6.2477E-01   3.0404E-03  0.0067
   6.2477E-01   6.3997E-01   2.9933E-03  0.0066
   6.3997E-01   6.5554E-01   2.9087E-03  0.0066
   6.5554E-01   6.7149E-01   2.8122E-03  0.0067
   6.7149E-01   6.8783E-01   2.7697E-03  0.0067
   6.8783E-01   7.0456E-01   2.7220E-03  0.0066
   7.0456E-01   7.2171E-01   2.6709E-03  0.0066
   7.2171E-01   7.3927E-01   2.5760E-03  0.0067
   7.3927E-01   7.5725E-01   2.5187E-03  0.0066
   7.5725E-01   7.7568E-01   2.4426E-03  0.0067
   7.7568E-01   7.9455E-01   2.3610E-03  0.0067
   7.9455E-01   8.1388E-01   2.3030E-03  0.0067
   8.1388E-01   8.3368E-01   2.2570E-03  0.0067
   8.3368E-01   8.5397E-01   2.1564E-03  0.0068
   8.5397E-01   8.7475E-01   2.0988E-03  0.0068
   8.7475E-01   8.9603E-01   2.0566E-03  0.0068
   8.9603E-01   9.1783E-01   1.9527E-03  0.0069
   9.1783E-01   9.4016E-01   1.9143E-03  0.0068
   9.4016E-01   9.6304E-01   1.8254E-03  0.0069
   9.6304E-01   9.8647E-01   1.7927E-03  0.0069
   9.8647E-01   1.0105E+00   1.7202E-03  0.0070
   1.0105E+00   1.0351E+00   1.7062E-03  0.0069
   1.0351E+00   1.0602E+00   1.7493E-03  0.0067
   1.0602E+00   1.0860E+00   1.7760E-03  0.0066
   1.0860E+00   1.1125E+00   1.7929E-03  0.0065
   1.1125E+00   1.1395E+00   1.8268E-03  0.0064
   1.1395E+00   1.1673E+00   1.8729E-03  0.0062
   1.1673E+00   1.1957E+00   1.9157E-03  0.0061
   1.1957E+00   1.2247E+00   1.9607E-03  0.0059
   1.2247E+00   1.2545E+00   1.9542E-03  0.0059
   1.2545E+00   1.2851E+00   1.9917E-03  0.0057
   1.2851E+00   1.3163E+00   2.0066E-03  0.0056
   1.3163E+00   1.3484E+00   2.0270E-03  0.0056
   1.3484E+00   1.3812E+00   2.0909E-03  0.0054
   1.3812E+00   1.4148E+00   2.0892E-03  0.0053
   1.4148E+00   1.4492E+00   2.1103E-03  0.0052
   1.4492E+00   1.4845E+00   2.0993E-03  0.0052
   1.4845E+00   1.5206E+00   2.0922E-03  0.0051
   1.5206E+00   1.5576E+00   2.0922E-03  0.0051
   1.5576E+00   1.5955E+00   2.1030E-03  0.0050
   1.5955E+00   1.6343E+00   2.1138E-03  0.0049
   1.6343E+00   1.6741E+00   2.1438E-03  0.0048
   1.6741E+00   1.7148E+00   2.1661E-03  0.0048
   1.7148E+00   1.7565E+00   2.1371E-03  0.0047
   1.7565E+00   1.7992E+00   2.1305E-03  0.0047
   1.7992E+00   1.8430E+00   2.1176E-03  0.0046
   1.8430E+00   1.8879E+00   2.1413E-03  0.0046
   1.8879E+00   1.9338E+00   2.1065E-03  0.0045
   1.9338E+00   1.9808E+00   2.1006E-03  0.0045
   1.9808E+00   2.0290E+00   2.1076E-03  0.0044
   2.0290E+00   2.0784E+00   2.0846E-03  0.0044
   2.0784E+00   2.1290E+00   2.0386E-03  0.0044
   2.1290E+00   2.1808E+00   1.9956E-03  0.0044
   2.1808E+00   2.2338E+00   1.9697E-03  0.0044
   2.2338E+00   2.2882E+00   1.9535E-03  0.0043
   2.2882E+00   2.3439E+00   1.9432E-03  0.0043
   2.3439E+00   2.4009E+00   1.9399E-03  0.0043
   2.4009E+00   2.4593E+00   1.9145E-03  0.0042
   2.4593E+00   2.5191E+00   1.8747E-03  0.0042
   2.5191E+00   2.5804E+00   1.8342E-03  0.0042
   2.5804E+00   2.6432E+00   1.7808E-03  0.0042
   2.6432E+00   2.7075E+00   1.7358E-03  0.0042
   2.7075E+00   2.7734E+00   1.6970E-03  0.0042
   2.7734E+00   2.8409E+00   1.6497E-03  0.0042
   2.8409E+00   2.9100E+00   1.6227E-03  0.0042
   2.9100E+00   2.9808E+00   1.5861E-03  0.0042
   2.9808E+00   3.0533E+00   1.5687E-03  0.0042
   3.0533E+00   3.1276E+00   1.5223E-03  0.0042
   3.1276E+00   3.2037E+00   1.4756E-03  0.0042
   3.2037E+00   3.2817E+00   1.4250E-03  0.0042
   3.2817E+00   3.3615E+00   1.3773E-03  0.0043
   3.3615E+00   3.4433E+00   1.3368E-03  0.0043
   3.4433E+00   3.5271E+00   1.2878E-03  0.0043
   3.5271E+00   3.6129E+00   1.2485E-03  0.0043
   3.6129E+00   3.7008E+00   1.2134E-03  0.0043
   3.7008E+00   3.7908E+00   1.1801E-03  0.0043
   3.7908E+00   3.8831E+00   1.1307E-03  0.0044
   3.8831E+00   3.9776E+00   1.0954E-03  0.0044
   3.9776E+00   4.0743E+00   1.0601E-03  0.0044
   4.0743E+00   4.1735E+00   1.0226E-03  0.0044
   4.1735E+00   4.2750E+00   9.8238E-04  0.0045
   4.2750E+00   4.3790E+00   9.4093E-04  0.0045
   4.3790E+00   4.4856E+00   9.0073E-04  0.0046
   4.4856E+00   4.5947E+00   8.6353E-04  0.0046
   4.5947E+00   4.7065E+00   8.3010E-04  0.0046
   4.7065E+00   4.8210E+00   7.9951E-04  0.0047
   4.8210E+00   4.9383E+00   7.6621E-04  0.0047
   4.9383E+00   5.0585E+00   7.4472E-04  0.0047
   5.0585E+00   5.1815E+00   7.1705E-04  0.0048
   5.1815E+00   5.3076E+00   6.8290E-04  0.0048
   5.3076E+00   5.4368E+00   6.5446E-04  0.0049
   5.4368E+00   5.5690E+00   6.2774E-04  0.0049
   5.5690E+00   5.7045E+00   5.9820E-04  0.0050
   5.7045E+00   5.8433E+00   5.7703E-04  0.0050
   5.8433E+00   5.9855E+00   5.4990E-04  0.0051
   5.9855E+00   6.1311E+00   5.2975E-04  0.0051
   6.1311E+00   6.2803E+00   5.0465E-04  0.0052
   6.2803E+00   6.4331E+00   4.8760E-04  0.0052
   6.4331E+00   6.5896E+00   4.6883E-04  0.0052
   6.5896E+00   6.7500E+00   4.5024E-04  0.0053
   6.7500E+00   6.9142E+00   4.2661E-04  0.0053
   6.9142E+00   7.0824E+00   4.1661E-04  0.0053
   7.0824E+00   7.2548E+00   3.9710E-04  0.0054
   7.2548E+00   7.4313E+00   3.8417E-04  0.0054
   7.4313E+00   7.6121E+00   3.7184E-04  0.0055
   7.6121E+00   7.7973E+00   3.4931E-04  0.0056
   7.7973E+00   7.9870E+00   3.3991E-04  0.0056
   7.9870E+00   8.1813E+00   3.2685E-04  0.0056
   8.1813E+00   8.3804E+00   3.1371E-04  0.0057
   8.3804E+00   8.5843E+00   3.0144E-04  0.0057
   8.5843E+00   8.7931E+00   2.9456E-04  0.0057
   8.7931E+00   9.0071E+00   2.8313E-04  0.0057
   9.0071E+00   9.2262E+00   2.7386E-04  0.0058
   9.2262E+00   9.4507E+00   2.6765E-04  0.0058
   9.4507E+00   9.6807E+00   2.5879E-04  0.0058
   9.6807E+00   9.9162E+00   2.5259E-04  0.0058
   9.9162E+00   1.0157E+01   2.4508E-04  0.0058
   1.0157E+01   1.0405E+01   2.3948E-04  0.0058
   1.0405E+01   1.0658E+01   2.3392E-04  0.0058
   1.0658E+01   1.0917E+01   2.2777E-04  0.0058
   1.0917E+01   1.1183E+01   2.2032E-04  0.0058
   1.1183E+01   1.1455E+01   2.1425E-04  0.0059
   1.1455E+01   1.1733E+01   2.0921E-04  0.0059
   1.1733E+01   1.2019E+01   2.0779E-04  0.0058
   1.2019E+01   1.2311E+01   2.0251E-04  0.0058
   1.2311E+01   1.2611E+01   2.0043E-04  0.0058
   1.2611E+01   1.2918E+01   1.9498E-04  0.0058
   1.2918E+01   1.3232E+01   1.9144E-04  0.0058
   1.3232E+01   1.3554E+01   1.9019E-04  0.0057
   1.3554E+01   1.3884E+01   1.8612E-04  0.0057
   1.3884E+01   1.4222E+01   1.8439E-04  0.0057
   1.4222E+01   1.4568E+01   1.8114E-04  0.0056
   1.4568E+01   1.4922E+01   1.7908E-04  0.0056
   1.4922E+01   1.5285E+01   1.7720E-04  0.0056
   1.5285E+01   1.5657E+01   1.7734E-04  0.0055
   1.5657E+01   1.6038E+01   1.7487E-04  0.0055
   1.6038E+01   1.6428E+01   1.7126E-04  0.0055
   1.6428E+01   1.6828E+01   1.7308E-04  0.0054
   1.6828E+01   1.7237E+01   1.6934E-04  0.0054
   1.7237E+01   1.7657E+01   1.6926E-04  0.0053
   1.7657E+01   1.8086E+01   1.6796E-04  0.0053
   1.8086E+01   1.8526E+01   1.6828E-04  0.0052
   1.8526E+01   1.8977E+01   1.6640E-04  0.0052
   1.8977E+01   1.9439E+01   1.6491E-04  0.0051
   1.9439E+01   1.9912E+01   1.6484E-04  0.0051
   1.9912E+01   2.0396E+01   1.6478E-04  0.0050
   2.0396E+01   2.0893E+01   1.6634E-04  0.0049
   2.0893E+01   2.1401E+01   1.6198E-04  0.0049
   2.1401E+01   2.1922E+01   1.6303E-04  0.0049
   2.1922E+01   2.2455E+01   1.6282E-04  0.0048
   2.2455E+01   2.3001E+01   1.6292E-04  0.0047
   2.3001E+01   2.3561E+01   1.6315E-04  0.0047
   2.3561E+01   2.4134E+01   1.6266E-04  0.0046
   2.4134E+01   2.4721E+01   1.6158E-04  0.0046
   2.4721E+01   2.5323E+01   1.6221E-04  0.0045
   2.5323E+01   2.5939E+01   1.6159E-04  0.0045
   2.5939E+01   2.6570E+01   1.6179E-04  0.0044
   2.6570E+01   2.7217E+01   1.6298E-04  0.0044
   2.7217E+01   2.7879E+01   1.6098E-04  0.0043
   2.7879E+01   2.8557E+01   1.6177E-04  0.0043
   2.8557E+01   2.9252E+01   1.6219E-04  0.0042
   2.9252E+01   2.9964E+01   1.5951E-04  0.0042
   2.9964E+01   3.0693E+01   1.6232E-04  0.0041
   3.0693E+01   3.1440E+01   1.6208E-04  0.0041
   3.1440E+01   3.2205E+01   1.6193E-04  0.0040
   3.2205E+01   3.2988E+01   1.6090E-04  0.0040
   3.2988E+01   3.3791E+01   1.6182E-04  0.0039
   3.3791E+01   3.4613E+01   1.6182E-04  0.0039
   3.4613E+01   3.5455E+01   1.6120E-04  0.0038
   3.5455E+01   3.6318E+01   1.6060E-04  0.0038
   3.6318E+01   3.7201E+01   1.6084E-04  0.0038
   3.7201E+01   3.8106E+01   1.6079E-04  0.0037
   3.8106E+01   3.9034E+01   1.6121E-04  0.0037
   3.9034E+01   3.9983E+01   1.5914E-04  0.0036
   3.9983E+01   4.0956E+01   1.6076E-04  0.0036
   4.0956E+01   4.1953E+01   1.6105E-04  0.0035
   4.1953E+01   4.2973E+01   1.5982E-04  0.0035
   4.2973E+01   4.4019E+01   1.5892E-04  0.0035
   4.4019E+01   4.5090E+01   1.5841E-04  0.0034
   4.5090E+01   4.6187E+01   1.5719E-04  0.0034
   4.6187E+01   4.7311E+01   1.5670E-04  0.0034
   4.7311E+01   4.8462E+01   1.5421E-04  0.0034
   4.8462E+01   4.9641E+01   1.5299E-04  0.0033
   4.9641E+01   5.0849E+01   1.5055E-04  0.0033
   5.0849E+01   5.2086E+01   1.4702E-04  0.0033
   5.2086E+01   5.3353E+01   1.4417E-04  0.0033
   5.3353E+01   5.4651E+01   1.4133E-04  0.0033
   5.4651E+01   5.5981E+01   1.3746E-04  0.0033
   5.5981E+01   5.7343E+01   1.3218E-04  0.0033
   5.7343E+01   5.8738E+01   1.2777E-04  0.0033
   5.8738E+01   6.0168E+01   1.2254E-04  0.0034
   6.0168E+01   6.1632E+01   1.1760E-04  0.0034
   6.1632E+01   6.3131E+01   1.1187E-04  0.0035
   6.3131E+01   6.4667E+01   1.0620E-04  0.0035
   6.4667E+01   6.6240E+01   1.0009E-04  0.0036
   6.6240E+01   6.7852E+01   9.3865E-05  0.0036
   6.7852E+01   6.9503E+01   8.7241E-05  0.0037
   6.9503E+01   7.1194E+01   8.1181E-05  0.0038
   7.1194E+01   7.2926E+01   7.5317E-05  0.0039
   7.2926E+01   7.4701E+01   6.9824E-05  0.0040
   7.4701E+01   7.6518E+01   6.3714E-05  0.0042
   7.6518E+01   7.8380E+01   5.8746E-05  0.0043
   7.8380E+01   8.0287E+01   5.3838E-05  0.0044
   8.0287E+01   8.2240E+01   4.9419E-05  0.0046
   8.2240E+01   8.4241E+01   4.5008E-05  0.0047
   8.4241E+01   8.6291E+01   4.0710E-05  0.0049
   8.6291E+01   8.8391E+01   3.7570E-05  0.0050
   8.8391E+01   9.0541E+01   3.3833E-05  0.0052
   9.0541E+01   9.2744E+01   3.1121E-05  0.0054
   9.2744E+01   9.5001E+01   2.8094E-05  0.0056
   9.5001E+01   9.7312E+01   2.5631E-05  0.0058
   9.7312E+01   9.9680E+01   2.3289E-05  0.0060
   9.9680E+01   1.0211E+02   2.1484E-05  0.0062
   1.0211E+02   1.0459E+02   1.9519E-05  0.0064
   1.0459E+02   1.0713E+02   1.7857E-05  0.0066
   1.0713E+02   1.0974E+02   1.6142E-05  0.0069
   1.0974E+02   1.1241E+02   1.4728E-05  0.0071
   1.1241E+02   1.1515E+02   1.3443E-05  0.0074
   1.1515E+02   1.1795E+02   1.2175E-05  0.0077
   1.1795E+02   1.2082E+02   1.1301E-05  0.0079
   1.2082E+02   1.2376E+02   1.0234E-05  0.0082
   1.2376E+02   1.2677E+02   9.2697E-06  0.0085
   1.2677E+02   1.2985E+02   8.3758E-06  0.0088
   1.2985E+02   1.3301E+02   7.4381E-06  0.0092
   1.3301E+02   1.3625E+02   6.8424E-06  0.0095
   1.3625E+02   1.3956E+02   6.0187E-06  0.0100
   1.3956E+02   1.4296E+02   5.6383E-06  0.0102
   1.4296E+02   1.4644E+02   5.1353E-06  0.0106
   1.4644E+02   1.5000E+02   4.2538E-06  0.0115

#   sum over                 1.5297E-04
'no. =    1   reg = 107 - 207'
msuc: {\huge [t-cross] in region mesh}
msdr: {\it plotted by \ANGEL \version}
msdl: {\it calculated by \PHITS  3.26}
wt: s(0.7)
\vspace{-3}
  region surface crossing
  area  &=&   1.0000E+00 [cm^2]
e:
 
# Information for Restart Calculation
# This calculation was newly started
# istdev =  2 # 1:Batch variance, 2:History variance
# resc2  = 5.00000000000000000E+08 # Total source weight or Total source weight / maxcas
# resc3  = 5.00000000000000000E+08 # Total history number or Total batch number
# maxcas =   500000000 # History / Batch, only used for istdev=1
# bitrseed = 1101101111010011011000101101110001100110110010110001010100010001 # bit data of rseed
