0 <--- number of remaining batches 

-------------------------------------------------------------------------------
bat[      10] ncas =     5000000000.
 bitrseed = 0001011101011011011000011100010110101100100111100111010011101011
          cpu time =   3 h. 21 m.  8.53 s.

 date = 2022-05-19
 time = 22h 21m 19s

