[ T-Cross ]
    title = [t-cross] in region mesh
     mesh =  reg            # mesh type is region-wise
      reg =    1            # number of crossing regions
      non     r-from    r-to       area
      1       120       220        1.000000    
   e-type =    3            # e-mesh is log given by emin, emax and ne
     emin =  1.0000000E-02  # minimum value of e-mesh points
     emax =   150.0000      # maximum value of e-mesh points
#    edel =  2.4039514E-02  # mesh width of e-mesh points
       ne =    400          # number of e-mesh points
#    data = ( e(i), i = 1, ne + 1 )
#           1.00000E-02  1.02433E-02  1.04925E-02  1.07478E-02  1.10093E-02
#           1.12772E-02  1.15516E-02  1.18326E-02  1.21205E-02  1.24154E-02
#           1.27175E-02  1.30269E-02  1.33439E-02  1.36686E-02  1.40011E-02
#           1.43418E-02  1.46907E-02  1.50482E-02  1.54143E-02  1.57894E-02
#           1.61735E-02  1.65670E-02  1.69701E-02  1.73830E-02  1.78060E-02
#           1.82392E-02  1.86830E-02  1.91375E-02  1.96032E-02  2.00801E-02
#           2.05687E-02  2.10692E-02  2.15818E-02  2.21069E-02  2.26448E-02
#           2.31957E-02  2.37601E-02  2.43382E-02  2.49304E-02  2.55369E-02
#           2.61583E-02  2.67947E-02  2.74467E-02  2.81145E-02  2.87985E-02
#           2.94992E-02  3.02169E-02  3.09521E-02  3.17052E-02  3.24766E-02
#           3.32668E-02  3.40762E-02  3.49053E-02  3.57546E-02  3.66246E-02
#           3.75157E-02  3.84284E-02  3.93634E-02  4.03212E-02  4.13022E-02
#           4.23071E-02  4.33365E-02  4.43909E-02  4.54710E-02  4.65773E-02
#           4.77106E-02  4.88714E-02  5.00605E-02  5.12785E-02  5.25262E-02
#           5.38042E-02  5.51133E-02  5.64542E-02  5.78278E-02  5.92348E-02
#           6.06760E-02  6.21523E-02  6.36645E-02  6.52135E-02  6.68002E-02
#           6.84255E-02  7.00904E-02  7.17957E-02  7.35426E-02  7.53319E-02
#           7.71648E-02  7.90423E-02  8.09655E-02  8.29354E-02  8.49533E-02
#           8.70203E-02  8.91376E-02  9.13064E-02  9.35279E-02  9.58035E-02
#           9.81345E-02  1.00522E-01  1.02968E-01  1.05473E-01  1.08040E-01
#           1.10668E-01  1.13361E-01  1.16119E-01  1.18944E-01  1.21838E-01
#           1.24803E-01  1.27839E-01  1.30950E-01  1.34136E-01  1.37399E-01
#           1.40742E-01  1.44167E-01  1.47675E-01  1.51268E-01  1.54948E-01
#           1.58718E-01  1.62580E-01  1.66535E-01  1.70587E-01  1.74738E-01
#           1.78989E-01  1.83344E-01  1.87805E-01  1.92375E-01  1.97055E-01
#           2.01850E-01  2.06761E-01  2.11792E-01  2.16945E-01  2.22223E-01
#           2.27630E-01  2.33169E-01  2.38842E-01  2.44653E-01  2.50605E-01
#           2.56703E-01  2.62949E-01  2.69346E-01  2.75900E-01  2.82613E-01
#           2.89489E-01  2.96532E-01  3.03747E-01  3.11138E-01  3.18708E-01
#           3.26462E-01  3.34405E-01  3.42542E-01  3.50876E-01  3.59413E-01
#           3.68158E-01  3.77116E-01  3.86291E-01  3.95690E-01  4.05317E-01
#           4.15179E-01  4.25281E-01  4.35628E-01  4.46227E-01  4.57084E-01
#           4.68205E-01  4.79597E-01  4.91266E-01  5.03219E-01  5.15463E-01
#           5.28005E-01  5.40851E-01  5.54011E-01  5.67490E-01  5.81298E-01
#           5.95441E-01  6.09929E-01  6.24769E-01  6.39970E-01  6.55541E-01
#           6.71491E-01  6.87828E-01  7.04564E-01  7.21706E-01  7.39266E-01
#           7.57253E-01  7.75678E-01  7.94551E-01  8.13883E-01  8.33685E-01
#           8.53969E-01  8.74747E-01  8.96030E-01  9.17831E-01  9.40163E-01
#           9.63038E-01  9.86469E-01  1.01047E+00  1.03506E+00  1.06024E+00
#           1.08604E+00  1.11246E+00  1.13953E+00  1.16725E+00  1.19565E+00
#           1.22474E+00  1.25454E+00  1.28507E+00  1.31633E+00  1.34836E+00
#           1.38117E+00  1.41477E+00  1.44920E+00  1.48446E+00  1.52057E+00
#           1.55757E+00  1.59547E+00  1.63429E+00  1.67405E+00  1.71478E+00
#           1.75650E+00  1.79924E+00  1.84302E+00  1.88786E+00  1.93379E+00
#           1.98084E+00  2.02904E+00  2.07841E+00  2.12898E+00  2.18078E+00
#           2.23384E+00  2.28819E+00  2.34386E+00  2.40089E+00  2.45930E+00
#           2.51914E+00  2.58043E+00  2.64322E+00  2.70753E+00  2.77341E+00
#           2.84088E+00  2.91001E+00  2.98081E+00  3.05333E+00  3.12762E+00
#           3.20372E+00  3.28167E+00  3.36152E+00  3.44330E+00  3.52708E+00
#           3.61290E+00  3.70080E+00  3.79085E+00  3.88308E+00  3.97756E+00
#           4.07434E+00  4.17347E+00  4.27501E+00  4.37903E+00  4.48557E+00
#           4.59471E+00  4.70650E+00  4.82102E+00  4.93832E+00  5.05847E+00
#           5.18155E+00  5.30762E+00  5.43676E+00  5.56904E+00  5.70453E+00
#           5.84333E+00  5.98550E+00  6.13114E+00  6.28031E+00  6.43312E+00
#           6.58964E+00  6.74997E+00  6.91420E+00  7.08243E+00  7.25475E+00
#           7.43126E+00  7.61207E+00  7.79728E+00  7.98700E+00  8.18133E+00
#           8.38038E+00  8.58428E+00  8.79315E+00  9.00709E+00  9.22624E+00
#           9.45072E+00  9.68067E+00  9.91620E+00  1.01575E+01  1.04046E+01
#           1.06578E+01  1.09171E+01  1.11827E+01  1.14548E+01  1.17335E+01
#           1.20190E+01  1.23114E+01  1.26109E+01  1.29178E+01  1.32321E+01
#           1.35540E+01  1.38838E+01  1.42216E+01  1.45676E+01  1.49221E+01
#           1.52851E+01  1.56570E+01  1.60380E+01  1.64282E+01  1.68279E+01
#           1.72374E+01  1.76568E+01  1.80864E+01  1.85264E+01  1.89772E+01
#           1.94389E+01  1.99119E+01  2.03963E+01  2.08926E+01  2.14009E+01
#           2.19216E+01  2.24550E+01  2.30014E+01  2.35610E+01  2.41343E+01
#           2.47215E+01  2.53230E+01  2.59391E+01  2.65702E+01  2.72167E+01
#           2.78789E+01  2.85572E+01  2.92520E+01  2.99637E+01  3.06928E+01
#           3.14396E+01  3.22045E+01  3.29881E+01  3.37907E+01  3.46128E+01
#           3.54550E+01  3.63177E+01  3.72013E+01  3.81064E+01  3.90336E+01
#           3.99833E+01  4.09561E+01  4.19526E+01  4.29734E+01  4.40189E+01
#           4.50900E+01  4.61870E+01  4.73108E+01  4.84619E+01  4.96410E+01
#           5.08488E+01  5.20860E+01  5.33533E+01  5.46514E+01  5.59812E+01
#           5.73432E+01  5.87384E+01  6.01676E+01  6.16315E+01  6.31311E+01
#           6.46671E+01  6.62405E+01  6.78522E+01  6.95031E+01  7.11941E+01
#           7.29263E+01  7.47007E+01  7.65182E+01  7.83800E+01  8.02870E+01
#           8.22405E+01  8.42414E+01  8.62911E+01  8.83906E+01  9.05412E+01
#           9.27442E+01  9.50007E+01  9.73122E+01  9.96799E+01  1.02105E+02
#           1.04589E+02  1.07134E+02  1.09741E+02  1.12411E+02  1.15146E+02
#           1.17948E+02  1.20817E+02  1.23757E+02  1.26768E+02  1.29852E+02
#           1.33012E+02  1.36248E+02  1.39563E+02  1.42959E+02  1.46437E+02
#           1.50000E+02
     unit =    2            # unit is [1/cm^2/(MeV/n)/source]
     axis =  eng            # axis of output
     file = detector-21.out  # file name of output for the above axis
   output = f-curr          # surface crossing forward current spectrum
     part =  neutron  
# kf/name :  2112     
#    used :        main (  %)        temp (  %)       total (  %)
#  memory :         414 (  0)           0 (  0)         414 (  0)

#------------------------------------------------------------------------------
#newpage:
#   no. =    1   reg = 120 - 220

x: Energy [MeV/n]
y:  F-Curr [1/cm^2/(MeV/n)/source]         
p: xlog ylog afac(0.8) form(0.9)
h: n            x            y(neutron ),hh0l   n 
#  e-lower      e-upper      neutron     r.err 
   1.0000E-02   1.0243E-02   6.6582E-05  0.1111
   1.0243E-02   1.0493E-02   5.9383E-05  0.1162
   1.0493E-02   1.0748E-02   5.2489E-05  0.1222
   1.0748E-02   1.1009E-02   5.5831E-05  0.1170
   1.1009E-02   1.1277E-02   7.0931E-05  0.1026
   1.1277E-02   1.1552E-02   5.8313E-05  0.1118
   1.1552E-02   1.1833E-02   5.0523E-05  0.1187
   1.1833E-02   1.2121E-02   5.3491E-05  0.1140
   1.2121E-02   1.2415E-02   4.8830E-05  0.1179
   1.2415E-02   1.2718E-02   6.4884E-05  0.1010
   1.2718E-02   1.3027E-02   6.7867E-05  0.0976
   1.3027E-02   1.3344E-02   7.2565E-05  0.0933
   1.3344E-02   1.3669E-02   5.4825E-05  0.1060
   1.3669E-02   1.4001E-02   6.0138E-05  0.1000
   1.4001E-02   1.4342E-02   6.3407E-05  0.0962
   1.4342E-02   1.4691E-02   6.1900E-05  0.0962
   1.4691E-02   1.5048E-02   7.1061E-05  0.0887
   1.5048E-02   1.5414E-02   6.2272E-05  0.0937
   1.5414E-02   1.5789E-02   6.2926E-05  0.0921
   1.5789E-02   1.6174E-02   6.0911E-05  0.0925
   1.6174E-02   1.6567E-02   6.0481E-05  0.0917
   1.6567E-02   1.6970E-02   6.5990E-05  0.0867
   1.6970E-02   1.7383E-02   6.3454E-05  0.0874
   1.7383E-02   1.7806E-02   6.4784E-05  0.0854
   1.7806E-02   1.8239E-02   7.0170E-05  0.0811
   1.8239E-02   1.8683E-02   7.1658E-05  0.0793
   1.8683E-02   1.9138E-02   7.6116E-05  0.0760
   1.9138E-02   1.9603E-02   6.8294E-05  0.0793
   1.9603E-02   2.0080E-02   6.4156E-05  0.0808
   2.0080E-02   2.0569E-02   7.6141E-05  0.0733
   2.0569E-02   2.1069E-02   7.6731E-05  0.0722
   2.1069E-02   2.1582E-02   6.6715E-05  0.0765
   2.1582E-02   2.2107E-02   7.1224E-05  0.0731
   2.2107E-02   2.2645E-02   7.3623E-05  0.0711
   2.2645E-02   2.3196E-02   7.5141E-05  0.0695
   2.3196E-02   2.3760E-02   6.8395E-05  0.0720
   2.3760E-02   2.4338E-02   7.9917E-05  0.0658
   2.4338E-02   2.4930E-02   7.3290E-05  0.0679
   2.4930E-02   2.5537E-02   6.6603E-05  0.0704
   2.5537E-02   2.6158E-02   7.2103E-05  0.0668
   2.6158E-02   2.6795E-02   7.1961E-05  0.0661
   2.6795E-02   2.7447E-02   8.7739E-05  0.0591
   2.7447E-02   2.8114E-02   7.6370E-05  0.0626
   2.8114E-02   2.8799E-02   8.6836E-05  0.0580
   2.8799E-02   2.9499E-02   8.1919E-05  0.0590
   2.9499E-02   3.0217E-02   8.0809E-05  0.0587
   3.0217E-02   3.0952E-02   7.9706E-05  0.0584
   3.0952E-02   3.1705E-02   8.5514E-05  0.0557
   3.1705E-02   3.2477E-02   7.6483E-05  0.0582
   3.2477E-02   3.3267E-02   7.1123E-05  0.0597
   3.3267E-02   3.4076E-02   7.5858E-05  0.0571
   3.4076E-02   3.4905E-02   8.6600E-05  0.0528
   3.4905E-02   3.5755E-02   8.0304E-05  0.0542
   3.5755E-02   3.6625E-02   8.2305E-05  0.0529
   3.6625E-02   3.7516E-02   8.6634E-05  0.0509
   3.7516E-02   3.8428E-02   8.6767E-05  0.0503
   3.8428E-02   3.9363E-02   8.9412E-05  0.0489
   3.9363E-02   4.0321E-02   8.5827E-05  0.0493
   4.0321E-02   4.1302E-02   9.0108E-05  0.0476
   4.1302E-02   4.2307E-02   9.3540E-05  0.0461
   4.2307E-02   4.3337E-02   8.8404E-05  0.0469
   4.3337E-02   4.4391E-02   8.6683E-05  0.0468
   4.4391E-02   4.5471E-02   8.8328E-05  0.0458
   4.5471E-02   4.6577E-02   9.4003E-05  0.0439
   4.6577E-02   4.7711E-02   1.0024E-04  0.0420
   4.7711E-02   4.8871E-02   9.9756E-05  0.0416
   4.8871E-02   5.0061E-02   1.0395E-04  0.0402
   5.0061E-02   5.1279E-02   9.7864E-05  0.0410
   5.1279E-02   5.2526E-02   9.9547E-05  0.0401
   5.2526E-02   5.3804E-02   1.0141E-04  0.0393
   5.3804E-02   5.5113E-02   1.0710E-04  0.0378
   5.5113E-02   5.6454E-02   9.9929E-05  0.0386
   5.6454E-02   5.7828E-02   1.0367E-04  0.0375
   5.7828E-02   5.9235E-02   1.0490E-04  0.0368
   5.9235E-02   6.0676E-02   9.9221E-05  0.0374
   6.0676E-02   6.2152E-02   1.0581E-04  0.0358
   6.2152E-02   6.3665E-02   1.0647E-04  0.0352
   6.3665E-02   6.5214E-02   1.1026E-04  0.0342
   6.5214E-02   6.6800E-02   1.0286E-04  0.0350
   6.6800E-02   6.8426E-02   1.1506E-04  0.0327
   6.8426E-02   7.0090E-02   1.1256E-04  0.0327
   7.0090E-02   7.1796E-02   1.0942E-04  0.0327
   7.1796E-02   7.3543E-02   1.1438E-04  0.0316
   7.3543E-02   7.5332E-02   1.1747E-04  0.0308
   7.5332E-02   7.7165E-02   1.2428E-04  0.0296
   7.7165E-02   7.9042E-02   1.2176E-04  0.0296
   7.9042E-02   8.0965E-02   1.2095E-04  0.0293
   8.0965E-02   8.2935E-02   1.1960E-04  0.0291
   8.2935E-02   8.4953E-02   1.2161E-04  0.0285
   8.4953E-02   8.7020E-02   1.2540E-04  0.0278
   8.7020E-02   8.9138E-02   1.2129E-04  0.0279
   8.9138E-02   9.1306E-02   1.3224E-04  0.0264
   9.1306E-02   9.3528E-02   1.3225E-04  0.0261
   9.3528E-02   9.5804E-02   1.3298E-04  0.0257
   9.5804E-02   9.8134E-02   1.3076E-04  0.0256
   9.8134E-02   1.0052E-01   1.3427E-04  0.0250
   1.0052E-01   1.0297E-01   1.2961E-04  0.0251
   1.0297E-01   1.0547E-01   1.3475E-04  0.0243
   1.0547E-01   1.0804E-01   1.3966E-04  0.0236
   1.0804E-01   1.1067E-01   1.4410E-04  0.0230
   1.1067E-01   1.1336E-01   1.4358E-04  0.0227
   1.1336E-01   1.1612E-01   1.4220E-04  0.0226
   1.1612E-01   1.1894E-01   1.5191E-04  0.0216
   1.1894E-01   1.2184E-01   1.4409E-04  0.0219
   1.2184E-01   1.2480E-01   1.4499E-04  0.0216
   1.2480E-01   1.2784E-01   1.5142E-04  0.0209
   1.2784E-01   1.3095E-01   1.5329E-04  0.0205
   1.3095E-01   1.3414E-01   1.5172E-04  0.0203
   1.3414E-01   1.3740E-01   1.5486E-04  0.0199
   1.3740E-01   1.4074E-01   1.5818E-04  0.0194
   1.4074E-01   1.4417E-01   1.5863E-04  0.0192
   1.4417E-01   1.4767E-01   1.5589E-04  0.0191
   1.4767E-01   1.5127E-01   1.6499E-04  0.0184
   1.5127E-01   1.5495E-01   1.6139E-04  0.0183
   1.5495E-01   1.5872E-01   1.6260E-04  0.0181
   1.5872E-01   1.6258E-01   1.6821E-04  0.0175
   1.6258E-01   1.6654E-01   1.6730E-04  0.0174
   1.6654E-01   1.7059E-01   1.6925E-04  0.0171
   1.7059E-01   1.7474E-01   1.7318E-04  0.0167
   1.7474E-01   1.7899E-01   1.7152E-04  0.0166
   1.7899E-01   1.8334E-01   1.7525E-04  0.0162
   1.8334E-01   1.8781E-01   1.7804E-04  0.0159
   1.8781E-01   1.9237E-01   1.8409E-04  0.0154
   1.9237E-01   1.9706E-01   1.8164E-04  0.0153
   1.9706E-01   2.0185E-01   1.8888E-04  0.0149
   2.0185E-01   2.0676E-01   1.8684E-04  0.0148
   2.0676E-01   2.1179E-01   1.8725E-04  0.0146
   2.1179E-01   2.1694E-01   1.8754E-04  0.0144
   2.1694E-01   2.2222E-01   1.9191E-04  0.0141
   2.2222E-01   2.2763E-01   1.9005E-04  0.0140
   2.2763E-01   2.3317E-01   1.9190E-04  0.0137
   2.3317E-01   2.3884E-01   1.9111E-04  0.0136
   2.3884E-01   2.4465E-01   1.9497E-04  0.0133
   2.4465E-01   2.5061E-01   2.0156E-04  0.0129
   2.5061E-01   2.5670E-01   2.0350E-04  0.0127
   2.5670E-01   2.6295E-01   1.9857E-04  0.0127
   2.6295E-01   2.6935E-01   2.0538E-04  0.0123
   2.6935E-01   2.7590E-01   2.0481E-04  0.0122
   2.7590E-01   2.8261E-01   2.0561E-04  0.0120
   2.8261E-01   2.8949E-01   2.1044E-04  0.0118
   2.8949E-01   2.9653E-01   2.1134E-04  0.0116
   2.9653E-01   3.0375E-01   2.1256E-04  0.0114
   3.0375E-01   3.1114E-01   2.0965E-04  0.0114
   3.1114E-01   3.1871E-01   2.0895E-04  0.0112
   3.1871E-01   3.2646E-01   2.1492E-04  0.0110
   3.2646E-01   3.3441E-01   2.1103E-04  0.0109
   3.3441E-01   3.4254E-01   2.1894E-04  0.0106
   3.4254E-01   3.5088E-01   2.2305E-04  0.0104
   3.5088E-01   3.5941E-01   2.1717E-04  0.0104
   3.5941E-01   3.6816E-01   2.2480E-04  0.0101
   3.6816E-01   3.7712E-01   2.2475E-04  0.0100
   3.7712E-01   3.8629E-01   2.2242E-04  0.0099
   3.8629E-01   3.9569E-01   2.2224E-04  0.0098
   3.9569E-01   4.0532E-01   2.2660E-04  0.0096
   4.0532E-01   4.1518E-01   2.2536E-04  0.0095
   4.1518E-01   4.2528E-01   2.2761E-04  0.0093
   4.2528E-01   4.3563E-01   2.2205E-04  0.0093
   4.3563E-01   4.4623E-01   2.2868E-04  0.0091
   4.4623E-01   4.5708E-01   2.3153E-04  0.0089
   4.5708E-01   4.6821E-01   2.2774E-04  0.0089
   4.6821E-01   4.7960E-01   2.2434E-04  0.0088
   4.7960E-01   4.9127E-01   2.2869E-04  0.0087
   4.9127E-01   5.0322E-01   2.2873E-04  0.0086
   5.0322E-01   5.1546E-01   2.2789E-04  0.0085
   5.1546E-01   5.2800E-01   2.2748E-04  0.0084
   5.2800E-01   5.4085E-01   2.2571E-04  0.0083
   5.4085E-01   5.5401E-01   2.2554E-04  0.0082
   5.5401E-01   5.6749E-01   2.2793E-04  0.0081
   5.6749E-01   5.8130E-01   2.2683E-04  0.0080
   5.8130E-01   5.9544E-01   2.2791E-04  0.0079
   5.9544E-01   6.0993E-01   2.2343E-04  0.0079
   6.0993E-01   6.2477E-01   2.2578E-04  0.0077
   6.2477E-01   6.3997E-01   2.2513E-04  0.0076
   6.3997E-01   6.5554E-01   2.2431E-04  0.0076
   6.5554E-01   6.7149E-01   2.2142E-04  0.0075
   6.7149E-01   6.8783E-01   2.1863E-04  0.0075
   6.8783E-01   7.0456E-01   2.2192E-04  0.0073
   7.0456E-01   7.2171E-01   2.1834E-04  0.0073
   7.2171E-01   7.3927E-01   2.1321E-04  0.0073
   7.3927E-01   7.5725E-01   2.1805E-04  0.0071
   7.5725E-01   7.7568E-01   2.1231E-04  0.0072
   7.7568E-01   7.9455E-01   2.1162E-04  0.0071
   7.9455E-01   8.1388E-01   2.0957E-04  0.0070
   8.1388E-01   8.3368E-01   2.1006E-04  0.0069
   8.3368E-01   8.5397E-01   2.0462E-04  0.0069
   8.5397E-01   8.7475E-01   2.0025E-04  0.0069
   8.7475E-01   8.9603E-01   1.9835E-04  0.0069
   8.9603E-01   9.1783E-01   1.9538E-04  0.0069
   9.1783E-01   9.4016E-01   1.9321E-04  0.0068
   9.4016E-01   9.6304E-01   1.8812E-04  0.0068
   9.6304E-01   9.8647E-01   1.8351E-04  0.0068
   9.8647E-01   1.0105E+00   1.7556E-04  0.0069
   1.0105E+00   1.0351E+00   1.7043E-04  0.0069
   1.0351E+00   1.0602E+00   1.6544E-04  0.0069
   1.0602E+00   1.0860E+00   1.6081E-04  0.0069
   1.0860E+00   1.1125E+00   1.5677E-04  0.0070
   1.1125E+00   1.1395E+00   1.5261E-04  0.0070
   1.1395E+00   1.1673E+00   1.4699E-04  0.0070
   1.1673E+00   1.1957E+00   1.4468E-04  0.0070
   1.1957E+00   1.2247E+00   1.4109E-04  0.0070
   1.2247E+00   1.2545E+00   1.3673E-04  0.0070
   1.2545E+00   1.2851E+00   1.3216E-04  0.0070
   1.2851E+00   1.3163E+00   1.2761E-04  0.0071
   1.3163E+00   1.3484E+00   1.2319E-04  0.0071
   1.3484E+00   1.3812E+00   1.1804E-04  0.0072
   1.3812E+00   1.4148E+00   1.1435E-04  0.0072
   1.4148E+00   1.4492E+00   1.1022E-04  0.0073
   1.4492E+00   1.4845E+00   1.0408E-04  0.0074
   1.4845E+00   1.5206E+00   1.0199E-04  0.0074
   1.5206E+00   1.5576E+00   9.7073E-05  0.0075
   1.5576E+00   1.5955E+00   9.2155E-05  0.0076
   1.5955E+00   1.6343E+00   8.7555E-05  0.0077
   1.6343E+00   1.6741E+00   8.3876E-05  0.0077
   1.6741E+00   1.7148E+00   7.9448E-05  0.0079
   1.7148E+00   1.7565E+00   7.5087E-05  0.0080
   1.7565E+00   1.7992E+00   7.0777E-05  0.0081
   1.7992E+00   1.8430E+00   6.7593E-05  0.0082
   1.8430E+00   1.8879E+00   6.5059E-05  0.0083
   1.8879E+00   1.9338E+00   6.1637E-05  0.0084
   1.9338E+00   1.9808E+00   5.6862E-05  0.0086
   1.9808E+00   2.0290E+00   5.3822E-05  0.0088
   2.0290E+00   2.0784E+00   5.1142E-05  0.0089
   2.0784E+00   2.1290E+00   4.8013E-05  0.0091
   2.1290E+00   2.1808E+00   4.4545E-05  0.0093
   2.1808E+00   2.2338E+00   4.2691E-05  0.0094
   2.2338E+00   2.2882E+00   4.0007E-05  0.0096
   2.2882E+00   2.3439E+00   3.6750E-05  0.0099
   2.3439E+00   2.4009E+00   3.4723E-05  0.0101
   2.4009E+00   2.4593E+00   3.2844E-05  0.0102
   2.4593E+00   2.5191E+00   3.0493E-05  0.0105
   2.5191E+00   2.5804E+00   2.8764E-05  0.0107
   2.5804E+00   2.6432E+00   2.6516E-05  0.0110
   2.6432E+00   2.7075E+00   2.4372E-05  0.0113
   2.7075E+00   2.7734E+00   2.3195E-05  0.0114
   2.7734E+00   2.8409E+00   2.1370E-05  0.0118
   2.8409E+00   2.9100E+00   1.9849E-05  0.0121
   2.9100E+00   2.9808E+00   1.8398E-05  0.0124
   2.9808E+00   3.0533E+00   1.6932E-05  0.0128
   3.0533E+00   3.1276E+00   1.5803E-05  0.0131
   3.1276E+00   3.2037E+00   1.4679E-05  0.0134
   3.2037E+00   3.2817E+00   1.3753E-05  0.0137
   3.2817E+00   3.3615E+00   1.2391E-05  0.0142
   3.3615E+00   3.4433E+00   1.1508E-05  0.0146
   3.4433E+00   3.5271E+00   1.0554E-05  0.0150
   3.5271E+00   3.6129E+00   9.6298E-06  0.0156
   3.6129E+00   3.7008E+00   9.0757E-06  0.0158
   3.7008E+00   3.7908E+00   8.4093E-06  0.0163
   3.7908E+00   3.8831E+00   7.6934E-06  0.0168
   3.8831E+00   3.9776E+00   6.9815E-06  0.0174
   3.9776E+00   4.0743E+00   6.5181E-06  0.0178
   4.0743E+00   4.1735E+00   6.0606E-06  0.0182
   4.1735E+00   4.2750E+00   5.4400E-06  0.0190
   4.2750E+00   4.3790E+00   5.0858E-06  0.0195
   4.3790E+00   4.4856E+00   4.5427E-06  0.0203
   4.4856E+00   4.5947E+00   4.0903E-06  0.0212
   4.5947E+00   4.7065E+00   3.7569E-06  0.0218
   4.7065E+00   4.8210E+00   3.3970E-06  0.0227
   4.8210E+00   4.9383E+00   3.0947E-06  0.0235
   4.9383E+00   5.0585E+00   2.9113E-06  0.0239
   5.0585E+00   5.1815E+00   2.5708E-06  0.0251
   5.1815E+00   5.3076E+00   2.2083E-06  0.0268
   5.3076E+00   5.4368E+00   2.1450E-06  0.0269
   5.4368E+00   5.5690E+00   1.9353E-06  0.0280
   5.5690E+00   5.7045E+00   1.7284E-06  0.0292
   5.7045E+00   5.8433E+00   1.5101E-06  0.0309
   5.8433E+00   5.9855E+00   1.4532E-06  0.0311
   5.9855E+00   6.1311E+00   1.2360E-06  0.0333
   6.1311E+00   6.2803E+00   1.1249E-06  0.0345
   6.2803E+00   6.4331E+00   1.0432E-06  0.0355
   6.4331E+00   6.5896E+00   9.4044E-07  0.0369
   6.5896E+00   6.7500E+00   9.2558E-07  0.0367
   6.7500E+00   6.9142E+00   7.7817E-07  0.0396
   6.9142E+00   7.0824E+00   7.0381E-07  0.0411
   7.0824E+00   7.2548E+00   6.5111E-07  0.0422
   7.2548E+00   7.4313E+00   6.2431E-07  0.0426
   7.4313E+00   7.6121E+00   5.7409E-07  0.0439
   7.6121E+00   7.7973E+00   5.1294E-07  0.0459
   7.7973E+00   7.9870E+00   4.2221E-07  0.0500
   7.9870E+00   8.1813E+00   4.0395E-07  0.0505
   8.1813E+00   8.3804E+00   3.8984E-07  0.0508
   8.3804E+00   8.5843E+00   3.8352E-07  0.0506
   8.5843E+00   8.7931E+00   3.5095E-07  0.0522
   8.7931E+00   9.0071E+00   3.0008E-07  0.0558
   9.0071E+00   9.2262E+00   2.9021E-07  0.0561
   9.2262E+00   9.4507E+00   2.6639E-07  0.0578
   9.4507E+00   9.6807E+00   2.5311E-07  0.0586
   9.6807E+00   9.9162E+00   2.5134E-07  0.0581
   9.9162E+00   1.0157E+01   2.6195E-07  0.0563
   1.0157E+01   1.0405E+01   2.0029E-07  0.0635
   1.0405E+01   1.0658E+01   2.0422E-07  0.0622
   1.0658E+01   1.0917E+01   1.9012E-07  0.0637
   1.0917E+01   1.1183E+01   1.9125E-07  0.0627
   1.1183E+01   1.1455E+01   1.5804E-07  0.0681
   1.1455E+01   1.1733E+01   1.5429E-07  0.0682
   1.1733E+01   1.2019E+01   1.5027E-07  0.0682
   1.2019E+01   1.2311E+01   1.3131E-07  0.0721
   1.2311E+01   1.2611E+01   1.4589E-07  0.0676
   1.2611E+01   1.2918E+01   1.2971E-07  0.0709
   1.2918E+01   1.3232E+01   1.2059E-07  0.0726
   1.3232E+01   1.3554E+01   1.2300E-07  0.0711
   1.3554E+01   1.3884E+01   1.0613E-07  0.0755
   1.3884E+01   1.4222E+01   1.0006E-07  0.0769
   1.4222E+01   1.4568E+01   1.0288E-07  0.0750
   1.4568E+01   1.4922E+01   9.3668E-08  0.0775
   1.4922E+01   1.5285E+01   8.3731E-08  0.0811
   1.5285E+01   1.5657E+01   6.6147E-08  0.0902
   1.5657E+01   1.6038E+01   6.0901E-08  0.0928
   1.6038E+01   1.6428E+01   7.0217E-08  0.0854
   1.6428E+01   1.6828E+01   7.0051E-08  0.0845
   1.6828E+01   1.7237E+01   5.9106E-08  0.0909
   1.7237E+01   1.7657E+01   5.0072E-08  0.0976
   1.7657E+01   1.8086E+01   4.7951E-08  0.0985
   1.8086E+01   1.8526E+01   4.1813E-08  0.1043
   1.8526E+01   1.8977E+01   3.6383E-08  0.1104
   1.8977E+01   1.9439E+01   4.1150E-08  0.1026
   1.9439E+01   1.9912E+01   3.4252E-08  0.1111
   1.9912E+01   2.0396E+01   2.9310E-08  0.1187
   2.0396E+01   2.0893E+01   2.2166E-08  0.1348
   2.0893E+01   2.1401E+01   2.1639E-08  0.1348
   2.1401E+01   2.1922E+01   2.4198E-08  0.1260
   2.1922E+01   2.2455E+01   1.8374E-08  0.1429
   2.2455E+01   2.3001E+01   1.7937E-08  0.1429
   2.3001E+01   2.3561E+01   1.4652E-08  0.1562
   2.3561E+01   2.4134E+01   1.3258E-08  0.1622
   2.4134E+01   2.4721E+01   7.4931E-09  0.2132
   2.4721E+01   2.5323E+01   1.1970E-08  0.1667
   2.5323E+01   2.5939E+01   9.0890E-09  0.1890
   2.5939E+01   2.6570E+01   6.0211E-09  0.2294
   2.6570E+01   2.7217E+01   4.9499E-09  0.2500
   2.7217E+01   2.7879E+01   3.6243E-09  0.2887
   2.7879E+01   2.8557E+01   1.7691E-09  0.4082
   2.8557E+01   2.9252E+01   1.4392E-09  0.4472
   2.9252E+01   2.9964E+01   5.6202E-10  0.7071
   2.9964E+01   3.0693E+01   8.2300E-10  0.5774
   3.0693E+01   3.1440E+01   8.0345E-10  0.5774
   3.1440E+01   3.2205E+01   0.0000E+00  0.0000
   3.2205E+01   3.2988E+01   0.0000E+00  0.0000
   3.2988E+01   3.3791E+01   0.0000E+00  0.0000
   3.3791E+01   3.4613E+01   0.0000E+00  0.0000
   3.4613E+01   3.5455E+01   0.0000E+00  0.0000
   3.5455E+01   3.6318E+01   0.0000E+00  0.0000
   3.6318E+01   3.7201E+01   0.0000E+00  0.0000
   3.7201E+01   3.8106E+01   0.0000E+00  0.0000
   3.8106E+01   3.9034E+01   0.0000E+00  0.0000
   3.9034E+01   3.9983E+01   0.0000E+00  0.0000
   3.9983E+01   4.0956E+01   0.0000E+00  0.0000
   4.0956E+01   4.1953E+01   0.0000E+00  0.0000
   4.1953E+01   4.2973E+01   0.0000E+00  0.0000
   4.2973E+01   4.4019E+01   0.0000E+00  0.0000
   4.4019E+01   4.5090E+01   0.0000E+00  0.0000
   4.5090E+01   4.6187E+01   0.0000E+00  0.0000
   4.6187E+01   4.7311E+01   0.0000E+00  0.0000
   4.7311E+01   4.8462E+01   0.0000E+00  0.0000
   4.8462E+01   4.9641E+01   0.0000E+00  0.0000
   4.9641E+01   5.0849E+01   0.0000E+00  0.0000
   5.0849E+01   5.2086E+01   0.0000E+00  0.0000
   5.2086E+01   5.3353E+01   0.0000E+00  0.0000
   5.3353E+01   5.4651E+01   0.0000E+00  0.0000
   5.4651E+01   5.5981E+01   0.0000E+00  0.0000
   5.5981E+01   5.7343E+01   0.0000E+00  0.0000
   5.7343E+01   5.8738E+01   0.0000E+00  0.0000
   5.8738E+01   6.0168E+01   0.0000E+00  0.0000
   6.0168E+01   6.1632E+01   0.0000E+00  0.0000
   6.1632E+01   6.3131E+01   0.0000E+00  0.0000
   6.3131E+01   6.4667E+01   0.0000E+00  0.0000
   6.4667E+01   6.6240E+01   0.0000E+00  0.0000
   6.6240E+01   6.7852E+01   0.0000E+00  0.0000
   6.7852E+01   6.9503E+01   0.0000E+00  0.0000
   6.9503E+01   7.1194E+01   0.0000E+00  0.0000
   7.1194E+01   7.2926E+01   0.0000E+00  0.0000
   7.2926E+01   7.4701E+01   0.0000E+00  0.0000
   7.4701E+01   7.6518E+01   0.0000E+00  0.0000
   7.6518E+01   7.8380E+01   0.0000E+00  0.0000
   7.8380E+01   8.0287E+01   0.0000E+00  0.0000
   8.0287E+01   8.2240E+01   0.0000E+00  0.0000
   8.2240E+01   8.4241E+01   0.0000E+00  0.0000
   8.4241E+01   8.6291E+01   0.0000E+00  0.0000
   8.6291E+01   8.8391E+01   0.0000E+00  0.0000
   8.8391E+01   9.0541E+01   0.0000E+00  0.0000
   9.0541E+01   9.2744E+01   0.0000E+00  0.0000
   9.2744E+01   9.5001E+01   0.0000E+00  0.0000
   9.5001E+01   9.7312E+01   0.0000E+00  0.0000
   9.7312E+01   9.9680E+01   0.0000E+00  0.0000
   9.9680E+01   1.0211E+02   0.0000E+00  0.0000
   1.0211E+02   1.0459E+02   0.0000E+00  0.0000
   1.0459E+02   1.0713E+02   0.0000E+00  0.0000
   1.0713E+02   1.0974E+02   0.0000E+00  0.0000
   1.0974E+02   1.1241E+02   0.0000E+00  0.0000
   1.1241E+02   1.1515E+02   0.0000E+00  0.0000
   1.1515E+02   1.1795E+02   0.0000E+00  0.0000
   1.1795E+02   1.2082E+02   0.0000E+00  0.0000
   1.2082E+02   1.2376E+02   0.0000E+00  0.0000
   1.2376E+02   1.2677E+02   0.0000E+00  0.0000
   1.2677E+02   1.2985E+02   0.0000E+00  0.0000
   1.2985E+02   1.3301E+02   0.0000E+00  0.0000
   1.3301E+02   1.3625E+02   0.0000E+00  0.0000
   1.3625E+02   1.3956E+02   0.0000E+00  0.0000
   1.3956E+02   1.4296E+02   0.0000E+00  0.0000
   1.4296E+02   1.4644E+02   0.0000E+00  0.0000
   1.4644E+02   1.5000E+02   0.0000E+00  0.0000

#   sum over                 2.3551E-06
'no. =    1   reg = 120 - 220'
msuc: {\huge [t-cross] in region mesh}
msdr: {\it plotted by \ANGEL \version}
msdl: {\it calculated by \PHITS  3.26}
wt: s(0.7)
\vspace{-3}
  region surface crossing
  area  &=&   1.0000E+00 [cm^2]
e:
 
# Information for Restart Calculation
# This calculation was newly started
# istdev =  2 # 1:Batch variance, 2:History variance
# resc2  = 5.00000000000000000E+09 # Total source weight or Total source weight / maxcas
# resc3  = 5.00000000000000000E+09 # Total history number or Total batch number
# maxcas =   500000000 # History / Batch, only used for istdev=1
# bitrseed = 0110100000100010111000001110001111001110100100011111101000111001 # bit data of rseed
