[ T-Cross ]
    title = [t-cross] in region mesh
     mesh =  reg            # mesh type is region-wise
      reg =    1            # number of crossing regions
      non     r-from    r-to       area
      1       108       208        1.000000    
   e-type =    3            # e-mesh is log given by emin, emax and ne
     emin =  1.0000000E-02  # minimum value of e-mesh points
     emax =   150.0000      # maximum value of e-mesh points
#    edel =  2.4039514E-02  # mesh width of e-mesh points
       ne =    400          # number of e-mesh points
#    data = ( e(i), i = 1, ne + 1 )
#           1.00000E-02  1.02433E-02  1.04925E-02  1.07478E-02  1.10093E-02
#           1.12772E-02  1.15516E-02  1.18326E-02  1.21205E-02  1.24154E-02
#           1.27175E-02  1.30269E-02  1.33439E-02  1.36686E-02  1.40011E-02
#           1.43418E-02  1.46907E-02  1.50482E-02  1.54143E-02  1.57894E-02
#           1.61735E-02  1.65670E-02  1.69701E-02  1.73830E-02  1.78060E-02
#           1.82392E-02  1.86830E-02  1.91375E-02  1.96032E-02  2.00801E-02
#           2.05687E-02  2.10692E-02  2.15818E-02  2.21069E-02  2.26448E-02
#           2.31957E-02  2.37601E-02  2.43382E-02  2.49304E-02  2.55369E-02
#           2.61583E-02  2.67947E-02  2.74467E-02  2.81145E-02  2.87985E-02
#           2.94992E-02  3.02169E-02  3.09521E-02  3.17052E-02  3.24766E-02
#           3.32668E-02  3.40762E-02  3.49053E-02  3.57546E-02  3.66246E-02
#           3.75157E-02  3.84284E-02  3.93634E-02  4.03212E-02  4.13022E-02
#           4.23071E-02  4.33365E-02  4.43909E-02  4.54710E-02  4.65773E-02
#           4.77106E-02  4.88714E-02  5.00605E-02  5.12785E-02  5.25262E-02
#           5.38042E-02  5.51133E-02  5.64542E-02  5.78278E-02  5.92348E-02
#           6.06760E-02  6.21523E-02  6.36645E-02  6.52135E-02  6.68002E-02
#           6.84255E-02  7.00904E-02  7.17957E-02  7.35426E-02  7.53319E-02
#           7.71648E-02  7.90423E-02  8.09655E-02  8.29354E-02  8.49533E-02
#           8.70203E-02  8.91376E-02  9.13064E-02  9.35279E-02  9.58035E-02
#           9.81345E-02  1.00522E-01  1.02968E-01  1.05473E-01  1.08040E-01
#           1.10668E-01  1.13361E-01  1.16119E-01  1.18944E-01  1.21838E-01
#           1.24803E-01  1.27839E-01  1.30950E-01  1.34136E-01  1.37399E-01
#           1.40742E-01  1.44167E-01  1.47675E-01  1.51268E-01  1.54948E-01
#           1.58718E-01  1.62580E-01  1.66535E-01  1.70587E-01  1.74738E-01
#           1.78989E-01  1.83344E-01  1.87805E-01  1.92375E-01  1.97055E-01
#           2.01850E-01  2.06761E-01  2.11792E-01  2.16945E-01  2.22223E-01
#           2.27630E-01  2.33169E-01  2.38842E-01  2.44653E-01  2.50605E-01
#           2.56703E-01  2.62949E-01  2.69346E-01  2.75900E-01  2.82613E-01
#           2.89489E-01  2.96532E-01  3.03747E-01  3.11138E-01  3.18708E-01
#           3.26462E-01  3.34405E-01  3.42542E-01  3.50876E-01  3.59413E-01
#           3.68158E-01  3.77116E-01  3.86291E-01  3.95690E-01  4.05317E-01
#           4.15179E-01  4.25281E-01  4.35628E-01  4.46227E-01  4.57084E-01
#           4.68205E-01  4.79597E-01  4.91266E-01  5.03219E-01  5.15463E-01
#           5.28005E-01  5.40851E-01  5.54011E-01  5.67490E-01  5.81298E-01
#           5.95441E-01  6.09929E-01  6.24769E-01  6.39970E-01  6.55541E-01
#           6.71491E-01  6.87828E-01  7.04564E-01  7.21706E-01  7.39266E-01
#           7.57253E-01  7.75678E-01  7.94551E-01  8.13883E-01  8.33685E-01
#           8.53969E-01  8.74747E-01  8.96030E-01  9.17831E-01  9.40163E-01
#           9.63038E-01  9.86469E-01  1.01047E+00  1.03506E+00  1.06024E+00
#           1.08604E+00  1.11246E+00  1.13953E+00  1.16725E+00  1.19565E+00
#           1.22474E+00  1.25454E+00  1.28507E+00  1.31633E+00  1.34836E+00
#           1.38117E+00  1.41477E+00  1.44920E+00  1.48446E+00  1.52057E+00
#           1.55757E+00  1.59547E+00  1.63429E+00  1.67405E+00  1.71478E+00
#           1.75650E+00  1.79924E+00  1.84302E+00  1.88786E+00  1.93379E+00
#           1.98084E+00  2.02904E+00  2.07841E+00  2.12898E+00  2.18078E+00
#           2.23384E+00  2.28819E+00  2.34386E+00  2.40089E+00  2.45930E+00
#           2.51914E+00  2.58043E+00  2.64322E+00  2.70753E+00  2.77341E+00
#           2.84088E+00  2.91001E+00  2.98081E+00  3.05333E+00  3.12762E+00
#           3.20372E+00  3.28167E+00  3.36152E+00  3.44330E+00  3.52708E+00
#           3.61290E+00  3.70080E+00  3.79085E+00  3.88308E+00  3.97756E+00
#           4.07434E+00  4.17347E+00  4.27501E+00  4.37903E+00  4.48557E+00
#           4.59471E+00  4.70650E+00  4.82102E+00  4.93832E+00  5.05847E+00
#           5.18155E+00  5.30762E+00  5.43676E+00  5.56904E+00  5.70453E+00
#           5.84333E+00  5.98550E+00  6.13114E+00  6.28031E+00  6.43312E+00
#           6.58964E+00  6.74997E+00  6.91420E+00  7.08243E+00  7.25475E+00
#           7.43126E+00  7.61207E+00  7.79728E+00  7.98700E+00  8.18133E+00
#           8.38038E+00  8.58428E+00  8.79315E+00  9.00709E+00  9.22624E+00
#           9.45072E+00  9.68067E+00  9.91620E+00  1.01575E+01  1.04046E+01
#           1.06578E+01  1.09171E+01  1.11827E+01  1.14548E+01  1.17335E+01
#           1.20190E+01  1.23114E+01  1.26109E+01  1.29178E+01  1.32321E+01
#           1.35540E+01  1.38838E+01  1.42216E+01  1.45676E+01  1.49221E+01
#           1.52851E+01  1.56570E+01  1.60380E+01  1.64282E+01  1.68279E+01
#           1.72374E+01  1.76568E+01  1.80864E+01  1.85264E+01  1.89772E+01
#           1.94389E+01  1.99119E+01  2.03963E+01  2.08926E+01  2.14009E+01
#           2.19216E+01  2.24550E+01  2.30014E+01  2.35610E+01  2.41343E+01
#           2.47215E+01  2.53230E+01  2.59391E+01  2.65702E+01  2.72167E+01
#           2.78789E+01  2.85572E+01  2.92520E+01  2.99637E+01  3.06928E+01
#           3.14396E+01  3.22045E+01  3.29881E+01  3.37907E+01  3.46128E+01
#           3.54550E+01  3.63177E+01  3.72013E+01  3.81064E+01  3.90336E+01
#           3.99833E+01  4.09561E+01  4.19526E+01  4.29734E+01  4.40189E+01
#           4.50900E+01  4.61870E+01  4.73108E+01  4.84619E+01  4.96410E+01
#           5.08488E+01  5.20860E+01  5.33533E+01  5.46514E+01  5.59812E+01
#           5.73432E+01  5.87384E+01  6.01676E+01  6.16315E+01  6.31311E+01
#           6.46671E+01  6.62405E+01  6.78522E+01  6.95031E+01  7.11941E+01
#           7.29263E+01  7.47007E+01  7.65182E+01  7.83800E+01  8.02870E+01
#           8.22405E+01  8.42414E+01  8.62911E+01  8.83906E+01  9.05412E+01
#           9.27442E+01  9.50007E+01  9.73122E+01  9.96799E+01  1.02105E+02
#           1.04589E+02  1.07134E+02  1.09741E+02  1.12411E+02  1.15146E+02
#           1.17948E+02  1.20817E+02  1.23757E+02  1.26768E+02  1.29852E+02
#           1.33012E+02  1.36248E+02  1.39563E+02  1.42959E+02  1.46437E+02
#           1.50000E+02
     unit =    2            # unit is [1/cm^2/(MeV/n)/source]
     axis =  eng            # axis of output
     file = detector-09.out  # file name of output for the above axis
   output = f-curr          # surface crossing forward current spectrum
     part =  neutron  
# kf/name :  2112     
#    used :        main (  %)        temp (  %)       total (  %)
#  memory :         414 (  0)           0 (  0)         414 (  0)

#------------------------------------------------------------------------------
#newpage:
#   no. =    1   reg = 108 - 208

x: Energy [MeV/n]
y:  F-Curr [1/cm^2/(MeV/n)/source]         
p: xlog ylog afac(0.8) form(0.9)
h: n            x            y(neutron ),hh0l   n 
#  e-lower      e-upper      neutron     r.err 
   1.0000E-02   1.0243E-02   1.6255E-06  0.7071
   1.0243E-02   1.0493E-02   8.0077E-07  1.0000
   1.0493E-02   1.0748E-02   7.8288E-07  1.0000
   1.0748E-02   1.1009E-02   7.6060E-07  1.0000
   1.1009E-02   1.1277E-02   7.4506E-07  1.0000
   1.1277E-02   1.1552E-02   0.0000E+00  0.0000
   1.1552E-02   1.1833E-02   2.0732E-06  0.5778
   1.1833E-02   1.2121E-02   1.3857E-06  0.7071
   1.2121E-02   1.2415E-02   2.6541E-06  0.5004
   1.2415E-02   1.2718E-02   6.6208E-07  1.0000
   1.2718E-02   1.3027E-02   2.5829E-06  0.5000
   1.3027E-02   1.3344E-02   2.5197E-06  0.5000
   1.3344E-02   1.3669E-02   1.2270E-06  0.7071
   1.3669E-02   1.4001E-02   0.0000E+00  0.0000
   1.4001E-02   1.4342E-02   1.7581E-06  0.5774
   1.4342E-02   1.4691E-02   0.0000E+00  0.0000
   1.4691E-02   1.5048E-02   5.5945E-07  1.0000
   1.5048E-02   1.5414E-02   1.0917E-06  0.7071
   1.5414E-02   1.5789E-02   5.3207E-07  1.0000
   1.5789E-02   1.6174E-02   5.1859E-07  1.0000
   1.6174E-02   1.6567E-02   5.0715E-07  1.0000
   1.6567E-02   1.6970E-02   1.9033E-06  0.5012
   1.6970E-02   1.7383E-02   1.4509E-06  0.5774
   1.7383E-02   1.7806E-02   1.8876E-06  0.5000
   1.7806E-02   1.8239E-02   9.2229E-07  0.7071
   1.8239E-02   1.8683E-02   0.0000E+00  0.0000
   1.8683E-02   1.9138E-02   8.7579E-07  0.7071
   1.9138E-02   1.9603E-02   4.2880E-07  1.0000
   1.9603E-02   2.0080E-02   4.1930E-07  1.0000
   2.0080E-02   2.0569E-02   1.2250E-06  0.5774
   2.0569E-02   2.1069E-02   3.9835E-07  1.0000
   2.1069E-02   2.1582E-02   7.8021E-07  0.7071
   2.1582E-02   2.2107E-02   0.0000E+00  0.0000
   2.2107E-02   2.2645E-02   1.1127E-06  0.5774
   2.2645E-02   2.3196E-02   1.0861E-06  0.5774
   2.3196E-02   2.3760E-02   7.0826E-07  0.7071
   2.3760E-02   2.4338E-02   1.0351E-06  0.5774
   2.4338E-02   2.4930E-02   6.7306E-07  0.7071
   2.4930E-02   2.5537E-02   9.1894E-07  0.5804
   2.5537E-02   2.6158E-02   9.6121E-07  0.5774
   2.6158E-02   2.6795E-02   3.1386E-07  1.0000
   2.6795E-02   2.7447E-02   6.1172E-07  0.7071
   2.7447E-02   2.8114E-02   2.9899E-07  1.0000
   2.8114E-02   2.8799E-02   5.8367E-07  0.7071
   2.8799E-02   2.9499E-02   5.7051E-07  0.7071
   2.9499E-02   3.0217E-02   1.1124E-06  0.5000
   3.0217E-02   3.0952E-02   2.7095E-07  1.0000
   3.0952E-02   3.1705E-02   4.3262E-07  0.7071
   3.1705E-02   3.2477E-02   1.3823E-07  1.0000
   3.2477E-02   3.3267E-02   1.5147E-06  0.4082
   3.3267E-02   3.4076E-02   4.9384E-07  0.7071
   3.4076E-02   3.4905E-02   2.4102E-07  1.0000
   3.4905E-02   3.5755E-02   4.2554E-07  0.7110
   3.5755E-02   3.6625E-02   4.5864E-07  0.7071
   3.6625E-02   3.7516E-02   0.0000E+00  0.0000
   3.7516E-02   3.8428E-02   8.7306E-07  0.5000
   3.8428E-02   3.9363E-02   6.4087E-07  0.5774
   3.9363E-02   4.0321E-02   1.9137E-07  1.0000
   4.0321E-02   4.1302E-02   2.0376E-07  1.0000
   4.1302E-02   4.2307E-02   5.9362E-07  0.5774
   4.2307E-02   4.3337E-02   1.9412E-07  1.0000
   4.3337E-02   4.4391E-02   1.8962E-07  1.0000
   4.4391E-02   4.5471E-02   3.7005E-07  0.7071
   4.5471E-02   4.6577E-02   3.6077E-07  0.7071
   4.6577E-02   4.7711E-02   0.0000E+00  0.0000
   4.7711E-02   4.8871E-02   1.7169E-07  1.0000
   4.8871E-02   5.0061E-02   1.6786E-07  1.0000
   5.0061E-02   5.1279E-02   4.7956E-07  0.5778
   5.1279E-02   5.2526E-02   1.5976E-07  1.0000
   5.2526E-02   5.3804E-02   6.0143E-07  0.5011
   5.3804E-02   5.5113E-02   3.0344E-07  0.7071
   5.5113E-02   5.6454E-02   0.0000E+00  0.0000
   5.6454E-02   5.7828E-02   5.8140E-07  0.5000
   5.7828E-02   5.9235E-02   2.8349E-07  0.7071
   5.9235E-02   6.0676E-02   4.1578E-07  0.5774
   6.0676E-02   6.2152E-02   5.3982E-07  0.5000
   6.2152E-02   6.3665E-02   6.6002E-07  0.4472
   6.3665E-02   6.5214E-02   5.1519E-07  0.5000
   6.5214E-02   6.6800E-02   1.2554E-07  1.0000
   6.6800E-02   6.8426E-02   1.2278E-07  1.0000
   6.8426E-02   7.0090E-02   2.4005E-07  0.7071
   7.0090E-02   7.1796E-02   2.3414E-07  0.7071
   7.1796E-02   7.3543E-02   1.1420E-07  1.0000
   7.3543E-02   7.5332E-02   0.0000E+00  0.0000
   7.5332E-02   7.7165E-02   2.1755E-07  0.7071
   7.7165E-02   7.9042E-02   2.1253E-07  0.7071
   7.9042E-02   8.0965E-02   2.0684E-07  0.7071
   8.0965E-02   8.2935E-02   4.8823E-07  0.4485
   8.2935E-02   8.4953E-02   0.0000E+00  0.0000
   8.4953E-02   8.7020E-02   9.6613E-08  1.0000
   8.7020E-02   8.9138E-02   3.7709E-07  0.5000
   8.9138E-02   9.1306E-02   0.0000E+00  0.0000
   9.1306E-02   9.3528E-02   2.6960E-07  0.5774
   9.3528E-02   9.5804E-02   1.7515E-07  0.7071
   9.5804E-02   9.8134E-02   0.0000E+00  0.0000
   9.8134E-02   1.0052E-01   3.3429E-07  0.5000
   1.0052E-01   1.0297E-01   0.0000E+00  0.0000
   1.0297E-01   1.0547E-01   2.3848E-07  0.5774
   1.0547E-01   1.0804E-01   1.5575E-07  0.7071
   1.0804E-01   1.1067E-01   7.6047E-08  1.0000
   1.1067E-01   1.1336E-01   7.4237E-08  1.0000
   1.1336E-01   1.1612E-01   2.8944E-07  0.5000
   1.1612E-01   1.1894E-01   1.4145E-07  0.7071
   1.1894E-01   1.2184E-01   2.7586E-07  0.5000
   1.2184E-01   1.2480E-01   2.6314E-07  0.5004
   1.2480E-01   1.2784E-01   2.6287E-07  0.5000
   1.2784E-01   1.3095E-01   2.5657E-07  0.5000
   1.3095E-01   1.3414E-01   6.2716E-08  1.0000
   1.3414E-01   1.3740E-01   3.6664E-07  0.4082
   1.3740E-01   1.4074E-01   1.1909E-07  0.7071
   1.4074E-01   1.4417E-01   2.9058E-07  0.4472
   1.4417E-01   1.4767E-01   3.8913E-07  0.3785
   1.4767E-01   1.5127E-01   6.0914E-07  0.3015
   1.5127E-01   1.5495E-01   2.7096E-07  0.4472
   1.5495E-01   1.5872E-01   3.7059E-07  0.3780
   1.5872E-01   1.6258E-01   3.6160E-07  0.3780
   1.6258E-01   1.6654E-01   5.0490E-07  0.3162
   1.6654E-01   1.7059E-01   3.9339E-07  0.3536
   1.7059E-01   1.7474E-01   6.1825E-07  0.2775
   1.7474E-01   1.7899E-01   7.5070E-07  0.2500
   1.7899E-01   1.8334E-01   6.8742E-07  0.2582
   1.8334E-01   1.8781E-01   7.8269E-07  0.2373
   1.8781E-01   1.9237E-01   6.5497E-07  0.2582
   1.9237E-01   1.9706E-01   6.3863E-07  0.2582
   1.9706E-01   2.0185E-01   7.0609E-07  0.2425
   2.0185E-01   2.0676E-01   6.8406E-07  0.2427
   2.0676E-01   2.1179E-01   1.1821E-06  0.1827
   2.1179E-01   2.1694E-01   5.7289E-07  0.2585
   2.1694E-01   2.2222E-01   7.5572E-07  0.2236
   2.2222E-01   2.2763E-01   8.8496E-07  0.2041
   2.2763E-01   2.3317E-01   1.1869E-06  0.1741
   2.3317E-01   2.3884E-01   9.0497E-07  0.1962
   2.3884E-01   2.4465E-01   8.8686E-07  0.1962
   2.4465E-01   2.5061E-01   1.3353E-06  0.1582
   2.5061E-01   2.5670E-01   1.1455E-06  0.1690
   2.5670E-01   2.6295E-01   1.2070E-06  0.1623
   2.6295E-01   2.6935E-01   1.6495E-06  0.1374
   2.6935E-01   2.7590E-01   1.4533E-06  0.1444
   2.7590E-01   2.8261E-01   1.5362E-06  0.1387
   2.8261E-01   2.8949E-01   1.4731E-06  0.1401
   2.8949E-01   2.9653E-01   1.7770E-06  0.1260
   2.9653E-01   3.0375E-01   1.7134E-06  0.1270
   3.0375E-01   3.1114E-01   1.7908E-06  0.1223
   3.1114E-01   3.1871E-01   1.7901E-06  0.1213
   3.1871E-01   3.2646E-01   1.9330E-06  0.1149
   3.2646E-01   3.3441E-01   1.8238E-06  0.1171
   3.3441E-01   3.4254E-01   2.1228E-06  0.1072
   3.4254E-01   3.5088E-01   2.0209E-06  0.1085
   3.5088E-01   3.5941E-01   2.4890E-06  0.0967
   3.5941E-01   3.6816E-01   2.9693E-06  0.0874
   3.6816E-01   3.7712E-01   2.6137E-06  0.0921
   3.7712E-01   3.8629E-01   2.5790E-06  0.0915
   3.8629E-01   3.9569E-01   2.4237E-06  0.0933
   3.9569E-01   4.0532E-01   3.1428E-06  0.0809
   4.0532E-01   4.1518E-01   3.1221E-06  0.0804
   4.1518E-01   4.2528E-01   2.8464E-06  0.0831
   4.2528E-01   4.3563E-01   3.2250E-06  0.0772
   4.3563E-01   4.4623E-01   3.7246E-06  0.0709
   4.4623E-01   4.5708E-01   4.1076E-06  0.0667
   4.5708E-01   4.6821E-01   3.6310E-06  0.0702
   4.6821E-01   4.7960E-01   4.4671E-06  0.0624
   4.7960E-01   4.9127E-01   4.1676E-06  0.0639
   4.9127E-01   5.0322E-01   4.7526E-06  0.0591
   5.0322E-01   5.1546E-01   4.0729E-06  0.0631
   5.1546E-01   5.2800E-01   4.1684E-06  0.0617
   5.2800E-01   5.4085E-01   5.2021E-06  0.0546
   5.4085E-01   5.5401E-01   5.3004E-06  0.0534
   5.5401E-01   5.6749E-01   5.2742E-06  0.0529
   5.6749E-01   5.8130E-01   5.6790E-06  0.0503
   5.8130E-01   5.9544E-01   4.9210E-06  0.0534
   5.9544E-01   6.0993E-01   6.1214E-06  0.0473
   6.0993E-01   6.2477E-01   5.8008E-06  0.0480
   6.2477E-01   6.3997E-01   5.6029E-06  0.0483
   6.3997E-01   6.5554E-01   6.3370E-06  0.0449
   6.5554E-01   6.7149E-01   6.3245E-06  0.0443
   6.7149E-01   6.8783E-01   7.0871E-06  0.0414
   6.8783E-01   7.0456E-01   6.6524E-06  0.0422
   7.0456E-01   7.2171E-01   6.2883E-06  0.0429
   7.2171E-01   7.3927E-01   7.6054E-06  0.0386
   7.3927E-01   7.5725E-01   7.5545E-06  0.0382
   7.5725E-01   7.7568E-01   7.3125E-06  0.0384
   7.7568E-01   7.9455E-01   7.5060E-06  0.0374
   7.9455E-01   8.1388E-01   7.6031E-06  0.0367
   8.1388E-01   8.3368E-01   8.1018E-06  0.0352
   8.3368E-01   8.5397E-01   8.4525E-06  0.0340
   8.5397E-01   8.7475E-01   8.5376E-06  0.0334
   8.7475E-01   8.9603E-01   8.0443E-06  0.0340
   8.9603E-01   9.1783E-01   8.5089E-06  0.0327
   9.1783E-01   9.4016E-01   8.3996E-06  0.0325
   9.4016E-01   9.6304E-01   8.2079E-06  0.0325
   9.6304E-01   9.8647E-01   8.4972E-06  0.0315
   9.8647E-01   1.0105E+00   8.2194E-06  0.0317
   1.0105E+00   1.0351E+00   8.0293E-06  0.0317
   1.0351E+00   1.0602E+00   8.0596E-06  0.0312
   1.0602E+00   1.0860E+00   8.2026E-06  0.0306
   1.0860E+00   1.1125E+00   8.6752E-06  0.0294
   1.1125E+00   1.1395E+00   8.2788E-06  0.0297
   1.1395E+00   1.1673E+00   8.5261E-06  0.0289
   1.1673E+00   1.1957E+00   8.5402E-06  0.0286
   1.1957E+00   1.2247E+00   8.9200E-06  0.0276
   1.2247E+00   1.2545E+00   9.3003E-06  0.0267
   1.2545E+00   1.2851E+00   9.0586E-06  0.0267
   1.2851E+00   1.3163E+00   9.6803E-06  0.0255
   1.3163E+00   1.3484E+00   9.4851E-06  0.0255
   1.3484E+00   1.3812E+00   9.8443E-06  0.0247
   1.3812E+00   1.4148E+00   1.0070E-05  0.0241
   1.4148E+00   1.4492E+00   9.2707E-06  0.0249
   1.4492E+00   1.4845E+00   9.4321E-06  0.0243
   1.4845E+00   1.5206E+00   9.6327E-06  0.0238
   1.5206E+00   1.5576E+00   9.7731E-06  0.0233
   1.5576E+00   1.5955E+00   9.5595E-06  0.0233
   1.5955E+00   1.6343E+00   9.8407E-06  0.0227
   1.6343E+00   1.6741E+00   9.4777E-06  0.0228
   1.6741E+00   1.7148E+00   9.9515E-06  0.0220
   1.7148E+00   1.7565E+00   9.3542E-06  0.0224
   1.7565E+00   1.7992E+00   9.2481E-06  0.0222
   1.7992E+00   1.8430E+00   8.4719E-06  0.0229
   1.8430E+00   1.8879E+00   7.7386E-06  0.0235
   1.8879E+00   1.9338E+00   7.7400E-06  0.0232
   1.9338E+00   1.9808E+00   7.5302E-06  0.0232
   1.9808E+00   2.0290E+00   7.6426E-06  0.0227
   2.0290E+00   2.0784E+00   7.4389E-06  0.0227
   2.0784E+00   2.1290E+00   7.7434E-06  0.0219
   2.1290E+00   2.1808E+00   7.9527E-06  0.0213
   2.1808E+00   2.2338E+00   8.1740E-06  0.0207
   2.2338E+00   2.2882E+00   7.7454E-06  0.0211
   2.2882E+00   2.3439E+00   7.8296E-06  0.0208
   2.3439E+00   2.4009E+00   7.1872E-06  0.0215
   2.4009E+00   2.4593E+00   7.4730E-06  0.0208
   2.4593E+00   2.5191E+00   7.4739E-06  0.0206
   2.5191E+00   2.5804E+00   7.2235E-06  0.0207
   2.5804E+00   2.6432E+00   7.1399E-06  0.0206
   2.6432E+00   2.7075E+00   6.8068E-06  0.0208
   2.7075E+00   2.7734E+00   6.8790E-06  0.0205
   2.7734E+00   2.8409E+00   6.5519E-06  0.0207
   2.8409E+00   2.9100E+00   6.5979E-06  0.0204
   2.9100E+00   2.9808E+00   6.5943E-06  0.0202
   2.9808E+00   3.0533E+00   6.6290E-06  0.0199
   3.0533E+00   3.1276E+00   6.1612E-06  0.0204
   3.1276E+00   3.2037E+00   5.9835E-06  0.0204
   3.2037E+00   3.2817E+00   5.9597E-06  0.0203
   3.2817E+00   3.3615E+00   5.5172E-06  0.0208
   3.3615E+00   3.4433E+00   5.5692E-06  0.0205
   3.4433E+00   3.5271E+00   5.4856E-06  0.0204
   3.5271E+00   3.6129E+00   5.2878E-06  0.0206
   3.6129E+00   3.7008E+00   5.1792E-06  0.0206
   3.7008E+00   3.7908E+00   5.2727E-06  0.0201
   3.7908E+00   3.8831E+00   5.0493E-06  0.0204
   3.8831E+00   3.9776E+00   4.8222E-06  0.0206
   3.9776E+00   4.0743E+00   4.7542E-06  0.0205
   4.0743E+00   4.1735E+00   4.5744E-06  0.0206
   4.1735E+00   4.2750E+00   4.2578E-06  0.0211
   4.2750E+00   4.3790E+00   4.0694E-06  0.0213
   4.3790E+00   4.4856E+00   4.2806E-06  0.0206
   4.4856E+00   4.5947E+00   3.9448E-06  0.0211
   4.5947E+00   4.7065E+00   3.8248E-06  0.0212
   4.7065E+00   4.8210E+00   3.7727E-06  0.0211
   4.8210E+00   4.9383E+00   3.6143E-06  0.0213
   4.9383E+00   5.0585E+00   3.4693E-06  0.0215
   5.0585E+00   5.1815E+00   3.2309E-06  0.0220
   5.1815E+00   5.3076E+00   3.4156E-06  0.0211
   5.3076E+00   5.4368E+00   3.1519E-06  0.0218
   5.4368E+00   5.5690E+00   3.0755E-06  0.0218
   5.5690E+00   5.7045E+00   2.9346E-06  0.0220
   5.7045E+00   5.8433E+00   2.8128E-06  0.0223
   5.8433E+00   5.9855E+00   2.6439E-06  0.0227
   5.9855E+00   6.1311E+00   2.4034E-06  0.0235
   6.1311E+00   6.2803E+00   2.3286E-06  0.0236
   6.2803E+00   6.4331E+00   2.2469E-06  0.0238
   6.4331E+00   6.5896E+00   2.0963E-06  0.0243
   6.5896E+00   6.7500E+00   1.9925E-06  0.0246
   6.7500E+00   6.9142E+00   1.7330E-06  0.0261
   6.9142E+00   7.0824E+00   1.6531E-06  0.0264
   7.0824E+00   7.2548E+00   1.5565E-06  0.0270
   7.2548E+00   7.4313E+00   1.4583E-06  0.0275
   7.4313E+00   7.6121E+00   1.3132E-06  0.0286
   7.6121E+00   7.7973E+00   1.1175E-06  0.0307
   7.7973E+00   7.9870E+00   1.0103E-06  0.0319
   7.9870E+00   8.1813E+00   9.2834E-07  0.0329
   8.1813E+00   8.3804E+00   8.1319E-07  0.0347
   8.3804E+00   8.5843E+00   7.4256E-07  0.0359
   8.5843E+00   8.7931E+00   6.1898E-07  0.0389
   8.7931E+00   9.0071E+00   5.1646E-07  0.0421
   9.0071E+00   9.2262E+00   3.9166E-07  0.0478
   9.2262E+00   9.4507E+00   2.9951E-07  0.0542
   9.4507E+00   9.6807E+00   2.5984E-07  0.0577
   9.6807E+00   9.9162E+00   1.6841E-07  0.0708
   9.9162E+00   1.0157E+01   1.0693E-07  0.0880
   1.0157E+01   1.0405E+01   7.1215E-08  0.1066
   1.0405E+01   1.0658E+01   1.1851E-08  0.2582
   1.0658E+01   1.0917E+01   1.5425E-09  0.7071
   1.0917E+01   1.1183E+01   2.2589E-09  0.5774
   1.1183E+01   1.1455E+01   0.0000E+00  0.0000
   1.1455E+01   1.1733E+01   7.1761E-10  1.0000
   1.1733E+01   1.2019E+01   7.0056E-10  1.0000
   1.2019E+01   1.2311E+01   0.0000E+00  0.0000
   1.2311E+01   1.2611E+01   6.6768E-10  1.0000
   1.2611E+01   1.2918E+01   0.0000E+00  0.0000
   1.2918E+01   1.3232E+01   0.0000E+00  0.0000
   1.3232E+01   1.3554E+01   0.0000E+00  0.0000
   1.3554E+01   1.3884E+01   1.2129E-09  0.7071
   1.3884E+01   1.4222E+01   1.1841E-09  0.7071
   1.4222E+01   1.4568E+01   1.1560E-09  0.7071
   1.4568E+01   1.4922E+01   1.1285E-09  0.7071
   1.4922E+01   1.5285E+01   0.0000E+00  0.0000
   1.5285E+01   1.5657E+01   1.0756E-09  0.7071
   1.5657E+01   1.6038E+01   0.0000E+00  0.0000
   1.6038E+01   1.6428E+01   0.0000E+00  0.0000
   1.6428E+01   1.6828E+01   0.0000E+00  0.0000
   1.6828E+01   1.7237E+01   0.0000E+00  0.0000
   1.7237E+01   1.7657E+01   0.0000E+00  0.0000
   1.7657E+01   1.8086E+01   0.0000E+00  0.0000
   1.8086E+01   1.8526E+01   0.0000E+00  0.0000
   1.8526E+01   1.8977E+01   0.0000E+00  0.0000
   1.8977E+01   1.9439E+01   4.3315E-10  1.0000
   1.9439E+01   1.9912E+01   0.0000E+00  0.0000
   1.9912E+01   2.0396E+01   0.0000E+00  0.0000
   2.0396E+01   2.0893E+01   0.0000E+00  0.0000
   2.0893E+01   2.1401E+01   0.0000E+00  0.0000
   2.1401E+01   2.1922E+01   0.0000E+00  0.0000
   2.1922E+01   2.2455E+01   0.0000E+00  0.0000
   2.2455E+01   2.3001E+01   0.0000E+00  0.0000
   2.3001E+01   2.3561E+01   0.0000E+00  0.0000
   2.3561E+01   2.4134E+01   0.0000E+00  0.0000
   2.4134E+01   2.4721E+01   0.0000E+00  0.0000
   2.4721E+01   2.5323E+01   0.0000E+00  0.0000
   2.5323E+01   2.5939E+01   0.0000E+00  0.0000
   2.5939E+01   2.6570E+01   0.0000E+00  0.0000
   2.6570E+01   2.7217E+01   0.0000E+00  0.0000
   2.7217E+01   2.7879E+01   0.0000E+00  0.0000
   2.7879E+01   2.8557E+01   0.0000E+00  0.0000
   2.8557E+01   2.9252E+01   0.0000E+00  0.0000
   2.9252E+01   2.9964E+01   0.0000E+00  0.0000
   2.9964E+01   3.0693E+01   0.0000E+00  0.0000
   3.0693E+01   3.1440E+01   0.0000E+00  0.0000
   3.1440E+01   3.2205E+01   0.0000E+00  0.0000
   3.2205E+01   3.2988E+01   0.0000E+00  0.0000
   3.2988E+01   3.3791E+01   0.0000E+00  0.0000
   3.3791E+01   3.4613E+01   0.0000E+00  0.0000
   3.4613E+01   3.5455E+01   0.0000E+00  0.0000
   3.5455E+01   3.6318E+01   0.0000E+00  0.0000
   3.6318E+01   3.7201E+01   0.0000E+00  0.0000
   3.7201E+01   3.8106E+01   0.0000E+00  0.0000
   3.8106E+01   3.9034E+01   0.0000E+00  0.0000
   3.9034E+01   3.9983E+01   0.0000E+00  0.0000
   3.9983E+01   4.0956E+01   0.0000E+00  0.0000
   4.0956E+01   4.1953E+01   0.0000E+00  0.0000
   4.1953E+01   4.2973E+01   0.0000E+00  0.0000
   4.2973E+01   4.4019E+01   0.0000E+00  0.0000
   4.4019E+01   4.5090E+01   0.0000E+00  0.0000
   4.5090E+01   4.6187E+01   0.0000E+00  0.0000
   4.6187E+01   4.7311E+01   0.0000E+00  0.0000
   4.7311E+01   4.8462E+01   0.0000E+00  0.0000
   4.8462E+01   4.9641E+01   0.0000E+00  0.0000
   4.9641E+01   5.0849E+01   0.0000E+00  0.0000
   5.0849E+01   5.2086E+01   0.0000E+00  0.0000
   5.2086E+01   5.3353E+01   0.0000E+00  0.0000
   5.3353E+01   5.4651E+01   0.0000E+00  0.0000
   5.4651E+01   5.5981E+01   0.0000E+00  0.0000
   5.5981E+01   5.7343E+01   0.0000E+00  0.0000
   5.7343E+01   5.8738E+01   0.0000E+00  0.0000
   5.8738E+01   6.0168E+01   0.0000E+00  0.0000
   6.0168E+01   6.1632E+01   0.0000E+00  0.0000
   6.1632E+01   6.3131E+01   0.0000E+00  0.0000
   6.3131E+01   6.4667E+01   0.0000E+00  0.0000
   6.4667E+01   6.6240E+01   0.0000E+00  0.0000
   6.6240E+01   6.7852E+01   0.0000E+00  0.0000
   6.7852E+01   6.9503E+01   0.0000E+00  0.0000
   6.9503E+01   7.1194E+01   0.0000E+00  0.0000
   7.1194E+01   7.2926E+01   0.0000E+00  0.0000
   7.2926E+01   7.4701E+01   0.0000E+00  0.0000
   7.4701E+01   7.6518E+01   0.0000E+00  0.0000
   7.6518E+01   7.8380E+01   0.0000E+00  0.0000
   7.8380E+01   8.0287E+01   0.0000E+00  0.0000
   8.0287E+01   8.2240E+01   0.0000E+00  0.0000
   8.2240E+01   8.4241E+01   0.0000E+00  0.0000
   8.4241E+01   8.6291E+01   0.0000E+00  0.0000
   8.6291E+01   8.8391E+01   0.0000E+00  0.0000
   8.8391E+01   9.0541E+01   0.0000E+00  0.0000
   9.0541E+01   9.2744E+01   0.0000E+00  0.0000
   9.2744E+01   9.5001E+01   0.0000E+00  0.0000
   9.5001E+01   9.7312E+01   0.0000E+00  0.0000
   9.7312E+01   9.9680E+01   0.0000E+00  0.0000
   9.9680E+01   1.0211E+02   0.0000E+00  0.0000
   1.0211E+02   1.0459E+02   0.0000E+00  0.0000
   1.0459E+02   1.0713E+02   0.0000E+00  0.0000
   1.0713E+02   1.0974E+02   0.0000E+00  0.0000
   1.0974E+02   1.1241E+02   0.0000E+00  0.0000
   1.1241E+02   1.1515E+02   0.0000E+00  0.0000
   1.1515E+02   1.1795E+02   0.0000E+00  0.0000
   1.1795E+02   1.2082E+02   0.0000E+00  0.0000
   1.2082E+02   1.2376E+02   0.0000E+00  0.0000
   1.2376E+02   1.2677E+02   0.0000E+00  0.0000
   1.2677E+02   1.2985E+02   0.0000E+00  0.0000
   1.2985E+02   1.3301E+02   0.0000E+00  0.0000
   1.3301E+02   1.3625E+02   0.0000E+00  0.0000
   1.3625E+02   1.3956E+02   0.0000E+00  0.0000
   1.3956E+02   1.4296E+02   0.0000E+00  0.0000
   1.4296E+02   1.4644E+02   0.0000E+00  0.0000
   1.4644E+02   1.5000E+02   0.0000E+00  0.0000

#   sum over                 2.5018E-07
'no. =    1   reg = 108 - 208'
msuc: {\huge [t-cross] in region mesh}
msdr: {\it plotted by \ANGEL \version}
msdl: {\it calculated by \PHITS  3.26}
wt: s(0.7)
\vspace{-3}
  region surface crossing
  area  &=&   1.0000E+00 [cm^2]
e:
 
# Information for Restart Calculation
# This calculation was newly started
# istdev =  2 # 1:Batch variance, 2:History variance
# resc2  = 5.00000000000000000E+09 # Total source weight or Total source weight / maxcas
# resc3  = 5.00000000000000000E+09 # Total history number or Total batch number
# maxcas =   100000000 # History / Batch, only used for istdev=1
# bitrseed = 0110100000100010111000001110001111001110100100011111101000111001 # bit data of rseed
