[ T-Cross ]
    title = [t-cross] in region mesh
     mesh =  reg            # mesh type is region-wise
      reg =    1            # number of crossing regions
      non     r-from    r-to       area
      1       120       220        1.000000    
   e-type =    3            # e-mesh is log given by emin, emax and ne
     emin =  1.0000000E-02  # minimum value of e-mesh points
     emax =   150.0000      # maximum value of e-mesh points
#    edel =  2.4039514E-02  # mesh width of e-mesh points
       ne =    400          # number of e-mesh points
#    data = ( e(i), i = 1, ne + 1 )
#           1.00000E-02  1.02433E-02  1.04925E-02  1.07478E-02  1.10093E-02
#           1.12772E-02  1.15516E-02  1.18326E-02  1.21205E-02  1.24154E-02
#           1.27175E-02  1.30269E-02  1.33439E-02  1.36686E-02  1.40011E-02
#           1.43418E-02  1.46907E-02  1.50482E-02  1.54143E-02  1.57894E-02
#           1.61735E-02  1.65670E-02  1.69701E-02  1.73830E-02  1.78060E-02
#           1.82392E-02  1.86830E-02  1.91375E-02  1.96032E-02  2.00801E-02
#           2.05687E-02  2.10692E-02  2.15818E-02  2.21069E-02  2.26448E-02
#           2.31957E-02  2.37601E-02  2.43382E-02  2.49304E-02  2.55369E-02
#           2.61583E-02  2.67947E-02  2.74467E-02  2.81145E-02  2.87985E-02
#           2.94992E-02  3.02169E-02  3.09521E-02  3.17052E-02  3.24766E-02
#           3.32668E-02  3.40762E-02  3.49053E-02  3.57546E-02  3.66246E-02
#           3.75157E-02  3.84284E-02  3.93634E-02  4.03212E-02  4.13022E-02
#           4.23071E-02  4.33365E-02  4.43909E-02  4.54710E-02  4.65773E-02
#           4.77106E-02  4.88714E-02  5.00605E-02  5.12785E-02  5.25262E-02
#           5.38042E-02  5.51133E-02  5.64542E-02  5.78278E-02  5.92348E-02
#           6.06760E-02  6.21523E-02  6.36645E-02  6.52135E-02  6.68002E-02
#           6.84255E-02  7.00904E-02  7.17957E-02  7.35426E-02  7.53319E-02
#           7.71648E-02  7.90423E-02  8.09655E-02  8.29354E-02  8.49533E-02
#           8.70203E-02  8.91376E-02  9.13064E-02  9.35279E-02  9.58035E-02
#           9.81345E-02  1.00522E-01  1.02968E-01  1.05473E-01  1.08040E-01
#           1.10668E-01  1.13361E-01  1.16119E-01  1.18944E-01  1.21838E-01
#           1.24803E-01  1.27839E-01  1.30950E-01  1.34136E-01  1.37399E-01
#           1.40742E-01  1.44167E-01  1.47675E-01  1.51268E-01  1.54948E-01
#           1.58718E-01  1.62580E-01  1.66535E-01  1.70587E-01  1.74738E-01
#           1.78989E-01  1.83344E-01  1.87805E-01  1.92375E-01  1.97055E-01
#           2.01850E-01  2.06761E-01  2.11792E-01  2.16945E-01  2.22223E-01
#           2.27630E-01  2.33169E-01  2.38842E-01  2.44653E-01  2.50605E-01
#           2.56703E-01  2.62949E-01  2.69346E-01  2.75900E-01  2.82613E-01
#           2.89489E-01  2.96532E-01  3.03747E-01  3.11138E-01  3.18708E-01
#           3.26462E-01  3.34405E-01  3.42542E-01  3.50876E-01  3.59413E-01
#           3.68158E-01  3.77116E-01  3.86291E-01  3.95690E-01  4.05317E-01
#           4.15179E-01  4.25281E-01  4.35628E-01  4.46227E-01  4.57084E-01
#           4.68205E-01  4.79597E-01  4.91266E-01  5.03219E-01  5.15463E-01
#           5.28005E-01  5.40851E-01  5.54011E-01  5.67490E-01  5.81298E-01
#           5.95441E-01  6.09929E-01  6.24769E-01  6.39970E-01  6.55541E-01
#           6.71491E-01  6.87828E-01  7.04564E-01  7.21706E-01  7.39266E-01
#           7.57253E-01  7.75678E-01  7.94551E-01  8.13883E-01  8.33685E-01
#           8.53969E-01  8.74747E-01  8.96030E-01  9.17831E-01  9.40163E-01
#           9.63038E-01  9.86469E-01  1.01047E+00  1.03506E+00  1.06024E+00
#           1.08604E+00  1.11246E+00  1.13953E+00  1.16725E+00  1.19565E+00
#           1.22474E+00  1.25454E+00  1.28507E+00  1.31633E+00  1.34836E+00
#           1.38117E+00  1.41477E+00  1.44920E+00  1.48446E+00  1.52057E+00
#           1.55757E+00  1.59547E+00  1.63429E+00  1.67405E+00  1.71478E+00
#           1.75650E+00  1.79924E+00  1.84302E+00  1.88786E+00  1.93379E+00
#           1.98084E+00  2.02904E+00  2.07841E+00  2.12898E+00  2.18078E+00
#           2.23384E+00  2.28819E+00  2.34386E+00  2.40089E+00  2.45930E+00
#           2.51914E+00  2.58043E+00  2.64322E+00  2.70753E+00  2.77341E+00
#           2.84088E+00  2.91001E+00  2.98081E+00  3.05333E+00  3.12762E+00
#           3.20372E+00  3.28167E+00  3.36152E+00  3.44330E+00  3.52708E+00
#           3.61290E+00  3.70080E+00  3.79085E+00  3.88308E+00  3.97756E+00
#           4.07434E+00  4.17347E+00  4.27501E+00  4.37903E+00  4.48557E+00
#           4.59471E+00  4.70650E+00  4.82102E+00  4.93832E+00  5.05847E+00
#           5.18155E+00  5.30762E+00  5.43676E+00  5.56904E+00  5.70453E+00
#           5.84333E+00  5.98550E+00  6.13114E+00  6.28031E+00  6.43312E+00
#           6.58964E+00  6.74997E+00  6.91420E+00  7.08243E+00  7.25475E+00
#           7.43126E+00  7.61207E+00  7.79728E+00  7.98700E+00  8.18133E+00
#           8.38038E+00  8.58428E+00  8.79315E+00  9.00709E+00  9.22624E+00
#           9.45072E+00  9.68067E+00  9.91620E+00  1.01575E+01  1.04046E+01
#           1.06578E+01  1.09171E+01  1.11827E+01  1.14548E+01  1.17335E+01
#           1.20190E+01  1.23114E+01  1.26109E+01  1.29178E+01  1.32321E+01
#           1.35540E+01  1.38838E+01  1.42216E+01  1.45676E+01  1.49221E+01
#           1.52851E+01  1.56570E+01  1.60380E+01  1.64282E+01  1.68279E+01
#           1.72374E+01  1.76568E+01  1.80864E+01  1.85264E+01  1.89772E+01
#           1.94389E+01  1.99119E+01  2.03963E+01  2.08926E+01  2.14009E+01
#           2.19216E+01  2.24550E+01  2.30014E+01  2.35610E+01  2.41343E+01
#           2.47215E+01  2.53230E+01  2.59391E+01  2.65702E+01  2.72167E+01
#           2.78789E+01  2.85572E+01  2.92520E+01  2.99637E+01  3.06928E+01
#           3.14396E+01  3.22045E+01  3.29881E+01  3.37907E+01  3.46128E+01
#           3.54550E+01  3.63177E+01  3.72013E+01  3.81064E+01  3.90336E+01
#           3.99833E+01  4.09561E+01  4.19526E+01  4.29734E+01  4.40189E+01
#           4.50900E+01  4.61870E+01  4.73108E+01  4.84619E+01  4.96410E+01
#           5.08488E+01  5.20860E+01  5.33533E+01  5.46514E+01  5.59812E+01
#           5.73432E+01  5.87384E+01  6.01676E+01  6.16315E+01  6.31311E+01
#           6.46671E+01  6.62405E+01  6.78522E+01  6.95031E+01  7.11941E+01
#           7.29263E+01  7.47007E+01  7.65182E+01  7.83800E+01  8.02870E+01
#           8.22405E+01  8.42414E+01  8.62911E+01  8.83906E+01  9.05412E+01
#           9.27442E+01  9.50007E+01  9.73122E+01  9.96799E+01  1.02105E+02
#           1.04589E+02  1.07134E+02  1.09741E+02  1.12411E+02  1.15146E+02
#           1.17948E+02  1.20817E+02  1.23757E+02  1.26768E+02  1.29852E+02
#           1.33012E+02  1.36248E+02  1.39563E+02  1.42959E+02  1.46437E+02
#           1.50000E+02
     unit =    2            # unit is [1/cm^2/(MeV/n)/source]
     axis =  eng            # axis of output
     file = detector-21.out  # file name of output for the above axis
   output = f-curr          # surface crossing forward current spectrum
     part =  neutron  
# kf/name :  2112     
#    used :        main (  %)        temp (  %)       total (  %)
#  memory :         414 (  0)           0 (  0)         414 (  0)

#------------------------------------------------------------------------------
#newpage:
#   no. =    1   reg = 120 - 220

x: Energy [MeV/n]
y:  F-Curr [1/cm^2/(MeV/n)/source]         
p: xlog ylog afac(0.8) form(0.9)
h: n            x            y(neutron ),hh0l   n 
#  e-lower      e-upper      neutron     r.err 
   1.0000E-02   1.0243E-02   1.0479E-01  0.0044
   1.0243E-02   1.0493E-02   1.0208E-01  0.0044
   1.0493E-02   1.0748E-02   1.0091E-01  0.0044
   1.0748E-02   1.1009E-02   9.8937E-02  0.0044
   1.1009E-02   1.1277E-02   9.6751E-02  0.0044
   1.1277E-02   1.1552E-02   9.5302E-02  0.0044
   1.1552E-02   1.1833E-02   9.3938E-02  0.0044
   1.1833E-02   1.2121E-02   9.1886E-02  0.0043
   1.2121E-02   1.2415E-02   8.9629E-02  0.0044
   1.2415E-02   1.2718E-02   8.8170E-02  0.0043
   1.2718E-02   1.3027E-02   8.7221E-02  0.0043
   1.3027E-02   1.3344E-02   8.5671E-02  0.0043
   1.3344E-02   1.3669E-02   8.4383E-02  0.0043
   1.3669E-02   1.4001E-02   8.1850E-02  0.0043
   1.4001E-02   1.4342E-02   8.0074E-02  0.0043
   1.4342E-02   1.4691E-02   7.9609E-02  0.0042
   1.4691E-02   1.5048E-02   7.8263E-02  0.0042
   1.5048E-02   1.5414E-02   7.6852E-02  0.0042
   1.5414E-02   1.5789E-02   7.4962E-02  0.0042
   1.5789E-02   1.6174E-02   7.3701E-02  0.0042
   1.6174E-02   1.6567E-02   7.2840E-02  0.0042
   1.6567E-02   1.6970E-02   7.0774E-02  0.0042
   1.6970E-02   1.7383E-02   7.0004E-02  0.0042
   1.7383E-02   1.7806E-02   6.8925E-02  0.0041
   1.7806E-02   1.8239E-02   6.7108E-02  0.0041
   1.8239E-02   1.8683E-02   6.6227E-02  0.0041
   1.8683E-02   1.9138E-02   6.4949E-02  0.0041
   1.9138E-02   1.9603E-02   6.3641E-02  0.0041
   1.9603E-02   2.0080E-02   6.2911E-02  0.0041
   2.0080E-02   2.0569E-02   6.1326E-02  0.0041
   2.0569E-02   2.1069E-02   6.0365E-02  0.0041
   2.1069E-02   2.1582E-02   5.9273E-02  0.0041
   2.1582E-02   2.2107E-02   5.8598E-02  0.0040
   2.2107E-02   2.2645E-02   5.7185E-02  0.0040
   2.2645E-02   2.3196E-02   5.6504E-02  0.0040
   2.3196E-02   2.3760E-02   5.5085E-02  0.0040
   2.3760E-02   2.4338E-02   5.4202E-02  0.0040
   2.4338E-02   2.4930E-02   5.3125E-02  0.0040
   2.4930E-02   2.5537E-02   5.2376E-02  0.0040
   2.5537E-02   2.6158E-02   5.1037E-02  0.0040
   2.6158E-02   2.6795E-02   5.0670E-02  0.0039
   2.6795E-02   2.7447E-02   4.9462E-02  0.0039
   2.7447E-02   2.8114E-02   4.8496E-02  0.0039
   2.8114E-02   2.8799E-02   4.7881E-02  0.0039
   2.8799E-02   2.9499E-02   4.6844E-02  0.0039
   2.9499E-02   3.0217E-02   4.5907E-02  0.0039
   3.0217E-02   3.0952E-02   4.5281E-02  0.0039
   3.0952E-02   3.1705E-02   4.4235E-02  0.0039
   3.1705E-02   3.2477E-02   4.3710E-02  0.0039
   3.2477E-02   3.3267E-02   4.2884E-02  0.0038
   3.3267E-02   3.4076E-02   4.2022E-02  0.0038
   3.4076E-02   3.4905E-02   4.1367E-02  0.0038
   3.4905E-02   3.5755E-02   4.0407E-02  0.0038
   3.5755E-02   3.6625E-02   3.9823E-02  0.0038
   3.6625E-02   3.7516E-02   3.9156E-02  0.0038
   3.7516E-02   3.8428E-02   3.8319E-02  0.0038
   3.8428E-02   3.9363E-02   3.7766E-02  0.0038
   3.9363E-02   4.0321E-02   3.7222E-02  0.0037
   4.0321E-02   4.1302E-02   3.6355E-02  0.0037
   4.1302E-02   4.2307E-02   3.5767E-02  0.0037
   4.2307E-02   4.3337E-02   3.5235E-02  0.0037
   4.3337E-02   4.4391E-02   3.4383E-02  0.0037
   4.4391E-02   4.5471E-02   3.3969E-02  0.0037
   4.5471E-02   4.6577E-02   3.3403E-02  0.0037
   4.6577E-02   4.7711E-02   3.2737E-02  0.0037
   4.7711E-02   4.8871E-02   3.2416E-02  0.0036
   4.8871E-02   5.0061E-02   3.1499E-02  0.0037
   5.0061E-02   5.1279E-02   3.0881E-02  0.0036
   5.1279E-02   5.2526E-02   3.0459E-02  0.0036
   5.2526E-02   5.3804E-02   2.9926E-02  0.0036
   5.3804E-02   5.5113E-02   2.9528E-02  0.0036
   5.5113E-02   5.6454E-02   2.8906E-02  0.0036
   5.6454E-02   5.7828E-02   2.8504E-02  0.0036
   5.7828E-02   5.9235E-02   2.7800E-02  0.0036
   5.9235E-02   6.0676E-02   2.7390E-02  0.0036
   6.0676E-02   6.2152E-02   2.6911E-02  0.0035
   6.2152E-02   6.3665E-02   2.6321E-02  0.0035
   6.3665E-02   6.5214E-02   2.6082E-02  0.0035
   6.5214E-02   6.6800E-02   2.5437E-02  0.0035
   6.6800E-02   6.8426E-02   2.5240E-02  0.0035
   6.8426E-02   7.0090E-02   2.4622E-02  0.0035
   7.0090E-02   7.1796E-02   2.4223E-02  0.0035
   7.1796E-02   7.3543E-02   2.3840E-02  0.0035
   7.3543E-02   7.5332E-02   2.3333E-02  0.0035
   7.5332E-02   7.7165E-02   2.3017E-02  0.0034
   7.7165E-02   7.9042E-02   2.2522E-02  0.0034
   7.9042E-02   8.0965E-02   2.2109E-02  0.0034
   8.0965E-02   8.2935E-02   2.1806E-02  0.0034
   8.2935E-02   8.4953E-02   2.1410E-02  0.0034
   8.4953E-02   8.7020E-02   2.1030E-02  0.0034
   8.7020E-02   8.9138E-02   2.0643E-02  0.0034
   8.9138E-02   9.1306E-02   2.0247E-02  0.0034
   9.1306E-02   9.3528E-02   1.9934E-02  0.0034
   9.3528E-02   9.5804E-02   1.9560E-02  0.0034
   9.5804E-02   9.8134E-02   1.9337E-02  0.0033
   9.8134E-02   1.0052E-01   1.9038E-02  0.0033
   1.0052E-01   1.0297E-01   1.8627E-02  0.0033
   1.0297E-01   1.0547E-01   1.8301E-02  0.0033
   1.0547E-01   1.0804E-01   1.7900E-02  0.0033
   1.0804E-01   1.1067E-01   1.7786E-02  0.0033
   1.1067E-01   1.1336E-01   1.7431E-02  0.0033
   1.1336E-01   1.1612E-01   1.7148E-02  0.0033
   1.1612E-01   1.1894E-01   1.6764E-02  0.0033
   1.1894E-01   1.2184E-01   1.6535E-02  0.0032
   1.2184E-01   1.2480E-01   1.6192E-02  0.0032
   1.2480E-01   1.2784E-01   1.5927E-02  0.0032
   1.2784E-01   1.3095E-01   1.5718E-02  0.0032
   1.3095E-01   1.3414E-01   1.5413E-02  0.0032
   1.3414E-01   1.3740E-01   1.5169E-02  0.0032
   1.3740E-01   1.4074E-01   1.4797E-02  0.0032
   1.4074E-01   1.4417E-01   1.4616E-02  0.0032
   1.4417E-01   1.4767E-01   1.4387E-02  0.0031
   1.4767E-01   1.5127E-01   1.4111E-02  0.0031
   1.5127E-01   1.5495E-01   1.3807E-02  0.0031
   1.5495E-01   1.5872E-01   1.3735E-02  0.0031
   1.5872E-01   1.6258E-01   1.3432E-02  0.0031
   1.6258E-01   1.6654E-01   1.3194E-02  0.0031
   1.6654E-01   1.7059E-01   1.2913E-02  0.0031
   1.7059E-01   1.7474E-01   1.2689E-02  0.0031
   1.7474E-01   1.7899E-01   1.2474E-02  0.0031
   1.7899E-01   1.8334E-01   1.2314E-02  0.0031
   1.8334E-01   1.8781E-01   1.2105E-02  0.0030
   1.8781E-01   1.9237E-01   1.1933E-02  0.0030
   1.9237E-01   1.9706E-01   1.1609E-02  0.0030
   1.9706E-01   2.0185E-01   1.1481E-02  0.0030
   2.0185E-01   2.0676E-01   1.1277E-02  0.0030
   2.0676E-01   2.1179E-01   1.1026E-02  0.0030
   2.1179E-01   2.1694E-01   1.0870E-02  0.0030
   2.1694E-01   2.2222E-01   1.0673E-02  0.0030
   2.2222E-01   2.2763E-01   1.0490E-02  0.0030
   2.2763E-01   2.3317E-01   1.0281E-02  0.0030
   2.3317E-01   2.3884E-01   1.0139E-02  0.0030
   2.3884E-01   2.4465E-01   9.9705E-03  0.0029
   2.4465E-01   2.5061E-01   9.7827E-03  0.0029
   2.5061E-01   2.5670E-01   9.6077E-03  0.0029
   2.5670E-01   2.6295E-01   9.4188E-03  0.0029
   2.6295E-01   2.6935E-01   9.2710E-03  0.0029
   2.6935E-01   2.7590E-01   9.0854E-03  0.0029
   2.7590E-01   2.8261E-01   8.9058E-03  0.0029
   2.8261E-01   2.8949E-01   8.7183E-03  0.0029
   2.8949E-01   2.9653E-01   8.6488E-03  0.0029
   2.9653E-01   3.0375E-01   8.4559E-03  0.0029
   3.0375E-01   3.1114E-01   8.3046E-03  0.0029
   3.1114E-01   3.1871E-01   8.1817E-03  0.0028
   3.1871E-01   3.2646E-01   7.9806E-03  0.0028
   3.2646E-01   3.3441E-01   7.8213E-03  0.0028
   3.3441E-01   3.4254E-01   7.7092E-03  0.0028
   3.4254E-01   3.5088E-01   7.5827E-03  0.0028
   3.5088E-01   3.5941E-01   7.4217E-03  0.0028
   3.5941E-01   3.6816E-01   7.2534E-03  0.0028
   3.6816E-01   3.7712E-01   7.1291E-03  0.0028
   3.7712E-01   3.8629E-01   7.0066E-03  0.0028
   3.8629E-01   3.9569E-01   6.8677E-03  0.0028
   3.9569E-01   4.0532E-01   6.7378E-03  0.0028
   4.0532E-01   4.1518E-01   6.5513E-03  0.0028
   4.1518E-01   4.2528E-01   6.4337E-03  0.0028
   4.2528E-01   4.3563E-01   6.3087E-03  0.0028
   4.3563E-01   4.4623E-01   6.1665E-03  0.0028
   4.4623E-01   4.5708E-01   6.0664E-03  0.0028
   4.5708E-01   4.6821E-01   5.9264E-03  0.0028
   4.6821E-01   4.7960E-01   5.7859E-03  0.0028
   4.7960E-01   4.9127E-01   5.6690E-03  0.0028
   4.9127E-01   5.0322E-01   5.5412E-03  0.0028
   5.0322E-01   5.1546E-01   5.3952E-03  0.0028
   5.1546E-01   5.2800E-01   5.3007E-03  0.0027
   5.2800E-01   5.4085E-01   5.1787E-03  0.0027
   5.4085E-01   5.5401E-01   5.0419E-03  0.0027
   5.5401E-01   5.6749E-01   4.9439E-03  0.0027
   5.6749E-01   5.8130E-01   4.8276E-03  0.0027
   5.8130E-01   5.9544E-01   4.6942E-03  0.0027
   5.9544E-01   6.0993E-01   4.5555E-03  0.0028
   6.0993E-01   6.2477E-01   4.4369E-03  0.0028
   6.2477E-01   6.3997E-01   4.3383E-03  0.0028
   6.3997E-01   6.5554E-01   4.2150E-03  0.0028
   6.5554E-01   6.7149E-01   4.1231E-03  0.0028
   6.7149E-01   6.8783E-01   4.0018E-03  0.0028
   6.8783E-01   7.0456E-01   3.8816E-03  0.0028
   7.0456E-01   7.2171E-01   3.7538E-03  0.0028
   7.2171E-01   7.3927E-01   3.6529E-03  0.0028
   7.3927E-01   7.5725E-01   3.5551E-03  0.0028
   7.5725E-01   7.7568E-01   3.4529E-03  0.0028
   7.7568E-01   7.9455E-01   3.3233E-03  0.0028
   7.9455E-01   8.1388E-01   3.2358E-03  0.0028
   8.1388E-01   8.3368E-01   3.1302E-03  0.0028
   8.3368E-01   8.5397E-01   3.0031E-03  0.0029
   8.5397E-01   8.7475E-01   2.8870E-03  0.0029
   8.7475E-01   8.9603E-01   2.7898E-03  0.0029
   8.9603E-01   9.1783E-01   2.6960E-03  0.0029
   9.1783E-01   9.4016E-01   2.5754E-03  0.0030
   9.4016E-01   9.6304E-01   2.4753E-03  0.0030
   9.6304E-01   9.8647E-01   2.3537E-03  0.0030
   9.8647E-01   1.0105E+00   2.2775E-03  0.0030
   1.0105E+00   1.0351E+00   2.2730E-03  0.0030
   1.0351E+00   1.0602E+00   2.3158E-03  0.0029
   1.0602E+00   1.0860E+00   2.3478E-03  0.0029
   1.0860E+00   1.1125E+00   2.3848E-03  0.0028
   1.1125E+00   1.1395E+00   2.4285E-03  0.0028
   1.1395E+00   1.1673E+00   2.5059E-03  0.0027
   1.1673E+00   1.1957E+00   2.5954E-03  0.0026
   1.1957E+00   1.2247E+00   2.6399E-03  0.0026
   1.2247E+00   1.2545E+00   2.6799E-03  0.0025
   1.2545E+00   1.2851E+00   2.7028E-03  0.0025
   1.2851E+00   1.3163E+00   2.7326E-03  0.0024
   1.3163E+00   1.3484E+00   2.7819E-03  0.0024
   1.3484E+00   1.3812E+00   2.8370E-03  0.0023
   1.3812E+00   1.4148E+00   2.8964E-03  0.0023
   1.4148E+00   1.4492E+00   2.9023E-03  0.0022
   1.4492E+00   1.4845E+00   2.9041E-03  0.0022
   1.4845E+00   1.5206E+00   2.8992E-03  0.0022
   1.5206E+00   1.5576E+00   2.9014E-03  0.0022
   1.5576E+00   1.5955E+00   2.9180E-03  0.0021
   1.5955E+00   1.6343E+00   2.9542E-03  0.0021
   1.6343E+00   1.6741E+00   3.0124E-03  0.0020
   1.6741E+00   1.7148E+00   3.0698E-03  0.0020
   1.7148E+00   1.7565E+00   3.0479E-03  0.0020
   1.7565E+00   1.7992E+00   3.0246E-03  0.0020
   1.7992E+00   1.8430E+00   3.0014E-03  0.0020
   1.8430E+00   1.8879E+00   3.0021E-03  0.0019
   1.8879E+00   1.9338E+00   3.0015E-03  0.0019
   1.9338E+00   1.9808E+00   3.0110E-03  0.0019
   1.9808E+00   2.0290E+00   3.0193E-03  0.0019
   2.0290E+00   2.0784E+00   2.9808E-03  0.0018
   2.0784E+00   2.1290E+00   2.9174E-03  0.0018
   2.1290E+00   2.1808E+00   2.8678E-03  0.0018
   2.1808E+00   2.2338E+00   2.8182E-03  0.0018
   2.2338E+00   2.2882E+00   2.7874E-03  0.0018
   2.2882E+00   2.3439E+00   2.7793E-03  0.0018
   2.3439E+00   2.4009E+00   2.7698E-03  0.0018
   2.4009E+00   2.4593E+00   2.7205E-03  0.0018
   2.4593E+00   2.5191E+00   2.6512E-03  0.0018
   2.5191E+00   2.5804E+00   2.5793E-03  0.0018
   2.5804E+00   2.6432E+00   2.4947E-03  0.0018
   2.6432E+00   2.7075E+00   2.4273E-03  0.0018
   2.7075E+00   2.7734E+00   2.3675E-03  0.0018
   2.7734E+00   2.8409E+00   2.3304E-03  0.0018
   2.8409E+00   2.9100E+00   2.2940E-03  0.0018
   2.9100E+00   2.9808E+00   2.2431E-03  0.0018
   2.9808E+00   3.0533E+00   2.1726E-03  0.0018
   3.0533E+00   3.1276E+00   2.0866E-03  0.0018
   3.1276E+00   3.2037E+00   1.9985E-03  0.0018
   3.2037E+00   3.2817E+00   1.9143E-03  0.0018
   3.2817E+00   3.3615E+00   1.8404E-03  0.0018
   3.3615E+00   3.4433E+00   1.7663E-03  0.0019
   3.4433E+00   3.5271E+00   1.6955E-03  0.0019
   3.5271E+00   3.6129E+00   1.6433E-03  0.0019
   3.6129E+00   3.7008E+00   1.5758E-03  0.0019
   3.7008E+00   3.7908E+00   1.4993E-03  0.0019
   3.7908E+00   3.8831E+00   1.4317E-03  0.0019
   3.8831E+00   3.9776E+00   1.3696E-03  0.0020
   3.9776E+00   4.0743E+00   1.3078E-03  0.0020
   4.0743E+00   4.1735E+00   1.2376E-03  0.0020
   4.1735E+00   4.2750E+00   1.1675E-03  0.0021
   4.2750E+00   4.3790E+00   1.1046E-03  0.0021
   4.3790E+00   4.4856E+00   1.0389E-03  0.0021
   4.4856E+00   4.5947E+00   9.7370E-04  0.0022
   4.5947E+00   4.7065E+00   9.1601E-04  0.0022
   4.7065E+00   4.8210E+00   8.6859E-04  0.0022
   4.8210E+00   4.9383E+00   8.1558E-04  0.0023
   4.9383E+00   5.0585E+00   7.6606E-04  0.0023
   5.0585E+00   5.1815E+00   7.1837E-04  0.0024
   5.1815E+00   5.3076E+00   6.7091E-04  0.0024
   5.3076E+00   5.4368E+00   6.2181E-04  0.0025
   5.4368E+00   5.5690E+00   5.7710E-04  0.0026
   5.5690E+00   5.7045E+00   5.3356E-04  0.0026
   5.7045E+00   5.8433E+00   4.9415E-04  0.0027
   5.8433E+00   5.9855E+00   4.5694E-04  0.0028
   5.9855E+00   6.1311E+00   4.2468E-04  0.0028
   6.1311E+00   6.2803E+00   3.9331E-04  0.0029
   6.2803E+00   6.4331E+00   3.6160E-04  0.0030
   6.4331E+00   6.5896E+00   3.3338E-04  0.0031
   6.5896E+00   6.7500E+00   3.0479E-04  0.0032
   6.7500E+00   6.9142E+00   2.7834E-04  0.0033
   6.9142E+00   7.0824E+00   2.5533E-04  0.0034
   7.0824E+00   7.2548E+00   2.3459E-04  0.0035
   7.2548E+00   7.4313E+00   2.1418E-04  0.0036
   7.4313E+00   7.6121E+00   1.9537E-04  0.0038
   7.6121E+00   7.7973E+00   1.7833E-04  0.0039
   7.7973E+00   7.9870E+00   1.6195E-04  0.0040
   7.9870E+00   8.1813E+00   1.4722E-04  0.0042
   8.1813E+00   8.3804E+00   1.3403E-04  0.0043
   8.3804E+00   8.5843E+00   1.2164E-04  0.0045
   8.5843E+00   8.7931E+00   1.1147E-04  0.0046
   8.7931E+00   9.0071E+00   1.0014E-04  0.0048
   9.0071E+00   9.2262E+00   9.0768E-05  0.0050
   9.2262E+00   9.4507E+00   8.1950E-05  0.0052
   9.4507E+00   9.6807E+00   7.5085E-05  0.0054
   9.6807E+00   9.9162E+00   6.7807E-05  0.0056
   9.9162E+00   1.0157E+01   6.1608E-05  0.0058
   1.0157E+01   1.0405E+01   5.4935E-05  0.0061
   1.0405E+01   1.0658E+01   5.0288E-05  0.0063
   1.0658E+01   1.0917E+01   4.5467E-05  0.0065
   1.0917E+01   1.1183E+01   4.0998E-05  0.0068
   1.1183E+01   1.1455E+01   3.7146E-05  0.0070
   1.1455E+01   1.1733E+01   3.4375E-05  0.0072
   1.1733E+01   1.2019E+01   3.1231E-05  0.0075
   1.2019E+01   1.2311E+01   2.8035E-05  0.0078
   1.2311E+01   1.2611E+01   2.5676E-05  0.0080
   1.2611E+01   1.2918E+01   2.3516E-05  0.0083
   1.2918E+01   1.3232E+01   2.1567E-05  0.0086
   1.3232E+01   1.3554E+01   1.9432E-05  0.0089
   1.3554E+01   1.3884E+01   1.8430E-05  0.0090
   1.3884E+01   1.4222E+01   1.6827E-05  0.0094
   1.4222E+01   1.4568E+01   1.5477E-05  0.0096
   1.4568E+01   1.4922E+01   1.4150E-05  0.0100
   1.4922E+01   1.5285E+01   1.3504E-05  0.0101
   1.5285E+01   1.5657E+01   1.2703E-05  0.0103
   1.5657E+01   1.6038E+01   1.1635E-05  0.0106
   1.6038E+01   1.6428E+01   1.1020E-05  0.0108
   1.6428E+01   1.6828E+01   1.0145E-05  0.0111
   1.6828E+01   1.7237E+01   9.6285E-06  0.0112
   1.7237E+01   1.7657E+01   9.1733E-06  0.0114
   1.7657E+01   1.8086E+01   8.6039E-06  0.0116
   1.8086E+01   1.8526E+01   8.3222E-06  0.0117
   1.8526E+01   1.8977E+01   7.9144E-06  0.0118
   1.8977E+01   1.9439E+01   7.3912E-06  0.0121
   1.9439E+01   1.9912E+01   7.1047E-06  0.0122
   1.9912E+01   2.0396E+01   6.1392E-06  0.0130
   2.0396E+01   2.0893E+01   5.9173E-06  0.0130
   2.0893E+01   2.1401E+01   5.6410E-06  0.0132
   2.1401E+01   2.1922E+01   5.4138E-06  0.0133
   2.1922E+01   2.2455E+01   5.1409E-06  0.0135
   2.2455E+01   2.3001E+01   5.0682E-06  0.0134
   2.3001E+01   2.3561E+01   4.8317E-06  0.0136
   2.3561E+01   2.4134E+01   4.7370E-06  0.0136
   2.4134E+01   2.4721E+01   4.4831E-06  0.0138
   2.4721E+01   2.5323E+01   4.3450E-06  0.0138
   2.5323E+01   2.5939E+01   4.2175E-06  0.0139
   2.5939E+01   2.6570E+01   4.0872E-06  0.0139
   2.6570E+01   2.7217E+01   3.8432E-06  0.0142
   2.7217E+01   2.7879E+01   3.6228E-06  0.0144
   2.7879E+01   2.8557E+01   3.4947E-06  0.0145
   2.8557E+01   2.9252E+01   3.3109E-06  0.0147
   2.9252E+01   2.9964E+01   3.2007E-06  0.0148
   2.9964E+01   3.0693E+01   3.0787E-06  0.0149
   3.0693E+01   3.1440E+01   2.9654E-06  0.0150
   3.1440E+01   3.2205E+01   2.7100E-06  0.0155
   3.2205E+01   3.2988E+01   2.5939E-06  0.0157
   3.2988E+01   3.3791E+01   2.4252E-06  0.0160
   3.3791E+01   3.4613E+01   2.1918E-06  0.0167
   3.4613E+01   3.5455E+01   2.1124E-06  0.0168
   3.5455E+01   3.6318E+01   1.9434E-06  0.0173
   3.6318E+01   3.7201E+01   1.8367E-06  0.0176
   3.7201E+01   3.8106E+01   1.7158E-06  0.0179
   3.8106E+01   3.9034E+01   1.6286E-06  0.0182
   3.9034E+01   3.9983E+01   1.4636E-06  0.0190
   3.9983E+01   4.0956E+01   1.3188E-06  0.0197
   4.0956E+01   4.1953E+01   1.2328E-06  0.0202
   4.1953E+01   4.2973E+01   1.1374E-06  0.0208
   4.2973E+01   4.4019E+01   1.0109E-06  0.0217
   4.4019E+01   4.5090E+01   8.8981E-07  0.0229
   4.5090E+01   4.6187E+01   8.5227E-07  0.0231
   4.6187E+01   4.7311E+01   7.8353E-07  0.0238
   4.7311E+01   4.8462E+01   6.6892E-07  0.0255
   4.8462E+01   4.9641E+01   6.2504E-07  0.0260
   4.9641E+01   5.0849E+01   5.1912E-07  0.0282
   5.0849E+01   5.2086E+01   4.9386E-07  0.0286
   5.2086E+01   5.3353E+01   4.1032E-07  0.0310
   5.3353E+01   5.4651E+01   3.4511E-07  0.0334
   5.4651E+01   5.5981E+01   3.1548E-07  0.0345
   5.5981E+01   5.7343E+01   2.6761E-07  0.0370
   5.7343E+01   5.8738E+01   2.3545E-07  0.0390
   5.8738E+01   6.0168E+01   2.0956E-07  0.0409
   6.0168E+01   6.1632E+01   1.7214E-07  0.0445
   6.1632E+01   6.3131E+01   1.5438E-07  0.0465
   6.3131E+01   6.4667E+01   1.3053E-07  0.0499
   6.4667E+01   6.6240E+01   1.2171E-07  0.0511
   6.6240E+01   6.7852E+01   8.2522E-08  0.0613
   6.7852E+01   6.9503E+01   6.6630E-08  0.0674
   6.9503E+01   7.1194E+01   5.7952E-08  0.0714
   7.1194E+01   7.2926E+01   4.5029E-08  0.0801
   7.2926E+01   7.4701E+01   3.6915E-08  0.0874
   7.4701E+01   7.6518E+01   2.5584E-08  0.1037
   7.6518E+01   7.8380E+01   2.3097E-08  0.1078
   7.8380E+01   8.0287E+01   1.9402E-08  0.1162
   8.0287E+01   8.2240E+01   1.5357E-08  0.1291
   8.2240E+01   8.4241E+01   1.0495E-08  0.1543
   8.4241E+01   8.6291E+01   8.0501E-09  0.1741
   8.6291E+01   8.8391E+01   8.5733E-09  0.1667
   8.8391E+01   9.0541E+01   4.8823E-09  0.2182
   9.0541E+01   9.2744E+01   2.0427E-09  0.3333
   9.2744E+01   9.5001E+01   2.8805E-09  0.2774
   9.5001E+01   9.7312E+01   1.2979E-09  0.4082
   9.7312E+01   9.9680E+01   1.0559E-09  0.4472
   9.9680E+01   1.0211E+02   1.2370E-09  0.4082
   1.0211E+02   1.0459E+02   1.0063E-09  0.4472
   1.0459E+02   1.0713E+02   0.0000E+00  0.0000
   1.0713E+02   1.0974E+02   0.0000E+00  0.0000
   1.0974E+02   1.1241E+02   5.6178E-10  0.5774
   1.1241E+02   1.1515E+02   3.6562E-10  0.7071
   1.1515E+02   1.1795E+02   1.7847E-10  1.0000
   1.1795E+02   1.2082E+02   0.0000E+00  0.0000
   1.2082E+02   1.2376E+02   0.0000E+00  0.0000
   1.2376E+02   1.2677E+02   0.0000E+00  0.0000
   1.2677E+02   1.2985E+02   0.0000E+00  0.0000
   1.2985E+02   1.3301E+02   0.0000E+00  0.0000
   1.3301E+02   1.3625E+02   0.0000E+00  0.0000
   1.3625E+02   1.3956E+02   0.0000E+00  0.0000
   1.3956E+02   1.4296E+02   0.0000E+00  0.0000
   1.4296E+02   1.4644E+02   0.0000E+00  0.0000
   1.4644E+02   1.5000E+02   0.0000E+00  0.0000

#   sum over                 1.2417E-04
'no. =    1   reg = 120 - 220'
msuc: {\huge [t-cross] in region mesh}
msdr: {\it plotted by \ANGEL \version}
msdl: {\it calculated by \PHITS  3.26}
wt: s(0.7)
\vspace{-3}
  region surface crossing
  area  &=&   1.0000E+00 [cm^2]
e:
 
# Information for Restart Calculation
# This calculation was newly started
# istdev =  2 # 1:Batch variance, 2:History variance
# resc2  = 2.00000000000000000E+09 # Total source weight or Total source weight / maxcas
# resc3  = 2.00000000000000000E+09 # Total history number or Total batch number
# maxcas =   500000000 # History / Batch, only used for istdev=1
# bitrseed = 0011011010010000100111110110001101100001010011100000011100000110 # bit data of rseed
