0 <--- number of remaining batches 

-------------------------------------------------------------------------------
bat[       1] ncas =      500000000.
 bitrseed = 0100000111110100010101110010111101011011011000000000000000000000
          cpu time =  23 h. 42 m. 13.02 s.

 date = 2023-02-07
 time = 15h 21m 14s

-------------------------------------------------------------------------------
next initial random seed:
 bitrseed = 1011101111111101000111101101010011111001010110111001011111010111
