[ T-Cross ]
    title = [t-cross] in region mesh
     mesh =  reg            # mesh type is region-wise
      reg =    1            # number of crossing regions
      non     r-from    r-to       area
      1       104       204        1.000000    
   e-type =    3            # e-mesh is log given by emin, emax and ne
     emin =  1.0000000E-02  # minimum value of e-mesh points
     emax =   150.0000      # maximum value of e-mesh points
#    edel =  2.4039514E-02  # mesh width of e-mesh points
       ne =    400          # number of e-mesh points
#    data = ( e(i), i = 1, ne + 1 )
#           1.00000E-02  1.02433E-02  1.04925E-02  1.07478E-02  1.10093E-02
#           1.12772E-02  1.15516E-02  1.18326E-02  1.21205E-02  1.24154E-02
#           1.27175E-02  1.30269E-02  1.33439E-02  1.36686E-02  1.40011E-02
#           1.43418E-02  1.46907E-02  1.50482E-02  1.54143E-02  1.57894E-02
#           1.61735E-02  1.65670E-02  1.69701E-02  1.73830E-02  1.78060E-02
#           1.82392E-02  1.86830E-02  1.91375E-02  1.96032E-02  2.00801E-02
#           2.05687E-02  2.10692E-02  2.15818E-02  2.21069E-02  2.26448E-02
#           2.31957E-02  2.37601E-02  2.43382E-02  2.49304E-02  2.55369E-02
#           2.61583E-02  2.67947E-02  2.74467E-02  2.81145E-02  2.87985E-02
#           2.94992E-02  3.02169E-02  3.09521E-02  3.17052E-02  3.24766E-02
#           3.32668E-02  3.40762E-02  3.49053E-02  3.57546E-02  3.66246E-02
#           3.75157E-02  3.84284E-02  3.93634E-02  4.03212E-02  4.13022E-02
#           4.23071E-02  4.33365E-02  4.43909E-02  4.54710E-02  4.65773E-02
#           4.77106E-02  4.88714E-02  5.00605E-02  5.12785E-02  5.25262E-02
#           5.38042E-02  5.51133E-02  5.64542E-02  5.78278E-02  5.92348E-02
#           6.06760E-02  6.21523E-02  6.36645E-02  6.52135E-02  6.68002E-02
#           6.84255E-02  7.00904E-02  7.17957E-02  7.35426E-02  7.53319E-02
#           7.71648E-02  7.90423E-02  8.09655E-02  8.29354E-02  8.49533E-02
#           8.70203E-02  8.91376E-02  9.13064E-02  9.35279E-02  9.58035E-02
#           9.81345E-02  1.00522E-01  1.02968E-01  1.05473E-01  1.08040E-01
#           1.10668E-01  1.13361E-01  1.16119E-01  1.18944E-01  1.21838E-01
#           1.24803E-01  1.27839E-01  1.30950E-01  1.34136E-01  1.37399E-01
#           1.40742E-01  1.44167E-01  1.47675E-01  1.51268E-01  1.54948E-01
#           1.58718E-01  1.62580E-01  1.66535E-01  1.70587E-01  1.74738E-01
#           1.78989E-01  1.83344E-01  1.87805E-01  1.92375E-01  1.97055E-01
#           2.01850E-01  2.06761E-01  2.11792E-01  2.16945E-01  2.22223E-01
#           2.27630E-01  2.33169E-01  2.38842E-01  2.44653E-01  2.50605E-01
#           2.56703E-01  2.62949E-01  2.69346E-01  2.75900E-01  2.82613E-01
#           2.89489E-01  2.96532E-01  3.03747E-01  3.11138E-01  3.18708E-01
#           3.26462E-01  3.34405E-01  3.42542E-01  3.50876E-01  3.59413E-01
#           3.68158E-01  3.77116E-01  3.86291E-01  3.95690E-01  4.05317E-01
#           4.15179E-01  4.25281E-01  4.35628E-01  4.46227E-01  4.57084E-01
#           4.68205E-01  4.79597E-01  4.91266E-01  5.03219E-01  5.15463E-01
#           5.28005E-01  5.40851E-01  5.54011E-01  5.67490E-01  5.81298E-01
#           5.95441E-01  6.09929E-01  6.24769E-01  6.39970E-01  6.55541E-01
#           6.71491E-01  6.87828E-01  7.04564E-01  7.21706E-01  7.39266E-01
#           7.57253E-01  7.75678E-01  7.94551E-01  8.13883E-01  8.33685E-01
#           8.53969E-01  8.74747E-01  8.96030E-01  9.17831E-01  9.40163E-01
#           9.63038E-01  9.86469E-01  1.01047E+00  1.03506E+00  1.06024E+00
#           1.08604E+00  1.11246E+00  1.13953E+00  1.16725E+00  1.19565E+00
#           1.22474E+00  1.25454E+00  1.28507E+00  1.31633E+00  1.34836E+00
#           1.38117E+00  1.41477E+00  1.44920E+00  1.48446E+00  1.52057E+00
#           1.55757E+00  1.59547E+00  1.63429E+00  1.67405E+00  1.71478E+00
#           1.75650E+00  1.79924E+00  1.84302E+00  1.88786E+00  1.93379E+00
#           1.98084E+00  2.02904E+00  2.07841E+00  2.12898E+00  2.18078E+00
#           2.23384E+00  2.28819E+00  2.34386E+00  2.40089E+00  2.45930E+00
#           2.51914E+00  2.58043E+00  2.64322E+00  2.70753E+00  2.77341E+00
#           2.84088E+00  2.91001E+00  2.98081E+00  3.05333E+00  3.12762E+00
#           3.20372E+00  3.28167E+00  3.36152E+00  3.44330E+00  3.52708E+00
#           3.61290E+00  3.70080E+00  3.79085E+00  3.88308E+00  3.97756E+00
#           4.07434E+00  4.17347E+00  4.27501E+00  4.37903E+00  4.48557E+00
#           4.59471E+00  4.70650E+00  4.82102E+00  4.93832E+00  5.05847E+00
#           5.18155E+00  5.30762E+00  5.43676E+00  5.56904E+00  5.70453E+00
#           5.84333E+00  5.98550E+00  6.13114E+00  6.28031E+00  6.43312E+00
#           6.58964E+00  6.74997E+00  6.91420E+00  7.08243E+00  7.25475E+00
#           7.43126E+00  7.61207E+00  7.79728E+00  7.98700E+00  8.18133E+00
#           8.38038E+00  8.58428E+00  8.79315E+00  9.00709E+00  9.22624E+00
#           9.45072E+00  9.68067E+00  9.91620E+00  1.01575E+01  1.04046E+01
#           1.06578E+01  1.09171E+01  1.11827E+01  1.14548E+01  1.17335E+01
#           1.20190E+01  1.23114E+01  1.26109E+01  1.29178E+01  1.32321E+01
#           1.35540E+01  1.38838E+01  1.42216E+01  1.45676E+01  1.49221E+01
#           1.52851E+01  1.56570E+01  1.60380E+01  1.64282E+01  1.68279E+01
#           1.72374E+01  1.76568E+01  1.80864E+01  1.85264E+01  1.89772E+01
#           1.94389E+01  1.99119E+01  2.03963E+01  2.08926E+01  2.14009E+01
#           2.19216E+01  2.24550E+01  2.30014E+01  2.35610E+01  2.41343E+01
#           2.47215E+01  2.53230E+01  2.59391E+01  2.65702E+01  2.72167E+01
#           2.78789E+01  2.85572E+01  2.92520E+01  2.99637E+01  3.06928E+01
#           3.14396E+01  3.22045E+01  3.29881E+01  3.37907E+01  3.46128E+01
#           3.54550E+01  3.63177E+01  3.72013E+01  3.81064E+01  3.90336E+01
#           3.99833E+01  4.09561E+01  4.19526E+01  4.29734E+01  4.40189E+01
#           4.50900E+01  4.61870E+01  4.73108E+01  4.84619E+01  4.96410E+01
#           5.08488E+01  5.20860E+01  5.33533E+01  5.46514E+01  5.59812E+01
#           5.73432E+01  5.87384E+01  6.01676E+01  6.16315E+01  6.31311E+01
#           6.46671E+01  6.62405E+01  6.78522E+01  6.95031E+01  7.11941E+01
#           7.29263E+01  7.47007E+01  7.65182E+01  7.83800E+01  8.02870E+01
#           8.22405E+01  8.42414E+01  8.62911E+01  8.83906E+01  9.05412E+01
#           9.27442E+01  9.50007E+01  9.73122E+01  9.96799E+01  1.02105E+02
#           1.04589E+02  1.07134E+02  1.09741E+02  1.12411E+02  1.15146E+02
#           1.17948E+02  1.20817E+02  1.23757E+02  1.26768E+02  1.29852E+02
#           1.33012E+02  1.36248E+02  1.39563E+02  1.42959E+02  1.46437E+02
#           1.50000E+02
     unit =    2            # unit is [1/cm^2/(MeV/n)/source]
     axis =  eng            # axis of output
     file = detector-05.out  # file name of output for the above axis
   output = f-curr          # surface crossing forward current spectrum
     part =  neutron  
# kf/name :  2112     
#    used :        main (  %)        temp (  %)       total (  %)
#  memory :         414 (  0)           0 (  0)         414 (  0)

#------------------------------------------------------------------------------
#newpage:
#   no. =    1   reg = 104 - 204

x: Energy [MeV/n]
y:  F-Curr [1/cm^2/(MeV/n)/source]         
p: xlog ylog afac(0.8) form(0.9)
h: n            x            y(neutron ),hh0l   n 
#  e-lower      e-upper      neutron     r.err 
   1.0000E-02   1.0243E-02   1.9671E-02  0.0204
   1.0243E-02   1.0493E-02   1.9757E-02  0.0202
   1.0493E-02   1.0748E-02   2.0729E-02  0.0194
   1.0748E-02   1.1009E-02   1.9656E-02  0.0197
   1.1009E-02   1.1277E-02   1.8091E-02  0.0203
   1.1277E-02   1.1552E-02   1.8478E-02  0.0199
   1.1552E-02   1.1833E-02   1.8114E-02  0.0198
   1.1833E-02   1.2121E-02   1.7694E-02  0.0198
   1.2121E-02   1.2415E-02   1.7389E-02  0.0197
   1.2415E-02   1.2718E-02   1.6612E-02  0.0200
   1.2718E-02   1.3027E-02   1.6608E-02  0.0197
   1.3027E-02   1.3344E-02   1.6229E-02  0.0197
   1.3344E-02   1.3669E-02   1.5604E-02  0.0199
   1.3669E-02   1.4001E-02   1.5618E-02  0.0196
   1.4001E-02   1.4342E-02   1.5470E-02  0.0195
   1.4342E-02   1.4691E-02   1.4936E-02  0.0196
   1.4691E-02   1.5048E-02   1.4559E-02  0.0196
   1.5048E-02   1.5414E-02   1.4585E-02  0.0194
   1.5414E-02   1.5789E-02   1.4057E-02  0.0195
   1.5789E-02   1.6174E-02   1.4025E-02  0.0193
   1.6174E-02   1.6567E-02   1.3946E-02  0.0191
   1.6567E-02   1.6970E-02   1.3466E-02  0.0192
   1.6970E-02   1.7383E-02   1.3015E-02  0.0193
   1.7383E-02   1.7806E-02   1.3032E-02  0.0190
   1.7806E-02   1.8239E-02   1.3074E-02  0.0188
   1.8239E-02   1.8683E-02   1.2175E-02  0.0192
   1.8683E-02   1.9138E-02   1.2882E-02  0.0185
   1.9138E-02   1.9603E-02   1.2448E-02  0.0186
   1.9603E-02   2.0080E-02   1.1942E-02  0.0187
   2.0080E-02   2.0569E-02   1.1962E-02  0.0185
   2.0569E-02   2.1069E-02   1.1406E-02  0.0187
   2.1069E-02   2.1582E-02   1.1529E-02  0.0184
   2.1582E-02   2.2107E-02   1.1440E-02  0.0182
   2.2107E-02   2.2645E-02   1.0765E-02  0.0186
   2.2645E-02   2.3196E-02   1.0823E-02  0.0183
   2.3196E-02   2.3760E-02   1.0972E-02  0.0180
   2.3760E-02   2.4338E-02   1.0566E-02  0.0181
   2.4338E-02   2.4930E-02   1.0394E-02  0.0180
   2.4930E-02   2.5537E-02   9.9378E-03  0.0182
   2.5537E-02   2.6158E-02   1.0024E-02  0.0179
   2.6158E-02   2.6795E-02   9.2890E-03  0.0184
   2.6795E-02   2.7447E-02   9.1021E-03  0.0184
   2.7447E-02   2.8114E-02   9.0985E-03  0.0181
   2.8114E-02   2.8799E-02   9.1426E-03  0.0179
   2.8799E-02   2.9499E-02   8.8827E-03  0.0179
   2.9499E-02   3.0217E-02   8.5825E-03  0.0180
   3.0217E-02   3.0952E-02   8.5391E-03  0.0178
   3.0952E-02   3.1705E-02   8.3124E-03  0.0179
   3.1705E-02   3.2477E-02   8.2420E-03  0.0177
   3.2477E-02   3.3267E-02   8.1500E-03  0.0176
   3.3267E-02   3.4076E-02   8.0071E-03  0.0176
   3.4076E-02   3.4905E-02   7.7288E-03  0.0177
   3.4905E-02   3.5755E-02   7.5523E-03  0.0177
   3.5755E-02   3.6625E-02   7.4971E-03  0.0175
   3.6625E-02   3.7516E-02   7.5210E-03  0.0173
   3.7516E-02   3.8428E-02   7.1934E-03  0.0175
   3.8428E-02   3.9363E-02   7.0524E-03  0.0174
   3.9363E-02   4.0321E-02   6.9873E-03  0.0173
   4.0321E-02   4.1302E-02   6.7357E-03  0.0174
   4.1302E-02   4.2307E-02   6.9717E-03  0.0169
   4.2307E-02   4.3337E-02   6.7478E-03  0.0170
   4.3337E-02   4.4391E-02   6.5515E-03  0.0170
   4.4391E-02   4.5471E-02   6.3848E-03  0.0170
   4.5471E-02   4.6577E-02   6.5576E-03  0.0166
   4.6577E-02   4.7711E-02   6.2280E-03  0.0168
   4.7711E-02   4.8871E-02   6.0060E-03  0.0169
   4.8871E-02   5.0061E-02   5.9189E-03  0.0169
   5.0061E-02   5.1279E-02   5.8661E-03  0.0167
   5.1279E-02   5.2526E-02   5.6362E-03  0.0169
   5.2526E-02   5.3804E-02   5.6385E-03  0.0167
   5.3804E-02   5.5113E-02   5.5855E-03  0.0165
   5.5113E-02   5.6454E-02   5.5065E-03  0.0165
   5.6454E-02   5.7828E-02   5.3321E-03  0.0165
   5.7828E-02   5.9235E-02   5.1585E-03  0.0166
   5.9235E-02   6.0676E-02   5.0790E-03  0.0165
   6.0676E-02   6.2152E-02   5.0992E-03  0.0163
   6.2152E-02   6.3665E-02   4.9464E-03  0.0164
   6.3665E-02   6.5214E-02   4.9748E-03  0.0161
   6.5214E-02   6.6800E-02   4.7155E-03  0.0164
   6.6800E-02   6.8426E-02   4.7204E-03  0.0161
   6.8426E-02   7.0090E-02   4.6935E-03  0.0160
   7.0090E-02   7.1796E-02   4.6782E-03  0.0158
   7.1796E-02   7.3543E-02   4.4652E-03  0.0160
   7.3543E-02   7.5332E-02   4.3703E-03  0.0160
   7.5332E-02   7.7165E-02   4.4160E-03  0.0157
   7.7165E-02   7.9042E-02   4.1721E-03  0.0160
   7.9042E-02   8.0965E-02   4.1843E-03  0.0158
   8.0965E-02   8.2935E-02   4.0529E-03  0.0158
   8.2935E-02   8.4953E-02   3.9259E-03  0.0159
   8.4953E-02   8.7020E-02   4.0271E-03  0.0155
   8.7020E-02   8.9138E-02   3.9267E-03  0.0155
   8.9138E-02   9.1306E-02   3.8787E-03  0.0154
   9.1306E-02   9.3528E-02   3.7442E-03  0.0155
   9.3528E-02   9.5804E-02   3.6412E-03  0.0155
   9.5804E-02   9.8134E-02   3.5856E-03  0.0155
   9.8134E-02   1.0052E-01   3.5817E-03  0.0153
   1.0052E-01   1.0297E-01   3.4525E-03  0.0154
   1.0297E-01   1.0547E-01   3.3649E-03  0.0154
   1.0547E-01   1.0804E-01   3.3083E-03  0.0153
   1.0804E-01   1.1067E-01   3.3096E-03  0.0152
   1.1067E-01   1.1336E-01   3.3224E-03  0.0150
   1.1336E-01   1.1612E-01   3.2123E-03  0.0150
   1.1612E-01   1.1894E-01   3.1254E-03  0.0151
   1.1894E-01   1.2184E-01   3.0014E-03  0.0152
   1.2184E-01   1.2480E-01   3.0245E-03  0.0149
   1.2480E-01   1.2784E-01   2.8895E-03  0.0151
   1.2784E-01   1.3095E-01   2.9346E-03  0.0148
   1.3095E-01   1.3414E-01   2.8700E-03  0.0148
   1.3414E-01   1.3740E-01   2.8413E-03  0.0147
   1.3740E-01   1.4074E-01   2.7795E-03  0.0147
   1.4074E-01   1.4417E-01   2.6904E-03  0.0147
   1.4417E-01   1.4767E-01   2.6630E-03  0.0146
   1.4767E-01   1.5127E-01   2.6345E-03  0.0145
   1.5127E-01   1.5495E-01   2.5073E-03  0.0147
   1.5495E-01   1.5872E-01   2.5268E-03  0.0145
   1.5872E-01   1.6258E-01   2.5046E-03  0.0144
   1.6258E-01   1.6654E-01   2.4390E-03  0.0144
   1.6654E-01   1.7059E-01   2.4292E-03  0.0143
   1.7059E-01   1.7474E-01   2.2898E-03  0.0145
   1.7474E-01   1.7899E-01   2.3046E-03  0.0143
   1.7899E-01   1.8334E-01   2.3118E-03  0.0141
   1.8334E-01   1.8781E-01   2.2166E-03  0.0142
   1.8781E-01   1.9237E-01   2.1639E-03  0.0142
   1.9237E-01   1.9706E-01   2.1514E-03  0.0141
   1.9706E-01   2.0185E-01   2.0540E-03  0.0143
   2.0185E-01   2.0676E-01   1.9987E-03  0.0143
   2.0676E-01   2.1179E-01   2.0466E-03  0.0139
   2.1179E-01   2.1694E-01   2.0039E-03  0.0139
   2.1694E-01   2.2222E-01   1.9858E-03  0.0138
   2.2222E-01   2.2763E-01   1.9305E-03  0.0138
   2.2763E-01   2.3317E-01   1.8446E-03  0.0140
   2.3317E-01   2.3884E-01   1.8503E-03  0.0138
   2.3884E-01   2.4465E-01   1.8514E-03  0.0136
   2.4465E-01   2.5061E-01   1.8405E-03  0.0135
   2.5061E-01   2.5670E-01   1.7676E-03  0.0136
   2.5670E-01   2.6295E-01   1.7461E-03  0.0135
   2.6295E-01   2.6935E-01   1.6365E-03  0.0138
   2.6935E-01   2.7590E-01   1.6263E-03  0.0137
   2.7590E-01   2.8261E-01   1.6035E-03  0.0136
   2.8261E-01   2.8949E-01   1.6194E-03  0.0134
   2.8949E-01   2.9653E-01   1.5626E-03  0.0135
   2.9653E-01   3.0375E-01   1.5443E-03  0.0134
   3.0375E-01   3.1114E-01   1.5021E-03  0.0134
   3.1114E-01   3.1871E-01   1.5047E-03  0.0133
   3.1871E-01   3.2646E-01   1.4317E-03  0.0134
   3.2646E-01   3.3441E-01   1.4236E-03  0.0133
   3.3441E-01   3.4254E-01   1.3726E-03  0.0134
   3.4254E-01   3.5088E-01   1.3483E-03  0.0133
   3.5088E-01   3.5941E-01   1.3585E-03  0.0131
   3.5941E-01   3.6816E-01   1.2874E-03  0.0133
   3.6816E-01   3.7712E-01   1.2573E-03  0.0133
   3.7712E-01   3.8629E-01   1.2366E-03  0.0133
   3.8629E-01   3.9569E-01   1.2229E-03  0.0132
   3.9569E-01   4.0532E-01   1.1950E-03  0.0132
   4.0532E-01   4.1518E-01   1.1448E-03  0.0133
   4.1518E-01   4.2528E-01   1.1486E-03  0.0131
   4.2528E-01   4.3563E-01   1.1124E-03  0.0132
   4.3563E-01   4.4623E-01   1.0929E-03  0.0131
   4.4623E-01   4.5708E-01   1.0378E-03  0.0133
   4.5708E-01   4.6821E-01   1.0571E-03  0.0130
   4.6821E-01   4.7960E-01   1.0230E-03  0.0131
   4.7960E-01   4.9127E-01   9.7695E-04  0.0133
   4.9127E-01   5.0322E-01   9.8897E-04  0.0130
   5.0322E-01   5.1546E-01   9.5232E-04  0.0131
   5.1546E-01   5.2800E-01   9.0850E-04  0.0132
   5.2800E-01   5.4085E-01   9.0342E-04  0.0131
   5.4085E-01   5.5401E-01   8.7231E-04  0.0132
   5.5401E-01   5.6749E-01   8.5567E-04  0.0132
   5.6749E-01   5.8130E-01   8.5707E-04  0.0130
   5.8130E-01   5.9544E-01   8.0341E-04  0.0133
   5.9544E-01   6.0993E-01   7.8674E-04  0.0132
   6.0993E-01   6.2477E-01   7.7223E-04  0.0132
   6.2477E-01   6.3997E-01   7.4297E-04  0.0133
   6.3997E-01   6.5554E-01   7.1916E-04  0.0134
   6.5554E-01   6.7149E-01   7.1424E-04  0.0133
   6.7149E-01   6.8783E-01   6.7855E-04  0.0134
   6.8783E-01   7.0456E-01   6.6404E-04  0.0134
   7.0456E-01   7.2171E-01   6.5457E-04  0.0134
   7.2171E-01   7.3927E-01   6.2467E-04  0.0135
   7.3927E-01   7.5725E-01   6.0611E-04  0.0135
   7.5725E-01   7.7568E-01   5.7868E-04  0.0137
   7.7568E-01   7.9455E-01   5.7140E-04  0.0136
   7.9455E-01   8.1388E-01   5.4655E-04  0.0138
   8.1388E-01   8.3368E-01   5.2317E-04  0.0139
   8.3368E-01   8.5397E-01   5.0724E-04  0.0139
   8.5397E-01   8.7475E-01   4.8605E-04  0.0141
   8.7475E-01   8.9603E-01   4.7775E-04  0.0140
   8.9603E-01   9.1783E-01   4.6126E-04  0.0141
   9.1783E-01   9.4016E-01   4.3284E-04  0.0144
   9.4016E-01   9.6304E-01   4.1740E-04  0.0145
   9.6304E-01   9.8647E-01   3.9665E-04  0.0147
   9.8647E-01   1.0105E+00   3.8839E-04  0.0147
   1.0105E+00   1.0351E+00   3.8494E-04  0.0145
   1.0351E+00   1.0602E+00   3.8112E-04  0.0144
   1.0602E+00   1.0860E+00   3.8331E-04  0.0142
   1.0860E+00   1.1125E+00   4.0758E-04  0.0136
   1.1125E+00   1.1395E+00   3.9967E-04  0.0136
   1.1395E+00   1.1673E+00   4.1518E-04  0.0132
   1.1673E+00   1.1957E+00   4.4292E-04  0.0126
   1.1957E+00   1.2247E+00   4.3511E-04  0.0126
   1.2247E+00   1.2545E+00   4.3975E-04  0.0124
   1.2545E+00   1.2851E+00   4.4090E-04  0.0122
   1.2851E+00   1.3163E+00   4.4923E-04  0.0119
   1.3163E+00   1.3484E+00   4.5267E-04  0.0117
   1.3484E+00   1.3812E+00   4.7237E-04  0.0114
   1.3812E+00   1.4148E+00   4.7808E-04  0.0112
   1.4148E+00   1.4492E+00   4.6894E-04  0.0111
   1.4492E+00   1.4845E+00   4.7674E-04  0.0109
   1.4845E+00   1.5206E+00   4.6941E-04  0.0109
   1.5206E+00   1.5576E+00   4.7704E-04  0.0106
   1.5576E+00   1.5955E+00   4.7624E-04  0.0105
   1.5955E+00   1.6343E+00   4.7799E-04  0.0104
   1.6343E+00   1.6741E+00   4.8416E-04  0.0102
   1.6741E+00   1.7148E+00   4.9648E-04  0.0099
   1.7148E+00   1.7565E+00   4.9523E-04  0.0098
   1.7565E+00   1.7992E+00   4.8305E-04  0.0098
   1.7992E+00   1.8430E+00   4.8325E-04  0.0097
   1.8430E+00   1.8879E+00   4.8080E-04  0.0096
   1.8879E+00   1.9338E+00   4.8414E-04  0.0095
   1.9338E+00   1.9808E+00   4.8492E-04  0.0094
   1.9808E+00   2.0290E+00   4.8805E-04  0.0092
   2.0290E+00   2.0784E+00   4.7606E-04  0.0092
   2.0784E+00   2.1290E+00   4.7054E-04  0.0092
   2.1290E+00   2.1808E+00   4.6427E-04  0.0091
   2.1808E+00   2.2338E+00   4.5616E-04  0.0091
   2.2338E+00   2.2882E+00   4.4452E-04  0.0091
   2.2882E+00   2.3439E+00   4.4930E-04  0.0089
   2.3439E+00   2.4009E+00   4.4150E-04  0.0089
   2.4009E+00   2.4593E+00   4.3464E-04  0.0089
   2.4593E+00   2.5191E+00   4.2796E-04  0.0088
   2.5191E+00   2.5804E+00   4.0925E-04  0.0089
   2.5804E+00   2.6432E+00   3.9529E-04  0.0090
   2.6432E+00   2.7075E+00   3.9396E-04  0.0089
   2.7075E+00   2.7734E+00   3.7352E-04  0.0090
   2.7734E+00   2.8409E+00   3.8151E-04  0.0088
   2.8409E+00   2.9100E+00   3.6472E-04  0.0089
   2.9100E+00   2.9808E+00   3.6386E-04  0.0088
   2.9808E+00   3.0533E+00   3.5113E-04  0.0089
   3.0533E+00   3.1276E+00   3.3517E-04  0.0090
   3.1276E+00   3.2037E+00   3.1789E-04  0.0091
   3.2037E+00   3.2817E+00   3.0830E-04  0.0091
   3.2817E+00   3.3615E+00   2.9987E-04  0.0091
   3.3615E+00   3.4433E+00   2.8628E-04  0.0092
   3.4433E+00   3.5271E+00   2.7964E-04  0.0092
   3.5271E+00   3.6129E+00   2.7070E-04  0.0093
   3.6129E+00   3.7008E+00   2.6131E-04  0.0093
   3.7008E+00   3.7908E+00   2.4788E-04  0.0095
   3.7908E+00   3.8831E+00   2.4004E-04  0.0095
   3.8831E+00   3.9776E+00   2.2546E-04  0.0097
   3.9776E+00   4.0743E+00   2.2123E-04  0.0097
   4.0743E+00   4.1735E+00   2.1055E-04  0.0098
   4.1735E+00   4.2750E+00   1.9823E-04  0.0100
   4.2750E+00   4.3790E+00   1.8963E-04  0.0101
   4.3790E+00   4.4856E+00   1.7867E-04  0.0103
   4.4856E+00   4.5947E+00   1.6938E-04  0.0104
   4.5947E+00   4.7065E+00   1.6205E-04  0.0105
   4.7065E+00   4.8210E+00   1.5373E-04  0.0107
   4.8210E+00   4.9383E+00   1.4576E-04  0.0108
   4.9383E+00   5.0585E+00   1.3934E-04  0.0109
   5.0585E+00   5.1815E+00   1.2982E-04  0.0112
   5.1815E+00   5.3076E+00   1.2542E-04  0.0112
   5.3076E+00   5.4368E+00   1.1880E-04  0.0114
   5.4368E+00   5.5690E+00   1.1323E-04  0.0116
   5.5690E+00   5.7045E+00   1.0714E-04  0.0117
   5.7045E+00   5.8433E+00   1.0150E-04  0.0119
   5.8433E+00   5.9855E+00   9.4990E-05  0.0122
   5.9855E+00   6.1311E+00   9.4354E-05  0.0121
   6.1311E+00   6.2803E+00   8.7769E-05  0.0124
   6.2803E+00   6.4331E+00   8.2779E-05  0.0126
   6.4331E+00   6.5896E+00   7.9254E-05  0.0127
   6.5896E+00   6.7500E+00   7.5070E-05  0.0129
   6.7500E+00   6.9142E+00   7.2221E-05  0.0130
   6.9142E+00   7.0824E+00   7.0565E-05  0.0130
   7.0824E+00   7.2548E+00   6.7212E-05  0.0131
   7.2548E+00   7.4313E+00   6.4046E-05  0.0133
   7.4313E+00   7.6121E+00   6.2165E-05  0.0133
   7.6121E+00   7.7973E+00   5.9468E-05  0.0135
   7.7973E+00   7.9870E+00   5.6406E-05  0.0137
   7.9870E+00   8.1813E+00   5.5771E-05  0.0136
   8.1813E+00   8.3804E+00   5.2733E-05  0.0138
   8.3804E+00   8.5843E+00   5.1142E-05  0.0138
   8.5843E+00   8.7931E+00   5.0411E-05  0.0138
   8.7931E+00   9.0071E+00   4.9158E-05  0.0138
   9.0071E+00   9.2262E+00   4.8296E-05  0.0137
   9.2262E+00   9.4507E+00   4.8057E-05  0.0136
   9.4507E+00   9.6807E+00   4.7446E-05  0.0135
   9.6807E+00   9.9162E+00   4.5942E-05  0.0136
   9.9162E+00   1.0157E+01   4.5000E-05  0.0136
   1.0157E+01   1.0405E+01   4.5484E-05  0.0133
   1.0405E+01   1.0658E+01   4.4380E-05  0.0133
   1.0658E+01   1.0917E+01   4.3708E-05  0.0133
   1.0917E+01   1.1183E+01   4.2756E-05  0.0133
   1.1183E+01   1.1455E+01   4.1844E-05  0.0132
   1.1455E+01   1.1733E+01   4.3182E-05  0.0129
   1.1733E+01   1.2019E+01   4.2202E-05  0.0129
   1.2019E+01   1.2311E+01   4.1983E-05  0.0128
   1.2311E+01   1.2611E+01   4.1339E-05  0.0127
   1.2611E+01   1.2918E+01   4.1853E-05  0.0125
   1.2918E+01   1.3232E+01   4.2345E-05  0.0123
   1.3232E+01   1.3554E+01   4.1053E-05  0.0123
   1.3554E+01   1.3884E+01   4.2859E-05  0.0119
   1.3884E+01   1.4222E+01   4.1314E-05  0.0120
   1.4222E+01   1.4568E+01   4.1931E-05  0.0117
   1.4568E+01   1.4922E+01   4.2351E-05  0.0115
   1.4922E+01   1.5285E+01   4.2193E-05  0.0114
   1.5285E+01   1.5657E+01   4.1406E-05  0.0114
   1.5657E+01   1.6038E+01   4.2331E-05  0.0111
   1.6038E+01   1.6428E+01   4.2392E-05  0.0110
   1.6428E+01   1.6828E+01   4.3251E-05  0.0108
   1.6828E+01   1.7237E+01   4.3098E-05  0.0106
   1.7237E+01   1.7657E+01   4.4068E-05  0.0104
   1.7657E+01   1.8086E+01   4.4369E-05  0.0102
   1.8086E+01   1.8526E+01   4.4719E-05  0.0101
   1.8526E+01   1.8977E+01   4.5847E-05  0.0098
   1.8977E+01   1.9439E+01   4.5620E-05  0.0097
   1.9439E+01   1.9912E+01   4.7456E-05  0.0094
   1.9912E+01   2.0396E+01   4.7344E-05  0.0093
   2.0396E+01   2.0893E+01   4.8551E-05  0.0091
   2.0893E+01   2.1401E+01   4.9381E-05  0.0089
   2.1401E+01   2.1922E+01   5.1765E-05  0.0086
   2.1922E+01   2.2455E+01   5.2661E-05  0.0084
   2.2455E+01   2.3001E+01   5.3358E-05  0.0083
   2.3001E+01   2.3561E+01   5.5664E-05  0.0080
   2.3561E+01   2.4134E+01   5.6578E-05  0.0079
   2.4134E+01   2.4721E+01   5.8310E-05  0.0076
   2.4721E+01   2.5323E+01   6.0490E-05  0.0074
   2.5323E+01   2.5939E+01   6.3045E-05  0.0072
   2.5939E+01   2.6570E+01   6.4067E-05  0.0070
   2.6570E+01   2.7217E+01   6.6945E-05  0.0068
   2.7217E+01   2.7879E+01   6.9492E-05  0.0066
   2.7879E+01   2.8557E+01   7.2754E-05  0.0064
   2.8557E+01   2.9252E+01   7.5133E-05  0.0062
   2.9252E+01   2.9964E+01   7.7746E-05  0.0060
   2.9964E+01   3.0693E+01   8.0234E-05  0.0058
   3.0693E+01   3.1440E+01   8.2330E-05  0.0057
   3.1440E+01   3.2205E+01   8.6455E-05  0.0055
   3.2205E+01   3.2988E+01   8.8575E-05  0.0054
   3.2988E+01   3.3791E+01   9.1639E-05  0.0052
   3.3791E+01   3.4613E+01   9.4537E-05  0.0051
   3.4613E+01   3.5455E+01   9.7015E-05  0.0049
   3.5455E+01   3.6318E+01   9.9350E-05  0.0048
   3.6318E+01   3.7201E+01   1.0114E-04  0.0047
   3.7201E+01   3.8106E+01   1.0254E-04  0.0046
   3.8106E+01   3.9034E+01   1.0519E-04  0.0045
   3.9034E+01   3.9983E+01   1.0704E-04  0.0044
   3.9983E+01   4.0956E+01   1.0842E-04  0.0044
   4.0956E+01   4.1953E+01   1.1035E-04  0.0043
   4.1953E+01   4.2973E+01   1.1063E-04  0.0042
   4.2973E+01   4.4019E+01   1.1210E-04  0.0041
   4.4019E+01   4.5090E+01   1.1146E-04  0.0041
   4.5090E+01   4.6187E+01   1.1278E-04  0.0040
   4.6187E+01   4.7311E+01   1.1180E-04  0.0040
   4.7311E+01   4.8462E+01   1.1162E-04  0.0039
   4.8462E+01   4.9641E+01   1.1017E-04  0.0039
   4.9641E+01   5.0849E+01   1.0856E-04  0.0039
   5.0849E+01   5.2086E+01   1.0556E-04  0.0039
   5.2086E+01   5.3353E+01   1.0322E-04  0.0039
   5.3353E+01   5.4651E+01   9.9984E-05  0.0039
   5.4651E+01   5.5981E+01   9.5840E-05  0.0040
   5.5981E+01   5.7343E+01   9.1179E-05  0.0040
   5.7343E+01   5.8738E+01   8.6264E-05  0.0041
   5.8738E+01   6.0168E+01   8.0771E-05  0.0042
   6.0168E+01   6.1632E+01   7.4746E-05  0.0043
   6.1632E+01   6.3131E+01   6.9660E-05  0.0044
   6.3131E+01   6.4667E+01   6.3271E-05  0.0045
   6.4667E+01   6.6240E+01   5.7450E-05  0.0047
   6.6240E+01   6.7852E+01   5.1505E-05  0.0049
   6.7852E+01   6.9503E+01   4.6353E-05  0.0051
   6.9503E+01   7.1194E+01   4.1180E-05  0.0054
   7.1194E+01   7.2926E+01   3.6940E-05  0.0056
   7.2926E+01   7.4701E+01   3.2105E-05  0.0059
   7.4701E+01   7.6518E+01   2.8566E-05  0.0062
   7.6518E+01   7.8380E+01   2.5106E-05  0.0065
   7.8380E+01   8.0287E+01   2.1870E-05  0.0069
   8.0287E+01   8.2240E+01   1.9095E-05  0.0073
   8.2240E+01   8.4241E+01   1.6669E-05  0.0077
   8.4241E+01   8.6291E+01   1.4296E-05  0.0083
   8.6291E+01   8.8391E+01   1.2514E-05  0.0087
   8.8391E+01   9.0541E+01   1.0657E-05  0.0093
   9.0541E+01   9.2744E+01   9.1904E-06  0.0099
   9.2744E+01   9.5001E+01   7.7579E-06  0.0107
   9.5001E+01   9.7312E+01   6.6703E-06  0.0114
   9.7312E+01   9.9680E+01   5.7736E-06  0.0121
   9.9680E+01   1.0211E+02   4.9124E-06  0.0130
   1.0211E+02   1.0459E+02   4.1146E-06  0.0140
   1.0459E+02   1.0713E+02   3.3999E-06  0.0152
   1.0713E+02   1.0974E+02   2.8373E-06  0.0164
   1.0974E+02   1.1241E+02   2.2134E-06  0.0184
   1.1241E+02   1.1515E+02   1.6958E-06  0.0208
   1.1515E+02   1.1795E+02   1.1950E-06  0.0244
   1.1795E+02   1.2082E+02   8.2237E-07  0.0291
   1.2082E+02   1.2376E+02   4.5040E-07  0.0389
   1.2376E+02   1.2677E+02   1.4546E-07  0.0676
   1.2677E+02   1.2985E+02   0.0000E+00  0.0000
   1.2985E+02   1.3301E+02   0.0000E+00  0.0000
   1.3301E+02   1.3625E+02   0.0000E+00  0.0000
   1.3625E+02   1.3956E+02   0.0000E+00  0.0000
   1.3956E+02   1.4296E+02   0.0000E+00  0.0000
   1.4296E+02   1.4644E+02   0.0000E+00  0.0000
   1.4644E+02   1.5000E+02   0.0000E+00  0.0000

#   sum over                 5.7052E-05
'no. =    1   reg = 104 - 204'
msuc: {\huge [t-cross] in region mesh}
msdr: {\it plotted by \ANGEL \version}
msdl: {\it calculated by \PHITS  3.26}
wt: s(0.7)
\vspace{-3}
  region surface crossing
  area  &=&   1.0000E+00 [cm^2]
e:
 
# Information for Restart Calculation
# This calculation was newly started
# istdev =  2 # 1:Batch variance, 2:History variance
# resc2  = 5.00000000000000000E+08 # Total source weight or Total source weight / maxcas
# resc3  = 5.00000000000000000E+08 # Total history number or Total batch number
# maxcas =   500000000 # History / Batch, only used for istdev=1
# bitrseed = 1101101111010011011000101101110001100110110010110001010100010001 # bit data of rseed
