[ T-Cross ]
    title = [t-cross] in region mesh
     mesh =  reg            # mesh type is region-wise
      reg =    1            # number of crossing regions
      non     r-from    r-to       area
      1       110       210        1.000000    
   e-type =    3            # e-mesh is log given by emin, emax and ne
     emin =  1.0000000E-02  # minimum value of e-mesh points
     emax =   150.0000      # maximum value of e-mesh points
#    edel =  2.4039514E-02  # mesh width of e-mesh points
       ne =    400          # number of e-mesh points
#    data = ( e(i), i = 1, ne + 1 )
#           1.00000E-02  1.02433E-02  1.04925E-02  1.07478E-02  1.10093E-02
#           1.12772E-02  1.15516E-02  1.18326E-02  1.21205E-02  1.24154E-02
#           1.27175E-02  1.30269E-02  1.33439E-02  1.36686E-02  1.40011E-02
#           1.43418E-02  1.46907E-02  1.50482E-02  1.54143E-02  1.57894E-02
#           1.61735E-02  1.65670E-02  1.69701E-02  1.73830E-02  1.78060E-02
#           1.82392E-02  1.86830E-02  1.91375E-02  1.96032E-02  2.00801E-02
#           2.05687E-02  2.10692E-02  2.15818E-02  2.21069E-02  2.26448E-02
#           2.31957E-02  2.37601E-02  2.43382E-02  2.49304E-02  2.55369E-02
#           2.61583E-02  2.67947E-02  2.74467E-02  2.81145E-02  2.87985E-02
#           2.94992E-02  3.02169E-02  3.09521E-02  3.17052E-02  3.24766E-02
#           3.32668E-02  3.40762E-02  3.49053E-02  3.57546E-02  3.66246E-02
#           3.75157E-02  3.84284E-02  3.93634E-02  4.03212E-02  4.13022E-02
#           4.23071E-02  4.33365E-02  4.43909E-02  4.54710E-02  4.65773E-02
#           4.77106E-02  4.88714E-02  5.00605E-02  5.12785E-02  5.25262E-02
#           5.38042E-02  5.51133E-02  5.64542E-02  5.78278E-02  5.92348E-02
#           6.06760E-02  6.21523E-02  6.36645E-02  6.52135E-02  6.68002E-02
#           6.84255E-02  7.00904E-02  7.17957E-02  7.35426E-02  7.53319E-02
#           7.71648E-02  7.90423E-02  8.09655E-02  8.29354E-02  8.49533E-02
#           8.70203E-02  8.91376E-02  9.13064E-02  9.35279E-02  9.58035E-02
#           9.81345E-02  1.00522E-01  1.02968E-01  1.05473E-01  1.08040E-01
#           1.10668E-01  1.13361E-01  1.16119E-01  1.18944E-01  1.21838E-01
#           1.24803E-01  1.27839E-01  1.30950E-01  1.34136E-01  1.37399E-01
#           1.40742E-01  1.44167E-01  1.47675E-01  1.51268E-01  1.54948E-01
#           1.58718E-01  1.62580E-01  1.66535E-01  1.70587E-01  1.74738E-01
#           1.78989E-01  1.83344E-01  1.87805E-01  1.92375E-01  1.97055E-01
#           2.01850E-01  2.06761E-01  2.11792E-01  2.16945E-01  2.22223E-01
#           2.27630E-01  2.33169E-01  2.38842E-01  2.44653E-01  2.50605E-01
#           2.56703E-01  2.62949E-01  2.69346E-01  2.75900E-01  2.82613E-01
#           2.89489E-01  2.96532E-01  3.03747E-01  3.11138E-01  3.18708E-01
#           3.26462E-01  3.34405E-01  3.42542E-01  3.50876E-01  3.59413E-01
#           3.68158E-01  3.77116E-01  3.86291E-01  3.95690E-01  4.05317E-01
#           4.15179E-01  4.25281E-01  4.35628E-01  4.46227E-01  4.57084E-01
#           4.68205E-01  4.79597E-01  4.91266E-01  5.03219E-01  5.15463E-01
#           5.28005E-01  5.40851E-01  5.54011E-01  5.67490E-01  5.81298E-01
#           5.95441E-01  6.09929E-01  6.24769E-01  6.39970E-01  6.55541E-01
#           6.71491E-01  6.87828E-01  7.04564E-01  7.21706E-01  7.39266E-01
#           7.57253E-01  7.75678E-01  7.94551E-01  8.13883E-01  8.33685E-01
#           8.53969E-01  8.74747E-01  8.96030E-01  9.17831E-01  9.40163E-01
#           9.63038E-01  9.86469E-01  1.01047E+00  1.03506E+00  1.06024E+00
#           1.08604E+00  1.11246E+00  1.13953E+00  1.16725E+00  1.19565E+00
#           1.22474E+00  1.25454E+00  1.28507E+00  1.31633E+00  1.34836E+00
#           1.38117E+00  1.41477E+00  1.44920E+00  1.48446E+00  1.52057E+00
#           1.55757E+00  1.59547E+00  1.63429E+00  1.67405E+00  1.71478E+00
#           1.75650E+00  1.79924E+00  1.84302E+00  1.88786E+00  1.93379E+00
#           1.98084E+00  2.02904E+00  2.07841E+00  2.12898E+00  2.18078E+00
#           2.23384E+00  2.28819E+00  2.34386E+00  2.40089E+00  2.45930E+00
#           2.51914E+00  2.58043E+00  2.64322E+00  2.70753E+00  2.77341E+00
#           2.84088E+00  2.91001E+00  2.98081E+00  3.05333E+00  3.12762E+00
#           3.20372E+00  3.28167E+00  3.36152E+00  3.44330E+00  3.52708E+00
#           3.61290E+00  3.70080E+00  3.79085E+00  3.88308E+00  3.97756E+00
#           4.07434E+00  4.17347E+00  4.27501E+00  4.37903E+00  4.48557E+00
#           4.59471E+00  4.70650E+00  4.82102E+00  4.93832E+00  5.05847E+00
#           5.18155E+00  5.30762E+00  5.43676E+00  5.56904E+00  5.70453E+00
#           5.84333E+00  5.98550E+00  6.13114E+00  6.28031E+00  6.43312E+00
#           6.58964E+00  6.74997E+00  6.91420E+00  7.08243E+00  7.25475E+00
#           7.43126E+00  7.61207E+00  7.79728E+00  7.98700E+00  8.18133E+00
#           8.38038E+00  8.58428E+00  8.79315E+00  9.00709E+00  9.22624E+00
#           9.45072E+00  9.68067E+00  9.91620E+00  1.01575E+01  1.04046E+01
#           1.06578E+01  1.09171E+01  1.11827E+01  1.14548E+01  1.17335E+01
#           1.20190E+01  1.23114E+01  1.26109E+01  1.29178E+01  1.32321E+01
#           1.35540E+01  1.38838E+01  1.42216E+01  1.45676E+01  1.49221E+01
#           1.52851E+01  1.56570E+01  1.60380E+01  1.64282E+01  1.68279E+01
#           1.72374E+01  1.76568E+01  1.80864E+01  1.85264E+01  1.89772E+01
#           1.94389E+01  1.99119E+01  2.03963E+01  2.08926E+01  2.14009E+01
#           2.19216E+01  2.24550E+01  2.30014E+01  2.35610E+01  2.41343E+01
#           2.47215E+01  2.53230E+01  2.59391E+01  2.65702E+01  2.72167E+01
#           2.78789E+01  2.85572E+01  2.92520E+01  2.99637E+01  3.06928E+01
#           3.14396E+01  3.22045E+01  3.29881E+01  3.37907E+01  3.46128E+01
#           3.54550E+01  3.63177E+01  3.72013E+01  3.81064E+01  3.90336E+01
#           3.99833E+01  4.09561E+01  4.19526E+01  4.29734E+01  4.40189E+01
#           4.50900E+01  4.61870E+01  4.73108E+01  4.84619E+01  4.96410E+01
#           5.08488E+01  5.20860E+01  5.33533E+01  5.46514E+01  5.59812E+01
#           5.73432E+01  5.87384E+01  6.01676E+01  6.16315E+01  6.31311E+01
#           6.46671E+01  6.62405E+01  6.78522E+01  6.95031E+01  7.11941E+01
#           7.29263E+01  7.47007E+01  7.65182E+01  7.83800E+01  8.02870E+01
#           8.22405E+01  8.42414E+01  8.62911E+01  8.83906E+01  9.05412E+01
#           9.27442E+01  9.50007E+01  9.73122E+01  9.96799E+01  1.02105E+02
#           1.04589E+02  1.07134E+02  1.09741E+02  1.12411E+02  1.15146E+02
#           1.17948E+02  1.20817E+02  1.23757E+02  1.26768E+02  1.29852E+02
#           1.33012E+02  1.36248E+02  1.39563E+02  1.42959E+02  1.46437E+02
#           1.50000E+02
     unit =    2            # unit is [1/cm^2/(MeV/n)/source]
     axis =  eng            # axis of output
     file = detector-11.out  # file name of output for the above axis
   output = f-curr          # surface crossing forward current spectrum
     part =  neutron  
# kf/name :  2112     
#    used :        main (  %)        temp (  %)       total (  %)
#  memory :         414 (  0)           0 (  0)         414 (  0)

#------------------------------------------------------------------------------
#newpage:
#   no. =    1   reg = 110 - 210

x: Energy [MeV/n]
y:  F-Curr [1/cm^2/(MeV/n)/source]         
p: xlog ylog afac(0.8) form(0.9)
h: n            x            y(neutron ),hh0l   n 
#  e-lower      e-upper      neutron     r.err 
   1.0000E-02   1.0243E-02   1.0464E-05  0.2779
   1.0243E-02   1.0493E-02   6.3748E-06  0.3536
   1.0493E-02   1.0748E-02   4.6775E-06  0.4083
   1.0748E-02   1.1009E-02   5.3264E-06  0.3780
   1.1009E-02   1.1277E-02   9.6516E-06  0.2774
   1.1277E-02   1.1552E-02   7.2510E-06  0.3162
   1.1552E-02   1.1833E-02   7.7132E-06  0.3016
   1.1833E-02   1.2121E-02   6.1024E-06  0.3337
   1.2121E-02   1.2415E-02   6.7349E-06  0.3162
   1.2415E-02   1.2718E-02   1.9751E-06  0.5774
   1.2718E-02   1.3027E-02   6.2955E-06  0.3168
   1.3027E-02   1.3344E-02   3.7607E-06  0.4083
   1.3344E-02   1.3669E-02   5.5186E-06  0.3333
   1.3669E-02   1.4001E-02   5.9851E-06  0.3162
   1.4001E-02   1.4342E-02   4.0891E-06  0.3780
   1.4342E-02   1.4691E-02   6.8445E-06  0.2887
   1.4691E-02   1.5048E-02   7.2134E-06  0.2774
   1.5048E-02   1.5414E-02   4.8908E-06  0.3333
   1.5414E-02   1.5789E-02   6.9002E-06  0.2774
   1.5789E-02   1.6174E-02   1.5566E-06  0.5774
   1.6174E-02   1.6567E-02   4.7799E-06  0.3185
   1.6567E-02   1.6970E-02   4.8801E-06  0.3163
   1.6970E-02   1.7383E-02   2.8769E-06  0.4083
   1.7383E-02   1.7806E-02   2.8303E-06  0.4082
   1.7806E-02   1.8239E-02   2.7559E-06  0.4082
   1.8239E-02   1.8683E-02   3.5897E-06  0.3536
   1.8683E-02   1.9138E-02   3.9433E-06  0.3333
   1.9138E-02   1.9603E-02   4.7020E-06  0.3015
   1.9603E-02   2.0080E-02   3.7571E-06  0.3333
   2.0080E-02   2.0569E-02   5.2798E-06  0.2774
   2.0569E-02   2.1069E-02   4.7808E-06  0.2887
   2.1069E-02   2.1582E-02   3.4225E-06  0.3338
   2.1582E-02   2.2107E-02   3.4073E-06  0.3333
   2.2107E-02   2.2645E-02   2.9648E-06  0.3536
   2.2645E-02   2.3196E-02   3.5374E-06  0.3169
   2.3196E-02   2.3760E-02   5.2247E-06  0.2583
   2.3760E-02   2.4338E-02   1.9989E-06  0.4091
   2.4338E-02   2.4930E-02   3.3598E-06  0.3162
   2.4930E-02   2.5537E-02   3.9425E-06  0.2887
   2.5537E-02   2.6158E-02   2.8651E-06  0.3333
   2.6158E-02   2.6795E-02   2.1925E-06  0.3780
   2.6795E-02   2.7447E-02   3.6643E-06  0.2887
   2.7447E-02   2.8114E-02   2.0883E-06  0.3780
   2.8114E-02   2.8799E-02   3.4935E-06  0.2887
   2.8799E-02   2.9499E-02   2.5517E-06  0.3333
   2.9499E-02   3.0217E-02   2.2191E-06  0.3536
   3.0217E-02   3.0952E-02   1.6225E-06  0.4083
   3.0952E-02   3.1705E-02   3.0997E-06  0.2891
   3.1705E-02   3.2477E-02   2.5768E-06  0.3162
   3.2477E-02   3.3267E-02   1.5094E-06  0.4083
   3.3267E-02   3.4076E-02   2.6687E-06  0.3018
   3.4076E-02   3.4905E-02   2.1268E-06  0.3335
   3.4905E-02   3.5755E-02   1.4068E-06  0.4083
   3.5755E-02   3.6625E-02   1.5970E-06  0.3780
   3.6625E-02   3.7516E-02   1.3432E-06  0.4082
   3.7516E-02   3.8428E-02   3.0131E-06  0.2676
   3.8428E-02   3.9363E-02   1.7035E-06  0.3536
   3.9363E-02   4.0321E-02   1.8071E-06  0.3351
   4.0321E-02   4.1302E-02   2.6368E-06  0.2774
   4.1302E-02   4.2307E-02   1.7821E-06  0.3333
   4.2307E-02   4.3337E-02   2.1243E-06  0.3015
   4.3337E-02   4.4391E-02   7.5446E-07  0.5000
   4.4391E-02   4.5471E-02   5.3724E-07  0.5777
   4.5471E-02   4.6577E-02   1.5587E-06  0.3353
   4.6577E-02   4.7711E-02   2.2843E-06  0.2774
   4.7711E-02   4.8871E-02   5.1435E-07  0.5774
   4.8871E-02   5.0061E-02   2.1769E-06  0.2774
   5.0061E-02   5.1279E-02   2.1238E-06  0.2774
   5.1279E-02   5.2526E-02   2.0746E-06  0.2774
   5.2526E-02   5.3804E-02   1.5595E-06  0.3162
   5.3804E-02   5.5113E-02   1.7718E-06  0.2900
   5.5113E-02   5.6454E-02   1.3260E-06  0.3334
   5.6454E-02   5.7828E-02   1.5382E-06  0.3031
   5.7828E-02   5.9235E-02   1.6936E-06  0.2887
   5.9235E-02   6.0676E-02   9.5480E-07  0.3782
   6.0676E-02   6.2152E-02   1.0084E-06  0.3551
   6.2152E-02   6.3665E-02   2.0621E-06  0.2503
   6.3665E-02   6.5214E-02   1.4019E-06  0.3015
   6.5214E-02   6.6800E-02   1.7314E-06  0.2677
   6.6800E-02   6.8426E-02   1.4737E-06  0.2887
   6.8426E-02   7.0090E-02   1.5160E-06  0.2778
   7.0090E-02   7.1796E-02   1.4499E-06  0.2790
   7.1796E-02   7.3543E-02   1.2519E-06  0.3015
   7.3543E-02   7.5332E-02   2.1964E-06  0.2239
   7.5332E-02   7.7165E-02   8.6926E-07  0.3536
   7.7165E-02   7.9042E-02   9.5607E-07  0.3333
   7.9042E-02   8.0965E-02   1.6497E-06  0.2501
   8.0965E-02   8.2935E-02   8.0819E-07  0.3536
   8.2935E-02   8.4953E-02   5.9291E-07  0.4082
   8.4953E-02   8.7020E-02   1.3180E-06  0.2677
   8.7020E-02   8.9138E-02   1.6934E-06  0.2357
   8.9138E-02   9.1306E-02   1.1934E-06  0.2774
   9.1306E-02   9.3528E-02   1.2551E-06  0.2673
   9.3528E-02   9.5804E-02   6.9684E-07  0.3536
   9.5804E-02   9.8134E-02   1.5242E-06  0.2358
   9.8134E-02   1.0052E-01   1.0020E-06  0.2887
   1.0052E-01   1.0297E-01   1.1255E-06  0.2675
   1.0297E-01   1.0547E-01   1.8917E-06  0.2042
   1.0547E-01   1.0804E-01   1.1622E-06  0.2582
   1.0804E-01   1.1067E-01   6.0567E-07  0.3536
   1.1067E-01   1.1336E-01   1.1837E-06  0.2500
   1.1336E-01   1.1612E-01   1.5760E-06  0.2133
   1.1612E-01   1.1894E-01   9.1398E-07  0.2774
   1.1894E-01   1.2184E-01   1.7680E-06  0.1963
   1.2184E-01   1.2480E-01   1.2516E-06  0.2301
   1.2480E-01   1.2784E-01   1.6927E-06  0.1962
   1.2784E-01   1.3095E-01   1.3443E-06  0.2182
   1.3095E-01   1.3414E-01   2.3030E-06  0.1644
   1.3414E-01   1.3740E-01   1.6981E-06  0.1890
   1.3740E-01   1.4074E-01   1.9519E-06  0.1742
   1.4074E-01   1.4417E-01   1.8586E-06  0.1768
   1.4417E-01   1.4767E-01   2.3818E-06  0.1543
   1.4767E-01   1.5127E-01   2.5629E-06  0.1461
   1.5127E-01   1.5495E-01   2.5471E-06  0.1452
   1.5495E-01   1.5872E-01   1.4078E-06  0.1917
   1.5872E-01   1.6258E-01   1.7014E-06  0.1741
   1.6258E-01   1.6654E-01   2.2028E-06  0.1508
   1.6654E-01   1.7059E-01   2.5666E-06  0.1376
   1.7059E-01   1.7474E-01   2.5349E-06  0.1374
   1.7474E-01   1.7899E-01   2.8105E-06  0.1291
   1.7899E-01   1.8334E-01   2.3098E-06  0.1401
   1.8334E-01   1.8781E-01   2.4005E-06  0.1361
   1.8781E-01   1.9237E-01   3.4595E-06  0.1119
   1.9237E-01   1.9706E-01   4.1365E-06  0.1011
   1.9706E-01   2.0185E-01   3.4630E-06  0.1092
   2.0185E-01   2.0676E-01   3.6215E-06  0.1050
   2.0676E-01   2.1179E-01   3.3575E-06  0.1085
   2.1179E-01   2.1694E-01   3.8809E-06  0.0995
   2.1694E-01   2.2222E-01   4.1837E-06  0.0946
   2.2222E-01   2.2763E-01   4.3719E-06  0.0914
   2.2763E-01   2.3317E-01   3.4413E-06  0.1021
   2.3317E-01   2.3884E-01   4.2739E-06  0.0905
   2.3884E-01   2.4465E-01   4.9737E-06  0.0828
   2.4465E-01   2.5061E-01   5.1756E-06  0.0802
   2.5061E-01   2.5670E-01   4.1043E-06  0.0891
   2.5670E-01   2.6295E-01   5.2223E-06  0.0779
   2.6295E-01   2.6935E-01   4.9460E-06  0.0791
   2.6935E-01   2.7590E-01   4.9578E-06  0.0781
   2.7590E-01   2.8261E-01   5.6478E-06  0.0722
   2.8261E-01   2.8949E-01   5.0493E-06  0.0755
   2.8949E-01   2.9653E-01   5.0825E-06  0.0744
   2.9653E-01   3.0375E-01   6.3903E-06  0.0655
   3.0375E-01   3.1114E-01   5.8018E-06  0.0678
   3.1114E-01   3.1871E-01   6.3486E-06  0.0643
   3.1871E-01   3.2646E-01   5.9910E-06  0.0654
   3.2646E-01   3.3441E-01   6.6801E-06  0.0610
   3.3441E-01   3.4254E-01   6.9597E-06  0.0592
   3.4254E-01   3.5088E-01   6.6923E-06  0.0597
   3.5088E-01   3.5941E-01   7.3462E-06  0.0562
   3.5941E-01   3.6816E-01   6.7516E-06  0.0579
   3.6816E-01   3.7712E-01   7.5641E-06  0.0541
   3.7712E-01   3.8629E-01   7.0121E-06  0.0554
   3.8629E-01   3.9569E-01   7.9582E-06  0.0515
   3.9569E-01   4.0532E-01   8.0914E-06  0.0504
   4.0532E-01   4.1518E-01   8.0670E-06  0.0498
   4.1518E-01   4.2528E-01   7.5662E-06  0.0509
   4.2528E-01   4.3563E-01   7.1725E-06  0.0516
   4.3563E-01   4.4623E-01   8.0574E-06  0.0481
   4.4623E-01   4.5708E-01   8.5830E-06  0.0461
   4.5708E-01   4.6821E-01   7.6439E-06  0.0483
   4.6821E-01   4.7960E-01   9.4171E-06  0.0429
   4.7960E-01   4.9127E-01   8.9249E-06  0.0436
   4.9127E-01   5.0322E-01   9.0973E-06  0.0426
   5.0322E-01   5.1546E-01   9.2101E-06  0.0418
   5.1546E-01   5.2800E-01   8.9750E-06  0.0419
   5.2800E-01   5.4085E-01   9.3482E-06  0.0406
   5.4085E-01   5.5401E-01   9.4084E-06  0.0400
   5.5401E-01   5.6749E-01   9.6497E-06  0.0390
   5.6749E-01   5.8130E-01   9.2107E-06  0.0394
   5.8130E-01   5.9544E-01   9.5936E-06  0.0382
   5.9544E-01   6.0993E-01   9.8195E-06  0.0372
   6.0993E-01   6.2477E-01   9.9151E-06  0.0367
   6.2477E-01   6.3997E-01   9.3902E-06  0.0372
   6.3997E-01   6.5554E-01   1.0190E-05  0.0352
   6.5554E-01   6.7149E-01   9.7119E-06  0.0357
   6.7149E-01   6.8783E-01   1.0097E-05  0.0346
   6.8783E-01   7.0456E-01   9.7291E-06  0.0348
   7.0456E-01   7.2171E-01   9.3770E-06  0.0350
   7.2171E-01   7.3927E-01   9.5079E-06  0.0344
   7.3927E-01   7.5725E-01   9.5123E-06  0.0339
   7.5725E-01   7.7568E-01   9.2010E-06  0.0341
   7.7568E-01   7.9455E-01   9.1587E-06  0.0338
   7.9455E-01   8.1388E-01   9.1253E-06  0.0334
   8.1388E-01   8.3368E-01   8.7654E-06  0.0337
   8.3368E-01   8.5397E-01   8.6998E-06  0.0334
   8.5397E-01   8.7475E-01   8.2190E-06  0.0339
   8.7475E-01   8.9603E-01   8.0512E-06  0.0338
   8.9603E-01   9.1783E-01   7.3642E-06  0.0350
   9.1783E-01   9.4016E-01   7.6740E-06  0.0338
   9.4016E-01   9.6304E-01   7.4948E-06  0.0338
   9.6304E-01   9.8647E-01   7.0449E-06  0.0345
   9.8647E-01   1.0105E+00   7.5424E-06  0.0329
   1.0105E+00   1.0351E+00   7.3461E-06  0.0329
   1.0351E+00   1.0602E+00   8.1108E-06  0.0310
   1.0602E+00   1.0860E+00   7.7535E-06  0.0313
   1.0860E+00   1.1125E+00   7.4959E-06  0.0314
   1.1125E+00   1.1395E+00   8.3683E-06  0.0294
   1.1395E+00   1.1673E+00   8.4083E-06  0.0290
   1.1673E+00   1.1957E+00   8.4239E-06  0.0286
   1.1957E+00   1.2247E+00   9.2432E-06  0.0269
   1.2247E+00   1.2545E+00   9.2664E-06  0.0266
   1.2545E+00   1.2851E+00   9.5630E-06  0.0258
   1.2851E+00   1.3163E+00   9.8767E-06  0.0251
   1.3163E+00   1.3484E+00   9.9425E-06  0.0248
   1.3484E+00   1.3812E+00   1.0261E-05  0.0240
   1.3812E+00   1.4148E+00   1.0937E-05  0.0230
   1.4148E+00   1.4492E+00   1.0544E-05  0.0231
   1.4492E+00   1.4845E+00   1.0806E-05  0.0226
   1.4845E+00   1.5206E+00   1.1053E-05  0.0220
   1.5206E+00   1.5576E+00   1.1432E-05  0.0214
   1.5576E+00   1.5955E+00   1.0919E-05  0.0216
   1.5955E+00   1.6343E+00   1.1603E-05  0.0207
   1.6343E+00   1.6741E+00   1.1793E-05  0.0203
   1.6741E+00   1.7148E+00   1.1134E-05  0.0206
   1.7148E+00   1.7565E+00   1.1108E-05  0.0204
   1.7565E+00   1.7992E+00   1.0313E-05  0.0208
   1.7992E+00   1.8430E+00   1.0461E-05  0.0204
   1.8430E+00   1.8879E+00   1.0070E-05  0.0205
   1.8879E+00   1.9338E+00   1.0102E-05  0.0202
   1.9338E+00   1.9808E+00   1.0248E-05  0.0198
   1.9808E+00   2.0290E+00   1.0528E-05  0.0193
   2.0290E+00   2.0784E+00   1.0615E-05  0.0189
   2.0784E+00   2.1290E+00   1.0505E-05  0.0188
   2.1290E+00   2.1808E+00   1.1111E-05  0.0180
   2.1808E+00   2.2338E+00   1.0978E-05  0.0179
   2.2338E+00   2.2882E+00   1.0489E-05  0.0181
   2.2882E+00   2.3439E+00   1.0671E-05  0.0178
   2.3439E+00   2.4009E+00   1.0581E-05  0.0177
   2.4009E+00   2.4593E+00   1.0824E-05  0.0173
   2.4593E+00   2.5191E+00   1.0160E-05  0.0176
   2.5191E+00   2.5804E+00   1.0606E-05  0.0171
   2.5804E+00   2.6432E+00   1.0507E-05  0.0169
   2.6432E+00   2.7075E+00   9.9664E-06  0.0172
   2.7075E+00   2.7734E+00   9.9674E-06  0.0170
   2.7734E+00   2.8409E+00   9.8750E-06  0.0169
   2.8409E+00   2.9100E+00   9.9411E-06  0.0166
   2.9100E+00   2.9808E+00   1.0100E-05  0.0163
   2.9808E+00   3.0533E+00   9.8868E-06  0.0163
   3.0533E+00   3.1276E+00   9.7792E-06  0.0162
   3.1276E+00   3.2037E+00   9.3178E-06  0.0164
   3.2037E+00   3.2817E+00   9.4693E-06  0.0161
   3.2817E+00   3.3615E+00   9.0734E-06  0.0162
   3.3615E+00   3.4433E+00   9.0093E-06  0.0162
   3.4433E+00   3.5271E+00   8.6684E-06  0.0163
   3.5271E+00   3.6129E+00   8.6268E-06  0.0161
   3.6129E+00   3.7008E+00   8.1091E-06  0.0164
   3.7008E+00   3.7908E+00   8.4055E-06  0.0160
   3.7908E+00   3.8831E+00   7.9559E-06  0.0162
   3.8831E+00   3.9776E+00   7.6517E-06  0.0163
   3.9776E+00   4.0743E+00   7.7018E-06  0.0161
   4.0743E+00   4.1735E+00   7.4273E-06  0.0162
   4.1735E+00   4.2750E+00   7.0196E-06  0.0164
   4.2750E+00   4.3790E+00   6.8438E-06  0.0165
   4.3790E+00   4.4856E+00   6.6909E-06  0.0164
   4.4856E+00   4.5947E+00   6.1683E-06  0.0169
   4.5947E+00   4.7065E+00   6.0361E-06  0.0169
   4.7065E+00   4.8210E+00   5.8739E-06  0.0169
   4.8210E+00   4.9383E+00   5.7325E-06  0.0169
   4.9383E+00   5.0585E+00   5.6317E-06  0.0169
   5.0585E+00   5.1815E+00   5.4421E-06  0.0169
   5.1815E+00   5.3076E+00   5.1837E-06  0.0172
   5.3076E+00   5.4368E+00   4.9493E-06  0.0173
   5.4368E+00   5.5690E+00   4.6548E-06  0.0177
   5.5690E+00   5.7045E+00   4.4516E-06  0.0179
   5.7045E+00   5.8433E+00   4.4467E-06  0.0177
   5.8433E+00   5.9855E+00   4.1535E-06  0.0181
   5.9855E+00   6.1311E+00   3.8498E-06  0.0186
   6.1311E+00   6.2803E+00   3.7025E-06  0.0187
   6.2803E+00   6.4331E+00   3.5075E-06  0.0190
   6.4331E+00   6.5896E+00   3.4450E-06  0.0190
   6.5896E+00   6.7500E+00   3.1188E-06  0.0197
   6.7500E+00   6.9142E+00   2.9909E-06  0.0199
   6.9142E+00   7.0824E+00   2.6843E-06  0.0208
   7.0824E+00   7.2548E+00   2.6094E-06  0.0208
   7.2548E+00   7.4313E+00   2.3438E-06  0.0217
   7.4313E+00   7.6121E+00   2.1128E-06  0.0226
   7.6121E+00   7.7973E+00   2.0082E-06  0.0229
   7.7973E+00   7.9870E+00   1.8046E-06  0.0239
   7.9870E+00   8.1813E+00   1.6677E-06  0.0245
   8.1813E+00   8.3804E+00   1.4031E-06  0.0264
   8.3804E+00   8.5843E+00   1.2366E-06  0.0278
   8.5843E+00   8.7931E+00   1.0096E-06  0.0304
   8.7931E+00   9.0071E+00   9.3115E-07  0.0313
   9.0071E+00   9.2262E+00   8.3862E-07  0.0327
   9.2262E+00   9.4507E+00   6.9078E-07  0.0356
   9.4507E+00   9.6807E+00   6.1877E-07  0.0372
   9.6807E+00   9.9162E+00   5.9791E-07  0.0376
   9.9162E+00   1.0157E+01   5.2465E-07  0.0397
   1.0157E+01   1.0405E+01   4.9843E-07  0.0403
   1.0405E+01   1.0658E+01   3.8851E-07  0.0451
   1.0658E+01   1.0917E+01   3.3049E-07  0.0483
   1.0917E+01   1.1183E+01   2.6464E-07  0.0533
   1.1183E+01   1.1455E+01   2.1963E-07  0.0578
   1.1455E+01   1.1733E+01   1.5656E-07  0.0677
   1.1733E+01   1.2019E+01   1.3265E-07  0.0726
   1.2019E+01   1.2311E+01   9.9978E-08  0.0827
   1.2311E+01   1.2611E+01   6.5432E-08  0.1010
   1.2611E+01   1.2918E+01   3.8128E-08  0.1303
   1.2918E+01   1.3232E+01   1.1454E-08  0.2357
   1.3232E+01   1.3554E+01   3.7273E-09  0.4082
   1.3554E+01   1.3884E+01   3.6388E-09  0.4082
   1.3884E+01   1.4222E+01   0.0000E+00  0.0000
   1.4222E+01   1.4568E+01   0.0000E+00  0.0000
   1.4568E+01   1.4922E+01   0.0000E+00  0.0000
   1.4922E+01   1.5285E+01   0.0000E+00  0.0000
   1.5285E+01   1.5657E+01   0.0000E+00  0.0000
   1.5657E+01   1.6038E+01   0.0000E+00  0.0000
   1.6038E+01   1.6428E+01   0.0000E+00  0.0000
   1.6428E+01   1.6828E+01   0.0000E+00  0.0000
   1.6828E+01   1.7237E+01   0.0000E+00  0.0000
   1.7237E+01   1.7657E+01   0.0000E+00  0.0000
   1.7657E+01   1.8086E+01   0.0000E+00  0.0000
   1.8086E+01   1.8526E+01   0.0000E+00  0.0000
   1.8526E+01   1.8977E+01   0.0000E+00  0.0000
   1.8977E+01   1.9439E+01   0.0000E+00  0.0000
   1.9439E+01   1.9912E+01   0.0000E+00  0.0000
   1.9912E+01   2.0396E+01   0.0000E+00  0.0000
   2.0396E+01   2.0893E+01   0.0000E+00  0.0000
   2.0893E+01   2.1401E+01   0.0000E+00  0.0000
   2.1401E+01   2.1922E+01   0.0000E+00  0.0000
   2.1922E+01   2.2455E+01   0.0000E+00  0.0000
   2.2455E+01   2.3001E+01   0.0000E+00  0.0000
   2.3001E+01   2.3561E+01   0.0000E+00  0.0000
   2.3561E+01   2.4134E+01   0.0000E+00  0.0000
   2.4134E+01   2.4721E+01   0.0000E+00  0.0000
   2.4721E+01   2.5323E+01   0.0000E+00  0.0000
   2.5323E+01   2.5939E+01   0.0000E+00  0.0000
   2.5939E+01   2.6570E+01   0.0000E+00  0.0000
   2.6570E+01   2.7217E+01   0.0000E+00  0.0000
   2.7217E+01   2.7879E+01   0.0000E+00  0.0000
   2.7879E+01   2.8557E+01   0.0000E+00  0.0000
   2.8557E+01   2.9252E+01   0.0000E+00  0.0000
   2.9252E+01   2.9964E+01   0.0000E+00  0.0000
   2.9964E+01   3.0693E+01   0.0000E+00  0.0000
   3.0693E+01   3.1440E+01   0.0000E+00  0.0000
   3.1440E+01   3.2205E+01   0.0000E+00  0.0000
   3.2205E+01   3.2988E+01   0.0000E+00  0.0000
   3.2988E+01   3.3791E+01   0.0000E+00  0.0000
   3.3791E+01   3.4613E+01   0.0000E+00  0.0000
   3.4613E+01   3.5455E+01   0.0000E+00  0.0000
   3.5455E+01   3.6318E+01   0.0000E+00  0.0000
   3.6318E+01   3.7201E+01   0.0000E+00  0.0000
   3.7201E+01   3.8106E+01   0.0000E+00  0.0000
   3.8106E+01   3.9034E+01   0.0000E+00  0.0000
   3.9034E+01   3.9983E+01   0.0000E+00  0.0000
   3.9983E+01   4.0956E+01   0.0000E+00  0.0000
   4.0956E+01   4.1953E+01   0.0000E+00  0.0000
   4.1953E+01   4.2973E+01   0.0000E+00  0.0000
   4.2973E+01   4.4019E+01   0.0000E+00  0.0000
   4.4019E+01   4.5090E+01   0.0000E+00  0.0000
   4.5090E+01   4.6187E+01   0.0000E+00  0.0000
   4.6187E+01   4.7311E+01   0.0000E+00  0.0000
   4.7311E+01   4.8462E+01   0.0000E+00  0.0000
   4.8462E+01   4.9641E+01   0.0000E+00  0.0000
   4.9641E+01   5.0849E+01   0.0000E+00  0.0000
   5.0849E+01   5.2086E+01   0.0000E+00  0.0000
   5.2086E+01   5.3353E+01   0.0000E+00  0.0000
   5.3353E+01   5.4651E+01   0.0000E+00  0.0000
   5.4651E+01   5.5981E+01   0.0000E+00  0.0000
   5.5981E+01   5.7343E+01   0.0000E+00  0.0000
   5.7343E+01   5.8738E+01   0.0000E+00  0.0000
   5.8738E+01   6.0168E+01   0.0000E+00  0.0000
   6.0168E+01   6.1632E+01   0.0000E+00  0.0000
   6.1632E+01   6.3131E+01   0.0000E+00  0.0000
   6.3131E+01   6.4667E+01   0.0000E+00  0.0000
   6.4667E+01   6.6240E+01   0.0000E+00  0.0000
   6.6240E+01   6.7852E+01   0.0000E+00  0.0000
   6.7852E+01   6.9503E+01   0.0000E+00  0.0000
   6.9503E+01   7.1194E+01   0.0000E+00  0.0000
   7.1194E+01   7.2926E+01   0.0000E+00  0.0000
   7.2926E+01   7.4701E+01   0.0000E+00  0.0000
   7.4701E+01   7.6518E+01   0.0000E+00  0.0000
   7.6518E+01   7.8380E+01   0.0000E+00  0.0000
   7.8380E+01   8.0287E+01   0.0000E+00  0.0000
   8.0287E+01   8.2240E+01   0.0000E+00  0.0000
   8.2240E+01   8.4241E+01   0.0000E+00  0.0000
   8.4241E+01   8.6291E+01   0.0000E+00  0.0000
   8.6291E+01   8.8391E+01   0.0000E+00  0.0000
   8.8391E+01   9.0541E+01   0.0000E+00  0.0000
   9.0541E+01   9.2744E+01   0.0000E+00  0.0000
   9.2744E+01   9.5001E+01   0.0000E+00  0.0000
   9.5001E+01   9.7312E+01   0.0000E+00  0.0000
   9.7312E+01   9.9680E+01   0.0000E+00  0.0000
   9.9680E+01   1.0211E+02   0.0000E+00  0.0000
   1.0211E+02   1.0459E+02   0.0000E+00  0.0000
   1.0459E+02   1.0713E+02   0.0000E+00  0.0000
   1.0713E+02   1.0974E+02   0.0000E+00  0.0000
   1.0974E+02   1.1241E+02   0.0000E+00  0.0000
   1.1241E+02   1.1515E+02   0.0000E+00  0.0000
   1.1515E+02   1.1795E+02   0.0000E+00  0.0000
   1.1795E+02   1.2082E+02   0.0000E+00  0.0000
   1.2082E+02   1.2376E+02   0.0000E+00  0.0000
   1.2376E+02   1.2677E+02   0.0000E+00  0.0000
   1.2677E+02   1.2985E+02   0.0000E+00  0.0000
   1.2985E+02   1.3301E+02   0.0000E+00  0.0000
   1.3301E+02   1.3625E+02   0.0000E+00  0.0000
   1.3625E+02   1.3956E+02   0.0000E+00  0.0000
   1.3956E+02   1.4296E+02   0.0000E+00  0.0000
   1.4296E+02   1.4644E+02   0.0000E+00  0.0000
   1.4644E+02   1.5000E+02   0.0000E+00  0.0000

#   sum over                 3.6927E-07
'no. =    1   reg = 110 - 210'
msuc: {\huge [t-cross] in region mesh}
msdr: {\it plotted by \ANGEL \version}
msdl: {\it calculated by \PHITS  3.26}
wt: s(0.7)
\vspace{-3}
  region surface crossing
  area  &=&   1.0000E+00 [cm^2]
e:
 
# Information for Restart Calculation
# This calculation was newly started
# istdev =  2 # 1:Batch variance, 2:History variance
# resc2  = 5.00000000000000000E+09 # Total source weight or Total source weight / maxcas
# resc3  = 5.00000000000000000E+09 # Total history number or Total batch number
# maxcas =   100000000 # History / Batch, only used for istdev=1
# bitrseed = 0110100000100010111000001110001111001110100100011111101000111001 # bit data of rseed
