[ T-Cross ]
    title = [t-cross] in region mesh
     mesh =  reg            # mesh type is region-wise
      reg =    1            # number of crossing regions
      non     r-from    r-to       area
      1       106       206        1.000000    
   e-type =    3            # e-mesh is log given by emin, emax and ne
     emin =  1.0000000E-02  # minimum value of e-mesh points
     emax =   150.0000      # maximum value of e-mesh points
#    edel =  2.4039514E-02  # mesh width of e-mesh points
       ne =    400          # number of e-mesh points
#    data = ( e(i), i = 1, ne + 1 )
#           1.00000E-02  1.02433E-02  1.04925E-02  1.07478E-02  1.10093E-02
#           1.12772E-02  1.15516E-02  1.18326E-02  1.21205E-02  1.24154E-02
#           1.27175E-02  1.30269E-02  1.33439E-02  1.36686E-02  1.40011E-02
#           1.43418E-02  1.46907E-02  1.50482E-02  1.54143E-02  1.57894E-02
#           1.61735E-02  1.65670E-02  1.69701E-02  1.73830E-02  1.78060E-02
#           1.82392E-02  1.86830E-02  1.91375E-02  1.96032E-02  2.00801E-02
#           2.05687E-02  2.10692E-02  2.15818E-02  2.21069E-02  2.26448E-02
#           2.31957E-02  2.37601E-02  2.43382E-02  2.49304E-02  2.55369E-02
#           2.61583E-02  2.67947E-02  2.74467E-02  2.81145E-02  2.87985E-02
#           2.94992E-02  3.02169E-02  3.09521E-02  3.17052E-02  3.24766E-02
#           3.32668E-02  3.40762E-02  3.49053E-02  3.57546E-02  3.66246E-02
#           3.75157E-02  3.84284E-02  3.93634E-02  4.03212E-02  4.13022E-02
#           4.23071E-02  4.33365E-02  4.43909E-02  4.54710E-02  4.65773E-02
#           4.77106E-02  4.88714E-02  5.00605E-02  5.12785E-02  5.25262E-02
#           5.38042E-02  5.51133E-02  5.64542E-02  5.78278E-02  5.92348E-02
#           6.06760E-02  6.21523E-02  6.36645E-02  6.52135E-02  6.68002E-02
#           6.84255E-02  7.00904E-02  7.17957E-02  7.35426E-02  7.53319E-02
#           7.71648E-02  7.90423E-02  8.09655E-02  8.29354E-02  8.49533E-02
#           8.70203E-02  8.91376E-02  9.13064E-02  9.35279E-02  9.58035E-02
#           9.81345E-02  1.00522E-01  1.02968E-01  1.05473E-01  1.08040E-01
#           1.10668E-01  1.13361E-01  1.16119E-01  1.18944E-01  1.21838E-01
#           1.24803E-01  1.27839E-01  1.30950E-01  1.34136E-01  1.37399E-01
#           1.40742E-01  1.44167E-01  1.47675E-01  1.51268E-01  1.54948E-01
#           1.58718E-01  1.62580E-01  1.66535E-01  1.70587E-01  1.74738E-01
#           1.78989E-01  1.83344E-01  1.87805E-01  1.92375E-01  1.97055E-01
#           2.01850E-01  2.06761E-01  2.11792E-01  2.16945E-01  2.22223E-01
#           2.27630E-01  2.33169E-01  2.38842E-01  2.44653E-01  2.50605E-01
#           2.56703E-01  2.62949E-01  2.69346E-01  2.75900E-01  2.82613E-01
#           2.89489E-01  2.96532E-01  3.03747E-01  3.11138E-01  3.18708E-01
#           3.26462E-01  3.34405E-01  3.42542E-01  3.50876E-01  3.59413E-01
#           3.68158E-01  3.77116E-01  3.86291E-01  3.95690E-01  4.05317E-01
#           4.15179E-01  4.25281E-01  4.35628E-01  4.46227E-01  4.57084E-01
#           4.68205E-01  4.79597E-01  4.91266E-01  5.03219E-01  5.15463E-01
#           5.28005E-01  5.40851E-01  5.54011E-01  5.67490E-01  5.81298E-01
#           5.95441E-01  6.09929E-01  6.24769E-01  6.39970E-01  6.55541E-01
#           6.71491E-01  6.87828E-01  7.04564E-01  7.21706E-01  7.39266E-01
#           7.57253E-01  7.75678E-01  7.94551E-01  8.13883E-01  8.33685E-01
#           8.53969E-01  8.74747E-01  8.96030E-01  9.17831E-01  9.40163E-01
#           9.63038E-01  9.86469E-01  1.01047E+00  1.03506E+00  1.06024E+00
#           1.08604E+00  1.11246E+00  1.13953E+00  1.16725E+00  1.19565E+00
#           1.22474E+00  1.25454E+00  1.28507E+00  1.31633E+00  1.34836E+00
#           1.38117E+00  1.41477E+00  1.44920E+00  1.48446E+00  1.52057E+00
#           1.55757E+00  1.59547E+00  1.63429E+00  1.67405E+00  1.71478E+00
#           1.75650E+00  1.79924E+00  1.84302E+00  1.88786E+00  1.93379E+00
#           1.98084E+00  2.02904E+00  2.07841E+00  2.12898E+00  2.18078E+00
#           2.23384E+00  2.28819E+00  2.34386E+00  2.40089E+00  2.45930E+00
#           2.51914E+00  2.58043E+00  2.64322E+00  2.70753E+00  2.77341E+00
#           2.84088E+00  2.91001E+00  2.98081E+00  3.05333E+00  3.12762E+00
#           3.20372E+00  3.28167E+00  3.36152E+00  3.44330E+00  3.52708E+00
#           3.61290E+00  3.70080E+00  3.79085E+00  3.88308E+00  3.97756E+00
#           4.07434E+00  4.17347E+00  4.27501E+00  4.37903E+00  4.48557E+00
#           4.59471E+00  4.70650E+00  4.82102E+00  4.93832E+00  5.05847E+00
#           5.18155E+00  5.30762E+00  5.43676E+00  5.56904E+00  5.70453E+00
#           5.84333E+00  5.98550E+00  6.13114E+00  6.28031E+00  6.43312E+00
#           6.58964E+00  6.74997E+00  6.91420E+00  7.08243E+00  7.25475E+00
#           7.43126E+00  7.61207E+00  7.79728E+00  7.98700E+00  8.18133E+00
#           8.38038E+00  8.58428E+00  8.79315E+00  9.00709E+00  9.22624E+00
#           9.45072E+00  9.68067E+00  9.91620E+00  1.01575E+01  1.04046E+01
#           1.06578E+01  1.09171E+01  1.11827E+01  1.14548E+01  1.17335E+01
#           1.20190E+01  1.23114E+01  1.26109E+01  1.29178E+01  1.32321E+01
#           1.35540E+01  1.38838E+01  1.42216E+01  1.45676E+01  1.49221E+01
#           1.52851E+01  1.56570E+01  1.60380E+01  1.64282E+01  1.68279E+01
#           1.72374E+01  1.76568E+01  1.80864E+01  1.85264E+01  1.89772E+01
#           1.94389E+01  1.99119E+01  2.03963E+01  2.08926E+01  2.14009E+01
#           2.19216E+01  2.24550E+01  2.30014E+01  2.35610E+01  2.41343E+01
#           2.47215E+01  2.53230E+01  2.59391E+01  2.65702E+01  2.72167E+01
#           2.78789E+01  2.85572E+01  2.92520E+01  2.99637E+01  3.06928E+01
#           3.14396E+01  3.22045E+01  3.29881E+01  3.37907E+01  3.46128E+01
#           3.54550E+01  3.63177E+01  3.72013E+01  3.81064E+01  3.90336E+01
#           3.99833E+01  4.09561E+01  4.19526E+01  4.29734E+01  4.40189E+01
#           4.50900E+01  4.61870E+01  4.73108E+01  4.84619E+01  4.96410E+01
#           5.08488E+01  5.20860E+01  5.33533E+01  5.46514E+01  5.59812E+01
#           5.73432E+01  5.87384E+01  6.01676E+01  6.16315E+01  6.31311E+01
#           6.46671E+01  6.62405E+01  6.78522E+01  6.95031E+01  7.11941E+01
#           7.29263E+01  7.47007E+01  7.65182E+01  7.83800E+01  8.02870E+01
#           8.22405E+01  8.42414E+01  8.62911E+01  8.83906E+01  9.05412E+01
#           9.27442E+01  9.50007E+01  9.73122E+01  9.96799E+01  1.02105E+02
#           1.04589E+02  1.07134E+02  1.09741E+02  1.12411E+02  1.15146E+02
#           1.17948E+02  1.20817E+02  1.23757E+02  1.26768E+02  1.29852E+02
#           1.33012E+02  1.36248E+02  1.39563E+02  1.42959E+02  1.46437E+02
#           1.50000E+02
     unit =    2            # unit is [1/cm^2/(MeV/n)/source]
     axis =  eng            # axis of output
     file = detector-07.out  # file name of output for the above axis
   output = f-curr          # surface crossing forward current spectrum
     part =  neutron  
# kf/name :  2112     
#    used :        main (  %)        temp (  %)       total (  %)
#  memory :         414 (  0)           0 (  0)         414 (  0)

#------------------------------------------------------------------------------
#newpage:
#   no. =    1   reg = 106 - 206

x: Energy [MeV/n]
y:  F-Curr [1/cm^2/(MeV/n)/source]         
p: xlog ylog afac(0.8) form(0.9)
h: n            x            y(neutron ),hh0l   n 
#  e-lower      e-upper      neutron     r.err 
   1.0000E-02   1.0243E-02   3.3190E-04  0.0496
   1.0243E-02   1.0493E-02   3.3888E-04  0.0485
   1.0493E-02   1.0748E-02   3.5120E-04  0.0471
   1.0748E-02   1.1009E-02   3.3385E-04  0.0477
   1.1009E-02   1.1277E-02   3.2638E-04  0.0477
   1.1277E-02   1.1552E-02   3.0731E-04  0.0486
   1.1552E-02   1.1833E-02   3.0339E-04  0.0482
   1.1833E-02   1.2121E-02   2.9508E-04  0.0484
   1.2121E-02   1.2415E-02   2.8086E-04  0.0490
   1.2415E-02   1.2718E-02   2.7059E-04  0.0492
   1.2718E-02   1.3027E-02   2.5364E-04  0.0503
   1.3027E-02   1.3344E-02   2.5609E-04  0.0494
   1.3344E-02   1.3669E-02   2.5859E-04  0.0487
   1.3669E-02   1.4001E-02   2.4009E-04  0.0499
   1.4001E-02   1.4342E-02   2.3877E-04  0.0494
   1.4342E-02   1.4691E-02   2.2858E-04  0.0499
   1.4691E-02   1.5048E-02   2.2513E-04  0.0497
   1.5048E-02   1.5414E-02   2.1386E-04  0.0504
   1.5414E-02   1.5789E-02   2.1247E-04  0.0499
   1.5789E-02   1.6174E-02   2.0610E-04  0.0500
   1.6174E-02   1.6567E-02   2.1901E-04  0.0479
   1.6567E-02   1.6970E-02   1.9414E-04  0.0504
   1.6970E-02   1.7383E-02   2.1239E-04  0.0476
   1.7383E-02   1.7806E-02   2.2055E-04  0.0462
   1.7806E-02   1.8239E-02   1.9136E-04  0.0489
   1.8239E-02   1.8683E-02   1.9054E-04  0.0484
   1.8683E-02   1.9138E-02   1.6892E-04  0.0508
   1.9138E-02   1.9603E-02   1.7425E-04  0.0495
   1.9603E-02   2.0080E-02   1.7304E-04  0.0490
   2.0080E-02   2.0569E-02   1.6645E-04  0.0493
   2.0569E-02   2.1069E-02   1.6893E-04  0.0485
   2.1069E-02   2.1582E-02   1.6111E-04  0.0491
   2.1582E-02   2.2107E-02   1.5224E-04  0.0499
   2.2107E-02   2.2645E-02   1.5228E-04  0.0492
   2.2645E-02   2.3196E-02   1.5375E-04  0.0484
   2.3196E-02   2.3760E-02   1.4693E-04  0.0490
   2.3760E-02   2.4338E-02   1.4963E-04  0.0479
   2.4338E-02   2.4930E-02   1.6293E-04  0.0454
   2.4930E-02   2.5537E-02   1.3899E-04  0.0485
   2.5537E-02   2.6158E-02   1.3375E-04  0.0489
   2.6158E-02   2.6795E-02   1.1818E-04  0.0513
   2.6795E-02   2.7447E-02   1.3486E-04  0.0475
   2.7447E-02   2.8114E-02   1.2498E-04  0.0487
   2.8114E-02   2.8799E-02   1.2294E-04  0.0486
   2.8799E-02   2.9499E-02   1.2082E-04  0.0484
   2.9499E-02   3.0217E-02   1.3213E-04  0.0458
   3.0217E-02   3.0952E-02   1.1695E-04  0.0480
   3.0952E-02   3.1705E-02   1.1928E-04  0.0470
   3.1705E-02   3.2477E-02   1.1130E-04  0.0481
   3.2477E-02   3.3267E-02   1.0956E-04  0.0478
   3.3267E-02   3.4076E-02   1.0791E-04  0.0477
   3.4076E-02   3.4905E-02   1.0375E-04  0.0481
   3.4905E-02   3.5755E-02   1.0235E-04  0.0478
   3.5755E-02   3.6625E-02   1.0404E-04  0.0468
   3.6625E-02   3.7516E-02   1.0029E-04  0.0471
   3.7516E-02   3.8428E-02   9.3631E-05  0.0482
   3.8428E-02   3.9363E-02   9.0952E-05  0.0483
   3.9363E-02   4.0321E-02   8.6743E-05  0.0489
   4.0321E-02   4.1302E-02   9.8864E-05  0.0452
   4.1302E-02   4.2307E-02   8.6347E-05  0.0478
   4.2307E-02   4.3337E-02   8.9982E-05  0.0463
   4.3337E-02   4.4391E-02   7.7275E-05  0.0494
   4.4391E-02   4.5471E-02   8.5478E-05  0.0463
   4.5471E-02   4.6577E-02   8.1593E-05  0.0469
   4.6577E-02   4.7711E-02   7.5780E-05  0.0481
   4.7711E-02   4.8871E-02   8.1478E-05  0.0458
   4.8871E-02   5.0061E-02   7.8317E-05  0.0461
   5.0061E-02   5.1279E-02   7.3504E-05  0.0470
   5.1279E-02   5.2526E-02   7.3415E-05  0.0466
   5.2526E-02   5.3804E-02   6.9066E-05  0.0474
   5.3804E-02   5.5113E-02   7.5132E-05  0.0449
   5.5113E-02   5.6454E-02   6.6920E-05  0.0470
   5.6454E-02   5.7828E-02   6.4407E-05  0.0474
   5.7828E-02   5.9235E-02   6.2191E-05  0.0476
   5.9235E-02   6.0676E-02   6.1555E-05  0.0473
   6.0676E-02   6.2152E-02   6.1289E-05  0.0468
   6.2152E-02   6.3665E-02   6.5128E-05  0.0449
   6.3665E-02   6.5214E-02   6.2349E-05  0.0453
   6.5214E-02   6.6800E-02   6.0682E-05  0.0454
   6.6800E-02   6.8426E-02   5.9881E-05  0.0452
   6.8426E-02   7.0090E-02   6.1330E-05  0.0441
   7.0090E-02   7.1796E-02   5.2765E-05  0.0470
   7.1796E-02   7.3543E-02   5.7571E-05  0.0443
   7.3543E-02   7.5332E-02   5.7282E-05  0.0440
   7.5332E-02   7.7165E-02   5.1745E-05  0.0457
   7.7165E-02   7.9042E-02   5.3208E-05  0.0445
   7.9042E-02   8.0965E-02   5.2164E-05  0.0445
   8.0965E-02   8.2935E-02   5.0467E-05  0.0446
   8.2935E-02   8.4953E-02   4.9025E-05  0.0448
   8.4953E-02   8.7020E-02   5.3595E-05  0.0423
   8.7020E-02   8.9138E-02   5.0167E-05  0.0432
   8.9138E-02   9.1306E-02   4.6650E-05  0.0443
   9.1306E-02   9.3528E-02   4.9015E-05  0.0427
   9.3528E-02   9.5804E-02   4.5408E-05  0.0438
   9.5804E-02   9.8134E-02   4.5238E-05  0.0434
   9.8134E-02   1.0052E-01   4.7629E-05  0.0418
   1.0052E-01   1.0297E-01   4.8518E-05  0.0409
   1.0297E-01   1.0547E-01   4.9211E-05  0.0401
   1.0547E-01   1.0804E-01   5.1817E-05  0.0386
   1.0804E-01   1.1067E-01   5.5091E-05  0.0370
   1.1067E-01   1.1336E-01   5.6789E-05  0.0360
   1.1336E-01   1.1612E-01   5.8347E-05  0.0351
   1.1612E-01   1.1894E-01   6.0314E-05  0.0341
   1.1894E-01   1.2184E-01   6.0554E-05  0.0336
   1.2184E-01   1.2480E-01   6.7258E-05  0.0316
   1.2480E-01   1.2784E-01   6.9998E-05  0.0306
   1.2784E-01   1.3095E-01   6.8601E-05  0.0305
   1.3095E-01   1.3414E-01   7.5854E-05  0.0287
   1.3414E-01   1.3740E-01   8.0333E-05  0.0275
   1.3740E-01   1.4074E-01   7.9576E-05  0.0273
   1.4074E-01   1.4417E-01   7.9211E-05  0.0271
   1.4417E-01   1.4767E-01   8.5043E-05  0.0258
   1.4767E-01   1.5127E-01   8.8908E-05  0.0249
   1.5127E-01   1.5495E-01   8.9075E-05  0.0246
   1.5495E-01   1.5872E-01   9.3771E-05  0.0237
   1.5872E-01   1.6258E-01   9.9820E-05  0.0227
   1.6258E-01   1.6654E-01   1.0315E-04  0.0221
   1.6654E-01   1.7059E-01   1.0841E-04  0.0213
   1.7059E-01   1.7474E-01   1.0925E-04  0.0209
   1.7474E-01   1.7899E-01   1.1190E-04  0.0204
   1.7899E-01   1.8334E-01   1.1783E-04  0.0197
   1.8334E-01   1.8781E-01   1.2312E-04  0.0190
   1.8781E-01   1.9237E-01   1.2728E-04  0.0185
   1.9237E-01   1.9706E-01   1.3097E-04  0.0180
   1.9706E-01   2.0185E-01   1.3850E-04  0.0173
   2.0185E-01   2.0676E-01   1.3900E-04  0.0170
   2.0676E-01   2.1179E-01   1.4121E-04  0.0167
   2.1179E-01   2.1694E-01   1.4823E-04  0.0161
   2.1694E-01   2.2222E-01   1.5364E-04  0.0156
   2.2222E-01   2.2763E-01   1.5449E-04  0.0154
   2.2763E-01   2.3317E-01   1.6650E-04  0.0147
   2.3317E-01   2.3884E-01   1.6809E-04  0.0144
   2.3884E-01   2.4465E-01   1.7089E-04  0.0141
   2.4465E-01   2.5061E-01   1.7208E-04  0.0139
   2.5061E-01   2.5670E-01   1.8213E-04  0.0134
   2.5670E-01   2.6295E-01   1.9056E-04  0.0129
   2.6295E-01   2.6935E-01   1.9331E-04  0.0127
   2.6935E-01   2.7590E-01   1.9631E-04  0.0124
   2.7590E-01   2.8261E-01   1.9638E-04  0.0123
   2.8261E-01   2.8949E-01   2.0029E-04  0.0120
   2.8949E-01   2.9653E-01   2.1094E-04  0.0116
   2.9653E-01   3.0375E-01   2.1535E-04  0.0113
   3.0375E-01   3.1114E-01   2.2263E-04  0.0110
   3.1114E-01   3.1871E-01   2.2833E-04  0.0107
   3.1871E-01   3.2646E-01   2.2882E-04  0.0106
   3.2646E-01   3.3441E-01   2.3182E-04  0.0104
   3.3441E-01   3.4254E-01   2.4112E-04  0.0101
   3.4254E-01   3.5088E-01   2.4227E-04  0.0099
   3.5088E-01   3.5941E-01   2.4953E-04  0.0096
   3.5941E-01   3.6816E-01   2.5205E-04  0.0095
   3.6816E-01   3.7712E-01   2.5788E-04  0.0093
   3.7712E-01   3.8629E-01   2.6410E-04  0.0090
   3.8629E-01   3.9569E-01   2.7175E-04  0.0088
   3.9569E-01   4.0532E-01   2.7492E-04  0.0087
   4.0532E-01   4.1518E-01   2.7493E-04  0.0086
   4.1518E-01   4.2528E-01   2.7849E-04  0.0084
   4.2528E-01   4.3563E-01   2.8340E-04  0.0082
   4.3563E-01   4.4623E-01   2.8849E-04  0.0080
   4.4623E-01   4.5708E-01   2.8978E-04  0.0079
   4.5708E-01   4.6821E-01   2.9738E-04  0.0077
   4.6821E-01   4.7960E-01   2.9947E-04  0.0076
   4.7960E-01   4.9127E-01   3.0313E-04  0.0075
   4.9127E-01   5.0322E-01   2.9978E-04  0.0074
   5.0322E-01   5.1546E-01   3.0860E-04  0.0072
   5.1546E-01   5.2800E-01   3.0992E-04  0.0071
   5.2800E-01   5.4085E-01   3.1189E-04  0.0070
   5.4085E-01   5.5401E-01   3.1112E-04  0.0070
   5.5401E-01   5.6749E-01   3.1485E-04  0.0068
   5.6749E-01   5.8130E-01   3.1402E-04  0.0068
   5.8130E-01   5.9544E-01   3.1736E-04  0.0066
   5.9544E-01   6.0993E-01   3.2005E-04  0.0065
   6.0993E-01   6.2477E-01   3.1700E-04  0.0065
   6.2477E-01   6.3997E-01   3.1797E-04  0.0064
   6.3997E-01   6.5554E-01   3.1980E-04  0.0063
   6.5554E-01   6.7149E-01   3.2200E-04  0.0062
   6.7149E-01   6.8783E-01   3.1525E-04  0.0062
   6.8783E-01   7.0456E-01   3.1984E-04  0.0061
   7.0456E-01   7.2171E-01   3.1177E-04  0.0061
   7.2171E-01   7.3927E-01   3.1064E-04  0.0060
   7.3927E-01   7.5725E-01   3.0719E-04  0.0060
   7.5725E-01   7.7568E-01   3.0496E-04  0.0059
   7.7568E-01   7.9455E-01   3.0226E-04  0.0059
   7.9455E-01   8.1388E-01   2.9953E-04  0.0058
   8.1388E-01   8.3368E-01   2.9135E-04  0.0058
   8.3368E-01   8.5397E-01   2.8883E-04  0.0058
   8.5397E-01   8.7475E-01   2.8118E-04  0.0058
   8.7475E-01   8.9603E-01   2.7321E-04  0.0058
   8.9603E-01   9.1783E-01   2.6733E-04  0.0058
   9.1783E-01   9.4016E-01   2.6041E-04  0.0058
   9.4016E-01   9.6304E-01   2.5215E-04  0.0058
   9.6304E-01   9.8647E-01   2.4131E-04  0.0059
   9.8647E-01   1.0105E+00   2.3578E-04  0.0059
   1.0105E+00   1.0351E+00   2.3472E-04  0.0058
   1.0351E+00   1.0602E+00   2.3634E-04  0.0057
   1.0602E+00   1.0860E+00   2.3804E-04  0.0057
   1.0860E+00   1.1125E+00   2.4526E-04  0.0055
   1.1125E+00   1.1395E+00   2.5021E-04  0.0054
   1.1395E+00   1.1673E+00   2.5480E-04  0.0053
   1.1673E+00   1.1957E+00   2.6203E-04  0.0051
   1.1957E+00   1.2247E+00   2.6543E-04  0.0050
   1.2247E+00   1.2545E+00   2.6871E-04  0.0049
   1.2545E+00   1.2851E+00   2.7251E-04  0.0049
   1.2851E+00   1.3163E+00   2.7411E-04  0.0048
   1.3163E+00   1.3484E+00   2.7718E-04  0.0047
   1.3484E+00   1.3812E+00   2.8129E-04  0.0046
   1.3812E+00   1.4148E+00   2.8763E-04  0.0045
   1.4148E+00   1.4492E+00   2.8779E-04  0.0044
   1.4492E+00   1.4845E+00   2.8781E-04  0.0044
   1.4845E+00   1.5206E+00   2.8767E-04  0.0043
   1.5206E+00   1.5576E+00   2.8622E-04  0.0043
   1.5576E+00   1.5955E+00   2.8610E-04  0.0042
   1.5955E+00   1.6343E+00   2.8495E-04  0.0042
   1.6343E+00   1.6741E+00   2.8665E-04  0.0041
   1.6741E+00   1.7148E+00   2.8736E-04  0.0041
   1.7148E+00   1.7565E+00   2.8304E-04  0.0041
   1.7565E+00   1.7992E+00   2.7521E-04  0.0041
   1.7992E+00   1.8430E+00   2.6405E-04  0.0041
   1.8430E+00   1.8879E+00   2.5678E-04  0.0041
   1.8879E+00   1.9338E+00   2.5420E-04  0.0041
   1.9338E+00   1.9808E+00   2.5343E-04  0.0040
   1.9808E+00   2.0290E+00   2.5550E-04  0.0039
   2.0290E+00   2.0784E+00   2.5595E-04  0.0039
   2.0784E+00   2.1290E+00   2.5820E-04  0.0038
   2.1290E+00   2.1808E+00   2.6325E-04  0.0037
   2.1808E+00   2.2338E+00   2.6195E-04  0.0037
   2.2338E+00   2.2882E+00   2.5884E-04  0.0037
   2.2882E+00   2.3439E+00   2.5388E-04  0.0037
   2.3439E+00   2.4009E+00   2.5292E-04  0.0036
   2.4009E+00   2.4593E+00   2.5473E-04  0.0036
   2.4593E+00   2.5191E+00   2.5285E-04  0.0036
   2.5191E+00   2.5804E+00   2.5070E-04  0.0035
   2.5804E+00   2.6432E+00   2.4847E-04  0.0035
   2.6432E+00   2.7075E+00   2.4553E-04  0.0035
   2.7075E+00   2.7734E+00   2.4542E-04  0.0034
   2.7734E+00   2.8409E+00   2.4272E-04  0.0034
   2.8409E+00   2.9100E+00   2.4460E-04  0.0034
   2.9100E+00   2.9808E+00   2.4251E-04  0.0034
   2.9808E+00   3.0533E+00   2.4180E-04  0.0033
   3.0533E+00   3.1276E+00   2.3974E-04  0.0033
   3.1276E+00   3.2037E+00   2.3737E-04  0.0033
   3.2037E+00   3.2817E+00   2.3566E-04  0.0032
   3.2817E+00   3.3615E+00   2.3469E-04  0.0032
   3.3615E+00   3.4433E+00   2.3256E-04  0.0032
   3.4433E+00   3.5271E+00   2.3207E-04  0.0032
   3.5271E+00   3.6129E+00   2.2904E-04  0.0031
   3.6129E+00   3.7008E+00   2.2845E-04  0.0031
   3.7008E+00   3.7908E+00   2.2624E-04  0.0031
   3.7908E+00   3.8831E+00   2.2279E-04  0.0031
   3.8831E+00   3.9776E+00   2.2073E-04  0.0031
   3.9776E+00   4.0743E+00   2.1831E-04  0.0030
   4.0743E+00   4.1735E+00   2.1614E-04  0.0030
   4.1735E+00   4.2750E+00   2.1284E-04  0.0030
   4.2750E+00   4.3790E+00   2.0975E-04  0.0030
   4.3790E+00   4.4856E+00   2.0787E-04  0.0030
   4.4856E+00   4.5947E+00   2.0392E-04  0.0030
   4.5947E+00   4.7065E+00   2.0039E-04  0.0029
   4.7065E+00   4.8210E+00   1.9875E-04  0.0029
   4.8210E+00   4.9383E+00   1.9627E-04  0.0029
   4.9383E+00   5.0585E+00   1.9462E-04  0.0029
   5.0585E+00   5.1815E+00   1.9315E-04  0.0029
   5.1815E+00   5.3076E+00   1.9016E-04  0.0029
   5.3076E+00   5.4368E+00   1.8761E-04  0.0028
   5.4368E+00   5.5690E+00   1.8580E-04  0.0028
   5.5690E+00   5.7045E+00   1.8454E-04  0.0028
   5.7045E+00   5.8433E+00   1.8125E-04  0.0028
   5.8433E+00   5.9855E+00   1.7929E-04  0.0028
   5.9855E+00   6.1311E+00   1.7774E-04  0.0027
   6.1311E+00   6.2803E+00   1.7611E-04  0.0027
   6.2803E+00   6.4331E+00   1.7443E-04  0.0027
   6.4331E+00   6.5896E+00   1.7206E-04  0.0027
   6.5896E+00   6.7500E+00   1.7087E-04  0.0027
   6.7500E+00   6.9142E+00   1.6752E-04  0.0027
   6.9142E+00   7.0824E+00   1.6591E-04  0.0027
   7.0824E+00   7.2548E+00   1.6422E-04  0.0026
   7.2548E+00   7.4313E+00   1.6223E-04  0.0026
   7.4313E+00   7.6121E+00   1.5990E-04  0.0026
   7.6121E+00   7.7973E+00   1.5759E-04  0.0026
   7.7973E+00   7.9870E+00   1.5557E-04  0.0026
   7.9870E+00   8.1813E+00   1.5325E-04  0.0026
   8.1813E+00   8.3804E+00   1.5045E-04  0.0026
   8.3804E+00   8.5843E+00   1.4779E-04  0.0026
   8.5843E+00   8.7931E+00   1.4643E-04  0.0025
   8.7931E+00   9.0071E+00   1.4330E-04  0.0025
   9.0071E+00   9.2262E+00   1.4128E-04  0.0025
   9.2262E+00   9.4507E+00   1.3815E-04  0.0025
   9.4507E+00   9.6807E+00   1.3553E-04  0.0025
   9.6807E+00   9.9162E+00   1.3424E-04  0.0025
   9.9162E+00   1.0157E+01   1.3685E-04  0.0025
   1.0157E+01   1.0405E+01   1.3473E-04  0.0024
   1.0405E+01   1.0658E+01   1.3229E-04  0.0024
   1.0658E+01   1.0917E+01   1.2980E-04  0.0024
   1.0917E+01   1.1183E+01   1.2682E-04  0.0024
   1.1183E+01   1.1455E+01   1.2575E-04  0.0024
   1.1455E+01   1.1733E+01   1.2430E-04  0.0024
   1.1733E+01   1.2019E+01   1.2236E-04  0.0024
   1.2019E+01   1.2311E+01   1.2134E-04  0.0024
   1.2311E+01   1.2611E+01   1.1954E-04  0.0024
   1.2611E+01   1.2918E+01   1.1836E-04  0.0023
   1.2918E+01   1.3232E+01   1.1733E-04  0.0023
   1.3232E+01   1.3554E+01   1.1561E-04  0.0023
   1.3554E+01   1.3884E+01   1.1477E-04  0.0023
   1.3884E+01   1.4222E+01   1.1372E-04  0.0023
   1.4222E+01   1.4568E+01   1.1263E-04  0.0023
   1.4568E+01   1.4922E+01   1.1088E-04  0.0023
   1.4922E+01   1.5285E+01   1.0989E-04  0.0022
   1.5285E+01   1.5657E+01   1.0858E-04  0.0022
   1.5657E+01   1.6038E+01   1.0762E-04  0.0022
   1.6038E+01   1.6428E+01   1.0615E-04  0.0022
   1.6428E+01   1.6828E+01   1.0469E-04  0.0022
   1.6828E+01   1.7237E+01   1.0364E-04  0.0022
   1.7237E+01   1.7657E+01   1.0312E-04  0.0022
   1.7657E+01   1.8086E+01   1.0119E-04  0.0021
   1.8086E+01   1.8526E+01   1.0028E-04  0.0021
   1.8526E+01   1.8977E+01   9.8690E-05  0.0021
   1.8977E+01   1.9439E+01   9.7539E-05  0.0021
   1.9439E+01   1.9912E+01   9.7074E-05  0.0021
   1.9912E+01   2.0396E+01   9.6215E-05  0.0021
   2.0396E+01   2.0893E+01   9.5610E-05  0.0021
   2.0893E+01   2.1401E+01   9.3942E-05  0.0020
   2.1401E+01   2.1922E+01   9.2849E-05  0.0020
   2.1922E+01   2.2455E+01   9.1717E-05  0.0020
   2.2455E+01   2.3001E+01   9.0387E-05  0.0020
   2.3001E+01   2.3561E+01   8.9052E-05  0.0020
   2.3561E+01   2.4134E+01   8.7912E-05  0.0020
   2.4134E+01   2.4721E+01   8.6659E-05  0.0020
   2.4721E+01   2.5323E+01   8.5652E-05  0.0020
   2.5323E+01   2.5939E+01   8.4131E-05  0.0020
   2.5939E+01   2.6570E+01   8.2714E-05  0.0020
   2.6570E+01   2.7217E+01   8.1790E-05  0.0019
   2.7217E+01   2.7879E+01   8.2058E-05  0.0019
   2.7879E+01   2.8557E+01   8.4090E-05  0.0019
   2.8557E+01   2.9252E+01   8.3237E-05  0.0019
   2.9252E+01   2.9964E+01   8.2096E-05  0.0019
   2.9964E+01   3.0693E+01   8.0537E-05  0.0018
   3.0693E+01   3.1440E+01   7.9183E-05  0.0018
   3.1440E+01   3.2205E+01   7.8220E-05  0.0018
   3.2205E+01   3.2988E+01   7.6507E-05  0.0018
   3.2988E+01   3.3791E+01   7.5330E-05  0.0018
   3.3791E+01   3.4613E+01   7.3662E-05  0.0018
   3.4613E+01   3.5455E+01   7.2367E-05  0.0018
   3.5455E+01   3.6318E+01   7.0977E-05  0.0018
   3.6318E+01   3.7201E+01   6.9317E-05  0.0018
   3.7201E+01   3.8106E+01   6.7919E-05  0.0018
   3.8106E+01   3.9034E+01   6.5973E-05  0.0018
   3.9034E+01   3.9983E+01   6.4477E-05  0.0018
   3.9983E+01   4.0956E+01   6.2699E-05  0.0018
   4.0956E+01   4.1953E+01   6.0766E-05  0.0018
   4.1953E+01   4.2973E+01   5.8831E-05  0.0018
   4.2973E+01   4.4019E+01   5.6870E-05  0.0018
   4.4019E+01   4.5090E+01   5.4953E-05  0.0018
   4.5090E+01   4.6187E+01   5.2607E-05  0.0019
   4.6187E+01   4.7311E+01   5.0275E-05  0.0019
   4.7311E+01   4.8462E+01   4.5613E-05  0.0020
   4.8462E+01   4.9641E+01   4.2644E-05  0.0020
   4.9641E+01   5.0849E+01   4.0078E-05  0.0020
   5.0849E+01   5.2086E+01   3.7687E-05  0.0021
   5.2086E+01   5.3353E+01   3.4909E-05  0.0021
   5.3353E+01   5.4651E+01   3.1974E-05  0.0022
   5.4651E+01   5.5981E+01   2.8856E-05  0.0023
   5.5981E+01   5.7343E+01   2.5486E-05  0.0024
   5.7343E+01   5.8738E+01   2.1894E-05  0.0026
   5.8738E+01   6.0168E+01   1.8299E-05  0.0028
   6.0168E+01   6.1632E+01   1.4646E-05  0.0031
   6.1632E+01   6.3131E+01   1.1386E-05  0.0034
   6.3131E+01   6.4667E+01   8.4114E-06  0.0039
   6.4667E+01   6.6240E+01   5.9889E-06  0.0046
   6.6240E+01   6.7852E+01   4.2527E-06  0.0054
   6.7852E+01   6.9503E+01   3.2655E-06  0.0061
   6.9503E+01   7.1194E+01   2.7958E-06  0.0065
   7.1194E+01   7.2926E+01   1.3518E-06  0.0092
   7.2926E+01   7.4701E+01   1.2399E-09  0.3015
   7.4701E+01   7.6518E+01   0.0000E+00  0.0000
   7.6518E+01   7.8380E+01   0.0000E+00  0.0000
   7.8380E+01   8.0287E+01   0.0000E+00  0.0000
   8.0287E+01   8.2240E+01   0.0000E+00  0.0000
   8.2240E+01   8.4241E+01   0.0000E+00  0.0000
   8.4241E+01   8.6291E+01   0.0000E+00  0.0000
   8.6291E+01   8.8391E+01   0.0000E+00  0.0000
   8.8391E+01   9.0541E+01   0.0000E+00  0.0000
   9.0541E+01   9.2744E+01   0.0000E+00  0.0000
   9.2744E+01   9.5001E+01   0.0000E+00  0.0000
   9.5001E+01   9.7312E+01   0.0000E+00  0.0000
   9.7312E+01   9.9680E+01   0.0000E+00  0.0000
   9.9680E+01   1.0211E+02   0.0000E+00  0.0000
   1.0211E+02   1.0459E+02   0.0000E+00  0.0000
   1.0459E+02   1.0713E+02   0.0000E+00  0.0000
   1.0713E+02   1.0974E+02   0.0000E+00  0.0000
   1.0974E+02   1.1241E+02   0.0000E+00  0.0000
   1.1241E+02   1.1515E+02   0.0000E+00  0.0000
   1.1515E+02   1.1795E+02   0.0000E+00  0.0000
   1.1795E+02   1.2082E+02   0.0000E+00  0.0000
   1.2082E+02   1.2376E+02   0.0000E+00  0.0000
   1.2376E+02   1.2677E+02   0.0000E+00  0.0000
   1.2677E+02   1.2985E+02   0.0000E+00  0.0000
   1.2985E+02   1.3301E+02   0.0000E+00  0.0000
   1.3301E+02   1.3625E+02   0.0000E+00  0.0000
   1.3625E+02   1.3956E+02   0.0000E+00  0.0000
   1.3956E+02   1.4296E+02   0.0000E+00  0.0000
   1.4296E+02   1.4644E+02   0.0000E+00  0.0000
   1.4644E+02   1.5000E+02   0.0000E+00  0.0000

#   sum over                 3.7443E-05
'no. =    1   reg = 106 - 206'
msuc: {\huge [t-cross] in region mesh}
msdr: {\it plotted by \ANGEL \version}
msdl: {\it calculated by \PHITS  3.26}
wt: s(0.7)
\vspace{-3}
  region surface crossing
  area  &=&   1.0000E+00 [cm^2]
e:
 
# Information for Restart Calculation
# This calculation was newly started
# istdev =  2 # 1:Batch variance, 2:History variance
# resc2  = 5.00000000000000000E+09 # Total source weight or Total source weight / maxcas
# resc3  = 5.00000000000000000E+09 # Total history number or Total batch number
# maxcas =   100000000 # History / Batch, only used for istdev=1
# bitrseed = 0110100000100010111000001110001111001110100100011111101000111001 # bit data of rseed
