[ T-Cross ]
    title = [t-cross] in region mesh
     mesh =  reg            # mesh type is region-wise
      reg =    1            # number of crossing regions
      non     r-from    r-to       area
      1       106       206        1.000000    
   e-type =    3            # e-mesh is log given by emin, emax and ne
     emin =  1.0000000E-02  # minimum value of e-mesh points
     emax =   150.0000      # maximum value of e-mesh points
#    edel =  2.4039514E-02  # mesh width of e-mesh points
       ne =    400          # number of e-mesh points
#    data = ( e(i), i = 1, ne + 1 )
#           1.00000E-02  1.02433E-02  1.04925E-02  1.07478E-02  1.10093E-02
#           1.12772E-02  1.15516E-02  1.18326E-02  1.21205E-02  1.24154E-02
#           1.27175E-02  1.30269E-02  1.33439E-02  1.36686E-02  1.40011E-02
#           1.43418E-02  1.46907E-02  1.50482E-02  1.54143E-02  1.57894E-02
#           1.61735E-02  1.65670E-02  1.69701E-02  1.73830E-02  1.78060E-02
#           1.82392E-02  1.86830E-02  1.91375E-02  1.96032E-02  2.00801E-02
#           2.05687E-02  2.10692E-02  2.15818E-02  2.21069E-02  2.26448E-02
#           2.31957E-02  2.37601E-02  2.43382E-02  2.49304E-02  2.55369E-02
#           2.61583E-02  2.67947E-02  2.74467E-02  2.81145E-02  2.87985E-02
#           2.94992E-02  3.02169E-02  3.09521E-02  3.17052E-02  3.24766E-02
#           3.32668E-02  3.40762E-02  3.49053E-02  3.57546E-02  3.66246E-02
#           3.75157E-02  3.84284E-02  3.93634E-02  4.03212E-02  4.13022E-02
#           4.23071E-02  4.33365E-02  4.43909E-02  4.54710E-02  4.65773E-02
#           4.77106E-02  4.88714E-02  5.00605E-02  5.12785E-02  5.25262E-02
#           5.38042E-02  5.51133E-02  5.64542E-02  5.78278E-02  5.92348E-02
#           6.06760E-02  6.21523E-02  6.36645E-02  6.52135E-02  6.68002E-02
#           6.84255E-02  7.00904E-02  7.17957E-02  7.35426E-02  7.53319E-02
#           7.71648E-02  7.90423E-02  8.09655E-02  8.29354E-02  8.49533E-02
#           8.70203E-02  8.91376E-02  9.13064E-02  9.35279E-02  9.58035E-02
#           9.81345E-02  1.00522E-01  1.02968E-01  1.05473E-01  1.08040E-01
#           1.10668E-01  1.13361E-01  1.16119E-01  1.18944E-01  1.21838E-01
#           1.24803E-01  1.27839E-01  1.30950E-01  1.34136E-01  1.37399E-01
#           1.40742E-01  1.44167E-01  1.47675E-01  1.51268E-01  1.54948E-01
#           1.58718E-01  1.62580E-01  1.66535E-01  1.70587E-01  1.74738E-01
#           1.78989E-01  1.83344E-01  1.87805E-01  1.92375E-01  1.97055E-01
#           2.01850E-01  2.06761E-01  2.11792E-01  2.16945E-01  2.22223E-01
#           2.27630E-01  2.33169E-01  2.38842E-01  2.44653E-01  2.50605E-01
#           2.56703E-01  2.62949E-01  2.69346E-01  2.75900E-01  2.82613E-01
#           2.89489E-01  2.96532E-01  3.03747E-01  3.11138E-01  3.18708E-01
#           3.26462E-01  3.34405E-01  3.42542E-01  3.50876E-01  3.59413E-01
#           3.68158E-01  3.77116E-01  3.86291E-01  3.95690E-01  4.05317E-01
#           4.15179E-01  4.25281E-01  4.35628E-01  4.46227E-01  4.57084E-01
#           4.68205E-01  4.79597E-01  4.91266E-01  5.03219E-01  5.15463E-01
#           5.28005E-01  5.40851E-01  5.54011E-01  5.67490E-01  5.81298E-01
#           5.95441E-01  6.09929E-01  6.24769E-01  6.39970E-01  6.55541E-01
#           6.71491E-01  6.87828E-01  7.04564E-01  7.21706E-01  7.39266E-01
#           7.57253E-01  7.75678E-01  7.94551E-01  8.13883E-01  8.33685E-01
#           8.53969E-01  8.74747E-01  8.96030E-01  9.17831E-01  9.40163E-01
#           9.63038E-01  9.86469E-01  1.01047E+00  1.03506E+00  1.06024E+00
#           1.08604E+00  1.11246E+00  1.13953E+00  1.16725E+00  1.19565E+00
#           1.22474E+00  1.25454E+00  1.28507E+00  1.31633E+00  1.34836E+00
#           1.38117E+00  1.41477E+00  1.44920E+00  1.48446E+00  1.52057E+00
#           1.55757E+00  1.59547E+00  1.63429E+00  1.67405E+00  1.71478E+00
#           1.75650E+00  1.79924E+00  1.84302E+00  1.88786E+00  1.93379E+00
#           1.98084E+00  2.02904E+00  2.07841E+00  2.12898E+00  2.18078E+00
#           2.23384E+00  2.28819E+00  2.34386E+00  2.40089E+00  2.45930E+00
#           2.51914E+00  2.58043E+00  2.64322E+00  2.70753E+00  2.77341E+00
#           2.84088E+00  2.91001E+00  2.98081E+00  3.05333E+00  3.12762E+00
#           3.20372E+00  3.28167E+00  3.36152E+00  3.44330E+00  3.52708E+00
#           3.61290E+00  3.70080E+00  3.79085E+00  3.88308E+00  3.97756E+00
#           4.07434E+00  4.17347E+00  4.27501E+00  4.37903E+00  4.48557E+00
#           4.59471E+00  4.70650E+00  4.82102E+00  4.93832E+00  5.05847E+00
#           5.18155E+00  5.30762E+00  5.43676E+00  5.56904E+00  5.70453E+00
#           5.84333E+00  5.98550E+00  6.13114E+00  6.28031E+00  6.43312E+00
#           6.58964E+00  6.74997E+00  6.91420E+00  7.08243E+00  7.25475E+00
#           7.43126E+00  7.61207E+00  7.79728E+00  7.98700E+00  8.18133E+00
#           8.38038E+00  8.58428E+00  8.79315E+00  9.00709E+00  9.22624E+00
#           9.45072E+00  9.68067E+00  9.91620E+00  1.01575E+01  1.04046E+01
#           1.06578E+01  1.09171E+01  1.11827E+01  1.14548E+01  1.17335E+01
#           1.20190E+01  1.23114E+01  1.26109E+01  1.29178E+01  1.32321E+01
#           1.35540E+01  1.38838E+01  1.42216E+01  1.45676E+01  1.49221E+01
#           1.52851E+01  1.56570E+01  1.60380E+01  1.64282E+01  1.68279E+01
#           1.72374E+01  1.76568E+01  1.80864E+01  1.85264E+01  1.89772E+01
#           1.94389E+01  1.99119E+01  2.03963E+01  2.08926E+01  2.14009E+01
#           2.19216E+01  2.24550E+01  2.30014E+01  2.35610E+01  2.41343E+01
#           2.47215E+01  2.53230E+01  2.59391E+01  2.65702E+01  2.72167E+01
#           2.78789E+01  2.85572E+01  2.92520E+01  2.99637E+01  3.06928E+01
#           3.14396E+01  3.22045E+01  3.29881E+01  3.37907E+01  3.46128E+01
#           3.54550E+01  3.63177E+01  3.72013E+01  3.81064E+01  3.90336E+01
#           3.99833E+01  4.09561E+01  4.19526E+01  4.29734E+01  4.40189E+01
#           4.50900E+01  4.61870E+01  4.73108E+01  4.84619E+01  4.96410E+01
#           5.08488E+01  5.20860E+01  5.33533E+01  5.46514E+01  5.59812E+01
#           5.73432E+01  5.87384E+01  6.01676E+01  6.16315E+01  6.31311E+01
#           6.46671E+01  6.62405E+01  6.78522E+01  6.95031E+01  7.11941E+01
#           7.29263E+01  7.47007E+01  7.65182E+01  7.83800E+01  8.02870E+01
#           8.22405E+01  8.42414E+01  8.62911E+01  8.83906E+01  9.05412E+01
#           9.27442E+01  9.50007E+01  9.73122E+01  9.96799E+01  1.02105E+02
#           1.04589E+02  1.07134E+02  1.09741E+02  1.12411E+02  1.15146E+02
#           1.17948E+02  1.20817E+02  1.23757E+02  1.26768E+02  1.29852E+02
#           1.33012E+02  1.36248E+02  1.39563E+02  1.42959E+02  1.46437E+02
#           1.50000E+02
     unit =    2            # unit is [1/cm^2/(MeV/n)/source]
     axis =  eng            # axis of output
     file = detector-07.out  # file name of output for the above axis
   output = f-curr          # surface crossing forward current spectrum
     part =  neutron  
# kf/name :  2112     
#    used :        main (  %)        temp (  %)       total (  %)
#  memory :         414 (  0)           0 (  0)         414 (  0)

#------------------------------------------------------------------------------
#newpage:
#   no. =    1   reg = 106 - 206

x: Energy [MeV/n]
y:  F-Curr [1/cm^2/(MeV/n)/source]         
p: xlog ylog afac(0.8) form(0.9)
h: n            x            y(neutron ),hh0l   n 
#  e-lower      e-upper      neutron     r.err 
   1.0000E-02   1.0243E-02   5.2608E-05  0.1250
   1.0243E-02   1.0493E-02   5.3766E-05  0.1222
   1.0493E-02   1.0748E-02   4.7005E-05  0.1291
   1.0748E-02   1.1009E-02   6.1950E-05  0.1111
   1.1009E-02   1.1277E-02   6.0478E-05  0.1111
   1.1277E-02   1.1552E-02   6.6331E-05  0.1048
   1.1552E-02   1.1833E-02   6.1197E-05  0.1078
   1.1833E-02   1.2121E-02   5.1407E-05  0.1162
   1.2121E-02   1.2415E-02   5.2221E-05  0.1140
   1.2415E-02   1.2718E-02   4.7670E-05  0.1179
   1.2718E-02   1.3027E-02   5.6233E-05  0.1072
   1.3027E-02   1.3344E-02   5.3635E-05  0.1085
   1.3344E-02   1.3669E-02   5.7905E-05  0.1031
   1.3669E-02   1.4001E-02   4.8111E-05  0.1118
   1.4001E-02   1.4342E-02   5.1665E-05  0.1066
   1.4342E-02   1.4691E-02   5.2730E-05  0.1043
   1.4691E-02   1.5048E-02   6.2109E-05  0.0949
   1.5048E-02   1.5414E-02   5.6264E-05  0.0985
   1.5414E-02   1.5789E-02   5.0661E-05  0.1026
   1.5789E-02   1.6174E-02   6.0911E-05  0.0925
   1.6174E-02   1.6567E-02   5.9972E-05  0.0921
   1.6567E-02   1.6970E-02   6.8967E-05  0.0848
   1.6970E-02   1.7383E-02   5.6188E-05  0.0928
   1.7383E-02   1.7806E-02   6.3838E-05  0.0861
   1.7806E-02   1.8239E-02   6.0937E-05  0.0870
   1.8239E-02   1.8683E-02   6.2644E-05  0.0848
   1.8683E-02   1.9138E-02   5.9397E-05  0.0861
   1.9138E-02   1.9603E-02   7.2160E-05  0.0772
   1.9603E-02   2.0080E-02   6.7091E-05  0.0791
   2.0080E-02   2.0569E-02   6.7545E-05  0.0778
   2.0569E-02   2.1069E-02   6.3542E-05  0.0793
   2.1069E-02   2.1582E-02   6.1698E-05  0.0795
   2.1582E-02   2.2107E-02   6.8629E-05  0.0745
   2.2107E-02   2.2645E-02   6.1352E-05  0.0778
   2.2645E-02   2.3196E-02   7.4834E-05  0.0696
   2.3196E-02   2.3760E-02   6.1662E-05  0.0758
   2.3760E-02   2.4338E-02   6.2619E-05  0.0743
   2.4338E-02   2.4930E-02   6.0794E-05  0.0745
   2.4930E-02   2.5537E-02   6.7263E-05  0.0700
   2.5537E-02   2.6158E-02   6.6953E-05  0.0693
   2.6158E-02   2.6795E-02   6.4105E-05  0.0700
   2.6795E-02   2.7447E-02   7.1786E-05  0.0654
   2.7447E-02   2.8114E-02   5.9599E-05  0.0709
   2.8114E-02   2.8799E-02   7.0463E-05  0.0644
   2.8799E-02   2.9499E-02   7.0216E-05  0.0638
   2.9499E-02   3.0217E-02   6.9282E-05  0.0634
   3.0217E-02   3.0952E-02   6.2840E-05  0.0658
   3.0952E-02   3.1705E-02   6.6171E-05  0.0633
   3.1705E-02   3.2477E-02   6.7149E-05  0.0621
   3.2477E-02   3.3267E-02   6.7579E-05  0.0612
   3.3267E-02   3.4076E-02   6.0044E-05  0.0642
   3.4076E-02   3.4905E-02   6.5645E-05  0.0606
   3.4905E-02   3.5755E-02   6.2877E-05  0.0612
   3.5755E-02   3.6625E-02   6.3072E-05  0.0603
   3.6625E-02   3.7516E-02   7.4963E-05  0.0547
   3.7516E-02   3.8428E-02   7.2744E-05  0.0549
   3.8428E-02   3.9363E-02   7.8824E-05  0.0521
   3.9363E-02   4.0321E-02   7.2671E-05  0.0536
   4.0321E-02   4.1302E-02   6.9615E-05  0.0541
   4.1302E-02   4.2307E-02   7.0056E-05  0.0533
   4.2307E-02   4.3337E-02   7.1916E-05  0.0520
   4.3337E-02   4.4391E-02   6.7563E-05  0.0530
   4.4391E-02   4.5471E-02   7.4903E-05  0.0497
   4.5471E-02   4.6577E-02   6.4202E-05  0.0531
   4.6577E-02   4.7711E-02   7.0416E-05  0.0501
   4.7711E-02   4.8871E-02   7.8682E-05  0.0468
   4.8871E-02   5.0061E-02   7.9084E-05  0.0461
   5.0061E-02   5.1279E-02   7.5205E-05  0.0467
   5.1279E-02   5.2526E-02   7.7265E-05  0.0455
   5.2526E-02   5.3804E-02   7.9656E-05  0.0443
   5.3804E-02   5.5113E-02   7.3333E-05  0.0456
   5.5113E-02   5.6454E-02   7.3530E-05  0.0450
   5.6454E-02   5.7828E-02   7.2803E-05  0.0447
   5.7828E-02   5.9235E-02   7.8626E-05  0.0425
   5.9235E-02   6.0676E-02   7.4658E-05  0.0431
   6.0676E-02   6.2152E-02   7.8374E-05  0.0416
   6.2152E-02   6.3665E-02   7.6883E-05  0.0415
   6.3665E-02   6.5214E-02   8.1471E-05  0.0398
   6.5214E-02   6.6800E-02   7.8780E-05  0.0400
   6.6800E-02   6.8426E-02   7.9308E-05  0.0394
   6.8426E-02   7.0090E-02   7.4962E-05  0.0400
   7.0090E-02   7.1796E-02   7.4823E-05  0.0396
   7.1796E-02   7.3543E-02   7.7649E-05  0.0384
   7.3543E-02   7.5332E-02   7.8273E-05  0.0378
   7.5332E-02   7.7165E-02   8.1568E-05  0.0366
   7.7165E-02   7.9042E-02   8.5114E-05  0.0354
   7.9042E-02   8.0965E-02   8.3872E-05  0.0352
   8.0965E-02   8.2935E-02   7.6361E-05  0.0364
   8.2935E-02   8.4953E-02   8.1980E-05  0.0348
   8.4953E-02   8.7020E-02   8.1375E-05  0.0345
   8.7020E-02   8.9138E-02   8.1721E-05  0.0340
   8.9138E-02   9.1306E-02   8.4379E-05  0.0331
   9.1306E-02   9.3528E-02   7.9224E-05  0.0337
   9.3528E-02   9.5804E-02   7.6463E-05  0.0339
   9.5804E-02   9.8134E-02   8.8989E-05  0.0310
   9.8134E-02   1.0052E-01   8.5299E-05  0.0313
   1.0052E-01   1.0297E-01   8.0260E-05  0.0319
   1.0297E-01   1.0547E-01   8.7031E-05  0.0303
   1.0547E-01   1.0804E-01   7.7559E-05  0.0317
   1.0804E-01   1.1067E-01   8.4720E-05  0.0300
   1.1067E-01   1.1336E-01   8.3923E-05  0.0297
   1.1336E-01   1.1612E-01   8.0861E-05  0.0299
   1.1612E-01   1.1894E-01   8.6442E-05  0.0286
   1.1894E-01   1.2184E-01   8.3514E-05  0.0288
   1.2184E-01   1.2480E-01   8.4860E-05  0.0282
   1.2480E-01   1.2784E-01   8.4669E-05  0.0279
   1.2784E-01   1.3095E-01   8.6515E-05  0.0273
   1.3095E-01   1.3414E-01   8.5110E-05  0.0272
   1.3414E-01   1.3740E-01   8.6183E-05  0.0267
   1.3740E-01   1.4074E-01   8.5606E-05  0.0264
   1.4074E-01   1.4417E-01   8.1281E-05  0.0268
   1.4417E-01   1.4767E-01   8.5194E-05  0.0259
   1.4767E-01   1.5127E-01   8.2141E-05  0.0260
   1.5127E-01   1.5495E-01   8.5333E-05  0.0252
   1.5495E-01   1.5872E-01   8.1396E-05  0.0255
   1.5872E-01   1.6258E-01   8.4203E-05  0.0248
   1.6258E-01   1.6654E-01   8.1882E-05  0.0248
   1.6654E-01   1.7059E-01   8.8523E-05  0.0236
   1.7059E-01   1.7474E-01   8.2172E-05  0.0242
   1.7474E-01   1.7899E-01   7.8592E-05  0.0245
   1.7899E-01   1.8334E-01   8.0818E-05  0.0238
   1.8334E-01   1.8781E-01   8.0771E-05  0.0236
   1.8781E-01   1.9237E-01   8.0093E-05  0.0234
   1.9237E-01   1.9706E-01   7.6540E-05  0.0236
   1.9706E-01   2.0185E-01   7.1658E-05  0.0241
   2.0185E-01   2.0676E-01   7.6171E-05  0.0231
   2.0676E-01   2.1179E-01   7.5165E-05  0.0230
   2.1179E-01   2.1694E-01   7.5240E-05  0.0227
   2.1694E-01   2.2222E-01   7.5654E-05  0.0224
   2.2222E-01   2.2763E-01   7.6989E-05  0.0219
   2.2763E-01   2.3317E-01   7.9466E-05  0.0213
   2.3317E-01   2.3884E-01   7.7499E-05  0.0213
   2.3884E-01   2.4465E-01   7.5744E-05  0.0213
   2.4465E-01   2.5061E-01   7.7363E-05  0.0208
   2.5061E-01   2.5670E-01   7.7710E-05  0.0205
   2.5670E-01   2.6295E-01   7.9163E-05  0.0201
   2.6295E-01   2.6935E-01   8.0256E-05  0.0197
   2.6935E-01   2.7590E-01   8.3152E-05  0.0192
   2.7590E-01   2.8261E-01   8.1111E-05  0.0192
   2.8261E-01   2.8949E-01   8.1333E-05  0.0189
   2.8949E-01   2.9653E-01   7.9249E-05  0.0189
   2.9653E-01   3.0375E-01   7.9923E-05  0.0186
   3.0375E-01   3.1114E-01   8.2063E-05  0.0182
   3.1114E-01   3.1871E-01   8.3003E-05  0.0178
   3.1871E-01   3.2646E-01   8.3229E-05  0.0176
   3.2646E-01   3.3441E-01   7.9528E-05  0.0178
   3.3441E-01   3.4254E-01   8.3027E-05  0.0172
   3.4254E-01   3.5088E-01   8.1069E-05  0.0172
   3.5088E-01   3.5941E-01   8.3497E-05  0.0167
   3.5941E-01   3.6816E-01   8.3582E-05  0.0165
   3.6816E-01   3.7712E-01   8.3113E-05  0.0164
   3.7712E-01   3.8629E-01   8.4610E-05  0.0160
   3.8629E-01   3.9569E-01   8.0259E-05  0.0163
   3.9569E-01   4.0532E-01   8.5972E-05  0.0155
   4.0532E-01   4.1518E-01   8.4515E-05  0.0155
   4.1518E-01   4.2528E-01   8.4985E-05  0.0153
   4.2528E-01   4.3563E-01   8.4665E-05  0.0151
   4.3563E-01   4.4623E-01   8.4688E-05  0.0149
   4.4623E-01   4.5708E-01   8.5330E-05  0.0147
   4.5708E-01   4.6821E-01   8.7273E-05  0.0144
   4.6821E-01   4.7960E-01   8.6949E-05  0.0142
   4.7960E-01   4.9127E-01   8.4754E-05  0.0142
   4.9127E-01   5.0322E-01   8.7156E-05  0.0139
   5.0322E-01   5.1546E-01   8.5145E-05  0.0138
   5.1546E-01   5.2800E-01   8.6275E-05  0.0136
   5.2800E-01   5.4085E-01   8.8314E-05  0.0133
   5.4085E-01   5.5401E-01   8.8979E-05  0.0131
   5.5401E-01   5.6749E-01   8.8276E-05  0.0130
   5.6749E-01   5.8130E-01   9.1214E-05  0.0126
   5.8130E-01   5.9544E-01   9.0784E-05  0.0125
   5.9544E-01   6.0993E-01   9.0171E-05  0.0124
   6.0993E-01   6.2477E-01   9.0299E-05  0.0122
   6.2477E-01   6.3997E-01   9.1115E-05  0.0120
   6.3997E-01   6.5554E-01   9.0306E-05  0.0119
   6.5554E-01   6.7149E-01   9.1682E-05  0.0117
   6.7149E-01   6.8783E-01   9.2030E-05  0.0115
   6.8783E-01   7.0456E-01   9.2905E-05  0.0113
   7.0456E-01   7.2171E-01   9.2705E-05  0.0112
   7.2171E-01   7.3927E-01   9.7129E-05  0.0108
   7.3927E-01   7.5725E-01   9.4971E-05  0.0108
   7.5725E-01   7.7568E-01   9.4071E-05  0.0107
   7.7568E-01   7.9455E-01   9.6093E-05  0.0105
   7.9455E-01   8.1388E-01   9.5134E-05  0.0104
   8.1388E-01   8.3368E-01   9.7271E-05  0.0102
   8.3368E-01   8.5397E-01   9.7341E-05  0.0101
   8.5397E-01   8.7475E-01   9.7554E-05  0.0099
   8.7475E-01   8.9603E-01   9.7363E-05  0.0098
   8.9603E-01   9.1783E-01   9.7823E-05  0.0097
   9.1783E-01   9.4016E-01   9.9744E-05  0.0095
   9.4016E-01   9.6304E-01   9.9225E-05  0.0094
   9.6304E-01   9.8647E-01   9.7889E-05  0.0093
   9.8647E-01   1.0105E+00   9.8013E-05  0.0092
   1.0105E+00   1.0351E+00   9.7079E-05  0.0092
   1.0351E+00   1.0602E+00   9.8678E-05  0.0090
   1.0602E+00   1.0860E+00   9.8371E-05  0.0089
   1.0860E+00   1.1125E+00   9.8757E-05  0.0088
   1.1125E+00   1.1395E+00   9.7913E-05  0.0087
   1.1395E+00   1.1673E+00   1.0052E-04  0.0085
   1.1673E+00   1.1957E+00   1.0030E-04  0.0084
   1.1957E+00   1.2247E+00   1.0074E-04  0.0083
   1.2247E+00   1.2545E+00   1.0001E-04  0.0082
   1.2545E+00   1.2851E+00   1.0140E-04  0.0080
   1.2851E+00   1.3163E+00   1.0222E-04  0.0079
   1.3163E+00   1.3484E+00   1.0083E-04  0.0079
   1.3484E+00   1.3812E+00   1.0211E-04  0.0077
   1.3812E+00   1.4148E+00   1.0204E-04  0.0076
   1.4148E+00   1.4492E+00   1.0297E-04  0.0075
   1.4492E+00   1.4845E+00   1.0315E-04  0.0074
   1.4845E+00   1.5206E+00   1.0142E-04  0.0074
   1.5206E+00   1.5576E+00   1.0357E-04  0.0072
   1.5576E+00   1.5955E+00   1.0282E-04  0.0072
   1.5955E+00   1.6343E+00   1.0217E-04  0.0071
   1.6343E+00   1.6741E+00   1.0249E-04  0.0070
   1.6741E+00   1.7148E+00   1.0424E-04  0.0069
   1.7148E+00   1.7565E+00   1.0380E-04  0.0068
   1.7565E+00   1.7992E+00   1.0317E-04  0.0067
   1.7992E+00   1.8430E+00   1.0352E-04  0.0066
   1.8430E+00   1.8879E+00   1.0471E-04  0.0065
   1.8879E+00   1.9338E+00   1.0374E-04  0.0065
   1.9338E+00   1.9808E+00   1.0381E-04  0.0064
   1.9808E+00   2.0290E+00   1.0542E-04  0.0063
   2.0290E+00   2.0784E+00   1.0472E-04  0.0062
   2.0784E+00   2.1290E+00   1.0405E-04  0.0062
   2.1290E+00   2.1808E+00   1.0401E-04  0.0061
   2.1808E+00   2.2338E+00   1.0311E-04  0.0060
   2.2338E+00   2.2882E+00   1.0379E-04  0.0060
   2.2882E+00   2.3439E+00   1.0339E-04  0.0059
   2.3439E+00   2.4009E+00   1.0429E-04  0.0058
   2.4009E+00   2.4593E+00   1.0332E-04  0.0058
   2.4593E+00   2.5191E+00   1.0254E-04  0.0057
   2.5191E+00   2.5804E+00   1.0341E-04  0.0056
   2.5804E+00   2.6432E+00   1.0341E-04  0.0055
   2.6432E+00   2.7075E+00   1.0326E-04  0.0055
   2.7075E+00   2.7734E+00   1.0366E-04  0.0054
   2.7734E+00   2.8409E+00   1.0357E-04  0.0053
   2.8409E+00   2.9100E+00   1.0199E-04  0.0053
   2.9100E+00   2.9808E+00   1.0355E-04  0.0052
   2.9808E+00   3.0533E+00   1.0227E-04  0.0052
   3.0533E+00   3.1276E+00   1.0321E-04  0.0051
   3.1276E+00   3.2037E+00   1.0159E-04  0.0051
   3.2037E+00   3.2817E+00   1.0035E-04  0.0051
   3.2817E+00   3.3615E+00   1.0047E-04  0.0050
   3.3615E+00   3.4433E+00   1.0204E-04  0.0049
   3.4433E+00   3.5271E+00   1.0090E-04  0.0049
   3.5271E+00   3.6129E+00   1.0057E-04  0.0048
   3.6129E+00   3.7008E+00   1.0041E-04  0.0048
   3.7008E+00   3.7908E+00   1.0002E-04  0.0047
   3.7908E+00   3.8831E+00   1.0095E-04  0.0046
   3.8831E+00   3.9776E+00   1.0012E-04  0.0046
   3.9776E+00   4.0743E+00   9.9235E-05  0.0046
   4.0743E+00   4.1735E+00   9.9167E-05  0.0045
   4.1735E+00   4.2750E+00   9.8758E-05  0.0045
   4.2750E+00   4.3790E+00   9.8342E-05  0.0044
   4.3790E+00   4.4856E+00   9.7562E-05  0.0044
   4.4856E+00   4.5947E+00   9.7341E-05  0.0043
   4.5947E+00   4.7065E+00   9.7063E-05  0.0043
   4.7065E+00   4.8210E+00   9.6002E-05  0.0043
   4.8210E+00   4.9383E+00   9.4991E-05  0.0042
   4.9383E+00   5.0585E+00   9.5301E-05  0.0042
   5.0585E+00   5.1815E+00   9.4686E-05  0.0041
   5.1815E+00   5.3076E+00   9.3563E-05  0.0041
   5.3076E+00   5.4368E+00   9.2355E-05  0.0041
   5.4368E+00   5.5690E+00   9.3510E-05  0.0040
   5.5690E+00   5.7045E+00   9.1765E-05  0.0040
   5.7045E+00   5.8433E+00   9.1078E-05  0.0040
   5.8433E+00   5.9855E+00   9.1070E-05  0.0039
   5.9855E+00   6.1311E+00   8.9974E-05  0.0039
   6.1311E+00   6.2803E+00   8.9678E-05  0.0039
   6.2803E+00   6.4331E+00   8.8910E-05  0.0038
   6.4331E+00   6.5896E+00   8.8603E-05  0.0038
   6.5896E+00   6.7500E+00   8.7907E-05  0.0038
   6.7500E+00   6.9142E+00   8.7759E-05  0.0037
   6.9142E+00   7.0824E+00   8.7004E-05  0.0037
   7.0824E+00   7.2548E+00   8.6261E-05  0.0037
   7.2548E+00   7.4313E+00   8.5748E-05  0.0036
   7.4313E+00   7.6121E+00   8.6064E-05  0.0036
   7.6121E+00   7.7973E+00   8.5376E-05  0.0036
   7.7973E+00   7.9870E+00   8.4527E-05  0.0035
   7.9870E+00   8.1813E+00   8.4185E-05  0.0035
   8.1813E+00   8.3804E+00   8.3998E-05  0.0035
   8.3804E+00   8.5843E+00   8.3814E-05  0.0034
   8.5843E+00   8.7931E+00   8.3381E-05  0.0034
   8.7931E+00   9.0071E+00   8.3272E-05  0.0034
   9.0071E+00   9.2262E+00   8.3314E-05  0.0033
   9.2262E+00   9.4507E+00   8.2548E-05  0.0033
   9.4507E+00   9.6807E+00   8.3063E-05  0.0032
   9.6807E+00   9.9162E+00   8.1874E-05  0.0032
   9.9162E+00   1.0157E+01   8.1848E-05  0.0032
   1.0157E+01   1.0405E+01   8.1370E-05  0.0032
   1.0405E+01   1.0658E+01   8.0970E-05  0.0031
   1.0658E+01   1.0917E+01   8.1607E-05  0.0031
   1.0917E+01   1.1183E+01   8.1161E-05  0.0030
   1.1183E+01   1.1455E+01   8.0974E-05  0.0030
   1.1455E+01   1.1733E+01   8.0561E-05  0.0030
   1.1733E+01   1.2019E+01   7.9891E-05  0.0030
   1.2019E+01   1.2311E+01   7.8725E-05  0.0029
   1.2311E+01   1.2611E+01   7.8021E-05  0.0029
   1.2611E+01   1.2918E+01   7.7306E-05  0.0029
   1.2918E+01   1.3232E+01   7.6494E-05  0.0029
   1.3232E+01   1.3554E+01   7.5689E-05  0.0029
   1.3554E+01   1.3884E+01   7.4682E-05  0.0028
   1.3884E+01   1.4222E+01   7.3856E-05  0.0028
   1.4222E+01   1.4568E+01   7.2927E-05  0.0028
   1.4568E+01   1.4922E+01   7.1580E-05  0.0028
   1.4922E+01   1.5285E+01   7.0226E-05  0.0028
   1.5285E+01   1.5657E+01   6.9430E-05  0.0028
   1.5657E+01   1.6038E+01   6.7447E-05  0.0028
   1.6038E+01   1.6428E+01   6.5982E-05  0.0028
   1.6428E+01   1.6828E+01   6.4546E-05  0.0028
   1.6828E+01   1.7237E+01   6.2251E-05  0.0028
   1.7237E+01   1.7657E+01   6.0640E-05  0.0028
   1.7657E+01   1.8086E+01   5.8517E-05  0.0028
   1.8086E+01   1.8526E+01   5.6270E-05  0.0028
   1.8526E+01   1.8977E+01   5.4447E-05  0.0029
   1.8977E+01   1.9439E+01   5.2190E-05  0.0029
   1.9439E+01   1.9912E+01   4.9927E-05  0.0029
   1.9912E+01   2.0396E+01   4.8021E-05  0.0029
   2.0396E+01   2.0893E+01   4.5600E-05  0.0030
   2.0893E+01   2.1401E+01   4.3377E-05  0.0030
   2.1401E+01   2.1922E+01   4.1247E-05  0.0031
   2.1922E+01   2.2455E+01   3.8721E-05  0.0031
   2.2455E+01   2.3001E+01   3.6844E-05  0.0032
   2.3001E+01   2.3561E+01   3.4497E-05  0.0032
   2.3561E+01   2.4134E+01   3.2266E-05  0.0033
   2.4134E+01   2.4721E+01   3.0361E-05  0.0033
   2.4721E+01   2.5323E+01   2.8588E-05  0.0034
   2.5323E+01   2.5939E+01   2.7039E-05  0.0035
   2.5939E+01   2.6570E+01   2.5364E-05  0.0035
   2.6570E+01   2.7217E+01   2.4025E-05  0.0036
   2.7217E+01   2.7879E+01   2.2572E-05  0.0037
   2.7879E+01   2.8557E+01   2.1316E-05  0.0037
   2.8557E+01   2.9252E+01   2.0001E-05  0.0038
   2.9252E+01   2.9964E+01   1.8670E-05  0.0039
   2.9964E+01   3.0693E+01   1.7417E-05  0.0040
   3.0693E+01   3.1440E+01   1.6446E-05  0.0040
   3.1440E+01   3.2205E+01   1.5471E-05  0.0041
   3.2205E+01   3.2988E+01   1.4265E-05  0.0042
   3.2988E+01   3.3791E+01   1.3268E-05  0.0043
   3.3791E+01   3.4613E+01   1.2533E-05  0.0044
   3.4613E+01   3.5455E+01   1.1805E-05  0.0045
   3.5455E+01   3.6318E+01   1.1245E-05  0.0045
   3.6318E+01   3.7201E+01   1.0702E-05  0.0046
   3.7201E+01   3.8106E+01   1.0251E-05  0.0046
   3.8106E+01   3.9034E+01   9.9556E-06  0.0047
   3.9034E+01   3.9983E+01   9.5681E-06  0.0047
   3.9983E+01   4.0956E+01   9.3186E-06  0.0047
   4.0956E+01   4.1953E+01   9.1469E-06  0.0047
   4.1953E+01   4.2973E+01   7.9926E-06  0.0050
   4.2973E+01   4.4019E+01   6.9282E-06  0.0053
   4.4019E+01   4.5090E+01   6.0856E-06  0.0055
   4.5090E+01   4.6187E+01   5.0017E-06  0.0060
   4.6187E+01   4.7311E+01   3.8738E-06  0.0068
   4.7311E+01   4.8462E+01   2.6792E-06  0.0081
   4.8462E+01   4.9641E+01   1.6173E-06  0.0102
   4.9641E+01   5.0849E+01   9.5164E-07  0.0132
   5.0849E+01   5.2086E+01   6.0362E-07  0.0164
   5.2086E+01   5.3353E+01   1.9569E-08  0.0898
   5.3353E+01   5.4651E+01   0.0000E+00  0.0000
   5.4651E+01   5.5981E+01   0.0000E+00  0.0000
   5.5981E+01   5.7343E+01   0.0000E+00  0.0000
   5.7343E+01   5.8738E+01   0.0000E+00  0.0000
   5.8738E+01   6.0168E+01   0.0000E+00  0.0000
   6.0168E+01   6.1632E+01   0.0000E+00  0.0000
   6.1632E+01   6.3131E+01   0.0000E+00  0.0000
   6.3131E+01   6.4667E+01   0.0000E+00  0.0000
   6.4667E+01   6.6240E+01   0.0000E+00  0.0000
   6.6240E+01   6.7852E+01   0.0000E+00  0.0000
   6.7852E+01   6.9503E+01   0.0000E+00  0.0000
   6.9503E+01   7.1194E+01   0.0000E+00  0.0000
   7.1194E+01   7.2926E+01   0.0000E+00  0.0000
   7.2926E+01   7.4701E+01   0.0000E+00  0.0000
   7.4701E+01   7.6518E+01   0.0000E+00  0.0000
   7.6518E+01   7.8380E+01   0.0000E+00  0.0000
   7.8380E+01   8.0287E+01   0.0000E+00  0.0000
   8.0287E+01   8.2240E+01   0.0000E+00  0.0000
   8.2240E+01   8.4241E+01   0.0000E+00  0.0000
   8.4241E+01   8.6291E+01   0.0000E+00  0.0000
   8.6291E+01   8.8391E+01   0.0000E+00  0.0000
   8.8391E+01   9.0541E+01   0.0000E+00  0.0000
   9.0541E+01   9.2744E+01   0.0000E+00  0.0000
   9.2744E+01   9.5001E+01   0.0000E+00  0.0000
   9.5001E+01   9.7312E+01   0.0000E+00  0.0000
   9.7312E+01   9.9680E+01   0.0000E+00  0.0000
   9.9680E+01   1.0211E+02   0.0000E+00  0.0000
   1.0211E+02   1.0459E+02   0.0000E+00  0.0000
   1.0459E+02   1.0713E+02   0.0000E+00  0.0000
   1.0713E+02   1.0974E+02   0.0000E+00  0.0000
   1.0974E+02   1.1241E+02   0.0000E+00  0.0000
   1.1241E+02   1.1515E+02   0.0000E+00  0.0000
   1.1515E+02   1.1795E+02   0.0000E+00  0.0000
   1.1795E+02   1.2082E+02   0.0000E+00  0.0000
   1.2082E+02   1.2376E+02   0.0000E+00  0.0000
   1.2376E+02   1.2677E+02   0.0000E+00  0.0000
   1.2677E+02   1.2985E+02   0.0000E+00  0.0000
   1.2985E+02   1.3301E+02   0.0000E+00  0.0000
   1.3301E+02   1.3625E+02   0.0000E+00  0.0000
   1.3625E+02   1.3956E+02   0.0000E+00  0.0000
   1.3956E+02   1.4296E+02   0.0000E+00  0.0000
   1.4296E+02   1.4644E+02   0.0000E+00  0.0000
   1.4644E+02   1.5000E+02   0.0000E+00  0.0000

#   sum over                 1.3986E-05
'no. =    1   reg = 106 - 206'
msuc: {\huge [t-cross] in region mesh}
msdr: {\it plotted by \ANGEL \version}
msdl: {\it calculated by \PHITS  3.26}
wt: s(0.7)
\vspace{-3}
  region surface crossing
  area  &=&   1.0000E+00 [cm^2]
e:
 
# Information for Restart Calculation
# This calculation was newly started
# istdev =  2 # 1:Batch variance, 2:History variance
# resc2  = 5.00000000000000000E+09 # Total source weight or Total source weight / maxcas
# resc3  = 5.00000000000000000E+09 # Total history number or Total batch number
# maxcas =   500000000 # History / Batch, only used for istdev=1
# bitrseed = 0110100000100010111000001110001111001110100100011111101000111001 # bit data of rseed
