[ T-Cross ]
    title = [t-cross] in region mesh
     mesh =  reg            # mesh type is region-wise
      reg =    1            # number of crossing regions
      non     r-from    r-to       area
      1       100       200        1.000000    
   e-type =    3            # e-mesh is log given by emin, emax and ne
     emin =  1.0000000E-02  # minimum value of e-mesh points
     emax =   150.0000      # maximum value of e-mesh points
#    edel =  2.4039514E-02  # mesh width of e-mesh points
       ne =    400          # number of e-mesh points
#    data = ( e(i), i = 1, ne + 1 )
#           1.00000E-02  1.02433E-02  1.04925E-02  1.07478E-02  1.10093E-02
#           1.12772E-02  1.15516E-02  1.18326E-02  1.21205E-02  1.24154E-02
#           1.27175E-02  1.30269E-02  1.33439E-02  1.36686E-02  1.40011E-02
#           1.43418E-02  1.46907E-02  1.50482E-02  1.54143E-02  1.57894E-02
#           1.61735E-02  1.65670E-02  1.69701E-02  1.73830E-02  1.78060E-02
#           1.82392E-02  1.86830E-02  1.91375E-02  1.96032E-02  2.00801E-02
#           2.05687E-02  2.10692E-02  2.15818E-02  2.21069E-02  2.26448E-02
#           2.31957E-02  2.37601E-02  2.43382E-02  2.49304E-02  2.55369E-02
#           2.61583E-02  2.67947E-02  2.74467E-02  2.81145E-02  2.87985E-02
#           2.94992E-02  3.02169E-02  3.09521E-02  3.17052E-02  3.24766E-02
#           3.32668E-02  3.40762E-02  3.49053E-02  3.57546E-02  3.66246E-02
#           3.75157E-02  3.84284E-02  3.93634E-02  4.03212E-02  4.13022E-02
#           4.23071E-02  4.33365E-02  4.43909E-02  4.54710E-02  4.65773E-02
#           4.77106E-02  4.88714E-02  5.00605E-02  5.12785E-02  5.25262E-02
#           5.38042E-02  5.51133E-02  5.64542E-02  5.78278E-02  5.92348E-02
#           6.06760E-02  6.21523E-02  6.36645E-02  6.52135E-02  6.68002E-02
#           6.84255E-02  7.00904E-02  7.17957E-02  7.35426E-02  7.53319E-02
#           7.71648E-02  7.90423E-02  8.09655E-02  8.29354E-02  8.49533E-02
#           8.70203E-02  8.91376E-02  9.13064E-02  9.35279E-02  9.58035E-02
#           9.81345E-02  1.00522E-01  1.02968E-01  1.05473E-01  1.08040E-01
#           1.10668E-01  1.13361E-01  1.16119E-01  1.18944E-01  1.21838E-01
#           1.24803E-01  1.27839E-01  1.30950E-01  1.34136E-01  1.37399E-01
#           1.40742E-01  1.44167E-01  1.47675E-01  1.51268E-01  1.54948E-01
#           1.58718E-01  1.62580E-01  1.66535E-01  1.70587E-01  1.74738E-01
#           1.78989E-01  1.83344E-01  1.87805E-01  1.92375E-01  1.97055E-01
#           2.01850E-01  2.06761E-01  2.11792E-01  2.16945E-01  2.22223E-01
#           2.27630E-01  2.33169E-01  2.38842E-01  2.44653E-01  2.50605E-01
#           2.56703E-01  2.62949E-01  2.69346E-01  2.75900E-01  2.82613E-01
#           2.89489E-01  2.96532E-01  3.03747E-01  3.11138E-01  3.18708E-01
#           3.26462E-01  3.34405E-01  3.42542E-01  3.50876E-01  3.59413E-01
#           3.68158E-01  3.77116E-01  3.86291E-01  3.95690E-01  4.05317E-01
#           4.15179E-01  4.25281E-01  4.35628E-01  4.46227E-01  4.57084E-01
#           4.68205E-01  4.79597E-01  4.91266E-01  5.03219E-01  5.15463E-01
#           5.28005E-01  5.40851E-01  5.54011E-01  5.67490E-01  5.81298E-01
#           5.95441E-01  6.09929E-01  6.24769E-01  6.39970E-01  6.55541E-01
#           6.71491E-01  6.87828E-01  7.04564E-01  7.21706E-01  7.39266E-01
#           7.57253E-01  7.75678E-01  7.94551E-01  8.13883E-01  8.33685E-01
#           8.53969E-01  8.74747E-01  8.96030E-01  9.17831E-01  9.40163E-01
#           9.63038E-01  9.86469E-01  1.01047E+00  1.03506E+00  1.06024E+00
#           1.08604E+00  1.11246E+00  1.13953E+00  1.16725E+00  1.19565E+00
#           1.22474E+00  1.25454E+00  1.28507E+00  1.31633E+00  1.34836E+00
#           1.38117E+00  1.41477E+00  1.44920E+00  1.48446E+00  1.52057E+00
#           1.55757E+00  1.59547E+00  1.63429E+00  1.67405E+00  1.71478E+00
#           1.75650E+00  1.79924E+00  1.84302E+00  1.88786E+00  1.93379E+00
#           1.98084E+00  2.02904E+00  2.07841E+00  2.12898E+00  2.18078E+00
#           2.23384E+00  2.28819E+00  2.34386E+00  2.40089E+00  2.45930E+00
#           2.51914E+00  2.58043E+00  2.64322E+00  2.70753E+00  2.77341E+00
#           2.84088E+00  2.91001E+00  2.98081E+00  3.05333E+00  3.12762E+00
#           3.20372E+00  3.28167E+00  3.36152E+00  3.44330E+00  3.52708E+00
#           3.61290E+00  3.70080E+00  3.79085E+00  3.88308E+00  3.97756E+00
#           4.07434E+00  4.17347E+00  4.27501E+00  4.37903E+00  4.48557E+00
#           4.59471E+00  4.70650E+00  4.82102E+00  4.93832E+00  5.05847E+00
#           5.18155E+00  5.30762E+00  5.43676E+00  5.56904E+00  5.70453E+00
#           5.84333E+00  5.98550E+00  6.13114E+00  6.28031E+00  6.43312E+00
#           6.58964E+00  6.74997E+00  6.91420E+00  7.08243E+00  7.25475E+00
#           7.43126E+00  7.61207E+00  7.79728E+00  7.98700E+00  8.18133E+00
#           8.38038E+00  8.58428E+00  8.79315E+00  9.00709E+00  9.22624E+00
#           9.45072E+00  9.68067E+00  9.91620E+00  1.01575E+01  1.04046E+01
#           1.06578E+01  1.09171E+01  1.11827E+01  1.14548E+01  1.17335E+01
#           1.20190E+01  1.23114E+01  1.26109E+01  1.29178E+01  1.32321E+01
#           1.35540E+01  1.38838E+01  1.42216E+01  1.45676E+01  1.49221E+01
#           1.52851E+01  1.56570E+01  1.60380E+01  1.64282E+01  1.68279E+01
#           1.72374E+01  1.76568E+01  1.80864E+01  1.85264E+01  1.89772E+01
#           1.94389E+01  1.99119E+01  2.03963E+01  2.08926E+01  2.14009E+01
#           2.19216E+01  2.24550E+01  2.30014E+01  2.35610E+01  2.41343E+01
#           2.47215E+01  2.53230E+01  2.59391E+01  2.65702E+01  2.72167E+01
#           2.78789E+01  2.85572E+01  2.92520E+01  2.99637E+01  3.06928E+01
#           3.14396E+01  3.22045E+01  3.29881E+01  3.37907E+01  3.46128E+01
#           3.54550E+01  3.63177E+01  3.72013E+01  3.81064E+01  3.90336E+01
#           3.99833E+01  4.09561E+01  4.19526E+01  4.29734E+01  4.40189E+01
#           4.50900E+01  4.61870E+01  4.73108E+01  4.84619E+01  4.96410E+01
#           5.08488E+01  5.20860E+01  5.33533E+01  5.46514E+01  5.59812E+01
#           5.73432E+01  5.87384E+01  6.01676E+01  6.16315E+01  6.31311E+01
#           6.46671E+01  6.62405E+01  6.78522E+01  6.95031E+01  7.11941E+01
#           7.29263E+01  7.47007E+01  7.65182E+01  7.83800E+01  8.02870E+01
#           8.22405E+01  8.42414E+01  8.62911E+01  8.83906E+01  9.05412E+01
#           9.27442E+01  9.50007E+01  9.73122E+01  9.96799E+01  1.02105E+02
#           1.04589E+02  1.07134E+02  1.09741E+02  1.12411E+02  1.15146E+02
#           1.17948E+02  1.20817E+02  1.23757E+02  1.26768E+02  1.29852E+02
#           1.33012E+02  1.36248E+02  1.39563E+02  1.42959E+02  1.46437E+02
#           1.50000E+02
     unit =    2            # unit is [1/cm^2/(MeV/n)/source]
     axis =  eng            # axis of output
     file = detector-01.out  # file name of output for the above axis
   output = f-curr          # surface crossing forward current spectrum
     part =  neutron  
# kf/name :  2112     
#    used :        main (  %)        temp (  %)       total (  %)
#  memory :         414 (  0)           0 (  0)         414 (  0)

#------------------------------------------------------------------------------
#newpage:
#   no. =    1   reg = 100 - 200

x: Energy [MeV/n]
y:  F-Curr [1/cm^2/(MeV/n)/source]         
p: xlog ylog afac(0.8) form(0.9)
h: n            x            y(neutron ),hh0l   n 
#  e-lower      e-upper      neutron     r.err 
   1.0000E-02   1.0243E-02   1.1710E-04  0.0827
   1.0243E-02   1.0493E-02   1.1620E-04  0.0823
   1.0493E-02   1.0748E-02   1.0242E-04  0.0866
   1.0748E-02   1.1009E-02   1.0602E-04  0.0841
   1.1009E-02   1.1277E-02   9.0846E-05  0.0896
   1.1277E-02   1.1552E-02   8.2963E-05  0.0929
   1.1552E-02   1.1833E-02   9.5204E-05  0.0856
   1.1833E-02   1.2121E-02   8.9022E-05  0.0873
   1.2121E-02   1.2415E-02   8.4408E-05  0.0891
   1.2415E-02   1.2718E-02   8.9795E-05  0.0852
   1.2718E-02   1.3027E-02   9.8902E-05  0.0803
   1.3027E-02   1.3344E-02   8.0848E-05  0.0879
   1.3344E-02   1.3669E-02   8.4157E-05  0.0848
   1.3669E-02   1.4001E-02   8.0116E-05  0.0861
   1.4001E-02   1.4342E-02   7.5427E-05  0.0874
   1.4342E-02   1.4691E-02   7.8269E-05  0.0848
   1.4691E-02   1.5048E-02   8.0200E-05  0.0829
   1.5048E-02   1.5414E-02   7.0751E-05  0.0873
   1.5414E-02   1.5789E-02   6.7378E-05  0.0879
   1.5789E-02   1.6174E-02   7.2369E-05  0.0842
   1.6174E-02   1.6567E-02   6.9068E-05  0.0851
   1.6567E-02   1.6970E-02   6.6318E-05  0.0857
   1.6970E-02   1.7383E-02   7.3959E-05  0.0800
   1.7383E-02   1.7806E-02   7.1587E-05  0.0808
   1.7806E-02   1.8239E-02   6.1510E-05  0.0859
   1.8239E-02   1.8683E-02   6.6812E-05  0.0817
   1.8683E-02   1.9138E-02   6.7212E-05  0.0800
   1.9138E-02   1.9603E-02   5.1992E-05  0.0899
   1.9603E-02   2.0080E-02   5.8782E-05  0.0838
   2.0080E-02   2.0569E-02   5.2409E-05  0.0875
   2.0569E-02   2.1069E-02   5.7234E-05  0.0825
   2.1069E-02   2.1582E-02   5.5155E-05  0.0837
   2.1582E-02   2.2107E-02   5.4832E-05  0.0825
   2.2107E-02   2.2645E-02   5.7203E-05  0.0799
   2.2645E-02   2.3196E-02   5.0778E-05  0.0836
   2.3196E-02   2.3760E-02   4.9720E-05  0.0832
   2.3760E-02   2.4338E-02   4.8681E-05  0.0837
   2.4338E-02   2.4930E-02   4.3096E-05  0.0873
   2.4930E-02   2.5537E-02   4.7826E-05  0.0824
   2.5537E-02   2.6158E-02   4.4617E-05  0.0844
   2.6158E-02   2.6795E-02   4.3310E-05  0.0842
   2.6795E-02   2.7447E-02   4.2709E-05  0.0834
   2.7447E-02   2.8114E-02   3.8306E-05  0.0875
   2.8114E-02   2.8799E-02   4.4217E-05  0.0806
   2.8799E-02   2.9499E-02   3.9759E-05  0.0836
   2.9499E-02   3.0217E-02   4.6225E-05  0.0768
   3.0217E-02   3.0952E-02   4.6588E-05  0.0758
   3.0952E-02   3.1705E-02   3.8950E-05  0.0820
   3.1705E-02   3.2477E-02   3.6632E-05  0.0836
   3.2477E-02   3.3267E-02   4.0287E-05  0.0785
   3.3267E-02   3.4076E-02   4.0935E-05  0.0768
   3.4076E-02   3.4905E-02   3.1877E-05  0.0862
   3.4905E-02   3.5755E-02   3.6531E-05  0.0797
   3.5755E-02   3.6625E-02   3.1825E-05  0.0841
   3.6625E-02   3.7516E-02   3.3458E-05  0.0808
   3.7516E-02   3.8428E-02   3.5143E-05  0.0777
   3.8428E-02   3.9363E-02   3.3089E-05  0.0797
   3.9363E-02   4.0321E-02   3.3087E-05  0.0787
   4.0321E-02   4.1302E-02   2.9824E-05  0.0818
   4.1302E-02   4.2307E-02   2.9950E-05  0.0804
   4.2307E-02   4.3337E-02   3.3436E-05  0.0755
   4.3337E-02   4.4391E-02   3.1051E-05  0.0775
   4.4391E-02   4.5471E-02   2.8177E-05  0.0798
   4.5471E-02   4.6577E-02   2.6419E-05  0.0819
   4.6577E-02   4.7711E-02   2.5370E-05  0.0825
   4.7711E-02   4.8871E-02   2.4612E-05  0.0826
   4.8871E-02   5.0061E-02   2.8655E-05  0.0761
   5.0061E-02   5.1279E-02   2.3997E-05  0.0823
   5.1279E-02   5.2526E-02   2.4305E-05  0.0804
   5.2526E-02   5.3804E-02   2.6679E-05  0.0759
   5.3804E-02   5.5113E-02   2.3291E-05  0.0800
   5.5113E-02   5.6454E-02   2.2696E-05  0.0805
   5.6454E-02   5.7828E-02   2.3462E-05  0.0782
   5.7828E-02   5.9235E-02   2.3255E-05  0.0774
   5.9235E-02   6.0676E-02   2.2343E-05  0.0778
   6.0676E-02   6.2152E-02   2.1790E-05  0.0780
   6.2152E-02   6.3665E-02   2.2313E-05  0.0762
   6.3665E-02   6.5214E-02   2.1164E-05  0.0776
   6.5214E-02   6.6800E-02   1.8769E-05  0.0810
   6.6800E-02   6.8426E-02   1.8376E-05  0.0810
   6.8426E-02   7.0090E-02   1.7564E-05  0.0815
   7.0090E-02   7.1796E-02   1.9846E-05  0.0765
   7.1796E-02   7.3543E-02   1.5003E-05  0.0866
   7.3543E-02   7.5332E-02   2.0452E-05  0.0732
   7.5332E-02   7.7165E-02   1.7065E-05  0.0790
   7.7165E-02   7.9042E-02   1.5462E-05  0.0822
   7.9042E-02   8.0965E-02   1.4650E-05  0.0834
   8.0965E-02   8.2935E-02   1.5954E-05  0.0786
   8.2935E-02   8.4953E-02   1.6644E-05  0.0764
   8.4953E-02   8.7020E-02   1.3450E-05  0.0838
   8.7020E-02   8.9138E-02   1.5310E-05  0.0779
   8.9138E-02   9.1306E-02   1.4903E-05  0.0779
   9.1306E-02   9.3528E-02   1.5941E-05  0.0745
   9.3528E-02   9.5804E-02   1.1930E-05  0.0850
   9.5804E-02   9.8134E-02   1.4827E-05  0.0756
   9.8134E-02   1.0052E-01   1.6352E-05  0.0710
   1.0052E-01   1.0297E-01   1.4503E-05  0.0745
   1.0297E-01   1.0547E-01   1.2628E-05  0.0785
   1.0547E-01   1.0804E-01   1.1279E-05  0.0817
   1.0804E-01   1.1067E-01   1.4095E-05  0.0729
   1.1067E-01   1.1336E-01   1.2223E-05  0.0774
   1.1336E-01   1.1612E-01   1.2460E-05  0.0754
   1.1612E-01   1.1894E-01   1.1334E-05  0.0782
   1.1894E-01   1.2184E-01   1.1690E-05  0.0762
   1.2184E-01   1.2480E-01   1.1788E-05  0.0749
   1.2480E-01   1.2784E-01   1.1434E-05  0.0752
   1.2784E-01   1.3095E-01   1.0520E-05  0.0774
   1.3095E-01   1.3414E-01   1.0793E-05  0.0756
   1.3414E-01   1.3740E-01   9.8540E-06  0.0781
   1.3740E-01   1.4074E-01   1.1251E-05  0.0722
   1.4074E-01   1.4417E-01   9.6350E-06  0.0772
   1.4417E-01   1.4767E-01   1.0212E-05  0.0738
   1.4767E-01   1.5127E-01   9.5724E-06  0.0752
   1.5127E-01   1.5495E-01   9.7547E-06  0.0741
   1.5495E-01   1.5872E-01   9.6519E-06  0.0735
   1.5872E-01   1.6258E-01   7.3238E-06  0.0834
   1.6258E-01   1.6654E-01   8.4797E-06  0.0764
   1.6654E-01   1.7059E-01   7.6787E-06  0.0793
   1.7059E-01   1.7474E-01   9.2758E-06  0.0711
   1.7474E-01   1.7899E-01   7.9882E-06  0.0762
   1.7899E-01   1.8334E-01   7.7840E-06  0.0760
   1.8334E-01   1.8781E-01   8.1292E-06  0.0733
   1.8781E-01   1.9237E-01   8.9590E-06  0.0692
   1.9237E-01   1.9706E-01   9.0791E-06  0.0677
   1.9706E-01   2.0185E-01   7.2132E-06  0.0754
   2.0185E-01   2.0676E-01   8.6240E-06  0.0681
   2.0676E-01   2.1179E-01   9.4781E-06  0.0642
   2.1179E-01   2.1694E-01   8.6049E-06  0.0666
   2.1694E-01   2.2222E-01   1.0277E-05  0.0603
   2.2222E-01   2.2763E-01   9.3335E-06  0.0623
   2.2763E-01   2.3317E-01   1.0279E-05  0.0587
   2.3317E-01   2.3884E-01   1.1029E-05  0.0562
   2.3884E-01   2.4465E-01   1.0333E-05  0.0573
   2.4465E-01   2.5061E-01   1.2783E-05  0.0509
   2.5061E-01   2.5670E-01   1.2151E-05  0.0515
   2.5670E-01   2.6295E-01   1.3621E-05  0.0481
   2.6295E-01   2.6935E-01   1.3110E-05  0.0484
   2.6935E-01   2.7590E-01   1.4665E-05  0.0453
   2.7590E-01   2.8261E-01   1.4725E-05  0.0446
   2.8261E-01   2.8949E-01   1.4924E-05  0.0438
   2.8949E-01   2.9653E-01   1.6328E-05  0.0413
   2.9653E-01   3.0375E-01   1.6626E-05  0.0405
   3.0375E-01   3.1114E-01   1.8136E-05  0.0383
   3.1114E-01   3.1871E-01   1.8267E-05  0.0377
   3.1871E-01   3.2646E-01   1.8888E-05  0.0367
   3.2646E-01   3.3441E-01   2.0070E-05  0.0351
   3.3441E-01   3.4254E-01   1.9787E-05  0.0350
   3.4254E-01   3.5088E-01   2.0451E-05  0.0340
   3.5088E-01   3.5941E-01   2.2824E-05  0.0318
   3.5941E-01   3.6816E-01   2.2883E-05  0.0314
   3.6816E-01   3.7712E-01   2.3435E-05  0.0306
   3.7712E-01   3.8629E-01   2.4281E-05  0.0297
   3.8629E-01   3.9569E-01   2.5415E-05  0.0287
   3.9569E-01   4.0532E-01   2.5579E-05  0.0283
   4.0532E-01   4.1518E-01   2.6821E-05  0.0273
   4.1518E-01   4.2528E-01   2.7487E-05  0.0267
   4.2528E-01   4.3563E-01   2.8916E-05  0.0257
   4.3563E-01   4.4623E-01   3.0158E-05  0.0249
   4.4623E-01   4.5708E-01   3.0904E-05  0.0242
   4.5708E-01   4.6821E-01   3.2136E-05  0.0235
   4.6821E-01   4.7960E-01   3.3569E-05  0.0227
   4.7960E-01   4.9127E-01   3.3932E-05  0.0223
   4.9127E-01   5.0322E-01   3.6196E-05  0.0213
   5.0322E-01   5.1546E-01   3.7232E-05  0.0208
   5.1546E-01   5.2800E-01   3.7914E-05  0.0204
   5.2800E-01   5.4085E-01   3.9711E-05  0.0197
   5.4085E-01   5.5401E-01   4.1692E-05  0.0190
   5.5401E-01   5.6749E-01   4.1024E-05  0.0189
   5.6749E-01   5.8130E-01   4.1675E-05  0.0185
   5.8130E-01   5.9544E-01   4.3272E-05  0.0180
   5.9544E-01   6.0993E-01   4.4216E-05  0.0176
   6.0993E-01   6.2477E-01   4.7564E-05  0.0167
   6.2477E-01   6.3997E-01   4.6473E-05  0.0167
   6.3997E-01   6.5554E-01   4.9418E-05  0.0160
   6.5554E-01   6.7149E-01   4.8950E-05  0.0159
   6.7149E-01   6.8783E-01   4.9984E-05  0.0156
   6.8783E-01   7.0456E-01   5.0620E-05  0.0153
   7.0456E-01   7.2171E-01   5.4141E-05  0.0146
   7.2171E-01   7.3927E-01   5.3042E-05  0.0146
   7.3927E-01   7.5725E-01   5.3646E-05  0.0143
   7.5725E-01   7.7568E-01   5.3931E-05  0.0141
   7.7568E-01   7.9455E-01   5.6315E-05  0.0136
   7.9455E-01   8.1388E-01   5.7619E-05  0.0133
   8.1388E-01   8.3368E-01   5.8572E-05  0.0131
   8.3368E-01   8.5397E-01   5.7778E-05  0.0130
   8.5397E-01   8.7475E-01   5.9520E-05  0.0126
   8.7475E-01   8.9603E-01   6.0682E-05  0.0124
   8.9603E-01   9.1783E-01   6.3033E-05  0.0120
   9.1783E-01   9.4016E-01   6.2847E-05  0.0119
   9.4016E-01   9.6304E-01   6.2640E-05  0.0117
   9.6304E-01   9.8647E-01   6.3346E-05  0.0115
   9.8647E-01   1.0105E+00   6.4503E-05  0.0113
   1.0105E+00   1.0351E+00   6.4304E-05  0.0112
   1.0351E+00   1.0602E+00   6.3555E-05  0.0111
   1.0602E+00   1.0860E+00   6.3440E-05  0.0110
   1.0860E+00   1.1125E+00   6.3798E-05  0.0108
   1.1125E+00   1.1395E+00   6.3371E-05  0.0107
   1.1395E+00   1.1673E+00   6.4412E-05  0.0105
   1.1673E+00   1.1957E+00   6.4920E-05  0.0104
   1.1957E+00   1.2247E+00   6.5372E-05  0.0102
   1.2247E+00   1.2545E+00   6.4635E-05  0.0101
   1.2545E+00   1.2851E+00   6.3778E-05  0.0101
   1.2851E+00   1.3163E+00   6.3920E-05  0.0100
   1.3163E+00   1.3484E+00   6.4889E-05  0.0098
   1.3484E+00   1.3812E+00   6.4083E-05  0.0097
   1.3812E+00   1.4148E+00   6.5994E-05  0.0094
   1.4148E+00   1.4492E+00   6.5978E-05  0.0093
   1.4492E+00   1.4845E+00   6.5861E-05  0.0092
   1.4845E+00   1.5206E+00   6.7127E-05  0.0090
   1.5206E+00   1.5576E+00   6.5968E-05  0.0090
   1.5576E+00   1.5955E+00   6.5099E-05  0.0090
   1.5955E+00   1.6343E+00   6.5358E-05  0.0088
   1.6343E+00   1.6741E+00   6.4182E-05  0.0088
   1.6741E+00   1.7148E+00   6.2649E-05  0.0088
   1.7148E+00   1.7565E+00   6.4774E-05  0.0086
   1.7565E+00   1.7992E+00   6.3956E-05  0.0085
   1.7992E+00   1.8430E+00   6.4214E-05  0.0084
   1.8430E+00   1.8879E+00   6.4065E-05  0.0083
   1.8879E+00   1.9338E+00   6.4811E-05  0.0081
   1.9338E+00   1.9808E+00   6.4176E-05  0.0081
   1.9808E+00   2.0290E+00   6.5238E-05  0.0079
   2.0290E+00   2.0784E+00   6.4560E-05  0.0079
   2.0784E+00   2.1290E+00   6.4256E-05  0.0078
   2.1290E+00   2.1808E+00   6.4334E-05  0.0077
   2.1808E+00   2.2338E+00   6.2710E-05  0.0077
   2.2338E+00   2.2882E+00   6.2738E-05  0.0076
   2.2882E+00   2.3439E+00   6.2833E-05  0.0075
   2.3439E+00   2.4009E+00   6.2808E-05  0.0074
   2.4009E+00   2.4593E+00   6.2527E-05  0.0074
   2.4593E+00   2.5191E+00   6.3429E-05  0.0072
   2.5191E+00   2.5804E+00   6.2739E-05  0.0072
   2.5804E+00   2.6432E+00   6.2517E-05  0.0071
   2.6432E+00   2.7075E+00   6.1606E-05  0.0071
   2.7075E+00   2.7734E+00   6.0427E-05  0.0070
   2.7734E+00   2.8409E+00   6.1149E-05  0.0069
   2.8409E+00   2.9100E+00   6.1006E-05  0.0069
   2.9100E+00   2.9808E+00   6.0867E-05  0.0068
   2.9808E+00   3.0533E+00   6.1079E-05  0.0067
   3.0533E+00   3.1276E+00   6.1571E-05  0.0066
   3.1276E+00   3.2037E+00   6.0235E-05  0.0066
   3.2037E+00   3.2817E+00   6.0259E-05  0.0065
   3.2817E+00   3.3615E+00   5.9971E-05  0.0064
   3.3615E+00   3.4433E+00   5.9964E-05  0.0064
   3.4433E+00   3.5271E+00   6.0269E-05  0.0063
   3.5271E+00   3.6129E+00   6.0121E-05  0.0062
   3.6129E+00   3.7008E+00   6.0178E-05  0.0061
   3.7008E+00   3.7908E+00   6.0356E-05  0.0060
   3.7908E+00   3.8831E+00   5.9300E-05  0.0060
   3.8831E+00   3.9776E+00   5.9415E-05  0.0059
   3.9776E+00   4.0743E+00   5.9526E-05  0.0059
   4.0743E+00   4.1735E+00   6.0040E-05  0.0058
   4.1735E+00   4.2750E+00   6.0796E-05  0.0057
   4.2750E+00   4.3790E+00   6.0313E-05  0.0056
   4.3790E+00   4.4856E+00   6.0393E-05  0.0056
   4.4856E+00   4.5947E+00   6.0334E-05  0.0055
   4.5947E+00   4.7065E+00   6.0513E-05  0.0054
   4.7065E+00   4.8210E+00   6.0367E-05  0.0054
   4.8210E+00   4.9383E+00   6.0854E-05  0.0053
   4.9383E+00   5.0585E+00   6.1418E-05  0.0052
   5.0585E+00   5.1815E+00   6.1712E-05  0.0051
   5.1815E+00   5.3076E+00   6.1645E-05  0.0051
   5.3076E+00   5.4368E+00   6.2209E-05  0.0050
   5.4368E+00   5.5690E+00   6.2458E-05  0.0049
   5.5690E+00   5.7045E+00   6.2667E-05  0.0048
   5.7045E+00   5.8433E+00   6.2682E-05  0.0048
   5.8433E+00   5.9855E+00   6.3027E-05  0.0047
   5.9855E+00   6.1311E+00   6.3391E-05  0.0046
   6.1311E+00   6.2803E+00   6.3889E-05  0.0046
   6.2803E+00   6.4331E+00   6.3727E-05  0.0045
   6.4331E+00   6.5896E+00   6.4475E-05  0.0044
   6.5896E+00   6.7500E+00   6.4958E-05  0.0044
   6.7500E+00   6.9142E+00   6.5407E-05  0.0043
   6.9142E+00   7.0824E+00   6.6124E-05  0.0042
   7.0824E+00   7.2548E+00   6.6506E-05  0.0042
   7.2548E+00   7.4313E+00   6.7391E-05  0.0041
   7.4313E+00   7.6121E+00   6.8127E-05  0.0040
   7.6121E+00   7.7973E+00   6.9010E-05  0.0040
   7.7973E+00   7.9870E+00   6.9817E-05  0.0039
   7.9870E+00   8.1813E+00   7.0357E-05  0.0038
   8.1813E+00   8.3804E+00   7.1288E-05  0.0038
   8.3804E+00   8.5843E+00   7.2715E-05  0.0037
   8.5843E+00   8.7931E+00   7.3111E-05  0.0036
   8.7931E+00   9.0071E+00   7.3947E-05  0.0036
   9.0071E+00   9.2262E+00   7.5516E-05  0.0035
   9.2262E+00   9.4507E+00   7.6958E-05  0.0034
   9.4507E+00   9.6807E+00   7.8148E-05  0.0033
   9.6807E+00   9.9162E+00   7.9827E-05  0.0033
   9.9162E+00   1.0157E+01   8.0852E-05  0.0032
   1.0157E+01   1.0405E+01   8.2167E-05  0.0031
   1.0405E+01   1.0658E+01   8.3261E-05  0.0031
   1.0658E+01   1.0917E+01   8.5059E-05  0.0030
   1.0917E+01   1.1183E+01   8.6468E-05  0.0029
   1.1183E+01   1.1455E+01   8.7922E-05  0.0029
   1.1455E+01   1.1733E+01   8.9555E-05  0.0028
   1.1733E+01   1.2019E+01   9.0960E-05  0.0028
   1.2019E+01   1.2311E+01   9.3277E-05  0.0027
   1.2311E+01   1.2611E+01   9.4221E-05  0.0027
   1.2611E+01   1.2918E+01   9.5580E-05  0.0026
   1.2918E+01   1.3232E+01   9.7058E-05  0.0026
   1.3232E+01   1.3554E+01   9.9086E-05  0.0025
   1.3554E+01   1.3884E+01   1.0118E-04  0.0024
   1.3884E+01   1.4222E+01   1.0191E-04  0.0024
   1.4222E+01   1.4568E+01   1.0389E-04  0.0024
   1.4568E+01   1.4922E+01   1.0516E-04  0.0023
   1.4922E+01   1.5285E+01   1.0650E-04  0.0023
   1.5285E+01   1.5657E+01   1.0835E-04  0.0022
   1.5657E+01   1.6038E+01   1.0933E-04  0.0022
   1.6038E+01   1.6428E+01   1.1018E-04  0.0022
   1.6428E+01   1.6828E+01   1.1131E-04  0.0021
   1.6828E+01   1.7237E+01   1.1236E-04  0.0021
   1.7237E+01   1.7657E+01   1.1254E-04  0.0021
   1.7657E+01   1.8086E+01   1.1303E-04  0.0020
   1.8086E+01   1.8526E+01   1.1291E-04  0.0020
   1.8526E+01   1.8977E+01   1.1310E-04  0.0020
   1.8977E+01   1.9439E+01   1.1344E-04  0.0020
   1.9439E+01   1.9912E+01   1.1260E-04  0.0019
   1.9912E+01   2.0396E+01   1.1522E-04  0.0019
   2.0396E+01   2.0893E+01   1.1465E-04  0.0019
   2.0893E+01   2.1401E+01   1.1325E-04  0.0019
   2.1401E+01   2.1922E+01   1.1111E-04  0.0019
   2.1922E+01   2.2455E+01   1.0902E-04  0.0019
   2.2455E+01   2.3001E+01   1.0607E-04  0.0019
   2.3001E+01   2.3561E+01   1.0265E-04  0.0019
   2.3561E+01   2.4134E+01   9.9373E-05  0.0019
   2.4134E+01   2.4721E+01   9.5737E-05  0.0019
   2.4721E+01   2.5323E+01   9.1627E-05  0.0019
   2.5323E+01   2.5939E+01   8.7749E-05  0.0019
   2.5939E+01   2.6570E+01   8.3148E-05  0.0020
   2.6570E+01   2.7217E+01   7.8073E-05  0.0020
   2.7217E+01   2.7879E+01   7.3205E-05  0.0020
   2.7879E+01   2.8557E+01   6.8083E-05  0.0021
   2.8557E+01   2.9252E+01   6.2859E-05  0.0021
   2.9252E+01   2.9964E+01   5.7637E-05  0.0022
   2.9964E+01   3.0693E+01   5.2500E-05  0.0023
   3.0693E+01   3.1440E+01   4.7611E-05  0.0024
   3.1440E+01   3.2205E+01   4.2740E-05  0.0025
   3.2205E+01   3.2988E+01   3.8303E-05  0.0026
   3.2988E+01   3.3791E+01   3.4275E-05  0.0027
   3.3791E+01   3.4613E+01   3.0309E-05  0.0028
   3.4613E+01   3.5455E+01   2.7024E-05  0.0030
   3.5455E+01   3.6318E+01   2.3821E-05  0.0031
   3.6318E+01   3.7201E+01   2.1026E-05  0.0033
   3.7201E+01   3.8106E+01   1.8470E-05  0.0035
   3.8106E+01   3.9034E+01   1.6370E-05  0.0036
   3.9034E+01   3.9983E+01   1.4304E-05  0.0038
   3.9983E+01   4.0956E+01   1.2632E-05  0.0040
   4.0956E+01   4.1953E+01   1.1310E-05  0.0042
   4.1953E+01   4.2973E+01   1.0008E-05  0.0044
   4.2973E+01   4.4019E+01   8.9669E-06  0.0046
   4.4019E+01   4.5090E+01   8.1310E-06  0.0048
   4.5090E+01   4.6187E+01   7.3240E-06  0.0050
   4.6187E+01   4.7311E+01   6.7240E-06  0.0051
   4.7311E+01   4.8462E+01   6.1440E-06  0.0053
   4.8462E+01   4.9641E+01   5.7078E-06  0.0055
   4.9641E+01   5.0849E+01   5.1924E-06  0.0056
   5.0849E+01   5.2086E+01   4.1298E-06  0.0063
   5.2086E+01   5.3353E+01   3.0061E-06  0.0072
   5.3353E+01   5.4651E+01   1.9482E-06  0.0089
   5.4651E+01   5.5981E+01   1.0208E-06  0.0121
   5.5981E+01   5.7343E+01   2.7958E-07  0.0229
   5.7343E+01   5.8738E+01   4.5871E-09  0.1768
   5.8738E+01   6.0168E+01   0.0000E+00  0.0000
   6.0168E+01   6.1632E+01   0.0000E+00  0.0000
   6.1632E+01   6.3131E+01   0.0000E+00  0.0000
   6.3131E+01   6.4667E+01   0.0000E+00  0.0000
   6.4667E+01   6.6240E+01   0.0000E+00  0.0000
   6.6240E+01   6.7852E+01   0.0000E+00  0.0000
   6.7852E+01   6.9503E+01   0.0000E+00  0.0000
   6.9503E+01   7.1194E+01   0.0000E+00  0.0000
   7.1194E+01   7.2926E+01   0.0000E+00  0.0000
   7.2926E+01   7.4701E+01   0.0000E+00  0.0000
   7.4701E+01   7.6518E+01   0.0000E+00  0.0000
   7.6518E+01   7.8380E+01   0.0000E+00  0.0000
   7.8380E+01   8.0287E+01   0.0000E+00  0.0000
   8.0287E+01   8.2240E+01   0.0000E+00  0.0000
   8.2240E+01   8.4241E+01   0.0000E+00  0.0000
   8.4241E+01   8.6291E+01   0.0000E+00  0.0000
   8.6291E+01   8.8391E+01   0.0000E+00  0.0000
   8.8391E+01   9.0541E+01   0.0000E+00  0.0000
   9.0541E+01   9.2744E+01   0.0000E+00  0.0000
   9.2744E+01   9.5001E+01   0.0000E+00  0.0000
   9.5001E+01   9.7312E+01   0.0000E+00  0.0000
   9.7312E+01   9.9680E+01   0.0000E+00  0.0000
   9.9680E+01   1.0211E+02   0.0000E+00  0.0000
   1.0211E+02   1.0459E+02   0.0000E+00  0.0000
   1.0459E+02   1.0713E+02   0.0000E+00  0.0000
   1.0713E+02   1.0974E+02   0.0000E+00  0.0000
   1.0974E+02   1.1241E+02   0.0000E+00  0.0000
   1.1241E+02   1.1515E+02   0.0000E+00  0.0000
   1.1515E+02   1.1795E+02   0.0000E+00  0.0000
   1.1795E+02   1.2082E+02   0.0000E+00  0.0000
   1.2082E+02   1.2376E+02   0.0000E+00  0.0000
   1.2376E+02   1.2677E+02   0.0000E+00  0.0000
   1.2677E+02   1.2985E+02   0.0000E+00  0.0000
   1.2985E+02   1.3301E+02   0.0000E+00  0.0000
   1.3301E+02   1.3625E+02   0.0000E+00  0.0000
   1.3625E+02   1.3956E+02   0.0000E+00  0.0000
   1.3956E+02   1.4296E+02   0.0000E+00  0.0000
   1.4296E+02   1.4644E+02   0.0000E+00  0.0000
   1.4644E+02   1.5000E+02   0.0000E+00  0.0000

#   sum over                 1.9678E-05
'no. =    1   reg = 100 - 200'
msuc: {\huge [t-cross] in region mesh}
msdr: {\it plotted by \ANGEL \version}
msdl: {\it calculated by \PHITS  3.28}
wt: s(0.7)
\vspace{-3}
  region surface crossing
  area  &=&   1.0000E+00 [cm^2]
e:
 
# Information for Restart Calculation
# This calculation was newly started
# istdev =  2 # 1:Batch variance, 2:History variance
# resc2  = 5.00000000000000000E+09 # Total source weight or Total source weight / maxcas
# resc3  = 5.00000000000000000E+09 # Total history number or Total batch number
# maxcas =   500000000 # History / Batch, only used for istdev=1
# bitrseed = 0110100000100010111000001110001111001110100100011111101000111001 # bit data of rseed
