9 <--- number of remaining batches 

-------------------------------------------------------------------------------
bat[       1] ncas =      500000000.
 bitrseed = 0100001010011000001011101100011110011000110110100110010000000000
          cpu time =   7 h. 37 m.  2.22 s.

 date = 2022-06-10
 time = 17h 57m 10s

