[ T-Cross ]
    title = [t-cross] in region mesh
     mesh =  reg            # mesh type is region-wise
      reg =    1            # number of crossing regions
      non     r-from    r-to       area
      1       119       219        1.000000    
   e-type =    3            # e-mesh is log given by emin, emax and ne
     emin =  1.0000000E-02  # minimum value of e-mesh points
     emax =   150.0000      # maximum value of e-mesh points
#    edel =  2.4039514E-02  # mesh width of e-mesh points
       ne =    400          # number of e-mesh points
#    data = ( e(i), i = 1, ne + 1 )
#           1.00000E-02  1.02433E-02  1.04925E-02  1.07478E-02  1.10093E-02
#           1.12772E-02  1.15516E-02  1.18326E-02  1.21205E-02  1.24154E-02
#           1.27175E-02  1.30269E-02  1.33439E-02  1.36686E-02  1.40011E-02
#           1.43418E-02  1.46907E-02  1.50482E-02  1.54143E-02  1.57894E-02
#           1.61735E-02  1.65670E-02  1.69701E-02  1.73830E-02  1.78060E-02
#           1.82392E-02  1.86830E-02  1.91375E-02  1.96032E-02  2.00801E-02
#           2.05687E-02  2.10692E-02  2.15818E-02  2.21069E-02  2.26448E-02
#           2.31957E-02  2.37601E-02  2.43382E-02  2.49304E-02  2.55369E-02
#           2.61583E-02  2.67947E-02  2.74467E-02  2.81145E-02  2.87985E-02
#           2.94992E-02  3.02169E-02  3.09521E-02  3.17052E-02  3.24766E-02
#           3.32668E-02  3.40762E-02  3.49053E-02  3.57546E-02  3.66246E-02
#           3.75157E-02  3.84284E-02  3.93634E-02  4.03212E-02  4.13022E-02
#           4.23071E-02  4.33365E-02  4.43909E-02  4.54710E-02  4.65773E-02
#           4.77106E-02  4.88714E-02  5.00605E-02  5.12785E-02  5.25262E-02
#           5.38042E-02  5.51133E-02  5.64542E-02  5.78278E-02  5.92348E-02
#           6.06760E-02  6.21523E-02  6.36645E-02  6.52135E-02  6.68002E-02
#           6.84255E-02  7.00904E-02  7.17957E-02  7.35426E-02  7.53319E-02
#           7.71648E-02  7.90423E-02  8.09655E-02  8.29354E-02  8.49533E-02
#           8.70203E-02  8.91376E-02  9.13064E-02  9.35279E-02  9.58035E-02
#           9.81345E-02  1.00522E-01  1.02968E-01  1.05473E-01  1.08040E-01
#           1.10668E-01  1.13361E-01  1.16119E-01  1.18944E-01  1.21838E-01
#           1.24803E-01  1.27839E-01  1.30950E-01  1.34136E-01  1.37399E-01
#           1.40742E-01  1.44167E-01  1.47675E-01  1.51268E-01  1.54948E-01
#           1.58718E-01  1.62580E-01  1.66535E-01  1.70587E-01  1.74738E-01
#           1.78989E-01  1.83344E-01  1.87805E-01  1.92375E-01  1.97055E-01
#           2.01850E-01  2.06761E-01  2.11792E-01  2.16945E-01  2.22223E-01
#           2.27630E-01  2.33169E-01  2.38842E-01  2.44653E-01  2.50605E-01
#           2.56703E-01  2.62949E-01  2.69346E-01  2.75900E-01  2.82613E-01
#           2.89489E-01  2.96532E-01  3.03747E-01  3.11138E-01  3.18708E-01
#           3.26462E-01  3.34405E-01  3.42542E-01  3.50876E-01  3.59413E-01
#           3.68158E-01  3.77116E-01  3.86291E-01  3.95690E-01  4.05317E-01
#           4.15179E-01  4.25281E-01  4.35628E-01  4.46227E-01  4.57084E-01
#           4.68205E-01  4.79597E-01  4.91266E-01  5.03219E-01  5.15463E-01
#           5.28005E-01  5.40851E-01  5.54011E-01  5.67490E-01  5.81298E-01
#           5.95441E-01  6.09929E-01  6.24769E-01  6.39970E-01  6.55541E-01
#           6.71491E-01  6.87828E-01  7.04564E-01  7.21706E-01  7.39266E-01
#           7.57253E-01  7.75678E-01  7.94551E-01  8.13883E-01  8.33685E-01
#           8.53969E-01  8.74747E-01  8.96030E-01  9.17831E-01  9.40163E-01
#           9.63038E-01  9.86469E-01  1.01047E+00  1.03506E+00  1.06024E+00
#           1.08604E+00  1.11246E+00  1.13953E+00  1.16725E+00  1.19565E+00
#           1.22474E+00  1.25454E+00  1.28507E+00  1.31633E+00  1.34836E+00
#           1.38117E+00  1.41477E+00  1.44920E+00  1.48446E+00  1.52057E+00
#           1.55757E+00  1.59547E+00  1.63429E+00  1.67405E+00  1.71478E+00
#           1.75650E+00  1.79924E+00  1.84302E+00  1.88786E+00  1.93379E+00
#           1.98084E+00  2.02904E+00  2.07841E+00  2.12898E+00  2.18078E+00
#           2.23384E+00  2.28819E+00  2.34386E+00  2.40089E+00  2.45930E+00
#           2.51914E+00  2.58043E+00  2.64322E+00  2.70753E+00  2.77341E+00
#           2.84088E+00  2.91001E+00  2.98081E+00  3.05333E+00  3.12762E+00
#           3.20372E+00  3.28167E+00  3.36152E+00  3.44330E+00  3.52708E+00
#           3.61290E+00  3.70080E+00  3.79085E+00  3.88308E+00  3.97756E+00
#           4.07434E+00  4.17347E+00  4.27501E+00  4.37903E+00  4.48557E+00
#           4.59471E+00  4.70650E+00  4.82102E+00  4.93832E+00  5.05847E+00
#           5.18155E+00  5.30762E+00  5.43676E+00  5.56904E+00  5.70453E+00
#           5.84333E+00  5.98550E+00  6.13114E+00  6.28031E+00  6.43312E+00
#           6.58964E+00  6.74997E+00  6.91420E+00  7.08243E+00  7.25475E+00
#           7.43126E+00  7.61207E+00  7.79728E+00  7.98700E+00  8.18133E+00
#           8.38038E+00  8.58428E+00  8.79315E+00  9.00709E+00  9.22624E+00
#           9.45072E+00  9.68067E+00  9.91620E+00  1.01575E+01  1.04046E+01
#           1.06578E+01  1.09171E+01  1.11827E+01  1.14548E+01  1.17335E+01
#           1.20190E+01  1.23114E+01  1.26109E+01  1.29178E+01  1.32321E+01
#           1.35540E+01  1.38838E+01  1.42216E+01  1.45676E+01  1.49221E+01
#           1.52851E+01  1.56570E+01  1.60380E+01  1.64282E+01  1.68279E+01
#           1.72374E+01  1.76568E+01  1.80864E+01  1.85264E+01  1.89772E+01
#           1.94389E+01  1.99119E+01  2.03963E+01  2.08926E+01  2.14009E+01
#           2.19216E+01  2.24550E+01  2.30014E+01  2.35610E+01  2.41343E+01
#           2.47215E+01  2.53230E+01  2.59391E+01  2.65702E+01  2.72167E+01
#           2.78789E+01  2.85572E+01  2.92520E+01  2.99637E+01  3.06928E+01
#           3.14396E+01  3.22045E+01  3.29881E+01  3.37907E+01  3.46128E+01
#           3.54550E+01  3.63177E+01  3.72013E+01  3.81064E+01  3.90336E+01
#           3.99833E+01  4.09561E+01  4.19526E+01  4.29734E+01  4.40189E+01
#           4.50900E+01  4.61870E+01  4.73108E+01  4.84619E+01  4.96410E+01
#           5.08488E+01  5.20860E+01  5.33533E+01  5.46514E+01  5.59812E+01
#           5.73432E+01  5.87384E+01  6.01676E+01  6.16315E+01  6.31311E+01
#           6.46671E+01  6.62405E+01  6.78522E+01  6.95031E+01  7.11941E+01
#           7.29263E+01  7.47007E+01  7.65182E+01  7.83800E+01  8.02870E+01
#           8.22405E+01  8.42414E+01  8.62911E+01  8.83906E+01  9.05412E+01
#           9.27442E+01  9.50007E+01  9.73122E+01  9.96799E+01  1.02105E+02
#           1.04589E+02  1.07134E+02  1.09741E+02  1.12411E+02  1.15146E+02
#           1.17948E+02  1.20817E+02  1.23757E+02  1.26768E+02  1.29852E+02
#           1.33012E+02  1.36248E+02  1.39563E+02  1.42959E+02  1.46437E+02
#           1.50000E+02
     unit =    2            # unit is [1/cm^2/(MeV/n)/source]
     axis =  eng            # axis of output
     file = detector-20.out  # file name of output for the above axis
   output = f-curr          # surface crossing forward current spectrum
     part =  neutron  
# kf/name :  2112     
#    used :        main (  %)        temp (  %)       total (  %)
#  memory :         414 (  0)           0 (  0)         414 (  0)

#------------------------------------------------------------------------------
#newpage:
#   no. =    1   reg = 119 - 219

x: Energy [MeV/n]
y:  F-Curr [1/cm^2/(MeV/n)/source]         
p: xlog ylog afac(0.8) form(0.9)
h: n            x            y(neutron ),hh0l   n 
#  e-lower      e-upper      neutron     r.err 
   1.0000E-02   1.0243E-02   4.8169E-04  0.0413
   1.0243E-02   1.0493E-02   4.5501E-04  0.0420
   1.0493E-02   1.0748E-02   4.2305E-04  0.0430
   1.0748E-02   1.1009E-02   4.4665E-04  0.0414
   1.1009E-02   1.1277E-02   4.9577E-04  0.0388
   1.1277E-02   1.1552E-02   4.8983E-04  0.0386
   1.1552E-02   1.1833E-02   4.9883E-04  0.0378
   1.1833E-02   1.2121E-02   4.7656E-04  0.0382
   1.2121E-02   1.2415E-02   4.7406E-04  0.0378
   1.2415E-02   1.2718E-02   4.7935E-04  0.0372
   1.2718E-02   1.3027E-02   4.7119E-04  0.0370
   1.3027E-02   1.3344E-02   5.2941E-04  0.0346
   1.3344E-02   1.3669E-02   5.1437E-04  0.0346
   1.3669E-02   1.4001E-02   5.0997E-04  0.0343
   1.4001E-02   1.4342E-02   5.1195E-04  0.0339
   1.4342E-02   1.4691E-02   5.1756E-04  0.0333
   1.4691E-02   1.5048E-02   5.3660E-04  0.0323
   1.5048E-02   1.5414E-02   5.1948E-04  0.0324
   1.5414E-02   1.5789E-02   5.4021E-04  0.0314
   1.5789E-02   1.6174E-02   5.2529E-04  0.0315
   1.6174E-02   1.6567E-02   5.2145E-04  0.0312
   1.6567E-02   1.6970E-02   5.1453E-04  0.0311
   1.6970E-02   1.7383E-02   5.4784E-04  0.0297
   1.7383E-02   1.7806E-02   5.5989E-04  0.0291
   1.7806E-02   1.8239E-02   5.8167E-04  0.0282
   1.8239E-02   1.8683E-02   5.3586E-04  0.0290
   1.8683E-02   1.9138E-02   5.7769E-04  0.0276
   1.9138E-02   1.9603E-02   5.5709E-04  0.0278
   1.9603E-02   2.0080E-02   5.8328E-04  0.0268
   2.0080E-02   2.0569E-02   5.7761E-04  0.0266
   2.0569E-02   2.1069E-02   5.9067E-04  0.0260
   2.1069E-02   2.1582E-02   5.5674E-04  0.0265
   2.1582E-02   2.2107E-02   5.9874E-04  0.0252
   2.2107E-02   2.2645E-02   5.9493E-04  0.0250
   2.2645E-02   2.3196E-02   5.9350E-04  0.0247
   2.3196E-02   2.3760E-02   5.8508E-04  0.0246
   2.3760E-02   2.4338E-02   6.2446E-04  0.0235
   2.4338E-02   2.4930E-02   6.4543E-04  0.0229
   2.4930E-02   2.5537E-02   5.8624E-04  0.0237
   2.5537E-02   2.6158E-02   6.4732E-04  0.0223
   2.6158E-02   2.6795E-02   6.3351E-04  0.0223
   2.6795E-02   2.7447E-02   6.4331E-04  0.0218
   2.7447E-02   2.8114E-02   6.5948E-04  0.0213
   2.8114E-02   2.8799E-02   6.5960E-04  0.0211
   2.8799E-02   2.9499E-02   6.8789E-04  0.0204
   2.9499E-02   3.0217E-02   6.4452E-04  0.0208
   3.0217E-02   3.0952E-02   6.7029E-04  0.0201
   3.0952E-02   3.1705E-02   6.6154E-04  0.0200
   3.1705E-02   3.2477E-02   6.7746E-04  0.0196
   3.2477E-02   3.3267E-02   6.8136E-04  0.0193
   3.3267E-02   3.4076E-02   6.7580E-04  0.0191
   3.4076E-02   3.4905E-02   7.0438E-04  0.0185
   3.4905E-02   3.5755E-02   6.9212E-04  0.0184
   3.5755E-02   3.6625E-02   7.0074E-04  0.0181
   3.6625E-02   3.7516E-02   7.1215E-04  0.0178
   3.7516E-02   3.8428E-02   7.3336E-04  0.0173
   3.8428E-02   3.9363E-02   7.1744E-04  0.0173
   3.9363E-02   4.0321E-02   7.4467E-04  0.0167
   4.0321E-02   4.1302E-02   7.3452E-04  0.0167
   4.1302E-02   4.2307E-02   7.6205E-04  0.0162
   4.2307E-02   4.3337E-02   7.6125E-04  0.0160
   4.3337E-02   4.4391E-02   7.7067E-04  0.0157
   4.4391E-02   4.5471E-02   8.1180E-04  0.0151
   4.5471E-02   4.6577E-02   7.9577E-04  0.0151
   4.6577E-02   4.7711E-02   8.0255E-04  0.0148
   4.7711E-02   4.8871E-02   8.1303E-04  0.0146
   4.8871E-02   5.0061E-02   8.1004E-04  0.0144
   5.0061E-02   5.1279E-02   8.0672E-04  0.0143
   5.1279E-02   5.2526E-02   8.5729E-04  0.0137
   5.2526E-02   5.3804E-02   8.5446E-04  0.0135
   5.3804E-02   5.5113E-02   8.6426E-04  0.0133
   5.5113E-02   5.6454E-02   8.5730E-04  0.0132
   5.6454E-02   5.7828E-02   8.7509E-04  0.0129
   5.7828E-02   5.9235E-02   8.6795E-04  0.0128
   5.9235E-02   6.0676E-02   9.0201E-04  0.0124
   6.0676E-02   6.2152E-02   9.0009E-04  0.0123
   6.2152E-02   6.3665E-02   9.3386E-04  0.0119
   6.3665E-02   6.5214E-02   9.3453E-04  0.0118
   6.5214E-02   6.6800E-02   9.3036E-04  0.0116
   6.6800E-02   6.8426E-02   9.5478E-04  0.0114
   6.8426E-02   7.0090E-02   9.6195E-04  0.0112
   7.0090E-02   7.1796E-02   9.8091E-04  0.0109
   7.1796E-02   7.3543E-02   9.9574E-04  0.0107
   7.3543E-02   7.5332E-02   9.8896E-04  0.0106
   7.5332E-02   7.7165E-02   1.0001E-03  0.0104
   7.7165E-02   7.9042E-02   1.0282E-03  0.0102
   7.9042E-02   8.0965E-02   1.0368E-03  0.0100
   8.0965E-02   8.2935E-02   1.0390E-03  0.0099
   8.2935E-02   8.4953E-02   1.0528E-03  0.0097
   8.4953E-02   8.7020E-02   1.0823E-03  0.0095
   8.7020E-02   8.9138E-02   1.1038E-03  0.0093
   8.9138E-02   9.1306E-02   1.0770E-03  0.0093
   9.1306E-02   9.3528E-02   1.0999E-03  0.0090
   9.3528E-02   9.5804E-02   1.1398E-03  0.0088
   9.5804E-02   9.8134E-02   1.1352E-03  0.0087
   9.8134E-02   1.0052E-01   1.1427E-03  0.0086
   1.0052E-01   1.0297E-01   1.1678E-03  0.0084
   1.0297E-01   1.0547E-01   1.1702E-03  0.0083
   1.0547E-01   1.0804E-01   1.1919E-03  0.0081
   1.0804E-01   1.1067E-01   1.2067E-03  0.0079
   1.1067E-01   1.1336E-01   1.2257E-03  0.0078
   1.1336E-01   1.1612E-01   1.2396E-03  0.0076
   1.1612E-01   1.1894E-01   1.2489E-03  0.0075
   1.1894E-01   1.2184E-01   1.2468E-03  0.0074
   1.2184E-01   1.2480E-01   1.2850E-03  0.0072
   1.2480E-01   1.2784E-01   1.2947E-03  0.0071
   1.2784E-01   1.3095E-01   1.3104E-03  0.0070
   1.3095E-01   1.3414E-01   1.3363E-03  0.0069
   1.3414E-01   1.3740E-01   1.3282E-03  0.0068
   1.3740E-01   1.4074E-01   1.3583E-03  0.0066
   1.4074E-01   1.4417E-01   1.3616E-03  0.0065
   1.4417E-01   1.4767E-01   1.3910E-03  0.0064
   1.4767E-01   1.5127E-01   1.4116E-03  0.0063
   1.5127E-01   1.5495E-01   1.4136E-03  0.0062
   1.5495E-01   1.5872E-01   1.4375E-03  0.0061
   1.5872E-01   1.6258E-01   1.4256E-03  0.0060
   1.6258E-01   1.6654E-01   1.4583E-03  0.0059
   1.6654E-01   1.7059E-01   1.4622E-03  0.0058
   1.7059E-01   1.7474E-01   1.4940E-03  0.0057
   1.7474E-01   1.7899E-01   1.5059E-03  0.0056
   1.7899E-01   1.8334E-01   1.5100E-03  0.0055
   1.8334E-01   1.8781E-01   1.5503E-03  0.0054
   1.8781E-01   1.9237E-01   1.5515E-03  0.0053
   1.9237E-01   1.9706E-01   1.5604E-03  0.0052
   1.9706E-01   2.0185E-01   1.5767E-03  0.0051
   2.0185E-01   2.0676E-01   1.5864E-03  0.0051
   2.0676E-01   2.1179E-01   1.6032E-03  0.0050
   2.1179E-01   2.1694E-01   1.6345E-03  0.0049
   2.1694E-01   2.2222E-01   1.6372E-03  0.0048
   2.2222E-01   2.2763E-01   1.6464E-03  0.0047
   2.2763E-01   2.3317E-01   1.6584E-03  0.0047
   2.3317E-01   2.3884E-01   1.6752E-03  0.0046
   2.3884E-01   2.4465E-01   1.6933E-03  0.0045
   2.4465E-01   2.5061E-01   1.6888E-03  0.0045
   2.5061E-01   2.5670E-01   1.7117E-03  0.0044
   2.5670E-01   2.6295E-01   1.7269E-03  0.0043
   2.6295E-01   2.6935E-01   1.7283E-03  0.0043
   2.6935E-01   2.7590E-01   1.7552E-03  0.0042
   2.7590E-01   2.8261E-01   1.7693E-03  0.0041
   2.8261E-01   2.8949E-01   1.7637E-03  0.0041
   2.8949E-01   2.9653E-01   1.7791E-03  0.0040
   2.9653E-01   3.0375E-01   1.7846E-03  0.0039
   3.0375E-01   3.1114E-01   1.8006E-03  0.0039
   3.1114E-01   3.1871E-01   1.8007E-03  0.0038
   3.1871E-01   3.2646E-01   1.8082E-03  0.0038
   3.2646E-01   3.3441E-01   1.8304E-03  0.0037
   3.3441E-01   3.4254E-01   1.8265E-03  0.0037
   3.4254E-01   3.5088E-01   1.8440E-03  0.0036
   3.5088E-01   3.5941E-01   1.8403E-03  0.0036
   3.5941E-01   3.6816E-01   1.8499E-03  0.0035
   3.6816E-01   3.7712E-01   1.8645E-03  0.0035
   3.7712E-01   3.8629E-01   1.8736E-03  0.0034
   3.8629E-01   3.9569E-01   1.8729E-03  0.0034
   3.9569E-01   4.0532E-01   1.8549E-03  0.0033
   4.0532E-01   4.1518E-01   1.8755E-03  0.0033
   4.1518E-01   4.2528E-01   1.8850E-03  0.0032
   4.2528E-01   4.3563E-01   1.8680E-03  0.0032
   4.3563E-01   4.4623E-01   1.8801E-03  0.0032
   4.4623E-01   4.5708E-01   1.8745E-03  0.0031
   4.5708E-01   4.6821E-01   1.8788E-03  0.0031
   4.6821E-01   4.7960E-01   1.8722E-03  0.0031
   4.7960E-01   4.9127E-01   1.8820E-03  0.0030
   4.9127E-01   5.0322E-01   1.8713E-03  0.0030
   5.0322E-01   5.1546E-01   1.8685E-03  0.0030
   5.1546E-01   5.2800E-01   1.8597E-03  0.0029
   5.2800E-01   5.4085E-01   1.8622E-03  0.0029
   5.4085E-01   5.5401E-01   1.8540E-03  0.0029
   5.5401E-01   5.6749E-01   1.8427E-03  0.0028
   5.6749E-01   5.8130E-01   1.8284E-03  0.0028
   5.8130E-01   5.9544E-01   1.8104E-03  0.0028
   5.9544E-01   6.0993E-01   1.8087E-03  0.0028
   6.0993E-01   6.2477E-01   1.7896E-03  0.0027
   6.2477E-01   6.3997E-01   1.7719E-03  0.0027
   6.3997E-01   6.5554E-01   1.7587E-03  0.0027
   6.5554E-01   6.7149E-01   1.7459E-03  0.0027
   6.7149E-01   6.8783E-01   1.7203E-03  0.0027
   6.8783E-01   7.0456E-01   1.7013E-03  0.0027
   7.0456E-01   7.2171E-01   1.6866E-03  0.0026
   7.2171E-01   7.3927E-01   1.6615E-03  0.0026
   7.3927E-01   7.5725E-01   1.6243E-03  0.0026
   7.5725E-01   7.7568E-01   1.5976E-03  0.0026
   7.7568E-01   7.9455E-01   1.5666E-03  0.0026
   7.9455E-01   8.1388E-01   1.5207E-03  0.0026
   8.1388E-01   8.3368E-01   1.4933E-03  0.0026
   8.3368E-01   8.5397E-01   1.4521E-03  0.0026
   8.5397E-01   8.7475E-01   1.4123E-03  0.0026
   8.7475E-01   8.9603E-01   1.3677E-03  0.0026
   8.9603E-01   9.1783E-01   1.3124E-03  0.0026
   9.1783E-01   9.4016E-01   1.2655E-03  0.0027
   9.4016E-01   9.6304E-01   1.2004E-03  0.0027
   9.6304E-01   9.8647E-01   1.1465E-03  0.0027
   9.8647E-01   1.0105E+00   1.0816E-03  0.0028
   1.0105E+00   1.0351E+00   1.0636E-03  0.0028
   1.0351E+00   1.0602E+00   1.0500E-03  0.0028
   1.0602E+00   1.0860E+00   1.0368E-03  0.0027
   1.0860E+00   1.1125E+00   1.0297E-03  0.0027
   1.1125E+00   1.1395E+00   1.0241E-03  0.0027
   1.1395E+00   1.1673E+00   1.0211E-03  0.0027
   1.1673E+00   1.1957E+00   1.0235E-03  0.0026
   1.1957E+00   1.2247E+00   1.0226E-03  0.0026
   1.2247E+00   1.2545E+00   1.0058E-03  0.0026
   1.2545E+00   1.2851E+00   9.8313E-04  0.0026
   1.2851E+00   1.3163E+00   9.6654E-04  0.0026
   1.3163E+00   1.3484E+00   9.5339E-04  0.0026
   1.3484E+00   1.3812E+00   9.4882E-04  0.0025
   1.3812E+00   1.4148E+00   9.3795E-04  0.0025
   1.4148E+00   1.4492E+00   9.1917E-04  0.0025
   1.4492E+00   1.4845E+00   8.9273E-04  0.0025
   1.4845E+00   1.5206E+00   8.6749E-04  0.0025
   1.5206E+00   1.5576E+00   8.4673E-04  0.0025
   1.5576E+00   1.5955E+00   8.2462E-04  0.0025
   1.5955E+00   1.6343E+00   8.0183E-04  0.0025
   1.6343E+00   1.6741E+00   7.8633E-04  0.0025
   1.6741E+00   1.7148E+00   7.7433E-04  0.0025
   1.7148E+00   1.7565E+00   7.5011E-04  0.0025
   1.7565E+00   1.7992E+00   7.2481E-04  0.0025
   1.7992E+00   1.8430E+00   7.0332E-04  0.0026
   1.8430E+00   1.8879E+00   6.7360E-04  0.0026
   1.8879E+00   1.9338E+00   6.5197E-04  0.0026
   1.9338E+00   1.9808E+00   6.3176E-04  0.0026
   1.9808E+00   2.0290E+00   6.1378E-04  0.0026
   2.0290E+00   2.0784E+00   5.9200E-04  0.0026
   2.0784E+00   2.1290E+00   5.6519E-04  0.0026
   2.1290E+00   2.1808E+00   5.4203E-04  0.0027
   2.1808E+00   2.2338E+00   5.2135E-04  0.0027
   2.2338E+00   2.2882E+00   4.9588E-04  0.0027
   2.2882E+00   2.3439E+00   4.7207E-04  0.0028
   2.3439E+00   2.4009E+00   4.5508E-04  0.0028
   2.4009E+00   2.4593E+00   4.3846E-04  0.0028
   2.4593E+00   2.5191E+00   4.1807E-04  0.0028
   2.5191E+00   2.5804E+00   3.9665E-04  0.0029
   2.5804E+00   2.6432E+00   3.7724E-04  0.0029
   2.6432E+00   2.7075E+00   3.5768E-04  0.0030
   2.7075E+00   2.7734E+00   3.3845E-04  0.0030
   2.7734E+00   2.8409E+00   3.1739E-04  0.0031
   2.8409E+00   2.9100E+00   3.0107E-04  0.0031
   2.9100E+00   2.9808E+00   2.8556E-04  0.0031
   2.9808E+00   3.0533E+00   2.6825E-04  0.0032
   3.0533E+00   3.1276E+00   2.5239E-04  0.0033
   3.1276E+00   3.2037E+00   2.3802E-04  0.0033
   3.2037E+00   3.2817E+00   2.2183E-04  0.0034
   3.2817E+00   3.3615E+00   2.0877E-04  0.0035
   3.3615E+00   3.4433E+00   1.9416E-04  0.0036
   3.4433E+00   3.5271E+00   1.8135E-04  0.0036
   3.5271E+00   3.6129E+00   1.6935E-04  0.0037
   3.6129E+00   3.7008E+00   1.5762E-04  0.0038
   3.7008E+00   3.7908E+00   1.4548E-04  0.0039
   3.7908E+00   3.8831E+00   1.3605E-04  0.0040
   3.8831E+00   3.9776E+00   1.2660E-04  0.0041
   3.9776E+00   4.0743E+00   1.1738E-04  0.0042
   4.0743E+00   4.1735E+00   1.0926E-04  0.0043
   4.1735E+00   4.2750E+00   1.0064E-04  0.0044
   4.2750E+00   4.3790E+00   9.2691E-05  0.0046
   4.3790E+00   4.4856E+00   8.5455E-05  0.0047
   4.4856E+00   4.5947E+00   7.8298E-05  0.0048
   4.5947E+00   4.7065E+00   7.1637E-05  0.0050
   4.7065E+00   4.8210E+00   6.5128E-05  0.0052
   4.8210E+00   4.9383E+00   5.9428E-05  0.0054
   4.9383E+00   5.0585E+00   5.4795E-05  0.0055
   5.0585E+00   5.1815E+00   5.0115E-05  0.0057
   5.1815E+00   5.3076E+00   4.5562E-05  0.0059
   5.3076E+00   5.4368E+00   4.1751E-05  0.0061
   5.4368E+00   5.5690E+00   3.7700E-05  0.0063
   5.5690E+00   5.7045E+00   3.4409E-05  0.0066
   5.7045E+00   5.8433E+00   3.0890E-05  0.0068
   5.8433E+00   5.9855E+00   2.8322E-05  0.0071
   5.9855E+00   6.1311E+00   2.5488E-05  0.0073
   6.1311E+00   6.2803E+00   2.3375E-05  0.0076
   6.2803E+00   6.4331E+00   2.1293E-05  0.0078
   6.4331E+00   6.5896E+00   1.8873E-05  0.0082
   6.5896E+00   6.7500E+00   1.7161E-05  0.0085
   6.7500E+00   6.9142E+00   1.5570E-05  0.0088
   6.9142E+00   7.0824E+00   1.4341E-05  0.0091
   7.0824E+00   7.2548E+00   1.2614E-05  0.0096
   7.2548E+00   7.4313E+00   1.1373E-05  0.0100
   7.4313E+00   7.6121E+00   1.0410E-05  0.0103
   7.6121E+00   7.7973E+00   9.4494E-06  0.0107
   7.7973E+00   7.9870E+00   8.2529E-06  0.0113
   7.9870E+00   8.1813E+00   7.6267E-06  0.0116
   8.1813E+00   8.3804E+00   6.8779E-06  0.0121
   8.3804E+00   8.5843E+00   6.2638E-06  0.0125
   8.5843E+00   8.7931E+00   5.7516E-06  0.0129
   8.7931E+00   9.0071E+00   5.1214E-06  0.0135
   9.0071E+00   9.2262E+00   4.7328E-06  0.0139
   9.2262E+00   9.4507E+00   4.1518E-06  0.0146
   9.4507E+00   9.6807E+00   3.8701E-06  0.0150
   9.6807E+00   9.9162E+00   3.6037E-06  0.0153
   9.9162E+00   1.0157E+01   3.3137E-06  0.0158
   1.0157E+01   1.0405E+01   3.0024E-06  0.0164
   1.0405E+01   1.0658E+01   2.8489E-06  0.0166
   1.0658E+01   1.0917E+01   2.6142E-06  0.0172
   1.0917E+01   1.1183E+01   2.4211E-06  0.0176
   1.1183E+01   1.1455E+01   2.2427E-06  0.0181
   1.1455E+01   1.1733E+01   2.1855E-06  0.0181
   1.1733E+01   1.2019E+01   1.9836E-06  0.0188
   1.2019E+01   1.2311E+01   1.8541E-06  0.0192
   1.2311E+01   1.2611E+01   1.7747E-06  0.0194
   1.2611E+01   1.2918E+01   1.7195E-06  0.0194
   1.2918E+01   1.3232E+01   1.5985E-06  0.0199
   1.3232E+01   1.3554E+01   1.5515E-06  0.0200
   1.3554E+01   1.3884E+01   1.4619E-06  0.0203
   1.3884E+01   1.4222E+01   1.4245E-06  0.0204
   1.4222E+01   1.4568E+01   1.3225E-06  0.0209
   1.4568E+01   1.4922E+01   1.3040E-06  0.0208
   1.4922E+01   1.5285E+01   1.2485E-06  0.0210
   1.5285E+01   1.5657E+01   1.1740E-06  0.0214
   1.5657E+01   1.6038E+01   1.1227E-06  0.0216
   1.6038E+01   1.6428E+01   1.1002E-06  0.0216
   1.6428E+01   1.6828E+01   1.0355E-06  0.0220
   1.6828E+01   1.7237E+01   1.0058E-06  0.0220
   1.7237E+01   1.7657E+01   9.5661E-07  0.0223
   1.7657E+01   1.8086E+01   8.8291E-07  0.0229
   1.8086E+01   1.8526E+01   8.5876E-07  0.0230
   1.8526E+01   1.8977E+01   8.5189E-07  0.0228
   1.8977E+01   1.9439E+01   8.0350E-07  0.0232
   1.9439E+01   1.9912E+01   8.1063E-07  0.0228
   1.9912E+01   2.0396E+01   7.1088E-07  0.0241
   2.0396E+01   2.0893E+01   6.9681E-07  0.0240
   2.0893E+01   2.1401E+01   6.5469E-07  0.0245
   2.1401E+01   2.1922E+01   6.4144E-07  0.0245
   2.1922E+01   2.2455E+01   6.0183E-07  0.0250
   2.2455E+01   2.3001E+01   5.5679E-07  0.0256
   2.3001E+01   2.3561E+01   5.3463E-07  0.0259
   2.3561E+01   2.4134E+01   5.1216E-07  0.0261
   2.4134E+01   2.4721E+01   4.8841E-07  0.0264
   2.4721E+01   2.5323E+01   4.6019E-07  0.0269
   2.5323E+01   2.5939E+01   4.2264E-07  0.0277
   2.5939E+01   2.6570E+01   3.8630E-07  0.0286
   2.6570E+01   2.7217E+01   3.9012E-07  0.0282
   2.7217E+01   2.7879E+01   3.4733E-07  0.0295
   2.7879E+01   2.8557E+01   3.3200E-07  0.0298
   2.8557E+01   2.9252E+01   2.9447E-07  0.0313
   2.9252E+01   2.9964E+01   2.7988E-07  0.0317
   2.9964E+01   3.0693E+01   2.5568E-07  0.0328
   3.0693E+01   3.1440E+01   2.4452E-07  0.0331
   3.1440E+01   3.2205E+01   2.1256E-07  0.0351
   3.2205E+01   3.2988E+01   1.9348E-07  0.0363
   3.2988E+01   3.3791E+01   1.7019E-07  0.0383
   3.3791E+01   3.4613E+01   1.4547E-07  0.0409
   3.4613E+01   3.5455E+01   1.4582E-07  0.0404
   3.5455E+01   3.6318E+01   1.1847E-07  0.0442
   3.6318E+01   3.7201E+01   1.1045E-07  0.0453
   3.7201E+01   3.8106E+01   9.9432E-08  0.0471
   3.8106E+01   3.9034E+01   7.8304E-08  0.0525
   3.9034E+01   3.9983E+01   7.2443E-08  0.0539
   3.9983E+01   4.0956E+01   6.1882E-08  0.0576
   4.0956E+01   4.1953E+01   5.5796E-08  0.0600
   4.1953E+01   4.2973E+01   4.7808E-08  0.0640
   4.2973E+01   4.4019E+01   3.7300E-08  0.0716
   4.4019E+01   4.5090E+01   3.1746E-08  0.0767
   4.5090E+01   4.6187E+01   2.6616E-08  0.0828
   4.6187E+01   4.7311E+01   2.1179E-08  0.0917
   4.7311E+01   4.8462E+01   1.6506E-08  0.1026
   4.8462E+01   4.9641E+01   1.1873E-08  0.1195
   4.9641E+01   5.0849E+01   1.1591E-08  0.1195
   5.0849E+01   5.2086E+01   6.4663E-09  0.1581
   5.2086E+01   5.3353E+01   7.7330E-09  0.1429
   5.3353E+01   5.4651E+01   4.3139E-09  0.1890
   5.4651E+01   5.5981E+01   2.7074E-09  0.2357
   5.5981E+01   5.7343E+01   2.4962E-09  0.2425
   5.7343E+01   5.8738E+01   1.7202E-09  0.2887
   5.8738E+01   6.0168E+01   5.5977E-10  0.5000
   6.0168E+01   6.1632E+01   8.1971E-10  0.4082
   6.1632E+01   6.3131E+01   5.3350E-10  0.5000
   6.3131E+01   6.4667E+01   2.6041E-10  0.7071
   6.4667E+01   6.6240E+01   0.0000E+00  0.0000
   6.6240E+01   6.7852E+01   0.0000E+00  0.0000
   6.7852E+01   6.9503E+01   0.0000E+00  0.0000
   6.9503E+01   7.1194E+01   0.0000E+00  0.0000
   7.1194E+01   7.2926E+01   0.0000E+00  0.0000
   7.2926E+01   7.4701E+01   0.0000E+00  0.0000
   7.4701E+01   7.6518E+01   0.0000E+00  0.0000
   7.6518E+01   7.8380E+01   0.0000E+00  0.0000
   7.8380E+01   8.0287E+01   0.0000E+00  0.0000
   8.0287E+01   8.2240E+01   0.0000E+00  0.0000
   8.2240E+01   8.4241E+01   0.0000E+00  0.0000
   8.4241E+01   8.6291E+01   0.0000E+00  0.0000
   8.6291E+01   8.8391E+01   0.0000E+00  0.0000
   8.8391E+01   9.0541E+01   0.0000E+00  0.0000
   9.0541E+01   9.2744E+01   0.0000E+00  0.0000
   9.2744E+01   9.5001E+01   0.0000E+00  0.0000
   9.5001E+01   9.7312E+01   0.0000E+00  0.0000
   9.7312E+01   9.9680E+01   0.0000E+00  0.0000
   9.9680E+01   1.0211E+02   0.0000E+00  0.0000
   1.0211E+02   1.0459E+02   0.0000E+00  0.0000
   1.0459E+02   1.0713E+02   0.0000E+00  0.0000
   1.0713E+02   1.0974E+02   0.0000E+00  0.0000
   1.0974E+02   1.1241E+02   0.0000E+00  0.0000
   1.1241E+02   1.1515E+02   0.0000E+00  0.0000
   1.1515E+02   1.1795E+02   0.0000E+00  0.0000
   1.1795E+02   1.2082E+02   0.0000E+00  0.0000
   1.2082E+02   1.2376E+02   0.0000E+00  0.0000
   1.2376E+02   1.2677E+02   0.0000E+00  0.0000
   1.2677E+02   1.2985E+02   0.0000E+00  0.0000
   1.2985E+02   1.3301E+02   0.0000E+00  0.0000
   1.3301E+02   1.3625E+02   0.0000E+00  0.0000
   1.3625E+02   1.3956E+02   0.0000E+00  0.0000
   1.3956E+02   1.4296E+02   0.0000E+00  0.0000
   1.4296E+02   1.4644E+02   0.0000E+00  0.0000
   1.4644E+02   1.5000E+02   0.0000E+00  0.0000

#   sum over                 2.1301E-05
'no. =    1   reg = 119 - 219'
msuc: {\huge [t-cross] in region mesh}
msdr: {\it plotted by \ANGEL \version}
msdl: {\it calculated by \PHITS  3.26}
wt: s(0.7)
\vspace{-3}
  region surface crossing
  area  &=&   1.0000E+00 [cm^2]
e:
 
# Information for Restart Calculation
# This calculation was newly started
# istdev =  2 # 1:Batch variance, 2:History variance
# resc2  = 5.00000000000000000E+09 # Total source weight or Total source weight / maxcas
# resc3  = 5.00000000000000000E+09 # Total history number or Total batch number
# maxcas =   500000000 # History / Batch, only used for istdev=1
# bitrseed = 0110100000100010111000001110001111001110100100011111101000111001 # bit data of rseed
