[ T-Cross ]
    title = [t-cross] in region mesh
     mesh =  reg            # mesh type is region-wise
      reg =    1            # number of crossing regions
      non     r-from    r-to       area
      1       113       213        1.000000    
   e-type =    3            # e-mesh is log given by emin, emax and ne
     emin =  1.0000000E-02  # minimum value of e-mesh points
     emax =   150.0000      # maximum value of e-mesh points
#    edel =  2.4039514E-02  # mesh width of e-mesh points
       ne =    400          # number of e-mesh points
#    data = ( e(i), i = 1, ne + 1 )
#           1.00000E-02  1.02433E-02  1.04925E-02  1.07478E-02  1.10093E-02
#           1.12772E-02  1.15516E-02  1.18326E-02  1.21205E-02  1.24154E-02
#           1.27175E-02  1.30269E-02  1.33439E-02  1.36686E-02  1.40011E-02
#           1.43418E-02  1.46907E-02  1.50482E-02  1.54143E-02  1.57894E-02
#           1.61735E-02  1.65670E-02  1.69701E-02  1.73830E-02  1.78060E-02
#           1.82392E-02  1.86830E-02  1.91375E-02  1.96032E-02  2.00801E-02
#           2.05687E-02  2.10692E-02  2.15818E-02  2.21069E-02  2.26448E-02
#           2.31957E-02  2.37601E-02  2.43382E-02  2.49304E-02  2.55369E-02
#           2.61583E-02  2.67947E-02  2.74467E-02  2.81145E-02  2.87985E-02
#           2.94992E-02  3.02169E-02  3.09521E-02  3.17052E-02  3.24766E-02
#           3.32668E-02  3.40762E-02  3.49053E-02  3.57546E-02  3.66246E-02
#           3.75157E-02  3.84284E-02  3.93634E-02  4.03212E-02  4.13022E-02
#           4.23071E-02  4.33365E-02  4.43909E-02  4.54710E-02  4.65773E-02
#           4.77106E-02  4.88714E-02  5.00605E-02  5.12785E-02  5.25262E-02
#           5.38042E-02  5.51133E-02  5.64542E-02  5.78278E-02  5.92348E-02
#           6.06760E-02  6.21523E-02  6.36645E-02  6.52135E-02  6.68002E-02
#           6.84255E-02  7.00904E-02  7.17957E-02  7.35426E-02  7.53319E-02
#           7.71648E-02  7.90423E-02  8.09655E-02  8.29354E-02  8.49533E-02
#           8.70203E-02  8.91376E-02  9.13064E-02  9.35279E-02  9.58035E-02
#           9.81345E-02  1.00522E-01  1.02968E-01  1.05473E-01  1.08040E-01
#           1.10668E-01  1.13361E-01  1.16119E-01  1.18944E-01  1.21838E-01
#           1.24803E-01  1.27839E-01  1.30950E-01  1.34136E-01  1.37399E-01
#           1.40742E-01  1.44167E-01  1.47675E-01  1.51268E-01  1.54948E-01
#           1.58718E-01  1.62580E-01  1.66535E-01  1.70587E-01  1.74738E-01
#           1.78989E-01  1.83344E-01  1.87805E-01  1.92375E-01  1.97055E-01
#           2.01850E-01  2.06761E-01  2.11792E-01  2.16945E-01  2.22223E-01
#           2.27630E-01  2.33169E-01  2.38842E-01  2.44653E-01  2.50605E-01
#           2.56703E-01  2.62949E-01  2.69346E-01  2.75900E-01  2.82613E-01
#           2.89489E-01  2.96532E-01  3.03747E-01  3.11138E-01  3.18708E-01
#           3.26462E-01  3.34405E-01  3.42542E-01  3.50876E-01  3.59413E-01
#           3.68158E-01  3.77116E-01  3.86291E-01  3.95690E-01  4.05317E-01
#           4.15179E-01  4.25281E-01  4.35628E-01  4.46227E-01  4.57084E-01
#           4.68205E-01  4.79597E-01  4.91266E-01  5.03219E-01  5.15463E-01
#           5.28005E-01  5.40851E-01  5.54011E-01  5.67490E-01  5.81298E-01
#           5.95441E-01  6.09929E-01  6.24769E-01  6.39970E-01  6.55541E-01
#           6.71491E-01  6.87828E-01  7.04564E-01  7.21706E-01  7.39266E-01
#           7.57253E-01  7.75678E-01  7.94551E-01  8.13883E-01  8.33685E-01
#           8.53969E-01  8.74747E-01  8.96030E-01  9.17831E-01  9.40163E-01
#           9.63038E-01  9.86469E-01  1.01047E+00  1.03506E+00  1.06024E+00
#           1.08604E+00  1.11246E+00  1.13953E+00  1.16725E+00  1.19565E+00
#           1.22474E+00  1.25454E+00  1.28507E+00  1.31633E+00  1.34836E+00
#           1.38117E+00  1.41477E+00  1.44920E+00  1.48446E+00  1.52057E+00
#           1.55757E+00  1.59547E+00  1.63429E+00  1.67405E+00  1.71478E+00
#           1.75650E+00  1.79924E+00  1.84302E+00  1.88786E+00  1.93379E+00
#           1.98084E+00  2.02904E+00  2.07841E+00  2.12898E+00  2.18078E+00
#           2.23384E+00  2.28819E+00  2.34386E+00  2.40089E+00  2.45930E+00
#           2.51914E+00  2.58043E+00  2.64322E+00  2.70753E+00  2.77341E+00
#           2.84088E+00  2.91001E+00  2.98081E+00  3.05333E+00  3.12762E+00
#           3.20372E+00  3.28167E+00  3.36152E+00  3.44330E+00  3.52708E+00
#           3.61290E+00  3.70080E+00  3.79085E+00  3.88308E+00  3.97756E+00
#           4.07434E+00  4.17347E+00  4.27501E+00  4.37903E+00  4.48557E+00
#           4.59471E+00  4.70650E+00  4.82102E+00  4.93832E+00  5.05847E+00
#           5.18155E+00  5.30762E+00  5.43676E+00  5.56904E+00  5.70453E+00
#           5.84333E+00  5.98550E+00  6.13114E+00  6.28031E+00  6.43312E+00
#           6.58964E+00  6.74997E+00  6.91420E+00  7.08243E+00  7.25475E+00
#           7.43126E+00  7.61207E+00  7.79728E+00  7.98700E+00  8.18133E+00
#           8.38038E+00  8.58428E+00  8.79315E+00  9.00709E+00  9.22624E+00
#           9.45072E+00  9.68067E+00  9.91620E+00  1.01575E+01  1.04046E+01
#           1.06578E+01  1.09171E+01  1.11827E+01  1.14548E+01  1.17335E+01
#           1.20190E+01  1.23114E+01  1.26109E+01  1.29178E+01  1.32321E+01
#           1.35540E+01  1.38838E+01  1.42216E+01  1.45676E+01  1.49221E+01
#           1.52851E+01  1.56570E+01  1.60380E+01  1.64282E+01  1.68279E+01
#           1.72374E+01  1.76568E+01  1.80864E+01  1.85264E+01  1.89772E+01
#           1.94389E+01  1.99119E+01  2.03963E+01  2.08926E+01  2.14009E+01
#           2.19216E+01  2.24550E+01  2.30014E+01  2.35610E+01  2.41343E+01
#           2.47215E+01  2.53230E+01  2.59391E+01  2.65702E+01  2.72167E+01
#           2.78789E+01  2.85572E+01  2.92520E+01  2.99637E+01  3.06928E+01
#           3.14396E+01  3.22045E+01  3.29881E+01  3.37907E+01  3.46128E+01
#           3.54550E+01  3.63177E+01  3.72013E+01  3.81064E+01  3.90336E+01
#           3.99833E+01  4.09561E+01  4.19526E+01  4.29734E+01  4.40189E+01
#           4.50900E+01  4.61870E+01  4.73108E+01  4.84619E+01  4.96410E+01
#           5.08488E+01  5.20860E+01  5.33533E+01  5.46514E+01  5.59812E+01
#           5.73432E+01  5.87384E+01  6.01676E+01  6.16315E+01  6.31311E+01
#           6.46671E+01  6.62405E+01  6.78522E+01  6.95031E+01  7.11941E+01
#           7.29263E+01  7.47007E+01  7.65182E+01  7.83800E+01  8.02870E+01
#           8.22405E+01  8.42414E+01  8.62911E+01  8.83906E+01  9.05412E+01
#           9.27442E+01  9.50007E+01  9.73122E+01  9.96799E+01  1.02105E+02
#           1.04589E+02  1.07134E+02  1.09741E+02  1.12411E+02  1.15146E+02
#           1.17948E+02  1.20817E+02  1.23757E+02  1.26768E+02  1.29852E+02
#           1.33012E+02  1.36248E+02  1.39563E+02  1.42959E+02  1.46437E+02
#           1.50000E+02
     unit =    2            # unit is [1/cm^2/(MeV/n)/source]
     axis =  eng            # axis of output
     file = detector-14.out  # file name of output for the above axis
   output = f-curr          # surface crossing forward current spectrum
     part =  neutron  
# kf/name :  2112     
#    used :        main (  %)        temp (  %)       total (  %)
#  memory :         414 (  0)           0 (  0)         414 (  0)

#------------------------------------------------------------------------------
#newpage:
#   no. =    1   reg = 113 - 213

x: Energy [MeV/n]
y:  F-Curr [1/cm^2/(MeV/n)/source]         
p: xlog ylog afac(0.8) form(0.9)
h: n            x            y(neutron ),hh0l   n 
#  e-lower      e-upper      neutron     r.err 
   1.0000E-02   1.0243E-02   2.1920E-05  0.2500
   1.0243E-02   1.0493E-02   1.8725E-05  0.2673
   1.0493E-02   1.0748E-02   1.6974E-05  0.2774
   1.0748E-02   1.1009E-02   1.2747E-05  0.3162
   1.1009E-02   1.1277E-02   1.8666E-05  0.2582
   1.1277E-02   1.1552E-02   1.0934E-05  0.3333
   1.1552E-02   1.1833E-02   1.5418E-05  0.2774
   1.1833E-02   1.2121E-02   2.0841E-05  0.2357
   1.2121E-02   1.2415E-02   1.9215E-05  0.2425
   1.2415E-02   1.2718E-02   2.3173E-05  0.2182
   1.2718E-02   1.3027E-02   2.4777E-05  0.2085
   1.3027E-02   1.3344E-02   1.7878E-05  0.2425
   1.3344E-02   1.3669E-02   1.7454E-05  0.2425
   1.3669E-02   1.4001E-02   1.8041E-05  0.2357
   1.4001E-02   1.4342E-02   2.6419E-05  0.1925
   1.4342E-02   1.4691E-02   2.1971E-05  0.2085
   1.4691E-02   1.5048E-02   2.1449E-05  0.2085
   1.5048E-02   1.5414E-02   2.1850E-05  0.2041
   1.5414E-02   1.5789E-02   2.0442E-05  0.2085
   1.5789E-02   1.6174E-02   2.2560E-05  0.1961
   1.6174E-02   1.6567E-02   2.2871E-05  0.1925
   1.6567E-02   1.6970E-02   2.3155E-05  0.1890
   1.6970E-02   1.7383E-02   2.1797E-05  0.1925
   1.7383E-02   1.7806E-02   1.9703E-05  0.2000
   1.7806E-02   1.8239E-02   3.0776E-05  0.1581
   1.8239E-02   1.8683E-02   2.1783E-05  0.1857
   1.8683E-02   1.9138E-02   2.7132E-05  0.1644
   1.9138E-02   1.9603E-02   1.9329E-05  0.1925
   1.9603E-02   2.0080E-02   1.5375E-05  0.2132
   2.0080E-02   2.0569E-02   2.0468E-05  0.1826
   2.0569E-02   2.1069E-02   1.7984E-05  0.1925
   2.1069E-02   2.1582E-02   2.2758E-05  0.1690
   2.1582E-02   2.2107E-02   1.5235E-05  0.2041
   2.2107E-02   2.2645E-02   2.0451E-05  0.1741
   2.2645E-02   2.3196E-02   1.9360E-05  0.1768
   2.3196E-02   2.3760E-02   2.3625E-05  0.1581
   2.3760E-02   2.4338E-02   1.6721E-05  0.1857
   2.4338E-02   2.4930E-02   2.2516E-05  0.1581
   2.4930E-02   2.5537E-02   2.1981E-05  0.1581
   2.5537E-02   2.6158E-02   2.1459E-05  0.1581
   2.6158E-02   2.6795E-02   1.5712E-05  0.1826
   2.6795E-02   2.7447E-02   1.5850E-05  0.1796
   2.7447E-02   2.8114E-02   2.0465E-05  0.1562
   2.8114E-02   2.8799E-02   2.0954E-05  0.1525
   2.8799E-02   2.9499E-02   1.8553E-05  0.1601
   2.9499E-02   3.0217E-02   2.1828E-05  0.1459
   3.0217E-02   3.0952E-02   1.9496E-05  0.1525
   3.0952E-02   3.1705E-02   2.2574E-05  0.1400
   3.1705E-02   3.2477E-02   2.5926E-05  0.1291
   3.2477E-02   3.3267E-02   2.0248E-05  0.1443
   3.3267E-02   3.4076E-02   1.7708E-05  0.1525
   3.4076E-02   3.4905E-02   2.0504E-05  0.1400
   3.4905E-02   3.5755E-02   2.0802E-05  0.1374
   3.5755E-02   3.6625E-02   2.3756E-05  0.1270
   3.6625E-02   3.7516E-02   2.2070E-05  0.1302
   3.7516E-02   3.8428E-02   2.5563E-05  0.1195
   3.8428E-02   3.9363E-02   2.1391E-05  0.1291
   3.9363E-02   4.0321E-02   1.7750E-05  0.1400
   4.0321E-02   4.1302E-02   2.4124E-05  0.1187
   4.1302E-02   4.2307E-02   1.7249E-05  0.1387
   4.2307E-02   4.3337E-02   2.1696E-05  0.1222
   4.3337E-02   4.4391E-02   2.4026E-05  0.1147
   4.4391E-02   4.5471E-02   1.9752E-05  0.1250
   4.5471E-02   4.6577E-02   2.4405E-05  0.1111
   4.6577E-02   4.7711E-02   2.8825E-05  0.1010
   4.7711E-02   4.8871E-02   2.0388E-05  0.1187
   4.8871E-02   5.0061E-02   2.3828E-05  0.1085
   5.0061E-02   5.1279E-02   2.2441E-05  0.1104
   5.1279E-02   5.2526E-02   2.0572E-05  0.1140
   5.2526E-02   5.3804E-02   2.4257E-05  0.1037
   5.3804E-02   5.5113E-02   2.2662E-05  0.1060
   5.5113E-02   5.6454E-02   2.6349E-05  0.0971
   5.6454E-02   5.7828E-02   2.4753E-05  0.0990
   5.7828E-02   5.9235E-02   2.3928E-05  0.0995
   5.9235E-02   6.0676E-02   2.4747E-05  0.0967
   6.0676E-02   6.2152E-02   2.1450E-05  0.1026
   6.2152E-02   6.3665E-02   2.3365E-05  0.0971
   6.3665E-02   6.5214E-02   2.4317E-05  0.0941
   6.5214E-02   6.6800E-02   2.4159E-05  0.0933
   6.6800E-02   6.8426E-02   2.2150E-05  0.0962
   6.8426E-02   7.0090E-02   2.2024E-05  0.0953
   7.0090E-02   7.1796E-02   2.2087E-05  0.0941
   7.1796E-02   7.3543E-02   2.4234E-05  0.0887
   7.3543E-02   7.5332E-02   2.4776E-05  0.0867
   7.5332E-02   7.7165E-02   2.4370E-05  0.0864
   7.7165E-02   7.9042E-02   2.6276E-05  0.0822
   7.9042E-02   8.0965E-02   2.1492E-05  0.0898
   8.0965E-02   8.2935E-02   2.4366E-05  0.0833
   8.2935E-02   8.4953E-02   2.0153E-05  0.0905
   8.4953E-02   8.7020E-02   2.2738E-05  0.0842
   8.7020E-02   8.9138E-02   2.3930E-05  0.0811
   8.9138E-02   9.1306E-02   2.5206E-05  0.0781
   9.1306E-02   9.3528E-02   2.4757E-05  0.0778
   9.3528E-02   9.5804E-02   2.5781E-05  0.0754
   9.5804E-02   9.8134E-02   2.5883E-05  0.0743
   9.8134E-02   1.0052E-01   2.6804E-05  0.0722
   1.0052E-01   1.0297E-01   2.0988E-05  0.0806
   1.0297E-01   1.0547E-01   2.4215E-05  0.0741
   1.0547E-01   1.0804E-01   2.4549E-05  0.0727
   1.0804E-01   1.1067E-01   2.5995E-05  0.0698
   1.1067E-01   1.1336E-01   2.3645E-05  0.0724
   1.1336E-01   1.1612E-01   2.3687E-05  0.0714
   1.1612E-01   1.1894E-01   2.7372E-05  0.0657
   1.1894E-01   1.2184E-01   2.3727E-05  0.0697
   1.2184E-01   1.2480E-01   2.3726E-05  0.0688
   1.2480E-01   1.2784E-01   2.7114E-05  0.0636
   1.2784E-01   1.3095E-01   2.8613E-05  0.0612
   1.3095E-01   1.3414E-01   2.6783E-05  0.0625
   1.3414E-01   1.3740E-01   2.7372E-05  0.0611
   1.3740E-01   1.4074E-01   2.4927E-05  0.0632
   1.4074E-01   1.4417E-01   2.9008E-05  0.0579
   1.4417E-01   1.4767E-01   2.4613E-05  0.0621
   1.4767E-01   1.5127E-01   2.5141E-05  0.0607
   1.5127E-01   1.5495E-01   2.6627E-05  0.0583
   1.5495E-01   1.5872E-01   2.9354E-05  0.0549
   1.5872E-01   1.6258E-01   2.5291E-05  0.0584
   1.6258E-01   1.6654E-01   2.4522E-05  0.0586
   1.6654E-01   1.7059E-01   2.6654E-05  0.0556
   1.7059E-01   1.7474E-01   2.6663E-05  0.0549
   1.7474E-01   1.7899E-01   2.5324E-05  0.0556
   1.7899E-01   1.8334E-01   2.6177E-05  0.0541
   1.8334E-01   1.8781E-01   2.6826E-05  0.0528
   1.8781E-01   1.9237E-01   2.7064E-05  0.0519
   1.9237E-01   1.9706E-01   2.5709E-05  0.0526
   1.9706E-01   2.0185E-01   2.5098E-05  0.0526
   2.0185E-01   2.0676E-01   2.8031E-05  0.0492
   2.0676E-01   2.1179E-01   2.6040E-05  0.0504
   2.1179E-01   2.1694E-01   2.8591E-05  0.0476
   2.1694E-01   2.2222E-01   2.7091E-05  0.0483
   2.2222E-01   2.2763E-01   2.7434E-05  0.0474
   2.2763E-01   2.3317E-01   2.5880E-05  0.0482
   2.3317E-01   2.3884E-01   2.8203E-05  0.0456
   2.3884E-01   2.4465E-01   2.6902E-05  0.0462
   2.4465E-01   2.5061E-01   2.6851E-05  0.0457
   2.5061E-01   2.5670E-01   2.7826E-05  0.0443
   2.5670E-01   2.6295E-01   2.6685E-05  0.0447
   2.6295E-01   2.6935E-01   2.6103E-05  0.0447
   2.6935E-01   2.7590E-01   2.8535E-05  0.0422
   2.7590E-01   2.8261E-01   2.8900E-05  0.0415
   2.8261E-01   2.8949E-01   2.6856E-05  0.0425
   2.8949E-01   2.9653E-01   2.7165E-05  0.0417
   2.9653E-01   3.0375E-01   2.6750E-05  0.0416
   3.0375E-01   3.1114E-01   2.7964E-05  0.0402
   3.1114E-01   3.1871E-01   2.7212E-05  0.0402
   3.1871E-01   3.2646E-01   2.7382E-05  0.0396
   3.2646E-01   3.3441E-01   2.8452E-05  0.0384
   3.3441E-01   3.4254E-01   2.8391E-05  0.0380
   3.4254E-01   3.5088E-01   2.6517E-05  0.0388
   3.5088E-01   3.5941E-01   2.6629E-05  0.0383
   3.5941E-01   3.6816E-01   2.6606E-05  0.0379
   3.6816E-01   3.7712E-01   2.5193E-05  0.0384
   3.7712E-01   3.8629E-01   2.8118E-05  0.0359
   3.8629E-01   3.9569E-01   2.6422E-05  0.0366
   3.9569E-01   4.0532E-01   2.6625E-05  0.0361
   4.0532E-01   4.1518E-01   2.5553E-05  0.0364
   4.1518E-01   4.2528E-01   2.5936E-05  0.0357
   4.2528E-01   4.3563E-01   2.5030E-05  0.0359
   4.3563E-01   4.4623E-01   2.6747E-05  0.0343
   4.4623E-01   4.5708E-01   2.7048E-05  0.0337
   4.5708E-01   4.6821E-01   2.6466E-05  0.0337
   4.6821E-01   4.7960E-01   2.4667E-05  0.0344
   4.7960E-01   4.9127E-01   2.5852E-05  0.0332
   4.9127E-01   5.0322E-01   2.5740E-05  0.0329
   5.0322E-01   5.1546E-01   2.6000E-05  0.0324
   5.1546E-01   5.2800E-01   2.5090E-05  0.0325
   5.2800E-01   5.4085E-01   2.5039E-05  0.0322
   5.4085E-01   5.5401E-01   2.4925E-05  0.0319
   5.5401E-01   5.6749E-01   2.4803E-05  0.0316
   5.6749E-01   5.8130E-01   2.5300E-05  0.0309
   5.8130E-01   5.9544E-01   2.4016E-05  0.0313
   5.9544E-01   6.0993E-01   2.5355E-05  0.0301
   6.0993E-01   6.2477E-01   2.4034E-05  0.0306
   6.2477E-01   6.3997E-01   2.3200E-05  0.0307
   6.3997E-01   6.5554E-01   2.3013E-05  0.0305
   6.5554E-01   6.7149E-01   2.2080E-05  0.0308
   6.7149E-01   6.8783E-01   2.2300E-05  0.0302
   6.8783E-01   7.0456E-01   2.2099E-05  0.0300
   7.0456E-01   7.2171E-01   2.2371E-05  0.0295
   7.2171E-01   7.3927E-01   2.2533E-05  0.0290
   7.3927E-01   7.5725E-01   2.0756E-05  0.0299
   7.5725E-01   7.7568E-01   2.1258E-05  0.0292
   7.7568E-01   7.9455E-01   2.0718E-05  0.0292
   7.9455E-01   8.1388E-01   1.9243E-05  0.0299
   8.1388E-01   8.3368E-01   1.8954E-05  0.0298
   8.3368E-01   8.5397E-01   1.9424E-05  0.0291
   8.5397E-01   8.7475E-01   1.8321E-05  0.0296
   8.7475E-01   8.9603E-01   1.7525E-05  0.0299
   8.9603E-01   9.1783E-01   1.6865E-05  0.0301
   9.1783E-01   9.4016E-01   1.5882E-05  0.0307
   9.4016E-01   9.6304E-01   1.5913E-05  0.0303
   9.6304E-01   9.8647E-01   1.5335E-05  0.0305
   9.8647E-01   1.0105E+00   1.4582E-05  0.0309
   1.0105E+00   1.0351E+00   1.4060E-05  0.0311
   1.0351E+00   1.0602E+00   1.4189E-05  0.0305
   1.0602E+00   1.0860E+00   1.5332E-05  0.0290
   1.0860E+00   1.1125E+00   1.4734E-05  0.0293
   1.1125E+00   1.1395E+00   1.6139E-05  0.0276
   1.1395E+00   1.1673E+00   1.5701E-05  0.0277
   1.1673E+00   1.1957E+00   1.5821E-05  0.0272
   1.1957E+00   1.2247E+00   1.6666E-05  0.0262
   1.2247E+00   1.2545E+00   1.7708E-05  0.0251
   1.2545E+00   1.2851E+00   1.6239E-05  0.0259
   1.2851E+00   1.3163E+00   1.7660E-05  0.0246
   1.3163E+00   1.3484E+00   1.7214E-05  0.0246
   1.3484E+00   1.3812E+00   1.7273E-05  0.0243
   1.3812E+00   1.4148E+00   1.7859E-05  0.0236
   1.4148E+00   1.4492E+00   1.8350E-05  0.0230
   1.4492E+00   1.4845E+00   1.7574E-05  0.0232
   1.4845E+00   1.5206E+00   1.7937E-05  0.0227
   1.5206E+00   1.5576E+00   1.7727E-05  0.0225
   1.5576E+00   1.5955E+00   1.8317E-05  0.0219
   1.5955E+00   1.6343E+00   1.8840E-05  0.0213
   1.6343E+00   1.6741E+00   1.9193E-05  0.0209
   1.6741E+00   1.7148E+00   1.9297E-05  0.0206
   1.7148E+00   1.7565E+00   1.9674E-05  0.0202
   1.7565E+00   1.7992E+00   2.0544E-05  0.0195
   1.7992E+00   1.8430E+00   1.9759E-05  0.0196
   1.8430E+00   1.8879E+00   2.0204E-05  0.0192
   1.8879E+00   1.9338E+00   2.0211E-05  0.0189
   1.9338E+00   1.9808E+00   2.1367E-05  0.0182
   1.9808E+00   2.0290E+00   2.1824E-05  0.0178
   2.0290E+00   2.0784E+00   2.1775E-05  0.0176
   2.0784E+00   2.1290E+00   2.1897E-05  0.0173
   2.1290E+00   2.1808E+00   2.2001E-05  0.0171
   2.1808E+00   2.2338E+00   2.1978E-05  0.0169
   2.2338E+00   2.2882E+00   2.2183E-05  0.0166
   2.2882E+00   2.3439E+00   2.3021E-05  0.0161
   2.3439E+00   2.4009E+00   2.3506E-05  0.0158
   2.4009E+00   2.4593E+00   2.4523E-05  0.0153
   2.4593E+00   2.5191E+00   2.4330E-05  0.0151
   2.5191E+00   2.5804E+00   2.5071E-05  0.0147
   2.5804E+00   2.6432E+00   2.4534E-05  0.0147
   2.6432E+00   2.7075E+00   2.4938E-05  0.0144
   2.7075E+00   2.7734E+00   2.5525E-05  0.0141
   2.7734E+00   2.8409E+00   2.6290E-05  0.0137
   2.8409E+00   2.9100E+00   2.6847E-05  0.0134
   2.9100E+00   2.9808E+00   2.7666E-05  0.0130
   2.9808E+00   3.0533E+00   2.8078E-05  0.0128
   3.0533E+00   3.1276E+00   2.8059E-05  0.0126
   3.1276E+00   3.2037E+00   2.8220E-05  0.0125
   3.2037E+00   3.2817E+00   2.8705E-05  0.0122
   3.2817E+00   3.3615E+00   2.8309E-05  0.0121
   3.3615E+00   3.4433E+00   2.8900E-05  0.0119
   3.4433E+00   3.5271E+00   2.9260E-05  0.0117
   3.5271E+00   3.6129E+00   2.9518E-05  0.0115
   3.6129E+00   3.7008E+00   2.9890E-05  0.0113
   3.7008E+00   3.7908E+00   3.0243E-05  0.0111
   3.7908E+00   3.8831E+00   3.0732E-05  0.0108
   3.8831E+00   3.9776E+00   3.0861E-05  0.0107
   3.9776E+00   4.0743E+00   3.1226E-05  0.0105
   4.0743E+00   4.1735E+00   3.0545E-05  0.0105
   4.1735E+00   4.2750E+00   3.0606E-05  0.0104
   4.2750E+00   4.3790E+00   3.0207E-05  0.0103
   4.3790E+00   4.4856E+00   2.9105E-05  0.0104
   4.4856E+00   4.5947E+00   2.9785E-05  0.0101
   4.5947E+00   4.7065E+00   3.0062E-05  0.0100
   4.7065E+00   4.8210E+00   3.0074E-05  0.0098
   4.8210E+00   4.9383E+00   2.9860E-05  0.0098
   4.9383E+00   5.0585E+00   2.9221E-05  0.0097
   5.0585E+00   5.1815E+00   2.8745E-05  0.0097
   5.1815E+00   5.3076E+00   2.8379E-05  0.0096
   5.3076E+00   5.4368E+00   2.8013E-05  0.0096
   5.4368E+00   5.5690E+00   2.6610E-05  0.0097
   5.5690E+00   5.7045E+00   2.6934E-05  0.0096
   5.7045E+00   5.8433E+00   2.6386E-05  0.0095
   5.8433E+00   5.9855E+00   2.6110E-05  0.0095
   5.9855E+00   6.1311E+00   2.5376E-05  0.0095
   6.1311E+00   6.2803E+00   2.4957E-05  0.0095
   6.2803E+00   6.4331E+00   2.4201E-05  0.0095
   6.4331E+00   6.5896E+00   2.3280E-05  0.0096
   6.5896E+00   6.7500E+00   2.3587E-05  0.0094
   6.7500E+00   6.9142E+00   2.2804E-05  0.0094
   6.9142E+00   7.0824E+00   2.2626E-05  0.0094
   7.0824E+00   7.2548E+00   2.1784E-05  0.0094
   7.2548E+00   7.4313E+00   2.1128E-05  0.0094
   7.4313E+00   7.6121E+00   2.0453E-05  0.0095
   7.6121E+00   7.7973E+00   1.9955E-05  0.0095
   7.7973E+00   7.9870E+00   1.9327E-05  0.0095
   7.9870E+00   8.1813E+00   1.8837E-05  0.0095
   8.1813E+00   8.3804E+00   1.8924E-05  0.0094
   8.3804E+00   8.5843E+00   1.7602E-05  0.0096
   8.5843E+00   8.7931E+00   1.7380E-05  0.0096
   8.7931E+00   9.0071E+00   1.7014E-05  0.0096
   9.0071E+00   9.2262E+00   1.6432E-05  0.0096
   9.2262E+00   9.4507E+00   1.5777E-05  0.0097
   9.4507E+00   9.6807E+00   1.5386E-05  0.0097
   9.6807E+00   9.9162E+00   1.4919E-05  0.0097
   9.9162E+00   1.0157E+01   1.4712E-05  0.0097
   1.0157E+01   1.0405E+01   1.4298E-05  0.0097
   1.0405E+01   1.0658E+01   1.3829E-05  0.0098
   1.0658E+01   1.0917E+01   1.3340E-05  0.0098
   1.0917E+01   1.1183E+01   1.2990E-05  0.0098
   1.1183E+01   1.1455E+01   1.2475E-05  0.0099
   1.1455E+01   1.1733E+01   1.2326E-05  0.0098
   1.1733E+01   1.2019E+01   1.1802E-05  0.0099
   1.2019E+01   1.2311E+01   1.1568E-05  0.0099
   1.2311E+01   1.2611E+01   1.1072E-05  0.0100
   1.2611E+01   1.2918E+01   1.0525E-05  0.0102
   1.2918E+01   1.3232E+01   1.0335E-05  0.0101
   1.3232E+01   1.3554E+01   9.8003E-06  0.0103
   1.3554E+01   1.3884E+01   9.4366E-06  0.0103
   1.3884E+01   1.4222E+01   9.2312E-06  0.0103
   1.4222E+01   1.4568E+01   8.9305E-06  0.0104
   1.4568E+01   1.4922E+01   8.4386E-06  0.0106
   1.4922E+01   1.5285E+01   7.9738E-06  0.0107
   1.5285E+01   1.5657E+01   7.7767E-06  0.0107
   1.5657E+01   1.6038E+01   7.0219E-06  0.0112
   1.6038E+01   1.6428E+01   7.0341E-06  0.0110
   1.6428E+01   1.6828E+01   6.5593E-06  0.0113
   1.6828E+01   1.7237E+01   6.3111E-06  0.0114
   1.7237E+01   1.7657E+01   5.9303E-06  0.0116
   1.7657E+01   1.8086E+01   5.6447E-06  0.0117
   1.8086E+01   1.8526E+01   5.2319E-06  0.0120
   1.8526E+01   1.8977E+01   4.9209E-06  0.0123
   1.8977E+01   1.9439E+01   4.6680E-06  0.0124
   1.9439E+01   1.9912E+01   4.4154E-06  0.0126
   1.9912E+01   2.0396E+01   4.4750E-06  0.0124
   2.0396E+01   2.0893E+01   4.0933E-06  0.0128
   2.0893E+01   2.1401E+01   3.8000E-06  0.0131
   2.1401E+01   2.1922E+01   3.4031E-06  0.0137
   2.1922E+01   2.2455E+01   3.2879E-06  0.0138
   2.2455E+01   2.3001E+01   2.9084E-06  0.0145
   2.3001E+01   2.3561E+01   2.7303E-06  0.0148
   2.3561E+01   2.4134E+01   2.4910E-06  0.0153
   2.4134E+01   2.4721E+01   2.2173E-06  0.0160
   2.4721E+01   2.5323E+01   2.0150E-06  0.0166
   2.5323E+01   2.5939E+01   1.8871E-06  0.0169
   2.5939E+01   2.6570E+01   1.6732E-06  0.0178
   2.6570E+01   2.7217E+01   1.4654E-06  0.0188
   2.7217E+01   2.7879E+01   1.3757E-06  0.0191
   2.7879E+01   2.8557E+01   1.1705E-06  0.0205
   2.8557E+01   2.9252E+01   1.0410E-06  0.0215
   2.9252E+01   2.9964E+01   9.6432E-07  0.0220
   2.9964E+01   3.0693E+01   8.3397E-07  0.0234
   3.0693E+01   3.1440E+01   7.0927E-07  0.0251
   3.1440E+01   3.2205E+01   6.4797E-07  0.0259
   3.2205E+01   3.2988E+01   5.3644E-07  0.0282
   3.2988E+01   3.3791E+01   4.7095E-07  0.0297
   3.3791E+01   3.4613E+01   3.9287E-07  0.0321
   3.4613E+01   3.5455E+01   3.3327E-07  0.0345
   3.5455E+01   3.6318E+01   2.8053E-07  0.0371
   3.6318E+01   3.7201E+01   2.3954E-07  0.0397
   3.7201E+01   3.8106E+01   1.8340E-07  0.0448
   3.8106E+01   3.9034E+01   1.5639E-07  0.0479
   3.9034E+01   3.9983E+01   1.1337E-07  0.0556
   3.9983E+01   4.0956E+01   9.4913E-08  0.0601
   4.0956E+01   4.1953E+01   7.3926E-08  0.0673
   4.1953E+01   4.2973E+01   4.8004E-08  0.0825
   4.2973E+01   4.4019E+01   2.9968E-08  0.1031
   4.4019E+01   4.5090E+01   1.4628E-08  0.1459
   4.5090E+01   4.6187E+01   6.3806E-09  0.2182
   4.6187E+01   4.7311E+01   2.9662E-09  0.3162
   4.7311E+01   4.8462E+01   0.0000E+00  0.0000
   4.8462E+01   4.9641E+01   0.0000E+00  0.0000
   4.9641E+01   5.0849E+01   0.0000E+00  0.0000
   5.0849E+01   5.2086E+01   0.0000E+00  0.0000
   5.2086E+01   5.3353E+01   0.0000E+00  0.0000
   5.3353E+01   5.4651E+01   0.0000E+00  0.0000
   5.4651E+01   5.5981E+01   0.0000E+00  0.0000
   5.5981E+01   5.7343E+01   0.0000E+00  0.0000
   5.7343E+01   5.8738E+01   0.0000E+00  0.0000
   5.8738E+01   6.0168E+01   0.0000E+00  0.0000
   6.0168E+01   6.1632E+01   0.0000E+00  0.0000
   6.1632E+01   6.3131E+01   0.0000E+00  0.0000
   6.3131E+01   6.4667E+01   0.0000E+00  0.0000
   6.4667E+01   6.6240E+01   0.0000E+00  0.0000
   6.6240E+01   6.7852E+01   0.0000E+00  0.0000
   6.7852E+01   6.9503E+01   0.0000E+00  0.0000
   6.9503E+01   7.1194E+01   0.0000E+00  0.0000
   7.1194E+01   7.2926E+01   0.0000E+00  0.0000
   7.2926E+01   7.4701E+01   0.0000E+00  0.0000
   7.4701E+01   7.6518E+01   0.0000E+00  0.0000
   7.6518E+01   7.8380E+01   0.0000E+00  0.0000
   7.8380E+01   8.0287E+01   0.0000E+00  0.0000
   8.0287E+01   8.2240E+01   0.0000E+00  0.0000
   8.2240E+01   8.4241E+01   0.0000E+00  0.0000
   8.4241E+01   8.6291E+01   0.0000E+00  0.0000
   8.6291E+01   8.8391E+01   0.0000E+00  0.0000
   8.8391E+01   9.0541E+01   0.0000E+00  0.0000
   9.0541E+01   9.2744E+01   0.0000E+00  0.0000
   9.2744E+01   9.5001E+01   0.0000E+00  0.0000
   9.5001E+01   9.7312E+01   0.0000E+00  0.0000
   9.7312E+01   9.9680E+01   0.0000E+00  0.0000
   9.9680E+01   1.0211E+02   0.0000E+00  0.0000
   1.0211E+02   1.0459E+02   0.0000E+00  0.0000
   1.0459E+02   1.0713E+02   0.0000E+00  0.0000
   1.0713E+02   1.0974E+02   0.0000E+00  0.0000
   1.0974E+02   1.1241E+02   0.0000E+00  0.0000
   1.1241E+02   1.1515E+02   0.0000E+00  0.0000
   1.1515E+02   1.1795E+02   0.0000E+00  0.0000
   1.1795E+02   1.2082E+02   0.0000E+00  0.0000
   1.2082E+02   1.2376E+02   0.0000E+00  0.0000
   1.2376E+02   1.2677E+02   0.0000E+00  0.0000
   1.2677E+02   1.2985E+02   0.0000E+00  0.0000
   1.2985E+02   1.3301E+02   0.0000E+00  0.0000
   1.3301E+02   1.3625E+02   0.0000E+00  0.0000
   1.3625E+02   1.3956E+02   0.0000E+00  0.0000
   1.3956E+02   1.4296E+02   0.0000E+00  0.0000
   1.4296E+02   1.4644E+02   0.0000E+00  0.0000
   1.4644E+02   1.5000E+02   0.0000E+00  0.0000

#   sum over                 2.2842E-06
'no. =    1   reg = 113 - 213'
msuc: {\huge [t-cross] in region mesh}
msdr: {\it plotted by \ANGEL \version}
msdl: {\it calculated by \PHITS  3.26}
wt: s(0.7)
\vspace{-3}
  region surface crossing
  area  &=&   1.0000E+00 [cm^2]
e:
 
# Information for Restart Calculation
# This calculation was newly started
# istdev =  2 # 1:Batch variance, 2:History variance
# resc2  = 3.00000000000000000E+09 # Total source weight or Total source weight / maxcas
# resc3  = 3.00000000000000000E+09 # Total history number or Total batch number
# maxcas =   500000000 # History / Batch, only used for istdev=1
# bitrseed = 0110110011111001100110101011100000010010001000001101100100111101 # bit data of rseed
