9 <--- number of remaining batches 

-------------------------------------------------------------------------------
bat[       1] ncas =      500000000.
 bitrseed = 0100001010011000001011101100011110011000110110100110010000000000
          cpu time =  17 h. 21 m. 37.93 s.

 date = 2022-06-16
 time = 09h 56m 19s

