[ T-Cross ]
    title = [t-cross] in region mesh
     mesh =  reg            # mesh type is region-wise
      reg =    1            # number of crossing regions
      non     r-from    r-to       area
      1       114       214        1.000000    
   e-type =    3            # e-mesh is log given by emin, emax and ne
     emin =  1.0000000E-02  # minimum value of e-mesh points
     emax =   150.0000      # maximum value of e-mesh points
#    edel =  2.4039514E-02  # mesh width of e-mesh points
       ne =    400          # number of e-mesh points
#    data = ( e(i), i = 1, ne + 1 )
#           1.00000E-02  1.02433E-02  1.04925E-02  1.07478E-02  1.10093E-02
#           1.12772E-02  1.15516E-02  1.18326E-02  1.21205E-02  1.24154E-02
#           1.27175E-02  1.30269E-02  1.33439E-02  1.36686E-02  1.40011E-02
#           1.43418E-02  1.46907E-02  1.50482E-02  1.54143E-02  1.57894E-02
#           1.61735E-02  1.65670E-02  1.69701E-02  1.73830E-02  1.78060E-02
#           1.82392E-02  1.86830E-02  1.91375E-02  1.96032E-02  2.00801E-02
#           2.05687E-02  2.10692E-02  2.15818E-02  2.21069E-02  2.26448E-02
#           2.31957E-02  2.37601E-02  2.43382E-02  2.49304E-02  2.55369E-02
#           2.61583E-02  2.67947E-02  2.74467E-02  2.81145E-02  2.87985E-02
#           2.94992E-02  3.02169E-02  3.09521E-02  3.17052E-02  3.24766E-02
#           3.32668E-02  3.40762E-02  3.49053E-02  3.57546E-02  3.66246E-02
#           3.75157E-02  3.84284E-02  3.93634E-02  4.03212E-02  4.13022E-02
#           4.23071E-02  4.33365E-02  4.43909E-02  4.54710E-02  4.65773E-02
#           4.77106E-02  4.88714E-02  5.00605E-02  5.12785E-02  5.25262E-02
#           5.38042E-02  5.51133E-02  5.64542E-02  5.78278E-02  5.92348E-02
#           6.06760E-02  6.21523E-02  6.36645E-02  6.52135E-02  6.68002E-02
#           6.84255E-02  7.00904E-02  7.17957E-02  7.35426E-02  7.53319E-02
#           7.71648E-02  7.90423E-02  8.09655E-02  8.29354E-02  8.49533E-02
#           8.70203E-02  8.91376E-02  9.13064E-02  9.35279E-02  9.58035E-02
#           9.81345E-02  1.00522E-01  1.02968E-01  1.05473E-01  1.08040E-01
#           1.10668E-01  1.13361E-01  1.16119E-01  1.18944E-01  1.21838E-01
#           1.24803E-01  1.27839E-01  1.30950E-01  1.34136E-01  1.37399E-01
#           1.40742E-01  1.44167E-01  1.47675E-01  1.51268E-01  1.54948E-01
#           1.58718E-01  1.62580E-01  1.66535E-01  1.70587E-01  1.74738E-01
#           1.78989E-01  1.83344E-01  1.87805E-01  1.92375E-01  1.97055E-01
#           2.01850E-01  2.06761E-01  2.11792E-01  2.16945E-01  2.22223E-01
#           2.27630E-01  2.33169E-01  2.38842E-01  2.44653E-01  2.50605E-01
#           2.56703E-01  2.62949E-01  2.69346E-01  2.75900E-01  2.82613E-01
#           2.89489E-01  2.96532E-01  3.03747E-01  3.11138E-01  3.18708E-01
#           3.26462E-01  3.34405E-01  3.42542E-01  3.50876E-01  3.59413E-01
#           3.68158E-01  3.77116E-01  3.86291E-01  3.95690E-01  4.05317E-01
#           4.15179E-01  4.25281E-01  4.35628E-01  4.46227E-01  4.57084E-01
#           4.68205E-01  4.79597E-01  4.91266E-01  5.03219E-01  5.15463E-01
#           5.28005E-01  5.40851E-01  5.54011E-01  5.67490E-01  5.81298E-01
#           5.95441E-01  6.09929E-01  6.24769E-01  6.39970E-01  6.55541E-01
#           6.71491E-01  6.87828E-01  7.04564E-01  7.21706E-01  7.39266E-01
#           7.57253E-01  7.75678E-01  7.94551E-01  8.13883E-01  8.33685E-01
#           8.53969E-01  8.74747E-01  8.96030E-01  9.17831E-01  9.40163E-01
#           9.63038E-01  9.86469E-01  1.01047E+00  1.03506E+00  1.06024E+00
#           1.08604E+00  1.11246E+00  1.13953E+00  1.16725E+00  1.19565E+00
#           1.22474E+00  1.25454E+00  1.28507E+00  1.31633E+00  1.34836E+00
#           1.38117E+00  1.41477E+00  1.44920E+00  1.48446E+00  1.52057E+00
#           1.55757E+00  1.59547E+00  1.63429E+00  1.67405E+00  1.71478E+00
#           1.75650E+00  1.79924E+00  1.84302E+00  1.88786E+00  1.93379E+00
#           1.98084E+00  2.02904E+00  2.07841E+00  2.12898E+00  2.18078E+00
#           2.23384E+00  2.28819E+00  2.34386E+00  2.40089E+00  2.45930E+00
#           2.51914E+00  2.58043E+00  2.64322E+00  2.70753E+00  2.77341E+00
#           2.84088E+00  2.91001E+00  2.98081E+00  3.05333E+00  3.12762E+00
#           3.20372E+00  3.28167E+00  3.36152E+00  3.44330E+00  3.52708E+00
#           3.61290E+00  3.70080E+00  3.79085E+00  3.88308E+00  3.97756E+00
#           4.07434E+00  4.17347E+00  4.27501E+00  4.37903E+00  4.48557E+00
#           4.59471E+00  4.70650E+00  4.82102E+00  4.93832E+00  5.05847E+00
#           5.18155E+00  5.30762E+00  5.43676E+00  5.56904E+00  5.70453E+00
#           5.84333E+00  5.98550E+00  6.13114E+00  6.28031E+00  6.43312E+00
#           6.58964E+00  6.74997E+00  6.91420E+00  7.08243E+00  7.25475E+00
#           7.43126E+00  7.61207E+00  7.79728E+00  7.98700E+00  8.18133E+00
#           8.38038E+00  8.58428E+00  8.79315E+00  9.00709E+00  9.22624E+00
#           9.45072E+00  9.68067E+00  9.91620E+00  1.01575E+01  1.04046E+01
#           1.06578E+01  1.09171E+01  1.11827E+01  1.14548E+01  1.17335E+01
#           1.20190E+01  1.23114E+01  1.26109E+01  1.29178E+01  1.32321E+01
#           1.35540E+01  1.38838E+01  1.42216E+01  1.45676E+01  1.49221E+01
#           1.52851E+01  1.56570E+01  1.60380E+01  1.64282E+01  1.68279E+01
#           1.72374E+01  1.76568E+01  1.80864E+01  1.85264E+01  1.89772E+01
#           1.94389E+01  1.99119E+01  2.03963E+01  2.08926E+01  2.14009E+01
#           2.19216E+01  2.24550E+01  2.30014E+01  2.35610E+01  2.41343E+01
#           2.47215E+01  2.53230E+01  2.59391E+01  2.65702E+01  2.72167E+01
#           2.78789E+01  2.85572E+01  2.92520E+01  2.99637E+01  3.06928E+01
#           3.14396E+01  3.22045E+01  3.29881E+01  3.37907E+01  3.46128E+01
#           3.54550E+01  3.63177E+01  3.72013E+01  3.81064E+01  3.90336E+01
#           3.99833E+01  4.09561E+01  4.19526E+01  4.29734E+01  4.40189E+01
#           4.50900E+01  4.61870E+01  4.73108E+01  4.84619E+01  4.96410E+01
#           5.08488E+01  5.20860E+01  5.33533E+01  5.46514E+01  5.59812E+01
#           5.73432E+01  5.87384E+01  6.01676E+01  6.16315E+01  6.31311E+01
#           6.46671E+01  6.62405E+01  6.78522E+01  6.95031E+01  7.11941E+01
#           7.29263E+01  7.47007E+01  7.65182E+01  7.83800E+01  8.02870E+01
#           8.22405E+01  8.42414E+01  8.62911E+01  8.83906E+01  9.05412E+01
#           9.27442E+01  9.50007E+01  9.73122E+01  9.96799E+01  1.02105E+02
#           1.04589E+02  1.07134E+02  1.09741E+02  1.12411E+02  1.15146E+02
#           1.17948E+02  1.20817E+02  1.23757E+02  1.26768E+02  1.29852E+02
#           1.33012E+02  1.36248E+02  1.39563E+02  1.42959E+02  1.46437E+02
#           1.50000E+02
     unit =    2            # unit is [1/cm^2/(MeV/n)/source]
     axis =  eng            # axis of output
     file = detector-15.out  # file name of output for the above axis
   output = f-curr          # surface crossing forward current spectrum
     part =  neutron  
# kf/name :  2112     
#    used :        main (  %)        temp (  %)       total (  %)
#  memory :         414 (  0)           0 (  0)         414 (  0)

#------------------------------------------------------------------------------
#newpage:
#   no. =    1   reg = 114 - 214

x: Energy [MeV/n]
y:  F-Curr [1/cm^2/(MeV/n)/source]         
p: xlog ylog afac(0.8) form(0.9)
h: n            x            y(neutron ),hh0l   n 
#  e-lower      e-upper      neutron     r.err 
   1.0000E-02   1.0243E-02   1.6769E-02  0.0221
   1.0243E-02   1.0493E-02   1.5945E-02  0.0224
   1.0493E-02   1.0748E-02   1.5919E-02  0.0222
   1.0748E-02   1.1009E-02   1.5870E-02  0.0220
   1.1009E-02   1.1277E-02   1.5717E-02  0.0218
   1.1277E-02   1.1552E-02   1.5023E-02  0.0220
   1.1552E-02   1.1833E-02   1.4879E-02  0.0219
   1.1833E-02   1.2121E-02   1.4686E-02  0.0217
   1.2121E-02   1.2415E-02   1.4798E-02  0.0214
   1.2415E-02   1.2718E-02   1.4116E-02  0.0217
   1.2718E-02   1.3027E-02   1.3738E-02  0.0217
   1.3027E-02   1.3344E-02   1.3339E-02  0.0217
   1.3344E-02   1.3669E-02   1.3676E-02  0.0212
   1.3669E-02   1.4001E-02   1.3543E-02  0.0211
   1.4001E-02   1.4342E-02   1.3081E-02  0.0212
   1.4342E-02   1.4691E-02   1.2879E-02  0.0211
   1.4691E-02   1.5048E-02   1.1946E-02  0.0216
   1.5048E-02   1.5414E-02   1.2444E-02  0.0210
   1.5414E-02   1.5789E-02   1.2132E-02  0.0210
   1.5789E-02   1.6174E-02   1.1547E-02  0.0212
   1.6174E-02   1.6567E-02   1.1176E-02  0.0213
   1.6567E-02   1.6970E-02   1.1486E-02  0.0208
   1.6970E-02   1.7383E-02   1.1124E-02  0.0209
   1.7383E-02   1.7806E-02   1.0994E-02  0.0207
   1.7806E-02   1.8239E-02   1.0959E-02  0.0205
   1.8239E-02   1.8683E-02   1.0906E-02  0.0203
   1.8683E-02   1.9138E-02   1.0295E-02  0.0207
   1.9138E-02   1.9603E-02   9.9542E-03  0.0208
   1.9603E-02   2.0080E-02   1.0152E-02  0.0203
   2.0080E-02   2.0569E-02   9.7878E-03  0.0205
   2.0569E-02   2.1069E-02   9.8591E-03  0.0201
   2.1069E-02   2.1582E-02   9.5508E-03  0.0202
   2.1582E-02   2.2107E-02   9.4801E-03  0.0200
   2.2107E-02   2.2645E-02   9.3516E-03  0.0199
   2.2645E-02   2.3196E-02   8.9806E-03  0.0201
   2.3196E-02   2.3760E-02   8.8878E-03  0.0200
   2.3760E-02   2.4338E-02   8.3100E-03  0.0204
   2.4338E-02   2.4930E-02   8.5854E-03  0.0198
   2.4930E-02   2.5537E-02   8.6453E-03  0.0195
   2.5537E-02   2.6158E-02   8.3643E-03  0.0196
   2.6158E-02   2.6795E-02   8.0383E-03  0.0198
   2.6795E-02   2.7447E-02   8.0069E-03  0.0196
   2.7447E-02   2.8114E-02   7.7928E-03  0.0196
   2.8114E-02   2.8799E-02   7.7802E-03  0.0194
   2.8799E-02   2.9499E-02   7.6582E-03  0.0193
   2.9499E-02   3.0217E-02   7.4526E-03  0.0193
   3.0217E-02   3.0952E-02   7.3177E-03  0.0193
   3.0952E-02   3.1705E-02   7.0563E-03  0.0194
   3.1705E-02   3.2477E-02   6.8005E-03  0.0195
   3.2477E-02   3.3267E-02   7.0541E-03  0.0189
   3.3267E-02   3.4076E-02   7.0274E-03  0.0188
   3.4076E-02   3.4905E-02   6.8484E-03  0.0188
   3.4905E-02   3.5755E-02   6.7658E-03  0.0187
   3.5755E-02   3.6625E-02   6.6074E-03  0.0187
   3.6625E-02   3.7516E-02   6.4841E-03  0.0186
   3.7516E-02   3.8428E-02   6.4429E-03  0.0184
   3.8428E-02   3.9363E-02   6.3102E-03  0.0184
   3.9363E-02   4.0321E-02   6.1039E-03  0.0185
   4.0321E-02   4.1302E-02   6.0242E-03  0.0184
   4.1302E-02   4.2307E-02   6.0085E-03  0.0182
   4.2307E-02   4.3337E-02   5.9959E-03  0.0180
   4.3337E-02   4.4391E-02   5.6145E-03  0.0184
   4.4391E-02   4.5471E-02   5.5598E-03  0.0182
   4.5471E-02   4.6577E-02   5.6330E-03  0.0179
   4.6577E-02   4.7711E-02   5.5115E-03  0.0179
   4.7711E-02   4.8871E-02   5.4357E-03  0.0178
   4.8871E-02   5.0061E-02   5.2747E-03  0.0179
   5.0061E-02   5.1279E-02   5.1239E-03  0.0179
   5.1279E-02   5.2526E-02   5.0014E-03  0.0179
   5.2526E-02   5.3804E-02   4.9358E-03  0.0178
   5.3804E-02   5.5113E-02   4.9240E-03  0.0176
   5.5113E-02   5.6454E-02   4.8011E-03  0.0176
   5.6454E-02   5.7828E-02   4.7351E-03  0.0175
   5.7828E-02   5.9235E-02   4.5878E-03  0.0176
   5.9235E-02   6.0676E-02   4.4642E-03  0.0176
   6.0676E-02   6.2152E-02   4.4652E-03  0.0174
   6.2152E-02   6.3665E-02   4.4967E-03  0.0171
   6.3665E-02   6.5214E-02   4.2969E-03  0.0173
   6.5214E-02   6.6800E-02   4.2516E-03  0.0172
   6.6800E-02   6.8426E-02   4.1777E-03  0.0172
   6.8426E-02   7.0090E-02   4.1734E-03  0.0170
   7.0090E-02   7.1796E-02   3.9698E-03  0.0172
   7.1796E-02   7.3543E-02   3.9408E-03  0.0170
   7.3543E-02   7.5332E-02   3.8707E-03  0.0170
   7.5332E-02   7.7165E-02   3.7776E-03  0.0170
   7.7165E-02   7.9042E-02   3.8179E-03  0.0167
   7.9042E-02   8.0965E-02   3.8364E-03  0.0165
   8.0965E-02   8.2935E-02   3.6691E-03  0.0166
   8.2935E-02   8.4953E-02   3.5988E-03  0.0166
   8.4953E-02   8.7020E-02   3.5690E-03  0.0165
   8.7020E-02   8.9138E-02   3.5253E-03  0.0164
   8.9138E-02   9.1306E-02   3.4526E-03  0.0163
   9.1306E-02   9.3528E-02   3.4399E-03  0.0162
   9.3528E-02   9.5804E-02   3.4268E-03  0.0160
   9.5804E-02   9.8134E-02   3.2673E-03  0.0162
   9.8134E-02   1.0052E-01   3.2475E-03  0.0161
   1.0052E-01   1.0297E-01   3.1663E-03  0.0161
   1.0297E-01   1.0547E-01   3.1453E-03  0.0159
   1.0547E-01   1.0804E-01   3.0979E-03  0.0159
   1.0804E-01   1.1067E-01   3.0072E-03  0.0159
   1.1067E-01   1.1336E-01   3.0516E-03  0.0156
   1.1336E-01   1.1612E-01   2.9618E-03  0.0156
   1.1612E-01   1.1894E-01   2.8203E-03  0.0158
   1.1894E-01   1.2184E-01   2.8182E-03  0.0157
   1.2184E-01   1.2480E-01   2.8113E-03  0.0155
   1.2480E-01   1.2784E-01   2.6945E-03  0.0156
   1.2784E-01   1.3095E-01   2.6598E-03  0.0155
   1.3095E-01   1.3414E-01   2.5906E-03  0.0156
   1.3414E-01   1.3740E-01   2.5499E-03  0.0155
   1.3740E-01   1.4074E-01   2.5809E-03  0.0152
   1.4074E-01   1.4417E-01   2.4971E-03  0.0153
   1.4417E-01   1.4767E-01   2.5179E-03  0.0150
   1.4767E-01   1.5127E-01   2.4714E-03  0.0150
   1.5127E-01   1.5495E-01   2.4377E-03  0.0149
   1.5495E-01   1.5872E-01   2.3313E-03  0.0151
   1.5872E-01   1.6258E-01   2.3404E-03  0.0149
   1.6258E-01   1.6654E-01   2.2739E-03  0.0149
   1.6654E-01   1.7059E-01   2.2217E-03  0.0149
   1.7059E-01   1.7474E-01   2.2525E-03  0.0146
   1.7474E-01   1.7899E-01   2.1592E-03  0.0148
   1.7899E-01   1.8334E-01   2.1341E-03  0.0147
   1.8334E-01   1.8781E-01   2.1475E-03  0.0144
   1.8781E-01   1.9237E-01   2.1000E-03  0.0144
   1.9237E-01   1.9706E-01   2.0181E-03  0.0146
   1.9706E-01   2.0185E-01   1.9977E-03  0.0145
   2.0185E-01   2.0676E-01   1.9612E-03  0.0144
   2.0676E-01   2.1179E-01   1.9659E-03  0.0142
   2.1179E-01   2.1694E-01   1.8956E-03  0.0143
   2.1694E-01   2.2222E-01   1.8661E-03  0.0142
   2.2222E-01   2.2763E-01   1.8931E-03  0.0140
   2.2763E-01   2.3317E-01   1.8292E-03  0.0140
   2.3317E-01   2.3884E-01   1.8261E-03  0.0139
   2.3884E-01   2.4465E-01   1.7239E-03  0.0141
   2.4465E-01   2.5061E-01   1.7270E-03  0.0140
   2.5061E-01   2.5670E-01   1.7256E-03  0.0138
   2.5670E-01   2.6295E-01   1.6744E-03  0.0138
   2.6295E-01   2.6935E-01   1.6149E-03  0.0139
   2.6935E-01   2.7590E-01   1.5891E-03  0.0139
   2.7590E-01   2.8261E-01   1.5703E-03  0.0138
   2.8261E-01   2.8949E-01   1.5378E-03  0.0138
   2.8949E-01   2.9653E-01   1.4953E-03  0.0138
   2.9653E-01   3.0375E-01   1.5296E-03  0.0135
   3.0375E-01   3.1114E-01   1.4992E-03  0.0134
   3.1114E-01   3.1871E-01   1.4644E-03  0.0134
   3.1871E-01   3.2646E-01   1.3912E-03  0.0136
   3.2646E-01   3.3441E-01   1.3987E-03  0.0134
   3.3441E-01   3.4254E-01   1.3474E-03  0.0135
   3.4254E-01   3.5088E-01   1.3303E-03  0.0134
   3.5088E-01   3.5941E-01   1.3138E-03  0.0134
   3.5941E-01   3.6816E-01   1.2792E-03  0.0134
   3.6816E-01   3.7712E-01   1.2655E-03  0.0133
   3.7712E-01   3.8629E-01   1.2455E-03  0.0132
   3.8629E-01   3.9569E-01   1.2374E-03  0.0131
   3.9569E-01   4.0532E-01   1.1812E-03  0.0133
   4.0532E-01   4.1518E-01   1.2065E-03  0.0130
   4.1518E-01   4.2528E-01   1.1372E-03  0.0132
   4.2528E-01   4.3563E-01   1.1365E-03  0.0130
   4.3563E-01   4.4623E-01   1.0893E-03  0.0132
   4.4623E-01   4.5708E-01   1.0951E-03  0.0130
   4.5708E-01   4.6821E-01   1.0821E-03  0.0129
   4.6821E-01   4.7960E-01   1.0508E-03  0.0129
   4.7960E-01   4.9127E-01   9.9786E-04  0.0131
   4.9127E-01   5.0322E-01   9.8570E-04  0.0130
   5.0322E-01   5.1546E-01   9.7813E-04  0.0129
   5.1546E-01   5.2800E-01   9.3624E-04  0.0131
   5.2800E-01   5.4085E-01   9.1945E-04  0.0130
   5.4085E-01   5.5401E-01   8.9526E-04  0.0130
   5.5401E-01   5.6749E-01   8.6383E-04  0.0131
   5.6749E-01   5.8130E-01   8.8619E-04  0.0128
   5.8130E-01   5.9544E-01   8.4138E-04  0.0130
   5.9544E-01   6.0993E-01   8.3175E-04  0.0129
   6.0993E-01   6.2477E-01   8.0781E-04  0.0129
   6.2477E-01   6.3997E-01   7.7679E-04  0.0130
   6.3997E-01   6.5554E-01   7.6476E-04  0.0130
   6.5554E-01   6.7149E-01   7.3944E-04  0.0130
   6.7149E-01   6.8783E-01   7.2004E-04  0.0130
   6.8783E-01   7.0456E-01   7.0187E-04  0.0131
   7.0456E-01   7.2171E-01   6.6921E-04  0.0132
   7.2171E-01   7.3927E-01   6.5702E-04  0.0132
   7.3927E-01   7.5725E-01   6.5548E-04  0.0130
   7.5725E-01   7.7568E-01   6.3567E-04  0.0131
   7.7568E-01   7.9455E-01   6.0712E-04  0.0132
   7.9455E-01   8.1388E-01   5.7056E-04  0.0135
   8.1388E-01   8.3368E-01   5.6433E-04  0.0134
   8.3368E-01   8.5397E-01   5.3480E-04  0.0136
   8.5397E-01   8.7475E-01   5.1507E-04  0.0137
   8.7475E-01   8.9603E-01   4.9973E-04  0.0137
   8.9603E-01   9.1783E-01   4.7750E-04  0.0139
   9.1783E-01   9.4016E-01   4.6159E-04  0.0139
   9.4016E-01   9.6304E-01   4.3917E-04  0.0141
   9.6304E-01   9.8647E-01   4.1261E-04  0.0144
   9.8647E-01   1.0105E+00   4.1422E-04  0.0142
   1.0105E+00   1.0351E+00   4.1089E-04  0.0141
   1.0351E+00   1.0602E+00   4.0621E-04  0.0140
   1.0602E+00   1.0860E+00   4.1812E-04  0.0136
   1.0860E+00   1.1125E+00   4.1296E-04  0.0135
   1.1125E+00   1.1395E+00   4.3152E-04  0.0131
   1.1395E+00   1.1673E+00   4.3584E-04  0.0129
   1.1673E+00   1.1957E+00   4.5472E-04  0.0124
   1.1957E+00   1.2247E+00   4.6138E-04  0.0122
   1.2247E+00   1.2545E+00   4.6411E-04  0.0120
   1.2545E+00   1.2851E+00   4.6576E-04  0.0119
   1.2851E+00   1.3163E+00   4.6631E-04  0.0117
   1.3163E+00   1.3484E+00   4.8596E-04  0.0113
   1.3484E+00   1.3812E+00   4.8258E-04  0.0112
   1.3812E+00   1.4148E+00   5.0207E-04  0.0109
   1.4148E+00   1.4492E+00   4.8916E-04  0.0109
   1.4492E+00   1.4845E+00   4.8877E-04  0.0108
   1.4845E+00   1.5206E+00   4.8009E-04  0.0107
   1.5206E+00   1.5576E+00   4.8037E-04  0.0106
   1.5576E+00   1.5955E+00   4.8817E-04  0.0104
   1.5955E+00   1.6343E+00   4.9465E-04  0.0102
   1.6343E+00   1.6741E+00   5.0162E-04  0.0100
   1.6741E+00   1.7148E+00   5.0482E-04  0.0099
   1.7148E+00   1.7565E+00   4.9664E-04  0.0098
   1.7565E+00   1.7992E+00   5.0097E-04  0.0097
   1.7992E+00   1.8430E+00   4.9558E-04  0.0096
   1.8430E+00   1.8879E+00   4.8488E-04  0.0096
   1.8879E+00   1.9338E+00   4.9494E-04  0.0094
   1.9338E+00   1.9808E+00   4.8758E-04  0.0093
   1.9808E+00   2.0290E+00   4.8100E-04  0.0093
   2.0290E+00   2.0784E+00   4.8023E-04  0.0092
   2.0784E+00   2.1290E+00   4.5356E-04  0.0093
   2.1290E+00   2.1808E+00   4.5440E-04  0.0092
   2.1808E+00   2.2338E+00   4.4587E-04  0.0092
   2.2338E+00   2.2882E+00   4.3753E-04  0.0092
   2.2882E+00   2.3439E+00   4.3400E-04  0.0091
   2.3439E+00   2.4009E+00   4.3522E-04  0.0090
   2.4009E+00   2.4593E+00   4.2141E-04  0.0090
   2.4593E+00   2.5191E+00   4.0677E-04  0.0091
   2.5191E+00   2.5804E+00   4.0435E-04  0.0090
   2.5804E+00   2.6432E+00   3.8825E-04  0.0091
   2.6432E+00   2.7075E+00   3.7567E-04  0.0091
   2.7075E+00   2.7734E+00   3.6842E-04  0.0091
   2.7734E+00   2.8409E+00   3.5810E-04  0.0091
   2.8409E+00   2.9100E+00   3.5462E-04  0.0090
   2.9100E+00   2.9808E+00   3.5086E-04  0.0090
   2.9808E+00   3.0533E+00   3.3453E-04  0.0091
   3.0533E+00   3.1276E+00   3.2524E-04  0.0091
   3.1276E+00   3.2037E+00   3.1006E-04  0.0092
   3.2037E+00   3.2817E+00   2.9732E-04  0.0093
   3.2817E+00   3.3615E+00   2.8345E-04  0.0094
   3.3615E+00   3.4433E+00   2.7659E-04  0.0094
   3.4433E+00   3.5271E+00   2.6496E-04  0.0095
   3.5271E+00   3.6129E+00   2.6256E-04  0.0094
   3.6129E+00   3.7008E+00   2.4888E-04  0.0096
   3.7008E+00   3.7908E+00   2.3753E-04  0.0097
   3.7908E+00   3.8831E+00   2.2521E-04  0.0098
   3.8831E+00   3.9776E+00   2.2216E-04  0.0098
   3.9776E+00   4.0743E+00   2.1491E-04  0.0098
   4.0743E+00   4.1735E+00   2.0256E-04  0.0100
   4.1735E+00   4.2750E+00   1.9162E-04  0.0101
   4.2750E+00   4.3790E+00   1.8420E-04  0.0102
   4.3790E+00   4.4856E+00   1.7414E-04  0.0104
   4.4856E+00   4.5947E+00   1.6616E-04  0.0105
   4.5947E+00   4.7065E+00   1.6046E-04  0.0106
   4.7065E+00   4.8210E+00   1.5457E-04  0.0106
   4.8210E+00   4.9383E+00   1.4600E-04  0.0108
   4.9383E+00   5.0585E+00   1.4145E-04  0.0109
   5.0585E+00   5.1815E+00   1.3416E-04  0.0110
   5.1815E+00   5.3076E+00   1.2582E-04  0.0112
   5.3076E+00   5.4368E+00   1.2145E-04  0.0113
   5.4368E+00   5.5690E+00   1.1654E-04  0.0114
   5.5690E+00   5.7045E+00   1.0999E-04  0.0116
   5.7045E+00   5.8433E+00   1.0355E-04  0.0118
   5.8433E+00   5.9855E+00   1.0209E-04  0.0117
   5.9855E+00   6.1311E+00   9.8893E-05  0.0118
   6.1311E+00   6.2803E+00   9.4359E-05  0.0119
   6.2803E+00   6.4331E+00   8.8243E-05  0.0122
   6.4331E+00   6.5896E+00   8.3247E-05  0.0124
   6.5896E+00   6.7500E+00   8.1905E-05  0.0123
   6.7500E+00   6.9142E+00   7.7993E-05  0.0125
   6.9142E+00   7.0824E+00   7.5760E-05  0.0125
   7.0824E+00   7.2548E+00   7.3398E-05  0.0126
   7.2548E+00   7.4313E+00   6.9689E-05  0.0128
   7.4313E+00   7.6121E+00   6.7618E-05  0.0128
   7.6121E+00   7.7973E+00   6.5030E-05  0.0129
   7.7973E+00   7.9870E+00   6.2457E-05  0.0130
   7.9870E+00   8.1813E+00   6.2214E-05  0.0129
   8.1813E+00   8.3804E+00   6.0173E-05  0.0129
   8.3804E+00   8.5843E+00   5.9078E-05  0.0129
   8.5843E+00   8.7931E+00   5.7851E-05  0.0129
   8.7931E+00   9.0071E+00   5.6790E-05  0.0128
   9.0071E+00   9.2262E+00   5.6318E-05  0.0127
   9.2262E+00   9.4507E+00   5.4134E-05  0.0128
   9.4507E+00   9.6807E+00   5.2700E-05  0.0128
   9.6807E+00   9.9162E+00   5.1928E-05  0.0128
   9.9162E+00   1.0157E+01   5.1469E-05  0.0127
   1.0157E+01   1.0405E+01   5.0700E-05  0.0126
   1.0405E+01   1.0658E+01   4.9693E-05  0.0126
   1.0658E+01   1.0917E+01   4.9836E-05  0.0124
   1.0917E+01   1.1183E+01   5.0531E-05  0.0122
   1.1183E+01   1.1455E+01   4.8279E-05  0.0123
   1.1455E+01   1.1733E+01   4.9102E-05  0.0121
   1.1733E+01   1.2019E+01   4.8346E-05  0.0120
   1.2019E+01   1.2311E+01   4.8340E-05  0.0119
   1.2311E+01   1.2611E+01   4.7599E-05  0.0118
   1.2611E+01   1.2918E+01   4.7257E-05  0.0117
   1.2918E+01   1.3232E+01   4.7381E-05  0.0116
   1.3232E+01   1.3554E+01   4.6883E-05  0.0115
   1.3554E+01   1.3884E+01   4.6040E-05  0.0115
   1.3884E+01   1.4222E+01   4.6127E-05  0.0113
   1.4222E+01   1.4568E+01   4.5945E-05  0.0112
   1.4568E+01   1.4922E+01   4.5528E-05  0.0111
   1.4922E+01   1.5285E+01   4.3601E-05  0.0112
   1.5285E+01   1.5657E+01   4.3963E-05  0.0111
   1.5657E+01   1.6038E+01   4.3940E-05  0.0109
   1.6038E+01   1.6428E+01   4.2625E-05  0.0110
   1.6428E+01   1.6828E+01   4.2130E-05  0.0109
   1.6828E+01   1.7237E+01   4.2063E-05  0.0108
   1.7237E+01   1.7657E+01   4.2234E-05  0.0106
   1.7657E+01   1.8086E+01   4.0163E-05  0.0108
   1.8086E+01   1.8526E+01   3.9197E-05  0.0108
   1.8526E+01   1.8977E+01   3.8748E-05  0.0107
   1.8977E+01   1.9439E+01   3.7347E-05  0.0108
   1.9439E+01   1.9912E+01   3.6760E-05  0.0107
   1.9912E+01   2.0396E+01   3.0334E-05  0.0117
   2.0396E+01   2.0893E+01   3.0605E-05  0.0115
   2.0893E+01   2.1401E+01   2.8788E-05  0.0117
   2.1401E+01   2.1922E+01   2.7505E-05  0.0118
   2.1922E+01   2.2455E+01   2.6829E-05  0.0118
   2.2455E+01   2.3001E+01   2.5343E-05  0.0120
   2.3001E+01   2.3561E+01   2.3933E-05  0.0122
   2.3561E+01   2.4134E+01   2.3738E-05  0.0121
   2.4134E+01   2.4721E+01   2.2227E-05  0.0124
   2.4721E+01   2.5323E+01   2.1320E-05  0.0125
   2.5323E+01   2.5939E+01   2.0269E-05  0.0127
   2.5939E+01   2.6570E+01   1.8738E-05  0.0130
   2.6570E+01   2.7217E+01   1.7554E-05  0.0133
   2.7217E+01   2.7879E+01   1.6563E-05  0.0135
   2.7879E+01   2.8557E+01   1.5645E-05  0.0137
   2.8557E+01   2.9252E+01   1.4571E-05  0.0141
   2.9252E+01   2.9964E+01   1.3449E-05  0.0145
   2.9964E+01   3.0693E+01   1.2754E-05  0.0147
   3.0693E+01   3.1440E+01   1.2070E-05  0.0149
   3.1440E+01   3.2205E+01   1.1031E-05  0.0154
   3.2205E+01   3.2988E+01   1.0363E-05  0.0157
   3.2988E+01   3.3791E+01   9.5586E-06  0.0161
   3.3791E+01   3.4613E+01   8.4753E-06  0.0169
   3.4613E+01   3.5455E+01   8.3666E-06  0.0168
   3.5455E+01   3.6318E+01   7.4468E-06  0.0176
   3.6318E+01   3.7201E+01   6.6498E-06  0.0185
   3.7201E+01   3.8106E+01   6.1781E-06  0.0189
   3.8106E+01   3.9034E+01   5.7099E-06  0.0194
   3.9034E+01   3.9983E+01   5.1384E-06  0.0202
   3.9983E+01   4.0956E+01   4.5579E-06  0.0212
   4.0956E+01   4.1953E+01   4.0823E-06  0.0222
   4.1953E+01   4.2973E+01   3.4642E-06  0.0238
   4.2973E+01   4.4019E+01   3.2288E-06  0.0243
   4.4019E+01   4.5090E+01   2.9691E-06  0.0251
   4.5090E+01   4.6187E+01   2.7145E-06  0.0259
   4.6187E+01   4.7311E+01   2.2887E-06  0.0279
   4.7311E+01   4.8462E+01   1.9616E-06  0.0298
   4.8462E+01   4.9641E+01   1.7250E-06  0.0314
   4.9641E+01   5.0849E+01   1.5052E-06  0.0332
   5.0849E+01   5.2086E+01   1.3094E-06  0.0351
   5.2086E+01   5.3353E+01   1.2531E-06  0.0355
   5.3353E+01   5.4651E+01   9.6292E-07  0.0400
   5.4651E+01   5.5981E+01   8.5432E-07  0.0420
   5.5981E+01   5.7343E+01   7.5180E-07  0.0442
   5.7343E+01   5.8738E+01   5.7769E-07  0.0498
   5.8738E+01   6.0168E+01   4.8140E-07  0.0539
   6.0168E+01   6.1632E+01   3.5931E-07  0.0617
   6.1632E+01   6.3131E+01   3.4144E-07  0.0625
   6.3131E+01   6.4667E+01   2.9036E-07  0.0670
   6.4667E+01   6.6240E+01   2.3643E-07  0.0733
   6.6240E+01   6.7852E+01   1.8614E-07  0.0816
   6.7852E+01   6.9503E+01   1.5022E-07  0.0898
   6.9503E+01   7.1194E+01   8.7519E-08  0.1162
   7.1194E+01   7.2926E+01   8.0822E-08  0.1195
   7.2926E+01   7.4701E+01   6.9885E-08  0.1270
   7.4701E+01   7.6518E+01   4.6217E-08  0.1543
   7.6518E+01   7.8380E+01   3.8673E-08  0.1667
   7.8380E+01   8.0287E+01   2.8316E-08  0.1925
   8.0287E+01   8.2240E+01   2.0477E-08  0.2236
   8.2240E+01   8.4241E+01   9.9951E-09  0.3162
   8.4241E+01   8.6291E+01   1.1709E-08  0.2887
   8.6291E+01   8.8391E+01   7.6208E-09  0.3536
   8.8391E+01   9.0541E+01   2.7899E-09  0.5774
   9.0541E+01   9.2744E+01   0.0000E+00  0.0000
   9.2744E+01   9.5001E+01   8.8631E-10  1.0000
   9.5001E+01   9.7312E+01   0.0000E+00  0.0000
   9.7312E+01   9.9680E+01   0.0000E+00  0.0000
   9.9680E+01   1.0211E+02   0.0000E+00  0.0000
   1.0211E+02   1.0459E+02   0.0000E+00  0.0000
   1.0459E+02   1.0713E+02   0.0000E+00  0.0000
   1.0713E+02   1.0974E+02   0.0000E+00  0.0000
   1.0974E+02   1.1241E+02   0.0000E+00  0.0000
   1.1241E+02   1.1515E+02   0.0000E+00  0.0000
   1.1515E+02   1.1795E+02   0.0000E+00  0.0000
   1.1795E+02   1.2082E+02   0.0000E+00  0.0000
   1.2082E+02   1.2376E+02   0.0000E+00  0.0000
   1.2376E+02   1.2677E+02   0.0000E+00  0.0000
   1.2677E+02   1.2985E+02   0.0000E+00  0.0000
   1.2985E+02   1.3301E+02   0.0000E+00  0.0000
   1.3301E+02   1.3625E+02   0.0000E+00  0.0000
   1.3625E+02   1.3956E+02   0.0000E+00  0.0000
   1.3956E+02   1.4296E+02   0.0000E+00  0.0000
   1.4296E+02   1.4644E+02   0.0000E+00  0.0000
   1.4644E+02   1.5000E+02   0.0000E+00  0.0000

#   sum over                 2.6796E-05
'no. =    1   reg = 114 - 214'
msuc: {\huge [t-cross] in region mesh}
msdr: {\it plotted by \ANGEL \version}
msdl: {\it calculated by \PHITS  3.26}
wt: s(0.7)
\vspace{-3}
  region surface crossing
  area  &=&   1.0000E+00 [cm^2]
e:
 
# Information for Restart Calculation
# This calculation was newly started
# istdev =  2 # 1:Batch variance, 2:History variance
# resc2  = 5.00000000000000000E+08 # Total source weight or Total source weight / maxcas
# resc3  = 5.00000000000000000E+08 # Total history number or Total batch number
# maxcas =   500000000 # History / Batch, only used for istdev=1
# bitrseed = 1101101111010011011000101101110001100110110010110001010100010001 # bit data of rseed
