[ T-Cross ]
    title = [t-cross] in region mesh
     mesh =  reg            # mesh type is region-wise
      reg =    1            # number of crossing regions
      non     r-from    r-to       area
      1       100       200        1.000000    
   e-type =    3            # e-mesh is log given by emin, emax and ne
     emin =  1.0000000E-02  # minimum value of e-mesh points
     emax =   150.0000      # maximum value of e-mesh points
#    edel =  2.4039514E-02  # mesh width of e-mesh points
       ne =    400          # number of e-mesh points
#    data = ( e(i), i = 1, ne + 1 )
#           1.00000E-02  1.02433E-02  1.04925E-02  1.07478E-02  1.10093E-02
#           1.12772E-02  1.15516E-02  1.18326E-02  1.21205E-02  1.24154E-02
#           1.27175E-02  1.30269E-02  1.33439E-02  1.36686E-02  1.40011E-02
#           1.43418E-02  1.46907E-02  1.50482E-02  1.54143E-02  1.57894E-02
#           1.61735E-02  1.65670E-02  1.69701E-02  1.73830E-02  1.78060E-02
#           1.82392E-02  1.86830E-02  1.91375E-02  1.96032E-02  2.00801E-02
#           2.05687E-02  2.10692E-02  2.15818E-02  2.21069E-02  2.26448E-02
#           2.31957E-02  2.37601E-02  2.43382E-02  2.49304E-02  2.55369E-02
#           2.61583E-02  2.67947E-02  2.74467E-02  2.81145E-02  2.87985E-02
#           2.94992E-02  3.02169E-02  3.09521E-02  3.17052E-02  3.24766E-02
#           3.32668E-02  3.40762E-02  3.49053E-02  3.57546E-02  3.66246E-02
#           3.75157E-02  3.84284E-02  3.93634E-02  4.03212E-02  4.13022E-02
#           4.23071E-02  4.33365E-02  4.43909E-02  4.54710E-02  4.65773E-02
#           4.77106E-02  4.88714E-02  5.00605E-02  5.12785E-02  5.25262E-02
#           5.38042E-02  5.51133E-02  5.64542E-02  5.78278E-02  5.92348E-02
#           6.06760E-02  6.21523E-02  6.36645E-02  6.52135E-02  6.68002E-02
#           6.84255E-02  7.00904E-02  7.17957E-02  7.35426E-02  7.53319E-02
#           7.71648E-02  7.90423E-02  8.09655E-02  8.29354E-02  8.49533E-02
#           8.70203E-02  8.91376E-02  9.13064E-02  9.35279E-02  9.58035E-02
#           9.81345E-02  1.00522E-01  1.02968E-01  1.05473E-01  1.08040E-01
#           1.10668E-01  1.13361E-01  1.16119E-01  1.18944E-01  1.21838E-01
#           1.24803E-01  1.27839E-01  1.30950E-01  1.34136E-01  1.37399E-01
#           1.40742E-01  1.44167E-01  1.47675E-01  1.51268E-01  1.54948E-01
#           1.58718E-01  1.62580E-01  1.66535E-01  1.70587E-01  1.74738E-01
#           1.78989E-01  1.83344E-01  1.87805E-01  1.92375E-01  1.97055E-01
#           2.01850E-01  2.06761E-01  2.11792E-01  2.16945E-01  2.22223E-01
#           2.27630E-01  2.33169E-01  2.38842E-01  2.44653E-01  2.50605E-01
#           2.56703E-01  2.62949E-01  2.69346E-01  2.75900E-01  2.82613E-01
#           2.89489E-01  2.96532E-01  3.03747E-01  3.11138E-01  3.18708E-01
#           3.26462E-01  3.34405E-01  3.42542E-01  3.50876E-01  3.59413E-01
#           3.68158E-01  3.77116E-01  3.86291E-01  3.95690E-01  4.05317E-01
#           4.15179E-01  4.25281E-01  4.35628E-01  4.46227E-01  4.57084E-01
#           4.68205E-01  4.79597E-01  4.91266E-01  5.03219E-01  5.15463E-01
#           5.28005E-01  5.40851E-01  5.54011E-01  5.67490E-01  5.81298E-01
#           5.95441E-01  6.09929E-01  6.24769E-01  6.39970E-01  6.55541E-01
#           6.71491E-01  6.87828E-01  7.04564E-01  7.21706E-01  7.39266E-01
#           7.57253E-01  7.75678E-01  7.94551E-01  8.13883E-01  8.33685E-01
#           8.53969E-01  8.74747E-01  8.96030E-01  9.17831E-01  9.40163E-01
#           9.63038E-01  9.86469E-01  1.01047E+00  1.03506E+00  1.06024E+00
#           1.08604E+00  1.11246E+00  1.13953E+00  1.16725E+00  1.19565E+00
#           1.22474E+00  1.25454E+00  1.28507E+00  1.31633E+00  1.34836E+00
#           1.38117E+00  1.41477E+00  1.44920E+00  1.48446E+00  1.52057E+00
#           1.55757E+00  1.59547E+00  1.63429E+00  1.67405E+00  1.71478E+00
#           1.75650E+00  1.79924E+00  1.84302E+00  1.88786E+00  1.93379E+00
#           1.98084E+00  2.02904E+00  2.07841E+00  2.12898E+00  2.18078E+00
#           2.23384E+00  2.28819E+00  2.34386E+00  2.40089E+00  2.45930E+00
#           2.51914E+00  2.58043E+00  2.64322E+00  2.70753E+00  2.77341E+00
#           2.84088E+00  2.91001E+00  2.98081E+00  3.05333E+00  3.12762E+00
#           3.20372E+00  3.28167E+00  3.36152E+00  3.44330E+00  3.52708E+00
#           3.61290E+00  3.70080E+00  3.79085E+00  3.88308E+00  3.97756E+00
#           4.07434E+00  4.17347E+00  4.27501E+00  4.37903E+00  4.48557E+00
#           4.59471E+00  4.70650E+00  4.82102E+00  4.93832E+00  5.05847E+00
#           5.18155E+00  5.30762E+00  5.43676E+00  5.56904E+00  5.70453E+00
#           5.84333E+00  5.98550E+00  6.13114E+00  6.28031E+00  6.43312E+00
#           6.58964E+00  6.74997E+00  6.91420E+00  7.08243E+00  7.25475E+00
#           7.43126E+00  7.61207E+00  7.79728E+00  7.98700E+00  8.18133E+00
#           8.38038E+00  8.58428E+00  8.79315E+00  9.00709E+00  9.22624E+00
#           9.45072E+00  9.68067E+00  9.91620E+00  1.01575E+01  1.04046E+01
#           1.06578E+01  1.09171E+01  1.11827E+01  1.14548E+01  1.17335E+01
#           1.20190E+01  1.23114E+01  1.26109E+01  1.29178E+01  1.32321E+01
#           1.35540E+01  1.38838E+01  1.42216E+01  1.45676E+01  1.49221E+01
#           1.52851E+01  1.56570E+01  1.60380E+01  1.64282E+01  1.68279E+01
#           1.72374E+01  1.76568E+01  1.80864E+01  1.85264E+01  1.89772E+01
#           1.94389E+01  1.99119E+01  2.03963E+01  2.08926E+01  2.14009E+01
#           2.19216E+01  2.24550E+01  2.30014E+01  2.35610E+01  2.41343E+01
#           2.47215E+01  2.53230E+01  2.59391E+01  2.65702E+01  2.72167E+01
#           2.78789E+01  2.85572E+01  2.92520E+01  2.99637E+01  3.06928E+01
#           3.14396E+01  3.22045E+01  3.29881E+01  3.37907E+01  3.46128E+01
#           3.54550E+01  3.63177E+01  3.72013E+01  3.81064E+01  3.90336E+01
#           3.99833E+01  4.09561E+01  4.19526E+01  4.29734E+01  4.40189E+01
#           4.50900E+01  4.61870E+01  4.73108E+01  4.84619E+01  4.96410E+01
#           5.08488E+01  5.20860E+01  5.33533E+01  5.46514E+01  5.59812E+01
#           5.73432E+01  5.87384E+01  6.01676E+01  6.16315E+01  6.31311E+01
#           6.46671E+01  6.62405E+01  6.78522E+01  6.95031E+01  7.11941E+01
#           7.29263E+01  7.47007E+01  7.65182E+01  7.83800E+01  8.02870E+01
#           8.22405E+01  8.42414E+01  8.62911E+01  8.83906E+01  9.05412E+01
#           9.27442E+01  9.50007E+01  9.73122E+01  9.96799E+01  1.02105E+02
#           1.04589E+02  1.07134E+02  1.09741E+02  1.12411E+02  1.15146E+02
#           1.17948E+02  1.20817E+02  1.23757E+02  1.26768E+02  1.29852E+02
#           1.33012E+02  1.36248E+02  1.39563E+02  1.42959E+02  1.46437E+02
#           1.50000E+02
     unit =    2            # unit is [1/cm^2/(MeV/n)/source]
     axis =  eng            # axis of output
     file = detector-01.out  # file name of output for the above axis
   output = f-curr          # surface crossing forward current spectrum
     part =  neutron  
# kf/name :  2112     
#    used :        main (  %)        temp (  %)       total (  %)
#  memory :         414 (  0)           0 (  0)         414 (  0)

#------------------------------------------------------------------------------
#newpage:
#   no. =    1   reg = 100 - 200

x: Energy [MeV/n]
y:  F-Curr [1/cm^2/(MeV/n)/source]         
p: xlog ylog afac(0.8) form(0.9)
h: n            x            y(neutron ),hh0l   n 
#  e-lower      e-upper      neutron     r.err 
   1.0000E-02   1.0243E-02   5.2362E-03  0.0396
   1.0243E-02   1.0493E-02   5.1278E-03  0.0396
   1.0493E-02   1.0748E-02   4.8337E-03  0.0403
   1.0748E-02   1.1009E-02   5.2848E-03  0.0380
   1.1009E-02   1.1277E-02   5.1444E-03  0.0381
   1.1277E-02   1.1552E-02   4.7889E-03  0.0390
   1.1552E-02   1.1833E-02   4.6396E-03  0.0392
   1.1833E-02   1.2121E-02   4.6544E-03  0.0386
   1.2121E-02   1.2415E-02   4.3947E-03  0.0393
   1.2415E-02   1.2718E-02   4.2175E-03  0.0396
   1.2718E-02   1.3027E-02   4.6602E-03  0.0372
   1.3027E-02   1.3344E-02   4.2971E-03  0.0383
   1.3344E-02   1.3669E-02   4.2197E-03  0.0382
   1.3669E-02   1.4001E-02   4.1195E-03  0.0382
   1.4001E-02   1.4342E-02   3.9629E-03  0.0385
   1.4342E-02   1.4691E-02   3.8974E-03  0.0383
   1.4691E-02   1.5048E-02   3.7265E-03  0.0387
   1.5048E-02   1.5414E-02   3.8620E-03  0.0376
   1.5414E-02   1.5789E-02   3.6849E-03  0.0380
   1.5789E-02   1.6174E-02   3.8941E-03  0.0366
   1.6174E-02   1.6567E-02   3.6238E-03  0.0375
   1.6567E-02   1.6970E-02   3.3293E-03  0.0386
   1.6970E-02   1.7383E-02   3.2841E-03  0.0384
   1.7383E-02   1.7806E-02   3.3716E-03  0.0375
   1.7806E-02   1.8239E-02   3.4670E-03  0.0365
   1.8239E-02   1.8683E-02   3.2539E-03  0.0372
   1.8683E-02   1.9138E-02   3.3702E-03  0.0361
   1.9138E-02   1.9603E-02   3.1312E-03  0.0370
   1.9603E-02   2.0080E-02   3.2791E-03  0.0358
   2.0080E-02   2.0569E-02   2.8533E-03  0.0379
   2.0569E-02   2.1069E-02   2.8734E-03  0.0373
   2.1069E-02   2.1582E-02   2.8832E-03  0.0368
   2.1582E-02   2.2107E-02   2.8947E-03  0.0363
   2.2107E-02   2.2645E-02   2.7999E-03  0.0364
   2.2645E-02   2.3196E-02   2.7443E-03  0.0364
   2.3196E-02   2.3760E-02   2.6578E-03  0.0365
   2.3760E-02   2.4338E-02   2.6743E-03  0.0360
   2.4338E-02   2.4930E-02   2.5364E-03  0.0365
   2.4930E-02   2.5537E-02   2.5388E-03  0.0360
   2.5537E-02   2.6158E-02   2.3273E-03  0.0372
   2.6158E-02   2.6795E-02   2.2625E-03  0.0373
   2.6795E-02   2.7447E-02   2.3131E-03  0.0364
   2.7447E-02   2.8114E-02   2.3001E-03  0.0361
   2.8114E-02   2.8799E-02   2.3653E-03  0.0352
   2.8799E-02   2.9499E-02   2.2421E-03  0.0357
   2.9499E-02   3.0217E-02   2.1846E-03  0.0357
   3.0217E-02   3.0952E-02   2.1572E-03  0.0355
   3.0952E-02   3.1705E-02   2.1591E-03  0.0351
   3.1705E-02   3.2477E-02   2.1078E-03  0.0351
   3.2477E-02   3.3267E-02   2.0426E-03  0.0352
   3.3267E-02   3.4076E-02   1.9792E-03  0.0353
   3.4076E-02   3.4905E-02   1.9443E-03  0.0352
   3.4905E-02   3.5755E-02   1.9593E-03  0.0347
   3.5755E-02   3.6625E-02   1.8668E-03  0.0351
   3.6625E-02   3.7516E-02   1.8404E-03  0.0349
   3.7516E-02   3.8428E-02   1.8033E-03  0.0349
   3.8428E-02   3.9363E-02   1.7626E-03  0.0348
   3.9363E-02   4.0321E-02   1.8126E-03  0.0339
   4.0321E-02   4.1302E-02   1.7818E-03  0.0338
   4.1302E-02   4.2307E-02   1.6161E-03  0.0351
   4.2307E-02   4.3337E-02   1.5913E-03  0.0349
   4.3337E-02   4.4391E-02   1.7090E-03  0.0333
   4.4391E-02   4.5471E-02   1.5295E-03  0.0348
   4.5471E-02   4.6577E-02   1.5167E-03  0.0345
   4.6577E-02   4.7711E-02   1.5866E-03  0.0334
   4.7711E-02   4.8871E-02   1.5489E-03  0.0334
   4.8871E-02   5.0061E-02   1.5306E-03  0.0331
   5.0061E-02   5.1279E-02   1.4910E-03  0.0332
   5.1279E-02   5.2526E-02   1.4395E-03  0.0334
   5.2526E-02   5.3804E-02   1.3881E-03  0.0336
   5.3804E-02   5.5113E-02   1.3032E-03  0.0342
   5.5113E-02   5.6454E-02   1.3408E-03  0.0334
   5.6454E-02   5.7828E-02   1.3177E-03  0.0332
   5.7828E-02   5.9235E-02   1.3120E-03  0.0329
   5.9235E-02   6.0676E-02   1.1684E-03  0.0345
   6.0676E-02   6.2152E-02   1.2233E-03  0.0333
   6.2152E-02   6.3665E-02   1.2194E-03  0.0329
   6.3665E-02   6.5214E-02   1.1995E-03  0.0328
   6.5214E-02   6.6800E-02   1.1760E-03  0.0327
   6.6800E-02   6.8426E-02   1.1407E-03  0.0328
   6.8426E-02   7.0090E-02   1.1581E-03  0.0322
   7.0090E-02   7.1796E-02   1.0625E-03  0.0332
   7.1796E-02   7.3543E-02   1.1197E-03  0.0320
   7.3543E-02   7.5332E-02   9.7801E-04  0.0338
   7.5332E-02   7.7165E-02   1.0050E-03  0.0330
   7.7165E-02   7.9042E-02   1.0003E-03  0.0326
   7.9042E-02   8.0965E-02   9.6300E-04  0.0329
   8.0965E-02   8.2935E-02   9.9292E-04  0.0320
   8.2935E-02   8.4953E-02   9.2572E-04  0.0327
   8.4953E-02   8.7020E-02   8.7761E-04  0.0332
   8.7020E-02   8.9138E-02   8.9266E-04  0.0325
   8.9138E-02   9.1306E-02   8.5854E-04  0.0328
   9.1306E-02   9.3528E-02   8.5256E-04  0.0325
   9.3528E-02   9.5804E-02   8.1473E-04  0.0328
   9.5804E-02   9.8134E-02   8.4128E-04  0.0319
   9.8134E-02   1.0052E-01   8.2171E-04  0.0319
   1.0052E-01   1.0297E-01   7.8748E-04  0.0322
   1.0297E-01   1.0547E-01   7.4323E-04  0.0328
   1.0547E-01   1.0804E-01   7.6454E-04  0.0319
   1.0804E-01   1.1067E-01   7.2356E-04  0.0324
   1.1067E-01   1.1336E-01   6.8854E-04  0.0328
   1.1336E-01   1.1612E-01   7.2005E-04  0.0317
   1.1612E-01   1.1894E-01   6.8878E-04  0.0321
   1.1894E-01   1.2184E-01   6.6206E-04  0.0323
   1.2184E-01   1.2480E-01   6.6455E-04  0.0319
   1.2480E-01   1.2784E-01   6.3625E-04  0.0322
   1.2784E-01   1.3095E-01   6.3142E-04  0.0319
   1.3095E-01   1.3414E-01   6.4279E-04  0.0312
   1.3414E-01   1.3740E-01   6.2139E-04  0.0314
   1.3740E-01   1.4074E-01   5.9287E-04  0.0318
   1.4074E-01   1.4417E-01   6.0858E-04  0.0310
   1.4417E-01   1.4767E-01   5.7702E-04  0.0314
   1.4767E-01   1.5127E-01   5.6609E-04  0.0314
   1.5127E-01   1.5495E-01   5.3635E-04  0.0318
   1.5495E-01   1.5872E-01   5.3899E-04  0.0314
   1.5872E-01   1.6258E-01   5.0651E-04  0.0320
   1.6258E-01   1.6654E-01   4.8689E-04  0.0322
   1.6654E-01   1.7059E-01   4.6546E-04  0.0326
   1.7059E-01   1.7474E-01   4.8572E-04  0.0315
   1.7474E-01   1.7899E-01   4.7277E-04  0.0315
   1.7899E-01   1.8334E-01   4.6568E-04  0.0314
   1.8334E-01   1.8781E-01   4.3265E-04  0.0322
   1.8781E-01   1.9237E-01   4.4863E-04  0.0312
   1.9237E-01   1.9706E-01   4.1063E-04  0.0323
   1.9706E-01   2.0185E-01   4.1589E-04  0.0317
   2.0185E-01   2.0676E-01   3.8565E-04  0.0325
   2.0676E-01   2.1179E-01   4.1187E-04  0.0311
   2.1179E-01   2.1694E-01   3.7259E-04  0.0323
   2.1694E-01   2.2222E-01   3.8534E-04  0.0314
   2.2222E-01   2.2763E-01   3.5954E-04  0.0321
   2.2763E-01   2.3317E-01   3.8242E-04  0.0307
   2.3317E-01   2.3884E-01   3.5254E-04  0.0316
   2.3884E-01   2.4465E-01   3.4623E-04  0.0315
   2.4465E-01   2.5061E-01   3.6085E-04  0.0305
   2.5061E-01   2.5670E-01   3.1456E-04  0.0323
   2.5670E-01   2.6295E-01   3.2534E-04  0.0314
   2.6295E-01   2.6935E-01   3.0542E-04  0.0320
   2.6935E-01   2.7590E-01   2.9633E-04  0.0321
   2.7590E-01   2.8261E-01   3.0389E-04  0.0313
   2.8261E-01   2.8949E-01   2.8475E-04  0.0320
   2.8949E-01   2.9653E-01   2.7501E-04  0.0321
   2.9653E-01   3.0375E-01   2.4616E-04  0.0336
   3.0375E-01   3.1114E-01   2.5303E-04  0.0327
   3.1114E-01   3.1871E-01   2.6432E-04  0.0316
   3.1871E-01   3.2646E-01   2.4966E-04  0.0321
   3.2646E-01   3.3441E-01   2.3971E-04  0.0324
   3.3441E-01   3.4254E-01   2.4114E-04  0.0319
   3.4254E-01   3.5088E-01   2.2221E-04  0.0329
   3.5088E-01   3.5941E-01   2.2303E-04  0.0324
   3.5941E-01   3.6816E-01   2.0995E-04  0.0330
   3.6816E-01   3.7712E-01   2.0184E-04  0.0333
   3.7712E-01   3.8629E-01   2.0032E-04  0.0330
   3.8629E-01   3.9569E-01   1.8811E-04  0.0336
   3.9569E-01   4.0532E-01   1.7616E-04  0.0343
   4.0532E-01   4.1518E-01   1.7462E-04  0.0341
   4.1518E-01   4.2528E-01   1.7878E-04  0.0333
   4.2528E-01   4.3563E-01   1.7038E-04  0.0337
   4.3563E-01   4.4623E-01   1.7171E-04  0.0331
   4.4623E-01   4.5708E-01   1.5492E-04  0.0345
   4.5708E-01   4.6821E-01   1.5034E-04  0.0346
   4.6821E-01   4.7960E-01   1.4941E-04  0.0343
   4.7960E-01   4.9127E-01   1.4654E-04  0.0342
   4.9127E-01   5.0322E-01   1.4624E-04  0.0338
   5.0322E-01   5.1546E-01   1.3901E-04  0.0343
   5.1546E-01   5.2800E-01   1.2470E-04  0.0358
   5.2800E-01   5.4085E-01   1.2999E-04  0.0346
   5.4085E-01   5.5401E-01   1.2311E-04  0.0351
   5.5401E-01   5.6749E-01   1.1558E-04  0.0358
   5.6749E-01   5.8130E-01   1.1226E-04  0.0359
   5.8130E-01   5.9544E-01   1.1497E-04  0.0351
   5.9544E-01   6.0993E-01   9.6773E-05  0.0378
   6.0993E-01   6.2477E-01   9.7170E-05  0.0372
   6.2477E-01   6.3997E-01   8.9533E-05  0.0383
   6.3997E-01   6.5554E-01   9.6783E-05  0.0364
   6.5554E-01   6.7149E-01   8.8151E-05  0.0377
   6.7149E-01   6.8783E-01   8.7282E-05  0.0375
   6.8783E-01   7.0456E-01   8.5328E-05  0.0374
   7.0456E-01   7.2171E-01   7.5659E-05  0.0393
   7.2171E-01   7.3927E-01   7.8361E-05  0.0381
   7.3927E-01   7.5725E-01   7.0051E-05  0.0398
   7.5725E-01   7.7568E-01   7.2403E-05  0.0387
   7.7568E-01   7.9455E-01   7.0366E-05  0.0388
   7.9455E-01   8.1388E-01   6.2280E-05  0.0408
   8.1388E-01   8.3368E-01   5.9791E-05  0.0411
   8.3368E-01   8.5397E-01   5.7680E-05  0.0413
   8.5397E-01   8.7475E-01   5.3808E-05  0.0423
   8.7475E-01   8.9603E-01   4.9288E-05  0.0437
   8.9603E-01   9.1783E-01   5.2107E-05  0.0420
   9.1783E-01   9.4016E-01   5.0691E-05  0.0420
   9.4016E-01   9.6304E-01   4.7825E-05  0.0428
   9.6304E-01   9.8647E-01   4.4214E-05  0.0439
   9.8647E-01   1.0105E+00   4.3830E-05  0.0436
   1.0105E+00   1.0351E+00   4.4498E-05  0.0428
   1.0351E+00   1.0602E+00   4.3083E-05  0.0429
   1.0602E+00   1.0860E+00   4.7448E-05  0.0404
   1.0860E+00   1.1125E+00   4.6283E-05  0.0404
   1.1125E+00   1.1395E+00   5.0837E-05  0.0381
   1.1395E+00   1.1673E+00   4.8042E-05  0.0387
   1.1673E+00   1.1957E+00   5.4014E-05  0.0362
   1.1957E+00   1.2247E+00   5.9399E-05  0.0340
   1.2247E+00   1.2545E+00   5.8928E-05  0.0337
   1.2545E+00   1.2851E+00   6.0018E-05  0.0330
   1.2851E+00   1.3163E+00   6.2047E-05  0.0321
   1.3163E+00   1.3484E+00   6.4195E-05  0.0312
   1.3484E+00   1.3812E+00   6.3950E-05  0.0309
   1.3812E+00   1.4148E+00   6.9454E-05  0.0293
   1.4148E+00   1.4492E+00   6.9257E-05  0.0290
   1.4492E+00   1.4845E+00   7.0902E-05  0.0283
   1.4845E+00   1.5206E+00   7.1100E-05  0.0279
   1.5206E+00   1.5576E+00   7.2223E-05  0.0274
   1.5576E+00   1.5955E+00   7.4148E-05  0.0267
   1.5955E+00   1.6343E+00   7.3366E-05  0.0265
   1.6343E+00   1.6741E+00   7.8665E-05  0.0253
   1.6741E+00   1.7148E+00   8.2591E-05  0.0244
   1.7148E+00   1.7565E+00   8.0389E-05  0.0244
   1.7565E+00   1.7992E+00   8.0960E-05  0.0240
   1.7992E+00   1.8430E+00   8.0819E-05  0.0238
   1.8430E+00   1.8879E+00   8.2333E-05  0.0233
   1.8879E+00   1.9338E+00   8.1466E-05  0.0231
   1.9338E+00   1.9808E+00   8.4632E-05  0.0224
   1.9808E+00   2.0290E+00   8.2352E-05  0.0224
   2.0290E+00   2.0784E+00   8.1186E-05  0.0223
   2.0784E+00   2.1290E+00   7.9238E-05  0.0223
   2.1290E+00   2.1808E+00   8.0039E-05  0.0220
   2.1808E+00   2.2338E+00   8.0663E-05  0.0216
   2.2338E+00   2.2882E+00   8.0514E-05  0.0214
   2.2882E+00   2.3439E+00   7.8476E-05  0.0214
   2.3439E+00   2.4009E+00   7.5752E-05  0.0215
   2.4009E+00   2.4593E+00   8.3300E-05  0.0203
   2.4593E+00   2.5191E+00   7.6675E-05  0.0209
   2.5191E+00   2.5804E+00   7.1982E-05  0.0213
   2.5804E+00   2.6432E+00   7.3777E-05  0.0208
   2.6432E+00   2.7075E+00   7.3439E-05  0.0206
   2.7075E+00   2.7734E+00   7.1710E-05  0.0206
   2.7734E+00   2.8409E+00   6.9622E-05  0.0206
   2.8409E+00   2.9100E+00   7.0080E-05  0.0203
   2.9100E+00   2.9808E+00   6.7060E-05  0.0205
   2.9808E+00   3.0533E+00   6.8307E-05  0.0201
   3.0533E+00   3.1276E+00   6.4531E-05  0.0204
   3.1276E+00   3.2037E+00   6.1658E-05  0.0206
   3.2037E+00   3.2817E+00   5.8602E-05  0.0209
   3.2817E+00   3.3615E+00   5.6334E-05  0.0211
   3.3615E+00   3.4433E+00   5.6194E-05  0.0209
   3.4433E+00   3.5271E+00   5.3164E-05  0.0212
   3.5271E+00   3.6129E+00   5.2344E-05  0.0211
   3.6129E+00   3.7008E+00   4.9918E-05  0.0213
   3.7008E+00   3.7908E+00   4.8976E-05  0.0213
   3.7908E+00   3.8831E+00   4.7509E-05  0.0214
   3.8831E+00   3.9776E+00   4.3714E-05  0.0220
   3.9776E+00   4.0743E+00   4.4804E-05  0.0215
   4.0743E+00   4.1735E+00   4.3679E-05  0.0215
   4.1735E+00   4.2750E+00   4.1243E-05  0.0219
   4.2750E+00   4.3790E+00   3.9033E-05  0.0222
   4.3790E+00   4.4856E+00   3.7637E-05  0.0223
   4.4856E+00   4.5947E+00   3.6486E-05  0.0224
   4.5947E+00   4.7065E+00   3.3598E-05  0.0231
   4.7065E+00   4.8210E+00   3.4005E-05  0.0227
   4.8210E+00   4.9383E+00   3.2976E-05  0.0227
   4.9383E+00   5.0585E+00   3.1510E-05  0.0230
   5.0585E+00   5.1815E+00   2.9299E-05  0.0236
   5.1815E+00   5.3076E+00   2.9396E-05  0.0232
   5.3076E+00   5.4368E+00   2.8373E-05  0.0234
   5.4368E+00   5.5690E+00   2.6565E-05  0.0239
   5.5690E+00   5.7045E+00   2.4871E-05  0.0244
   5.7045E+00   5.8433E+00   2.4655E-05  0.0242
   5.8433E+00   5.9855E+00   2.4126E-05  0.0241
   5.9855E+00   6.1311E+00   2.2756E-05  0.0246
   6.1311E+00   6.2803E+00   2.1961E-05  0.0247
   6.2803E+00   6.4331E+00   2.2696E-05  0.0240
   6.4331E+00   6.5896E+00   2.0572E-05  0.0249
   6.5896E+00   6.7500E+00   2.0688E-05  0.0246
   6.7500E+00   6.9142E+00   2.0313E-05  0.0245
   6.9142E+00   7.0824E+00   1.9200E-05  0.0249
   7.0824E+00   7.2548E+00   1.9823E-05  0.0242
   7.2548E+00   7.4313E+00   1.8967E-05  0.0244
   7.4313E+00   7.6121E+00   1.8755E-05  0.0243
   7.6121E+00   7.7973E+00   1.7775E-05  0.0246
   7.7973E+00   7.9870E+00   1.7864E-05  0.0243
   7.9870E+00   8.1813E+00   1.7563E-05  0.0242
   8.1813E+00   8.3804E+00   1.7643E-05  0.0239
   8.3804E+00   8.5843E+00   1.7901E-05  0.0234
   8.5843E+00   8.7931E+00   1.7437E-05  0.0234
   8.7931E+00   9.0071E+00   1.7462E-05  0.0231
   9.0071E+00   9.2262E+00   1.6756E-05  0.0233
   9.2262E+00   9.4507E+00   1.6612E-05  0.0232
   9.4507E+00   9.6807E+00   1.6926E-05  0.0227
   9.6807E+00   9.9162E+00   1.7080E-05  0.0223
   9.9162E+00   1.0157E+01   1.7333E-05  0.0219
   1.0157E+01   1.0405E+01   1.6760E-05  0.0220
   1.0405E+01   1.0658E+01   1.7250E-05  0.0214
   1.0658E+01   1.0917E+01   1.7400E-05  0.0210
   1.0917E+01   1.1183E+01   1.7638E-05  0.0207
   1.1183E+01   1.1455E+01   1.7660E-05  0.0204
   1.1455E+01   1.1733E+01   1.7075E-05  0.0205
   1.1733E+01   1.2019E+01   1.7003E-05  0.0203
   1.2019E+01   1.2311E+01   1.8374E-05  0.0193
   1.2311E+01   1.2611E+01   1.7844E-05  0.0193
   1.2611E+01   1.2918E+01   1.7782E-05  0.0191
   1.2918E+01   1.3232E+01   1.7553E-05  0.0190
   1.3232E+01   1.3554E+01   1.8363E-05  0.0184
   1.3554E+01   1.3884E+01   1.8618E-05  0.0180
   1.3884E+01   1.4222E+01   1.8253E-05  0.0180
   1.4222E+01   1.4568E+01   1.9233E-05  0.0173
   1.4568E+01   1.4922E+01   1.9089E-05  0.0172
   1.4922E+01   1.5285E+01   1.8914E-05  0.0171
   1.5285E+01   1.5657E+01   1.9231E-05  0.0167
   1.5657E+01   1.6038E+01   1.9591E-05  0.0164
   1.6038E+01   1.6428E+01   2.0376E-05  0.0159
   1.6428E+01   1.6828E+01   2.0417E-05  0.0157
   1.6828E+01   1.7237E+01   2.0306E-05  0.0155
   1.7237E+01   1.7657E+01   2.0291E-05  0.0153
   1.7657E+01   1.8086E+01   2.1043E-05  0.0149
   1.8086E+01   1.8526E+01   2.1743E-05  0.0145
   1.8526E+01   1.8977E+01   2.2249E-05  0.0141
   1.8977E+01   1.9439E+01   2.2288E-05  0.0139
   1.9439E+01   1.9912E+01   2.3065E-05  0.0135
   1.9912E+01   2.0396E+01   2.7213E-05  0.0123
   2.0396E+01   2.0893E+01   2.8820E-05  0.0118
   2.0893E+01   2.1401E+01   2.8737E-05  0.0117
   2.1401E+01   2.1922E+01   2.9821E-05  0.0113
   2.1922E+01   2.2455E+01   3.0632E-05  0.0111
   2.2455E+01   2.3001E+01   3.0837E-05  0.0109
   2.3001E+01   2.3561E+01   3.1610E-05  0.0106
   2.3561E+01   2.4134E+01   3.2516E-05  0.0104
   2.4134E+01   2.4721E+01   3.3082E-05  0.0101
   2.4721E+01   2.5323E+01   3.3121E-05  0.0100
   2.5323E+01   2.5939E+01   3.4227E-05  0.0097
   2.5939E+01   2.6570E+01   3.5081E-05  0.0095
   2.6570E+01   2.7217E+01   3.6162E-05  0.0092
   2.7217E+01   2.7879E+01   3.7061E-05  0.0090
   2.7879E+01   2.8557E+01   3.7446E-05  0.0089
   2.8557E+01   2.9252E+01   3.8600E-05  0.0086
   2.9252E+01   2.9964E+01   3.9052E-05  0.0085
   2.9964E+01   3.0693E+01   3.9765E-05  0.0083
   3.0693E+01   3.1440E+01   4.0513E-05  0.0081
   3.1440E+01   3.2205E+01   4.1140E-05  0.0080
   3.2205E+01   3.2988E+01   4.2256E-05  0.0078
   3.2988E+01   3.3791E+01   4.2201E-05  0.0077
   3.3791E+01   3.4613E+01   4.3223E-05  0.0075
   3.4613E+01   3.5455E+01   4.3875E-05  0.0074
   3.5455E+01   3.6318E+01   4.4106E-05  0.0073
   3.6318E+01   3.7201E+01   4.3780E-05  0.0072
   3.7201E+01   3.8106E+01   4.4440E-05  0.0071
   3.8106E+01   3.9034E+01   4.2974E-05  0.0071
   3.9034E+01   3.9983E+01   4.2996E-05  0.0070
   3.9983E+01   4.0956E+01   4.2990E-05  0.0069
   4.0956E+01   4.1953E+01   4.2334E-05  0.0069
   4.1953E+01   4.2973E+01   4.0525E-05  0.0070
   4.2973E+01   4.4019E+01   3.8979E-05  0.0070
   4.4019E+01   4.5090E+01   3.7196E-05  0.0071
   4.5090E+01   4.6187E+01   3.5199E-05  0.0072
   4.6187E+01   4.7311E+01   3.3496E-05  0.0073
   4.7311E+01   4.8462E+01   3.0213E-05  0.0076
   4.8462E+01   4.9641E+01   2.7319E-05  0.0079
   4.9641E+01   5.0849E+01   2.5378E-05  0.0081
   5.0849E+01   5.2086E+01   2.2730E-05  0.0084
   5.2086E+01   5.3353E+01   2.0259E-05  0.0088
   5.3353E+01   5.4651E+01   1.8317E-05  0.0092
   5.4651E+01   5.5981E+01   1.5736E-05  0.0098
   5.5981E+01   5.7343E+01   1.3920E-05  0.0103
   5.7343E+01   5.8738E+01   1.2375E-05  0.0108
   5.8738E+01   6.0168E+01   1.0536E-05  0.0115
   6.0168E+01   6.1632E+01   9.5237E-06  0.0120
   6.1632E+01   6.3131E+01   8.2612E-06  0.0127
   6.3131E+01   6.4667E+01   7.2082E-06  0.0134
   6.4667E+01   6.6240E+01   6.0582E-06  0.0145
   6.6240E+01   6.7852E+01   5.2107E-06  0.0154
   6.7852E+01   6.9503E+01   4.6048E-06  0.0162
   6.9503E+01   7.1194E+01   4.0637E-06  0.0171
   7.1194E+01   7.2926E+01   3.3310E-06  0.0186
   7.2926E+01   7.4701E+01   2.8641E-06  0.0198
   7.4701E+01   7.6518E+01   2.5903E-06  0.0206
   7.6518E+01   7.8380E+01   2.1700E-06  0.0222
   7.8380E+01   8.0287E+01   1.9202E-06  0.0234
   8.0287E+01   8.2240E+01   1.6054E-06  0.0253
   8.2240E+01   8.4241E+01   1.2404E-06  0.0284
   8.4241E+01   8.6291E+01   9.8065E-07  0.0315
   8.6291E+01   8.8391E+01   7.1445E-07  0.0365
   8.8391E+01   9.0541E+01   5.5612E-07  0.0409
   9.0541E+01   9.2744E+01   4.1762E-07  0.0466
   9.2744E+01   9.5001E+01   2.8007E-07  0.0563
   9.5001E+01   9.7312E+01   1.1075E-07  0.0884
   9.7312E+01   9.9680E+01   1.8584E-08  0.2132
   9.9680E+01   1.0211E+02   0.0000E+00  0.0000
   1.0211E+02   1.0459E+02   0.0000E+00  0.0000
   1.0459E+02   1.0713E+02   0.0000E+00  0.0000
   1.0713E+02   1.0974E+02   0.0000E+00  0.0000
   1.0974E+02   1.1241E+02   0.0000E+00  0.0000
   1.1241E+02   1.1515E+02   0.0000E+00  0.0000
   1.1515E+02   1.1795E+02   0.0000E+00  0.0000
   1.1795E+02   1.2082E+02   0.0000E+00  0.0000
   1.2082E+02   1.2376E+02   0.0000E+00  0.0000
   1.2376E+02   1.2677E+02   0.0000E+00  0.0000
   1.2677E+02   1.2985E+02   0.0000E+00  0.0000
   1.2985E+02   1.3301E+02   0.0000E+00  0.0000
   1.3301E+02   1.3625E+02   0.0000E+00  0.0000
   1.3625E+02   1.3956E+02   0.0000E+00  0.0000
   1.3956E+02   1.4296E+02   0.0000E+00  0.0000
   1.4296E+02   1.4644E+02   0.0000E+00  0.0000
   1.4644E+02   1.5000E+02   0.0000E+00  0.0000

#   sum over                 1.5010E-05
'no. =    1   reg = 100 - 200'
msuc: {\huge [t-cross] in region mesh}
msdr: {\it plotted by \ANGEL \version}
msdl: {\it calculated by \PHITS  3.26}
wt: s(0.7)
\vspace{-3}
  region surface crossing
  area  &=&   1.0000E+00 [cm^2]
e:
 
# Information for Restart Calculation
# This calculation was newly started
# istdev =  2 # 1:Batch variance, 2:History variance
# resc2  = 5.00000000000000000E+08 # Total source weight or Total source weight / maxcas
# resc3  = 5.00000000000000000E+08 # Total history number or Total batch number
# maxcas =   500000000 # History / Batch, only used for istdev=1
# bitrseed = 1101101111010011011000101101110001100110110010110001010100010001 # bit data of rseed
