[ T-Cross ]
    title = [t-cross] in region mesh
     mesh =  reg            # mesh type is region-wise
      reg =    1            # number of crossing regions
      non     r-from    r-to       area
      1       113       213        1.000000    
   e-type =    3            # e-mesh is log given by emin, emax and ne
     emin =  1.0000000E-02  # minimum value of e-mesh points
     emax =   150.0000      # maximum value of e-mesh points
#    edel =  2.4039514E-02  # mesh width of e-mesh points
       ne =    400          # number of e-mesh points
#    data = ( e(i), i = 1, ne + 1 )
#           1.00000E-02  1.02433E-02  1.04925E-02  1.07478E-02  1.10093E-02
#           1.12772E-02  1.15516E-02  1.18326E-02  1.21205E-02  1.24154E-02
#           1.27175E-02  1.30269E-02  1.33439E-02  1.36686E-02  1.40011E-02
#           1.43418E-02  1.46907E-02  1.50482E-02  1.54143E-02  1.57894E-02
#           1.61735E-02  1.65670E-02  1.69701E-02  1.73830E-02  1.78060E-02
#           1.82392E-02  1.86830E-02  1.91375E-02  1.96032E-02  2.00801E-02
#           2.05687E-02  2.10692E-02  2.15818E-02  2.21069E-02  2.26448E-02
#           2.31957E-02  2.37601E-02  2.43382E-02  2.49304E-02  2.55369E-02
#           2.61583E-02  2.67947E-02  2.74467E-02  2.81145E-02  2.87985E-02
#           2.94992E-02  3.02169E-02  3.09521E-02  3.17052E-02  3.24766E-02
#           3.32668E-02  3.40762E-02  3.49053E-02  3.57546E-02  3.66246E-02
#           3.75157E-02  3.84284E-02  3.93634E-02  4.03212E-02  4.13022E-02
#           4.23071E-02  4.33365E-02  4.43909E-02  4.54710E-02  4.65773E-02
#           4.77106E-02  4.88714E-02  5.00605E-02  5.12785E-02  5.25262E-02
#           5.38042E-02  5.51133E-02  5.64542E-02  5.78278E-02  5.92348E-02
#           6.06760E-02  6.21523E-02  6.36645E-02  6.52135E-02  6.68002E-02
#           6.84255E-02  7.00904E-02  7.17957E-02  7.35426E-02  7.53319E-02
#           7.71648E-02  7.90423E-02  8.09655E-02  8.29354E-02  8.49533E-02
#           8.70203E-02  8.91376E-02  9.13064E-02  9.35279E-02  9.58035E-02
#           9.81345E-02  1.00522E-01  1.02968E-01  1.05473E-01  1.08040E-01
#           1.10668E-01  1.13361E-01  1.16119E-01  1.18944E-01  1.21838E-01
#           1.24803E-01  1.27839E-01  1.30950E-01  1.34136E-01  1.37399E-01
#           1.40742E-01  1.44167E-01  1.47675E-01  1.51268E-01  1.54948E-01
#           1.58718E-01  1.62580E-01  1.66535E-01  1.70587E-01  1.74738E-01
#           1.78989E-01  1.83344E-01  1.87805E-01  1.92375E-01  1.97055E-01
#           2.01850E-01  2.06761E-01  2.11792E-01  2.16945E-01  2.22223E-01
#           2.27630E-01  2.33169E-01  2.38842E-01  2.44653E-01  2.50605E-01
#           2.56703E-01  2.62949E-01  2.69346E-01  2.75900E-01  2.82613E-01
#           2.89489E-01  2.96532E-01  3.03747E-01  3.11138E-01  3.18708E-01
#           3.26462E-01  3.34405E-01  3.42542E-01  3.50876E-01  3.59413E-01
#           3.68158E-01  3.77116E-01  3.86291E-01  3.95690E-01  4.05317E-01
#           4.15179E-01  4.25281E-01  4.35628E-01  4.46227E-01  4.57084E-01
#           4.68205E-01  4.79597E-01  4.91266E-01  5.03219E-01  5.15463E-01
#           5.28005E-01  5.40851E-01  5.54011E-01  5.67490E-01  5.81298E-01
#           5.95441E-01  6.09929E-01  6.24769E-01  6.39970E-01  6.55541E-01
#           6.71491E-01  6.87828E-01  7.04564E-01  7.21706E-01  7.39266E-01
#           7.57253E-01  7.75678E-01  7.94551E-01  8.13883E-01  8.33685E-01
#           8.53969E-01  8.74747E-01  8.96030E-01  9.17831E-01  9.40163E-01
#           9.63038E-01  9.86469E-01  1.01047E+00  1.03506E+00  1.06024E+00
#           1.08604E+00  1.11246E+00  1.13953E+00  1.16725E+00  1.19565E+00
#           1.22474E+00  1.25454E+00  1.28507E+00  1.31633E+00  1.34836E+00
#           1.38117E+00  1.41477E+00  1.44920E+00  1.48446E+00  1.52057E+00
#           1.55757E+00  1.59547E+00  1.63429E+00  1.67405E+00  1.71478E+00
#           1.75650E+00  1.79924E+00  1.84302E+00  1.88786E+00  1.93379E+00
#           1.98084E+00  2.02904E+00  2.07841E+00  2.12898E+00  2.18078E+00
#           2.23384E+00  2.28819E+00  2.34386E+00  2.40089E+00  2.45930E+00
#           2.51914E+00  2.58043E+00  2.64322E+00  2.70753E+00  2.77341E+00
#           2.84088E+00  2.91001E+00  2.98081E+00  3.05333E+00  3.12762E+00
#           3.20372E+00  3.28167E+00  3.36152E+00  3.44330E+00  3.52708E+00
#           3.61290E+00  3.70080E+00  3.79085E+00  3.88308E+00  3.97756E+00
#           4.07434E+00  4.17347E+00  4.27501E+00  4.37903E+00  4.48557E+00
#           4.59471E+00  4.70650E+00  4.82102E+00  4.93832E+00  5.05847E+00
#           5.18155E+00  5.30762E+00  5.43676E+00  5.56904E+00  5.70453E+00
#           5.84333E+00  5.98550E+00  6.13114E+00  6.28031E+00  6.43312E+00
#           6.58964E+00  6.74997E+00  6.91420E+00  7.08243E+00  7.25475E+00
#           7.43126E+00  7.61207E+00  7.79728E+00  7.98700E+00  8.18133E+00
#           8.38038E+00  8.58428E+00  8.79315E+00  9.00709E+00  9.22624E+00
#           9.45072E+00  9.68067E+00  9.91620E+00  1.01575E+01  1.04046E+01
#           1.06578E+01  1.09171E+01  1.11827E+01  1.14548E+01  1.17335E+01
#           1.20190E+01  1.23114E+01  1.26109E+01  1.29178E+01  1.32321E+01
#           1.35540E+01  1.38838E+01  1.42216E+01  1.45676E+01  1.49221E+01
#           1.52851E+01  1.56570E+01  1.60380E+01  1.64282E+01  1.68279E+01
#           1.72374E+01  1.76568E+01  1.80864E+01  1.85264E+01  1.89772E+01
#           1.94389E+01  1.99119E+01  2.03963E+01  2.08926E+01  2.14009E+01
#           2.19216E+01  2.24550E+01  2.30014E+01  2.35610E+01  2.41343E+01
#           2.47215E+01  2.53230E+01  2.59391E+01  2.65702E+01  2.72167E+01
#           2.78789E+01  2.85572E+01  2.92520E+01  2.99637E+01  3.06928E+01
#           3.14396E+01  3.22045E+01  3.29881E+01  3.37907E+01  3.46128E+01
#           3.54550E+01  3.63177E+01  3.72013E+01  3.81064E+01  3.90336E+01
#           3.99833E+01  4.09561E+01  4.19526E+01  4.29734E+01  4.40189E+01
#           4.50900E+01  4.61870E+01  4.73108E+01  4.84619E+01  4.96410E+01
#           5.08488E+01  5.20860E+01  5.33533E+01  5.46514E+01  5.59812E+01
#           5.73432E+01  5.87384E+01  6.01676E+01  6.16315E+01  6.31311E+01
#           6.46671E+01  6.62405E+01  6.78522E+01  6.95031E+01  7.11941E+01
#           7.29263E+01  7.47007E+01  7.65182E+01  7.83800E+01  8.02870E+01
#           8.22405E+01  8.42414E+01  8.62911E+01  8.83906E+01  9.05412E+01
#           9.27442E+01  9.50007E+01  9.73122E+01  9.96799E+01  1.02105E+02
#           1.04589E+02  1.07134E+02  1.09741E+02  1.12411E+02  1.15146E+02
#           1.17948E+02  1.20817E+02  1.23757E+02  1.26768E+02  1.29852E+02
#           1.33012E+02  1.36248E+02  1.39563E+02  1.42959E+02  1.46437E+02
#           1.50000E+02
     unit =    2            # unit is [1/cm^2/(MeV/n)/source]
     axis =  eng            # axis of output
     file = detector-14.out  # file name of output for the above axis
   output = f-curr          # surface crossing forward current spectrum
     part =  neutron  
# kf/name :  2112     
#    used :        main (  %)        temp (  %)       total (  %)
#  memory :         414 (  0)           0 (  0)         414 (  0)

#------------------------------------------------------------------------------
#newpage:
#   no. =    1   reg = 113 - 213

x: Energy [MeV/n]
y:  F-Curr [1/cm^2/(MeV/n)/source]         
p: xlog ylog afac(0.8) form(0.9)
h: n            x            y(neutron ),hh0l   n 
#  e-lower      e-upper      neutron     r.err 
   1.0000E-02   1.0243E-02   1.4385E-04  0.1690
   1.0243E-02   1.0493E-02   1.8718E-04  0.1450
   1.0493E-02   1.0748E-02   1.4159E-04  0.1660
   1.0748E-02   1.1009E-02   1.1281E-04  0.1833
   1.1009E-02   1.1277E-02   2.3146E-04  0.1265
   1.1277E-02   1.1552E-02   1.1904E-04  0.1726
   1.1552E-02   1.1833E-02   1.5399E-04  0.1516
   1.1833E-02   1.2121E-02   1.6903E-04  0.1428
   1.2121E-02   1.2415E-02   1.6107E-04  0.1447
   1.2415E-02   1.2718E-02   1.1960E-04  0.1661
   1.2718E-02   1.3027E-02   1.4275E-04  0.1502
   1.3027E-02   1.3344E-02   1.3464E-04  0.1524
   1.3344E-02   1.3669E-02   1.1133E-04  0.1649
   1.3669E-02   1.4001E-02   1.3723E-04  0.1466
   1.4001E-02   1.4342E-02   7.1374E-05  0.2017
   1.4342E-02   1.4691E-02   1.0784E-04  0.1622
   1.4691E-02   1.5048E-02   1.3645E-04  0.1425
   1.5048E-02   1.5414E-02   1.3793E-04  0.1404
   1.5414E-02   1.5789E-02   1.0532E-04  0.1586
   1.5789E-02   1.6174E-02   1.2970E-04  0.1409
   1.6174E-02   1.6567E-02   1.0800E-04  0.1529
   1.6567E-02   1.6970E-02   8.5031E-05  0.1702
   1.6970E-02   1.7383E-02   1.1755E-04  0.1421
   1.7383E-02   1.7806E-02   1.0751E-04  0.1468
   1.7806E-02   1.8239E-02   1.0156E-04  0.1508
   1.8239E-02   1.8683E-02   1.0887E-04  0.1435
   1.8683E-02   1.9138E-02   9.0859E-05  0.1542
   1.9138E-02   1.9603E-02   9.0200E-05  0.1543
   1.9603E-02   2.0080E-02   8.9106E-05  0.1529
   2.0080E-02   2.0569E-02   5.6287E-05  0.1898
   2.0569E-02   2.1069E-02   9.1543E-05  0.1469
   2.1069E-02   2.1582E-02   7.6733E-05  0.1568
   2.1582E-02   2.2107E-02   9.6172E-05  0.1397
   2.2107E-02   2.2645E-02   7.7427E-05  0.1543
   2.2645E-02   2.3196E-02   1.0856E-04  0.1287
   2.3196E-02   2.3760E-02   9.7826E-05  0.1344
   2.3760E-02   2.4338E-02   8.9950E-05  0.1387
   2.4338E-02   2.4930E-02   6.2761E-05  0.1637
   2.4930E-02   2.5537E-02   5.6877E-05  0.1684
   2.5537E-02   2.6158E-02   6.7329E-05  0.1536
   2.6158E-02   2.6795E-02   5.2062E-05  0.1734
   2.6795E-02   2.7447E-02   5.7208E-05  0.1621
   2.7447E-02   2.8114E-02   8.2360E-05  0.1348
   2.8114E-02   2.8799E-02   7.8942E-05  0.1361
   2.8799E-02   2.9499E-02   5.8478E-05  0.1550
   2.9499E-02   3.0217E-02   6.3149E-05  0.1473
   3.0217E-02   3.0952E-02   5.5087E-05  0.1566
   3.0952E-02   3.1705E-02   4.8467E-05  0.1638
   3.1705E-02   3.2477E-02   5.1382E-05  0.1581
   3.2477E-02   3.3267E-02   3.7110E-05  0.1838
   3.3267E-02   3.4076E-02   5.0654E-05  0.1552
   3.4076E-02   3.4905E-02   6.3925E-05  0.1374
   3.4905E-02   3.5755E-02   5.1809E-05  0.1508
   3.5755E-02   3.6625E-02   5.3640E-05  0.1458
   3.6625E-02   3.7516E-02   3.7033E-05  0.1741
   3.7516E-02   3.8428E-02   4.3577E-05  0.1576
   3.8428E-02   3.9363E-02   3.1846E-05  0.1818
   3.9363E-02   4.0321E-02   5.0118E-05  0.1436
   4.0321E-02   4.1302E-02   4.8590E-05  0.1435
   4.1302E-02   4.2307E-02   4.2248E-05  0.1519
   4.2307E-02   4.3337E-02   4.2909E-05  0.1502
   4.3337E-02   4.4391E-02   4.6885E-05  0.1410
   4.4391E-02   4.5471E-02   4.1644E-05  0.1472
   4.5471E-02   4.6577E-02   3.9721E-05  0.1498
   4.6577E-02   4.7711E-02   4.4261E-05  0.1403
   4.7711E-02   4.8871E-02   5.0537E-05  0.1301
   4.8871E-02   5.0061E-02   3.4710E-05  0.1552
   5.0061E-02   5.1279E-02   3.2126E-05  0.1576
   5.1279E-02   5.2526E-02   3.3263E-05  0.1548
   5.2526E-02   5.3804E-02   3.9667E-05  0.1399
   5.3804E-02   5.5113E-02   2.8264E-05  0.1633
   5.5113E-02   5.6454E-02   2.6474E-05  0.1672
   5.6454E-02   5.7828E-02   2.1338E-05  0.1818
   5.7828E-02   5.9235E-02   3.3878E-05  0.1443
   5.9235E-02   6.0676E-02   3.2264E-05  0.1455
   6.0676E-02   6.2152E-02   2.7861E-05  0.1525
   6.2152E-02   6.3665E-02   2.7113E-05  0.1562
   6.3665E-02   6.5214E-02   2.4072E-05  0.1621
   6.5214E-02   6.6800E-02   3.4223E-05  0.1354
   6.6800E-02   6.8426E-02   2.8307E-05  0.1464
   6.8426E-02   7.0090E-02   3.2544E-05  0.1357
   7.0090E-02   7.1796E-02   2.5060E-05  0.1518
   7.1796E-02   7.3543E-02   2.5638E-05  0.1486
   7.3543E-02   7.5332E-02   2.8572E-05  0.1397
   7.5332E-02   7.7165E-02   2.5271E-05  0.1465
   7.7165E-02   7.9042E-02   2.5192E-05  0.1450
   7.9042E-02   8.0965E-02   2.6159E-05  0.1399
   8.0965E-02   8.2935E-02   2.3496E-05  0.1466
   8.2935E-02   8.4953E-02   2.5852E-05  0.1376
   8.4953E-02   8.7020E-02   2.8157E-05  0.1303
   8.7020E-02   8.9138E-02   2.3224E-05  0.1417
   8.9138E-02   9.1306E-02   2.5663E-05  0.1336
   9.1306E-02   9.3528E-02   2.3857E-05  0.1374
   9.3528E-02   9.5804E-02   2.6213E-05  0.1291
   9.5804E-02   9.8134E-02   2.3166E-05  0.1355
   9.8134E-02   1.0052E-01   2.6098E-05  0.1259
   1.0052E-01   1.0297E-01   2.3510E-05  0.1310
   1.0297E-01   1.0547E-01   1.5966E-05  0.1571
   1.0547E-01   1.0804E-01   2.1939E-05  0.1330
   1.0804E-01   1.1067E-01   1.8590E-05  0.1415
   1.1067E-01   1.1336E-01   1.6075E-05  0.1516
   1.1336E-01   1.1612E-01   1.5713E-05  0.1505
   1.1612E-01   1.1894E-01   1.6340E-05  0.1454
   1.1894E-01   1.2184E-01   1.7715E-05  0.1393
   1.2184E-01   1.2480E-01   1.5738E-05  0.1458
   1.2480E-01   1.2784E-01   1.6409E-05  0.1409
   1.2784E-01   1.3095E-01   1.7413E-05  0.1357
   1.3095E-01   1.3414E-01   1.6431E-05  0.1378
   1.3414E-01   1.3740E-01   1.2649E-05  0.1552
   1.3740E-01   1.4074E-01   1.7990E-05  0.1277
   1.4074E-01   1.4417E-01   1.6042E-05  0.1335
   1.4417E-01   1.4767E-01   1.5670E-05  0.1335
   1.4767E-01   1.5127E-01   1.3224E-05  0.1429
   1.5127E-01   1.5495E-01   1.5019E-05  0.1336
   1.5495E-01   1.5872E-01   1.2512E-05  0.1446
   1.5872E-01   1.6258E-01   1.4465E-05  0.1331
   1.6258E-01   1.6654E-01   1.6599E-05  0.1226
   1.6654E-01   1.7059E-01   1.1139E-05  0.1487
   1.7059E-01   1.7474E-01   1.1277E-05  0.1446
   1.7474E-01   1.7899E-01   1.5868E-05  0.1209
   1.7899E-01   1.8334E-01   1.4311E-05  0.1259
   1.8334E-01   1.8781E-01   1.3267E-05  0.1298
   1.8781E-01   1.9237E-01   1.1927E-05  0.1351
   1.9237E-01   1.9706E-01   1.0440E-05  0.1422
   1.9706E-01   2.0185E-01   1.2837E-05  0.1260
   2.0185E-01   2.0676E-01   1.2348E-05  0.1280
   2.0676E-01   2.1179E-01   1.2851E-05  0.1240
   2.1179E-01   2.1694E-01   1.2698E-05  0.1223
   2.1694E-01   2.2222E-01   1.5572E-05  0.1095
   2.2222E-01   2.2763E-01   1.3374E-05  0.1170
   2.2763E-01   2.3317E-01   1.5648E-05  0.1071
   2.3317E-01   2.3884E-01   1.5673E-05  0.1054
   2.3884E-01   2.4465E-01   1.6303E-05  0.1019
   2.4465E-01   2.5061E-01   1.8723E-05  0.0946
   2.5061E-01   2.5670E-01   1.9540E-05  0.0912
   2.5670E-01   2.6295E-01   1.7692E-05  0.0946
   2.6295E-01   2.6935E-01   1.8047E-05  0.0925
   2.6935E-01   2.7590E-01   2.2430E-05  0.0820
   2.7590E-01   2.8261E-01   1.9507E-05  0.0870
   2.8261E-01   2.8949E-01   1.9207E-05  0.0866
   2.8949E-01   2.9653E-01   2.1933E-05  0.0801
   2.9653E-01   3.0375E-01   2.2374E-05  0.0782
   3.0375E-01   3.1114E-01   2.3069E-05  0.0759
   3.1114E-01   3.1871E-01   2.5955E-05  0.0710
   3.1871E-01   3.2646E-01   2.4941E-05  0.0714
   3.2646E-01   3.3441E-01   2.6256E-05  0.0688
   3.3441E-01   3.4254E-01   2.5040E-05  0.0697
   3.4254E-01   3.5088E-01   2.6279E-05  0.0673
   3.5088E-01   3.5941E-01   2.6257E-05  0.0663
   3.5941E-01   3.6816E-01   2.3717E-05  0.0687
   3.6816E-01   3.7712E-01   2.7637E-05  0.0631
   3.7712E-01   3.8629E-01   2.7812E-05  0.0622
   3.8629E-01   3.9569E-01   3.1798E-05  0.0576
   3.9569E-01   4.0532E-01   2.9056E-05  0.0595
   4.0532E-01   4.1518E-01   2.8297E-05  0.0596
   4.1518E-01   4.2528E-01   3.0977E-05  0.0562
   4.2528E-01   4.3563E-01   3.0888E-05  0.0557
   4.3563E-01   4.4623E-01   3.5574E-05  0.0513
   4.4623E-01   4.5708E-01   3.4359E-05  0.0515
   4.5708E-01   4.6821E-01   3.2869E-05  0.0521
   4.6821E-01   4.7960E-01   3.2600E-05  0.0517
   4.7960E-01   4.9127E-01   3.6819E-05  0.0480
   4.9127E-01   5.0322E-01   3.5110E-05  0.0484
   5.0322E-01   5.1546E-01   3.2899E-05  0.0496
   5.1546E-01   5.2800E-01   3.4157E-05  0.0480
   5.2800E-01   5.4085E-01   3.9158E-05  0.0442
   5.4085E-01   5.5401E-01   3.6634E-05  0.0453
   5.5401E-01   5.6749E-01   3.6705E-05  0.0447
   5.6749E-01   5.8130E-01   3.7895E-05  0.0435
   5.8130E-01   5.9544E-01   3.7074E-05  0.0435
   5.9544E-01   6.0993E-01   3.5539E-05  0.0438
   6.0993E-01   6.2477E-01   3.6068E-05  0.0430
   6.2477E-01   6.3997E-01   3.7038E-05  0.0419
   6.3997E-01   6.5554E-01   3.8129E-05  0.0407
   6.5554E-01   6.7149E-01   3.5720E-05  0.0417
   6.7149E-01   6.8783E-01   3.4299E-05  0.0420
   6.8783E-01   7.0456E-01   4.0462E-05  0.0382
   7.0456E-01   7.2171E-01   3.6205E-05  0.0400
   7.2171E-01   7.3927E-01   3.6127E-05  0.0394
   7.3927E-01   7.5725E-01   3.7152E-05  0.0385
   7.5725E-01   7.7568E-01   3.7366E-05  0.0379
   7.7568E-01   7.9455E-01   3.3370E-05  0.0397
   7.9455E-01   8.1388E-01   3.3013E-05  0.0394
   8.1388E-01   8.3368E-01   3.3036E-05  0.0388
   8.3368E-01   8.5397E-01   3.3865E-05  0.0379
   8.5397E-01   8.7475E-01   3.2421E-05  0.0383
   8.7475E-01   8.9603E-01   3.3462E-05  0.0372
   8.9603E-01   9.1783E-01   3.0988E-05  0.0382
   9.1783E-01   9.4016E-01   3.2379E-05  0.0370
   9.4016E-01   9.6304E-01   3.0113E-05  0.0378
   9.6304E-01   9.8647E-01   3.1804E-05  0.0364
   9.8647E-01   1.0105E+00   3.1181E-05  0.0363
   1.0105E+00   1.0351E+00   3.2503E-05  0.0352
   1.0351E+00   1.0602E+00   3.1649E-05  0.0352
   1.0602E+00   1.0860E+00   3.3856E-05  0.0337
   1.0860E+00   1.1125E+00   3.3774E-05  0.0333
   1.1125E+00   1.1395E+00   3.8754E-05  0.0307
   1.1395E+00   1.1673E+00   3.9247E-05  0.0301
   1.1673E+00   1.1957E+00   3.9620E-05  0.0296
   1.1957E+00   1.2247E+00   4.0124E-05  0.0291
   1.2247E+00   1.2545E+00   4.3677E-05  0.0275
   1.2545E+00   1.2851E+00   4.5119E-05  0.0268
   1.2851E+00   1.3163E+00   4.6477E-05  0.0261
   1.3163E+00   1.3484E+00   4.5966E-05  0.0259
   1.3484E+00   1.3812E+00   4.8105E-05  0.0250
   1.3812E+00   1.4148E+00   5.1163E-05  0.0240
   1.4148E+00   1.4492E+00   5.2493E-05  0.0234
   1.4492E+00   1.4845E+00   5.3282E-05  0.0229
   1.4845E+00   1.5206E+00   5.4181E-05  0.0225
   1.5206E+00   1.5576E+00   5.4866E-05  0.0220
   1.5576E+00   1.5955E+00   5.7320E-05  0.0213
   1.5955E+00   1.6343E+00   5.6274E-05  0.0213
   1.6343E+00   1.6741E+00   5.9181E-05  0.0205
   1.6741E+00   1.7148E+00   6.0074E-05  0.0201
   1.7148E+00   1.7565E+00   5.8509E-05  0.0201
   1.7565E+00   1.7992E+00   6.3302E-05  0.0191
   1.7992E+00   1.8430E+00   6.2579E-05  0.0190
   1.8430E+00   1.8879E+00   6.2145E-05  0.0188
   1.8879E+00   1.9338E+00   6.3009E-05  0.0185
   1.9338E+00   1.9808E+00   6.2885E-05  0.0183
   1.9808E+00   2.0290E+00   6.3256E-05  0.0180
   2.0290E+00   2.0784E+00   6.6019E-05  0.0174
   2.0784E+00   2.1290E+00   6.5267E-05  0.0173
   2.1290E+00   2.1808E+00   6.5454E-05  0.0171
   2.1808E+00   2.2338E+00   6.4424E-05  0.0170
   2.2338E+00   2.2882E+00   6.4574E-05  0.0168
   2.2882E+00   2.3439E+00   6.5081E-05  0.0165
   2.3439E+00   2.4009E+00   6.5308E-05  0.0163
   2.4009E+00   2.4593E+00   6.5582E-05  0.0161
   2.4593E+00   2.5191E+00   6.4854E-05  0.0159
   2.5191E+00   2.5804E+00   6.4921E-05  0.0157
   2.5804E+00   2.6432E+00   6.0728E-05  0.0161
   2.6432E+00   2.7075E+00   6.2012E-05  0.0157
   2.7075E+00   2.7734E+00   6.1032E-05  0.0157
   2.7734E+00   2.8409E+00   5.9832E-05  0.0156
   2.8409E+00   2.9100E+00   5.7675E-05  0.0157
   2.9100E+00   2.9808E+00   6.0794E-05  0.0151
   2.9808E+00   3.0533E+00   5.9280E-05  0.0151
   3.0533E+00   3.1276E+00   5.6616E-05  0.0153
   3.1276E+00   3.2037E+00   5.8049E-05  0.0149
   3.2037E+00   3.2817E+00   5.6310E-05  0.0150
   3.2817E+00   3.3615E+00   5.5773E-05  0.0149
   3.3615E+00   3.4433E+00   5.3966E-05  0.0149
   3.4433E+00   3.5271E+00   5.3225E-05  0.0149
   3.5271E+00   3.6129E+00   5.2924E-05  0.0147
   3.6129E+00   3.7008E+00   5.2970E-05  0.0146
   3.7008E+00   3.7908E+00   5.0336E-05  0.0148
   3.7908E+00   3.8831E+00   5.2035E-05  0.0143
   3.8831E+00   3.9776E+00   4.9239E-05  0.0146
   3.9776E+00   4.0743E+00   4.7697E-05  0.0146
   4.0743E+00   4.1735E+00   4.7833E-05  0.0144
   4.1735E+00   4.2750E+00   4.5885E-05  0.0146
   4.2750E+00   4.3790E+00   4.3878E-05  0.0147
   4.3790E+00   4.4856E+00   4.2502E-05  0.0148
   4.4856E+00   4.5947E+00   4.1617E-05  0.0148
   4.5947E+00   4.7065E+00   4.1317E-05  0.0146
   4.7065E+00   4.8210E+00   3.8866E-05  0.0149
   4.8210E+00   4.9383E+00   3.7461E-05  0.0150
   4.9383E+00   5.0585E+00   3.4718E-05  0.0154
   5.0585E+00   5.1815E+00   3.3351E-05  0.0155
   5.1815E+00   5.3076E+00   3.0630E-05  0.0160
   5.3076E+00   5.4368E+00   3.0407E-05  0.0159
   5.4368E+00   5.5690E+00   2.7593E-05  0.0165
   5.5690E+00   5.7045E+00   2.7076E-05  0.0164
   5.7045E+00   5.8433E+00   2.5668E-05  0.0167
   5.8433E+00   5.9855E+00   2.4230E-05  0.0169
   5.9855E+00   6.1311E+00   2.3402E-05  0.0170
   6.1311E+00   6.2803E+00   2.1461E-05  0.0176
   6.2803E+00   6.4331E+00   2.0761E-05  0.0176
   6.4331E+00   6.5896E+00   2.0081E-05  0.0177
   6.5896E+00   6.7500E+00   1.9087E-05  0.0180
   6.7500E+00   6.9142E+00   1.8357E-05  0.0181
   6.9142E+00   7.0824E+00   1.7629E-05  0.0183
   7.0824E+00   7.2548E+00   1.6593E-05  0.0186
   7.2548E+00   7.4313E+00   1.5919E-05  0.0188
   7.4313E+00   7.6121E+00   1.5567E-05  0.0188
   7.6121E+00   7.7973E+00   1.4381E-05  0.0193
   7.7973E+00   7.9870E+00   1.3790E-05  0.0195
   7.9870E+00   8.1813E+00   1.3205E-05  0.0197
   8.1813E+00   8.3804E+00   1.2348E-05  0.0201
   8.3804E+00   8.5843E+00   1.2510E-05  0.0197
   8.5843E+00   8.7931E+00   1.1680E-05  0.0202
   8.7931E+00   9.0071E+00   1.1100E-05  0.0204
   9.0071E+00   9.2262E+00   1.0337E-05  0.0209
   9.2262E+00   9.4507E+00   1.0341E-05  0.0207
   9.4507E+00   9.6807E+00   9.4626E-06  0.0214
   9.6807E+00   9.9162E+00   9.2471E-06  0.0214
   9.9162E+00   1.0157E+01   8.9459E-06  0.0215
   1.0157E+01   1.0405E+01   8.6886E-06  0.0215
   1.0405E+01   1.0658E+01   8.9035E-06  0.0210
   1.0658E+01   1.0917E+01   8.8044E-06  0.0209
   1.0917E+01   1.1183E+01   8.2350E-06  0.0214
   1.1183E+01   1.1455E+01   7.6841E-06  0.0218
   1.1455E+01   1.1733E+01   7.3393E-06  0.0221
   1.1733E+01   1.2019E+01   7.4992E-06  0.0216
   1.2019E+01   1.2311E+01   7.1192E-06  0.0219
   1.2311E+01   1.2611E+01   6.4726E-06  0.0227
   1.2611E+01   1.2918E+01   5.7046E-06  0.0239
   1.2918E+01   1.3232E+01   5.8693E-06  0.0232
   1.3232E+01   1.3554E+01   5.6531E-06  0.0234
   1.3554E+01   1.3884E+01   5.3273E-06  0.0238
   1.3884E+01   1.4222E+01   5.0354E-06  0.0242
   1.4222E+01   1.4568E+01   4.5946E-06  0.0251
   1.4568E+01   1.4922E+01   4.1208E-06  0.0261
   1.4922E+01   1.5285E+01   3.8296E-06  0.0268
   1.5285E+01   1.5657E+01   3.5858E-06  0.0274
   1.5657E+01   1.6038E+01   3.2070E-06  0.0286
   1.6038E+01   1.6428E+01   3.0501E-06  0.0290
   1.6428E+01   1.6828E+01   2.8680E-06  0.0295
   1.6828E+01   1.7237E+01   2.6704E-06  0.0302
   1.7237E+01   1.7657E+01   2.5828E-06  0.0304
   1.7657E+01   1.8086E+01   2.2696E-06  0.0320
   1.8086E+01   1.8526E+01   2.2278E-06  0.0319
   1.8526E+01   1.8977E+01   2.1674E-06  0.0320
   1.8977E+01   1.9439E+01   1.9080E-06  0.0337
   1.9439E+01   1.9912E+01   1.9159E-06  0.0332
   1.9912E+01   2.0396E+01   1.9031E-06  0.0329
   2.0396E+01   2.0893E+01   1.8841E-06  0.0327
   2.0893E+01   2.1401E+01   1.6092E-06  0.0350
   2.1401E+01   2.1922E+01   1.6017E-06  0.0346
   2.1922E+01   2.2455E+01   1.3930E-06  0.0367
   2.2455E+01   2.3001E+01   1.1641E-06  0.0397
   2.3001E+01   2.3561E+01   8.8271E-07  0.0450
   2.3561E+01   2.4134E+01   7.5708E-07  0.0480
   2.4134E+01   2.4721E+01   5.1260E-07  0.0576
   2.4721E+01   2.5323E+01   3.5744E-07  0.0682
   2.5323E+01   2.5939E+01   1.9963E-07  0.0902
   2.5939E+01   2.6570E+01   5.2288E-08  0.1741
   2.6570E+01   2.7217E+01   3.2484E-08  0.2182
   2.7217E+01   2.7879E+01   1.8121E-08  0.2887
   2.7879E+01   2.8557E+01   7.3712E-09  0.4472
   2.8557E+01   2.9252E+01   2.8784E-09  0.7071
   2.9252E+01   2.9964E+01   0.0000E+00  0.0000
   2.9964E+01   3.0693E+01   0.0000E+00  0.0000
   3.0693E+01   3.1440E+01   0.0000E+00  0.0000
   3.1440E+01   3.2205E+01   0.0000E+00  0.0000
   3.2205E+01   3.2988E+01   0.0000E+00  0.0000
   3.2988E+01   3.3791E+01   0.0000E+00  0.0000
   3.3791E+01   3.4613E+01   0.0000E+00  0.0000
   3.4613E+01   3.5455E+01   0.0000E+00  0.0000
   3.5455E+01   3.6318E+01   0.0000E+00  0.0000
   3.6318E+01   3.7201E+01   0.0000E+00  0.0000
   3.7201E+01   3.8106E+01   0.0000E+00  0.0000
   3.8106E+01   3.9034E+01   0.0000E+00  0.0000
   3.9034E+01   3.9983E+01   0.0000E+00  0.0000
   3.9983E+01   4.0956E+01   0.0000E+00  0.0000
   4.0956E+01   4.1953E+01   0.0000E+00  0.0000
   4.1953E+01   4.2973E+01   0.0000E+00  0.0000
   4.2973E+01   4.4019E+01   0.0000E+00  0.0000
   4.4019E+01   4.5090E+01   0.0000E+00  0.0000
   4.5090E+01   4.6187E+01   0.0000E+00  0.0000
   4.6187E+01   4.7311E+01   0.0000E+00  0.0000
   4.7311E+01   4.8462E+01   0.0000E+00  0.0000
   4.8462E+01   4.9641E+01   0.0000E+00  0.0000
   4.9641E+01   5.0849E+01   0.0000E+00  0.0000
   5.0849E+01   5.2086E+01   0.0000E+00  0.0000
   5.2086E+01   5.3353E+01   0.0000E+00  0.0000
   5.3353E+01   5.4651E+01   0.0000E+00  0.0000
   5.4651E+01   5.5981E+01   0.0000E+00  0.0000
   5.5981E+01   5.7343E+01   0.0000E+00  0.0000
   5.7343E+01   5.8738E+01   0.0000E+00  0.0000
   5.8738E+01   6.0168E+01   0.0000E+00  0.0000
   6.0168E+01   6.1632E+01   0.0000E+00  0.0000
   6.1632E+01   6.3131E+01   0.0000E+00  0.0000
   6.3131E+01   6.4667E+01   0.0000E+00  0.0000
   6.4667E+01   6.6240E+01   0.0000E+00  0.0000
   6.6240E+01   6.7852E+01   0.0000E+00  0.0000
   6.7852E+01   6.9503E+01   0.0000E+00  0.0000
   6.9503E+01   7.1194E+01   0.0000E+00  0.0000
   7.1194E+01   7.2926E+01   0.0000E+00  0.0000
   7.2926E+01   7.4701E+01   0.0000E+00  0.0000
   7.4701E+01   7.6518E+01   0.0000E+00  0.0000
   7.6518E+01   7.8380E+01   0.0000E+00  0.0000
   7.8380E+01   8.0287E+01   0.0000E+00  0.0000
   8.0287E+01   8.2240E+01   0.0000E+00  0.0000
   8.2240E+01   8.4241E+01   0.0000E+00  0.0000
   8.4241E+01   8.6291E+01   0.0000E+00  0.0000
   8.6291E+01   8.8391E+01   0.0000E+00  0.0000
   8.8391E+01   9.0541E+01   0.0000E+00  0.0000
   9.0541E+01   9.2744E+01   0.0000E+00  0.0000
   9.2744E+01   9.5001E+01   0.0000E+00  0.0000
   9.5001E+01   9.7312E+01   0.0000E+00  0.0000
   9.7312E+01   9.9680E+01   0.0000E+00  0.0000
   9.9680E+01   1.0211E+02   0.0000E+00  0.0000
   1.0211E+02   1.0459E+02   0.0000E+00  0.0000
   1.0459E+02   1.0713E+02   0.0000E+00  0.0000
   1.0713E+02   1.0974E+02   0.0000E+00  0.0000
   1.0974E+02   1.1241E+02   0.0000E+00  0.0000
   1.1241E+02   1.1515E+02   0.0000E+00  0.0000
   1.1515E+02   1.1795E+02   0.0000E+00  0.0000
   1.1795E+02   1.2082E+02   0.0000E+00  0.0000
   1.2082E+02   1.2376E+02   0.0000E+00  0.0000
   1.2376E+02   1.2677E+02   0.0000E+00  0.0000
   1.2677E+02   1.2985E+02   0.0000E+00  0.0000
   1.2985E+02   1.3301E+02   0.0000E+00  0.0000
   1.3301E+02   1.3625E+02   0.0000E+00  0.0000
   1.3625E+02   1.3956E+02   0.0000E+00  0.0000
   1.3956E+02   1.4296E+02   0.0000E+00  0.0000
   1.4296E+02   1.4644E+02   0.0000E+00  0.0000
   1.4644E+02   1.5000E+02   0.0000E+00  0.0000

#   sum over                 2.5308E-06
'no. =    1   reg = 113 - 213'
msuc: {\huge [t-cross] in region mesh}
msdr: {\it plotted by \ANGEL \version}
msdl: {\it calculated by \PHITS  3.26}
wt: s(0.7)
\vspace{-3}
  region surface crossing
  area  &=&   1.0000E+00 [cm^2]
e:
 
# Information for Restart Calculation
# This calculation was newly started
# istdev =  2 # 1:Batch variance, 2:History variance
# resc2  = 1.00000000000000000E+09 # Total source weight or Total source weight / maxcas
# resc3  = 1.00000000000000000E+09 # Total history number or Total batch number
# maxcas =   500000000 # History / Batch, only used for istdev=1
# bitrseed = 0001001110011001001001110000100100110111001111011100001000101100 # bit data of rseed
