[ T-Cross ]
    title = [t-cross] in region mesh
     mesh =  reg            # mesh type is region-wise
      reg =    1            # number of crossing regions
      non     r-from    r-to       area
      1       120       220        1.000000    
   e-type =    3            # e-mesh is log given by emin, emax and ne
     emin =  1.0000000E-02  # minimum value of e-mesh points
     emax =   150.0000      # maximum value of e-mesh points
#    edel =  2.4039514E-02  # mesh width of e-mesh points
       ne =    400          # number of e-mesh points
#    data = ( e(i), i = 1, ne + 1 )
#           1.00000E-02  1.02433E-02  1.04925E-02  1.07478E-02  1.10093E-02
#           1.12772E-02  1.15516E-02  1.18326E-02  1.21205E-02  1.24154E-02
#           1.27175E-02  1.30269E-02  1.33439E-02  1.36686E-02  1.40011E-02
#           1.43418E-02  1.46907E-02  1.50482E-02  1.54143E-02  1.57894E-02
#           1.61735E-02  1.65670E-02  1.69701E-02  1.73830E-02  1.78060E-02
#           1.82392E-02  1.86830E-02  1.91375E-02  1.96032E-02  2.00801E-02
#           2.05687E-02  2.10692E-02  2.15818E-02  2.21069E-02  2.26448E-02
#           2.31957E-02  2.37601E-02  2.43382E-02  2.49304E-02  2.55369E-02
#           2.61583E-02  2.67947E-02  2.74467E-02  2.81145E-02  2.87985E-02
#           2.94992E-02  3.02169E-02  3.09521E-02  3.17052E-02  3.24766E-02
#           3.32668E-02  3.40762E-02  3.49053E-02  3.57546E-02  3.66246E-02
#           3.75157E-02  3.84284E-02  3.93634E-02  4.03212E-02  4.13022E-02
#           4.23071E-02  4.33365E-02  4.43909E-02  4.54710E-02  4.65773E-02
#           4.77106E-02  4.88714E-02  5.00605E-02  5.12785E-02  5.25262E-02
#           5.38042E-02  5.51133E-02  5.64542E-02  5.78278E-02  5.92348E-02
#           6.06760E-02  6.21523E-02  6.36645E-02  6.52135E-02  6.68002E-02
#           6.84255E-02  7.00904E-02  7.17957E-02  7.35426E-02  7.53319E-02
#           7.71648E-02  7.90423E-02  8.09655E-02  8.29354E-02  8.49533E-02
#           8.70203E-02  8.91376E-02  9.13064E-02  9.35279E-02  9.58035E-02
#           9.81345E-02  1.00522E-01  1.02968E-01  1.05473E-01  1.08040E-01
#           1.10668E-01  1.13361E-01  1.16119E-01  1.18944E-01  1.21838E-01
#           1.24803E-01  1.27839E-01  1.30950E-01  1.34136E-01  1.37399E-01
#           1.40742E-01  1.44167E-01  1.47675E-01  1.51268E-01  1.54948E-01
#           1.58718E-01  1.62580E-01  1.66535E-01  1.70587E-01  1.74738E-01
#           1.78989E-01  1.83344E-01  1.87805E-01  1.92375E-01  1.97055E-01
#           2.01850E-01  2.06761E-01  2.11792E-01  2.16945E-01  2.22223E-01
#           2.27630E-01  2.33169E-01  2.38842E-01  2.44653E-01  2.50605E-01
#           2.56703E-01  2.62949E-01  2.69346E-01  2.75900E-01  2.82613E-01
#           2.89489E-01  2.96532E-01  3.03747E-01  3.11138E-01  3.18708E-01
#           3.26462E-01  3.34405E-01  3.42542E-01  3.50876E-01  3.59413E-01
#           3.68158E-01  3.77116E-01  3.86291E-01  3.95690E-01  4.05317E-01
#           4.15179E-01  4.25281E-01  4.35628E-01  4.46227E-01  4.57084E-01
#           4.68205E-01  4.79597E-01  4.91266E-01  5.03219E-01  5.15463E-01
#           5.28005E-01  5.40851E-01  5.54011E-01  5.67490E-01  5.81298E-01
#           5.95441E-01  6.09929E-01  6.24769E-01  6.39970E-01  6.55541E-01
#           6.71491E-01  6.87828E-01  7.04564E-01  7.21706E-01  7.39266E-01
#           7.57253E-01  7.75678E-01  7.94551E-01  8.13883E-01  8.33685E-01
#           8.53969E-01  8.74747E-01  8.96030E-01  9.17831E-01  9.40163E-01
#           9.63038E-01  9.86469E-01  1.01047E+00  1.03506E+00  1.06024E+00
#           1.08604E+00  1.11246E+00  1.13953E+00  1.16725E+00  1.19565E+00
#           1.22474E+00  1.25454E+00  1.28507E+00  1.31633E+00  1.34836E+00
#           1.38117E+00  1.41477E+00  1.44920E+00  1.48446E+00  1.52057E+00
#           1.55757E+00  1.59547E+00  1.63429E+00  1.67405E+00  1.71478E+00
#           1.75650E+00  1.79924E+00  1.84302E+00  1.88786E+00  1.93379E+00
#           1.98084E+00  2.02904E+00  2.07841E+00  2.12898E+00  2.18078E+00
#           2.23384E+00  2.28819E+00  2.34386E+00  2.40089E+00  2.45930E+00
#           2.51914E+00  2.58043E+00  2.64322E+00  2.70753E+00  2.77341E+00
#           2.84088E+00  2.91001E+00  2.98081E+00  3.05333E+00  3.12762E+00
#           3.20372E+00  3.28167E+00  3.36152E+00  3.44330E+00  3.52708E+00
#           3.61290E+00  3.70080E+00  3.79085E+00  3.88308E+00  3.97756E+00
#           4.07434E+00  4.17347E+00  4.27501E+00  4.37903E+00  4.48557E+00
#           4.59471E+00  4.70650E+00  4.82102E+00  4.93832E+00  5.05847E+00
#           5.18155E+00  5.30762E+00  5.43676E+00  5.56904E+00  5.70453E+00
#           5.84333E+00  5.98550E+00  6.13114E+00  6.28031E+00  6.43312E+00
#           6.58964E+00  6.74997E+00  6.91420E+00  7.08243E+00  7.25475E+00
#           7.43126E+00  7.61207E+00  7.79728E+00  7.98700E+00  8.18133E+00
#           8.38038E+00  8.58428E+00  8.79315E+00  9.00709E+00  9.22624E+00
#           9.45072E+00  9.68067E+00  9.91620E+00  1.01575E+01  1.04046E+01
#           1.06578E+01  1.09171E+01  1.11827E+01  1.14548E+01  1.17335E+01
#           1.20190E+01  1.23114E+01  1.26109E+01  1.29178E+01  1.32321E+01
#           1.35540E+01  1.38838E+01  1.42216E+01  1.45676E+01  1.49221E+01
#           1.52851E+01  1.56570E+01  1.60380E+01  1.64282E+01  1.68279E+01
#           1.72374E+01  1.76568E+01  1.80864E+01  1.85264E+01  1.89772E+01
#           1.94389E+01  1.99119E+01  2.03963E+01  2.08926E+01  2.14009E+01
#           2.19216E+01  2.24550E+01  2.30014E+01  2.35610E+01  2.41343E+01
#           2.47215E+01  2.53230E+01  2.59391E+01  2.65702E+01  2.72167E+01
#           2.78789E+01  2.85572E+01  2.92520E+01  2.99637E+01  3.06928E+01
#           3.14396E+01  3.22045E+01  3.29881E+01  3.37907E+01  3.46128E+01
#           3.54550E+01  3.63177E+01  3.72013E+01  3.81064E+01  3.90336E+01
#           3.99833E+01  4.09561E+01  4.19526E+01  4.29734E+01  4.40189E+01
#           4.50900E+01  4.61870E+01  4.73108E+01  4.84619E+01  4.96410E+01
#           5.08488E+01  5.20860E+01  5.33533E+01  5.46514E+01  5.59812E+01
#           5.73432E+01  5.87384E+01  6.01676E+01  6.16315E+01  6.31311E+01
#           6.46671E+01  6.62405E+01  6.78522E+01  6.95031E+01  7.11941E+01
#           7.29263E+01  7.47007E+01  7.65182E+01  7.83800E+01  8.02870E+01
#           8.22405E+01  8.42414E+01  8.62911E+01  8.83906E+01  9.05412E+01
#           9.27442E+01  9.50007E+01  9.73122E+01  9.96799E+01  1.02105E+02
#           1.04589E+02  1.07134E+02  1.09741E+02  1.12411E+02  1.15146E+02
#           1.17948E+02  1.20817E+02  1.23757E+02  1.26768E+02  1.29852E+02
#           1.33012E+02  1.36248E+02  1.39563E+02  1.42959E+02  1.46437E+02
#           1.50000E+02
     unit =    2            # unit is [1/cm^2/(MeV/n)/source]
     axis =  eng            # axis of output
     file = detector-21.out  # file name of output for the above axis
   output = f-curr          # surface crossing forward current spectrum
     part =  neutron  
# kf/name :  2112     
#    used :        main (  %)        temp (  %)       total (  %)
#  memory :         414 (  0)           0 (  0)         414 (  0)

#------------------------------------------------------------------------------
#newpage:
#   no. =    1   reg = 120 - 220

x: Energy [MeV/n]
y:  F-Curr [1/cm^2/(MeV/n)/source]         
p: xlog ylog afac(0.8) form(0.9)
h: n            x            y(neutron ),hh0l   n 
#  e-lower      e-upper      neutron     r.err 
   1.0000E-02   1.0243E-02   1.2022E-03  0.0584
   1.0243E-02   1.0493E-02   1.0718E-03  0.0611
   1.0493E-02   1.0748E-02   1.0373E-03  0.0614
   1.0748E-02   1.1009E-02   1.0956E-03  0.0590
   1.1009E-02   1.1277E-02   9.2210E-04  0.0636
   1.1277E-02   1.1552E-02   1.1486E-03  0.0563
   1.1552E-02   1.1833E-02   1.1298E-03  0.0561
   1.1833E-02   1.2121E-02   1.1369E-03  0.0553
   1.2121E-02   1.2415E-02   9.7715E-04  0.0589
   1.2415E-02   1.2718E-02   9.8747E-04  0.0579
   1.2718E-02   1.3027E-02   1.0857E-03  0.0545
   1.3027E-02   1.3344E-02   1.1489E-03  0.0524
   1.3344E-02   1.3669E-02   9.4558E-04  0.0571
   1.3669E-02   1.4001E-02   1.0469E-03  0.0535
   1.4001E-02   1.4342E-02   1.0153E-03  0.0537
   1.4342E-02   1.4691E-02   9.8774E-04  0.0538
   1.4691E-02   1.5048E-02   9.8563E-04  0.0533
   1.5048E-02   1.5414E-02   8.8583E-04  0.0555
   1.5414E-02   1.5789E-02   1.0174E-03  0.0512
   1.5789E-02   1.6174E-02   8.3037E-04  0.0559
   1.6174E-02   1.6567E-02   9.5494E-04  0.0515
   1.6567E-02   1.6970E-02   9.7145E-04  0.0505
   1.6970E-02   1.7383E-02   9.6154E-04  0.0501
   1.7383E-02   1.7806E-02   8.2480E-04  0.0535
   1.7806E-02   1.8239E-02   8.4552E-04  0.0522
   1.8239E-02   1.8683E-02   9.1196E-04  0.0497
   1.8683E-02   1.9138E-02   9.9905E-04  0.0469
   1.9138E-02   1.9603E-02   8.5115E-04  0.0502
   1.9603E-02   2.0080E-02   8.6755E-04  0.0491
   2.0080E-02   2.0569E-02   8.8115E-04  0.0482
   2.0569E-02   2.1069E-02   9.0547E-04  0.0469
   2.1069E-02   2.1582E-02   8.1404E-04  0.0489
   2.1582E-02   2.2107E-02   8.5533E-04  0.0471
   2.2107E-02   2.2645E-02   8.0526E-04  0.0480
   2.2645E-02   2.3196E-02   7.8313E-04  0.0481
   2.3196E-02   2.3760E-02   8.3889E-04  0.0459
   2.3760E-02   2.4338E-02   8.1386E-04  0.0460
   2.4338E-02   2.4930E-02   7.1058E-04  0.0487
   2.4930E-02   2.5537E-02   7.7976E-04  0.0459
   2.5537E-02   2.6158E-02   7.5816E-04  0.0460
   2.6158E-02   2.6795E-02   7.8767E-04  0.0446
   2.6795E-02   2.7447E-02   7.8981E-04  0.0440
   2.7447E-02   2.8114E-02   7.2390E-04  0.0454
   2.8114E-02   2.8799E-02   6.6876E-04  0.0467
   2.8799E-02   2.9499E-02   7.5045E-04  0.0436
   2.9499E-02   3.0217E-02   7.3421E-04  0.0435
   3.0217E-02   3.0952E-02   7.3721E-04  0.0429
   3.0952E-02   3.1705E-02   7.2477E-04  0.0428
   3.1705E-02   3.2477E-02   6.9304E-04  0.0432
   3.2477E-02   3.3267E-02   7.2997E-04  0.0416
   3.3267E-02   3.4076E-02   6.9137E-04  0.0422
   3.4076E-02   3.4905E-02   6.9062E-04  0.0418
   3.4905E-02   3.5755E-02   7.2953E-04  0.0401
   3.5755E-02   3.6625E-02   6.7973E-04  0.0411
   3.6625E-02   3.7516E-02   6.5836E-04  0.0413
   3.7516E-02   3.8428E-02   6.3484E-04  0.0415
   3.8428E-02   3.9363E-02   6.3043E-04  0.0411
   3.9363E-02   4.0321E-02   6.5881E-04  0.0398
   4.0321E-02   4.1302E-02   6.4389E-04  0.0398
   4.1302E-02   4.2307E-02   6.0746E-04  0.0404
   4.2307E-02   4.3337E-02   6.0443E-04  0.0401
   4.3337E-02   4.4391E-02   6.3322E-04  0.0387
   4.4391E-02   4.5471E-02   5.8097E-04  0.0399
   4.5471E-02   4.6577E-02   5.8551E-04  0.0393
   4.6577E-02   4.7711E-02   5.9395E-04  0.0385
   4.7711E-02   4.8871E-02   6.0371E-04  0.0377
   4.8871E-02   5.0061E-02   5.7502E-04  0.0382
   5.0061E-02   5.1279E-02   5.5772E-04  0.0383
   5.1279E-02   5.2526E-02   5.8475E-04  0.0370
   5.2526E-02   5.3804E-02   5.5492E-04  0.0375
   5.3804E-02   5.5113E-02   5.0394E-04  0.0389
   5.5113E-02   5.6454E-02   5.4675E-04  0.0369
   5.6454E-02   5.7828E-02   5.0678E-04  0.0379
   5.7828E-02   5.9235E-02   5.1581E-04  0.0371
   5.9235E-02   6.0676E-02   5.2001E-04  0.0365
   6.0676E-02   6.2152E-02   5.0903E-04  0.0364
   6.2152E-02   6.3665E-02   4.9275E-04  0.0366
   6.3665E-02   6.5214E-02   4.7459E-04  0.0369
   6.5214E-02   6.6800E-02   4.9355E-04  0.0357
   6.6800E-02   6.8426E-02   4.4810E-04  0.0370
   6.8426E-02   7.0090E-02   4.5972E-04  0.0361
   7.0090E-02   7.1796E-02   4.6229E-04  0.0356
   7.1796E-02   7.3543E-02   4.4316E-04  0.0359
   7.3543E-02   7.5332E-02   4.7694E-04  0.0342
   7.5332E-02   7.7165E-02   4.4831E-04  0.0349
   7.7165E-02   7.9042E-02   4.5406E-04  0.0342
   7.9042E-02   8.0965E-02   4.3115E-04  0.0347
   8.0965E-02   8.2935E-02   4.3040E-04  0.0343
   8.2935E-02   8.4953E-02   4.1471E-04  0.0345
   8.4953E-02   8.7020E-02   4.5126E-04  0.0327
   8.7020E-02   8.9138E-02   4.1377E-04  0.0338
   8.9138E-02   9.1306E-02   3.8778E-04  0.0345
   9.1306E-02   9.3528E-02   3.7188E-04  0.0347
   9.3528E-02   9.5804E-02   3.7380E-04  0.0343
   9.5804E-02   9.8134E-02   3.8907E-04  0.0332
   9.8134E-02   1.0052E-01   3.7512E-04  0.0334
   1.0052E-01   1.0297E-01   3.7397E-04  0.0330
   1.0297E-01   1.0547E-01   3.7381E-04  0.0326
   1.0547E-01   1.0804E-01   3.6697E-04  0.0325
   1.0804E-01   1.1067E-01   3.3583E-04  0.0336
   1.1067E-01   1.1336E-01   3.4769E-04  0.0326
   1.1336E-01   1.1612E-01   3.4532E-04  0.0324
   1.1612E-01   1.1894E-01   3.2512E-04  0.0329
   1.1894E-01   1.2184E-01   3.2426E-04  0.0326
   1.2184E-01   1.2480E-01   3.1924E-04  0.0325
   1.2480E-01   1.2784E-01   2.9257E-04  0.0335
   1.2784E-01   1.3095E-01   3.0388E-04  0.0325
   1.3095E-01   1.3414E-01   3.3071E-04  0.0308
   1.3414E-01   1.3740E-01   2.9101E-04  0.0324
   1.3740E-01   1.4074E-01   2.7835E-04  0.0327
   1.4074E-01   1.4417E-01   2.7760E-04  0.0324
   1.4417E-01   1.4767E-01   2.7975E-04  0.0319
   1.4767E-01   1.5127E-01   2.7436E-04  0.0318
   1.5127E-01   1.5495E-01   2.8133E-04  0.0310
   1.5495E-01   1.5872E-01   2.6612E-04  0.0315
   1.5872E-01   1.6258E-01   2.5161E-04  0.0321
   1.6258E-01   1.6654E-01   2.4951E-04  0.0318
   1.6654E-01   1.7059E-01   2.4345E-04  0.0318
   1.7059E-01   1.7474E-01   2.4235E-04  0.0315
   1.7474E-01   1.7899E-01   2.2755E-04  0.0321
   1.7899E-01   1.8334E-01   2.3291E-04  0.0314
   1.8334E-01   1.8781E-01   2.2459E-04  0.0315
   1.8781E-01   1.9237E-01   2.1534E-04  0.0318
   1.9237E-01   1.9706E-01   2.0370E-04  0.0323
   1.9706E-01   2.0185E-01   1.8105E-04  0.0339
   2.0185E-01   2.0676E-01   2.0279E-04  0.0316
   2.0676E-01   2.1179E-01   2.1154E-04  0.0306
   2.1179E-01   2.1694E-01   2.1916E-04  0.0297
   2.1694E-01   2.2222E-01   1.9938E-04  0.0308
   2.2222E-01   2.2763E-01   2.1848E-04  0.0291
   2.2763E-01   2.3317E-01   2.1032E-04  0.0293
   2.3317E-01   2.3884E-01   2.0137E-04  0.0296
   2.3884E-01   2.4465E-01   2.1735E-04  0.0281
   2.4465E-01   2.5061E-01   2.1848E-04  0.0277
   2.5061E-01   2.5670E-01   2.2848E-04  0.0268
   2.5670E-01   2.6295E-01   2.2683E-04  0.0265
   2.6295E-01   2.6935E-01   2.2080E-04  0.0266
   2.6935E-01   2.7590E-01   2.2163E-04  0.0262
   2.7590E-01   2.8261E-01   2.1486E-04  0.0263
   2.8261E-01   2.8949E-01   2.2519E-04  0.0254
   2.8949E-01   2.9653E-01   2.3571E-04  0.0245
   2.9653E-01   3.0375E-01   2.3115E-04  0.0244
   3.0375E-01   3.1114E-01   2.4082E-04  0.0237
   3.1114E-01   3.1871E-01   2.3707E-04  0.0236
   3.1871E-01   3.2646E-01   2.3524E-04  0.0234
   3.2646E-01   3.3441E-01   2.4176E-04  0.0228
   3.3441E-01   3.4254E-01   2.3748E-04  0.0227
   3.4254E-01   3.5088E-01   2.3067E-04  0.0228
   3.5088E-01   3.5941E-01   2.4742E-04  0.0217
   3.5941E-01   3.6816E-01   2.3972E-04  0.0218
   3.6816E-01   3.7712E-01   2.4722E-04  0.0212
   3.7712E-01   3.8629E-01   2.4320E-04  0.0211
   3.8629E-01   3.9569E-01   2.4540E-04  0.0208
   3.9569E-01   4.0532E-01   2.4506E-04  0.0206
   4.0532E-01   4.1518E-01   2.3933E-04  0.0205
   4.1518E-01   4.2528E-01   2.4588E-04  0.0200
   4.2528E-01   4.3563E-01   2.4680E-04  0.0198
   4.3563E-01   4.4623E-01   2.4324E-04  0.0197
   4.4623E-01   4.5708E-01   2.5087E-04  0.0191
   4.5708E-01   4.6821E-01   2.4336E-04  0.0192
   4.6821E-01   4.7960E-01   2.3916E-04  0.0191
   4.7960E-01   4.9127E-01   2.4285E-04  0.0188
   4.9127E-01   5.0322E-01   2.3192E-04  0.0190
   5.0322E-01   5.1546E-01   2.4575E-04  0.0182
   5.1546E-01   5.2800E-01   2.4423E-04  0.0180
   5.2800E-01   5.4085E-01   2.4532E-04  0.0178
   5.4085E-01   5.5401E-01   2.4090E-04  0.0177
   5.5401E-01   5.6749E-01   2.4657E-04  0.0173
   5.6749E-01   5.8130E-01   2.4066E-04  0.0173
   5.8130E-01   5.9544E-01   2.5092E-04  0.0168
   5.9544E-01   6.0993E-01   2.4589E-04  0.0167
   6.0993E-01   6.2477E-01   2.4266E-04  0.0166
   6.2477E-01   6.3997E-01   2.4282E-04  0.0164
   6.3997E-01   6.5554E-01   2.3935E-04  0.0163
   6.5554E-01   6.7149E-01   2.4371E-04  0.0160
   6.7149E-01   6.8783E-01   2.3899E-04  0.0160
   6.8783E-01   7.0456E-01   2.4340E-04  0.0156
   7.0456E-01   7.2171E-01   2.3394E-04  0.0158
   7.2171E-01   7.3927E-01   2.4007E-04  0.0154
   7.3927E-01   7.5725E-01   2.3564E-04  0.0153
   7.5725E-01   7.7568E-01   2.3406E-04  0.0152
   7.7568E-01   7.9455E-01   2.3258E-04  0.0151
   7.9455E-01   8.1388E-01   2.2412E-04  0.0152
   8.1388E-01   8.3368E-01   2.2939E-04  0.0148
   8.3368E-01   8.5397E-01   2.2585E-04  0.0147
   8.5397E-01   8.7475E-01   2.2382E-04  0.0146
   8.7475E-01   8.9603E-01   2.1687E-04  0.0147
   8.9603E-01   9.1783E-01   2.1205E-04  0.0147
   9.1783E-01   9.4016E-01   2.1001E-04  0.0146
   9.4016E-01   9.6304E-01   2.0331E-04  0.0146
   9.6304E-01   9.8647E-01   1.9791E-04  0.0147
   9.8647E-01   1.0105E+00   1.8979E-04  0.0148
   1.0105E+00   1.0351E+00   1.8447E-04  0.0148
   1.0351E+00   1.0602E+00   1.7874E-04  0.0149
   1.0602E+00   1.0860E+00   1.7747E-04  0.0147
   1.0860E+00   1.1125E+00   1.6888E-04  0.0149
   1.1125E+00   1.1395E+00   1.6631E-04  0.0149
   1.1395E+00   1.1673E+00   1.6053E-04  0.0149
   1.1673E+00   1.1957E+00   1.5632E-04  0.0150
   1.1957E+00   1.2247E+00   1.5174E-04  0.0150
   1.2247E+00   1.2545E+00   1.5335E-04  0.0148
   1.2545E+00   1.2851E+00   1.4720E-04  0.0149
   1.2851E+00   1.3163E+00   1.4021E-04  0.0151
   1.3163E+00   1.3484E+00   1.3421E-04  0.0152
   1.3484E+00   1.3812E+00   1.3499E-04  0.0150
   1.3812E+00   1.4148E+00   1.3224E-04  0.0149
   1.4148E+00   1.4492E+00   1.2893E-04  0.0150
   1.4492E+00   1.4845E+00   1.2480E-04  0.0150
   1.4845E+00   1.5206E+00   1.1735E-04  0.0153
   1.5206E+00   1.5576E+00   1.1833E-04  0.0151
   1.5576E+00   1.5955E+00   1.1473E-04  0.0151
   1.5955E+00   1.6343E+00   1.0880E-04  0.0153
   1.6343E+00   1.6741E+00   1.1064E-04  0.0150
   1.6741E+00   1.7148E+00   1.0866E-04  0.0150
   1.7148E+00   1.7565E+00   1.0416E-04  0.0151
   1.7565E+00   1.7992E+00   1.0234E-04  0.0151
   1.7992E+00   1.8430E+00   1.0276E-04  0.0149
   1.8430E+00   1.8879E+00   9.7682E-05  0.0151
   1.8879E+00   1.9338E+00   9.4606E-05  0.0151
   1.9338E+00   1.9808E+00   9.3919E-05  0.0150
   1.9808E+00   2.0290E+00   9.4687E-05  0.0148
   2.0290E+00   2.0784E+00   9.0701E-05  0.0149
   2.0784E+00   2.1290E+00   8.7954E-05  0.0149
   2.1290E+00   2.1808E+00   8.6076E-05  0.0149
   2.1808E+00   2.2338E+00   8.4212E-05  0.0149
   2.2338E+00   2.2882E+00   8.1054E-05  0.0150
   2.2882E+00   2.3439E+00   8.0269E-05  0.0149
   2.3439E+00   2.4009E+00   7.8034E-05  0.0149
   2.4009E+00   2.4593E+00   7.6945E-05  0.0149
   2.4593E+00   2.5191E+00   7.6736E-05  0.0147
   2.5191E+00   2.5804E+00   7.5047E-05  0.0147
   2.5804E+00   2.6432E+00   7.2121E-05  0.0148
   2.6432E+00   2.7075E+00   6.9759E-05  0.0149
   2.7075E+00   2.7734E+00   6.8387E-05  0.0148
   2.7734E+00   2.8409E+00   6.8366E-05  0.0147
   2.8409E+00   2.9100E+00   6.5205E-05  0.0148
   2.9100E+00   2.9808E+00   5.9423E-05  0.0154
   2.9808E+00   3.0533E+00   5.8632E-05  0.0153
   3.0533E+00   3.1276E+00   5.7348E-05  0.0153
   3.1276E+00   3.2037E+00   5.2918E-05  0.0157
   3.2037E+00   3.2817E+00   5.1568E-05  0.0157
   3.2817E+00   3.3615E+00   4.9809E-05  0.0158
   3.3615E+00   3.4433E+00   4.8573E-05  0.0158
   3.4433E+00   3.5271E+00   4.7185E-05  0.0158
   3.5271E+00   3.6129E+00   4.6309E-05  0.0158
   3.6129E+00   3.7008E+00   4.4605E-05  0.0159
   3.7008E+00   3.7908E+00   4.3297E-05  0.0160
   3.7908E+00   3.8831E+00   4.2105E-05  0.0160
   3.8831E+00   3.9776E+00   4.0548E-05  0.0161
   3.9776E+00   4.0743E+00   3.9218E-05  0.0162
   4.0743E+00   4.1735E+00   3.9086E-05  0.0160
   4.1735E+00   4.2750E+00   3.6228E-05  0.0164
   4.2750E+00   4.3790E+00   3.5437E-05  0.0164
   4.3790E+00   4.4856E+00   3.4198E-05  0.0165
   4.4856E+00   4.5947E+00   3.2877E-05  0.0166
   4.5947E+00   4.7065E+00   3.1413E-05  0.0168
   4.7065E+00   4.8210E+00   3.1173E-05  0.0167
   4.8210E+00   4.9383E+00   2.8704E-05  0.0172
   4.9383E+00   5.0585E+00   2.7080E-05  0.0175
   5.0585E+00   5.1815E+00   2.5829E-05  0.0177
   5.1815E+00   5.3076E+00   2.5055E-05  0.0177
   5.3076E+00   5.4368E+00   2.4054E-05  0.0179
   5.4368E+00   5.5690E+00   2.1890E-05  0.0185
   5.5690E+00   5.7045E+00   2.1617E-05  0.0184
   5.7045E+00   5.8433E+00   2.0504E-05  0.0187
   5.8433E+00   5.9855E+00   1.9480E-05  0.0190
   5.9855E+00   6.1311E+00   1.8440E-05  0.0193
   6.1311E+00   6.2803E+00   1.6908E-05  0.0199
   6.2803E+00   6.4331E+00   1.6041E-05  0.0202
   6.4331E+00   6.5896E+00   1.5164E-05  0.0205
   6.5896E+00   6.7500E+00   1.4969E-05  0.0204
   6.7500E+00   6.9142E+00   1.3884E-05  0.0209
   6.9142E+00   7.0824E+00   1.3367E-05  0.0211
   7.0824E+00   7.2548E+00   1.2412E-05  0.0216
   7.2548E+00   7.4313E+00   1.1274E-05  0.0224
   7.4313E+00   7.6121E+00   1.0687E-05  0.0227
   7.6121E+00   7.7973E+00   9.8540E-06  0.0234
   7.7973E+00   7.9870E+00   9.6479E-06  0.0233
   7.9870E+00   8.1813E+00   9.2267E-06  0.0236
   8.1813E+00   8.3804E+00   8.3236E-06  0.0245
   8.3804E+00   8.5843E+00   8.2898E-06  0.0243
   8.5843E+00   8.7931E+00   7.7612E-06  0.0248
   8.7931E+00   9.0071E+00   7.4147E-06  0.0251
   9.0071E+00   9.2262E+00   7.3908E-06  0.0248
   9.2262E+00   9.4507E+00   6.9295E-06  0.0253
   9.4507E+00   9.6807E+00   6.6866E-06  0.0255
   9.6807E+00   9.9162E+00   6.1280E-06  0.0263
   9.9162E+00   1.0157E+01   5.5046E-06  0.0274
   1.0157E+01   1.0405E+01   5.8998E-06  0.0262
   1.0405E+01   1.0658E+01   5.5325E-06  0.0267
   1.0658E+01   1.0917E+01   5.6197E-06  0.0262
   1.0917E+01   1.1183E+01   5.4784E-06  0.0262
   1.1183E+01   1.1455E+01   5.2153E-06  0.0265
   1.1455E+01   1.1733E+01   5.3408E-06  0.0259
   1.1733E+01   1.2019E+01   4.8271E-06  0.0269
   1.2019E+01   1.2311E+01   4.3290E-06  0.0281
   1.2311E+01   1.2611E+01   4.2069E-06  0.0282
   1.2611E+01   1.2918E+01   3.7676E-06  0.0294
   1.2918E+01   1.3232E+01   3.8933E-06  0.0286
   1.3232E+01   1.3554E+01   3.6698E-06  0.0291
   1.3554E+01   1.3884E+01   3.3663E-06  0.0300
   1.3884E+01   1.4222E+01   3.3031E-06  0.0299
   1.4222E+01   1.4568E+01   3.0090E-06  0.0310
   1.4568E+01   1.4922E+01   2.8170E-06  0.0316
   1.4922E+01   1.5285E+01   2.5312E-06  0.0330
   1.5285E+01   1.5657E+01   2.3342E-06  0.0339
   1.5657E+01   1.6038E+01   2.2139E-06  0.0344
   1.6038E+01   1.6428E+01   2.2385E-06  0.0338
   1.6428E+01   1.6828E+01   2.0164E-06  0.0352
   1.6828E+01   1.7237E+01   1.8529E-06  0.0363
   1.7237E+01   1.7657E+01   1.7454E-06  0.0370
   1.7657E+01   1.8086E+01   1.6434E-06  0.0376
   1.8086E+01   1.8526E+01   1.5680E-06  0.0381
   1.8526E+01   1.8977E+01   1.4176E-06  0.0396
   1.8977E+01   1.9439E+01   1.4059E-06  0.0392
   1.9439E+01   1.9912E+01   1.1629E-06  0.0426
   1.9912E+01   2.0396E+01   9.6187E-07  0.0463
   2.0396E+01   2.0893E+01   8.9066E-07  0.0476
   2.0893E+01   2.1401E+01   7.9475E-07  0.0498
   2.1401E+01   2.1922E+01   6.3568E-07  0.0550
   2.1922E+01   2.2455E+01   5.0809E-07  0.0607
   2.2455E+01   2.3001E+01   4.1183E-07  0.0667
   2.3001E+01   2.3561E+01   3.2878E-07  0.0737
   2.3561E+01   2.4134E+01   2.6341E-07  0.0814
   2.4134E+01   2.4721E+01   1.9414E-07  0.0937
   2.4721E+01   2.5323E+01   1.2303E-07  0.1162
   2.5323E+01   2.5939E+01   8.6021E-08  0.1374
   2.5939E+01   2.6570E+01   4.9119E-08  0.1796
   2.6570E+01   2.7217E+01   2.1656E-08  0.2673
   2.7217E+01   2.7879E+01   1.5101E-08  0.3162
   2.7879E+01   2.8557E+01   1.1794E-08  0.3536
   2.8557E+01   2.9252E+01   1.4392E-08  0.3162
   2.9252E+01   2.9964E+01   1.2645E-08  0.3333
   2.9964E+01   3.0693E+01   6.8583E-09  0.4472
   3.0693E+01   3.1440E+01   0.0000E+00  0.0000
   3.1440E+01   3.2205E+01   2.6146E-09  0.7071
   3.2205E+01   3.2988E+01   0.0000E+00  0.0000
   3.2988E+01   3.3791E+01   0.0000E+00  0.0000
   3.3791E+01   3.4613E+01   1.2163E-09  1.0000
   3.4613E+01   3.5455E+01   0.0000E+00  0.0000
   3.5455E+01   3.6318E+01   0.0000E+00  0.0000
   3.6318E+01   3.7201E+01   0.0000E+00  0.0000
   3.7201E+01   3.8106E+01   0.0000E+00  0.0000
   3.8106E+01   3.9034E+01   0.0000E+00  0.0000
   3.9034E+01   3.9983E+01   0.0000E+00  0.0000
   3.9983E+01   4.0956E+01   0.0000E+00  0.0000
   4.0956E+01   4.1953E+01   0.0000E+00  0.0000
   4.1953E+01   4.2973E+01   0.0000E+00  0.0000
   4.2973E+01   4.4019E+01   0.0000E+00  0.0000
   4.4019E+01   4.5090E+01   0.0000E+00  0.0000
   4.5090E+01   4.6187E+01   0.0000E+00  0.0000
   4.6187E+01   4.7311E+01   0.0000E+00  0.0000
   4.7311E+01   4.8462E+01   0.0000E+00  0.0000
   4.8462E+01   4.9641E+01   0.0000E+00  0.0000
   4.9641E+01   5.0849E+01   0.0000E+00  0.0000
   5.0849E+01   5.2086E+01   0.0000E+00  0.0000
   5.2086E+01   5.3353E+01   0.0000E+00  0.0000
   5.3353E+01   5.4651E+01   0.0000E+00  0.0000
   5.4651E+01   5.5981E+01   0.0000E+00  0.0000
   5.5981E+01   5.7343E+01   0.0000E+00  0.0000
   5.7343E+01   5.8738E+01   0.0000E+00  0.0000
   5.8738E+01   6.0168E+01   0.0000E+00  0.0000
   6.0168E+01   6.1632E+01   0.0000E+00  0.0000
   6.1632E+01   6.3131E+01   0.0000E+00  0.0000
   6.3131E+01   6.4667E+01   0.0000E+00  0.0000
   6.4667E+01   6.6240E+01   0.0000E+00  0.0000
   6.6240E+01   6.7852E+01   0.0000E+00  0.0000
   6.7852E+01   6.9503E+01   0.0000E+00  0.0000
   6.9503E+01   7.1194E+01   0.0000E+00  0.0000
   7.1194E+01   7.2926E+01   0.0000E+00  0.0000
   7.2926E+01   7.4701E+01   0.0000E+00  0.0000
   7.4701E+01   7.6518E+01   0.0000E+00  0.0000
   7.6518E+01   7.8380E+01   0.0000E+00  0.0000
   7.8380E+01   8.0287E+01   0.0000E+00  0.0000
   8.0287E+01   8.2240E+01   0.0000E+00  0.0000
   8.2240E+01   8.4241E+01   0.0000E+00  0.0000
   8.4241E+01   8.6291E+01   0.0000E+00  0.0000
   8.6291E+01   8.8391E+01   0.0000E+00  0.0000
   8.8391E+01   9.0541E+01   0.0000E+00  0.0000
   9.0541E+01   9.2744E+01   0.0000E+00  0.0000
   9.2744E+01   9.5001E+01   0.0000E+00  0.0000
   9.5001E+01   9.7312E+01   0.0000E+00  0.0000
   9.7312E+01   9.9680E+01   0.0000E+00  0.0000
   9.9680E+01   1.0211E+02   0.0000E+00  0.0000
   1.0211E+02   1.0459E+02   0.0000E+00  0.0000
   1.0459E+02   1.0713E+02   0.0000E+00  0.0000
   1.0713E+02   1.0974E+02   0.0000E+00  0.0000
   1.0974E+02   1.1241E+02   0.0000E+00  0.0000
   1.1241E+02   1.1515E+02   0.0000E+00  0.0000
   1.1515E+02   1.1795E+02   0.0000E+00  0.0000
   1.1795E+02   1.2082E+02   0.0000E+00  0.0000
   1.2082E+02   1.2376E+02   0.0000E+00  0.0000
   1.2376E+02   1.2677E+02   0.0000E+00  0.0000
   1.2677E+02   1.2985E+02   0.0000E+00  0.0000
   1.2985E+02   1.3301E+02   0.0000E+00  0.0000
   1.3301E+02   1.3625E+02   0.0000E+00  0.0000
   1.3625E+02   1.3956E+02   0.0000E+00  0.0000
   1.3956E+02   1.4296E+02   0.0000E+00  0.0000
   1.4296E+02   1.4644E+02   0.0000E+00  0.0000
   1.4644E+02   1.5000E+02   0.0000E+00  0.0000

#   sum over                 4.3171E-06
'no. =    1   reg = 120 - 220'
msuc: {\huge [t-cross] in region mesh}
msdr: {\it plotted by \ANGEL \version}
msdl: {\it calculated by \PHITS  3.26}
wt: s(0.7)
\vspace{-3}
  region surface crossing
  area  &=&   1.0000E+00 [cm^2]
e:
 
# Information for Restart Calculation
# This calculation was newly started
# istdev =  2 # 1:Batch variance, 2:History variance
# resc2  = 1.00000000000000000E+09 # Total source weight or Total source weight / maxcas
# resc3  = 1.00000000000000000E+09 # Total history number or Total batch number
# maxcas =   500000000 # History / Batch, only used for istdev=1
# bitrseed = 0001001110011001001001110000100100110111001111011100001000101100 # bit data of rseed
