[ T-Cross ]
    title = [t-cross] in region mesh
     mesh =  reg            # mesh type is region-wise
      reg =    1            # number of crossing regions
      non     r-from    r-to       area
      1       104       204        1.000000    
   e-type =    3            # e-mesh is log given by emin, emax and ne
     emin =  1.0000000E-02  # minimum value of e-mesh points
     emax =   150.0000      # maximum value of e-mesh points
#    edel =  2.4039514E-02  # mesh width of e-mesh points
       ne =    400          # number of e-mesh points
#    data = ( e(i), i = 1, ne + 1 )
#           1.00000E-02  1.02433E-02  1.04925E-02  1.07478E-02  1.10093E-02
#           1.12772E-02  1.15516E-02  1.18326E-02  1.21205E-02  1.24154E-02
#           1.27175E-02  1.30269E-02  1.33439E-02  1.36686E-02  1.40011E-02
#           1.43418E-02  1.46907E-02  1.50482E-02  1.54143E-02  1.57894E-02
#           1.61735E-02  1.65670E-02  1.69701E-02  1.73830E-02  1.78060E-02
#           1.82392E-02  1.86830E-02  1.91375E-02  1.96032E-02  2.00801E-02
#           2.05687E-02  2.10692E-02  2.15818E-02  2.21069E-02  2.26448E-02
#           2.31957E-02  2.37601E-02  2.43382E-02  2.49304E-02  2.55369E-02
#           2.61583E-02  2.67947E-02  2.74467E-02  2.81145E-02  2.87985E-02
#           2.94992E-02  3.02169E-02  3.09521E-02  3.17052E-02  3.24766E-02
#           3.32668E-02  3.40762E-02  3.49053E-02  3.57546E-02  3.66246E-02
#           3.75157E-02  3.84284E-02  3.93634E-02  4.03212E-02  4.13022E-02
#           4.23071E-02  4.33365E-02  4.43909E-02  4.54710E-02  4.65773E-02
#           4.77106E-02  4.88714E-02  5.00605E-02  5.12785E-02  5.25262E-02
#           5.38042E-02  5.51133E-02  5.64542E-02  5.78278E-02  5.92348E-02
#           6.06760E-02  6.21523E-02  6.36645E-02  6.52135E-02  6.68002E-02
#           6.84255E-02  7.00904E-02  7.17957E-02  7.35426E-02  7.53319E-02
#           7.71648E-02  7.90423E-02  8.09655E-02  8.29354E-02  8.49533E-02
#           8.70203E-02  8.91376E-02  9.13064E-02  9.35279E-02  9.58035E-02
#           9.81345E-02  1.00522E-01  1.02968E-01  1.05473E-01  1.08040E-01
#           1.10668E-01  1.13361E-01  1.16119E-01  1.18944E-01  1.21838E-01
#           1.24803E-01  1.27839E-01  1.30950E-01  1.34136E-01  1.37399E-01
#           1.40742E-01  1.44167E-01  1.47675E-01  1.51268E-01  1.54948E-01
#           1.58718E-01  1.62580E-01  1.66535E-01  1.70587E-01  1.74738E-01
#           1.78989E-01  1.83344E-01  1.87805E-01  1.92375E-01  1.97055E-01
#           2.01850E-01  2.06761E-01  2.11792E-01  2.16945E-01  2.22223E-01
#           2.27630E-01  2.33169E-01  2.38842E-01  2.44653E-01  2.50605E-01
#           2.56703E-01  2.62949E-01  2.69346E-01  2.75900E-01  2.82613E-01
#           2.89489E-01  2.96532E-01  3.03747E-01  3.11138E-01  3.18708E-01
#           3.26462E-01  3.34405E-01  3.42542E-01  3.50876E-01  3.59413E-01
#           3.68158E-01  3.77116E-01  3.86291E-01  3.95690E-01  4.05317E-01
#           4.15179E-01  4.25281E-01  4.35628E-01  4.46227E-01  4.57084E-01
#           4.68205E-01  4.79597E-01  4.91266E-01  5.03219E-01  5.15463E-01
#           5.28005E-01  5.40851E-01  5.54011E-01  5.67490E-01  5.81298E-01
#           5.95441E-01  6.09929E-01  6.24769E-01  6.39970E-01  6.55541E-01
#           6.71491E-01  6.87828E-01  7.04564E-01  7.21706E-01  7.39266E-01
#           7.57253E-01  7.75678E-01  7.94551E-01  8.13883E-01  8.33685E-01
#           8.53969E-01  8.74747E-01  8.96030E-01  9.17831E-01  9.40163E-01
#           9.63038E-01  9.86469E-01  1.01047E+00  1.03506E+00  1.06024E+00
#           1.08604E+00  1.11246E+00  1.13953E+00  1.16725E+00  1.19565E+00
#           1.22474E+00  1.25454E+00  1.28507E+00  1.31633E+00  1.34836E+00
#           1.38117E+00  1.41477E+00  1.44920E+00  1.48446E+00  1.52057E+00
#           1.55757E+00  1.59547E+00  1.63429E+00  1.67405E+00  1.71478E+00
#           1.75650E+00  1.79924E+00  1.84302E+00  1.88786E+00  1.93379E+00
#           1.98084E+00  2.02904E+00  2.07841E+00  2.12898E+00  2.18078E+00
#           2.23384E+00  2.28819E+00  2.34386E+00  2.40089E+00  2.45930E+00
#           2.51914E+00  2.58043E+00  2.64322E+00  2.70753E+00  2.77341E+00
#           2.84088E+00  2.91001E+00  2.98081E+00  3.05333E+00  3.12762E+00
#           3.20372E+00  3.28167E+00  3.36152E+00  3.44330E+00  3.52708E+00
#           3.61290E+00  3.70080E+00  3.79085E+00  3.88308E+00  3.97756E+00
#           4.07434E+00  4.17347E+00  4.27501E+00  4.37903E+00  4.48557E+00
#           4.59471E+00  4.70650E+00  4.82102E+00  4.93832E+00  5.05847E+00
#           5.18155E+00  5.30762E+00  5.43676E+00  5.56904E+00  5.70453E+00
#           5.84333E+00  5.98550E+00  6.13114E+00  6.28031E+00  6.43312E+00
#           6.58964E+00  6.74997E+00  6.91420E+00  7.08243E+00  7.25475E+00
#           7.43126E+00  7.61207E+00  7.79728E+00  7.98700E+00  8.18133E+00
#           8.38038E+00  8.58428E+00  8.79315E+00  9.00709E+00  9.22624E+00
#           9.45072E+00  9.68067E+00  9.91620E+00  1.01575E+01  1.04046E+01
#           1.06578E+01  1.09171E+01  1.11827E+01  1.14548E+01  1.17335E+01
#           1.20190E+01  1.23114E+01  1.26109E+01  1.29178E+01  1.32321E+01
#           1.35540E+01  1.38838E+01  1.42216E+01  1.45676E+01  1.49221E+01
#           1.52851E+01  1.56570E+01  1.60380E+01  1.64282E+01  1.68279E+01
#           1.72374E+01  1.76568E+01  1.80864E+01  1.85264E+01  1.89772E+01
#           1.94389E+01  1.99119E+01  2.03963E+01  2.08926E+01  2.14009E+01
#           2.19216E+01  2.24550E+01  2.30014E+01  2.35610E+01  2.41343E+01
#           2.47215E+01  2.53230E+01  2.59391E+01  2.65702E+01  2.72167E+01
#           2.78789E+01  2.85572E+01  2.92520E+01  2.99637E+01  3.06928E+01
#           3.14396E+01  3.22045E+01  3.29881E+01  3.37907E+01  3.46128E+01
#           3.54550E+01  3.63177E+01  3.72013E+01  3.81064E+01  3.90336E+01
#           3.99833E+01  4.09561E+01  4.19526E+01  4.29734E+01  4.40189E+01
#           4.50900E+01  4.61870E+01  4.73108E+01  4.84619E+01  4.96410E+01
#           5.08488E+01  5.20860E+01  5.33533E+01  5.46514E+01  5.59812E+01
#           5.73432E+01  5.87384E+01  6.01676E+01  6.16315E+01  6.31311E+01
#           6.46671E+01  6.62405E+01  6.78522E+01  6.95031E+01  7.11941E+01
#           7.29263E+01  7.47007E+01  7.65182E+01  7.83800E+01  8.02870E+01
#           8.22405E+01  8.42414E+01  8.62911E+01  8.83906E+01  9.05412E+01
#           9.27442E+01  9.50007E+01  9.73122E+01  9.96799E+01  1.02105E+02
#           1.04589E+02  1.07134E+02  1.09741E+02  1.12411E+02  1.15146E+02
#           1.17948E+02  1.20817E+02  1.23757E+02  1.26768E+02  1.29852E+02
#           1.33012E+02  1.36248E+02  1.39563E+02  1.42959E+02  1.46437E+02
#           1.50000E+02
     unit =    2            # unit is [1/cm^2/(MeV/n)/source]
     axis =  eng            # axis of output
     file = detector-05.out  # file name of output for the above axis
   output = f-curr          # surface crossing forward current spectrum
     part =  neutron  
# kf/name :  2112     
#    used :        main (  %)        temp (  %)       total (  %)
#  memory :         414 (  0)           0 (  0)         414 (  0)

#------------------------------------------------------------------------------
#newpage:
#   no. =    1   reg = 104 - 204

x: Energy [MeV/n]
y:  F-Curr [1/cm^2/(MeV/n)/source]         
p: xlog ylog afac(0.8) form(0.9)
h: n            x            y(neutron ),hh0l   n 
#  e-lower      e-upper      neutron     r.err 
   1.0000E-02   1.0243E-02   1.6749E-04  0.1278
   1.0243E-02   1.0493E-02   1.7788E-04  0.1224
   1.0493E-02   1.0748E-02   1.6974E-04  0.1240
   1.0748E-02   1.1009E-02   1.7463E-04  0.1206
   1.1009E-02   1.1277E-02   1.7996E-04  0.1174
   1.1277E-02   1.1552E-02   1.9963E-04  0.1099
   1.1552E-02   1.1833E-02   1.4232E-04  0.1291
   1.1833E-02   1.2121E-02   1.6209E-04  0.1195
   1.2121E-02   1.2415E-02   1.7520E-04  0.1134
   1.2415E-02   1.2718E-02   1.6595E-04  0.1152
   1.2718E-02   1.3027E-02   1.6590E-04  0.1140
   1.3027E-02   1.3344E-02   1.6860E-04  0.1116
   1.3344E-02   1.3669E-02   1.8920E-04  0.1041
   1.3669E-02   1.4001E-02   1.7874E-04  0.1058
   1.4001E-02   1.4342E-02   1.8983E-04  0.1015
   1.4342E-02   1.4691E-02   1.5189E-04  0.1120
   1.4691E-02   1.5048E-02   1.8372E-04  0.1004
   1.5048E-02   1.5414E-02   1.4962E-04  0.1102
   1.5414E-02   1.5789E-02   1.2832E-04  0.1176
   1.5789E-02   1.6174E-02   1.3709E-04  0.1125
   1.6174E-02   1.6567E-02   1.6463E-04  0.1014
   1.6567E-02   1.6970E-02   1.2900E-04  0.1132
   1.6970E-02   1.7383E-02   1.4854E-04  0.1043
   1.7383E-02   1.7806E-02   1.2925E-04  0.1104
   1.7806E-02   1.8239E-02   1.2926E-04  0.1091
   1.8239E-02   1.8683E-02   1.3552E-04  0.1052
   1.8683E-02   1.9138E-02   1.4101E-04  0.1016
   1.9138E-02   1.9603E-02   1.1496E-04  0.1114
   1.9603E-02   2.0080E-02   1.6372E-04  0.0922
   2.0080E-02   2.0569E-02   1.2575E-04  0.1041
   2.0569E-02   2.1069E-02   1.4584E-04  0.0954
   2.1069E-02   2.1582E-02   1.5170E-04  0.0924
   2.1582E-02   2.2107E-02   1.1807E-04  0.1037
   2.2107E-02   2.2645E-02   1.2580E-04  0.0991
   2.2645E-02   2.3196E-02   1.2841E-04  0.0970
   2.3196E-02   2.3760E-02   1.2758E-04  0.0962
   2.3760E-02   2.4338E-02   1.3626E-04  0.0919
   2.4338E-02   2.4930E-02   1.3566E-04  0.0910
   2.4930E-02   2.5537E-02   1.3848E-04  0.0891
   2.5537E-02   2.6158E-02   9.8008E-05  0.1045
   2.6158E-02   2.6795E-02   1.2690E-04  0.0906
   2.6795E-02   2.7447E-02   1.1625E-04  0.0936
   2.7447E-02   2.8114E-02   1.1461E-04  0.0931
   2.8114E-02   2.8799E-02   1.2297E-04  0.0890
   2.8799E-02   2.9499E-02   1.0385E-04  0.0957
   2.9499E-02   3.0217E-02   1.0463E-04  0.0941
   3.0217E-02   3.0952E-02   1.0907E-04  0.0911
   3.0952E-02   3.1705E-02   1.1033E-04  0.0894
   3.1705E-02   3.2477E-02   1.0487E-04  0.0907
   3.2477E-02   3.3267E-02   1.0406E-04  0.0898
   3.3267E-02   3.4076E-02   9.6779E-05  0.0922
   3.4076E-02   3.4905E-02   1.1309E-04  0.0842
   3.4905E-02   3.5755E-02   8.6236E-05  0.0952
   3.5755E-02   3.6625E-02   9.4476E-05  0.0900
   3.6625E-02   3.7516E-02   1.0424E-04  0.0845
   3.7516E-02   3.8428E-02   1.0176E-04  0.0846
   3.8428E-02   3.9363E-02   7.3181E-05  0.0983
   3.9363E-02   4.0321E-02   1.0113E-04  0.0829
   4.0321E-02   4.1302E-02   9.0608E-05  0.0865
   4.1302E-02   4.2307E-02   7.1760E-05  0.0961
   4.2307E-02   4.3337E-02   7.8483E-05  0.0908
   4.3337E-02   4.4391E-02   8.6722E-05  0.0851
   4.4391E-02   4.5471E-02   9.0820E-05  0.0824
   4.5471E-02   4.6577E-02   9.4638E-05  0.0796
   4.6577E-02   4.7711E-02   8.0465E-05  0.0854
   4.7711E-02   4.8871E-02   9.0819E-05  0.0794
   4.8871E-02   5.0061E-02   8.1393E-05  0.0830
   5.0061E-02   5.1279E-02   8.4478E-05  0.0803
   5.1279E-02   5.2526E-02   9.3156E-05  0.0757
   5.2526E-02   5.3804E-02   7.9894E-05  0.0808
   5.3804E-02   5.5113E-02   7.9263E-05  0.0801
   5.5113E-02   5.6454E-02   7.3990E-05  0.0818
   5.6454E-02   5.7828E-02   7.9210E-05  0.0782
   5.7828E-02   5.9235E-02   7.5736E-05  0.0790
   5.9235E-02   6.0676E-02   7.3862E-05  0.0790
   6.0676E-02   6.2152E-02   7.7524E-05  0.0762
   6.2152E-02   6.3665E-02   7.5962E-05  0.0761
   6.3665E-02   6.5214E-02   7.1659E-05  0.0774
   6.5214E-02   6.6800E-02   6.0707E-05  0.0831
   6.6800E-02   6.8426E-02   6.2547E-05  0.0809
   6.8426E-02   7.0090E-02   6.7462E-05  0.0770
   7.0090E-02   7.1796E-02   6.9443E-05  0.0750
   7.1796E-02   7.3543E-02   6.4164E-05  0.0771
   7.3543E-02   7.5332E-02   6.8728E-05  0.0735
   7.5332E-02   7.7165E-02   7.7390E-05  0.0685
   7.7165E-02   7.9042E-02   5.5940E-05  0.0796
   7.9042E-02   8.0965E-02   5.9685E-05  0.0762
   8.0965E-02   8.2935E-02   6.2760E-05  0.0734
   8.2935E-02   8.4953E-02   6.6007E-05  0.0707
   8.4953E-02   8.7020E-02   6.5336E-05  0.0702
   8.7020E-02   8.9138E-02   6.6123E-05  0.0689
   8.9138E-02   9.1306E-02   5.4047E-05  0.0752
   9.1306E-02   9.3528E-02   5.3309E-05  0.0749
   9.3528E-02   9.5804E-02   6.2694E-05  0.0683
   9.5804E-02   9.8134E-02   5.5325E-05  0.0717
   9.8134E-02   1.0052E-01   5.6540E-05  0.0702
   1.0052E-01   1.0297E-01   5.2107E-05  0.0723
   1.0297E-01   1.0547E-01   5.2257E-05  0.0713
   1.0547E-01   1.0804E-01   4.6850E-05  0.0743
   1.0804E-01   1.1067E-01   5.3385E-05  0.0689
   1.1067E-01   1.1336E-01   5.2279E-05  0.0688
   1.1336E-01   1.1612E-01   5.1635E-05  0.0684
   1.1612E-01   1.1894E-01   5.3581E-05  0.0663
   1.1894E-01   1.2184E-01   4.8904E-05  0.0686
   1.2184E-01   1.2480E-01   4.4228E-05  0.0712
   1.2480E-01   1.2784E-01   4.6944E-05  0.0683
   1.2784E-01   1.3095E-01   4.6316E-05  0.0679
   1.3095E-01   1.3414E-01   4.3896E-05  0.0690
   1.3414E-01   1.3740E-01   4.5164E-05  0.0671
   1.3740E-01   1.4074E-01   4.0822E-05  0.0698
   1.4074E-01   1.4417E-01   3.9163E-05  0.0704
   1.4417E-01   1.4767E-01   3.9924E-05  0.0688
   1.4767E-01   1.5127E-01   3.6247E-05  0.0715
   1.5127E-01   1.5495E-01   3.9390E-05  0.0678
   1.5495E-01   1.5872E-01   4.1587E-05  0.0652
   1.5872E-01   1.6258E-01   3.5850E-05  0.0692
   1.6258E-01   1.6654E-01   3.8474E-05  0.0661
   1.6654E-01   1.7059E-01   3.7457E-05  0.0662
   1.7059E-01   1.7474E-01   3.4743E-05  0.0680
   1.7474E-01   1.7899E-01   3.6693E-05  0.0654
   1.7899E-01   1.8334E-01   3.7935E-05  0.0635
   1.8334E-01   1.8781E-01   3.0333E-05  0.0701
   1.8781E-01   1.9237E-01   3.3994E-05  0.0654
   1.9237E-01   1.9706E-01   3.4112E-05  0.0646
   1.9706E-01   2.0185E-01   3.5405E-05  0.0626
   2.0185E-01   2.0676E-01   3.3956E-05  0.0631
   2.0676E-01   2.1179E-01   3.1829E-05  0.0644
   2.1179E-01   2.1694E-01   3.3524E-05  0.0621
   2.1694E-01   2.2222E-01   3.5995E-05  0.0592
   2.2222E-01   2.2763E-01   3.3683E-05  0.0604
   2.2763E-01   2.3317E-01   3.4363E-05  0.0591
   2.3317E-01   2.3884E-01   3.8379E-05  0.0553
   2.3884E-01   2.4465E-01   3.7015E-05  0.0556
   2.4465E-01   2.5061E-01   3.8057E-05  0.0542
   2.5061E-01   2.5670E-01   3.3860E-05  0.0568
   2.5670E-01   2.6295E-01   3.7704E-05  0.0531
   2.6295E-01   2.6935E-01   3.8778E-05  0.0518
   2.6935E-01   2.7590E-01   3.7828E-05  0.0518
   2.7590E-01   2.8261E-01   4.2233E-05  0.0484
   2.8261E-01   2.8949E-01   4.1205E-05  0.0485
   2.8949E-01   2.9653E-01   4.3563E-05  0.0466
   2.9653E-01   3.0375E-01   4.1506E-05  0.0471
   3.0375E-01   3.1114E-01   4.5954E-05  0.0443
   3.1114E-01   3.1871E-01   4.6016E-05  0.0437
   3.1871E-01   3.2646E-01   4.6531E-05  0.0429
   3.2646E-01   3.3441E-01   4.5295E-05  0.0430
   3.3441E-01   3.4254E-01   5.2600E-05  0.0394
   3.4254E-01   3.5088E-01   5.0394E-05  0.0398
   3.5088E-01   3.5941E-01   4.6925E-05  0.0407
   3.5941E-01   3.6816E-01   4.7614E-05  0.0400
   3.6816E-01   3.7712E-01   5.0321E-05  0.0384
   3.7712E-01   3.8629E-01   4.8664E-05  0.0386
   3.8629E-01   3.9569E-01   5.3715E-05  0.0363
   3.9569E-01   4.0532E-01   5.2503E-05  0.0363
   4.0532E-01   4.1518E-01   4.8575E-05  0.0372
   4.1518E-01   4.2528E-01   5.3398E-05  0.0351
   4.2528E-01   4.3563E-01   5.4894E-05  0.0342
   4.3563E-01   4.4623E-01   5.0304E-05  0.0353
   4.4623E-01   4.5708E-01   5.1395E-05  0.0345
   4.5708E-01   4.6821E-01   5.3472E-05  0.0335
   4.6821E-01   4.7960E-01   5.5960E-05  0.0323
   4.7960E-01   4.9127E-01   5.5600E-05  0.0320
   4.9127E-01   5.0322E-01   5.5268E-05  0.0317
   5.0322E-01   5.1546E-01   5.5916E-05  0.0312
   5.1546E-01   5.2800E-01   5.4091E-05  0.0313
   5.2800E-01   5.4085E-01   5.6185E-05  0.0304
   5.4085E-01   5.5401E-01   5.7283E-05  0.0297
   5.5401E-01   5.6749E-01   5.5601E-05  0.0298
   5.6749E-01   5.8130E-01   5.7672E-05  0.0289
   5.8130E-01   5.9544E-01   6.0419E-05  0.0279
   5.9544E-01   6.0993E-01   5.8521E-05  0.0280
   6.0993E-01   6.2477E-01   5.5495E-05  0.0284
   6.2477E-01   6.3997E-01   5.8148E-05  0.0274
   6.3997E-01   6.5554E-01   5.9465E-05  0.0268
   6.5554E-01   6.7149E-01   5.7712E-05  0.0269
   6.7149E-01   6.8783E-01   5.5746E-05  0.0270
   6.8783E-01   7.0456E-01   5.9832E-05  0.0258
   7.0456E-01   7.2171E-01   6.0710E-05  0.0253
   7.2171E-01   7.3927E-01   6.1213E-05  0.0249
   7.3927E-01   7.5725E-01   5.9696E-05  0.0249
   7.5725E-01   7.7568E-01   6.3446E-05  0.0239
   7.7568E-01   7.9455E-01   6.4557E-05  0.0234
   7.9455E-01   8.1388E-01   6.2911E-05  0.0234
   8.1388E-01   8.3368E-01   6.2206E-05  0.0232
   8.3368E-01   8.5397E-01   6.4339E-05  0.0226
   8.5397E-01   8.7475E-01   6.4345E-05  0.0223
   8.7475E-01   8.9603E-01   6.6763E-05  0.0216
   8.9603E-01   9.1783E-01   6.5060E-05  0.0217
   9.1783E-01   9.4016E-01   6.6214E-05  0.0212
   9.4016E-01   9.6304E-01   6.5289E-05  0.0211
   9.6304E-01   9.8647E-01   6.6440E-05  0.0207
   9.8647E-01   1.0105E+00   6.5181E-05  0.0206
   1.0105E+00   1.0351E+00   6.6700E-05  0.0201
   1.0351E+00   1.0602E+00   6.6857E-05  0.0199
   1.0602E+00   1.0860E+00   7.1086E-05  0.0190
   1.0860E+00   1.1125E+00   6.8881E-05  0.0191
   1.1125E+00   1.1395E+00   7.1677E-05  0.0185
   1.1395E+00   1.1673E+00   6.9223E-05  0.0186
   1.1673E+00   1.1957E+00   6.7816E-05  0.0186
   1.1957E+00   1.2247E+00   6.9236E-05  0.0182
   1.2247E+00   1.2545E+00   7.1739E-05  0.0176
   1.2545E+00   1.2851E+00   6.9363E-05  0.0177
   1.2851E+00   1.3163E+00   6.8875E-05  0.0176
   1.3163E+00   1.3484E+00   6.9317E-05  0.0173
   1.3484E+00   1.3812E+00   6.9912E-05  0.0170
   1.3812E+00   1.4148E+00   6.8438E-05  0.0170
   1.4148E+00   1.4492E+00   7.0473E-05  0.0166
   1.4492E+00   1.4845E+00   7.2636E-05  0.0161
   1.4845E+00   1.5206E+00   7.1143E-05  0.0161
   1.5206E+00   1.5576E+00   7.1991E-05  0.0158
   1.5576E+00   1.5955E+00   6.8994E-05  0.0160
   1.5955E+00   1.6343E+00   6.9925E-05  0.0157
   1.6343E+00   1.6741E+00   6.9733E-05  0.0155
   1.6741E+00   1.7148E+00   7.0321E-05  0.0152
   1.7148E+00   1.7565E+00   7.0269E-05  0.0151
   1.7565E+00   1.7992E+00   7.2049E-05  0.0147
   1.7992E+00   1.8430E+00   7.1240E-05  0.0146
   1.8430E+00   1.8879E+00   7.2329E-05  0.0143
   1.8879E+00   1.9338E+00   7.0145E-05  0.0144
   1.9338E+00   1.9808E+00   7.2569E-05  0.0140
   1.9808E+00   2.0290E+00   7.1396E-05  0.0139
   2.0290E+00   2.0784E+00   7.3104E-05  0.0136
   2.0784E+00   2.1290E+00   7.3525E-05  0.0134
   2.1290E+00   2.1808E+00   7.2072E-05  0.0134
   2.1808E+00   2.2338E+00   7.2717E-05  0.0131
   2.2338E+00   2.2882E+00   7.3225E-05  0.0129
   2.2882E+00   2.3439E+00   7.4533E-05  0.0127
   2.3439E+00   2.4009E+00   7.3708E-05  0.0126
   2.4009E+00   2.4593E+00   7.4398E-05  0.0124
   2.4593E+00   2.5191E+00   7.3648E-05  0.0123
   2.5191E+00   2.5804E+00   7.4660E-05  0.0121
   2.5804E+00   2.6432E+00   7.5884E-05  0.0118
   2.6432E+00   2.7075E+00   7.5325E-05  0.0117
   2.7075E+00   2.7734E+00   7.6069E-05  0.0115
   2.7734E+00   2.8409E+00   7.5750E-05  0.0114
   2.8409E+00   2.9100E+00   7.7121E-05  0.0112
   2.9100E+00   2.9808E+00   7.7334E-05  0.0110
   2.9808E+00   3.0533E+00   7.6455E-05  0.0110
   3.0533E+00   3.1276E+00   7.6687E-05  0.0108
   3.1276E+00   3.2037E+00   7.6984E-05  0.0107
   3.2037E+00   3.2817E+00   7.7696E-05  0.0105
   3.2817E+00   3.3615E+00   7.8308E-05  0.0103
   3.3615E+00   3.4433E+00   7.8181E-05  0.0102
   3.4433E+00   3.5271E+00   7.8642E-05  0.0101
   3.5271E+00   3.6129E+00   7.8329E-05  0.0100
   3.6129E+00   3.7008E+00   7.9920E-05  0.0097
   3.7008E+00   3.7908E+00   8.0014E-05  0.0096
   3.7908E+00   3.8831E+00   8.1399E-05  0.0094
   3.8831E+00   3.9776E+00   8.0301E-05  0.0094
   3.9776E+00   4.0743E+00   8.1496E-05  0.0092
   4.0743E+00   4.1735E+00   8.0752E-05  0.0091
   4.1735E+00   4.2750E+00   8.2575E-05  0.0089
   4.2750E+00   4.3790E+00   8.0966E-05  0.0089
   4.3790E+00   4.4856E+00   8.2248E-05  0.0087
   4.4856E+00   4.5947E+00   8.1709E-05  0.0086
   4.5947E+00   4.7065E+00   8.1389E-05  0.0086
   4.7065E+00   4.8210E+00   8.3264E-05  0.0084
   4.8210E+00   4.9383E+00   8.2497E-05  0.0083
   4.9383E+00   5.0585E+00   8.4290E-05  0.0081
   5.0585E+00   5.1815E+00   8.4720E-05  0.0080
   5.1815E+00   5.3076E+00   8.4247E-05  0.0079
   5.3076E+00   5.4368E+00   8.6287E-05  0.0077
   5.4368E+00   5.5690E+00   8.5921E-05  0.0077
   5.5690E+00   5.7045E+00   8.6622E-05  0.0075
   5.7045E+00   5.8433E+00   8.7039E-05  0.0074
   5.8433E+00   5.9855E+00   8.7944E-05  0.0073
   5.9855E+00   6.1311E+00   8.8819E-05  0.0072
   6.1311E+00   6.2803E+00   8.9197E-05  0.0071
   6.2803E+00   6.4331E+00   9.0766E-05  0.0069
   6.4331E+00   6.5896E+00   9.1603E-05  0.0068
   6.5896E+00   6.7500E+00   9.2074E-05  0.0067
   6.7500E+00   6.9142E+00   9.3396E-05  0.0066
   6.9142E+00   7.0824E+00   9.4791E-05  0.0065
   7.0824E+00   7.2548E+00   9.5875E-05  0.0064
   7.2548E+00   7.4313E+00   9.6921E-05  0.0062
   7.4313E+00   7.6121E+00   9.7383E-05  0.0062
   7.6121E+00   7.7973E+00   9.8950E-05  0.0060
   7.7973E+00   7.9870E+00   9.9211E-05  0.0060
   7.9870E+00   8.1813E+00   1.0043E-04  0.0058
   8.1813E+00   8.3804E+00   1.0220E-04  0.0057
   8.3804E+00   8.5843E+00   1.0238E-04  0.0057
   8.5843E+00   8.7931E+00   1.0393E-04  0.0055
   8.7931E+00   9.0071E+00   1.0500E-04  0.0054
   9.0071E+00   9.2262E+00   1.0529E-04  0.0054
   9.2262E+00   9.4507E+00   1.0571E-04  0.0053
   9.4507E+00   9.6807E+00   1.0785E-04  0.0052
   9.6807E+00   9.9162E+00   1.0851E-04  0.0051
   9.9162E+00   1.0157E+01   1.0866E-04  0.0050
   1.0157E+01   1.0405E+01   1.0835E-04  0.0050
   1.0405E+01   1.0658E+01   1.0940E-04  0.0049
   1.0658E+01   1.0917E+01   1.0903E-04  0.0049
   1.0917E+01   1.1183E+01   1.0887E-04  0.0048
   1.1183E+01   1.1455E+01   1.0877E-04  0.0047
   1.1455E+01   1.1733E+01   1.0782E-04  0.0047
   1.1733E+01   1.2019E+01   1.0819E-04  0.0046
   1.2019E+01   1.2311E+01   1.0693E-04  0.0046
   1.2311E+01   1.2611E+01   1.0443E-04  0.0046
   1.2611E+01   1.2918E+01   1.0388E-04  0.0046
   1.2918E+01   1.3232E+01   1.0261E-04  0.0045
   1.3232E+01   1.3554E+01   1.0008E-04  0.0045
   1.3554E+01   1.3884E+01   9.8306E-05  0.0045
   1.3884E+01   1.4222E+01   9.5935E-05  0.0045
   1.4222E+01   1.4568E+01   9.3703E-05  0.0045
   1.4568E+01   1.4922E+01   9.0454E-05  0.0046
   1.4922E+01   1.5285E+01   8.8472E-05  0.0046
   1.5285E+01   1.5657E+01   8.5559E-05  0.0046
   1.5657E+01   1.6038E+01   8.1813E-05  0.0046
   1.6038E+01   1.6428E+01   7.7939E-05  0.0047
   1.6428E+01   1.6828E+01   7.4716E-05  0.0047
   1.6828E+01   1.7237E+01   6.9524E-05  0.0048
   1.7237E+01   1.7657E+01   6.6981E-05  0.0049
   1.7657E+01   1.8086E+01   6.2071E-05  0.0050
   1.8086E+01   1.8526E+01   5.7630E-05  0.0051
   1.8526E+01   1.8977E+01   5.4543E-05  0.0052
   1.8977E+01   1.9439E+01   5.0347E-05  0.0054
   1.9439E+01   1.9912E+01   4.6727E-05  0.0055
   1.9912E+01   2.0396E+01   4.3138E-05  0.0056
   2.0396E+01   2.0893E+01   3.9610E-05  0.0058
   2.0893E+01   2.1401E+01   3.6038E-05  0.0060
   2.1401E+01   2.1922E+01   3.2656E-05  0.0063
   2.1922E+01   2.2455E+01   2.9594E-05  0.0065
   2.2455E+01   2.3001E+01   2.6271E-05  0.0068
   2.3001E+01   2.3561E+01   2.3763E-05  0.0071
   2.3561E+01   2.4134E+01   2.1083E-05  0.0074
   2.4134E+01   2.4721E+01   1.8609E-05  0.0078
   2.4721E+01   2.5323E+01   1.6203E-05  0.0083
   2.5323E+01   2.5939E+01   1.4172E-05  0.0087
   2.5939E+01   2.6570E+01   1.2348E-05  0.0092
   2.6570E+01   2.7217E+01   1.0827E-05  0.0098
   2.7217E+01   2.7879E+01   9.1523E-06  0.0105
   2.7879E+01   2.8557E+01   8.1073E-06  0.0110
   2.8557E+01   2.9252E+01   6.7500E-06  0.0119
   2.9252E+01   2.9964E+01   5.8328E-06  0.0127
   2.9964E+01   3.0693E+01   4.9718E-06  0.0136
   3.0693E+01   3.1440E+01   4.3529E-06  0.0143
   3.1440E+01   3.2205E+01   3.6177E-06  0.0155
   3.2205E+01   3.2988E+01   3.2357E-06  0.0162
   3.2988E+01   3.3791E+01   2.8980E-06  0.0169
   3.3791E+01   3.4613E+01   2.6532E-06  0.0175
   3.4613E+01   3.5455E+01   2.5031E-06  0.0178
   3.5455E+01   3.6318E+01   2.4568E-06  0.0177
   3.6318E+01   3.7201E+01   2.4550E-06  0.0175
   3.7201E+01   3.8106E+01   2.3834E-06  0.0176
   3.8106E+01   3.9034E+01   2.4670E-06  0.0171
   3.9034E+01   3.9983E+01   2.3951E-06  0.0171
   3.9983E+01   4.0956E+01   2.4383E-06  0.0168
   4.0956E+01   4.1953E+01   2.3643E-06  0.0168
   4.1953E+01   4.2973E+01   2.3695E-06  0.0166
   4.2973E+01   4.4019E+01   2.3815E-06  0.0164
   4.4019E+01   4.5090E+01   2.4382E-06  0.0160
   4.5090E+01   4.6187E+01   2.4283E-06  0.0158
   4.6187E+01   4.7311E+01   2.3700E-06  0.0158
   4.7311E+01   4.8462E+01   2.3844E-06  0.0156
   4.8462E+01   4.9641E+01   1.9495E-06  0.0170
   4.9641E+01   5.0849E+01   1.0796E-06  0.0226
   5.0849E+01   5.2086E+01   6.9351E-07  0.0279
   5.2086E+01   5.3353E+01   2.9827E-07  0.0420
   5.3353E+01   5.4651E+01   5.1356E-10  1.0000
   5.4651E+01   5.5981E+01   0.0000E+00  0.0000
   5.5981E+01   5.7343E+01   0.0000E+00  0.0000
   5.7343E+01   5.8738E+01   0.0000E+00  0.0000
   5.8738E+01   6.0168E+01   0.0000E+00  0.0000
   6.0168E+01   6.1632E+01   0.0000E+00  0.0000
   6.1632E+01   6.3131E+01   0.0000E+00  0.0000
   6.3131E+01   6.4667E+01   0.0000E+00  0.0000
   6.4667E+01   6.6240E+01   0.0000E+00  0.0000
   6.6240E+01   6.7852E+01   0.0000E+00  0.0000
   6.7852E+01   6.9503E+01   0.0000E+00  0.0000
   6.9503E+01   7.1194E+01   0.0000E+00  0.0000
   7.1194E+01   7.2926E+01   0.0000E+00  0.0000
   7.2926E+01   7.4701E+01   0.0000E+00  0.0000
   7.4701E+01   7.6518E+01   0.0000E+00  0.0000
   7.6518E+01   7.8380E+01   0.0000E+00  0.0000
   7.8380E+01   8.0287E+01   0.0000E+00  0.0000
   8.0287E+01   8.2240E+01   0.0000E+00  0.0000
   8.2240E+01   8.4241E+01   0.0000E+00  0.0000
   8.4241E+01   8.6291E+01   0.0000E+00  0.0000
   8.6291E+01   8.8391E+01   0.0000E+00  0.0000
   8.8391E+01   9.0541E+01   0.0000E+00  0.0000
   9.0541E+01   9.2744E+01   0.0000E+00  0.0000
   9.2744E+01   9.5001E+01   0.0000E+00  0.0000
   9.5001E+01   9.7312E+01   0.0000E+00  0.0000
   9.7312E+01   9.9680E+01   0.0000E+00  0.0000
   9.9680E+01   1.0211E+02   0.0000E+00  0.0000
   1.0211E+02   1.0459E+02   0.0000E+00  0.0000
   1.0459E+02   1.0713E+02   0.0000E+00  0.0000
   1.0713E+02   1.0974E+02   0.0000E+00  0.0000
   1.0974E+02   1.1241E+02   0.0000E+00  0.0000
   1.1241E+02   1.1515E+02   0.0000E+00  0.0000
   1.1515E+02   1.1795E+02   0.0000E+00  0.0000
   1.1795E+02   1.2082E+02   0.0000E+00  0.0000
   1.2082E+02   1.2376E+02   0.0000E+00  0.0000
   1.2376E+02   1.2677E+02   0.0000E+00  0.0000
   1.2677E+02   1.2985E+02   0.0000E+00  0.0000
   1.2985E+02   1.3301E+02   0.0000E+00  0.0000
   1.3301E+02   1.3625E+02   0.0000E+00  0.0000
   1.3625E+02   1.3956E+02   0.0000E+00  0.0000
   1.3956E+02   1.4296E+02   0.0000E+00  0.0000
   1.4296E+02   1.4644E+02   0.0000E+00  0.0000
   1.4644E+02   1.5000E+02   0.0000E+00  0.0000

#   sum over                 1.2932E-05
'no. =    1   reg = 104 - 204'
msuc: {\huge [t-cross] in region mesh}
msdr: {\it plotted by \ANGEL \version}
msdl: {\it calculated by \PHITS  3.26}
wt: s(0.7)
\vspace{-3}
  region surface crossing
  area  &=&   1.0000E+00 [cm^2]
e:
 
# Information for Restart Calculation
# This calculation was newly started
# istdev =  2 # 1:Batch variance, 2:History variance
# resc2  = 1.50000000000000000E+09 # Total source weight or Total source weight / maxcas
# resc3  = 1.50000000000000000E+09 # Total history number or Total batch number
# maxcas =   500000000 # History / Batch, only used for istdev=1
# bitrseed = 0000010101110101110110100110011001100101000001100111100100101101 # bit data of rseed
