[ T-Cross ]
    title = [t-cross] in region mesh
     mesh =  reg            # mesh type is region-wise
      reg =    1            # number of crossing regions
      non     r-from    r-to       area
      1       113       213        1.000000    
   e-type =    3            # e-mesh is log given by emin, emax and ne
     emin =  1.0000000E-02  # minimum value of e-mesh points
     emax =   150.0000      # maximum value of e-mesh points
#    edel =  2.4039514E-02  # mesh width of e-mesh points
       ne =    400          # number of e-mesh points
#    data = ( e(i), i = 1, ne + 1 )
#           1.00000E-02  1.02433E-02  1.04925E-02  1.07478E-02  1.10093E-02
#           1.12772E-02  1.15516E-02  1.18326E-02  1.21205E-02  1.24154E-02
#           1.27175E-02  1.30269E-02  1.33439E-02  1.36686E-02  1.40011E-02
#           1.43418E-02  1.46907E-02  1.50482E-02  1.54143E-02  1.57894E-02
#           1.61735E-02  1.65670E-02  1.69701E-02  1.73830E-02  1.78060E-02
#           1.82392E-02  1.86830E-02  1.91375E-02  1.96032E-02  2.00801E-02
#           2.05687E-02  2.10692E-02  2.15818E-02  2.21069E-02  2.26448E-02
#           2.31957E-02  2.37601E-02  2.43382E-02  2.49304E-02  2.55369E-02
#           2.61583E-02  2.67947E-02  2.74467E-02  2.81145E-02  2.87985E-02
#           2.94992E-02  3.02169E-02  3.09521E-02  3.17052E-02  3.24766E-02
#           3.32668E-02  3.40762E-02  3.49053E-02  3.57546E-02  3.66246E-02
#           3.75157E-02  3.84284E-02  3.93634E-02  4.03212E-02  4.13022E-02
#           4.23071E-02  4.33365E-02  4.43909E-02  4.54710E-02  4.65773E-02
#           4.77106E-02  4.88714E-02  5.00605E-02  5.12785E-02  5.25262E-02
#           5.38042E-02  5.51133E-02  5.64542E-02  5.78278E-02  5.92348E-02
#           6.06760E-02  6.21523E-02  6.36645E-02  6.52135E-02  6.68002E-02
#           6.84255E-02  7.00904E-02  7.17957E-02  7.35426E-02  7.53319E-02
#           7.71648E-02  7.90423E-02  8.09655E-02  8.29354E-02  8.49533E-02
#           8.70203E-02  8.91376E-02  9.13064E-02  9.35279E-02  9.58035E-02
#           9.81345E-02  1.00522E-01  1.02968E-01  1.05473E-01  1.08040E-01
#           1.10668E-01  1.13361E-01  1.16119E-01  1.18944E-01  1.21838E-01
#           1.24803E-01  1.27839E-01  1.30950E-01  1.34136E-01  1.37399E-01
#           1.40742E-01  1.44167E-01  1.47675E-01  1.51268E-01  1.54948E-01
#           1.58718E-01  1.62580E-01  1.66535E-01  1.70587E-01  1.74738E-01
#           1.78989E-01  1.83344E-01  1.87805E-01  1.92375E-01  1.97055E-01
#           2.01850E-01  2.06761E-01  2.11792E-01  2.16945E-01  2.22223E-01
#           2.27630E-01  2.33169E-01  2.38842E-01  2.44653E-01  2.50605E-01
#           2.56703E-01  2.62949E-01  2.69346E-01  2.75900E-01  2.82613E-01
#           2.89489E-01  2.96532E-01  3.03747E-01  3.11138E-01  3.18708E-01
#           3.26462E-01  3.34405E-01  3.42542E-01  3.50876E-01  3.59413E-01
#           3.68158E-01  3.77116E-01  3.86291E-01  3.95690E-01  4.05317E-01
#           4.15179E-01  4.25281E-01  4.35628E-01  4.46227E-01  4.57084E-01
#           4.68205E-01  4.79597E-01  4.91266E-01  5.03219E-01  5.15463E-01
#           5.28005E-01  5.40851E-01  5.54011E-01  5.67490E-01  5.81298E-01
#           5.95441E-01  6.09929E-01  6.24769E-01  6.39970E-01  6.55541E-01
#           6.71491E-01  6.87828E-01  7.04564E-01  7.21706E-01  7.39266E-01
#           7.57253E-01  7.75678E-01  7.94551E-01  8.13883E-01  8.33685E-01
#           8.53969E-01  8.74747E-01  8.96030E-01  9.17831E-01  9.40163E-01
#           9.63038E-01  9.86469E-01  1.01047E+00  1.03506E+00  1.06024E+00
#           1.08604E+00  1.11246E+00  1.13953E+00  1.16725E+00  1.19565E+00
#           1.22474E+00  1.25454E+00  1.28507E+00  1.31633E+00  1.34836E+00
#           1.38117E+00  1.41477E+00  1.44920E+00  1.48446E+00  1.52057E+00
#           1.55757E+00  1.59547E+00  1.63429E+00  1.67405E+00  1.71478E+00
#           1.75650E+00  1.79924E+00  1.84302E+00  1.88786E+00  1.93379E+00
#           1.98084E+00  2.02904E+00  2.07841E+00  2.12898E+00  2.18078E+00
#           2.23384E+00  2.28819E+00  2.34386E+00  2.40089E+00  2.45930E+00
#           2.51914E+00  2.58043E+00  2.64322E+00  2.70753E+00  2.77341E+00
#           2.84088E+00  2.91001E+00  2.98081E+00  3.05333E+00  3.12762E+00
#           3.20372E+00  3.28167E+00  3.36152E+00  3.44330E+00  3.52708E+00
#           3.61290E+00  3.70080E+00  3.79085E+00  3.88308E+00  3.97756E+00
#           4.07434E+00  4.17347E+00  4.27501E+00  4.37903E+00  4.48557E+00
#           4.59471E+00  4.70650E+00  4.82102E+00  4.93832E+00  5.05847E+00
#           5.18155E+00  5.30762E+00  5.43676E+00  5.56904E+00  5.70453E+00
#           5.84333E+00  5.98550E+00  6.13114E+00  6.28031E+00  6.43312E+00
#           6.58964E+00  6.74997E+00  6.91420E+00  7.08243E+00  7.25475E+00
#           7.43126E+00  7.61207E+00  7.79728E+00  7.98700E+00  8.18133E+00
#           8.38038E+00  8.58428E+00  8.79315E+00  9.00709E+00  9.22624E+00
#           9.45072E+00  9.68067E+00  9.91620E+00  1.01575E+01  1.04046E+01
#           1.06578E+01  1.09171E+01  1.11827E+01  1.14548E+01  1.17335E+01
#           1.20190E+01  1.23114E+01  1.26109E+01  1.29178E+01  1.32321E+01
#           1.35540E+01  1.38838E+01  1.42216E+01  1.45676E+01  1.49221E+01
#           1.52851E+01  1.56570E+01  1.60380E+01  1.64282E+01  1.68279E+01
#           1.72374E+01  1.76568E+01  1.80864E+01  1.85264E+01  1.89772E+01
#           1.94389E+01  1.99119E+01  2.03963E+01  2.08926E+01  2.14009E+01
#           2.19216E+01  2.24550E+01  2.30014E+01  2.35610E+01  2.41343E+01
#           2.47215E+01  2.53230E+01  2.59391E+01  2.65702E+01  2.72167E+01
#           2.78789E+01  2.85572E+01  2.92520E+01  2.99637E+01  3.06928E+01
#           3.14396E+01  3.22045E+01  3.29881E+01  3.37907E+01  3.46128E+01
#           3.54550E+01  3.63177E+01  3.72013E+01  3.81064E+01  3.90336E+01
#           3.99833E+01  4.09561E+01  4.19526E+01  4.29734E+01  4.40189E+01
#           4.50900E+01  4.61870E+01  4.73108E+01  4.84619E+01  4.96410E+01
#           5.08488E+01  5.20860E+01  5.33533E+01  5.46514E+01  5.59812E+01
#           5.73432E+01  5.87384E+01  6.01676E+01  6.16315E+01  6.31311E+01
#           6.46671E+01  6.62405E+01  6.78522E+01  6.95031E+01  7.11941E+01
#           7.29263E+01  7.47007E+01  7.65182E+01  7.83800E+01  8.02870E+01
#           8.22405E+01  8.42414E+01  8.62911E+01  8.83906E+01  9.05412E+01
#           9.27442E+01  9.50007E+01  9.73122E+01  9.96799E+01  1.02105E+02
#           1.04589E+02  1.07134E+02  1.09741E+02  1.12411E+02  1.15146E+02
#           1.17948E+02  1.20817E+02  1.23757E+02  1.26768E+02  1.29852E+02
#           1.33012E+02  1.36248E+02  1.39563E+02  1.42959E+02  1.46437E+02
#           1.50000E+02
     unit =    2            # unit is [1/cm^2/(MeV/n)/source]
     axis =  eng            # axis of output
     file = detector-14.out  # file name of output for the above axis
   output = f-curr          # surface crossing forward current spectrum
     part =  neutron  
# kf/name :  2112     
#    used :        main (  %)        temp (  %)       total (  %)
#  memory :         414 (  0)           0 (  0)         414 (  0)

#------------------------------------------------------------------------------
#newpage:
#   no. =    1   reg = 113 - 213

x: Energy [MeV/n]
y:  F-Curr [1/cm^2/(MeV/n)/source]         
p: xlog ylog afac(0.8) form(0.9)
h: n            x            y(neutron ),hh0l   n 
#  e-lower      e-upper      neutron     r.err 
   1.0000E-02   1.0243E-02   6.1288E-04  0.0361
   1.0243E-02   1.0493E-02   6.0053E-04  0.0360
   1.0493E-02   1.0748E-02   5.7769E-04  0.0363
   1.0748E-02   1.1009E-02   5.4582E-04  0.0369
   1.1009E-02   1.1277E-02   5.2501E-04  0.0371
   1.1277E-02   1.1552E-02   5.4589E-04  0.0359
   1.1552E-02   1.1833E-02   5.5427E-04  0.0353
   1.1833E-02   1.2121E-02   5.2097E-04  0.0360
   1.2121E-02   1.2415E-02   5.1136E-04  0.0358
   1.2415E-02   1.2718E-02   5.0939E-04  0.0356
   1.2718E-02   1.3027E-02   4.8617E-04  0.0359
   1.3027E-02   1.3344E-02   4.7272E-04  0.0360
   1.3344E-02   1.3669E-02   4.6906E-04  0.0357
   1.3669E-02   1.4001E-02   4.3781E-04  0.0366
   1.4001E-02   1.4342E-02   4.4505E-04  0.0357
   1.4342E-02   1.4691E-02   4.4424E-04  0.0354
   1.4691E-02   1.5048E-02   4.2951E-04  0.0355
   1.5048E-02   1.5414E-02   4.0307E-04  0.0363
   1.5414E-02   1.5789E-02   4.1091E-04  0.0356
   1.5789E-02   1.6174E-02   3.6263E-04  0.0373
   1.6174E-02   1.6567E-02   3.8642E-04  0.0358
   1.6567E-02   1.6970E-02   3.5720E-04  0.0367
   1.6970E-02   1.7383E-02   3.6841E-04  0.0358
   1.7383E-02   1.7806E-02   3.8793E-04  0.0344
   1.7806E-02   1.8239E-02   3.8897E-04  0.0340
   1.8239E-02   1.8683E-02   3.3747E-04  0.0361
   1.8683E-02   1.9138E-02   3.5137E-04  0.0348
   1.9138E-02   1.9603E-02   3.5126E-04  0.0344
   1.9603E-02   2.0080E-02   3.3555E-04  0.0348
   2.0080E-02   2.0569E-02   3.0879E-04  0.0359
   2.0569E-02   2.1069E-02   3.0927E-04  0.0354
   2.1069E-02   2.1582E-02   3.0941E-04  0.0350
   2.1582E-02   2.2107E-02   2.8929E-04  0.0356
   2.2107E-02   2.2645E-02   3.0100E-04  0.0347
   2.2645E-02   2.3196E-02   2.8890E-04  0.0350
   2.3196E-02   2.3760E-02   2.8470E-04  0.0348
   2.3760E-02   2.4338E-02   2.6268E-04  0.0357
   2.4338E-02   2.4930E-02   2.4796E-04  0.0363
   2.4930E-02   2.5537E-02   2.5937E-04  0.0351
   2.5537E-02   2.6158E-02   2.5845E-04  0.0348
   2.6158E-02   2.6795E-02   2.5800E-04  0.0344
   2.6795E-02   2.7447E-02   2.4727E-04  0.0346
   2.7447E-02   2.8114E-02   2.4769E-04  0.0344
   2.8114E-02   2.8799E-02   2.4104E-04  0.0343
   2.8799E-02   2.9499E-02   2.4513E-04  0.0336
   2.9499E-02   3.0217E-02   2.3310E-04  0.0341
   3.0217E-02   3.0952E-02   2.1743E-04  0.0349
   3.0952E-02   3.1705E-02   2.1833E-04  0.0344
   3.1705E-02   3.2477E-02   2.0995E-04  0.0345
   3.2477E-02   3.3267E-02   2.1055E-04  0.0342
   3.3267E-02   3.4076E-02   2.0645E-04  0.0341
   3.4076E-02   3.4905E-02   1.9631E-04  0.0345
   3.4905E-02   3.5755E-02   1.9528E-04  0.0342
   3.5755E-02   3.6625E-02   1.8596E-04  0.0347
   3.6625E-02   3.7516E-02   1.8798E-04  0.0340
   3.7516E-02   3.8428E-02   1.7957E-04  0.0344
   3.8428E-02   3.9363E-02   1.7228E-04  0.0347
   3.9363E-02   4.0321E-02   1.7857E-04  0.0337
   4.0321E-02   4.1302E-02   1.6992E-04  0.0341
   4.1302E-02   4.2307E-02   1.6405E-04  0.0342
   4.2307E-02   4.3337E-02   1.6508E-04  0.0338
   4.3337E-02   4.4391E-02   1.6856E-04  0.0331
   4.4391E-02   4.5471E-02   1.5949E-04  0.0335
   4.5471E-02   4.6577E-02   1.5755E-04  0.0333
   4.6577E-02   4.7711E-02   1.6025E-04  0.0327
   4.7711E-02   4.8871E-02   1.4787E-04  0.0336
   4.8871E-02   5.0061E-02   1.4456E-04  0.0335
   5.0061E-02   5.1279E-02   1.4396E-04  0.0333
   5.1279E-02   5.2526E-02   1.3776E-04  0.0336
   5.2526E-02   5.3804E-02   1.3858E-04  0.0330
   5.3804E-02   5.5113E-02   1.2931E-04  0.0339
   5.5113E-02   5.6454E-02   1.3560E-04  0.0327
   5.6454E-02   5.7828E-02   1.3064E-04  0.0329
   5.7828E-02   5.9235E-02   1.1990E-04  0.0339
   5.9235E-02   6.0676E-02   1.3003E-04  0.0321
   6.0676E-02   6.2152E-02   1.2469E-04  0.0324
   6.2152E-02   6.3665E-02   1.1763E-04  0.0330
   6.3665E-02   6.5214E-02   1.1981E-04  0.0323
   6.5214E-02   6.6800E-02   1.0961E-04  0.0334
   6.6800E-02   6.8426E-02   1.1763E-04  0.0319
   6.8426E-02   7.0090E-02   1.0808E-04  0.0328
   7.0090E-02   7.1796E-02   1.0325E-04  0.0332
   7.1796E-02   7.3543E-02   1.0249E-04  0.0329
   7.3543E-02   7.5332E-02   1.0205E-04  0.0326
   7.5332E-02   7.7165E-02   9.7903E-05  0.0329
   7.7165E-02   7.9042E-02   9.9359E-05  0.0323
   7.9042E-02   8.0965E-02   9.3167E-05  0.0329
   8.0965E-02   8.2935E-02   9.6147E-05  0.0320
   8.2935E-02   8.4953E-02   9.0325E-05  0.0326
   8.4953E-02   8.7020E-02   8.4463E-05  0.0333
   8.7020E-02   8.9138E-02   8.9659E-05  0.0320
   8.9138E-02   9.1306E-02   8.9416E-05  0.0316
   9.1306E-02   9.3528E-02   8.7374E-05  0.0316
   9.3528E-02   9.5804E-02   8.1381E-05  0.0324
   9.5804E-02   9.8134E-02   8.4645E-05  0.0314
   9.8134E-02   1.0052E-01   7.8237E-05  0.0323
   1.0052E-01   1.0297E-01   7.9029E-05  0.0317
   1.0297E-01   1.0547E-01   7.9206E-05  0.0312
   1.0547E-01   1.0804E-01   7.7947E-05  0.0312
   1.0804E-01   1.1067E-01   7.2949E-05  0.0318
   1.1067E-01   1.1336E-01   7.0614E-05  0.0319
   1.1336E-01   1.1612E-01   6.7898E-05  0.0322
   1.1612E-01   1.1894E-01   6.7360E-05  0.0319
   1.1894E-01   1.2184E-01   6.8657E-05  0.0313
   1.2184E-01   1.2480E-01   6.9139E-05  0.0308
   1.2480E-01   1.2784E-01   6.4906E-05  0.0314
   1.2784E-01   1.3095E-01   6.7128E-05  0.0305
   1.3095E-01   1.3414E-01   6.5337E-05  0.0305
   1.3414E-01   1.3740E-01   6.2970E-05  0.0307
   1.3740E-01   1.4074E-01   6.3542E-05  0.0303
   1.4074E-01   1.4417E-01   6.0797E-05  0.0305
   1.4417E-01   1.4767E-01   5.9494E-05  0.0305
   1.4767E-01   1.5127E-01   5.8001E-05  0.0305
   1.5127E-01   1.5495E-01   5.5140E-05  0.0310
   1.5495E-01   1.5872E-01   5.6482E-05  0.0302
   1.5872E-01   1.6258E-01   5.6168E-05  0.0299
   1.6258E-01   1.6654E-01   5.3124E-05  0.0303
   1.6654E-01   1.7059E-01   5.4322E-05  0.0297
   1.7059E-01   1.7474E-01   5.1103E-05  0.0302
   1.7474E-01   1.7899E-01   5.4311E-05  0.0290
   1.7899E-01   1.8334E-01   5.1904E-05  0.0293
   1.8334E-01   1.8781E-01   4.8825E-05  0.0298
   1.8781E-01   1.9237E-01   4.9918E-05  0.0292
   1.9237E-01   1.9706E-01   5.0224E-05  0.0288
   1.9706E-01   2.0185E-01   5.0085E-05  0.0284
   2.0185E-01   2.0676E-01   5.4164E-05  0.0271
   2.0676E-01   2.1179E-01   5.3229E-05  0.0270
   2.1179E-01   2.1694E-01   5.4835E-05  0.0262
   2.1694E-01   2.2222E-01   5.9365E-05  0.0249
   2.2222E-01   2.2763E-01   6.1856E-05  0.0241
   2.2763E-01   2.3317E-01   6.4887E-05  0.0233
   2.3317E-01   2.3884E-01   6.8070E-05  0.0224
   2.3884E-01   2.4465E-01   6.9093E-05  0.0220
   2.4465E-01   2.5061E-01   7.3241E-05  0.0211
   2.5061E-01   2.5670E-01   7.6208E-05  0.0205
   2.5670E-01   2.6295E-01   7.9960E-05  0.0197
   2.6295E-01   2.6935E-01   8.2849E-05  0.0192
   2.6935E-01   2.7590E-01   8.4483E-05  0.0187
   2.7590E-01   2.8261E-01   8.9467E-05  0.0180
   2.8261E-01   2.8949E-01   9.5622E-05  0.0172
   2.8949E-01   2.9653E-01   9.8270E-05  0.0168
   2.9653E-01   3.0375E-01   1.0363E-04  0.0161
   3.0375E-01   3.1114E-01   1.0560E-04  0.0158
   3.1114E-01   3.1871E-01   1.1244E-04  0.0151
   3.1871E-01   3.2646E-01   1.1244E-04  0.0149
   3.2646E-01   3.3441E-01   1.2276E-04  0.0141
   3.3441E-01   3.4254E-01   1.2648E-04  0.0137
   3.4254E-01   3.5088E-01   1.3359E-04  0.0132
   3.5088E-01   3.5941E-01   1.3516E-04  0.0130
   3.5941E-01   3.6816E-01   1.4610E-04  0.0123
   3.6816E-01   3.7712E-01   1.4809E-04  0.0121
   3.7712E-01   3.8629E-01   1.5495E-04  0.0117
   3.8629E-01   3.9569E-01   1.6204E-04  0.0113
   3.9569E-01   4.0532E-01   1.7214E-04  0.0108
   4.0532E-01   4.1518E-01   1.7818E-04  0.0105
   4.1518E-01   4.2528E-01   1.8569E-04  0.0102
   4.2528E-01   4.3563E-01   1.9462E-04  0.0098
   4.3563E-01   4.4623E-01   2.0466E-04  0.0095
   4.4623E-01   4.5708E-01   2.0994E-04  0.0092
   4.5708E-01   4.6821E-01   2.1980E-04  0.0089
   4.6821E-01   4.7960E-01   2.2859E-04  0.0086
   4.7960E-01   4.9127E-01   2.3968E-04  0.0083
   4.9127E-01   5.0322E-01   2.5192E-04  0.0080
   5.0322E-01   5.1546E-01   2.5900E-04  0.0078
   5.1546E-01   5.2800E-01   2.7023E-04  0.0076
   5.2800E-01   5.4085E-01   2.7770E-04  0.0074
   5.4085E-01   5.5401E-01   2.9593E-04  0.0071
   5.5401E-01   5.6749E-01   3.0754E-04  0.0069
   5.6749E-01   5.8130E-01   3.1328E-04  0.0067
   5.8130E-01   5.9544E-01   3.3001E-04  0.0065
   5.9544E-01   6.0993E-01   3.4263E-04  0.0063
   6.0993E-01   6.2477E-01   3.5569E-04  0.0061
   6.2477E-01   6.3997E-01   3.7137E-04  0.0059
   6.3997E-01   6.5554E-01   3.8120E-04  0.0057
   6.5554E-01   6.7149E-01   3.9461E-04  0.0056
   6.7149E-01   6.8783E-01   4.0855E-04  0.0054
   6.8783E-01   7.0456E-01   4.2273E-04  0.0053
   7.0456E-01   7.2171E-01   4.4228E-04  0.0051
   7.2171E-01   7.3927E-01   4.4851E-04  0.0050
   7.3927E-01   7.5725E-01   4.6636E-04  0.0048
   7.5725E-01   7.7568E-01   4.8500E-04  0.0047
   7.7568E-01   7.9455E-01   5.0073E-04  0.0045
   7.9455E-01   8.1388E-01   5.1639E-04  0.0044
   8.1388E-01   8.3368E-01   5.3128E-04  0.0043
   8.3368E-01   8.5397E-01   5.5102E-04  0.0042
   8.5397E-01   8.7475E-01   5.7037E-04  0.0041
   8.7475E-01   8.9603E-01   5.9078E-04  0.0039
   8.9603E-01   9.1783E-01   6.0900E-04  0.0038
   9.1783E-01   9.4016E-01   6.1928E-04  0.0038
   9.4016E-01   9.6304E-01   6.4244E-04  0.0036
   9.6304E-01   9.8647E-01   6.5627E-04  0.0036
   9.8647E-01   1.0105E+00   6.7166E-04  0.0035
   1.0105E+00   1.0351E+00   6.7594E-04  0.0034
   1.0351E+00   1.0602E+00   6.8378E-04  0.0034
   1.0602E+00   1.0860E+00   6.9245E-04  0.0033
   1.0860E+00   1.1125E+00   7.0069E-04  0.0032
   1.1125E+00   1.1395E+00   7.1789E-04  0.0032
   1.1395E+00   1.1673E+00   7.3556E-04  0.0031
   1.1673E+00   1.1957E+00   7.5951E-04  0.0030
   1.1957E+00   1.2247E+00   7.6410E-04  0.0030
   1.2247E+00   1.2545E+00   7.6835E-04  0.0029
   1.2545E+00   1.2851E+00   7.7510E-04  0.0029
   1.2851E+00   1.3163E+00   7.8258E-04  0.0028
   1.3163E+00   1.3484E+00   7.9663E-04  0.0028
   1.3484E+00   1.3812E+00   8.1633E-04  0.0027
   1.3812E+00   1.4148E+00   8.3475E-04  0.0026
   1.4148E+00   1.4492E+00   8.4437E-04  0.0026
   1.4492E+00   1.4845E+00   8.5632E-04  0.0025
   1.4845E+00   1.5206E+00   8.6938E-04  0.0025
   1.5206E+00   1.5576E+00   8.6375E-04  0.0025
   1.5576E+00   1.5955E+00   8.5772E-04  0.0024
   1.5955E+00   1.6343E+00   8.5641E-04  0.0024
   1.6343E+00   1.6741E+00   8.5035E-04  0.0024
   1.6741E+00   1.7148E+00   8.4611E-04  0.0024
   1.7148E+00   1.7565E+00   8.5013E-04  0.0023
   1.7565E+00   1.7992E+00   8.5594E-04  0.0023
   1.7992E+00   1.8430E+00   8.6436E-04  0.0023
   1.8430E+00   1.8879E+00   8.5894E-04  0.0023
   1.8879E+00   1.9338E+00   8.5936E-04  0.0022
   1.9338E+00   1.9808E+00   8.6316E-04  0.0022
   1.9808E+00   2.0290E+00   8.6546E-04  0.0022
   2.0290E+00   2.0784E+00   8.5896E-04  0.0021
   2.0784E+00   2.1290E+00   8.5014E-04  0.0021
   2.1290E+00   2.1808E+00   8.3447E-04  0.0021
   2.1808E+00   2.2338E+00   8.2063E-04  0.0021
   2.2338E+00   2.2882E+00   8.1195E-04  0.0021
   2.2882E+00   2.3439E+00   8.0499E-04  0.0021
   2.3439E+00   2.4009E+00   8.0643E-04  0.0021
   2.4009E+00   2.4593E+00   8.0949E-04  0.0020
   2.4593E+00   2.5191E+00   8.0683E-04  0.0020
   2.5191E+00   2.5804E+00   8.0103E-04  0.0020
   2.5804E+00   2.6432E+00   7.8485E-04  0.0020
   2.6432E+00   2.7075E+00   7.7139E-04  0.0020
   2.7075E+00   2.7734E+00   7.6024E-04  0.0020
   2.7734E+00   2.8409E+00   7.5069E-04  0.0020
   2.8409E+00   2.9100E+00   7.3901E-04  0.0020
   2.9100E+00   2.9808E+00   7.3619E-04  0.0019
   2.9808E+00   3.0533E+00   7.2891E-04  0.0019
   3.0533E+00   3.1276E+00   7.1909E-04  0.0019
   3.1276E+00   3.2037E+00   7.0545E-04  0.0019
   3.2037E+00   3.2817E+00   6.8582E-04  0.0019
   3.2817E+00   3.3615E+00   6.7647E-04  0.0019
   3.3615E+00   3.4433E+00   6.6530E-04  0.0019
   3.4433E+00   3.5271E+00   6.5915E-04  0.0019
   3.5271E+00   3.6129E+00   6.4880E-04  0.0019
   3.6129E+00   3.7008E+00   6.3537E-04  0.0019
   3.7008E+00   3.7908E+00   6.2070E-04  0.0019
   3.7908E+00   3.8831E+00   6.0802E-04  0.0019
   3.8831E+00   3.9776E+00   5.9999E-04  0.0019
   3.9776E+00   4.0743E+00   5.9365E-04  0.0018
   4.0743E+00   4.1735E+00   5.8054E-04  0.0018
   4.1735E+00   4.2750E+00   5.6899E-04  0.0018
   4.2750E+00   4.3790E+00   5.5992E-04  0.0018
   4.3790E+00   4.4856E+00   5.5289E-04  0.0018
   4.4856E+00   4.5947E+00   5.4289E-04  0.0018
   4.5947E+00   4.7065E+00   5.3196E-04  0.0018
   4.7065E+00   4.8210E+00   5.2402E-04  0.0018
   4.8210E+00   4.9383E+00   5.1547E-04  0.0018
   4.9383E+00   5.0585E+00   5.1222E-04  0.0018
   5.0585E+00   5.1815E+00   5.1346E-04  0.0018
   5.1815E+00   5.3076E+00   5.0469E-04  0.0018
   5.3076E+00   5.4368E+00   4.9413E-04  0.0018
   5.4368E+00   5.5690E+00   4.8304E-04  0.0018
   5.5690E+00   5.7045E+00   4.6867E-04  0.0018
   5.7045E+00   5.8433E+00   4.5805E-04  0.0018
   5.8433E+00   5.9855E+00   4.4650E-04  0.0018
   5.9855E+00   6.1311E+00   4.3590E-04  0.0018
   6.1311E+00   6.2803E+00   4.2451E-04  0.0018
   6.2803E+00   6.4331E+00   4.1316E-04  0.0018
   6.4331E+00   6.5896E+00   4.0296E-04  0.0018
   6.5896E+00   6.7500E+00   3.9190E-04  0.0018
   6.7500E+00   6.9142E+00   3.8158E-04  0.0018
   6.9142E+00   7.0824E+00   3.7248E-04  0.0018
   7.0824E+00   7.2548E+00   3.6122E-04  0.0018
   7.2548E+00   7.4313E+00   3.5188E-04  0.0018
   7.4313E+00   7.6121E+00   3.4343E-04  0.0018
   7.6121E+00   7.7973E+00   3.3554E-04  0.0018
   7.7973E+00   7.9870E+00   3.2675E-04  0.0018
   7.9870E+00   8.1813E+00   3.1798E-04  0.0018
   8.1813E+00   8.3804E+00   3.0925E-04  0.0018
   8.3804E+00   8.5843E+00   3.0156E-04  0.0018
   8.5843E+00   8.7931E+00   2.9341E-04  0.0018
   8.7931E+00   9.0071E+00   2.8604E-04  0.0018
   9.0071E+00   9.2262E+00   2.7855E-04  0.0018
   9.2262E+00   9.4507E+00   2.7125E-04  0.0018
   9.4507E+00   9.6807E+00   2.6440E-04  0.0018
   9.6807E+00   9.9162E+00   2.5621E-04  0.0018
   9.9162E+00   1.0157E+01   2.5042E-04  0.0018
   1.0157E+01   1.0405E+01   2.4304E-04  0.0018
   1.0405E+01   1.0658E+01   2.3631E-04  0.0018
   1.0658E+01   1.0917E+01   2.2995E-04  0.0018
   1.0917E+01   1.1183E+01   2.2341E-04  0.0018
   1.1183E+01   1.1455E+01   2.1708E-04  0.0018
   1.1455E+01   1.1733E+01   2.1046E-04  0.0018
   1.1733E+01   1.2019E+01   2.0508E-04  0.0018
   1.2019E+01   1.2311E+01   1.9888E-04  0.0019
   1.2311E+01   1.2611E+01   1.9328E-04  0.0019
   1.2611E+01   1.2918E+01   1.8736E-04  0.0019
   1.2918E+01   1.3232E+01   1.8186E-04  0.0019
   1.3232E+01   1.3554E+01   1.7602E-04  0.0019
   1.3554E+01   1.3884E+01   1.7030E-04  0.0019
   1.3884E+01   1.4222E+01   1.6485E-04  0.0019
   1.4222E+01   1.4568E+01   1.5991E-04  0.0019
   1.4568E+01   1.4922E+01   1.5495E-04  0.0019
   1.4922E+01   1.5285E+01   1.4973E-04  0.0019
   1.5285E+01   1.5657E+01   1.4493E-04  0.0019
   1.5657E+01   1.6038E+01   1.3979E-04  0.0019
   1.6038E+01   1.6428E+01   1.3497E-04  0.0019
   1.6428E+01   1.6828E+01   1.3038E-04  0.0020
   1.6828E+01   1.7237E+01   1.2552E-04  0.0020
   1.7237E+01   1.7657E+01   1.2120E-04  0.0020
   1.7657E+01   1.8086E+01   1.1676E-04  0.0020
   1.8086E+01   1.8526E+01   1.1263E-04  0.0020
   1.8526E+01   1.8977E+01   1.0882E-04  0.0020
   1.8977E+01   1.9439E+01   1.0735E-04  0.0020
   1.9439E+01   1.9912E+01   1.0941E-04  0.0020
   1.9912E+01   2.0396E+01   1.0931E-04  0.0019
   2.0396E+01   2.0893E+01   1.0609E-04  0.0019
   2.0893E+01   2.1401E+01   1.0194E-04  0.0020
   2.1401E+01   2.1922E+01   9.7702E-05  0.0020
   2.1922E+01   2.2455E+01   9.3725E-05  0.0020
   2.2455E+01   2.3001E+01   8.9928E-05  0.0020
   2.3001E+01   2.3561E+01   8.6173E-05  0.0020
   2.3561E+01   2.4134E+01   8.2468E-05  0.0021
   2.4134E+01   2.4721E+01   7.8669E-05  0.0021
   2.4721E+01   2.5323E+01   7.4951E-05  0.0021
   2.5323E+01   2.5939E+01   7.1405E-05  0.0021
   2.5939E+01   2.6570E+01   6.8287E-05  0.0022
   2.6570E+01   2.7217E+01   6.4851E-05  0.0022
   2.7217E+01   2.7879E+01   6.1415E-05  0.0022
   2.7879E+01   2.8557E+01   5.7877E-05  0.0023
   2.8557E+01   2.9252E+01   5.4724E-05  0.0023
   2.9252E+01   2.9964E+01   5.2090E-05  0.0023
   2.9964E+01   3.0693E+01   4.8854E-05  0.0024
   3.0693E+01   3.1440E+01   4.6269E-05  0.0024
   3.1440E+01   3.2205E+01   4.3416E-05  0.0025
   3.2205E+01   3.2988E+01   4.0719E-05  0.0025
   3.2988E+01   3.3791E+01   3.8240E-05  0.0026
   3.3791E+01   3.4613E+01   3.5686E-05  0.0026
   3.4613E+01   3.5455E+01   3.3440E-05  0.0027
   3.5455E+01   3.6318E+01   3.1072E-05  0.0027
   3.6318E+01   3.7201E+01   2.9007E-05  0.0028
   3.7201E+01   3.8106E+01   2.6966E-05  0.0029
   3.8106E+01   3.9034E+01   2.5114E-05  0.0029
   3.9034E+01   3.9983E+01   2.3158E-05  0.0030
   3.9983E+01   4.0956E+01   2.1445E-05  0.0031
   4.0956E+01   4.1953E+01   1.9617E-05  0.0032
   4.1953E+01   4.2973E+01   1.8191E-05  0.0033
   4.2973E+01   4.4019E+01   1.6664E-05  0.0034
   4.4019E+01   4.5090E+01   1.5221E-05  0.0035
   4.5090E+01   4.6187E+01   1.3939E-05  0.0036
   4.6187E+01   4.7311E+01   1.2710E-05  0.0037
   4.7311E+01   4.8462E+01   1.1464E-05  0.0039
   4.8462E+01   4.9641E+01   1.0454E-05  0.0040
   4.9641E+01   5.0849E+01   9.3896E-06  0.0042
   5.0849E+01   5.2086E+01   8.4792E-06  0.0044
   5.2086E+01   5.3353E+01   7.6197E-06  0.0046
   5.3353E+01   5.4651E+01   6.7466E-06  0.0048
   5.4651E+01   5.5981E+01   6.0205E-06  0.0050
   5.5981E+01   5.7343E+01   5.3986E-06  0.0052
   5.7343E+01   5.8738E+01   4.7086E-06  0.0055
   5.8738E+01   6.0168E+01   4.2029E-06  0.0058
   6.0168E+01   6.1632E+01   3.6852E-06  0.0061
   6.1632E+01   6.3131E+01   3.2056E-06  0.0065
   6.3131E+01   6.4667E+01   2.7976E-06  0.0068
   6.4667E+01   6.6240E+01   2.3876E-06  0.0073
   6.6240E+01   6.7852E+01   2.0660E-06  0.0078
   6.7852E+01   6.9503E+01   1.7910E-06  0.0082
   6.9503E+01   7.1194E+01   1.5084E-06  0.0089
   7.1194E+01   7.2926E+01   1.2762E-06  0.0095
   7.2926E+01   7.4701E+01   1.0566E-06  0.0103
   7.4701E+01   7.6518E+01   8.8274E-07  0.0112
   7.6518E+01   7.8380E+01   7.4113E-07  0.0120
   7.8380E+01   8.0287E+01   6.0565E-07  0.0132
   8.0287E+01   8.2240E+01   4.7158E-07  0.0147
   8.2240E+01   8.4241E+01   3.9131E-07  0.0160
   8.4241E+01   8.6291E+01   3.1303E-07  0.0177
   8.6291E+01   8.8391E+01   2.3882E-07  0.0200
   8.8391E+01   9.0541E+01   1.7911E-07  0.0228
   9.0541E+01   9.2744E+01   1.2556E-07  0.0269
   9.2744E+01   9.5001E+01   9.5810E-08  0.0304
   9.5001E+01   9.7312E+01   6.1953E-08  0.0374
   9.7312E+01   9.9680E+01   4.0124E-08  0.0459
   9.9680E+01   1.0211E+02   2.2925E-08  0.0600
   1.0211E+02   1.0459E+02   1.6101E-08  0.0707
   1.0459E+02   1.0713E+02   9.1954E-09  0.0925
   1.0713E+02   1.0974E+02   5.1407E-09  0.1222
   1.0974E+02   1.1241E+02   3.0711E-09  0.1562
   1.1241E+02   1.1515E+02   1.1700E-09  0.2500
   1.1515E+02   1.1795E+02   5.7110E-10  0.3536
   1.1795E+02   1.2082E+02   2.0908E-10  0.5774
   1.2082E+02   1.2376E+02   1.3607E-10  0.7071
   1.2376E+02   1.2677E+02   6.6421E-11  1.0000
   1.2677E+02   1.2985E+02   0.0000E+00  0.0000
   1.2985E+02   1.3301E+02   0.0000E+00  0.0000
   1.3301E+02   1.3625E+02   0.0000E+00  0.0000
   1.3625E+02   1.3956E+02   0.0000E+00  0.0000
   1.3956E+02   1.4296E+02   0.0000E+00  0.0000
   1.4296E+02   1.4644E+02   0.0000E+00  0.0000
   1.4644E+02   1.5000E+02   0.0000E+00  0.0000

#   sum over                 5.2471E-05
'no. =    1   reg = 113 - 213'
msuc: {\huge [t-cross] in region mesh}
msdr: {\it plotted by \ANGEL \version}
msdl: {\it calculated by \PHITS  3.28}
wt: s(0.7)
\vspace{-3}
  region surface crossing
  area  &=&   1.0000E+00 [cm^2]
e:
 
# Information for Restart Calculation
# This calculation was newly started
# istdev =  2 # 1:Batch variance, 2:History variance
# resc2  = 5.00000000000000000E+09 # Total source weight or Total source weight / maxcas
# resc3  = 5.00000000000000000E+09 # Total history number or Total batch number
# maxcas =   500000000 # History / Batch, only used for istdev=1
# bitrseed = 0001101011110000011001100100101010101011111110100001111101011101 # bit data of rseed
