[ T-Cross ]
    title = [t-cross] in region mesh
     mesh =  reg            # mesh type is region-wise
      reg =    1            # number of crossing regions
      non     r-from    r-to       area
      1       125       225        1.000000    
   e-type =    3            # e-mesh is log given by emin, emax and ne
     emin =  1.0000000E-02  # minimum value of e-mesh points
     emax =   150.0000      # maximum value of e-mesh points
#    edel =  2.4039514E-02  # mesh width of e-mesh points
       ne =    400          # number of e-mesh points
#    data = ( e(i), i = 1, ne + 1 )
#           1.00000E-02  1.02433E-02  1.04925E-02  1.07478E-02  1.10093E-02
#           1.12772E-02  1.15516E-02  1.18326E-02  1.21205E-02  1.24154E-02
#           1.27175E-02  1.30269E-02  1.33439E-02  1.36686E-02  1.40011E-02
#           1.43418E-02  1.46907E-02  1.50482E-02  1.54143E-02  1.57894E-02
#           1.61735E-02  1.65670E-02  1.69701E-02  1.73830E-02  1.78060E-02
#           1.82392E-02  1.86830E-02  1.91375E-02  1.96032E-02  2.00801E-02
#           2.05687E-02  2.10692E-02  2.15818E-02  2.21069E-02  2.26448E-02
#           2.31957E-02  2.37601E-02  2.43382E-02  2.49304E-02  2.55369E-02
#           2.61583E-02  2.67947E-02  2.74467E-02  2.81145E-02  2.87985E-02
#           2.94992E-02  3.02169E-02  3.09521E-02  3.17052E-02  3.24766E-02
#           3.32668E-02  3.40762E-02  3.49053E-02  3.57546E-02  3.66246E-02
#           3.75157E-02  3.84284E-02  3.93634E-02  4.03212E-02  4.13022E-02
#           4.23071E-02  4.33365E-02  4.43909E-02  4.54710E-02  4.65773E-02
#           4.77106E-02  4.88714E-02  5.00605E-02  5.12785E-02  5.25262E-02
#           5.38042E-02  5.51133E-02  5.64542E-02  5.78278E-02  5.92348E-02
#           6.06760E-02  6.21523E-02  6.36645E-02  6.52135E-02  6.68002E-02
#           6.84255E-02  7.00904E-02  7.17957E-02  7.35426E-02  7.53319E-02
#           7.71648E-02  7.90423E-02  8.09655E-02  8.29354E-02  8.49533E-02
#           8.70203E-02  8.91376E-02  9.13064E-02  9.35279E-02  9.58035E-02
#           9.81345E-02  1.00522E-01  1.02968E-01  1.05473E-01  1.08040E-01
#           1.10668E-01  1.13361E-01  1.16119E-01  1.18944E-01  1.21838E-01
#           1.24803E-01  1.27839E-01  1.30950E-01  1.34136E-01  1.37399E-01
#           1.40742E-01  1.44167E-01  1.47675E-01  1.51268E-01  1.54948E-01
#           1.58718E-01  1.62580E-01  1.66535E-01  1.70587E-01  1.74738E-01
#           1.78989E-01  1.83344E-01  1.87805E-01  1.92375E-01  1.97055E-01
#           2.01850E-01  2.06761E-01  2.11792E-01  2.16945E-01  2.22223E-01
#           2.27630E-01  2.33169E-01  2.38842E-01  2.44653E-01  2.50605E-01
#           2.56703E-01  2.62949E-01  2.69346E-01  2.75900E-01  2.82613E-01
#           2.89489E-01  2.96532E-01  3.03747E-01  3.11138E-01  3.18708E-01
#           3.26462E-01  3.34405E-01  3.42542E-01  3.50876E-01  3.59413E-01
#           3.68158E-01  3.77116E-01  3.86291E-01  3.95690E-01  4.05317E-01
#           4.15179E-01  4.25281E-01  4.35628E-01  4.46227E-01  4.57084E-01
#           4.68205E-01  4.79597E-01  4.91266E-01  5.03219E-01  5.15463E-01
#           5.28005E-01  5.40851E-01  5.54011E-01  5.67490E-01  5.81298E-01
#           5.95441E-01  6.09929E-01  6.24769E-01  6.39970E-01  6.55541E-01
#           6.71491E-01  6.87828E-01  7.04564E-01  7.21706E-01  7.39266E-01
#           7.57253E-01  7.75678E-01  7.94551E-01  8.13883E-01  8.33685E-01
#           8.53969E-01  8.74747E-01  8.96030E-01  9.17831E-01  9.40163E-01
#           9.63038E-01  9.86469E-01  1.01047E+00  1.03506E+00  1.06024E+00
#           1.08604E+00  1.11246E+00  1.13953E+00  1.16725E+00  1.19565E+00
#           1.22474E+00  1.25454E+00  1.28507E+00  1.31633E+00  1.34836E+00
#           1.38117E+00  1.41477E+00  1.44920E+00  1.48446E+00  1.52057E+00
#           1.55757E+00  1.59547E+00  1.63429E+00  1.67405E+00  1.71478E+00
#           1.75650E+00  1.79924E+00  1.84302E+00  1.88786E+00  1.93379E+00
#           1.98084E+00  2.02904E+00  2.07841E+00  2.12898E+00  2.18078E+00
#           2.23384E+00  2.28819E+00  2.34386E+00  2.40089E+00  2.45930E+00
#           2.51914E+00  2.58043E+00  2.64322E+00  2.70753E+00  2.77341E+00
#           2.84088E+00  2.91001E+00  2.98081E+00  3.05333E+00  3.12762E+00
#           3.20372E+00  3.28167E+00  3.36152E+00  3.44330E+00  3.52708E+00
#           3.61290E+00  3.70080E+00  3.79085E+00  3.88308E+00  3.97756E+00
#           4.07434E+00  4.17347E+00  4.27501E+00  4.37903E+00  4.48557E+00
#           4.59471E+00  4.70650E+00  4.82102E+00  4.93832E+00  5.05847E+00
#           5.18155E+00  5.30762E+00  5.43676E+00  5.56904E+00  5.70453E+00
#           5.84333E+00  5.98550E+00  6.13114E+00  6.28031E+00  6.43312E+00
#           6.58964E+00  6.74997E+00  6.91420E+00  7.08243E+00  7.25475E+00
#           7.43126E+00  7.61207E+00  7.79728E+00  7.98700E+00  8.18133E+00
#           8.38038E+00  8.58428E+00  8.79315E+00  9.00709E+00  9.22624E+00
#           9.45072E+00  9.68067E+00  9.91620E+00  1.01575E+01  1.04046E+01
#           1.06578E+01  1.09171E+01  1.11827E+01  1.14548E+01  1.17335E+01
#           1.20190E+01  1.23114E+01  1.26109E+01  1.29178E+01  1.32321E+01
#           1.35540E+01  1.38838E+01  1.42216E+01  1.45676E+01  1.49221E+01
#           1.52851E+01  1.56570E+01  1.60380E+01  1.64282E+01  1.68279E+01
#           1.72374E+01  1.76568E+01  1.80864E+01  1.85264E+01  1.89772E+01
#           1.94389E+01  1.99119E+01  2.03963E+01  2.08926E+01  2.14009E+01
#           2.19216E+01  2.24550E+01  2.30014E+01  2.35610E+01  2.41343E+01
#           2.47215E+01  2.53230E+01  2.59391E+01  2.65702E+01  2.72167E+01
#           2.78789E+01  2.85572E+01  2.92520E+01  2.99637E+01  3.06928E+01
#           3.14396E+01  3.22045E+01  3.29881E+01  3.37907E+01  3.46128E+01
#           3.54550E+01  3.63177E+01  3.72013E+01  3.81064E+01  3.90336E+01
#           3.99833E+01  4.09561E+01  4.19526E+01  4.29734E+01  4.40189E+01
#           4.50900E+01  4.61870E+01  4.73108E+01  4.84619E+01  4.96410E+01
#           5.08488E+01  5.20860E+01  5.33533E+01  5.46514E+01  5.59812E+01
#           5.73432E+01  5.87384E+01  6.01676E+01  6.16315E+01  6.31311E+01
#           6.46671E+01  6.62405E+01  6.78522E+01  6.95031E+01  7.11941E+01
#           7.29263E+01  7.47007E+01  7.65182E+01  7.83800E+01  8.02870E+01
#           8.22405E+01  8.42414E+01  8.62911E+01  8.83906E+01  9.05412E+01
#           9.27442E+01  9.50007E+01  9.73122E+01  9.96799E+01  1.02105E+02
#           1.04589E+02  1.07134E+02  1.09741E+02  1.12411E+02  1.15146E+02
#           1.17948E+02  1.20817E+02  1.23757E+02  1.26768E+02  1.29852E+02
#           1.33012E+02  1.36248E+02  1.39563E+02  1.42959E+02  1.46437E+02
#           1.50000E+02
     unit =    2            # unit is [1/cm^2/(MeV/n)/source]
     axis =  eng            # axis of output
     file = detector-26.out  # file name of output for the above axis
   output = f-curr          # surface crossing forward current spectrum
     part =  neutron  
# kf/name :  2112     
#    used :        main (  %)        temp (  %)       total (  %)
#  memory :         414 (  0)           0 (  0)         414 (  0)

#------------------------------------------------------------------------------
#newpage:
#   no. =    1   reg = 125 - 225

x: Energy [MeV/n]
y:  F-Curr [1/cm^2/(MeV/n)/source]         
p: xlog ylog afac(0.8) form(0.9)
h: n            x            y(neutron ),hh0l   n 
#  e-lower      e-upper      neutron     r.err 
   1.0000E-02   1.0243E-02   1.9728E-05  0.2041
   1.0243E-02   1.0493E-02   2.4877E-05  0.1796
   1.0493E-02   1.0748E-02   2.1936E-05  0.1890
   1.0748E-02   1.1009E-02   2.6004E-05  0.1715
   1.1009E-02   1.1277E-02   1.8666E-05  0.2000
   1.1277E-02   1.1552E-02   3.3530E-05  0.1474
   1.1552E-02   1.1833E-02   2.2771E-05  0.1768
   1.1833E-02   1.2121E-02   2.5704E-05  0.1644
   1.2121E-02   1.2415E-02   2.9840E-05  0.1508
   1.2415E-02   1.2718E-02   2.9794E-05  0.1491
   1.2718E-02   1.3027E-02   1.3573E-05  0.2182
   1.3027E-02   1.3344E-02   1.5775E-05  0.2000
   1.3344E-02   1.3669E-02   1.9096E-05  0.1796
   1.3669E-02   1.4001E-02   2.2853E-05  0.1622
   1.4001E-02   1.4342E-02   2.1723E-05  0.1644
   1.4342E-02   1.4691E-02   2.2926E-05  0.1581
   1.4691E-02   1.5048E-02   2.4060E-05  0.1525
   1.5048E-02   1.5414E-02   2.3489E-05  0.1525
   1.5414E-02   1.5789E-02   2.6130E-05  0.1429
   1.5789E-02   1.6174E-02   2.4468E-05  0.1459
   1.6174E-02   1.6567E-02   2.0838E-05  0.1562
   1.6567E-02   1.6970E-02   2.3816E-05  0.1443
   1.6970E-02   1.7383E-02   1.9375E-05  0.1581
   1.7383E-02   1.7806E-02   2.6954E-05  0.1325
   1.7806E-02   1.8239E-02   2.4929E-05  0.1361
   1.8239E-02   1.8683E-02   2.3435E-05  0.1387
   1.8683E-02   1.9138E-02   2.3759E-05  0.1361
   1.9138E-02   1.9603E-02   2.1906E-05  0.1400
   1.9603E-02   2.0080E-02   2.1805E-05  0.1387
   2.0080E-02   2.0569E-02   2.2106E-05  0.1361
   2.0569E-02   2.1069E-02   1.9582E-05  0.1429
   2.1069E-02   2.1582E-02   2.1848E-05  0.1336
   2.1582E-02   2.2107E-02   2.5519E-05  0.1222
   2.2107E-02   2.2645E-02   2.1938E-05  0.1302
   2.2645E-02   2.3196E-02   1.9965E-05  0.1348
   2.3196E-02   2.3760E-02   2.3389E-05  0.1231
   2.3760E-02   2.4338E-02   1.9374E-05  0.1336
   2.4338E-02   2.4930E-02   2.2291E-05  0.1231
   2.4930E-02   2.5537E-02   2.5388E-05  0.1140
   2.5537E-02   2.6158E-02   2.4785E-05  0.1140
   2.6158E-02   2.6795E-02   2.7339E-05  0.1072
   2.6795E-02   2.7447E-02   2.6383E-05  0.1078
   2.7447E-02   2.8114E-02   2.5457E-05  0.1085
   2.8114E-02   2.8799E-02   2.6606E-05  0.1048
   2.8799E-02   2.9499E-02   2.0837E-05  0.1170
   2.9499E-02   3.0217E-02   2.8980E-05  0.0981
   3.0217E-02   3.0952E-02   2.4211E-05  0.1060
   3.0952E-02   3.1705E-02   2.8682E-05  0.0962
   3.1705E-02   3.2477E-02   2.0741E-05  0.1118
   3.2477E-02   3.3267E-02   2.4804E-05  0.1010
   3.3267E-02   3.4076E-02   2.8416E-05  0.0933
   3.4076E-02   3.4905E-02   2.4122E-05  0.1000
   3.4905E-02   3.5755E-02   2.4491E-05  0.0981
   3.5755E-02   3.6625E-02   2.7358E-05  0.0917
   3.6625E-02   3.7516E-02   2.2444E-05  0.1000
   3.7516E-02   3.8428E-02   2.7170E-05  0.0898
   3.8428E-02   3.9363E-02   2.5241E-05  0.0921
   3.9363E-02   4.0321E-02   2.2971E-05  0.0953
   4.0321E-02   4.1302E-02   2.6502E-05  0.0877
   4.1302E-02   4.2307E-02   2.6868E-05  0.0861
   4.2307E-02   4.3337E-02   2.3510E-05  0.0909
   4.3337E-02   4.4391E-02   2.5796E-05  0.0857
   4.4391E-02   4.5471E-02   2.6110E-05  0.0842
   4.5471E-02   4.6577E-02   2.2958E-05  0.0887
   4.6577E-02   4.7711E-02   3.1237E-05  0.0752
   4.7711E-02   4.8871E-02   2.5671E-05  0.0819
   4.8871E-02   5.0061E-02   2.8762E-05  0.0765
   5.0061E-02   5.1279E-02   2.7750E-05  0.0769
   5.1279E-02   5.2526E-02   2.9335E-05  0.0739
   5.2526E-02   5.3804E-02   2.3005E-05  0.0825
   5.3804E-02   5.5113E-02   2.9486E-05  0.0720
   5.5113E-02   5.6454E-02   2.5057E-05  0.0772
   5.6454E-02   5.7828E-02   2.6937E-05  0.0735
   5.7828E-02   5.9235E-02   3.0704E-05  0.0680
   5.9235E-02   6.0676E-02   2.8587E-05  0.0697
   6.0676E-02   6.2152E-02   2.5876E-05  0.0724
   6.2152E-02   6.3665E-02   3.0287E-05  0.0661
   6.3665E-02   6.5214E-02   3.0084E-05  0.0655
   6.5214E-02   6.6800E-02   2.4831E-05  0.0712
   6.6800E-02   6.8426E-02   2.5595E-05  0.0693
   6.8426E-02   7.0090E-02   2.7030E-05  0.0667
   7.0090E-02   7.1796E-02   2.8381E-05  0.0643
   7.1796E-02   7.3543E-02   2.9539E-05  0.0623
   7.3543E-02   7.5332E-02   3.0402E-05  0.0606
   7.5332E-02   7.7165E-02   2.6516E-05  0.0642
   7.7165E-02   7.9042E-02   2.9188E-05  0.0604
   7.9042E-02   8.0965E-02   2.8599E-05  0.0603
   8.0965E-02   8.2935E-02   2.8529E-05  0.0597
   8.2935E-02   8.4953E-02   2.7554E-05  0.0600
   8.4953E-02   8.7020E-02   3.0963E-05  0.0559
   8.7020E-02   8.9138E-02   2.9661E-05  0.0564
   8.9138E-02   9.1306E-02   2.8495E-05  0.0569
   9.1306E-02   9.3528E-02   2.6288E-05  0.0585
   9.3528E-02   9.5804E-02   2.9706E-05  0.0544
   9.5804E-02   9.8134E-02   3.1317E-05  0.0523
   9.8134E-02   1.0052E-01   3.1662E-05  0.0514
   1.0052E-01   1.0297E-01   3.0992E-05  0.0514
   1.0297E-01   1.0547E-01   2.9857E-05  0.0517
   1.0547E-01   1.0804E-01   2.9459E-05  0.0514
   1.0804E-01   1.1067E-01   2.8684E-05  0.0515
   1.1067E-01   1.1336E-01   3.0379E-05  0.0494
   1.1336E-01   1.1612E-01   3.2775E-05  0.0470
   1.1612E-01   1.1894E-01   2.9519E-05  0.0490
   1.1894E-01   1.2184E-01   3.0961E-05  0.0472
   1.2184E-01   1.2480E-01   3.4138E-05  0.0445
   1.2480E-01   1.2784E-01   3.2076E-05  0.0453
   1.2784E-01   1.3095E-01   3.1378E-05  0.0453
   1.3095E-01   1.3414E-01   3.4148E-05  0.0429
   1.3414E-01   1.3740E-01   3.2663E-05  0.0433
   1.3740E-01   1.4074E-01   3.4699E-05  0.0415
   1.4074E-01   1.4417E-01   3.3174E-05  0.0420
   1.4417E-01   1.4767E-01   3.1360E-05  0.0426
   1.4767E-01   1.5127E-01   3.2841E-05  0.0412
   1.5127E-01   1.5495E-01   3.3963E-05  0.0400
   1.5495E-01   1.5872E-01   3.5650E-05  0.0386
   1.5872E-01   1.6258E-01   3.6719E-05  0.0376
   1.6258E-01   1.6654E-01   3.4583E-05  0.0382
   1.6654E-01   1.7059E-01   3.4502E-05  0.0378
   1.7059E-01   1.7474E-01   3.2863E-05  0.0383
   1.7474E-01   1.7899E-01   3.5423E-05  0.0364
   1.7899E-01   1.8334E-01   3.4627E-05  0.0364
   1.8334E-01   1.8781E-01   3.4970E-05  0.0358
   1.8781E-01   1.9237E-01   3.4577E-05  0.0356
   1.9237E-01   1.9706E-01   3.5551E-05  0.0347
   1.9706E-01   2.0185E-01   3.6458E-05  0.0338
   2.0185E-01   2.0676E-01   3.4859E-05  0.0342
   2.0676E-01   2.1179E-01   3.6218E-05  0.0331
   2.1179E-01   2.1694E-01   3.5319E-05  0.0331
   2.1694E-01   2.2222E-01   3.6488E-05  0.0322
   2.2222E-01   2.2763E-01   3.5732E-05  0.0322
   2.2763E-01   2.3317E-01   3.5100E-05  0.0321
   2.3317E-01   2.3884E-01   3.6064E-05  0.0313
   2.3884E-01   2.4465E-01   3.5311E-05  0.0312
   2.4465E-01   2.5061E-01   3.7295E-05  0.0300
   2.5061E-01   2.5670E-01   3.7163E-05  0.0297
   2.5670E-01   2.6295E-01   3.7273E-05  0.0293
   2.6295E-01   2.6935E-01   3.8201E-05  0.0286
   2.6935E-01   2.7590E-01   3.6317E-05  0.0290
   2.7590E-01   2.8261E-01   3.9298E-05  0.0275
   2.8261E-01   2.8949E-01   3.8655E-05  0.0274
   2.8949E-01   2.9653E-01   3.6772E-05  0.0278
   2.9653E-01   3.0375E-01   3.7922E-05  0.0270
   3.0375E-01   3.1114E-01   3.7129E-05  0.0270
   3.1114E-01   3.1871E-01   3.9867E-05  0.0257
   3.1871E-01   3.2646E-01   3.7940E-05  0.0261
   3.2646E-01   3.3441E-01   4.2628E-05  0.0243
   3.3441E-01   3.4254E-01   4.2058E-05  0.0242
   3.4254E-01   3.5088E-01   3.9835E-05  0.0245
   3.5088E-01   3.5941E-01   4.0014E-05  0.0242
   3.5941E-01   3.6816E-01   4.0184E-05  0.0239
   3.6816E-01   3.7712E-01   4.0815E-05  0.0234
   3.7712E-01   3.8629E-01   4.0172E-05  0.0233
   3.8629E-01   3.9569E-01   4.0729E-05  0.0229
   3.9569E-01   4.0532E-01   4.0540E-05  0.0226
   4.0532E-01   4.1518E-01   4.1352E-05  0.0221
   4.1518E-01   4.2528E-01   4.2983E-05  0.0215
   4.2528E-01   4.3563E-01   4.1769E-05  0.0215
   4.3563E-01   4.4623E-01   4.1305E-05  0.0214
   4.4623E-01   4.5708E-01   4.2240E-05  0.0209
   4.5708E-01   4.6821E-01   4.2082E-05  0.0207
   4.6821E-01   4.7960E-01   4.0152E-05  0.0209
   4.7960E-01   4.9127E-01   4.1100E-05  0.0204
   4.9127E-01   5.0322E-01   4.4073E-05  0.0195
   5.0322E-01   5.1546E-01   4.3206E-05  0.0194
   5.1546E-01   5.2800E-01   4.3104E-05  0.0192
   5.2800E-01   5.4085E-01   4.1551E-05  0.0194
   5.4085E-01   5.5401E-01   4.2935E-05  0.0188
   5.5401E-01   5.6749E-01   4.2420E-05  0.0187
   5.6749E-01   5.8130E-01   4.2412E-05  0.0185
   5.8130E-01   5.9544E-01   4.4190E-05  0.0179
   5.9544E-01   6.0993E-01   4.5335E-05  0.0175
   6.0993E-01   6.2477E-01   4.2763E-05  0.0178
   6.2477E-01   6.3997E-01   4.3207E-05  0.0175
   6.3997E-01   6.5554E-01   4.5675E-05  0.0168
   6.5554E-01   6.7149E-01   4.2571E-05  0.0172
   6.7149E-01   6.8783E-01   4.2968E-05  0.0169
   6.8783E-01   7.0456E-01   4.4110E-05  0.0165
   7.0456E-01   7.2171E-01   4.2047E-05  0.0167
   7.2171E-01   7.3927E-01   4.3873E-05  0.0161
   7.3927E-01   7.5725E-01   4.5055E-05  0.0157
   7.5725E-01   7.7568E-01   4.3453E-05  0.0158
   7.7568E-01   7.9455E-01   4.3396E-05  0.0156
   7.9455E-01   8.1388E-01   4.2717E-05  0.0156
   8.1388E-01   8.3368E-01   4.3136E-05  0.0153
   8.3368E-01   8.5397E-01   4.2792E-05  0.0152
   8.5397E-01   8.7475E-01   4.3027E-05  0.0150
   8.7475E-01   8.9603E-01   4.3175E-05  0.0148
   8.9603E-01   9.1783E-01   4.1163E-05  0.0149
   9.1783E-01   9.4016E-01   4.1690E-05  0.0147
   9.4016E-01   9.6304E-01   4.1810E-05  0.0145
   9.6304E-01   9.8647E-01   4.0518E-05  0.0145
   9.8647E-01   1.0105E+00   3.8406E-05  0.0147
   1.0105E+00   1.0351E+00   3.8039E-05  0.0146
   1.0351E+00   1.0602E+00   3.7461E-05  0.0146
   1.0602E+00   1.0860E+00   3.5175E-05  0.0148
   1.0860E+00   1.1125E+00   3.5763E-05  0.0145
   1.1125E+00   1.1395E+00   3.4987E-05  0.0145
   1.1395E+00   1.1673E+00   3.4106E-05  0.0145
   1.1673E+00   1.1957E+00   3.3584E-05  0.0145
   1.1957E+00   1.2247E+00   3.1597E-05  0.0148
   1.2247E+00   1.2545E+00   3.1833E-05  0.0145
   1.2545E+00   1.2851E+00   3.0153E-05  0.0147
   1.2851E+00   1.3163E+00   2.9674E-05  0.0147
   1.3163E+00   1.3484E+00   2.8713E-05  0.0147
   1.3484E+00   1.3812E+00   2.8476E-05  0.0146
   1.3812E+00   1.4148E+00   2.7198E-05  0.0148
   1.4148E+00   1.4492E+00   2.6459E-05  0.0148
   1.4492E+00   1.4845E+00   2.5564E-05  0.0149
   1.4845E+00   1.5206E+00   2.4813E-05  0.0149
   1.5206E+00   1.5576E+00   2.3862E-05  0.0151
   1.5576E+00   1.5955E+00   2.3384E-05  0.0150
   1.5955E+00   1.6343E+00   2.2644E-05  0.0151
   1.6343E+00   1.6741E+00   2.0883E-05  0.0155
   1.6741E+00   1.7148E+00   2.1203E-05  0.0152
   1.7148E+00   1.7565E+00   2.0709E-05  0.0152
   1.7565E+00   1.7992E+00   1.9599E-05  0.0155
   1.7992E+00   1.8430E+00   1.9407E-05  0.0153
   1.8430E+00   1.8879E+00   1.7827E-05  0.0158
   1.8879E+00   1.9338E+00   1.8131E-05  0.0155
   1.9338E+00   1.9808E+00   1.6735E-05  0.0159
   1.9808E+00   2.0290E+00   1.7000E-05  0.0156
   2.0290E+00   2.0784E+00   1.6225E-05  0.0158
   2.0784E+00   2.1290E+00   1.5349E-05  0.0161
   2.1290E+00   2.1808E+00   1.4950E-05  0.0161
   2.1808E+00   2.2338E+00   1.4391E-05  0.0162
   2.2338E+00   2.2882E+00   1.3600E-05  0.0164
   2.2882E+00   2.3439E+00   1.3281E-05  0.0164
   2.3439E+00   2.4009E+00   1.2724E-05  0.0166
   2.4009E+00   2.4593E+00   1.2312E-05  0.0167
   2.4593E+00   2.5191E+00   1.1862E-05  0.0168
   2.5191E+00   2.5804E+00   1.1874E-05  0.0166
   2.5804E+00   2.6432E+00   1.0917E-05  0.0171
   2.6432E+00   2.7075E+00   1.0527E-05  0.0172
   2.7075E+00   2.7734E+00   1.0052E-05  0.0174
   2.7734E+00   2.8409E+00   9.8756E-06  0.0173
   2.8409E+00   2.9100E+00   9.2186E-06  0.0177
   2.9100E+00   2.9808E+00   9.0915E-06  0.0176
   2.9808E+00   3.0533E+00   8.5060E-06  0.0180
   3.0533E+00   3.1276E+00   7.9728E-06  0.0184
   3.1276E+00   3.2037E+00   8.1593E-06  0.0179
   3.2037E+00   3.2817E+00   7.5229E-06  0.0185
   3.2817E+00   3.3615E+00   7.2189E-06  0.0186
   3.3615E+00   3.4433E+00   6.8628E-06  0.0189
   3.4433E+00   3.5271E+00   6.5721E-06  0.0191
   3.5271E+00   3.6129E+00   6.1888E-06  0.0194
   3.6129E+00   3.7008E+00   5.8029E-06  0.0198
   3.7008E+00   3.7908E+00   5.5684E-06  0.0200
   3.7908E+00   3.8831E+00   5.3711E-06  0.0201
   3.8831E+00   3.9776E+00   4.8530E-06  0.0209
   3.9776E+00   4.0743E+00   4.6220E-06  0.0211
   4.0743E+00   4.1735E+00   4.4113E-06  0.0214
   4.1735E+00   4.2750E+00   4.0849E-06  0.0220
   4.2750E+00   4.3790E+00   4.1100E-06  0.0216
   4.3790E+00   4.4856E+00   3.7768E-06  0.0223
   4.4856E+00   4.5947E+00   3.5414E-06  0.0227
   4.5947E+00   4.7065E+00   3.3034E-06  0.0233
   4.7065E+00   4.8210E+00   3.1350E-06  0.0236
   4.8210E+00   4.9383E+00   2.9310E-06  0.0241
   4.9383E+00   5.0585E+00   2.6408E-06  0.0251
   5.0585E+00   5.1815E+00   2.5829E-06  0.0251
   5.1815E+00   5.3076E+00   2.2947E-06  0.0263
   5.3076E+00   5.4368E+00   2.3084E-06  0.0259
   5.4368E+00   5.5690E+00   2.0056E-06  0.0274
   5.5690E+00   5.7045E+00   1.9616E-06  0.0274
   5.7045E+00   5.8433E+00   1.7868E-06  0.0284
   5.8433E+00   5.9855E+00   1.7169E-06  0.0286
   5.9855E+00   6.1311E+00   1.5333E-06  0.0299
   6.1311E+00   6.2803E+00   1.4319E-06  0.0306
   6.2803E+00   6.4331E+00   1.3704E-06  0.0309
   6.4331E+00   6.5896E+00   1.2656E-06  0.0318
   6.5896E+00   6.7500E+00   1.2038E-06  0.0322
   6.7500E+00   6.9142E+00   1.0875E-06  0.0335
   6.9142E+00   7.0824E+00   9.8438E-07  0.0348
   7.0824E+00   7.2548E+00   8.7917E-07  0.0363
   7.2548E+00   7.4313E+00   8.3676E-07  0.0368
   7.4313E+00   7.6121E+00   7.3393E-07  0.0388
   7.6121E+00   7.7973E+00   7.0353E-07  0.0392
   7.7973E+00   7.9870E+00   6.3042E-07  0.0409
   7.9870E+00   8.1813E+00   5.7274E-07  0.0424
   8.1813E+00   8.3804E+00   5.4105E-07  0.0431
   8.3804E+00   8.5843E+00   4.7964E-07  0.0452
   8.5843E+00   8.7931E+00   4.5437E-07  0.0459
   8.7931E+00   9.0071E+00   4.3236E-07  0.0465
   9.0071E+00   9.2262E+00   3.4999E-07  0.0510
   9.2262E+00   9.4507E+00   3.2430E-07  0.0524
   9.4507E+00   9.6807E+00   3.0877E-07  0.0531
   9.6807E+00   9.9162E+00   2.8106E-07  0.0549
   9.9162E+00   1.0157E+01   2.6651E-07  0.0557
   1.0157E+01   1.0405E+01   2.1486E-07  0.0613
   1.0405E+01   1.0658E+01   2.0976E-07  0.0613
   1.0658E+01   1.0917E+01   1.8665E-07  0.0643
   1.0917E+01   1.1183E+01   1.8071E-07  0.0645
   1.1183E+01   1.1455E+01   1.8156E-07  0.0636
   1.1455E+01   1.1733E+01   1.4316E-07  0.0708
   1.1733E+01   1.2019E+01   1.2960E-07  0.0735
   1.2019E+01   1.2311E+01   1.2311E-07  0.0744
   1.2311E+01   1.2611E+01   1.2753E-07  0.0723
   1.2611E+01   1.2918E+01   1.0918E-07  0.0772
   1.2918E+01   1.3232E+01   8.7178E-08  0.0854
   1.3232E+01   1.3554E+01   9.8774E-08  0.0793
   1.3554E+01   1.3884E+01   8.9757E-08  0.0822
   1.3884E+01   1.4222E+01   8.5849E-08  0.0830
   1.4222E+01   1.4568E+01   7.5139E-08  0.0877
   1.4568E+01   1.4922E+01   6.9405E-08  0.0902
   1.4922E+01   1.5285E+01   7.3816E-08  0.0864
   1.5285E+01   1.5657E+01   7.0987E-08  0.0870
   1.5657E+01   1.6038E+01   5.9851E-08  0.0937
   1.6038E+01   1.6428E+01   4.4591E-08  0.1072
   1.6428E+01   1.6828E+01   4.7034E-08  0.1031
   1.6828E+01   1.7237E+01   5.1290E-08  0.0976
   1.7237E+01   1.7657E+01   3.8627E-08  0.1111
   1.7657E+01   1.8086E+01   3.6778E-08  0.1125
   1.8086E+01   1.8526E+01   4.0904E-08  0.1054
   1.8526E+01   1.8977E+01   3.3721E-08  0.1147
   1.8977E+01   1.9439E+01   2.4257E-08  0.1336
   1.9439E+01   1.9912E+01   2.7909E-08  0.1231
   1.9912E+01   2.0396E+01   2.8072E-08  0.1213
   2.0396E+01   2.0893E+01   2.5390E-08  0.1260
   2.0893E+01   2.1401E+01   2.4393E-08  0.1270
   2.1401E+01   2.1922E+01   2.1125E-08  0.1348
   2.1922E+01   2.2455E+01   1.9124E-08  0.1400
   2.2455E+01   2.3001E+01   2.0500E-08  0.1336
   2.3001E+01   2.3561E+01   1.7154E-08  0.1443
   2.3561E+01   2.4134E+01   1.2909E-08  0.1644
   2.4134E+01   2.4721E+01   1.2943E-08  0.1622
   2.4721E+01   2.5323E+01   1.0973E-08  0.1741
   2.5323E+01   2.5939E+01   1.3958E-08  0.1525
   2.5939E+01   2.6570E+01   9.5069E-09  0.1826
   2.6570E+01   2.7217E+01   1.1137E-08  0.1667
   2.7217E+01   2.7879E+01   7.5506E-09  0.2000
   2.7879E+01   2.8557E+01   6.4867E-09  0.2132
   2.8557E+01   2.9252E+01   9.4989E-09  0.1741
   2.9252E+01   2.9964E+01   9.2732E-09  0.1741
   2.9964E+01   3.0693E+01   5.4867E-09  0.2236
   3.0693E+01   3.1440E+01   6.6954E-09  0.2000
   3.1440E+01   3.2205E+01   4.9676E-09  0.2294
   3.2205E+01   3.2988E+01   3.8287E-09  0.2582
   3.2988E+01   3.3791E+01   5.4820E-09  0.2132
   3.3791E+01   3.4613E+01   4.6220E-09  0.2294
   3.4613E+01   3.5455E+01   2.8498E-09  0.2887
   3.5455E+01   3.6318E+01   3.0140E-09  0.2774
   3.6318E+01   3.7201E+01   1.8107E-09  0.3536
   3.7201E+01   3.8106E+01   2.6515E-09  0.2887
   3.8106E+01   3.9034E+01   1.9414E-09  0.3333
   3.9034E+01   3.9983E+01   6.3177E-10  0.5774
   3.9983E+01   4.0956E+01   1.6447E-09  0.3536
   4.0956E+01   4.1953E+01   1.0035E-09  0.4472
   4.1953E+01   4.2973E+01   1.3716E-09  0.3780
   4.2973E+01   4.4019E+01   1.3390E-09  0.3780
   4.4019E+01   4.5090E+01   0.0000E+00  0.0000
   4.5090E+01   4.6187E+01   1.8230E-10  1.0000
   4.6187E+01   4.7311E+01   1.7797E-10  1.0000
   4.7311E+01   4.8462E+01   0.0000E+00  0.0000
   4.8462E+01   4.9641E+01   0.0000E+00  0.0000
   4.9641E+01   5.0849E+01   0.0000E+00  0.0000
   5.0849E+01   5.2086E+01   0.0000E+00  0.0000
   5.2086E+01   5.3353E+01   0.0000E+00  0.0000
   5.3353E+01   5.4651E+01   0.0000E+00  0.0000
   5.4651E+01   5.5981E+01   0.0000E+00  0.0000
   5.5981E+01   5.7343E+01   0.0000E+00  0.0000
   5.7343E+01   5.8738E+01   0.0000E+00  0.0000
   5.8738E+01   6.0168E+01   0.0000E+00  0.0000
   6.0168E+01   6.1632E+01   0.0000E+00  0.0000
   6.1632E+01   6.3131E+01   0.0000E+00  0.0000
   6.3131E+01   6.4667E+01   0.0000E+00  0.0000
   6.4667E+01   6.6240E+01   0.0000E+00  0.0000
   6.6240E+01   6.7852E+01   0.0000E+00  0.0000
   6.7852E+01   6.9503E+01   0.0000E+00  0.0000
   6.9503E+01   7.1194E+01   0.0000E+00  0.0000
   7.1194E+01   7.2926E+01   0.0000E+00  0.0000
   7.2926E+01   7.4701E+01   0.0000E+00  0.0000
   7.4701E+01   7.6518E+01   0.0000E+00  0.0000
   7.6518E+01   7.8380E+01   0.0000E+00  0.0000
   7.8380E+01   8.0287E+01   0.0000E+00  0.0000
   8.0287E+01   8.2240E+01   0.0000E+00  0.0000
   8.2240E+01   8.4241E+01   0.0000E+00  0.0000
   8.4241E+01   8.6291E+01   0.0000E+00  0.0000
   8.6291E+01   8.8391E+01   0.0000E+00  0.0000
   8.8391E+01   9.0541E+01   0.0000E+00  0.0000
   9.0541E+01   9.2744E+01   0.0000E+00  0.0000
   9.2744E+01   9.5001E+01   0.0000E+00  0.0000
   9.5001E+01   9.7312E+01   0.0000E+00  0.0000
   9.7312E+01   9.9680E+01   0.0000E+00  0.0000
   9.9680E+01   1.0211E+02   0.0000E+00  0.0000
   1.0211E+02   1.0459E+02   0.0000E+00  0.0000
   1.0459E+02   1.0713E+02   0.0000E+00  0.0000
   1.0713E+02   1.0974E+02   0.0000E+00  0.0000
   1.0974E+02   1.1241E+02   0.0000E+00  0.0000
   1.1241E+02   1.1515E+02   0.0000E+00  0.0000
   1.1515E+02   1.1795E+02   0.0000E+00  0.0000
   1.1795E+02   1.2082E+02   0.0000E+00  0.0000
   1.2082E+02   1.2376E+02   0.0000E+00  0.0000
   1.2376E+02   1.2677E+02   0.0000E+00  0.0000
   1.2677E+02   1.2985E+02   0.0000E+00  0.0000
   1.2985E+02   1.3301E+02   0.0000E+00  0.0000
   1.3301E+02   1.3625E+02   0.0000E+00  0.0000
   1.3625E+02   1.3956E+02   0.0000E+00  0.0000
   1.3956E+02   1.4296E+02   0.0000E+00  0.0000
   1.4296E+02   1.4644E+02   0.0000E+00  0.0000
   1.4644E+02   1.5000E+02   0.0000E+00  0.0000

#   sum over                 6.2094E-07
'no. =    1   reg = 125 - 225'
msuc: {\huge [t-cross] in region mesh}
msdr: {\it plotted by \ANGEL \version}
msdl: {\it calculated by \PHITS  3.26}
wt: s(0.7)
\vspace{-3}
  region surface crossing
  area  &=&   1.0000E+00 [cm^2]
e:
 
# Information for Restart Calculation
# This calculation was newly started
# istdev =  2 # 1:Batch variance, 2:History variance
# resc2  = 5.00000000000000000E+09 # Total source weight or Total source weight / maxcas
# resc3  = 5.00000000000000000E+09 # Total history number or Total batch number
# maxcas =   500000000 # History / Batch, only used for istdev=1
# bitrseed = 0110100000100010111000001110001111001110100100011111101000111001 # bit data of rseed
