[ T-Cross ]
    title = [t-cross] in region mesh
     mesh =  reg            # mesh type is region-wise
      reg =    1            # number of crossing regions
      non     r-from    r-to       area
      1       120       220        1.000000    
   e-type =    3            # e-mesh is log given by emin, emax and ne
     emin =  1.0000000E-02  # minimum value of e-mesh points
     emax =   150.0000      # maximum value of e-mesh points
#    edel =  2.4039514E-02  # mesh width of e-mesh points
       ne =    400          # number of e-mesh points
#    data = ( e(i), i = 1, ne + 1 )
#           1.00000E-02  1.02433E-02  1.04925E-02  1.07478E-02  1.10093E-02
#           1.12772E-02  1.15516E-02  1.18326E-02  1.21205E-02  1.24154E-02
#           1.27175E-02  1.30269E-02  1.33439E-02  1.36686E-02  1.40011E-02
#           1.43418E-02  1.46907E-02  1.50482E-02  1.54143E-02  1.57894E-02
#           1.61735E-02  1.65670E-02  1.69701E-02  1.73830E-02  1.78060E-02
#           1.82392E-02  1.86830E-02  1.91375E-02  1.96032E-02  2.00801E-02
#           2.05687E-02  2.10692E-02  2.15818E-02  2.21069E-02  2.26448E-02
#           2.31957E-02  2.37601E-02  2.43382E-02  2.49304E-02  2.55369E-02
#           2.61583E-02  2.67947E-02  2.74467E-02  2.81145E-02  2.87985E-02
#           2.94992E-02  3.02169E-02  3.09521E-02  3.17052E-02  3.24766E-02
#           3.32668E-02  3.40762E-02  3.49053E-02  3.57546E-02  3.66246E-02
#           3.75157E-02  3.84284E-02  3.93634E-02  4.03212E-02  4.13022E-02
#           4.23071E-02  4.33365E-02  4.43909E-02  4.54710E-02  4.65773E-02
#           4.77106E-02  4.88714E-02  5.00605E-02  5.12785E-02  5.25262E-02
#           5.38042E-02  5.51133E-02  5.64542E-02  5.78278E-02  5.92348E-02
#           6.06760E-02  6.21523E-02  6.36645E-02  6.52135E-02  6.68002E-02
#           6.84255E-02  7.00904E-02  7.17957E-02  7.35426E-02  7.53319E-02
#           7.71648E-02  7.90423E-02  8.09655E-02  8.29354E-02  8.49533E-02
#           8.70203E-02  8.91376E-02  9.13064E-02  9.35279E-02  9.58035E-02
#           9.81345E-02  1.00522E-01  1.02968E-01  1.05473E-01  1.08040E-01
#           1.10668E-01  1.13361E-01  1.16119E-01  1.18944E-01  1.21838E-01
#           1.24803E-01  1.27839E-01  1.30950E-01  1.34136E-01  1.37399E-01
#           1.40742E-01  1.44167E-01  1.47675E-01  1.51268E-01  1.54948E-01
#           1.58718E-01  1.62580E-01  1.66535E-01  1.70587E-01  1.74738E-01
#           1.78989E-01  1.83344E-01  1.87805E-01  1.92375E-01  1.97055E-01
#           2.01850E-01  2.06761E-01  2.11792E-01  2.16945E-01  2.22223E-01
#           2.27630E-01  2.33169E-01  2.38842E-01  2.44653E-01  2.50605E-01
#           2.56703E-01  2.62949E-01  2.69346E-01  2.75900E-01  2.82613E-01
#           2.89489E-01  2.96532E-01  3.03747E-01  3.11138E-01  3.18708E-01
#           3.26462E-01  3.34405E-01  3.42542E-01  3.50876E-01  3.59413E-01
#           3.68158E-01  3.77116E-01  3.86291E-01  3.95690E-01  4.05317E-01
#           4.15179E-01  4.25281E-01  4.35628E-01  4.46227E-01  4.57084E-01
#           4.68205E-01  4.79597E-01  4.91266E-01  5.03219E-01  5.15463E-01
#           5.28005E-01  5.40851E-01  5.54011E-01  5.67490E-01  5.81298E-01
#           5.95441E-01  6.09929E-01  6.24769E-01  6.39970E-01  6.55541E-01
#           6.71491E-01  6.87828E-01  7.04564E-01  7.21706E-01  7.39266E-01
#           7.57253E-01  7.75678E-01  7.94551E-01  8.13883E-01  8.33685E-01
#           8.53969E-01  8.74747E-01  8.96030E-01  9.17831E-01  9.40163E-01
#           9.63038E-01  9.86469E-01  1.01047E+00  1.03506E+00  1.06024E+00
#           1.08604E+00  1.11246E+00  1.13953E+00  1.16725E+00  1.19565E+00
#           1.22474E+00  1.25454E+00  1.28507E+00  1.31633E+00  1.34836E+00
#           1.38117E+00  1.41477E+00  1.44920E+00  1.48446E+00  1.52057E+00
#           1.55757E+00  1.59547E+00  1.63429E+00  1.67405E+00  1.71478E+00
#           1.75650E+00  1.79924E+00  1.84302E+00  1.88786E+00  1.93379E+00
#           1.98084E+00  2.02904E+00  2.07841E+00  2.12898E+00  2.18078E+00
#           2.23384E+00  2.28819E+00  2.34386E+00  2.40089E+00  2.45930E+00
#           2.51914E+00  2.58043E+00  2.64322E+00  2.70753E+00  2.77341E+00
#           2.84088E+00  2.91001E+00  2.98081E+00  3.05333E+00  3.12762E+00
#           3.20372E+00  3.28167E+00  3.36152E+00  3.44330E+00  3.52708E+00
#           3.61290E+00  3.70080E+00  3.79085E+00  3.88308E+00  3.97756E+00
#           4.07434E+00  4.17347E+00  4.27501E+00  4.37903E+00  4.48557E+00
#           4.59471E+00  4.70650E+00  4.82102E+00  4.93832E+00  5.05847E+00
#           5.18155E+00  5.30762E+00  5.43676E+00  5.56904E+00  5.70453E+00
#           5.84333E+00  5.98550E+00  6.13114E+00  6.28031E+00  6.43312E+00
#           6.58964E+00  6.74997E+00  6.91420E+00  7.08243E+00  7.25475E+00
#           7.43126E+00  7.61207E+00  7.79728E+00  7.98700E+00  8.18133E+00
#           8.38038E+00  8.58428E+00  8.79315E+00  9.00709E+00  9.22624E+00
#           9.45072E+00  9.68067E+00  9.91620E+00  1.01575E+01  1.04046E+01
#           1.06578E+01  1.09171E+01  1.11827E+01  1.14548E+01  1.17335E+01
#           1.20190E+01  1.23114E+01  1.26109E+01  1.29178E+01  1.32321E+01
#           1.35540E+01  1.38838E+01  1.42216E+01  1.45676E+01  1.49221E+01
#           1.52851E+01  1.56570E+01  1.60380E+01  1.64282E+01  1.68279E+01
#           1.72374E+01  1.76568E+01  1.80864E+01  1.85264E+01  1.89772E+01
#           1.94389E+01  1.99119E+01  2.03963E+01  2.08926E+01  2.14009E+01
#           2.19216E+01  2.24550E+01  2.30014E+01  2.35610E+01  2.41343E+01
#           2.47215E+01  2.53230E+01  2.59391E+01  2.65702E+01  2.72167E+01
#           2.78789E+01  2.85572E+01  2.92520E+01  2.99637E+01  3.06928E+01
#           3.14396E+01  3.22045E+01  3.29881E+01  3.37907E+01  3.46128E+01
#           3.54550E+01  3.63177E+01  3.72013E+01  3.81064E+01  3.90336E+01
#           3.99833E+01  4.09561E+01  4.19526E+01  4.29734E+01  4.40189E+01
#           4.50900E+01  4.61870E+01  4.73108E+01  4.84619E+01  4.96410E+01
#           5.08488E+01  5.20860E+01  5.33533E+01  5.46514E+01  5.59812E+01
#           5.73432E+01  5.87384E+01  6.01676E+01  6.16315E+01  6.31311E+01
#           6.46671E+01  6.62405E+01  6.78522E+01  6.95031E+01  7.11941E+01
#           7.29263E+01  7.47007E+01  7.65182E+01  7.83800E+01  8.02870E+01
#           8.22405E+01  8.42414E+01  8.62911E+01  8.83906E+01  9.05412E+01
#           9.27442E+01  9.50007E+01  9.73122E+01  9.96799E+01  1.02105E+02
#           1.04589E+02  1.07134E+02  1.09741E+02  1.12411E+02  1.15146E+02
#           1.17948E+02  1.20817E+02  1.23757E+02  1.26768E+02  1.29852E+02
#           1.33012E+02  1.36248E+02  1.39563E+02  1.42959E+02  1.46437E+02
#           1.50000E+02
     unit =    2            # unit is [1/cm^2/(MeV/n)/source]
     axis =  eng            # axis of output
     file = detector-21.out  # file name of output for the above axis
   output = f-curr          # surface crossing forward current spectrum
     part =  neutron  
# kf/name :  2112     
#    used :        main (  %)        temp (  %)       total (  %)
#  memory :         414 (  0)           0 (  0)         414 (  0)

#------------------------------------------------------------------------------
#newpage:
#   no. =    1   reg = 120 - 220

x: Energy [MeV/n]
y:  F-Curr [1/cm^2/(MeV/n)/source]         
p: xlog ylog afac(0.8) form(0.9)
h: n            x            y(neutron ),hh0l   n 
#  e-lower      e-upper      neutron     r.err 
   1.0000E-02   1.0243E-02   1.1590E-04  0.0842
   1.0243E-02   1.0493E-02   1.0352E-04  0.0880
   1.0493E-02   1.0748E-02   1.1830E-04  0.0814
   1.0748E-02   1.1009E-02   1.0019E-04  0.0874
   1.1009E-02   1.1277E-02   1.0602E-04  0.0839
   1.1277E-02   1.1552E-02   1.1007E-04  0.0814
   1.1552E-02   1.1833E-02   1.1812E-04  0.0776
   1.1833E-02   1.2121E-02   9.8646E-05  0.0839
   1.2121E-02   1.2415E-02   8.9521E-05  0.0870
   1.2415E-02   1.2718E-02   1.2977E-04  0.0714
   1.2718E-02   1.3027E-02   9.6953E-05  0.0816
   1.3027E-02   1.3344E-02   1.2052E-04  0.0724
   1.3344E-02   1.3669E-02   1.1519E-04  0.0731
   1.3669E-02   1.4001E-02   1.0344E-04  0.0762
   1.4001E-02   1.4342E-02   1.1448E-04  0.0716
   1.4342E-02   1.4691E-02   1.0775E-04  0.0729
   1.4691E-02   1.5048E-02   1.0519E-04  0.0729
   1.5048E-02   1.5414E-02   1.2291E-04  0.0667
   1.5414E-02   1.5789E-02   1.1732E-04  0.0674
   1.5789E-02   1.6174E-02   1.2807E-04  0.0638
   1.6174E-02   1.6567E-02   1.1080E-04  0.0677
   1.6567E-02   1.6970E-02   1.0370E-04  0.0692
   1.6970E-02   1.7383E-02   1.0608E-04  0.0676
   1.7383E-02   1.7806E-02   1.1160E-04  0.0651
   1.7806E-02   1.8239E-02   1.0202E-04  0.0673
   1.8239E-02   1.8683E-02   1.1853E-04  0.0617
   1.8683E-02   1.9138E-02   1.1791E-04  0.0611
   1.9138E-02   1.9603E-02   1.2370E-04  0.0589
   1.9603E-02   2.0080E-02   1.0860E-04  0.0621
   2.0080E-02   2.0569E-02   1.1708E-04  0.0591
   2.0569E-02   2.1069E-02   1.1430E-04  0.0591
   2.1069E-02   2.1582E-02   1.1899E-04  0.0573
   2.1582E-02   2.2107E-02   1.1084E-04  0.0586
   2.2107E-02   2.2645E-02   1.2605E-04  0.0543
   2.2645E-02   2.3196E-02   1.2378E-04  0.0542
   2.3196E-02   2.3760E-02   1.2368E-04  0.0535
   2.3760E-02   2.4338E-02   1.2143E-04  0.0534
   2.4338E-02   2.4930E-02   1.1753E-04  0.0536
   2.4930E-02   2.5537E-02   1.2529E-04  0.0513
   2.5537E-02   2.6158E-02   1.2554E-04  0.0506
   2.6158E-02   2.6795E-02   1.2130E-04  0.0509
   2.6795E-02   2.7447E-02   1.2087E-04  0.0504
   2.7447E-02   2.8114E-02   1.2998E-04  0.0480
   2.8114E-02   2.8799E-02   1.2192E-04  0.0490
   2.8799E-02   2.9499E-02   1.3415E-04  0.0461
   2.9499E-02   3.0217E-02   1.2762E-04  0.0467
   3.0217E-02   3.0952E-02   1.2568E-04  0.0465
   3.0952E-02   3.1705E-02   1.1871E-04  0.0473
   3.1705E-02   3.2477E-02   1.2678E-04  0.0452
   3.2477E-02   3.3267E-02   1.2428E-04  0.0451
   3.3267E-02   3.4076E-02   1.2972E-04  0.0436
   3.4076E-02   3.4905E-02   1.2520E-04  0.0439
   3.4905E-02   3.5755E-02   1.2481E-04  0.0434
   3.5755E-02   3.6625E-02   1.3196E-04  0.0417
   3.6625E-02   3.7516E-02   1.2726E-04  0.0420
   3.7516E-02   3.8428E-02   1.3278E-04  0.0406
   3.8428E-02   3.9363E-02   1.2877E-04  0.0408
   3.9363E-02   4.0321E-02   1.3177E-04  0.0398
   4.0321E-02   4.1302E-02   1.3027E-04  0.0396
   4.1302E-02   4.2307E-02   1.2996E-04  0.0391
   4.2307E-02   4.3337E-02   1.3465E-04  0.0380
   4.3337E-02   4.4391E-02   1.3259E-04  0.0378
   4.4391E-02   4.5471E-02   1.3536E-04  0.0370
   4.5471E-02   4.6577E-02   1.2889E-04  0.0375
   4.6577E-02   4.7711E-02   1.3871E-04  0.0357
   4.7711E-02   4.8871E-02   1.3714E-04  0.0354
   4.8871E-02   5.0061E-02   1.3960E-04  0.0347
   5.0061E-02   5.1279E-02   1.4039E-04  0.0342
   5.1279E-02   5.2526E-02   1.4475E-04  0.0333
   5.2526E-02   5.3804E-02   1.4038E-04  0.0334
   5.3804E-02   5.5113E-02   1.4628E-04  0.0323
   5.5113E-02   5.6454E-02   1.3916E-04  0.0327
   5.6454E-02   5.7828E-02   1.3934E-04  0.0323
   5.7828E-02   5.9235E-02   1.4783E-04  0.0310
   5.9235E-02   6.0676E-02   1.4002E-04  0.0315
   6.0676E-02   6.2152E-02   1.4848E-04  0.0302
   6.2152E-02   6.3665E-02   1.3993E-04  0.0307
   6.3665E-02   6.5214E-02   1.4396E-04  0.0299
   6.5214E-02   6.6800E-02   1.3538E-04  0.0305
   6.6800E-02   6.8426E-02   1.5025E-04  0.0286
   6.8426E-02   7.0090E-02   1.4224E-04  0.0291
   7.0090E-02   7.1796E-02   1.3651E-04  0.0293
   7.1796E-02   7.3543E-02   1.4300E-04  0.0283
   7.3543E-02   7.5332E-02   1.5235E-04  0.0271
   7.5332E-02   7.7165E-02   1.4873E-04  0.0271
   7.7165E-02   7.9042E-02   1.5063E-04  0.0266
   7.9042E-02   8.0965E-02   1.5048E-04  0.0263
   8.0965E-02   8.2935E-02   1.5371E-04  0.0257
   8.2935E-02   8.4953E-02   1.4996E-04  0.0257
   8.4953E-02   8.7020E-02   1.4940E-04  0.0254
   8.7020E-02   8.9138E-02   1.4953E-04  0.0251
   8.9138E-02   9.1306E-02   1.5815E-04  0.0241
   9.1306E-02   9.3528E-02   1.5503E-04  0.0241
   9.3528E-02   9.5804E-02   1.5714E-04  0.0236
   9.5804E-02   9.8134E-02   1.6053E-04  0.0231
   9.8134E-02   1.0052E-01   1.5613E-04  0.0232
   1.0052E-01   1.0297E-01   1.5472E-04  0.0230
   1.0297E-01   1.0547E-01   1.5575E-04  0.0226
   1.0547E-01   1.0804E-01   1.5922E-04  0.0221
   1.0804E-01   1.1067E-01   1.6305E-04  0.0216
   1.1067E-01   1.1336E-01   1.5605E-04  0.0218
   1.1336E-01   1.1612E-01   1.5858E-04  0.0214
   1.1612E-01   1.1894E-01   1.5963E-04  0.0211
   1.1894E-01   1.2184E-01   1.6054E-04  0.0207
   1.2184E-01   1.2480E-01   1.6556E-04  0.0202
   1.2480E-01   1.2784E-01   1.6242E-04  0.0201
   1.2784E-01   1.3095E-01   1.6692E-04  0.0196
   1.3095E-01   1.3414E-01   1.6917E-04  0.0193
   1.3414E-01   1.3740E-01   1.6779E-04  0.0191
   1.3740E-01   1.4074E-01   1.6632E-04  0.0190
   1.4074E-01   1.4417E-01   1.7194E-04  0.0184
   1.4417E-01   1.4767E-01   1.7231E-04  0.0182
   1.4767E-01   1.5127E-01   1.7261E-04  0.0180
   1.5127E-01   1.5495E-01   1.7302E-04  0.0177
   1.5495E-01   1.5872E-01   1.6690E-04  0.0178
   1.5872E-01   1.6258E-01   1.7438E-04  0.0172
   1.6258E-01   1.6654E-01   1.7352E-04  0.0171
   1.6654E-01   1.7059E-01   1.7794E-04  0.0167
   1.7059E-01   1.7474E-01   1.7612E-04  0.0165
   1.7474E-01   1.7899E-01   1.7674E-04  0.0163
   1.7899E-01   1.8334E-01   1.8292E-04  0.0158
   1.8334E-01   1.8781E-01   1.8104E-04  0.0157
   1.8781E-01   1.9237E-01   1.7858E-04  0.0157
   1.9237E-01   1.9706E-01   1.7985E-04  0.0154
   1.9706E-01   2.0185E-01   1.7749E-04  0.0153
   2.0185E-01   2.0676E-01   1.8195E-04  0.0150
   2.0676E-01   2.1179E-01   1.8590E-04  0.0146
   2.1179E-01   2.1694E-01   1.8016E-04  0.0147
   2.1694E-01   2.2222E-01   1.8157E-04  0.0144
   2.2222E-01   2.2763E-01   1.8255E-04  0.0142
   2.2763E-01   2.3317E-01   1.8424E-04  0.0140
   2.3317E-01   2.3884E-01   1.8751E-04  0.0137
   2.3884E-01   2.4465E-01   1.9256E-04  0.0134
   2.4465E-01   2.5061E-01   1.9343E-04  0.0132
   2.5061E-01   2.5670E-01   1.8824E-04  0.0132
   2.5670E-01   2.6295E-01   1.9011E-04  0.0130
   2.6295E-01   2.6935E-01   1.9310E-04  0.0127
   2.6935E-01   2.7590E-01   1.9199E-04  0.0126
   2.7590E-01   2.8261E-01   1.9723E-04  0.0123
   2.8261E-01   2.8949E-01   2.0273E-04  0.0120
   2.8949E-01   2.9653E-01   1.9541E-04  0.0121
   2.9653E-01   3.0375E-01   1.9399E-04  0.0120
   3.0375E-01   3.1114E-01   1.9604E-04  0.0117
   3.1114E-01   3.1871E-01   2.0042E-04  0.0115
   3.1871E-01   3.2646E-01   1.9826E-04  0.0114
   3.2646E-01   3.3441E-01   2.0095E-04  0.0112
   3.3441E-01   3.4254E-01   2.0240E-04  0.0110
   3.4254E-01   3.5088E-01   2.0323E-04  0.0109
   3.5088E-01   3.5941E-01   2.0108E-04  0.0108
   3.5941E-01   3.6816E-01   2.0593E-04  0.0105
   3.6816E-01   3.7712E-01   2.0548E-04  0.0104
   3.7712E-01   3.8629E-01   2.0862E-04  0.0102
   3.8629E-01   3.9569E-01   2.0620E-04  0.0102
   3.9569E-01   4.0532E-01   2.0869E-04  0.0100
   4.0532E-01   4.1518E-01   2.0664E-04  0.0099
   4.1518E-01   4.2528E-01   2.1248E-04  0.0097
   4.2528E-01   4.3563E-01   2.1113E-04  0.0096
   4.3563E-01   4.4623E-01   2.1419E-04  0.0094
   4.4623E-01   4.5708E-01   2.1243E-04  0.0093
   4.5708E-01   4.6821E-01   2.1347E-04  0.0092
   4.6821E-01   4.7960E-01   2.1508E-04  0.0090
   4.7960E-01   4.9127E-01   2.1687E-04  0.0089
   4.9127E-01   5.0322E-01   2.1526E-04  0.0088
   5.0322E-01   5.1546E-01   2.1962E-04  0.0086
   5.1546E-01   5.2800E-01   2.1691E-04  0.0086
   5.2800E-01   5.4085E-01   2.1542E-04  0.0085
   5.4085E-01   5.5401E-01   2.1978E-04  0.0083
   5.5401E-01   5.6749E-01   2.1949E-04  0.0082
   5.6749E-01   5.8130E-01   2.1824E-04  0.0081
   5.8130E-01   5.9544E-01   2.1676E-04  0.0081
   5.9544E-01   6.0993E-01   2.2031E-04  0.0079
   6.0993E-01   6.2477E-01   2.2104E-04  0.0078
   6.2477E-01   6.3997E-01   2.2133E-04  0.0077
   6.3997E-01   6.5554E-01   2.1990E-04  0.0076
   6.5554E-01   6.7149E-01   2.2082E-04  0.0075
   6.7149E-01   6.8783E-01   2.2251E-04  0.0074
   6.8783E-01   7.0456E-01   2.2086E-04  0.0074
   7.0456E-01   7.2171E-01   2.1945E-04  0.0073
   7.2171E-01   7.3927E-01   2.2201E-04  0.0072
   7.3927E-01   7.5725E-01   2.2013E-04  0.0071
   7.5725E-01   7.7568E-01   2.2183E-04  0.0070
   7.7568E-01   7.9455E-01   2.2091E-04  0.0069
   7.9455E-01   8.1388E-01   2.1771E-04  0.0069
   8.1388E-01   8.3368E-01   2.1760E-04  0.0068
   8.3368E-01   8.5397E-01   2.2060E-04  0.0067
   8.5397E-01   8.7475E-01   2.1576E-04  0.0067
   8.7475E-01   8.9603E-01   2.1588E-04  0.0066
   8.9603E-01   9.1783E-01   2.1545E-04  0.0065
   9.1783E-01   9.4016E-01   2.1054E-04  0.0065
   9.4016E-01   9.6304E-01   2.0929E-04  0.0065
   9.6304E-01   9.8647E-01   2.0487E-04  0.0065
   9.8647E-01   1.0105E+00   1.9397E-04  0.0066
   1.0105E+00   1.0351E+00   1.9048E-04  0.0065
   1.0351E+00   1.0602E+00   1.8861E-04  0.0065
   1.0602E+00   1.0860E+00   1.8568E-04  0.0065
   1.0860E+00   1.1125E+00   1.8193E-04  0.0065
   1.1125E+00   1.1395E+00   1.7883E-04  0.0064
   1.1395E+00   1.1673E+00   1.7385E-04  0.0064
   1.1673E+00   1.1957E+00   1.7176E-04  0.0064
   1.1957E+00   1.2247E+00   1.6797E-04  0.0064
   1.2247E+00   1.2545E+00   1.6605E-04  0.0064
   1.2545E+00   1.2851E+00   1.6050E-04  0.0064
   1.2851E+00   1.3163E+00   1.5768E-04  0.0064
   1.3163E+00   1.3484E+00   1.5244E-04  0.0064
   1.3484E+00   1.3812E+00   1.4815E-04  0.0064
   1.3812E+00   1.4148E+00   1.4482E-04  0.0064
   1.4148E+00   1.4492E+00   1.4073E-04  0.0064
   1.4492E+00   1.4845E+00   1.3880E-04  0.0064
   1.4845E+00   1.5206E+00   1.3525E-04  0.0064
   1.5206E+00   1.5576E+00   1.2987E-04  0.0065
   1.5576E+00   1.5955E+00   1.2692E-04  0.0064
   1.5955E+00   1.6343E+00   1.2137E-04  0.0065
   1.6343E+00   1.6741E+00   1.1815E-04  0.0065
   1.6741E+00   1.7148E+00   1.1495E-04  0.0065
   1.7148E+00   1.7565E+00   1.1086E-04  0.0066
   1.7565E+00   1.7992E+00   1.0786E-04  0.0066
   1.7992E+00   1.8430E+00   1.0391E-04  0.0066
   1.8430E+00   1.8879E+00   1.0092E-04  0.0066
   1.8879E+00   1.9338E+00   9.7546E-05  0.0067
   1.9338E+00   1.9808E+00   9.3185E-05  0.0068
   1.9808E+00   2.0290E+00   9.0743E-05  0.0068
   2.0290E+00   2.0784E+00   8.8476E-05  0.0068
   2.0784E+00   2.1290E+00   8.5000E-05  0.0068
   2.1290E+00   2.1808E+00   8.1248E-05  0.0069
   2.1808E+00   2.2338E+00   7.8234E-05  0.0069
   2.2338E+00   2.2882E+00   7.4941E-05  0.0070
   2.2882E+00   2.3439E+00   7.3109E-05  0.0070
   2.3439E+00   2.4009E+00   6.9562E-05  0.0071
   2.4009E+00   2.4593E+00   6.7234E-05  0.0071
   2.4593E+00   2.5191E+00   6.4820E-05  0.0072
   2.5191E+00   2.5804E+00   6.3394E-05  0.0072
   2.5804E+00   2.6432E+00   5.9674E-05  0.0073
   2.6432E+00   2.7075E+00   5.8262E-05  0.0073
   2.7075E+00   2.7734E+00   5.5504E-05  0.0074
   2.7734E+00   2.8409E+00   5.3270E-05  0.0075
   2.8409E+00   2.9100E+00   5.0138E-05  0.0076
   2.9100E+00   2.9808E+00   4.8807E-05  0.0076
   2.9808E+00   3.0533E+00   4.6341E-05  0.0077
   3.0533E+00   3.1276E+00   4.4457E-05  0.0078
   3.1276E+00   3.2037E+00   4.2474E-05  0.0079
   3.2037E+00   3.2817E+00   4.0834E-05  0.0079
   3.2817E+00   3.3615E+00   3.8563E-05  0.0081
   3.3615E+00   3.4433E+00   3.6517E-05  0.0082
   3.4433E+00   3.5271E+00   3.5247E-05  0.0082
   3.5271E+00   3.6129E+00   3.3357E-05  0.0084
   3.6129E+00   3.7008E+00   3.1346E-05  0.0085
   3.7008E+00   3.7908E+00   3.0567E-05  0.0085
   3.7908E+00   3.8831E+00   2.8636E-05  0.0087
   3.8831E+00   3.9776E+00   2.7495E-05  0.0088
   3.9776E+00   4.0743E+00   2.5811E-05  0.0089
   4.0743E+00   4.1735E+00   2.4522E-05  0.0091
   4.1735E+00   4.2750E+00   2.2610E-05  0.0093
   4.2750E+00   4.3790E+00   2.1724E-05  0.0094
   4.3790E+00   4.4856E+00   2.0027E-05  0.0097
   4.4856E+00   4.5947E+00   1.9117E-05  0.0098
   4.5947E+00   4.7065E+00   1.7823E-05  0.0100
   4.7065E+00   4.8210E+00   1.6690E-05  0.0102
   4.8210E+00   4.9383E+00   1.5747E-05  0.0104
   4.9383E+00   5.0585E+00   1.4704E-05  0.0106
   5.0585E+00   5.1815E+00   1.4022E-05  0.0108
   5.1815E+00   5.3076E+00   1.3085E-05  0.0110
   5.3076E+00   5.4368E+00   1.2229E-05  0.0113
   5.4368E+00   5.5690E+00   1.1197E-05  0.0116
   5.5690E+00   5.7045E+00   1.0787E-05  0.0117
   5.7045E+00   5.8433E+00   9.7164E-06  0.0122
   5.8433E+00   5.9855E+00   9.1255E-06  0.0124
   5.9855E+00   6.1311E+00   8.5428E-06  0.0127
   6.1311E+00   6.2803E+00   7.7747E-06  0.0131
   6.2803E+00   6.4331E+00   7.2570E-06  0.0134
   6.4331E+00   6.5896E+00   6.9517E-06  0.0136
   6.5896E+00   6.7500E+00   6.0656E-06  0.0143
   6.7500E+00   6.9142E+00   5.7078E-06  0.0146
   6.9142E+00   7.0824E+00   5.3540E-06  0.0149
   7.0824E+00   7.2548E+00   4.9419E-06  0.0153
   7.2548E+00   7.4313E+00   4.6376E-06  0.0156
   7.4313E+00   7.6121E+00   4.2504E-06  0.0161
   7.6121E+00   7.7973E+00   3.7952E-06  0.0169
   7.7973E+00   7.9870E+00   3.4663E-06  0.0174
   7.9870E+00   8.1813E+00   3.3278E-06  0.0176
   8.1813E+00   8.3804E+00   3.0343E-06  0.0182
   8.3804E+00   8.5843E+00   2.6871E-06  0.0191
   8.5843E+00   8.7931E+00   2.4547E-06  0.0197
   8.7931E+00   9.0071E+00   2.2459E-06  0.0204
   9.0071E+00   9.2262E+00   2.1218E-06  0.0207
   9.2262E+00   9.4507E+00   1.8777E-06  0.0218
   9.4507E+00   9.6807E+00   1.7513E-06  0.0223
   9.6807E+00   9.9162E+00   1.5475E-06  0.0234
   9.9162E+00   1.0157E+01   1.4929E-06  0.0235
   1.0157E+01   1.0405E+01   1.2936E-06  0.0250
   1.0405E+01   1.0658E+01   1.2396E-06  0.0252
   1.0658E+01   1.0917E+01   1.1446E-06  0.0259
   1.0917E+01   1.1183E+01   1.0142E-06  0.0272
   1.1183E+01   1.1455E+01   1.0008E-06  0.0271
   1.1455E+01   1.1733E+01   9.1603E-07  0.0280
   1.1733E+01   1.2019E+01   8.8831E-07  0.0281
   1.2019E+01   1.2311E+01   7.6839E-07  0.0298
   1.2311E+01   1.2611E+01   6.9739E-07  0.0309
   1.2611E+01   1.2918E+01   6.5117E-07  0.0316
   1.2918E+01   1.3232E+01   6.0515E-07  0.0324
   1.3232E+01   1.3554E+01   5.6345E-07  0.0332
   1.3554E+01   1.3884E+01   5.3126E-07  0.0338
   1.3884E+01   1.4222E+01   4.9881E-07  0.0344
   1.4222E+01   1.4568E+01   4.5373E-07  0.0357
   1.4568E+01   1.4922E+01   4.2489E-07  0.0364
   1.4922E+01   1.5285E+01   4.0213E-07  0.0370
   1.5285E+01   1.5657E+01   3.6865E-07  0.0382
   1.5657E+01   1.6038E+01   3.5963E-07  0.0382
   1.6038E+01   1.6428E+01   3.1803E-07  0.0401
   1.6428E+01   1.6828E+01   3.0572E-07  0.0405
   1.6828E+01   1.7237E+01   2.7062E-07  0.0425
   1.7237E+01   1.7657E+01   2.5322E-07  0.0434
   1.7657E+01   1.8086E+01   2.7467E-07  0.0412
   1.8086E+01   1.8526E+01   2.3997E-07  0.0435
   1.8526E+01   1.8977E+01   2.2140E-07  0.0448
   1.8977E+01   1.9439E+01   1.9275E-07  0.0474
   1.9439E+01   1.9912E+01   1.9536E-07  0.0465
   1.9912E+01   2.0396E+01   1.6802E-07  0.0496
   2.0396E+01   2.0893E+01   1.6282E-07  0.0498
   2.0893E+01   2.1401E+01   1.4557E-07  0.0520
   2.1401E+01   2.1922E+01   1.4327E-07  0.0518
   2.1922E+01   2.2455E+01   1.3424E-07  0.0529
   2.2455E+01   2.3001E+01   1.1861E-07  0.0556
   2.3001E+01   2.3561E+01   1.0292E-07  0.0589
   2.3561E+01   2.4134E+01   9.4896E-08  0.0606
   2.4134E+01   2.4721E+01   1.0184E-07  0.0578
   2.4721E+01   2.5323E+01   8.2462E-08  0.0635
   2.5323E+01   2.5939E+01   7.7257E-08  0.0648
   2.5939E+01   2.6570E+01   6.7182E-08  0.0687
   2.6570E+01   2.7217E+01   5.9709E-08  0.0720
   2.7217E+01   2.7879E+01   5.5572E-08  0.0737
   2.7879E+01   2.8557E+01   4.9829E-08  0.0769
   2.8557E+01   2.9252E+01   4.8934E-08  0.0767
   2.9252E+01   2.9964E+01   4.7771E-08  0.0767
   2.9964E+01   3.0693E+01   4.1150E-08  0.0816
   3.0693E+01   3.1440E+01   3.4816E-08  0.0877
   3.1440E+01   3.2205E+01   3.2420E-08  0.0898
   3.2205E+01   3.2988E+01   2.7822E-08  0.0958
   3.2988E+01   3.3791E+01   2.3672E-08  0.1026
   3.3791E+01   3.4613E+01   1.5569E-08  0.1250
   3.4613E+01   3.5455E+01   1.9474E-08  0.1104
   3.5455E+01   3.6318E+01   1.6693E-08  0.1179
   3.6318E+01   3.7201E+01   1.4486E-08  0.1250
   3.7201E+01   3.8106E+01   1.3037E-08  0.1302
   3.8106E+01   3.9034E+01   1.4668E-08  0.1213
   3.9034E+01   3.9983E+01   1.4320E-08  0.1213
   3.9983E+01   4.0956E+01   6.7844E-09  0.1741
   4.0956E+01   4.1953E+01   8.6302E-09  0.1525
   4.1953E+01   4.2973E+01   5.6821E-09  0.1857
   4.2973E+01   4.4019E+01   4.5908E-09  0.2041
   4.4019E+01   4.5090E+01   4.1082E-09  0.2132
   4.5090E+01   4.6187E+01   1.6407E-09  0.3333
   4.6187E+01   4.7311E+01   1.2458E-09  0.3780
   4.7311E+01   4.8462E+01   0.0000E+00  0.0000
   4.8462E+01   4.9641E+01   1.6962E-10  1.0000
   4.9641E+01   5.0849E+01   1.6559E-10  1.0000
   5.0849E+01   5.2086E+01   1.6166E-10  1.0000
   5.2086E+01   5.3353E+01   0.0000E+00  0.0000
   5.3353E+01   5.4651E+01   0.0000E+00  0.0000
   5.4651E+01   5.5981E+01   0.0000E+00  0.0000
   5.5981E+01   5.7343E+01   0.0000E+00  0.0000
   5.7343E+01   5.8738E+01   0.0000E+00  0.0000
   5.8738E+01   6.0168E+01   0.0000E+00  0.0000
   6.0168E+01   6.1632E+01   0.0000E+00  0.0000
   6.1632E+01   6.3131E+01   0.0000E+00  0.0000
   6.3131E+01   6.4667E+01   0.0000E+00  0.0000
   6.4667E+01   6.6240E+01   0.0000E+00  0.0000
   6.6240E+01   6.7852E+01   0.0000E+00  0.0000
   6.7852E+01   6.9503E+01   0.0000E+00  0.0000
   6.9503E+01   7.1194E+01   0.0000E+00  0.0000
   7.1194E+01   7.2926E+01   0.0000E+00  0.0000
   7.2926E+01   7.4701E+01   0.0000E+00  0.0000
   7.4701E+01   7.6518E+01   0.0000E+00  0.0000
   7.6518E+01   7.8380E+01   0.0000E+00  0.0000
   7.8380E+01   8.0287E+01   0.0000E+00  0.0000
   8.0287E+01   8.2240E+01   0.0000E+00  0.0000
   8.2240E+01   8.4241E+01   0.0000E+00  0.0000
   8.4241E+01   8.6291E+01   0.0000E+00  0.0000
   8.6291E+01   8.8391E+01   0.0000E+00  0.0000
   8.8391E+01   9.0541E+01   0.0000E+00  0.0000
   9.0541E+01   9.2744E+01   0.0000E+00  0.0000
   9.2744E+01   9.5001E+01   0.0000E+00  0.0000
   9.5001E+01   9.7312E+01   0.0000E+00  0.0000
   9.7312E+01   9.9680E+01   0.0000E+00  0.0000
   9.9680E+01   1.0211E+02   0.0000E+00  0.0000
   1.0211E+02   1.0459E+02   0.0000E+00  0.0000
   1.0459E+02   1.0713E+02   0.0000E+00  0.0000
   1.0713E+02   1.0974E+02   0.0000E+00  0.0000
   1.0974E+02   1.1241E+02   0.0000E+00  0.0000
   1.1241E+02   1.1515E+02   0.0000E+00  0.0000
   1.1515E+02   1.1795E+02   0.0000E+00  0.0000
   1.1795E+02   1.2082E+02   0.0000E+00  0.0000
   1.2082E+02   1.2376E+02   0.0000E+00  0.0000
   1.2376E+02   1.2677E+02   0.0000E+00  0.0000
   1.2677E+02   1.2985E+02   0.0000E+00  0.0000
   1.2985E+02   1.3301E+02   0.0000E+00  0.0000
   1.3301E+02   1.3625E+02   0.0000E+00  0.0000
   1.3625E+02   1.3956E+02   0.0000E+00  0.0000
   1.3956E+02   1.4296E+02   0.0000E+00  0.0000
   1.4296E+02   1.4644E+02   0.0000E+00  0.0000
   1.4644E+02   1.5000E+02   0.0000E+00  0.0000

#   sum over                 3.2693E-06
'no. =    1   reg = 120 - 220'
msuc: {\huge [t-cross] in region mesh}
msdr: {\it plotted by \ANGEL \version}
msdl: {\it calculated by \PHITS  3.26}
wt: s(0.7)
\vspace{-3}
  region surface crossing
  area  &=&   1.0000E+00 [cm^2]
e:
 
# Information for Restart Calculation
# This calculation was newly started
# istdev =  2 # 1:Batch variance, 2:History variance
# resc2  = 5.00000000000000000E+09 # Total source weight or Total source weight / maxcas
# resc3  = 5.00000000000000000E+09 # Total history number or Total batch number
# maxcas =   500000000 # History / Batch, only used for istdev=1
# bitrseed = 0110100000100010111000001110001111001110100100011111101000111001 # bit data of rseed
