[ T-Cross ]
    title = [t-cross] in region mesh
     mesh =  reg            # mesh type is region-wise
      reg =    1            # number of crossing regions
      non     r-from    r-to       area
      1       111       211        1.000000    
   e-type =    3            # e-mesh is log given by emin, emax and ne
     emin =  1.0000000E-02  # minimum value of e-mesh points
     emax =   150.0000      # maximum value of e-mesh points
#    edel =  2.4039514E-02  # mesh width of e-mesh points
       ne =    400          # number of e-mesh points
#    data = ( e(i), i = 1, ne + 1 )
#           1.00000E-02  1.02433E-02  1.04925E-02  1.07478E-02  1.10093E-02
#           1.12772E-02  1.15516E-02  1.18326E-02  1.21205E-02  1.24154E-02
#           1.27175E-02  1.30269E-02  1.33439E-02  1.36686E-02  1.40011E-02
#           1.43418E-02  1.46907E-02  1.50482E-02  1.54143E-02  1.57894E-02
#           1.61735E-02  1.65670E-02  1.69701E-02  1.73830E-02  1.78060E-02
#           1.82392E-02  1.86830E-02  1.91375E-02  1.96032E-02  2.00801E-02
#           2.05687E-02  2.10692E-02  2.15818E-02  2.21069E-02  2.26448E-02
#           2.31957E-02  2.37601E-02  2.43382E-02  2.49304E-02  2.55369E-02
#           2.61583E-02  2.67947E-02  2.74467E-02  2.81145E-02  2.87985E-02
#           2.94992E-02  3.02169E-02  3.09521E-02  3.17052E-02  3.24766E-02
#           3.32668E-02  3.40762E-02  3.49053E-02  3.57546E-02  3.66246E-02
#           3.75157E-02  3.84284E-02  3.93634E-02  4.03212E-02  4.13022E-02
#           4.23071E-02  4.33365E-02  4.43909E-02  4.54710E-02  4.65773E-02
#           4.77106E-02  4.88714E-02  5.00605E-02  5.12785E-02  5.25262E-02
#           5.38042E-02  5.51133E-02  5.64542E-02  5.78278E-02  5.92348E-02
#           6.06760E-02  6.21523E-02  6.36645E-02  6.52135E-02  6.68002E-02
#           6.84255E-02  7.00904E-02  7.17957E-02  7.35426E-02  7.53319E-02
#           7.71648E-02  7.90423E-02  8.09655E-02  8.29354E-02  8.49533E-02
#           8.70203E-02  8.91376E-02  9.13064E-02  9.35279E-02  9.58035E-02
#           9.81345E-02  1.00522E-01  1.02968E-01  1.05473E-01  1.08040E-01
#           1.10668E-01  1.13361E-01  1.16119E-01  1.18944E-01  1.21838E-01
#           1.24803E-01  1.27839E-01  1.30950E-01  1.34136E-01  1.37399E-01
#           1.40742E-01  1.44167E-01  1.47675E-01  1.51268E-01  1.54948E-01
#           1.58718E-01  1.62580E-01  1.66535E-01  1.70587E-01  1.74738E-01
#           1.78989E-01  1.83344E-01  1.87805E-01  1.92375E-01  1.97055E-01
#           2.01850E-01  2.06761E-01  2.11792E-01  2.16945E-01  2.22223E-01
#           2.27630E-01  2.33169E-01  2.38842E-01  2.44653E-01  2.50605E-01
#           2.56703E-01  2.62949E-01  2.69346E-01  2.75900E-01  2.82613E-01
#           2.89489E-01  2.96532E-01  3.03747E-01  3.11138E-01  3.18708E-01
#           3.26462E-01  3.34405E-01  3.42542E-01  3.50876E-01  3.59413E-01
#           3.68158E-01  3.77116E-01  3.86291E-01  3.95690E-01  4.05317E-01
#           4.15179E-01  4.25281E-01  4.35628E-01  4.46227E-01  4.57084E-01
#           4.68205E-01  4.79597E-01  4.91266E-01  5.03219E-01  5.15463E-01
#           5.28005E-01  5.40851E-01  5.54011E-01  5.67490E-01  5.81298E-01
#           5.95441E-01  6.09929E-01  6.24769E-01  6.39970E-01  6.55541E-01
#           6.71491E-01  6.87828E-01  7.04564E-01  7.21706E-01  7.39266E-01
#           7.57253E-01  7.75678E-01  7.94551E-01  8.13883E-01  8.33685E-01
#           8.53969E-01  8.74747E-01  8.96030E-01  9.17831E-01  9.40163E-01
#           9.63038E-01  9.86469E-01  1.01047E+00  1.03506E+00  1.06024E+00
#           1.08604E+00  1.11246E+00  1.13953E+00  1.16725E+00  1.19565E+00
#           1.22474E+00  1.25454E+00  1.28507E+00  1.31633E+00  1.34836E+00
#           1.38117E+00  1.41477E+00  1.44920E+00  1.48446E+00  1.52057E+00
#           1.55757E+00  1.59547E+00  1.63429E+00  1.67405E+00  1.71478E+00
#           1.75650E+00  1.79924E+00  1.84302E+00  1.88786E+00  1.93379E+00
#           1.98084E+00  2.02904E+00  2.07841E+00  2.12898E+00  2.18078E+00
#           2.23384E+00  2.28819E+00  2.34386E+00  2.40089E+00  2.45930E+00
#           2.51914E+00  2.58043E+00  2.64322E+00  2.70753E+00  2.77341E+00
#           2.84088E+00  2.91001E+00  2.98081E+00  3.05333E+00  3.12762E+00
#           3.20372E+00  3.28167E+00  3.36152E+00  3.44330E+00  3.52708E+00
#           3.61290E+00  3.70080E+00  3.79085E+00  3.88308E+00  3.97756E+00
#           4.07434E+00  4.17347E+00  4.27501E+00  4.37903E+00  4.48557E+00
#           4.59471E+00  4.70650E+00  4.82102E+00  4.93832E+00  5.05847E+00
#           5.18155E+00  5.30762E+00  5.43676E+00  5.56904E+00  5.70453E+00
#           5.84333E+00  5.98550E+00  6.13114E+00  6.28031E+00  6.43312E+00
#           6.58964E+00  6.74997E+00  6.91420E+00  7.08243E+00  7.25475E+00
#           7.43126E+00  7.61207E+00  7.79728E+00  7.98700E+00  8.18133E+00
#           8.38038E+00  8.58428E+00  8.79315E+00  9.00709E+00  9.22624E+00
#           9.45072E+00  9.68067E+00  9.91620E+00  1.01575E+01  1.04046E+01
#           1.06578E+01  1.09171E+01  1.11827E+01  1.14548E+01  1.17335E+01
#           1.20190E+01  1.23114E+01  1.26109E+01  1.29178E+01  1.32321E+01
#           1.35540E+01  1.38838E+01  1.42216E+01  1.45676E+01  1.49221E+01
#           1.52851E+01  1.56570E+01  1.60380E+01  1.64282E+01  1.68279E+01
#           1.72374E+01  1.76568E+01  1.80864E+01  1.85264E+01  1.89772E+01
#           1.94389E+01  1.99119E+01  2.03963E+01  2.08926E+01  2.14009E+01
#           2.19216E+01  2.24550E+01  2.30014E+01  2.35610E+01  2.41343E+01
#           2.47215E+01  2.53230E+01  2.59391E+01  2.65702E+01  2.72167E+01
#           2.78789E+01  2.85572E+01  2.92520E+01  2.99637E+01  3.06928E+01
#           3.14396E+01  3.22045E+01  3.29881E+01  3.37907E+01  3.46128E+01
#           3.54550E+01  3.63177E+01  3.72013E+01  3.81064E+01  3.90336E+01
#           3.99833E+01  4.09561E+01  4.19526E+01  4.29734E+01  4.40189E+01
#           4.50900E+01  4.61870E+01  4.73108E+01  4.84619E+01  4.96410E+01
#           5.08488E+01  5.20860E+01  5.33533E+01  5.46514E+01  5.59812E+01
#           5.73432E+01  5.87384E+01  6.01676E+01  6.16315E+01  6.31311E+01
#           6.46671E+01  6.62405E+01  6.78522E+01  6.95031E+01  7.11941E+01
#           7.29263E+01  7.47007E+01  7.65182E+01  7.83800E+01  8.02870E+01
#           8.22405E+01  8.42414E+01  8.62911E+01  8.83906E+01  9.05412E+01
#           9.27442E+01  9.50007E+01  9.73122E+01  9.96799E+01  1.02105E+02
#           1.04589E+02  1.07134E+02  1.09741E+02  1.12411E+02  1.15146E+02
#           1.17948E+02  1.20817E+02  1.23757E+02  1.26768E+02  1.29852E+02
#           1.33012E+02  1.36248E+02  1.39563E+02  1.42959E+02  1.46437E+02
#           1.50000E+02
     unit =    2            # unit is [1/cm^2/(MeV/n)/source]
     axis =  eng            # axis of output
     file = detector-12.out  # file name of output for the above axis
   output = f-curr          # surface crossing forward current spectrum
     part =  neutron  
# kf/name :  2112     
#    used :        main (  %)        temp (  %)       total (  %)
#  memory :         414 (  0)           0 (  0)         414 (  0)

#------------------------------------------------------------------------------
#newpage:
#   no. =    1   reg = 111 - 211

x: Energy [MeV/n]
y:  F-Curr [1/cm^2/(MeV/n)/source]         
p: xlog ylog afac(0.8) form(0.9)
h: n            x            y(neutron ),hh0l   n 
#  e-lower      e-upper      neutron     r.err 
   1.0000E-02   1.0243E-02   1.9309E-03  0.0647
   1.0243E-02   1.0493E-02   1.7280E-03  0.0673
   1.0493E-02   1.0748E-02   1.5752E-03  0.0700
   1.0748E-02   1.1009E-02   1.5981E-03  0.0685
   1.1009E-02   1.1277E-02   1.4777E-03  0.0702
   1.1277E-02   1.1552E-02   1.4561E-03  0.0699
   1.1552E-02   1.1833E-02   1.5615E-03  0.0668
   1.1833E-02   1.2121E-02   1.3753E-03  0.0703
   1.2121E-02   1.2415E-02   1.4709E-03  0.0671
   1.2415E-02   1.2718E-02   1.5279E-03  0.0651
   1.2718E-02   1.3027E-02   1.3729E-03  0.0680
   1.3027E-02   1.3344E-02   1.2631E-03  0.0702
   1.3344E-02   1.3669E-02   1.4831E-03  0.0638
   1.3669E-02   1.4001E-02   1.3998E-03  0.0653
   1.4001E-02   1.4342E-02   1.1175E-03  0.0718
   1.4342E-02   1.4691E-02   1.3461E-03  0.0646
   1.4691E-02   1.5048E-02   1.1811E-03  0.0680
   1.5048E-02   1.5414E-02   1.1334E-03  0.0689
   1.5414E-02   1.5789E-02   1.1561E-03  0.0673
   1.5789E-02   1.6174E-02   1.3261E-03  0.0623
   1.6174E-02   1.6567E-02   1.1005E-03  0.0674
   1.6567E-02   1.6970E-02   9.8596E-04  0.0702
   1.6970E-02   1.7383E-02   1.0105E-03  0.0686
   1.7383E-02   1.7806E-02   9.8593E-04  0.0686
   1.7806E-02   1.8239E-02   1.0032E-03  0.0673
   1.8239E-02   1.8683E-02   1.0800E-03  0.0641
   1.8683E-02   1.9138E-02   1.0756E-03  0.0635
   1.9138E-02   1.9603E-02   9.4479E-04  0.0666
   1.9603E-02   2.0080E-02   9.6065E-04  0.0654
   2.0080E-02   2.0569E-02   8.5042E-04  0.0687
   2.0569E-02   2.1069E-02   9.1605E-04  0.0656
   2.1069E-02   2.1582E-02   9.5170E-04  0.0634
   2.1582E-02   2.2107E-02   9.1346E-04  0.0640
   2.2107E-02   2.2645E-02   8.9154E-04  0.0640
   2.2645E-02   2.3196E-02   9.3227E-04  0.0619
   2.3196E-02   2.3760E-02   8.5243E-04  0.0639
   2.3760E-02   2.4338E-02   8.3135E-04  0.0639
   2.4338E-02   2.4930E-02   7.9516E-04  0.0642
   2.4930E-02   2.5537E-02   7.9228E-04  0.0638
   2.5537E-02   2.6158E-02   7.0453E-04  0.0669
   2.6158E-02   2.6795E-02   7.9748E-04  0.0623
   2.6795E-02   2.7447E-02   7.5803E-04  0.0629
   2.7447E-02   2.8114E-02   7.1389E-04  0.0641
   2.8114E-02   2.8799E-02   6.7283E-04  0.0654
   2.8799E-02   2.9499E-02   7.3056E-04  0.0620
   2.9499E-02   3.0217E-02   6.7274E-04  0.0638
   3.0217E-02   3.0952E-02   7.4819E-04  0.0598
   3.0952E-02   3.1705E-02   6.9732E-04  0.0613
   3.1705E-02   3.2477E-02   5.9152E-04  0.0657
   3.2477E-02   3.3267E-02   6.0910E-04  0.0641
   3.3267E-02   3.4076E-02   5.9577E-04  0.0641
   3.4076E-02   3.4905E-02   5.8389E-04  0.0638
   3.4905E-02   3.5755E-02   5.2217E-04  0.0664
   3.5755E-02   3.6625E-02   5.2153E-04  0.0659
   3.6625E-02   3.7516E-02   5.7307E-04  0.0621
   3.7516E-02   3.8428E-02   5.8353E-04  0.0608
   3.8428E-02   3.9363E-02   5.4400E-04  0.0620
   3.9363E-02   4.0321E-02   5.2863E-04  0.0624
   4.0321E-02   4.1302E-02   5.1194E-04  0.0627
   4.1302E-02   4.2307E-02   5.5030E-04  0.0596
   4.2307E-02   4.3337E-02   5.1407E-04  0.0610
   4.3337E-02   4.4391E-02   4.8367E-04  0.0620
   4.4391E-02   4.5471E-02   4.9599E-04  0.0605
   4.5471E-02   4.6577E-02   5.1375E-04  0.0589
   4.6577E-02   4.7711E-02   4.5216E-04  0.0617
   4.7711E-02   4.8871E-02   4.4141E-04  0.0619
   4.8871E-02   5.0061E-02   4.7019E-04  0.0594
   5.0061E-02   5.1279E-02   4.4732E-04  0.0601
   5.1279E-02   5.2526E-02   4.1538E-04  0.0616
   5.2526E-02   5.3804E-02   4.0057E-04  0.0617
   5.3804E-02   5.5113E-02   4.1616E-04  0.0599
   5.5113E-02   5.6454E-02   3.8784E-04  0.0614
   5.6454E-02   5.7828E-02   4.0193E-04  0.0598
   5.7828E-02   5.9235E-02   3.6466E-04  0.0618
   5.9235E-02   6.0676E-02   4.0764E-04  0.0578
   6.0676E-02   6.2152E-02   3.6744E-04  0.0601
   6.2152E-02   6.3665E-02   3.8447E-04  0.0582
   6.3665E-02   6.5214E-02   3.0770E-04  0.0642
   6.5214E-02   6.6800E-02   3.1538E-04  0.0627
   6.6800E-02   6.8426E-02   3.7057E-04  0.0573
   6.8426E-02   7.0090E-02   3.5245E-04  0.0577
   7.0090E-02   7.1796E-02   3.0438E-04  0.0614
   7.1796E-02   7.3543E-02   3.7953E-04  0.0544
   7.3543E-02   7.5332E-02   2.8969E-04  0.0618
   7.5332E-02   7.7165E-02   3.1999E-04  0.0580
   7.7165E-02   7.9042E-02   2.8851E-04  0.0604
   7.9042E-02   8.0965E-02   3.1262E-04  0.0572
   8.0965E-02   8.2935E-02   2.8086E-04  0.0597
   8.2935E-02   8.4953E-02   3.2988E-04  0.0544
   8.4953E-02   8.7020E-02   2.8358E-04  0.0579
   8.7020E-02   8.9138E-02   2.8654E-04  0.0570
   8.9138E-02   9.1306E-02   2.4904E-04  0.0603
   9.1306E-02   9.3528E-02   2.7562E-04  0.0567
   9.3528E-02   9.5804E-02   2.6769E-04  0.0568
   9.5804E-02   9.8134E-02   2.3870E-04  0.0592
   9.8134E-02   1.0052E-01   2.4691E-04  0.0576
   1.0052E-01   1.0297E-01   2.4884E-04  0.0570
   1.0297E-01   1.0547E-01   2.3268E-04  0.0582
   1.0547E-01   1.0804E-01   2.3178E-04  0.0575
   1.0804E-01   1.1067E-01   2.0356E-04  0.0606
   1.1067E-01   1.1336E-01   2.4453E-04  0.0547
   1.1336E-01   1.1612E-01   2.2734E-04  0.0560
   1.1612E-01   1.1894E-01   2.3471E-04  0.0545
   1.1894E-01   1.2184E-01   2.2970E-04  0.0544
   1.2184E-01   1.2480E-01   2.2153E-04  0.0546
   1.2480E-01   1.2784E-01   2.1179E-04  0.0555
   1.2784E-01   1.3095E-01   2.0587E-04  0.0554
   1.3095E-01   1.3414E-01   2.1210E-04  0.0539
   1.3414E-01   1.3740E-01   1.9050E-04  0.0562
   1.3740E-01   1.4074E-01   2.0171E-04  0.0539
   1.4074E-01   1.4417E-01   1.8150E-04  0.0561
   1.4417E-01   1.4767E-01   1.7889E-04  0.0560
   1.4767E-01   1.5127E-01   1.8092E-04  0.0550
   1.5127E-01   1.5495E-01   1.8510E-04  0.0537
   1.5495E-01   1.5872E-01   1.6218E-04  0.0566
   1.5872E-01   1.6258E-01   1.8071E-04  0.0531
   1.6258E-01   1.6654E-01   1.7054E-04  0.0539
   1.6654E-01   1.7059E-01   1.7828E-04  0.0523
   1.7059E-01   1.7474E-01   1.6404E-04  0.0538
   1.7474E-01   1.7899E-01   1.5521E-04  0.0546
   1.7899E-01   1.8334E-01   1.5979E-04  0.0531
   1.8334E-01   1.8781E-01   1.3431E-04  0.0573
   1.8781E-01   1.9237E-01   1.4798E-04  0.0538
   1.9237E-01   1.9706E-01   1.6638E-04  0.0504
   1.9706E-01   2.0185E-01   1.4510E-04  0.0531
   2.0185E-01   2.0676E-01   1.5230E-04  0.0512
   2.0676E-01   2.1179E-01   1.5280E-04  0.0507
   2.1179E-01   2.1694E-01   1.7255E-04  0.0469
   2.1694E-01   2.2222E-01   1.7240E-04  0.0465
   2.2222E-01   2.2763E-01   1.7703E-04  0.0454
   2.2763E-01   2.3317E-01   1.9530E-04  0.0426
   2.3317E-01   2.3884E-01   1.8631E-04  0.0431
   2.3884E-01   2.4465E-01   2.0807E-04  0.0403
   2.4465E-01   2.5061E-01   2.0846E-04  0.0398
   2.5061E-01   2.5670E-01   2.0389E-04  0.0398
   2.5670E-01   2.6295E-01   2.0854E-04  0.0388
   2.6295E-01   2.6935E-01   2.1592E-04  0.0377
   2.6935E-01   2.7590E-01   2.3194E-04  0.0360
   2.7590E-01   2.8261E-01   2.4943E-04  0.0343
   2.8261E-01   2.8949E-01   2.4989E-04  0.0338
   2.8949E-01   2.9653E-01   2.6218E-04  0.0326
   2.9653E-01   3.0375E-01   2.7028E-04  0.0317
   3.0375E-01   3.1114E-01   2.9320E-04  0.0301
   3.1114E-01   3.1871E-01   2.8920E-04  0.0299
   3.1871E-01   3.2646E-01   3.0934E-04  0.0286
   3.2646E-01   3.3441E-01   3.0036E-04  0.0287
   3.3441E-01   3.4254E-01   3.3193E-04  0.0270
   3.4254E-01   3.5088E-01   3.3519E-04  0.0265
   3.5088E-01   3.5941E-01   3.3574E-04  0.0262
   3.5941E-01   3.6816E-01   3.5325E-04  0.0252
   3.6816E-01   3.7712E-01   3.7877E-04  0.0241
   3.7712E-01   3.8629E-01   3.6969E-04  0.0241
   3.8629E-01   3.9569E-01   3.7497E-04  0.0236
   3.9569E-01   4.0532E-01   3.8650E-04  0.0230
   4.0532E-01   4.1518E-01   4.1097E-04  0.0220
   4.1518E-01   4.2528E-01   4.2374E-04  0.0214
   4.2528E-01   4.3563E-01   4.5266E-04  0.0205
   4.3563E-01   4.4623E-01   4.7501E-04  0.0198
   4.4623E-01   4.5708E-01   4.7102E-04  0.0196
   4.5708E-01   4.6821E-01   4.9396E-04  0.0189
   4.6821E-01   4.7960E-01   4.8078E-04  0.0189
   4.7960E-01   4.9127E-01   5.2479E-04  0.0179
   4.9127E-01   5.0322E-01   5.1962E-04  0.0178
   5.0322E-01   5.1546E-01   5.4631E-04  0.0171
   5.1546E-01   5.2800E-01   5.7463E-04  0.0165
   5.2800E-01   5.4085E-01   5.6432E-04  0.0164
   5.4085E-01   5.5401E-01   5.8836E-04  0.0159
   5.5401E-01   5.6749E-01   6.2256E-04  0.0153
   5.6749E-01   5.8130E-01   6.2138E-04  0.0151
   5.8130E-01   5.9544E-01   6.5275E-04  0.0146
   5.9544E-01   6.0993E-01   6.6112E-04  0.0143
   6.0993E-01   6.2477E-01   6.7952E-04  0.0140
   6.2477E-01   6.3997E-01   6.7409E-04  0.0138
   6.3997E-01   6.5554E-01   7.1099E-04  0.0133
   6.5554E-01   6.7149E-01   7.2610E-04  0.0130
   6.7149E-01   6.8783E-01   7.4510E-04  0.0127
   6.8783E-01   7.0456E-01   7.4379E-04  0.0126
   7.0456E-01   7.2171E-01   7.7018E-04  0.0122
   7.2171E-01   7.3927E-01   7.9564E-04  0.0119
   7.3927E-01   7.5725E-01   8.1896E-04  0.0115
   7.5725E-01   7.7568E-01   8.2931E-04  0.0113
   7.7568E-01   7.9455E-01   8.3417E-04  0.0112
   7.9455E-01   8.1388E-01   8.5128E-04  0.0109
   8.1388E-01   8.3368E-01   8.8426E-04  0.0106
   8.3368E-01   8.5397E-01   8.9562E-04  0.0104
   8.5397E-01   8.7475E-01   9.1361E-04  0.0102
   8.7475E-01   8.9603E-01   9.1504E-04  0.0100
   8.9603E-01   9.1783E-01   9.5354E-04  0.0097
   9.1783E-01   9.4016E-01   9.6632E-04  0.0095
   9.4016E-01   9.6304E-01   9.7911E-04  0.0094
   9.6304E-01   9.8647E-01   9.9146E-04  0.0092
   9.8647E-01   1.0105E+00   9.8830E-04  0.0091
   1.0105E+00   1.0351E+00   1.0118E-03  0.0089
   1.0351E+00   1.0602E+00   1.0187E-03  0.0087
   1.0602E+00   1.0860E+00   1.0329E-03  0.0086
   1.0860E+00   1.1125E+00   1.0194E-03  0.0085
   1.1125E+00   1.1395E+00   1.0204E-03  0.0084
   1.1395E+00   1.1673E+00   1.0474E-03  0.0082
   1.1673E+00   1.1957E+00   1.0632E-03  0.0081
   1.1957E+00   1.2247E+00   1.0830E-03  0.0079
   1.2247E+00   1.2545E+00   1.0659E-03  0.0079
   1.2545E+00   1.2851E+00   1.0765E-03  0.0077
   1.2851E+00   1.3163E+00   1.0857E-03  0.0076
   1.3163E+00   1.3484E+00   1.0909E-03  0.0075
   1.3484E+00   1.3812E+00   1.1106E-03  0.0073
   1.3812E+00   1.4148E+00   1.1241E-03  0.0072
   1.4148E+00   1.4492E+00   1.1174E-03  0.0071
   1.4492E+00   1.4845E+00   1.1412E-03  0.0070
   1.4845E+00   1.5206E+00   1.1488E-03  0.0069
   1.5206E+00   1.5576E+00   1.1495E-03  0.0068
   1.5576E+00   1.5955E+00   1.1214E-03  0.0068
   1.5955E+00   1.6343E+00   1.1149E-03  0.0067
   1.6343E+00   1.6741E+00   1.1092E-03  0.0067
   1.6741E+00   1.7148E+00   1.1134E-03  0.0066
   1.7148E+00   1.7565E+00   1.1234E-03  0.0065
   1.7565E+00   1.7992E+00   1.1173E-03  0.0064
   1.7992E+00   1.8430E+00   1.1040E-03  0.0064
   1.8430E+00   1.8879E+00   1.1039E-03  0.0063
   1.8879E+00   1.9338E+00   1.1143E-03  0.0062
   1.9338E+00   1.9808E+00   1.1137E-03  0.0061
   1.9808E+00   2.0290E+00   1.1142E-03  0.0060
   2.0290E+00   2.0784E+00   1.1087E-03  0.0060
   2.0784E+00   2.1290E+00   1.0959E-03  0.0059
   2.1290E+00   2.1808E+00   1.0738E-03  0.0059
   2.1808E+00   2.2338E+00   1.0654E-03  0.0059
   2.2338E+00   2.2882E+00   1.0577E-03  0.0058
   2.2882E+00   2.3439E+00   1.0303E-03  0.0058
   2.3439E+00   2.4009E+00   1.0504E-03  0.0057
   2.4009E+00   2.4593E+00   1.0309E-03  0.0057
   2.4593E+00   2.5191E+00   1.0463E-03  0.0056
   2.5191E+00   2.5804E+00   1.0274E-03  0.0056
   2.5804E+00   2.6432E+00   1.0069E-03  0.0056
   2.6432E+00   2.7075E+00   1.0074E-03  0.0055
   2.7075E+00   2.7734E+00   9.9780E-04  0.0055
   2.7734E+00   2.8409E+00   9.7304E-04  0.0055
   2.8409E+00   2.9100E+00   9.6985E-04  0.0054
   2.9100E+00   2.9808E+00   9.6624E-04  0.0054
   2.9808E+00   3.0533E+00   9.5665E-04  0.0053
   3.0533E+00   3.1276E+00   9.4167E-04  0.0053
   3.1276E+00   3.2037E+00   9.2784E-04  0.0053
   3.2037E+00   3.2817E+00   9.1771E-04  0.0052
   3.2817E+00   3.3615E+00   8.9208E-04  0.0052
   3.3615E+00   3.4433E+00   8.8058E-04  0.0052
   3.4433E+00   3.5271E+00   8.6979E-04  0.0052
   3.5271E+00   3.6129E+00   8.6773E-04  0.0051
   3.6129E+00   3.7008E+00   8.4371E-04  0.0051
   3.7008E+00   3.7908E+00   8.2355E-04  0.0051
   3.7908E+00   3.8831E+00   8.0975E-04  0.0051
   3.8831E+00   3.9776E+00   7.9917E-04  0.0051
   3.9776E+00   4.0743E+00   8.0045E-04  0.0050
   4.0743E+00   4.1735E+00   7.7554E-04  0.0051
   4.1735E+00   4.2750E+00   7.6698E-04  0.0050
   4.2750E+00   4.3790E+00   7.5401E-04  0.0050
   4.3790E+00   4.4856E+00   7.3903E-04  0.0050
   4.4856E+00   4.5947E+00   7.3231E-04  0.0050
   4.5947E+00   4.7065E+00   7.2679E-04  0.0049
   4.7065E+00   4.8210E+00   7.2392E-04  0.0049
   4.8210E+00   4.9383E+00   7.0003E-04  0.0049
   4.9383E+00   5.0585E+00   6.9272E-04  0.0049
   5.0585E+00   5.1815E+00   7.0828E-04  0.0048
   5.1815E+00   5.3076E+00   7.1478E-04  0.0047
   5.3076E+00   5.4368E+00   6.9998E-04  0.0047
   5.4368E+00   5.5690E+00   6.8400E-04  0.0047
   5.5690E+00   5.7045E+00   6.6507E-04  0.0047
   5.7045E+00   5.8433E+00   6.5313E-04  0.0047
   5.8433E+00   5.9855E+00   6.3831E-04  0.0047
   5.9855E+00   6.1311E+00   6.2888E-04  0.0046
   6.1311E+00   6.2803E+00   6.1017E-04  0.0047
   6.2803E+00   6.4331E+00   6.0023E-04  0.0046
   6.4331E+00   6.5896E+00   5.9008E-04  0.0046
   6.5896E+00   6.7500E+00   5.7124E-04  0.0046
   6.7500E+00   6.9142E+00   5.6045E-04  0.0046
   6.9142E+00   7.0824E+00   5.5080E-04  0.0046
   7.0824E+00   7.2548E+00   5.3533E-04  0.0046
   7.2548E+00   7.4313E+00   5.2875E-04  0.0046
   7.4313E+00   7.6121E+00   5.1764E-04  0.0046
   7.6121E+00   7.7973E+00   5.0644E-04  0.0046
   7.7973E+00   7.9870E+00   4.9437E-04  0.0046
   7.9870E+00   8.1813E+00   4.8535E-04  0.0046
   8.1813E+00   8.3804E+00   4.7485E-04  0.0046
   8.3804E+00   8.5843E+00   4.6225E-04  0.0046
   8.5843E+00   8.7931E+00   4.5670E-04  0.0046
   8.7931E+00   9.0071E+00   4.4865E-04  0.0046
   9.0071E+00   9.2262E+00   4.3857E-04  0.0045
   9.2262E+00   9.4507E+00   4.3359E-04  0.0045
   9.4507E+00   9.6807E+00   4.2423E-04  0.0045
   9.6807E+00   9.9162E+00   4.1056E-04  0.0045
   9.9162E+00   1.0157E+01   4.0485E-04  0.0045
   1.0157E+01   1.0405E+01   3.9632E-04  0.0045
   1.0405E+01   1.0658E+01   3.8554E-04  0.0045
   1.0658E+01   1.0917E+01   3.8012E-04  0.0045
   1.0917E+01   1.1183E+01   3.7103E-04  0.0045
   1.1183E+01   1.1455E+01   3.6224E-04  0.0045
   1.1455E+01   1.1733E+01   3.5618E-04  0.0045
   1.1733E+01   1.2019E+01   3.5124E-04  0.0045
   1.2019E+01   1.2311E+01   3.3964E-04  0.0045
   1.2311E+01   1.2611E+01   3.3476E-04  0.0045
   1.2611E+01   1.2918E+01   3.2792E-04  0.0045
   1.2918E+01   1.3232E+01   3.1927E-04  0.0045
   1.3232E+01   1.3554E+01   3.1231E-04  0.0045
   1.3554E+01   1.3884E+01   3.0710E-04  0.0044
   1.3884E+01   1.4222E+01   2.9955E-04  0.0044
   1.4222E+01   1.4568E+01   2.9158E-04  0.0045
   1.4568E+01   1.4922E+01   2.8343E-04  0.0045
   1.4922E+01   1.5285E+01   2.7983E-04  0.0044
   1.5285E+01   1.5657E+01   2.7092E-04  0.0045
   1.5657E+01   1.6038E+01   2.6334E-04  0.0045
   1.6038E+01   1.6428E+01   2.5711E-04  0.0045
   1.6428E+01   1.6828E+01   2.5072E-04  0.0045
   1.6828E+01   1.7237E+01   2.4240E-04  0.0045
   1.7237E+01   1.7657E+01   2.3898E-04  0.0045
   1.7657E+01   1.8086E+01   2.2977E-04  0.0045
   1.8086E+01   1.8526E+01   2.2393E-04  0.0045
   1.8526E+01   1.8977E+01   2.1882E-04  0.0045
   1.8977E+01   1.9439E+01   2.1619E-04  0.0045
   1.9439E+01   1.9912E+01   2.1789E-04  0.0044
   1.9912E+01   2.0396E+01   2.1686E-04  0.0044
   2.0396E+01   2.0893E+01   2.1437E-04  0.0043
   2.0893E+01   2.1401E+01   2.0752E-04  0.0044
   2.1401E+01   2.1922E+01   2.0286E-04  0.0044
   2.1922E+01   2.2455E+01   1.9718E-04  0.0044
   2.2455E+01   2.3001E+01   1.8938E-04  0.0044
   2.3001E+01   2.3561E+01   1.8330E-04  0.0044
   2.3561E+01   2.4134E+01   1.7671E-04  0.0044
   2.4134E+01   2.4721E+01   1.7008E-04  0.0045
   2.4721E+01   2.5323E+01   1.6309E-04  0.0045
   2.5323E+01   2.5939E+01   1.5770E-04  0.0045
   2.5939E+01   2.6570E+01   1.5233E-04  0.0046
   2.6570E+01   2.7217E+01   1.4586E-04  0.0046
   2.7217E+01   2.7879E+01   1.4016E-04  0.0046
   2.7879E+01   2.8557E+01   1.3364E-04  0.0047
   2.8557E+01   2.9252E+01   1.2967E-04  0.0047
   2.9252E+01   2.9964E+01   1.2354E-04  0.0048
   2.9964E+01   3.0693E+01   1.1708E-04  0.0048
   3.0693E+01   3.1440E+01   1.1127E-04  0.0049
   3.1440E+01   3.2205E+01   1.0626E-04  0.0050
   3.2205E+01   3.2988E+01   1.0153E-04  0.0050
   3.2988E+01   3.3791E+01   9.5120E-05  0.0051
   3.3791E+01   3.4613E+01   9.0681E-05  0.0052
   3.4613E+01   3.5455E+01   8.5414E-05  0.0053
   3.5455E+01   3.6318E+01   8.0566E-05  0.0054
   3.6318E+01   3.7201E+01   7.6735E-05  0.0054
   3.7201E+01   3.8106E+01   7.1843E-05  0.0055
   3.8106E+01   3.9034E+01   6.7943E-05  0.0056
   3.9034E+01   3.9983E+01   6.3714E-05  0.0057
   3.9983E+01   4.0956E+01   5.9900E-05  0.0059
   4.0956E+01   4.1953E+01   5.6217E-05  0.0060
   4.1953E+01   4.2973E+01   5.2342E-05  0.0061
   4.2973E+01   4.4019E+01   4.8764E-05  0.0063
   4.4019E+01   4.5090E+01   4.5114E-05  0.0064
   4.5090E+01   4.6187E+01   4.2010E-05  0.0066
   4.6187E+01   4.7311E+01   3.8718E-05  0.0068
   4.7311E+01   4.8462E+01   3.5974E-05  0.0069
   4.8462E+01   4.9641E+01   3.2708E-05  0.0072
   4.9641E+01   5.0849E+01   3.0415E-05  0.0074
   5.0849E+01   5.2086E+01   2.7761E-05  0.0076
   5.2086E+01   5.3353E+01   2.5284E-05  0.0079
   5.3353E+01   5.4651E+01   2.3009E-05  0.0082
   5.4651E+01   5.5981E+01   2.0600E-05  0.0085
   5.5981E+01   5.7343E+01   1.8683E-05  0.0089
   5.7343E+01   5.8738E+01   1.6885E-05  0.0092
   5.8738E+01   6.0168E+01   1.5308E-05  0.0096
   6.0168E+01   6.1632E+01   1.3488E-05  0.0101
   6.1632E+01   6.3131E+01   1.2097E-05  0.0105
   6.3131E+01   6.4667E+01   1.0590E-05  0.0111
   6.4667E+01   6.6240E+01   9.5818E-06  0.0115
   6.6240E+01   6.7852E+01   8.3937E-06  0.0122
   6.7852E+01   6.9503E+01   7.2276E-06  0.0129
   6.9503E+01   7.1194E+01   6.4492E-06  0.0135
   7.1194E+01   7.2926E+01   5.4139E-06  0.0146
   7.2926E+01   7.4701E+01   4.7341E-06  0.0154
   7.4701E+01   7.6518E+01   4.1947E-06  0.0162
   7.6518E+01   7.8380E+01   3.4398E-06  0.0177
   7.8380E+01   8.0287E+01   3.0078E-06  0.0187
   8.0287E+01   8.2240E+01   2.5473E-06  0.0200
   8.2240E+01   8.4241E+01   2.2619E-06  0.0210
   8.4241E+01   8.6291E+01   1.7525E-06  0.0236
   8.6291E+01   8.8391E+01   1.5318E-06  0.0249
   8.8391E+01   9.0541E+01   1.2071E-06  0.0278
   9.0541E+01   9.2744E+01   1.0150E-06  0.0299
   9.2744E+01   9.5001E+01   8.1718E-07  0.0329
   9.5001E+01   9.7312E+01   5.9270E-07  0.0382
   9.7312E+01   9.9680E+01   5.1358E-07  0.0406
   9.9680E+01   1.0211E+02   3.3893E-07  0.0493
   1.0211E+02   1.0459E+02   2.5118E-07  0.0566
   1.0459E+02   1.0713E+02   1.5561E-07  0.0711
   1.0713E+02   1.0974E+02   9.6675E-08  0.0891
   1.0974E+02   1.1241E+02   6.1421E-08  0.1104
   1.1241E+02   1.1515E+02   3.4369E-08  0.1459
   1.1515E+02   1.1795E+02   1.4991E-08  0.2182
   1.1795E+02   1.2082E+02   6.2723E-09  0.3333
   1.2082E+02   1.2376E+02   6.8037E-09  0.3162
   1.2376E+02   1.2677E+02   1.9926E-09  0.5774
   1.2677E+02   1.2985E+02   1.9453E-09  0.5774
   1.2985E+02   1.3301E+02   6.3303E-10  1.0000
   1.3301E+02   1.3625E+02   0.0000E+00  0.0000
   1.3625E+02   1.3956E+02   0.0000E+00  0.0000
   1.3956E+02   1.4296E+02   0.0000E+00  0.0000
   1.4296E+02   1.4644E+02   0.0000E+00  0.0000
   1.4644E+02   1.5000E+02   0.0000E+00  0.0000

#   sum over                 8.8255E-05
'no. =    1   reg = 111 - 211'
msuc: {\huge [t-cross] in region mesh}
msdr: {\it plotted by \ANGEL \version}
msdl: {\it calculated by \PHITS  3.26}
wt: s(0.7)
\vspace{-3}
  region surface crossing
  area  &=&   1.0000E+00 [cm^2]
e:
 
# Information for Restart Calculation
# This calculation was newly started
# istdev =  2 # 1:Batch variance, 2:History variance
# resc2  = 5.00000000000000000E+08 # Total source weight or Total source weight / maxcas
# resc3  = 5.00000000000000000E+08 # Total history number or Total batch number
# maxcas =   500000000 # History / Batch, only used for istdev=1
# bitrseed = 1101101111010011011000101101110001100110110010110001010100010001 # bit data of rseed
