[ T-Cross ]
    title = [t-cross] in region mesh
     mesh =  reg            # mesh type is region-wise
      reg =    1            # number of crossing regions
      non     r-from    r-to       area
      1       115       215        1.000000    
   e-type =    3            # e-mesh is log given by emin, emax and ne
     emin =  1.0000000E-02  # minimum value of e-mesh points
     emax =   150.0000      # maximum value of e-mesh points
#    edel =  2.4039514E-02  # mesh width of e-mesh points
       ne =    400          # number of e-mesh points
#    data = ( e(i), i = 1, ne + 1 )
#           1.00000E-02  1.02433E-02  1.04925E-02  1.07478E-02  1.10093E-02
#           1.12772E-02  1.15516E-02  1.18326E-02  1.21205E-02  1.24154E-02
#           1.27175E-02  1.30269E-02  1.33439E-02  1.36686E-02  1.40011E-02
#           1.43418E-02  1.46907E-02  1.50482E-02  1.54143E-02  1.57894E-02
#           1.61735E-02  1.65670E-02  1.69701E-02  1.73830E-02  1.78060E-02
#           1.82392E-02  1.86830E-02  1.91375E-02  1.96032E-02  2.00801E-02
#           2.05687E-02  2.10692E-02  2.15818E-02  2.21069E-02  2.26448E-02
#           2.31957E-02  2.37601E-02  2.43382E-02  2.49304E-02  2.55369E-02
#           2.61583E-02  2.67947E-02  2.74467E-02  2.81145E-02  2.87985E-02
#           2.94992E-02  3.02169E-02  3.09521E-02  3.17052E-02  3.24766E-02
#           3.32668E-02  3.40762E-02  3.49053E-02  3.57546E-02  3.66246E-02
#           3.75157E-02  3.84284E-02  3.93634E-02  4.03212E-02  4.13022E-02
#           4.23071E-02  4.33365E-02  4.43909E-02  4.54710E-02  4.65773E-02
#           4.77106E-02  4.88714E-02  5.00605E-02  5.12785E-02  5.25262E-02
#           5.38042E-02  5.51133E-02  5.64542E-02  5.78278E-02  5.92348E-02
#           6.06760E-02  6.21523E-02  6.36645E-02  6.52135E-02  6.68002E-02
#           6.84255E-02  7.00904E-02  7.17957E-02  7.35426E-02  7.53319E-02
#           7.71648E-02  7.90423E-02  8.09655E-02  8.29354E-02  8.49533E-02
#           8.70203E-02  8.91376E-02  9.13064E-02  9.35279E-02  9.58035E-02
#           9.81345E-02  1.00522E-01  1.02968E-01  1.05473E-01  1.08040E-01
#           1.10668E-01  1.13361E-01  1.16119E-01  1.18944E-01  1.21838E-01
#           1.24803E-01  1.27839E-01  1.30950E-01  1.34136E-01  1.37399E-01
#           1.40742E-01  1.44167E-01  1.47675E-01  1.51268E-01  1.54948E-01
#           1.58718E-01  1.62580E-01  1.66535E-01  1.70587E-01  1.74738E-01
#           1.78989E-01  1.83344E-01  1.87805E-01  1.92375E-01  1.97055E-01
#           2.01850E-01  2.06761E-01  2.11792E-01  2.16945E-01  2.22223E-01
#           2.27630E-01  2.33169E-01  2.38842E-01  2.44653E-01  2.50605E-01
#           2.56703E-01  2.62949E-01  2.69346E-01  2.75900E-01  2.82613E-01
#           2.89489E-01  2.96532E-01  3.03747E-01  3.11138E-01  3.18708E-01
#           3.26462E-01  3.34405E-01  3.42542E-01  3.50876E-01  3.59413E-01
#           3.68158E-01  3.77116E-01  3.86291E-01  3.95690E-01  4.05317E-01
#           4.15179E-01  4.25281E-01  4.35628E-01  4.46227E-01  4.57084E-01
#           4.68205E-01  4.79597E-01  4.91266E-01  5.03219E-01  5.15463E-01
#           5.28005E-01  5.40851E-01  5.54011E-01  5.67490E-01  5.81298E-01
#           5.95441E-01  6.09929E-01  6.24769E-01  6.39970E-01  6.55541E-01
#           6.71491E-01  6.87828E-01  7.04564E-01  7.21706E-01  7.39266E-01
#           7.57253E-01  7.75678E-01  7.94551E-01  8.13883E-01  8.33685E-01
#           8.53969E-01  8.74747E-01  8.96030E-01  9.17831E-01  9.40163E-01
#           9.63038E-01  9.86469E-01  1.01047E+00  1.03506E+00  1.06024E+00
#           1.08604E+00  1.11246E+00  1.13953E+00  1.16725E+00  1.19565E+00
#           1.22474E+00  1.25454E+00  1.28507E+00  1.31633E+00  1.34836E+00
#           1.38117E+00  1.41477E+00  1.44920E+00  1.48446E+00  1.52057E+00
#           1.55757E+00  1.59547E+00  1.63429E+00  1.67405E+00  1.71478E+00
#           1.75650E+00  1.79924E+00  1.84302E+00  1.88786E+00  1.93379E+00
#           1.98084E+00  2.02904E+00  2.07841E+00  2.12898E+00  2.18078E+00
#           2.23384E+00  2.28819E+00  2.34386E+00  2.40089E+00  2.45930E+00
#           2.51914E+00  2.58043E+00  2.64322E+00  2.70753E+00  2.77341E+00
#           2.84088E+00  2.91001E+00  2.98081E+00  3.05333E+00  3.12762E+00
#           3.20372E+00  3.28167E+00  3.36152E+00  3.44330E+00  3.52708E+00
#           3.61290E+00  3.70080E+00  3.79085E+00  3.88308E+00  3.97756E+00
#           4.07434E+00  4.17347E+00  4.27501E+00  4.37903E+00  4.48557E+00
#           4.59471E+00  4.70650E+00  4.82102E+00  4.93832E+00  5.05847E+00
#           5.18155E+00  5.30762E+00  5.43676E+00  5.56904E+00  5.70453E+00
#           5.84333E+00  5.98550E+00  6.13114E+00  6.28031E+00  6.43312E+00
#           6.58964E+00  6.74997E+00  6.91420E+00  7.08243E+00  7.25475E+00
#           7.43126E+00  7.61207E+00  7.79728E+00  7.98700E+00  8.18133E+00
#           8.38038E+00  8.58428E+00  8.79315E+00  9.00709E+00  9.22624E+00
#           9.45072E+00  9.68067E+00  9.91620E+00  1.01575E+01  1.04046E+01
#           1.06578E+01  1.09171E+01  1.11827E+01  1.14548E+01  1.17335E+01
#           1.20190E+01  1.23114E+01  1.26109E+01  1.29178E+01  1.32321E+01
#           1.35540E+01  1.38838E+01  1.42216E+01  1.45676E+01  1.49221E+01
#           1.52851E+01  1.56570E+01  1.60380E+01  1.64282E+01  1.68279E+01
#           1.72374E+01  1.76568E+01  1.80864E+01  1.85264E+01  1.89772E+01
#           1.94389E+01  1.99119E+01  2.03963E+01  2.08926E+01  2.14009E+01
#           2.19216E+01  2.24550E+01  2.30014E+01  2.35610E+01  2.41343E+01
#           2.47215E+01  2.53230E+01  2.59391E+01  2.65702E+01  2.72167E+01
#           2.78789E+01  2.85572E+01  2.92520E+01  2.99637E+01  3.06928E+01
#           3.14396E+01  3.22045E+01  3.29881E+01  3.37907E+01  3.46128E+01
#           3.54550E+01  3.63177E+01  3.72013E+01  3.81064E+01  3.90336E+01
#           3.99833E+01  4.09561E+01  4.19526E+01  4.29734E+01  4.40189E+01
#           4.50900E+01  4.61870E+01  4.73108E+01  4.84619E+01  4.96410E+01
#           5.08488E+01  5.20860E+01  5.33533E+01  5.46514E+01  5.59812E+01
#           5.73432E+01  5.87384E+01  6.01676E+01  6.16315E+01  6.31311E+01
#           6.46671E+01  6.62405E+01  6.78522E+01  6.95031E+01  7.11941E+01
#           7.29263E+01  7.47007E+01  7.65182E+01  7.83800E+01  8.02870E+01
#           8.22405E+01  8.42414E+01  8.62911E+01  8.83906E+01  9.05412E+01
#           9.27442E+01  9.50007E+01  9.73122E+01  9.96799E+01  1.02105E+02
#           1.04589E+02  1.07134E+02  1.09741E+02  1.12411E+02  1.15146E+02
#           1.17948E+02  1.20817E+02  1.23757E+02  1.26768E+02  1.29852E+02
#           1.33012E+02  1.36248E+02  1.39563E+02  1.42959E+02  1.46437E+02
#           1.50000E+02
     unit =    2            # unit is [1/cm^2/(MeV/n)/source]
     axis =  eng            # axis of output
     file = detector-16.out  # file name of output for the above axis
   output = f-curr          # surface crossing forward current spectrum
     part =  neutron  
# kf/name :  2112     
#    used :        main (  %)        temp (  %)       total (  %)
#  memory :         414 (  0)           0 (  0)         414 (  0)

#------------------------------------------------------------------------------
#newpage:
#   no. =    1   reg = 115 - 215

x: Energy [MeV/n]
y:  F-Curr [1/cm^2/(MeV/n)/source]         
p: xlog ylog afac(0.8) form(0.9)
h: n            x            y(neutron ),hh0l   n 
#  e-lower      e-upper      neutron     r.err 
   1.0000E-02   1.0243E-02   1.3752E-03  0.0764
   1.0243E-02   1.0493E-02   1.3699E-03  0.0757
   1.0493E-02   1.0748E-02   1.3992E-03  0.0740
   1.0748E-02   1.1009E-02   1.3448E-03  0.0746
   1.1009E-02   1.1277E-02   1.1394E-03  0.0803
   1.1277E-02   1.1552E-02   1.4161E-03  0.0713
   1.1552E-02   1.1833E-02   1.5321E-03  0.0679
   1.1833E-02   1.2121E-02   1.1038E-03  0.0783
   1.2121E-02   1.2415E-02   1.2326E-03  0.0735
   1.2415E-02   1.2718E-02   1.0800E-03  0.0774
   1.2718E-02   1.3027E-02   1.1469E-03  0.0745
   1.3027E-02   1.3344E-02   1.1432E-03  0.0738
   1.3344E-02   1.3669E-02   1.0640E-03  0.0755
   1.3669E-02   1.4001E-02   1.1869E-03  0.0705
   1.4001E-02   1.4342E-02   1.1077E-03  0.0722
   1.4342E-02   1.4691E-02   1.0805E-03  0.0723
   1.4691E-02   1.5048E-02   1.0633E-03  0.0721
   1.5048E-02   1.5414E-02   1.1153E-03  0.0695
   1.5414E-02   1.5789E-02   9.4907E-04  0.0744
   1.5789E-02   1.6174E-02   8.8597E-04  0.0759
   1.6174E-02   1.6567E-02   9.6618E-04  0.0718
   1.6567E-02   1.6970E-02   9.8723E-04  0.0704
   1.6970E-02   1.7383E-02   8.6318E-04  0.0746
   1.7383E-02   1.7806E-02   9.8504E-04  0.0689
   1.7806E-02   1.8239E-02   7.6626E-04  0.0771
   1.8239E-02   1.8683E-02   8.6795E-04  0.0717
   1.8683E-02   1.9138E-02   8.9403E-04  0.0696
   1.9138E-02   1.9603E-02   8.2544E-04  0.0716
   1.9603E-02   2.0080E-02   7.9089E-04  0.0724
   2.0080E-02   2.0569E-02   7.8062E-04  0.0720
   2.0569E-02   2.1069E-02   6.8787E-04  0.0756
   2.1069E-02   2.1582E-02   7.7843E-04  0.0703
   2.1582E-02   2.2107E-02   6.6188E-04  0.0754
   2.2107E-02   2.2645E-02   6.6186E-04  0.0744
   2.2645E-02   2.3196E-02   6.5584E-04  0.0739
   2.3196E-02   2.3760E-02   7.4804E-04  0.0683
   2.3760E-02   2.4338E-02   6.8350E-04  0.0705
   2.4338E-02   2.4930E-02   5.8938E-04  0.0752
   2.4930E-02   2.5537E-02   6.4551E-04  0.0707
   2.5537E-02   2.6158E-02   5.7237E-04  0.0746
   2.6158E-02   2.6795E-02   5.9271E-04  0.0723
   2.6795E-02   2.7447E-02   5.6802E-04  0.0729
   2.7447E-02   2.8114E-02   6.5620E-04  0.0672
   2.8114E-02   2.8799E-02   5.5641E-04  0.0719
   2.8799E-02   2.9499E-02   5.6517E-04  0.0706
   2.9499E-02   3.0217E-02   5.9022E-04  0.0681
   3.0217E-02   3.0952E-02   5.2079E-04  0.0715
   3.0952E-02   3.1705E-02   4.9829E-04  0.0722
   3.1705E-02   3.2477E-02   5.3520E-04  0.0690
   3.2477E-02   3.3267E-02   5.6577E-04  0.0665
   3.3267E-02   3.4076E-02   4.9860E-04  0.0698
   3.4076E-02   3.4905E-02   4.7253E-04  0.0709
   3.4905E-02   3.5755E-02   5.3538E-04  0.0659
   3.5755E-02   3.6625E-02   4.7778E-04  0.0689
   3.6625E-02   3.7516E-02   5.1936E-04  0.0651
   3.7516E-02   3.8428E-02   4.0628E-04  0.0728
   3.8428E-02   3.9363E-02   4.3103E-04  0.0698
   3.9363E-02   4.0321E-02   4.2474E-04  0.0696
   4.0321E-02   4.1302E-02   3.6203E-04  0.0745
   4.1302E-02   4.2307E-02   4.1828E-04  0.0681
   4.2307E-02   4.3337E-02   3.6385E-04  0.0725
   4.3337E-02   4.4391E-02   4.2286E-04  0.0663
   4.4391E-02   4.5471E-02   4.3079E-04  0.0651
   4.5471E-02   4.6577E-02   3.5695E-04  0.0707
   4.6577E-02   4.7711E-02   3.2529E-04  0.0730
   4.7711E-02   4.8871E-02   3.2770E-04  0.0721
   4.8871E-02   5.0061E-02   3.5849E-04  0.0679
   5.0061E-02   5.1279E-02   3.9580E-04  0.0640
   5.1279E-02   5.2526E-02   3.3976E-04  0.0681
   5.2526E-02   5.3804E-02   3.2640E-04  0.0687
   5.3804E-02   5.5113E-02   3.0495E-04  0.0704
   5.5113E-02   5.6454E-02   2.7281E-04  0.0731
   5.6454E-02   5.7828E-02   2.7653E-04  0.0721
   5.7828E-02   5.9235E-02   2.8069E-04  0.0706
   5.9235E-02   6.0676E-02   3.4984E-04  0.0625
   6.0676E-02   6.2152E-02   3.1369E-04  0.0651
   6.2152E-02   6.3665E-02   2.6576E-04  0.0701
   6.3665E-02   6.5214E-02   2.8276E-04  0.0669
   6.5214E-02   6.6800E-02   2.4694E-04  0.0707
   6.6800E-02   6.8426E-02   2.6606E-04  0.0673
   6.8426E-02   7.0090E-02   2.6086E-04  0.0673
   7.0090E-02   7.1796E-02   2.5092E-04  0.0676
   7.1796E-02   7.3543E-02   2.5095E-04  0.0671
   7.3543E-02   7.5332E-02   2.4988E-04  0.0665
   7.5332E-02   7.7165E-02   2.4070E-04  0.0668
   7.7165E-02   7.9042E-02   2.4461E-04  0.0653
   7.9042E-02   8.0965E-02   2.0074E-04  0.0712
   8.0965E-02   8.2935E-02   2.5356E-04  0.0628
   8.2935E-02   8.4953E-02   2.2430E-04  0.0660
   8.4953E-02   8.7020E-02   2.1707E-04  0.0661
   8.7020E-02   8.9138E-02   2.1066E-04  0.0663
   8.9138E-02   9.1306E-02   2.0655E-04  0.0664
   9.1306E-02   9.3528E-02   2.0411E-04  0.0660
   9.3528E-02   9.5804E-02   2.0473E-04  0.0650
   9.5804E-02   9.8134E-02   2.2209E-04  0.0616
   9.8134E-02   1.0052E-01   1.9846E-04  0.0644
   1.0052E-01   1.0297E-01   1.9567E-04  0.0642
   1.0297E-01   1.0547E-01   1.8750E-04  0.0649
   1.0547E-01   1.0804E-01   1.7907E-04  0.0653
   1.0804E-01   1.1067E-01   2.0235E-04  0.0607
   1.1067E-01   1.1336E-01   1.7018E-04  0.0657
   1.1336E-01   1.1612E-01   1.6902E-04  0.0650
   1.1612E-01   1.1894E-01   1.6508E-04  0.0649
   1.1894E-01   1.2184E-01   1.5493E-04  0.0662
   1.2184E-01   1.2480E-01   1.6860E-04  0.0627
   1.2480E-01   1.2784E-01   1.5776E-04  0.0642
   1.2784E-01   1.3095E-01   1.4341E-04  0.0663
   1.3095E-01   1.3414E-01   1.4904E-04  0.0646
   1.3414E-01   1.3740E-01   1.4689E-04  0.0640
   1.3740E-01   1.4074E-01   1.4387E-04  0.0640
   1.4074E-01   1.4417E-01   1.3575E-04  0.0650
   1.4417E-01   1.4767E-01   1.4875E-04  0.0614
   1.4767E-01   1.5127E-01   1.2820E-04  0.0653
   1.5127E-01   1.5495E-01   1.3399E-04  0.0633
   1.5495E-01   1.5872E-01   1.4078E-04  0.0609
   1.5872E-01   1.6258E-01   1.3516E-04  0.0614
   1.6258E-01   1.6654E-01   1.1759E-04  0.0650
   1.6654E-01   1.7059E-01   1.1098E-04  0.0660
   1.7059E-01   1.7474E-01   1.1781E-04  0.0636
   1.7474E-01   1.7899E-01   1.1111E-04  0.0644
   1.7899E-01   1.8334E-01   1.2613E-04  0.0600
   1.8334E-01   1.8781E-01   1.2682E-04  0.0591
   1.8781E-01   1.9237E-01   1.2543E-04  0.0587
   1.9237E-01   1.9706E-01   1.1098E-04  0.0615
   1.9706E-01   2.0185E-01   1.1885E-04  0.0587
   2.0185E-01   2.0676E-01   1.2987E-04  0.0555
   2.0676E-01   2.1179E-01   1.2636E-04  0.0555
   2.1179E-01   2.1694E-01   1.3025E-04  0.0542
   2.1694E-01   2.2222E-01   1.3163E-04  0.0532
   2.2222E-01   2.2763E-01   1.2209E-04  0.0546
   2.2763E-01   2.3317E-01   1.3367E-04  0.0515
   2.3317E-01   2.3884E-01   1.5609E-04  0.0471
   2.3884E-01   2.4465E-01   1.4675E-04  0.0479
   2.4465E-01   2.5061E-01   1.4940E-04  0.0470
   2.5061E-01   2.5670E-01   1.7440E-04  0.0430
   2.5670E-01   2.6295E-01   1.7451E-04  0.0425
   2.6295E-01   2.6935E-01   1.6873E-04  0.0426
   2.6935E-01   2.7590E-01   1.6915E-04  0.0421
   2.7590E-01   2.8261E-01   1.9003E-04  0.0393
   2.8261E-01   2.8949E-01   2.0566E-04  0.0373
   2.8949E-01   2.9653E-01   1.9735E-04  0.0376
   2.9653E-01   3.0375E-01   2.0739E-04  0.0363
   3.0375E-01   3.1114E-01   2.2249E-04  0.0346
   3.1114E-01   3.1871E-01   2.3255E-04  0.0334
   3.1871E-01   3.2646E-01   2.3044E-04  0.0332
   3.2646E-01   3.3441E-01   2.4765E-04  0.0316
   3.3441E-01   3.4254E-01   2.5183E-04  0.0309
   3.4254E-01   3.5088E-01   2.6118E-04  0.0300
   3.5088E-01   3.5941E-01   2.6273E-04  0.0295
   3.5941E-01   3.6816E-01   2.7166E-04  0.0287
   3.6816E-01   3.7712E-01   2.8656E-04  0.0276
   3.7712E-01   3.8629E-01   3.0472E-04  0.0265
   3.8629E-01   3.9569E-01   3.0286E-04  0.0262
   3.9569E-01   4.0532E-01   3.0044E-04  0.0261
   4.0532E-01   4.1518E-01   3.2871E-04  0.0246
   4.1518E-01   4.2528E-01   3.4395E-04  0.0238
   4.2528E-01   4.3563E-01   3.5157E-04  0.0232
   4.3563E-01   4.4623E-01   3.5814E-04  0.0227
   4.4623E-01   4.5708E-01   3.7076E-04  0.0221
   4.5708E-01   4.6821E-01   3.7702E-04  0.0217
   4.6821E-01   4.7960E-01   3.9067E-04  0.0210
   4.7960E-01   4.9127E-01   4.2065E-04  0.0200
   4.9127E-01   5.0322E-01   4.3009E-04  0.0195
   5.0322E-01   5.1546E-01   4.2322E-04  0.0195
   5.1546E-01   5.2800E-01   4.4191E-04  0.0188
   5.2800E-01   5.4085E-01   4.6279E-04  0.0182
   5.4085E-01   5.5401E-01   4.7455E-04  0.0177
   5.5401E-01   5.6749E-01   4.8547E-04  0.0173
   5.6749E-01   5.8130E-01   4.8349E-04  0.0171
   5.8130E-01   5.9544E-01   5.0772E-04  0.0165
   5.9544E-01   6.0993E-01   5.1628E-04  0.0162
   6.0993E-01   6.2477E-01   5.5124E-04  0.0155
   6.2477E-01   6.3997E-01   5.4385E-04  0.0154
   6.3997E-01   6.5554E-01   5.6757E-04  0.0149
   6.5554E-01   6.7149E-01   5.8102E-04  0.0145
   6.7149E-01   6.8783E-01   5.9262E-04  0.0142
   6.8783E-01   7.0456E-01   5.9462E-04  0.0140
   7.0456E-01   7.2171E-01   6.1762E-04  0.0136
   7.2171E-01   7.3927E-01   6.2419E-04  0.0134
   7.3927E-01   7.5725E-01   6.3829E-04  0.0131
   7.5725E-01   7.7568E-01   6.5627E-04  0.0127
   7.7568E-01   7.9455E-01   6.7430E-04  0.0124
   7.9455E-01   8.1388E-01   6.9991E-04  0.0120
   8.1388E-01   8.3368E-01   7.0090E-04  0.0119
   8.3368E-01   8.5397E-01   7.2415E-04  0.0116
   8.5397E-01   8.7475E-01   7.2132E-04  0.0114
   8.7475E-01   8.9603E-01   7.4833E-04  0.0111
   8.9603E-01   9.1783E-01   7.4925E-04  0.0109
   9.1783E-01   9.4016E-01   7.6711E-04  0.0107
   9.4016E-01   9.6304E-01   7.7715E-04  0.0105
   9.6304E-01   9.8647E-01   8.1774E-04  0.0101
   9.8647E-01   1.0105E+00   8.1046E-04  0.0100
   1.0105E+00   1.0351E+00   7.9741E-04  0.0100
   1.0351E+00   1.0602E+00   8.1696E-04  0.0098
   1.0602E+00   1.0860E+00   8.1127E-04  0.0097
   1.0860E+00   1.1125E+00   7.9845E-04  0.0096
   1.1125E+00   1.1395E+00   8.2680E-04  0.0094
   1.1395E+00   1.1673E+00   8.2348E-04  0.0093
   1.1673E+00   1.1957E+00   8.5439E-04  0.0090
   1.1957E+00   1.2247E+00   8.6368E-04  0.0088
   1.2247E+00   1.2545E+00   8.3460E-04  0.0089
   1.2545E+00   1.2851E+00   8.3695E-04  0.0087
   1.2851E+00   1.3163E+00   8.4257E-04  0.0086
   1.3163E+00   1.3484E+00   8.4489E-04  0.0085
   1.3484E+00   1.3812E+00   8.4937E-04  0.0084
   1.3812E+00   1.4148E+00   8.6373E-04  0.0082
   1.4148E+00   1.4492E+00   8.7624E-04  0.0080
   1.4492E+00   1.4845E+00   8.6335E-04  0.0080
   1.4845E+00   1.5206E+00   8.6642E-04  0.0079
   1.5206E+00   1.5576E+00   8.7372E-04  0.0078
   1.5576E+00   1.5955E+00   8.5344E-04  0.0078
   1.5955E+00   1.6343E+00   8.5058E-04  0.0077
   1.6343E+00   1.6741E+00   8.3655E-04  0.0077
   1.6741E+00   1.7148E+00   8.2570E-04  0.0076
   1.7148E+00   1.7565E+00   8.1051E-04  0.0076
   1.7565E+00   1.7992E+00   8.3360E-04  0.0074
   1.7992E+00   1.8430E+00   8.2110E-04  0.0074
   1.8430E+00   1.8879E+00   8.0164E-04  0.0074
   1.8879E+00   1.9338E+00   7.9221E-04  0.0073
   1.9338E+00   1.9808E+00   7.9290E-04  0.0072
   1.9808E+00   2.0290E+00   7.9718E-04  0.0071
   2.0290E+00   2.0784E+00   7.8811E-04  0.0071
   2.0784E+00   2.1290E+00   7.5895E-04  0.0071
   2.1290E+00   2.1808E+00   7.4103E-04  0.0071
   2.1808E+00   2.2338E+00   7.3732E-04  0.0071
   2.2338E+00   2.2882E+00   7.1275E-04  0.0071
   2.2882E+00   2.3439E+00   6.8939E-04  0.0071
   2.3439E+00   2.4009E+00   6.9415E-04  0.0070
   2.4009E+00   2.4593E+00   6.8941E-04  0.0070
   2.4593E+00   2.5191E+00   6.8275E-04  0.0069
   2.5191E+00   2.5804E+00   6.8233E-04  0.0068
   2.5804E+00   2.6432E+00   6.5860E-04  0.0069
   2.6432E+00   2.7075E+00   6.3857E-04  0.0069
   2.7075E+00   2.7734E+00   6.3632E-04  0.0068
   2.7734E+00   2.8409E+00   6.1941E-04  0.0068
   2.8409E+00   2.9100E+00   6.1082E-04  0.0068
   2.9100E+00   2.9808E+00   5.9005E-04  0.0068
   2.9808E+00   3.0533E+00   5.8489E-04  0.0068
   3.0533E+00   3.1276E+00   5.6855E-04  0.0068
   3.1276E+00   3.2037E+00   5.5922E-04  0.0068
   3.2037E+00   3.2817E+00   5.3384E-04  0.0068
   3.2817E+00   3.3615E+00   5.2293E-04  0.0068
   3.3615E+00   3.4433E+00   5.1554E-04  0.0068
   3.4433E+00   3.5271E+00   5.0991E-04  0.0068
   3.5271E+00   3.6129E+00   4.9871E-04  0.0068
   3.6129E+00   3.7008E+00   4.8140E-04  0.0068
   3.7008E+00   3.7908E+00   4.6819E-04  0.0068
   3.7908E+00   3.8831E+00   4.5332E-04  0.0068
   3.8831E+00   3.9776E+00   4.4954E-04  0.0068
   3.9776E+00   4.0743E+00   4.4160E-04  0.0068
   4.0743E+00   4.1735E+00   4.3285E-04  0.0068
   4.1735E+00   4.2750E+00   4.2000E-04  0.0068
   4.2750E+00   4.3790E+00   4.1817E-04  0.0067
   4.3790E+00   4.4856E+00   4.0974E-04  0.0067
   4.4856E+00   4.5947E+00   4.0227E-04  0.0067
   4.5947E+00   4.7065E+00   3.9175E-04  0.0067
   4.7065E+00   4.8210E+00   3.8168E-04  0.0067
   4.8210E+00   4.9383E+00   3.7363E-04  0.0067
   4.9383E+00   5.0585E+00   3.6552E-04  0.0067
   5.0585E+00   5.1815E+00   3.6828E-04  0.0066
   5.1815E+00   5.3076E+00   3.5422E-04  0.0066
   5.3076E+00   5.4368E+00   3.4205E-04  0.0067
   5.4368E+00   5.5690E+00   3.3516E-04  0.0067
   5.5690E+00   5.7045E+00   3.2633E-04  0.0067
   5.7045E+00   5.8433E+00   3.1679E-04  0.0067
   5.8433E+00   5.9855E+00   3.0840E-04  0.0067
   5.9855E+00   6.1311E+00   2.9923E-04  0.0067
   6.1311E+00   6.2803E+00   2.8929E-04  0.0068
   6.2803E+00   6.4331E+00   2.8073E-04  0.0068
   6.4331E+00   6.5896E+00   2.7540E-04  0.0068
   6.5896E+00   6.7500E+00   2.6441E-04  0.0068
   6.7500E+00   6.9142E+00   2.5696E-04  0.0068
   6.9142E+00   7.0824E+00   2.4372E-04  0.0069
   7.0824E+00   7.2548E+00   2.4115E-04  0.0069
   7.2548E+00   7.4313E+00   2.3247E-04  0.0069
   7.4313E+00   7.6121E+00   2.2607E-04  0.0070
   7.6121E+00   7.7973E+00   2.1716E-04  0.0070
   7.7973E+00   7.9870E+00   2.1134E-04  0.0070
   7.9870E+00   8.1813E+00   2.0517E-04  0.0070
   8.1813E+00   8.3804E+00   1.9920E-04  0.0071
   8.3804E+00   8.5843E+00   1.9140E-04  0.0071
   8.5843E+00   8.7931E+00   1.8399E-04  0.0072
   8.7931E+00   9.0071E+00   1.8183E-04  0.0071
   9.0071E+00   9.2262E+00   1.7364E-04  0.0072
   9.2262E+00   9.4507E+00   1.6871E-04  0.0072
   9.4507E+00   9.6807E+00   1.6292E-04  0.0073
   9.6807E+00   9.9162E+00   1.5746E-04  0.0073
   9.9162E+00   1.0157E+01   1.5375E-04  0.0073
   1.0157E+01   1.0405E+01   1.4834E-04  0.0074
   1.0405E+01   1.0658E+01   1.4233E-04  0.0074
   1.0658E+01   1.0917E+01   1.3804E-04  0.0075
   1.0917E+01   1.1183E+01   1.3290E-04  0.0075
   1.1183E+01   1.1455E+01   1.2728E-04  0.0076
   1.1455E+01   1.1733E+01   1.2177E-04  0.0077
   1.1733E+01   1.2019E+01   1.1960E-04  0.0076
   1.2019E+01   1.2311E+01   1.1461E-04  0.0077
   1.2311E+01   1.2611E+01   1.0920E-04  0.0078
   1.2611E+01   1.2918E+01   1.0576E-04  0.0078
   1.2918E+01   1.3232E+01   9.9665E-05  0.0080
   1.3232E+01   1.3554E+01   9.6148E-05  0.0080
   1.3554E+01   1.3884E+01   9.4175E-05  0.0080
   1.3884E+01   1.4222E+01   8.8853E-05  0.0082
   1.4222E+01   1.4568E+01   8.7340E-05  0.0081
   1.4568E+01   1.4922E+01   8.2590E-05  0.0083
   1.4922E+01   1.5285E+01   7.8509E-05  0.0084
   1.5285E+01   1.5657E+01   7.5429E-05  0.0084
   1.5657E+01   1.6038E+01   7.2026E-05  0.0085
   1.6038E+01   1.6428E+01   6.8391E-05  0.0087
   1.6428E+01   1.6828E+01   6.5598E-05  0.0087
   1.6828E+01   1.7237E+01   6.3632E-05  0.0088
   1.7237E+01   1.7657E+01   6.0432E-05  0.0089
   1.7657E+01   1.8086E+01   5.8408E-05  0.0089
   1.8086E+01   1.8526E+01   5.5007E-05  0.0091
   1.8526E+01   1.8977E+01   5.1278E-05  0.0093
   1.8977E+01   1.9439E+01   5.1212E-05  0.0092
   1.9439E+01   1.9912E+01   5.0613E-05  0.0091
   1.9912E+01   2.0396E+01   4.9295E-05  0.0092
   2.0396E+01   2.0893E+01   4.7411E-05  0.0092
   2.0893E+01   2.1401E+01   4.4801E-05  0.0094
   2.1401E+01   2.1922E+01   4.3311E-05  0.0094
   2.1922E+01   2.2455E+01   4.0220E-05  0.0097
   2.2455E+01   2.3001E+01   3.7881E-05  0.0098
   2.3001E+01   2.3561E+01   3.6191E-05  0.0099
   2.3561E+01   2.4134E+01   3.3538E-05  0.0102
   2.4134E+01   2.4721E+01   3.1618E-05  0.0104
   2.4721E+01   2.5323E+01   2.9806E-05  0.0106
   2.5323E+01   2.5939E+01   2.7757E-05  0.0108
   2.5939E+01   2.6570E+01   2.5840E-05  0.0111
   2.6570E+01   2.7217E+01   2.4020E-05  0.0113
   2.7217E+01   2.7879E+01   2.2144E-05  0.0117
   2.7879E+01   2.8557E+01   2.0925E-05  0.0119
   2.8557E+01   2.9252E+01   1.9214E-05  0.0122
   2.9252E+01   2.9964E+01   1.7836E-05  0.0126
   2.9964E+01   3.0693E+01   1.6433E-05  0.0129
   3.0693E+01   3.1440E+01   1.5105E-05  0.0133
   3.1440E+01   3.2205E+01   1.3954E-05  0.0137
   3.2205E+01   3.2988E+01   1.2836E-05  0.0141
   3.2988E+01   3.3791E+01   1.1545E-05  0.0147
   3.3791E+01   3.4613E+01   1.0752E-05  0.0150
   3.4613E+01   3.5455E+01   9.6561E-06  0.0157
   3.5455E+01   3.6318E+01   8.8402E-06  0.0162
   3.6318E+01   3.7201E+01   7.8403E-06  0.0170
   3.7201E+01   3.8106E+01   7.3226E-06  0.0174
   3.8106E+01   3.9034E+01   6.7087E-06  0.0179
   3.9034E+01   3.9983E+01   5.9555E-06  0.0188
   3.9983E+01   4.0956E+01   5.1993E-06  0.0199
   4.0956E+01   4.1953E+01   4.7045E-06  0.0207
   4.1953E+01   4.2973E+01   4.3557E-06  0.0212
   4.2973E+01   4.4019E+01   3.7396E-06  0.0226
   4.4019E+01   4.5090E+01   3.4659E-06  0.0232
   4.5090E+01   4.6187E+01   3.0518E-06  0.0244
   4.6187E+01   4.7311E+01   2.6269E-06  0.0260
   4.7311E+01   4.8462E+01   2.4168E-06  0.0268
   4.8462E+01   4.9641E+01   2.1202E-06  0.0283
   4.9641E+01   5.0849E+01   1.8679E-06  0.0298
   5.0849E+01   5.2086E+01   1.6230E-06  0.0316
   5.2086E+01   5.3353E+01   1.5119E-06  0.0323
   5.3353E+01   5.4651E+01   1.3527E-06  0.0337
   5.4651E+01   5.5981E+01   1.1356E-06  0.0364
   5.5981E+01   5.7343E+01   9.3534E-07  0.0396
   5.7343E+01   5.8738E+01   7.3251E-07  0.0442
   5.8738E+01   6.0168E+01   7.5989E-07  0.0429
   6.0168E+01   6.1632E+01   6.3118E-07  0.0465
   6.1632E+01   6.3131E+01   5.0015E-07  0.0516
   6.3131E+01   6.4667E+01   4.0103E-07  0.0570
   6.4667E+01   6.6240E+01   3.5719E-07  0.0597
   6.6240E+01   6.7852E+01   2.8666E-07  0.0658
   6.7852E+01   6.9503E+01   2.1806E-07  0.0745
   6.9503E+01   7.1194E+01   1.9041E-07  0.0788
   7.1194E+01   7.2926E+01   1.1892E-07  0.0985
   7.2926E+01   7.4701E+01   9.6937E-08  0.1078
   7.4701E+01   7.6518E+01   7.9229E-08  0.1179
   7.6518E+01   7.8380E+01   5.2639E-08  0.1429
   7.8380E+01   8.0287E+01   3.1462E-08  0.1826
   8.0287E+01   8.2240E+01   3.3786E-08  0.1741
   8.2240E+01   8.4241E+01   2.1989E-08  0.2132
   8.4241E+01   8.6291E+01   7.8062E-09  0.3536
   8.6291E+01   8.8391E+01   7.6208E-09  0.3536
   8.8391E+01   9.0541E+01   1.8599E-09  0.7071
   9.0541E+01   9.2744E+01   9.0788E-10  1.0000
   9.2744E+01   9.5001E+01   8.8631E-10  1.0000
   9.5001E+01   9.7312E+01   8.6526E-10  1.0000
   9.7312E+01   9.9680E+01   0.0000E+00  0.0000
   9.9680E+01   1.0211E+02   0.0000E+00  0.0000
   1.0211E+02   1.0459E+02   0.0000E+00  0.0000
   1.0459E+02   1.0713E+02   0.0000E+00  0.0000
   1.0713E+02   1.0974E+02   0.0000E+00  0.0000
   1.0974E+02   1.1241E+02   0.0000E+00  0.0000
   1.1241E+02   1.1515E+02   0.0000E+00  0.0000
   1.1515E+02   1.1795E+02   0.0000E+00  0.0000
   1.1795E+02   1.2082E+02   0.0000E+00  0.0000
   1.2082E+02   1.2376E+02   0.0000E+00  0.0000
   1.2376E+02   1.2677E+02   0.0000E+00  0.0000
   1.2677E+02   1.2985E+02   0.0000E+00  0.0000
   1.2985E+02   1.3301E+02   0.0000E+00  0.0000
   1.3301E+02   1.3625E+02   0.0000E+00  0.0000
   1.3625E+02   1.3956E+02   0.0000E+00  0.0000
   1.3956E+02   1.4296E+02   0.0000E+00  0.0000
   1.4296E+02   1.4644E+02   0.0000E+00  0.0000
   1.4644E+02   1.5000E+02   0.0000E+00  0.0000

#   sum over                 3.5963E-05
'no. =    1   reg = 115 - 215'
msuc: {\huge [t-cross] in region mesh}
msdr: {\it plotted by \ANGEL \version}
msdl: {\it calculated by \PHITS  3.26}
wt: s(0.7)
\vspace{-3}
  region surface crossing
  area  &=&   1.0000E+00 [cm^2]
e:
 
# Information for Restart Calculation
# This calculation was newly started
# istdev =  2 # 1:Batch variance, 2:History variance
# resc2  = 5.00000000000000000E+08 # Total source weight or Total source weight / maxcas
# resc3  = 5.00000000000000000E+08 # Total history number or Total batch number
# maxcas =   500000000 # History / Batch, only used for istdev=1
# bitrseed = 1101101111010011011000101101110001100110110010110001010100010001 # bit data of rseed
