[ T-Cross ]
    title = [t-cross] in region mesh
     mesh =  reg            # mesh type is region-wise
      reg =    1            # number of crossing regions
      non     r-from    r-to       area
      1       113       213        1.000000    
   e-type =    3            # e-mesh is log given by emin, emax and ne
     emin =  1.0000000E-02  # minimum value of e-mesh points
     emax =   150.0000      # maximum value of e-mesh points
#    edel =  2.4039514E-02  # mesh width of e-mesh points
       ne =    400          # number of e-mesh points
#    data = ( e(i), i = 1, ne + 1 )
#           1.00000E-02  1.02433E-02  1.04925E-02  1.07478E-02  1.10093E-02
#           1.12772E-02  1.15516E-02  1.18326E-02  1.21205E-02  1.24154E-02
#           1.27175E-02  1.30269E-02  1.33439E-02  1.36686E-02  1.40011E-02
#           1.43418E-02  1.46907E-02  1.50482E-02  1.54143E-02  1.57894E-02
#           1.61735E-02  1.65670E-02  1.69701E-02  1.73830E-02  1.78060E-02
#           1.82392E-02  1.86830E-02  1.91375E-02  1.96032E-02  2.00801E-02
#           2.05687E-02  2.10692E-02  2.15818E-02  2.21069E-02  2.26448E-02
#           2.31957E-02  2.37601E-02  2.43382E-02  2.49304E-02  2.55369E-02
#           2.61583E-02  2.67947E-02  2.74467E-02  2.81145E-02  2.87985E-02
#           2.94992E-02  3.02169E-02  3.09521E-02  3.17052E-02  3.24766E-02
#           3.32668E-02  3.40762E-02  3.49053E-02  3.57546E-02  3.66246E-02
#           3.75157E-02  3.84284E-02  3.93634E-02  4.03212E-02  4.13022E-02
#           4.23071E-02  4.33365E-02  4.43909E-02  4.54710E-02  4.65773E-02
#           4.77106E-02  4.88714E-02  5.00605E-02  5.12785E-02  5.25262E-02
#           5.38042E-02  5.51133E-02  5.64542E-02  5.78278E-02  5.92348E-02
#           6.06760E-02  6.21523E-02  6.36645E-02  6.52135E-02  6.68002E-02
#           6.84255E-02  7.00904E-02  7.17957E-02  7.35426E-02  7.53319E-02
#           7.71648E-02  7.90423E-02  8.09655E-02  8.29354E-02  8.49533E-02
#           8.70203E-02  8.91376E-02  9.13064E-02  9.35279E-02  9.58035E-02
#           9.81345E-02  1.00522E-01  1.02968E-01  1.05473E-01  1.08040E-01
#           1.10668E-01  1.13361E-01  1.16119E-01  1.18944E-01  1.21838E-01
#           1.24803E-01  1.27839E-01  1.30950E-01  1.34136E-01  1.37399E-01
#           1.40742E-01  1.44167E-01  1.47675E-01  1.51268E-01  1.54948E-01
#           1.58718E-01  1.62580E-01  1.66535E-01  1.70587E-01  1.74738E-01
#           1.78989E-01  1.83344E-01  1.87805E-01  1.92375E-01  1.97055E-01
#           2.01850E-01  2.06761E-01  2.11792E-01  2.16945E-01  2.22223E-01
#           2.27630E-01  2.33169E-01  2.38842E-01  2.44653E-01  2.50605E-01
#           2.56703E-01  2.62949E-01  2.69346E-01  2.75900E-01  2.82613E-01
#           2.89489E-01  2.96532E-01  3.03747E-01  3.11138E-01  3.18708E-01
#           3.26462E-01  3.34405E-01  3.42542E-01  3.50876E-01  3.59413E-01
#           3.68158E-01  3.77116E-01  3.86291E-01  3.95690E-01  4.05317E-01
#           4.15179E-01  4.25281E-01  4.35628E-01  4.46227E-01  4.57084E-01
#           4.68205E-01  4.79597E-01  4.91266E-01  5.03219E-01  5.15463E-01
#           5.28005E-01  5.40851E-01  5.54011E-01  5.67490E-01  5.81298E-01
#           5.95441E-01  6.09929E-01  6.24769E-01  6.39970E-01  6.55541E-01
#           6.71491E-01  6.87828E-01  7.04564E-01  7.21706E-01  7.39266E-01
#           7.57253E-01  7.75678E-01  7.94551E-01  8.13883E-01  8.33685E-01
#           8.53969E-01  8.74747E-01  8.96030E-01  9.17831E-01  9.40163E-01
#           9.63038E-01  9.86469E-01  1.01047E+00  1.03506E+00  1.06024E+00
#           1.08604E+00  1.11246E+00  1.13953E+00  1.16725E+00  1.19565E+00
#           1.22474E+00  1.25454E+00  1.28507E+00  1.31633E+00  1.34836E+00
#           1.38117E+00  1.41477E+00  1.44920E+00  1.48446E+00  1.52057E+00
#           1.55757E+00  1.59547E+00  1.63429E+00  1.67405E+00  1.71478E+00
#           1.75650E+00  1.79924E+00  1.84302E+00  1.88786E+00  1.93379E+00
#           1.98084E+00  2.02904E+00  2.07841E+00  2.12898E+00  2.18078E+00
#           2.23384E+00  2.28819E+00  2.34386E+00  2.40089E+00  2.45930E+00
#           2.51914E+00  2.58043E+00  2.64322E+00  2.70753E+00  2.77341E+00
#           2.84088E+00  2.91001E+00  2.98081E+00  3.05333E+00  3.12762E+00
#           3.20372E+00  3.28167E+00  3.36152E+00  3.44330E+00  3.52708E+00
#           3.61290E+00  3.70080E+00  3.79085E+00  3.88308E+00  3.97756E+00
#           4.07434E+00  4.17347E+00  4.27501E+00  4.37903E+00  4.48557E+00
#           4.59471E+00  4.70650E+00  4.82102E+00  4.93832E+00  5.05847E+00
#           5.18155E+00  5.30762E+00  5.43676E+00  5.56904E+00  5.70453E+00
#           5.84333E+00  5.98550E+00  6.13114E+00  6.28031E+00  6.43312E+00
#           6.58964E+00  6.74997E+00  6.91420E+00  7.08243E+00  7.25475E+00
#           7.43126E+00  7.61207E+00  7.79728E+00  7.98700E+00  8.18133E+00
#           8.38038E+00  8.58428E+00  8.79315E+00  9.00709E+00  9.22624E+00
#           9.45072E+00  9.68067E+00  9.91620E+00  1.01575E+01  1.04046E+01
#           1.06578E+01  1.09171E+01  1.11827E+01  1.14548E+01  1.17335E+01
#           1.20190E+01  1.23114E+01  1.26109E+01  1.29178E+01  1.32321E+01
#           1.35540E+01  1.38838E+01  1.42216E+01  1.45676E+01  1.49221E+01
#           1.52851E+01  1.56570E+01  1.60380E+01  1.64282E+01  1.68279E+01
#           1.72374E+01  1.76568E+01  1.80864E+01  1.85264E+01  1.89772E+01
#           1.94389E+01  1.99119E+01  2.03963E+01  2.08926E+01  2.14009E+01
#           2.19216E+01  2.24550E+01  2.30014E+01  2.35610E+01  2.41343E+01
#           2.47215E+01  2.53230E+01  2.59391E+01  2.65702E+01  2.72167E+01
#           2.78789E+01  2.85572E+01  2.92520E+01  2.99637E+01  3.06928E+01
#           3.14396E+01  3.22045E+01  3.29881E+01  3.37907E+01  3.46128E+01
#           3.54550E+01  3.63177E+01  3.72013E+01  3.81064E+01  3.90336E+01
#           3.99833E+01  4.09561E+01  4.19526E+01  4.29734E+01  4.40189E+01
#           4.50900E+01  4.61870E+01  4.73108E+01  4.84619E+01  4.96410E+01
#           5.08488E+01  5.20860E+01  5.33533E+01  5.46514E+01  5.59812E+01
#           5.73432E+01  5.87384E+01  6.01676E+01  6.16315E+01  6.31311E+01
#           6.46671E+01  6.62405E+01  6.78522E+01  6.95031E+01  7.11941E+01
#           7.29263E+01  7.47007E+01  7.65182E+01  7.83800E+01  8.02870E+01
#           8.22405E+01  8.42414E+01  8.62911E+01  8.83906E+01  9.05412E+01
#           9.27442E+01  9.50007E+01  9.73122E+01  9.96799E+01  1.02105E+02
#           1.04589E+02  1.07134E+02  1.09741E+02  1.12411E+02  1.15146E+02
#           1.17948E+02  1.20817E+02  1.23757E+02  1.26768E+02  1.29852E+02
#           1.33012E+02  1.36248E+02  1.39563E+02  1.42959E+02  1.46437E+02
#           1.50000E+02
     unit =    2            # unit is [1/cm^2/(MeV/n)/source]
     axis =  eng            # axis of output
     file = detector-14.out  # file name of output for the above axis
   output = f-curr          # surface crossing forward current spectrum
     part =  neutron  
# kf/name :  2112     
#    used :        main (  %)        temp (  %)       total (  %)
#  memory :         414 (  0)           0 (  0)         414 (  0)

#------------------------------------------------------------------------------
#newpage:
#   no. =    1   reg = 113 - 213

x: Energy [MeV/n]
y:  F-Curr [1/cm^2/(MeV/n)/source]         
p: xlog ylog afac(0.8) form(0.9)
h: n            x            y(neutron ),hh0l   n 
#  e-lower      e-upper      neutron     r.err 
   1.0000E-02   1.0243E-02   2.4660E-05  0.4082
   1.0243E-02   1.0493E-02   3.6818E-05  0.3275
   1.0493E-02   1.0748E-02   3.5254E-05  0.3333
   1.0748E-02   1.1009E-02   3.0592E-05  0.3536
   1.1009E-02   1.1277E-02   2.2399E-05  0.4082
   1.1277E-02   1.1552E-02   1.4578E-05  0.5000
   1.1552E-02   1.1833E-02   2.4906E-05  0.3780
   1.1833E-02   1.2121E-02   6.9469E-06  0.7071
   1.2121E-02   1.2415E-02   1.3564E-05  0.5000
   1.2415E-02   1.2718E-02   1.9862E-05  0.4082
   1.2718E-02   1.3027E-02   2.9615E-05  0.3279
   1.3027E-02   1.3344E-02   3.4705E-05  0.3015
   1.3344E-02   1.3669E-02   3.6961E-05  0.2887
   1.3669E-02   1.4001E-02   3.6083E-05  0.2887
   1.4001E-02   1.4342E-02   4.1517E-05  0.2647
   1.4342E-02   1.4691E-02   1.4329E-05  0.4472
   1.4691E-02   1.5048E-02   1.3988E-05  0.4472
   1.5048E-02   1.5414E-02   4.3700E-05  0.2500
   1.5414E-02   1.5789E-02   2.6664E-05  0.3162
   1.5789E-02   1.6174E-02   2.3427E-05  0.3333
   1.6174E-02   1.6567E-02   1.5247E-05  0.4082
   1.6567E-02   1.6970E-02   2.7289E-05  0.3015
   1.6970E-02   1.7383E-02   2.1797E-05  0.3333
   1.7383E-02   1.7806E-02   4.4923E-05  0.2294
   1.7806E-02   1.8239E-02   1.3849E-05  0.4082
   1.8239E-02   1.8683E-02   2.2534E-05  0.3162
   1.8683E-02   1.9138E-02   3.5198E-05  0.2500
   1.9138E-02   1.9603E-02   2.1476E-05  0.3162
   1.9603E-02   2.0080E-02   2.1262E-05  0.3121
   2.0080E-02   2.0569E-02   2.0468E-05  0.3162
   2.0569E-02   2.1069E-02   3.3969E-05  0.2425
   2.1069E-02   2.1582E-02   2.3409E-05  0.2887
   2.1582E-02   2.2107E-02   3.8088E-05  0.2236
   2.2107E-02   2.2645E-02   2.2310E-05  0.2887
   2.2645E-02   2.3196E-02   1.6335E-05  0.3333
   2.3196E-02   2.3760E-02   2.1550E-05  0.2851
   2.3760E-02   2.4338E-02   1.5568E-05  0.3333
   2.4338E-02   2.4930E-02   3.0397E-05  0.2357
   2.4930E-02   2.5537E-02   2.2493E-05  0.2670
   2.5537E-02   2.6158E-02   2.5751E-05  0.2500
   2.6158E-02   2.6795E-02   2.6711E-05  0.2425
   2.6795E-02   2.7447E-02   2.4542E-05  0.2500
   2.7447E-02   2.8114E-02   2.0964E-05  0.2673
   2.8114E-02   2.8799E-02   2.3390E-05  0.2500
   2.8799E-02   2.9499E-02   2.7362E-05  0.2275
   2.9499E-02   3.0217E-02   1.9506E-05  0.2673
   3.0217E-02   3.0952E-02   2.4483E-05  0.2357
   3.0952E-02   3.1705E-02   1.3279E-05  0.3162
   3.1705E-02   3.2477E-02   2.0741E-05  0.2500
   3.2477E-02   3.3267E-02   2.7842E-05  0.2132
   3.3267E-02   3.4076E-02   2.3474E-05  0.2294
   3.4076E-02   3.4905E-02   2.6535E-05  0.2132
   3.4905E-02   3.5755E-02   2.4906E-05  0.2168
   3.5755E-02   3.6625E-02   1.8551E-05  0.2480
   3.6625E-02   3.7516E-02   2.2267E-05  0.2215
   3.7516E-02   3.8428E-02   2.0815E-05  0.2294
   3.8428E-02   3.9363E-02   1.7335E-05  0.2471
   3.9363E-02   4.0321E-02   2.4015E-05  0.2085
   4.0321E-02   4.1302E-02   1.9367E-05  0.2294
   4.1302E-02   4.2307E-02   2.1892E-05  0.2132
   4.2307E-02   4.3337E-02   2.2532E-05  0.2069
   4.3337E-02   4.4391E-02   1.4226E-05  0.2582
   4.4391E-02   4.5471E-02   1.8517E-05  0.2236
   4.5471E-02   4.6577E-02   1.9885E-05  0.2132
   4.6577E-02   4.7711E-02   2.1313E-05  0.2029
   4.7711E-02   4.8871E-02   2.0675E-05  0.2041
   4.8871E-02   5.0061E-02   1.2902E-05  0.2529
   5.0061E-02   5.1279E-02   1.8883E-05  0.2085
   5.1279E-02   5.2526E-02   2.0978E-05  0.1949
   5.2526E-02   5.3804E-02   1.4966E-05  0.2280
   5.3804E-02   5.5113E-02   2.0625E-05  0.1925
   5.5113E-02   5.6454E-02   2.0135E-05  0.1925
   5.6454E-02   5.7828E-02   1.8201E-05  0.2000
   5.7828E-02   5.9235E-02   1.3029E-05  0.2318
   5.9235E-02   6.0676E-02   1.6306E-05  0.2052
   6.0676E-02   6.2152E-02   1.7950E-05  0.1933
   6.2152E-02   6.3665E-02   1.8516E-05  0.1890
   6.3665E-02   6.5214E-02   1.8076E-05  0.1890
   6.5214E-02   6.6800E-02   1.5756E-05  0.2000
   6.6800E-02   6.8426E-02   1.4236E-05  0.2074
   6.8426E-02   7.0090E-02   1.6818E-05  0.1890
   7.0090E-02   7.1796E-02   1.8178E-05  0.1796
   7.1796E-02   7.3543E-02   1.9750E-05  0.1696
   7.3543E-02   7.5332E-02   1.7978E-05  0.1759
   7.5332E-02   7.7165E-02   1.2821E-05  0.2052
   7.7165E-02   7.9042E-02   2.0240E-05  0.1622
   7.9042E-02   8.0965E-02   2.0279E-05  0.1601
   8.0965E-02   8.2935E-02   1.8782E-05  0.1644
   8.2935E-02   8.4953E-02   1.3961E-05  0.1879
   8.4953E-02   8.7020E-02   1.4998E-05  0.1796
   8.7020E-02   8.9138E-02   1.3697E-05  0.1857
   8.9138E-02   9.1306E-02   2.2363E-05  0.1432
   9.1306E-02   9.3528E-02   1.3954E-05  0.1796
   9.3528E-02   9.5804E-02   1.5381E-05  0.1690
   9.5804E-02   9.8134E-02   1.2870E-05  0.1826
   9.8134E-02   1.0052E-01   8.8609E-06  0.2167
   1.0052E-01   1.0297E-01   1.4783E-05  0.1660
   1.0297E-01   1.0547E-01   1.2052E-05  0.1815
   1.0547E-01   1.0804E-01   1.4870E-05  0.1616
   1.0804E-01   1.1067E-01   1.2633E-05  0.1731
   1.1067E-01   1.1336E-01   1.4406E-05  0.1595
   1.1336E-01   1.1612E-01   1.6729E-05  0.1470
   1.1612E-01   1.1894E-01   1.8569E-05  0.1376
   1.1894E-01   1.2184E-01   1.0086E-05  0.1846
   1.2184E-01   1.2480E-01   1.2876E-05  0.1616
   1.2480E-01   1.2784E-01   1.4213E-05  0.1520
   1.2784E-01   1.3095E-01   8.6805E-06  0.1925
   1.3095E-01   1.3414E-01   1.3810E-05  0.1508
   1.3414E-01   1.3740E-01   1.0111E-05  0.1741
   1.3740E-01   1.4074E-01   1.1068E-05  0.1644
   1.4074E-01   1.4417E-01   1.1973E-05  0.1562
   1.4417E-01   1.4767E-01   1.2010E-05  0.1539
   1.4767E-01   1.5127E-01   1.1133E-05  0.1581
   1.5127E-01   1.5495E-01   1.3042E-05  0.1443
   1.5495E-01   1.5872E-01   1.2246E-05  0.1470
   1.5872E-01   1.6258E-01   9.3222E-06  0.1667
   1.6258E-01   1.6654E-01   1.0618E-05  0.1543
   1.6654E-01   1.7059E-01   1.1599E-05  0.1459
   1.7059E-01   1.7474E-01   8.9543E-06  0.1637
   1.7474E-01   1.7899E-01   9.6436E-06  0.1562
   1.7899E-01   1.8334E-01   1.0792E-05  0.1459
   1.8334E-01   1.8781E-01   8.3320E-06  0.1637
   1.8781E-01   1.9237E-01   7.4407E-06  0.1715
   1.9237E-01   1.9706E-01   1.0469E-05  0.1429
   1.9706E-01   2.0185E-01   9.4174E-06  0.1486
   2.0185E-01   2.0676E-01   8.1784E-06  0.1575
   2.0676E-01   2.1179E-01   7.3549E-06  0.1644
   2.1179E-01   2.1694E-01   8.4115E-06  0.1514
   2.1694E-01   2.2222E-01   9.4725E-06  0.1414
   2.2222E-01   2.2763E-01   1.0265E-05  0.1339
   2.2763E-01   2.3317E-01   7.8542E-06  0.1512
   2.3317E-01   2.3884E-01   1.0072E-05  0.1321
   2.3884E-01   2.4465E-01   1.0271E-05  0.1290
   2.4465E-01   2.5061E-01   1.2125E-05  0.1176
   2.5061E-01   2.5670E-01   1.1671E-05  0.1180
   2.5670E-01   2.6295E-01   1.2513E-05  0.1127
   2.6295E-01   2.6935E-01   1.1801E-05  0.1149
   2.6935E-01   2.7590E-01   7.8777E-06  0.1387
   2.7590E-01   2.8261E-01   1.1419E-05  0.1134
   2.8261E-01   2.8949E-01   1.1562E-05  0.1120
   2.8949E-01   2.9653E-01   1.1837E-05  0.1093
   2.9653E-01   3.0375E-01   1.4927E-05  0.0962
   3.0375E-01   3.1114E-01   1.4884E-05  0.0953
   3.1114E-01   3.1871E-01   1.4303E-05  0.0960
   3.1871E-01   3.2646E-01   1.3321E-05  0.0983
   3.2646E-01   3.3441E-01   1.3849E-05  0.0953
   3.3441E-01   3.4254E-01   1.3971E-05  0.0936
   3.4254E-01   3.5088E-01   1.6117E-05  0.0860
   3.5088E-01   3.5941E-01   1.6652E-05  0.0837
   3.5941E-01   3.6816E-01   1.6163E-05  0.0840
   3.6816E-01   3.7712E-01   1.4719E-05  0.0869
   3.7712E-01   3.8629E-01   1.4965E-05  0.0853
   3.8629E-01   3.9569E-01   1.5640E-05  0.0825
   3.9569E-01   4.0532E-01   1.7530E-05  0.0769
   4.0532E-01   4.1518E-01   1.7337E-05  0.0763
   4.1518E-01   4.2528E-01   1.9961E-05  0.0702
   4.2528E-01   4.3563E-01   1.9880E-05  0.0696
   4.3563E-01   4.4623E-01   1.6306E-05  0.0760
   4.4623E-01   4.5708E-01   1.8124E-05  0.0712
   4.5708E-01   4.6821E-01   1.9226E-05  0.0683
   4.6821E-01   4.7960E-01   1.8244E-05  0.0692
   4.7960E-01   4.9127E-01   2.0223E-05  0.0650
   4.9127E-01   5.0322E-01   2.0156E-05  0.0642
   5.0322E-01   5.1546E-01   1.9260E-05  0.0650
   5.1546E-01   5.2800E-01   2.1928E-05  0.0602
   5.2800E-01   5.4085E-01   2.0272E-05  0.0619
   5.4085E-01   5.5401E-01   2.1615E-05  0.0591
   5.5401E-01   5.6749E-01   1.8705E-05  0.0629
   5.6749E-01   5.8130E-01   2.1412E-05  0.0581
   5.8130E-01   5.9544E-01   2.0458E-05  0.0586
   5.9544E-01   6.0993E-01   2.1252E-05  0.0569
   6.0993E-01   6.2477E-01   2.1087E-05  0.0565
   6.2477E-01   6.3997E-01   2.1639E-05  0.0550
   6.3997E-01   6.5554E-01   2.2135E-05  0.0538
   6.5554E-01   6.7149E-01   2.3045E-05  0.0520
   6.7149E-01   6.8783E-01   2.1880E-05  0.0528
   6.8783E-01   7.0456E-01   2.4079E-05  0.0497
   7.0456E-01   7.2171E-01   2.1878E-05  0.0515
   7.2171E-01   7.3927E-01   2.4649E-05  0.0480
   7.3927E-01   7.5725E-01   2.2065E-05  0.0500
   7.5725E-01   7.7568E-01   2.3478E-05  0.0480
   7.7568E-01   7.9455E-01   2.2713E-05  0.0482
   7.9455E-01   8.1388E-01   2.3750E-05  0.0465
   8.1388E-01   8.3368E-01   2.3502E-05  0.0463
   8.3368E-01   8.5397E-01   2.2193E-05  0.0470
   8.5397E-01   8.7475E-01   2.3902E-05  0.0447
   8.7475E-01   8.9603E-01   2.2735E-05  0.0454
   8.9603E-01   9.1783E-01   2.2640E-05  0.0449
   9.1783E-01   9.4016E-01   2.3750E-05  0.0433
   9.4016E-01   9.6304E-01   2.2425E-05  0.0440
   9.6304E-01   9.8647E-01   2.2627E-05  0.0433
   9.8647E-01   1.0105E+00   2.2268E-05  0.0431
   1.0105E+00   1.0351E+00   2.2688E-05  0.0422
   1.0351E+00   1.0602E+00   2.4545E-05  0.0401
   1.0602E+00   1.0860E+00   2.2230E-05  0.0417
   1.0860E+00   1.1125E+00   2.6552E-05  0.0377
   1.1125E+00   1.1395E+00   2.6402E-05  0.0373
   1.1395E+00   1.1673E+00   2.6538E-05  0.0367
   1.1673E+00   1.1957E+00   2.8686E-05  0.0349
   1.1957E+00   1.2247E+00   2.8503E-05  0.0346
   1.2247E+00   1.2545E+00   3.0788E-05  0.0329
   1.2545E+00   1.2851E+00   3.1818E-05  0.0320
   1.2851E+00   1.3163E+00   3.2281E-05  0.0314
   1.3163E+00   1.3484E+00   3.5724E-05  0.0295
   1.3484E+00   1.3812E+00   3.5072E-05  0.0294
   1.3812E+00   1.4148E+00   3.7337E-05  0.0281
   1.4148E+00   1.4492E+00   3.8365E-05  0.0274
   1.4492E+00   1.4845E+00   3.9871E-05  0.0266
   1.4845E+00   1.5206E+00   4.0580E-05  0.0261
   1.5206E+00   1.5576E+00   4.1192E-05  0.0255
   1.5576E+00   1.5955E+00   4.3540E-05  0.0245
   1.5955E+00   1.6343E+00   4.4615E-05  0.0240
   1.6343E+00   1.6741E+00   4.5355E-05  0.0235
   1.6741E+00   1.7148E+00   4.7320E-05  0.0227
   1.7148E+00   1.7565E+00   5.1275E-05  0.0216
   1.7565E+00   1.7992E+00   5.2639E-05  0.0210
   1.7992E+00   1.8430E+00   5.2901E-05  0.0207
   1.8430E+00   1.8879E+00   5.3765E-05  0.0203
   1.8879E+00   1.9338E+00   5.5178E-05  0.0198
   1.9338E+00   1.9808E+00   6.0031E-05  0.0188
   1.9808E+00   2.0290E+00   5.9155E-05  0.0187
   2.0290E+00   2.0784E+00   6.2120E-05  0.0180
   2.0784E+00   2.1290E+00   6.4229E-05  0.0175
   2.1290E+00   2.1808E+00   6.4769E-05  0.0172
   2.1808E+00   2.2338E+00   6.5665E-05  0.0169
   2.2338E+00   2.2882E+00   6.7549E-05  0.0165
   2.2882E+00   2.3439E+00   7.0248E-05  0.0159
   2.3439E+00   2.4009E+00   7.2622E-05  0.0155
   2.4009E+00   2.4593E+00   7.7160E-05  0.0148
   2.4593E+00   2.5191E+00   7.6491E-05  0.0147
   2.5191E+00   2.5804E+00   7.8267E-05  0.0144
   2.5804E+00   2.6432E+00   7.9054E-05  0.0142
   2.6432E+00   2.7075E+00   7.8487E-05  0.0140
   2.7075E+00   2.7734E+00   8.0203E-05  0.0137
   2.7734E+00   2.8409E+00   8.2247E-05  0.0134
   2.8409E+00   2.9100E+00   8.6078E-05  0.0129
   2.9100E+00   2.9808E+00   8.7816E-05  0.0126
   2.9808E+00   3.0533E+00   8.8048E-05  0.0125
   3.0533E+00   3.1276E+00   8.9477E-05  0.0122
   3.1276E+00   3.2037E+00   9.2228E-05  0.0119
   3.2037E+00   3.2817E+00   9.0068E-05  0.0119
   3.2817E+00   3.3615E+00   9.1693E-05  0.0116
   3.3615E+00   3.4433E+00   9.1954E-05  0.0115
   3.4433E+00   3.5271E+00   9.4702E-05  0.0112
   3.5271E+00   3.6129E+00   9.6698E-05  0.0109
   3.6129E+00   3.7008E+00   9.6466E-05  0.0108
   3.7008E+00   3.7908E+00   9.7980E-05  0.0106
   3.7908E+00   3.8831E+00   9.7370E-05  0.0105
   3.8831E+00   3.9776E+00   9.8573E-05  0.0103
   3.9776E+00   4.0743E+00   1.0133E-04  0.0101
   4.0743E+00   4.1735E+00   1.0124E-04  0.0100
   4.1735E+00   4.2750E+00   9.9578E-05  0.0099
   4.2750E+00   4.3790E+00   1.0109E-04  0.0097
   4.3790E+00   4.4856E+00   1.0203E-04  0.0096
   4.4856E+00   4.5947E+00   1.0145E-04  0.0095
   4.5947E+00   4.7065E+00   1.0263E-04  0.0093
   4.7065E+00   4.8210E+00   1.0385E-04  0.0091
   4.8210E+00   4.9383E+00   1.0348E-04  0.0091
   4.9383E+00   5.0585E+00   1.0502E-04  0.0089
   5.0585E+00   5.1815E+00   1.0383E-04  0.0088
   5.1815E+00   5.3076E+00   1.0195E-04  0.0088
   5.3076E+00   5.4368E+00   1.0057E-04  0.0088
   5.4368E+00   5.5690E+00   9.9680E-05  0.0087
   5.5690E+00   5.7045E+00   1.0017E-04  0.0086
   5.7045E+00   5.8433E+00   9.7426E-05  0.0086
   5.8433E+00   5.9855E+00   9.6283E-05  0.0085
   5.9855E+00   6.1311E+00   9.4414E-05  0.0085
   6.1311E+00   6.2803E+00   9.2022E-05  0.0085
   6.2803E+00   6.4331E+00   9.3168E-05  0.0084
   6.4331E+00   6.5896E+00   9.0406E-05  0.0084
   6.5896E+00   6.7500E+00   8.8784E-05  0.0084
   6.7500E+00   6.9142E+00   8.6641E-05  0.0084
   6.9142E+00   7.0824E+00   8.6070E-05  0.0083
   7.0824E+00   7.2548E+00   8.4326E-05  0.0083
   7.2548E+00   7.4313E+00   8.2169E-05  0.0083
   7.4313E+00   7.6121E+00   7.9448E-05  0.0083
   7.6121E+00   7.7973E+00   7.7530E-05  0.0083
   7.7973E+00   7.9870E+00   7.4942E-05  0.0084
   7.9870E+00   8.1813E+00   7.3412E-05  0.0084
   8.1813E+00   8.3804E+00   7.1652E-05  0.0084
   8.3804E+00   8.5843E+00   6.8309E-05  0.0085
   8.5843E+00   8.7931E+00   6.5762E-05  0.0085
   8.7931E+00   9.0071E+00   6.3784E-05  0.0086
   9.0071E+00   9.2262E+00   6.2113E-05  0.0086
   9.2262E+00   9.4507E+00   6.1089E-05  0.0085
   9.4507E+00   9.6807E+00   5.7497E-05  0.0087
   9.6807E+00   9.9162E+00   5.5765E-05  0.0087
   9.9162E+00   1.0157E+01   5.3825E-05  0.0088
   1.0157E+01   1.0405E+01   5.2724E-05  0.0088
   1.0405E+01   1.0658E+01   5.0940E-05  0.0088
   1.0658E+01   1.0917E+01   4.9830E-05  0.0088
   1.0917E+01   1.1183E+01   4.7601E-05  0.0089
   1.1183E+01   1.1455E+01   4.5330E-05  0.0090
   1.1455E+01   1.1733E+01   4.4582E-05  0.0090
   1.1733E+01   1.2019E+01   4.2897E-05  0.0090
   1.2019E+01   1.2311E+01   4.0799E-05  0.0091
   1.2311E+01   1.2611E+01   3.9346E-05  0.0092
   1.2611E+01   1.2918E+01   3.7646E-05  0.0093
   1.2918E+01   1.3232E+01   3.6499E-05  0.0093
   1.3232E+01   1.3554E+01   3.4931E-05  0.0094
   1.3554E+01   1.3884E+01   3.3694E-05  0.0095
   1.3884E+01   1.4222E+01   3.2091E-05  0.0096
   1.4222E+01   1.4568E+01   3.0524E-05  0.0097
   1.4568E+01   1.4922E+01   2.9145E-05  0.0098
   1.4922E+01   1.5285E+01   2.8793E-05  0.0098
   1.5285E+01   1.5657E+01   2.6805E-05  0.0100
   1.5657E+01   1.6038E+01   2.5361E-05  0.0102
   1.6038E+01   1.6428E+01   2.4775E-05  0.0102
   1.6428E+01   1.6828E+01   2.3536E-05  0.0103
   1.6828E+01   1.7237E+01   2.2091E-05  0.0105
   1.7237E+01   1.7657E+01   2.1281E-05  0.0106
   1.7657E+01   1.8086E+01   1.9888E-05  0.0108
   1.8086E+01   1.8526E+01   1.9708E-05  0.0107
   1.8526E+01   1.8977E+01   1.8211E-05  0.0110
   1.8977E+01   1.9439E+01   1.7712E-05  0.0111
   1.9439E+01   1.9912E+01   1.7547E-05  0.0110
   1.9912E+01   2.0396E+01   1.6926E-05  0.0110
   2.0396E+01   2.0893E+01   1.6292E-05  0.0111
   2.0893E+01   2.1401E+01   1.5317E-05  0.0113
   2.1401E+01   2.1922E+01   1.4573E-05  0.0115
   2.1922E+01   2.2455E+01   1.3897E-05  0.0116
   2.2455E+01   2.3001E+01   1.3274E-05  0.0117
   2.3001E+01   2.3561E+01   1.2108E-05  0.0121
   2.3561E+01   2.4134E+01   1.1292E-05  0.0124
   2.4134E+01   2.4721E+01   1.0843E-05  0.0125
   2.4721E+01   2.5323E+01   1.0087E-05  0.0128
   2.5323E+01   2.5939E+01   9.2919E-06  0.0132
   2.5939E+01   2.6570E+01   8.5499E-06  0.0136
   2.6570E+01   2.7217E+01   8.0637E-06  0.0139
   2.7217E+01   2.7879E+01   7.2908E-06  0.0144
   2.7879E+01   2.8557E+01   6.6857E-06  0.0148
   2.8557E+01   2.9252E+01   6.2664E-06  0.0152
   2.9252E+01   2.9964E+01   5.6440E-06  0.0158
   2.9964E+01   3.0693E+01   5.2233E-06  0.0162
   3.0693E+01   3.1440E+01   4.5663E-06  0.0171
   3.1440E+01   3.2205E+01   4.2826E-06  0.0175
   3.2205E+01   3.2988E+01   3.9231E-06  0.0180
   3.2988E+01   3.3791E+01   3.5371E-06  0.0188
   3.3791E+01   3.4613E+01   3.1576E-06  0.0196
   3.4613E+01   3.5455E+01   2.7346E-06  0.0208
   3.5455E+01   3.6318E+01   2.4228E-06  0.0219
   3.6318E+01   3.7201E+01   2.2124E-06  0.0226
   3.7201E+01   3.8106E+01   1.8958E-06  0.0241
   3.8106E+01   3.9034E+01   1.6847E-06  0.0253
   3.9034E+01   3.9983E+01   1.5468E-06  0.0261
   3.9983E+01   4.0956E+01   1.3096E-06  0.0280
   4.0956E+01   4.1953E+01   1.0728E-06  0.0306
   4.1953E+01   4.2973E+01   9.5323E-07  0.0321
   4.2973E+01   4.4019E+01   8.3590E-07  0.0338
   4.4019E+01   4.5090E+01   7.1614E-07  0.0361
   4.5090E+01   4.6187E+01   5.8793E-07  0.0394
   4.6187E+01   4.7311E+01   5.4905E-07  0.0403
   4.7311E+01   4.8462E+01   4.6824E-07  0.0431
   4.8462E+01   4.9641E+01   4.1981E-07  0.0449
   4.9641E+01   5.0849E+01   3.5767E-07  0.0481
   5.0849E+01   5.2086E+01   3.1361E-07  0.0508
   5.2086E+01   5.3353E+01   2.6592E-07  0.0545
   5.3353E+01   5.4651E+01   2.4189E-07  0.0564
   5.4651E+01   5.5981E+01   1.8425E-07  0.0639
   5.5981E+01   5.7343E+01   1.9529E-07  0.0613
   5.7343E+01   5.8738E+01   1.7918E-07  0.0632
   5.8738E+01   6.0168E+01   1.3784E-07  0.0712
   6.0168E+01   6.1632E+01   1.2706E-07  0.0733
   6.1632E+01   6.3131E+01   7.9357E-08  0.0917
   6.3131E+01   6.4667E+01   7.5519E-08  0.0928
   6.4667E+01   6.6240E+01   5.4659E-08  0.1078
   6.6240E+01   6.7852E+01   3.0403E-08  0.1429
   6.7852E+01   6.9503E+01   2.4835E-08  0.1562
   6.9503E+01   7.1194E+01   1.5375E-08  0.1961
   7.1194E+01   7.2926E+01   1.7896E-08  0.1796
   7.2926E+01   7.4701E+01   9.0174E-09  0.2500
   7.4701E+01   7.6518E+01   5.5020E-09  0.3162
   7.6518E+01   7.8380E+01   1.6114E-09  0.5774
   7.8380E+01   8.0287E+01   1.0487E-09  0.7071
   8.0287E+01   8.2240E+01   0.0000E+00  0.0000
   8.2240E+01   8.4241E+01   0.0000E+00  0.0000
   8.4241E+01   8.6291E+01   0.0000E+00  0.0000
   8.6291E+01   8.8391E+01   0.0000E+00  0.0000
   8.8391E+01   9.0541E+01   0.0000E+00  0.0000
   9.0541E+01   9.2744E+01   0.0000E+00  0.0000
   9.2744E+01   9.5001E+01   0.0000E+00  0.0000
   9.5001E+01   9.7312E+01   0.0000E+00  0.0000
   9.7312E+01   9.9680E+01   0.0000E+00  0.0000
   9.9680E+01   1.0211E+02   0.0000E+00  0.0000
   1.0211E+02   1.0459E+02   0.0000E+00  0.0000
   1.0459E+02   1.0713E+02   0.0000E+00  0.0000
   1.0713E+02   1.0974E+02   0.0000E+00  0.0000
   1.0974E+02   1.1241E+02   0.0000E+00  0.0000
   1.1241E+02   1.1515E+02   0.0000E+00  0.0000
   1.1515E+02   1.1795E+02   0.0000E+00  0.0000
   1.1795E+02   1.2082E+02   0.0000E+00  0.0000
   1.2082E+02   1.2376E+02   0.0000E+00  0.0000
   1.2376E+02   1.2677E+02   0.0000E+00  0.0000
   1.2677E+02   1.2985E+02   0.0000E+00  0.0000
   1.2985E+02   1.3301E+02   0.0000E+00  0.0000
   1.3301E+02   1.3625E+02   0.0000E+00  0.0000
   1.3625E+02   1.3956E+02   0.0000E+00  0.0000
   1.3956E+02   1.4296E+02   0.0000E+00  0.0000
   1.4296E+02   1.4644E+02   0.0000E+00  0.0000
   1.4644E+02   1.5000E+02   0.0000E+00  0.0000

#   sum over                 7.8785E-06
'no. =    1   reg = 113 - 213'
msuc: {\huge [t-cross] in region mesh}
msdr: {\it plotted by \ANGEL \version}
msdl: {\it calculated by \PHITS  3.26}
wt: s(0.7)
\vspace{-3}
  region surface crossing
  area  &=&   1.0000E+00 [cm^2]
e:
 
# Information for Restart Calculation
# This calculation was newly started
# istdev =  2 # 1:Batch variance, 2:History variance
# resc2  = 1.00000000000000000E+09 # Total source weight or Total source weight / maxcas
# resc3  = 1.00000000000000000E+09 # Total history number or Total batch number
# maxcas =   500000000 # History / Batch, only used for istdev=1
# bitrseed = 0001001110011001001001110000100100110111001111011100001000101100 # bit data of rseed
