[ T-Cross ]
    title = [t-cross] in region mesh
     mesh =  reg            # mesh type is region-wise
      reg =    1            # number of crossing regions
      non     r-from    r-to       area
      1       116       216        1.000000    
   e-type =    3            # e-mesh is log given by emin, emax and ne
     emin =  1.0000000E-02  # minimum value of e-mesh points
     emax =   150.0000      # maximum value of e-mesh points
#    edel =  2.4039514E-02  # mesh width of e-mesh points
       ne =    400          # number of e-mesh points
#    data = ( e(i), i = 1, ne + 1 )
#           1.00000E-02  1.02433E-02  1.04925E-02  1.07478E-02  1.10093E-02
#           1.12772E-02  1.15516E-02  1.18326E-02  1.21205E-02  1.24154E-02
#           1.27175E-02  1.30269E-02  1.33439E-02  1.36686E-02  1.40011E-02
#           1.43418E-02  1.46907E-02  1.50482E-02  1.54143E-02  1.57894E-02
#           1.61735E-02  1.65670E-02  1.69701E-02  1.73830E-02  1.78060E-02
#           1.82392E-02  1.86830E-02  1.91375E-02  1.96032E-02  2.00801E-02
#           2.05687E-02  2.10692E-02  2.15818E-02  2.21069E-02  2.26448E-02
#           2.31957E-02  2.37601E-02  2.43382E-02  2.49304E-02  2.55369E-02
#           2.61583E-02  2.67947E-02  2.74467E-02  2.81145E-02  2.87985E-02
#           2.94992E-02  3.02169E-02  3.09521E-02  3.17052E-02  3.24766E-02
#           3.32668E-02  3.40762E-02  3.49053E-02  3.57546E-02  3.66246E-02
#           3.75157E-02  3.84284E-02  3.93634E-02  4.03212E-02  4.13022E-02
#           4.23071E-02  4.33365E-02  4.43909E-02  4.54710E-02  4.65773E-02
#           4.77106E-02  4.88714E-02  5.00605E-02  5.12785E-02  5.25262E-02
#           5.38042E-02  5.51133E-02  5.64542E-02  5.78278E-02  5.92348E-02
#           6.06760E-02  6.21523E-02  6.36645E-02  6.52135E-02  6.68002E-02
#           6.84255E-02  7.00904E-02  7.17957E-02  7.35426E-02  7.53319E-02
#           7.71648E-02  7.90423E-02  8.09655E-02  8.29354E-02  8.49533E-02
#           8.70203E-02  8.91376E-02  9.13064E-02  9.35279E-02  9.58035E-02
#           9.81345E-02  1.00522E-01  1.02968E-01  1.05473E-01  1.08040E-01
#           1.10668E-01  1.13361E-01  1.16119E-01  1.18944E-01  1.21838E-01
#           1.24803E-01  1.27839E-01  1.30950E-01  1.34136E-01  1.37399E-01
#           1.40742E-01  1.44167E-01  1.47675E-01  1.51268E-01  1.54948E-01
#           1.58718E-01  1.62580E-01  1.66535E-01  1.70587E-01  1.74738E-01
#           1.78989E-01  1.83344E-01  1.87805E-01  1.92375E-01  1.97055E-01
#           2.01850E-01  2.06761E-01  2.11792E-01  2.16945E-01  2.22223E-01
#           2.27630E-01  2.33169E-01  2.38842E-01  2.44653E-01  2.50605E-01
#           2.56703E-01  2.62949E-01  2.69346E-01  2.75900E-01  2.82613E-01
#           2.89489E-01  2.96532E-01  3.03747E-01  3.11138E-01  3.18708E-01
#           3.26462E-01  3.34405E-01  3.42542E-01  3.50876E-01  3.59413E-01
#           3.68158E-01  3.77116E-01  3.86291E-01  3.95690E-01  4.05317E-01
#           4.15179E-01  4.25281E-01  4.35628E-01  4.46227E-01  4.57084E-01
#           4.68205E-01  4.79597E-01  4.91266E-01  5.03219E-01  5.15463E-01
#           5.28005E-01  5.40851E-01  5.54011E-01  5.67490E-01  5.81298E-01
#           5.95441E-01  6.09929E-01  6.24769E-01  6.39970E-01  6.55541E-01
#           6.71491E-01  6.87828E-01  7.04564E-01  7.21706E-01  7.39266E-01
#           7.57253E-01  7.75678E-01  7.94551E-01  8.13883E-01  8.33685E-01
#           8.53969E-01  8.74747E-01  8.96030E-01  9.17831E-01  9.40163E-01
#           9.63038E-01  9.86469E-01  1.01047E+00  1.03506E+00  1.06024E+00
#           1.08604E+00  1.11246E+00  1.13953E+00  1.16725E+00  1.19565E+00
#           1.22474E+00  1.25454E+00  1.28507E+00  1.31633E+00  1.34836E+00
#           1.38117E+00  1.41477E+00  1.44920E+00  1.48446E+00  1.52057E+00
#           1.55757E+00  1.59547E+00  1.63429E+00  1.67405E+00  1.71478E+00
#           1.75650E+00  1.79924E+00  1.84302E+00  1.88786E+00  1.93379E+00
#           1.98084E+00  2.02904E+00  2.07841E+00  2.12898E+00  2.18078E+00
#           2.23384E+00  2.28819E+00  2.34386E+00  2.40089E+00  2.45930E+00
#           2.51914E+00  2.58043E+00  2.64322E+00  2.70753E+00  2.77341E+00
#           2.84088E+00  2.91001E+00  2.98081E+00  3.05333E+00  3.12762E+00
#           3.20372E+00  3.28167E+00  3.36152E+00  3.44330E+00  3.52708E+00
#           3.61290E+00  3.70080E+00  3.79085E+00  3.88308E+00  3.97756E+00
#           4.07434E+00  4.17347E+00  4.27501E+00  4.37903E+00  4.48557E+00
#           4.59471E+00  4.70650E+00  4.82102E+00  4.93832E+00  5.05847E+00
#           5.18155E+00  5.30762E+00  5.43676E+00  5.56904E+00  5.70453E+00
#           5.84333E+00  5.98550E+00  6.13114E+00  6.28031E+00  6.43312E+00
#           6.58964E+00  6.74997E+00  6.91420E+00  7.08243E+00  7.25475E+00
#           7.43126E+00  7.61207E+00  7.79728E+00  7.98700E+00  8.18133E+00
#           8.38038E+00  8.58428E+00  8.79315E+00  9.00709E+00  9.22624E+00
#           9.45072E+00  9.68067E+00  9.91620E+00  1.01575E+01  1.04046E+01
#           1.06578E+01  1.09171E+01  1.11827E+01  1.14548E+01  1.17335E+01
#           1.20190E+01  1.23114E+01  1.26109E+01  1.29178E+01  1.32321E+01
#           1.35540E+01  1.38838E+01  1.42216E+01  1.45676E+01  1.49221E+01
#           1.52851E+01  1.56570E+01  1.60380E+01  1.64282E+01  1.68279E+01
#           1.72374E+01  1.76568E+01  1.80864E+01  1.85264E+01  1.89772E+01
#           1.94389E+01  1.99119E+01  2.03963E+01  2.08926E+01  2.14009E+01
#           2.19216E+01  2.24550E+01  2.30014E+01  2.35610E+01  2.41343E+01
#           2.47215E+01  2.53230E+01  2.59391E+01  2.65702E+01  2.72167E+01
#           2.78789E+01  2.85572E+01  2.92520E+01  2.99637E+01  3.06928E+01
#           3.14396E+01  3.22045E+01  3.29881E+01  3.37907E+01  3.46128E+01
#           3.54550E+01  3.63177E+01  3.72013E+01  3.81064E+01  3.90336E+01
#           3.99833E+01  4.09561E+01  4.19526E+01  4.29734E+01  4.40189E+01
#           4.50900E+01  4.61870E+01  4.73108E+01  4.84619E+01  4.96410E+01
#           5.08488E+01  5.20860E+01  5.33533E+01  5.46514E+01  5.59812E+01
#           5.73432E+01  5.87384E+01  6.01676E+01  6.16315E+01  6.31311E+01
#           6.46671E+01  6.62405E+01  6.78522E+01  6.95031E+01  7.11941E+01
#           7.29263E+01  7.47007E+01  7.65182E+01  7.83800E+01  8.02870E+01
#           8.22405E+01  8.42414E+01  8.62911E+01  8.83906E+01  9.05412E+01
#           9.27442E+01  9.50007E+01  9.73122E+01  9.96799E+01  1.02105E+02
#           1.04589E+02  1.07134E+02  1.09741E+02  1.12411E+02  1.15146E+02
#           1.17948E+02  1.20817E+02  1.23757E+02  1.26768E+02  1.29852E+02
#           1.33012E+02  1.36248E+02  1.39563E+02  1.42959E+02  1.46437E+02
#           1.50000E+02
     unit =    2            # unit is [1/cm^2/(MeV/n)/source]
     axis =  eng            # axis of output
     file = detector-17.out  # file name of output for the above axis
   output = f-curr          # surface crossing forward current spectrum
     part =  neutron  
# kf/name :  2112     
#    used :        main (  %)        temp (  %)       total (  %)
#  memory :         414 (  0)           0 (  0)         414 (  0)

#------------------------------------------------------------------------------
#newpage:
#   no. =    1   reg = 116 - 216

x: Energy [MeV/n]
y:  F-Curr [1/cm^2/(MeV/n)/source]         
p: xlog ylog afac(0.8) form(0.9)
h: n            x            y(neutron ),hh0l   n 
#  e-lower      e-upper      neutron     r.err 
   1.0000E-02   1.0243E-02   6.3773E-04  0.0802
   1.0243E-02   1.0493E-02   7.7038E-04  0.0722
   1.0493E-02   1.0748E-02   6.3520E-04  0.0785
   1.0748E-02   1.1009E-02   7.3613E-04  0.0720
   1.1009E-02   1.1277E-02   7.1505E-04  0.0722
   1.1277E-02   1.1552E-02   7.6408E-04  0.0690
   1.1552E-02   1.1833E-02   6.3154E-04  0.0750
   1.1833E-02   1.2121E-02   6.5648E-04  0.0727
   1.2121E-02   1.2415E-02   6.6293E-04  0.0715
   1.2415E-02   1.2718E-02   6.4222E-04  0.0718
   1.2718E-02   1.3027E-02   7.5462E-04  0.0654
   1.3027E-02   1.3344E-02   7.3304E-04  0.0656
   1.3344E-02   1.3669E-02   6.6943E-04  0.0678
   1.3669E-02   1.4001E-02   7.0153E-04  0.0654
   1.4001E-02   1.4342E-02   6.8983E-04  0.0651
   1.4342E-02   1.4691E-02   6.9431E-04  0.0642
   1.4691E-02   1.5048E-02   6.2573E-04  0.0668
   1.5048E-02   1.5414E-02   6.4184E-04  0.0652
   1.5414E-02   1.5789E-02   6.7716E-04  0.0627
   1.5789E-02   1.6174E-02   6.4786E-04  0.0633
   1.6174E-02   1.6567E-02   6.7850E-04  0.0612
   1.6567E-02   1.6970E-02   6.2726E-04  0.0628
   1.6970E-02   1.7383E-02   5.9337E-04  0.0639
   1.7383E-02   1.7806E-02   6.6351E-04  0.0596
   1.7806E-02   1.8239E-02   6.0360E-04  0.0618
   1.8239E-02   1.8683E-02   6.5603E-04  0.0586
   1.8683E-02   1.9138E-02   6.8198E-04  0.0567
   1.9138E-02   1.9603E-02   5.8878E-04  0.0604
   1.9603E-02   2.0080E-02   6.1674E-04  0.0583
   2.0080E-02   2.0569E-02   5.8334E-04  0.0592
   2.0569E-02   2.1069E-02   5.8016E-04  0.0586
   2.1069E-02   2.1582E-02   6.2268E-04  0.0560
   2.1582E-02   2.2107E-02   6.2943E-04  0.0549
   2.2107E-02   2.2645E-02   6.2717E-04  0.0544
   2.2645E-02   2.3196E-02   6.3888E-04  0.0533
   2.3196E-02   2.3760E-02   6.6000E-04  0.0518
   2.3760E-02   2.4338E-02   5.7119E-04  0.0549
   2.4338E-02   2.4930E-02   6.4424E-04  0.0512
   2.4930E-02   2.5537E-02   5.9728E-04  0.0525
   2.5537E-02   2.6158E-02   6.3628E-04  0.0503
   2.6158E-02   2.6795E-02   6.0828E-04  0.0508
   2.6795E-02   2.7447E-02   5.5780E-04  0.0524
   2.7447E-02   2.8114E-02   5.7846E-04  0.0509
   2.8114E-02   2.8799E-02   5.4811E-04  0.0516
   2.8799E-02   2.9499E-02   5.6538E-04  0.0502
   2.9499E-02   3.0217E-02   5.7614E-04  0.0491
   3.0217E-02   3.0952E-02   5.8956E-04  0.0480
   3.0952E-02   3.1705E-02   5.6803E-04  0.0483
   3.1705E-02   3.2477E-02   5.4268E-04  0.0488
   3.2477E-02   3.3267E-02   5.5688E-04  0.0476
   3.3267E-02   3.4076E-02   5.3014E-04  0.0482
   3.4076E-02   3.4905E-02   5.1107E-04  0.0485
   3.4905E-02   3.5755E-02   5.8263E-04  0.0449
   3.5755E-02   3.6625E-02   5.2033E-04  0.0470
   3.6625E-02   3.7516E-02   5.7624E-04  0.0441
   3.7516E-02   3.8428E-02   5.4777E-04  0.0447
   3.8428E-02   3.9363E-02   5.4940E-04  0.0441
   3.9363E-02   4.0321E-02   5.0828E-04  0.0453
   4.0321E-02   4.1302E-02   5.6394E-04  0.0425
   4.1302E-02   4.2307E-02   4.9148E-04  0.0449
   4.2307E-02   4.3337E-02   4.8025E-04  0.0449
   4.3337E-02   4.4391E-02   5.1970E-04  0.0427
   4.4391E-02   4.5471E-02   5.2034E-04  0.0422
   4.5471E-02   4.6577E-02   4.7739E-04  0.0435
   4.6577E-02   4.7711E-02   4.8562E-04  0.0426
   4.7711E-02   4.8871E-02   5.0933E-04  0.0411
   4.8871E-02   5.0061E-02   5.0939E-04  0.0406
   5.0061E-02   5.1279E-02   4.4938E-04  0.0427
   5.1279E-02   5.2526E-02   4.9281E-04  0.0403
   5.2526E-02   5.3804E-02   4.8484E-04  0.0401
   5.3804E-02   5.5113E-02   4.8086E-04  0.0398
   5.5113E-02   5.6454E-02   5.0352E-04  0.0385
   5.6454E-02   5.7828E-02   4.8747E-04  0.0386
   5.7828E-02   5.9235E-02   4.7374E-04  0.0387
   5.9235E-02   6.0676E-02   4.4125E-04  0.0396
   6.0676E-02   6.2152E-02   4.6396E-04  0.0382
   6.2152E-02   6.3665E-02   4.7909E-04  0.0371
   6.3665E-02   6.5214E-02   4.4330E-04  0.0381
   6.5214E-02   6.6800E-02   4.4243E-04  0.0377
   6.6800E-02   6.8426E-02   4.5872E-04  0.0366
   6.8426E-02   7.0090E-02   4.2021E-04  0.0378
   7.0090E-02   7.1796E-02   4.1767E-04  0.0374
   7.1796E-02   7.3543E-02   4.3598E-04  0.0362
   7.3543E-02   7.5332E-02   4.1092E-04  0.0368
   7.5332E-02   7.7165E-02   4.1965E-04  0.0360
   7.7165E-02   7.9042E-02   4.2529E-04  0.0354
   7.9042E-02   8.0965E-02   3.9692E-04  0.0362
   8.0965E-02   8.2935E-02   4.0883E-04  0.0352
   8.2935E-02   8.4953E-02   3.8035E-04  0.0361
   8.4953E-02   8.7020E-02   3.9042E-04  0.0352
   8.7020E-02   8.9138E-02   4.0349E-04  0.0342
   8.9138E-02   9.1306E-02   3.7337E-04  0.0351
   9.1306E-02   9.3528E-02   3.6574E-04  0.0351
   9.3528E-02   9.5804E-02   3.5346E-04  0.0352
   9.5804E-02   9.8134E-02   3.7965E-04  0.0336
   9.8134E-02   1.0052E-01   3.5529E-04  0.0343
   1.0052E-01   1.0297E-01   3.4326E-04  0.0345
   1.0297E-01   1.0547E-01   3.4619E-04  0.0339
   1.0547E-01   1.0804E-01   3.3985E-04  0.0338
   1.0804E-01   1.1067E-01   3.4605E-04  0.0331
   1.1067E-01   1.1336E-01   3.2344E-04  0.0338
   1.1336E-01   1.1612E-01   3.3820E-04  0.0327
   1.1612E-01   1.1894E-01   3.2461E-04  0.0330
   1.1894E-01   1.2184E-01   3.2607E-04  0.0325
   1.2184E-01   1.2480E-01   3.1051E-04  0.0329
   1.2480E-01   1.2784E-01   3.1122E-04  0.0325
   1.2784E-01   1.3095E-01   2.9328E-04  0.0331
   1.3095E-01   1.3414E-01   2.8906E-04  0.0329
   1.3414E-01   1.3740E-01   2.8623E-04  0.0327
   1.3740E-01   1.4074E-01   2.9211E-04  0.0320
   1.4074E-01   1.4417E-01   2.8348E-04  0.0321
   1.4417E-01   1.4767E-01   2.7418E-04  0.0322
   1.4767E-01   1.5127E-01   2.5925E-04  0.0327
   1.5127E-01   1.5495E-01   2.6102E-04  0.0322
   1.5495E-01   1.5872E-01   2.5760E-04  0.0321
   1.5872E-01   1.6258E-01   2.5281E-04  0.0320
   1.6258E-01   1.6654E-01   2.4253E-04  0.0323
   1.6654E-01   1.7059E-01   2.3628E-04  0.0323
   1.7059E-01   1.7474E-01   2.2209E-04  0.0329
   1.7474E-01   1.7899E-01   2.3039E-04  0.0319
   1.7899E-01   1.8334E-01   2.2976E-04  0.0316
   1.8334E-01   1.8781E-01   2.1855E-04  0.0320
   1.8781E-01   1.9237E-01   2.0576E-04  0.0326
   1.9237E-01   1.9706E-01   2.0583E-04  0.0322
   1.9706E-01   2.0185E-01   2.0836E-04  0.0316
   2.0185E-01   2.0676E-01   1.9865E-04  0.0320
   2.0676E-01   2.1179E-01   2.1049E-04  0.0307
   2.1179E-01   2.1694E-01   2.0705E-04  0.0306
   2.1694E-01   2.2222E-01   2.1303E-04  0.0298
   2.2222E-01   2.2763E-01   2.2215E-04  0.0288
   2.2763E-01   2.3317E-01   2.2717E-04  0.0282
   2.3317E-01   2.3884E-01   2.3368E-04  0.0274
   2.3884E-01   2.4465E-01   2.3376E-04  0.0271
   2.4465E-01   2.5061E-01   2.4223E-04  0.0263
   2.5061E-01   2.5670E-01   2.3909E-04  0.0262
   2.5670E-01   2.6295E-01   2.3956E-04  0.0258
   2.6295E-01   2.6935E-01   2.4516E-04  0.0252
   2.6935E-01   2.7590E-01   2.5002E-04  0.0247
   2.7590E-01   2.8261E-01   2.4924E-04  0.0244
   2.8261E-01   2.8949E-01   2.5726E-04  0.0237
   2.8949E-01   2.9653E-01   2.6052E-04  0.0233
   2.9653E-01   3.0375E-01   2.7813E-04  0.0223
   3.0375E-01   3.1114E-01   2.7213E-04  0.0223
   3.1114E-01   3.1871E-01   2.7410E-04  0.0219
   3.1871E-01   3.2646E-01   2.8357E-04  0.0213
   3.2646E-01   3.3441E-01   2.7492E-04  0.0214
   3.3441E-01   3.4254E-01   2.9270E-04  0.0205
   3.4254E-01   3.5088E-01   2.9324E-04  0.0202
   3.5088E-01   3.5941E-01   3.0395E-04  0.0196
   3.5941E-01   3.6816E-01   3.0914E-04  0.0192
   3.6816E-01   3.7712E-01   3.1361E-04  0.0188
   3.7712E-01   3.8629E-01   3.1189E-04  0.0187
   3.8629E-01   3.9569E-01   3.1919E-04  0.0182
   3.9569E-01   4.0532E-01   3.1294E-04  0.0182
   4.0532E-01   4.1518E-01   3.2476E-04  0.0176
   4.1518E-01   4.2528E-01   3.2405E-04  0.0175
   4.2528E-01   4.3563E-01   3.3164E-04  0.0171
   4.3563E-01   4.4623E-01   3.2574E-04  0.0170
   4.4623E-01   4.5708E-01   3.3404E-04  0.0166
   4.5708E-01   4.6821E-01   3.3994E-04  0.0163
   4.6821E-01   4.7960E-01   3.3702E-04  0.0161
   4.7960E-01   4.9127E-01   3.4370E-04  0.0158
   4.9127E-01   5.0322E-01   3.5134E-04  0.0154
   5.0322E-01   5.1546E-01   3.4533E-04  0.0154
   5.1546E-01   5.2800E-01   3.4391E-04  0.0152
   5.2800E-01   5.4085E-01   3.5078E-04  0.0149
   5.4085E-01   5.5401E-01   3.4661E-04  0.0148
   5.5401E-01   5.6749E-01   3.5065E-04  0.0145
   5.6749E-01   5.8130E-01   3.5514E-04  0.0143
   5.8130E-01   5.9544E-01   3.5655E-04  0.0141
   5.9544E-01   6.0993E-01   3.5600E-04  0.0139
   6.0993E-01   6.2477E-01   3.5449E-04  0.0138
   6.2477E-01   6.3997E-01   3.6126E-04  0.0135
   6.3997E-01   6.5554E-01   3.6010E-04  0.0133
   6.5554E-01   6.7149E-01   3.6067E-04  0.0132
   6.7149E-01   6.8783E-01   3.6513E-04  0.0129
   6.8783E-01   7.0456E-01   3.6651E-04  0.0127
   7.0456E-01   7.2171E-01   3.7109E-04  0.0125
   7.2171E-01   7.3927E-01   3.7257E-04  0.0123
   7.3927E-01   7.5725E-01   3.6708E-04  0.0123
   7.5725E-01   7.7568E-01   3.6930E-04  0.0121
   7.7568E-01   7.9455E-01   3.6747E-04  0.0120
   7.9455E-01   8.1388E-01   3.6171E-04  0.0119
   8.1388E-01   8.3368E-01   3.6108E-04  0.0118
   8.3368E-01   8.5397E-01   3.5329E-04  0.0118
   8.5397E-01   8.7475E-01   3.5778E-04  0.0116
   8.7475E-01   8.9603E-01   3.5546E-04  0.0115
   8.9603E-01   9.1783E-01   3.5269E-04  0.0114
   9.1783E-01   9.4016E-01   3.4850E-04  0.0113
   9.4016E-01   9.6304E-01   3.3862E-04  0.0113
   9.6304E-01   9.8647E-01   3.3017E-04  0.0113
   9.8647E-01   1.0105E+00   3.2200E-04  0.0114
   1.0105E+00   1.0351E+00   3.2109E-04  0.0112
   1.0351E+00   1.0602E+00   3.2422E-04  0.0110
   1.0602E+00   1.0860E+00   3.0893E-04  0.0112
   1.0860E+00   1.1125E+00   3.1719E-04  0.0109
   1.1125E+00   1.1395E+00   3.1769E-04  0.0108
   1.1395E+00   1.1673E+00   3.2491E-04  0.0105
   1.1673E+00   1.1957E+00   3.2761E-04  0.0103
   1.1957E+00   1.2247E+00   3.3083E-04  0.0102
   1.2247E+00   1.2545E+00   3.2812E-04  0.0101
   1.2545E+00   1.2851E+00   3.3237E-04  0.0099
   1.2851E+00   1.3163E+00   3.3383E-04  0.0098
   1.3163E+00   1.3484E+00   3.3002E-04  0.0097
   1.3484E+00   1.3812E+00   3.3145E-04  0.0096
   1.3812E+00   1.4148E+00   3.4120E-04  0.0093
   1.4148E+00   1.4492E+00   3.3342E-04  0.0093
   1.4492E+00   1.4845E+00   3.3152E-04  0.0092
   1.4845E+00   1.5206E+00   3.3384E-04  0.0091
   1.5206E+00   1.5576E+00   3.3153E-04  0.0090
   1.5576E+00   1.5955E+00   3.3200E-04  0.0089
   1.5955E+00   1.6343E+00   3.2927E-04  0.0088
   1.6343E+00   1.6741E+00   3.2070E-04  0.0088
   1.6741E+00   1.7148E+00   3.2720E-04  0.0086
   1.7148E+00   1.7565E+00   3.1880E-04  0.0086
   1.7565E+00   1.7992E+00   3.1863E-04  0.0085
   1.7992E+00   1.8430E+00   3.1869E-04  0.0084
   1.8430E+00   1.8879E+00   3.1487E-04  0.0084
   1.8879E+00   1.9338E+00   3.1280E-04  0.0083
   1.9338E+00   1.9808E+00   3.0623E-04  0.0083
   1.9808E+00   2.0290E+00   3.0499E-04  0.0082
   2.0290E+00   2.0784E+00   3.0472E-04  0.0081
   2.0784E+00   2.1290E+00   2.9445E-04  0.0082
   2.1290E+00   2.1808E+00   2.9105E-04  0.0081
   2.1808E+00   2.2338E+00   2.9009E-04  0.0080
   2.2338E+00   2.2882E+00   2.8388E-04  0.0080
   2.2882E+00   2.3439E+00   2.8051E-04  0.0080
   2.3439E+00   2.4009E+00   2.8150E-04  0.0079
   2.4009E+00   2.4593E+00   2.6780E-04  0.0080
   2.4593E+00   2.5191E+00   2.6943E-04  0.0078
   2.5191E+00   2.5804E+00   2.6181E-04  0.0079
   2.5804E+00   2.6432E+00   2.5539E-04  0.0079
   2.6432E+00   2.7075E+00   2.5454E-04  0.0078
   2.7075E+00   2.7734E+00   2.4460E-04  0.0079
   2.7734E+00   2.8409E+00   2.3855E-04  0.0079
   2.8409E+00   2.9100E+00   2.4163E-04  0.0077
   2.9100E+00   2.9808E+00   2.3084E-04  0.0078
   2.9808E+00   3.0533E+00   2.2640E-04  0.0078
   3.0533E+00   3.1276E+00   2.2134E-04  0.0078
   3.1276E+00   3.2037E+00   2.1599E-04  0.0078
   3.2037E+00   3.2817E+00   2.1151E-04  0.0078
   3.2817E+00   3.3615E+00   2.0880E-04  0.0077
   3.3615E+00   3.4433E+00   1.9926E-04  0.0078
   3.4433E+00   3.5271E+00   1.9799E-04  0.0077
   3.5271E+00   3.6129E+00   1.8979E-04  0.0078
   3.6129E+00   3.7008E+00   1.8533E-04  0.0078
   3.7008E+00   3.7908E+00   1.8157E-04  0.0078
   3.7908E+00   3.8831E+00   1.7426E-04  0.0079
   3.8831E+00   3.9776E+00   1.7048E-04  0.0079
   3.9776E+00   4.0743E+00   1.6867E-04  0.0078
   4.0743E+00   4.1735E+00   1.6180E-04  0.0079
   4.1735E+00   4.2750E+00   1.5882E-04  0.0079
   4.2750E+00   4.3790E+00   1.5520E-04  0.0078
   4.3790E+00   4.4856E+00   1.5195E-04  0.0078
   4.4856E+00   4.5947E+00   1.4366E-04  0.0080
   4.5947E+00   4.7065E+00   1.4076E-04  0.0080
   4.7065E+00   4.8210E+00   1.3546E-04  0.0080
   4.8210E+00   4.9383E+00   1.3138E-04  0.0080
   4.9383E+00   5.0585E+00   1.2438E-04  0.0082
   5.0585E+00   5.1815E+00   1.2252E-04  0.0081
   5.1815E+00   5.3076E+00   1.1873E-04  0.0082
   5.3076E+00   5.4368E+00   1.1464E-04  0.0082
   5.4368E+00   5.5690E+00   1.1057E-04  0.0082
   5.5690E+00   5.7045E+00   1.0680E-04  0.0083
   5.7045E+00   5.8433E+00   1.0177E-04  0.0084
   5.8433E+00   5.9855E+00   9.7683E-05  0.0085
   5.9855E+00   6.1311E+00   9.5755E-05  0.0084
   6.1311E+00   6.2803E+00   9.0590E-05  0.0086
   6.2803E+00   6.4331E+00   8.7228E-05  0.0086
   6.4331E+00   6.5896E+00   8.3471E-05  0.0087
   6.5896E+00   6.7500E+00   8.1445E-05  0.0087
   6.7500E+00   6.9142E+00   7.6879E-05  0.0089
   6.9142E+00   7.0824E+00   7.3902E-05  0.0090
   7.0824E+00   7.2548E+00   6.8707E-05  0.0092
   7.2548E+00   7.4313E+00   6.5929E-05  0.0093
   7.4313E+00   7.6121E+00   6.1769E-05  0.0094
   7.6121E+00   7.7973E+00   5.9725E-05  0.0095
   7.7973E+00   7.9870E+00   5.6084E-05  0.0097
   7.9870E+00   8.1813E+00   5.3588E-05  0.0098
   8.1813E+00   8.3804E+00   5.0604E-05  0.0099
   8.3804E+00   8.5843E+00   4.7177E-05  0.0102
   8.5843E+00   8.7931E+00   4.5916E-05  0.0102
   8.7931E+00   9.0071E+00   4.3003E-05  0.0104
   9.0071E+00   9.2262E+00   4.1381E-05  0.0105
   9.2262E+00   9.4507E+00   3.9889E-05  0.0106
   9.4507E+00   9.6807E+00   3.7483E-05  0.0108
   9.6807E+00   9.9162E+00   3.4721E-05  0.0110
   9.9162E+00   1.0157E+01   3.3871E-05  0.0110
   1.0157E+01   1.0405E+01   3.1691E-05  0.0113
   1.0405E+01   1.0658E+01   3.1303E-05  0.0112
   1.0658E+01   1.0917E+01   2.9620E-05  0.0114
   1.0917E+01   1.1183E+01   2.7992E-05  0.0116
   1.1183E+01   1.1455E+01   2.7022E-05  0.0117
   1.1455E+01   1.1733E+01   2.5267E-05  0.0119
   1.1733E+01   1.2019E+01   2.3664E-05  0.0122
   1.2019E+01   1.2311E+01   2.2207E-05  0.0124
   1.2311E+01   1.2611E+01   2.0923E-05  0.0126
   1.2611E+01   1.2918E+01   1.9768E-05  0.0128
   1.2918E+01   1.3232E+01   1.8901E-05  0.0130
   1.3232E+01   1.3554E+01   1.8301E-05  0.0130
   1.3554E+01   1.3884E+01   1.6941E-05  0.0134
   1.3884E+01   1.4222E+01   1.5512E-05  0.0138
   1.4222E+01   1.4568E+01   1.5144E-05  0.0138
   1.4568E+01   1.4922E+01   1.3711E-05  0.0143
   1.4922E+01   1.5285E+01   1.3190E-05  0.0144
   1.5285E+01   1.5657E+01   1.2184E-05  0.0149
   1.5657E+01   1.6038E+01   1.1649E-05  0.0150
   1.6038E+01   1.6428E+01   1.0859E-05  0.0154
   1.6428E+01   1.6828E+01   1.0071E-05  0.0158
   1.6828E+01   1.7237E+01   9.4822E-06  0.0161
   1.7237E+01   1.7657E+01   8.9101E-06  0.0164
   1.7657E+01   1.8086E+01   8.3175E-06  0.0167
   1.8086E+01   1.8526E+01   7.8366E-06  0.0170
   1.8526E+01   1.8977E+01   7.1132E-06  0.0177
   1.8977E+01   1.9439E+01   6.6771E-06  0.0180
   1.9439E+01   1.9912E+01   6.4710E-06  0.0181
   1.9912E+01   2.0396E+01   5.8662E-06  0.0188
   2.0396E+01   2.0893E+01   5.3762E-06  0.0194
   2.0893E+01   2.1401E+01   4.9889E-06  0.0199
   2.1401E+01   2.1922E+01   4.7282E-06  0.0202
   2.1922E+01   2.2455E+01   4.1810E-06  0.0212
   2.2455E+01   2.3001E+01   3.9133E-06  0.0216
   2.3001E+01   2.3561E+01   3.5398E-06  0.0225
   2.3561E+01   2.4134E+01   3.1679E-06  0.0235
   2.4134E+01   2.4721E+01   2.7128E-06  0.0251
   2.4721E+01   2.5323E+01   2.6517E-06  0.0250
   2.5323E+01   2.5939E+01   2.3031E-06  0.0265
   2.5939E+01   2.6570E+01   2.0709E-06  0.0277
   2.6570E+01   2.7217E+01   1.8794E-06  0.0287
   2.7217E+01   2.7879E+01   1.6113E-06  0.0306
   2.7879E+01   2.8557E+01   1.4595E-06  0.0318
   2.8557E+01   2.9252E+01   1.2680E-06  0.0337
   2.9252E+01   2.9964E+01   1.2055E-06  0.0341
   2.9964E+01   3.0693E+01   8.9844E-07  0.0391
   3.0693E+01   3.1440E+01   8.1416E-07  0.0406
   3.1440E+01   3.2205E+01   7.4776E-07  0.0418
   3.2205E+01   3.2988E+01   6.8789E-07  0.0431
   3.2988E+01   3.3791E+01   5.3200E-07  0.0484
   3.3791E+01   3.4613E+01   4.8288E-07  0.0502
   3.4613E+01   3.5455E+01   4.0491E-07  0.0542
   3.5455E+01   3.6318E+01   3.7559E-07  0.0556
   3.6318E+01   3.7201E+01   3.1574E-07  0.0599
   3.7201E+01   3.8106E+01   2.8946E-07  0.0618
   3.8106E+01   3.9034E+01   2.3513E-07  0.0677
   3.9034E+01   3.9983E+01   1.8953E-07  0.0745
   3.9983E+01   4.0956E+01   1.7269E-07  0.0772
   4.0956E+01   4.1953E+01   1.1942E-07  0.0917
   4.1953E+01   4.2973E+01   1.3128E-07  0.0864
   4.2973E+01   4.4019E+01   1.4059E-07  0.0825
   4.4019E+01   4.5090E+01   1.1298E-07  0.0909
   4.5090E+01   4.6187E+01   8.8417E-08  0.1015
   4.6187E+01   4.7311E+01   8.8986E-08  0.1000
   4.7311E+01   4.8462E+01   6.6892E-08  0.1140
   4.8462E+01   4.9641E+01   6.6999E-08  0.1125
   4.9641E+01   5.0849E+01   5.8784E-08  0.1187
   5.0849E+01   5.2086E+01   4.4455E-08  0.1348
   5.2086E+01   5.3353E+01   4.0243E-08  0.1400
   5.3353E+01   5.4651E+01   1.9258E-08  0.2000
   5.4651E+01   5.5981E+01   2.2561E-08  0.1826
   5.5981E+01   5.7343E+01   1.1747E-08  0.2500
   5.7343E+01   5.8738E+01   1.7918E-08  0.2000
   5.8738E+01   6.0168E+01   9.7960E-09  0.2673
   6.0168E+01   6.1632E+01   7.5140E-09  0.3015
   6.1632E+01   6.3131E+01   1.0003E-08  0.2582
   6.3131E+01   6.4667E+01   3.2551E-09  0.4472
   6.4667E+01   6.6240E+01   3.8134E-09  0.4082
   6.6240E+01   6.7852E+01   1.2409E-09  0.7071
   6.7852E+01   6.9503E+01   0.0000E+00  0.0000
   6.9503E+01   7.1194E+01   5.9134E-10  1.0000
   7.1194E+01   7.2926E+01   1.1546E-09  0.7071
   7.2926E+01   7.4701E+01   0.0000E+00  0.0000
   7.4701E+01   7.6518E+01   0.0000E+00  0.0000
   7.6518E+01   7.8380E+01   0.0000E+00  0.0000
   7.8380E+01   8.0287E+01   0.0000E+00  0.0000
   8.0287E+01   8.2240E+01   0.0000E+00  0.0000
   8.2240E+01   8.4241E+01   0.0000E+00  0.0000
   8.4241E+01   8.6291E+01   0.0000E+00  0.0000
   8.6291E+01   8.8391E+01   0.0000E+00  0.0000
   8.8391E+01   9.0541E+01   0.0000E+00  0.0000
   9.0541E+01   9.2744E+01   0.0000E+00  0.0000
   9.2744E+01   9.5001E+01   0.0000E+00  0.0000
   9.5001E+01   9.7312E+01   0.0000E+00  0.0000
   9.7312E+01   9.9680E+01   0.0000E+00  0.0000
   9.9680E+01   1.0211E+02   0.0000E+00  0.0000
   1.0211E+02   1.0459E+02   0.0000E+00  0.0000
   1.0459E+02   1.0713E+02   0.0000E+00  0.0000
   1.0713E+02   1.0974E+02   0.0000E+00  0.0000
   1.0974E+02   1.1241E+02   0.0000E+00  0.0000
   1.1241E+02   1.1515E+02   0.0000E+00  0.0000
   1.1515E+02   1.1795E+02   0.0000E+00  0.0000
   1.1795E+02   1.2082E+02   0.0000E+00  0.0000
   1.2082E+02   1.2376E+02   0.0000E+00  0.0000
   1.2376E+02   1.2677E+02   0.0000E+00  0.0000
   1.2677E+02   1.2985E+02   0.0000E+00  0.0000
   1.2985E+02   1.3301E+02   0.0000E+00  0.0000
   1.3301E+02   1.3625E+02   0.0000E+00  0.0000
   1.3625E+02   1.3956E+02   0.0000E+00  0.0000
   1.3956E+02   1.4296E+02   0.0000E+00  0.0000
   1.4296E+02   1.4644E+02   0.0000E+00  0.0000
   1.4644E+02   1.5000E+02   0.0000E+00  0.0000

#   sum over                 1.2025E-05
'no. =    1   reg = 116 - 216'
msuc: {\huge [t-cross] in region mesh}
msdr: {\it plotted by \ANGEL \version}
msdl: {\it calculated by \PHITS  3.26}
wt: s(0.7)
\vspace{-3}
  region surface crossing
  area  &=&   1.0000E+00 [cm^2]
e:
 
# Information for Restart Calculation
# This calculation was newly started
# istdev =  2 # 1:Batch variance, 2:History variance
# resc2  = 1.00000000000000000E+09 # Total source weight or Total source weight / maxcas
# resc3  = 1.00000000000000000E+09 # Total history number or Total batch number
# maxcas =   500000000 # History / Batch, only used for istdev=1
# bitrseed = 0001001110011001001001110000100100110111001111011100001000101100 # bit data of rseed
