[ T-Cross ]
    title = [t-cross] in region mesh
     mesh =  reg            # mesh type is region-wise
      reg =    1            # number of crossing regions
      non     r-from    r-to       area
      1       126       226        1.000000    
   e-type =    3            # e-mesh is log given by emin, emax and ne
     emin =  1.0000000E-02  # minimum value of e-mesh points
     emax =   150.0000      # maximum value of e-mesh points
#    edel =  2.4039514E-02  # mesh width of e-mesh points
       ne =    400          # number of e-mesh points
#    data = ( e(i), i = 1, ne + 1 )
#           1.00000E-02  1.02433E-02  1.04925E-02  1.07478E-02  1.10093E-02
#           1.12772E-02  1.15516E-02  1.18326E-02  1.21205E-02  1.24154E-02
#           1.27175E-02  1.30269E-02  1.33439E-02  1.36686E-02  1.40011E-02
#           1.43418E-02  1.46907E-02  1.50482E-02  1.54143E-02  1.57894E-02
#           1.61735E-02  1.65670E-02  1.69701E-02  1.73830E-02  1.78060E-02
#           1.82392E-02  1.86830E-02  1.91375E-02  1.96032E-02  2.00801E-02
#           2.05687E-02  2.10692E-02  2.15818E-02  2.21069E-02  2.26448E-02
#           2.31957E-02  2.37601E-02  2.43382E-02  2.49304E-02  2.55369E-02
#           2.61583E-02  2.67947E-02  2.74467E-02  2.81145E-02  2.87985E-02
#           2.94992E-02  3.02169E-02  3.09521E-02  3.17052E-02  3.24766E-02
#           3.32668E-02  3.40762E-02  3.49053E-02  3.57546E-02  3.66246E-02
#           3.75157E-02  3.84284E-02  3.93634E-02  4.03212E-02  4.13022E-02
#           4.23071E-02  4.33365E-02  4.43909E-02  4.54710E-02  4.65773E-02
#           4.77106E-02  4.88714E-02  5.00605E-02  5.12785E-02  5.25262E-02
#           5.38042E-02  5.51133E-02  5.64542E-02  5.78278E-02  5.92348E-02
#           6.06760E-02  6.21523E-02  6.36645E-02  6.52135E-02  6.68002E-02
#           6.84255E-02  7.00904E-02  7.17957E-02  7.35426E-02  7.53319E-02
#           7.71648E-02  7.90423E-02  8.09655E-02  8.29354E-02  8.49533E-02
#           8.70203E-02  8.91376E-02  9.13064E-02  9.35279E-02  9.58035E-02
#           9.81345E-02  1.00522E-01  1.02968E-01  1.05473E-01  1.08040E-01
#           1.10668E-01  1.13361E-01  1.16119E-01  1.18944E-01  1.21838E-01
#           1.24803E-01  1.27839E-01  1.30950E-01  1.34136E-01  1.37399E-01
#           1.40742E-01  1.44167E-01  1.47675E-01  1.51268E-01  1.54948E-01
#           1.58718E-01  1.62580E-01  1.66535E-01  1.70587E-01  1.74738E-01
#           1.78989E-01  1.83344E-01  1.87805E-01  1.92375E-01  1.97055E-01
#           2.01850E-01  2.06761E-01  2.11792E-01  2.16945E-01  2.22223E-01
#           2.27630E-01  2.33169E-01  2.38842E-01  2.44653E-01  2.50605E-01
#           2.56703E-01  2.62949E-01  2.69346E-01  2.75900E-01  2.82613E-01
#           2.89489E-01  2.96532E-01  3.03747E-01  3.11138E-01  3.18708E-01
#           3.26462E-01  3.34405E-01  3.42542E-01  3.50876E-01  3.59413E-01
#           3.68158E-01  3.77116E-01  3.86291E-01  3.95690E-01  4.05317E-01
#           4.15179E-01  4.25281E-01  4.35628E-01  4.46227E-01  4.57084E-01
#           4.68205E-01  4.79597E-01  4.91266E-01  5.03219E-01  5.15463E-01
#           5.28005E-01  5.40851E-01  5.54011E-01  5.67490E-01  5.81298E-01
#           5.95441E-01  6.09929E-01  6.24769E-01  6.39970E-01  6.55541E-01
#           6.71491E-01  6.87828E-01  7.04564E-01  7.21706E-01  7.39266E-01
#           7.57253E-01  7.75678E-01  7.94551E-01  8.13883E-01  8.33685E-01
#           8.53969E-01  8.74747E-01  8.96030E-01  9.17831E-01  9.40163E-01
#           9.63038E-01  9.86469E-01  1.01047E+00  1.03506E+00  1.06024E+00
#           1.08604E+00  1.11246E+00  1.13953E+00  1.16725E+00  1.19565E+00
#           1.22474E+00  1.25454E+00  1.28507E+00  1.31633E+00  1.34836E+00
#           1.38117E+00  1.41477E+00  1.44920E+00  1.48446E+00  1.52057E+00
#           1.55757E+00  1.59547E+00  1.63429E+00  1.67405E+00  1.71478E+00
#           1.75650E+00  1.79924E+00  1.84302E+00  1.88786E+00  1.93379E+00
#           1.98084E+00  2.02904E+00  2.07841E+00  2.12898E+00  2.18078E+00
#           2.23384E+00  2.28819E+00  2.34386E+00  2.40089E+00  2.45930E+00
#           2.51914E+00  2.58043E+00  2.64322E+00  2.70753E+00  2.77341E+00
#           2.84088E+00  2.91001E+00  2.98081E+00  3.05333E+00  3.12762E+00
#           3.20372E+00  3.28167E+00  3.36152E+00  3.44330E+00  3.52708E+00
#           3.61290E+00  3.70080E+00  3.79085E+00  3.88308E+00  3.97756E+00
#           4.07434E+00  4.17347E+00  4.27501E+00  4.37903E+00  4.48557E+00
#           4.59471E+00  4.70650E+00  4.82102E+00  4.93832E+00  5.05847E+00
#           5.18155E+00  5.30762E+00  5.43676E+00  5.56904E+00  5.70453E+00
#           5.84333E+00  5.98550E+00  6.13114E+00  6.28031E+00  6.43312E+00
#           6.58964E+00  6.74997E+00  6.91420E+00  7.08243E+00  7.25475E+00
#           7.43126E+00  7.61207E+00  7.79728E+00  7.98700E+00  8.18133E+00
#           8.38038E+00  8.58428E+00  8.79315E+00  9.00709E+00  9.22624E+00
#           9.45072E+00  9.68067E+00  9.91620E+00  1.01575E+01  1.04046E+01
#           1.06578E+01  1.09171E+01  1.11827E+01  1.14548E+01  1.17335E+01
#           1.20190E+01  1.23114E+01  1.26109E+01  1.29178E+01  1.32321E+01
#           1.35540E+01  1.38838E+01  1.42216E+01  1.45676E+01  1.49221E+01
#           1.52851E+01  1.56570E+01  1.60380E+01  1.64282E+01  1.68279E+01
#           1.72374E+01  1.76568E+01  1.80864E+01  1.85264E+01  1.89772E+01
#           1.94389E+01  1.99119E+01  2.03963E+01  2.08926E+01  2.14009E+01
#           2.19216E+01  2.24550E+01  2.30014E+01  2.35610E+01  2.41343E+01
#           2.47215E+01  2.53230E+01  2.59391E+01  2.65702E+01  2.72167E+01
#           2.78789E+01  2.85572E+01  2.92520E+01  2.99637E+01  3.06928E+01
#           3.14396E+01  3.22045E+01  3.29881E+01  3.37907E+01  3.46128E+01
#           3.54550E+01  3.63177E+01  3.72013E+01  3.81064E+01  3.90336E+01
#           3.99833E+01  4.09561E+01  4.19526E+01  4.29734E+01  4.40189E+01
#           4.50900E+01  4.61870E+01  4.73108E+01  4.84619E+01  4.96410E+01
#           5.08488E+01  5.20860E+01  5.33533E+01  5.46514E+01  5.59812E+01
#           5.73432E+01  5.87384E+01  6.01676E+01  6.16315E+01  6.31311E+01
#           6.46671E+01  6.62405E+01  6.78522E+01  6.95031E+01  7.11941E+01
#           7.29263E+01  7.47007E+01  7.65182E+01  7.83800E+01  8.02870E+01
#           8.22405E+01  8.42414E+01  8.62911E+01  8.83906E+01  9.05412E+01
#           9.27442E+01  9.50007E+01  9.73122E+01  9.96799E+01  1.02105E+02
#           1.04589E+02  1.07134E+02  1.09741E+02  1.12411E+02  1.15146E+02
#           1.17948E+02  1.20817E+02  1.23757E+02  1.26768E+02  1.29852E+02
#           1.33012E+02  1.36248E+02  1.39563E+02  1.42959E+02  1.46437E+02
#           1.50000E+02
     unit =    2            # unit is [1/cm^2/(MeV/n)/source]
     axis =  eng            # axis of output
     file = detector-27.out  # file name of output for the above axis
   output = f-curr          # surface crossing forward current spectrum
     part =  neutron  
# kf/name :  2112     
#    used :        main (  %)        temp (  %)       total (  %)
#  memory :         414 (  0)           0 (  0)         414 (  0)

#------------------------------------------------------------------------------
#newpage:
#   no. =    1   reg = 126 - 226

x: Energy [MeV/n]
y:  F-Curr [1/cm^2/(MeV/n)/source]         
p: xlog ylog afac(0.8) form(0.9)
h: n            x            y(neutron ),hh0l   n 
#  e-lower      e-upper      neutron     r.err 
   1.0000E-02   1.0243E-02   2.6523E-04  0.0556
   1.0243E-02   1.0493E-02   2.3050E-04  0.0589
   1.0493E-02   1.0748E-02   2.3185E-04  0.0581
   1.0748E-02   1.1009E-02   2.3302E-04  0.0572
   1.1009E-02   1.1277E-02   2.1435E-04  0.0588
   1.1277E-02   1.1552E-02   2.0701E-04  0.0593
   1.1552E-02   1.1833E-02   2.2247E-04  0.0565
   1.1833E-02   1.2121E-02   2.2113E-04  0.0560
   1.2121E-02   1.2415E-02   2.0365E-04  0.0577
   1.2415E-02   1.2718E-02   2.0981E-04  0.0561
   1.2718E-02   1.3027E-02   1.8901E-04  0.0583
   1.3027E-02   1.3344E-02   1.9208E-04  0.0572
   1.3344E-02   1.3669E-02   1.9158E-04  0.0566
   1.3669E-02   1.4001E-02   1.9024E-04  0.0561
   1.4001E-02   1.4342E-02   2.0002E-04  0.0541
   1.4342E-02   1.4691E-02   1.8531E-04  0.0555
   1.4691E-02   1.5048E-02   1.6822E-04  0.0576
   1.5048E-02   1.5414E-02   1.8324E-04  0.0545
   1.5414E-02   1.5789E-02   1.9774E-04  0.0519
   1.5789E-02   1.6174E-02   1.8017E-04  0.0537
   1.6174E-02   1.6567E-02   1.7551E-04  0.0537
   1.6567E-02   1.6970E-02   1.8103E-04  0.0523
   1.6970E-02   1.7383E-02   1.7487E-04  0.0526
   1.7383E-02   1.7806E-02   1.6772E-04  0.0530
   1.7806E-02   1.8239E-02   1.5931E-04  0.0538
   1.8239E-02   1.8683E-02   1.5499E-04  0.0538
   1.8683E-02   1.9138E-02   1.6008E-04  0.0524
   1.9138E-02   1.9603E-02   1.2958E-04  0.0575
   1.9603E-02   2.0080E-02   1.4664E-04  0.0534
   2.0080E-02   2.0569E-02   1.4955E-04  0.0523
   2.0569E-02   2.1069E-02   1.5525E-04  0.0507
   2.1069E-02   2.1582E-02   1.3739E-04  0.0533
   2.1582E-02   2.2107E-02   1.3363E-04  0.0532
   2.2107E-02   2.2645E-02   1.4343E-04  0.0508
   2.2645E-02   2.3196E-02   1.4213E-04  0.0505
   2.3196E-02   2.3760E-02   1.3036E-04  0.0520
   2.3760E-02   2.4338E-02   1.2983E-04  0.0516
   2.4338E-02   2.4930E-02   1.2892E-04  0.0511
   2.4930E-02   2.5537E-02   1.2632E-04  0.0510
   2.5537E-02   2.6158E-02   1.1163E-04  0.0537
   2.6158E-02   2.6795E-02   1.2451E-04  0.0501
   2.6795E-02   2.7447E-02   1.2048E-04  0.0503
   2.7447E-02   2.8114E-02   1.1263E-04  0.0515
   2.8114E-02   2.8799E-02   1.1635E-04  0.0500
   2.8799E-02   2.9499E-02   1.2663E-04  0.0474
   2.9499E-02   3.0217E-02   1.0800E-04  0.0507
   3.0217E-02   3.0952E-02   1.0994E-04  0.0497
   3.0952E-02   3.1705E-02   1.1363E-04  0.0483
   3.1705E-02   3.2477E-02   1.0482E-04  0.0497
   3.2477E-02   3.3267E-02   1.1352E-04  0.0472
   3.3267E-02   3.4076E-02   1.0080E-04  0.0494
   3.4076E-02   3.4905E-02   1.0311E-04  0.0483
   3.4905E-02   3.5755E-02   9.9803E-05  0.0485
   3.5755E-02   3.6625E-02   1.0524E-04  0.0467
   3.6625E-02   3.7516E-02   9.8929E-05  0.0476
   3.7516E-02   3.8428E-02   9.6177E-05  0.0477
   3.8428E-02   3.9363E-02   9.7796E-05  0.0467
   3.9363E-02   4.0321E-02   8.7838E-05  0.0487
   4.0321E-02   4.1302E-02   8.5514E-05  0.0487
   4.1302E-02   4.2307E-02   9.6757E-05  0.0453
   4.2307E-02   4.3337E-02   9.1399E-05  0.0460
   4.3337E-02   4.4391E-02   8.5737E-05  0.0470
   4.4391E-02   4.5471E-02   8.1542E-05  0.0476
   4.5471E-02   4.6577E-02   8.3746E-05  0.0464
   4.6577E-02   4.7711E-02   8.0560E-05  0.0467
   4.7711E-02   4.8871E-02   7.3830E-05  0.0483
   4.8871E-02   5.0061E-02   8.0007E-05  0.0458
   5.0061E-02   5.1279E-02   7.6949E-05  0.0461
   5.1279E-02   5.2526E-02   7.6949E-05  0.0456
   5.2526E-02   5.3804E-02   7.2767E-05  0.0463
   5.3804E-02   5.5113E-02   7.0181E-05  0.0466
   5.5113E-02   5.6454E-02   7.2181E-05  0.0454
   5.6454E-02   5.7828E-02   6.9395E-05  0.0458
   5.7828E-02   5.9235E-02   6.8215E-05  0.0455
   5.9235E-02   6.0676E-02   6.3600E-05  0.0467
   6.0676E-02   6.2152E-02   6.2728E-05  0.0464
   6.2152E-02   6.3665E-02   6.7565E-05  0.0442
   6.3665E-02   6.5214E-02   6.6105E-05  0.0441
   6.5214E-02   6.6800E-02   5.8522E-05  0.0464
   6.6800E-02   6.8426E-02   5.9739E-05  0.0453
   6.8426E-02   7.0090E-02   5.7150E-05  0.0458
   7.0090E-02   7.1796E-02   5.9185E-05  0.0444
   7.1796E-02   7.3543E-02   5.5976E-05  0.0452
   7.3543E-02   7.5332E-02   5.8586E-05  0.0437
   7.5332E-02   7.7165E-02   5.6489E-05  0.0438
   7.7165E-02   7.9042E-02   5.4355E-05  0.0442
   7.9042E-02   8.0965E-02   5.3852E-05  0.0439
   8.0965E-02   8.2935E-02   4.7262E-05  0.0463
   8.2935E-02   8.4953E-02   4.7660E-05  0.0455
   8.4953E-02   8.7020E-02   4.8032E-05  0.0448
   8.7020E-02   8.9138E-02   4.9199E-05  0.0438
   8.9138E-02   9.1306E-02   4.8665E-05  0.0435
   9.1306E-02   9.3528E-02   4.5840E-05  0.0442
   9.3528E-02   9.5804E-02   4.6667E-05  0.0433
   9.5804E-02   9.8134E-02   4.6519E-05  0.0429
   9.8134E-02   1.0052E-01   4.2868E-05  0.0441
   1.0052E-01   1.0297E-01   4.3340E-05  0.0434
   1.0297E-01   1.0547E-01   3.9910E-05  0.0446
   1.0547E-01   1.0804E-01   4.4446E-05  0.0418
   1.0804E-01   1.1067E-01   3.9742E-05  0.0437
   1.1067E-01   1.1336E-01   3.9495E-05  0.0433
   1.1336E-01   1.1612E-01   3.8082E-05  0.0436
   1.1612E-01   1.1894E-01   3.9423E-05  0.0423
   1.1894E-01   1.2184E-01   3.6666E-05  0.0433
   1.2184E-01   1.2480E-01   3.3627E-05  0.0447
   1.2480E-01   1.2784E-01   3.4570E-05  0.0436
   1.2784E-01   1.3095E-01   3.5326E-05  0.0426
   1.3095E-01   1.3414E-01   3.2934E-05  0.0436
   1.3414E-01   1.3740E-01   2.9549E-05  0.0455
   1.3740E-01   1.4074E-01   3.2697E-05  0.0427
   1.4074E-01   1.4417E-01   2.9832E-05  0.0442
   1.4417E-01   1.4767E-01   2.9031E-05  0.0442
   1.4767E-01   1.5127E-01   3.1591E-05  0.0419
   1.5127E-01   1.5495E-01   2.9744E-05  0.0427
   1.5495E-01   1.5872E-01   2.7188E-05  0.0441
   1.5872E-01   1.6258E-01   2.7573E-05  0.0433
   1.6258E-01   1.6654E-01   2.6819E-05  0.0433
   1.6654E-01   1.7059E-01   2.6235E-05  0.0433
   1.7059E-01   1.7474E-01   2.5689E-05  0.0432
   1.7474E-01   1.7899E-01   2.3497E-05  0.0447
   1.7899E-01   1.8334E-01   2.4426E-05  0.0433
   1.8334E-01   1.8781E-01   2.4011E-05  0.0431
   1.8781E-01   1.9237E-01   2.3097E-05  0.0435
   1.9237E-01   1.9706E-01   2.3136E-05  0.0429
   1.9706E-01   2.0185E-01   2.1775E-05  0.0437
   2.0185E-01   2.0676E-01   2.2985E-05  0.0420
   2.0676E-01   2.1179E-01   2.3713E-05  0.0409
   2.1179E-01   2.1694E-01   2.2223E-05  0.0417
   2.1694E-01   2.2222E-01   2.4260E-05  0.0394
   2.2222E-01   2.2763E-01   2.6772E-05  0.0371
   2.2763E-01   2.3317E-01   2.5696E-05  0.0374
   2.3317E-01   2.3884E-01   2.4862E-05  0.0375
   2.3884E-01   2.4465E-01   2.5002E-05  0.0370
   2.4465E-01   2.5061E-01   2.6707E-05  0.0354
   2.5061E-01   2.5670E-01   2.8415E-05  0.0339
   2.5670E-01   2.6295E-01   2.8941E-05  0.0332
   2.6295E-01   2.6935E-01   2.8612E-05  0.0330
   2.6935E-01   2.7590E-01   2.9046E-05  0.0324
   2.7590E-01   2.8261E-01   2.9793E-05  0.0316
   2.8261E-01   2.8949E-01   3.0532E-05  0.0308
   2.8949E-01   2.9653E-01   2.9813E-05  0.0308
   2.9653E-01   3.0375E-01   2.8344E-05  0.0312
   3.0375E-01   3.1114E-01   3.0507E-05  0.0297
   3.1114E-01   3.1871E-01   3.1950E-05  0.0287
   3.1871E-01   3.2646E-01   3.2220E-05  0.0282
   3.2646E-01   3.3441E-01   3.1065E-05  0.0284
   3.3441E-01   3.4254E-01   3.2347E-05  0.0275
   3.4254E-01   3.5088E-01   3.3125E-05  0.0269
   3.5088E-01   3.5941E-01   3.3955E-05  0.0262
   3.5941E-01   3.6816E-01   3.2601E-05  0.0264
   3.6816E-01   3.7712E-01   3.2711E-05  0.0261
   3.7712E-01   3.8629E-01   3.3830E-05  0.0253
   3.8629E-01   3.9569E-01   3.3961E-05  0.0250
   3.9569E-01   4.0532E-01   3.5483E-05  0.0242
   4.0532E-01   4.1518E-01   3.4622E-05  0.0241
   4.1518E-01   4.2528E-01   3.5055E-05  0.0237
   4.2528E-01   4.3563E-01   3.5740E-05  0.0232
   4.3563E-01   4.4623E-01   3.6640E-05  0.0226
   4.4623E-01   4.5708E-01   3.5315E-05  0.0228
   4.5708E-01   4.6821E-01   3.6096E-05  0.0223
   4.6821E-01   4.7960E-01   3.4617E-05  0.0225
   4.7960E-01   4.9127E-01   3.5938E-05  0.0218
   4.9127E-01   5.0322E-01   3.6808E-05  0.0213
   5.0322E-01   5.1546E-01   3.6522E-05  0.0211
   5.1546E-01   5.2800E-01   3.5256E-05  0.0212
   5.2800E-01   5.4085E-01   3.5275E-05  0.0210
   5.4085E-01   5.5401E-01   3.4950E-05  0.0208
   5.5401E-01   5.6749E-01   3.7771E-05  0.0198
   5.6749E-01   5.8130E-01   3.6456E-05  0.0199
   5.8130E-01   5.9544E-01   3.5458E-05  0.0199
   5.9544E-01   6.0993E-01   3.6928E-05  0.0193
   6.0993E-01   6.2477E-01   3.5198E-05  0.0195
   6.2477E-01   6.3997E-01   3.5632E-05  0.0192
   6.3997E-01   6.5554E-01   3.4109E-05  0.0193
   6.5554E-01   6.7149E-01   3.5660E-05  0.0187
   6.7149E-01   6.8783E-01   3.5934E-05  0.0184
   6.8783E-01   7.0456E-01   3.6206E-05  0.0181
   7.0456E-01   7.2171E-01   3.5746E-05  0.0180
   7.2171E-01   7.3927E-01   3.5623E-05  0.0178
   7.3927E-01   7.5725E-01   3.4883E-05  0.0178
   7.5725E-01   7.7568E-01   3.3941E-05  0.0178
   7.7568E-01   7.9455E-01   3.3480E-05  0.0177
   7.9455E-01   8.1388E-01   3.3235E-05  0.0176
   8.1388E-01   8.3368E-01   3.3823E-05  0.0172
   8.3368E-01   8.5397E-01   3.1829E-05  0.0175
   8.5397E-01   8.7475E-01   3.1540E-05  0.0174
   8.7475E-01   8.9603E-01   3.0645E-05  0.0174
   8.9603E-01   9.1783E-01   2.9504E-05  0.0176
   9.1783E-01   9.4016E-01   2.9571E-05  0.0173
   9.4016E-01   9.6304E-01   2.7879E-05  0.0176
   9.6304E-01   9.8647E-01   2.6418E-05  0.0179
   9.8647E-01   1.0105E+00   2.5916E-05  0.0179
   1.0105E+00   1.0351E+00   2.5953E-05  0.0176
   1.0351E+00   1.0602E+00   2.5237E-05  0.0177
   1.0602E+00   1.0860E+00   2.3723E-05  0.0180
   1.0860E+00   1.1125E+00   2.3973E-05  0.0177
   1.1125E+00   1.1395E+00   2.3726E-05  0.0176
   1.1395E+00   1.1673E+00   2.3281E-05  0.0175
   1.1673E+00   1.1957E+00   2.3089E-05  0.0174
   1.1957E+00   1.2247E+00   2.1993E-05  0.0176
   1.2247E+00   1.2545E+00   2.2437E-05  0.0172
   1.2545E+00   1.2851E+00   2.2041E-05  0.0172
   1.2851E+00   1.3163E+00   2.0701E-05  0.0175
   1.3163E+00   1.3484E+00   2.0101E-05  0.0175
   1.3484E+00   1.3812E+00   2.0233E-05  0.0173
   1.3812E+00   1.4148E+00   1.9419E-05  0.0174
   1.4148E+00   1.4492E+00   1.9350E-05  0.0172
   1.4492E+00   1.4845E+00   1.8956E-05  0.0172
   1.4845E+00   1.5206E+00   1.8318E-05  0.0173
   1.5206E+00   1.5576E+00   1.8519E-05  0.0170
   1.5576E+00   1.5955E+00   1.7370E-05  0.0174
   1.5955E+00   1.6343E+00   1.6646E-05  0.0175
   1.6343E+00   1.6741E+00   1.6334E-05  0.0174
   1.6741E+00   1.7148E+00   1.5600E-05  0.0177
   1.7148E+00   1.7565E+00   1.5629E-05  0.0174
   1.7565E+00   1.7992E+00   1.5060E-05  0.0175
   1.7992E+00   1.8430E+00   1.5060E-05  0.0173
   1.8430E+00   1.8879E+00   1.4535E-05  0.0174
   1.8879E+00   1.9338E+00   1.3922E-05  0.0176
   1.9338E+00   1.9808E+00   1.3742E-05  0.0175
   1.9808E+00   2.0290E+00   1.3403E-05  0.0175
   2.0290E+00   2.0784E+00   1.2554E-05  0.0179
   2.0784E+00   2.1290E+00   1.2386E-05  0.0178
   2.1290E+00   2.1808E+00   1.2382E-05  0.0175
   2.1808E+00   2.2338E+00   1.2056E-05  0.0176
   2.2338E+00   2.2882E+00   1.1692E-05  0.0176
   2.2882E+00   2.3439E+00   1.1247E-05  0.0178
   2.3439E+00   2.4009E+00   1.0853E-05  0.0179
   2.4009E+00   2.4593E+00   1.1129E-05  0.0174
   2.4593E+00   2.5191E+00   1.0821E-05  0.0175
   2.5191E+00   2.5804E+00   1.0215E-05  0.0178
   2.5804E+00   2.6432E+00   1.0550E-05  0.0173
   2.6432E+00   2.7075E+00   9.8705E-06  0.0176
   2.7075E+00   2.7734E+00   9.8624E-06  0.0174
   2.7734E+00   2.8409E+00   9.6157E-06  0.0174
   2.8409E+00   2.9100E+00   9.0559E-06  0.0177
   2.9100E+00   2.9808E+00   9.0615E-06  0.0175
   2.9808E+00   3.0533E+00   8.7392E-06  0.0177
   3.0533E+00   3.1276E+00   8.9923E-06  0.0172
   3.1276E+00   3.2037E+00   8.4635E-06  0.0175
   3.2037E+00   3.2817E+00   8.5082E-06  0.0173
   3.2817E+00   3.3615E+00   8.0713E-06  0.0175
   3.3615E+00   3.4433E+00   8.0199E-06  0.0174
   3.4433E+00   3.5271E+00   7.8231E-06  0.0174
   3.5271E+00   3.6129E+00   7.5623E-06  0.0175
   3.6129E+00   3.7008E+00   7.3874E-06  0.0174
   3.7008E+00   3.7908E+00   7.4463E-06  0.0172
   3.7908E+00   3.8831E+00   7.2611E-06  0.0172
   3.8831E+00   3.9776E+00   7.0328E-06  0.0173
   3.9776E+00   4.0743E+00   6.7041E-06  0.0175
   4.0743E+00   4.1735E+00   6.4446E-06  0.0176
   4.1735E+00   4.2750E+00   6.4168E-06  0.0174
   4.2750E+00   4.3790E+00   6.0258E-06  0.0178
   4.3790E+00   4.4856E+00   6.0863E-06  0.0175
   4.4856E+00   4.5947E+00   5.9586E-06  0.0174
   4.5947E+00   4.7065E+00   5.6848E-06  0.0177
   4.7065E+00   4.8210E+00   5.4734E-06  0.0178
   4.8210E+00   4.9383E+00   5.1810E-06  0.0181
   4.9383E+00   5.0585E+00   5.1061E-06  0.0180
   5.0585E+00   5.1815E+00   4.8175E-06  0.0183
   5.1815E+00   5.3076E+00   4.7207E-06  0.0183
   5.3076E+00   5.4368E+00   4.5226E-06  0.0184
   5.4368E+00   5.5690E+00   4.3853E-06  0.0185
   5.5690E+00   5.7045E+00   4.2457E-06  0.0186
   5.7045E+00   5.8433E+00   4.0079E-06  0.0189
   5.8433E+00   5.9855E+00   3.9044E-06  0.0189
   5.9855E+00   6.1311E+00   3.6987E-06  0.0192
   6.1311E+00   6.2803E+00   3.4495E-06  0.0196
   6.2803E+00   6.4331E+00   3.4529E-06  0.0194
   6.4331E+00   6.5896E+00   3.2988E-06  0.0196
   6.5896E+00   6.7500E+00   3.1297E-06  0.0199
   6.7500E+00   6.9142E+00   3.1323E-06  0.0197
   6.9142E+00   7.0824E+00   2.8104E-06  0.0205
   7.0824E+00   7.2548E+00   2.5817E-06  0.0211
   7.2548E+00   7.4313E+00   2.6431E-06  0.0207
   7.4313E+00   7.6121E+00   2.5662E-06  0.0207
   7.6121E+00   7.7973E+00   2.2929E-06  0.0216
   7.7973E+00   7.9870E+00   2.1727E-06  0.0220
   7.9870E+00   8.1813E+00   2.0634E-06  0.0223
   8.1813E+00   8.3804E+00   2.0049E-06  0.0223
   8.3804E+00   8.5843E+00   1.8735E-06  0.0228
   8.5843E+00   8.7931E+00   1.8505E-06  0.0227
   8.7931E+00   9.0071E+00   1.6734E-06  0.0236
   9.0071E+00   9.2262E+00   1.6172E-06  0.0237
   9.2262E+00   9.4507E+00   1.5134E-06  0.0242
   9.4507E+00   9.6807E+00   1.4218E-06  0.0247
   9.6807E+00   9.9162E+00   1.3979E-06  0.0246
   9.9162E+00   1.0157E+01   1.2966E-06  0.0252
   1.0157E+01   1.0405E+01   1.2736E-06  0.0252
   1.0405E+01   1.0658E+01   1.2441E-06  0.0252
   1.0658E+01   1.0917E+01   1.1523E-06  0.0258
   1.0917E+01   1.1183E+01   1.1891E-06  0.0251
   1.1183E+01   1.1455E+01   1.1496E-06  0.0253
   1.1455E+01   1.1733E+01   1.0551E-06  0.0260
   1.1733E+01   1.2019E+01   9.0775E-07  0.0278
   1.2019E+01   1.2311E+01   8.4532E-07  0.0284
   1.2311E+01   1.2611E+01   8.2412E-07  0.0284
   1.2611E+01   1.2918E+01   7.2871E-07  0.0299
   1.2918E+01   1.3232E+01   7.2799E-07  0.0295
   1.3232E+01   1.3554E+01   6.7440E-07  0.0303
   1.3554E+01   1.3884E+01   6.5074E-07  0.0305
   1.3884E+01   1.4222E+01   5.9039E-07  0.0316
   1.4222E+01   1.4568E+01   5.1169E-07  0.0336
   1.4568E+01   1.4922E+01   4.9477E-07  0.0338
   1.4922E+01   1.5285E+01   4.6685E-07  0.0343
   1.5285E+01   1.5657E+01   4.0300E-07  0.0365
   1.5657E+01   1.6038E+01   3.8439E-07  0.0369
   1.6038E+01   1.6428E+01   3.3462E-07  0.0391
   1.6428E+01   1.6828E+01   3.0336E-07  0.0406
   1.6828E+01   1.7237E+01   2.7873E-07  0.0418
   1.7237E+01   1.7657E+01   2.5814E-07  0.0430
   1.7657E+01   1.8086E+01   2.4472E-07  0.0436
   1.8086E+01   1.8526E+01   2.2543E-07  0.0449
   1.8526E+01   1.8977E+01   1.9833E-07  0.0473
   1.8977E+01   1.9439E+01   1.7283E-07  0.0501
   1.9439E+01   1.9912E+01   1.6386E-07  0.0508
   1.9912E+01   2.0396E+01   1.2921E-07  0.0565
   2.0396E+01   2.0893E+01   1.2252E-07  0.0574
   2.0893E+01   2.1401E+01   1.2000E-07  0.0573
   2.1401E+01   2.1922E+01   9.7561E-08  0.0627
   2.1922E+01   2.2455E+01   1.0424E-07  0.0600
   2.2455E+01   2.3001E+01   8.6758E-08  0.0650
   2.3001E+01   2.3561E+01   7.2904E-08  0.0700
   2.3561E+01   2.4134E+01   6.3497E-08  0.0741
   2.4134E+01   2.4721E+01   6.3691E-08  0.0731
   2.4721E+01   2.5323E+01   5.2868E-08  0.0793
   2.5323E+01   2.5939E+01   5.4210E-08  0.0774
   2.5939E+01   2.6570E+01   4.7535E-08  0.0816
   2.6570E+01   2.7217E+01   3.8362E-08  0.0898
   2.7217E+01   2.7879E+01   3.5337E-08  0.0925
   2.7879E+01   2.8557E+01   2.1819E-08  0.1162
   2.8557E+01   2.9252E+01   2.9936E-08  0.0981
   2.9252E+01   2.9964E+01   2.4729E-08  0.1066
   2.9964E+01   3.0693E+01   1.9203E-08  0.1195
   3.0693E+01   3.1440E+01   1.9551E-08  0.1170
   3.1440E+01   3.2205E+01   1.4119E-08  0.1361
   3.2205E+01   3.2988E+01   1.0720E-08  0.1543
   3.2988E+01   3.3791E+01   1.1462E-08  0.1474
   3.3791E+01   3.4613E+01   9.7305E-09  0.1581
   3.4613E+01   3.5455E+01   7.1246E-09  0.1826
   3.5455E+01   3.6318E+01   9.5056E-09  0.1562
   3.6318E+01   3.7201E+01   5.6584E-09  0.2000
   3.7201E+01   3.8106E+01   5.3031E-09  0.2041
   3.8106E+01   3.9034E+01   2.5886E-09  0.2887
   3.9034E+01   3.9983E+01   3.3694E-09  0.2500
   3.9983E+01   4.0956E+01   3.9061E-09  0.2294
   4.0956E+01   4.1953E+01   1.8063E-09  0.3333
   4.1953E+01   4.2973E+01   2.1553E-09  0.3015
   4.2973E+01   4.4019E+01   2.6779E-09  0.2673
   4.4019E+01   4.5090E+01   1.1204E-09  0.4082
   4.5090E+01   4.6187E+01   2.0053E-09  0.3015
   4.6187E+01   4.7311E+01   1.0678E-09  0.4082
   4.7311E+01   4.8462E+01   3.4749E-10  0.7071
   4.8462E+01   4.9641E+01   1.0177E-09  0.4082
   4.9641E+01   5.0849E+01   6.6236E-10  0.5000
   5.0849E+01   5.2086E+01   3.2331E-10  0.7071
   5.2086E+01   5.3353E+01   1.5782E-10  1.0000
   5.3353E+01   5.4651E+01   1.5407E-10  1.0000
   5.4651E+01   5.5981E+01   0.0000E+00  0.0000
   5.5981E+01   5.7343E+01   1.4684E-10  1.0000
   5.7343E+01   5.8738E+01   1.4335E-10  1.0000
   5.8738E+01   6.0168E+01   2.7989E-10  0.7071
   6.0168E+01   6.1632E+01   1.3662E-10  1.0000
   6.1632E+01   6.3131E+01   0.0000E+00  0.0000
   6.3131E+01   6.4667E+01   0.0000E+00  0.0000
   6.4667E+01   6.6240E+01   1.2711E-10  1.0000
   6.6240E+01   6.7852E+01   0.0000E+00  0.0000
   6.7852E+01   6.9503E+01   0.0000E+00  0.0000
   6.9503E+01   7.1194E+01   1.1827E-10  1.0000
   7.1194E+01   7.2926E+01   0.0000E+00  0.0000
   7.2926E+01   7.4701E+01   0.0000E+00  0.0000
   7.4701E+01   7.6518E+01   0.0000E+00  0.0000
   7.6518E+01   7.8380E+01   0.0000E+00  0.0000
   7.8380E+01   8.0287E+01   0.0000E+00  0.0000
   8.0287E+01   8.2240E+01   0.0000E+00  0.0000
   8.2240E+01   8.4241E+01   0.0000E+00  0.0000
   8.4241E+01   8.6291E+01   0.0000E+00  0.0000
   8.6291E+01   8.8391E+01   0.0000E+00  0.0000
   8.8391E+01   9.0541E+01   0.0000E+00  0.0000
   9.0541E+01   9.2744E+01   0.0000E+00  0.0000
   9.2744E+01   9.5001E+01   0.0000E+00  0.0000
   9.5001E+01   9.7312E+01   0.0000E+00  0.0000
   9.7312E+01   9.9680E+01   0.0000E+00  0.0000
   9.9680E+01   1.0211E+02   0.0000E+00  0.0000
   1.0211E+02   1.0459E+02   0.0000E+00  0.0000
   1.0459E+02   1.0713E+02   0.0000E+00  0.0000
   1.0713E+02   1.0974E+02   0.0000E+00  0.0000
   1.0974E+02   1.1241E+02   0.0000E+00  0.0000
   1.1241E+02   1.1515E+02   0.0000E+00  0.0000
   1.1515E+02   1.1795E+02   0.0000E+00  0.0000
   1.1795E+02   1.2082E+02   0.0000E+00  0.0000
   1.2082E+02   1.2376E+02   0.0000E+00  0.0000
   1.2376E+02   1.2677E+02   0.0000E+00  0.0000
   1.2677E+02   1.2985E+02   0.0000E+00  0.0000
   1.2985E+02   1.3301E+02   0.0000E+00  0.0000
   1.3301E+02   1.3625E+02   0.0000E+00  0.0000
   1.3625E+02   1.3956E+02   0.0000E+00  0.0000
   1.3956E+02   1.4296E+02   0.0000E+00  0.0000
   1.4296E+02   1.4644E+02   0.0000E+00  0.0000
   1.4644E+02   1.5000E+02   0.0000E+00  0.0000

#   sum over                 6.6821E-07
'no. =    1   reg = 126 - 226'
msuc: {\huge [t-cross] in region mesh}
msdr: {\it plotted by \ANGEL \version}
msdl: {\it calculated by \PHITS  3.28}
wt: s(0.7)
\vspace{-3}
  region surface crossing
  area  &=&   1.0000E+00 [cm^2]
e:
 
# Information for Restart Calculation
# This calculation was newly started
# istdev =  2 # 1:Batch variance, 2:History variance
# resc2  = 5.00000000000000000E+09 # Total source weight or Total source weight / maxcas
# resc3  = 5.00000000000000000E+09 # Total history number or Total batch number
# maxcas =   500000000 # History / Batch, only used for istdev=1
# bitrseed = 0110100000100010111000001110001111001110100100011111101000111001 # bit data of rseed
