[ T-Cross ]
    title = [t-cross] in region mesh
     mesh =  reg            # mesh type is region-wise
      reg =    1            # number of crossing regions
      non     r-from    r-to       area
      1       121       221        1.000000    
   e-type =    3            # e-mesh is log given by emin, emax and ne
     emin =  1.0000000E-02  # minimum value of e-mesh points
     emax =   150.0000      # maximum value of e-mesh points
#    edel =  2.4039514E-02  # mesh width of e-mesh points
       ne =    400          # number of e-mesh points
#    data = ( e(i), i = 1, ne + 1 )
#           1.00000E-02  1.02433E-02  1.04925E-02  1.07478E-02  1.10093E-02
#           1.12772E-02  1.15516E-02  1.18326E-02  1.21205E-02  1.24154E-02
#           1.27175E-02  1.30269E-02  1.33439E-02  1.36686E-02  1.40011E-02
#           1.43418E-02  1.46907E-02  1.50482E-02  1.54143E-02  1.57894E-02
#           1.61735E-02  1.65670E-02  1.69701E-02  1.73830E-02  1.78060E-02
#           1.82392E-02  1.86830E-02  1.91375E-02  1.96032E-02  2.00801E-02
#           2.05687E-02  2.10692E-02  2.15818E-02  2.21069E-02  2.26448E-02
#           2.31957E-02  2.37601E-02  2.43382E-02  2.49304E-02  2.55369E-02
#           2.61583E-02  2.67947E-02  2.74467E-02  2.81145E-02  2.87985E-02
#           2.94992E-02  3.02169E-02  3.09521E-02  3.17052E-02  3.24766E-02
#           3.32668E-02  3.40762E-02  3.49053E-02  3.57546E-02  3.66246E-02
#           3.75157E-02  3.84284E-02  3.93634E-02  4.03212E-02  4.13022E-02
#           4.23071E-02  4.33365E-02  4.43909E-02  4.54710E-02  4.65773E-02
#           4.77106E-02  4.88714E-02  5.00605E-02  5.12785E-02  5.25262E-02
#           5.38042E-02  5.51133E-02  5.64542E-02  5.78278E-02  5.92348E-02
#           6.06760E-02  6.21523E-02  6.36645E-02  6.52135E-02  6.68002E-02
#           6.84255E-02  7.00904E-02  7.17957E-02  7.35426E-02  7.53319E-02
#           7.71648E-02  7.90423E-02  8.09655E-02  8.29354E-02  8.49533E-02
#           8.70203E-02  8.91376E-02  9.13064E-02  9.35279E-02  9.58035E-02
#           9.81345E-02  1.00522E-01  1.02968E-01  1.05473E-01  1.08040E-01
#           1.10668E-01  1.13361E-01  1.16119E-01  1.18944E-01  1.21838E-01
#           1.24803E-01  1.27839E-01  1.30950E-01  1.34136E-01  1.37399E-01
#           1.40742E-01  1.44167E-01  1.47675E-01  1.51268E-01  1.54948E-01
#           1.58718E-01  1.62580E-01  1.66535E-01  1.70587E-01  1.74738E-01
#           1.78989E-01  1.83344E-01  1.87805E-01  1.92375E-01  1.97055E-01
#           2.01850E-01  2.06761E-01  2.11792E-01  2.16945E-01  2.22223E-01
#           2.27630E-01  2.33169E-01  2.38842E-01  2.44653E-01  2.50605E-01
#           2.56703E-01  2.62949E-01  2.69346E-01  2.75900E-01  2.82613E-01
#           2.89489E-01  2.96532E-01  3.03747E-01  3.11138E-01  3.18708E-01
#           3.26462E-01  3.34405E-01  3.42542E-01  3.50876E-01  3.59413E-01
#           3.68158E-01  3.77116E-01  3.86291E-01  3.95690E-01  4.05317E-01
#           4.15179E-01  4.25281E-01  4.35628E-01  4.46227E-01  4.57084E-01
#           4.68205E-01  4.79597E-01  4.91266E-01  5.03219E-01  5.15463E-01
#           5.28005E-01  5.40851E-01  5.54011E-01  5.67490E-01  5.81298E-01
#           5.95441E-01  6.09929E-01  6.24769E-01  6.39970E-01  6.55541E-01
#           6.71491E-01  6.87828E-01  7.04564E-01  7.21706E-01  7.39266E-01
#           7.57253E-01  7.75678E-01  7.94551E-01  8.13883E-01  8.33685E-01
#           8.53969E-01  8.74747E-01  8.96030E-01  9.17831E-01  9.40163E-01
#           9.63038E-01  9.86469E-01  1.01047E+00  1.03506E+00  1.06024E+00
#           1.08604E+00  1.11246E+00  1.13953E+00  1.16725E+00  1.19565E+00
#           1.22474E+00  1.25454E+00  1.28507E+00  1.31633E+00  1.34836E+00
#           1.38117E+00  1.41477E+00  1.44920E+00  1.48446E+00  1.52057E+00
#           1.55757E+00  1.59547E+00  1.63429E+00  1.67405E+00  1.71478E+00
#           1.75650E+00  1.79924E+00  1.84302E+00  1.88786E+00  1.93379E+00
#           1.98084E+00  2.02904E+00  2.07841E+00  2.12898E+00  2.18078E+00
#           2.23384E+00  2.28819E+00  2.34386E+00  2.40089E+00  2.45930E+00
#           2.51914E+00  2.58043E+00  2.64322E+00  2.70753E+00  2.77341E+00
#           2.84088E+00  2.91001E+00  2.98081E+00  3.05333E+00  3.12762E+00
#           3.20372E+00  3.28167E+00  3.36152E+00  3.44330E+00  3.52708E+00
#           3.61290E+00  3.70080E+00  3.79085E+00  3.88308E+00  3.97756E+00
#           4.07434E+00  4.17347E+00  4.27501E+00  4.37903E+00  4.48557E+00
#           4.59471E+00  4.70650E+00  4.82102E+00  4.93832E+00  5.05847E+00
#           5.18155E+00  5.30762E+00  5.43676E+00  5.56904E+00  5.70453E+00
#           5.84333E+00  5.98550E+00  6.13114E+00  6.28031E+00  6.43312E+00
#           6.58964E+00  6.74997E+00  6.91420E+00  7.08243E+00  7.25475E+00
#           7.43126E+00  7.61207E+00  7.79728E+00  7.98700E+00  8.18133E+00
#           8.38038E+00  8.58428E+00  8.79315E+00  9.00709E+00  9.22624E+00
#           9.45072E+00  9.68067E+00  9.91620E+00  1.01575E+01  1.04046E+01
#           1.06578E+01  1.09171E+01  1.11827E+01  1.14548E+01  1.17335E+01
#           1.20190E+01  1.23114E+01  1.26109E+01  1.29178E+01  1.32321E+01
#           1.35540E+01  1.38838E+01  1.42216E+01  1.45676E+01  1.49221E+01
#           1.52851E+01  1.56570E+01  1.60380E+01  1.64282E+01  1.68279E+01
#           1.72374E+01  1.76568E+01  1.80864E+01  1.85264E+01  1.89772E+01
#           1.94389E+01  1.99119E+01  2.03963E+01  2.08926E+01  2.14009E+01
#           2.19216E+01  2.24550E+01  2.30014E+01  2.35610E+01  2.41343E+01
#           2.47215E+01  2.53230E+01  2.59391E+01  2.65702E+01  2.72167E+01
#           2.78789E+01  2.85572E+01  2.92520E+01  2.99637E+01  3.06928E+01
#           3.14396E+01  3.22045E+01  3.29881E+01  3.37907E+01  3.46128E+01
#           3.54550E+01  3.63177E+01  3.72013E+01  3.81064E+01  3.90336E+01
#           3.99833E+01  4.09561E+01  4.19526E+01  4.29734E+01  4.40189E+01
#           4.50900E+01  4.61870E+01  4.73108E+01  4.84619E+01  4.96410E+01
#           5.08488E+01  5.20860E+01  5.33533E+01  5.46514E+01  5.59812E+01
#           5.73432E+01  5.87384E+01  6.01676E+01  6.16315E+01  6.31311E+01
#           6.46671E+01  6.62405E+01  6.78522E+01  6.95031E+01  7.11941E+01
#           7.29263E+01  7.47007E+01  7.65182E+01  7.83800E+01  8.02870E+01
#           8.22405E+01  8.42414E+01  8.62911E+01  8.83906E+01  9.05412E+01
#           9.27442E+01  9.50007E+01  9.73122E+01  9.96799E+01  1.02105E+02
#           1.04589E+02  1.07134E+02  1.09741E+02  1.12411E+02  1.15146E+02
#           1.17948E+02  1.20817E+02  1.23757E+02  1.26768E+02  1.29852E+02
#           1.33012E+02  1.36248E+02  1.39563E+02  1.42959E+02  1.46437E+02
#           1.50000E+02
     unit =    2            # unit is [1/cm^2/(MeV/n)/source]
     axis =  eng            # axis of output
     file = detector-22.out  # file name of output for the above axis
   output = f-curr          # surface crossing forward current spectrum
     part =  neutron  
# kf/name :  2112     
#    used :        main (  %)        temp (  %)       total (  %)
#  memory :         414 (  0)           0 (  0)         414 (  0)

#------------------------------------------------------------------------------
#newpage:
#   no. =    1   reg = 121 - 221

x: Energy [MeV/n]
y:  F-Curr [1/cm^2/(MeV/n)/source]         
p: xlog ylog afac(0.8) form(0.9)
h: n            x            y(neutron ),hh0l   n 
#  e-lower      e-upper      neutron     r.err 
   1.0000E-02   1.0243E-02   4.9886E-05  0.1400
   1.0243E-02   1.0493E-02   4.2654E-05  0.1492
   1.0493E-02   1.0748E-02   5.6867E-05  0.1280
   1.0748E-02   1.1009E-02   4.8403E-05  0.1369
   1.1009E-02   1.1277E-02   3.9004E-05  0.1508
   1.1277E-02   1.1552E-02   5.4006E-05  0.1265
   1.1552E-02   1.1833E-02   4.4036E-05  0.1387
   1.1833E-02   1.2121E-02   4.2990E-05  0.1387
   1.2121E-02   1.2415E-02   5.9064E-05  0.1168
   1.2415E-02   1.2718E-02   4.5701E-05  0.1313
   1.2718E-02   1.3027E-02   3.4612E-05  0.1491
   1.3027E-02   1.3344E-02   3.9803E-05  0.1374
   1.3344E-02   1.3669E-02   4.4718E-05  0.1280
   1.3669E-02   1.4001E-02   3.7874E-05  0.1374
   1.4001E-02   1.4342E-02   3.4236E-05  0.1429
   1.4342E-02   1.4691E-02   2.8525E-05  0.1544
   1.4691E-02   1.5048E-02   3.6628E-05  0.1348
   1.5048E-02   1.5414E-02   3.1198E-05  0.1443
   1.5414E-02   1.5789E-02   4.4426E-05  0.1195
   1.5789E-02   1.6174E-02   3.0356E-05  0.1429
   1.6174E-02   1.6567E-02   2.9026E-05  0.1443
   1.6567E-02   1.6970E-02   4.1457E-05  0.1192
   1.6970E-02   1.7383E-02   3.5485E-05  0.1270
   1.7383E-02   1.7806E-02   3.1916E-05  0.1325
   1.7806E-02   1.8239E-02   3.7801E-05  0.1204
   1.8239E-02   1.8683E-02   3.0657E-05  0.1321
   1.8683E-02   1.9138E-02   2.7749E-05  0.1374
   1.9138E-02   1.9603E-02   2.0445E-05  0.1581
   1.9603E-02   2.0080E-02   2.5941E-05  0.1387
   2.0080E-02   2.0569E-02   2.5230E-05  0.1387
   2.0569E-02   2.1069E-02   2.6949E-05  0.1326
   2.1069E-02   2.1582E-02   2.7789E-05  0.1291
   2.1582E-02   2.2107E-02   2.4504E-05  0.1356
   2.2107E-02   2.2645E-02   2.0355E-05  0.1474
   2.2645E-02   2.3196E-02   2.6783E-05  0.1270
   2.3196E-02   2.3760E-02   1.8549E-05  0.1508
   2.3760E-02   2.4338E-02   2.3059E-05  0.1336
   2.4338E-02   2.4930E-02   1.8529E-05  0.1469
   2.4930E-02   2.5537E-02   2.5646E-05  0.1235
   2.5537E-02   2.6158E-02   2.0790E-05  0.1355
   2.6158E-02   2.6795E-02   2.0195E-05  0.1361
   2.6795E-02   2.7447E-02   2.2606E-05  0.1270
   2.7447E-02   2.8114E-02   1.7820E-05  0.1414
   2.8114E-02   2.8799E-02   2.0184E-05  0.1313
   2.8799E-02   2.9499E-02   2.0725E-05  0.1280
   2.9499E-02   3.0217E-02   1.9565E-05  0.1302
   3.0217E-02   3.0952E-02   2.0073E-05  0.1270
   3.0952E-02   3.1705E-02   1.8961E-05  0.1291
   3.1705E-02   3.2477E-02   1.7584E-05  0.1325
   3.2477E-02   3.3267E-02   1.6458E-05  0.1350
   3.3267E-02   3.4076E-02   1.9408E-05  0.1231
   3.4076E-02   3.4905E-02   1.4638E-05  0.1400
   3.4905E-02   3.5755E-02   1.6816E-05  0.1291
   3.5755E-02   3.6625E-02   1.5863E-05  0.1313
   3.6625E-02   3.7516E-02   1.6000E-05  0.1286
   3.7516E-02   3.8428E-02   1.1994E-05  0.1474
   3.8428E-02   3.9363E-02   1.6038E-05  0.1260
   3.9363E-02   4.0321E-02   1.2425E-05  0.1414
   4.0321E-02   4.1302E-02   1.4310E-05  0.1302
   4.1302E-02   4.2307E-02   1.1322E-05  0.1444
   4.2307E-02   4.3337E-02   1.1790E-05  0.1400
   4.3337E-02   4.4391E-02   1.4403E-05  0.1250
   4.4391E-02   4.5471E-02   1.0795E-05  0.1429
   4.5471E-02   4.6577E-02   1.1402E-05  0.1374
   4.6577E-02   4.7711E-02   1.1339E-05  0.1361
   4.7711E-02   4.8871E-02   9.8222E-06  0.1444
   4.8871E-02   5.0061E-02   1.0808E-05  0.1361
   5.0061E-02   5.1279E-02   1.2099E-05  0.1270
   5.1279E-02   5.2526E-02   1.3475E-05  0.1187
   5.2526E-02   5.3804E-02   1.0845E-05  0.1308
   5.3804E-02   5.5113E-02   8.5451E-06  0.1459
   5.5113E-02   5.6454E-02   9.0167E-06  0.1401
   5.6454E-02   5.7828E-02   1.0568E-05  0.1280
   5.7828E-02   5.9235E-02   9.4421E-06  0.1337
   5.9235E-02   6.0676E-02   1.2715E-05  0.1140
   6.0676E-02   6.2152E-02   1.0900E-05  0.1214
   6.2152E-02   6.3665E-02   8.8140E-06  0.1336
   6.3665E-02   6.5214E-02   8.4511E-06  0.1348
   6.5214E-02   6.6800E-02   6.8957E-06  0.1474
   6.6800E-02   6.8426E-02   7.1755E-06  0.1429
   6.8426E-02   7.0090E-02   8.6948E-06  0.1281
   7.0090E-02   7.1796E-02   8.4910E-06  0.1281
   7.1796E-02   7.3543E-02   1.0216E-05  0.1155
   7.3543E-02   7.5332E-02   6.9162E-06  0.1387
   7.5332E-02   7.7165E-02   6.1023E-06  0.1459
   7.7165E-02   7.9042E-02   7.2248E-06  0.1325
   7.9042E-02   8.0965E-02   8.1672E-06  0.1231
   8.0965E-02   8.2935E-02   8.6985E-06  0.1179
   8.2935E-02   8.4953E-02   6.2247E-06  0.1374
   8.4953E-02   8.7020E-02   6.1465E-06  0.1364
   8.7020E-02   8.9138E-02   5.8449E-06  0.1387
   8.9138E-02   9.1306E-02   6.0352E-06  0.1348
   9.1306E-02   9.3528E-02   7.0182E-06  0.1232
   9.3528E-02   9.5804E-02   6.3786E-06  0.1280
   9.5804E-02   9.8134E-02   5.4074E-06  0.1374
   9.8134E-02   1.0052E-01   6.6778E-06  0.1222
   1.0052E-01   1.0297E-01   7.5902E-06  0.1132
   1.0297E-01   1.0547E-01   5.8562E-06  0.1271
   1.0547E-01   1.0804E-01   5.4707E-06  0.1302
   1.0804E-01   1.1067E-01   6.0652E-06  0.1222
   1.1067E-01   1.1336E-01   7.1410E-06  0.1111
   1.1336E-01   1.1612E-01   5.6938E-06  0.1231
   1.1612E-01   1.1894E-01   6.3160E-06  0.1155
   1.1894E-01   1.2184E-01   7.2911E-06  0.1061
   1.2184E-01   1.2480E-01   7.6214E-06  0.1026
   1.2480E-01   1.2784E-01   8.3846E-06  0.0967
   1.2784E-01   1.3095E-01   6.9824E-06  0.1046
   1.3095E-01   1.3414E-01   9.1889E-06  0.0900
   1.3414E-01   1.3740E-01   8.8951E-06  0.0905
   1.3740E-01   1.4074E-01   8.7517E-06  0.0902
   1.4074E-01   1.4417E-01   9.2400E-06  0.0867
   1.4417E-01   1.4767E-01   1.0447E-05  0.0806
   1.4767E-01   1.5127E-01   9.6697E-06  0.0826
   1.5127E-01   1.5495E-01   1.1031E-05  0.0765
   1.5495E-01   1.5872E-01   1.1813E-05  0.0730
   1.5872E-01   1.6258E-01   1.0708E-05  0.0758
   1.6258E-01   1.6654E-01   1.0756E-05  0.0747
   1.6654E-01   1.7059E-01   1.1081E-05  0.0727
   1.7059E-01   1.7474E-01   1.1895E-05  0.0694
   1.7474E-01   1.7899E-01   1.2171E-05  0.0677
   1.7899E-01   1.8334E-01   1.1665E-05  0.0684
   1.8334E-01   1.8781E-01   1.2621E-05  0.0650
   1.8781E-01   1.9237E-01   1.3755E-05  0.0615
   1.9237E-01   1.9706E-01   1.5694E-05  0.0569
   1.9706E-01   2.0185E-01   1.2419E-05  0.0631
   2.0185E-01   2.0676E-01   1.2764E-05  0.0616
   2.0676E-01   2.1179E-01   1.2736E-05  0.0609
   2.1179E-01   2.1694E-01   1.2415E-05  0.0609
   2.1694E-01   2.2222E-01   1.3546E-05  0.0576
   2.2222E-01   2.2763E-01   1.5396E-05  0.0535
   2.2763E-01   2.3317E-01   1.5452E-05  0.0527
   2.3317E-01   2.3884E-01   1.5318E-05  0.0523
   2.3884E-01   2.4465E-01   1.4972E-05  0.0522
   2.4465E-01   2.5061E-01   1.6866E-05  0.0486
   2.5061E-01   2.5670E-01   1.6743E-05  0.0482
   2.5670E-01   2.6295E-01   1.4934E-05  0.0505
   2.6295E-01   2.6935E-01   1.6123E-05  0.0480
   2.6935E-01   2.7590E-01   1.5430E-05  0.0485
   2.7590E-01   2.8261E-01   1.6340E-05  0.0465
   2.8261E-01   2.8949E-01   1.6733E-05  0.0454
   2.8949E-01   2.9653E-01   1.6286E-05  0.0455
   2.9653E-01   3.0375E-01   1.6234E-05  0.0450
   3.0375E-01   3.1114E-01   1.6461E-05  0.0442
   3.1114E-01   3.1871E-01   1.7038E-05  0.0429
   3.1871E-01   3.2646E-01   1.6326E-05  0.0433
   3.2646E-01   3.3441E-01   1.6290E-05  0.0428
   3.3441E-01   3.4254E-01   1.7972E-05  0.0403
   3.4254E-01   3.5088E-01   1.6754E-05  0.0412
   3.5088E-01   3.5941E-01   1.5467E-05  0.0424
   3.5941E-01   3.6816E-01   1.6911E-05  0.0400
   3.6816E-01   3.7712E-01   1.7219E-05  0.0392
   3.7712E-01   3.8629E-01   1.7581E-05  0.0384
   3.8629E-01   3.9569E-01   1.7103E-05  0.0384
   3.9569E-01   4.0532E-01   1.8014E-05  0.0370
   4.0532E-01   4.1518E-01   1.7921E-05  0.0366
   4.1518E-01   4.2528E-01   1.8026E-05  0.0361
   4.2528E-01   4.3563E-01   1.8052E-05  0.0356
   4.3563E-01   4.4623E-01   1.6808E-05  0.0365
   4.4623E-01   4.5708E-01   1.7523E-05  0.0353
   4.5708E-01   4.6821E-01   1.8078E-05  0.0343
   4.6821E-01   4.7960E-01   1.8520E-05  0.0335
   4.7960E-01   4.9127E-01   1.6711E-05  0.0349
   4.9127E-01   5.0322E-01   1.6861E-05  0.0343
   5.0322E-01   5.1546E-01   1.6793E-05  0.0339
   5.1546E-01   5.2800E-01   1.6602E-05  0.0337
   5.2800E-01   5.4085E-01   1.7268E-05  0.0327
   5.4085E-01   5.5401E-01   1.7115E-05  0.0324
   5.5401E-01   5.6749E-01   1.7235E-05  0.0319
   5.6749E-01   5.8130E-01   1.7180E-05  0.0316
   5.8130E-01   5.9544E-01   1.6526E-05  0.0318
   5.9544E-01   6.0993E-01   1.5971E-05  0.0320
   6.0993E-01   6.2477E-01   1.5856E-05  0.0317
   6.2477E-01   6.3997E-01   1.6750E-05  0.0305
   6.3997E-01   6.5554E-01   1.6678E-05  0.0302
   6.5554E-01   6.7149E-01   1.6452E-05  0.0300
   6.7149E-01   6.8783E-01   1.6568E-05  0.0296
   6.8783E-01   7.0456E-01   1.5582E-05  0.0301
   7.0456E-01   7.2171E-01   1.5559E-05  0.0298
   7.2171E-01   7.3927E-01   1.5707E-05  0.0293
   7.3927E-01   7.5725E-01   1.4696E-05  0.0299
   7.5725E-01   7.7568E-01   1.5096E-05  0.0291
   7.7568E-01   7.9455E-01   1.4270E-05  0.0296
   7.9455E-01   8.1388E-01   1.4562E-05  0.0290
   8.1388E-01   8.3368E-01   1.4687E-05  0.0285
   8.3368E-01   8.5397E-01   1.4639E-05  0.0282
   8.5397E-01   8.7475E-01   1.4047E-05  0.0285
   8.7475E-01   8.9603E-01   1.3262E-05  0.0289
   8.9603E-01   9.1783E-01   1.3416E-05  0.0284
   9.1783E-01   9.4016E-01   1.2974E-05  0.0285
   9.4016E-01   9.6304E-01   1.2657E-05  0.0286
   9.6304E-01   9.8647E-01   1.2381E-05  0.0285
   9.8647E-01   1.0105E+00   1.2343E-05  0.0282
   1.0105E+00   1.0351E+00   1.1775E-05  0.0286
   1.0351E+00   1.0602E+00   1.2257E-05  0.0276
   1.0602E+00   1.0860E+00   1.1754E-05  0.0278
   1.0860E+00   1.1125E+00   1.2188E-05  0.0270
   1.1125E+00   1.1395E+00   1.2245E-05  0.0266
   1.1395E+00   1.1673E+00   1.1585E-05  0.0270
   1.1673E+00   1.1957E+00   1.1767E-05  0.0264
   1.1957E+00   1.2247E+00   1.1932E-05  0.0259
   1.2247E+00   1.2545E+00   1.1997E-05  0.0255
   1.2545E+00   1.2851E+00   1.0960E-05  0.0263
   1.2851E+00   1.3163E+00   1.0988E-05  0.0260
   1.3163E+00   1.3484E+00   1.0975E-05  0.0256
   1.3484E+00   1.3812E+00   1.0477E-05  0.0259
   1.3812E+00   1.4148E+00   1.0522E-05  0.0255
   1.4148E+00   1.4492E+00   1.0616E-05  0.0251
   1.4492E+00   1.4845E+00   1.0467E-05  0.0249
   1.4845E+00   1.5206E+00   1.0027E-05  0.0251
   1.5206E+00   1.5576E+00   1.0023E-05  0.0247
   1.5576E+00   1.5955E+00   1.0084E-05  0.0244
   1.5955E+00   1.6343E+00   9.5736E-06  0.0246
   1.6343E+00   1.6741E+00   9.4736E-06  0.0245
   1.6741E+00   1.7148E+00   9.0771E-06  0.0247
   1.7148E+00   1.7565E+00   9.2673E-06  0.0241
   1.7565E+00   1.7992E+00   8.7716E-06  0.0245
   1.7992E+00   1.8430E+00   8.3577E-06  0.0247
   1.8430E+00   1.8879E+00   8.0241E-06  0.0249
   1.8879E+00   1.9338E+00   7.6413E-06  0.0251
   1.9338E+00   1.9808E+00   7.2593E-06  0.0254
   1.9808E+00   2.0290E+00   7.1499E-06  0.0253
   2.0290E+00   2.0784E+00   7.3310E-06  0.0247
   2.0784E+00   2.1290E+00   7.0655E-06  0.0248
   2.1290E+00   2.1808E+00   7.5069E-06  0.0238
   2.1808E+00   2.2338E+00   7.5166E-06  0.0235
   2.2338E+00   2.2882E+00   7.0399E-06  0.0240
   2.2882E+00   2.3439E+00   6.7064E-06  0.0244
   2.3439E+00   2.4009E+00   6.7742E-06  0.0240
   2.4009E+00   2.4593E+00   6.6865E-06  0.0238
   2.4593E+00   2.5191E+00   6.3386E-06  0.0242
   2.5191E+00   2.5804E+00   6.2235E-06  0.0241
   2.5804E+00   2.6432E+00   6.3902E-06  0.0236
   2.6432E+00   2.7075E+00   6.2545E-06  0.0235
   2.7075E+00   2.7734E+00   5.8713E-06  0.0240
   2.7734E+00   2.8409E+00   5.9728E-06  0.0235
   2.8409E+00   2.9100E+00   5.7565E-06  0.0237
   2.9100E+00   2.9808E+00   5.7845E-06  0.0234
   2.9808E+00   3.0533E+00   5.5375E-06  0.0237
   3.0533E+00   3.1276E+00   5.3878E-06  0.0237
   3.1276E+00   3.2037E+00   5.4106E-06  0.0234
   3.2037E+00   3.2817E+00   5.0149E-06  0.0240
   3.2817E+00   3.3615E+00   5.0214E-06  0.0237
   3.3615E+00   3.4433E+00   4.9448E-06  0.0236
   3.4433E+00   3.5271E+00   5.0154E-06  0.0232
   3.5271E+00   3.6129E+00   4.8997E-06  0.0232
   3.6129E+00   3.7008E+00   4.8125E-06  0.0232
   3.7008E+00   3.7908E+00   4.6387E-06  0.0233
   3.7908E+00   3.8831E+00   4.5520E-06  0.0233
   3.8831E+00   3.9776E+00   4.5643E-06  0.0230
   3.9776E+00   4.0743E+00   4.6393E-06  0.0226
   4.0743E+00   4.1735E+00   4.5394E-06  0.0226
   4.1735E+00   4.2750E+00   4.3088E-06  0.0229
   4.2750E+00   4.3790E+00   3.9551E-06  0.0236
   4.3790E+00   4.4856E+00   3.9746E-06  0.0233
   4.4856E+00   4.5947E+00   3.9069E-06  0.0232
   4.5947E+00   4.7065E+00   3.7561E-06  0.0233
   4.7065E+00   4.8210E+00   3.7456E-06  0.0231
   4.8210E+00   4.9383E+00   3.6001E-06  0.0233
   4.9383E+00   5.0585E+00   3.5738E-06  0.0231
   5.0585E+00   5.1815E+00   3.5614E-06  0.0229
   5.1815E+00   5.3076E+00   3.2920E-06  0.0236
   5.3076E+00   5.4368E+00   3.1671E-06  0.0237
   5.4368E+00   5.5690E+00   3.2365E-06  0.0232
   5.5690E+00   5.7045E+00   3.0985E-06  0.0234
   5.7045E+00   5.8433E+00   2.9485E-06  0.0238
   5.8433E+00   5.9855E+00   2.9289E-06  0.0236
   5.9855E+00   6.1311E+00   2.7883E-06  0.0239
   6.1311E+00   6.2803E+00   2.7588E-06  0.0238
   6.2803E+00   6.4331E+00   2.6768E-06  0.0239
   6.4331E+00   6.5896E+00   2.4447E-06  0.0247
   6.5896E+00   6.7500E+00   2.4353E-06  0.0245
   6.7500E+00   6.9142E+00   2.2968E-06  0.0249
   6.9142E+00   7.0824E+00   2.2363E-06  0.0250
   7.0824E+00   7.2548E+00   2.1417E-06  0.0252
   7.2548E+00   7.4313E+00   2.0771E-06  0.0253
   7.4313E+00   7.6121E+00   1.9604E-06  0.0257
   7.6121E+00   7.7973E+00   1.8328E-06  0.0263
   7.7973E+00   7.9870E+00   1.8073E-06  0.0262
   7.9870E+00   8.1813E+00   1.7228E-06  0.0265
   8.1813E+00   8.3804E+00   1.6604E-06  0.0267
   8.3804E+00   8.5843E+00   1.4680E-06  0.0281
   8.5843E+00   8.7931E+00   1.3954E-06  0.0285
   8.7931E+00   9.0071E+00   1.3625E-06  0.0285
   9.0071E+00   9.2262E+00   1.3433E-06  0.0284
   9.2262E+00   9.4507E+00   1.2404E-06  0.0292
   9.4507E+00   9.6807E+00   1.1554E-06  0.0299
   9.6807E+00   9.9162E+00   1.0566E-06  0.0309
   9.9162E+00   1.0157E+01   1.0169E-06  0.0311
   1.0157E+01   1.0405E+01   9.2730E-07  0.0322
   1.0405E+01   1.0658E+01   8.6585E-07  0.0329
   1.0658E+01   1.0917E+01   8.2604E-07  0.0333
   1.0917E+01   1.1183E+01   7.4473E-07  0.0347
   1.1183E+01   1.1455E+01   6.1711E-07  0.0376
   1.1455E+01   1.1733E+01   5.9742E-07  0.0378
   1.1733E+01   1.2019E+01   5.7266E-07  0.0382
   1.2019E+01   1.2311E+01   4.8548E-07  0.0409
   1.2311E+01   1.2611E+01   4.2961E-07  0.0430
   1.2611E+01   1.2918E+01   4.0195E-07  0.0439
   1.2918E+01   1.3232E+01   3.8256E-07  0.0445
   1.3232E+01   1.3554E+01   3.0974E-07  0.0488
   1.3554E+01   1.3884E+01   2.8951E-07  0.0499
   1.3884E+01   1.4222E+01   2.6310E-07  0.0517
   1.4222E+01   1.4568E+01   2.3120E-07  0.0546
   1.4568E+01   1.4922E+01   2.1026E-07  0.0565
   1.4922E+01   1.5285E+01   1.7444E-07  0.0613
   1.5285E+01   1.5657E+01   1.5877E-07  0.0635
   1.5657E+01   1.6038E+01   1.3313E-07  0.0685
   1.6038E+01   1.6428E+01   1.2203E-07  0.0707
   1.6428E+01   1.6828E+01   1.1215E-07  0.0728
   1.6828E+01   1.7237E+01   1.0700E-07  0.0737
   1.7237E+01   1.7657E+01   8.3453E-08  0.0825
   1.7657E+01   1.8086E+01   7.0386E-08  0.0887
   1.8086E+01   1.8526E+01   4.8154E-08  0.1060
   1.8526E+01   1.8977E+01   4.9123E-08  0.1037
   1.8977E+01   1.9439E+01   3.9190E-08  0.1147
   1.9439E+01   1.9912E+01   3.5239E-08  0.1195
   1.9912E+01   2.0396E+01   3.1453E-08  0.1250
   2.0396E+01   2.0893E+01   1.6313E-08  0.1715
   2.0893E+01   2.1401E+01   4.6838E-10  1.0000
   2.1401E+01   2.1922E+01   0.0000E+00  0.0000
   2.1922E+01   2.2455E+01   0.0000E+00  0.0000
   2.2455E+01   2.3001E+01   0.0000E+00  0.0000
   2.3001E+01   2.3561E+01   4.2544E-10  1.0000
   2.3561E+01   2.4134E+01   0.0000E+00  0.0000
   2.4134E+01   2.4721E+01   0.0000E+00  0.0000
   2.4721E+01   2.5323E+01   0.0000E+00  0.0000
   2.5323E+01   2.5939E+01   0.0000E+00  0.0000
   2.5939E+01   2.6570E+01   0.0000E+00  0.0000
   2.6570E+01   2.7217E+01   0.0000E+00  0.0000
   2.7217E+01   2.7879E+01   0.0000E+00  0.0000
   2.7879E+01   2.8557E+01   0.0000E+00  0.0000
   2.8557E+01   2.9252E+01   0.0000E+00  0.0000
   2.9252E+01   2.9964E+01   0.0000E+00  0.0000
   2.9964E+01   3.0693E+01   0.0000E+00  0.0000
   3.0693E+01   3.1440E+01   0.0000E+00  0.0000
   3.1440E+01   3.2205E+01   0.0000E+00  0.0000
   3.2205E+01   3.2988E+01   0.0000E+00  0.0000
   3.2988E+01   3.3791E+01   0.0000E+00  0.0000
   3.3791E+01   3.4613E+01   0.0000E+00  0.0000
   3.4613E+01   3.5455E+01   0.0000E+00  0.0000
   3.5455E+01   3.6318E+01   0.0000E+00  0.0000
   3.6318E+01   3.7201E+01   0.0000E+00  0.0000
   3.7201E+01   3.8106E+01   0.0000E+00  0.0000
   3.8106E+01   3.9034E+01   0.0000E+00  0.0000
   3.9034E+01   3.9983E+01   0.0000E+00  0.0000
   3.9983E+01   4.0956E+01   0.0000E+00  0.0000
   4.0956E+01   4.1953E+01   0.0000E+00  0.0000
   4.1953E+01   4.2973E+01   0.0000E+00  0.0000
   4.2973E+01   4.4019E+01   0.0000E+00  0.0000
   4.4019E+01   4.5090E+01   0.0000E+00  0.0000
   4.5090E+01   4.6187E+01   0.0000E+00  0.0000
   4.6187E+01   4.7311E+01   0.0000E+00  0.0000
   4.7311E+01   4.8462E+01   0.0000E+00  0.0000
   4.8462E+01   4.9641E+01   0.0000E+00  0.0000
   4.9641E+01   5.0849E+01   0.0000E+00  0.0000
   5.0849E+01   5.2086E+01   0.0000E+00  0.0000
   5.2086E+01   5.3353E+01   0.0000E+00  0.0000
   5.3353E+01   5.4651E+01   0.0000E+00  0.0000
   5.4651E+01   5.5981E+01   0.0000E+00  0.0000
   5.5981E+01   5.7343E+01   0.0000E+00  0.0000
   5.7343E+01   5.8738E+01   0.0000E+00  0.0000
   5.8738E+01   6.0168E+01   0.0000E+00  0.0000
   6.0168E+01   6.1632E+01   0.0000E+00  0.0000
   6.1632E+01   6.3131E+01   0.0000E+00  0.0000
   6.3131E+01   6.4667E+01   0.0000E+00  0.0000
   6.4667E+01   6.6240E+01   0.0000E+00  0.0000
   6.6240E+01   6.7852E+01   0.0000E+00  0.0000
   6.7852E+01   6.9503E+01   0.0000E+00  0.0000
   6.9503E+01   7.1194E+01   0.0000E+00  0.0000
   7.1194E+01   7.2926E+01   0.0000E+00  0.0000
   7.2926E+01   7.4701E+01   0.0000E+00  0.0000
   7.4701E+01   7.6518E+01   0.0000E+00  0.0000
   7.6518E+01   7.8380E+01   0.0000E+00  0.0000
   7.8380E+01   8.0287E+01   0.0000E+00  0.0000
   8.0287E+01   8.2240E+01   0.0000E+00  0.0000
   8.2240E+01   8.4241E+01   0.0000E+00  0.0000
   8.4241E+01   8.6291E+01   0.0000E+00  0.0000
   8.6291E+01   8.8391E+01   0.0000E+00  0.0000
   8.8391E+01   9.0541E+01   0.0000E+00  0.0000
   9.0541E+01   9.2744E+01   0.0000E+00  0.0000
   9.2744E+01   9.5001E+01   0.0000E+00  0.0000
   9.5001E+01   9.7312E+01   0.0000E+00  0.0000
   9.7312E+01   9.9680E+01   0.0000E+00  0.0000
   9.9680E+01   1.0211E+02   0.0000E+00  0.0000
   1.0211E+02   1.0459E+02   0.0000E+00  0.0000
   1.0459E+02   1.0713E+02   0.0000E+00  0.0000
   1.0713E+02   1.0974E+02   0.0000E+00  0.0000
   1.0974E+02   1.1241E+02   0.0000E+00  0.0000
   1.1241E+02   1.1515E+02   0.0000E+00  0.0000
   1.1515E+02   1.1795E+02   0.0000E+00  0.0000
   1.1795E+02   1.2082E+02   0.0000E+00  0.0000
   1.2082E+02   1.2376E+02   0.0000E+00  0.0000
   1.2376E+02   1.2677E+02   0.0000E+00  0.0000
   1.2677E+02   1.2985E+02   0.0000E+00  0.0000
   1.2985E+02   1.3301E+02   0.0000E+00  0.0000
   1.3301E+02   1.3625E+02   0.0000E+00  0.0000
   1.3625E+02   1.3956E+02   0.0000E+00  0.0000
   1.3956E+02   1.4296E+02   0.0000E+00  0.0000
   1.4296E+02   1.4644E+02   0.0000E+00  0.0000
   1.4644E+02   1.5000E+02   0.0000E+00  0.0000

#   sum over                 3.5740E-07
'no. =    1   reg = 121 - 221'
msuc: {\huge [t-cross] in region mesh}
msdr: {\it plotted by \ANGEL \version}
msdl: {\it calculated by \PHITS  3.26}
wt: s(0.7)
\vspace{-3}
  region surface crossing
  area  &=&   1.0000E+00 [cm^2]
e:
 
# Information for Restart Calculation
# This calculation was newly started
# istdev =  2 # 1:Batch variance, 2:History variance
# resc2  = 4.20000000000000000E+09 # Total source weight or Total source weight / maxcas
# resc3  = 4.20000000000000000E+09 # Total history number or Total batch number
# maxcas =   100000000 # History / Batch, only used for istdev=1
# bitrseed = 1101011101000111110110101100101110110111100010010110000001011111 # bit data of rseed
