[ T-Cross ]
    title = [t-cross] in region mesh
     mesh =  reg            # mesh type is region-wise
      reg =    1            # number of crossing regions
      non     r-from    r-to       area
      1       114       214        1.000000    
   e-type =    3            # e-mesh is log given by emin, emax and ne
     emin =  1.0000000E-02  # minimum value of e-mesh points
     emax =   150.0000      # maximum value of e-mesh points
#    edel =  2.4039514E-02  # mesh width of e-mesh points
       ne =    400          # number of e-mesh points
#    data = ( e(i), i = 1, ne + 1 )
#           1.00000E-02  1.02433E-02  1.04925E-02  1.07478E-02  1.10093E-02
#           1.12772E-02  1.15516E-02  1.18326E-02  1.21205E-02  1.24154E-02
#           1.27175E-02  1.30269E-02  1.33439E-02  1.36686E-02  1.40011E-02
#           1.43418E-02  1.46907E-02  1.50482E-02  1.54143E-02  1.57894E-02
#           1.61735E-02  1.65670E-02  1.69701E-02  1.73830E-02  1.78060E-02
#           1.82392E-02  1.86830E-02  1.91375E-02  1.96032E-02  2.00801E-02
#           2.05687E-02  2.10692E-02  2.15818E-02  2.21069E-02  2.26448E-02
#           2.31957E-02  2.37601E-02  2.43382E-02  2.49304E-02  2.55369E-02
#           2.61583E-02  2.67947E-02  2.74467E-02  2.81145E-02  2.87985E-02
#           2.94992E-02  3.02169E-02  3.09521E-02  3.17052E-02  3.24766E-02
#           3.32668E-02  3.40762E-02  3.49053E-02  3.57546E-02  3.66246E-02
#           3.75157E-02  3.84284E-02  3.93634E-02  4.03212E-02  4.13022E-02
#           4.23071E-02  4.33365E-02  4.43909E-02  4.54710E-02  4.65773E-02
#           4.77106E-02  4.88714E-02  5.00605E-02  5.12785E-02  5.25262E-02
#           5.38042E-02  5.51133E-02  5.64542E-02  5.78278E-02  5.92348E-02
#           6.06760E-02  6.21523E-02  6.36645E-02  6.52135E-02  6.68002E-02
#           6.84255E-02  7.00904E-02  7.17957E-02  7.35426E-02  7.53319E-02
#           7.71648E-02  7.90423E-02  8.09655E-02  8.29354E-02  8.49533E-02
#           8.70203E-02  8.91376E-02  9.13064E-02  9.35279E-02  9.58035E-02
#           9.81345E-02  1.00522E-01  1.02968E-01  1.05473E-01  1.08040E-01
#           1.10668E-01  1.13361E-01  1.16119E-01  1.18944E-01  1.21838E-01
#           1.24803E-01  1.27839E-01  1.30950E-01  1.34136E-01  1.37399E-01
#           1.40742E-01  1.44167E-01  1.47675E-01  1.51268E-01  1.54948E-01
#           1.58718E-01  1.62580E-01  1.66535E-01  1.70587E-01  1.74738E-01
#           1.78989E-01  1.83344E-01  1.87805E-01  1.92375E-01  1.97055E-01
#           2.01850E-01  2.06761E-01  2.11792E-01  2.16945E-01  2.22223E-01
#           2.27630E-01  2.33169E-01  2.38842E-01  2.44653E-01  2.50605E-01
#           2.56703E-01  2.62949E-01  2.69346E-01  2.75900E-01  2.82613E-01
#           2.89489E-01  2.96532E-01  3.03747E-01  3.11138E-01  3.18708E-01
#           3.26462E-01  3.34405E-01  3.42542E-01  3.50876E-01  3.59413E-01
#           3.68158E-01  3.77116E-01  3.86291E-01  3.95690E-01  4.05317E-01
#           4.15179E-01  4.25281E-01  4.35628E-01  4.46227E-01  4.57084E-01
#           4.68205E-01  4.79597E-01  4.91266E-01  5.03219E-01  5.15463E-01
#           5.28005E-01  5.40851E-01  5.54011E-01  5.67490E-01  5.81298E-01
#           5.95441E-01  6.09929E-01  6.24769E-01  6.39970E-01  6.55541E-01
#           6.71491E-01  6.87828E-01  7.04564E-01  7.21706E-01  7.39266E-01
#           7.57253E-01  7.75678E-01  7.94551E-01  8.13883E-01  8.33685E-01
#           8.53969E-01  8.74747E-01  8.96030E-01  9.17831E-01  9.40163E-01
#           9.63038E-01  9.86469E-01  1.01047E+00  1.03506E+00  1.06024E+00
#           1.08604E+00  1.11246E+00  1.13953E+00  1.16725E+00  1.19565E+00
#           1.22474E+00  1.25454E+00  1.28507E+00  1.31633E+00  1.34836E+00
#           1.38117E+00  1.41477E+00  1.44920E+00  1.48446E+00  1.52057E+00
#           1.55757E+00  1.59547E+00  1.63429E+00  1.67405E+00  1.71478E+00
#           1.75650E+00  1.79924E+00  1.84302E+00  1.88786E+00  1.93379E+00
#           1.98084E+00  2.02904E+00  2.07841E+00  2.12898E+00  2.18078E+00
#           2.23384E+00  2.28819E+00  2.34386E+00  2.40089E+00  2.45930E+00
#           2.51914E+00  2.58043E+00  2.64322E+00  2.70753E+00  2.77341E+00
#           2.84088E+00  2.91001E+00  2.98081E+00  3.05333E+00  3.12762E+00
#           3.20372E+00  3.28167E+00  3.36152E+00  3.44330E+00  3.52708E+00
#           3.61290E+00  3.70080E+00  3.79085E+00  3.88308E+00  3.97756E+00
#           4.07434E+00  4.17347E+00  4.27501E+00  4.37903E+00  4.48557E+00
#           4.59471E+00  4.70650E+00  4.82102E+00  4.93832E+00  5.05847E+00
#           5.18155E+00  5.30762E+00  5.43676E+00  5.56904E+00  5.70453E+00
#           5.84333E+00  5.98550E+00  6.13114E+00  6.28031E+00  6.43312E+00
#           6.58964E+00  6.74997E+00  6.91420E+00  7.08243E+00  7.25475E+00
#           7.43126E+00  7.61207E+00  7.79728E+00  7.98700E+00  8.18133E+00
#           8.38038E+00  8.58428E+00  8.79315E+00  9.00709E+00  9.22624E+00
#           9.45072E+00  9.68067E+00  9.91620E+00  1.01575E+01  1.04046E+01
#           1.06578E+01  1.09171E+01  1.11827E+01  1.14548E+01  1.17335E+01
#           1.20190E+01  1.23114E+01  1.26109E+01  1.29178E+01  1.32321E+01
#           1.35540E+01  1.38838E+01  1.42216E+01  1.45676E+01  1.49221E+01
#           1.52851E+01  1.56570E+01  1.60380E+01  1.64282E+01  1.68279E+01
#           1.72374E+01  1.76568E+01  1.80864E+01  1.85264E+01  1.89772E+01
#           1.94389E+01  1.99119E+01  2.03963E+01  2.08926E+01  2.14009E+01
#           2.19216E+01  2.24550E+01  2.30014E+01  2.35610E+01  2.41343E+01
#           2.47215E+01  2.53230E+01  2.59391E+01  2.65702E+01  2.72167E+01
#           2.78789E+01  2.85572E+01  2.92520E+01  2.99637E+01  3.06928E+01
#           3.14396E+01  3.22045E+01  3.29881E+01  3.37907E+01  3.46128E+01
#           3.54550E+01  3.63177E+01  3.72013E+01  3.81064E+01  3.90336E+01
#           3.99833E+01  4.09561E+01  4.19526E+01  4.29734E+01  4.40189E+01
#           4.50900E+01  4.61870E+01  4.73108E+01  4.84619E+01  4.96410E+01
#           5.08488E+01  5.20860E+01  5.33533E+01  5.46514E+01  5.59812E+01
#           5.73432E+01  5.87384E+01  6.01676E+01  6.16315E+01  6.31311E+01
#           6.46671E+01  6.62405E+01  6.78522E+01  6.95031E+01  7.11941E+01
#           7.29263E+01  7.47007E+01  7.65182E+01  7.83800E+01  8.02870E+01
#           8.22405E+01  8.42414E+01  8.62911E+01  8.83906E+01  9.05412E+01
#           9.27442E+01  9.50007E+01  9.73122E+01  9.96799E+01  1.02105E+02
#           1.04589E+02  1.07134E+02  1.09741E+02  1.12411E+02  1.15146E+02
#           1.17948E+02  1.20817E+02  1.23757E+02  1.26768E+02  1.29852E+02
#           1.33012E+02  1.36248E+02  1.39563E+02  1.42959E+02  1.46437E+02
#           1.50000E+02
     unit =    2            # unit is [1/cm^2/(MeV/n)/source]
     axis =  eng            # axis of output
     file = detector-15.out  # file name of output for the above axis
   output = f-curr          # surface crossing forward current spectrum
     part =  neutron  
# kf/name :  2112     
#    used :        main (  %)        temp (  %)       total (  %)
#  memory :         414 (  0)           0 (  0)         414 (  0)

#------------------------------------------------------------------------------
#newpage:
#   no. =    1   reg = 114 - 214

x: Energy [MeV/n]
y:  F-Curr [1/cm^2/(MeV/n)/source]         
p: xlog ylog afac(0.8) form(0.9)
h: n            x            y(neutron ),hh0l   n 
#  e-lower      e-upper      neutron     r.err 
   1.0000E-02   1.0243E-02   2.7281E-03  0.0548
   1.0243E-02   1.0493E-02   2.5998E-03  0.0555
   1.0493E-02   1.0748E-02   2.5431E-03  0.0554
   1.0748E-02   1.1009E-02   2.6441E-03  0.0536
   1.1009E-02   1.1277E-02   2.4496E-03  0.0551
   1.1277E-02   1.1552E-02   2.5793E-03  0.0530
   1.1552E-02   1.1833E-02   2.3811E-03  0.0546
   1.1833E-02   1.2121E-02   2.3945E-03  0.0538
   1.2121E-02   1.2415E-02   1.9332E-03  0.0590
   1.2415E-02   1.2718E-02   2.2949E-03  0.0536
   1.2718E-02   1.3027E-02   2.0387E-03  0.0562
   1.3027E-02   1.3344E-02   2.0425E-03  0.0555
   1.3344E-02   1.3669E-02   1.9268E-03  0.0564
   1.3669E-02   1.4001E-02   2.0437E-03  0.0542
   1.4001E-02   1.4342E-02   1.9876E-03  0.0542
   1.4342E-02   1.4691E-02   1.9256E-03  0.0545
   1.4691E-02   1.5048E-02   1.9227E-03  0.0539
   1.5048E-02   1.5414E-02   1.7922E-03  0.0550
   1.5414E-02   1.5789E-02   1.8020E-03  0.0543
   1.5789E-02   1.6174E-02   1.7124E-03  0.0550
   1.6174E-02   1.6567E-02   1.5841E-03  0.0565
   1.6567E-02   1.6970E-02   1.7135E-03  0.0537
   1.6970E-02   1.7383E-02   1.5960E-03  0.0550
   1.7383E-02   1.7806E-02   1.5334E-03  0.0554
   1.7806E-02   1.8239E-02   1.4318E-03  0.0566
   1.8239E-02   1.8683E-02   1.4533E-03  0.0556
   1.8683E-02   1.9138E-02   1.3630E-03  0.0566
   1.9138E-02   1.9603E-02   1.3214E-03  0.0569
   1.9603E-02   2.0080E-02   1.2457E-03  0.0579
   2.0080E-02   2.0569E-02   1.2179E-03  0.0579
   2.0569E-02   2.1069E-02   1.2806E-03  0.0558
   2.1069E-02   2.1582E-02   1.2355E-03  0.0559
   2.1582E-02   2.2107E-02   1.2184E-03  0.0557
   2.2107E-02   2.2645E-02   1.1336E-03  0.0571
   2.2645E-02   2.3196E-02   1.1698E-03  0.0556
   2.3196E-02   2.3760E-02   1.1892E-03  0.0544
   2.3760E-02   2.4338E-02   1.0741E-03  0.0566
   2.4338E-02   2.4930E-02   1.0481E-03  0.0566
   2.4930E-02   2.5537E-02   1.1108E-03  0.0542
   2.5537E-02   2.6158E-02   9.8316E-04  0.0570
   2.6158E-02   2.6795E-02   1.0077E-03  0.0557
   2.6795E-02   2.7447E-02   1.0367E-03  0.0542
   2.7447E-02   2.8114E-02   8.5343E-04  0.0590
   2.8114E-02   2.8799E-02   8.7920E-04  0.0576
   2.8799E-02   2.9499E-02   8.1656E-04  0.0590
   2.9499E-02   3.0217E-02   8.5080E-04  0.0571
   3.0217E-02   3.0952E-02   8.9590E-04  0.0549
   3.0952E-02   3.1705E-02   8.6419E-04  0.0552
   3.1705E-02   3.2477E-02   8.1533E-04  0.0563
   3.2477E-02   3.3267E-02   7.5959E-04  0.0575
   3.3267E-02   3.4076E-02   6.8955E-04  0.0596
   3.4076E-02   3.4905E-02   7.1257E-04  0.0580
   3.4905E-02   3.5755E-02   7.1270E-04  0.0574
   3.5755E-02   3.6625E-02   7.2021E-04  0.0564
   3.6625E-02   3.7516E-02   7.0931E-04  0.0561
   3.7516E-02   3.8428E-02   6.3041E-04  0.0587
   3.8428E-02   3.9363E-02   6.6411E-04  0.0565
   3.9363E-02   4.0321E-02   5.6236E-04  0.0608
   4.0321E-02   4.1302E-02   6.2919E-04  0.0568
   4.1302E-02   4.2307E-02   5.5250E-04  0.0598
   4.2307E-02   4.3337E-02   6.2764E-04  0.0554
   4.3337E-02   4.4391E-02   6.1724E-04  0.0552
   4.4391E-02   4.5471E-02   5.2515E-04  0.0592
   4.5471E-02   4.6577E-02   5.4862E-04  0.0572
   4.6577E-02   4.7711E-02   5.9913E-04  0.0541
   4.7711E-02   4.8871E-02   5.4323E-04  0.0562
   4.8871E-02   5.0061E-02   4.6986E-04  0.0596
   5.0061E-02   5.1279E-02   4.8732E-04  0.0579
   5.1279E-02   5.2526E-02   4.7625E-04  0.0578
   5.2526E-02   5.3804E-02   4.9060E-04  0.0562
   5.3804E-02   5.5113E-02   4.5455E-04  0.0578
   5.5113E-02   5.6454E-02   4.6569E-04  0.0564
   5.6454E-02   5.7828E-02   4.3870E-04  0.0575
   5.7828E-02   5.9235E-02   4.1290E-04  0.0586
   5.9235E-02   6.0676E-02   3.9753E-04  0.0590
   6.0676E-02   6.2152E-02   4.0235E-04  0.0578
   6.2152E-02   6.3665E-02   4.0035E-04  0.0573
   6.3665E-02   6.5214E-02   3.9698E-04  0.0568
   6.5214E-02   6.6800E-02   3.4680E-04  0.0600
   6.6800E-02   6.8426E-02   3.7629E-04  0.0570
   6.8426E-02   7.0090E-02   3.4233E-04  0.0590
   7.0090E-02   7.1796E-02   3.5817E-04  0.0571
   7.1796E-02   7.3543E-02   3.6190E-04  0.0560
   7.3543E-02   7.5332E-02   3.4902E-04  0.0563
   7.5332E-02   7.7165E-02   3.1788E-04  0.0584
   7.7165E-02   7.9042E-02   3.1474E-04  0.0580
   7.9042E-02   8.0965E-02   3.2249E-04  0.0566
   8.0965E-02   8.2935E-02   3.1234E-04  0.0568
   8.2935E-02   8.4953E-02   2.9010E-04  0.0582
   8.4953E-02   8.7020E-02   2.9226E-04  0.0573
   8.7020E-02   8.9138E-02   2.9659E-04  0.0562
   8.9138E-02   9.1306E-02   3.1018E-04  0.0544
   9.1306E-02   9.3528E-02   2.8392E-04  0.0561
   9.3528E-02   9.5804E-02   2.5785E-04  0.0582
   9.5804E-02   9.8134E-02   2.5504E-04  0.0578
   9.8134E-02   1.0052E-01   2.4292E-04  0.0586
   1.0052E-01   1.0297E-01   2.2416E-04  0.0601
   1.0297E-01   1.0547E-01   2.1457E-04  0.0608
   1.0547E-01   1.0804E-01   2.3763E-04  0.0570
   1.0804E-01   1.1067E-01   2.4004E-04  0.0561
   1.1067E-01   1.1336E-01   2.3610E-04  0.0560
   1.1336E-01   1.1612E-01   1.9511E-04  0.0607
   1.1612E-01   1.1894E-01   1.9502E-04  0.0601
   1.1894E-01   1.2184E-01   2.0594E-04  0.0578
   1.2184E-01   1.2480E-01   2.0955E-04  0.0566
   1.2480E-01   1.2784E-01   2.1809E-04  0.0547
   1.2784E-01   1.3095E-01   2.0152E-04  0.0563
   1.3095E-01   1.3414E-01   1.8969E-04  0.0574
   1.3414E-01   1.3740E-01   2.1291E-04  0.0535
   1.3740E-01   1.4074E-01   1.7586E-04  0.0580
   1.4074E-01   1.4417E-01   1.8280E-04  0.0563
   1.4417E-01   1.4767E-01   1.8946E-04  0.0547
   1.4767E-01   1.5127E-01   1.8184E-04  0.0552
   1.5127E-01   1.5495E-01   1.6680E-04  0.0568
   1.5495E-01   1.5872E-01   1.9957E-04  0.0514
   1.5872E-01   1.6258E-01   1.5863E-04  0.0569
   1.6258E-01   1.6654E-01   1.7016E-04  0.0543
   1.6654E-01   1.7059E-01   1.6142E-04  0.0552
   1.7059E-01   1.7474E-01   1.6016E-04  0.0546
   1.7474E-01   1.7899E-01   1.6638E-04  0.0530
   1.7899E-01   1.8334E-01   1.5068E-04  0.0550
   1.8334E-01   1.8781E-01   1.5980E-04  0.0528
   1.8781E-01   1.9237E-01   1.4517E-04  0.0548
   1.9237E-01   1.9706E-01   1.7245E-04  0.0496
   1.9706E-01   2.0185E-01   1.4426E-04  0.0535
   2.0185E-01   2.0676E-01   1.6094E-04  0.0501
   2.0676E-01   2.1179E-01   1.6087E-04  0.0496
   2.1179E-01   2.1694E-01   1.5986E-04  0.0491
   2.1694E-01   2.2222E-01   1.8074E-04  0.0457
   2.2222E-01   2.2763E-01   1.7590E-04  0.0456
   2.2763E-01   2.3317E-01   1.9425E-04  0.0429
   2.3317E-01   2.3884E-01   2.1267E-04  0.0406
   2.3884E-01   2.4465E-01   2.0911E-04  0.0405
   2.4465E-01   2.5061E-01   2.1913E-04  0.0390
   2.5061E-01   2.5670E-01   2.3554E-04  0.0372
   2.5670E-01   2.6295E-01   2.3142E-04  0.0370
   2.6295E-01   2.6935E-01   2.6607E-04  0.0342
   2.6935E-01   2.7590E-01   2.5461E-04  0.0345
   2.7590E-01   2.8261E-01   2.7529E-04  0.0328
   2.8261E-01   2.8949E-01   2.8231E-04  0.0320
   2.8949E-01   2.9653E-01   2.9245E-04  0.0310
   2.9653E-01   3.0375E-01   3.0554E-04  0.0300
   3.0375E-01   3.1114E-01   3.0541E-04  0.0296
   3.1114E-01   3.1871E-01   3.2792E-04  0.0283
   3.1871E-01   3.2646E-01   3.5028E-04  0.0271
   3.2646E-01   3.3441E-01   3.4980E-04  0.0268
   3.3441E-01   3.4254E-01   3.6380E-04  0.0259
   3.4254E-01   3.5088E-01   3.7416E-04  0.0252
   3.5088E-01   3.5941E-01   3.8310E-04  0.0247
   3.5941E-01   3.6816E-01   3.9853E-04  0.0239
   3.6816E-01   3.7712E-01   4.0384E-04  0.0234
   3.7712E-01   3.8629E-01   4.3422E-04  0.0223
   3.8629E-01   3.9569E-01   4.3384E-04  0.0221
   3.9569E-01   4.0532E-01   4.4411E-04  0.0216
   4.0532E-01   4.1518E-01   4.6491E-04  0.0208
   4.1518E-01   4.2528E-01   4.6767E-04  0.0205
   4.2528E-01   4.3563E-01   4.8653E-04  0.0199
   4.3563E-01   4.4623E-01   4.8482E-04  0.0197
   4.4623E-01   4.5708E-01   5.0673E-04  0.0190
   4.5708E-01   4.6821E-01   5.3267E-04  0.0183
   4.6821E-01   4.7960E-01   5.5509E-04  0.0177
   4.7960E-01   4.9127E-01   5.7176E-04  0.0173
   4.9127E-01   5.0322E-01   5.6286E-04  0.0172
   5.0322E-01   5.1546E-01   5.6945E-04  0.0169
   5.1546E-01   5.2800E-01   6.0977E-04  0.0161
   5.2800E-01   5.4085E-01   6.2106E-04  0.0158
   5.4085E-01   5.5401E-01   6.0851E-04  0.0158
   5.5401E-01   5.6749E-01   6.1983E-04  0.0154
   5.6749E-01   5.8130E-01   6.4094E-04  0.0150
   5.8130E-01   5.9544E-01   6.4605E-04  0.0147
   5.9544E-01   6.0993E-01   6.4727E-04  0.0146
   6.0993E-01   6.2477E-01   6.6460E-04  0.0142
   6.2477E-01   6.3997E-01   6.6967E-04  0.0140
   6.3997E-01   6.5554E-01   6.7613E-04  0.0137
   6.5554E-01   6.7149E-01   6.9576E-04  0.0134
   6.7149E-01   6.8783E-01   6.9074E-04  0.0133
   6.8783E-01   7.0456E-01   6.9551E-04  0.0131
   7.0456E-01   7.2171E-01   7.0482E-04  0.0128
   7.2171E-01   7.3927E-01   6.8959E-04  0.0128
   7.3927E-01   7.5725E-01   6.9667E-04  0.0126
   7.5725E-01   7.7568E-01   7.1679E-04  0.0123
   7.7568E-01   7.9455E-01   7.0581E-04  0.0122
   7.9455E-01   8.1388E-01   7.2270E-04  0.0119
   8.1388E-01   8.3368E-01   7.0369E-04  0.0119
   8.3368E-01   8.5397E-01   7.3626E-04  0.0115
   8.5397E-01   8.7475E-01   7.0740E-04  0.0116
   8.7475E-01   8.9603E-01   7.0206E-04  0.0115
   8.9603E-01   9.1783E-01   7.0498E-04  0.0114
   9.1783E-01   9.4016E-01   6.9924E-04  0.0113
   9.4016E-01   9.6304E-01   7.1845E-04  0.0110
   9.6304E-01   9.8647E-01   7.0389E-04  0.0110
   9.8647E-01   1.0105E+00   6.9671E-04  0.0109
   1.0105E+00   1.0351E+00   6.9358E-04  0.0108
   1.0351E+00   1.0602E+00   6.8162E-04  0.0107
   1.0602E+00   1.0860E+00   6.7488E-04  0.0107
   1.0860E+00   1.1125E+00   6.4715E-04  0.0108
   1.1125E+00   1.1395E+00   6.5839E-04  0.0105
   1.1395E+00   1.1673E+00   6.5644E-04  0.0104
   1.1673E+00   1.1957E+00   6.4995E-04  0.0104
   1.1957E+00   1.2247E+00   6.4145E-04  0.0103
   1.2247E+00   1.2545E+00   6.4350E-04  0.0102
   1.2545E+00   1.2851E+00   6.2211E-04  0.0102
   1.2851E+00   1.3163E+00   6.0486E-04  0.0102
   1.3163E+00   1.3484E+00   6.0102E-04  0.0101
   1.3484E+00   1.3812E+00   5.8884E-04  0.0101
   1.3812E+00   1.4148E+00   5.7762E-04  0.0101
   1.4148E+00   1.4492E+00   5.6563E-04  0.0101
   1.4492E+00   1.4845E+00   5.7976E-04  0.0098
   1.4845E+00   1.5206E+00   5.5683E-04  0.0099
   1.5206E+00   1.5576E+00   5.4376E-04  0.0099
   1.5576E+00   1.5955E+00   5.4136E-04  0.0098
   1.5955E+00   1.6343E+00   5.2326E-04  0.0099
   1.6343E+00   1.6741E+00   5.1420E-04  0.0098
   1.6741E+00   1.7148E+00   5.0520E-04  0.0098
   1.7148E+00   1.7565E+00   4.9487E-04  0.0098
   1.7565E+00   1.7992E+00   4.8688E-04  0.0097
   1.7992E+00   1.8430E+00   4.7595E-04  0.0097
   1.8430E+00   1.8879E+00   4.6766E-04  0.0097
   1.8879E+00   1.9338E+00   4.5963E-04  0.0097
   1.9338E+00   1.9808E+00   4.4423E-04  0.0097
   1.9808E+00   2.0290E+00   4.4448E-04  0.0096
   2.0290E+00   2.0784E+00   4.3417E-04  0.0096
   2.0784E+00   2.1290E+00   4.2648E-04  0.0096
   2.1290E+00   2.1808E+00   4.1202E-04  0.0096
   2.1808E+00   2.2338E+00   3.9871E-04  0.0096
   2.2338E+00   2.2882E+00   3.9372E-04  0.0096
   2.2882E+00   2.3439E+00   3.8714E-04  0.0095
   2.3439E+00   2.4009E+00   3.7933E-04  0.0095
   2.4009E+00   2.4593E+00   3.7352E-04  0.0095
   2.4593E+00   2.5191E+00   3.7115E-04  0.0094
   2.5191E+00   2.5804E+00   3.5815E-04  0.0095
   2.5804E+00   2.6432E+00   3.5239E-04  0.0094
   2.6432E+00   2.7075E+00   3.4946E-04  0.0094
   2.7075E+00   2.7734E+00   3.3841E-04  0.0094
   2.7734E+00   2.8409E+00   3.3008E-04  0.0094
   2.8409E+00   2.9100E+00   3.2858E-04  0.0093
   2.9100E+00   2.9808E+00   3.2194E-04  0.0093
   2.9808E+00   3.0533E+00   3.1336E-04  0.0093
   3.0533E+00   3.1276E+00   3.1061E-04  0.0092
   3.1276E+00   3.2037E+00   3.0271E-04  0.0092
   3.2037E+00   3.2817E+00   3.0348E-04  0.0091
   3.2817E+00   3.3615E+00   2.9641E-04  0.0091
   3.3615E+00   3.4433E+00   2.9168E-04  0.0091
   3.4433E+00   3.5271E+00   2.8832E-04  0.0090
   3.5271E+00   3.6129E+00   2.8284E-04  0.0090
   3.6129E+00   3.7008E+00   2.7654E-04  0.0090
   3.7008E+00   3.7908E+00   2.7568E-04  0.0089
   3.7908E+00   3.8831E+00   2.6881E-04  0.0089
   3.8831E+00   3.9776E+00   2.6692E-04  0.0088
   3.9776E+00   4.0743E+00   2.6383E-04  0.0088
   4.0743E+00   4.1735E+00   2.5924E-04  0.0088
   4.1735E+00   4.2750E+00   2.5481E-04  0.0087
   4.2750E+00   4.3790E+00   2.5326E-04  0.0086
   4.3790E+00   4.4856E+00   2.4973E-04  0.0086
   4.4856E+00   4.5947E+00   2.4833E-04  0.0085
   4.5947E+00   4.7065E+00   2.4292E-04  0.0085
   4.7065E+00   4.8210E+00   2.4468E-04  0.0084
   4.8210E+00   4.9383E+00   2.4418E-04  0.0083
   4.9383E+00   5.0585E+00   2.3550E-04  0.0083
   5.0585E+00   5.1815E+00   2.3042E-04  0.0083
   5.1815E+00   5.3076E+00   2.2824E-04  0.0083
   5.3076E+00   5.4368E+00   2.2293E-04  0.0083
   5.4368E+00   5.5690E+00   2.2554E-04  0.0081
   5.5690E+00   5.7045E+00   2.1840E-04  0.0082
   5.7045E+00   5.8433E+00   2.1801E-04  0.0081
   5.8433E+00   5.9855E+00   2.1355E-04  0.0081
   5.9855E+00   6.1311E+00   2.1037E-04  0.0080
   6.1311E+00   6.2803E+00   2.0348E-04  0.0081
   6.2803E+00   6.4331E+00   2.0348E-04  0.0080
   6.4331E+00   6.5896E+00   2.0057E-04  0.0079
   6.5896E+00   6.7500E+00   1.9863E-04  0.0079
   6.7500E+00   6.9142E+00   1.9296E-04  0.0079
   6.9142E+00   7.0824E+00   1.9247E-04  0.0078
   7.0824E+00   7.2548E+00   1.8880E-04  0.0078
   7.2548E+00   7.4313E+00   1.8470E-04  0.0078
   7.4313E+00   7.6121E+00   1.7909E-04  0.0078
   7.6121E+00   7.7973E+00   1.7389E-04  0.0079
   7.7973E+00   7.9870E+00   1.7265E-04  0.0078
   7.9870E+00   8.1813E+00   1.6824E-04  0.0078
   8.1813E+00   8.3804E+00   1.6634E-04  0.0077
   8.3804E+00   8.5843E+00   1.6389E-04  0.0077
   8.5843E+00   8.7931E+00   1.5688E-04  0.0078
   8.7931E+00   9.0071E+00   1.5399E-04  0.0078
   9.0071E+00   9.2262E+00   1.5137E-04  0.0077
   9.2262E+00   9.4507E+00   1.4655E-04  0.0078
   9.4507E+00   9.6807E+00   1.4196E-04  0.0078
   9.6807E+00   9.9162E+00   1.3814E-04  0.0078
   9.9162E+00   1.0157E+01   1.3400E-04  0.0079
   1.0157E+01   1.0405E+01   1.3484E-04  0.0077
   1.0405E+01   1.0658E+01   1.3385E-04  0.0077
   1.0658E+01   1.0917E+01   1.3009E-04  0.0077
   1.0917E+01   1.1183E+01   1.2696E-04  0.0077
   1.1183E+01   1.1455E+01   1.2297E-04  0.0077
   1.1455E+01   1.1733E+01   1.1905E-04  0.0078
   1.1733E+01   1.2019E+01   1.1457E-04  0.0078
   1.2019E+01   1.2311E+01   1.0992E-04  0.0079
   1.2311E+01   1.2611E+01   1.0678E-04  0.0079
   1.2611E+01   1.2918E+01   1.0346E-04  0.0079
   1.2918E+01   1.3232E+01   1.0016E-04  0.0080
   1.3232E+01   1.3554E+01   9.6569E-05  0.0080
   1.3554E+01   1.3884E+01   9.0804E-05  0.0082
   1.3884E+01   1.4222E+01   8.9331E-05  0.0081
   1.4222E+01   1.4568E+01   8.3279E-05  0.0083
   1.4568E+01   1.4922E+01   8.0853E-05  0.0083
   1.4922E+01   1.5285E+01   7.7473E-05  0.0084
   1.5285E+01   1.5657E+01   7.4276E-05  0.0085
   1.5657E+01   1.6038E+01   7.0507E-05  0.0086
   1.6038E+01   1.6428E+01   6.6389E-05  0.0088
   1.6428E+01   1.6828E+01   6.4769E-05  0.0088
   1.6828E+01   1.7237E+01   6.1646E-05  0.0089
   1.7237E+01   1.7657E+01   5.7969E-05  0.0091
   1.7657E+01   1.8086E+01   5.4460E-05  0.0092
   1.8086E+01   1.8526E+01   5.2905E-05  0.0093
   1.8526E+01   1.8977E+01   5.0223E-05  0.0094
   1.8977E+01   1.9439E+01   4.7698E-05  0.0095
   1.9439E+01   1.9912E+01   4.5628E-05  0.0096
   1.9912E+01   2.0396E+01   4.2591E-05  0.0098
   2.0396E+01   2.0893E+01   4.0930E-05  0.0099
   2.0893E+01   2.1401E+01   3.8199E-05  0.0101
   2.1401E+01   2.1922E+01   3.5786E-05  0.0104
   2.1922E+01   2.2455E+01   3.3268E-05  0.0106
   2.2455E+01   2.3001E+01   3.1266E-05  0.0108
   2.3001E+01   2.3561E+01   2.9565E-05  0.0110
   2.3561E+01   2.4134E+01   2.7597E-05  0.0112
   2.4134E+01   2.4721E+01   2.4826E-05  0.0117
   2.4721E+01   2.5323E+01   2.2973E-05  0.0120
   2.5323E+01   2.5939E+01   2.1518E-05  0.0123
   2.5939E+01   2.6570E+01   1.9343E-05  0.0128
   2.6570E+01   2.7217E+01   1.7461E-05  0.0133
   2.7217E+01   2.7879E+01   1.6146E-05  0.0137
   2.7879E+01   2.8557E+01   1.4509E-05  0.0143
   2.8557E+01   2.9252E+01   1.3172E-05  0.0148
   2.9252E+01   2.9964E+01   1.1544E-05  0.0156
   2.9964E+01   3.0693E+01   1.0688E-05  0.0160
   3.0693E+01   3.1440E+01   9.6119E-06  0.0167
   3.1440E+01   3.2205E+01   8.2881E-06  0.0178
   3.2205E+01   3.2988E+01   7.4991E-06  0.0184
   3.2988E+01   3.3791E+01   6.4239E-06  0.0197
   3.3791E+01   3.4613E+01   5.5610E-06  0.0209
   3.4613E+01   3.5455E+01   4.9326E-06  0.0219
   3.5455E+01   3.6318E+01   4.2219E-06  0.0234
   3.6318E+01   3.7201E+01   3.5195E-06  0.0254
   3.7201E+01   3.8106E+01   3.1310E-06  0.0266
   3.8106E+01   3.9034E+01   2.5670E-06  0.0290
   3.9034E+01   3.9983E+01   2.1522E-06  0.0313
   3.9983E+01   4.0956E+01   1.7125E-06  0.0346
   4.0956E+01   4.1953E+01   1.3949E-06  0.0379
   4.1953E+01   4.2973E+01   1.0326E-06  0.0436
   4.2973E+01   4.4019E+01   9.9467E-07  0.0439
   4.4019E+01   4.5090E+01   7.6936E-07  0.0493
   4.5090E+01   4.6187E+01   5.8519E-07  0.0558
   4.6187E+01   4.7311E+01   4.3603E-07  0.0639
   4.7311E+01   4.8462E+01   3.5097E-07  0.0704
   4.8462E+01   4.9641E+01   2.7309E-07  0.0788
   4.9641E+01   5.0849E+01   2.1692E-07  0.0874
   5.0849E+01   5.2086E+01   1.7782E-07  0.0953
   5.2086E+01   5.3353E+01   1.5308E-07  0.1015
   5.3353E+01   5.4651E+01   8.3197E-08  0.1361
   5.4651E+01   5.5981E+01   8.8741E-08  0.1302
   5.5981E+01   5.7343E+01   7.9291E-08  0.1361
   5.7343E+01   5.8738E+01   6.0206E-08  0.1543
   5.8738E+01   6.0168E+01   4.6181E-08  0.1741
   6.0168E+01   6.1632E+01   4.2352E-08  0.1796
   6.1632E+01   6.3131E+01   4.9348E-08  0.1644
   6.3131E+01   6.4667E+01   3.1249E-08  0.2041
   6.4667E+01   6.6240E+01   2.9236E-08  0.2085
   6.6240E+01   6.7852E+01   1.3650E-08  0.3015
   6.7852E+01   6.9503E+01   9.6917E-09  0.3536
   6.9503E+01   7.1194E+01   4.7307E-09  0.5000
   7.1194E+01   7.2926E+01   5.7730E-09  0.4472
   7.2926E+01   7.4701E+01   4.5087E-09  0.5000
   7.4701E+01   7.6518E+01   2.2008E-09  0.7071
   7.6518E+01   7.8380E+01   1.0743E-09  1.0000
   7.8380E+01   8.0287E+01   0.0000E+00  0.0000
   8.0287E+01   8.2240E+01   0.0000E+00  0.0000
   8.2240E+01   8.4241E+01   0.0000E+00  0.0000
   8.4241E+01   8.6291E+01   0.0000E+00  0.0000
   8.6291E+01   8.8391E+01   0.0000E+00  0.0000
   8.8391E+01   9.0541E+01   0.0000E+00  0.0000
   9.0541E+01   9.2744E+01   0.0000E+00  0.0000
   9.2744E+01   9.5001E+01   0.0000E+00  0.0000
   9.5001E+01   9.7312E+01   0.0000E+00  0.0000
   9.7312E+01   9.9680E+01   0.0000E+00  0.0000
   9.9680E+01   1.0211E+02   0.0000E+00  0.0000
   1.0211E+02   1.0459E+02   0.0000E+00  0.0000
   1.0459E+02   1.0713E+02   0.0000E+00  0.0000
   1.0713E+02   1.0974E+02   0.0000E+00  0.0000
   1.0974E+02   1.1241E+02   0.0000E+00  0.0000
   1.1241E+02   1.1515E+02   0.0000E+00  0.0000
   1.1515E+02   1.1795E+02   0.0000E+00  0.0000
   1.1795E+02   1.2082E+02   0.0000E+00  0.0000
   1.2082E+02   1.2376E+02   0.0000E+00  0.0000
   1.2376E+02   1.2677E+02   0.0000E+00  0.0000
   1.2677E+02   1.2985E+02   0.0000E+00  0.0000
   1.2985E+02   1.3301E+02   0.0000E+00  0.0000
   1.3301E+02   1.3625E+02   0.0000E+00  0.0000
   1.3625E+02   1.3956E+02   0.0000E+00  0.0000
   1.3956E+02   1.4296E+02   0.0000E+00  0.0000
   1.4296E+02   1.4644E+02   0.0000E+00  0.0000
   1.4644E+02   1.5000E+02   0.0000E+00  0.0000

#   sum over                 2.6995E-05
'no. =    1   reg = 114 - 214'
msuc: {\huge [t-cross] in region mesh}
msdr: {\it plotted by \ANGEL \version}
msdl: {\it calculated by \PHITS  3.26}
wt: s(0.7)
\vspace{-3}
  region surface crossing
  area  &=&   1.0000E+00 [cm^2]
e:
 
# Information for Restart Calculation
# This calculation was newly started
# istdev =  2 # 1:Batch variance, 2:History variance
# resc2  = 5.00000000000000000E+08 # Total source weight or Total source weight / maxcas
# resc3  = 5.00000000000000000E+08 # Total history number or Total batch number
# maxcas =   500000000 # History / Batch, only used for istdev=1
# bitrseed = 1101101111010011011000101101110001100110110010110001010100010001 # bit data of rseed
