[ T-Cross ]
    title = [t-cross] in region mesh
     mesh =  reg            # mesh type is region-wise
      reg =    1            # number of crossing regions
      non     r-from    r-to       area
      1       113       213        1.000000    
   e-type =    3            # e-mesh is log given by emin, emax and ne
     emin =  1.0000000E-02  # minimum value of e-mesh points
     emax =   150.0000      # maximum value of e-mesh points
#    edel =  2.4039514E-02  # mesh width of e-mesh points
       ne =    400          # number of e-mesh points
#    data = ( e(i), i = 1, ne + 1 )
#           1.00000E-02  1.02433E-02  1.04925E-02  1.07478E-02  1.10093E-02
#           1.12772E-02  1.15516E-02  1.18326E-02  1.21205E-02  1.24154E-02
#           1.27175E-02  1.30269E-02  1.33439E-02  1.36686E-02  1.40011E-02
#           1.43418E-02  1.46907E-02  1.50482E-02  1.54143E-02  1.57894E-02
#           1.61735E-02  1.65670E-02  1.69701E-02  1.73830E-02  1.78060E-02
#           1.82392E-02  1.86830E-02  1.91375E-02  1.96032E-02  2.00801E-02
#           2.05687E-02  2.10692E-02  2.15818E-02  2.21069E-02  2.26448E-02
#           2.31957E-02  2.37601E-02  2.43382E-02  2.49304E-02  2.55369E-02
#           2.61583E-02  2.67947E-02  2.74467E-02  2.81145E-02  2.87985E-02
#           2.94992E-02  3.02169E-02  3.09521E-02  3.17052E-02  3.24766E-02
#           3.32668E-02  3.40762E-02  3.49053E-02  3.57546E-02  3.66246E-02
#           3.75157E-02  3.84284E-02  3.93634E-02  4.03212E-02  4.13022E-02
#           4.23071E-02  4.33365E-02  4.43909E-02  4.54710E-02  4.65773E-02
#           4.77106E-02  4.88714E-02  5.00605E-02  5.12785E-02  5.25262E-02
#           5.38042E-02  5.51133E-02  5.64542E-02  5.78278E-02  5.92348E-02
#           6.06760E-02  6.21523E-02  6.36645E-02  6.52135E-02  6.68002E-02
#           6.84255E-02  7.00904E-02  7.17957E-02  7.35426E-02  7.53319E-02
#           7.71648E-02  7.90423E-02  8.09655E-02  8.29354E-02  8.49533E-02
#           8.70203E-02  8.91376E-02  9.13064E-02  9.35279E-02  9.58035E-02
#           9.81345E-02  1.00522E-01  1.02968E-01  1.05473E-01  1.08040E-01
#           1.10668E-01  1.13361E-01  1.16119E-01  1.18944E-01  1.21838E-01
#           1.24803E-01  1.27839E-01  1.30950E-01  1.34136E-01  1.37399E-01
#           1.40742E-01  1.44167E-01  1.47675E-01  1.51268E-01  1.54948E-01
#           1.58718E-01  1.62580E-01  1.66535E-01  1.70587E-01  1.74738E-01
#           1.78989E-01  1.83344E-01  1.87805E-01  1.92375E-01  1.97055E-01
#           2.01850E-01  2.06761E-01  2.11792E-01  2.16945E-01  2.22223E-01
#           2.27630E-01  2.33169E-01  2.38842E-01  2.44653E-01  2.50605E-01
#           2.56703E-01  2.62949E-01  2.69346E-01  2.75900E-01  2.82613E-01
#           2.89489E-01  2.96532E-01  3.03747E-01  3.11138E-01  3.18708E-01
#           3.26462E-01  3.34405E-01  3.42542E-01  3.50876E-01  3.59413E-01
#           3.68158E-01  3.77116E-01  3.86291E-01  3.95690E-01  4.05317E-01
#           4.15179E-01  4.25281E-01  4.35628E-01  4.46227E-01  4.57084E-01
#           4.68205E-01  4.79597E-01  4.91266E-01  5.03219E-01  5.15463E-01
#           5.28005E-01  5.40851E-01  5.54011E-01  5.67490E-01  5.81298E-01
#           5.95441E-01  6.09929E-01  6.24769E-01  6.39970E-01  6.55541E-01
#           6.71491E-01  6.87828E-01  7.04564E-01  7.21706E-01  7.39266E-01
#           7.57253E-01  7.75678E-01  7.94551E-01  8.13883E-01  8.33685E-01
#           8.53969E-01  8.74747E-01  8.96030E-01  9.17831E-01  9.40163E-01
#           9.63038E-01  9.86469E-01  1.01047E+00  1.03506E+00  1.06024E+00
#           1.08604E+00  1.11246E+00  1.13953E+00  1.16725E+00  1.19565E+00
#           1.22474E+00  1.25454E+00  1.28507E+00  1.31633E+00  1.34836E+00
#           1.38117E+00  1.41477E+00  1.44920E+00  1.48446E+00  1.52057E+00
#           1.55757E+00  1.59547E+00  1.63429E+00  1.67405E+00  1.71478E+00
#           1.75650E+00  1.79924E+00  1.84302E+00  1.88786E+00  1.93379E+00
#           1.98084E+00  2.02904E+00  2.07841E+00  2.12898E+00  2.18078E+00
#           2.23384E+00  2.28819E+00  2.34386E+00  2.40089E+00  2.45930E+00
#           2.51914E+00  2.58043E+00  2.64322E+00  2.70753E+00  2.77341E+00
#           2.84088E+00  2.91001E+00  2.98081E+00  3.05333E+00  3.12762E+00
#           3.20372E+00  3.28167E+00  3.36152E+00  3.44330E+00  3.52708E+00
#           3.61290E+00  3.70080E+00  3.79085E+00  3.88308E+00  3.97756E+00
#           4.07434E+00  4.17347E+00  4.27501E+00  4.37903E+00  4.48557E+00
#           4.59471E+00  4.70650E+00  4.82102E+00  4.93832E+00  5.05847E+00
#           5.18155E+00  5.30762E+00  5.43676E+00  5.56904E+00  5.70453E+00
#           5.84333E+00  5.98550E+00  6.13114E+00  6.28031E+00  6.43312E+00
#           6.58964E+00  6.74997E+00  6.91420E+00  7.08243E+00  7.25475E+00
#           7.43126E+00  7.61207E+00  7.79728E+00  7.98700E+00  8.18133E+00
#           8.38038E+00  8.58428E+00  8.79315E+00  9.00709E+00  9.22624E+00
#           9.45072E+00  9.68067E+00  9.91620E+00  1.01575E+01  1.04046E+01
#           1.06578E+01  1.09171E+01  1.11827E+01  1.14548E+01  1.17335E+01
#           1.20190E+01  1.23114E+01  1.26109E+01  1.29178E+01  1.32321E+01
#           1.35540E+01  1.38838E+01  1.42216E+01  1.45676E+01  1.49221E+01
#           1.52851E+01  1.56570E+01  1.60380E+01  1.64282E+01  1.68279E+01
#           1.72374E+01  1.76568E+01  1.80864E+01  1.85264E+01  1.89772E+01
#           1.94389E+01  1.99119E+01  2.03963E+01  2.08926E+01  2.14009E+01
#           2.19216E+01  2.24550E+01  2.30014E+01  2.35610E+01  2.41343E+01
#           2.47215E+01  2.53230E+01  2.59391E+01  2.65702E+01  2.72167E+01
#           2.78789E+01  2.85572E+01  2.92520E+01  2.99637E+01  3.06928E+01
#           3.14396E+01  3.22045E+01  3.29881E+01  3.37907E+01  3.46128E+01
#           3.54550E+01  3.63177E+01  3.72013E+01  3.81064E+01  3.90336E+01
#           3.99833E+01  4.09561E+01  4.19526E+01  4.29734E+01  4.40189E+01
#           4.50900E+01  4.61870E+01  4.73108E+01  4.84619E+01  4.96410E+01
#           5.08488E+01  5.20860E+01  5.33533E+01  5.46514E+01  5.59812E+01
#           5.73432E+01  5.87384E+01  6.01676E+01  6.16315E+01  6.31311E+01
#           6.46671E+01  6.62405E+01  6.78522E+01  6.95031E+01  7.11941E+01
#           7.29263E+01  7.47007E+01  7.65182E+01  7.83800E+01  8.02870E+01
#           8.22405E+01  8.42414E+01  8.62911E+01  8.83906E+01  9.05412E+01
#           9.27442E+01  9.50007E+01  9.73122E+01  9.96799E+01  1.02105E+02
#           1.04589E+02  1.07134E+02  1.09741E+02  1.12411E+02  1.15146E+02
#           1.17948E+02  1.20817E+02  1.23757E+02  1.26768E+02  1.29852E+02
#           1.33012E+02  1.36248E+02  1.39563E+02  1.42959E+02  1.46437E+02
#           1.50000E+02
     unit =    2            # unit is [1/cm^2/(MeV/n)/source]
     axis =  eng            # axis of output
     file = detector-14.out  # file name of output for the above axis
   output = f-curr          # surface crossing forward current spectrum
     part =  neutron  
# kf/name :  2112     
#    used :        main (  %)        temp (  %)       total (  %)
#  memory :         414 (  0)           0 (  0)         414 (  0)

#------------------------------------------------------------------------------
#newpage:
#   no. =    1   reg = 113 - 213

x: Energy [MeV/n]
y:  F-Curr [1/cm^2/(MeV/n)/source]         
p: xlog ylog afac(0.8) form(0.9)
h: n            x            y(neutron ),hh0l   n 
#  e-lower      e-upper      neutron     r.err 
   1.0000E-02   1.0243E-02   1.3216E-03  0.0785
   1.0243E-02   1.0493E-02   1.0676E-03  0.0863
   1.0493E-02   1.0748E-02   1.0895E-03  0.0846
   1.0748E-02   1.1009E-02   1.1181E-03  0.0823
   1.1009E-02   1.1277E-02   1.0942E-03  0.0820
   1.1277E-02   1.1552E-02   1.0862E-03  0.0817
   1.1552E-02   1.1833E-02   1.0098E-03  0.0837
   1.1833E-02   1.2121E-02   1.0348E-03  0.0816
   1.2121E-02   1.2415E-02   1.2277E-03  0.0742
   1.2415E-02   1.2718E-02   1.0456E-03  0.0793
   1.2718E-02   1.3027E-02   9.6152E-04  0.0817
   1.3027E-02   1.3344E-02   9.0375E-04  0.0833
   1.3344E-02   1.3669E-02   8.9075E-04  0.0827
   1.3669E-02   1.4001E-02   8.0721E-04  0.0857
   1.4001E-02   1.4342E-02   7.4575E-04  0.0883
   1.4342E-02   1.4691E-02   9.9049E-04  0.0757
   1.4691E-02   1.5048E-02   7.1411E-04  0.0878
   1.5048E-02   1.5414E-02   6.1967E-04  0.0937
   1.5414E-02   1.5789E-02   8.1209E-04  0.0805
   1.5789E-02   1.6174E-02   7.5226E-04  0.0828
   1.6174E-02   1.6567E-02   6.9166E-04  0.0853
   1.6567E-02   1.6970E-02   7.2522E-04  0.0824
   1.6970E-02   1.7383E-02   7.1977E-04  0.0818
   1.7383E-02   1.7806E-02   7.7295E-04  0.0778
   1.7806E-02   1.8239E-02   7.3667E-04  0.0789
   1.8239E-02   1.8683E-02   6.9067E-04  0.0804
   1.8683E-02   1.9138E-02   6.1140E-04  0.0845
   1.9138E-02   1.9603E-02   7.5446E-04  0.0752
   1.9603E-02   2.0080E-02   6.9819E-04  0.0772
   2.0080E-02   2.0569E-02   6.2343E-04  0.0807
   2.0569E-02   2.1069E-02   5.7900E-04  0.0827
   2.1069E-02   2.1582E-02   6.5632E-04  0.0767
   2.1582E-02   2.2107E-02   6.1633E-04  0.0785
   2.2107E-02   2.2645E-02   5.7137E-04  0.0805
   2.2645E-02   2.3196E-02   5.6690E-04  0.0796
   2.3196E-02   2.3760E-02   5.6423E-04  0.0788
   2.3760E-02   2.4338E-02   4.8424E-04  0.0843
   2.4338E-02   2.4930E-02   5.3099E-04  0.0794
   2.4930E-02   2.5537E-02   5.3614E-04  0.0781
   2.5537E-02   2.6158E-02   4.9970E-04  0.0798
   2.6158E-02   2.6795E-02   4.9642E-04  0.0793
   2.6795E-02   2.7447E-02   4.4654E-04  0.0824
   2.7447E-02   2.8114E-02   4.2644E-04  0.0834
   2.8114E-02   2.8799E-02   4.6762E-04  0.0789
   2.8799E-02   2.9499E-02   4.6807E-04  0.0778
   2.9499E-02   3.0217E-02   4.3461E-04  0.0798
   3.0217E-02   3.0952E-02   3.9359E-04  0.0825
   3.0952E-02   3.1705E-02   4.4297E-04  0.0770
   3.1705E-02   3.2477E-02   3.8973E-04  0.0810
   3.2477E-02   3.3267E-02   4.0774E-04  0.0784
   3.3267E-02   3.4076E-02   3.9869E-04  0.0785
   3.4076E-02   3.4905E-02   3.7277E-04  0.0799
   3.4905E-02   3.5755E-02   3.5787E-04  0.0809
   3.5755E-02   3.6625E-02   3.7887E-04  0.0780
   3.6625E-02   3.7516E-02   3.9660E-04  0.0750
   3.7516E-02   3.8428E-02   3.6756E-04  0.0769
   3.8428E-02   3.9363E-02   3.3813E-04  0.0791
   3.9363E-02   4.0321E-02   3.2711E-04  0.0797
   4.0321E-02   4.1302E-02   3.4482E-04  0.0764
   4.1302E-02   4.2307E-02   3.5536E-04  0.0746
   4.2307E-02   4.3337E-02   3.2002E-04  0.0776
   4.3337E-02   4.4391E-02   3.0832E-04  0.0779
   4.4391E-02   4.5471E-02   3.0220E-04  0.0780
   4.5471E-02   4.6577E-02   3.0018E-04  0.0771
   4.6577E-02   4.7711E-02   2.7196E-04  0.0802
   4.7711E-02   4.8871E-02   2.5275E-04  0.0823
   4.8871E-02   5.0061E-02   2.8846E-04  0.0760
   5.0061E-02   5.1279E-02   2.2814E-04  0.0846
   5.1279E-02   5.2526E-02   2.8050E-04  0.0755
   5.2526E-02   5.3804E-02   2.6967E-04  0.0758
   5.3804E-02   5.5113E-02   2.7266E-04  0.0744
   5.5113E-02   5.6454E-02   2.3628E-04  0.0792
   5.6454E-02   5.7828E-02   2.3269E-04  0.0789
   5.7828E-02   5.9235E-02   2.4277E-04  0.0761
   5.9235E-02   6.0676E-02   2.3860E-04  0.0760
   6.0676E-02   6.2152E-02   2.2421E-04  0.0775
   6.2152E-02   6.3665E-02   2.2719E-04  0.0760
   6.3665E-02   6.5214E-02   2.2984E-04  0.0746
   6.5214E-02   6.6800E-02   1.9339E-04  0.0805
   6.6800E-02   6.8426E-02   2.0707E-04  0.0768
   6.8426E-02   7.0090E-02   1.8024E-04  0.0811
   7.0090E-02   7.1796E-02   1.8168E-04  0.0798
   7.1796E-02   7.3543E-02   1.8425E-04  0.0787
   7.3543E-02   7.5332E-02   1.9904E-04  0.0745
   7.5332E-02   7.7165E-02   1.8701E-04  0.0759
   7.7165E-02   7.9042E-02   1.9766E-04  0.0731
   7.9042E-02   8.0965E-02   1.7693E-04  0.0762
   8.0965E-02   8.2935E-02   1.8268E-04  0.0742
   8.2935E-02   8.4953E-02   1.5164E-04  0.0807
   8.4953E-02   8.7020E-02   1.6065E-04  0.0774
   8.7020E-02   8.9138E-02   1.9404E-04  0.0695
   8.9138E-02   9.1306E-02   1.4658E-04  0.0788
   9.1306E-02   9.3528E-02   1.5615E-04  0.0756
   9.3528E-02   9.5804E-02   1.6982E-04  0.0717
   9.5804E-02   9.8134E-02   1.5591E-04  0.0740
   9.8134E-02   1.0052E-01   1.5507E-04  0.0731
   1.0052E-01   1.0297E-01   1.3707E-04  0.0766
   1.0297E-01   1.0547E-01   1.4775E-04  0.0731
   1.0547E-01   1.0804E-01   1.3835E-04  0.0749
   1.0804E-01   1.1067E-01   1.2601E-04  0.0773
   1.1067E-01   1.1336E-01   1.3596E-04  0.0734
   1.1336E-01   1.1612E-01   1.1948E-04  0.0772
   1.1612E-01   1.1894E-01   1.2326E-04  0.0754
   1.1894E-01   1.2184E-01   1.1478E-04  0.0771
   1.2184E-01   1.2480E-01   1.3559E-04  0.0703
   1.2480E-01   1.2784E-01   1.1561E-04  0.0751
   1.2784E-01   1.3095E-01   1.1288E-04  0.0751
   1.3095E-01   1.3414E-01   1.2469E-04  0.0706
   1.3414E-01   1.3740E-01   1.1866E-04  0.0715
   1.3740E-01   1.4074E-01   1.2358E-04  0.0692
   1.4074E-01   1.4417E-01   1.0494E-04  0.0745
   1.4417E-01   1.4767E-01   1.1366E-04  0.0704
   1.4767E-01   1.5127E-01   1.2564E-04  0.0662
   1.5127E-01   1.5495E-01   1.2375E-04  0.0659
   1.5495E-01   1.5872E-01   1.0589E-04  0.0702
   1.5872E-01   1.6258E-01   1.0909E-04  0.0687
   1.6258E-01   1.6654E-01   1.0786E-04  0.0682
   1.6654E-01   1.7059E-01   1.1247E-04  0.0660
   1.7059E-01   1.7474E-01   1.0460E-04  0.0675
   1.7474E-01   1.7899E-01   1.0952E-04  0.0652
   1.7899E-01   1.8334E-01   9.9122E-05  0.0677
   1.8334E-01   1.8781E-01   9.4628E-05  0.0686
   1.8781E-01   1.9237E-01   8.6454E-05  0.0707
   1.9237E-01   1.9706E-01   9.4040E-05  0.0671
   1.9706E-01   2.0185E-01   8.9971E-05  0.0677
   2.0185E-01   2.0676E-01   1.0607E-04  0.0616
   2.0676E-01   2.1179E-01   8.6477E-05  0.0674
   2.1179E-01   2.1694E-01   1.0039E-04  0.0621
   2.1694E-01   2.2222E-01   1.1011E-04  0.0584
   2.2222E-01   2.2763E-01   1.1950E-04  0.0552
   2.2763E-01   2.3317E-01   1.2450E-04  0.0537
   2.3317E-01   2.3884E-01   1.1583E-04  0.0549
   2.3884E-01   2.4465E-01   1.2701E-04  0.0519
   2.4465E-01   2.5061E-01   1.2640E-04  0.0513
   2.5061E-01   2.5670E-01   1.3174E-04  0.0496
   2.5670E-01   2.6295E-01   1.3184E-04  0.0491
   2.6295E-01   2.6935E-01   1.3103E-04  0.0486
   2.6935E-01   2.7590E-01   1.5439E-04  0.0443
   2.7590E-01   2.8261E-01   1.4800E-04  0.0447
   2.8261E-01   2.8949E-01   1.5750E-04  0.0428
   2.8949E-01   2.9653E-01   1.5442E-04  0.0427
   2.9653E-01   3.0375E-01   1.6379E-04  0.0410
   3.0375E-01   3.1114E-01   1.7224E-04  0.0395
   3.1114E-01   3.1871E-01   1.7874E-04  0.0383
   3.1871E-01   3.2646E-01   1.7177E-04  0.0385
   3.2646E-01   3.3441E-01   1.6379E-04  0.0390
   3.3441E-01   3.4254E-01   1.9141E-04  0.0357
   3.4254E-01   3.5088E-01   1.8702E-04  0.0356
   3.5088E-01   3.5941E-01   1.8368E-04  0.0355
   3.5941E-01   3.6816E-01   2.1080E-04  0.0328
   3.6816E-01   3.7712E-01   2.1787E-04  0.0319
   3.7712E-01   3.8629E-01   2.0471E-04  0.0325
   3.8629E-01   3.9569E-01   2.3068E-04  0.0302
   3.9569E-01   4.0532E-01   2.2592E-04  0.0302
   4.0532E-01   4.1518E-01   2.1566E-04  0.0305
   4.1518E-01   4.2528E-01   2.3159E-04  0.0291
   4.2528E-01   4.3563E-01   2.2824E-04  0.0290
   4.3563E-01   4.4623E-01   2.3434E-04  0.0282
   4.4623E-01   4.5708E-01   2.4465E-04  0.0273
   4.5708E-01   4.6821E-01   2.4486E-04  0.0270
   4.6821E-01   4.7960E-01   2.5547E-04  0.0261
   4.7960E-01   4.9127E-01   2.5244E-04  0.0259
   4.9127E-01   5.0322E-01   2.5481E-04  0.0255
   5.0322E-01   5.1546E-01   2.5953E-04  0.0250
   5.1546E-01   5.2800E-01   2.6249E-04  0.0245
   5.2800E-01   5.4085E-01   2.5963E-04  0.0244
   5.4085E-01   5.5401E-01   2.6035E-04  0.0241
   5.5401E-01   5.6749E-01   2.6899E-04  0.0234
   5.6749E-01   5.8130E-01   2.7176E-04  0.0230
   5.8130E-01   5.9544E-01   2.6328E-04  0.0231
   5.9544E-01   6.0993E-01   2.7179E-04  0.0224
   6.0993E-01   6.2477E-01   2.7132E-04  0.0222
   6.2477E-01   6.3997E-01   2.6053E-04  0.0224
   6.3997E-01   6.5554E-01   2.6797E-04  0.0218
   6.5554E-01   6.7149E-01   2.7152E-04  0.0214
   6.7149E-01   6.8783E-01   2.5573E-04  0.0218
   6.8783E-01   7.0456E-01   2.6241E-04  0.0212
   7.0456E-01   7.2171E-01   2.6160E-04  0.0210
   7.2171E-01   7.3927E-01   2.5638E-04  0.0210
   7.3927E-01   7.5725E-01   2.5529E-04  0.0208
   7.5725E-01   7.7568E-01   2.4953E-04  0.0207
   7.7568E-01   7.9455E-01   2.4752E-04  0.0206
   7.9455E-01   8.1388E-01   2.4563E-04  0.0204
   8.1388E-01   8.3368E-01   2.3525E-04  0.0206
   8.3368E-01   8.5397E-01   2.3908E-04  0.0202
   8.5397E-01   8.7475E-01   2.3096E-04  0.0203
   8.7475E-01   8.9603E-01   2.2660E-04  0.0202
   8.9603E-01   9.1783E-01   2.2816E-04  0.0199
   9.1783E-01   9.4016E-01   2.1801E-04  0.0202
   9.4016E-01   9.6304E-01   2.2349E-04  0.0196
   9.6304E-01   9.8647E-01   2.1800E-04  0.0196
   9.8647E-01   1.0105E+00   2.2664E-04  0.0191
   1.0105E+00   1.0351E+00   2.1524E-04  0.0193
   1.0351E+00   1.0602E+00   2.2479E-04  0.0187
   1.0602E+00   1.0860E+00   2.3405E-04  0.0181
   1.0860E+00   1.1125E+00   2.4977E-04  0.0173
   1.1125E+00   1.1395E+00   2.4726E-04  0.0172
   1.1395E+00   1.1673E+00   2.5005E-04  0.0169
   1.1673E+00   1.1957E+00   2.7511E-04  0.0159
   1.1957E+00   1.2247E+00   2.8893E-04  0.0153
   1.2247E+00   1.2545E+00   2.9626E-04  0.0150
   1.2545E+00   1.2851E+00   2.9877E-04  0.0147
   1.2851E+00   1.3163E+00   3.0865E-04  0.0143
   1.3163E+00   1.3484E+00   3.2044E-04  0.0139
   1.3484E+00   1.3812E+00   3.2582E-04  0.0136
   1.3812E+00   1.4148E+00   3.4059E-04  0.0131
   1.4148E+00   1.4492E+00   3.5009E-04  0.0128
   1.4492E+00   1.4845E+00   3.5782E-04  0.0125
   1.4845E+00   1.5206E+00   3.7420E-04  0.0121
   1.5206E+00   1.5576E+00   3.6620E-04  0.0121
   1.5576E+00   1.5955E+00   3.8200E-04  0.0117
   1.5955E+00   1.6343E+00   3.8549E-04  0.0115
   1.6343E+00   1.6741E+00   4.0387E-04  0.0111
   1.6741E+00   1.7148E+00   4.1378E-04  0.0108
   1.7148E+00   1.7565E+00   4.2283E-04  0.0106
   1.7565E+00   1.7992E+00   4.3450E-04  0.0103
   1.7992E+00   1.8430E+00   4.3802E-04  0.0101
   1.8430E+00   1.8879E+00   4.4041E-04  0.0100
   1.8879E+00   1.9338E+00   4.4847E-04  0.0098
   1.9338E+00   1.9808E+00   4.6951E-04  0.0095
   1.9808E+00   2.0290E+00   4.6979E-04  0.0093
   2.0290E+00   2.0784E+00   4.7619E-04  0.0092
   2.0784E+00   2.1290E+00   4.7478E-04  0.0091
   2.1290E+00   2.1808E+00   4.7499E-04  0.0090
   2.1808E+00   2.2338E+00   4.7655E-04  0.0088
   2.2338E+00   2.2882E+00   4.8654E-04  0.0086
   2.2882E+00   2.3439E+00   4.9358E-04  0.0085
   2.3439E+00   2.4009E+00   5.0573E-04  0.0083
   2.4009E+00   2.4593E+00   5.0963E-04  0.0081
   2.4593E+00   2.5191E+00   5.1039E-04  0.0080
   2.5191E+00   2.5804E+00   5.1063E-04  0.0079
   2.5804E+00   2.6432E+00   5.1272E-04  0.0078
   2.6432E+00   2.7075E+00   5.0698E-04  0.0078
   2.7075E+00   2.7734E+00   5.1092E-04  0.0077
   2.7734E+00   2.8409E+00   5.1377E-04  0.0075
   2.8409E+00   2.9100E+00   5.1000E-04  0.0075
   2.9100E+00   2.9808E+00   5.2219E-04  0.0073
   2.9808E+00   3.0533E+00   5.2481E-04  0.0072
   3.0533E+00   3.1276E+00   5.2213E-04  0.0071
   3.1276E+00   3.2037E+00   5.1009E-04  0.0071
   3.2037E+00   3.2817E+00   5.1643E-04  0.0070
   3.2817E+00   3.3615E+00   5.0147E-04  0.0070
   3.3615E+00   3.4433E+00   5.0928E-04  0.0069
   3.4433E+00   3.5271E+00   5.0027E-04  0.0069
   3.5271E+00   3.6129E+00   5.0279E-04  0.0068
   3.6129E+00   3.7008E+00   5.0401E-04  0.0067
   3.7008E+00   3.7908E+00   4.9412E-04  0.0067
   3.7908E+00   3.8831E+00   4.9290E-04  0.0066
   3.8831E+00   3.9776E+00   4.8631E-04  0.0066
   3.9776E+00   4.0743E+00   4.8537E-04  0.0065
   4.0743E+00   4.1735E+00   4.8014E-04  0.0064
   4.1735E+00   4.2750E+00   4.6618E-04  0.0065
   4.2750E+00   4.3790E+00   4.7343E-04  0.0063
   4.3790E+00   4.4856E+00   4.6129E-04  0.0063
   4.4856E+00   4.5947E+00   4.5927E-04  0.0063
   4.5947E+00   4.7065E+00   4.4873E-04  0.0063
   4.7065E+00   4.8210E+00   4.5030E-04  0.0062
   4.8210E+00   4.9383E+00   4.3865E-04  0.0062
   4.9383E+00   5.0585E+00   4.2556E-04  0.0062
   5.0585E+00   5.1815E+00   4.2541E-04  0.0062
   5.1815E+00   5.3076E+00   4.1659E-04  0.0061
   5.3076E+00   5.4368E+00   3.9888E-04  0.0062
   5.4368E+00   5.5690E+00   3.9624E-04  0.0061
   5.5690E+00   5.7045E+00   3.8710E-04  0.0061
   5.7045E+00   5.8433E+00   3.8381E-04  0.0061
   5.8433E+00   5.9855E+00   3.7192E-04  0.0061
   5.9855E+00   6.1311E+00   3.6599E-04  0.0061
   6.1311E+00   6.2803E+00   3.5999E-04  0.0061
   6.2803E+00   6.4331E+00   3.5153E-04  0.0061
   6.4331E+00   6.5896E+00   3.3937E-04  0.0061
   6.5896E+00   6.7500E+00   3.3133E-04  0.0061
   6.7500E+00   6.9142E+00   3.2521E-04  0.0061
   6.9142E+00   7.0824E+00   3.1472E-04  0.0061
   7.0824E+00   7.2548E+00   3.0684E-04  0.0061
   7.2548E+00   7.4313E+00   2.9650E-04  0.0062
   7.4313E+00   7.6121E+00   2.9451E-04  0.0061
   7.6121E+00   7.7973E+00   2.8343E-04  0.0062
   7.7973E+00   7.9870E+00   2.7453E-04  0.0062
   7.9870E+00   8.1813E+00   2.6680E-04  0.0062
   8.1813E+00   8.3804E+00   2.5526E-04  0.0063
   8.3804E+00   8.5843E+00   2.4805E-04  0.0063
   8.5843E+00   8.7931E+00   2.4055E-04  0.0063
   8.7931E+00   9.0071E+00   2.3353E-04  0.0063
   9.0071E+00   9.2262E+00   2.2322E-04  0.0064
   9.2262E+00   9.4507E+00   2.1689E-04  0.0064
   9.4507E+00   9.6807E+00   2.1267E-04  0.0064
   9.6807E+00   9.9162E+00   2.0126E-04  0.0065
   9.9162E+00   1.0157E+01   1.9820E-04  0.0065
   1.0157E+01   1.0405E+01   1.9358E-04  0.0065
   1.0405E+01   1.0658E+01   1.8877E-04  0.0065
   1.0658E+01   1.0917E+01   1.8410E-04  0.0065
   1.0917E+01   1.1183E+01   1.7900E-04  0.0065
   1.1183E+01   1.1455E+01   1.7302E-04  0.0065
   1.1455E+01   1.1733E+01   1.6760E-04  0.0065
   1.1733E+01   1.2019E+01   1.5946E-04  0.0066
   1.2019E+01   1.2311E+01   1.5253E-04  0.0067
   1.2311E+01   1.2611E+01   1.4723E-04  0.0067
   1.2611E+01   1.2918E+01   1.4279E-04  0.0068
   1.2918E+01   1.3232E+01   1.3721E-04  0.0068
   1.3232E+01   1.3554E+01   1.3255E-04  0.0068
   1.3554E+01   1.3884E+01   1.2749E-04  0.0069
   1.3884E+01   1.4222E+01   1.2171E-04  0.0070
   1.4222E+01   1.4568E+01   1.1706E-04  0.0070
   1.4568E+01   1.4922E+01   1.1150E-04  0.0071
   1.4922E+01   1.5285E+01   1.0864E-04  0.0071
   1.5285E+01   1.5657E+01   1.0161E-04  0.0073
   1.5657E+01   1.6038E+01   9.8443E-05  0.0073
   1.6038E+01   1.6428E+01   9.3540E-05  0.0074
   1.6428E+01   1.6828E+01   8.9847E-05  0.0075
   1.6828E+01   1.7237E+01   8.4637E-05  0.0076
   1.7237E+01   1.7657E+01   8.2671E-05  0.0076
   1.7657E+01   1.8086E+01   7.8411E-05  0.0077
   1.8086E+01   1.8526E+01   7.5087E-05  0.0078
   1.8526E+01   1.8977E+01   7.3346E-05  0.0078
   1.8977E+01   1.9439E+01   7.0894E-05  0.0078
   1.9439E+01   1.9912E+01   6.9550E-05  0.0078
   1.9912E+01   2.0396E+01   7.0257E-05  0.0077
   2.0396E+01   2.0893E+01   6.8718E-05  0.0077
   2.0893E+01   2.1401E+01   6.5681E-05  0.0077
   2.1401E+01   2.1922E+01   6.2254E-05  0.0079
   2.1922E+01   2.2455E+01   5.9377E-05  0.0079
   2.2455E+01   2.3001E+01   5.6480E-05  0.0081
   2.3001E+01   2.3561E+01   5.4135E-05  0.0081
   2.3561E+01   2.4134E+01   5.1268E-05  0.0083
   2.4134E+01   2.4721E+01   4.8542E-05  0.0084
   2.4721E+01   2.5323E+01   4.7053E-05  0.0084
   2.5323E+01   2.5939E+01   4.4419E-05  0.0085
   2.5939E+01   2.6570E+01   4.1450E-05  0.0087
   2.6570E+01   2.7217E+01   3.9915E-05  0.0088
   2.7217E+01   2.7879E+01   3.7257E-05  0.0090
   2.7879E+01   2.8557E+01   3.5028E-05  0.0092
   2.8557E+01   2.9252E+01   3.3076E-05  0.0093
   2.9252E+01   2.9964E+01   3.0748E-05  0.0096
   2.9964E+01   3.0693E+01   2.9274E-05  0.0097
   3.0693E+01   3.1440E+01   2.7124E-05  0.0099
   3.1440E+01   3.2205E+01   2.6407E-05  0.0100
   3.2205E+01   3.2988E+01   2.4330E-05  0.0102
   3.2988E+01   3.3791E+01   2.2312E-05  0.0106
   3.3791E+01   3.4613E+01   2.0745E-05  0.0108
   3.4613E+01   3.5455E+01   1.9106E-05  0.0111
   3.5455E+01   3.6318E+01   1.7980E-05  0.0114
   3.6318E+01   3.7201E+01   1.6806E-05  0.0116
   3.7201E+01   3.8106E+01   1.5525E-05  0.0119
   3.8106E+01   3.9034E+01   1.4297E-05  0.0123
   3.9034E+01   3.9983E+01   1.3124E-05  0.0127
   3.9983E+01   4.0956E+01   1.2080E-05  0.0130
   4.0956E+01   4.1953E+01   1.0802E-05  0.0136
   4.1953E+01   4.2973E+01   9.8066E-06  0.0141
   4.2973E+01   4.4019E+01   9.1567E-06  0.0145
   4.4019E+01   4.5090E+01   8.1474E-06  0.0151
   4.5090E+01   4.6187E+01   7.5638E-06  0.0155
   4.6187E+01   4.7311E+01   6.6491E-06  0.0164
   4.7311E+01   4.8462E+01   5.9647E-06  0.0171
   4.8462E+01   4.9641E+01   5.4431E-06  0.0177
   4.9641E+01   5.0849E+01   4.6647E-06  0.0188
   5.0849E+01   5.2086E+01   4.2111E-06  0.0196
   5.2086E+01   5.3353E+01   3.7197E-06  0.0206
   5.3353E+01   5.4651E+01   3.2277E-06  0.0218
   5.4651E+01   5.5981E+01   2.8006E-06  0.0232
   5.5981E+01   5.7343E+01   2.5461E-06  0.0240
   5.7343E+01   5.8738E+01   2.1431E-06  0.0259
   5.8738E+01   6.0168E+01   1.8892E-06  0.0272
   6.0168E+01   6.1632E+01   1.5247E-06  0.0299
   6.1632E+01   6.3131E+01   1.3217E-06  0.0318
   6.3131E+01   6.4667E+01   1.1627E-06  0.0335
   6.4667E+01   6.6240E+01   9.5589E-07  0.0365
   6.6240E+01   6.7852E+01   8.3391E-07  0.0386
   6.7852E+01   6.9503E+01   7.0871E-07  0.0413
   6.9503E+01   7.1194E+01   5.5350E-07  0.0462
   7.1194E+01   7.2926E+01   5.2880E-07  0.0467
   7.2926E+01   7.4701E+01   4.0127E-07  0.0530
   7.4701E+01   7.6518E+01   3.6863E-07  0.0546
   7.6518E+01   7.8380E+01   3.1476E-07  0.0584
   7.8380E+01   8.0287E+01   2.3177E-07  0.0673
   8.0287E+01   8.2240E+01   2.4777E-07  0.0643
   8.2240E+01   8.4241E+01   1.7691E-07  0.0752
   8.4241E+01   8.6291E+01   1.3466E-07  0.0851
   8.6291E+01   8.8391E+01   1.4289E-07  0.0816
   8.8391E+01   9.0541E+01   9.7647E-08  0.0976
   9.0541E+01   9.2744E+01   6.1736E-08  0.1213
   9.2744E+01   9.5001E+01   7.0019E-08  0.1125
   9.5001E+01   9.7312E+01   4.7589E-08  0.1348
   9.7312E+01   9.9680E+01   3.1254E-08  0.1644
   9.9680E+01   1.0211E+02   2.4739E-08  0.1826
   1.0211E+02   1.0459E+02   1.6906E-08  0.2182
   1.0459E+02   1.0713E+02   7.0734E-09  0.3333
   1.0713E+02   1.0974E+02   6.9054E-09  0.3333
   1.0974E+02   1.1241E+02   2.2471E-09  0.5774
   1.1241E+02   1.1515E+02   1.4625E-09  0.7071
   1.1515E+02   1.1795E+02   1.4278E-09  0.7071
   1.1795E+02   1.2082E+02   6.9692E-10  1.0000
   1.2082E+02   1.2376E+02   0.0000E+00  0.0000
   1.2376E+02   1.2677E+02   0.0000E+00  0.0000
   1.2677E+02   1.2985E+02   0.0000E+00  0.0000
   1.2985E+02   1.3301E+02   0.0000E+00  0.0000
   1.3301E+02   1.3625E+02   0.0000E+00  0.0000
   1.3625E+02   1.3956E+02   0.0000E+00  0.0000
   1.3956E+02   1.4296E+02   0.0000E+00  0.0000
   1.4296E+02   1.4644E+02   0.0000E+00  0.0000
   1.4644E+02   1.5000E+02   0.0000E+00  0.0000

#   sum over                 3.6779E-05
'no. =    1   reg = 113 - 213'
msuc: {\huge [t-cross] in region mesh}
msdr: {\it plotted by \ANGEL \version}
msdl: {\it calculated by \PHITS  3.26}
wt: s(0.7)
\vspace{-3}
  region surface crossing
  area  &=&   1.0000E+00 [cm^2]
e:
 
# Information for Restart Calculation
# This calculation was newly started
# istdev =  2 # 1:Batch variance, 2:History variance
# resc2  = 5.00000000000000000E+08 # Total source weight or Total source weight / maxcas
# resc3  = 5.00000000000000000E+08 # Total history number or Total batch number
# maxcas =   500000000 # History / Batch, only used for istdev=1
# bitrseed = 1101101111010011011000101101110001100110110010110001010100010001 # bit data of rseed
