[ T-Cross ]
    title = [t-cross] in region mesh
     mesh =  reg            # mesh type is region-wise
      reg =    1            # number of crossing regions
      non     r-from    r-to       area
      1       104       204        1.000000    
   e-type =    3            # e-mesh is log given by emin, emax and ne
     emin =  1.0000000E-02  # minimum value of e-mesh points
     emax =   150.0000      # maximum value of e-mesh points
#    edel =  2.4039514E-02  # mesh width of e-mesh points
       ne =    400          # number of e-mesh points
#    data = ( e(i), i = 1, ne + 1 )
#           1.00000E-02  1.02433E-02  1.04925E-02  1.07478E-02  1.10093E-02
#           1.12772E-02  1.15516E-02  1.18326E-02  1.21205E-02  1.24154E-02
#           1.27175E-02  1.30269E-02  1.33439E-02  1.36686E-02  1.40011E-02
#           1.43418E-02  1.46907E-02  1.50482E-02  1.54143E-02  1.57894E-02
#           1.61735E-02  1.65670E-02  1.69701E-02  1.73830E-02  1.78060E-02
#           1.82392E-02  1.86830E-02  1.91375E-02  1.96032E-02  2.00801E-02
#           2.05687E-02  2.10692E-02  2.15818E-02  2.21069E-02  2.26448E-02
#           2.31957E-02  2.37601E-02  2.43382E-02  2.49304E-02  2.55369E-02
#           2.61583E-02  2.67947E-02  2.74467E-02  2.81145E-02  2.87985E-02
#           2.94992E-02  3.02169E-02  3.09521E-02  3.17052E-02  3.24766E-02
#           3.32668E-02  3.40762E-02  3.49053E-02  3.57546E-02  3.66246E-02
#           3.75157E-02  3.84284E-02  3.93634E-02  4.03212E-02  4.13022E-02
#           4.23071E-02  4.33365E-02  4.43909E-02  4.54710E-02  4.65773E-02
#           4.77106E-02  4.88714E-02  5.00605E-02  5.12785E-02  5.25262E-02
#           5.38042E-02  5.51133E-02  5.64542E-02  5.78278E-02  5.92348E-02
#           6.06760E-02  6.21523E-02  6.36645E-02  6.52135E-02  6.68002E-02
#           6.84255E-02  7.00904E-02  7.17957E-02  7.35426E-02  7.53319E-02
#           7.71648E-02  7.90423E-02  8.09655E-02  8.29354E-02  8.49533E-02
#           8.70203E-02  8.91376E-02  9.13064E-02  9.35279E-02  9.58035E-02
#           9.81345E-02  1.00522E-01  1.02968E-01  1.05473E-01  1.08040E-01
#           1.10668E-01  1.13361E-01  1.16119E-01  1.18944E-01  1.21838E-01
#           1.24803E-01  1.27839E-01  1.30950E-01  1.34136E-01  1.37399E-01
#           1.40742E-01  1.44167E-01  1.47675E-01  1.51268E-01  1.54948E-01
#           1.58718E-01  1.62580E-01  1.66535E-01  1.70587E-01  1.74738E-01
#           1.78989E-01  1.83344E-01  1.87805E-01  1.92375E-01  1.97055E-01
#           2.01850E-01  2.06761E-01  2.11792E-01  2.16945E-01  2.22223E-01
#           2.27630E-01  2.33169E-01  2.38842E-01  2.44653E-01  2.50605E-01
#           2.56703E-01  2.62949E-01  2.69346E-01  2.75900E-01  2.82613E-01
#           2.89489E-01  2.96532E-01  3.03747E-01  3.11138E-01  3.18708E-01
#           3.26462E-01  3.34405E-01  3.42542E-01  3.50876E-01  3.59413E-01
#           3.68158E-01  3.77116E-01  3.86291E-01  3.95690E-01  4.05317E-01
#           4.15179E-01  4.25281E-01  4.35628E-01  4.46227E-01  4.57084E-01
#           4.68205E-01  4.79597E-01  4.91266E-01  5.03219E-01  5.15463E-01
#           5.28005E-01  5.40851E-01  5.54011E-01  5.67490E-01  5.81298E-01
#           5.95441E-01  6.09929E-01  6.24769E-01  6.39970E-01  6.55541E-01
#           6.71491E-01  6.87828E-01  7.04564E-01  7.21706E-01  7.39266E-01
#           7.57253E-01  7.75678E-01  7.94551E-01  8.13883E-01  8.33685E-01
#           8.53969E-01  8.74747E-01  8.96030E-01  9.17831E-01  9.40163E-01
#           9.63038E-01  9.86469E-01  1.01047E+00  1.03506E+00  1.06024E+00
#           1.08604E+00  1.11246E+00  1.13953E+00  1.16725E+00  1.19565E+00
#           1.22474E+00  1.25454E+00  1.28507E+00  1.31633E+00  1.34836E+00
#           1.38117E+00  1.41477E+00  1.44920E+00  1.48446E+00  1.52057E+00
#           1.55757E+00  1.59547E+00  1.63429E+00  1.67405E+00  1.71478E+00
#           1.75650E+00  1.79924E+00  1.84302E+00  1.88786E+00  1.93379E+00
#           1.98084E+00  2.02904E+00  2.07841E+00  2.12898E+00  2.18078E+00
#           2.23384E+00  2.28819E+00  2.34386E+00  2.40089E+00  2.45930E+00
#           2.51914E+00  2.58043E+00  2.64322E+00  2.70753E+00  2.77341E+00
#           2.84088E+00  2.91001E+00  2.98081E+00  3.05333E+00  3.12762E+00
#           3.20372E+00  3.28167E+00  3.36152E+00  3.44330E+00  3.52708E+00
#           3.61290E+00  3.70080E+00  3.79085E+00  3.88308E+00  3.97756E+00
#           4.07434E+00  4.17347E+00  4.27501E+00  4.37903E+00  4.48557E+00
#           4.59471E+00  4.70650E+00  4.82102E+00  4.93832E+00  5.05847E+00
#           5.18155E+00  5.30762E+00  5.43676E+00  5.56904E+00  5.70453E+00
#           5.84333E+00  5.98550E+00  6.13114E+00  6.28031E+00  6.43312E+00
#           6.58964E+00  6.74997E+00  6.91420E+00  7.08243E+00  7.25475E+00
#           7.43126E+00  7.61207E+00  7.79728E+00  7.98700E+00  8.18133E+00
#           8.38038E+00  8.58428E+00  8.79315E+00  9.00709E+00  9.22624E+00
#           9.45072E+00  9.68067E+00  9.91620E+00  1.01575E+01  1.04046E+01
#           1.06578E+01  1.09171E+01  1.11827E+01  1.14548E+01  1.17335E+01
#           1.20190E+01  1.23114E+01  1.26109E+01  1.29178E+01  1.32321E+01
#           1.35540E+01  1.38838E+01  1.42216E+01  1.45676E+01  1.49221E+01
#           1.52851E+01  1.56570E+01  1.60380E+01  1.64282E+01  1.68279E+01
#           1.72374E+01  1.76568E+01  1.80864E+01  1.85264E+01  1.89772E+01
#           1.94389E+01  1.99119E+01  2.03963E+01  2.08926E+01  2.14009E+01
#           2.19216E+01  2.24550E+01  2.30014E+01  2.35610E+01  2.41343E+01
#           2.47215E+01  2.53230E+01  2.59391E+01  2.65702E+01  2.72167E+01
#           2.78789E+01  2.85572E+01  2.92520E+01  2.99637E+01  3.06928E+01
#           3.14396E+01  3.22045E+01  3.29881E+01  3.37907E+01  3.46128E+01
#           3.54550E+01  3.63177E+01  3.72013E+01  3.81064E+01  3.90336E+01
#           3.99833E+01  4.09561E+01  4.19526E+01  4.29734E+01  4.40189E+01
#           4.50900E+01  4.61870E+01  4.73108E+01  4.84619E+01  4.96410E+01
#           5.08488E+01  5.20860E+01  5.33533E+01  5.46514E+01  5.59812E+01
#           5.73432E+01  5.87384E+01  6.01676E+01  6.16315E+01  6.31311E+01
#           6.46671E+01  6.62405E+01  6.78522E+01  6.95031E+01  7.11941E+01
#           7.29263E+01  7.47007E+01  7.65182E+01  7.83800E+01  8.02870E+01
#           8.22405E+01  8.42414E+01  8.62911E+01  8.83906E+01  9.05412E+01
#           9.27442E+01  9.50007E+01  9.73122E+01  9.96799E+01  1.02105E+02
#           1.04589E+02  1.07134E+02  1.09741E+02  1.12411E+02  1.15146E+02
#           1.17948E+02  1.20817E+02  1.23757E+02  1.26768E+02  1.29852E+02
#           1.33012E+02  1.36248E+02  1.39563E+02  1.42959E+02  1.46437E+02
#           1.50000E+02
     unit =    2            # unit is [1/cm^2/(MeV/n)/source]
     axis =  eng            # axis of output
     file = detector-05.out  # file name of output for the above axis
   output = f-curr          # surface crossing forward current spectrum
     part =  neutron  
# kf/name :  2112     
#    used :        main (  %)        temp (  %)       total (  %)
#  memory :         414 (  0)           0 (  0)         414 (  0)

#------------------------------------------------------------------------------
#newpage:
#   no. =    1   reg = 104 - 204

x: Energy [MeV/n]
y:  F-Curr [1/cm^2/(MeV/n)/source]         
p: xlog ylog afac(0.8) form(0.9)
h: n            x            y(neutron ),hh0l   n 
#  e-lower      e-upper      neutron     r.err 
   1.0000E-02   1.0243E-02   2.0262E-02  0.0201
   1.0243E-02   1.0493E-02   2.0327E-02  0.0199
   1.0493E-02   1.0748E-02   2.0518E-02  0.0195
   1.0748E-02   1.1009E-02   2.0206E-02  0.0195
   1.1009E-02   1.1277E-02   1.9678E-02  0.0195
   1.1277E-02   1.1552E-02   1.9178E-02  0.0195
   1.1552E-02   1.1833E-02   1.8936E-02  0.0194
   1.1833E-02   1.2121E-02   1.8382E-02  0.0194
   1.2121E-02   1.2415E-02   1.7585E-02  0.0196
   1.2415E-02   1.2718E-02   1.7744E-02  0.0193
   1.2718E-02   1.3027E-02   1.7044E-02  0.0195
   1.3027E-02   1.3344E-02   1.7106E-02  0.0192
   1.3344E-02   1.3669E-02   1.6873E-02  0.0191
   1.3669E-02   1.4001E-02   1.6207E-02  0.0193
   1.4001E-02   1.4342E-02   1.6492E-02  0.0189
   1.4342E-02   1.4691E-02   1.5515E-02  0.0192
   1.4691E-02   1.5048E-02   1.5544E-02  0.0190
   1.5048E-02   1.5414E-02   1.5787E-02  0.0186
   1.5414E-02   1.5789E-02   1.5246E-02  0.0187
   1.5789E-02   1.6174E-02   1.4853E-02  0.0187
   1.6174E-02   1.6567E-02   1.4485E-02  0.0187
   1.6567E-02   1.6970E-02   1.4478E-02  0.0185
   1.6970E-02   1.7383E-02   1.3679E-02  0.0188
   1.7383E-02   1.7806E-02   1.3316E-02  0.0188
   1.7806E-02   1.8239E-02   1.3526E-02  0.0185
   1.8239E-02   1.8683E-02   1.3076E-02  0.0186
   1.8683E-02   1.9138E-02   1.2662E-02  0.0186
   1.9138E-02   1.9603E-02   1.3298E-02  0.0180
   1.9603E-02   2.0080E-02   1.2420E-02  0.0184
   2.0080E-02   2.0569E-02   1.2543E-02  0.0181
   2.0569E-02   2.1069E-02   1.2193E-02  0.0181
   2.1069E-02   2.1582E-02   1.1759E-02  0.0182
   2.1582E-02   2.2107E-02   1.1628E-02  0.0181
   2.2107E-02   2.2645E-02   1.1263E-02  0.0182
   2.2645E-02   2.3196E-02   1.1159E-02  0.0180
   2.3196E-02   2.3760E-02   1.0812E-02  0.0181
   2.3760E-02   2.4338E-02   1.0839E-02  0.0179
   2.4338E-02   2.4930E-02   1.0507E-02  0.0179
   2.4930E-02   2.5537E-02   1.0521E-02  0.0177
   2.5537E-02   2.6158E-02   1.0249E-02  0.0177
   2.6158E-02   2.6795E-02   1.0280E-02  0.0175
   2.6795E-02   2.7447E-02   1.0087E-02  0.0174
   2.7447E-02   2.8114E-02   9.5208E-03  0.0177
   2.8114E-02   2.8799E-02   9.4891E-03  0.0176
   2.8799E-02   2.9499E-02   9.1909E-03  0.0176
   2.9499E-02   3.0217E-02   9.1398E-03  0.0175
   3.0217E-02   3.0952E-02   8.7160E-03  0.0177
   3.0952E-02   3.1705E-02   8.9578E-03  0.0172
   3.1705E-02   3.2477E-02   8.8591E-03  0.0171
   3.2477E-02   3.3267E-02   8.6537E-03  0.0171
   3.3267E-02   3.4076E-02   8.4630E-03  0.0171
   3.4076E-02   3.4905E-02   8.0014E-03  0.0174
   3.4905E-02   3.5755E-02   8.0457E-03  0.0171
   3.5755E-02   3.6625E-02   7.8891E-03  0.0171
   3.6625E-02   3.7516E-02   7.8936E-03  0.0169
   3.7516E-02   3.8428E-02   7.5067E-03  0.0171
   3.8428E-02   3.9363E-02   7.5081E-03  0.0169
   3.9363E-02   4.0321E-02   7.3109E-03  0.0169
   4.0321E-02   4.1302E-02   7.0313E-03  0.0170
   4.1302E-02   4.2307E-02   7.1688E-03  0.0167
   4.2307E-02   4.3337E-02   6.8314E-03  0.0169
   4.3337E-02   4.4391E-02   6.8512E-03  0.0166
   4.4391E-02   4.5471E-02   6.7126E-03  0.0166
   4.5471E-02   4.6577E-02   6.5332E-03  0.0166
   4.6577E-02   4.7711E-02   6.3825E-03  0.0166
   4.7711E-02   4.8871E-02   6.3609E-03  0.0165
   4.8871E-02   5.0061E-02   6.1156E-03  0.0166
   5.0061E-02   5.1279E-02   6.0508E-03  0.0165
   5.1279E-02   5.2526E-02   5.9760E-03  0.0164
   5.2526E-02   5.3804E-02   5.9092E-03  0.0163
   5.3804E-02   5.5113E-02   5.9002E-03  0.0161
   5.5113E-02   5.6454E-02   5.6602E-03  0.0162
   5.6454E-02   5.7828E-02   5.4558E-03  0.0163
   5.7828E-02   5.9235E-02   5.5544E-03  0.0160
   5.9235E-02   6.0676E-02   5.4315E-03  0.0160
   6.0676E-02   6.2152E-02   5.1589E-03  0.0162
   6.2152E-02   6.3665E-02   5.2030E-03  0.0159
   6.3665E-02   6.5214E-02   5.1969E-03  0.0158
   6.5214E-02   6.6800E-02   5.0129E-03  0.0159
   6.6800E-02   6.8426E-02   5.1480E-03  0.0155
   6.8426E-02   7.0090E-02   4.7980E-03  0.0158
   7.0090E-02   7.1796E-02   4.7157E-03  0.0158
   7.1796E-02   7.3543E-02   4.6358E-03  0.0157
   7.3543E-02   7.5332E-02   4.5693E-03  0.0156
   7.5332E-02   7.7165E-02   4.5082E-03  0.0156
   7.7165E-02   7.9042E-02   4.4464E-03  0.0155
   7.9042E-02   8.0965E-02   4.4021E-03  0.0154
   8.0965E-02   8.2935E-02   4.2031E-03  0.0155
   8.2935E-02   8.4953E-02   4.2331E-03  0.0153
   8.4953E-02   8.7020E-02   4.1171E-03  0.0153
   8.7020E-02   8.9138E-02   4.0519E-03  0.0153
   8.9138E-02   9.1306E-02   4.1157E-03  0.0150
   9.1306E-02   9.3528E-02   3.9126E-03  0.0152
   9.3528E-02   9.5804E-02   3.9348E-03  0.0149
   9.5804E-02   9.8134E-02   3.8362E-03  0.0150
   9.8134E-02   1.0052E-01   3.7258E-03  0.0150
   1.0052E-01   1.0297E-01   3.5964E-03  0.0151
   1.0297E-01   1.0547E-01   3.5421E-03  0.0150
   1.0547E-01   1.0804E-01   3.5328E-03  0.0149
   1.0804E-01   1.1067E-01   3.4709E-03  0.0148
   1.1067E-01   1.1336E-01   3.4739E-03  0.0146
   1.1336E-01   1.1612E-01   3.3124E-03  0.0148
   1.1612E-01   1.1894E-01   3.2493E-03  0.0148
   1.1894E-01   1.2184E-01   3.1351E-03  0.0148
   1.2184E-01   1.2480E-01   3.1851E-03  0.0146
   1.2480E-01   1.2784E-01   3.2372E-03  0.0143
   1.2784E-01   1.3095E-01   3.0163E-03  0.0146
   1.3095E-01   1.3414E-01   2.9685E-03  0.0145
   1.3414E-01   1.3740E-01   3.0138E-03  0.0143
   1.3740E-01   1.4074E-01   2.9126E-03  0.0143
   1.4074E-01   1.4417E-01   2.8017E-03  0.0144
   1.4417E-01   1.4767E-01   2.8121E-03  0.0142
   1.4767E-01   1.5127E-01   2.7002E-03  0.0144
   1.5127E-01   1.5495E-01   2.7415E-03  0.0141
   1.5495E-01   1.5872E-01   2.7236E-03  0.0140
   1.5872E-01   1.6258E-01   2.6511E-03  0.0140
   1.6258E-01   1.6654E-01   2.5978E-03  0.0140
   1.6654E-01   1.7059E-01   2.5420E-03  0.0139
   1.7059E-01   1.7474E-01   2.4472E-03  0.0140
   1.7474E-01   1.7899E-01   2.3749E-03  0.0141
   1.7899E-01   1.8334E-01   2.3339E-03  0.0140
   1.8334E-01   1.8781E-01   2.3376E-03  0.0138
   1.8781E-01   1.9237E-01   2.2718E-03  0.0139
   1.9237E-01   1.9706E-01   2.2561E-03  0.0138
   1.9706E-01   2.0185E-01   2.2196E-03  0.0137
   2.0185E-01   2.0676E-01   2.2035E-03  0.0136
   2.0676E-01   2.1179E-01   2.1216E-03  0.0137
   2.1179E-01   2.1694E-01   2.0551E-03  0.0137
   2.1694E-01   2.2222E-01   2.0502E-03  0.0136
   2.2222E-01   2.2763E-01   2.0021E-03  0.0136
   2.2763E-01   2.3317E-01   2.0105E-03  0.0134
   2.3317E-01   2.3884E-01   1.8945E-03  0.0136
   2.3884E-01   2.4465E-01   1.9118E-03  0.0134
   2.4465E-01   2.5061E-01   1.8390E-03  0.0135
   2.5061E-01   2.5670E-01   1.8565E-03  0.0133
   2.5670E-01   2.6295E-01   1.7858E-03  0.0134
   2.6295E-01   2.6935E-01   1.7339E-03  0.0134
   2.6935E-01   2.7590E-01   1.7649E-03  0.0131
   2.7590E-01   2.8261E-01   1.7286E-03  0.0131
   2.8261E-01   2.8949E-01   1.6721E-03  0.0132
   2.8949E-01   2.9653E-01   1.6847E-03  0.0130
   2.9653E-01   3.0375E-01   1.6089E-03  0.0131
   3.0375E-01   3.1114E-01   1.5691E-03  0.0131
   3.1114E-01   3.1871E-01   1.5597E-03  0.0130
   3.1871E-01   3.2646E-01   1.5563E-03  0.0129
   3.2646E-01   3.3441E-01   1.4604E-03  0.0131
   3.3441E-01   3.4254E-01   1.4627E-03  0.0130
   3.4254E-01   3.5088E-01   1.4192E-03  0.0130
   3.5088E-01   3.5941E-01   1.3794E-03  0.0130
   3.5941E-01   3.6816E-01   1.3793E-03  0.0129
   3.6816E-01   3.7712E-01   1.3457E-03  0.0129
   3.7712E-01   3.8629E-01   1.3043E-03  0.0129
   3.8629E-01   3.9569E-01   1.2930E-03  0.0128
   3.9569E-01   4.0532E-01   1.2448E-03  0.0129
   4.0532E-01   4.1518E-01   1.2124E-03  0.0129
   4.1518E-01   4.2528E-01   1.2463E-03  0.0126
   4.2528E-01   4.3563E-01   1.1960E-03  0.0127
   4.3563E-01   4.4623E-01   1.1647E-03  0.0127
   4.4623E-01   4.5708E-01   1.1094E-03  0.0129
   4.5708E-01   4.6821E-01   1.1186E-03  0.0127
   4.6821E-01   4.7960E-01   1.0994E-03  0.0126
   4.7960E-01   4.9127E-01   1.0482E-03  0.0128
   4.9127E-01   5.0322E-01   1.0073E-03  0.0129
   5.0322E-01   5.1546E-01   1.0293E-03  0.0126
   5.1546E-01   5.2800E-01   9.7308E-04  0.0128
   5.2800E-01   5.4085E-01   9.7254E-04  0.0127
   5.4085E-01   5.5401E-01   9.4214E-04  0.0127
   5.5401E-01   5.6749E-01   9.2540E-04  0.0127
   5.6749E-01   5.8130E-01   8.8503E-04  0.0128
   5.8130E-01   5.9544E-01   8.8211E-04  0.0127
   5.9544E-01   6.0993E-01   8.5094E-04  0.0127
   6.0993E-01   6.2477E-01   8.3895E-04  0.0127
   6.2477E-01   6.3997E-01   8.0356E-04  0.0128
   6.3997E-01   6.5554E-01   7.6084E-04  0.0130
   6.5554E-01   6.7149E-01   7.6502E-04  0.0128
   6.7149E-01   6.8783E-01   7.3535E-04  0.0129
   6.8783E-01   7.0456E-01   7.1884E-04  0.0129
   7.0456E-01   7.2171E-01   6.8064E-04  0.0131
   7.2171E-01   7.3927E-01   6.5975E-04  0.0131
   7.3927E-01   7.5725E-01   6.6081E-04  0.0130
   7.5725E-01   7.7568E-01   6.2352E-04  0.0132
   7.7568E-01   7.9455E-01   5.9980E-04  0.0133
   7.9455E-01   8.1388E-01   5.7345E-04  0.0134
   8.1388E-01   8.3368E-01   5.6751E-04  0.0133
   8.3368E-01   8.5397E-01   5.3510E-04  0.0136
   8.5397E-01   8.7475E-01   5.3538E-04  0.0134
   8.7475E-01   8.9603E-01   5.1505E-04  0.0135
   8.9603E-01   9.1783E-01   4.7649E-04  0.0139
   9.1783E-01   9.4016E-01   4.7269E-04  0.0138
   9.4016E-01   9.6304E-01   4.5255E-04  0.0139
   9.6304E-01   9.8647E-01   4.2020E-04  0.0143
   9.8647E-01   1.0105E+00   4.0922E-04  0.0143
   1.0105E+00   1.0351E+00   4.0650E-04  0.0141
   1.0351E+00   1.0602E+00   4.0407E-04  0.0140
   1.0602E+00   1.0860E+00   4.1192E-04  0.0137
   1.0860E+00   1.1125E+00   4.2923E-04  0.0133
   1.1125E+00   1.1395E+00   4.4024E-04  0.0130
   1.1395E+00   1.1673E+00   4.5215E-04  0.0126
   1.1673E+00   1.1957E+00   4.6725E-04  0.0123
   1.1957E+00   1.2247E+00   4.7224E-04  0.0121
   1.2247E+00   1.2545E+00   4.8176E-04  0.0118
   1.2545E+00   1.2851E+00   4.8722E-04  0.0116
   1.2851E+00   1.3163E+00   4.7485E-04  0.0116
   1.3163E+00   1.3484E+00   5.0163E-04  0.0112
   1.3484E+00   1.3812E+00   5.0435E-04  0.0110
   1.3812E+00   1.4148E+00   5.1070E-04  0.0108
   1.4148E+00   1.4492E+00   5.1565E-04  0.0106
   1.4492E+00   1.4845E+00   5.1015E-04  0.0105
   1.4845E+00   1.5206E+00   5.2677E-04  0.0103
   1.5206E+00   1.5576E+00   5.1283E-04  0.0103
   1.5576E+00   1.5955E+00   5.0764E-04  0.0102
   1.5955E+00   1.6343E+00   5.2997E-04  0.0099
   1.6343E+00   1.6741E+00   5.3371E-04  0.0097
   1.6741E+00   1.7148E+00   5.4529E-04  0.0095
   1.7148E+00   1.7565E+00   5.3794E-04  0.0094
   1.7565E+00   1.7992E+00   5.3328E-04  0.0094
   1.7992E+00   1.8430E+00   5.3170E-04  0.0093
   1.8430E+00   1.8879E+00   5.3106E-04  0.0092
   1.8879E+00   1.9338E+00   5.3896E-04  0.0090
   1.9338E+00   1.9808E+00   5.3073E-04  0.0090
   1.9808E+00   2.0290E+00   5.4038E-04  0.0088
   2.0290E+00   2.0784E+00   5.3403E-04  0.0087
   2.0784E+00   2.1290E+00   5.1640E-04  0.0088
   2.1290E+00   2.1808E+00   5.0734E-04  0.0087
   2.1808E+00   2.2338E+00   5.0160E-04  0.0087
   2.2338E+00   2.2882E+00   4.9688E-04  0.0086
   2.2882E+00   2.3439E+00   4.9243E-04  0.0085
   2.3439E+00   2.4009E+00   4.9598E-04  0.0084
   2.4009E+00   2.4593E+00   4.8800E-04  0.0084
   2.4593E+00   2.5191E+00   4.7603E-04  0.0084
   2.5191E+00   2.5804E+00   4.5431E-04  0.0085
   2.5804E+00   2.6432E+00   4.4253E-04  0.0085
   2.6432E+00   2.7075E+00   4.2865E-04  0.0085
   2.7075E+00   2.7734E+00   4.2683E-04  0.0084
   2.7734E+00   2.8409E+00   4.1663E-04  0.0084
   2.8409E+00   2.9100E+00   4.1319E-04  0.0084
   2.9100E+00   2.9808E+00   4.0000E-04  0.0084
   2.9808E+00   3.0533E+00   3.9305E-04  0.0084
   3.0533E+00   3.1276E+00   3.7694E-04  0.0085
   3.1276E+00   3.2037E+00   3.5938E-04  0.0086
   3.2037E+00   3.2817E+00   3.4428E-04  0.0086
   3.2817E+00   3.3615E+00   3.2476E-04  0.0088
   3.3615E+00   3.4433E+00   3.1692E-04  0.0088
   3.4433E+00   3.5271E+00   3.1027E-04  0.0088
   3.5271E+00   3.6129E+00   3.0650E-04  0.0087
   3.6129E+00   3.7008E+00   2.8938E-04  0.0089
   3.7008E+00   3.7908E+00   2.7353E-04  0.0090
   3.7908E+00   3.8831E+00   2.6579E-04  0.0090
   3.8831E+00   3.9776E+00   2.5555E-04  0.0091
   3.9776E+00   4.0743E+00   2.4395E-04  0.0092
   4.0743E+00   4.1735E+00   2.3131E-04  0.0093
   4.1735E+00   4.2750E+00   2.1849E-04  0.0095
   4.2750E+00   4.3790E+00   2.0976E-04  0.0096
   4.3790E+00   4.4856E+00   1.9958E-04  0.0097
   4.4856E+00   4.5947E+00   1.8707E-04  0.0099
   4.5947E+00   4.7065E+00   1.7756E-04  0.0100
   4.7065E+00   4.8210E+00   1.7050E-04  0.0101
   4.8210E+00   4.9383E+00   1.6194E-04  0.0103
   4.9383E+00   5.0585E+00   1.5288E-04  0.0104
   5.0585E+00   5.1815E+00   1.4528E-04  0.0106
   5.1815E+00   5.3076E+00   1.3884E-04  0.0107
   5.3076E+00   5.4368E+00   1.3043E-04  0.0109
   5.4368E+00   5.5690E+00   1.2402E-04  0.0110
   5.5690E+00   5.7045E+00   1.1668E-04  0.0113
   5.7045E+00   5.8433E+00   1.0849E-04  0.0115
   5.8433E+00   5.9855E+00   1.0397E-04  0.0116
   5.9855E+00   6.1311E+00   9.9497E-05  0.0117
   6.1311E+00   6.2803E+00   9.1684E-05  0.0121
   6.2803E+00   6.4331E+00   8.7720E-05  0.0122
   6.4331E+00   6.5896E+00   8.4639E-05  0.0123
   6.5896E+00   6.7500E+00   7.8213E-05  0.0126
   6.7500E+00   6.9142E+00   7.4023E-05  0.0128
   6.9142E+00   7.0824E+00   7.2116E-05  0.0128
   7.0824E+00   7.2548E+00   6.6724E-05  0.0132
   7.2548E+00   7.4313E+00   6.4403E-05  0.0133
   7.4313E+00   7.6121E+00   6.1955E-05  0.0134
   7.6121E+00   7.7973E+00   5.8583E-05  0.0136
   7.7973E+00   7.9870E+00   5.7597E-05  0.0135
   7.9870E+00   8.1813E+00   5.3754E-05  0.0138
   8.1813E+00   8.3804E+00   5.2663E-05  0.0138
   8.3804E+00   8.5843E+00   5.0382E-05  0.0139
   8.5843E+00   8.7931E+00   4.7989E-05  0.0141
   8.7931E+00   9.0071E+00   4.7634E-05  0.0140
   9.0071E+00   9.2262E+00   4.5494E-05  0.0142
   9.2262E+00   9.4507E+00   4.5327E-05  0.0140
   9.4507E+00   9.6807E+00   4.4067E-05  0.0140
   9.6807E+00   9.9162E+00   4.2473E-05  0.0141
   9.9162E+00   1.0157E+01   4.1220E-05  0.0142
   1.0157E+01   1.0405E+01   4.0791E-05  0.0141
   1.0405E+01   1.0658E+01   3.9320E-05  0.0142
   1.0658E+01   1.0917E+01   3.9516E-05  0.0140
   1.0917E+01   1.1183E+01   3.8792E-05  0.0139
   1.1183E+01   1.1455E+01   3.8665E-05  0.0138
   1.1455E+01   1.1733E+01   3.7642E-05  0.0138
   1.1733E+01   1.2019E+01   3.7757E-05  0.0136
   1.2019E+01   1.2311E+01   3.8337E-05  0.0133
   1.2311E+01   1.2611E+01   3.6933E-05  0.0134
   1.2611E+01   1.2918E+01   3.7030E-05  0.0133
   1.2918E+01   1.3232E+01   3.6990E-05  0.0131
   1.3232E+01   1.3554E+01   3.6351E-05  0.0131
   1.3554E+01   1.3884E+01   3.5933E-05  0.0130
   1.3884E+01   1.4222E+01   3.6533E-05  0.0127
   1.4222E+01   1.4568E+01   3.5790E-05  0.0127
   1.4568E+01   1.4922E+01   3.6249E-05  0.0125
   1.4922E+01   1.5285E+01   3.5580E-05  0.0124
   1.5285E+01   1.5657E+01   3.6098E-05  0.0122
   1.5657E+01   1.6038E+01   3.6063E-05  0.0121
   1.6038E+01   1.6428E+01   3.5524E-05  0.0120
   1.6428E+01   1.6828E+01   3.6206E-05  0.0118
   1.6828E+01   1.7237E+01   3.5038E-05  0.0118
   1.7237E+01   1.7657E+01   3.5267E-05  0.0116
   1.7657E+01   1.8086E+01   3.5721E-05  0.0114
   1.8086E+01   1.8526E+01   3.5475E-05  0.0113
   1.8526E+01   1.8977E+01   3.6676E-05  0.0110
   1.8977E+01   1.9439E+01   3.5345E-05  0.0111
   1.9439E+01   1.9912E+01   3.6290E-05  0.0108
   1.9912E+01   2.0396E+01   3.5655E-05  0.0108
   2.0396E+01   2.0893E+01   3.6328E-05  0.0105
   2.0893E+01   2.1401E+01   3.6472E-05  0.0104
   2.1401E+01   2.1922E+01   3.7503E-05  0.0101
   2.1922E+01   2.2455E+01   3.7820E-05  0.0100
   2.2455E+01   2.3001E+01   3.7610E-05  0.0099
   2.3001E+01   2.3561E+01   3.9154E-05  0.0096
   2.3561E+01   2.4134E+01   3.8161E-05  0.0096
   2.4134E+01   2.4721E+01   3.9400E-05  0.0093
   2.4721E+01   2.5323E+01   4.0416E-05  0.0091
   2.5323E+01   2.5939E+01   4.1001E-05  0.0089
   2.5939E+01   2.6570E+01   4.2204E-05  0.0087
   2.6570E+01   2.7217E+01   4.2863E-05  0.0085
   2.7217E+01   2.7879E+01   4.4298E-05  0.0083
   2.7879E+01   2.8557E+01   4.5356E-05  0.0081
   2.8557E+01   2.9252E+01   4.7189E-05  0.0078
   2.9252E+01   2.9964E+01   4.9008E-05  0.0076
   2.9964E+01   3.0693E+01   5.0683E-05  0.0074
   3.0693E+01   3.1440E+01   5.3207E-05  0.0071
   3.1440E+01   3.2205E+01   5.5293E-05  0.0069
   3.2205E+01   3.2988E+01   5.8114E-05  0.0066
   3.2988E+01   3.3791E+01   6.1142E-05  0.0064
   3.3791E+01   3.4613E+01   6.4324E-05  0.0062
   3.4613E+01   3.5455E+01   6.6189E-05  0.0060
   3.5455E+01   3.6318E+01   7.0527E-05  0.0057
   3.6318E+01   3.7201E+01   7.4288E-05  0.0055
   3.7201E+01   3.8106E+01   7.7438E-05  0.0053
   3.8106E+01   3.9034E+01   8.1820E-05  0.0051
   3.9034E+01   3.9983E+01   8.5636E-05  0.0050
   3.9983E+01   4.0956E+01   8.9957E-05  0.0048
   4.0956E+01   4.1953E+01   9.3020E-05  0.0046
   4.1953E+01   4.2973E+01   9.7210E-05  0.0045
   4.2973E+01   4.4019E+01   1.0027E-04  0.0044
   4.4019E+01   4.5090E+01   1.0332E-04  0.0043
   4.5090E+01   4.6187E+01   1.0692E-04  0.0041
   4.6187E+01   4.7311E+01   1.0938E-04  0.0040
   4.7311E+01   4.8462E+01   1.1147E-04  0.0039
   4.8462E+01   4.9641E+01   1.1287E-04  0.0039
   4.9641E+01   5.0849E+01   1.1495E-04  0.0038
   5.0849E+01   5.2086E+01   1.1478E-04  0.0038
   5.2086E+01   5.3353E+01   1.1478E-04  0.0037
   5.3353E+01   5.4651E+01   1.1459E-04  0.0037
   5.4651E+01   5.5981E+01   1.1282E-04  0.0037
   5.5981E+01   5.7343E+01   1.1052E-04  0.0036
   5.7343E+01   5.8738E+01   1.0787E-04  0.0036
   5.8738E+01   6.0168E+01   1.0373E-04  0.0037
   6.0168E+01   6.1632E+01   9.9940E-05  0.0037
   6.1632E+01   6.3131E+01   9.5364E-05  0.0037
   6.3131E+01   6.4667E+01   8.9919E-05  0.0038
   6.4667E+01   6.6240E+01   8.4253E-05  0.0039
   6.6240E+01   6.7852E+01   7.8455E-05  0.0040
   6.7852E+01   6.9503E+01   7.1978E-05  0.0041
   6.9503E+01   7.1194E+01   6.5843E-05  0.0042
   7.1194E+01   7.2926E+01   5.9396E-05  0.0044
   7.2926E+01   7.4701E+01   5.3447E-05  0.0046
   7.4701E+01   7.6518E+01   4.8060E-05  0.0048
   7.6518E+01   7.8380E+01   4.3015E-05  0.0050
   7.8380E+01   8.0287E+01   3.7807E-05  0.0053
   8.0287E+01   8.2240E+01   3.3388E-05  0.0055
   8.2240E+01   8.4241E+01   2.9345E-05  0.0058
   8.4241E+01   8.6291E+01   2.5574E-05  0.0062
   8.6291E+01   8.8391E+01   2.2307E-05  0.0065
   8.8391E+01   9.0541E+01   1.9467E-05  0.0069
   9.0541E+01   9.2744E+01   1.6818E-05  0.0073
   9.2744E+01   9.5001E+01   1.4335E-05  0.0079
   9.5001E+01   9.7312E+01   1.2328E-05  0.0084
   9.7312E+01   9.9680E+01   1.0593E-05  0.0089
   9.9680E+01   1.0211E+02   9.1676E-06  0.0095
   1.0211E+02   1.0459E+02   7.7712E-06  0.0102
   1.0459E+02   1.0713E+02   6.5256E-06  0.0110
   1.0713E+02   1.0974E+02   5.7077E-06  0.0116
   1.0974E+02   1.1241E+02   4.6950E-06  0.0126
   1.1241E+02   1.1515E+02   4.0650E-06  0.0134
   1.1515E+02   1.1795E+02   3.3338E-06  0.0146
   1.1795E+02   1.2082E+02   2.7724E-06  0.0159
   1.2082E+02   1.2376E+02   2.1037E-06  0.0180
   1.2376E+02   1.2677E+02   1.6625E-06  0.0200
   1.2677E+02   1.2985E+02   1.0887E-06  0.0244
   1.2985E+02   1.3301E+02   7.6090E-07  0.0288
   1.3301E+02   1.3625E+02   3.8501E-07  0.0401
   1.3625E+02   1.3956E+02   8.4464E-08  0.0845
   1.3956E+02   1.4296E+02   0.0000E+00  0.0000
   1.4296E+02   1.4644E+02   0.0000E+00  0.0000
   1.4644E+02   1.5000E+02   0.0000E+00  0.0000

#   sum over                 6.0289E-05
'no. =    1   reg = 104 - 204'
msuc: {\huge [t-cross] in region mesh}
msdr: {\it plotted by \ANGEL \version}
msdl: {\it calculated by \PHITS  3.26}
wt: s(0.7)
\vspace{-3}
  region surface crossing
  area  &=&   1.0000E+00 [cm^2]
e:
 
# Information for Restart Calculation
# This calculation was newly started
# istdev =  2 # 1:Batch variance, 2:History variance
# resc2  = 5.00000000000000000E+08 # Total source weight or Total source weight / maxcas
# resc3  = 5.00000000000000000E+08 # Total history number or Total batch number
# maxcas =   500000000 # History / Batch, only used for istdev=1
# bitrseed = 1101101111010011011000101101110001100110110010110001010100010001 # bit data of rseed
