[ T-Cross ]
    title = [t-cross] in region mesh
     mesh =  reg            # mesh type is region-wise
      reg =    1            # number of crossing regions
      non     r-from    r-to       area
      1       114       214        1.000000    
   e-type =    3            # e-mesh is log given by emin, emax and ne
     emin =  1.0000000E-02  # minimum value of e-mesh points
     emax =   150.0000      # maximum value of e-mesh points
#    edel =  2.4039514E-02  # mesh width of e-mesh points
       ne =    400          # number of e-mesh points
#    data = ( e(i), i = 1, ne + 1 )
#           1.00000E-02  1.02433E-02  1.04925E-02  1.07478E-02  1.10093E-02
#           1.12772E-02  1.15516E-02  1.18326E-02  1.21205E-02  1.24154E-02
#           1.27175E-02  1.30269E-02  1.33439E-02  1.36686E-02  1.40011E-02
#           1.43418E-02  1.46907E-02  1.50482E-02  1.54143E-02  1.57894E-02
#           1.61735E-02  1.65670E-02  1.69701E-02  1.73830E-02  1.78060E-02
#           1.82392E-02  1.86830E-02  1.91375E-02  1.96032E-02  2.00801E-02
#           2.05687E-02  2.10692E-02  2.15818E-02  2.21069E-02  2.26448E-02
#           2.31957E-02  2.37601E-02  2.43382E-02  2.49304E-02  2.55369E-02
#           2.61583E-02  2.67947E-02  2.74467E-02  2.81145E-02  2.87985E-02
#           2.94992E-02  3.02169E-02  3.09521E-02  3.17052E-02  3.24766E-02
#           3.32668E-02  3.40762E-02  3.49053E-02  3.57546E-02  3.66246E-02
#           3.75157E-02  3.84284E-02  3.93634E-02  4.03212E-02  4.13022E-02
#           4.23071E-02  4.33365E-02  4.43909E-02  4.54710E-02  4.65773E-02
#           4.77106E-02  4.88714E-02  5.00605E-02  5.12785E-02  5.25262E-02
#           5.38042E-02  5.51133E-02  5.64542E-02  5.78278E-02  5.92348E-02
#           6.06760E-02  6.21523E-02  6.36645E-02  6.52135E-02  6.68002E-02
#           6.84255E-02  7.00904E-02  7.17957E-02  7.35426E-02  7.53319E-02
#           7.71648E-02  7.90423E-02  8.09655E-02  8.29354E-02  8.49533E-02
#           8.70203E-02  8.91376E-02  9.13064E-02  9.35279E-02  9.58035E-02
#           9.81345E-02  1.00522E-01  1.02968E-01  1.05473E-01  1.08040E-01
#           1.10668E-01  1.13361E-01  1.16119E-01  1.18944E-01  1.21838E-01
#           1.24803E-01  1.27839E-01  1.30950E-01  1.34136E-01  1.37399E-01
#           1.40742E-01  1.44167E-01  1.47675E-01  1.51268E-01  1.54948E-01
#           1.58718E-01  1.62580E-01  1.66535E-01  1.70587E-01  1.74738E-01
#           1.78989E-01  1.83344E-01  1.87805E-01  1.92375E-01  1.97055E-01
#           2.01850E-01  2.06761E-01  2.11792E-01  2.16945E-01  2.22223E-01
#           2.27630E-01  2.33169E-01  2.38842E-01  2.44653E-01  2.50605E-01
#           2.56703E-01  2.62949E-01  2.69346E-01  2.75900E-01  2.82613E-01
#           2.89489E-01  2.96532E-01  3.03747E-01  3.11138E-01  3.18708E-01
#           3.26462E-01  3.34405E-01  3.42542E-01  3.50876E-01  3.59413E-01
#           3.68158E-01  3.77116E-01  3.86291E-01  3.95690E-01  4.05317E-01
#           4.15179E-01  4.25281E-01  4.35628E-01  4.46227E-01  4.57084E-01
#           4.68205E-01  4.79597E-01  4.91266E-01  5.03219E-01  5.15463E-01
#           5.28005E-01  5.40851E-01  5.54011E-01  5.67490E-01  5.81298E-01
#           5.95441E-01  6.09929E-01  6.24769E-01  6.39970E-01  6.55541E-01
#           6.71491E-01  6.87828E-01  7.04564E-01  7.21706E-01  7.39266E-01
#           7.57253E-01  7.75678E-01  7.94551E-01  8.13883E-01  8.33685E-01
#           8.53969E-01  8.74747E-01  8.96030E-01  9.17831E-01  9.40163E-01
#           9.63038E-01  9.86469E-01  1.01047E+00  1.03506E+00  1.06024E+00
#           1.08604E+00  1.11246E+00  1.13953E+00  1.16725E+00  1.19565E+00
#           1.22474E+00  1.25454E+00  1.28507E+00  1.31633E+00  1.34836E+00
#           1.38117E+00  1.41477E+00  1.44920E+00  1.48446E+00  1.52057E+00
#           1.55757E+00  1.59547E+00  1.63429E+00  1.67405E+00  1.71478E+00
#           1.75650E+00  1.79924E+00  1.84302E+00  1.88786E+00  1.93379E+00
#           1.98084E+00  2.02904E+00  2.07841E+00  2.12898E+00  2.18078E+00
#           2.23384E+00  2.28819E+00  2.34386E+00  2.40089E+00  2.45930E+00
#           2.51914E+00  2.58043E+00  2.64322E+00  2.70753E+00  2.77341E+00
#           2.84088E+00  2.91001E+00  2.98081E+00  3.05333E+00  3.12762E+00
#           3.20372E+00  3.28167E+00  3.36152E+00  3.44330E+00  3.52708E+00
#           3.61290E+00  3.70080E+00  3.79085E+00  3.88308E+00  3.97756E+00
#           4.07434E+00  4.17347E+00  4.27501E+00  4.37903E+00  4.48557E+00
#           4.59471E+00  4.70650E+00  4.82102E+00  4.93832E+00  5.05847E+00
#           5.18155E+00  5.30762E+00  5.43676E+00  5.56904E+00  5.70453E+00
#           5.84333E+00  5.98550E+00  6.13114E+00  6.28031E+00  6.43312E+00
#           6.58964E+00  6.74997E+00  6.91420E+00  7.08243E+00  7.25475E+00
#           7.43126E+00  7.61207E+00  7.79728E+00  7.98700E+00  8.18133E+00
#           8.38038E+00  8.58428E+00  8.79315E+00  9.00709E+00  9.22624E+00
#           9.45072E+00  9.68067E+00  9.91620E+00  1.01575E+01  1.04046E+01
#           1.06578E+01  1.09171E+01  1.11827E+01  1.14548E+01  1.17335E+01
#           1.20190E+01  1.23114E+01  1.26109E+01  1.29178E+01  1.32321E+01
#           1.35540E+01  1.38838E+01  1.42216E+01  1.45676E+01  1.49221E+01
#           1.52851E+01  1.56570E+01  1.60380E+01  1.64282E+01  1.68279E+01
#           1.72374E+01  1.76568E+01  1.80864E+01  1.85264E+01  1.89772E+01
#           1.94389E+01  1.99119E+01  2.03963E+01  2.08926E+01  2.14009E+01
#           2.19216E+01  2.24550E+01  2.30014E+01  2.35610E+01  2.41343E+01
#           2.47215E+01  2.53230E+01  2.59391E+01  2.65702E+01  2.72167E+01
#           2.78789E+01  2.85572E+01  2.92520E+01  2.99637E+01  3.06928E+01
#           3.14396E+01  3.22045E+01  3.29881E+01  3.37907E+01  3.46128E+01
#           3.54550E+01  3.63177E+01  3.72013E+01  3.81064E+01  3.90336E+01
#           3.99833E+01  4.09561E+01  4.19526E+01  4.29734E+01  4.40189E+01
#           4.50900E+01  4.61870E+01  4.73108E+01  4.84619E+01  4.96410E+01
#           5.08488E+01  5.20860E+01  5.33533E+01  5.46514E+01  5.59812E+01
#           5.73432E+01  5.87384E+01  6.01676E+01  6.16315E+01  6.31311E+01
#           6.46671E+01  6.62405E+01  6.78522E+01  6.95031E+01  7.11941E+01
#           7.29263E+01  7.47007E+01  7.65182E+01  7.83800E+01  8.02870E+01
#           8.22405E+01  8.42414E+01  8.62911E+01  8.83906E+01  9.05412E+01
#           9.27442E+01  9.50007E+01  9.73122E+01  9.96799E+01  1.02105E+02
#           1.04589E+02  1.07134E+02  1.09741E+02  1.12411E+02  1.15146E+02
#           1.17948E+02  1.20817E+02  1.23757E+02  1.26768E+02  1.29852E+02
#           1.33012E+02  1.36248E+02  1.39563E+02  1.42959E+02  1.46437E+02
#           1.50000E+02
     unit =    2            # unit is [1/cm^2/(MeV/n)/source]
     axis =  eng            # axis of output
     file = detector-15.out  # file name of output for the above axis
   output = f-curr          # surface crossing forward current spectrum
     part =  neutron  
# kf/name :  2112     
#    used :        main (  %)        temp (  %)       total (  %)
#  memory :         414 (  0)           0 (  0)         414 (  0)

#------------------------------------------------------------------------------
#newpage:
#   no. =    1   reg = 114 - 214

x: Energy [MeV/n]
y:  F-Curr [1/cm^2/(MeV/n)/source]         
p: xlog ylog afac(0.8) form(0.9)
h: n            x            y(neutron ),hh0l   n 
#  e-lower      e-upper      neutron     r.err 
   1.0000E-02   1.0243E-02   2.3153E-04  0.1880
   1.0243E-02   1.0493E-02   1.4445E-04  0.2357
   1.0493E-02   1.0748E-02   2.1936E-04  0.1890
   1.0748E-02   1.1009E-02   2.9172E-04  0.1617
   1.1009E-02   1.1277E-02   2.5013E-04  0.1721
   1.1277E-02   1.1552E-02   2.7698E-04  0.1622
   1.1552E-02   1.1833E-02   2.5377E-04  0.1665
   1.1833E-02   1.2121E-02   2.8135E-04  0.1566
   1.2121E-02   1.2415E-02   2.5093E-04  0.1644
   1.2415E-02   1.2718E-02   2.3173E-04  0.1690
   1.2718E-02   1.3027E-02   2.7875E-04  0.1521
   1.3027E-02   1.3344E-02   2.9026E-04  0.1474
   1.3344E-02   1.3669E-02   1.9712E-04  0.1754
   1.3669E-02   1.4001E-02   1.8342E-04  0.1803
   1.4001E-02   1.4342E-02   1.9374E-04  0.1741
   1.4342E-02   1.4691E-02   2.0633E-04  0.1667
   1.4691E-02   1.5048E-02   2.2382E-04  0.1581
   1.5048E-02   1.5414E-02   2.2669E-04  0.1548
   1.5414E-02   1.5789E-02   1.4484E-04  0.1914
   1.5789E-02   1.6174E-02   1.7701E-04  0.1715
   1.6174E-02   1.6567E-02   1.8805E-04  0.1644
   1.6567E-02   1.6970E-02   2.1335E-04  0.1525
   1.6970E-02   1.7383E-02   2.7687E-04  0.1321
   1.7383E-02   1.7806E-02   2.3964E-04  0.1399
   1.7806E-02   1.8239E-02   1.4080E-04  0.1803
   1.8239E-02   1.8683E-02   1.3070E-04  0.1857
   1.8683E-02   1.9138E-02   1.8699E-04  0.1529
   1.9138E-02   1.9603E-02   2.0242E-04  0.1455
   1.9603E-02   2.0080E-02   1.6832E-04  0.1576
   2.0080E-02   2.0569E-02   2.0929E-04  0.1397
   2.0569E-02   2.1069E-02   1.7184E-04  0.1525
   2.1069E-02   2.1582E-02   2.0160E-04  0.1386
   2.1582E-02   2.2107E-02   1.4283E-04  0.1628
   2.2107E-02   2.2645E-02   1.4873E-04  0.1581
   2.2645E-02   2.3196E-02   2.0639E-04  0.1320
   2.3196E-02   2.3760E-02   2.0959E-04  0.1299
   2.3760E-02   2.4338E-02   1.7644E-04  0.1400
   2.4338E-02   2.4930E-02   1.8976E-04  0.1332
   2.4930E-02   2.5537E-02   1.3231E-04  0.1576
   2.5537E-02   2.6158E-02   1.8670E-04  0.1313
   2.6158E-02   2.6795E-02   1.5440E-04  0.1425
   2.6795E-02   2.7447E-02   2.0554E-04  0.1222
   2.7447E-02   2.8114E-02   1.4376E-04  0.1436
   2.8114E-02   2.8799E-02   1.4619E-04  0.1414
   2.8799E-02   2.9499E-02   1.5842E-04  0.1339
   2.9499E-02   3.0217E-02   1.3654E-04  0.1429
   3.0217E-02   3.0952E-02   1.6050E-04  0.1302
   3.0952E-02   3.1705E-02   1.7528E-04  0.1231
   3.1705E-02   3.2477E-02   1.4303E-04  0.1345
   3.2477E-02   3.3267E-02   1.4680E-04  0.1313
   3.3267E-02   3.4076E-02   1.2849E-04  0.1387
   3.4076E-02   3.4905E-02   1.4505E-04  0.1288
   3.4905E-02   3.5755E-02   9.8908E-05  0.1543
   3.5755E-02   3.6625E-02   1.2874E-04  0.1336
   3.6625E-02   3.7516E-02   1.0465E-04  0.1459
   3.7516E-02   3.8428E-02   1.3585E-04  0.1270
   3.8428E-02   3.9363E-02   1.3476E-04  0.1260
   3.9363E-02   4.0321E-02   1.5723E-04  0.1151
   4.0321E-02   4.1302E-02   1.1009E-04  0.1361
   4.1302E-02   4.2307E-02   1.2240E-04  0.1273
   4.2307E-02   4.3337E-02   1.2887E-04  0.1225
   4.3337E-02   4.4391E-02   1.1787E-04  0.1267
   4.4391E-02   4.5471E-02   1.3333E-04  0.1179
   4.5471E-02   4.6577E-02   1.0033E-04  0.1339
   4.6577E-02   4.7711E-02   9.2349E-05  0.1379
   4.7711E-02   4.8871E-02   9.8205E-05  0.1325
   4.8871E-02   5.0061E-02   1.1690E-04  0.1197
   5.0061E-02   5.1279E-02   1.3629E-04  0.1098
   5.1279E-02   5.2526E-02   1.0580E-04  0.1231
   5.2526E-02   5.3804E-02   9.5461E-05  0.1280
   5.3804E-02   5.5113E-02   9.5003E-05  0.1267
   5.5113E-02   5.6454E-02   1.1335E-04  0.1147
   5.6454E-02   5.7828E-02   9.0501E-05  0.1267
   5.7828E-02   5.9235E-02   1.1372E-04  0.1118
   5.9235E-02   6.0676E-02   1.0893E-04  0.1127
   6.0676E-02   6.2152E-02   1.1132E-04  0.1102
   6.2152E-02   6.3665E-02   1.2650E-04  0.1020
   6.3665E-02   6.5214E-02   1.1019E-04  0.1081
   6.5214E-02   6.6800E-02   9.8476E-05  0.1131
   6.6800E-02   6.8426E-02   1.1506E-04  0.1033
   6.8426E-02   7.0090E-02   9.2695E-05  0.1137
   7.0090E-02   7.1796E-02   1.0337E-04  0.1064
   7.1796E-02   7.3543E-02   9.6338E-05  0.1089
   7.3543E-02   7.5332E-02   9.9477E-05  0.1060
   7.5332E-02   7.7165E-02   1.0234E-04  0.1030
   7.7165E-02   7.9042E-02   9.3743E-05  0.1066
   7.9042E-02   8.0965E-02   7.9556E-05  0.1141
   8.0965E-02   8.2935E-02   9.9495E-05  0.1010
   8.2935E-02   8.4953E-02   9.2176E-05  0.1034
   8.4953E-02   8.7020E-02   9.0958E-05  0.1028
   8.7020E-02   8.9138E-02   9.7920E-05  0.0980
   8.9138E-02   9.1306E-02   6.3329E-05  0.1203
   9.1306E-02   9.3528E-02   7.4722E-05  0.1098
   9.3528E-02   9.5804E-02   9.7556E-05  0.0949
   9.5804E-02   9.8134E-02   8.3227E-05  0.1015
   9.8134E-02   1.0052E-01   1.0135E-04  0.0909
   1.0052E-01   1.0297E-01   9.1748E-05  0.0943
   1.0297E-01   1.0547E-01   8.6729E-05  0.0958
   1.0547E-01   1.0804E-01   8.0642E-05  0.0981
   1.0804E-01   1.1067E-01   8.2170E-05  0.0962
   1.1067E-01   1.1336E-01   8.5655E-05  0.0930
   1.1336E-01   1.1612E-01   7.2875E-05  0.0996
   1.1612E-01   1.1894E-01   7.7980E-05  0.0952
   1.1894E-01   1.2184E-01   7.2861E-05  0.0970
   1.2184E-01   1.2480E-01   7.8694E-05  0.0922
   1.2480E-01   1.2784E-01   7.0235E-05  0.0967
   1.2784E-01   1.3095E-01   7.2127E-05  0.0944
   1.3095E-01   1.3414E-01   6.5383E-05  0.0979
   1.3414E-01   1.3740E-01   6.4440E-05  0.0975
   1.3740E-01   1.4074E-01   6.4313E-05  0.0963
   1.4074E-01   1.4417E-01   6.0253E-05  0.0984
   1.4417E-01   1.4767E-01   6.4430E-05  0.0941
   1.4767E-01   1.5127E-01   6.3456E-05  0.0937
   1.5127E-01   1.5495E-01   6.6094E-05  0.0905
   1.5495E-01   1.5872E-01   5.3846E-05  0.0991
   1.5872E-01   1.6258E-01   5.4543E-05  0.0973
   1.6258E-01   1.6654E-01   6.1144E-05  0.0905
   1.6654E-01   1.7059E-01   5.5371E-05  0.0944
   1.7059E-01   1.7474E-01   5.1078E-05  0.0971
   1.7474E-01   1.7899E-01   5.6451E-05  0.0913
   1.7899E-01   1.8334E-01   5.4580E-05  0.0915
   1.8334E-01   1.8781E-01   5.3867E-05  0.0912
   1.8781E-01   1.9237E-01   4.8365E-05  0.0950
   1.9237E-01   1.9706E-01   5.1916E-05  0.0906
   1.9706E-01   2.0185E-01   4.9957E-05  0.0912
   2.0185E-01   2.0676E-01   5.0214E-05  0.0898
   2.0676E-01   2.1179E-01   5.2876E-05  0.0867
   2.1179E-01   2.1694E-01   4.9291E-05  0.0887
   2.1694E-01   2.2222E-01   5.7084E-05  0.0814
   2.2222E-01   2.2763E-01   5.9440E-05  0.0788
   2.2763E-01   2.3317E-01   5.8681E-05  0.0784
   2.3317E-01   2.3884E-01   5.7111E-05  0.0786
   2.3884E-01   2.4465E-01   6.0222E-05  0.0755
   2.4465E-01   2.5061E-01   5.9569E-05  0.0750
   2.5061E-01   2.5670E-01   5.4667E-05  0.0773
   2.5670E-01   2.6295E-01   6.6026E-05  0.0696
   2.6295E-01   2.6935E-01   6.5023E-05  0.0693
   2.6935E-01   2.7590E-01   7.1813E-05  0.0651
   2.7590E-01   2.8261E-01   5.2579E-05  0.0750
   2.8261E-01   2.8949E-01   6.3361E-05  0.0677
   2.8949E-01   2.9653E-01   7.0562E-05  0.0634
   2.9653E-01   3.0375E-01   6.9802E-05  0.0630
   3.0375E-01   3.1114E-01   7.5947E-05  0.0596
   3.1114E-01   3.1871E-01   7.3875E-05  0.0597
   3.1871E-01   3.2646E-01   8.1779E-05  0.0561
   3.2646E-01   3.3441E-01   7.5411E-05  0.0578
   3.3441E-01   3.4254E-01   7.5282E-05  0.0571
   3.4254E-01   3.5088E-01   7.7706E-05  0.0555
   3.5088E-01   3.5941E-01   7.9024E-05  0.0544
   3.5941E-01   3.6816E-01   7.7867E-05  0.0541
   3.6816E-01   3.7712E-01   7.8321E-05  0.0533
   3.7712E-01   3.8629E-01   9.0958E-05  0.0489
   3.8629E-01   3.9569E-01   9.5279E-05  0.0471
   3.9569E-01   4.0532E-01   9.1947E-05  0.0475
   4.0532E-01   4.1518E-01   8.2775E-05  0.0494
   4.1518E-01   4.2528E-01   9.3522E-05  0.0459
   4.2528E-01   4.3563E-01   9.9143E-05  0.0441
   4.3563E-01   4.4623E-01   9.0566E-05  0.0456
   4.4623E-01   4.5708E-01   9.1461E-05  0.0448
   4.5708E-01   4.6821E-01   9.5103E-05  0.0435
   4.6821E-01   4.7960E-01   9.9777E-05  0.0419
   4.7960E-01   4.9127E-01   9.9279E-05  0.0415
   4.9127E-01   5.0322E-01   1.0880E-04  0.0391
   5.0322E-01   5.1546E-01   1.0683E-04  0.0390
   5.1546E-01   5.2800E-01   1.0089E-04  0.0397
   5.2800E-01   5.4085E-01   1.0658E-04  0.0382
   5.4085E-01   5.5401E-01   1.0336E-04  0.0383
   5.5401E-01   5.6749E-01   1.0333E-04  0.0378
   5.6749E-01   5.8130E-01   1.0939E-04  0.0363
   5.8130E-01   5.9544E-01   1.0789E-04  0.0362
   5.9544E-01   6.0993E-01   1.0586E-04  0.0360
   6.0993E-01   6.2477E-01   1.1062E-04  0.0348
   6.2477E-01   6.3997E-01   1.1092E-04  0.0344
   6.3997E-01   6.5554E-01   1.1225E-04  0.0338
   6.5554E-01   6.7149E-01   1.1716E-04  0.0327
   6.7149E-01   6.8783E-01   1.1472E-04  0.0326
   6.8783E-01   7.0456E-01   1.1704E-04  0.0319
   7.0456E-01   7.2171E-01   1.1723E-04  0.0315
   7.2171E-01   7.3927E-01   1.1267E-04  0.0317
   7.3927E-01   7.5725E-01   1.1168E-04  0.0315
   7.5725E-01   7.7568E-01   1.1512E-04  0.0307
   7.7568E-01   7.9455E-01   1.1628E-04  0.0301
   7.9455E-01   8.1388E-01   1.1659E-04  0.0297
   8.1388E-01   8.3368E-01   1.1808E-04  0.0292
   8.3368E-01   8.5397E-01   1.1272E-04  0.0295
   8.5397E-01   8.7475E-01   1.1072E-04  0.0294
   8.7475E-01   8.9603E-01   1.1213E-04  0.0289
   8.9603E-01   9.1783E-01   1.1641E-04  0.0280
   9.1783E-01   9.4016E-01   1.1302E-04  0.0281
   9.4016E-01   9.6304E-01   1.1679E-04  0.0273
   9.6304E-01   9.8647E-01   1.0811E-04  0.0280
   9.8647E-01   1.0105E+00   1.1068E-04  0.0274
   1.0105E+00   1.0351E+00   1.0682E-04  0.0275
   1.0351E+00   1.0602E+00   1.0874E-04  0.0270
   1.0602E+00   1.0860E+00   1.0878E-04  0.0266
   1.0860E+00   1.1125E+00   1.1152E-04  0.0260
   1.1125E+00   1.1395E+00   1.1373E-04  0.0254
   1.1395E+00   1.1673E+00   1.1400E-04  0.0251
   1.1673E+00   1.1957E+00   1.2293E-04  0.0239
   1.1957E+00   1.2247E+00   1.1867E-04  0.0240
   1.2247E+00   1.2545E+00   1.2857E-04  0.0228
   1.2545E+00   1.2851E+00   1.2988E-04  0.0224
   1.2851E+00   1.3163E+00   1.3320E-04  0.0219
   1.3163E+00   1.3484E+00   1.3465E-04  0.0215
   1.3484E+00   1.3812E+00   1.3823E-04  0.0210
   1.3812E+00   1.4148E+00   1.4387E-04  0.0203
   1.4148E+00   1.4492E+00   1.4191E-04  0.0202
   1.4492E+00   1.4845E+00   1.4574E-04  0.0197
   1.4845E+00   1.5206E+00   1.4386E-04  0.0196
   1.5206E+00   1.5576E+00   1.5174E-04  0.0188
   1.5576E+00   1.5955E+00   1.4989E-04  0.0187
   1.5955E+00   1.6343E+00   1.4796E-04  0.0186
   1.6343E+00   1.6741E+00   1.5597E-04  0.0179
   1.6741E+00   1.7148E+00   1.6240E-04  0.0173
   1.7148E+00   1.7565E+00   1.5711E-04  0.0174
   1.7565E+00   1.7992E+00   1.5973E-04  0.0171
   1.7992E+00   1.8430E+00   1.6203E-04  0.0167
   1.8430E+00   1.8879E+00   1.6375E-04  0.0165
   1.8879E+00   1.9338E+00   1.6423E-04  0.0162
   1.9338E+00   1.9808E+00   1.6541E-04  0.0160
   1.9808E+00   2.0290E+00   1.6712E-04  0.0157
   2.0290E+00   2.0784E+00   1.6776E-04  0.0155
   2.0784E+00   2.1290E+00   1.7177E-04  0.0151
   2.1290E+00   2.1808E+00   1.6952E-04  0.0151
   2.1808E+00   2.2338E+00   1.6885E-04  0.0149
   2.2338E+00   2.2882E+00   1.6791E-04  0.0148
   2.2882E+00   2.3439E+00   1.7155E-04  0.0144
   2.3439E+00   2.4009E+00   1.7001E-04  0.0143
   2.4009E+00   2.4593E+00   1.7160E-04  0.0141
   2.4593E+00   2.5191E+00   1.6895E-04  0.0140
   2.5191E+00   2.5804E+00   1.6763E-04  0.0139
   2.5804E+00   2.6432E+00   1.7102E-04  0.0136
   2.6432E+00   2.7075E+00   1.7033E-04  0.0135
   2.7075E+00   2.7734E+00   1.6798E-04  0.0134
   2.7734E+00   2.8409E+00   1.6557E-04  0.0133
   2.8409E+00   2.9100E+00   1.6482E-04  0.0132
   2.9100E+00   2.9808E+00   1.6479E-04  0.0131
   2.9808E+00   3.0533E+00   1.6395E-04  0.0129
   3.0533E+00   3.1276E+00   1.6313E-04  0.0128
   3.1276E+00   3.2037E+00   1.6032E-04  0.0128
   3.2037E+00   3.2817E+00   1.6133E-04  0.0126
   3.2817E+00   3.3615E+00   1.5642E-04  0.0126
   3.3615E+00   3.4433E+00   1.5357E-04  0.0126
   3.4433E+00   3.5271E+00   1.5309E-04  0.0125
   3.5271E+00   3.6129E+00   1.5008E-04  0.0124
   3.6129E+00   3.7008E+00   1.4447E-04  0.0125
   3.7008E+00   3.7908E+00   1.4274E-04  0.0124
   3.7908E+00   3.8831E+00   1.3916E-04  0.0125
   3.8831E+00   3.9776E+00   1.3436E-04  0.0125
   3.9776E+00   4.0743E+00   1.3194E-04  0.0125
   4.0743E+00   4.1735E+00   1.2817E-04  0.0125
   4.1735E+00   4.2750E+00   1.2350E-04  0.0126
   4.2750E+00   4.3790E+00   1.2017E-04  0.0126
   4.3790E+00   4.4856E+00   1.1483E-04  0.0127
   4.4856E+00   4.5947E+00   1.1158E-04  0.0128
   4.5947E+00   4.7065E+00   1.0661E-04  0.0129
   4.7065E+00   4.8210E+00   1.0080E-04  0.0131
   4.8210E+00   4.9383E+00   9.5990E-05  0.0133
   4.9383E+00   5.0585E+00   8.9191E-05  0.0136
   5.0585E+00   5.1815E+00   8.6400E-05  0.0137
   5.1815E+00   5.3076E+00   8.1335E-05  0.0139
   5.3076E+00   5.4368E+00   7.5319E-05  0.0143
   5.4368E+00   5.5690E+00   7.1889E-05  0.0145
   5.5690E+00   5.7045E+00   6.8182E-05  0.0147
   5.7045E+00   5.8433E+00   6.4864E-05  0.0149
   5.8433E+00   5.9855E+00   6.1951E-05  0.0150
   5.9855E+00   6.1311E+00   5.9843E-05  0.0151
   6.1311E+00   6.2803E+00   5.5889E-05  0.0155
   6.2803E+00   6.4331E+00   5.4578E-05  0.0154
   6.4331E+00   6.5896E+00   5.1232E-05  0.0158
   6.5896E+00   6.7500E+00   4.8541E-05  0.0160
   6.7500E+00   6.9142E+00   4.7033E-05  0.0161
   6.9142E+00   7.0824E+00   4.2629E-05  0.0167
   7.0824E+00   7.2548E+00   4.2059E-05  0.0166
   7.2548E+00   7.4313E+00   3.7991E-05  0.0172
   7.4313E+00   7.6121E+00   3.6681E-05  0.0173
   7.6121E+00   7.7973E+00   3.5763E-05  0.0173
   7.7973E+00   7.9870E+00   3.3632E-05  0.0177
   7.9870E+00   8.1813E+00   3.0298E-05  0.0184
   8.1813E+00   8.3804E+00   2.9652E-05  0.0184
   8.3804E+00   8.5843E+00   2.8358E-05  0.0186
   8.5843E+00   8.7931E+00   2.6086E-05  0.0191
   8.7931E+00   9.0071E+00   2.4205E-05  0.0196
   9.0071E+00   9.2262E+00   2.4250E-05  0.0194
   9.2262E+00   9.4507E+00   2.2683E-05  0.0198
   9.4507E+00   9.6807E+00   2.0968E-05  0.0203
   9.6807E+00   9.9162E+00   1.9962E-05  0.0206
   9.9162E+00   1.0157E+01   1.9684E-05  0.0205
   1.0157E+01   1.0405E+01   1.8533E-05  0.0209
   1.0405E+01   1.0658E+01   1.8646E-05  0.0206
   1.0658E+01   1.0917E+01   1.7793E-05  0.0208
   1.0917E+01   1.1183E+01   1.7114E-05  0.0210
   1.1183E+01   1.1455E+01   1.6341E-05  0.0212
   1.1455E+01   1.1733E+01   1.5841E-05  0.0213
   1.1733E+01   1.2019E+01   1.4737E-05  0.0218
   1.2019E+01   1.2311E+01   1.3912E-05  0.0222
   1.2311E+01   1.2611E+01   1.3139E-05  0.0225
   1.2611E+01   1.2918E+01   1.1960E-05  0.0233
   1.2918E+01   1.3232E+01   1.1855E-05  0.0231
   1.3232E+01   1.3554E+01   1.1008E-05  0.0237
   1.3554E+01   1.3884E+01   1.1668E-05  0.0228
   1.3884E+01   1.4222E+01   1.0019E-05  0.0243
   1.4222E+01   1.4568E+01   9.9924E-06  0.0240
   1.4568E+01   1.4922E+01   9.2404E-06  0.0247
   1.4922E+01   1.5285E+01   8.5185E-06  0.0254
   1.5285E+01   1.5657E+01   7.9260E-06  0.0260
   1.5657E+01   1.6038E+01   7.3354E-06  0.0267
   1.6038E+01   1.6428E+01   7.2233E-06  0.0266
   1.6428E+01   1.6828E+01   6.8344E-06  0.0271
   1.6828E+01   1.7237E+01   6.1408E-06  0.0282
   1.7237E+01   1.7657E+01   5.7716E-06  0.0287
   1.7657E+01   1.8086E+01   5.5028E-06  0.0291
   1.8086E+01   1.8526E+01   5.4948E-06  0.0288
   1.8526E+01   1.8977E+01   4.9960E-06  0.0298
   1.8977E+01   1.9439E+01   5.1805E-06  0.0289
   1.9439E+01   1.9912E+01   4.6431E-06  0.0302
   1.9912E+01   2.0396E+01   4.3016E-06  0.0310
   2.0396E+01   2.0893E+01   4.3203E-06  0.0305
   2.0893E+01   2.1401E+01   4.1744E-06  0.0307
   2.1401E+01   2.1922E+01   3.5491E-06  0.0329
   2.1922E+01   2.2455E+01   3.0635E-06  0.0350
   2.2455E+01   2.3001E+01   2.8553E-06  0.0358
   2.3001E+01   2.3561E+01   2.6803E-06  0.0365
   2.3561E+01   2.4134E+01   2.4073E-06  0.0381
   2.4134E+01   2.4721E+01   2.0981E-06  0.0403
   2.4721E+01   2.5323E+01   1.8753E-06  0.0421
   2.5323E+01   2.5939E+01   1.4607E-06  0.0471
   2.5939E+01   2.6570E+01   1.1345E-06  0.0529
   2.6570E+01   2.7217E+01   8.4149E-07  0.0606
   2.7217E+01   2.7879E+01   5.5572E-07  0.0737
   2.7879E+01   2.8557E+01   4.3048E-07  0.0828
   2.8557E+01   2.9252E+01   2.5618E-07  0.1060
   2.9252E+01   2.9964E+01   8.4302E-08  0.1826
   2.9964E+01   3.0693E+01   3.8407E-08  0.2673
   3.0693E+01   3.1440E+01   3.7494E-08  0.2673
   3.1440E+01   3.2205E+01   5.2291E-09  0.7071
   3.2205E+01   3.2988E+01   5.1049E-09  0.7071
   3.2988E+01   3.3791E+01   0.0000E+00  0.0000
   3.3791E+01   3.4613E+01   0.0000E+00  0.0000
   3.4613E+01   3.5455E+01   0.0000E+00  0.0000
   3.5455E+01   3.6318E+01   0.0000E+00  0.0000
   3.6318E+01   3.7201E+01   0.0000E+00  0.0000
   3.7201E+01   3.8106E+01   0.0000E+00  0.0000
   3.8106E+01   3.9034E+01   0.0000E+00  0.0000
   3.9034E+01   3.9983E+01   0.0000E+00  0.0000
   3.9983E+01   4.0956E+01   0.0000E+00  0.0000
   4.0956E+01   4.1953E+01   0.0000E+00  0.0000
   4.1953E+01   4.2973E+01   0.0000E+00  0.0000
   4.2973E+01   4.4019E+01   0.0000E+00  0.0000
   4.4019E+01   4.5090E+01   0.0000E+00  0.0000
   4.5090E+01   4.6187E+01   0.0000E+00  0.0000
   4.6187E+01   4.7311E+01   0.0000E+00  0.0000
   4.7311E+01   4.8462E+01   0.0000E+00  0.0000
   4.8462E+01   4.9641E+01   0.0000E+00  0.0000
   4.9641E+01   5.0849E+01   0.0000E+00  0.0000
   5.0849E+01   5.2086E+01   0.0000E+00  0.0000
   5.2086E+01   5.3353E+01   0.0000E+00  0.0000
   5.3353E+01   5.4651E+01   0.0000E+00  0.0000
   5.4651E+01   5.5981E+01   0.0000E+00  0.0000
   5.5981E+01   5.7343E+01   0.0000E+00  0.0000
   5.7343E+01   5.8738E+01   0.0000E+00  0.0000
   5.8738E+01   6.0168E+01   0.0000E+00  0.0000
   6.0168E+01   6.1632E+01   0.0000E+00  0.0000
   6.1632E+01   6.3131E+01   0.0000E+00  0.0000
   6.3131E+01   6.4667E+01   0.0000E+00  0.0000
   6.4667E+01   6.6240E+01   0.0000E+00  0.0000
   6.6240E+01   6.7852E+01   0.0000E+00  0.0000
   6.7852E+01   6.9503E+01   0.0000E+00  0.0000
   6.9503E+01   7.1194E+01   0.0000E+00  0.0000
   7.1194E+01   7.2926E+01   0.0000E+00  0.0000
   7.2926E+01   7.4701E+01   0.0000E+00  0.0000
   7.4701E+01   7.6518E+01   0.0000E+00  0.0000
   7.6518E+01   7.8380E+01   0.0000E+00  0.0000
   7.8380E+01   8.0287E+01   0.0000E+00  0.0000
   8.0287E+01   8.2240E+01   0.0000E+00  0.0000
   8.2240E+01   8.4241E+01   0.0000E+00  0.0000
   8.4241E+01   8.6291E+01   0.0000E+00  0.0000
   8.6291E+01   8.8391E+01   0.0000E+00  0.0000
   8.8391E+01   9.0541E+01   0.0000E+00  0.0000
   9.0541E+01   9.2744E+01   0.0000E+00  0.0000
   9.2744E+01   9.5001E+01   0.0000E+00  0.0000
   9.5001E+01   9.7312E+01   0.0000E+00  0.0000
   9.7312E+01   9.9680E+01   0.0000E+00  0.0000
   9.9680E+01   1.0211E+02   0.0000E+00  0.0000
   1.0211E+02   1.0459E+02   0.0000E+00  0.0000
   1.0459E+02   1.0713E+02   0.0000E+00  0.0000
   1.0713E+02   1.0974E+02   0.0000E+00  0.0000
   1.0974E+02   1.1241E+02   0.0000E+00  0.0000
   1.1241E+02   1.1515E+02   0.0000E+00  0.0000
   1.1515E+02   1.1795E+02   0.0000E+00  0.0000
   1.1795E+02   1.2082E+02   0.0000E+00  0.0000
   1.2082E+02   1.2376E+02   0.0000E+00  0.0000
   1.2376E+02   1.2677E+02   0.0000E+00  0.0000
   1.2677E+02   1.2985E+02   0.0000E+00  0.0000
   1.2985E+02   1.3301E+02   0.0000E+00  0.0000
   1.3301E+02   1.3625E+02   0.0000E+00  0.0000
   1.3625E+02   1.3956E+02   0.0000E+00  0.0000
   1.3956E+02   1.4296E+02   0.0000E+00  0.0000
   1.4296E+02   1.4644E+02   0.0000E+00  0.0000
   1.4644E+02   1.5000E+02   0.0000E+00  0.0000

#   sum over                 6.6737E-06
'no. =    1   reg = 114 - 214'
msuc: {\huge [t-cross] in region mesh}
msdr: {\it plotted by \ANGEL \version}
msdl: {\it calculated by \PHITS  3.26}
wt: s(0.7)
\vspace{-3}
  region surface crossing
  area  &=&   1.0000E+00 [cm^2]
e:
 
# Information for Restart Calculation
# This calculation was newly started
# istdev =  2 # 1:Batch variance, 2:History variance
# resc2  = 5.00000000000000000E+08 # Total source weight or Total source weight / maxcas
# resc3  = 5.00000000000000000E+08 # Total history number or Total batch number
# maxcas =   500000000 # History / Batch, only used for istdev=1
# bitrseed = 1101101111010011011000101101110001100110110010110001010100010001 # bit data of rseed
