[ T-Cross ]
    title = [t-cross] in region mesh
     mesh =  reg            # mesh type is region-wise
      reg =    1            # number of crossing regions
      non     r-from    r-to       area
      1       126       226        1.000000    
   e-type =    3            # e-mesh is log given by emin, emax and ne
     emin =  1.0000000E-02  # minimum value of e-mesh points
     emax =   150.0000      # maximum value of e-mesh points
#    edel =  2.4039514E-02  # mesh width of e-mesh points
       ne =    400          # number of e-mesh points
#    data = ( e(i), i = 1, ne + 1 )
#           1.00000E-02  1.02433E-02  1.04925E-02  1.07478E-02  1.10093E-02
#           1.12772E-02  1.15516E-02  1.18326E-02  1.21205E-02  1.24154E-02
#           1.27175E-02  1.30269E-02  1.33439E-02  1.36686E-02  1.40011E-02
#           1.43418E-02  1.46907E-02  1.50482E-02  1.54143E-02  1.57894E-02
#           1.61735E-02  1.65670E-02  1.69701E-02  1.73830E-02  1.78060E-02
#           1.82392E-02  1.86830E-02  1.91375E-02  1.96032E-02  2.00801E-02
#           2.05687E-02  2.10692E-02  2.15818E-02  2.21069E-02  2.26448E-02
#           2.31957E-02  2.37601E-02  2.43382E-02  2.49304E-02  2.55369E-02
#           2.61583E-02  2.67947E-02  2.74467E-02  2.81145E-02  2.87985E-02
#           2.94992E-02  3.02169E-02  3.09521E-02  3.17052E-02  3.24766E-02
#           3.32668E-02  3.40762E-02  3.49053E-02  3.57546E-02  3.66246E-02
#           3.75157E-02  3.84284E-02  3.93634E-02  4.03212E-02  4.13022E-02
#           4.23071E-02  4.33365E-02  4.43909E-02  4.54710E-02  4.65773E-02
#           4.77106E-02  4.88714E-02  5.00605E-02  5.12785E-02  5.25262E-02
#           5.38042E-02  5.51133E-02  5.64542E-02  5.78278E-02  5.92348E-02
#           6.06760E-02  6.21523E-02  6.36645E-02  6.52135E-02  6.68002E-02
#           6.84255E-02  7.00904E-02  7.17957E-02  7.35426E-02  7.53319E-02
#           7.71648E-02  7.90423E-02  8.09655E-02  8.29354E-02  8.49533E-02
#           8.70203E-02  8.91376E-02  9.13064E-02  9.35279E-02  9.58035E-02
#           9.81345E-02  1.00522E-01  1.02968E-01  1.05473E-01  1.08040E-01
#           1.10668E-01  1.13361E-01  1.16119E-01  1.18944E-01  1.21838E-01
#           1.24803E-01  1.27839E-01  1.30950E-01  1.34136E-01  1.37399E-01
#           1.40742E-01  1.44167E-01  1.47675E-01  1.51268E-01  1.54948E-01
#           1.58718E-01  1.62580E-01  1.66535E-01  1.70587E-01  1.74738E-01
#           1.78989E-01  1.83344E-01  1.87805E-01  1.92375E-01  1.97055E-01
#           2.01850E-01  2.06761E-01  2.11792E-01  2.16945E-01  2.22223E-01
#           2.27630E-01  2.33169E-01  2.38842E-01  2.44653E-01  2.50605E-01
#           2.56703E-01  2.62949E-01  2.69346E-01  2.75900E-01  2.82613E-01
#           2.89489E-01  2.96532E-01  3.03747E-01  3.11138E-01  3.18708E-01
#           3.26462E-01  3.34405E-01  3.42542E-01  3.50876E-01  3.59413E-01
#           3.68158E-01  3.77116E-01  3.86291E-01  3.95690E-01  4.05317E-01
#           4.15179E-01  4.25281E-01  4.35628E-01  4.46227E-01  4.57084E-01
#           4.68205E-01  4.79597E-01  4.91266E-01  5.03219E-01  5.15463E-01
#           5.28005E-01  5.40851E-01  5.54011E-01  5.67490E-01  5.81298E-01
#           5.95441E-01  6.09929E-01  6.24769E-01  6.39970E-01  6.55541E-01
#           6.71491E-01  6.87828E-01  7.04564E-01  7.21706E-01  7.39266E-01
#           7.57253E-01  7.75678E-01  7.94551E-01  8.13883E-01  8.33685E-01
#           8.53969E-01  8.74747E-01  8.96030E-01  9.17831E-01  9.40163E-01
#           9.63038E-01  9.86469E-01  1.01047E+00  1.03506E+00  1.06024E+00
#           1.08604E+00  1.11246E+00  1.13953E+00  1.16725E+00  1.19565E+00
#           1.22474E+00  1.25454E+00  1.28507E+00  1.31633E+00  1.34836E+00
#           1.38117E+00  1.41477E+00  1.44920E+00  1.48446E+00  1.52057E+00
#           1.55757E+00  1.59547E+00  1.63429E+00  1.67405E+00  1.71478E+00
#           1.75650E+00  1.79924E+00  1.84302E+00  1.88786E+00  1.93379E+00
#           1.98084E+00  2.02904E+00  2.07841E+00  2.12898E+00  2.18078E+00
#           2.23384E+00  2.28819E+00  2.34386E+00  2.40089E+00  2.45930E+00
#           2.51914E+00  2.58043E+00  2.64322E+00  2.70753E+00  2.77341E+00
#           2.84088E+00  2.91001E+00  2.98081E+00  3.05333E+00  3.12762E+00
#           3.20372E+00  3.28167E+00  3.36152E+00  3.44330E+00  3.52708E+00
#           3.61290E+00  3.70080E+00  3.79085E+00  3.88308E+00  3.97756E+00
#           4.07434E+00  4.17347E+00  4.27501E+00  4.37903E+00  4.48557E+00
#           4.59471E+00  4.70650E+00  4.82102E+00  4.93832E+00  5.05847E+00
#           5.18155E+00  5.30762E+00  5.43676E+00  5.56904E+00  5.70453E+00
#           5.84333E+00  5.98550E+00  6.13114E+00  6.28031E+00  6.43312E+00
#           6.58964E+00  6.74997E+00  6.91420E+00  7.08243E+00  7.25475E+00
#           7.43126E+00  7.61207E+00  7.79728E+00  7.98700E+00  8.18133E+00
#           8.38038E+00  8.58428E+00  8.79315E+00  9.00709E+00  9.22624E+00
#           9.45072E+00  9.68067E+00  9.91620E+00  1.01575E+01  1.04046E+01
#           1.06578E+01  1.09171E+01  1.11827E+01  1.14548E+01  1.17335E+01
#           1.20190E+01  1.23114E+01  1.26109E+01  1.29178E+01  1.32321E+01
#           1.35540E+01  1.38838E+01  1.42216E+01  1.45676E+01  1.49221E+01
#           1.52851E+01  1.56570E+01  1.60380E+01  1.64282E+01  1.68279E+01
#           1.72374E+01  1.76568E+01  1.80864E+01  1.85264E+01  1.89772E+01
#           1.94389E+01  1.99119E+01  2.03963E+01  2.08926E+01  2.14009E+01
#           2.19216E+01  2.24550E+01  2.30014E+01  2.35610E+01  2.41343E+01
#           2.47215E+01  2.53230E+01  2.59391E+01  2.65702E+01  2.72167E+01
#           2.78789E+01  2.85572E+01  2.92520E+01  2.99637E+01  3.06928E+01
#           3.14396E+01  3.22045E+01  3.29881E+01  3.37907E+01  3.46128E+01
#           3.54550E+01  3.63177E+01  3.72013E+01  3.81064E+01  3.90336E+01
#           3.99833E+01  4.09561E+01  4.19526E+01  4.29734E+01  4.40189E+01
#           4.50900E+01  4.61870E+01  4.73108E+01  4.84619E+01  4.96410E+01
#           5.08488E+01  5.20860E+01  5.33533E+01  5.46514E+01  5.59812E+01
#           5.73432E+01  5.87384E+01  6.01676E+01  6.16315E+01  6.31311E+01
#           6.46671E+01  6.62405E+01  6.78522E+01  6.95031E+01  7.11941E+01
#           7.29263E+01  7.47007E+01  7.65182E+01  7.83800E+01  8.02870E+01
#           8.22405E+01  8.42414E+01  8.62911E+01  8.83906E+01  9.05412E+01
#           9.27442E+01  9.50007E+01  9.73122E+01  9.96799E+01  1.02105E+02
#           1.04589E+02  1.07134E+02  1.09741E+02  1.12411E+02  1.15146E+02
#           1.17948E+02  1.20817E+02  1.23757E+02  1.26768E+02  1.29852E+02
#           1.33012E+02  1.36248E+02  1.39563E+02  1.42959E+02  1.46437E+02
#           1.50000E+02
     unit =    2            # unit is [1/cm^2/(MeV/n)/source]
     axis =  eng            # axis of output
     file = detector-27.out  # file name of output for the above axis
   output = f-curr          # surface crossing forward current spectrum
     part =  neutron  
# kf/name :  2112     
#    used :        main (  %)        temp (  %)       total (  %)
#  memory :         414 (  0)           0 (  0)         414 (  0)

#------------------------------------------------------------------------------
#newpage:
#   no. =    1   reg = 126 - 226

x: Energy [MeV/n]
y:  F-Curr [1/cm^2/(MeV/n)/source]         
p: xlog ylog afac(0.8) form(0.9)
h: n            x            y(neutron ),hh0l   n 
#  e-lower      e-upper      neutron     r.err 
   1.0000E-02   1.0243E-02   1.8886E-03  0.0233
   1.0243E-02   1.0493E-02   1.8949E-03  0.0230
   1.0493E-02   1.0748E-02   1.8420E-03  0.0231
   1.0748E-02   1.1009E-02   1.8422E-03  0.0228
   1.1009E-02   1.1277E-02   1.7341E-03  0.0232
   1.1277E-02   1.1552E-02   1.8040E-03  0.0225
   1.1552E-02   1.1833E-02   1.8199E-03  0.0221
   1.1833E-02   1.2121E-02   1.7593E-03  0.0222
   1.2121E-02   1.2415E-02   1.7557E-03  0.0220
   1.2415E-02   1.2718E-02   1.7537E-03  0.0217
   1.2718E-02   1.3027E-02   1.7274E-03  0.0216
   1.3027E-02   1.3344E-02   1.6836E-03  0.0216
   1.3344E-02   1.3669E-02   1.6448E-03  0.0216
   1.3669E-02   1.4001E-02   1.6651E-03  0.0212
   1.4001E-02   1.4342E-02   1.6952E-03  0.0208
   1.4342E-02   1.4691E-02   1.6263E-03  0.0210
   1.4691E-02   1.5048E-02   1.6814E-03  0.0204
   1.5048E-02   1.5414E-02   1.6367E-03  0.0204
   1.5414E-02   1.5789E-02   1.6092E-03  0.0204
   1.5789E-02   1.6174E-02   1.6061E-03  0.0201
   1.6174E-02   1.6567E-02   1.5838E-03  0.0200
   1.6567E-02   1.6970E-02   1.6101E-03  0.0196
   1.6970E-02   1.7383E-02   1.5409E-03  0.0198
   1.7383E-02   1.7806E-02   1.5469E-03  0.0195
   1.7806E-02   1.8239E-02   1.5298E-03  0.0194
   1.8239E-02   1.8683E-02   1.5239E-03  0.0192
   1.8683E-02   1.9138E-02   1.4772E-03  0.0193
   1.9138E-02   1.9603E-02   1.4695E-03  0.0191
   1.9603E-02   2.0080E-02   1.4666E-03  0.0189
   2.0080E-02   2.0569E-02   1.4696E-03  0.0187
   2.0569E-02   2.1069E-02   1.3817E-03  0.0190
   2.1069E-02   2.1582E-02   1.3938E-03  0.0187
   2.1582E-02   2.2107E-02   1.4340E-03  0.0182
   2.2107E-02   2.2645E-02   1.3972E-03  0.0182
   2.2645E-02   2.3196E-02   1.4121E-03  0.0179
   2.3196E-02   2.3760E-02   1.3869E-03  0.0179
   2.3760E-02   2.4338E-02   1.3921E-03  0.0176
   2.4338E-02   2.4930E-02   1.3598E-03  0.0176
   2.4930E-02   2.5537E-02   1.3284E-03  0.0176
   2.5537E-02   2.6158E-02   1.3165E-03  0.0175
   2.6158E-02   2.6795E-02   1.2554E-03  0.0177
   2.6795E-02   2.7447E-02   1.2800E-03  0.0173
   2.7447E-02   2.8114E-02   1.2741E-03  0.0171
   2.8114E-02   2.8799E-02   1.2821E-03  0.0169
   2.8799E-02   2.9499E-02   1.2648E-03  0.0168
   2.9499E-02   3.0217E-02   1.2449E-03  0.0167
   3.0217E-02   3.0952E-02   1.2187E-03  0.0167
   3.0952E-02   3.1705E-02   1.2107E-03  0.0166
   3.1705E-02   3.2477E-02   1.2020E-03  0.0164
   3.2477E-02   3.3267E-02   1.2019E-03  0.0162
   3.3267E-02   3.4076E-02   1.1749E-03  0.0162
   3.4076E-02   3.4905E-02   1.1573E-03  0.0161
   3.4905E-02   3.5755E-02   1.1775E-03  0.0158
   3.5755E-02   3.6625E-02   1.1201E-03  0.0160
   3.6625E-02   3.7516E-02   1.1477E-03  0.0156
   3.7516E-02   3.8428E-02   1.1418E-03  0.0155
   3.8428E-02   3.9363E-02   1.1155E-03  0.0155
   3.9363E-02   4.0321E-02   1.0976E-03  0.0154
   4.0321E-02   4.1302E-02   1.0963E-03  0.0152
   4.1302E-02   4.2307E-02   1.0834E-03  0.0152
   4.2307E-02   4.3337E-02   1.0672E-03  0.0151
   4.3337E-02   4.4391E-02   1.0449E-03  0.0151
   4.4391E-02   4.5471E-02   1.0379E-03  0.0149
   4.5471E-02   4.6577E-02   1.0575E-03  0.0146
   4.6577E-02   4.7711E-02   1.0002E-03  0.0149
   4.7711E-02   4.8871E-02   1.0094E-03  0.0146
   4.8871E-02   5.0061E-02   1.0178E-03  0.0144
   5.0061E-02   5.1279E-02   9.8891E-04  0.0144
   5.1279E-02   5.2526E-02   9.8586E-04  0.0143
   5.2526E-02   5.3804E-02   9.9794E-04  0.0140
   5.3804E-02   5.5113E-02   9.4512E-04  0.0142
   5.5113E-02   5.6454E-02   9.5790E-04  0.0140
   5.6454E-02   5.7828E-02   9.3788E-04  0.0139
   5.7828E-02   5.9235E-02   9.4208E-04  0.0137
   5.9235E-02   6.0676E-02   9.1797E-04  0.0137
   6.0676E-02   6.2152E-02   9.4392E-04  0.0134
   6.2152E-02   6.3665E-02   9.1538E-04  0.0134
   6.3665E-02   6.5214E-02   9.0703E-04  0.0133
   6.5214E-02   6.6800E-02   9.0581E-04  0.0132
   6.6800E-02   6.8426E-02   9.0675E-04  0.0130
   6.8426E-02   7.0090E-02   8.8071E-04  0.0131
   7.0090E-02   7.1796E-02   8.4821E-04  0.0131
   7.1796E-02   7.3543E-02   8.5640E-04  0.0129
   7.3543E-02   7.5332E-02   8.6009E-04  0.0127
   7.5332E-02   7.7165E-02   8.4607E-04  0.0127
   7.7165E-02   7.9042E-02   8.4169E-04  0.0126
   7.9042E-02   8.0965E-02   8.2351E-04  0.0126
   8.0965E-02   8.2935E-02   8.2331E-04  0.0124
   8.2935E-02   8.4953E-02   8.0604E-04  0.0124
   8.4953E-02   8.7020E-02   7.9500E-04  0.0123
   8.7020E-02   8.9138E-02   7.9111E-04  0.0122
   8.9138E-02   9.1306E-02   7.7336E-04  0.0122
   9.1306E-02   9.3528E-02   7.7660E-04  0.0120
   9.3528E-02   9.5804E-02   7.6837E-04  0.0120
   9.5804E-02   9.8134E-02   7.5419E-04  0.0119
   9.8134E-02   1.0052E-01   7.3408E-04  0.0119
   1.0052E-01   1.0297E-01   7.5211E-04  0.0117
   1.0297E-01   1.0547E-01   7.3395E-04  0.0117
   1.0547E-01   1.0804E-01   7.3317E-04  0.0115
   1.0804E-01   1.1067E-01   7.2974E-04  0.0114
   1.1067E-01   1.1336E-01   7.2095E-04  0.0113
   1.1336E-01   1.1612E-01   6.9829E-04  0.0114
   1.1612E-01   1.1894E-01   6.8414E-04  0.0114
   1.1894E-01   1.2184E-01   6.7856E-04  0.0113
   1.2184E-01   1.2480E-01   6.8268E-04  0.0111
   1.2480E-01   1.2784E-01   6.7173E-04  0.0111
   1.2784E-01   1.3095E-01   6.7177E-04  0.0109
   1.3095E-01   1.3414E-01   6.6496E-04  0.0109
   1.3414E-01   1.3740E-01   6.4832E-04  0.0109
   1.3740E-01   1.4074E-01   6.3961E-04  0.0108
   1.4074E-01   1.4417E-01   6.2807E-04  0.0108
   1.4417E-01   1.4767E-01   6.3083E-04  0.0106
   1.4767E-01   1.5127E-01   6.1591E-04  0.0106
   1.5127E-01   1.5495E-01   6.1005E-04  0.0106
   1.5495E-01   1.5872E-01   6.1538E-04  0.0104
   1.5872E-01   1.6258E-01   5.9559E-04  0.0104
   1.6258E-01   1.6654E-01   5.8985E-04  0.0104
   1.6654E-01   1.7059E-01   5.8725E-04  0.0103
   1.7059E-01   1.7474E-01   5.8318E-04  0.0102
   1.7474E-01   1.7899E-01   5.6733E-04  0.0102
   1.7899E-01   1.8334E-01   5.5919E-04  0.0101
   1.8334E-01   1.8781E-01   5.4961E-04  0.0101
   1.8781E-01   1.9237E-01   5.4985E-04  0.0100
   1.9237E-01   1.9706E-01   5.4442E-04  0.0099
   1.9706E-01   2.0185E-01   5.3467E-04  0.0099
   2.0185E-01   2.0676E-01   5.2348E-04  0.0099
   2.0676E-01   2.1179E-01   5.1668E-04  0.0098
   2.1179E-01   2.1694E-01   5.0848E-04  0.0098
   2.1694E-01   2.2222E-01   5.0867E-04  0.0097
   2.2222E-01   2.2763E-01   4.9659E-04  0.0097
   2.2763E-01   2.3317E-01   4.9486E-04  0.0096
   2.3317E-01   2.3884E-01   4.8919E-04  0.0095
   2.3884E-01   2.4465E-01   4.8940E-04  0.0094
   2.4465E-01   2.5061E-01   4.6614E-04  0.0095
   2.5061E-01   2.5670E-01   4.6770E-04  0.0094
   2.5670E-01   2.6295E-01   4.6728E-04  0.0093
   2.6295E-01   2.6935E-01   4.4723E-04  0.0093
   2.6935E-01   2.7590E-01   4.4965E-04  0.0092
   2.7590E-01   2.8261E-01   4.4135E-04  0.0092
   2.8261E-01   2.8949E-01   4.3156E-04  0.0092
   2.8949E-01   2.9653E-01   4.3423E-04  0.0090
   2.9653E-01   3.0375E-01   4.2277E-04  0.0091
   3.0375E-01   3.1114E-01   4.1530E-04  0.0090
   3.1114E-01   3.1871E-01   4.0474E-04  0.0090
   3.1871E-01   3.2646E-01   4.0396E-04  0.0089
   3.2646E-01   3.3441E-01   3.9854E-04  0.0089
   3.3441E-01   3.4254E-01   3.7717E-04  0.0090
   3.4254E-01   3.5088E-01   3.7685E-04  0.0089
   3.5088E-01   3.5941E-01   3.6775E-04  0.0089
   3.5941E-01   3.6816E-01   3.6902E-04  0.0088
   3.6816E-01   3.7712E-01   3.6018E-04  0.0088
   3.7712E-01   3.8629E-01   3.5355E-04  0.0088
   3.8629E-01   3.9569E-01   3.4904E-04  0.0087
   3.9569E-01   4.0532E-01   3.3900E-04  0.0088
   4.0532E-01   4.1518E-01   3.3506E-04  0.0087
   4.1518E-01   4.2528E-01   3.2802E-04  0.0087
   4.2528E-01   4.3563E-01   3.2527E-04  0.0086
   4.3563E-01   4.4623E-01   3.1552E-04  0.0086
   4.4623E-01   4.5708E-01   3.0718E-04  0.0087
   4.5708E-01   4.6821E-01   3.0365E-04  0.0086
   4.6821E-01   4.7960E-01   2.9725E-04  0.0086
   4.7960E-01   4.9127E-01   2.9166E-04  0.0086
   4.9127E-01   5.0322E-01   2.8719E-04  0.0085
   5.0322E-01   5.1546E-01   2.7786E-04  0.0086
   5.1546E-01   5.2800E-01   2.7096E-04  0.0086
   5.2800E-01   5.4085E-01   2.6520E-04  0.0086
   5.4085E-01   5.5401E-01   2.5812E-04  0.0086
   5.5401E-01   5.6749E-01   2.5208E-04  0.0086
   5.6749E-01   5.8130E-01   2.4822E-04  0.0085
   5.8130E-01   5.9544E-01   2.4193E-04  0.0085
   5.9544E-01   6.0993E-01   2.3581E-04  0.0086
   6.0993E-01   6.2477E-01   2.3095E-04  0.0085
   6.2477E-01   6.3997E-01   2.2080E-04  0.0086
   6.3997E-01   6.5554E-01   2.1938E-04  0.0086
   6.5554E-01   6.7149E-01   2.1133E-04  0.0086
   6.7149E-01   6.8783E-01   2.1048E-04  0.0085
   6.8783E-01   7.0456E-01   2.0132E-04  0.0086
   7.0456E-01   7.2171E-01   1.9422E-04  0.0087
   7.2171E-01   7.3927E-01   1.8958E-04  0.0087
   7.3927E-01   7.5725E-01   1.7738E-04  0.0089
   7.5725E-01   7.7568E-01   1.7877E-04  0.0087
   7.7568E-01   7.9455E-01   1.6934E-04  0.0088
   7.9455E-01   8.1388E-01   1.6245E-04  0.0089
   8.1388E-01   8.3368E-01   1.5671E-04  0.0090
   8.3368E-01   8.5397E-01   1.5404E-04  0.0089
   8.5397E-01   8.7475E-01   1.4818E-04  0.0090
   8.7475E-01   8.9603E-01   1.4066E-04  0.0091
   8.9603E-01   9.1783E-01   1.3381E-04  0.0093
   9.1783E-01   9.4016E-01   1.3048E-04  0.0093
   9.4016E-01   9.6304E-01   1.2053E-04  0.0095
   9.6304E-01   9.8647E-01   1.1392E-04  0.0097
   9.8647E-01   1.0105E+00   1.1157E-04  0.0097
   1.0105E+00   1.0351E+00   1.1203E-04  0.0095
   1.0351E+00   1.0602E+00   1.1057E-04  0.0095
   1.0602E+00   1.0860E+00   1.1180E-04  0.0093
   1.0860E+00   1.1125E+00   1.1511E-04  0.0091
   1.1125E+00   1.1395E+00   1.1406E-04  0.0090
   1.1395E+00   1.1673E+00   1.1672E-04  0.0088
   1.1673E+00   1.1957E+00   1.1829E-04  0.0086
   1.1957E+00   1.2247E+00   1.2090E-04  0.0084
   1.2247E+00   1.2545E+00   1.2015E-04  0.0084
   1.2545E+00   1.2851E+00   1.1774E-04  0.0083
   1.2851E+00   1.3163E+00   1.2129E-04  0.0081
   1.3163E+00   1.3484E+00   1.2193E-04  0.0080
   1.3484E+00   1.3812E+00   1.2363E-04  0.0079
   1.3812E+00   1.4148E+00   1.2518E-04  0.0077
   1.4148E+00   1.4492E+00   1.2213E-04  0.0077
   1.4492E+00   1.4845E+00   1.2007E-04  0.0077
   1.4845E+00   1.5206E+00   1.1922E-04  0.0076
   1.5206E+00   1.5576E+00   1.1896E-04  0.0075
   1.5576E+00   1.5955E+00   1.1745E-04  0.0075
   1.5955E+00   1.6343E+00   1.1633E-04  0.0074
   1.6343E+00   1.6741E+00   1.1627E-04  0.0074
   1.6741E+00   1.7148E+00   1.1830E-04  0.0072
   1.7148E+00   1.7565E+00   1.1551E-04  0.0072
   1.7565E+00   1.7992E+00   1.1304E-04  0.0072
   1.7992E+00   1.8430E+00   1.1121E-04  0.0072
   1.8430E+00   1.8879E+00   1.0757E-04  0.0072
   1.8879E+00   1.9338E+00   1.0605E-04  0.0072
   1.9338E+00   1.9808E+00   1.0564E-04  0.0071
   1.9808E+00   2.0290E+00   1.0329E-04  0.0071
   2.0290E+00   2.0784E+00   1.0046E-04  0.0071
   2.0784E+00   2.1290E+00   9.8442E-05  0.0071
   2.1290E+00   2.1808E+00   9.5271E-05  0.0071
   2.1808E+00   2.2338E+00   9.1142E-05  0.0072
   2.2338E+00   2.2882E+00   8.8181E-05  0.0072
   2.2882E+00   2.3439E+00   8.6383E-05  0.0072
   2.3439E+00   2.4009E+00   8.5028E-05  0.0072
   2.4009E+00   2.4593E+00   8.1742E-05  0.0072
   2.4593E+00   2.5191E+00   7.8459E-05  0.0073
   2.5191E+00   2.5804E+00   7.4548E-05  0.0074
   2.5804E+00   2.6432E+00   7.2331E-05  0.0074
   2.6432E+00   2.7075E+00   6.8588E-05  0.0075
   2.7075E+00   2.7734E+00   6.6090E-05  0.0076
   2.7734E+00   2.8409E+00   6.2582E-05  0.0077
   2.8409E+00   2.9100E+00   6.0759E-05  0.0077
   2.9100E+00   2.9808E+00   5.8024E-05  0.0078
   2.9808E+00   3.0533E+00   5.4850E-05  0.0079
   3.0533E+00   3.1276E+00   5.2992E-05  0.0080
   3.1276E+00   3.2037E+00   5.0328E-05  0.0081
   3.2037E+00   3.2817E+00   4.6967E-05  0.0083
   3.2817E+00   3.3615E+00   4.4245E-05  0.0084
   3.3615E+00   3.4433E+00   4.1815E-05  0.0086
   3.4433E+00   3.5271E+00   3.8730E-05  0.0088
   3.5271E+00   3.6129E+00   3.6447E-05  0.0089
   3.6129E+00   3.7008E+00   3.5102E-05  0.0090
   3.7008E+00   3.7908E+00   3.2434E-05  0.0093
   3.7908E+00   3.8831E+00   3.0306E-05  0.0095
   3.8831E+00   3.9776E+00   2.8684E-05  0.0096
   3.9776E+00   4.0743E+00   2.6695E-05  0.0098
   4.0743E+00   4.1735E+00   2.5428E-05  0.0100
   4.1735E+00   4.2750E+00   2.3443E-05  0.0102
   4.2750E+00   4.3790E+00   2.1692E-05  0.0105
   4.3790E+00   4.4856E+00   1.9867E-05  0.0109
   4.4856E+00   4.5947E+00   1.7847E-05  0.0113
   4.5947E+00   4.7065E+00   1.6387E-05  0.0117
   4.7065E+00   4.8210E+00   1.5047E-05  0.0120
   4.8210E+00   4.9383E+00   1.3958E-05  0.0124
   4.9383E+00   5.0585E+00   1.2642E-05  0.0128
   5.0585E+00   5.1815E+00   1.2029E-05  0.0130
   5.1815E+00   5.3076E+00   1.0710E-05  0.0136
   5.3076E+00   5.4368E+00   1.0009E-05  0.0139
   5.4368E+00   5.5690E+00   9.0943E-06  0.0144
   5.5690E+00   5.7045E+00   8.2731E-06  0.0149
   5.7045E+00   5.8433E+00   7.4264E-06  0.0156
   5.8433E+00   5.9855E+00   6.7770E-06  0.0161
   5.9855E+00   6.1311E+00   6.1456E-06  0.0167
   6.1311E+00   6.2803E+00   5.4826E-06  0.0175
   6.2803E+00   6.4331E+00   5.0849E-06  0.0179
   6.4331E+00   6.5896E+00   4.3923E-06  0.0191
   6.5896E+00   6.7500E+00   4.1937E-06  0.0193
   6.7500E+00   6.9142E+00   3.6899E-06  0.0203
   6.9142E+00   7.0824E+00   3.3169E-06  0.0212
   7.0824E+00   7.2548E+00   3.0445E-06  0.0218
   7.2548E+00   7.4313E+00   2.6712E-06  0.0230
   7.4313E+00   7.6121E+00   2.4017E-06  0.0240
   7.6121E+00   7.7973E+00   2.1543E-06  0.0250
   7.7973E+00   7.9870E+00   1.9108E-06  0.0263
   7.9870E+00   8.1813E+00   1.7940E-06  0.0268
   8.1813E+00   8.3804E+00   1.5385E-06  0.0286
   8.3804E+00   8.5843E+00   1.4002E-06  0.0296
   8.5843E+00   8.7931E+00   1.2784E-06  0.0306
   8.7931E+00   9.0071E+00   1.1615E-06  0.0317
   9.0071E+00   9.2262E+00   1.0147E-06  0.0335
   9.2262E+00   9.4507E+00   8.9762E-07  0.0352
   9.4507E+00   9.6807E+00   8.6869E-07  0.0353
   9.6807E+00   9.9162E+00   7.2387E-07  0.0382
   9.9162E+00   1.0157E+01   6.9839E-07  0.0384
   1.0157E+01   1.0405E+01   5.7660E-07  0.0418
   1.0405E+01   1.0658E+01   5.4858E-07  0.0423
   1.0658E+01   1.0917E+01   4.9265E-07  0.0441
   1.0917E+01   1.1183E+01   4.5318E-07  0.0455
   1.1183E+01   1.1455E+01   4.2083E-07  0.0465
   1.1455E+01   1.1733E+01   3.8706E-07  0.0479
   1.1733E+01   1.2019E+01   3.4590E-07  0.0502
   1.2019E+01   1.2311E+01   2.9622E-07  0.0533
   1.2311E+01   1.2611E+01   2.7375E-07  0.0548
   1.2611E+01   1.2918E+01   2.3791E-07  0.0583
   1.2918E+01   1.3232E+01   2.5016E-07  0.0562
   1.3232E+01   1.3554E+01   2.1316E-07  0.0599
   1.3554E+01   1.3884E+01   1.9786E-07  0.0617
   1.3884E+01   1.4222E+01   1.8576E-07  0.0628
   1.4222E+01   1.4568E+01   1.8749E-07  0.0619
   1.4568E+01   1.4922E+01   1.7210E-07  0.0638
   1.4922E+01   1.5285E+01   1.7042E-07  0.0635
   1.5285E+01   1.5657E+01   1.5663E-07  0.0653
   1.5657E+01   1.6038E+01   1.1780E-07  0.0745
   1.6038E+01   1.6428E+01   1.2429E-07  0.0715
   1.6428E+01   1.6828E+01   1.1477E-07  0.0735
   1.6828E+01   1.7237E+01   1.1815E-07  0.0717
   1.7237E+01   1.7657E+01   1.2816E-07  0.0681
   1.7657E+01   1.8086E+01   1.1551E-07  0.0709
   1.8086E+01   1.8526E+01   9.8567E-08  0.0759
   1.8526E+01   1.8977E+01   1.0011E-07  0.0744
   1.8977E+01   1.9439E+01   9.7460E-08  0.0745
   1.9439E+01   1.9912E+01   8.9859E-08  0.0766
   1.9912E+01   2.0396E+01   7.6372E-08  0.0822
   2.0396E+01   2.0893E+01   7.6069E-08  0.0814
   2.0893E+01   2.1401E+01   8.2131E-08  0.0774
   2.1401E+01   2.1922E+01   7.1058E-08  0.0822
   2.1922E+01   2.2455E+01   6.4683E-08  0.0851
   2.2455E+01   2.3001E+01   6.5434E-08  0.0836
   2.3001E+01   2.3561E+01   6.0306E-08  0.0861
   2.3561E+01   2.4134E+01   5.9746E-08  0.0854
   2.4134E+01   2.4721E+01   5.3218E-08  0.0894
   2.4721E+01   2.5323E+01   4.5720E-08  0.0953
   2.5323E+01   2.5939E+01   4.3822E-08  0.0962
   2.5939E+01   2.6570E+01   4.3573E-08  0.0953
   2.6570E+01   2.7217E+01   4.3699E-08  0.0941
   2.7217E+01   2.7879E+01   3.5110E-08  0.1037
   2.7879E+01   2.8557E+01   4.2753E-08  0.0928
   2.8557E+01   2.9252E+01   3.8859E-08  0.0962
   2.9252E+01   2.9964E+01   3.3018E-08  0.1031
   2.9964E+01   3.0693E+01   2.9148E-08  0.1085
   3.0693E+01   3.1440E+01   3.1134E-08  0.1037
   3.1440E+01   3.2205E+01   2.6799E-08  0.1104
   3.2205E+01   3.2988E+01   1.7548E-08  0.1348
   3.2988E+01   3.3791E+01   1.7131E-08  0.1348
   3.3791E+01   3.4613E+01   1.3379E-08  0.1508
   3.4613E+01   3.5455E+01   1.8108E-08  0.1280
   3.5455E+01   3.6318E+01   1.3911E-08  0.1443
   3.6318E+01   3.7201E+01   1.0751E-08  0.1622
   3.7201E+01   3.8106E+01   9.6670E-09  0.1690
   3.8106E+01   3.9034E+01   9.7071E-09  0.1667
   3.9034E+01   3.9983E+01   8.6868E-09  0.1741
   3.9983E+01   4.0956E+01   8.4805E-09  0.1741
   4.0956E+01   4.1953E+01   6.7737E-09  0.1925
   4.1953E+01   4.2973E+01   4.1636E-09  0.2425
   4.2973E+01   4.4019E+01   5.0212E-09  0.2182
   4.4019E+01   4.5090E+01   3.2679E-09  0.2673
   4.5090E+01   4.6187E+01   2.2788E-09  0.3162
   4.6187E+01   4.7311E+01   2.2247E-09  0.3162
   4.7311E+01   4.8462E+01   1.7375E-09  0.3536
   4.8462E+01   4.9641E+01   1.6962E-09  0.3536
   4.9641E+01   5.0849E+01   1.6559E-09  0.3536
   5.0849E+01   5.2086E+01   1.4145E-09  0.3780
   5.2086E+01   5.3353E+01   5.9181E-10  0.5774
   5.3353E+01   5.4651E+01   5.7775E-10  0.5774
   5.4651E+01   5.5981E+01   1.1281E-09  0.4082
   5.5981E+01   5.7343E+01   5.5063E-10  0.5774
   5.7343E+01   5.8738E+01   1.7918E-10  1.0000
   5.8738E+01   6.0168E+01   3.4986E-10  0.7071
   6.0168E+01   6.1632E+01   0.0000E+00  0.0000
   6.1632E+01   6.3131E+01   6.6687E-10  0.5000
   6.3131E+01   6.4667E+01   0.0000E+00  0.0000
   6.4667E+01   6.6240E+01   0.0000E+00  0.0000
   6.6240E+01   6.7852E+01   1.5512E-10  1.0000
   6.7852E+01   6.9503E+01   0.0000E+00  0.0000
   6.9503E+01   7.1194E+01   0.0000E+00  0.0000
   7.1194E+01   7.2926E+01   0.0000E+00  0.0000
   7.2926E+01   7.4701E+01   0.0000E+00  0.0000
   7.4701E+01   7.6518E+01   0.0000E+00  0.0000
   7.6518E+01   7.8380E+01   0.0000E+00  0.0000
   7.8380E+01   8.0287E+01   0.0000E+00  0.0000
   8.0287E+01   8.2240E+01   0.0000E+00  0.0000
   8.2240E+01   8.4241E+01   0.0000E+00  0.0000
   8.4241E+01   8.6291E+01   0.0000E+00  0.0000
   8.6291E+01   8.8391E+01   0.0000E+00  0.0000
   8.8391E+01   9.0541E+01   0.0000E+00  0.0000
   9.0541E+01   9.2744E+01   0.0000E+00  0.0000
   9.2744E+01   9.5001E+01   0.0000E+00  0.0000
   9.5001E+01   9.7312E+01   0.0000E+00  0.0000
   9.7312E+01   9.9680E+01   0.0000E+00  0.0000
   9.9680E+01   1.0211E+02   0.0000E+00  0.0000
   1.0211E+02   1.0459E+02   0.0000E+00  0.0000
   1.0459E+02   1.0713E+02   0.0000E+00  0.0000
   1.0713E+02   1.0974E+02   0.0000E+00  0.0000
   1.0974E+02   1.1241E+02   0.0000E+00  0.0000
   1.1241E+02   1.1515E+02   0.0000E+00  0.0000
   1.1515E+02   1.1795E+02   0.0000E+00  0.0000
   1.1795E+02   1.2082E+02   0.0000E+00  0.0000
   1.2082E+02   1.2376E+02   0.0000E+00  0.0000
   1.2376E+02   1.2677E+02   0.0000E+00  0.0000
   1.2677E+02   1.2985E+02   0.0000E+00  0.0000
   1.2985E+02   1.3301E+02   0.0000E+00  0.0000
   1.3301E+02   1.3625E+02   0.0000E+00  0.0000
   1.3625E+02   1.3956E+02   0.0000E+00  0.0000
   1.3956E+02   1.4296E+02   0.0000E+00  0.0000
   1.4296E+02   1.4644E+02   0.0000E+00  0.0000
   1.4644E+02   1.5000E+02   0.0000E+00  0.0000

#   sum over                 4.2752E-06
'no. =    1   reg = 126 - 226'
msuc: {\huge [t-cross] in region mesh}
msdr: {\it plotted by \ANGEL \version}
msdl: {\it calculated by \PHITS  3.26}
wt: s(0.7)
\vspace{-3}
  region surface crossing
  area  &=&   1.0000E+00 [cm^2]
e:
 
# Information for Restart Calculation
# This calculation was newly started
# istdev =  2 # 1:Batch variance, 2:History variance
# resc2  = 4.00000000000000000E+09 # Total source weight or Total source weight / maxcas
# resc3  = 4.00000000000000000E+09 # Total history number or Total batch number
# maxcas =   500000000 # History / Batch, only used for istdev=1
# bitrseed = 1000111101111101011101111011110101001010011101000111000001010111 # bit data of rseed
