[ T-Cross ]
    title = [t-cross] in region mesh
     mesh =  reg            # mesh type is region-wise
      reg =    1            # number of crossing regions
      non     r-from    r-to       area
      1       105       205        1.000000    
   e-type =    3            # e-mesh is log given by emin, emax and ne
     emin =  1.0000000E-02  # minimum value of e-mesh points
     emax =   150.0000      # maximum value of e-mesh points
#    edel =  2.4039514E-02  # mesh width of e-mesh points
       ne =    400          # number of e-mesh points
#    data = ( e(i), i = 1, ne + 1 )
#           1.00000E-02  1.02433E-02  1.04925E-02  1.07478E-02  1.10093E-02
#           1.12772E-02  1.15516E-02  1.18326E-02  1.21205E-02  1.24154E-02
#           1.27175E-02  1.30269E-02  1.33439E-02  1.36686E-02  1.40011E-02
#           1.43418E-02  1.46907E-02  1.50482E-02  1.54143E-02  1.57894E-02
#           1.61735E-02  1.65670E-02  1.69701E-02  1.73830E-02  1.78060E-02
#           1.82392E-02  1.86830E-02  1.91375E-02  1.96032E-02  2.00801E-02
#           2.05687E-02  2.10692E-02  2.15818E-02  2.21069E-02  2.26448E-02
#           2.31957E-02  2.37601E-02  2.43382E-02  2.49304E-02  2.55369E-02
#           2.61583E-02  2.67947E-02  2.74467E-02  2.81145E-02  2.87985E-02
#           2.94992E-02  3.02169E-02  3.09521E-02  3.17052E-02  3.24766E-02
#           3.32668E-02  3.40762E-02  3.49053E-02  3.57546E-02  3.66246E-02
#           3.75157E-02  3.84284E-02  3.93634E-02  4.03212E-02  4.13022E-02
#           4.23071E-02  4.33365E-02  4.43909E-02  4.54710E-02  4.65773E-02
#           4.77106E-02  4.88714E-02  5.00605E-02  5.12785E-02  5.25262E-02
#           5.38042E-02  5.51133E-02  5.64542E-02  5.78278E-02  5.92348E-02
#           6.06760E-02  6.21523E-02  6.36645E-02  6.52135E-02  6.68002E-02
#           6.84255E-02  7.00904E-02  7.17957E-02  7.35426E-02  7.53319E-02
#           7.71648E-02  7.90423E-02  8.09655E-02  8.29354E-02  8.49533E-02
#           8.70203E-02  8.91376E-02  9.13064E-02  9.35279E-02  9.58035E-02
#           9.81345E-02  1.00522E-01  1.02968E-01  1.05473E-01  1.08040E-01
#           1.10668E-01  1.13361E-01  1.16119E-01  1.18944E-01  1.21838E-01
#           1.24803E-01  1.27839E-01  1.30950E-01  1.34136E-01  1.37399E-01
#           1.40742E-01  1.44167E-01  1.47675E-01  1.51268E-01  1.54948E-01
#           1.58718E-01  1.62580E-01  1.66535E-01  1.70587E-01  1.74738E-01
#           1.78989E-01  1.83344E-01  1.87805E-01  1.92375E-01  1.97055E-01
#           2.01850E-01  2.06761E-01  2.11792E-01  2.16945E-01  2.22223E-01
#           2.27630E-01  2.33169E-01  2.38842E-01  2.44653E-01  2.50605E-01
#           2.56703E-01  2.62949E-01  2.69346E-01  2.75900E-01  2.82613E-01
#           2.89489E-01  2.96532E-01  3.03747E-01  3.11138E-01  3.18708E-01
#           3.26462E-01  3.34405E-01  3.42542E-01  3.50876E-01  3.59413E-01
#           3.68158E-01  3.77116E-01  3.86291E-01  3.95690E-01  4.05317E-01
#           4.15179E-01  4.25281E-01  4.35628E-01  4.46227E-01  4.57084E-01
#           4.68205E-01  4.79597E-01  4.91266E-01  5.03219E-01  5.15463E-01
#           5.28005E-01  5.40851E-01  5.54011E-01  5.67490E-01  5.81298E-01
#           5.95441E-01  6.09929E-01  6.24769E-01  6.39970E-01  6.55541E-01
#           6.71491E-01  6.87828E-01  7.04564E-01  7.21706E-01  7.39266E-01
#           7.57253E-01  7.75678E-01  7.94551E-01  8.13883E-01  8.33685E-01
#           8.53969E-01  8.74747E-01  8.96030E-01  9.17831E-01  9.40163E-01
#           9.63038E-01  9.86469E-01  1.01047E+00  1.03506E+00  1.06024E+00
#           1.08604E+00  1.11246E+00  1.13953E+00  1.16725E+00  1.19565E+00
#           1.22474E+00  1.25454E+00  1.28507E+00  1.31633E+00  1.34836E+00
#           1.38117E+00  1.41477E+00  1.44920E+00  1.48446E+00  1.52057E+00
#           1.55757E+00  1.59547E+00  1.63429E+00  1.67405E+00  1.71478E+00
#           1.75650E+00  1.79924E+00  1.84302E+00  1.88786E+00  1.93379E+00
#           1.98084E+00  2.02904E+00  2.07841E+00  2.12898E+00  2.18078E+00
#           2.23384E+00  2.28819E+00  2.34386E+00  2.40089E+00  2.45930E+00
#           2.51914E+00  2.58043E+00  2.64322E+00  2.70753E+00  2.77341E+00
#           2.84088E+00  2.91001E+00  2.98081E+00  3.05333E+00  3.12762E+00
#           3.20372E+00  3.28167E+00  3.36152E+00  3.44330E+00  3.52708E+00
#           3.61290E+00  3.70080E+00  3.79085E+00  3.88308E+00  3.97756E+00
#           4.07434E+00  4.17347E+00  4.27501E+00  4.37903E+00  4.48557E+00
#           4.59471E+00  4.70650E+00  4.82102E+00  4.93832E+00  5.05847E+00
#           5.18155E+00  5.30762E+00  5.43676E+00  5.56904E+00  5.70453E+00
#           5.84333E+00  5.98550E+00  6.13114E+00  6.28031E+00  6.43312E+00
#           6.58964E+00  6.74997E+00  6.91420E+00  7.08243E+00  7.25475E+00
#           7.43126E+00  7.61207E+00  7.79728E+00  7.98700E+00  8.18133E+00
#           8.38038E+00  8.58428E+00  8.79315E+00  9.00709E+00  9.22624E+00
#           9.45072E+00  9.68067E+00  9.91620E+00  1.01575E+01  1.04046E+01
#           1.06578E+01  1.09171E+01  1.11827E+01  1.14548E+01  1.17335E+01
#           1.20190E+01  1.23114E+01  1.26109E+01  1.29178E+01  1.32321E+01
#           1.35540E+01  1.38838E+01  1.42216E+01  1.45676E+01  1.49221E+01
#           1.52851E+01  1.56570E+01  1.60380E+01  1.64282E+01  1.68279E+01
#           1.72374E+01  1.76568E+01  1.80864E+01  1.85264E+01  1.89772E+01
#           1.94389E+01  1.99119E+01  2.03963E+01  2.08926E+01  2.14009E+01
#           2.19216E+01  2.24550E+01  2.30014E+01  2.35610E+01  2.41343E+01
#           2.47215E+01  2.53230E+01  2.59391E+01  2.65702E+01  2.72167E+01
#           2.78789E+01  2.85572E+01  2.92520E+01  2.99637E+01  3.06928E+01
#           3.14396E+01  3.22045E+01  3.29881E+01  3.37907E+01  3.46128E+01
#           3.54550E+01  3.63177E+01  3.72013E+01  3.81064E+01  3.90336E+01
#           3.99833E+01  4.09561E+01  4.19526E+01  4.29734E+01  4.40189E+01
#           4.50900E+01  4.61870E+01  4.73108E+01  4.84619E+01  4.96410E+01
#           5.08488E+01  5.20860E+01  5.33533E+01  5.46514E+01  5.59812E+01
#           5.73432E+01  5.87384E+01  6.01676E+01  6.16315E+01  6.31311E+01
#           6.46671E+01  6.62405E+01  6.78522E+01  6.95031E+01  7.11941E+01
#           7.29263E+01  7.47007E+01  7.65182E+01  7.83800E+01  8.02870E+01
#           8.22405E+01  8.42414E+01  8.62911E+01  8.83906E+01  9.05412E+01
#           9.27442E+01  9.50007E+01  9.73122E+01  9.96799E+01  1.02105E+02
#           1.04589E+02  1.07134E+02  1.09741E+02  1.12411E+02  1.15146E+02
#           1.17948E+02  1.20817E+02  1.23757E+02  1.26768E+02  1.29852E+02
#           1.33012E+02  1.36248E+02  1.39563E+02  1.42959E+02  1.46437E+02
#           1.50000E+02
     unit =    2            # unit is [1/cm^2/(MeV/n)/source]
     axis =  eng            # axis of output
     file = detector-06.out  # file name of output for the above axis
   output = f-curr          # surface crossing forward current spectrum
     part =  neutron  
# kf/name :  2112     
#    used :        main (  %)        temp (  %)       total (  %)
#  memory :         414 (  0)           0 (  0)         414 (  0)

#------------------------------------------------------------------------------
#newpage:
#   no. =    1   reg = 105 - 205

x: Energy [MeV/n]
y:  F-Curr [1/cm^2/(MeV/n)/source]         
p: xlog ylog afac(0.8) form(0.9)
h: n            x            y(neutron ),hh0l   n 
#  e-lower      e-upper      neutron     r.err 
   1.0000E-02   1.0243E-02   1.0372E-03  0.0890
   1.0243E-02   1.0493E-02   1.2278E-03  0.0808
   1.0493E-02   1.0748E-02   9.4794E-04  0.0909
   1.0748E-02   1.1009E-02   1.1373E-03  0.0819
   1.1009E-02   1.1277E-02   1.0449E-03  0.0843
   1.1277E-02   1.1552E-02   1.0268E-03  0.0839
   1.1552E-02   1.1833E-02   1.2417E-03  0.0756
   1.1833E-02   1.2121E-02   9.5520E-04  0.0852
   1.2121E-02   1.2415E-02   1.0409E-03  0.0806
   1.2415E-02   1.2718E-02   9.6912E-04  0.0824
   1.2718E-02   1.3027E-02   1.1744E-03  0.0741
   1.3027E-02   1.3344E-02   9.6001E-04  0.0810
   1.3344E-02   1.3669E-02   9.7330E-04  0.0796
   1.3669E-02   1.4001E-02   8.2389E-04  0.0854
   1.4001E-02   1.4342E-02   1.0056E-03  0.0764
   1.4342E-02   1.4691E-02   1.0044E-03  0.0753
   1.4691E-02   1.5048E-02   9.9383E-04  0.0749
   1.5048E-02   1.5414E-02   9.6781E-04  0.0751
   1.5414E-02   1.5789E-02   9.3595E-04  0.0753
   1.5789E-02   1.6174E-02   7.7810E-04  0.0816
   1.6174E-02   1.6567E-02   8.9959E-04  0.0751
   1.6567E-02   1.6970E-02   9.2034E-04  0.0732
   1.6970E-02   1.7383E-02   8.4117E-04  0.0758
   1.7383E-02   1.7806E-02   8.1306E-04  0.0760
   1.7806E-02   1.8239E-02   7.6698E-04  0.0774
   1.8239E-02   1.8683E-02   8.7200E-04  0.0718
   1.8683E-02   1.9138E-02   8.7454E-04  0.0708
   1.9138E-02   1.9603E-02   8.5690E-04  0.0708
   1.9603E-02   2.0080E-02   8.4625E-04  0.0703
   2.0080E-02   2.0569E-02   8.0230E-04  0.0713
   2.0569E-02   2.1069E-02   7.8061E-04  0.0715
   2.1069E-02   2.1582E-02   7.5044E-04  0.0718
   2.1582E-02   2.2107E-02   6.5190E-04  0.0764
   2.2107E-02   2.2645E-02   7.3258E-04  0.0711
   2.2645E-02   2.3196E-02   6.9577E-04  0.0722
   2.3196E-02   2.3760E-02   6.8471E-04  0.0718
   2.3760E-02   2.4338E-02   7.4959E-04  0.0679
   2.4338E-02   2.4930E-02   6.7391E-04  0.0706
   2.4930E-02   2.5537E-02   8.0948E-04  0.0637
   2.5537E-02   2.6158E-02   6.4630E-04  0.0704
   2.6158E-02   2.6795E-02   7.0038E-04  0.0668
   2.6795E-02   2.7447E-02   6.0065E-04  0.0713
   2.7447E-02   2.8114E-02   7.0329E-04  0.0652
   2.8114E-02   2.8799E-02   6.6124E-04  0.0664
   2.8799E-02   2.9499E-02   6.0698E-04  0.0685
   2.9499E-02   3.0217E-02   5.6427E-04  0.0701
   3.0217E-02   3.0952E-02   6.3731E-04  0.0652
   3.0952E-02   3.1705E-02   5.5065E-04  0.0692
   3.1705E-02   3.2477E-02   6.0501E-04  0.0653
   3.2477E-02   3.3267E-02   5.9786E-04  0.0650
   3.3267E-02   3.4076E-02   5.3416E-04  0.0680
   3.4076E-02   3.4905E-02   5.1983E-04  0.0681
   3.4905E-02   3.5755E-02   5.2078E-04  0.0672
   3.5755E-02   3.6625E-02   6.2996E-04  0.0603
   3.6625E-02   3.7516E-02   5.5247E-04  0.0637
   3.7516E-02   3.8428E-02   5.2114E-04  0.0646
   3.8428E-02   3.9363E-02   5.3735E-04  0.0630
   3.9363E-02   4.0321E-02   4.6950E-04  0.0666
   4.0321E-02   4.1302E-02   5.1647E-04  0.0625
   4.1302E-02   4.2307E-02   5.1447E-04  0.0622
   4.2307E-02   4.3337E-02   4.7126E-04  0.0642
   4.3337E-02   4.4391E-02   4.5543E-04  0.0643
   4.4391E-02   4.5471E-02   5.0552E-04  0.0605
   4.5471E-02   4.6577E-02   4.2573E-04  0.0651
   4.6577E-02   4.7711E-02   3.9853E-04  0.0665
   4.7711E-02   4.8871E-02   4.6496E-04  0.0608
   4.8871E-02   5.0061E-02   4.7288E-04  0.0596
   5.0061E-02   5.1279E-02   5.0028E-04  0.0572
   5.1279E-02   5.2526E-02   4.0103E-04  0.0632
   5.2526E-02   5.3804E-02   3.9540E-04  0.0628
   5.3804E-02   5.5113E-02   4.3818E-04  0.0590
   5.5113E-02   5.6454E-02   4.0097E-04  0.0609
   5.6454E-02   5.7828E-02   3.9574E-04  0.0606
   5.7828E-02   5.9235E-02   3.9730E-04  0.0597
   5.9235E-02   6.0676E-02   3.6845E-04  0.0613
   6.0676E-02   6.2152E-02   3.9735E-04  0.0583
   6.2152E-02   6.3665E-02   3.6111E-04  0.0604
   6.3665E-02   6.5214E-02   3.9353E-04  0.0572
   6.5214E-02   6.6800E-02   3.3284E-04  0.0615
   6.6800E-02   6.8426E-02   3.6603E-04  0.0579
   6.8426E-02   7.0090E-02   3.4611E-04  0.0588
   7.0090E-02   7.1796E-02   3.2226E-04  0.0602
   7.1796E-02   7.3543E-02   3.4438E-04  0.0576
   7.3543E-02   7.5332E-02   3.6605E-04  0.0551
   7.5332E-02   7.7165E-02   3.3642E-04  0.0569
   7.7165E-02   7.9042E-02   2.8778E-04  0.0607
   7.9042E-02   8.0965E-02   3.3293E-04  0.0558
   8.0965E-02   8.2935E-02   3.3028E-04  0.0554
   8.2935E-02   8.4953E-02   2.9891E-04  0.0575
   8.4953E-02   8.7020E-02   2.9916E-04  0.0568
   8.7020E-02   8.9138E-02   2.9913E-04  0.0562
   8.9138E-02   9.1306E-02   2.7802E-04  0.0576
   9.1306E-02   9.3528E-02   2.8956E-04  0.0556
   9.3528E-02   9.5804E-02   2.6310E-04  0.0577
   9.5804E-02   9.8134E-02   2.9402E-04  0.0539
   9.8134E-02   1.0052E-01   2.6191E-04  0.0565
   1.0052E-01   1.0297E-01   2.6917E-04  0.0550
   1.0297E-01   1.0547E-01   2.7979E-04  0.0533
   1.0547E-01   1.0804E-01   2.3699E-04  0.0573
   1.0804E-01   1.1067E-01   2.3621E-04  0.0567
   1.1067E-01   1.1336E-01   2.2443E-04  0.0574
   1.1336E-01   1.1612E-01   2.4086E-04  0.0548
   1.1612E-01   1.1894E-01   2.2051E-04  0.0566
   1.1894E-01   1.2184E-01   2.4320E-04  0.0532
   1.2184E-01   1.2480E-01   2.3593E-04  0.0534
   1.2480E-01   1.2784E-01   1.8321E-04  0.0599
   1.2784E-01   1.3095E-01   2.2542E-04  0.0533
   1.3095E-01   1.3414E-01   2.3649E-04  0.0514
   1.3414E-01   1.3740E-01   1.9078E-04  0.0566
   1.3740E-01   1.4074E-01   1.8111E-04  0.0573
   1.4074E-01   1.4417E-01   2.0440E-04  0.0534
   1.4417E-01   1.4767E-01   1.9663E-04  0.0538
   1.4767E-01   1.5127E-01   1.9232E-04  0.0538
   1.5127E-01   1.5495E-01   1.9586E-04  0.0526
   1.5495E-01   1.5872E-01   1.8057E-04  0.0541
   1.5872E-01   1.6258E-01   1.7071E-04  0.0550
   1.6258E-01   1.6654E-01   1.7904E-04  0.0531
   1.6654E-01   1.7059E-01   1.7597E-04  0.0528
   1.7059E-01   1.7474E-01   1.7330E-04  0.0527
   1.7474E-01   1.7899E-01   1.4492E-04  0.0569
   1.7899E-01   1.8334E-01   1.7835E-04  0.0507
   1.8334E-01   1.8781E-01   1.7388E-04  0.0507
   1.8781E-01   1.9237E-01   1.5529E-04  0.0530
   1.9237E-01   1.9706E-01   1.3289E-04  0.0566
   1.9706E-01   2.0185E-01   1.4008E-04  0.0545
   2.0185E-01   2.0676E-01   1.5296E-04  0.0515
   2.0676E-01   2.1179E-01   1.6087E-04  0.0496
   2.1179E-01   2.1694E-01   1.4177E-04  0.0522
   2.1694E-01   2.2222E-01   1.5769E-04  0.0489
   2.2222E-01   2.2763E-01   1.6454E-04  0.0474
   2.2763E-01   2.3317E-01   1.7964E-04  0.0448
   2.3317E-01   2.3884E-01   1.6080E-04  0.0468
   2.3884E-01   2.4465E-01   1.7729E-04  0.0440
   2.4465E-01   2.5061E-01   1.9055E-04  0.0420
   2.5061E-01   2.5670E-01   1.8350E-04  0.0422
   2.5670E-01   2.6295E-01   1.8818E-04  0.0412
   2.6295E-01   2.6935E-01   1.9021E-04  0.0405
   2.6935E-01   2.7590E-01   1.9028E-04  0.0401
   2.7590E-01   2.8261E-01   1.9165E-04  0.0394
   2.8261E-01   2.8949E-01   1.9693E-04  0.0384
   2.8949E-01   2.9653E-01   1.9673E-04  0.0379
   2.9653E-01   3.0375E-01   2.0358E-04  0.0368
   3.0375E-01   3.1114E-01   2.2237E-04  0.0348
   3.1114E-01   3.1871E-01   2.0996E-04  0.0354
   3.1871E-01   3.2646E-01   2.1125E-04  0.0349
   3.2646E-01   3.3441E-01   2.0916E-04  0.0346
   3.3441E-01   3.4254E-01   2.1925E-04  0.0334
   3.4254E-01   3.5088E-01   2.1379E-04  0.0334
   3.5088E-01   3.5941E-01   2.1858E-04  0.0327
   3.5941E-01   3.6816E-01   2.3413E-04  0.0312
   3.6816E-01   3.7712E-01   2.2145E-04  0.0317
   3.7712E-01   3.8629E-01   2.2751E-04  0.0309
   3.8629E-01   3.9569E-01   2.1813E-04  0.0312
   3.9569E-01   4.0532E-01   2.4507E-04  0.0291
   4.0532E-01   4.1518E-01   2.3809E-04  0.0291
   4.1518E-01   4.2528E-01   2.4597E-04  0.0283
   4.2528E-01   4.3563E-01   2.3094E-04  0.0289
   4.3563E-01   4.4623E-01   2.4535E-04  0.0277
   4.4623E-01   4.5708E-01   2.5160E-04  0.0270
   4.5708E-01   4.6821E-01   2.4251E-04  0.0272
   4.6821E-01   4.7960E-01   2.4149E-04  0.0269
   4.7960E-01   4.9127E-01   2.4025E-04  0.0267
   4.9127E-01   5.0322E-01   2.4562E-04  0.0260
   5.0322E-01   5.1546E-01   2.5956E-04  0.0250
   5.1546E-01   5.2800E-01   2.5534E-04  0.0249
   5.2800E-01   5.4085E-01   2.4449E-04  0.0252
   5.4085E-01   5.5401E-01   2.6380E-04  0.0240
   5.5401E-01   5.6749E-01   2.5182E-04  0.0242
   5.6749E-01   5.8130E-01   2.6133E-04  0.0235
   5.8130E-01   5.9544E-01   2.7221E-04  0.0228
   5.9544E-01   6.0993E-01   2.6559E-04  0.0228
   6.0993E-01   6.2477E-01   2.5945E-04  0.0227
   6.2477E-01   6.3997E-01   2.5368E-04  0.0227
   6.3997E-01   6.5554E-01   2.7024E-04  0.0218
   6.5554E-01   6.7149E-01   2.5584E-04  0.0221
   6.7149E-01   6.8783E-01   2.7215E-04  0.0212
   6.8783E-01   7.0456E-01   2.6939E-04  0.0210
   7.0456E-01   7.2171E-01   2.6153E-04  0.0211
   7.2171E-01   7.3927E-01   2.7358E-04  0.0204
   7.3927E-01   7.5725E-01   2.7021E-04  0.0202
   7.5725E-01   7.7568E-01   2.7152E-04  0.0200
   7.7568E-01   7.9455E-01   2.6295E-04  0.0200
   7.9455E-01   8.1388E-01   2.7371E-04  0.0194
   8.1388E-01   8.3368E-01   2.6591E-04  0.0194
   8.3368E-01   8.5397E-01   2.6503E-04  0.0193
   8.5397E-01   8.7475E-01   2.6275E-04  0.0191
   8.7475E-01   8.9603E-01   2.6271E-04  0.0189
   8.9603E-01   9.1783E-01   2.6009E-04  0.0187
   9.1783E-01   9.4016E-01   2.5065E-04  0.0189
   9.4016E-01   9.6304E-01   2.4769E-04  0.0188
   9.6304E-01   9.8647E-01   2.4509E-04  0.0186
   9.8647E-01   1.0105E+00   2.4027E-04  0.0186
   1.0105E+00   1.0351E+00   2.3600E-04  0.0185
   1.0351E+00   1.0602E+00   2.3807E-04  0.0182
   1.0602E+00   1.0860E+00   2.3580E-04  0.0181
   1.0860E+00   1.1125E+00   2.3399E-04  0.0179
   1.1125E+00   1.1395E+00   2.3639E-04  0.0176
   1.1395E+00   1.1673E+00   2.2989E-04  0.0177
   1.1673E+00   1.1957E+00   2.4504E-04  0.0169
   1.1957E+00   1.2247E+00   2.4497E-04  0.0167
   1.2247E+00   1.2545E+00   2.3188E-04  0.0170
   1.2545E+00   1.2851E+00   2.4502E-04  0.0163
   1.2851E+00   1.3163E+00   2.3635E-04  0.0164
   1.3163E+00   1.3484E+00   2.3998E-04  0.0161
   1.3484E+00   1.3812E+00   2.3606E-04  0.0160
   1.3812E+00   1.4148E+00   2.3742E-04  0.0158
   1.4148E+00   1.4492E+00   2.4704E-04  0.0153
   1.4492E+00   1.4845E+00   2.4124E-04  0.0153
   1.4845E+00   1.5206E+00   2.3707E-04  0.0153
   1.5206E+00   1.5576E+00   2.3452E-04  0.0151
   1.5576E+00   1.5955E+00   2.3222E-04  0.0150
   1.5955E+00   1.6343E+00   2.3003E-04  0.0149
   1.6343E+00   1.6741E+00   2.2747E-04  0.0148
   1.6741E+00   1.7148E+00   2.3323E-04  0.0145
   1.7148E+00   1.7565E+00   2.3245E-04  0.0143
   1.7565E+00   1.7992E+00   2.3271E-04  0.0142
   1.7992E+00   1.8430E+00   2.2986E-04  0.0141
   1.8430E+00   1.8879E+00   2.3147E-04  0.0139
   1.8879E+00   1.9338E+00   2.2761E-04  0.0138
   1.9338E+00   1.9808E+00   2.3430E-04  0.0134
   1.9808E+00   2.0290E+00   2.3125E-04  0.0134
   2.0290E+00   2.0784E+00   2.2924E-04  0.0133
   2.0784E+00   2.1290E+00   2.3065E-04  0.0131
   2.1290E+00   2.1808E+00   2.3059E-04  0.0129
   2.1808E+00   2.2338E+00   2.2784E-04  0.0128
   2.2338E+00   2.2882E+00   2.2825E-04  0.0127
   2.2882E+00   2.3439E+00   2.2907E-04  0.0125
   2.3439E+00   2.4009E+00   2.2803E-04  0.0124
   2.4009E+00   2.4593E+00   2.2983E-04  0.0122
   2.4593E+00   2.5191E+00   2.2782E-04  0.0121
   2.5191E+00   2.5804E+00   2.2418E-04  0.0120
   2.5804E+00   2.6432E+00   2.3103E-04  0.0117
   2.6432E+00   2.7075E+00   2.2951E-04  0.0116
   2.7075E+00   2.7734E+00   2.2660E-04  0.0116
   2.7734E+00   2.8409E+00   2.2569E-04  0.0114
   2.8409E+00   2.9100E+00   2.2429E-04  0.0113
   2.9100E+00   2.9808E+00   2.2698E-04  0.0111
   2.9808E+00   3.0533E+00   2.3036E-04  0.0109
   3.0533E+00   3.1276E+00   2.2416E-04  0.0109
   3.1276E+00   3.2037E+00   2.2212E-04  0.0109
   3.2037E+00   3.2817E+00   2.2398E-04  0.0107
   3.2817E+00   3.3615E+00   2.2211E-04  0.0106
   3.3615E+00   3.4433E+00   2.1695E-04  0.0106
   3.4433E+00   3.5271E+00   2.2564E-04  0.0103
   3.5271E+00   3.6129E+00   2.2326E-04  0.0102
   3.6129E+00   3.7008E+00   2.1813E-04  0.0102
   3.7008E+00   3.7908E+00   2.2069E-04  0.0100
   3.7908E+00   3.8831E+00   2.2422E-04  0.0098
   3.8831E+00   3.9776E+00   2.2288E-04  0.0097
   3.9776E+00   4.0743E+00   2.2286E-04  0.0096
   4.0743E+00   4.1735E+00   2.2203E-04  0.0095
   4.1735E+00   4.2750E+00   2.2261E-04  0.0094
   4.2750E+00   4.3790E+00   2.2597E-04  0.0092
   4.3790E+00   4.4856E+00   2.2226E-04  0.0092
   4.4856E+00   4.5947E+00   2.1986E-04  0.0091
   4.5947E+00   4.7065E+00   2.2151E-04  0.0090
   4.7065E+00   4.8210E+00   2.1968E-04  0.0089
   4.8210E+00   4.9383E+00   2.1868E-04  0.0088
   4.9383E+00   5.0585E+00   2.2054E-04  0.0087
   5.0585E+00   5.1815E+00   2.2293E-04  0.0085
   5.1815E+00   5.3076E+00   2.1873E-04  0.0085
   5.3076E+00   5.4368E+00   2.2676E-04  0.0083
   5.4368E+00   5.5690E+00   2.2138E-04  0.0083
   5.5690E+00   5.7045E+00   2.2031E-04  0.0082
   5.7045E+00   5.8433E+00   2.2082E-04  0.0081
   5.8433E+00   5.9855E+00   2.2347E-04  0.0079
   5.9855E+00   6.1311E+00   2.2132E-04  0.0079
   6.1311E+00   6.2803E+00   2.2177E-04  0.0078
   6.2803E+00   6.4331E+00   2.2176E-04  0.0077
   6.4331E+00   6.5896E+00   2.2430E-04  0.0075
   6.5896E+00   6.7500E+00   2.2088E-04  0.0075
   6.7500E+00   6.9142E+00   2.2300E-04  0.0074
   6.9142E+00   7.0824E+00   2.2325E-04  0.0073
   7.0824E+00   7.2548E+00   2.2204E-04  0.0072
   7.2548E+00   7.4313E+00   2.2029E-04  0.0072
   7.4313E+00   7.6121E+00   2.2296E-04  0.0070
   7.6121E+00   7.7973E+00   2.1978E-04  0.0070
   7.7973E+00   7.9870E+00   2.2409E-04  0.0069
   7.9870E+00   8.1813E+00   2.2590E-04  0.0067
   8.1813E+00   8.3804E+00   2.2438E-04  0.0067
   8.3804E+00   8.5843E+00   2.2447E-04  0.0066
   8.5843E+00   8.7931E+00   2.2679E-04  0.0065
   8.7931E+00   9.0071E+00   2.2599E-04  0.0064
   9.0071E+00   9.2262E+00   2.2730E-04  0.0063
   9.2262E+00   9.4507E+00   2.2751E-04  0.0063
   9.4507E+00   9.6807E+00   2.2942E-04  0.0062
   9.6807E+00   9.9162E+00   2.2700E-04  0.0061
   9.9162E+00   1.0157E+01   2.2742E-04  0.0060
   1.0157E+01   1.0405E+01   2.2943E-04  0.0059
   1.0405E+01   1.0658E+01   2.3076E-04  0.0059
   1.0658E+01   1.0917E+01   2.3032E-04  0.0058
   1.0917E+01   1.1183E+01   2.3280E-04  0.0057
   1.1183E+01   1.1455E+01   2.2998E-04  0.0057
   1.1455E+01   1.1733E+01   2.3225E-04  0.0056
   1.1733E+01   1.2019E+01   2.3277E-04  0.0055
   1.2019E+01   1.2311E+01   2.3374E-04  0.0054
   1.2311E+01   1.2611E+01   2.3332E-04  0.0053
   1.2611E+01   1.2918E+01   2.3738E-04  0.0052
   1.2918E+01   1.3232E+01   2.3429E-04  0.0052
   1.3232E+01   1.3554E+01   2.3684E-04  0.0051
   1.3554E+01   1.3884E+01   2.3431E-04  0.0051
   1.3884E+01   1.4222E+01   2.3714E-04  0.0050
   1.4222E+01   1.4568E+01   2.3777E-04  0.0049
   1.4568E+01   1.4922E+01   2.3580E-04  0.0049
   1.4922E+01   1.5285E+01   2.3692E-04  0.0048
   1.5285E+01   1.5657E+01   2.3615E-04  0.0048
   1.5657E+01   1.6038E+01   2.3540E-04  0.0047
   1.6038E+01   1.6428E+01   2.3413E-04  0.0047
   1.6428E+01   1.6828E+01   2.3356E-04  0.0046
   1.6828E+01   1.7237E+01   2.3516E-04  0.0046
   1.7237E+01   1.7657E+01   2.3280E-04  0.0045
   1.7657E+01   1.8086E+01   2.3017E-04  0.0045
   1.8086E+01   1.8526E+01   2.3008E-04  0.0044
   1.8526E+01   1.8977E+01   2.2987E-04  0.0044
   1.8977E+01   1.9439E+01   2.2983E-04  0.0043
   1.9439E+01   1.9912E+01   2.2773E-04  0.0043
   1.9912E+01   2.0396E+01   2.2539E-04  0.0043
   2.0396E+01   2.0893E+01   2.2614E-04  0.0042
   2.0893E+01   2.1401E+01   2.2135E-04  0.0042
   2.1401E+01   2.1922E+01   2.1942E-04  0.0042
   2.1922E+01   2.2455E+01   2.1636E-04  0.0042
   2.2455E+01   2.3001E+01   2.1291E-04  0.0041
   2.3001E+01   2.3561E+01   2.0942E-04  0.0041
   2.3561E+01   2.4134E+01   2.0527E-04  0.0041
   2.4134E+01   2.4721E+01   2.0190E-04  0.0041
   2.4721E+01   2.5323E+01   1.9486E-04  0.0041
   2.5323E+01   2.5939E+01   1.8902E-04  0.0041
   2.5939E+01   2.6570E+01   1.8492E-04  0.0041
   2.6570E+01   2.7217E+01   1.7851E-04  0.0042
   2.7217E+01   2.7879E+01   1.7226E-04  0.0042
   2.7879E+01   2.8557E+01   1.6729E-04  0.0042
   2.8557E+01   2.9252E+01   1.5988E-04  0.0042
   2.9252E+01   2.9964E+01   1.5351E-04  0.0043
   2.9964E+01   3.0693E+01   1.4754E-04  0.0043
   3.0693E+01   3.1440E+01   1.3914E-04  0.0044
   3.1440E+01   3.2205E+01   1.3124E-04  0.0045
   3.2205E+01   3.2988E+01   1.2416E-04  0.0045
   3.2988E+01   3.3791E+01   1.1706E-04  0.0046
   3.3791E+01   3.4613E+01   1.1135E-04  0.0047
   3.4613E+01   3.5455E+01   1.0322E-04  0.0048
   3.5455E+01   3.6318E+01   9.5114E-05  0.0049
   3.6318E+01   3.7201E+01   8.8914E-05  0.0050
   3.7201E+01   3.8106E+01   8.2032E-05  0.0052
   3.8106E+01   3.9034E+01   7.6108E-05  0.0053
   3.9034E+01   3.9983E+01   6.9871E-05  0.0055
   3.9983E+01   4.0956E+01   6.3919E-05  0.0057
   4.0956E+01   4.1953E+01   5.8443E-05  0.0059
   4.1953E+01   4.2973E+01   5.3845E-05  0.0060
   4.2973E+01   4.4019E+01   4.9006E-05  0.0062
   4.4019E+01   4.5090E+01   4.4384E-05  0.0065
   4.5090E+01   4.6187E+01   4.0376E-05  0.0067
   4.6187E+01   4.7311E+01   3.7629E-05  0.0069
   4.7311E+01   4.8462E+01   3.4268E-05  0.0071
   4.8462E+01   4.9641E+01   3.1474E-05  0.0073
   4.9641E+01   5.0849E+01   2.8975E-05  0.0076
   5.0849E+01   5.2086E+01   2.6468E-05  0.0078
   5.2086E+01   5.3353E+01   2.4017E-05  0.0081
   5.3353E+01   5.4651E+01   2.2204E-05  0.0083
   5.4651E+01   5.5981E+01   2.0048E-05  0.0087
   5.5981E+01   5.7343E+01   1.8200E-05  0.0090
   5.7343E+01   5.8738E+01   1.7195E-05  0.0091
   5.8738E+01   6.0168E+01   1.5837E-05  0.0094
   6.0168E+01   6.1632E+01   1.4079E-05  0.0099
   6.1632E+01   6.3131E+01   1.2088E-05  0.0105
   6.3131E+01   6.4667E+01   1.0582E-05  0.0111
   6.4667E+01   6.6240E+01   8.7339E-06  0.0121
   6.6240E+01   6.7852E+01   7.4878E-06  0.0129
   6.7852E+01   6.9503E+01   6.5673E-06  0.0136
   6.9503E+01   7.1194E+01   5.3895E-06  0.0148
   7.1194E+01   7.2926E+01   3.8448E-06  0.0173
   7.2926E+01   7.4701E+01   2.5373E-06  0.0211
   7.4701E+01   7.6518E+01   1.1015E-06  0.0316
   7.6518E+01   7.8380E+01   4.1681E-07  0.0508
   7.8380E+01   8.0287E+01   4.8242E-08  0.1474
   8.0287E+01   8.2240E+01   0.0000E+00  0.0000
   8.2240E+01   8.4241E+01   0.0000E+00  0.0000
   8.4241E+01   8.6291E+01   0.0000E+00  0.0000
   8.6291E+01   8.8391E+01   0.0000E+00  0.0000
   8.8391E+01   9.0541E+01   0.0000E+00  0.0000
   9.0541E+01   9.2744E+01   0.0000E+00  0.0000
   9.2744E+01   9.5001E+01   0.0000E+00  0.0000
   9.5001E+01   9.7312E+01   0.0000E+00  0.0000
   9.7312E+01   9.9680E+01   0.0000E+00  0.0000
   9.9680E+01   1.0211E+02   0.0000E+00  0.0000
   1.0211E+02   1.0459E+02   0.0000E+00  0.0000
   1.0459E+02   1.0713E+02   0.0000E+00  0.0000
   1.0713E+02   1.0974E+02   0.0000E+00  0.0000
   1.0974E+02   1.1241E+02   0.0000E+00  0.0000
   1.1241E+02   1.1515E+02   0.0000E+00  0.0000
   1.1515E+02   1.1795E+02   0.0000E+00  0.0000
   1.1795E+02   1.2082E+02   0.0000E+00  0.0000
   1.2082E+02   1.2376E+02   0.0000E+00  0.0000
   1.2376E+02   1.2677E+02   0.0000E+00  0.0000
   1.2677E+02   1.2985E+02   0.0000E+00  0.0000
   1.2985E+02   1.3301E+02   0.0000E+00  0.0000
   1.3301E+02   1.3625E+02   0.0000E+00  0.0000
   1.3625E+02   1.3956E+02   0.0000E+00  0.0000
   1.3956E+02   1.4296E+02   0.0000E+00  0.0000
   1.4296E+02   1.4644E+02   0.0000E+00  0.0000
   1.4644E+02   1.5000E+02   0.0000E+00  0.0000

#   sum over                 5.5819E-05
'no. =    1   reg = 105 - 205'
msuc: {\huge [t-cross] in region mesh}
msdr: {\it plotted by \ANGEL \version}
msdl: {\it calculated by \PHITS  3.26}
wt: s(0.7)
\vspace{-3}
  region surface crossing
  area  &=&   1.0000E+00 [cm^2]
e:
 
# Information for Restart Calculation
# This calculation was newly started
# istdev =  2 # 1:Batch variance, 2:History variance
# resc2  = 5.00000000000000000E+08 # Total source weight or Total source weight / maxcas
# resc3  = 5.00000000000000000E+08 # Total history number or Total batch number
# maxcas =   500000000 # History / Batch, only used for istdev=1
# bitrseed = 1101101111010011011000101101110001100110110010110001010100010001 # bit data of rseed
