[ T-Cross ]
    title = [t-cross] in region mesh
     mesh =  reg            # mesh type is region-wise
      reg =    1            # number of crossing regions
      non     r-from    r-to       area
      1       115       215        1.000000    
   e-type =    3            # e-mesh is log given by emin, emax and ne
     emin =  1.0000000E-02  # minimum value of e-mesh points
     emax =   150.0000      # maximum value of e-mesh points
#    edel =  2.4039514E-02  # mesh width of e-mesh points
       ne =    400          # number of e-mesh points
#    data = ( e(i), i = 1, ne + 1 )
#           1.00000E-02  1.02433E-02  1.04925E-02  1.07478E-02  1.10093E-02
#           1.12772E-02  1.15516E-02  1.18326E-02  1.21205E-02  1.24154E-02
#           1.27175E-02  1.30269E-02  1.33439E-02  1.36686E-02  1.40011E-02
#           1.43418E-02  1.46907E-02  1.50482E-02  1.54143E-02  1.57894E-02
#           1.61735E-02  1.65670E-02  1.69701E-02  1.73830E-02  1.78060E-02
#           1.82392E-02  1.86830E-02  1.91375E-02  1.96032E-02  2.00801E-02
#           2.05687E-02  2.10692E-02  2.15818E-02  2.21069E-02  2.26448E-02
#           2.31957E-02  2.37601E-02  2.43382E-02  2.49304E-02  2.55369E-02
#           2.61583E-02  2.67947E-02  2.74467E-02  2.81145E-02  2.87985E-02
#           2.94992E-02  3.02169E-02  3.09521E-02  3.17052E-02  3.24766E-02
#           3.32668E-02  3.40762E-02  3.49053E-02  3.57546E-02  3.66246E-02
#           3.75157E-02  3.84284E-02  3.93634E-02  4.03212E-02  4.13022E-02
#           4.23071E-02  4.33365E-02  4.43909E-02  4.54710E-02  4.65773E-02
#           4.77106E-02  4.88714E-02  5.00605E-02  5.12785E-02  5.25262E-02
#           5.38042E-02  5.51133E-02  5.64542E-02  5.78278E-02  5.92348E-02
#           6.06760E-02  6.21523E-02  6.36645E-02  6.52135E-02  6.68002E-02
#           6.84255E-02  7.00904E-02  7.17957E-02  7.35426E-02  7.53319E-02
#           7.71648E-02  7.90423E-02  8.09655E-02  8.29354E-02  8.49533E-02
#           8.70203E-02  8.91376E-02  9.13064E-02  9.35279E-02  9.58035E-02
#           9.81345E-02  1.00522E-01  1.02968E-01  1.05473E-01  1.08040E-01
#           1.10668E-01  1.13361E-01  1.16119E-01  1.18944E-01  1.21838E-01
#           1.24803E-01  1.27839E-01  1.30950E-01  1.34136E-01  1.37399E-01
#           1.40742E-01  1.44167E-01  1.47675E-01  1.51268E-01  1.54948E-01
#           1.58718E-01  1.62580E-01  1.66535E-01  1.70587E-01  1.74738E-01
#           1.78989E-01  1.83344E-01  1.87805E-01  1.92375E-01  1.97055E-01
#           2.01850E-01  2.06761E-01  2.11792E-01  2.16945E-01  2.22223E-01
#           2.27630E-01  2.33169E-01  2.38842E-01  2.44653E-01  2.50605E-01
#           2.56703E-01  2.62949E-01  2.69346E-01  2.75900E-01  2.82613E-01
#           2.89489E-01  2.96532E-01  3.03747E-01  3.11138E-01  3.18708E-01
#           3.26462E-01  3.34405E-01  3.42542E-01  3.50876E-01  3.59413E-01
#           3.68158E-01  3.77116E-01  3.86291E-01  3.95690E-01  4.05317E-01
#           4.15179E-01  4.25281E-01  4.35628E-01  4.46227E-01  4.57084E-01
#           4.68205E-01  4.79597E-01  4.91266E-01  5.03219E-01  5.15463E-01
#           5.28005E-01  5.40851E-01  5.54011E-01  5.67490E-01  5.81298E-01
#           5.95441E-01  6.09929E-01  6.24769E-01  6.39970E-01  6.55541E-01
#           6.71491E-01  6.87828E-01  7.04564E-01  7.21706E-01  7.39266E-01
#           7.57253E-01  7.75678E-01  7.94551E-01  8.13883E-01  8.33685E-01
#           8.53969E-01  8.74747E-01  8.96030E-01  9.17831E-01  9.40163E-01
#           9.63038E-01  9.86469E-01  1.01047E+00  1.03506E+00  1.06024E+00
#           1.08604E+00  1.11246E+00  1.13953E+00  1.16725E+00  1.19565E+00
#           1.22474E+00  1.25454E+00  1.28507E+00  1.31633E+00  1.34836E+00
#           1.38117E+00  1.41477E+00  1.44920E+00  1.48446E+00  1.52057E+00
#           1.55757E+00  1.59547E+00  1.63429E+00  1.67405E+00  1.71478E+00
#           1.75650E+00  1.79924E+00  1.84302E+00  1.88786E+00  1.93379E+00
#           1.98084E+00  2.02904E+00  2.07841E+00  2.12898E+00  2.18078E+00
#           2.23384E+00  2.28819E+00  2.34386E+00  2.40089E+00  2.45930E+00
#           2.51914E+00  2.58043E+00  2.64322E+00  2.70753E+00  2.77341E+00
#           2.84088E+00  2.91001E+00  2.98081E+00  3.05333E+00  3.12762E+00
#           3.20372E+00  3.28167E+00  3.36152E+00  3.44330E+00  3.52708E+00
#           3.61290E+00  3.70080E+00  3.79085E+00  3.88308E+00  3.97756E+00
#           4.07434E+00  4.17347E+00  4.27501E+00  4.37903E+00  4.48557E+00
#           4.59471E+00  4.70650E+00  4.82102E+00  4.93832E+00  5.05847E+00
#           5.18155E+00  5.30762E+00  5.43676E+00  5.56904E+00  5.70453E+00
#           5.84333E+00  5.98550E+00  6.13114E+00  6.28031E+00  6.43312E+00
#           6.58964E+00  6.74997E+00  6.91420E+00  7.08243E+00  7.25475E+00
#           7.43126E+00  7.61207E+00  7.79728E+00  7.98700E+00  8.18133E+00
#           8.38038E+00  8.58428E+00  8.79315E+00  9.00709E+00  9.22624E+00
#           9.45072E+00  9.68067E+00  9.91620E+00  1.01575E+01  1.04046E+01
#           1.06578E+01  1.09171E+01  1.11827E+01  1.14548E+01  1.17335E+01
#           1.20190E+01  1.23114E+01  1.26109E+01  1.29178E+01  1.32321E+01
#           1.35540E+01  1.38838E+01  1.42216E+01  1.45676E+01  1.49221E+01
#           1.52851E+01  1.56570E+01  1.60380E+01  1.64282E+01  1.68279E+01
#           1.72374E+01  1.76568E+01  1.80864E+01  1.85264E+01  1.89772E+01
#           1.94389E+01  1.99119E+01  2.03963E+01  2.08926E+01  2.14009E+01
#           2.19216E+01  2.24550E+01  2.30014E+01  2.35610E+01  2.41343E+01
#           2.47215E+01  2.53230E+01  2.59391E+01  2.65702E+01  2.72167E+01
#           2.78789E+01  2.85572E+01  2.92520E+01  2.99637E+01  3.06928E+01
#           3.14396E+01  3.22045E+01  3.29881E+01  3.37907E+01  3.46128E+01
#           3.54550E+01  3.63177E+01  3.72013E+01  3.81064E+01  3.90336E+01
#           3.99833E+01  4.09561E+01  4.19526E+01  4.29734E+01  4.40189E+01
#           4.50900E+01  4.61870E+01  4.73108E+01  4.84619E+01  4.96410E+01
#           5.08488E+01  5.20860E+01  5.33533E+01  5.46514E+01  5.59812E+01
#           5.73432E+01  5.87384E+01  6.01676E+01  6.16315E+01  6.31311E+01
#           6.46671E+01  6.62405E+01  6.78522E+01  6.95031E+01  7.11941E+01
#           7.29263E+01  7.47007E+01  7.65182E+01  7.83800E+01  8.02870E+01
#           8.22405E+01  8.42414E+01  8.62911E+01  8.83906E+01  9.05412E+01
#           9.27442E+01  9.50007E+01  9.73122E+01  9.96799E+01  1.02105E+02
#           1.04589E+02  1.07134E+02  1.09741E+02  1.12411E+02  1.15146E+02
#           1.17948E+02  1.20817E+02  1.23757E+02  1.26768E+02  1.29852E+02
#           1.33012E+02  1.36248E+02  1.39563E+02  1.42959E+02  1.46437E+02
#           1.50000E+02
     unit =    2            # unit is [1/cm^2/(MeV/n)/source]
     axis =  eng            # axis of output
     file = detector-16.out  # file name of output for the above axis
   output = f-curr          # surface crossing forward current spectrum
     part =  neutron  
# kf/name :  2112     
#    used :        main (  %)        temp (  %)       total (  %)
#  memory :         414 (  0)           0 (  0)         414 (  0)

#------------------------------------------------------------------------------
#newpage:
#   no. =    1   reg = 115 - 215

x: Energy [MeV/n]
y:  F-Curr [1/cm^2/(MeV/n)/source]         
p: xlog ylog afac(0.8) form(0.9)
h: n            x            y(neutron ),hh0l   n 
#  e-lower      e-upper      neutron     r.err 
   1.0000E-02   1.0243E-02   2.1975E-03  0.0611
   1.0243E-02   1.0493E-02   1.9226E-03  0.0645
   1.0493E-02   1.0748E-02   1.9072E-03  0.0640
   1.0748E-02   1.1009E-02   1.8877E-03  0.0636
   1.1009E-02   1.1277E-02   1.7968E-03  0.0643
   1.1277E-02   1.1552E-02   1.9112E-03  0.0617
   1.1552E-02   1.1833E-02   1.8654E-03  0.0617
   1.1833E-02   1.2121E-02   1.9695E-03  0.0593
   1.2121E-02   1.2415E-02   1.8219E-03  0.0609
   1.2415E-02   1.2718E-02   1.7946E-03  0.0607
   1.2718E-02   1.3027E-02   1.9539E-03  0.0574
   1.3027E-02   1.3344E-02   1.7655E-03  0.0597
   1.3344E-02   1.3669E-02   1.6843E-03  0.0604
   1.3669E-02   1.4001E-02   1.8088E-03  0.0575
   1.4001E-02   1.4342E-02   1.6479E-03  0.0596
   1.4342E-02   1.4691E-02   1.7031E-03  0.0579
   1.4691E-02   1.5048E-02   1.8001E-03  0.0557
   1.5048E-02   1.5414E-02   1.7050E-03  0.0566
   1.5414E-02   1.5789E-02   1.6418E-03  0.0569
   1.5789E-02   1.6174E-02   1.5899E-03  0.0571
   1.6174E-02   1.6567E-02   1.3933E-03  0.0603
   1.6567E-02   1.6970E-02   1.4320E-03  0.0588
   1.6970E-02   1.7383E-02   1.6726E-03  0.0538
   1.7383E-02   1.7806E-02   1.4766E-03  0.0565
   1.7806E-02   1.8239E-02   1.5272E-03  0.0549
   1.8239E-02   1.8683E-02   1.4194E-03  0.0563
   1.8683E-02   1.9138E-02   1.3688E-03  0.0566
   1.9138E-02   1.9603E-02   1.3954E-03  0.0554
   1.9603E-02   2.0080E-02   1.5530E-03  0.0519
   2.0080E-02   2.0569E-02   1.1947E-03  0.0585
   2.0569E-02   2.1069E-02   1.4060E-03  0.0533
   2.1069E-02   2.1582E-02   1.2996E-03  0.0547
   2.1582E-02   2.2107E-02   1.1290E-03  0.0580
   2.2107E-02   2.2645E-02   1.1804E-03  0.0560
   2.2645E-02   2.3196E-02   1.1591E-03  0.0559
   2.3196E-02   2.3760E-02   1.1970E-03  0.0544
   2.3760E-02   2.4338E-02   1.2063E-03  0.0536
   2.4338E-02   2.4930E-02   1.1717E-03  0.0535
   2.4930E-02   2.5537E-02   1.2534E-03  0.0512
   2.5537E-02   2.6158E-02   1.1939E-03  0.0518
   2.6158E-02   2.6795E-02   1.1126E-03  0.0530
   2.6795E-02   2.7447E-02   1.0502E-03  0.0540
   2.7447E-02   2.8114E-02   1.1336E-03  0.0513
   2.8114E-02   2.8799E-02   1.0259E-03  0.0533
   2.8799E-02   2.9499E-02   1.1246E-03  0.0503
   2.9499E-02   3.0217E-02   1.0937E-03  0.0505
   3.0217E-02   3.0952E-02   9.8610E-04  0.0525
   3.0952E-02   3.1705E-02   9.6171E-04  0.0524
   3.1705E-02   3.2477E-02   9.2410E-04  0.0528
   3.2477E-02   3.3267E-02   9.2958E-04  0.0521
   3.3267E-02   3.4076E-02   1.0249E-03  0.0490
   3.4076E-02   3.4905E-02   9.4325E-04  0.0505
   3.4905E-02   3.5755E-02   8.6645E-04  0.0520
   3.5755E-02   3.6625E-02   9.4007E-04  0.0494
   3.6625E-02   3.7516E-02   9.2821E-04  0.0491
   3.7516E-02   3.8428E-02   8.5815E-04  0.0505
   3.8428E-02   3.9363E-02   8.2779E-04  0.0507
   3.9363E-02   4.0321E-02   8.6557E-04  0.0491
   4.0321E-02   4.1302E-02   8.2772E-04  0.0496
   4.1302E-02   4.2307E-02   8.1066E-04  0.0495
   4.2307E-02   4.3337E-02   7.7979E-04  0.0498
   4.3337E-02   4.4391E-02   8.1653E-04  0.0481
   4.4391E-02   4.5471E-02   8.1416E-04  0.0476
   4.5471E-02   4.6577E-02   7.8201E-04  0.0481
   4.6577E-02   4.7711E-02   7.3705E-04  0.0489
   4.7711E-02   4.8871E-02   7.4806E-04  0.0479
   4.8871E-02   5.0061E-02   7.0758E-04  0.0487
   5.0061E-02   5.1279E-02   7.1307E-04  0.0479
   5.1279E-02   5.2526E-02   7.1449E-04  0.0473
   5.2526E-02   5.3804E-02   6.4253E-04  0.0493
   5.3804E-02   5.5113E-02   6.5864E-04  0.0481
   5.5113E-02   5.6454E-02   6.4099E-04  0.0482
   5.6454E-02   5.7828E-02   6.1041E-04  0.0487
   5.7828E-02   5.9235E-02   5.9713E-04  0.0487
   5.9235E-02   6.0676E-02   6.7623E-04  0.0453
   6.0676E-02   6.2152E-02   6.5364E-04  0.0454
   6.2152E-02   6.3665E-02   5.8218E-04  0.0476
   6.3665E-02   6.5214E-02   6.3211E-04  0.0451
   6.5214E-02   6.6800E-02   5.8163E-04  0.0464
   6.6800E-02   6.8426E-02   5.6527E-04  0.0465
   6.8426E-02   7.0090E-02   5.6859E-04  0.0459
   7.0090E-02   7.1796E-02   5.5898E-04  0.0458
   7.1796E-02   7.3543E-02   5.2581E-04  0.0466
   7.3543E-02   7.5332E-02   5.6678E-04  0.0443
   7.5332E-02   7.7165E-02   5.3866E-04  0.0449
   7.7165E-02   7.9042E-02   5.3877E-04  0.0444
   7.9042E-02   8.0965E-02   4.9281E-04  0.0459
   8.0965E-02   8.2935E-02   4.7139E-04  0.0463
   8.2935E-02   8.4953E-02   4.4857E-04  0.0469
   8.4953E-02   8.7020E-02   4.4037E-04  0.0468
   8.7020E-02   8.9138E-02   4.5651E-04  0.0454
   8.9138E-02   9.1306E-02   4.5157E-04  0.0451
   9.1306E-02   9.3528E-02   4.5472E-04  0.0444
   9.3528E-02   9.5804E-02   4.4226E-04  0.0445
   9.5804E-02   9.8134E-02   4.1424E-04  0.0454
   9.8134E-02   1.0052E-01   4.0816E-04  0.0453
   1.0052E-01   1.0297E-01   4.0705E-04  0.0448
   1.0297E-01   1.0547E-01   4.2204E-04  0.0434
   1.0547E-01   1.0804E-01   4.3456E-04  0.0423
   1.0804E-01   1.1067E-01   3.9606E-04  0.0438
   1.1067E-01   1.1336E-01   4.1054E-04  0.0425
   1.1336E-01   1.1612E-01   3.6482E-04  0.0445
   1.1612E-01   1.1894E-01   3.5370E-04  0.0447
   1.1894E-01   1.2184E-01   3.5016E-04  0.0443
   1.2184E-01   1.2480E-01   3.3935E-04  0.0445
   1.2480E-01   1.2784E-01   3.4966E-04  0.0433
   1.2784E-01   1.3095E-01   3.4754E-04  0.0429
   1.3095E-01   1.3414E-01   3.4735E-04  0.0424
   1.3414E-01   1.3740E-01   3.2569E-04  0.0433
   1.3740E-01   1.4074E-01   3.1534E-04  0.0435
   1.4074E-01   1.4417E-01   3.1286E-04  0.0431
   1.4417E-01   1.4767E-01   2.8909E-04  0.0443
   1.4767E-01   1.5127E-01   2.9464E-04  0.0434
   1.5127E-01   1.5495E-01   2.9186E-04  0.0431
   1.5495E-01   1.5872E-01   2.8788E-04  0.0429
   1.5872E-01   1.6258E-01   2.8058E-04  0.0429
   1.6258E-01   1.6654E-01   2.4056E-04  0.0458
   1.6654E-01   1.7059E-01   2.8151E-04  0.0418
   1.7059E-01   1.7474E-01   2.6072E-04  0.0429
   1.7474E-01   1.7899E-01   2.3118E-04  0.0450
   1.7899E-01   1.8334E-01   2.3655E-04  0.0440
   1.8334E-01   1.8781E-01   2.5887E-04  0.0416
   1.8781E-01   1.9237E-01   2.2356E-04  0.0441
   1.9237E-01   1.9706E-01   2.3194E-04  0.0428
   1.9706E-01   2.0185E-01   2.2063E-04  0.0434
   2.0185E-01   2.0676E-01   2.6415E-04  0.0392
   2.0676E-01   2.1179E-01   2.3541E-04  0.0410
   2.1179E-01   2.1694E-01   2.3935E-04  0.0402
   2.1694E-01   2.2222E-01   2.6646E-04  0.0377
   2.2222E-01   2.2763E-01   2.6534E-04  0.0373
   2.2763E-01   2.3317E-01   2.7622E-04  0.0361
   2.3317E-01   2.3884E-01   2.6015E-04  0.0367
   2.3884E-01   2.4465E-01   2.9899E-04  0.0339
   2.4465E-01   2.5061E-01   2.9826E-04  0.0335
   2.5061E-01   2.5670E-01   2.8182E-04  0.0340
   2.5670E-01   2.6295E-01   3.1023E-04  0.0321
   2.6295E-01   2.6935E-01   3.3085E-04  0.0307
   2.6935E-01   2.7590E-01   3.1842E-04  0.0309
   2.7590E-01   2.8261E-01   3.2665E-04  0.0301
   2.8261E-01   2.8949E-01   3.3082E-04  0.0296
   2.8949E-01   2.9653E-01   3.3233E-04  0.0292
   2.9653E-01   3.0375E-01   3.4087E-04  0.0285
   3.0375E-01   3.1114E-01   3.5711E-04  0.0275
   3.1114E-01   3.1871E-01   3.5967E-04  0.0270
   3.1871E-01   3.2646E-01   3.7720E-04  0.0261
   3.2646E-01   3.3441E-01   3.5660E-04  0.0265
   3.3441E-01   3.4254E-01   3.9312E-04  0.0250
   3.4254E-01   3.5088E-01   3.8228E-04  0.0250
   3.5088E-01   3.5941E-01   3.8849E-04  0.0245
   3.5941E-01   3.6816E-01   3.9235E-04  0.0241
   3.6816E-01   3.7712E-01   4.1229E-04  0.0232
   3.7712E-01   3.8629E-01   4.0748E-04  0.0231
   3.8629E-01   3.9569E-01   4.1548E-04  0.0226
   3.9569E-01   4.0532E-01   4.2051E-04  0.0222
   4.0532E-01   4.1518E-01   4.4044E-04  0.0214
   4.1518E-01   4.2528E-01   4.2377E-04  0.0216
   4.2528E-01   4.3563E-01   4.5684E-04  0.0205
   4.3563E-01   4.4623E-01   4.7812E-04  0.0198
   4.4623E-01   4.5708E-01   4.6213E-04  0.0199
   4.5708E-01   4.6821E-01   4.5652E-04  0.0198
   4.6821E-01   4.7960E-01   4.5417E-04  0.0196
   4.7960E-01   4.9127E-01   4.7152E-04  0.0190
   4.9127E-01   5.0322E-01   4.7592E-04  0.0187
   5.0322E-01   5.1546E-01   4.6638E-04  0.0187
   5.1546E-01   5.2800E-01   4.7776E-04  0.0182
   5.2800E-01   5.4085E-01   4.7878E-04  0.0180
   5.4085E-01   5.5401E-01   4.9109E-04  0.0176
   5.5401E-01   5.6749E-01   4.9843E-04  0.0172
   5.6749E-01   5.8130E-01   5.1426E-04  0.0167
   5.8130E-01   5.9544E-01   4.8490E-04  0.0170
   5.9544E-01   6.0993E-01   4.9937E-04  0.0166
   6.0993E-01   6.2477E-01   5.1597E-04  0.0161
   6.2477E-01   6.3997E-01   5.1519E-04  0.0159
   6.3997E-01   6.5554E-01   5.1669E-04  0.0157
   6.5554E-01   6.7149E-01   5.0274E-04  0.0158
   6.7149E-01   6.8783E-01   5.2177E-04  0.0153
   6.8783E-01   7.0456E-01   5.1275E-04  0.0152
   7.0456E-01   7.2171E-01   4.9995E-04  0.0152
   7.2171E-01   7.3927E-01   5.0959E-04  0.0149
   7.3927E-01   7.5725E-01   5.0318E-04  0.0148
   7.5725E-01   7.7568E-01   5.0000E-04  0.0147
   7.7568E-01   7.9455E-01   5.0809E-04  0.0144
   7.9455E-01   8.1388E-01   5.0092E-04  0.0143
   8.1388E-01   8.3368E-01   4.8716E-04  0.0144
   8.3368E-01   8.5397E-01   4.8325E-04  0.0142
   8.5397E-01   8.7475E-01   4.7931E-04  0.0141
   8.7475E-01   8.9603E-01   4.7879E-04  0.0140
   8.9603E-01   9.1783E-01   4.6660E-04  0.0140
   9.1783E-01   9.4016E-01   4.5485E-04  0.0140
   9.4016E-01   9.6304E-01   4.5250E-04  0.0139
   9.6304E-01   9.8647E-01   4.3572E-04  0.0140
   9.8647E-01   1.0105E+00   4.3866E-04  0.0137
   1.0105E+00   1.0351E+00   4.2698E-04  0.0138
   1.0351E+00   1.0602E+00   4.3904E-04  0.0134
   1.0602E+00   1.0860E+00   4.2498E-04  0.0135
   1.0860E+00   1.1125E+00   4.3358E-04  0.0132
   1.1125E+00   1.1395E+00   4.5061E-04  0.0128
   1.1395E+00   1.1673E+00   4.5138E-04  0.0126
   1.1673E+00   1.1957E+00   4.7108E-04  0.0122
   1.1957E+00   1.2247E+00   4.7802E-04  0.0120
   1.2247E+00   1.2545E+00   4.7349E-04  0.0119
   1.2545E+00   1.2851E+00   4.7727E-04  0.0117
   1.2851E+00   1.3163E+00   4.8231E-04  0.0115
   1.3163E+00   1.3484E+00   4.9986E-04  0.0111
   1.3484E+00   1.3812E+00   5.0064E-04  0.0110
   1.3812E+00   1.4148E+00   5.1227E-04  0.0107
   1.4148E+00   1.4492E+00   5.1459E-04  0.0106
   1.4492E+00   1.4845E+00   5.2079E-04  0.0104
   1.4845E+00   1.5206E+00   5.1566E-04  0.0103
   1.5206E+00   1.5576E+00   5.2332E-04  0.0101
   1.5576E+00   1.5955E+00   5.2438E-04  0.0100
   1.5955E+00   1.6343E+00   5.2573E-04  0.0099
   1.6343E+00   1.6741E+00   5.3797E-04  0.0096
   1.6741E+00   1.7148E+00   5.5592E-04  0.0094
   1.7148E+00   1.7565E+00   5.3937E-04  0.0094
   1.7565E+00   1.7992E+00   5.5050E-04  0.0092
   1.7992E+00   1.8430E+00   5.5447E-04  0.0090
   1.8430E+00   1.8879E+00   5.4532E-04  0.0090
   1.8879E+00   1.9338E+00   5.5836E-04  0.0088
   1.9338E+00   1.9808E+00   5.5068E-04  0.0088
   1.9808E+00   2.0290E+00   5.6747E-04  0.0085
   2.0290E+00   2.0784E+00   5.6077E-04  0.0085
   2.0784E+00   2.1290E+00   5.5902E-04  0.0084
   2.1290E+00   2.1808E+00   5.5491E-04  0.0083
   2.1808E+00   2.2338E+00   5.4908E-04  0.0083
   2.2338E+00   2.2882E+00   5.5006E-04  0.0081
   2.2882E+00   2.3439E+00   5.4710E-04  0.0081
   2.3439E+00   2.4009E+00   5.4460E-04  0.0080
   2.4009E+00   2.4593E+00   5.5325E-04  0.0078
   2.4593E+00   2.5191E+00   5.5548E-04  0.0077
   2.5191E+00   2.5804E+00   5.3517E-04  0.0078
   2.5804E+00   2.6432E+00   5.3607E-04  0.0077
   2.6432E+00   2.7075E+00   5.3316E-04  0.0076
   2.7075E+00   2.7734E+00   5.1793E-04  0.0076
   2.7734E+00   2.8409E+00   5.2066E-04  0.0075
   2.8409E+00   2.9100E+00   5.1317E-04  0.0075
   2.9100E+00   2.9808E+00   5.1221E-04  0.0074
   2.9808E+00   3.0533E+00   5.0367E-04  0.0074
   3.0533E+00   3.1276E+00   4.9737E-04  0.0073
   3.1276E+00   3.2037E+00   4.9024E-04  0.0073
   3.2037E+00   3.2817E+00   4.8357E-04  0.0073
   3.2817E+00   3.3615E+00   4.6914E-04  0.0073
   3.3615E+00   3.4433E+00   4.6061E-04  0.0073
   3.4433E+00   3.5271E+00   4.5326E-04  0.0072
   3.5271E+00   3.6129E+00   4.4140E-04  0.0072
   3.6129E+00   3.7008E+00   4.3618E-04  0.0072
   3.7008E+00   3.7908E+00   4.2782E-04  0.0072
   3.7908E+00   3.8831E+00   4.2029E-04  0.0072
   3.8831E+00   3.9776E+00   4.0728E-04  0.0072
   3.9776E+00   4.0743E+00   4.0235E-04  0.0071
   4.0743E+00   4.1735E+00   3.9453E-04  0.0071
   4.1735E+00   4.2750E+00   3.8221E-04  0.0072
   4.2750E+00   4.3790E+00   3.7429E-04  0.0071
   4.3790E+00   4.4856E+00   3.6452E-04  0.0072
   4.4856E+00   4.5947E+00   3.5841E-04  0.0071
   4.5947E+00   4.7065E+00   3.4334E-04  0.0072
   4.7065E+00   4.8210E+00   3.3630E-04  0.0072
   4.8210E+00   4.9383E+00   3.2384E-04  0.0072
   4.9383E+00   5.0585E+00   3.0790E-04  0.0073
   5.0585E+00   5.1815E+00   2.9830E-04  0.0074
   5.1815E+00   5.3076E+00   2.8857E-04  0.0074
   5.3076E+00   5.4368E+00   2.7722E-04  0.0074
   5.4368E+00   5.5690E+00   2.7109E-04  0.0074
   5.5690E+00   5.7045E+00   2.5963E-04  0.0075
   5.7045E+00   5.8433E+00   2.5059E-04  0.0076
   5.8433E+00   5.9855E+00   2.3949E-04  0.0076
   5.9855E+00   6.1311E+00   2.3196E-04  0.0077
   6.1311E+00   6.2803E+00   2.2114E-04  0.0078
   6.2803E+00   6.4331E+00   2.1549E-04  0.0078
   6.4331E+00   6.5896E+00   2.0414E-04  0.0079
   6.5896E+00   6.7500E+00   1.9338E-04  0.0080
   6.7500E+00   6.9142E+00   1.8913E-04  0.0080
   6.9142E+00   7.0824E+00   1.7966E-04  0.0081
   7.0824E+00   7.2548E+00   1.7163E-04  0.0082
   7.2548E+00   7.4313E+00   1.6243E-04  0.0083
   7.4313E+00   7.6121E+00   1.5371E-04  0.0085
   7.6121E+00   7.7973E+00   1.4738E-04  0.0085
   7.7973E+00   7.9870E+00   1.3948E-04  0.0087
   7.9870E+00   8.1813E+00   1.3159E-04  0.0088
   8.1813E+00   8.3804E+00   1.2567E-04  0.0089
   8.3804E+00   8.5843E+00   1.1764E-04  0.0091
   8.5843E+00   8.7931E+00   1.1300E-04  0.0092
   8.7931E+00   9.0071E+00   1.0687E-04  0.0093
   9.0071E+00   9.2262E+00   1.0184E-04  0.0094
   9.2262E+00   9.4507E+00   9.7890E-05  0.0095
   9.4507E+00   9.6807E+00   9.3676E-05  0.0096
   9.6807E+00   9.9162E+00   8.9327E-05  0.0097
   9.9162E+00   1.0157E+01   8.2691E-05  0.0100
   1.0157E+01   1.0405E+01   8.2061E-05  0.0099
   1.0405E+01   1.0658E+01   8.0206E-05  0.0099
   1.0658E+01   1.0917E+01   7.7764E-05  0.0099
   1.0917E+01   1.1183E+01   7.4730E-05  0.0100
   1.1183E+01   1.1455E+01   7.1623E-05  0.0101
   1.1455E+01   1.1733E+01   6.7291E-05  0.0103
   1.1733E+01   1.2019E+01   6.5451E-05  0.0103
   1.2019E+01   1.2311E+01   6.1280E-05  0.0106
   1.2311E+01   1.2611E+01   5.7901E-05  0.0107
   1.2611E+01   1.2918E+01   5.4373E-05  0.0109
   1.2918E+01   1.3232E+01   5.2342E-05  0.0110
   1.3232E+01   1.3554E+01   5.0552E-05  0.0111
   1.3554E+01   1.3884E+01   4.6839E-05  0.0114
   1.3884E+01   1.4222E+01   4.4519E-05  0.0115
   1.4222E+01   1.4568E+01   4.1349E-05  0.0118
   1.4568E+01   1.4922E+01   3.9051E-05  0.0120
   1.4922E+01   1.5285E+01   3.7713E-05  0.0121
   1.5285E+01   1.5657E+01   3.5107E-05  0.0124
   1.5657E+01   1.6038E+01   3.2623E-05  0.0127
   1.6038E+01   1.6428E+01   2.9918E-05  0.0131
   1.6428E+01   1.6828E+01   2.8921E-05  0.0132
   1.6828E+01   1.7237E+01   2.6573E-05  0.0136
   1.7237E+01   1.7657E+01   2.4829E-05  0.0139
   1.7657E+01   1.8086E+01   2.3224E-05  0.0142
   1.8086E+01   1.8526E+01   2.2373E-05  0.0143
   1.8526E+01   1.8977E+01   2.0163E-05  0.0148
   1.8977E+01   1.9439E+01   1.9435E-05  0.0149
   1.9439E+01   1.9912E+01   1.8447E-05  0.0151
   1.9912E+01   2.0396E+01   1.7752E-05  0.0152
   2.0396E+01   2.0893E+01   1.6342E-05  0.0157
   2.0893E+01   2.1401E+01   1.5022E-05  0.0162
   2.1401E+01   2.1922E+01   1.4223E-05  0.0164
   2.1922E+01   2.2455E+01   1.3218E-05  0.0168
   2.2455E+01   2.3001E+01   1.1762E-05  0.0176
   2.3001E+01   2.3561E+01   1.0660E-05  0.0183
   2.3561E+01   2.4134E+01   1.0016E-05  0.0187
   2.4134E+01   2.4721E+01   9.2915E-06  0.0191
   2.4721E+01   2.5323E+01   8.2960E-06  0.0200
   2.5323E+01   2.5939E+01   7.6380E-06  0.0206
   2.5939E+01   2.6570E+01   6.4964E-06  0.0221
   2.6570E+01   2.7217E+01   5.8100E-06  0.0231
   2.7217E+01   2.7879E+01   5.3760E-06  0.0237
   2.7879E+01   2.8557E+01   4.6792E-06  0.0251
   2.8557E+01   2.9252E+01   4.1277E-06  0.0264
   2.9252E+01   2.9964E+01   3.5295E-06  0.0282
   2.9964E+01   3.0693E+01   3.1631E-06  0.0294
   3.0693E+01   3.1440E+01   2.5684E-06  0.0323
   3.1440E+01   3.2205E+01   2.3322E-06  0.0335
   3.2205E+01   3.2988E+01   1.8658E-06  0.0370
   3.2988E+01   3.3791E+01   1.6371E-06  0.0390
   3.3791E+01   3.4613E+01   1.2528E-06  0.0441
   3.4613E+01   3.5455E+01   1.0687E-06  0.0471
   3.5455E+01   3.6318E+01   8.6710E-07  0.0517
   3.6318E+01   3.7201E+01   7.4012E-07  0.0553
   3.7201E+01   3.8106E+01   6.9161E-07  0.0565
   3.8106E+01   3.9034E+01   5.4360E-07  0.0630
   3.9034E+01   3.9983E+01   4.4013E-07  0.0692
   3.9983E+01   4.0956E+01   3.6389E-07  0.0752
   4.0956E+01   4.1953E+01   3.1912E-07  0.0793
   4.1953E+01   4.2973E+01   2.2141E-07  0.0941
   4.2973E+01   4.4019E+01   1.7024E-07  0.1060
   4.4019E+01   4.5090E+01   1.7367E-07  0.1037
   4.5090E+01   4.6187E+01   1.3126E-07  0.1179
   4.6187E+01   4.7311E+01   9.9665E-08  0.1336
   4.7311E+01   4.8462E+01   8.1660E-08  0.1459
   4.8462E+01   4.9641E+01   6.4455E-08  0.1622
   4.9641E+01   5.0849E+01   4.3053E-08  0.1961
   5.0849E+01   5.2086E+01   2.9098E-08  0.2357
   5.2086E+01   5.3353E+01   2.9985E-08  0.2294
   5.3353E+01   5.4651E+01   2.3110E-08  0.2582
   5.4651E+01   5.5981E+01   6.0163E-09  0.5000
   5.5981E+01   5.7343E+01   8.8101E-09  0.4082
   5.7343E+01   5.8738E+01   8.6009E-09  0.4082
   5.8738E+01   6.0168E+01   4.1983E-09  0.5774
   6.0168E+01   6.1632E+01   0.0000E+00  0.0000
   6.1632E+01   6.3131E+01   0.0000E+00  0.0000
   6.3131E+01   6.4667E+01   0.0000E+00  0.0000
   6.4667E+01   6.6240E+01   0.0000E+00  0.0000
   6.6240E+01   6.7852E+01   0.0000E+00  0.0000
   6.7852E+01   6.9503E+01   0.0000E+00  0.0000
   6.9503E+01   7.1194E+01   0.0000E+00  0.0000
   7.1194E+01   7.2926E+01   0.0000E+00  0.0000
   7.2926E+01   7.4701E+01   0.0000E+00  0.0000
   7.4701E+01   7.6518E+01   0.0000E+00  0.0000
   7.6518E+01   7.8380E+01   0.0000E+00  0.0000
   7.8380E+01   8.0287E+01   0.0000E+00  0.0000
   8.0287E+01   8.2240E+01   0.0000E+00  0.0000
   8.2240E+01   8.4241E+01   0.0000E+00  0.0000
   8.4241E+01   8.6291E+01   0.0000E+00  0.0000
   8.6291E+01   8.8391E+01   0.0000E+00  0.0000
   8.8391E+01   9.0541E+01   0.0000E+00  0.0000
   9.0541E+01   9.2744E+01   0.0000E+00  0.0000
   9.2744E+01   9.5001E+01   0.0000E+00  0.0000
   9.5001E+01   9.7312E+01   0.0000E+00  0.0000
   9.7312E+01   9.9680E+01   0.0000E+00  0.0000
   9.9680E+01   1.0211E+02   0.0000E+00  0.0000
   1.0211E+02   1.0459E+02   0.0000E+00  0.0000
   1.0459E+02   1.0713E+02   0.0000E+00  0.0000
   1.0713E+02   1.0974E+02   0.0000E+00  0.0000
   1.0974E+02   1.1241E+02   0.0000E+00  0.0000
   1.1241E+02   1.1515E+02   0.0000E+00  0.0000
   1.1515E+02   1.1795E+02   0.0000E+00  0.0000
   1.1795E+02   1.2082E+02   0.0000E+00  0.0000
   1.2082E+02   1.2376E+02   0.0000E+00  0.0000
   1.2376E+02   1.2677E+02   0.0000E+00  0.0000
   1.2677E+02   1.2985E+02   0.0000E+00  0.0000
   1.2985E+02   1.3301E+02   0.0000E+00  0.0000
   1.3301E+02   1.3625E+02   0.0000E+00  0.0000
   1.3625E+02   1.3956E+02   0.0000E+00  0.0000
   1.3956E+02   1.4296E+02   0.0000E+00  0.0000
   1.4296E+02   1.4644E+02   0.0000E+00  0.0000
   1.4644E+02   1.5000E+02   0.0000E+00  0.0000

#   sum over                 2.4649E-05
'no. =    1   reg = 115 - 215'
msuc: {\huge [t-cross] in region mesh}
msdr: {\it plotted by \ANGEL \version}
msdl: {\it calculated by \PHITS  3.26}
wt: s(0.7)
\vspace{-3}
  region surface crossing
  area  &=&   1.0000E+00 [cm^2]
e:
 
# Information for Restart Calculation
# This calculation was newly started
# istdev =  2 # 1:Batch variance, 2:History variance
# resc2  = 5.00000000000000000E+08 # Total source weight or Total source weight / maxcas
# resc3  = 5.00000000000000000E+08 # Total history number or Total batch number
# maxcas =   500000000 # History / Batch, only used for istdev=1
# bitrseed = 1101101111010011011000101101110001100110110010110001010100010001 # bit data of rseed
