[ T-Cross ]
    title = [t-cross] in region mesh
     mesh =  reg            # mesh type is region-wise
      reg =    1            # number of crossing regions
      non     r-from    r-to       area
      1       120       220        1.000000    
   e-type =    3            # e-mesh is log given by emin, emax and ne
     emin =  1.0000000E-02  # minimum value of e-mesh points
     emax =   150.0000      # maximum value of e-mesh points
#    edel =  2.4039514E-02  # mesh width of e-mesh points
       ne =    400          # number of e-mesh points
#    data = ( e(i), i = 1, ne + 1 )
#           1.00000E-02  1.02433E-02  1.04925E-02  1.07478E-02  1.10093E-02
#           1.12772E-02  1.15516E-02  1.18326E-02  1.21205E-02  1.24154E-02
#           1.27175E-02  1.30269E-02  1.33439E-02  1.36686E-02  1.40011E-02
#           1.43418E-02  1.46907E-02  1.50482E-02  1.54143E-02  1.57894E-02
#           1.61735E-02  1.65670E-02  1.69701E-02  1.73830E-02  1.78060E-02
#           1.82392E-02  1.86830E-02  1.91375E-02  1.96032E-02  2.00801E-02
#           2.05687E-02  2.10692E-02  2.15818E-02  2.21069E-02  2.26448E-02
#           2.31957E-02  2.37601E-02  2.43382E-02  2.49304E-02  2.55369E-02
#           2.61583E-02  2.67947E-02  2.74467E-02  2.81145E-02  2.87985E-02
#           2.94992E-02  3.02169E-02  3.09521E-02  3.17052E-02  3.24766E-02
#           3.32668E-02  3.40762E-02  3.49053E-02  3.57546E-02  3.66246E-02
#           3.75157E-02  3.84284E-02  3.93634E-02  4.03212E-02  4.13022E-02
#           4.23071E-02  4.33365E-02  4.43909E-02  4.54710E-02  4.65773E-02
#           4.77106E-02  4.88714E-02  5.00605E-02  5.12785E-02  5.25262E-02
#           5.38042E-02  5.51133E-02  5.64542E-02  5.78278E-02  5.92348E-02
#           6.06760E-02  6.21523E-02  6.36645E-02  6.52135E-02  6.68002E-02
#           6.84255E-02  7.00904E-02  7.17957E-02  7.35426E-02  7.53319E-02
#           7.71648E-02  7.90423E-02  8.09655E-02  8.29354E-02  8.49533E-02
#           8.70203E-02  8.91376E-02  9.13064E-02  9.35279E-02  9.58035E-02
#           9.81345E-02  1.00522E-01  1.02968E-01  1.05473E-01  1.08040E-01
#           1.10668E-01  1.13361E-01  1.16119E-01  1.18944E-01  1.21838E-01
#           1.24803E-01  1.27839E-01  1.30950E-01  1.34136E-01  1.37399E-01
#           1.40742E-01  1.44167E-01  1.47675E-01  1.51268E-01  1.54948E-01
#           1.58718E-01  1.62580E-01  1.66535E-01  1.70587E-01  1.74738E-01
#           1.78989E-01  1.83344E-01  1.87805E-01  1.92375E-01  1.97055E-01
#           2.01850E-01  2.06761E-01  2.11792E-01  2.16945E-01  2.22223E-01
#           2.27630E-01  2.33169E-01  2.38842E-01  2.44653E-01  2.50605E-01
#           2.56703E-01  2.62949E-01  2.69346E-01  2.75900E-01  2.82613E-01
#           2.89489E-01  2.96532E-01  3.03747E-01  3.11138E-01  3.18708E-01
#           3.26462E-01  3.34405E-01  3.42542E-01  3.50876E-01  3.59413E-01
#           3.68158E-01  3.77116E-01  3.86291E-01  3.95690E-01  4.05317E-01
#           4.15179E-01  4.25281E-01  4.35628E-01  4.46227E-01  4.57084E-01
#           4.68205E-01  4.79597E-01  4.91266E-01  5.03219E-01  5.15463E-01
#           5.28005E-01  5.40851E-01  5.54011E-01  5.67490E-01  5.81298E-01
#           5.95441E-01  6.09929E-01  6.24769E-01  6.39970E-01  6.55541E-01
#           6.71491E-01  6.87828E-01  7.04564E-01  7.21706E-01  7.39266E-01
#           7.57253E-01  7.75678E-01  7.94551E-01  8.13883E-01  8.33685E-01
#           8.53969E-01  8.74747E-01  8.96030E-01  9.17831E-01  9.40163E-01
#           9.63038E-01  9.86469E-01  1.01047E+00  1.03506E+00  1.06024E+00
#           1.08604E+00  1.11246E+00  1.13953E+00  1.16725E+00  1.19565E+00
#           1.22474E+00  1.25454E+00  1.28507E+00  1.31633E+00  1.34836E+00
#           1.38117E+00  1.41477E+00  1.44920E+00  1.48446E+00  1.52057E+00
#           1.55757E+00  1.59547E+00  1.63429E+00  1.67405E+00  1.71478E+00
#           1.75650E+00  1.79924E+00  1.84302E+00  1.88786E+00  1.93379E+00
#           1.98084E+00  2.02904E+00  2.07841E+00  2.12898E+00  2.18078E+00
#           2.23384E+00  2.28819E+00  2.34386E+00  2.40089E+00  2.45930E+00
#           2.51914E+00  2.58043E+00  2.64322E+00  2.70753E+00  2.77341E+00
#           2.84088E+00  2.91001E+00  2.98081E+00  3.05333E+00  3.12762E+00
#           3.20372E+00  3.28167E+00  3.36152E+00  3.44330E+00  3.52708E+00
#           3.61290E+00  3.70080E+00  3.79085E+00  3.88308E+00  3.97756E+00
#           4.07434E+00  4.17347E+00  4.27501E+00  4.37903E+00  4.48557E+00
#           4.59471E+00  4.70650E+00  4.82102E+00  4.93832E+00  5.05847E+00
#           5.18155E+00  5.30762E+00  5.43676E+00  5.56904E+00  5.70453E+00
#           5.84333E+00  5.98550E+00  6.13114E+00  6.28031E+00  6.43312E+00
#           6.58964E+00  6.74997E+00  6.91420E+00  7.08243E+00  7.25475E+00
#           7.43126E+00  7.61207E+00  7.79728E+00  7.98700E+00  8.18133E+00
#           8.38038E+00  8.58428E+00  8.79315E+00  9.00709E+00  9.22624E+00
#           9.45072E+00  9.68067E+00  9.91620E+00  1.01575E+01  1.04046E+01
#           1.06578E+01  1.09171E+01  1.11827E+01  1.14548E+01  1.17335E+01
#           1.20190E+01  1.23114E+01  1.26109E+01  1.29178E+01  1.32321E+01
#           1.35540E+01  1.38838E+01  1.42216E+01  1.45676E+01  1.49221E+01
#           1.52851E+01  1.56570E+01  1.60380E+01  1.64282E+01  1.68279E+01
#           1.72374E+01  1.76568E+01  1.80864E+01  1.85264E+01  1.89772E+01
#           1.94389E+01  1.99119E+01  2.03963E+01  2.08926E+01  2.14009E+01
#           2.19216E+01  2.24550E+01  2.30014E+01  2.35610E+01  2.41343E+01
#           2.47215E+01  2.53230E+01  2.59391E+01  2.65702E+01  2.72167E+01
#           2.78789E+01  2.85572E+01  2.92520E+01  2.99637E+01  3.06928E+01
#           3.14396E+01  3.22045E+01  3.29881E+01  3.37907E+01  3.46128E+01
#           3.54550E+01  3.63177E+01  3.72013E+01  3.81064E+01  3.90336E+01
#           3.99833E+01  4.09561E+01  4.19526E+01  4.29734E+01  4.40189E+01
#           4.50900E+01  4.61870E+01  4.73108E+01  4.84619E+01  4.96410E+01
#           5.08488E+01  5.20860E+01  5.33533E+01  5.46514E+01  5.59812E+01
#           5.73432E+01  5.87384E+01  6.01676E+01  6.16315E+01  6.31311E+01
#           6.46671E+01  6.62405E+01  6.78522E+01  6.95031E+01  7.11941E+01
#           7.29263E+01  7.47007E+01  7.65182E+01  7.83800E+01  8.02870E+01
#           8.22405E+01  8.42414E+01  8.62911E+01  8.83906E+01  9.05412E+01
#           9.27442E+01  9.50007E+01  9.73122E+01  9.96799E+01  1.02105E+02
#           1.04589E+02  1.07134E+02  1.09741E+02  1.12411E+02  1.15146E+02
#           1.17948E+02  1.20817E+02  1.23757E+02  1.26768E+02  1.29852E+02
#           1.33012E+02  1.36248E+02  1.39563E+02  1.42959E+02  1.46437E+02
#           1.50000E+02
     unit =    2            # unit is [1/cm^2/(MeV/n)/source]
     axis =  eng            # axis of output
     file = detector-21.out  # file name of output for the above axis
   output = f-curr          # surface crossing forward current spectrum
     part =  neutron  
# kf/name :  2112     
#    used :        main (  %)        temp (  %)       total (  %)
#  memory :         414 (  0)           0 (  0)         414 (  0)

#------------------------------------------------------------------------------
#newpage:
#   no. =    1   reg = 120 - 220

x: Energy [MeV/n]
y:  F-Curr [1/cm^2/(MeV/n)/source]         
p: xlog ylog afac(0.8) form(0.9)
h: n            x            y(neutron ),hh0l   n 
#  e-lower      e-upper      neutron     r.err 
   1.0000E-02   1.0243E-02   3.4250E-04  0.0894
   1.0243E-02   1.0493E-02   2.7819E-04  0.0981
   1.0493E-02   1.0748E-02   2.5853E-04  0.1005
   1.0748E-02   1.1009E-02   3.0082E-04  0.0921
   1.1009E-02   1.1277E-02   2.9866E-04  0.0913
   1.1277E-02   1.1552E-02   3.1100E-04  0.0884
   1.1552E-02   1.1833E-02   2.6329E-04  0.0949
   1.1833E-02   1.2121E-02   2.5472E-04  0.0953
   1.2121E-02   1.2415E-02   2.9162E-04  0.0880
   1.2415E-02   1.2718E-02   2.5159E-04  0.0937
   1.2718E-02   1.3027E-02   2.6716E-04  0.0898
   1.3027E-02   1.3344E-02   2.3557E-04  0.0945
   1.3344E-02   1.3669E-02   3.0595E-04  0.0819
   1.3669E-02   1.4001E-02   2.8866E-04  0.0833
   1.4001E-02   1.4342E-02   2.7398E-04  0.0845
   1.4342E-02   1.4691E-02   2.4072E-04  0.0891
   1.4691E-02   1.5048E-02   3.4878E-04  0.0731
   1.5048E-02   1.5414E-02   2.9862E-04  0.0781
   1.5414E-02   1.5789E-02   3.0397E-04  0.0765
   1.5789E-02   1.6174E-02   3.2278E-04  0.0733
   1.6174E-02   1.6567E-02   3.1003E-04  0.0739
   1.6567E-02   1.6970E-02   3.0597E-04  0.0735
   1.6970E-02   1.7383E-02   2.9224E-04  0.0743
   1.7383E-02   1.7806E-02   3.3890E-04  0.0682
   1.7806E-02   1.8239E-02   3.2161E-04  0.0692
   1.8239E-02   1.8683E-02   3.0045E-04  0.0707
   1.8683E-02   1.9138E-02   3.2118E-04  0.0676
   1.9138E-02   1.9603E-02   2.9208E-04  0.0700
   1.9603E-02   2.0080E-02   2.9772E-04  0.0685
   2.0080E-02   2.0569E-02   3.3022E-04  0.0643
   2.0569E-02   2.1069E-02   3.0639E-04  0.0659
   2.1069E-02   2.1582E-02   3.1212E-04  0.0645
   2.1582E-02   2.2107E-02   3.3644E-04  0.0614
   2.2107E-02   2.2645E-02   3.2349E-04  0.0619
   2.2645E-02   2.3196E-02   3.3517E-04  0.0601
   2.3196E-02   2.3760E-02   3.2603E-04  0.0602
   2.3760E-02   2.4338E-02   3.2405E-04  0.0597
   2.4338E-02   2.4930E-02   3.1297E-04  0.0600
   2.4930E-02   2.5537E-02   3.3631E-04  0.0572
   2.5537E-02   2.6158E-02   3.2833E-04  0.0572
   2.6158E-02   2.6795E-02   3.4252E-04  0.0553
   2.6795E-02   2.7447E-02   4.0392E-04  0.0503
   2.7447E-02   2.8114E-02   3.7337E-04  0.0517
   2.8114E-02   2.8799E-02   3.7132E-04  0.0512
   2.8799E-02   2.9499E-02   3.7487E-04  0.0504
   2.9499E-02   3.0217E-02   3.5482E-04  0.0512
   3.0217E-02   3.0952E-02   3.5818E-04  0.0503
   3.0952E-02   3.1705E-02   3.6206E-04  0.0494
   3.1705E-02   3.2477E-02   3.9754E-04  0.0466
   3.2477E-02   3.3267E-02   3.8472E-04  0.0468
   3.3267E-02   3.4076E-02   3.7394E-04  0.0469
   3.4076E-02   3.4905E-02   4.1008E-04  0.0443
   3.4905E-02   3.5755E-02   4.2154E-04  0.0432
   3.5755E-02   3.6625E-02   4.3988E-04  0.0417
   3.6625E-02   3.7516E-02   3.8679E-04  0.0440
   3.7516E-02   3.8428E-02   3.8563E-04  0.0435
   3.8428E-02   3.9363E-02   4.1355E-04  0.0415
   3.9363E-02   4.0321E-02   4.3018E-04  0.0402
   4.0321E-02   4.1302E-02   4.1045E-04  0.0407
   4.1302E-02   4.2307E-02   4.1264E-04  0.0401
   4.2307E-02   4.3337E-02   4.3198E-04  0.0387
   4.3337E-02   4.4391E-02   4.1540E-04  0.0390
   4.4391E-02   4.5471E-02   4.5553E-04  0.0368
   4.5471E-02   4.6577E-02   4.2181E-04  0.0378
   4.6577E-02   4.7711E-02   4.6826E-04  0.0354
   4.7711E-02   4.8871E-02   4.7552E-04  0.0348
   4.8871E-02   5.0061E-02   4.5918E-04  0.0349
   5.0061E-02   5.1279E-02   4.4937E-04  0.0349
   5.1279E-02   5.2526E-02   4.6915E-04  0.0337
   5.2526E-02   5.3804E-02   4.6844E-04  0.0334
   5.3804E-02   5.5113E-02   4.7361E-04  0.0328
   5.5113E-02   5.6454E-02   4.5590E-04  0.0330
   5.6454E-02   5.7828E-02   5.2030E-04  0.0305
   5.7828E-02   5.9235E-02   4.8614E-04  0.0312
   5.9235E-02   6.0676E-02   4.9634E-04  0.0305
   6.0676E-02   6.2152E-02   5.1254E-04  0.0297
   6.2152E-02   6.3665E-02   4.8670E-04  0.0301
   6.3665E-02   6.5214E-02   5.4271E-04  0.0282
   6.5214E-02   6.6800E-02   5.2562E-04  0.0283
   6.6800E-02   6.8426E-02   5.2093E-04  0.0281
   6.8426E-02   7.0090E-02   5.2818E-04  0.0275
   7.0090E-02   7.1796E-02   5.5316E-04  0.0266
   7.1796E-02   7.3543E-02   5.4918E-04  0.0264
   7.3543E-02   7.5332E-02   5.3725E-04  0.0263
   7.5332E-02   7.7165E-02   5.7105E-04  0.0252
   7.7165E-02   7.9042E-02   5.9761E-04  0.0244
   7.9042E-02   8.0965E-02   5.7925E-04  0.0245
   8.0965E-02   8.2935E-02   5.6346E-04  0.0245
   8.2935E-02   8.4953E-02   6.0360E-04  0.0234
   8.4953E-02   8.7020E-02   5.9056E-04  0.0234
   8.7020E-02   8.9138E-02   6.0109E-04  0.0229
   8.9138E-02   9.1306E-02   6.2185E-04  0.0222
   9.1306E-02   9.3528E-02   6.1999E-04  0.0220
   9.3528E-02   9.5804E-02   6.1961E-04  0.0217
   9.5804E-02   9.8134E-02   5.9946E-04  0.0218
   9.8134E-02   1.0052E-01   6.2208E-04  0.0212
   1.0052E-01   1.0297E-01   6.3565E-04  0.0207
   1.0297E-01   1.0547E-01   6.5967E-04  0.0201
   1.0547E-01   1.0804E-01   6.6608E-04  0.0197
   1.0804E-01   1.1067E-01   6.7892E-04  0.0193
   1.1067E-01   1.1336E-01   6.8136E-04  0.0191
   1.1336E-01   1.1612E-01   6.8935E-04  0.0187
   1.1612E-01   1.1894E-01   6.8194E-04  0.0186
   1.1894E-01   1.2184E-01   6.9638E-04  0.0182
   1.2184E-01   1.2480E-01   7.2752E-04  0.0176
   1.2480E-01   1.2784E-01   7.2758E-04  0.0174
   1.2784E-01   1.3095E-01   6.9551E-04  0.0176
   1.3095E-01   1.3414E-01   7.2795E-04  0.0170
   1.3414E-01   1.3740E-01   7.2986E-04  0.0167
   1.3740E-01   1.4074E-01   7.6358E-04  0.0162
   1.4074E-01   1.4417E-01   7.5673E-04  0.0160
   1.4417E-01   1.4767E-01   7.8513E-04  0.0156
   1.4767E-01   1.5127E-01   7.8188E-04  0.0154
   1.5127E-01   1.5495E-01   7.8795E-04  0.0152
   1.5495E-01   1.5872E-01   7.9593E-04  0.0149
   1.5872E-01   1.6258E-01   8.1656E-04  0.0145
   1.6258E-01   1.6654E-01   8.2396E-04  0.0143
   1.6654E-01   1.7059E-01   8.3236E-04  0.0141
   1.7059E-01   1.7474E-01   7.9765E-04  0.0142
   1.7474E-01   1.7899E-01   8.4629E-04  0.0136
   1.7899E-01   1.8334E-01   8.5803E-04  0.0134
   1.8334E-01   1.8781E-01   8.7426E-04  0.0131
   1.8781E-01   1.9237E-01   8.7100E-04  0.0129
   1.9237E-01   1.9706E-01   8.8507E-04  0.0127
   1.9706E-01   2.0185E-01   8.7044E-04  0.0126
   2.0185E-01   2.0676E-01   8.7257E-04  0.0125
   2.0676E-01   2.1179E-01   8.9319E-04  0.0122
   2.1179E-01   2.1694E-01   9.0341E-04  0.0120
   2.1694E-01   2.2222E-01   9.1075E-04  0.0118
   2.2222E-01   2.2763E-01   9.3141E-04  0.0115
   2.2763E-01   2.3317E-01   9.3492E-04  0.0113
   2.3317E-01   2.3884E-01   9.2259E-04  0.0113
   2.3884E-01   2.4465E-01   9.5058E-04  0.0110
   2.4465E-01   2.5061E-01   9.5264E-04  0.0108
   2.5061E-01   2.5670E-01   9.5614E-04  0.0107
   2.5670E-01   2.6295E-01   9.6438E-04  0.0105
   2.6295E-01   2.6935E-01   9.6888E-04  0.0104
   2.6935E-01   2.7590E-01   9.7883E-04  0.0102
   2.7590E-01   2.8261E-01   9.9560E-04  0.0100
   2.8261E-01   2.8949E-01   9.8756E-04  0.0099
   2.8949E-01   2.9653E-01   1.0097E-03  0.0097
   2.9653E-01   3.0375E-01   1.0073E-03  0.0096
   3.0375E-01   3.1114E-01   1.0028E-03  0.0095
   3.1114E-01   3.1871E-01   1.0056E-03  0.0094
   3.1871E-01   3.2646E-01   1.0187E-03  0.0092
   3.2646E-01   3.3441E-01   1.0490E-03  0.0089
   3.3441E-01   3.4254E-01   1.0583E-03  0.0088
   3.4254E-01   3.5088E-01   1.0352E-03  0.0088
   3.5088E-01   3.5941E-01   1.0577E-03  0.0086
   3.5941E-01   3.6816E-01   1.0533E-03  0.0085
   3.6816E-01   3.7712E-01   1.0432E-03  0.0084
   3.7712E-01   3.8629E-01   1.0519E-03  0.0083
   3.8629E-01   3.9569E-01   1.0585E-03  0.0082
   3.9569E-01   4.0532E-01   1.0710E-03  0.0080
   4.0532E-01   4.1518E-01   1.0643E-03  0.0080
   4.1518E-01   4.2528E-01   1.0706E-03  0.0079
   4.2528E-01   4.3563E-01   1.0728E-03  0.0078
   4.3563E-01   4.4623E-01   1.0656E-03  0.0077
   4.4623E-01   4.5708E-01   1.0748E-03  0.0076
   4.5708E-01   4.6821E-01   1.0784E-03  0.0075
   4.6821E-01   4.7960E-01   1.0662E-03  0.0074
   4.7960E-01   4.9127E-01   1.0709E-03  0.0073
   4.9127E-01   5.0322E-01   1.0679E-03  0.0072
   5.0322E-01   5.1546E-01   1.0681E-03  0.0071
   5.1546E-01   5.2800E-01   1.0771E-03  0.0070
   5.2800E-01   5.4085E-01   1.0586E-03  0.0070
   5.4085E-01   5.5401E-01   1.0674E-03  0.0069
   5.5401E-01   5.6749E-01   1.0607E-03  0.0068
   5.6749E-01   5.8130E-01   1.0524E-03  0.0068
   5.8130E-01   5.9544E-01   1.0501E-03  0.0067
   5.9544E-01   6.0993E-01   1.0598E-03  0.0066
   6.0993E-01   6.2477E-01   1.0471E-03  0.0066
   6.2477E-01   6.3997E-01   1.0462E-03  0.0065
   6.3997E-01   6.5554E-01   1.0335E-03  0.0064
   6.5554E-01   6.7149E-01   1.0234E-03  0.0064
   6.7149E-01   6.8783E-01   1.0015E-03  0.0064
   6.8783E-01   7.0456E-01   1.0116E-03  0.0063
   7.0456E-01   7.2171E-01   9.9300E-04  0.0063
   7.2171E-01   7.3927E-01   1.0023E-03  0.0062
   7.3927E-01   7.5725E-01   9.7363E-04  0.0062
   7.5725E-01   7.7568E-01   9.6263E-04  0.0061
   7.7568E-01   7.9455E-01   9.3443E-04  0.0062
   7.9455E-01   8.1388E-01   9.2585E-04  0.0061
   8.1388E-01   8.3368E-01   9.0659E-04  0.0061
   8.3368E-01   8.5397E-01   8.9607E-04  0.0061
   8.5397E-01   8.7475E-01   8.6442E-04  0.0061
   8.7475E-01   8.9603E-01   8.4671E-04  0.0061
   8.9603E-01   9.1783E-01   8.1825E-04  0.0061
   9.1783E-01   9.4016E-01   7.9535E-04  0.0061
   9.4016E-01   9.6304E-01   7.4851E-04  0.0062
   9.6304E-01   9.8647E-01   7.1690E-04  0.0063
   9.8647E-01   1.0105E+00   6.7466E-04  0.0064
   1.0105E+00   1.0351E+00   6.6527E-04  0.0064
   1.0351E+00   1.0602E+00   6.5047E-04  0.0064
   1.0602E+00   1.0860E+00   6.3422E-04  0.0064
   1.0860E+00   1.1125E+00   6.3566E-04  0.0063
   1.1125E+00   1.1395E+00   6.2019E-04  0.0063
   1.1395E+00   1.1673E+00   6.2395E-04  0.0062
   1.1673E+00   1.1957E+00   6.3267E-04  0.0061
   1.1957E+00   1.2247E+00   6.1437E-04  0.0061
   1.2247E+00   1.2545E+00   5.9998E-04  0.0061
   1.2545E+00   1.2851E+00   5.8931E-04  0.0061
   1.2851E+00   1.3163E+00   5.7023E-04  0.0061
   1.3163E+00   1.3484E+00   5.6437E-04  0.0061
   1.3484E+00   1.3812E+00   5.5515E-04  0.0061
   1.3812E+00   1.4148E+00   5.5216E-04  0.0060
   1.4148E+00   1.4492E+00   5.4129E-04  0.0060
   1.4492E+00   1.4845E+00   5.2613E-04  0.0060
   1.4845E+00   1.5206E+00   5.0531E-04  0.0060
   1.5206E+00   1.5576E+00   4.9020E-04  0.0061
   1.5576E+00   1.5955E+00   4.7202E-04  0.0061
   1.5955E+00   1.6343E+00   4.5653E-04  0.0061
   1.6343E+00   1.6741E+00   4.4488E-04  0.0061
   1.6741E+00   1.7148E+00   4.3515E-04  0.0061
   1.7148E+00   1.7565E+00   4.2392E-04  0.0061
   1.7565E+00   1.7992E+00   4.0524E-04  0.0062
   1.7992E+00   1.8430E+00   3.8766E-04  0.0063
   1.8430E+00   1.8879E+00   3.7889E-04  0.0063
   1.8879E+00   1.9338E+00   3.5877E-04  0.0064
   1.9338E+00   1.9808E+00   3.4697E-04  0.0064
   1.9808E+00   2.0290E+00   3.3266E-04  0.0065
   2.0290E+00   2.0784E+00   3.2050E-04  0.0065
   2.0784E+00   2.1290E+00   3.0655E-04  0.0066
   2.1290E+00   2.1808E+00   2.8884E-04  0.0067
   2.1808E+00   2.2338E+00   2.7526E-04  0.0068
   2.2338E+00   2.2882E+00   2.6415E-04  0.0068
   2.2882E+00   2.3439E+00   2.4658E-04  0.0070
   2.3439E+00   2.4009E+00   2.3343E-04  0.0071
   2.4009E+00   2.4593E+00   2.2095E-04  0.0072
   2.4593E+00   2.5191E+00   2.1364E-04  0.0072
   2.5191E+00   2.5804E+00   1.9944E-04  0.0074
   2.5804E+00   2.6432E+00   1.8963E-04  0.0075
   2.6432E+00   2.7075E+00   1.7660E-04  0.0077
   2.7075E+00   2.7734E+00   1.6688E-04  0.0078
   2.7734E+00   2.8409E+00   1.5385E-04  0.0080
   2.8409E+00   2.9100E+00   1.4473E-04  0.0082
   2.9100E+00   2.9808E+00   1.3564E-04  0.0083
   2.9808E+00   3.0533E+00   1.2795E-04  0.0085
   3.0533E+00   3.1276E+00   1.1808E-04  0.0087
   3.1276E+00   3.2037E+00   1.1253E-04  0.0088
   3.2037E+00   3.2817E+00   1.0361E-04  0.0091
   3.2817E+00   3.3615E+00   9.4758E-05  0.0094
   3.3615E+00   3.4433E+00   8.7331E-05  0.0097
   3.4433E+00   3.5271E+00   8.3148E-05  0.0098
   3.5271E+00   3.6129E+00   7.4904E-05  0.0102
   3.6129E+00   3.7008E+00   7.0531E-05  0.0104
   3.7008E+00   3.7908E+00   6.4539E-05  0.0107
   3.7908E+00   3.8831E+00   5.9269E-05  0.0111
   3.8831E+00   3.9776E+00   5.5004E-05  0.0113
   3.9776E+00   4.0743E+00   5.0480E-05  0.0117
   4.0743E+00   4.1735E+00   4.6215E-05  0.0121
   4.1735E+00   4.2750E+00   4.2852E-05  0.0124
   4.2750E+00   4.3790E+00   3.9841E-05  0.0127
   4.3790E+00   4.4856E+00   3.5052E-05  0.0134
   4.4856E+00   4.5947E+00   3.3004E-05  0.0136
   4.5947E+00   4.7065E+00   2.8857E-05  0.0144
   4.7065E+00   4.8210E+00   2.7356E-05  0.0146
   4.8210E+00   4.9383E+00   2.5263E-05  0.0150
   4.9383E+00   5.0585E+00   2.2455E-05  0.0157
   5.0585E+00   5.1815E+00   2.0697E-05  0.0162
   5.1815E+00   5.3076E+00   1.8804E-05  0.0168
   5.3076E+00   5.4368E+00   1.7248E-05  0.0173
   5.4368E+00   5.5690E+00   1.5739E-05  0.0179
   5.5690E+00   5.7045E+00   1.4067E-05  0.0187
   5.7045E+00   5.8433E+00   1.2469E-05  0.0196
   5.8433E+00   5.9855E+00   1.1151E-05  0.0205
   5.9855E+00   6.1311E+00   1.0295E-05  0.0211
   6.1311E+00   6.2803E+00   9.0900E-06  0.0222
   6.2803E+00   6.4331E+00   8.3418E-06  0.0229
   6.4331E+00   6.5896E+00   7.5474E-06  0.0238
   6.5896E+00   6.7500E+00   7.0604E-06  0.0243
   6.7500E+00   6.9142E+00   6.1336E-06  0.0257
   6.9142E+00   7.0824E+00   5.4628E-06  0.0269
   7.0824E+00   7.2548E+00   4.9114E-06  0.0281
   7.2548E+00   7.4313E+00   4.6493E-06  0.0285
   7.4313E+00   7.6121E+00   3.9489E-06  0.0306
   7.6121E+00   7.7973E+00   3.6626E-06  0.0313
   7.7973E+00   7.9870E+00   3.0607E-06  0.0339
   7.9870E+00   8.1813E+00   2.9143E-06  0.0343
   8.1813E+00   8.3804E+00   2.5386E-06  0.0363
   8.3804E+00   8.5843E+00   2.2053E-06  0.0385
   8.5843E+00   8.7931E+00   2.1944E-06  0.0381
   8.7931E+00   9.0071E+00   2.0737E-06  0.0388
   9.0071E+00   9.2262E+00   1.7918E-06  0.0412
   9.2262E+00   9.4507E+00   1.7165E-06  0.0416
   9.4507E+00   9.6807E+00   1.4989E-06  0.0439
   9.6807E+00   9.9162E+00   1.3543E-06  0.0457
   9.9162E+00   1.0157E+01   1.2407E-06  0.0472
   1.0157E+01   1.0405E+01   1.1586E-06  0.0482
   1.0405E+01   1.0658E+01   1.0771E-06  0.0494
   1.0658E+01   1.0917E+01   9.3581E-07  0.0523
   1.0917E+01   1.1183E+01   9.4245E-07  0.0516
   1.1183E+01   1.1455E+01   8.4533E-07  0.0538
   1.1455E+01   1.1733E+01   7.5947E-07  0.0560
   1.1733E+01   1.2019E+01   7.8113E-07  0.0546
   1.2019E+01   1.2311E+01   7.0558E-07  0.0567
   1.2311E+01   1.2611E+01   6.8771E-07  0.0567
   1.2611E+01   1.2918E+01   6.0945E-07  0.0597
   1.2918E+01   1.3232E+01   5.8755E-07  0.0600
   1.3232E+01   1.3554E+01   5.8291E-07  0.0595
   1.3554E+01   1.3884E+01   5.9332E-07  0.0583
   1.3884E+01   1.4222E+01   5.3285E-07  0.0607
   1.4222E+01   1.4568E+01   4.9997E-07  0.0620
   1.4568E+01   1.4922E+01   4.8339E-07  0.0622
   1.4922E+01   1.5285E+01   4.4987E-07  0.0638
   1.5285E+01   1.5657E+01   4.2753E-07  0.0647
   1.5657E+01   1.6038E+01   4.1300E-07  0.0651
   1.6038E+01   1.6428E+01   4.4078E-07  0.0623
   1.6428E+01   1.6828E+01   4.1363E-07  0.0635
   1.6828E+01   1.7237E+01   3.8915E-07  0.0647
   1.7237E+01   1.7657E+01   3.8468E-07  0.0643
   1.7657E+01   1.8086E+01   3.6157E-07  0.0655
   1.8086E+01   1.8526E+01   3.1511E-07  0.0693
   1.8526E+01   1.8977E+01   3.5274E-07  0.0647
   1.8977E+01   1.9439E+01   3.3930E-07  0.0652
   1.9439E+01   1.9912E+01   2.6359E-07  0.0731
   1.9912E+01   2.0396E+01   3.1925E-07  0.0657
   2.0396E+01   2.0893E+01   2.3241E-07  0.0760
   2.0893E+01   2.1401E+01   2.5311E-07  0.0720
   2.1401E+01   2.1922E+01   2.2534E-07  0.0754
   2.1922E+01   2.2455E+01   2.4123E-07  0.0720
   2.2455E+01   2.3001E+01   2.4282E-07  0.0709
   2.3001E+01   2.3561E+01   2.0132E-07  0.0769
   2.3561E+01   2.4134E+01   1.8607E-07  0.0791
   2.4134E+01   2.4721E+01   1.6008E-07  0.0842
   2.4721E+01   2.5323E+01   1.5184E-07  0.0854
   2.5323E+01   2.5939E+01   1.6014E-07  0.0822
   2.5939E+01   2.6570E+01   1.3098E-07  0.0898
   2.6570E+01   2.7217E+01   1.1859E-07  0.0933
   2.7217E+01   2.7879E+01   1.1074E-07  0.0953
   2.7879E+01   2.8557E+01   1.0811E-07  0.0953
   2.8557E+01   2.9252E+01   1.0362E-07  0.0962
   2.9252E+01   2.9964E+01   8.8049E-08  0.1031
   2.9964E+01   3.0693E+01   7.9557E-08  0.1072
   3.0693E+01   3.1440E+01   7.4096E-08  0.1098
   3.1440E+01   3.2205E+01   8.0180E-08  0.1043
   3.2205E+01   3.2988E+01   6.4662E-08  0.1147
   3.2988E+01   3.3791E+01   4.9006E-08  0.1302
   3.3791E+01   3.4613E+01   5.0274E-08  0.1270
   3.4613E+01   3.5455E+01   3.7206E-08  0.1459
   3.5455E+01   3.6318E+01   2.6276E-08  0.1715
   3.6318E+01   3.7201E+01   3.0933E-08  0.1562
   3.7201E+01   3.8106E+01   2.3569E-08  0.1768
   3.8106E+01   3.9034E+01   2.4447E-08  0.1715
   3.9034E+01   3.9983E+01   1.7549E-08  0.2000
   3.9983E+01   4.0956E+01   1.4391E-08  0.2182
   4.0956E+01   4.1953E+01   1.2711E-08  0.2294
   4.1953E+01   4.2973E+01   1.0450E-08  0.2500
   4.2973E+01   4.4019E+01   6.3761E-09  0.3162
   4.4019E+01   4.5090E+01   5.6022E-09  0.3333
   4.5090E+01   4.6187E+01   5.4691E-09  0.3333
   4.6187E+01   4.7311E+01   3.5595E-09  0.4082
   4.7311E+01   4.8462E+01   1.1583E-09  0.7071
   4.8462E+01   4.9641E+01   2.2616E-09  0.5000
   4.9641E+01   5.0849E+01   1.6559E-09  0.5774
   5.0849E+01   5.2086E+01   0.0000E+00  0.0000
   5.2086E+01   5.3353E+01   0.0000E+00  0.0000
   5.3353E+01   5.4651E+01   5.1356E-10  1.0000
   5.4651E+01   5.5981E+01   5.0136E-10  1.0000
   5.5981E+01   5.7343E+01   0.0000E+00  0.0000
   5.7343E+01   5.8738E+01   0.0000E+00  0.0000
   5.8738E+01   6.0168E+01   0.0000E+00  0.0000
   6.0168E+01   6.1632E+01   0.0000E+00  0.0000
   6.1632E+01   6.3131E+01   0.0000E+00  0.0000
   6.3131E+01   6.4667E+01   0.0000E+00  0.0000
   6.4667E+01   6.6240E+01   0.0000E+00  0.0000
   6.6240E+01   6.7852E+01   0.0000E+00  0.0000
   6.7852E+01   6.9503E+01   0.0000E+00  0.0000
   6.9503E+01   7.1194E+01   0.0000E+00  0.0000
   7.1194E+01   7.2926E+01   0.0000E+00  0.0000
   7.2926E+01   7.4701E+01   0.0000E+00  0.0000
   7.4701E+01   7.6518E+01   0.0000E+00  0.0000
   7.6518E+01   7.8380E+01   0.0000E+00  0.0000
   7.8380E+01   8.0287E+01   0.0000E+00  0.0000
   8.0287E+01   8.2240E+01   0.0000E+00  0.0000
   8.2240E+01   8.4241E+01   0.0000E+00  0.0000
   8.4241E+01   8.6291E+01   0.0000E+00  0.0000
   8.6291E+01   8.8391E+01   0.0000E+00  0.0000
   8.8391E+01   9.0541E+01   0.0000E+00  0.0000
   9.0541E+01   9.2744E+01   0.0000E+00  0.0000
   9.2744E+01   9.5001E+01   0.0000E+00  0.0000
   9.5001E+01   9.7312E+01   0.0000E+00  0.0000
   9.7312E+01   9.9680E+01   0.0000E+00  0.0000
   9.9680E+01   1.0211E+02   0.0000E+00  0.0000
   1.0211E+02   1.0459E+02   0.0000E+00  0.0000
   1.0459E+02   1.0713E+02   0.0000E+00  0.0000
   1.0713E+02   1.0974E+02   0.0000E+00  0.0000
   1.0974E+02   1.1241E+02   0.0000E+00  0.0000
   1.1241E+02   1.1515E+02   0.0000E+00  0.0000
   1.1515E+02   1.1795E+02   0.0000E+00  0.0000
   1.1795E+02   1.2082E+02   0.0000E+00  0.0000
   1.2082E+02   1.2376E+02   0.0000E+00  0.0000
   1.2376E+02   1.2677E+02   0.0000E+00  0.0000
   1.2677E+02   1.2985E+02   0.0000E+00  0.0000
   1.2985E+02   1.3301E+02   0.0000E+00  0.0000
   1.3301E+02   1.3625E+02   0.0000E+00  0.0000
   1.3625E+02   1.3956E+02   0.0000E+00  0.0000
   1.3956E+02   1.4296E+02   0.0000E+00  0.0000
   1.4296E+02   1.4644E+02   0.0000E+00  0.0000
   1.4644E+02   1.5000E+02   0.0000E+00  0.0000

#   sum over                 1.1836E-05
'no. =    1   reg = 120 - 220'
msuc: {\huge [t-cross] in region mesh}
msdr: {\it plotted by \ANGEL \version}
msdl: {\it calculated by \PHITS  3.26}
wt: s(0.7)
\vspace{-3}
  region surface crossing
  area  &=&   1.0000E+00 [cm^2]
e:
 
# Information for Restart Calculation
# This calculation was newly started
# istdev =  2 # 1:Batch variance, 2:History variance
# resc2  = 1.50000000000000000E+09 # Total source weight or Total source weight / maxcas
# resc3  = 1.50000000000000000E+09 # Total history number or Total batch number
# maxcas =   500000000 # History / Batch, only used for istdev=1
# bitrseed = 0000010101110101110110100110011001100101000001100111100100101101 # bit data of rseed
