[ T-Cross ]
    title = [t-cross] in region mesh
     mesh =  reg            # mesh type is region-wise
      reg =    1            # number of crossing regions
      non     r-from    r-to       area
      1       100       200        1.000000    
   e-type =    3            # e-mesh is log given by emin, emax and ne
     emin =  1.0000000E-02  # minimum value of e-mesh points
     emax =   150.0000      # maximum value of e-mesh points
#    edel =  2.4039514E-02  # mesh width of e-mesh points
       ne =    400          # number of e-mesh points
#    data = ( e(i), i = 1, ne + 1 )
#           1.00000E-02  1.02433E-02  1.04925E-02  1.07478E-02  1.10093E-02
#           1.12772E-02  1.15516E-02  1.18326E-02  1.21205E-02  1.24154E-02
#           1.27175E-02  1.30269E-02  1.33439E-02  1.36686E-02  1.40011E-02
#           1.43418E-02  1.46907E-02  1.50482E-02  1.54143E-02  1.57894E-02
#           1.61735E-02  1.65670E-02  1.69701E-02  1.73830E-02  1.78060E-02
#           1.82392E-02  1.86830E-02  1.91375E-02  1.96032E-02  2.00801E-02
#           2.05687E-02  2.10692E-02  2.15818E-02  2.21069E-02  2.26448E-02
#           2.31957E-02  2.37601E-02  2.43382E-02  2.49304E-02  2.55369E-02
#           2.61583E-02  2.67947E-02  2.74467E-02  2.81145E-02  2.87985E-02
#           2.94992E-02  3.02169E-02  3.09521E-02  3.17052E-02  3.24766E-02
#           3.32668E-02  3.40762E-02  3.49053E-02  3.57546E-02  3.66246E-02
#           3.75157E-02  3.84284E-02  3.93634E-02  4.03212E-02  4.13022E-02
#           4.23071E-02  4.33365E-02  4.43909E-02  4.54710E-02  4.65773E-02
#           4.77106E-02  4.88714E-02  5.00605E-02  5.12785E-02  5.25262E-02
#           5.38042E-02  5.51133E-02  5.64542E-02  5.78278E-02  5.92348E-02
#           6.06760E-02  6.21523E-02  6.36645E-02  6.52135E-02  6.68002E-02
#           6.84255E-02  7.00904E-02  7.17957E-02  7.35426E-02  7.53319E-02
#           7.71648E-02  7.90423E-02  8.09655E-02  8.29354E-02  8.49533E-02
#           8.70203E-02  8.91376E-02  9.13064E-02  9.35279E-02  9.58035E-02
#           9.81345E-02  1.00522E-01  1.02968E-01  1.05473E-01  1.08040E-01
#           1.10668E-01  1.13361E-01  1.16119E-01  1.18944E-01  1.21838E-01
#           1.24803E-01  1.27839E-01  1.30950E-01  1.34136E-01  1.37399E-01
#           1.40742E-01  1.44167E-01  1.47675E-01  1.51268E-01  1.54948E-01
#           1.58718E-01  1.62580E-01  1.66535E-01  1.70587E-01  1.74738E-01
#           1.78989E-01  1.83344E-01  1.87805E-01  1.92375E-01  1.97055E-01
#           2.01850E-01  2.06761E-01  2.11792E-01  2.16945E-01  2.22223E-01
#           2.27630E-01  2.33169E-01  2.38842E-01  2.44653E-01  2.50605E-01
#           2.56703E-01  2.62949E-01  2.69346E-01  2.75900E-01  2.82613E-01
#           2.89489E-01  2.96532E-01  3.03747E-01  3.11138E-01  3.18708E-01
#           3.26462E-01  3.34405E-01  3.42542E-01  3.50876E-01  3.59413E-01
#           3.68158E-01  3.77116E-01  3.86291E-01  3.95690E-01  4.05317E-01
#           4.15179E-01  4.25281E-01  4.35628E-01  4.46227E-01  4.57084E-01
#           4.68205E-01  4.79597E-01  4.91266E-01  5.03219E-01  5.15463E-01
#           5.28005E-01  5.40851E-01  5.54011E-01  5.67490E-01  5.81298E-01
#           5.95441E-01  6.09929E-01  6.24769E-01  6.39970E-01  6.55541E-01
#           6.71491E-01  6.87828E-01  7.04564E-01  7.21706E-01  7.39266E-01
#           7.57253E-01  7.75678E-01  7.94551E-01  8.13883E-01  8.33685E-01
#           8.53969E-01  8.74747E-01  8.96030E-01  9.17831E-01  9.40163E-01
#           9.63038E-01  9.86469E-01  1.01047E+00  1.03506E+00  1.06024E+00
#           1.08604E+00  1.11246E+00  1.13953E+00  1.16725E+00  1.19565E+00
#           1.22474E+00  1.25454E+00  1.28507E+00  1.31633E+00  1.34836E+00
#           1.38117E+00  1.41477E+00  1.44920E+00  1.48446E+00  1.52057E+00
#           1.55757E+00  1.59547E+00  1.63429E+00  1.67405E+00  1.71478E+00
#           1.75650E+00  1.79924E+00  1.84302E+00  1.88786E+00  1.93379E+00
#           1.98084E+00  2.02904E+00  2.07841E+00  2.12898E+00  2.18078E+00
#           2.23384E+00  2.28819E+00  2.34386E+00  2.40089E+00  2.45930E+00
#           2.51914E+00  2.58043E+00  2.64322E+00  2.70753E+00  2.77341E+00
#           2.84088E+00  2.91001E+00  2.98081E+00  3.05333E+00  3.12762E+00
#           3.20372E+00  3.28167E+00  3.36152E+00  3.44330E+00  3.52708E+00
#           3.61290E+00  3.70080E+00  3.79085E+00  3.88308E+00  3.97756E+00
#           4.07434E+00  4.17347E+00  4.27501E+00  4.37903E+00  4.48557E+00
#           4.59471E+00  4.70650E+00  4.82102E+00  4.93832E+00  5.05847E+00
#           5.18155E+00  5.30762E+00  5.43676E+00  5.56904E+00  5.70453E+00
#           5.84333E+00  5.98550E+00  6.13114E+00  6.28031E+00  6.43312E+00
#           6.58964E+00  6.74997E+00  6.91420E+00  7.08243E+00  7.25475E+00
#           7.43126E+00  7.61207E+00  7.79728E+00  7.98700E+00  8.18133E+00
#           8.38038E+00  8.58428E+00  8.79315E+00  9.00709E+00  9.22624E+00
#           9.45072E+00  9.68067E+00  9.91620E+00  1.01575E+01  1.04046E+01
#           1.06578E+01  1.09171E+01  1.11827E+01  1.14548E+01  1.17335E+01
#           1.20190E+01  1.23114E+01  1.26109E+01  1.29178E+01  1.32321E+01
#           1.35540E+01  1.38838E+01  1.42216E+01  1.45676E+01  1.49221E+01
#           1.52851E+01  1.56570E+01  1.60380E+01  1.64282E+01  1.68279E+01
#           1.72374E+01  1.76568E+01  1.80864E+01  1.85264E+01  1.89772E+01
#           1.94389E+01  1.99119E+01  2.03963E+01  2.08926E+01  2.14009E+01
#           2.19216E+01  2.24550E+01  2.30014E+01  2.35610E+01  2.41343E+01
#           2.47215E+01  2.53230E+01  2.59391E+01  2.65702E+01  2.72167E+01
#           2.78789E+01  2.85572E+01  2.92520E+01  2.99637E+01  3.06928E+01
#           3.14396E+01  3.22045E+01  3.29881E+01  3.37907E+01  3.46128E+01
#           3.54550E+01  3.63177E+01  3.72013E+01  3.81064E+01  3.90336E+01
#           3.99833E+01  4.09561E+01  4.19526E+01  4.29734E+01  4.40189E+01
#           4.50900E+01  4.61870E+01  4.73108E+01  4.84619E+01  4.96410E+01
#           5.08488E+01  5.20860E+01  5.33533E+01  5.46514E+01  5.59812E+01
#           5.73432E+01  5.87384E+01  6.01676E+01  6.16315E+01  6.31311E+01
#           6.46671E+01  6.62405E+01  6.78522E+01  6.95031E+01  7.11941E+01
#           7.29263E+01  7.47007E+01  7.65182E+01  7.83800E+01  8.02870E+01
#           8.22405E+01  8.42414E+01  8.62911E+01  8.83906E+01  9.05412E+01
#           9.27442E+01  9.50007E+01  9.73122E+01  9.96799E+01  1.02105E+02
#           1.04589E+02  1.07134E+02  1.09741E+02  1.12411E+02  1.15146E+02
#           1.17948E+02  1.20817E+02  1.23757E+02  1.26768E+02  1.29852E+02
#           1.33012E+02  1.36248E+02  1.39563E+02  1.42959E+02  1.46437E+02
#           1.50000E+02
     unit =    2            # unit is [1/cm^2/(MeV/n)/source]
     axis =  eng            # axis of output
     file = detector-01.out  # file name of output for the above axis
   output = f-curr          # surface crossing forward current spectrum
     part =  neutron  
# kf/name :  2112     
#    used :        main (  %)        temp (  %)       total (  %)
#  memory :         414 (  0)           0 (  0)         414 (  0)

#------------------------------------------------------------------------------
#newpage:
#   no. =    1   reg = 100 - 200

x: Energy [MeV/n]
y:  F-Curr [1/cm^2/(MeV/n)/source]         
p: xlog ylog afac(0.8) form(0.9)
h: n            x            y(neutron ),hh0l   n 
#  e-lower      e-upper      neutron     r.err 
   1.0000E-02   1.0243E-02   3.6990E-05  0.3333
   1.0243E-02   1.0493E-02   5.2161E-05  0.2774
   1.0493E-02   1.0748E-02   5.8756E-05  0.2582
   1.0748E-02   1.1009E-02   3.8240E-05  0.3162
   1.1009E-02   1.1277E-02   6.7198E-05  0.2357
   1.1277E-02   1.1552E-02   6.9801E-05  0.2277
   1.1552E-02   1.1833E-02   6.7601E-05  0.2294
   1.1833E-02   1.2121E-02   3.8208E-05  0.3015
   1.2121E-02   1.2415E-02   5.7646E-05  0.2425
   1.2415E-02   1.2718E-02   5.6277E-05  0.2425
   1.2718E-02   1.3027E-02   9.3722E-05  0.1857
   1.3027E-02   1.3344E-02   5.0480E-05  0.2500
   1.3344E-02   1.3669E-02   4.0041E-05  0.2774
   1.3669E-02   1.4001E-02   3.3076E-05  0.3015
   1.4001E-02   1.4342E-02   6.4581E-05  0.2132
   1.4342E-02   1.4691E-02   7.1644E-05  0.2000
   1.4691E-02   1.5048E-02   5.8752E-05  0.2182
   1.5048E-02   1.5414E-02   3.2775E-05  0.2887
   1.5414E-02   1.5789E-02   4.2662E-05  0.2500
   1.5789E-02   1.6174E-02   4.6855E-05  0.2357
   1.6174E-02   1.6567E-02   5.3365E-05  0.2182
   1.6567E-02   1.6970E-02   5.7059E-05  0.2085
   1.6970E-02   1.7383E-02   3.8751E-05  0.2500
   1.7383E-02   1.7806E-02   6.1474E-05  0.1961
   1.7806E-02   1.8239E-02   6.2322E-05  0.1925
   1.8239E-02   1.8683E-02   3.8308E-05  0.2425
   1.8683E-02   1.9138E-02   4.1798E-05  0.2294
   1.9138E-02   1.9603E-02   5.5838E-05  0.1961
   1.9603E-02   2.0080E-02   6.2898E-05  0.1826
   2.0080E-02   2.0569E-02   5.5264E-05  0.1925
   2.0569E-02   2.1069E-02   4.7957E-05  0.2041
   2.1069E-02   2.1582E-02   4.6817E-05  0.2041
   2.1582E-02   2.2107E-02   5.3323E-05  0.1890
   2.2107E-02   2.2645E-02   5.7634E-05  0.1796
   2.2645E-02   2.3196E-02   7.2600E-05  0.1581
   2.3196E-02   2.3760E-02   5.1385E-05  0.1857
   2.3760E-02   2.4338E-02   5.9075E-05  0.1708
   2.4338E-02   2.4930E-02   5.4304E-05  0.1760
   2.4930E-02   2.5537E-02   5.8525E-05  0.1672
   2.5537E-02   2.6158E-02   4.1845E-05  0.1961
   2.6158E-02   2.6795E-02   5.8389E-05  0.1637
   2.6795E-02   2.7447E-02   5.2152E-05  0.1715
   2.7447E-02   2.8114E-02   5.8681E-05  0.1594
   2.8114E-02   2.8799E-02   5.2628E-05  0.1667
   2.8799E-02   2.9499E-02   4.1656E-05  0.1846
   2.9499E-02   3.0217E-02   4.5978E-05  0.1741
   3.0217E-02   3.0952E-02   4.5056E-05  0.1735
   3.0952E-02   3.1705E-02   5.5939E-05  0.1539
   3.1705E-02   3.2477E-02   4.9260E-05  0.1622
   3.2477E-02   3.3267E-02   5.3152E-05  0.1543
   3.3267E-02   3.4076E-02   5.2101E-05  0.1537
   3.4076E-02   3.4905E-02   6.2718E-05  0.1387
   3.4905E-02   3.5755E-02   4.9671E-05  0.1537
   3.5755E-02   3.6625E-02   5.1369E-05  0.1489
   3.6625E-02   3.7516E-02   5.4988E-05  0.1429
   3.7516E-02   3.8428E-02   3.3962E-05  0.1796
   3.8428E-02   3.9363E-02   4.4920E-05  0.1543
   3.9363E-02   4.0321E-02   4.6985E-05  0.1491
   4.0321E-02   4.1302E-02   3.3638E-05  0.1741
   4.1302E-02   4.2307E-02   3.9804E-05  0.1581
   4.2307E-02   4.3337E-02   5.4533E-05  0.1333
   4.3337E-02   4.4391E-02   3.3830E-05  0.1665
   4.4391E-02   4.5471E-02   5.0923E-05  0.1348
   4.5471E-02   4.6577E-02   5.6040E-05  0.1270
   4.6577E-02   4.7711E-02   4.0737E-05  0.1470
   4.7711E-02   4.8871E-02   4.2211E-05  0.1429
   4.8871E-02   5.0061E-02   3.3639E-05  0.1581
   5.0061E-02   5.1279E-02   3.6124E-05  0.1508
   5.1279E-02   5.2526E-02   3.7671E-05  0.1459
   5.2526E-02   5.3804E-02   2.8169E-05  0.1667
   5.3804E-02   5.5113E-02   3.2083E-05  0.1543
   5.5113E-02   5.6454E-02   4.4999E-05  0.1284
   5.6454E-02   5.7828E-02   3.0696E-05  0.1538
   5.7828E-02   5.9235E-02   3.6247E-05  0.1400
   5.9235E-02   6.0676E-02   4.4506E-05  0.1247
   6.0676E-02   6.2152E-02   4.1753E-05  0.1270
   6.2152E-02   6.3665E-02   4.0669E-05  0.1273
   6.3665E-02   6.5214E-02   3.8089E-05  0.1302
   6.5214E-02   6.6800E-02   2.8547E-05  0.1482
   6.6800E-02   6.8426E-02   3.8147E-05  0.1270
   6.8426E-02   7.0090E-02   3.5439E-05  0.1302
   7.0090E-02   7.1796E-02   3.4890E-05  0.1294
   7.1796E-02   7.3543E-02   2.2985E-05  0.1576
   7.3543E-02   7.5332E-02   3.2414E-05  0.1313
   7.5332E-02   7.7165E-02   3.7100E-05  0.1213
   7.7165E-02   7.9042E-02   3.7018E-05  0.1197
   7.9042E-02   8.0965E-02   3.3883E-05  0.1238
   8.0965E-02   8.2935E-02   2.7919E-05  0.1348
   8.2935E-02   8.4953E-02   3.7663E-05  0.1147
   8.4953E-02   8.7020E-02   3.0074E-05  0.1267
   8.7020E-02   8.9138E-02   2.5172E-05  0.1367
   8.9138E-02   9.1306E-02   2.6354E-05  0.1321
   9.1306E-02   9.3528E-02   2.2732E-05  0.1404
   9.3528E-02   9.5804E-02   2.9003E-05  0.1231
   9.5804E-02   9.8134E-02   3.1317E-05  0.1170
   9.8134E-02   1.0052E-01   2.3933E-05  0.1321
   1.0052E-01   1.0297E-01   3.1483E-05  0.1140
   1.0297E-01   1.0547E-01   2.5217E-05  0.1257
   1.0547E-01   1.0804E-01   2.6108E-05  0.1222
   1.0804E-01   1.1067E-01   2.6819E-05  0.1189
   1.1067E-01   1.1336E-01   3.2014E-05  0.1076
   1.1336E-01   1.1612E-01   2.6705E-05  0.1162
   1.1612E-01   1.1894E-01   2.5307E-05  0.1181
   1.1894E-01   1.2184E-01   2.5570E-05  0.1162
   1.2184E-01   1.2480E-01   2.8336E-05  0.1091
   1.2480E-01   1.2784E-01   2.7663E-05  0.1091
   1.2784E-01   1.3095E-01   2.1701E-05  0.1215
   1.3095E-01   1.3414E-01   2.4223E-05  0.1137
   1.3414E-01   1.3740E-01   2.4206E-05  0.1125
   1.3740E-01   1.4074E-01   2.6381E-05  0.1064
   1.4074E-01   1.4417E-01   2.3697E-05  0.1109
   1.4417E-01   1.4767E-01   2.3129E-05  0.1109
   1.4767E-01   1.5127E-01   1.8647E-05  0.1222
   1.5127E-01   1.5495E-01   1.9655E-05  0.1169
   1.5495E-01   1.5872E-01   2.4801E-05  0.1033
   1.5872E-01   1.6258E-01   2.2828E-05  0.1064
   1.6258E-01   1.6654E-01   1.8454E-05  0.1170
   1.6654E-01   1.7059E-01   1.8919E-05  0.1139
   1.7059E-01   1.7474E-01   1.9877E-05  0.1099
   1.7474E-01   1.7899E-01   1.8582E-05  0.1125
   1.7899E-01   1.8334E-01   1.8370E-05  0.1118
   1.8334E-01   1.8781E-01   1.8076E-05  0.1111
   1.8781E-01   1.9237E-01   1.9072E-05  0.1070
   1.9237E-01   1.9706E-01   1.6130E-05  0.1149
   1.9706E-01   2.0185E-01   1.8563E-05  0.1060
   2.0185E-01   2.0676E-01   1.6127E-05  0.1122
   2.0676E-01   2.1179E-01   1.6698E-05  0.1091
   2.1179E-01   2.1694E-01   1.7465E-05  0.1054
   2.1694E-01   2.2222E-01   1.8377E-05  0.1015
   2.2222E-01   2.2763E-01   1.9050E-05  0.0985
   2.2763E-01   2.3317E-01   1.8778E-05  0.0978
   2.3317E-01   2.3884E-01   2.0002E-05  0.0937
   2.3884E-01   2.4465E-01   1.5229E-05  0.1061
   2.4465E-01   2.5061E-01   1.7602E-05  0.0975
   2.5061E-01   2.5670E-01   1.9047E-05  0.0927
   2.5670E-01   2.6295E-01   1.8092E-05  0.0941
   2.6295E-01   2.6935E-01   2.2577E-05  0.0831
   2.6935E-01   2.7590E-01   2.1537E-05  0.0841
   2.7590E-01   2.8261E-01   2.0280E-05  0.0855
   2.8261E-01   2.8949E-01   2.0506E-05  0.0842
   2.8949E-01   2.9653E-01   2.0515E-05  0.0831
   2.9653E-01   3.0375E-01   2.3978E-05  0.0760
   3.0375E-01   3.1114E-01   2.2280E-05  0.0778
   3.1114E-01   3.1871E-01   2.0274E-05  0.0806
   3.1871E-01   3.2646E-01   2.3768E-05  0.0736
   3.2646E-01   3.3441E-01   2.2450E-05  0.0748
   3.3441E-01   3.4254E-01   2.0077E-05  0.0782
   3.4254E-01   3.5088E-01   2.5036E-05  0.0692
   3.5088E-01   3.5941E-01   2.1626E-05  0.0735
   3.5941E-01   3.6816E-01   2.0717E-05  0.0741
   3.6816E-01   3.7712E-01   1.8693E-05  0.0772
   3.7712E-01   3.8629E-01   2.3359E-05  0.0682
   3.8629E-01   3.9569E-01   2.0340E-05  0.0723
   3.9569E-01   4.0532E-01   2.0151E-05  0.0718
   4.0532E-01   4.1518E-01   2.3593E-05  0.0655
   4.1518E-01   4.2528E-01   2.3448E-05  0.0648
   4.2528E-01   4.3563E-01   2.4225E-05  0.0631
   4.3563E-01   4.4623E-01   2.3115E-05  0.0639
   4.4623E-01   4.5708E-01   2.5190E-05  0.0604
   4.5708E-01   4.6821E-01   2.2430E-05  0.0633
   4.6821E-01   4.7960E-01   2.1583E-05  0.0637
   4.7960E-01   4.9127E-01   2.2423E-05  0.0618
   4.9127E-01   5.0322E-01   2.3965E-05  0.0590
   5.0322E-01   5.1546E-01   2.6748E-05  0.0552
   5.1546E-01   5.2800E-01   2.4820E-05  0.0567
   5.2800E-01   5.4085E-01   2.4898E-05  0.0558
   5.4085E-01   5.5401E-01   2.3023E-05  0.0574
   5.5401E-01   5.6749E-01   2.1845E-05  0.0582
   5.6749E-01   5.8130E-01   2.2787E-05  0.0563
   5.8130E-01   5.9544E-01   2.4474E-05  0.0536
   5.9544E-01   6.0993E-01   2.4696E-05  0.0528
   6.0993E-01   6.2477E-01   2.3068E-05  0.0540
   6.2477E-01   6.3997E-01   2.1554E-05  0.0552
   6.3997E-01   6.5554E-01   2.3708E-05  0.0520
   6.5554E-01   6.7149E-01   2.3478E-05  0.0516
   6.7149E-01   6.8783E-01   2.3327E-05  0.0512
   6.8783E-01   7.0456E-01   2.5733E-05  0.0482
   7.0456E-01   7.2171E-01   2.4577E-05  0.0487
   7.2171E-01   7.3927E-01   2.4751E-05  0.0479
   7.3927E-01   7.5725E-01   2.6083E-05  0.0461
   7.5725E-01   7.7568E-01   2.3953E-05  0.0475
   7.7568E-01   7.9455E-01   2.5084E-05  0.0459
   7.9455E-01   8.1388E-01   2.5071E-05  0.0453
   8.1388E-01   8.3368E-01   2.3620E-05  0.0462
   8.3368E-01   8.5397E-01   2.5531E-05  0.0439
   8.5397E-01   8.7475E-01   2.4194E-05  0.0446
   8.7475E-01   8.9603E-01   2.2944E-05  0.0452
   8.9603E-01   9.1783E-01   2.2509E-05  0.0451
   9.1783E-01   9.4016E-01   2.1677E-05  0.0454
   9.4016E-01   9.6304E-01   2.1325E-05  0.0452
   9.6304E-01   9.8647E-01   2.1707E-05  0.0443
   9.8647E-01   1.0105E+00   2.0371E-05  0.0451
   1.0105E+00   1.0351E+00   2.2542E-05  0.0424
   1.0351E+00   1.0602E+00   2.0203E-05  0.0442
   1.0602E+00   1.0860E+00   2.0906E-05  0.0430
   1.0860E+00   1.1125E+00   2.0568E-05  0.0429
   1.1125E+00   1.1395E+00   1.9962E-05  0.0430
   1.1395E+00   1.1673E+00   2.0347E-05  0.0421
   1.1673E+00   1.1957E+00   2.1724E-05  0.0402
   1.1957E+00   1.2247E+00   2.2984E-05  0.0386
   1.2247E+00   1.2545E+00   2.0592E-05  0.0403
   1.2545E+00   1.2851E+00   2.0928E-05  0.0395
   1.2851E+00   1.3163E+00   1.9626E-05  0.0403
   1.3163E+00   1.3484E+00   2.1050E-05  0.0385
   1.3484E+00   1.3812E+00   1.9660E-05  0.0393
   1.3812E+00   1.4148E+00   2.0014E-05  0.0385
   1.4148E+00   1.4492E+00   2.0330E-05  0.0377
   1.4492E+00   1.4845E+00   2.0067E-05  0.0376
   1.4845E+00   1.5206E+00   1.9864E-05  0.0373
   1.5206E+00   1.5576E+00   1.9565E-05  0.0371
   1.5576E+00   1.5955E+00   2.0268E-05  0.0360
   1.5955E+00   1.6343E+00   1.8439E-05  0.0373
   1.6343E+00   1.6741E+00   2.0094E-05  0.0353
   1.6741E+00   1.7148E+00   1.7735E-05  0.0371
   1.7148E+00   1.7565E+00   1.9066E-05  0.0354
   1.7565E+00   1.7992E+00   1.7880E-05  0.0361
   1.7992E+00   1.8430E+00   1.7900E-05  0.0357
   1.8430E+00   1.8879E+00   1.9461E-05  0.0338
   1.8879E+00   1.9338E+00   1.8522E-05  0.0342
   1.9338E+00   1.9808E+00   1.7242E-05  0.0351
   1.9808E+00   2.0290E+00   1.8199E-05  0.0337
   2.0290E+00   2.0784E+00   1.7852E-05  0.0337
   2.0784E+00   2.1290E+00   1.7306E-05  0.0338
   2.1290E+00   2.1808E+00   1.6611E-05  0.0340
   2.1808E+00   2.2338E+00   1.6778E-05  0.0335
   2.2338E+00   2.2882E+00   1.8111E-05  0.0318
   2.2882E+00   2.3439E+00   1.7379E-05  0.0321
   2.3439E+00   2.4009E+00   1.6358E-05  0.0327
   2.4009E+00   2.4593E+00   1.6381E-05  0.0323
   2.4593E+00   2.5191E+00   1.7241E-05  0.0311
   2.5191E+00   2.5804E+00   1.6425E-05  0.0315
   2.5804E+00   2.6432E+00   1.6970E-05  0.0306
   2.6432E+00   2.7075E+00   1.6462E-05  0.0307
   2.7075E+00   2.7734E+00   1.6124E-05  0.0306
   2.7734E+00   2.8409E+00   1.6400E-05  0.0300
   2.8409E+00   2.9100E+00   1.5711E-05  0.0303
   2.9100E+00   2.9808E+00   1.6501E-05  0.0292
   2.9808E+00   3.0533E+00   1.5772E-05  0.0295
   3.0533E+00   3.1276E+00   1.5771E-05  0.0292
   3.1276E+00   3.2037E+00   1.5334E-05  0.0292
   3.2037E+00   3.2817E+00   1.5342E-05  0.0289
   3.2817E+00   3.3615E+00   1.6709E-05  0.0273
   3.3615E+00   3.4433E+00   1.6019E-05  0.0276
   3.4433E+00   3.5271E+00   1.5565E-05  0.0277
   3.5271E+00   3.6129E+00   1.5172E-05  0.0277
   3.6129E+00   3.7008E+00   1.5200E-05  0.0273
   3.7008E+00   3.7908E+00   1.5616E-05  0.0266
   3.7908E+00   3.8831E+00   1.4514E-05  0.0273
   3.8831E+00   3.9776E+00   1.4512E-05  0.0270
   3.9776E+00   4.0743E+00   1.3864E-05  0.0273
   4.0743E+00   4.1735E+00   1.4961E-05  0.0259
   4.1735E+00   4.2750E+00   1.4374E-05  0.0261
   4.2750E+00   4.3790E+00   1.3772E-05  0.0264
   4.3790E+00   4.4856E+00   1.3294E-05  0.0265
   4.4856E+00   4.5947E+00   1.4034E-05  0.0255
   4.5947E+00   4.7065E+00   1.3832E-05  0.0254
   4.7065E+00   4.8210E+00   1.3682E-05  0.0252
   4.8210E+00   4.9383E+00   1.3866E-05  0.0248
   4.9383E+00   5.0585E+00   1.3341E-05  0.0249
   5.0585E+00   5.1815E+00   1.3676E-05  0.0243
   5.1815E+00   5.3076E+00   1.3799E-05  0.0240
   5.3076E+00   5.4368E+00   1.3016E-05  0.0244
   5.4368E+00   5.5690E+00   1.2849E-05  0.0242
   5.5690E+00   5.7045E+00   1.3224E-05  0.0236
   5.7045E+00   5.8433E+00   1.3072E-05  0.0235
   5.8433E+00   5.9855E+00   1.2670E-05  0.0235
   5.9855E+00   6.1311E+00   1.3028E-05  0.0229
   6.1311E+00   6.2803E+00   1.3590E-05  0.0222
   6.2803E+00   6.4331E+00   1.2282E-05  0.0231
   6.4331E+00   6.5896E+00   1.2349E-05  0.0227
   6.5896E+00   6.7500E+00   1.2545E-05  0.0223
   6.7500E+00   6.9142E+00   1.2492E-05  0.0221
   6.9142E+00   7.0824E+00   1.2481E-05  0.0218
   7.0824E+00   7.2548E+00   1.2990E-05  0.0211
   7.2548E+00   7.4313E+00   1.2231E-05  0.0215
   7.4313E+00   7.6121E+00   1.2904E-05  0.0207
   7.6121E+00   7.7973E+00   1.2056E-05  0.0212
   7.7973E+00   7.9870E+00   1.1826E-05  0.0211
   7.9870E+00   8.1813E+00   1.2689E-05  0.0201
   8.1813E+00   8.3804E+00   1.2925E-05  0.0197
   8.3804E+00   8.5843E+00   1.2783E-05  0.0196
   8.5843E+00   8.7931E+00   1.2177E-05  0.0198
   8.7931E+00   9.0071E+00   1.2699E-05  0.0192
   9.0071E+00   9.2262E+00   1.2955E-05  0.0188
   9.2262E+00   9.4507E+00   1.2940E-05  0.0185
   9.4507E+00   9.6807E+00   1.3110E-05  0.0182
   9.6807E+00   9.9162E+00   1.3107E-05  0.0180
   9.9162E+00   1.0157E+01   1.3520E-05  0.0175
   1.0157E+01   1.0405E+01   1.3483E-05  0.0173
   1.0405E+01   1.0658E+01   1.3901E-05  0.0169
   1.0658E+01   1.0917E+01   1.3317E-05  0.0170
   1.0917E+01   1.1183E+01   1.3577E-05  0.0166
   1.1183E+01   1.1455E+01   1.4283E-05  0.0160
   1.1455E+01   1.1733E+01   1.4222E-05  0.0159
   1.1733E+01   1.2019E+01   1.4690E-05  0.0154
   1.2019E+01   1.2311E+01   1.5004E-05  0.0151
   1.2311E+01   1.2611E+01   1.5640E-05  0.0146
   1.2611E+01   1.2918E+01   1.5752E-05  0.0144
   1.2918E+01   1.3232E+01   1.6535E-05  0.0139
   1.3232E+01   1.3554E+01   1.6424E-05  0.0138
   1.3554E+01   1.3884E+01   1.7148E-05  0.0133
   1.3884E+01   1.4222E+01   1.7855E-05  0.0129
   1.4222E+01   1.4568E+01   1.8173E-05  0.0126
   1.4568E+01   1.4922E+01   1.8808E-05  0.0122
   1.4922E+01   1.5285E+01   1.9228E-05  0.0120
   1.5285E+01   1.5657E+01   2.0162E-05  0.0115
   1.5657E+01   1.6038E+01   2.1006E-05  0.0112
   1.6038E+01   1.6428E+01   2.1568E-05  0.0109
   1.6428E+01   1.6828E+01   2.2666E-05  0.0105
   1.6828E+01   1.7237E+01   2.3289E-05  0.0102
   1.7237E+01   1.7657E+01   2.3983E-05  0.0100
   1.7657E+01   1.8086E+01   2.5412E-05  0.0096
   1.8086E+01   1.8526E+01   2.6544E-05  0.0093
   1.8526E+01   1.8977E+01   2.7855E-05  0.0089
   1.8977E+01   1.9439E+01   2.8837E-05  0.0087
   1.9439E+01   1.9912E+01   2.9839E-05  0.0084
   1.9912E+01   2.0396E+01   3.2084E-05  0.0080
   2.0396E+01   2.0893E+01   3.3811E-05  0.0077
   2.0893E+01   2.1401E+01   3.5418E-05  0.0075
   2.1401E+01   2.1922E+01   3.7190E-05  0.0072
   2.1922E+01   2.2455E+01   3.8532E-05  0.0070
   2.2455E+01   2.3001E+01   4.0747E-05  0.0067
   2.3001E+01   2.3561E+01   4.2915E-05  0.0065
   2.3561E+01   2.4134E+01   4.5487E-05  0.0062
   2.4134E+01   2.4721E+01   4.8453E-05  0.0059
   2.4721E+01   2.5323E+01   5.1307E-05  0.0057
   2.5323E+01   2.5939E+01   5.4450E-05  0.0055
   2.5939E+01   2.6570E+01   5.7637E-05  0.0052
   2.6570E+01   2.7217E+01   6.0940E-05  0.0050
   2.7217E+01   2.7879E+01   6.4544E-05  0.0048
   2.7879E+01   2.8557E+01   6.8663E-05  0.0046
   2.8557E+01   2.9252E+01   7.2176E-05  0.0045
   2.9252E+01   2.9964E+01   7.6797E-05  0.0043
   2.9964E+01   3.0693E+01   8.1359E-05  0.0041
   3.0693E+01   3.1440E+01   8.5065E-05  0.0040
   3.1440E+01   3.2205E+01   8.9840E-05  0.0038
   3.2205E+01   3.2988E+01   9.4091E-05  0.0037
   3.2988E+01   3.3791E+01   9.7251E-05  0.0036
   3.3791E+01   3.4613E+01   1.0085E-04  0.0035
   3.4613E+01   3.5455E+01   1.0318E-04  0.0034
   3.5455E+01   3.6318E+01   1.0556E-04  0.0033
   3.6318E+01   3.7201E+01   1.0609E-04  0.0033
   3.7201E+01   3.8106E+01   1.0586E-04  0.0032
   3.8106E+01   3.9034E+01   1.0426E-04  0.0032
   3.9034E+01   3.9983E+01   1.0213E-04  0.0032
   3.9983E+01   4.0956E+01   9.8582E-05  0.0032
   4.0956E+01   4.1953E+01   9.4336E-05  0.0033
   4.1953E+01   4.2973E+01   8.8770E-05  0.0033
   4.2973E+01   4.4019E+01   8.2522E-05  0.0034
   4.4019E+01   4.5090E+01   7.6193E-05  0.0035
   4.5090E+01   4.6187E+01   7.0024E-05  0.0036
   4.6187E+01   4.7311E+01   6.3155E-05  0.0038
   4.7311E+01   4.8462E+01   5.6347E-05  0.0039
   4.8462E+01   4.9641E+01   5.0611E-05  0.0041
   4.9641E+01   5.0849E+01   4.4089E-05  0.0043
   5.0849E+01   5.2086E+01   3.8722E-05  0.0046
   5.2086E+01   5.3353E+01   3.4021E-05  0.0048
   5.3353E+01   5.4651E+01   2.9908E-05  0.0051
   5.4651E+01   5.5981E+01   2.5471E-05  0.0054
   5.5981E+01   5.7343E+01   2.2166E-05  0.0058
   5.7343E+01   5.8738E+01   1.9237E-05  0.0061
   5.8738E+01   6.0168E+01   1.6698E-05  0.0065
   6.0168E+01   6.1632E+01   1.4484E-05  0.0069
   6.1632E+01   6.3131E+01   1.2322E-05  0.0074
   6.3131E+01   6.4667E+01   1.0599E-05  0.0078
   6.4667E+01   6.6240E+01   9.3549E-06  0.0082
   6.6240E+01   6.7852E+01   8.3763E-06  0.0086
   6.7852E+01   6.9503E+01   7.2912E-06  0.0091
   6.9503E+01   7.1194E+01   6.6615E-06  0.0094
   7.1194E+01   7.2926E+01   5.8625E-06  0.0099
   7.2926E+01   7.4701E+01   5.2306E-06  0.0104
   7.4701E+01   7.6518E+01   4.8643E-06  0.0106
   7.6518E+01   7.8380E+01   4.6317E-06  0.0108
   7.8380E+01   8.0287E+01   4.5180E-06  0.0108
   8.0287E+01   8.2240E+01   4.0646E-06  0.0112
   8.2240E+01   8.4241E+01   3.5348E-06  0.0119
   8.4241E+01   8.6291E+01   2.9468E-06  0.0129
   8.6291E+01   8.8391E+01   2.4920E-06  0.0138
   8.8391E+01   9.0541E+01   2.0269E-06  0.0151
   9.0541E+01   9.2744E+01   1.4317E-06  0.0178
   9.2744E+01   9.5001E+01   8.2560E-07  0.0232
   9.5001E+01   9.7312E+01   3.1495E-07  0.0371
   9.7312E+01   9.9680E+01   7.5601E-08  0.0747
   9.9680E+01   1.0211E+02   0.0000E+00  0.0000
   1.0211E+02   1.0459E+02   0.0000E+00  0.0000
   1.0459E+02   1.0713E+02   0.0000E+00  0.0000
   1.0713E+02   1.0974E+02   0.0000E+00  0.0000
   1.0974E+02   1.1241E+02   0.0000E+00  0.0000
   1.1241E+02   1.1515E+02   0.0000E+00  0.0000
   1.1515E+02   1.1795E+02   0.0000E+00  0.0000
   1.1795E+02   1.2082E+02   0.0000E+00  0.0000
   1.2082E+02   1.2376E+02   0.0000E+00  0.0000
   1.2376E+02   1.2677E+02   0.0000E+00  0.0000
   1.2677E+02   1.2985E+02   0.0000E+00  0.0000
   1.2985E+02   1.3301E+02   0.0000E+00  0.0000
   1.3301E+02   1.3625E+02   0.0000E+00  0.0000
   1.3625E+02   1.3956E+02   0.0000E+00  0.0000
   1.3956E+02   1.4296E+02   0.0000E+00  0.0000
   1.4296E+02   1.4644E+02   0.0000E+00  0.0000
   1.4644E+02   1.5000E+02   0.0000E+00  0.0000

#   sum over                 2.0495E-05
'no. =    1   reg = 100 - 200'
msuc: {\huge [t-cross] in region mesh}
msdr: {\it plotted by \ANGEL \version}
msdl: {\it calculated by \PHITS  3.26}
wt: s(0.7)
\vspace{-3}
  region surface crossing
  area  &=&   1.0000E+00 [cm^2]
e:
 
# Information for Restart Calculation
# This calculation was newly started
# istdev =  2 # 1:Batch variance, 2:History variance
# resc2  = 1.00000000000000000E+09 # Total source weight or Total source weight / maxcas
# resc3  = 1.00000000000000000E+09 # Total history number or Total batch number
# maxcas =   500000000 # History / Batch, only used for istdev=1
# bitrseed = 0001001110011001001001110000100100110111001111011100001000101100 # bit data of rseed
