[ T-Cross ]
    title = [t-cross] in region mesh
     mesh =  reg            # mesh type is region-wise
      reg =    1            # number of crossing regions
      non     r-from    r-to       area
      1       117       217        1.000000    
   e-type =    3            # e-mesh is log given by emin, emax and ne
     emin =  1.0000000E-02  # minimum value of e-mesh points
     emax =   150.0000      # maximum value of e-mesh points
#    edel =  2.4039514E-02  # mesh width of e-mesh points
       ne =    400          # number of e-mesh points
#    data = ( e(i), i = 1, ne + 1 )
#           1.00000E-02  1.02433E-02  1.04925E-02  1.07478E-02  1.10093E-02
#           1.12772E-02  1.15516E-02  1.18326E-02  1.21205E-02  1.24154E-02
#           1.27175E-02  1.30269E-02  1.33439E-02  1.36686E-02  1.40011E-02
#           1.43418E-02  1.46907E-02  1.50482E-02  1.54143E-02  1.57894E-02
#           1.61735E-02  1.65670E-02  1.69701E-02  1.73830E-02  1.78060E-02
#           1.82392E-02  1.86830E-02  1.91375E-02  1.96032E-02  2.00801E-02
#           2.05687E-02  2.10692E-02  2.15818E-02  2.21069E-02  2.26448E-02
#           2.31957E-02  2.37601E-02  2.43382E-02  2.49304E-02  2.55369E-02
#           2.61583E-02  2.67947E-02  2.74467E-02  2.81145E-02  2.87985E-02
#           2.94992E-02  3.02169E-02  3.09521E-02  3.17052E-02  3.24766E-02
#           3.32668E-02  3.40762E-02  3.49053E-02  3.57546E-02  3.66246E-02
#           3.75157E-02  3.84284E-02  3.93634E-02  4.03212E-02  4.13022E-02
#           4.23071E-02  4.33365E-02  4.43909E-02  4.54710E-02  4.65773E-02
#           4.77106E-02  4.88714E-02  5.00605E-02  5.12785E-02  5.25262E-02
#           5.38042E-02  5.51133E-02  5.64542E-02  5.78278E-02  5.92348E-02
#           6.06760E-02  6.21523E-02  6.36645E-02  6.52135E-02  6.68002E-02
#           6.84255E-02  7.00904E-02  7.17957E-02  7.35426E-02  7.53319E-02
#           7.71648E-02  7.90423E-02  8.09655E-02  8.29354E-02  8.49533E-02
#           8.70203E-02  8.91376E-02  9.13064E-02  9.35279E-02  9.58035E-02
#           9.81345E-02  1.00522E-01  1.02968E-01  1.05473E-01  1.08040E-01
#           1.10668E-01  1.13361E-01  1.16119E-01  1.18944E-01  1.21838E-01
#           1.24803E-01  1.27839E-01  1.30950E-01  1.34136E-01  1.37399E-01
#           1.40742E-01  1.44167E-01  1.47675E-01  1.51268E-01  1.54948E-01
#           1.58718E-01  1.62580E-01  1.66535E-01  1.70587E-01  1.74738E-01
#           1.78989E-01  1.83344E-01  1.87805E-01  1.92375E-01  1.97055E-01
#           2.01850E-01  2.06761E-01  2.11792E-01  2.16945E-01  2.22223E-01
#           2.27630E-01  2.33169E-01  2.38842E-01  2.44653E-01  2.50605E-01
#           2.56703E-01  2.62949E-01  2.69346E-01  2.75900E-01  2.82613E-01
#           2.89489E-01  2.96532E-01  3.03747E-01  3.11138E-01  3.18708E-01
#           3.26462E-01  3.34405E-01  3.42542E-01  3.50876E-01  3.59413E-01
#           3.68158E-01  3.77116E-01  3.86291E-01  3.95690E-01  4.05317E-01
#           4.15179E-01  4.25281E-01  4.35628E-01  4.46227E-01  4.57084E-01
#           4.68205E-01  4.79597E-01  4.91266E-01  5.03219E-01  5.15463E-01
#           5.28005E-01  5.40851E-01  5.54011E-01  5.67490E-01  5.81298E-01
#           5.95441E-01  6.09929E-01  6.24769E-01  6.39970E-01  6.55541E-01
#           6.71491E-01  6.87828E-01  7.04564E-01  7.21706E-01  7.39266E-01
#           7.57253E-01  7.75678E-01  7.94551E-01  8.13883E-01  8.33685E-01
#           8.53969E-01  8.74747E-01  8.96030E-01  9.17831E-01  9.40163E-01
#           9.63038E-01  9.86469E-01  1.01047E+00  1.03506E+00  1.06024E+00
#           1.08604E+00  1.11246E+00  1.13953E+00  1.16725E+00  1.19565E+00
#           1.22474E+00  1.25454E+00  1.28507E+00  1.31633E+00  1.34836E+00
#           1.38117E+00  1.41477E+00  1.44920E+00  1.48446E+00  1.52057E+00
#           1.55757E+00  1.59547E+00  1.63429E+00  1.67405E+00  1.71478E+00
#           1.75650E+00  1.79924E+00  1.84302E+00  1.88786E+00  1.93379E+00
#           1.98084E+00  2.02904E+00  2.07841E+00  2.12898E+00  2.18078E+00
#           2.23384E+00  2.28819E+00  2.34386E+00  2.40089E+00  2.45930E+00
#           2.51914E+00  2.58043E+00  2.64322E+00  2.70753E+00  2.77341E+00
#           2.84088E+00  2.91001E+00  2.98081E+00  3.05333E+00  3.12762E+00
#           3.20372E+00  3.28167E+00  3.36152E+00  3.44330E+00  3.52708E+00
#           3.61290E+00  3.70080E+00  3.79085E+00  3.88308E+00  3.97756E+00
#           4.07434E+00  4.17347E+00  4.27501E+00  4.37903E+00  4.48557E+00
#           4.59471E+00  4.70650E+00  4.82102E+00  4.93832E+00  5.05847E+00
#           5.18155E+00  5.30762E+00  5.43676E+00  5.56904E+00  5.70453E+00
#           5.84333E+00  5.98550E+00  6.13114E+00  6.28031E+00  6.43312E+00
#           6.58964E+00  6.74997E+00  6.91420E+00  7.08243E+00  7.25475E+00
#           7.43126E+00  7.61207E+00  7.79728E+00  7.98700E+00  8.18133E+00
#           8.38038E+00  8.58428E+00  8.79315E+00  9.00709E+00  9.22624E+00
#           9.45072E+00  9.68067E+00  9.91620E+00  1.01575E+01  1.04046E+01
#           1.06578E+01  1.09171E+01  1.11827E+01  1.14548E+01  1.17335E+01
#           1.20190E+01  1.23114E+01  1.26109E+01  1.29178E+01  1.32321E+01
#           1.35540E+01  1.38838E+01  1.42216E+01  1.45676E+01  1.49221E+01
#           1.52851E+01  1.56570E+01  1.60380E+01  1.64282E+01  1.68279E+01
#           1.72374E+01  1.76568E+01  1.80864E+01  1.85264E+01  1.89772E+01
#           1.94389E+01  1.99119E+01  2.03963E+01  2.08926E+01  2.14009E+01
#           2.19216E+01  2.24550E+01  2.30014E+01  2.35610E+01  2.41343E+01
#           2.47215E+01  2.53230E+01  2.59391E+01  2.65702E+01  2.72167E+01
#           2.78789E+01  2.85572E+01  2.92520E+01  2.99637E+01  3.06928E+01
#           3.14396E+01  3.22045E+01  3.29881E+01  3.37907E+01  3.46128E+01
#           3.54550E+01  3.63177E+01  3.72013E+01  3.81064E+01  3.90336E+01
#           3.99833E+01  4.09561E+01  4.19526E+01  4.29734E+01  4.40189E+01
#           4.50900E+01  4.61870E+01  4.73108E+01  4.84619E+01  4.96410E+01
#           5.08488E+01  5.20860E+01  5.33533E+01  5.46514E+01  5.59812E+01
#           5.73432E+01  5.87384E+01  6.01676E+01  6.16315E+01  6.31311E+01
#           6.46671E+01  6.62405E+01  6.78522E+01  6.95031E+01  7.11941E+01
#           7.29263E+01  7.47007E+01  7.65182E+01  7.83800E+01  8.02870E+01
#           8.22405E+01  8.42414E+01  8.62911E+01  8.83906E+01  9.05412E+01
#           9.27442E+01  9.50007E+01  9.73122E+01  9.96799E+01  1.02105E+02
#           1.04589E+02  1.07134E+02  1.09741E+02  1.12411E+02  1.15146E+02
#           1.17948E+02  1.20817E+02  1.23757E+02  1.26768E+02  1.29852E+02
#           1.33012E+02  1.36248E+02  1.39563E+02  1.42959E+02  1.46437E+02
#           1.50000E+02
     unit =    2            # unit is [1/cm^2/(MeV/n)/source]
     axis =  eng            # axis of output
     file = detector-18.out  # file name of output for the above axis
   output = f-curr          # surface crossing forward current spectrum
     part =  neutron  
# kf/name :  2112     
#    used :        main (  %)        temp (  %)       total (  %)
#  memory :         414 (  0)           0 (  0)         414 (  0)

#------------------------------------------------------------------------------
#newpage:
#   no. =    1   reg = 117 - 217

x: Energy [MeV/n]
y:  F-Curr [1/cm^2/(MeV/n)/source]         
p: xlog ylog afac(0.8) form(0.9)
h: n            x            y(neutron ),hh0l   n 
#  e-lower      e-upper      neutron     r.err 
   1.0000E-02   1.0243E-02   1.1432E-03  0.0599
   1.0243E-02   1.0493E-02   1.1127E-03  0.0600
   1.0493E-02   1.0748E-02   1.0858E-03  0.0600
   1.0748E-02   1.1009E-02   9.7574E-04  0.0626
   1.1009E-02   1.1277E-02   1.0875E-03  0.0586
   1.1277E-02   1.1552E-02   9.7760E-04  0.0610
   1.1552E-02   1.1833E-02   9.9341E-04  0.0598
   1.1833E-02   1.2121E-02   1.0184E-03  0.0584
   1.2121E-02   1.2415E-02   1.0850E-03  0.0558
   1.2415E-02   1.2718E-02   1.1143E-03  0.0545
   1.2718E-02   1.3027E-02   9.6678E-04  0.0578
   1.3027E-02   1.3344E-02   1.0421E-03  0.0550
   1.3344E-02   1.3669E-02   9.3685E-04  0.0573
   1.3669E-02   1.4001E-02   1.0336E-03  0.0539
   1.4001E-02   1.4342E-02   9.8650E-04  0.0545
   1.4342E-02   1.4691E-02   1.0254E-03  0.0528
   1.4691E-02   1.5048E-02   9.9128E-04  0.0531
   1.5048E-02   1.5414E-02   1.0146E-03  0.0519
   1.5414E-02   1.5789E-02   9.8759E-04  0.0519
   1.5789E-02   1.6174E-02   9.2717E-04  0.0529
   1.6174E-02   1.6567E-02   1.0290E-03  0.0496
   1.6567E-02   1.6970E-02   9.0841E-04  0.0522
   1.6970E-02   1.7383E-02   9.4247E-04  0.0507
   1.7383E-02   1.7806E-02   9.2448E-04  0.0506
   1.7806E-02   1.8239E-02   1.0166E-03  0.0476
   1.8239E-02   1.8683E-02   9.2315E-04  0.0494
   1.8683E-02   1.9138E-02   1.0003E-03  0.0469
   1.9138E-02   1.9603E-02   9.8895E-04  0.0466
   1.9603E-02   2.0080E-02   9.4996E-04  0.0469
   2.0080E-02   2.0569E-02   9.1790E-04  0.0472
   2.0569E-02   2.1069E-02   9.1057E-04  0.0468
   2.1069E-02   2.1582E-02   8.8924E-04  0.0468
   2.1582E-02   2.2107E-02   8.5623E-04  0.0471
   2.2107E-02   2.2645E-02   9.1356E-04  0.0451
   2.2645E-02   2.3196E-02   9.0870E-04  0.0446
   2.3196E-02   2.3760E-02   8.5498E-04  0.0455
   2.3760E-02   2.4338E-02   9.1763E-04  0.0434
   2.4338E-02   2.4930E-02   9.5184E-04  0.0421
   2.4930E-02   2.5537E-02   9.1728E-04  0.0424
   2.5537E-02   2.6158E-02   8.9100E-04  0.0425
   2.6158E-02   2.6795E-02   8.1252E-04  0.0439
   2.6795E-02   2.7447E-02   8.8191E-04  0.0416
   2.7447E-02   2.8114E-02   8.7276E-04  0.0414
   2.8114E-02   2.8799E-02   8.3985E-04  0.0417
   2.8799E-02   2.9499E-02   8.2891E-04  0.0415
   2.9499E-02   3.0217E-02   8.1917E-04  0.0412
   3.0217E-02   3.0952E-02   8.2115E-04  0.0407
   3.0952E-02   3.1705E-02   7.8078E-04  0.0412
   3.1705E-02   3.2477E-02   8.3685E-04  0.0393
   3.2477E-02   3.3267E-02   8.9097E-04  0.0376
   3.3267E-02   3.4076E-02   8.1047E-04  0.0390
   3.4076E-02   3.4905E-02   7.8332E-04  0.0392
   3.4905E-02   3.5755E-02   7.8887E-04  0.0386
   3.5755E-02   3.6625E-02   8.4240E-04  0.0369
   3.6625E-02   3.7516E-02   7.4993E-04  0.0386
   3.7516E-02   3.8428E-02   7.1733E-04  0.0390
   3.8428E-02   3.9363E-02   7.8335E-04  0.0369
   3.9363E-02   4.0321E-02   7.6467E-04  0.0369
   4.0321E-02   4.1302E-02   7.7553E-04  0.0362
   4.1302E-02   4.2307E-02   7.5254E-04  0.0363
   4.2307E-02   4.3337E-02   7.2599E-04  0.0365
   4.3337E-02   4.4391E-02   7.5327E-04  0.0355
   4.4391E-02   4.5471E-02   7.1118E-04  0.0361
   4.5471E-02   4.6577E-02   7.0908E-04  0.0357
   4.6577E-02   4.7711E-02   7.3339E-04  0.0347
   4.7711E-02   4.8871E-02   6.5341E-04  0.0363
   4.8871E-02   5.0061E-02   7.0408E-04  0.0345
   5.0061E-02   5.1279E-02   6.9002E-04  0.0344
   5.1279E-02   5.2526E-02   7.0142E-04  0.0338
   5.2526E-02   5.3804E-02   6.6722E-04  0.0342
   5.3804E-02   5.5113E-02   6.8671E-04  0.0333
   5.5113E-02   5.6454E-02   6.5875E-04  0.0336
   5.6454E-02   5.7828E-02   6.6458E-04  0.0331
   5.7828E-02   5.9235E-02   6.8240E-04  0.0323
   5.9235E-02   6.0676E-02   6.3449E-04  0.0330
   6.0676E-02   6.2152E-02   6.3267E-04  0.0327
   6.2152E-02   6.3665E-02   6.4234E-04  0.0321
   6.3665E-02   6.5214E-02   6.2555E-04  0.0321
   6.5214E-02   6.6800E-02   5.9435E-04  0.0325
   6.6800E-02   6.8426E-02   6.0737E-04  0.0318
   6.8426E-02   7.0090E-02   6.1307E-04  0.0313
   7.0090E-02   7.1796E-02   5.8986E-04  0.0315
   7.1796E-02   7.3543E-02   5.7265E-04  0.0316
   7.3543E-02   7.5332E-02   5.8622E-04  0.0309
   7.5332E-02   7.7165E-02   5.6894E-04  0.0309
   7.7165E-02   7.9042E-02   5.6004E-04  0.0308
   7.9042E-02   8.0965E-02   5.6442E-04  0.0303
   8.0965E-02   8.2935E-02   5.2537E-04  0.0311
   8.2935E-02   8.4953E-02   5.4461E-04  0.0301
   8.4953E-02   8.7020E-02   5.1774E-04  0.0305
   8.7020E-02   8.9138E-02   5.2865E-04  0.0299
   8.9138E-02   9.1306E-02   5.4601E-04  0.0290
   9.1306E-02   9.3528E-02   5.2294E-04  0.0293
   9.3528E-02   9.5804E-02   5.1236E-04  0.0293
   9.5804E-02   9.8134E-02   4.8793E-04  0.0296
   9.8134E-02   1.0052E-01   4.6954E-04  0.0298
   1.0052E-01   1.0297E-01   4.5798E-04  0.0299
   1.0297E-01   1.0547E-01   4.4870E-04  0.0298
   1.0547E-01   1.0804E-01   4.5603E-04  0.0292
   1.0804E-01   1.1067E-01   4.3766E-04  0.0295
   1.1067E-01   1.1336E-01   4.6606E-04  0.0282
   1.1336E-01   1.1612E-01   4.3109E-04  0.0290
   1.1612E-01   1.1894E-01   4.3204E-04  0.0286
   1.1894E-01   1.2184E-01   3.9992E-04  0.0294
   1.2184E-01   1.2480E-01   4.0863E-04  0.0287
   1.2480E-01   1.2784E-01   4.2894E-04  0.0277
   1.2784E-01   1.3095E-01   3.9941E-04  0.0283
   1.3095E-01   1.3414E-01   3.8057E-04  0.0287
   1.3414E-01   1.3740E-01   3.8841E-04  0.0281
   1.3740E-01   1.4074E-01   3.8186E-04  0.0280
   1.4074E-01   1.4417E-01   3.7694E-04  0.0278
   1.4417E-01   1.4767E-01   3.6219E-04  0.0280
   1.4767E-01   1.5127E-01   3.5240E-04  0.0281
   1.5127E-01   1.5495E-01   3.3274E-04  0.0286
   1.5495E-01   1.5872E-01   3.4355E-04  0.0278
   1.5872E-01   1.6258E-01   3.1669E-04  0.0286
   1.6258E-01   1.6654E-01   3.4204E-04  0.0272
   1.6654E-01   1.7059E-01   3.1837E-04  0.0278
   1.7059E-01   1.7474E-01   3.0474E-04  0.0281
   1.7474E-01   1.7899E-01   3.0379E-04  0.0278
   1.7899E-01   1.8334E-01   2.9004E-04  0.0281
   1.8334E-01   1.8781E-01   2.8017E-04  0.0283
   1.8781E-01   1.9237E-01   2.6830E-04  0.0285
   1.9237E-01   1.9706E-01   2.6594E-04  0.0283
   1.9706E-01   2.0185E-01   2.6036E-04  0.0283
   2.0185E-01   2.0676E-01   2.6177E-04  0.0279
   2.0676E-01   2.1179E-01   2.7241E-04  0.0270
   2.1179E-01   2.1694E-01   2.8777E-04  0.0260
   2.1694E-01   2.2222E-01   2.8660E-04  0.0257
   2.2222E-01   2.2763E-01   2.8172E-04  0.0256
   2.2763E-01   2.3317E-01   2.8529E-04  0.0251
   2.3317E-01   2.3884E-01   2.9664E-04  0.0244
   2.3884E-01   2.4465E-01   3.1630E-04  0.0233
   2.4465E-01   2.5061E-01   3.1593E-04  0.0230
   2.5061E-01   2.5670E-01   3.0131E-04  0.0233
   2.5670E-01   2.6295E-01   3.1538E-04  0.0225
   2.6295E-01   2.6935E-01   3.2999E-04  0.0217
   2.6935E-01   2.7590E-01   3.2199E-04  0.0217
   2.7590E-01   2.8261E-01   3.3974E-04  0.0209
   2.8261E-01   2.8949E-01   3.3507E-04  0.0208
   2.8949E-01   2.9653E-01   3.3038E-04  0.0207
   2.9653E-01   3.0375E-01   3.3960E-04  0.0202
   3.0375E-01   3.1114E-01   3.4072E-04  0.0199
   3.1114E-01   3.1871E-01   3.5546E-04  0.0193
   3.1871E-01   3.2646E-01   3.5659E-04  0.0190
   3.2646E-01   3.3441E-01   3.6806E-04  0.0185
   3.3441E-01   3.4254E-01   3.7648E-04  0.0180
   3.4254E-01   3.5088E-01   3.6616E-04  0.0181
   3.5088E-01   3.5941E-01   3.7706E-04  0.0176
   3.5941E-01   3.6816E-01   3.7835E-04  0.0174
   3.6816E-01   3.7712E-01   3.8007E-04  0.0171
   3.7712E-01   3.8629E-01   3.7978E-04  0.0169
   3.8629E-01   3.9569E-01   3.9448E-04  0.0164
   3.9569E-01   4.0532E-01   3.9191E-04  0.0163
   4.0532E-01   4.1518E-01   3.9582E-04  0.0160
   4.1518E-01   4.2528E-01   4.1275E-04  0.0155
   4.2528E-01   4.3563E-01   4.0503E-04  0.0154
   4.3563E-01   4.4623E-01   4.0017E-04  0.0153
   4.4623E-01   4.5708E-01   4.1581E-04  0.0149
   4.5708E-01   4.6821E-01   4.1570E-04  0.0147
   4.6821E-01   4.7960E-01   4.1795E-04  0.0145
   4.7960E-01   4.9127E-01   4.2852E-04  0.0141
   4.9127E-01   5.0322E-01   4.1357E-04  0.0142
   5.0322E-01   5.1546E-01   4.2127E-04  0.0139
   5.1546E-01   5.2800E-01   4.2978E-04  0.0136
   5.2800E-01   5.4085E-01   4.3107E-04  0.0134
   5.4085E-01   5.5401E-01   4.1972E-04  0.0134
   5.5401E-01   5.6749E-01   4.3317E-04  0.0131
   5.6749E-01   5.8130E-01   4.3389E-04  0.0129
   5.8130E-01   5.9544E-01   4.3747E-04  0.0127
   5.9544E-01   6.0993E-01   4.3388E-04  0.0126
   6.0993E-01   6.2477E-01   4.3862E-04  0.0124
   6.2477E-01   6.3997E-01   4.3401E-04  0.0123
   6.3997E-01   6.5554E-01   4.3799E-04  0.0121
   6.5554E-01   6.7149E-01   4.4615E-04  0.0118
   6.7149E-01   6.8783E-01   4.4299E-04  0.0117
   6.8783E-01   7.0456E-01   4.4120E-04  0.0116
   7.0456E-01   7.2171E-01   4.3586E-04  0.0116
   7.2171E-01   7.3927E-01   4.3923E-04  0.0114
   7.3927E-01   7.5725E-01   4.3452E-04  0.0113
   7.5725E-01   7.7568E-01   4.3140E-04  0.0112
   7.7568E-01   7.9455E-01   4.3465E-04  0.0110
   7.9455E-01   8.1388E-01   4.3608E-04  0.0109
   8.1388E-01   8.3368E-01   4.2908E-04  0.0108
   8.3368E-01   8.5397E-01   4.2576E-04  0.0107
   8.5397E-01   8.7475E-01   4.2595E-04  0.0106
   8.7475E-01   8.9603E-01   4.2404E-04  0.0105
   8.9603E-01   9.1783E-01   4.1832E-04  0.0105
   9.1783E-01   9.4016E-01   4.0503E-04  0.0105
   9.4016E-01   9.6304E-01   4.0597E-04  0.0104
   9.6304E-01   9.8647E-01   3.8716E-04  0.0105
   9.8647E-01   1.0105E+00   3.7059E-04  0.0106
   1.0105E+00   1.0351E+00   3.7424E-04  0.0104
   1.0351E+00   1.0602E+00   3.6644E-04  0.0104
   1.0602E+00   1.0860E+00   3.6738E-04  0.0103
   1.0860E+00   1.1125E+00   3.6067E-04  0.0102
   1.1125E+00   1.1395E+00   3.6021E-04  0.0101
   1.1395E+00   1.1673E+00   3.6092E-04  0.0100
   1.1673E+00   1.1957E+00   3.6514E-04  0.0098
   1.1957E+00   1.2247E+00   3.6454E-04  0.0097
   1.2247E+00   1.2545E+00   3.5829E-04  0.0097
   1.2545E+00   1.2851E+00   3.5759E-04  0.0095
   1.2851E+00   1.3163E+00   3.6017E-04  0.0094
   1.3163E+00   1.3484E+00   3.4910E-04  0.0094
   1.3484E+00   1.3812E+00   3.5107E-04  0.0093
   1.3812E+00   1.4148E+00   3.5553E-04  0.0091
   1.4148E+00   1.4492E+00   3.4670E-04  0.0091
   1.4492E+00   1.4845E+00   3.4140E-04  0.0091
   1.4845E+00   1.5206E+00   3.3620E-04  0.0091
   1.5206E+00   1.5576E+00   3.3599E-04  0.0089
   1.5576E+00   1.5955E+00   3.2443E-04  0.0090
   1.5955E+00   1.6343E+00   3.2318E-04  0.0089
   1.6343E+00   1.6741E+00   3.2530E-04  0.0088
   1.6741E+00   1.7148E+00   3.1515E-04  0.0088
   1.7148E+00   1.7565E+00   3.1384E-04  0.0087
   1.7565E+00   1.7992E+00   3.0876E-04  0.0087
   1.7992E+00   1.8430E+00   3.0995E-04  0.0086
   1.8430E+00   1.8879E+00   2.9886E-04  0.0086
   1.8879E+00   1.9338E+00   2.9076E-04  0.0086
   1.9338E+00   1.9808E+00   2.8891E-04  0.0085
   1.9808E+00   2.0290E+00   2.8295E-04  0.0085
   2.0290E+00   2.0784E+00   2.8007E-04  0.0085
   2.0784E+00   2.1290E+00   2.7452E-04  0.0085
   2.1290E+00   2.1808E+00   2.6880E-04  0.0084
   2.1808E+00   2.2338E+00   2.6113E-04  0.0085
   2.2338E+00   2.2882E+00   2.5325E-04  0.0085
   2.2882E+00   2.3439E+00   2.5031E-04  0.0084
   2.3439E+00   2.4009E+00   2.4298E-04  0.0085
   2.4009E+00   2.4593E+00   2.4228E-04  0.0084
   2.4593E+00   2.5191E+00   2.3635E-04  0.0084
   2.5191E+00   2.5804E+00   2.2796E-04  0.0084
   2.5804E+00   2.6432E+00   2.2376E-04  0.0084
   2.6432E+00   2.7075E+00   2.2169E-04  0.0083
   2.7075E+00   2.7734E+00   2.1329E-04  0.0084
   2.7734E+00   2.8409E+00   2.0669E-04  0.0084
   2.8409E+00   2.9100E+00   2.0371E-04  0.0084
   2.9100E+00   2.9808E+00   1.9955E-04  0.0084
   2.9808E+00   3.0533E+00   1.9405E-04  0.0084
   3.0533E+00   3.1276E+00   1.9114E-04  0.0084
   3.1276E+00   3.2037E+00   1.8470E-04  0.0084
   3.2037E+00   3.2817E+00   1.7664E-04  0.0085
   3.2817E+00   3.3615E+00   1.7693E-04  0.0084
   3.3615E+00   3.4433E+00   1.7116E-04  0.0084
   3.4433E+00   3.5271E+00   1.6676E-04  0.0084
   3.5271E+00   3.6129E+00   1.6200E-04  0.0085
   3.6129E+00   3.7008E+00   1.5946E-04  0.0084
   3.7008E+00   3.7908E+00   1.5324E-04  0.0085
   3.7908E+00   3.8831E+00   1.4923E-04  0.0085
   3.8831E+00   3.9776E+00   1.4596E-04  0.0085
   3.9776E+00   4.0743E+00   1.4164E-04  0.0085
   4.0743E+00   4.1735E+00   1.3808E-04  0.0085
   4.1735E+00   4.2750E+00   1.3442E-04  0.0085
   4.2750E+00   4.3790E+00   1.3006E-04  0.0086
   4.3790E+00   4.4856E+00   1.2622E-04  0.0086
   4.4856E+00   4.5947E+00   1.2421E-04  0.0086
   4.5947E+00   4.7065E+00   1.2093E-04  0.0086
   4.7065E+00   4.8210E+00   1.1522E-04  0.0087
   4.8210E+00   4.9383E+00   1.1193E-04  0.0087
   4.9383E+00   5.0585E+00   1.0671E-04  0.0088
   5.0585E+00   5.1815E+00   1.0350E-04  0.0088
   5.1815E+00   5.3076E+00   1.0009E-04  0.0089
   5.3076E+00   5.4368E+00   9.6287E-05  0.0089
   5.4368E+00   5.5690E+00   9.3164E-05  0.0090
   5.5690E+00   5.7045E+00   9.0871E-05  0.0090
   5.7045E+00   5.8433E+00   8.5741E-05  0.0091
   5.8433E+00   5.9855E+00   8.2699E-05  0.0092
   5.9855E+00   6.1311E+00   7.8869E-05  0.0093
   6.1311E+00   6.2803E+00   7.4716E-05  0.0094
   6.2803E+00   6.4331E+00   7.2551E-05  0.0095
   6.4331E+00   6.5896E+00   6.9548E-05  0.0096
   6.5896E+00   6.7500E+00   6.6619E-05  0.0097
   6.7500E+00   6.9142E+00   6.2810E-05  0.0098
   6.9142E+00   7.0824E+00   6.0327E-05  0.0099
   7.0824E+00   7.2548E+00   5.7156E-05  0.0101
   7.2548E+00   7.4313E+00   5.4292E-05  0.0102
   7.4313E+00   7.6121E+00   5.1163E-05  0.0104
   7.6121E+00   7.7973E+00   4.8839E-05  0.0105
   7.7973E+00   7.9870E+00   4.5637E-05  0.0107
   7.9870E+00   8.1813E+00   4.3604E-05  0.0108
   8.1813E+00   8.3804E+00   4.1351E-05  0.0110
   8.3804E+00   8.5843E+00   3.8700E-05  0.0112
   8.5843E+00   8.7931E+00   3.6774E-05  0.0114
   8.7931E+00   9.0071E+00   3.5346E-05  0.0115
   9.0071E+00   9.2262E+00   3.2741E-05  0.0118
   9.2262E+00   9.4507E+00   3.1241E-05  0.0119
   9.4507E+00   9.6807E+00   2.9545E-05  0.0121
   9.6807E+00   9.9162E+00   2.7505E-05  0.0124
   9.9162E+00   1.0157E+01   2.6227E-05  0.0126
   1.0157E+01   1.0405E+01   2.5214E-05  0.0127
   1.0405E+01   1.0658E+01   2.4264E-05  0.0127
   1.0658E+01   1.0917E+01   2.3372E-05  0.0128
   1.0917E+01   1.1183E+01   2.2054E-05  0.0131
   1.1183E+01   1.1455E+01   2.1456E-05  0.0131
   1.1455E+01   1.1733E+01   1.9878E-05  0.0134
   1.1733E+01   1.2019E+01   1.8423E-05  0.0138
   1.2019E+01   1.2311E+01   1.7479E-05  0.0140
   1.2311E+01   1.2611E+01   1.6469E-05  0.0142
   1.2611E+01   1.2918E+01   1.5107E-05  0.0147
   1.2918E+01   1.3232E+01   1.4726E-05  0.0147
   1.3232E+01   1.3554E+01   1.4070E-05  0.0149
   1.3554E+01   1.3884E+01   1.2839E-05  0.0154
   1.3884E+01   1.4222E+01   1.2094E-05  0.0156
   1.4222E+01   1.4568E+01   1.1470E-05  0.0159
   1.4568E+01   1.4922E+01   1.0515E-05  0.0164
   1.4922E+01   1.5285E+01   9.8382E-06  0.0167
   1.5285E+01   1.5657E+01   8.9635E-06  0.0173
   1.5657E+01   1.6038E+01   8.5179E-06  0.0176
   1.6038E+01   1.6428E+01   7.7757E-06  0.0182
   1.6428E+01   1.6828E+01   7.4327E-06  0.0183
   1.6828E+01   1.7237E+01   6.9890E-06  0.0187
   1.7237E+01   1.7657E+01   6.5248E-06  0.0191
   1.7657E+01   1.8086E+01   5.7060E-06  0.0202
   1.8086E+01   1.8526E+01   5.2407E-06  0.0208
   1.8526E+01   1.8977E+01   5.0625E-06  0.0209
   1.8977E+01   1.9439E+01   4.8691E-06  0.0211
   1.9439E+01   1.9912E+01   4.4084E-06  0.0219
   1.9912E+01   2.0396E+01   3.8743E-06  0.0231
   2.0396E+01   2.0893E+01   3.7420E-06  0.0232
   2.0893E+01   2.1401E+01   3.2498E-06  0.0246
   2.1401E+01   2.1922E+01   3.0440E-06  0.0251
   2.1922E+01   2.2455E+01   2.6586E-06  0.0266
   2.2455E+01   2.3001E+01   2.4197E-06  0.0275
   2.3001E+01   2.3561E+01   2.2943E-06  0.0279
   2.3561E+01   2.4134E+01   2.0584E-06  0.0291
   2.4134E+01   2.4721E+01   1.7932E-06  0.0308
   2.4721E+01   2.5323E+01   1.6010E-06  0.0322
   2.5323E+01   2.5939E+01   1.3974E-06  0.0341
   2.5939E+01   2.6570E+01   1.2708E-06  0.0353
   2.6570E+01   2.7217E+01   1.0936E-06  0.0376
   2.7217E+01   2.7879E+01   1.0072E-06  0.0387
   2.7879E+01   2.8557E+01   8.3000E-07  0.0421
   2.8557E+01   2.9252E+01   8.2899E-07  0.0417
   2.9252E+01   2.9964E+01   6.8004E-07  0.0455
   2.9964E+01   3.0693E+01   5.9393E-07  0.0481
   3.0693E+01   3.1440E+01   5.4099E-07  0.0498
   3.1440E+01   3.2205E+01   4.6147E-07  0.0532
   3.2205E+01   3.2988E+01   4.0839E-07  0.0559
   3.2988E+01   3.3791E+01   3.1771E-07  0.0626
   3.3791E+01   3.4613E+01   2.5664E-07  0.0688
   3.4613E+01   3.5455E+01   2.4461E-07  0.0697
   3.5455E+01   3.6318E+01   2.1909E-07  0.0727
   3.6318E+01   3.7201E+01   1.6409E-07  0.0830
   3.7201E+01   3.8106E+01   1.5246E-07  0.0851
   3.8106E+01   3.9034E+01   1.3266E-07  0.0902
   3.9034E+01   3.9983E+01   1.2425E-07  0.0921
   3.9983E+01   4.0956E+01   8.9430E-08  0.1072
   4.0956E+01   4.1953E+01   9.3327E-08  0.1037
   4.1953E+01   4.2973E+01   8.2293E-08  0.1091
   4.2973E+01   4.4019E+01   7.5556E-08  0.1125
   4.4019E+01   4.5090E+01   7.0027E-08  0.1155
   4.5090E+01   4.6187E+01   6.5629E-08  0.1179
   4.6187E+01   4.7311E+01   4.5383E-08  0.1400
   4.7311E+01   4.8462E+01   4.7780E-08  0.1348
   4.8462E+01   4.9641E+01   3.0531E-08  0.1667
   4.9641E+01   5.0849E+01   3.3118E-08  0.1581
   5.0849E+01   5.2086E+01   2.4248E-08  0.1826
   5.2086E+01   5.3353E+01   2.2094E-08  0.1890
   5.3353E+01   5.4651E+01   1.3096E-08  0.2425
   5.4651E+01   5.5981E+01   1.2033E-08  0.2500
   5.5981E+01   5.7343E+01   1.1013E-08  0.2582
   5.7343E+01   5.8738E+01   5.0172E-09  0.3780
   5.8738E+01   6.0168E+01   6.9972E-10  1.0000
   6.0168E+01   6.1632E+01   3.4155E-09  0.4472
   6.1632E+01   6.3131E+01   1.3337E-09  0.7071
   6.3131E+01   6.4667E+01   1.3021E-09  0.7071
   6.4667E+01   6.6240E+01   6.3557E-10  1.0000
   6.6240E+01   6.7852E+01   1.2409E-09  0.7071
   6.7852E+01   6.9503E+01   0.0000E+00  0.0000
   6.9503E+01   7.1194E+01   5.9134E-10  1.0000
   7.1194E+01   7.2926E+01   0.0000E+00  0.0000
   7.2926E+01   7.4701E+01   0.0000E+00  0.0000
   7.4701E+01   7.6518E+01   0.0000E+00  0.0000
   7.6518E+01   7.8380E+01   0.0000E+00  0.0000
   7.8380E+01   8.0287E+01   0.0000E+00  0.0000
   8.0287E+01   8.2240E+01   0.0000E+00  0.0000
   8.2240E+01   8.4241E+01   0.0000E+00  0.0000
   8.4241E+01   8.6291E+01   0.0000E+00  0.0000
   8.6291E+01   8.8391E+01   0.0000E+00  0.0000
   8.8391E+01   9.0541E+01   0.0000E+00  0.0000
   9.0541E+01   9.2744E+01   0.0000E+00  0.0000
   9.2744E+01   9.5001E+01   0.0000E+00  0.0000
   9.5001E+01   9.7312E+01   0.0000E+00  0.0000
   9.7312E+01   9.9680E+01   0.0000E+00  0.0000
   9.9680E+01   1.0211E+02   0.0000E+00  0.0000
   1.0211E+02   1.0459E+02   0.0000E+00  0.0000
   1.0459E+02   1.0713E+02   0.0000E+00  0.0000
   1.0713E+02   1.0974E+02   0.0000E+00  0.0000
   1.0974E+02   1.1241E+02   0.0000E+00  0.0000
   1.1241E+02   1.1515E+02   0.0000E+00  0.0000
   1.1515E+02   1.1795E+02   0.0000E+00  0.0000
   1.1795E+02   1.2082E+02   0.0000E+00  0.0000
   1.2082E+02   1.2376E+02   0.0000E+00  0.0000
   1.2376E+02   1.2677E+02   0.0000E+00  0.0000
   1.2677E+02   1.2985E+02   0.0000E+00  0.0000
   1.2985E+02   1.3301E+02   0.0000E+00  0.0000
   1.3301E+02   1.3625E+02   0.0000E+00  0.0000
   1.3625E+02   1.3956E+02   0.0000E+00  0.0000
   1.3956E+02   1.4296E+02   0.0000E+00  0.0000
   1.4296E+02   1.4644E+02   0.0000E+00  0.0000
   1.4644E+02   1.5000E+02   0.0000E+00  0.0000

#   sum over                 1.1382E-05
'no. =    1   reg = 117 - 217'
msuc: {\huge [t-cross] in region mesh}
msdr: {\it plotted by \ANGEL \version}
msdl: {\it calculated by \PHITS  3.26}
wt: s(0.7)
\vspace{-3}
  region surface crossing
  area  &=&   1.0000E+00 [cm^2]
e:
 
# Information for Restart Calculation
# This calculation was newly started
# istdev =  2 # 1:Batch variance, 2:History variance
# resc2  = 1.00000000000000000E+09 # Total source weight or Total source weight / maxcas
# resc3  = 1.00000000000000000E+09 # Total history number or Total batch number
# maxcas =   500000000 # History / Batch, only used for istdev=1
# bitrseed = 0001001110011001001001110000100100110111001111011100001000101100 # bit data of rseed
