[ T-Cross ]
    title = [t-cross] in region mesh
     mesh =  reg            # mesh type is region-wise
      reg =    1            # number of crossing regions
      non     r-from    r-to       area
      1       100       200        1.000000    
   e-type =    3            # e-mesh is log given by emin, emax and ne
     emin =  1.0000000E-02  # minimum value of e-mesh points
     emax =   150.0000      # maximum value of e-mesh points
#    edel =  2.4039514E-02  # mesh width of e-mesh points
       ne =    400          # number of e-mesh points
#    data = ( e(i), i = 1, ne + 1 )
#           1.00000E-02  1.02433E-02  1.04925E-02  1.07478E-02  1.10093E-02
#           1.12772E-02  1.15516E-02  1.18326E-02  1.21205E-02  1.24154E-02
#           1.27175E-02  1.30269E-02  1.33439E-02  1.36686E-02  1.40011E-02
#           1.43418E-02  1.46907E-02  1.50482E-02  1.54143E-02  1.57894E-02
#           1.61735E-02  1.65670E-02  1.69701E-02  1.73830E-02  1.78060E-02
#           1.82392E-02  1.86830E-02  1.91375E-02  1.96032E-02  2.00801E-02
#           2.05687E-02  2.10692E-02  2.15818E-02  2.21069E-02  2.26448E-02
#           2.31957E-02  2.37601E-02  2.43382E-02  2.49304E-02  2.55369E-02
#           2.61583E-02  2.67947E-02  2.74467E-02  2.81145E-02  2.87985E-02
#           2.94992E-02  3.02169E-02  3.09521E-02  3.17052E-02  3.24766E-02
#           3.32668E-02  3.40762E-02  3.49053E-02  3.57546E-02  3.66246E-02
#           3.75157E-02  3.84284E-02  3.93634E-02  4.03212E-02  4.13022E-02
#           4.23071E-02  4.33365E-02  4.43909E-02  4.54710E-02  4.65773E-02
#           4.77106E-02  4.88714E-02  5.00605E-02  5.12785E-02  5.25262E-02
#           5.38042E-02  5.51133E-02  5.64542E-02  5.78278E-02  5.92348E-02
#           6.06760E-02  6.21523E-02  6.36645E-02  6.52135E-02  6.68002E-02
#           6.84255E-02  7.00904E-02  7.17957E-02  7.35426E-02  7.53319E-02
#           7.71648E-02  7.90423E-02  8.09655E-02  8.29354E-02  8.49533E-02
#           8.70203E-02  8.91376E-02  9.13064E-02  9.35279E-02  9.58035E-02
#           9.81345E-02  1.00522E-01  1.02968E-01  1.05473E-01  1.08040E-01
#           1.10668E-01  1.13361E-01  1.16119E-01  1.18944E-01  1.21838E-01
#           1.24803E-01  1.27839E-01  1.30950E-01  1.34136E-01  1.37399E-01
#           1.40742E-01  1.44167E-01  1.47675E-01  1.51268E-01  1.54948E-01
#           1.58718E-01  1.62580E-01  1.66535E-01  1.70587E-01  1.74738E-01
#           1.78989E-01  1.83344E-01  1.87805E-01  1.92375E-01  1.97055E-01
#           2.01850E-01  2.06761E-01  2.11792E-01  2.16945E-01  2.22223E-01
#           2.27630E-01  2.33169E-01  2.38842E-01  2.44653E-01  2.50605E-01
#           2.56703E-01  2.62949E-01  2.69346E-01  2.75900E-01  2.82613E-01
#           2.89489E-01  2.96532E-01  3.03747E-01  3.11138E-01  3.18708E-01
#           3.26462E-01  3.34405E-01  3.42542E-01  3.50876E-01  3.59413E-01
#           3.68158E-01  3.77116E-01  3.86291E-01  3.95690E-01  4.05317E-01
#           4.15179E-01  4.25281E-01  4.35628E-01  4.46227E-01  4.57084E-01
#           4.68205E-01  4.79597E-01  4.91266E-01  5.03219E-01  5.15463E-01
#           5.28005E-01  5.40851E-01  5.54011E-01  5.67490E-01  5.81298E-01
#           5.95441E-01  6.09929E-01  6.24769E-01  6.39970E-01  6.55541E-01
#           6.71491E-01  6.87828E-01  7.04564E-01  7.21706E-01  7.39266E-01
#           7.57253E-01  7.75678E-01  7.94551E-01  8.13883E-01  8.33685E-01
#           8.53969E-01  8.74747E-01  8.96030E-01  9.17831E-01  9.40163E-01
#           9.63038E-01  9.86469E-01  1.01047E+00  1.03506E+00  1.06024E+00
#           1.08604E+00  1.11246E+00  1.13953E+00  1.16725E+00  1.19565E+00
#           1.22474E+00  1.25454E+00  1.28507E+00  1.31633E+00  1.34836E+00
#           1.38117E+00  1.41477E+00  1.44920E+00  1.48446E+00  1.52057E+00
#           1.55757E+00  1.59547E+00  1.63429E+00  1.67405E+00  1.71478E+00
#           1.75650E+00  1.79924E+00  1.84302E+00  1.88786E+00  1.93379E+00
#           1.98084E+00  2.02904E+00  2.07841E+00  2.12898E+00  2.18078E+00
#           2.23384E+00  2.28819E+00  2.34386E+00  2.40089E+00  2.45930E+00
#           2.51914E+00  2.58043E+00  2.64322E+00  2.70753E+00  2.77341E+00
#           2.84088E+00  2.91001E+00  2.98081E+00  3.05333E+00  3.12762E+00
#           3.20372E+00  3.28167E+00  3.36152E+00  3.44330E+00  3.52708E+00
#           3.61290E+00  3.70080E+00  3.79085E+00  3.88308E+00  3.97756E+00
#           4.07434E+00  4.17347E+00  4.27501E+00  4.37903E+00  4.48557E+00
#           4.59471E+00  4.70650E+00  4.82102E+00  4.93832E+00  5.05847E+00
#           5.18155E+00  5.30762E+00  5.43676E+00  5.56904E+00  5.70453E+00
#           5.84333E+00  5.98550E+00  6.13114E+00  6.28031E+00  6.43312E+00
#           6.58964E+00  6.74997E+00  6.91420E+00  7.08243E+00  7.25475E+00
#           7.43126E+00  7.61207E+00  7.79728E+00  7.98700E+00  8.18133E+00
#           8.38038E+00  8.58428E+00  8.79315E+00  9.00709E+00  9.22624E+00
#           9.45072E+00  9.68067E+00  9.91620E+00  1.01575E+01  1.04046E+01
#           1.06578E+01  1.09171E+01  1.11827E+01  1.14548E+01  1.17335E+01
#           1.20190E+01  1.23114E+01  1.26109E+01  1.29178E+01  1.32321E+01
#           1.35540E+01  1.38838E+01  1.42216E+01  1.45676E+01  1.49221E+01
#           1.52851E+01  1.56570E+01  1.60380E+01  1.64282E+01  1.68279E+01
#           1.72374E+01  1.76568E+01  1.80864E+01  1.85264E+01  1.89772E+01
#           1.94389E+01  1.99119E+01  2.03963E+01  2.08926E+01  2.14009E+01
#           2.19216E+01  2.24550E+01  2.30014E+01  2.35610E+01  2.41343E+01
#           2.47215E+01  2.53230E+01  2.59391E+01  2.65702E+01  2.72167E+01
#           2.78789E+01  2.85572E+01  2.92520E+01  2.99637E+01  3.06928E+01
#           3.14396E+01  3.22045E+01  3.29881E+01  3.37907E+01  3.46128E+01
#           3.54550E+01  3.63177E+01  3.72013E+01  3.81064E+01  3.90336E+01
#           3.99833E+01  4.09561E+01  4.19526E+01  4.29734E+01  4.40189E+01
#           4.50900E+01  4.61870E+01  4.73108E+01  4.84619E+01  4.96410E+01
#           5.08488E+01  5.20860E+01  5.33533E+01  5.46514E+01  5.59812E+01
#           5.73432E+01  5.87384E+01  6.01676E+01  6.16315E+01  6.31311E+01
#           6.46671E+01  6.62405E+01  6.78522E+01  6.95031E+01  7.11941E+01
#           7.29263E+01  7.47007E+01  7.65182E+01  7.83800E+01  8.02870E+01
#           8.22405E+01  8.42414E+01  8.62911E+01  8.83906E+01  9.05412E+01
#           9.27442E+01  9.50007E+01  9.73122E+01  9.96799E+01  1.02105E+02
#           1.04589E+02  1.07134E+02  1.09741E+02  1.12411E+02  1.15146E+02
#           1.17948E+02  1.20817E+02  1.23757E+02  1.26768E+02  1.29852E+02
#           1.33012E+02  1.36248E+02  1.39563E+02  1.42959E+02  1.46437E+02
#           1.50000E+02
     unit =    2            # unit is [1/cm^2/(MeV/n)/source]
     axis =  eng            # axis of output
     file = detector-01.out  # file name of output for the above axis
   output = f-curr          # surface crossing forward current spectrum
     part =  neutron  
# kf/name :  2112     
#    used :        main (  %)        temp (  %)       total (  %)
#  memory :         414 (  0)           0 (  0)         414 (  0)

#------------------------------------------------------------------------------
#newpage:
#   no. =    1   reg = 100 - 200

x: Energy [MeV/n]
y:  F-Curr [1/cm^2/(MeV/n)/source]         
p: xlog ylog afac(0.8) form(0.9)
h: n            x            y(neutron ),hh0l   n 
#  e-lower      e-upper      neutron     r.err 
   1.0000E-02   1.0243E-02   1.5740E-04  0.0720
   1.0243E-02   1.0493E-02   1.7400E-04  0.0676
   1.0493E-02   1.0748E-02   1.6610E-04  0.0686
   1.0748E-02   1.1009E-02   1.5411E-04  0.0702
   1.1009E-02   1.1277E-02   1.7306E-04  0.0655
   1.1277E-02   1.1552E-02   1.5978E-04  0.0674
   1.1552E-02   1.1833E-02   1.4547E-04  0.0698
   1.1833E-02   1.2121E-02   1.6012E-04  0.0658
   1.2121E-02   1.2415E-02   1.6975E-04  0.0631
   1.2415E-02   1.2718E-02   1.4503E-04  0.0674
   1.2718E-02   1.3027E-02   1.5662E-04  0.0641
   1.3027E-02   1.3344E-02   1.3632E-04  0.0679
   1.3344E-02   1.3669E-02   1.3016E-04  0.0686
   1.3669E-02   1.4001E-02   1.4042E-04  0.0653
   1.4001E-02   1.4342E-02   1.3239E-04  0.0664
   1.4342E-02   1.4691E-02   1.2962E-04  0.0663
   1.4691E-02   1.5048E-02   1.4191E-04  0.0627
   1.5048E-02   1.5414E-02   1.3567E-04  0.0633
   1.5414E-02   1.5789E-02   1.3236E-04  0.0634
   1.5789E-02   1.6174E-02   1.1494E-04  0.0672
   1.6174E-02   1.6567E-02   1.2103E-04  0.0647
   1.6567E-02   1.6970E-02   1.2661E-04  0.0624
   1.6970E-02   1.7383E-02   1.1942E-04  0.0635
   1.7383E-02   1.7806E-02   1.0670E-04  0.0664
   1.7806E-02   1.8239E-02   1.1901E-04  0.0621
   1.8239E-02   1.8683E-02   1.1866E-04  0.0615
   1.8683E-02   1.9138E-02   1.0465E-04  0.0646
   1.9138E-02   1.9603E-02   1.0992E-04  0.0623
   1.9603E-02   2.0080E-02   1.0399E-04  0.0633
   2.0080E-02   2.0569E-02   1.0580E-04  0.0622
   2.0569E-02   2.1069E-02   9.0387E-05  0.0665
   2.1069E-02   2.1582E-02   1.0007E-04  0.0623
   2.1582E-02   2.2107E-02   8.9284E-05  0.0652
   2.2107E-02   2.2645E-02   9.8515E-05  0.0612
   2.2645E-02   2.3196E-02   8.0395E-05  0.0671
   2.3196E-02   2.3760E-02   8.7194E-05  0.0636
   2.3760E-02   2.4338E-02   9.2141E-05  0.0611
   2.4338E-02   2.4930E-02   9.2171E-05  0.0604
   2.4930E-02   2.5537E-02   8.6556E-05  0.0616
   2.5537E-02   2.6158E-02   9.3789E-05  0.0585
   2.6158E-02   2.6795E-02   8.2593E-05  0.0616
   2.6795E-02   2.7447E-02   8.4745E-05  0.0600
   2.7447E-02   2.8114E-02   7.8099E-05  0.0618
   2.8114E-02   2.8799E-02   8.7251E-05  0.0578
   2.8799E-02   2.9499E-02   8.2667E-05  0.0586
   2.9499E-02   3.0217E-02   8.2634E-05  0.0580
   3.0217E-02   3.0952E-02   7.9426E-05  0.0584
   3.0952E-02   3.1705E-02   7.2331E-05  0.0604
   3.1705E-02   3.2477E-02   6.6617E-05  0.0622
   3.2477E-02   3.3267E-02   6.5523E-05  0.0620
   3.3267E-02   3.4076E-02   6.7534E-05  0.0604
   3.4076E-02   3.4905E-02   6.9849E-05  0.0587
   3.4905E-02   3.5755E-02   6.6837E-05  0.0593
   3.5755E-02   3.6625E-02   6.1996E-05  0.0608
   3.6625E-02   3.7516E-02   6.1721E-05  0.0602
   3.7516E-02   3.8428E-02   6.3334E-05  0.0586
   3.8428E-02   3.9363E-02   5.9100E-05  0.0600
   3.9363E-02   4.0321E-02   6.7940E-05  0.0554
   4.0321E-02   4.1302E-02   5.9067E-05  0.0586
   4.1302E-02   4.2307E-02   6.0185E-05  0.0573
   4.2307E-02   4.3337E-02   5.4298E-05  0.0597
   4.3337E-02   4.4391E-02   6.1319E-05  0.0554
   4.4391E-02   4.5471E-02   5.3454E-05  0.0587
   4.5471E-02   4.6577E-02   5.3723E-05  0.0579
   4.6577E-02   4.7711E-02   5.8496E-05  0.0548
   4.7711E-02   4.8871E-02   5.1709E-05  0.0576
   4.8871E-02   5.0061E-02   5.0575E-05  0.0575
   5.0061E-02   5.1279E-02   5.2795E-05  0.0555
   5.1279E-02   5.2526E-02   5.0715E-05  0.0561
   5.2526E-02   5.3804E-02   4.6832E-05  0.0577
   5.3804E-02   5.5113E-02   5.0606E-05  0.0548
   5.5113E-02   5.6454E-02   4.6045E-05  0.0568
   5.6454E-02   5.7828E-02   4.1944E-05  0.0588
   5.7828E-02   5.9235E-02   3.9873E-05  0.0595
   5.9235E-02   6.0676E-02   4.4466E-05  0.0558
   6.0676E-02   6.2152E-02   4.1047E-05  0.0573
   6.2152E-02   6.3665E-02   4.5585E-05  0.0537
   6.3665E-02   6.5214E-02   4.3166E-05  0.0545
   6.5214E-02   6.6800E-02   3.9698E-05  0.0563
   6.6800E-02   6.8426E-02   3.5223E-05  0.0589
   6.8426E-02   7.0090E-02   3.5145E-05  0.0583
   7.0090E-02   7.1796E-02   3.9270E-05  0.0545
   7.1796E-02   7.3543E-02   3.9431E-05  0.0538
   7.3543E-02   7.5332E-02   3.8970E-05  0.0535
   7.5332E-02   7.7165E-02   3.5640E-05  0.0552
   7.7165E-02   7.9042E-02   3.8231E-05  0.0527
   7.9042E-02   8.0965E-02   3.2995E-05  0.0560
   8.0965E-02   8.2935E-02   3.7107E-05  0.0522
   8.2935E-02   8.4953E-02   3.6719E-05  0.0519
   8.4953E-02   8.7020E-02   3.4086E-05  0.0532
   8.7020E-02   8.9138E-02   2.9711E-05  0.0563
   8.9138E-02   9.1306E-02   3.0400E-05  0.0549
   9.1306E-02   9.3528E-02   3.0369E-05  0.0544
   9.3528E-02   9.5804E-02   2.8868E-05  0.0550
   9.5804E-02   9.8134E-02   2.6497E-05  0.0567
   9.8134E-02   1.0052E-01   2.5753E-05  0.0568
   1.0052E-01   1.0297E-01   2.8251E-05  0.0537
   1.0297E-01   1.0547E-01   2.4700E-05  0.0567
   1.0547E-01   1.0804E-01   2.7865E-05  0.0528
   1.0804E-01   1.1067E-01   2.5768E-05  0.0542
   1.1067E-01   1.1336E-01   2.9141E-05  0.0504
   1.1336E-01   1.1612E-01   2.4820E-05  0.0539
   1.1612E-01   1.1894E-01   2.5590E-05  0.0525
   1.1894E-01   1.2184E-01   2.5586E-05  0.0518
   1.2184E-01   1.2480E-01   2.3457E-05  0.0535
   1.2480E-01   1.2784E-01   2.4870E-05  0.0513
   1.2784E-01   1.3095E-01   2.4814E-05  0.0508
   1.3095E-01   1.3414E-01   2.1571E-05  0.0539
   1.3414E-01   1.3740E-01   2.0284E-05  0.0547
   1.3740E-01   1.4074E-01   2.2315E-05  0.0517
   1.4074E-01   1.4417E-01   2.0917E-05  0.0527
   1.4417E-01   1.4767E-01   1.9590E-05  0.0538
   1.4767E-01   1.5127E-01   1.7990E-05  0.0555
   1.5127E-01   1.5495E-01   1.9831E-05  0.0522
   1.5495E-01   1.5872E-01   1.9567E-05  0.0520
   1.5872E-01   1.6258E-01   1.8011E-05  0.0534
   1.6258E-01   1.6654E-01   1.7816E-05  0.0532
   1.6654E-01   1.7059E-01   1.7567E-05  0.0529
   1.7059E-01   1.7474E-01   1.7310E-05  0.0527
   1.7474E-01   1.7899E-01   1.6172E-05  0.0538
   1.7899E-01   1.8334E-01   1.6388E-05  0.0529
   1.8334E-01   1.8781E-01   1.6544E-05  0.0519
   1.8781E-01   1.9237E-01   1.7008E-05  0.0507
   1.9237E-01   1.9706E-01   1.6837E-05  0.0503
   1.9706E-01   2.0185E-01   1.4607E-05  0.0533
   2.0185E-01   2.0676E-01   1.6441E-05  0.0496
   2.0676E-01   2.1179E-01   1.7047E-05  0.0482
   2.1179E-01   2.1694E-01   1.7283E-05  0.0473
   2.1694E-01   2.2222E-01   1.6815E-05  0.0474
   2.2222E-01   2.2763E-01   1.7071E-05  0.0464
   2.2763E-01   2.3317E-01   1.7635E-05  0.0451
   2.3317E-01   2.3884E-01   1.9215E-05  0.0427
   2.3884E-01   2.4465E-01   1.8436E-05  0.0431
   2.4465E-01   2.5061E-01   1.8088E-05  0.0430
   2.5061E-01   2.5670E-01   2.1036E-05  0.0394
   2.5670E-01   2.6295E-01   2.0579E-05  0.0394
   2.6295E-01   2.6935E-01   2.0324E-05  0.0391
   2.6935E-01   2.7590E-01   2.0634E-05  0.0384
   2.7590E-01   2.8261E-01   2.2008E-05  0.0367
   2.8261E-01   2.8949E-01   2.2772E-05  0.0356
   2.8949E-01   2.9653E-01   2.3705E-05  0.0345
   2.9653E-01   3.0375E-01   2.3522E-05  0.0342
   3.0375E-01   3.1114E-01   2.4570E-05  0.0331
   3.1114E-01   3.1871E-01   2.4434E-05  0.0328
   3.1871E-01   3.2646E-01   2.5446E-05  0.0317
   3.2646E-01   3.3441E-01   2.6744E-05  0.0306
   3.3441E-01   3.4254E-01   2.6415E-05  0.0304
   3.4254E-01   3.5088E-01   2.7036E-05  0.0298
   3.5088E-01   3.5941E-01   2.8063E-05  0.0288
   3.5941E-01   3.6816E-01   2.8517E-05  0.0283
   3.6816E-01   3.7712E-01   2.9436E-05  0.0275
   3.7712E-01   3.8629E-01   2.8855E-05  0.0274
   3.8629E-01   3.9569E-01   2.9835E-05  0.0267
   3.9569E-01   4.0532E-01   3.2991E-05  0.0250
   4.0532E-01   4.1518E-01   3.2225E-05  0.0250
   4.1518E-01   4.2528E-01   3.1841E-05  0.0249
   4.2528E-01   4.3563E-01   3.4271E-05  0.0237
   4.3563E-01   4.4623E-01   3.3013E-05  0.0239
   4.4623E-01   4.5708E-01   3.3066E-05  0.0235
   4.5708E-01   4.6821E-01   3.5297E-05  0.0225
   4.6821E-01   4.7960E-01   3.5787E-05  0.0221
   4.7960E-01   4.9127E-01   3.5892E-05  0.0218
   4.9127E-01   5.0322E-01   3.5880E-05  0.0216
   5.0322E-01   5.1546E-01   3.9234E-05  0.0204
   5.1546E-01   5.2800E-01   3.7519E-05  0.0206
   5.2800E-01   5.4085E-01   3.8375E-05  0.0201
   5.4085E-01   5.5401E-01   4.0918E-05  0.0192
   5.5401E-01   5.6749E-01   4.0411E-05  0.0191
   5.6749E-01   5.8130E-01   4.0666E-05  0.0188
   5.8130E-01   5.9544E-01   4.2626E-05  0.0182
   5.9544E-01   6.0993E-01   4.4446E-05  0.0176
   6.0993E-01   6.2477E-01   4.4074E-05  0.0174
   6.2477E-01   6.3997E-01   4.5404E-05  0.0170
   6.3997E-01   6.5554E-01   4.5212E-05  0.0168
   6.5554E-01   6.7149E-01   4.4718E-05  0.0167
   6.7149E-01   6.8783E-01   4.5911E-05  0.0163
   6.8783E-01   7.0456E-01   4.7286E-05  0.0159
   7.0456E-01   7.2171E-01   4.7238E-05  0.0157
   7.2171E-01   7.3927E-01   4.9153E-05  0.0152
   7.3927E-01   7.5725E-01   4.9653E-05  0.0149
   7.5725E-01   7.7568E-01   5.0095E-05  0.0147
   7.7568E-01   7.9455E-01   5.1009E-05  0.0144
   7.9455E-01   8.1388E-01   5.0113E-05  0.0143
   8.1388E-01   8.3368E-01   5.1584E-05  0.0140
   8.3368E-01   8.5397E-01   5.3843E-05  0.0135
   8.5397E-01   8.7475E-01   5.3510E-05  0.0134
   8.7475E-01   8.9603E-01   5.4538E-05  0.0131
   8.9603E-01   9.1783E-01   5.4483E-05  0.0129
   9.1783E-01   9.4016E-01   5.5356E-05  0.0127
   9.4016E-01   9.6304E-01   5.5828E-05  0.0125
   9.6304E-01   9.8647E-01   5.6712E-05  0.0122
   9.8647E-01   1.0105E+00   5.7537E-05  0.0120
   1.0105E+00   1.0351E+00   5.6564E-05  0.0120
   1.0351E+00   1.0602E+00   5.6843E-05  0.0118
   1.0602E+00   1.0860E+00   5.7130E-05  0.0116
   1.0860E+00   1.1125E+00   5.7414E-05  0.0115
   1.1125E+00   1.1395E+00   5.8509E-05  0.0112
   1.1395E+00   1.1673E+00   5.8705E-05  0.0111
   1.1673E+00   1.1957E+00   5.9167E-05  0.0109
   1.1957E+00   1.2247E+00   6.0154E-05  0.0107
   1.2247E+00   1.2545E+00   5.9113E-05  0.0106
   1.2545E+00   1.2851E+00   5.8332E-05  0.0106
   1.2851E+00   1.3163E+00   5.9715E-05  0.0103
   1.3163E+00   1.3484E+00   5.9179E-05  0.0102
   1.3484E+00   1.3812E+00   5.9787E-05  0.0101
   1.3812E+00   1.4148E+00   5.9210E-05  0.0100
   1.4148E+00   1.4492E+00   5.8606E-05  0.0099
   1.4492E+00   1.4845E+00   5.9487E-05  0.0097
   1.4845E+00   1.5206E+00   5.9810E-05  0.0096
   1.5206E+00   1.5576E+00   5.9082E-05  0.0095
   1.5576E+00   1.5955E+00   5.7555E-05  0.0095
   1.5955E+00   1.6343E+00   5.7415E-05  0.0094
   1.6343E+00   1.6741E+00   5.8596E-05  0.0092
   1.6741E+00   1.7148E+00   5.6560E-05  0.0093
   1.7148E+00   1.7565E+00   5.6441E-05  0.0092
   1.7565E+00   1.7992E+00   5.6473E-05  0.0091
   1.7992E+00   1.8430E+00   5.5387E-05  0.0090
   1.8430E+00   1.8879E+00   5.5089E-05  0.0090
   1.8879E+00   1.9338E+00   5.5075E-05  0.0089
   1.9338E+00   1.9808E+00   5.4726E-05  0.0088
   1.9808E+00   2.0290E+00   5.3478E-05  0.0088
   2.0290E+00   2.0784E+00   5.3696E-05  0.0087
   2.0784E+00   2.1290E+00   5.2566E-05  0.0086
   2.1290E+00   2.1808E+00   5.1627E-05  0.0086
   2.1808E+00   2.2338E+00   5.1243E-05  0.0085
   2.2338E+00   2.2882E+00   5.0498E-05  0.0085
   2.2882E+00   2.3439E+00   5.0595E-05  0.0084
   2.3439E+00   2.4009E+00   4.9680E-05  0.0084
   2.4009E+00   2.4593E+00   4.8396E-05  0.0084
   2.4593E+00   2.5191E+00   4.8703E-05  0.0082
   2.5191E+00   2.5804E+00   4.8367E-05  0.0082
   2.5804E+00   2.6432E+00   4.7013E-05  0.0082
   2.6432E+00   2.7075E+00   4.5537E-05  0.0082
   2.7075E+00   2.7734E+00   4.5362E-05  0.0081
   2.7734E+00   2.8409E+00   4.4159E-05  0.0082
   2.8409E+00   2.9100E+00   4.3706E-05  0.0081
   2.9100E+00   2.9808E+00   4.2771E-05  0.0081
   2.9808E+00   3.0533E+00   4.2519E-05  0.0080
   3.0533E+00   3.1276E+00   4.1680E-05  0.0080
   3.1276E+00   3.2037E+00   4.1138E-05  0.0080
   3.2037E+00   3.2817E+00   4.0725E-05  0.0079
   3.2817E+00   3.3615E+00   3.9817E-05  0.0079
   3.3615E+00   3.4433E+00   3.8514E-05  0.0079
   3.4433E+00   3.5271E+00   3.8208E-05  0.0079
   3.5271E+00   3.6129E+00   3.7644E-05  0.0078
   3.6129E+00   3.7008E+00   3.6411E-05  0.0079
   3.7008E+00   3.7908E+00   3.6167E-05  0.0078
   3.7908E+00   3.8831E+00   3.5920E-05  0.0077
   3.8831E+00   3.9776E+00   3.5299E-05  0.0077
   3.9776E+00   4.0743E+00   3.4599E-05  0.0077
   4.0743E+00   4.1735E+00   3.3615E-05  0.0077
   4.1735E+00   4.2750E+00   3.2994E-05  0.0077
   4.2750E+00   4.3790E+00   3.2600E-05  0.0076
   4.3790E+00   4.4856E+00   3.2144E-05  0.0076
   4.4856E+00   4.5947E+00   3.1297E-05  0.0076
   4.5947E+00   4.7065E+00   3.1509E-05  0.0075
   4.7065E+00   4.8210E+00   3.1332E-05  0.0074
   4.8210E+00   4.9383E+00   3.0931E-05  0.0074
   4.9383E+00   5.0585E+00   3.0202E-05  0.0074
   5.0585E+00   5.1815E+00   2.9808E-05  0.0073
   5.1815E+00   5.3076E+00   2.9324E-05  0.0073
   5.3076E+00   5.4368E+00   2.8830E-05  0.0073
   5.4368E+00   5.5690E+00   2.8097E-05  0.0073
   5.5690E+00   5.7045E+00   2.7649E-05  0.0073
   5.7045E+00   5.8433E+00   2.7146E-05  0.0073
   5.8433E+00   5.9855E+00   2.6835E-05  0.0072
   5.9855E+00   6.1311E+00   2.6086E-05  0.0072
   6.1311E+00   6.2803E+00   2.5744E-05  0.0072
   6.2803E+00   6.4331E+00   2.5730E-05  0.0071
   6.4331E+00   6.5896E+00   2.4890E-05  0.0071
   6.5896E+00   6.7500E+00   2.4516E-05  0.0071
   6.7500E+00   6.9142E+00   2.4194E-05  0.0071
   6.9142E+00   7.0824E+00   2.3742E-05  0.0070
   7.0824E+00   7.2548E+00   2.3735E-05  0.0070
   7.2548E+00   7.4313E+00   2.2932E-05  0.0070
   7.4313E+00   7.6121E+00   2.3114E-05  0.0069
   7.6121E+00   7.7973E+00   2.2694E-05  0.0069
   7.7973E+00   7.9870E+00   2.2042E-05  0.0069
   7.9870E+00   8.1813E+00   2.1726E-05  0.0069
   8.1813E+00   8.3804E+00   2.1677E-05  0.0068
   8.3804E+00   8.5843E+00   2.0778E-05  0.0069
   8.5843E+00   8.7931E+00   2.0769E-05  0.0068
   8.7931E+00   9.0071E+00   2.0470E-05  0.0067
   9.0071E+00   9.2262E+00   2.0097E-05  0.0067
   9.2262E+00   9.4507E+00   1.9809E-05  0.0067
   9.4507E+00   9.6807E+00   1.9805E-05  0.0066
   9.6807E+00   9.9162E+00   1.9263E-05  0.0066
   9.9162E+00   1.0157E+01   1.8924E-05  0.0066
   1.0157E+01   1.0405E+01   1.8801E-05  0.0065
   1.0405E+01   1.0658E+01   1.8889E-05  0.0065
   1.0658E+01   1.0917E+01   1.8518E-05  0.0064
   1.0917E+01   1.1183E+01   1.8535E-05  0.0064
   1.1183E+01   1.1455E+01   1.8332E-05  0.0063
   1.1455E+01   1.1733E+01   1.8090E-05  0.0063
   1.1733E+01   1.2019E+01   1.7916E-05  0.0062
   1.2019E+01   1.2311E+01   1.7631E-05  0.0062
   1.2311E+01   1.2611E+01   1.7262E-05  0.0062
   1.2611E+01   1.2918E+01   1.7123E-05  0.0062
   1.2918E+01   1.3232E+01   1.7094E-05  0.0061
   1.3232E+01   1.3554E+01   1.6740E-05  0.0061
   1.3554E+01   1.3884E+01   1.6872E-05  0.0060
   1.3884E+01   1.4222E+01   1.6664E-05  0.0060
   1.4222E+01   1.4568E+01   1.6469E-05  0.0059
   1.4568E+01   1.4922E+01   1.6381E-05  0.0059
   1.4922E+01   1.5285E+01   1.6214E-05  0.0058
   1.5285E+01   1.5657E+01   1.6211E-05  0.0058
   1.5657E+01   1.6038E+01   1.6093E-05  0.0057
   1.6038E+01   1.6428E+01   1.5967E-05  0.0057
   1.6428E+01   1.6828E+01   1.5984E-05  0.0056
   1.6828E+01   1.7237E+01   1.5904E-05  0.0055
   1.7237E+01   1.7657E+01   1.5878E-05  0.0055
   1.7657E+01   1.8086E+01   1.5958E-05  0.0054
   1.8086E+01   1.8526E+01   1.6091E-05  0.0053
   1.8526E+01   1.8977E+01   1.6132E-05  0.0052
   1.8977E+01   1.9439E+01   1.6320E-05  0.0052
   1.9439E+01   1.9912E+01   1.6672E-05  0.0050
   1.9912E+01   2.0396E+01   1.7225E-05  0.0049
   2.0396E+01   2.0893E+01   1.7353E-05  0.0048
   2.0893E+01   2.1401E+01   1.7579E-05  0.0047
   2.1401E+01   2.1922E+01   1.7660E-05  0.0047
   2.1922E+01   2.2455E+01   1.8101E-05  0.0046
   2.2455E+01   2.3001E+01   1.8316E-05  0.0045
   2.3001E+01   2.3561E+01   1.8770E-05  0.0044
   2.3561E+01   2.4134E+01   1.9296E-05  0.0043
   2.4134E+01   2.4721E+01   1.9850E-05  0.0041
   2.4721E+01   2.5323E+01   2.0123E-05  0.0041
   2.5323E+01   2.5939E+01   2.0939E-05  0.0039
   2.5939E+01   2.6570E+01   2.1594E-05  0.0038
   2.6570E+01   2.7217E+01   2.2515E-05  0.0037
   2.7217E+01   2.7879E+01   2.3230E-05  0.0036
   2.7879E+01   2.8557E+01   2.4418E-05  0.0035
   2.8557E+01   2.9252E+01   2.5525E-05  0.0034
   2.9252E+01   2.9964E+01   2.6987E-05  0.0032
   2.9964E+01   3.0693E+01   2.8195E-05  0.0031
   3.0693E+01   3.1440E+01   2.9946E-05  0.0030
   3.1440E+01   3.2205E+01   3.1864E-05  0.0029
   3.2205E+01   3.2988E+01   3.4109E-05  0.0027
   3.2988E+01   3.3791E+01   3.6415E-05  0.0026
   3.3791E+01   3.4613E+01   3.9234E-05  0.0025
   3.4613E+01   3.5455E+01   4.1936E-05  0.0024
   3.5455E+01   3.6318E+01   4.5590E-05  0.0023
   3.6318E+01   3.7201E+01   4.9206E-05  0.0021
   3.7201E+01   3.8106E+01   5.3518E-05  0.0020
   3.8106E+01   3.9034E+01   5.8127E-05  0.0019
   3.9034E+01   3.9983E+01   6.3340E-05  0.0018
   3.9983E+01   4.0956E+01   6.9404E-05  0.0017
   4.0956E+01   4.1953E+01   7.5640E-05  0.0016
   4.1953E+01   4.2973E+01   8.3070E-05  0.0015
   4.2973E+01   4.4019E+01   9.0910E-05  0.0015
   4.4019E+01   4.5090E+01   9.9655E-05  0.0014
   4.5090E+01   4.6187E+01   1.0911E-04  0.0013
   4.6187E+01   4.7311E+01   1.1982E-04  0.0012
   4.7311E+01   4.8462E+01   1.3115E-04  0.0012
   4.8462E+01   4.9641E+01   1.4394E-04  0.0011
   4.9641E+01   5.0849E+01   1.5759E-04  0.0010
   5.0849E+01   5.2086E+01   1.7266E-04  0.0010
   5.2086E+01   5.3353E+01   1.8861E-04  0.0009
   5.3353E+01   5.4651E+01   2.0609E-04  0.0009
   5.4651E+01   5.5981E+01   2.2500E-04  0.0008
   5.5981E+01   5.7343E+01   2.4401E-04  0.0008
   5.7343E+01   5.8738E+01   2.6393E-04  0.0007
   5.8738E+01   6.0168E+01   2.8351E-04  0.0007
   6.0168E+01   6.1632E+01   3.0222E-04  0.0007
   6.1632E+01   6.3131E+01   3.1943E-04  0.0006
   6.3131E+01   6.4667E+01   3.3404E-04  0.0006
   6.4667E+01   6.6240E+01   3.4463E-04  0.0006
   6.6240E+01   6.7852E+01   3.5161E-04  0.0006
   6.7852E+01   6.9503E+01   3.5255E-04  0.0006
   6.9503E+01   7.1194E+01   3.4850E-04  0.0006
   7.1194E+01   7.2926E+01   3.3869E-04  0.0006
   7.2926E+01   7.4701E+01   3.2371E-04  0.0006
   7.4701E+01   7.6518E+01   3.0397E-04  0.0006
   7.6518E+01   7.8380E+01   2.8051E-04  0.0006
   7.8380E+01   8.0287E+01   2.5474E-04  0.0006
   8.0287E+01   8.2240E+01   2.2785E-04  0.0007
   8.2240E+01   8.4241E+01   2.0104E-04  0.0007
   8.4241E+01   8.6291E+01   1.7508E-04  0.0007
   8.6291E+01   8.8391E+01   1.5103E-04  0.0008
   8.8391E+01   9.0541E+01   1.2917E-04  0.0008
   9.0541E+01   9.2744E+01   1.0974E-04  0.0009
   9.2744E+01   9.5001E+01   9.3090E-05  0.0010
   9.5001E+01   9.7312E+01   7.8417E-05  0.0011
   9.7312E+01   9.9680E+01   6.6076E-05  0.0011
   9.9680E+01   1.0211E+02   5.5510E-05  0.0012
   1.0211E+02   1.0459E+02   4.6729E-05  0.0013
   1.0459E+02   1.0713E+02   3.9278E-05  0.0014
   1.0713E+02   1.0974E+02   3.2862E-05  0.0015
   1.0974E+02   1.1241E+02   2.7548E-05  0.0016
   1.1241E+02   1.1515E+02   2.2976E-05  0.0018
   1.1515E+02   1.1795E+02   1.9091E-05  0.0019
   1.1795E+02   1.2082E+02   1.5858E-05  0.0021
   1.2082E+02   1.2376E+02   1.3379E-05  0.0023
   1.2376E+02   1.2677E+02   1.1417E-05  0.0024
   1.2677E+02   1.2985E+02   9.5696E-06  0.0026
   1.2985E+02   1.3301E+02   7.9648E-06  0.0028
   1.3301E+02   1.3625E+02   7.2506E-06  0.0029
   1.3625E+02   1.3956E+02   6.8226E-06  0.0030
   1.3956E+02   1.4296E+02   5.8535E-06  0.0032
   1.4296E+02   1.4644E+02   4.8262E-06  0.0035
   1.4644E+02   1.5000E+02   3.9486E-06  0.0038

#   sum over                 9.5939E-05
'no. =    1   reg = 100 - 200'
msuc: {\huge [t-cross] in region mesh}
msdr: {\it plotted by \ANGEL \version}
msdl: {\it calculated by \PHITS  3.28}
wt: s(0.7)
\vspace{-3}
  region surface crossing
  area  &=&   1.0000E+00 [cm^2]
e:
 
# Information for Restart Calculation
# This calculation was newly started
# istdev =  2 # 1:Batch variance, 2:History variance
# resc2  = 5.00000000000000000E+09 # Total source weight or Total source weight / maxcas
# resc3  = 5.00000000000000000E+09 # Total history number or Total batch number
# maxcas =   500000000 # History / Batch, only used for istdev=1
# bitrseed = 0001101011110000011001100100101010101011111110100001111101011101 # bit data of rseed
