[ T-Cross ]
    title = [t-cross] in region mesh
     mesh =  reg            # mesh type is region-wise
      reg =    1            # number of crossing regions
      non     r-from    r-to       area
      1       118       218        1.000000    
   e-type =    3            # e-mesh is log given by emin, emax and ne
     emin =  1.0000000E-02  # minimum value of e-mesh points
     emax =   150.0000      # maximum value of e-mesh points
#    edel =  2.4039514E-02  # mesh width of e-mesh points
       ne =    400          # number of e-mesh points
#    data = ( e(i), i = 1, ne + 1 )
#           1.00000E-02  1.02433E-02  1.04925E-02  1.07478E-02  1.10093E-02
#           1.12772E-02  1.15516E-02  1.18326E-02  1.21205E-02  1.24154E-02
#           1.27175E-02  1.30269E-02  1.33439E-02  1.36686E-02  1.40011E-02
#           1.43418E-02  1.46907E-02  1.50482E-02  1.54143E-02  1.57894E-02
#           1.61735E-02  1.65670E-02  1.69701E-02  1.73830E-02  1.78060E-02
#           1.82392E-02  1.86830E-02  1.91375E-02  1.96032E-02  2.00801E-02
#           2.05687E-02  2.10692E-02  2.15818E-02  2.21069E-02  2.26448E-02
#           2.31957E-02  2.37601E-02  2.43382E-02  2.49304E-02  2.55369E-02
#           2.61583E-02  2.67947E-02  2.74467E-02  2.81145E-02  2.87985E-02
#           2.94992E-02  3.02169E-02  3.09521E-02  3.17052E-02  3.24766E-02
#           3.32668E-02  3.40762E-02  3.49053E-02  3.57546E-02  3.66246E-02
#           3.75157E-02  3.84284E-02  3.93634E-02  4.03212E-02  4.13022E-02
#           4.23071E-02  4.33365E-02  4.43909E-02  4.54710E-02  4.65773E-02
#           4.77106E-02  4.88714E-02  5.00605E-02  5.12785E-02  5.25262E-02
#           5.38042E-02  5.51133E-02  5.64542E-02  5.78278E-02  5.92348E-02
#           6.06760E-02  6.21523E-02  6.36645E-02  6.52135E-02  6.68002E-02
#           6.84255E-02  7.00904E-02  7.17957E-02  7.35426E-02  7.53319E-02
#           7.71648E-02  7.90423E-02  8.09655E-02  8.29354E-02  8.49533E-02
#           8.70203E-02  8.91376E-02  9.13064E-02  9.35279E-02  9.58035E-02
#           9.81345E-02  1.00522E-01  1.02968E-01  1.05473E-01  1.08040E-01
#           1.10668E-01  1.13361E-01  1.16119E-01  1.18944E-01  1.21838E-01
#           1.24803E-01  1.27839E-01  1.30950E-01  1.34136E-01  1.37399E-01
#           1.40742E-01  1.44167E-01  1.47675E-01  1.51268E-01  1.54948E-01
#           1.58718E-01  1.62580E-01  1.66535E-01  1.70587E-01  1.74738E-01
#           1.78989E-01  1.83344E-01  1.87805E-01  1.92375E-01  1.97055E-01
#           2.01850E-01  2.06761E-01  2.11792E-01  2.16945E-01  2.22223E-01
#           2.27630E-01  2.33169E-01  2.38842E-01  2.44653E-01  2.50605E-01
#           2.56703E-01  2.62949E-01  2.69346E-01  2.75900E-01  2.82613E-01
#           2.89489E-01  2.96532E-01  3.03747E-01  3.11138E-01  3.18708E-01
#           3.26462E-01  3.34405E-01  3.42542E-01  3.50876E-01  3.59413E-01
#           3.68158E-01  3.77116E-01  3.86291E-01  3.95690E-01  4.05317E-01
#           4.15179E-01  4.25281E-01  4.35628E-01  4.46227E-01  4.57084E-01
#           4.68205E-01  4.79597E-01  4.91266E-01  5.03219E-01  5.15463E-01
#           5.28005E-01  5.40851E-01  5.54011E-01  5.67490E-01  5.81298E-01
#           5.95441E-01  6.09929E-01  6.24769E-01  6.39970E-01  6.55541E-01
#           6.71491E-01  6.87828E-01  7.04564E-01  7.21706E-01  7.39266E-01
#           7.57253E-01  7.75678E-01  7.94551E-01  8.13883E-01  8.33685E-01
#           8.53969E-01  8.74747E-01  8.96030E-01  9.17831E-01  9.40163E-01
#           9.63038E-01  9.86469E-01  1.01047E+00  1.03506E+00  1.06024E+00
#           1.08604E+00  1.11246E+00  1.13953E+00  1.16725E+00  1.19565E+00
#           1.22474E+00  1.25454E+00  1.28507E+00  1.31633E+00  1.34836E+00
#           1.38117E+00  1.41477E+00  1.44920E+00  1.48446E+00  1.52057E+00
#           1.55757E+00  1.59547E+00  1.63429E+00  1.67405E+00  1.71478E+00
#           1.75650E+00  1.79924E+00  1.84302E+00  1.88786E+00  1.93379E+00
#           1.98084E+00  2.02904E+00  2.07841E+00  2.12898E+00  2.18078E+00
#           2.23384E+00  2.28819E+00  2.34386E+00  2.40089E+00  2.45930E+00
#           2.51914E+00  2.58043E+00  2.64322E+00  2.70753E+00  2.77341E+00
#           2.84088E+00  2.91001E+00  2.98081E+00  3.05333E+00  3.12762E+00
#           3.20372E+00  3.28167E+00  3.36152E+00  3.44330E+00  3.52708E+00
#           3.61290E+00  3.70080E+00  3.79085E+00  3.88308E+00  3.97756E+00
#           4.07434E+00  4.17347E+00  4.27501E+00  4.37903E+00  4.48557E+00
#           4.59471E+00  4.70650E+00  4.82102E+00  4.93832E+00  5.05847E+00
#           5.18155E+00  5.30762E+00  5.43676E+00  5.56904E+00  5.70453E+00
#           5.84333E+00  5.98550E+00  6.13114E+00  6.28031E+00  6.43312E+00
#           6.58964E+00  6.74997E+00  6.91420E+00  7.08243E+00  7.25475E+00
#           7.43126E+00  7.61207E+00  7.79728E+00  7.98700E+00  8.18133E+00
#           8.38038E+00  8.58428E+00  8.79315E+00  9.00709E+00  9.22624E+00
#           9.45072E+00  9.68067E+00  9.91620E+00  1.01575E+01  1.04046E+01
#           1.06578E+01  1.09171E+01  1.11827E+01  1.14548E+01  1.17335E+01
#           1.20190E+01  1.23114E+01  1.26109E+01  1.29178E+01  1.32321E+01
#           1.35540E+01  1.38838E+01  1.42216E+01  1.45676E+01  1.49221E+01
#           1.52851E+01  1.56570E+01  1.60380E+01  1.64282E+01  1.68279E+01
#           1.72374E+01  1.76568E+01  1.80864E+01  1.85264E+01  1.89772E+01
#           1.94389E+01  1.99119E+01  2.03963E+01  2.08926E+01  2.14009E+01
#           2.19216E+01  2.24550E+01  2.30014E+01  2.35610E+01  2.41343E+01
#           2.47215E+01  2.53230E+01  2.59391E+01  2.65702E+01  2.72167E+01
#           2.78789E+01  2.85572E+01  2.92520E+01  2.99637E+01  3.06928E+01
#           3.14396E+01  3.22045E+01  3.29881E+01  3.37907E+01  3.46128E+01
#           3.54550E+01  3.63177E+01  3.72013E+01  3.81064E+01  3.90336E+01
#           3.99833E+01  4.09561E+01  4.19526E+01  4.29734E+01  4.40189E+01
#           4.50900E+01  4.61870E+01  4.73108E+01  4.84619E+01  4.96410E+01
#           5.08488E+01  5.20860E+01  5.33533E+01  5.46514E+01  5.59812E+01
#           5.73432E+01  5.87384E+01  6.01676E+01  6.16315E+01  6.31311E+01
#           6.46671E+01  6.62405E+01  6.78522E+01  6.95031E+01  7.11941E+01
#           7.29263E+01  7.47007E+01  7.65182E+01  7.83800E+01  8.02870E+01
#           8.22405E+01  8.42414E+01  8.62911E+01  8.83906E+01  9.05412E+01
#           9.27442E+01  9.50007E+01  9.73122E+01  9.96799E+01  1.02105E+02
#           1.04589E+02  1.07134E+02  1.09741E+02  1.12411E+02  1.15146E+02
#           1.17948E+02  1.20817E+02  1.23757E+02  1.26768E+02  1.29852E+02
#           1.33012E+02  1.36248E+02  1.39563E+02  1.42959E+02  1.46437E+02
#           1.50000E+02
     unit =    2            # unit is [1/cm^2/(MeV/n)/source]
     axis =  eng            # axis of output
     file = detector-19.out  # file name of output for the above axis
   output = f-curr          # surface crossing forward current spectrum
     part =  neutron  
# kf/name :  2112     
#    used :        main (  %)        temp (  %)       total (  %)
#  memory :         414 (  0)           0 (  0)         414 (  0)

#------------------------------------------------------------------------------
#newpage:
#   no. =    1   reg = 118 - 218

x: Energy [MeV/n]
y:  F-Curr [1/cm^2/(MeV/n)/source]         
p: xlog ylog afac(0.8) form(0.9)
h: n            x            y(neutron ),hh0l   n 
#  e-lower      e-upper      neutron     r.err 
   1.0000E-02   1.0243E-02   2.3509E-03  0.0591
   1.0243E-02   1.0493E-02   2.6321E-03  0.0552
   1.0493E-02   1.0748E-02   2.5383E-03  0.0556
   1.0748E-02   1.1009E-02   2.4550E-03  0.0558
   1.1009E-02   1.1277E-02   2.5759E-03  0.0538
   1.1277E-02   1.1552E-02   2.3398E-03  0.0558
   1.1552E-02   1.1833E-02   2.6044E-03  0.0523
   1.1833E-02   1.2121E-02   2.7996E-03  0.0498
   1.2121E-02   1.2415E-02   2.4754E-03  0.0523
   1.2415E-02   1.2718E-02   2.5490E-03  0.0510
   1.2718E-02   1.3027E-02   2.5079E-03  0.0508
   1.3027E-02   1.3344E-02   2.5871E-03  0.0494
   1.3344E-02   1.3669E-02   2.5318E-03  0.0493
   1.3669E-02   1.4001E-02   2.5890E-03  0.0482
   1.4001E-02   1.4342E-02   2.4482E-03  0.0490
   1.4342E-02   1.4691E-02   2.4187E-03  0.0487
   1.4691E-02   1.5048E-02   2.6522E-03  0.0459
   1.5048E-02   1.5414E-02   2.4690E-03  0.0470
   1.5414E-02   1.5789E-02   2.3997E-03  0.0471
   1.5789E-02   1.6174E-02   2.5093E-03  0.0455
   1.6174E-02   1.6567E-02   2.6683E-03  0.0436
   1.6567E-02   1.6970E-02   2.6371E-03  0.0434
   1.6970E-02   1.7383E-02   2.7295E-03  0.0421
   1.7383E-02   1.7806E-02   2.8656E-03  0.0406
   1.7806E-02   1.8239E-02   2.6545E-03  0.0417
   1.8239E-02   1.8683E-02   2.6680E-03  0.0411
   1.8683E-02   1.9138E-02   2.7806E-03  0.0398
   1.9138E-02   1.9603E-02   2.6845E-03  0.0400
   1.9603E-02   2.0080E-02   2.6962E-03  0.0394
   2.0080E-02   2.0569E-02   2.5872E-03  0.0398
   2.0569E-02   2.1069E-02   2.7495E-03  0.0381
   2.1069E-02   2.1582E-02   2.6023E-03  0.0387
   2.1582E-02   2.2107E-02   2.5824E-03  0.0384
   2.2107E-02   2.2645E-02   2.7701E-03  0.0366
   2.2645E-02   2.3196E-02   2.7225E-03  0.0365
   2.3196E-02   2.3760E-02   2.7606E-03  0.0358
   2.3760E-02   2.4338E-02   2.7331E-03  0.0356
   2.4338E-02   2.4930E-02   2.6918E-03  0.0354
   2.4930E-02   2.5537E-02   2.7235E-03  0.0348
   2.5537E-02   2.6158E-02   2.7570E-03  0.0342
   2.6158E-02   2.6795E-02   2.6302E-03  0.0346
   2.6795E-02   2.7447E-02   2.6782E-03  0.0338
   2.7447E-02   2.8114E-02   2.7403E-03  0.0331
   2.8114E-02   2.8799E-02   2.9998E-03  0.0312
   2.8799E-02   2.9499E-02   2.7972E-03  0.0319
   2.9499E-02   3.0217E-02   2.7336E-03  0.0319
   3.0217E-02   3.0952E-02   2.8604E-03  0.0308
   3.0952E-02   3.1705E-02   2.8908E-03  0.0303
   3.1705E-02   3.2477E-02   2.8364E-03  0.0302
   3.2477E-02   3.3267E-02   2.8133E-03  0.0300
   3.3267E-02   3.4076E-02   2.7773E-03  0.0298
   3.4076E-02   3.4905E-02   2.8440E-03  0.0291
   3.4905E-02   3.5755E-02   2.8212E-03  0.0289
   3.5755E-02   3.6625E-02   2.8301E-03  0.0285
   3.6625E-02   3.7516E-02   2.7853E-03  0.0284
   3.7516E-02   3.8428E-02   2.8550E-03  0.0277
   3.8428E-02   3.9363E-02   2.9476E-03  0.0269
   3.9363E-02   4.0321E-02   2.8734E-03  0.0270
   4.0321E-02   4.1302E-02   2.9540E-03  0.0263
   4.1302E-02   4.2307E-02   2.9873E-03  0.0258
   4.2307E-02   4.3337E-02   2.9844E-03  0.0255
   4.3337E-02   4.4391E-02   2.9761E-03  0.0252
   4.4391E-02   4.5471E-02   3.0443E-03  0.0247
   4.5471E-02   4.6577E-02   2.9593E-03  0.0247
   4.6577E-02   4.7711E-02   3.0020E-03  0.0242
   4.7711E-02   4.8871E-02   3.0668E-03  0.0237
   4.8871E-02   5.0061E-02   3.0881E-03  0.0233
   5.0061E-02   5.1279E-02   3.0558E-03  0.0232
   5.1279E-02   5.2526E-02   3.0105E-03  0.0231
   5.2526E-02   5.3804E-02   3.1338E-03  0.0223
   5.3804E-02   5.5113E-02   2.8921E-03  0.0230
   5.5113E-02   5.6454E-02   2.8979E-03  0.0227
   5.6454E-02   5.7828E-02   3.0184E-03  0.0220
   5.7828E-02   5.9235E-02   3.0092E-03  0.0217
   5.9235E-02   6.0676E-02   3.1806E-03  0.0209
   6.0676E-02   6.2152E-02   3.0983E-03  0.0209
   6.2152E-02   6.3665E-02   3.0617E-03  0.0208
   6.3665E-02   6.5214E-02   3.1917E-03  0.0201
   6.5214E-02   6.6800E-02   3.0428E-03  0.0204
   6.6800E-02   6.8426E-02   3.1588E-03  0.0197
   6.8426E-02   7.0090E-02   3.1606E-03  0.0195
   7.0090E-02   7.1796E-02   3.0920E-03  0.0195
   7.1796E-02   7.3543E-02   3.0340E-03  0.0194
   7.3543E-02   7.5332E-02   3.1140E-03  0.0189
   7.5332E-02   7.7165E-02   3.2277E-03  0.0184
   7.7165E-02   7.9042E-02   3.0786E-03  0.0186
   7.9042E-02   8.0965E-02   3.1812E-03  0.0181
   8.0965E-02   8.2935E-02   3.2183E-03  0.0178
   8.2935E-02   8.4953E-02   3.1409E-03  0.0178
   8.4953E-02   8.7020E-02   3.3150E-03  0.0171
   8.7020E-02   8.9138E-02   3.1616E-03  0.0173
   8.9138E-02   9.1306E-02   3.2179E-03  0.0169
   9.1306E-02   9.3528E-02   3.3274E-03  0.0164
   9.3528E-02   9.5804E-02   3.2185E-03  0.0165
   9.5804E-02   9.8134E-02   3.2484E-03  0.0163
   9.8134E-02   1.0052E-01   3.2023E-03  0.0162
   1.0052E-01   1.0297E-01   3.3159E-03  0.0157
   1.0297E-01   1.0547E-01   3.1421E-03  0.0159
   1.0547E-01   1.0804E-01   3.3325E-03  0.0153
   1.0804E-01   1.1067E-01   3.2263E-03  0.0154
   1.1067E-01   1.1336E-01   3.3150E-03  0.0150
   1.1336E-01   1.1612E-01   3.2380E-03  0.0150
   1.1612E-01   1.1894E-01   3.3777E-03  0.0145
   1.1894E-01   1.2184E-01   3.2591E-03  0.0146
   1.2184E-01   1.2480E-01   3.2627E-03  0.0144
   1.2480E-01   1.2784E-01   3.3778E-03  0.0140
   1.2784E-01   1.3095E-01   3.2536E-03  0.0141
   1.3095E-01   1.3414E-01   3.3147E-03  0.0138
   1.3414E-01   1.3740E-01   3.2654E-03  0.0137
   1.3740E-01   1.4074E-01   3.2874E-03  0.0135
   1.4074E-01   1.4417E-01   3.2975E-03  0.0133
   1.4417E-01   1.4767E-01   3.3486E-03  0.0130
   1.4767E-01   1.5127E-01   3.3737E-03  0.0128
   1.5127E-01   1.5495E-01   3.3001E-03  0.0128
   1.5495E-01   1.5872E-01   3.3347E-03  0.0126
   1.5872E-01   1.6258E-01   3.2825E-03  0.0126
   1.6258E-01   1.6654E-01   3.3883E-03  0.0122
   1.6654E-01   1.7059E-01   3.3520E-03  0.0121
   1.7059E-01   1.7474E-01   3.3362E-03  0.0120
   1.7474E-01   1.7899E-01   3.3652E-03  0.0118
   1.7899E-01   1.8334E-01   3.3419E-03  0.0117
   1.8334E-01   1.8781E-01   3.3809E-03  0.0115
   1.8781E-01   1.9237E-01   3.3772E-03  0.0114
   1.9237E-01   1.9706E-01   3.4207E-03  0.0112
   1.9706E-01   2.0185E-01   3.3753E-03  0.0111
   2.0185E-01   2.0676E-01   3.3974E-03  0.0109
   2.0676E-01   2.1179E-01   3.3540E-03  0.0109
   2.1179E-01   2.1694E-01   3.3188E-03  0.0108
   2.1694E-01   2.2222E-01   3.3633E-03  0.0106
   2.2222E-01   2.2763E-01   3.3443E-03  0.0105
   2.2763E-01   2.3317E-01   3.2916E-03  0.0105
   2.3317E-01   2.3884E-01   3.4000E-03  0.0102
   2.3884E-01   2.4465E-01   3.3432E-03  0.0101
   2.4465E-01   2.5061E-01   3.3449E-03  0.0100
   2.5061E-01   2.5670E-01   3.3740E-03  0.0099
   2.5670E-01   2.6295E-01   3.3495E-03  0.0098
   2.6295E-01   2.6935E-01   3.3229E-03  0.0097
   2.6935E-01   2.7590E-01   3.3317E-03  0.0096
   2.7590E-01   2.8261E-01   3.2801E-03  0.0095
   2.8261E-01   2.8949E-01   3.2662E-03  0.0094
   2.8949E-01   2.9653E-01   3.3390E-03  0.0092
   2.9653E-01   3.0375E-01   3.2292E-03  0.0093
   3.0375E-01   3.1114E-01   3.2756E-03  0.0091
   3.1114E-01   3.1871E-01   3.2868E-03  0.0090
   3.1871E-01   3.2646E-01   3.2240E-03  0.0089
   3.2646E-01   3.3441E-01   3.1865E-03  0.0089
   3.3441E-01   3.4254E-01   3.2148E-03  0.0087
   3.4254E-01   3.5088E-01   3.2180E-03  0.0086
   3.5088E-01   3.5941E-01   3.1779E-03  0.0086
   3.5941E-01   3.6816E-01   3.1558E-03  0.0085
   3.6816E-01   3.7712E-01   3.1406E-03  0.0084
   3.7712E-01   3.8629E-01   3.0760E-03  0.0084
   3.8629E-01   3.9569E-01   3.1093E-03  0.0083
   3.9569E-01   4.0532E-01   3.0884E-03  0.0082
   4.0532E-01   4.1518E-01   3.0645E-03  0.0081
   4.1518E-01   4.2528E-01   3.0294E-03  0.0081
   4.2528E-01   4.3563E-01   3.0000E-03  0.0080
   4.3563E-01   4.4623E-01   2.9742E-03  0.0080
   4.4623E-01   4.5708E-01   2.9439E-03  0.0079
   4.5708E-01   4.6821E-01   2.9446E-03  0.0078
   4.6821E-01   4.7960E-01   2.9023E-03  0.0078
   4.7960E-01   4.9127E-01   2.8800E-03  0.0077
   4.9127E-01   5.0322E-01   2.8253E-03  0.0077
   5.0322E-01   5.1546E-01   2.8199E-03  0.0076
   5.1546E-01   5.2800E-01   2.7740E-03  0.0076
   5.2800E-01   5.4085E-01   2.7515E-03  0.0075
   5.4085E-01   5.5401E-01   2.7125E-03  0.0075
   5.5401E-01   5.6749E-01   2.7031E-03  0.0074
   5.6749E-01   5.8130E-01   2.6311E-03  0.0074
   5.8130E-01   5.9544E-01   2.6038E-03  0.0074
   5.9544E-01   6.0993E-01   2.5505E-03  0.0074
   6.0993E-01   6.2477E-01   2.5123E-03  0.0073
   6.2477E-01   6.3997E-01   2.4480E-03  0.0073
   6.3997E-01   6.5554E-01   2.3980E-03  0.0073
   6.5554E-01   6.7149E-01   2.3933E-03  0.0072
   6.7149E-01   6.8783E-01   2.3585E-03  0.0072
   6.8783E-01   7.0456E-01   2.2798E-03  0.0072
   7.0456E-01   7.2171E-01   2.2489E-03  0.0072
   7.2171E-01   7.3927E-01   2.1912E-03  0.0072
   7.3927E-01   7.5725E-01   2.1406E-03  0.0072
   7.5725E-01   7.7568E-01   2.0776E-03  0.0072
   7.7568E-01   7.9455E-01   2.0301E-03  0.0072
   7.9455E-01   8.1388E-01   1.9673E-03  0.0073
   8.1388E-01   8.3368E-01   1.9152E-03  0.0073
   8.3368E-01   8.5397E-01   1.8274E-03  0.0073
   8.5397E-01   8.7475E-01   1.7952E-03  0.0073
   8.7475E-01   8.9603E-01   1.7216E-03  0.0074
   8.9603E-01   9.1783E-01   1.6782E-03  0.0074
   9.1783E-01   9.4016E-01   1.6124E-03  0.0075
   9.4016E-01   9.6304E-01   1.5287E-03  0.0076
   9.6304E-01   9.8647E-01   1.4765E-03  0.0076
   9.8647E-01   1.0105E+00   1.4410E-03  0.0076
   1.0105E+00   1.0351E+00   1.4116E-03  0.0076
   1.0351E+00   1.0602E+00   1.4037E-03  0.0075
   1.0602E+00   1.0860E+00   1.4470E-03  0.0073
   1.0860E+00   1.1125E+00   1.4606E-03  0.0072
   1.1125E+00   1.1395E+00   1.4897E-03  0.0070
   1.1395E+00   1.1673E+00   1.4829E-03  0.0070
   1.1673E+00   1.1957E+00   1.5229E-03  0.0068
   1.1957E+00   1.2247E+00   1.5670E-03  0.0066
   1.2247E+00   1.2545E+00   1.5568E-03  0.0066
   1.2545E+00   1.2851E+00   1.5531E-03  0.0065
   1.2851E+00   1.3163E+00   1.5472E-03  0.0064
   1.3163E+00   1.3484E+00   1.5568E-03  0.0063
   1.3484E+00   1.3812E+00   1.5624E-03  0.0062
   1.3812E+00   1.4148E+00   1.5952E-03  0.0061
   1.4148E+00   1.4492E+00   1.5883E-03  0.0061
   1.4492E+00   1.4845E+00   1.5687E-03  0.0060
   1.4845E+00   1.5206E+00   1.5632E-03  0.0060
   1.5206E+00   1.5576E+00   1.5346E-03  0.0059
   1.5576E+00   1.5955E+00   1.5233E-03  0.0059
   1.5955E+00   1.6343E+00   1.5357E-03  0.0058
   1.6343E+00   1.6741E+00   1.5404E-03  0.0057
   1.6741E+00   1.7148E+00   1.5511E-03  0.0056
   1.7148E+00   1.7565E+00   1.5359E-03  0.0056
   1.7565E+00   1.7992E+00   1.5114E-03  0.0056
   1.7992E+00   1.8430E+00   1.4881E-03  0.0055
   1.8430E+00   1.8879E+00   1.4683E-03  0.0055
   1.8879E+00   1.9338E+00   1.4400E-03  0.0055
   1.9338E+00   1.9808E+00   1.4401E-03  0.0054
   1.9808E+00   2.0290E+00   1.4431E-03  0.0054
   2.0290E+00   2.0784E+00   1.4045E-03  0.0054
   2.0784E+00   2.1290E+00   1.3706E-03  0.0054
   2.1290E+00   2.1808E+00   1.3388E-03  0.0054
   2.1808E+00   2.2338E+00   1.3086E-03  0.0054
   2.2338E+00   2.2882E+00   1.2860E-03  0.0054
   2.2882E+00   2.3439E+00   1.2482E-03  0.0054
   2.3439E+00   2.4009E+00   1.2449E-03  0.0053
   2.4009E+00   2.4593E+00   1.2168E-03  0.0053
   2.4593E+00   2.5191E+00   1.1791E-03  0.0053
   2.5191E+00   2.5804E+00   1.1505E-03  0.0053
   2.5804E+00   2.6432E+00   1.1017E-03  0.0054
   2.6432E+00   2.7075E+00   1.0685E-03  0.0054
   2.7075E+00   2.7734E+00   1.0362E-03  0.0054
   2.7734E+00   2.8409E+00   9.9588E-04  0.0055
   2.8409E+00   2.9100E+00   9.7753E-04  0.0054
   2.9100E+00   2.9808E+00   9.4292E-04  0.0055
   2.9808E+00   3.0533E+00   9.1721E-04  0.0055
   3.0533E+00   3.1276E+00   8.7771E-04  0.0055
   3.1276E+00   3.2037E+00   8.3049E-04  0.0056
   3.2037E+00   3.2817E+00   8.0402E-04  0.0057
   3.2817E+00   3.3615E+00   7.7551E-04  0.0057
   3.3615E+00   3.4433E+00   7.4355E-04  0.0057
   3.4433E+00   3.5271E+00   6.9955E-04  0.0058
   3.5271E+00   3.6129E+00   6.7634E-04  0.0059
   3.6129E+00   3.7008E+00   6.3987E-04  0.0060
   3.7008E+00   3.7908E+00   6.1060E-04  0.0060
   3.7908E+00   3.8831E+00   5.8009E-04  0.0061
   3.8831E+00   3.9776E+00   5.4652E-04  0.0062
   3.9776E+00   4.0743E+00   5.1553E-04  0.0063
   4.0743E+00   4.1735E+00   4.9183E-04  0.0064
   4.1735E+00   4.2750E+00   4.6042E-04  0.0065
   4.2750E+00   4.3790E+00   4.3414E-04  0.0067
   4.3790E+00   4.4856E+00   4.1203E-04  0.0068
   4.4856E+00   4.5947E+00   3.8916E-04  0.0069
   4.5947E+00   4.7065E+00   3.5767E-04  0.0071
   4.7065E+00   4.8210E+00   3.3463E-04  0.0072
   4.8210E+00   4.9383E+00   3.1426E-04  0.0074
   4.9383E+00   5.0585E+00   2.9764E-04  0.0075
   5.0585E+00   5.1815E+00   2.7367E-04  0.0077
   5.1815E+00   5.3076E+00   2.5616E-04  0.0079
   5.3076E+00   5.4368E+00   2.3947E-04  0.0080
   5.4368E+00   5.5690E+00   2.2329E-04  0.0082
   5.5690E+00   5.7045E+00   2.0737E-04  0.0084
   5.7045E+00   5.8433E+00   1.9068E-04  0.0087
   5.8433E+00   5.9855E+00   1.7849E-04  0.0089
   5.9855E+00   6.1311E+00   1.6534E-04  0.0091
   6.1311E+00   6.2803E+00   1.5148E-04  0.0094
   6.2803E+00   6.4331E+00   1.3975E-04  0.0097
   6.4331E+00   6.5896E+00   1.2812E-04  0.0100
   6.5896E+00   6.7500E+00   1.2052E-04  0.0102
   6.7500E+00   6.9142E+00   1.0858E-04  0.0106
   6.9142E+00   7.0824E+00   9.9175E-05  0.0109
   7.0824E+00   7.2548E+00   9.4022E-05  0.0111
   7.2548E+00   7.4313E+00   8.6044E-05  0.0115
   7.4313E+00   7.6121E+00   7.9200E-05  0.0118
   7.6121E+00   7.7973E+00   7.3042E-05  0.0122
   7.7973E+00   7.9870E+00   6.6026E-05  0.0126
   7.9870E+00   8.1813E+00   6.0984E-05  0.0130
   8.1813E+00   8.3804E+00   5.6803E-05  0.0133
   8.3804E+00   8.5843E+00   5.2991E-05  0.0136
   8.5843E+00   8.7931E+00   4.7663E-05  0.0142
   8.7931E+00   9.0071E+00   4.3446E-05  0.0147
   9.0071E+00   9.2262E+00   4.0456E-05  0.0150
   9.2262E+00   9.4507E+00   3.5549E-05  0.0158
   9.4507E+00   9.6807E+00   3.4561E-05  0.0158
   9.6807E+00   9.9162E+00   3.0725E-05  0.0166
   9.9162E+00   1.0157E+01   2.9038E-05  0.0169
   1.0157E+01   1.0405E+01   2.6204E-05  0.0176
   1.0405E+01   1.0658E+01   2.4388E-05  0.0180
   1.0658E+01   1.0917E+01   2.2490E-05  0.0185
   1.0917E+01   1.1183E+01   2.1120E-05  0.0189
   1.1183E+01   1.1455E+01   1.9240E-05  0.0195
   1.1455E+01   1.1733E+01   1.8238E-05  0.0198
   1.1733E+01   1.2019E+01   1.6663E-05  0.0205
   1.2019E+01   1.2311E+01   1.5210E-05  0.0212
   1.2311E+01   1.2611E+01   1.4161E-05  0.0217
   1.2611E+01   1.2918E+01   1.3571E-05  0.0219
   1.2918E+01   1.3232E+01   1.2364E-05  0.0227
   1.3232E+01   1.3554E+01   1.1477E-05  0.0233
   1.3554E+01   1.3884E+01   1.0971E-05  0.0235
   1.3884E+01   1.4222E+01   9.4789E-06  0.0250
   1.4222E+01   1.4568E+01   8.9647E-06  0.0254
   1.4568E+01   1.4922E+01   8.7659E-06  0.0254
   1.4922E+01   1.5285E+01   8.1941E-06  0.0259
   1.5285E+01   1.5657E+01   8.0183E-06  0.0259
   1.5657E+01   1.6038E+01   7.2976E-06  0.0268
   1.6038E+01   1.6428E+01   6.7732E-06  0.0275
   1.6428E+01   1.6828E+01   6.2295E-06  0.0283
   1.6828E+01   1.7237E+01   6.2940E-06  0.0279
   1.7237E+01   1.7657E+01   5.5699E-06  0.0293
   1.7657E+01   1.8086E+01   5.5819E-06  0.0289
   1.8086E+01   1.8526E+01   5.1448E-06  0.0297
   1.8526E+01   1.8977E+01   4.9117E-06  0.0301
   1.8977E+01   1.9439E+01   4.6997E-06  0.0304
   1.9439E+01   1.9912E+01   4.3597E-06  0.0311
   1.9912E+01   2.0396E+01   4.2438E-06  0.0312
   2.0396E+01   2.0893E+01   3.9133E-06  0.0321
   2.0893E+01   2.1401E+01   3.5134E-06  0.0335
   2.1401E+01   2.1922E+01   3.5951E-06  0.0327
   2.1922E+01   2.2455E+01   3.2960E-06  0.0337
   2.2455E+01   2.3001E+01   2.9359E-06  0.0353
   2.3001E+01   2.3561E+01   3.0126E-06  0.0344
   2.3561E+01   2.4134E+01   2.8260E-06  0.0351
   2.4134E+01   2.4721E+01   2.5102E-06  0.0368
   2.4721E+01   2.5323E+01   2.4805E-06  0.0366
   2.5323E+01   2.5939E+01   2.1229E-06  0.0391
   2.5939E+01   2.6570E+01   2.1707E-06  0.0382
   2.6570E+01   2.7217E+01   2.0171E-06  0.0392
   2.7217E+01   2.7879E+01   1.8272E-06  0.0407
   2.7879E+01   2.8557E+01   1.6187E-06  0.0427
   2.8557E+01   2.9252E+01   1.6148E-06  0.0422
   2.9252E+01   2.9964E+01   1.3601E-06  0.0455
   2.9964E+01   3.0693E+01   1.2647E-06  0.0466
   3.0693E+01   3.1440E+01   1.1971E-06  0.0473
   3.1440E+01   3.2205E+01   1.0380E-06  0.0502
   3.2205E+01   3.2988E+01   1.0159E-06  0.0501
   3.2988E+01   3.3791E+01   8.6217E-07  0.0538
   3.3791E+01   3.4613E+01   8.8548E-07  0.0524
   3.4613E+01   3.5455E+01   7.8133E-07  0.0551
   3.5455E+01   3.6318E+01   6.6771E-07  0.0589
   3.6318E+01   3.7201E+01   6.3374E-07  0.0598
   3.7201E+01   3.8106E+01   5.4135E-07  0.0639
   3.8106E+01   3.9034E+01   4.7025E-07  0.0677
   3.9034E+01   3.9983E+01   4.4434E-07  0.0688
   3.9983E+01   4.0956E+01   3.7006E-07  0.0745
   4.0956E+01   4.1953E+01   3.3317E-07  0.0776
   4.1953E+01   4.2973E+01   3.2525E-07  0.0776
   4.2973E+01   4.4019E+01   2.9457E-07  0.0806
   4.4019E+01   4.5090E+01   2.2409E-07  0.0913
   4.5090E+01   4.6187E+01   1.9689E-07  0.0962
   4.6187E+01   4.7311E+01   1.9043E-07  0.0967
   4.7311E+01   4.8462E+01   1.3552E-07  0.1132
   4.8462E+01   4.9641E+01   1.1195E-07  0.1231
   4.9641E+01   5.0849E+01   1.0929E-07  0.1231
   5.0849E+01   5.2086E+01   8.5678E-08  0.1374
   5.2086E+01   5.3353E+01   8.5221E-08  0.1361
   5.3353E+01   5.4651E+01   4.9302E-08  0.1768
   5.4651E+01   5.5981E+01   6.3172E-08  0.1543
   5.5981E+01   5.7343E+01   4.4051E-08  0.1826
   5.7343E+01   5.8738E+01   5.3039E-08  0.1644
   5.8738E+01   6.0168E+01   5.0380E-08  0.1667
   6.0168E+01   6.1632E+01   3.2789E-08  0.2041
   6.1632E+01   6.3131E+01   3.2010E-08  0.2041
   6.3131E+01   6.4667E+01   1.8229E-08  0.2673
   6.4667E+01   6.6240E+01   2.0338E-08  0.2500
   6.6240E+01   6.7852E+01   2.3578E-08  0.2294
   6.7852E+01   6.9503E+01   8.4802E-09  0.3780
   6.9503E+01   7.1194E+01   1.6558E-08  0.2673
   7.1194E+01   7.2926E+01   8.0822E-09  0.3780
   7.2926E+01   7.4701E+01   9.0174E-09  0.3536
   7.4701E+01   7.6518E+01   4.4016E-09  0.5000
   7.6518E+01   7.8380E+01   1.0743E-09  1.0000
   7.8380E+01   8.0287E+01   2.0975E-09  0.7071
   8.0287E+01   8.2240E+01   0.0000E+00  0.0000
   8.2240E+01   8.4241E+01   0.0000E+00  0.0000
   8.4241E+01   8.6291E+01   0.0000E+00  0.0000
   8.6291E+01   8.8391E+01   0.0000E+00  0.0000
   8.8391E+01   9.0541E+01   0.0000E+00  0.0000
   9.0541E+01   9.2744E+01   0.0000E+00  0.0000
   9.2744E+01   9.5001E+01   0.0000E+00  0.0000
   9.5001E+01   9.7312E+01   0.0000E+00  0.0000
   9.7312E+01   9.9680E+01   0.0000E+00  0.0000
   9.9680E+01   1.0211E+02   0.0000E+00  0.0000
   1.0211E+02   1.0459E+02   0.0000E+00  0.0000
   1.0459E+02   1.0713E+02   0.0000E+00  0.0000
   1.0713E+02   1.0974E+02   0.0000E+00  0.0000
   1.0974E+02   1.1241E+02   0.0000E+00  0.0000
   1.1241E+02   1.1515E+02   0.0000E+00  0.0000
   1.1515E+02   1.1795E+02   0.0000E+00  0.0000
   1.1795E+02   1.2082E+02   0.0000E+00  0.0000
   1.2082E+02   1.2376E+02   0.0000E+00  0.0000
   1.2376E+02   1.2677E+02   0.0000E+00  0.0000
   1.2677E+02   1.2985E+02   0.0000E+00  0.0000
   1.2985E+02   1.3301E+02   0.0000E+00  0.0000
   1.3301E+02   1.3625E+02   0.0000E+00  0.0000
   1.3625E+02   1.3956E+02   0.0000E+00  0.0000
   1.3956E+02   1.4296E+02   0.0000E+00  0.0000
   1.4296E+02   1.4644E+02   0.0000E+00  0.0000
   1.4644E+02   1.5000E+02   0.0000E+00  0.0000

#   sum over                 4.7130E-05
'no. =    1   reg = 118 - 218'
msuc: {\huge [t-cross] in region mesh}
msdr: {\it plotted by \ANGEL \version}
msdl: {\it calculated by \PHITS  3.26}
wt: s(0.7)
\vspace{-3}
  region surface crossing
  area  &=&   1.0000E+00 [cm^2]
e:
 
# Information for Restart Calculation
# This calculation was newly started
# istdev =  2 # 1:Batch variance, 2:History variance
# resc2  = 5.00000000000000000E+08 # Total source weight or Total source weight / maxcas
# resc3  = 5.00000000000000000E+08 # Total history number or Total batch number
# maxcas =   500000000 # History / Batch, only used for istdev=1
# bitrseed = 1101101111010011011000101101110001100110110010110001010100010001 # bit data of rseed
