[ T-Cross ]
    title = [t-cross] in region mesh
     mesh =  reg            # mesh type is region-wise
      reg =    1            # number of crossing regions
      non     r-from    r-to       area
      1       114       214        1.000000    
   e-type =    3            # e-mesh is log given by emin, emax and ne
     emin =  1.0000000E-02  # minimum value of e-mesh points
     emax =   150.0000      # maximum value of e-mesh points
#    edel =  2.4039514E-02  # mesh width of e-mesh points
       ne =    400          # number of e-mesh points
#    data = ( e(i), i = 1, ne + 1 )
#           1.00000E-02  1.02433E-02  1.04925E-02  1.07478E-02  1.10093E-02
#           1.12772E-02  1.15516E-02  1.18326E-02  1.21205E-02  1.24154E-02
#           1.27175E-02  1.30269E-02  1.33439E-02  1.36686E-02  1.40011E-02
#           1.43418E-02  1.46907E-02  1.50482E-02  1.54143E-02  1.57894E-02
#           1.61735E-02  1.65670E-02  1.69701E-02  1.73830E-02  1.78060E-02
#           1.82392E-02  1.86830E-02  1.91375E-02  1.96032E-02  2.00801E-02
#           2.05687E-02  2.10692E-02  2.15818E-02  2.21069E-02  2.26448E-02
#           2.31957E-02  2.37601E-02  2.43382E-02  2.49304E-02  2.55369E-02
#           2.61583E-02  2.67947E-02  2.74467E-02  2.81145E-02  2.87985E-02
#           2.94992E-02  3.02169E-02  3.09521E-02  3.17052E-02  3.24766E-02
#           3.32668E-02  3.40762E-02  3.49053E-02  3.57546E-02  3.66246E-02
#           3.75157E-02  3.84284E-02  3.93634E-02  4.03212E-02  4.13022E-02
#           4.23071E-02  4.33365E-02  4.43909E-02  4.54710E-02  4.65773E-02
#           4.77106E-02  4.88714E-02  5.00605E-02  5.12785E-02  5.25262E-02
#           5.38042E-02  5.51133E-02  5.64542E-02  5.78278E-02  5.92348E-02
#           6.06760E-02  6.21523E-02  6.36645E-02  6.52135E-02  6.68002E-02
#           6.84255E-02  7.00904E-02  7.17957E-02  7.35426E-02  7.53319E-02
#           7.71648E-02  7.90423E-02  8.09655E-02  8.29354E-02  8.49533E-02
#           8.70203E-02  8.91376E-02  9.13064E-02  9.35279E-02  9.58035E-02
#           9.81345E-02  1.00522E-01  1.02968E-01  1.05473E-01  1.08040E-01
#           1.10668E-01  1.13361E-01  1.16119E-01  1.18944E-01  1.21838E-01
#           1.24803E-01  1.27839E-01  1.30950E-01  1.34136E-01  1.37399E-01
#           1.40742E-01  1.44167E-01  1.47675E-01  1.51268E-01  1.54948E-01
#           1.58718E-01  1.62580E-01  1.66535E-01  1.70587E-01  1.74738E-01
#           1.78989E-01  1.83344E-01  1.87805E-01  1.92375E-01  1.97055E-01
#           2.01850E-01  2.06761E-01  2.11792E-01  2.16945E-01  2.22223E-01
#           2.27630E-01  2.33169E-01  2.38842E-01  2.44653E-01  2.50605E-01
#           2.56703E-01  2.62949E-01  2.69346E-01  2.75900E-01  2.82613E-01
#           2.89489E-01  2.96532E-01  3.03747E-01  3.11138E-01  3.18708E-01
#           3.26462E-01  3.34405E-01  3.42542E-01  3.50876E-01  3.59413E-01
#           3.68158E-01  3.77116E-01  3.86291E-01  3.95690E-01  4.05317E-01
#           4.15179E-01  4.25281E-01  4.35628E-01  4.46227E-01  4.57084E-01
#           4.68205E-01  4.79597E-01  4.91266E-01  5.03219E-01  5.15463E-01
#           5.28005E-01  5.40851E-01  5.54011E-01  5.67490E-01  5.81298E-01
#           5.95441E-01  6.09929E-01  6.24769E-01  6.39970E-01  6.55541E-01
#           6.71491E-01  6.87828E-01  7.04564E-01  7.21706E-01  7.39266E-01
#           7.57253E-01  7.75678E-01  7.94551E-01  8.13883E-01  8.33685E-01
#           8.53969E-01  8.74747E-01  8.96030E-01  9.17831E-01  9.40163E-01
#           9.63038E-01  9.86469E-01  1.01047E+00  1.03506E+00  1.06024E+00
#           1.08604E+00  1.11246E+00  1.13953E+00  1.16725E+00  1.19565E+00
#           1.22474E+00  1.25454E+00  1.28507E+00  1.31633E+00  1.34836E+00
#           1.38117E+00  1.41477E+00  1.44920E+00  1.48446E+00  1.52057E+00
#           1.55757E+00  1.59547E+00  1.63429E+00  1.67405E+00  1.71478E+00
#           1.75650E+00  1.79924E+00  1.84302E+00  1.88786E+00  1.93379E+00
#           1.98084E+00  2.02904E+00  2.07841E+00  2.12898E+00  2.18078E+00
#           2.23384E+00  2.28819E+00  2.34386E+00  2.40089E+00  2.45930E+00
#           2.51914E+00  2.58043E+00  2.64322E+00  2.70753E+00  2.77341E+00
#           2.84088E+00  2.91001E+00  2.98081E+00  3.05333E+00  3.12762E+00
#           3.20372E+00  3.28167E+00  3.36152E+00  3.44330E+00  3.52708E+00
#           3.61290E+00  3.70080E+00  3.79085E+00  3.88308E+00  3.97756E+00
#           4.07434E+00  4.17347E+00  4.27501E+00  4.37903E+00  4.48557E+00
#           4.59471E+00  4.70650E+00  4.82102E+00  4.93832E+00  5.05847E+00
#           5.18155E+00  5.30762E+00  5.43676E+00  5.56904E+00  5.70453E+00
#           5.84333E+00  5.98550E+00  6.13114E+00  6.28031E+00  6.43312E+00
#           6.58964E+00  6.74997E+00  6.91420E+00  7.08243E+00  7.25475E+00
#           7.43126E+00  7.61207E+00  7.79728E+00  7.98700E+00  8.18133E+00
#           8.38038E+00  8.58428E+00  8.79315E+00  9.00709E+00  9.22624E+00
#           9.45072E+00  9.68067E+00  9.91620E+00  1.01575E+01  1.04046E+01
#           1.06578E+01  1.09171E+01  1.11827E+01  1.14548E+01  1.17335E+01
#           1.20190E+01  1.23114E+01  1.26109E+01  1.29178E+01  1.32321E+01
#           1.35540E+01  1.38838E+01  1.42216E+01  1.45676E+01  1.49221E+01
#           1.52851E+01  1.56570E+01  1.60380E+01  1.64282E+01  1.68279E+01
#           1.72374E+01  1.76568E+01  1.80864E+01  1.85264E+01  1.89772E+01
#           1.94389E+01  1.99119E+01  2.03963E+01  2.08926E+01  2.14009E+01
#           2.19216E+01  2.24550E+01  2.30014E+01  2.35610E+01  2.41343E+01
#           2.47215E+01  2.53230E+01  2.59391E+01  2.65702E+01  2.72167E+01
#           2.78789E+01  2.85572E+01  2.92520E+01  2.99637E+01  3.06928E+01
#           3.14396E+01  3.22045E+01  3.29881E+01  3.37907E+01  3.46128E+01
#           3.54550E+01  3.63177E+01  3.72013E+01  3.81064E+01  3.90336E+01
#           3.99833E+01  4.09561E+01  4.19526E+01  4.29734E+01  4.40189E+01
#           4.50900E+01  4.61870E+01  4.73108E+01  4.84619E+01  4.96410E+01
#           5.08488E+01  5.20860E+01  5.33533E+01  5.46514E+01  5.59812E+01
#           5.73432E+01  5.87384E+01  6.01676E+01  6.16315E+01  6.31311E+01
#           6.46671E+01  6.62405E+01  6.78522E+01  6.95031E+01  7.11941E+01
#           7.29263E+01  7.47007E+01  7.65182E+01  7.83800E+01  8.02870E+01
#           8.22405E+01  8.42414E+01  8.62911E+01  8.83906E+01  9.05412E+01
#           9.27442E+01  9.50007E+01  9.73122E+01  9.96799E+01  1.02105E+02
#           1.04589E+02  1.07134E+02  1.09741E+02  1.12411E+02  1.15146E+02
#           1.17948E+02  1.20817E+02  1.23757E+02  1.26768E+02  1.29852E+02
#           1.33012E+02  1.36248E+02  1.39563E+02  1.42959E+02  1.46437E+02
#           1.50000E+02
     unit =    2            # unit is [1/cm^2/(MeV/n)/source]
     axis =  eng            # axis of output
     file = detector-15.out  # file name of output for the above axis
   output = f-curr          # surface crossing forward current spectrum
     part =  neutron  
# kf/name :  2112     
#    used :        main (  %)        temp (  %)       total (  %)
#  memory :         414 (  0)           0 (  0)         414 (  0)

#------------------------------------------------------------------------------
#newpage:
#   no. =    1   reg = 114 - 214

x: Energy [MeV/n]
y:  F-Curr [1/cm^2/(MeV/n)/source]         
p: xlog ylog afac(0.8) form(0.9)
h: n            x            y(neutron ),hh0l   n 
#  e-lower      e-upper      neutron     r.err 
   1.0000E-02   1.0243E-02   4.4388E-04  0.1361
   1.0243E-02   1.0493E-02   4.6544E-04  0.1313
   1.0493E-02   1.0748E-02   4.3088E-04  0.1348
   1.0748E-02   1.1009E-02   5.2772E-04  0.1204
   1.1009E-02   1.1277E-02   4.0319E-04  0.1361
   1.1277E-02   1.1552E-02   3.5716E-04  0.1429
   1.1552E-02   1.1833E-02   4.4119E-04  0.1270
   1.1833E-02   1.2121E-02   4.9323E-04  0.1187
   1.2121E-02   1.2415E-02   5.3577E-04  0.1125
   1.2415E-02   1.2718E-02   4.2373E-04  0.1250
   1.2718E-02   1.3027E-02   4.7184E-04  0.1170
   1.3027E-02   1.3344E-02   4.2277E-04  0.1222
   1.3344E-02   1.3669E-02   4.8665E-04  0.1125
   1.3669E-02   1.4001E-02   3.9691E-04  0.1231
   1.4001E-02   1.4342E-02   5.1665E-04  0.1066
   1.4342E-02   1.4691E-02   4.6425E-04  0.1111
   1.4691E-02   1.5048E-02   5.1478E-04  0.1043
   1.5048E-02   1.5414E-02   4.4246E-04  0.1111
   1.5414E-02   1.5789E-02   4.7461E-04  0.1060
   1.5789E-02   1.6174E-02   4.1128E-04  0.1125
   1.6174E-02   1.6567E-02   4.2438E-04  0.1093
   1.6567E-02   1.6970E-02   4.9121E-04  0.1005
   1.6970E-02   1.7383E-02   4.0688E-04  0.1091
   1.7383E-02   1.7806E-02   4.3505E-04  0.1043
   1.7806E-02   1.8239E-02   4.9858E-04  0.0962
   1.8239E-02   1.8683E-02   3.6956E-04  0.1104
   1.8683E-02   1.9138E-02   4.7517E-04  0.0962
   1.9138E-02   1.9603E-02   4.8966E-04  0.0937
   1.9603E-02   2.0080E-02   4.0674E-04  0.1015
   2.0080E-02   2.0569E-02   4.4620E-04  0.0958
   2.0569E-02   2.1069E-02   4.3960E-04  0.0953
   2.1069E-02   2.1582E-02   4.9158E-04  0.0891
   2.1582E-02   2.2107E-02   5.3323E-04  0.0845
   2.2107E-02   2.2645E-02   5.4659E-04  0.0825
   2.2645E-02   2.3196E-02   5.2998E-04  0.0828
   2.3196E-02   2.3760E-02   4.5006E-04  0.0887
   2.3760E-02   2.4338E-02   4.7051E-04  0.0857
   2.4338E-02   2.4930E-02   5.0324E-04  0.0819
   2.4930E-02   2.5537E-02   4.3193E-04  0.0874
   2.5537E-02   2.6158E-02   4.5386E-04  0.0842
   2.6158E-02   2.6795E-02   5.0593E-04  0.0788
   2.6795E-02   2.7447E-02   5.0312E-04  0.0781
   2.7447E-02   2.8114E-02   4.5822E-04  0.0808
   2.8114E-02   2.8799E-02   4.9119E-04  0.0772
   2.8799E-02   2.9499E-02   4.8238E-04  0.0769
   2.9499E-02   3.0217E-02   5.1829E-04  0.0733
   3.0217E-02   3.0952E-02   5.0054E-04  0.0737
   3.0952E-02   3.1705E-02   4.3554E-04  0.0781
   3.1705E-02   3.2477E-02   4.7705E-04  0.0737
   3.2477E-02   3.3267E-02   4.8596E-04  0.0722
   3.3267E-02   3.4076E-02   4.7195E-04  0.0724
   3.4076E-02   3.4905E-02   4.9692E-04  0.0697
   3.4905E-02   3.5755E-02   5.3222E-04  0.0665
   3.5755E-02   3.6625E-02   4.7360E-04  0.0697
   3.6625E-02   3.7516E-02   5.3641E-04  0.0647
   3.7516E-02   3.8428E-02   5.2148E-04  0.0648
   3.8428E-02   3.9363E-02   5.3904E-04  0.0630
   3.9363E-02   4.0321E-02   5.3041E-04  0.0627
   4.0321E-02   4.1302E-02   4.5869E-04  0.0667
   4.1302E-02   4.2307E-02   4.8959E-04  0.0638
   4.2307E-02   4.3337E-02   4.7602E-04  0.0639
   4.3337E-02   4.4391E-02   4.8748E-04  0.0624
   4.4391E-02   4.5471E-02   4.8145E-04  0.0620
   4.5471E-02   4.6577E-02   4.5917E-04  0.0627
   4.6577E-02   4.7711E-02   4.9062E-04  0.0600
   4.7711E-02   4.8871E-02   5.0481E-04  0.0584
   4.8871E-02   5.0061E-02   5.3319E-04  0.0562
   5.0061E-02   5.1279E-02   5.0903E-04  0.0568
   5.1279E-02   5.2526E-02   5.3861E-04  0.0546
   5.2526E-02   5.3804E-02   5.1956E-04  0.0549
   5.3804E-02   5.5113E-02   5.6069E-04  0.0522
   5.5113E-02   5.6454E-02   5.0785E-04  0.0542
   5.6454E-02   5.7828E-02   5.1836E-04  0.0530
   5.7828E-02   5.9235E-02   5.1599E-04  0.0525
   5.9235E-02   6.0676E-02   4.7598E-04  0.0540
   6.0676E-02   6.2152E-02   5.2429E-04  0.0508
   6.2152E-02   6.3665E-02   5.7267E-04  0.0481
   6.3665E-02   6.5214E-02   5.3712E-04  0.0490
   6.5214E-02   6.6800E-02   5.7289E-04  0.0469
   6.6800E-02   6.8426E-02   4.9529E-04  0.0498
   6.8426E-02   7.0090E-02   5.6582E-04  0.0461
   7.0090E-02   7.1796E-02   5.6059E-04  0.0457
   7.1796E-02   7.3543E-02   5.4155E-04  0.0460
   7.3543E-02   7.5332E-02   5.3539E-04  0.0457
   7.5332E-02   7.7165E-02   5.2486E-04  0.0456
   7.7165E-02   7.9042E-02   5.7630E-04  0.0430
   7.9042E-02   8.0965E-02   5.8965E-04  0.0420
   8.0965E-02   8.2935E-02   5.6245E-04  0.0425
   8.2935E-02   8.4953E-02   5.1737E-04  0.0438
   8.4953E-02   8.7020E-02   5.7282E-04  0.0411
   8.7020E-02   8.9138E-02   5.7480E-04  0.0405
   8.9138E-02   9.1306E-02   5.7451E-04  0.0401
   9.1306E-02   9.3528E-02   5.8247E-04  0.0393
   9.3528E-02   9.5804E-02   5.2382E-04  0.0410
   9.5804E-02   9.8134E-02   5.2853E-04  0.0403
   9.8134E-02   1.0052E-01   5.5619E-04  0.0388
   1.0052E-01   1.0297E-01   5.1599E-04  0.0398
   1.0297E-01   1.0547E-01   5.3886E-04  0.0385
   1.0547E-01   1.0804E-01   5.5178E-04  0.0376
   1.0804E-01   1.1067E-01   6.0410E-04  0.0355
   1.1067E-01   1.1336E-01   5.7193E-04  0.0360
   1.1336E-01   1.1612E-01   5.7430E-04  0.0355
   1.1612E-01   1.1894E-01   5.7127E-04  0.0352
   1.1894E-01   1.2184E-01   5.5494E-04  0.0353
   1.2184E-01   1.2480E-01   5.8561E-04  0.0339
   1.2480E-01   1.2784E-01   5.7763E-04  0.0338
   1.2784E-01   1.3095E-01   5.7291E-04  0.0335
   1.3095E-01   1.3414E-01   5.5240E-04  0.0337
   1.3414E-01   1.3740E-01   5.4265E-04  0.0336
   1.3740E-01   1.4074E-01   5.4262E-04  0.0332
   1.4074E-01   1.4417E-01   5.7938E-04  0.0318
   1.4417E-01   1.4767E-01   5.7445E-04  0.0315
   1.4767E-01   1.5127E-01   5.6275E-04  0.0315
   1.5127E-01   1.5495E-01   5.7656E-04  0.0307
   1.5495E-01   1.5872E-01   5.5278E-04  0.0310
   1.5872E-01   1.6258E-01   5.9119E-04  0.0296
   1.6258E-01   1.6654E-01   5.3037E-04  0.0309
   1.6654E-01   1.7059E-01   5.6960E-04  0.0294
   1.7059E-01   1.7474E-01   5.6571E-04  0.0292
   1.7474E-01   1.7899E-01   5.6215E-04  0.0289
   1.7899E-01   1.8334E-01   5.7475E-04  0.0283
   1.8334E-01   1.8781E-01   5.4921E-04  0.0286
   1.8781E-01   1.9237E-01   5.9526E-04  0.0271
   1.9237E-01   1.9706E-01   5.6061E-04  0.0276
   1.9706E-01   2.0185E-01   5.2727E-04  0.0281
   2.0185E-01   2.0676E-01   5.6443E-04  0.0269
   2.0676E-01   2.1179E-01   5.4148E-04  0.0271
   2.1179E-01   2.1694E-01   5.4570E-04  0.0267
   2.1694E-01   2.2222E-01   5.9980E-04  0.0251
   2.2222E-01   2.2763E-01   5.6114E-04  0.0257
   2.2763E-01   2.3317E-01   5.5142E-04  0.0256
   2.3317E-01   2.3884E-01   5.5348E-04  0.0252
   2.3884E-01   2.4465E-01   5.5772E-04  0.0248
   2.4465E-01   2.5061E-01   5.6244E-04  0.0244
   2.5061E-01   2.5670E-01   5.5597E-04  0.0243
   2.5670E-01   2.6295E-01   5.7319E-04  0.0236
   2.6295E-01   2.6935E-01   5.5176E-04  0.0238
   2.6935E-01   2.7590E-01   5.4567E-04  0.0236
   2.7590E-01   2.8261E-01   5.6816E-04  0.0229
   2.8261E-01   2.8949E-01   5.4565E-04  0.0231
   2.8949E-01   2.9653E-01   5.4036E-04  0.0229
   2.9653E-01   3.0375E-01   5.4305E-04  0.0226
   3.0375E-01   3.1114E-01   5.3258E-04  0.0225
   3.1114E-01   3.1871E-01   5.7013E-04  0.0215
   3.1871E-01   3.2646E-01   5.2203E-04  0.0222
   3.2646E-01   3.3441E-01   5.4248E-04  0.0215
   3.3441E-01   3.4254E-01   5.4398E-04  0.0213
   3.4254E-01   3.5088E-01   5.4246E-04  0.0210
   3.5088E-01   3.5941E-01   5.1797E-04  0.0213
   3.5941E-01   3.6816E-01   5.4318E-04  0.0205
   3.6816E-01   3.7712E-01   5.2961E-04  0.0205
   3.7712E-01   3.8629E-01   5.1812E-04  0.0205
   3.8629E-01   3.9569E-01   5.3177E-04  0.0200
   3.9569E-01   4.0532E-01   5.2039E-04  0.0200
   4.0532E-01   4.1518E-01   5.0803E-04  0.0200
   4.1518E-01   4.2528E-01   5.1457E-04  0.0196
   4.2528E-01   4.3563E-01   5.1240E-04  0.0194
   4.3563E-01   4.4623E-01   4.9060E-04  0.0196
   4.4623E-01   4.5708E-01   5.0050E-04  0.0192
   4.5708E-01   4.6821E-01   4.9329E-04  0.0191
   4.6821E-01   4.7960E-01   4.9299E-04  0.0189
   4.7960E-01   4.9127E-01   4.8642E-04  0.0188
   4.9127E-01   5.0322E-01   4.6851E-04  0.0189
   5.0322E-01   5.1546E-01   4.7363E-04  0.0186
   5.1546E-01   5.2800E-01   4.6948E-04  0.0184
   5.2800E-01   5.4085E-01   4.7576E-04  0.0181
   5.4085E-01   5.5401E-01   4.4334E-04  0.0185
   5.5401E-01   5.6749E-01   4.3889E-04  0.0184
   5.6749E-01   5.8130E-01   4.5627E-04  0.0178
   5.8130E-01   5.9544E-01   4.3794E-04  0.0180
   5.9544E-01   6.0993E-01   4.3058E-04  0.0179
   6.0993E-01   6.2477E-01   4.3410E-04  0.0176
   6.2477E-01   6.3997E-01   4.0931E-04  0.0179
   6.3997E-01   6.5554E-01   4.0794E-04  0.0177
   6.5554E-01   6.7149E-01   3.9950E-04  0.0177
   6.7149E-01   6.8783E-01   3.9160E-04  0.0177
   6.8783E-01   7.0456E-01   3.8171E-04  0.0177
   7.0456E-01   7.2171E-01   3.6797E-04  0.0178
   7.2171E-01   7.3927E-01   3.7051E-04  0.0175
   7.3927E-01   7.5725E-01   3.6365E-04  0.0175
   7.5725E-01   7.7568E-01   3.5724E-04  0.0174
   7.7568E-01   7.9455E-01   3.3715E-04  0.0177
   7.9455E-01   8.1388E-01   3.3856E-04  0.0175
   8.1388E-01   8.3368E-01   3.2653E-04  0.0176
   8.3368E-01   8.5397E-01   3.2133E-04  0.0175
   8.5397E-01   8.7475E-01   3.0369E-04  0.0178
   8.7475E-01   8.9603E-01   3.0503E-04  0.0176
   8.9603E-01   9.1783E-01   2.8081E-04  0.0181
   9.1783E-01   9.4016E-01   2.8148E-04  0.0178
   9.4016E-01   9.6304E-01   2.6501E-04  0.0182
   9.6304E-01   9.8647E-01   2.4890E-04  0.0185
   9.8647E-01   1.0105E+00   2.4394E-04  0.0185
   1.0105E+00   1.0351E+00   2.5137E-04  0.0180
   1.0351E+00   1.0602E+00   2.5453E-04  0.0177
   1.0602E+00   1.0860E+00   2.5314E-04  0.0175
   1.0860E+00   1.1125E+00   2.5708E-04  0.0172
   1.1125E+00   1.1395E+00   2.6992E-04  0.0165
   1.1395E+00   1.1673E+00   2.6806E-04  0.0164
   1.1673E+00   1.1957E+00   2.6831E-04  0.0162
   1.1957E+00   1.2247E+00   2.7465E-04  0.0158
   1.2247E+00   1.2545E+00   2.8226E-04  0.0154
   1.2545E+00   1.2851E+00   2.8309E-04  0.0152
   1.2851E+00   1.3163E+00   2.8398E-04  0.0150
   1.3163E+00   1.3484E+00   2.9262E-04  0.0146
   1.3484E+00   1.3812E+00   2.9750E-04  0.0143
   1.3812E+00   1.4148E+00   3.0391E-04  0.0140
   1.4148E+00   1.4492E+00   2.9870E-04  0.0139
   1.4492E+00   1.4845E+00   2.9949E-04  0.0138
   1.4845E+00   1.5206E+00   2.9703E-04  0.0137
   1.5206E+00   1.5576E+00   2.9813E-04  0.0135
   1.5576E+00   1.5955E+00   3.0414E-04  0.0132
   1.5955E+00   1.6343E+00   3.0578E-04  0.0130
   1.6343E+00   1.6741E+00   3.1139E-04  0.0127
   1.6741E+00   1.7148E+00   3.1838E-04  0.0124
   1.7148E+00   1.7565E+00   3.1914E-04  0.0123
   1.7565E+00   1.7992E+00   3.1624E-04  0.0122
   1.7992E+00   1.8430E+00   3.2081E-04  0.0119
   1.8430E+00   1.8879E+00   3.2289E-04  0.0118
   1.8879E+00   1.9338E+00   3.1842E-04  0.0117
   1.9338E+00   1.9808E+00   3.2036E-04  0.0115
   1.9808E+00   2.0290E+00   3.2881E-04  0.0112
   2.0290E+00   2.0784E+00   3.2493E-04  0.0112
   2.0784E+00   2.1290E+00   3.2449E-04  0.0110
   2.1290E+00   2.1808E+00   3.1888E-04  0.0110
   2.1808E+00   2.2338E+00   3.2133E-04  0.0108
   2.2338E+00   2.2882E+00   3.2095E-04  0.0107
   2.2882E+00   2.3439E+00   3.2326E-04  0.0105
   2.3439E+00   2.4009E+00   3.3564E-04  0.0102
   2.4009E+00   2.4593E+00   3.3907E-04  0.0100
   2.4593E+00   2.5191E+00   3.3444E-04  0.0100
   2.5191E+00   2.5804E+00   3.2505E-04  0.0100
   2.5804E+00   2.6432E+00   3.2836E-04  0.0099
   2.6432E+00   2.7075E+00   3.2000E-04  0.0099
   2.7075E+00   2.7734E+00   3.2798E-04  0.0096
   2.7734E+00   2.8409E+00   3.2604E-04  0.0095
   2.8409E+00   2.9100E+00   3.2624E-04  0.0094
   2.9100E+00   2.9808E+00   3.3687E-04  0.0092
   2.9808E+00   3.0533E+00   3.2423E-04  0.0092
   3.0533E+00   3.1276E+00   3.1945E-04  0.0092
   3.1276E+00   3.2037E+00   3.2027E-04  0.0091
   3.2037E+00   3.2817E+00   3.1870E-04  0.0090
   3.2817E+00   3.3615E+00   3.1324E-04  0.0089
   3.3615E+00   3.4433E+00   3.0830E-04  0.0089
   3.4433E+00   3.5271E+00   3.0520E-04  0.0088
   3.5271E+00   3.6129E+00   3.1098E-04  0.0087
   3.6129E+00   3.7008E+00   3.0500E-04  0.0086
   3.7008E+00   3.7908E+00   2.9777E-04  0.0086
   3.7908E+00   3.8831E+00   2.9491E-04  0.0086
   3.8831E+00   3.9776E+00   2.9273E-04  0.0085
   3.9776E+00   4.0743E+00   2.9164E-04  0.0084
   4.0743E+00   4.1735E+00   2.8586E-04  0.0084
   4.1735E+00   4.2750E+00   2.7485E-04  0.0085
   4.2750E+00   4.3790E+00   2.6937E-04  0.0084
   4.3790E+00   4.4856E+00   2.6491E-04  0.0084
   4.4856E+00   4.5947E+00   2.6170E-04  0.0084
   4.5947E+00   4.7065E+00   2.5599E-04  0.0084
   4.7065E+00   4.8210E+00   2.4726E-04  0.0084
   4.8210E+00   4.9383E+00   2.4403E-04  0.0084
   4.9383E+00   5.0585E+00   2.3823E-04  0.0084
   5.0585E+00   5.1815E+00   2.3391E-04  0.0083
   5.1815E+00   5.3076E+00   2.2325E-04  0.0084
   5.3076E+00   5.4368E+00   2.1858E-04  0.0084
   5.4368E+00   5.5690E+00   2.1288E-04  0.0084
   5.5690E+00   5.7045E+00   2.0965E-04  0.0084
   5.7045E+00   5.8433E+00   1.9792E-04  0.0085
   5.8433E+00   5.9855E+00   1.9404E-04  0.0085
   5.9855E+00   6.1311E+00   1.8744E-04  0.0086
   6.1311E+00   6.2803E+00   1.7904E-04  0.0087
   6.2803E+00   6.4331E+00   1.7372E-04  0.0087
   6.4331E+00   6.5896E+00   1.6780E-04  0.0087
   6.5896E+00   6.7500E+00   1.6280E-04  0.0088
   6.7500E+00   6.9142E+00   1.5540E-04  0.0089
   6.9142E+00   7.0824E+00   1.5197E-04  0.0088
   7.0824E+00   7.2548E+00   1.4336E-04  0.0090
   7.2548E+00   7.4313E+00   1.3678E-04  0.0091
   7.4313E+00   7.6121E+00   1.3163E-04  0.0092
   7.6121E+00   7.7973E+00   1.2784E-04  0.0092
   7.7973E+00   7.9870E+00   1.1891E-04  0.0094
   7.9870E+00   8.1813E+00   1.1538E-04  0.0094
   8.1813E+00   8.3804E+00   1.1089E-04  0.0095
   8.3804E+00   8.5843E+00   1.0677E-04  0.0096
   8.5843E+00   8.7931E+00   1.0023E-04  0.0098
   8.7931E+00   9.0071E+00   9.8175E-05  0.0098
   9.0071E+00   9.2262E+00   9.3548E-05  0.0099
   9.2262E+00   9.4507E+00   8.8297E-05  0.0100
   9.4507E+00   9.6807E+00   8.6078E-05  0.0100
   9.6807E+00   9.9162E+00   8.1010E-05  0.0102
   9.9162E+00   1.0157E+01   7.9405E-05  0.0102
   1.0157E+01   1.0405E+01   7.3635E-05  0.0105
   1.0405E+01   1.0658E+01   7.2202E-05  0.0105
   1.0658E+01   1.0917E+01   6.8547E-05  0.0106
   1.0917E+01   1.1183E+01   6.4754E-05  0.0108
   1.1183E+01   1.1455E+01   6.2646E-05  0.0108
   1.1455E+01   1.1733E+01   5.9970E-05  0.0109
   1.1733E+01   1.2019E+01   5.8224E-05  0.0110
   1.2019E+01   1.2311E+01   5.6400E-05  0.0110
   1.2311E+01   1.2611E+01   5.2726E-05  0.0112
   1.2611E+01   1.2918E+01   5.0737E-05  0.0113
   1.2918E+01   1.3232E+01   5.0302E-05  0.0112
   1.3232E+01   1.3554E+01   4.7766E-05  0.0114
   1.3554E+01   1.3884E+01   4.6640E-05  0.0114
   1.3884E+01   1.4222E+01   4.3291E-05  0.0117
   1.4222E+01   1.4568E+01   4.0853E-05  0.0119
   1.4568E+01   1.4922E+01   4.0554E-05  0.0118
   1.4922E+01   1.5285E+01   3.8836E-05  0.0119
   1.5285E+01   1.5657E+01   3.7346E-05  0.0120
   1.5657E+01   1.6038E+01   3.5427E-05  0.0122
   1.6038E+01   1.6428E+01   3.4294E-05  0.0122
   1.6428E+01   1.6828E+01   3.3279E-05  0.0123
   1.6828E+01   1.7237E+01   3.1614E-05  0.0124
   1.7237E+01   1.7657E+01   3.0892E-05  0.0124
   1.7657E+01   1.8086E+01   2.9194E-05  0.0126
   1.8086E+01   1.8526E+01   2.8644E-05  0.0126
   1.8526E+01   1.8977E+01   2.7460E-05  0.0127
   1.8977E+01   1.9439E+01   2.6162E-05  0.0129
   1.9439E+01   1.9912E+01   2.5528E-05  0.0129
   1.9912E+01   2.0396E+01   2.3997E-05  0.0131
   2.0396E+01   2.0893E+01   2.3351E-05  0.0131
   2.0893E+01   2.1401E+01   2.2068E-05  0.0134
   2.1401E+01   2.1922E+01   2.1878E-05  0.0132
   2.1922E+01   2.2455E+01   2.0297E-05  0.0136
   2.2455E+01   2.3001E+01   1.9577E-05  0.0137
   2.3001E+01   2.3561E+01   1.8658E-05  0.0138
   2.3561E+01   2.4134E+01   1.7807E-05  0.0140
   2.4134E+01   2.4721E+01   1.6655E-05  0.0143
   2.4721E+01   2.5323E+01   1.6004E-05  0.0144
   2.5323E+01   2.5939E+01   1.4799E-05  0.0148
   2.5939E+01   2.6570E+01   1.3880E-05  0.0151
   2.6570E+01   2.7217E+01   1.3297E-05  0.0153
   2.7217E+01   2.7879E+01   1.2531E-05  0.0155
   2.7879E+01   2.8557E+01   1.2024E-05  0.0157
   2.8557E+01   2.9252E+01   1.0852E-05  0.0163
   2.9252E+01   2.9964E+01   1.0580E-05  0.0163
   2.9964E+01   3.0693E+01   9.5166E-06  0.0170
   3.0693E+01   3.1440E+01   9.1540E-06  0.0171
   3.1440E+01   3.2205E+01   8.5888E-06  0.0174
   3.2205E+01   3.2988E+01   7.6573E-06  0.0183
   3.2988E+01   3.3791E+01   7.4605E-06  0.0183
   3.3791E+01   3.4613E+01   6.6995E-06  0.0191
   3.4613E+01   3.5455E+01   5.9419E-06  0.0200
   3.5455E+01   3.6318E+01   5.6802E-06  0.0202
   3.6318E+01   3.7201E+01   5.0790E-06  0.0211
   3.7201E+01   3.8106E+01   4.6601E-06  0.0218
   3.8106E+01   3.9034E+01   4.3639E-06  0.0222
   3.9034E+01   3.9983E+01   3.9443E-06  0.0231
   3.9983E+01   4.0956E+01   3.5011E-06  0.0242
   4.0956E+01   4.1953E+01   3.1450E-06  0.0253
   4.1953E+01   4.2973E+01   2.8313E-06  0.0263
   4.2973E+01   4.4019E+01   2.5651E-06  0.0273
   4.4019E+01   4.5090E+01   2.1550E-06  0.0294
   4.5090E+01   4.6187E+01   2.0527E-06  0.0298
   4.6187E+01   4.7311E+01   1.6373E-06  0.0330
   4.7311E+01   4.8462E+01   1.6454E-06  0.0325
   4.8462E+01   4.9641E+01   1.3756E-06  0.0351
   4.9641E+01   5.0849E+01   1.1989E-06  0.0372
   5.0849E+01   5.2086E+01   1.0491E-06  0.0393
   5.2086E+01   5.3353E+01   8.9482E-07  0.0420
   5.3353E+01   5.4651E+01   7.5647E-07  0.0451
   5.4651E+01   5.5981E+01   7.2046E-07  0.0457
   5.5981E+01   5.7343E+01   5.1980E-07  0.0531
   5.7343E+01   5.8738E+01   4.9025E-07  0.0541
   5.8738E+01   6.0168E+01   4.2963E-07  0.0571
   6.0168E+01   6.1632E+01   3.1696E-07  0.0657
   6.1632E+01   6.3131E+01   3.1209E-07  0.0654
   6.3131E+01   6.4667E+01   2.6171E-07  0.0705
   6.4667E+01   6.6240E+01   2.2626E-07  0.0750
   6.6240E+01   6.7852E+01   1.6380E-07  0.0870
   6.7852E+01   6.9503E+01   1.6718E-07  0.0851
   6.9503E+01   7.1194E+01   1.2655E-07  0.0967
   7.1194E+01   7.2926E+01   1.1661E-07  0.0995
   7.2926E+01   7.4701E+01   8.3411E-08  0.1162
   7.4701E+01   7.6518E+01   9.1333E-08  0.1098
   7.6518E+01   7.8380E+01   5.5861E-08  0.1387
   7.8380E+01   8.0287E+01   5.2437E-08  0.1414
   8.0287E+01   8.2240E+01   4.1977E-08  0.1562
   8.2240E+01   8.4241E+01   2.5987E-08  0.1961
   8.4241E+01   8.6291E+01   1.9515E-08  0.2236
   8.6291E+01   8.8391E+01   9.5259E-09  0.3162
   8.8391E+01   9.0541E+01   2.7899E-09  0.5774
   9.0541E+01   9.2744E+01   9.0788E-10  1.0000
   9.2744E+01   9.5001E+01   0.0000E+00  0.0000
   9.5001E+01   9.7312E+01   0.0000E+00  0.0000
   9.7312E+01   9.9680E+01   0.0000E+00  0.0000
   9.9680E+01   1.0211E+02   0.0000E+00  0.0000
   1.0211E+02   1.0459E+02   0.0000E+00  0.0000
   1.0459E+02   1.0713E+02   0.0000E+00  0.0000
   1.0713E+02   1.0974E+02   0.0000E+00  0.0000
   1.0974E+02   1.1241E+02   0.0000E+00  0.0000
   1.1241E+02   1.1515E+02   0.0000E+00  0.0000
   1.1515E+02   1.1795E+02   0.0000E+00  0.0000
   1.1795E+02   1.2082E+02   0.0000E+00  0.0000
   1.2082E+02   1.2376E+02   0.0000E+00  0.0000
   1.2376E+02   1.2677E+02   0.0000E+00  0.0000
   1.2677E+02   1.2985E+02   0.0000E+00  0.0000
   1.2985E+02   1.3301E+02   0.0000E+00  0.0000
   1.3301E+02   1.3625E+02   0.0000E+00  0.0000
   1.3625E+02   1.3956E+02   0.0000E+00  0.0000
   1.3956E+02   1.4296E+02   0.0000E+00  0.0000
   1.4296E+02   1.4644E+02   0.0000E+00  0.0000
   1.4644E+02   1.5000E+02   0.0000E+00  0.0000

#   sum over                 2.0234E-05
'no. =    1   reg = 114 - 214'
msuc: {\huge [t-cross] in region mesh}
msdr: {\it plotted by \ANGEL \version}
msdl: {\it calculated by \PHITS  3.26}
wt: s(0.7)
\vspace{-3}
  region surface crossing
  area  &=&   1.0000E+00 [cm^2]
e:
 
# Information for Restart Calculation
# This calculation was newly started
# istdev =  2 # 1:Batch variance, 2:History variance
# resc2  = 5.00000000000000000E+08 # Total source weight or Total source weight / maxcas
# resc3  = 5.00000000000000000E+08 # Total history number or Total batch number
# maxcas =   500000000 # History / Batch, only used for istdev=1
# bitrseed = 1101101111010011011000101101110001100110110010110001010100010001 # bit data of rseed
