[ T-Cross ]
    title = [t-cross] in region mesh
     mesh =  reg            # mesh type is region-wise
      reg =    1            # number of crossing regions
      non     r-from    r-to       area
      1       115       215        1.000000    
   e-type =    3            # e-mesh is log given by emin, emax and ne
     emin =  1.0000000E-02  # minimum value of e-mesh points
     emax =   150.0000      # maximum value of e-mesh points
#    edel =  2.4039514E-02  # mesh width of e-mesh points
       ne =    400          # number of e-mesh points
#    data = ( e(i), i = 1, ne + 1 )
#           1.00000E-02  1.02433E-02  1.04925E-02  1.07478E-02  1.10093E-02
#           1.12772E-02  1.15516E-02  1.18326E-02  1.21205E-02  1.24154E-02
#           1.27175E-02  1.30269E-02  1.33439E-02  1.36686E-02  1.40011E-02
#           1.43418E-02  1.46907E-02  1.50482E-02  1.54143E-02  1.57894E-02
#           1.61735E-02  1.65670E-02  1.69701E-02  1.73830E-02  1.78060E-02
#           1.82392E-02  1.86830E-02  1.91375E-02  1.96032E-02  2.00801E-02
#           2.05687E-02  2.10692E-02  2.15818E-02  2.21069E-02  2.26448E-02
#           2.31957E-02  2.37601E-02  2.43382E-02  2.49304E-02  2.55369E-02
#           2.61583E-02  2.67947E-02  2.74467E-02  2.81145E-02  2.87985E-02
#           2.94992E-02  3.02169E-02  3.09521E-02  3.17052E-02  3.24766E-02
#           3.32668E-02  3.40762E-02  3.49053E-02  3.57546E-02  3.66246E-02
#           3.75157E-02  3.84284E-02  3.93634E-02  4.03212E-02  4.13022E-02
#           4.23071E-02  4.33365E-02  4.43909E-02  4.54710E-02  4.65773E-02
#           4.77106E-02  4.88714E-02  5.00605E-02  5.12785E-02  5.25262E-02
#           5.38042E-02  5.51133E-02  5.64542E-02  5.78278E-02  5.92348E-02
#           6.06760E-02  6.21523E-02  6.36645E-02  6.52135E-02  6.68002E-02
#           6.84255E-02  7.00904E-02  7.17957E-02  7.35426E-02  7.53319E-02
#           7.71648E-02  7.90423E-02  8.09655E-02  8.29354E-02  8.49533E-02
#           8.70203E-02  8.91376E-02  9.13064E-02  9.35279E-02  9.58035E-02
#           9.81345E-02  1.00522E-01  1.02968E-01  1.05473E-01  1.08040E-01
#           1.10668E-01  1.13361E-01  1.16119E-01  1.18944E-01  1.21838E-01
#           1.24803E-01  1.27839E-01  1.30950E-01  1.34136E-01  1.37399E-01
#           1.40742E-01  1.44167E-01  1.47675E-01  1.51268E-01  1.54948E-01
#           1.58718E-01  1.62580E-01  1.66535E-01  1.70587E-01  1.74738E-01
#           1.78989E-01  1.83344E-01  1.87805E-01  1.92375E-01  1.97055E-01
#           2.01850E-01  2.06761E-01  2.11792E-01  2.16945E-01  2.22223E-01
#           2.27630E-01  2.33169E-01  2.38842E-01  2.44653E-01  2.50605E-01
#           2.56703E-01  2.62949E-01  2.69346E-01  2.75900E-01  2.82613E-01
#           2.89489E-01  2.96532E-01  3.03747E-01  3.11138E-01  3.18708E-01
#           3.26462E-01  3.34405E-01  3.42542E-01  3.50876E-01  3.59413E-01
#           3.68158E-01  3.77116E-01  3.86291E-01  3.95690E-01  4.05317E-01
#           4.15179E-01  4.25281E-01  4.35628E-01  4.46227E-01  4.57084E-01
#           4.68205E-01  4.79597E-01  4.91266E-01  5.03219E-01  5.15463E-01
#           5.28005E-01  5.40851E-01  5.54011E-01  5.67490E-01  5.81298E-01
#           5.95441E-01  6.09929E-01  6.24769E-01  6.39970E-01  6.55541E-01
#           6.71491E-01  6.87828E-01  7.04564E-01  7.21706E-01  7.39266E-01
#           7.57253E-01  7.75678E-01  7.94551E-01  8.13883E-01  8.33685E-01
#           8.53969E-01  8.74747E-01  8.96030E-01  9.17831E-01  9.40163E-01
#           9.63038E-01  9.86469E-01  1.01047E+00  1.03506E+00  1.06024E+00
#           1.08604E+00  1.11246E+00  1.13953E+00  1.16725E+00  1.19565E+00
#           1.22474E+00  1.25454E+00  1.28507E+00  1.31633E+00  1.34836E+00
#           1.38117E+00  1.41477E+00  1.44920E+00  1.48446E+00  1.52057E+00
#           1.55757E+00  1.59547E+00  1.63429E+00  1.67405E+00  1.71478E+00
#           1.75650E+00  1.79924E+00  1.84302E+00  1.88786E+00  1.93379E+00
#           1.98084E+00  2.02904E+00  2.07841E+00  2.12898E+00  2.18078E+00
#           2.23384E+00  2.28819E+00  2.34386E+00  2.40089E+00  2.45930E+00
#           2.51914E+00  2.58043E+00  2.64322E+00  2.70753E+00  2.77341E+00
#           2.84088E+00  2.91001E+00  2.98081E+00  3.05333E+00  3.12762E+00
#           3.20372E+00  3.28167E+00  3.36152E+00  3.44330E+00  3.52708E+00
#           3.61290E+00  3.70080E+00  3.79085E+00  3.88308E+00  3.97756E+00
#           4.07434E+00  4.17347E+00  4.27501E+00  4.37903E+00  4.48557E+00
#           4.59471E+00  4.70650E+00  4.82102E+00  4.93832E+00  5.05847E+00
#           5.18155E+00  5.30762E+00  5.43676E+00  5.56904E+00  5.70453E+00
#           5.84333E+00  5.98550E+00  6.13114E+00  6.28031E+00  6.43312E+00
#           6.58964E+00  6.74997E+00  6.91420E+00  7.08243E+00  7.25475E+00
#           7.43126E+00  7.61207E+00  7.79728E+00  7.98700E+00  8.18133E+00
#           8.38038E+00  8.58428E+00  8.79315E+00  9.00709E+00  9.22624E+00
#           9.45072E+00  9.68067E+00  9.91620E+00  1.01575E+01  1.04046E+01
#           1.06578E+01  1.09171E+01  1.11827E+01  1.14548E+01  1.17335E+01
#           1.20190E+01  1.23114E+01  1.26109E+01  1.29178E+01  1.32321E+01
#           1.35540E+01  1.38838E+01  1.42216E+01  1.45676E+01  1.49221E+01
#           1.52851E+01  1.56570E+01  1.60380E+01  1.64282E+01  1.68279E+01
#           1.72374E+01  1.76568E+01  1.80864E+01  1.85264E+01  1.89772E+01
#           1.94389E+01  1.99119E+01  2.03963E+01  2.08926E+01  2.14009E+01
#           2.19216E+01  2.24550E+01  2.30014E+01  2.35610E+01  2.41343E+01
#           2.47215E+01  2.53230E+01  2.59391E+01  2.65702E+01  2.72167E+01
#           2.78789E+01  2.85572E+01  2.92520E+01  2.99637E+01  3.06928E+01
#           3.14396E+01  3.22045E+01  3.29881E+01  3.37907E+01  3.46128E+01
#           3.54550E+01  3.63177E+01  3.72013E+01  3.81064E+01  3.90336E+01
#           3.99833E+01  4.09561E+01  4.19526E+01  4.29734E+01  4.40189E+01
#           4.50900E+01  4.61870E+01  4.73108E+01  4.84619E+01  4.96410E+01
#           5.08488E+01  5.20860E+01  5.33533E+01  5.46514E+01  5.59812E+01
#           5.73432E+01  5.87384E+01  6.01676E+01  6.16315E+01  6.31311E+01
#           6.46671E+01  6.62405E+01  6.78522E+01  6.95031E+01  7.11941E+01
#           7.29263E+01  7.47007E+01  7.65182E+01  7.83800E+01  8.02870E+01
#           8.22405E+01  8.42414E+01  8.62911E+01  8.83906E+01  9.05412E+01
#           9.27442E+01  9.50007E+01  9.73122E+01  9.96799E+01  1.02105E+02
#           1.04589E+02  1.07134E+02  1.09741E+02  1.12411E+02  1.15146E+02
#           1.17948E+02  1.20817E+02  1.23757E+02  1.26768E+02  1.29852E+02
#           1.33012E+02  1.36248E+02  1.39563E+02  1.42959E+02  1.46437E+02
#           1.50000E+02
     unit =    2            # unit is [1/cm^2/(MeV/n)/source]
     axis =  eng            # axis of output
     file = detector-16.out  # file name of output for the above axis
   output = f-curr          # surface crossing forward current spectrum
     part =  neutron  
# kf/name :  2112     
#    used :        main (  %)        temp (  %)       total (  %)
#  memory :         414 (  0)           0 (  0)         414 (  0)

#------------------------------------------------------------------------------
#newpage:
#   no. =    1   reg = 115 - 215

x: Energy [MeV/n]
y:  F-Curr [1/cm^2/(MeV/n)/source]         
p: xlog ylog afac(0.8) form(0.9)
h: n            x            y(neutron ),hh0l   n 
#  e-lower      e-upper      neutron     r.err 
   1.0000E-02   1.0243E-02   8.4050E-03  0.0221
   1.0243E-02   1.0493E-02   8.4822E-03  0.0217
   1.0493E-02   1.0748E-02   8.4805E-03  0.0215
   1.0748E-02   1.1009E-02   8.4282E-03  0.0213
   1.1009E-02   1.1277E-02   8.2989E-03  0.0212
   1.1277E-02   1.1552E-02   8.2184E-03  0.0211
   1.1552E-02   1.1833E-02   7.9805E-03  0.0211
   1.1833E-02   1.2121E-02   8.4266E-03  0.0203
   1.2121E-02   1.2415E-02   8.1044E-03  0.0205
   1.2415E-02   1.2718E-02   8.2131E-03  0.0201
   1.2718E-02   1.3027E-02   8.2152E-03  0.0198
   1.3027E-02   1.3344E-02   7.8323E-03  0.0201
   1.3344E-02   1.3669E-02   8.0097E-03  0.0196
   1.3669E-02   1.4001E-02   7.8090E-03  0.0196
   1.4001E-02   1.4342E-02   7.6822E-03  0.0195
   1.4342E-02   1.4691E-02   7.7462E-03  0.0192
   1.4691E-02   1.5048E-02   8.1021E-03  0.0186
   1.5048E-02   1.5414E-02   7.7485E-03  0.0188
   1.5414E-02   1.5789E-02   7.9071E-03  0.0184
   1.5789E-02   1.6174E-02   7.8247E-03  0.0182
   1.6174E-02   1.6567E-02   7.3708E-03  0.0186
   1.6567E-02   1.6970E-02   7.6013E-03  0.0181
   1.6970E-02   1.7383E-02   7.3626E-03  0.0181
   1.7383E-02   1.7806E-02   7.3722E-03  0.0179
   1.7806E-02   1.8239E-02   7.3863E-03  0.0177
   1.8239E-02   1.8683E-02   7.3517E-03  0.0175
   1.8683E-02   1.9138E-02   7.3344E-03  0.0173
   1.9138E-02   1.9603E-02   7.2010E-03  0.0173
   1.9603E-02   2.0080E-02   7.1536E-03  0.0171
   2.0080E-02   2.0569E-02   7.0799E-03  0.0170
   2.0569E-02   2.1069E-02   7.2325E-03  0.0166
   2.1069E-02   2.1582E-02   7.0431E-03  0.0166
   2.1582E-02   2.2107E-02   6.9567E-03  0.0165
   2.2107E-02   2.2645E-02   6.8529E-03  0.0165
   2.2645E-02   2.3196E-02   6.8117E-03  0.0163
   2.3196E-02   2.3760E-02   6.7544E-03  0.0162
   2.3760E-02   2.4338E-02   6.8379E-03  0.0159
   2.4338E-02   2.4930E-02   6.6096E-03  0.0160
   2.4930E-02   2.5537E-02   6.9225E-03  0.0154
   2.5537E-02   2.6158E-02   6.6035E-03  0.0156
   2.6158E-02   2.6795E-02   6.8073E-03  0.0152
   2.6795E-02   2.7447E-02   6.4853E-03  0.0154
   2.7447E-02   2.8114E-02   6.4046E-03  0.0153
   2.8114E-02   2.8799E-02   6.5419E-03  0.0149
   2.8799E-02   2.9499E-02   6.4394E-03  0.0149
   2.9499E-02   3.0217E-02   6.3603E-03  0.0148
   3.0217E-02   3.0952E-02   6.4445E-03  0.0145
   3.0952E-02   3.1705E-02   6.2622E-03  0.0146
   3.1705E-02   3.2477E-02   6.3662E-03  0.0143
   3.2477E-02   3.3267E-02   6.0821E-03  0.0144
   3.3267E-02   3.4076E-02   6.2583E-03  0.0141
   3.4076E-02   3.4905E-02   6.0421E-03  0.0141
   3.4905E-02   3.5755E-02   5.9975E-03  0.0140
   3.5755E-02   3.6625E-02   6.0286E-03  0.0138
   3.6625E-02   3.7516E-02   5.9286E-03  0.0138
   3.7516E-02   3.8428E-02   6.0343E-03  0.0135
   3.8428E-02   3.9363E-02   5.8492E-03  0.0135
   3.9363E-02   4.0321E-02   5.8168E-03  0.0134
   4.0321E-02   4.1302E-02   5.8636E-03  0.0132
   4.1302E-02   4.2307E-02   5.7184E-03  0.0132
   4.2307E-02   4.3337E-02   5.6510E-03  0.0131
   4.3337E-02   4.4391E-02   5.6657E-03  0.0129
   4.4391E-02   4.5471E-02   5.4923E-03  0.0130
   4.5471E-02   4.6577E-02   5.5046E-03  0.0128
   4.6577E-02   4.7711E-02   5.4656E-03  0.0127
   4.7711E-02   4.8871E-02   5.4530E-03  0.0126
   4.8871E-02   5.0061E-02   5.3369E-03  0.0126
   5.0061E-02   5.1279E-02   5.3201E-03  0.0124
   5.1279E-02   5.2526E-02   5.3950E-03  0.0122
   5.2526E-02   5.3804E-02   5.2367E-03  0.0122
   5.3804E-02   5.5113E-02   5.1131E-03  0.0122
   5.5113E-02   5.6454E-02   5.1766E-03  0.0120
   5.6454E-02   5.7828E-02   5.0390E-03  0.0120
   5.7828E-02   5.9235E-02   4.9794E-03  0.0119
   5.9235E-02   6.0676E-02   4.9583E-03  0.0118
   6.0676E-02   6.2152E-02   4.9919E-03  0.0116
   6.2152E-02   6.3665E-02   4.9659E-03  0.0115
   6.3665E-02   6.5214E-02   4.8615E-03  0.0115
   6.5214E-02   6.6800E-02   4.8267E-03  0.0114
   6.6800E-02   6.8426E-02   4.7982E-03  0.0113
   6.8426E-02   7.0090E-02   4.8701E-03  0.0111
   7.0090E-02   7.1796E-02   4.7726E-03  0.0111
   7.1796E-02   7.3543E-02   4.7723E-03  0.0110
   7.3543E-02   7.5332E-02   4.7447E-03  0.0109
   7.5332E-02   7.7165E-02   4.6866E-03  0.0108
   7.7165E-02   7.9042E-02   4.6006E-03  0.0108
   7.9042E-02   8.0965E-02   4.6346E-03  0.0106
   8.0965E-02   8.2935E-02   4.3841E-03  0.0108
   8.2935E-02   8.4953E-02   4.5166E-03  0.0105
   8.4953E-02   8.7020E-02   4.3324E-03  0.0106
   8.7020E-02   8.9138E-02   4.3261E-03  0.0104
   8.9138E-02   9.1306E-02   4.3084E-03  0.0103
   9.1306E-02   9.3528E-02   4.3028E-03  0.0102
   9.3528E-02   9.5804E-02   4.1932E-03  0.0102
   9.5804E-02   9.8134E-02   4.1264E-03  0.0102
   9.8134E-02   1.0052E-01   4.0987E-03  0.0101
   1.0052E-01   1.0297E-01   4.1688E-03  0.0099
   1.0297E-01   1.0547E-01   4.0997E-03  0.0099
   1.0547E-01   1.0804E-01   4.0142E-03  0.0099
   1.0804E-01   1.1067E-01   4.0309E-03  0.0097
   1.1067E-01   1.1336E-01   3.9166E-03  0.0097
   1.1336E-01   1.1612E-01   3.8553E-03  0.0097
   1.1612E-01   1.1894E-01   3.8685E-03  0.0096
   1.1894E-01   1.2184E-01   3.8269E-03  0.0095
   1.2184E-01   1.2480E-01   3.7604E-03  0.0095
   1.2480E-01   1.2784E-01   3.7256E-03  0.0094
   1.2784E-01   1.3095E-01   3.6437E-03  0.0094
   1.3095E-01   1.3414E-01   3.6885E-03  0.0092
   1.3414E-01   1.3740E-01   3.6631E-03  0.0091
   1.3740E-01   1.4074E-01   3.5997E-03  0.0091
   1.4074E-01   1.4417E-01   3.5604E-03  0.0091
   1.4417E-01   1.4767E-01   3.4612E-03  0.0091
   1.4767E-01   1.5127E-01   3.4135E-03  0.0090
   1.5127E-01   1.5495E-01   3.4282E-03  0.0089
   1.5495E-01   1.5872E-01   3.4007E-03  0.0088
   1.5872E-01   1.6258E-01   3.3770E-03  0.0088
   1.6258E-01   1.6654E-01   3.2614E-03  0.0088
   1.6654E-01   1.7059E-01   3.2428E-03  0.0087
   1.7059E-01   1.7474E-01   3.2650E-03  0.0086
   1.7474E-01   1.7899E-01   3.1788E-03  0.0086
   1.7899E-01   1.8334E-01   3.1686E-03  0.0085
   1.8334E-01   1.8781E-01   3.1453E-03  0.0084
   1.8781E-01   1.9237E-01   3.0651E-03  0.0085
   1.9237E-01   1.9706E-01   3.0392E-03  0.0084
   1.9706E-01   2.0185E-01   3.0347E-03  0.0083
   2.0185E-01   2.0676E-01   2.9487E-03  0.0083
   2.0676E-01   2.1179E-01   2.9590E-03  0.0082
   2.1179E-01   2.1694E-01   2.8885E-03  0.0082
   2.1694E-01   2.2222E-01   2.8720E-03  0.0081
   2.2222E-01   2.2763E-01   2.8051E-03  0.0081
   2.2763E-01   2.3317E-01   2.7901E-03  0.0080
   2.3317E-01   2.3884E-01   2.7658E-03  0.0080
   2.3884E-01   2.4465E-01   2.7262E-03  0.0079
   2.4465E-01   2.5061E-01   2.6922E-03  0.0079
   2.5061E-01   2.5670E-01   2.6391E-03  0.0079
   2.5670E-01   2.6295E-01   2.6162E-03  0.0078
   2.6295E-01   2.6935E-01   2.5818E-03  0.0078
   2.6935E-01   2.7590E-01   2.5807E-03  0.0077
   2.7590E-01   2.8261E-01   2.5164E-03  0.0077
   2.8261E-01   2.8949E-01   2.4593E-03  0.0077
   2.8949E-01   2.9653E-01   2.4587E-03  0.0076
   2.9653E-01   3.0375E-01   2.4450E-03  0.0075
   3.0375E-01   3.1114E-01   2.3824E-03  0.0075
   3.1114E-01   3.1871E-01   2.3409E-03  0.0075
   3.1871E-01   3.2646E-01   2.3177E-03  0.0075
   3.2646E-01   3.3441E-01   2.2929E-03  0.0074
   3.3441E-01   3.4254E-01   2.2834E-03  0.0073
   3.4254E-01   3.5088E-01   2.2041E-03  0.0074
   3.5088E-01   3.5941E-01   2.2101E-03  0.0073
   3.5941E-01   3.6816E-01   2.1523E-03  0.0073
   3.6816E-01   3.7712E-01   2.1302E-03  0.0072
   3.7712E-01   3.8629E-01   2.0885E-03  0.0072
   3.8629E-01   3.9569E-01   2.0556E-03  0.0072
   3.9569E-01   4.0532E-01   2.0050E-03  0.0072
   4.0532E-01   4.1518E-01   1.9680E-03  0.0072
   4.1518E-01   4.2528E-01   1.9436E-03  0.0071
   4.2528E-01   4.3563E-01   1.9332E-03  0.0071
   4.3563E-01   4.4623E-01   1.8903E-03  0.0071
   4.4623E-01   4.5708E-01   1.8500E-03  0.0071
   4.5708E-01   4.6821E-01   1.8106E-03  0.0070
   4.6821E-01   4.7960E-01   1.7815E-03  0.0070
   4.7960E-01   4.9127E-01   1.7566E-03  0.0070
   4.9127E-01   5.0322E-01   1.7359E-03  0.0069
   5.0322E-01   5.1546E-01   1.7130E-03  0.0069
   5.1546E-01   5.2800E-01   1.6718E-03  0.0069
   5.2800E-01   5.4085E-01   1.6211E-03  0.0069
   5.4085E-01   5.5401E-01   1.5734E-03  0.0069
   5.5401E-01   5.6749E-01   1.5639E-03  0.0069
   5.6749E-01   5.8130E-01   1.5325E-03  0.0069
   5.8130E-01   5.9544E-01   1.5015E-03  0.0069
   5.9544E-01   6.0993E-01   1.4686E-03  0.0069
   6.0993E-01   6.2477E-01   1.4371E-03  0.0068
   6.2477E-01   6.3997E-01   1.4230E-03  0.0068
   6.3997E-01   6.5554E-01   1.3812E-03  0.0068
   6.5554E-01   6.7149E-01   1.3470E-03  0.0068
   6.7149E-01   6.8783E-01   1.3219E-03  0.0068
   6.8783E-01   7.0456E-01   1.2759E-03  0.0068
   7.0456E-01   7.2171E-01   1.2386E-03  0.0069
   7.2171E-01   7.3927E-01   1.2049E-03  0.0069
   7.3927E-01   7.5725E-01   1.1819E-03  0.0069
   7.5725E-01   7.7568E-01   1.1397E-03  0.0069
   7.7568E-01   7.9455E-01   1.1062E-03  0.0069
   7.9455E-01   8.1388E-01   1.0995E-03  0.0069
   8.1388E-01   8.3368E-01   1.0532E-03  0.0069
   8.3368E-01   8.5397E-01   1.0264E-03  0.0069
   8.5397E-01   8.7475E-01   9.8755E-04  0.0070
   8.7475E-01   8.9603E-01   9.4473E-04  0.0071
   8.9603E-01   9.1783E-01   9.2807E-04  0.0070
   9.1783E-01   9.4016E-01   8.8791E-04  0.0071
   9.4016E-01   9.6304E-01   8.7135E-04  0.0071
   9.6304E-01   9.8647E-01   8.3189E-04  0.0072
   9.8647E-01   1.0105E+00   8.1765E-04  0.0071
   1.0105E+00   1.0351E+00   8.2001E-04  0.0070
   1.0351E+00   1.0602E+00   8.3619E-04  0.0069
   1.0602E+00   1.0860E+00   8.4899E-04  0.0068
   1.0860E+00   1.1125E+00   8.6818E-04  0.0066
   1.1125E+00   1.1395E+00   9.0222E-04  0.0064
   1.1395E+00   1.1673E+00   9.1277E-04  0.0063
   1.1673E+00   1.1957E+00   9.4686E-04  0.0061
   1.1957E+00   1.2247E+00   9.6474E-04  0.0060
   1.2247E+00   1.2545E+00   9.8440E-04  0.0058
   1.2545E+00   1.2851E+00   9.9287E-04  0.0057
   1.2851E+00   1.3163E+00   1.0082E-03  0.0056
   1.3163E+00   1.3484E+00   1.0198E-03  0.0055
   1.3484E+00   1.3812E+00   1.0537E-03  0.0054
   1.3812E+00   1.4148E+00   1.0816E-03  0.0052
   1.4148E+00   1.4492E+00   1.0856E-03  0.0052
   1.4492E+00   1.4845E+00   1.0855E-03  0.0051
   1.4845E+00   1.5206E+00   1.0910E-03  0.0050
   1.5206E+00   1.5576E+00   1.1123E-03  0.0049
   1.5576E+00   1.5955E+00   1.1201E-03  0.0049
   1.5955E+00   1.6343E+00   1.1356E-03  0.0048
   1.6343E+00   1.6741E+00   1.1462E-03  0.0047
   1.6741E+00   1.7148E+00   1.1820E-03  0.0046
   1.7148E+00   1.7565E+00   1.1844E-03  0.0045
   1.7565E+00   1.7992E+00   1.1925E-03  0.0044
   1.7992E+00   1.8430E+00   1.1817E-03  0.0044
   1.8430E+00   1.8879E+00   1.1820E-03  0.0043
   1.8879E+00   1.9338E+00   1.2097E-03  0.0042
   1.9338E+00   1.9808E+00   1.2185E-03  0.0042
   1.9808E+00   2.0290E+00   1.2334E-03  0.0041
   2.0290E+00   2.0784E+00   1.2183E-03  0.0041
   2.0784E+00   2.1290E+00   1.2131E-03  0.0040
   2.1290E+00   2.1808E+00   1.2133E-03  0.0040
   2.1808E+00   2.2338E+00   1.2117E-03  0.0039
   2.2338E+00   2.2882E+00   1.2127E-03  0.0039
   2.2882E+00   2.3439E+00   1.2314E-03  0.0038
   2.3439E+00   2.4009E+00   1.2332E-03  0.0038
   2.4009E+00   2.4593E+00   1.2309E-03  0.0037
   2.4593E+00   2.5191E+00   1.2096E-03  0.0037
   2.5191E+00   2.5804E+00   1.2018E-03  0.0037
   2.5804E+00   2.6432E+00   1.1829E-03  0.0037
   2.6432E+00   2.7075E+00   1.1780E-03  0.0036
   2.7075E+00   2.7734E+00   1.1681E-03  0.0036
   2.7734E+00   2.8409E+00   1.1652E-03  0.0036
   2.8409E+00   2.9100E+00   1.1647E-03  0.0035
   2.9100E+00   2.9808E+00   1.1709E-03  0.0035
   2.9808E+00   3.0533E+00   1.1550E-03  0.0035
   3.0533E+00   3.1276E+00   1.1374E-03  0.0034
   3.1276E+00   3.2037E+00   1.1143E-03  0.0034
   3.2037E+00   3.2817E+00   1.0951E-03  0.0034
   3.2817E+00   3.3615E+00   1.0688E-03  0.0034
   3.3615E+00   3.4433E+00   1.0566E-03  0.0034
   3.4433E+00   3.5271E+00   1.0379E-03  0.0034
   3.5271E+00   3.6129E+00   1.0332E-03  0.0034
   3.6129E+00   3.7008E+00   1.0252E-03  0.0033
   3.7008E+00   3.7908E+00   9.9324E-04  0.0033
   3.7908E+00   3.8831E+00   9.7384E-04  0.0033
   3.8831E+00   3.9776E+00   9.5510E-04  0.0033
   3.9776E+00   4.0743E+00   9.3385E-04  0.0033
   4.0743E+00   4.1735E+00   9.1384E-04  0.0033
   4.1735E+00   4.2750E+00   8.7911E-04  0.0033
   4.2750E+00   4.3790E+00   8.5357E-04  0.0034
   4.3790E+00   4.4856E+00   8.3302E-04  0.0034
   4.4856E+00   4.5947E+00   8.0674E-04  0.0034
   4.5947E+00   4.7065E+00   7.8257E-04  0.0034
   4.7065E+00   4.8210E+00   7.5958E-04  0.0034
   4.8210E+00   4.9383E+00   7.4086E-04  0.0034
   4.9383E+00   5.0585E+00   7.1744E-04  0.0034
   5.0585E+00   5.1815E+00   6.9661E-04  0.0034
   5.1815E+00   5.3076E+00   6.6911E-04  0.0034
   5.3076E+00   5.4368E+00   6.4041E-04  0.0035
   5.4368E+00   5.5690E+00   6.1459E-04  0.0035
   5.5690E+00   5.7045E+00   5.9200E-04  0.0035
   5.7045E+00   5.8433E+00   5.6461E-04  0.0036
   5.8433E+00   5.9855E+00   5.4192E-04  0.0036
   5.9855E+00   6.1311E+00   5.2360E-04  0.0036
   6.1311E+00   6.2803E+00   4.9628E-04  0.0037
   6.2803E+00   6.4331E+00   4.7425E-04  0.0037
   6.4331E+00   6.5896E+00   4.5122E-04  0.0038
   6.5896E+00   6.7500E+00   4.3080E-04  0.0038
   6.7500E+00   6.9142E+00   4.0892E-04  0.0039
   6.9142E+00   7.0824E+00   3.8947E-04  0.0039
   7.0824E+00   7.2548E+00   3.6982E-04  0.0040
   7.2548E+00   7.4313E+00   3.4986E-04  0.0040
   7.4313E+00   7.6121E+00   3.3210E-04  0.0041
   7.6121E+00   7.7973E+00   3.1235E-04  0.0042
   7.7973E+00   7.9870E+00   2.9413E-04  0.0042
   7.9870E+00   8.1813E+00   2.8302E-04  0.0043
   8.1813E+00   8.3804E+00   2.6633E-04  0.0043
   8.3804E+00   8.5843E+00   2.4995E-04  0.0044
   8.5843E+00   8.7931E+00   2.3694E-04  0.0045
   8.7931E+00   9.0071E+00   2.2290E-04  0.0046
   9.0071E+00   9.2262E+00   2.1244E-04  0.0046
   9.2262E+00   9.4507E+00   1.9940E-04  0.0047
   9.4507E+00   9.6807E+00   1.8647E-04  0.0048
   9.6807E+00   9.9162E+00   1.7793E-04  0.0049
   9.9162E+00   1.0157E+01   1.6732E-04  0.0050
   1.0157E+01   1.0405E+01   1.5763E-04  0.0051
   1.0405E+01   1.0658E+01   1.4978E-04  0.0051
   1.0658E+01   1.0917E+01   1.4174E-04  0.0052
   1.0917E+01   1.1183E+01   1.3225E-04  0.0053
   1.1183E+01   1.1455E+01   1.2632E-04  0.0054
   1.1455E+01   1.1733E+01   1.1936E-04  0.0055
   1.1733E+01   1.2019E+01   1.1241E-04  0.0056
   1.2019E+01   1.2311E+01   1.0748E-04  0.0056
   1.2311E+01   1.2611E+01   1.0076E-04  0.0058
   1.2611E+01   1.2918E+01   9.6158E-05  0.0058
   1.2918E+01   1.3232E+01   9.0816E-05  0.0059
   1.3232E+01   1.3554E+01   8.5236E-05  0.0060
   1.3554E+01   1.3884E+01   8.1820E-05  0.0061
   1.3884E+01   1.4222E+01   7.7791E-05  0.0062
   1.4222E+01   1.4568E+01   7.3972E-05  0.0063
   1.4568E+01   1.4922E+01   7.0189E-05  0.0063
   1.4922E+01   1.5285E+01   6.6487E-05  0.0064
   1.5285E+01   1.5657E+01   6.3965E-05  0.0065
   1.5657E+01   1.6038E+01   6.0368E-05  0.0066
   1.6038E+01   1.6428E+01   5.9264E-05  0.0066
   1.6428E+01   1.6828E+01   5.6090E-05  0.0067
   1.6828E+01   1.7237E+01   5.3968E-05  0.0067
   1.7237E+01   1.7657E+01   5.2220E-05  0.0068
   1.7657E+01   1.8086E+01   4.9903E-05  0.0068
   1.8086E+01   1.8526E+01   4.7966E-05  0.0069
   1.8526E+01   1.8977E+01   4.6005E-05  0.0069
   1.8977E+01   1.9439E+01   4.4242E-05  0.0070
   1.9439E+01   1.9912E+01   4.2686E-05  0.0070
   1.9912E+01   2.0396E+01   4.0913E-05  0.0071
   2.0396E+01   2.0893E+01   3.8774E-05  0.0072
   2.0893E+01   2.1401E+01   3.8150E-05  0.0072
   2.1401E+01   2.1922E+01   3.7131E-05  0.0072
   2.1922E+01   2.2455E+01   3.5718E-05  0.0072
   2.2455E+01   2.3001E+01   3.4581E-05  0.0073
   2.3001E+01   2.3561E+01   3.3271E-05  0.0073
   2.3561E+01   2.4134E+01   3.1883E-05  0.0074
   2.4134E+01   2.4721E+01   3.0645E-05  0.0075
   2.4721E+01   2.5323E+01   2.9460E-05  0.0075
   2.5323E+01   2.5939E+01   2.8523E-05  0.0075
   2.5939E+01   2.6570E+01   2.7176E-05  0.0076
   2.6570E+01   2.7217E+01   2.6204E-05  0.0077
   2.7217E+01   2.7879E+01   2.5217E-05  0.0077
   2.7879E+01   2.8557E+01   2.4102E-05  0.0078
   2.8557E+01   2.9252E+01   2.3279E-05  0.0079
   2.9252E+01   2.9964E+01   2.2142E-05  0.0080
   2.9964E+01   3.0693E+01   2.1233E-05  0.0080
   3.0693E+01   3.1440E+01   2.0046E-05  0.0082
   3.1440E+01   3.2205E+01   1.9424E-05  0.0082
   3.2205E+01   3.2988E+01   1.8462E-05  0.0083
   3.2988E+01   3.3791E+01   1.7524E-05  0.0084
   3.3791E+01   3.4613E+01   1.6895E-05  0.0085
   3.4613E+01   3.5455E+01   1.5627E-05  0.0087
   3.5455E+01   3.6318E+01   1.4832E-05  0.0088
   3.6318E+01   3.7201E+01   1.3733E-05  0.0091
   3.7201E+01   3.8106E+01   1.2991E-05  0.0092
   3.8106E+01   3.9034E+01   1.2097E-05  0.0094
   3.9034E+01   3.9983E+01   1.1372E-05  0.0096
   3.9983E+01   4.0956E+01   1.0720E-05  0.0098
   4.0956E+01   4.1953E+01   9.8646E-06  0.0101
   4.1953E+01   4.2973E+01   9.2110E-06  0.0103
   4.2973E+01   4.4019E+01   8.7320E-06  0.0105
   4.4019E+01   4.5090E+01   7.9737E-06  0.0108
   4.5090E+01   4.6187E+01   7.2529E-06  0.0112
   4.6187E+01   4.7311E+01   6.6508E-06  0.0116
   4.7311E+01   4.8462E+01   6.1454E-06  0.0119
   4.8462E+01   4.9641E+01   5.5024E-06  0.0124
   4.9641E+01   5.0849E+01   5.2119E-06  0.0126
   5.0849E+01   5.2086E+01   4.6040E-06  0.0132
   5.2086E+01   5.3353E+01   4.2121E-06  0.0137
   5.3353E+01   5.4651E+01   3.8317E-06  0.0142
   5.4651E+01   5.5981E+01   3.4632E-06  0.0147
   5.5981E+01   5.7343E+01   3.0439E-06  0.0155
   5.7343E+01   5.8738E+01   2.7179E-06  0.0162
   5.8738E+01   6.0168E+01   2.4119E-06  0.0170
   6.0168E+01   6.1632E+01   2.1989E-06  0.0176
   6.1632E+01   6.3131E+01   1.9793E-06  0.0184
   6.3131E+01   6.4667E+01   1.6998E-06  0.0196
   6.4667E+01   6.6240E+01   1.4453E-06  0.0210
   6.6240E+01   6.7852E+01   1.2862E-06  0.0220
   6.7852E+01   6.9503E+01   1.1854E-06  0.0226
   6.9503E+01   7.1194E+01   9.8400E-07  0.0245
   7.1194E+01   7.2926E+01   8.0360E-07  0.0268
   7.2926E+01   7.4701E+01   7.5126E-07  0.0274
   7.4701E+01   7.6518E+01   6.3053E-07  0.0295
   7.6518E+01   7.8380E+01   5.1564E-07  0.0323
   7.8380E+01   8.0287E+01   4.7560E-07  0.0332
   8.0287E+01   8.2240E+01   3.8291E-07  0.0366
   8.2240E+01   8.4241E+01   2.9985E-07  0.0408
   8.4241E+01   8.6291E+01   2.5565E-07  0.0437
   8.6291E+01   8.8391E+01   2.0814E-07  0.0478
   8.8391E+01   9.0541E+01   1.6507E-07  0.0531
   9.0541E+01   9.2744E+01   1.2801E-07  0.0595
   9.2744E+01   9.5001E+01   1.1035E-07  0.0634
   9.5001E+01   9.7312E+01   8.9122E-08  0.0697
   9.7312E+01   9.9680E+01   6.7999E-08  0.0788
   9.9680E+01   1.0211E+02   6.1024E-08  0.0822
   1.0211E+02   1.0459E+02   4.3473E-08  0.0962
   1.0459E+02   1.0713E+02   4.0083E-08  0.0990
   1.0713E+02   1.0974E+02   2.3018E-08  0.1291
   1.0974E+02   1.1241E+02   1.5355E-08  0.1562
   1.1241E+02   1.1515E+02   1.7550E-08  0.1443
   1.1515E+02   1.1795E+02   1.2136E-08  0.1715
   1.1795E+02   1.2082E+02   7.6662E-09  0.2132
   1.2082E+02   1.2376E+02   9.1850E-09  0.1925
   1.2376E+02   1.2677E+02   2.9889E-09  0.3333
   1.2677E+02   1.2985E+02   4.5390E-09  0.2673
   1.2985E+02   1.3301E+02   3.1651E-09  0.3162
   1.3301E+02   1.3625E+02   1.5450E-09  0.4472
   1.3625E+02   1.3956E+02   1.8099E-09  0.4082
   1.3956E+02   1.4296E+02   2.9449E-10  1.0000
   1.4296E+02   1.4644E+02   0.0000E+00  0.0000
   1.4644E+02   1.5000E+02   5.6134E-10  0.7071

#   sum over                 6.3382E-05
'no. =    1   reg = 115 - 215'
msuc: {\huge [t-cross] in region mesh}
msdr: {\it plotted by \ANGEL \version}
msdl: {\it calculated by \PHITS  3.26}
wt: s(0.7)
\vspace{-3}
  region surface crossing
  area  &=&   1.0000E+00 [cm^2]
e:
 
# Information for Restart Calculation
# This calculation was newly started
# istdev =  2 # 1:Batch variance, 2:History variance
# resc2  = 1.00000000000000000E+09 # Total source weight or Total source weight / maxcas
# resc3  = 1.00000000000000000E+09 # Total history number or Total batch number
# maxcas =   500000000 # History / Batch, only used for istdev=1
# bitrseed = 0001001110011001001001110000100100110111001111011100001000101100 # bit data of rseed
