0 <--- number of remaining batches 

-------------------------------------------------------------------------------
bat[      10] ncas =     5000000000.
 bitrseed = 0001011101011011011000011100010110101100100111100111010011101011
          cpu time =   6 h. 25 m. 32.29 s.

 date = 2022-05-21
 time = 08h 08m 11s

