[ T-Cross ]
    title = [t-cross] in region mesh
     mesh =  reg            # mesh type is region-wise
      reg =    1            # number of crossing regions
      non     r-from    r-to       area
      1       104       204        1.000000    
   e-type =    3            # e-mesh is log given by emin, emax and ne
     emin =  1.0000000E-02  # minimum value of e-mesh points
     emax =   150.0000      # maximum value of e-mesh points
#    edel =  2.4039514E-02  # mesh width of e-mesh points
       ne =    400          # number of e-mesh points
#    data = ( e(i), i = 1, ne + 1 )
#           1.00000E-02  1.02433E-02  1.04925E-02  1.07478E-02  1.10093E-02
#           1.12772E-02  1.15516E-02  1.18326E-02  1.21205E-02  1.24154E-02
#           1.27175E-02  1.30269E-02  1.33439E-02  1.36686E-02  1.40011E-02
#           1.43418E-02  1.46907E-02  1.50482E-02  1.54143E-02  1.57894E-02
#           1.61735E-02  1.65670E-02  1.69701E-02  1.73830E-02  1.78060E-02
#           1.82392E-02  1.86830E-02  1.91375E-02  1.96032E-02  2.00801E-02
#           2.05687E-02  2.10692E-02  2.15818E-02  2.21069E-02  2.26448E-02
#           2.31957E-02  2.37601E-02  2.43382E-02  2.49304E-02  2.55369E-02
#           2.61583E-02  2.67947E-02  2.74467E-02  2.81145E-02  2.87985E-02
#           2.94992E-02  3.02169E-02  3.09521E-02  3.17052E-02  3.24766E-02
#           3.32668E-02  3.40762E-02  3.49053E-02  3.57546E-02  3.66246E-02
#           3.75157E-02  3.84284E-02  3.93634E-02  4.03212E-02  4.13022E-02
#           4.23071E-02  4.33365E-02  4.43909E-02  4.54710E-02  4.65773E-02
#           4.77106E-02  4.88714E-02  5.00605E-02  5.12785E-02  5.25262E-02
#           5.38042E-02  5.51133E-02  5.64542E-02  5.78278E-02  5.92348E-02
#           6.06760E-02  6.21523E-02  6.36645E-02  6.52135E-02  6.68002E-02
#           6.84255E-02  7.00904E-02  7.17957E-02  7.35426E-02  7.53319E-02
#           7.71648E-02  7.90423E-02  8.09655E-02  8.29354E-02  8.49533E-02
#           8.70203E-02  8.91376E-02  9.13064E-02  9.35279E-02  9.58035E-02
#           9.81345E-02  1.00522E-01  1.02968E-01  1.05473E-01  1.08040E-01
#           1.10668E-01  1.13361E-01  1.16119E-01  1.18944E-01  1.21838E-01
#           1.24803E-01  1.27839E-01  1.30950E-01  1.34136E-01  1.37399E-01
#           1.40742E-01  1.44167E-01  1.47675E-01  1.51268E-01  1.54948E-01
#           1.58718E-01  1.62580E-01  1.66535E-01  1.70587E-01  1.74738E-01
#           1.78989E-01  1.83344E-01  1.87805E-01  1.92375E-01  1.97055E-01
#           2.01850E-01  2.06761E-01  2.11792E-01  2.16945E-01  2.22223E-01
#           2.27630E-01  2.33169E-01  2.38842E-01  2.44653E-01  2.50605E-01
#           2.56703E-01  2.62949E-01  2.69346E-01  2.75900E-01  2.82613E-01
#           2.89489E-01  2.96532E-01  3.03747E-01  3.11138E-01  3.18708E-01
#           3.26462E-01  3.34405E-01  3.42542E-01  3.50876E-01  3.59413E-01
#           3.68158E-01  3.77116E-01  3.86291E-01  3.95690E-01  4.05317E-01
#           4.15179E-01  4.25281E-01  4.35628E-01  4.46227E-01  4.57084E-01
#           4.68205E-01  4.79597E-01  4.91266E-01  5.03219E-01  5.15463E-01
#           5.28005E-01  5.40851E-01  5.54011E-01  5.67490E-01  5.81298E-01
#           5.95441E-01  6.09929E-01  6.24769E-01  6.39970E-01  6.55541E-01
#           6.71491E-01  6.87828E-01  7.04564E-01  7.21706E-01  7.39266E-01
#           7.57253E-01  7.75678E-01  7.94551E-01  8.13883E-01  8.33685E-01
#           8.53969E-01  8.74747E-01  8.96030E-01  9.17831E-01  9.40163E-01
#           9.63038E-01  9.86469E-01  1.01047E+00  1.03506E+00  1.06024E+00
#           1.08604E+00  1.11246E+00  1.13953E+00  1.16725E+00  1.19565E+00
#           1.22474E+00  1.25454E+00  1.28507E+00  1.31633E+00  1.34836E+00
#           1.38117E+00  1.41477E+00  1.44920E+00  1.48446E+00  1.52057E+00
#           1.55757E+00  1.59547E+00  1.63429E+00  1.67405E+00  1.71478E+00
#           1.75650E+00  1.79924E+00  1.84302E+00  1.88786E+00  1.93379E+00
#           1.98084E+00  2.02904E+00  2.07841E+00  2.12898E+00  2.18078E+00
#           2.23384E+00  2.28819E+00  2.34386E+00  2.40089E+00  2.45930E+00
#           2.51914E+00  2.58043E+00  2.64322E+00  2.70753E+00  2.77341E+00
#           2.84088E+00  2.91001E+00  2.98081E+00  3.05333E+00  3.12762E+00
#           3.20372E+00  3.28167E+00  3.36152E+00  3.44330E+00  3.52708E+00
#           3.61290E+00  3.70080E+00  3.79085E+00  3.88308E+00  3.97756E+00
#           4.07434E+00  4.17347E+00  4.27501E+00  4.37903E+00  4.48557E+00
#           4.59471E+00  4.70650E+00  4.82102E+00  4.93832E+00  5.05847E+00
#           5.18155E+00  5.30762E+00  5.43676E+00  5.56904E+00  5.70453E+00
#           5.84333E+00  5.98550E+00  6.13114E+00  6.28031E+00  6.43312E+00
#           6.58964E+00  6.74997E+00  6.91420E+00  7.08243E+00  7.25475E+00
#           7.43126E+00  7.61207E+00  7.79728E+00  7.98700E+00  8.18133E+00
#           8.38038E+00  8.58428E+00  8.79315E+00  9.00709E+00  9.22624E+00
#           9.45072E+00  9.68067E+00  9.91620E+00  1.01575E+01  1.04046E+01
#           1.06578E+01  1.09171E+01  1.11827E+01  1.14548E+01  1.17335E+01
#           1.20190E+01  1.23114E+01  1.26109E+01  1.29178E+01  1.32321E+01
#           1.35540E+01  1.38838E+01  1.42216E+01  1.45676E+01  1.49221E+01
#           1.52851E+01  1.56570E+01  1.60380E+01  1.64282E+01  1.68279E+01
#           1.72374E+01  1.76568E+01  1.80864E+01  1.85264E+01  1.89772E+01
#           1.94389E+01  1.99119E+01  2.03963E+01  2.08926E+01  2.14009E+01
#           2.19216E+01  2.24550E+01  2.30014E+01  2.35610E+01  2.41343E+01
#           2.47215E+01  2.53230E+01  2.59391E+01  2.65702E+01  2.72167E+01
#           2.78789E+01  2.85572E+01  2.92520E+01  2.99637E+01  3.06928E+01
#           3.14396E+01  3.22045E+01  3.29881E+01  3.37907E+01  3.46128E+01
#           3.54550E+01  3.63177E+01  3.72013E+01  3.81064E+01  3.90336E+01
#           3.99833E+01  4.09561E+01  4.19526E+01  4.29734E+01  4.40189E+01
#           4.50900E+01  4.61870E+01  4.73108E+01  4.84619E+01  4.96410E+01
#           5.08488E+01  5.20860E+01  5.33533E+01  5.46514E+01  5.59812E+01
#           5.73432E+01  5.87384E+01  6.01676E+01  6.16315E+01  6.31311E+01
#           6.46671E+01  6.62405E+01  6.78522E+01  6.95031E+01  7.11941E+01
#           7.29263E+01  7.47007E+01  7.65182E+01  7.83800E+01  8.02870E+01
#           8.22405E+01  8.42414E+01  8.62911E+01  8.83906E+01  9.05412E+01
#           9.27442E+01  9.50007E+01  9.73122E+01  9.96799E+01  1.02105E+02
#           1.04589E+02  1.07134E+02  1.09741E+02  1.12411E+02  1.15146E+02
#           1.17948E+02  1.20817E+02  1.23757E+02  1.26768E+02  1.29852E+02
#           1.33012E+02  1.36248E+02  1.39563E+02  1.42959E+02  1.46437E+02
#           1.50000E+02
     unit =    2            # unit is [1/cm^2/(MeV/n)/source]
     axis =  eng            # axis of output
     file = detector-05.out  # file name of output for the above axis
   output = f-curr          # surface crossing forward current spectrum
     part =  neutron  
# kf/name :  2112     
#    used :        main (  %)        temp (  %)       total (  %)
#  memory :         414 (  0)           0 (  0)         414 (  0)

#------------------------------------------------------------------------------
#newpage:
#   no. =    1   reg = 104 - 204

x: Energy [MeV/n]
y:  F-Curr [1/cm^2/(MeV/n)/source]         
p: xlog ylog afac(0.8) form(0.9)
h: n            x            y(neutron ),hh0l   n 
#  e-lower      e-upper      neutron     r.err 
   1.0000E-02   1.0243E-02   5.7540E-05  0.2673
   1.0243E-02   1.0493E-02   8.0248E-05  0.2236
   1.0493E-02   1.0748E-02   1.0184E-04  0.1961
   1.0748E-02   1.1009E-02   6.8833E-05  0.2357
   1.1009E-02   1.1277E-02   5.5998E-05  0.2582
   1.1277E-02   1.1552E-02   6.1957E-05  0.2425
   1.1552E-02   1.1833E-02   6.4043E-05  0.2357
   1.1833E-02   1.2121E-02   6.2522E-05  0.2357
   1.2121E-02   1.2415E-02   7.4601E-05  0.2132
   1.2415E-02   1.2718E-02   7.0234E-05  0.2162
   1.2718E-02   1.3027E-02   8.7258E-05  0.1925
   1.3027E-02   1.3344E-02   4.7325E-05  0.2582
   1.3344E-02   1.3669E-02   3.3881E-05  0.3015
   1.3669E-02   1.4001E-02   6.0138E-05  0.2236
   1.4001E-02   1.4342E-02   5.8710E-05  0.2236
   1.4342E-02   1.4691E-02   7.4510E-05  0.1961
   1.4691E-02   1.5048E-02   5.3156E-05  0.2294
   1.5048E-02   1.5414E-02   3.0044E-05  0.3015
   1.5414E-02   1.5789E-02   6.9325E-05  0.1961
   1.5789E-02   1.6174E-02   7.0282E-05  0.1925
   1.6174E-02   1.6567E-02   3.8118E-05  0.2582
   1.6567E-02   1.6970E-02   6.8223E-05  0.1898
   1.6970E-02   1.7383E-02   6.0548E-05  0.2000
   1.7383E-02   1.7806E-02   5.2017E-05  0.2132
   1.7806E-02   1.8239E-02   5.7706E-05  0.2000
   1.8239E-02   1.8683E-02   4.9575E-05  0.2132
   1.8683E-02   1.9138E-02   5.0597E-05  0.2085
   1.9138E-02   1.9603E-02   5.0469E-05  0.2052
   1.9603E-02   2.0080E-02   6.4995E-05  0.1796
   2.0080E-02   2.0569E-02   7.3685E-05  0.1667
   2.0569E-02   2.1069E-02   5.5949E-05  0.1890
   2.1069E-02   2.1582E-02   6.4374E-05  0.1741
   2.1582E-02   2.2107E-02   7.0463E-05  0.1644
   2.2107E-02   2.2645E-02   4.8638E-05  0.1950
   2.2645E-02   2.3196E-02   5.2635E-05  0.1857
   2.3196E-02   2.3760E-02   4.7841E-05  0.1925
   2.3760E-02   2.4338E-02   5.8813E-05  0.1715
   2.4338E-02   2.4930E-02   5.9616E-05  0.1677
   2.4930E-02   2.5537E-02   4.7809E-05  0.1857
   2.5537E-02   2.6158E-02   3.8627E-05  0.2041
   2.6158E-02   2.6795E-02   4.7369E-05  0.1817
   2.6795E-02   2.7447E-02   4.6017E-05  0.1826
   2.7447E-02   2.8114E-02   3.7679E-05  0.1988
   2.8114E-02   2.8799E-02   4.8242E-05  0.1741
   2.8799E-02   2.9499E-02   5.0187E-05  0.1683
   2.9499E-02   3.0217E-02   4.7371E-05  0.1715
   3.0217E-02   3.0952E-02   4.3525E-05  0.1768
   3.0952E-02   3.1705E-02   4.5343E-05  0.1708
   3.1705E-02   3.2477E-02   4.1482E-05  0.1768
   3.2477E-02   3.3267E-02   6.0745E-05  0.1443
   3.3267E-02   3.4076E-02   4.2006E-05  0.1715
   3.4076E-02   3.4905E-02   4.7839E-05  0.1580
   3.4905E-02   3.5755E-02   4.4744E-05  0.1622
   3.5755E-02   3.6625E-02   4.5980E-05  0.1581
   3.6625E-02   3.7516E-02   4.9377E-05  0.1508
   3.7516E-02   3.8428E-02   4.0755E-05  0.1636
   3.8428E-02   3.9363E-02   3.7433E-05  0.1690
   3.9363E-02   4.0321E-02   3.9677E-05  0.1622
   4.0321E-02   4.1302E-02   4.4850E-05  0.1508
   4.1302E-02   4.2307E-02   3.6985E-05  0.1637
   4.2307E-02   4.3337E-02   4.2882E-05  0.1503
   4.3337E-02   4.4391E-02   5.3110E-05  0.1336
   4.4391E-02   4.5471E-02   5.4626E-05  0.1302
   4.5471E-02   4.6577E-02   3.9771E-05  0.1508
   4.6577E-02   4.7711E-02   4.6768E-05  0.1374
   4.7711E-02   4.8871E-02   3.4590E-05  0.1576
   4.8871E-02   5.0061E-02   3.7844E-05  0.1491
   5.0061E-02   5.1279E-02   4.1051E-05  0.1414
   5.1279E-02   5.2526E-02   5.2900E-05  0.1231
   5.2526E-02   5.3804E-02   4.3818E-05  0.1336
   5.3804E-02   5.5113E-02   4.5069E-05  0.1302
   5.5113E-02   5.6454E-02   4.3253E-05  0.1313
   5.6454E-02   5.7828E-02   3.8585E-05  0.1374
   5.7828E-02   5.9235E-02   4.5250E-05  0.1249
   5.9235E-02   6.0676E-02   3.3652E-05  0.1432
   6.0676E-02   6.2152E-02   2.9127E-05  0.1525
   6.2152E-02   6.3665E-02   2.7774E-05  0.1543
   6.3665E-02   6.5214E-02   4.5190E-05  0.1195
   6.5214E-02   6.6800E-02   3.8445E-05  0.1280
   6.6800E-02   6.8426E-02   3.1994E-05  0.1387
   6.8426E-02   7.0090E-02   3.8442E-05  0.1250
   7.0090E-02   7.1796E-02   3.8408E-05  0.1233
   7.1796E-02   7.3543E-02   4.0155E-05  0.1193
   7.3543E-02   7.5332E-02   2.2913E-05  0.1562
   7.5332E-02   7.7165E-02   3.1917E-05  0.1305
   7.7165E-02   7.9042E-02   3.7018E-05  0.1197
   7.9042E-02   8.0965E-02   3.3361E-05  0.1242
   8.0965E-02   8.2935E-02   2.4366E-05  0.1443
   8.2935E-02   8.4953E-02   3.1221E-05  0.1260
   8.4953E-02   8.7020E-02   3.2898E-05  0.1213
   8.7020E-02   8.9138E-02   2.5505E-05  0.1361
   8.9138E-02   9.1306E-02   3.7900E-05  0.1102
   9.1306E-02   9.3528E-02   2.9259E-05  0.1240
   9.3528E-02   9.5804E-02   2.6586E-05  0.1283
   9.5804E-02   9.8134E-02   3.0888E-05  0.1179
   9.8134E-02   1.0052E-01   3.0573E-05  0.1170
   1.0052E-01   1.0297E-01   2.3919E-05  0.1305
   1.0297E-01   1.0547E-01   2.2951E-05  0.1316
   1.0547E-01   1.0804E-01   2.7667E-05  0.1187
   1.0804E-01   1.1067E-01   2.4347E-05  0.1250
   1.1067E-01   1.1336E-01   2.6368E-05  0.1187
   1.1336E-01   1.1612E-01   2.1391E-05  0.1302
   1.1612E-01   1.1894E-01   1.9290E-05  0.1351
   1.1894E-01   1.2184E-01   2.4077E-05  0.1195
   1.2184E-01   1.2480E-01   2.6312E-05  0.1132
   1.2480E-01   1.2784E-01   1.9759E-05  0.1291
   1.2784E-01   1.3095E-01   2.4434E-05  0.1147
   1.3095E-01   1.3414E-01   2.1029E-05  0.1222
   1.3414E-01   1.3740E-01   1.8746E-05  0.1277
   1.3740E-01   1.4074E-01   2.0341E-05  0.1213
   1.4074E-01   1.4417E-01   2.2048E-05  0.1149
   1.4417E-01   1.4767E-01   2.0241E-05  0.1187
   1.4767E-01   1.5127E-01   2.1987E-05  0.1125
   1.5127E-01   1.5495E-01   2.1057E-05  0.1134
   1.5495E-01   1.5872E-01   1.4324E-05  0.1361
   1.5872E-01   1.6258E-01   1.8127E-05  0.1195
   1.6258E-01   1.6654E-01   1.6179E-05  0.1250
   1.6654E-01   1.7059E-01   1.1846E-05  0.1443
   1.7059E-01   1.7474E-01   1.5661E-05  0.1240
   1.7474E-01   1.7899E-01   1.5053E-05  0.1250
   1.7899E-01   1.8334E-01   1.6303E-05  0.1183
   1.8334E-01   1.8781E-01   1.2105E-05  0.1361
   1.8781E-01   1.9237E-01   1.4476E-05  0.1228
   1.9237E-01   1.9706E-01   1.3460E-05  0.1260
   1.9706E-01   2.0185E-01   1.3244E-05  0.1252
   2.0185E-01   2.0676E-01   1.4385E-05  0.1187
   2.0676E-01   2.1179E-01   1.3318E-05  0.1222
   2.1179E-01   2.1694E-01   1.5357E-05  0.1123
   2.1694E-01   2.2222E-01   1.5156E-05  0.1118
   2.2222E-01   2.2763E-01   1.6183E-05  0.1068
   2.2763E-01   2.3317E-01   1.5552E-05  0.1077
   2.3317E-01   2.3884E-01   1.5537E-05  0.1064
   2.3884E-01   2.4465E-01   1.6040E-05  0.1035
   2.4465E-01   2.5061E-01   2.0495E-05  0.0904
   2.5061E-01   2.5670E-01   1.7712E-05  0.0962
   2.5670E-01   2.6295E-01   1.7797E-05  0.0948
   2.6295E-01   2.6935E-01   1.7526E-05  0.0944
   2.6935E-01   2.7590E-01   1.6883E-05  0.0949
   2.7590E-01   2.8261E-01   1.9515E-05  0.0874
   2.8261E-01   2.8949E-01   1.8327E-05  0.0888
   2.8949E-01   2.9653E-01   1.9470E-05  0.0854
   2.9653E-01   3.0375E-01   2.0582E-05  0.0820
   3.0375E-01   3.1114E-01   2.2090E-05  0.0782
   3.1114E-01   3.1871E-01   2.0669E-05  0.0798
   3.1871E-01   3.2646E-01   2.1876E-05  0.0767
   3.2646E-01   3.3441E-01   1.9785E-05  0.0797
   3.3441E-01   3.4254E-01   2.1742E-05  0.0751
   3.4254E-01   3.5088E-01   1.9574E-05  0.0783
   3.5088E-01   3.5941E-01   2.3603E-05  0.0704
   3.5941E-01   3.6816E-01   2.2470E-05  0.0713
   3.6816E-01   3.7712E-01   2.1140E-05  0.0726
   3.7712E-01   3.8629E-01   2.1213E-05  0.0715
   3.8629E-01   3.9569E-01   2.1260E-05  0.0707
   3.9569E-01   4.0532E-01   2.3697E-05  0.0661
   4.0532E-01   4.1518E-01   2.2461E-05  0.0671
   4.1518E-01   4.2528E-01   2.2952E-05  0.0656
   4.2528E-01   4.3563E-01   2.1986E-05  0.0663
   4.3563E-01   4.4623E-01   2.4357E-05  0.0622
   4.4623E-01   4.5708E-01   2.4362E-05  0.0615
   4.5708E-01   4.6821E-01   2.2547E-05  0.0631
   4.6821E-01   4.7960E-01   2.7355E-05  0.0566
   4.7960E-01   4.9127E-01   2.2924E-05  0.0611
   4.9127E-01   5.0322E-01   2.6796E-05  0.0558
   5.0322E-01   5.1546E-01   2.5891E-05  0.0562
   5.1546E-01   5.2800E-01   2.7083E-05  0.0542
   5.2800E-01   5.4085E-01   2.5465E-05  0.0552
   5.4085E-01   5.5401E-01   2.7253E-05  0.0528
   5.5401E-01   5.6749E-01   2.3909E-05  0.0556
   5.6749E-01   5.8130E-01   2.6796E-05  0.0519
   5.8130E-01   5.9544E-01   2.5267E-05  0.0529
   5.9544E-01   6.0993E-01   2.5999E-05  0.0515
   6.0993E-01   6.2477E-01   2.6891E-05  0.0500
   6.2477E-01   6.3997E-01   2.4269E-05  0.0520
   6.3997E-01   6.5554E-01   2.6951E-05  0.0487
   6.5554E-01   6.7149E-01   2.9728E-05  0.0459
   6.7149E-01   6.8783E-01   2.5597E-05  0.0489
   6.8783E-01   7.0456E-01   2.8003E-05  0.0462
   7.0456E-01   7.2171E-01   2.8846E-05  0.0450
   7.2171E-01   7.3927E-01   2.7808E-05  0.0452
   7.3927E-01   7.5725E-01   2.7947E-05  0.0446
   7.5725E-01   7.7568E-01   2.8611E-05  0.0435
   7.7568E-01   7.9455E-01   2.7391E-05  0.0439
   7.9455E-01   8.1388E-01   2.6648E-05  0.0440
   8.1388E-01   8.3368E-01   2.8227E-05  0.0423
   8.3368E-01   8.5397E-01   3.0322E-05  0.0403
   8.5397E-01   8.7475E-01   2.8981E-05  0.0407
   8.7475E-01   8.9603E-01   2.7719E-05  0.0411
   8.9603E-01   9.1783E-01   2.8933E-05  0.0398
   9.1783E-01   9.4016E-01   2.8103E-05  0.0399
   9.4016E-01   9.6304E-01   2.8814E-05  0.0389
   9.6304E-01   9.8647E-01   2.7949E-05  0.0391
   9.8647E-01   1.0105E+00   2.5986E-05  0.0400
   1.0105E+00   1.0351E+00   2.7034E-05  0.0387
   1.0351E+00   1.0602E+00   2.7793E-05  0.0378
   1.0602E+00   1.0860E+00   2.6798E-05  0.0380
   1.0860E+00   1.1125E+00   2.6094E-05  0.0380
   1.1125E+00   1.1395E+00   2.7696E-05  0.0365
   1.1395E+00   1.1673E+00   2.7967E-05  0.0359
   1.1673E+00   1.1957E+00   2.7788E-05  0.0356
   1.1957E+00   1.2247E+00   2.6670E-05  0.0359
   1.2247E+00   1.2545E+00   2.8352E-05  0.0344
   1.2545E+00   1.2851E+00   2.7070E-05  0.0348
   1.2851E+00   1.3163E+00   2.8907E-05  0.0332
   1.3163E+00   1.3484E+00   3.0077E-05  0.0322
   1.3484E+00   1.3812E+00   2.7753E-05  0.0331
   1.3812E+00   1.4148E+00   2.8457E-05  0.0323
   1.4148E+00   1.4492E+00   3.0043E-05  0.0311
   1.4492E+00   1.4845E+00   2.9091E-05  0.0312
   1.4845E+00   1.5206E+00   3.0003E-05  0.0303
   1.5206E+00   1.5576E+00   2.8394E-05  0.0308
   1.5576E+00   1.5955E+00   3.1064E-05  0.0291
   1.5955E+00   1.6343E+00   3.0742E-05  0.0289
   1.6343E+00   1.6741E+00   3.1150E-05  0.0284
   1.6741E+00   1.7148E+00   3.0882E-05  0.0282
   1.7148E+00   1.7565E+00   3.3712E-05  0.0266
   1.7565E+00   1.7992E+00   3.1095E-05  0.0274
   1.7992E+00   1.8430E+00   3.3392E-05  0.0261
   1.8430E+00   1.8879E+00   3.2685E-05  0.0261
   1.8879E+00   1.9338E+00   3.5022E-05  0.0249
   1.9338E+00   1.9808E+00   3.3934E-05  0.0250
   1.9808E+00   2.0290E+00   3.2838E-05  0.0251
   2.0290E+00   2.0784E+00   3.4204E-05  0.0243
   2.0784E+00   2.1290E+00   3.5276E-05  0.0237
   2.1290E+00   2.1808E+00   3.5278E-05  0.0234
   2.1808E+00   2.2338E+00   3.6442E-05  0.0227
   2.2338E+00   2.2882E+00   3.8633E-05  0.0218
   2.2882E+00   2.3439E+00   3.6927E-05  0.0220
   2.3439E+00   2.4009E+00   3.8534E-05  0.0213
   2.4009E+00   2.4593E+00   3.8666E-05  0.0210
   2.4593E+00   2.5191E+00   3.7052E-05  0.0212
   2.5191E+00   2.5804E+00   3.8151E-05  0.0207
   2.5804E+00   2.6432E+00   3.8199E-05  0.0204
   2.6432E+00   2.7075E+00   3.9381E-05  0.0199
   2.7075E+00   2.7734E+00   3.9914E-05  0.0195
   2.7734E+00   2.8409E+00   3.9503E-05  0.0193
   2.8409E+00   2.9100E+00   4.1011E-05  0.0188
   2.9100E+00   2.9808E+00   4.2130E-05  0.0183
   2.9808E+00   3.0533E+00   4.2579E-05  0.0180
   3.0533E+00   3.1276E+00   4.1850E-05  0.0179
   3.1276E+00   3.2037E+00   4.0734E-05  0.0180
   3.2037E+00   3.2817E+00   4.1378E-05  0.0176
   3.2817E+00   3.3615E+00   4.3516E-05  0.0170
   3.3615E+00   3.4433E+00   4.3351E-05  0.0168
   3.4433E+00   3.5271E+00   4.4550E-05  0.0164
   3.5271E+00   3.6129E+00   4.4607E-05  0.0162
   3.6129E+00   3.7008E+00   4.5077E-05  0.0159
   3.7008E+00   3.7908E+00   4.5710E-05  0.0156
   3.7908E+00   3.8831E+00   4.6152E-05  0.0153
   3.8831E+00   3.9776E+00   4.7861E-05  0.0149
   3.9776E+00   4.0743E+00   4.7624E-05  0.0147
   4.0743E+00   4.1735E+00   4.7194E-05  0.0146
   4.1735E+00   4.2750E+00   4.7031E-05  0.0145
   4.2750E+00   4.3790E+00   4.8264E-05  0.0141
   4.3790E+00   4.4856E+00   4.6674E-05  0.0142
   4.4856E+00   4.5947E+00   4.8291E-05  0.0138
   4.5947E+00   4.7065E+00   4.8552E-05  0.0136
   4.7065E+00   4.8210E+00   5.0336E-05  0.0132
   4.8210E+00   4.9383E+00   5.0490E-05  0.0130
   4.9383E+00   5.0585E+00   4.9746E-05  0.0129
   5.0585E+00   5.1815E+00   5.0767E-05  0.0126
   5.1815E+00   5.3076E+00   5.1293E-05  0.0124
   5.3076E+00   5.4368E+00   5.0734E-05  0.0124
   5.4368E+00   5.5690E+00   5.1786E-05  0.0121
   5.5690E+00   5.7045E+00   5.0932E-05  0.0120
   5.7045E+00   5.8433E+00   5.0705E-05  0.0119
   5.8433E+00   5.9855E+00   5.1671E-05  0.0117
   5.9855E+00   6.1311E+00   5.2165E-05  0.0115
   6.1311E+00   6.2803E+00   5.2797E-05  0.0113
   6.2803E+00   6.4331E+00   5.1410E-05  0.0113
   6.4331E+00   6.5896E+00   5.1493E-05  0.0111
   6.5896E+00   6.7500E+00   5.1000E-05  0.0111
   6.7500E+00   6.9142E+00   5.0714E-05  0.0110
   6.9142E+00   7.0824E+00   5.1200E-05  0.0108
   7.0824E+00   7.2548E+00   5.0470E-05  0.0107
   7.2548E+00   7.4313E+00   5.0196E-05  0.0106
   7.4313E+00   7.6121E+00   4.8297E-05  0.0107
   7.6121E+00   7.7973E+00   4.8430E-05  0.0106
   7.7973E+00   7.9870E+00   4.8203E-05  0.0105
   7.9870E+00   8.1813E+00   4.6732E-05  0.0105
   8.1813E+00   8.3804E+00   4.5979E-05  0.0105
   8.3804E+00   8.5843E+00   4.4541E-05  0.0105
   8.5843E+00   8.7931E+00   4.3833E-05  0.0104
   8.7931E+00   9.0071E+00   4.2914E-05  0.0104
   9.0071E+00   9.2262E+00   4.2232E-05  0.0104
   9.2262E+00   9.4507E+00   4.0194E-05  0.0105
   9.4507E+00   9.6807E+00   3.9202E-05  0.0105
   9.6807E+00   9.9162E+00   3.8368E-05  0.0105
   9.9162E+00   1.0157E+01   3.7178E-05  0.0106
   1.0157E+01   1.0405E+01   3.5887E-05  0.0106
   1.0405E+01   1.0658E+01   3.3903E-05  0.0108
   1.0658E+01   1.0917E+01   3.2546E-05  0.0109
   1.0917E+01   1.1183E+01   3.2080E-05  0.0108
   1.1183E+01   1.1455E+01   3.0074E-05  0.0111
   1.1455E+01   1.1733E+01   2.9652E-05  0.0110
   1.1733E+01   1.2019E+01   2.7367E-05  0.0113
   1.2019E+01   1.2311E+01   2.6098E-05  0.0114
   1.2311E+01   1.2611E+01   2.5099E-05  0.0115
   1.2611E+01   1.2918E+01   2.3143E-05  0.0119
   1.2918E+01   1.3232E+01   2.2267E-05  0.0120
   1.3232E+01   1.3554E+01   2.0731E-05  0.0122
   1.3554E+01   1.3884E+01   1.9697E-05  0.0124
   1.3884E+01   1.4222E+01   1.8670E-05  0.0126
   1.4222E+01   1.4568E+01   1.7342E-05  0.0129
   1.4568E+01   1.4922E+01   1.6161E-05  0.0132
   1.4922E+01   1.5285E+01   1.5219E-05  0.0135
   1.5285E+01   1.5657E+01   1.4789E-05  0.0135
   1.5657E+01   1.6038E+01   1.3950E-05  0.0137
   1.6038E+01   1.6428E+01   1.2368E-05  0.0144
   1.6428E+01   1.6828E+01   1.1769E-05  0.0146
   1.6828E+01   1.7237E+01   1.0937E-05  0.0149
   1.7237E+01   1.7657E+01   1.0033E-05  0.0154
   1.7657E+01   1.8086E+01   9.4227E-06  0.0157
   1.8086E+01   1.8526E+01   8.3967E-06  0.0165
   1.8526E+01   1.8977E+01   7.7380E-06  0.0169
   1.8977E+01   1.9439E+01   7.0084E-06  0.0176
   1.9439E+01   1.9912E+01   6.4466E-06  0.0181
   1.9912E+01   2.0396E+01   6.0334E-06  0.0185
   2.0396E+01   2.0893E+01   5.7551E-06  0.0187
   2.0893E+01   2.1401E+01   4.9967E-06  0.0198
   2.1401E+01   2.1922E+01   4.5765E-06  0.0205
   2.1922E+01   2.2455E+01   4.2560E-06  0.0210
   2.2455E+01   2.3001E+01   3.8291E-06  0.0219
   2.3001E+01   2.3561E+01   3.4611E-06  0.0227
   2.3561E+01   2.4134E+01   3.1417E-06  0.0236
   2.4134E+01   2.4721E+01   2.9666E-06  0.0240
   2.4721E+01   2.5323E+01   2.6418E-06  0.0251
   2.5323E+01   2.5939E+01   2.5060E-06  0.0254
   2.5939E+01   2.6570E+01   2.1771E-06  0.0270
   2.6570E+01   2.7217E+01   1.9227E-06  0.0284
   2.7217E+01   2.7879E+01   1.6974E-06  0.0298
   2.7879E+01   2.8557E+01   1.4949E-06  0.0314
   2.8557E+01   2.9252E+01   1.2564E-06  0.0338
   2.9252E+01   2.9964E+01   1.0987E-06  0.0358
   2.9964E+01   3.0693E+01   8.2849E-07  0.0407
   3.0693E+01   3.1440E+01   6.4410E-07  0.0456
   3.1440E+01   3.2205E+01   4.5101E-07  0.0538
   3.2205E+01   3.2988E+01   2.7694E-07  0.0679
   3.2988E+01   3.3791E+01   2.5790E-07  0.0695
   3.3791E+01   3.4613E+01   1.5690E-07  0.0880
   3.4613E+01   3.5455E+01   1.3299E-07  0.0945
   3.5455E+01   3.6318E+01   1.0317E-07  0.1060
   3.6318E+01   3.7201E+01   6.5638E-08  0.1313
   3.7201E+01   3.8106E+01   0.0000E+00  0.0000
   3.8106E+01   3.9034E+01   0.0000E+00  0.0000
   3.9034E+01   3.9983E+01   0.0000E+00  0.0000
   3.9983E+01   4.0956E+01   0.0000E+00  0.0000
   4.0956E+01   4.1953E+01   0.0000E+00  0.0000
   4.1953E+01   4.2973E+01   0.0000E+00  0.0000
   4.2973E+01   4.4019E+01   0.0000E+00  0.0000
   4.4019E+01   4.5090E+01   0.0000E+00  0.0000
   4.5090E+01   4.6187E+01   0.0000E+00  0.0000
   4.6187E+01   4.7311E+01   0.0000E+00  0.0000
   4.7311E+01   4.8462E+01   0.0000E+00  0.0000
   4.8462E+01   4.9641E+01   0.0000E+00  0.0000
   4.9641E+01   5.0849E+01   0.0000E+00  0.0000
   5.0849E+01   5.2086E+01   0.0000E+00  0.0000
   5.2086E+01   5.3353E+01   0.0000E+00  0.0000
   5.3353E+01   5.4651E+01   0.0000E+00  0.0000
   5.4651E+01   5.5981E+01   0.0000E+00  0.0000
   5.5981E+01   5.7343E+01   0.0000E+00  0.0000
   5.7343E+01   5.8738E+01   0.0000E+00  0.0000
   5.8738E+01   6.0168E+01   0.0000E+00  0.0000
   6.0168E+01   6.1632E+01   0.0000E+00  0.0000
   6.1632E+01   6.3131E+01   0.0000E+00  0.0000
   6.3131E+01   6.4667E+01   0.0000E+00  0.0000
   6.4667E+01   6.6240E+01   0.0000E+00  0.0000
   6.6240E+01   6.7852E+01   0.0000E+00  0.0000
   6.7852E+01   6.9503E+01   0.0000E+00  0.0000
   6.9503E+01   7.1194E+01   0.0000E+00  0.0000
   7.1194E+01   7.2926E+01   0.0000E+00  0.0000
   7.2926E+01   7.4701E+01   0.0000E+00  0.0000
   7.4701E+01   7.6518E+01   0.0000E+00  0.0000
   7.6518E+01   7.8380E+01   0.0000E+00  0.0000
   7.8380E+01   8.0287E+01   0.0000E+00  0.0000
   8.0287E+01   8.2240E+01   0.0000E+00  0.0000
   8.2240E+01   8.4241E+01   0.0000E+00  0.0000
   8.4241E+01   8.6291E+01   0.0000E+00  0.0000
   8.6291E+01   8.8391E+01   0.0000E+00  0.0000
   8.8391E+01   9.0541E+01   0.0000E+00  0.0000
   9.0541E+01   9.2744E+01   0.0000E+00  0.0000
   9.2744E+01   9.5001E+01   0.0000E+00  0.0000
   9.5001E+01   9.7312E+01   0.0000E+00  0.0000
   9.7312E+01   9.9680E+01   0.0000E+00  0.0000
   9.9680E+01   1.0211E+02   0.0000E+00  0.0000
   1.0211E+02   1.0459E+02   0.0000E+00  0.0000
   1.0459E+02   1.0713E+02   0.0000E+00  0.0000
   1.0713E+02   1.0974E+02   0.0000E+00  0.0000
   1.0974E+02   1.1241E+02   0.0000E+00  0.0000
   1.1241E+02   1.1515E+02   0.0000E+00  0.0000
   1.1515E+02   1.1795E+02   0.0000E+00  0.0000
   1.1795E+02   1.2082E+02   0.0000E+00  0.0000
   1.2082E+02   1.2376E+02   0.0000E+00  0.0000
   1.2376E+02   1.2677E+02   0.0000E+00  0.0000
   1.2677E+02   1.2985E+02   0.0000E+00  0.0000
   1.2985E+02   1.3301E+02   0.0000E+00  0.0000
   1.3301E+02   1.3625E+02   0.0000E+00  0.0000
   1.3625E+02   1.3956E+02   0.0000E+00  0.0000
   1.3956E+02   1.4296E+02   0.0000E+00  0.0000
   1.4296E+02   1.4644E+02   0.0000E+00  0.0000
   1.4644E+02   1.5000E+02   0.0000E+00  0.0000

#   sum over                 4.2153E-06
'no. =    1   reg = 104 - 204'
msuc: {\huge [t-cross] in region mesh}
msdr: {\it plotted by \ANGEL \version}
msdl: {\it calculated by \PHITS  3.26}
wt: s(0.7)
\vspace{-3}
  region surface crossing
  area  &=&   1.0000E+00 [cm^2]
e:
 
# Information for Restart Calculation
# This calculation was newly started
# istdev =  2 # 1:Batch variance, 2:History variance
# resc2  = 1.00000000000000000E+09 # Total source weight or Total source weight / maxcas
# resc3  = 1.00000000000000000E+09 # Total history number or Total batch number
# maxcas =   500000000 # History / Batch, only used for istdev=1
# bitrseed = 0001001110011001001001110000100100110111001111011100001000101100 # bit data of rseed
