[ T-Cross ]
    title = [t-cross] in region mesh
     mesh =  reg            # mesh type is region-wise
      reg =    1            # number of crossing regions
      non     r-from    r-to       area
      1       121       221        1.000000    
   e-type =    3            # e-mesh is log given by emin, emax and ne
     emin =  1.0000000E-02  # minimum value of e-mesh points
     emax =   150.0000      # maximum value of e-mesh points
#    edel =  2.4039514E-02  # mesh width of e-mesh points
       ne =    400          # number of e-mesh points
#    data = ( e(i), i = 1, ne + 1 )
#           1.00000E-02  1.02433E-02  1.04925E-02  1.07478E-02  1.10093E-02
#           1.12772E-02  1.15516E-02  1.18326E-02  1.21205E-02  1.24154E-02
#           1.27175E-02  1.30269E-02  1.33439E-02  1.36686E-02  1.40011E-02
#           1.43418E-02  1.46907E-02  1.50482E-02  1.54143E-02  1.57894E-02
#           1.61735E-02  1.65670E-02  1.69701E-02  1.73830E-02  1.78060E-02
#           1.82392E-02  1.86830E-02  1.91375E-02  1.96032E-02  2.00801E-02
#           2.05687E-02  2.10692E-02  2.15818E-02  2.21069E-02  2.26448E-02
#           2.31957E-02  2.37601E-02  2.43382E-02  2.49304E-02  2.55369E-02
#           2.61583E-02  2.67947E-02  2.74467E-02  2.81145E-02  2.87985E-02
#           2.94992E-02  3.02169E-02  3.09521E-02  3.17052E-02  3.24766E-02
#           3.32668E-02  3.40762E-02  3.49053E-02  3.57546E-02  3.66246E-02
#           3.75157E-02  3.84284E-02  3.93634E-02  4.03212E-02  4.13022E-02
#           4.23071E-02  4.33365E-02  4.43909E-02  4.54710E-02  4.65773E-02
#           4.77106E-02  4.88714E-02  5.00605E-02  5.12785E-02  5.25262E-02
#           5.38042E-02  5.51133E-02  5.64542E-02  5.78278E-02  5.92348E-02
#           6.06760E-02  6.21523E-02  6.36645E-02  6.52135E-02  6.68002E-02
#           6.84255E-02  7.00904E-02  7.17957E-02  7.35426E-02  7.53319E-02
#           7.71648E-02  7.90423E-02  8.09655E-02  8.29354E-02  8.49533E-02
#           8.70203E-02  8.91376E-02  9.13064E-02  9.35279E-02  9.58035E-02
#           9.81345E-02  1.00522E-01  1.02968E-01  1.05473E-01  1.08040E-01
#           1.10668E-01  1.13361E-01  1.16119E-01  1.18944E-01  1.21838E-01
#           1.24803E-01  1.27839E-01  1.30950E-01  1.34136E-01  1.37399E-01
#           1.40742E-01  1.44167E-01  1.47675E-01  1.51268E-01  1.54948E-01
#           1.58718E-01  1.62580E-01  1.66535E-01  1.70587E-01  1.74738E-01
#           1.78989E-01  1.83344E-01  1.87805E-01  1.92375E-01  1.97055E-01
#           2.01850E-01  2.06761E-01  2.11792E-01  2.16945E-01  2.22223E-01
#           2.27630E-01  2.33169E-01  2.38842E-01  2.44653E-01  2.50605E-01
#           2.56703E-01  2.62949E-01  2.69346E-01  2.75900E-01  2.82613E-01
#           2.89489E-01  2.96532E-01  3.03747E-01  3.11138E-01  3.18708E-01
#           3.26462E-01  3.34405E-01  3.42542E-01  3.50876E-01  3.59413E-01
#           3.68158E-01  3.77116E-01  3.86291E-01  3.95690E-01  4.05317E-01
#           4.15179E-01  4.25281E-01  4.35628E-01  4.46227E-01  4.57084E-01
#           4.68205E-01  4.79597E-01  4.91266E-01  5.03219E-01  5.15463E-01
#           5.28005E-01  5.40851E-01  5.54011E-01  5.67490E-01  5.81298E-01
#           5.95441E-01  6.09929E-01  6.24769E-01  6.39970E-01  6.55541E-01
#           6.71491E-01  6.87828E-01  7.04564E-01  7.21706E-01  7.39266E-01
#           7.57253E-01  7.75678E-01  7.94551E-01  8.13883E-01  8.33685E-01
#           8.53969E-01  8.74747E-01  8.96030E-01  9.17831E-01  9.40163E-01
#           9.63038E-01  9.86469E-01  1.01047E+00  1.03506E+00  1.06024E+00
#           1.08604E+00  1.11246E+00  1.13953E+00  1.16725E+00  1.19565E+00
#           1.22474E+00  1.25454E+00  1.28507E+00  1.31633E+00  1.34836E+00
#           1.38117E+00  1.41477E+00  1.44920E+00  1.48446E+00  1.52057E+00
#           1.55757E+00  1.59547E+00  1.63429E+00  1.67405E+00  1.71478E+00
#           1.75650E+00  1.79924E+00  1.84302E+00  1.88786E+00  1.93379E+00
#           1.98084E+00  2.02904E+00  2.07841E+00  2.12898E+00  2.18078E+00
#           2.23384E+00  2.28819E+00  2.34386E+00  2.40089E+00  2.45930E+00
#           2.51914E+00  2.58043E+00  2.64322E+00  2.70753E+00  2.77341E+00
#           2.84088E+00  2.91001E+00  2.98081E+00  3.05333E+00  3.12762E+00
#           3.20372E+00  3.28167E+00  3.36152E+00  3.44330E+00  3.52708E+00
#           3.61290E+00  3.70080E+00  3.79085E+00  3.88308E+00  3.97756E+00
#           4.07434E+00  4.17347E+00  4.27501E+00  4.37903E+00  4.48557E+00
#           4.59471E+00  4.70650E+00  4.82102E+00  4.93832E+00  5.05847E+00
#           5.18155E+00  5.30762E+00  5.43676E+00  5.56904E+00  5.70453E+00
#           5.84333E+00  5.98550E+00  6.13114E+00  6.28031E+00  6.43312E+00
#           6.58964E+00  6.74997E+00  6.91420E+00  7.08243E+00  7.25475E+00
#           7.43126E+00  7.61207E+00  7.79728E+00  7.98700E+00  8.18133E+00
#           8.38038E+00  8.58428E+00  8.79315E+00  9.00709E+00  9.22624E+00
#           9.45072E+00  9.68067E+00  9.91620E+00  1.01575E+01  1.04046E+01
#           1.06578E+01  1.09171E+01  1.11827E+01  1.14548E+01  1.17335E+01
#           1.20190E+01  1.23114E+01  1.26109E+01  1.29178E+01  1.32321E+01
#           1.35540E+01  1.38838E+01  1.42216E+01  1.45676E+01  1.49221E+01
#           1.52851E+01  1.56570E+01  1.60380E+01  1.64282E+01  1.68279E+01
#           1.72374E+01  1.76568E+01  1.80864E+01  1.85264E+01  1.89772E+01
#           1.94389E+01  1.99119E+01  2.03963E+01  2.08926E+01  2.14009E+01
#           2.19216E+01  2.24550E+01  2.30014E+01  2.35610E+01  2.41343E+01
#           2.47215E+01  2.53230E+01  2.59391E+01  2.65702E+01  2.72167E+01
#           2.78789E+01  2.85572E+01  2.92520E+01  2.99637E+01  3.06928E+01
#           3.14396E+01  3.22045E+01  3.29881E+01  3.37907E+01  3.46128E+01
#           3.54550E+01  3.63177E+01  3.72013E+01  3.81064E+01  3.90336E+01
#           3.99833E+01  4.09561E+01  4.19526E+01  4.29734E+01  4.40189E+01
#           4.50900E+01  4.61870E+01  4.73108E+01  4.84619E+01  4.96410E+01
#           5.08488E+01  5.20860E+01  5.33533E+01  5.46514E+01  5.59812E+01
#           5.73432E+01  5.87384E+01  6.01676E+01  6.16315E+01  6.31311E+01
#           6.46671E+01  6.62405E+01  6.78522E+01  6.95031E+01  7.11941E+01
#           7.29263E+01  7.47007E+01  7.65182E+01  7.83800E+01  8.02870E+01
#           8.22405E+01  8.42414E+01  8.62911E+01  8.83906E+01  9.05412E+01
#           9.27442E+01  9.50007E+01  9.73122E+01  9.96799E+01  1.02105E+02
#           1.04589E+02  1.07134E+02  1.09741E+02  1.12411E+02  1.15146E+02
#           1.17948E+02  1.20817E+02  1.23757E+02  1.26768E+02  1.29852E+02
#           1.33012E+02  1.36248E+02  1.39563E+02  1.42959E+02  1.46437E+02
#           1.50000E+02
     unit =    2            # unit is [1/cm^2/(MeV/n)/source]
     axis =  eng            # axis of output
     file = detector-22.out  # file name of output for the above axis
   output = f-curr          # surface crossing forward current spectrum
     part =  neutron  
# kf/name :  2112     
#    used :        main (  %)        temp (  %)       total (  %)
#  memory :         414 (  0)           0 (  0)         414 (  0)

#------------------------------------------------------------------------------
#newpage:
#   no. =    1   reg = 121 - 221

x: Energy [MeV/n]
y:  F-Curr [1/cm^2/(MeV/n)/source]         
p: xlog ylog afac(0.8) form(0.9)
h: n            x            y(neutron ),hh0l   n 
#  e-lower      e-upper      neutron     r.err 
   1.0000E-02   1.0243E-02   1.3152E-04  0.1768
   1.0243E-02   1.0493E-02   1.0833E-04  0.1925
   1.0493E-02   1.0748E-02   8.4217E-05  0.2144
   1.0748E-02   1.1009E-02   1.2237E-04  0.1768
   1.1009E-02   1.1277E-02   1.3521E-04  0.1658
   1.1277E-02   1.1552E-02   1.0934E-04  0.1826
   1.1552E-02   1.1833E-02   1.1030E-04  0.1796
   1.1833E-02   1.2121E-02   1.3546E-04  0.1601
   1.2121E-02   1.2415E-02   1.1190E-04  0.1741
   1.2415E-02   1.2718E-02   9.9312E-05  0.1826
   1.2718E-02   1.3027E-02   1.0988E-04  0.1715
   1.3027E-02   1.3344E-02   1.2936E-04  0.1562
   1.3344E-02   1.3669E-02   1.2012E-04  0.1601
   1.3669E-02   1.4001E-02   1.2629E-04  0.1543
   1.4001E-02   1.4342E-02   1.2036E-04  0.1562
   1.4342E-02   1.4691E-02   1.0317E-04  0.1667
   1.4691E-02   1.5048E-02   1.1191E-04  0.1581
   1.5048E-02   1.5414E-02   1.1198E-04  0.1562
   1.5414E-02   1.5789E-02   9.0656E-05  0.1715
   1.5789E-02   1.6174E-02   9.6312E-05  0.1644
   1.6174E-02   1.6567E-02   1.2452E-04  0.1429
   1.6567E-02   1.6970E-02   9.7141E-05  0.1595
   1.6970E-02   1.7383E-02   8.4767E-05  0.1690
   1.7383E-02   1.7806E-02   9.2211E-05  0.1601
   1.7806E-02   1.8239E-02   1.2494E-04  0.1358
   1.8239E-02   1.8683E-02   9.2389E-05  0.1562
   1.8683E-02   1.9138E-02   1.1219E-04  0.1400
   1.9138E-02   1.9603E-02   8.1610E-05  0.1622
   1.9603E-02   2.0080E-02   9.8541E-05  0.1459
   2.0080E-02   2.0569E-02   8.8013E-05  0.1525
   2.0569E-02   2.1069E-02   1.2988E-04  0.1240
   2.1069E-02   2.1582E-02   9.9487E-05  0.1400
   2.1582E-02   2.2107E-02   9.1411E-05  0.1443
   2.2107E-02   2.2645E-02   9.6676E-05  0.1387
   2.2645E-02   2.3196E-02   9.2831E-05  0.1397
   2.3196E-02   2.3760E-02   7.4419E-05  0.1543
   2.3760E-02   2.4338E-02   8.9085E-05  0.1390
   2.4338E-02   2.4930E-02   1.1145E-04  0.1231
   2.4930E-02   2.5537E-02   7.9133E-05  0.1443
   2.5537E-02   2.6158E-02   9.6566E-05  0.1291
   2.6158E-02   2.6795E-02   9.1389E-05  0.1310
   2.6795E-02   2.7447E-02   9.2322E-05  0.1287
   2.7447E-02   2.8114E-02   9.1345E-05  0.1280
   2.8114E-02   2.8799E-02   9.0637E-05  0.1270
   2.8799E-02   2.9499E-02   1.0704E-04  0.1155
   2.9499E-02   3.0217E-02   8.7776E-05  0.1260
   3.0217E-02   3.0952E-02   9.2492E-05  0.1213
   3.0952E-02   3.1705E-02   1.0225E-04  0.1140
   3.1705E-02   3.2477E-02   9.8760E-05  0.1145
   3.2477E-02   3.3267E-02   8.0994E-05  0.1250
   3.3267E-02   3.4076E-02   7.9070E-05  0.1250
   3.4076E-02   3.4905E-02   1.0167E-04  0.1088
   3.4905E-02   3.5755E-02   8.6173E-05  0.1168
   3.5755E-02   3.6625E-02   7.6033E-05  0.1228
   3.6625E-02   3.7516E-02   1.1222E-04  0.1000
   3.7516E-02   3.8428E-02   8.9437E-05  0.1104
   3.8428E-02   3.9363E-02   8.9984E-05  0.1089
   3.9363E-02   4.0321E-02   7.3260E-05  0.1193
   4.0321E-02   4.1302E-02   8.5777E-05  0.1089
   4.1302E-02   4.2307E-02   7.7618E-05  0.1132
   4.2307E-02   4.3337E-02   7.5775E-05  0.1132
   4.3337E-02   4.4391E-02   7.9665E-05  0.1091
   4.4391E-02   4.5471E-02   8.4717E-05  0.1044
   4.5471E-02   4.6577E-02   8.5868E-05  0.1026
   4.6577E-02   4.7711E-02   8.5594E-05  0.1015
   4.7711E-02   4.8871E-02   8.9591E-05  0.0981
   4.8871E-02   5.0061E-02   8.3413E-05  0.1003
   5.0061E-02   5.1279E-02   7.5533E-05  0.1043
   5.1279E-02   5.2526E-02   8.0307E-05  0.0998
   5.2526E-02   5.3804E-02   7.8247E-05  0.1000
   5.3804E-02   5.5113E-02   7.7916E-05  0.0990
   5.5113E-02   5.6454E-02   6.1151E-05  0.1104
   5.6454E-02   5.7828E-02   8.7363E-05  0.0913
   5.7828E-02   5.9235E-02   7.4062E-05  0.0979
   5.9235E-02   6.0676E-02   6.9732E-05  0.0996
   6.0676E-02   6.2152E-02   7.2817E-05  0.0963
   6.2152E-02   6.3665E-02   7.2278E-05  0.0955
   6.3665E-02   6.5214E-02   8.5216E-05  0.0870
   6.5214E-02   6.6800E-02   6.1448E-05  0.1011
   6.6800E-02   6.8426E-02   7.0861E-05  0.0931
   6.8426E-02   7.0090E-02   7.0877E-05  0.0921
   7.0090E-02   7.1796E-02   5.9812E-05  0.0990
   7.1796E-02   7.3543E-02   8.3007E-05  0.0830
   7.3543E-02   7.5332E-02   5.7934E-05  0.0980
   7.5332E-02   7.7165E-02   7.5837E-05  0.0848
   7.7165E-02   7.9042E-02   6.0530E-05  0.0937
   7.9042E-02   8.0965E-02   6.1352E-05  0.0916
   8.0965E-02   8.2935E-02   6.5991E-05  0.0875
   8.2935E-02   8.4953E-02   6.0955E-05  0.0902
   8.4953E-02   8.7020E-02   6.6522E-05  0.0852
   8.7020E-02   8.9138E-02   6.0262E-05  0.0884
   8.9138E-02   9.1306E-02   5.7175E-05  0.0898
   9.1306E-02   9.3528E-02   5.5817E-05  0.0898
   9.3528E-02   9.5804E-02   5.0756E-05  0.0929
   9.5804E-02   9.8134E-02   6.4994E-05  0.0812
   9.8134E-02   1.0052E-01   5.5493E-05  0.0868
   1.0052E-01   1.0297E-01   4.9739E-05  0.0905
   1.0297E-01   1.0547E-01   4.9219E-05  0.0900
   1.0547E-01   1.0804E-01   5.7867E-05  0.0820
   1.0804E-01   1.1067E-01   6.0867E-05  0.0789
   1.1067E-01   1.1336E-01   5.4277E-05  0.0825
   1.1336E-01   1.1612E-01   5.1484E-05  0.0839
   1.1612E-01   1.1894E-01   5.4558E-05  0.0805
   1.1894E-01   1.2184E-01   5.4941E-05  0.0793
   1.2184E-01   1.2480E-01   5.2961E-05  0.0798
   1.2480E-01   1.2784E-01   5.5221E-05  0.0771
   1.2784E-01   1.3095E-01   5.0475E-05  0.0798
   1.3095E-01   1.3414E-01   4.0017E-05  0.0885
   1.3414E-01   1.3740E-01   5.1208E-05  0.0773
   1.3740E-01   1.4074E-01   4.8371E-05  0.0785
   1.4074E-01   1.4417E-01   4.5017E-05  0.0805
   1.4417E-01   1.4767E-01   4.1672E-05  0.0827
   1.4767E-01   1.5127E-01   4.5179E-05  0.0784
   1.5127E-01   1.5495E-01   4.9355E-05  0.0741
   1.5495E-01   1.5872E-01   4.3308E-05  0.0782
   1.5872E-01   1.6258E-01   4.4540E-05  0.0761
   1.6258E-01   1.6654E-01   4.7779E-05  0.0727
   1.6654E-01   1.7059E-01   4.0386E-05  0.0781
   1.7059E-01   1.7474E-01   3.8949E-05  0.0786
   1.7474E-01   1.7899E-01   3.9594E-05  0.0770
   1.7899E-01   1.8334E-01   3.6969E-05  0.0788
   1.8334E-01   1.8781E-01   3.5490E-05  0.0794
   1.8781E-01   1.9237E-01   3.1110E-05  0.0838
   1.9237E-01   1.9706E-01   3.1688E-05  0.0820
   1.9706E-01   2.0185E-01   3.3371E-05  0.0791
   2.0185E-01   2.0676E-01   3.1799E-05  0.0799
   2.0676E-01   2.1179E-01   3.3056E-05  0.0775
   2.1179E-01   2.1694E-01   3.2637E-05  0.0771
   2.1694E-01   2.2222E-01   3.3789E-05  0.0748
   2.2222E-01   2.2763E-01   3.6411E-05  0.0712
   2.2763E-01   2.3317E-01   3.0695E-05  0.0767
   2.3317E-01   2.3884E-01   3.2684E-05  0.0734
   2.3884E-01   2.4465E-01   3.8141E-05  0.0671
   2.4465E-01   2.5061E-01   3.2192E-05  0.0722
   2.5061E-01   2.5670E-01   3.3406E-05  0.0700
   2.5670E-01   2.6295E-01   3.4023E-05  0.0686
   2.6295E-01   2.6935E-01   3.4387E-05  0.0674
   2.6935E-01   2.7590E-01   3.4126E-05  0.0668
   2.7590E-01   2.8261E-01   3.6298E-05  0.0640
   2.8261E-01   2.8949E-01   3.3521E-05  0.0658
   2.8949E-01   2.9653E-01   3.8709E-05  0.0605
   2.9653E-01   3.0375E-01   3.5966E-05  0.0620
   3.0375E-01   3.1114E-01   3.7908E-05  0.0597
   3.1114E-01   3.1871E-01   3.6103E-05  0.0605
   3.1871E-01   3.2646E-01   3.6662E-05  0.0592
   3.2646E-01   3.3441E-01   3.5188E-05  0.0598
   3.3441E-01   3.4254E-01   3.1111E-05  0.0628
   3.4254E-01   3.5088E-01   3.1089E-05  0.0620
   3.5088E-01   3.5941E-01   2.9672E-05  0.0627
   3.5941E-01   3.6816E-01   3.2945E-05  0.0588
   3.6816E-01   3.7712E-01   3.2897E-05  0.0582
   3.7712E-01   3.8629E-01   3.1746E-05  0.0585
   3.8629E-01   3.9569E-01   3.4792E-05  0.0553
   3.9569E-01   4.0532E-01   3.0866E-05  0.0579
   4.0532E-01   4.1518E-01   3.2363E-05  0.0559
   4.1518E-01   4.2528E-01   3.2776E-05  0.0549
   4.2528E-01   4.3563E-01   2.9494E-05  0.0572
   4.3563E-01   4.4623E-01   2.8934E-05  0.0570
   4.4623E-01   4.5708E-01   3.0375E-05  0.0550
   4.5708E-01   4.6821E-01   3.0855E-05  0.0539
   4.6821E-01   4.7960E-01   3.3034E-05  0.0515
   4.7960E-01   4.9127E-01   3.2422E-05  0.0514
   4.9127E-01   5.0322E-01   3.4016E-05  0.0495
   5.0322E-01   5.1546E-01   3.1170E-05  0.0511
   5.1546E-01   5.2800E-01   3.0579E-05  0.0510
   5.2800E-01   5.4085E-01   2.9819E-05  0.0510
   5.4085E-01   5.5401E-01   2.9890E-05  0.0503
   5.5401E-01   5.6749E-01   2.9118E-05  0.0504
   5.6749E-01   5.8130E-01   3.1047E-05  0.0482
   5.8130E-01   5.9544E-01   2.8221E-05  0.0500
   5.9544E-01   6.0993E-01   3.1934E-05  0.0464
   6.0993E-01   6.2477E-01   3.4238E-05  0.0443
   6.2477E-01   6.3997E-01   3.0564E-05  0.0463
   6.3997E-01   6.5554E-01   2.9218E-05  0.0468
   6.5554E-01   6.7149E-01   2.9692E-05  0.0459
   6.7149E-01   6.8783E-01   2.8134E-05  0.0466
   6.8783E-01   7.0456E-01   2.6840E-05  0.0471
   7.0456E-01   7.2171E-01   2.7145E-05  0.0462
   7.2171E-01   7.3927E-01   2.6728E-05  0.0461
   7.3927E-01   7.5725E-01   2.9753E-05  0.0432
   7.5725E-01   7.7568E-01   2.7716E-05  0.0442
   7.7568E-01   7.9455E-01   2.8368E-05  0.0431
   7.9455E-01   8.1388E-01   2.8984E-05  0.0422
   8.1388E-01   8.3368E-01   2.6283E-05  0.0438
   8.3368E-01   8.5397E-01   2.5847E-05  0.0436
   8.5397E-01   8.7475E-01   2.7209E-05  0.0420
   8.7475E-01   8.9603E-01   2.7338E-05  0.0414
   8.9603E-01   9.1783E-01   2.6006E-05  0.0419
   9.1783E-01   9.4016E-01   2.5991E-05  0.0414
   9.4016E-01   9.6304E-01   2.6389E-05  0.0407
   9.6304E-01   9.8647E-01   2.2526E-05  0.0435
   9.8647E-01   1.0105E+00   2.4934E-05  0.0408
   1.0105E+00   1.0351E+00   2.1704E-05  0.0432
   1.0351E+00   1.0602E+00   2.1504E-05  0.0428
   1.0602E+00   1.0860E+00   2.1787E-05  0.0421
   1.0860E+00   1.1125E+00   2.1799E-05  0.0415
   1.1125E+00   1.1395E+00   2.0205E-05  0.0426
   1.1395E+00   1.1673E+00   2.0079E-05  0.0423
   1.1673E+00   1.1957E+00   2.0014E-05  0.0419
   1.1957E+00   1.2247E+00   1.8314E-05  0.0432
   1.2247E+00   1.2545E+00   1.8189E-05  0.0428
   1.2545E+00   1.2851E+00   1.7404E-05  0.0433
   1.2851E+00   1.3163E+00   1.7141E-05  0.0430
   1.3163E+00   1.3484E+00   1.8053E-05  0.0415
   1.3484E+00   1.3812E+00   1.6543E-05  0.0429
   1.3812E+00   1.4148E+00   1.7453E-05  0.0412
   1.4148E+00   1.4492E+00   1.6048E-05  0.0424
   1.4492E+00   1.4845E+00   1.6158E-05  0.0418
   1.4845E+00   1.5206E+00   1.5151E-05  0.0427
   1.5206E+00   1.5576E+00   1.5099E-05  0.0423
   1.5576E+00   1.5955E+00   1.5874E-05  0.0407
   1.5955E+00   1.6343E+00   1.5278E-05  0.0409
   1.6343E+00   1.6741E+00   1.6516E-05  0.0389
   1.6741E+00   1.7148E+00   1.6031E-05  0.0390
   1.7148E+00   1.7565E+00   1.5005E-05  0.0399
   1.7565E+00   1.7992E+00   1.4520E-05  0.0401
   1.7992E+00   1.8430E+00   1.4321E-05  0.0399
   1.8430E+00   1.8879E+00   1.3423E-05  0.0407
   1.8879E+00   1.9338E+00   1.4044E-05  0.0393
   1.9338E+00   1.9808E+00   1.2552E-05  0.0411
   1.9808E+00   2.0290E+00   1.3121E-05  0.0397
   2.0290E+00   2.0784E+00   1.2970E-05  0.0394
   2.0784E+00   2.1290E+00   1.3839E-05  0.0377
   2.1290E+00   2.1808E+00   1.2064E-05  0.0399
   2.1808E+00   2.2338E+00   1.2214E-05  0.0392
   2.2338E+00   2.2882E+00   1.0920E-05  0.0409
   2.2882E+00   2.3439E+00   1.1933E-05  0.0387
   2.3439E+00   2.4009E+00   1.1358E-05  0.0392
   2.4009E+00   2.4593E+00   1.2304E-05  0.0373
   2.4593E+00   2.5191E+00   1.1074E-05  0.0388
   2.5191E+00   2.5804E+00   1.0389E-05  0.0395
   2.5804E+00   2.6432E+00   1.0837E-05  0.0382
   2.6432E+00   2.7075E+00   1.0472E-05  0.0384
   2.7075E+00   2.7734E+00   1.0224E-05  0.0384
   2.7734E+00   2.8409E+00   9.5414E-06  0.0393
   2.8409E+00   2.9100E+00   8.6615E-06  0.0408
   2.9100E+00   2.9808E+00   7.7362E-06  0.0426
   2.9808E+00   3.0533E+00   8.2535E-06  0.0408
   3.0533E+00   3.1276E+00   8.0422E-06  0.0408
   3.1276E+00   3.2037E+00   7.8135E-06  0.0409
   3.2037E+00   3.2817E+00   7.0099E-06  0.0427
   3.2817E+00   3.3615E+00   7.3814E-06  0.0411
   3.3615E+00   3.4433E+00   6.6744E-06  0.0427
   3.4433E+00   3.5271E+00   7.0932E-06  0.0409
   3.5271E+00   3.6129E+00   6.4400E-06  0.0425
   3.6129E+00   3.7008E+00   5.9032E-06  0.0438
   3.7008E+00   3.7908E+00   5.6875E-06  0.0441
   3.7908E+00   3.8831E+00   5.6063E-06  0.0439
   3.8831E+00   3.9776E+00   5.5104E-06  0.0438
   3.9776E+00   4.0743E+00   5.4967E-06  0.0433
   4.0743E+00   4.1735E+00   5.1639E-06  0.0441
   4.1735E+00   4.2750E+00   5.5108E-06  0.0422
   4.2750E+00   4.3790E+00   4.9636E-06  0.0439
   4.3790E+00   4.4856E+00   4.7440E-06  0.0444
   4.4856E+00   4.5947E+00   4.6834E-06  0.0442
   4.5947E+00   4.7065E+00   4.5248E-06  0.0444
   4.7065E+00   4.8210E+00   4.2693E-06  0.0452
   4.8210E+00   4.9383E+00   3.7995E-06  0.0473
   4.9383E+00   5.0585E+00   3.7736E-06  0.0469
   5.0585E+00   5.1815E+00   3.6452E-06  0.0472
   5.1815E+00   5.3076E+00   3.3859E-06  0.0484
   5.3076E+00   5.4368E+00   3.0972E-06  0.0500
   5.4368E+00   5.5690E+00   2.9093E-06  0.0508
   5.5690E+00   5.7045E+00   2.8499E-06  0.0508
   5.7045E+00   5.8433E+00   2.6994E-06  0.0516
   5.8433E+00   5.9855E+00   2.7407E-06  0.0506
   5.9855E+00   6.1311E+00   2.1962E-06  0.0558
   6.1311E+00   6.2803E+00   2.3695E-06  0.0532
   6.2803E+00   6.4331E+00   2.4660E-06  0.0515
   6.4331E+00   6.5896E+00   2.1893E-06  0.0540
   6.5896E+00   6.7500E+00   2.1362E-06  0.0540
   6.7500E+00   6.9142E+00   1.9427E-06  0.0559
   6.9142E+00   7.0824E+00   1.6747E-06  0.0595
   7.0824E+00   7.2548E+00   1.8523E-06  0.0560
   7.2548E+00   7.4313E+00   1.7137E-06  0.0575
   7.4313E+00   7.6121E+00   1.5727E-06  0.0592
   7.6121E+00   7.7973E+00   1.6834E-06  0.0566
   7.7973E+00   7.9870E+00   1.4179E-06  0.0610
   7.9870E+00   8.1813E+00   1.5242E-06  0.0581
   8.1813E+00   8.3804E+00   1.4175E-06  0.0595
   8.3804E+00   8.5843E+00   1.2065E-06  0.0638
   8.5843E+00   8.7931E+00   1.1498E-06  0.0645
   8.7931E+00   9.0071E+00   1.2007E-06  0.0623
   9.0071E+00   9.2262E+00   1.0685E-06  0.0653
   9.2262E+00   9.4507E+00   1.1600E-06  0.0619
   9.4507E+00   9.6807E+00   9.3066E-07  0.0684
   9.6807E+00   9.9162E+00   9.1368E-07  0.0681
   9.9162E+00   1.0157E+01   9.6573E-07  0.0655
   1.0157E+01   1.0405E+01   8.0992E-07  0.0707
   1.0405E+01   1.0658E+01   9.3817E-07  0.0649
   1.0658E+01   1.0917E+01   8.2526E-07  0.0684
   1.0917E+01   1.1183E+01   8.0189E-07  0.0685
   1.1183E+01   1.1455E+01   8.0916E-07  0.0674
   1.1455E+01   1.1733E+01   7.9791E-07  0.0670
   1.1733E+01   1.2019E+01   6.9706E-07  0.0709
   1.2019E+01   1.2311E+01   7.6599E-07  0.0668
   1.2311E+01   1.2611E+01   5.3748E-07  0.0788
   1.2611E+01   1.2918E+01   5.8664E-07  0.0745
   1.2918E+01   1.3232E+01   5.7588E-07  0.0743
   1.3232E+01   1.3554E+01   5.1872E-07  0.0774
   1.3554E+01   1.3884E+01   4.6698E-07  0.0806
   1.3884E+01   1.4222E+01   4.1444E-07  0.0845
   1.4222E+01   1.4568E+01   4.0171E-07  0.0848
   1.4568E+01   1.4922E+01   3.4702E-07  0.0902
   1.4922E+01   1.5285E+01   3.3052E-07  0.0913
   1.5285E+01   1.5657E+01   2.9578E-07  0.0953
   1.5657E+01   1.6038E+01   2.8875E-07  0.0953
   1.6038E+01   1.6428E+01   2.7933E-07  0.0958
   1.6428E+01   1.6828E+01   2.1265E-07  0.1085
   1.6828E+01   1.7237E+01   2.2714E-07  0.1037
   1.7237E+01   1.7657E+01   1.9075E-07  0.1118
   1.7657E+01   1.8086E+01   1.9320E-07  0.1098
   1.8086E+01   1.8526E+01   1.7952E-07  0.1125
   1.8526E+01   1.8977E+01   1.1092E-07  0.1414
   1.8977E+01   1.9439E+01   1.0211E-07  0.1454
   1.9439E+01   1.9912E+01   6.7658E-08  0.1768
   1.9912E+01   2.0396E+01   2.2705E-08  0.3015
   2.0396E+01   2.0893E+01   2.8211E-08  0.2673
   2.0893E+01   2.1401E+01   5.9016E-09  0.5774
   2.1401E+01   2.1922E+01   3.8410E-09  0.7071
   2.1922E+01   2.2455E+01   3.7497E-09  0.7071
   2.2455E+01   2.3001E+01   5.4910E-09  0.5774
   2.3001E+01   2.3561E+01   1.7869E-09  1.0000
   2.3561E+01   2.4134E+01   0.0000E+00  0.0000
   2.4134E+01   2.4721E+01   0.0000E+00  0.0000
   2.4721E+01   2.5323E+01   0.0000E+00  0.0000
   2.5323E+01   2.5939E+01   0.0000E+00  0.0000
   2.5939E+01   2.6570E+01   0.0000E+00  0.0000
   2.6570E+01   2.7217E+01   1.5469E-09  1.0000
   2.7217E+01   2.7879E+01   0.0000E+00  0.0000
   2.7879E+01   2.8557E+01   0.0000E+00  0.0000
   2.8557E+01   2.9252E+01   0.0000E+00  0.0000
   2.9252E+01   2.9964E+01   0.0000E+00  0.0000
   2.9964E+01   3.0693E+01   0.0000E+00  0.0000
   3.0693E+01   3.1440E+01   0.0000E+00  0.0000
   3.1440E+01   3.2205E+01   0.0000E+00  0.0000
   3.2205E+01   3.2988E+01   0.0000E+00  0.0000
   3.2988E+01   3.3791E+01   0.0000E+00  0.0000
   3.3791E+01   3.4613E+01   0.0000E+00  0.0000
   3.4613E+01   3.5455E+01   0.0000E+00  0.0000
   3.5455E+01   3.6318E+01   0.0000E+00  0.0000
   3.6318E+01   3.7201E+01   0.0000E+00  0.0000
   3.7201E+01   3.8106E+01   0.0000E+00  0.0000
   3.8106E+01   3.9034E+01   0.0000E+00  0.0000
   3.9034E+01   3.9983E+01   0.0000E+00  0.0000
   3.9983E+01   4.0956E+01   0.0000E+00  0.0000
   4.0956E+01   4.1953E+01   0.0000E+00  0.0000
   4.1953E+01   4.2973E+01   0.0000E+00  0.0000
   4.2973E+01   4.4019E+01   0.0000E+00  0.0000
   4.4019E+01   4.5090E+01   0.0000E+00  0.0000
   4.5090E+01   4.6187E+01   0.0000E+00  0.0000
   4.6187E+01   4.7311E+01   0.0000E+00  0.0000
   4.7311E+01   4.8462E+01   0.0000E+00  0.0000
   4.8462E+01   4.9641E+01   0.0000E+00  0.0000
   4.9641E+01   5.0849E+01   0.0000E+00  0.0000
   5.0849E+01   5.2086E+01   0.0000E+00  0.0000
   5.2086E+01   5.3353E+01   0.0000E+00  0.0000
   5.3353E+01   5.4651E+01   0.0000E+00  0.0000
   5.4651E+01   5.5981E+01   0.0000E+00  0.0000
   5.5981E+01   5.7343E+01   0.0000E+00  0.0000
   5.7343E+01   5.8738E+01   0.0000E+00  0.0000
   5.8738E+01   6.0168E+01   0.0000E+00  0.0000
   6.0168E+01   6.1632E+01   0.0000E+00  0.0000
   6.1632E+01   6.3131E+01   0.0000E+00  0.0000
   6.3131E+01   6.4667E+01   0.0000E+00  0.0000
   6.4667E+01   6.6240E+01   0.0000E+00  0.0000
   6.6240E+01   6.7852E+01   0.0000E+00  0.0000
   6.7852E+01   6.9503E+01   0.0000E+00  0.0000
   6.9503E+01   7.1194E+01   0.0000E+00  0.0000
   7.1194E+01   7.2926E+01   0.0000E+00  0.0000
   7.2926E+01   7.4701E+01   0.0000E+00  0.0000
   7.4701E+01   7.6518E+01   0.0000E+00  0.0000
   7.6518E+01   7.8380E+01   0.0000E+00  0.0000
   7.8380E+01   8.0287E+01   0.0000E+00  0.0000
   8.0287E+01   8.2240E+01   0.0000E+00  0.0000
   8.2240E+01   8.4241E+01   0.0000E+00  0.0000
   8.4241E+01   8.6291E+01   0.0000E+00  0.0000
   8.6291E+01   8.8391E+01   0.0000E+00  0.0000
   8.8391E+01   9.0541E+01   0.0000E+00  0.0000
   9.0541E+01   9.2744E+01   0.0000E+00  0.0000
   9.2744E+01   9.5001E+01   0.0000E+00  0.0000
   9.5001E+01   9.7312E+01   0.0000E+00  0.0000
   9.7312E+01   9.9680E+01   0.0000E+00  0.0000
   9.9680E+01   1.0211E+02   0.0000E+00  0.0000
   1.0211E+02   1.0459E+02   0.0000E+00  0.0000
   1.0459E+02   1.0713E+02   0.0000E+00  0.0000
   1.0713E+02   1.0974E+02   0.0000E+00  0.0000
   1.0974E+02   1.1241E+02   0.0000E+00  0.0000
   1.1241E+02   1.1515E+02   0.0000E+00  0.0000
   1.1515E+02   1.1795E+02   0.0000E+00  0.0000
   1.1795E+02   1.2082E+02   0.0000E+00  0.0000
   1.2082E+02   1.2376E+02   0.0000E+00  0.0000
   1.2376E+02   1.2677E+02   0.0000E+00  0.0000
   1.2677E+02   1.2985E+02   0.0000E+00  0.0000
   1.2985E+02   1.3301E+02   0.0000E+00  0.0000
   1.3301E+02   1.3625E+02   0.0000E+00  0.0000
   1.3625E+02   1.3956E+02   0.0000E+00  0.0000
   1.3956E+02   1.4296E+02   0.0000E+00  0.0000
   1.4296E+02   1.4644E+02   0.0000E+00  0.0000
   1.4644E+02   1.5000E+02   0.0000E+00  0.0000

#   sum over                 5.8552E-07
'no. =    1   reg = 121 - 221'
msuc: {\huge [t-cross] in region mesh}
msdr: {\it plotted by \ANGEL \version}
msdl: {\it calculated by \PHITS  3.26}
wt: s(0.7)
\vspace{-3}
  region surface crossing
  area  &=&   1.0000E+00 [cm^2]
e:
 
# Information for Restart Calculation
# This calculation was newly started
# istdev =  2 # 1:Batch variance, 2:History variance
# resc2  = 1.00000000000000000E+09 # Total source weight or Total source weight / maxcas
# resc3  = 1.00000000000000000E+09 # Total history number or Total batch number
# maxcas =   500000000 # History / Batch, only used for istdev=1
# bitrseed = 0001001110011001001001110000100100110111001111011100001000101100 # bit data of rseed
