[ T-Cross ]
    title = [t-cross] in region mesh
     mesh =  reg            # mesh type is region-wise
      reg =    1            # number of crossing regions
      non     r-from    r-to       area
      1       120       220        1.000000    
   e-type =    3            # e-mesh is log given by emin, emax and ne
     emin =  1.0000000E-02  # minimum value of e-mesh points
     emax =   150.0000      # maximum value of e-mesh points
#    edel =  2.4039514E-02  # mesh width of e-mesh points
       ne =    400          # number of e-mesh points
#    data = ( e(i), i = 1, ne + 1 )
#           1.00000E-02  1.02433E-02  1.04925E-02  1.07478E-02  1.10093E-02
#           1.12772E-02  1.15516E-02  1.18326E-02  1.21205E-02  1.24154E-02
#           1.27175E-02  1.30269E-02  1.33439E-02  1.36686E-02  1.40011E-02
#           1.43418E-02  1.46907E-02  1.50482E-02  1.54143E-02  1.57894E-02
#           1.61735E-02  1.65670E-02  1.69701E-02  1.73830E-02  1.78060E-02
#           1.82392E-02  1.86830E-02  1.91375E-02  1.96032E-02  2.00801E-02
#           2.05687E-02  2.10692E-02  2.15818E-02  2.21069E-02  2.26448E-02
#           2.31957E-02  2.37601E-02  2.43382E-02  2.49304E-02  2.55369E-02
#           2.61583E-02  2.67947E-02  2.74467E-02  2.81145E-02  2.87985E-02
#           2.94992E-02  3.02169E-02  3.09521E-02  3.17052E-02  3.24766E-02
#           3.32668E-02  3.40762E-02  3.49053E-02  3.57546E-02  3.66246E-02
#           3.75157E-02  3.84284E-02  3.93634E-02  4.03212E-02  4.13022E-02
#           4.23071E-02  4.33365E-02  4.43909E-02  4.54710E-02  4.65773E-02
#           4.77106E-02  4.88714E-02  5.00605E-02  5.12785E-02  5.25262E-02
#           5.38042E-02  5.51133E-02  5.64542E-02  5.78278E-02  5.92348E-02
#           6.06760E-02  6.21523E-02  6.36645E-02  6.52135E-02  6.68002E-02
#           6.84255E-02  7.00904E-02  7.17957E-02  7.35426E-02  7.53319E-02
#           7.71648E-02  7.90423E-02  8.09655E-02  8.29354E-02  8.49533E-02
#           8.70203E-02  8.91376E-02  9.13064E-02  9.35279E-02  9.58035E-02
#           9.81345E-02  1.00522E-01  1.02968E-01  1.05473E-01  1.08040E-01
#           1.10668E-01  1.13361E-01  1.16119E-01  1.18944E-01  1.21838E-01
#           1.24803E-01  1.27839E-01  1.30950E-01  1.34136E-01  1.37399E-01
#           1.40742E-01  1.44167E-01  1.47675E-01  1.51268E-01  1.54948E-01
#           1.58718E-01  1.62580E-01  1.66535E-01  1.70587E-01  1.74738E-01
#           1.78989E-01  1.83344E-01  1.87805E-01  1.92375E-01  1.97055E-01
#           2.01850E-01  2.06761E-01  2.11792E-01  2.16945E-01  2.22223E-01
#           2.27630E-01  2.33169E-01  2.38842E-01  2.44653E-01  2.50605E-01
#           2.56703E-01  2.62949E-01  2.69346E-01  2.75900E-01  2.82613E-01
#           2.89489E-01  2.96532E-01  3.03747E-01  3.11138E-01  3.18708E-01
#           3.26462E-01  3.34405E-01  3.42542E-01  3.50876E-01  3.59413E-01
#           3.68158E-01  3.77116E-01  3.86291E-01  3.95690E-01  4.05317E-01
#           4.15179E-01  4.25281E-01  4.35628E-01  4.46227E-01  4.57084E-01
#           4.68205E-01  4.79597E-01  4.91266E-01  5.03219E-01  5.15463E-01
#           5.28005E-01  5.40851E-01  5.54011E-01  5.67490E-01  5.81298E-01
#           5.95441E-01  6.09929E-01  6.24769E-01  6.39970E-01  6.55541E-01
#           6.71491E-01  6.87828E-01  7.04564E-01  7.21706E-01  7.39266E-01
#           7.57253E-01  7.75678E-01  7.94551E-01  8.13883E-01  8.33685E-01
#           8.53969E-01  8.74747E-01  8.96030E-01  9.17831E-01  9.40163E-01
#           9.63038E-01  9.86469E-01  1.01047E+00  1.03506E+00  1.06024E+00
#           1.08604E+00  1.11246E+00  1.13953E+00  1.16725E+00  1.19565E+00
#           1.22474E+00  1.25454E+00  1.28507E+00  1.31633E+00  1.34836E+00
#           1.38117E+00  1.41477E+00  1.44920E+00  1.48446E+00  1.52057E+00
#           1.55757E+00  1.59547E+00  1.63429E+00  1.67405E+00  1.71478E+00
#           1.75650E+00  1.79924E+00  1.84302E+00  1.88786E+00  1.93379E+00
#           1.98084E+00  2.02904E+00  2.07841E+00  2.12898E+00  2.18078E+00
#           2.23384E+00  2.28819E+00  2.34386E+00  2.40089E+00  2.45930E+00
#           2.51914E+00  2.58043E+00  2.64322E+00  2.70753E+00  2.77341E+00
#           2.84088E+00  2.91001E+00  2.98081E+00  3.05333E+00  3.12762E+00
#           3.20372E+00  3.28167E+00  3.36152E+00  3.44330E+00  3.52708E+00
#           3.61290E+00  3.70080E+00  3.79085E+00  3.88308E+00  3.97756E+00
#           4.07434E+00  4.17347E+00  4.27501E+00  4.37903E+00  4.48557E+00
#           4.59471E+00  4.70650E+00  4.82102E+00  4.93832E+00  5.05847E+00
#           5.18155E+00  5.30762E+00  5.43676E+00  5.56904E+00  5.70453E+00
#           5.84333E+00  5.98550E+00  6.13114E+00  6.28031E+00  6.43312E+00
#           6.58964E+00  6.74997E+00  6.91420E+00  7.08243E+00  7.25475E+00
#           7.43126E+00  7.61207E+00  7.79728E+00  7.98700E+00  8.18133E+00
#           8.38038E+00  8.58428E+00  8.79315E+00  9.00709E+00  9.22624E+00
#           9.45072E+00  9.68067E+00  9.91620E+00  1.01575E+01  1.04046E+01
#           1.06578E+01  1.09171E+01  1.11827E+01  1.14548E+01  1.17335E+01
#           1.20190E+01  1.23114E+01  1.26109E+01  1.29178E+01  1.32321E+01
#           1.35540E+01  1.38838E+01  1.42216E+01  1.45676E+01  1.49221E+01
#           1.52851E+01  1.56570E+01  1.60380E+01  1.64282E+01  1.68279E+01
#           1.72374E+01  1.76568E+01  1.80864E+01  1.85264E+01  1.89772E+01
#           1.94389E+01  1.99119E+01  2.03963E+01  2.08926E+01  2.14009E+01
#           2.19216E+01  2.24550E+01  2.30014E+01  2.35610E+01  2.41343E+01
#           2.47215E+01  2.53230E+01  2.59391E+01  2.65702E+01  2.72167E+01
#           2.78789E+01  2.85572E+01  2.92520E+01  2.99637E+01  3.06928E+01
#           3.14396E+01  3.22045E+01  3.29881E+01  3.37907E+01  3.46128E+01
#           3.54550E+01  3.63177E+01  3.72013E+01  3.81064E+01  3.90336E+01
#           3.99833E+01  4.09561E+01  4.19526E+01  4.29734E+01  4.40189E+01
#           4.50900E+01  4.61870E+01  4.73108E+01  4.84619E+01  4.96410E+01
#           5.08488E+01  5.20860E+01  5.33533E+01  5.46514E+01  5.59812E+01
#           5.73432E+01  5.87384E+01  6.01676E+01  6.16315E+01  6.31311E+01
#           6.46671E+01  6.62405E+01  6.78522E+01  6.95031E+01  7.11941E+01
#           7.29263E+01  7.47007E+01  7.65182E+01  7.83800E+01  8.02870E+01
#           8.22405E+01  8.42414E+01  8.62911E+01  8.83906E+01  9.05412E+01
#           9.27442E+01  9.50007E+01  9.73122E+01  9.96799E+01  1.02105E+02
#           1.04589E+02  1.07134E+02  1.09741E+02  1.12411E+02  1.15146E+02
#           1.17948E+02  1.20817E+02  1.23757E+02  1.26768E+02  1.29852E+02
#           1.33012E+02  1.36248E+02  1.39563E+02  1.42959E+02  1.46437E+02
#           1.50000E+02
     unit =    2            # unit is [1/cm^2/(MeV/n)/source]
     axis =  eng            # axis of output
     file = detector-21.out  # file name of output for the above axis
   output = f-curr          # surface crossing forward current spectrum
     part =  neutron  
# kf/name :  2112     
#    used :        main (  %)        temp (  %)       total (  %)
#  memory :         414 (  0)           0 (  0)         414 (  0)

#------------------------------------------------------------------------------
#newpage:
#   no. =    1   reg = 120 - 220

x: Energy [MeV/n]
y:  F-Curr [1/cm^2/(MeV/n)/source]         
p: xlog ylog afac(0.8) form(0.9)
h: n            x            y(neutron ),hh0l   n 
#  e-lower      e-upper      neutron     r.err 
   1.0000E-02   1.0243E-02   5.9058E-03  0.0372
   1.0243E-02   1.0493E-02   6.0745E-03  0.0363
   1.0493E-02   1.0748E-02   6.1016E-03  0.0358
   1.0748E-02   1.1009E-02   5.9980E-03  0.0356
   1.1009E-02   1.1277E-02   5.7623E-03  0.0360
   1.1277E-02   1.1552E-02   5.9595E-03  0.0349
   1.1552E-02   1.1833E-02   5.6985E-03  0.0353
   1.1833E-02   1.2121E-02   5.4072E-03  0.0358
   1.2121E-02   1.2415E-02   5.1490E-03  0.0362
   1.2415E-02   1.2718E-02   5.0389E-03  0.0362
   1.2718E-02   1.3027E-02   5.2383E-03  0.0351
   1.3027E-02   1.3344E-02   4.9679E-03  0.0356
   1.3344E-02   1.3669E-02   4.8605E-03  0.0355
   1.3669E-02   1.4001E-02   4.9518E-03  0.0348
   1.4001E-02   1.4342E-02   4.7255E-03  0.0352
   1.4342E-02   1.4691E-02   4.6783E-03  0.0349
   1.4691E-02   1.5048E-02   4.8826E-03  0.0338
   1.5048E-02   1.5414E-02   4.5691E-03  0.0345
   1.5414E-02   1.5789E-02   4.3723E-03  0.0348
   1.5789E-02   1.6174E-02   4.3981E-03  0.0343
   1.6174E-02   1.6567E-02   4.3876E-03  0.0339
   1.6567E-02   1.6970E-02   3.8331E-03  0.0359
   1.6970E-02   1.7383E-02   4.1562E-03  0.0341
   1.7383E-02   1.7806E-02   3.9542E-03  0.0345
   1.7806E-02   1.8239E-02   4.0450E-03  0.0337
   1.8239E-02   1.8683E-02   3.8725E-03  0.0340
   1.8683E-02   1.9138E-02   3.8462E-03  0.0338
   1.9138E-02   1.9603E-02   3.7214E-03  0.0339
   1.9603E-02   2.0080E-02   3.6844E-03  0.0337
   2.0080E-02   2.0569E-02   3.6124E-03  0.0336
   2.0569E-02   2.1069E-02   3.3580E-03  0.0344
   2.1069E-02   2.1582E-02   3.4531E-03  0.0336
   2.1582E-02   2.2107E-02   3.2778E-03  0.0340
   2.2107E-02   2.2645E-02   3.1317E-03  0.0344
   2.2645E-02   2.3196E-02   3.2129E-03  0.0335
   2.3196E-02   2.3760E-02   3.0370E-03  0.0340
   2.3760E-02   2.4338E-02   3.0779E-03  0.0335
   2.4338E-02   2.4930E-02   2.9247E-03  0.0339
   2.4930E-02   2.5537E-02   3.0752E-03  0.0326
   2.5537E-02   2.6158E-02   2.9165E-03  0.0332
   2.6158E-02   2.6795E-02   2.7669E-03  0.0336
   2.6795E-02   2.7447E-02   2.7319E-03  0.0334
   2.7447E-02   2.8114E-02   2.7691E-03  0.0329
   2.8114E-02   2.8799E-02   2.6850E-03  0.0329
   2.8799E-02   2.9499E-02   2.7454E-03  0.0322
   2.9499E-02   3.0217E-02   2.5079E-03  0.0333
   3.0217E-02   3.0952E-02   2.3946E-03  0.0336
   3.0952E-02   3.1705E-02   2.4532E-03  0.0328
   3.1705E-02   3.2477E-02   2.3964E-03  0.0328
   3.2477E-02   3.3267E-02   2.4437E-03  0.0321
   3.3267E-02   3.4076E-02   2.1320E-03  0.0340
   3.4076E-02   3.4905E-02   2.2777E-03  0.0325
   3.4905E-02   3.5755E-02   2.1929E-03  0.0327
   3.5755E-02   3.6625E-02   2.0624E-03  0.0333
   3.6625E-02   3.7516E-02   2.1189E-03  0.0325
   3.7516E-02   3.8428E-02   2.0015E-03  0.0330
   3.8428E-02   3.9363E-02   2.1421E-03  0.0315
   3.9363E-02   4.0321E-02   1.9939E-03  0.0323
   4.0321E-02   4.1302E-02   1.9423E-03  0.0323
   4.1302E-02   4.2307E-02   1.9604E-03  0.0318
   4.2307E-02   4.3337E-02   1.8188E-03  0.0326
   4.3337E-02   4.4391E-02   1.8455E-03  0.0320
   4.4391E-02   4.5471E-02   1.7655E-03  0.0323
   4.5471E-02   4.6577E-02   1.7790E-03  0.0318
   4.6577E-02   4.7711E-02   1.7487E-03  0.0317
   4.7711E-02   4.8871E-02   1.7086E-03  0.0317
   4.8871E-02   5.0061E-02   1.6266E-03  0.0321
   5.0061E-02   5.1279E-02   1.7428E-03  0.0306
   5.1279E-02   5.2526E-02   1.6115E-03  0.0315
   5.2526E-02   5.3804E-02   1.6098E-03  0.0311
   5.3804E-02   5.5113E-02   1.5019E-03  0.0318
   5.5113E-02   5.6454E-02   1.5920E-03  0.0306
   5.6454E-02   5.7828E-02   1.4792E-03  0.0313
   5.7828E-02   5.9235E-02   1.4344E-03  0.0314
   5.9235E-02   6.0676E-02   1.3943E-03  0.0315
   6.0676E-02   6.2152E-02   1.4330E-03  0.0307
   6.2152E-02   6.3665E-02   1.3598E-03  0.0311
   6.3665E-02   6.5214E-02   1.3592E-03  0.0308
   6.5214E-02   6.6800E-02   1.3593E-03  0.0304
   6.6800E-02   6.8426E-02   1.2420E-03  0.0314
   6.8426E-02   7.0090E-02   1.2924E-03  0.0304
   7.0090E-02   7.1796E-02   1.2759E-03  0.0302
   7.1796E-02   7.3543E-02   1.2102E-03  0.0307
   7.3543E-02   7.5332E-02   1.1938E-03  0.0306
   7.5332E-02   7.7165E-02   1.1443E-03  0.0308
   7.7165E-02   7.9042E-02   1.1297E-03  0.0306
   7.9042E-02   8.0965E-02   1.1457E-03  0.0300
   8.0965E-02   8.2935E-02   1.1153E-03  0.0301
   8.2935E-02   8.4953E-02   1.0892E-03  0.0301
   8.4953E-02   8.7020E-02   1.0671E-03  0.0301
   8.7020E-02   8.9138E-02   9.7349E-04  0.0311
   8.9138E-02   9.1306E-02   9.7882E-04  0.0306
   9.1306E-02   9.3528E-02   9.7476E-04  0.0303
   9.3528E-02   9.5804E-02   9.3588E-04  0.0306
   9.5804E-02   9.8134E-02   9.4579E-04  0.0301
   9.8134E-02   1.0052E-01   8.9099E-04  0.0306
   1.0052E-01   1.0297E-01   8.6525E-04  0.0307
   1.0297E-01   1.0547E-01   8.6047E-04  0.0304
   1.0547E-01   1.0804E-01   8.5311E-04  0.0301
   1.0804E-01   1.1067E-01   8.5410E-04  0.0298
   1.1067E-01   1.1336E-01   7.9320E-04  0.0305
   1.1336E-01   1.1612E-01   7.4841E-04  0.0311
   1.1612E-01   1.1894E-01   7.6072E-04  0.0304
   1.1894E-01   1.2184E-01   7.7069E-04  0.0299
   1.2184E-01   1.2480E-01   7.4251E-04  0.0301
   1.2480E-01   1.2784E-01   7.3613E-04  0.0298
   1.2784E-01   1.3095E-01   6.8914E-04  0.0305
   1.3095E-01   1.3414E-01   7.2493E-04  0.0294
   1.3414E-01   1.3740E-01   6.5024E-04  0.0306
   1.3740E-01   1.4074E-01   6.7384E-04  0.0297
   1.4074E-01   1.4417E-01   6.5667E-04  0.0298
   1.4417E-01   1.4767E-01   6.4135E-04  0.0298
   1.4767E-01   1.5127E-01   6.3747E-04  0.0295
   1.5127E-01   1.5495E-01   6.3771E-04  0.0291
   1.5495E-01   1.5872E-01   5.6722E-04  0.0305
   1.5872E-01   1.6258E-01   5.6470E-04  0.0302
   1.6258E-01   1.6654E-01   5.8065E-04  0.0295
   1.6654E-01   1.7059E-01   5.4367E-04  0.0300
   1.7059E-01   1.7474E-01   5.3518E-04  0.0299
   1.7474E-01   1.7899E-01   5.1452E-04  0.0302
   1.7899E-01   1.8334E-01   5.1581E-04  0.0298
   1.8334E-01   1.8781E-01   5.3706E-04  0.0288
   1.8781E-01   1.9237E-01   5.0399E-04  0.0294
   1.9237E-01   1.9706E-01   4.8216E-04  0.0297
   1.9706E-01   2.0185E-01   4.7473E-04  0.0296
   2.0185E-01   2.0676E-01   4.7074E-04  0.0293
   2.0676E-01   2.1179E-01   4.5951E-04  0.0293
   2.1179E-01   2.1694E-01   5.2370E-04  0.0272
   2.1694E-01   2.2222E-01   4.8229E-04  0.0279
   2.2222E-01   2.2763E-01   5.7042E-04  0.0254
   2.2763E-01   2.3317E-01   5.4513E-04  0.0257
   2.3317E-01   2.3884E-01   5.6578E-04  0.0249
   2.3884E-01   2.4465E-01   6.0658E-04  0.0238
   2.4465E-01   2.5061E-01   6.0054E-04  0.0236
   2.5061E-01   2.5670E-01   6.0987E-04  0.0231
   2.5670E-01   2.6295E-01   5.9576E-04  0.0231
   2.6295E-01   2.6935E-01   6.4334E-04  0.0220
   2.6935E-01   2.7590E-01   6.3398E-04  0.0219
   2.7590E-01   2.8261E-01   6.3726E-04  0.0216
   2.8261E-01   2.8949E-01   6.5992E-04  0.0209
   2.8949E-01   2.9653E-01   6.6908E-04  0.0205
   2.9653E-01   3.0375E-01   6.9067E-04  0.0200
   3.0375E-01   3.1114E-01   6.8649E-04  0.0198
   3.1114E-01   3.1871E-01   7.0567E-04  0.0193
   3.1871E-01   3.2646E-01   7.2742E-04  0.0188
   3.2646E-01   3.3441E-01   7.4819E-04  0.0183
   3.3441E-01   3.4254E-01   7.4862E-04  0.0181
   3.4254E-01   3.5088E-01   7.5544E-04  0.0178
   3.5088E-01   3.5941E-01   7.6053E-04  0.0175
   3.5941E-01   3.6816E-01   7.7167E-04  0.0172
   3.6816E-01   3.7712E-01   8.0557E-04  0.0166
   3.7712E-01   3.8629E-01   7.9592E-04  0.0165
   3.8629E-01   3.9569E-01   8.0576E-04  0.0162
   3.9569E-01   4.0532E-01   8.2079E-04  0.0159
   4.0532E-01   4.1518E-01   8.3735E-04  0.0155
   4.1518E-01   4.2528E-01   8.1913E-04  0.0155
   4.2528E-01   4.3563E-01   8.3229E-04  0.0152
   4.3563E-01   4.4623E-01   8.6074E-04  0.0148
   4.4623E-01   4.5708E-01   8.5180E-04  0.0147
   4.5708E-01   4.6821E-01   8.7047E-04  0.0143
   4.6821E-01   4.7960E-01   8.6022E-04  0.0142
   4.7960E-01   4.9127E-01   8.6824E-04  0.0140
   4.9127E-01   5.0322E-01   8.8161E-04  0.0137
   5.0322E-01   5.1546E-01   8.9687E-04  0.0135
   5.1546E-01   5.2800E-01   8.8492E-04  0.0134
   5.2800E-01   5.4085E-01   8.9800E-04  0.0131
   5.4085E-01   5.5401E-01   8.9573E-04  0.0130
   5.5401E-01   5.6749E-01   8.7414E-04  0.0130
   5.6749E-01   5.8130E-01   8.7998E-04  0.0128
   5.8130E-01   5.9544E-01   8.9727E-04  0.0125
   5.9544E-01   6.0993E-01   8.8046E-04  0.0125
   6.0993E-01   6.2477E-01   8.8696E-04  0.0123
   6.2477E-01   6.3997E-01   8.6461E-04  0.0123
   6.3997E-01   6.5554E-01   8.8169E-04  0.0120
   6.5554E-01   6.7149E-01   8.6316E-04  0.0120
   6.7149E-01   6.8783E-01   8.9260E-04  0.0117
   6.8783E-01   7.0456E-01   8.6397E-04  0.0117
   7.0456E-01   7.2171E-01   8.3791E-04  0.0118
   7.2171E-01   7.3927E-01   8.5868E-04  0.0115
   7.3927E-01   7.5725E-01   8.4049E-04  0.0115
   7.5725E-01   7.7568E-01   8.2871E-04  0.0114
   7.7568E-01   7.9455E-01   8.1727E-04  0.0113
   7.9455E-01   8.1388E-01   8.1744E-04  0.0112
   8.1388E-01   8.3368E-01   7.9672E-04  0.0112
   8.3368E-01   8.5397E-01   7.5813E-04  0.0114
   8.5397E-01   8.7475E-01   7.5640E-04  0.0112
   8.7475E-01   8.9603E-01   7.2980E-04  0.0113
   8.9603E-01   9.1783E-01   7.2006E-04  0.0112
   9.1783E-01   9.4016E-01   6.9918E-04  0.0113
   9.4016E-01   9.6304E-01   6.7455E-04  0.0113
   9.6304E-01   9.8647E-01   6.4119E-04  0.0115
   9.8647E-01   1.0105E+00   6.2530E-04  0.0115
   1.0105E+00   1.0351E+00   6.1210E-04  0.0115
   1.0351E+00   1.0602E+00   5.9424E-04  0.0115
   1.0602E+00   1.0860E+00   5.9604E-04  0.0114
   1.0860E+00   1.1125E+00   5.9822E-04  0.0112
   1.1125E+00   1.1395E+00   5.8511E-04  0.0112
   1.1395E+00   1.1673E+00   5.8867E-04  0.0110
   1.1673E+00   1.1957E+00   5.9568E-04  0.0108
   1.1957E+00   1.2247E+00   5.9293E-04  0.0107
   1.2247E+00   1.2545E+00   5.9310E-04  0.0106
   1.2545E+00   1.2851E+00   5.7920E-04  0.0106
   1.2851E+00   1.3163E+00   5.7110E-04  0.0105
   1.3163E+00   1.3484E+00   5.7278E-04  0.0104
   1.3484E+00   1.3812E+00   5.5757E-04  0.0104
   1.3812E+00   1.4148E+00   5.6035E-04  0.0102
   1.4148E+00   1.4492E+00   5.5825E-04  0.0102
   1.4492E+00   1.4845E+00   5.3366E-04  0.0103
   1.4845E+00   1.5206E+00   5.2015E-04  0.0103
   1.5206E+00   1.5576E+00   5.1211E-04  0.0102
   1.5576E+00   1.5955E+00   4.9522E-04  0.0103
   1.5955E+00   1.6343E+00   4.9616E-04  0.0101
   1.6343E+00   1.6741E+00   4.7875E-04  0.0102
   1.6741E+00   1.7148E+00   4.8412E-04  0.0100
   1.7148E+00   1.7565E+00   4.6733E-04  0.0101
   1.7565E+00   1.7992E+00   4.4840E-04  0.0102
   1.7992E+00   1.8430E+00   4.4358E-04  0.0101
   1.8430E+00   1.8879E+00   4.2878E-04  0.0101
   1.8879E+00   1.9338E+00   4.2637E-04  0.0100
   1.9338E+00   1.9808E+00   4.1971E-04  0.0100
   1.9808E+00   2.0290E+00   4.1396E-04  0.0100
   2.0290E+00   2.0784E+00   3.9937E-04  0.0100
   2.0784E+00   2.1290E+00   3.7697E-04  0.0102
   2.1290E+00   2.1808E+00   3.7305E-04  0.0101
   2.1808E+00   2.2338E+00   3.6766E-04  0.0101
   2.2338E+00   2.2882E+00   3.5674E-04  0.0101
   2.2882E+00   2.3439E+00   3.4792E-04  0.0101
   2.3439E+00   2.4009E+00   3.3954E-04  0.0101
   2.4009E+00   2.4593E+00   3.3213E-04  0.0101
   2.4593E+00   2.5191E+00   3.2877E-04  0.0100
   2.5191E+00   2.5804E+00   3.1624E-04  0.0101
   2.5804E+00   2.6432E+00   3.1042E-04  0.0101
   2.6432E+00   2.7075E+00   2.9821E-04  0.0101
   2.7075E+00   2.7734E+00   2.8769E-04  0.0102
   2.7734E+00   2.8409E+00   2.8298E-04  0.0102
   2.8409E+00   2.9100E+00   2.6861E-04  0.0103
   2.9100E+00   2.9808E+00   2.6863E-04  0.0102
   2.9808E+00   3.0533E+00   2.5718E-04  0.0103
   3.0533E+00   3.1276E+00   2.5459E-04  0.0102
   3.1276E+00   3.2037E+00   2.4811E-04  0.0102
   3.2037E+00   3.2817E+00   2.3787E-04  0.0103
   3.2817E+00   3.3615E+00   2.3264E-04  0.0103
   3.3615E+00   3.4433E+00   2.2093E-04  0.0104
   3.4433E+00   3.5271E+00   2.1695E-04  0.0104
   3.5271E+00   3.6129E+00   2.0915E-04  0.0105
   3.6129E+00   3.7008E+00   2.0517E-04  0.0105
   3.7008E+00   3.7908E+00   1.9640E-04  0.0106
   3.7908E+00   3.8831E+00   1.9153E-04  0.0106
   3.8831E+00   3.9776E+00   1.8325E-04  0.0107
   3.9776E+00   4.0743E+00   1.8013E-04  0.0106
   4.0743E+00   4.1735E+00   1.7249E-04  0.0107
   4.1735E+00   4.2750E+00   1.6669E-04  0.0108
   4.2750E+00   4.3790E+00   1.6110E-04  0.0109
   4.3790E+00   4.4856E+00   1.6004E-04  0.0108
   4.4856E+00   4.5947E+00   1.4939E-04  0.0110
   4.5947E+00   4.7065E+00   1.4500E-04  0.0110
   4.7065E+00   4.8210E+00   1.4078E-04  0.0111
   4.8210E+00   4.9383E+00   1.3454E-04  0.0112
   4.9383E+00   5.0585E+00   1.2692E-04  0.0114
   5.0585E+00   5.1815E+00   1.1944E-04  0.0116
   5.1815E+00   5.3076E+00   1.1527E-04  0.0117
   5.3076E+00   5.4368E+00   1.1054E-04  0.0118
   5.4368E+00   5.5690E+00   1.0596E-04  0.0119
   5.5690E+00   5.7045E+00   9.9773E-05  0.0121
   5.7045E+00   5.8433E+00   9.6089E-05  0.0122
   5.8433E+00   5.9855E+00   8.8873E-05  0.0125
   5.9855E+00   6.1311E+00   8.6712E-05  0.0125
   6.1311E+00   6.2803E+00   8.0954E-05  0.0128
   6.2803E+00   6.4331E+00   7.7935E-05  0.0129
   6.4331E+00   6.5896E+00   7.4451E-05  0.0130
   6.5896E+00   6.7500E+00   6.9001E-05  0.0134
   6.7500E+00   6.9142E+00   6.3714E-05  0.0138
   6.9142E+00   7.0824E+00   6.0736E-05  0.0139
   7.0824E+00   7.2548E+00   5.7194E-05  0.0142
   7.2548E+00   7.4313E+00   5.3647E-05  0.0145
   7.4313E+00   7.6121E+00   5.0378E-05  0.0148
   7.6121E+00   7.7973E+00   4.7597E-05  0.0150
   7.7973E+00   7.9870E+00   4.4473E-05  0.0153
   7.9870E+00   8.1813E+00   4.2018E-05  0.0156
   8.1813E+00   8.3804E+00   3.9253E-05  0.0160
   8.3804E+00   8.5843E+00   3.7020E-05  0.0162
   8.5843E+00   8.7931E+00   3.4847E-05  0.0165
   8.7931E+00   9.0071E+00   3.2499E-05  0.0169
   9.0071E+00   9.2262E+00   3.0928E-05  0.0171
   9.2262E+00   9.4507E+00   2.8848E-05  0.0175
   9.4507E+00   9.6807E+00   2.7295E-05  0.0178
   9.6807E+00   9.9162E+00   2.5165E-05  0.0183
   9.9162E+00   1.0157E+01   2.4061E-05  0.0185
   1.0157E+01   1.0405E+01   2.4520E-05  0.0181
   1.0405E+01   1.0658E+01   2.4802E-05  0.0178
   1.0658E+01   1.0917E+01   2.3957E-05  0.0179
   1.0917E+01   1.1183E+01   2.3954E-05  0.0177
   1.1183E+01   1.1455E+01   2.2315E-05  0.0181
   1.1455E+01   1.1733E+01   2.2258E-05  0.0179
   1.1733E+01   1.2019E+01   1.8924E-05  0.0192
   1.2019E+01   1.2311E+01   1.8525E-05  0.0192
   1.2311E+01   1.2611E+01   1.6372E-05  0.0202
   1.2611E+01   1.2918E+01   1.5373E-05  0.0206
   1.2918E+01   1.3232E+01   1.4361E-05  0.0210
   1.3232E+01   1.3554E+01   1.3815E-05  0.0212
   1.3554E+01   1.3884E+01   1.2982E-05  0.0216
   1.3884E+01   1.4222E+01   1.1717E-05  0.0224
   1.4222E+01   1.4568E+01   1.0476E-05  0.0235
   1.4568E+01   1.4922E+01   9.9909E-06  0.0237
   1.4922E+01   1.5285E+01   9.4958E-06  0.0241
   1.5285E+01   1.5657E+01   8.0683E-06  0.0258
   1.5657E+01   1.6038E+01   7.5333E-06  0.0264
   1.6038E+01   1.6428E+01   6.6275E-06  0.0278
   1.6428E+01   1.6828E+01   6.3843E-06  0.0280
   1.6828E+01   1.7237E+01   5.8706E-06  0.0288
   1.7237E+01   1.7657E+01   5.3777E-06  0.0298
   1.7657E+01   1.8086E+01   4.8268E-06  0.0310
   1.8086E+01   1.8526E+01   4.2601E-06  0.0327
   1.8526E+01   1.8977E+01   3.9375E-06  0.0336
   1.8977E+01   1.9439E+01   3.9388E-06  0.0332
   1.9439E+01   1.9912E+01   3.3542E-06  0.0355
   1.9912E+01   2.0396E+01   3.0136E-06  0.0370
   2.0396E+01   2.0893E+01   2.6115E-06  0.0393
   2.0893E+01   2.1401E+01   2.4669E-06  0.0399
   2.1401E+01   2.1922E+01   2.1586E-06  0.0422
   2.1922E+01   2.2455E+01   1.9236E-06  0.0442
   2.2455E+01   2.3001E+01   1.6253E-06  0.0475
   2.3001E+01   2.3561E+01   1.5760E-06  0.0476
   2.3561E+01   2.4134E+01   1.2385E-06  0.0531
   2.4134E+01   2.4721E+01   1.1240E-06  0.0550
   2.4721E+01   2.5323E+01   9.0774E-07  0.0605
   2.5323E+01   2.5939E+01   8.2775E-07  0.0626
   2.5939E+01   2.6570E+01   7.0668E-07  0.0670
   2.6570E+01   2.7217E+01   5.5068E-07  0.0750
   2.7217E+01   2.7879E+01   4.7115E-07  0.0801
   2.7879E+01   2.8557E+01   3.8035E-07  0.0880
   2.8557E+01   2.9252E+01   3.3390E-07  0.0928
   2.9252E+01   2.9964E+01   2.0514E-07  0.1170
   2.9964E+01   3.0693E+01   2.1947E-07  0.1118
   3.0693E+01   3.1440E+01   2.1425E-07  0.1118
   3.1440E+01   3.2205E+01   1.3596E-07  0.1387
   3.2205E+01   3.2988E+01   1.2507E-07  0.1429
   3.2988E+01   3.3791E+01   9.4689E-08  0.1622
   3.3791E+01   3.4613E+01   8.0277E-08  0.1741
   3.4613E+01   3.5455E+01   7.3620E-08  0.1796
   3.5455E+01   3.6318E+01   6.0279E-08  0.1961
   3.6318E+01   3.7201E+01   4.0741E-08  0.2357
   3.7201E+01   3.8106E+01   3.0935E-08  0.2673
   3.8106E+01   3.9034E+01   2.5886E-08  0.2887
   3.9034E+01   3.9983E+01   1.8953E-08  0.3333
   3.9983E+01   4.0956E+01   2.0559E-08  0.3162
   4.0956E+01   4.1953E+01   1.2042E-08  0.4082
   4.1953E+01   4.2973E+01   9.7968E-09  0.4472
   4.2973E+01   4.4019E+01   1.7215E-08  0.3333
   4.4019E+01   4.5090E+01   5.6022E-09  0.5774
   4.5090E+01   4.6187E+01   1.0938E-08  0.4082
   4.6187E+01   4.7311E+01   3.5595E-09  0.7071
   4.7311E+01   4.8462E+01   1.7375E-09  1.0000
   4.8462E+01   4.9641E+01   1.6962E-09  1.0000
   4.9641E+01   5.0849E+01   4.9677E-09  0.5774
   5.0849E+01   5.2086E+01   1.6166E-09  1.0000
   5.2086E+01   5.3353E+01   0.0000E+00  0.0000
   5.3353E+01   5.4651E+01   0.0000E+00  0.0000
   5.4651E+01   5.5981E+01   0.0000E+00  0.0000
   5.5981E+01   5.7343E+01   0.0000E+00  0.0000
   5.7343E+01   5.8738E+01   0.0000E+00  0.0000
   5.8738E+01   6.0168E+01   0.0000E+00  0.0000
   6.0168E+01   6.1632E+01   0.0000E+00  0.0000
   6.1632E+01   6.3131E+01   0.0000E+00  0.0000
   6.3131E+01   6.4667E+01   1.3021E-09  1.0000
   6.4667E+01   6.6240E+01   0.0000E+00  0.0000
   6.6240E+01   6.7852E+01   0.0000E+00  0.0000
   6.7852E+01   6.9503E+01   0.0000E+00  0.0000
   6.9503E+01   7.1194E+01   0.0000E+00  0.0000
   7.1194E+01   7.2926E+01   0.0000E+00  0.0000
   7.2926E+01   7.4701E+01   0.0000E+00  0.0000
   7.4701E+01   7.6518E+01   0.0000E+00  0.0000
   7.6518E+01   7.8380E+01   0.0000E+00  0.0000
   7.8380E+01   8.0287E+01   0.0000E+00  0.0000
   8.0287E+01   8.2240E+01   0.0000E+00  0.0000
   8.2240E+01   8.4241E+01   0.0000E+00  0.0000
   8.4241E+01   8.6291E+01   0.0000E+00  0.0000
   8.6291E+01   8.8391E+01   0.0000E+00  0.0000
   8.8391E+01   9.0541E+01   0.0000E+00  0.0000
   9.0541E+01   9.2744E+01   0.0000E+00  0.0000
   9.2744E+01   9.5001E+01   0.0000E+00  0.0000
   9.5001E+01   9.7312E+01   0.0000E+00  0.0000
   9.7312E+01   9.9680E+01   0.0000E+00  0.0000
   9.9680E+01   1.0211E+02   0.0000E+00  0.0000
   1.0211E+02   1.0459E+02   0.0000E+00  0.0000
   1.0459E+02   1.0713E+02   0.0000E+00  0.0000
   1.0713E+02   1.0974E+02   0.0000E+00  0.0000
   1.0974E+02   1.1241E+02   0.0000E+00  0.0000
   1.1241E+02   1.1515E+02   0.0000E+00  0.0000
   1.1515E+02   1.1795E+02   0.0000E+00  0.0000
   1.1795E+02   1.2082E+02   0.0000E+00  0.0000
   1.2082E+02   1.2376E+02   0.0000E+00  0.0000
   1.2376E+02   1.2677E+02   0.0000E+00  0.0000
   1.2677E+02   1.2985E+02   0.0000E+00  0.0000
   1.2985E+02   1.3301E+02   0.0000E+00  0.0000
   1.3301E+02   1.3625E+02   0.0000E+00  0.0000
   1.3625E+02   1.3956E+02   0.0000E+00  0.0000
   1.3956E+02   1.4296E+02   0.0000E+00  0.0000
   1.4296E+02   1.4644E+02   0.0000E+00  0.0000
   1.4644E+02   1.5000E+02   0.0000E+00  0.0000

#   sum over                 1.6700E-05
'no. =    1   reg = 120 - 220'
msuc: {\huge [t-cross] in region mesh}
msdr: {\it plotted by \ANGEL \version}
msdl: {\it calculated by \PHITS  3.26}
wt: s(0.7)
\vspace{-3}
  region surface crossing
  area  &=&   1.0000E+00 [cm^2]
e:
 
# Information for Restart Calculation
# This calculation was newly started
# istdev =  2 # 1:Batch variance, 2:History variance
# resc2  = 5.00000000000000000E+08 # Total source weight or Total source weight / maxcas
# resc3  = 5.00000000000000000E+08 # Total history number or Total batch number
# maxcas =   500000000 # History / Batch, only used for istdev=1
# bitrseed = 1101101111010011011000101101110001100110110010110001010100010001 # bit data of rseed
