[ T-Cross ]
    title = [t-cross] in region mesh
     mesh =  reg            # mesh type is region-wise
      reg =    1            # number of crossing regions
      non     r-from    r-to       area
      1       125       225        1.000000    
   e-type =    3            # e-mesh is log given by emin, emax and ne
     emin =  1.0000000E-02  # minimum value of e-mesh points
     emax =   150.0000      # maximum value of e-mesh points
#    edel =  2.4039514E-02  # mesh width of e-mesh points
       ne =    400          # number of e-mesh points
#    data = ( e(i), i = 1, ne + 1 )
#           1.00000E-02  1.02433E-02  1.04925E-02  1.07478E-02  1.10093E-02
#           1.12772E-02  1.15516E-02  1.18326E-02  1.21205E-02  1.24154E-02
#           1.27175E-02  1.30269E-02  1.33439E-02  1.36686E-02  1.40011E-02
#           1.43418E-02  1.46907E-02  1.50482E-02  1.54143E-02  1.57894E-02
#           1.61735E-02  1.65670E-02  1.69701E-02  1.73830E-02  1.78060E-02
#           1.82392E-02  1.86830E-02  1.91375E-02  1.96032E-02  2.00801E-02
#           2.05687E-02  2.10692E-02  2.15818E-02  2.21069E-02  2.26448E-02
#           2.31957E-02  2.37601E-02  2.43382E-02  2.49304E-02  2.55369E-02
#           2.61583E-02  2.67947E-02  2.74467E-02  2.81145E-02  2.87985E-02
#           2.94992E-02  3.02169E-02  3.09521E-02  3.17052E-02  3.24766E-02
#           3.32668E-02  3.40762E-02  3.49053E-02  3.57546E-02  3.66246E-02
#           3.75157E-02  3.84284E-02  3.93634E-02  4.03212E-02  4.13022E-02
#           4.23071E-02  4.33365E-02  4.43909E-02  4.54710E-02  4.65773E-02
#           4.77106E-02  4.88714E-02  5.00605E-02  5.12785E-02  5.25262E-02
#           5.38042E-02  5.51133E-02  5.64542E-02  5.78278E-02  5.92348E-02
#           6.06760E-02  6.21523E-02  6.36645E-02  6.52135E-02  6.68002E-02
#           6.84255E-02  7.00904E-02  7.17957E-02  7.35426E-02  7.53319E-02
#           7.71648E-02  7.90423E-02  8.09655E-02  8.29354E-02  8.49533E-02
#           8.70203E-02  8.91376E-02  9.13064E-02  9.35279E-02  9.58035E-02
#           9.81345E-02  1.00522E-01  1.02968E-01  1.05473E-01  1.08040E-01
#           1.10668E-01  1.13361E-01  1.16119E-01  1.18944E-01  1.21838E-01
#           1.24803E-01  1.27839E-01  1.30950E-01  1.34136E-01  1.37399E-01
#           1.40742E-01  1.44167E-01  1.47675E-01  1.51268E-01  1.54948E-01
#           1.58718E-01  1.62580E-01  1.66535E-01  1.70587E-01  1.74738E-01
#           1.78989E-01  1.83344E-01  1.87805E-01  1.92375E-01  1.97055E-01
#           2.01850E-01  2.06761E-01  2.11792E-01  2.16945E-01  2.22223E-01
#           2.27630E-01  2.33169E-01  2.38842E-01  2.44653E-01  2.50605E-01
#           2.56703E-01  2.62949E-01  2.69346E-01  2.75900E-01  2.82613E-01
#           2.89489E-01  2.96532E-01  3.03747E-01  3.11138E-01  3.18708E-01
#           3.26462E-01  3.34405E-01  3.42542E-01  3.50876E-01  3.59413E-01
#           3.68158E-01  3.77116E-01  3.86291E-01  3.95690E-01  4.05317E-01
#           4.15179E-01  4.25281E-01  4.35628E-01  4.46227E-01  4.57084E-01
#           4.68205E-01  4.79597E-01  4.91266E-01  5.03219E-01  5.15463E-01
#           5.28005E-01  5.40851E-01  5.54011E-01  5.67490E-01  5.81298E-01
#           5.95441E-01  6.09929E-01  6.24769E-01  6.39970E-01  6.55541E-01
#           6.71491E-01  6.87828E-01  7.04564E-01  7.21706E-01  7.39266E-01
#           7.57253E-01  7.75678E-01  7.94551E-01  8.13883E-01  8.33685E-01
#           8.53969E-01  8.74747E-01  8.96030E-01  9.17831E-01  9.40163E-01
#           9.63038E-01  9.86469E-01  1.01047E+00  1.03506E+00  1.06024E+00
#           1.08604E+00  1.11246E+00  1.13953E+00  1.16725E+00  1.19565E+00
#           1.22474E+00  1.25454E+00  1.28507E+00  1.31633E+00  1.34836E+00
#           1.38117E+00  1.41477E+00  1.44920E+00  1.48446E+00  1.52057E+00
#           1.55757E+00  1.59547E+00  1.63429E+00  1.67405E+00  1.71478E+00
#           1.75650E+00  1.79924E+00  1.84302E+00  1.88786E+00  1.93379E+00
#           1.98084E+00  2.02904E+00  2.07841E+00  2.12898E+00  2.18078E+00
#           2.23384E+00  2.28819E+00  2.34386E+00  2.40089E+00  2.45930E+00
#           2.51914E+00  2.58043E+00  2.64322E+00  2.70753E+00  2.77341E+00
#           2.84088E+00  2.91001E+00  2.98081E+00  3.05333E+00  3.12762E+00
#           3.20372E+00  3.28167E+00  3.36152E+00  3.44330E+00  3.52708E+00
#           3.61290E+00  3.70080E+00  3.79085E+00  3.88308E+00  3.97756E+00
#           4.07434E+00  4.17347E+00  4.27501E+00  4.37903E+00  4.48557E+00
#           4.59471E+00  4.70650E+00  4.82102E+00  4.93832E+00  5.05847E+00
#           5.18155E+00  5.30762E+00  5.43676E+00  5.56904E+00  5.70453E+00
#           5.84333E+00  5.98550E+00  6.13114E+00  6.28031E+00  6.43312E+00
#           6.58964E+00  6.74997E+00  6.91420E+00  7.08243E+00  7.25475E+00
#           7.43126E+00  7.61207E+00  7.79728E+00  7.98700E+00  8.18133E+00
#           8.38038E+00  8.58428E+00  8.79315E+00  9.00709E+00  9.22624E+00
#           9.45072E+00  9.68067E+00  9.91620E+00  1.01575E+01  1.04046E+01
#           1.06578E+01  1.09171E+01  1.11827E+01  1.14548E+01  1.17335E+01
#           1.20190E+01  1.23114E+01  1.26109E+01  1.29178E+01  1.32321E+01
#           1.35540E+01  1.38838E+01  1.42216E+01  1.45676E+01  1.49221E+01
#           1.52851E+01  1.56570E+01  1.60380E+01  1.64282E+01  1.68279E+01
#           1.72374E+01  1.76568E+01  1.80864E+01  1.85264E+01  1.89772E+01
#           1.94389E+01  1.99119E+01  2.03963E+01  2.08926E+01  2.14009E+01
#           2.19216E+01  2.24550E+01  2.30014E+01  2.35610E+01  2.41343E+01
#           2.47215E+01  2.53230E+01  2.59391E+01  2.65702E+01  2.72167E+01
#           2.78789E+01  2.85572E+01  2.92520E+01  2.99637E+01  3.06928E+01
#           3.14396E+01  3.22045E+01  3.29881E+01  3.37907E+01  3.46128E+01
#           3.54550E+01  3.63177E+01  3.72013E+01  3.81064E+01  3.90336E+01
#           3.99833E+01  4.09561E+01  4.19526E+01  4.29734E+01  4.40189E+01
#           4.50900E+01  4.61870E+01  4.73108E+01  4.84619E+01  4.96410E+01
#           5.08488E+01  5.20860E+01  5.33533E+01  5.46514E+01  5.59812E+01
#           5.73432E+01  5.87384E+01  6.01676E+01  6.16315E+01  6.31311E+01
#           6.46671E+01  6.62405E+01  6.78522E+01  6.95031E+01  7.11941E+01
#           7.29263E+01  7.47007E+01  7.65182E+01  7.83800E+01  8.02870E+01
#           8.22405E+01  8.42414E+01  8.62911E+01  8.83906E+01  9.05412E+01
#           9.27442E+01  9.50007E+01  9.73122E+01  9.96799E+01  1.02105E+02
#           1.04589E+02  1.07134E+02  1.09741E+02  1.12411E+02  1.15146E+02
#           1.17948E+02  1.20817E+02  1.23757E+02  1.26768E+02  1.29852E+02
#           1.33012E+02  1.36248E+02  1.39563E+02  1.42959E+02  1.46437E+02
#           1.50000E+02
     unit =    2            # unit is [1/cm^2/(MeV/n)/source]
     axis =  eng            # axis of output
     file = detector-26.out  # file name of output for the above axis
   output = f-curr          # surface crossing forward current spectrum
     part =  neutron  
# kf/name :  2112     
#    used :        main (  %)        temp (  %)       total (  %)
#  memory :         414 (  0)           0 (  0)         414 (  0)

#------------------------------------------------------------------------------
#newpage:
#   no. =    1   reg = 125 - 225

x: Energy [MeV/n]
y:  F-Curr [1/cm^2/(MeV/n)/source]         
p: xlog ylog afac(0.8) form(0.9)
h: n            x            y(neutron ),hh0l   n 
#  e-lower      e-upper      neutron     r.err 
   1.0000E-02   1.0243E-02   1.0468E-03  0.0885
   1.0243E-02   1.0493E-02   9.4660E-04  0.0916
   1.0493E-02   1.0748E-02   9.0709E-04  0.0927
   1.0748E-02   1.1009E-02   9.8967E-04  0.0878
   1.1009E-02   1.1277E-02   9.7810E-04  0.0874
   1.1277E-02   1.1552E-02   9.2696E-04  0.0886
   1.1552E-02   1.1833E-02   7.8981E-04  0.0946
   1.1833E-02   1.2121E-02   9.2882E-04  0.0863
   1.2121E-02   1.2415E-02   1.0433E-03  0.0805
   1.2415E-02   1.2718E-02   8.9712E-04  0.0858
   1.2718E-02   1.3027E-02   8.6716E-04  0.0861
   1.3027E-02   1.3344E-02   9.4425E-04  0.0816
   1.3344E-02   1.3669E-02   8.1304E-04  0.0868
   1.3669E-02   1.4001E-02   7.9718E-04  0.0865
   1.4001E-02   1.4342E-02   7.9546E-04  0.0858
   1.4342E-02   1.4691E-02   6.8583E-04  0.0913
   1.4691E-02   1.5048E-02   7.0601E-04  0.0890
   1.5048E-02   1.5414E-02   7.7374E-04  0.0839
   1.5414E-02   1.5789E-02   7.5099E-04  0.0840
   1.5789E-02   1.6174E-02   8.0238E-04  0.0803
   1.6174E-02   1.6567E-02   6.1156E-04  0.0911
   1.6567E-02   1.6970E-02   6.9460E-04  0.0843
   1.6970E-02   1.7383E-02   6.5876E-04  0.0857
   1.7383E-02   1.7806E-02   6.5619E-04  0.0846
   1.7806E-02   1.8239E-02   7.7958E-04  0.0768
   1.8239E-02   1.8683E-02   6.6025E-04  0.0825
   1.8683E-02   1.9138E-02   5.8289E-04  0.0867
   1.9138E-02   1.9603E-02   6.2059E-04  0.0831
   1.9603E-02   2.0080E-02   6.8332E-04  0.0782
   2.0080E-02   2.0569E-02   6.4326E-04  0.0795
   2.0569E-02   2.1069E-02   5.7230E-04  0.0834
   2.1069E-02   2.1582E-02   5.6376E-04  0.0828
   2.1582E-02   2.2107E-02   6.1065E-04  0.0787
   2.2107E-02   2.2645E-02   6.0705E-04  0.0780
   2.2645E-02   2.3196E-02   5.0318E-04  0.0846
   2.3196E-02   2.3760E-02   6.1484E-04  0.0759
   2.3760E-02   2.4338E-02   5.1674E-04  0.0817
   2.4338E-02   2.4930E-02   6.0175E-04  0.0747
   2.4930E-02   2.5537E-02   4.9514E-04  0.0816
   2.5537E-02   2.6158E-02   5.2480E-04  0.0781
   2.6158E-02   2.6795E-02   5.2148E-04  0.0775
   2.6795E-02   2.7447E-02   4.4680E-04  0.0828
   2.7447E-02   2.8114E-02   4.9358E-04  0.0777
   2.8114E-02   2.8799E-02   4.8607E-04  0.0772
   2.8799E-02   2.9499E-02   4.5657E-04  0.0789
   2.9499E-02   3.0217E-02   4.2405E-04  0.0808
   3.0217E-02   3.0952E-02   3.9072E-04  0.0833
   3.0952E-02   3.1705E-02   3.8046E-04  0.0835
   3.1705E-02   3.2477E-02   4.5452E-04  0.0755
   3.2477E-02   3.3267E-02   4.5379E-04  0.0745
   3.3267E-02   3.4076E-02   3.3942E-04  0.0852
   3.4076E-02   3.4905E-02   4.1245E-04  0.0762
   3.4905E-02   3.5755E-02   3.6421E-04  0.0803
   3.5755E-02   3.6625E-02   3.6781E-04  0.0789
   3.6625E-02   3.7516E-02   2.9514E-04  0.0871
   3.7516E-02   3.8428E-02   3.5277E-04  0.0786
   3.8428E-02   3.9363E-02   3.6352E-04  0.0766
   3.9363E-02   4.0321E-02   3.2020E-04  0.0806
   4.0321E-02   4.1302E-02   3.8325E-04  0.0728
   4.1302E-02   4.2307E-02   3.4854E-04  0.0753
   4.2307E-02   4.3337E-02   3.2608E-04  0.0771
   4.3337E-02   4.4391E-02   2.8799E-04  0.0810
   4.4391E-02   4.5471E-02   2.9683E-04  0.0789
   4.5471E-02   4.6577E-02   3.3624E-04  0.0733
   4.6577E-02   4.7711E-02   3.2473E-04  0.0736
   4.7711E-02   4.8871E-02   2.7541E-04  0.0788
   4.8871E-02   5.0061E-02   3.0069E-04  0.0747
   5.0061E-02   5.1279E-02   3.2864E-04  0.0707
   5.1279E-02   5.2526E-02   3.1687E-04  0.0711
   5.2526E-02   5.3804E-02   3.0719E-04  0.0712
   5.3804E-02   5.5113E-02   2.5970E-04  0.0766
   5.5113E-02   5.6454E-02   2.6175E-04  0.0754
   5.6454E-02   5.7828E-02   2.2764E-04  0.0799
   5.7828E-02   5.9235E-02   2.4137E-04  0.0765
   5.9235E-02   6.0676E-02   2.5933E-04  0.0730
   6.0676E-02   6.2152E-02   2.3108E-04  0.0765
   6.2152E-02   6.3665E-02   2.5812E-04  0.0715
   6.3665E-02   6.5214E-02   2.4137E-04  0.0730
   6.5214E-02   6.6800E-02   2.4929E-04  0.0710
   6.6800E-02   6.8426E-02   2.3522E-04  0.0722
   6.8426E-02   7.0090E-02   2.0979E-04  0.0756
   7.0090E-02   7.1796E-02   1.9374E-04  0.0776
   7.1796E-02   7.3543E-02   2.1639E-04  0.0727
   7.3543E-02   7.5332E-02   2.2597E-04  0.0702
   7.5332E-02   7.7165E-02   2.0828E-04  0.0723
   7.7165E-02   7.9042E-02   1.8960E-04  0.0748
   7.9042E-02   8.0965E-02   1.7723E-04  0.0764
   8.0965E-02   8.2935E-02   2.0392E-04  0.0705
   8.2935E-02   8.4953E-02   2.1642E-04  0.0676
   8.4953E-02   8.7020E-02   1.7673E-04  0.0739
   8.7020E-02   8.9138E-02   1.8173E-04  0.0718
   8.9138E-02   9.1306E-02   1.7258E-04  0.0729
   9.1306E-02   9.3528E-02   1.3748E-04  0.0808
   9.3528E-02   9.5804E-02   1.7649E-04  0.0705
   9.5804E-02   9.8134E-02   1.6487E-04  0.0721
   9.8134E-02   1.0052E-01   1.5283E-04  0.0739
   1.0052E-01   1.0297E-01   1.7033E-04  0.0692
   1.0297E-01   1.0547E-01   1.4726E-04  0.0736
   1.0547E-01   1.0804E-01   1.5000E-04  0.0718
   1.0804E-01   1.1067E-01   1.5315E-04  0.0704
   1.1067E-01   1.1336E-01   1.4754E-04  0.0708
   1.1336E-01   1.1612E-01   1.2593E-04  0.0758
   1.1612E-01   1.1894E-01   1.3520E-04  0.0721
   1.1894E-01   1.2184E-01   1.3500E-04  0.0714
   1.2184E-01   1.2480E-01   1.3907E-04  0.0694
   1.2480E-01   1.2784E-01   1.0670E-04  0.0784
   1.2784E-01   1.3095E-01   1.3648E-04  0.0683
   1.3095E-01   1.3414E-01   1.0083E-04  0.0788
   1.3414E-01   1.3740E-01   1.2927E-04  0.0687
   1.3740E-01   1.4074E-01   1.3104E-04  0.0674
   1.4074E-01   1.4417E-01   1.2820E-04  0.0674
   1.4417E-01   1.4767E-01   1.1415E-04  0.0706
   1.4767E-01   1.5127E-01   1.1073E-04  0.0707
   1.5127E-01   1.5495E-01   1.0487E-04  0.0719
   1.5495E-01   1.5872E-01   1.0687E-04  0.0703
   1.5872E-01   1.6258E-01   1.0392E-04  0.0705
   1.6258E-01   1.6654E-01   9.4791E-05  0.0730
   1.6654E-01   1.7059E-01   1.1296E-04  0.0660
   1.7059E-01   1.7474E-01   9.3946E-05  0.0715
   1.7474E-01   1.7899E-01   8.9988E-05  0.0722
   1.7899E-01   1.8334E-01   8.7475E-05  0.0722
   1.8334E-01   1.8781E-01   8.7843E-05  0.0713
   1.8781E-01   1.9237E-01   9.1179E-05  0.0691
   1.9237E-01   1.9706E-01   7.6266E-05  0.0747
   1.9706E-01   2.0185E-01   9.3770E-05  0.0665
   2.0185E-01   2.0676E-01   8.9379E-05  0.0674
   2.0676E-01   2.1179E-01   8.7581E-05  0.0672
   2.1179E-01   2.1694E-01   8.8807E-05  0.0659
   2.1694E-01   2.2222E-01   9.3788E-05  0.0634
   2.2222E-01   2.2763E-01   1.0341E-04  0.0596
   2.2763E-01   2.3317E-01   9.8086E-05  0.0606
   2.3317E-01   2.3884E-01   9.2541E-05  0.0617
   2.3884E-01   2.4465E-01   9.8347E-05  0.0590
   2.4465E-01   2.5061E-01   1.0140E-04  0.0573
   2.5061E-01   2.5670E-01   9.9002E-05  0.0574
   2.5670E-01   2.6295E-01   1.1477E-04  0.0527
   2.6295E-01   2.6935E-01   1.0223E-04  0.0552
   2.6935E-01   2.7590E-01   1.1524E-04  0.0513
   2.7590E-01   2.8261E-01   1.1489E-04  0.0508
   2.8261E-01   2.8949E-01   1.1139E-04  0.0510
   2.8949E-01   2.9653E-01   1.0866E-04  0.0511
   2.9653E-01   3.0375E-01   1.1436E-04  0.0492
   3.0375E-01   3.1114E-01   1.2300E-04  0.0468
   3.1114E-01   3.1871E-01   1.2367E-04  0.0461
   3.1871E-01   3.2646E-01   1.2394E-04  0.0455
   3.2646E-01   3.3441E-01   1.2235E-04  0.0452
   3.3441E-01   3.4254E-01   1.2383E-04  0.0445
   3.4254E-01   3.5088E-01   1.2767E-04  0.0433
   3.5088E-01   3.5941E-01   1.2174E-04  0.0437
   3.5941E-01   3.6816E-01   1.2812E-04  0.0421
   3.6816E-01   3.7712E-01   1.3405E-04  0.0407
   3.7712E-01   3.8629E-01   1.4015E-04  0.0394
   3.8629E-01   3.9569E-01   1.3074E-04  0.0402
   3.9569E-01   4.0532E-01   1.2934E-04  0.0400
   4.0532E-01   4.1518E-01   1.3358E-04  0.0389
   4.1518E-01   4.2528E-01   1.4008E-04  0.0375
   4.2528E-01   4.3563E-01   1.3982E-04  0.0371
   4.3563E-01   4.4623E-01   1.4057E-04  0.0365
   4.4623E-01   4.5708E-01   1.4106E-04  0.0361
   4.5708E-01   4.6821E-01   1.3659E-04  0.0362
   4.6821E-01   4.7960E-01   1.4328E-04  0.0349
   4.7960E-01   4.9127E-01   1.4794E-04  0.0339
   4.9127E-01   5.0322E-01   1.4871E-04  0.0335
   5.0322E-01   5.1546E-01   1.4273E-04  0.0337
   5.1546E-01   5.2800E-01   1.4327E-04  0.0333
   5.2800E-01   5.4085E-01   1.4684E-04  0.0325
   5.4085E-01   5.5401E-01   1.4558E-04  0.0322
   5.5401E-01   5.6749E-01   1.4258E-04  0.0322
   5.6749E-01   5.8130E-01   1.3858E-04  0.0322
   5.8130E-01   5.9544E-01   1.4279E-04  0.0314
   5.9544E-01   6.0993E-01   1.4053E-04  0.0313
   6.0993E-01   6.2477E-01   1.4766E-04  0.0301
   6.2477E-01   6.3997E-01   1.4569E-04  0.0300
   6.3997E-01   6.5554E-01   1.4443E-04  0.0297
   6.5554E-01   6.7149E-01   1.3797E-04  0.0301
   6.7149E-01   6.8783E-01   1.4736E-04  0.0287
   6.8783E-01   7.0456E-01   1.3646E-04  0.0295
   7.0456E-01   7.2171E-01   1.3239E-04  0.0296
   7.2171E-01   7.3927E-01   1.4038E-04  0.0284
   7.3927E-01   7.5725E-01   1.4116E-04  0.0280
   7.5725E-01   7.7568E-01   1.3489E-04  0.0283
   7.7568E-01   7.9455E-01   1.3311E-04  0.0281
   7.9455E-01   8.1388E-01   1.3487E-04  0.0276
   8.1388E-01   8.3368E-01   1.3641E-04  0.0271
   8.3368E-01   8.5397E-01   1.3468E-04  0.0270
   8.5397E-01   8.7475E-01   1.2315E-04  0.0278
   8.7475E-01   8.9603E-01   1.2256E-04  0.0276
   8.9603E-01   9.1783E-01   1.1816E-04  0.0278
   9.1783E-01   9.4016E-01   1.1644E-04  0.0276
   9.4016E-01   9.6304E-01   1.1603E-04  0.0274
   9.6304E-01   9.8647E-01   1.0843E-04  0.0280
   9.8647E-01   1.0105E+00   1.0613E-04  0.0279
   1.0105E+00   1.0351E+00   1.0033E-04  0.0284
   1.0351E+00   1.0602E+00   9.9409E-05  0.0281
   1.0602E+00   1.0860E+00   9.5175E-05  0.0284
   1.0860E+00   1.1125E+00   9.9613E-05  0.0275
   1.1125E+00   1.1395E+00   9.6211E-05  0.0276
   1.1395E+00   1.1673E+00   9.5199E-05  0.0274
   1.1673E+00   1.1957E+00   9.7268E-05  0.0268
   1.1957E+00   1.2247E+00   9.4632E-05  0.0268
   1.2247E+00   1.2545E+00   9.2834E-05  0.0268
   1.2545E+00   1.2851E+00   9.4685E-05  0.0262
   1.2851E+00   1.3163E+00   8.5891E-05  0.0272
   1.3163E+00   1.3484E+00   8.7235E-05  0.0266
   1.3484E+00   1.3812E+00   8.4300E-05  0.0268
   1.3812E+00   1.4148E+00   8.1525E-05  0.0269
   1.4148E+00   1.4492E+00   8.0641E-05  0.0267
   1.4492E+00   1.4845E+00   8.3223E-05  0.0260
   1.4845E+00   1.5206E+00   8.0425E-05  0.0261
   1.5206E+00   1.5576E+00   7.9469E-05  0.0259
   1.5576E+00   1.5955E+00   7.3869E-05  0.0266
   1.5955E+00   1.6343E+00   7.1297E-05  0.0267
   1.6343E+00   1.6741E+00   7.0880E-05  0.0265
   1.6741E+00   1.7148E+00   7.2469E-05  0.0259
   1.7148E+00   1.7565E+00   6.5622E-05  0.0269
   1.7565E+00   1.7992E+00   6.6696E-05  0.0264
   1.7992E+00   1.8430E+00   6.4299E-05  0.0265
   1.8430E+00   1.8879E+00   6.1944E-05  0.0266
   1.8879E+00   1.9338E+00   6.0445E-05  0.0267
   1.9338E+00   1.9808E+00   6.0529E-05  0.0263
   1.9808E+00   2.0290E+00   6.0708E-05  0.0260
   2.0290E+00   2.0784E+00   5.5840E-05  0.0268
   2.0784E+00   2.1290E+00   5.1586E-05  0.0275
   2.1290E+00   2.1808E+00   5.2788E-05  0.0269
   2.1808E+00   2.2338E+00   5.3326E-05  0.0264
   2.2338E+00   2.2882E+00   5.0576E-05  0.0268
   2.2882E+00   2.3439E+00   4.8454E-05  0.0270
   2.3439E+00   2.4009E+00   4.6141E-05  0.0274
   2.4009E+00   2.4593E+00   4.6273E-05  0.0270
   2.4593E+00   2.5191E+00   4.5624E-05  0.0269
   2.5191E+00   2.5804E+00   4.5164E-05  0.0267
   2.5804E+00   2.6432E+00   4.5042E-05  0.0264
   2.6432E+00   2.7075E+00   4.2835E-05  0.0267
   2.7075E+00   2.7734E+00   4.1723E-05  0.0268
   2.7734E+00   2.8409E+00   3.9292E-05  0.0273
   2.8409E+00   2.9100E+00   3.7959E-05  0.0274
   2.9100E+00   2.9808E+00   3.7896E-05  0.0271
   2.9808E+00   3.0533E+00   3.7216E-05  0.0270
   3.0533E+00   3.1276E+00   3.6358E-05  0.0270
   3.1276E+00   3.2037E+00   3.5813E-05  0.0269
   3.2037E+00   3.2817E+00   3.4779E-05  0.0270
   3.2817E+00   3.3615E+00   3.4146E-05  0.0269
   3.3615E+00   3.4433E+00   3.1469E-05  0.0277
   3.4433E+00   3.5271E+00   3.1210E-05  0.0275
   3.5271E+00   3.6129E+00   3.0927E-05  0.0273
   3.6129E+00   3.7008E+00   3.0427E-05  0.0272
   3.7008E+00   3.7908E+00   2.8516E-05  0.0278
   3.7908E+00   3.8831E+00   2.8011E-05  0.0277
   3.8831E+00   3.9776E+00   2.7438E-05  0.0276
   3.9776E+00   4.0743E+00   2.6647E-05  0.0277
   4.0743E+00   4.1735E+00   2.5090E-05  0.0282
   4.1735E+00   4.2750E+00   2.4732E-05  0.0280
   4.2750E+00   4.3790E+00   2.4043E-05  0.0281
   4.3790E+00   4.4856E+00   2.2869E-05  0.0285
   4.4856E+00   4.5947E+00   2.1267E-05  0.0292
   4.5947E+00   4.7065E+00   2.1612E-05  0.0286
   4.7065E+00   4.8210E+00   2.0873E-05  0.0288
   4.8210E+00   4.9383E+00   2.1056E-05  0.0283
   4.9383E+00   5.0585E+00   1.9127E-05  0.0294
   5.0585E+00   5.1815E+00   1.7866E-05  0.0300
   5.1815E+00   5.3076E+00   1.6583E-05  0.0307
   5.3076E+00   5.4368E+00   1.6336E-05  0.0307
   5.4368E+00   5.5690E+00   1.5488E-05  0.0311
   5.5690E+00   5.7045E+00   1.5070E-05  0.0311
   5.7045E+00   5.8433E+00   1.3901E-05  0.0321
   5.8433E+00   5.9855E+00   1.3003E-05  0.0328
   5.9855E+00   6.1311E+00   1.3361E-05  0.0319
   6.1311E+00   6.2803E+00   1.2871E-05  0.0322
   6.2803E+00   6.4331E+00   1.1943E-05  0.0330
   6.4331E+00   6.5896E+00   1.0013E-05  0.0356
   6.5896E+00   6.7500E+00   9.8691E-06  0.0354
   6.7500E+00   6.9142E+00   9.1728E-06  0.0363
   6.9142E+00   7.0824E+00   8.5383E-06  0.0372
   7.0824E+00   7.2548E+00   8.5056E-06  0.0368
   7.2548E+00   7.4313E+00   7.9814E-06  0.0375
   7.4313E+00   7.6121E+00   7.3963E-06  0.0385
   7.6121E+00   7.7973E+00   6.9795E-06  0.0392
   7.7973E+00   7.9870E+00   6.7459E-06  0.0394
   7.9870E+00   8.1813E+00   6.4132E-06  0.0399
   8.1813E+00   8.3804E+00   5.7748E-06  0.0416
   8.3804E+00   8.5843E+00   5.5744E-06  0.0419
   8.5843E+00   8.7931E+00   4.8155E-06  0.0444
   8.7931E+00   9.0071E+00   4.7300E-06  0.0444
   9.0071E+00   9.2262E+00   4.5406E-06  0.0448
   9.2262E+00   9.4507E+00   3.7920E-06  0.0484
   9.4507E+00   9.6807E+00   3.6736E-06  0.0486
   9.6807E+00   9.9162E+00   3.5085E-06  0.0491
   9.9162E+00   1.0157E+01   3.7338E-06  0.0470
   1.0157E+01   1.0405E+01   3.2201E-06  0.0500
   1.0405E+01   1.0658E+01   3.3371E-06  0.0486
   1.0658E+01   1.0917E+01   3.3449E-06  0.0480
   1.0917E+01   1.1183E+01   3.1849E-06  0.0486
   1.1183E+01   1.1455E+01   3.1706E-06  0.0480
   1.1455E+01   1.1733E+01   2.9039E-06  0.0497
   1.1733E+01   1.2019E+01   2.5815E-06  0.0520
   1.2019E+01   1.2311E+01   2.4546E-06  0.0527
   1.2311E+01   1.2611E+01   2.2069E-06  0.0549
   1.2611E+01   1.2918E+01   1.9996E-06  0.0569
   1.2918E+01   1.3232E+01   1.9103E-06  0.0576
   1.3232E+01   1.3554E+01   1.7562E-06  0.0594
   1.3554E+01   1.3884E+01   1.6575E-06  0.0604
   1.3884E+01   1.4222E+01   1.6670E-06  0.0595
   1.4222E+01   1.4568E+01   1.4587E-06  0.0629
   1.4568E+01   1.4922E+01   1.3665E-06  0.0642
   1.4922E+01   1.5285E+01   1.3268E-06  0.0643
   1.5285E+01   1.5657E+01   1.0255E-06  0.0723
   1.5657E+01   1.6038E+01   1.0720E-06  0.0700
   1.6038E+01   1.6428E+01   7.8930E-07  0.0806
   1.6428E+01   1.6828E+01   6.9800E-07  0.0846
   1.6828E+01   1.7237E+01   7.4004E-07  0.0812
   1.7237E+01   1.7657E+01   5.9609E-07  0.0894
   1.7657E+01   1.8086E+01   5.9823E-07  0.0881
   1.8086E+01   1.8526E+01   5.7720E-07  0.0887
   1.8526E+01   1.8977E+01   5.1025E-07  0.0933
   1.8977E+01   1.9439E+01   5.0322E-07  0.0927
   1.9439E+01   1.9912E+01   4.3132E-07  0.0990
   1.9912E+01   2.0396E+01   3.6741E-07  0.1060
   2.0396E+01   2.0893E+01   3.1435E-07  0.1132
   2.0893E+01   2.1401E+01   3.0295E-07  0.1140
   2.1401E+01   2.1922E+01   3.2264E-07  0.1091
   2.1922E+01   2.2455E+01   3.1123E-07  0.1098
   2.2455E+01   2.3001E+01   2.3794E-07  0.1240
   2.3001E+01   2.3561E+01   1.8941E-07  0.1374
   2.3561E+01   2.4134E+01   2.1282E-07  0.1280
   2.4134E+01   2.4721E+01   1.6689E-07  0.1429
   2.4721E+01   2.5323E+01   1.3633E-07  0.1562
   2.5323E+01   2.5939E+01   1.7529E-07  0.1361
   2.5939E+01   2.6570E+01   9.8238E-08  0.1796
   2.6570E+01   2.7217E+01   9.2811E-08  0.1826
   2.7217E+01   2.7879E+01   5.7384E-08  0.2294
   2.7879E+01   2.8557E+01   6.4867E-08  0.2132
   2.8557E+01   2.9252E+01   6.3326E-08  0.2132
   2.9252E+01   2.9964E+01   3.3721E-08  0.2887
   2.9964E+01   3.0693E+01   1.0973E-08  0.5000
   3.0693E+01   3.1440E+01   2.6782E-08  0.3162
   3.1440E+01   3.2205E+01   3.6604E-08  0.2673
   3.2205E+01   3.2988E+01   2.0420E-08  0.3536
   3.2988E+01   3.3791E+01   1.2459E-08  0.4472
   3.3791E+01   3.4613E+01   4.8653E-09  0.7071
   3.4613E+01   3.5455E+01   1.8999E-08  0.3536
   3.5455E+01   3.6318E+01   9.2738E-09  0.5000
   3.6318E+01   3.7201E+01   1.5844E-08  0.3780
   3.7201E+01   3.8106E+01   4.4192E-09  0.7071
   3.8106E+01   3.9034E+01   2.1571E-09  1.0000
   3.9034E+01   3.9983E+01   2.1059E-09  1.0000
   3.9983E+01   4.0956E+01   6.1676E-09  0.5774
   4.0956E+01   4.1953E+01   4.0141E-09  0.7071
   4.1953E+01   4.2973E+01   1.9594E-09  1.0000
   4.2973E+01   4.4019E+01   3.8256E-09  0.7071
   4.4019E+01   4.5090E+01   1.8674E-09  1.0000
   4.5090E+01   4.6187E+01   1.8230E-09  1.0000
   4.6187E+01   4.7311E+01   0.0000E+00  0.0000
   4.7311E+01   4.8462E+01   0.0000E+00  0.0000
   4.8462E+01   4.9641E+01   1.6962E-09  1.0000
   4.9641E+01   5.0849E+01   0.0000E+00  0.0000
   5.0849E+01   5.2086E+01   0.0000E+00  0.0000
   5.2086E+01   5.3353E+01   1.5782E-09  1.0000
   5.3353E+01   5.4651E+01   0.0000E+00  0.0000
   5.4651E+01   5.5981E+01   0.0000E+00  0.0000
   5.5981E+01   5.7343E+01   0.0000E+00  0.0000
   5.7343E+01   5.8738E+01   0.0000E+00  0.0000
   5.8738E+01   6.0168E+01   0.0000E+00  0.0000
   6.0168E+01   6.1632E+01   0.0000E+00  0.0000
   6.1632E+01   6.3131E+01   0.0000E+00  0.0000
   6.3131E+01   6.4667E+01   0.0000E+00  0.0000
   6.4667E+01   6.6240E+01   0.0000E+00  0.0000
   6.6240E+01   6.7852E+01   1.2409E-09  1.0000
   6.7852E+01   6.9503E+01   0.0000E+00  0.0000
   6.9503E+01   7.1194E+01   0.0000E+00  0.0000
   7.1194E+01   7.2926E+01   0.0000E+00  0.0000
   7.2926E+01   7.4701E+01   0.0000E+00  0.0000
   7.4701E+01   7.6518E+01   0.0000E+00  0.0000
   7.6518E+01   7.8380E+01   0.0000E+00  0.0000
   7.8380E+01   8.0287E+01   0.0000E+00  0.0000
   8.0287E+01   8.2240E+01   0.0000E+00  0.0000
   8.2240E+01   8.4241E+01   0.0000E+00  0.0000
   8.4241E+01   8.6291E+01   0.0000E+00  0.0000
   8.6291E+01   8.8391E+01   0.0000E+00  0.0000
   8.8391E+01   9.0541E+01   0.0000E+00  0.0000
   9.0541E+01   9.2744E+01   0.0000E+00  0.0000
   9.2744E+01   9.5001E+01   0.0000E+00  0.0000
   9.5001E+01   9.7312E+01   0.0000E+00  0.0000
   9.7312E+01   9.9680E+01   0.0000E+00  0.0000
   9.9680E+01   1.0211E+02   0.0000E+00  0.0000
   1.0211E+02   1.0459E+02   0.0000E+00  0.0000
   1.0459E+02   1.0713E+02   0.0000E+00  0.0000
   1.0713E+02   1.0974E+02   0.0000E+00  0.0000
   1.0974E+02   1.1241E+02   0.0000E+00  0.0000
   1.1241E+02   1.1515E+02   0.0000E+00  0.0000
   1.1515E+02   1.1795E+02   0.0000E+00  0.0000
   1.1795E+02   1.2082E+02   0.0000E+00  0.0000
   1.2082E+02   1.2376E+02   0.0000E+00  0.0000
   1.2376E+02   1.2677E+02   0.0000E+00  0.0000
   1.2677E+02   1.2985E+02   0.0000E+00  0.0000
   1.2985E+02   1.3301E+02   0.0000E+00  0.0000
   1.3301E+02   1.3625E+02   0.0000E+00  0.0000
   1.3625E+02   1.3956E+02   0.0000E+00  0.0000
   1.3956E+02   1.4296E+02   0.0000E+00  0.0000
   1.4296E+02   1.4644E+02   0.0000E+00  0.0000
   1.4644E+02   1.5000E+02   0.0000E+00  0.0000

#   sum over                 2.5730E-06
'no. =    1   reg = 125 - 225'
msuc: {\huge [t-cross] in region mesh}
msdr: {\it plotted by \ANGEL \version}
msdl: {\it calculated by \PHITS  3.26}
wt: s(0.7)
\vspace{-3}
  region surface crossing
  area  &=&   1.0000E+00 [cm^2]
e:
 
# Information for Restart Calculation
# This calculation was newly started
# istdev =  2 # 1:Batch variance, 2:History variance
# resc2  = 5.00000000000000000E+08 # Total source weight or Total source weight / maxcas
# resc3  = 5.00000000000000000E+08 # Total history number or Total batch number
# maxcas =   500000000 # History / Batch, only used for istdev=1
# bitrseed = 1101101111010011011000101101110001100110110010110001010100010001 # bit data of rseed
