[ T-Cross ]
    title = [t-cross] in region mesh
     mesh =  reg            # mesh type is region-wise
      reg =    1            # number of crossing regions
      non     r-from    r-to       area
      1       115       215        1.000000    
   e-type =    3            # e-mesh is log given by emin, emax and ne
     emin =  1.0000000E-02  # minimum value of e-mesh points
     emax =   150.0000      # maximum value of e-mesh points
#    edel =  2.4039514E-02  # mesh width of e-mesh points
       ne =    400          # number of e-mesh points
#    data = ( e(i), i = 1, ne + 1 )
#           1.00000E-02  1.02433E-02  1.04925E-02  1.07478E-02  1.10093E-02
#           1.12772E-02  1.15516E-02  1.18326E-02  1.21205E-02  1.24154E-02
#           1.27175E-02  1.30269E-02  1.33439E-02  1.36686E-02  1.40011E-02
#           1.43418E-02  1.46907E-02  1.50482E-02  1.54143E-02  1.57894E-02
#           1.61735E-02  1.65670E-02  1.69701E-02  1.73830E-02  1.78060E-02
#           1.82392E-02  1.86830E-02  1.91375E-02  1.96032E-02  2.00801E-02
#           2.05687E-02  2.10692E-02  2.15818E-02  2.21069E-02  2.26448E-02
#           2.31957E-02  2.37601E-02  2.43382E-02  2.49304E-02  2.55369E-02
#           2.61583E-02  2.67947E-02  2.74467E-02  2.81145E-02  2.87985E-02
#           2.94992E-02  3.02169E-02  3.09521E-02  3.17052E-02  3.24766E-02
#           3.32668E-02  3.40762E-02  3.49053E-02  3.57546E-02  3.66246E-02
#           3.75157E-02  3.84284E-02  3.93634E-02  4.03212E-02  4.13022E-02
#           4.23071E-02  4.33365E-02  4.43909E-02  4.54710E-02  4.65773E-02
#           4.77106E-02  4.88714E-02  5.00605E-02  5.12785E-02  5.25262E-02
#           5.38042E-02  5.51133E-02  5.64542E-02  5.78278E-02  5.92348E-02
#           6.06760E-02  6.21523E-02  6.36645E-02  6.52135E-02  6.68002E-02
#           6.84255E-02  7.00904E-02  7.17957E-02  7.35426E-02  7.53319E-02
#           7.71648E-02  7.90423E-02  8.09655E-02  8.29354E-02  8.49533E-02
#           8.70203E-02  8.91376E-02  9.13064E-02  9.35279E-02  9.58035E-02
#           9.81345E-02  1.00522E-01  1.02968E-01  1.05473E-01  1.08040E-01
#           1.10668E-01  1.13361E-01  1.16119E-01  1.18944E-01  1.21838E-01
#           1.24803E-01  1.27839E-01  1.30950E-01  1.34136E-01  1.37399E-01
#           1.40742E-01  1.44167E-01  1.47675E-01  1.51268E-01  1.54948E-01
#           1.58718E-01  1.62580E-01  1.66535E-01  1.70587E-01  1.74738E-01
#           1.78989E-01  1.83344E-01  1.87805E-01  1.92375E-01  1.97055E-01
#           2.01850E-01  2.06761E-01  2.11792E-01  2.16945E-01  2.22223E-01
#           2.27630E-01  2.33169E-01  2.38842E-01  2.44653E-01  2.50605E-01
#           2.56703E-01  2.62949E-01  2.69346E-01  2.75900E-01  2.82613E-01
#           2.89489E-01  2.96532E-01  3.03747E-01  3.11138E-01  3.18708E-01
#           3.26462E-01  3.34405E-01  3.42542E-01  3.50876E-01  3.59413E-01
#           3.68158E-01  3.77116E-01  3.86291E-01  3.95690E-01  4.05317E-01
#           4.15179E-01  4.25281E-01  4.35628E-01  4.46227E-01  4.57084E-01
#           4.68205E-01  4.79597E-01  4.91266E-01  5.03219E-01  5.15463E-01
#           5.28005E-01  5.40851E-01  5.54011E-01  5.67490E-01  5.81298E-01
#           5.95441E-01  6.09929E-01  6.24769E-01  6.39970E-01  6.55541E-01
#           6.71491E-01  6.87828E-01  7.04564E-01  7.21706E-01  7.39266E-01
#           7.57253E-01  7.75678E-01  7.94551E-01  8.13883E-01  8.33685E-01
#           8.53969E-01  8.74747E-01  8.96030E-01  9.17831E-01  9.40163E-01
#           9.63038E-01  9.86469E-01  1.01047E+00  1.03506E+00  1.06024E+00
#           1.08604E+00  1.11246E+00  1.13953E+00  1.16725E+00  1.19565E+00
#           1.22474E+00  1.25454E+00  1.28507E+00  1.31633E+00  1.34836E+00
#           1.38117E+00  1.41477E+00  1.44920E+00  1.48446E+00  1.52057E+00
#           1.55757E+00  1.59547E+00  1.63429E+00  1.67405E+00  1.71478E+00
#           1.75650E+00  1.79924E+00  1.84302E+00  1.88786E+00  1.93379E+00
#           1.98084E+00  2.02904E+00  2.07841E+00  2.12898E+00  2.18078E+00
#           2.23384E+00  2.28819E+00  2.34386E+00  2.40089E+00  2.45930E+00
#           2.51914E+00  2.58043E+00  2.64322E+00  2.70753E+00  2.77341E+00
#           2.84088E+00  2.91001E+00  2.98081E+00  3.05333E+00  3.12762E+00
#           3.20372E+00  3.28167E+00  3.36152E+00  3.44330E+00  3.52708E+00
#           3.61290E+00  3.70080E+00  3.79085E+00  3.88308E+00  3.97756E+00
#           4.07434E+00  4.17347E+00  4.27501E+00  4.37903E+00  4.48557E+00
#           4.59471E+00  4.70650E+00  4.82102E+00  4.93832E+00  5.05847E+00
#           5.18155E+00  5.30762E+00  5.43676E+00  5.56904E+00  5.70453E+00
#           5.84333E+00  5.98550E+00  6.13114E+00  6.28031E+00  6.43312E+00
#           6.58964E+00  6.74997E+00  6.91420E+00  7.08243E+00  7.25475E+00
#           7.43126E+00  7.61207E+00  7.79728E+00  7.98700E+00  8.18133E+00
#           8.38038E+00  8.58428E+00  8.79315E+00  9.00709E+00  9.22624E+00
#           9.45072E+00  9.68067E+00  9.91620E+00  1.01575E+01  1.04046E+01
#           1.06578E+01  1.09171E+01  1.11827E+01  1.14548E+01  1.17335E+01
#           1.20190E+01  1.23114E+01  1.26109E+01  1.29178E+01  1.32321E+01
#           1.35540E+01  1.38838E+01  1.42216E+01  1.45676E+01  1.49221E+01
#           1.52851E+01  1.56570E+01  1.60380E+01  1.64282E+01  1.68279E+01
#           1.72374E+01  1.76568E+01  1.80864E+01  1.85264E+01  1.89772E+01
#           1.94389E+01  1.99119E+01  2.03963E+01  2.08926E+01  2.14009E+01
#           2.19216E+01  2.24550E+01  2.30014E+01  2.35610E+01  2.41343E+01
#           2.47215E+01  2.53230E+01  2.59391E+01  2.65702E+01  2.72167E+01
#           2.78789E+01  2.85572E+01  2.92520E+01  2.99637E+01  3.06928E+01
#           3.14396E+01  3.22045E+01  3.29881E+01  3.37907E+01  3.46128E+01
#           3.54550E+01  3.63177E+01  3.72013E+01  3.81064E+01  3.90336E+01
#           3.99833E+01  4.09561E+01  4.19526E+01  4.29734E+01  4.40189E+01
#           4.50900E+01  4.61870E+01  4.73108E+01  4.84619E+01  4.96410E+01
#           5.08488E+01  5.20860E+01  5.33533E+01  5.46514E+01  5.59812E+01
#           5.73432E+01  5.87384E+01  6.01676E+01  6.16315E+01  6.31311E+01
#           6.46671E+01  6.62405E+01  6.78522E+01  6.95031E+01  7.11941E+01
#           7.29263E+01  7.47007E+01  7.65182E+01  7.83800E+01  8.02870E+01
#           8.22405E+01  8.42414E+01  8.62911E+01  8.83906E+01  9.05412E+01
#           9.27442E+01  9.50007E+01  9.73122E+01  9.96799E+01  1.02105E+02
#           1.04589E+02  1.07134E+02  1.09741E+02  1.12411E+02  1.15146E+02
#           1.17948E+02  1.20817E+02  1.23757E+02  1.26768E+02  1.29852E+02
#           1.33012E+02  1.36248E+02  1.39563E+02  1.42959E+02  1.46437E+02
#           1.50000E+02
     unit =    2            # unit is [1/cm^2/(MeV/n)/source]
     axis =  eng            # axis of output
     file = detector-16.out  # file name of output for the above axis
   output = f-curr          # surface crossing forward current spectrum
     part =  neutron  
# kf/name :  2112     
#    used :        main (  %)        temp (  %)       total (  %)
#  memory :         414 (  0)           0 (  0)         414 (  0)

#------------------------------------------------------------------------------
#newpage:
#   no. =    1   reg = 115 - 215

x: Energy [MeV/n]
y:  F-Curr [1/cm^2/(MeV/n)/source]         
p: xlog ylog afac(0.8) form(0.9)
h: n            x            y(neutron ),hh0l   n 
#  e-lower      e-upper      neutron     r.err 
   1.0000E-02   1.0243E-02   1.9523E-04  0.1026
   1.0243E-02   1.0493E-02   1.8056E-04  0.1054
   1.0493E-02   1.0748E-02   1.9194E-04  0.1010
   1.0748E-02   1.1009E-02   1.8164E-04  0.1026
   1.1009E-02   1.1277E-02   1.9599E-04  0.0976
   1.1277E-02   1.1552E-02   1.7312E-04  0.1026
   1.1552E-02   1.1833E-02   1.9213E-04  0.0962
   1.1833E-02   1.2121E-02   1.8583E-04  0.0967
   1.2121E-02   1.2415E-02   2.1193E-04  0.0894
   1.2415E-02   1.2718E-02   1.6718E-04  0.0995
   1.2718E-02   1.3027E-02   1.7775E-04  0.0953
   1.3027E-02   1.3344E-02   2.2401E-04  0.0839
   1.3344E-02   1.3669E-02   2.2177E-04  0.0833
   1.3669E-02   1.4001E-02   1.9244E-04  0.0884
   1.4001E-02   1.4342E-02   1.9961E-04  0.0857
   1.4342E-02   1.4691E-02   2.0777E-04  0.0830
   1.4691E-02   1.5048E-02   2.0843E-04  0.0819
   1.5048E-02   1.5414E-02   1.9801E-04  0.0830
   1.5414E-02   1.5789E-02   2.0398E-04  0.0808
   1.5789E-02   1.6174E-02   2.1605E-04  0.0776
   1.6174E-02   1.6567E-02   2.1854E-04  0.0762
   1.6567E-02   1.6970E-02   2.1459E-04  0.0760
   1.6970E-02   1.7383E-02   1.8407E-04  0.0811
   1.7383E-02   1.7806E-02   1.6669E-04  0.0842
   1.7806E-02   1.8239E-02   2.1928E-04  0.0725
   1.8239E-02   1.8683E-02   2.0055E-04  0.0750
   1.8683E-02   1.9138E-02   2.3759E-04  0.0680
   1.9138E-02   1.9603E-02   2.1261E-04  0.0711
   1.9603E-02   2.0080E-02   2.2224E-04  0.0687
   2.0080E-02   2.0569E-02   2.3538E-04  0.0659
   2.0569E-02   2.1069E-02   2.3379E-04  0.0654
   2.1069E-02   2.1582E-02   2.2824E-04  0.0654
   2.1582E-02   2.2107E-02   2.5805E-04  0.0607
   2.2107E-02   2.2645E-02   2.2775E-04  0.0639
   2.2645E-02   2.3196E-02   2.3686E-04  0.0619
   2.3196E-02   2.3760E-02   2.4009E-04  0.0607
   2.3760E-02   2.4338E-02   2.1536E-04  0.0634
   2.4338E-02   2.4930E-02   2.3220E-04  0.0603
   2.4930E-02   2.5537E-02   2.2586E-04  0.0604
   2.5537E-02   2.6158E-02   2.2693E-04  0.0595
   2.6158E-02   2.6795E-02   2.3568E-04  0.0577
   2.6795E-02   2.7447E-02   2.3699E-04  0.0569
   2.7447E-02   2.8114E-02   2.4633E-04  0.0551
   2.8114E-02   2.8799E-02   2.4633E-04  0.0545
   2.8799E-02   2.9499E-02   2.5974E-04  0.0524
   2.9499E-02   3.0217E-02   2.5357E-04  0.0524
   3.0217E-02   3.0952E-02   2.7067E-04  0.0501
   3.0952E-02   3.1705E-02   2.7420E-04  0.0492
   3.1705E-02   3.2477E-02   2.4630E-04  0.0513
   3.2477E-02   3.3267E-02   2.7968E-04  0.0476
   3.3267E-02   3.4076E-02   2.4030E-04  0.0507
   3.4076E-02   3.4905E-02   2.6173E-04  0.0480
   3.4905E-02   3.5755E-02   2.6434E-04  0.0472
   3.5755E-02   3.6625E-02   2.7761E-04  0.0455
   3.6625E-02   3.7516E-02   2.7606E-04  0.0451
   3.7516E-02   3.8428E-02   2.8210E-04  0.0441
   3.8428E-02   3.9363E-02   2.8342E-04  0.0434
   3.9363E-02   4.0321E-02   2.6103E-04  0.0447
   4.0321E-02   4.1302E-02   2.8847E-04  0.0420
   4.1302E-02   4.2307E-02   2.9057E-04  0.0414
   4.2307E-02   4.3337E-02   2.6764E-04  0.0426
   4.3337E-02   4.4391E-02   3.0870E-04  0.0392
   4.4391E-02   4.5471E-02   2.9952E-04  0.0393
   4.5471E-02   4.6577E-02   2.9828E-04  0.0389
   4.6577E-02   4.7711E-02   3.2340E-04  0.0369
   4.7711E-02   4.8871E-02   3.0883E-04  0.0373
   4.8871E-02   5.0061E-02   3.0822E-04  0.0369
   5.0061E-02   5.1279E-02   3.3949E-04  0.0348
   5.1279E-02   5.2526E-02   2.9896E-04  0.0366
   5.2526E-02   5.3804E-02   3.3490E-04  0.0342
   5.3804E-02   5.5113E-02   3.3649E-04  0.0337
   5.5113E-02   5.6454E-02   3.2477E-04  0.0339
   5.6454E-02   5.7828E-02   3.4108E-04  0.0327
   5.7828E-02   5.9235E-02   3.5039E-04  0.0318
   5.9235E-02   6.0676E-02   3.3652E-04  0.0321
   6.0676E-02   6.2152E-02   3.4580E-04  0.0313
   6.2152E-02   6.3665E-02   3.6999E-04  0.0299
   6.3665E-02   6.5214E-02   3.5894E-04  0.0300
   6.5214E-02   6.6800E-02   3.7940E-04  0.0288
   6.6800E-02   6.8426E-02   3.6578E-04  0.0290
   6.8426E-02   7.0090E-02   3.7361E-04  0.0284
   7.0090E-02   7.1796E-02   3.5828E-04  0.0286
   7.1796E-02   7.3543E-02   3.7582E-04  0.0276
   7.3543E-02   7.5332E-02   3.8673E-04  0.0269
   7.5332E-02   7.7165E-02   3.7427E-04  0.0270
   7.7165E-02   7.9042E-02   4.0986E-04  0.0255
   7.9042E-02   8.0965E-02   3.7698E-04  0.0263
   8.0965E-02   8.2935E-02   4.0331E-04  0.0251
   8.2935E-02   8.4953E-02   4.2718E-04  0.0241
   8.4953E-02   8.7020E-02   4.2018E-04  0.0240
   8.7020E-02   8.9138E-02   4.1138E-04  0.0240
   8.9138E-02   9.1306E-02   4.1682E-04  0.0235
   9.1306E-02   9.3528E-02   4.3371E-04  0.0228
   9.3528E-02   9.5804E-02   4.4318E-04  0.0223
   9.5804E-02   9.8134E-02   4.4102E-04  0.0221
   9.8134E-02   1.0052E-01   4.3703E-04  0.0219
   1.0052E-01   1.0297E-01   4.3871E-04  0.0216
   1.0297E-01   1.0547E-01   4.5683E-04  0.0209
   1.0547E-01   1.0804E-01   4.4890E-04  0.0208
   1.0804E-01   1.1067E-01   4.5935E-04  0.0203
   1.1067E-01   1.1336E-01   4.7296E-04  0.0198
   1.1336E-01   1.1612E-01   4.7659E-04  0.0195
   1.1612E-01   1.1894E-01   4.7394E-04  0.0193
   1.1894E-01   1.2184E-01   4.7236E-04  0.0191
   1.2184E-01   1.2480E-01   4.6586E-04  0.0190
   1.2480E-01   1.2784E-01   4.9069E-04  0.0183
   1.2784E-01   1.3095E-01   5.0749E-04  0.0178
   1.3095E-01   1.3414E-01   5.1112E-04  0.0175
   1.3414E-01   1.3740E-01   5.0772E-04  0.0174
   1.3740E-01   1.4074E-01   5.1570E-04  0.0170
   1.4074E-01   1.4417E-01   5.3470E-04  0.0165
   1.4417E-01   1.4767E-01   5.0261E-04  0.0168
   1.4767E-01   1.5127E-01   5.2337E-04  0.0163
   1.5127E-01   1.5495E-01   5.3213E-04  0.0160
   1.5495E-01   1.5872E-01   5.3541E-04  0.0157
   1.5872E-01   1.6258E-01   5.2813E-04  0.0157
   1.6258E-01   1.6654E-01   5.5932E-04  0.0150
   1.6654E-01   1.7059E-01   5.6195E-04  0.0148
   1.7059E-01   1.7474E-01   5.6150E-04  0.0146
   1.7474E-01   1.7899E-01   5.7850E-04  0.0143
   1.7899E-01   1.8334E-01   5.8313E-04  0.0140
   1.8334E-01   1.8781E-01   5.7701E-04  0.0139
   1.8781E-01   1.9237E-01   5.9296E-04  0.0136
   1.9237E-01   1.9706E-01   6.1039E-04  0.0132
   1.9706E-01   2.0185E-01   6.1956E-04  0.0130
   2.0185E-01   2.0676E-01   6.1126E-04  0.0129
   2.0676E-01   2.1179E-01   6.1056E-04  0.0128
   2.1179E-01   2.1694E-01   6.2720E-04  0.0124
   2.1694E-01   2.2222E-01   6.3172E-04  0.0122
   2.2222E-01   2.2763E-01   6.4261E-04  0.0120
   2.2763E-01   2.3317E-01   6.3132E-04  0.0120
   2.3317E-01   2.3884E-01   6.4250E-04  0.0117
   2.3884E-01   2.4465E-01   6.4866E-04  0.0115
   2.4465E-01   2.5061E-01   6.4484E-04  0.0114
   2.5061E-01   2.5670E-01   6.6208E-04  0.0111
   2.5670E-01   2.6295E-01   6.5500E-04  0.0111
   2.6295E-01   2.6935E-01   6.7070E-04  0.0108
   2.6935E-01   2.7590E-01   6.8415E-04  0.0106
   2.7590E-01   2.8261E-01   6.7743E-04  0.0105
   2.8261E-01   2.8949E-01   6.8490E-04  0.0103
   2.8949E-01   2.9653E-01   6.8822E-04  0.0102
   2.9653E-01   3.0375E-01   7.1041E-04  0.0099
   3.0375E-01   3.1114E-01   7.0328E-04  0.0098
   3.1114E-01   3.1871E-01   7.0292E-04  0.0097
   3.1871E-01   3.2646E-01   7.0985E-04  0.0095
   3.2646E-01   3.3441E-01   6.9822E-04  0.0095
   3.3441E-01   3.4254E-01   7.1463E-04  0.0093
   3.4254E-01   3.5088E-01   7.0735E-04  0.0092
   3.5088E-01   3.5941E-01   7.2771E-04  0.0090
   3.5941E-01   3.6816E-01   7.2489E-04  0.0089
   3.6816E-01   3.7712E-01   7.3262E-04  0.0087
   3.7712E-01   3.8629E-01   7.2317E-04  0.0087
   3.8629E-01   3.9569E-01   7.1653E-04  0.0086
   3.9569E-01   4.0532E-01   7.3908E-04  0.0084
   4.0532E-01   4.1518E-01   7.2802E-04  0.0083
   4.1518E-01   4.2528E-01   7.2988E-04  0.0082
   4.2528E-01   4.3563E-01   7.2767E-04  0.0082
   4.3563E-01   4.4623E-01   7.4355E-04  0.0080
   4.4623E-01   4.5708E-01   7.3855E-04  0.0079
   4.5708E-01   4.6821E-01   7.4223E-04  0.0078
   4.6821E-01   4.7960E-01   7.3311E-04  0.0077
   4.7960E-01   4.9127E-01   7.3828E-04  0.0076
   4.9127E-01   5.0322E-01   7.3283E-04  0.0076
   5.0322E-01   5.1546E-01   7.3801E-04  0.0074
   5.1546E-01   5.2800E-01   7.4089E-04  0.0073
   5.2800E-01   5.4085E-01   7.3446E-04  0.0073
   5.4085E-01   5.5401E-01   7.3324E-04  0.0072
   5.5401E-01   5.6749E-01   7.3215E-04  0.0071
   5.6749E-01   5.8130E-01   7.2783E-04  0.0071
   5.8130E-01   5.9544E-01   7.2320E-04  0.0070
   5.9544E-01   6.0993E-01   7.1889E-04  0.0069
   6.0993E-01   6.2477E-01   7.1304E-04  0.0069
   6.2477E-01   6.3997E-01   7.1876E-04  0.0068
   6.3997E-01   6.5554E-01   7.1055E-04  0.0067
   6.5554E-01   6.7149E-01   6.9750E-04  0.0067
   6.7149E-01   6.8783E-01   6.8237E-04  0.0067
   6.8783E-01   7.0456E-01   6.9332E-04  0.0066
   7.0456E-01   7.2171E-01   6.8271E-04  0.0065
   7.2171E-01   7.3927E-01   6.6721E-04  0.0065
   7.3927E-01   7.5725E-01   6.6500E-04  0.0065
   7.5725E-01   7.7568E-01   6.5179E-04  0.0065
   7.7568E-01   7.9455E-01   6.4850E-04  0.0064
   7.9455E-01   8.1388E-01   6.2947E-04  0.0064
   8.1388E-01   8.3368E-01   6.2040E-04  0.0064
   8.3368E-01   8.5397E-01   5.9679E-04  0.0064
   8.5397E-01   8.7475E-01   5.8770E-04  0.0064
   8.7475E-01   8.9603E-01   5.7656E-04  0.0064
   8.9603E-01   9.1783E-01   5.5814E-04  0.0064
   9.1783E-01   9.4016E-01   5.3496E-04  0.0065
   9.4016E-01   9.6304E-01   5.1443E-04  0.0065
   9.6304E-01   9.8647E-01   4.8736E-04  0.0066
   9.8647E-01   1.0105E+00   4.6309E-04  0.0067
   1.0105E+00   1.0351E+00   4.5673E-04  0.0067
   1.0351E+00   1.0602E+00   4.5027E-04  0.0066
   1.0602E+00   1.0860E+00   4.5142E-04  0.0066
   1.0860E+00   1.1125E+00   4.3983E-04  0.0066
   1.1125E+00   1.1395E+00   4.3727E-04  0.0065
   1.1395E+00   1.1673E+00   4.3817E-04  0.0064
   1.1673E+00   1.1957E+00   4.4359E-04  0.0063
   1.1957E+00   1.2247E+00   4.4087E-04  0.0062
   1.2247E+00   1.2545E+00   4.3590E-04  0.0062
   1.2545E+00   1.2851E+00   4.2834E-04  0.0062
   1.2851E+00   1.3163E+00   4.2748E-04  0.0061
   1.3163E+00   1.3484E+00   4.1493E-04  0.0061
   1.3484E+00   1.3812E+00   4.1560E-04  0.0061
   1.3812E+00   1.4148E+00   4.1493E-04  0.0060
   1.4148E+00   1.4492E+00   4.1159E-04  0.0059
   1.4492E+00   1.4845E+00   3.9618E-04  0.0060
   1.4845E+00   1.5206E+00   3.9424E-04  0.0059
   1.5206E+00   1.5576E+00   3.8193E-04  0.0060
   1.5576E+00   1.5955E+00   3.7372E-04  0.0059
   1.5955E+00   1.6343E+00   3.6735E-04  0.0059
   1.6343E+00   1.6741E+00   3.6097E-04  0.0059
   1.6741E+00   1.7148E+00   3.6051E-04  0.0058
   1.7148E+00   1.7565E+00   3.5191E-04  0.0058
   1.7565E+00   1.7992E+00   3.4482E-04  0.0058
   1.7992E+00   1.8430E+00   3.3464E-04  0.0058
   1.8430E+00   1.8879E+00   3.2544E-04  0.0059
   1.8879E+00   1.9338E+00   3.2069E-04  0.0058
   1.9338E+00   1.9808E+00   3.1175E-04  0.0058
   1.9808E+00   2.0290E+00   3.0422E-04  0.0058
   2.0290E+00   2.0784E+00   2.9691E-04  0.0058
   2.0784E+00   2.1290E+00   2.8971E-04  0.0058
   2.1290E+00   2.1808E+00   2.8253E-04  0.0059
   2.1808E+00   2.2338E+00   2.7426E-04  0.0059
   2.2338E+00   2.2882E+00   2.6685E-04  0.0059
   2.2882E+00   2.3439E+00   2.5692E-04  0.0059
   2.3439E+00   2.4009E+00   2.5300E-04  0.0059
   2.4009E+00   2.4593E+00   2.4718E-04  0.0059
   2.4593E+00   2.5191E+00   2.3353E-04  0.0060
   2.5191E+00   2.5804E+00   2.3027E-04  0.0060
   2.5804E+00   2.6432E+00   2.2154E-04  0.0060
   2.6432E+00   2.7075E+00   2.1300E-04  0.0060
   2.7075E+00   2.7734E+00   2.0588E-04  0.0061
   2.7734E+00   2.8409E+00   1.9965E-04  0.0061
   2.8409E+00   2.9100E+00   1.9107E-04  0.0062
   2.9100E+00   2.9808E+00   1.8679E-04  0.0062
   2.9808E+00   3.0533E+00   1.7888E-04  0.0062
   3.0533E+00   3.1276E+00   1.7481E-04  0.0062
   3.1276E+00   3.2037E+00   1.6577E-04  0.0063
   3.2037E+00   3.2817E+00   1.6074E-04  0.0063
   3.2817E+00   3.3615E+00   1.4991E-04  0.0065
   3.3615E+00   3.4433E+00   1.4598E-04  0.0065
   3.4433E+00   3.5271E+00   1.4020E-04  0.0065
   3.5271E+00   3.6129E+00   1.3630E-04  0.0065
   3.6129E+00   3.7008E+00   1.3125E-04  0.0066
   3.7008E+00   3.7908E+00   1.2383E-04  0.0067
   3.7908E+00   3.8831E+00   1.2130E-04  0.0067
   3.8831E+00   3.9776E+00   1.1319E-04  0.0068
   3.9776E+00   4.0743E+00   1.0764E-04  0.0069
   4.0743E+00   4.1735E+00   1.0179E-04  0.0070
   4.1735E+00   4.2750E+00   9.6855E-05  0.0071
   4.2750E+00   4.3790E+00   9.1598E-05  0.0072
   4.3790E+00   4.4856E+00   8.7798E-05  0.0073
   4.4856E+00   4.5947E+00   8.3551E-05  0.0074
   4.5947E+00   4.7065E+00   7.9647E-05  0.0075
   4.7065E+00   4.8210E+00   7.5651E-05  0.0076
   4.8210E+00   4.9383E+00   7.1326E-05  0.0077
   4.9383E+00   5.0585E+00   6.7272E-05  0.0079
   5.0585E+00   5.1815E+00   6.3981E-05  0.0080
   5.1815E+00   5.3076E+00   6.0922E-05  0.0081
   5.3076E+00   5.4368E+00   5.5859E-05  0.0083
   5.4368E+00   5.5690E+00   5.4524E-05  0.0083
   5.5690E+00   5.7045E+00   5.1421E-05  0.0085
   5.7045E+00   5.8433E+00   4.7923E-05  0.0087
   5.8433E+00   5.9855E+00   4.4798E-05  0.0089
   5.9855E+00   6.1311E+00   4.2542E-05  0.0090
   6.1311E+00   6.2803E+00   4.0318E-05  0.0091
   6.2803E+00   6.4331E+00   3.7849E-05  0.0093
   6.4331E+00   6.5896E+00   3.6190E-05  0.0094
   6.5896E+00   6.7500E+00   3.4312E-05  0.0095
   6.7500E+00   6.9142E+00   3.2308E-05  0.0097
   6.9142E+00   7.0824E+00   3.0644E-05  0.0099
   7.0824E+00   7.2548E+00   2.9164E-05  0.0100
   7.2548E+00   7.4313E+00   2.8219E-05  0.0100
   7.4313E+00   7.6121E+00   2.5513E-05  0.0104
   7.6121E+00   7.7973E+00   2.4400E-05  0.0105
   7.7973E+00   7.9870E+00   2.3803E-05  0.0105
   7.9870E+00   8.1813E+00   2.2144E-05  0.0108
   8.1813E+00   8.3804E+00   2.1156E-05  0.0109
   8.3804E+00   8.5843E+00   2.0252E-05  0.0110
   8.5843E+00   8.7931E+00   1.9297E-05  0.0111
   8.7931E+00   9.0071E+00   1.8804E-05  0.0111
   9.0071E+00   9.2262E+00   1.7918E-05  0.0113
   9.2262E+00   9.4507E+00   1.6925E-05  0.0115
   9.4507E+00   9.6807E+00   1.6558E-05  0.0115
   9.6807E+00   9.9162E+00   1.5782E-05  0.0116
   9.9162E+00   1.0157E+01   1.5461E-05  0.0116
   1.0157E+01   1.0405E+01   1.4791E-05  0.0117
   1.0405E+01   1.0658E+01   1.4437E-05  0.0117
   1.0658E+01   1.0917E+01   1.3701E-05  0.0119
   1.0917E+01   1.1183E+01   1.3426E-05  0.0118
   1.1183E+01   1.1455E+01   1.2915E-05  0.0119
   1.1455E+01   1.1733E+01   1.2483E-05  0.0120
   1.1733E+01   1.2019E+01   1.2025E-05  0.0121
   1.2019E+01   1.2311E+01   1.1690E-05  0.0121
   1.2311E+01   1.2611E+01   1.1092E-05  0.0123
   1.2611E+01   1.2918E+01   1.0825E-05  0.0123
   1.2918E+01   1.3232E+01   1.0185E-05  0.0125
   1.3232E+01   1.3554E+01   1.0090E-05  0.0124
   1.3554E+01   1.3884E+01   9.8839E-06  0.0124
   1.3884E+01   1.4222E+01   9.4463E-06  0.0125
   1.4222E+01   1.4568E+01   9.1092E-06  0.0126
   1.4568E+01   1.4922E+01   8.7158E-06  0.0127
   1.4922E+01   1.5285E+01   8.3545E-06  0.0128
   1.5285E+01   1.5657E+01   7.9188E-06  0.0130
   1.5657E+01   1.6038E+01   7.8396E-06  0.0129
   1.6038E+01   1.6428E+01   7.4542E-06  0.0131
   1.6428E+01   1.6828E+01   6.9875E-06  0.0134
   1.6828E+01   1.7237E+01   6.6109E-06  0.0136
   1.7237E+01   1.7657E+01   6.4265E-06  0.0136
   1.7657E+01   1.8086E+01   6.0253E-06  0.0139
   1.8086E+01   1.8526E+01   5.8010E-06  0.0140
   1.8526E+01   1.8977E+01   5.4569E-06  0.0143
   1.8977E+01   1.9439E+01   5.1751E-06  0.0145
   1.9439E+01   1.9912E+01   4.7963E-06  0.0148
   1.9912E+01   2.0396E+01   3.6958E-06  0.0167
   2.0396E+01   2.0893E+01   3.2372E-06  0.0176
   2.0893E+01   2.1401E+01   3.0600E-06  0.0179
   2.1401E+01   2.1922E+01   3.0248E-06  0.0178
   2.1922E+01   2.2455E+01   2.7448E-06  0.0185
   2.2455E+01   2.3001E+01   2.6641E-06  0.0185
   2.3001E+01   2.3561E+01   2.5507E-06  0.0187
   2.3561E+01   2.4134E+01   2.2669E-06  0.0196
   2.4134E+01   2.4721E+01   2.1756E-06  0.0198
   2.4721E+01   2.5323E+01   2.0732E-06  0.0200
   2.5323E+01   2.5939E+01   1.8876E-06  0.0207
   2.5939E+01   2.6570E+01   1.7342E-06  0.0214
   2.6570E+01   2.7217E+01   1.5940E-06  0.0220
   2.7217E+01   2.7879E+01   1.4882E-06  0.0225
   2.7879E+01   2.8557E+01   1.4108E-06  0.0229
   2.8557E+01   2.9252E+01   1.3241E-06  0.0233
   2.9252E+01   2.9964E+01   1.1676E-06  0.0245
   2.9964E+01   3.0693E+01   1.0473E-06  0.0256
   3.0693E+01   3.1440E+01   9.4606E-07  0.0266
   3.1440E+01   3.2205E+01   9.3078E-07  0.0265
   3.2205E+01   3.2988E+01   8.2253E-07  0.0279
   3.2988E+01   3.3791E+01   7.5128E-07  0.0288
   3.3791E+01   3.4613E+01   6.3553E-07  0.0309
   3.4613E+01   3.5455E+01   5.9431E-07  0.0316
   3.5455E+01   3.6318E+01   5.5874E-07  0.0322
   3.6318E+01   3.7201E+01   4.4475E-07  0.0357
   3.7201E+01   3.8106E+01   4.0160E-07  0.0371
   3.8106E+01   3.9034E+01   3.5754E-07  0.0388
   3.9034E+01   3.9983E+01   2.8798E-07  0.0428
   3.9983E+01   4.0956E+01   2.7446E-07  0.0433
   4.0956E+01   4.1953E+01   2.2077E-07  0.0477
   4.1953E+01   4.2973E+01   1.9349E-07  0.0503
   4.2973E+01   4.4019E+01   1.5111E-07  0.0563
   4.4019E+01   4.5090E+01   1.2652E-07  0.0607
   4.5090E+01   4.6187E+01   9.2975E-08  0.0700
   4.6187E+01   4.7311E+01   7.8308E-08  0.0754
   4.7311E+01   4.8462E+01   5.9942E-08  0.0851
   4.8462E+01   4.9641E+01   5.5550E-08  0.0874
   4.9641E+01   5.0849E+01   4.6779E-08  0.0941
   5.0849E+01   5.2086E+01   2.6673E-08  0.1231
   5.2086E+01   5.3353E+01   1.1836E-08  0.1826
   5.3353E+01   5.4651E+01   1.4251E-08  0.1644
   5.4651E+01   5.5981E+01   7.5204E-09  0.2236
   5.5981E+01   5.7343E+01   4.7722E-09  0.2774
   5.7343E+01   5.8738E+01   3.9421E-09  0.3015
   5.8738E+01   6.0168E+01   1.3994E-09  0.5000
   6.0168E+01   6.1632E+01   0.0000E+00  0.0000
   6.1632E+01   6.3131E+01   0.0000E+00  0.0000
   6.3131E+01   6.4667E+01   0.0000E+00  0.0000
   6.4667E+01   6.6240E+01   0.0000E+00  0.0000
   6.6240E+01   6.7852E+01   0.0000E+00  0.0000
   6.7852E+01   6.9503E+01   0.0000E+00  0.0000
   6.9503E+01   7.1194E+01   0.0000E+00  0.0000
   7.1194E+01   7.2926E+01   0.0000E+00  0.0000
   7.2926E+01   7.4701E+01   0.0000E+00  0.0000
   7.4701E+01   7.6518E+01   0.0000E+00  0.0000
   7.6518E+01   7.8380E+01   0.0000E+00  0.0000
   7.8380E+01   8.0287E+01   0.0000E+00  0.0000
   8.0287E+01   8.2240E+01   0.0000E+00  0.0000
   8.2240E+01   8.4241E+01   0.0000E+00  0.0000
   8.4241E+01   8.6291E+01   0.0000E+00  0.0000
   8.6291E+01   8.8391E+01   0.0000E+00  0.0000
   8.8391E+01   9.0541E+01   0.0000E+00  0.0000
   9.0541E+01   9.2744E+01   0.0000E+00  0.0000
   9.2744E+01   9.5001E+01   0.0000E+00  0.0000
   9.5001E+01   9.7312E+01   0.0000E+00  0.0000
   9.7312E+01   9.9680E+01   0.0000E+00  0.0000
   9.9680E+01   1.0211E+02   0.0000E+00  0.0000
   1.0211E+02   1.0459E+02   0.0000E+00  0.0000
   1.0459E+02   1.0713E+02   0.0000E+00  0.0000
   1.0713E+02   1.0974E+02   0.0000E+00  0.0000
   1.0974E+02   1.1241E+02   0.0000E+00  0.0000
   1.1241E+02   1.1515E+02   0.0000E+00  0.0000
   1.1515E+02   1.1795E+02   0.0000E+00  0.0000
   1.1795E+02   1.2082E+02   0.0000E+00  0.0000
   1.2082E+02   1.2376E+02   0.0000E+00  0.0000
   1.2376E+02   1.2677E+02   0.0000E+00  0.0000
   1.2677E+02   1.2985E+02   0.0000E+00  0.0000
   1.2985E+02   1.3301E+02   0.0000E+00  0.0000
   1.3301E+02   1.3625E+02   0.0000E+00  0.0000
   1.3625E+02   1.3956E+02   0.0000E+00  0.0000
   1.3956E+02   1.4296E+02   0.0000E+00  0.0000
   1.4296E+02   1.4644E+02   0.0000E+00  0.0000
   1.4644E+02   1.5000E+02   0.0000E+00  0.0000

#   sum over                 1.1603E-05
'no. =    1   reg = 115 - 215'
msuc: {\huge [t-cross] in region mesh}
msdr: {\it plotted by \ANGEL \version}
msdl: {\it calculated by \PHITS  3.26}
wt: s(0.7)
\vspace{-3}
  region surface crossing
  area  &=&   1.0000E+00 [cm^2]
e:
 
# Information for Restart Calculation
# This calculation was newly started
# istdev =  2 # 1:Batch variance, 2:History variance
# resc2  = 2.00000000000000000E+09 # Total source weight or Total source weight / maxcas
# resc3  = 2.00000000000000000E+09 # Total history number or Total batch number
# maxcas =   500000000 # History / Batch, only used for istdev=1
# bitrseed = 0011011010010000100111110110001101100001010011100000011100000110 # bit data of rseed
