[ T-Cross ]
    title = [t-cross] in region mesh
     mesh =  reg            # mesh type is region-wise
      reg =    1            # number of crossing regions
      non     r-from    r-to       area
      1       126       226        1.000000    
   e-type =    3            # e-mesh is log given by emin, emax and ne
     emin =  1.0000000E-02  # minimum value of e-mesh points
     emax =   150.0000      # maximum value of e-mesh points
#    edel =  2.4039514E-02  # mesh width of e-mesh points
       ne =    400          # number of e-mesh points
#    data = ( e(i), i = 1, ne + 1 )
#           1.00000E-02  1.02433E-02  1.04925E-02  1.07478E-02  1.10093E-02
#           1.12772E-02  1.15516E-02  1.18326E-02  1.21205E-02  1.24154E-02
#           1.27175E-02  1.30269E-02  1.33439E-02  1.36686E-02  1.40011E-02
#           1.43418E-02  1.46907E-02  1.50482E-02  1.54143E-02  1.57894E-02
#           1.61735E-02  1.65670E-02  1.69701E-02  1.73830E-02  1.78060E-02
#           1.82392E-02  1.86830E-02  1.91375E-02  1.96032E-02  2.00801E-02
#           2.05687E-02  2.10692E-02  2.15818E-02  2.21069E-02  2.26448E-02
#           2.31957E-02  2.37601E-02  2.43382E-02  2.49304E-02  2.55369E-02
#           2.61583E-02  2.67947E-02  2.74467E-02  2.81145E-02  2.87985E-02
#           2.94992E-02  3.02169E-02  3.09521E-02  3.17052E-02  3.24766E-02
#           3.32668E-02  3.40762E-02  3.49053E-02  3.57546E-02  3.66246E-02
#           3.75157E-02  3.84284E-02  3.93634E-02  4.03212E-02  4.13022E-02
#           4.23071E-02  4.33365E-02  4.43909E-02  4.54710E-02  4.65773E-02
#           4.77106E-02  4.88714E-02  5.00605E-02  5.12785E-02  5.25262E-02
#           5.38042E-02  5.51133E-02  5.64542E-02  5.78278E-02  5.92348E-02
#           6.06760E-02  6.21523E-02  6.36645E-02  6.52135E-02  6.68002E-02
#           6.84255E-02  7.00904E-02  7.17957E-02  7.35426E-02  7.53319E-02
#           7.71648E-02  7.90423E-02  8.09655E-02  8.29354E-02  8.49533E-02
#           8.70203E-02  8.91376E-02  9.13064E-02  9.35279E-02  9.58035E-02
#           9.81345E-02  1.00522E-01  1.02968E-01  1.05473E-01  1.08040E-01
#           1.10668E-01  1.13361E-01  1.16119E-01  1.18944E-01  1.21838E-01
#           1.24803E-01  1.27839E-01  1.30950E-01  1.34136E-01  1.37399E-01
#           1.40742E-01  1.44167E-01  1.47675E-01  1.51268E-01  1.54948E-01
#           1.58718E-01  1.62580E-01  1.66535E-01  1.70587E-01  1.74738E-01
#           1.78989E-01  1.83344E-01  1.87805E-01  1.92375E-01  1.97055E-01
#           2.01850E-01  2.06761E-01  2.11792E-01  2.16945E-01  2.22223E-01
#           2.27630E-01  2.33169E-01  2.38842E-01  2.44653E-01  2.50605E-01
#           2.56703E-01  2.62949E-01  2.69346E-01  2.75900E-01  2.82613E-01
#           2.89489E-01  2.96532E-01  3.03747E-01  3.11138E-01  3.18708E-01
#           3.26462E-01  3.34405E-01  3.42542E-01  3.50876E-01  3.59413E-01
#           3.68158E-01  3.77116E-01  3.86291E-01  3.95690E-01  4.05317E-01
#           4.15179E-01  4.25281E-01  4.35628E-01  4.46227E-01  4.57084E-01
#           4.68205E-01  4.79597E-01  4.91266E-01  5.03219E-01  5.15463E-01
#           5.28005E-01  5.40851E-01  5.54011E-01  5.67490E-01  5.81298E-01
#           5.95441E-01  6.09929E-01  6.24769E-01  6.39970E-01  6.55541E-01
#           6.71491E-01  6.87828E-01  7.04564E-01  7.21706E-01  7.39266E-01
#           7.57253E-01  7.75678E-01  7.94551E-01  8.13883E-01  8.33685E-01
#           8.53969E-01  8.74747E-01  8.96030E-01  9.17831E-01  9.40163E-01
#           9.63038E-01  9.86469E-01  1.01047E+00  1.03506E+00  1.06024E+00
#           1.08604E+00  1.11246E+00  1.13953E+00  1.16725E+00  1.19565E+00
#           1.22474E+00  1.25454E+00  1.28507E+00  1.31633E+00  1.34836E+00
#           1.38117E+00  1.41477E+00  1.44920E+00  1.48446E+00  1.52057E+00
#           1.55757E+00  1.59547E+00  1.63429E+00  1.67405E+00  1.71478E+00
#           1.75650E+00  1.79924E+00  1.84302E+00  1.88786E+00  1.93379E+00
#           1.98084E+00  2.02904E+00  2.07841E+00  2.12898E+00  2.18078E+00
#           2.23384E+00  2.28819E+00  2.34386E+00  2.40089E+00  2.45930E+00
#           2.51914E+00  2.58043E+00  2.64322E+00  2.70753E+00  2.77341E+00
#           2.84088E+00  2.91001E+00  2.98081E+00  3.05333E+00  3.12762E+00
#           3.20372E+00  3.28167E+00  3.36152E+00  3.44330E+00  3.52708E+00
#           3.61290E+00  3.70080E+00  3.79085E+00  3.88308E+00  3.97756E+00
#           4.07434E+00  4.17347E+00  4.27501E+00  4.37903E+00  4.48557E+00
#           4.59471E+00  4.70650E+00  4.82102E+00  4.93832E+00  5.05847E+00
#           5.18155E+00  5.30762E+00  5.43676E+00  5.56904E+00  5.70453E+00
#           5.84333E+00  5.98550E+00  6.13114E+00  6.28031E+00  6.43312E+00
#           6.58964E+00  6.74997E+00  6.91420E+00  7.08243E+00  7.25475E+00
#           7.43126E+00  7.61207E+00  7.79728E+00  7.98700E+00  8.18133E+00
#           8.38038E+00  8.58428E+00  8.79315E+00  9.00709E+00  9.22624E+00
#           9.45072E+00  9.68067E+00  9.91620E+00  1.01575E+01  1.04046E+01
#           1.06578E+01  1.09171E+01  1.11827E+01  1.14548E+01  1.17335E+01
#           1.20190E+01  1.23114E+01  1.26109E+01  1.29178E+01  1.32321E+01
#           1.35540E+01  1.38838E+01  1.42216E+01  1.45676E+01  1.49221E+01
#           1.52851E+01  1.56570E+01  1.60380E+01  1.64282E+01  1.68279E+01
#           1.72374E+01  1.76568E+01  1.80864E+01  1.85264E+01  1.89772E+01
#           1.94389E+01  1.99119E+01  2.03963E+01  2.08926E+01  2.14009E+01
#           2.19216E+01  2.24550E+01  2.30014E+01  2.35610E+01  2.41343E+01
#           2.47215E+01  2.53230E+01  2.59391E+01  2.65702E+01  2.72167E+01
#           2.78789E+01  2.85572E+01  2.92520E+01  2.99637E+01  3.06928E+01
#           3.14396E+01  3.22045E+01  3.29881E+01  3.37907E+01  3.46128E+01
#           3.54550E+01  3.63177E+01  3.72013E+01  3.81064E+01  3.90336E+01
#           3.99833E+01  4.09561E+01  4.19526E+01  4.29734E+01  4.40189E+01
#           4.50900E+01  4.61870E+01  4.73108E+01  4.84619E+01  4.96410E+01
#           5.08488E+01  5.20860E+01  5.33533E+01  5.46514E+01  5.59812E+01
#           5.73432E+01  5.87384E+01  6.01676E+01  6.16315E+01  6.31311E+01
#           6.46671E+01  6.62405E+01  6.78522E+01  6.95031E+01  7.11941E+01
#           7.29263E+01  7.47007E+01  7.65182E+01  7.83800E+01  8.02870E+01
#           8.22405E+01  8.42414E+01  8.62911E+01  8.83906E+01  9.05412E+01
#           9.27442E+01  9.50007E+01  9.73122E+01  9.96799E+01  1.02105E+02
#           1.04589E+02  1.07134E+02  1.09741E+02  1.12411E+02  1.15146E+02
#           1.17948E+02  1.20817E+02  1.23757E+02  1.26768E+02  1.29852E+02
#           1.33012E+02  1.36248E+02  1.39563E+02  1.42959E+02  1.46437E+02
#           1.50000E+02
     unit =    2            # unit is [1/cm^2/(MeV/n)/source]
     axis =  eng            # axis of output
     file = detector-27.out  # file name of output for the above axis
   output = f-curr          # surface crossing forward current spectrum
     part =  neutron  
# kf/name :  2112     
#    used :        main (  %)        temp (  %)       total (  %)
#  memory :         414 (  0)           0 (  0)         414 (  0)

#------------------------------------------------------------------------------
#newpage:
#   no. =    1   reg = 126 - 226

x: Energy [MeV/n]
y:  F-Curr [1/cm^2/(MeV/n)/source]         
p: xlog ylog afac(0.8) form(0.9)
h: n            x            y(neutron ),hh0l   n 
#  e-lower      e-upper      neutron     r.err 
   1.0000E-02   1.0243E-02   2.2194E-05  0.1925
   1.0243E-02   1.0493E-02   1.9259E-05  0.2041
   1.0493E-02   1.0748E-02   1.0184E-05  0.2774
   1.0748E-02   1.1009E-02   1.9120E-05  0.2000
   1.1009E-02   1.1277E-02   2.3893E-05  0.1768
   1.1277E-02   1.1552E-02   2.4783E-05  0.1715
   1.1552E-02   1.1833E-02   2.6329E-05  0.1644
   1.1833E-02   1.2121E-02   1.9451E-05  0.1890
   1.2121E-02   1.2415E-02   2.2380E-05  0.1741
   1.2415E-02   1.2718E-02   2.5159E-05  0.1622
   1.2718E-02   1.3027E-02   2.3269E-05  0.1667
   1.3027E-02   1.3344E-02   2.7133E-05  0.1525
   1.3344E-02   1.3669E-02   1.9096E-05  0.1796
   1.3669E-02   1.4001E-02   2.4055E-05  0.1581
   1.4001E-02   1.4342E-02   1.6439E-05  0.1890
   1.4342E-02   1.4691E-02   2.8658E-05  0.1414
   1.4691E-02   1.5048E-02   1.6786E-05  0.1826
   1.5048E-02   1.5414E-02   1.7480E-05  0.1768
   1.5414E-02   1.5789E-02   2.1331E-05  0.1581
   1.5789E-02   1.6174E-02   2.0824E-05  0.1581
   1.6174E-02   1.6567E-02   2.3379E-05  0.1474
   1.6567E-02   1.6970E-02   2.5305E-05  0.1400
   1.6970E-02   1.7383E-02   2.2766E-05  0.1459
   1.7383E-02   1.7806E-02   2.2225E-05  0.1459
   1.7806E-02   1.8239E-02   2.1697E-05  0.1459
   1.8239E-02   1.8683E-02   2.0731E-05  0.1474
   1.8683E-02   1.9138E-02   2.6838E-05  0.1280
   1.9138E-02   1.9603E-02   1.7610E-05  0.1562
   1.9603E-02   2.0080E-02   2.0127E-05  0.1443
   2.0080E-02   2.0569E-02   2.3743E-05  0.1313
   2.0569E-02   2.1069E-02   2.2380E-05  0.1336
   2.1069E-02   2.1582E-02   1.8727E-05  0.1443
   2.1582E-02   2.2107E-02   2.3995E-05  0.1260
   2.2107E-02   2.2645E-02   2.5285E-05  0.1213
   2.2645E-02   2.3196E-02   2.2869E-05  0.1260
   2.3196E-02   2.3760E-02   2.4452E-05  0.1204
   2.3760E-02   2.4338E-02   2.3871E-05  0.1204
   2.4338E-02   2.4930E-02   1.7225E-05  0.1400
   2.4930E-02   2.5537E-02   2.2751E-05  0.1204
   2.5537E-02   2.6158E-02   1.8026E-05  0.1336
   2.6158E-02   2.6795E-02   2.7025E-05  0.1078
   2.6795E-02   2.7447E-02   2.3008E-05  0.1155
   2.7447E-02   2.8114E-02   2.6954E-05  0.1054
   2.8114E-02   2.8799E-02   1.8420E-05  0.1260
   2.8799E-02   2.9499E-02   2.3120E-05  0.1111
   2.9499E-02   3.0217E-02   2.0899E-05  0.1155
   3.0217E-02   3.0952E-02   2.2307E-05  0.1104
   3.0952E-02   3.1705E-02   2.2308E-05  0.1091
   3.1705E-02   3.2477E-02   2.6963E-05  0.0981
   3.2477E-02   3.3267E-02   2.4298E-05  0.1021
   3.3267E-02   3.4076E-02   2.0262E-05  0.1104
   3.4076E-02   3.4905E-02   2.2193E-05  0.1043
   3.4905E-02   3.5755E-02   2.3314E-05  0.1005
   3.5755E-02   3.6625E-02   1.8852E-05  0.1104
   3.6625E-02   3.7516E-02   2.8055E-05  0.0894
   3.7516E-02   3.8428E-02   2.2130E-05  0.0995
   3.8428E-02   3.9363E-02   2.1391E-05  0.1000
   3.9363E-02   4.0321E-02   2.3388E-05  0.0945
   4.0321E-02   4.1302E-02   2.3037E-05  0.0941
   4.1302E-02   4.2307E-02   2.4480E-05  0.0902
   4.2307E-02   4.3337E-02   2.3704E-05  0.0905
   4.3337E-02   4.4391E-02   2.3710E-05  0.0894
   4.4391E-02   4.5471E-02   2.2591E-05  0.0905
   4.5471E-02   4.6577E-02   2.2416E-05  0.0898
   4.6577E-02   4.7711E-02   2.3119E-05  0.0874
   4.7711E-02   4.8871E-02   2.1192E-05  0.0902
   4.8871E-02   5.0061E-02   2.3379E-05  0.0848
   5.0061E-02   5.1279E-02   2.4466E-05  0.0819
   5.1279E-02   5.2526E-02   2.5167E-05  0.0798
   5.2526E-02   5.3804E-02   2.0657E-05  0.0870
   5.3804E-02   5.5113E-02   2.5361E-05  0.0776
   5.5113E-02   5.6454E-02   2.3864E-05  0.0791
   5.6454E-02   5.7828E-02   2.5044E-05  0.0762
   5.7828E-02   5.9235E-02   2.0611E-05  0.0830
   5.9235E-02   6.0676E-02   2.4701E-05  0.0750
   6.0676E-02   6.2152E-02   2.5740E-05  0.0725
   6.2152E-02   6.3665E-02   2.4467E-05  0.0735
   6.3665E-02   6.5214E-02   2.4532E-05  0.0725
   6.5214E-02   6.6800E-02   2.3445E-05  0.0733
   6.6800E-02   6.8426E-02   2.3749E-05  0.0720
   6.8426E-02   7.0090E-02   2.4867E-05  0.0695
   7.0090E-02   7.1796E-02   2.5684E-05  0.0676
   7.1796E-02   7.3543E-02   2.5188E-05  0.0674
   7.3543E-02   7.5332E-02   2.3360E-05  0.0692
   7.5332E-02   7.7165E-02   2.2696E-05  0.0693
   7.7165E-02   7.9042E-02   2.3010E-05  0.0680
   7.9042E-02   8.0965E-02   2.3711E-05  0.0662
   8.0965E-02   8.2935E-02   2.5077E-05  0.0636
   8.2935E-02   8.4953E-02   2.5076E-05  0.0629
   8.4953E-02   8.7020E-02   2.3319E-05  0.0644
   8.7020E-02   8.9138E-02   2.5505E-05  0.0609
   8.9138E-02   9.1306E-02   2.4806E-05  0.0610
   9.1306E-02   9.3528E-02   2.3677E-05  0.0617
   9.3528E-02   9.5804E-02   2.5927E-05  0.0582
   9.5804E-02   9.8134E-02   2.4110E-05  0.0597
   9.8134E-02   1.0052E-01   2.3956E-05  0.0591
   1.0052E-01   1.0297E-01   2.6740E-05  0.0553
   1.0297E-01   1.0547E-01   2.5546E-05  0.0559
   1.0547E-01   1.0804E-01   2.6186E-05  0.0546
   1.0804E-01   1.1067E-01   2.6325E-05  0.0538
   1.1067E-01   1.1336E-01   2.5922E-05  0.0535
   1.1336E-01   1.1612E-01   2.6829E-05  0.0520
   1.1612E-01   1.1894E-01   2.6405E-05  0.0518
   1.1894E-01   1.2184E-01   2.6468E-05  0.0511
   1.2184E-01   1.2480E-01   2.5907E-05  0.0510
   1.2480E-01   1.2784E-01   2.7400E-05  0.0490
   1.2784E-01   1.3095E-01   2.6363E-05  0.0494
   1.3095E-01   1.3414E-01   2.7369E-05  0.0479
   1.3414E-01   1.3740E-01   2.7761E-05  0.0470
   1.3740E-01   1.4074E-01   2.6742E-05  0.0473
   1.4074E-01   1.4417E-01   2.6884E-05  0.0466
   1.4417E-01   1.4767E-01   2.6627E-05  0.0463
   1.4767E-01   1.5127E-01   2.7331E-05  0.0451
   1.5127E-01   1.5495E-01   2.9181E-05  0.0432
   1.5495E-01   1.5872E-01   2.9390E-05  0.0425
   1.5872E-01   1.6258E-01   2.9469E-05  0.0419
   1.6258E-01   1.6654E-01   2.8314E-05  0.0423
   1.6654E-01   1.7059E-01   2.7895E-05  0.0421
   1.7059E-01   1.7474E-01   2.8527E-05  0.0411
   1.7474E-01   1.7899E-01   3.0389E-05  0.0393
   1.7899E-01   1.8334E-01   2.9392E-05  0.0395
   1.8334E-01   1.8781E-01   2.9770E-05  0.0388
   1.8781E-01   1.9237E-01   2.7618E-05  0.0398
   1.9237E-01   1.9706E-01   2.8421E-05  0.0388
   1.9706E-01   2.0185E-01   3.1092E-05  0.0366
   2.0185E-01   2.0676E-01   2.9734E-05  0.0370
   2.0676E-01   2.1179E-01   2.9181E-05  0.0369
   2.1179E-01   2.1694E-01   2.9963E-05  0.0360
   2.1694E-01   2.2222E-01   3.1562E-05  0.0346
   2.2222E-01   2.2763E-01   3.0110E-05  0.0350
   2.2763E-01   2.3317E-01   3.1236E-05  0.0340
   2.3317E-01   2.3884E-01   3.1199E-05  0.0336
   2.3884E-01   2.4465E-01   3.0045E-05  0.0338
   2.4465E-01   2.5061E-01   3.0306E-05  0.0333
   2.5061E-01   2.5670E-01   3.0275E-05  0.0329
   2.5670E-01   2.6295E-01   3.0421E-05  0.0324
   2.6295E-01   2.6935E-01   3.0886E-05  0.0318
   2.6935E-01   2.7590E-01   3.1251E-05  0.0312
   2.7590E-01   2.8261E-01   3.0330E-05  0.0313
   2.8261E-01   2.8949E-01   3.1820E-05  0.0302
   2.8949E-01   2.9653E-01   3.0354E-05  0.0306
   2.9653E-01   3.0375E-01   3.4290E-05  0.0284
   3.0375E-01   3.1114E-01   3.1203E-05  0.0294
   3.1114E-01   3.1871E-01   3.2654E-05  0.0284
   3.1871E-01   3.2646E-01   3.2988E-05  0.0280
   3.2646E-01   3.3441E-01   3.2909E-05  0.0277
   3.3441E-01   3.4254E-01   3.3086E-05  0.0273
   3.4254E-01   3.5088E-01   3.2372E-05  0.0272
   3.5088E-01   3.5941E-01   3.3899E-05  0.0263
   3.5941E-01   3.6816E-01   3.2911E-05  0.0264
   3.6816E-01   3.7712E-01   3.3003E-05  0.0260
   3.7712E-01   3.8629E-01   3.1279E-05  0.0264
   3.8629E-01   3.9569E-01   3.2993E-05  0.0254
   3.9569E-01   4.0532E-01   3.2574E-05  0.0253
   4.0532E-01   4.1518E-01   3.3808E-05  0.0245
   4.1518E-01   4.2528E-01   3.4153E-05  0.0241
   4.2528E-01   4.3563E-01   3.4037E-05  0.0238
   4.3563E-01   4.4623E-01   3.3418E-05  0.0238
   4.4623E-01   4.5708E-01   3.3545E-05  0.0234
   4.5708E-01   4.6821E-01   3.2335E-05  0.0236
   4.6821E-01   4.7960E-01   3.3524E-05  0.0229
   4.7960E-01   4.9127E-01   3.4125E-05  0.0224
   4.9127E-01   5.0322E-01   3.3850E-05  0.0222
   5.0322E-01   5.1546E-01   3.4292E-05  0.0218
   5.1546E-01   5.2800E-01   3.3217E-05  0.0219
   5.2800E-01   5.4085E-01   3.4016E-05  0.0214
   5.4085E-01   5.5401E-01   3.3547E-05  0.0213
   5.5401E-01   5.6749E-01   3.2954E-05  0.0212
   5.6749E-01   5.8130E-01   3.3562E-05  0.0208
   5.8130E-01   5.9544E-01   3.3785E-05  0.0205
   5.9544E-01   6.0993E-01   3.4830E-05  0.0199
   6.0993E-01   6.2477E-01   3.4784E-05  0.0197
   6.2477E-01   6.3997E-01   3.3188E-05  0.0199
   6.3997E-01   6.5554E-01   3.3655E-05  0.0195
   6.5554E-01   6.7149E-01   3.3420E-05  0.0194
   6.7149E-01   6.8783E-01   3.2856E-05  0.0193
   6.8783E-01   7.0456E-01   3.2852E-05  0.0191
   7.0456E-01   7.2171E-01   3.3216E-05  0.0187
   7.2171E-01   7.3927E-01   3.2632E-05  0.0187
   7.3927E-01   7.5725E-01   3.2296E-05  0.0186
   7.5725E-01   7.7568E-01   3.2207E-05  0.0184
   7.7568E-01   7.9455E-01   3.2682E-05  0.0180
   7.9455E-01   8.1388E-01   3.1678E-05  0.0181
   8.1388E-01   8.3368E-01   3.0910E-05  0.0181
   8.3368E-01   8.5397E-01   3.0181E-05  0.0181
   8.5397E-01   8.7475E-01   2.8994E-05  0.0182
   8.7475E-01   8.9603E-01   2.8586E-05  0.0181
   8.9603E-01   9.1783E-01   2.8581E-05  0.0179
   9.1783E-01   9.4016E-01   2.7833E-05  0.0179
   9.4016E-01   9.6304E-01   2.7292E-05  0.0179
   9.6304E-01   9.8647E-01   2.4677E-05  0.0186
   9.8647E-01   1.0105E+00   2.4302E-05  0.0185
   1.0105E+00   1.0351E+00   2.4075E-05  0.0184
   1.0351E+00   1.0602E+00   2.3348E-05  0.0184
   1.0602E+00   1.0860E+00   2.2941E-05  0.0184
   1.0860E+00   1.1125E+00   2.3448E-05  0.0180
   1.1125E+00   1.1395E+00   2.2768E-05  0.0180
   1.1395E+00   1.1673E+00   2.2713E-05  0.0178
   1.1673E+00   1.1957E+00   2.2345E-05  0.0178
   1.1957E+00   1.2247E+00   2.2041E-05  0.0177
   1.2247E+00   1.2545E+00   2.2199E-05  0.0174
   1.2545E+00   1.2851E+00   2.1494E-05  0.0175
   1.2851E+00   1.3163E+00   2.0951E-05  0.0175
   1.3163E+00   1.3484E+00   2.0429E-05  0.0175
   1.3484E+00   1.3812E+00   2.0334E-05  0.0173
   1.3812E+00   1.4148E+00   1.9834E-05  0.0173
   1.4148E+00   1.4492E+00   1.9381E-05  0.0173
   1.4492E+00   1.4845E+00   1.8756E-05  0.0174
   1.4845E+00   1.5206E+00   1.8024E-05  0.0175
   1.5206E+00   1.5576E+00   1.8259E-05  0.0172
   1.5576E+00   1.5955E+00   1.7051E-05  0.0176
   1.5955E+00   1.6343E+00   1.6541E-05  0.0176
   1.6343E+00   1.6741E+00   1.6238E-05  0.0176
   1.6741E+00   1.7148E+00   1.6119E-05  0.0175
   1.7148E+00   1.7565E+00   1.5173E-05  0.0178
   1.7565E+00   1.7992E+00   1.4797E-05  0.0178
   1.7992E+00   1.8430E+00   1.3917E-05  0.0181
   1.8430E+00   1.8879E+00   1.3340E-05  0.0183
   1.8879E+00   1.9338E+00   1.3108E-05  0.0182
   1.9338E+00   1.9808E+00   1.2399E-05  0.0185
   1.9808E+00   2.0290E+00   1.1773E-05  0.0188
   2.0290E+00   2.0784E+00   1.1751E-05  0.0186
   2.0784E+00   2.1290E+00   1.1286E-05  0.0187
   2.1290E+00   2.1808E+00   1.0487E-05  0.0192
   2.1808E+00   2.2338E+00   1.0164E-05  0.0193
   2.2338E+00   2.2882E+00   9.8295E-06  0.0193
   2.2882E+00   2.3439E+00   9.0445E-06  0.0199
   2.3439E+00   2.4009E+00   9.0521E-06  0.0197
   2.4009E+00   2.4593E+00   8.6051E-06  0.0199
   2.4593E+00   2.5191E+00   8.2905E-06  0.0201
   2.5191E+00   2.5804E+00   7.4134E-06  0.0210
   2.5804E+00   2.6432E+00   7.1080E-06  0.0212
   2.6432E+00   2.7075E+00   6.9343E-06  0.0212
   2.7075E+00   2.7734E+00   6.5691E-06  0.0215
   2.7734E+00   2.8409E+00   6.3867E-06  0.0215
   2.8409E+00   2.9100E+00   6.0239E-06  0.0219
   2.9100E+00   2.9808E+00   5.4609E-06  0.0227
   2.9808E+00   3.0533E+00   5.1778E-06  0.0230
   3.0533E+00   3.1276E+00   4.9941E-06  0.0232
   3.1276E+00   3.2037E+00   4.4893E-06  0.0242
   3.2037E+00   3.2817E+00   4.6519E-06  0.0234
   3.2817E+00   3.3615E+00   4.3438E-06  0.0240
   3.3615E+00   3.4433E+00   3.8813E-06  0.0251
   3.4433E+00   3.5271E+00   3.9686E-06  0.0245
   3.5271E+00   3.6129E+00   3.5591E-06  0.0255
   3.6129E+00   3.7008E+00   3.4672E-06  0.0256
   3.7008E+00   3.7908E+00   3.2140E-06  0.0262
   3.7908E+00   3.8831E+00   2.9875E-06  0.0269
   3.8831E+00   3.9776E+00   2.7473E-06  0.0277
   3.9776E+00   4.0743E+00   2.7938E-06  0.0271
   4.0743E+00   4.1735E+00   2.5634E-06  0.0280
   4.1735E+00   4.2750E+00   2.3475E-06  0.0289
   4.2750E+00   4.3790E+00   2.0737E-06  0.0304
   4.3790E+00   4.4856E+00   2.0102E-06  0.0305
   4.4856E+00   4.5947E+00   1.9453E-06  0.0306
   4.5947E+00   4.7065E+00   1.7576E-06  0.0318
   4.7065E+00   4.8210E+00   1.7046E-06  0.0319
   4.8210E+00   4.9383E+00   1.5699E-06  0.0328
   4.9383E+00   5.0585E+00   1.4427E-06  0.0339
   5.0585E+00   5.1815E+00   1.3580E-06  0.0345
   5.1815E+00   5.3076E+00   1.2874E-06  0.0350
   5.3076E+00   5.4368E+00   1.1525E-06  0.0365
   5.4368E+00   5.5690E+00   1.1428E-06  0.0362
   5.5690E+00   5.7045E+00   9.5922E-07  0.0391
   5.7045E+00   5.8433E+00   8.8578E-07  0.0402
   5.8433E+00   5.9855E+00   7.8276E-07  0.0422
   5.9855E+00   6.1311E+00   7.3162E-07  0.0431
   6.1311E+00   6.2803E+00   7.2146E-07  0.0430
   6.2803E+00   6.4331E+00   6.2653E-07  0.0455
   6.4331E+00   6.5896E+00   5.3454E-07  0.0487
   6.5896E+00   6.7500E+00   5.3867E-07  0.0480
   6.7500E+00   6.9142E+00   4.4324E-07  0.0523
   6.9142E+00   7.0824E+00   4.3516E-07  0.0520
   7.0824E+00   7.2548E+00   3.6868E-07  0.0559
   7.2548E+00   7.4313E+00   3.6651E-07  0.0553
   7.4313E+00   7.6121E+00   3.1731E-07  0.0587
   7.6121E+00   7.7973E+00   2.4864E-07  0.0656
   7.7973E+00   7.9870E+00   2.3865E-07  0.0662
   7.9870E+00   8.1813E+00   2.1225E-07  0.0693
   8.1813E+00   8.3804E+00   1.8258E-07  0.0739
   8.3804E+00   8.5843E+00   1.6780E-07  0.0761
   8.5843E+00   8.7931E+00   1.7349E-07  0.0739
   8.7931E+00   9.0071E+00   1.4754E-07  0.0791
   9.0071E+00   9.2262E+00   1.1030E-07  0.0905
   9.2262E+00   9.4507E+00   8.5229E-08  0.1017
   9.4507E+00   9.6807E+00   1.0700E-07  0.0899
   9.6807E+00   9.9162E+00   8.2365E-08  0.1015
   9.9162E+00   1.0157E+01   7.8465E-08  0.1018
   1.0157E+01   1.0405E+01   4.4483E-08  0.1341
   1.0405E+01   1.0658E+01   5.2573E-08  0.1222
   1.0658E+01   1.0917E+01   3.4007E-08  0.1495
   1.0917E+01   1.1183E+01   4.0627E-08  0.1353
   1.1183E+01   1.1455E+01   4.5911E-08  0.1256
   1.1455E+01   1.1733E+01   3.9142E-08  0.1349
   1.1733E+01   1.2019E+01   2.6793E-08  0.1613
   1.2019E+01   1.2311E+01   2.1747E-08  0.1746
   1.2311E+01   1.2611E+01   1.6327E-08  0.2012
   1.2611E+01   1.2918E+01   2.0439E-08  0.1779
   1.2918E+01   1.3232E+01   1.5908E-08  0.2000
   1.3232E+01   1.3554E+01   2.0802E-08  0.1722
   1.3554E+01   1.3884E+01   1.4221E-08  0.2054
   1.3884E+01   1.4222E+01   1.0884E-08  0.2317
   1.4222E+01   1.4568E+01   1.2138E-08  0.2182
   1.4568E+01   1.4922E+01   5.0784E-09  0.3333
   1.4922E+01   1.5285E+01   5.2099E-09  0.3209
   1.5285E+01   1.5657E+01   4.8400E-09  0.3333
   1.5657E+01   1.6038E+01   5.2336E-09  0.3087
   1.6038E+01   1.6428E+01   5.6379E-09  0.3015
   1.6428E+01   1.6828E+01   4.5032E-09  0.3333
   1.6828E+01   1.7237E+01   5.3732E-09  0.3015
   1.7237E+01   1.7657E+01   9.5375E-10  0.7071
   1.7657E+01   1.8086E+01   2.7933E-09  0.4082
   1.8086E+01   1.8526E+01   3.6359E-09  0.3536
   1.8526E+01   1.8977E+01   5.3243E-09  0.2887
   1.8977E+01   1.9439E+01   4.3315E-09  0.3162
   1.9439E+01   1.9912E+01   3.3829E-09  0.3536
   1.9912E+01   2.0396E+01   4.1282E-09  0.3162
   2.0396E+01   2.0893E+01   2.8211E-09  0.3780
   2.0893E+01   2.1401E+01   1.9672E-09  0.4472
   2.1401E+01   2.1922E+01   1.5364E-09  0.5000
   2.1922E+01   2.2455E+01   1.8749E-09  0.4472
   2.2455E+01   2.3001E+01   1.4643E-09  0.5000
   2.3001E+01   2.3561E+01   1.4295E-09  0.5000
   2.3561E+01   2.4134E+01   0.0000E+00  0.0000
   2.4134E+01   2.4721E+01   1.3624E-09  0.5000
   2.4721E+01   2.5323E+01   3.3251E-10  1.0000
   2.5323E+01   2.5939E+01   6.4922E-10  0.7071
   2.5939E+01   2.6570E+01   6.3380E-10  0.7071
   2.6570E+01   2.7217E+01   3.0937E-10  1.0000
   2.7217E+01   2.7879E+01   0.0000E+00  0.0000
   2.7879E+01   2.8557E+01   2.9485E-10  1.0000
   2.8557E+01   2.9252E+01   0.0000E+00  0.0000
   2.9252E+01   2.9964E+01   0.0000E+00  0.0000
   2.9964E+01   3.0693E+01   0.0000E+00  0.0000
   3.0693E+01   3.1440E+01   0.0000E+00  0.0000
   3.1440E+01   3.2205E+01   2.6146E-10  1.0000
   3.2205E+01   3.2988E+01   0.0000E+00  0.0000
   3.2988E+01   3.3791E+01   0.0000E+00  0.0000
   3.3791E+01   3.4613E+01   0.0000E+00  0.0000
   3.4613E+01   3.5455E+01   0.0000E+00  0.0000
   3.5455E+01   3.6318E+01   0.0000E+00  0.0000
   3.6318E+01   3.7201E+01   0.0000E+00  0.0000
   3.7201E+01   3.8106E+01   0.0000E+00  0.0000
   3.8106E+01   3.9034E+01   0.0000E+00  0.0000
   3.9034E+01   3.9983E+01   0.0000E+00  0.0000
   3.9983E+01   4.0956E+01   0.0000E+00  0.0000
   4.0956E+01   4.1953E+01   0.0000E+00  0.0000
   4.1953E+01   4.2973E+01   0.0000E+00  0.0000
   4.2973E+01   4.4019E+01   0.0000E+00  0.0000
   4.4019E+01   4.5090E+01   0.0000E+00  0.0000
   4.5090E+01   4.6187E+01   0.0000E+00  0.0000
   4.6187E+01   4.7311E+01   0.0000E+00  0.0000
   4.7311E+01   4.8462E+01   0.0000E+00  0.0000
   4.8462E+01   4.9641E+01   0.0000E+00  0.0000
   4.9641E+01   5.0849E+01   0.0000E+00  0.0000
   5.0849E+01   5.2086E+01   0.0000E+00  0.0000
   5.2086E+01   5.3353E+01   0.0000E+00  0.0000
   5.3353E+01   5.4651E+01   0.0000E+00  0.0000
   5.4651E+01   5.5981E+01   0.0000E+00  0.0000
   5.5981E+01   5.7343E+01   0.0000E+00  0.0000
   5.7343E+01   5.8738E+01   0.0000E+00  0.0000
   5.8738E+01   6.0168E+01   0.0000E+00  0.0000
   6.0168E+01   6.1632E+01   0.0000E+00  0.0000
   6.1632E+01   6.3131E+01   0.0000E+00  0.0000
   6.3131E+01   6.4667E+01   0.0000E+00  0.0000
   6.4667E+01   6.6240E+01   0.0000E+00  0.0000
   6.6240E+01   6.7852E+01   0.0000E+00  0.0000
   6.7852E+01   6.9503E+01   0.0000E+00  0.0000
   6.9503E+01   7.1194E+01   0.0000E+00  0.0000
   7.1194E+01   7.2926E+01   0.0000E+00  0.0000
   7.2926E+01   7.4701E+01   0.0000E+00  0.0000
   7.4701E+01   7.6518E+01   0.0000E+00  0.0000
   7.6518E+01   7.8380E+01   0.0000E+00  0.0000
   7.8380E+01   8.0287E+01   0.0000E+00  0.0000
   8.0287E+01   8.2240E+01   0.0000E+00  0.0000
   8.2240E+01   8.4241E+01   0.0000E+00  0.0000
   8.4241E+01   8.6291E+01   0.0000E+00  0.0000
   8.6291E+01   8.8391E+01   0.0000E+00  0.0000
   8.8391E+01   9.0541E+01   0.0000E+00  0.0000
   9.0541E+01   9.2744E+01   0.0000E+00  0.0000
   9.2744E+01   9.5001E+01   0.0000E+00  0.0000
   9.5001E+01   9.7312E+01   0.0000E+00  0.0000
   9.7312E+01   9.9680E+01   0.0000E+00  0.0000
   9.9680E+01   1.0211E+02   0.0000E+00  0.0000
   1.0211E+02   1.0459E+02   0.0000E+00  0.0000
   1.0459E+02   1.0713E+02   0.0000E+00  0.0000
   1.0713E+02   1.0974E+02   0.0000E+00  0.0000
   1.0974E+02   1.1241E+02   0.0000E+00  0.0000
   1.1241E+02   1.1515E+02   0.0000E+00  0.0000
   1.1515E+02   1.1795E+02   0.0000E+00  0.0000
   1.1795E+02   1.2082E+02   0.0000E+00  0.0000
   1.2082E+02   1.2376E+02   0.0000E+00  0.0000
   1.2376E+02   1.2677E+02   0.0000E+00  0.0000
   1.2677E+02   1.2985E+02   0.0000E+00  0.0000
   1.2985E+02   1.3301E+02   0.0000E+00  0.0000
   1.3301E+02   1.3625E+02   0.0000E+00  0.0000
   1.3625E+02   1.3956E+02   0.0000E+00  0.0000
   1.3956E+02   1.4296E+02   0.0000E+00  0.0000
   1.4296E+02   1.4644E+02   0.0000E+00  0.0000
   1.4644E+02   1.5000E+02   0.0000E+00  0.0000

#   sum over                 4.3337E-07
'no. =    1   reg = 126 - 226'
msuc: {\huge [t-cross] in region mesh}
msdr: {\it plotted by \ANGEL \version}
msdl: {\it calculated by \PHITS  3.26}
wt: s(0.7)
\vspace{-3}
  region surface crossing
  area  &=&   1.0000E+00 [cm^2]
e:
 
# Information for Restart Calculation
# This calculation was newly started
# istdev =  2 # 1:Batch variance, 2:History variance
# resc2  = 5.00000000000000000E+09 # Total source weight or Total source weight / maxcas
# resc3  = 5.00000000000000000E+09 # Total history number or Total batch number
# maxcas =   100000000 # History / Batch, only used for istdev=1
# bitrseed = 0110100000100010111000001110001111001110100100011111101000111001 # bit data of rseed
