[ T-Cross ]
    title = [t-cross] in region mesh
     mesh =  reg            # mesh type is region-wise
      reg =    1            # number of crossing regions
      non     r-from    r-to       area
      1       113       213        1.000000    
   e-type =    3            # e-mesh is log given by emin, emax and ne
     emin =  1.0000000E-02  # minimum value of e-mesh points
     emax =   150.0000      # maximum value of e-mesh points
#    edel =  2.4039514E-02  # mesh width of e-mesh points
       ne =    400          # number of e-mesh points
#    data = ( e(i), i = 1, ne + 1 )
#           1.00000E-02  1.02433E-02  1.04925E-02  1.07478E-02  1.10093E-02
#           1.12772E-02  1.15516E-02  1.18326E-02  1.21205E-02  1.24154E-02
#           1.27175E-02  1.30269E-02  1.33439E-02  1.36686E-02  1.40011E-02
#           1.43418E-02  1.46907E-02  1.50482E-02  1.54143E-02  1.57894E-02
#           1.61735E-02  1.65670E-02  1.69701E-02  1.73830E-02  1.78060E-02
#           1.82392E-02  1.86830E-02  1.91375E-02  1.96032E-02  2.00801E-02
#           2.05687E-02  2.10692E-02  2.15818E-02  2.21069E-02  2.26448E-02
#           2.31957E-02  2.37601E-02  2.43382E-02  2.49304E-02  2.55369E-02
#           2.61583E-02  2.67947E-02  2.74467E-02  2.81145E-02  2.87985E-02
#           2.94992E-02  3.02169E-02  3.09521E-02  3.17052E-02  3.24766E-02
#           3.32668E-02  3.40762E-02  3.49053E-02  3.57546E-02  3.66246E-02
#           3.75157E-02  3.84284E-02  3.93634E-02  4.03212E-02  4.13022E-02
#           4.23071E-02  4.33365E-02  4.43909E-02  4.54710E-02  4.65773E-02
#           4.77106E-02  4.88714E-02  5.00605E-02  5.12785E-02  5.25262E-02
#           5.38042E-02  5.51133E-02  5.64542E-02  5.78278E-02  5.92348E-02
#           6.06760E-02  6.21523E-02  6.36645E-02  6.52135E-02  6.68002E-02
#           6.84255E-02  7.00904E-02  7.17957E-02  7.35426E-02  7.53319E-02
#           7.71648E-02  7.90423E-02  8.09655E-02  8.29354E-02  8.49533E-02
#           8.70203E-02  8.91376E-02  9.13064E-02  9.35279E-02  9.58035E-02
#           9.81345E-02  1.00522E-01  1.02968E-01  1.05473E-01  1.08040E-01
#           1.10668E-01  1.13361E-01  1.16119E-01  1.18944E-01  1.21838E-01
#           1.24803E-01  1.27839E-01  1.30950E-01  1.34136E-01  1.37399E-01
#           1.40742E-01  1.44167E-01  1.47675E-01  1.51268E-01  1.54948E-01
#           1.58718E-01  1.62580E-01  1.66535E-01  1.70587E-01  1.74738E-01
#           1.78989E-01  1.83344E-01  1.87805E-01  1.92375E-01  1.97055E-01
#           2.01850E-01  2.06761E-01  2.11792E-01  2.16945E-01  2.22223E-01
#           2.27630E-01  2.33169E-01  2.38842E-01  2.44653E-01  2.50605E-01
#           2.56703E-01  2.62949E-01  2.69346E-01  2.75900E-01  2.82613E-01
#           2.89489E-01  2.96532E-01  3.03747E-01  3.11138E-01  3.18708E-01
#           3.26462E-01  3.34405E-01  3.42542E-01  3.50876E-01  3.59413E-01
#           3.68158E-01  3.77116E-01  3.86291E-01  3.95690E-01  4.05317E-01
#           4.15179E-01  4.25281E-01  4.35628E-01  4.46227E-01  4.57084E-01
#           4.68205E-01  4.79597E-01  4.91266E-01  5.03219E-01  5.15463E-01
#           5.28005E-01  5.40851E-01  5.54011E-01  5.67490E-01  5.81298E-01
#           5.95441E-01  6.09929E-01  6.24769E-01  6.39970E-01  6.55541E-01
#           6.71491E-01  6.87828E-01  7.04564E-01  7.21706E-01  7.39266E-01
#           7.57253E-01  7.75678E-01  7.94551E-01  8.13883E-01  8.33685E-01
#           8.53969E-01  8.74747E-01  8.96030E-01  9.17831E-01  9.40163E-01
#           9.63038E-01  9.86469E-01  1.01047E+00  1.03506E+00  1.06024E+00
#           1.08604E+00  1.11246E+00  1.13953E+00  1.16725E+00  1.19565E+00
#           1.22474E+00  1.25454E+00  1.28507E+00  1.31633E+00  1.34836E+00
#           1.38117E+00  1.41477E+00  1.44920E+00  1.48446E+00  1.52057E+00
#           1.55757E+00  1.59547E+00  1.63429E+00  1.67405E+00  1.71478E+00
#           1.75650E+00  1.79924E+00  1.84302E+00  1.88786E+00  1.93379E+00
#           1.98084E+00  2.02904E+00  2.07841E+00  2.12898E+00  2.18078E+00
#           2.23384E+00  2.28819E+00  2.34386E+00  2.40089E+00  2.45930E+00
#           2.51914E+00  2.58043E+00  2.64322E+00  2.70753E+00  2.77341E+00
#           2.84088E+00  2.91001E+00  2.98081E+00  3.05333E+00  3.12762E+00
#           3.20372E+00  3.28167E+00  3.36152E+00  3.44330E+00  3.52708E+00
#           3.61290E+00  3.70080E+00  3.79085E+00  3.88308E+00  3.97756E+00
#           4.07434E+00  4.17347E+00  4.27501E+00  4.37903E+00  4.48557E+00
#           4.59471E+00  4.70650E+00  4.82102E+00  4.93832E+00  5.05847E+00
#           5.18155E+00  5.30762E+00  5.43676E+00  5.56904E+00  5.70453E+00
#           5.84333E+00  5.98550E+00  6.13114E+00  6.28031E+00  6.43312E+00
#           6.58964E+00  6.74997E+00  6.91420E+00  7.08243E+00  7.25475E+00
#           7.43126E+00  7.61207E+00  7.79728E+00  7.98700E+00  8.18133E+00
#           8.38038E+00  8.58428E+00  8.79315E+00  9.00709E+00  9.22624E+00
#           9.45072E+00  9.68067E+00  9.91620E+00  1.01575E+01  1.04046E+01
#           1.06578E+01  1.09171E+01  1.11827E+01  1.14548E+01  1.17335E+01
#           1.20190E+01  1.23114E+01  1.26109E+01  1.29178E+01  1.32321E+01
#           1.35540E+01  1.38838E+01  1.42216E+01  1.45676E+01  1.49221E+01
#           1.52851E+01  1.56570E+01  1.60380E+01  1.64282E+01  1.68279E+01
#           1.72374E+01  1.76568E+01  1.80864E+01  1.85264E+01  1.89772E+01
#           1.94389E+01  1.99119E+01  2.03963E+01  2.08926E+01  2.14009E+01
#           2.19216E+01  2.24550E+01  2.30014E+01  2.35610E+01  2.41343E+01
#           2.47215E+01  2.53230E+01  2.59391E+01  2.65702E+01  2.72167E+01
#           2.78789E+01  2.85572E+01  2.92520E+01  2.99637E+01  3.06928E+01
#           3.14396E+01  3.22045E+01  3.29881E+01  3.37907E+01  3.46128E+01
#           3.54550E+01  3.63177E+01  3.72013E+01  3.81064E+01  3.90336E+01
#           3.99833E+01  4.09561E+01  4.19526E+01  4.29734E+01  4.40189E+01
#           4.50900E+01  4.61870E+01  4.73108E+01  4.84619E+01  4.96410E+01
#           5.08488E+01  5.20860E+01  5.33533E+01  5.46514E+01  5.59812E+01
#           5.73432E+01  5.87384E+01  6.01676E+01  6.16315E+01  6.31311E+01
#           6.46671E+01  6.62405E+01  6.78522E+01  6.95031E+01  7.11941E+01
#           7.29263E+01  7.47007E+01  7.65182E+01  7.83800E+01  8.02870E+01
#           8.22405E+01  8.42414E+01  8.62911E+01  8.83906E+01  9.05412E+01
#           9.27442E+01  9.50007E+01  9.73122E+01  9.96799E+01  1.02105E+02
#           1.04589E+02  1.07134E+02  1.09741E+02  1.12411E+02  1.15146E+02
#           1.17948E+02  1.20817E+02  1.23757E+02  1.26768E+02  1.29852E+02
#           1.33012E+02  1.36248E+02  1.39563E+02  1.42959E+02  1.46437E+02
#           1.50000E+02
     unit =    2            # unit is [1/cm^2/(MeV/n)/source]
     axis =  eng            # axis of output
     file = detector-14.out  # file name of output for the above axis
   output = f-curr          # surface crossing forward current spectrum
     part =  neutron  
# kf/name :  2112     
#    used :        main (  %)        temp (  %)       total (  %)
#  memory :         414 (  0)           0 (  0)         414 (  0)

#------------------------------------------------------------------------------
#newpage:
#   no. =    1   reg = 113 - 213

x: Energy [MeV/n]
y:  F-Curr [1/cm^2/(MeV/n)/source]         
p: xlog ylog afac(0.8) form(0.9)
h: n            x            y(neutron ),hh0l   n 
#  e-lower      e-upper      neutron     r.err 
   1.0000E-02   1.0243E-02   1.3974E-05  0.2425
   1.0243E-02   1.0493E-02   1.6050E-05  0.2236
   1.0493E-02   1.0748E-02   1.0968E-05  0.2673
   1.0748E-02   1.1009E-02   6.8833E-06  0.3333
   1.1009E-02   1.1277E-02   1.3440E-05  0.2357
   1.1277E-02   1.1552E-02   1.0205E-05  0.2673
   1.1552E-02   1.1833E-02   1.2097E-05  0.2425
   1.1833E-02   1.2121E-02   1.1115E-05  0.2500
   1.2121E-02   1.2415E-02   1.0851E-05  0.2500
   1.2415E-02   1.2718E-02   1.2580E-05  0.2294
   1.2718E-02   1.3027E-02   1.5513E-05  0.2041
   1.3027E-02   1.3344E-02   1.4513E-05  0.2085
   1.3344E-02   1.3669E-02   1.7864E-05  0.1857
   1.3669E-02   1.4001E-02   1.2028E-05  0.2236
   1.4001E-02   1.4342E-02   8.8065E-06  0.2582
   1.4342E-02   1.4691E-02   1.1463E-05  0.2236
   1.4691E-02   1.5048E-02   1.1750E-05  0.2182
   1.5048E-02   1.5414E-02   1.5295E-05  0.1890
   1.5414E-02   1.5789E-02   1.6531E-05  0.1796
   1.5789E-02   1.6174E-02   9.8915E-06  0.2294
   1.6174E-02   1.6567E-02   1.4231E-05  0.1890
   1.6567E-02   1.6970E-02   1.0916E-05  0.2132
   1.6970E-02   1.7383E-02   1.6469E-05  0.1715
   1.7383E-02   1.7806E-02   1.3713E-05  0.1857
   1.7806E-02   1.8239E-02   1.1541E-05  0.2000
   1.8239E-02   1.8683E-02   1.6675E-05  0.1644
   1.8683E-02   1.9138E-02   1.3199E-05  0.1826
   1.9138E-02   1.9603E-02   1.8470E-05  0.1525
   1.9603E-02   2.0080E-02   1.4257E-05  0.1715
   2.0080E-02   2.0569E-02   1.8831E-05  0.1474
   2.0569E-02   2.1069E-02   1.5586E-05  0.1601
   2.1069E-02   2.1582E-02   1.2485E-05  0.1768
   2.1582E-02   2.2107E-02   1.4854E-05  0.1601
   2.2107E-02   2.2645E-02   9.6676E-06  0.1961
   2.2645E-02   2.3196E-02   1.0527E-05  0.1857
   2.3196E-02   2.3760E-02   1.2403E-05  0.1690
   2.3760E-02   2.4338E-02   1.1417E-05  0.1741
   2.4338E-02   2.4930E-02   1.3510E-05  0.1581
   2.4930E-02   2.5537E-02   1.5497E-05  0.1459
   2.5537E-02   2.6158E-02   1.0300E-05  0.1768
   2.6158E-02   2.6795E-02   1.3512E-05  0.1525
   2.6795E-02   2.7447E-02   1.1658E-05  0.1622
   2.7447E-02   2.8114E-02   1.4376E-05  0.1443
   2.8114E-02   2.8799E-02   1.3449E-05  0.1474
   2.8799E-02   2.9499E-02   1.3130E-05  0.1474
   2.9499E-02   3.0217E-02   1.1146E-05  0.1581
   3.0217E-02   3.0952E-02   1.4146E-05  0.1387
   3.0952E-02   3.1705E-02   1.5403E-05  0.1313
   3.1705E-02   3.2477E-02   1.4260E-05  0.1348
   3.2477E-02   3.3267E-02   1.4680E-05  0.1313
   3.3267E-02   3.4076E-02   1.4084E-05  0.1325
   3.4076E-02   3.4905E-02   1.4473E-05  0.1291
   3.4905E-02   3.5755E-02   1.1775E-05  0.1414
   3.5755E-02   3.6625E-02   1.6093E-05  0.1195
   3.6625E-02   3.7516E-02   9.8754E-06  0.1508
   3.7516E-02   3.8428E-02   1.5338E-05  0.1195
   3.8428E-02   3.9363E-02   1.5187E-05  0.1187
   3.9363E-02   4.0321E-02   1.4409E-05  0.1204
   4.0321E-02   4.1302E-02   1.2843E-05  0.1260
   4.1302E-02   4.2307E-02   1.0946E-05  0.1348
   4.2307E-02   4.3337E-02   1.4572E-05  0.1155
   4.3337E-02   4.4391E-02   1.2709E-05  0.1222
   4.4391E-02   4.5471E-02   1.1110E-05  0.1291
   4.5471E-02   4.6577E-02   1.1750E-05  0.1240
   4.6577E-02   4.7711E-02   1.2001E-05  0.1213
   4.7711E-02   4.8871E-02   1.1543E-05  0.1222
   4.8871E-02   5.0061E-02   1.1269E-05  0.1222
   5.0061E-02   5.1279E-02   1.5107E-05  0.1043
   5.1279E-02   5.2526E-02   1.0901E-05  0.1213
   5.2526E-02   5.3804E-02   1.2989E-05  0.1098
   5.3804E-02   5.5113E-02   1.2069E-05  0.1125
   5.5113E-02   5.6454E-02   1.3125E-05  0.1066
   5.6454E-02   5.7828E-02   1.4124E-05  0.1015
   5.7828E-02   5.9235E-02   1.3788E-05  0.1015
   5.9235E-02   6.0676E-02   1.1240E-05  0.1111
   6.0676E-02   6.2152E-02   1.4089E-05  0.0981
   6.2152E-02   6.3665E-02   1.3358E-05  0.0995
   6.3665E-02   6.5214E-02   1.0071E-05  0.1132
   6.5214E-02   6.6800E-02   1.2605E-05  0.1000
   6.6800E-02   6.8426E-02   1.5013E-05  0.0905
   6.8426E-02   7.0090E-02   1.2253E-05  0.0990
   7.0090E-02   7.1796E-02   1.4911E-05  0.0886
   7.1796E-02   7.3543E-02   1.4197E-05  0.0898
   7.3543E-02   7.5332E-02   1.6207E-05  0.0830
   7.5332E-02   7.7165E-02   1.6804E-05  0.0806
   7.7165E-02   7.9042E-02   1.3848E-05  0.0877
   7.9042E-02   8.0965E-02   1.5718E-05  0.0813
   8.0965E-02   8.2935E-02   1.5432E-05  0.0811
   8.2935E-02   8.4953E-02   1.4173E-05  0.0836
   8.4953E-02   8.7020E-02   1.3063E-05  0.0861
   8.7020E-02   8.9138E-02   1.4264E-05  0.0814
   8.9138E-02   9.1306E-02   1.3740E-05  0.0819
   9.1306E-02   9.3528E-02   1.4764E-05  0.0781
   9.3528E-02   9.5804E-02   1.2129E-05  0.0851
   9.5804E-02   9.8134E-02   1.2870E-05  0.0816
   9.8134E-02   1.0052E-01   1.5412E-05  0.0737
   1.0052E-01   1.0297E-01   1.4065E-05  0.0762
   1.0297E-01   1.0547E-01   1.4609E-05  0.0739
   1.0547E-01   1.0804E-01   1.4340E-05  0.0737
   1.0804E-01   1.1067E-01   1.3695E-05  0.0745
   1.1067E-01   1.1336E-01   1.6118E-05  0.0679
   1.1336E-01   1.1612E-01   1.5373E-05  0.0687
   1.1612E-01   1.1894E-01   1.5645E-05  0.0673
   1.1894E-01   1.2184E-01   1.5757E-05  0.0662
   1.2184E-01   1.2480E-01   1.3898E-05  0.0697
   1.2480E-01   1.2784E-01   1.4424E-05  0.0676
   1.2784E-01   1.3095E-01   1.5432E-05  0.0645
   1.3095E-01   1.3414E-01   1.3057E-05  0.0693
   1.3414E-01   1.3740E-01   1.5014E-05  0.0639
   1.3740E-01   1.4074E-01   1.2623E-05  0.0688
   1.4074E-01   1.4417E-01   1.6003E-05  0.0604
   1.4417E-01   1.4767E-01   1.4939E-05  0.0618
   1.4767E-01   1.5127E-01   1.5920E-05  0.0591
   1.5127E-01   1.5495E-01   1.7770E-05  0.0553
   1.5495E-01   1.5872E-01   1.5544E-05  0.0584
   1.5872E-01   1.6258E-01   1.5641E-05  0.0575
   1.6258E-01   1.6654E-01   1.6381E-05  0.0556
   1.6654E-01   1.7059E-01   1.6190E-05  0.0552
   1.7059E-01   1.7474E-01   1.5516E-05  0.0557
   1.7474E-01   1.7899E-01   1.4771E-05  0.0564
   1.7899E-01   1.8334E-01   1.6533E-05  0.0527
   1.8334E-01   1.8781E-01   1.5557E-05  0.0537
   1.8781E-01   1.9237E-01   1.4969E-05  0.0541
   1.9237E-01   1.9706E-01   1.6750E-05  0.0505
   1.9706E-01   2.0185E-01   1.6769E-05  0.0499
   2.0185E-01   2.0676E-01   1.6665E-05  0.0494
   2.0676E-01   2.1179E-01   1.5425E-05  0.0508
   2.1179E-01   2.1694E-01   1.6650E-05  0.0483
   2.1694E-01   2.2222E-01   1.7050E-05  0.0471
   2.2222E-01   2.2763E-01   1.6313E-05  0.0476
   2.2763E-01   2.3317E-01   1.6720E-05  0.0465
   2.3317E-01   2.3884E-01   1.6574E-05  0.0461
   2.3884E-01   2.4465E-01   1.7208E-05  0.0447
   2.4465E-01   2.5061E-01   1.8479E-05  0.0426
   2.5061E-01   2.5670E-01   1.6801E-05  0.0442
   2.5670E-01   2.6295E-01   1.6875E-05  0.0436
   2.6295E-01   2.6935E-01   1.7819E-05  0.0419
   2.6935E-01   2.7590E-01   1.6647E-05  0.0428
   2.7590E-01   2.8261E-01   1.7668E-05  0.0411
   2.8261E-01   2.8949E-01   1.7335E-05  0.0410
   2.8949E-01   2.9653E-01   1.6923E-05  0.0410
   2.9653E-01   3.0375E-01   1.8434E-05  0.0388
   3.0375E-01   3.1114E-01   1.7536E-05  0.0393
   3.1114E-01   3.1871E-01   1.7569E-05  0.0388
   3.1871E-01   3.2646E-01   1.7822E-05  0.0380
   3.2646E-01   3.3441E-01   1.8384E-05  0.0370
   3.3441E-01   3.4254E-01   1.8141E-05  0.0368
   3.4254E-01   3.5088E-01   1.8046E-05  0.0365
   3.5088E-01   3.5941E-01   1.8277E-05  0.0358
   3.5941E-01   3.6816E-01   1.8525E-05  0.0351
   3.6816E-01   3.7712E-01   1.8407E-05  0.0348
   3.7712E-01   3.8629E-01   1.8658E-05  0.0342
   3.8629E-01   3.9569E-01   1.8981E-05  0.0335
   3.9569E-01   4.0532E-01   1.9424E-05  0.0327
   4.0532E-01   4.1518E-01   1.8114E-05  0.0335
   4.1518E-01   4.2528E-01   1.8559E-05  0.0327
   4.2528E-01   4.3563E-01   1.8401E-05  0.0324
   4.3563E-01   4.4623E-01   1.8964E-05  0.0315
   4.4623E-01   4.5708E-01   1.8919E-05  0.0312
   4.5708E-01   4.6821E-01   1.9980E-05  0.0300
   4.6821E-01   4.7960E-01   1.9435E-05  0.0301
   4.7960E-01   4.9127E-01   1.9470E-05  0.0297
   4.9127E-01   5.0322E-01   1.8908E-05  0.0297
   5.0322E-01   5.1546E-01   1.9096E-05  0.0292
   5.1546E-01   5.2800E-01   1.8867E-05  0.0291
   5.2800E-01   5.4085E-01   1.9211E-05  0.0285
   5.4085E-01   5.5401E-01   1.8648E-05  0.0285
   5.5401E-01   5.6749E-01   1.8472E-05  0.0283
   5.6749E-01   5.8130E-01   1.7961E-05  0.0284
   5.8130E-01   5.9544E-01   1.9500E-05  0.0269
   5.9544E-01   6.0993E-01   1.8940E-05  0.0270
   6.0993E-01   6.2477E-01   1.9245E-05  0.0265
   6.2477E-01   6.3997E-01   1.9670E-05  0.0259
   6.3997E-01   6.5554E-01   1.8547E-05  0.0263
   6.5554E-01   6.7149E-01   1.8696E-05  0.0259
   6.7149E-01   6.8783E-01   1.8289E-05  0.0259
   6.8783E-01   7.0456E-01   1.9037E-05  0.0251
   7.0456E-01   7.2171E-01   1.7619E-05  0.0257
   7.2171E-01   7.3927E-01   1.8326E-05  0.0249
   7.3927E-01   7.5725E-01   1.7980E-05  0.0249
   7.5725E-01   7.7568E-01   1.8130E-05  0.0245
   7.7568E-01   7.9455E-01   1.8068E-05  0.0242
   7.9455E-01   8.1388E-01   1.7029E-05  0.0246
   8.1388E-01   8.3368E-01   1.7321E-05  0.0241
   8.3368E-01   8.5397E-01   1.7304E-05  0.0239
   8.5397E-01   8.7475E-01   1.5982E-05  0.0245
   8.7475E-01   8.9603E-01   1.5648E-05  0.0245
   8.9603E-01   9.1783E-01   1.5583E-05  0.0243
   9.1783E-01   9.4016E-01   1.5916E-05  0.0237
   9.4016E-01   9.6304E-01   1.5021E-05  0.0241
   9.6304E-01   9.8647E-01   1.5023E-05  0.0238
   9.8647E-01   1.0105E+00   1.2985E-05  0.0253
   1.0105E+00   1.0351E+00   1.2804E-05  0.0252
   1.0351E+00   1.0602E+00   1.3421E-05  0.0243
   1.0602E+00   1.0860E+00   1.4017E-05  0.0235
   1.0860E+00   1.1125E+00   1.3332E-05  0.0238
   1.1125E+00   1.1395E+00   1.3720E-05  0.0232
   1.1395E+00   1.1673E+00   1.3810E-05  0.0229
   1.1673E+00   1.1957E+00   1.3967E-05  0.0225
   1.1957E+00   1.2247E+00   1.5115E-05  0.0213
   1.2247E+00   1.2545E+00   1.4559E-05  0.0215
   1.2545E+00   1.2851E+00   1.5150E-05  0.0208
   1.2851E+00   1.3163E+00   1.4898E-05  0.0207
   1.3163E+00   1.3484E+00   1.5296E-05  0.0202
   1.3484E+00   1.3812E+00   1.5142E-05  0.0201
   1.3812E+00   1.4148E+00   1.5351E-05  0.0197
   1.4148E+00   1.4492E+00   1.5995E-05  0.0191
   1.4492E+00   1.4845E+00   1.5127E-05  0.0194
   1.4845E+00   1.5206E+00   1.5600E-05  0.0188
   1.5206E+00   1.5576E+00   1.5555E-05  0.0186
   1.5576E+00   1.5955E+00   1.5649E-05  0.0184
   1.5955E+00   1.6343E+00   1.5897E-05  0.0180
   1.6343E+00   1.6741E+00   1.6261E-05  0.0176
   1.6741E+00   1.7148E+00   1.6585E-05  0.0172
   1.7148E+00   1.7565E+00   1.6623E-05  0.0170
   1.7565E+00   1.7992E+00   1.6807E-05  0.0167
   1.7992E+00   1.8430E+00   1.6794E-05  0.0165
   1.8430E+00   1.8879E+00   1.6974E-05  0.0162
   1.8879E+00   1.9338E+00   1.6821E-05  0.0161
   1.9338E+00   1.9808E+00   1.7501E-05  0.0156
   1.9808E+00   2.0290E+00   1.7420E-05  0.0154
   2.0290E+00   2.0784E+00   1.7413E-05  0.0153
   2.0784E+00   2.1290E+00   1.7646E-05  0.0150
   2.1290E+00   2.1808E+00   1.7670E-05  0.0148
   2.1808E+00   2.2338E+00   1.7340E-05  0.0147
   2.2338E+00   2.2882E+00   1.7868E-05  0.0143
   2.2882E+00   2.3439E+00   1.8291E-05  0.0140
   2.3439E+00   2.4009E+00   1.8223E-05  0.0139
   2.4009E+00   2.4593E+00   1.8751E-05  0.0135
   2.4593E+00   2.5191E+00   1.8860E-05  0.0133
   2.5191E+00   2.5804E+00   1.8873E-05  0.0131
   2.5804E+00   2.6432E+00   1.9180E-05  0.0129
   2.6432E+00   2.7075E+00   1.9200E-05  0.0127
   2.7075E+00   2.7734E+00   1.8866E-05  0.0127
   2.7734E+00   2.8409E+00   1.9515E-05  0.0123
   2.8409E+00   2.9100E+00   1.9585E-05  0.0121
   2.9100E+00   2.9808E+00   1.9802E-05  0.0119
   2.9808E+00   3.0533E+00   2.0028E-05  0.0117
   3.0533E+00   3.1276E+00   1.9686E-05  0.0117
   3.1276E+00   3.2037E+00   1.9857E-05  0.0115
   3.2037E+00   3.2817E+00   1.9958E-05  0.0113
   3.2817E+00   3.3615E+00   2.0435E-05  0.0111
   3.3615E+00   3.4433E+00   2.0482E-05  0.0109
   3.4433E+00   3.5271E+00   2.0638E-05  0.0107
   3.5271E+00   3.6129E+00   2.0627E-05  0.0106
   3.6129E+00   3.7008E+00   2.0380E-05  0.0105
   3.7008E+00   3.7908E+00   2.0789E-05  0.0103
   3.7908E+00   3.8831E+00   2.0379E-05  0.0103
   3.8831E+00   3.9776E+00   2.0552E-05  0.0101
   3.9776E+00   4.0743E+00   2.0808E-05  0.0099
   4.0743E+00   4.1735E+00   2.0200E-05  0.0100
   4.1735E+00   4.2750E+00   2.0140E-05  0.0099
   4.2750E+00   4.3790E+00   1.9171E-05  0.0100
   4.3790E+00   4.4856E+00   1.9504E-05  0.0098
   4.4856E+00   4.5947E+00   1.9781E-05  0.0096
   4.5947E+00   4.7065E+00   1.9004E-05  0.0097
   4.7065E+00   4.8210E+00   1.9173E-05  0.0095
   4.8210E+00   4.9383E+00   1.8983E-05  0.0095
   4.9383E+00   5.0585E+00   1.8368E-05  0.0095
   5.0585E+00   5.1815E+00   1.7983E-05  0.0095
   5.1815E+00   5.3076E+00   1.7425E-05  0.0095
   5.3076E+00   5.4368E+00   1.6963E-05  0.0095
   5.4368E+00   5.5690E+00   1.6599E-05  0.0095
   5.5690E+00   5.7045E+00   1.6021E-05  0.0096
   5.7045E+00   5.8433E+00   1.6203E-05  0.0094
   5.8433E+00   5.9855E+00   1.5429E-05  0.0095
   5.9855E+00   6.1311E+00   1.4955E-05  0.0096
   6.1311E+00   6.2803E+00   1.4432E-05  0.0096
   6.2803E+00   6.4331E+00   1.4057E-05  0.0096
   6.4331E+00   6.5896E+00   1.3168E-05  0.0098
   6.5896E+00   6.7500E+00   1.3078E-05  0.0097
   6.7500E+00   6.9142E+00   1.2762E-05  0.0097
   6.9142E+00   7.0824E+00   1.2403E-05  0.0098
   7.0824E+00   7.2548E+00   1.1852E-05  0.0099
   7.2548E+00   7.4313E+00   1.1573E-05  0.0099
   7.4313E+00   7.6121E+00   1.0993E-05  0.0100
   7.6121E+00   7.7973E+00   1.0343E-05  0.0102
   7.7973E+00   7.9870E+00   9.9417E-06  0.0103
   7.9870E+00   8.1813E+00   9.6103E-06  0.0103
   8.1813E+00   8.3804E+00   9.2190E-06  0.0104
   8.3804E+00   8.5843E+00   8.7180E-06  0.0106
   8.5843E+00   8.7931E+00   8.3891E-06  0.0107
   8.7931E+00   9.0071E+00   7.9047E-06  0.0109
   9.0071E+00   9.2262E+00   7.6872E-06  0.0109
   9.2262E+00   9.4507E+00   7.3189E-06  0.0110
   9.4507E+00   9.6807E+00   7.0091E-06  0.0111
   9.6807E+00   9.9162E+00   6.7383E-06  0.0112
   9.9162E+00   1.0157E+01   6.4316E-06  0.0113
   1.0157E+01   1.0405E+01   6.1996E-06  0.0114
   1.0405E+01   1.0658E+01   5.8312E-06  0.0116
   1.0658E+01   1.0917E+01   5.6865E-06  0.0116
   1.0917E+01   1.1183E+01   5.4254E-06  0.0118
   1.1183E+01   1.1455E+01   5.2166E-06  0.0119
   1.1455E+01   1.1733E+01   4.9566E-06  0.0120
   1.1733E+01   1.2019E+01   4.7172E-06  0.0122
   1.2019E+01   1.2311E+01   4.5077E-06  0.0123
   1.2311E+01   1.2611E+01   4.5027E-06  0.0122
   1.2611E+01   1.2918E+01   4.1217E-06  0.0126
   1.2918E+01   1.3232E+01   4.0455E-06  0.0125
   1.3232E+01   1.3554E+01   3.9526E-06  0.0125
   1.3554E+01   1.3884E+01   3.6962E-06  0.0128
   1.3884E+01   1.4222E+01   3.5087E-06  0.0130
   1.4222E+01   1.4568E+01   3.4519E-06  0.0129
   1.4568E+01   1.4922E+01   3.2393E-06  0.0132
   1.4922E+01   1.5285E+01   3.1050E-06  0.0133
   1.5285E+01   1.5657E+01   2.9499E-06  0.0135
   1.5657E+01   1.6038E+01   2.7372E-06  0.0138
   1.6038E+01   1.6428E+01   2.6896E-06  0.0138
   1.6428E+01   1.6828E+01   2.5693E-06  0.0139
   1.6828E+01   1.7237E+01   2.4012E-06  0.0143
   1.7237E+01   1.7657E+01   2.1871E-06  0.0148
   1.7657E+01   1.8086E+01   2.0394E-06  0.0151
   1.8086E+01   1.8526E+01   1.9224E-06  0.0154
   1.8526E+01   1.8977E+01   1.7889E-06  0.0157
   1.8977E+01   1.9439E+01   1.6646E-06  0.0161
   1.9439E+01   1.9912E+01   1.5764E-06  0.0164
   1.9912E+01   2.0396E+01   1.4519E-06  0.0169
   2.0396E+01   2.0893E+01   1.3892E-06  0.0170
   2.0893E+01   2.1401E+01   1.2319E-06  0.0179
   2.1401E+01   2.1922E+01   1.0997E-06  0.0187
   2.1922E+01   2.2455E+01   9.8281E-07  0.0195
   2.2455E+01   2.3001E+01   8.9284E-07  0.0202
   2.3001E+01   2.3561E+01   8.0266E-07  0.0211
   2.3561E+01   2.4134E+01   6.9393E-07  0.0224
   2.4134E+01   2.4721E+01   5.9298E-07  0.0240
   2.4721E+01   2.5323E+01   5.0807E-07  0.0256
   2.5323E+01   2.5939E+01   4.3465E-07  0.0273
   2.5939E+01   2.6570E+01   3.7299E-07  0.0291
   2.6570E+01   2.7217E+01   2.9421E-07  0.0324
   2.7217E+01   2.7879E+01   2.4343E-07  0.0352
   2.7879E+01   2.8557E+01   1.8782E-07  0.0396
   2.8557E+01   2.9252E+01   1.5428E-07  0.0432
   2.9252E+01   2.9964E+01   1.0201E-07  0.0525
   2.9964E+01   3.0693E+01   8.3123E-08  0.0574
   3.0693E+01   3.1440E+01   5.3296E-08  0.0709
   3.1440E+01   3.2205E+01   2.3008E-08  0.1066
   3.2205E+01   3.2988E+01   1.6080E-08  0.1260
   3.2988E+01   3.3791E+01   5.2328E-09  0.2182
   3.3791E+01   3.4613E+01   0.0000E+00  0.0000
   3.4613E+01   3.5455E+01   0.0000E+00  0.0000
   3.5455E+01   3.6318E+01   0.0000E+00  0.0000
   3.6318E+01   3.7201E+01   0.0000E+00  0.0000
   3.7201E+01   3.8106E+01   0.0000E+00  0.0000
   3.8106E+01   3.9034E+01   0.0000E+00  0.0000
   3.9034E+01   3.9983E+01   0.0000E+00  0.0000
   3.9983E+01   4.0956E+01   0.0000E+00  0.0000
   4.0956E+01   4.1953E+01   0.0000E+00  0.0000
   4.1953E+01   4.2973E+01   0.0000E+00  0.0000
   4.2973E+01   4.4019E+01   0.0000E+00  0.0000
   4.4019E+01   4.5090E+01   0.0000E+00  0.0000
   4.5090E+01   4.6187E+01   0.0000E+00  0.0000
   4.6187E+01   4.7311E+01   0.0000E+00  0.0000
   4.7311E+01   4.8462E+01   0.0000E+00  0.0000
   4.8462E+01   4.9641E+01   0.0000E+00  0.0000
   4.9641E+01   5.0849E+01   0.0000E+00  0.0000
   5.0849E+01   5.2086E+01   0.0000E+00  0.0000
   5.2086E+01   5.3353E+01   0.0000E+00  0.0000
   5.3353E+01   5.4651E+01   0.0000E+00  0.0000
   5.4651E+01   5.5981E+01   0.0000E+00  0.0000
   5.5981E+01   5.7343E+01   0.0000E+00  0.0000
   5.7343E+01   5.8738E+01   0.0000E+00  0.0000
   5.8738E+01   6.0168E+01   0.0000E+00  0.0000
   6.0168E+01   6.1632E+01   0.0000E+00  0.0000
   6.1632E+01   6.3131E+01   0.0000E+00  0.0000
   6.3131E+01   6.4667E+01   0.0000E+00  0.0000
   6.4667E+01   6.6240E+01   0.0000E+00  0.0000
   6.6240E+01   6.7852E+01   0.0000E+00  0.0000
   6.7852E+01   6.9503E+01   0.0000E+00  0.0000
   6.9503E+01   7.1194E+01   0.0000E+00  0.0000
   7.1194E+01   7.2926E+01   0.0000E+00  0.0000
   7.2926E+01   7.4701E+01   0.0000E+00  0.0000
   7.4701E+01   7.6518E+01   0.0000E+00  0.0000
   7.6518E+01   7.8380E+01   0.0000E+00  0.0000
   7.8380E+01   8.0287E+01   0.0000E+00  0.0000
   8.0287E+01   8.2240E+01   0.0000E+00  0.0000
   8.2240E+01   8.4241E+01   0.0000E+00  0.0000
   8.4241E+01   8.6291E+01   0.0000E+00  0.0000
   8.6291E+01   8.8391E+01   0.0000E+00  0.0000
   8.8391E+01   9.0541E+01   0.0000E+00  0.0000
   9.0541E+01   9.2744E+01   0.0000E+00  0.0000
   9.2744E+01   9.5001E+01   0.0000E+00  0.0000
   9.5001E+01   9.7312E+01   0.0000E+00  0.0000
   9.7312E+01   9.9680E+01   0.0000E+00  0.0000
   9.9680E+01   1.0211E+02   0.0000E+00  0.0000
   1.0211E+02   1.0459E+02   0.0000E+00  0.0000
   1.0459E+02   1.0713E+02   0.0000E+00  0.0000
   1.0713E+02   1.0974E+02   0.0000E+00  0.0000
   1.0974E+02   1.1241E+02   0.0000E+00  0.0000
   1.1241E+02   1.1515E+02   0.0000E+00  0.0000
   1.1515E+02   1.1795E+02   0.0000E+00  0.0000
   1.1795E+02   1.2082E+02   0.0000E+00  0.0000
   1.2082E+02   1.2376E+02   0.0000E+00  0.0000
   1.2376E+02   1.2677E+02   0.0000E+00  0.0000
   1.2677E+02   1.2985E+02   0.0000E+00  0.0000
   1.2985E+02   1.3301E+02   0.0000E+00  0.0000
   1.3301E+02   1.3625E+02   0.0000E+00  0.0000
   1.3625E+02   1.3956E+02   0.0000E+00  0.0000
   1.3956E+02   1.4296E+02   0.0000E+00  0.0000
   1.4296E+02   1.4644E+02   0.0000E+00  0.0000
   1.4644E+02   1.5000E+02   0.0000E+00  0.0000

#   sum over                 1.2543E-06
'no. =    1   reg = 113 - 213'
msuc: {\huge [t-cross] in region mesh}
msdr: {\it plotted by \ANGEL \version}
msdl: {\it calculated by \PHITS  3.26}
wt: s(0.7)
\vspace{-3}
  region surface crossing
  area  &=&   1.0000E+00 [cm^2]
e:
 
# Information for Restart Calculation
# This calculation was newly started
# istdev =  2 # 1:Batch variance, 2:History variance
# resc2  = 5.00000000000000000E+09 # Total source weight or Total source weight / maxcas
# resc3  = 5.00000000000000000E+09 # Total history number or Total batch number
# maxcas =   100000000 # History / Batch, only used for istdev=1
# bitrseed = 0110100000100010111000001110001111001110100100011111101000111001 # bit data of rseed
