[ T-Cross ]
    title = [t-cross] in region mesh
     mesh =  reg            # mesh type is region-wise
      reg =    1            # number of crossing regions
      non     r-from    r-to       area
      1       119       219        1.000000    
   e-type =    3            # e-mesh is log given by emin, emax and ne
     emin =  1.0000000E-02  # minimum value of e-mesh points
     emax =   150.0000      # maximum value of e-mesh points
#    edel =  2.4039514E-02  # mesh width of e-mesh points
       ne =    400          # number of e-mesh points
#    data = ( e(i), i = 1, ne + 1 )
#           1.00000E-02  1.02433E-02  1.04925E-02  1.07478E-02  1.10093E-02
#           1.12772E-02  1.15516E-02  1.18326E-02  1.21205E-02  1.24154E-02
#           1.27175E-02  1.30269E-02  1.33439E-02  1.36686E-02  1.40011E-02
#           1.43418E-02  1.46907E-02  1.50482E-02  1.54143E-02  1.57894E-02
#           1.61735E-02  1.65670E-02  1.69701E-02  1.73830E-02  1.78060E-02
#           1.82392E-02  1.86830E-02  1.91375E-02  1.96032E-02  2.00801E-02
#           2.05687E-02  2.10692E-02  2.15818E-02  2.21069E-02  2.26448E-02
#           2.31957E-02  2.37601E-02  2.43382E-02  2.49304E-02  2.55369E-02
#           2.61583E-02  2.67947E-02  2.74467E-02  2.81145E-02  2.87985E-02
#           2.94992E-02  3.02169E-02  3.09521E-02  3.17052E-02  3.24766E-02
#           3.32668E-02  3.40762E-02  3.49053E-02  3.57546E-02  3.66246E-02
#           3.75157E-02  3.84284E-02  3.93634E-02  4.03212E-02  4.13022E-02
#           4.23071E-02  4.33365E-02  4.43909E-02  4.54710E-02  4.65773E-02
#           4.77106E-02  4.88714E-02  5.00605E-02  5.12785E-02  5.25262E-02
#           5.38042E-02  5.51133E-02  5.64542E-02  5.78278E-02  5.92348E-02
#           6.06760E-02  6.21523E-02  6.36645E-02  6.52135E-02  6.68002E-02
#           6.84255E-02  7.00904E-02  7.17957E-02  7.35426E-02  7.53319E-02
#           7.71648E-02  7.90423E-02  8.09655E-02  8.29354E-02  8.49533E-02
#           8.70203E-02  8.91376E-02  9.13064E-02  9.35279E-02  9.58035E-02
#           9.81345E-02  1.00522E-01  1.02968E-01  1.05473E-01  1.08040E-01
#           1.10668E-01  1.13361E-01  1.16119E-01  1.18944E-01  1.21838E-01
#           1.24803E-01  1.27839E-01  1.30950E-01  1.34136E-01  1.37399E-01
#           1.40742E-01  1.44167E-01  1.47675E-01  1.51268E-01  1.54948E-01
#           1.58718E-01  1.62580E-01  1.66535E-01  1.70587E-01  1.74738E-01
#           1.78989E-01  1.83344E-01  1.87805E-01  1.92375E-01  1.97055E-01
#           2.01850E-01  2.06761E-01  2.11792E-01  2.16945E-01  2.22223E-01
#           2.27630E-01  2.33169E-01  2.38842E-01  2.44653E-01  2.50605E-01
#           2.56703E-01  2.62949E-01  2.69346E-01  2.75900E-01  2.82613E-01
#           2.89489E-01  2.96532E-01  3.03747E-01  3.11138E-01  3.18708E-01
#           3.26462E-01  3.34405E-01  3.42542E-01  3.50876E-01  3.59413E-01
#           3.68158E-01  3.77116E-01  3.86291E-01  3.95690E-01  4.05317E-01
#           4.15179E-01  4.25281E-01  4.35628E-01  4.46227E-01  4.57084E-01
#           4.68205E-01  4.79597E-01  4.91266E-01  5.03219E-01  5.15463E-01
#           5.28005E-01  5.40851E-01  5.54011E-01  5.67490E-01  5.81298E-01
#           5.95441E-01  6.09929E-01  6.24769E-01  6.39970E-01  6.55541E-01
#           6.71491E-01  6.87828E-01  7.04564E-01  7.21706E-01  7.39266E-01
#           7.57253E-01  7.75678E-01  7.94551E-01  8.13883E-01  8.33685E-01
#           8.53969E-01  8.74747E-01  8.96030E-01  9.17831E-01  9.40163E-01
#           9.63038E-01  9.86469E-01  1.01047E+00  1.03506E+00  1.06024E+00
#           1.08604E+00  1.11246E+00  1.13953E+00  1.16725E+00  1.19565E+00
#           1.22474E+00  1.25454E+00  1.28507E+00  1.31633E+00  1.34836E+00
#           1.38117E+00  1.41477E+00  1.44920E+00  1.48446E+00  1.52057E+00
#           1.55757E+00  1.59547E+00  1.63429E+00  1.67405E+00  1.71478E+00
#           1.75650E+00  1.79924E+00  1.84302E+00  1.88786E+00  1.93379E+00
#           1.98084E+00  2.02904E+00  2.07841E+00  2.12898E+00  2.18078E+00
#           2.23384E+00  2.28819E+00  2.34386E+00  2.40089E+00  2.45930E+00
#           2.51914E+00  2.58043E+00  2.64322E+00  2.70753E+00  2.77341E+00
#           2.84088E+00  2.91001E+00  2.98081E+00  3.05333E+00  3.12762E+00
#           3.20372E+00  3.28167E+00  3.36152E+00  3.44330E+00  3.52708E+00
#           3.61290E+00  3.70080E+00  3.79085E+00  3.88308E+00  3.97756E+00
#           4.07434E+00  4.17347E+00  4.27501E+00  4.37903E+00  4.48557E+00
#           4.59471E+00  4.70650E+00  4.82102E+00  4.93832E+00  5.05847E+00
#           5.18155E+00  5.30762E+00  5.43676E+00  5.56904E+00  5.70453E+00
#           5.84333E+00  5.98550E+00  6.13114E+00  6.28031E+00  6.43312E+00
#           6.58964E+00  6.74997E+00  6.91420E+00  7.08243E+00  7.25475E+00
#           7.43126E+00  7.61207E+00  7.79728E+00  7.98700E+00  8.18133E+00
#           8.38038E+00  8.58428E+00  8.79315E+00  9.00709E+00  9.22624E+00
#           9.45072E+00  9.68067E+00  9.91620E+00  1.01575E+01  1.04046E+01
#           1.06578E+01  1.09171E+01  1.11827E+01  1.14548E+01  1.17335E+01
#           1.20190E+01  1.23114E+01  1.26109E+01  1.29178E+01  1.32321E+01
#           1.35540E+01  1.38838E+01  1.42216E+01  1.45676E+01  1.49221E+01
#           1.52851E+01  1.56570E+01  1.60380E+01  1.64282E+01  1.68279E+01
#           1.72374E+01  1.76568E+01  1.80864E+01  1.85264E+01  1.89772E+01
#           1.94389E+01  1.99119E+01  2.03963E+01  2.08926E+01  2.14009E+01
#           2.19216E+01  2.24550E+01  2.30014E+01  2.35610E+01  2.41343E+01
#           2.47215E+01  2.53230E+01  2.59391E+01  2.65702E+01  2.72167E+01
#           2.78789E+01  2.85572E+01  2.92520E+01  2.99637E+01  3.06928E+01
#           3.14396E+01  3.22045E+01  3.29881E+01  3.37907E+01  3.46128E+01
#           3.54550E+01  3.63177E+01  3.72013E+01  3.81064E+01  3.90336E+01
#           3.99833E+01  4.09561E+01  4.19526E+01  4.29734E+01  4.40189E+01
#           4.50900E+01  4.61870E+01  4.73108E+01  4.84619E+01  4.96410E+01
#           5.08488E+01  5.20860E+01  5.33533E+01  5.46514E+01  5.59812E+01
#           5.73432E+01  5.87384E+01  6.01676E+01  6.16315E+01  6.31311E+01
#           6.46671E+01  6.62405E+01  6.78522E+01  6.95031E+01  7.11941E+01
#           7.29263E+01  7.47007E+01  7.65182E+01  7.83800E+01  8.02870E+01
#           8.22405E+01  8.42414E+01  8.62911E+01  8.83906E+01  9.05412E+01
#           9.27442E+01  9.50007E+01  9.73122E+01  9.96799E+01  1.02105E+02
#           1.04589E+02  1.07134E+02  1.09741E+02  1.12411E+02  1.15146E+02
#           1.17948E+02  1.20817E+02  1.23757E+02  1.26768E+02  1.29852E+02
#           1.33012E+02  1.36248E+02  1.39563E+02  1.42959E+02  1.46437E+02
#           1.50000E+02
     unit =    2            # unit is [1/cm^2/(MeV/n)/source]
     axis =  eng            # axis of output
     file = detector-20.out  # file name of output for the above axis
   output = f-curr          # surface crossing forward current spectrum
     part =  neutron  
# kf/name :  2112     
#    used :        main (  %)        temp (  %)       total (  %)
#  memory :         414 (  0)           0 (  0)         414 (  0)

#------------------------------------------------------------------------------
#newpage:
#   no. =    1   reg = 119 - 219

x: Energy [MeV/n]
y:  F-Curr [1/cm^2/(MeV/n)/source]         
p: xlog ylog afac(0.8) form(0.9)
h: n            x            y(neutron ),hh0l   n 
#  e-lower      e-upper      neutron     r.err 
   1.0000E-02   1.0243E-02   3.0114E-03  0.0521
   1.0243E-02   1.0493E-02   2.8276E-03  0.0532
   1.0493E-02   1.0748E-02   2.6999E-03  0.0536
   1.0748E-02   1.1009E-02   2.6835E-03  0.0532
   1.1009E-02   1.1277E-02   2.4902E-03  0.0546
   1.1277E-02   1.1552E-02   2.4254E-03  0.0547
   1.1552E-02   1.1833E-02   2.3324E-03  0.0550
   1.1833E-02   1.2121E-02   2.3040E-03  0.0548
   1.2121E-02   1.2415E-02   2.4656E-03  0.0524
   1.2415E-02   1.2718E-02   2.1478E-03  0.0553
   1.2718E-02   1.3027E-02   2.0336E-03  0.0561
   1.3027E-02   1.3344E-02   2.0837E-03  0.0549
   1.3344E-02   1.3669E-02   2.0470E-03  0.0547
   1.3669E-02   1.4001E-02   2.0291E-03  0.0543
   1.4001E-02   1.4342E-02   2.1160E-03  0.0526
   1.4342E-02   1.4691E-02   2.1748E-03  0.0512
   1.4691E-02   1.5048E-02   2.1629E-03  0.0508
   1.5048E-02   1.5414E-02   1.8974E-03  0.0535
   1.5414E-02   1.5789E-02   1.7310E-03  0.0554
   1.5789E-02   1.6174E-02   1.7369E-03  0.0546
   1.6174E-02   1.6567E-02   1.8074E-03  0.0529
   1.6567E-02   1.6970E-02   1.7299E-03  0.0534
   1.6970E-02   1.7383E-02   1.7571E-03  0.0524
   1.7383E-02   1.7806E-02   1.6468E-03  0.0535
   1.7806E-02   1.8239E-02   1.7530E-03  0.0512
   1.8239E-02   1.8683E-02   1.5825E-03  0.0532
   1.8683E-02   1.9138E-02   1.5676E-03  0.0528
   1.9138E-02   1.9603E-02   1.5651E-03  0.0523
   1.9603E-02   2.0080E-02   1.6506E-03  0.0503
   2.0080E-02   2.0569E-02   1.5001E-03  0.0520
   2.0569E-02   2.1069E-02   1.4275E-03  0.0528
   2.1069E-02   2.1582E-02   1.4427E-03  0.0519
   2.1582E-02   2.2107E-02   1.5028E-03  0.0503
   2.2107E-02   2.2645E-02   1.3054E-03  0.0531
   2.2645E-02   2.3196E-02   1.2230E-03  0.0544
   2.3196E-02   2.3760E-02   1.2981E-03  0.0521
   2.3760E-02   2.4338E-02   1.3557E-03  0.0504
   2.4338E-02   2.4930E-02   1.2658E-03  0.0515
   2.4930E-02   2.5537E-02   1.2822E-03  0.0506
   2.5537E-02   2.6158E-02   1.1730E-03  0.0522
   2.6158E-02   2.6795E-02   1.1593E-03  0.0519
   2.6795E-02   2.7447E-02   1.1136E-03  0.0524
   2.7447E-02   2.8114E-02   1.0130E-03  0.0544
   2.8114E-02   2.8799E-02   1.0872E-03  0.0518
   2.8799E-02   2.9499E-02   1.0290E-03  0.0524
   2.9499E-02   3.0217E-02   1.0873E-03  0.0505
   3.0217E-02   3.0952E-02   1.0274E-03  0.0513
   3.0952E-02   3.1705E-02   1.0220E-03  0.0509
   3.1705E-02   3.2477E-02   9.8823E-04  0.0511
   3.2477E-02   3.3267E-02   9.9471E-04  0.0503
   3.3267E-02   3.4076E-02   9.1474E-04  0.0518
   3.4076E-02   3.4905E-02   9.6585E-04  0.0499
   3.4905E-02   3.5755E-02   8.9566E-04  0.0512
   3.5755E-02   3.6625E-02   9.4030E-04  0.0493
   3.6625E-02   3.7516E-02   9.3784E-04  0.0488
   3.7516E-02   3.8428E-02   9.0750E-04  0.0490
   3.8428E-02   3.9363E-02   8.1937E-04  0.0509
   3.9363E-02   4.0321E-02   8.8295E-04  0.0485
   4.0321E-02   4.1302E-02   8.6025E-04  0.0486
   4.1302E-02   4.2307E-02   7.8052E-04  0.0504
   4.2307E-02   4.3337E-02   7.4553E-04  0.0509
   4.3337E-02   4.4391E-02   8.2030E-04  0.0480
   4.4391E-02   4.5471E-02   7.7890E-04  0.0487
   4.5471E-02   4.6577E-02   7.6283E-04  0.0486
   4.6577E-02   4.7711E-02   7.6520E-04  0.0480
   4.7711E-02   4.8871E-02   6.4574E-04  0.0515
   4.8871E-02   5.0061E-02   7.2690E-04  0.0480
   5.0061E-02   5.1279E-02   6.7539E-04  0.0492
   5.1279E-02   5.2526E-02   6.9239E-04  0.0480
   5.2526E-02   5.3804E-02   6.9745E-04  0.0473
   5.3804E-02   5.5113E-02   6.3023E-04  0.0491
   5.5113E-02   5.6454E-02   6.1124E-04  0.0493
   5.6454E-02   5.7828E-02   5.4688E-04  0.0515
   5.7828E-02   5.9235E-02   5.7696E-04  0.0494
   5.9235E-02   6.0676E-02   6.2267E-04  0.0471
   6.0676E-02   6.2152E-02   6.0700E-04  0.0471
   6.2152E-02   6.3665E-02   5.8322E-04  0.0475
   6.3665E-02   6.5214E-02   5.6700E-04  0.0476
   6.5214E-02   6.6800E-02   5.4395E-04  0.0480
   6.6800E-02   6.8426E-02   5.2224E-04  0.0484
   6.8426E-02   7.0090E-02   5.3378E-04  0.0474
   7.0090E-02   7.1796E-02   5.2859E-04  0.0470
   7.1796E-02   7.3543E-02   4.9256E-04  0.0481
   7.3543E-02   7.5332E-02   4.8382E-04  0.0479
   7.5332E-02   7.7165E-02   4.7787E-04  0.0477
   7.7165E-02   7.9042E-02   4.6029E-04  0.0480
   7.9042E-02   8.0965E-02   4.5449E-04  0.0477
   8.0965E-02   8.2935E-02   4.3695E-04  0.0481
   8.2935E-02   8.4953E-02   4.1238E-04  0.0489
   8.4953E-02   8.7020E-02   4.0185E-04  0.0489
   8.7020E-02   8.9138E-02   4.2555E-04  0.0470
   8.9138E-02   9.1306E-02   4.0008E-04  0.0479
   9.1306E-02   9.3528E-02   3.9172E-04  0.0478
   9.3528E-02   9.5804E-02   3.3737E-04  0.0509
   9.5804E-02   9.8134E-02   3.6288E-04  0.0485
   9.8134E-02   1.0052E-01   3.7559E-04  0.0471
   1.0052E-01   1.0297E-01   3.7868E-04  0.0464
   1.0297E-01   1.0547E-01   3.7494E-04  0.0460
   1.0547E-01   1.0804E-01   3.1782E-04  0.0494
   1.0804E-01   1.1067E-01   3.0367E-04  0.0499
   1.1067E-01   1.1336E-01   3.1671E-04  0.0483
   1.1336E-01   1.1612E-01   2.8563E-04  0.0503
   1.1612E-01   1.1894E-01   3.3048E-04  0.0462
   1.1894E-01   1.2184E-01   2.9285E-04  0.0484
   1.2184E-01   1.2480E-01   2.8095E-04  0.0489
   1.2480E-01   1.2784E-01   2.7162E-04  0.0491
   1.2784E-01   1.3095E-01   2.9576E-04  0.0465
   1.3095E-01   1.3414E-01   2.7668E-04  0.0475
   1.3414E-01   1.3740E-01   2.5699E-04  0.0487
   1.3740E-01   1.4074E-01   2.6586E-04  0.0473
   1.4074E-01   1.4417E-01   2.2663E-04  0.0506
   1.4417E-01   1.4767E-01   2.3651E-04  0.0489
   1.4767E-01   1.5127E-01   2.2070E-04  0.0501
   1.5127E-01   1.5495E-01   2.2793E-04  0.0487
   1.5495E-01   1.5872E-01   2.3669E-04  0.0472
   1.5872E-01   1.6258E-01   2.1943E-04  0.0484
   1.6258E-01   1.6654E-01   2.1519E-04  0.0484
   1.6654E-01   1.7059E-01   2.3998E-04  0.0452
   1.7059E-01   1.7474E-01   2.0551E-04  0.0483
   1.7474E-01   1.7899E-01   2.0583E-04  0.0477
   1.7899E-01   1.8334E-01   2.0520E-04  0.0472
   1.8334E-01   1.8781E-01   1.7790E-04  0.0501
   1.8781E-01   1.9237E-01   1.8519E-04  0.0485
   1.9237E-01   1.9706E-01   1.8541E-04  0.0479
   1.9706E-01   2.0185E-01   1.8505E-04  0.0473
   2.0185E-01   2.0676E-01   1.7405E-04  0.0482
   2.0676E-01   2.1179E-01   1.9075E-04  0.0455
   2.1179E-01   2.1694E-01   2.0550E-04  0.0434
   2.1694E-01   2.2222E-01   1.9362E-04  0.0441
   2.2222E-01   2.2763E-01   2.2073E-04  0.0409
   2.2763E-01   2.3317E-01   1.9989E-04  0.0423
   2.3317E-01   2.3884E-01   2.0501E-04  0.0413
   2.3884E-01   2.4465E-01   2.1613E-04  0.0398
   2.4465E-01   2.5061E-01   2.3405E-04  0.0378
   2.5061E-01   2.5670E-01   2.4868E-04  0.0362
   2.5670E-01   2.6295E-01   2.4480E-04  0.0360
   2.6295E-01   2.6935E-01   2.3963E-04  0.0360
   2.6935E-01   2.7590E-01   2.6375E-04  0.0339
   2.7590E-01   2.8261E-01   2.4392E-04  0.0348
   2.8261E-01   2.8949E-01   2.8297E-04  0.0320
   2.8949E-01   2.9653E-01   2.7475E-04  0.0321
   2.9653E-01   3.0375E-01   2.8989E-04  0.0308
   3.0375E-01   3.1114E-01   2.8061E-04  0.0310
   3.1114E-01   3.1871E-01   2.8653E-04  0.0303
   3.1871E-01   3.2646E-01   2.8642E-04  0.0299
   3.2646E-01   3.3441E-01   2.9866E-04  0.0289
   3.3441E-01   3.4254E-01   2.9839E-04  0.0286
   3.4254E-01   3.5088E-01   3.2561E-04  0.0270
   3.5088E-01   3.5941E-01   3.0403E-04  0.0277
   3.5941E-01   3.6816E-01   3.2734E-04  0.0263
   3.6816E-01   3.7712E-01   3.2097E-04  0.0263
   3.7712E-01   3.8629E-01   3.2335E-04  0.0259
   3.8629E-01   3.9569E-01   3.3488E-04  0.0251
   3.9569E-01   4.0532E-01   3.4085E-04  0.0246
   4.0532E-01   4.1518E-01   3.5000E-04  0.0240
   4.1518E-01   4.2528E-01   3.3800E-04  0.0241
   4.2528E-01   4.3563E-01   3.4935E-04  0.0234
   4.3563E-01   4.4623E-01   3.3957E-04  0.0235
   4.4623E-01   4.5708E-01   3.6190E-04  0.0225
   4.5708E-01   4.6821E-01   3.5672E-04  0.0224
   4.6821E-01   4.7960E-01   3.4979E-04  0.0223
   4.7960E-01   4.9127E-01   3.5558E-04  0.0219
   4.9127E-01   5.0322E-01   3.5233E-04  0.0217
   5.0322E-01   5.1546E-01   3.6071E-04  0.0212
   5.1546E-01   5.2800E-01   3.5372E-04  0.0211
   5.2800E-01   5.4085E-01   3.5832E-04  0.0208
   5.4085E-01   5.5401E-01   3.5054E-04  0.0207
   5.5401E-01   5.6749E-01   3.5108E-04  0.0205
   5.6749E-01   5.8130E-01   3.6825E-04  0.0197
   5.8130E-01   5.9544E-01   3.6531E-04  0.0196
   5.9544E-01   6.0993E-01   3.6437E-04  0.0194
   6.0993E-01   6.2477E-01   3.6008E-04  0.0193
   6.2477E-01   6.3997E-01   3.5079E-04  0.0193
   6.3997E-01   6.5554E-01   3.6441E-04  0.0187
   6.5554E-01   6.7149E-01   3.5556E-04  0.0187
   6.7149E-01   6.8783E-01   3.3906E-04  0.0189
   6.8783E-01   7.0456E-01   3.4716E-04  0.0185
   7.0456E-01   7.2171E-01   3.4436E-04  0.0183
   7.2171E-01   7.3927E-01   3.5097E-04  0.0179
   7.3927E-01   7.5725E-01   3.3640E-04  0.0181
   7.5725E-01   7.7568E-01   3.3277E-04  0.0180
   7.7568E-01   7.9455E-01   3.3564E-04  0.0177
   7.9455E-01   8.1388E-01   3.2296E-04  0.0178
   8.1388E-01   8.3368E-01   3.1742E-04  0.0178
   8.3368E-01   8.5397E-01   3.0529E-04  0.0179
   8.5397E-01   8.7475E-01   3.0976E-04  0.0175
   8.7475E-01   8.9603E-01   3.0987E-04  0.0173
   8.9603E-01   9.1783E-01   3.0296E-04  0.0173
   9.1783E-01   9.4016E-01   2.9585E-04  0.0173
   9.4016E-01   9.6304E-01   2.8847E-04  0.0173
   9.6304E-01   9.8647E-01   2.8135E-04  0.0173
   9.8647E-01   1.0105E+00   2.7759E-04  0.0172
   1.0105E+00   1.0351E+00   2.7652E-04  0.0171
   1.0351E+00   1.0602E+00   2.6511E-04  0.0172
   1.0602E+00   1.0860E+00   2.5578E-04  0.0173
   1.0860E+00   1.1125E+00   2.6416E-04  0.0168
   1.1125E+00   1.1395E+00   2.5377E-04  0.0170
   1.1395E+00   1.1673E+00   2.4962E-04  0.0169
   1.1673E+00   1.1957E+00   2.4125E-04  0.0170
   1.1957E+00   1.2247E+00   2.3821E-04  0.0169
   1.2247E+00   1.2545E+00   2.2491E-04  0.0172
   1.2545E+00   1.2851E+00   2.2935E-04  0.0168
   1.2851E+00   1.3163E+00   2.2039E-04  0.0169
   1.3163E+00   1.3484E+00   2.1689E-04  0.0169
   1.3484E+00   1.3812E+00   2.1112E-04  0.0169
   1.3812E+00   1.4148E+00   2.0637E-04  0.0169
   1.4148E+00   1.4492E+00   2.0246E-04  0.0168
   1.4492E+00   1.4845E+00   2.0191E-04  0.0167
   1.4845E+00   1.5206E+00   1.9632E-04  0.0167
   1.5206E+00   1.5576E+00   1.9284E-04  0.0166
   1.5576E+00   1.5955E+00   1.8039E-04  0.0170
   1.5955E+00   1.6343E+00   1.8280E-04  0.0167
   1.6343E+00   1.6741E+00   1.7399E-04  0.0169
   1.6741E+00   1.7148E+00   1.7645E-04  0.0166
   1.7148E+00   1.7565E+00   1.6637E-04  0.0169
   1.7565E+00   1.7992E+00   1.6529E-04  0.0167
   1.7992E+00   1.8430E+00   1.6032E-04  0.0168
   1.8430E+00   1.8879E+00   1.5620E-04  0.0168
   1.8879E+00   1.9338E+00   1.5008E-04  0.0169
   1.9338E+00   1.9808E+00   1.5160E-04  0.0166
   1.9808E+00   2.0290E+00   1.4463E-04  0.0168
   2.0290E+00   2.0784E+00   1.4020E-04  0.0169
   2.0784E+00   2.1290E+00   1.3875E-04  0.0168
   2.1290E+00   2.1808E+00   1.3140E-04  0.0170
   2.1808E+00   2.2338E+00   1.2615E-04  0.0172
   2.2338E+00   2.2882E+00   1.2719E-04  0.0169
   2.2882E+00   2.3439E+00   1.2501E-04  0.0168
   2.3439E+00   2.4009E+00   1.1815E-04  0.0171
   2.4009E+00   2.4593E+00   1.1313E-04  0.0173
   2.4593E+00   2.5191E+00   1.0824E-04  0.0175
   2.5191E+00   2.5804E+00   1.0617E-04  0.0174
   2.5804E+00   2.6432E+00   1.0185E-04  0.0175
   2.6432E+00   2.7075E+00   9.6866E-05  0.0178
   2.7075E+00   2.7734E+00   9.6758E-05  0.0176
   2.7734E+00   2.8409E+00   9.3938E-05  0.0176
   2.8409E+00   2.9100E+00   9.0131E-05  0.0178
   2.9100E+00   2.9808E+00   8.6993E-05  0.0179
   2.9808E+00   3.0533E+00   8.6188E-05  0.0177
   3.0533E+00   3.1276E+00   8.3125E-05  0.0179
   3.1276E+00   3.2037E+00   7.9429E-05  0.0181
   3.2037E+00   3.2817E+00   7.7144E-05  0.0181
   3.2817E+00   3.3615E+00   7.5246E-05  0.0181
   3.3615E+00   3.4433E+00   7.3517E-05  0.0181
   3.4433E+00   3.5271E+00   7.3584E-05  0.0179
   3.5271E+00   3.6129E+00   6.7835E-05  0.0184
   3.6129E+00   3.7008E+00   6.9364E-05  0.0180
   3.7008E+00   3.7908E+00   6.5866E-05  0.0182
   3.7908E+00   3.8831E+00   6.2205E-05  0.0185
   3.8831E+00   3.9776E+00   6.2913E-05  0.0182
   3.9776E+00   4.0743E+00   6.2139E-05  0.0181
   4.0743E+00   4.1735E+00   6.1256E-05  0.0180
   4.1735E+00   4.2750E+00   5.8660E-05  0.0182
   4.2750E+00   4.3790E+00   5.7961E-05  0.0181
   4.3790E+00   4.4856E+00   5.7377E-05  0.0180
   4.4856E+00   4.5947E+00   5.6442E-05  0.0179
   4.5947E+00   4.7065E+00   5.5163E-05  0.0179
   4.7065E+00   4.8210E+00   5.4966E-05  0.0177
   4.8210E+00   4.9383E+00   5.1159E-05  0.0181
   4.9383E+00   5.0585E+00   5.2013E-05  0.0178
   5.0585E+00   5.1815E+00   5.2833E-05  0.0174
   5.1815E+00   5.3076E+00   5.0321E-05  0.0177
   5.3076E+00   5.4368E+00   4.9207E-05  0.0177
   5.4368E+00   5.5690E+00   4.7764E-05  0.0177
   5.5690E+00   5.7045E+00   4.4424E-05  0.0181
   5.7045E+00   5.8433E+00   4.4092E-05  0.0180
   5.8433E+00   5.9855E+00   4.2601E-05  0.0181
   5.9855E+00   6.1311E+00   4.1568E-05  0.0181
   6.1311E+00   6.2803E+00   3.9805E-05  0.0183
   6.2803E+00   6.4331E+00   3.8608E-05  0.0183
   6.4331E+00   6.5896E+00   3.7778E-05  0.0183
   6.5896E+00   6.7500E+00   3.4858E-05  0.0188
   6.7500E+00   6.9142E+00   3.4312E-05  0.0188
   6.9142E+00   7.0824E+00   3.4229E-05  0.0186
   7.0824E+00   7.2548E+00   3.1720E-05  0.0191
   7.2548E+00   7.4313E+00   3.1199E-05  0.0190
   7.4313E+00   7.6121E+00   2.9972E-05  0.0192
   7.6121E+00   7.7973E+00   2.8552E-05  0.0194
   7.7973E+00   7.9870E+00   2.8498E-05  0.0192
   7.9870E+00   8.1813E+00   2.6148E-05  0.0198
   8.1813E+00   8.3804E+00   2.5238E-05  0.0199
   8.3804E+00   8.5843E+00   2.5877E-05  0.0194
   8.5843E+00   8.7931E+00   2.2989E-05  0.0204
   8.7931E+00   9.0071E+00   2.3355E-05  0.0200
   9.0071E+00   9.2262E+00   2.0978E-05  0.0208
   9.2262E+00   9.4507E+00   2.0803E-05  0.0207
   9.4507E+00   9.6807E+00   1.9944E-05  0.0209
   9.6807E+00   9.9162E+00   1.8508E-05  0.0214
   9.9162E+00   1.0157E+01   1.7293E-05  0.0219
   1.0157E+01   1.0405E+01   1.6808E-05  0.0219
   1.0405E+01   1.0658E+01   1.6245E-05  0.0220
   1.0658E+01   1.0917E+01   1.4560E-05  0.0230
   1.0917E+01   1.1183E+01   1.4520E-05  0.0228
   1.1183E+01   1.1455E+01   1.2891E-05  0.0239
   1.1455E+01   1.1733E+01   1.2730E-05  0.0237
   1.1733E+01   1.2019E+01   1.2042E-05  0.0241
   1.2019E+01   1.2311E+01   1.1286E-05  0.0246
   1.2311E+01   1.2611E+01   1.0722E-05  0.0249
   1.2611E+01   1.2918E+01   9.8382E-06  0.0257
   1.2918E+01   1.3232E+01   9.0365E-06  0.0265
   1.3232E+01   1.3554E+01   8.3960E-06  0.0272
   1.3554E+01   1.3884E+01   7.8768E-06  0.0277
   1.3884E+01   1.4222E+01   8.0256E-06  0.0272
   1.4222E+01   1.4568E+01   7.1961E-06  0.0283
   1.4568E+01   1.4922E+01   6.4624E-06  0.0295
   1.4922E+01   1.5285E+01   6.2964E-06  0.0296
   1.5285E+01   1.5657E+01   5.6736E-06  0.0308
   1.5657E+01   1.6038E+01   5.4076E-06  0.0312
   1.6038E+01   1.6428E+01   5.0433E-06  0.0319
   1.6428E+01   1.6828E+01   4.6434E-06  0.0328
   1.6828E+01   1.7237E+01   4.3523E-06  0.0335
   1.7237E+01   1.7657E+01   4.2025E-06  0.0337
   1.7657E+01   1.8086E+01   3.7802E-06  0.0351
   1.8086E+01   1.8526E+01   3.3132E-06  0.0370
   1.8526E+01   1.8977E+01   3.0171E-06  0.0383
   1.8977E+01   1.9439E+01   2.9238E-06  0.0385
   1.9439E+01   1.9912E+01   2.4230E-06  0.0418
   1.9912E+01   2.0396E+01   2.2664E-06  0.0427
   2.0396E+01   2.0893E+01   2.0634E-06  0.0442
   2.0893E+01   2.1401E+01   1.8964E-06  0.0455
   2.1401E+01   2.1922E+01   1.6017E-06  0.0490
   2.1922E+01   2.2455E+01   1.6499E-06  0.0477
   2.2455E+01   2.3001E+01   1.3728E-06  0.0516
   2.3001E+01   2.3561E+01   1.1079E-06  0.0568
   2.3561E+01   2.4134E+01   8.4430E-07  0.0643
   2.4134E+01   2.4721E+01   7.3228E-07  0.0682
   2.4721E+01   2.5323E+01   6.4839E-07  0.0716
   2.5323E+01   2.5939E+01   5.3885E-07  0.0776
   2.5939E+01   2.6570E+01   5.4190E-07  0.0765
   2.6570E+01   2.7217E+01   3.6506E-07  0.0921
   2.7217E+01   2.7879E+01   3.0202E-07  0.1000
   2.7879E+01   2.8557E+01   2.6536E-07  0.1054
   2.8557E+01   2.9252E+01   2.3891E-07  0.1098
   2.9252E+01   2.9964E+01   1.6579E-07  0.1302
   2.9964E+01   3.0693E+01   1.3991E-07  0.1400
   3.0693E+01   3.1440E+01   1.0980E-07  0.1562
   3.1440E+01   3.2205E+01   8.3666E-08  0.1768
   3.2205E+01   3.2988E+01   4.5944E-08  0.2357
   3.2988E+01   3.3791E+01   5.7312E-08  0.2085
   3.3791E+01   3.4613E+01   5.1085E-08  0.2182
   3.4613E+01   3.5455E+01   3.3248E-08  0.2673
   3.5455E+01   3.6318E+01   3.0140E-08  0.2774
   3.6318E+01   3.7201E+01   1.3580E-08  0.4082
   3.7201E+01   3.8106E+01   6.6288E-09  0.5774
   3.8106E+01   3.9034E+01   2.1571E-08  0.3162
   3.9034E+01   3.9983E+01   1.0529E-08  0.4472
   3.9983E+01   4.0956E+01   4.1117E-09  0.7071
   4.0956E+01   4.1953E+01   0.0000E+00  0.0000
   4.1953E+01   4.2973E+01   0.0000E+00  0.0000
   4.2973E+01   4.4019E+01   3.8256E-09  0.7071
   4.4019E+01   4.5090E+01   1.8674E-09  1.0000
   4.5090E+01   4.6187E+01   0.0000E+00  0.0000
   4.6187E+01   4.7311E+01   0.0000E+00  0.0000
   4.7311E+01   4.8462E+01   0.0000E+00  0.0000
   4.8462E+01   4.9641E+01   0.0000E+00  0.0000
   4.9641E+01   5.0849E+01   0.0000E+00  0.0000
   5.0849E+01   5.2086E+01   0.0000E+00  0.0000
   5.2086E+01   5.3353E+01   0.0000E+00  0.0000
   5.3353E+01   5.4651E+01   0.0000E+00  0.0000
   5.4651E+01   5.5981E+01   0.0000E+00  0.0000
   5.5981E+01   5.7343E+01   0.0000E+00  0.0000
   5.7343E+01   5.8738E+01   0.0000E+00  0.0000
   5.8738E+01   6.0168E+01   0.0000E+00  0.0000
   6.0168E+01   6.1632E+01   0.0000E+00  0.0000
   6.1632E+01   6.3131E+01   0.0000E+00  0.0000
   6.3131E+01   6.4667E+01   0.0000E+00  0.0000
   6.4667E+01   6.6240E+01   0.0000E+00  0.0000
   6.6240E+01   6.7852E+01   0.0000E+00  0.0000
   6.7852E+01   6.9503E+01   0.0000E+00  0.0000
   6.9503E+01   7.1194E+01   0.0000E+00  0.0000
   7.1194E+01   7.2926E+01   0.0000E+00  0.0000
   7.2926E+01   7.4701E+01   0.0000E+00  0.0000
   7.4701E+01   7.6518E+01   0.0000E+00  0.0000
   7.6518E+01   7.8380E+01   0.0000E+00  0.0000
   7.8380E+01   8.0287E+01   0.0000E+00  0.0000
   8.0287E+01   8.2240E+01   0.0000E+00  0.0000
   8.2240E+01   8.4241E+01   0.0000E+00  0.0000
   8.4241E+01   8.6291E+01   0.0000E+00  0.0000
   8.6291E+01   8.8391E+01   0.0000E+00  0.0000
   8.8391E+01   9.0541E+01   0.0000E+00  0.0000
   9.0541E+01   9.2744E+01   0.0000E+00  0.0000
   9.2744E+01   9.5001E+01   0.0000E+00  0.0000
   9.5001E+01   9.7312E+01   0.0000E+00  0.0000
   9.7312E+01   9.9680E+01   0.0000E+00  0.0000
   9.9680E+01   1.0211E+02   0.0000E+00  0.0000
   1.0211E+02   1.0459E+02   0.0000E+00  0.0000
   1.0459E+02   1.0713E+02   0.0000E+00  0.0000
   1.0713E+02   1.0974E+02   0.0000E+00  0.0000
   1.0974E+02   1.1241E+02   0.0000E+00  0.0000
   1.1241E+02   1.1515E+02   0.0000E+00  0.0000
   1.1515E+02   1.1795E+02   0.0000E+00  0.0000
   1.1795E+02   1.2082E+02   0.0000E+00  0.0000
   1.2082E+02   1.2376E+02   0.0000E+00  0.0000
   1.2376E+02   1.2677E+02   0.0000E+00  0.0000
   1.2677E+02   1.2985E+02   0.0000E+00  0.0000
   1.2985E+02   1.3301E+02   0.0000E+00  0.0000
   1.3301E+02   1.3625E+02   0.0000E+00  0.0000
   1.3625E+02   1.3956E+02   0.0000E+00  0.0000
   1.3956E+02   1.4296E+02   0.0000E+00  0.0000
   1.4296E+02   1.4644E+02   0.0000E+00  0.0000
   1.4644E+02   1.5000E+02   0.0000E+00  0.0000

#   sum over                 6.9173E-06
'no. =    1   reg = 119 - 219'
msuc: {\huge [t-cross] in region mesh}
msdr: {\it plotted by \ANGEL \version}
msdl: {\it calculated by \PHITS  3.26}
wt: s(0.7)
\vspace{-3}
  region surface crossing
  area  &=&   1.0000E+00 [cm^2]
e:
 
# Information for Restart Calculation
# This calculation was newly started
# istdev =  2 # 1:Batch variance, 2:History variance
# resc2  = 5.00000000000000000E+08 # Total source weight or Total source weight / maxcas
# resc3  = 5.00000000000000000E+08 # Total history number or Total batch number
# maxcas =   500000000 # History / Batch, only used for istdev=1
# bitrseed = 1101101111010011011000101101110001100110110010110001010100010001 # bit data of rseed
