[ T-Cross ]
    title = [t-cross] in region mesh
     mesh =  reg            # mesh type is region-wise
      reg =    1            # number of crossing regions
      non     r-from    r-to       area
      1       117       217        1.000000    
   e-type =    3            # e-mesh is log given by emin, emax and ne
     emin =  1.0000000E-02  # minimum value of e-mesh points
     emax =   150.0000      # maximum value of e-mesh points
#    edel =  2.4039514E-02  # mesh width of e-mesh points
       ne =    400          # number of e-mesh points
#    data = ( e(i), i = 1, ne + 1 )
#           1.00000E-02  1.02433E-02  1.04925E-02  1.07478E-02  1.10093E-02
#           1.12772E-02  1.15516E-02  1.18326E-02  1.21205E-02  1.24154E-02
#           1.27175E-02  1.30269E-02  1.33439E-02  1.36686E-02  1.40011E-02
#           1.43418E-02  1.46907E-02  1.50482E-02  1.54143E-02  1.57894E-02
#           1.61735E-02  1.65670E-02  1.69701E-02  1.73830E-02  1.78060E-02
#           1.82392E-02  1.86830E-02  1.91375E-02  1.96032E-02  2.00801E-02
#           2.05687E-02  2.10692E-02  2.15818E-02  2.21069E-02  2.26448E-02
#           2.31957E-02  2.37601E-02  2.43382E-02  2.49304E-02  2.55369E-02
#           2.61583E-02  2.67947E-02  2.74467E-02  2.81145E-02  2.87985E-02
#           2.94992E-02  3.02169E-02  3.09521E-02  3.17052E-02  3.24766E-02
#           3.32668E-02  3.40762E-02  3.49053E-02  3.57546E-02  3.66246E-02
#           3.75157E-02  3.84284E-02  3.93634E-02  4.03212E-02  4.13022E-02
#           4.23071E-02  4.33365E-02  4.43909E-02  4.54710E-02  4.65773E-02
#           4.77106E-02  4.88714E-02  5.00605E-02  5.12785E-02  5.25262E-02
#           5.38042E-02  5.51133E-02  5.64542E-02  5.78278E-02  5.92348E-02
#           6.06760E-02  6.21523E-02  6.36645E-02  6.52135E-02  6.68002E-02
#           6.84255E-02  7.00904E-02  7.17957E-02  7.35426E-02  7.53319E-02
#           7.71648E-02  7.90423E-02  8.09655E-02  8.29354E-02  8.49533E-02
#           8.70203E-02  8.91376E-02  9.13064E-02  9.35279E-02  9.58035E-02
#           9.81345E-02  1.00522E-01  1.02968E-01  1.05473E-01  1.08040E-01
#           1.10668E-01  1.13361E-01  1.16119E-01  1.18944E-01  1.21838E-01
#           1.24803E-01  1.27839E-01  1.30950E-01  1.34136E-01  1.37399E-01
#           1.40742E-01  1.44167E-01  1.47675E-01  1.51268E-01  1.54948E-01
#           1.58718E-01  1.62580E-01  1.66535E-01  1.70587E-01  1.74738E-01
#           1.78989E-01  1.83344E-01  1.87805E-01  1.92375E-01  1.97055E-01
#           2.01850E-01  2.06761E-01  2.11792E-01  2.16945E-01  2.22223E-01
#           2.27630E-01  2.33169E-01  2.38842E-01  2.44653E-01  2.50605E-01
#           2.56703E-01  2.62949E-01  2.69346E-01  2.75900E-01  2.82613E-01
#           2.89489E-01  2.96532E-01  3.03747E-01  3.11138E-01  3.18708E-01
#           3.26462E-01  3.34405E-01  3.42542E-01  3.50876E-01  3.59413E-01
#           3.68158E-01  3.77116E-01  3.86291E-01  3.95690E-01  4.05317E-01
#           4.15179E-01  4.25281E-01  4.35628E-01  4.46227E-01  4.57084E-01
#           4.68205E-01  4.79597E-01  4.91266E-01  5.03219E-01  5.15463E-01
#           5.28005E-01  5.40851E-01  5.54011E-01  5.67490E-01  5.81298E-01
#           5.95441E-01  6.09929E-01  6.24769E-01  6.39970E-01  6.55541E-01
#           6.71491E-01  6.87828E-01  7.04564E-01  7.21706E-01  7.39266E-01
#           7.57253E-01  7.75678E-01  7.94551E-01  8.13883E-01  8.33685E-01
#           8.53969E-01  8.74747E-01  8.96030E-01  9.17831E-01  9.40163E-01
#           9.63038E-01  9.86469E-01  1.01047E+00  1.03506E+00  1.06024E+00
#           1.08604E+00  1.11246E+00  1.13953E+00  1.16725E+00  1.19565E+00
#           1.22474E+00  1.25454E+00  1.28507E+00  1.31633E+00  1.34836E+00
#           1.38117E+00  1.41477E+00  1.44920E+00  1.48446E+00  1.52057E+00
#           1.55757E+00  1.59547E+00  1.63429E+00  1.67405E+00  1.71478E+00
#           1.75650E+00  1.79924E+00  1.84302E+00  1.88786E+00  1.93379E+00
#           1.98084E+00  2.02904E+00  2.07841E+00  2.12898E+00  2.18078E+00
#           2.23384E+00  2.28819E+00  2.34386E+00  2.40089E+00  2.45930E+00
#           2.51914E+00  2.58043E+00  2.64322E+00  2.70753E+00  2.77341E+00
#           2.84088E+00  2.91001E+00  2.98081E+00  3.05333E+00  3.12762E+00
#           3.20372E+00  3.28167E+00  3.36152E+00  3.44330E+00  3.52708E+00
#           3.61290E+00  3.70080E+00  3.79085E+00  3.88308E+00  3.97756E+00
#           4.07434E+00  4.17347E+00  4.27501E+00  4.37903E+00  4.48557E+00
#           4.59471E+00  4.70650E+00  4.82102E+00  4.93832E+00  5.05847E+00
#           5.18155E+00  5.30762E+00  5.43676E+00  5.56904E+00  5.70453E+00
#           5.84333E+00  5.98550E+00  6.13114E+00  6.28031E+00  6.43312E+00
#           6.58964E+00  6.74997E+00  6.91420E+00  7.08243E+00  7.25475E+00
#           7.43126E+00  7.61207E+00  7.79728E+00  7.98700E+00  8.18133E+00
#           8.38038E+00  8.58428E+00  8.79315E+00  9.00709E+00  9.22624E+00
#           9.45072E+00  9.68067E+00  9.91620E+00  1.01575E+01  1.04046E+01
#           1.06578E+01  1.09171E+01  1.11827E+01  1.14548E+01  1.17335E+01
#           1.20190E+01  1.23114E+01  1.26109E+01  1.29178E+01  1.32321E+01
#           1.35540E+01  1.38838E+01  1.42216E+01  1.45676E+01  1.49221E+01
#           1.52851E+01  1.56570E+01  1.60380E+01  1.64282E+01  1.68279E+01
#           1.72374E+01  1.76568E+01  1.80864E+01  1.85264E+01  1.89772E+01
#           1.94389E+01  1.99119E+01  2.03963E+01  2.08926E+01  2.14009E+01
#           2.19216E+01  2.24550E+01  2.30014E+01  2.35610E+01  2.41343E+01
#           2.47215E+01  2.53230E+01  2.59391E+01  2.65702E+01  2.72167E+01
#           2.78789E+01  2.85572E+01  2.92520E+01  2.99637E+01  3.06928E+01
#           3.14396E+01  3.22045E+01  3.29881E+01  3.37907E+01  3.46128E+01
#           3.54550E+01  3.63177E+01  3.72013E+01  3.81064E+01  3.90336E+01
#           3.99833E+01  4.09561E+01  4.19526E+01  4.29734E+01  4.40189E+01
#           4.50900E+01  4.61870E+01  4.73108E+01  4.84619E+01  4.96410E+01
#           5.08488E+01  5.20860E+01  5.33533E+01  5.46514E+01  5.59812E+01
#           5.73432E+01  5.87384E+01  6.01676E+01  6.16315E+01  6.31311E+01
#           6.46671E+01  6.62405E+01  6.78522E+01  6.95031E+01  7.11941E+01
#           7.29263E+01  7.47007E+01  7.65182E+01  7.83800E+01  8.02870E+01
#           8.22405E+01  8.42414E+01  8.62911E+01  8.83906E+01  9.05412E+01
#           9.27442E+01  9.50007E+01  9.73122E+01  9.96799E+01  1.02105E+02
#           1.04589E+02  1.07134E+02  1.09741E+02  1.12411E+02  1.15146E+02
#           1.17948E+02  1.20817E+02  1.23757E+02  1.26768E+02  1.29852E+02
#           1.33012E+02  1.36248E+02  1.39563E+02  1.42959E+02  1.46437E+02
#           1.50000E+02
     unit =    2            # unit is [1/cm^2/(MeV/n)/source]
     axis =  eng            # axis of output
     file = detector-18.out  # file name of output for the above axis
   output = f-curr          # surface crossing forward current spectrum
     part =  neutron  
# kf/name :  2112     
#    used :        main (  %)        temp (  %)       total (  %)
#  memory :         414 (  0)           0 (  0)         414 (  0)

#------------------------------------------------------------------------------
#newpage:
#   no. =    1   reg = 117 - 217

x: Energy [MeV/n]
y:  F-Curr [1/cm^2/(MeV/n)/source]         
p: xlog ylog afac(0.8) form(0.9)
h: n            x            y(neutron ),hh0l   n 
#  e-lower      e-upper      neutron     r.err 
   1.0000E-02   1.0243E-02   0.0000E+00  0.0000
   1.0243E-02   1.0493E-02   0.0000E+00  0.0000
   1.0493E-02   1.0748E-02   7.8342E-07  1.0000
   1.0748E-02   1.1009E-02   7.6481E-07  1.0000
   1.1009E-02   1.1277E-02   0.0000E+00  0.0000
   1.1277E-02   1.1552E-02   7.2891E-07  1.0000
   1.1552E-02   1.1833E-02   0.0000E+00  0.0000
   1.1833E-02   1.2121E-02   6.9469E-07  1.0000
   1.2121E-02   1.2415E-02   6.7819E-07  1.0000
   1.2415E-02   1.2718E-02   0.0000E+00  0.0000
   1.2718E-02   1.3027E-02   0.0000E+00  0.0000
   1.3027E-02   1.3344E-02   0.0000E+00  0.0000
   1.3344E-02   1.3669E-02   1.2320E-06  0.7071
   1.3669E-02   1.4001E-02   6.0138E-07  1.0000
   1.4001E-02   1.4342E-02   0.0000E+00  0.0000
   1.4342E-02   1.4691E-02   1.6811E-06  0.5353
   1.4691E-02   1.5048E-02   1.1191E-06  0.7071
   1.5048E-02   1.5414E-02   0.0000E+00  0.0000
   1.5414E-02   1.5789E-02   2.6664E-07  1.0000
   1.5789E-02   1.6174E-02   1.5618E-06  0.5774
   1.6174E-02   1.6567E-02   8.9439E-07  0.6523
   1.6567E-02   1.6970E-02   4.9617E-07  1.0000
   1.6970E-02   1.7383E-02   4.8438E-07  1.0000
   1.7383E-02   1.7806E-02   1.1822E-06  0.6000
   1.7806E-02   1.8239E-02   1.3849E-06  0.5774
   1.8239E-02   1.8683E-02   1.3520E-06  0.5774
   1.8683E-02   1.9138E-02   1.5813E-06  0.5095
   1.9138E-02   1.9603E-02   1.8787E-06  0.4652
   1.9603E-02   2.0080E-02   0.0000E+00  0.0000
   2.0080E-02   2.0569E-02   2.4562E-06  0.4082
   2.0569E-02   2.1069E-02   6.7636E-07  0.6703
   2.1069E-02   2.1582E-02   1.2363E-06  0.5492
   2.1582E-02   2.2107E-02   9.5993E-07  0.5979
   2.2107E-02   2.2645E-02   1.9161E-06  0.4105
   2.2645E-02   2.3196E-02   1.5034E-06  0.4496
   2.3196E-02   2.3760E-02   1.7639E-06  0.4472
   2.3760E-02   2.4338E-02   2.9407E-06  0.3379
   2.4338E-02   2.4930E-02   8.5026E-07  0.5805
   2.4930E-02   2.5537E-02   2.0208E-06  0.4002
   2.5537E-02   2.6158E-02   2.0971E-06  0.3755
   2.6158E-02   2.6795E-02   1.9293E-06  0.3925
   2.6795E-02   2.7447E-02   2.6334E-06  0.3364
   2.7447E-02   2.8114E-02   1.5580E-06  0.4316
   2.8114E-02   2.8799E-02   2.0466E-06  0.3780
   2.8799E-02   2.9499E-02   2.1956E-06  0.3509
   2.9499E-02   3.0217E-02   2.1356E-06  0.3327
   3.0217E-02   3.0952E-02   2.1699E-06  0.3402
   3.0952E-02   3.1705E-02   1.5812E-06  0.4083
   3.1705E-02   3.2477E-02   2.0741E-06  0.3536
   3.2477E-02   3.3267E-02   4.0332E-06  0.2482
   3.3267E-02   3.4076E-02   2.1383E-06  0.3355
   3.4076E-02   3.4905E-02   3.5669E-06  0.2551
   3.4905E-02   3.5755E-02   3.4608E-06  0.2558
   3.5755E-02   3.6625E-02   3.5018E-06  0.2546
   3.6625E-02   3.7516E-02   2.5104E-06  0.2970
   3.7516E-02   3.8428E-02   2.8484E-06  0.2774
   3.8428E-02   3.9363E-02   2.9446E-06  0.2588
   3.9363E-02   4.0321E-02   6.1946E-06  0.1801
   4.0321E-02   4.1302E-02   4.3691E-06  0.2107
   4.1302E-02   4.2307E-02   4.1409E-06  0.2162
   4.2307E-02   4.3337E-02   4.2789E-06  0.2098
   4.3337E-02   4.4391E-02   4.8483E-06  0.1939
   4.4391E-02   4.5471E-02   4.9241E-06  0.1891
   4.5471E-02   4.6577E-02   5.6257E-06  0.1745
   4.6577E-02   4.7711E-02   5.4668E-06  0.1780
   4.7711E-02   4.8871E-02   5.0898E-06  0.1826
   4.8871E-02   5.0061E-02   7.6343E-06  0.1464
   5.0061E-02   5.1279E-02   7.7992E-06  0.1415
   5.1279E-02   5.2526E-02   5.7418E-06  0.1606
   5.2526E-02   5.3804E-02   6.4704E-06  0.1525
   5.3804E-02   5.5113E-02   5.8094E-06  0.1571
   5.5113E-02   5.6454E-02   7.9038E-06  0.1357
   5.6454E-02   5.7828E-02   7.0150E-06  0.1427
   5.7828E-02   5.9235E-02   7.7168E-06  0.1320
   5.9235E-02   6.0676E-02   8.0342E-06  0.1279
   6.0676E-02   6.2152E-02   8.6393E-06  0.1227
   6.2152E-02   6.3665E-02   1.2228E-05  0.1020
   6.3665E-02   6.5214E-02   9.2533E-06  0.1156
   6.5214E-02   6.6800E-02   9.3690E-06  0.1129
   6.6800E-02   6.8426E-02   9.2379E-06  0.1128
   6.8426E-02   7.0090E-02   1.0820E-05  0.1030
   7.0090E-02   7.1796E-02   1.1468E-05  0.0987
   7.1796E-02   7.3543E-02   1.0488E-05  0.1013
   7.3543E-02   7.5332E-02   1.3279E-05  0.0891
   7.5332E-02   7.7165E-02   1.2826E-05  0.0901
   7.7165E-02   7.9042E-02   1.3402E-05  0.0875
   7.9042E-02   8.0965E-02   1.2733E-05  0.0882
   8.0965E-02   8.2935E-02   1.4231E-05  0.0825
   8.2935E-02   8.4953E-02   1.5937E-05  0.0766
   8.4953E-02   8.7020E-02   1.7598E-05  0.0729
   8.7020E-02   8.9138E-02   1.6149E-05  0.0747
   8.9138E-02   9.1306E-02   1.7858E-05  0.0704
   9.1306E-02   9.3528E-02   1.8329E-05  0.0685
   9.3528E-02   9.5804E-02   1.9747E-05  0.0652
   9.5804E-02   9.8134E-02   1.8173E-05  0.0670
   9.8134E-02   1.0052E-01   2.0395E-05  0.0622
   1.0052E-01   1.0297E-01   2.2843E-05  0.0589
   1.0297E-01   1.0547E-01   2.1369E-05  0.0604
   1.0547E-01   1.0804E-01   2.1296E-05  0.0593
   1.0804E-01   1.1067E-01   2.6904E-05  0.0520
   1.1067E-01   1.1336E-01   2.4993E-05  0.0533
   1.1336E-01   1.1612E-01   2.6314E-05  0.0511
   1.1612E-01   1.1894E-01   2.5907E-05  0.0513
   1.1894E-01   1.2184E-01   2.8170E-05  0.0484
   1.2184E-01   1.2480E-01   3.1040E-05  0.0456
   1.2480E-01   1.2784E-01   3.2471E-05  0.0442
   1.2784E-01   1.3095E-01   3.1452E-05  0.0441
   1.3095E-01   1.3414E-01   3.2900E-05  0.0427
   1.3414E-01   1.3740E-01   3.3539E-05  0.0419
   1.3740E-01   1.4074E-01   3.7506E-05  0.0391
   1.4074E-01   1.4417E-01   3.8042E-05  0.0383
   1.4417E-01   1.4767E-01   4.0181E-05  0.0369
   1.4767E-01   1.5127E-01   4.0630E-05  0.0363
   1.5127E-01   1.5495E-01   4.2942E-05  0.0348
   1.5495E-01   1.5872E-01   4.4392E-05  0.0338
   1.5872E-01   1.6258E-01   4.5680E-05  0.0330
   1.6258E-01   1.6654E-01   4.8418E-05  0.0316
   1.6654E-01   1.7059E-01   4.8799E-05  0.0311
   1.7059E-01   1.7474E-01   5.4075E-05  0.0292
   1.7474E-01   1.7899E-01   5.4288E-05  0.0288
   1.7899E-01   1.8334E-01   5.4092E-05  0.0285
   1.8334E-01   1.8781E-01   5.6897E-05  0.0275
   1.8781E-01   1.9237E-01   6.0602E-05  0.0264
   1.9237E-01   1.9706E-01   6.0713E-05  0.0260
   1.9706E-01   2.0185E-01   6.6688E-05  0.0245
   2.0185E-01   2.0676E-01   6.8303E-05  0.0239
   2.0676E-01   2.1179E-01   6.8953E-05  0.0236
   2.1179E-01   2.1694E-01   7.3815E-05  0.0225
   2.1694E-01   2.2222E-01   7.4592E-05  0.0221
   2.2222E-01   2.2763E-01   7.7650E-05  0.0214
   2.2763E-01   2.3317E-01   8.2754E-05  0.0205
   2.3317E-01   2.3884E-01   8.2920E-05  0.0202
   2.3884E-01   2.4465E-01   8.9505E-05  0.0193
   2.4465E-01   2.5061E-01   8.8117E-05  0.0192
   2.5061E-01   2.5670E-01   9.2179E-05  0.0185
   2.5670E-01   2.6295E-01   9.8316E-05  0.0177
   2.6295E-01   2.6935E-01   9.8380E-05  0.0175
   2.6935E-01   2.7590E-01   1.0219E-04  0.0169
   2.7590E-01   2.8261E-01   1.0734E-04  0.0164
   2.8261E-01   2.8949E-01   1.0917E-04  0.0160
   2.8949E-01   2.9653E-01   1.1515E-04  0.0154
   2.9653E-01   3.0375E-01   1.1846E-04  0.0150
   3.0375E-01   3.1114E-01   1.2523E-04  0.0145
   3.1114E-01   3.1871E-01   1.2610E-04  0.0142
   3.1871E-01   3.2646E-01   1.3253E-04  0.0137
   3.2646E-01   3.3441E-01   1.3342E-04  0.0135
   3.3441E-01   3.4254E-01   1.4294E-04  0.0129
   3.4254E-01   3.5088E-01   1.4480E-04  0.0127
   3.5088E-01   3.5941E-01   1.5148E-04  0.0123
   3.5941E-01   3.6816E-01   1.5393E-04  0.0120
   3.6816E-01   3.7712E-01   1.5940E-04  0.0117
   3.7712E-01   3.8629E-01   1.5991E-04  0.0115
   3.8629E-01   3.9569E-01   1.7080E-04  0.0110
   3.9569E-01   4.0532E-01   1.7045E-04  0.0109
   4.0532E-01   4.1518E-01   1.8121E-04  0.0105
   4.1518E-01   4.2528E-01   1.8138E-04  0.0103
   4.2528E-01   4.3563E-01   1.8593E-04  0.0101
   4.3563E-01   4.4623E-01   1.9178E-04  0.0098
   4.4623E-01   4.5708E-01   1.9637E-04  0.0096
   4.5708E-01   4.6821E-01   1.9791E-04  0.0094
   4.6821E-01   4.7960E-01   2.0755E-04  0.0091
   4.7960E-01   4.9127E-01   2.0728E-04  0.0090
   4.9127E-01   5.0322E-01   2.1570E-04  0.0087
   5.0322E-01   5.1546E-01   2.2040E-04  0.0085
   5.1546E-01   5.2800E-01   2.2649E-04  0.0083
   5.2800E-01   5.4085E-01   2.3428E-04  0.0081
   5.4085E-01   5.5401E-01   2.3597E-04  0.0079
   5.5401E-01   5.6749E-01   2.4615E-04  0.0077
   5.6749E-01   5.8130E-01   2.5207E-04  0.0075
   5.8130E-01   5.9544E-01   2.5480E-04  0.0074
   5.9544E-01   6.0993E-01   2.5891E-04  0.0072
   6.0993E-01   6.2477E-01   2.6327E-04  0.0071
   6.2477E-01   6.3997E-01   2.7320E-04  0.0069
   6.3997E-01   6.5554E-01   2.7990E-04  0.0067
   6.5554E-01   6.7149E-01   2.8664E-04  0.0065
   6.7149E-01   6.8783E-01   2.9084E-04  0.0064
   6.8783E-01   7.0456E-01   2.9586E-04  0.0063
   7.0456E-01   7.2171E-01   3.0053E-04  0.0062
   7.2171E-01   7.3927E-01   3.0791E-04  0.0060
   7.3927E-01   7.5725E-01   3.1304E-04  0.0059
   7.5725E-01   7.7568E-01   3.1461E-04  0.0058
   7.7568E-01   7.9455E-01   3.2162E-04  0.0057
   7.9455E-01   8.1388E-01   3.2933E-04  0.0055
   8.1388E-01   8.3368E-01   3.3234E-04  0.0054
   8.3368E-01   8.5397E-01   3.3553E-04  0.0053
   8.5397E-01   8.7475E-01   3.4203E-04  0.0052
   8.7475E-01   8.9603E-01   3.4598E-04  0.0051
   8.9603E-01   9.1783E-01   3.5018E-04  0.0050
   9.1783E-01   9.4016E-01   3.5489E-04  0.0050
   9.4016E-01   9.6304E-01   3.6044E-04  0.0049
   9.6304E-01   9.8647E-01   3.5905E-04  0.0048
   9.8647E-01   1.0105E+00   3.5849E-04  0.0047
   1.0105E+00   1.0351E+00   3.5495E-04  0.0047
   1.0351E+00   1.0602E+00   3.4930E-04  0.0047
   1.0602E+00   1.0860E+00   3.4683E-04  0.0047
   1.0860E+00   1.1125E+00   3.3844E-04  0.0047
   1.1125E+00   1.1395E+00   3.4102E-04  0.0046
   1.1395E+00   1.1673E+00   3.4306E-04  0.0045
   1.1673E+00   1.1957E+00   3.4305E-04  0.0045
   1.1957E+00   1.2247E+00   3.3994E-04  0.0044
   1.2247E+00   1.2545E+00   3.3486E-04  0.0044
   1.2545E+00   1.2851E+00   3.3403E-04  0.0044
   1.2851E+00   1.3163E+00   3.2710E-04  0.0043
   1.3163E+00   1.3484E+00   3.2355E-04  0.0043
   1.3484E+00   1.3812E+00   3.2075E-04  0.0043
   1.3812E+00   1.4148E+00   3.2148E-04  0.0042
   1.4148E+00   1.4492E+00   3.1935E-04  0.0042
   1.4492E+00   1.4845E+00   3.1729E-04  0.0041
   1.4845E+00   1.5206E+00   3.1282E-04  0.0041
   1.5206E+00   1.5576E+00   3.0878E-04  0.0041
   1.5576E+00   1.5955E+00   3.0515E-04  0.0041
   1.5955E+00   1.6343E+00   3.0038E-04  0.0041
   1.6343E+00   1.6741E+00   2.9505E-04  0.0040
   1.6741E+00   1.7148E+00   2.8984E-04  0.0040
   1.7148E+00   1.7565E+00   2.8800E-04  0.0040
   1.7565E+00   1.7992E+00   2.8293E-04  0.0040
   1.7992E+00   1.8430E+00   2.8262E-04  0.0039
   1.8430E+00   1.8879E+00   2.7685E-04  0.0039
   1.8879E+00   1.9338E+00   2.7282E-04  0.0039
   1.9338E+00   1.9808E+00   2.6971E-04  0.0039
   1.9808E+00   2.0290E+00   2.6852E-04  0.0038
   2.0290E+00   2.0784E+00   2.6324E-04  0.0038
   2.0784E+00   2.1290E+00   2.5945E-04  0.0038
   2.1290E+00   2.1808E+00   2.5424E-04  0.0038
   2.1808E+00   2.2338E+00   2.5203E-04  0.0038
   2.2338E+00   2.2882E+00   2.4570E-04  0.0038
   2.2882E+00   2.3439E+00   2.3974E-04  0.0038
   2.3439E+00   2.4009E+00   2.3477E-04  0.0037
   2.4009E+00   2.4593E+00   2.2833E-04  0.0037
   2.4593E+00   2.5191E+00   2.2426E-04  0.0037
   2.5191E+00   2.5804E+00   2.1869E-04  0.0037
   2.5804E+00   2.6432E+00   2.1201E-04  0.0037
   2.6432E+00   2.7075E+00   2.0633E-04  0.0037
   2.7075E+00   2.7734E+00   2.0146E-04  0.0037
   2.7734E+00   2.8409E+00   1.9772E-04  0.0037
   2.8409E+00   2.9100E+00   1.9245E-04  0.0037
   2.9100E+00   2.9808E+00   1.8694E-04  0.0037
   2.9808E+00   3.0533E+00   1.8207E-04  0.0037
   3.0533E+00   3.1276E+00   1.7665E-04  0.0038
   3.1276E+00   3.2037E+00   1.7262E-04  0.0037
   3.2037E+00   3.2817E+00   1.6710E-04  0.0038
   3.2817E+00   3.3615E+00   1.6167E-04  0.0038
   3.3615E+00   3.4433E+00   1.5765E-04  0.0038
   3.4433E+00   3.5271E+00   1.5218E-04  0.0038
   3.5271E+00   3.6129E+00   1.4818E-04  0.0038
   3.6129E+00   3.7008E+00   1.4308E-04  0.0038
   3.7008E+00   3.7908E+00   1.3756E-04  0.0039
   3.7908E+00   3.8831E+00   1.3400E-04  0.0039
   3.8831E+00   3.9776E+00   1.2846E-04  0.0039
   3.9776E+00   4.0743E+00   1.2254E-04  0.0039
   4.0743E+00   4.1735E+00   1.1834E-04  0.0039
   4.1735E+00   4.2750E+00   1.1378E-04  0.0040
   4.2750E+00   4.3790E+00   1.0942E-04  0.0040
   4.3790E+00   4.4856E+00   1.0569E-04  0.0040
   4.4856E+00   4.5947E+00   1.0292E-04  0.0040
   4.5947E+00   4.7065E+00   9.9318E-05  0.0041
   4.7065E+00   4.8210E+00   9.5955E-05  0.0041
   4.8210E+00   4.9383E+00   9.2247E-05  0.0041
   4.9383E+00   5.0585E+00   8.9536E-05  0.0041
   5.0585E+00   5.1815E+00   8.7192E-05  0.0041
   5.1815E+00   5.3076E+00   8.5173E-05  0.0041
   5.3076E+00   5.4368E+00   8.1901E-05  0.0042
   5.4368E+00   5.5690E+00   8.0038E-05  0.0042
   5.5690E+00   5.7045E+00   7.7772E-05  0.0042
   5.7045E+00   5.8433E+00   7.5913E-05  0.0042
   5.8433E+00   5.9855E+00   7.3469E-05  0.0042
   5.9855E+00   6.1311E+00   7.2185E-05  0.0042
   6.1311E+00   6.2803E+00   7.0111E-05  0.0042
   6.2803E+00   6.4331E+00   6.8668E-05  0.0042
   6.4331E+00   6.5896E+00   6.7187E-05  0.0042
   6.5896E+00   6.7500E+00   6.6065E-05  0.0042
   6.7500E+00   6.9142E+00   6.3238E-05  0.0042
   6.9142E+00   7.0824E+00   6.2409E-05  0.0042
   7.0824E+00   7.2548E+00   6.1389E-05  0.0042
   7.2548E+00   7.4313E+00   5.9741E-05  0.0042
   7.4313E+00   7.6121E+00   5.8231E-05  0.0042
   7.6121E+00   7.7973E+00   5.7038E-05  0.0042
   7.7973E+00   7.9870E+00   5.5185E-05  0.0043
   7.9870E+00   8.1813E+00   5.4274E-05  0.0042
   8.1813E+00   8.3804E+00   5.2354E-05  0.0043
   8.3804E+00   8.5843E+00   5.0901E-05  0.0043
   8.5843E+00   8.7931E+00   4.8875E-05  0.0043
   8.7931E+00   9.0071E+00   4.7155E-05  0.0044
   9.0071E+00   9.2262E+00   4.5359E-05  0.0044
   9.2262E+00   9.4507E+00   4.3797E-05  0.0044
   9.4507E+00   9.6807E+00   4.2048E-05  0.0045
   9.6807E+00   9.9162E+00   4.0321E-05  0.0045
   9.9162E+00   1.0157E+01   3.9149E-05  0.0045
   1.0157E+01   1.0405E+01   3.7961E-05  0.0045
   1.0405E+01   1.0658E+01   3.6304E-05  0.0046
   1.0658E+01   1.0917E+01   3.5093E-05  0.0046
   1.0917E+01   1.1183E+01   3.3459E-05  0.0047
   1.1183E+01   1.1455E+01   3.2078E-05  0.0047
   1.1455E+01   1.1733E+01   3.0486E-05  0.0048
   1.1733E+01   1.2019E+01   2.9584E-05  0.0048
   1.2019E+01   1.2311E+01   2.8121E-05  0.0049
   1.2311E+01   1.2611E+01   2.6868E-05  0.0049
   1.2611E+01   1.2918E+01   2.6148E-05  0.0049
   1.2918E+01   1.3232E+01   2.4645E-05  0.0050
   1.3232E+01   1.3554E+01   2.3198E-05  0.0051
   1.3554E+01   1.3884E+01   2.2049E-05  0.0052
   1.3884E+01   1.4222E+01   2.0805E-05  0.0053
   1.4222E+01   1.4568E+01   1.9859E-05  0.0053
   1.4568E+01   1.4922E+01   1.8699E-05  0.0054
   1.4922E+01   1.5285E+01   1.7642E-05  0.0055
   1.5285E+01   1.5657E+01   1.6785E-05  0.0056
   1.5657E+01   1.6038E+01   1.5519E-05  0.0058
   1.6038E+01   1.6428E+01   1.4678E-05  0.0058
   1.6428E+01   1.6828E+01   1.3529E-05  0.0060
   1.6828E+01   1.7237E+01   1.2431E-05  0.0062
   1.7237E+01   1.7657E+01   1.1701E-05  0.0063
   1.7657E+01   1.8086E+01   1.0729E-05  0.0065
   1.8086E+01   1.8526E+01   9.9759E-06  0.0067
   1.8526E+01   1.8977E+01   9.3869E-06  0.0068
   1.8977E+01   1.9439E+01   8.7352E-06  0.0070
   1.9439E+01   1.9912E+01   8.0969E-06  0.0072
   1.9912E+01   2.0396E+01   8.0403E-06  0.0072
   2.0396E+01   2.0893E+01   7.7697E-06  0.0072
   2.0893E+01   2.1401E+01   7.1201E-06  0.0074
   2.1401E+01   2.1922E+01   6.5896E-06  0.0076
   2.1922E+01   2.2455E+01   6.0569E-06  0.0079
   2.2455E+01   2.3001E+01   5.5942E-06  0.0081
   2.3001E+01   2.3561E+01   5.1386E-06  0.0083
   2.3561E+01   2.4134E+01   4.6374E-06  0.0087
   2.4134E+01   2.4721E+01   4.2428E-06  0.0090
   2.4721E+01   2.5323E+01   3.9066E-06  0.0092
   2.5323E+01   2.5939E+01   3.4571E-06  0.0097
   2.5939E+01   2.6570E+01   3.0783E-06  0.0101
   2.6570E+01   2.7217E+01   2.7754E-06  0.0106
   2.7217E+01   2.7879E+01   2.3663E-06  0.0113
   2.7879E+01   2.8557E+01   2.1553E-06  0.0117
   2.8557E+01   2.9252E+01   1.9185E-06  0.0122
   2.9252E+01   2.9964E+01   1.6560E-06  0.0130
   2.9964E+01   3.0693E+01   1.4701E-06  0.0137
   3.0693E+01   3.1440E+01   1.2981E-06  0.0144
   3.1440E+01   3.2205E+01   1.0950E-06  0.0155
   3.2205E+01   3.2988E+01   9.2322E-07  0.0166
   3.2988E+01   3.3791E+01   7.7770E-07  0.0179
   3.3791E+01   3.4613E+01   6.9111E-07  0.0188
   3.4613E+01   3.5455E+01   5.6118E-07  0.0206
   3.5455E+01   3.6318E+01   4.8200E-07  0.0219
   3.6318E+01   3.7201E+01   4.0197E-07  0.0237
   3.7201E+01   3.8106E+01   3.4138E-07  0.0254
   3.8106E+01   3.9034E+01   2.8560E-07  0.0275
   3.9034E+01   3.9983E+01   2.3670E-07  0.0298
   3.9983E+01   4.0956E+01   1.9490E-07  0.0325
   4.0956E+01   4.1953E+01   1.5795E-07  0.0356
   4.1953E+01   4.2973E+01   1.2540E-07  0.0395
   4.2973E+01   4.4019E+01   1.0042E-07  0.0436
   4.4019E+01   4.5090E+01   8.5900E-08  0.0466
   4.5090E+01   4.6187E+01   7.0551E-08  0.0508
   4.6187E+01   4.7311E+01   4.4493E-08  0.0632
   4.7311E+01   4.8462E+01   3.5792E-08  0.0697
   4.8462E+01   4.9641E+01   3.1040E-08  0.0739
   4.9641E+01   5.0849E+01   2.3845E-08  0.0833
   5.0849E+01   5.2086E+01   1.4872E-08  0.1043
   5.2086E+01   5.3353E+01   8.0486E-09  0.1400
   5.3353E+01   5.4651E+01   4.7761E-09  0.1796
   5.4651E+01   5.5981E+01   3.0082E-09  0.2236
   5.5981E+01   5.7343E+01   1.6152E-09  0.3015
   5.7343E+01   5.8738E+01   4.3004E-10  0.5774
   5.8738E+01   6.0168E+01   0.0000E+00  0.0000
   6.0168E+01   6.1632E+01   0.0000E+00  0.0000
   6.1632E+01   6.3131E+01   0.0000E+00  0.0000
   6.3131E+01   6.4667E+01   0.0000E+00  0.0000
   6.4667E+01   6.6240E+01   0.0000E+00  0.0000
   6.6240E+01   6.7852E+01   0.0000E+00  0.0000
   6.7852E+01   6.9503E+01   0.0000E+00  0.0000
   6.9503E+01   7.1194E+01   0.0000E+00  0.0000
   7.1194E+01   7.2926E+01   0.0000E+00  0.0000
   7.2926E+01   7.4701E+01   0.0000E+00  0.0000
   7.4701E+01   7.6518E+01   0.0000E+00  0.0000
   7.6518E+01   7.8380E+01   0.0000E+00  0.0000
   7.8380E+01   8.0287E+01   0.0000E+00  0.0000
   8.0287E+01   8.2240E+01   0.0000E+00  0.0000
   8.2240E+01   8.4241E+01   0.0000E+00  0.0000
   8.4241E+01   8.6291E+01   0.0000E+00  0.0000
   8.6291E+01   8.8391E+01   0.0000E+00  0.0000
   8.8391E+01   9.0541E+01   0.0000E+00  0.0000
   9.0541E+01   9.2744E+01   0.0000E+00  0.0000
   9.2744E+01   9.5001E+01   0.0000E+00  0.0000
   9.5001E+01   9.7312E+01   0.0000E+00  0.0000
   9.7312E+01   9.9680E+01   0.0000E+00  0.0000
   9.9680E+01   1.0211E+02   0.0000E+00  0.0000
   1.0211E+02   1.0459E+02   0.0000E+00  0.0000
   1.0459E+02   1.0713E+02   0.0000E+00  0.0000
   1.0713E+02   1.0974E+02   0.0000E+00  0.0000
   1.0974E+02   1.1241E+02   0.0000E+00  0.0000
   1.1241E+02   1.1515E+02   0.0000E+00  0.0000
   1.1515E+02   1.1795E+02   0.0000E+00  0.0000
   1.1795E+02   1.2082E+02   0.0000E+00  0.0000
   1.2082E+02   1.2376E+02   0.0000E+00  0.0000
   1.2376E+02   1.2677E+02   0.0000E+00  0.0000
   1.2677E+02   1.2985E+02   0.0000E+00  0.0000
   1.2985E+02   1.3301E+02   0.0000E+00  0.0000
   1.3301E+02   1.3625E+02   0.0000E+00  0.0000
   1.3625E+02   1.3956E+02   0.0000E+00  0.0000
   1.3956E+02   1.4296E+02   0.0000E+00  0.0000
   1.4296E+02   1.4644E+02   0.0000E+00  0.0000
   1.4644E+02   1.5000E+02   0.0000E+00  0.0000

#   sum over                 1.0260E-05
'no. =    1   reg = 117 - 217'
msuc: {\huge [t-cross] in region mesh}
msdr: {\it plotted by \ANGEL \version}
msdl: {\it calculated by \PHITS  3.26}
wt: s(0.7)
\vspace{-3}
  region surface crossing
  area  &=&   1.0000E+00 [cm^2]
e:
 
# Information for Restart Calculation
# This calculation was newly started
# istdev =  2 # 1:Batch variance, 2:History variance
# resc2  = 5.00000000000000000E+09 # Total source weight or Total source weight / maxcas
# resc3  = 5.00000000000000000E+09 # Total history number or Total batch number
# maxcas =   100000000 # History / Batch, only used for istdev=1
# bitrseed = 0110100000100010111000001110001111001110100100011111101000111001 # bit data of rseed
