[ T-Cross ]
    title = [t-cross] in region mesh
     mesh =  reg            # mesh type is region-wise
      reg =    1            # number of crossing regions
      non     r-from    r-to       area
      1       105       205        1.000000    
   e-type =    3            # e-mesh is log given by emin, emax and ne
     emin =  1.0000000E-02  # minimum value of e-mesh points
     emax =   150.0000      # maximum value of e-mesh points
#    edel =  2.4039514E-02  # mesh width of e-mesh points
       ne =    400          # number of e-mesh points
#    data = ( e(i), i = 1, ne + 1 )
#           1.00000E-02  1.02433E-02  1.04925E-02  1.07478E-02  1.10093E-02
#           1.12772E-02  1.15516E-02  1.18326E-02  1.21205E-02  1.24154E-02
#           1.27175E-02  1.30269E-02  1.33439E-02  1.36686E-02  1.40011E-02
#           1.43418E-02  1.46907E-02  1.50482E-02  1.54143E-02  1.57894E-02
#           1.61735E-02  1.65670E-02  1.69701E-02  1.73830E-02  1.78060E-02
#           1.82392E-02  1.86830E-02  1.91375E-02  1.96032E-02  2.00801E-02
#           2.05687E-02  2.10692E-02  2.15818E-02  2.21069E-02  2.26448E-02
#           2.31957E-02  2.37601E-02  2.43382E-02  2.49304E-02  2.55369E-02
#           2.61583E-02  2.67947E-02  2.74467E-02  2.81145E-02  2.87985E-02
#           2.94992E-02  3.02169E-02  3.09521E-02  3.17052E-02  3.24766E-02
#           3.32668E-02  3.40762E-02  3.49053E-02  3.57546E-02  3.66246E-02
#           3.75157E-02  3.84284E-02  3.93634E-02  4.03212E-02  4.13022E-02
#           4.23071E-02  4.33365E-02  4.43909E-02  4.54710E-02  4.65773E-02
#           4.77106E-02  4.88714E-02  5.00605E-02  5.12785E-02  5.25262E-02
#           5.38042E-02  5.51133E-02  5.64542E-02  5.78278E-02  5.92348E-02
#           6.06760E-02  6.21523E-02  6.36645E-02  6.52135E-02  6.68002E-02
#           6.84255E-02  7.00904E-02  7.17957E-02  7.35426E-02  7.53319E-02
#           7.71648E-02  7.90423E-02  8.09655E-02  8.29354E-02  8.49533E-02
#           8.70203E-02  8.91376E-02  9.13064E-02  9.35279E-02  9.58035E-02
#           9.81345E-02  1.00522E-01  1.02968E-01  1.05473E-01  1.08040E-01
#           1.10668E-01  1.13361E-01  1.16119E-01  1.18944E-01  1.21838E-01
#           1.24803E-01  1.27839E-01  1.30950E-01  1.34136E-01  1.37399E-01
#           1.40742E-01  1.44167E-01  1.47675E-01  1.51268E-01  1.54948E-01
#           1.58718E-01  1.62580E-01  1.66535E-01  1.70587E-01  1.74738E-01
#           1.78989E-01  1.83344E-01  1.87805E-01  1.92375E-01  1.97055E-01
#           2.01850E-01  2.06761E-01  2.11792E-01  2.16945E-01  2.22223E-01
#           2.27630E-01  2.33169E-01  2.38842E-01  2.44653E-01  2.50605E-01
#           2.56703E-01  2.62949E-01  2.69346E-01  2.75900E-01  2.82613E-01
#           2.89489E-01  2.96532E-01  3.03747E-01  3.11138E-01  3.18708E-01
#           3.26462E-01  3.34405E-01  3.42542E-01  3.50876E-01  3.59413E-01
#           3.68158E-01  3.77116E-01  3.86291E-01  3.95690E-01  4.05317E-01
#           4.15179E-01  4.25281E-01  4.35628E-01  4.46227E-01  4.57084E-01
#           4.68205E-01  4.79597E-01  4.91266E-01  5.03219E-01  5.15463E-01
#           5.28005E-01  5.40851E-01  5.54011E-01  5.67490E-01  5.81298E-01
#           5.95441E-01  6.09929E-01  6.24769E-01  6.39970E-01  6.55541E-01
#           6.71491E-01  6.87828E-01  7.04564E-01  7.21706E-01  7.39266E-01
#           7.57253E-01  7.75678E-01  7.94551E-01  8.13883E-01  8.33685E-01
#           8.53969E-01  8.74747E-01  8.96030E-01  9.17831E-01  9.40163E-01
#           9.63038E-01  9.86469E-01  1.01047E+00  1.03506E+00  1.06024E+00
#           1.08604E+00  1.11246E+00  1.13953E+00  1.16725E+00  1.19565E+00
#           1.22474E+00  1.25454E+00  1.28507E+00  1.31633E+00  1.34836E+00
#           1.38117E+00  1.41477E+00  1.44920E+00  1.48446E+00  1.52057E+00
#           1.55757E+00  1.59547E+00  1.63429E+00  1.67405E+00  1.71478E+00
#           1.75650E+00  1.79924E+00  1.84302E+00  1.88786E+00  1.93379E+00
#           1.98084E+00  2.02904E+00  2.07841E+00  2.12898E+00  2.18078E+00
#           2.23384E+00  2.28819E+00  2.34386E+00  2.40089E+00  2.45930E+00
#           2.51914E+00  2.58043E+00  2.64322E+00  2.70753E+00  2.77341E+00
#           2.84088E+00  2.91001E+00  2.98081E+00  3.05333E+00  3.12762E+00
#           3.20372E+00  3.28167E+00  3.36152E+00  3.44330E+00  3.52708E+00
#           3.61290E+00  3.70080E+00  3.79085E+00  3.88308E+00  3.97756E+00
#           4.07434E+00  4.17347E+00  4.27501E+00  4.37903E+00  4.48557E+00
#           4.59471E+00  4.70650E+00  4.82102E+00  4.93832E+00  5.05847E+00
#           5.18155E+00  5.30762E+00  5.43676E+00  5.56904E+00  5.70453E+00
#           5.84333E+00  5.98550E+00  6.13114E+00  6.28031E+00  6.43312E+00
#           6.58964E+00  6.74997E+00  6.91420E+00  7.08243E+00  7.25475E+00
#           7.43126E+00  7.61207E+00  7.79728E+00  7.98700E+00  8.18133E+00
#           8.38038E+00  8.58428E+00  8.79315E+00  9.00709E+00  9.22624E+00
#           9.45072E+00  9.68067E+00  9.91620E+00  1.01575E+01  1.04046E+01
#           1.06578E+01  1.09171E+01  1.11827E+01  1.14548E+01  1.17335E+01
#           1.20190E+01  1.23114E+01  1.26109E+01  1.29178E+01  1.32321E+01
#           1.35540E+01  1.38838E+01  1.42216E+01  1.45676E+01  1.49221E+01
#           1.52851E+01  1.56570E+01  1.60380E+01  1.64282E+01  1.68279E+01
#           1.72374E+01  1.76568E+01  1.80864E+01  1.85264E+01  1.89772E+01
#           1.94389E+01  1.99119E+01  2.03963E+01  2.08926E+01  2.14009E+01
#           2.19216E+01  2.24550E+01  2.30014E+01  2.35610E+01  2.41343E+01
#           2.47215E+01  2.53230E+01  2.59391E+01  2.65702E+01  2.72167E+01
#           2.78789E+01  2.85572E+01  2.92520E+01  2.99637E+01  3.06928E+01
#           3.14396E+01  3.22045E+01  3.29881E+01  3.37907E+01  3.46128E+01
#           3.54550E+01  3.63177E+01  3.72013E+01  3.81064E+01  3.90336E+01
#           3.99833E+01  4.09561E+01  4.19526E+01  4.29734E+01  4.40189E+01
#           4.50900E+01  4.61870E+01  4.73108E+01  4.84619E+01  4.96410E+01
#           5.08488E+01  5.20860E+01  5.33533E+01  5.46514E+01  5.59812E+01
#           5.73432E+01  5.87384E+01  6.01676E+01  6.16315E+01  6.31311E+01
#           6.46671E+01  6.62405E+01  6.78522E+01  6.95031E+01  7.11941E+01
#           7.29263E+01  7.47007E+01  7.65182E+01  7.83800E+01  8.02870E+01
#           8.22405E+01  8.42414E+01  8.62911E+01  8.83906E+01  9.05412E+01
#           9.27442E+01  9.50007E+01  9.73122E+01  9.96799E+01  1.02105E+02
#           1.04589E+02  1.07134E+02  1.09741E+02  1.12411E+02  1.15146E+02
#           1.17948E+02  1.20817E+02  1.23757E+02  1.26768E+02  1.29852E+02
#           1.33012E+02  1.36248E+02  1.39563E+02  1.42959E+02  1.46437E+02
#           1.50000E+02
     unit =    2            # unit is [1/cm^2/(MeV/n)/source]
     axis =  eng            # axis of output
     file = detector-06.out  # file name of output for the above axis
   output = f-curr          # surface crossing forward current spectrum
     part =  neutron  
# kf/name :  2112     
#    used :        main (  %)        temp (  %)       total (  %)
#  memory :         414 (  0)           0 (  0)         414 (  0)

#------------------------------------------------------------------------------
#newpage:
#   no. =    1   reg = 105 - 205

x: Energy [MeV/n]
y:  F-Curr [1/cm^2/(MeV/n)/source]         
p: xlog ylog afac(0.8) form(0.9)
h: n            x            y(neutron ),hh0l   n 
#  e-lower      e-upper      neutron     r.err 
   1.0000E-02   1.0243E-02   7.6720E-05  0.1890
   1.0243E-02   1.0493E-02   4.2799E-05  0.2500
   1.0493E-02   1.0748E-02   7.8342E-05  0.1826
   1.0748E-02   1.1009E-02   5.3537E-05  0.2182
   1.1009E-02   1.1277E-02   9.2086E-05  0.1644
   1.1277E-02   1.1552E-02   7.5320E-05  0.1796
   1.1552E-02   1.1833E-02   8.3019E-05  0.1690
   1.1833E-02   1.2121E-02   6.4838E-05  0.1890
   1.2121E-02   1.2415E-02   1.0215E-04  0.1485
   1.2415E-02   1.2718E-02   9.9312E-05  0.1491
   1.2718E-02   1.3027E-02   9.2644E-05  0.1525
   1.3027E-02   1.3344E-02   7.3617E-05  0.1690
   1.3344E-02   1.3669E-02   7.5975E-05  0.1644
   1.3669E-02   1.4001E-02   7.8581E-05  0.1594
   1.4001E-02   1.4342E-02   9.0022E-05  0.1474
   1.4342E-02   1.4691E-02   5.9226E-05  0.1796
   1.4691E-02   1.5048E-02   6.7145E-05  0.1667
   1.5048E-02   1.5414E-02   7.2833E-05  0.1581
   1.5414E-02   1.5789E-02   6.7548E-05  0.1622
   1.5789E-02   1.6174E-02   8.8503E-05  0.1400
   1.6174E-02   1.6567E-02   6.2683E-05  0.1644
   1.6567E-02   1.6970E-02   8.6002E-05  0.1387
   1.6970E-02   1.7383E-02   8.0730E-05  0.1414
   1.7383E-02   1.7806E-02   6.4627E-05  0.1562
   1.7806E-02   1.8239E-02   7.8480E-05  0.1400
   1.8239E-02   1.8683E-02   6.3095E-05  0.1543
   1.8683E-02   1.9138E-02   7.4796E-05  0.1400
   1.9138E-02   1.9603E-02   8.5905E-05  0.1291
   1.9603E-02   2.0080E-02   7.5478E-05  0.1361
   2.0080E-02   2.0569E-02   6.4133E-05  0.1459
   2.0569E-02   2.1069E-02   5.8614E-05  0.1508
   2.1069E-02   2.1582E-02   7.4128E-05  0.1325
   2.1582E-02   2.2107E-02   6.7289E-05  0.1374
   2.2107E-02   2.2645E-02   7.0648E-05  0.1325
   2.2645E-02   2.3196E-02   7.7440E-05  0.1250
   2.3196E-02   2.3760E-02   8.3869E-05  0.1187
   2.3760E-02   2.4338E-02   7.9571E-05  0.1204
   2.4338E-02   2.4930E-02   6.3045E-05  0.1336
   2.4930E-02   2.5537E-02   5.8251E-05  0.1374
   2.5537E-02   2.6158E-02   7.6180E-05  0.1187
   2.6158E-02   2.6795E-02   8.9035E-05  0.1085
   2.6795E-02   2.7447E-02   8.0785E-05  0.1125
   2.7447E-02   2.8114E-02   6.6886E-05  0.1222
   2.8114E-02   2.8799E-02   6.9196E-05  0.1187
   2.8799E-02   2.9499E-02   7.8018E-05  0.1104
   2.9499E-02   3.0217E-02   5.9446E-05  0.1250
   3.0217E-02   3.0952E-02   6.3475E-05  0.1195
   3.0952E-02   3.1705E-02   7.0819E-05  0.1118
   3.1705E-02   3.2477E-02   9.1607E-05  0.0971
   3.2477E-02   3.3267E-02   8.4369E-05  0.1000
   3.3267E-02   3.4076E-02   7.0834E-05  0.1078
   3.4076E-02   3.4905E-02   8.7645E-05  0.0958
   3.4905E-02   3.5755E-02   7.2218E-05  0.1043
   3.5755E-02   3.6625E-02   7.9699E-05  0.0981
   3.6625E-02   3.7516E-02   7.1073E-05  0.1026
   3.7516E-02   3.8428E-02   7.5228E-05  0.0985
   3.8428E-02   3.9363E-02   6.9163E-05  0.1015
   3.9363E-02   4.0321E-02   8.1441E-05  0.0925
   4.0321E-02   4.1302E-02   8.2225E-05  0.0909
   4.1302E-02   4.2307E-02   8.4252E-05  0.0887
   4.2307E-02   4.3337E-02   7.8574E-05  0.0907
   4.3337E-02   4.4391E-02   7.1618E-05  0.0939
   4.4391E-02   4.5471E-02   7.0366E-05  0.0937
   4.5471E-02   4.6577E-02   8.1952E-05  0.0857
   4.6577E-02   4.7711E-02   8.4825E-05  0.0832
   4.7711E-02   4.8871E-02   7.0064E-05  0.0905
   4.8871E-02   5.0061E-02   7.1764E-05  0.0884
   5.0061E-02   5.1279E-02   8.6480E-05  0.0796
   5.1279E-02   5.2526E-02   7.5165E-05  0.0842
   5.2526E-02   5.3804E-02   7.9290E-05  0.0811
   5.3804E-02   5.5113E-02   6.5368E-05  0.0882
   5.5113E-02   5.6454E-02   8.0540E-05  0.0786
   5.6454E-02   5.7828E-02   8.5179E-05  0.0754
   5.7828E-02   5.9235E-02   7.9128E-05  0.0774
   5.9235E-02   6.0676E-02   7.6940E-05  0.0775
   6.0676E-02   6.2152E-02   7.4962E-05  0.0776
   6.2152E-02   6.3665E-02   7.0096E-05  0.0793
   6.3665E-02   6.5214E-02   7.7039E-05  0.0747
   6.5214E-02   6.6800E-02   7.9892E-05  0.0725
   6.6800E-02   6.8426E-02   7.2723E-05  0.0750
   6.8426E-02   7.0090E-02   7.7139E-05  0.0720
   7.0090E-02   7.1796E-02   7.0953E-05  0.0742
   7.1796E-02   7.3543E-02   8.1360E-05  0.0685
   7.3543E-02   7.5332E-02   7.3770E-05  0.0711
   7.5332E-02   7.7165E-02   7.8627E-05  0.0680
   7.7165E-02   7.9042E-02   7.7115E-05  0.0678
   7.9042E-02   8.0965E-02   7.2450E-05  0.0692
   8.0965E-02   8.2935E-02   7.8570E-05  0.0656
   8.2935E-02   8.4953E-02   6.8146E-05  0.0696
   8.4953E-02   8.7020E-02   7.3906E-05  0.0660
   8.7020E-02   8.9138E-02   6.7750E-05  0.0682
   8.9138E-02   9.1306E-02   6.8548E-05  0.0670
   9.1306E-02   9.3528E-02   7.0915E-05  0.0650
   9.3528E-02   9.5804E-02   7.1230E-05  0.0641
   9.5804E-02   9.8134E-02   7.8937E-05  0.0602
   9.8134E-02   1.0052E-01   7.2351E-05  0.0621
   1.0052E-01   1.0297E-01   7.0007E-05  0.0623
   1.0297E-01   1.0547E-01   6.4973E-05  0.0640
   1.0547E-01   1.0804E-01   7.1742E-05  0.0602
   1.0804E-01   1.1067E-01   7.4604E-05  0.0583
   1.1067E-01   1.1336E-01   7.2791E-05  0.0583
   1.1336E-01   1.1612E-01   6.5904E-05  0.0605
   1.1612E-01   1.1894E-01   6.9886E-05  0.0581
   1.1894E-01   1.2184E-01   6.7957E-05  0.0582
   1.2184E-01   1.2480E-01   6.2552E-05  0.0599
   1.2480E-01   1.2784E-01   6.4588E-05  0.0583
   1.2784E-01   1.3095E-01   6.9373E-05  0.0556
   1.3095E-01   1.3414E-01   6.8038E-05  0.0554
   1.3414E-01   1.3740E-01   7.2543E-05  0.0531
   1.3740E-01   1.4074E-01   6.1820E-05  0.0568
   1.4074E-01   1.4417E-01   6.4862E-05  0.0548
   1.4417E-01   1.4767E-01   6.3725E-05  0.0546
   1.4767E-01   1.5127E-01   6.5708E-05  0.0531
   1.5127E-01   1.5495E-01   6.0319E-05  0.0548
   1.5495E-01   1.5872E-01   5.7940E-05  0.0552
   1.5872E-01   1.6258E-01   5.8892E-05  0.0541
   1.6258E-01   1.6654E-01   5.8170E-05  0.0538
   1.6654E-01   1.7059E-01   5.6352E-05  0.0540
   1.7059E-01   1.7474E-01   5.9686E-05  0.0518
   1.7474E-01   1.7899E-01   5.6636E-05  0.0526
   1.7899E-01   1.8334E-01   5.5289E-05  0.0526
   1.8334E-01   1.8781E-01   5.6211E-05  0.0515
   1.8781E-01   1.9237E-01   5.6969E-05  0.0505
   1.9237E-01   1.9706E-01   4.5463E-05  0.0560
   1.9706E-01   2.0185E-01   4.5555E-05  0.0552
   2.0185E-01   2.0676E-01   5.0583E-05  0.0517
   2.0676E-01   2.1179E-01   4.7793E-05  0.0526
   2.1179E-01   2.1694E-01   5.4703E-05  0.0486
   2.1694E-01   2.2222E-01   5.3234E-05  0.0487
   2.2222E-01   2.2763E-01   5.1371E-05  0.0490
   2.2763E-01   2.3317E-01   4.8449E-05  0.0498
   2.3317E-01   2.3884E-01   5.2529E-05  0.0473
   2.3884E-01   2.4465E-01   5.2141E-05  0.0469
   2.4465E-01   2.5061E-01   5.7861E-05  0.0440
   2.5061E-01   2.5670E-01   5.2077E-05  0.0458
   2.5670E-01   2.6295E-01   5.1897E-05  0.0453
   2.6295E-01   2.6935E-01   5.3736E-05  0.0440
   2.6935E-01   2.7590E-01   5.2492E-05  0.0440
   2.7590E-01   2.8261E-01   5.2784E-05  0.0433
   2.8261E-01   2.8949E-01   5.6466E-05  0.0414
   2.8949E-01   2.9653E-01   5.5843E-05  0.0412
   2.9653E-01   3.0375E-01   5.9766E-05  0.0393
   3.0375E-01   3.1114E-01   5.2203E-05  0.0415
   3.1114E-01   3.1871E-01   5.8468E-05  0.0388
   3.1871E-01   3.2646E-01   5.1910E-05  0.0407
   3.2646E-01   3.3441E-01   5.9529E-05  0.0375
   3.3441E-01   3.4254E-01   5.5881E-05  0.0383
   3.4254E-01   3.5088E-01   5.9395E-05  0.0367
   3.5088E-01   3.5941E-01   5.6090E-05  0.0373
   3.5941E-01   3.6816E-01   5.8415E-05  0.0361
   3.6816E-01   3.7712E-01   5.6414E-05  0.0363
   3.7712E-01   3.8629E-01   6.0549E-05  0.0346
   3.8629E-01   3.9569E-01   5.6299E-05  0.0355
   3.9569E-01   4.0532E-01   5.7437E-05  0.0347
   4.0532E-01   4.1518E-01   5.9468E-05  0.0337
   4.1518E-01   4.2528E-01   5.7803E-05  0.0338
   4.2528E-01   4.3563E-01   5.8198E-05  0.0332
   4.3563E-01   4.4623E-01   5.8299E-05  0.0328
   4.4623E-01   4.5708E-01   5.9048E-05  0.0322
   4.5708E-01   4.6821E-01   5.6749E-05  0.0325
   4.6821E-01   4.7960E-01   5.7341E-05  0.0319
   4.7960E-01   4.9127E-01   5.8996E-05  0.0311
   4.9127E-01   5.0322E-01   6.3644E-05  0.0296
   5.0322E-01   5.1546E-01   5.9268E-05  0.0303
   5.1546E-01   5.2800E-01   6.0565E-05  0.0296
   5.2800E-01   5.4085E-01   5.7531E-05  0.0300
   5.4085E-01   5.5401E-01   5.9927E-05  0.0291
   5.5401E-01   5.6749E-01   5.8165E-05  0.0291
   5.6749E-01   5.8130E-01   5.8718E-05  0.0287
   5.8130E-01   5.9544E-01   6.1536E-05  0.0277
   5.9544E-01   6.0993E-01   5.9148E-05  0.0279
   6.0993E-01   6.2477E-01   6.0081E-05  0.0273
   6.2477E-01   6.3997E-01   6.2128E-05  0.0266
   6.3997E-01   6.5554E-01   5.8405E-05  0.0271
   6.5554E-01   6.7149E-01   6.0599E-05  0.0262
   6.7149E-01   6.8783E-01   5.8281E-05  0.0264
   6.8783E-01   7.0456E-01   6.1857E-05  0.0254
   7.0456E-01   7.2171E-01   6.2324E-05  0.0250
   7.2171E-01   7.3927E-01   5.9861E-05  0.0252
   7.3927E-01   7.5725E-01   6.1716E-05  0.0245
   7.5725E-01   7.7568E-01   5.9896E-05  0.0246
   7.7568E-01   7.9455E-01   6.1797E-05  0.0239
   7.9455E-01   8.1388E-01   6.0455E-05  0.0239
   8.1388E-01   8.3368E-01   6.2396E-05  0.0232
   8.3368E-01   8.5397E-01   6.3659E-05  0.0227
   8.5397E-01   8.7475E-01   6.2345E-05  0.0227
   8.7475E-01   8.9603E-01   6.0726E-05  0.0227
   8.9603E-01   9.1783E-01   6.3767E-05  0.0219
   9.1783E-01   9.4016E-01   6.0739E-05  0.0222
   9.4016E-01   9.6304E-01   6.1055E-05  0.0218
   9.6304E-01   9.8647E-01   6.1181E-05  0.0216
   9.8647E-01   1.0105E+00   6.0707E-05  0.0214
   1.0105E+00   1.0351E+00   6.3501E-05  0.0206
   1.0351E+00   1.0602E+00   6.0710E-05  0.0209
   1.0602E+00   1.0860E+00   5.9544E-05  0.0208
   1.0860E+00   1.1125E+00   5.9152E-05  0.0206
   1.1125E+00   1.1395E+00   6.0689E-05  0.0201
   1.1395E+00   1.1673E+00   6.0282E-05  0.0200
   1.1673E+00   1.1957E+00   6.1558E-05  0.0195
   1.1957E+00   1.2247E+00   6.1313E-05  0.0193
   1.2247E+00   1.2545E+00   6.0385E-05  0.0192
   1.2545E+00   1.2851E+00   5.8588E-05  0.0193
   1.2851E+00   1.3163E+00   5.8861E-05  0.0190
   1.3163E+00   1.3484E+00   5.9718E-05  0.0187
   1.3484E+00   1.3812E+00   5.8271E-05  0.0187
   1.3812E+00   1.4148E+00   5.8791E-05  0.0184
   1.4148E+00   1.4492E+00   6.0495E-05  0.0179
   1.4492E+00   1.4845E+00   6.0303E-05  0.0177
   1.4845E+00   1.5206E+00   5.8827E-05  0.0177
   1.5206E+00   1.5576E+00   5.9390E-05  0.0174
   1.5576E+00   1.5955E+00   5.9003E-05  0.0173
   1.5955E+00   1.6343E+00   5.9823E-05  0.0169
   1.6343E+00   1.6741E+00   5.9981E-05  0.0167
   1.6741E+00   1.7148E+00   5.8700E-05  0.0167
   1.7148E+00   1.7565E+00   6.0463E-05  0.0162
   1.7565E+00   1.7992E+00   5.8840E-05  0.0163
   1.7992E+00   1.8430E+00   5.8603E-05  0.0161
   1.8430E+00   1.8879E+00   5.8237E-05  0.0160
   1.8879E+00   1.9338E+00   5.9386E-05  0.0156
   1.9338E+00   1.9808E+00   6.0018E-05  0.0154
   1.9808E+00   2.0290E+00   5.8139E-05  0.0154
   2.0290E+00   2.0784E+00   5.8779E-05  0.0151
   2.0784E+00   2.1290E+00   5.8276E-05  0.0150
   2.1290E+00   2.1808E+00   5.7959E-05  0.0149
   2.1808E+00   2.2338E+00   5.8824E-05  0.0146
   2.2338E+00   2.2882E+00   5.7834E-05  0.0146
   2.2882E+00   2.3439E+00   5.7359E-05  0.0144
   2.3439E+00   2.4009E+00   5.7725E-05  0.0142
   2.4009E+00   2.4593E+00   5.8751E-05  0.0139
   2.4593E+00   2.5191E+00   5.6597E-05  0.0140
   2.5191E+00   2.5804E+00   5.8276E-05  0.0137
   2.5804E+00   2.6432E+00   5.5758E-05  0.0138
   2.6432E+00   2.7075E+00   5.6417E-05  0.0135
   2.7075E+00   2.7734E+00   5.5677E-05  0.0135
   2.7734E+00   2.8409E+00   5.6669E-05  0.0132
   2.8409E+00   2.9100E+00   5.7216E-05  0.0130
   2.9100E+00   2.9808E+00   5.6710E-05  0.0129
   2.9808E+00   3.0533E+00   5.5559E-05  0.0129
   3.0533E+00   3.1276E+00   5.5803E-05  0.0127
   3.1276E+00   3.2037E+00   5.5512E-05  0.0126
   3.2037E+00   3.2817E+00   5.5256E-05  0.0124
   3.2817E+00   3.3615E+00   5.4447E-05  0.0124
   3.3615E+00   3.4433E+00   5.4925E-05  0.0122
   3.4433E+00   3.5271E+00   5.4096E-05  0.0121
   3.5271E+00   3.6129E+00   5.3749E-05  0.0120
   3.6129E+00   3.7008E+00   5.4258E-05  0.0118
   3.7008E+00   3.7908E+00   5.3629E-05  0.0117
   3.7908E+00   3.8831E+00   5.4022E-05  0.0116
   3.8831E+00   3.9776E+00   5.3301E-05  0.0115
   3.9776E+00   4.0743E+00   5.2203E-05  0.0115
   4.0743E+00   4.1735E+00   5.3190E-05  0.0112
   4.1735E+00   4.2750E+00   5.2600E-05  0.0112
   4.2750E+00   4.3790E+00   5.2131E-05  0.0111
   4.3790E+00   4.4856E+00   5.1445E-05  0.0110
   4.4856E+00   4.5947E+00   5.1557E-05  0.0109
   4.5947E+00   4.7065E+00   5.3203E-05  0.0106
   4.7065E+00   4.8210E+00   5.2726E-05  0.0105
   4.8210E+00   4.9383E+00   5.2703E-05  0.0104
   4.9383E+00   5.0585E+00   5.1763E-05  0.0103
   5.0585E+00   5.1815E+00   5.2626E-05  0.0101
   5.1815E+00   5.3076E+00   5.1857E-05  0.0101
   5.3076E+00   5.4368E+00   5.2234E-05  0.0099
   5.4368E+00   5.5690E+00   5.1723E-05  0.0099
   5.5690E+00   5.7045E+00   5.1622E-05  0.0098
   5.7045E+00   5.8433E+00   5.1071E-05  0.0097
   5.8433E+00   5.9855E+00   5.1060E-05  0.0096
   5.9855E+00   6.1311E+00   5.1154E-05  0.0095
   6.1311E+00   6.2803E+00   5.0697E-05  0.0094
   6.2803E+00   6.4331E+00   4.9819E-05  0.0094
   6.4331E+00   6.5896E+00   5.0549E-05  0.0092
   6.5896E+00   6.7500E+00   5.0173E-05  0.0091
   6.7500E+00   6.9142E+00   5.0573E-05  0.0090
   6.9142E+00   7.0824E+00   5.0196E-05  0.0089
   7.0824E+00   7.2548E+00   4.9613E-05  0.0088
   7.2548E+00   7.4313E+00   5.1164E-05  0.0086
   7.4313E+00   7.6121E+00   5.0182E-05  0.0086
   7.6121E+00   7.7973E+00   5.0106E-05  0.0085
   7.7973E+00   7.9870E+00   5.0128E-05  0.0084
   7.9870E+00   8.1813E+00   4.9894E-05  0.0083
   8.1813E+00   8.3804E+00   5.0076E-05  0.0082
   8.3804E+00   8.5843E+00   5.0857E-05  0.0080
   8.5843E+00   8.7931E+00   5.0264E-05  0.0080
   8.7931E+00   9.0071E+00   5.0867E-05  0.0078
   9.0071E+00   9.2262E+00   5.1172E-05  0.0077
   9.2262E+00   9.4507E+00   5.1096E-05  0.0076
   9.4507E+00   9.6807E+00   5.1301E-05  0.0075
   9.6807E+00   9.9162E+00   5.1824E-05  0.0074
   9.9162E+00   1.0157E+01   5.1803E-05  0.0073
   1.0157E+01   1.0405E+01   5.2208E-05  0.0072
   1.0405E+01   1.0658E+01   5.2115E-05  0.0071
   1.0658E+01   1.0917E+01   5.3600E-05  0.0069
   1.0917E+01   1.1183E+01   5.3608E-05  0.0068
   1.1183E+01   1.1455E+01   5.4316E-05  0.0067
   1.1455E+01   1.1733E+01   5.5055E-05  0.0066
   1.1733E+01   1.2019E+01   5.4947E-05  0.0065
   1.2019E+01   1.2311E+01   5.5961E-05  0.0064
   1.2311E+01   1.2611E+01   5.7628E-05  0.0062
   1.2611E+01   1.2918E+01   5.7822E-05  0.0061
   1.2918E+01   1.3232E+01   5.9082E-05  0.0060
   1.3232E+01   1.3554E+01   5.9555E-05  0.0059
   1.3554E+01   1.3884E+01   6.0843E-05  0.0058
   1.3884E+01   1.4222E+01   6.1252E-05  0.0057
   1.4222E+01   1.4568E+01   6.2569E-05  0.0055
   1.4568E+01   1.4922E+01   6.4040E-05  0.0054
   1.4922E+01   1.5285E+01   6.4600E-05  0.0053
   1.5285E+01   1.5657E+01   6.5746E-05  0.0052
   1.5657E+01   1.6038E+01   6.7498E-05  0.0051
   1.6038E+01   1.6428E+01   6.9093E-05  0.0050
   1.6428E+01   1.6828E+01   7.0404E-05  0.0049
   1.6828E+01   1.7237E+01   7.2003E-05  0.0048
   1.7237E+01   1.7657E+01   7.2706E-05  0.0047
   1.7657E+01   1.8086E+01   7.3709E-05  0.0046
   1.8086E+01   1.8526E+01   7.5433E-05  0.0045
   1.8526E+01   1.8977E+01   7.6629E-05  0.0044
   1.8977E+01   1.9439E+01   7.7989E-05  0.0043
   1.9439E+01   1.9912E+01   7.9400E-05  0.0042
   1.9912E+01   2.0396E+01   8.1289E-05  0.0041
   2.0396E+01   2.0893E+01   8.1684E-05  0.0041
   2.0893E+01   2.1401E+01   8.3200E-05  0.0040
   2.1401E+01   2.1922E+01   8.3549E-05  0.0039
   2.1922E+01   2.2455E+01   8.4537E-05  0.0038
   2.2455E+01   2.3001E+01   8.4558E-05  0.0038
   2.3001E+01   2.3561E+01   8.4831E-05  0.0037
   2.3561E+01   2.4134E+01   8.4240E-05  0.0037
   2.4134E+01   2.4721E+01   8.4077E-05  0.0037
   2.4721E+01   2.5323E+01   8.3798E-05  0.0036
   2.5323E+01   2.5939E+01   8.2305E-05  0.0036
   2.5939E+01   2.6570E+01   8.0852E-05  0.0036
   2.6570E+01   2.7217E+01   7.8986E-05  0.0036
   2.7217E+01   2.7879E+01   7.6927E-05  0.0036
   2.7879E+01   2.8557E+01   7.4976E-05  0.0036
   2.8557E+01   2.9252E+01   7.1767E-05  0.0037
   2.9252E+01   2.9964E+01   6.8910E-05  0.0037
   2.9964E+01   3.0693E+01   6.5821E-05  0.0037
   3.0693E+01   3.1440E+01   6.2976E-05  0.0038
   3.1440E+01   3.2205E+01   5.9130E-05  0.0038
   3.2205E+01   3.2988E+01   5.6204E-05  0.0039
   3.2988E+01   3.3791E+01   5.2553E-05  0.0040
   3.3791E+01   3.4613E+01   4.8980E-05  0.0041
   3.4613E+01   3.5455E+01   4.5686E-05  0.0042
   3.5455E+01   3.6318E+01   4.2519E-05  0.0043
   3.6318E+01   3.7201E+01   3.9002E-05  0.0044
   3.7201E+01   3.8106E+01   3.6262E-05  0.0045
   3.8106E+01   3.9034E+01   3.3149E-05  0.0047
   3.9034E+01   3.9983E+01   3.0519E-05  0.0048
   3.9983E+01   4.0956E+01   2.7641E-05  0.0050
   4.0956E+01   4.1953E+01   2.5193E-05  0.0052
   4.1953E+01   4.2973E+01   2.3149E-05  0.0053
   4.2973E+01   4.4019E+01   2.0825E-05  0.0055
   4.4019E+01   4.5090E+01   1.9061E-05  0.0057
   4.5090E+01   4.6187E+01   1.7990E-05  0.0058
   4.6187E+01   4.7311E+01   1.6696E-05  0.0060
   4.7311E+01   4.8462E+01   1.5599E-05  0.0061
   4.8462E+01   4.9641E+01   1.4556E-05  0.0062
   4.9641E+01   5.0849E+01   1.3587E-05  0.0064
   5.0849E+01   5.2086E+01   1.2545E-05  0.0066
   5.2086E+01   5.3353E+01   1.2017E-05  0.0066
   5.3353E+01   5.4651E+01   1.1433E-05  0.0067
   5.4651E+01   5.5981E+01   1.0874E-05  0.0068
   5.5981E+01   5.7343E+01   9.8067E-06  0.0071
   5.7343E+01   5.8738E+01   9.4065E-06  0.0071
   5.8738E+01   6.0168E+01   9.0963E-06  0.0072
   6.0168E+01   6.1632E+01   8.2304E-06  0.0074
   6.1632E+01   6.3131E+01   7.3769E-06  0.0078
   6.3131E+01   6.4667E+01   6.5112E-06  0.0082
   6.4667E+01   6.6240E+01   4.9684E-06  0.0092
   6.6240E+01   6.7852E+01   3.5114E-06  0.0109
   6.7852E+01   6.9503E+01   2.0344E-06  0.0141
   6.9503E+01   7.1194E+01   9.0712E-07  0.0208
   7.1194E+01   7.2926E+01   3.3637E-07  0.0338
   7.2926E+01   7.4701E+01   2.5549E-08  0.1213
   7.4701E+01   7.6518E+01   0.0000E+00  0.0000
   7.6518E+01   7.8380E+01   0.0000E+00  0.0000
   7.8380E+01   8.0287E+01   0.0000E+00  0.0000
   8.0287E+01   8.2240E+01   0.0000E+00  0.0000
   8.2240E+01   8.4241E+01   0.0000E+00  0.0000
   8.4241E+01   8.6291E+01   0.0000E+00  0.0000
   8.6291E+01   8.8391E+01   0.0000E+00  0.0000
   8.8391E+01   9.0541E+01   0.0000E+00  0.0000
   9.0541E+01   9.2744E+01   0.0000E+00  0.0000
   9.2744E+01   9.5001E+01   0.0000E+00  0.0000
   9.5001E+01   9.7312E+01   0.0000E+00  0.0000
   9.7312E+01   9.9680E+01   0.0000E+00  0.0000
   9.9680E+01   1.0211E+02   0.0000E+00  0.0000
   1.0211E+02   1.0459E+02   0.0000E+00  0.0000
   1.0459E+02   1.0713E+02   0.0000E+00  0.0000
   1.0713E+02   1.0974E+02   0.0000E+00  0.0000
   1.0974E+02   1.1241E+02   0.0000E+00  0.0000
   1.1241E+02   1.1515E+02   0.0000E+00  0.0000
   1.1515E+02   1.1795E+02   0.0000E+00  0.0000
   1.1795E+02   1.2082E+02   0.0000E+00  0.0000
   1.2082E+02   1.2376E+02   0.0000E+00  0.0000
   1.2376E+02   1.2677E+02   0.0000E+00  0.0000
   1.2677E+02   1.2985E+02   0.0000E+00  0.0000
   1.2985E+02   1.3301E+02   0.0000E+00  0.0000
   1.3301E+02   1.3625E+02   0.0000E+00  0.0000
   1.3625E+02   1.3956E+02   0.0000E+00  0.0000
   1.3956E+02   1.4296E+02   0.0000E+00  0.0000
   1.4296E+02   1.4644E+02   0.0000E+00  0.0000
   1.4644E+02   1.5000E+02   0.0000E+00  0.0000

#   sum over                 1.8779E-05
'no. =    1   reg = 105 - 205'
msuc: {\huge [t-cross] in region mesh}
msdr: {\it plotted by \ANGEL \version}
msdl: {\it calculated by \PHITS  3.26}
wt: s(0.7)
\vspace{-3}
  region surface crossing
  area  &=&   1.0000E+00 [cm^2]
e:
 
# Information for Restart Calculation
# This calculation was newly started
# istdev =  2 # 1:Batch variance, 2:History variance
# resc2  = 1.50000000000000000E+09 # Total source weight or Total source weight / maxcas
# resc3  = 1.50000000000000000E+09 # Total history number or Total batch number
# maxcas =   500000000 # History / Batch, only used for istdev=1
# bitrseed = 0000010101110101110110100110011001100101000001100111100100101101 # bit data of rseed
