[ T-Cross ]
    title = [t-cross] in region mesh
     mesh =  reg            # mesh type is region-wise
      reg =    1            # number of crossing regions
      non     r-from    r-to       area
      1       110       210        1.000000    
   e-type =    3            # e-mesh is log given by emin, emax and ne
     emin =  1.0000000E-02  # minimum value of e-mesh points
     emax =   150.0000      # maximum value of e-mesh points
#    edel =  2.4039514E-02  # mesh width of e-mesh points
       ne =    400          # number of e-mesh points
#    data = ( e(i), i = 1, ne + 1 )
#           1.00000E-02  1.02433E-02  1.04925E-02  1.07478E-02  1.10093E-02
#           1.12772E-02  1.15516E-02  1.18326E-02  1.21205E-02  1.24154E-02
#           1.27175E-02  1.30269E-02  1.33439E-02  1.36686E-02  1.40011E-02
#           1.43418E-02  1.46907E-02  1.50482E-02  1.54143E-02  1.57894E-02
#           1.61735E-02  1.65670E-02  1.69701E-02  1.73830E-02  1.78060E-02
#           1.82392E-02  1.86830E-02  1.91375E-02  1.96032E-02  2.00801E-02
#           2.05687E-02  2.10692E-02  2.15818E-02  2.21069E-02  2.26448E-02
#           2.31957E-02  2.37601E-02  2.43382E-02  2.49304E-02  2.55369E-02
#           2.61583E-02  2.67947E-02  2.74467E-02  2.81145E-02  2.87985E-02
#           2.94992E-02  3.02169E-02  3.09521E-02  3.17052E-02  3.24766E-02
#           3.32668E-02  3.40762E-02  3.49053E-02  3.57546E-02  3.66246E-02
#           3.75157E-02  3.84284E-02  3.93634E-02  4.03212E-02  4.13022E-02
#           4.23071E-02  4.33365E-02  4.43909E-02  4.54710E-02  4.65773E-02
#           4.77106E-02  4.88714E-02  5.00605E-02  5.12785E-02  5.25262E-02
#           5.38042E-02  5.51133E-02  5.64542E-02  5.78278E-02  5.92348E-02
#           6.06760E-02  6.21523E-02  6.36645E-02  6.52135E-02  6.68002E-02
#           6.84255E-02  7.00904E-02  7.17957E-02  7.35426E-02  7.53319E-02
#           7.71648E-02  7.90423E-02  8.09655E-02  8.29354E-02  8.49533E-02
#           8.70203E-02  8.91376E-02  9.13064E-02  9.35279E-02  9.58035E-02
#           9.81345E-02  1.00522E-01  1.02968E-01  1.05473E-01  1.08040E-01
#           1.10668E-01  1.13361E-01  1.16119E-01  1.18944E-01  1.21838E-01
#           1.24803E-01  1.27839E-01  1.30950E-01  1.34136E-01  1.37399E-01
#           1.40742E-01  1.44167E-01  1.47675E-01  1.51268E-01  1.54948E-01
#           1.58718E-01  1.62580E-01  1.66535E-01  1.70587E-01  1.74738E-01
#           1.78989E-01  1.83344E-01  1.87805E-01  1.92375E-01  1.97055E-01
#           2.01850E-01  2.06761E-01  2.11792E-01  2.16945E-01  2.22223E-01
#           2.27630E-01  2.33169E-01  2.38842E-01  2.44653E-01  2.50605E-01
#           2.56703E-01  2.62949E-01  2.69346E-01  2.75900E-01  2.82613E-01
#           2.89489E-01  2.96532E-01  3.03747E-01  3.11138E-01  3.18708E-01
#           3.26462E-01  3.34405E-01  3.42542E-01  3.50876E-01  3.59413E-01
#           3.68158E-01  3.77116E-01  3.86291E-01  3.95690E-01  4.05317E-01
#           4.15179E-01  4.25281E-01  4.35628E-01  4.46227E-01  4.57084E-01
#           4.68205E-01  4.79597E-01  4.91266E-01  5.03219E-01  5.15463E-01
#           5.28005E-01  5.40851E-01  5.54011E-01  5.67490E-01  5.81298E-01
#           5.95441E-01  6.09929E-01  6.24769E-01  6.39970E-01  6.55541E-01
#           6.71491E-01  6.87828E-01  7.04564E-01  7.21706E-01  7.39266E-01
#           7.57253E-01  7.75678E-01  7.94551E-01  8.13883E-01  8.33685E-01
#           8.53969E-01  8.74747E-01  8.96030E-01  9.17831E-01  9.40163E-01
#           9.63038E-01  9.86469E-01  1.01047E+00  1.03506E+00  1.06024E+00
#           1.08604E+00  1.11246E+00  1.13953E+00  1.16725E+00  1.19565E+00
#           1.22474E+00  1.25454E+00  1.28507E+00  1.31633E+00  1.34836E+00
#           1.38117E+00  1.41477E+00  1.44920E+00  1.48446E+00  1.52057E+00
#           1.55757E+00  1.59547E+00  1.63429E+00  1.67405E+00  1.71478E+00
#           1.75650E+00  1.79924E+00  1.84302E+00  1.88786E+00  1.93379E+00
#           1.98084E+00  2.02904E+00  2.07841E+00  2.12898E+00  2.18078E+00
#           2.23384E+00  2.28819E+00  2.34386E+00  2.40089E+00  2.45930E+00
#           2.51914E+00  2.58043E+00  2.64322E+00  2.70753E+00  2.77341E+00
#           2.84088E+00  2.91001E+00  2.98081E+00  3.05333E+00  3.12762E+00
#           3.20372E+00  3.28167E+00  3.36152E+00  3.44330E+00  3.52708E+00
#           3.61290E+00  3.70080E+00  3.79085E+00  3.88308E+00  3.97756E+00
#           4.07434E+00  4.17347E+00  4.27501E+00  4.37903E+00  4.48557E+00
#           4.59471E+00  4.70650E+00  4.82102E+00  4.93832E+00  5.05847E+00
#           5.18155E+00  5.30762E+00  5.43676E+00  5.56904E+00  5.70453E+00
#           5.84333E+00  5.98550E+00  6.13114E+00  6.28031E+00  6.43312E+00
#           6.58964E+00  6.74997E+00  6.91420E+00  7.08243E+00  7.25475E+00
#           7.43126E+00  7.61207E+00  7.79728E+00  7.98700E+00  8.18133E+00
#           8.38038E+00  8.58428E+00  8.79315E+00  9.00709E+00  9.22624E+00
#           9.45072E+00  9.68067E+00  9.91620E+00  1.01575E+01  1.04046E+01
#           1.06578E+01  1.09171E+01  1.11827E+01  1.14548E+01  1.17335E+01
#           1.20190E+01  1.23114E+01  1.26109E+01  1.29178E+01  1.32321E+01
#           1.35540E+01  1.38838E+01  1.42216E+01  1.45676E+01  1.49221E+01
#           1.52851E+01  1.56570E+01  1.60380E+01  1.64282E+01  1.68279E+01
#           1.72374E+01  1.76568E+01  1.80864E+01  1.85264E+01  1.89772E+01
#           1.94389E+01  1.99119E+01  2.03963E+01  2.08926E+01  2.14009E+01
#           2.19216E+01  2.24550E+01  2.30014E+01  2.35610E+01  2.41343E+01
#           2.47215E+01  2.53230E+01  2.59391E+01  2.65702E+01  2.72167E+01
#           2.78789E+01  2.85572E+01  2.92520E+01  2.99637E+01  3.06928E+01
#           3.14396E+01  3.22045E+01  3.29881E+01  3.37907E+01  3.46128E+01
#           3.54550E+01  3.63177E+01  3.72013E+01  3.81064E+01  3.90336E+01
#           3.99833E+01  4.09561E+01  4.19526E+01  4.29734E+01  4.40189E+01
#           4.50900E+01  4.61870E+01  4.73108E+01  4.84619E+01  4.96410E+01
#           5.08488E+01  5.20860E+01  5.33533E+01  5.46514E+01  5.59812E+01
#           5.73432E+01  5.87384E+01  6.01676E+01  6.16315E+01  6.31311E+01
#           6.46671E+01  6.62405E+01  6.78522E+01  6.95031E+01  7.11941E+01
#           7.29263E+01  7.47007E+01  7.65182E+01  7.83800E+01  8.02870E+01
#           8.22405E+01  8.42414E+01  8.62911E+01  8.83906E+01  9.05412E+01
#           9.27442E+01  9.50007E+01  9.73122E+01  9.96799E+01  1.02105E+02
#           1.04589E+02  1.07134E+02  1.09741E+02  1.12411E+02  1.15146E+02
#           1.17948E+02  1.20817E+02  1.23757E+02  1.26768E+02  1.29852E+02
#           1.33012E+02  1.36248E+02  1.39563E+02  1.42959E+02  1.46437E+02
#           1.50000E+02
     unit =    2            # unit is [1/cm^2/(MeV/n)/source]
     axis =  eng            # axis of output
     file = detector-11.out  # file name of output for the above axis
   output = f-curr          # surface crossing forward current spectrum
     part =  neutron  
# kf/name :  2112     
#    used :        main (  %)        temp (  %)       total (  %)
#  memory :         414 (  0)           0 (  0)         414 (  0)

#------------------------------------------------------------------------------
#newpage:
#   no. =    1   reg = 110 - 210

x: Energy [MeV/n]
y:  F-Curr [1/cm^2/(MeV/n)/source]         
p: xlog ylog afac(0.8) form(0.9)
h: n            x            y(neutron ),hh0l   n 
#  e-lower      e-upper      neutron     r.err 
   1.0000E-02   1.0243E-02   2.5520E-04  0.1036
   1.0243E-02   1.0493E-02   2.0062E-04  0.1155
   1.0493E-02   1.0748E-02   2.2458E-04  0.1078
   1.0748E-02   1.1009E-02   2.2434E-04  0.1066
   1.1009E-02   1.1277E-02   2.4639E-04  0.1005
   1.1277E-02   1.1552E-02   2.3325E-04  0.1021
   1.1552E-02   1.1833E-02   2.4669E-04  0.0981
   1.1833E-02   1.2121E-02   2.2527E-04  0.1013
   1.2121E-02   1.2415E-02   2.2606E-04  0.1000
   1.2415E-02   1.2718E-02   2.4497E-04  0.0949
   1.2718E-02   1.3027E-02   2.2192E-04  0.0995
   1.3027E-02   1.3344E-02   3.2602E-04  0.0803
   1.3344E-02   1.3669E-02   2.1766E-04  0.0971
   1.3669E-02   1.4001E-02   2.4857E-04  0.0898
   1.4001E-02   1.4342E-02   2.6302E-04  0.0862
   1.4342E-02   1.4691E-02   2.5601E-04  0.0864
   1.4691E-02   1.5048E-02   2.3314E-04  0.0894
   1.5048E-02   1.5414E-02   2.5856E-04  0.0839
   1.5414E-02   1.5789E-02   2.7908E-04  0.0798
   1.5789E-02   1.6174E-02   2.3080E-04  0.0867
   1.6174E-02   1.6567E-02   2.7106E-04  0.0791
   1.6567E-02   1.6970E-02   2.5966E-04  0.0798
   1.6970E-02   1.7383E-02   2.2282E-04  0.0851
   1.7383E-02   1.7806E-02   2.4747E-04  0.0798
   1.7806E-02   1.8239E-02   2.4775E-04  0.0788
   1.8239E-02   1.8683E-02   2.6139E-04  0.0758
   1.8683E-02   1.9138E-02   2.4785E-04  0.0769
   1.9138E-02   1.9603E-02   2.5485E-04  0.0750
   1.9603E-02   2.0080E-02   2.6624E-04  0.0724
   2.0080E-02   2.0569E-02   2.6131E-04  0.0722
   2.0569E-02   2.1069E-02   2.3312E-04  0.0756
   2.1069E-02   2.1582E-02   2.7570E-04  0.0687
   2.1582E-02   2.2107E-02   2.7677E-04  0.0677
   2.2107E-02   2.2645E-02   2.9251E-04  0.0651
   2.2645E-02   2.3196E-02   2.5410E-04  0.0690
   2.3196E-02   2.3760E-02   2.8705E-04  0.0642
   2.3760E-02   2.4338E-02   2.4794E-04  0.0682
   2.4338E-02   2.4930E-02   2.5443E-04  0.0665
   2.4930E-02   2.5537E-02   2.7713E-04  0.0630
   2.5537E-02   2.6158E-02   2.3889E-04  0.0670
   2.6158E-02   2.6795E-02   2.4616E-04  0.0652
   2.6795E-02   2.7447E-02   2.5514E-04  0.0633
   2.7447E-02   2.8114E-02   2.6386E-04  0.0615
   2.8114E-02   2.8799E-02   2.6850E-04  0.0602
   2.8799E-02   2.9499E-02   2.7705E-04  0.0586
   2.9499E-02   3.0217E-02   2.7308E-04  0.0583
   3.0217E-02   3.0952E-02   2.4483E-04  0.0609
   3.0952E-02   3.1705E-02   3.0010E-04  0.0543
   3.1705E-02   3.2477E-02   2.7064E-04  0.0565
   3.2477E-02   3.3267E-02   2.7097E-04  0.0558
   3.3267E-02   3.4076E-02   2.6163E-04  0.0561
   3.4076E-02   3.4905E-02   2.5761E-04  0.0558
   3.4905E-02   3.5755E-02   2.7222E-04  0.0536
   3.5755E-02   3.6625E-02   2.8355E-04  0.0520
   3.6625E-02   3.7516E-02   2.3491E-04  0.0564
   3.7516E-02   3.8428E-02   2.6230E-04  0.0528
   3.8428E-02   3.9363E-02   2.7451E-04  0.0510
   3.9363E-02   4.0321E-02   2.6391E-04  0.0513
   4.0321E-02   4.1302E-02   2.9855E-04  0.0477
   4.1302E-02   4.2307E-02   2.6479E-04  0.0500
   4.2307E-02   4.3337E-02   2.6492E-04  0.0494
   4.3337E-02   4.4391E-02   2.4700E-04  0.0506
   4.4391E-02   4.5471E-02   2.6665E-04  0.0481
   4.5471E-02   4.6577E-02   2.7457E-04  0.0468
   4.6577E-02   4.7711E-02   2.5216E-04  0.0483
   4.7711E-02   4.8871E-02   2.5912E-04  0.0471
   4.8871E-02   5.0061E-02   2.5927E-04  0.0465
   5.0061E-02   5.1279E-02   2.6456E-04  0.0455
   5.1279E-02   5.2526E-02   2.5096E-04  0.0461
   5.2526E-02   5.3804E-02   2.4883E-04  0.0458
   5.3804E-02   5.5113E-02   2.7245E-04  0.0432
   5.5113E-02   5.6454E-02   2.5971E-04  0.0437
   5.6454E-02   5.7828E-02   2.8384E-04  0.0413
   5.7828E-02   5.9235E-02   2.6912E-04  0.0419
   5.9235E-02   6.0676E-02   2.9619E-04  0.0395
   6.0676E-02   6.2152E-02   2.5476E-04  0.0421
   6.2152E-02   6.3665E-02   2.7204E-04  0.0402
   6.3665E-02   6.5214E-02   2.7179E-04  0.0398
   6.5214E-02   6.6800E-02   2.8604E-04  0.0383
   6.6800E-02   6.8426E-02   2.5712E-04  0.0399
   6.8426E-02   7.0090E-02   2.7048E-04  0.0385
   7.0090E-02   7.1796E-02   2.6948E-04  0.0381
   7.1796E-02   7.3543E-02   2.5010E-04  0.0390
   7.3543E-02   7.5332E-02   2.4063E-04  0.0393
   7.5332E-02   7.7165E-02   2.7257E-04  0.0365
   7.7165E-02   7.9042E-02   2.7145E-04  0.0361
   7.9042E-02   8.0965E-02   2.6957E-04  0.0358
   8.0965E-02   8.2935E-02   2.5527E-04  0.0364
   8.2935E-02   8.4953E-02   2.5494E-04  0.0360
   8.4953E-02   8.7020E-02   2.5416E-04  0.0356
   8.7020E-02   8.9138E-02   2.6246E-04  0.0346
   8.9138E-02   9.1306E-02   2.6180E-04  0.0343
   9.1306E-02   9.3528E-02   2.5264E-04  0.0344
   9.3528E-02   9.5804E-02   2.4583E-04  0.0345
   9.5804E-02   9.8134E-02   2.5826E-04  0.0333
   9.8134E-02   1.0052E-01   2.5496E-04  0.0331
   1.0052E-01   1.0297E-01   2.5037E-04  0.0330
   1.0297E-01   1.0547E-01   2.4143E-04  0.0332
   1.0547E-01   1.0804E-01   2.4648E-04  0.0325
   1.0804E-01   1.1067E-01   2.4455E-04  0.0322
   1.1067E-01   1.1336E-01   2.4352E-04  0.0319
   1.1336E-01   1.1612E-01   2.4753E-04  0.0312
   1.1612E-01   1.1894E-01   2.3975E-04  0.0314
   1.1894E-01   1.2184E-01   2.4475E-04  0.0307
   1.2184E-01   1.2480E-01   2.3575E-04  0.0309
   1.2480E-01   1.2784E-01   2.3143E-04  0.0308
   1.2784E-01   1.3095E-01   2.2761E-04  0.0307
   1.3095E-01   1.3414E-01   2.1813E-04  0.0310
   1.3414E-01   1.3740E-01   2.2304E-04  0.0302
   1.3740E-01   1.4074E-01   2.3489E-04  0.0291
   1.4074E-01   1.4417E-01   2.2333E-04  0.0295
   1.4417E-01   1.4767E-01   2.2962E-04  0.0288
   1.4767E-01   1.5127E-01   2.0817E-04  0.0298
   1.5127E-01   1.5495E-01   2.1231E-04  0.0292
   1.5495E-01   1.5872E-01   2.0553E-04  0.0293
   1.5872E-01   1.6258E-01   2.1347E-04  0.0284
   1.6258E-01   1.6654E-01   1.9332E-04  0.0295
   1.6654E-01   1.7059E-01   1.8687E-04  0.0297
   1.7059E-01   1.7474E-01   1.9994E-04  0.0283
   1.7474E-01   1.7899E-01   1.8626E-04  0.0290
   1.7899E-01   1.8334E-01   1.9273E-04  0.0282
   1.8334E-01   1.8781E-01   1.7786E-04  0.0290
   1.8781E-01   1.9237E-01   1.7583E-04  0.0288
   1.9237E-01   1.9706E-01   1.8065E-04  0.0281
   1.9706E-01   2.0185E-01   1.6848E-04  0.0287
   2.0185E-01   2.0676E-01   1.6849E-04  0.0283
   2.0676E-01   2.1179E-01   1.7270E-04  0.0277
   2.1179E-01   2.1694E-01   1.7433E-04  0.0272
   2.1694E-01   2.2222E-01   1.7837E-04  0.0266
   2.2222E-01   2.2763E-01   1.8811E-04  0.0256
   2.2763E-01   2.3317E-01   1.9848E-04  0.0246
   2.3317E-01   2.3884E-01   1.9486E-04  0.0245
   2.3884E-01   2.4465E-01   1.9800E-04  0.0241
   2.4465E-01   2.5061E-01   1.9555E-04  0.0239
   2.5061E-01   2.5670E-01   2.0520E-04  0.0231
   2.5670E-01   2.6295E-01   2.0598E-04  0.0228
   2.6295E-01   2.6935E-01   2.0470E-04  0.0226
   2.6935E-01   2.7590E-01   2.1955E-04  0.0215
   2.7590E-01   2.8261E-01   2.2171E-04  0.0211
   2.8261E-01   2.8949E-01   2.2927E-04  0.0206
   2.8949E-01   2.9653E-01   2.1591E-04  0.0209
   2.9653E-01   3.0375E-01   2.3187E-04  0.0199
   3.0375E-01   3.1114E-01   2.3062E-04  0.0198
   3.1114E-01   3.1871E-01   2.3229E-04  0.0195
   3.1871E-01   3.2646E-01   2.3974E-04  0.0189
   3.2646E-01   3.3441E-01   2.3362E-04  0.0190
   3.3441E-01   3.4254E-01   2.3469E-04  0.0187
   3.4254E-01   3.5088E-01   2.3904E-04  0.0183
   3.5088E-01   3.5941E-01   2.5478E-04  0.0175
   3.5941E-01   3.6816E-01   2.5209E-04  0.0174
   3.6816E-01   3.7712E-01   2.5138E-04  0.0172
   3.7712E-01   3.8629E-01   2.5927E-04  0.0167
   3.8629E-01   3.9569E-01   2.5239E-04  0.0168
   3.9569E-01   4.0532E-01   2.6785E-04  0.0161
   4.0532E-01   4.1518E-01   2.6990E-04  0.0158
   4.1518E-01   4.2528E-01   2.6675E-04  0.0157
   4.2528E-01   4.3563E-01   2.6780E-04  0.0155
   4.3563E-01   4.4623E-01   2.7474E-04  0.0151
   4.4623E-01   4.5708E-01   2.8767E-04  0.0146
   4.5708E-01   4.6821E-01   2.7673E-04  0.0147
   4.6821E-01   4.7960E-01   2.8594E-04  0.0143
   4.7960E-01   4.9127E-01   2.9184E-04  0.0140
   4.9127E-01   5.0322E-01   2.9048E-04  0.0138
   5.0322E-01   5.1546E-01   2.9605E-04  0.0136
   5.1546E-01   5.2800E-01   2.8526E-04  0.0136
   5.2800E-01   5.4085E-01   2.9713E-04  0.0132
   5.4085E-01   5.5401E-01   2.9363E-04  0.0131
   5.5401E-01   5.6749E-01   2.9978E-04  0.0128
   5.6749E-01   5.8130E-01   3.0609E-04  0.0125
   5.8130E-01   5.9544E-01   3.0164E-04  0.0125
   5.9544E-01   6.0993E-01   3.0974E-04  0.0122
   6.0993E-01   6.2477E-01   3.1477E-04  0.0119
   6.2477E-01   6.3997E-01   3.0705E-04  0.0119
   6.3997E-01   6.5554E-01   3.2132E-04  0.0115
   6.5554E-01   6.7149E-01   3.1951E-04  0.0114
   6.7149E-01   6.8783E-01   3.2233E-04  0.0112
   6.8783E-01   7.0456E-01   3.2139E-04  0.0111
   7.0456E-01   7.2171E-01   3.2062E-04  0.0110
   7.2171E-01   7.3927E-01   3.2452E-04  0.0108
   7.3927E-01   7.5725E-01   3.1616E-04  0.0108
   7.5725E-01   7.7568E-01   3.2501E-04  0.0105
   7.7568E-01   7.9455E-01   3.2589E-04  0.0104
   7.9455E-01   8.1388E-01   3.2441E-04  0.0103
   8.1388E-01   8.3368E-01   3.3453E-04  0.0100
   8.3368E-01   8.5397E-01   3.3657E-04  0.0099
   8.5397E-01   8.7475E-01   3.3161E-04  0.0098
   8.7475E-01   8.9603E-01   3.2803E-04  0.0098
   8.9603E-01   9.1783E-01   3.3246E-04  0.0096
   9.1783E-01   9.4016E-01   3.2916E-04  0.0095
   9.4016E-01   9.6304E-01   3.3366E-04  0.0093
   9.6304E-01   9.8647E-01   3.2864E-04  0.0093
   9.8647E-01   1.0105E+00   3.1600E-04  0.0094
   1.0105E+00   1.0351E+00   3.1855E-04  0.0092
   1.0351E+00   1.0602E+00   3.2184E-04  0.0091
   1.0602E+00   1.0860E+00   3.2126E-04  0.0090
   1.0860E+00   1.1125E+00   3.2137E-04  0.0089
   1.1125E+00   1.1395E+00   3.2318E-04  0.0087
   1.1395E+00   1.1673E+00   3.3229E-04  0.0085
   1.1673E+00   1.1957E+00   3.2873E-04  0.0084
   1.1957E+00   1.2247E+00   3.3690E-04  0.0082
   1.2247E+00   1.2545E+00   3.4005E-04  0.0081
   1.2545E+00   1.2851E+00   3.3340E-04  0.0081
   1.2851E+00   1.3163E+00   3.3497E-04  0.0080
   1.3163E+00   1.3484E+00   3.3838E-04  0.0078
   1.3484E+00   1.3812E+00   3.3809E-04  0.0077
   1.3812E+00   1.4148E+00   3.4119E-04  0.0076
   1.4148E+00   1.4492E+00   3.3939E-04  0.0075
   1.4492E+00   1.4845E+00   3.3912E-04  0.0075
   1.4845E+00   1.5206E+00   3.4381E-04  0.0073
   1.5206E+00   1.5576E+00   3.3973E-04  0.0073
   1.5576E+00   1.5955E+00   3.4185E-04  0.0072
   1.5955E+00   1.6343E+00   3.3682E-04  0.0071
   1.6343E+00   1.6741E+00   3.3510E-04  0.0071
   1.6741E+00   1.7148E+00   3.3463E-04  0.0070
   1.7148E+00   1.7565E+00   3.3563E-04  0.0069
   1.7565E+00   1.7992E+00   3.3533E-04  0.0068
   1.7992E+00   1.8430E+00   3.3458E-04  0.0067
   1.8430E+00   1.8879E+00   3.3072E-04  0.0067
   1.8879E+00   1.9338E+00   3.2613E-04  0.0067
   1.9338E+00   1.9808E+00   3.2848E-04  0.0066
   1.9808E+00   2.0290E+00   3.2381E-04  0.0065
   2.0290E+00   2.0784E+00   3.2294E-04  0.0065
   2.0784E+00   2.1290E+00   3.2006E-04  0.0064
   2.1290E+00   2.1808E+00   3.1292E-04  0.0064
   2.1808E+00   2.2338E+00   3.1520E-04  0.0063
   2.2338E+00   2.2882E+00   3.0772E-04  0.0063
   2.2882E+00   2.3439E+00   3.0648E-04  0.0062
   2.3439E+00   2.4009E+00   2.9850E-04  0.0062
   2.4009E+00   2.4593E+00   3.0044E-04  0.0062
   2.4593E+00   2.5191E+00   2.9664E-04  0.0061
   2.5191E+00   2.5804E+00   2.9583E-04  0.0061
   2.5804E+00   2.6432E+00   2.8921E-04  0.0061
   2.6432E+00   2.7075E+00   2.8908E-04  0.0060
   2.7075E+00   2.7734E+00   2.8403E-04  0.0060
   2.7734E+00   2.8409E+00   2.8160E-04  0.0059
   2.8409E+00   2.9100E+00   2.8012E-04  0.0059
   2.9100E+00   2.9808E+00   2.7435E-04  0.0059
   2.9808E+00   3.0533E+00   2.7032E-04  0.0058
   3.0533E+00   3.1276E+00   2.6825E-04  0.0058
   3.1276E+00   3.2037E+00   2.6642E-04  0.0057
   3.2037E+00   3.2817E+00   2.6018E-04  0.0057
   3.2817E+00   3.3615E+00   2.5974E-04  0.0057
   3.3615E+00   3.4433E+00   2.5512E-04  0.0056
   3.4433E+00   3.5271E+00   2.4992E-04  0.0056
   3.5271E+00   3.6129E+00   2.4362E-04  0.0056
   3.6129E+00   3.7008E+00   2.4320E-04  0.0056
   3.7008E+00   3.7908E+00   2.3955E-04  0.0056
   3.7908E+00   3.8831E+00   2.3576E-04  0.0055
   3.8831E+00   3.9776E+00   2.3184E-04  0.0055
   3.9776E+00   4.0743E+00   2.2957E-04  0.0055
   4.0743E+00   4.1735E+00   2.2766E-04  0.0054
   4.1735E+00   4.2750E+00   2.2353E-04  0.0054
   4.2750E+00   4.3790E+00   2.2230E-04  0.0054
   4.3790E+00   4.4856E+00   2.2176E-04  0.0053
   4.4856E+00   4.5947E+00   2.1811E-04  0.0053
   4.5947E+00   4.7065E+00   2.1882E-04  0.0052
   4.7065E+00   4.8210E+00   2.1499E-04  0.0052
   4.8210E+00   4.9383E+00   2.1342E-04  0.0052
   4.9383E+00   5.0585E+00   2.0989E-04  0.0051
   5.0585E+00   5.1815E+00   2.0849E-04  0.0051
   5.1815E+00   5.3076E+00   2.0478E-04  0.0051
   5.3076E+00   5.4368E+00   1.9903E-04  0.0051
   5.4368E+00   5.5690E+00   1.9381E-04  0.0051
   5.5690E+00   5.7045E+00   1.9028E-04  0.0051
   5.7045E+00   5.8433E+00   1.8846E-04  0.0050
   5.8433E+00   5.9855E+00   1.8365E-04  0.0051
   5.9855E+00   6.1311E+00   1.7848E-04  0.0051
   6.1311E+00   6.2803E+00   1.7666E-04  0.0050
   6.2803E+00   6.4331E+00   1.7230E-04  0.0050
   6.4331E+00   6.5896E+00   1.7009E-04  0.0050
   6.5896E+00   6.7500E+00   1.6531E-04  0.0050
   6.7500E+00   6.9142E+00   1.6086E-04  0.0050
   6.9142E+00   7.0824E+00   1.5623E-04  0.0050
   7.0824E+00   7.2548E+00   1.5466E-04  0.0050
   7.2548E+00   7.4313E+00   1.5122E-04  0.0050
   7.4313E+00   7.6121E+00   1.4648E-04  0.0050
   7.6121E+00   7.7973E+00   1.4253E-04  0.0050
   7.7973E+00   7.9870E+00   1.3889E-04  0.0050
   7.9870E+00   8.1813E+00   1.3528E-04  0.0050
   8.1813E+00   8.3804E+00   1.3102E-04  0.0051
   8.3804E+00   8.5843E+00   1.2584E-04  0.0051
   8.5843E+00   8.7931E+00   1.2364E-04  0.0051
   8.7931E+00   9.0071E+00   1.2057E-04  0.0051
   9.0071E+00   9.2262E+00   1.1620E-04  0.0051
   9.2262E+00   9.4507E+00   1.1284E-04  0.0051
   9.4507E+00   9.6807E+00   1.0856E-04  0.0052
   9.6807E+00   9.9162E+00   1.0581E-04  0.0052
   9.9162E+00   1.0157E+01   1.0244E-04  0.0052
   1.0157E+01   1.0405E+01   1.0069E-04  0.0052
   1.0405E+01   1.0658E+01   9.6084E-05  0.0052
   1.0658E+01   1.0917E+01   9.3856E-05  0.0052
   1.0917E+01   1.1183E+01   9.0553E-05  0.0053
   1.1183E+01   1.1455E+01   8.8414E-05  0.0053
   1.1455E+01   1.1733E+01   8.4791E-05  0.0053
   1.1733E+01   1.2019E+01   8.1466E-05  0.0054
   1.2019E+01   1.2311E+01   7.9953E-05  0.0053
   1.2311E+01   1.2611E+01   7.6166E-05  0.0054
   1.2611E+01   1.2918E+01   7.2973E-05  0.0055
   1.2918E+01   1.3232E+01   7.1185E-05  0.0055
   1.3232E+01   1.3554E+01   6.8674E-05  0.0055
   1.3554E+01   1.3884E+01   6.5177E-05  0.0056
   1.3884E+01   1.4222E+01   6.2815E-05  0.0056
   1.4222E+01   1.4568E+01   6.0285E-05  0.0057
   1.4568E+01   1.4922E+01   5.8488E-05  0.0057
   1.4922E+01   1.5285E+01   5.5829E-05  0.0057
   1.5285E+01   1.5657E+01   5.3589E-05  0.0058
   1.5657E+01   1.6038E+01   5.0903E-05  0.0059
   1.6038E+01   1.6428E+01   4.8519E-05  0.0059
   1.6428E+01   1.6828E+01   4.6958E-05  0.0060
   1.6828E+01   1.7237E+01   4.4697E-05  0.0060
   1.7237E+01   1.7657E+01   4.2219E-05  0.0061
   1.7657E+01   1.8086E+01   4.0180E-05  0.0062
   1.8086E+01   1.8526E+01   3.8323E-05  0.0063
   1.8526E+01   1.8977E+01   3.6362E-05  0.0064
   1.8977E+01   1.9439E+01   3.4840E-05  0.0064
   1.9439E+01   1.9912E+01   3.3182E-05  0.0065
   1.9912E+01   2.0396E+01   3.1112E-05  0.0067
   2.0396E+01   2.0893E+01   2.9679E-05  0.0067
   2.0893E+01   2.1401E+01   2.8161E-05  0.0068
   2.1401E+01   2.1922E+01   2.6373E-05  0.0070
   2.1922E+01   2.2455E+01   2.4710E-05  0.0071
   2.2455E+01   2.3001E+01   2.3351E-05  0.0072
   2.3001E+01   2.3561E+01   2.1863E-05  0.0074
   2.3561E+01   2.4134E+01   2.0333E-05  0.0076
   2.4134E+01   2.4721E+01   1.9106E-05  0.0077
   2.4721E+01   2.5323E+01   1.7738E-05  0.0079
   2.5323E+01   2.5939E+01   1.6618E-05  0.0081
   2.5939E+01   2.6570E+01   1.5386E-05  0.0083
   2.6570E+01   2.7217E+01   1.4195E-05  0.0085
   2.7217E+01   2.7879E+01   1.3181E-05  0.0087
   2.7879E+01   2.8557E+01   1.2259E-05  0.0090
   2.8557E+01   2.9252E+01   1.1040E-05  0.0093
   2.9252E+01   2.9964E+01   1.0360E-05  0.0095
   2.9964E+01   3.0693E+01   9.5157E-06  0.0098
   3.0693E+01   3.1440E+01   8.6353E-06  0.0102
   3.1440E+01   3.2205E+01   7.9744E-06  0.0105
   3.2205E+01   3.2988E+01   7.3834E-06  0.0107
   3.2988E+01   3.3791E+01   6.7620E-06  0.0111
   3.3791E+01   3.4613E+01   6.3289E-06  0.0113
   3.4613E+01   3.5455E+01   5.5959E-06  0.0119
   3.5455E+01   3.6318E+01   5.0217E-06  0.0124
   3.6318E+01   3.7201E+01   4.7093E-06  0.0127
   3.7201E+01   3.8106E+01   4.1077E-06  0.0134
   3.8106E+01   3.9034E+01   3.9022E-06  0.0136
   3.9034E+01   3.9983E+01   3.5379E-06  0.0141
   3.9983E+01   4.0956E+01   3.2832E-06  0.0144
   4.0956E+01   4.1953E+01   2.8995E-06  0.0152
   4.1953E+01   4.2973E+01   2.7307E-06  0.0155
   4.2973E+01   4.4019E+01   2.4707E-06  0.0161
   4.4019E+01   4.5090E+01   2.2340E-06  0.0167
   4.5090E+01   4.6187E+01   2.0467E-06  0.0172
   4.6187E+01   4.7311E+01   1.8129E-06  0.0181
   4.7311E+01   4.8462E+01   1.6048E-06  0.0190
   4.8462E+01   4.9641E+01   1.4259E-06  0.0199
   4.9641E+01   5.0849E+01   1.3209E-06  0.0204
   5.0849E+01   5.2086E+01   1.1941E-06  0.0212
   5.2086E+01   5.3353E+01   1.0805E-06  0.0221
   5.3353E+01   5.4651E+01   8.6483E-07  0.0244
   5.4651E+01   5.5981E+01   7.1795E-07  0.0264
   5.5981E+01   5.7343E+01   5.0316E-07  0.0312
   5.7343E+01   5.8738E+01   3.2636E-07  0.0383
   5.8738E+01   6.0168E+01   2.4397E-07  0.0437
   6.0168E+01   6.1632E+01   1.2979E-07  0.0592
   6.1632E+01   6.3131E+01   5.9129E-08  0.0867
   6.3131E+01   6.4667E+01   2.1267E-08  0.1429
   6.4667E+01   6.6240E+01   5.9319E-09  0.2673
   6.6240E+01   6.7852E+01   1.2409E-09  0.5774
   6.7852E+01   6.9503E+01   4.0382E-10  1.0000
   6.9503E+01   7.1194E+01   0.0000E+00  0.0000
   7.1194E+01   7.2926E+01   0.0000E+00  0.0000
   7.2926E+01   7.4701E+01   0.0000E+00  0.0000
   7.4701E+01   7.6518E+01   0.0000E+00  0.0000
   7.6518E+01   7.8380E+01   0.0000E+00  0.0000
   7.8380E+01   8.0287E+01   0.0000E+00  0.0000
   8.0287E+01   8.2240E+01   0.0000E+00  0.0000
   8.2240E+01   8.4241E+01   0.0000E+00  0.0000
   8.4241E+01   8.6291E+01   0.0000E+00  0.0000
   8.6291E+01   8.8391E+01   0.0000E+00  0.0000
   8.8391E+01   9.0541E+01   0.0000E+00  0.0000
   9.0541E+01   9.2744E+01   0.0000E+00  0.0000
   9.2744E+01   9.5001E+01   0.0000E+00  0.0000
   9.5001E+01   9.7312E+01   0.0000E+00  0.0000
   9.7312E+01   9.9680E+01   0.0000E+00  0.0000
   9.9680E+01   1.0211E+02   0.0000E+00  0.0000
   1.0211E+02   1.0459E+02   0.0000E+00  0.0000
   1.0459E+02   1.0713E+02   0.0000E+00  0.0000
   1.0713E+02   1.0974E+02   0.0000E+00  0.0000
   1.0974E+02   1.1241E+02   0.0000E+00  0.0000
   1.1241E+02   1.1515E+02   0.0000E+00  0.0000
   1.1515E+02   1.1795E+02   0.0000E+00  0.0000
   1.1795E+02   1.2082E+02   0.0000E+00  0.0000
   1.2082E+02   1.2376E+02   0.0000E+00  0.0000
   1.2376E+02   1.2677E+02   0.0000E+00  0.0000
   1.2677E+02   1.2985E+02   0.0000E+00  0.0000
   1.2985E+02   1.3301E+02   0.0000E+00  0.0000
   1.3301E+02   1.3625E+02   0.0000E+00  0.0000
   1.3625E+02   1.3956E+02   0.0000E+00  0.0000
   1.3956E+02   1.4296E+02   0.0000E+00  0.0000
   1.4296E+02   1.4644E+02   0.0000E+00  0.0000
   1.4644E+02   1.5000E+02   0.0000E+00  0.0000

#   sum over                 2.0034E-05
'no. =    1   reg = 110 - 210'
msuc: {\huge [t-cross] in region mesh}
msdr: {\it plotted by \ANGEL \version}
msdl: {\it calculated by \PHITS  3.26}
wt: s(0.7)
\vspace{-3}
  region surface crossing
  area  &=&   1.0000E+00 [cm^2]
e:
 
# Information for Restart Calculation
# This calculation was newly started
# istdev =  2 # 1:Batch variance, 2:History variance
# resc2  = 1.50000000000000000E+09 # Total source weight or Total source weight / maxcas
# resc3  = 1.50000000000000000E+09 # Total history number or Total batch number
# maxcas =   500000000 # History / Batch, only used for istdev=1
# bitrseed = 0000010101110101110110100110011001100101000001100111100100101101 # bit data of rseed
