[ T-Cross ]
    title = [t-cross] in region mesh
     mesh =  reg            # mesh type is region-wise
      reg =    1            # number of crossing regions
      non     r-from    r-to       area
      1       119       219        1.000000    
   e-type =    3            # e-mesh is log given by emin, emax and ne
     emin =  1.0000000E-02  # minimum value of e-mesh points
     emax =   150.0000      # maximum value of e-mesh points
#    edel =  2.4039514E-02  # mesh width of e-mesh points
       ne =    400          # number of e-mesh points
#    data = ( e(i), i = 1, ne + 1 )
#           1.00000E-02  1.02433E-02  1.04925E-02  1.07478E-02  1.10093E-02
#           1.12772E-02  1.15516E-02  1.18326E-02  1.21205E-02  1.24154E-02
#           1.27175E-02  1.30269E-02  1.33439E-02  1.36686E-02  1.40011E-02
#           1.43418E-02  1.46907E-02  1.50482E-02  1.54143E-02  1.57894E-02
#           1.61735E-02  1.65670E-02  1.69701E-02  1.73830E-02  1.78060E-02
#           1.82392E-02  1.86830E-02  1.91375E-02  1.96032E-02  2.00801E-02
#           2.05687E-02  2.10692E-02  2.15818E-02  2.21069E-02  2.26448E-02
#           2.31957E-02  2.37601E-02  2.43382E-02  2.49304E-02  2.55369E-02
#           2.61583E-02  2.67947E-02  2.74467E-02  2.81145E-02  2.87985E-02
#           2.94992E-02  3.02169E-02  3.09521E-02  3.17052E-02  3.24766E-02
#           3.32668E-02  3.40762E-02  3.49053E-02  3.57546E-02  3.66246E-02
#           3.75157E-02  3.84284E-02  3.93634E-02  4.03212E-02  4.13022E-02
#           4.23071E-02  4.33365E-02  4.43909E-02  4.54710E-02  4.65773E-02
#           4.77106E-02  4.88714E-02  5.00605E-02  5.12785E-02  5.25262E-02
#           5.38042E-02  5.51133E-02  5.64542E-02  5.78278E-02  5.92348E-02
#           6.06760E-02  6.21523E-02  6.36645E-02  6.52135E-02  6.68002E-02
#           6.84255E-02  7.00904E-02  7.17957E-02  7.35426E-02  7.53319E-02
#           7.71648E-02  7.90423E-02  8.09655E-02  8.29354E-02  8.49533E-02
#           8.70203E-02  8.91376E-02  9.13064E-02  9.35279E-02  9.58035E-02
#           9.81345E-02  1.00522E-01  1.02968E-01  1.05473E-01  1.08040E-01
#           1.10668E-01  1.13361E-01  1.16119E-01  1.18944E-01  1.21838E-01
#           1.24803E-01  1.27839E-01  1.30950E-01  1.34136E-01  1.37399E-01
#           1.40742E-01  1.44167E-01  1.47675E-01  1.51268E-01  1.54948E-01
#           1.58718E-01  1.62580E-01  1.66535E-01  1.70587E-01  1.74738E-01
#           1.78989E-01  1.83344E-01  1.87805E-01  1.92375E-01  1.97055E-01
#           2.01850E-01  2.06761E-01  2.11792E-01  2.16945E-01  2.22223E-01
#           2.27630E-01  2.33169E-01  2.38842E-01  2.44653E-01  2.50605E-01
#           2.56703E-01  2.62949E-01  2.69346E-01  2.75900E-01  2.82613E-01
#           2.89489E-01  2.96532E-01  3.03747E-01  3.11138E-01  3.18708E-01
#           3.26462E-01  3.34405E-01  3.42542E-01  3.50876E-01  3.59413E-01
#           3.68158E-01  3.77116E-01  3.86291E-01  3.95690E-01  4.05317E-01
#           4.15179E-01  4.25281E-01  4.35628E-01  4.46227E-01  4.57084E-01
#           4.68205E-01  4.79597E-01  4.91266E-01  5.03219E-01  5.15463E-01
#           5.28005E-01  5.40851E-01  5.54011E-01  5.67490E-01  5.81298E-01
#           5.95441E-01  6.09929E-01  6.24769E-01  6.39970E-01  6.55541E-01
#           6.71491E-01  6.87828E-01  7.04564E-01  7.21706E-01  7.39266E-01
#           7.57253E-01  7.75678E-01  7.94551E-01  8.13883E-01  8.33685E-01
#           8.53969E-01  8.74747E-01  8.96030E-01  9.17831E-01  9.40163E-01
#           9.63038E-01  9.86469E-01  1.01047E+00  1.03506E+00  1.06024E+00
#           1.08604E+00  1.11246E+00  1.13953E+00  1.16725E+00  1.19565E+00
#           1.22474E+00  1.25454E+00  1.28507E+00  1.31633E+00  1.34836E+00
#           1.38117E+00  1.41477E+00  1.44920E+00  1.48446E+00  1.52057E+00
#           1.55757E+00  1.59547E+00  1.63429E+00  1.67405E+00  1.71478E+00
#           1.75650E+00  1.79924E+00  1.84302E+00  1.88786E+00  1.93379E+00
#           1.98084E+00  2.02904E+00  2.07841E+00  2.12898E+00  2.18078E+00
#           2.23384E+00  2.28819E+00  2.34386E+00  2.40089E+00  2.45930E+00
#           2.51914E+00  2.58043E+00  2.64322E+00  2.70753E+00  2.77341E+00
#           2.84088E+00  2.91001E+00  2.98081E+00  3.05333E+00  3.12762E+00
#           3.20372E+00  3.28167E+00  3.36152E+00  3.44330E+00  3.52708E+00
#           3.61290E+00  3.70080E+00  3.79085E+00  3.88308E+00  3.97756E+00
#           4.07434E+00  4.17347E+00  4.27501E+00  4.37903E+00  4.48557E+00
#           4.59471E+00  4.70650E+00  4.82102E+00  4.93832E+00  5.05847E+00
#           5.18155E+00  5.30762E+00  5.43676E+00  5.56904E+00  5.70453E+00
#           5.84333E+00  5.98550E+00  6.13114E+00  6.28031E+00  6.43312E+00
#           6.58964E+00  6.74997E+00  6.91420E+00  7.08243E+00  7.25475E+00
#           7.43126E+00  7.61207E+00  7.79728E+00  7.98700E+00  8.18133E+00
#           8.38038E+00  8.58428E+00  8.79315E+00  9.00709E+00  9.22624E+00
#           9.45072E+00  9.68067E+00  9.91620E+00  1.01575E+01  1.04046E+01
#           1.06578E+01  1.09171E+01  1.11827E+01  1.14548E+01  1.17335E+01
#           1.20190E+01  1.23114E+01  1.26109E+01  1.29178E+01  1.32321E+01
#           1.35540E+01  1.38838E+01  1.42216E+01  1.45676E+01  1.49221E+01
#           1.52851E+01  1.56570E+01  1.60380E+01  1.64282E+01  1.68279E+01
#           1.72374E+01  1.76568E+01  1.80864E+01  1.85264E+01  1.89772E+01
#           1.94389E+01  1.99119E+01  2.03963E+01  2.08926E+01  2.14009E+01
#           2.19216E+01  2.24550E+01  2.30014E+01  2.35610E+01  2.41343E+01
#           2.47215E+01  2.53230E+01  2.59391E+01  2.65702E+01  2.72167E+01
#           2.78789E+01  2.85572E+01  2.92520E+01  2.99637E+01  3.06928E+01
#           3.14396E+01  3.22045E+01  3.29881E+01  3.37907E+01  3.46128E+01
#           3.54550E+01  3.63177E+01  3.72013E+01  3.81064E+01  3.90336E+01
#           3.99833E+01  4.09561E+01  4.19526E+01  4.29734E+01  4.40189E+01
#           4.50900E+01  4.61870E+01  4.73108E+01  4.84619E+01  4.96410E+01
#           5.08488E+01  5.20860E+01  5.33533E+01  5.46514E+01  5.59812E+01
#           5.73432E+01  5.87384E+01  6.01676E+01  6.16315E+01  6.31311E+01
#           6.46671E+01  6.62405E+01  6.78522E+01  6.95031E+01  7.11941E+01
#           7.29263E+01  7.47007E+01  7.65182E+01  7.83800E+01  8.02870E+01
#           8.22405E+01  8.42414E+01  8.62911E+01  8.83906E+01  9.05412E+01
#           9.27442E+01  9.50007E+01  9.73122E+01  9.96799E+01  1.02105E+02
#           1.04589E+02  1.07134E+02  1.09741E+02  1.12411E+02  1.15146E+02
#           1.17948E+02  1.20817E+02  1.23757E+02  1.26768E+02  1.29852E+02
#           1.33012E+02  1.36248E+02  1.39563E+02  1.42959E+02  1.46437E+02
#           1.50000E+02
     unit =    2            # unit is [1/cm^2/(MeV/n)/source]
     axis =  eng            # axis of output
     file = detector-20.out  # file name of output for the above axis
   output = f-curr          # surface crossing forward current spectrum
     part =  neutron  
# kf/name :  2112     
#    used :        main (  %)        temp (  %)       total (  %)
#  memory :         414 (  0)           0 (  0)         414 (  0)

#------------------------------------------------------------------------------
#newpage:
#   no. =    1   reg = 119 - 219

x: Energy [MeV/n]
y:  F-Curr [1/cm^2/(MeV/n)/source]         
p: xlog ylog afac(0.8) form(0.9)
h: n            x            y(neutron ),hh0l   n 
#  e-lower      e-upper      neutron     r.err 
   1.0000E-02   1.0243E-02   2.6947E-03  0.0550
   1.0243E-02   1.0493E-02   2.6892E-03  0.0544
   1.0493E-02   1.0748E-02   2.6613E-03  0.0541
   1.0748E-02   1.1009E-02   2.5469E-03  0.0546
   1.1009E-02   1.1277E-02   2.6026E-03  0.0532
   1.1277E-02   1.1552E-02   2.4388E-03  0.0544
   1.1552E-02   1.1833E-02   2.2961E-03  0.0554
   1.1833E-02   1.2121E-02   2.1423E-03  0.0567
   1.2121E-02   1.2415E-02   2.2469E-03  0.0547
   1.2415E-02   1.2718E-02   2.2447E-03  0.0541
   1.2718E-02   1.3027E-02   2.1777E-03  0.0543
   1.3027E-02   1.3344E-02   1.9778E-03  0.0563
   1.3344E-02   1.3669E-02   2.0184E-03  0.0550
   1.3669E-02   1.4001E-02   2.1040E-03  0.0534
   1.4001E-02   1.4342E-02   1.8745E-03  0.0558
   1.4342E-02   1.4691E-02   1.9886E-03  0.0535
   1.4691E-02   1.5048E-02   2.0481E-03  0.0521
   1.5048E-02   1.5414E-02   1.8644E-03  0.0539
   1.5414E-02   1.5789E-02   1.8901E-03  0.0529
   1.5789E-02   1.6174E-02   1.7757E-03  0.0539
   1.6174E-02   1.6567E-02   1.8092E-03  0.0527
   1.6567E-02   1.6970E-02   1.5896E-03  0.0555
   1.6970E-02   1.7383E-02   1.7713E-03  0.0520
   1.7383E-02   1.7806E-02   1.6267E-03  0.0537
   1.7806E-02   1.8239E-02   1.7584E-03  0.0510
   1.8239E-02   1.8683E-02   1.4734E-03  0.0549
   1.8683E-02   1.9138E-02   1.6343E-03  0.0517
   1.9138E-02   1.9603E-02   1.4970E-03  0.0533
   1.9603E-02   2.0080E-02   1.5589E-03  0.0517
   2.0080E-02   2.0569E-02   1.4339E-03  0.0532
   2.0569E-02   2.1069E-02   1.3965E-03  0.0532
   2.1069E-02   2.1582E-02   1.4472E-03  0.0517
   2.1582E-02   2.2107E-02   1.3569E-03  0.0528
   2.2107E-02   2.2645E-02   1.3778E-03  0.0517
   2.2645E-02   2.3196E-02   1.4045E-03  0.0507
   2.3196E-02   2.3760E-02   1.2626E-03  0.0528
   2.3760E-02   2.4338E-02   1.2911E-03  0.0515
   2.4338E-02   2.4930E-02   1.1717E-03  0.0534
   2.4930E-02   2.5537E-02   1.1469E-03  0.0534
   2.5537E-02   2.6158E-02   1.1147E-03  0.0535
   2.6158E-02   2.6795E-02   1.1237E-03  0.0525
   2.6795E-02   2.7447E-02   1.1213E-03  0.0520
   2.7447E-02   2.8114E-02   1.1013E-03  0.0519
   2.8114E-02   2.8799E-02   1.0534E-03  0.0524
   2.8799E-02   2.9499E-02   9.8845E-04  0.0535
   2.9499E-02   3.0217E-02   1.0145E-03  0.0522
   3.0217E-02   3.0952E-02   1.1068E-03  0.0494
   3.0952E-02   3.1705E-02   9.6963E-04  0.0521
   3.1705E-02   3.2477E-02   9.2863E-04  0.0526
   3.2477E-02   3.3267E-02   1.0065E-03  0.0499
   3.3267E-02   3.4076E-02   9.6964E-04  0.0503
   3.4076E-02   3.4905E-02   8.9811E-04  0.0517
   3.4905E-02   3.5755E-02   8.8581E-04  0.0513
   3.5755E-02   3.6625E-02   8.3467E-04  0.0523
   3.6625E-02   3.7516E-02   7.7647E-04  0.0536
   3.7516E-02   3.8428E-02   7.9958E-04  0.0521
   3.8428E-02   3.9363E-02   8.9158E-04  0.0488
   3.9363E-02   4.0321E-02   8.1922E-04  0.0504
   4.0321E-02   4.1302E-02   7.6432E-04  0.0514
   4.1302E-02   4.2307E-02   7.7392E-04  0.0505
   4.2307E-02   4.3337E-02   7.1127E-04  0.0520
   4.3337E-02   4.4391E-02   7.4983E-04  0.0500
   4.4391E-02   4.5471E-02   6.8807E-04  0.0516
   4.5471E-02   4.6577E-02   7.4564E-04  0.0490
   4.6577E-02   4.7711E-02   7.2469E-04  0.0492
   4.7711E-02   4.8871E-02   6.9645E-04  0.0495
   4.8871E-02   5.0061E-02   6.8510E-04  0.0493
   5.0061E-02   5.1279E-02   6.7768E-04  0.0490
   5.1279E-02   5.2526E-02   6.4803E-04  0.0495
   5.2526E-02   5.3804E-02   6.0354E-04  0.0507
   5.3804E-02   5.5113E-02   5.7252E-04  0.0514
   5.5113E-02   5.6454E-02   5.8845E-04  0.0501
   5.6454E-02   5.7828E-02   6.1118E-04  0.0486
   5.7828E-02   5.9235E-02   4.9677E-04  0.0532
   5.9235E-02   6.0676E-02   5.2676E-04  0.0510
   6.0676E-02   6.2152E-02   5.4066E-04  0.0498
   6.2152E-02   6.3665E-02   5.9828E-04  0.0469
   6.3665E-02   6.5214E-02   5.2023E-04  0.0496
   6.5214E-02   6.6800E-02   4.7914E-04  0.0510
   6.6800E-02   6.8426E-02   5.1908E-04  0.0485
   6.8426E-02   7.0090E-02   4.9472E-04  0.0491
   7.0090E-02   7.1796E-02   4.9091E-04  0.0486
   7.1796E-02   7.3543E-02   4.5035E-04  0.0502
   7.3543E-02   7.5332E-02   4.7919E-04  0.0481
   7.5332E-02   7.7165E-02   4.5552E-04  0.0487
   7.7165E-02   7.9042E-02   4.5113E-04  0.0484
   7.9042E-02   8.0965E-02   4.3287E-04  0.0488
   8.0965E-02   8.2935E-02   4.4442E-04  0.0476
   8.2935E-02   8.4953E-02   4.2849E-04  0.0478
   8.4953E-02   8.7020E-02   3.9146E-04  0.0496
   8.7020E-02   8.9138E-02   3.8755E-04  0.0491
   8.9138E-02   9.1306E-02   3.8841E-04  0.0485
   9.1306E-02   9.3528E-02   3.9962E-04  0.0472
   9.3528E-02   9.5804E-02   3.5548E-04  0.0495
   9.5804E-02   9.8134E-02   3.6395E-04  0.0483
   9.8134E-02   1.0052E-01   3.7276E-04  0.0471
   1.0052E-01   1.0297E-01   3.2185E-04  0.0502
   1.0297E-01   1.0547E-01   3.5020E-04  0.0475
   1.0547E-01   1.0804E-01   3.5094E-04  0.0470
   1.0804E-01   1.1067E-01   3.3705E-04  0.0474
   1.1067E-01   1.1336E-01   2.9668E-04  0.0498
   1.1336E-01   1.1612E-01   3.2290E-04  0.0472
   1.1612E-01   1.1894E-01   2.8717E-04  0.0495
   1.1894E-01   1.2184E-01   3.0185E-04  0.0477
   1.2184E-01   1.2480E-01   2.8821E-04  0.0481
   1.2480E-01   1.2784E-01   2.9921E-04  0.0467
   1.2784E-01   1.3095E-01   2.8325E-04  0.0473
   1.3095E-01   1.3414E-01   2.5951E-04  0.0490
   1.3414E-01   1.3740E-01   2.4426E-04  0.0499
   1.3740E-01   1.4074E-01   2.4181E-04  0.0495
   1.4074E-01   1.4417E-01   2.4536E-04  0.0486
   1.4417E-01   1.4767E-01   2.3515E-04  0.0491
   1.4767E-01   1.5127E-01   2.2877E-04  0.0492
   1.5127E-01   1.5495E-01   2.3313E-04  0.0481
   1.5495E-01   1.5872E-01   2.0923E-04  0.0501
   1.5872E-01   1.6258E-01   2.3651E-04  0.0465
   1.6258E-01   1.6654E-01   2.0247E-04  0.0497
   1.6654E-01   1.7059E-01   2.0803E-04  0.0485
   1.7059E-01   1.7474E-01   1.9583E-04  0.0493
   1.7474E-01   1.7899E-01   2.0688E-04  0.0475
   1.7899E-01   1.8334E-01   1.9809E-04  0.0479
   1.8334E-01   1.8781E-01   2.0317E-04  0.0467
   1.8781E-01   1.9237E-01   1.9976E-04  0.0465
   1.9237E-01   1.9706E-01   1.7603E-04  0.0490
   1.9706E-01   2.0185E-01   1.8618E-04  0.0471
   2.0185E-01   2.0676E-01   1.7458E-04  0.0480
   2.0676E-01   2.1179E-01   2.0316E-04  0.0440
   2.1179E-01   2.1694E-01   1.9560E-04  0.0442
   2.1694E-01   2.2222E-01   2.1195E-04  0.0421
   2.2222E-01   2.2763E-01   2.0909E-04  0.0418
   2.2763E-01   2.3317E-01   2.3217E-04  0.0392
   2.3317E-01   2.3884E-01   2.2927E-04  0.0390
   2.3884E-01   2.4465E-01   2.3589E-04  0.0380
   2.4465E-01   2.5061E-01   2.5123E-04  0.0364
   2.5061E-01   2.5670E-01   2.6082E-04  0.0353
   2.5670E-01   2.6295E-01   2.5962E-04  0.0350
   2.6295E-01   2.6935E-01   2.6751E-04  0.0340
   2.6935E-01   2.7590E-01   2.7254E-04  0.0333
   2.7590E-01   2.8261E-01   3.1378E-04  0.0307
   2.8261E-01   2.8949E-01   3.0113E-04  0.0309
   2.8949E-01   2.9653E-01   3.1973E-04  0.0296
   2.9653E-01   3.0375E-01   3.2553E-04  0.0290
   3.0375E-01   3.1114E-01   3.3376E-04  0.0283
   3.1114E-01   3.1871E-01   3.1552E-04  0.0288
   3.1871E-01   3.2646E-01   3.4185E-04  0.0273
   3.2646E-01   3.3441E-01   3.3537E-04  0.0272
   3.3441E-01   3.4254E-01   3.5894E-04  0.0260
   3.4254E-01   3.5088E-01   3.8117E-04  0.0249
   3.5088E-01   3.5941E-01   3.7091E-04  0.0250
   3.5941E-01   3.6816E-01   3.7670E-04  0.0245
   3.6816E-01   3.7712E-01   3.8864E-04  0.0238
   3.7712E-01   3.8629E-01   3.8361E-04  0.0237
   3.8629E-01   3.9569E-01   4.1125E-04  0.0226
   3.9569E-01   4.0532E-01   4.2526E-04  0.0220
   4.0532E-01   4.1518E-01   4.2914E-04  0.0216
   4.1518E-01   4.2528E-01   4.5417E-04  0.0208
   4.2528E-01   4.3563E-01   4.5617E-04  0.0205
   4.3563E-01   4.4623E-01   4.5989E-04  0.0201
   4.4623E-01   4.5708E-01   4.6580E-04  0.0197
   4.5708E-01   4.6821E-01   4.6244E-04  0.0196
   4.6821E-01   4.7960E-01   4.9299E-04  0.0187
   4.7960E-01   4.9127E-01   4.8950E-04  0.0186
   4.9127E-01   5.0322E-01   5.1578E-04  0.0179
   5.0322E-01   5.1546E-01   5.2596E-04  0.0175
   5.1546E-01   5.2800E-01   5.1510E-04  0.0175
   5.2800E-01   5.4085E-01   5.2326E-04  0.0171
   5.4085E-01   5.5401E-01   5.3832E-04  0.0167
   5.5401E-01   5.6749E-01   5.3624E-04  0.0165
   5.6749E-01   5.8130E-01   5.4705E-04  0.0162
   5.8130E-01   5.9544E-01   5.4331E-04  0.0160
   5.9544E-01   6.0993E-01   5.4855E-04  0.0158
   6.0993E-01   6.2477E-01   5.6072E-04  0.0154
   6.2477E-01   6.3997E-01   5.5209E-04  0.0153
   6.3997E-01   6.5554E-01   5.5946E-04  0.0150
   6.5554E-01   6.7149E-01   5.9226E-04  0.0144
   6.7149E-01   6.8783E-01   5.6303E-04  0.0146
   6.8783E-01   7.0456E-01   5.5874E-04  0.0145
   7.0456E-01   7.2171E-01   5.7087E-04  0.0142
   7.2171E-01   7.3927E-01   5.7366E-04  0.0140
   7.3927E-01   7.5725E-01   5.6149E-04  0.0140
   7.5725E-01   7.7568E-01   5.7192E-04  0.0137
   7.7568E-01   7.9455E-01   5.7579E-04  0.0134
   7.9455E-01   8.1388E-01   5.8121E-04  0.0132
   8.1388E-01   8.3368E-01   5.6320E-04  0.0133
   8.3368E-01   8.5397E-01   5.7113E-04  0.0130
   8.5397E-01   8.7475E-01   5.8186E-04  0.0128
   8.7475E-01   8.9603E-01   5.8430E-04  0.0126
   8.9603E-01   9.1783E-01   5.6999E-04  0.0126
   9.1783E-01   9.4016E-01   5.6342E-04  0.0125
   9.4016E-01   9.6304E-01   5.5362E-04  0.0125
   9.6304E-01   9.8647E-01   5.5644E-04  0.0123
   9.8647E-01   1.0105E+00   5.4008E-04  0.0123
   1.0105E+00   1.0351E+00   5.4922E-04  0.0121
   1.0351E+00   1.0602E+00   5.3103E-04  0.0121
   1.0602E+00   1.0860E+00   5.2763E-04  0.0120
   1.0860E+00   1.1125E+00   5.0991E-04  0.0121
   1.1125E+00   1.1395E+00   5.0682E-04  0.0120
   1.1395E+00   1.1673E+00   5.1362E-04  0.0117
   1.1673E+00   1.1957E+00   5.0636E-04  0.0117
   1.1957E+00   1.2247E+00   4.9616E-04  0.0117
   1.2247E+00   1.2545E+00   4.8094E-04  0.0117
   1.2545E+00   1.2851E+00   4.7623E-04  0.0116
   1.2851E+00   1.3163E+00   4.6434E-04  0.0116
   1.3163E+00   1.3484E+00   4.5655E-04  0.0116
   1.3484E+00   1.3812E+00   4.4584E-04  0.0116
   1.3812E+00   1.4148E+00   4.3997E-04  0.0115
   1.4148E+00   1.4492E+00   4.3190E-04  0.0115
   1.4492E+00   1.4845E+00   4.2573E-04  0.0114
   1.4845E+00   1.5206E+00   4.3575E-04  0.0112
   1.5206E+00   1.5576E+00   4.1606E-04  0.0113
   1.5576E+00   1.5955E+00   4.0374E-04  0.0113
   1.5955E+00   1.6343E+00   3.9020E-04  0.0114
   1.6343E+00   1.6741E+00   3.8977E-04  0.0112
   1.6741E+00   1.7148E+00   3.7598E-04  0.0113
   1.7148E+00   1.7565E+00   3.6450E-04  0.0113
   1.7565E+00   1.7992E+00   3.5633E-04  0.0113
   1.7992E+00   1.8430E+00   3.5085E-04  0.0113
   1.8430E+00   1.8879E+00   3.3865E-04  0.0113
   1.8879E+00   1.9338E+00   3.2948E-04  0.0114
   1.9338E+00   1.9808E+00   3.2422E-04  0.0113
   1.9808E+00   2.0290E+00   3.1557E-04  0.0113
   2.0290E+00   2.0784E+00   3.1417E-04  0.0112
   2.0784E+00   2.1290E+00   3.0803E-04  0.0112
   2.1290E+00   2.1808E+00   2.8965E-04  0.0114
   2.1808E+00   2.2338E+00   2.8240E-04  0.0114
   2.2338E+00   2.2882E+00   2.7974E-04  0.0113
   2.2882E+00   2.3439E+00   2.6537E-04  0.0115
   2.3439E+00   2.4009E+00   2.6034E-04  0.0115
   2.4009E+00   2.4593E+00   2.5902E-04  0.0113
   2.4593E+00   2.5191E+00   2.5698E-04  0.0113
   2.5191E+00   2.5804E+00   2.4107E-04  0.0115
   2.5804E+00   2.6432E+00   2.4118E-04  0.0114
   2.6432E+00   2.7075E+00   2.2991E-04  0.0115
   2.7075E+00   2.7734E+00   2.2446E-04  0.0115
   2.7734E+00   2.8409E+00   2.1388E-04  0.0116
   2.8409E+00   2.9100E+00   2.0715E-04  0.0117
   2.9100E+00   2.9808E+00   2.0285E-04  0.0117
   2.9808E+00   3.0533E+00   2.0076E-04  0.0116
   3.0533E+00   3.1276E+00   1.9520E-04  0.0116
   3.1276E+00   3.2037E+00   1.8451E-04  0.0118
   3.2037E+00   3.2817E+00   1.8044E-04  0.0118
   3.2817E+00   3.3615E+00   1.7600E-04  0.0118
   3.3615E+00   3.4433E+00   1.7166E-04  0.0118
   3.4433E+00   3.5271E+00   1.6952E-04  0.0117
   3.5271E+00   3.6129E+00   1.6081E-04  0.0119
   3.6129E+00   3.7008E+00   1.5609E-04  0.0119
   3.7008E+00   3.7908E+00   1.5297E-04  0.0119
   3.7908E+00   3.8831E+00   1.4774E-04  0.0120
   3.8831E+00   3.9776E+00   1.4947E-04  0.0118
   3.9776E+00   4.0743E+00   1.4245E-04  0.0119
   4.0743E+00   4.1735E+00   1.3935E-04  0.0119
   4.1735E+00   4.2750E+00   1.3425E-04  0.0120
   4.2750E+00   4.3790E+00   1.3538E-04  0.0118
   4.3790E+00   4.4856E+00   1.3269E-04  0.0118
   4.4856E+00   4.5947E+00   1.2817E-04  0.0118
   4.5947E+00   4.7065E+00   1.2399E-04  0.0119
   4.7065E+00   4.8210E+00   1.2223E-04  0.0118
   4.8210E+00   4.9383E+00   1.1993E-04  0.0118
   4.9383E+00   5.0585E+00   1.1729E-04  0.0118
   5.0585E+00   5.1815E+00   1.1197E-04  0.0119
   5.1815E+00   5.3076E+00   1.1127E-04  0.0118
   5.3076E+00   5.4368E+00   1.0775E-04  0.0119
   5.4368E+00   5.5690E+00   1.0581E-04  0.0119
   5.5690E+00   5.7045E+00   1.0275E-04  0.0119
   5.7045E+00   5.8433E+00   9.8415E-05  0.0120
   5.8433E+00   5.9855E+00   9.5228E-05  0.0121
   5.9855E+00   6.1311E+00   9.4581E-05  0.0120
   6.1311E+00   6.2803E+00   8.9794E-05  0.0121
   6.2803E+00   6.4331E+00   8.4990E-05  0.0123
   6.4331E+00   6.5896E+00   8.3165E-05  0.0123
   6.5896E+00   6.7500E+00   7.7124E-05  0.0126
   6.7500E+00   6.9142E+00   7.6107E-05  0.0126
   6.9142E+00   7.0824E+00   7.5247E-05  0.0125
   7.0824E+00   7.2548E+00   7.2326E-05  0.0126
   7.2548E+00   7.4313E+00   6.7132E-05  0.0129
   7.4313E+00   7.6121E+00   6.6320E-05  0.0128
   7.6121E+00   7.7973E+00   6.3017E-05  0.0130
   7.7973E+00   7.9870E+00   6.0588E-05  0.0131
   7.9870E+00   8.1813E+00   5.8481E-05  0.0132
   8.1813E+00   8.3804E+00   5.5258E-05  0.0134
   8.3804E+00   8.5843E+00   5.3280E-05  0.0135
   8.5843E+00   8.7931E+00   5.2131E-05  0.0135
   8.7931E+00   9.0071E+00   4.9037E-05  0.0138
   9.0071E+00   9.2262E+00   4.8815E-05  0.0136
   9.2262E+00   9.4507E+00   4.5399E-05  0.0140
   9.4507E+00   9.6807E+00   4.3574E-05  0.0141
   9.6807E+00   9.9162E+00   4.1510E-05  0.0143
   9.9162E+00   1.0157E+01   3.9682E-05  0.0144
   1.0157E+01   1.0405E+01   3.8363E-05  0.0145
   1.0405E+01   1.0658E+01   3.5798E-05  0.0148
   1.0658E+01   1.0917E+01   3.5114E-05  0.0148
   1.0917E+01   1.1183E+01   3.3061E-05  0.0151
   1.1183E+01   1.1455E+01   3.1344E-05  0.0153
   1.1455E+01   1.1733E+01   3.0160E-05  0.0154
   1.1733E+01   1.2019E+01   2.8907E-05  0.0156
   1.2019E+01   1.2311E+01   2.6438E-05  0.0161
   1.2311E+01   1.2611E+01   2.5458E-05  0.0162
   1.2611E+01   1.2918E+01   2.4019E-05  0.0165
   1.2918E+01   1.3232E+01   2.2796E-05  0.0167
   1.3232E+01   1.3554E+01   2.1464E-05  0.0170
   1.3554E+01   1.3884E+01   2.0828E-05  0.0171
   1.3884E+01   1.4222E+01   1.9303E-05  0.0175
   1.4222E+01   1.4568E+01   1.7985E-05  0.0179
   1.4568E+01   1.4922E+01   1.7304E-05  0.0181
   1.4922E+01   1.5285E+01   1.6039E-05  0.0185
   1.5285E+01   1.5657E+01   1.5264E-05  0.0188
   1.5657E+01   1.6038E+01   1.4128E-05  0.0193
   1.6038E+01   1.6428E+01   1.3631E-05  0.0194
   1.6428E+01   1.6828E+01   1.2659E-05  0.0199
   1.6828E+01   1.7237E+01   1.1959E-05  0.0202
   1.7237E+01   1.7657E+01   1.1583E-05  0.0203
   1.7657E+01   1.8086E+01   1.0317E-05  0.0212
   1.8086E+01   1.8526E+01   9.5170E-06  0.0219
   1.8526E+01   1.8977E+01   9.0070E-06  0.0222
   1.8977E+01   1.9439E+01   8.7670E-06  0.0222
   1.9439E+01   1.9912E+01   8.2247E-06  0.0227
   1.9912E+01   2.0396E+01   7.5711E-06  0.0234
   2.0396E+01   2.0893E+01   7.0407E-06  0.0239
   2.0893E+01   2.1401E+01   6.6098E-06  0.0244
   2.1401E+01   2.1922E+01   5.9036E-06  0.0255
   2.1922E+01   2.2455E+01   5.2984E-06  0.0266
   2.2455E+01   2.3001E+01   4.7259E-06  0.0278
   2.3001E+01   2.3561E+01   4.3028E-06  0.0288
   2.3561E+01   2.4134E+01   4.0191E-06  0.0295
   2.4134E+01   2.4721E+01   3.7568E-06  0.0301
   2.4721E+01   2.5323E+01   3.0624E-06  0.0330
   2.5323E+01   2.5939E+01   2.7105E-06  0.0346
   2.5939E+01   2.6570E+01   2.5288E-06  0.0354
   2.6570E+01   2.7217E+01   2.0295E-06  0.0390
   2.7217E+01   2.7879E+01   1.8816E-06  0.0401
   2.7879E+01   2.8557E+01   1.6128E-06  0.0428
   2.8557E+01   2.9252E+01   1.4536E-06  0.0445
   2.9252E+01   2.9964E+01   1.1606E-06  0.0492
   2.9964E+01   3.0693E+01   1.1796E-06  0.0482
   3.0693E+01   3.1440E+01   1.0365E-06  0.0508
   3.1440E+01   3.2205E+01   7.3469E-07  0.0597
   3.2205E+01   3.2988E+01   6.5087E-07  0.0626
   3.2988E+01   3.3791E+01   5.4571E-07  0.0676
   3.3791E+01   3.4613E+01   4.4760E-07  0.0737
   3.4613E+01   3.5455E+01   4.1085E-07  0.0760
   3.5455E+01   3.6318E+01   3.9414E-07  0.0767
   3.6318E+01   3.7201E+01   3.2819E-07  0.0830
   3.7201E+01   3.8106E+01   2.3643E-07  0.0967
   3.8106E+01   3.9034E+01   1.9630E-07  0.1048
   3.9034E+01   3.9983E+01   2.1691E-07  0.0985
   3.9983E+01   4.0956E+01   1.8708E-07  0.1048
   4.0956E+01   4.1953E+01   1.4651E-07  0.1170
   4.1953E+01   4.2973E+01   1.0385E-07  0.1374
   4.2973E+01   4.4019E+01   8.9903E-08  0.1459
   4.4019E+01   4.5090E+01   6.7226E-08  0.1667
   4.5090E+01   4.6187E+01   3.2815E-08  0.2357
   4.6187E+01   4.7311E+01   5.5172E-08  0.1796
   4.7311E+01   4.8462E+01   3.8224E-08  0.2132
   4.8462E+01   4.9641E+01   1.8658E-08  0.3015
   4.9641E+01   5.0849E+01   2.4838E-08  0.2582
   5.0849E+01   5.2086E+01   2.2632E-08  0.2673
   5.2086E+01   5.3353E+01   2.2094E-08  0.2673
   5.3353E+01   5.4651E+01   1.0785E-08  0.3780
   5.4651E+01   5.5981E+01   6.0163E-09  0.5000
   5.5981E+01   5.7343E+01   7.3418E-09  0.4472
   5.7343E+01   5.8738E+01   5.7339E-09  0.5000
   5.8738E+01   6.0168E+01   2.7989E-09  0.7071
   6.0168E+01   6.1632E+01   2.7324E-09  0.7071
   6.1632E+01   6.3131E+01   1.3337E-09  1.0000
   6.3131E+01   6.4667E+01   1.3021E-09  1.0000
   6.4667E+01   6.6240E+01   1.2711E-09  1.0000
   6.6240E+01   6.7852E+01   0.0000E+00  0.0000
   6.7852E+01   6.9503E+01   0.0000E+00  0.0000
   6.9503E+01   7.1194E+01   0.0000E+00  0.0000
   7.1194E+01   7.2926E+01   0.0000E+00  0.0000
   7.2926E+01   7.4701E+01   0.0000E+00  0.0000
   7.4701E+01   7.6518E+01   0.0000E+00  0.0000
   7.6518E+01   7.8380E+01   0.0000E+00  0.0000
   7.8380E+01   8.0287E+01   0.0000E+00  0.0000
   8.0287E+01   8.2240E+01   0.0000E+00  0.0000
   8.2240E+01   8.4241E+01   0.0000E+00  0.0000
   8.4241E+01   8.6291E+01   0.0000E+00  0.0000
   8.6291E+01   8.8391E+01   0.0000E+00  0.0000
   8.8391E+01   9.0541E+01   0.0000E+00  0.0000
   9.0541E+01   9.2744E+01   0.0000E+00  0.0000
   9.2744E+01   9.5001E+01   0.0000E+00  0.0000
   9.5001E+01   9.7312E+01   0.0000E+00  0.0000
   9.7312E+01   9.9680E+01   0.0000E+00  0.0000
   9.9680E+01   1.0211E+02   0.0000E+00  0.0000
   1.0211E+02   1.0459E+02   0.0000E+00  0.0000
   1.0459E+02   1.0713E+02   0.0000E+00  0.0000
   1.0713E+02   1.0974E+02   0.0000E+00  0.0000
   1.0974E+02   1.1241E+02   0.0000E+00  0.0000
   1.1241E+02   1.1515E+02   0.0000E+00  0.0000
   1.1515E+02   1.1795E+02   0.0000E+00  0.0000
   1.1795E+02   1.2082E+02   0.0000E+00  0.0000
   1.2082E+02   1.2376E+02   0.0000E+00  0.0000
   1.2376E+02   1.2677E+02   0.0000E+00  0.0000
   1.2677E+02   1.2985E+02   0.0000E+00  0.0000
   1.2985E+02   1.3301E+02   0.0000E+00  0.0000
   1.3301E+02   1.3625E+02   0.0000E+00  0.0000
   1.3625E+02   1.3956E+02   0.0000E+00  0.0000
   1.3956E+02   1.4296E+02   0.0000E+00  0.0000
   1.4296E+02   1.4644E+02   0.0000E+00  0.0000
   1.4644E+02   1.5000E+02   0.0000E+00  0.0000

#   sum over                 1.3606E-05
'no. =    1   reg = 119 - 219'
msuc: {\huge [t-cross] in region mesh}
msdr: {\it plotted by \ANGEL \version}
msdl: {\it calculated by \PHITS  3.26}
wt: s(0.7)
\vspace{-3}
  region surface crossing
  area  &=&   1.0000E+00 [cm^2]
e:
 
# Information for Restart Calculation
# This calculation was newly started
# istdev =  2 # 1:Batch variance, 2:History variance
# resc2  = 5.00000000000000000E+08 # Total source weight or Total source weight / maxcas
# resc3  = 5.00000000000000000E+08 # Total history number or Total batch number
# maxcas =   500000000 # History / Batch, only used for istdev=1
# bitrseed = 1101101111010011011000101101110001100110110010110001010100010001 # bit data of rseed
