[ T-Cross ]
    title = [t-cross] in region mesh
     mesh =  reg            # mesh type is region-wise
      reg =    1            # number of crossing regions
      non     r-from    r-to       area
      1       125       225        1.000000    
   e-type =    3            # e-mesh is log given by emin, emax and ne
     emin =  1.0000000E-02  # minimum value of e-mesh points
     emax =   150.0000      # maximum value of e-mesh points
#    edel =  2.4039514E-02  # mesh width of e-mesh points
       ne =    400          # number of e-mesh points
#    data = ( e(i), i = 1, ne + 1 )
#           1.00000E-02  1.02433E-02  1.04925E-02  1.07478E-02  1.10093E-02
#           1.12772E-02  1.15516E-02  1.18326E-02  1.21205E-02  1.24154E-02
#           1.27175E-02  1.30269E-02  1.33439E-02  1.36686E-02  1.40011E-02
#           1.43418E-02  1.46907E-02  1.50482E-02  1.54143E-02  1.57894E-02
#           1.61735E-02  1.65670E-02  1.69701E-02  1.73830E-02  1.78060E-02
#           1.82392E-02  1.86830E-02  1.91375E-02  1.96032E-02  2.00801E-02
#           2.05687E-02  2.10692E-02  2.15818E-02  2.21069E-02  2.26448E-02
#           2.31957E-02  2.37601E-02  2.43382E-02  2.49304E-02  2.55369E-02
#           2.61583E-02  2.67947E-02  2.74467E-02  2.81145E-02  2.87985E-02
#           2.94992E-02  3.02169E-02  3.09521E-02  3.17052E-02  3.24766E-02
#           3.32668E-02  3.40762E-02  3.49053E-02  3.57546E-02  3.66246E-02
#           3.75157E-02  3.84284E-02  3.93634E-02  4.03212E-02  4.13022E-02
#           4.23071E-02  4.33365E-02  4.43909E-02  4.54710E-02  4.65773E-02
#           4.77106E-02  4.88714E-02  5.00605E-02  5.12785E-02  5.25262E-02
#           5.38042E-02  5.51133E-02  5.64542E-02  5.78278E-02  5.92348E-02
#           6.06760E-02  6.21523E-02  6.36645E-02  6.52135E-02  6.68002E-02
#           6.84255E-02  7.00904E-02  7.17957E-02  7.35426E-02  7.53319E-02
#           7.71648E-02  7.90423E-02  8.09655E-02  8.29354E-02  8.49533E-02
#           8.70203E-02  8.91376E-02  9.13064E-02  9.35279E-02  9.58035E-02
#           9.81345E-02  1.00522E-01  1.02968E-01  1.05473E-01  1.08040E-01
#           1.10668E-01  1.13361E-01  1.16119E-01  1.18944E-01  1.21838E-01
#           1.24803E-01  1.27839E-01  1.30950E-01  1.34136E-01  1.37399E-01
#           1.40742E-01  1.44167E-01  1.47675E-01  1.51268E-01  1.54948E-01
#           1.58718E-01  1.62580E-01  1.66535E-01  1.70587E-01  1.74738E-01
#           1.78989E-01  1.83344E-01  1.87805E-01  1.92375E-01  1.97055E-01
#           2.01850E-01  2.06761E-01  2.11792E-01  2.16945E-01  2.22223E-01
#           2.27630E-01  2.33169E-01  2.38842E-01  2.44653E-01  2.50605E-01
#           2.56703E-01  2.62949E-01  2.69346E-01  2.75900E-01  2.82613E-01
#           2.89489E-01  2.96532E-01  3.03747E-01  3.11138E-01  3.18708E-01
#           3.26462E-01  3.34405E-01  3.42542E-01  3.50876E-01  3.59413E-01
#           3.68158E-01  3.77116E-01  3.86291E-01  3.95690E-01  4.05317E-01
#           4.15179E-01  4.25281E-01  4.35628E-01  4.46227E-01  4.57084E-01
#           4.68205E-01  4.79597E-01  4.91266E-01  5.03219E-01  5.15463E-01
#           5.28005E-01  5.40851E-01  5.54011E-01  5.67490E-01  5.81298E-01
#           5.95441E-01  6.09929E-01  6.24769E-01  6.39970E-01  6.55541E-01
#           6.71491E-01  6.87828E-01  7.04564E-01  7.21706E-01  7.39266E-01
#           7.57253E-01  7.75678E-01  7.94551E-01  8.13883E-01  8.33685E-01
#           8.53969E-01  8.74747E-01  8.96030E-01  9.17831E-01  9.40163E-01
#           9.63038E-01  9.86469E-01  1.01047E+00  1.03506E+00  1.06024E+00
#           1.08604E+00  1.11246E+00  1.13953E+00  1.16725E+00  1.19565E+00
#           1.22474E+00  1.25454E+00  1.28507E+00  1.31633E+00  1.34836E+00
#           1.38117E+00  1.41477E+00  1.44920E+00  1.48446E+00  1.52057E+00
#           1.55757E+00  1.59547E+00  1.63429E+00  1.67405E+00  1.71478E+00
#           1.75650E+00  1.79924E+00  1.84302E+00  1.88786E+00  1.93379E+00
#           1.98084E+00  2.02904E+00  2.07841E+00  2.12898E+00  2.18078E+00
#           2.23384E+00  2.28819E+00  2.34386E+00  2.40089E+00  2.45930E+00
#           2.51914E+00  2.58043E+00  2.64322E+00  2.70753E+00  2.77341E+00
#           2.84088E+00  2.91001E+00  2.98081E+00  3.05333E+00  3.12762E+00
#           3.20372E+00  3.28167E+00  3.36152E+00  3.44330E+00  3.52708E+00
#           3.61290E+00  3.70080E+00  3.79085E+00  3.88308E+00  3.97756E+00
#           4.07434E+00  4.17347E+00  4.27501E+00  4.37903E+00  4.48557E+00
#           4.59471E+00  4.70650E+00  4.82102E+00  4.93832E+00  5.05847E+00
#           5.18155E+00  5.30762E+00  5.43676E+00  5.56904E+00  5.70453E+00
#           5.84333E+00  5.98550E+00  6.13114E+00  6.28031E+00  6.43312E+00
#           6.58964E+00  6.74997E+00  6.91420E+00  7.08243E+00  7.25475E+00
#           7.43126E+00  7.61207E+00  7.79728E+00  7.98700E+00  8.18133E+00
#           8.38038E+00  8.58428E+00  8.79315E+00  9.00709E+00  9.22624E+00
#           9.45072E+00  9.68067E+00  9.91620E+00  1.01575E+01  1.04046E+01
#           1.06578E+01  1.09171E+01  1.11827E+01  1.14548E+01  1.17335E+01
#           1.20190E+01  1.23114E+01  1.26109E+01  1.29178E+01  1.32321E+01
#           1.35540E+01  1.38838E+01  1.42216E+01  1.45676E+01  1.49221E+01
#           1.52851E+01  1.56570E+01  1.60380E+01  1.64282E+01  1.68279E+01
#           1.72374E+01  1.76568E+01  1.80864E+01  1.85264E+01  1.89772E+01
#           1.94389E+01  1.99119E+01  2.03963E+01  2.08926E+01  2.14009E+01
#           2.19216E+01  2.24550E+01  2.30014E+01  2.35610E+01  2.41343E+01
#           2.47215E+01  2.53230E+01  2.59391E+01  2.65702E+01  2.72167E+01
#           2.78789E+01  2.85572E+01  2.92520E+01  2.99637E+01  3.06928E+01
#           3.14396E+01  3.22045E+01  3.29881E+01  3.37907E+01  3.46128E+01
#           3.54550E+01  3.63177E+01  3.72013E+01  3.81064E+01  3.90336E+01
#           3.99833E+01  4.09561E+01  4.19526E+01  4.29734E+01  4.40189E+01
#           4.50900E+01  4.61870E+01  4.73108E+01  4.84619E+01  4.96410E+01
#           5.08488E+01  5.20860E+01  5.33533E+01  5.46514E+01  5.59812E+01
#           5.73432E+01  5.87384E+01  6.01676E+01  6.16315E+01  6.31311E+01
#           6.46671E+01  6.62405E+01  6.78522E+01  6.95031E+01  7.11941E+01
#           7.29263E+01  7.47007E+01  7.65182E+01  7.83800E+01  8.02870E+01
#           8.22405E+01  8.42414E+01  8.62911E+01  8.83906E+01  9.05412E+01
#           9.27442E+01  9.50007E+01  9.73122E+01  9.96799E+01  1.02105E+02
#           1.04589E+02  1.07134E+02  1.09741E+02  1.12411E+02  1.15146E+02
#           1.17948E+02  1.20817E+02  1.23757E+02  1.26768E+02  1.29852E+02
#           1.33012E+02  1.36248E+02  1.39563E+02  1.42959E+02  1.46437E+02
#           1.50000E+02
     unit =    2            # unit is [1/cm^2/(MeV/n)/source]
     axis =  eng            # axis of output
     file = detector-26.out  # file name of output for the above axis
   output = f-curr          # surface crossing forward current spectrum
     part =  neutron  
# kf/name :  2112     
#    used :        main (  %)        temp (  %)       total (  %)
#  memory :         414 (  0)           0 (  0)         414 (  0)

#------------------------------------------------------------------------------
#newpage:
#   no. =    1   reg = 125 - 225

x: Energy [MeV/n]
y:  F-Curr [1/cm^2/(MeV/n)/source]         
p: xlog ylog afac(0.8) form(0.9)
h: n            x            y(neutron ),hh0l   n 
#  e-lower      e-upper      neutron     r.err 
   1.0000E-02   1.0243E-02   4.1722E-04  0.1395
   1.0243E-02   1.0493E-02   3.5804E-04  0.1489
   1.0493E-02   1.0748E-02   3.7448E-04  0.1439
   1.0748E-02   1.1009E-02   3.9388E-04  0.1390
   1.1009E-02   1.1277E-02   4.6403E-04  0.1260
   1.1277E-02   1.1552E-02   3.2576E-04  0.1487
   1.1552E-02   1.1833E-02   4.6106E-04  0.1238
   1.1833E-02   1.2121E-02   4.1182E-04  0.1290
   1.2121E-02   1.2415E-02   3.8989E-04  0.1315
   1.2415E-02   1.2718E-02   3.9223E-04  0.1297
   1.2718E-02   1.3027E-02   3.2125E-04  0.1400
   1.3027E-02   1.3344E-02   4.1780E-04  0.1227
   1.3344E-02   1.3669E-02   4.0477E-04  0.1230
   1.3669E-02   1.4001E-02   2.8382E-04  0.1453
   1.4001E-02   1.4342E-02   3.5813E-04  0.1275
   1.4342E-02   1.4691E-02   3.4563E-04  0.1270
   1.4691E-02   1.5048E-02   3.1764E-04  0.1321
   1.5048E-02   1.5414E-02   2.9643E-04  0.1355
   1.5414E-02   1.5789E-02   3.1068E-04  0.1299
   1.5789E-02   1.6174E-02   2.5257E-04  0.1430
   1.6174E-02   1.6567E-02   2.2412E-04  0.1494
   1.6567E-02   1.6970E-02   1.9351E-04  0.1601
   1.6970E-02   1.7383E-02   2.8809E-04  0.1293
   1.7383E-02   1.7806E-02   2.3683E-04  0.1403
   1.7806E-02   1.8239E-02   2.6900E-04  0.1308
   1.8239E-02   1.8683E-02   2.5998E-04  0.1311
   1.8683E-02   1.9138E-02   2.4899E-04  0.1324
   1.9138E-02   1.9603E-02   2.2685E-04  0.1368
   1.9603E-02   2.0080E-02   2.6950E-04  0.1245
   2.0080E-02   2.0569E-02   1.9751E-04  0.1437
   2.0569E-02   2.1069E-02   2.3285E-04  0.1308
   2.1069E-02   2.1582E-02   2.4506E-04  0.1255
   2.1582E-02   2.2107E-02   2.3371E-04  0.1274
   2.2107E-02   2.2645E-02   2.2037E-04  0.1297
   2.2645E-02   2.3196E-02   2.2296E-04  0.1273
   2.3196E-02   2.3760E-02   2.0463E-04  0.1301
   2.3760E-02   2.4338E-02   2.3595E-04  0.1203
   2.4338E-02   2.4930E-02   2.2208E-04  0.1222
   2.4930E-02   2.5537E-02   1.5413E-04  0.1456
   2.5537E-02   2.6158E-02   1.6448E-04  0.1387
   2.6158E-02   2.6795E-02   1.7782E-04  0.1324
   2.6795E-02   2.7447E-02   1.8593E-04  0.1279
   2.7447E-02   2.8114E-02   1.4799E-04  0.1418
   2.8114E-02   2.8799E-02   1.7303E-04  0.1298
   2.8799E-02   2.9499E-02   1.8436E-04  0.1240
   2.9499E-02   3.0217E-02   1.6162E-04  0.1313
   3.0217E-02   3.0952E-02   1.6498E-04  0.1279
   3.0952E-02   3.1705E-02   1.5167E-04  0.1315
   3.1705E-02   3.2477E-02   1.4896E-04  0.1315
   3.2477E-02   3.3267E-02   1.5487E-04  0.1277
   3.3267E-02   3.4076E-02   1.9378E-04  0.1127
   3.4076E-02   3.4905E-02   1.6045E-04  0.1223
   3.4905E-02   3.5755E-02   1.1926E-04  0.1398
   3.5755E-02   3.6625E-02   1.1410E-04  0.1412
   3.6625E-02   3.7516E-02   1.6537E-04  0.1161
   3.7516E-02   3.8428E-02   1.4559E-04  0.1224
   3.8428E-02   3.9363E-02   1.4441E-04  0.1214
   3.9363E-02   4.0321E-02   1.2775E-04  0.1269
   4.0321E-02   4.1302E-02   1.3795E-04  0.1211
   4.1302E-02   4.2307E-02   1.2033E-04  0.1282
   4.2307E-02   4.3337E-02   1.1353E-04  0.1297
   4.3337E-02   4.4391E-02   8.2014E-05  0.1518
   4.4391E-02   4.5471E-02   1.2455E-04  0.1218
   4.5471E-02   4.6577E-02   1.0889E-04  0.1287
   4.6577E-02   4.7711E-02   1.0805E-04  0.1276
   4.7711E-02   4.8871E-02   7.4688E-05  0.1514
   4.8871E-02   5.0061E-02   9.1528E-05  0.1352
   5.0061E-02   5.1279E-02   8.6054E-05  0.1360
   5.1279E-02   5.2526E-02   1.1948E-04  0.1155
   5.2526E-02   5.3804E-02   1.2453E-04  0.1118
   5.3804E-02   5.5113E-02   1.0963E-04  0.1177
   5.5113E-02   5.6454E-02   9.3162E-05  0.1262
   5.6454E-02   5.7828E-02   8.8000E-05  0.1283
   5.7828E-02   5.9235E-02   8.9899E-05  0.1256
   5.9235E-02   6.0676E-02   9.9789E-05  0.1174
   6.0676E-02   6.2152E-02   9.0519E-05  0.1210
   6.2152E-02   6.3665E-02   7.9208E-05  0.1286
   6.3665E-02   6.5214E-02   8.1752E-05  0.1248
   6.5214E-02   6.6800E-02   6.1619E-05  0.1422
   6.6800E-02   6.8426E-02   7.0491E-05  0.1310
   6.8426E-02   7.0090E-02   8.3891E-05  0.1192
   7.0090E-02   7.1796E-02   8.6014E-05  0.1165
   7.1796E-02   7.3543E-02   8.1461E-05  0.1184
   7.3543E-02   7.5332E-02   7.6807E-05  0.1203
   7.5332E-02   7.7165E-02   7.9152E-05  0.1171
   7.7165E-02   7.9042E-02   5.9316E-05  0.1334
   7.9042E-02   8.0965E-02   7.0909E-05  0.1203
   8.0965E-02   8.2935E-02   6.3375E-05  0.1262
   8.2935E-02   8.4953E-02   5.5737E-05  0.1331
   8.4953E-02   8.7020E-02   5.9793E-05  0.1266
   8.7020E-02   8.9138E-02   7.1984E-05  0.1144
   8.9138E-02   9.1306E-02   6.1710E-05  0.1216
   9.1306E-02   9.3528E-02   5.4336E-05  0.1284
   9.3528E-02   9.5804E-02   6.5766E-05  0.1151
   9.5804E-02   9.8134E-02   5.7755E-05  0.1216
   9.8134E-02   1.0052E-01   4.9001E-05  0.1303
   1.0052E-01   1.0297E-01   6.3051E-05  0.1133
   1.0297E-01   1.0547E-01   5.8333E-05  0.1164
   1.0547E-01   1.0804E-01   4.8183E-05  0.1265
   1.0804E-01   1.1067E-01   5.9723E-05  0.1126
   1.1067E-01   1.1336E-01   5.3308E-05  0.1177
   1.1336E-01   1.1612E-01   5.4767E-05  0.1148
   1.1612E-01   1.1894E-01   4.7576E-05  0.1214
   1.1894E-01   1.2184E-01   4.9628E-05  0.1176
   1.2184E-01   1.2480E-01   4.0487E-05  0.1283
   1.2480E-01   1.2784E-01   3.4249E-05  0.1387
   1.2784E-01   1.3095E-01   3.8527E-05  0.1278
   1.3095E-01   1.3414E-01   4.5485E-05  0.1172
   1.3414E-01   1.3740E-01   4.4588E-05  0.1167
   1.3740E-01   1.4074E-01   3.4600E-05  0.1308
   1.4074E-01   1.4417E-01   4.0606E-05  0.1190
   1.4417E-01   1.4767E-01   4.4471E-05  0.1128
   1.4767E-01   1.5127E-01   4.0206E-05  0.1175
   1.5127E-01   1.5495E-01   3.8019E-05  0.1189
   1.5495E-01   1.5872E-01   3.6339E-05  0.1206
   1.5872E-01   1.6258E-01   4.1165E-05  0.1114
   1.6258E-01   1.6654E-01   3.5334E-05  0.1190
   1.6654E-01   1.7059E-01   3.1417E-05  0.1249
   1.7059E-01   1.7474E-01   3.2776E-05  0.1205
   1.7474E-01   1.7899E-01   3.0569E-05  0.1233
   1.7899E-01   1.8334E-01   2.5698E-05  0.1330
   1.8334E-01   1.8781E-01   3.1554E-05  0.1189
   1.8781E-01   1.9237E-01   3.1406E-05  0.1176
   1.9237E-01   1.9706E-01   2.7368E-05  0.1243
   1.9706E-01   2.0185E-01   2.9892E-05  0.1177
   2.0185E-01   2.0676E-01   3.8936E-05  0.1017
   2.0676E-01   2.1179E-01   3.0706E-05  0.1137
   2.1179E-01   2.1694E-01   3.4319E-05  0.1061
   2.1694E-01   2.2222E-01   2.6902E-05  0.1172
   2.2222E-01   2.2763E-01   3.1645E-05  0.1070
   2.2763E-01   2.3317E-01   3.4130E-05  0.1022
   2.3317E-01   2.3884E-01   3.8743E-05  0.0951
   2.3884E-01   2.4465E-01   4.1561E-05  0.0905
   2.4465E-01   2.5061E-01   3.6901E-05  0.0951
   2.5061E-01   2.5670E-01   4.7923E-05  0.0825
   2.5670E-01   2.6295E-01   4.1744E-05  0.0872
   2.6295E-01   2.6935E-01   3.8700E-05  0.0894
   2.6935E-01   2.7590E-01   4.5531E-05  0.0814
   2.7590E-01   2.8261E-01   4.7153E-05  0.0791
   2.8261E-01   2.8949E-01   4.5161E-05  0.0797
   2.8949E-01   2.9653E-01   4.4909E-05  0.0790
   2.9653E-01   3.0375E-01   4.7509E-05  0.0760
   3.0375E-01   3.1114E-01   5.3313E-05  0.0708
   3.1114E-01   3.1871E-01   4.8118E-05  0.0738
   3.1871E-01   3.2646E-01   5.6589E-05  0.0671
   3.2646E-01   3.3441E-01   5.7692E-05  0.0655
   3.3441E-01   3.4254E-01   5.6722E-05  0.0654
   3.4254E-01   3.5088E-01   5.4605E-05  0.0659
   3.5088E-01   3.5941E-01   5.8063E-05  0.0632
   3.5941E-01   3.6816E-01   6.2028E-05  0.0603
   3.6816E-01   3.7712E-01   6.3945E-05  0.0588
   3.7712E-01   3.8629E-01   6.9783E-05  0.0556
   3.8629E-01   3.9569E-01   6.4414E-05  0.0571
   3.9569E-01   4.0532E-01   6.2908E-05  0.0572
   4.0532E-01   4.1518E-01   6.8816E-05  0.0541
   4.1518E-01   4.2528E-01   6.3530E-05  0.0556
   4.2528E-01   4.3563E-01   6.7464E-05  0.0533
   4.3563E-01   4.4623E-01   6.6912E-05  0.0527
   4.4623E-01   4.5708E-01   7.0045E-05  0.0508
   4.5708E-01   4.6821E-01   7.3220E-05  0.0493
   4.6821E-01   4.7960E-01   7.0710E-05  0.0494
   4.7960E-01   4.9127E-01   7.3385E-05  0.0481
   4.9127E-01   5.0322E-01   7.0532E-05  0.0485
   5.0322E-01   5.1546E-01   7.3858E-05  0.0468
   5.1546E-01   5.2800E-01   8.1018E-05  0.0441
   5.2800E-01   5.4085E-01   7.7547E-05  0.0444
   5.4085E-01   5.5401E-01   7.9938E-05  0.0433
   5.5401E-01   5.6749E-01   7.8474E-05  0.0431
   5.6749E-01   5.8130E-01   8.1309E-05  0.0419
   5.8130E-01   5.9544E-01   8.3376E-05  0.0409
   5.9544E-01   6.0993E-01   8.4101E-05  0.0402
   6.0993E-01   6.2477E-01   8.0378E-05  0.0405
   6.2477E-01   6.3997E-01   7.8015E-05  0.0407
   6.3997E-01   6.5554E-01   7.9736E-05  0.0398
   6.5554E-01   6.7149E-01   7.9841E-05  0.0392
   6.7149E-01   6.8783E-01   7.8657E-05  0.0391
   6.8783E-01   7.0456E-01   8.3050E-05  0.0377
   7.0456E-01   7.2171E-01   8.1815E-05  0.0375
   7.2171E-01   7.3927E-01   8.7475E-05  0.0357
   7.3927E-01   7.5725E-01   7.8033E-05  0.0374
   7.5725E-01   7.7568E-01   8.3135E-05  0.0359
   7.7568E-01   7.9455E-01   8.4812E-05  0.0351
   7.9455E-01   8.1388E-01   7.9736E-05  0.0356
   8.1388E-01   8.3368E-01   8.0656E-05  0.0351
   8.3368E-01   8.5397E-01   7.8050E-05  0.0352
   8.5397E-01   8.7475E-01   8.0151E-05  0.0344
   8.7475E-01   8.9603E-01   8.0967E-05  0.0338
   8.9603E-01   9.1783E-01   7.9346E-05  0.0337
   9.1783E-01   9.4016E-01   7.5991E-05  0.0340
   9.4016E-01   9.6304E-01   7.7650E-05  0.0332
   9.6304E-01   9.8647E-01   7.5552E-05  0.0332
   9.8647E-01   1.0105E+00   7.2272E-05  0.0337
   1.0105E+00   1.0351E+00   7.2952E-05  0.0330
   1.0351E+00   1.0602E+00   7.2818E-05  0.0327
   1.0602E+00   1.0860E+00   7.0884E-05  0.0327
   1.0860E+00   1.1125E+00   7.0752E-05  0.0324
   1.1125E+00   1.1395E+00   6.6164E-05  0.0331
   1.1395E+00   1.1673E+00   6.2253E-05  0.0336
   1.1673E+00   1.1957E+00   6.3535E-05  0.0329
   1.1957E+00   1.2247E+00   6.3948E-05  0.0324
   1.2247E+00   1.2545E+00   6.1102E-05  0.0328
   1.2545E+00   1.2851E+00   5.9395E-05  0.0329
   1.2851E+00   1.3163E+00   6.2762E-05  0.0316
   1.3163E+00   1.3484E+00   5.6952E-05  0.0328
   1.3484E+00   1.3812E+00   5.6070E-05  0.0327
   1.3812E+00   1.4148E+00   5.7655E-05  0.0318
   1.4148E+00   1.4492E+00   5.4024E-05  0.0324
   1.4492E+00   1.4845E+00   5.3546E-05  0.0322
   1.4845E+00   1.5206E+00   5.1442E-05  0.0325
   1.5206E+00   1.5576E+00   5.2318E-05  0.0318
   1.5576E+00   1.5955E+00   5.0581E-05  0.0320
   1.5955E+00   1.6343E+00   5.0383E-05  0.0316
   1.6343E+00   1.6741E+00   4.3568E-05  0.0336
   1.6741E+00   1.7148E+00   4.5914E-05  0.0323
   1.7148E+00   1.7565E+00   4.4413E-05  0.0325
   1.7565E+00   1.7992E+00   4.3296E-05  0.0325
   1.7992E+00   1.8430E+00   4.2444E-05  0.0324
   1.8430E+00   1.8879E+00   4.2870E-05  0.0319
   1.8879E+00   1.9338E+00   4.0352E-05  0.0325
   1.9338E+00   1.9808E+00   4.1250E-05  0.0317
   1.9808E+00   2.0290E+00   3.6929E-05  0.0332
   2.0290E+00   2.0784E+00   3.6800E-05  0.0327
   2.0784E+00   2.1290E+00   3.9425E-05  0.0313
   2.1290E+00   2.1808E+00   3.5764E-05  0.0325
   2.1808E+00   2.2338E+00   3.5611E-05  0.0322
   2.2338E+00   2.2882E+00   3.1444E-05  0.0337
   2.2882E+00   2.3439E+00   3.3057E-05  0.0325
   2.3439E+00   2.4009E+00   3.0881E-05  0.0332
   2.4009E+00   2.4593E+00   3.1916E-05  0.0324
   2.4593E+00   2.5191E+00   3.0692E-05  0.0327
   2.5191E+00   2.5804E+00   2.8737E-05  0.0332
   2.5804E+00   2.6432E+00   2.9531E-05  0.0323
   2.6432E+00   2.7075E+00   2.7076E-05  0.0335
   2.7075E+00   2.7734E+00   2.6237E-05  0.0336
   2.7734E+00   2.8409E+00   2.4933E-05  0.0341
   2.8409E+00   2.9100E+00   2.4646E-05  0.0338
   2.9100E+00   2.9808E+00   2.4598E-05  0.0335
   2.9808E+00   3.0533E+00   2.4546E-05  0.0331
   3.0533E+00   3.1276E+00   2.4414E-05  0.0328
   3.1276E+00   3.2037E+00   2.1424E-05  0.0346
   3.2037E+00   3.2817E+00   2.2375E-05  0.0335
   3.2817E+00   3.3615E+00   2.1723E-05  0.0335
   3.3615E+00   3.4433E+00   1.9602E-05  0.0349
   3.4433E+00   3.5271E+00   2.0450E-05  0.0337
   3.5271E+00   3.6129E+00   1.8701E-05  0.0348
   3.6129E+00   3.7008E+00   1.8108E-05  0.0350
   3.7008E+00   3.7908E+00   1.6522E-05  0.0362
   3.7908E+00   3.8831E+00   1.8913E-05  0.0335
   3.8831E+00   3.9776E+00   1.6695E-05  0.0351
   3.9776E+00   4.0743E+00   1.6452E-05  0.0349
   4.0743E+00   4.1735E+00   1.6170E-05  0.0349
   4.1735E+00   4.2750E+00   1.6545E-05  0.0341
   4.2750E+00   4.3790E+00   1.5629E-05  0.0347
   4.3790E+00   4.4856E+00   1.6113E-05  0.0338
   4.4856E+00   4.5947E+00   1.4742E-05  0.0349
   4.5947E+00   4.7065E+00   1.5300E-05  0.0339
   4.7065E+00   4.8210E+00   1.4929E-05  0.0339
   4.8210E+00   4.9383E+00   1.4213E-05  0.0343
   4.9383E+00   5.0585E+00   1.4333E-05  0.0337
   5.0585E+00   5.1815E+00   1.3345E-05  0.0346
   5.1815E+00   5.3076E+00   1.4117E-05  0.0332
   5.3076E+00   5.4368E+00   1.3538E-05  0.0335
   5.4368E+00   5.5690E+00   1.2676E-05  0.0342
   5.5690E+00   5.7045E+00   1.2471E-05  0.0341
   5.7045E+00   5.8433E+00   1.1339E-05  0.0354
   5.8433E+00   5.9855E+00   1.0849E-05  0.0357
   5.9855E+00   6.1311E+00   1.0600E-05  0.0357
   6.1311E+00   6.2803E+00   1.0501E-05  0.0355
   6.2803E+00   6.4331E+00   1.0071E-05  0.0358
   6.4331E+00   6.5896E+00   9.6307E-06  0.0362
   6.5896E+00   6.7500E+00   9.0796E-06  0.0369
   6.7500E+00   6.9142E+00   9.3438E-06  0.0358
   6.9142E+00   7.0824E+00   8.8311E-06  0.0365
   7.0824E+00   7.2548E+00   8.5183E-06  0.0367
   7.2548E+00   7.4313E+00   8.1825E-06  0.0371
   7.4313E+00   7.6121E+00   8.1419E-06  0.0367
   7.6121E+00   7.7973E+00   7.0778E-06  0.0389
   7.7973E+00   7.9870E+00   7.5031E-06  0.0373
   7.9870E+00   8.1813E+00   6.8436E-06  0.0386
   8.1813E+00   8.3804E+00   6.7897E-06  0.0383
   8.3804E+00   8.5843E+00   6.1123E-06  0.0399
   8.5843E+00   8.7931E+00   6.1224E-06  0.0394
   8.7931E+00   9.0071E+00   6.1621E-06  0.0389
   9.0071E+00   9.2262E+00   5.7597E-06  0.0397
   9.2262E+00   9.4507E+00   4.8362E-06  0.0428
   9.4507E+00   9.6807E+00   4.9671E-06  0.0418
   9.6807E+00   9.9162E+00   4.9511E-06  0.0414
   9.9162E+00   1.0157E+01   4.2431E-06  0.0441
   1.0157E+01   1.0405E+01   4.4536E-06  0.0426
   1.0405E+01   1.0658E+01   4.2814E-06  0.0429
   1.0658E+01   1.0917E+01   4.2444E-06  0.0426
   1.0917E+01   1.1183E+01   3.6119E-06  0.0456
   1.1183E+01   1.1455E+01   3.5656E-06  0.0454
   1.1455E+01   1.1733E+01   3.2459E-06  0.0470
   1.1733E+01   1.2019E+01   3.1970E-06  0.0468
   1.2019E+01   1.2311E+01   3.1839E-06  0.0463
   1.2311E+01   1.2611E+01   2.9101E-06  0.0478
   1.2611E+01   1.2918E+01   2.7984E-06  0.0482
   1.2918E+01   1.3232E+01   2.4435E-06  0.0510
   1.3232E+01   1.3554E+01   2.3205E-06  0.0517
   1.3554E+01   1.3884E+01   2.2880E-06  0.0515
   1.3884E+01   1.4222E+01   2.0324E-06  0.0540
   1.4222E+01   1.4568E+01   2.0230E-06  0.0535
   1.4568E+01   1.4922E+01   1.9242E-06  0.0542
   1.4922E+01   1.5285E+01   1.7407E-06  0.0563
   1.5285E+01   1.5657E+01   1.6348E-06  0.0574
   1.5657E+01   1.6038E+01   1.4428E-06  0.0603
   1.6038E+01   1.6428E+01   1.4877E-06  0.0587
   1.6428E+01   1.6828E+01   1.2959E-06  0.0621
   1.6828E+01   1.7237E+01   1.3837E-06  0.0594
   1.7237E+01   1.7657E+01   1.1493E-06  0.0644
   1.7657E+01   1.8086E+01   1.0754E-06  0.0658
   1.8086E+01   1.8526E+01   1.0408E-06  0.0661
   1.8526E+01   1.8977E+01   8.8739E-07  0.0707
   1.8977E+01   1.9439E+01   9.7893E-07  0.0665
   1.9439E+01   1.9912E+01   8.8379E-07  0.0692
   1.9912E+01   2.0396E+01   8.2151E-07  0.0709
   2.0396E+01   2.0893E+01   6.5288E-07  0.0786
   2.0893E+01   2.1401E+01   5.5869E-07  0.0839
   2.1401E+01   2.1922E+01   5.8383E-07  0.0811
   2.1922E+01   2.2455E+01   5.1371E-07  0.0854
   2.2455E+01   2.3001E+01   3.9901E-07  0.0958
   2.3001E+01   2.3561E+01   4.7530E-07  0.0867
   2.3561E+01   2.4134E+01   3.3842E-07  0.1015
   2.4134E+01   2.4721E+01   3.0654E-07  0.1054
   2.4721E+01   2.5323E+01   2.6600E-07  0.1118
   2.5323E+01   2.5939E+01   1.9476E-07  0.1291
   2.5939E+01   2.6570E+01   2.6303E-07  0.1098
   2.6570E+01   2.7217E+01   2.0418E-07  0.1231
   2.7217E+01   2.7879E+01   1.5705E-07  0.1387
   2.7879E+01   2.8557E+01   1.7396E-07  0.1302
   2.8557E+01   2.9252E+01   1.3529E-07  0.1459
   2.9252E+01   2.9964E+01   1.0959E-07  0.1601
   2.9964E+01   3.0693E+01   8.5043E-08  0.1796
   3.0693E+01   3.1440E+01   6.1598E-08  0.2085
   3.1440E+01   3.2205E+01   7.8437E-08  0.1826
   3.2205E+01   3.2988E+01   5.1049E-08  0.2236
   3.2988E+01   3.3791E+01   4.7345E-08  0.2294
   3.3791E+01   3.4613E+01   3.4057E-08  0.2673
   3.4613E+01   3.5455E+01   4.7497E-08  0.2236
   3.5455E+01   3.6318E+01   3.2458E-08  0.2673
   3.6318E+01   3.7201E+01   2.2634E-08  0.3162
   3.7201E+01   3.8106E+01   2.4306E-08  0.3015
   3.8106E+01   3.9034E+01   2.3728E-08  0.3015
   3.9034E+01   3.9983E+01   1.8953E-08  0.3333
   3.9983E+01   4.0956E+01   1.0279E-08  0.4472
   4.0956E+01   4.1953E+01   6.0211E-09  0.5774
   4.1953E+01   4.2973E+01   5.8781E-09  0.5774
   4.2973E+01   4.4019E+01   5.7385E-09  0.5774
   4.4019E+01   4.5090E+01   3.7348E-09  0.7071
   4.5090E+01   4.6187E+01   1.8230E-09  1.0000
   4.6187E+01   4.7311E+01   5.3392E-09  0.5774
   4.7311E+01   4.8462E+01   6.9498E-09  0.5000
   4.8462E+01   4.9641E+01   1.6962E-09  1.0000
   4.9641E+01   5.0849E+01   0.0000E+00  0.0000
   5.0849E+01   5.2086E+01   0.0000E+00  0.0000
   5.2086E+01   5.3353E+01   0.0000E+00  0.0000
   5.3353E+01   5.4651E+01   0.0000E+00  0.0000
   5.4651E+01   5.5981E+01   0.0000E+00  0.0000
   5.5981E+01   5.7343E+01   0.0000E+00  0.0000
   5.7343E+01   5.8738E+01   0.0000E+00  0.0000
   5.8738E+01   6.0168E+01   0.0000E+00  0.0000
   6.0168E+01   6.1632E+01   0.0000E+00  0.0000
   6.1632E+01   6.3131E+01   0.0000E+00  0.0000
   6.3131E+01   6.4667E+01   0.0000E+00  0.0000
   6.4667E+01   6.6240E+01   0.0000E+00  0.0000
   6.6240E+01   6.7852E+01   0.0000E+00  0.0000
   6.7852E+01   6.9503E+01   0.0000E+00  0.0000
   6.9503E+01   7.1194E+01   0.0000E+00  0.0000
   7.1194E+01   7.2926E+01   0.0000E+00  0.0000
   7.2926E+01   7.4701E+01   0.0000E+00  0.0000
   7.4701E+01   7.6518E+01   0.0000E+00  0.0000
   7.6518E+01   7.8380E+01   0.0000E+00  0.0000
   7.8380E+01   8.0287E+01   0.0000E+00  0.0000
   8.0287E+01   8.2240E+01   0.0000E+00  0.0000
   8.2240E+01   8.4241E+01   0.0000E+00  0.0000
   8.4241E+01   8.6291E+01   0.0000E+00  0.0000
   8.6291E+01   8.8391E+01   0.0000E+00  0.0000
   8.8391E+01   9.0541E+01   0.0000E+00  0.0000
   9.0541E+01   9.2744E+01   0.0000E+00  0.0000
   9.2744E+01   9.5001E+01   0.0000E+00  0.0000
   9.5001E+01   9.7312E+01   0.0000E+00  0.0000
   9.7312E+01   9.9680E+01   0.0000E+00  0.0000
   9.9680E+01   1.0211E+02   0.0000E+00  0.0000
   1.0211E+02   1.0459E+02   0.0000E+00  0.0000
   1.0459E+02   1.0713E+02   0.0000E+00  0.0000
   1.0713E+02   1.0974E+02   0.0000E+00  0.0000
   1.0974E+02   1.1241E+02   0.0000E+00  0.0000
   1.1241E+02   1.1515E+02   0.0000E+00  0.0000
   1.1515E+02   1.1795E+02   0.0000E+00  0.0000
   1.1795E+02   1.2082E+02   0.0000E+00  0.0000
   1.2082E+02   1.2376E+02   0.0000E+00  0.0000
   1.2376E+02   1.2677E+02   0.0000E+00  0.0000
   1.2677E+02   1.2985E+02   0.0000E+00  0.0000
   1.2985E+02   1.3301E+02   0.0000E+00  0.0000
   1.3301E+02   1.3625E+02   0.0000E+00  0.0000
   1.3625E+02   1.3956E+02   0.0000E+00  0.0000
   1.3956E+02   1.4296E+02   0.0000E+00  0.0000
   1.4296E+02   1.4644E+02   0.0000E+00  0.0000
   1.4644E+02   1.5000E+02   0.0000E+00  0.0000

#   sum over                 1.7180E-06
'no. =    1   reg = 125 - 225'
msuc: {\huge [t-cross] in region mesh}
msdr: {\it plotted by \ANGEL \version}
msdl: {\it calculated by \PHITS  3.26}
wt: s(0.7)
\vspace{-3}
  region surface crossing
  area  &=&   1.0000E+00 [cm^2]
e:
 
# Information for Restart Calculation
# This calculation was newly started
# istdev =  2 # 1:Batch variance, 2:History variance
# resc2  = 5.00000000000000000E+08 # Total source weight or Total source weight / maxcas
# resc3  = 5.00000000000000000E+08 # Total history number or Total batch number
# maxcas =   500000000 # History / Batch, only used for istdev=1
# bitrseed = 1101101111010011011000101101110001100110110010110001010100010001 # bit data of rseed
