[ T-Cross ]
    title = [t-cross] in region mesh
     mesh =  reg            # mesh type is region-wise
      reg =    1            # number of crossing regions
      non     r-from    r-to       area
      1       121       221        1.000000    
   e-type =    3            # e-mesh is log given by emin, emax and ne
     emin =  1.0000000E-02  # minimum value of e-mesh points
     emax =   150.0000      # maximum value of e-mesh points
#    edel =  2.4039514E-02  # mesh width of e-mesh points
       ne =    400          # number of e-mesh points
#    data = ( e(i), i = 1, ne + 1 )
#           1.00000E-02  1.02433E-02  1.04925E-02  1.07478E-02  1.10093E-02
#           1.12772E-02  1.15516E-02  1.18326E-02  1.21205E-02  1.24154E-02
#           1.27175E-02  1.30269E-02  1.33439E-02  1.36686E-02  1.40011E-02
#           1.43418E-02  1.46907E-02  1.50482E-02  1.54143E-02  1.57894E-02
#           1.61735E-02  1.65670E-02  1.69701E-02  1.73830E-02  1.78060E-02
#           1.82392E-02  1.86830E-02  1.91375E-02  1.96032E-02  2.00801E-02
#           2.05687E-02  2.10692E-02  2.15818E-02  2.21069E-02  2.26448E-02
#           2.31957E-02  2.37601E-02  2.43382E-02  2.49304E-02  2.55369E-02
#           2.61583E-02  2.67947E-02  2.74467E-02  2.81145E-02  2.87985E-02
#           2.94992E-02  3.02169E-02  3.09521E-02  3.17052E-02  3.24766E-02
#           3.32668E-02  3.40762E-02  3.49053E-02  3.57546E-02  3.66246E-02
#           3.75157E-02  3.84284E-02  3.93634E-02  4.03212E-02  4.13022E-02
#           4.23071E-02  4.33365E-02  4.43909E-02  4.54710E-02  4.65773E-02
#           4.77106E-02  4.88714E-02  5.00605E-02  5.12785E-02  5.25262E-02
#           5.38042E-02  5.51133E-02  5.64542E-02  5.78278E-02  5.92348E-02
#           6.06760E-02  6.21523E-02  6.36645E-02  6.52135E-02  6.68002E-02
#           6.84255E-02  7.00904E-02  7.17957E-02  7.35426E-02  7.53319E-02
#           7.71648E-02  7.90423E-02  8.09655E-02  8.29354E-02  8.49533E-02
#           8.70203E-02  8.91376E-02  9.13064E-02  9.35279E-02  9.58035E-02
#           9.81345E-02  1.00522E-01  1.02968E-01  1.05473E-01  1.08040E-01
#           1.10668E-01  1.13361E-01  1.16119E-01  1.18944E-01  1.21838E-01
#           1.24803E-01  1.27839E-01  1.30950E-01  1.34136E-01  1.37399E-01
#           1.40742E-01  1.44167E-01  1.47675E-01  1.51268E-01  1.54948E-01
#           1.58718E-01  1.62580E-01  1.66535E-01  1.70587E-01  1.74738E-01
#           1.78989E-01  1.83344E-01  1.87805E-01  1.92375E-01  1.97055E-01
#           2.01850E-01  2.06761E-01  2.11792E-01  2.16945E-01  2.22223E-01
#           2.27630E-01  2.33169E-01  2.38842E-01  2.44653E-01  2.50605E-01
#           2.56703E-01  2.62949E-01  2.69346E-01  2.75900E-01  2.82613E-01
#           2.89489E-01  2.96532E-01  3.03747E-01  3.11138E-01  3.18708E-01
#           3.26462E-01  3.34405E-01  3.42542E-01  3.50876E-01  3.59413E-01
#           3.68158E-01  3.77116E-01  3.86291E-01  3.95690E-01  4.05317E-01
#           4.15179E-01  4.25281E-01  4.35628E-01  4.46227E-01  4.57084E-01
#           4.68205E-01  4.79597E-01  4.91266E-01  5.03219E-01  5.15463E-01
#           5.28005E-01  5.40851E-01  5.54011E-01  5.67490E-01  5.81298E-01
#           5.95441E-01  6.09929E-01  6.24769E-01  6.39970E-01  6.55541E-01
#           6.71491E-01  6.87828E-01  7.04564E-01  7.21706E-01  7.39266E-01
#           7.57253E-01  7.75678E-01  7.94551E-01  8.13883E-01  8.33685E-01
#           8.53969E-01  8.74747E-01  8.96030E-01  9.17831E-01  9.40163E-01
#           9.63038E-01  9.86469E-01  1.01047E+00  1.03506E+00  1.06024E+00
#           1.08604E+00  1.11246E+00  1.13953E+00  1.16725E+00  1.19565E+00
#           1.22474E+00  1.25454E+00  1.28507E+00  1.31633E+00  1.34836E+00
#           1.38117E+00  1.41477E+00  1.44920E+00  1.48446E+00  1.52057E+00
#           1.55757E+00  1.59547E+00  1.63429E+00  1.67405E+00  1.71478E+00
#           1.75650E+00  1.79924E+00  1.84302E+00  1.88786E+00  1.93379E+00
#           1.98084E+00  2.02904E+00  2.07841E+00  2.12898E+00  2.18078E+00
#           2.23384E+00  2.28819E+00  2.34386E+00  2.40089E+00  2.45930E+00
#           2.51914E+00  2.58043E+00  2.64322E+00  2.70753E+00  2.77341E+00
#           2.84088E+00  2.91001E+00  2.98081E+00  3.05333E+00  3.12762E+00
#           3.20372E+00  3.28167E+00  3.36152E+00  3.44330E+00  3.52708E+00
#           3.61290E+00  3.70080E+00  3.79085E+00  3.88308E+00  3.97756E+00
#           4.07434E+00  4.17347E+00  4.27501E+00  4.37903E+00  4.48557E+00
#           4.59471E+00  4.70650E+00  4.82102E+00  4.93832E+00  5.05847E+00
#           5.18155E+00  5.30762E+00  5.43676E+00  5.56904E+00  5.70453E+00
#           5.84333E+00  5.98550E+00  6.13114E+00  6.28031E+00  6.43312E+00
#           6.58964E+00  6.74997E+00  6.91420E+00  7.08243E+00  7.25475E+00
#           7.43126E+00  7.61207E+00  7.79728E+00  7.98700E+00  8.18133E+00
#           8.38038E+00  8.58428E+00  8.79315E+00  9.00709E+00  9.22624E+00
#           9.45072E+00  9.68067E+00  9.91620E+00  1.01575E+01  1.04046E+01
#           1.06578E+01  1.09171E+01  1.11827E+01  1.14548E+01  1.17335E+01
#           1.20190E+01  1.23114E+01  1.26109E+01  1.29178E+01  1.32321E+01
#           1.35540E+01  1.38838E+01  1.42216E+01  1.45676E+01  1.49221E+01
#           1.52851E+01  1.56570E+01  1.60380E+01  1.64282E+01  1.68279E+01
#           1.72374E+01  1.76568E+01  1.80864E+01  1.85264E+01  1.89772E+01
#           1.94389E+01  1.99119E+01  2.03963E+01  2.08926E+01  2.14009E+01
#           2.19216E+01  2.24550E+01  2.30014E+01  2.35610E+01  2.41343E+01
#           2.47215E+01  2.53230E+01  2.59391E+01  2.65702E+01  2.72167E+01
#           2.78789E+01  2.85572E+01  2.92520E+01  2.99637E+01  3.06928E+01
#           3.14396E+01  3.22045E+01  3.29881E+01  3.37907E+01  3.46128E+01
#           3.54550E+01  3.63177E+01  3.72013E+01  3.81064E+01  3.90336E+01
#           3.99833E+01  4.09561E+01  4.19526E+01  4.29734E+01  4.40189E+01
#           4.50900E+01  4.61870E+01  4.73108E+01  4.84619E+01  4.96410E+01
#           5.08488E+01  5.20860E+01  5.33533E+01  5.46514E+01  5.59812E+01
#           5.73432E+01  5.87384E+01  6.01676E+01  6.16315E+01  6.31311E+01
#           6.46671E+01  6.62405E+01  6.78522E+01  6.95031E+01  7.11941E+01
#           7.29263E+01  7.47007E+01  7.65182E+01  7.83800E+01  8.02870E+01
#           8.22405E+01  8.42414E+01  8.62911E+01  8.83906E+01  9.05412E+01
#           9.27442E+01  9.50007E+01  9.73122E+01  9.96799E+01  1.02105E+02
#           1.04589E+02  1.07134E+02  1.09741E+02  1.12411E+02  1.15146E+02
#           1.17948E+02  1.20817E+02  1.23757E+02  1.26768E+02  1.29852E+02
#           1.33012E+02  1.36248E+02  1.39563E+02  1.42959E+02  1.46437E+02
#           1.50000E+02
     unit =    2            # unit is [1/cm^2/(MeV/n)/source]
     axis =  eng            # axis of output
     file = detector-22.out  # file name of output for the above axis
   output = f-curr          # surface crossing forward current spectrum
     part =  neutron  
# kf/name :  2112     
#    used :        main (  %)        temp (  %)       total (  %)
#  memory :         414 (  0)           0 (  0)         414 (  0)

#------------------------------------------------------------------------------
#newpage:
#   no. =    1   reg = 121 - 221

x: Energy [MeV/n]
y:  F-Curr [1/cm^2/(MeV/n)/source]         
p: xlog ylog afac(0.8) form(0.9)
h: n            x            y(neutron ),hh0l   n 
#  e-lower      e-upper      neutron     r.err 
   1.0000E-02   1.0243E-02   3.8972E-05  0.1644
   1.0243E-02   1.0493E-02   4.4221E-05  0.1525
   1.0493E-02   1.0748E-02   4.8192E-05  0.1443
   1.0748E-02   1.1009E-02   4.3122E-05  0.1508
   1.1009E-02   1.1277E-02   4.8322E-05  0.1404
   1.1277E-02   1.1552E-02   3.8296E-05  0.1562
   1.1552E-02   1.1833E-02   3.9190E-05  0.1525
   1.1833E-02   1.2121E-02   5.0747E-05  0.1325
   1.2121E-02   1.2415E-02   5.4414E-05  0.1261
   1.2415E-02   1.2718E-02   4.4116E-05  0.1387
   1.2718E-02   1.3027E-02   3.3970E-05  0.1562
   1.3027E-02   1.3344E-02   3.5581E-05  0.1508
   1.3344E-02   1.3669E-02   4.1051E-05  0.1387
   1.3669E-02   1.4001E-02   3.3909E-05  0.1508
   1.4001E-02   1.4342E-02   3.3089E-05  0.1508
   1.4342E-02   1.4691E-02   4.7738E-05  0.1240
   1.4691E-02   1.5048E-02   4.4458E-05  0.1270
   1.5048E-02   1.5414E-02   3.8357E-05  0.1349
   1.5414E-02   1.5789E-02   3.3883E-05  0.1415
   1.5789E-02   1.6174E-02   3.2029E-05  0.1443
   1.6174E-02   1.6567E-02   3.4402E-05  0.1374
   1.6567E-02   1.6970E-02   2.6710E-05  0.1543
   1.6970E-02   1.7383E-02   3.2903E-05  0.1374
   1.7383E-02   1.7806E-02   3.0304E-05  0.1414
   1.7806E-02   1.8239E-02   3.5962E-05  0.1281
   1.8239E-02   1.8683E-02   3.8695E-05  0.1222
   1.8683E-02   1.9138E-02   2.4813E-05  0.1508
   1.9138E-02   1.9603E-02   2.6971E-05  0.1429
   1.9603E-02   2.0080E-02   2.8363E-05  0.1374
   2.0080E-02   2.0569E-02   3.0947E-05  0.1302
   2.0569E-02   2.1069E-02   1.9870E-05  0.1602
   2.1069E-02   2.1582E-02   3.0992E-05  0.1270
   2.1582E-02   2.2107E-02   2.3426E-05  0.1443
   2.2107E-02   2.2645E-02   2.8116E-05  0.1302
   2.2645E-02   2.3196E-02   2.3728E-05  0.1400
   2.3196E-02   2.3760E-02   2.6789E-05  0.1302
   2.3760E-02   2.4338E-02   1.8903E-05  0.1526
   2.4338E-02   2.4930E-02   2.4240E-05  0.1336
   2.4930E-02   2.5537E-02   2.5349E-05  0.1291
   2.5537E-02   2.6158E-02   2.3430E-05  0.1325
   2.6158E-02   2.6795E-02   1.9843E-05  0.1422
   2.6795E-02   2.7447E-02   2.3500E-05  0.1291
   2.7447E-02   2.8114E-02   1.6614E-05  0.1512
   2.8114E-02   2.8799E-02   2.6600E-05  0.1187
   2.8799E-02   2.9499E-02   2.4141E-05  0.1231
   2.9499E-02   3.0217E-02   2.3924E-05  0.1222
   3.0217E-02   3.0952E-02   2.2311E-05  0.1250
   3.0952E-02   3.1705E-02   2.2733E-05  0.1222
   3.1705E-02   3.2477E-02   1.7550E-05  0.1374
   3.2477E-02   3.3267E-02   1.2322E-05  0.1622
   3.3267E-02   3.4076E-02   1.6575E-05  0.1377
   3.4076E-02   3.4905E-02   1.8546E-05  0.1291
   3.4905E-02   3.5755E-02   1.4790E-05  0.1429
   3.5755E-02   3.6625E-02   1.7386E-05  0.1302
   3.6625E-02   3.7516E-02   1.6762E-05  0.1307
   3.7516E-02   3.8428E-02   1.7889E-05  0.1250
   3.8428E-02   3.9363E-02   1.4527E-05  0.1374
   3.9363E-02   4.0321E-02   1.2842E-05  0.1443
   4.0321E-02   4.1302E-02   1.6720E-05  0.1250
   4.1302E-02   4.2307E-02   1.5506E-05  0.1281
   4.2307E-02   4.3337E-02   1.3741E-05  0.1344
   4.3337E-02   4.4391E-02   1.1669E-05  0.1443
   4.4391E-02   4.5471E-02   1.2301E-05  0.1387
   4.5471E-02   4.6577E-02   1.2280E-05  0.1374
   4.6577E-02   4.7711E-02   1.5359E-05  0.1213
   4.7711E-02   4.8871E-02   1.2619E-05  0.1321
   4.8871E-02   5.0061E-02   1.1423E-05  0.1374
   5.0061E-02   5.1279E-02   9.6810E-06  0.1474
   5.1279E-02   5.2526E-02   1.2216E-05  0.1292
   5.2526E-02   5.3804E-02   1.1230E-05  0.1336
   5.3804E-02   5.5113E-02   1.1943E-05  0.1280
   5.5113E-02   5.6454E-02   1.0891E-05  0.1325
   5.6454E-02   5.7828E-02   1.0636E-05  0.1325
   5.7828E-02   5.9235E-02   1.2749E-05  0.1195
   5.9235E-02   6.0676E-02   9.2483E-06  0.1387
   6.0676E-02   6.2152E-02   9.5490E-06  0.1348
   6.2152E-02   6.3665E-02   1.0335E-05  0.1280
   6.3665E-02   6.5214E-02   7.9412E-06  0.1443
   6.5214E-02   6.6800E-02   1.2110E-05  0.1155
   6.6800E-02   6.8426E-02   6.3084E-06  0.1581
   6.8426E-02   7.0090E-02   9.5303E-06  0.1270
   7.0090E-02   7.1796E-02   9.3166E-06  0.1270
   7.1796E-02   7.3543E-02   8.5084E-06  0.1313
   7.3543E-02   7.5332E-02   6.8753E-06  0.1443
   7.5332E-02   7.7165E-02   7.4104E-06  0.1374
   7.7165E-02   7.9042E-02   8.4429E-06  0.1270
   7.9042E-02   8.0965E-02   7.1961E-06  0.1361
   8.0965E-02   8.2935E-02   1.0122E-05  0.1133
   8.2935E-02   8.4953E-02   6.3497E-06  0.1414
   8.4953E-02   8.7020E-02   6.8441E-06  0.1344
   8.7020E-02   8.9138E-02   7.2629E-06  0.1291
   8.9138E-02   9.1306E-02   7.4437E-06  0.1260
   9.1306E-02   9.3528E-02   9.4580E-06  0.1104
   9.3528E-02   9.5804E-02   6.5141E-06  0.1313
   9.5804E-02   9.8134E-02   7.5861E-06  0.1204
   9.8134E-02   1.0052E-01   6.3155E-06  0.1302
   1.0052E-01   1.0297E-01   6.5703E-06  0.1260
   1.0297E-01   1.0547E-01   6.7337E-06  0.1231
   1.0547E-01   1.0804E-01   6.1916E-06  0.1270
   1.0804E-01   1.1067E-01   7.8960E-06  0.1111
   1.1067E-01   1.1336E-01   7.4223E-06  0.1132
   1.1336E-01   1.1612E-01   6.9919E-06  0.1151
   1.1612E-01   1.1894E-01   9.5089E-06  0.0976
   1.1894E-01   1.2184E-01   8.2342E-06  0.1037
   1.2184E-01   1.2480E-01   8.2115E-06  0.1026
   1.2480E-01   1.2784E-01   1.1629E-05  0.0851
   1.2784E-01   1.3095E-01   9.8850E-06  0.0913
   1.3095E-01   1.3414E-01   1.0518E-05  0.0874
   1.3414E-01   1.3740E-01   9.7890E-06  0.0895
   1.3740E-01   1.4074E-01   9.8648E-06  0.0881
   1.4074E-01   1.4417E-01   1.0848E-05  0.0830
   1.4417E-01   1.4767E-01   9.8160E-06  0.0861
   1.4767E-01   1.5127E-01   1.1965E-05  0.0772
   1.5127E-01   1.5495E-01   1.2376E-05  0.0750
   1.5495E-01   1.5872E-01   1.0995E-05  0.0786
   1.5872E-01   1.6258E-01   1.1146E-05  0.0772
   1.6258E-01   1.6654E-01   1.3980E-05  0.0680
   1.6654E-01   1.7059E-01   1.2817E-05  0.0702
   1.7059E-01   1.7474E-01   1.2667E-05  0.0697
   1.7474E-01   1.7899E-01   1.2803E-05  0.0686
   1.7899E-01   1.8334E-01   1.2251E-05  0.0693
   1.8334E-01   1.8781E-01   1.1821E-05  0.0697
   1.8781E-01   1.9237E-01   1.2940E-05  0.0658
   1.9237E-01   1.9706E-01   1.3737E-05  0.0630
   1.9706E-01   2.0185E-01   1.3357E-05  0.0632
   2.0185E-01   2.0676E-01   1.4753E-05  0.0594
   2.0676E-01   2.1179E-01   1.4104E-05  0.0600
   2.1179E-01   2.1694E-01   1.6786E-05  0.0544
   2.1694E-01   2.2222E-01   1.3975E-05  0.0589
   2.2222E-01   2.2763E-01   1.4592E-05  0.0569
   2.2763E-01   2.3317E-01   1.7480E-05  0.0514
   2.3317E-01   2.3884E-01   1.7094E-05  0.0513
   2.3884E-01   2.4465E-01   1.7532E-05  0.0501
   2.4465E-01   2.5061E-01   1.7917E-05  0.0489
   2.5061E-01   2.5670E-01   1.7063E-05  0.0496
   2.5670E-01   2.6295E-01   1.6683E-05  0.0495
   2.6295E-01   2.6935E-01   1.8079E-05  0.0470
   2.6935E-01   2.7590E-01   1.8676E-05  0.0457
   2.7590E-01   2.8261E-01   1.7868E-05  0.0462
   2.8261E-01   2.8949E-01   1.8896E-05  0.0444
   2.8949E-01   2.9653E-01   1.8395E-05  0.0444
   2.9653E-01   3.0375E-01   1.6669E-05  0.0461
   3.0375E-01   3.1114E-01   1.8242E-05  0.0435
   3.1114E-01   3.1871E-01   2.0562E-05  0.0405
   3.1871E-01   3.2646E-01   1.9823E-05  0.0408
   3.2646E-01   3.3441E-01   1.8985E-05  0.0411
   3.3441E-01   3.4254E-01   1.9899E-05  0.0397
   3.4254E-01   3.5088E-01   2.0868E-05  0.0383
   3.5088E-01   3.5941E-01   2.0198E-05  0.0385
   3.5941E-01   3.6816E-01   2.0078E-05  0.0382
   3.6816E-01   3.7712E-01   1.9892E-05  0.0379
   3.7712E-01   3.8629E-01   1.9612E-05  0.0377
   3.8629E-01   3.9569E-01   2.1070E-05  0.0359
   3.9569E-01   4.0532E-01   2.1226E-05  0.0353
   4.0532E-01   4.1518E-01   2.0389E-05  0.0357
   4.1518E-01   4.2528E-01   2.0129E-05  0.0354
   4.2528E-01   4.3563E-01   2.1248E-05  0.0341
   4.3563E-01   4.4623E-01   2.1201E-05  0.0337
   4.4623E-01   4.5708E-01   2.0899E-05  0.0335
   4.5708E-01   4.6821E-01   2.0650E-05  0.0333
   4.6821E-01   4.7960E-01   2.0560E-05  0.0330
   4.7960E-01   4.9127E-01   2.0150E-05  0.0329
   4.9127E-01   5.0322E-01   2.1354E-05  0.0316
   5.0322E-01   5.1546E-01   2.0951E-05  0.0315
   5.1546E-01   5.2800E-01   1.9696E-05  0.0321
   5.2800E-01   5.4085E-01   2.0301E-05  0.0313
   5.4085E-01   5.5401E-01   2.0708E-05  0.0306
   5.5401E-01   5.6749E-01   2.1577E-05  0.0296
   5.6749E-01   5.8130E-01   2.0551E-05  0.0300
   5.8130E-01   5.9544E-01   2.1160E-05  0.0292
   5.9544E-01   6.0993E-01   2.0709E-05  0.0291
   6.0993E-01   6.2477E-01   2.0534E-05  0.0289
   6.2477E-01   6.3997E-01   1.9873E-05  0.0290
   6.3997E-01   6.5554E-01   1.8846E-05  0.0294
   6.5554E-01   6.7149E-01   1.9918E-05  0.0283
   6.7149E-01   6.8783E-01   1.9788E-05  0.0281
   6.8783E-01   7.0456E-01   2.0197E-05  0.0274
   7.0456E-01   7.2171E-01   1.9050E-05  0.0279
   7.2171E-01   7.3927E-01   1.8988E-05  0.0276
   7.3927E-01   7.5725E-01   1.8808E-05  0.0274
   7.5725E-01   7.7568E-01   1.7770E-05  0.0279
   7.7568E-01   7.9455E-01   1.9279E-05  0.0264
   7.9455E-01   8.1388E-01   1.8230E-05  0.0269
   8.1388E-01   8.3368E-01   1.7980E-05  0.0267
   8.3368E-01   8.5397E-01   1.7455E-05  0.0268
   8.5397E-01   8.7475E-01   1.7609E-05  0.0263
   8.7475E-01   8.9603E-01   1.7712E-05  0.0259
   8.9603E-01   9.1783E-01   1.6863E-05  0.0263
   9.1783E-01   9.4016E-01   1.5620E-05  0.0270
   9.4016E-01   9.6304E-01   1.6148E-05  0.0262
   9.6304E-01   9.8647E-01   1.5395E-05  0.0265
   9.8647E-01   1.0105E+00   1.4727E-05  0.0267
   1.0105E+00   1.0351E+00   1.4463E-05  0.0267
   1.0351E+00   1.0602E+00   1.5135E-05  0.0258
   1.0602E+00   1.0860E+00   1.4680E-05  0.0258
   1.0860E+00   1.1125E+00   1.5124E-05  0.0251
   1.1125E+00   1.1395E+00   1.4373E-05  0.0254
   1.1395E+00   1.1673E+00   1.4916E-05  0.0246
   1.1673E+00   1.1957E+00   1.4362E-05  0.0248
   1.1957E+00   1.2247E+00   1.4322E-05  0.0245
   1.2247E+00   1.2545E+00   1.5329E-05  0.0234
   1.2545E+00   1.2851E+00   1.3896E-05  0.0242
   1.2851E+00   1.3163E+00   1.3292E-05  0.0244
   1.3163E+00   1.3484E+00   1.3733E-05  0.0237
   1.3484E+00   1.3812E+00   1.3386E-05  0.0237
   1.3812E+00   1.4148E+00   1.3464E-05  0.0233
   1.4148E+00   1.4492E+00   1.3275E-05  0.0232
   1.4492E+00   1.4845E+00   1.2842E-05  0.0232
   1.4845E+00   1.5206E+00   1.2588E-05  0.0231
   1.5206E+00   1.5576E+00   1.2545E-05  0.0229
   1.5576E+00   1.5955E+00   1.2829E-05  0.0224
   1.5955E+00   1.6343E+00   1.1821E-05  0.0230
   1.6343E+00   1.6741E+00   1.1920E-05  0.0226
   1.6741E+00   1.7148E+00   1.1513E-05  0.0227
   1.7148E+00   1.7565E+00   1.1115E-05  0.0227
   1.7565E+00   1.7992E+00   1.0703E-05  0.0228
   1.7992E+00   1.8430E+00   9.7423E-06  0.0236
   1.8430E+00   1.8879E+00   9.6062E-06  0.0234
   1.8879E+00   1.9338E+00   9.3607E-06  0.0234
   1.9338E+00   1.9808E+00   8.8045E-06  0.0238
   1.9808E+00   2.0290E+00   9.0364E-06  0.0233
   2.0290E+00   2.0784E+00   8.8879E-06  0.0232
   2.0784E+00   2.1290E+00   8.8452E-06  0.0229
   2.1290E+00   2.1808E+00   8.8550E-06  0.0225
   2.1808E+00   2.2338E+00   8.3955E-06  0.0229
   2.2338E+00   2.2882E+00   9.0613E-06  0.0218
   2.2882E+00   2.3439E+00   8.4973E-06  0.0223
   2.3439E+00   2.4009E+00   8.4474E-06  0.0221
   2.4009E+00   2.4593E+00   8.0922E-06  0.0223
   2.4593E+00   2.5191E+00   8.3676E-06  0.0217
   2.5191E+00   2.5804E+00   7.8879E-06  0.0221
   2.5804E+00   2.6432E+00   8.0284E-06  0.0217
   2.6432E+00   2.7075E+00   7.5338E-06  0.0221
   2.7075E+00   2.7734E+00   7.5544E-06  0.0218
   2.7734E+00   2.8409E+00   7.2136E-06  0.0221
   2.8409E+00   2.9100E+00   7.1406E-06  0.0220
   2.9100E+00   2.9808E+00   6.9363E-06  0.0221
   2.9808E+00   3.0533E+00   6.6843E-06  0.0222
   3.0533E+00   3.1276E+00   6.7329E-06  0.0219
   3.1276E+00   3.2037E+00   6.3622E-06  0.0223
   3.2037E+00   3.2817E+00   6.5227E-06  0.0217
   3.2817E+00   3.3615E+00   6.2267E-06  0.0221
   3.3615E+00   3.4433E+00   5.9743E-06  0.0223
   3.4433E+00   3.5271E+00   5.9437E-06  0.0220
   3.5271E+00   3.6129E+00   5.8179E-06  0.0220
   3.6129E+00   3.7008E+00   5.8389E-06  0.0218
   3.7008E+00   3.7908E+00   5.7608E-06  0.0217
   3.7908E+00   3.8831E+00   5.6914E-06  0.0215
   3.8831E+00   3.9776E+00   5.6151E-06  0.0214
   3.9776E+00   4.0743E+00   5.5800E-06  0.0213
   4.0743E+00   4.1735E+00   5.4159E-06  0.0214
   4.1735E+00   4.2750E+00   5.3280E-06  0.0213
   4.2750E+00   4.3790E+00   5.2193E-06  0.0212
   4.3790E+00   4.4856E+00   5.0735E-06  0.0213
   4.4856E+00   4.5947E+00   4.9022E-06  0.0214
   4.5947E+00   4.7065E+00   4.8061E-06  0.0214
   4.7065E+00   4.8210E+00   4.6779E-06  0.0214
   4.8210E+00   4.9383E+00   4.4843E-06  0.0216
   4.9383E+00   5.0585E+00   4.3675E-06  0.0216
   5.0585E+00   5.1815E+00   4.4521E-06  0.0212
   5.1815E+00   5.3076E+00   4.3226E-06  0.0212
   5.3076E+00   5.4368E+00   4.3037E-06  0.0211
   5.4368E+00   5.5690E+00   3.8754E-06  0.0219
   5.5690E+00   5.7045E+00   3.8550E-06  0.0217
   5.7045E+00   5.8433E+00   3.8445E-06  0.0215
   5.8433E+00   5.9855E+00   3.6735E-06  0.0218
   5.9855E+00   6.1311E+00   3.4980E-06  0.0221
   6.1311E+00   6.2803E+00   3.3426E-06  0.0224
   6.2803E+00   6.4331E+00   3.2938E-06  0.0223
   6.4331E+00   6.5896E+00   3.2238E-06  0.0223
   6.5896E+00   6.7500E+00   3.1562E-06  0.0223
   6.7500E+00   6.9142E+00   2.9142E-06  0.0229
   6.9142E+00   7.0824E+00   3.0268E-06  0.0222
   7.0824E+00   7.2548E+00   2.8241E-06  0.0227
   7.2548E+00   7.4313E+00   2.6763E-06  0.0231
   7.4313E+00   7.6121E+00   2.6415E-06  0.0230
   7.6121E+00   7.7973E+00   2.4345E-06  0.0237
   7.7973E+00   7.9870E+00   2.3925E-06  0.0236
   7.9870E+00   8.1813E+00   2.2704E-06  0.0239
   8.1813E+00   8.3804E+00   2.0943E-06  0.0246
   8.3804E+00   8.5843E+00   2.0335E-06  0.0247
   8.5843E+00   8.7931E+00   2.0232E-06  0.0245
   8.7931E+00   9.0071E+00   1.8159E-06  0.0256
   9.0071E+00   9.2262E+00   1.7987E-06  0.0254
   9.2262E+00   9.4507E+00   1.7256E-06  0.0256
   9.4507E+00   9.6807E+00   1.5790E-06  0.0265
   9.6807E+00   9.9162E+00   1.4813E-06  0.0271
   9.9162E+00   1.0157E+01   1.4166E-06  0.0274
   1.0157E+01   1.0405E+01   1.3639E-06  0.0276
   1.0405E+01   1.0658E+01   1.2656E-06  0.0283
   1.0658E+01   1.0917E+01   1.1737E-06  0.0290
   1.0917E+01   1.1183E+01   1.0985E-06  0.0296
   1.1183E+01   1.1455E+01   1.0154E-06  0.0304
   1.1455E+01   1.1733E+01   9.4969E-07  0.0311
   1.1733E+01   1.2019E+01   8.3010E-07  0.0329
   1.2019E+01   1.2311E+01   7.9893E-07  0.0331
   1.2311E+01   1.2611E+01   7.4374E-07  0.0339
   1.2611E+01   1.2918E+01   6.6794E-07  0.0354
   1.2918E+01   1.3232E+01   6.0333E-07  0.0368
   1.3232E+01   1.3554E+01   5.4280E-07  0.0383
   1.3554E+01   1.3884E+01   5.1005E-07  0.0390
   1.3884E+01   1.4222E+01   4.6976E-07  0.0402
   1.4222E+01   1.4568E+01   3.7664E-07  0.0443
   1.4568E+01   1.4922E+01   3.8124E-07  0.0436
   1.4922E+01   1.5285E+01   3.1498E-07  0.0474
   1.5285E+01   1.5657E+01   2.6771E-07  0.0507
   1.5657E+01   1.6038E+01   2.4769E-07  0.0521
   1.6038E+01   1.6428E+01   2.3393E-07  0.0530
   1.6428E+01   1.6828E+01   2.0933E-07  0.0553
   1.6828E+01   1.7237E+01   1.8600E-07  0.0580
   1.7237E+01   1.7657E+01   1.4551E-07  0.0648
   1.7657E+01   1.8086E+01   1.4504E-07  0.0642
   1.8086E+01   1.8526E+01   1.2994E-07  0.0670
   1.8526E+01   1.8977E+01   9.6133E-08  0.0769
   1.8977E+01   1.9439E+01   9.8848E-08  0.0750
   1.9439E+01   1.9912E+01   9.3247E-08  0.0762
   1.9912E+01   2.0396E+01   6.0865E-08  0.0933
   2.0396E+01   2.0893E+01   5.3735E-08  0.0981
   2.0893E+01   2.1401E+01   5.1450E-08  0.0990
   2.1401E+01   2.1922E+01   4.0872E-08  0.1098
   2.1922E+01   2.2455E+01   4.0382E-08  0.1091
   2.2455E+01   2.3001E+01   3.2852E-08  0.1195
   2.3001E+01   2.3561E+01   4.5817E-10  1.0000
   2.3561E+01   2.4134E+01   4.4729E-10  1.0000
   2.4134E+01   2.4721E+01   4.3666E-10  1.0000
   2.4721E+01   2.5323E+01   0.0000E+00  0.0000
   2.5323E+01   2.5939E+01   0.0000E+00  0.0000
   2.5939E+01   2.6570E+01   0.0000E+00  0.0000
   2.6570E+01   2.7217E+01   0.0000E+00  0.0000
   2.7217E+01   2.7879E+01   0.0000E+00  0.0000
   2.7879E+01   2.8557E+01   0.0000E+00  0.0000
   2.8557E+01   2.9252E+01   0.0000E+00  0.0000
   2.9252E+01   2.9964E+01   0.0000E+00  0.0000
   2.9964E+01   3.0693E+01   0.0000E+00  0.0000
   3.0693E+01   3.1440E+01   0.0000E+00  0.0000
   3.1440E+01   3.2205E+01   0.0000E+00  0.0000
   3.2205E+01   3.2988E+01   0.0000E+00  0.0000
   3.2988E+01   3.3791E+01   0.0000E+00  0.0000
   3.3791E+01   3.4613E+01   0.0000E+00  0.0000
   3.4613E+01   3.5455E+01   0.0000E+00  0.0000
   3.5455E+01   3.6318E+01   0.0000E+00  0.0000
   3.6318E+01   3.7201E+01   0.0000E+00  0.0000
   3.7201E+01   3.8106E+01   0.0000E+00  0.0000
   3.8106E+01   3.9034E+01   0.0000E+00  0.0000
   3.9034E+01   3.9983E+01   0.0000E+00  0.0000
   3.9983E+01   4.0956E+01   0.0000E+00  0.0000
   4.0956E+01   4.1953E+01   0.0000E+00  0.0000
   4.1953E+01   4.2973E+01   0.0000E+00  0.0000
   4.2973E+01   4.4019E+01   0.0000E+00  0.0000
   4.4019E+01   4.5090E+01   0.0000E+00  0.0000
   4.5090E+01   4.6187E+01   0.0000E+00  0.0000
   4.6187E+01   4.7311E+01   0.0000E+00  0.0000
   4.7311E+01   4.8462E+01   0.0000E+00  0.0000
   4.8462E+01   4.9641E+01   0.0000E+00  0.0000
   4.9641E+01   5.0849E+01   0.0000E+00  0.0000
   5.0849E+01   5.2086E+01   0.0000E+00  0.0000
   5.2086E+01   5.3353E+01   0.0000E+00  0.0000
   5.3353E+01   5.4651E+01   0.0000E+00  0.0000
   5.4651E+01   5.5981E+01   0.0000E+00  0.0000
   5.5981E+01   5.7343E+01   0.0000E+00  0.0000
   5.7343E+01   5.8738E+01   0.0000E+00  0.0000
   5.8738E+01   6.0168E+01   0.0000E+00  0.0000
   6.0168E+01   6.1632E+01   0.0000E+00  0.0000
   6.1632E+01   6.3131E+01   0.0000E+00  0.0000
   6.3131E+01   6.4667E+01   0.0000E+00  0.0000
   6.4667E+01   6.6240E+01   0.0000E+00  0.0000
   6.6240E+01   6.7852E+01   0.0000E+00  0.0000
   6.7852E+01   6.9503E+01   0.0000E+00  0.0000
   6.9503E+01   7.1194E+01   0.0000E+00  0.0000
   7.1194E+01   7.2926E+01   0.0000E+00  0.0000
   7.2926E+01   7.4701E+01   0.0000E+00  0.0000
   7.4701E+01   7.6518E+01   0.0000E+00  0.0000
   7.6518E+01   7.8380E+01   0.0000E+00  0.0000
   7.8380E+01   8.0287E+01   0.0000E+00  0.0000
   8.0287E+01   8.2240E+01   0.0000E+00  0.0000
   8.2240E+01   8.4241E+01   0.0000E+00  0.0000
   8.4241E+01   8.6291E+01   0.0000E+00  0.0000
   8.6291E+01   8.8391E+01   0.0000E+00  0.0000
   8.8391E+01   9.0541E+01   0.0000E+00  0.0000
   9.0541E+01   9.2744E+01   0.0000E+00  0.0000
   9.2744E+01   9.5001E+01   0.0000E+00  0.0000
   9.5001E+01   9.7312E+01   0.0000E+00  0.0000
   9.7312E+01   9.9680E+01   0.0000E+00  0.0000
   9.9680E+01   1.0211E+02   0.0000E+00  0.0000
   1.0211E+02   1.0459E+02   0.0000E+00  0.0000
   1.0459E+02   1.0713E+02   0.0000E+00  0.0000
   1.0713E+02   1.0974E+02   0.0000E+00  0.0000
   1.0974E+02   1.1241E+02   0.0000E+00  0.0000
   1.1241E+02   1.1515E+02   0.0000E+00  0.0000
   1.1515E+02   1.1795E+02   0.0000E+00  0.0000
   1.1795E+02   1.2082E+02   0.0000E+00  0.0000
   1.2082E+02   1.2376E+02   0.0000E+00  0.0000
   1.2376E+02   1.2677E+02   0.0000E+00  0.0000
   1.2677E+02   1.2985E+02   0.0000E+00  0.0000
   1.2985E+02   1.3301E+02   0.0000E+00  0.0000
   1.3301E+02   1.3625E+02   0.0000E+00  0.0000
   1.3625E+02   1.3956E+02   0.0000E+00  0.0000
   1.3956E+02   1.4296E+02   0.0000E+00  0.0000
   1.4296E+02   1.4644E+02   0.0000E+00  0.0000
   1.4644E+02   1.5000E+02   0.0000E+00  0.0000

#   sum over                 4.4951E-07
'no. =    1   reg = 121 - 221'
msuc: {\huge [t-cross] in region mesh}
msdr: {\it plotted by \ANGEL \version}
msdl: {\it calculated by \PHITS  3.26}
wt: s(0.7)
\vspace{-3}
  region surface crossing
  area  &=&   1.0000E+00 [cm^2]
e:
 
# Information for Restart Calculation
# This calculation was newly started
# istdev =  2 # 1:Batch variance, 2:History variance
# resc2  = 3.90000000000000000E+09 # Total source weight or Total source weight / maxcas
# resc3  = 3.90000000000000000E+09 # Total history number or Total batch number
# maxcas =   100000000 # History / Batch, only used for istdev=1
# bitrseed = 1001000100011001100110111101101111001101001011101000111110000101 # bit data of rseed
