[ T-Cross ]
    title = [t-cross] in region mesh
     mesh =  reg            # mesh type is region-wise
      reg =    1            # number of crossing regions
      non     r-from    r-to       area
      1       108       208        1.000000    
   e-type =    3            # e-mesh is log given by emin, emax and ne
     emin =  1.0000000E-02  # minimum value of e-mesh points
     emax =   150.0000      # maximum value of e-mesh points
#    edel =  2.4039514E-02  # mesh width of e-mesh points
       ne =    400          # number of e-mesh points
#    data = ( e(i), i = 1, ne + 1 )
#           1.00000E-02  1.02433E-02  1.04925E-02  1.07478E-02  1.10093E-02
#           1.12772E-02  1.15516E-02  1.18326E-02  1.21205E-02  1.24154E-02
#           1.27175E-02  1.30269E-02  1.33439E-02  1.36686E-02  1.40011E-02
#           1.43418E-02  1.46907E-02  1.50482E-02  1.54143E-02  1.57894E-02
#           1.61735E-02  1.65670E-02  1.69701E-02  1.73830E-02  1.78060E-02
#           1.82392E-02  1.86830E-02  1.91375E-02  1.96032E-02  2.00801E-02
#           2.05687E-02  2.10692E-02  2.15818E-02  2.21069E-02  2.26448E-02
#           2.31957E-02  2.37601E-02  2.43382E-02  2.49304E-02  2.55369E-02
#           2.61583E-02  2.67947E-02  2.74467E-02  2.81145E-02  2.87985E-02
#           2.94992E-02  3.02169E-02  3.09521E-02  3.17052E-02  3.24766E-02
#           3.32668E-02  3.40762E-02  3.49053E-02  3.57546E-02  3.66246E-02
#           3.75157E-02  3.84284E-02  3.93634E-02  4.03212E-02  4.13022E-02
#           4.23071E-02  4.33365E-02  4.43909E-02  4.54710E-02  4.65773E-02
#           4.77106E-02  4.88714E-02  5.00605E-02  5.12785E-02  5.25262E-02
#           5.38042E-02  5.51133E-02  5.64542E-02  5.78278E-02  5.92348E-02
#           6.06760E-02  6.21523E-02  6.36645E-02  6.52135E-02  6.68002E-02
#           6.84255E-02  7.00904E-02  7.17957E-02  7.35426E-02  7.53319E-02
#           7.71648E-02  7.90423E-02  8.09655E-02  8.29354E-02  8.49533E-02
#           8.70203E-02  8.91376E-02  9.13064E-02  9.35279E-02  9.58035E-02
#           9.81345E-02  1.00522E-01  1.02968E-01  1.05473E-01  1.08040E-01
#           1.10668E-01  1.13361E-01  1.16119E-01  1.18944E-01  1.21838E-01
#           1.24803E-01  1.27839E-01  1.30950E-01  1.34136E-01  1.37399E-01
#           1.40742E-01  1.44167E-01  1.47675E-01  1.51268E-01  1.54948E-01
#           1.58718E-01  1.62580E-01  1.66535E-01  1.70587E-01  1.74738E-01
#           1.78989E-01  1.83344E-01  1.87805E-01  1.92375E-01  1.97055E-01
#           2.01850E-01  2.06761E-01  2.11792E-01  2.16945E-01  2.22223E-01
#           2.27630E-01  2.33169E-01  2.38842E-01  2.44653E-01  2.50605E-01
#           2.56703E-01  2.62949E-01  2.69346E-01  2.75900E-01  2.82613E-01
#           2.89489E-01  2.96532E-01  3.03747E-01  3.11138E-01  3.18708E-01
#           3.26462E-01  3.34405E-01  3.42542E-01  3.50876E-01  3.59413E-01
#           3.68158E-01  3.77116E-01  3.86291E-01  3.95690E-01  4.05317E-01
#           4.15179E-01  4.25281E-01  4.35628E-01  4.46227E-01  4.57084E-01
#           4.68205E-01  4.79597E-01  4.91266E-01  5.03219E-01  5.15463E-01
#           5.28005E-01  5.40851E-01  5.54011E-01  5.67490E-01  5.81298E-01
#           5.95441E-01  6.09929E-01  6.24769E-01  6.39970E-01  6.55541E-01
#           6.71491E-01  6.87828E-01  7.04564E-01  7.21706E-01  7.39266E-01
#           7.57253E-01  7.75678E-01  7.94551E-01  8.13883E-01  8.33685E-01
#           8.53969E-01  8.74747E-01  8.96030E-01  9.17831E-01  9.40163E-01
#           9.63038E-01  9.86469E-01  1.01047E+00  1.03506E+00  1.06024E+00
#           1.08604E+00  1.11246E+00  1.13953E+00  1.16725E+00  1.19565E+00
#           1.22474E+00  1.25454E+00  1.28507E+00  1.31633E+00  1.34836E+00
#           1.38117E+00  1.41477E+00  1.44920E+00  1.48446E+00  1.52057E+00
#           1.55757E+00  1.59547E+00  1.63429E+00  1.67405E+00  1.71478E+00
#           1.75650E+00  1.79924E+00  1.84302E+00  1.88786E+00  1.93379E+00
#           1.98084E+00  2.02904E+00  2.07841E+00  2.12898E+00  2.18078E+00
#           2.23384E+00  2.28819E+00  2.34386E+00  2.40089E+00  2.45930E+00
#           2.51914E+00  2.58043E+00  2.64322E+00  2.70753E+00  2.77341E+00
#           2.84088E+00  2.91001E+00  2.98081E+00  3.05333E+00  3.12762E+00
#           3.20372E+00  3.28167E+00  3.36152E+00  3.44330E+00  3.52708E+00
#           3.61290E+00  3.70080E+00  3.79085E+00  3.88308E+00  3.97756E+00
#           4.07434E+00  4.17347E+00  4.27501E+00  4.37903E+00  4.48557E+00
#           4.59471E+00  4.70650E+00  4.82102E+00  4.93832E+00  5.05847E+00
#           5.18155E+00  5.30762E+00  5.43676E+00  5.56904E+00  5.70453E+00
#           5.84333E+00  5.98550E+00  6.13114E+00  6.28031E+00  6.43312E+00
#           6.58964E+00  6.74997E+00  6.91420E+00  7.08243E+00  7.25475E+00
#           7.43126E+00  7.61207E+00  7.79728E+00  7.98700E+00  8.18133E+00
#           8.38038E+00  8.58428E+00  8.79315E+00  9.00709E+00  9.22624E+00
#           9.45072E+00  9.68067E+00  9.91620E+00  1.01575E+01  1.04046E+01
#           1.06578E+01  1.09171E+01  1.11827E+01  1.14548E+01  1.17335E+01
#           1.20190E+01  1.23114E+01  1.26109E+01  1.29178E+01  1.32321E+01
#           1.35540E+01  1.38838E+01  1.42216E+01  1.45676E+01  1.49221E+01
#           1.52851E+01  1.56570E+01  1.60380E+01  1.64282E+01  1.68279E+01
#           1.72374E+01  1.76568E+01  1.80864E+01  1.85264E+01  1.89772E+01
#           1.94389E+01  1.99119E+01  2.03963E+01  2.08926E+01  2.14009E+01
#           2.19216E+01  2.24550E+01  2.30014E+01  2.35610E+01  2.41343E+01
#           2.47215E+01  2.53230E+01  2.59391E+01  2.65702E+01  2.72167E+01
#           2.78789E+01  2.85572E+01  2.92520E+01  2.99637E+01  3.06928E+01
#           3.14396E+01  3.22045E+01  3.29881E+01  3.37907E+01  3.46128E+01
#           3.54550E+01  3.63177E+01  3.72013E+01  3.81064E+01  3.90336E+01
#           3.99833E+01  4.09561E+01  4.19526E+01  4.29734E+01  4.40189E+01
#           4.50900E+01  4.61870E+01  4.73108E+01  4.84619E+01  4.96410E+01
#           5.08488E+01  5.20860E+01  5.33533E+01  5.46514E+01  5.59812E+01
#           5.73432E+01  5.87384E+01  6.01676E+01  6.16315E+01  6.31311E+01
#           6.46671E+01  6.62405E+01  6.78522E+01  6.95031E+01  7.11941E+01
#           7.29263E+01  7.47007E+01  7.65182E+01  7.83800E+01  8.02870E+01
#           8.22405E+01  8.42414E+01  8.62911E+01  8.83906E+01  9.05412E+01
#           9.27442E+01  9.50007E+01  9.73122E+01  9.96799E+01  1.02105E+02
#           1.04589E+02  1.07134E+02  1.09741E+02  1.12411E+02  1.15146E+02
#           1.17948E+02  1.20817E+02  1.23757E+02  1.26768E+02  1.29852E+02
#           1.33012E+02  1.36248E+02  1.39563E+02  1.42959E+02  1.46437E+02
#           1.50000E+02
     unit =    2            # unit is [1/cm^2/(MeV/n)/source]
     axis =  eng            # axis of output
     file = detector-09.out  # file name of output for the above axis
   output = f-curr          # surface crossing forward current spectrum
     part =  neutron  
# kf/name :  2112     
#    used :        main (  %)        temp (  %)       total (  %)
#  memory :         414 (  0)           0 (  0)         414 (  0)

#------------------------------------------------------------------------------
#newpage:
#   no. =    1   reg = 108 - 208

x: Energy [MeV/n]
y:  F-Curr [1/cm^2/(MeV/n)/source]         
p: xlog ylog afac(0.8) form(0.9)
h: n            x            y(neutron ),hh0l   n 
#  e-lower      e-upper      neutron     r.err 
   1.0000E-02   1.0243E-02   1.0754E-04  0.0989
   1.0243E-02   1.0493E-02   1.0474E-04  0.0989
   1.0493E-02   1.0748E-02   9.5570E-05  0.1022
   1.0748E-02   1.1009E-02   9.0802E-05  0.1035
   1.1009E-02   1.1277E-02   7.6409E-05  0.1116
   1.1277E-02   1.1552E-02   9.9228E-05  0.0967
   1.1552E-02   1.1833E-02   7.6125E-05  0.1091
   1.1833E-02   1.2121E-02   8.9381E-05  0.0996
   1.2121E-02   1.2415E-02   9.2646E-05  0.0967
   1.2415E-02   1.2718E-02   8.9041E-05  0.0971
   1.2718E-02   1.3027E-02   8.5055E-05  0.0986
   1.3027E-02   1.3344E-02   7.6741E-05  0.1022
   1.3344E-02   1.3669E-02   7.8465E-05  0.0999
   1.3669E-02   1.4001E-02   7.7912E-05  0.0991
   1.4001E-02   1.4342E-02   7.9715E-05  0.0968
   1.4342E-02   1.4691E-02   6.8348E-05  0.1035
   1.4691E-02   1.5048E-02   6.9369E-05  0.1015
   1.5048E-02   1.5414E-02   7.4788E-05  0.0964
   1.5414E-02   1.5789E-02   6.0794E-05  0.1052
   1.5789E-02   1.6174E-02   6.0764E-05  0.1044
   1.6174E-02   1.6567E-02   5.7747E-05  0.1058
   1.6567E-02   1.6970E-02   5.4581E-05  0.1075
   1.6970E-02   1.7383E-02   5.7066E-05  0.1043
   1.7383E-02   1.7806E-02   5.3887E-05  0.1058
   1.7806E-02   1.8239E-02   6.0073E-05  0.0990
   1.8239E-02   1.8683E-02   5.5974E-05  0.1013
   1.8683E-02   1.9138E-02   5.9665E-05  0.0971
   1.9138E-02   1.9603E-02   5.4238E-05  0.1004
   1.9603E-02   2.0080E-02   6.3596E-05  0.0917
   2.0080E-02   2.0569E-02   5.1126E-05  0.1011
   2.0569E-02   2.1069E-02   4.8327E-05  0.1027
   2.1069E-02   2.1582E-02   4.8292E-05  0.1016
   2.1582E-02   2.2107E-02   5.0240E-05  0.0982
   2.2107E-02   2.2645E-02   4.1737E-05  0.1066
   2.2645E-02   2.3196E-02   4.4482E-05  0.1021
   2.3196E-02   2.3760E-02   4.9203E-05  0.0958
   2.3760E-02   2.4338E-02   4.4897E-05  0.0991
   2.4338E-02   2.4930E-02   5.0708E-05  0.0921
   2.4930E-02   2.5537E-02   5.1218E-05  0.0906
   2.5537E-02   2.6158E-02   4.8305E-05  0.0921
   2.6158E-02   2.6795E-02   5.3339E-05  0.0867
   2.6795E-02   2.7447E-02   3.9349E-05  0.0994
   2.7447E-02   2.8114E-02   3.9146E-05  0.0988
   2.8114E-02   2.8799E-02   3.5803E-05  0.1021
   2.8799E-02   2.9499E-02   3.6454E-05  0.0998
   2.9499E-02   3.0217E-02   3.0821E-05  0.1071
   3.0217E-02   3.0952E-02   3.5093E-05  0.0992
   3.0952E-02   3.1705E-02   3.3366E-05  0.1005
   3.1705E-02   3.2477E-02   3.2173E-05  0.1014
   3.2477E-02   3.3267E-02   3.1295E-05  0.1016
   3.3267E-02   3.4076E-02   3.3333E-05  0.0972
   3.4076E-02   3.4905E-02   2.9959E-05  0.1011
   3.4905E-02   3.5755E-02   2.5879E-05  0.1075
   3.5755E-02   3.6625E-02   3.2036E-05  0.0958
   3.6625E-02   3.7516E-02   2.9784E-05  0.0978
   3.7516E-02   3.8428E-02   2.5964E-05  0.1037
   3.8428E-02   3.9363E-02   2.7649E-05  0.0994
   3.9363E-02   4.0321E-02   2.3336E-05  0.1067
   4.0321E-02   4.1302E-02   2.5954E-05  0.1000
   4.1302E-02   4.2307E-02   2.4449E-05  0.1021
   4.2307E-02   4.3337E-02   2.1296E-05  0.1079
   4.3337E-02   4.4391E-02   2.2295E-05  0.1038
   4.4391E-02   4.5471E-02   2.0191E-05  0.1080
   4.5471E-02   4.6577E-02   2.6539E-05  0.0932
   4.6577E-02   4.7711E-02   2.6579E-05  0.0921
   4.7711E-02   4.8871E-02   2.7274E-05  0.0898
   4.8871E-02   5.0061E-02   2.6308E-05  0.0904
   5.0061E-02   5.1279E-02   2.1332E-05  0.0988
   5.1279E-02   5.2526E-02   2.2035E-05  0.0963
   5.2526E-02   5.3804E-02   1.9876E-05  0.1000
   5.3804E-02   5.5113E-02   2.2035E-05  0.0941
   5.5113E-02   5.6454E-02   1.7390E-05  0.1041
   5.6454E-02   5.7828E-02   2.2090E-05  0.0912
   5.7828E-02   5.9235E-02   2.0755E-05  0.0933
   5.9235E-02   6.0676E-02   1.9070E-05  0.0963
   6.0676E-02   6.2152E-02   1.7487E-05  0.0995
   6.2152E-02   6.3665E-02   1.8553E-05  0.0954
   6.3665E-02   6.5214E-02   1.9633E-05  0.0914
   6.5214E-02   6.6800E-02   1.8208E-05  0.0938
   6.6800E-02   6.8426E-02   1.5023E-05  0.1019
   6.8426E-02   7.0090E-02   1.5463E-05  0.0995
   7.0090E-02   7.1796E-02   1.8952E-05  0.0886
   7.1796E-02   7.3543E-02   1.5708E-05  0.0963
   7.3543E-02   7.5332E-02   1.5873E-05  0.0949
   7.5332E-02   7.7165E-02   1.3600E-05  0.1011
   7.7165E-02   7.9042E-02   1.4026E-05  0.0985
   7.9042E-02   8.0965E-02   1.5402E-05  0.0926
   8.0965E-02   8.2935E-02   1.6693E-05  0.0881
   8.2935E-02   8.4953E-02   1.5691E-05  0.0898
   8.4953E-02   8.7020E-02   1.4308E-05  0.0929
   8.7020E-02   8.9138E-02   1.3228E-05  0.0952
   8.9138E-02   9.1306E-02   1.5437E-05  0.0874
   9.1306E-02   9.3528E-02   1.4894E-05  0.0878
   9.3528E-02   9.5804E-02   1.2852E-05  0.0933
   9.5804E-02   9.8134E-02   1.4719E-05  0.0862
   9.8134E-02   1.0052E-01   1.3691E-05  0.0883
   1.0052E-01   1.0297E-01   1.2511E-05  0.0913
   1.0297E-01   1.0547E-01   1.7037E-05  0.0774
   1.0547E-01   1.0804E-01   1.4816E-05  0.0819
   1.0804E-01   1.1067E-01   1.5201E-05  0.0797
   1.1067E-01   1.1336E-01   1.9239E-05  0.0701
   1.1336E-01   1.1612E-01   1.7864E-05  0.0719
   1.1612E-01   1.1894E-01   2.0288E-05  0.0667
   1.1894E-01   1.2184E-01   1.9769E-05  0.0668
   1.2184E-01   1.2480E-01   2.0664E-05  0.0646
   1.2480E-01   1.2784E-01   2.5034E-05  0.0579
   1.2784E-01   1.3095E-01   2.1645E-05  0.0616
   1.3095E-01   1.3414E-01   2.3136E-05  0.0588
   1.3414E-01   1.3740E-01   2.6448E-05  0.0543
   1.3740E-01   1.4074E-01   2.3375E-05  0.0571
   1.4074E-01   1.4417E-01   2.6270E-05  0.0533
   1.4417E-01   1.4767E-01   2.8025E-05  0.0509
   1.4767E-01   1.5127E-01   2.7814E-05  0.0505
   1.5127E-01   1.5495E-01   2.8540E-05  0.0493
   1.5495E-01   1.5872E-01   3.4871E-05  0.0441
   1.5872E-01   1.6258E-01   3.4966E-05  0.0435
   1.6258E-01   1.6654E-01   3.3630E-05  0.0438
   1.6654E-01   1.7059E-01   3.4253E-05  0.0429
   1.7059E-01   1.7474E-01   3.5771E-05  0.0414
   1.7474E-01   1.7899E-01   3.9391E-05  0.0390
   1.7899E-01   1.8334E-01   4.0232E-05  0.0382
   1.8334E-01   1.8781E-01   3.9909E-05  0.0378
   1.8781E-01   1.9237E-01   4.4901E-05  0.0353
   1.9237E-01   1.9706E-01   4.8038E-05  0.0337
   1.9706E-01   2.0185E-01   4.8178E-05  0.0332
   2.0185E-01   2.0676E-01   4.7392E-05  0.0331
   2.0676E-01   2.1179E-01   5.1300E-05  0.0314
   2.1179E-01   2.1694E-01   5.3189E-05  0.0305
   2.1694E-01   2.2222E-01   5.5171E-05  0.0296
   2.2222E-01   2.2763E-01   5.8983E-05  0.0283
   2.2763E-01   2.3317E-01   5.9502E-05  0.0278
   2.3317E-01   2.3884E-01   6.1555E-05  0.0270
   2.3884E-01   2.4465E-01   6.7013E-05  0.0256
   2.4465E-01   2.5061E-01   6.8603E-05  0.0250
   2.5061E-01   2.5670E-01   6.9458E-05  0.0245
   2.5670E-01   2.6295E-01   6.9994E-05  0.0242
   2.6295E-01   2.6935E-01   7.5752E-05  0.0229
   2.6935E-01   2.7590E-01   7.6152E-05  0.0226
   2.7590E-01   2.8261E-01   8.1420E-05  0.0216
   2.8261E-01   2.8949E-01   8.2170E-05  0.0213
   2.8949E-01   2.9653E-01   8.4836E-05  0.0207
   2.9653E-01   3.0375E-01   8.5943E-05  0.0203
   3.0375E-01   3.1114E-01   9.0405E-05  0.0195
   3.1114E-01   3.1871E-01   9.3253E-05  0.0190
   3.1871E-01   3.2646E-01   9.2928E-05  0.0188
   3.2646E-01   3.3441E-01   9.5863E-05  0.0183
   3.3441E-01   3.4254E-01   1.0336E-04  0.0174
   3.4254E-01   3.5088E-01   1.0717E-04  0.0169
   3.5088E-01   3.5941E-01   1.0929E-04  0.0165
   3.5941E-01   3.6816E-01   1.1050E-04  0.0162
   3.6816E-01   3.7712E-01   1.1566E-04  0.0157
   3.7712E-01   3.8629E-01   1.2085E-04  0.0152
   3.8629E-01   3.9569E-01   1.2140E-04  0.0150
   3.9569E-01   4.0532E-01   1.2570E-04  0.0145
   4.0532E-01   4.1518E-01   1.2996E-04  0.0141
   4.1518E-01   4.2528E-01   1.3113E-04  0.0139
   4.2528E-01   4.3563E-01   1.3376E-04  0.0136
   4.3563E-01   4.4623E-01   1.3715E-04  0.0132
   4.4623E-01   4.5708E-01   1.3704E-04  0.0131
   4.5708E-01   4.6821E-01   1.4512E-04  0.0126
   4.6821E-01   4.7960E-01   1.4936E-04  0.0122
   4.7960E-01   4.9127E-01   1.4889E-04  0.0121
   4.9127E-01   5.0322E-01   1.5441E-04  0.0117
   5.0322E-01   5.1546E-01   1.5477E-04  0.0116
   5.1546E-01   5.2800E-01   1.6035E-04  0.0113
   5.2800E-01   5.4085E-01   1.6108E-04  0.0111
   5.4085E-01   5.5401E-01   1.6875E-04  0.0107
   5.5401E-01   5.6749E-01   1.7026E-04  0.0105
   5.6749E-01   5.8130E-01   1.7498E-04  0.0103
   5.8130E-01   5.9544E-01   1.8273E-04  0.0099
   5.9544E-01   6.0993E-01   1.8221E-04  0.0098
   6.0993E-01   6.2477E-01   1.8515E-04  0.0096
   6.2477E-01   6.3997E-01   1.8633E-04  0.0095
   6.3997E-01   6.5554E-01   1.9604E-04  0.0091
   6.5554E-01   6.7149E-01   1.9345E-04  0.0091
   6.7149E-01   6.8783E-01   1.9708E-04  0.0089
   6.8783E-01   7.0456E-01   2.0329E-04  0.0087
   7.0456E-01   7.2171E-01   2.0411E-04  0.0085
   7.2171E-01   7.3927E-01   2.0647E-04  0.0084
   7.3927E-01   7.5725E-01   2.1020E-04  0.0082
   7.5725E-01   7.7568E-01   2.1806E-04  0.0080
   7.7568E-01   7.9455E-01   2.1973E-04  0.0078
   7.9455E-01   8.1388E-01   2.2385E-04  0.0077
   8.1388E-01   8.3368E-01   2.2223E-04  0.0076
   8.3368E-01   8.5397E-01   2.2674E-04  0.0074
   8.5397E-01   8.7475E-01   2.2898E-04  0.0073
   8.7475E-01   8.9603E-01   2.2909E-04  0.0072
   8.9603E-01   9.1783E-01   2.3600E-04  0.0070
   9.1783E-01   9.4016E-01   2.3164E-04  0.0070
   9.4016E-01   9.6304E-01   2.3695E-04  0.0069
   9.6304E-01   9.8647E-01   2.3287E-04  0.0068
   9.8647E-01   1.0105E+00   2.3132E-04  0.0068
   1.0105E+00   1.0351E+00   2.3139E-04  0.0067
   1.0351E+00   1.0602E+00   2.3255E-04  0.0066
   1.0602E+00   1.0860E+00   2.3585E-04  0.0065
   1.0860E+00   1.1125E+00   2.3579E-04  0.0064
   1.1125E+00   1.1395E+00   2.3581E-04  0.0063
   1.1395E+00   1.1673E+00   2.4205E-04  0.0062
   1.1673E+00   1.1957E+00   2.4514E-04  0.0060
   1.1957E+00   1.2247E+00   2.4716E-04  0.0059
   1.2247E+00   1.2545E+00   2.5061E-04  0.0058
   1.2545E+00   1.2851E+00   2.5370E-04  0.0057
   1.2851E+00   1.3163E+00   2.5600E-04  0.0056
   1.3163E+00   1.3484E+00   2.5559E-04  0.0056
   1.3484E+00   1.3812E+00   2.6052E-04  0.0054
   1.3812E+00   1.4148E+00   2.5870E-04  0.0054
   1.4148E+00   1.4492E+00   2.6240E-04  0.0053
   1.4492E+00   1.4845E+00   2.6141E-04  0.0052
   1.4845E+00   1.5206E+00   2.6569E-04  0.0051
   1.5206E+00   1.5576E+00   2.6633E-04  0.0051
   1.5576E+00   1.5955E+00   2.6490E-04  0.0050
   1.5955E+00   1.6343E+00   2.6359E-04  0.0050
   1.6343E+00   1.6741E+00   2.6576E-04  0.0049
   1.6741E+00   1.7148E+00   2.6402E-04  0.0048
   1.7148E+00   1.7565E+00   2.5827E-04  0.0048
   1.7565E+00   1.7992E+00   2.5043E-04  0.0048
   1.7992E+00   1.8430E+00   2.3779E-04  0.0049
   1.8430E+00   1.8879E+00   2.2699E-04  0.0049
   1.8879E+00   1.9338E+00   2.2032E-04  0.0049
   1.9338E+00   1.9808E+00   2.1741E-04  0.0049
   1.9808E+00   2.0290E+00   2.1717E-04  0.0049
   2.0290E+00   2.0784E+00   2.1756E-04  0.0048
   2.0784E+00   2.1290E+00   2.1988E-04  0.0047
   2.1290E+00   2.1808E+00   2.2746E-04  0.0046
   2.1808E+00   2.2338E+00   2.3321E-04  0.0044
   2.2338E+00   2.2882E+00   2.2921E-04  0.0044
   2.2882E+00   2.3439E+00   2.2355E-04  0.0044
   2.3439E+00   2.4009E+00   2.1877E-04  0.0044
   2.4009E+00   2.4593E+00   2.1704E-04  0.0044
   2.4593E+00   2.5191E+00   2.1700E-04  0.0044
   2.5191E+00   2.5804E+00   2.1620E-04  0.0043
   2.5804E+00   2.6432E+00   2.1450E-04  0.0043
   2.6432E+00   2.7075E+00   2.1392E-04  0.0042
   2.7075E+00   2.7734E+00   2.1358E-04  0.0042
   2.7734E+00   2.8409E+00   2.1211E-04  0.0042
   2.8409E+00   2.9100E+00   2.0861E-04  0.0041
   2.9100E+00   2.9808E+00   2.1069E-04  0.0041
   2.9808E+00   3.0533E+00   2.0778E-04  0.0041
   3.0533E+00   3.1276E+00   2.0471E-04  0.0040
   3.1276E+00   3.2037E+00   2.0440E-04  0.0040
   3.2037E+00   3.2817E+00   2.0284E-04  0.0040
   3.2817E+00   3.3615E+00   2.0237E-04  0.0039
   3.3615E+00   3.4433E+00   2.0182E-04  0.0039
   3.4433E+00   3.5271E+00   1.9979E-04  0.0039
   3.5271E+00   3.6129E+00   1.9817E-04  0.0038
   3.6129E+00   3.7008E+00   1.9774E-04  0.0038
   3.7008E+00   3.7908E+00   1.9519E-04  0.0038
   3.7908E+00   3.8831E+00   1.9306E-04  0.0037
   3.8831E+00   3.9776E+00   1.9037E-04  0.0037
   3.9776E+00   4.0743E+00   1.8884E-04  0.0037
   4.0743E+00   4.1735E+00   1.8787E-04  0.0037
   4.1735E+00   4.2750E+00   1.8440E-04  0.0037
   4.2750E+00   4.3790E+00   1.8182E-04  0.0036
   4.3790E+00   4.4856E+00   1.7819E-04  0.0036
   4.4856E+00   4.5947E+00   1.7466E-04  0.0036
   4.5947E+00   4.7065E+00   1.7127E-04  0.0036
   4.7065E+00   4.8210E+00   1.7014E-04  0.0036
   4.8210E+00   4.9383E+00   1.6836E-04  0.0036
   4.9383E+00   5.0585E+00   1.6746E-04  0.0035
   5.0585E+00   5.1815E+00   1.6524E-04  0.0035
   5.1815E+00   5.3076E+00   1.6413E-04  0.0035
   5.3076E+00   5.4368E+00   1.6286E-04  0.0034
   5.4368E+00   5.5690E+00   1.6108E-04  0.0034
   5.5690E+00   5.7045E+00   1.5892E-04  0.0034
   5.7045E+00   5.8433E+00   1.5679E-04  0.0034
   5.8433E+00   5.9855E+00   1.5617E-04  0.0034
   5.9855E+00   6.1311E+00   1.5544E-04  0.0033
   6.1311E+00   6.2803E+00   1.5389E-04  0.0033
   6.2803E+00   6.4331E+00   1.5252E-04  0.0033
   6.4331E+00   6.5896E+00   1.5032E-04  0.0033
   6.5896E+00   6.7500E+00   1.5037E-04  0.0032
   6.7500E+00   6.9142E+00   1.4937E-04  0.0032
   6.9142E+00   7.0824E+00   1.4663E-04  0.0032
   7.0824E+00   7.2548E+00   1.4602E-04  0.0032
   7.2548E+00   7.4313E+00   1.4522E-04  0.0031
   7.4313E+00   7.6121E+00   1.4241E-04  0.0031
   7.6121E+00   7.7973E+00   1.4223E-04  0.0031
   7.7973E+00   7.9870E+00   1.3906E-04  0.0031
   7.9870E+00   8.1813E+00   1.3790E-04  0.0031
   8.1813E+00   8.3804E+00   1.3672E-04  0.0030
   8.3804E+00   8.5843E+00   1.3397E-04  0.0030
   8.5843E+00   8.7931E+00   1.3285E-04  0.0030
   8.7931E+00   9.0071E+00   1.3084E-04  0.0030
   9.0071E+00   9.2262E+00   1.2806E-04  0.0030
   9.2262E+00   9.4507E+00   1.2666E-04  0.0030
   9.4507E+00   9.6807E+00   1.2377E-04  0.0030
   9.6807E+00   9.9162E+00   1.2290E-04  0.0030
   9.9162E+00   1.0157E+01   1.2729E-04  0.0029
   1.0157E+01   1.0405E+01   1.2412E-04  0.0029
   1.0405E+01   1.0658E+01   1.2037E-04  0.0029
   1.0658E+01   1.0917E+01   1.1639E-04  0.0029
   1.0917E+01   1.1183E+01   1.1187E-04  0.0029
   1.1183E+01   1.1455E+01   1.0947E-04  0.0029
   1.1455E+01   1.1733E+01   1.0732E-04  0.0029
   1.1733E+01   1.2019E+01   1.0472E-04  0.0029
   1.2019E+01   1.2311E+01   1.0216E-04  0.0029
   1.2311E+01   1.2611E+01   1.0092E-04  0.0029
   1.2611E+01   1.2918E+01   9.7993E-05  0.0029
   1.2918E+01   1.3232E+01   9.5866E-05  0.0029
   1.3232E+01   1.3554E+01   9.2576E-05  0.0029
   1.3554E+01   1.3884E+01   9.0146E-05  0.0029
   1.3884E+01   1.4222E+01   8.7889E-05  0.0029
   1.4222E+01   1.4568E+01   8.5394E-05  0.0029
   1.4568E+01   1.4922E+01   8.1864E-05  0.0030
   1.4922E+01   1.5285E+01   7.9224E-05  0.0030
   1.5285E+01   1.5657E+01   7.6717E-05  0.0030
   1.5657E+01   1.6038E+01   7.3826E-05  0.0030
   1.6038E+01   1.6428E+01   7.1271E-05  0.0030
   1.6428E+01   1.6828E+01   6.8213E-05  0.0031
   1.6828E+01   1.7237E+01   6.5860E-05  0.0031
   1.7237E+01   1.7657E+01   6.2793E-05  0.0031
   1.7657E+01   1.8086E+01   5.9815E-05  0.0032
   1.8086E+01   1.8526E+01   5.6927E-05  0.0032
   1.8526E+01   1.8977E+01   5.3600E-05  0.0033
   1.8977E+01   1.9439E+01   5.0536E-05  0.0033
   1.9439E+01   1.9912E+01   4.8204E-05  0.0034
   1.9912E+01   2.0396E+01   4.5642E-05  0.0034
   2.0396E+01   2.0893E+01   4.2912E-05  0.0035
   2.0893E+01   2.1401E+01   4.0066E-05  0.0035
   2.1401E+01   2.1922E+01   3.7162E-05  0.0036
   2.1922E+01   2.2455E+01   3.3888E-05  0.0038
   2.2455E+01   2.3001E+01   3.1501E-05  0.0039
   2.3001E+01   2.3561E+01   2.8692E-05  0.0040
   2.3561E+01   2.4134E+01   2.6000E-05  0.0041
   2.4134E+01   2.4721E+01   2.3607E-05  0.0043
   2.4721E+01   2.5323E+01   2.1302E-05  0.0045
   2.5323E+01   2.5939E+01   1.9479E-05  0.0046
   2.5939E+01   2.6570E+01   2.0920E-05  0.0044
   2.6570E+01   2.7217E+01   2.2844E-05  0.0042
   2.7217E+01   2.7879E+01   2.1866E-05  0.0042
   2.7879E+01   2.8557E+01   2.0004E-05  0.0043
   2.8557E+01   2.9252E+01   1.8250E-05  0.0045
   2.9252E+01   2.9964E+01   1.6587E-05  0.0047
   2.9964E+01   3.0693E+01   1.4939E-05  0.0049
   3.0693E+01   3.1440E+01   1.3675E-05  0.0050
   3.1440E+01   3.2205E+01   1.2416E-05  0.0052
   3.2205E+01   3.2988E+01   1.1386E-05  0.0054
   3.2988E+01   3.3791E+01   1.0579E-05  0.0055
   3.3791E+01   3.4613E+01   9.9120E-06  0.0056
   3.4613E+01   3.5455E+01   9.2866E-06  0.0057
   3.5455E+01   3.6318E+01   8.7741E-06  0.0058
   3.6318E+01   3.7201E+01   8.2465E-06  0.0059
   3.7201E+01   3.8106E+01   7.7756E-06  0.0060
   3.8106E+01   3.9034E+01   4.9495E-06  0.0075
   3.9034E+01   3.9983E+01   7.6001E-07  0.0188
   3.9983E+01   4.0956E+01   1.6605E-08  0.1260
   4.0956E+01   4.1953E+01   1.0292E-09  0.5000
   4.1953E+01   4.2973E+01   1.2560E-09  0.4472
   4.2973E+01   4.4019E+01   1.2262E-09  0.4472
   4.4019E+01   4.5090E+01   2.3941E-10  1.0000
   4.5090E+01   4.6187E+01   2.3372E-10  1.0000
   4.6187E+01   4.7311E+01   0.0000E+00  0.0000
   4.7311E+01   4.8462E+01   0.0000E+00  0.0000
   4.8462E+01   4.9641E+01   0.0000E+00  0.0000
   4.9641E+01   5.0849E+01   0.0000E+00  0.0000
   5.0849E+01   5.2086E+01   0.0000E+00  0.0000
   5.2086E+01   5.3353E+01   0.0000E+00  0.0000
   5.3353E+01   5.4651E+01   0.0000E+00  0.0000
   5.4651E+01   5.5981E+01   0.0000E+00  0.0000
   5.5981E+01   5.7343E+01   0.0000E+00  0.0000
   5.7343E+01   5.8738E+01   0.0000E+00  0.0000
   5.8738E+01   6.0168E+01   0.0000E+00  0.0000
   6.0168E+01   6.1632E+01   0.0000E+00  0.0000
   6.1632E+01   6.3131E+01   0.0000E+00  0.0000
   6.3131E+01   6.4667E+01   0.0000E+00  0.0000
   6.4667E+01   6.6240E+01   0.0000E+00  0.0000
   6.6240E+01   6.7852E+01   0.0000E+00  0.0000
   6.7852E+01   6.9503E+01   0.0000E+00  0.0000
   6.9503E+01   7.1194E+01   0.0000E+00  0.0000
   7.1194E+01   7.2926E+01   0.0000E+00  0.0000
   7.2926E+01   7.4701E+01   0.0000E+00  0.0000
   7.4701E+01   7.6518E+01   0.0000E+00  0.0000
   7.6518E+01   7.8380E+01   0.0000E+00  0.0000
   7.8380E+01   8.0287E+01   0.0000E+00  0.0000
   8.0287E+01   8.2240E+01   0.0000E+00  0.0000
   8.2240E+01   8.4241E+01   0.0000E+00  0.0000
   8.4241E+01   8.6291E+01   0.0000E+00  0.0000
   8.6291E+01   8.8391E+01   0.0000E+00  0.0000
   8.8391E+01   9.0541E+01   0.0000E+00  0.0000
   9.0541E+01   9.2744E+01   0.0000E+00  0.0000
   9.2744E+01   9.5001E+01   0.0000E+00  0.0000
   9.5001E+01   9.7312E+01   0.0000E+00  0.0000
   9.7312E+01   9.9680E+01   0.0000E+00  0.0000
   9.9680E+01   1.0211E+02   0.0000E+00  0.0000
   1.0211E+02   1.0459E+02   0.0000E+00  0.0000
   1.0459E+02   1.0713E+02   0.0000E+00  0.0000
   1.0713E+02   1.0974E+02   0.0000E+00  0.0000
   1.0974E+02   1.1241E+02   0.0000E+00  0.0000
   1.1241E+02   1.1515E+02   0.0000E+00  0.0000
   1.1515E+02   1.1795E+02   0.0000E+00  0.0000
   1.1795E+02   1.2082E+02   0.0000E+00  0.0000
   1.2082E+02   1.2376E+02   0.0000E+00  0.0000
   1.2376E+02   1.2677E+02   0.0000E+00  0.0000
   1.2677E+02   1.2985E+02   0.0000E+00  0.0000
   1.2985E+02   1.3301E+02   0.0000E+00  0.0000
   1.3301E+02   1.3625E+02   0.0000E+00  0.0000
   1.3625E+02   1.3956E+02   0.0000E+00  0.0000
   1.3956E+02   1.4296E+02   0.0000E+00  0.0000
   1.4296E+02   1.4644E+02   0.0000E+00  0.0000
   1.4644E+02   1.5000E+02   0.0000E+00  0.0000

#   sum over                 1.9139E-05
'no. =    1   reg = 108 - 208'
msuc: {\huge [t-cross] in region mesh}
msdr: {\it plotted by \ANGEL \version}
msdl: {\it calculated by \PHITS  3.26}
wt: s(0.7)
\vspace{-3}
  region surface crossing
  area  &=&   1.0000E+00 [cm^2]
e:
 
# Information for Restart Calculation
# This calculation was newly started
# istdev =  2 # 1:Batch variance, 2:History variance
# resc2  = 3.90000000000000000E+09 # Total source weight or Total source weight / maxcas
# resc3  = 3.90000000000000000E+09 # Total history number or Total batch number
# maxcas =   100000000 # History / Batch, only used for istdev=1
# bitrseed = 1001000100011001100110111101101111001101001011101000111110000101 # bit data of rseed
