[ T-Cross ]
    title = [t-cross] in region mesh
     mesh =  reg            # mesh type is region-wise
      reg =    1            # number of crossing regions
      non     r-from    r-to       area
      1       113       213        1.000000    
   e-type =    3            # e-mesh is log given by emin, emax and ne
     emin =  1.0000000E-02  # minimum value of e-mesh points
     emax =   150.0000      # maximum value of e-mesh points
#    edel =  2.4039514E-02  # mesh width of e-mesh points
       ne =    400          # number of e-mesh points
#    data = ( e(i), i = 1, ne + 1 )
#           1.00000E-02  1.02433E-02  1.04925E-02  1.07478E-02  1.10093E-02
#           1.12772E-02  1.15516E-02  1.18326E-02  1.21205E-02  1.24154E-02
#           1.27175E-02  1.30269E-02  1.33439E-02  1.36686E-02  1.40011E-02
#           1.43418E-02  1.46907E-02  1.50482E-02  1.54143E-02  1.57894E-02
#           1.61735E-02  1.65670E-02  1.69701E-02  1.73830E-02  1.78060E-02
#           1.82392E-02  1.86830E-02  1.91375E-02  1.96032E-02  2.00801E-02
#           2.05687E-02  2.10692E-02  2.15818E-02  2.21069E-02  2.26448E-02
#           2.31957E-02  2.37601E-02  2.43382E-02  2.49304E-02  2.55369E-02
#           2.61583E-02  2.67947E-02  2.74467E-02  2.81145E-02  2.87985E-02
#           2.94992E-02  3.02169E-02  3.09521E-02  3.17052E-02  3.24766E-02
#           3.32668E-02  3.40762E-02  3.49053E-02  3.57546E-02  3.66246E-02
#           3.75157E-02  3.84284E-02  3.93634E-02  4.03212E-02  4.13022E-02
#           4.23071E-02  4.33365E-02  4.43909E-02  4.54710E-02  4.65773E-02
#           4.77106E-02  4.88714E-02  5.00605E-02  5.12785E-02  5.25262E-02
#           5.38042E-02  5.51133E-02  5.64542E-02  5.78278E-02  5.92348E-02
#           6.06760E-02  6.21523E-02  6.36645E-02  6.52135E-02  6.68002E-02
#           6.84255E-02  7.00904E-02  7.17957E-02  7.35426E-02  7.53319E-02
#           7.71648E-02  7.90423E-02  8.09655E-02  8.29354E-02  8.49533E-02
#           8.70203E-02  8.91376E-02  9.13064E-02  9.35279E-02  9.58035E-02
#           9.81345E-02  1.00522E-01  1.02968E-01  1.05473E-01  1.08040E-01
#           1.10668E-01  1.13361E-01  1.16119E-01  1.18944E-01  1.21838E-01
#           1.24803E-01  1.27839E-01  1.30950E-01  1.34136E-01  1.37399E-01
#           1.40742E-01  1.44167E-01  1.47675E-01  1.51268E-01  1.54948E-01
#           1.58718E-01  1.62580E-01  1.66535E-01  1.70587E-01  1.74738E-01
#           1.78989E-01  1.83344E-01  1.87805E-01  1.92375E-01  1.97055E-01
#           2.01850E-01  2.06761E-01  2.11792E-01  2.16945E-01  2.22223E-01
#           2.27630E-01  2.33169E-01  2.38842E-01  2.44653E-01  2.50605E-01
#           2.56703E-01  2.62949E-01  2.69346E-01  2.75900E-01  2.82613E-01
#           2.89489E-01  2.96532E-01  3.03747E-01  3.11138E-01  3.18708E-01
#           3.26462E-01  3.34405E-01  3.42542E-01  3.50876E-01  3.59413E-01
#           3.68158E-01  3.77116E-01  3.86291E-01  3.95690E-01  4.05317E-01
#           4.15179E-01  4.25281E-01  4.35628E-01  4.46227E-01  4.57084E-01
#           4.68205E-01  4.79597E-01  4.91266E-01  5.03219E-01  5.15463E-01
#           5.28005E-01  5.40851E-01  5.54011E-01  5.67490E-01  5.81298E-01
#           5.95441E-01  6.09929E-01  6.24769E-01  6.39970E-01  6.55541E-01
#           6.71491E-01  6.87828E-01  7.04564E-01  7.21706E-01  7.39266E-01
#           7.57253E-01  7.75678E-01  7.94551E-01  8.13883E-01  8.33685E-01
#           8.53969E-01  8.74747E-01  8.96030E-01  9.17831E-01  9.40163E-01
#           9.63038E-01  9.86469E-01  1.01047E+00  1.03506E+00  1.06024E+00
#           1.08604E+00  1.11246E+00  1.13953E+00  1.16725E+00  1.19565E+00
#           1.22474E+00  1.25454E+00  1.28507E+00  1.31633E+00  1.34836E+00
#           1.38117E+00  1.41477E+00  1.44920E+00  1.48446E+00  1.52057E+00
#           1.55757E+00  1.59547E+00  1.63429E+00  1.67405E+00  1.71478E+00
#           1.75650E+00  1.79924E+00  1.84302E+00  1.88786E+00  1.93379E+00
#           1.98084E+00  2.02904E+00  2.07841E+00  2.12898E+00  2.18078E+00
#           2.23384E+00  2.28819E+00  2.34386E+00  2.40089E+00  2.45930E+00
#           2.51914E+00  2.58043E+00  2.64322E+00  2.70753E+00  2.77341E+00
#           2.84088E+00  2.91001E+00  2.98081E+00  3.05333E+00  3.12762E+00
#           3.20372E+00  3.28167E+00  3.36152E+00  3.44330E+00  3.52708E+00
#           3.61290E+00  3.70080E+00  3.79085E+00  3.88308E+00  3.97756E+00
#           4.07434E+00  4.17347E+00  4.27501E+00  4.37903E+00  4.48557E+00
#           4.59471E+00  4.70650E+00  4.82102E+00  4.93832E+00  5.05847E+00
#           5.18155E+00  5.30762E+00  5.43676E+00  5.56904E+00  5.70453E+00
#           5.84333E+00  5.98550E+00  6.13114E+00  6.28031E+00  6.43312E+00
#           6.58964E+00  6.74997E+00  6.91420E+00  7.08243E+00  7.25475E+00
#           7.43126E+00  7.61207E+00  7.79728E+00  7.98700E+00  8.18133E+00
#           8.38038E+00  8.58428E+00  8.79315E+00  9.00709E+00  9.22624E+00
#           9.45072E+00  9.68067E+00  9.91620E+00  1.01575E+01  1.04046E+01
#           1.06578E+01  1.09171E+01  1.11827E+01  1.14548E+01  1.17335E+01
#           1.20190E+01  1.23114E+01  1.26109E+01  1.29178E+01  1.32321E+01
#           1.35540E+01  1.38838E+01  1.42216E+01  1.45676E+01  1.49221E+01
#           1.52851E+01  1.56570E+01  1.60380E+01  1.64282E+01  1.68279E+01
#           1.72374E+01  1.76568E+01  1.80864E+01  1.85264E+01  1.89772E+01
#           1.94389E+01  1.99119E+01  2.03963E+01  2.08926E+01  2.14009E+01
#           2.19216E+01  2.24550E+01  2.30014E+01  2.35610E+01  2.41343E+01
#           2.47215E+01  2.53230E+01  2.59391E+01  2.65702E+01  2.72167E+01
#           2.78789E+01  2.85572E+01  2.92520E+01  2.99637E+01  3.06928E+01
#           3.14396E+01  3.22045E+01  3.29881E+01  3.37907E+01  3.46128E+01
#           3.54550E+01  3.63177E+01  3.72013E+01  3.81064E+01  3.90336E+01
#           3.99833E+01  4.09561E+01  4.19526E+01  4.29734E+01  4.40189E+01
#           4.50900E+01  4.61870E+01  4.73108E+01  4.84619E+01  4.96410E+01
#           5.08488E+01  5.20860E+01  5.33533E+01  5.46514E+01  5.59812E+01
#           5.73432E+01  5.87384E+01  6.01676E+01  6.16315E+01  6.31311E+01
#           6.46671E+01  6.62405E+01  6.78522E+01  6.95031E+01  7.11941E+01
#           7.29263E+01  7.47007E+01  7.65182E+01  7.83800E+01  8.02870E+01
#           8.22405E+01  8.42414E+01  8.62911E+01  8.83906E+01  9.05412E+01
#           9.27442E+01  9.50007E+01  9.73122E+01  9.96799E+01  1.02105E+02
#           1.04589E+02  1.07134E+02  1.09741E+02  1.12411E+02  1.15146E+02
#           1.17948E+02  1.20817E+02  1.23757E+02  1.26768E+02  1.29852E+02
#           1.33012E+02  1.36248E+02  1.39563E+02  1.42959E+02  1.46437E+02
#           1.50000E+02
     unit =    2            # unit is [1/cm^2/(MeV/n)/source]
     axis =  eng            # axis of output
     file = detector-14.out  # file name of output for the above axis
   output = f-curr          # surface crossing forward current spectrum
     part =  neutron  
# kf/name :  2112     
#    used :        main (  %)        temp (  %)       total (  %)
#  memory :         414 (  0)           0 (  0)         414 (  0)

#------------------------------------------------------------------------------
#newpage:
#   no. =    1   reg = 113 - 213

x: Energy [MeV/n]
y:  F-Curr [1/cm^2/(MeV/n)/source]         
p: xlog ylog afac(0.8) form(0.9)
h: n            x            y(neutron ),hh0l   n 
#  e-lower      e-upper      neutron     r.err 
   1.0000E-02   1.0243E-02   9.2886E-05  0.0941
   1.0243E-02   1.0493E-02   8.1853E-05  0.0990
   1.0493E-02   1.0748E-02   8.6959E-05  0.0949
   1.0748E-02   1.1009E-02   7.6481E-05  0.1000
   1.1009E-02   1.1277E-02   8.2877E-05  0.0949
   1.1277E-02   1.1552E-02   7.2891E-05  0.1000
   1.1552E-02   1.1833E-02   8.3968E-05  0.0921
   1.1833E-02   1.2121E-02   7.9890E-05  0.0933
   1.2121E-02   1.2415E-02   7.3923E-05  0.0958
   1.2415E-02   1.2718E-02   6.9519E-05  0.0976
   1.2718E-02   1.3027E-02   8.7375E-05  0.0860
   1.3027E-02   1.3344E-02   6.9053E-05  0.0955
   1.3344E-02   1.3669E-02   6.8994E-05  0.0945
   1.3669E-02   1.4001E-02   8.9005E-05  0.0822
   1.4001E-02   1.4342E-02   9.5697E-05  0.0783
   1.4342E-02   1.4691E-02   7.2790E-05  0.0887
   1.4691E-02   1.5048E-02   8.5050E-05  0.0811
   1.5048E-02   1.5414E-02   9.0131E-05  0.0778
   1.5414E-02   1.5789E-02   9.3323E-05  0.0756
   1.5789E-02   1.6174E-02   7.7819E-05  0.0817
   1.6174E-02   1.6567E-02   8.9450E-05  0.0754
   1.6567E-02   1.6970E-02   8.0379E-05  0.0786
   1.6970E-02   1.7383E-02   7.2657E-05  0.0816
   1.7383E-02   1.7806E-02   8.9593E-05  0.0726
   1.7806E-02   1.8239E-02   9.4390E-05  0.0699
   1.8239E-02   1.8683E-02   7.9320E-05  0.0754
   1.8683E-02   1.9138E-02   7.7876E-05  0.0752
   1.9138E-02   1.9603E-02   8.5475E-05  0.0709
   1.9603E-02   2.0080E-02   9.5186E-05  0.0664
   2.0080E-02   2.0569E-02   8.5966E-05  0.0690
   2.0569E-02   2.1069E-02   8.3524E-05  0.0692
   2.1069E-02   2.1582E-02   8.2321E-05  0.0688
   2.1582E-02   2.2107E-02   8.4936E-05  0.0670
   2.2107E-02   2.2645E-02   7.8085E-05  0.0690
   2.2645E-02   2.3196E-02   8.6757E-05  0.0647
   2.3196E-02   2.3760E-02   7.7963E-05  0.0674
   2.3760E-02   2.4338E-02   8.7108E-05  0.0630
   2.4338E-02   2.4930E-02   8.3422E-05  0.0636
   2.4930E-02   2.5537E-02   8.6057E-05  0.0619
   2.5537E-02   2.6158E-02   7.8863E-05  0.0639
   2.6158E-02   2.6795E-02   8.2960E-05  0.0615
   2.6795E-02   2.7447E-02   8.1996E-05  0.0611
   2.7447E-02   2.8114E-02   7.6071E-05  0.0627
   2.8114E-02   2.8799E-02   7.9234E-05  0.0607
   2.8799E-02   2.9499E-02   8.1159E-05  0.0593
   2.9499E-02   3.0217E-02   8.7776E-05  0.0563
   3.0217E-02   3.0952E-02   8.6779E-05  0.0560
   3.0952E-02   3.1705E-02   8.6577E-05  0.0554
   3.1705E-02   3.2477E-02   8.9705E-05  0.0538
   3.2477E-02   3.3267E-02   8.6056E-05  0.0542
   3.3267E-02   3.4076E-02   9.5873E-05  0.0508
   3.4076E-02   3.4905E-02   8.9736E-05  0.0518
   3.4905E-02   3.5755E-02   8.5249E-05  0.0526
   3.5755E-02   3.6625E-02   7.9809E-05  0.0537
   3.6625E-02   3.7516E-02   8.6441E-05  0.0509
   3.7516E-02   3.8428E-02   9.0054E-05  0.0493
   3.8428E-02   3.9363E-02   9.0696E-05  0.0486
   3.9363E-02   4.0321E-02   9.2091E-05  0.0476
   4.0321E-02   4.1302E-02   9.7039E-05  0.0458
   4.1302E-02   4.2307E-02   7.7419E-05  0.0507
   4.2307E-02   4.3337E-02   9.0655E-05  0.0463
   4.3337E-02   4.4391E-02   8.6114E-05  0.0469
   4.4391E-02   4.5471E-02   9.0365E-05  0.0453
   4.5471E-02   4.6577E-02   9.1318E-05  0.0445
   4.6577E-02   4.7711E-02   9.4771E-05  0.0432
   4.7711E-02   4.8871E-02   9.3726E-05  0.0429
   4.8871E-02   5.0061E-02   9.0203E-05  0.0432
   5.0061E-02   5.1279E-02   9.2938E-05  0.0420
   5.1279E-02   5.2526E-02   8.3998E-05  0.0437
   5.2526E-02   5.3804E-02   9.0874E-05  0.0415
   5.3804E-02   5.5113E-02   9.1735E-05  0.0408
   5.5113E-02   5.6454E-02   8.5462E-05  0.0418
   5.6454E-02   5.7828E-02   8.2143E-05  0.0421
   5.7828E-02   5.9235E-02   8.8415E-05  0.0401
   5.9235E-02   6.0676E-02   9.1782E-05  0.0389
   6.0676E-02   6.2152E-02   8.4691E-05  0.0400
   6.2152E-02   6.3665E-02   8.7993E-05  0.0388
   6.3665E-02   6.5214E-02   8.6936E-05  0.0385
   6.5214E-02   6.6800E-02   8.6481E-05  0.0382
   6.6800E-02   6.8426E-02   9.0814E-05  0.0368
   6.8426E-02   7.0090E-02   8.6299E-05  0.0373
   7.0090E-02   7.1796E-02   9.0912E-05  0.0359
   7.1796E-02   7.3543E-02   9.0449E-05  0.0356
   7.3543E-02   7.5332E-02   8.8412E-05  0.0356
   7.5332E-02   7.7165E-02   8.9148E-05  0.0350
   7.7165E-02   7.9042E-02   8.9426E-05  0.0345
   7.9042E-02   8.0965E-02   8.1116E-05  0.0358
   8.0965E-02   8.2935E-02   9.2819E-05  0.0331
   8.2935E-02   8.4953E-02   8.8952E-05  0.0334
   8.4953E-02   8.7020E-02   8.9593E-05  0.0329
   8.7020E-02   8.9138E-02   8.5109E-05  0.0333
   8.9138E-02   9.1306E-02   9.0044E-05  0.0320
   9.1306E-02   9.3528E-02   8.6426E-05  0.0323
   9.3528E-02   9.5804E-02   8.7050E-05  0.0318
   9.5804E-02   9.8134E-02   8.8760E-05  0.0311
   9.8134E-02   1.0052E-01   8.6360E-05  0.0311
   1.0052E-01   1.0297E-01   8.4346E-05  0.0311
   1.0297E-01   1.0547E-01   8.4940E-05  0.0307
   1.0547E-01   1.0804E-01   9.0498E-05  0.0293
   1.0804E-01   1.1067E-01   8.7525E-05  0.0295
   1.1067E-01   1.1336E-01   8.7832E-05  0.0291
   1.1336E-01   1.1612E-01   8.7628E-05  0.0288
   1.1612E-01   1.1894E-01   8.8015E-05  0.0284
   1.1894E-01   1.2184E-01   8.5854E-05  0.0284
   1.2184E-01   1.2480E-01   8.4490E-05  0.0283
   1.2480E-01   1.2784E-01   8.2208E-05  0.0283
   1.2784E-01   1.3095E-01   8.4457E-05  0.0276
   1.3095E-01   1.3414E-01   8.2370E-05  0.0276
   1.3414E-01   1.3740E-01   8.6844E-05  0.0266
   1.3740E-01   1.4074E-01   8.3262E-05  0.0268
   1.4074E-01   1.4417E-01   8.6448E-05  0.0260
   1.4417E-01   1.4767E-01   8.2680E-05  0.0263
   1.4767E-01   1.5127E-01   8.2397E-05  0.0260
   1.5127E-01   1.5495E-01   8.2028E-05  0.0257
   1.5495E-01   1.5872E-01   8.2451E-05  0.0254
   1.5872E-01   1.6258E-01   8.0988E-05  0.0253
   1.6258E-01   1.6654E-01   8.2585E-05  0.0247
   1.6654E-01   1.7059E-01   8.1562E-05  0.0246
   1.7059E-01   1.7474E-01   8.0095E-05  0.0245
   1.7474E-01   1.7899E-01   7.9548E-05  0.0243
   1.7899E-01   1.8334E-01   8.0054E-05  0.0240
   1.8334E-01   1.8781E-01   7.8010E-05  0.0240
   1.8781E-01   1.9237E-01   7.8355E-05  0.0236
   1.9237E-01   1.9706E-01   7.8237E-05  0.0234
   1.9706E-01   2.0185E-01   7.6073E-05  0.0234
   2.0185E-01   2.0676E-01   7.3966E-05  0.0235
   2.0676E-01   2.1179E-01   7.4093E-05  0.0232
   2.1179E-01   2.1694E-01   7.8178E-05  0.0223
   2.1694E-01   2.2222E-01   7.3815E-05  0.0227
   2.2222E-01   2.2763E-01   7.6854E-05  0.0219
   2.2763E-01   2.3317E-01   7.6951E-05  0.0217
   2.3317E-01   2.3884E-01   7.2840E-05  0.0220
   2.3884E-01   2.4465E-01   7.2335E-05  0.0218
   2.4465E-01   2.5061E-01   7.1941E-05  0.0216
   2.5061E-01   2.5670E-01   6.8614E-05  0.0219
   2.5670E-01   2.6295E-01   6.9030E-05  0.0215
   2.6295E-01   2.6935E-01   6.9404E-05  0.0212
   2.6935E-01   2.7590E-01   7.0159E-05  0.0209
   2.7590E-01   2.8261E-01   6.6751E-05  0.0211
   2.8261E-01   2.8949E-01   6.5621E-05  0.0210
   2.8949E-01   2.9653E-01   6.7300E-05  0.0205
   2.9653E-01   3.0375E-01   6.5314E-05  0.0206
   3.0375E-01   3.1114E-01   6.4944E-05  0.0204
   3.1114E-01   3.1871E-01   6.5418E-05  0.0201
   3.1871E-01   3.2646E-01   6.5554E-05  0.0198
   3.2646E-01   3.3441E-01   6.3102E-05  0.0200
   3.3441E-01   3.4254E-01   6.2336E-05  0.0199
   3.4254E-01   3.5088E-01   6.2423E-05  0.0196
   3.5088E-01   3.5941E-01   6.0621E-05  0.0197
   3.5941E-01   3.6816E-01   5.9162E-05  0.0197
   3.6816E-01   3.7712E-01   6.0591E-05  0.0192
   3.7712E-01   3.8629E-01   5.7969E-05  0.0194
   3.8629E-01   3.9569E-01   5.6858E-05  0.0193
   3.9569E-01   4.0532E-01   5.8307E-05  0.0189
   4.0532E-01   4.1518E-01   5.6659E-05  0.0189
   4.1518E-01   4.2528E-01   5.5194E-05  0.0189
   4.2528E-01   4.3563E-01   5.4177E-05  0.0189
   4.3563E-01   4.4623E-01   5.3357E-05  0.0188
   4.4623E-01   4.5708E-01   5.2970E-05  0.0186
   4.5708E-01   4.6821E-01   5.1878E-05  0.0186
   4.6821E-01   4.7960E-01   5.2363E-05  0.0183
   4.7960E-01   4.9127E-01   5.0069E-05  0.0185
   4.9127E-01   5.0322E-01   5.0077E-05  0.0183
   5.0322E-01   5.1546E-01   5.0296E-05  0.0180
   5.1546E-01   5.2800E-01   4.9039E-05  0.0180
   5.2800E-01   5.4085E-01   4.7987E-05  0.0180
   5.4085E-01   5.5401E-01   4.9200E-05  0.0176
   5.5401E-01   5.6749E-01   4.7371E-05  0.0177
   5.6749E-01   5.8130E-01   4.6366E-05  0.0177
   5.8130E-01   5.9544E-01   4.5525E-05  0.0176
   5.9544E-01   6.0993E-01   4.4986E-05  0.0175
   6.0993E-01   6.2477E-01   4.4954E-05  0.0173
   6.2477E-01   6.3997E-01   4.3660E-05  0.0174
   6.3997E-01   6.5554E-01   4.3803E-05  0.0171
   6.5554E-01   6.7149E-01   4.1501E-05  0.0174
   6.7149E-01   6.8783E-01   4.1076E-05  0.0173
   6.8783E-01   7.0456E-01   4.0242E-05  0.0172
   7.0456E-01   7.2171E-01   4.0546E-05  0.0170
   7.2171E-01   7.3927E-01   3.7725E-05  0.0174
   7.3927E-01   7.5725E-01   3.7512E-05  0.0172
   7.5725E-01   7.7568E-01   3.7024E-05  0.0171
   7.7568E-01   7.9455E-01   3.5856E-05  0.0172
   7.9455E-01   8.1388E-01   3.5274E-05  0.0171
   8.1388E-01   8.3368E-01   3.3691E-05  0.0173
   8.3368E-01   8.5397E-01   3.4655E-05  0.0169
   8.5397E-01   8.7475E-01   3.1867E-05  0.0174
   8.7475E-01   8.9603E-01   3.1095E-05  0.0174
   8.9603E-01   9.1783E-01   3.0943E-05  0.0172
   9.1783E-01   9.4016E-01   2.9981E-05  0.0173
   9.4016E-01   9.6304E-01   2.9852E-05  0.0171
   9.6304E-01   9.8647E-01   2.7480E-05  0.0176
   9.8647E-01   1.0105E+00   2.8010E-05  0.0172
   1.0105E+00   1.0351E+00   2.8099E-05  0.0170
   1.0351E+00   1.0602E+00   2.9221E-05  0.0165
   1.0602E+00   1.0860E+00   2.9689E-05  0.0162
   1.0860E+00   1.1125E+00   3.0614E-05  0.0157
   1.1125E+00   1.1395E+00   3.1858E-05  0.0152
   1.1395E+00   1.1673E+00   3.3153E-05  0.0147
   1.1673E+00   1.1957E+00   3.5268E-05  0.0141
   1.1957E+00   1.2247E+00   3.5196E-05  0.0140
   1.2247E+00   1.2545E+00   3.5436E-05  0.0138
   1.2545E+00   1.2851E+00   3.7320E-05  0.0132
   1.2851E+00   1.3163E+00   3.8419E-05  0.0129
   1.3163E+00   1.3484E+00   3.9463E-05  0.0126
   1.3484E+00   1.3812E+00   4.1614E-05  0.0121
   1.3812E+00   1.4148E+00   4.2956E-05  0.0118
   1.4148E+00   1.4492E+00   4.3240E-05  0.0116
   1.4492E+00   1.4845E+00   4.4161E-05  0.0113
   1.4845E+00   1.5206E+00   4.4973E-05  0.0111
   1.5206E+00   1.5576E+00   4.6685E-05  0.0108
   1.5576E+00   1.5955E+00   4.8994E-05  0.0104
   1.5955E+00   1.6343E+00   5.1031E-05  0.0100
   1.6343E+00   1.6741E+00   5.3945E-05  0.0096
   1.6741E+00   1.7148E+00   5.5784E-05  0.0094
   1.7148E+00   1.7565E+00   5.6636E-05  0.0092
   1.7565E+00   1.7992E+00   5.9366E-05  0.0089
   1.7992E+00   1.8430E+00   6.1645E-05  0.0086
   1.8430E+00   1.8879E+00   6.3898E-05  0.0083
   1.8879E+00   1.9338E+00   6.6364E-05  0.0081
   1.9338E+00   1.9808E+00   6.8474E-05  0.0079
   1.9808E+00   2.0290E+00   7.2234E-05  0.0076
   2.0290E+00   2.0784E+00   7.2828E-05  0.0074
   2.0784E+00   2.1290E+00   7.3962E-05  0.0073
   2.1290E+00   2.1808E+00   7.7832E-05  0.0070
   2.1808E+00   2.2338E+00   7.9005E-05  0.0069
   2.2338E+00   2.2882E+00   8.2027E-05  0.0067
   2.2882E+00   2.3439E+00   8.6410E-05  0.0064
   2.3439E+00   2.4009E+00   8.9763E-05  0.0062
   2.4009E+00   2.4593E+00   9.2009E-05  0.0061
   2.4593E+00   2.5191E+00   9.3286E-05  0.0060
   2.5191E+00   2.5804E+00   9.4677E-05  0.0059
   2.5804E+00   2.6432E+00   9.6697E-05  0.0057
   2.6432E+00   2.7075E+00   9.8937E-05  0.0056
   2.7075E+00   2.7734E+00   1.0186E-04  0.0054
   2.7734E+00   2.8409E+00   1.0423E-04  0.0053
   2.8409E+00   2.9100E+00   1.1034E-04  0.0051
   2.9100E+00   2.9808E+00   1.1169E-04  0.0050
   2.9808E+00   3.0533E+00   1.1163E-04  0.0050
   3.0533E+00   3.1276E+00   1.1349E-04  0.0049
   3.1276E+00   3.2037E+00   1.1319E-04  0.0048
   3.2037E+00   3.2817E+00   1.1395E-04  0.0047
   3.2817E+00   3.3615E+00   1.1609E-04  0.0046
   3.3615E+00   3.4433E+00   1.1799E-04  0.0045
   3.4433E+00   3.5271E+00   1.2284E-04  0.0044
   3.5271E+00   3.6129E+00   1.2129E-04  0.0044
   3.6129E+00   3.7008E+00   1.2135E-04  0.0043
   3.7008E+00   3.7908E+00   1.2071E-04  0.0043
   3.7908E+00   3.8831E+00   1.2026E-04  0.0042
   3.8831E+00   3.9776E+00   1.2216E-04  0.0041
   3.9776E+00   4.0743E+00   1.2138E-04  0.0041
   4.0743E+00   4.1735E+00   1.2005E-04  0.0041
   4.1735E+00   4.2750E+00   1.1956E-04  0.0040
   4.2750E+00   4.3790E+00   1.1624E-04  0.0040
   4.3790E+00   4.4856E+00   1.1570E-04  0.0040
   4.4856E+00   4.5947E+00   1.1484E-04  0.0040
   4.5947E+00   4.7065E+00   1.1352E-04  0.0040
   4.7065E+00   4.8210E+00   1.1359E-04  0.0039
   4.8210E+00   4.9383E+00   1.1211E-04  0.0039
   4.9383E+00   5.0585E+00   1.0862E-04  0.0039
   5.0585E+00   5.1815E+00   1.0583E-04  0.0039
   5.1815E+00   5.3076E+00   1.0324E-04  0.0039
   5.3076E+00   5.4368E+00   1.0085E-04  0.0039
   5.4368E+00   5.5690E+00   9.7623E-05  0.0039
   5.5690E+00   5.7045E+00   9.5665E-05  0.0039
   5.7045E+00   5.8433E+00   9.4923E-05  0.0039
   5.8433E+00   5.9855E+00   9.1093E-05  0.0039
   5.9855E+00   6.1311E+00   8.9026E-05  0.0039
   6.1311E+00   6.2803E+00   8.5672E-05  0.0039
   6.2803E+00   6.4331E+00   8.2393E-05  0.0040
   6.4331E+00   6.5896E+00   7.9775E-05  0.0040
   6.5896E+00   6.7500E+00   7.6620E-05  0.0040
   6.7500E+00   6.9142E+00   7.4091E-05  0.0040
   6.9142E+00   7.0824E+00   7.1018E-05  0.0041
   7.0824E+00   7.2548E+00   6.9081E-05  0.0041
   7.2548E+00   7.4313E+00   6.6555E-05  0.0041
   7.4313E+00   7.6121E+00   6.3221E-05  0.0042
   7.6121E+00   7.7973E+00   6.0213E-05  0.0042
   7.7973E+00   7.9870E+00   5.8329E-05  0.0042
   7.9870E+00   8.1813E+00   5.5711E-05  0.0043
   8.1813E+00   8.3804E+00   5.3672E-05  0.0043
   8.3804E+00   8.5843E+00   5.1136E-05  0.0044
   8.5843E+00   8.7931E+00   4.8597E-05  0.0044
   8.7931E+00   9.0071E+00   4.6458E-05  0.0045
   9.0071E+00   9.2262E+00   4.4372E-05  0.0045
   9.2262E+00   9.4507E+00   4.2740E-05  0.0046
   9.4507E+00   9.6807E+00   4.0951E-05  0.0046
   9.6807E+00   9.9162E+00   3.9398E-05  0.0046
   9.9162E+00   1.0157E+01   3.8080E-05  0.0047
   1.0157E+01   1.0405E+01   3.6335E-05  0.0047
   1.0405E+01   1.0658E+01   3.4668E-05  0.0048
   1.0658E+01   1.0917E+01   3.3290E-05  0.0048
   1.0917E+01   1.1183E+01   3.1952E-05  0.0048
   1.1183E+01   1.1455E+01   3.0832E-05  0.0049
   1.1455E+01   1.1733E+01   2.9728E-05  0.0049
   1.1733E+01   1.2019E+01   2.8621E-05  0.0049
   1.2019E+01   1.2311E+01   2.7755E-05  0.0050
   1.2311E+01   1.2611E+01   2.6670E-05  0.0050
   1.2611E+01   1.2918E+01   2.5577E-05  0.0050
   1.2918E+01   1.3232E+01   2.4844E-05  0.0051
   1.3232E+01   1.3554E+01   2.3890E-05  0.0051
   1.3554E+01   1.3884E+01   2.3099E-05  0.0051
   1.3884E+01   1.4222E+01   2.2533E-05  0.0051
   1.4222E+01   1.4568E+01   2.1897E-05  0.0051
   1.4568E+01   1.4922E+01   2.1296E-05  0.0051
   1.4922E+01   1.5285E+01   2.0570E-05  0.0052
   1.5285E+01   1.5657E+01   2.0139E-05  0.0052
   1.5657E+01   1.6038E+01   1.9258E-05  0.0052
   1.6038E+01   1.6428E+01   1.8895E-05  0.0052
   1.6428E+01   1.6828E+01   1.8039E-05  0.0053
   1.6828E+01   1.7237E+01   1.7610E-05  0.0053
   1.7237E+01   1.7657E+01   1.7221E-05  0.0053
   1.7657E+01   1.8086E+01   1.6818E-05  0.0053
   1.8086E+01   1.8526E+01   1.6053E-05  0.0053
   1.8526E+01   1.8977E+01   1.5661E-05  0.0053
   1.8977E+01   1.9439E+01   1.5069E-05  0.0054
   1.9439E+01   1.9912E+01   1.4523E-05  0.0054
   1.9912E+01   2.0396E+01   1.3886E-05  0.0055
   2.0396E+01   2.0893E+01   1.3708E-05  0.0054
   2.0893E+01   2.1401E+01   1.3204E-05  0.0055
   2.1401E+01   2.1922E+01   1.2775E-05  0.0055
   2.1922E+01   2.2455E+01   1.2074E-05  0.0056
   2.2455E+01   2.3001E+01   1.1784E-05  0.0056
   2.3001E+01   2.3561E+01   1.1180E-05  0.0057
   2.3561E+01   2.4134E+01   1.0887E-05  0.0057
   2.4134E+01   2.4721E+01   1.0383E-05  0.0057
   2.4721E+01   2.5323E+01   9.7986E-06  0.0058
   2.5323E+01   2.5939E+01   9.4114E-06  0.0059
   2.5939E+01   2.6570E+01   8.9067E-06  0.0060
   2.6570E+01   2.7217E+01   8.4811E-06  0.0060
   2.7217E+01   2.7879E+01   8.0259E-06  0.0061
   2.7879E+01   2.8557E+01   7.4549E-06  0.0063
   2.8557E+01   2.9252E+01   7.0778E-06  0.0064
   2.9252E+01   2.9964E+01   6.6337E-06  0.0065
   2.9964E+01   3.0693E+01   6.2839E-06  0.0066
   3.0693E+01   3.1440E+01   5.8081E-06  0.0068
   3.1440E+01   3.2205E+01   5.4108E-06  0.0070
   3.2205E+01   3.2988E+01   5.0092E-06  0.0071
   3.2988E+01   3.3791E+01   4.6946E-06  0.0073
   3.3791E+01   3.4613E+01   4.2885E-06  0.0075
   3.4613E+01   3.5455E+01   3.9446E-06  0.0078
   3.5455E+01   3.6318E+01   3.6453E-06  0.0080
   3.6318E+01   3.7201E+01   3.2817E-06  0.0083
   3.7201E+01   3.8106E+01   3.0037E-06  0.0086
   3.8106E+01   3.9034E+01   2.7055E-06  0.0089
   3.9034E+01   3.9983E+01   2.4593E-06  0.0093
   3.9983E+01   4.0956E+01   2.1872E-06  0.0097
   4.0956E+01   4.1953E+01   1.9932E-06  0.0100
   4.1953E+01   4.2973E+01   1.7611E-06  0.0105
   4.2973E+01   4.4019E+01   1.5580E-06  0.0111
   4.4019E+01   4.5090E+01   1.3583E-06  0.0117
   4.5090E+01   4.6187E+01   1.1760E-06  0.0125
   4.6187E+01   4.7311E+01   1.0029E-06  0.0133
   4.7311E+01   4.8462E+01   8.4458E-07  0.0143
   4.8462E+01   4.9641E+01   7.3716E-07  0.0152
   4.9641E+01   5.0849E+01   5.9761E-07  0.0166
   5.0849E+01   5.2086E+01   4.9467E-07  0.0181
   5.2086E+01   5.3353E+01   3.9786E-07  0.0199
   5.3353E+01   5.4651E+01   3.1938E-07  0.0220
   5.4651E+01   5.5981E+01   2.4502E-07  0.0248
   5.5981E+01   5.7343E+01   1.8736E-07  0.0280
   5.7343E+01   5.8738E+01   1.3804E-07  0.0322
   5.8738E+01   6.0168E+01   9.7820E-08  0.0378
   6.0168E+01   6.1632E+01   6.8036E-08  0.0448
   6.1632E+01   6.3131E+01   3.7878E-08  0.0593
   6.3131E+01   6.4667E+01   2.5260E-08  0.0718
   6.4667E+01   6.6240E+01   1.2584E-08  0.1005
   6.6240E+01   6.7852E+01   3.4746E-09  0.1890
   6.7852E+01   6.9503E+01   3.6344E-10  0.5774
   6.9503E+01   7.1194E+01   0.0000E+00  0.0000
   7.1194E+01   7.2926E+01   0.0000E+00  0.0000
   7.2926E+01   7.4701E+01   0.0000E+00  0.0000
   7.4701E+01   7.6518E+01   0.0000E+00  0.0000
   7.6518E+01   7.8380E+01   0.0000E+00  0.0000
   7.8380E+01   8.0287E+01   0.0000E+00  0.0000
   8.0287E+01   8.2240E+01   0.0000E+00  0.0000
   8.2240E+01   8.4241E+01   0.0000E+00  0.0000
   8.4241E+01   8.6291E+01   0.0000E+00  0.0000
   8.6291E+01   8.8391E+01   0.0000E+00  0.0000
   8.8391E+01   9.0541E+01   0.0000E+00  0.0000
   9.0541E+01   9.2744E+01   0.0000E+00  0.0000
   9.2744E+01   9.5001E+01   0.0000E+00  0.0000
   9.5001E+01   9.7312E+01   0.0000E+00  0.0000
   9.7312E+01   9.9680E+01   0.0000E+00  0.0000
   9.9680E+01   1.0211E+02   0.0000E+00  0.0000
   1.0211E+02   1.0459E+02   0.0000E+00  0.0000
   1.0459E+02   1.0713E+02   0.0000E+00  0.0000
   1.0713E+02   1.0974E+02   0.0000E+00  0.0000
   1.0974E+02   1.1241E+02   0.0000E+00  0.0000
   1.1241E+02   1.1515E+02   0.0000E+00  0.0000
   1.1515E+02   1.1795E+02   0.0000E+00  0.0000
   1.1795E+02   1.2082E+02   0.0000E+00  0.0000
   1.2082E+02   1.2376E+02   0.0000E+00  0.0000
   1.2376E+02   1.2677E+02   0.0000E+00  0.0000
   1.2677E+02   1.2985E+02   0.0000E+00  0.0000
   1.2985E+02   1.3301E+02   0.0000E+00  0.0000
   1.3301E+02   1.3625E+02   0.0000E+00  0.0000
   1.3625E+02   1.3956E+02   0.0000E+00  0.0000
   1.3956E+02   1.4296E+02   0.0000E+00  0.0000
   1.4296E+02   1.4644E+02   0.0000E+00  0.0000
   1.4644E+02   1.5000E+02   0.0000E+00  0.0000

#   sum over                 7.6268E-06
'no. =    1   reg = 113 - 213'
msuc: {\huge [t-cross] in region mesh}
msdr: {\it plotted by \ANGEL \version}
msdl: {\it calculated by \PHITS  3.26}
wt: s(0.7)
\vspace{-3}
  region surface crossing
  area  &=&   1.0000E+00 [cm^2]
e:
 
# Information for Restart Calculation
# This calculation was newly started
# istdev =  2 # 1:Batch variance, 2:History variance
# resc2  = 5.00000000000000000E+09 # Total source weight or Total source weight / maxcas
# resc3  = 5.00000000000000000E+09 # Total history number or Total batch number
# maxcas =   100000000 # History / Batch, only used for istdev=1
# bitrseed = 0110100000100010111000001110001111001110100100011111101000111001 # bit data of rseed
