[ T-Cross ]
    title = [t-cross] in region mesh
     mesh =  reg            # mesh type is region-wise
      reg =    1            # number of crossing regions
      non     r-from    r-to       area
      1       100       200        1.000000    
   e-type =    3            # e-mesh is log given by emin, emax and ne
     emin =  1.0000000E-02  # minimum value of e-mesh points
     emax =   150.0000      # maximum value of e-mesh points
#    edel =  2.4039514E-02  # mesh width of e-mesh points
       ne =    400          # number of e-mesh points
#    data = ( e(i), i = 1, ne + 1 )
#           1.00000E-02  1.02433E-02  1.04925E-02  1.07478E-02  1.10093E-02
#           1.12772E-02  1.15516E-02  1.18326E-02  1.21205E-02  1.24154E-02
#           1.27175E-02  1.30269E-02  1.33439E-02  1.36686E-02  1.40011E-02
#           1.43418E-02  1.46907E-02  1.50482E-02  1.54143E-02  1.57894E-02
#           1.61735E-02  1.65670E-02  1.69701E-02  1.73830E-02  1.78060E-02
#           1.82392E-02  1.86830E-02  1.91375E-02  1.96032E-02  2.00801E-02
#           2.05687E-02  2.10692E-02  2.15818E-02  2.21069E-02  2.26448E-02
#           2.31957E-02  2.37601E-02  2.43382E-02  2.49304E-02  2.55369E-02
#           2.61583E-02  2.67947E-02  2.74467E-02  2.81145E-02  2.87985E-02
#           2.94992E-02  3.02169E-02  3.09521E-02  3.17052E-02  3.24766E-02
#           3.32668E-02  3.40762E-02  3.49053E-02  3.57546E-02  3.66246E-02
#           3.75157E-02  3.84284E-02  3.93634E-02  4.03212E-02  4.13022E-02
#           4.23071E-02  4.33365E-02  4.43909E-02  4.54710E-02  4.65773E-02
#           4.77106E-02  4.88714E-02  5.00605E-02  5.12785E-02  5.25262E-02
#           5.38042E-02  5.51133E-02  5.64542E-02  5.78278E-02  5.92348E-02
#           6.06760E-02  6.21523E-02  6.36645E-02  6.52135E-02  6.68002E-02
#           6.84255E-02  7.00904E-02  7.17957E-02  7.35426E-02  7.53319E-02
#           7.71648E-02  7.90423E-02  8.09655E-02  8.29354E-02  8.49533E-02
#           8.70203E-02  8.91376E-02  9.13064E-02  9.35279E-02  9.58035E-02
#           9.81345E-02  1.00522E-01  1.02968E-01  1.05473E-01  1.08040E-01
#           1.10668E-01  1.13361E-01  1.16119E-01  1.18944E-01  1.21838E-01
#           1.24803E-01  1.27839E-01  1.30950E-01  1.34136E-01  1.37399E-01
#           1.40742E-01  1.44167E-01  1.47675E-01  1.51268E-01  1.54948E-01
#           1.58718E-01  1.62580E-01  1.66535E-01  1.70587E-01  1.74738E-01
#           1.78989E-01  1.83344E-01  1.87805E-01  1.92375E-01  1.97055E-01
#           2.01850E-01  2.06761E-01  2.11792E-01  2.16945E-01  2.22223E-01
#           2.27630E-01  2.33169E-01  2.38842E-01  2.44653E-01  2.50605E-01
#           2.56703E-01  2.62949E-01  2.69346E-01  2.75900E-01  2.82613E-01
#           2.89489E-01  2.96532E-01  3.03747E-01  3.11138E-01  3.18708E-01
#           3.26462E-01  3.34405E-01  3.42542E-01  3.50876E-01  3.59413E-01
#           3.68158E-01  3.77116E-01  3.86291E-01  3.95690E-01  4.05317E-01
#           4.15179E-01  4.25281E-01  4.35628E-01  4.46227E-01  4.57084E-01
#           4.68205E-01  4.79597E-01  4.91266E-01  5.03219E-01  5.15463E-01
#           5.28005E-01  5.40851E-01  5.54011E-01  5.67490E-01  5.81298E-01
#           5.95441E-01  6.09929E-01  6.24769E-01  6.39970E-01  6.55541E-01
#           6.71491E-01  6.87828E-01  7.04564E-01  7.21706E-01  7.39266E-01
#           7.57253E-01  7.75678E-01  7.94551E-01  8.13883E-01  8.33685E-01
#           8.53969E-01  8.74747E-01  8.96030E-01  9.17831E-01  9.40163E-01
#           9.63038E-01  9.86469E-01  1.01047E+00  1.03506E+00  1.06024E+00
#           1.08604E+00  1.11246E+00  1.13953E+00  1.16725E+00  1.19565E+00
#           1.22474E+00  1.25454E+00  1.28507E+00  1.31633E+00  1.34836E+00
#           1.38117E+00  1.41477E+00  1.44920E+00  1.48446E+00  1.52057E+00
#           1.55757E+00  1.59547E+00  1.63429E+00  1.67405E+00  1.71478E+00
#           1.75650E+00  1.79924E+00  1.84302E+00  1.88786E+00  1.93379E+00
#           1.98084E+00  2.02904E+00  2.07841E+00  2.12898E+00  2.18078E+00
#           2.23384E+00  2.28819E+00  2.34386E+00  2.40089E+00  2.45930E+00
#           2.51914E+00  2.58043E+00  2.64322E+00  2.70753E+00  2.77341E+00
#           2.84088E+00  2.91001E+00  2.98081E+00  3.05333E+00  3.12762E+00
#           3.20372E+00  3.28167E+00  3.36152E+00  3.44330E+00  3.52708E+00
#           3.61290E+00  3.70080E+00  3.79085E+00  3.88308E+00  3.97756E+00
#           4.07434E+00  4.17347E+00  4.27501E+00  4.37903E+00  4.48557E+00
#           4.59471E+00  4.70650E+00  4.82102E+00  4.93832E+00  5.05847E+00
#           5.18155E+00  5.30762E+00  5.43676E+00  5.56904E+00  5.70453E+00
#           5.84333E+00  5.98550E+00  6.13114E+00  6.28031E+00  6.43312E+00
#           6.58964E+00  6.74997E+00  6.91420E+00  7.08243E+00  7.25475E+00
#           7.43126E+00  7.61207E+00  7.79728E+00  7.98700E+00  8.18133E+00
#           8.38038E+00  8.58428E+00  8.79315E+00  9.00709E+00  9.22624E+00
#           9.45072E+00  9.68067E+00  9.91620E+00  1.01575E+01  1.04046E+01
#           1.06578E+01  1.09171E+01  1.11827E+01  1.14548E+01  1.17335E+01
#           1.20190E+01  1.23114E+01  1.26109E+01  1.29178E+01  1.32321E+01
#           1.35540E+01  1.38838E+01  1.42216E+01  1.45676E+01  1.49221E+01
#           1.52851E+01  1.56570E+01  1.60380E+01  1.64282E+01  1.68279E+01
#           1.72374E+01  1.76568E+01  1.80864E+01  1.85264E+01  1.89772E+01
#           1.94389E+01  1.99119E+01  2.03963E+01  2.08926E+01  2.14009E+01
#           2.19216E+01  2.24550E+01  2.30014E+01  2.35610E+01  2.41343E+01
#           2.47215E+01  2.53230E+01  2.59391E+01  2.65702E+01  2.72167E+01
#           2.78789E+01  2.85572E+01  2.92520E+01  2.99637E+01  3.06928E+01
#           3.14396E+01  3.22045E+01  3.29881E+01  3.37907E+01  3.46128E+01
#           3.54550E+01  3.63177E+01  3.72013E+01  3.81064E+01  3.90336E+01
#           3.99833E+01  4.09561E+01  4.19526E+01  4.29734E+01  4.40189E+01
#           4.50900E+01  4.61870E+01  4.73108E+01  4.84619E+01  4.96410E+01
#           5.08488E+01  5.20860E+01  5.33533E+01  5.46514E+01  5.59812E+01
#           5.73432E+01  5.87384E+01  6.01676E+01  6.16315E+01  6.31311E+01
#           6.46671E+01  6.62405E+01  6.78522E+01  6.95031E+01  7.11941E+01
#           7.29263E+01  7.47007E+01  7.65182E+01  7.83800E+01  8.02870E+01
#           8.22405E+01  8.42414E+01  8.62911E+01  8.83906E+01  9.05412E+01
#           9.27442E+01  9.50007E+01  9.73122E+01  9.96799E+01  1.02105E+02
#           1.04589E+02  1.07134E+02  1.09741E+02  1.12411E+02  1.15146E+02
#           1.17948E+02  1.20817E+02  1.23757E+02  1.26768E+02  1.29852E+02
#           1.33012E+02  1.36248E+02  1.39563E+02  1.42959E+02  1.46437E+02
#           1.50000E+02
     unit =    2            # unit is [1/cm^2/(MeV/n)/source]
     axis =  eng            # axis of output
     file = detector-01.out  # file name of output for the above axis
   output = f-curr          # surface crossing forward current spectrum
     part =  neutron  
# kf/name :  2112     
#    used :        main (  %)        temp (  %)       total (  %)
#  memory :         414 (  0)           0 (  0)         414 (  0)

#------------------------------------------------------------------------------
#newpage:
#   no. =    1   reg = 100 - 200

x: Energy [MeV/n]
y:  F-Curr [1/cm^2/(MeV/n)/source]         
p: xlog ylog afac(0.8) form(0.9)
h: n            x            y(neutron ),hh0l   n 
#  e-lower      e-upper      neutron     r.err 
   1.0000E-02   1.0243E-02   2.4635E-06  0.5774
   1.0243E-02   1.0493E-02   2.4035E-06  0.5774
   1.0493E-02   1.0748E-02   1.5657E-06  0.7071
   1.0748E-02   1.1009E-02   1.5290E-06  0.7071
   1.1009E-02   1.1277E-02   0.0000E+00  0.0000
   1.1277E-02   1.1552E-02   1.4556E-06  0.7071
   1.1552E-02   1.1833E-02   4.1264E-06  0.4094
   1.1833E-02   1.2121E-02   6.9441E-07  1.0000
   1.2121E-02   1.2415E-02   2.0317E-06  0.5774
   1.2415E-02   1.2718E-02   6.6116E-07  1.0000
   1.2718E-02   1.3027E-02   6.4590E-07  1.0000
   1.3027E-02   1.3344E-02   1.8782E-06  0.5774
   1.3344E-02   1.3669E-02   1.2299E-06  0.7071
   1.3669E-02   1.4001E-02   1.8018E-06  0.5774
   1.4001E-02   1.4342E-02   1.1733E-06  0.7071
   1.4342E-02   1.4691E-02   1.1381E-06  0.7071
   1.4691E-02   1.5048E-02   2.2364E-06  0.5000
   1.5048E-02   1.5414E-02   5.4560E-07  1.0000
   1.5414E-02   1.5789E-02   1.5990E-06  0.5774
   1.5789E-02   1.6174E-02   1.0405E-06  0.7071
   1.6174E-02   1.6567E-02   2.1775E-06  0.4713
   1.6567E-02   1.6970E-02   9.9106E-07  0.7071
   1.6970E-02   1.7383E-02   9.6677E-07  0.7071
   1.7383E-02   1.7806E-02   1.4176E-06  0.5774
   1.7806E-02   1.8239E-02   4.6031E-07  1.0000
   1.8239E-02   1.8683E-02   9.0069E-07  0.7071
   1.8683E-02   1.9138E-02   3.5094E-07  1.0000
   1.9138E-02   1.9603E-02   4.2818E-07  1.0000
   1.9603E-02   2.0080E-02   1.6754E-06  0.5000
   2.0080E-02   2.0569E-02   8.1777E-07  0.7071
   2.0569E-02   2.1069E-02   7.9900E-07  0.7071
   2.1069E-02   2.1582E-02   3.8974E-07  1.0000
   2.1582E-02   2.2107E-02   7.1884E-07  0.7083
   2.2107E-02   2.2645E-02   7.4263E-07  0.7071
   2.2645E-02   2.3196E-02   7.2551E-07  0.7071
   2.3196E-02   2.3760E-02   0.0000E+00  0.0000
   2.3760E-02   2.4338E-02   0.0000E+00  0.0000
   2.4338E-02   2.4930E-02   6.7491E-07  0.7071
   2.4930E-02   2.5537E-02   1.6470E-06  0.4472
   2.5537E-02   2.6158E-02   6.4319E-07  0.7071
   2.6158E-02   2.6795E-02   0.0000E+00  0.0000
   2.6795E-02   2.7447E-02   0.0000E+00  0.0000
   2.7447E-02   2.8114E-02   5.9796E-07  0.7071
   2.8114E-02   2.8799E-02   0.0000E+00  0.0000
   2.8799E-02   2.9499E-02   2.8487E-07  1.0000
   2.9499E-02   3.0217E-02   5.5662E-07  0.7071
   3.0217E-02   3.0952E-02   5.4399E-07  0.7071
   3.0952E-02   3.1705E-02   2.6552E-07  1.0000
   3.1705E-02   3.2477E-02   2.5809E-07  1.0000
   3.2477E-02   3.3267E-02   5.0583E-07  0.7071
   3.3267E-02   3.4076E-02   2.4702E-07  1.0000
   3.4076E-02   3.4905E-02   2.4084E-07  1.0000
   3.4905E-02   3.5755E-02   0.0000E+00  0.0000
   3.5755E-02   3.6625E-02   2.2981E-07  1.0000
   3.6625E-02   3.7516E-02   0.0000E+00  0.0000
   3.7516E-02   3.8428E-02   8.7472E-07  0.5000
   3.8428E-02   3.9363E-02   2.1390E-07  1.0000
   3.9363E-02   4.0321E-02   4.1707E-07  0.7071
   4.0321E-02   4.1302E-02   6.1091E-07  0.5774
   4.1302E-02   4.2307E-02   0.0000E+00  0.0000
   4.2307E-02   4.3337E-02   0.0000E+00  0.0000
   4.3337E-02   4.4391E-02   3.7890E-07  0.7071
   4.4391E-02   4.5471E-02   7.3903E-07  0.5000
   4.5471E-02   4.6577E-02   1.8063E-07  1.0000
   4.6577E-02   4.7711E-02   0.0000E+00  0.0000
   4.7711E-02   4.8871E-02   5.1400E-07  0.5774
   4.8871E-02   5.0061E-02   5.0417E-07  0.5774
   5.0061E-02   5.1279E-02   2.9594E-07  0.7113
   5.1279E-02   5.2526E-02   4.7980E-07  0.5774
   5.2526E-02   5.3804E-02   1.5634E-07  1.0000
   5.3804E-02   5.5113E-02   3.0533E-07  0.7071
   5.5113E-02   5.6454E-02   7.3328E-07  0.4474
   5.6454E-02   5.7828E-02   5.8187E-07  0.5000
   5.7828E-02   5.9235E-02   0.0000E+00  0.0000
   5.9235E-02   6.0676E-02   5.5422E-07  0.5000
   6.0676E-02   6.2152E-02   2.7080E-07  0.7071
   6.2152E-02   6.3665E-02   1.3219E-07  1.0000
   6.3665E-02   6.5214E-02   1.2830E-07  1.0000
   6.5214E-02   6.6800E-02   3.7762E-07  0.5774
   6.6800E-02   6.8426E-02   3.6863E-07  0.5774
   6.8426E-02   7.0090E-02   2.3968E-07  0.7071
   7.0090E-02   7.1796E-02   1.0357E-07  1.0000
   7.1796E-02   7.3543E-02   0.0000E+00  0.0000
   7.3543E-02   7.5332E-02   3.3492E-07  0.5774
   7.5332E-02   7.7165E-02   3.2725E-07  0.5774
   7.7165E-02   7.9042E-02   0.0000E+00  0.0000
   7.9042E-02   8.0965E-02   0.0000E+00  0.0000
   8.0965E-02   8.2935E-02   2.0199E-07  0.7071
   8.2935E-02   8.4953E-02   9.8883E-08  1.0000
   8.4953E-02   8.7020E-02   3.8645E-07  0.5000
   8.7020E-02   8.9138E-02   9.4311E-08  1.0000
   8.9138E-02   9.1306E-02   4.6026E-07  0.4472
   9.1306E-02   9.3528E-02   5.3944E-07  0.4082
   9.3528E-02   9.5804E-02   8.7887E-08  1.0000
   9.5804E-02   9.8134E-02   8.5767E-08  1.0000
   9.8134E-02   1.0052E-01   8.3719E-08  1.0000
   1.0052E-01   1.0297E-01   4.8999E-07  0.4082
   1.0297E-01   1.0547E-01   1.5948E-07  0.7071
   1.0547E-01   1.0804E-01   2.3365E-07  0.5774
   1.0804E-01   1.1067E-01   3.8018E-07  0.4472
   1.1067E-01   1.1336E-01   2.2246E-07  0.5774
   1.1336E-01   1.1612E-01   2.1724E-07  0.5774
   1.1612E-01   1.1894E-01   1.4134E-07  0.7071
   1.1894E-01   1.2184E-01   2.0717E-07  0.5774
   1.2184E-01   1.2480E-01   2.6420E-07  0.5003
   1.2480E-01   1.2784E-01   4.6042E-07  0.3780
   1.2784E-01   1.3095E-01   1.9255E-07  0.5774
   1.3095E-01   1.3414E-01   2.4013E-07  0.5015
   1.3414E-01   1.3740E-01   2.9204E-07  0.4491
   1.3740E-01   1.4074E-01   3.5843E-07  0.4082
   1.4074E-01   1.4417E-01   2.9181E-07  0.4472
   1.4417E-01   1.4767E-01   3.4120E-07  0.4082
   1.4767E-01   1.5127E-01   2.2244E-07  0.5000
   1.5127E-01   1.5495E-01   4.3432E-07  0.3536
   1.5495E-01   1.5872E-01   3.7074E-07  0.3780
   1.5872E-01   1.6258E-01   3.5167E-07  0.3789
   1.6258E-01   1.6654E-01   5.5578E-07  0.3015
   1.6654E-01   1.7059E-01   5.9102E-07  0.2887
   1.7059E-01   1.7474E-01   3.8469E-07  0.3536
   1.7474E-01   1.7899E-01   7.9790E-07  0.2425
   1.7899E-01   1.8334E-01   9.6105E-07  0.2182
   1.8334E-01   1.8781E-01   5.3749E-07  0.2887
   1.8781E-01   1.9237E-01   7.7949E-07  0.2359
   1.9237E-01   1.9706E-01   8.9253E-07  0.2183
   1.9706E-01   2.0185E-01   1.0757E-06  0.1962
   2.0185E-01   2.0676E-01   7.7260E-07  0.2294
   2.0676E-01   2.1179E-01   6.9875E-07  0.2362
   2.1179E-01   2.1694E-01   8.9342E-07  0.2071
   2.1694E-01   2.2222E-01   8.3225E-07  0.2132
   2.2222E-01   2.2763E-01   9.6019E-07  0.1961
   2.2763E-01   2.3317E-01   1.2246E-06  0.1715
   2.3317E-01   2.3884E-01   9.7938E-07  0.1891
   2.3884E-01   2.4465E-01   1.0309E-06  0.1826
   2.4465E-01   2.5061E-01   9.0578E-07  0.1925
   2.5061E-01   2.5670E-01   7.1991E-07  0.2132
   2.5670E-01   2.6295E-01   1.3418E-06  0.1543
   2.6295E-01   2.6935E-01   1.0291E-06  0.1741
   2.6935E-01   2.7590E-01   1.1517E-06  0.1623
   2.7590E-01   2.8261E-01   1.7345E-06  0.1304
   2.8261E-01   2.8949E-01   1.5093E-06  0.1387
   2.8949E-01   2.9653E-01   1.5583E-06  0.1348
   2.9653E-01   3.0375E-01   1.4105E-06  0.1400
   3.0375E-01   3.1114E-01   1.5392E-06  0.1325
   3.1114E-01   3.1871E-01   1.9510E-06  0.1162
   3.1871E-01   3.2646E-01   1.8697E-06  0.1171
   3.2646E-01   3.3441E-01   1.9338E-06  0.1140
   3.3441E-01   3.4254E-01   2.3072E-06  0.1029
   3.4254E-01   3.5088E-01   1.9625E-06  0.1104
   3.5088E-01   3.5941E-01   1.9362E-06  0.1098
   3.5941E-01   3.6816E-01   1.8937E-06  0.1098
   3.6816E-01   3.7712E-01   2.2825E-06  0.0986
   3.7712E-01   3.8629E-01   2.4058E-06  0.0949
   3.8629E-01   3.9569E-01   2.5135E-06  0.0917
   3.9569E-01   4.0532E-01   2.5458E-06  0.0902
   4.0532E-01   4.1518E-01   3.0111E-06  0.0819
   4.1518E-01   4.2528E-01   2.8798E-06  0.0828
   4.2528E-01   4.3563E-01   2.5576E-06  0.0868
   4.3563E-01   4.4623E-01   3.1012E-06  0.0779
   4.4623E-01   4.5708E-01   2.9478E-06  0.0788
   4.5708E-01   4.6821E-01   3.4165E-06  0.0724
   4.6821E-01   4.7960E-01   3.0960E-06  0.0752
   4.7960E-01   4.9127E-01   3.0560E-06  0.0748
   4.9127E-01   5.0322E-01   3.2782E-06  0.0713
   5.0322E-01   5.1546E-01   3.0853E-06  0.0726
   5.1546E-01   5.2800E-01   3.2069E-06  0.0703
   5.2800E-01   5.4085E-01   3.5772E-06  0.0658
   5.4085E-01   5.5401E-01   3.5900E-06  0.0650
   5.5401E-01   5.6749E-01   3.2075E-06  0.0678
   5.6749E-01   5.8130E-01   3.3163E-06  0.0659
   5.8130E-01   5.9544E-01   3.6490E-06  0.0621
   5.9544E-01   6.0993E-01   3.7532E-06  0.0605
   6.0993E-01   6.2477E-01   4.1071E-06  0.0572
   6.2477E-01   6.3997E-01   3.6381E-06  0.0599
   6.3997E-01   6.5554E-01   3.6899E-06  0.0588
   6.5554E-01   6.7149E-01   3.9560E-06  0.0562
   6.7149E-01   6.8783E-01   3.7831E-06  0.0567
   6.8783E-01   7.0456E-01   3.5162E-06  0.0581
   7.0456E-01   7.2171E-01   3.9574E-06  0.0542
   7.2171E-01   7.3927E-01   3.9206E-06  0.0538
   7.3927E-01   7.5725E-01   4.0788E-06  0.0521
   7.5725E-01   7.7568E-01   4.2429E-06  0.0504
   7.7568E-01   7.9455E-01   3.6356E-06  0.0538
   7.9455E-01   8.1388E-01   3.9227E-06  0.0512
   8.1388E-01   8.3368E-01   4.5148E-06  0.0471
   8.3368E-01   8.5397E-01   4.3030E-06  0.0477
   8.5397E-01   8.7475E-01   3.9569E-06  0.0492
   8.7475E-01   8.9603E-01   4.3079E-06  0.0466
   8.9603E-01   9.1783E-01   4.0612E-06  0.0474
   9.1783E-01   9.4016E-01   4.5029E-06  0.0445
   9.4016E-01   9.6304E-01   4.3514E-06  0.0447
   9.6304E-01   9.8647E-01   4.4884E-06  0.0435
   9.8647E-01   1.0105E+00   4.4408E-06  0.0432
   1.0105E+00   1.0351E+00   4.7435E-06  0.0413
   1.0351E+00   1.0602E+00   4.1357E-06  0.0437
   1.0602E+00   1.0860E+00   4.4487E-06  0.0416
   1.0860E+00   1.1125E+00   4.6106E-06  0.0404
   1.1125E+00   1.1395E+00   4.6120E-06  0.0398
   1.1395E+00   1.1673E+00   4.7054E-06  0.0390
   1.1673E+00   1.1957E+00   4.8982E-06  0.0377
   1.1957E+00   1.2247E+00   4.6890E-06  0.0381
   1.2247E+00   1.2545E+00   5.0669E-06  0.0362
   1.2545E+00   1.2851E+00   4.7541E-06  0.0370
   1.2851E+00   1.3163E+00   4.7549E-06  0.0365
   1.3163E+00   1.3484E+00   5.2399E-06  0.0343
   1.3484E+00   1.3812E+00   5.1208E-06  0.0343
   1.3812E+00   1.4148E+00   4.8607E-06  0.0348
   1.4148E+00   1.4492E+00   4.8702E-06  0.0343
   1.4492E+00   1.4845E+00   5.1165E-06  0.0331
   1.4845E+00   1.5206E+00   5.3536E-06  0.0320
   1.5206E+00   1.5576E+00   5.2398E-06  0.0319
   1.5576E+00   1.5955E+00   5.4899E-06  0.0308
   1.5955E+00   1.6343E+00   5.5793E-06  0.0302
   1.6343E+00   1.6741E+00   5.6723E-06  0.0295
   1.6741E+00   1.7148E+00   5.6546E-06  0.0292
   1.7148E+00   1.7565E+00   5.3762E-06  0.0296
   1.7565E+00   1.7992E+00   5.2336E-06  0.0297
   1.7992E+00   1.8430E+00   5.0990E-06  0.0296
   1.8430E+00   1.8879E+00   5.0071E-06  0.0295
   1.8879E+00   1.9338E+00   4.8795E-06  0.0294
   1.9338E+00   1.9808E+00   4.5713E-06  0.0300
   1.9808E+00   2.0290E+00   4.9555E-06  0.0285
   2.0290E+00   2.0784E+00   4.8985E-06  0.0283
   2.0784E+00   2.1290E+00   4.7126E-06  0.0284
   2.1290E+00   2.1808E+00   5.0487E-06  0.0271
   2.1808E+00   2.2338E+00   5.1306E-06  0.0265
   2.2338E+00   2.2882E+00   5.0266E-06  0.0265
   2.2882E+00   2.3439E+00   5.1732E-06  0.0259
   2.3439E+00   2.4009E+00   4.9679E-06  0.0261
   2.4009E+00   2.4593E+00   4.6933E-06  0.0266
   2.4593E+00   2.5191E+00   4.6593E-06  0.0264
   2.5191E+00   2.5804E+00   5.1016E-06  0.0249
   2.5804E+00   2.6432E+00   4.8560E-06  0.0252
   2.6432E+00   2.7075E+00   4.7457E-06  0.0252
   2.7075E+00   2.7734E+00   4.7469E-06  0.0248
   2.7734E+00   2.8409E+00   4.7341E-06  0.0246
   2.8409E+00   2.9100E+00   4.8458E-06  0.0240
   2.9100E+00   2.9808E+00   4.6263E-06  0.0243
   2.9808E+00   3.0533E+00   4.8749E-06  0.0234
   3.0533E+00   3.1276E+00   4.7651E-06  0.0234
   3.1276E+00   3.2037E+00   4.7177E-06  0.0233
   3.2037E+00   3.2817E+00   4.7448E-06  0.0229
   3.2817E+00   3.3615E+00   4.6322E-06  0.0230
   3.3615E+00   3.4433E+00   4.6516E-06  0.0226
   3.4433E+00   3.5271E+00   4.8019E-06  0.0221
   3.5271E+00   3.6129E+00   4.6314E-06  0.0222
   3.6129E+00   3.7008E+00   4.5741E-06  0.0221
   3.7008E+00   3.7908E+00   4.6913E-06  0.0216
   3.7908E+00   3.8831E+00   4.4826E-06  0.0218
   3.8831E+00   3.9776E+00   4.4983E-06  0.0215
   3.9776E+00   4.0743E+00   4.5428E-06  0.0211
   4.0743E+00   4.1735E+00   4.4911E-06  0.0210
   4.1735E+00   4.2750E+00   4.3197E-06  0.0211
   4.2750E+00   4.3790E+00   4.2999E-06  0.0209
   4.3790E+00   4.4856E+00   4.3922E-06  0.0205
   4.4856E+00   4.5947E+00   4.3254E-06  0.0204
   4.5947E+00   4.7065E+00   4.2184E-06  0.0204
   4.7065E+00   4.8210E+00   4.2476E-06  0.0201
   4.8210E+00   4.9383E+00   4.2695E-06  0.0198
   4.9383E+00   5.0585E+00   4.1342E-06  0.0199
   5.0585E+00   5.1815E+00   4.0259E-06  0.0199
   5.1815E+00   5.3076E+00   3.9457E-06  0.0198
   5.3076E+00   5.4368E+00   4.0304E-06  0.0194
   5.4368E+00   5.5690E+00   3.9004E-06  0.0195
   5.5690E+00   5.7045E+00   3.9889E-06  0.0191
   5.7045E+00   5.8433E+00   3.9986E-06  0.0188
   5.8433E+00   5.9855E+00   3.8274E-06  0.0190
   5.9855E+00   6.1311E+00   3.8056E-06  0.0188
   6.1311E+00   6.2803E+00   3.7362E-06  0.0188
   6.2803E+00   6.4331E+00   3.8208E-06  0.0184
   6.4331E+00   6.5896E+00   3.7755E-06  0.0183
   6.5896E+00   6.7500E+00   3.6317E-06  0.0184
   6.7500E+00   6.9142E+00   3.6291E-06  0.0182
   6.9142E+00   7.0824E+00   3.6488E-06  0.0179
   7.0824E+00   7.2548E+00   3.6194E-06  0.0178
   7.2548E+00   7.4313E+00   3.4095E-06  0.0181
   7.4313E+00   7.6121E+00   3.4685E-06  0.0177
   7.6121E+00   7.7973E+00   3.4053E-06  0.0177
   7.7973E+00   7.9870E+00   3.3356E-06  0.0177
   7.9870E+00   8.1813E+00   3.3213E-06  0.0175
   8.1813E+00   8.3804E+00   3.3743E-06  0.0171
   8.3804E+00   8.5843E+00   3.2862E-06  0.0172
   8.5843E+00   8.7931E+00   3.3324E-06  0.0168
   8.7931E+00   9.0071E+00   3.2217E-06  0.0169
   9.0071E+00   9.2262E+00   3.1561E-06  0.0169
   9.2262E+00   9.4507E+00   3.0833E-06  0.0169
   9.4507E+00   9.6807E+00   3.1243E-06  0.0166
   9.6807E+00   9.9162E+00   3.0362E-06  0.0167
   9.9162E+00   1.0157E+01   3.0422E-06  0.0165
   1.0157E+01   1.0405E+01   2.9711E-06  0.0165
   1.0405E+01   1.0658E+01   2.9139E-06  0.0165
   1.0658E+01   1.0917E+01   2.7784E-06  0.0166
   1.0917E+01   1.1183E+01   2.8524E-06  0.0162
   1.1183E+01   1.1455E+01   2.7427E-06  0.0164
   1.1455E+01   1.1733E+01   2.6474E-06  0.0165
   1.1733E+01   1.2019E+01   2.5365E-06  0.0166
   1.2019E+01   1.2311E+01   2.5520E-06  0.0164
   1.2311E+01   1.2611E+01   2.4587E-06  0.0165
   1.2611E+01   1.2918E+01   2.4394E-06  0.0163
   1.2918E+01   1.3232E+01   2.4136E-06  0.0162
   1.3232E+01   1.3554E+01   2.2452E-06  0.0166
   1.3554E+01   1.3884E+01   2.2124E-06  0.0165
   1.3884E+01   1.4222E+01   2.1391E-06  0.0166
   1.4222E+01   1.4568E+01   2.1126E-06  0.0165
   1.4568E+01   1.4922E+01   2.0035E-06  0.0168
   1.4922E+01   1.5285E+01   1.9174E-06  0.0169
   1.5285E+01   1.5657E+01   1.7665E-06  0.0174
   1.5657E+01   1.6038E+01   1.8255E-06  0.0170
   1.6038E+01   1.6428E+01   1.7485E-06  0.0171
   1.6428E+01   1.6828E+01   1.6894E-06  0.0172
   1.6828E+01   1.7237E+01   1.5615E-06  0.0177
   1.7237E+01   1.7657E+01   1.4494E-06  0.0181
   1.7657E+01   1.8086E+01   1.4041E-06  0.0182
   1.8086E+01   1.8526E+01   1.3307E-06  0.0185
   1.8526E+01   1.8977E+01   1.2219E-06  0.0191
   1.8977E+01   1.9439E+01   1.1327E-06  0.0196
   1.9439E+01   1.9912E+01   1.0766E-06  0.0198
   1.9912E+01   2.0396E+01   9.8994E-07  0.0204
   2.0396E+01   2.0893E+01   9.4668E-07  0.0206
   2.0893E+01   2.1401E+01   8.6754E-07  0.0213
   2.1401E+01   2.1922E+01   7.4553E-07  0.0227
   2.1922E+01   2.2455E+01   6.7083E-07  0.0236
   2.2455E+01   2.3001E+01   5.9889E-07  0.0247
   2.3001E+01   2.3561E+01   5.2426E-07  0.0261
   2.3561E+01   2.4134E+01   4.3680E-07  0.0283
   2.4134E+01   2.4721E+01   3.3038E-07  0.0321
   2.4721E+01   2.5323E+01   2.6767E-07  0.0352
   2.5323E+01   2.5939E+01   1.9769E-07  0.0405
   2.5939E+01   2.6570E+01   1.0870E-07  0.0540
   2.6570E+01   2.7217E+01   3.7124E-08  0.0913
   2.7217E+01   2.7879E+01   3.0202E-10  1.0000
   2.7879E+01   2.8557E+01   2.9485E-10  1.0000
   2.8557E+01   2.9252E+01   0.0000E+00  0.0000
   2.9252E+01   2.9964E+01   0.0000E+00  0.0000
   2.9964E+01   3.0693E+01   0.0000E+00  0.0000
   3.0693E+01   3.1440E+01   0.0000E+00  0.0000
   3.1440E+01   3.2205E+01   0.0000E+00  0.0000
   3.2205E+01   3.2988E+01   0.0000E+00  0.0000
   3.2988E+01   3.3791E+01   0.0000E+00  0.0000
   3.3791E+01   3.4613E+01   0.0000E+00  0.0000
   3.4613E+01   3.5455E+01   0.0000E+00  0.0000
   3.5455E+01   3.6318E+01   0.0000E+00  0.0000
   3.6318E+01   3.7201E+01   0.0000E+00  0.0000
   3.7201E+01   3.8106E+01   0.0000E+00  0.0000
   3.8106E+01   3.9034E+01   0.0000E+00  0.0000
   3.9034E+01   3.9983E+01   0.0000E+00  0.0000
   3.9983E+01   4.0956E+01   0.0000E+00  0.0000
   4.0956E+01   4.1953E+01   0.0000E+00  0.0000
   4.1953E+01   4.2973E+01   0.0000E+00  0.0000
   4.2973E+01   4.4019E+01   0.0000E+00  0.0000
   4.4019E+01   4.5090E+01   0.0000E+00  0.0000
   4.5090E+01   4.6187E+01   0.0000E+00  0.0000
   4.6187E+01   4.7311E+01   0.0000E+00  0.0000
   4.7311E+01   4.8462E+01   0.0000E+00  0.0000
   4.8462E+01   4.9641E+01   0.0000E+00  0.0000
   4.9641E+01   5.0849E+01   0.0000E+00  0.0000
   5.0849E+01   5.2086E+01   0.0000E+00  0.0000
   5.2086E+01   5.3353E+01   0.0000E+00  0.0000
   5.3353E+01   5.4651E+01   0.0000E+00  0.0000
   5.4651E+01   5.5981E+01   0.0000E+00  0.0000
   5.5981E+01   5.7343E+01   0.0000E+00  0.0000
   5.7343E+01   5.8738E+01   0.0000E+00  0.0000
   5.8738E+01   6.0168E+01   0.0000E+00  0.0000
   6.0168E+01   6.1632E+01   0.0000E+00  0.0000
   6.1632E+01   6.3131E+01   0.0000E+00  0.0000
   6.3131E+01   6.4667E+01   0.0000E+00  0.0000
   6.4667E+01   6.6240E+01   0.0000E+00  0.0000
   6.6240E+01   6.7852E+01   0.0000E+00  0.0000
   6.7852E+01   6.9503E+01   0.0000E+00  0.0000
   6.9503E+01   7.1194E+01   0.0000E+00  0.0000
   7.1194E+01   7.2926E+01   0.0000E+00  0.0000
   7.2926E+01   7.4701E+01   0.0000E+00  0.0000
   7.4701E+01   7.6518E+01   0.0000E+00  0.0000
   7.6518E+01   7.8380E+01   0.0000E+00  0.0000
   7.8380E+01   8.0287E+01   0.0000E+00  0.0000
   8.0287E+01   8.2240E+01   0.0000E+00  0.0000
   8.2240E+01   8.4241E+01   0.0000E+00  0.0000
   8.4241E+01   8.6291E+01   0.0000E+00  0.0000
   8.6291E+01   8.8391E+01   0.0000E+00  0.0000
   8.8391E+01   9.0541E+01   0.0000E+00  0.0000
   9.0541E+01   9.2744E+01   0.0000E+00  0.0000
   9.2744E+01   9.5001E+01   0.0000E+00  0.0000
   9.5001E+01   9.7312E+01   0.0000E+00  0.0000
   9.7312E+01   9.9680E+01   0.0000E+00  0.0000
   9.9680E+01   1.0211E+02   0.0000E+00  0.0000
   1.0211E+02   1.0459E+02   0.0000E+00  0.0000
   1.0459E+02   1.0713E+02   0.0000E+00  0.0000
   1.0713E+02   1.0974E+02   0.0000E+00  0.0000
   1.0974E+02   1.1241E+02   0.0000E+00  0.0000
   1.1241E+02   1.1515E+02   0.0000E+00  0.0000
   1.1515E+02   1.1795E+02   0.0000E+00  0.0000
   1.1795E+02   1.2082E+02   0.0000E+00  0.0000
   1.2082E+02   1.2376E+02   0.0000E+00  0.0000
   1.2376E+02   1.2677E+02   0.0000E+00  0.0000
   1.2677E+02   1.2985E+02   0.0000E+00  0.0000
   1.2985E+02   1.3301E+02   0.0000E+00  0.0000
   1.3301E+02   1.3625E+02   0.0000E+00  0.0000
   1.3625E+02   1.3956E+02   0.0000E+00  0.0000
   1.3956E+02   1.4296E+02   0.0000E+00  0.0000
   1.4296E+02   1.4644E+02   0.0000E+00  0.0000
   1.4644E+02   1.5000E+02   0.0000E+00  0.0000

#   sum over                 4.1563E-07
'no. =    1   reg = 100 - 200'
msuc: {\huge [t-cross] in region mesh}
msdr: {\it plotted by \ANGEL \version}
msdl: {\it calculated by \PHITS  3.26}
wt: s(0.7)
\vspace{-3}
  region surface crossing
  area  &=&   1.0000E+00 [cm^2]
e:
 
# Information for Restart Calculation
# This calculation was newly started
# istdev =  2 # 1:Batch variance, 2:History variance
# resc2  = 5.00000000000000000E+09 # Total source weight or Total source weight / maxcas
# resc3  = 5.00000000000000000E+09 # Total history number or Total batch number
# maxcas =   100000000 # History / Batch, only used for istdev=1
# bitrseed = 0110100000100010111000001110001111001110100100011111101000111001 # bit data of rseed
