25 <--- number of remaining batches 

-------------------------------------------------------------------------------
bat[      25] ncas =     2500000000.
 bitrseed = 0000100001110010100111110000101000101101000011011010001000101110
          cpu time =  18 m. 37.89 s.

 date = 2022-04-30
 time = 18h 07m 07s

