[ T-Cross ]
    title = [t-cross] in region mesh
     mesh =  reg            # mesh type is region-wise
      reg =    1            # number of crossing regions
      non     r-from    r-to       area
      1       118       218        1.000000    
   e-type =    3            # e-mesh is log given by emin, emax and ne
     emin =  1.0000000E-02  # minimum value of e-mesh points
     emax =   150.0000      # maximum value of e-mesh points
#    edel =  2.4039514E-02  # mesh width of e-mesh points
       ne =    400          # number of e-mesh points
#    data = ( e(i), i = 1, ne + 1 )
#           1.00000E-02  1.02433E-02  1.04925E-02  1.07478E-02  1.10093E-02
#           1.12772E-02  1.15516E-02  1.18326E-02  1.21205E-02  1.24154E-02
#           1.27175E-02  1.30269E-02  1.33439E-02  1.36686E-02  1.40011E-02
#           1.43418E-02  1.46907E-02  1.50482E-02  1.54143E-02  1.57894E-02
#           1.61735E-02  1.65670E-02  1.69701E-02  1.73830E-02  1.78060E-02
#           1.82392E-02  1.86830E-02  1.91375E-02  1.96032E-02  2.00801E-02
#           2.05687E-02  2.10692E-02  2.15818E-02  2.21069E-02  2.26448E-02
#           2.31957E-02  2.37601E-02  2.43382E-02  2.49304E-02  2.55369E-02
#           2.61583E-02  2.67947E-02  2.74467E-02  2.81145E-02  2.87985E-02
#           2.94992E-02  3.02169E-02  3.09521E-02  3.17052E-02  3.24766E-02
#           3.32668E-02  3.40762E-02  3.49053E-02  3.57546E-02  3.66246E-02
#           3.75157E-02  3.84284E-02  3.93634E-02  4.03212E-02  4.13022E-02
#           4.23071E-02  4.33365E-02  4.43909E-02  4.54710E-02  4.65773E-02
#           4.77106E-02  4.88714E-02  5.00605E-02  5.12785E-02  5.25262E-02
#           5.38042E-02  5.51133E-02  5.64542E-02  5.78278E-02  5.92348E-02
#           6.06760E-02  6.21523E-02  6.36645E-02  6.52135E-02  6.68002E-02
#           6.84255E-02  7.00904E-02  7.17957E-02  7.35426E-02  7.53319E-02
#           7.71648E-02  7.90423E-02  8.09655E-02  8.29354E-02  8.49533E-02
#           8.70203E-02  8.91376E-02  9.13064E-02  9.35279E-02  9.58035E-02
#           9.81345E-02  1.00522E-01  1.02968E-01  1.05473E-01  1.08040E-01
#           1.10668E-01  1.13361E-01  1.16119E-01  1.18944E-01  1.21838E-01
#           1.24803E-01  1.27839E-01  1.30950E-01  1.34136E-01  1.37399E-01
#           1.40742E-01  1.44167E-01  1.47675E-01  1.51268E-01  1.54948E-01
#           1.58718E-01  1.62580E-01  1.66535E-01  1.70587E-01  1.74738E-01
#           1.78989E-01  1.83344E-01  1.87805E-01  1.92375E-01  1.97055E-01
#           2.01850E-01  2.06761E-01  2.11792E-01  2.16945E-01  2.22223E-01
#           2.27630E-01  2.33169E-01  2.38842E-01  2.44653E-01  2.50605E-01
#           2.56703E-01  2.62949E-01  2.69346E-01  2.75900E-01  2.82613E-01
#           2.89489E-01  2.96532E-01  3.03747E-01  3.11138E-01  3.18708E-01
#           3.26462E-01  3.34405E-01  3.42542E-01  3.50876E-01  3.59413E-01
#           3.68158E-01  3.77116E-01  3.86291E-01  3.95690E-01  4.05317E-01
#           4.15179E-01  4.25281E-01  4.35628E-01  4.46227E-01  4.57084E-01
#           4.68205E-01  4.79597E-01  4.91266E-01  5.03219E-01  5.15463E-01
#           5.28005E-01  5.40851E-01  5.54011E-01  5.67490E-01  5.81298E-01
#           5.95441E-01  6.09929E-01  6.24769E-01  6.39970E-01  6.55541E-01
#           6.71491E-01  6.87828E-01  7.04564E-01  7.21706E-01  7.39266E-01
#           7.57253E-01  7.75678E-01  7.94551E-01  8.13883E-01  8.33685E-01
#           8.53969E-01  8.74747E-01  8.96030E-01  9.17831E-01  9.40163E-01
#           9.63038E-01  9.86469E-01  1.01047E+00  1.03506E+00  1.06024E+00
#           1.08604E+00  1.11246E+00  1.13953E+00  1.16725E+00  1.19565E+00
#           1.22474E+00  1.25454E+00  1.28507E+00  1.31633E+00  1.34836E+00
#           1.38117E+00  1.41477E+00  1.44920E+00  1.48446E+00  1.52057E+00
#           1.55757E+00  1.59547E+00  1.63429E+00  1.67405E+00  1.71478E+00
#           1.75650E+00  1.79924E+00  1.84302E+00  1.88786E+00  1.93379E+00
#           1.98084E+00  2.02904E+00  2.07841E+00  2.12898E+00  2.18078E+00
#           2.23384E+00  2.28819E+00  2.34386E+00  2.40089E+00  2.45930E+00
#           2.51914E+00  2.58043E+00  2.64322E+00  2.70753E+00  2.77341E+00
#           2.84088E+00  2.91001E+00  2.98081E+00  3.05333E+00  3.12762E+00
#           3.20372E+00  3.28167E+00  3.36152E+00  3.44330E+00  3.52708E+00
#           3.61290E+00  3.70080E+00  3.79085E+00  3.88308E+00  3.97756E+00
#           4.07434E+00  4.17347E+00  4.27501E+00  4.37903E+00  4.48557E+00
#           4.59471E+00  4.70650E+00  4.82102E+00  4.93832E+00  5.05847E+00
#           5.18155E+00  5.30762E+00  5.43676E+00  5.56904E+00  5.70453E+00
#           5.84333E+00  5.98550E+00  6.13114E+00  6.28031E+00  6.43312E+00
#           6.58964E+00  6.74997E+00  6.91420E+00  7.08243E+00  7.25475E+00
#           7.43126E+00  7.61207E+00  7.79728E+00  7.98700E+00  8.18133E+00
#           8.38038E+00  8.58428E+00  8.79315E+00  9.00709E+00  9.22624E+00
#           9.45072E+00  9.68067E+00  9.91620E+00  1.01575E+01  1.04046E+01
#           1.06578E+01  1.09171E+01  1.11827E+01  1.14548E+01  1.17335E+01
#           1.20190E+01  1.23114E+01  1.26109E+01  1.29178E+01  1.32321E+01
#           1.35540E+01  1.38838E+01  1.42216E+01  1.45676E+01  1.49221E+01
#           1.52851E+01  1.56570E+01  1.60380E+01  1.64282E+01  1.68279E+01
#           1.72374E+01  1.76568E+01  1.80864E+01  1.85264E+01  1.89772E+01
#           1.94389E+01  1.99119E+01  2.03963E+01  2.08926E+01  2.14009E+01
#           2.19216E+01  2.24550E+01  2.30014E+01  2.35610E+01  2.41343E+01
#           2.47215E+01  2.53230E+01  2.59391E+01  2.65702E+01  2.72167E+01
#           2.78789E+01  2.85572E+01  2.92520E+01  2.99637E+01  3.06928E+01
#           3.14396E+01  3.22045E+01  3.29881E+01  3.37907E+01  3.46128E+01
#           3.54550E+01  3.63177E+01  3.72013E+01  3.81064E+01  3.90336E+01
#           3.99833E+01  4.09561E+01  4.19526E+01  4.29734E+01  4.40189E+01
#           4.50900E+01  4.61870E+01  4.73108E+01  4.84619E+01  4.96410E+01
#           5.08488E+01  5.20860E+01  5.33533E+01  5.46514E+01  5.59812E+01
#           5.73432E+01  5.87384E+01  6.01676E+01  6.16315E+01  6.31311E+01
#           6.46671E+01  6.62405E+01  6.78522E+01  6.95031E+01  7.11941E+01
#           7.29263E+01  7.47007E+01  7.65182E+01  7.83800E+01  8.02870E+01
#           8.22405E+01  8.42414E+01  8.62911E+01  8.83906E+01  9.05412E+01
#           9.27442E+01  9.50007E+01  9.73122E+01  9.96799E+01  1.02105E+02
#           1.04589E+02  1.07134E+02  1.09741E+02  1.12411E+02  1.15146E+02
#           1.17948E+02  1.20817E+02  1.23757E+02  1.26768E+02  1.29852E+02
#           1.33012E+02  1.36248E+02  1.39563E+02  1.42959E+02  1.46437E+02
#           1.50000E+02
     unit =    2            # unit is [1/cm^2/(MeV/n)/source]
     axis =  eng            # axis of output
     file = detector-19.out  # file name of output for the above axis
   output = f-curr          # surface crossing forward current spectrum
     part =  neutron  
# kf/name :  2112     
#    used :        main (  %)        temp (  %)       total (  %)
#  memory :         414 (  0)           0 (  0)         414 (  0)

#------------------------------------------------------------------------------
#newpage:
#   no. =    1   reg = 118 - 218

x: Energy [MeV/n]
y:  F-Curr [1/cm^2/(MeV/n)/source]         
p: xlog ylog afac(0.8) form(0.9)
h: n            x            y(neutron ),hh0l   n 
#  e-lower      e-upper      neutron     r.err 
   1.0000E-02   1.0243E-02   2.7307E-03  0.0174
   1.0243E-02   1.0493E-02   2.8115E-03  0.0169
   1.0493E-02   1.0748E-02   2.7435E-03  0.0169
   1.0748E-02   1.1009E-02   2.7090E-03  0.0168
   1.1009E-02   1.1277E-02   2.6483E-03  0.0168
   1.1277E-02   1.1552E-02   2.7753E-03  0.0162
   1.1552E-02   1.1833E-02   2.8599E-03  0.0158
   1.1833E-02   1.2121E-02   2.8218E-03  0.0157
   1.2121E-02   1.2415E-02   2.7433E-03  0.0157
   1.2415E-02   1.2718E-02   2.7960E-03  0.0154
   1.2718E-02   1.3027E-02   2.7044E-03  0.0155
   1.3027E-02   1.3344E-02   2.7922E-03  0.0150
   1.3344E-02   1.3669E-02   2.8029E-03  0.0148
   1.3669E-02   1.4001E-02   2.7609E-03  0.0148
   1.4001E-02   1.4342E-02   2.8187E-03  0.0144
   1.4342E-02   1.4691E-02   2.8655E-03  0.0141
   1.4691E-02   1.5048E-02   2.8229E-03  0.0141
   1.5048E-02   1.5414E-02   2.8656E-03  0.0138
   1.5414E-02   1.5789E-02   2.7746E-03  0.0139
   1.5789E-02   1.6174E-02   2.8782E-03  0.0134
   1.6174E-02   1.6567E-02   2.8385E-03  0.0134
   1.6567E-02   1.6970E-02   2.8490E-03  0.0132
   1.6970E-02   1.7383E-02   2.8552E-03  0.0130
   1.7383E-02   1.7806E-02   2.8730E-03  0.0128
   1.7806E-02   1.8239E-02   2.9291E-03  0.0126
   1.8239E-02   1.8683E-02   2.9369E-03  0.0124
   1.8683E-02   1.9138E-02   2.8715E-03  0.0124
   1.9138E-02   1.9603E-02   2.9321E-03  0.0121
   1.9603E-02   2.0080E-02   2.8740E-03  0.0121
   2.0080E-02   2.0569E-02   2.8813E-03  0.0119
   2.0569E-02   2.1069E-02   2.9034E-03  0.0117
   2.1069E-02   2.1582E-02   2.9304E-03  0.0115
   2.1582E-02   2.2107E-02   2.9147E-03  0.0114
   2.2107E-02   2.2645E-02   2.9250E-03  0.0113
   2.2645E-02   2.3196E-02   2.9639E-03  0.0111
   2.3196E-02   2.3760E-02   2.9553E-03  0.0110
   2.3760E-02   2.4338E-02   2.9657E-03  0.0108
   2.4338E-02   2.4930E-02   2.9867E-03  0.0106
   2.4930E-02   2.5537E-02   2.9599E-03  0.0106
   2.5537E-02   2.6158E-02   3.0040E-03  0.0104
   2.6158E-02   2.6795E-02   3.0191E-03  0.0102
   2.6795E-02   2.7447E-02   3.0199E-03  0.0101
   2.7447E-02   2.8114E-02   3.0105E-03  0.0100
   2.8114E-02   2.8799E-02   3.0303E-03  0.0098
   2.8799E-02   2.9499E-02   3.0377E-03  0.0097
   2.9499E-02   3.0217E-02   3.0121E-03  0.0096
   3.0217E-02   3.0952E-02   3.0231E-03  0.0095
   3.0952E-02   3.1705E-02   3.0384E-03  0.0093
   3.1705E-02   3.2477E-02   3.0587E-03  0.0092
   3.2477E-02   3.3267E-02   3.0583E-03  0.0091
   3.3267E-02   3.4076E-02   3.1210E-03  0.0089
   3.4076E-02   3.4905E-02   3.1316E-03  0.0088
   3.4905E-02   3.5755E-02   3.0719E-03  0.0088
   3.5755E-02   3.6625E-02   3.1084E-03  0.0086
   3.6625E-02   3.7516E-02   3.0898E-03  0.0085
   3.7516E-02   3.8428E-02   3.1444E-03  0.0083
   3.8428E-02   3.9363E-02   3.1268E-03  0.0083
   3.9363E-02   4.0321E-02   3.1563E-03  0.0081
   4.0321E-02   4.1302E-02   3.1413E-03  0.0081
   4.1302E-02   4.2307E-02   3.1422E-03  0.0080
   4.2307E-02   4.3337E-02   3.1331E-03  0.0079
   4.3337E-02   4.4391E-02   3.1491E-03  0.0078
   4.4391E-02   4.5471E-02   3.1778E-03  0.0076
   4.5471E-02   4.6577E-02   3.1848E-03  0.0075
   4.6577E-02   4.7711E-02   3.1705E-03  0.0075
   4.7711E-02   4.8871E-02   3.1620E-03  0.0074
   4.8871E-02   5.0061E-02   3.2370E-03  0.0072
   5.0061E-02   5.1279E-02   3.1999E-03  0.0072
   5.1279E-02   5.2526E-02   3.2141E-03  0.0071
   5.2526E-02   5.3804E-02   3.2084E-03  0.0070
   5.3804E-02   5.5113E-02   3.2633E-03  0.0068
   5.5113E-02   5.6454E-02   3.2276E-03  0.0068
   5.6454E-02   5.7828E-02   3.2651E-03  0.0067
   5.7828E-02   5.9235E-02   3.2267E-03  0.0066
   5.9235E-02   6.0676E-02   3.2428E-03  0.0065
   6.0676E-02   6.2152E-02   3.2626E-03  0.0064
   6.2152E-02   6.3665E-02   3.2998E-03  0.0063
   6.3665E-02   6.5214E-02   3.2963E-03  0.0063
   6.5214E-02   6.6800E-02   3.3313E-03  0.0062
   6.6800E-02   6.8426E-02   3.3114E-03  0.0061
   6.8426E-02   7.0090E-02   3.2856E-03  0.0060
   7.0090E-02   7.1796E-02   3.2693E-03  0.0060
   7.1796E-02   7.3543E-02   3.3377E-03  0.0059
   7.3543E-02   7.5332E-02   3.3488E-03  0.0058
   7.5332E-02   7.7165E-02   3.3226E-03  0.0057
   7.7165E-02   7.9042E-02   3.3432E-03  0.0056
   7.9042E-02   8.0965E-02   3.3497E-03  0.0056
   8.0965E-02   8.2935E-02   3.3600E-03  0.0055
   8.2935E-02   8.4953E-02   3.3710E-03  0.0054
   8.4953E-02   8.7020E-02   3.3647E-03  0.0054
   8.7020E-02   8.9138E-02   3.4066E-03  0.0053
   8.9138E-02   9.1306E-02   3.3709E-03  0.0052
   9.1306E-02   9.3528E-02   3.4046E-03  0.0051
   9.3528E-02   9.5804E-02   3.3707E-03  0.0051
   9.5804E-02   9.8134E-02   3.4324E-03  0.0050
   9.8134E-02   1.0052E-01   3.4096E-03  0.0050
   1.0052E-01   1.0297E-01   3.4002E-03  0.0049
   1.0297E-01   1.0547E-01   3.4211E-03  0.0048
   1.0547E-01   1.0804E-01   3.3960E-03  0.0048
   1.0804E-01   1.1067E-01   3.4412E-03  0.0047
   1.1067E-01   1.1336E-01   3.4553E-03  0.0046
   1.1336E-01   1.1612E-01   3.4369E-03  0.0046
   1.1612E-01   1.1894E-01   3.4471E-03  0.0045
   1.1894E-01   1.2184E-01   3.4666E-03  0.0045
   1.2184E-01   1.2480E-01   3.4462E-03  0.0044
   1.2480E-01   1.2784E-01   3.4680E-03  0.0044
   1.2784E-01   1.3095E-01   3.4748E-03  0.0043
   1.3095E-01   1.3414E-01   3.4778E-03  0.0042
   1.3414E-01   1.3740E-01   3.4689E-03  0.0042
   1.3740E-01   1.4074E-01   3.4925E-03  0.0041
   1.4074E-01   1.4417E-01   3.4964E-03  0.0041
   1.4417E-01   1.4767E-01   3.4878E-03  0.0040
   1.4767E-01   1.5127E-01   3.5007E-03  0.0040
   1.5127E-01   1.5495E-01   3.4822E-03  0.0040
   1.5495E-01   1.5872E-01   3.4780E-03  0.0039
   1.5872E-01   1.6258E-01   3.4929E-03  0.0039
   1.6258E-01   1.6654E-01   3.4841E-03  0.0038
   1.6654E-01   1.7059E-01   3.4845E-03  0.0038
   1.7059E-01   1.7474E-01   3.4808E-03  0.0037
   1.7474E-01   1.7899E-01   3.5049E-03  0.0037
   1.7899E-01   1.8334E-01   3.4979E-03  0.0036
   1.8334E-01   1.8781E-01   3.4932E-03  0.0036
   1.8781E-01   1.9237E-01   3.4964E-03  0.0035
   1.9237E-01   1.9706E-01   3.5080E-03  0.0035
   1.9706E-01   2.0185E-01   3.5093E-03  0.0034
   2.0185E-01   2.0676E-01   3.5010E-03  0.0034
   2.0676E-01   2.1179E-01   3.4779E-03  0.0034
   2.1179E-01   2.1694E-01   3.4717E-03  0.0033
   2.1694E-01   2.2222E-01   3.4714E-03  0.0033
   2.2222E-01   2.2763E-01   3.4809E-03  0.0033
   2.2763E-01   2.3317E-01   3.4753E-03  0.0032
   2.3317E-01   2.3884E-01   3.4421E-03  0.0032
   2.3884E-01   2.4465E-01   3.4500E-03  0.0032
   2.4465E-01   2.5061E-01   3.4495E-03  0.0031
   2.5061E-01   2.5670E-01   3.4522E-03  0.0031
   2.5670E-01   2.6295E-01   3.4476E-03  0.0030
   2.6295E-01   2.6935E-01   3.4120E-03  0.0030
   2.6935E-01   2.7590E-01   3.4067E-03  0.0030
   2.7590E-01   2.8261E-01   3.3979E-03  0.0030
   2.8261E-01   2.8949E-01   3.3878E-03  0.0029
   2.8949E-01   2.9653E-01   3.3869E-03  0.0029
   2.9653E-01   3.0375E-01   3.3710E-03  0.0029
   3.0375E-01   3.1114E-01   3.3658E-03  0.0028
   3.1114E-01   3.1871E-01   3.3346E-03  0.0028
   3.1871E-01   3.2646E-01   3.3201E-03  0.0028
   3.2646E-01   3.3441E-01   3.3108E-03  0.0028
   3.3441E-01   3.4254E-01   3.2854E-03  0.0027
   3.4254E-01   3.5088E-01   3.2856E-03  0.0027
   3.5088E-01   3.5941E-01   3.2608E-03  0.0027
   3.5941E-01   3.6816E-01   3.2510E-03  0.0027
   3.6816E-01   3.7712E-01   3.2139E-03  0.0026
   3.7712E-01   3.8629E-01   3.1975E-03  0.0026
   3.8629E-01   3.9569E-01   3.1735E-03  0.0026
   3.9569E-01   4.0532E-01   3.1488E-03  0.0026
   4.0532E-01   4.1518E-01   3.1370E-03  0.0025
   4.1518E-01   4.2528E-01   3.0906E-03  0.0025
   4.2528E-01   4.3563E-01   3.0759E-03  0.0025
   4.3563E-01   4.4623E-01   3.0354E-03  0.0025
   4.4623E-01   4.5708E-01   3.0192E-03  0.0025
   4.5708E-01   4.6821E-01   2.9955E-03  0.0025
   4.6821E-01   4.7960E-01   2.9629E-03  0.0024
   4.7960E-01   4.9127E-01   2.9255E-03  0.0024
   4.9127E-01   5.0322E-01   2.8950E-03  0.0024
   5.0322E-01   5.1546E-01   2.8731E-03  0.0024
   5.1546E-01   5.2800E-01   2.8305E-03  0.0024
   5.2800E-01   5.4085E-01   2.8009E-03  0.0024
   5.4085E-01   5.5401E-01   2.7556E-03  0.0023
   5.5401E-01   5.6749E-01   2.7254E-03  0.0023
   5.6749E-01   5.8130E-01   2.6761E-03  0.0023
   5.8130E-01   5.9544E-01   2.6339E-03  0.0023
   5.9544E-01   6.0993E-01   2.5950E-03  0.0023
   6.0993E-01   6.2477E-01   2.5365E-03  0.0023
   6.2477E-01   6.3997E-01   2.5033E-03  0.0023
   6.3997E-01   6.5554E-01   2.4659E-03  0.0023
   6.5554E-01   6.7149E-01   2.4142E-03  0.0023
   6.7149E-01   6.8783E-01   2.3650E-03  0.0023
   6.8783E-01   7.0456E-01   2.3065E-03  0.0023
   7.0456E-01   7.2171E-01   2.2460E-03  0.0023
   7.2171E-01   7.3927E-01   2.2104E-03  0.0023
   7.3927E-01   7.5725E-01   2.1513E-03  0.0023
   7.5725E-01   7.7568E-01   2.1017E-03  0.0023
   7.7568E-01   7.9455E-01   2.0462E-03  0.0023
   7.9455E-01   8.1388E-01   1.9807E-03  0.0023
   8.1388E-01   8.3368E-01   1.9282E-03  0.0023
   8.3368E-01   8.5397E-01   1.8684E-03  0.0023
   8.5397E-01   8.7475E-01   1.7931E-03  0.0023
   8.7475E-01   8.9603E-01   1.7374E-03  0.0023
   8.9603E-01   9.1783E-01   1.6706E-03  0.0023
   9.1783E-01   9.4016E-01   1.6085E-03  0.0024
   9.4016E-01   9.6304E-01   1.5386E-03  0.0024
   9.6304E-01   9.8647E-01   1.4834E-03  0.0024
   9.8647E-01   1.0105E+00   1.4252E-03  0.0024
   1.0105E+00   1.0351E+00   1.4194E-03  0.0024
   1.0351E+00   1.0602E+00   1.4238E-03  0.0024
   1.0602E+00   1.0860E+00   1.4343E-03  0.0023
   1.0860E+00   1.1125E+00   1.4523E-03  0.0023
   1.1125E+00   1.1395E+00   1.4608E-03  0.0022
   1.1395E+00   1.1673E+00   1.4869E-03  0.0022
   1.1673E+00   1.1957E+00   1.5165E-03  0.0022
   1.1957E+00   1.2247E+00   1.5379E-03  0.0021
   1.2247E+00   1.2545E+00   1.5296E-03  0.0021
   1.2545E+00   1.2851E+00   1.5305E-03  0.0021
   1.2851E+00   1.3163E+00   1.5433E-03  0.0020
   1.3163E+00   1.3484E+00   1.5437E-03  0.0020
   1.3484E+00   1.3812E+00   1.5566E-03  0.0020
   1.3812E+00   1.4148E+00   1.5770E-03  0.0019
   1.4148E+00   1.4492E+00   1.5614E-03  0.0019
   1.4492E+00   1.4845E+00   1.5434E-03  0.0019
   1.4845E+00   1.5206E+00   1.5270E-03  0.0019
   1.5206E+00   1.5576E+00   1.5181E-03  0.0019
   1.5576E+00   1.5955E+00   1.5045E-03  0.0019
   1.5955E+00   1.6343E+00   1.5030E-03  0.0019
   1.6343E+00   1.6741E+00   1.5037E-03  0.0018
   1.6741E+00   1.7148E+00   1.5084E-03  0.0018
   1.7148E+00   1.7565E+00   1.4866E-03  0.0018
   1.7565E+00   1.7992E+00   1.4689E-03  0.0018
   1.7992E+00   1.8430E+00   1.4376E-03  0.0018
   1.8430E+00   1.8879E+00   1.4149E-03  0.0018
   1.8879E+00   1.9338E+00   1.4004E-03  0.0018
   1.9338E+00   1.9808E+00   1.3924E-03  0.0017
   1.9808E+00   2.0290E+00   1.3825E-03  0.0017
   2.0290E+00   2.0784E+00   1.3522E-03  0.0017
   2.0784E+00   2.1290E+00   1.3184E-03  0.0017
   2.1290E+00   2.1808E+00   1.2827E-03  0.0017
   2.1808E+00   2.2338E+00   1.2522E-03  0.0017
   2.2338E+00   2.2882E+00   1.2237E-03  0.0017
   2.2882E+00   2.3439E+00   1.1957E-03  0.0017
   2.3439E+00   2.4009E+00   1.1837E-03  0.0017
   2.4009E+00   2.4593E+00   1.1556E-03  0.0017
   2.4593E+00   2.5191E+00   1.1189E-03  0.0017
   2.5191E+00   2.5804E+00   1.0829E-03  0.0017
   2.5804E+00   2.6432E+00   1.0477E-03  0.0017
   2.6432E+00   2.7075E+00   1.0072E-03  0.0018
   2.7075E+00   2.7734E+00   9.7444E-04  0.0018
   2.7734E+00   2.8409E+00   9.3948E-04  0.0018
   2.8409E+00   2.9100E+00   9.1281E-04  0.0018
   2.9100E+00   2.9808E+00   8.8609E-04  0.0018
   2.9808E+00   3.0533E+00   8.5185E-04  0.0018
   3.0533E+00   3.1276E+00   8.1547E-04  0.0018
   3.1276E+00   3.2037E+00   7.7796E-04  0.0018
   3.2037E+00   3.2817E+00   7.4375E-04  0.0019
   3.2817E+00   3.3615E+00   7.0805E-04  0.0019
   3.3615E+00   3.4433E+00   6.7470E-04  0.0019
   3.4433E+00   3.5271E+00   6.4027E-04  0.0019
   3.5271E+00   3.6129E+00   6.0938E-04  0.0020
   3.6129E+00   3.7008E+00   5.8153E-04  0.0020
   3.7008E+00   3.7908E+00   5.5252E-04  0.0020
   3.7908E+00   3.8831E+00   5.1933E-04  0.0020
   3.8831E+00   3.9776E+00   4.9146E-04  0.0021
   3.9776E+00   4.0743E+00   4.6671E-04  0.0021
   4.0743E+00   4.1735E+00   4.4037E-04  0.0021
   4.1735E+00   4.2750E+00   4.1242E-04  0.0022
   4.2750E+00   4.3790E+00   3.8584E-04  0.0022
   4.3790E+00   4.4856E+00   3.6131E-04  0.0023
   4.4856E+00   4.5947E+00   3.3787E-04  0.0023
   4.5947E+00   4.7065E+00   3.1448E-04  0.0024
   4.7065E+00   4.8210E+00   2.9528E-04  0.0024
   4.8210E+00   4.9383E+00   2.7410E-04  0.0025
   4.9383E+00   5.0585E+00   2.5588E-04  0.0026
   5.0585E+00   5.1815E+00   2.3927E-04  0.0026
   5.1815E+00   5.3076E+00   2.2156E-04  0.0027
   5.3076E+00   5.4368E+00   2.0337E-04  0.0028
   5.4368E+00   5.5690E+00   1.8937E-04  0.0028
   5.5690E+00   5.7045E+00   1.7495E-04  0.0029
   5.7045E+00   5.8433E+00   1.6180E-04  0.0030
   5.8433E+00   5.9855E+00   1.4866E-04  0.0031
   5.9855E+00   6.1311E+00   1.3794E-04  0.0032
   6.1311E+00   6.2803E+00   1.2626E-04  0.0033
   6.2803E+00   6.4331E+00   1.1705E-04  0.0033
   6.4331E+00   6.5896E+00   1.0774E-04  0.0034
   6.5896E+00   6.7500E+00   9.8874E-05  0.0036
   6.7500E+00   6.9142E+00   9.0272E-05  0.0037
   6.9142E+00   7.0824E+00   8.3273E-05  0.0038
   7.0824E+00   7.2548E+00   7.6132E-05  0.0039
   7.2548E+00   7.4313E+00   7.0181E-05  0.0040
   7.4313E+00   7.6121E+00   6.3834E-05  0.0042
   7.6121E+00   7.7973E+00   5.9337E-05  0.0043
   7.7973E+00   7.9870E+00   5.4075E-05  0.0044
   7.9870E+00   8.1813E+00   4.9679E-05  0.0045
   8.1813E+00   8.3804E+00   4.5922E-05  0.0047
   8.3804E+00   8.5843E+00   4.2064E-05  0.0048
   8.5843E+00   8.7931E+00   3.8156E-05  0.0050
   8.7931E+00   9.0071E+00   3.5093E-05  0.0052
   9.0071E+00   9.2262E+00   3.2293E-05  0.0053
   9.2262E+00   9.4507E+00   2.9624E-05  0.0055
   9.4507E+00   9.6807E+00   2.7387E-05  0.0056
   9.6807E+00   9.9162E+00   2.4872E-05  0.0058
   9.9162E+00   1.0157E+01   2.3112E-05  0.0060
   1.0157E+01   1.0405E+01   2.1352E-05  0.0062
   1.0405E+01   1.0658E+01   1.9570E-05  0.0063
   1.0658E+01   1.0917E+01   1.8017E-05  0.0065
   1.0917E+01   1.1183E+01   1.6543E-05  0.0067
   1.1183E+01   1.1455E+01   1.5436E-05  0.0069
   1.1455E+01   1.1733E+01   1.4656E-05  0.0070
   1.1733E+01   1.2019E+01   1.3195E-05  0.0073
   1.2019E+01   1.2311E+01   1.2108E-05  0.0075
   1.2311E+01   1.2611E+01   1.1356E-05  0.0077
   1.2611E+01   1.2918E+01   1.0593E-05  0.0078
   1.2918E+01   1.3232E+01   9.6602E-06  0.0081
   1.3232E+01   1.3554E+01   8.8657E-06  0.0084
   1.3554E+01   1.3884E+01   8.4111E-06  0.0085
   1.3884E+01   1.4222E+01   7.9881E-06  0.0086
   1.4222E+01   1.4568E+01   7.4171E-06  0.0088
   1.4568E+01   1.4922E+01   6.9738E-06  0.0090
   1.4922E+01   1.5285E+01   6.4729E-06  0.0092
   1.5285E+01   1.5657E+01   6.0904E-06  0.0094
   1.5657E+01   1.6038E+01   5.6260E-06  0.0097
   1.6038E+01   1.6428E+01   5.3273E-06  0.0098
   1.6428E+01   1.6828E+01   4.9916E-06  0.0100
   1.6828E+01   1.7237E+01   4.6520E-06  0.0102
   1.7237E+01   1.7657E+01   4.3484E-06  0.0105
   1.7657E+01   1.8086E+01   4.0414E-06  0.0107
   1.8086E+01   1.8526E+01   3.7779E-06  0.0110
   1.8526E+01   1.8977E+01   3.6063E-06  0.0111
   1.8977E+01   1.9439E+01   3.4436E-06  0.0112
   1.9439E+01   1.9912E+01   3.2066E-06  0.0115
   1.9912E+01   2.0396E+01   2.9760E-06  0.0118
   2.0396E+01   2.0893E+01   2.7828E-06  0.0120
   2.0893E+01   2.1401E+01   2.5991E-06  0.0123
   2.1401E+01   2.1922E+01   2.3902E-06  0.0127
   2.1922E+01   2.2455E+01   2.2048E-06  0.0130
   2.2455E+01   2.3001E+01   2.1331E-06  0.0131
   2.3001E+01   2.3561E+01   1.9559E-06  0.0135
   2.3561E+01   2.4134E+01   1.7898E-06  0.0140
   2.4134E+01   2.4721E+01   1.7217E-06  0.0141
   2.4721E+01   2.5323E+01   1.5565E-06  0.0146
   2.5323E+01   2.5939E+01   1.4484E-06  0.0150
   2.5939E+01   2.6570E+01   1.2714E-06  0.0158
   2.6570E+01   2.7217E+01   1.1694E-06  0.0163
   2.7217E+01   2.7879E+01   1.0803E-06  0.0167
   2.7879E+01   2.8557E+01   1.0155E-06  0.0170
   2.8557E+01   2.9252E+01   8.8167E-07  0.0181
   2.9252E+01   2.9964E+01   8.2785E-07  0.0184
   2.9964E+01   3.0693E+01   7.2287E-07  0.0195
   3.0693E+01   3.1440E+01   6.5401E-07  0.0202
   3.1440E+01   3.2205E+01   5.9037E-07  0.0210
   3.2205E+01   3.2988E+01   5.3780E-07  0.0218
   3.2988E+01   3.3791E+01   4.5999E-07  0.0233
   3.3791E+01   3.4613E+01   4.0722E-07  0.0244
   3.4613E+01   3.5455E+01   3.7333E-07  0.0252
   3.5455E+01   3.6318E+01   3.1554E-07  0.0271
   3.6318E+01   3.7201E+01   2.8564E-07  0.0281
   3.7201E+01   3.8106E+01   2.7090E-07  0.0286
   3.8106E+01   3.9034E+01   2.2413E-07  0.0310
   3.9034E+01   3.9983E+01   1.9627E-07  0.0328
   3.9983E+01   4.0956E+01   1.6221E-07  0.0356
   4.0956E+01   4.1953E+01   1.4270E-07  0.0375
   4.1953E+01   4.2973E+01   1.2344E-07  0.0398
   4.2973E+01   4.4019E+01   1.0329E-07  0.0430
   4.4019E+01   4.5090E+01   9.2809E-08  0.0449
   4.5090E+01   4.6187E+01   8.2948E-08  0.0469
   4.6187E+01   4.7311E+01   7.2435E-08  0.0496
   4.7311E+01   4.8462E+01   5.6641E-08  0.0554
   4.8462E+01   4.9641E+01   4.9529E-08  0.0585
   4.9641E+01   5.0849E+01   4.1894E-08  0.0629
   5.0849E+01   5.2086E+01   3.5888E-08  0.0671
   5.2086E+01   5.3353E+01   3.2195E-08  0.0700
   5.3353E+01   5.4651E+01   2.5267E-08  0.0781
   5.4651E+01   5.5981E+01   1.9703E-08  0.0874
   5.5981E+01   5.7343E+01   1.9235E-08  0.0874
   5.7343E+01   5.8738E+01   1.6628E-08  0.0928
   5.8738E+01   6.0168E+01   1.3435E-08  0.1021
   6.0168E+01   6.1632E+01   9.1535E-09  0.1222
   6.1632E+01   6.3131E+01   6.8021E-09  0.1400
   6.3131E+01   6.4667E+01   6.3801E-09  0.1429
   6.4667E+01   6.6240E+01   3.0507E-09  0.2041
   6.6240E+01   6.7852E+01   1.3650E-09  0.3015
   6.7852E+01   6.9503E+01   1.2115E-10  1.0000
   6.9503E+01   7.1194E+01   0.0000E+00  0.0000
   7.1194E+01   7.2926E+01   0.0000E+00  0.0000
   7.2926E+01   7.4701E+01   0.0000E+00  0.0000
   7.4701E+01   7.6518E+01   0.0000E+00  0.0000
   7.6518E+01   7.8380E+01   0.0000E+00  0.0000
   7.8380E+01   8.0287E+01   0.0000E+00  0.0000
   8.0287E+01   8.2240E+01   0.0000E+00  0.0000
   8.2240E+01   8.4241E+01   0.0000E+00  0.0000
   8.4241E+01   8.6291E+01   0.0000E+00  0.0000
   8.6291E+01   8.8391E+01   0.0000E+00  0.0000
   8.8391E+01   9.0541E+01   0.0000E+00  0.0000
   9.0541E+01   9.2744E+01   0.0000E+00  0.0000
   9.2744E+01   9.5001E+01   0.0000E+00  0.0000
   9.5001E+01   9.7312E+01   0.0000E+00  0.0000
   9.7312E+01   9.9680E+01   0.0000E+00  0.0000
   9.9680E+01   1.0211E+02   0.0000E+00  0.0000
   1.0211E+02   1.0459E+02   0.0000E+00  0.0000
   1.0459E+02   1.0713E+02   0.0000E+00  0.0000
   1.0713E+02   1.0974E+02   0.0000E+00  0.0000
   1.0974E+02   1.1241E+02   0.0000E+00  0.0000
   1.1241E+02   1.1515E+02   0.0000E+00  0.0000
   1.1515E+02   1.1795E+02   0.0000E+00  0.0000
   1.1795E+02   1.2082E+02   0.0000E+00  0.0000
   1.2082E+02   1.2376E+02   0.0000E+00  0.0000
   1.2376E+02   1.2677E+02   0.0000E+00  0.0000
   1.2677E+02   1.2985E+02   0.0000E+00  0.0000
   1.2985E+02   1.3301E+02   0.0000E+00  0.0000
   1.3301E+02   1.3625E+02   0.0000E+00  0.0000
   1.3625E+02   1.3956E+02   0.0000E+00  0.0000
   1.3956E+02   1.4296E+02   0.0000E+00  0.0000
   1.4296E+02   1.4644E+02   0.0000E+00  0.0000
   1.4644E+02   1.5000E+02   0.0000E+00  0.0000

#   sum over                 4.5475E-05
'no. =    1   reg = 118 - 218'
msuc: {\huge [t-cross] in region mesh}
msdr: {\it plotted by \ANGEL \version}
msdl: {\it calculated by \PHITS  3.26}
wt: s(0.7)
\vspace{-3}
  region surface crossing
  area  &=&   1.0000E+00 [cm^2]
e:
 
# Information for Restart Calculation
# This calculation was newly started
# istdev =  2 # 1:Batch variance, 2:History variance
# resc2  = 5.00000000000000000E+09 # Total source weight or Total source weight / maxcas
# resc3  = 5.00000000000000000E+09 # Total history number or Total batch number
# maxcas =   500000000 # History / Batch, only used for istdev=1
# bitrseed = 0110100000100010111000001110001111001110100100011111101000111001 # bit data of rseed
