[ T-Cross ]
    title = [t-cross] in region mesh
     mesh =  reg            # mesh type is region-wise
      reg =    1            # number of crossing regions
      non     r-from    r-to       area
      1       104       204        1.000000    
   e-type =    3            # e-mesh is log given by emin, emax and ne
     emin =  1.0000000E-02  # minimum value of e-mesh points
     emax =   150.0000      # maximum value of e-mesh points
#    edel =  2.4039514E-02  # mesh width of e-mesh points
       ne =    400          # number of e-mesh points
#    data = ( e(i), i = 1, ne + 1 )
#           1.00000E-02  1.02433E-02  1.04925E-02  1.07478E-02  1.10093E-02
#           1.12772E-02  1.15516E-02  1.18326E-02  1.21205E-02  1.24154E-02
#           1.27175E-02  1.30269E-02  1.33439E-02  1.36686E-02  1.40011E-02
#           1.43418E-02  1.46907E-02  1.50482E-02  1.54143E-02  1.57894E-02
#           1.61735E-02  1.65670E-02  1.69701E-02  1.73830E-02  1.78060E-02
#           1.82392E-02  1.86830E-02  1.91375E-02  1.96032E-02  2.00801E-02
#           2.05687E-02  2.10692E-02  2.15818E-02  2.21069E-02  2.26448E-02
#           2.31957E-02  2.37601E-02  2.43382E-02  2.49304E-02  2.55369E-02
#           2.61583E-02  2.67947E-02  2.74467E-02  2.81145E-02  2.87985E-02
#           2.94992E-02  3.02169E-02  3.09521E-02  3.17052E-02  3.24766E-02
#           3.32668E-02  3.40762E-02  3.49053E-02  3.57546E-02  3.66246E-02
#           3.75157E-02  3.84284E-02  3.93634E-02  4.03212E-02  4.13022E-02
#           4.23071E-02  4.33365E-02  4.43909E-02  4.54710E-02  4.65773E-02
#           4.77106E-02  4.88714E-02  5.00605E-02  5.12785E-02  5.25262E-02
#           5.38042E-02  5.51133E-02  5.64542E-02  5.78278E-02  5.92348E-02
#           6.06760E-02  6.21523E-02  6.36645E-02  6.52135E-02  6.68002E-02
#           6.84255E-02  7.00904E-02  7.17957E-02  7.35426E-02  7.53319E-02
#           7.71648E-02  7.90423E-02  8.09655E-02  8.29354E-02  8.49533E-02
#           8.70203E-02  8.91376E-02  9.13064E-02  9.35279E-02  9.58035E-02
#           9.81345E-02  1.00522E-01  1.02968E-01  1.05473E-01  1.08040E-01
#           1.10668E-01  1.13361E-01  1.16119E-01  1.18944E-01  1.21838E-01
#           1.24803E-01  1.27839E-01  1.30950E-01  1.34136E-01  1.37399E-01
#           1.40742E-01  1.44167E-01  1.47675E-01  1.51268E-01  1.54948E-01
#           1.58718E-01  1.62580E-01  1.66535E-01  1.70587E-01  1.74738E-01
#           1.78989E-01  1.83344E-01  1.87805E-01  1.92375E-01  1.97055E-01
#           2.01850E-01  2.06761E-01  2.11792E-01  2.16945E-01  2.22223E-01
#           2.27630E-01  2.33169E-01  2.38842E-01  2.44653E-01  2.50605E-01
#           2.56703E-01  2.62949E-01  2.69346E-01  2.75900E-01  2.82613E-01
#           2.89489E-01  2.96532E-01  3.03747E-01  3.11138E-01  3.18708E-01
#           3.26462E-01  3.34405E-01  3.42542E-01  3.50876E-01  3.59413E-01
#           3.68158E-01  3.77116E-01  3.86291E-01  3.95690E-01  4.05317E-01
#           4.15179E-01  4.25281E-01  4.35628E-01  4.46227E-01  4.57084E-01
#           4.68205E-01  4.79597E-01  4.91266E-01  5.03219E-01  5.15463E-01
#           5.28005E-01  5.40851E-01  5.54011E-01  5.67490E-01  5.81298E-01
#           5.95441E-01  6.09929E-01  6.24769E-01  6.39970E-01  6.55541E-01
#           6.71491E-01  6.87828E-01  7.04564E-01  7.21706E-01  7.39266E-01
#           7.57253E-01  7.75678E-01  7.94551E-01  8.13883E-01  8.33685E-01
#           8.53969E-01  8.74747E-01  8.96030E-01  9.17831E-01  9.40163E-01
#           9.63038E-01  9.86469E-01  1.01047E+00  1.03506E+00  1.06024E+00
#           1.08604E+00  1.11246E+00  1.13953E+00  1.16725E+00  1.19565E+00
#           1.22474E+00  1.25454E+00  1.28507E+00  1.31633E+00  1.34836E+00
#           1.38117E+00  1.41477E+00  1.44920E+00  1.48446E+00  1.52057E+00
#           1.55757E+00  1.59547E+00  1.63429E+00  1.67405E+00  1.71478E+00
#           1.75650E+00  1.79924E+00  1.84302E+00  1.88786E+00  1.93379E+00
#           1.98084E+00  2.02904E+00  2.07841E+00  2.12898E+00  2.18078E+00
#           2.23384E+00  2.28819E+00  2.34386E+00  2.40089E+00  2.45930E+00
#           2.51914E+00  2.58043E+00  2.64322E+00  2.70753E+00  2.77341E+00
#           2.84088E+00  2.91001E+00  2.98081E+00  3.05333E+00  3.12762E+00
#           3.20372E+00  3.28167E+00  3.36152E+00  3.44330E+00  3.52708E+00
#           3.61290E+00  3.70080E+00  3.79085E+00  3.88308E+00  3.97756E+00
#           4.07434E+00  4.17347E+00  4.27501E+00  4.37903E+00  4.48557E+00
#           4.59471E+00  4.70650E+00  4.82102E+00  4.93832E+00  5.05847E+00
#           5.18155E+00  5.30762E+00  5.43676E+00  5.56904E+00  5.70453E+00
#           5.84333E+00  5.98550E+00  6.13114E+00  6.28031E+00  6.43312E+00
#           6.58964E+00  6.74997E+00  6.91420E+00  7.08243E+00  7.25475E+00
#           7.43126E+00  7.61207E+00  7.79728E+00  7.98700E+00  8.18133E+00
#           8.38038E+00  8.58428E+00  8.79315E+00  9.00709E+00  9.22624E+00
#           9.45072E+00  9.68067E+00  9.91620E+00  1.01575E+01  1.04046E+01
#           1.06578E+01  1.09171E+01  1.11827E+01  1.14548E+01  1.17335E+01
#           1.20190E+01  1.23114E+01  1.26109E+01  1.29178E+01  1.32321E+01
#           1.35540E+01  1.38838E+01  1.42216E+01  1.45676E+01  1.49221E+01
#           1.52851E+01  1.56570E+01  1.60380E+01  1.64282E+01  1.68279E+01
#           1.72374E+01  1.76568E+01  1.80864E+01  1.85264E+01  1.89772E+01
#           1.94389E+01  1.99119E+01  2.03963E+01  2.08926E+01  2.14009E+01
#           2.19216E+01  2.24550E+01  2.30014E+01  2.35610E+01  2.41343E+01
#           2.47215E+01  2.53230E+01  2.59391E+01  2.65702E+01  2.72167E+01
#           2.78789E+01  2.85572E+01  2.92520E+01  2.99637E+01  3.06928E+01
#           3.14396E+01  3.22045E+01  3.29881E+01  3.37907E+01  3.46128E+01
#           3.54550E+01  3.63177E+01  3.72013E+01  3.81064E+01  3.90336E+01
#           3.99833E+01  4.09561E+01  4.19526E+01  4.29734E+01  4.40189E+01
#           4.50900E+01  4.61870E+01  4.73108E+01  4.84619E+01  4.96410E+01
#           5.08488E+01  5.20860E+01  5.33533E+01  5.46514E+01  5.59812E+01
#           5.73432E+01  5.87384E+01  6.01676E+01  6.16315E+01  6.31311E+01
#           6.46671E+01  6.62405E+01  6.78522E+01  6.95031E+01  7.11941E+01
#           7.29263E+01  7.47007E+01  7.65182E+01  7.83800E+01  8.02870E+01
#           8.22405E+01  8.42414E+01  8.62911E+01  8.83906E+01  9.05412E+01
#           9.27442E+01  9.50007E+01  9.73122E+01  9.96799E+01  1.02105E+02
#           1.04589E+02  1.07134E+02  1.09741E+02  1.12411E+02  1.15146E+02
#           1.17948E+02  1.20817E+02  1.23757E+02  1.26768E+02  1.29852E+02
#           1.33012E+02  1.36248E+02  1.39563E+02  1.42959E+02  1.46437E+02
#           1.50000E+02
     unit =    2            # unit is [1/cm^2/(MeV/n)/source]
     axis =  eng            # axis of output
     file = detector-05.out  # file name of output for the above axis
   output = f-curr          # surface crossing forward current spectrum
     part =  neutron  
# kf/name :  2112     
#    used :        main (  %)        temp (  %)       total (  %)
#  memory :         414 (  0)           0 (  0)         414 (  0)

#------------------------------------------------------------------------------
#newpage:
#   no. =    1   reg = 104 - 204

x: Energy [MeV/n]
y:  F-Curr [1/cm^2/(MeV/n)/source]         
p: xlog ylog afac(0.8) form(0.9)
h: n            x            y(neutron ),hh0l   n 
#  e-lower      e-upper      neutron     r.err 
   1.0000E-02   1.0243E-02   1.0275E-04  0.2000
   1.0243E-02   1.0493E-02   6.8211E-05  0.2425
   1.0493E-02   1.0748E-02   1.2731E-04  0.1747
   1.0748E-02   1.1009E-02   6.5540E-05  0.2407
   1.1009E-02   1.1277E-02   8.2131E-05  0.2132
   1.1277E-02   1.1552E-02   8.3824E-05  0.2085
   1.1552E-02   1.1833E-02   5.6928E-05  0.2500
   1.1833E-02   1.2121E-02   9.0310E-05  0.1961
   1.2121E-02   1.2415E-02   5.4255E-05  0.2500
   1.2415E-02   1.2718E-02   1.1586E-04  0.1690
   1.2718E-02   1.3027E-02   5.8172E-05  0.2357
   1.3027E-02   1.3344E-02   5.9945E-05  0.2294
   1.3344E-02   1.3669E-02   5.5441E-05  0.2357
   1.3669E-02   1.4001E-02   4.8111E-05  0.2500
   1.4001E-02   1.4342E-02   4.8436E-05  0.2443
   1.4342E-02   1.4691E-02   4.0121E-05  0.2673
   1.4691E-02   1.5048E-02   6.1549E-05  0.2132
   1.5048E-02   1.5414E-02   6.0087E-05  0.2132
   1.5414E-02   1.5789E-02   5.5994E-05  0.2182
   1.5789E-02   1.6174E-02   7.8091E-05  0.1826
   1.6174E-02   1.6567E-02   3.0494E-05  0.2887
   1.6567E-02   1.6970E-02   5.7059E-05  0.2085
   1.6970E-02   1.7383E-02   3.6329E-05  0.2582
   1.7383E-02   1.7806E-02   5.9110E-05  0.2000
   1.7806E-02   1.8239E-02   5.0781E-05  0.2132
   1.8239E-02   1.8683E-02   4.7321E-05  0.2182
   1.8683E-02   1.9138E-02   3.5198E-05  0.2500
   1.9138E-02   1.9603E-02   5.3691E-05  0.2000
   1.9603E-02   2.0080E-02   5.4512E-05  0.1961
   2.0080E-02   2.0569E-02   4.2983E-05  0.2182
   2.0569E-02   2.1069E-02   4.1962E-05  0.2182
   2.1069E-02   2.1582E-02   2.9261E-05  0.2582
   2.1582E-02   2.2107E-02   3.0470E-05  0.2461
   2.2107E-02   2.2645E-02   5.2056E-05  0.1890
   2.2645E-02   2.3196E-02   3.4485E-05  0.2294
   2.3196E-02   2.3760E-02   5.5169E-05  0.1789
   2.3760E-02   2.4338E-02   3.8056E-05  0.2132
   2.4338E-02   2.4930E-02   4.0529E-05  0.2041
   2.4930E-02   2.5537E-02   3.9566E-05  0.2041
   2.5537E-02   2.6158E-02   3.4032E-05  0.2168
   2.6158E-02   2.6795E-02   4.5565E-05  0.1857
   2.6795E-02   2.7447E-02   3.5279E-05  0.2085
   2.7447E-02   2.8114E-02   3.7436E-05  0.2000
   2.8114E-02   2.8799E-02   3.2162E-05  0.2132
   2.8799E-02   2.9499E-02   3.1398E-05  0.2132
   2.9499E-02   3.0217E-02   3.3676E-05  0.2028
   3.0217E-02   3.0952E-02   3.8085E-05  0.1890
   3.0952E-02   3.1705E-02   3.9354E-05  0.1825
   3.1705E-02   3.2477E-02   3.6678E-05  0.1872
   3.2477E-02   3.3267E-02   4.1763E-05  0.1741
   3.3267E-02   3.4076E-02   3.4786E-05  0.1880
   3.4076E-02   3.4905E-02   3.2565E-05  0.1925
   3.4905E-02   3.5755E-02   3.1792E-05  0.1925
   3.5755E-02   3.6625E-02   3.4485E-05  0.1826
   3.6625E-02   3.7516E-02   2.3566E-05  0.2182
   3.7516E-02   3.8428E-02   2.4102E-05  0.2132
   3.8428E-02   3.9363E-02   2.7273E-05  0.1971
   3.9363E-02   4.0321E-02   1.8794E-05  0.2357
   4.0321E-02   4.1302E-02   1.6464E-05  0.2478
   4.1302E-02   4.2307E-02   2.6868E-05  0.1925
   4.2307E-02   4.3337E-02   3.4973E-05  0.1667
   4.3337E-02   4.4391E-02   2.5607E-05  0.1925
   4.4391E-02   4.5471E-02   2.0832E-05  0.2096
   4.5471E-02   4.6577E-02   1.5366E-05  0.2425
   4.6577E-02   4.7711E-02   1.3358E-05  0.2560
   4.7711E-02   4.8871E-02   2.4380E-05  0.1871
   4.8871E-02   5.0061E-02   1.6820E-05  0.2236
   5.0061E-02   5.1279E-02   1.6010E-05  0.2250
   5.1279E-02   5.2526E-02   2.0438E-05  0.1971
   5.2526E-02   5.3804E-02   1.7997E-05  0.2085
   5.3804E-02   5.5113E-02   1.7951E-05  0.2052
   5.5113E-02   5.6454E-02   1.9389E-05  0.1961
   5.6454E-02   5.7828E-02   2.0500E-05  0.1880
   5.7828E-02   5.9235E-02   1.7160E-05  0.2030
   5.9235E-02   6.0676E-02   1.6066E-05  0.2072
   6.0676E-02   6.2152E-02   1.5706E-05  0.2070
   6.2152E-02   6.3665E-02   1.8847E-05  0.1865
   6.3665E-02   6.5214E-02   1.2372E-05  0.2276
   6.5214E-02   6.6800E-02   1.8907E-05  0.1826
   6.6800E-02   6.8426E-02   1.4151E-05  0.2085
   6.8426E-02   7.0090E-02   1.5016E-05  0.2000
   7.0090E-02   7.1796E-02   1.4660E-05  0.2000
   7.1796E-02   7.3543E-02   1.4311E-05  0.2000
   7.3543E-02   7.5332E-02   1.8163E-05  0.1747
   7.5332E-02   7.7165E-02   1.1185E-05  0.2195
   7.7165E-02   7.9042E-02   1.3412E-05  0.1987
   7.9042E-02   8.0965E-02   9.4451E-06  0.2337
   8.0965E-02   8.2935E-02   9.3911E-06  0.2309
   8.2935E-02   8.4953E-02   1.1398E-05  0.2085
   8.4953E-02   8.7020E-02   1.2095E-05  0.2000
   8.7020E-02   8.9138E-02   1.0452E-05  0.2120
   8.9138E-02   9.1306E-02   9.3769E-06  0.2202
   9.1306E-02   9.3528E-02   9.0027E-06  0.2236
   9.3528E-02   9.5804E-02   6.1522E-06  0.2673
   9.5804E-02   9.8134E-02   7.9366E-06  0.2309
   9.8134E-02   1.0052E-01   7.5387E-06  0.2357
   1.0052E-01   1.0297E-01   9.8758E-06  0.2008
   1.0297E-01   1.0547E-01   1.2101E-05  0.1808
   1.0547E-01   1.0804E-01   1.1301E-05  0.1857
   1.0804E-01   1.1067E-01   8.3692E-06  0.2132
   1.1067E-01   1.1336E-01   1.0027E-05  0.1925
   1.1336E-01   1.1612E-01   8.0430E-06  0.2116
   1.1612E-01   1.1894E-01   7.9638E-06  0.2096
   1.1894E-01   1.2184E-01   1.0066E-05  0.1849
   1.2184E-01   1.2480E-01   1.0457E-05  0.1796
   1.2480E-01   1.2784E-01   8.2330E-06  0.1980
   1.2784E-01   1.3095E-01   6.1085E-06  0.2294
   1.3095E-01   1.3414E-01   7.5327E-06  0.2041
   1.3414E-01   1.3740E-01   4.9025E-06  0.2461
   1.3740E-01   1.4074E-01   6.2817E-06  0.2182
   1.4074E-01   1.4417E-01   7.0086E-06  0.2020
   1.4417E-01   1.4767E-01   8.2675E-06  0.1857
   1.4767E-01   1.5127E-01   8.3495E-06  0.1826
   1.5127E-01   1.5495E-01   1.0053E-05  0.1644
   1.5495E-01   1.5872E-01   7.1618E-06  0.1925
   1.5872E-01   1.6258E-01   6.9917E-06  0.1925
   1.6258E-01   1.6654E-01   7.8368E-06  0.1796
   1.6654E-01   1.7059E-01   8.4625E-06  0.1702
   1.7059E-01   1.7474E-01   5.7824E-06  0.2020
   1.7474E-01   1.7899E-01   5.0570E-06  0.2144
   1.7899E-01   1.8334E-01   7.4107E-06  0.1754
   1.8334E-01   1.8781E-01   4.5214E-06  0.2219
   1.8781E-01   1.9237E-01   6.3465E-06  0.1857
   1.9237E-01   1.9706E-01   4.8070E-06  0.2096
   1.9706E-01   2.0185E-01   7.5458E-06  0.1659
   2.0185E-01   2.0676E-01   4.1742E-06  0.2195
   2.0676E-01   2.1179E-01   5.9634E-06  0.1826
   2.1179E-01   2.1694E-01   6.3362E-06  0.1740
   2.1694E-01   2.2222E-01   5.2491E-06  0.1886
   2.2222E-01   2.2763E-01   6.4732E-06  0.1690
   2.2763E-01   2.3317E-01   7.1320E-06  0.1586
   2.3317E-01   2.3884E-01   8.6371E-06  0.1421
   2.3884E-01   2.4465E-01   8.9482E-06  0.1387
   2.4465E-01   2.5061E-01   7.1718E-06  0.1523
   2.5061E-01   2.5670E-01   6.3141E-06  0.1606
   2.5670E-01   2.6295E-01   6.5644E-06  0.1562
   2.6295E-01   2.6935E-01   8.7752E-06  0.1333
   2.6935E-01   2.7590E-01   7.6539E-06  0.1403
   2.7590E-01   2.8261E-01   9.6832E-06  0.1234
   2.8261E-01   2.8949E-01   7.0778E-06  0.1425
   2.8949E-01   2.9653E-01   9.7963E-06  0.1204
   2.9653E-01   3.0375E-01   9.8408E-06  0.1183
   3.0375E-01   3.1114E-01   9.2865E-06  0.1204
   3.1114E-01   3.1871E-01   1.0171E-05  0.1140
   3.1871E-01   3.2646E-01   1.0252E-05  0.1120
   3.2646E-01   3.3441E-01   1.1104E-05  0.1064
   3.3441E-01   3.4254E-01   1.1017E-05  0.1054
   3.4254E-01   3.5088E-01   1.1955E-05  0.0997
   3.5088E-01   3.5941E-01   1.2241E-05  0.0977
   3.5941E-01   3.6816E-01   1.0972E-05  0.1018
   3.6816E-01   3.7712E-01   1.1238E-05  0.0995
   3.7712E-01   3.8629E-01   9.5362E-06  0.1068
   3.8629E-01   3.9569E-01   1.2994E-05  0.0904
   3.9569E-01   4.0532E-01   1.2133E-05  0.0923
   4.0532E-01   4.1518E-01   1.2652E-05  0.0894
   4.1518E-01   4.2528E-01   1.3711E-05  0.0849
   4.2528E-01   4.3563E-01   1.1133E-05  0.0931
   4.3563E-01   4.4623E-01   1.4435E-05  0.0805
   4.4623E-01   4.5708E-01   1.3632E-05  0.0821
   4.5708E-01   4.6821E-01   1.3783E-05  0.0806
   4.6821E-01   4.7960E-01   1.2492E-05  0.0836
   4.7960E-01   4.9127E-01   1.3337E-05  0.0801
   4.9127E-01   5.0322E-01   1.3731E-05  0.0779
   5.0322E-01   5.1546E-01   1.4793E-05  0.0743
   5.1546E-01   5.2800E-01   1.4456E-05  0.0741
   5.2800E-01   5.4085E-01   1.3518E-05  0.0755
   5.4085E-01   5.5401E-01   1.4602E-05  0.0720
   5.5401E-01   5.6749E-01   1.4628E-05  0.0710
   5.6749E-01   5.8130E-01   1.3863E-05  0.0721
   5.8130E-01   5.9544E-01   1.4989E-05  0.0686
   5.9544E-01   6.0993E-01   1.4930E-05  0.0679
   6.0993E-01   6.2477E-01   1.5974E-05  0.0647
   6.2477E-01   6.3997E-01   1.6572E-05  0.0628
   6.3997E-01   6.5554E-01   1.3964E-05  0.0678
   6.5554E-01   6.7149E-01   1.6632E-05  0.0613
   6.7149E-01   6.8783E-01   1.3840E-05  0.0664
   6.8783E-01   7.0456E-01   1.6769E-05  0.0596
   7.0456E-01   7.2171E-01   1.5474E-05  0.0612
   7.2171E-01   7.3927E-01   1.5261E-05  0.0610
   7.3927E-01   7.5725E-01   1.6514E-05  0.0578
   7.5725E-01   7.7568E-01   1.5775E-05  0.0584
   7.7568E-01   7.9455E-01   1.6529E-05  0.0565
   7.9455E-01   8.1388E-01   1.5803E-05  0.0571
   8.1388E-01   8.3368E-01   1.4952E-05  0.0579
   8.3368E-01   8.5397E-01   1.4811E-05  0.0576
   8.5397E-01   8.7475E-01   1.5097E-05  0.0563
   8.7475E-01   8.9603E-01   1.5637E-05  0.0547
   8.9603E-01   9.1783E-01   1.4700E-05  0.0556
   9.1783E-01   9.4016E-01   1.3573E-05  0.0573
   9.4016E-01   9.6304E-01   1.4780E-05  0.0543
   9.6304E-01   9.8647E-01   1.3917E-05  0.0552
   9.8647E-01   1.0105E+00   1.2688E-05  0.0572
   1.0105E+00   1.0351E+00   1.3739E-05  0.0543
   1.0351E+00   1.0602E+00   1.3229E-05  0.0546
   1.0602E+00   1.0860E+00   1.3365E-05  0.0538
   1.0860E+00   1.1125E+00   1.5072E-05  0.0500
   1.1125E+00   1.1395E+00   1.4769E-05  0.0499
   1.1395E+00   1.1673E+00   1.5922E-05  0.0475
   1.1673E+00   1.1957E+00   1.6338E-05  0.0463
   1.1957E+00   1.2247E+00   1.5778E-05  0.0466
   1.2247E+00   1.2545E+00   1.5207E-05  0.0469
   1.2545E+00   1.2851E+00   1.6438E-05  0.0445
   1.2851E+00   1.3163E+00   1.6198E-05  0.0443
   1.3163E+00   1.3484E+00   1.7053E-05  0.0426
   1.3484E+00   1.3812E+00   1.6879E-05  0.0424
   1.3812E+00   1.4148E+00   1.7400E-05  0.0413
   1.4148E+00   1.4492E+00   1.6368E-05  0.0420
   1.4492E+00   1.4845E+00   1.7630E-05  0.0400
   1.4845E+00   1.5206E+00   1.7345E-05  0.0399
   1.5206E+00   1.5576E+00   1.7982E-05  0.0387
   1.5576E+00   1.5955E+00   1.7411E-05  0.0389
   1.5955E+00   1.6343E+00   1.7808E-05  0.0380
   1.6343E+00   1.6741E+00   1.9783E-05  0.0356
   1.6741E+00   1.7148E+00   1.8182E-05  0.0367
   1.7148E+00   1.7565E+00   1.9038E-05  0.0354
   1.7565E+00   1.7992E+00   1.9608E-05  0.0345
   1.7992E+00   1.8430E+00   1.8787E-05  0.0348
   1.8430E+00   1.8879E+00   2.0946E-05  0.0326
   1.8879E+00   1.9338E+00   2.0454E-05  0.0325
   1.9338E+00   1.9808E+00   2.0631E-05  0.0321
   1.9808E+00   2.0290E+00   2.0356E-05  0.0319
   2.0290E+00   2.0784E+00   2.1630E-05  0.0306
   2.0784E+00   2.1290E+00   2.1014E-05  0.0306
   2.1290E+00   2.1808E+00   2.1200E-05  0.0301
   2.1808E+00   2.2338E+00   2.0833E-05  0.0300
   2.2338E+00   2.2882E+00   2.1711E-05  0.0291
   2.2882E+00   2.3439E+00   2.2304E-05  0.0283
   2.3439E+00   2.4009E+00   2.3283E-05  0.0274
   2.4009E+00   2.4593E+00   2.3287E-05  0.0271
   2.4593E+00   2.5191E+00   2.2776E-05  0.0270
   2.5191E+00   2.5804E+00   2.4223E-05  0.0259
   2.5804E+00   2.6432E+00   2.3961E-05  0.0258
   2.6432E+00   2.7075E+00   2.3457E-05  0.0257
   2.7075E+00   2.7734E+00   2.5328E-05  0.0244
   2.7734E+00   2.8409E+00   2.4435E-05  0.0246
   2.8409E+00   2.9100E+00   2.4632E-05  0.0242
   2.9100E+00   2.9808E+00   2.4719E-05  0.0239
   2.9808E+00   3.0533E+00   2.4590E-05  0.0237
   3.0533E+00   3.1276E+00   2.6195E-05  0.0226
   3.1276E+00   3.2037E+00   2.5727E-05  0.0226
   3.2037E+00   3.2817E+00   2.7013E-05  0.0218
   3.2817E+00   3.3615E+00   2.7079E-05  0.0215
   3.3615E+00   3.4433E+00   2.7585E-05  0.0210
   3.4433E+00   3.5271E+00   2.7420E-05  0.0208
   3.5271E+00   3.6129E+00   2.8337E-05  0.0203
   3.6129E+00   3.7008E+00   2.9157E-05  0.0197
   3.7008E+00   3.7908E+00   2.8652E-05  0.0197
   3.7908E+00   3.8831E+00   2.8731E-05  0.0194
   3.8831E+00   3.9776E+00   2.8645E-05  0.0192
   3.9776E+00   4.0743E+00   3.0313E-05  0.0184
   4.0743E+00   4.1735E+00   2.9166E-05  0.0186
   4.1735E+00   4.2750E+00   2.9889E-05  0.0181
   4.2750E+00   4.3790E+00   3.0987E-05  0.0176
   4.3790E+00   4.4856E+00   3.1637E-05  0.0172
   4.4856E+00   4.5947E+00   3.1028E-05  0.0172
   4.5947E+00   4.7065E+00   3.1120E-05  0.0169
   4.7065E+00   4.8210E+00   3.2407E-05  0.0164
   4.8210E+00   4.9383E+00   3.2097E-05  0.0163
   4.9383E+00   5.0585E+00   3.3046E-05  0.0159
   5.0585E+00   5.1815E+00   3.2388E-05  0.0158
   5.1815E+00   5.3076E+00   3.2429E-05  0.0156
   5.3076E+00   5.4368E+00   3.2135E-05  0.0155
   5.4368E+00   5.5690E+00   3.2173E-05  0.0153
   5.5690E+00   5.7045E+00   3.1939E-05  0.0152
   5.7045E+00   5.8433E+00   3.2643E-05  0.0148
   5.8433E+00   5.9855E+00   3.2199E-05  0.0148
   5.9855E+00   6.1311E+00   3.2491E-05  0.0145
   6.1311E+00   6.2803E+00   3.1827E-05  0.0145
   6.2803E+00   6.4331E+00   3.2831E-05  0.0141
   6.4331E+00   6.5896E+00   3.1351E-05  0.0143
   6.5896E+00   6.7500E+00   3.1548E-05  0.0141
   6.7500E+00   6.9142E+00   3.1527E-05  0.0139
   6.9142E+00   7.0824E+00   3.0658E-05  0.0139
   7.0824E+00   7.2548E+00   3.0806E-05  0.0137
   7.2548E+00   7.4313E+00   2.8288E-05  0.0141
   7.4313E+00   7.6121E+00   2.8474E-05  0.0139
   7.6121E+00   7.7973E+00   2.8352E-05  0.0138
   7.7973E+00   7.9870E+00   2.7550E-05  0.0138
   7.9870E+00   8.1813E+00   2.6284E-05  0.0140
   8.1813E+00   8.3804E+00   2.5163E-05  0.0141
   8.3804E+00   8.5843E+00   2.4433E-05  0.0142
   8.5843E+00   8.7931E+00   2.4048E-05  0.0141
   8.7931E+00   9.0071E+00   2.3223E-05  0.0142
   9.0071E+00   9.2262E+00   2.2561E-05  0.0142
   9.2262E+00   9.4507E+00   2.0859E-05  0.0146
   9.4507E+00   9.6807E+00   2.0096E-05  0.0147
   9.6807E+00   9.9162E+00   1.9390E-05  0.0148
   9.9162E+00   1.0157E+01   1.8572E-05  0.0149
   1.0157E+01   1.0405E+01   1.8478E-05  0.0148
   1.0405E+01   1.0658E+01   1.7279E-05  0.0151
   1.0658E+01   1.0917E+01   1.5404E-05  0.0158
   1.0917E+01   1.1183E+01   1.5612E-05  0.0155
   1.1183E+01   1.1455E+01   1.4308E-05  0.0160
   1.1455E+01   1.1733E+01   1.3585E-05  0.0162
   1.1733E+01   1.2019E+01   1.3409E-05  0.0162
   1.2019E+01   1.2311E+01   1.2491E-05  0.0165
   1.2311E+01   1.2611E+01   1.1445E-05  0.0171
   1.2611E+01   1.2918E+01   1.0940E-05  0.0173
   1.2918E+01   1.3232E+01   1.0207E-05  0.0177
   1.3232E+01   1.3554E+01   9.2736E-06  0.0183
   1.3554E+01   1.3884E+01   8.8919E-06  0.0185
   1.3884E+01   1.4222E+01   8.2603E-06  0.0189
   1.4222E+01   1.4568E+01   7.9278E-06  0.0191
   1.4568E+01   1.4922E+01   6.9578E-06  0.0201
   1.4922E+01   1.5285E+01   6.6742E-06  0.0203
   1.5285E+01   1.5657E+01   6.2065E-06  0.0208
   1.5657E+01   1.6038E+01   5.3456E-06  0.0222
   1.6038E+01   1.6428E+01   5.3719E-06  0.0218
   1.6428E+01   1.6828E+01   4.7089E-06  0.0230
   1.6828E+01   1.7237E+01   4.3572E-06  0.0237
   1.7237E+01   1.7657E+01   3.9752E-06  0.0245
   1.7657E+01   1.8086E+01   3.9129E-06  0.0244
   1.8086E+01   1.8526E+01   3.6382E-06  0.0250
   1.8526E+01   1.8977E+01   3.2989E-06  0.0259
   1.8977E+01   1.9439E+01   2.9281E-06  0.0272
   1.9439E+01   1.9912E+01   2.7381E-06  0.0278
   1.9912E+01   2.0396E+01   2.6132E-06  0.0281
   2.0396E+01   2.0893E+01   2.3778E-06  0.0291
   2.0893E+01   2.1401E+01   2.2662E-06  0.0295
   2.1401E+01   2.1922E+01   2.0799E-06  0.0304
   2.1922E+01   2.2455E+01   1.8224E-06  0.0321
   2.2455E+01   2.3001E+01   1.5613E-06  0.0342
   2.3001E+01   2.3561E+01   1.4134E-06  0.0356
   2.3561E+01   2.4134E+01   1.2159E-06  0.0379
   2.4134E+01   2.4721E+01   1.0065E-06  0.0411
   2.4721E+01   2.5323E+01   8.7283E-07  0.0436
   2.5323E+01   2.5939E+01   7.5147E-07  0.0465
   2.5939E+01   2.6570E+01   6.7182E-07  0.0486
   2.6570E+01   2.7217E+01   5.0891E-07  0.0551
   2.7217E+01   2.7879E+01   3.9867E-07  0.0615
   2.7879E+01   2.8557E+01   2.5652E-07  0.0758
   2.8557E+01   2.9252E+01   1.7990E-07  0.0894
   2.9252E+01   2.9964E+01   1.8265E-07  0.0877
   2.9964E+01   3.0693E+01   9.8760E-08  0.1179
   3.0693E+01   3.1440E+01   8.4362E-08  0.1260
   3.1440E+01   3.2205E+01   7.3207E-08  0.1336
   3.2205E+01   3.2988E+01   5.8706E-08  0.1474
   3.2988E+01   3.3791E+01   0.0000E+00  0.0000
   3.3791E+01   3.4613E+01   0.0000E+00  0.0000
   3.4613E+01   3.5455E+01   0.0000E+00  0.0000
   3.5455E+01   3.6318E+01   0.0000E+00  0.0000
   3.6318E+01   3.7201E+01   0.0000E+00  0.0000
   3.7201E+01   3.8106E+01   0.0000E+00  0.0000
   3.8106E+01   3.9034E+01   0.0000E+00  0.0000
   3.9034E+01   3.9983E+01   0.0000E+00  0.0000
   3.9983E+01   4.0956E+01   0.0000E+00  0.0000
   4.0956E+01   4.1953E+01   0.0000E+00  0.0000
   4.1953E+01   4.2973E+01   0.0000E+00  0.0000
   4.2973E+01   4.4019E+01   0.0000E+00  0.0000
   4.4019E+01   4.5090E+01   0.0000E+00  0.0000
   4.5090E+01   4.6187E+01   0.0000E+00  0.0000
   4.6187E+01   4.7311E+01   0.0000E+00  0.0000
   4.7311E+01   4.8462E+01   0.0000E+00  0.0000
   4.8462E+01   4.9641E+01   0.0000E+00  0.0000
   4.9641E+01   5.0849E+01   0.0000E+00  0.0000
   5.0849E+01   5.2086E+01   0.0000E+00  0.0000
   5.2086E+01   5.3353E+01   0.0000E+00  0.0000
   5.3353E+01   5.4651E+01   0.0000E+00  0.0000
   5.4651E+01   5.5981E+01   0.0000E+00  0.0000
   5.5981E+01   5.7343E+01   0.0000E+00  0.0000
   5.7343E+01   5.8738E+01   0.0000E+00  0.0000
   5.8738E+01   6.0168E+01   0.0000E+00  0.0000
   6.0168E+01   6.1632E+01   0.0000E+00  0.0000
   6.1632E+01   6.3131E+01   0.0000E+00  0.0000
   6.3131E+01   6.4667E+01   0.0000E+00  0.0000
   6.4667E+01   6.6240E+01   0.0000E+00  0.0000
   6.6240E+01   6.7852E+01   0.0000E+00  0.0000
   6.7852E+01   6.9503E+01   0.0000E+00  0.0000
   6.9503E+01   7.1194E+01   0.0000E+00  0.0000
   7.1194E+01   7.2926E+01   0.0000E+00  0.0000
   7.2926E+01   7.4701E+01   0.0000E+00  0.0000
   7.4701E+01   7.6518E+01   0.0000E+00  0.0000
   7.6518E+01   7.8380E+01   0.0000E+00  0.0000
   7.8380E+01   8.0287E+01   0.0000E+00  0.0000
   8.0287E+01   8.2240E+01   0.0000E+00  0.0000
   8.2240E+01   8.4241E+01   0.0000E+00  0.0000
   8.4241E+01   8.6291E+01   0.0000E+00  0.0000
   8.6291E+01   8.8391E+01   0.0000E+00  0.0000
   8.8391E+01   9.0541E+01   0.0000E+00  0.0000
   9.0541E+01   9.2744E+01   0.0000E+00  0.0000
   9.2744E+01   9.5001E+01   0.0000E+00  0.0000
   9.5001E+01   9.7312E+01   0.0000E+00  0.0000
   9.7312E+01   9.9680E+01   0.0000E+00  0.0000
   9.9680E+01   1.0211E+02   0.0000E+00  0.0000
   1.0211E+02   1.0459E+02   0.0000E+00  0.0000
   1.0459E+02   1.0713E+02   0.0000E+00  0.0000
   1.0713E+02   1.0974E+02   0.0000E+00  0.0000
   1.0974E+02   1.1241E+02   0.0000E+00  0.0000
   1.1241E+02   1.1515E+02   0.0000E+00  0.0000
   1.1515E+02   1.1795E+02   0.0000E+00  0.0000
   1.1795E+02   1.2082E+02   0.0000E+00  0.0000
   1.2082E+02   1.2376E+02   0.0000E+00  0.0000
   1.2376E+02   1.2677E+02   0.0000E+00  0.0000
   1.2677E+02   1.2985E+02   0.0000E+00  0.0000
   1.2985E+02   1.3301E+02   0.0000E+00  0.0000
   1.3301E+02   1.3625E+02   0.0000E+00  0.0000
   1.3625E+02   1.3956E+02   0.0000E+00  0.0000
   1.3956E+02   1.4296E+02   0.0000E+00  0.0000
   1.4296E+02   1.4644E+02   0.0000E+00  0.0000
   1.4644E+02   1.5000E+02   0.0000E+00  0.0000

#   sum over                 2.2871E-06
'no. =    1   reg = 104 - 204'
msuc: {\huge [t-cross] in region mesh}
msdr: {\it plotted by \ANGEL \version}
msdl: {\it calculated by \PHITS  3.26}
wt: s(0.7)
\vspace{-3}
  region surface crossing
  area  &=&   1.0000E+00 [cm^2]
e:
 
# Information for Restart Calculation
# This calculation was newly started
# istdev =  2 # 1:Batch variance, 2:History variance
# resc2  = 1.00000000000000000E+09 # Total source weight or Total source weight / maxcas
# resc3  = 1.00000000000000000E+09 # Total history number or Total batch number
# maxcas =   500000000 # History / Batch, only used for istdev=1
# bitrseed = 0001001110011001001001110000100100110111001111011100001000101100 # bit data of rseed
