[ T-Cross ]
    title = [t-cross] in region mesh
     mesh =  reg            # mesh type is region-wise
      reg =    1            # number of crossing regions
      non     r-from    r-to       area
      1       117       217        1.000000    
   e-type =    3            # e-mesh is log given by emin, emax and ne
     emin =  1.0000000E-02  # minimum value of e-mesh points
     emax =   150.0000      # maximum value of e-mesh points
#    edel =  2.4039514E-02  # mesh width of e-mesh points
       ne =    400          # number of e-mesh points
#    data = ( e(i), i = 1, ne + 1 )
#           1.00000E-02  1.02433E-02  1.04925E-02  1.07478E-02  1.10093E-02
#           1.12772E-02  1.15516E-02  1.18326E-02  1.21205E-02  1.24154E-02
#           1.27175E-02  1.30269E-02  1.33439E-02  1.36686E-02  1.40011E-02
#           1.43418E-02  1.46907E-02  1.50482E-02  1.54143E-02  1.57894E-02
#           1.61735E-02  1.65670E-02  1.69701E-02  1.73830E-02  1.78060E-02
#           1.82392E-02  1.86830E-02  1.91375E-02  1.96032E-02  2.00801E-02
#           2.05687E-02  2.10692E-02  2.15818E-02  2.21069E-02  2.26448E-02
#           2.31957E-02  2.37601E-02  2.43382E-02  2.49304E-02  2.55369E-02
#           2.61583E-02  2.67947E-02  2.74467E-02  2.81145E-02  2.87985E-02
#           2.94992E-02  3.02169E-02  3.09521E-02  3.17052E-02  3.24766E-02
#           3.32668E-02  3.40762E-02  3.49053E-02  3.57546E-02  3.66246E-02
#           3.75157E-02  3.84284E-02  3.93634E-02  4.03212E-02  4.13022E-02
#           4.23071E-02  4.33365E-02  4.43909E-02  4.54710E-02  4.65773E-02
#           4.77106E-02  4.88714E-02  5.00605E-02  5.12785E-02  5.25262E-02
#           5.38042E-02  5.51133E-02  5.64542E-02  5.78278E-02  5.92348E-02
#           6.06760E-02  6.21523E-02  6.36645E-02  6.52135E-02  6.68002E-02
#           6.84255E-02  7.00904E-02  7.17957E-02  7.35426E-02  7.53319E-02
#           7.71648E-02  7.90423E-02  8.09655E-02  8.29354E-02  8.49533E-02
#           8.70203E-02  8.91376E-02  9.13064E-02  9.35279E-02  9.58035E-02
#           9.81345E-02  1.00522E-01  1.02968E-01  1.05473E-01  1.08040E-01
#           1.10668E-01  1.13361E-01  1.16119E-01  1.18944E-01  1.21838E-01
#           1.24803E-01  1.27839E-01  1.30950E-01  1.34136E-01  1.37399E-01
#           1.40742E-01  1.44167E-01  1.47675E-01  1.51268E-01  1.54948E-01
#           1.58718E-01  1.62580E-01  1.66535E-01  1.70587E-01  1.74738E-01
#           1.78989E-01  1.83344E-01  1.87805E-01  1.92375E-01  1.97055E-01
#           2.01850E-01  2.06761E-01  2.11792E-01  2.16945E-01  2.22223E-01
#           2.27630E-01  2.33169E-01  2.38842E-01  2.44653E-01  2.50605E-01
#           2.56703E-01  2.62949E-01  2.69346E-01  2.75900E-01  2.82613E-01
#           2.89489E-01  2.96532E-01  3.03747E-01  3.11138E-01  3.18708E-01
#           3.26462E-01  3.34405E-01  3.42542E-01  3.50876E-01  3.59413E-01
#           3.68158E-01  3.77116E-01  3.86291E-01  3.95690E-01  4.05317E-01
#           4.15179E-01  4.25281E-01  4.35628E-01  4.46227E-01  4.57084E-01
#           4.68205E-01  4.79597E-01  4.91266E-01  5.03219E-01  5.15463E-01
#           5.28005E-01  5.40851E-01  5.54011E-01  5.67490E-01  5.81298E-01
#           5.95441E-01  6.09929E-01  6.24769E-01  6.39970E-01  6.55541E-01
#           6.71491E-01  6.87828E-01  7.04564E-01  7.21706E-01  7.39266E-01
#           7.57253E-01  7.75678E-01  7.94551E-01  8.13883E-01  8.33685E-01
#           8.53969E-01  8.74747E-01  8.96030E-01  9.17831E-01  9.40163E-01
#           9.63038E-01  9.86469E-01  1.01047E+00  1.03506E+00  1.06024E+00
#           1.08604E+00  1.11246E+00  1.13953E+00  1.16725E+00  1.19565E+00
#           1.22474E+00  1.25454E+00  1.28507E+00  1.31633E+00  1.34836E+00
#           1.38117E+00  1.41477E+00  1.44920E+00  1.48446E+00  1.52057E+00
#           1.55757E+00  1.59547E+00  1.63429E+00  1.67405E+00  1.71478E+00
#           1.75650E+00  1.79924E+00  1.84302E+00  1.88786E+00  1.93379E+00
#           1.98084E+00  2.02904E+00  2.07841E+00  2.12898E+00  2.18078E+00
#           2.23384E+00  2.28819E+00  2.34386E+00  2.40089E+00  2.45930E+00
#           2.51914E+00  2.58043E+00  2.64322E+00  2.70753E+00  2.77341E+00
#           2.84088E+00  2.91001E+00  2.98081E+00  3.05333E+00  3.12762E+00
#           3.20372E+00  3.28167E+00  3.36152E+00  3.44330E+00  3.52708E+00
#           3.61290E+00  3.70080E+00  3.79085E+00  3.88308E+00  3.97756E+00
#           4.07434E+00  4.17347E+00  4.27501E+00  4.37903E+00  4.48557E+00
#           4.59471E+00  4.70650E+00  4.82102E+00  4.93832E+00  5.05847E+00
#           5.18155E+00  5.30762E+00  5.43676E+00  5.56904E+00  5.70453E+00
#           5.84333E+00  5.98550E+00  6.13114E+00  6.28031E+00  6.43312E+00
#           6.58964E+00  6.74997E+00  6.91420E+00  7.08243E+00  7.25475E+00
#           7.43126E+00  7.61207E+00  7.79728E+00  7.98700E+00  8.18133E+00
#           8.38038E+00  8.58428E+00  8.79315E+00  9.00709E+00  9.22624E+00
#           9.45072E+00  9.68067E+00  9.91620E+00  1.01575E+01  1.04046E+01
#           1.06578E+01  1.09171E+01  1.11827E+01  1.14548E+01  1.17335E+01
#           1.20190E+01  1.23114E+01  1.26109E+01  1.29178E+01  1.32321E+01
#           1.35540E+01  1.38838E+01  1.42216E+01  1.45676E+01  1.49221E+01
#           1.52851E+01  1.56570E+01  1.60380E+01  1.64282E+01  1.68279E+01
#           1.72374E+01  1.76568E+01  1.80864E+01  1.85264E+01  1.89772E+01
#           1.94389E+01  1.99119E+01  2.03963E+01  2.08926E+01  2.14009E+01
#           2.19216E+01  2.24550E+01  2.30014E+01  2.35610E+01  2.41343E+01
#           2.47215E+01  2.53230E+01  2.59391E+01  2.65702E+01  2.72167E+01
#           2.78789E+01  2.85572E+01  2.92520E+01  2.99637E+01  3.06928E+01
#           3.14396E+01  3.22045E+01  3.29881E+01  3.37907E+01  3.46128E+01
#           3.54550E+01  3.63177E+01  3.72013E+01  3.81064E+01  3.90336E+01
#           3.99833E+01  4.09561E+01  4.19526E+01  4.29734E+01  4.40189E+01
#           4.50900E+01  4.61870E+01  4.73108E+01  4.84619E+01  4.96410E+01
#           5.08488E+01  5.20860E+01  5.33533E+01  5.46514E+01  5.59812E+01
#           5.73432E+01  5.87384E+01  6.01676E+01  6.16315E+01  6.31311E+01
#           6.46671E+01  6.62405E+01  6.78522E+01  6.95031E+01  7.11941E+01
#           7.29263E+01  7.47007E+01  7.65182E+01  7.83800E+01  8.02870E+01
#           8.22405E+01  8.42414E+01  8.62911E+01  8.83906E+01  9.05412E+01
#           9.27442E+01  9.50007E+01  9.73122E+01  9.96799E+01  1.02105E+02
#           1.04589E+02  1.07134E+02  1.09741E+02  1.12411E+02  1.15146E+02
#           1.17948E+02  1.20817E+02  1.23757E+02  1.26768E+02  1.29852E+02
#           1.33012E+02  1.36248E+02  1.39563E+02  1.42959E+02  1.46437E+02
#           1.50000E+02
     unit =    2            # unit is [1/cm^2/(MeV/n)/source]
     axis =  eng            # axis of output
     file = detector-18.out  # file name of output for the above axis
   output = f-curr          # surface crossing forward current spectrum
     part =  neutron  
# kf/name :  2112     
#    used :        main (  %)        temp (  %)       total (  %)
#  memory :         414 (  0)           0 (  0)         414 (  0)

#------------------------------------------------------------------------------
#newpage:
#   no. =    1   reg = 117 - 217

x: Energy [MeV/n]
y:  F-Curr [1/cm^2/(MeV/n)/source]         
p: xlog ylog afac(0.8) form(0.9)
h: n            x            y(neutron ),hh0l   n 
#  e-lower      e-upper      neutron     r.err 
   1.0000E-02   1.0243E-02   1.3945E-03  0.0543
   1.0243E-02   1.0493E-02   1.5595E-03  0.0506
   1.0493E-02   1.0748E-02   1.4669E-03  0.0517
   1.0748E-02   1.1009E-02   1.4397E-03  0.0515
   1.1009E-02   1.1277E-02   1.5966E-03  0.0483
   1.1277E-02   1.1552E-02   1.5259E-03  0.0488
   1.1552E-02   1.1833E-02   1.4895E-03  0.0489
   1.1833E-02   1.2121E-02   1.5352E-03  0.0475
   1.2121E-02   1.2415E-02   1.4982E-03  0.0475
   1.2415E-02   1.2718E-02   1.3617E-03  0.0493
   1.2718E-02   1.3027E-02   1.5820E-03  0.0452
   1.3027E-02   1.3344E-02   1.5006E-03  0.0458
   1.3344E-02   1.3669E-02   1.4659E-03  0.0458
   1.3669E-02   1.4001E-02   1.3567E-03  0.0471
   1.4001E-02   1.4342E-02   1.4046E-03  0.0457
   1.4342E-02   1.4691E-02   1.4099E-03  0.0451
   1.4691E-02   1.5048E-02   1.2965E-03  0.0464
   1.5048E-02   1.5414E-02   1.3765E-03  0.0445
   1.5414E-02   1.5789E-02   1.3884E-03  0.0438
   1.5789E-02   1.6174E-02   1.4229E-03  0.0428
   1.6174E-02   1.6567E-02   1.3989E-03  0.0426
   1.6567E-02   1.6970E-02   1.3033E-03  0.0436
   1.6970E-02   1.7383E-02   1.3378E-03  0.0425
   1.7383E-02   1.7806E-02   1.4229E-03  0.0407
   1.7806E-02   1.8239E-02   1.2507E-03  0.0429
   1.8239E-02   1.8683E-02   1.4191E-03  0.0398
   1.8683E-02   1.9138E-02   1.2116E-03  0.0426
   1.9138E-02   1.9603E-02   1.2420E-03  0.0415
   1.9603E-02   2.0080E-02   1.2658E-03  0.0407
   2.0080E-02   2.0569E-02   1.2602E-03  0.0403
   2.0569E-02   2.1069E-02   1.2295E-03  0.0403
   2.1069E-02   2.1582E-02   1.3244E-03  0.0384
   2.1582E-02   2.2107E-02   1.2900E-03  0.0384
   2.2107E-02   2.2645E-02   1.1574E-03  0.0400
   2.2645E-02   2.3196E-02   1.1940E-03  0.0390
   2.3196E-02   2.3760E-02   1.1536E-03  0.0392
   2.3760E-02   2.4338E-02   1.1401E-03  0.0389
   2.4338E-02   2.4930E-02   1.1767E-03  0.0379
   2.4930E-02   2.5537E-02   1.0851E-03  0.0389
   2.5537E-02   2.6158E-02   1.1352E-03  0.0376
   2.6158E-02   2.6795E-02   1.0054E-03  0.0395
   2.6795E-02   2.7447E-02   1.1137E-03  0.0371
   2.7447E-02   2.8114E-02   1.0611E-03  0.0375
   2.8114E-02   2.8799E-02   1.0993E-03  0.0364
   2.8799E-02   2.9499E-02   1.0014E-03  0.0377
   2.9499E-02   3.0217E-02   1.0521E-03  0.0363
   3.0217E-02   3.0952E-02   1.0623E-03  0.0358
   3.0952E-02   3.1705E-02   1.0379E-03  0.0358
   3.1705E-02   3.2477E-02   9.8925E-04  0.0362
   3.2477E-02   3.3267E-02   1.0589E-03  0.0345
   3.3267E-02   3.4076E-02   1.0468E-03  0.0343
   3.4076E-02   3.4905E-02   1.0051E-03  0.0346
   3.4905E-02   3.5755E-02   9.4326E-04  0.0353
   3.5755E-02   3.6625E-02   9.3049E-04  0.0351
   3.6625E-02   3.7516E-02   9.7652E-04  0.0339
   3.7516E-02   3.8428E-02   9.4760E-04  0.0340
   3.8428E-02   3.9363E-02   9.3233E-04  0.0338
   3.9363E-02   4.0321E-02   9.4473E-04  0.0332
   4.0321E-02   4.1302E-02   9.0815E-04  0.0335
   4.1302E-02   4.2307E-02   8.8368E-04  0.0335
   4.2307E-02   4.3337E-02   8.6605E-04  0.0335
   4.3337E-02   4.4391E-02   9.2883E-04  0.0319
   4.4391E-02   4.5471E-02   9.2038E-04  0.0317
   4.5471E-02   4.6577E-02   8.5322E-04  0.0325
   4.6577E-02   4.7711E-02   9.2117E-04  0.0309
   4.7711E-02   4.8871E-02   8.4165E-04  0.0320
   4.8871E-02   5.0061E-02   8.4598E-04  0.0315
   5.0061E-02   5.1279E-02   8.2449E-04  0.0315
   5.1279E-02   5.2526E-02   8.8028E-04  0.0302
   5.2526E-02   5.3804E-02   8.3621E-04  0.0306
   5.3804E-02   5.5113E-02   8.1133E-04  0.0307
   5.5113E-02   5.6454E-02   8.0957E-04  0.0303
   5.6454E-02   5.7828E-02   7.9813E-04  0.0302
   5.7828E-02   5.9235E-02   7.8230E-04  0.0301
   5.9235E-02   6.0676E-02   8.0668E-04  0.0293
   6.0676E-02   6.2152E-02   7.3655E-04  0.0303
   6.2152E-02   6.3665E-02   7.5682E-04  0.0295
   6.3665E-02   6.5214E-02   7.3333E-04  0.0296
   6.5214E-02   6.6800E-02   7.1509E-04  0.0297
   6.6800E-02   6.8426E-02   6.5660E-04  0.0306
   6.8426E-02   7.0090E-02   6.9460E-04  0.0294
   7.0090E-02   7.1796E-02   6.7978E-04  0.0294
   7.1796E-02   7.3543E-02   6.7950E-04  0.0290
   7.3543E-02   7.5332E-02   6.9175E-04  0.0284
   7.5332E-02   7.7165E-02   6.3827E-04  0.0292
   7.7165E-02   7.9042E-02   6.6210E-04  0.0283
   7.9042E-02   8.0965E-02   6.2740E-04  0.0288
   8.0965E-02   8.2935E-02   6.3282E-04  0.0283
   8.2935E-02   8.4953E-02   6.0959E-04  0.0285
   8.4953E-02   8.7020E-02   6.1690E-04  0.0280
   8.7020E-02   8.9138E-02   6.1854E-04  0.0276
   8.9138E-02   9.1306E-02   6.0034E-04  0.0277
   9.1306E-02   9.3528E-02   5.5666E-04  0.0284
   9.3528E-02   9.5804E-02   5.4727E-04  0.0283
   9.5804E-02   9.8134E-02   5.5689E-04  0.0277
   9.8134E-02   1.0052E-01   5.5878E-04  0.0274
   1.0052E-01   1.0297E-01   5.6205E-04  0.0269
   1.0297E-01   1.0547E-01   5.4122E-04  0.0271
   1.0547E-01   1.0804E-01   5.2036E-04  0.0273
   1.0804E-01   1.1067E-01   5.0729E-04  0.0273
   1.1067E-01   1.1336E-01   5.0267E-04  0.0271
   1.1336E-01   1.1612E-01   4.9584E-04  0.0270
   1.1612E-01   1.1894E-01   4.7149E-04  0.0274
   1.1894E-01   1.2184E-01   4.7137E-04  0.0271
   1.2184E-01   1.2480E-01   4.4893E-04  0.0274
   1.2480E-01   1.2784E-01   4.5999E-04  0.0267
   1.2784E-01   1.3095E-01   4.3097E-04  0.0273
   1.3095E-01   1.3414E-01   4.1314E-04  0.0275
   1.3414E-01   1.3740E-01   4.1157E-04  0.0273
   1.3740E-01   1.4074E-01   4.1190E-04  0.0269
   1.4074E-01   1.4417E-01   3.9091E-04  0.0273
   1.4417E-01   1.4767E-01   4.0600E-04  0.0265
   1.4767E-01   1.5127E-01   4.0331E-04  0.0262
   1.5127E-01   1.5495E-01   3.7105E-04  0.0270
   1.5495E-01   1.5872E-01   3.7530E-04  0.0266
   1.5872E-01   1.6258E-01   3.5927E-04  0.0268
   1.6258E-01   1.6654E-01   3.5264E-04  0.0267
   1.6654E-01   1.7059E-01   3.4114E-04  0.0269
   1.7059E-01   1.7474E-01   3.3056E-04  0.0270
   1.7474E-01   1.7899E-01   3.2116E-04  0.0270
   1.7899E-01   1.8334E-01   3.3768E-04  0.0260
   1.8334E-01   1.8781E-01   3.0056E-04  0.0273
   1.8781E-01   1.9237E-01   3.0904E-04  0.0266
   1.9237E-01   1.9706E-01   2.9708E-04  0.0268
   1.9706E-01   2.0185E-01   2.9108E-04  0.0267
   2.0185E-01   2.0676E-01   3.0056E-04  0.0260
   2.0676E-01   2.1179E-01   3.1504E-04  0.0251
   2.1179E-01   2.1694E-01   3.2388E-04  0.0245
   2.1694E-01   2.2222E-01   3.1707E-04  0.0244
   2.2222E-01   2.2763E-01   3.2485E-04  0.0238
   2.2763E-01   2.3317E-01   3.2806E-04  0.0234
   2.3317E-01   2.3884E-01   3.4277E-04  0.0227
   2.3884E-01   2.4465E-01   3.4664E-04  0.0223
   2.4465E-01   2.5061E-01   3.3587E-04  0.0223
   2.5061E-01   2.5670E-01   3.4411E-04  0.0218
   2.5670E-01   2.6295E-01   3.5560E-04  0.0212
   2.6295E-01   2.6935E-01   3.7254E-04  0.0205
   2.6935E-01   2.7590E-01   3.7616E-04  0.0201
   2.7590E-01   2.8261E-01   3.8800E-04  0.0196
   2.8261E-01   2.8949E-01   3.7018E-04  0.0198
   2.8949E-01   2.9653E-01   3.9066E-04  0.0190
   2.9653E-01   3.0375E-01   3.8673E-04  0.0189
   3.0375E-01   3.1114E-01   4.0078E-04  0.0183
   3.1114E-01   3.1871E-01   4.0499E-04  0.0180
   3.1871E-01   3.2646E-01   4.1880E-04  0.0175
   3.2646E-01   3.3441E-01   4.0293E-04  0.0176
   3.3441E-01   3.4254E-01   4.2731E-04  0.0169
   3.4254E-01   3.5088E-01   4.2310E-04  0.0168
   3.5088E-01   3.5941E-01   4.3981E-04  0.0163
   3.5941E-01   3.6816E-01   4.3608E-04  0.0162
   3.6816E-01   3.7712E-01   4.3516E-04  0.0160
   3.7712E-01   3.8629E-01   4.3337E-04  0.0158
   3.8629E-01   3.9569E-01   4.6403E-04  0.0151
   3.9569E-01   4.0532E-01   4.4593E-04  0.0152
   4.0532E-01   4.1518E-01   4.5708E-04  0.0149
   4.1518E-01   4.2528E-01   4.5736E-04  0.0147
   4.2528E-01   4.3563E-01   4.6242E-04  0.0144
   4.3563E-01   4.4623E-01   4.6790E-04  0.0142
   4.4623E-01   4.5708E-01   4.6929E-04  0.0140
   4.5708E-01   4.6821E-01   4.7549E-04  0.0137
   4.6821E-01   4.7960E-01   4.6703E-04  0.0137
   4.7960E-01   4.9127E-01   4.8437E-04  0.0133
   4.9127E-01   5.0322E-01   4.8366E-04  0.0131
   5.0322E-01   5.1546E-01   4.8185E-04  0.0130
   5.1546E-01   5.2800E-01   4.9228E-04  0.0127
   5.2800E-01   5.4085E-01   4.9720E-04  0.0125
   5.4085E-01   5.5401E-01   4.9583E-04  0.0124
   5.5401E-01   5.6749E-01   4.9957E-04  0.0122
   5.6749E-01   5.8130E-01   4.9920E-04  0.0120
   5.8130E-01   5.9544E-01   4.8787E-04  0.0120
   5.9544E-01   6.0993E-01   4.9575E-04  0.0118
   6.0993E-01   6.2477E-01   4.9296E-04  0.0117
   6.2477E-01   6.3997E-01   5.0109E-04  0.0114
   6.3997E-01   6.5554E-01   5.0908E-04  0.0112
   6.5554E-01   6.7149E-01   4.9585E-04  0.0112
   6.7149E-01   6.8783E-01   5.0981E-04  0.0109
   6.8783E-01   7.0456E-01   5.0248E-04  0.0109
   7.0456E-01   7.2171E-01   5.0848E-04  0.0107
   7.2171E-01   7.3927E-01   5.0043E-04  0.0106
   7.3927E-01   7.5725E-01   5.0505E-04  0.0105
   7.5725E-01   7.7568E-01   4.9533E-04  0.0105
   7.7568E-01   7.9455E-01   4.8880E-04  0.0104
   7.9455E-01   8.1388E-01   5.0106E-04  0.0101
   8.1388E-01   8.3368E-01   4.8561E-04  0.0102
   8.3368E-01   8.5397E-01   4.8284E-04  0.0101
   8.5397E-01   8.7475E-01   4.7775E-04  0.0100
   8.7475E-01   8.9603E-01   4.6933E-04  0.0100
   8.9603E-01   9.1783E-01   4.6799E-04  0.0099
   9.1783E-01   9.4016E-01   4.5722E-04  0.0099
   9.4016E-01   9.6304E-01   4.4546E-04  0.0099
   9.6304E-01   9.8647E-01   4.3818E-04  0.0099
   9.8647E-01   1.0105E+00   4.2637E-04  0.0099
   1.0105E+00   1.0351E+00   4.2411E-04  0.0098
   1.0351E+00   1.0602E+00   4.1142E-04  0.0098
   1.0602E+00   1.0860E+00   4.0949E-04  0.0097
   1.0860E+00   1.1125E+00   4.1027E-04  0.0096
   1.1125E+00   1.1395E+00   4.0843E-04  0.0095
   1.1395E+00   1.1673E+00   4.1044E-04  0.0094
   1.1673E+00   1.1957E+00   4.1440E-04  0.0092
   1.1957E+00   1.2247E+00   4.1392E-04  0.0091
   1.2247E+00   1.2545E+00   4.0174E-04  0.0091
   1.2545E+00   1.2851E+00   4.0763E-04  0.0089
   1.2851E+00   1.3163E+00   3.9883E-04  0.0089
   1.3163E+00   1.3484E+00   3.9350E-04  0.0089
   1.3484E+00   1.3812E+00   3.9819E-04  0.0087
   1.3812E+00   1.4148E+00   4.0284E-04  0.0086
   1.4148E+00   1.4492E+00   3.9485E-04  0.0086
   1.4492E+00   1.4845E+00   3.8710E-04  0.0085
   1.4845E+00   1.5206E+00   3.8309E-04  0.0085
   1.5206E+00   1.5576E+00   3.8004E-04  0.0084
   1.5576E+00   1.5955E+00   3.7535E-04  0.0084
   1.5955E+00   1.6343E+00   3.6965E-04  0.0083
   1.6343E+00   1.6741E+00   3.6874E-04  0.0082
   1.6741E+00   1.7148E+00   3.6629E-04  0.0082
   1.7148E+00   1.7565E+00   3.6224E-04  0.0081
   1.7565E+00   1.7992E+00   3.5122E-04  0.0081
   1.7992E+00   1.8430E+00   3.4634E-04  0.0081
   1.8430E+00   1.8879E+00   3.4372E-04  0.0080
   1.8879E+00   1.9338E+00   3.4083E-04  0.0080
   1.9338E+00   1.9808E+00   3.3127E-04  0.0080
   1.9808E+00   2.0290E+00   3.2899E-04  0.0079
   2.0290E+00   2.0784E+00   3.2444E-04  0.0079
   2.0784E+00   2.1290E+00   3.1388E-04  0.0079
   2.1290E+00   2.1808E+00   3.1047E-04  0.0079
   2.1808E+00   2.2338E+00   2.9882E-04  0.0079
   2.2338E+00   2.2882E+00   2.9196E-04  0.0079
   2.2882E+00   2.3439E+00   2.8474E-04  0.0079
   2.3439E+00   2.4009E+00   2.8414E-04  0.0078
   2.4009E+00   2.4593E+00   2.7386E-04  0.0079
   2.4593E+00   2.5191E+00   2.7050E-04  0.0078
   2.5191E+00   2.5804E+00   2.6503E-04  0.0078
   2.5804E+00   2.6432E+00   2.5840E-04  0.0078
   2.6432E+00   2.7075E+00   2.5143E-04  0.0078
   2.7075E+00   2.7734E+00   2.5000E-04  0.0078
   2.7734E+00   2.8409E+00   2.4332E-04  0.0078
   2.8409E+00   2.9100E+00   2.3783E-04  0.0078
   2.9100E+00   2.9808E+00   2.3019E-04  0.0078
   2.9808E+00   3.0533E+00   2.2831E-04  0.0077
   3.0533E+00   3.1276E+00   2.2145E-04  0.0078
   3.1276E+00   3.2037E+00   2.1372E-04  0.0078
   3.2037E+00   3.2817E+00   2.0792E-04  0.0078
   3.2817E+00   3.3615E+00   2.0339E-04  0.0078
   3.3615E+00   3.4433E+00   2.0033E-04  0.0078
   3.4433E+00   3.5271E+00   1.9339E-04  0.0078
   3.5271E+00   3.6129E+00   1.8959E-04  0.0078
   3.6129E+00   3.7008E+00   1.8637E-04  0.0078
   3.7008E+00   3.7908E+00   1.7851E-04  0.0079
   3.7908E+00   3.8831E+00   1.7665E-04  0.0078
   3.8831E+00   3.9776E+00   1.6737E-04  0.0079
   3.9776E+00   4.0743E+00   1.6361E-04  0.0079
   4.0743E+00   4.1735E+00   1.5989E-04  0.0079
   4.1735E+00   4.2750E+00   1.5717E-04  0.0079
   4.2750E+00   4.3790E+00   1.5165E-04  0.0079
   4.3790E+00   4.4856E+00   1.4904E-04  0.0079
   4.4856E+00   4.5947E+00   1.4434E-04  0.0079
   4.5947E+00   4.7065E+00   1.3975E-04  0.0080
   4.7065E+00   4.8210E+00   1.3322E-04  0.0081
   4.8210E+00   4.9383E+00   1.2890E-04  0.0081
   4.9383E+00   5.0585E+00   1.2451E-04  0.0081
   5.0585E+00   5.1815E+00   1.2152E-04  0.0082
   5.1815E+00   5.3076E+00   1.1416E-04  0.0083
   5.3076E+00   5.4368E+00   1.1278E-04  0.0083
   5.4368E+00   5.5690E+00   1.0913E-04  0.0083
   5.5690E+00   5.7045E+00   1.0472E-04  0.0084
   5.7045E+00   5.8433E+00   1.0020E-04  0.0085
   5.8433E+00   5.9855E+00   9.6773E-05  0.0085
   5.9855E+00   6.1311E+00   9.3306E-05  0.0086
   6.1311E+00   6.2803E+00   8.8136E-05  0.0087
   6.2803E+00   6.4331E+00   8.6478E-05  0.0087
   6.4331E+00   6.5896E+00   8.1027E-05  0.0089
   6.5896E+00   6.7500E+00   7.7585E-05  0.0089
   6.7500E+00   6.9142E+00   7.5727E-05  0.0089
   6.9142E+00   7.0824E+00   7.1089E-05  0.0091
   7.0824E+00   7.2548E+00   6.7963E-05  0.0092
   7.2548E+00   7.4313E+00   6.4520E-05  0.0094
   7.4313E+00   7.6121E+00   6.0925E-05  0.0095
   7.6121E+00   7.7973E+00   5.7933E-05  0.0096
   7.7973E+00   7.9870E+00   5.4423E-05  0.0098
   7.9870E+00   8.1813E+00   5.2753E-05  0.0099
   8.1813E+00   8.3804E+00   4.8600E-05  0.0101
   8.3804E+00   8.5843E+00   4.6707E-05  0.0102
   8.5843E+00   8.7931E+00   4.3705E-05  0.0104
   8.7931E+00   9.0071E+00   4.2771E-05  0.0104
   9.0071E+00   9.2262E+00   4.0635E-05  0.0106
   9.2262E+00   9.4507E+00   3.7778E-05  0.0108
   9.4507E+00   9.6807E+00   3.5773E-05  0.0110
   9.6807E+00   9.9162E+00   3.3879E-05  0.0112
   9.9162E+00   1.0157E+01   3.2612E-05  0.0113
   1.0157E+01   1.0405E+01   3.0867E-05  0.0114
   1.0405E+01   1.0658E+01   2.9438E-05  0.0116
   1.0658E+01   1.0917E+01   2.8873E-05  0.0115
   1.0917E+01   1.1183E+01   2.7162E-05  0.0118
   1.1183E+01   1.1455E+01   2.5739E-05  0.0119
   1.1455E+01   1.1733E+01   2.4549E-05  0.0121
   1.1733E+01   1.2019E+01   2.2783E-05  0.0124
   1.2019E+01   1.2311E+01   2.1100E-05  0.0127
   1.2311E+01   1.2611E+01   1.9957E-05  0.0129
   1.2611E+01   1.2918E+01   1.8548E-05  0.0132
   1.2918E+01   1.3232E+01   1.7678E-05  0.0134
   1.3232E+01   1.3554E+01   1.6556E-05  0.0137
   1.3554E+01   1.3884E+01   1.5523E-05  0.0140
   1.3884E+01   1.4222E+01   1.4569E-05  0.0142
   1.4222E+01   1.4568E+01   1.3639E-05  0.0145
   1.4568E+01   1.4922E+01   1.2643E-05  0.0149
   1.4922E+01   1.5285E+01   1.1867E-05  0.0152
   1.5285E+01   1.5657E+01   1.1256E-05  0.0155
   1.5657E+01   1.6038E+01   1.0056E-05  0.0162
   1.6038E+01   1.6428E+01   9.5191E-06  0.0164
   1.6428E+01   1.6828E+01   8.8160E-06  0.0168
   1.6828E+01   1.7237E+01   8.2444E-06  0.0172
   1.7237E+01   1.7657E+01   7.7590E-06  0.0175
   1.7657E+01   1.8086E+01   7.2005E-06  0.0180
   1.8086E+01   1.8526E+01   6.8144E-06  0.0183
   1.8526E+01   1.8977E+01   6.3053E-06  0.0188
   1.8977E+01   1.9439E+01   5.6945E-06  0.0195
   1.9439E+01   1.9912E+01   5.4176E-06  0.0198
   1.9912E+01   2.0396E+01   4.8238E-06  0.0207
   2.0396E+01   2.0893E+01   4.5238E-06  0.0211
   2.0893E+01   2.1401E+01   4.1685E-06  0.0217
   2.1401E+01   2.1922E+01   3.8736E-06  0.0223
   2.1922E+01   2.2455E+01   3.5435E-06  0.0230
   2.2455E+01   2.3001E+01   3.2379E-06  0.0238
   2.3001E+01   2.3561E+01   3.0037E-06  0.0244
   2.3561E+01   2.4134E+01   2.6550E-06  0.0256
   2.4134E+01   2.4721E+01   2.3620E-06  0.0269
   2.4721E+01   2.5323E+01   2.0050E-06  0.0288
   2.5323E+01   2.5939E+01   1.9639E-06  0.0287
   2.5939E+01   2.6570E+01   1.7936E-06  0.0297
   2.6570E+01   2.7217E+01   1.5113E-06  0.0320
   2.7217E+01   2.7879E+01   1.3757E-06  0.0331
   2.7879E+01   2.8557E+01   1.1647E-06  0.0356
   2.8557E+01   2.9252E+01   1.1024E-06  0.0361
   2.9252E+01   2.9964E+01   9.7791E-07  0.0379
   2.9964E+01   3.0693E+01   8.0791E-07  0.0412
   3.0693E+01   3.1440E+01   7.0837E-07  0.0435
   3.1440E+01   3.2205E+01   6.4579E-07  0.0450
   3.2205E+01   3.2988E+01   5.3729E-07  0.0487
   3.2988E+01   3.3791E+01   4.3981E-07  0.0532
   3.3791E+01   3.4613E+01   3.7827E-07  0.0567
   3.4613E+01   3.5455E+01   3.3723E-07  0.0593
   3.5455E+01   3.6318E+01   3.0603E-07  0.0615
   3.6318E+01   3.7201E+01   2.7047E-07  0.0647
   3.7201E+01   3.8106E+01   2.3532E-07  0.0685
   3.8106E+01   3.9034E+01   1.8012E-07  0.0774
   3.9034E+01   3.9983E+01   1.4215E-07  0.0861
   3.9983E+01   4.0956E+01   1.2849E-07  0.0894
   4.0956E+01   4.1953E+01   1.1942E-07  0.0917
   4.1953E+01   4.2973E+01   1.0776E-07  0.0953
   4.2973E+01   4.4019E+01   8.5121E-08  0.1060
   4.4019E+01   4.5090E+01   8.3099E-08  0.1060
   4.5090E+01   4.6187E+01   7.2010E-08  0.1125
   4.6187E+01   4.7311E+01   6.2290E-08  0.1195
   4.7311E+01   4.8462E+01   4.6911E-08  0.1361
   4.8462E+01   4.9641E+01   4.0708E-08  0.1443
   4.9641E+01   5.0849E+01   4.7193E-08  0.1325
   5.0849E+01   5.2086E+01   3.8798E-08  0.1443
   5.2086E+01   5.3353E+01   4.1032E-08  0.1387
   5.3353E+01   5.4651E+01   3.6976E-08  0.1443
   5.4651E+01   5.5981E+01   1.4289E-08  0.2294
   5.5981E+01   5.7343E+01   1.3215E-08  0.2357
   5.7343E+01   5.8738E+01   1.2901E-08  0.2357
   5.8738E+01   6.0168E+01   1.2595E-08  0.2357
   6.0168E+01   6.1632E+01   8.8802E-09  0.2774
   6.1632E+01   6.3131E+01   3.3343E-09  0.4472
   6.3131E+01   6.4667E+01   3.2551E-09  0.4472
   6.4667E+01   6.6240E+01   3.1778E-09  0.4472
   6.6240E+01   6.7852E+01   6.2047E-10  1.0000
   6.7852E+01   6.9503E+01   6.0573E-10  1.0000
   6.9503E+01   7.1194E+01   1.1827E-09  0.7071
   7.1194E+01   7.2926E+01   1.1546E-09  0.7071
   7.2926E+01   7.4701E+01   5.6358E-10  1.0000
   7.4701E+01   7.6518E+01   0.0000E+00  0.0000
   7.6518E+01   7.8380E+01   0.0000E+00  0.0000
   7.8380E+01   8.0287E+01   0.0000E+00  0.0000
   8.0287E+01   8.2240E+01   0.0000E+00  0.0000
   8.2240E+01   8.4241E+01   0.0000E+00  0.0000
   8.4241E+01   8.6291E+01   0.0000E+00  0.0000
   8.6291E+01   8.8391E+01   0.0000E+00  0.0000
   8.8391E+01   9.0541E+01   0.0000E+00  0.0000
   9.0541E+01   9.2744E+01   0.0000E+00  0.0000
   9.2744E+01   9.5001E+01   0.0000E+00  0.0000
   9.5001E+01   9.7312E+01   0.0000E+00  0.0000
   9.7312E+01   9.9680E+01   0.0000E+00  0.0000
   9.9680E+01   1.0211E+02   0.0000E+00  0.0000
   1.0211E+02   1.0459E+02   0.0000E+00  0.0000
   1.0459E+02   1.0713E+02   0.0000E+00  0.0000
   1.0713E+02   1.0974E+02   0.0000E+00  0.0000
   1.0974E+02   1.1241E+02   0.0000E+00  0.0000
   1.1241E+02   1.1515E+02   0.0000E+00  0.0000
   1.1515E+02   1.1795E+02   0.0000E+00  0.0000
   1.1795E+02   1.2082E+02   0.0000E+00  0.0000
   1.2082E+02   1.2376E+02   0.0000E+00  0.0000
   1.2376E+02   1.2677E+02   0.0000E+00  0.0000
   1.2677E+02   1.2985E+02   0.0000E+00  0.0000
   1.2985E+02   1.3301E+02   0.0000E+00  0.0000
   1.3301E+02   1.3625E+02   0.0000E+00  0.0000
   1.3625E+02   1.3956E+02   0.0000E+00  0.0000
   1.3956E+02   1.4296E+02   0.0000E+00  0.0000
   1.4296E+02   1.4644E+02   0.0000E+00  0.0000
   1.4644E+02   1.5000E+02   0.0000E+00  0.0000

#   sum over                 1.3240E-05
'no. =    1   reg = 117 - 217'
msuc: {\huge [t-cross] in region mesh}
msdr: {\it plotted by \ANGEL \version}
msdl: {\it calculated by \PHITS  3.26}
wt: s(0.7)
\vspace{-3}
  region surface crossing
  area  &=&   1.0000E+00 [cm^2]
e:
 
# Information for Restart Calculation
# This calculation was newly started
# istdev =  2 # 1:Batch variance, 2:History variance
# resc2  = 1.00000000000000000E+09 # Total source weight or Total source weight / maxcas
# resc3  = 1.00000000000000000E+09 # Total history number or Total batch number
# maxcas =   500000000 # History / Batch, only used for istdev=1
# bitrseed = 0001001110011001001001110000100100110111001111011100001000101100 # bit data of rseed
