[ T-Cross ]
    title = [t-cross] in region mesh
     mesh =  reg            # mesh type is region-wise
      reg =    1            # number of crossing regions
      non     r-from    r-to       area
      1       125       225        1.000000    
   e-type =    3            # e-mesh is log given by emin, emax and ne
     emin =  1.0000000E-02  # minimum value of e-mesh points
     emax =   150.0000      # maximum value of e-mesh points
#    edel =  2.4039514E-02  # mesh width of e-mesh points
       ne =    400          # number of e-mesh points
#    data = ( e(i), i = 1, ne + 1 )
#           1.00000E-02  1.02433E-02  1.04925E-02  1.07478E-02  1.10093E-02
#           1.12772E-02  1.15516E-02  1.18326E-02  1.21205E-02  1.24154E-02
#           1.27175E-02  1.30269E-02  1.33439E-02  1.36686E-02  1.40011E-02
#           1.43418E-02  1.46907E-02  1.50482E-02  1.54143E-02  1.57894E-02
#           1.61735E-02  1.65670E-02  1.69701E-02  1.73830E-02  1.78060E-02
#           1.82392E-02  1.86830E-02  1.91375E-02  1.96032E-02  2.00801E-02
#           2.05687E-02  2.10692E-02  2.15818E-02  2.21069E-02  2.26448E-02
#           2.31957E-02  2.37601E-02  2.43382E-02  2.49304E-02  2.55369E-02
#           2.61583E-02  2.67947E-02  2.74467E-02  2.81145E-02  2.87985E-02
#           2.94992E-02  3.02169E-02  3.09521E-02  3.17052E-02  3.24766E-02
#           3.32668E-02  3.40762E-02  3.49053E-02  3.57546E-02  3.66246E-02
#           3.75157E-02  3.84284E-02  3.93634E-02  4.03212E-02  4.13022E-02
#           4.23071E-02  4.33365E-02  4.43909E-02  4.54710E-02  4.65773E-02
#           4.77106E-02  4.88714E-02  5.00605E-02  5.12785E-02  5.25262E-02
#           5.38042E-02  5.51133E-02  5.64542E-02  5.78278E-02  5.92348E-02
#           6.06760E-02  6.21523E-02  6.36645E-02  6.52135E-02  6.68002E-02
#           6.84255E-02  7.00904E-02  7.17957E-02  7.35426E-02  7.53319E-02
#           7.71648E-02  7.90423E-02  8.09655E-02  8.29354E-02  8.49533E-02
#           8.70203E-02  8.91376E-02  9.13064E-02  9.35279E-02  9.58035E-02
#           9.81345E-02  1.00522E-01  1.02968E-01  1.05473E-01  1.08040E-01
#           1.10668E-01  1.13361E-01  1.16119E-01  1.18944E-01  1.21838E-01
#           1.24803E-01  1.27839E-01  1.30950E-01  1.34136E-01  1.37399E-01
#           1.40742E-01  1.44167E-01  1.47675E-01  1.51268E-01  1.54948E-01
#           1.58718E-01  1.62580E-01  1.66535E-01  1.70587E-01  1.74738E-01
#           1.78989E-01  1.83344E-01  1.87805E-01  1.92375E-01  1.97055E-01
#           2.01850E-01  2.06761E-01  2.11792E-01  2.16945E-01  2.22223E-01
#           2.27630E-01  2.33169E-01  2.38842E-01  2.44653E-01  2.50605E-01
#           2.56703E-01  2.62949E-01  2.69346E-01  2.75900E-01  2.82613E-01
#           2.89489E-01  2.96532E-01  3.03747E-01  3.11138E-01  3.18708E-01
#           3.26462E-01  3.34405E-01  3.42542E-01  3.50876E-01  3.59413E-01
#           3.68158E-01  3.77116E-01  3.86291E-01  3.95690E-01  4.05317E-01
#           4.15179E-01  4.25281E-01  4.35628E-01  4.46227E-01  4.57084E-01
#           4.68205E-01  4.79597E-01  4.91266E-01  5.03219E-01  5.15463E-01
#           5.28005E-01  5.40851E-01  5.54011E-01  5.67490E-01  5.81298E-01
#           5.95441E-01  6.09929E-01  6.24769E-01  6.39970E-01  6.55541E-01
#           6.71491E-01  6.87828E-01  7.04564E-01  7.21706E-01  7.39266E-01
#           7.57253E-01  7.75678E-01  7.94551E-01  8.13883E-01  8.33685E-01
#           8.53969E-01  8.74747E-01  8.96030E-01  9.17831E-01  9.40163E-01
#           9.63038E-01  9.86469E-01  1.01047E+00  1.03506E+00  1.06024E+00
#           1.08604E+00  1.11246E+00  1.13953E+00  1.16725E+00  1.19565E+00
#           1.22474E+00  1.25454E+00  1.28507E+00  1.31633E+00  1.34836E+00
#           1.38117E+00  1.41477E+00  1.44920E+00  1.48446E+00  1.52057E+00
#           1.55757E+00  1.59547E+00  1.63429E+00  1.67405E+00  1.71478E+00
#           1.75650E+00  1.79924E+00  1.84302E+00  1.88786E+00  1.93379E+00
#           1.98084E+00  2.02904E+00  2.07841E+00  2.12898E+00  2.18078E+00
#           2.23384E+00  2.28819E+00  2.34386E+00  2.40089E+00  2.45930E+00
#           2.51914E+00  2.58043E+00  2.64322E+00  2.70753E+00  2.77341E+00
#           2.84088E+00  2.91001E+00  2.98081E+00  3.05333E+00  3.12762E+00
#           3.20372E+00  3.28167E+00  3.36152E+00  3.44330E+00  3.52708E+00
#           3.61290E+00  3.70080E+00  3.79085E+00  3.88308E+00  3.97756E+00
#           4.07434E+00  4.17347E+00  4.27501E+00  4.37903E+00  4.48557E+00
#           4.59471E+00  4.70650E+00  4.82102E+00  4.93832E+00  5.05847E+00
#           5.18155E+00  5.30762E+00  5.43676E+00  5.56904E+00  5.70453E+00
#           5.84333E+00  5.98550E+00  6.13114E+00  6.28031E+00  6.43312E+00
#           6.58964E+00  6.74997E+00  6.91420E+00  7.08243E+00  7.25475E+00
#           7.43126E+00  7.61207E+00  7.79728E+00  7.98700E+00  8.18133E+00
#           8.38038E+00  8.58428E+00  8.79315E+00  9.00709E+00  9.22624E+00
#           9.45072E+00  9.68067E+00  9.91620E+00  1.01575E+01  1.04046E+01
#           1.06578E+01  1.09171E+01  1.11827E+01  1.14548E+01  1.17335E+01
#           1.20190E+01  1.23114E+01  1.26109E+01  1.29178E+01  1.32321E+01
#           1.35540E+01  1.38838E+01  1.42216E+01  1.45676E+01  1.49221E+01
#           1.52851E+01  1.56570E+01  1.60380E+01  1.64282E+01  1.68279E+01
#           1.72374E+01  1.76568E+01  1.80864E+01  1.85264E+01  1.89772E+01
#           1.94389E+01  1.99119E+01  2.03963E+01  2.08926E+01  2.14009E+01
#           2.19216E+01  2.24550E+01  2.30014E+01  2.35610E+01  2.41343E+01
#           2.47215E+01  2.53230E+01  2.59391E+01  2.65702E+01  2.72167E+01
#           2.78789E+01  2.85572E+01  2.92520E+01  2.99637E+01  3.06928E+01
#           3.14396E+01  3.22045E+01  3.29881E+01  3.37907E+01  3.46128E+01
#           3.54550E+01  3.63177E+01  3.72013E+01  3.81064E+01  3.90336E+01
#           3.99833E+01  4.09561E+01  4.19526E+01  4.29734E+01  4.40189E+01
#           4.50900E+01  4.61870E+01  4.73108E+01  4.84619E+01  4.96410E+01
#           5.08488E+01  5.20860E+01  5.33533E+01  5.46514E+01  5.59812E+01
#           5.73432E+01  5.87384E+01  6.01676E+01  6.16315E+01  6.31311E+01
#           6.46671E+01  6.62405E+01  6.78522E+01  6.95031E+01  7.11941E+01
#           7.29263E+01  7.47007E+01  7.65182E+01  7.83800E+01  8.02870E+01
#           8.22405E+01  8.42414E+01  8.62911E+01  8.83906E+01  9.05412E+01
#           9.27442E+01  9.50007E+01  9.73122E+01  9.96799E+01  1.02105E+02
#           1.04589E+02  1.07134E+02  1.09741E+02  1.12411E+02  1.15146E+02
#           1.17948E+02  1.20817E+02  1.23757E+02  1.26768E+02  1.29852E+02
#           1.33012E+02  1.36248E+02  1.39563E+02  1.42959E+02  1.46437E+02
#           1.50000E+02
     unit =    2            # unit is [1/cm^2/(MeV/n)/source]
     axis =  eng            # axis of output
     file = detector-26.out  # file name of output for the above axis
   output = f-curr          # surface crossing forward current spectrum
     part =  neutron  
# kf/name :  2112     
#    used :        main (  %)        temp (  %)       total (  %)
#  memory :         414 (  0)           0 (  0)         414 (  0)

#------------------------------------------------------------------------------
#newpage:
#   no. =    1   reg = 125 - 225

x: Energy [MeV/n]
y:  F-Curr [1/cm^2/(MeV/n)/source]         
p: xlog ylog afac(0.8) form(0.9)
h: n            x            y(neutron ),hh0l   n 
#  e-lower      e-upper      neutron     r.err 
   1.0000E-02   1.0243E-02   2.6304E-04  0.1250
   1.0243E-02   1.0493E-02   2.3071E-04  0.1316
   1.0493E-02   1.0748E-02   2.8203E-04  0.1174
   1.0748E-02   1.1009E-02   2.1797E-04  0.1325
   1.1009E-02   1.1277E-02   2.4266E-04  0.1240
   1.1277E-02   1.1552E-02   2.4838E-04  0.1210
   1.1552E-02   1.1833E-02   1.7078E-04  0.1443
   1.1833E-02   1.2121E-02   2.2292E-04  0.1247
   1.2121E-02   1.2415E-02   2.6449E-04  0.1132
   1.2415E-02   1.2718E-02   2.1518E-04  0.1240
   1.2718E-02   1.3027E-02   2.2026E-04  0.1210
   1.3027E-02   1.3344E-02   1.9921E-04  0.1257
   1.3344E-02   1.3669E-02   1.9455E-04  0.1257
   1.3669E-02   1.4001E-02   1.9932E-04  0.1226
   1.4001E-02   1.4342E-02   2.2957E-04  0.1130
   1.4342E-02   1.4691E-02   2.0688E-04  0.1176
   1.4691E-02   1.5048E-02   2.1682E-04  0.1134
   1.5048E-02   1.5414E-02   2.1482E-04  0.1125
   1.5414E-02   1.5789E-02   2.1464E-04  0.1113
   1.5789E-02   1.6174E-02   2.2646E-04  0.1072
   1.6174E-02   1.6567E-02   1.9855E-04  0.1131
   1.6567E-02   1.6970E-02   2.0012E-04  0.1111
   1.6970E-02   1.7383E-02   2.3104E-04  0.1022
   1.7383E-02   1.7806E-02   2.0807E-04  0.1066
   1.7806E-02   1.8239E-02   1.4311E-04  0.1270
   1.8239E-02   1.8683E-02   1.9605E-04  0.1072
   1.8683E-02   1.9138E-02   1.6756E-04  0.1145
   1.9138E-02   1.9603E-02   1.8899E-04  0.1066
   1.9603E-02   2.0080E-02   2.1176E-04  0.0995
   2.0080E-02   2.0569E-02   2.0293E-04  0.1004
   2.0569E-02   2.1069E-02   2.1408E-04  0.0966
   2.1069E-02   2.1582E-02   1.6581E-04  0.1085
   2.1582E-02   2.2107E-02   1.9615E-04  0.0985
   2.2107E-02   2.2645E-02   1.3758E-04  0.1162
   2.2645E-02   2.3196E-02   1.8241E-04  0.0996
   2.3196E-02   2.3760E-02   1.6744E-04  0.1027
   2.3760E-02   2.4338E-02   1.8885E-04  0.0956
   2.4338E-02   2.4930E-02   1.9110E-04  0.0939
   2.4930E-02   2.5537E-02   1.7177E-04  0.0979
   2.5537E-02   2.6158E-02   1.9152E-04  0.0917
   2.6158E-02   2.6795E-02   1.7995E-04  0.0931
   2.6795E-02   2.7447E-02   1.6106E-04  0.0976
   2.7447E-02   2.8114E-02   1.7071E-04  0.0935
   2.8114E-02   2.8799E-02   1.4180E-04  0.1015
   2.8799E-02   2.9499E-02   1.6698E-04  0.0925
   2.9499E-02   3.0217E-02   1.6719E-04  0.0913
   3.0217E-02   3.0952E-02   1.6277E-04  0.0913
   3.0952E-02   3.1705E-02   1.6511E-04  0.0896
   3.1705E-02   3.2477E-02   1.7241E-04  0.0867
   3.2477E-02   3.3267E-02   1.6473E-04  0.0874
   3.3267E-02   3.4076E-02   1.8983E-04  0.0806
   3.4076E-02   3.4905E-02   1.4051E-04  0.0925
   3.4905E-02   3.5755E-02   1.5521E-04  0.0869
   3.5755E-02   3.6625E-02   1.4541E-04  0.0888
   3.6625E-02   3.7516E-02   1.6645E-04  0.0820
   3.7516E-02   3.8428E-02   1.3836E-04  0.0889
   3.8428E-02   3.9363E-02   1.3797E-04  0.0880
   3.9363E-02   4.0321E-02   1.3413E-04  0.0881
   4.0321E-02   4.1302E-02   1.5710E-04  0.0804
   4.1302E-02   4.2307E-02   1.1444E-04  0.0933
   4.2307E-02   4.3337E-02   1.3827E-04  0.0837
   4.3337E-02   4.4391E-02   1.4448E-04  0.0809
   4.4391E-02   4.5471E-02   1.4444E-04  0.0801
   4.5471E-02   4.6577E-02   1.4454E-04  0.0789
   4.6577E-02   4.7711E-02   1.3515E-04  0.0808
   4.7711E-02   4.8871E-02   1.4356E-04  0.0774
   4.8871E-02   5.0061E-02   1.2993E-04  0.0804
   5.0061E-02   5.1279E-02   1.3188E-04  0.0788
   5.1279E-02   5.2526E-02   1.2036E-04  0.0814
   5.2526E-02   5.3804E-02   1.2856E-04  0.0780
   5.3804E-02   5.5113E-02   1.1607E-04  0.0810
   5.5113E-02   5.6454E-02   1.1967E-04  0.0788
   5.6454E-02   5.7828E-02   1.1252E-04  0.0803
   5.7828E-02   5.9235E-02   1.2580E-04  0.0750
   5.9235E-02   6.0676E-02   1.2443E-04  0.0745
   6.0676E-02   6.2152E-02   1.2870E-04  0.0725
   6.2152E-02   6.3665E-02   1.1332E-04  0.0763
   6.3665E-02   6.5214E-02   1.1536E-04  0.0747
   6.5214E-02   6.6800E-02   1.0084E-04  0.0791
   6.6800E-02   6.8426E-02   1.1095E-04  0.0744
   6.8426E-02   7.0090E-02   1.0300E-04  0.0763
   7.0090E-02   7.1796E-02   1.1210E-04  0.0723
   7.1796E-02   7.3543E-02   1.2136E-04  0.0687
   7.3543E-02   7.5332E-02   1.0004E-04  0.0746
   7.5332E-02   7.7165E-02   1.0627E-04  0.0716
   7.7165E-02   7.9042E-02   9.8792E-05  0.0732
   7.9042E-02   8.0965E-02   9.5312E-05  0.0738
   8.0965E-02   8.2935E-02   8.1288E-05  0.0790
   8.2935E-02   8.4953E-02   1.0315E-04  0.0692
   8.4953E-02   8.7020E-02   8.6116E-05  0.0750
   8.7020E-02   8.9138E-02   1.0305E-04  0.0677
   8.9138E-02   9.1306E-02   9.2445E-05  0.0705
   9.1306E-02   9.3528E-02   8.9736E-05  0.0708
   9.3528E-02   9.5804E-02   8.5335E-05  0.0716
   9.5804E-02   9.8134E-02   7.7435E-05  0.0744
   9.8134E-02   1.0052E-01   8.1250E-05  0.0718
   1.0052E-01   1.0297E-01   9.3506E-05  0.0661
   1.0297E-01   1.0547E-01   8.7865E-05  0.0674
   1.0547E-01   1.0804E-01   8.7871E-05  0.0666
   1.0804E-01   1.1067E-01   8.1475E-05  0.0683
   1.1067E-01   1.1336E-01   8.1643E-05  0.0674
   1.1336E-01   1.1612E-01   8.0042E-05  0.0672
   1.1612E-01   1.1894E-01   6.6747E-05  0.0727
   1.1894E-01   1.2184E-01   8.6501E-05  0.0632
   1.2184E-01   1.2480E-01   7.1568E-05  0.0686
   1.2480E-01   1.2784E-01   7.2010E-05  0.0675
   1.2784E-01   1.3095E-01   7.4680E-05  0.0656
   1.3095E-01   1.3414E-01   6.6903E-05  0.0684
   1.3414E-01   1.3740E-01   6.6234E-05  0.0679
   1.3740E-01   1.4074E-01   6.2623E-05  0.0691
   1.4074E-01   1.4417E-01   6.1410E-05  0.0689
   1.4417E-01   1.4767E-01   6.2434E-05  0.0676
   1.4767E-01   1.5127E-01   6.1553E-05  0.0672
   1.5127E-01   1.5495E-01   5.2483E-05  0.0718
   1.5495E-01   1.5872E-01   5.7732E-05  0.0676
   1.5872E-01   1.6258E-01   5.6456E-05  0.0676
   1.6258E-01   1.6654E-01   5.6540E-05  0.0668
   1.6654E-01   1.7059E-01   6.1041E-05  0.0635
   1.7059E-01   1.7474E-01   5.5776E-05  0.0657
   1.7474E-01   1.7899E-01   5.6173E-05  0.0646
   1.7899E-01   1.8334E-01   4.5220E-05  0.0710
   1.8334E-01   1.8781E-01   4.1843E-05  0.0731
   1.8781E-01   1.9237E-01   4.1539E-05  0.0725
   1.9237E-01   1.9706E-01   4.3675E-05  0.0699
   1.9706E-01   2.0185E-01   4.3070E-05  0.0695
   2.0185E-01   2.0676E-01   4.3707E-05  0.0682
   2.0676E-01   2.1179E-01   4.4328E-05  0.0669
   2.1179E-01   2.1694E-01   4.8516E-05  0.0632
   2.1694E-01   2.2222E-01   4.7750E-05  0.0629
   2.2222E-01   2.2763E-01   4.9870E-05  0.0608
   2.2763E-01   2.3317E-01   4.9404E-05  0.0603
   2.3317E-01   2.3884E-01   4.6478E-05  0.0615
   2.3884E-01   2.4465E-01   4.8411E-05  0.0595
   2.4465E-01   2.5061E-01   4.9107E-05  0.0583
   2.5061E-01   2.5670E-01   5.3412E-05  0.0553
   2.5670E-01   2.6295E-01   4.9873E-05  0.0566
   2.6295E-01   2.6935E-01   5.4574E-05  0.0535
   2.6935E-01   2.7590E-01   5.0691E-05  0.0547
   2.7590E-01   2.8261E-01   5.1319E-05  0.0539
   2.8261E-01   2.8949E-01   5.5549E-05  0.0511
   2.8949E-01   2.9653E-01   5.6352E-05  0.0501
   2.9653E-01   3.0375E-01   5.5742E-05  0.0498
   3.0375E-01   3.1114E-01   5.2947E-05  0.0505
   3.1114E-01   3.1871E-01   5.2753E-05  0.0500
   3.1871E-01   3.2646E-01   5.8722E-05  0.0468
   3.2646E-01   3.3441E-01   5.4339E-05  0.0481
   3.3441E-01   3.4254E-01   5.8213E-05  0.0459
   3.4254E-01   3.5088E-01   4.9770E-05  0.0490
   3.5088E-01   3.5941E-01   6.3382E-05  0.0429
   3.5941E-01   3.6816E-01   5.3743E-05  0.0460
   3.6816E-01   3.7712E-01   5.8465E-05  0.0436
   3.7712E-01   3.8629E-01   5.4155E-05  0.0448
   3.8629E-01   3.9569E-01   5.7702E-05  0.0429
   3.9569E-01   4.0532E-01   5.7456E-05  0.0424
   4.0532E-01   4.1518E-01   5.9259E-05  0.0413
   4.1518E-01   4.2528E-01   5.8102E-05  0.0412
   4.2528E-01   4.3563E-01   6.0716E-05  0.0399
   4.3563E-01   4.4623E-01   5.7124E-05  0.0406
   4.4623E-01   4.5708E-01   5.5933E-05  0.0405
   4.5708E-01   4.6821E-01   5.8030E-05  0.0393
   4.6821E-01   4.7960E-01   5.6982E-05  0.0392
   4.7960E-01   4.9127E-01   5.1759E-05  0.0406
   4.9127E-01   5.0322E-01   5.8173E-05  0.0378
   5.0322E-01   5.1546E-01   5.8802E-05  0.0372
   5.1546E-01   5.2800E-01   5.8171E-05  0.0370
   5.2800E-01   5.4085E-01   5.9707E-05  0.0361
   5.4085E-01   5.5401E-01   5.3861E-05  0.0375
   5.5401E-01   5.6749E-01   5.7333E-05  0.0359
   5.6749E-01   5.8130E-01   6.0394E-05  0.0346
   5.8130E-01   5.9544E-01   5.9529E-05  0.0344
   5.9544E-01   6.0993E-01   5.6037E-05  0.0350
   6.0993E-01   6.2477E-01   5.5044E-05  0.0349
   6.2477E-01   6.3997E-01   5.3827E-05  0.0349
   6.3997E-01   6.5554E-01   5.7099E-05  0.0334
   6.5554E-01   6.7149E-01   5.5237E-05  0.0336
   6.7149E-01   6.8783E-01   5.5994E-05  0.0330
   6.8783E-01   7.0456E-01   5.6775E-05  0.0324
   7.0456E-01   7.2171E-01   5.7408E-05  0.0318
   7.2171E-01   7.3927E-01   5.6010E-05  0.0318
   7.3927E-01   7.5725E-01   5.6127E-05  0.0314
   7.5725E-01   7.7568E-01   5.3426E-05  0.0318
   7.7568E-01   7.9455E-01   5.4869E-05  0.0310
   7.9455E-01   8.1388E-01   5.2209E-05  0.0314
   8.1388E-01   8.3368E-01   5.1359E-05  0.0313
   8.3368E-01   8.5397E-01   4.8758E-05  0.0317
   8.5397E-01   8.7475E-01   4.9450E-05  0.0311
   8.7475E-01   8.9603E-01   5.0875E-05  0.0303
   8.9603E-01   9.1783E-01   5.0713E-05  0.0300
   9.1783E-01   9.4016E-01   4.9548E-05  0.0300
   9.4016E-01   9.6304E-01   4.7090E-05  0.0304
   9.6304E-01   9.8647E-01   4.4446E-05  0.0309
   9.8647E-01   1.0105E+00   4.2278E-05  0.0313
   1.0105E+00   1.0351E+00   4.3290E-05  0.0306
   1.0351E+00   1.0602E+00   4.0590E-05  0.0312
   1.0602E+00   1.0860E+00   4.5001E-05  0.0293
   1.0860E+00   1.1125E+00   3.7738E-05  0.0316
   1.1125E+00   1.1395E+00   3.9303E-05  0.0306
   1.1395E+00   1.1673E+00   3.7669E-05  0.0308
   1.1673E+00   1.1957E+00   3.6867E-05  0.0308
   1.1957E+00   1.2247E+00   3.6666E-05  0.0305
   1.2247E+00   1.2545E+00   3.5756E-05  0.0305
   1.2545E+00   1.2851E+00   3.4805E-05  0.0306
   1.2851E+00   1.3163E+00   3.3107E-05  0.0310
   1.3163E+00   1.3484E+00   3.2664E-05  0.0308
   1.3484E+00   1.3812E+00   3.0228E-05  0.0316
   1.3812E+00   1.4148E+00   2.9778E-05  0.0315
   1.4148E+00   1.4492E+00   3.0790E-05  0.0306
   1.4492E+00   1.4845E+00   2.8244E-05  0.0315
   1.4845E+00   1.5206E+00   2.9120E-05  0.0307
   1.5206E+00   1.5576E+00   2.6499E-05  0.0318
   1.5576E+00   1.5955E+00   2.7362E-05  0.0309
   1.5955E+00   1.6343E+00   2.6663E-05  0.0310
   1.6343E+00   1.6741E+00   2.5344E-05  0.0314
   1.6741E+00   1.7148E+00   2.5769E-05  0.0307
   1.7148E+00   1.7565E+00   2.3944E-05  0.0315
   1.7565E+00   1.7992E+00   2.4083E-05  0.0311
   1.7992E+00   1.8430E+00   2.3867E-05  0.0308
   1.8430E+00   1.8879E+00   2.2804E-05  0.0311
   1.8879E+00   1.9338E+00   2.1902E-05  0.0314
   1.9338E+00   1.9808E+00   2.1770E-05  0.0311
   1.9808E+00   2.0290E+00   2.0886E-05  0.0314
   2.0290E+00   2.0784E+00   2.1496E-05  0.0306
   2.0784E+00   2.1290E+00   2.0333E-05  0.0310
   2.1290E+00   2.1808E+00   2.0767E-05  0.0304
   2.1808E+00   2.2338E+00   1.9869E-05  0.0307
   2.2338E+00   2.2882E+00   1.7927E-05  0.0319
   2.2882E+00   2.3439E+00   1.8508E-05  0.0310
   2.3439E+00   2.4009E+00   1.8542E-05  0.0306
   2.4009E+00   2.4593E+00   1.8641E-05  0.0302
   2.4593E+00   2.5191E+00   1.7552E-05  0.0307
   2.5191E+00   2.5804E+00   1.7159E-05  0.0307
   2.5804E+00   2.6432E+00   1.6624E-05  0.0308
   2.6432E+00   2.7075E+00   1.6347E-05  0.0307
   2.7075E+00   2.7734E+00   1.6402E-05  0.0303
   2.7734E+00   2.8409E+00   1.5541E-05  0.0307
   2.8409E+00   2.9100E+00   1.5693E-05  0.0302
   2.9100E+00   2.9808E+00   1.5012E-05  0.0305
   2.9808E+00   3.0533E+00   1.4445E-05  0.0307
   3.0533E+00   3.1276E+00   1.4948E-05  0.0299
   3.1276E+00   3.2037E+00   1.4776E-05  0.0297
   3.2037E+00   3.2817E+00   1.3771E-05  0.0304
   3.2817E+00   3.3615E+00   1.4180E-05  0.0296
   3.3615E+00   3.4433E+00   1.4237E-05  0.0292
   3.4433E+00   3.5271E+00   1.2831E-05  0.0304
   3.5271E+00   3.6129E+00   1.2854E-05  0.0300
   3.6129E+00   3.7008E+00   1.2726E-05  0.0298
   3.7008E+00   3.7908E+00   1.2210E-05  0.0300
   3.7908E+00   3.8831E+00   1.2170E-05  0.0297
   3.8831E+00   3.9776E+00   1.1284E-05  0.0305
   3.9776E+00   4.0743E+00   1.1446E-05  0.0299
   4.0743E+00   4.1735E+00   1.0700E-05  0.0306
   4.1735E+00   4.2750E+00   1.0405E-05  0.0307
   4.2750E+00   4.3790E+00   1.0488E-05  0.0302
   4.3790E+00   4.4856E+00   1.0026E-05  0.0305
   4.4856E+00   4.5947E+00   9.8539E-06  0.0304
   4.5947E+00   4.7065E+00   1.0053E-05  0.0297
   4.7065E+00   4.8210E+00   9.1917E-06  0.0307
   4.8210E+00   4.9383E+00   8.3190E-06  0.0319
   4.9383E+00   5.0585E+00   8.1231E-06  0.0319
   5.0585E+00   5.1815E+00   8.0438E-06  0.0317
   5.1815E+00   5.3076E+00   7.6584E-06  0.0321
   5.3076E+00   5.4368E+00   7.5564E-06  0.0319
   5.4368E+00   5.5690E+00   7.0753E-06  0.0326
   5.5690E+00   5.7045E+00   7.0593E-06  0.0322
   5.7045E+00   5.8433E+00   6.6011E-06  0.0329
   5.8433E+00   5.9855E+00   6.6800E-06  0.0324
   5.9855E+00   6.1311E+00   6.0525E-06  0.0336
   6.1311E+00   6.2803E+00   5.6661E-06  0.0343
   6.2803E+00   6.4331E+00   5.5063E-06  0.0344
   6.4331E+00   6.5896E+00   5.0698E-06  0.0354
   6.5896E+00   6.7500E+00   4.7916E-06  0.0360
   6.7500E+00   6.9142E+00   4.4875E-06  0.0367
   6.9142E+00   7.0824E+00   4.4241E-06  0.0366
   7.0824E+00   7.2548E+00   4.0485E-06  0.0377
   7.2548E+00   7.4313E+00   3.7168E-06  0.0390
   7.4313E+00   7.6121E+00   3.6997E-06  0.0386
   7.6121E+00   7.7973E+00   3.5676E-06  0.0388
   7.7973E+00   7.9870E+00   3.3412E-06  0.0397
   7.9870E+00   8.1813E+00   3.3633E-06  0.0390
   8.1813E+00   8.3804E+00   2.9243E-06  0.0414
   8.3804E+00   8.5843E+00   2.8994E-06  0.0411
   8.5843E+00   8.7931E+00   2.5883E-06  0.0429
   8.7931E+00   9.0071E+00   2.5750E-06  0.0425
   9.0071E+00   9.2262E+00   2.2917E-06  0.0446
   9.2262E+00   9.4507E+00   2.2292E-06  0.0446
   9.4507E+00   9.6807E+00   2.0585E-06  0.0459
   9.6807E+00   9.9162E+00   1.9481E-06  0.0466
   9.9162E+00   1.0157E+01   1.8292E-06  0.0475
   1.0157E+01   1.0405E+01   1.6774E-06  0.0491
   1.0405E+01   1.0658E+01   1.6552E-06  0.0488
   1.0658E+01   1.0917E+01   1.5703E-06  0.0495
   1.0917E+01   1.1183E+01   1.6025E-06  0.0484
   1.1183E+01   1.1455E+01   1.2403E-06  0.0544
   1.1455E+01   1.1733E+01   1.2356E-06  0.0538
   1.1733E+01   1.2019E+01   1.2139E-06  0.0536
   1.2019E+01   1.2311E+01   1.1251E-06  0.0551
   1.2311E+01   1.2611E+01   1.0954E-06  0.0552
   1.2611E+01   1.2918E+01   1.0206E-06  0.0565
   1.2918E+01   1.3232E+01   8.9291E-07  0.0597
   1.3232E+01   1.3554E+01   8.7545E-07  0.0595
   1.3554E+01   1.3884E+01   8.0461E-07  0.0614
   1.3884E+01   1.4222E+01   7.4049E-07  0.0632
   1.4222E+01   1.4568E+01   7.1572E-07  0.0635
   1.4568E+01   1.4922E+01   6.8276E-07  0.0643
   1.4922E+01   1.5285E+01   5.7879E-07  0.0690
   1.5285E+01   1.5657E+01   5.2433E-07  0.0716
   1.5657E+01   1.6038E+01   4.8563E-07  0.0735
   1.6038E+01   1.6428E+01   4.3309E-07  0.0769
   1.6428E+01   1.6828E+01   3.6777E-07  0.0825
   1.6828E+01   1.7237E+01   3.5903E-07  0.0825
   1.7237E+01   1.7657E+01   3.4096E-07  0.0836
   1.7657E+01   1.8086E+01   2.9562E-07  0.0887
   1.8086E+01   1.8526E+01   2.8178E-07  0.0898
   1.8526E+01   1.8977E+01   2.3294E-07  0.0976
   1.8977E+01   1.9439E+01   1.8842E-07  0.1072
   1.9439E+01   1.9912E+01   1.9452E-07  0.1043
   1.9912E+01   2.0396E+01   1.5894E-07  0.1140
   2.0396E+01   2.0893E+01   1.2695E-07  0.1260
   2.0893E+01   2.1401E+01   1.2197E-07  0.1270
   2.1401E+01   2.1922E+01   1.1523E-07  0.1291
   2.1922E+01   2.2455E+01   1.0124E-07  0.1361
   2.2455E+01   2.3001E+01   8.6026E-08  0.1459
   2.3001E+01   2.3561E+01   7.3261E-08  0.1562
   2.3561E+01   2.4134E+01   5.9310E-08  0.1715
   2.4134E+01   2.4721E+01   5.4495E-08  0.1768
   2.4721E+01   2.5323E+01   5.3201E-08  0.1768
   2.5323E+01   2.5939E+01   4.0576E-08  0.2000
   2.5939E+01   2.6570E+01   4.1197E-08  0.1961
   2.6570E+01   2.7217E+01   2.6296E-08  0.2425
   2.7217E+01   2.7879E+01   3.9263E-08  0.1961
   2.7879E+01   2.8557E+01   1.3268E-08  0.3333
   2.8557E+01   2.9252E+01   2.4467E-08  0.2425
   2.9252E+01   2.9964E+01   1.8265E-08  0.2774
   2.9964E+01   3.0693E+01   1.3717E-08  0.3162
   3.0693E+01   3.1440E+01   2.1425E-08  0.2500
   3.1440E+01   3.2205E+01   1.5687E-08  0.2887
   3.2205E+01   3.2988E+01   8.9336E-09  0.3780
   3.2988E+01   3.3791E+01   6.2296E-09  0.4472
   3.3791E+01   3.4613E+01   7.2979E-09  0.4082
   3.4613E+01   3.5455E+01   1.3062E-08  0.3015
   3.5455E+01   3.6318E+01   6.9553E-09  0.4082
   3.6318E+01   3.7201E+01   6.7901E-09  0.4082
   3.7201E+01   3.8106E+01   7.7336E-09  0.3780
   3.8106E+01   3.9034E+01   1.0786E-09  1.0000
   3.9034E+01   3.9983E+01   5.2647E-09  0.4472
   3.9983E+01   4.0956E+01   1.0279E-09  1.0000
   4.0956E+01   4.1953E+01   2.0070E-09  0.7071
   4.1953E+01   4.2973E+01   0.0000E+00  0.0000
   4.2973E+01   4.4019E+01   0.0000E+00  0.0000
   4.4019E+01   4.5090E+01   1.8674E-09  0.7071
   4.5090E+01   4.6187E+01   0.0000E+00  0.0000
   4.6187E+01   4.7311E+01   3.5595E-09  0.5000
   4.7311E+01   4.8462E+01   1.7375E-09  0.7071
   4.8462E+01   4.9641E+01   1.6962E-09  0.7071
   4.9641E+01   5.0849E+01   0.0000E+00  0.0000
   5.0849E+01   5.2086E+01   8.0828E-10  1.0000
   5.2086E+01   5.3353E+01   0.0000E+00  0.0000
   5.3353E+01   5.4651E+01   0.0000E+00  0.0000
   5.4651E+01   5.5981E+01   0.0000E+00  0.0000
   5.5981E+01   5.7343E+01   0.0000E+00  0.0000
   5.7343E+01   5.8738E+01   0.0000E+00  0.0000
   5.8738E+01   6.0168E+01   0.0000E+00  0.0000
   6.0168E+01   6.1632E+01   0.0000E+00  0.0000
   6.1632E+01   6.3131E+01   6.6687E-10  1.0000
   6.3131E+01   6.4667E+01   0.0000E+00  0.0000
   6.4667E+01   6.6240E+01   6.3557E-10  1.0000
   6.6240E+01   6.7852E+01   0.0000E+00  0.0000
   6.7852E+01   6.9503E+01   0.0000E+00  0.0000
   6.9503E+01   7.1194E+01   0.0000E+00  0.0000
   7.1194E+01   7.2926E+01   0.0000E+00  0.0000
   7.2926E+01   7.4701E+01   0.0000E+00  0.0000
   7.4701E+01   7.6518E+01   0.0000E+00  0.0000
   7.6518E+01   7.8380E+01   0.0000E+00  0.0000
   7.8380E+01   8.0287E+01   0.0000E+00  0.0000
   8.0287E+01   8.2240E+01   0.0000E+00  0.0000
   8.2240E+01   8.4241E+01   0.0000E+00  0.0000
   8.4241E+01   8.6291E+01   0.0000E+00  0.0000
   8.6291E+01   8.8391E+01   0.0000E+00  0.0000
   8.8391E+01   9.0541E+01   0.0000E+00  0.0000
   9.0541E+01   9.2744E+01   0.0000E+00  0.0000
   9.2744E+01   9.5001E+01   0.0000E+00  0.0000
   9.5001E+01   9.7312E+01   0.0000E+00  0.0000
   9.7312E+01   9.9680E+01   0.0000E+00  0.0000
   9.9680E+01   1.0211E+02   0.0000E+00  0.0000
   1.0211E+02   1.0459E+02   0.0000E+00  0.0000
   1.0459E+02   1.0713E+02   0.0000E+00  0.0000
   1.0713E+02   1.0974E+02   0.0000E+00  0.0000
   1.0974E+02   1.1241E+02   0.0000E+00  0.0000
   1.1241E+02   1.1515E+02   0.0000E+00  0.0000
   1.1515E+02   1.1795E+02   0.0000E+00  0.0000
   1.1795E+02   1.2082E+02   0.0000E+00  0.0000
   1.2082E+02   1.2376E+02   0.0000E+00  0.0000
   1.2376E+02   1.2677E+02   0.0000E+00  0.0000
   1.2677E+02   1.2985E+02   0.0000E+00  0.0000
   1.2985E+02   1.3301E+02   0.0000E+00  0.0000
   1.3301E+02   1.3625E+02   0.0000E+00  0.0000
   1.3625E+02   1.3956E+02   0.0000E+00  0.0000
   1.3956E+02   1.4296E+02   0.0000E+00  0.0000
   1.4296E+02   1.4644E+02   0.0000E+00  0.0000
   1.4644E+02   1.5000E+02   0.0000E+00  0.0000

#   sum over                 1.0736E-06
'no. =    1   reg = 125 - 225'
msuc: {\huge [t-cross] in region mesh}
msdr: {\it plotted by \ANGEL \version}
msdl: {\it calculated by \PHITS  3.26}
wt: s(0.7)
\vspace{-3}
  region surface crossing
  area  &=&   1.0000E+00 [cm^2]
e:
 
# Information for Restart Calculation
# This calculation was newly started
# istdev =  2 # 1:Batch variance, 2:History variance
# resc2  = 1.00000000000000000E+09 # Total source weight or Total source weight / maxcas
# resc3  = 1.00000000000000000E+09 # Total history number or Total batch number
# maxcas =   500000000 # History / Batch, only used for istdev=1
# bitrseed = 0001001110011001001001110000100100110111001111011100001000101100 # bit data of rseed
