[ T-Cross ]
    title = [t-cross] in region mesh
     mesh =  reg            # mesh type is region-wise
      reg =    1            # number of crossing regions
      non     r-from    r-to       area
      1       111       211        1.000000    
   e-type =    3            # e-mesh is log given by emin, emax and ne
     emin =  1.0000000E-02  # minimum value of e-mesh points
     emax =   150.0000      # maximum value of e-mesh points
#    edel =  2.4039514E-02  # mesh width of e-mesh points
       ne =    400          # number of e-mesh points
#    data = ( e(i), i = 1, ne + 1 )
#           1.00000E-02  1.02433E-02  1.04925E-02  1.07478E-02  1.10093E-02
#           1.12772E-02  1.15516E-02  1.18326E-02  1.21205E-02  1.24154E-02
#           1.27175E-02  1.30269E-02  1.33439E-02  1.36686E-02  1.40011E-02
#           1.43418E-02  1.46907E-02  1.50482E-02  1.54143E-02  1.57894E-02
#           1.61735E-02  1.65670E-02  1.69701E-02  1.73830E-02  1.78060E-02
#           1.82392E-02  1.86830E-02  1.91375E-02  1.96032E-02  2.00801E-02
#           2.05687E-02  2.10692E-02  2.15818E-02  2.21069E-02  2.26448E-02
#           2.31957E-02  2.37601E-02  2.43382E-02  2.49304E-02  2.55369E-02
#           2.61583E-02  2.67947E-02  2.74467E-02  2.81145E-02  2.87985E-02
#           2.94992E-02  3.02169E-02  3.09521E-02  3.17052E-02  3.24766E-02
#           3.32668E-02  3.40762E-02  3.49053E-02  3.57546E-02  3.66246E-02
#           3.75157E-02  3.84284E-02  3.93634E-02  4.03212E-02  4.13022E-02
#           4.23071E-02  4.33365E-02  4.43909E-02  4.54710E-02  4.65773E-02
#           4.77106E-02  4.88714E-02  5.00605E-02  5.12785E-02  5.25262E-02
#           5.38042E-02  5.51133E-02  5.64542E-02  5.78278E-02  5.92348E-02
#           6.06760E-02  6.21523E-02  6.36645E-02  6.52135E-02  6.68002E-02
#           6.84255E-02  7.00904E-02  7.17957E-02  7.35426E-02  7.53319E-02
#           7.71648E-02  7.90423E-02  8.09655E-02  8.29354E-02  8.49533E-02
#           8.70203E-02  8.91376E-02  9.13064E-02  9.35279E-02  9.58035E-02
#           9.81345E-02  1.00522E-01  1.02968E-01  1.05473E-01  1.08040E-01
#           1.10668E-01  1.13361E-01  1.16119E-01  1.18944E-01  1.21838E-01
#           1.24803E-01  1.27839E-01  1.30950E-01  1.34136E-01  1.37399E-01
#           1.40742E-01  1.44167E-01  1.47675E-01  1.51268E-01  1.54948E-01
#           1.58718E-01  1.62580E-01  1.66535E-01  1.70587E-01  1.74738E-01
#           1.78989E-01  1.83344E-01  1.87805E-01  1.92375E-01  1.97055E-01
#           2.01850E-01  2.06761E-01  2.11792E-01  2.16945E-01  2.22223E-01
#           2.27630E-01  2.33169E-01  2.38842E-01  2.44653E-01  2.50605E-01
#           2.56703E-01  2.62949E-01  2.69346E-01  2.75900E-01  2.82613E-01
#           2.89489E-01  2.96532E-01  3.03747E-01  3.11138E-01  3.18708E-01
#           3.26462E-01  3.34405E-01  3.42542E-01  3.50876E-01  3.59413E-01
#           3.68158E-01  3.77116E-01  3.86291E-01  3.95690E-01  4.05317E-01
#           4.15179E-01  4.25281E-01  4.35628E-01  4.46227E-01  4.57084E-01
#           4.68205E-01  4.79597E-01  4.91266E-01  5.03219E-01  5.15463E-01
#           5.28005E-01  5.40851E-01  5.54011E-01  5.67490E-01  5.81298E-01
#           5.95441E-01  6.09929E-01  6.24769E-01  6.39970E-01  6.55541E-01
#           6.71491E-01  6.87828E-01  7.04564E-01  7.21706E-01  7.39266E-01
#           7.57253E-01  7.75678E-01  7.94551E-01  8.13883E-01  8.33685E-01
#           8.53969E-01  8.74747E-01  8.96030E-01  9.17831E-01  9.40163E-01
#           9.63038E-01  9.86469E-01  1.01047E+00  1.03506E+00  1.06024E+00
#           1.08604E+00  1.11246E+00  1.13953E+00  1.16725E+00  1.19565E+00
#           1.22474E+00  1.25454E+00  1.28507E+00  1.31633E+00  1.34836E+00
#           1.38117E+00  1.41477E+00  1.44920E+00  1.48446E+00  1.52057E+00
#           1.55757E+00  1.59547E+00  1.63429E+00  1.67405E+00  1.71478E+00
#           1.75650E+00  1.79924E+00  1.84302E+00  1.88786E+00  1.93379E+00
#           1.98084E+00  2.02904E+00  2.07841E+00  2.12898E+00  2.18078E+00
#           2.23384E+00  2.28819E+00  2.34386E+00  2.40089E+00  2.45930E+00
#           2.51914E+00  2.58043E+00  2.64322E+00  2.70753E+00  2.77341E+00
#           2.84088E+00  2.91001E+00  2.98081E+00  3.05333E+00  3.12762E+00
#           3.20372E+00  3.28167E+00  3.36152E+00  3.44330E+00  3.52708E+00
#           3.61290E+00  3.70080E+00  3.79085E+00  3.88308E+00  3.97756E+00
#           4.07434E+00  4.17347E+00  4.27501E+00  4.37903E+00  4.48557E+00
#           4.59471E+00  4.70650E+00  4.82102E+00  4.93832E+00  5.05847E+00
#           5.18155E+00  5.30762E+00  5.43676E+00  5.56904E+00  5.70453E+00
#           5.84333E+00  5.98550E+00  6.13114E+00  6.28031E+00  6.43312E+00
#           6.58964E+00  6.74997E+00  6.91420E+00  7.08243E+00  7.25475E+00
#           7.43126E+00  7.61207E+00  7.79728E+00  7.98700E+00  8.18133E+00
#           8.38038E+00  8.58428E+00  8.79315E+00  9.00709E+00  9.22624E+00
#           9.45072E+00  9.68067E+00  9.91620E+00  1.01575E+01  1.04046E+01
#           1.06578E+01  1.09171E+01  1.11827E+01  1.14548E+01  1.17335E+01
#           1.20190E+01  1.23114E+01  1.26109E+01  1.29178E+01  1.32321E+01
#           1.35540E+01  1.38838E+01  1.42216E+01  1.45676E+01  1.49221E+01
#           1.52851E+01  1.56570E+01  1.60380E+01  1.64282E+01  1.68279E+01
#           1.72374E+01  1.76568E+01  1.80864E+01  1.85264E+01  1.89772E+01
#           1.94389E+01  1.99119E+01  2.03963E+01  2.08926E+01  2.14009E+01
#           2.19216E+01  2.24550E+01  2.30014E+01  2.35610E+01  2.41343E+01
#           2.47215E+01  2.53230E+01  2.59391E+01  2.65702E+01  2.72167E+01
#           2.78789E+01  2.85572E+01  2.92520E+01  2.99637E+01  3.06928E+01
#           3.14396E+01  3.22045E+01  3.29881E+01  3.37907E+01  3.46128E+01
#           3.54550E+01  3.63177E+01  3.72013E+01  3.81064E+01  3.90336E+01
#           3.99833E+01  4.09561E+01  4.19526E+01  4.29734E+01  4.40189E+01
#           4.50900E+01  4.61870E+01  4.73108E+01  4.84619E+01  4.96410E+01
#           5.08488E+01  5.20860E+01  5.33533E+01  5.46514E+01  5.59812E+01
#           5.73432E+01  5.87384E+01  6.01676E+01  6.16315E+01  6.31311E+01
#           6.46671E+01  6.62405E+01  6.78522E+01  6.95031E+01  7.11941E+01
#           7.29263E+01  7.47007E+01  7.65182E+01  7.83800E+01  8.02870E+01
#           8.22405E+01  8.42414E+01  8.62911E+01  8.83906E+01  9.05412E+01
#           9.27442E+01  9.50007E+01  9.73122E+01  9.96799E+01  1.02105E+02
#           1.04589E+02  1.07134E+02  1.09741E+02  1.12411E+02  1.15146E+02
#           1.17948E+02  1.20817E+02  1.23757E+02  1.26768E+02  1.29852E+02
#           1.33012E+02  1.36248E+02  1.39563E+02  1.42959E+02  1.46437E+02
#           1.50000E+02
     unit =    2            # unit is [1/cm^2/(MeV/n)/source]
     axis =  eng            # axis of output
     file = detector-12.out  # file name of output for the above axis
   output = f-curr          # surface crossing forward current spectrum
     part =  neutron  
# kf/name :  2112     
#    used :        main (  %)        temp (  %)       total (  %)
#  memory :         414 (  0)           0 (  0)         414 (  0)

#------------------------------------------------------------------------------
#newpage:
#   no. =    1   reg = 111 - 211

x: Energy [MeV/n]
y:  F-Curr [1/cm^2/(MeV/n)/source]         
p: xlog ylog afac(0.8) form(0.9)
h: n            x            y(neutron ),hh0l   n 
#  e-lower      e-upper      neutron     r.err 
   1.0000E-02   1.0243E-02   7.8638E-04  0.0722
   1.0243E-02   1.0493E-02   9.0587E-04  0.0665
   1.0493E-02   1.0748E-02   9.8397E-04  0.0631
   1.0748E-02   1.1009E-02   8.2089E-04  0.0682
   1.1009E-02   1.1277E-02   8.1564E-04  0.0675
   1.1277E-02   1.1552E-02   7.6595E-04  0.0690
   1.1552E-02   1.1833E-02   7.4539E-04  0.0690
   1.1833E-02   1.2121E-02   7.5775E-04  0.0676
   1.2121E-02   1.2415E-02   8.6357E-04  0.0626
   1.2415E-02   1.2718E-02   7.6850E-04  0.0656
   1.2718E-02   1.3027E-02   7.5681E-04  0.0653
   1.3027E-02   1.3344E-02   8.1439E-04  0.0622
   1.3344E-02   1.3669E-02   7.8838E-04  0.0624
   1.3669E-02   1.4001E-02   7.3667E-04  0.0638
   1.4001E-02   1.4342E-02   7.5097E-04  0.0625
   1.4342E-02   1.4691E-02   6.9691E-04  0.0640
   1.4691E-02   1.5048E-02   6.9461E-04  0.0634
   1.5048E-02   1.5414E-02   6.5730E-04  0.0644
   1.5414E-02   1.5789E-02   6.6792E-04  0.0632
   1.5789E-02   1.6174E-02   7.0592E-04  0.0606
   1.6174E-02   1.6567E-02   6.7088E-04  0.0615
   1.6567E-02   1.6970E-02   6.9742E-04  0.0596
   1.6970E-02   1.7383E-02   6.7197E-04  0.0599
   1.7383E-02   1.7806E-02   6.4586E-04  0.0604
   1.7806E-02   1.8239E-02   7.0325E-04  0.0573
   1.8239E-02   1.8683E-02   7.1468E-04  0.0561
   1.8683E-02   1.9138E-02   6.5443E-04  0.0579
   1.9138E-02   1.9603E-02   5.8236E-04  0.0607
   1.9603E-02   2.0080E-02   7.0450E-04  0.0545
   2.0080E-02   2.0569E-02   7.3065E-04  0.0529
   2.0569E-02   2.1069E-02   6.4335E-04  0.0557
   2.1069E-02   2.1582E-02   6.0342E-04  0.0568
   2.1582E-02   2.2107E-02   6.6977E-04  0.0533
   2.2107E-02   2.2645E-02   6.5018E-04  0.0534
   2.2645E-02   2.3196E-02   6.2133E-04  0.0540
   2.3196E-02   2.3760E-02   6.2902E-04  0.0530
   2.3760E-02   2.4338E-02   5.9997E-04  0.0536
   2.4338E-02   2.4930E-02   5.9646E-04  0.0532
   2.4930E-02   2.5537E-02   5.5669E-04  0.0544
   2.5537E-02   2.6158E-02   6.1023E-04  0.0515
   2.6158E-02   2.6795E-02   6.3500E-04  0.0498
   2.6795E-02   2.7447E-02   6.1586E-04  0.0499
   2.7447E-02   2.8114E-02   5.6797E-04  0.0513
   2.8114E-02   2.8799E-02   5.2531E-04  0.0527
   2.8799E-02   2.9499E-02   6.0917E-04  0.0484
   2.9499E-02   3.0217E-02   5.1969E-04  0.0518
   3.0217E-02   3.0952E-02   4.9621E-04  0.0523
   3.0952E-02   3.1705E-02   5.3778E-04  0.0497
   3.1705E-02   3.2477E-02   5.3621E-04  0.0491
   3.2477E-02   3.3267E-02   5.1802E-04  0.0493
   3.3267E-02   3.4076E-02   5.6688E-04  0.0467
   3.4076E-02   3.4905E-02   4.8340E-04  0.0499
   3.4905E-02   3.5755E-02   4.8823E-04  0.0491
   3.5755E-02   3.6625E-02   5.4288E-04  0.0460
   3.6625E-02   3.7516E-02   5.2610E-04  0.0462
   3.7516E-02   3.8428E-02   4.8025E-04  0.0477
   3.8428E-02   3.9363E-02   4.9025E-04  0.0467
   3.9363E-02   4.0321E-02   4.9687E-04  0.0457
   4.0321E-02   4.1302E-02   4.9715E-04  0.0452
   4.1302E-02   4.2307E-02   4.9584E-04  0.0448
   4.2307E-02   4.3337E-02   4.8542E-04  0.0447
   4.3337E-02   4.4391E-02   4.4240E-04  0.0462
   4.4391E-02   4.5471E-02   4.8171E-04  0.0438
   4.5471E-02   4.6577E-02   4.7775E-04  0.0434
   4.6577E-02   4.7711E-02   4.9422E-04  0.0422
   4.7711E-02   4.8871E-02   5.1082E-04  0.0410
   4.8871E-02   5.0061E-02   4.4628E-04  0.0434
   5.0061E-02   5.1279E-02   4.8035E-04  0.0413
   5.1279E-02   5.2526E-02   4.5224E-04  0.0421
   5.2526E-02   5.3804E-02   4.4916E-04  0.0417
   5.3804E-02   5.5113E-02   4.6146E-04  0.0407
   5.5113E-02   5.6454E-02   4.4826E-04  0.0407
   5.6454E-02   5.7828E-02   4.4191E-04  0.0406
   5.7828E-02   5.9235E-02   4.6144E-04  0.0392
   5.9235E-02   6.0676E-02   4.3829E-04  0.0398
   6.0676E-02   6.2152E-02   3.7938E-04  0.0422
   6.2152E-02   6.3665E-02   3.9157E-04  0.0411
   6.3665E-02   6.5214E-02   3.6883E-04  0.0418
   6.5214E-02   6.6800E-02   3.8318E-04  0.0405
   6.6800E-02   6.8426E-02   3.9490E-04  0.0394
   6.8426E-02   7.0090E-02   3.9179E-04  0.0391
   7.0090E-02   7.1796E-02   3.6626E-04  0.0400
   7.1796E-02   7.3543E-02   3.8869E-04  0.0383
   7.3543E-02   7.5332E-02   3.5226E-04  0.0398
   7.5332E-02   7.7165E-02   3.6317E-04  0.0387
   7.7165E-02   7.9042E-02   3.5550E-04  0.0387
   7.9042E-02   8.0965E-02   3.5662E-04  0.0381
   8.0965E-02   8.2935E-02   3.6786E-04  0.0371
   8.2935E-02   8.4953E-02   3.1992E-04  0.0393
   8.4953E-02   8.7020E-02   3.1743E-04  0.0391
   8.7020E-02   8.9138E-02   3.4556E-04  0.0369
   8.9138E-02   9.1306E-02   3.2595E-04  0.0376
   9.1306E-02   9.3528E-02   3.2051E-04  0.0374
   9.3528E-02   9.5804E-02   3.0695E-04  0.0378
   9.5804E-02   9.8134E-02   3.2341E-04  0.0363
   9.8134E-02   1.0052E-01   3.0857E-04  0.0368
   1.0052E-01   1.0297E-01   3.0556E-04  0.0365
   1.0297E-01   1.0547E-01   3.0708E-04  0.0360
   1.0547E-01   1.0804E-01   3.1248E-04  0.0353
   1.0804E-01   1.1067E-01   2.6540E-04  0.0378
   1.1067E-01   1.1336E-01   2.7876E-04  0.0365
   1.1336E-01   1.1612E-01   2.9342E-04  0.0351
   1.1612E-01   1.1894E-01   2.6566E-04  0.0364
   1.1894E-01   1.2184E-01   2.6398E-04  0.0361
   1.2184E-01   1.2480E-01   2.5998E-04  0.0360
   1.2480E-01   1.2784E-01   2.5903E-04  0.0356
   1.2784E-01   1.3095E-01   2.5017E-04  0.0358
   1.3095E-01   1.3414E-01   2.6052E-04  0.0347
   1.3414E-01   1.3740E-01   2.3949E-04  0.0357
   1.3740E-01   1.4074E-01   2.4977E-04  0.0346
   1.4074E-01   1.4417E-01   2.3870E-04  0.0349
   1.4417E-01   1.4767E-01   2.5044E-04  0.0337
   1.4767E-01   1.5127E-01   2.2722E-04  0.0350
   1.5127E-01   1.5495E-01   2.3091E-04  0.0343
   1.5495E-01   1.5872E-01   2.2231E-04  0.0345
   1.5872E-01   1.6258E-01   2.2640E-04  0.0338
   1.6258E-01   1.6654E-01   2.1378E-04  0.0344
   1.6654E-01   1.7059E-01   2.1032E-04  0.0342
   1.7059E-01   1.7474E-01   2.1629E-04  0.0333
   1.7474E-01   1.7899E-01   1.9724E-04  0.0345
   1.7899E-01   1.8334E-01   1.9441E-04  0.0343
   1.8334E-01   1.8781E-01   2.0582E-04  0.0330
   1.8781E-01   1.9237E-01   1.9770E-04  0.0332
   1.9237E-01   1.9706E-01   1.8884E-04  0.0336
   1.9706E-01   2.0185E-01   1.7586E-04  0.0344
   2.0185E-01   2.0676E-01   1.8622E-04  0.0330
   2.0676E-01   2.1179E-01   1.8596E-04  0.0326
   2.1179E-01   2.1694E-01   1.9966E-04  0.0311
   2.1694E-01   2.2222E-01   1.9106E-04  0.0315
   2.2222E-01   2.2763E-01   1.9803E-04  0.0305
   2.2763E-01   2.3317E-01   2.0512E-04  0.0296
   2.3317E-01   2.3884E-01   2.1088E-04  0.0289
   2.3884E-01   2.4465E-01   2.2498E-04  0.0276
   2.4465E-01   2.5061E-01   2.2113E-04  0.0275
   2.5061E-01   2.5670E-01   2.2742E-04  0.0268
   2.5670E-01   2.6295E-01   2.2362E-04  0.0267
   2.6295E-01   2.6935E-01   2.4023E-04  0.0255
   2.6935E-01   2.7590E-01   2.4043E-04  0.0252
   2.7590E-01   2.8261E-01   2.4229E-04  0.0248
   2.8261E-01   2.8949E-01   2.5743E-04  0.0237
   2.8949E-01   2.9653E-01   2.6280E-04  0.0232
   2.9653E-01   3.0375E-01   2.5524E-04  0.0233
   3.0375E-01   3.1114E-01   2.6573E-04  0.0225
   3.1114E-01   3.1871E-01   2.7302E-04  0.0220
   3.1871E-01   3.2646E-01   2.7259E-04  0.0217
   3.2646E-01   3.3441E-01   2.7310E-04  0.0214
   3.3441E-01   3.4254E-01   2.7795E-04  0.0210
   3.4254E-01   3.5088E-01   2.7900E-04  0.0207
   3.5088E-01   3.5941E-01   2.8556E-04  0.0202
   3.5941E-01   3.6816E-01   2.8499E-04  0.0200
   3.6816E-01   3.7712E-01   3.0842E-04  0.0190
   3.7712E-01   3.8629E-01   3.1036E-04  0.0187
   3.8629E-01   3.9569E-01   3.1128E-04  0.0185
   3.9569E-01   4.0532E-01   3.1267E-04  0.0182
   4.0532E-01   4.1518E-01   3.1201E-04  0.0180
   4.1518E-01   4.2528E-01   3.1493E-04  0.0177
   4.2528E-01   4.3563E-01   3.2437E-04  0.0172
   4.3563E-01   4.4623E-01   3.2721E-04  0.0170
   4.4623E-01   4.5708E-01   3.3906E-04  0.0165
   4.5708E-01   4.6821E-01   3.2993E-04  0.0165
   4.6821E-01   4.7960E-01   3.4131E-04  0.0160
   4.7960E-01   4.9127E-01   3.4646E-04  0.0157
   4.9127E-01   5.0322E-01   3.5705E-04  0.0153
   5.0322E-01   5.1546E-01   3.4551E-04  0.0154
   5.1546E-01   5.2800E-01   3.6047E-04  0.0148
   5.2800E-01   5.4085E-01   3.5269E-04  0.0148
   5.4085E-01   5.5401E-01   3.6399E-04  0.0144
   5.5401E-01   5.6749E-01   3.5840E-04  0.0144
   5.6749E-01   5.8130E-01   3.6976E-04  0.0140
   5.8130E-01   5.9544E-01   3.7370E-04  0.0137
   5.9544E-01   6.0993E-01   3.8249E-04  0.0134
   6.0993E-01   6.2477E-01   3.7535E-04  0.0134
   6.2477E-01   6.3997E-01   3.7742E-04  0.0132
   6.3997E-01   6.5554E-01   3.8402E-04  0.0129
   6.5554E-01   6.7149E-01   3.8181E-04  0.0128
   6.7149E-01   6.8783E-01   3.9053E-04  0.0125
   6.8783E-01   7.0456E-01   3.8880E-04  0.0124
   7.0456E-01   7.2171E-01   3.9598E-04  0.0121
   7.2171E-01   7.3927E-01   3.9474E-04  0.0120
   7.3927E-01   7.5725E-01   3.9390E-04  0.0119
   7.5725E-01   7.7568E-01   3.9244E-04  0.0117
   7.7568E-01   7.9455E-01   3.9200E-04  0.0116
   7.9455E-01   8.1388E-01   3.9157E-04  0.0115
   8.1388E-01   8.3368E-01   3.9662E-04  0.0113
   8.3368E-01   8.5397E-01   3.9341E-04  0.0112
   8.5397E-01   8.7475E-01   3.8258E-04  0.0112
   8.7475E-01   8.9603E-01   3.8532E-04  0.0110
   8.9603E-01   9.1783E-01   3.7569E-04  0.0110
   9.1783E-01   9.4016E-01   3.7866E-04  0.0109
   9.4016E-01   9.6304E-01   3.6593E-04  0.0109
   9.6304E-01   9.8647E-01   3.6845E-04  0.0107
   9.8647E-01   1.0105E+00   3.5630E-04  0.0108
   1.0105E+00   1.0351E+00   3.6316E-04  0.0106
   1.0351E+00   1.0602E+00   3.5850E-04  0.0105
   1.0602E+00   1.0860E+00   3.6778E-04  0.0102
   1.0860E+00   1.1125E+00   3.6598E-04  0.0102
   1.1125E+00   1.1395E+00   3.7371E-04  0.0099
   1.1395E+00   1.1673E+00   3.7879E-04  0.0097
   1.1673E+00   1.1957E+00   3.8872E-04  0.0095
   1.1957E+00   1.2247E+00   3.9671E-04  0.0093
   1.2247E+00   1.2545E+00   3.9545E-04  0.0092
   1.2545E+00   1.2851E+00   4.0398E-04  0.0090
   1.2851E+00   1.3163E+00   3.9570E-04  0.0090
   1.3163E+00   1.3484E+00   4.0416E-04  0.0088
   1.3484E+00   1.3812E+00   4.1330E-04  0.0086
   1.3812E+00   1.4148E+00   4.2365E-04  0.0084
   1.4148E+00   1.4492E+00   4.2424E-04  0.0083
   1.4492E+00   1.4845E+00   4.1953E-04  0.0082
   1.4845E+00   1.5206E+00   4.3302E-04  0.0080
   1.5206E+00   1.5576E+00   4.3249E-04  0.0079
   1.5576E+00   1.5955E+00   4.3053E-04  0.0078
   1.5955E+00   1.6343E+00   4.3517E-04  0.0077
   1.6343E+00   1.6741E+00   4.3908E-04  0.0075
   1.6741E+00   1.7148E+00   4.4769E-04  0.0074
   1.7148E+00   1.7565E+00   4.4706E-04  0.0073
   1.7565E+00   1.7992E+00   4.5285E-04  0.0072
   1.7992E+00   1.8430E+00   4.4969E-04  0.0071
   1.8430E+00   1.8879E+00   4.5275E-04  0.0070
   1.8879E+00   1.9338E+00   4.5135E-04  0.0069
   1.9338E+00   1.9808E+00   4.5429E-04  0.0068
   1.9808E+00   2.0290E+00   4.5681E-04  0.0067
   2.0290E+00   2.0784E+00   4.5383E-04  0.0067
   2.0784E+00   2.1290E+00   4.5723E-04  0.0066
   2.1290E+00   2.1808E+00   4.5409E-04  0.0065
   2.1808E+00   2.2338E+00   4.5183E-04  0.0064
   2.2338E+00   2.2882E+00   4.5064E-04  0.0064
   2.2882E+00   2.3439E+00   4.5183E-04  0.0063
   2.3439E+00   2.4009E+00   4.5349E-04  0.0062
   2.4009E+00   2.4593E+00   4.5344E-04  0.0061
   2.4593E+00   2.5191E+00   4.4852E-04  0.0061
   2.5191E+00   2.5804E+00   4.5123E-04  0.0060
   2.5804E+00   2.6432E+00   4.4222E-04  0.0060
   2.6432E+00   2.7075E+00   4.4023E-04  0.0059
   2.7075E+00   2.7734E+00   4.3632E-04  0.0059
   2.7734E+00   2.8409E+00   4.3524E-04  0.0058
   2.8409E+00   2.9100E+00   4.3714E-04  0.0057
   2.9100E+00   2.9808E+00   4.3551E-04  0.0057
   2.9808E+00   3.0533E+00   4.2972E-04  0.0057
   3.0533E+00   3.1276E+00   4.3003E-04  0.0056
   3.1276E+00   3.2037E+00   4.2111E-04  0.0056
   3.2037E+00   3.2817E+00   4.1788E-04  0.0055
   3.2817E+00   3.3615E+00   4.1495E-04  0.0055
   3.3615E+00   3.4433E+00   4.0726E-04  0.0055
   3.4433E+00   3.5271E+00   4.0421E-04  0.0054
   3.5271E+00   3.6129E+00   3.9888E-04  0.0054
   3.6129E+00   3.7008E+00   3.9537E-04  0.0054
   3.7008E+00   3.7908E+00   3.8767E-04  0.0053
   3.7908E+00   3.8831E+00   3.8279E-04  0.0053
   3.8831E+00   3.9776E+00   3.7441E-04  0.0053
   3.9776E+00   4.0743E+00   3.7377E-04  0.0052
   4.0743E+00   4.1735E+00   3.6800E-04  0.0052
   4.1735E+00   4.2750E+00   3.6230E-04  0.0052
   4.2750E+00   4.3790E+00   3.5957E-04  0.0052
   4.3790E+00   4.4856E+00   3.5481E-04  0.0051
   4.4856E+00   4.5947E+00   3.5093E-04  0.0051
   4.5947E+00   4.7065E+00   3.4575E-04  0.0051
   4.7065E+00   4.8210E+00   3.4074E-04  0.0051
   4.8210E+00   4.9383E+00   3.4042E-04  0.0050
   4.9383E+00   5.0585E+00   3.3015E-04  0.0050
   5.0585E+00   5.1815E+00   3.2651E-04  0.0050
   5.1815E+00   5.3076E+00   3.2038E-04  0.0050
   5.3076E+00   5.4368E+00   3.1462E-04  0.0050
   5.4368E+00   5.5690E+00   3.0729E-04  0.0050
   5.5690E+00   5.7045E+00   3.0076E-04  0.0049
   5.7045E+00   5.8433E+00   2.9295E-04  0.0050
   5.8433E+00   5.9855E+00   2.8956E-04  0.0049
   5.9855E+00   6.1311E+00   2.8433E-04  0.0049
   6.1311E+00   6.2803E+00   2.7985E-04  0.0049
   6.2803E+00   6.4331E+00   2.7157E-04  0.0049
   6.4331E+00   6.5896E+00   2.6508E-04  0.0049
   6.5896E+00   6.7500E+00   2.5548E-04  0.0049
   6.7500E+00   6.9142E+00   2.5248E-04  0.0049
   6.9142E+00   7.0824E+00   2.4872E-04  0.0049
   7.0824E+00   7.2548E+00   2.4324E-04  0.0049
   7.2548E+00   7.4313E+00   2.3715E-04  0.0049
   7.4313E+00   7.6121E+00   2.3181E-04  0.0049
   7.6121E+00   7.7973E+00   2.2381E-04  0.0049
   7.7973E+00   7.9870E+00   2.1861E-04  0.0049
   7.9870E+00   8.1813E+00   2.1257E-04  0.0049
   8.1813E+00   8.3804E+00   2.0709E-04  0.0049
   8.3804E+00   8.5843E+00   2.0150E-04  0.0049
   8.5843E+00   8.7931E+00   1.9565E-04  0.0049
   8.7931E+00   9.0071E+00   1.8835E-04  0.0050
   9.0071E+00   9.2262E+00   1.8352E-04  0.0050
   9.2262E+00   9.4507E+00   1.7830E-04  0.0050
   9.4507E+00   9.6807E+00   1.7466E-04  0.0050
   9.6807E+00   9.9162E+00   1.6872E-04  0.0050
   9.9162E+00   1.0157E+01   1.6419E-04  0.0050
   1.0157E+01   1.0405E+01   1.5894E-04  0.0050
   1.0405E+01   1.0658E+01   1.5569E-04  0.0050
   1.0658E+01   1.0917E+01   1.5125E-04  0.0050
   1.0917E+01   1.1183E+01   1.4768E-04  0.0050
   1.1183E+01   1.1455E+01   1.4102E-04  0.0051
   1.1455E+01   1.1733E+01   1.3808E-04  0.0051
   1.1733E+01   1.2019E+01   1.3456E-04  0.0051
   1.2019E+01   1.2311E+01   1.2830E-04  0.0052
   1.2311E+01   1.2611E+01   1.2586E-04  0.0052
   1.2611E+01   1.2918E+01   1.2020E-04  0.0052
   1.2918E+01   1.3232E+01   1.1697E-04  0.0052
   1.3232E+01   1.3554E+01   1.1157E-04  0.0053
   1.3554E+01   1.3884E+01   1.0881E-04  0.0053
   1.3884E+01   1.4222E+01   1.0388E-04  0.0053
   1.4222E+01   1.4568E+01   1.0089E-04  0.0054
   1.4568E+01   1.4922E+01   9.8461E-05  0.0054
   1.4922E+01   1.5285E+01   9.4194E-05  0.0054
   1.5285E+01   1.5657E+01   9.0514E-05  0.0055
   1.5657E+01   1.6038E+01   8.6945E-05  0.0055
   1.6038E+01   1.6428E+01   8.4270E-05  0.0055
   1.6428E+01   1.6828E+01   8.0691E-05  0.0056
   1.6828E+01   1.7237E+01   7.7610E-05  0.0056
   1.7237E+01   1.7657E+01   7.4193E-05  0.0057
   1.7657E+01   1.8086E+01   7.1564E-05  0.0057
   1.8086E+01   1.8526E+01   6.9205E-05  0.0057
   1.8526E+01   1.8977E+01   6.5824E-05  0.0058
   1.8977E+01   1.9439E+01   6.3459E-05  0.0058
   1.9439E+01   1.9912E+01   6.2054E-05  0.0058
   1.9912E+01   2.0396E+01   6.0365E-05  0.0058
   2.0396E+01   2.0893E+01   5.8347E-05  0.0059
   2.0893E+01   2.1401E+01   5.5003E-05  0.0060
   2.1401E+01   2.1922E+01   5.2998E-05  0.0060
   2.1922E+01   2.2455E+01   4.9909E-05  0.0061
   2.2455E+01   2.3001E+01   4.7786E-05  0.0062
   2.3001E+01   2.3561E+01   4.5501E-05  0.0063
   2.3561E+01   2.4134E+01   4.3255E-05  0.0064
   2.4134E+01   2.4721E+01   4.0686E-05  0.0065
   2.4721E+01   2.5323E+01   3.8260E-05  0.0066
   2.5323E+01   2.5939E+01   3.6679E-05  0.0067
   2.5939E+01   2.6570E+01   3.4963E-05  0.0067
   2.6570E+01   2.7217E+01   3.2696E-05  0.0069
   2.7217E+01   2.7879E+01   3.0904E-05  0.0070
   2.7879E+01   2.8557E+01   2.9044E-05  0.0071
   2.8557E+01   2.9252E+01   2.7249E-05  0.0073
   2.9252E+01   2.9964E+01   2.5556E-05  0.0074
   2.9964E+01   3.0693E+01   2.3550E-05  0.0076
   3.0693E+01   3.1440E+01   2.2443E-05  0.0077
   3.1440E+01   3.2205E+01   2.0855E-05  0.0079
   3.2205E+01   3.2988E+01   1.9111E-05  0.0082
   3.2988E+01   3.3791E+01   1.7969E-05  0.0083
   3.3791E+01   3.4613E+01   1.6538E-05  0.0086
   3.4613E+01   3.5455E+01   1.5100E-05  0.0089
   3.5455E+01   3.6318E+01   1.4082E-05  0.0091
   3.6318E+01   3.7201E+01   1.2936E-05  0.0094
   3.7201E+01   3.8106E+01   1.1789E-05  0.0097
   3.8106E+01   3.9034E+01   1.0843E-05  0.0100
   3.9034E+01   3.9983E+01   9.6439E-06  0.0104
   3.9983E+01   4.0956E+01   8.9615E-06  0.0107
   4.0956E+01   4.1953E+01   8.1897E-06  0.0111
   4.1953E+01   4.2973E+01   7.2124E-06  0.0117
   4.2973E+01   4.4019E+01   6.5332E-06  0.0121
   4.4019E+01   4.5090E+01   5.8720E-06  0.0126
   4.5090E+01   4.6187E+01   5.3187E-06  0.0131
   4.6187E+01   4.7311E+01   4.6166E-06  0.0139
   4.7311E+01   4.8462E+01   4.2333E-06  0.0143
   4.8462E+01   4.9641E+01   3.7138E-06  0.0151
   4.9641E+01   5.0849E+01   3.2894E-06  0.0159
   5.0849E+01   5.2086E+01   2.7538E-06  0.0171
   5.2086E+01   5.3353E+01   2.5061E-06  0.0177
   5.3353E+01   5.4651E+01   2.2224E-06  0.0186
   5.4651E+01   5.5981E+01   1.9170E-06  0.0198
   5.5981E+01   5.7343E+01   1.6350E-06  0.0212
   5.7343E+01   5.8738E+01   1.4550E-06  0.0222
   5.8738E+01   6.0168E+01   1.2133E-06  0.0240
   6.0168E+01   6.1632E+01   1.1093E-06  0.0248
   6.1632E+01   6.3131E+01   8.7893E-07  0.0275
   6.3131E+01   6.4667E+01   7.4999E-07  0.0295
   6.4667E+01   6.6240E+01   6.6989E-07  0.0308
   6.6240E+01   6.7852E+01   5.5408E-07  0.0335
   6.7852E+01   6.9503E+01   4.8277E-07  0.0354
   6.9503E+01   7.1194E+01   4.3878E-07  0.0367
   7.1194E+01   7.2926E+01   3.5157E-07  0.0405
   7.2926E+01   7.4701E+01   2.7052E-07  0.0456
   7.4701E+01   7.6518E+01   2.4539E-07  0.0474
   7.6518E+01   7.8380E+01   1.7564E-07  0.0553
   7.8380E+01   8.0287E+01   1.2218E-07  0.0655
   8.0287E+01   8.2240E+01   9.6240E-08  0.0729
   8.2240E+01   8.4241E+01   5.6472E-08  0.0941
   8.4241E+01   8.6291E+01   3.3664E-08  0.1204
   8.6291E+01   8.8391E+01   1.9052E-08  0.1581
   8.8391E+01   9.0541E+01   1.1160E-08  0.2041
   9.0541E+01   9.2744E+01   3.1776E-09  0.3780
   9.2744E+01   9.5001E+01   1.7726E-09  0.5000
   9.5001E+01   9.7312E+01   4.3263E-10  1.0000
   9.7312E+01   9.9680E+01   0.0000E+00  0.0000
   9.9680E+01   1.0211E+02   0.0000E+00  0.0000
   1.0211E+02   1.0459E+02   0.0000E+00  0.0000
   1.0459E+02   1.0713E+02   0.0000E+00  0.0000
   1.0713E+02   1.0974E+02   0.0000E+00  0.0000
   1.0974E+02   1.1241E+02   0.0000E+00  0.0000
   1.1241E+02   1.1515E+02   0.0000E+00  0.0000
   1.1515E+02   1.1795E+02   0.0000E+00  0.0000
   1.1795E+02   1.2082E+02   0.0000E+00  0.0000
   1.2082E+02   1.2376E+02   0.0000E+00  0.0000
   1.2376E+02   1.2677E+02   0.0000E+00  0.0000
   1.2677E+02   1.2985E+02   0.0000E+00  0.0000
   1.2985E+02   1.3301E+02   0.0000E+00  0.0000
   1.3301E+02   1.3625E+02   0.0000E+00  0.0000
   1.3625E+02   1.3956E+02   0.0000E+00  0.0000
   1.3956E+02   1.4296E+02   0.0000E+00  0.0000
   1.4296E+02   1.4644E+02   0.0000E+00  0.0000
   1.4644E+02   1.5000E+02   0.0000E+00  0.0000

#   sum over                 3.2004E-05
'no. =    1   reg = 111 - 211'
msuc: {\huge [t-cross] in region mesh}
msdr: {\it plotted by \ANGEL \version}
msdl: {\it calculated by \PHITS  3.26}
wt: s(0.7)
\vspace{-3}
  region surface crossing
  area  &=&   1.0000E+00 [cm^2]
e:
 
# Information for Restart Calculation
# This calculation was newly started
# istdev =  2 # 1:Batch variance, 2:History variance
# resc2  = 1.00000000000000000E+09 # Total source weight or Total source weight / maxcas
# resc3  = 1.00000000000000000E+09 # Total history number or Total batch number
# maxcas =   500000000 # History / Batch, only used for istdev=1
# bitrseed = 0001001110011001001001110000100100110111001111011100001000101100 # bit data of rseed
