[ T-Cross ]
    title = [t-cross] in region mesh
     mesh =  reg            # mesh type is region-wise
      reg =    1            # number of crossing regions
      non     r-from    r-to       area
      1       100       200        1.000000    
   e-type =    3            # e-mesh is log given by emin, emax and ne
     emin =  1.0000000E-02  # minimum value of e-mesh points
     emax =   150.0000      # maximum value of e-mesh points
#    edel =  2.4039514E-02  # mesh width of e-mesh points
       ne =    400          # number of e-mesh points
#    data = ( e(i), i = 1, ne + 1 )
#           1.00000E-02  1.02433E-02  1.04925E-02  1.07478E-02  1.10093E-02
#           1.12772E-02  1.15516E-02  1.18326E-02  1.21205E-02  1.24154E-02
#           1.27175E-02  1.30269E-02  1.33439E-02  1.36686E-02  1.40011E-02
#           1.43418E-02  1.46907E-02  1.50482E-02  1.54143E-02  1.57894E-02
#           1.61735E-02  1.65670E-02  1.69701E-02  1.73830E-02  1.78060E-02
#           1.82392E-02  1.86830E-02  1.91375E-02  1.96032E-02  2.00801E-02
#           2.05687E-02  2.10692E-02  2.15818E-02  2.21069E-02  2.26448E-02
#           2.31957E-02  2.37601E-02  2.43382E-02  2.49304E-02  2.55369E-02
#           2.61583E-02  2.67947E-02  2.74467E-02  2.81145E-02  2.87985E-02
#           2.94992E-02  3.02169E-02  3.09521E-02  3.17052E-02  3.24766E-02
#           3.32668E-02  3.40762E-02  3.49053E-02  3.57546E-02  3.66246E-02
#           3.75157E-02  3.84284E-02  3.93634E-02  4.03212E-02  4.13022E-02
#           4.23071E-02  4.33365E-02  4.43909E-02  4.54710E-02  4.65773E-02
#           4.77106E-02  4.88714E-02  5.00605E-02  5.12785E-02  5.25262E-02
#           5.38042E-02  5.51133E-02  5.64542E-02  5.78278E-02  5.92348E-02
#           6.06760E-02  6.21523E-02  6.36645E-02  6.52135E-02  6.68002E-02
#           6.84255E-02  7.00904E-02  7.17957E-02  7.35426E-02  7.53319E-02
#           7.71648E-02  7.90423E-02  8.09655E-02  8.29354E-02  8.49533E-02
#           8.70203E-02  8.91376E-02  9.13064E-02  9.35279E-02  9.58035E-02
#           9.81345E-02  1.00522E-01  1.02968E-01  1.05473E-01  1.08040E-01
#           1.10668E-01  1.13361E-01  1.16119E-01  1.18944E-01  1.21838E-01
#           1.24803E-01  1.27839E-01  1.30950E-01  1.34136E-01  1.37399E-01
#           1.40742E-01  1.44167E-01  1.47675E-01  1.51268E-01  1.54948E-01
#           1.58718E-01  1.62580E-01  1.66535E-01  1.70587E-01  1.74738E-01
#           1.78989E-01  1.83344E-01  1.87805E-01  1.92375E-01  1.97055E-01
#           2.01850E-01  2.06761E-01  2.11792E-01  2.16945E-01  2.22223E-01
#           2.27630E-01  2.33169E-01  2.38842E-01  2.44653E-01  2.50605E-01
#           2.56703E-01  2.62949E-01  2.69346E-01  2.75900E-01  2.82613E-01
#           2.89489E-01  2.96532E-01  3.03747E-01  3.11138E-01  3.18708E-01
#           3.26462E-01  3.34405E-01  3.42542E-01  3.50876E-01  3.59413E-01
#           3.68158E-01  3.77116E-01  3.86291E-01  3.95690E-01  4.05317E-01
#           4.15179E-01  4.25281E-01  4.35628E-01  4.46227E-01  4.57084E-01
#           4.68205E-01  4.79597E-01  4.91266E-01  5.03219E-01  5.15463E-01
#           5.28005E-01  5.40851E-01  5.54011E-01  5.67490E-01  5.81298E-01
#           5.95441E-01  6.09929E-01  6.24769E-01  6.39970E-01  6.55541E-01
#           6.71491E-01  6.87828E-01  7.04564E-01  7.21706E-01  7.39266E-01
#           7.57253E-01  7.75678E-01  7.94551E-01  8.13883E-01  8.33685E-01
#           8.53969E-01  8.74747E-01  8.96030E-01  9.17831E-01  9.40163E-01
#           9.63038E-01  9.86469E-01  1.01047E+00  1.03506E+00  1.06024E+00
#           1.08604E+00  1.11246E+00  1.13953E+00  1.16725E+00  1.19565E+00
#           1.22474E+00  1.25454E+00  1.28507E+00  1.31633E+00  1.34836E+00
#           1.38117E+00  1.41477E+00  1.44920E+00  1.48446E+00  1.52057E+00
#           1.55757E+00  1.59547E+00  1.63429E+00  1.67405E+00  1.71478E+00
#           1.75650E+00  1.79924E+00  1.84302E+00  1.88786E+00  1.93379E+00
#           1.98084E+00  2.02904E+00  2.07841E+00  2.12898E+00  2.18078E+00
#           2.23384E+00  2.28819E+00  2.34386E+00  2.40089E+00  2.45930E+00
#           2.51914E+00  2.58043E+00  2.64322E+00  2.70753E+00  2.77341E+00
#           2.84088E+00  2.91001E+00  2.98081E+00  3.05333E+00  3.12762E+00
#           3.20372E+00  3.28167E+00  3.36152E+00  3.44330E+00  3.52708E+00
#           3.61290E+00  3.70080E+00  3.79085E+00  3.88308E+00  3.97756E+00
#           4.07434E+00  4.17347E+00  4.27501E+00  4.37903E+00  4.48557E+00
#           4.59471E+00  4.70650E+00  4.82102E+00  4.93832E+00  5.05847E+00
#           5.18155E+00  5.30762E+00  5.43676E+00  5.56904E+00  5.70453E+00
#           5.84333E+00  5.98550E+00  6.13114E+00  6.28031E+00  6.43312E+00
#           6.58964E+00  6.74997E+00  6.91420E+00  7.08243E+00  7.25475E+00
#           7.43126E+00  7.61207E+00  7.79728E+00  7.98700E+00  8.18133E+00
#           8.38038E+00  8.58428E+00  8.79315E+00  9.00709E+00  9.22624E+00
#           9.45072E+00  9.68067E+00  9.91620E+00  1.01575E+01  1.04046E+01
#           1.06578E+01  1.09171E+01  1.11827E+01  1.14548E+01  1.17335E+01
#           1.20190E+01  1.23114E+01  1.26109E+01  1.29178E+01  1.32321E+01
#           1.35540E+01  1.38838E+01  1.42216E+01  1.45676E+01  1.49221E+01
#           1.52851E+01  1.56570E+01  1.60380E+01  1.64282E+01  1.68279E+01
#           1.72374E+01  1.76568E+01  1.80864E+01  1.85264E+01  1.89772E+01
#           1.94389E+01  1.99119E+01  2.03963E+01  2.08926E+01  2.14009E+01
#           2.19216E+01  2.24550E+01  2.30014E+01  2.35610E+01  2.41343E+01
#           2.47215E+01  2.53230E+01  2.59391E+01  2.65702E+01  2.72167E+01
#           2.78789E+01  2.85572E+01  2.92520E+01  2.99637E+01  3.06928E+01
#           3.14396E+01  3.22045E+01  3.29881E+01  3.37907E+01  3.46128E+01
#           3.54550E+01  3.63177E+01  3.72013E+01  3.81064E+01  3.90336E+01
#           3.99833E+01  4.09561E+01  4.19526E+01  4.29734E+01  4.40189E+01
#           4.50900E+01  4.61870E+01  4.73108E+01  4.84619E+01  4.96410E+01
#           5.08488E+01  5.20860E+01  5.33533E+01  5.46514E+01  5.59812E+01
#           5.73432E+01  5.87384E+01  6.01676E+01  6.16315E+01  6.31311E+01
#           6.46671E+01  6.62405E+01  6.78522E+01  6.95031E+01  7.11941E+01
#           7.29263E+01  7.47007E+01  7.65182E+01  7.83800E+01  8.02870E+01
#           8.22405E+01  8.42414E+01  8.62911E+01  8.83906E+01  9.05412E+01
#           9.27442E+01  9.50007E+01  9.73122E+01  9.96799E+01  1.02105E+02
#           1.04589E+02  1.07134E+02  1.09741E+02  1.12411E+02  1.15146E+02
#           1.17948E+02  1.20817E+02  1.23757E+02  1.26768E+02  1.29852E+02
#           1.33012E+02  1.36248E+02  1.39563E+02  1.42959E+02  1.46437E+02
#           1.50000E+02
     unit =    2            # unit is [1/cm^2/(MeV/n)/source]
     axis =  eng            # axis of output
     file = detector-01.out  # file name of output for the above axis
   output = f-curr          # surface crossing forward current spectrum
     part =  neutron  
# kf/name :  2112     
#    used :        main (  %)        temp (  %)       total (  %)
#  memory :         414 (  0)           0 (  0)         414 (  0)

#------------------------------------------------------------------------------
#newpage:
#   no. =    1   reg = 100 - 200

x: Energy [MeV/n]
y:  F-Curr [1/cm^2/(MeV/n)/source]         
p: xlog ylog afac(0.8) form(0.9)
h: n            x            y(neutron ),hh0l   n 
#  e-lower      e-upper      neutron     r.err 
   1.0000E-02   1.0243E-02   3.2145E-05  0.2357
   1.0243E-02   1.0493E-02   3.1253E-05  0.2357
   1.0493E-02   1.0748E-02   3.7447E-05  0.2132
   1.0748E-02   1.1009E-02   1.8276E-05  0.3015
   1.1009E-02   1.1277E-02   3.4075E-05  0.2182
   1.1277E-02   1.1552E-02   2.6934E-05  0.2425
   1.1552E-02   1.1833E-02   1.2361E-05  0.3536
   1.1833E-02   1.2121E-02   1.8109E-05  0.2887
   1.2121E-02   1.2415E-02   2.3576E-05  0.2500
   1.2415E-02   1.2718E-02   3.2555E-05  0.2088
   1.2718E-02   1.3027E-02   2.1069E-05  0.2582
   1.3027E-02   1.3344E-02   2.7426E-05  0.2236
   1.3344E-02   1.3669E-02   1.8231E-05  0.2679
   1.3669E-02   1.4001E-02   3.1124E-05  0.2043
   1.4001E-02   1.4342E-02   2.6784E-05  0.2182
   1.4342E-02   1.4691E-02   2.4646E-05  0.2238
   1.4691E-02   1.5048E-02   1.8234E-05  0.2582
   1.5048E-02   1.5414E-02   2.2548E-05  0.2294
   1.5414E-02   1.5789E-02   1.5068E-05  0.2774
   1.5789E-02   1.6174E-02   2.0366E-05  0.2357
   1.6174E-02   1.6567E-02   1.3254E-05  0.2887
   1.6567E-02   1.6970E-02   1.8324E-05  0.2425
   1.6970E-02   1.7383E-02   2.5252E-05  0.2041
   1.7383E-02   1.7806E-02   1.5414E-05  0.2582
   1.7806E-02   1.8239E-02   2.1045E-05  0.2182
   1.8239E-02   1.8683E-02   1.3708E-05  0.2673
   1.8683E-02   1.9138E-02   2.0075E-05  0.2182
   1.9138E-02   1.9603E-02   1.3986E-05  0.2582
   1.9603E-02   2.0080E-02   2.2699E-05  0.2000
   2.0080E-02   2.0569E-02   1.1568E-05  0.2774
   2.0569E-02   2.1069E-02   1.4748E-05  0.2425
   2.1069E-02   2.1582E-02   1.6782E-05  0.2238
   2.1582E-02   2.2107E-02   1.5714E-05  0.2294
   2.2107E-02   2.2645E-02   7.2722E-06  0.3333
   2.2645E-02   2.3196E-02   1.8141E-05  0.2085
   2.3196E-02   2.3760E-02   9.2385E-06  0.2887
   2.3760E-02   2.4338E-02   1.5782E-05  0.2182
   2.4338E-02   2.4930E-02   1.5408E-05  0.2182
   2.4930E-02   2.5537E-02   1.4327E-05  0.2236
   2.5537E-02   2.6158E-02   1.0483E-05  0.2582
   2.6158E-02   2.6795E-02   1.0919E-05  0.2500
   2.6795E-02   2.7447E-02   9.9903E-06  0.2582
   2.7447E-02   2.8114E-02   9.7566E-06  0.2582
   2.8114E-02   2.8799E-02   7.6253E-06  0.2887
   2.8799E-02   2.9499E-02   1.2395E-05  0.2236
   2.9499E-02   3.0217E-02   1.3316E-05  0.2132
   3.0217E-02   3.0952E-02   1.0040E-05  0.2425
   3.0952E-02   3.1705E-02   6.3417E-06  0.3015
   3.1705E-02   3.2477E-02   9.5746E-06  0.2425
   3.2477E-02   3.3267E-02   8.7946E-06  0.2500
   3.3267E-02   3.4076E-02   6.9726E-06  0.2774
   3.4076E-02   3.4905E-02   1.0477E-05  0.2236
   3.4905E-02   3.5755E-02   7.1636E-06  0.2673
   3.5755E-02   3.6625E-02   8.9924E-06  0.2357
   3.6625E-02   3.7516E-02   8.1763E-06  0.2429
   3.7516E-02   3.8428E-02   8.0929E-06  0.2425
   3.8428E-02   3.9363E-02   9.7597E-06  0.2182
   3.9363E-02   4.0321E-02   6.8004E-06  0.2582
   4.0321E-02   4.1302E-02   7.5316E-06  0.2425
   4.1302E-02   4.2307E-02   6.0525E-06  0.2673
   4.2307E-02   4.3337E-02   7.1771E-06  0.2425
   4.3337E-02   4.4391E-02   4.5321E-06  0.3015
   4.4391E-02   4.5471E-02   8.4469E-06  0.2182
   4.5471E-02   4.6577E-02   5.8586E-06  0.2583
   4.6577E-02   4.7711E-02   5.7447E-06  0.2582
   4.7711E-02   4.8871E-02   6.3599E-06  0.2425
   4.8871E-02   5.0061E-02   5.8455E-06  0.2500
   5.0061E-02   5.1279E-02   3.5694E-06  0.3162
   5.1279E-02   5.2526E-02   4.8716E-06  0.2673
   5.2526E-02   5.3804E-02   4.7608E-06  0.2673
   5.3804E-02   5.5113E-02   6.6106E-06  0.2236
   5.5113E-02   5.6454E-02   3.2356E-06  0.3162
   5.6454E-02   5.7828E-02   5.3727E-06  0.2425
   5.7828E-02   5.9235E-02   3.7075E-06  0.2887
   5.9235E-02   6.0676E-02   3.0104E-06  0.3162
   6.0676E-02   6.2152E-02   5.5906E-06  0.2294
   6.2152E-02   6.3665E-02   2.8719E-06  0.3162
   6.3665E-02   6.5214E-02   3.8957E-06  0.2673
   6.5214E-02   6.6800E-02   2.7391E-06  0.3162
   6.6800E-02   6.8426E-02   3.7435E-06  0.2673
   6.8426E-02   7.0090E-02   3.6527E-06  0.2673
   7.0090E-02   7.1796E-02   1.7779E-06  0.3780
   7.1796E-02   7.3543E-02   3.4371E-06  0.2676
   7.3543E-02   7.5332E-02   3.1558E-06  0.2774
   7.5332E-02   7.7165E-02   3.5546E-06  0.2582
   7.7165E-02   7.9042E-02   3.9007E-06  0.2427
   7.9042E-02   8.0965E-02   4.2930E-06  0.2294
   8.0965E-02   8.2935E-02   4.6225E-06  0.2182
   8.2935E-02   8.4953E-02   4.7375E-06  0.2132
   8.4953E-02   8.7020E-02   3.3631E-06  0.2500
   8.7020E-02   8.9138E-02   4.3104E-06  0.2182
   8.9138E-02   9.1306E-02   3.2042E-06  0.2500
   9.1306E-02   9.3528E-02   3.1275E-06  0.2500
   9.3528E-02   9.5804E-02   4.0770E-06  0.2152
   9.5804E-02   9.8134E-02   3.1697E-06  0.2425
   9.8134E-02   1.0052E-01   3.2735E-06  0.2357
   1.0052E-01   1.0297E-01   2.6656E-06  0.2582
   1.0297E-01   1.0547E-01   3.6430E-06  0.2182
   1.0547E-01   1.0804E-01   3.2168E-06  0.2294
   1.0804E-01   1.1067E-01   4.6271E-06  0.1890
   1.1067E-01   1.1336E-01   4.0336E-06  0.2000
   1.1336E-01   1.1612E-01   4.0939E-06  0.1961
   1.1612E-01   1.1894E-01   4.2580E-06  0.1891
   1.1894E-01   1.2184E-01   3.3027E-06  0.2132
   1.2184E-01   1.2480E-01   3.9558E-06  0.1925
   1.2480E-01   1.2784E-01   3.5465E-06  0.2002
   1.2784E-01   1.3095E-01   4.8832E-06  0.1690
   1.3095E-01   1.3414E-01   6.4488E-06  0.1451
   1.3414E-01   1.3740E-01   5.5497E-06  0.1544
   1.3740E-01   1.4074E-01   5.4551E-06  0.1543
   1.4074E-01   1.4417E-01   5.0249E-06  0.1583
   1.4417E-01   1.4767E-01   4.9541E-06  0.1581
   1.4767E-01   1.5127E-01   6.1647E-06  0.1400
   1.5127E-01   1.5495E-01   7.2004E-06  0.1278
   1.5495E-01   1.5872E-01   6.4273E-06  0.1337
   1.5872E-01   1.6258E-01   5.7561E-06  0.1395
   1.6258E-01   1.6654E-01   5.3599E-06  0.1429
   1.6654E-01   1.7059E-01   7.0363E-06  0.1232
   1.7059E-01   1.7474E-01   6.7999E-06  0.1240
   1.7474E-01   1.7899E-01   5.9118E-06  0.1313
   1.7899E-01   1.8334E-01   5.8815E-06  0.1302
   1.8334E-01   1.8781E-01   9.0461E-06  0.1037
   1.8781E-01   1.9237E-01   8.4071E-06  0.1061
   1.9237E-01   1.9706E-01   7.8364E-06  0.1086
   1.9706E-01   2.0185E-01   8.2259E-06  0.1049
   2.0185E-01   2.0676E-01   7.8693E-06  0.1060
   2.0676E-01   2.1179E-01   9.4974E-06  0.0953
   2.1179E-01   2.1694E-01   9.8330E-06  0.0925
   2.1694E-01   2.2222E-01   9.2107E-06  0.0945
   2.2222E-01   2.2763E-01   9.3942E-06  0.0925
   2.2763E-01   2.3317E-01   8.3258E-06  0.0970
   2.3317E-01   2.3884E-01   1.1339E-05  0.0821
   2.3884E-01   2.4465E-01   9.4735E-06  0.0887
   2.4465E-01   2.5061E-01   1.0691E-05  0.0825
   2.5061E-01   2.5670E-01   9.5373E-06  0.0864
   2.5670E-01   2.6295E-01   1.0164E-05  0.0827
   2.6295E-01   2.6935E-01   1.0093E-05  0.0819
   2.6935E-01   2.7590E-01   1.0797E-05  0.0783
   2.7590E-01   2.8261E-01   1.0591E-05  0.0781
   2.8261E-01   2.8949E-01   1.0023E-05  0.0793
   2.8949E-01   2.9653E-01   1.0389E-05  0.0769
   2.9653E-01   3.0375E-01   1.1664E-05  0.0718
   3.0375E-01   3.1114E-01   1.3167E-05  0.0667
   3.1114E-01   3.1871E-01   1.1559E-05  0.0704
   3.1871E-01   3.2646E-01   1.1258E-05  0.0705
   3.2646E-01   3.3441E-01   1.1342E-05  0.0693
   3.3441E-01   3.4254E-01   1.2800E-05  0.0646
   3.4254E-01   3.5088E-01   1.1066E-05  0.0685
   3.5088E-01   3.5941E-01   1.2773E-05  0.0630
   3.5941E-01   3.6816E-01   1.2792E-05  0.0623
   3.6816E-01   3.7712E-01   1.2735E-05  0.0616
   3.7712E-01   3.8629E-01   1.2413E-05  0.0617
   3.8629E-01   3.9569E-01   1.3298E-05  0.0588
   3.9569E-01   4.0532E-01   1.3939E-05  0.0568
   4.0532E-01   4.1518E-01   1.3439E-05  0.0572
   4.1518E-01   4.2528E-01   1.3570E-05  0.0562
   4.2528E-01   4.3563E-01   1.4075E-05  0.0545
   4.3563E-01   4.4623E-01   1.4346E-05  0.0534
   4.4623E-01   4.5708E-01   1.2973E-05  0.0555
   4.5708E-01   4.6821E-01   1.4652E-05  0.0516
   4.6821E-01   4.7960E-01   1.4127E-05  0.0519
   4.7960E-01   4.9127E-01   1.4312E-05  0.0509
   4.9127E-01   5.0322E-01   1.3777E-05  0.0513
   5.0322E-01   5.1546E-01   1.3577E-05  0.0510
   5.1546E-01   5.2800E-01   1.3683E-05  0.0502
   5.2800E-01   5.4085E-01   1.5471E-05  0.0467
   5.4085E-01   5.5401E-01   1.5029E-05  0.0468
   5.5401E-01   5.6749E-01   1.5516E-05  0.0455
   5.6749E-01   5.8130E-01   1.5900E-05  0.0444
   5.8130E-01   5.9544E-01   1.5504E-05  0.0444
   5.9544E-01   6.0993E-01   1.5893E-05  0.0434
   6.0993E-01   6.2477E-01   1.4972E-05  0.0441
   6.2477E-01   6.3997E-01   1.3845E-05  0.0453
   6.3997E-01   6.5554E-01   1.6248E-05  0.0414
   6.5554E-01   6.7149E-01   1.6665E-05  0.0404
   6.7149E-01   6.8783E-01   1.6374E-05  0.0402
   6.8783E-01   7.0456E-01   1.4824E-05  0.0418
   7.0456E-01   7.2171E-01   1.4821E-05  0.0413
   7.2171E-01   7.3927E-01   1.4030E-05  0.0419
   7.3927E-01   7.5725E-01   1.5035E-05  0.0400
   7.5725E-01   7.7568E-01   1.5234E-05  0.0393
   7.7568E-01   7.9455E-01   1.4518E-05  0.0397
   7.9455E-01   8.1388E-01   1.5503E-05  0.0380
   8.1388E-01   8.3368E-01   1.5497E-05  0.0375
   8.3368E-01   8.5397E-01   1.3805E-05  0.0393
   8.5397E-01   8.7475E-01   1.4786E-05  0.0375
   8.7475E-01   8.9603E-01   1.4904E-05  0.0369
   8.9603E-01   9.1783E-01   1.4297E-05  0.0373
   9.1783E-01   9.4016E-01   1.4637E-05  0.0364
   9.4016E-01   9.6304E-01   1.3896E-05  0.0369
   9.6304E-01   9.8647E-01   1.3857E-05  0.0365
   9.8647E-01   1.0105E+00   1.1837E-05  0.0390
   1.0105E+00   1.0351E+00   1.2875E-05  0.0370
   1.0351E+00   1.0602E+00   1.2904E-05  0.0364
   1.0602E+00   1.0860E+00   1.3068E-05  0.0358
   1.0860E+00   1.1125E+00   1.2746E-05  0.0358
   1.1125E+00   1.1395E+00   1.3208E-05  0.0348
   1.1395E+00   1.1673E+00   1.3937E-05  0.0334
   1.1673E+00   1.1957E+00   1.3449E-05  0.0336
   1.1957E+00   1.2247E+00   1.3834E-05  0.0327
   1.2247E+00   1.2545E+00   1.3326E-05  0.0329
   1.2545E+00   1.2851E+00   1.2437E-05  0.0337
   1.2851E+00   1.3163E+00   1.3059E-05  0.0325
   1.3163E+00   1.3484E+00   1.3681E-05  0.0313
   1.3484E+00   1.3812E+00   1.2964E-05  0.0318
   1.3812E+00   1.4148E+00   1.3436E-05  0.0309
   1.4148E+00   1.4492E+00   1.3289E-05  0.0306
   1.4492E+00   1.4845E+00   1.3285E-05  0.0303
   1.4845E+00   1.5206E+00   1.3557E-05  0.0296
   1.5206E+00   1.5576E+00   1.2701E-05  0.0302
   1.5576E+00   1.5955E+00   1.2245E-05  0.0304
   1.5955E+00   1.6343E+00   1.3219E-05  0.0289
   1.6343E+00   1.6741E+00   1.2063E-05  0.0299
   1.6741E+00   1.7148E+00   1.2347E-05  0.0292
   1.7148E+00   1.7565E+00   1.2465E-05  0.0287
   1.7565E+00   1.7992E+00   1.2502E-05  0.0283
   1.7992E+00   1.8430E+00   1.2099E-05  0.0284
   1.8430E+00   1.8879E+00   1.1967E-05  0.0282
   1.8879E+00   1.9338E+00   1.1940E-05  0.0279
   1.9338E+00   1.9808E+00   1.1410E-05  0.0282
   1.9808E+00   2.0290E+00   1.1392E-05  0.0278
   2.0290E+00   2.0784E+00   1.1557E-05  0.0273
   2.0784E+00   2.1290E+00   1.1150E-05  0.0275
   2.1290E+00   2.1808E+00   1.1331E-05  0.0269
   2.1808E+00   2.2338E+00   1.1230E-05  0.0267
   2.2338E+00   2.2882E+00   1.1601E-05  0.0260
   2.2882E+00   2.3439E+00   1.1059E-05  0.0263
   2.3439E+00   2.4009E+00   1.0992E-05  0.0261
   2.4009E+00   2.4593E+00   1.0793E-05  0.0260
   2.4593E+00   2.5191E+00   1.0817E-05  0.0257
   2.5191E+00   2.5804E+00   1.1036E-05  0.0251
   2.5804E+00   2.6432E+00   1.0494E-05  0.0254
   2.6432E+00   2.7075E+00   1.1294E-05  0.0242
   2.7075E+00   2.7734E+00   1.0555E-05  0.0248
   2.7734E+00   2.8409E+00   1.0550E-05  0.0245
   2.8409E+00   2.9100E+00   1.0685E-05  0.0241
   2.9100E+00   2.9808E+00   1.0093E-05  0.0244
   2.9808E+00   3.0533E+00   1.0184E-05  0.0241
   3.0533E+00   3.1276E+00   1.0296E-05  0.0237
   3.1276E+00   3.2037E+00   9.9000E-06  0.0238
   3.2037E+00   3.2817E+00   1.0285E-05  0.0231
   3.2817E+00   3.3615E+00   1.0319E-05  0.0228
   3.3615E+00   3.4433E+00   9.9132E-06  0.0230
   3.4433E+00   3.5271E+00   9.9313E-06  0.0227
   3.5271E+00   3.6129E+00   9.5652E-06  0.0229
   3.6129E+00   3.7008E+00   9.6749E-06  0.0224
   3.7008E+00   3.7908E+00   9.8255E-06  0.0220
   3.7908E+00   3.8831E+00   9.9276E-06  0.0216
   3.8831E+00   3.9776E+00   9.6598E-06  0.0217
   3.9776E+00   4.0743E+00   9.4331E-06  0.0217
   4.0743E+00   4.1735E+00   8.9130E-06  0.0221
   4.1735E+00   4.2750E+00   9.2797E-06  0.0213
   4.2750E+00   4.3790E+00   8.8950E-06  0.0215
   4.3790E+00   4.4856E+00   8.9945E-06  0.0212
   4.4856E+00   4.5947E+00   8.8943E-06  0.0210
   4.5947E+00   4.7065E+00   8.7329E-06  0.0210
   4.7065E+00   4.8210E+00   8.4780E-06  0.0210
   4.8210E+00   4.9383E+00   8.7023E-06  0.0205
   4.9383E+00   5.0585E+00   8.6662E-06  0.0203
   5.0585E+00   5.1815E+00   8.2266E-06  0.0206
   5.1815E+00   5.3076E+00   8.2447E-06  0.0203
   5.3076E+00   5.4368E+00   8.5365E-06  0.0197
   5.4368E+00   5.5690E+00   8.4701E-06  0.0196
   5.5690E+00   5.7045E+00   7.9439E-06  0.0200
   5.7045E+00   5.8433E+00   7.9526E-06  0.0197
   5.8433E+00   5.9855E+00   7.9030E-06  0.0196
   5.9855E+00   6.1311E+00   7.8481E-06  0.0194
   6.1311E+00   6.2803E+00   7.8381E-06  0.0192
   6.2803E+00   6.4331E+00   7.4929E-06  0.0194
   6.4331E+00   6.5896E+00   7.5011E-06  0.0192
   6.5896E+00   6.7500E+00   7.4901E-06  0.0189
   6.7500E+00   6.9142E+00   7.5348E-06  0.0187
   6.9142E+00   7.0824E+00   7.1366E-06  0.0189
   7.0824E+00   7.2548E+00   7.0736E-06  0.0188
   7.2548E+00   7.4313E+00   7.3707E-06  0.0182
   7.4313E+00   7.6121E+00   7.0791E-06  0.0184
   7.6121E+00   7.7973E+00   7.1299E-06  0.0181
   7.7973E+00   7.9870E+00   6.7600E-06  0.0183
   7.9870E+00   8.1813E+00   6.8346E-06  0.0180
   8.1813E+00   8.3804E+00   6.6650E-06  0.0180
   8.3804E+00   8.5843E+00   6.4998E-06  0.0180
   8.5843E+00   8.7931E+00   6.4092E-06  0.0180
   8.7931E+00   9.0071E+00   6.4637E-06  0.0177
   9.0071E+00   9.2262E+00   6.3121E-06  0.0177
   9.2262E+00   9.4507E+00   6.1912E-06  0.0176
   9.4507E+00   9.6807E+00   6.0941E-06  0.0176
   9.6807E+00   9.9162E+00   5.8264E-06  0.0178
   9.9162E+00   1.0157E+01   5.9185E-06  0.0174
   1.0157E+01   1.0405E+01   5.8198E-06  0.0174
   1.0405E+01   1.0658E+01   5.7993E-06  0.0172
   1.0658E+01   1.0917E+01   5.6093E-06  0.0173
   1.0917E+01   1.1183E+01   5.8028E-06  0.0168
   1.1183E+01   1.1455E+01   5.5148E-06  0.0170
   1.1455E+01   1.1733E+01   5.5093E-06  0.0168
   1.1733E+01   1.2019E+01   5.4079E-06  0.0168
   1.2019E+01   1.2311E+01   5.2643E-06  0.0168
   1.2311E+01   1.2611E+01   5.3557E-06  0.0165
   1.2611E+01   1.2918E+01   5.2602E-06  0.0164
   1.2918E+01   1.3232E+01   5.0459E-06  0.0165
   1.3232E+01   1.3554E+01   5.1271E-06  0.0162
   1.3554E+01   1.3884E+01   5.0592E-06  0.0161
   1.3884E+01   1.4222E+01   4.9195E-06  0.0162
   1.4222E+01   1.4568E+01   5.0807E-06  0.0157
   1.4568E+01   1.4922E+01   4.7450E-06  0.0161
   1.4922E+01   1.5285E+01   4.8636E-06  0.0157
   1.5285E+01   1.5657E+01   4.7841E-06  0.0156
   1.5657E+01   1.6038E+01   4.7717E-06  0.0155
   1.6038E+01   1.6428E+01   4.4783E-06  0.0158
   1.6428E+01   1.6828E+01   4.4481E-06  0.0156
   1.6828E+01   1.7237E+01   4.4184E-06  0.0155
   1.7237E+01   1.7657E+01   4.2911E-06  0.0155
   1.7657E+01   1.8086E+01   4.2284E-06  0.0155
   1.8086E+01   1.8526E+01   4.1643E-06  0.0154
   1.8526E+01   1.8977E+01   4.1756E-06  0.0152
   1.8977E+01   1.9439E+01   4.0472E-06  0.0153
   1.9439E+01   1.9912E+01   3.7451E-06  0.0157
   1.9912E+01   2.0396E+01   3.7522E-06  0.0155
   2.0396E+01   2.0893E+01   3.7691E-06  0.0152
   2.0893E+01   2.1401E+01   3.5572E-06  0.0155
   2.1401E+01   2.1922E+01   3.5003E-06  0.0154
   2.1922E+01   2.2455E+01   3.3446E-06  0.0156
   2.2455E+01   2.3001E+01   3.3105E-06  0.0155
   2.3001E+01   2.3561E+01   3.1627E-06  0.0157
   2.3561E+01   2.4134E+01   2.9549E-06  0.0160
   2.4134E+01   2.4721E+01   2.8692E-06  0.0161
   2.4721E+01   2.5323E+01   2.7547E-06  0.0162
   2.5323E+01   2.5939E+01   2.6279E-06  0.0164
   2.5939E+01   2.6570E+01   2.5834E-06  0.0163
   2.6570E+01   2.7217E+01   2.3848E-06  0.0168
   2.7217E+01   2.7879E+01   2.3643E-06  0.0167
   2.7879E+01   2.8557E+01   2.7972E-06  0.0151
   2.8557E+01   2.9252E+01   3.3265E-06  0.0137
   2.9252E+01   2.9964E+01   3.2743E-06  0.0137
   2.9964E+01   3.0693E+01   3.1095E-06  0.0138
   3.0693E+01   3.1440E+01   3.2010E-06  0.0135
   3.1440E+01   3.2205E+01   2.9988E-06  0.0138
   3.2205E+01   3.2988E+01   3.0441E-06  0.0135
   3.2988E+01   3.3791E+01   3.0211E-06  0.0134
   3.3791E+01   3.4613E+01   2.9594E-06  0.0134
   3.4613E+01   3.5455E+01   2.8576E-06  0.0134
   3.5455E+01   3.6318E+01   2.8063E-06  0.0134
   3.6318E+01   3.7201E+01   2.7554E-06  0.0134
   3.7201E+01   3.8106E+01   2.6756E-06  0.0134
   3.8106E+01   3.9034E+01   2.6392E-06  0.0133
   3.9034E+01   3.9983E+01   2.5564E-06  0.0134
   3.9983E+01   4.0956E+01   2.5645E-06  0.0132
   4.0956E+01   4.1953E+01   2.4416E-06  0.0134
   4.1953E+01   4.2973E+01   2.3512E-06  0.0135
   4.2973E+01   4.4019E+01   2.2788E-06  0.0135
   4.4019E+01   4.5090E+01   2.2149E-06  0.0135
   4.5090E+01   4.6187E+01   2.0747E-06  0.0138
   4.6187E+01   4.7311E+01   2.0312E-06  0.0138
   4.7311E+01   4.8462E+01   1.6880E-06  0.0150
   4.8462E+01   4.9641E+01   4.9706E-07  0.0272
   4.9641E+01   5.0849E+01   3.5998E-10  1.0000
   5.0849E+01   5.2086E+01   0.0000E+00  0.0000
   5.2086E+01   5.3353E+01   0.0000E+00  0.0000
   5.3353E+01   5.4651E+01   0.0000E+00  0.0000
   5.4651E+01   5.5981E+01   0.0000E+00  0.0000
   5.5981E+01   5.7343E+01   0.0000E+00  0.0000
   5.7343E+01   5.8738E+01   0.0000E+00  0.0000
   5.8738E+01   6.0168E+01   0.0000E+00  0.0000
   6.0168E+01   6.1632E+01   0.0000E+00  0.0000
   6.1632E+01   6.3131E+01   0.0000E+00  0.0000
   6.3131E+01   6.4667E+01   0.0000E+00  0.0000
   6.4667E+01   6.6240E+01   0.0000E+00  0.0000
   6.6240E+01   6.7852E+01   0.0000E+00  0.0000
   6.7852E+01   6.9503E+01   0.0000E+00  0.0000
   6.9503E+01   7.1194E+01   0.0000E+00  0.0000
   7.1194E+01   7.2926E+01   0.0000E+00  0.0000
   7.2926E+01   7.4701E+01   0.0000E+00  0.0000
   7.4701E+01   7.6518E+01   0.0000E+00  0.0000
   7.6518E+01   7.8380E+01   0.0000E+00  0.0000
   7.8380E+01   8.0287E+01   0.0000E+00  0.0000
   8.0287E+01   8.2240E+01   0.0000E+00  0.0000
   8.2240E+01   8.4241E+01   0.0000E+00  0.0000
   8.4241E+01   8.6291E+01   0.0000E+00  0.0000
   8.6291E+01   8.8391E+01   0.0000E+00  0.0000
   8.8391E+01   9.0541E+01   0.0000E+00  0.0000
   9.0541E+01   9.2744E+01   0.0000E+00  0.0000
   9.2744E+01   9.5001E+01   0.0000E+00  0.0000
   9.5001E+01   9.7312E+01   0.0000E+00  0.0000
   9.7312E+01   9.9680E+01   0.0000E+00  0.0000
   9.9680E+01   1.0211E+02   0.0000E+00  0.0000
   1.0211E+02   1.0459E+02   0.0000E+00  0.0000
   1.0459E+02   1.0713E+02   0.0000E+00  0.0000
   1.0713E+02   1.0974E+02   0.0000E+00  0.0000
   1.0974E+02   1.1241E+02   0.0000E+00  0.0000
   1.1241E+02   1.1515E+02   0.0000E+00  0.0000
   1.1515E+02   1.1795E+02   0.0000E+00  0.0000
   1.1795E+02   1.2082E+02   0.0000E+00  0.0000
   1.2082E+02   1.2376E+02   0.0000E+00  0.0000
   1.2376E+02   1.2677E+02   0.0000E+00  0.0000
   1.2677E+02   1.2985E+02   0.0000E+00  0.0000
   1.2985E+02   1.3301E+02   0.0000E+00  0.0000
   1.3301E+02   1.3625E+02   0.0000E+00  0.0000
   1.3625E+02   1.3956E+02   0.0000E+00  0.0000
   1.3956E+02   1.4296E+02   0.0000E+00  0.0000
   1.4296E+02   1.4644E+02   0.0000E+00  0.0000
   1.4644E+02   1.5000E+02   0.0000E+00  0.0000

#   sum over                 1.4443E-06
'no. =    1   reg = 100 - 200'
msuc: {\huge [t-cross] in region mesh}
msdr: {\it plotted by \ANGEL \version}
msdl: {\it calculated by \PHITS  3.26}
wt: s(0.7)
\vspace{-3}
  region surface crossing
  area  &=&   1.0000E+00 [cm^2]
e:
 
# Information for Restart Calculation
# This calculation was newly started
# istdev =  2 # 1:Batch variance, 2:History variance
# resc2  = 2.30000000000000000E+09 # Total source weight or Total source weight / maxcas
# resc3  = 2.30000000000000000E+09 # Total history number or Total batch number
# maxcas =   100000000 # History / Batch, only used for istdev=1
# bitrseed = 0011111101000011101100100100001010010001000101110100111110110011 # bit data of rseed
