[ T-Cross ]
    title = [t-cross] in region mesh
     mesh =  reg            # mesh type is region-wise
      reg =    1            # number of crossing regions
      non     r-from    r-to       area
      1       115       215        1.000000    
   e-type =    3            # e-mesh is log given by emin, emax and ne
     emin =  1.0000000E-02  # minimum value of e-mesh points
     emax =   150.0000      # maximum value of e-mesh points
#    edel =  2.4039514E-02  # mesh width of e-mesh points
       ne =    400          # number of e-mesh points
#    data = ( e(i), i = 1, ne + 1 )
#           1.00000E-02  1.02433E-02  1.04925E-02  1.07478E-02  1.10093E-02
#           1.12772E-02  1.15516E-02  1.18326E-02  1.21205E-02  1.24154E-02
#           1.27175E-02  1.30269E-02  1.33439E-02  1.36686E-02  1.40011E-02
#           1.43418E-02  1.46907E-02  1.50482E-02  1.54143E-02  1.57894E-02
#           1.61735E-02  1.65670E-02  1.69701E-02  1.73830E-02  1.78060E-02
#           1.82392E-02  1.86830E-02  1.91375E-02  1.96032E-02  2.00801E-02
#           2.05687E-02  2.10692E-02  2.15818E-02  2.21069E-02  2.26448E-02
#           2.31957E-02  2.37601E-02  2.43382E-02  2.49304E-02  2.55369E-02
#           2.61583E-02  2.67947E-02  2.74467E-02  2.81145E-02  2.87985E-02
#           2.94992E-02  3.02169E-02  3.09521E-02  3.17052E-02  3.24766E-02
#           3.32668E-02  3.40762E-02  3.49053E-02  3.57546E-02  3.66246E-02
#           3.75157E-02  3.84284E-02  3.93634E-02  4.03212E-02  4.13022E-02
#           4.23071E-02  4.33365E-02  4.43909E-02  4.54710E-02  4.65773E-02
#           4.77106E-02  4.88714E-02  5.00605E-02  5.12785E-02  5.25262E-02
#           5.38042E-02  5.51133E-02  5.64542E-02  5.78278E-02  5.92348E-02
#           6.06760E-02  6.21523E-02  6.36645E-02  6.52135E-02  6.68002E-02
#           6.84255E-02  7.00904E-02  7.17957E-02  7.35426E-02  7.53319E-02
#           7.71648E-02  7.90423E-02  8.09655E-02  8.29354E-02  8.49533E-02
#           8.70203E-02  8.91376E-02  9.13064E-02  9.35279E-02  9.58035E-02
#           9.81345E-02  1.00522E-01  1.02968E-01  1.05473E-01  1.08040E-01
#           1.10668E-01  1.13361E-01  1.16119E-01  1.18944E-01  1.21838E-01
#           1.24803E-01  1.27839E-01  1.30950E-01  1.34136E-01  1.37399E-01
#           1.40742E-01  1.44167E-01  1.47675E-01  1.51268E-01  1.54948E-01
#           1.58718E-01  1.62580E-01  1.66535E-01  1.70587E-01  1.74738E-01
#           1.78989E-01  1.83344E-01  1.87805E-01  1.92375E-01  1.97055E-01
#           2.01850E-01  2.06761E-01  2.11792E-01  2.16945E-01  2.22223E-01
#           2.27630E-01  2.33169E-01  2.38842E-01  2.44653E-01  2.50605E-01
#           2.56703E-01  2.62949E-01  2.69346E-01  2.75900E-01  2.82613E-01
#           2.89489E-01  2.96532E-01  3.03747E-01  3.11138E-01  3.18708E-01
#           3.26462E-01  3.34405E-01  3.42542E-01  3.50876E-01  3.59413E-01
#           3.68158E-01  3.77116E-01  3.86291E-01  3.95690E-01  4.05317E-01
#           4.15179E-01  4.25281E-01  4.35628E-01  4.46227E-01  4.57084E-01
#           4.68205E-01  4.79597E-01  4.91266E-01  5.03219E-01  5.15463E-01
#           5.28005E-01  5.40851E-01  5.54011E-01  5.67490E-01  5.81298E-01
#           5.95441E-01  6.09929E-01  6.24769E-01  6.39970E-01  6.55541E-01
#           6.71491E-01  6.87828E-01  7.04564E-01  7.21706E-01  7.39266E-01
#           7.57253E-01  7.75678E-01  7.94551E-01  8.13883E-01  8.33685E-01
#           8.53969E-01  8.74747E-01  8.96030E-01  9.17831E-01  9.40163E-01
#           9.63038E-01  9.86469E-01  1.01047E+00  1.03506E+00  1.06024E+00
#           1.08604E+00  1.11246E+00  1.13953E+00  1.16725E+00  1.19565E+00
#           1.22474E+00  1.25454E+00  1.28507E+00  1.31633E+00  1.34836E+00
#           1.38117E+00  1.41477E+00  1.44920E+00  1.48446E+00  1.52057E+00
#           1.55757E+00  1.59547E+00  1.63429E+00  1.67405E+00  1.71478E+00
#           1.75650E+00  1.79924E+00  1.84302E+00  1.88786E+00  1.93379E+00
#           1.98084E+00  2.02904E+00  2.07841E+00  2.12898E+00  2.18078E+00
#           2.23384E+00  2.28819E+00  2.34386E+00  2.40089E+00  2.45930E+00
#           2.51914E+00  2.58043E+00  2.64322E+00  2.70753E+00  2.77341E+00
#           2.84088E+00  2.91001E+00  2.98081E+00  3.05333E+00  3.12762E+00
#           3.20372E+00  3.28167E+00  3.36152E+00  3.44330E+00  3.52708E+00
#           3.61290E+00  3.70080E+00  3.79085E+00  3.88308E+00  3.97756E+00
#           4.07434E+00  4.17347E+00  4.27501E+00  4.37903E+00  4.48557E+00
#           4.59471E+00  4.70650E+00  4.82102E+00  4.93832E+00  5.05847E+00
#           5.18155E+00  5.30762E+00  5.43676E+00  5.56904E+00  5.70453E+00
#           5.84333E+00  5.98550E+00  6.13114E+00  6.28031E+00  6.43312E+00
#           6.58964E+00  6.74997E+00  6.91420E+00  7.08243E+00  7.25475E+00
#           7.43126E+00  7.61207E+00  7.79728E+00  7.98700E+00  8.18133E+00
#           8.38038E+00  8.58428E+00  8.79315E+00  9.00709E+00  9.22624E+00
#           9.45072E+00  9.68067E+00  9.91620E+00  1.01575E+01  1.04046E+01
#           1.06578E+01  1.09171E+01  1.11827E+01  1.14548E+01  1.17335E+01
#           1.20190E+01  1.23114E+01  1.26109E+01  1.29178E+01  1.32321E+01
#           1.35540E+01  1.38838E+01  1.42216E+01  1.45676E+01  1.49221E+01
#           1.52851E+01  1.56570E+01  1.60380E+01  1.64282E+01  1.68279E+01
#           1.72374E+01  1.76568E+01  1.80864E+01  1.85264E+01  1.89772E+01
#           1.94389E+01  1.99119E+01  2.03963E+01  2.08926E+01  2.14009E+01
#           2.19216E+01  2.24550E+01  2.30014E+01  2.35610E+01  2.41343E+01
#           2.47215E+01  2.53230E+01  2.59391E+01  2.65702E+01  2.72167E+01
#           2.78789E+01  2.85572E+01  2.92520E+01  2.99637E+01  3.06928E+01
#           3.14396E+01  3.22045E+01  3.29881E+01  3.37907E+01  3.46128E+01
#           3.54550E+01  3.63177E+01  3.72013E+01  3.81064E+01  3.90336E+01
#           3.99833E+01  4.09561E+01  4.19526E+01  4.29734E+01  4.40189E+01
#           4.50900E+01  4.61870E+01  4.73108E+01  4.84619E+01  4.96410E+01
#           5.08488E+01  5.20860E+01  5.33533E+01  5.46514E+01  5.59812E+01
#           5.73432E+01  5.87384E+01  6.01676E+01  6.16315E+01  6.31311E+01
#           6.46671E+01  6.62405E+01  6.78522E+01  6.95031E+01  7.11941E+01
#           7.29263E+01  7.47007E+01  7.65182E+01  7.83800E+01  8.02870E+01
#           8.22405E+01  8.42414E+01  8.62911E+01  8.83906E+01  9.05412E+01
#           9.27442E+01  9.50007E+01  9.73122E+01  9.96799E+01  1.02105E+02
#           1.04589E+02  1.07134E+02  1.09741E+02  1.12411E+02  1.15146E+02
#           1.17948E+02  1.20817E+02  1.23757E+02  1.26768E+02  1.29852E+02
#           1.33012E+02  1.36248E+02  1.39563E+02  1.42959E+02  1.46437E+02
#           1.50000E+02
     unit =    2            # unit is [1/cm^2/(MeV/n)/source]
     axis =  eng            # axis of output
     file = detector-16.out  # file name of output for the above axis
   output = f-curr          # surface crossing forward current spectrum
     part =  neutron  
# kf/name :  2112     
#    used :        main (  %)        temp (  %)       total (  %)
#  memory :         414 (  0)           0 (  0)         414 (  0)

#------------------------------------------------------------------------------
#newpage:
#   no. =    1   reg = 115 - 215

x: Energy [MeV/n]
y:  F-Curr [1/cm^2/(MeV/n)/source]         
p: xlog ylog afac(0.8) form(0.9)
h: n            x            y(neutron ),hh0l   n 
#  e-lower      e-upper      neutron     r.err 
   1.0000E-02   1.0243E-02   1.0730E-03  0.0874
   1.0243E-02   1.0493E-02   1.0303E-03  0.0881
   1.0493E-02   1.0748E-02   9.9882E-04  0.0884
   1.0748E-02   1.1009E-02   1.1128E-03  0.0828
   1.1009E-02   1.1277E-02   9.1451E-04  0.0902
   1.1277E-02   1.1552E-02   9.9528E-04  0.0854
   1.1552E-02   1.1833E-02   1.0752E-03  0.0811
   1.1833E-02   1.2121E-02   1.0784E-03  0.0802
   1.2121E-02   1.2415E-02   8.6058E-04  0.0886
   1.2415E-02   1.2718E-02   1.0860E-03  0.0776
   1.2718E-02   1.3027E-02   9.3423E-04  0.0831
   1.3027E-02   1.3344E-02   8.3932E-04  0.0865
   1.3344E-02   1.3669E-02   1.0409E-03  0.0767
   1.3669E-02   1.4001E-02   9.2640E-04  0.0804
   1.4001E-02   1.4342E-02   9.4422E-04  0.0785
   1.4342E-02   1.4691E-02   8.7794E-04  0.0806
   1.4691E-02   1.5048E-02   8.4103E-04  0.0813
   1.5048E-02   1.5414E-02   8.8070E-04  0.0786
   1.5414E-02   1.5789E-02   7.9722E-04  0.0817
   1.5789E-02   1.6174E-02   7.9108E-04  0.0809
   1.6174E-02   1.6567E-02   8.5744E-04  0.0769
   1.6567E-02   1.6970E-02   7.6147E-04  0.0805
   1.6970E-02   1.7383E-02   7.6437E-04  0.0794
   1.7383E-02   1.7806E-02   7.0156E-04  0.0820
   1.7806E-02   1.8239E-02   8.5405E-04  0.0734
   1.8239E-02   1.8683E-02   6.3398E-04  0.0842
   1.8683E-02   1.9138E-02   6.9222E-04  0.0793
   1.9138E-02   1.9603E-02   7.4179E-04  0.0758
   1.9603E-02   2.0080E-02   6.4599E-04  0.0804
   2.0080E-02   2.0569E-02   7.2614E-04  0.0749
   2.0569E-02   2.1069E-02   5.7556E-04  0.0829
   2.1069E-02   2.1582E-02   6.8427E-04  0.0752
   2.1582E-02   2.2107E-02   6.7980E-04  0.0748
   2.2107E-02   2.2645E-02   6.0299E-04  0.0783
   2.2645E-02   2.3196E-02   6.1435E-04  0.0765
   2.3196E-02   2.3760E-02   6.3152E-04  0.0747
   2.3760E-02   2.4338E-02   4.8310E-04  0.0842
   2.4338E-02   2.4930E-02   4.6422E-04  0.0852
   2.4930E-02   2.5537E-02   6.7886E-04  0.0696
   2.5537E-02   2.6158E-02   5.8776E-04  0.0738
   2.6158E-02   2.6795E-02   5.0718E-04  0.0786
   2.6795E-02   2.7447E-02   6.1269E-04  0.0706
   2.7447E-02   2.8114E-02   5.1929E-04  0.0759
   2.8114E-02   2.8799E-02   5.5444E-04  0.0725
   2.8799E-02   2.9499E-02   4.5205E-04  0.0794
   2.9499E-02   3.0217E-02   4.8091E-04  0.0759
   3.0217E-02   3.0952E-02   5.6771E-04  0.0691
   3.0952E-02   3.1705E-02   4.4807E-04  0.0769
   3.1705E-02   3.2477E-02   4.9899E-04  0.0719
   3.2477E-02   3.3267E-02   4.7411E-04  0.0729
   3.3267E-02   3.4076E-02   4.2506E-04  0.0760
   3.4076E-02   3.4905E-02   4.0839E-04  0.0764
   3.4905E-02   3.5755E-02   4.0901E-04  0.0758
   3.5755E-02   3.6625E-02   4.2736E-04  0.0730
   3.6625E-02   3.7516E-02   4.0324E-04  0.0745
   3.7516E-02   3.8428E-02   4.1547E-04  0.0724
   3.8428E-02   3.9363E-02   3.6879E-04  0.0758
   3.9363E-02   4.0321E-02   3.6757E-04  0.0752
   4.0321E-02   4.1302E-02   3.9082E-04  0.0721
   4.1302E-02   4.2307E-02   3.5521E-04  0.0746
   4.2307E-02   4.3337E-02   3.6566E-04  0.0727
   4.3337E-02   4.4391E-02   3.2466E-04  0.0763
   4.4391E-02   4.5471E-02   3.6001E-04  0.0715
   4.5471E-02   4.6577E-02   3.4373E-04  0.0724
   4.6577E-02   4.7711E-02   3.3155E-04  0.0728
   4.7711E-02   4.8871E-02   3.5911E-04  0.0692
   4.8871E-02   5.0061E-02   3.1247E-04  0.0731
   5.0061E-02   5.1279E-02   3.1791E-04  0.0718
   5.1279E-02   5.2526E-02   3.0249E-04  0.0726
   5.2526E-02   5.3804E-02   3.2617E-04  0.0690
   5.3804E-02   5.5113E-02   3.0287E-04  0.0709
   5.5113E-02   5.6454E-02   2.6066E-04  0.0755
   5.6454E-02   5.7828E-02   3.2600E-04  0.0667
   5.7828E-02   5.9235E-02   2.7202E-04  0.0721
   5.9235E-02   6.0676E-02   2.2952E-04  0.0776
   6.0676E-02   6.2152E-02   2.6996E-04  0.0708
   6.2152E-02   6.3665E-02   2.6723E-04  0.0702
   6.3665E-02   6.5214E-02   2.4035E-04  0.0731
   6.5214E-02   6.6800E-02   2.4863E-04  0.0709
   6.6800E-02   6.8426E-02   2.2552E-04  0.0737
   6.8426E-02   7.0090E-02   2.4384E-04  0.0701
   7.0090E-02   7.1796E-02   2.2560E-04  0.0720
   7.1796E-02   7.3543E-02   2.3617E-04  0.0695
   7.3543E-02   7.5332E-02   2.4952E-04  0.0668
   7.5332E-02   7.7165E-02   2.3212E-04  0.0684
   7.7165E-02   7.9042E-02   2.3184E-04  0.0677
   7.9042E-02   8.0965E-02   2.2523E-04  0.0677
   8.0965E-02   8.2935E-02   2.1362E-04  0.0688
   8.2935E-02   8.4953E-02   2.2314E-04  0.0665
   8.4953E-02   8.7020E-02   2.2351E-04  0.0658
   8.7020E-02   8.9138E-02   1.8621E-04  0.0711
   8.9138E-02   9.1306E-02   1.8935E-04  0.0696
   9.1306E-02   9.3528E-02   1.9429E-04  0.0680
   9.3528E-02   9.5804E-02   1.8471E-04  0.0687
   9.5804E-02   9.8134E-02   1.7694E-04  0.0694
   9.8134E-02   1.0052E-01   1.7479E-04  0.0690
   1.0052E-01   1.0297E-01   1.5525E-04  0.0725
   1.0297E-01   1.0547E-01   1.7416E-04  0.0676
   1.0547E-01   1.0804E-01   1.5100E-04  0.0716
   1.0804E-01   1.1067E-01   1.4528E-04  0.0721
   1.1067E-01   1.1336E-01   1.5159E-04  0.0697
   1.1336E-01   1.1612E-01   1.5692E-04  0.0679
   1.1612E-01   1.1894E-01   1.4541E-04  0.0697
   1.1894E-01   1.2184E-01   1.3962E-04  0.0701
   1.2184E-01   1.2480E-01   1.3044E-04  0.0718
   1.2480E-01   1.2784E-01   1.4330E-04  0.0677
   1.2784E-01   1.3095E-01   1.3858E-04  0.0679
   1.3095E-01   1.3414E-01   1.3509E-04  0.0679
   1.3414E-01   1.3740E-01   1.2679E-04  0.0692
   1.3740E-01   1.4074E-01   1.2857E-04  0.0680
   1.4074E-01   1.4417E-01   1.2458E-04  0.0683
   1.4417E-01   1.4767E-01   1.1779E-04  0.0695
   1.4767E-01   1.5127E-01   1.1727E-04  0.0687
   1.5127E-01   1.5495E-01   1.1310E-04  0.0692
   1.5495E-01   1.5872E-01   1.1034E-04  0.0692
   1.5872E-01   1.6258E-01   9.2970E-05  0.0745
   1.6258E-01   1.6654E-01   1.0363E-04  0.0697
   1.6654E-01   1.7059E-01   9.6793E-05  0.0711
   1.7059E-01   1.7474E-01   9.9294E-05  0.0695
   1.7474E-01   1.7899E-01   1.0079E-04  0.0682
   1.7899E-01   1.8334E-01   9.9855E-05  0.0676
   1.8334E-01   1.8781E-01   8.7472E-05  0.0715
   1.8781E-01   1.9237E-01   1.0131E-04  0.0655
   1.9237E-01   1.9706E-01   9.2613E-05  0.0678
   1.9706E-01   2.0185E-01   9.5695E-05  0.0659
   2.0185E-01   2.0676E-01   8.2033E-05  0.0702
   2.0676E-01   2.1179E-01   9.7940E-05  0.0636
   2.1179E-01   2.1694E-01   9.5165E-05  0.0637
   2.1694E-01   2.2222E-01   9.8802E-05  0.0619
   2.2222E-01   2.2763E-01   1.0519E-04  0.0591
   2.2763E-01   2.3317E-01   9.6348E-05  0.0611
   2.3317E-01   2.3884E-01   1.0505E-04  0.0577
   2.3884E-01   2.4465E-01   1.0702E-04  0.0566
   2.4465E-01   2.5061E-01   1.1311E-04  0.0543
   2.5061E-01   2.5670E-01   1.1849E-04  0.0524
   2.5670E-01   2.6295E-01   1.2215E-04  0.0511
   2.6295E-01   2.6935E-01   1.1268E-04  0.0525
   2.6935E-01   2.7590E-01   1.3143E-04  0.0481
   2.7590E-01   2.8261E-01   1.3438E-04  0.0469
   2.8261E-01   2.8949E-01   1.2766E-04  0.0476
   2.8949E-01   2.9653E-01   1.3282E-04  0.0461
   2.9653E-01   3.0375E-01   1.4449E-04  0.0437
   3.0375E-01   3.1114E-01   1.4413E-04  0.0432
   3.1114E-01   3.1871E-01   1.5520E-04  0.0411
   3.1871E-01   3.2646E-01   1.5624E-04  0.0405
   3.2646E-01   3.3441E-01   1.5095E-04  0.0407
   3.3441E-01   3.4254E-01   1.6399E-04  0.0386
   3.4254E-01   3.5088E-01   1.5643E-04  0.0390
   3.5088E-01   3.5941E-01   1.6852E-04  0.0372
   3.5941E-01   3.6816E-01   1.7474E-04  0.0361
   3.6816E-01   3.7712E-01   1.8788E-04  0.0344
   3.7712E-01   3.8629E-01   1.8102E-04  0.0346
   3.8629E-01   3.9569E-01   1.7369E-04  0.0349
   3.9569E-01   4.0532E-01   1.8735E-04  0.0332
   4.0532E-01   4.1518E-01   1.8698E-04  0.0328
   4.1518E-01   4.2528E-01   2.0137E-04  0.0312
   4.2528E-01   4.3563E-01   2.0158E-04  0.0309
   4.3563E-01   4.4623E-01   2.1382E-04  0.0296
   4.4623E-01   4.5708E-01   2.1199E-04  0.0294
   4.5708E-01   4.6821E-01   2.1777E-04  0.0286
   4.6821E-01   4.7960E-01   2.2597E-04  0.0278
   4.7960E-01   4.9127E-01   2.3938E-04  0.0267
   4.9127E-01   5.0322E-01   2.3969E-04  0.0263
   5.0322E-01   5.1546E-01   2.3546E-04  0.0263
   5.1546E-01   5.2800E-01   2.5707E-04  0.0248
   5.2800E-01   5.4085E-01   2.4188E-04  0.0253
   5.4085E-01   5.5401E-01   2.6360E-04  0.0239
   5.5401E-01   5.6749E-01   2.6171E-04  0.0237
   5.6749E-01   5.8130E-01   2.6031E-04  0.0235
   5.8130E-01   5.9544E-01   2.7335E-04  0.0226
   5.9544E-01   6.0993E-01   2.7099E-04  0.0225
   6.0993E-01   6.2477E-01   2.6843E-04  0.0223
   6.2477E-01   6.3997E-01   2.8890E-04  0.0213
   6.3997E-01   6.5554E-01   2.8998E-04  0.0210
   6.5554E-01   6.7149E-01   2.9969E-04  0.0204
   6.7149E-01   6.8783E-01   2.9996E-04  0.0201
   6.8783E-01   7.0456E-01   3.0138E-04  0.0198
   7.0456E-01   7.2171E-01   3.1090E-04  0.0193
   7.2171E-01   7.3927E-01   3.0929E-04  0.0191
   7.3927E-01   7.5725E-01   3.1631E-04  0.0187
   7.5725E-01   7.7568E-01   3.4423E-04  0.0177
   7.7568E-01   7.9455E-01   3.3286E-04  0.0178
   7.9455E-01   8.1388E-01   3.3328E-04  0.0176
   8.1388E-01   8.3368E-01   3.4029E-04  0.0172
   8.3368E-01   8.5397E-01   3.4567E-04  0.0168
   8.5397E-01   8.7475E-01   3.4640E-04  0.0166
   8.7475E-01   8.9603E-01   3.6366E-04  0.0160
   8.9603E-01   9.1783E-01   3.6017E-04  0.0159
   9.1783E-01   9.4016E-01   3.6074E-04  0.0157
   9.4016E-01   9.6304E-01   3.7440E-04  0.0152
   9.6304E-01   9.8647E-01   3.8641E-04  0.0148
   9.8647E-01   1.0105E+00   3.8654E-04  0.0146
   1.0105E+00   1.0351E+00   3.8540E-04  0.0145
   1.0351E+00   1.0602E+00   3.8222E-04  0.0144
   1.0602E+00   1.0860E+00   3.8481E-04  0.0141
   1.0860E+00   1.1125E+00   3.8975E-04  0.0139
   1.1125E+00   1.1395E+00   3.8517E-04  0.0138
   1.1395E+00   1.1673E+00   3.9213E-04  0.0135
   1.1673E+00   1.1957E+00   4.0425E-04  0.0131
   1.1957E+00   1.2247E+00   3.9870E-04  0.0131
   1.2247E+00   1.2545E+00   4.0996E-04  0.0127
   1.2545E+00   1.2851E+00   3.9861E-04  0.0128
   1.2851E+00   1.3163E+00   3.9969E-04  0.0126
   1.3163E+00   1.3484E+00   4.0497E-04  0.0124
   1.3484E+00   1.3812E+00   4.0734E-04  0.0122
   1.3812E+00   1.4148E+00   4.1618E-04  0.0119
   1.4148E+00   1.4492E+00   4.1580E-04  0.0118
   1.4492E+00   1.4845E+00   4.1271E-04  0.0117
   1.4845E+00   1.5206E+00   4.2470E-04  0.0114
   1.5206E+00   1.5576E+00   4.0794E-04  0.0115
   1.5576E+00   1.5955E+00   4.0798E-04  0.0113
   1.5955E+00   1.6343E+00   3.9961E-04  0.0113
   1.6343E+00   1.6741E+00   4.1403E-04  0.0110
   1.6741E+00   1.7148E+00   4.0242E-04  0.0110
   1.7148E+00   1.7565E+00   3.9687E-04  0.0109
   1.7565E+00   1.7992E+00   3.9360E-04  0.0109
   1.7992E+00   1.8430E+00   3.8859E-04  0.0108
   1.8430E+00   1.8879E+00   3.8004E-04  0.0108
   1.8879E+00   1.9338E+00   3.8053E-04  0.0106
   1.9338E+00   1.9808E+00   3.7894E-04  0.0105
   1.9808E+00   2.0290E+00   3.7804E-04  0.0104
   2.0290E+00   2.0784E+00   3.6987E-04  0.0104
   2.0784E+00   2.1290E+00   3.5788E-04  0.0105
   2.1290E+00   2.1808E+00   3.5124E-04  0.0104
   2.1808E+00   2.2338E+00   3.3970E-04  0.0105
   2.2338E+00   2.2882E+00   3.3728E-04  0.0104
   2.2882E+00   2.3439E+00   3.3138E-04  0.0104
   2.3439E+00   2.4009E+00   3.2450E-04  0.0103
   2.4009E+00   2.4593E+00   3.2015E-04  0.0103
   2.4593E+00   2.5191E+00   3.1198E-04  0.0103
   2.5191E+00   2.5804E+00   3.0775E-04  0.0102
   2.5804E+00   2.6432E+00   2.9955E-04  0.0103
   2.6432E+00   2.7075E+00   2.9669E-04  0.0102
   2.7075E+00   2.7734E+00   2.8049E-04  0.0103
   2.7734E+00   2.8409E+00   2.7838E-04  0.0103
   2.8409E+00   2.9100E+00   2.6839E-04  0.0103
   2.9100E+00   2.9808E+00   2.6351E-04  0.0103
   2.9808E+00   3.0533E+00   2.5532E-04  0.0103
   3.0533E+00   3.1276E+00   2.5448E-04  0.0102
   3.1276E+00   3.2037E+00   2.4182E-04  0.0104
   3.2037E+00   3.2817E+00   2.3539E-04  0.0104
   3.2817E+00   3.3615E+00   2.2677E-04  0.0105
   3.3615E+00   3.4433E+00   2.2107E-04  0.0105
   3.4433E+00   3.5271E+00   2.1560E-04  0.0105
   3.5271E+00   3.6129E+00   2.1138E-04  0.0104
   3.6129E+00   3.7008E+00   2.0504E-04  0.0105
   3.7008E+00   3.7908E+00   1.9915E-04  0.0105
   3.7908E+00   3.8831E+00   1.9277E-04  0.0105
   3.8831E+00   3.9776E+00   1.8446E-04  0.0107
   3.9776E+00   4.0743E+00   1.8321E-04  0.0106
   4.0743E+00   4.1735E+00   1.7965E-04  0.0105
   4.1735E+00   4.2750E+00   1.7000E-04  0.0107
   4.2750E+00   4.3790E+00   1.6638E-04  0.0107
   4.3790E+00   4.4856E+00   1.6557E-04  0.0106
   4.4856E+00   4.5947E+00   1.6196E-04  0.0106
   4.5947E+00   4.7065E+00   1.5841E-04  0.0106
   4.7065E+00   4.8210E+00   1.5448E-04  0.0106
   4.8210E+00   4.9383E+00   1.5201E-04  0.0105
   4.9383E+00   5.0585E+00   1.5137E-04  0.0104
   5.0585E+00   5.1815E+00   1.5101E-04  0.0103
   5.1815E+00   5.3076E+00   1.4774E-04  0.0103
   5.3076E+00   5.4368E+00   1.4676E-04  0.0102
   5.4368E+00   5.5690E+00   1.4270E-04  0.0103
   5.5690E+00   5.7045E+00   1.3645E-04  0.0104
   5.7045E+00   5.8433E+00   1.3491E-04  0.0103
   5.8433E+00   5.9855E+00   1.3041E-04  0.0103
   5.9855E+00   6.1311E+00   1.2639E-04  0.0104
   6.1311E+00   6.2803E+00   1.2525E-04  0.0103
   6.2803E+00   6.4331E+00   1.2000E-04  0.0104
   6.4331E+00   6.5896E+00   1.1871E-04  0.0103
   6.5896E+00   6.7500E+00   1.1261E-04  0.0105
   6.7500E+00   6.9142E+00   1.1067E-04  0.0105
   6.9142E+00   7.0824E+00   1.0948E-04  0.0104
   7.0824E+00   7.2548E+00   1.0280E-04  0.0106
   7.2548E+00   7.4313E+00   9.9123E-05  0.0107
   7.4313E+00   7.6121E+00   9.6970E-05  0.0107
   7.6121E+00   7.7973E+00   9.4309E-05  0.0107
   7.7973E+00   7.9870E+00   9.1571E-05  0.0107
   7.9870E+00   8.1813E+00   9.1052E-05  0.0106
   8.1813E+00   8.3804E+00   8.6550E-05  0.0108
   8.3804E+00   8.5843E+00   8.1791E-05  0.0109
   8.5843E+00   8.7931E+00   8.1216E-05  0.0108
   8.7931E+00   9.0071E+00   7.7219E-05  0.0110
   9.0071E+00   9.2262E+00   7.5316E-05  0.0110
   9.2262E+00   9.4507E+00   7.3190E-05  0.0110
   9.4507E+00   9.6807E+00   6.8883E-05  0.0112
   9.6807E+00   9.9162E+00   6.6773E-05  0.0113
   9.9162E+00   1.0157E+01   6.3372E-05  0.0114
   1.0157E+01   1.0405E+01   6.2082E-05  0.0114
   1.0405E+01   1.0658E+01   5.8522E-05  0.0116
   1.0658E+01   1.0917E+01   5.7280E-05  0.0116
   1.0917E+01   1.1183E+01   5.4057E-05  0.0118
   1.1183E+01   1.1455E+01   5.1240E-05  0.0120
   1.1455E+01   1.1733E+01   4.9890E-05  0.0120
   1.1733E+01   1.2019E+01   4.6884E-05  0.0122
   1.2019E+01   1.2311E+01   4.5242E-05  0.0123
   1.2311E+01   1.2611E+01   4.3644E-05  0.0124
   1.2611E+01   1.2918E+01   4.0889E-05  0.0126
   1.2918E+01   1.3232E+01   3.9850E-05  0.0126
   1.3232E+01   1.3554E+01   3.7041E-05  0.0130
   1.3554E+01   1.3884E+01   3.5236E-05  0.0131
   1.3884E+01   1.4222E+01   3.3087E-05  0.0134
   1.4222E+01   1.4568E+01   3.2055E-05  0.0134
   1.4568E+01   1.4922E+01   3.0327E-05  0.0136
   1.4922E+01   1.5285E+01   2.8420E-05  0.0139
   1.5285E+01   1.5657E+01   2.6246E-05  0.0143
   1.5657E+01   1.6038E+01   2.5911E-05  0.0142
   1.6038E+01   1.6428E+01   2.4014E-05  0.0146
   1.6428E+01   1.6828E+01   2.2471E-05  0.0149
   1.6828E+01   1.7237E+01   2.0708E-05  0.0154
   1.7237E+01   1.7657E+01   1.9855E-05  0.0155
   1.7657E+01   1.8086E+01   1.8952E-05  0.0157
   1.8086E+01   1.8526E+01   1.7684E-05  0.0160
   1.8526E+01   1.8977E+01   1.6439E-05  0.0164
   1.8977E+01   1.9439E+01   1.5598E-05  0.0167
   1.9439E+01   1.9912E+01   1.5236E-05  0.0167
   1.9912E+01   2.0396E+01   1.3689E-05  0.0174
   2.0396E+01   2.0893E+01   1.3082E-05  0.0176
   2.0893E+01   2.1401E+01   1.2417E-05  0.0178
   2.1401E+01   2.1922E+01   1.0797E-05  0.0189
   2.1922E+01   2.2455E+01   1.0248E-05  0.0191
   2.2455E+01   2.3001E+01   9.1773E-06  0.0200
   2.3001E+01   2.3561E+01   8.5591E-06  0.0204
   2.3561E+01   2.4134E+01   7.8080E-06  0.0211
   2.4134E+01   2.4721E+01   7.2377E-06  0.0217
   2.4721E+01   2.5323E+01   6.4273E-06  0.0227
   2.5323E+01   2.5939E+01   5.9079E-06  0.0234
   2.5939E+01   2.6570E+01   5.1876E-06  0.0247
   2.6570E+01   2.7217E+01   4.7272E-06  0.0256
   2.7217E+01   2.7879E+01   4.1256E-06  0.0271
   2.7879E+01   2.8557E+01   3.7917E-06  0.0279
   2.8557E+01   2.9252E+01   3.1836E-06  0.0301
   2.9252E+01   2.9964E+01   2.8101E-06  0.0316
   2.9964E+01   3.0693E+01   2.3675E-06  0.0340
   3.0693E+01   3.1440E+01   2.0381E-06  0.0362
   3.1440E+01   3.2205E+01   1.6576E-06  0.0397
   3.2205E+01   3.2988E+01   1.5008E-06  0.0412
   3.2988E+01   3.3791E+01   1.2733E-06  0.0442
   3.3791E+01   3.4613E+01   9.5602E-07  0.0504
   3.4613E+01   3.5455E+01   7.9558E-07  0.0546
   3.5455E+01   3.6318E+01   6.3525E-07  0.0604
   3.6318E+01   3.7201E+01   5.2510E-07  0.0657
   3.7201E+01   3.8106E+01   4.2645E-07  0.0720
   3.8106E+01   3.9034E+01   3.5377E-07  0.0781
   3.9034E+01   3.9983E+01   2.7377E-07  0.0877
   3.9983E+01   4.0956E+01   2.0147E-07  0.1010
   4.0956E+01   4.1953E+01   1.6257E-07  0.1111
   4.1953E+01   4.2973E+01   1.2344E-07  0.1260
   4.2973E+01   4.4019E+01   1.2625E-07  0.1231
   4.4019E+01   4.5090E+01   4.8552E-08  0.1961
   4.5090E+01   4.6187E+01   6.3806E-08  0.1690
   4.6187E+01   4.7311E+01   4.0934E-08  0.2085
   4.7311E+01   4.8462E+01   2.7799E-08  0.2500
   4.8462E+01   4.9641E+01   3.2228E-08  0.2294
   4.9641E+01   5.0849E+01   1.3247E-08  0.3536
   5.0849E+01   5.2086E+01   4.8497E-09  0.5774
   5.2086E+01   5.3353E+01   1.5782E-09  1.0000
   5.3353E+01   5.4651E+01   3.0814E-09  0.7071
   5.4651E+01   5.5981E+01   0.0000E+00  0.0000
   5.5981E+01   5.7343E+01   0.0000E+00  0.0000
   5.7343E+01   5.8738E+01   2.8670E-09  0.7071
   5.8738E+01   6.0168E+01   0.0000E+00  0.0000
   6.0168E+01   6.1632E+01   0.0000E+00  0.0000
   6.1632E+01   6.3131E+01   0.0000E+00  0.0000
   6.3131E+01   6.4667E+01   0.0000E+00  0.0000
   6.4667E+01   6.6240E+01   0.0000E+00  0.0000
   6.6240E+01   6.7852E+01   0.0000E+00  0.0000
   6.7852E+01   6.9503E+01   0.0000E+00  0.0000
   6.9503E+01   7.1194E+01   0.0000E+00  0.0000
   7.1194E+01   7.2926E+01   0.0000E+00  0.0000
   7.2926E+01   7.4701E+01   0.0000E+00  0.0000
   7.4701E+01   7.6518E+01   0.0000E+00  0.0000
   7.6518E+01   7.8380E+01   0.0000E+00  0.0000
   7.8380E+01   8.0287E+01   0.0000E+00  0.0000
   8.0287E+01   8.2240E+01   0.0000E+00  0.0000
   8.2240E+01   8.4241E+01   0.0000E+00  0.0000
   8.4241E+01   8.6291E+01   0.0000E+00  0.0000
   8.6291E+01   8.8391E+01   0.0000E+00  0.0000
   8.8391E+01   9.0541E+01   0.0000E+00  0.0000
   9.0541E+01   9.2744E+01   0.0000E+00  0.0000
   9.2744E+01   9.5001E+01   0.0000E+00  0.0000
   9.5001E+01   9.7312E+01   0.0000E+00  0.0000
   9.7312E+01   9.9680E+01   0.0000E+00  0.0000
   9.9680E+01   1.0211E+02   0.0000E+00  0.0000
   1.0211E+02   1.0459E+02   0.0000E+00  0.0000
   1.0459E+02   1.0713E+02   0.0000E+00  0.0000
   1.0713E+02   1.0974E+02   0.0000E+00  0.0000
   1.0974E+02   1.1241E+02   0.0000E+00  0.0000
   1.1241E+02   1.1515E+02   0.0000E+00  0.0000
   1.1515E+02   1.1795E+02   0.0000E+00  0.0000
   1.1795E+02   1.2082E+02   0.0000E+00  0.0000
   1.2082E+02   1.2376E+02   0.0000E+00  0.0000
   1.2376E+02   1.2677E+02   0.0000E+00  0.0000
   1.2677E+02   1.2985E+02   0.0000E+00  0.0000
   1.2985E+02   1.3301E+02   0.0000E+00  0.0000
   1.3301E+02   1.3625E+02   0.0000E+00  0.0000
   1.3625E+02   1.3956E+02   0.0000E+00  0.0000
   1.3956E+02   1.4296E+02   0.0000E+00  0.0000
   1.4296E+02   1.4644E+02   0.0000E+00  0.0000
   1.4644E+02   1.5000E+02   0.0000E+00  0.0000

#   sum over                 1.5074E-05
'no. =    1   reg = 115 - 215'
msuc: {\huge [t-cross] in region mesh}
msdr: {\it plotted by \ANGEL \version}
msdl: {\it calculated by \PHITS  3.26}
wt: s(0.7)
\vspace{-3}
  region surface crossing
  area  &=&   1.0000E+00 [cm^2]
e:
 
# Information for Restart Calculation
# This calculation was newly started
# istdev =  2 # 1:Batch variance, 2:History variance
# resc2  = 5.00000000000000000E+08 # Total source weight or Total source weight / maxcas
# resc3  = 5.00000000000000000E+08 # Total history number or Total batch number
# maxcas =   500000000 # History / Batch, only used for istdev=1
# bitrseed = 1101101111010011011000101101110001100110110010110001010100010001 # bit data of rseed
