[ T-Cross ]
    title = [t-cross] in region mesh
     mesh =  reg            # mesh type is region-wise
      reg =    1            # number of crossing regions
      non     r-from    r-to       area
      1       100       200        1.000000    
   e-type =    3            # e-mesh is log given by emin, emax and ne
     emin =  1.0000000E-02  # minimum value of e-mesh points
     emax =   150.0000      # maximum value of e-mesh points
#    edel =  2.4039514E-02  # mesh width of e-mesh points
       ne =    400          # number of e-mesh points
#    data = ( e(i), i = 1, ne + 1 )
#           1.00000E-02  1.02433E-02  1.04925E-02  1.07478E-02  1.10093E-02
#           1.12772E-02  1.15516E-02  1.18326E-02  1.21205E-02  1.24154E-02
#           1.27175E-02  1.30269E-02  1.33439E-02  1.36686E-02  1.40011E-02
#           1.43418E-02  1.46907E-02  1.50482E-02  1.54143E-02  1.57894E-02
#           1.61735E-02  1.65670E-02  1.69701E-02  1.73830E-02  1.78060E-02
#           1.82392E-02  1.86830E-02  1.91375E-02  1.96032E-02  2.00801E-02
#           2.05687E-02  2.10692E-02  2.15818E-02  2.21069E-02  2.26448E-02
#           2.31957E-02  2.37601E-02  2.43382E-02  2.49304E-02  2.55369E-02
#           2.61583E-02  2.67947E-02  2.74467E-02  2.81145E-02  2.87985E-02
#           2.94992E-02  3.02169E-02  3.09521E-02  3.17052E-02  3.24766E-02
#           3.32668E-02  3.40762E-02  3.49053E-02  3.57546E-02  3.66246E-02
#           3.75157E-02  3.84284E-02  3.93634E-02  4.03212E-02  4.13022E-02
#           4.23071E-02  4.33365E-02  4.43909E-02  4.54710E-02  4.65773E-02
#           4.77106E-02  4.88714E-02  5.00605E-02  5.12785E-02  5.25262E-02
#           5.38042E-02  5.51133E-02  5.64542E-02  5.78278E-02  5.92348E-02
#           6.06760E-02  6.21523E-02  6.36645E-02  6.52135E-02  6.68002E-02
#           6.84255E-02  7.00904E-02  7.17957E-02  7.35426E-02  7.53319E-02
#           7.71648E-02  7.90423E-02  8.09655E-02  8.29354E-02  8.49533E-02
#           8.70203E-02  8.91376E-02  9.13064E-02  9.35279E-02  9.58035E-02
#           9.81345E-02  1.00522E-01  1.02968E-01  1.05473E-01  1.08040E-01
#           1.10668E-01  1.13361E-01  1.16119E-01  1.18944E-01  1.21838E-01
#           1.24803E-01  1.27839E-01  1.30950E-01  1.34136E-01  1.37399E-01
#           1.40742E-01  1.44167E-01  1.47675E-01  1.51268E-01  1.54948E-01
#           1.58718E-01  1.62580E-01  1.66535E-01  1.70587E-01  1.74738E-01
#           1.78989E-01  1.83344E-01  1.87805E-01  1.92375E-01  1.97055E-01
#           2.01850E-01  2.06761E-01  2.11792E-01  2.16945E-01  2.22223E-01
#           2.27630E-01  2.33169E-01  2.38842E-01  2.44653E-01  2.50605E-01
#           2.56703E-01  2.62949E-01  2.69346E-01  2.75900E-01  2.82613E-01
#           2.89489E-01  2.96532E-01  3.03747E-01  3.11138E-01  3.18708E-01
#           3.26462E-01  3.34405E-01  3.42542E-01  3.50876E-01  3.59413E-01
#           3.68158E-01  3.77116E-01  3.86291E-01  3.95690E-01  4.05317E-01
#           4.15179E-01  4.25281E-01  4.35628E-01  4.46227E-01  4.57084E-01
#           4.68205E-01  4.79597E-01  4.91266E-01  5.03219E-01  5.15463E-01
#           5.28005E-01  5.40851E-01  5.54011E-01  5.67490E-01  5.81298E-01
#           5.95441E-01  6.09929E-01  6.24769E-01  6.39970E-01  6.55541E-01
#           6.71491E-01  6.87828E-01  7.04564E-01  7.21706E-01  7.39266E-01
#           7.57253E-01  7.75678E-01  7.94551E-01  8.13883E-01  8.33685E-01
#           8.53969E-01  8.74747E-01  8.96030E-01  9.17831E-01  9.40163E-01
#           9.63038E-01  9.86469E-01  1.01047E+00  1.03506E+00  1.06024E+00
#           1.08604E+00  1.11246E+00  1.13953E+00  1.16725E+00  1.19565E+00
#           1.22474E+00  1.25454E+00  1.28507E+00  1.31633E+00  1.34836E+00
#           1.38117E+00  1.41477E+00  1.44920E+00  1.48446E+00  1.52057E+00
#           1.55757E+00  1.59547E+00  1.63429E+00  1.67405E+00  1.71478E+00
#           1.75650E+00  1.79924E+00  1.84302E+00  1.88786E+00  1.93379E+00
#           1.98084E+00  2.02904E+00  2.07841E+00  2.12898E+00  2.18078E+00
#           2.23384E+00  2.28819E+00  2.34386E+00  2.40089E+00  2.45930E+00
#           2.51914E+00  2.58043E+00  2.64322E+00  2.70753E+00  2.77341E+00
#           2.84088E+00  2.91001E+00  2.98081E+00  3.05333E+00  3.12762E+00
#           3.20372E+00  3.28167E+00  3.36152E+00  3.44330E+00  3.52708E+00
#           3.61290E+00  3.70080E+00  3.79085E+00  3.88308E+00  3.97756E+00
#           4.07434E+00  4.17347E+00  4.27501E+00  4.37903E+00  4.48557E+00
#           4.59471E+00  4.70650E+00  4.82102E+00  4.93832E+00  5.05847E+00
#           5.18155E+00  5.30762E+00  5.43676E+00  5.56904E+00  5.70453E+00
#           5.84333E+00  5.98550E+00  6.13114E+00  6.28031E+00  6.43312E+00
#           6.58964E+00  6.74997E+00  6.91420E+00  7.08243E+00  7.25475E+00
#           7.43126E+00  7.61207E+00  7.79728E+00  7.98700E+00  8.18133E+00
#           8.38038E+00  8.58428E+00  8.79315E+00  9.00709E+00  9.22624E+00
#           9.45072E+00  9.68067E+00  9.91620E+00  1.01575E+01  1.04046E+01
#           1.06578E+01  1.09171E+01  1.11827E+01  1.14548E+01  1.17335E+01
#           1.20190E+01  1.23114E+01  1.26109E+01  1.29178E+01  1.32321E+01
#           1.35540E+01  1.38838E+01  1.42216E+01  1.45676E+01  1.49221E+01
#           1.52851E+01  1.56570E+01  1.60380E+01  1.64282E+01  1.68279E+01
#           1.72374E+01  1.76568E+01  1.80864E+01  1.85264E+01  1.89772E+01
#           1.94389E+01  1.99119E+01  2.03963E+01  2.08926E+01  2.14009E+01
#           2.19216E+01  2.24550E+01  2.30014E+01  2.35610E+01  2.41343E+01
#           2.47215E+01  2.53230E+01  2.59391E+01  2.65702E+01  2.72167E+01
#           2.78789E+01  2.85572E+01  2.92520E+01  2.99637E+01  3.06928E+01
#           3.14396E+01  3.22045E+01  3.29881E+01  3.37907E+01  3.46128E+01
#           3.54550E+01  3.63177E+01  3.72013E+01  3.81064E+01  3.90336E+01
#           3.99833E+01  4.09561E+01  4.19526E+01  4.29734E+01  4.40189E+01
#           4.50900E+01  4.61870E+01  4.73108E+01  4.84619E+01  4.96410E+01
#           5.08488E+01  5.20860E+01  5.33533E+01  5.46514E+01  5.59812E+01
#           5.73432E+01  5.87384E+01  6.01676E+01  6.16315E+01  6.31311E+01
#           6.46671E+01  6.62405E+01  6.78522E+01  6.95031E+01  7.11941E+01
#           7.29263E+01  7.47007E+01  7.65182E+01  7.83800E+01  8.02870E+01
#           8.22405E+01  8.42414E+01  8.62911E+01  8.83906E+01  9.05412E+01
#           9.27442E+01  9.50007E+01  9.73122E+01  9.96799E+01  1.02105E+02
#           1.04589E+02  1.07134E+02  1.09741E+02  1.12411E+02  1.15146E+02
#           1.17948E+02  1.20817E+02  1.23757E+02  1.26768E+02  1.29852E+02
#           1.33012E+02  1.36248E+02  1.39563E+02  1.42959E+02  1.46437E+02
#           1.50000E+02
     unit =    2            # unit is [1/cm^2/(MeV/n)/source]
     axis =  eng            # axis of output
     file = detector-01.out  # file name of output for the above axis
   output = f-curr          # surface crossing forward current spectrum
     part =  neutron  
# kf/name :  2112     
#    used :        main (  %)        temp (  %)       total (  %)
#  memory :         414 (  0)           0 (  0)         414 (  0)

#------------------------------------------------------------------------------
#newpage:
#   no. =    1   reg = 100 - 200

x: Energy [MeV/n]
y:  F-Curr [1/cm^2/(MeV/n)/source]         
p: xlog ylog afac(0.8) form(0.9)
h: n            x            y(neutron ),hh0l   n 
#  e-lower      e-upper      neutron     r.err 
   1.0000E-02   1.0243E-02   1.8080E-05  0.2132
   1.0243E-02   1.0493E-02   9.6282E-06  0.2887
   1.0493E-02   1.0748E-02   1.4098E-05  0.2357
   1.0748E-02   1.1009E-02   1.4528E-05  0.2294
   1.1009E-02   1.1277E-02   1.1195E-05  0.2582
   1.1277E-02   1.1552E-02   1.2389E-05  0.2425
   1.1552E-02   1.1833E-02   1.0670E-05  0.2582
   1.1833E-02   1.2121E-02   1.1111E-05  0.2500
   1.2121E-02   1.2415E-02   1.0165E-05  0.2582
   1.2415E-02   1.2718E-02   1.1397E-05  0.2398
   1.2718E-02   1.3027E-02   1.2280E-05  0.2294
   1.3027E-02   1.3344E-02   1.3246E-05  0.2182
   1.3344E-02   1.3669E-02   1.4778E-05  0.2041
   1.3669E-02   1.4001E-02   7.7646E-06  0.2774
   1.4001E-02   1.4342E-02   9.3901E-06  0.2500
   1.4342E-02   1.4691E-02   6.3043E-06  0.3015
   1.4691E-02   1.5048E-02   8.9474E-06  0.2500
   1.5048E-02   1.5414E-02   1.1470E-05  0.2182
   1.5414E-02   1.5789E-02   1.1731E-05  0.2132
   1.5789E-02   1.6174E-02   8.8472E-06  0.2425
   1.6174E-02   1.6567E-02   1.0163E-05  0.2236
   1.6567E-02   1.6970E-02   1.1411E-05  0.2085
   1.6970E-02   1.7383E-02   7.2591E-06  0.2582
   1.7383E-02   1.7806E-02   6.6176E-06  0.2673
   1.7806E-02   1.8239E-02   1.1999E-05  0.1961
   1.8239E-02   1.8683E-02   8.1075E-06  0.2357
   1.8683E-02   1.9138E-02   8.3575E-06  0.2294
   1.9138E-02   1.9603E-02   1.0224E-05  0.2043
   1.9603E-02   2.0080E-02   9.6422E-06  0.2085
   2.0080E-02   2.0569E-02   5.4686E-06  0.2712
   2.0569E-02   2.1069E-02   5.9927E-06  0.2582
   2.1069E-02   2.1582E-02   6.2410E-06  0.2500
   2.1582E-02   2.2107E-02   6.0246E-06  0.2502
   2.2107E-02   2.2645E-02   6.6911E-06  0.2357
   2.2645E-02   2.3196E-02   5.8049E-06  0.2500
   2.3196E-02   2.3760E-02   6.7302E-06  0.2294
   2.3760E-02   2.4338E-02   3.4582E-06  0.3162
   2.4338E-02   2.4930E-02   9.1116E-06  0.1925
   2.4930E-02   2.5537E-02   6.8559E-06  0.2184
   2.5537E-02   2.6158E-02   6.6915E-06  0.2184
   2.6158E-02   2.6795E-02   6.5976E-06  0.2182
   2.6795E-02   2.7447E-02   5.5212E-06  0.2357
   2.7447E-02   2.8114E-02   7.1381E-06  0.2042
   2.8114E-02   2.8799E-02   7.3082E-06  0.2000
   2.8799E-02   2.9499E-02   5.7075E-06  0.2236
   2.9499E-02   3.0217E-02   7.5222E-06  0.1925
   3.0217E-02   3.0952E-02   7.0704E-06  0.1961
   3.0952E-02   3.1705E-02   5.8400E-06  0.2132
   3.1705E-02   3.2477E-02   3.8875E-06  0.2582
   3.2477E-02   3.3267E-02   6.7757E-06  0.1926
   3.3267E-02   3.4076E-02   4.6947E-06  0.2294
   3.4076E-02   3.4905E-02   4.5815E-06  0.2294
   3.4905E-02   3.5755E-02   4.9442E-06  0.2182
   3.5755E-02   3.6625E-02   5.5166E-06  0.2041
   3.6625E-02   3.7516E-02   6.7308E-06  0.1826
   3.7516E-02   3.8428E-02   3.0669E-06  0.2673
   3.8428E-02   3.9363E-02   4.0486E-06  0.2294
   3.9363E-02   4.0321E-02   4.8016E-06  0.2085
   4.0321E-02   4.1302E-02   2.2415E-06  0.3015
   4.1302E-02   4.2307E-02   4.5760E-06  0.2085
   4.2307E-02   4.3337E-02   2.1360E-06  0.3015
   4.3337E-02   4.4391E-02   3.7906E-06  0.2236
   4.4391E-02   4.5471E-02   4.8134E-06  0.1961
   4.5471E-02   4.6577E-02   3.0721E-06  0.2425
   4.6577E-02   4.7711E-02   3.5266E-06  0.2236
   4.7711E-02   4.8871E-02   3.7900E-06  0.2132
   4.8871E-02   5.0061E-02   3.8650E-06  0.2085
   5.0061E-02   5.1279E-02   4.4007E-06  0.1926
   5.1279E-02   5.2526E-02   4.0065E-06  0.2000
   5.2526E-02   5.3804E-02   3.1285E-06  0.2236
   5.3804E-02   5.5113E-02   3.3597E-06  0.2132
   5.5113E-02   5.6454E-02   2.0873E-06  0.2673
   5.6454E-02   5.7828E-02   3.3196E-06  0.2087
   5.7828E-02   5.9235E-02   1.7051E-06  0.2887
   5.9235E-02   6.0676E-02   2.2189E-06  0.2500
   6.0676E-02   6.2152E-02   3.1154E-06  0.2085
   6.2152E-02   6.3665E-02   1.9818E-06  0.2582
   6.3665E-02   6.5214E-02   2.4254E-06  0.2297
   6.5214E-02   6.6800E-02   2.2683E-06  0.2357
   6.6800E-02   6.8426E-02   2.7050E-06  0.2132
   6.8426E-02   7.0090E-02   2.5219E-06  0.2182
   7.0090E-02   7.1796E-02   2.8138E-06  0.2041
   7.1796E-02   7.3543E-02   2.0601E-06  0.2357
   7.3543E-02   7.5332E-02   2.5699E-06  0.2085
   7.5332E-02   7.7165E-02   1.8543E-06  0.2425
   7.7165E-02   7.9042E-02   2.3662E-06  0.2108
   7.9042E-02   8.0965E-02   2.0789E-06  0.2236
   8.0965E-02   8.2935E-02   1.7253E-06  0.2425
   8.2935E-02   8.4953E-02   2.2781E-06  0.2085
   8.4953E-02   8.7020E-02   2.1157E-06  0.2133
   8.7020E-02   8.9138E-02   2.2667E-06  0.2041
   8.9138E-02   9.1306E-02   1.3819E-06  0.2582
   9.1306E-02   9.3528E-02   1.7987E-06  0.2236
   9.3528E-02   9.5804E-02   1.5817E-06  0.2357
   9.5804E-02   9.8134E-02   2.1310E-06  0.2001
   9.8134E-02   1.0052E-01   1.9256E-06  0.2085
   1.0052E-01   1.0297E-01   2.5338E-06  0.1796
   1.0297E-01   1.0547E-01   1.8339E-06  0.2085
   1.0547E-01   1.0804E-01   2.2587E-06  0.1857
   1.0804E-01   1.1067E-01   2.5854E-06  0.1715
   1.1067E-01   1.1336E-01   2.0039E-06  0.1925
   1.1336E-01   1.1612E-01   1.5370E-06  0.2163
   1.1612E-01   1.1894E-01   2.3199E-06  0.1741
   1.1894E-01   1.2184E-01   2.7737E-06  0.1575
   1.2184E-01   1.2480E-01   2.5622E-06  0.1622
   1.2480E-01   1.2784E-01   2.2543E-06  0.1705
   1.2784E-01   1.3095E-01   2.5066E-06  0.1601
   1.3095E-01   1.3414E-01   2.8864E-06  0.1474
   1.3414E-01   1.3740E-01   2.5115E-06  0.1562
   1.3740E-01   1.4074E-01   2.2722E-06  0.1622
   1.4074E-01   1.4417E-01   2.7437E-06  0.1459
   1.4417E-01   1.4767E-01   2.8963E-06  0.1401
   1.4767E-01   1.5127E-01   3.4603E-06  0.1266
   1.5127E-01   1.5495E-01   3.4673E-06  0.1250
   1.5495E-01   1.5872E-01   3.0878E-06  0.1308
   1.5872E-01   1.6258E-01   3.5706E-06  0.1204
   1.6258E-01   1.6654E-01   3.0339E-06  0.1287
   1.6654E-01   1.7059E-01   3.8478E-06  0.1132
   1.7059E-01   1.7474E-01   2.6868E-06  0.1337
   1.7474E-01   1.7899E-01   3.3853E-06  0.1179
   1.7899E-01   1.8334E-01   3.8101E-06  0.1098
   1.8334E-01   1.8781E-01   3.7178E-06  0.1098
   1.8781E-01   1.9237E-01   4.1921E-06  0.1018
   1.9237E-01   1.9706E-01   3.9277E-06  0.1043
   1.9706E-01   2.0185E-01   3.8353E-06  0.1043
   2.0185E-01   2.0676E-01   4.0326E-06  0.1003
   2.0676E-01   2.1179E-01   4.4097E-06  0.0949
   2.1179E-01   2.1694E-01   4.9639E-06  0.0884
   2.1694E-01   2.2222E-01   4.4673E-06  0.0921
   2.2222E-01   2.2763E-01   4.4283E-06  0.0913
   2.2763E-01   2.3317E-01   5.1260E-06  0.0838
   2.3317E-01   2.3884E-01   5.4112E-06  0.0806
   2.3884E-01   2.4465E-01   4.5605E-06  0.0867
   2.4465E-01   2.5061E-01   5.5551E-06  0.0776
   2.5061E-01   2.5670E-01   5.5630E-06  0.0767
   2.5670E-01   2.6295E-01   5.4001E-06  0.0769
   2.6295E-01   2.6935E-01   5.7773E-06  0.0735
   2.6935E-01   2.7590E-01   5.1174E-06  0.0771
   2.7590E-01   2.8261E-01   4.9403E-06  0.0776
   2.8261E-01   2.8949E-01   5.2140E-06  0.0746
   2.8949E-01   2.9653E-01   4.9907E-06  0.0754
   2.9653E-01   3.0375E-01   5.8129E-06  0.0690
   3.0375E-01   3.1114E-01   5.8880E-06  0.0676
   3.1114E-01   3.1871E-01   5.4280E-06  0.0697
   3.1871E-01   3.2646E-01   5.9168E-06  0.0659
   3.2646E-01   3.3441E-01   5.9099E-06  0.0652
   3.3441E-01   3.4254E-01   6.8926E-06  0.0596
   3.4254E-01   3.5088E-01   6.6692E-06  0.0599
   3.5088E-01   3.5941E-01   6.5985E-06  0.0595
   3.5941E-01   3.6816E-01   5.9103E-06  0.0621
   3.6816E-01   3.7712E-01   7.0276E-06  0.0563
   3.7712E-01   3.8629E-01   6.6584E-06  0.0571
   3.8629E-01   3.9569E-01   7.0362E-06  0.0549
   3.9569E-01   4.0532E-01   6.6223E-06  0.0560
   4.0532E-01   4.1518E-01   7.0314E-06  0.0536
   4.1518E-01   4.2528E-01   6.7202E-06  0.0542
   4.2528E-01   4.3563E-01   6.7289E-06  0.0535
   4.3563E-01   4.4623E-01   7.8286E-06  0.0490
   4.4623E-01   4.5708E-01   7.4318E-06  0.0497
   4.5708E-01   4.6821E-01   7.2224E-06  0.0498
   4.6821E-01   4.7960E-01   6.8841E-06  0.0504
   4.7960E-01   4.9127E-01   7.5541E-06  0.0476
   4.9127E-01   5.0322E-01   7.7564E-06  0.0464
   5.0322E-01   5.1546E-01   7.6817E-06  0.0460
   5.1546E-01   5.2800E-01   7.8308E-06  0.0450
   5.2800E-01   5.4085E-01   8.1280E-06  0.0437
   5.4085E-01   5.5401E-01   7.7084E-06  0.0443
   5.5401E-01   5.6749E-01   7.7044E-06  0.0438
   5.6749E-01   5.8130E-01   8.1619E-06  0.0421
   5.8130E-01   5.9544E-01   8.2735E-06  0.0413
   5.9544E-01   6.0993E-01   8.0065E-06  0.0415
   6.0993E-01   6.2477E-01   8.5010E-06  0.0398
   6.2477E-01   6.3997E-01   8.5969E-06  0.0391
   6.3997E-01   6.5554E-01   8.3654E-06  0.0391
   6.5554E-01   6.7149E-01   8.8375E-06  0.0376
   6.7149E-01   6.8783E-01   8.0262E-06  0.0390
   6.8783E-01   7.0456E-01   8.5098E-06  0.0374
   7.0456E-01   7.2171E-01   8.4255E-06  0.0371
   7.2171E-01   7.3927E-01   8.4144E-06  0.0367
   7.3927E-01   7.5725E-01   8.2200E-06  0.0367
   7.5725E-01   7.7568E-01   8.9199E-06  0.0348
   7.7568E-01   7.9455E-01   8.2156E-06  0.0359
   7.9455E-01   8.1388E-01   9.0748E-06  0.0337
   8.1388E-01   8.3368E-01   9.0107E-06  0.0334
   8.3368E-01   8.5397E-01   8.3815E-06  0.0342
   8.5397E-01   8.7475E-01   9.2593E-06  0.0322
   8.7475E-01   8.9603E-01   8.8221E-06  0.0326
   8.9603E-01   9.1783E-01   9.1119E-06  0.0317
   9.1783E-01   9.4016E-01   9.0179E-06  0.0314
   9.4016E-01   9.6304E-01   8.9516E-06  0.0312
   9.6304E-01   9.8647E-01   8.9088E-06  0.0309
   9.8647E-01   1.0105E+00   8.5299E-06  0.0312
   1.0105E+00   1.0351E+00   8.5449E-06  0.0308
   1.0351E+00   1.0602E+00   8.7397E-06  0.0301
   1.0602E+00   1.0860E+00   8.4640E-06  0.0302
   1.0860E+00   1.1125E+00   8.3955E-06  0.0299
   1.1125E+00   1.1395E+00   8.8288E-06  0.0288
   1.1395E+00   1.1673E+00   8.9573E-06  0.0283
   1.1673E+00   1.1957E+00   8.7068E-06  0.0283
   1.1957E+00   1.2247E+00   9.1300E-06  0.0274
   1.2247E+00   1.2545E+00   8.7487E-06  0.0276
   1.2545E+00   1.2851E+00   9.0172E-06  0.0269
   1.2851E+00   1.3163E+00   8.7086E-06  0.0270
   1.3163E+00   1.3484E+00   8.5191E-06  0.0270
   1.3484E+00   1.3812E+00   8.8910E-06  0.0261
   1.3812E+00   1.4148E+00   9.2590E-06  0.0252
   1.4148E+00   1.4492E+00   9.0637E-06  0.0252
   1.4492E+00   1.4845E+00   8.6403E-06  0.0255
   1.4845E+00   1.5206E+00   8.9021E-06  0.0248
   1.5206E+00   1.5576E+00   8.8631E-06  0.0245
   1.5576E+00   1.5955E+00   8.9126E-06  0.0242
   1.5955E+00   1.6343E+00   8.6069E-06  0.0243
   1.6343E+00   1.6741E+00   8.1829E-06  0.0247
   1.6741E+00   1.7148E+00   8.9719E-06  0.0233
   1.7148E+00   1.7565E+00   8.5891E-06  0.0235
   1.7565E+00   1.7992E+00   8.3412E-06  0.0235
   1.7992E+00   1.8430E+00   8.7835E-06  0.0226
   1.8430E+00   1.8879E+00   8.1108E-06  0.0232
   1.8879E+00   1.9338E+00   8.1258E-06  0.0229
   1.9338E+00   1.9808E+00   8.1625E-06  0.0226
   1.9808E+00   2.0290E+00   8.0518E-06  0.0224
   2.0290E+00   2.0784E+00   8.2910E-06  0.0218
   2.0784E+00   2.1290E+00   8.0703E-06  0.0218
   2.1290E+00   2.1808E+00   7.9456E-06  0.0217
   2.1808E+00   2.2338E+00   8.3099E-06  0.0210
   2.2338E+00   2.2882E+00   8.3679E-06  0.0207
   2.2882E+00   2.3439E+00   7.9311E-06  0.0210
   2.3439E+00   2.4009E+00   8.0045E-06  0.0207
   2.4009E+00   2.4593E+00   8.0793E-06  0.0204
   2.4593E+00   2.5191E+00   8.2659E-06  0.0199
   2.5191E+00   2.5804E+00   8.0423E-06  0.0199
   2.5804E+00   2.6432E+00   8.1738E-06  0.0195
   2.6432E+00   2.7075E+00   8.1407E-06  0.0193
   2.7075E+00   2.7734E+00   7.7998E-06  0.0195
   2.7734E+00   2.8409E+00   7.9039E-06  0.0191
   2.8409E+00   2.9100E+00   8.0458E-06  0.0188
   2.9100E+00   2.9808E+00   7.8488E-06  0.0188
   2.9808E+00   3.0533E+00   7.7672E-06  0.0187
   3.0533E+00   3.1276E+00   7.7816E-06  0.0184
   3.1276E+00   3.2037E+00   7.5489E-06  0.0185
   3.2037E+00   3.2817E+00   7.3861E-06  0.0185
   3.2817E+00   3.3615E+00   7.3670E-06  0.0183
   3.3615E+00   3.4433E+00   7.5163E-06  0.0179
   3.4433E+00   3.5271E+00   7.1933E-06  0.0181
   3.5271E+00   3.6129E+00   7.1968E-06  0.0179
   3.6129E+00   3.7008E+00   6.8615E-06  0.0181
   3.7008E+00   3.7908E+00   7.2532E-06  0.0174
   3.7908E+00   3.8831E+00   7.1137E-06  0.0173
   3.8831E+00   3.9776E+00   7.0274E-06  0.0172
   3.9776E+00   4.0743E+00   6.9942E-06  0.0170
   4.0743E+00   4.1735E+00   6.8008E-06  0.0171
   4.1735E+00   4.2750E+00   6.6689E-06  0.0171
   4.2750E+00   4.3790E+00   6.7138E-06  0.0168
   4.3790E+00   4.4856E+00   6.7794E-06  0.0165
   4.4856E+00   4.5947E+00   6.4726E-06  0.0167
   4.5947E+00   4.7065E+00   6.6508E-06  0.0163
   4.7065E+00   4.8210E+00   6.5619E-06  0.0162
   4.8210E+00   4.9383E+00   6.1898E-06  0.0165
   4.9383E+00   5.0585E+00   6.5565E-06  0.0158
   5.0585E+00   5.1815E+00   6.3024E-06  0.0159
   5.1815E+00   5.3076E+00   6.1975E-06  0.0159
   5.3076E+00   5.4368E+00   6.5577E-06  0.0153
   5.4368E+00   5.5690E+00   6.0896E-06  0.0156
   5.5690E+00   5.7045E+00   6.1938E-06  0.0153
   5.7045E+00   5.8433E+00   6.1174E-06  0.0152
   5.8433E+00   5.9855E+00   6.0602E-06  0.0151
   5.9855E+00   6.1311E+00   6.0922E-06  0.0149
   6.1311E+00   6.2803E+00   6.1425E-06  0.0147
   6.2803E+00   6.4331E+00   6.0631E-06  0.0146
   6.4331E+00   6.5896E+00   6.0271E-06  0.0145
   6.5896E+00   6.7500E+00   5.9457E-06  0.0144
   6.7500E+00   6.9142E+00   5.8901E-06  0.0143
   6.9142E+00   7.0824E+00   5.9467E-06  0.0141
   7.0824E+00   7.2548E+00   5.7989E-06  0.0141
   7.2548E+00   7.4313E+00   5.6944E-06  0.0140
   7.4313E+00   7.6121E+00   5.8419E-06  0.0137
   7.6121E+00   7.7973E+00   5.7398E-06  0.0137
   7.7973E+00   7.9870E+00   5.6738E-06  0.0136
   7.9870E+00   8.1813E+00   5.5042E-06  0.0136
   8.1813E+00   8.3804E+00   5.6098E-06  0.0133
   8.3804E+00   8.5843E+00   5.5439E-06  0.0132
   8.5843E+00   8.7931E+00   5.5086E-06  0.0131
   8.7931E+00   9.0071E+00   5.4163E-06  0.0131
   9.0071E+00   9.2262E+00   5.3629E-06  0.0130
   9.2262E+00   9.4507E+00   5.2734E-06  0.0129
   9.4507E+00   9.6807E+00   5.3225E-06  0.0127
   9.6807E+00   9.9162E+00   5.1846E-06  0.0128
   9.9162E+00   1.0157E+01   5.3290E-06  0.0125
   1.0157E+01   1.0405E+01   5.4121E-06  0.0122
   1.0405E+01   1.0658E+01   5.2536E-06  0.0123
   1.0658E+01   1.0917E+01   5.2425E-06  0.0121
   1.0917E+01   1.1183E+01   5.1216E-06  0.0121
   1.1183E+01   1.1455E+01   5.0798E-06  0.0120
   1.1455E+01   1.1733E+01   4.9644E-06  0.0120
   1.1733E+01   1.2019E+01   4.9280E-06  0.0119
   1.2019E+01   1.2311E+01   5.0138E-06  0.0117
   1.2311E+01   1.2611E+01   4.9327E-06  0.0116
   1.2611E+01   1.2918E+01   4.9424E-06  0.0115
   1.2918E+01   1.3232E+01   4.8666E-06  0.0114
   1.3232E+01   1.3554E+01   4.8226E-06  0.0113
   1.3554E+01   1.3884E+01   4.7366E-06  0.0113
   1.3884E+01   1.4222E+01   4.7333E-06  0.0112
   1.4222E+01   1.4568E+01   4.7072E-06  0.0111
   1.4568E+01   1.4922E+01   4.6342E-06  0.0110
   1.4922E+01   1.5285E+01   4.5182E-06  0.0110
   1.5285E+01   1.5657E+01   4.4306E-06  0.0110
   1.5657E+01   1.6038E+01   4.3652E-06  0.0110
   1.6038E+01   1.6428E+01   4.2942E-06  0.0109
   1.6428E+01   1.6828E+01   4.2507E-06  0.0108
   1.6828E+01   1.7237E+01   4.2233E-06  0.0108
   1.7237E+01   1.7657E+01   4.0565E-06  0.0108
   1.7657E+01   1.8086E+01   4.0397E-06  0.0107
   1.8086E+01   1.8526E+01   4.0622E-06  0.0106
   1.8526E+01   1.8977E+01   3.9608E-06  0.0106
   1.8977E+01   1.9439E+01   3.9148E-06  0.0105
   1.9439E+01   1.9912E+01   3.8722E-06  0.0105
   1.9912E+01   2.0396E+01   3.8871E-06  0.0103
   2.0396E+01   2.0893E+01   3.8472E-06  0.0102
   2.0893E+01   2.1401E+01   3.7739E-06  0.0102
   2.1401E+01   2.1922E+01   3.7242E-06  0.0102
   2.1922E+01   2.2455E+01   3.6534E-06  0.0101
   2.2455E+01   2.3001E+01   3.5029E-06  0.0102
   2.3001E+01   2.3561E+01   3.3328E-06  0.0104
   2.3561E+01   2.4134E+01   3.2020E-06  0.0104
   2.4134E+01   2.4721E+01   3.0875E-06  0.0105
   2.4721E+01   2.5323E+01   2.9427E-06  0.0106
   2.5323E+01   2.5939E+01   2.8673E-06  0.0106
   2.5939E+01   2.6570E+01   2.6816E-06  0.0109
   2.6570E+01   2.7217E+01   2.5851E-06  0.0109
   2.7217E+01   2.7879E+01   2.4579E-06  0.0111
   2.7879E+01   2.8557E+01   4.7412E-06  0.0079
   2.8557E+01   2.9252E+01   6.8547E-06  0.0065
   2.9252E+01   2.9964E+01   6.8122E-06  0.0064
   2.9964E+01   3.0693E+01   6.9280E-06  0.0063
   3.0693E+01   3.1440E+01   6.8216E-06  0.0063
   3.1440E+01   3.2205E+01   6.8671E-06  0.0062
   3.2205E+01   3.2988E+01   6.8638E-06  0.0061
   3.2988E+01   3.3791E+01   6.8204E-06  0.0060
   3.3791E+01   3.4613E+01   6.8571E-06  0.0060
   3.4613E+01   3.5455E+01   6.8899E-06  0.0059
   3.5455E+01   3.6318E+01   6.8072E-06  0.0058
   3.6318E+01   3.7201E+01   6.9807E-06  0.0057
   3.7201E+01   3.8106E+01   6.9815E-06  0.0056
   3.8106E+01   3.9034E+01   6.9716E-06  0.0056
   3.9034E+01   3.9983E+01   6.8696E-06  0.0055
   3.9983E+01   4.0956E+01   6.8473E-06  0.0055
   4.0956E+01   4.1953E+01   6.7908E-06  0.0054
   4.1953E+01   4.2973E+01   6.6103E-06  0.0054
   4.2973E+01   4.4019E+01   6.6157E-06  0.0054
   4.4019E+01   4.5090E+01   6.1357E-06  0.0055
   4.5090E+01   4.6187E+01   9.6785E-07  0.0137
   4.6187E+01   4.7311E+01   0.0000E+00  0.0000
   4.7311E+01   4.8462E+01   3.4749E-10  0.7071
   4.8462E+01   4.9641E+01   0.0000E+00  0.0000
   4.9641E+01   5.0849E+01   0.0000E+00  0.0000
   5.0849E+01   5.2086E+01   0.0000E+00  0.0000
   5.2086E+01   5.3353E+01   0.0000E+00  0.0000
   5.3353E+01   5.4651E+01   0.0000E+00  0.0000
   5.4651E+01   5.5981E+01   0.0000E+00  0.0000
   5.5981E+01   5.7343E+01   0.0000E+00  0.0000
   5.7343E+01   5.8738E+01   0.0000E+00  0.0000
   5.8738E+01   6.0168E+01   0.0000E+00  0.0000
   6.0168E+01   6.1632E+01   0.0000E+00  0.0000
   6.1632E+01   6.3131E+01   0.0000E+00  0.0000
   6.3131E+01   6.4667E+01   0.0000E+00  0.0000
   6.4667E+01   6.6240E+01   0.0000E+00  0.0000
   6.6240E+01   6.7852E+01   0.0000E+00  0.0000
   6.7852E+01   6.9503E+01   0.0000E+00  0.0000
   6.9503E+01   7.1194E+01   0.0000E+00  0.0000
   7.1194E+01   7.2926E+01   0.0000E+00  0.0000
   7.2926E+01   7.4701E+01   0.0000E+00  0.0000
   7.4701E+01   7.6518E+01   0.0000E+00  0.0000
   7.6518E+01   7.8380E+01   0.0000E+00  0.0000
   7.8380E+01   8.0287E+01   0.0000E+00  0.0000
   8.0287E+01   8.2240E+01   0.0000E+00  0.0000
   8.2240E+01   8.4241E+01   0.0000E+00  0.0000
   8.4241E+01   8.6291E+01   0.0000E+00  0.0000
   8.6291E+01   8.8391E+01   0.0000E+00  0.0000
   8.8391E+01   9.0541E+01   0.0000E+00  0.0000
   9.0541E+01   9.2744E+01   0.0000E+00  0.0000
   9.2744E+01   9.5001E+01   0.0000E+00  0.0000
   9.5001E+01   9.7312E+01   0.0000E+00  0.0000
   9.7312E+01   9.9680E+01   0.0000E+00  0.0000
   9.9680E+01   1.0211E+02   0.0000E+00  0.0000
   1.0211E+02   1.0459E+02   0.0000E+00  0.0000
   1.0459E+02   1.0713E+02   0.0000E+00  0.0000
   1.0713E+02   1.0974E+02   0.0000E+00  0.0000
   1.0974E+02   1.1241E+02   0.0000E+00  0.0000
   1.1241E+02   1.1515E+02   0.0000E+00  0.0000
   1.1515E+02   1.1795E+02   0.0000E+00  0.0000
   1.1795E+02   1.2082E+02   0.0000E+00  0.0000
   1.2082E+02   1.2376E+02   0.0000E+00  0.0000
   1.2376E+02   1.2677E+02   0.0000E+00  0.0000
   1.2677E+02   1.2985E+02   0.0000E+00  0.0000
   1.2985E+02   1.3301E+02   0.0000E+00  0.0000
   1.3301E+02   1.3625E+02   0.0000E+00  0.0000
   1.3625E+02   1.3956E+02   0.0000E+00  0.0000
   1.3956E+02   1.4296E+02   0.0000E+00  0.0000
   1.4296E+02   1.4644E+02   0.0000E+00  0.0000
   1.4644E+02   1.5000E+02   0.0000E+00  0.0000

#   sum over                 1.6899E-06
'no. =    1   reg = 100 - 200'
msuc: {\huge [t-cross] in region mesh}
msdr: {\it plotted by \ANGEL \version}
msdl: {\it calculated by \PHITS  3.26}
wt: s(0.7)
\vspace{-3}
  region surface crossing
  area  &=&   1.0000E+00 [cm^2]
e:
 
# Information for Restart Calculation
# This calculation was newly started
# istdev =  2 # 1:Batch variance, 2:History variance
# resc2  = 5.00000000000000000E+09 # Total source weight or Total source weight / maxcas
# resc3  = 5.00000000000000000E+09 # Total history number or Total batch number
# maxcas =   100000000 # History / Batch, only used for istdev=1
# bitrseed = 0110100000100010111000001110001111001110100100011111101000111001 # bit data of rseed
