[ T-Cross ]
    title = [t-cross] in region mesh
     mesh =  reg            # mesh type is region-wise
      reg =    1            # number of crossing regions
      non     r-from    r-to       area
      1       108       208        1.000000    
   e-type =    3            # e-mesh is log given by emin, emax and ne
     emin =  1.0000000E-02  # minimum value of e-mesh points
     emax =   150.0000      # maximum value of e-mesh points
#    edel =  2.4039514E-02  # mesh width of e-mesh points
       ne =    400          # number of e-mesh points
#    data = ( e(i), i = 1, ne + 1 )
#           1.00000E-02  1.02433E-02  1.04925E-02  1.07478E-02  1.10093E-02
#           1.12772E-02  1.15516E-02  1.18326E-02  1.21205E-02  1.24154E-02
#           1.27175E-02  1.30269E-02  1.33439E-02  1.36686E-02  1.40011E-02
#           1.43418E-02  1.46907E-02  1.50482E-02  1.54143E-02  1.57894E-02
#           1.61735E-02  1.65670E-02  1.69701E-02  1.73830E-02  1.78060E-02
#           1.82392E-02  1.86830E-02  1.91375E-02  1.96032E-02  2.00801E-02
#           2.05687E-02  2.10692E-02  2.15818E-02  2.21069E-02  2.26448E-02
#           2.31957E-02  2.37601E-02  2.43382E-02  2.49304E-02  2.55369E-02
#           2.61583E-02  2.67947E-02  2.74467E-02  2.81145E-02  2.87985E-02
#           2.94992E-02  3.02169E-02  3.09521E-02  3.17052E-02  3.24766E-02
#           3.32668E-02  3.40762E-02  3.49053E-02  3.57546E-02  3.66246E-02
#           3.75157E-02  3.84284E-02  3.93634E-02  4.03212E-02  4.13022E-02
#           4.23071E-02  4.33365E-02  4.43909E-02  4.54710E-02  4.65773E-02
#           4.77106E-02  4.88714E-02  5.00605E-02  5.12785E-02  5.25262E-02
#           5.38042E-02  5.51133E-02  5.64542E-02  5.78278E-02  5.92348E-02
#           6.06760E-02  6.21523E-02  6.36645E-02  6.52135E-02  6.68002E-02
#           6.84255E-02  7.00904E-02  7.17957E-02  7.35426E-02  7.53319E-02
#           7.71648E-02  7.90423E-02  8.09655E-02  8.29354E-02  8.49533E-02
#           8.70203E-02  8.91376E-02  9.13064E-02  9.35279E-02  9.58035E-02
#           9.81345E-02  1.00522E-01  1.02968E-01  1.05473E-01  1.08040E-01
#           1.10668E-01  1.13361E-01  1.16119E-01  1.18944E-01  1.21838E-01
#           1.24803E-01  1.27839E-01  1.30950E-01  1.34136E-01  1.37399E-01
#           1.40742E-01  1.44167E-01  1.47675E-01  1.51268E-01  1.54948E-01
#           1.58718E-01  1.62580E-01  1.66535E-01  1.70587E-01  1.74738E-01
#           1.78989E-01  1.83344E-01  1.87805E-01  1.92375E-01  1.97055E-01
#           2.01850E-01  2.06761E-01  2.11792E-01  2.16945E-01  2.22223E-01
#           2.27630E-01  2.33169E-01  2.38842E-01  2.44653E-01  2.50605E-01
#           2.56703E-01  2.62949E-01  2.69346E-01  2.75900E-01  2.82613E-01
#           2.89489E-01  2.96532E-01  3.03747E-01  3.11138E-01  3.18708E-01
#           3.26462E-01  3.34405E-01  3.42542E-01  3.50876E-01  3.59413E-01
#           3.68158E-01  3.77116E-01  3.86291E-01  3.95690E-01  4.05317E-01
#           4.15179E-01  4.25281E-01  4.35628E-01  4.46227E-01  4.57084E-01
#           4.68205E-01  4.79597E-01  4.91266E-01  5.03219E-01  5.15463E-01
#           5.28005E-01  5.40851E-01  5.54011E-01  5.67490E-01  5.81298E-01
#           5.95441E-01  6.09929E-01  6.24769E-01  6.39970E-01  6.55541E-01
#           6.71491E-01  6.87828E-01  7.04564E-01  7.21706E-01  7.39266E-01
#           7.57253E-01  7.75678E-01  7.94551E-01  8.13883E-01  8.33685E-01
#           8.53969E-01  8.74747E-01  8.96030E-01  9.17831E-01  9.40163E-01
#           9.63038E-01  9.86469E-01  1.01047E+00  1.03506E+00  1.06024E+00
#           1.08604E+00  1.11246E+00  1.13953E+00  1.16725E+00  1.19565E+00
#           1.22474E+00  1.25454E+00  1.28507E+00  1.31633E+00  1.34836E+00
#           1.38117E+00  1.41477E+00  1.44920E+00  1.48446E+00  1.52057E+00
#           1.55757E+00  1.59547E+00  1.63429E+00  1.67405E+00  1.71478E+00
#           1.75650E+00  1.79924E+00  1.84302E+00  1.88786E+00  1.93379E+00
#           1.98084E+00  2.02904E+00  2.07841E+00  2.12898E+00  2.18078E+00
#           2.23384E+00  2.28819E+00  2.34386E+00  2.40089E+00  2.45930E+00
#           2.51914E+00  2.58043E+00  2.64322E+00  2.70753E+00  2.77341E+00
#           2.84088E+00  2.91001E+00  2.98081E+00  3.05333E+00  3.12762E+00
#           3.20372E+00  3.28167E+00  3.36152E+00  3.44330E+00  3.52708E+00
#           3.61290E+00  3.70080E+00  3.79085E+00  3.88308E+00  3.97756E+00
#           4.07434E+00  4.17347E+00  4.27501E+00  4.37903E+00  4.48557E+00
#           4.59471E+00  4.70650E+00  4.82102E+00  4.93832E+00  5.05847E+00
#           5.18155E+00  5.30762E+00  5.43676E+00  5.56904E+00  5.70453E+00
#           5.84333E+00  5.98550E+00  6.13114E+00  6.28031E+00  6.43312E+00
#           6.58964E+00  6.74997E+00  6.91420E+00  7.08243E+00  7.25475E+00
#           7.43126E+00  7.61207E+00  7.79728E+00  7.98700E+00  8.18133E+00
#           8.38038E+00  8.58428E+00  8.79315E+00  9.00709E+00  9.22624E+00
#           9.45072E+00  9.68067E+00  9.91620E+00  1.01575E+01  1.04046E+01
#           1.06578E+01  1.09171E+01  1.11827E+01  1.14548E+01  1.17335E+01
#           1.20190E+01  1.23114E+01  1.26109E+01  1.29178E+01  1.32321E+01
#           1.35540E+01  1.38838E+01  1.42216E+01  1.45676E+01  1.49221E+01
#           1.52851E+01  1.56570E+01  1.60380E+01  1.64282E+01  1.68279E+01
#           1.72374E+01  1.76568E+01  1.80864E+01  1.85264E+01  1.89772E+01
#           1.94389E+01  1.99119E+01  2.03963E+01  2.08926E+01  2.14009E+01
#           2.19216E+01  2.24550E+01  2.30014E+01  2.35610E+01  2.41343E+01
#           2.47215E+01  2.53230E+01  2.59391E+01  2.65702E+01  2.72167E+01
#           2.78789E+01  2.85572E+01  2.92520E+01  2.99637E+01  3.06928E+01
#           3.14396E+01  3.22045E+01  3.29881E+01  3.37907E+01  3.46128E+01
#           3.54550E+01  3.63177E+01  3.72013E+01  3.81064E+01  3.90336E+01
#           3.99833E+01  4.09561E+01  4.19526E+01  4.29734E+01  4.40189E+01
#           4.50900E+01  4.61870E+01  4.73108E+01  4.84619E+01  4.96410E+01
#           5.08488E+01  5.20860E+01  5.33533E+01  5.46514E+01  5.59812E+01
#           5.73432E+01  5.87384E+01  6.01676E+01  6.16315E+01  6.31311E+01
#           6.46671E+01  6.62405E+01  6.78522E+01  6.95031E+01  7.11941E+01
#           7.29263E+01  7.47007E+01  7.65182E+01  7.83800E+01  8.02870E+01
#           8.22405E+01  8.42414E+01  8.62911E+01  8.83906E+01  9.05412E+01
#           9.27442E+01  9.50007E+01  9.73122E+01  9.96799E+01  1.02105E+02
#           1.04589E+02  1.07134E+02  1.09741E+02  1.12411E+02  1.15146E+02
#           1.17948E+02  1.20817E+02  1.23757E+02  1.26768E+02  1.29852E+02
#           1.33012E+02  1.36248E+02  1.39563E+02  1.42959E+02  1.46437E+02
#           1.50000E+02
     unit =    2            # unit is [1/cm^2/(MeV/n)/source]
     axis =  eng            # axis of output
     file = detector-09.out  # file name of output for the above axis
   output = f-curr          # surface crossing forward current spectrum
     part =  neutron  
# kf/name :  2112     
#    used :        main (  %)        temp (  %)       total (  %)
#  memory :         414 (  0)           0 (  0)         414 (  0)

#------------------------------------------------------------------------------
#newpage:
#   no. =    1   reg = 108 - 208

x: Energy [MeV/n]
y:  F-Curr [1/cm^2/(MeV/n)/source]         
p: xlog ylog afac(0.8) form(0.9)
h: n            x            y(neutron ),hh0l   n 
#  e-lower      e-upper      neutron     r.err 
   1.0000E-02   1.0243E-02   2.8823E-03  0.0169
   1.0243E-02   1.0493E-02   2.9000E-03  0.0166
   1.0493E-02   1.0748E-02   2.8142E-03  0.0167
   1.0748E-02   1.1009E-02   2.8162E-03  0.0165
   1.1009E-02   1.1277E-02   2.7826E-03  0.0164
   1.1277E-02   1.1552E-02   2.7306E-03  0.0163
   1.1552E-02   1.1833E-02   2.8024E-03  0.0159
   1.1833E-02   1.2121E-02   2.8099E-03  0.0157
   1.2121E-02   1.2415E-02   2.6874E-03  0.0159
   1.2415E-02   1.2718E-02   2.6384E-03  0.0158
   1.2718E-02   1.3027E-02   2.5803E-03  0.0158
   1.3027E-02   1.3344E-02   2.6646E-03  0.0154
   1.3344E-02   1.3669E-02   2.5377E-03  0.0156
   1.3669E-02   1.4001E-02   2.6196E-03  0.0151
   1.4001E-02   1.4342E-02   2.4750E-03  0.0154
   1.4342E-02   1.4691E-02   2.5014E-03  0.0151
   1.4691E-02   1.5048E-02   2.3897E-03  0.0153
   1.5048E-02   1.5414E-02   2.4090E-03  0.0150
   1.5414E-02   1.5789E-02   2.3252E-03  0.0151
   1.5789E-02   1.6174E-02   2.3776E-03  0.0148
   1.6174E-02   1.6567E-02   2.2635E-03  0.0150
   1.6567E-02   1.6970E-02   2.3242E-03  0.0146
   1.6970E-02   1.7383E-02   2.2984E-03  0.0145
   1.7383E-02   1.7806E-02   2.2440E-03  0.0145
   1.7806E-02   1.8239E-02   2.2364E-03  0.0144
   1.8239E-02   1.8683E-02   2.1704E-03  0.0144
   1.8683E-02   1.9138E-02   2.2063E-03  0.0141
   1.9138E-02   1.9603E-02   2.0969E-03  0.0143
   1.9603E-02   2.0080E-02   2.1195E-03  0.0140
   2.0080E-02   2.0569E-02   2.1356E-03  0.0138
   2.0569E-02   2.1069E-02   2.0944E-03  0.0138
   2.1069E-02   2.1582E-02   2.0702E-03  0.0137
   2.1582E-02   2.2107E-02   2.0253E-03  0.0137
   2.2107E-02   2.2645E-02   1.9992E-03  0.0136
   2.2645E-02   2.3196E-02   1.9874E-03  0.0135
   2.3196E-02   2.3760E-02   1.9760E-03  0.0134
   2.3760E-02   2.4338E-02   1.9054E-03  0.0135
   2.4338E-02   2.4930E-02   1.9130E-03  0.0133
   2.4930E-02   2.5537E-02   1.8777E-03  0.0132
   2.5537E-02   2.6158E-02   1.8391E-03  0.0132
   2.6158E-02   2.6795E-02   1.8595E-03  0.0130
   2.6795E-02   2.7447E-02   1.7858E-03  0.0131
   2.7447E-02   2.8114E-02   1.7981E-03  0.0129
   2.8114E-02   2.8799E-02   1.7789E-03  0.0128
   2.8799E-02   2.9499E-02   1.7381E-03  0.0128
   2.9499E-02   3.0217E-02   1.7433E-03  0.0126
   3.0217E-02   3.0952E-02   1.7075E-03  0.0126
   3.0952E-02   3.1705E-02   1.6846E-03  0.0125
   3.1705E-02   3.2477E-02   1.6472E-03  0.0125
   3.2477E-02   3.3267E-02   1.6557E-03  0.0124
   3.3267E-02   3.4076E-02   1.6224E-03  0.0123
   3.4076E-02   3.4905E-02   1.6230E-03  0.0122
   3.4905E-02   3.5755E-02   1.5587E-03  0.0123
   3.5755E-02   3.6625E-02   1.5224E-03  0.0123
   3.6625E-02   3.7516E-02   1.5435E-03  0.0120
   3.7516E-02   3.8428E-02   1.4977E-03  0.0121
   3.8428E-02   3.9363E-02   1.5096E-03  0.0119
   3.9363E-02   4.0321E-02   1.4567E-03  0.0120
   4.0321E-02   4.1302E-02   1.4723E-03  0.0118
   4.1302E-02   4.2307E-02   1.4588E-03  0.0117
   4.2307E-02   4.3337E-02   1.3938E-03  0.0118
   4.3337E-02   4.4391E-02   1.3878E-03  0.0117
   4.4391E-02   4.5471E-02   1.3589E-03  0.0117
   4.5471E-02   4.6577E-02   1.3559E-03  0.0115
   4.6577E-02   4.7711E-02   1.3877E-03  0.0113
   4.7711E-02   4.8871E-02   1.3470E-03  0.0113
   4.8871E-02   5.0061E-02   1.3101E-03  0.0113
   5.0061E-02   5.1279E-02   1.2707E-03  0.0114
   5.1279E-02   5.2526E-02   1.2694E-03  0.0112
   5.2526E-02   5.3804E-02   1.2407E-03  0.0112
   5.3804E-02   5.5113E-02   1.2134E-03  0.0112
   5.5113E-02   5.6454E-02   1.2039E-03  0.0111
   5.6454E-02   5.7828E-02   1.1994E-03  0.0110
   5.7828E-02   5.9235E-02   1.2179E-03  0.0108
   5.9235E-02   6.0676E-02   1.1753E-03  0.0109
   6.0676E-02   6.2152E-02   1.1417E-03  0.0109
   6.2152E-02   6.3665E-02   1.1327E-03  0.0108
   6.3665E-02   6.5214E-02   1.1226E-03  0.0107
   6.5214E-02   6.6800E-02   1.0982E-03  0.0107
   6.6800E-02   6.8426E-02   1.0813E-03  0.0107
   6.8426E-02   7.0090E-02   1.0493E-03  0.0107
   7.0090E-02   7.1796E-02   1.0378E-03  0.0106
   7.1796E-02   7.3543E-02   1.0491E-03  0.0104
   7.3543E-02   7.5332E-02   9.9759E-04  0.0106
   7.5332E-02   7.7165E-02   1.0059E-03  0.0104
   7.7165E-02   7.9042E-02   9.9824E-04  0.0103
   7.9042E-02   8.0965E-02   9.5187E-04  0.0104
   8.0965E-02   8.2935E-02   9.5045E-04  0.0103
   8.2935E-02   8.4953E-02   9.4161E-04  0.0102
   8.4953E-02   8.7020E-02   9.2103E-04  0.0102
   8.7020E-02   8.9138E-02   9.2072E-04  0.0101
   8.9138E-02   9.1306E-02   9.1709E-04  0.0100
   9.1306E-02   9.3528E-02   8.6766E-04  0.0102
   9.3528E-02   9.5804E-02   8.5946E-04  0.0101
   9.5804E-02   9.8134E-02   8.5203E-04  0.0100
   9.8134E-02   1.0052E-01   8.3578E-04  0.0100
   1.0052E-01   1.0297E-01   8.2741E-04  0.0099
   1.0297E-01   1.0547E-01   8.1605E-04  0.0099
   1.0547E-01   1.0804E-01   7.6988E-04  0.0100
   1.0804E-01   1.1067E-01   7.6751E-04  0.0099
   1.1067E-01   1.1336E-01   7.6490E-04  0.0098
   1.1336E-01   1.1612E-01   7.3655E-04  0.0099
   1.1612E-01   1.1894E-01   7.3295E-04  0.0098
   1.1894E-01   1.2184E-01   7.1860E-04  0.0098
   1.2184E-01   1.2480E-01   6.8812E-04  0.0099
   1.2480E-01   1.2784E-01   6.7452E-04  0.0099
   1.2784E-01   1.3095E-01   6.7244E-04  0.0098
   1.3095E-01   1.3414E-01   6.5057E-04  0.0098
   1.3414E-01   1.3740E-01   6.4568E-04  0.0097
   1.3740E-01   1.4074E-01   6.4202E-04  0.0096
   1.4074E-01   1.4417E-01   6.2134E-04  0.0097
   1.4417E-01   1.4767E-01   6.0178E-04  0.0097
   1.4767E-01   1.5127E-01   5.9947E-04  0.0096
   1.5127E-01   1.5495E-01   5.8451E-04  0.0096
   1.5495E-01   1.5872E-01   5.7307E-04  0.0096
   1.5872E-01   1.6258E-01   5.6058E-04  0.0096
   1.6258E-01   1.6654E-01   5.5222E-04  0.0096
   1.6654E-01   1.7059E-01   5.3565E-04  0.0096
   1.7059E-01   1.7474E-01   5.3369E-04  0.0095
   1.7474E-01   1.7899E-01   5.0253E-04  0.0097
   1.7899E-01   1.8334E-01   4.9088E-04  0.0097
   1.8334E-01   1.8781E-01   4.9739E-04  0.0095
   1.8781E-01   1.9237E-01   4.8434E-04  0.0095
   1.9237E-01   1.9706E-01   4.7128E-04  0.0095
   1.9706E-01   2.0185E-01   4.6247E-04  0.0095
   2.0185E-01   2.0676E-01   4.6628E-04  0.0093
   2.0676E-01   2.1179E-01   4.8122E-04  0.0091
   2.1179E-01   2.1694E-01   4.8781E-04  0.0089
   2.1694E-01   2.2222E-01   4.9800E-04  0.0087
   2.2222E-01   2.2763E-01   5.0752E-04  0.0085
   2.2763E-01   2.3317E-01   5.1868E-04  0.0083
   2.3317E-01   2.3884E-01   5.2414E-04  0.0082
   2.3884E-01   2.4465E-01   5.4702E-04  0.0079
   2.4465E-01   2.5061E-01   5.5256E-04  0.0078
   2.5061E-01   2.5670E-01   5.6056E-04  0.0076
   2.5670E-01   2.6295E-01   5.6904E-04  0.0075
   2.6295E-01   2.6935E-01   5.7281E-04  0.0074
   2.6935E-01   2.7590E-01   5.8659E-04  0.0072
   2.7590E-01   2.8261E-01   5.9831E-04  0.0070
   2.8261E-01   2.8949E-01   6.0773E-04  0.0069
   2.8949E-01   2.9653E-01   6.1352E-04  0.0068
   2.9653E-01   3.0375E-01   6.2555E-04  0.0066
   3.0375E-01   3.1114E-01   6.3685E-04  0.0065
   3.1114E-01   3.1871E-01   6.5903E-04  0.0063
   3.1871E-01   3.2646E-01   6.5728E-04  0.0063
   3.2646E-01   3.3441E-01   6.5921E-04  0.0062
   3.3441E-01   3.4254E-01   6.6369E-04  0.0061
   3.4254E-01   3.5088E-01   6.8565E-04  0.0059
   3.5088E-01   3.5941E-01   6.8743E-04  0.0058
   3.5941E-01   3.6816E-01   6.9816E-04  0.0057
   3.6816E-01   3.7712E-01   6.9845E-04  0.0056
   3.7712E-01   3.8629E-01   7.1681E-04  0.0055
   3.8629E-01   3.9569E-01   7.2572E-04  0.0054
   3.9569E-01   4.0532E-01   7.2314E-04  0.0054
   4.0532E-01   4.1518E-01   7.3036E-04  0.0053
   4.1518E-01   4.2528E-01   7.3862E-04  0.0052
   4.2528E-01   4.3563E-01   7.4978E-04  0.0051
   4.3563E-01   4.4623E-01   7.4601E-04  0.0050
   4.4623E-01   4.5708E-01   7.6005E-04  0.0049
   4.5708E-01   4.6821E-01   7.6913E-04  0.0048
   4.6821E-01   4.7960E-01   7.7114E-04  0.0048
   4.7960E-01   4.9127E-01   7.8087E-04  0.0047
   4.9127E-01   5.0322E-01   7.8792E-04  0.0046
   5.0322E-01   5.1546E-01   7.8965E-04  0.0045
   5.1546E-01   5.2800E-01   7.9712E-04  0.0045
   5.2800E-01   5.4085E-01   8.0249E-04  0.0044
   5.4085E-01   5.5401E-01   8.0720E-04  0.0043
   5.5401E-01   5.6749E-01   8.0960E-04  0.0043
   5.6749E-01   5.8130E-01   8.0682E-04  0.0042
   5.8130E-01   5.9544E-01   8.2183E-04  0.0041
   5.9544E-01   6.0993E-01   8.2529E-04  0.0041
   6.0993E-01   6.2477E-01   8.1892E-04  0.0040
   6.2477E-01   6.3997E-01   8.2365E-04  0.0040
   6.3997E-01   6.5554E-01   8.2648E-04  0.0039
   6.5554E-01   6.7149E-01   8.3418E-04  0.0039
   6.7149E-01   6.8783E-01   8.2715E-04  0.0038
   6.8783E-01   7.0456E-01   8.3451E-04  0.0038
   7.0456E-01   7.2171E-01   8.3690E-04  0.0037
   7.2171E-01   7.3927E-01   8.3800E-04  0.0037
   7.3927E-01   7.5725E-01   8.3296E-04  0.0036
   7.5725E-01   7.7568E-01   8.3295E-04  0.0036
   7.7568E-01   7.9455E-01   8.2739E-04  0.0036
   7.9455E-01   8.1388E-01   8.2662E-04  0.0035
   8.1388E-01   8.3368E-01   8.1572E-04  0.0035
   8.3368E-01   8.5397E-01   8.1986E-04  0.0035
   8.5397E-01   8.7475E-01   8.0945E-04  0.0034
   8.7475E-01   8.9603E-01   8.0400E-04  0.0034
   8.9603E-01   9.1783E-01   7.9512E-04  0.0034
   9.1783E-01   9.4016E-01   7.7943E-04  0.0034
   9.4016E-01   9.6304E-01   7.7153E-04  0.0034
   9.6304E-01   9.8647E-01   7.5351E-04  0.0034
   9.8647E-01   1.0105E+00   7.3390E-04  0.0034
   1.0105E+00   1.0351E+00   7.2785E-04  0.0033
   1.0351E+00   1.0602E+00   7.2685E-04  0.0033
   1.0602E+00   1.0860E+00   7.2481E-04  0.0033
   1.0860E+00   1.1125E+00   7.1942E-04  0.0032
   1.1125E+00   1.1395E+00   7.2274E-04  0.0032
   1.1395E+00   1.1673E+00   7.2682E-04  0.0031
   1.1673E+00   1.1957E+00   7.2595E-04  0.0031
   1.1957E+00   1.2247E+00   7.3607E-04  0.0030
   1.2247E+00   1.2545E+00   7.3733E-04  0.0030
   1.2545E+00   1.2851E+00   7.2699E-04  0.0030
   1.2851E+00   1.3163E+00   7.2401E-04  0.0030
   1.3163E+00   1.3484E+00   7.2309E-04  0.0029
   1.3484E+00   1.3812E+00   7.2289E-04  0.0029
   1.3812E+00   1.4148E+00   7.2856E-04  0.0029
   1.4148E+00   1.4492E+00   7.2107E-04  0.0028
   1.4492E+00   1.4845E+00   7.1506E-04  0.0028
   1.4845E+00   1.5206E+00   7.1397E-04  0.0028
   1.5206E+00   1.5576E+00   7.0791E-04  0.0028
   1.5576E+00   1.5955E+00   6.9936E-04  0.0027
   1.5955E+00   1.6343E+00   6.9376E-04  0.0027
   1.6343E+00   1.6741E+00   6.9309E-04  0.0027
   1.6741E+00   1.7148E+00   6.8966E-04  0.0027
   1.7148E+00   1.7565E+00   6.8531E-04  0.0026
   1.7565E+00   1.7992E+00   6.8402E-04  0.0026
   1.7992E+00   1.8430E+00   6.7499E-04  0.0026
   1.8430E+00   1.8879E+00   6.6830E-04  0.0026
   1.8879E+00   1.9338E+00   6.5774E-04  0.0026
   1.9338E+00   1.9808E+00   6.5314E-04  0.0025
   1.9808E+00   2.0290E+00   6.5121E-04  0.0025
   2.0290E+00   2.0784E+00   6.4740E-04  0.0025
   2.0784E+00   2.1290E+00   6.3613E-04  0.0025
   2.1290E+00   2.1808E+00   6.2945E-04  0.0025
   2.1808E+00   2.2338E+00   6.2597E-04  0.0024
   2.2338E+00   2.2882E+00   6.1193E-04  0.0024
   2.2882E+00   2.3439E+00   6.0651E-04  0.0024
   2.3439E+00   2.4009E+00   6.0433E-04  0.0024
   2.4009E+00   2.4593E+00   5.9761E-04  0.0024
   2.4593E+00   2.5191E+00   5.9286E-04  0.0024
   2.5191E+00   2.5804E+00   5.8416E-04  0.0024
   2.5804E+00   2.6432E+00   5.7815E-04  0.0023
   2.6432E+00   2.7075E+00   5.7147E-04  0.0023
   2.7075E+00   2.7734E+00   5.6300E-04  0.0023
   2.7734E+00   2.8409E+00   5.5862E-04  0.0023
   2.8409E+00   2.9100E+00   5.5452E-04  0.0023
   2.9100E+00   2.9808E+00   5.5149E-04  0.0023
   2.9808E+00   3.0533E+00   5.4462E-04  0.0022
   3.0533E+00   3.1276E+00   5.3845E-04  0.0022
   3.1276E+00   3.2037E+00   5.3085E-04  0.0022
   3.2037E+00   3.2817E+00   5.2585E-04  0.0022
   3.2817E+00   3.3615E+00   5.2064E-04  0.0022
   3.3615E+00   3.4433E+00   5.1263E-04  0.0022
   3.4433E+00   3.5271E+00   5.0611E-04  0.0022
   3.5271E+00   3.6129E+00   4.9800E-04  0.0022
   3.6129E+00   3.7008E+00   4.9372E-04  0.0021
   3.7008E+00   3.7908E+00   4.8606E-04  0.0021
   3.7908E+00   3.8831E+00   4.8088E-04  0.0021
   3.8831E+00   3.9776E+00   4.7511E-04  0.0021
   3.9776E+00   4.0743E+00   4.6888E-04  0.0021
   4.0743E+00   4.1735E+00   4.6278E-04  0.0021
   4.1735E+00   4.2750E+00   4.5680E-04  0.0021
   4.2750E+00   4.3790E+00   4.5313E-04  0.0021
   4.3790E+00   4.4856E+00   4.4897E-04  0.0020
   4.4856E+00   4.5947E+00   4.4411E-04  0.0020
   4.5947E+00   4.7065E+00   4.4305E-04  0.0020
   4.7065E+00   4.8210E+00   4.4036E-04  0.0020
   4.8210E+00   4.9383E+00   4.3680E-04  0.0020
   4.9383E+00   5.0585E+00   4.3250E-04  0.0020
   5.0585E+00   5.1815E+00   4.2823E-04  0.0019
   5.1815E+00   5.3076E+00   4.2241E-04  0.0019
   5.3076E+00   5.4368E+00   4.1731E-04  0.0019
   5.4368E+00   5.5690E+00   4.1053E-04  0.0019
   5.5690E+00   5.7045E+00   4.0675E-04  0.0019
   5.7045E+00   5.8433E+00   3.9966E-04  0.0019
   5.8433E+00   5.9855E+00   3.9412E-04  0.0019
   5.9855E+00   6.1311E+00   3.8941E-04  0.0019
   6.1311E+00   6.2803E+00   3.8272E-04  0.0019
   6.2803E+00   6.4331E+00   3.7677E-04  0.0019
   6.4331E+00   6.5896E+00   3.7208E-04  0.0019
   6.5896E+00   6.7500E+00   3.6654E-04  0.0018
   6.7500E+00   6.9142E+00   3.6153E-04  0.0018
   6.9142E+00   7.0824E+00   3.5771E-04  0.0018
   7.0824E+00   7.2548E+00   3.5431E-04  0.0018
   7.2548E+00   7.4313E+00   3.4911E-04  0.0018
   7.4313E+00   7.6121E+00   3.4486E-04  0.0018
   7.6121E+00   7.7973E+00   3.3891E-04  0.0018
   7.7973E+00   7.9870E+00   3.3530E-04  0.0018
   7.9870E+00   8.1813E+00   3.3049E-04  0.0018
   8.1813E+00   8.3804E+00   3.2540E-04  0.0018
   8.3804E+00   8.5843E+00   3.2043E-04  0.0017
   8.5843E+00   8.7931E+00   3.1527E-04  0.0017
   8.7931E+00   9.0071E+00   3.1066E-04  0.0017
   9.0071E+00   9.2262E+00   3.0646E-04  0.0017
   9.2262E+00   9.4507E+00   3.0160E-04  0.0017
   9.4507E+00   9.6807E+00   2.9829E-04  0.0017
   9.6807E+00   9.9162E+00   2.9417E-04  0.0017
   9.9162E+00   1.0157E+01   2.9009E-04  0.0017
   1.0157E+01   1.0405E+01   2.8753E-04  0.0017
   1.0405E+01   1.0658E+01   2.8387E-04  0.0017
   1.0658E+01   1.0917E+01   2.8146E-04  0.0017
   1.0917E+01   1.1183E+01   2.7823E-04  0.0016
   1.1183E+01   1.1455E+01   2.7526E-04  0.0016
   1.1455E+01   1.1733E+01   2.7240E-04  0.0016
   1.1733E+01   1.2019E+01   2.6953E-04  0.0016
   1.2019E+01   1.2311E+01   2.6632E-04  0.0016
   1.2311E+01   1.2611E+01   2.6201E-04  0.0016
   1.2611E+01   1.2918E+01   2.6038E-04  0.0016
   1.2918E+01   1.3232E+01   2.5730E-04  0.0016
   1.3232E+01   1.3554E+01   2.5432E-04  0.0016
   1.3554E+01   1.3884E+01   2.5218E-04  0.0016
   1.3884E+01   1.4222E+01   2.4954E-04  0.0015
   1.4222E+01   1.4568E+01   2.4708E-04  0.0015
   1.4568E+01   1.4922E+01   2.4442E-04  0.0015
   1.4922E+01   1.5285E+01   2.4184E-04  0.0015
   1.5285E+01   1.5657E+01   2.3931E-04  0.0015
   1.5657E+01   1.6038E+01   2.3631E-04  0.0015
   1.6038E+01   1.6428E+01   2.3367E-04  0.0015
   1.6428E+01   1.6828E+01   2.3173E-04  0.0015
   1.6828E+01   1.7237E+01   2.2947E-04  0.0015
   1.7237E+01   1.7657E+01   2.2621E-04  0.0015
   1.7657E+01   1.8086E+01   2.2442E-04  0.0014
   1.8086E+01   1.8526E+01   2.2140E-04  0.0014
   1.8526E+01   1.8977E+01   2.1892E-04  0.0014
   1.8977E+01   1.9439E+01   2.1687E-04  0.0014
   1.9439E+01   1.9912E+01   2.1610E-04  0.0014
   1.9912E+01   2.0396E+01   2.1490E-04  0.0014
   2.0396E+01   2.0893E+01   2.1212E-04  0.0014
   2.0893E+01   2.1401E+01   2.0933E-04  0.0014
   2.1401E+01   2.1922E+01   2.0584E-04  0.0014
   2.1922E+01   2.2455E+01   2.0248E-04  0.0014
   2.2455E+01   2.3001E+01   1.9868E-04  0.0014
   2.3001E+01   2.3561E+01   1.9525E-04  0.0014
   2.3561E+01   2.4134E+01   1.9143E-04  0.0014
   2.4134E+01   2.4721E+01   1.8704E-04  0.0013
   2.4721E+01   2.5323E+01   1.8282E-04  0.0013
   2.5323E+01   2.5939E+01   1.7845E-04  0.0013
   2.5939E+01   2.6570E+01   1.7370E-04  0.0014
   2.6570E+01   2.7217E+01   1.6895E-04  0.0014
   2.7217E+01   2.7879E+01   1.6403E-04  0.0014
   2.7879E+01   2.8557E+01   1.5886E-04  0.0014
   2.8557E+01   2.9252E+01   1.5358E-04  0.0014
   2.9252E+01   2.9964E+01   1.4843E-04  0.0014
   2.9964E+01   3.0693E+01   1.4242E-04  0.0014
   3.0693E+01   3.1440E+01   1.3646E-04  0.0014
   3.1440E+01   3.2205E+01   1.3077E-04  0.0014
   3.2205E+01   3.2988E+01   1.2486E-04  0.0014
   3.2988E+01   3.3791E+01   1.1898E-04  0.0014
   3.3791E+01   3.4613E+01   1.1288E-04  0.0015
   3.4613E+01   3.5455E+01   1.0684E-04  0.0015
   3.5455E+01   3.6318E+01   1.0104E-04  0.0015
   3.6318E+01   3.7201E+01   9.5147E-05  0.0015
   3.7201E+01   3.8106E+01   8.9564E-05  0.0016
   3.8106E+01   3.9034E+01   8.3722E-05  0.0016
   3.9034E+01   3.9983E+01   7.8470E-05  0.0016
   3.9983E+01   4.0956E+01   7.3210E-05  0.0017
   4.0956E+01   4.1953E+01   6.8108E-05  0.0017
   4.1953E+01   4.2973E+01   6.3260E-05  0.0018
   4.2973E+01   4.4019E+01   5.8670E-05  0.0018
   4.4019E+01   4.5090E+01   5.4318E-05  0.0019
   4.5090E+01   4.6187E+01   5.0042E-05  0.0019
   4.6187E+01   4.7311E+01   4.6033E-05  0.0020
   4.7311E+01   4.8462E+01   4.2446E-05  0.0020
   4.8462E+01   4.9641E+01   3.9054E-05  0.0021
   4.9641E+01   5.0849E+01   3.5746E-05  0.0022
   5.0849E+01   5.2086E+01   3.2882E-05  0.0022
   5.2086E+01   5.3353E+01   3.0101E-05  0.0023
   5.3353E+01   5.4651E+01   2.7600E-05  0.0024
   5.4651E+01   5.5981E+01   2.5116E-05  0.0024
   5.5981E+01   5.7343E+01   2.3219E-05  0.0025
   5.7343E+01   5.8738E+01   2.1316E-05  0.0026
   5.8738E+01   6.0168E+01   1.9385E-05  0.0027
   6.0168E+01   6.1632E+01   1.7757E-05  0.0028
   6.1632E+01   6.3131E+01   1.6250E-05  0.0029
   6.3131E+01   6.4667E+01   1.4755E-05  0.0030
   6.4667E+01   6.6240E+01   1.3577E-05  0.0031
   6.6240E+01   6.7852E+01   1.2377E-05  0.0032
   6.7852E+01   6.9503E+01   1.1252E-05  0.0033
   6.9503E+01   7.1194E+01   1.0250E-05  0.0034
   7.1194E+01   7.2926E+01   9.2939E-06  0.0035
   7.2926E+01   7.4701E+01   8.3324E-06  0.0037
   7.4701E+01   7.6518E+01   7.5422E-06  0.0038
   7.6518E+01   7.8380E+01   6.8431E-06  0.0040
   7.8380E+01   8.0287E+01   6.1988E-06  0.0041
   8.0287E+01   8.2240E+01   5.6188E-06  0.0043
   8.2240E+01   8.4241E+01   5.0107E-06  0.0045
   8.4241E+01   8.6291E+01   4.4645E-06  0.0047
   8.6291E+01   8.8391E+01   4.1346E-06  0.0048
   8.8391E+01   9.0541E+01   3.8498E-06  0.0049
   9.0541E+01   9.2744E+01   3.5247E-06  0.0051
   9.2744E+01   9.5001E+01   3.0216E-06  0.0054
   9.5001E+01   9.7312E+01   2.5337E-06  0.0058
   9.7312E+01   9.9680E+01   2.0629E-06  0.0064
   9.9680E+01   1.0211E+02   1.6475E-06  0.0071
   1.0211E+02   1.0459E+02   1.2953E-06  0.0079
   1.0459E+02   1.0713E+02   8.8433E-07  0.0094
   1.0713E+02   1.0974E+02   4.2806E-07  0.0134
   1.0974E+02   1.1241E+02   1.1078E-07  0.0260
   1.1241E+02   1.1515E+02   1.6087E-09  0.2132
   1.1515E+02   1.1795E+02   0.0000E+00  0.0000
   1.1795E+02   1.2082E+02   0.0000E+00  0.0000
   1.2082E+02   1.2376E+02   0.0000E+00  0.0000
   1.2376E+02   1.2677E+02   0.0000E+00  0.0000
   1.2677E+02   1.2985E+02   0.0000E+00  0.0000
   1.2985E+02   1.3301E+02   0.0000E+00  0.0000
   1.3301E+02   1.3625E+02   0.0000E+00  0.0000
   1.3625E+02   1.3956E+02   0.0000E+00  0.0000
   1.3956E+02   1.4296E+02   0.0000E+00  0.0000
   1.4296E+02   1.4644E+02   0.0000E+00  0.0000
   1.4644E+02   1.5000E+02   0.0000E+00  0.0000

#   sum over                 7.5036E-05
'no. =    1   reg = 108 - 208'
msuc: {\huge [t-cross] in region mesh}
msdr: {\it plotted by \ANGEL \version}
msdl: {\it calculated by \PHITS  3.28}
wt: s(0.7)
\vspace{-3}
  region surface crossing
  area  &=&   1.0000E+00 [cm^2]
e:
 
# Information for Restart Calculation
# This calculation was newly started
# istdev =  2 # 1:Batch variance, 2:History variance
# resc2  = 5.00000000000000000E+09 # Total source weight or Total source weight / maxcas
# resc3  = 5.00000000000000000E+09 # Total history number or Total batch number
# maxcas =   500000000 # History / Batch, only used for istdev=1
# bitrseed = 0001101011110000011001100100101010101011111110100001111101011101 # bit data of rseed
