[ T-Cross ]
    title = [t-cross] in region mesh
     mesh =  reg            # mesh type is region-wise
      reg =    1            # number of crossing regions
      non     r-from    r-to       area
      1       105       205        1.000000    
   e-type =    3            # e-mesh is log given by emin, emax and ne
     emin =  1.0000000E-02  # minimum value of e-mesh points
     emax =   150.0000      # maximum value of e-mesh points
#    edel =  2.4039514E-02  # mesh width of e-mesh points
       ne =    400          # number of e-mesh points
#    data = ( e(i), i = 1, ne + 1 )
#           1.00000E-02  1.02433E-02  1.04925E-02  1.07478E-02  1.10093E-02
#           1.12772E-02  1.15516E-02  1.18326E-02  1.21205E-02  1.24154E-02
#           1.27175E-02  1.30269E-02  1.33439E-02  1.36686E-02  1.40011E-02
#           1.43418E-02  1.46907E-02  1.50482E-02  1.54143E-02  1.57894E-02
#           1.61735E-02  1.65670E-02  1.69701E-02  1.73830E-02  1.78060E-02
#           1.82392E-02  1.86830E-02  1.91375E-02  1.96032E-02  2.00801E-02
#           2.05687E-02  2.10692E-02  2.15818E-02  2.21069E-02  2.26448E-02
#           2.31957E-02  2.37601E-02  2.43382E-02  2.49304E-02  2.55369E-02
#           2.61583E-02  2.67947E-02  2.74467E-02  2.81145E-02  2.87985E-02
#           2.94992E-02  3.02169E-02  3.09521E-02  3.17052E-02  3.24766E-02
#           3.32668E-02  3.40762E-02  3.49053E-02  3.57546E-02  3.66246E-02
#           3.75157E-02  3.84284E-02  3.93634E-02  4.03212E-02  4.13022E-02
#           4.23071E-02  4.33365E-02  4.43909E-02  4.54710E-02  4.65773E-02
#           4.77106E-02  4.88714E-02  5.00605E-02  5.12785E-02  5.25262E-02
#           5.38042E-02  5.51133E-02  5.64542E-02  5.78278E-02  5.92348E-02
#           6.06760E-02  6.21523E-02  6.36645E-02  6.52135E-02  6.68002E-02
#           6.84255E-02  7.00904E-02  7.17957E-02  7.35426E-02  7.53319E-02
#           7.71648E-02  7.90423E-02  8.09655E-02  8.29354E-02  8.49533E-02
#           8.70203E-02  8.91376E-02  9.13064E-02  9.35279E-02  9.58035E-02
#           9.81345E-02  1.00522E-01  1.02968E-01  1.05473E-01  1.08040E-01
#           1.10668E-01  1.13361E-01  1.16119E-01  1.18944E-01  1.21838E-01
#           1.24803E-01  1.27839E-01  1.30950E-01  1.34136E-01  1.37399E-01
#           1.40742E-01  1.44167E-01  1.47675E-01  1.51268E-01  1.54948E-01
#           1.58718E-01  1.62580E-01  1.66535E-01  1.70587E-01  1.74738E-01
#           1.78989E-01  1.83344E-01  1.87805E-01  1.92375E-01  1.97055E-01
#           2.01850E-01  2.06761E-01  2.11792E-01  2.16945E-01  2.22223E-01
#           2.27630E-01  2.33169E-01  2.38842E-01  2.44653E-01  2.50605E-01
#           2.56703E-01  2.62949E-01  2.69346E-01  2.75900E-01  2.82613E-01
#           2.89489E-01  2.96532E-01  3.03747E-01  3.11138E-01  3.18708E-01
#           3.26462E-01  3.34405E-01  3.42542E-01  3.50876E-01  3.59413E-01
#           3.68158E-01  3.77116E-01  3.86291E-01  3.95690E-01  4.05317E-01
#           4.15179E-01  4.25281E-01  4.35628E-01  4.46227E-01  4.57084E-01
#           4.68205E-01  4.79597E-01  4.91266E-01  5.03219E-01  5.15463E-01
#           5.28005E-01  5.40851E-01  5.54011E-01  5.67490E-01  5.81298E-01
#           5.95441E-01  6.09929E-01  6.24769E-01  6.39970E-01  6.55541E-01
#           6.71491E-01  6.87828E-01  7.04564E-01  7.21706E-01  7.39266E-01
#           7.57253E-01  7.75678E-01  7.94551E-01  8.13883E-01  8.33685E-01
#           8.53969E-01  8.74747E-01  8.96030E-01  9.17831E-01  9.40163E-01
#           9.63038E-01  9.86469E-01  1.01047E+00  1.03506E+00  1.06024E+00
#           1.08604E+00  1.11246E+00  1.13953E+00  1.16725E+00  1.19565E+00
#           1.22474E+00  1.25454E+00  1.28507E+00  1.31633E+00  1.34836E+00
#           1.38117E+00  1.41477E+00  1.44920E+00  1.48446E+00  1.52057E+00
#           1.55757E+00  1.59547E+00  1.63429E+00  1.67405E+00  1.71478E+00
#           1.75650E+00  1.79924E+00  1.84302E+00  1.88786E+00  1.93379E+00
#           1.98084E+00  2.02904E+00  2.07841E+00  2.12898E+00  2.18078E+00
#           2.23384E+00  2.28819E+00  2.34386E+00  2.40089E+00  2.45930E+00
#           2.51914E+00  2.58043E+00  2.64322E+00  2.70753E+00  2.77341E+00
#           2.84088E+00  2.91001E+00  2.98081E+00  3.05333E+00  3.12762E+00
#           3.20372E+00  3.28167E+00  3.36152E+00  3.44330E+00  3.52708E+00
#           3.61290E+00  3.70080E+00  3.79085E+00  3.88308E+00  3.97756E+00
#           4.07434E+00  4.17347E+00  4.27501E+00  4.37903E+00  4.48557E+00
#           4.59471E+00  4.70650E+00  4.82102E+00  4.93832E+00  5.05847E+00
#           5.18155E+00  5.30762E+00  5.43676E+00  5.56904E+00  5.70453E+00
#           5.84333E+00  5.98550E+00  6.13114E+00  6.28031E+00  6.43312E+00
#           6.58964E+00  6.74997E+00  6.91420E+00  7.08243E+00  7.25475E+00
#           7.43126E+00  7.61207E+00  7.79728E+00  7.98700E+00  8.18133E+00
#           8.38038E+00  8.58428E+00  8.79315E+00  9.00709E+00  9.22624E+00
#           9.45072E+00  9.68067E+00  9.91620E+00  1.01575E+01  1.04046E+01
#           1.06578E+01  1.09171E+01  1.11827E+01  1.14548E+01  1.17335E+01
#           1.20190E+01  1.23114E+01  1.26109E+01  1.29178E+01  1.32321E+01
#           1.35540E+01  1.38838E+01  1.42216E+01  1.45676E+01  1.49221E+01
#           1.52851E+01  1.56570E+01  1.60380E+01  1.64282E+01  1.68279E+01
#           1.72374E+01  1.76568E+01  1.80864E+01  1.85264E+01  1.89772E+01
#           1.94389E+01  1.99119E+01  2.03963E+01  2.08926E+01  2.14009E+01
#           2.19216E+01  2.24550E+01  2.30014E+01  2.35610E+01  2.41343E+01
#           2.47215E+01  2.53230E+01  2.59391E+01  2.65702E+01  2.72167E+01
#           2.78789E+01  2.85572E+01  2.92520E+01  2.99637E+01  3.06928E+01
#           3.14396E+01  3.22045E+01  3.29881E+01  3.37907E+01  3.46128E+01
#           3.54550E+01  3.63177E+01  3.72013E+01  3.81064E+01  3.90336E+01
#           3.99833E+01  4.09561E+01  4.19526E+01  4.29734E+01  4.40189E+01
#           4.50900E+01  4.61870E+01  4.73108E+01  4.84619E+01  4.96410E+01
#           5.08488E+01  5.20860E+01  5.33533E+01  5.46514E+01  5.59812E+01
#           5.73432E+01  5.87384E+01  6.01676E+01  6.16315E+01  6.31311E+01
#           6.46671E+01  6.62405E+01  6.78522E+01  6.95031E+01  7.11941E+01
#           7.29263E+01  7.47007E+01  7.65182E+01  7.83800E+01  8.02870E+01
#           8.22405E+01  8.42414E+01  8.62911E+01  8.83906E+01  9.05412E+01
#           9.27442E+01  9.50007E+01  9.73122E+01  9.96799E+01  1.02105E+02
#           1.04589E+02  1.07134E+02  1.09741E+02  1.12411E+02  1.15146E+02
#           1.17948E+02  1.20817E+02  1.23757E+02  1.26768E+02  1.29852E+02
#           1.33012E+02  1.36248E+02  1.39563E+02  1.42959E+02  1.46437E+02
#           1.50000E+02
     unit =    2            # unit is [1/cm^2/(MeV/n)/source]
     axis =  eng            # axis of output
     file = detector-06.out  # file name of output for the above axis
   output = f-curr          # surface crossing forward current spectrum
     part =  neutron  
# kf/name :  2112     
#    used :        main (  %)        temp (  %)       total (  %)
#  memory :         414 (  0)           0 (  0)         414 (  0)

#------------------------------------------------------------------------------
#newpage:
#   no. =    1   reg = 105 - 205

x: Energy [MeV/n]
y:  F-Curr [1/cm^2/(MeV/n)/source]         
p: xlog ylog afac(0.8) form(0.9)
h: n            x            y(neutron ),hh0l   n 
#  e-lower      e-upper      neutron     r.err 
   1.0000E-02   1.0243E-02   6.7339E-04  0.0349
   1.0243E-02   1.0493E-02   6.6991E-04  0.0346
   1.0493E-02   1.0748E-02   6.8738E-04  0.0337
   1.0748E-02   1.1009E-02   6.8012E-04  0.0335
   1.1009E-02   1.1277E-02   6.8922E-04  0.0329
   1.1277E-02   1.1552E-02   6.7016E-04  0.0329
   1.1552E-02   1.1833E-02   6.4724E-04  0.0331
   1.1833E-02   1.2121E-02   6.6517E-04  0.0323
   1.2121E-02   1.2415E-02   6.2360E-04  0.0329
   1.2415E-02   1.2718E-02   6.5151E-04  0.0319
   1.2718E-02   1.3027E-02   6.1269E-04  0.0324
   1.3027E-02   1.3344E-02   6.1906E-04  0.0319
   1.3344E-02   1.3669E-02   5.8926E-04  0.0323
   1.3669E-02   1.4001E-02   6.1231E-04  0.0313
   1.4001E-02   1.4342E-02   5.8080E-04  0.0318
   1.4342E-02   1.4691E-02   5.6334E-04  0.0318
   1.4691E-02   1.5048E-02   5.8489E-04  0.0309
   1.5048E-02   1.5414E-02   6.0440E-04  0.0300
   1.5414E-02   1.5789E-02   5.7030E-04  0.0306
   1.5789E-02   1.6174E-02   5.4210E-04  0.0310
   1.6174E-02   1.6567E-02   5.4878E-04  0.0304
   1.6567E-02   1.6970E-02   5.4460E-04  0.0301
   1.6970E-02   1.7383E-02   5.6912E-04  0.0292
   1.7383E-02   1.7806E-02   5.3903E-04  0.0296
   1.7806E-02   1.8239E-02   5.3662E-04  0.0293
   1.8239E-02   1.8683E-02   5.0702E-04  0.0298
   1.8683E-02   1.9138E-02   5.2614E-04  0.0289
   1.9138E-02   1.9603E-02   5.1342E-04  0.0289
   1.9603E-02   2.0080E-02   4.9160E-04  0.0292
   2.0080E-02   2.0569E-02   5.3490E-04  0.0276
   2.0569E-02   2.1069E-02   5.2528E-04  0.0276
   2.1069E-02   2.1582E-02   5.0493E-04  0.0278
   2.1582E-02   2.2107E-02   4.9186E-04  0.0278
   2.2107E-02   2.2645E-02   4.9591E-04  0.0274
   2.2645E-02   2.3196E-02   4.4277E-04  0.0286
   2.3196E-02   2.3760E-02   4.6805E-04  0.0275
   2.3760E-02   2.4338E-02   4.6679E-04  0.0272
   2.4338E-02   2.4930E-02   4.6026E-04  0.0270
   2.4930E-02   2.5537E-02   4.4741E-04  0.0271
   2.5537E-02   2.6158E-02   4.2113E-04  0.0276
   2.6158E-02   2.6795E-02   4.3797E-04  0.0267
   2.6795E-02   2.7447E-02   4.2995E-04  0.0267
   2.7447E-02   2.8114E-02   4.5917E-04  0.0255
   2.8114E-02   2.8799E-02   4.2012E-04  0.0264
   2.8799E-02   2.9499E-02   4.3308E-04  0.0256
   2.9499E-02   3.0217E-02   4.1793E-04  0.0258
   3.0217E-02   3.0952E-02   4.2348E-04  0.0253
   3.0952E-02   3.1705E-02   4.0175E-04  0.0257
   3.1705E-02   3.2477E-02   3.8297E-04  0.0260
   3.2477E-02   3.3267E-02   3.9767E-04  0.0252
   3.3267E-02   3.4076E-02   3.8976E-04  0.0252
   3.4076E-02   3.4905E-02   3.7338E-04  0.0254
   3.4905E-02   3.5755E-02   3.8319E-04  0.0248
   3.5755E-02   3.6625E-02   3.7622E-04  0.0247
   3.6625E-02   3.7516E-02   3.8221E-04  0.0242
   3.7516E-02   3.8428E-02   3.7073E-04  0.0243
   3.8428E-02   3.9363E-02   3.4120E-04  0.0250
   3.9363E-02   4.0321E-02   3.5771E-04  0.0241
   4.0321E-02   4.1302E-02   3.4912E-04  0.0241
   4.1302E-02   4.2307E-02   3.4589E-04  0.0240
   4.2307E-02   4.3337E-02   3.5409E-04  0.0234
   4.3337E-02   4.4391E-02   3.5110E-04  0.0232
   4.4391E-02   4.5471E-02   3.2352E-04  0.0239
   4.5471E-02   4.6577E-02   3.2412E-04  0.0236
   4.6577E-02   4.7711E-02   3.1877E-04  0.0235
   4.7711E-02   4.8871E-02   3.2049E-04  0.0232
   4.8871E-02   5.0061E-02   3.0675E-04  0.0234
   5.0061E-02   5.1279E-02   3.1242E-04  0.0229
   5.1279E-02   5.2526E-02   3.1151E-04  0.0227
   5.2526E-02   5.3804E-02   3.0418E-04  0.0227
   5.3804E-02   5.5113E-02   2.9856E-04  0.0226
   5.5113E-02   5.6454E-02   2.8395E-04  0.0229
   5.6454E-02   5.7828E-02   2.7721E-04  0.0229
   5.7828E-02   5.9235E-02   2.7758E-04  0.0226
   5.9235E-02   6.0676E-02   2.8310E-04  0.0221
   6.0676E-02   6.2152E-02   2.7783E-04  0.0221
   6.2152E-02   6.3665E-02   2.6466E-04  0.0223
   6.3665E-02   6.5214E-02   2.6786E-04  0.0219
   6.5214E-02   6.6800E-02   2.7150E-04  0.0215
   6.6800E-02   6.8426E-02   2.6200E-04  0.0217
   6.8426E-02   7.0090E-02   2.5469E-04  0.0217
   7.0090E-02   7.1796E-02   2.5617E-04  0.0214
   7.1796E-02   7.3543E-02   2.4308E-04  0.0217
   7.3543E-02   7.5332E-02   2.4441E-04  0.0214
   7.5332E-02   7.7165E-02   2.4430E-04  0.0211
   7.7165E-02   7.9042E-02   2.2983E-04  0.0215
   7.9042E-02   8.0965E-02   2.2790E-04  0.0213
   8.0965E-02   8.2935E-02   2.2474E-04  0.0212
   8.2935E-02   8.4953E-02   2.1997E-04  0.0212
   8.4953E-02   8.7020E-02   2.1103E-04  0.0214
   8.7020E-02   8.9138E-02   2.1554E-04  0.0209
   8.9138E-02   9.1306E-02   2.1244E-04  0.0208
   9.1306E-02   9.3528E-02   2.0829E-04  0.0208
   9.3528E-02   9.5804E-02   2.0545E-04  0.0207
   9.5804E-02   9.8134E-02   1.9433E-04  0.0210
   9.8134E-02   1.0052E-01   1.9755E-04  0.0206
   1.0052E-01   1.0297E-01   1.8977E-04  0.0207
   1.0297E-01   1.0547E-01   1.9120E-04  0.0204
   1.0547E-01   1.0804E-01   1.8979E-04  0.0202
   1.0804E-01   1.1067E-01   1.8653E-04  0.0202
   1.1067E-01   1.1336E-01   1.8616E-04  0.0199
   1.1336E-01   1.1612E-01   1.7462E-04  0.0203
   1.1612E-01   1.1894E-01   1.6925E-04  0.0204
   1.1894E-01   1.2184E-01   1.6855E-04  0.0202
   1.2184E-01   1.2480E-01   1.6656E-04  0.0201
   1.2480E-01   1.2784E-01   1.6523E-04  0.0199
   1.2784E-01   1.3095E-01   1.6264E-04  0.0199
   1.3095E-01   1.3414E-01   1.5694E-04  0.0200
   1.3414E-01   1.3740E-01   1.5666E-04  0.0198
   1.3740E-01   1.4074E-01   1.5024E-04  0.0199
   1.4074E-01   1.4417E-01   1.4323E-04  0.0202
   1.4417E-01   1.4767E-01   1.4600E-04  0.0197
   1.4767E-01   1.5127E-01   1.3768E-04  0.0201
   1.5127E-01   1.5495E-01   1.3508E-04  0.0200
   1.5495E-01   1.5872E-01   1.3839E-04  0.0196
   1.5872E-01   1.6258E-01   1.3799E-04  0.0193
   1.6258E-01   1.6654E-01   1.2819E-04  0.0198
   1.6654E-01   1.7059E-01   1.2374E-04  0.0200
   1.7059E-01   1.7474E-01   1.2361E-04  0.0197
   1.7474E-01   1.7899E-01   1.2414E-04  0.0194
   1.7899E-01   1.8334E-01   1.1949E-04  0.0196
   1.8334E-01   1.8781E-01   1.1460E-04  0.0198
   1.8781E-01   1.9237E-01   1.1065E-04  0.0199
   1.9237E-01   1.9706E-01   1.0879E-04  0.0198
   1.9706E-01   2.0185E-01   1.0785E-04  0.0196
   2.0185E-01   2.0676E-01   1.1069E-04  0.0192
   2.0676E-01   2.1179E-01   1.1312E-04  0.0187
   2.1179E-01   2.1694E-01   1.1090E-04  0.0187
   2.1694E-01   2.2222E-01   1.1291E-04  0.0183
   2.2222E-01   2.2763E-01   1.2040E-04  0.0175
   2.2763E-01   2.3317E-01   1.2087E-04  0.0173
   2.3317E-01   2.3884E-01   1.2295E-04  0.0169
   2.3884E-01   2.4465E-01   1.2096E-04  0.0168
   2.4465E-01   2.5061E-01   1.2970E-04  0.0161
   2.5061E-01   2.5670E-01   1.3073E-04  0.0158
   2.5670E-01   2.6295E-01   1.2960E-04  0.0157
   2.6295E-01   2.6935E-01   1.3440E-04  0.0152
   2.6935E-01   2.7590E-01   1.3341E-04  0.0151
   2.7590E-01   2.8261E-01   1.3754E-04  0.0147
   2.8261E-01   2.8949E-01   1.4062E-04  0.0144
   2.8949E-01   2.9653E-01   1.3964E-04  0.0142
   2.9653E-01   3.0375E-01   1.4213E-04  0.0139
   3.0375E-01   3.1114E-01   1.4258E-04  0.0138
   3.1114E-01   3.1871E-01   1.4598E-04  0.0134
   3.1871E-01   3.2646E-01   1.4794E-04  0.0132
   3.2646E-01   3.3441E-01   1.4884E-04  0.0130
   3.3441E-01   3.4254E-01   1.4519E-04  0.0130
   3.4254E-01   3.5088E-01   1.5285E-04  0.0125
   3.5088E-01   3.5941E-01   1.5500E-04  0.0123
   3.5941E-01   3.6816E-01   1.5719E-04  0.0120
   3.6816E-01   3.7712E-01   1.5741E-04  0.0119
   3.7712E-01   3.8629E-01   1.5634E-04  0.0118
   3.8629E-01   3.9569E-01   1.5838E-04  0.0116
   3.9569E-01   4.0532E-01   1.6071E-04  0.0114
   4.0532E-01   4.1518E-01   1.5978E-04  0.0113
   4.1518E-01   4.2528E-01   1.6083E-04  0.0111
   4.2528E-01   4.3563E-01   1.6250E-04  0.0109
   4.3563E-01   4.4623E-01   1.6489E-04  0.0107
   4.4623E-01   4.5708E-01   1.6528E-04  0.0105
   4.5708E-01   4.6821E-01   1.6794E-04  0.0103
   4.6821E-01   4.7960E-01   1.6536E-04  0.0103
   4.7960E-01   4.9127E-01   1.6580E-04  0.0102
   4.9127E-01   5.0322E-01   1.6923E-04  0.0099
   5.0322E-01   5.1546E-01   1.7169E-04  0.0097
   5.1546E-01   5.2800E-01   1.6840E-04  0.0097
   5.2800E-01   5.4085E-01   1.7078E-04  0.0095
   5.4085E-01   5.5401E-01   1.7111E-04  0.0094
   5.5401E-01   5.6749E-01   1.7222E-04  0.0093
   5.6749E-01   5.8130E-01   1.6993E-04  0.0092
   5.8130E-01   5.9544E-01   1.7141E-04  0.0091
   5.9544E-01   6.0993E-01   1.7347E-04  0.0089
   6.0993E-01   6.2477E-01   1.7322E-04  0.0088
   6.2477E-01   6.3997E-01   1.7121E-04  0.0088
   6.3997E-01   6.5554E-01   1.7480E-04  0.0086
   6.5554E-01   6.7149E-01   1.7422E-04  0.0085
   6.7149E-01   6.8783E-01   1.7476E-04  0.0084
   6.8783E-01   7.0456E-01   1.7331E-04  0.0083
   7.0456E-01   7.2171E-01   1.7615E-04  0.0081
   7.2171E-01   7.3927E-01   1.7241E-04  0.0081
   7.3927E-01   7.5725E-01   1.7423E-04  0.0080
   7.5725E-01   7.7568E-01   1.7401E-04  0.0079
   7.7568E-01   7.9455E-01   1.7285E-04  0.0078
   7.9455E-01   8.1388E-01   1.7029E-04  0.0078
   8.1388E-01   8.3368E-01   1.7028E-04  0.0077
   8.3368E-01   8.5397E-01   1.7081E-04  0.0076
   8.5397E-01   8.7475E-01   1.6924E-04  0.0075
   8.7475E-01   8.9603E-01   1.6711E-04  0.0075
   8.9603E-01   9.1783E-01   1.6669E-04  0.0074
   9.1783E-01   9.4016E-01   1.6287E-04  0.0074
   9.4016E-01   9.6304E-01   1.6031E-04  0.0074
   9.6304E-01   9.8647E-01   1.5658E-04  0.0074
   9.8647E-01   1.0105E+00   1.5253E-04  0.0074
   1.0105E+00   1.0351E+00   1.5184E-04  0.0073
   1.0351E+00   1.0602E+00   1.4915E-04  0.0073
   1.0602E+00   1.0860E+00   1.4925E-04  0.0072
   1.0860E+00   1.1125E+00   1.4578E-04  0.0072
   1.1125E+00   1.1395E+00   1.4631E-04  0.0071
   1.1395E+00   1.1673E+00   1.4526E-04  0.0070
   1.1673E+00   1.1957E+00   1.4310E-04  0.0070
   1.1957E+00   1.2247E+00   1.4593E-04  0.0069
   1.2247E+00   1.2545E+00   1.4537E-04  0.0068
   1.2545E+00   1.2851E+00   1.4344E-04  0.0067
   1.2851E+00   1.3163E+00   1.3964E-04  0.0068
   1.3163E+00   1.3484E+00   1.3938E-04  0.0067
   1.3484E+00   1.3812E+00   1.3920E-04  0.0066
   1.3812E+00   1.4148E+00   1.3873E-04  0.0065
   1.4148E+00   1.4492E+00   1.3787E-04  0.0065
   1.4492E+00   1.4845E+00   1.3579E-04  0.0064
   1.4845E+00   1.5206E+00   1.3340E-04  0.0064
   1.5206E+00   1.5576E+00   1.3151E-04  0.0064
   1.5576E+00   1.5955E+00   1.3162E-04  0.0063
   1.5955E+00   1.6343E+00   1.3028E-04  0.0063
   1.6343E+00   1.6741E+00   1.2819E-04  0.0063
   1.6741E+00   1.7148E+00   1.2642E-04  0.0062
   1.7148E+00   1.7565E+00   1.2666E-04  0.0061
   1.7565E+00   1.7992E+00   1.2603E-04  0.0061
   1.7992E+00   1.8430E+00   1.2310E-04  0.0061
   1.8430E+00   1.8879E+00   1.2335E-04  0.0060
   1.8879E+00   1.9338E+00   1.2042E-04  0.0060
   1.9338E+00   1.9808E+00   1.1849E-04  0.0060
   1.9808E+00   2.0290E+00   1.1915E-04  0.0059
   2.0290E+00   2.0784E+00   1.1801E-04  0.0058
   2.0784E+00   2.1290E+00   1.1656E-04  0.0058
   2.1290E+00   2.1808E+00   1.1509E-04  0.0058
   2.1808E+00   2.2338E+00   1.1414E-04  0.0057
   2.2338E+00   2.2882E+00   1.1322E-04  0.0057
   2.2882E+00   2.3439E+00   1.1194E-04  0.0057
   2.3439E+00   2.4009E+00   1.1009E-04  0.0056
   2.4009E+00   2.4593E+00   1.0888E-04  0.0056
   2.4593E+00   2.5191E+00   1.0874E-04  0.0055
   2.5191E+00   2.5804E+00   1.0735E-04  0.0055
   2.5804E+00   2.6432E+00   1.0574E-04  0.0055
   2.6432E+00   2.7075E+00   1.0674E-04  0.0054
   2.7075E+00   2.7734E+00   1.0499E-04  0.0054
   2.7734E+00   2.8409E+00   1.0278E-04  0.0054
   2.8409E+00   2.9100E+00   1.0215E-04  0.0053
   2.9100E+00   2.9808E+00   1.0250E-04  0.0052
   2.9808E+00   3.0533E+00   1.0125E-04  0.0052
   3.0533E+00   3.1276E+00   9.9432E-05  0.0052
   3.1276E+00   3.2037E+00   9.8487E-05  0.0052
   3.2037E+00   3.2817E+00   9.6770E-05  0.0051
   3.2817E+00   3.3615E+00   9.6062E-05  0.0051
   3.3615E+00   3.4433E+00   9.5049E-05  0.0051
   3.4433E+00   3.5271E+00   9.3177E-05  0.0051
   3.5271E+00   3.6129E+00   9.1812E-05  0.0050
   3.6129E+00   3.7008E+00   9.1583E-05  0.0050
   3.7008E+00   3.7908E+00   9.0581E-05  0.0049
   3.7908E+00   3.8831E+00   8.9845E-05  0.0049
   3.8831E+00   3.9776E+00   8.8261E-05  0.0049
   3.9776E+00   4.0743E+00   8.7099E-05  0.0049
   4.0743E+00   4.1735E+00   8.5998E-05  0.0048
   4.1735E+00   4.2750E+00   8.5543E-05  0.0048
   4.2750E+00   4.3790E+00   8.4047E-05  0.0048
   4.3790E+00   4.4856E+00   8.2970E-05  0.0047
   4.4856E+00   4.5947E+00   8.1933E-05  0.0047
   4.5947E+00   4.7065E+00   8.1081E-05  0.0047
   4.7065E+00   4.8210E+00   8.1108E-05  0.0046
   4.8210E+00   4.9383E+00   8.0346E-05  0.0046
   4.9383E+00   5.0585E+00   7.9366E-05  0.0046
   5.0585E+00   5.1815E+00   7.7996E-05  0.0046
   5.1815E+00   5.3076E+00   7.7079E-05  0.0045
   5.3076E+00   5.4368E+00   7.5616E-05  0.0045
   5.4368E+00   5.5690E+00   7.5750E-05  0.0045
   5.5690E+00   5.7045E+00   7.4252E-05  0.0045
   5.7045E+00   5.8433E+00   7.3145E-05  0.0044
   5.8433E+00   5.9855E+00   7.0994E-05  0.0044
   5.9855E+00   6.1311E+00   7.0942E-05  0.0044
   6.1311E+00   6.2803E+00   6.9801E-05  0.0044
   6.2803E+00   6.4331E+00   6.9115E-05  0.0043
   6.4331E+00   6.5896E+00   6.8222E-05  0.0043
   6.5896E+00   6.7500E+00   6.7126E-05  0.0043
   6.7500E+00   6.9142E+00   6.5498E-05  0.0043
   6.9142E+00   7.0824E+00   6.5136E-05  0.0043
   7.0824E+00   7.2548E+00   6.4302E-05  0.0042
   7.2548E+00   7.4313E+00   6.4059E-05  0.0042
   7.4313E+00   7.6121E+00   6.2445E-05  0.0042
   7.6121E+00   7.7973E+00   6.1373E-05  0.0042
   7.7973E+00   7.9870E+00   6.0948E-05  0.0042
   7.9870E+00   8.1813E+00   5.9915E-05  0.0041
   8.1813E+00   8.3804E+00   5.9254E-05  0.0041
   8.3804E+00   8.5843E+00   5.9092E-05  0.0041
   8.5843E+00   8.7931E+00   5.7436E-05  0.0041
   8.7931E+00   9.0071E+00   5.6911E-05  0.0041
   9.0071E+00   9.2262E+00   5.6143E-05  0.0040
   9.2262E+00   9.4507E+00   5.5486E-05  0.0040
   9.4507E+00   9.6807E+00   5.4917E-05  0.0040
   9.6807E+00   9.9162E+00   5.3828E-05  0.0040
   9.9162E+00   1.0157E+01   5.4066E-05  0.0039
   1.0157E+01   1.0405E+01   5.3421E-05  0.0039
   1.0405E+01   1.0658E+01   5.3278E-05  0.0038
   1.0658E+01   1.0917E+01   5.3064E-05  0.0038
   1.0917E+01   1.1183E+01   5.2265E-05  0.0038
   1.1183E+01   1.1455E+01   5.2146E-05  0.0038
   1.1455E+01   1.1733E+01   5.1762E-05  0.0037
   1.1733E+01   1.2019E+01   5.1575E-05  0.0037
   1.2019E+01   1.2311E+01   5.1580E-05  0.0036
   1.2311E+01   1.2611E+01   5.0886E-05  0.0036
   1.2611E+01   1.2918E+01   5.0764E-05  0.0036
   1.2918E+01   1.3232E+01   5.0660E-05  0.0035
   1.3232E+01   1.3554E+01   5.0947E-05  0.0035
   1.3554E+01   1.3884E+01   5.0591E-05  0.0035
   1.3884E+01   1.4222E+01   5.0574E-05  0.0034
   1.4222E+01   1.4568E+01   5.0822E-05  0.0034
   1.4568E+01   1.4922E+01   5.0917E-05  0.0033
   1.4922E+01   1.5285E+01   5.1220E-05  0.0033
   1.5285E+01   1.5657E+01   5.1366E-05  0.0032
   1.5657E+01   1.6038E+01   5.1309E-05  0.0032
   1.6038E+01   1.6428E+01   5.2019E-05  0.0031
   1.6428E+01   1.6828E+01   5.2442E-05  0.0031
   1.6828E+01   1.7237E+01   5.2734E-05  0.0030
   1.7237E+01   1.7657E+01   5.3224E-05  0.0030
   1.7657E+01   1.8086E+01   5.3755E-05  0.0029
   1.8086E+01   1.8526E+01   5.4332E-05  0.0029
   1.8526E+01   1.8977E+01   5.5024E-05  0.0028
   1.8977E+01   1.9439E+01   5.6153E-05  0.0028
   1.9439E+01   1.9912E+01   5.6999E-05  0.0027
   1.9912E+01   2.0396E+01   5.8574E-05  0.0027
   2.0396E+01   2.0893E+01   5.9610E-05  0.0026
   2.0893E+01   2.1401E+01   6.0631E-05  0.0025
   2.1401E+01   2.1922E+01   6.1799E-05  0.0025
   2.1922E+01   2.2455E+01   6.3329E-05  0.0024
   2.2455E+01   2.3001E+01   6.4707E-05  0.0024
   2.3001E+01   2.3561E+01   6.6231E-05  0.0023
   2.3561E+01   2.4134E+01   6.7736E-05  0.0023
   2.4134E+01   2.4721E+01   6.9292E-05  0.0022
   2.4721E+01   2.5323E+01   7.1481E-05  0.0022
   2.5323E+01   2.5939E+01   7.3369E-05  0.0021
   2.5939E+01   2.6570E+01   7.5161E-05  0.0021
   2.6570E+01   2.7217E+01   7.7797E-05  0.0020
   2.7217E+01   2.7879E+01   7.9784E-05  0.0019
   2.7879E+01   2.8557E+01   8.2581E-05  0.0019
   2.8557E+01   2.9252E+01   8.5228E-05  0.0018
   2.9252E+01   2.9964E+01   8.8048E-05  0.0018
   2.9964E+01   3.0693E+01   9.0563E-05  0.0017
   3.0693E+01   3.1440E+01   9.3831E-05  0.0017
   3.1440E+01   3.2205E+01   9.6965E-05  0.0016
   3.2205E+01   3.2988E+01   1.0014E-04  0.0016
   3.2988E+01   3.3791E+01   1.0327E-04  0.0016
   3.3791E+01   3.4613E+01   1.0627E-04  0.0015
   3.4613E+01   3.5455E+01   1.0922E-04  0.0015
   3.5455E+01   3.6318E+01   1.1222E-04  0.0014
   3.6318E+01   3.7201E+01   1.1538E-04  0.0014
   3.7201E+01   3.8106E+01   1.1821E-04  0.0014
   3.8106E+01   3.9034E+01   1.2063E-04  0.0013
   3.9034E+01   3.9983E+01   1.2260E-04  0.0013
   3.9983E+01   4.0956E+01   1.2482E-04  0.0013
   4.0956E+01   4.1953E+01   1.2572E-04  0.0013
   4.1953E+01   4.2973E+01   1.2666E-04  0.0012
   4.2973E+01   4.4019E+01   1.2678E-04  0.0012
   4.4019E+01   4.5090E+01   1.2622E-04  0.0012
   4.5090E+01   4.6187E+01   1.2517E-04  0.0012
   4.6187E+01   4.7311E+01   1.2356E-04  0.0012
   4.7311E+01   4.8462E+01   1.2091E-04  0.0012
   4.8462E+01   4.9641E+01   1.1764E-04  0.0012
   4.9641E+01   5.0849E+01   1.1368E-04  0.0012
   5.0849E+01   5.2086E+01   1.0969E-04  0.0012
   5.2086E+01   5.3353E+01   1.0454E-04  0.0012
   5.3353E+01   5.4651E+01   9.9683E-05  0.0012
   5.4651E+01   5.5981E+01   9.3931E-05  0.0013
   5.5981E+01   5.7343E+01   8.8397E-05  0.0013
   5.7343E+01   5.8738E+01   8.2516E-05  0.0013
   5.8738E+01   6.0168E+01   7.6738E-05  0.0014
   6.0168E+01   6.1632E+01   7.0745E-05  0.0014
   6.1632E+01   6.3131E+01   6.5022E-05  0.0014
   6.3131E+01   6.4667E+01   5.9564E-05  0.0015
   6.4667E+01   6.6240E+01   5.4146E-05  0.0015
   6.6240E+01   6.7852E+01   4.9251E-05  0.0016
   6.7852E+01   6.9503E+01   4.4273E-05  0.0017
   6.9503E+01   7.1194E+01   3.9746E-05  0.0017
   7.1194E+01   7.2926E+01   3.5774E-05  0.0018
   7.2926E+01   7.4701E+01   3.1843E-05  0.0019
   7.4701E+01   7.6518E+01   2.8339E-05  0.0020
   7.6518E+01   7.8380E+01   2.5144E-05  0.0021
   7.8380E+01   8.0287E+01   2.2359E-05  0.0022
   8.0287E+01   8.2240E+01   2.0000E-05  0.0023
   8.2240E+01   8.4241E+01   1.8135E-05  0.0023
   8.4241E+01   8.6291E+01   1.6396E-05  0.0024
   8.6291E+01   8.8391E+01   1.4717E-05  0.0025
   8.8391E+01   9.0541E+01   1.3336E-05  0.0026
   9.0541E+01   9.2744E+01   1.2683E-05  0.0027
   9.2744E+01   9.5001E+01   1.2400E-05  0.0027
   9.5001E+01   9.7312E+01   1.1823E-05  0.0027
   9.7312E+01   9.9680E+01   1.0617E-05  0.0028
   9.9680E+01   1.0211E+02   9.0272E-06  0.0030
   1.0211E+02   1.0459E+02   7.3598E-06  0.0033
   1.0459E+02   1.0713E+02   5.9451E-06  0.0036
   1.0713E+02   1.0974E+02   4.8131E-06  0.0040
   1.0974E+02   1.1241E+02   3.2439E-06  0.0048
   1.1241E+02   1.1515E+02   1.3951E-06  0.0072
   1.1515E+02   1.1795E+02   2.4772E-07  0.0170
   1.1795E+02   1.2082E+02   7.3177E-09  0.0976
   1.2082E+02   1.2376E+02   0.0000E+00  0.0000
   1.2376E+02   1.2677E+02   0.0000E+00  0.0000
   1.2677E+02   1.2985E+02   0.0000E+00  0.0000
   1.2985E+02   1.3301E+02   0.0000E+00  0.0000
   1.3301E+02   1.3625E+02   0.0000E+00  0.0000
   1.3625E+02   1.3956E+02   0.0000E+00  0.0000
   1.3956E+02   1.4296E+02   0.0000E+00  0.0000
   1.4296E+02   1.4644E+02   0.0000E+00  0.0000
   1.4644E+02   1.5000E+02   0.0000E+00  0.0000

#   sum over                 4.4400E-05
'no. =    1   reg = 105 - 205'
msuc: {\huge [t-cross] in region mesh}
msdr: {\it plotted by \ANGEL \version}
msdl: {\it calculated by \PHITS  3.28}
wt: s(0.7)
\vspace{-3}
  region surface crossing
  area  &=&   1.0000E+00 [cm^2]
e:
 
# Information for Restart Calculation
# This calculation was newly started
# istdev =  2 # 1:Batch variance, 2:History variance
# resc2  = 5.00000000000000000E+09 # Total source weight or Total source weight / maxcas
# resc3  = 5.00000000000000000E+09 # Total history number or Total batch number
# maxcas =   500000000 # History / Batch, only used for istdev=1
# bitrseed = 0001101011110000011001100100101010101011111110100001111101011101 # bit data of rseed
