[ T-Cross ]
    title = [t-cross] in region mesh
     mesh =  reg            # mesh type is region-wise
      reg =    1            # number of crossing regions
      non     r-from    r-to       area
      1       110       210        1.000000    
   e-type =    3            # e-mesh is log given by emin, emax and ne
     emin =  1.0000000E-02  # minimum value of e-mesh points
     emax =   150.0000      # maximum value of e-mesh points
#    edel =  2.4039514E-02  # mesh width of e-mesh points
       ne =    400          # number of e-mesh points
#    data = ( e(i), i = 1, ne + 1 )
#           1.00000E-02  1.02433E-02  1.04925E-02  1.07478E-02  1.10093E-02
#           1.12772E-02  1.15516E-02  1.18326E-02  1.21205E-02  1.24154E-02
#           1.27175E-02  1.30269E-02  1.33439E-02  1.36686E-02  1.40011E-02
#           1.43418E-02  1.46907E-02  1.50482E-02  1.54143E-02  1.57894E-02
#           1.61735E-02  1.65670E-02  1.69701E-02  1.73830E-02  1.78060E-02
#           1.82392E-02  1.86830E-02  1.91375E-02  1.96032E-02  2.00801E-02
#           2.05687E-02  2.10692E-02  2.15818E-02  2.21069E-02  2.26448E-02
#           2.31957E-02  2.37601E-02  2.43382E-02  2.49304E-02  2.55369E-02
#           2.61583E-02  2.67947E-02  2.74467E-02  2.81145E-02  2.87985E-02
#           2.94992E-02  3.02169E-02  3.09521E-02  3.17052E-02  3.24766E-02
#           3.32668E-02  3.40762E-02  3.49053E-02  3.57546E-02  3.66246E-02
#           3.75157E-02  3.84284E-02  3.93634E-02  4.03212E-02  4.13022E-02
#           4.23071E-02  4.33365E-02  4.43909E-02  4.54710E-02  4.65773E-02
#           4.77106E-02  4.88714E-02  5.00605E-02  5.12785E-02  5.25262E-02
#           5.38042E-02  5.51133E-02  5.64542E-02  5.78278E-02  5.92348E-02
#           6.06760E-02  6.21523E-02  6.36645E-02  6.52135E-02  6.68002E-02
#           6.84255E-02  7.00904E-02  7.17957E-02  7.35426E-02  7.53319E-02
#           7.71648E-02  7.90423E-02  8.09655E-02  8.29354E-02  8.49533E-02
#           8.70203E-02  8.91376E-02  9.13064E-02  9.35279E-02  9.58035E-02
#           9.81345E-02  1.00522E-01  1.02968E-01  1.05473E-01  1.08040E-01
#           1.10668E-01  1.13361E-01  1.16119E-01  1.18944E-01  1.21838E-01
#           1.24803E-01  1.27839E-01  1.30950E-01  1.34136E-01  1.37399E-01
#           1.40742E-01  1.44167E-01  1.47675E-01  1.51268E-01  1.54948E-01
#           1.58718E-01  1.62580E-01  1.66535E-01  1.70587E-01  1.74738E-01
#           1.78989E-01  1.83344E-01  1.87805E-01  1.92375E-01  1.97055E-01
#           2.01850E-01  2.06761E-01  2.11792E-01  2.16945E-01  2.22223E-01
#           2.27630E-01  2.33169E-01  2.38842E-01  2.44653E-01  2.50605E-01
#           2.56703E-01  2.62949E-01  2.69346E-01  2.75900E-01  2.82613E-01
#           2.89489E-01  2.96532E-01  3.03747E-01  3.11138E-01  3.18708E-01
#           3.26462E-01  3.34405E-01  3.42542E-01  3.50876E-01  3.59413E-01
#           3.68158E-01  3.77116E-01  3.86291E-01  3.95690E-01  4.05317E-01
#           4.15179E-01  4.25281E-01  4.35628E-01  4.46227E-01  4.57084E-01
#           4.68205E-01  4.79597E-01  4.91266E-01  5.03219E-01  5.15463E-01
#           5.28005E-01  5.40851E-01  5.54011E-01  5.67490E-01  5.81298E-01
#           5.95441E-01  6.09929E-01  6.24769E-01  6.39970E-01  6.55541E-01
#           6.71491E-01  6.87828E-01  7.04564E-01  7.21706E-01  7.39266E-01
#           7.57253E-01  7.75678E-01  7.94551E-01  8.13883E-01  8.33685E-01
#           8.53969E-01  8.74747E-01  8.96030E-01  9.17831E-01  9.40163E-01
#           9.63038E-01  9.86469E-01  1.01047E+00  1.03506E+00  1.06024E+00
#           1.08604E+00  1.11246E+00  1.13953E+00  1.16725E+00  1.19565E+00
#           1.22474E+00  1.25454E+00  1.28507E+00  1.31633E+00  1.34836E+00
#           1.38117E+00  1.41477E+00  1.44920E+00  1.48446E+00  1.52057E+00
#           1.55757E+00  1.59547E+00  1.63429E+00  1.67405E+00  1.71478E+00
#           1.75650E+00  1.79924E+00  1.84302E+00  1.88786E+00  1.93379E+00
#           1.98084E+00  2.02904E+00  2.07841E+00  2.12898E+00  2.18078E+00
#           2.23384E+00  2.28819E+00  2.34386E+00  2.40089E+00  2.45930E+00
#           2.51914E+00  2.58043E+00  2.64322E+00  2.70753E+00  2.77341E+00
#           2.84088E+00  2.91001E+00  2.98081E+00  3.05333E+00  3.12762E+00
#           3.20372E+00  3.28167E+00  3.36152E+00  3.44330E+00  3.52708E+00
#           3.61290E+00  3.70080E+00  3.79085E+00  3.88308E+00  3.97756E+00
#           4.07434E+00  4.17347E+00  4.27501E+00  4.37903E+00  4.48557E+00
#           4.59471E+00  4.70650E+00  4.82102E+00  4.93832E+00  5.05847E+00
#           5.18155E+00  5.30762E+00  5.43676E+00  5.56904E+00  5.70453E+00
#           5.84333E+00  5.98550E+00  6.13114E+00  6.28031E+00  6.43312E+00
#           6.58964E+00  6.74997E+00  6.91420E+00  7.08243E+00  7.25475E+00
#           7.43126E+00  7.61207E+00  7.79728E+00  7.98700E+00  8.18133E+00
#           8.38038E+00  8.58428E+00  8.79315E+00  9.00709E+00  9.22624E+00
#           9.45072E+00  9.68067E+00  9.91620E+00  1.01575E+01  1.04046E+01
#           1.06578E+01  1.09171E+01  1.11827E+01  1.14548E+01  1.17335E+01
#           1.20190E+01  1.23114E+01  1.26109E+01  1.29178E+01  1.32321E+01
#           1.35540E+01  1.38838E+01  1.42216E+01  1.45676E+01  1.49221E+01
#           1.52851E+01  1.56570E+01  1.60380E+01  1.64282E+01  1.68279E+01
#           1.72374E+01  1.76568E+01  1.80864E+01  1.85264E+01  1.89772E+01
#           1.94389E+01  1.99119E+01  2.03963E+01  2.08926E+01  2.14009E+01
#           2.19216E+01  2.24550E+01  2.30014E+01  2.35610E+01  2.41343E+01
#           2.47215E+01  2.53230E+01  2.59391E+01  2.65702E+01  2.72167E+01
#           2.78789E+01  2.85572E+01  2.92520E+01  2.99637E+01  3.06928E+01
#           3.14396E+01  3.22045E+01  3.29881E+01  3.37907E+01  3.46128E+01
#           3.54550E+01  3.63177E+01  3.72013E+01  3.81064E+01  3.90336E+01
#           3.99833E+01  4.09561E+01  4.19526E+01  4.29734E+01  4.40189E+01
#           4.50900E+01  4.61870E+01  4.73108E+01  4.84619E+01  4.96410E+01
#           5.08488E+01  5.20860E+01  5.33533E+01  5.46514E+01  5.59812E+01
#           5.73432E+01  5.87384E+01  6.01676E+01  6.16315E+01  6.31311E+01
#           6.46671E+01  6.62405E+01  6.78522E+01  6.95031E+01  7.11941E+01
#           7.29263E+01  7.47007E+01  7.65182E+01  7.83800E+01  8.02870E+01
#           8.22405E+01  8.42414E+01  8.62911E+01  8.83906E+01  9.05412E+01
#           9.27442E+01  9.50007E+01  9.73122E+01  9.96799E+01  1.02105E+02
#           1.04589E+02  1.07134E+02  1.09741E+02  1.12411E+02  1.15146E+02
#           1.17948E+02  1.20817E+02  1.23757E+02  1.26768E+02  1.29852E+02
#           1.33012E+02  1.36248E+02  1.39563E+02  1.42959E+02  1.46437E+02
#           1.50000E+02
     unit =    2            # unit is [1/cm^2/(MeV/n)/source]
     axis =  eng            # axis of output
     file = detector-11.out  # file name of output for the above axis
   output = f-curr          # surface crossing forward current spectrum
     part =  neutron  
# kf/name :  2112     
#    used :        main (  %)        temp (  %)       total (  %)
#  memory :         414 (  0)           0 (  0)         414 (  0)

#------------------------------------------------------------------------------
#newpage:
#   no. =    1   reg = 110 - 210

x: Energy [MeV/n]
y:  F-Curr [1/cm^2/(MeV/n)/source]         
p: xlog ylog afac(0.8) form(0.9)
h: n            x            y(neutron ),hh0l   n 
#  e-lower      e-upper      neutron     r.err 
   1.0000E-02   1.0243E-02   2.0550E-05  0.4472
   1.0243E-02   1.0493E-02   5.6174E-05  0.2673
   1.0493E-02   1.0748E-02   2.7420E-05  0.3780
   1.0748E-02   1.1009E-02   3.8240E-05  0.3162
   1.1009E-02   1.1277E-02   5.2265E-05  0.2673
   1.1277E-02   1.1552E-02   2.1867E-05  0.4082
   1.1552E-02   1.1833E-02   4.9812E-05  0.2673
   1.1833E-02   1.2121E-02   2.4314E-05  0.3780
   1.2121E-02   1.2415E-02   1.6955E-05  0.4472
   1.2415E-02   1.2718E-02   2.9794E-05  0.3333
   1.2718E-02   1.3027E-02   3.5550E-05  0.3015
   1.3027E-02   1.3344E-02   5.9945E-05  0.2294
   1.3344E-02   1.3669E-02   2.7721E-05  0.3333
   1.3669E-02   1.4001E-02   5.7131E-05  0.2294
   1.4001E-02   1.4342E-02   3.5226E-05  0.2887
   1.4342E-02   1.4691E-02   4.0121E-05  0.2673
   1.4691E-02   1.5048E-02   4.1965E-05  0.2582
   1.5048E-02   1.5414E-02   4.6431E-05  0.2425
   1.5414E-02   1.5789E-02   2.9330E-05  0.3015
   1.5789E-02   1.6174E-02   3.1236E-05  0.2887
   1.6174E-02   1.6567E-02   3.3036E-05  0.2774
   1.6567E-02   1.6970E-02   2.2328E-05  0.3333
   1.6970E-02   1.7383E-02   4.6016E-05  0.2294
   1.7383E-02   1.7806E-02   4.7288E-05  0.2236
   1.7806E-02   1.8239E-02   3.9240E-05  0.2425
   1.8239E-02   1.8683E-02   4.0561E-05  0.2357
   1.8683E-02   1.9138E-02   3.9598E-05  0.2357
   1.9138E-02   1.9603E-02   5.1543E-05  0.2041
   1.9603E-02   2.0080E-02   2.9353E-05  0.2673
   2.0080E-02   2.0569E-02   3.2749E-05  0.2500
   2.0569E-02   2.1069E-02   2.9973E-05  0.2582
   2.1069E-02   2.1582E-02   2.7310E-05  0.2673
   2.1582E-02   2.2107E-02   3.4279E-05  0.2357
   2.2107E-02   2.2645E-02   2.4169E-05  0.2774
   2.2645E-02   2.3196E-02   3.8115E-05  0.2182
   2.3196E-02   2.3760E-02   3.0122E-05  0.2425
   2.3760E-02   2.4338E-02   4.4975E-05  0.1961
   2.4338E-02   2.4930E-02   3.8840E-05  0.2085
   2.4930E-02   2.5537E-02   3.6269E-05  0.2132
   2.5537E-02   2.6158E-02   4.9893E-05  0.1796
   2.6158E-02   2.6795E-02   4.0851E-05  0.1961
   2.6795E-02   2.7447E-02   4.9085E-05  0.1768
   2.7447E-02   2.8114E-02   3.7436E-05  0.2000
   2.8114E-02   2.8799E-02   3.2162E-05  0.2132
   2.8799E-02   2.9499E-02   2.7116E-05  0.2294
   2.9499E-02   3.0217E-02   2.9259E-05  0.2182
   3.0217E-02   3.0952E-02   3.1284E-05  0.2085
   3.0952E-02   3.1705E-02   3.3197E-05  0.2000
   3.1705E-02   3.2477E-02   5.1853E-05  0.1581
   3.2477E-02   3.3267E-02   2.6576E-05  0.2182
   3.3267E-02   3.4076E-02   1.7297E-05  0.2673
   3.4076E-02   3.4905E-02   3.9802E-05  0.1741
   3.4905E-02   3.5755E-02   3.8857E-05  0.1741
   3.5755E-02   3.6625E-02   2.8738E-05  0.2000
   3.6625E-02   3.7516E-02   2.4688E-05  0.2132
   3.7516E-02   3.8428E-02   3.2866E-05  0.1826
   3.8428E-02   3.9363E-02   2.2460E-05  0.2182
   3.9363E-02   4.0321E-02   4.2809E-05  0.1562
   4.0321E-02   4.1302E-02   3.0580E-05  0.1826
   4.1302E-02   4.2307E-02   3.3834E-05  0.1715
   4.2307E-02   4.3337E-02   3.4002E-05  0.1690
   4.3337E-02   4.4391E-02   3.1297E-05  0.1741
   4.4391E-02   4.5471E-02   2.5924E-05  0.1890
   4.5471E-02   4.6577E-02   2.8924E-05  0.1768
   4.6577E-02   4.7711E-02   3.2649E-05  0.1644
   4.7711E-02   4.8871E-02   3.1874E-05  0.1644
   4.8871E-02   5.0061E-02   2.8594E-05  0.1715
   5.0061E-02   5.1279E-02   2.8735E-05  0.1690
   5.1279E-02   5.2526E-02   2.5648E-05  0.1768
   5.2526E-02   5.3804E-02   4.0688E-05  0.1387
   5.3804E-02   5.5113E-02   3.3611E-05  0.1508
   5.5113E-02   5.6454E-02   3.3558E-05  0.1491
   5.6454E-02   5.7828E-02   3.3489E-05  0.1474
   5.7828E-02   5.9235E-02   3.1983E-05  0.1491
   5.9235E-02   6.0676E-02   2.9142E-05  0.1543
   6.0676E-02   6.2152E-02   3.3869E-05  0.1414
   6.2152E-02   6.3665E-02   2.1161E-05  0.1768
   6.3665E-02   6.5214E-02   3.3570E-05  0.1387
   6.5214E-02   6.6800E-02   1.7016E-05  0.1925
   6.6800E-02   6.8426E-02   3.0148E-05  0.1429
   6.8426E-02   7.0090E-02   2.7630E-05  0.1474
   7.0090E-02   7.1796E-02   3.2251E-05  0.1348
   7.1796E-02   7.3543E-02   4.5797E-05  0.1118
   7.3543E-02   7.5332E-02   2.2354E-05  0.1581
   7.5332E-02   7.7165E-02   3.0553E-05  0.1336
   7.7165E-02   7.9042E-02   3.1958E-05  0.1291
   7.9042E-02   8.0965E-02   2.9639E-05  0.1325
   8.0965E-02   8.2935E-02   2.9950E-05  0.1302
   8.2935E-02   8.4953E-02   2.8743E-05  0.1313
   8.4953E-02   8.7020E-02   3.7736E-05  0.1132
   8.7020E-02   8.9138E-02   2.5032E-05  0.1374
   8.9138E-02   9.1306E-02   3.4120E-05  0.1162
   9.1306E-02   9.3528E-02   2.6108E-05  0.1313
   9.3528E-02   9.5804E-02   2.7245E-05  0.1270
   9.5804E-02   9.8134E-02   3.0030E-05  0.1195
   9.8134E-02   1.0052E-01   2.9736E-05  0.1187
   1.0052E-01   1.0297E-01   2.0852E-05  0.1400
   1.0297E-01   1.0547E-01   3.8319E-05  0.1021
   1.0547E-01   1.0804E-01   2.6108E-05  0.1222
   1.0804E-01   1.1067E-01   2.8531E-05  0.1155
   1.1067E-01   1.1336E-01   2.5625E-05  0.1204
   1.1336E-01   1.1612E-01   3.1905E-05  0.1066
   1.1612E-01   1.1894E-01   2.5838E-05  0.1170
   1.1894E-01   1.2184E-01   2.9025E-05  0.1091
   1.2184E-01   1.2480E-01   2.6312E-05  0.1132
   1.2480E-01   1.2784E-01   3.2932E-05  0.1000
   1.2784E-01   1.3095E-01   2.5077E-05  0.1132
   1.3095E-01   1.3414E-01   2.9189E-05  0.1037
   1.3414E-01   1.3740E-01   3.1254E-05  0.0990
   1.3740E-01   1.4074E-01   2.7221E-05  0.1048
   1.4074E-01   1.4417E-01   2.9494E-05  0.0995
   1.4417E-01   1.4767E-01   2.7939E-05  0.1010
   1.4767E-01   1.5127E-01   2.4770E-05  0.1060
   1.5127E-01   1.5495E-01   3.3691E-05  0.0898
   1.5495E-01   1.5872E-01   2.9178E-05  0.0953
   1.5872E-01   1.6258E-01   2.6154E-05  0.0995
   1.6258E-01   1.6654E-01   3.2611E-05  0.0880
   1.6654E-01   1.7059E-01   3.0109E-05  0.0905
   1.7059E-01   1.7474E-01   2.8430E-05  0.0921
   1.7474E-01   1.7899E-01   2.6344E-05  0.0945
   1.7899E-01   1.8334E-01   2.8473E-05  0.0898
   1.8334E-01   1.8781E-01   2.8470E-05  0.0887
   1.8781E-01   1.9237E-01   2.6261E-05  0.0913
   1.9237E-01   1.9706E-01   3.1192E-05  0.0828
   1.9706E-01   2.0185E-01   2.8783E-05  0.0851
   2.0185E-01   2.0676E-01   2.7488E-05  0.0861
   2.0676E-01   2.1179E-01   3.2998E-05  0.0776
   2.1179E-01   2.1694E-01   2.8333E-05  0.0828
   2.1694E-01   2.2222E-01   3.0312E-05  0.0791
   2.2222E-01   2.2763E-01   2.6818E-05  0.0830
   2.2763E-01   2.3317E-01   2.6542E-05  0.0825
   2.3317E-01   2.3884E-01   2.8379E-05  0.0788
   2.3884E-01   2.4465E-01   2.5468E-05  0.0822
   2.4465E-01   2.5061E-01   2.8559E-05  0.0767
   2.5061E-01   2.5670E-01   3.0341E-05  0.0735
   2.5670E-01   2.6295E-01   2.9300E-05  0.0739
   2.6295E-01   2.6935E-01   2.9385E-05  0.0729
   2.6935E-01   2.7590E-01   2.7924E-05  0.0739
   2.7590E-01   2.8261E-01   2.7708E-05  0.0733
   2.8261E-01   2.8949E-01   2.9958E-05  0.0697
   2.8949E-01   2.9653E-01   3.2228E-05  0.0664
   2.9653E-01   3.0375E-01   3.2849E-05  0.0650
   3.0375E-01   3.1114E-01   2.9227E-05  0.0680
   3.1114E-01   3.1871E-01   2.8797E-05  0.0677
   3.1871E-01   3.2646E-01   3.1337E-05  0.0642
   3.2646E-01   3.3441E-01   3.0215E-05  0.0645
   3.3441E-01   3.4254E-01   2.8760E-05  0.0654
   3.4254E-01   3.5088E-01   3.0836E-05  0.0624
   3.5088E-01   3.5941E-01   2.7058E-05  0.0658
   3.5941E-01   3.6816E-01   2.9846E-05  0.0619
   3.6816E-01   3.7712E-01   2.6905E-05  0.0644
   3.7712E-01   3.8629E-01   3.2805E-05  0.0576
   3.8629E-01   3.9569E-01   2.7131E-05  0.0626
   3.9569E-01   4.0532E-01   2.8253E-05  0.0606
   4.0532E-01   4.1518E-01   2.9305E-05  0.0588
   4.1518E-01   4.2528E-01   2.9401E-05  0.0580
   4.2528E-01   4.3563E-01   2.9476E-05  0.0573
   4.3563E-01   4.4623E-01   2.5851E-05  0.0604
   4.4623E-01   4.5708E-01   2.9658E-05  0.0557
   4.5708E-01   4.6821E-01   2.7695E-05  0.0570
   4.6821E-01   4.7960E-01   2.5808E-05  0.0583
   4.7960E-01   4.9127E-01   3.0165E-05  0.0533
   4.9127E-01   5.0322E-01   2.6353E-05  0.0563
   5.0322E-01   5.1546E-01   2.8749E-05  0.0533
   5.1546E-01   5.2800E-01   2.3920E-05  0.0577
   5.2800E-01   5.4085E-01   2.8412E-05  0.0523
   5.4085E-01   5.5401E-01   3.0777E-05  0.0497
   5.5401E-01   5.6749E-01   2.9155E-05  0.0504
   5.6749E-01   5.8130E-01   2.8825E-05  0.0501
   5.8130E-01   5.9544E-01   2.5736E-05  0.0524
   5.9544E-01   6.0993E-01   2.8507E-05  0.0492
   6.0993E-01   6.2477E-01   2.5337E-05  0.0516
   6.2477E-01   6.3997E-01   2.7761E-05  0.0487
   6.3997E-01   6.5554E-01   2.8450E-05  0.0475
   6.5554E-01   6.7149E-01   2.8088E-05  0.0472
   6.7149E-01   6.8783E-01   2.8461E-05  0.0464
   6.8783E-01   7.0456E-01   2.6770E-05  0.0472
   7.0456E-01   7.2171E-01   2.7359E-05  0.0462
   7.2171E-01   7.3927E-01   2.4773E-05  0.0479
   7.3927E-01   7.5725E-01   2.6464E-05  0.0459
   7.5725E-01   7.7568E-01   2.4098E-05  0.0475
   7.7568E-01   7.9455E-01   2.6493E-05  0.0447
   7.9455E-01   8.1388E-01   2.7571E-05  0.0433
   8.1388E-01   8.3368E-01   2.6512E-05  0.0436
   8.3368E-01   8.5397E-01   2.4305E-05  0.0450
   8.5397E-01   8.7475E-01   2.4016E-05  0.0448
   8.7475E-01   8.9603E-01   2.5513E-05  0.0429
   8.9603E-01   9.1783E-01   2.4035E-05  0.0437
   9.1783E-01   9.4016E-01   2.3733E-05  0.0434
   9.4016E-01   9.6304E-01   2.3082E-05  0.0435
   9.6304E-01   9.8647E-01   2.3046E-05  0.0430
   9.8647E-01   1.0105E+00   2.5582E-05  0.0404
   1.0105E+00   1.0351E+00   2.1720E-05  0.0433
   1.0351E+00   1.0602E+00   2.0609E-05  0.0439
   1.0602E+00   1.0860E+00   2.3026E-05  0.0410
   1.0860E+00   1.1125E+00   2.2290E-05  0.0413
   1.1125E+00   1.1395E+00   2.3386E-05  0.0397
   1.1395E+00   1.1673E+00   2.3913E-05  0.0388
   1.1673E+00   1.1957E+00   2.2465E-05  0.0396
   1.1957E+00   1.2247E+00   2.3822E-05  0.0380
   1.2247E+00   1.2545E+00   2.4363E-05  0.0371
   1.2545E+00   1.2851E+00   2.3621E-05  0.0373
   1.2851E+00   1.3163E+00   2.3475E-05  0.0369
   1.3163E+00   1.3484E+00   2.4354E-05  0.0358
   1.3484E+00   1.3812E+00   2.4782E-05  0.0351
   1.3812E+00   1.4148E+00   2.5978E-05  0.0339
   1.4148E+00   1.4492E+00   2.3066E-05  0.0355
   1.4492E+00   1.4845E+00   2.2547E-05  0.0355
   1.4845E+00   1.5206E+00   2.4725E-05  0.0335
   1.5206E+00   1.5576E+00   2.3272E-05  0.0341
   1.5576E+00   1.5955E+00   2.4540E-05  0.0328
   1.5955E+00   1.6343E+00   2.4447E-05  0.0325
   1.6343E+00   1.6741E+00   2.4319E-05  0.0322
   1.6741E+00   1.7148E+00   2.4650E-05  0.0316
   1.7148E+00   1.7565E+00   2.2195E-05  0.0329
   1.7565E+00   1.7992E+00   2.2603E-05  0.0322
   1.7992E+00   1.8430E+00   2.2523E-05  0.0319
   1.8430E+00   1.8879E+00   2.3126E-05  0.0311
   1.8879E+00   1.9338E+00   2.2380E-05  0.0312
   1.9338E+00   1.9808E+00   2.1828E-05  0.0312
   1.9808E+00   2.0290E+00   2.3384E-05  0.0298
   2.0290E+00   2.0784E+00   2.1552E-05  0.0307
   2.0784E+00   2.1290E+00   2.1950E-05  0.0300
   2.1290E+00   2.1808E+00   2.2375E-05  0.0294
   2.1808E+00   2.2338E+00   2.0863E-05  0.0301
   2.2338E+00   2.2882E+00   1.9871E-05  0.0304
   2.2882E+00   2.3439E+00   1.9543E-05  0.0303
   2.3439E+00   2.4009E+00   2.0569E-05  0.0292
   2.4009E+00   2.4593E+00   1.9978E-05  0.0293
   2.4593E+00   2.5191E+00   1.9720E-05  0.0291
   2.5191E+00   2.5804E+00   1.9464E-05  0.0290
   2.5804E+00   2.6432E+00   1.7568E-05  0.0301
   2.6432E+00   2.7075E+00   1.8317E-05  0.0291
   2.7075E+00   2.7734E+00   1.7563E-05  0.0294
   2.7734E+00   2.8409E+00   1.7487E-05  0.0291
   2.8409E+00   2.9100E+00   1.5914E-05  0.0302
   2.9100E+00   2.9808E+00   1.5776E-05  0.0299
   2.9808E+00   3.0533E+00   1.6629E-05  0.0288
   3.0533E+00   3.1276E+00   1.6234E-05  0.0288
   3.1276E+00   3.2037E+00   1.3693E-05  0.0310
   3.2037E+00   3.2817E+00   1.4715E-05  0.0295
   3.2817E+00   3.3615E+00   1.3814E-05  0.0301
   3.3615E+00   3.4433E+00   1.3376E-05  0.0302
   3.4433E+00   3.5271E+00   1.3536E-05  0.0297
   3.5271E+00   3.6129E+00   1.2177E-05  0.0309
   3.6129E+00   3.7008E+00   1.1694E-05  0.0312
   3.7008E+00   3.7908E+00   1.1861E-05  0.0306
   3.7908E+00   3.8831E+00   1.1135E-05  0.0312
   3.8831E+00   3.9776E+00   1.0632E-05  0.0315
   3.9776E+00   4.0743E+00   1.0271E-05  0.0317
   4.0743E+00   4.1735E+00   9.3007E-06  0.0329
   4.1735E+00   4.2750E+00   9.4442E-06  0.0323
   4.2750E+00   4.3790E+00   1.0047E-05  0.0309
   4.3790E+00   4.4856E+00   8.6301E-06  0.0330
   4.4856E+00   4.5947E+00   8.1274E-06  0.0336
   4.5947E+00   4.7065E+00   7.6749E-06  0.0341
   4.7065E+00   4.8210E+00   7.3441E-06  0.0345
   4.8210E+00   4.9383E+00   6.9480E-06  0.0350
   4.9383E+00   5.0585E+00   6.4584E-06  0.0359
   5.0585E+00   5.1815E+00   7.0119E-06  0.0340
   5.1815E+00   5.3076E+00   6.2742E-06  0.0356
   5.3076E+00   5.4368E+00   6.2723E-06  0.0351
   5.4368E+00   5.5690E+00   5.7756E-06  0.0362
   5.5690E+00   5.7045E+00   5.1218E-06  0.0380
   5.7045E+00   5.8433E+00   5.0362E-06  0.0378
   5.8433E+00   5.9855E+00   4.5860E-06  0.0392
   5.9855E+00   6.1311E+00   4.2779E-06  0.0401
   6.1311E+00   6.2803E+00   4.3439E-06  0.0393
   6.2803E+00   6.4331E+00   3.9593E-06  0.0407
   6.4331E+00   6.5896E+00   3.9803E-06  0.0401
   6.5896E+00   6.7500E+00   3.5427E-06  0.0420
   6.7500E+00   6.9142E+00   3.3672E-06  0.0425
   6.9142E+00   7.0824E+00   3.0316E-06  0.0443
   7.0824E+00   7.2548E+00   3.0002E-06  0.0440
   7.2548E+00   7.4313E+00   2.8893E-06  0.0443
   7.4313E+00   7.6121E+00   2.8870E-06  0.0438
   7.6121E+00   7.7973E+00   2.4783E-06  0.0467
   7.7973E+00   7.9870E+00   2.1928E-06  0.0490
   7.9870E+00   8.1813E+00   2.1510E-06  0.0489
   8.1813E+00   8.3804E+00   2.0547E-06  0.0494
   8.3804E+00   8.5843E+00   1.8784E-06  0.0511
   8.5843E+00   8.7931E+00   1.7667E-06  0.0521
   8.7931E+00   9.0071E+00   1.6967E-06  0.0525
   9.0071E+00   9.2262E+00   1.5560E-06  0.0542
   9.2262E+00   9.4507E+00   1.4300E-06  0.0558
   9.4507E+00   9.6807E+00   1.5091E-06  0.0537
   9.6807E+00   9.9162E+00   1.3161E-06  0.0568
   9.9162E+00   1.0157E+01   1.2393E-06  0.0578
   1.0157E+01   1.0405E+01   1.0278E-06  0.0627
   1.0405E+01   1.0658E+01   1.1041E-06  0.0598
   1.0658E+01   1.0917E+01   1.0489E-06  0.0606
   1.0917E+01   1.1183E+01   8.8848E-07  0.0651
   1.1183E+01   1.1455E+01   8.0490E-07  0.0676
   1.1455E+01   1.1733E+01   7.5349E-07  0.0690
   1.1733E+01   1.2019E+01   7.1457E-07  0.0700
   1.2019E+01   1.2311E+01   6.8392E-07  0.0707
   1.2311E+01   1.2611E+01   6.4431E-07  0.0720
   1.2611E+01   1.2918E+01   5.8012E-07  0.0750
   1.2918E+01   1.3232E+01   4.6771E-07  0.0825
   1.3232E+01   1.3554E+01   4.7213E-07  0.0811
   1.3554E+01   1.3884E+01   3.5478E-07  0.0925
   1.3884E+01   1.4222E+01   3.4635E-07  0.0925
   1.4222E+01   1.4568E+01   3.1212E-07  0.0962
   1.4568E+01   1.4922E+01   2.7931E-07  0.1005
   1.4922E+01   1.5285E+01   2.3412E-07  0.1085
   1.5285E+01   1.5657E+01   2.1242E-07  0.1125
   1.5657E+01   1.6038E+01   1.4963E-07  0.1325
   1.6038E+01   1.6428E+01   1.0251E-07  0.1581
   1.6428E+01   1.6828E+01   6.5047E-08  0.1961
   1.6828E+01   1.7237E+01   6.3502E-08  0.1961
   1.7237E+01   1.7657E+01   7.1531E-09  0.5774
   1.7657E+01   1.8086E+01   0.0000E+00  0.0000
   1.8086E+01   1.8526E+01   0.0000E+00  0.0000
   1.8526E+01   1.8977E+01   0.0000E+00  0.0000
   1.8977E+01   1.9439E+01   0.0000E+00  0.0000
   1.9439E+01   1.9912E+01   0.0000E+00  0.0000
   1.9912E+01   2.0396E+01   0.0000E+00  0.0000
   2.0396E+01   2.0893E+01   0.0000E+00  0.0000
   2.0893E+01   2.1401E+01   0.0000E+00  0.0000
   2.1401E+01   2.1922E+01   0.0000E+00  0.0000
   2.1922E+01   2.2455E+01   0.0000E+00  0.0000
   2.2455E+01   2.3001E+01   0.0000E+00  0.0000
   2.3001E+01   2.3561E+01   0.0000E+00  0.0000
   2.3561E+01   2.4134E+01   0.0000E+00  0.0000
   2.4134E+01   2.4721E+01   0.0000E+00  0.0000
   2.4721E+01   2.5323E+01   0.0000E+00  0.0000
   2.5323E+01   2.5939E+01   0.0000E+00  0.0000
   2.5939E+01   2.6570E+01   0.0000E+00  0.0000
   2.6570E+01   2.7217E+01   0.0000E+00  0.0000
   2.7217E+01   2.7879E+01   0.0000E+00  0.0000
   2.7879E+01   2.8557E+01   0.0000E+00  0.0000
   2.8557E+01   2.9252E+01   0.0000E+00  0.0000
   2.9252E+01   2.9964E+01   0.0000E+00  0.0000
   2.9964E+01   3.0693E+01   0.0000E+00  0.0000
   3.0693E+01   3.1440E+01   0.0000E+00  0.0000
   3.1440E+01   3.2205E+01   0.0000E+00  0.0000
   3.2205E+01   3.2988E+01   0.0000E+00  0.0000
   3.2988E+01   3.3791E+01   0.0000E+00  0.0000
   3.3791E+01   3.4613E+01   0.0000E+00  0.0000
   3.4613E+01   3.5455E+01   0.0000E+00  0.0000
   3.5455E+01   3.6318E+01   0.0000E+00  0.0000
   3.6318E+01   3.7201E+01   0.0000E+00  0.0000
   3.7201E+01   3.8106E+01   0.0000E+00  0.0000
   3.8106E+01   3.9034E+01   0.0000E+00  0.0000
   3.9034E+01   3.9983E+01   0.0000E+00  0.0000
   3.9983E+01   4.0956E+01   0.0000E+00  0.0000
   4.0956E+01   4.1953E+01   0.0000E+00  0.0000
   4.1953E+01   4.2973E+01   0.0000E+00  0.0000
   4.2973E+01   4.4019E+01   0.0000E+00  0.0000
   4.4019E+01   4.5090E+01   0.0000E+00  0.0000
   4.5090E+01   4.6187E+01   0.0000E+00  0.0000
   4.6187E+01   4.7311E+01   0.0000E+00  0.0000
   4.7311E+01   4.8462E+01   0.0000E+00  0.0000
   4.8462E+01   4.9641E+01   0.0000E+00  0.0000
   4.9641E+01   5.0849E+01   0.0000E+00  0.0000
   5.0849E+01   5.2086E+01   0.0000E+00  0.0000
   5.2086E+01   5.3353E+01   0.0000E+00  0.0000
   5.3353E+01   5.4651E+01   0.0000E+00  0.0000
   5.4651E+01   5.5981E+01   0.0000E+00  0.0000
   5.5981E+01   5.7343E+01   0.0000E+00  0.0000
   5.7343E+01   5.8738E+01   0.0000E+00  0.0000
   5.8738E+01   6.0168E+01   0.0000E+00  0.0000
   6.0168E+01   6.1632E+01   0.0000E+00  0.0000
   6.1632E+01   6.3131E+01   0.0000E+00  0.0000
   6.3131E+01   6.4667E+01   0.0000E+00  0.0000
   6.4667E+01   6.6240E+01   0.0000E+00  0.0000
   6.6240E+01   6.7852E+01   0.0000E+00  0.0000
   6.7852E+01   6.9503E+01   0.0000E+00  0.0000
   6.9503E+01   7.1194E+01   0.0000E+00  0.0000
   7.1194E+01   7.2926E+01   0.0000E+00  0.0000
   7.2926E+01   7.4701E+01   0.0000E+00  0.0000
   7.4701E+01   7.6518E+01   0.0000E+00  0.0000
   7.6518E+01   7.8380E+01   0.0000E+00  0.0000
   7.8380E+01   8.0287E+01   0.0000E+00  0.0000
   8.0287E+01   8.2240E+01   0.0000E+00  0.0000
   8.2240E+01   8.4241E+01   0.0000E+00  0.0000
   8.4241E+01   8.6291E+01   0.0000E+00  0.0000
   8.6291E+01   8.8391E+01   0.0000E+00  0.0000
   8.8391E+01   9.0541E+01   0.0000E+00  0.0000
   9.0541E+01   9.2744E+01   0.0000E+00  0.0000
   9.2744E+01   9.5001E+01   0.0000E+00  0.0000
   9.5001E+01   9.7312E+01   0.0000E+00  0.0000
   9.7312E+01   9.9680E+01   0.0000E+00  0.0000
   9.9680E+01   1.0211E+02   0.0000E+00  0.0000
   1.0211E+02   1.0459E+02   0.0000E+00  0.0000
   1.0459E+02   1.0713E+02   0.0000E+00  0.0000
   1.0713E+02   1.0974E+02   0.0000E+00  0.0000
   1.0974E+02   1.1241E+02   0.0000E+00  0.0000
   1.1241E+02   1.1515E+02   0.0000E+00  0.0000
   1.1515E+02   1.1795E+02   0.0000E+00  0.0000
   1.1795E+02   1.2082E+02   0.0000E+00  0.0000
   1.2082E+02   1.2376E+02   0.0000E+00  0.0000
   1.2376E+02   1.2677E+02   0.0000E+00  0.0000
   1.2677E+02   1.2985E+02   0.0000E+00  0.0000
   1.2985E+02   1.3301E+02   0.0000E+00  0.0000
   1.3301E+02   1.3625E+02   0.0000E+00  0.0000
   1.3625E+02   1.3956E+02   0.0000E+00  0.0000
   1.3956E+02   1.4296E+02   0.0000E+00  0.0000
   1.4296E+02   1.4644E+02   0.0000E+00  0.0000
   1.4644E+02   1.5000E+02   0.0000E+00  0.0000

#   sum over                 7.3679E-07
'no. =    1   reg = 110 - 210'
msuc: {\huge [t-cross] in region mesh}
msdr: {\it plotted by \ANGEL \version}
msdl: {\it calculated by \PHITS  3.26}
wt: s(0.7)
\vspace{-3}
  region surface crossing
  area  &=&   1.0000E+00 [cm^2]
e:
 
# Information for Restart Calculation
# This calculation was newly started
# istdev =  2 # 1:Batch variance, 2:History variance
# resc2  = 1.00000000000000000E+09 # Total source weight or Total source weight / maxcas
# resc3  = 1.00000000000000000E+09 # Total history number or Total batch number
# maxcas =   500000000 # History / Batch, only used for istdev=1
# bitrseed = 0001001110011001001001110000100100110111001111011100001000101100 # bit data of rseed
