[ T-Cross ]
    title = [t-cross] in region mesh
     mesh =  reg            # mesh type is region-wise
      reg =    1            # number of crossing regions
      non     r-from    r-to       area
      1       110       210        1.000000    
   e-type =    3            # e-mesh is log given by emin, emax and ne
     emin =  1.0000000E-02  # minimum value of e-mesh points
     emax =   150.0000      # maximum value of e-mesh points
#    edel =  2.4039514E-02  # mesh width of e-mesh points
       ne =    400          # number of e-mesh points
#    data = ( e(i), i = 1, ne + 1 )
#           1.00000E-02  1.02433E-02  1.04925E-02  1.07478E-02  1.10093E-02
#           1.12772E-02  1.15516E-02  1.18326E-02  1.21205E-02  1.24154E-02
#           1.27175E-02  1.30269E-02  1.33439E-02  1.36686E-02  1.40011E-02
#           1.43418E-02  1.46907E-02  1.50482E-02  1.54143E-02  1.57894E-02
#           1.61735E-02  1.65670E-02  1.69701E-02  1.73830E-02  1.78060E-02
#           1.82392E-02  1.86830E-02  1.91375E-02  1.96032E-02  2.00801E-02
#           2.05687E-02  2.10692E-02  2.15818E-02  2.21069E-02  2.26448E-02
#           2.31957E-02  2.37601E-02  2.43382E-02  2.49304E-02  2.55369E-02
#           2.61583E-02  2.67947E-02  2.74467E-02  2.81145E-02  2.87985E-02
#           2.94992E-02  3.02169E-02  3.09521E-02  3.17052E-02  3.24766E-02
#           3.32668E-02  3.40762E-02  3.49053E-02  3.57546E-02  3.66246E-02
#           3.75157E-02  3.84284E-02  3.93634E-02  4.03212E-02  4.13022E-02
#           4.23071E-02  4.33365E-02  4.43909E-02  4.54710E-02  4.65773E-02
#           4.77106E-02  4.88714E-02  5.00605E-02  5.12785E-02  5.25262E-02
#           5.38042E-02  5.51133E-02  5.64542E-02  5.78278E-02  5.92348E-02
#           6.06760E-02  6.21523E-02  6.36645E-02  6.52135E-02  6.68002E-02
#           6.84255E-02  7.00904E-02  7.17957E-02  7.35426E-02  7.53319E-02
#           7.71648E-02  7.90423E-02  8.09655E-02  8.29354E-02  8.49533E-02
#           8.70203E-02  8.91376E-02  9.13064E-02  9.35279E-02  9.58035E-02
#           9.81345E-02  1.00522E-01  1.02968E-01  1.05473E-01  1.08040E-01
#           1.10668E-01  1.13361E-01  1.16119E-01  1.18944E-01  1.21838E-01
#           1.24803E-01  1.27839E-01  1.30950E-01  1.34136E-01  1.37399E-01
#           1.40742E-01  1.44167E-01  1.47675E-01  1.51268E-01  1.54948E-01
#           1.58718E-01  1.62580E-01  1.66535E-01  1.70587E-01  1.74738E-01
#           1.78989E-01  1.83344E-01  1.87805E-01  1.92375E-01  1.97055E-01
#           2.01850E-01  2.06761E-01  2.11792E-01  2.16945E-01  2.22223E-01
#           2.27630E-01  2.33169E-01  2.38842E-01  2.44653E-01  2.50605E-01
#           2.56703E-01  2.62949E-01  2.69346E-01  2.75900E-01  2.82613E-01
#           2.89489E-01  2.96532E-01  3.03747E-01  3.11138E-01  3.18708E-01
#           3.26462E-01  3.34405E-01  3.42542E-01  3.50876E-01  3.59413E-01
#           3.68158E-01  3.77116E-01  3.86291E-01  3.95690E-01  4.05317E-01
#           4.15179E-01  4.25281E-01  4.35628E-01  4.46227E-01  4.57084E-01
#           4.68205E-01  4.79597E-01  4.91266E-01  5.03219E-01  5.15463E-01
#           5.28005E-01  5.40851E-01  5.54011E-01  5.67490E-01  5.81298E-01
#           5.95441E-01  6.09929E-01  6.24769E-01  6.39970E-01  6.55541E-01
#           6.71491E-01  6.87828E-01  7.04564E-01  7.21706E-01  7.39266E-01
#           7.57253E-01  7.75678E-01  7.94551E-01  8.13883E-01  8.33685E-01
#           8.53969E-01  8.74747E-01  8.96030E-01  9.17831E-01  9.40163E-01
#           9.63038E-01  9.86469E-01  1.01047E+00  1.03506E+00  1.06024E+00
#           1.08604E+00  1.11246E+00  1.13953E+00  1.16725E+00  1.19565E+00
#           1.22474E+00  1.25454E+00  1.28507E+00  1.31633E+00  1.34836E+00
#           1.38117E+00  1.41477E+00  1.44920E+00  1.48446E+00  1.52057E+00
#           1.55757E+00  1.59547E+00  1.63429E+00  1.67405E+00  1.71478E+00
#           1.75650E+00  1.79924E+00  1.84302E+00  1.88786E+00  1.93379E+00
#           1.98084E+00  2.02904E+00  2.07841E+00  2.12898E+00  2.18078E+00
#           2.23384E+00  2.28819E+00  2.34386E+00  2.40089E+00  2.45930E+00
#           2.51914E+00  2.58043E+00  2.64322E+00  2.70753E+00  2.77341E+00
#           2.84088E+00  2.91001E+00  2.98081E+00  3.05333E+00  3.12762E+00
#           3.20372E+00  3.28167E+00  3.36152E+00  3.44330E+00  3.52708E+00
#           3.61290E+00  3.70080E+00  3.79085E+00  3.88308E+00  3.97756E+00
#           4.07434E+00  4.17347E+00  4.27501E+00  4.37903E+00  4.48557E+00
#           4.59471E+00  4.70650E+00  4.82102E+00  4.93832E+00  5.05847E+00
#           5.18155E+00  5.30762E+00  5.43676E+00  5.56904E+00  5.70453E+00
#           5.84333E+00  5.98550E+00  6.13114E+00  6.28031E+00  6.43312E+00
#           6.58964E+00  6.74997E+00  6.91420E+00  7.08243E+00  7.25475E+00
#           7.43126E+00  7.61207E+00  7.79728E+00  7.98700E+00  8.18133E+00
#           8.38038E+00  8.58428E+00  8.79315E+00  9.00709E+00  9.22624E+00
#           9.45072E+00  9.68067E+00  9.91620E+00  1.01575E+01  1.04046E+01
#           1.06578E+01  1.09171E+01  1.11827E+01  1.14548E+01  1.17335E+01
#           1.20190E+01  1.23114E+01  1.26109E+01  1.29178E+01  1.32321E+01
#           1.35540E+01  1.38838E+01  1.42216E+01  1.45676E+01  1.49221E+01
#           1.52851E+01  1.56570E+01  1.60380E+01  1.64282E+01  1.68279E+01
#           1.72374E+01  1.76568E+01  1.80864E+01  1.85264E+01  1.89772E+01
#           1.94389E+01  1.99119E+01  2.03963E+01  2.08926E+01  2.14009E+01
#           2.19216E+01  2.24550E+01  2.30014E+01  2.35610E+01  2.41343E+01
#           2.47215E+01  2.53230E+01  2.59391E+01  2.65702E+01  2.72167E+01
#           2.78789E+01  2.85572E+01  2.92520E+01  2.99637E+01  3.06928E+01
#           3.14396E+01  3.22045E+01  3.29881E+01  3.37907E+01  3.46128E+01
#           3.54550E+01  3.63177E+01  3.72013E+01  3.81064E+01  3.90336E+01
#           3.99833E+01  4.09561E+01  4.19526E+01  4.29734E+01  4.40189E+01
#           4.50900E+01  4.61870E+01  4.73108E+01  4.84619E+01  4.96410E+01
#           5.08488E+01  5.20860E+01  5.33533E+01  5.46514E+01  5.59812E+01
#           5.73432E+01  5.87384E+01  6.01676E+01  6.16315E+01  6.31311E+01
#           6.46671E+01  6.62405E+01  6.78522E+01  6.95031E+01  7.11941E+01
#           7.29263E+01  7.47007E+01  7.65182E+01  7.83800E+01  8.02870E+01
#           8.22405E+01  8.42414E+01  8.62911E+01  8.83906E+01  9.05412E+01
#           9.27442E+01  9.50007E+01  9.73122E+01  9.96799E+01  1.02105E+02
#           1.04589E+02  1.07134E+02  1.09741E+02  1.12411E+02  1.15146E+02
#           1.17948E+02  1.20817E+02  1.23757E+02  1.26768E+02  1.29852E+02
#           1.33012E+02  1.36248E+02  1.39563E+02  1.42959E+02  1.46437E+02
#           1.50000E+02
     unit =    2            # unit is [1/cm^2/(MeV/n)/source]
     axis =  eng            # axis of output
     file = detector-11.out  # file name of output for the above axis
   output = f-curr          # surface crossing forward current spectrum
     part =  neutron  
# kf/name :  2112     
#    used :        main (  %)        temp (  %)       total (  %)
#  memory :         414 (  0)           0 (  0)         414 (  0)

#------------------------------------------------------------------------------
#newpage:
#   no. =    1   reg = 110 - 210

x: Energy [MeV/n]
y:  F-Curr [1/cm^2/(MeV/n)/source]         
p: xlog ylog afac(0.8) form(0.9)
h: n            x            y(neutron ),hh0l   n 
#  e-lower      e-upper      neutron     r.err 
   1.0000E-02   1.0243E-02   4.6457E-04  0.0437
   1.0243E-02   1.0493E-02   4.6649E-04  0.0431
   1.0493E-02   1.0748E-02   4.8264E-04  0.0418
   1.0748E-02   1.1009E-02   4.3393E-04  0.0435
   1.1009E-02   1.1277E-02   4.3102E-04  0.0433
   1.1277E-02   1.1552E-02   4.3155E-04  0.0427
   1.1552E-02   1.1833E-02   4.4604E-04  0.0414
   1.1833E-02   1.2121E-02   4.1110E-04  0.0426
   1.2121E-02   1.2415E-02   4.1903E-04  0.0418
   1.2415E-02   1.2718E-02   3.9408E-04  0.0426
   1.2718E-02   1.3027E-02   4.0984E-04  0.0412
   1.3027E-02   1.3344E-02   3.7148E-04  0.0428
   1.3344E-02   1.3669E-02   4.0227E-04  0.0407
   1.3669E-02   1.4001E-02   3.5611E-04  0.0427
   1.4001E-02   1.4342E-02   3.4766E-04  0.0427
   1.4342E-02   1.4691E-02   3.4662E-04  0.0422
   1.4691E-02   1.5048E-02   3.3838E-04  0.0422
   1.5048E-02   1.5414E-02   3.0877E-04  0.0436
   1.5414E-02   1.5789E-02   3.1350E-04  0.0428
   1.5789E-02   1.6174E-02   3.1870E-04  0.0419
   1.6174E-02   1.6567E-02   2.9744E-04  0.0429
   1.6567E-02   1.6970E-02   2.9013E-04  0.0430
   1.6970E-02   1.7383E-02   2.7315E-04  0.0437
   1.7383E-02   1.7806E-02   2.6813E-04  0.0436
   1.7806E-02   1.8239E-02   2.9962E-04  0.0408
   1.8239E-02   1.8683E-02   2.8282E-04  0.0414
   1.8683E-02   1.9138E-02   2.6558E-04  0.0422
   1.9138E-02   1.9603E-02   2.7343E-04  0.0411
   1.9603E-02   2.0080E-02   2.6276E-04  0.0415
   2.0080E-02   2.0569E-02   2.6028E-04  0.0411
   2.0569E-02   2.1069E-02   2.4544E-04  0.0419
   2.1069E-02   2.1582E-02   2.4173E-04  0.0417
   2.1582E-02   2.2107E-02   2.3163E-04  0.0421
   2.2107E-02   2.2645E-02   2.2279E-04  0.0424
   2.2645E-02   2.3196E-02   2.1086E-04  0.0430
   2.3196E-02   2.3760E-02   2.2138E-04  0.0415
   2.3760E-02   2.4338E-02   2.0108E-04  0.0430
   2.4338E-02   2.4930E-02   2.0777E-04  0.0418
   2.4930E-02   2.5537E-02   2.0459E-04  0.0416
   2.5537E-02   2.6158E-02   2.0486E-04  0.0412
   2.6158E-02   2.6795E-02   2.0998E-04  0.0402
   2.6795E-02   2.7447E-02   1.9010E-04  0.0417
   2.7447E-02   2.8114E-02   1.9085E-04  0.0411
   2.8114E-02   2.8799E-02   1.8233E-04  0.0415
   2.8799E-02   2.9499E-02   1.7181E-04  0.0422
   2.9499E-02   3.0217E-02   1.8356E-04  0.0404
   3.0217E-02   3.0952E-02   1.6902E-04  0.0416
   3.0952E-02   3.1705E-02   1.7387E-04  0.0406
   3.1705E-02   3.2477E-02   1.7707E-04  0.0397
   3.2477E-02   3.3267E-02   1.6747E-04  0.0404
   3.3267E-02   3.4076E-02   1.6144E-04  0.0406
   3.4076E-02   3.4905E-02   1.5864E-04  0.0405
   3.4905E-02   3.5755E-02   1.4073E-04  0.0424
   3.5755E-02   3.6625E-02   1.5641E-04  0.0398
   3.6625E-02   3.7516E-02   1.4141E-04  0.0414
   3.7516E-02   3.8428E-02   1.4506E-04  0.0404
   3.8428E-02   3.9363E-02   1.2224E-04  0.0434
   3.9363E-02   4.0321E-02   1.3574E-04  0.0407
   4.0321E-02   4.1302E-02   1.3254E-04  0.0407
   4.1302E-02   4.2307E-02   1.3231E-04  0.0403
   4.2307E-02   4.3337E-02   1.3113E-04  0.0399
   4.3337E-02   4.4391E-02   1.2400E-04  0.0406
   4.4391E-02   4.5471E-02   1.2363E-04  0.0401
   4.5471E-02   4.6577E-02   1.2337E-04  0.0397
   4.6577E-02   4.7711E-02   1.1935E-04  0.0399
   4.7711E-02   4.8871E-02   1.2178E-04  0.0390
   4.8871E-02   5.0061E-02   1.1147E-04  0.0403
   5.0061E-02   5.1279E-02   1.1388E-04  0.0394
   5.1279E-02   5.2526E-02   1.0547E-04  0.0405
   5.2526E-02   5.3804E-02   9.4461E-05  0.0422
   5.3804E-02   5.5113E-02   1.0230E-04  0.0401
   5.5113E-02   5.6454E-02   1.1177E-04  0.0379
   5.6454E-02   5.7828E-02   9.9517E-05  0.0397
   5.7828E-02   5.9235E-02   1.0225E-04  0.0387
   5.9235E-02   6.0676E-02   1.0319E-04  0.0380
   6.0676E-02   6.2152E-02   9.3197E-05  0.0396
   6.2152E-02   6.3665E-02   9.9222E-05  0.0379
   6.3665E-02   6.5214E-02   9.3942E-05  0.0385
   6.5214E-02   6.6800E-02   8.4992E-05  0.0400
   6.6800E-02   6.8426E-02   9.1947E-05  0.0380
   6.8426E-02   7.0090E-02   8.8273E-05  0.0383
   7.0090E-02   7.1796E-02   8.6188E-05  0.0383
   7.1796E-02   7.3543E-02   8.2004E-05  0.0388
   7.3543E-02   7.5332E-02   8.1559E-05  0.0384
   7.5332E-02   7.7165E-02   8.3664E-05  0.0375
   7.7165E-02   7.9042E-02   7.6609E-05  0.0387
   7.9042E-02   8.0965E-02   8.1701E-05  0.0370
   8.0965E-02   8.2935E-02   7.7415E-05  0.0376
   8.2935E-02   8.4953E-02   7.4893E-05  0.0377
   8.4953E-02   8.7020E-02   7.5461E-05  0.0372
   8.7020E-02   8.9138E-02   7.6931E-05  0.0364
   8.9138E-02   9.1306E-02   7.2534E-05  0.0370
   9.1306E-02   9.3528E-02   7.3913E-05  0.0362
   9.3528E-02   9.5804E-02   7.6029E-05  0.0353
   9.5804E-02   9.8134E-02   7.1277E-05  0.0360
   9.8134E-02   1.0052E-01   6.9379E-05  0.0361
   1.0052E-01   1.0297E-01   7.5042E-05  0.0343
   1.0297E-01   1.0547E-01   7.3182E-05  0.0343
   1.0547E-01   1.0804E-01   8.2068E-05  0.0320
   1.0804E-01   1.1067E-01   7.9004E-05  0.0322
   1.1067E-01   1.1336E-01   8.7202E-05  0.0303
   1.1336E-01   1.1612E-01   9.1486E-05  0.0292
   1.1612E-01   1.1894E-01   9.1586E-05  0.0289
   1.1894E-01   1.2184E-01   8.9941E-05  0.0287
   1.2184E-01   1.2480E-01   9.8314E-05  0.0272
   1.2480E-01   1.2784E-01   1.0818E-04  0.0256
   1.2784E-01   1.3095E-01   1.0820E-04  0.0253
   1.3095E-01   1.3414E-01   1.1587E-04  0.0241
   1.3414E-01   1.3740E-01   1.1889E-04  0.0236
   1.3740E-01   1.4074E-01   1.2664E-04  0.0226
   1.4074E-01   1.4417E-01   1.2872E-04  0.0221
   1.4417E-01   1.4767E-01   1.3027E-04  0.0217
   1.4767E-01   1.5127E-01   1.3790E-04  0.0209
   1.5127E-01   1.5495E-01   1.4268E-04  0.0203
   1.5495E-01   1.5872E-01   1.4807E-04  0.0196
   1.5872E-01   1.6258E-01   1.5171E-04  0.0192
   1.6258E-01   1.6654E-01   1.5910E-04  0.0185
   1.6654E-01   1.7059E-01   1.6829E-04  0.0178
   1.7059E-01   1.7474E-01   1.6713E-04  0.0176
   1.7474E-01   1.7899E-01   1.7829E-04  0.0169
   1.7899E-01   1.8334E-01   1.8004E-04  0.0166
   1.8334E-01   1.8781E-01   1.8866E-04  0.0160
   1.8781E-01   1.9237E-01   1.9477E-04  0.0156
   1.9237E-01   1.9706E-01   1.9526E-04  0.0154
   1.9706E-01   2.0185E-01   2.0886E-04  0.0147
   2.0185E-01   2.0676E-01   2.1677E-04  0.0142
   2.0676E-01   2.1179E-01   2.2580E-04  0.0138
   2.1179E-01   2.1694E-01   2.3141E-04  0.0134
   2.1694E-01   2.2222E-01   2.3646E-04  0.0131
   2.2222E-01   2.2763E-01   2.4175E-04  0.0128
   2.2763E-01   2.3317E-01   2.4872E-04  0.0125
   2.3317E-01   2.3884E-01   2.5470E-04  0.0122
   2.3884E-01   2.4465E-01   2.6631E-04  0.0118
   2.4465E-01   2.5061E-01   2.6814E-04  0.0116
   2.5061E-01   2.5670E-01   2.8246E-04  0.0112
   2.5670E-01   2.6295E-01   2.9450E-04  0.0108
   2.6295E-01   2.6935E-01   2.9436E-04  0.0107
   2.6935E-01   2.7590E-01   3.0118E-04  0.0104
   2.7590E-01   2.8261E-01   3.0494E-04  0.0103
   2.8261E-01   2.8949E-01   3.2039E-04  0.0099
   2.8949E-01   2.9653E-01   3.2741E-04  0.0097
   2.9653E-01   3.0375E-01   3.3795E-04  0.0094
   3.0375E-01   3.1114E-01   3.4319E-04  0.0092
   3.1114E-01   3.1871E-01   3.4912E-04  0.0090
   3.1871E-01   3.2646E-01   3.5925E-04  0.0088
   3.2646E-01   3.3441E-01   3.6498E-04  0.0086
   3.3441E-01   3.4254E-01   3.7603E-04  0.0084
   3.4254E-01   3.5088E-01   3.8627E-04  0.0082
   3.5088E-01   3.5941E-01   3.9549E-04  0.0080
   3.5941E-01   3.6816E-01   4.0579E-04  0.0078
   3.6816E-01   3.7712E-01   4.1402E-04  0.0076
   3.7712E-01   3.8629E-01   4.1741E-04  0.0075
   3.8629E-01   3.9569E-01   4.2653E-04  0.0073
   3.9569E-01   4.0532E-01   4.3784E-04  0.0071
   4.0532E-01   4.1518E-01   4.3968E-04  0.0070
   4.1518E-01   4.2528E-01   4.4292E-04  0.0069
   4.2528E-01   4.3563E-01   4.4973E-04  0.0068
   4.3563E-01   4.4623E-01   4.5900E-04  0.0066
   4.4623E-01   4.5708E-01   4.6338E-04  0.0065
   4.5708E-01   4.6821E-01   4.6587E-04  0.0064
   4.6821E-01   4.7960E-01   4.7342E-04  0.0063
   4.7960E-01   4.9127E-01   4.8058E-04  0.0062
   4.9127E-01   5.0322E-01   4.7808E-04  0.0061
   5.0322E-01   5.1546E-01   4.8951E-04  0.0060
   5.1546E-01   5.2800E-01   4.9318E-04  0.0059
   5.2800E-01   5.4085E-01   4.9709E-04  0.0058
   5.4085E-01   5.5401E-01   4.9930E-04  0.0057
   5.5401E-01   5.6749E-01   4.9463E-04  0.0057
   5.6749E-01   5.8130E-01   5.0204E-04  0.0056
   5.8130E-01   5.9544E-01   5.0586E-04  0.0055
   5.9544E-01   6.0993E-01   5.0804E-04  0.0054
   6.0993E-01   6.2477E-01   5.0892E-04  0.0053
   6.2477E-01   6.3997E-01   5.0927E-04  0.0053
   6.3997E-01   6.5554E-01   5.0119E-04  0.0052
   6.5554E-01   6.7149E-01   5.0072E-04  0.0052
   6.7149E-01   6.8783E-01   4.9552E-04  0.0051
   6.8783E-01   7.0456E-01   4.9343E-04  0.0051
   7.0456E-01   7.2171E-01   4.8819E-04  0.0051
   7.2171E-01   7.3927E-01   4.8288E-04  0.0050
   7.3927E-01   7.5725E-01   4.7613E-04  0.0050
   7.5725E-01   7.7568E-01   4.7409E-04  0.0050
   7.7568E-01   7.9455E-01   4.6450E-04  0.0049
   7.9455E-01   8.1388E-01   4.5819E-04  0.0049
   8.1388E-01   8.3368E-01   4.4178E-04  0.0049
   8.3368E-01   8.5397E-01   4.3145E-04  0.0049
   8.5397E-01   8.7475E-01   4.2332E-04  0.0049
   8.7475E-01   8.9603E-01   4.1093E-04  0.0049
   8.9603E-01   9.1783E-01   3.9553E-04  0.0050
   9.1783E-01   9.4016E-01   3.8324E-04  0.0050
   9.4016E-01   9.6304E-01   3.7020E-04  0.0050
   9.6304E-01   9.8647E-01   3.5719E-04  0.0050
   9.8647E-01   1.0105E+00   3.4686E-04  0.0051
   1.0105E+00   1.0351E+00   3.4742E-04  0.0050
   1.0351E+00   1.0602E+00   3.4811E-04  0.0049
   1.0602E+00   1.0860E+00   3.5853E-04  0.0048
   1.0860E+00   1.1125E+00   3.6602E-04  0.0047
   1.1125E+00   1.1395E+00   3.7566E-04  0.0046
   1.1395E+00   1.1673E+00   3.8819E-04  0.0044
   1.1673E+00   1.1957E+00   3.9724E-04  0.0043
   1.1957E+00   1.2247E+00   4.0664E-04  0.0042
   1.2247E+00   1.2545E+00   4.0814E-04  0.0042
   1.2545E+00   1.2851E+00   4.1320E-04  0.0041
   1.2851E+00   1.3163E+00   4.2048E-04  0.0040
   1.3163E+00   1.3484E+00   4.2533E-04  0.0039
   1.3484E+00   1.3812E+00   4.3489E-04  0.0038
   1.3812E+00   1.4148E+00   4.4006E-04  0.0038
   1.4148E+00   1.4492E+00   4.4485E-04  0.0037
   1.4492E+00   1.4845E+00   4.4510E-04  0.0037
   1.4845E+00   1.5206E+00   4.4311E-04  0.0036
   1.5206E+00   1.5576E+00   4.4465E-04  0.0036
   1.5576E+00   1.5955E+00   4.4068E-04  0.0035
   1.5955E+00   1.6343E+00   4.4343E-04  0.0035
   1.6343E+00   1.6741E+00   4.4212E-04  0.0035
   1.6741E+00   1.7148E+00   4.4464E-04  0.0034
   1.7148E+00   1.7565E+00   4.3907E-04  0.0034
   1.7565E+00   1.7992E+00   4.1644E-04  0.0034
   1.7992E+00   1.8430E+00   3.9786E-04  0.0034
   1.8430E+00   1.8879E+00   3.8621E-04  0.0034
   1.8879E+00   1.9338E+00   3.8350E-04  0.0034
   1.9338E+00   1.9808E+00   3.8267E-04  0.0034
   1.9808E+00   2.0290E+00   3.9056E-04  0.0033
   2.0290E+00   2.0784E+00   3.9288E-04  0.0032
   2.0784E+00   2.1290E+00   4.0121E-04  0.0032
   2.1290E+00   2.1808E+00   4.0749E-04  0.0031
   2.1808E+00   2.2338E+00   4.1136E-04  0.0031
   2.2338E+00   2.2882E+00   4.0306E-04  0.0031
   2.2882E+00   2.3439E+00   3.9637E-04  0.0030
   2.3439E+00   2.4009E+00   3.9403E-04  0.0030
   2.4009E+00   2.4593E+00   3.9542E-04  0.0030
   2.4593E+00   2.5191E+00   3.9294E-04  0.0030
   2.5191E+00   2.5804E+00   3.8955E-04  0.0029
   2.5804E+00   2.6432E+00   3.8846E-04  0.0029
   2.6432E+00   2.7075E+00   3.8793E-04  0.0029
   2.7075E+00   2.7734E+00   3.8385E-04  0.0029
   2.7734E+00   2.8409E+00   3.8231E-04  0.0028
   2.8409E+00   2.9100E+00   3.8222E-04  0.0028
   2.9100E+00   2.9808E+00   3.8383E-04  0.0028
   2.9808E+00   3.0533E+00   3.7957E-04  0.0027
   3.0533E+00   3.1276E+00   3.7609E-04  0.0027
   3.1276E+00   3.2037E+00   3.7308E-04  0.0027
   3.2037E+00   3.2817E+00   3.6855E-04  0.0027
   3.2817E+00   3.3615E+00   3.6815E-04  0.0027
   3.3615E+00   3.4433E+00   3.6718E-04  0.0026
   3.4433E+00   3.5271E+00   3.6541E-04  0.0026
   3.5271E+00   3.6129E+00   3.6436E-04  0.0026
   3.6129E+00   3.7008E+00   3.6095E-04  0.0026
   3.7008E+00   3.7908E+00   3.5708E-04  0.0026
   3.7908E+00   3.8831E+00   3.5123E-04  0.0025
   3.8831E+00   3.9776E+00   3.4803E-04  0.0025
   3.9776E+00   4.0743E+00   3.4318E-04  0.0025
   4.0743E+00   4.1735E+00   3.3896E-04  0.0025
   4.1735E+00   4.2750E+00   3.3227E-04  0.0025
   4.2750E+00   4.3790E+00   3.2626E-04  0.0025
   4.3790E+00   4.4856E+00   3.1935E-04  0.0025
   4.4856E+00   4.5947E+00   3.1378E-04  0.0025
   4.5947E+00   4.7065E+00   3.0691E-04  0.0025
   4.7065E+00   4.8210E+00   3.0306E-04  0.0025
   4.8210E+00   4.9383E+00   3.0108E-04  0.0024
   4.9383E+00   5.0585E+00   2.9639E-04  0.0024
   5.0585E+00   5.1815E+00   2.9255E-04  0.0024
   5.1815E+00   5.3076E+00   2.8749E-04  0.0024
   5.3076E+00   5.4368E+00   2.8217E-04  0.0024
   5.4368E+00   5.5690E+00   2.7843E-04  0.0024
   5.5690E+00   5.7045E+00   2.7256E-04  0.0024
   5.7045E+00   5.8433E+00   2.6983E-04  0.0024
   5.8433E+00   5.9855E+00   2.6611E-04  0.0024
   5.9855E+00   6.1311E+00   2.6111E-04  0.0024
   6.1311E+00   6.2803E+00   2.5799E-04  0.0023
   6.2803E+00   6.4331E+00   2.5459E-04  0.0023
   6.4331E+00   6.5896E+00   2.4894E-04  0.0023
   6.5896E+00   6.7500E+00   2.4461E-04  0.0023
   6.7500E+00   6.9142E+00   2.3916E-04  0.0023
   6.9142E+00   7.0824E+00   2.3564E-04  0.0023
   7.0824E+00   7.2548E+00   2.3035E-04  0.0023
   7.2548E+00   7.4313E+00   2.2608E-04  0.0023
   7.4313E+00   7.6121E+00   2.2014E-04  0.0023
   7.6121E+00   7.7973E+00   2.1593E-04  0.0023
   7.7973E+00   7.9870E+00   2.1129E-04  0.0023
   7.9870E+00   8.1813E+00   2.0517E-04  0.0023
   8.1813E+00   8.3804E+00   1.9967E-04  0.0023
   8.3804E+00   8.5843E+00   1.9492E-04  0.0023
   8.5843E+00   8.7931E+00   1.8888E-04  0.0023
   8.7931E+00   9.0071E+00   1.8367E-04  0.0023
   9.0071E+00   9.2262E+00   1.7759E-04  0.0023
   9.2262E+00   9.4507E+00   1.7238E-04  0.0023
   9.4507E+00   9.6807E+00   1.6692E-04  0.0024
   9.6807E+00   9.9162E+00   1.6409E-04  0.0024
   9.9162E+00   1.0157E+01   1.6887E-04  0.0023
   1.0157E+01   1.0405E+01   1.6293E-04  0.0023
   1.0405E+01   1.0658E+01   1.5766E-04  0.0023
   1.0658E+01   1.0917E+01   1.5183E-04  0.0023
   1.0917E+01   1.1183E+01   1.4527E-04  0.0024
   1.1183E+01   1.1455E+01   1.4118E-04  0.0024
   1.1455E+01   1.1733E+01   1.3730E-04  0.0024
   1.1733E+01   1.2019E+01   1.3440E-04  0.0024
   1.2019E+01   1.2311E+01   1.3088E-04  0.0024
   1.2311E+01   1.2611E+01   1.2757E-04  0.0024
   1.2611E+01   1.2918E+01   1.2383E-04  0.0024
   1.2918E+01   1.3232E+01   1.2132E-04  0.0024
   1.3232E+01   1.3554E+01   1.1859E-04  0.0024
   1.3554E+01   1.3884E+01   1.1507E-04  0.0024
   1.3884E+01   1.4222E+01   1.1205E-04  0.0024
   1.4222E+01   1.4568E+01   1.0893E-04  0.0024
   1.4568E+01   1.4922E+01   1.0593E-04  0.0024
   1.4922E+01   1.5285E+01   1.0283E-04  0.0024
   1.5285E+01   1.5657E+01   1.0013E-04  0.0024
   1.5657E+01   1.6038E+01   9.7094E-05  0.0024
   1.6038E+01   1.6428E+01   9.4508E-05  0.0024
   1.6428E+01   1.6828E+01   9.1482E-05  0.0024
   1.6828E+01   1.7237E+01   8.9111E-05  0.0024
   1.7237E+01   1.7657E+01   8.6187E-05  0.0025
   1.7657E+01   1.8086E+01   8.3331E-05  0.0025
   1.8086E+01   1.8526E+01   8.0698E-05  0.0025
   1.8526E+01   1.8977E+01   7.7772E-05  0.0025
   1.8977E+01   1.9439E+01   7.5068E-05  0.0025
   1.9439E+01   1.9912E+01   7.3446E-05  0.0025
   1.9912E+01   2.0396E+01   7.1080E-05  0.0025
   2.0396E+01   2.0893E+01   6.9148E-05  0.0025
   2.0893E+01   2.1401E+01   6.6213E-05  0.0025
   2.1401E+01   2.1922E+01   6.3925E-05  0.0026
   2.1922E+01   2.2455E+01   6.1605E-05  0.0026
   2.2455E+01   2.3001E+01   5.9065E-05  0.0026
   2.3001E+01   2.3561E+01   5.6688E-05  0.0026
   2.3561E+01   2.4134E+01   5.5045E-05  0.0026
   2.4134E+01   2.4721E+01   5.3942E-05  0.0026
   2.4721E+01   2.5323E+01   5.2324E-05  0.0026
   2.5323E+01   2.5939E+01   5.0056E-05  0.0027
   2.5939E+01   2.6570E+01   4.8108E-05  0.0027
   2.6570E+01   2.7217E+01   4.5409E-05  0.0027
   2.7217E+01   2.7879E+01   4.3198E-05  0.0028
   2.7879E+01   2.8557E+01   4.0977E-05  0.0028
   2.8557E+01   2.9252E+01   3.8739E-05  0.0028
   2.9252E+01   2.9964E+01   3.6583E-05  0.0029
   2.9964E+01   3.0693E+01   3.4465E-05  0.0029
   3.0693E+01   3.1440E+01   3.2219E-05  0.0030
   3.1440E+01   3.2205E+01   3.0037E-05  0.0031
   3.2205E+01   3.2988E+01   2.8033E-05  0.0031
   3.2988E+01   3.3791E+01   2.6221E-05  0.0032
   3.3791E+01   3.4613E+01   2.4150E-05  0.0033
   3.4613E+01   3.5455E+01   2.2436E-05  0.0034
   3.5455E+01   3.6318E+01   2.0787E-05  0.0035
   3.6318E+01   3.7201E+01   1.8971E-05  0.0036
   3.7201E+01   3.8106E+01   1.7480E-05  0.0037
   3.8106E+01   3.9034E+01   1.5825E-05  0.0038
   3.9034E+01   3.9983E+01   1.4484E-05  0.0040
   3.9983E+01   4.0956E+01   1.3025E-05  0.0041
   4.0956E+01   4.1953E+01   1.1551E-05  0.0043
   4.1953E+01   4.2973E+01   1.0128E-05  0.0046
   4.2973E+01   4.4019E+01   8.9676E-06  0.0048
   4.4019E+01   4.5090E+01   7.8615E-06  0.0051
   4.5090E+01   4.6187E+01   6.9600E-06  0.0053
   4.6187E+01   4.7311E+01   6.0590E-06  0.0057
   4.7311E+01   4.8462E+01   5.2554E-06  0.0060
   4.8462E+01   4.9641E+01   4.5082E-06  0.0064
   4.9641E+01   5.0849E+01   3.8595E-06  0.0068
   5.0849E+01   5.2086E+01   3.2122E-06  0.0074
   5.2086E+01   5.3353E+01   2.7635E-06  0.0079
   5.3353E+01   5.4651E+01   2.3135E-06  0.0085
   5.4651E+01   5.5981E+01   1.9092E-06  0.0093
   5.5981E+01   5.7343E+01   1.5761E-06  0.0101
   5.7343E+01   5.8738E+01   1.3152E-06  0.0109
   5.8738E+01   6.0168E+01   1.0928E-06  0.0118
   6.0168E+01   6.1632E+01   9.5500E-07  0.0125
   6.1632E+01   6.3131E+01   8.5577E-07  0.0130
   6.3131E+01   6.4667E+01   7.5251E-07  0.0137
   6.4667E+01   6.6240E+01   4.4186E-07  0.0177
   6.6240E+01   6.7852E+01   1.1034E-07  0.0350
   6.7852E+01   6.9503E+01   3.5554E-08  0.0609
   6.9503E+01   7.1194E+01   8.7416E-09  0.1213
   7.1194E+01   7.2926E+01   1.3805E-09  0.3015
   7.2926E+01   7.4701E+01   0.0000E+00  0.0000
   7.4701E+01   7.6518E+01   0.0000E+00  0.0000
   7.6518E+01   7.8380E+01   0.0000E+00  0.0000
   7.8380E+01   8.0287E+01   0.0000E+00  0.0000
   8.0287E+01   8.2240E+01   0.0000E+00  0.0000
   8.2240E+01   8.4241E+01   0.0000E+00  0.0000
   8.4241E+01   8.6291E+01   0.0000E+00  0.0000
   8.6291E+01   8.8391E+01   0.0000E+00  0.0000
   8.8391E+01   9.0541E+01   0.0000E+00  0.0000
   9.0541E+01   9.2744E+01   0.0000E+00  0.0000
   9.2744E+01   9.5001E+01   0.0000E+00  0.0000
   9.5001E+01   9.7312E+01   0.0000E+00  0.0000
   9.7312E+01   9.9680E+01   0.0000E+00  0.0000
   9.9680E+01   1.0211E+02   0.0000E+00  0.0000
   1.0211E+02   1.0459E+02   0.0000E+00  0.0000
   1.0459E+02   1.0713E+02   0.0000E+00  0.0000
   1.0713E+02   1.0974E+02   0.0000E+00  0.0000
   1.0974E+02   1.1241E+02   0.0000E+00  0.0000
   1.1241E+02   1.1515E+02   0.0000E+00  0.0000
   1.1515E+02   1.1795E+02   0.0000E+00  0.0000
   1.1795E+02   1.2082E+02   0.0000E+00  0.0000
   1.2082E+02   1.2376E+02   0.0000E+00  0.0000
   1.2376E+02   1.2677E+02   0.0000E+00  0.0000
   1.2677E+02   1.2985E+02   0.0000E+00  0.0000
   1.2985E+02   1.3301E+02   0.0000E+00  0.0000
   1.3301E+02   1.3625E+02   0.0000E+00  0.0000
   1.3625E+02   1.3956E+02   0.0000E+00  0.0000
   1.3956E+02   1.4296E+02   0.0000E+00  0.0000
   1.4296E+02   1.4644E+02   0.0000E+00  0.0000
   1.4644E+02   1.5000E+02   0.0000E+00  0.0000

#   sum over                 3.2712E-05
'no. =    1   reg = 110 - 210'
msuc: {\huge [t-cross] in region mesh}
msdr: {\it plotted by \ANGEL \version}
msdl: {\it calculated by \PHITS  3.26}
wt: s(0.7)
\vspace{-3}
  region surface crossing
  area  &=&   1.0000E+00 [cm^2]
e:
 
# Information for Restart Calculation
# This calculation was newly started
# istdev =  2 # 1:Batch variance, 2:History variance
# resc2  = 4.60000000000000000E+09 # Total source weight or Total source weight / maxcas
# resc3  = 4.60000000000000000E+09 # Total history number or Total batch number
# maxcas =   100000000 # History / Batch, only used for istdev=1
# bitrseed = 1111100110010100101101010111101100101000100011111000010111100101 # bit data of rseed
