[ T-Cross ]
    title = [t-cross] in region mesh
     mesh =  reg            # mesh type is region-wise
      reg =    1            # number of crossing regions
      non     r-from    r-to       area
      1       100       200        1.000000    
   e-type =    3            # e-mesh is log given by emin, emax and ne
     emin =  1.0000000E-02  # minimum value of e-mesh points
     emax =   150.0000      # maximum value of e-mesh points
#    edel =  2.4039514E-02  # mesh width of e-mesh points
       ne =    400          # number of e-mesh points
#    data = ( e(i), i = 1, ne + 1 )
#           1.00000E-02  1.02433E-02  1.04925E-02  1.07478E-02  1.10093E-02
#           1.12772E-02  1.15516E-02  1.18326E-02  1.21205E-02  1.24154E-02
#           1.27175E-02  1.30269E-02  1.33439E-02  1.36686E-02  1.40011E-02
#           1.43418E-02  1.46907E-02  1.50482E-02  1.54143E-02  1.57894E-02
#           1.61735E-02  1.65670E-02  1.69701E-02  1.73830E-02  1.78060E-02
#           1.82392E-02  1.86830E-02  1.91375E-02  1.96032E-02  2.00801E-02
#           2.05687E-02  2.10692E-02  2.15818E-02  2.21069E-02  2.26448E-02
#           2.31957E-02  2.37601E-02  2.43382E-02  2.49304E-02  2.55369E-02
#           2.61583E-02  2.67947E-02  2.74467E-02  2.81145E-02  2.87985E-02
#           2.94992E-02  3.02169E-02  3.09521E-02  3.17052E-02  3.24766E-02
#           3.32668E-02  3.40762E-02  3.49053E-02  3.57546E-02  3.66246E-02
#           3.75157E-02  3.84284E-02  3.93634E-02  4.03212E-02  4.13022E-02
#           4.23071E-02  4.33365E-02  4.43909E-02  4.54710E-02  4.65773E-02
#           4.77106E-02  4.88714E-02  5.00605E-02  5.12785E-02  5.25262E-02
#           5.38042E-02  5.51133E-02  5.64542E-02  5.78278E-02  5.92348E-02
#           6.06760E-02  6.21523E-02  6.36645E-02  6.52135E-02  6.68002E-02
#           6.84255E-02  7.00904E-02  7.17957E-02  7.35426E-02  7.53319E-02
#           7.71648E-02  7.90423E-02  8.09655E-02  8.29354E-02  8.49533E-02
#           8.70203E-02  8.91376E-02  9.13064E-02  9.35279E-02  9.58035E-02
#           9.81345E-02  1.00522E-01  1.02968E-01  1.05473E-01  1.08040E-01
#           1.10668E-01  1.13361E-01  1.16119E-01  1.18944E-01  1.21838E-01
#           1.24803E-01  1.27839E-01  1.30950E-01  1.34136E-01  1.37399E-01
#           1.40742E-01  1.44167E-01  1.47675E-01  1.51268E-01  1.54948E-01
#           1.58718E-01  1.62580E-01  1.66535E-01  1.70587E-01  1.74738E-01
#           1.78989E-01  1.83344E-01  1.87805E-01  1.92375E-01  1.97055E-01
#           2.01850E-01  2.06761E-01  2.11792E-01  2.16945E-01  2.22223E-01
#           2.27630E-01  2.33169E-01  2.38842E-01  2.44653E-01  2.50605E-01
#           2.56703E-01  2.62949E-01  2.69346E-01  2.75900E-01  2.82613E-01
#           2.89489E-01  2.96532E-01  3.03747E-01  3.11138E-01  3.18708E-01
#           3.26462E-01  3.34405E-01  3.42542E-01  3.50876E-01  3.59413E-01
#           3.68158E-01  3.77116E-01  3.86291E-01  3.95690E-01  4.05317E-01
#           4.15179E-01  4.25281E-01  4.35628E-01  4.46227E-01  4.57084E-01
#           4.68205E-01  4.79597E-01  4.91266E-01  5.03219E-01  5.15463E-01
#           5.28005E-01  5.40851E-01  5.54011E-01  5.67490E-01  5.81298E-01
#           5.95441E-01  6.09929E-01  6.24769E-01  6.39970E-01  6.55541E-01
#           6.71491E-01  6.87828E-01  7.04564E-01  7.21706E-01  7.39266E-01
#           7.57253E-01  7.75678E-01  7.94551E-01  8.13883E-01  8.33685E-01
#           8.53969E-01  8.74747E-01  8.96030E-01  9.17831E-01  9.40163E-01
#           9.63038E-01  9.86469E-01  1.01047E+00  1.03506E+00  1.06024E+00
#           1.08604E+00  1.11246E+00  1.13953E+00  1.16725E+00  1.19565E+00
#           1.22474E+00  1.25454E+00  1.28507E+00  1.31633E+00  1.34836E+00
#           1.38117E+00  1.41477E+00  1.44920E+00  1.48446E+00  1.52057E+00
#           1.55757E+00  1.59547E+00  1.63429E+00  1.67405E+00  1.71478E+00
#           1.75650E+00  1.79924E+00  1.84302E+00  1.88786E+00  1.93379E+00
#           1.98084E+00  2.02904E+00  2.07841E+00  2.12898E+00  2.18078E+00
#           2.23384E+00  2.28819E+00  2.34386E+00  2.40089E+00  2.45930E+00
#           2.51914E+00  2.58043E+00  2.64322E+00  2.70753E+00  2.77341E+00
#           2.84088E+00  2.91001E+00  2.98081E+00  3.05333E+00  3.12762E+00
#           3.20372E+00  3.28167E+00  3.36152E+00  3.44330E+00  3.52708E+00
#           3.61290E+00  3.70080E+00  3.79085E+00  3.88308E+00  3.97756E+00
#           4.07434E+00  4.17347E+00  4.27501E+00  4.37903E+00  4.48557E+00
#           4.59471E+00  4.70650E+00  4.82102E+00  4.93832E+00  5.05847E+00
#           5.18155E+00  5.30762E+00  5.43676E+00  5.56904E+00  5.70453E+00
#           5.84333E+00  5.98550E+00  6.13114E+00  6.28031E+00  6.43312E+00
#           6.58964E+00  6.74997E+00  6.91420E+00  7.08243E+00  7.25475E+00
#           7.43126E+00  7.61207E+00  7.79728E+00  7.98700E+00  8.18133E+00
#           8.38038E+00  8.58428E+00  8.79315E+00  9.00709E+00  9.22624E+00
#           9.45072E+00  9.68067E+00  9.91620E+00  1.01575E+01  1.04046E+01
#           1.06578E+01  1.09171E+01  1.11827E+01  1.14548E+01  1.17335E+01
#           1.20190E+01  1.23114E+01  1.26109E+01  1.29178E+01  1.32321E+01
#           1.35540E+01  1.38838E+01  1.42216E+01  1.45676E+01  1.49221E+01
#           1.52851E+01  1.56570E+01  1.60380E+01  1.64282E+01  1.68279E+01
#           1.72374E+01  1.76568E+01  1.80864E+01  1.85264E+01  1.89772E+01
#           1.94389E+01  1.99119E+01  2.03963E+01  2.08926E+01  2.14009E+01
#           2.19216E+01  2.24550E+01  2.30014E+01  2.35610E+01  2.41343E+01
#           2.47215E+01  2.53230E+01  2.59391E+01  2.65702E+01  2.72167E+01
#           2.78789E+01  2.85572E+01  2.92520E+01  2.99637E+01  3.06928E+01
#           3.14396E+01  3.22045E+01  3.29881E+01  3.37907E+01  3.46128E+01
#           3.54550E+01  3.63177E+01  3.72013E+01  3.81064E+01  3.90336E+01
#           3.99833E+01  4.09561E+01  4.19526E+01  4.29734E+01  4.40189E+01
#           4.50900E+01  4.61870E+01  4.73108E+01  4.84619E+01  4.96410E+01
#           5.08488E+01  5.20860E+01  5.33533E+01  5.46514E+01  5.59812E+01
#           5.73432E+01  5.87384E+01  6.01676E+01  6.16315E+01  6.31311E+01
#           6.46671E+01  6.62405E+01  6.78522E+01  6.95031E+01  7.11941E+01
#           7.29263E+01  7.47007E+01  7.65182E+01  7.83800E+01  8.02870E+01
#           8.22405E+01  8.42414E+01  8.62911E+01  8.83906E+01  9.05412E+01
#           9.27442E+01  9.50007E+01  9.73122E+01  9.96799E+01  1.02105E+02
#           1.04589E+02  1.07134E+02  1.09741E+02  1.12411E+02  1.15146E+02
#           1.17948E+02  1.20817E+02  1.23757E+02  1.26768E+02  1.29852E+02
#           1.33012E+02  1.36248E+02  1.39563E+02  1.42959E+02  1.46437E+02
#           1.50000E+02
     unit =    2            # unit is [1/cm^2/(MeV/n)/source]
     axis =  eng            # axis of output
     file = detector-01.out  # file name of output for the above axis
   output = f-curr          # surface crossing forward current spectrum
     part =  neutron  
# kf/name :  2112     
#    used :        main (  %)        temp (  %)       total (  %)
#  memory :         414 (  0)           0 (  0)         414 (  0)

#------------------------------------------------------------------------------
#newpage:
#   no. =    1   reg = 100 - 200

x: Energy [MeV/n]
y:  F-Curr [1/cm^2/(MeV/n)/source]         
p: xlog ylog afac(0.8) form(0.9)
h: n            x            y(neutron ),hh0l   n 
#  e-lower      e-upper      neutron     r.err 
   1.0000E-02   1.0243E-02   2.2572E-05  0.1971
   1.0243E-02   1.0493E-02   2.5528E-05  0.1839
   1.0493E-02   1.0748E-02   1.8533E-05  0.2134
   1.0748E-02   1.1009E-02   1.8126E-05  0.2133
   1.1009E-02   1.1277E-02   2.2365E-05  0.1891
   1.1277E-02   1.1552E-02   2.6112E-05  0.1741
   1.1552E-02   1.1833E-02   2.4277E-05  0.1771
   1.1833E-02   1.2121E-02   2.6342E-05  0.1690
   1.2121E-02   1.2415E-02   2.1283E-05  0.1857
   1.2415E-02   1.2718E-02   2.2281E-05  0.1796
   1.2718E-02   1.3027E-02   2.1041E-05  0.1826
   1.3027E-02   1.3344E-02   2.6694E-05  0.1601
   1.3344E-02   1.3669E-02   2.1302E-05  0.1768
   1.3669E-02   1.4001E-02   2.1341E-05  0.1742
   1.4001E-02   1.4342E-02   1.5279E-05  0.2041
   1.4342E-02   1.4691E-02   1.5519E-05  0.2000
   1.4691E-02   1.5048E-02   1.8805E-05  0.1796
   1.5048E-02   1.5414E-02   1.5926E-05  0.1925
   1.5414E-02   1.5789E-02   1.7306E-05  0.1826
   1.5789E-02   1.6174E-02   1.5213E-05  0.1925
   1.6174E-02   1.6567E-02   1.7075E-05  0.1796
   1.6567E-02   1.6970E-02   1.6624E-05  0.1796
   1.6970E-02   1.7383E-02   1.9966E-05  0.1622
   1.7383E-02   1.7806E-02   1.4772E-05  0.1858
   1.7806E-02   1.8239E-02   1.8339E-05  0.1645
   1.8239E-02   1.8683E-02   1.6118E-05  0.1741
   1.8683E-02   1.9138E-02   1.8024E-05  0.1623
   1.9138E-02   1.9603E-02   1.2920E-05  0.1891
   1.9603E-02   2.0080E-02   1.4020E-05  0.1781
   2.0080E-02   2.0569E-02   1.8206E-05  0.1562
   2.0569E-02   2.1069E-02   1.6028E-05  0.1644
   2.1069E-02   2.1582E-02   1.3107E-05  0.1796
   2.1582E-02   2.2107E-02   1.1561E-05  0.1890
   2.2107E-02   2.2645E-02   1.3413E-05  0.1722
   2.2645E-02   2.3196E-02   1.1812E-05  0.1826
   2.3196E-02   2.3760E-02   8.4506E-06  0.2132
   2.3760E-02   2.4338E-02   9.6548E-06  0.1962
   2.4338E-02   2.4930E-02   1.1692E-05  0.1768
   2.4930E-02   2.5537E-02   1.3934E-05  0.1601
   2.5537E-02   2.6158E-02   1.0002E-05  0.1853
   2.6158E-02   2.6795E-02   8.1676E-06  0.2041
   2.6795E-02   2.7447E-02   1.1290E-05  0.1697
   2.7447E-02   2.8114E-02   7.4657E-06  0.2085
   2.8114E-02   2.8799E-02   7.1600E-06  0.2089
   2.8799E-02   2.9499E-02   8.9806E-06  0.1857
   2.9499E-02   3.0217E-02   1.0871E-05  0.1667
   3.0217E-02   3.0952E-02   1.1406E-05  0.1602
   3.0952E-02   3.1705E-02   1.0310E-05  0.1668
   3.1705E-02   3.2477E-02   8.7137E-06  0.1796
   3.2477E-02   3.3267E-02   7.8547E-06  0.1861
   3.3267E-02   3.4076E-02   1.0915E-05  0.1563
   3.4076E-02   3.4905E-02   6.7990E-06  0.1961
   3.4905E-02   3.5755E-02   7.2802E-06  0.1861
   3.5755E-02   3.6625E-02   7.9768E-06  0.1761
   3.6625E-02   3.7516E-02   9.9752E-06  0.1562
   3.7516E-02   3.8428E-02   6.6294E-06  0.1890
   3.8428E-02   3.9363E-02   7.1880E-06  0.1796
   3.9363E-02   4.0321E-02   5.6395E-06  0.2000
   4.0321E-02   4.1302E-02   6.1626E-06  0.1890
   4.1302E-02   4.2307E-02   5.8310E-06  0.1925
   4.2307E-02   4.3337E-02   8.2769E-06  0.1591
   4.3337E-02   4.4391E-02   5.3112E-06  0.1962
   4.4391E-02   4.5471E-02   7.4180E-06  0.1644
   4.5471E-02   4.6577E-02   6.8619E-06  0.1690
   4.6577E-02   4.7711E-02   6.5090E-06  0.1715
   4.7711E-02   4.8871E-02   5.8678E-06  0.1771
   4.8871E-02   5.0061E-02   5.0918E-06  0.1890
   5.0061E-02   5.1279E-02   6.6710E-06  0.1624
   5.1279E-02   5.2526E-02   6.2877E-06  0.1658
   5.2526E-02   5.3804E-02   5.0893E-06  0.1826
   5.3804E-02   5.5113E-02   5.9616E-06  0.1667
   5.5113E-02   5.6454E-02   6.3531E-06  0.1592
   5.6454E-02   5.7828E-02   5.3707E-06  0.1715
   5.7828E-02   5.9235E-02   5.2368E-06  0.1715
   5.9235E-02   6.0676E-02   5.1124E-06  0.1715
   6.0676E-02   6.2152E-02   4.0351E-06  0.1893
   6.2152E-02   6.3665E-02   4.1561E-06  0.1838
   6.3665E-02   6.5214E-02   4.2929E-06  0.1799
   6.5214E-02   6.6800E-02   4.7392E-06  0.1682
   6.6800E-02   6.8426E-02   5.9694E-06  0.1491
   6.8426E-02   7.0090E-02   4.4072E-06  0.1716
   7.0090E-02   7.1796E-02   5.6070E-06  0.1500
   7.1796E-02   7.3543E-02   4.5702E-06  0.1644
   7.3543E-02   7.5332E-02   3.5326E-06  0.1847
   7.5332E-02   7.7165E-02   3.6287E-06  0.1798
   7.7165E-02   7.9042E-02   3.3367E-06  0.1857
   7.9042E-02   8.0965E-02   4.1565E-06  0.1644
   8.0965E-02   8.2935E-02   4.9459E-06  0.1491
   8.2935E-02   8.4953E-02   4.3207E-06  0.1573
   8.4953E-02   8.7020E-02   4.7275E-06  0.1484
   8.7020E-02   8.9138E-02   3.2732E-06  0.1768
   8.9138E-02   9.1306E-02   3.7649E-06  0.1623
   9.1306E-02   9.3528E-02   3.8535E-06  0.1583
   9.3528E-02   9.5804E-02   4.3988E-06  0.1465
   9.5804E-02   9.8134E-02   4.0889E-06  0.1508
   9.8134E-02   1.0052E-01   3.8856E-06  0.1521
   1.0052E-01   1.0297E-01   3.7208E-06  0.1543
   1.0297E-01   1.0547E-01   3.6949E-06  0.1526
   1.0547E-01   1.0804E-01   4.0673E-06  0.1432
   1.0804E-01   1.1067E-01   3.6274E-06  0.1501
   1.1067E-01   1.1336E-01   4.5033E-06  0.1336
   1.1336E-01   1.1612E-01   5.0074E-06  0.1250
   1.1612E-01   1.1894E-01   4.3695E-06  0.1325
   1.1894E-01   1.2184E-01   5.1943E-06  0.1199
   1.2184E-01   1.2480E-01   6.0903E-06  0.1094
   1.2480E-01   1.2784E-01   5.2738E-06  0.1163
   1.2784E-01   1.3095E-01   5.3162E-06  0.1142
   1.3095E-01   1.3414E-01   5.4345E-06  0.1116
   1.3414E-01   1.3740E-01   5.1597E-06  0.1131
   1.3740E-01   1.4074E-01   6.1559E-06  0.1026
   1.4074E-01   1.4417E-01   6.2812E-06  0.1002
   1.4417E-01   1.4767E-01   7.1173E-06  0.0929
   1.4767E-01   1.5127E-01   5.7793E-06  0.1021
   1.5127E-01   1.5495E-01   7.5827E-06  0.0881
   1.5495E-01   1.5872E-01   5.8138E-06  0.0993
   1.5872E-01   1.6258E-01   7.2184E-06  0.0881
   1.6258E-01   1.6654E-01   7.7526E-06  0.0839
   1.6654E-01   1.7059E-01   9.2143E-06  0.0760
   1.7059E-01   1.7474E-01   8.8071E-06  0.0769
   1.7474E-01   1.7899E-01   8.6013E-06  0.0768
   1.7899E-01   1.8334E-01   7.7279E-06  0.0800
   1.8334E-01   1.8781E-01   8.6695E-06  0.0748
   1.8781E-01   1.9237E-01   9.1542E-06  0.0719
   1.9237E-01   1.9706E-01   1.0144E-05  0.0674
   1.9706E-01   2.0185E-01   1.0765E-05  0.0647
   2.0185E-01   2.0676E-01   9.2202E-06  0.0690
   2.0676E-01   2.1179E-01   1.0619E-05  0.0636
   2.1179E-01   2.1694E-01   1.0733E-05  0.0624
   2.1694E-01   2.2222E-01   1.0577E-05  0.0622
   2.2222E-01   2.2763E-01   1.2001E-05  0.0577
   2.2763E-01   2.3317E-01   1.1526E-05  0.0582
   2.3317E-01   2.3884E-01   1.2731E-05  0.0547
   2.3884E-01   2.4465E-01   1.2665E-05  0.0542
   2.4465E-01   2.5061E-01   1.2862E-05  0.0531
   2.5061E-01   2.5670E-01   1.3635E-05  0.0510
   2.5670E-01   2.6295E-01   1.3086E-05  0.0514
   2.6295E-01   2.6935E-01   1.6098E-05  0.0457
   2.6935E-01   2.7590E-01   1.3367E-05  0.0497
   2.7590E-01   2.8261E-01   1.5974E-05  0.0449
   2.8261E-01   2.8949E-01   1.4665E-05  0.0463
   2.8949E-01   2.9653E-01   1.5934E-05  0.0439
   2.9653E-01   3.0375E-01   1.6970E-05  0.0420
   3.0375E-01   3.1114E-01   1.5915E-05  0.0428
   3.1114E-01   3.1871E-01   1.6766E-05  0.0412
   3.1871E-01   3.2646E-01   1.7293E-05  0.0401
   3.2646E-01   3.3441E-01   1.8006E-05  0.0388
   3.3441E-01   3.4254E-01   1.6715E-05  0.0398
   3.4254E-01   3.5088E-01   1.8425E-05  0.0375
   3.5088E-01   3.5941E-01   1.7843E-05  0.0376
   3.5941E-01   3.6816E-01   1.8713E-05  0.0363
   3.6816E-01   3.7712E-01   1.8690E-05  0.0359
   3.7712E-01   3.8629E-01   2.0289E-05  0.0340
   3.8629E-01   3.9569E-01   1.9201E-05  0.0346
   3.9569E-01   4.0532E-01   2.0228E-05  0.0333
   4.0532E-01   4.1518E-01   2.1089E-05  0.0322
   4.1518E-01   4.2528E-01   2.1616E-05  0.0314
   4.2528E-01   4.3563E-01   2.0016E-05  0.0323
   4.3563E-01   4.4623E-01   2.0770E-05  0.0313
   4.4623E-01   4.5708E-01   2.1509E-05  0.0304
   4.5708E-01   4.6821E-01   2.2385E-05  0.0294
   4.6821E-01   4.7960E-01   2.1875E-05  0.0294
   4.7960E-01   4.9127E-01   2.2658E-05  0.0285
   4.9127E-01   5.0322E-01   2.2390E-05  0.0283
   5.0322E-01   5.1546E-01   2.0994E-05  0.0289
   5.1546E-01   5.2800E-01   2.3034E-05  0.0273
   5.2800E-01   5.4085E-01   2.3380E-05  0.0268
   5.4085E-01   5.5401E-01   2.3309E-05  0.0265
   5.5401E-01   5.6749E-01   2.3295E-05  0.0262
   5.6749E-01   5.8130E-01   2.4504E-05  0.0252
   5.8130E-01   5.9544E-01   2.4103E-05  0.0251
   5.9544E-01   6.0993E-01   2.3164E-05  0.0253
   6.0993E-01   6.2477E-01   2.3106E-05  0.0251
   6.2477E-01   6.3997E-01   2.3452E-05  0.0246
   6.3997E-01   6.5554E-01   2.4498E-05  0.0238
   6.5554E-01   6.7149E-01   2.3541E-05  0.0239
   6.7149E-01   6.8783E-01   2.2594E-05  0.0241
   6.8783E-01   7.0456E-01   2.3460E-05  0.0234
   7.0456E-01   7.2171E-01   2.3179E-05  0.0233
   7.2171E-01   7.3927E-01   2.3159E-05  0.0230
   7.3927E-01   7.5725E-01   2.2560E-05  0.0230
   7.5725E-01   7.7568E-01   2.2759E-05  0.0226
   7.7568E-01   7.9455E-01   2.2778E-05  0.0223
   7.9455E-01   8.1388E-01   2.2688E-05  0.0221
   8.1388E-01   8.3368E-01   2.1645E-05  0.0224
   8.3368E-01   8.5397E-01   2.0964E-05  0.0225
   8.5397E-01   8.7475E-01   2.1307E-05  0.0220
   8.7475E-01   8.9603E-01   2.0369E-05  0.0223
   8.9603E-01   9.1783E-01   1.9736E-05  0.0223
   9.1783E-01   9.4016E-01   1.9388E-05  0.0222
   9.4016E-01   9.6304E-01   1.9667E-05  0.0218
   9.6304E-01   9.8647E-01   1.8172E-05  0.0224
   9.8647E-01   1.0105E+00   1.7805E-05  0.0224
   1.0105E+00   1.0351E+00   1.7689E-05  0.0222
   1.0351E+00   1.0602E+00   1.8165E-05  0.0216
   1.0602E+00   1.0860E+00   1.8017E-05  0.0214
   1.0860E+00   1.1125E+00   1.8346E-05  0.0210
   1.1125E+00   1.1395E+00   1.8826E-05  0.0205
   1.1395E+00   1.1673E+00   1.8764E-05  0.0203
   1.1673E+00   1.1957E+00   1.9066E-05  0.0199
   1.1957E+00   1.2247E+00   1.9336E-05  0.0195
   1.2247E+00   1.2545E+00   1.9640E-05  0.0191
   1.2545E+00   1.2851E+00   1.9819E-05  0.0188
   1.2851E+00   1.3163E+00   1.9829E-05  0.0185
   1.3163E+00   1.3484E+00   2.0448E-05  0.0180
   1.3484E+00   1.3812E+00   2.0805E-05  0.0177
   1.3812E+00   1.4148E+00   2.0570E-05  0.0175
   1.4148E+00   1.4492E+00   2.0108E-05  0.0175
   1.4492E+00   1.4845E+00   2.0855E-05  0.0170
   1.4845E+00   1.5206E+00   2.0790E-05  0.0168
   1.5206E+00   1.5576E+00   2.0418E-05  0.0168
   1.5576E+00   1.5955E+00   2.0858E-05  0.0164
   1.5955E+00   1.6343E+00   2.0414E-05  0.0163
   1.6343E+00   1.6741E+00   2.0197E-05  0.0162
   1.6741E+00   1.7148E+00   2.0905E-05  0.0158
   1.7148E+00   1.7565E+00   2.0173E-05  0.0158
   1.7565E+00   1.7992E+00   1.9839E-05  0.0158
   1.7992E+00   1.8430E+00   1.9181E-05  0.0158
   1.8430E+00   1.8879E+00   1.8106E-05  0.0161
   1.8879E+00   1.9338E+00   1.8273E-05  0.0158
   1.9338E+00   1.9808E+00   1.8252E-05  0.0156
   1.9808E+00   2.0290E+00   1.8330E-05  0.0154
   2.0290E+00   2.0784E+00   1.8438E-05  0.0151
   2.0784E+00   2.1290E+00   1.8510E-05  0.0149
   2.1290E+00   2.1808E+00   1.8721E-05  0.0146
   2.1808E+00   2.2338E+00   1.8708E-05  0.0145
   2.2338E+00   2.2882E+00   1.8464E-05  0.0144
   2.2882E+00   2.3439E+00   1.7974E-05  0.0144
   2.3439E+00   2.4009E+00   1.7824E-05  0.0143
   2.4009E+00   2.4593E+00   1.7612E-05  0.0143
   2.4593E+00   2.5191E+00   1.7616E-05  0.0141
   2.5191E+00   2.5804E+00   1.7393E-05  0.0140
   2.5804E+00   2.6432E+00   1.7268E-05  0.0139
   2.6432E+00   2.7075E+00   1.6796E-05  0.0139
   2.7075E+00   2.7734E+00   1.7163E-05  0.0136
   2.7734E+00   2.8409E+00   1.6847E-05  0.0136
   2.8409E+00   2.9100E+00   1.6283E-05  0.0136
   2.9100E+00   2.9808E+00   1.6518E-05  0.0134
   2.9808E+00   3.0533E+00   1.6929E-05  0.0131
   3.0533E+00   3.1276E+00   1.6739E-05  0.0130
   3.1276E+00   3.2037E+00   1.6418E-05  0.0130
   3.2037E+00   3.2817E+00   1.5817E-05  0.0131
   3.2817E+00   3.3615E+00   1.6311E-05  0.0127
   3.3615E+00   3.4433E+00   1.5737E-05  0.0128
   3.4433E+00   3.5271E+00   1.5702E-05  0.0127
   3.5271E+00   3.6129E+00   1.5475E-05  0.0126
   3.6129E+00   3.7008E+00   1.5233E-05  0.0126
   3.7008E+00   3.7908E+00   1.5201E-05  0.0124
   3.7908E+00   3.8831E+00   1.5027E-05  0.0124
   3.8831E+00   3.9776E+00   1.5182E-05  0.0122
   3.9776E+00   4.0743E+00   1.5124E-05  0.0120
   4.0743E+00   4.1735E+00   1.4711E-05  0.0121
   4.1735E+00   4.2750E+00   1.4249E-05  0.0121
   4.2750E+00   4.3790E+00   1.4188E-05  0.0120
   4.3790E+00   4.4856E+00   1.3972E-05  0.0119
   4.4856E+00   4.5947E+00   1.3627E-05  0.0119
   4.5947E+00   4.7065E+00   1.3494E-05  0.0118
   4.7065E+00   4.8210E+00   1.3292E-05  0.0118
   4.8210E+00   4.9383E+00   1.3163E-05  0.0117
   4.9383E+00   5.0585E+00   1.3295E-05  0.0115
   5.0585E+00   5.1815E+00   1.2873E-05  0.0116
   5.1815E+00   5.3076E+00   1.2719E-05  0.0115
   5.3076E+00   5.4368E+00   1.2612E-05  0.0114
   5.4368E+00   5.5690E+00   1.2591E-05  0.0113
   5.5690E+00   5.7045E+00   1.2223E-05  0.0113
   5.7045E+00   5.8433E+00   1.2061E-05  0.0113
   5.8433E+00   5.9855E+00   1.1802E-05  0.0113
   5.9855E+00   6.1311E+00   1.1887E-05  0.0111
   6.1311E+00   6.2803E+00   1.1977E-05  0.0109
   6.2803E+00   6.4331E+00   1.1649E-05  0.0109
   6.4331E+00   6.5896E+00   1.1027E-05  0.0111
   6.5896E+00   6.7500E+00   1.1195E-05  0.0109
   6.7500E+00   6.9142E+00   1.1069E-05  0.0108
   6.9142E+00   7.0824E+00   1.0824E-05  0.0108
   7.0824E+00   7.2548E+00   1.0688E-05  0.0108
   7.2548E+00   7.4313E+00   1.0563E-05  0.0107
   7.4313E+00   7.6121E+00   1.0461E-05  0.0106
   7.6121E+00   7.7973E+00   1.0276E-05  0.0106
   7.7973E+00   7.9870E+00   9.9997E-06  0.0106
   7.9870E+00   8.1813E+00   9.7902E-06  0.0106
   8.1813E+00   8.3804E+00   9.6680E-06  0.0105
   8.3804E+00   8.5843E+00   9.6068E-06  0.0104
   8.5843E+00   8.7931E+00   9.3722E-06  0.0105
   8.7931E+00   9.0071E+00   9.1432E-06  0.0105
   9.0071E+00   9.2262E+00   9.0846E-06  0.0104
   9.2262E+00   9.4507E+00   8.7767E-06  0.0104
   9.4507E+00   9.6807E+00   8.7797E-06  0.0103
   9.6807E+00   9.9162E+00   8.5764E-06  0.0103
   9.9162E+00   1.0157E+01   8.7294E-06  0.0101
   1.0157E+01   1.0405E+01   8.5035E-06  0.0101
   1.0405E+01   1.0658E+01   8.4647E-06  0.0100
   1.0658E+01   1.0917E+01   8.4057E-06  0.0100
   1.0917E+01   1.1183E+01   8.0972E-06  0.0100
   1.1183E+01   1.1455E+01   8.0878E-06  0.0099
   1.1455E+01   1.1733E+01   7.7613E-06  0.0100
   1.1733E+01   1.2019E+01   7.7401E-06  0.0099
   1.2019E+01   1.2311E+01   7.6319E-06  0.0099
   1.2311E+01   1.2611E+01   7.5218E-06  0.0098
   1.2611E+01   1.2918E+01   7.4335E-06  0.0097
   1.2918E+01   1.3232E+01   7.2288E-06  0.0098
   1.3232E+01   1.3554E+01   7.2520E-06  0.0096
   1.3554E+01   1.3884E+01   7.3165E-06  0.0095
   1.3884E+01   1.4222E+01   7.1273E-06  0.0095
   1.4222E+01   1.4568E+01   7.0256E-06  0.0094
   1.4568E+01   1.4922E+01   6.7939E-06  0.0095
   1.4922E+01   1.5285E+01   6.8654E-06  0.0093
   1.5285E+01   1.5657E+01   6.7180E-06  0.0093
   1.5657E+01   1.6038E+01   6.6157E-06  0.0093
   1.6038E+01   1.6428E+01   6.4749E-06  0.0093
   1.6428E+01   1.6828E+01   6.4636E-06  0.0092
   1.6828E+01   1.7237E+01   6.3797E-06  0.0091
   1.7237E+01   1.7657E+01   6.3286E-06  0.0090
   1.7657E+01   1.8086E+01   6.2300E-06  0.0090
   1.8086E+01   1.8526E+01   6.0515E-06  0.0090
   1.8526E+01   1.8977E+01   5.9770E-06  0.0090
   1.8977E+01   1.9439E+01   5.8819E-06  0.0089
   1.9439E+01   1.9912E+01   5.8428E-06  0.0089
   1.9912E+01   2.0396E+01   5.8405E-06  0.0088
   2.0396E+01   2.0893E+01   5.6321E-06  0.0088
   2.0893E+01   2.1401E+01   5.5129E-06  0.0088
   2.1401E+01   2.1922E+01   5.5419E-06  0.0087
   2.1922E+01   2.2455E+01   5.2500E-06  0.0088
   2.2455E+01   2.3001E+01   5.2634E-06  0.0087
   2.3001E+01   2.3561E+01   5.1034E-06  0.0087
   2.3561E+01   2.4134E+01   4.9674E-06  0.0087
   2.4134E+01   2.4721E+01   4.9727E-06  0.0086
   2.4721E+01   2.5323E+01   4.7982E-06  0.0087
   2.5323E+01   2.5939E+01   4.6641E-06  0.0087
   2.5939E+01   2.6570E+01   4.5909E-06  0.0087
   2.6570E+01   2.7217E+01   4.4455E-06  0.0087
   2.7217E+01   2.7879E+01   4.3186E-06  0.0087
   2.7879E+01   2.8557E+01   4.7480E-06  0.0082
   2.8557E+01   2.9252E+01   5.1230E-06  0.0078
   2.9252E+01   2.9964E+01   5.0600E-06  0.0078
   2.9964E+01   3.0693E+01   5.0075E-06  0.0077
   3.0693E+01   3.1440E+01   4.9418E-06  0.0077
   3.1440E+01   3.2205E+01   4.8167E-06  0.0077
   3.2205E+01   3.2988E+01   4.7190E-06  0.0077
   3.2988E+01   3.3791E+01   4.7109E-06  0.0076
   3.3791E+01   3.4613E+01   4.6299E-06  0.0076
   3.4613E+01   3.5455E+01   4.5680E-06  0.0075
   3.5455E+01   3.6318E+01   4.4020E-06  0.0076
   3.6318E+01   3.7201E+01   4.4323E-06  0.0075
   3.7201E+01   3.8106E+01   4.3311E-06  0.0074
   3.8106E+01   3.9034E+01   4.2756E-06  0.0074
   3.9034E+01   3.9983E+01   4.2434E-06  0.0073
   3.9983E+01   4.0956E+01   4.1307E-06  0.0074
   4.0956E+01   4.1953E+01   4.0878E-06  0.0073
   4.1953E+01   4.2973E+01   4.0101E-06  0.0073
   4.2973E+01   4.4019E+01   3.9545E-06  0.0073
   4.4019E+01   4.5090E+01   3.8947E-06  0.0072
   4.5090E+01   4.6187E+01   3.8438E-06  0.0072
   4.6187E+01   4.7311E+01   3.8264E-06  0.0071
   4.7311E+01   4.8462E+01   3.4630E-06  0.0074
   4.8462E+01   4.9641E+01   2.6569E-06  0.0083
   4.9641E+01   5.0849E+01   2.5513E-06  0.0084
   5.0849E+01   5.2086E+01   2.5039E-06  0.0084
   5.2086E+01   5.3353E+01   2.4364E-06  0.0084
   5.3353E+01   5.4651E+01   2.3614E-06  0.0084
   5.4651E+01   5.5981E+01   2.2802E-06  0.0085
   5.5981E+01   5.7343E+01   2.1698E-06  0.0086
   5.7343E+01   5.8738E+01   2.1259E-06  0.0086
   5.8738E+01   6.0168E+01   2.0337E-06  0.0086
   6.0168E+01   6.1632E+01   1.9299E-06  0.0088
   6.1632E+01   6.3131E+01   1.7998E-06  0.0090
   6.3131E+01   6.4667E+01   1.7295E-06  0.0090
   6.4667E+01   6.6240E+01   1.6280E-06  0.0092
   6.6240E+01   6.7852E+01   1.4953E-06  0.0095
   6.7852E+01   6.9503E+01   1.3861E-06  0.0097
   6.9503E+01   7.1194E+01   1.2193E-06  0.0103
   7.1194E+01   7.2926E+01   1.0632E-06  0.0109
   7.2926E+01   7.4701E+01   9.5295E-07  0.0113
   7.4701E+01   7.6518E+01   2.3874E-07  0.0224
   7.6518E+01   7.8380E+01   0.0000E+00  0.0000
   7.8380E+01   8.0287E+01   0.0000E+00  0.0000
   8.0287E+01   8.2240E+01   0.0000E+00  0.0000
   8.2240E+01   8.4241E+01   0.0000E+00  0.0000
   8.4241E+01   8.6291E+01   0.0000E+00  0.0000
   8.6291E+01   8.8391E+01   0.0000E+00  0.0000
   8.8391E+01   9.0541E+01   0.0000E+00  0.0000
   9.0541E+01   9.2744E+01   0.0000E+00  0.0000
   9.2744E+01   9.5001E+01   0.0000E+00  0.0000
   9.5001E+01   9.7312E+01   0.0000E+00  0.0000
   9.7312E+01   9.9680E+01   0.0000E+00  0.0000
   9.9680E+01   1.0211E+02   0.0000E+00  0.0000
   1.0211E+02   1.0459E+02   0.0000E+00  0.0000
   1.0459E+02   1.0713E+02   0.0000E+00  0.0000
   1.0713E+02   1.0974E+02   0.0000E+00  0.0000
   1.0974E+02   1.1241E+02   0.0000E+00  0.0000
   1.1241E+02   1.1515E+02   0.0000E+00  0.0000
   1.1515E+02   1.1795E+02   0.0000E+00  0.0000
   1.1795E+02   1.2082E+02   0.0000E+00  0.0000
   1.2082E+02   1.2376E+02   0.0000E+00  0.0000
   1.2376E+02   1.2677E+02   0.0000E+00  0.0000
   1.2677E+02   1.2985E+02   0.0000E+00  0.0000
   1.2985E+02   1.3301E+02   0.0000E+00  0.0000
   1.3301E+02   1.3625E+02   0.0000E+00  0.0000
   1.3625E+02   1.3956E+02   0.0000E+00  0.0000
   1.3956E+02   1.4296E+02   0.0000E+00  0.0000
   1.4296E+02   1.4644E+02   0.0000E+00  0.0000
   1.4644E+02   1.5000E+02   0.0000E+00  0.0000

#   sum over                 2.5589E-06
'no. =    1   reg = 100 - 200'
msuc: {\huge [t-cross] in region mesh}
msdr: {\it plotted by \ANGEL \version}
msdl: {\it calculated by \PHITS  3.26}
wt: s(0.7)
\vspace{-3}
  region surface crossing
  area  &=&   1.0000E+00 [cm^2]
e:
 
# Information for Restart Calculation
# This calculation was newly started
# istdev =  2 # 1:Batch variance, 2:History variance
# resc2  = 4.60000000000000000E+09 # Total source weight or Total source weight / maxcas
# resc3  = 4.60000000000000000E+09 # Total history number or Total batch number
# maxcas =   100000000 # History / Batch, only used for istdev=1
# bitrseed = 1111100110010100101101010111101100101000100011111000010111100101 # bit data of rseed
