[ T-Cross ]
    title = [t-cross] in region mesh
     mesh =  reg            # mesh type is region-wise
      reg =    1            # number of crossing regions
      non     r-from    r-to       area
      1       100       200        1.000000    
   e-type =    3            # e-mesh is log given by emin, emax and ne
     emin =  1.0000000E-02  # minimum value of e-mesh points
     emax =   150.0000      # maximum value of e-mesh points
#    edel =  2.4039514E-02  # mesh width of e-mesh points
       ne =    400          # number of e-mesh points
#    data = ( e(i), i = 1, ne + 1 )
#           1.00000E-02  1.02433E-02  1.04925E-02  1.07478E-02  1.10093E-02
#           1.12772E-02  1.15516E-02  1.18326E-02  1.21205E-02  1.24154E-02
#           1.27175E-02  1.30269E-02  1.33439E-02  1.36686E-02  1.40011E-02
#           1.43418E-02  1.46907E-02  1.50482E-02  1.54143E-02  1.57894E-02
#           1.61735E-02  1.65670E-02  1.69701E-02  1.73830E-02  1.78060E-02
#           1.82392E-02  1.86830E-02  1.91375E-02  1.96032E-02  2.00801E-02
#           2.05687E-02  2.10692E-02  2.15818E-02  2.21069E-02  2.26448E-02
#           2.31957E-02  2.37601E-02  2.43382E-02  2.49304E-02  2.55369E-02
#           2.61583E-02  2.67947E-02  2.74467E-02  2.81145E-02  2.87985E-02
#           2.94992E-02  3.02169E-02  3.09521E-02  3.17052E-02  3.24766E-02
#           3.32668E-02  3.40762E-02  3.49053E-02  3.57546E-02  3.66246E-02
#           3.75157E-02  3.84284E-02  3.93634E-02  4.03212E-02  4.13022E-02
#           4.23071E-02  4.33365E-02  4.43909E-02  4.54710E-02  4.65773E-02
#           4.77106E-02  4.88714E-02  5.00605E-02  5.12785E-02  5.25262E-02
#           5.38042E-02  5.51133E-02  5.64542E-02  5.78278E-02  5.92348E-02
#           6.06760E-02  6.21523E-02  6.36645E-02  6.52135E-02  6.68002E-02
#           6.84255E-02  7.00904E-02  7.17957E-02  7.35426E-02  7.53319E-02
#           7.71648E-02  7.90423E-02  8.09655E-02  8.29354E-02  8.49533E-02
#           8.70203E-02  8.91376E-02  9.13064E-02  9.35279E-02  9.58035E-02
#           9.81345E-02  1.00522E-01  1.02968E-01  1.05473E-01  1.08040E-01
#           1.10668E-01  1.13361E-01  1.16119E-01  1.18944E-01  1.21838E-01
#           1.24803E-01  1.27839E-01  1.30950E-01  1.34136E-01  1.37399E-01
#           1.40742E-01  1.44167E-01  1.47675E-01  1.51268E-01  1.54948E-01
#           1.58718E-01  1.62580E-01  1.66535E-01  1.70587E-01  1.74738E-01
#           1.78989E-01  1.83344E-01  1.87805E-01  1.92375E-01  1.97055E-01
#           2.01850E-01  2.06761E-01  2.11792E-01  2.16945E-01  2.22223E-01
#           2.27630E-01  2.33169E-01  2.38842E-01  2.44653E-01  2.50605E-01
#           2.56703E-01  2.62949E-01  2.69346E-01  2.75900E-01  2.82613E-01
#           2.89489E-01  2.96532E-01  3.03747E-01  3.11138E-01  3.18708E-01
#           3.26462E-01  3.34405E-01  3.42542E-01  3.50876E-01  3.59413E-01
#           3.68158E-01  3.77116E-01  3.86291E-01  3.95690E-01  4.05317E-01
#           4.15179E-01  4.25281E-01  4.35628E-01  4.46227E-01  4.57084E-01
#           4.68205E-01  4.79597E-01  4.91266E-01  5.03219E-01  5.15463E-01
#           5.28005E-01  5.40851E-01  5.54011E-01  5.67490E-01  5.81298E-01
#           5.95441E-01  6.09929E-01  6.24769E-01  6.39970E-01  6.55541E-01
#           6.71491E-01  6.87828E-01  7.04564E-01  7.21706E-01  7.39266E-01
#           7.57253E-01  7.75678E-01  7.94551E-01  8.13883E-01  8.33685E-01
#           8.53969E-01  8.74747E-01  8.96030E-01  9.17831E-01  9.40163E-01
#           9.63038E-01  9.86469E-01  1.01047E+00  1.03506E+00  1.06024E+00
#           1.08604E+00  1.11246E+00  1.13953E+00  1.16725E+00  1.19565E+00
#           1.22474E+00  1.25454E+00  1.28507E+00  1.31633E+00  1.34836E+00
#           1.38117E+00  1.41477E+00  1.44920E+00  1.48446E+00  1.52057E+00
#           1.55757E+00  1.59547E+00  1.63429E+00  1.67405E+00  1.71478E+00
#           1.75650E+00  1.79924E+00  1.84302E+00  1.88786E+00  1.93379E+00
#           1.98084E+00  2.02904E+00  2.07841E+00  2.12898E+00  2.18078E+00
#           2.23384E+00  2.28819E+00  2.34386E+00  2.40089E+00  2.45930E+00
#           2.51914E+00  2.58043E+00  2.64322E+00  2.70753E+00  2.77341E+00
#           2.84088E+00  2.91001E+00  2.98081E+00  3.05333E+00  3.12762E+00
#           3.20372E+00  3.28167E+00  3.36152E+00  3.44330E+00  3.52708E+00
#           3.61290E+00  3.70080E+00  3.79085E+00  3.88308E+00  3.97756E+00
#           4.07434E+00  4.17347E+00  4.27501E+00  4.37903E+00  4.48557E+00
#           4.59471E+00  4.70650E+00  4.82102E+00  4.93832E+00  5.05847E+00
#           5.18155E+00  5.30762E+00  5.43676E+00  5.56904E+00  5.70453E+00
#           5.84333E+00  5.98550E+00  6.13114E+00  6.28031E+00  6.43312E+00
#           6.58964E+00  6.74997E+00  6.91420E+00  7.08243E+00  7.25475E+00
#           7.43126E+00  7.61207E+00  7.79728E+00  7.98700E+00  8.18133E+00
#           8.38038E+00  8.58428E+00  8.79315E+00  9.00709E+00  9.22624E+00
#           9.45072E+00  9.68067E+00  9.91620E+00  1.01575E+01  1.04046E+01
#           1.06578E+01  1.09171E+01  1.11827E+01  1.14548E+01  1.17335E+01
#           1.20190E+01  1.23114E+01  1.26109E+01  1.29178E+01  1.32321E+01
#           1.35540E+01  1.38838E+01  1.42216E+01  1.45676E+01  1.49221E+01
#           1.52851E+01  1.56570E+01  1.60380E+01  1.64282E+01  1.68279E+01
#           1.72374E+01  1.76568E+01  1.80864E+01  1.85264E+01  1.89772E+01
#           1.94389E+01  1.99119E+01  2.03963E+01  2.08926E+01  2.14009E+01
#           2.19216E+01  2.24550E+01  2.30014E+01  2.35610E+01  2.41343E+01
#           2.47215E+01  2.53230E+01  2.59391E+01  2.65702E+01  2.72167E+01
#           2.78789E+01  2.85572E+01  2.92520E+01  2.99637E+01  3.06928E+01
#           3.14396E+01  3.22045E+01  3.29881E+01  3.37907E+01  3.46128E+01
#           3.54550E+01  3.63177E+01  3.72013E+01  3.81064E+01  3.90336E+01
#           3.99833E+01  4.09561E+01  4.19526E+01  4.29734E+01  4.40189E+01
#           4.50900E+01  4.61870E+01  4.73108E+01  4.84619E+01  4.96410E+01
#           5.08488E+01  5.20860E+01  5.33533E+01  5.46514E+01  5.59812E+01
#           5.73432E+01  5.87384E+01  6.01676E+01  6.16315E+01  6.31311E+01
#           6.46671E+01  6.62405E+01  6.78522E+01  6.95031E+01  7.11941E+01
#           7.29263E+01  7.47007E+01  7.65182E+01  7.83800E+01  8.02870E+01
#           8.22405E+01  8.42414E+01  8.62911E+01  8.83906E+01  9.05412E+01
#           9.27442E+01  9.50007E+01  9.73122E+01  9.96799E+01  1.02105E+02
#           1.04589E+02  1.07134E+02  1.09741E+02  1.12411E+02  1.15146E+02
#           1.17948E+02  1.20817E+02  1.23757E+02  1.26768E+02  1.29852E+02
#           1.33012E+02  1.36248E+02  1.39563E+02  1.42959E+02  1.46437E+02
#           1.50000E+02
     unit =    2            # unit is [1/cm^2/(MeV/n)/source]
     axis =  eng            # axis of output
     file = detector-01.out  # file name of output for the above axis
   output = f-curr          # surface crossing forward current spectrum
     part =  neutron  
# kf/name :  2112     
#    used :        main (  %)        temp (  %)       total (  %)
#  memory :         414 (  0)           0 (  0)         414 (  0)

#------------------------------------------------------------------------------
#newpage:
#   no. =    1   reg = 100 - 200

x: Energy [MeV/n]
y:  F-Curr [1/cm^2/(MeV/n)/source]         
p: xlog ylog afac(0.8) form(0.9)
h: n            x            y(neutron ),hh0l   n 
#  e-lower      e-upper      neutron     r.err 
   1.0000E-02   1.0243E-02   2.7760E-05  0.1715
   1.0243E-02   1.0493E-02   1.9200E-05  0.2041
   1.0493E-02   1.0748E-02   1.9519E-05  0.2000
   1.0748E-02   1.1009E-02   2.7278E-05  0.1668
   1.1009E-02   1.1277E-02   2.1535E-05  0.1857
   1.1277E-02   1.1552E-02   2.0211E-05  0.1891
   1.1552E-02   1.1833E-02   1.6883E-05  0.2043
   1.1833E-02   1.2121E-02   1.4349E-05  0.2185
   1.2121E-02   1.2415E-02   1.9457E-05  0.1851
   1.2415E-02   1.2718E-02   2.2530E-05  0.1694
   1.2718E-02   1.3027E-02   2.5723E-05  0.1581
   1.3027E-02   1.3344E-02   1.4464E-05  0.2085
   1.3344E-02   1.3669E-02   1.2791E-05  0.2183
   1.3669E-02   1.4001E-02   2.0483E-05  0.1702
   1.4001E-02   1.4342E-02   1.5155E-05  0.1946
   1.4342E-02   1.4691E-02   1.7016E-05  0.1827
   1.4691E-02   1.5048E-02   2.1971E-05  0.1583
   1.5048E-02   1.5414E-02   1.5661E-05  0.1858
   1.5414E-02   1.5789E-02   1.4333E-05  0.1925
   1.5789E-02   1.6174E-02   1.0865E-05  0.2183
   1.6174E-02   1.6567E-02   1.4176E-05  0.1890
   1.6567E-02   1.6970E-02   1.4459E-05  0.1845
   1.6970E-02   1.7383E-02   1.5577E-05  0.1751
   1.7383E-02   1.7806E-02   1.0752E-05  0.2087
   1.7806E-02   1.8239E-02   1.5479E-05  0.1717
   1.8239E-02   1.8683E-02   1.6987E-05  0.1623
   1.8683E-02   1.9138E-02   1.3567E-05  0.1796
   1.9138E-02   1.9603E-02   1.4942E-05  0.1684
   1.9603E-02   2.0080E-02   1.7690E-05  0.1530
   2.0080E-02   2.0569E-02   1.0607E-05  0.1961
   2.0569E-02   2.1069E-02   1.4994E-05  0.1624
   2.1069E-02   2.1582E-02   1.1904E-05  0.1800
   2.1582E-02   2.2107E-02   1.2002E-05  0.1770
   2.2107E-02   2.2645E-02   1.0744E-05  0.1857
   2.2645E-02   2.3196E-02   1.0831E-05  0.1826
   2.3196E-02   2.3760E-02   1.2354E-05  0.1690
   2.3760E-02   2.4338E-02   1.2827E-05  0.1634
   2.4338E-02   2.4930E-02   7.6759E-06  0.2087
   2.4930E-02   2.5537E-02   1.4040E-05  0.1527
   2.5537E-02   2.6158E-02   9.2206E-06  0.1858
   2.6158E-02   2.6795E-02   8.1489E-06  0.1961
   2.6795E-02   2.7447E-02   1.1916E-05  0.1601
   2.7447E-02   2.8114E-02   1.0713E-05  0.1667
   2.8114E-02   2.8799E-02   1.0117E-05  0.1691
   2.8799E-02   2.9499E-02   1.0062E-05  0.1669
   2.9499E-02   3.0217E-02   7.6821E-06  0.1892
   3.0217E-02   3.0952E-02   9.4851E-06  0.1690
   3.0952E-02   3.1705E-02   9.4603E-06  0.1667
   3.1705E-02   3.2477E-02   6.1984E-06  0.2041
   3.2477E-02   3.3267E-02   8.2476E-06  0.1742
   3.3267E-02   3.4076E-02   5.8965E-06  0.2041
   3.4076E-02   3.4905E-02   9.1408E-06  0.1622
   3.4905E-02   3.5755E-02   9.5302E-06  0.1564
   3.5755E-02   3.6625E-02   6.8019E-06  0.1828
   3.6625E-02   3.7516E-02   6.9425E-06  0.1796
   3.7516E-02   3.8428E-02   5.9468E-06  0.1911
   3.8428E-02   3.9363E-02   6.5789E-06  0.1796
   3.9363E-02   4.0321E-02   6.2075E-06  0.1827
   4.0321E-02   4.1302E-02   7.2933E-06  0.1667
   4.1302E-02   4.2307E-02   7.9396E-06  0.1581
   4.2307E-02   4.3337E-02   8.5399E-06  0.1501
   4.3337E-02   4.4391E-02   7.3295E-06  0.1602
   4.4391E-02   4.5471E-02   5.9081E-06  0.1768
   4.5471E-02   4.6577E-02   4.9333E-06  0.1900
   4.6577E-02   4.7711E-02   7.3891E-06  0.1543
   4.7711E-02   4.8871E-02   5.6513E-06  0.1741
   4.8871E-02   5.0061E-02   5.9510E-06  0.1669
   5.0061E-02   5.1279E-02   6.3740E-06  0.1601
   5.1279E-02   5.2526E-02   5.7455E-06  0.1667
   5.2526E-02   5.3804E-02   4.9747E-06  0.1768
   5.3804E-02   5.5113E-02   4.4148E-06  0.1857
   5.5113E-02   5.6454E-02   6.0918E-06  0.1562
   5.6454E-02   5.7828E-02   6.6758E-06  0.1467
   5.7828E-02   5.9235E-02   5.0944E-06  0.1667
   5.9235E-02   6.0676E-02   4.6984E-06  0.1715
   6.0676E-02   6.2152E-02   5.1019E-06  0.1623
   6.2152E-02   6.3665E-02   5.2954E-06  0.1574
   6.3665E-02   6.5214E-02   4.3678E-06  0.1715
   6.5214E-02   6.6800E-02   4.5006E-06  0.1667
   6.6800E-02   6.8426E-02   3.6921E-06  0.1809
   6.8426E-02   7.0090E-02   4.1910E-06  0.1690
   7.0090E-02   7.1796E-02   3.9622E-06  0.1715
   7.1796E-02   7.3543E-02   5.0109E-06  0.1508
   7.3543E-02   7.5332E-02   5.4556E-06  0.1429
   7.5332E-02   7.7165E-02   2.3748E-06  0.2133
   7.7165E-02   7.9042E-02   4.1367E-06  0.1601
   7.9042E-02   8.0965E-02   3.7229E-06  0.1667
   8.0965E-02   8.2935E-02   3.9929E-06  0.1583
   8.2935E-02   8.4953E-02   3.6484E-06  0.1644
   8.4953E-02   8.7020E-02   3.5078E-06  0.1648
   8.7020E-02   8.9138E-02   4.5872E-06  0.1429
   8.9138E-02   9.1306E-02   3.1131E-06  0.1715
   9.1306E-02   9.3528E-02   4.1115E-06  0.1475
   9.3528E-02   9.5804E-02   3.0635E-06  0.1690
   9.5804E-02   9.8134E-02   4.1859E-06  0.1429
   9.8134E-02   1.0052E-01   3.4026E-06  0.1562
   1.0052E-01   1.0297E-01   4.1022E-06  0.1406
   1.0297E-01   1.0547E-01   3.8142E-06  0.1443
   1.0547E-01   1.0804E-01   3.3339E-06  0.1525
   1.0804E-01   1.1067E-01   4.0043E-06  0.1374
   1.1067E-01   1.1336E-01   4.2867E-06  0.1313
   1.1336E-01   1.1612E-01   3.7986E-06  0.1375
   1.1612E-01   1.1894E-01   4.3580E-06  0.1267
   1.1894E-01   1.2184E-01   4.2962E-06  0.1262
   1.2184E-01   1.2480E-01   5.2088E-06  0.1130
   1.2480E-01   1.2784E-01   4.7257E-06  0.1169
   1.2784E-01   1.3095E-01   5.4815E-06  0.1077
   1.3095E-01   1.3414E-01   5.6222E-06  0.1054
   1.3414E-01   1.3740E-01   5.9527E-06  0.1011
   1.3740E-01   1.4074E-01   6.3067E-06  0.0967
   1.4074E-01   1.4417E-01   7.3995E-06  0.0885
   1.4417E-01   1.4767E-01   6.9392E-06  0.0901
   1.4767E-01   1.5127E-01   6.5445E-06  0.0919
   1.5127E-01   1.5495E-01   6.8543E-06  0.0886
   1.5495E-01   1.5872E-01   7.2635E-06  0.0852
   1.5872E-01   1.6258E-01   7.4759E-06  0.0827
   1.6258E-01   1.6654E-01   6.5888E-06  0.0874
   1.6654E-01   1.7059E-01   7.9132E-06  0.0788
   1.7059E-01   1.7474E-01   8.2977E-06  0.0758
   1.7474E-01   1.7899E-01   8.4952E-06  0.0740
   1.7899E-01   1.8334E-01   8.9026E-06  0.0715
   1.8334E-01   1.8781E-01   1.0529E-05  0.0650
   1.8781E-01   1.9237E-01   9.8433E-06  0.0663
   1.9237E-01   1.9706E-01   8.1828E-06  0.0718
   1.9706E-01   2.0185E-01   1.0928E-05  0.0615
   2.0185E-01   2.0676E-01   1.0020E-05  0.0635
   2.0676E-01   2.1179E-01   1.1660E-05  0.0581
   2.1179E-01   2.1694E-01   1.0643E-05  0.0602
   2.1694E-01   2.2222E-01   1.2157E-05  0.0556
   2.2222E-01   2.2763E-01   1.1098E-05  0.0574
   2.2763E-01   2.3317E-01   1.2638E-05  0.0532
   2.3317E-01   2.3884E-01   1.1929E-05  0.0541
   2.3884E-01   2.4465E-01   1.3369E-05  0.0505
   2.4465E-01   2.5061E-01   1.4626E-05  0.0478
   2.5061E-01   2.5670E-01   1.4922E-05  0.0467
   2.5670E-01   2.6295E-01   1.4107E-05  0.0474
   2.6295E-01   2.6935E-01   1.4109E-05  0.0468
   2.6935E-01   2.7590E-01   1.4996E-05  0.0449
   2.7590E-01   2.8261E-01   1.4442E-05  0.0452
   2.8261E-01   2.8949E-01   1.6412E-05  0.0419
   2.8949E-01   2.9653E-01   1.5957E-05  0.0420
   2.9653E-01   3.0375E-01   1.6907E-05  0.0403
   3.0375E-01   3.1114E-01   1.6432E-05  0.0404
   3.1114E-01   3.1871E-01   1.7405E-05  0.0388
   3.1871E-01   3.2646E-01   1.8164E-05  0.0375
   3.2646E-01   3.3441E-01   1.8099E-05  0.0371
   3.3441E-01   3.4254E-01   1.8290E-05  0.0365
   3.4254E-01   3.5088E-01   1.8878E-05  0.0355
   3.5088E-01   3.5941E-01   1.9938E-05  0.0341
   3.5941E-01   3.6816E-01   1.9660E-05  0.0340
   3.6816E-01   3.7712E-01   2.0820E-05  0.0326
   3.7712E-01   3.8629E-01   1.9553E-05  0.0332
   3.8629E-01   3.9569E-01   1.9996E-05  0.0325
   3.9569E-01   4.0532E-01   2.1723E-05  0.0307
   4.0532E-01   4.1518E-01   2.1844E-05  0.0303
   4.1518E-01   4.2528E-01   2.1893E-05  0.0299
   4.2528E-01   4.3563E-01   2.1299E-05  0.0299
   4.3563E-01   4.4623E-01   2.1907E-05  0.0292
   4.4623E-01   4.5708E-01   2.3125E-05  0.0281
   4.5708E-01   4.6821E-01   2.2611E-05  0.0280
   4.6821E-01   4.7960E-01   2.3426E-05  0.0273
   4.7960E-01   4.9127E-01   2.4169E-05  0.0265
   4.9127E-01   5.0322E-01   2.3376E-05  0.0266
   5.0322E-01   5.1546E-01   2.4234E-05  0.0258
   5.1546E-01   5.2800E-01   2.3146E-05  0.0261
   5.2800E-01   5.4085E-01   2.4797E-05  0.0249
   5.4085E-01   5.5401E-01   2.4704E-05  0.0247
   5.5401E-01   5.6749E-01   2.4680E-05  0.0244
   5.6749E-01   5.8130E-01   2.4513E-05  0.0242
   5.8130E-01   5.9544E-01   2.4293E-05  0.0240
   5.9544E-01   6.0993E-01   2.5022E-05  0.0233
   6.0993E-01   6.2477E-01   2.4496E-05  0.0233
   6.2477E-01   6.3997E-01   2.5098E-05  0.0227
   6.3997E-01   6.5554E-01   2.4039E-05  0.0230
   6.5554E-01   6.7149E-01   2.4494E-05  0.0225
   6.7149E-01   6.8783E-01   2.4880E-05  0.0220
   6.8783E-01   7.0456E-01   2.3753E-05  0.0223
   7.0456E-01   7.2171E-01   2.3768E-05  0.0220
   7.2171E-01   7.3927E-01   2.4498E-05  0.0214
   7.3927E-01   7.5725E-01   2.3981E-05  0.0214
   7.5725E-01   7.7568E-01   2.3277E-05  0.0214
   7.7568E-01   7.9455E-01   2.2812E-05  0.0214
   7.9455E-01   8.1388E-01   2.2714E-05  0.0212
   8.1388E-01   8.3368E-01   2.1614E-05  0.0214
   8.3368E-01   8.5397E-01   2.2492E-05  0.0208
   8.5397E-01   8.7475E-01   2.1919E-05  0.0208
   8.7475E-01   8.9603E-01   2.0344E-05  0.0213
   8.9603E-01   9.1783E-01   2.0970E-05  0.0207
   9.1783E-01   9.4016E-01   1.9657E-05  0.0212
   9.4016E-01   9.6304E-01   1.9388E-05  0.0210
   9.6304E-01   9.8647E-01   1.8715E-05  0.0212
   9.8647E-01   1.0105E+00   1.7930E-05  0.0214
   1.0105E+00   1.0351E+00   1.7423E-05  0.0214
   1.0351E+00   1.0602E+00   1.8114E-05  0.0207
   1.0602E+00   1.0860E+00   1.8502E-05  0.0203
   1.0860E+00   1.1125E+00   1.8847E-05  0.0199
   1.1125E+00   1.1395E+00   1.9650E-05  0.0192
   1.1395E+00   1.1673E+00   1.9375E-05  0.0191
   1.1673E+00   1.1957E+00   2.0075E-05  0.0185
   1.1957E+00   1.2247E+00   2.0538E-05  0.0181
   1.2247E+00   1.2545E+00   2.0850E-05  0.0177
   1.2545E+00   1.2851E+00   2.0632E-05  0.0176
   1.2851E+00   1.3163E+00   2.1706E-05  0.0170
   1.3163E+00   1.3484E+00   2.1794E-05  0.0167
   1.3484E+00   1.3812E+00   2.1883E-05  0.0165
   1.3812E+00   1.4148E+00   2.3252E-05  0.0158
   1.4148E+00   1.4492E+00   2.2136E-05  0.0160
   1.4492E+00   1.4845E+00   2.3192E-05  0.0154
   1.4845E+00   1.5206E+00   2.3404E-05  0.0152
   1.5206E+00   1.5576E+00   2.2655E-05  0.0152
   1.5576E+00   1.5955E+00   2.2442E-05  0.0151
   1.5955E+00   1.6343E+00   2.3122E-05  0.0147
   1.6343E+00   1.6741E+00   2.1933E-05  0.0149
   1.6741E+00   1.7148E+00   2.3367E-05  0.0143
   1.7148E+00   1.7565E+00   2.2467E-05  0.0144
   1.7565E+00   1.7992E+00   2.1288E-05  0.0145
   1.7992E+00   1.8430E+00   2.0720E-05  0.0145
   1.8430E+00   1.8879E+00   2.0764E-05  0.0143
   1.8879E+00   1.9338E+00   1.9887E-05  0.0144
   1.9338E+00   1.9808E+00   2.0140E-05  0.0142
   1.9808E+00   2.0290E+00   2.0280E-05  0.0139
   2.0290E+00   2.0784E+00   2.0626E-05  0.0136
   2.0784E+00   2.1290E+00   2.1312E-05  0.0133
   2.1290E+00   2.1808E+00   2.0739E-05  0.0133
   2.1808E+00   2.2338E+00   2.0848E-05  0.0131
   2.2338E+00   2.2882E+00   2.1091E-05  0.0129
   2.2882E+00   2.3439E+00   2.0587E-05  0.0129
   2.3439E+00   2.4009E+00   2.0541E-05  0.0128
   2.4009E+00   2.4593E+00   1.9908E-05  0.0128
   2.4593E+00   2.5191E+00   1.9741E-05  0.0127
   2.5191E+00   2.5804E+00   2.0217E-05  0.0124
   2.5804E+00   2.6432E+00   2.0112E-05  0.0123
   2.6432E+00   2.7075E+00   1.9719E-05  0.0123
   2.7075E+00   2.7734E+00   1.9754E-05  0.0121
   2.7734E+00   2.8409E+00   1.9366E-05  0.0121
   2.8409E+00   2.9100E+00   1.9529E-05  0.0119
   2.9100E+00   2.9808E+00   1.9716E-05  0.0117
   2.9808E+00   3.0533E+00   1.9410E-05  0.0117
   3.0533E+00   3.1276E+00   1.8996E-05  0.0117
   3.1276E+00   3.2037E+00   1.9160E-05  0.0115
   3.2037E+00   3.2817E+00   1.8815E-05  0.0115
   3.2817E+00   3.3615E+00   1.8512E-05  0.0114
   3.3615E+00   3.4433E+00   1.8622E-05  0.0113
   3.4433E+00   3.5271E+00   1.8397E-05  0.0112
   3.5271E+00   3.6129E+00   1.8053E-05  0.0112
   3.6129E+00   3.7008E+00   1.8091E-05  0.0110
   3.7008E+00   3.7908E+00   1.7720E-05  0.0110
   3.7908E+00   3.8831E+00   1.7361E-05  0.0110
   3.8831E+00   3.9776E+00   1.7637E-05  0.0108
   3.9776E+00   4.0743E+00   1.7426E-05  0.0107
   4.0743E+00   4.1735E+00   1.7063E-05  0.0107
   4.1735E+00   4.2750E+00   1.6890E-05  0.0106
   4.2750E+00   4.3790E+00   1.6654E-05  0.0106
   4.3790E+00   4.4856E+00   1.6080E-05  0.0106
   4.4856E+00   4.5947E+00   1.5904E-05  0.0106
   4.5947E+00   4.7065E+00   1.5819E-05  0.0105
   4.7065E+00   4.8210E+00   1.5579E-05  0.0104
   4.8210E+00   4.9383E+00   1.5580E-05  0.0103
   4.9383E+00   5.0585E+00   1.5209E-05  0.0103
   5.0585E+00   5.1815E+00   1.5063E-05  0.0102
   5.1815E+00   5.3076E+00   1.4631E-05  0.0103
   5.3076E+00   5.4368E+00   1.4637E-05  0.0101
   5.4368E+00   5.5690E+00   1.4475E-05  0.0101
   5.5690E+00   5.7045E+00   1.3917E-05  0.0101
   5.7045E+00   5.8433E+00   1.4371E-05  0.0099
   5.8433E+00   5.9855E+00   1.4120E-05  0.0098
   5.9855E+00   6.1311E+00   1.3721E-05  0.0099
   6.1311E+00   6.2803E+00   1.3544E-05  0.0098
   6.2803E+00   6.4331E+00   1.3397E-05  0.0098
   6.4331E+00   6.5896E+00   1.2973E-05  0.0098
   6.5896E+00   6.7500E+00   1.2964E-05  0.0097
   6.7500E+00   6.9142E+00   1.2787E-05  0.0096
   6.9142E+00   7.0824E+00   1.2748E-05  0.0095
   7.0824E+00   7.2548E+00   1.2688E-05  0.0095
   7.2548E+00   7.4313E+00   1.2489E-05  0.0094
   7.4313E+00   7.6121E+00   1.2095E-05  0.0095
   7.6121E+00   7.7973E+00   1.1819E-05  0.0094
   7.7973E+00   7.9870E+00   1.1833E-05  0.0093
   7.9870E+00   8.1813E+00   1.1404E-05  0.0094
   8.1813E+00   8.3804E+00   1.1564E-05  0.0092
   8.3804E+00   8.5843E+00   1.0973E-05  0.0094
   8.5843E+00   8.7931E+00   1.1055E-05  0.0092
   8.7931E+00   9.0071E+00   1.0595E-05  0.0093
   9.0071E+00   9.2262E+00   1.0288E-05  0.0093
   9.2262E+00   9.4507E+00   1.0202E-05  0.0093
   9.4507E+00   9.6807E+00   1.0088E-05  0.0092
   9.6807E+00   9.9162E+00   9.9152E-06  0.0092
   9.9162E+00   1.0157E+01   9.9318E-06  0.0091
   1.0157E+01   1.0405E+01   1.0006E-05  0.0090
   1.0405E+01   1.0658E+01   9.8802E-06  0.0089
   1.0658E+01   1.0917E+01   9.5544E-06  0.0090
   1.0917E+01   1.1183E+01   9.2948E-06  0.0090
   1.1183E+01   1.1455E+01   9.2155E-06  0.0089
   1.1455E+01   1.1733E+01   8.9651E-06  0.0089
   1.1733E+01   1.2019E+01   8.7706E-06  0.0089
   1.2019E+01   1.2311E+01   8.7549E-06  0.0088
   1.2311E+01   1.2611E+01   8.8173E-06  0.0087
   1.2611E+01   1.2918E+01   8.6731E-06  0.0087
   1.2918E+01   1.3232E+01   8.4102E-06  0.0087
   1.3232E+01   1.3554E+01   8.2446E-06  0.0087
   1.3554E+01   1.3884E+01   8.1262E-06  0.0086
   1.3884E+01   1.4222E+01   8.1468E-06  0.0085
   1.4222E+01   1.4568E+01   8.0167E-06  0.0085
   1.4568E+01   1.4922E+01   7.7621E-06  0.0085
   1.4922E+01   1.5285E+01   7.8176E-06  0.0084
   1.5285E+01   1.5657E+01   7.6380E-06  0.0084
   1.5657E+01   1.6038E+01   7.6520E-06  0.0083
   1.6038E+01   1.6428E+01   7.5160E-06  0.0083
   1.6428E+01   1.6828E+01   7.3313E-06  0.0083
   1.6828E+01   1.7237E+01   7.1980E-06  0.0082
   1.7237E+01   1.7657E+01   7.0792E-06  0.0082
   1.7657E+01   1.8086E+01   6.9545E-06  0.0082
   1.8086E+01   1.8526E+01   6.8165E-06  0.0082
   1.8526E+01   1.8977E+01   6.7418E-06  0.0081
   1.8977E+01   1.9439E+01   6.6996E-06  0.0080
   1.9439E+01   1.9912E+01   6.6329E-06  0.0080
   1.9912E+01   2.0396E+01   6.5676E-06  0.0079
   2.0396E+01   2.0893E+01   6.4559E-06  0.0079
   2.0893E+01   2.1401E+01   6.3391E-06  0.0079
   2.1401E+01   2.1922E+01   6.2158E-06  0.0079
   2.1922E+01   2.2455E+01   6.0502E-06  0.0079
   2.2455E+01   2.3001E+01   6.0456E-06  0.0078
   2.3001E+01   2.3561E+01   5.9088E-06  0.0078
   2.3561E+01   2.4134E+01   5.7632E-06  0.0078
   2.4134E+01   2.4721E+01   5.6028E-06  0.0078
   2.4721E+01   2.5323E+01   5.4980E-06  0.0078
   2.5323E+01   2.5939E+01   5.3911E-06  0.0078
   2.5939E+01   2.6570E+01   5.3175E-06  0.0077
   2.6570E+01   2.7217E+01   5.1557E-06  0.0077
   2.7217E+01   2.7879E+01   5.0253E-06  0.0078
   2.7879E+01   2.8557E+01   5.4529E-06  0.0074
   2.8557E+01   2.9252E+01   5.8366E-06  0.0070
   2.9252E+01   2.9964E+01   5.6589E-06  0.0070
   2.9964E+01   3.0693E+01   5.6150E-06  0.0070
   3.0693E+01   3.1440E+01   5.5087E-06  0.0070
   3.1440E+01   3.2205E+01   5.4519E-06  0.0069
   3.2205E+01   3.2988E+01   5.4056E-06  0.0069
   3.2988E+01   3.3791E+01   5.2298E-06  0.0069
   3.3791E+01   3.4613E+01   5.1839E-06  0.0069
   3.4613E+01   3.5455E+01   5.0242E-06  0.0069
   3.5455E+01   3.6318E+01   5.0906E-06  0.0067
   3.6318E+01   3.7201E+01   4.9760E-06  0.0067
   3.7201E+01   3.8106E+01   4.8830E-06  0.0067
   3.8106E+01   3.9034E+01   4.7433E-06  0.0067
   3.9034E+01   3.9983E+01   4.8261E-06  0.0066
   3.9983E+01   4.0956E+01   4.7647E-06  0.0066
   4.0956E+01   4.1953E+01   4.6088E-06  0.0066
   4.1953E+01   4.2973E+01   4.5579E-06  0.0066
   4.2973E+01   4.4019E+01   4.4741E-06  0.0065
   4.4019E+01   4.5090E+01   4.3682E-06  0.0065
   4.5090E+01   4.6187E+01   4.3368E-06  0.0065
   4.6187E+01   4.7311E+01   4.3263E-06  0.0064
   4.7311E+01   4.8462E+01   3.8997E-06  0.0067
   4.8462E+01   4.9641E+01   3.1742E-06  0.0073
   4.9641E+01   5.0849E+01   3.0926E-06  0.0073
   5.0849E+01   5.2086E+01   3.0771E-06  0.0072
   5.2086E+01   5.3353E+01   2.9789E-06  0.0073
   5.3353E+01   5.4651E+01   2.8811E-06  0.0073
   5.4651E+01   5.5981E+01   2.8171E-06  0.0073
   5.5981E+01   5.7343E+01   2.7514E-06  0.0073
   5.7343E+01   5.8738E+01   2.6739E-06  0.0073
   5.8738E+01   6.0168E+01   2.6539E-06  0.0073
   6.0168E+01   6.1632E+01   2.5649E-06  0.0073
   6.1632E+01   6.3131E+01   2.4680E-06  0.0074
   6.3131E+01   6.4667E+01   2.4285E-06  0.0073
   6.4667E+01   6.6240E+01   2.3307E-06  0.0074
   6.6240E+01   6.7852E+01   2.2614E-06  0.0074
   6.7852E+01   6.9503E+01   2.1918E-06  0.0074
   6.9503E+01   7.1194E+01   2.1200E-06  0.0075
   7.1194E+01   7.2926E+01   2.0539E-06  0.0075
   7.2926E+01   7.4701E+01   1.9387E-06  0.0076
   7.4701E+01   7.6518E+01   1.8383E-06  0.0077
   7.6518E+01   7.8380E+01   1.7143E-06  0.0079
   7.8380E+01   8.0287E+01   1.6143E-06  0.0081
   8.0287E+01   8.2240E+01   1.4845E-06  0.0083
   8.2240E+01   8.4241E+01   1.3488E-06  0.0086
   8.4241E+01   8.6291E+01   1.1369E-06  0.0093
   8.6291E+01   8.8391E+01   9.8289E-07  0.0098
   8.8391E+01   9.0541E+01   3.4651E-07  0.0164
   9.0541E+01   9.2744E+01   0.0000E+00  0.0000
   9.2744E+01   9.5001E+01   0.0000E+00  0.0000
   9.5001E+01   9.7312E+01   0.0000E+00  0.0000
   9.7312E+01   9.9680E+01   0.0000E+00  0.0000
   9.9680E+01   1.0211E+02   0.0000E+00  0.0000
   1.0211E+02   1.0459E+02   0.0000E+00  0.0000
   1.0459E+02   1.0713E+02   0.0000E+00  0.0000
   1.0713E+02   1.0974E+02   0.0000E+00  0.0000
   1.0974E+02   1.1241E+02   0.0000E+00  0.0000
   1.1241E+02   1.1515E+02   0.0000E+00  0.0000
   1.1515E+02   1.1795E+02   0.0000E+00  0.0000
   1.1795E+02   1.2082E+02   0.0000E+00  0.0000
   1.2082E+02   1.2376E+02   0.0000E+00  0.0000
   1.2376E+02   1.2677E+02   0.0000E+00  0.0000
   1.2677E+02   1.2985E+02   0.0000E+00  0.0000
   1.2985E+02   1.3301E+02   0.0000E+00  0.0000
   1.3301E+02   1.3625E+02   0.0000E+00  0.0000
   1.3625E+02   1.3956E+02   0.0000E+00  0.0000
   1.3956E+02   1.4296E+02   0.0000E+00  0.0000
   1.4296E+02   1.4644E+02   0.0000E+00  0.0000
   1.4644E+02   1.5000E+02   0.0000E+00  0.0000

#   sum over                 3.1154E-06
'no. =    1   reg = 100 - 200'
msuc: {\huge [t-cross] in region mesh}
msdr: {\it plotted by \ANGEL \version}
msdl: {\it calculated by \PHITS  3.26}
wt: s(0.7)
\vspace{-3}
  region surface crossing
  area  &=&   1.0000E+00 [cm^2]
e:
 
# Information for Restart Calculation
# This calculation was newly started
# istdev =  2 # 1:Batch variance, 2:History variance
# resc2  = 5.00000000000000000E+09 # Total source weight or Total source weight / maxcas
# resc3  = 5.00000000000000000E+09 # Total history number or Total batch number
# maxcas =   100000000 # History / Batch, only used for istdev=1
# bitrseed = 0110100000100010111000001110001111001110100100011111101000111001 # bit data of rseed
