[ T-Cross ]
    title = [t-cross] in region mesh
     mesh =  reg            # mesh type is region-wise
      reg =    1            # number of crossing regions
      non     r-from    r-to       area
      1       105       205        1.000000    
   e-type =    3            # e-mesh is log given by emin, emax and ne
     emin =  1.0000000E-02  # minimum value of e-mesh points
     emax =   150.0000      # maximum value of e-mesh points
#    edel =  2.4039514E-02  # mesh width of e-mesh points
       ne =    400          # number of e-mesh points
#    data = ( e(i), i = 1, ne + 1 )
#           1.00000E-02  1.02433E-02  1.04925E-02  1.07478E-02  1.10093E-02
#           1.12772E-02  1.15516E-02  1.18326E-02  1.21205E-02  1.24154E-02
#           1.27175E-02  1.30269E-02  1.33439E-02  1.36686E-02  1.40011E-02
#           1.43418E-02  1.46907E-02  1.50482E-02  1.54143E-02  1.57894E-02
#           1.61735E-02  1.65670E-02  1.69701E-02  1.73830E-02  1.78060E-02
#           1.82392E-02  1.86830E-02  1.91375E-02  1.96032E-02  2.00801E-02
#           2.05687E-02  2.10692E-02  2.15818E-02  2.21069E-02  2.26448E-02
#           2.31957E-02  2.37601E-02  2.43382E-02  2.49304E-02  2.55369E-02
#           2.61583E-02  2.67947E-02  2.74467E-02  2.81145E-02  2.87985E-02
#           2.94992E-02  3.02169E-02  3.09521E-02  3.17052E-02  3.24766E-02
#           3.32668E-02  3.40762E-02  3.49053E-02  3.57546E-02  3.66246E-02
#           3.75157E-02  3.84284E-02  3.93634E-02  4.03212E-02  4.13022E-02
#           4.23071E-02  4.33365E-02  4.43909E-02  4.54710E-02  4.65773E-02
#           4.77106E-02  4.88714E-02  5.00605E-02  5.12785E-02  5.25262E-02
#           5.38042E-02  5.51133E-02  5.64542E-02  5.78278E-02  5.92348E-02
#           6.06760E-02  6.21523E-02  6.36645E-02  6.52135E-02  6.68002E-02
#           6.84255E-02  7.00904E-02  7.17957E-02  7.35426E-02  7.53319E-02
#           7.71648E-02  7.90423E-02  8.09655E-02  8.29354E-02  8.49533E-02
#           8.70203E-02  8.91376E-02  9.13064E-02  9.35279E-02  9.58035E-02
#           9.81345E-02  1.00522E-01  1.02968E-01  1.05473E-01  1.08040E-01
#           1.10668E-01  1.13361E-01  1.16119E-01  1.18944E-01  1.21838E-01
#           1.24803E-01  1.27839E-01  1.30950E-01  1.34136E-01  1.37399E-01
#           1.40742E-01  1.44167E-01  1.47675E-01  1.51268E-01  1.54948E-01
#           1.58718E-01  1.62580E-01  1.66535E-01  1.70587E-01  1.74738E-01
#           1.78989E-01  1.83344E-01  1.87805E-01  1.92375E-01  1.97055E-01
#           2.01850E-01  2.06761E-01  2.11792E-01  2.16945E-01  2.22223E-01
#           2.27630E-01  2.33169E-01  2.38842E-01  2.44653E-01  2.50605E-01
#           2.56703E-01  2.62949E-01  2.69346E-01  2.75900E-01  2.82613E-01
#           2.89489E-01  2.96532E-01  3.03747E-01  3.11138E-01  3.18708E-01
#           3.26462E-01  3.34405E-01  3.42542E-01  3.50876E-01  3.59413E-01
#           3.68158E-01  3.77116E-01  3.86291E-01  3.95690E-01  4.05317E-01
#           4.15179E-01  4.25281E-01  4.35628E-01  4.46227E-01  4.57084E-01
#           4.68205E-01  4.79597E-01  4.91266E-01  5.03219E-01  5.15463E-01
#           5.28005E-01  5.40851E-01  5.54011E-01  5.67490E-01  5.81298E-01
#           5.95441E-01  6.09929E-01  6.24769E-01  6.39970E-01  6.55541E-01
#           6.71491E-01  6.87828E-01  7.04564E-01  7.21706E-01  7.39266E-01
#           7.57253E-01  7.75678E-01  7.94551E-01  8.13883E-01  8.33685E-01
#           8.53969E-01  8.74747E-01  8.96030E-01  9.17831E-01  9.40163E-01
#           9.63038E-01  9.86469E-01  1.01047E+00  1.03506E+00  1.06024E+00
#           1.08604E+00  1.11246E+00  1.13953E+00  1.16725E+00  1.19565E+00
#           1.22474E+00  1.25454E+00  1.28507E+00  1.31633E+00  1.34836E+00
#           1.38117E+00  1.41477E+00  1.44920E+00  1.48446E+00  1.52057E+00
#           1.55757E+00  1.59547E+00  1.63429E+00  1.67405E+00  1.71478E+00
#           1.75650E+00  1.79924E+00  1.84302E+00  1.88786E+00  1.93379E+00
#           1.98084E+00  2.02904E+00  2.07841E+00  2.12898E+00  2.18078E+00
#           2.23384E+00  2.28819E+00  2.34386E+00  2.40089E+00  2.45930E+00
#           2.51914E+00  2.58043E+00  2.64322E+00  2.70753E+00  2.77341E+00
#           2.84088E+00  2.91001E+00  2.98081E+00  3.05333E+00  3.12762E+00
#           3.20372E+00  3.28167E+00  3.36152E+00  3.44330E+00  3.52708E+00
#           3.61290E+00  3.70080E+00  3.79085E+00  3.88308E+00  3.97756E+00
#           4.07434E+00  4.17347E+00  4.27501E+00  4.37903E+00  4.48557E+00
#           4.59471E+00  4.70650E+00  4.82102E+00  4.93832E+00  5.05847E+00
#           5.18155E+00  5.30762E+00  5.43676E+00  5.56904E+00  5.70453E+00
#           5.84333E+00  5.98550E+00  6.13114E+00  6.28031E+00  6.43312E+00
#           6.58964E+00  6.74997E+00  6.91420E+00  7.08243E+00  7.25475E+00
#           7.43126E+00  7.61207E+00  7.79728E+00  7.98700E+00  8.18133E+00
#           8.38038E+00  8.58428E+00  8.79315E+00  9.00709E+00  9.22624E+00
#           9.45072E+00  9.68067E+00  9.91620E+00  1.01575E+01  1.04046E+01
#           1.06578E+01  1.09171E+01  1.11827E+01  1.14548E+01  1.17335E+01
#           1.20190E+01  1.23114E+01  1.26109E+01  1.29178E+01  1.32321E+01
#           1.35540E+01  1.38838E+01  1.42216E+01  1.45676E+01  1.49221E+01
#           1.52851E+01  1.56570E+01  1.60380E+01  1.64282E+01  1.68279E+01
#           1.72374E+01  1.76568E+01  1.80864E+01  1.85264E+01  1.89772E+01
#           1.94389E+01  1.99119E+01  2.03963E+01  2.08926E+01  2.14009E+01
#           2.19216E+01  2.24550E+01  2.30014E+01  2.35610E+01  2.41343E+01
#           2.47215E+01  2.53230E+01  2.59391E+01  2.65702E+01  2.72167E+01
#           2.78789E+01  2.85572E+01  2.92520E+01  2.99637E+01  3.06928E+01
#           3.14396E+01  3.22045E+01  3.29881E+01  3.37907E+01  3.46128E+01
#           3.54550E+01  3.63177E+01  3.72013E+01  3.81064E+01  3.90336E+01
#           3.99833E+01  4.09561E+01  4.19526E+01  4.29734E+01  4.40189E+01
#           4.50900E+01  4.61870E+01  4.73108E+01  4.84619E+01  4.96410E+01
#           5.08488E+01  5.20860E+01  5.33533E+01  5.46514E+01  5.59812E+01
#           5.73432E+01  5.87384E+01  6.01676E+01  6.16315E+01  6.31311E+01
#           6.46671E+01  6.62405E+01  6.78522E+01  6.95031E+01  7.11941E+01
#           7.29263E+01  7.47007E+01  7.65182E+01  7.83800E+01  8.02870E+01
#           8.22405E+01  8.42414E+01  8.62911E+01  8.83906E+01  9.05412E+01
#           9.27442E+01  9.50007E+01  9.73122E+01  9.96799E+01  1.02105E+02
#           1.04589E+02  1.07134E+02  1.09741E+02  1.12411E+02  1.15146E+02
#           1.17948E+02  1.20817E+02  1.23757E+02  1.26768E+02  1.29852E+02
#           1.33012E+02  1.36248E+02  1.39563E+02  1.42959E+02  1.46437E+02
#           1.50000E+02
     unit =    2            # unit is [1/cm^2/(MeV/n)/source]
     axis =  eng            # axis of output
     file = detector-06.out  # file name of output for the above axis
   output = f-curr          # surface crossing forward current spectrum
     part =  neutron  
# kf/name :  2112     
#    used :        main (  %)        temp (  %)       total (  %)
#  memory :         414 (  0)           0 (  0)         414 (  0)

#------------------------------------------------------------------------------
#newpage:
#   no. =    1   reg = 105 - 205

x: Energy [MeV/n]
y:  F-Curr [1/cm^2/(MeV/n)/source]         
p: xlog ylog afac(0.8) form(0.9)
h: n            x            y(neutron ),hh0l   n 
#  e-lower      e-upper      neutron     r.err 
   1.0000E-02   1.0243E-02   0.0000E+00  0.0000
   1.0243E-02   1.0493E-02   0.0000E+00  0.0000
   1.0493E-02   1.0748E-02   0.0000E+00  0.0000
   1.0748E-02   1.1009E-02   0.0000E+00  0.0000
   1.1009E-02   1.1277E-02   0.0000E+00  0.0000
   1.1277E-02   1.1552E-02   0.0000E+00  0.0000
   1.1552E-02   1.1833E-02   0.0000E+00  0.0000
   1.1833E-02   1.2121E-02   0.0000E+00  0.0000
   1.2121E-02   1.2415E-02   0.0000E+00  0.0000
   1.2415E-02   1.2718E-02   0.0000E+00  0.0000
   1.2718E-02   1.3027E-02   6.4636E-07  1.0000
   1.3027E-02   1.3344E-02   0.0000E+00  0.0000
   1.3344E-02   1.3669E-02   0.0000E+00  0.0000
   1.3669E-02   1.4001E-02   0.0000E+00  0.0000
   1.4001E-02   1.4342E-02   0.0000E+00  0.0000
   1.4342E-02   1.4691E-02   5.7315E-07  1.0000
   1.4691E-02   1.5048E-02   0.0000E+00  0.0000
   1.5048E-02   1.5414E-02   0.0000E+00  0.0000
   1.5414E-02   1.5789E-02   1.0665E-06  0.7071
   1.5789E-02   1.6174E-02   5.2061E-07  1.0000
   1.6174E-02   1.6567E-02   5.0824E-07  1.0000
   1.6567E-02   1.6970E-02   0.0000E+00  0.0000
   1.6970E-02   1.7383E-02   0.0000E+00  0.0000
   1.7383E-02   1.7806E-02   4.7288E-07  1.0000
   1.7806E-02   1.8239E-02   0.0000E+00  0.0000
   1.8239E-02   1.8683E-02   4.5068E-07  1.0000
   1.8683E-02   1.9138E-02   8.7995E-07  0.7071
   1.9138E-02   1.9603E-02   0.0000E+00  0.0000
   1.9603E-02   2.0080E-02   0.0000E+00  0.0000
   2.0080E-02   2.0569E-02   8.1872E-07  0.7071
   2.0569E-02   2.1069E-02   1.1989E-06  0.5774
   2.1069E-02   2.1582E-02   1.1704E-06  0.5774
   2.1582E-02   2.2107E-02   7.6176E-07  0.7071
   2.2107E-02   2.2645E-02   0.0000E+00  0.0000
   2.2645E-02   2.3196E-02   3.6300E-07  1.0000
   2.3196E-02   2.3760E-02   6.8707E-08  1.0000
   2.3760E-02   2.4338E-02   6.9192E-07  0.7071
   2.4338E-02   2.4930E-02   0.0000E+00  0.0000
   2.4930E-02   2.5537E-02   1.1024E-06  0.5281
   2.5537E-02   2.6158E-02   9.6566E-07  0.5774
   2.6158E-02   2.6795E-02   9.9604E-07  0.5491
   2.6795E-02   2.7447E-02   4.1673E-08  1.0000
   2.7447E-02   2.8114E-02   2.9949E-07  1.0000
   2.8114E-02   2.8799E-02   1.6121E-06  0.4161
   2.8799E-02   2.9499E-02   8.5630E-07  0.5774
   2.9499E-02   3.0217E-02   2.7865E-07  1.0000
   3.0217E-02   3.0952E-02   1.3602E-06  0.4472
   3.0952E-02   3.1705E-02   1.2124E-06  0.4483
   3.1705E-02   3.2477E-02   5.1853E-07  0.7071
   3.2477E-02   3.3267E-02   1.5186E-06  0.4082
   3.3267E-02   3.4076E-02   1.7297E-06  0.3780
   3.4076E-02   3.4905E-02   1.4473E-06  0.4082
   3.4905E-02   3.5755E-02   1.4130E-06  0.4082
   3.5755E-02   3.6625E-02   1.4469E-06  0.3920
   3.6625E-02   3.7516E-02   1.5711E-06  0.3780
   3.7516E-02   3.8428E-02   7.8388E-07  0.4979
   3.8428E-02   3.9363E-02   1.4110E-06  0.3744
   3.9363E-02   4.0321E-02   1.0441E-06  0.4472
   4.0321E-02   4.1302E-02   1.7427E-06  0.3346
   4.1302E-02   4.2307E-02   1.5141E-06  0.3509
   4.2307E-02   4.3337E-02   1.6362E-06  0.3377
   4.3337E-02   4.4391E-02   1.3610E-06  0.3538
   4.4391E-02   4.5471E-02   1.6666E-06  0.3333
   4.5471E-02   4.6577E-02   1.3529E-06  0.3565
   4.6577E-02   4.7711E-02   1.8679E-06  0.3014
   4.7711E-02   4.8871E-02   2.4121E-06  0.2673
   4.8871E-02   5.0061E-02   2.5354E-06  0.2514
   5.0061E-02   5.1279E-02   2.8934E-06  0.2293
   5.1279E-02   5.2526E-02   2.8895E-06  0.2276
   5.2526E-02   5.3804E-02   1.7039E-06  0.3017
   5.3804E-02   5.5113E-02   3.2847E-06  0.2144
   5.5113E-02   5.6454E-02   2.9689E-06  0.2188
   5.6454E-02   5.7828E-02   3.0762E-06  0.2144
   5.7828E-02   5.9235E-02   2.7881E-06  0.2201
   5.9235E-02   6.0676E-02   4.1626E-06  0.1787
   6.0676E-02   6.2152E-02   3.7154E-06  0.1853
   6.2152E-02   6.3665E-02   3.2263E-06  0.1982
   6.3665E-02   6.5214E-02   2.9883E-06  0.2048
   6.5214E-02   6.6800E-02   3.6718E-06  0.1811
   6.6800E-02   6.8426E-02   3.9161E-06  0.1718
   6.8426E-02   7.0090E-02   3.1082E-06  0.1914
   7.0090E-02   7.1796E-02   4.1042E-06  0.1664
   7.1796E-02   7.3543E-02   3.6942E-06  0.1722
   7.3543E-02   7.5332E-02   4.7798E-06  0.1508
   7.5332E-02   7.7165E-02   4.6723E-06  0.1517
   7.7165E-02   7.9042E-02   4.7297E-06  0.1484
   7.9042E-02   8.0965E-02   4.9920E-06  0.1415
   8.0965E-02   8.2935E-02   6.2391E-06  0.1250
   8.2935E-02   8.4953E-02   4.9711E-06  0.1389
   8.4953E-02   8.7020E-02   6.7599E-06  0.1180
   8.7020E-02   8.9138E-02   5.8588E-06  0.1244
   8.9138E-02   9.1306E-02   6.2082E-06  0.1199
   9.1306E-02   9.3528E-02   6.8625E-06  0.1129
   9.3528E-02   9.5804E-02   6.4240E-06  0.1147
   9.5804E-02   9.8134E-02   7.5413E-06  0.1047
   9.8134E-02   1.0052E-01   8.0568E-06  0.1007
   1.0052E-01   1.0297E-01   7.9413E-06  0.0991
   1.0297E-01   1.0547E-01   7.1281E-06  0.1040
   1.0547E-01   1.0804E-01   9.7450E-06  0.0875
   1.0804E-01   1.1067E-01   7.3598E-06  0.0997
   1.1067E-01   1.1336E-01   9.0693E-06  0.0887
   1.1336E-01   1.1612E-01   9.6959E-06  0.0843
   1.1612E-01   1.1894E-01   8.9039E-06  0.0874
   1.1894E-01   1.2184E-01   8.9148E-06  0.0867
   1.2184E-01   1.2480E-01   1.0551E-05  0.0788
   1.2480E-01   1.2784E-01   1.0704E-05  0.0768
   1.2784E-01   1.3095E-01   1.1675E-05  0.0727
   1.3095E-01   1.3414E-01   1.1909E-05  0.0715
   1.3414E-01   1.3740E-01   1.1503E-05  0.0719
   1.3740E-01   1.4074E-01   1.2085E-05  0.0692
   1.4074E-01   1.4417E-01   1.4285E-05  0.0629
   1.4417E-01   1.4767E-01   1.4708E-05  0.0613
   1.4767E-01   1.5127E-01   1.4084E-05  0.0620
   1.5127E-01   1.5495E-01   1.4348E-05  0.0605
   1.5495E-01   1.5872E-01   1.4749E-05  0.0589
   1.5872E-01   1.6258E-01   1.3722E-05  0.0603
   1.6258E-01   1.6654E-01   1.5188E-05  0.0568
   1.6654E-01   1.7059E-01   1.7624E-05  0.0520
   1.7059E-01   1.7474E-01   1.6675E-05  0.0527
   1.7474E-01   1.7899E-01   1.8161E-05  0.0500
   1.7899E-01   1.8334E-01   1.8352E-05  0.0493
   1.8334E-01   1.8781E-01   1.8510E-05  0.0485
   1.8781E-01   1.9237E-01   1.9286E-05  0.0469
   1.9237E-01   1.9706E-01   1.9366E-05  0.0463
   1.9706E-01   2.0185E-01   2.0187E-05  0.0448
   2.0185E-01   2.0676E-01   2.0770E-05  0.0435
   2.0676E-01   2.1179E-01   2.1681E-05  0.0421
   2.1179E-01   2.1694E-01   2.3695E-05  0.0400
   2.1694E-01   2.2222E-01   2.2856E-05  0.0401
   2.2222E-01   2.2763E-01   2.3472E-05  0.0391
   2.2763E-01   2.3317E-01   2.3132E-05  0.0390
   2.3317E-01   2.3884E-01   2.3949E-05  0.0378
   2.3884E-01   2.4465E-01   2.5621E-05  0.0361
   2.4465E-01   2.5061E-01   2.7533E-05  0.0344
   2.5061E-01   2.5670E-01   2.8012E-05  0.0337
   2.5670E-01   2.6295E-01   2.9106E-05  0.0327
   2.6295E-01   2.6935E-01   2.8303E-05  0.0328
   2.6935E-01   2.7590E-01   2.9551E-05  0.0317
   2.7590E-01   2.8261E-01   3.0013E-05  0.0311
   2.8261E-01   2.8949E-01   3.1482E-05  0.0300
   2.8949E-01   2.9653E-01   3.1809E-05  0.0295
   2.9653E-01   3.0375E-01   3.4186E-05  0.0281
   3.0375E-01   3.1114E-01   3.3647E-05  0.0280
   3.1114E-01   3.1871E-01   3.3638E-05  0.0277
   3.1871E-01   3.2646E-01   3.7190E-05  0.0261
   3.2646E-01   3.3441E-01   3.4340E-05  0.0268
   3.3441E-01   3.4254E-01   3.4767E-05  0.0262
   3.4254E-01   3.5088E-01   3.5842E-05  0.0256
   3.5088E-01   3.5941E-01   3.5515E-05  0.0254
   3.5941E-01   3.6816E-01   3.5972E-05  0.0250
   3.6816E-01   3.7712E-01   3.8981E-05  0.0237
   3.7712E-01   3.8629E-01   3.8175E-05  0.0237
   3.8629E-01   3.9569E-01   3.9568E-05  0.0229
   3.9569E-01   4.0532E-01   4.0996E-05  0.0223
   4.0532E-01   4.1518E-01   3.9232E-05  0.0226
   4.1518E-01   4.2528E-01   4.1410E-05  0.0217
   4.2528E-01   4.3563E-01   4.1577E-05  0.0214
   4.3563E-01   4.4623E-01   4.1878E-05  0.0211
   4.4623E-01   4.5708E-01   4.3345E-05  0.0205
   4.5708E-01   4.6821E-01   4.3007E-05  0.0203
   4.6821E-01   4.7960E-01   4.4279E-05  0.0198
   4.7960E-01   4.9127E-01   4.3459E-05  0.0197
   4.9127E-01   5.0322E-01   4.2420E-05  0.0197
   5.0322E-01   5.1546E-01   4.3484E-05  0.0193
   5.1546E-01   5.2800E-01   4.3978E-05  0.0189
   5.2800E-01   5.4085E-01   4.3334E-05  0.0188
   5.4085E-01   5.5401E-01   4.4552E-05  0.0184
   5.5401E-01   5.6749E-01   4.5318E-05  0.0180
   5.6749E-01   5.8130E-01   4.4305E-05  0.0180
   5.8130E-01   5.9544E-01   4.5403E-05  0.0175
   5.9544E-01   6.0993E-01   4.4907E-05  0.0174
   6.0993E-01   6.2477E-01   4.5707E-05  0.0171
   6.2477E-01   6.3997E-01   4.5443E-05  0.0169
   6.3997E-01   6.5554E-01   4.5240E-05  0.0168
   6.5554E-01   6.7149E-01   4.6561E-05  0.0163
   6.7149E-01   6.8783E-01   4.5217E-05  0.0164
   6.8783E-01   7.0456E-01   4.5371E-05  0.0161
   7.0456E-01   7.2171E-01   4.6006E-05  0.0159
   7.2171E-01   7.3927E-01   4.5949E-05  0.0157
   7.3927E-01   7.5725E-01   4.6402E-05  0.0154
   7.5725E-01   7.7568E-01   4.5306E-05  0.0154
   7.7568E-01   7.9455E-01   4.5109E-05  0.0152
   7.9455E-01   8.1388E-01   4.5056E-05  0.0151
   8.1388E-01   8.3368E-01   4.5985E-05  0.0147
   8.3368E-01   8.5397E-01   4.6108E-05  0.0145
   8.5397E-01   8.7475E-01   4.5499E-05  0.0145
   8.7475E-01   8.9603E-01   4.7218E-05  0.0140
   8.9603E-01   9.1783E-01   4.6255E-05  0.0140
   9.1783E-01   9.4016E-01   4.6375E-05  0.0138
   9.4016E-01   9.6304E-01   4.5486E-05  0.0138
   9.6304E-01   9.8647E-01   4.6308E-05  0.0135
   9.8647E-01   1.0105E+00   4.6384E-05  0.0133
   1.0105E+00   1.0351E+00   4.5706E-05  0.0133
   1.0351E+00   1.0602E+00   4.5067E-05  0.0132
   1.0602E+00   1.0860E+00   4.5680E-05  0.0130
   1.0860E+00   1.1125E+00   4.5214E-05  0.0129
   1.1125E+00   1.1395E+00   4.4368E-05  0.0128
   1.1395E+00   1.1673E+00   4.4773E-05  0.0126
   1.1673E+00   1.1957E+00   4.3930E-05  0.0126
   1.1957E+00   1.2247E+00   4.3999E-05  0.0124
   1.2247E+00   1.2545E+00   4.4185E-05  0.0122
   1.2545E+00   1.2851E+00   4.3039E-05  0.0123
   1.2851E+00   1.3163E+00   4.1963E-05  0.0123
   1.3163E+00   1.3484E+00   4.2892E-05  0.0120
   1.3484E+00   1.3812E+00   4.2282E-05  0.0119
   1.3812E+00   1.4148E+00   4.2231E-05  0.0118
   1.4148E+00   1.4492E+00   4.2470E-05  0.0116
   1.4492E+00   1.4845E+00   4.2118E-05  0.0115
   1.4845E+00   1.5206E+00   4.2460E-05  0.0113
   1.5206E+00   1.5576E+00   4.2300E-05  0.0112
   1.5576E+00   1.5955E+00   4.2372E-05  0.0111
   1.5955E+00   1.6343E+00   4.2604E-05  0.0109
   1.6343E+00   1.6741E+00   4.2086E-05  0.0108
   1.6741E+00   1.7148E+00   4.2297E-05  0.0107
   1.7148E+00   1.7565E+00   4.1169E-05  0.0107
   1.7565E+00   1.7992E+00   4.0092E-05  0.0107
   1.7992E+00   1.8430E+00   4.0966E-05  0.0105
   1.8430E+00   1.8879E+00   4.1498E-05  0.0103
   1.8879E+00   1.9338E+00   4.1011E-05  0.0102
   1.9338E+00   1.9808E+00   4.0260E-05  0.0102
   1.9808E+00   2.0290E+00   3.9780E-05  0.0101
   2.0290E+00   2.0784E+00   4.0400E-05  0.0099
   2.0784E+00   2.1290E+00   3.9583E-05  0.0099
   2.1290E+00   2.1808E+00   4.0262E-05  0.0097
   2.1808E+00   2.2338E+00   3.9813E-05  0.0096
   2.2338E+00   2.2882E+00   3.8831E-05  0.0096
   2.2882E+00   2.3439E+00   3.8788E-05  0.0095
   2.3439E+00   2.4009E+00   3.7987E-05  0.0095
   2.4009E+00   2.4593E+00   3.8615E-05  0.0093
   2.4593E+00   2.5191E+00   3.7594E-05  0.0093
   2.5191E+00   2.5804E+00   3.7194E-05  0.0093
   2.5804E+00   2.6432E+00   3.7058E-05  0.0092
   2.6432E+00   2.7075E+00   3.5846E-05  0.0092
   2.7075E+00   2.7734E+00   3.6176E-05  0.0090
   2.7734E+00   2.8409E+00   3.5197E-05  0.0091
   2.8409E+00   2.9100E+00   3.4929E-05  0.0090
   2.9100E+00   2.9808E+00   3.4744E-05  0.0089
   2.9808E+00   3.0533E+00   3.4793E-05  0.0088
   3.0533E+00   3.1276E+00   3.4336E-05  0.0087
   3.1276E+00   3.2037E+00   3.3209E-05  0.0088
   3.2037E+00   3.2817E+00   3.3362E-05  0.0087
   3.2817E+00   3.3615E+00   3.2791E-05  0.0086
   3.3615E+00   3.4433E+00   3.3074E-05  0.0085
   3.4433E+00   3.5271E+00   3.2437E-05  0.0085
   3.5271E+00   3.6129E+00   3.1866E-05  0.0084
   3.6129E+00   3.7008E+00   3.1095E-05  0.0085
   3.7008E+00   3.7908E+00   3.0834E-05  0.0084
   3.7908E+00   3.8831E+00   3.0275E-05  0.0084
   3.8831E+00   3.9776E+00   2.9784E-05  0.0083
   3.9776E+00   4.0743E+00   2.9552E-05  0.0083
   4.0743E+00   4.1735E+00   2.8167E-05  0.0083
   4.1735E+00   4.2750E+00   2.8221E-05  0.0082
   4.2750E+00   4.3790E+00   2.7890E-05  0.0082
   4.3790E+00   4.4856E+00   2.7252E-05  0.0082
   4.4856E+00   4.5947E+00   2.7277E-05  0.0081
   4.5947E+00   4.7065E+00   2.6567E-05  0.0081
   4.7065E+00   4.8210E+00   2.6537E-05  0.0080
   4.8210E+00   4.9383E+00   2.6191E-05  0.0080
   4.9383E+00   5.0585E+00   2.6234E-05  0.0079
   5.0585E+00   5.1815E+00   2.7168E-05  0.0077
   5.1815E+00   5.3076E+00   2.7658E-05  0.0075
   5.3076E+00   5.4368E+00   2.7106E-05  0.0075
   5.4368E+00   5.5690E+00   2.7085E-05  0.0074
   5.5690E+00   5.7045E+00   2.6639E-05  0.0074
   5.7045E+00   5.8433E+00   2.6193E-05  0.0073
   5.8433E+00   5.9855E+00   2.5957E-05  0.0073
   5.9855E+00   6.1311E+00   2.5092E-05  0.0073
   6.1311E+00   6.2803E+00   2.5358E-05  0.0072
   6.2803E+00   6.4331E+00   2.4719E-05  0.0072
   6.4331E+00   6.5896E+00   2.4566E-05  0.0072
   6.5896E+00   6.7500E+00   2.4179E-05  0.0071
   6.7500E+00   6.9142E+00   2.4078E-05  0.0071
   6.9142E+00   7.0824E+00   2.3987E-05  0.0070
   7.0824E+00   7.2548E+00   2.3270E-05  0.0070
   7.2548E+00   7.4313E+00   2.3090E-05  0.0070
   7.4313E+00   7.6121E+00   2.2982E-05  0.0069
   7.6121E+00   7.7973E+00   2.2686E-05  0.0069
   7.7973E+00   7.9870E+00   2.2838E-05  0.0068
   7.9870E+00   8.1813E+00   2.2433E-05  0.0067
   8.1813E+00   8.3804E+00   2.2399E-05  0.0067
   8.3804E+00   8.5843E+00   2.2140E-05  0.0066
   8.5843E+00   8.7931E+00   2.1820E-05  0.0066
   8.7931E+00   9.0071E+00   2.1923E-05  0.0065
   9.0071E+00   9.2262E+00   2.1590E-05  0.0065
   9.2262E+00   9.4507E+00   2.1231E-05  0.0065
   9.4507E+00   9.6807E+00   2.1418E-05  0.0063
   9.6807E+00   9.9162E+00   2.1271E-05  0.0063
   9.9162E+00   1.0157E+01   2.1318E-05  0.0062
   1.0157E+01   1.0405E+01   2.1360E-05  0.0061
   1.0405E+01   1.0658E+01   2.1330E-05  0.0061
   1.0658E+01   1.0917E+01   2.1343E-05  0.0060
   1.0917E+01   1.1183E+01   2.1022E-05  0.0060
   1.1183E+01   1.1455E+01   2.1057E-05  0.0059
   1.1455E+01   1.1733E+01   2.1345E-05  0.0058
   1.1733E+01   1.2019E+01   2.1338E-05  0.0057
   1.2019E+01   1.2311E+01   2.1445E-05  0.0056
   1.2311E+01   1.2611E+01   2.1244E-05  0.0056
   1.2611E+01   1.2918E+01   2.1277E-05  0.0055
   1.2918E+01   1.3232E+01   2.1222E-05  0.0055
   1.3232E+01   1.3554E+01   2.1337E-05  0.0054
   1.3554E+01   1.3884E+01   2.1425E-05  0.0053
   1.3884E+01   1.4222E+01   2.1592E-05  0.0052
   1.4222E+01   1.4568E+01   2.1551E-05  0.0052
   1.4568E+01   1.4922E+01   2.1483E-05  0.0051
   1.4922E+01   1.5285E+01   2.1678E-05  0.0050
   1.5285E+01   1.5657E+01   2.1512E-05  0.0050
   1.5657E+01   1.6038E+01   2.1576E-05  0.0049
   1.6038E+01   1.6428E+01   2.1811E-05  0.0048
   1.6428E+01   1.6828E+01   2.1730E-05  0.0048
   1.6828E+01   1.7237E+01   2.1810E-05  0.0047
   1.7237E+01   1.7657E+01   2.1626E-05  0.0047
   1.7657E+01   1.8086E+01   2.1560E-05  0.0046
   1.8086E+01   1.8526E+01   2.1789E-05  0.0046
   1.8526E+01   1.8977E+01   2.1819E-05  0.0045
   1.8977E+01   1.9439E+01   2.1786E-05  0.0045
   1.9439E+01   1.9912E+01   2.1755E-05  0.0044
   1.9912E+01   2.0396E+01   2.2252E-05  0.0043
   2.0396E+01   2.0893E+01   2.2536E-05  0.0042
   2.0893E+01   2.1401E+01   2.2276E-05  0.0042
   2.1401E+01   2.1922E+01   2.2505E-05  0.0041
   2.1922E+01   2.2455E+01   2.2441E-05  0.0041
   2.2455E+01   2.3001E+01   2.2442E-05  0.0040
   2.3001E+01   2.3561E+01   2.2317E-05  0.0040
   2.3561E+01   2.4134E+01   2.2491E-05  0.0039
   2.4134E+01   2.4721E+01   2.2400E-05  0.0039
   2.4721E+01   2.5323E+01   2.2280E-05  0.0039
   2.5323E+01   2.5939E+01   2.2370E-05  0.0038
   2.5939E+01   2.6570E+01   2.2463E-05  0.0038
   2.6570E+01   2.7217E+01   2.2170E-05  0.0037
   2.7217E+01   2.7879E+01   2.2170E-05  0.0037
   2.7879E+01   2.8557E+01   2.2344E-05  0.0036
   2.8557E+01   2.9252E+01   2.2332E-05  0.0036
   2.9252E+01   2.9964E+01   2.2970E-05  0.0035
   2.9964E+01   3.0693E+01   2.4000E-05  0.0034
   3.0693E+01   3.1440E+01   2.4407E-05  0.0033
   3.1440E+01   3.2205E+01   2.5296E-05  0.0032
   3.2205E+01   3.2988E+01   2.9282E-05  0.0030
   3.2988E+01   3.3791E+01   3.0189E-05  0.0029
   3.3791E+01   3.4613E+01   2.9817E-05  0.0029
   3.4613E+01   3.5455E+01   2.9058E-05  0.0029
   3.5455E+01   3.6318E+01   2.8196E-05  0.0029
   3.6318E+01   3.7201E+01   2.7578E-05  0.0029
   3.7201E+01   3.8106E+01   2.6790E-05  0.0029
   3.8106E+01   3.9034E+01   2.5807E-05  0.0029
   3.9034E+01   3.9983E+01   2.4931E-05  0.0029
   3.9983E+01   4.0956E+01   2.4010E-05  0.0029
   4.0956E+01   4.1953E+01   2.3198E-05  0.0029
   4.1953E+01   4.2973E+01   2.2122E-05  0.0030
   4.2973E+01   4.4019E+01   2.0987E-05  0.0030
   4.4019E+01   4.5090E+01   1.9777E-05  0.0031
   4.5090E+01   4.6187E+01   1.6498E-05  0.0033
   4.6187E+01   4.7311E+01   1.3645E-05  0.0036
   4.7311E+01   4.8462E+01   9.5174E-06  0.0043
   4.8462E+01   4.9641E+01   5.6670E-06  0.0055
   4.9641E+01   5.0849E+01   4.5284E-06  0.0060
   5.0849E+01   5.2086E+01   3.4169E-06  0.0069
   5.2086E+01   5.3353E+01   2.2061E-06  0.0085
   5.3353E+01   5.4651E+01   1.0531E-06  0.0121
   5.4651E+01   5.5981E+01   2.9585E-07  0.0225
   5.5981E+01   5.7343E+01   1.6592E-08  0.0941
   5.7343E+01   5.8738E+01   0.0000E+00  0.0000
   5.8738E+01   6.0168E+01   0.0000E+00  0.0000
   6.0168E+01   6.1632E+01   0.0000E+00  0.0000
   6.1632E+01   6.3131E+01   0.0000E+00  0.0000
   6.3131E+01   6.4667E+01   0.0000E+00  0.0000
   6.4667E+01   6.6240E+01   0.0000E+00  0.0000
   6.6240E+01   6.7852E+01   0.0000E+00  0.0000
   6.7852E+01   6.9503E+01   0.0000E+00  0.0000
   6.9503E+01   7.1194E+01   0.0000E+00  0.0000
   7.1194E+01   7.2926E+01   0.0000E+00  0.0000
   7.2926E+01   7.4701E+01   0.0000E+00  0.0000
   7.4701E+01   7.6518E+01   0.0000E+00  0.0000
   7.6518E+01   7.8380E+01   0.0000E+00  0.0000
   7.8380E+01   8.0287E+01   0.0000E+00  0.0000
   8.0287E+01   8.2240E+01   0.0000E+00  0.0000
   8.2240E+01   8.4241E+01   0.0000E+00  0.0000
   8.4241E+01   8.6291E+01   0.0000E+00  0.0000
   8.6291E+01   8.8391E+01   0.0000E+00  0.0000
   8.8391E+01   9.0541E+01   0.0000E+00  0.0000
   9.0541E+01   9.2744E+01   0.0000E+00  0.0000
   9.2744E+01   9.5001E+01   0.0000E+00  0.0000
   9.5001E+01   9.7312E+01   0.0000E+00  0.0000
   9.7312E+01   9.9680E+01   0.0000E+00  0.0000
   9.9680E+01   1.0211E+02   0.0000E+00  0.0000
   1.0211E+02   1.0459E+02   0.0000E+00  0.0000
   1.0459E+02   1.0713E+02   0.0000E+00  0.0000
   1.0713E+02   1.0974E+02   0.0000E+00  0.0000
   1.0974E+02   1.1241E+02   0.0000E+00  0.0000
   1.1241E+02   1.1515E+02   0.0000E+00  0.0000
   1.1515E+02   1.1795E+02   0.0000E+00  0.0000
   1.1795E+02   1.2082E+02   0.0000E+00  0.0000
   1.2082E+02   1.2376E+02   0.0000E+00  0.0000
   1.2376E+02   1.2677E+02   0.0000E+00  0.0000
   1.2677E+02   1.2985E+02   0.0000E+00  0.0000
   1.2985E+02   1.3301E+02   0.0000E+00  0.0000
   1.3301E+02   1.3625E+02   0.0000E+00  0.0000
   1.3625E+02   1.3956E+02   0.0000E+00  0.0000
   1.3956E+02   1.4296E+02   0.0000E+00  0.0000
   1.4296E+02   1.4644E+02   0.0000E+00  0.0000
   1.4644E+02   1.5000E+02   0.0000E+00  0.0000

#   sum over                 7.8685E-06
'no. =    1   reg = 105 - 205'
msuc: {\huge [t-cross] in region mesh}
msdr: {\it plotted by \ANGEL \version}
msdl: {\it calculated by \PHITS  3.26}
wt: s(0.7)
\vspace{-3}
  region surface crossing
  area  &=&   1.0000E+00 [cm^2]
e:
 
# Information for Restart Calculation
# This calculation was newly started
# istdev =  2 # 1:Batch variance, 2:History variance
# resc2  = 5.00000000000000000E+09 # Total source weight or Total source weight / maxcas
# resc3  = 5.00000000000000000E+09 # Total history number or Total batch number
# maxcas =   100000000 # History / Batch, only used for istdev=1
# bitrseed = 0110100000100010111000001110001111001110100100011111101000111001 # bit data of rseed
