[ T-Cross ]
    title = [t-cross] in region mesh
     mesh =  reg            # mesh type is region-wise
      reg =    1            # number of crossing regions
      non     r-from    r-to       area
      1       114       214        1.000000    
   e-type =    3            # e-mesh is log given by emin, emax and ne
     emin =  1.0000000E-02  # minimum value of e-mesh points
     emax =   150.0000      # maximum value of e-mesh points
#    edel =  2.4039514E-02  # mesh width of e-mesh points
       ne =    400          # number of e-mesh points
#    data = ( e(i), i = 1, ne + 1 )
#           1.00000E-02  1.02433E-02  1.04925E-02  1.07478E-02  1.10093E-02
#           1.12772E-02  1.15516E-02  1.18326E-02  1.21205E-02  1.24154E-02
#           1.27175E-02  1.30269E-02  1.33439E-02  1.36686E-02  1.40011E-02
#           1.43418E-02  1.46907E-02  1.50482E-02  1.54143E-02  1.57894E-02
#           1.61735E-02  1.65670E-02  1.69701E-02  1.73830E-02  1.78060E-02
#           1.82392E-02  1.86830E-02  1.91375E-02  1.96032E-02  2.00801E-02
#           2.05687E-02  2.10692E-02  2.15818E-02  2.21069E-02  2.26448E-02
#           2.31957E-02  2.37601E-02  2.43382E-02  2.49304E-02  2.55369E-02
#           2.61583E-02  2.67947E-02  2.74467E-02  2.81145E-02  2.87985E-02
#           2.94992E-02  3.02169E-02  3.09521E-02  3.17052E-02  3.24766E-02
#           3.32668E-02  3.40762E-02  3.49053E-02  3.57546E-02  3.66246E-02
#           3.75157E-02  3.84284E-02  3.93634E-02  4.03212E-02  4.13022E-02
#           4.23071E-02  4.33365E-02  4.43909E-02  4.54710E-02  4.65773E-02
#           4.77106E-02  4.88714E-02  5.00605E-02  5.12785E-02  5.25262E-02
#           5.38042E-02  5.51133E-02  5.64542E-02  5.78278E-02  5.92348E-02
#           6.06760E-02  6.21523E-02  6.36645E-02  6.52135E-02  6.68002E-02
#           6.84255E-02  7.00904E-02  7.17957E-02  7.35426E-02  7.53319E-02
#           7.71648E-02  7.90423E-02  8.09655E-02  8.29354E-02  8.49533E-02
#           8.70203E-02  8.91376E-02  9.13064E-02  9.35279E-02  9.58035E-02
#           9.81345E-02  1.00522E-01  1.02968E-01  1.05473E-01  1.08040E-01
#           1.10668E-01  1.13361E-01  1.16119E-01  1.18944E-01  1.21838E-01
#           1.24803E-01  1.27839E-01  1.30950E-01  1.34136E-01  1.37399E-01
#           1.40742E-01  1.44167E-01  1.47675E-01  1.51268E-01  1.54948E-01
#           1.58718E-01  1.62580E-01  1.66535E-01  1.70587E-01  1.74738E-01
#           1.78989E-01  1.83344E-01  1.87805E-01  1.92375E-01  1.97055E-01
#           2.01850E-01  2.06761E-01  2.11792E-01  2.16945E-01  2.22223E-01
#           2.27630E-01  2.33169E-01  2.38842E-01  2.44653E-01  2.50605E-01
#           2.56703E-01  2.62949E-01  2.69346E-01  2.75900E-01  2.82613E-01
#           2.89489E-01  2.96532E-01  3.03747E-01  3.11138E-01  3.18708E-01
#           3.26462E-01  3.34405E-01  3.42542E-01  3.50876E-01  3.59413E-01
#           3.68158E-01  3.77116E-01  3.86291E-01  3.95690E-01  4.05317E-01
#           4.15179E-01  4.25281E-01  4.35628E-01  4.46227E-01  4.57084E-01
#           4.68205E-01  4.79597E-01  4.91266E-01  5.03219E-01  5.15463E-01
#           5.28005E-01  5.40851E-01  5.54011E-01  5.67490E-01  5.81298E-01
#           5.95441E-01  6.09929E-01  6.24769E-01  6.39970E-01  6.55541E-01
#           6.71491E-01  6.87828E-01  7.04564E-01  7.21706E-01  7.39266E-01
#           7.57253E-01  7.75678E-01  7.94551E-01  8.13883E-01  8.33685E-01
#           8.53969E-01  8.74747E-01  8.96030E-01  9.17831E-01  9.40163E-01
#           9.63038E-01  9.86469E-01  1.01047E+00  1.03506E+00  1.06024E+00
#           1.08604E+00  1.11246E+00  1.13953E+00  1.16725E+00  1.19565E+00
#           1.22474E+00  1.25454E+00  1.28507E+00  1.31633E+00  1.34836E+00
#           1.38117E+00  1.41477E+00  1.44920E+00  1.48446E+00  1.52057E+00
#           1.55757E+00  1.59547E+00  1.63429E+00  1.67405E+00  1.71478E+00
#           1.75650E+00  1.79924E+00  1.84302E+00  1.88786E+00  1.93379E+00
#           1.98084E+00  2.02904E+00  2.07841E+00  2.12898E+00  2.18078E+00
#           2.23384E+00  2.28819E+00  2.34386E+00  2.40089E+00  2.45930E+00
#           2.51914E+00  2.58043E+00  2.64322E+00  2.70753E+00  2.77341E+00
#           2.84088E+00  2.91001E+00  2.98081E+00  3.05333E+00  3.12762E+00
#           3.20372E+00  3.28167E+00  3.36152E+00  3.44330E+00  3.52708E+00
#           3.61290E+00  3.70080E+00  3.79085E+00  3.88308E+00  3.97756E+00
#           4.07434E+00  4.17347E+00  4.27501E+00  4.37903E+00  4.48557E+00
#           4.59471E+00  4.70650E+00  4.82102E+00  4.93832E+00  5.05847E+00
#           5.18155E+00  5.30762E+00  5.43676E+00  5.56904E+00  5.70453E+00
#           5.84333E+00  5.98550E+00  6.13114E+00  6.28031E+00  6.43312E+00
#           6.58964E+00  6.74997E+00  6.91420E+00  7.08243E+00  7.25475E+00
#           7.43126E+00  7.61207E+00  7.79728E+00  7.98700E+00  8.18133E+00
#           8.38038E+00  8.58428E+00  8.79315E+00  9.00709E+00  9.22624E+00
#           9.45072E+00  9.68067E+00  9.91620E+00  1.01575E+01  1.04046E+01
#           1.06578E+01  1.09171E+01  1.11827E+01  1.14548E+01  1.17335E+01
#           1.20190E+01  1.23114E+01  1.26109E+01  1.29178E+01  1.32321E+01
#           1.35540E+01  1.38838E+01  1.42216E+01  1.45676E+01  1.49221E+01
#           1.52851E+01  1.56570E+01  1.60380E+01  1.64282E+01  1.68279E+01
#           1.72374E+01  1.76568E+01  1.80864E+01  1.85264E+01  1.89772E+01
#           1.94389E+01  1.99119E+01  2.03963E+01  2.08926E+01  2.14009E+01
#           2.19216E+01  2.24550E+01  2.30014E+01  2.35610E+01  2.41343E+01
#           2.47215E+01  2.53230E+01  2.59391E+01  2.65702E+01  2.72167E+01
#           2.78789E+01  2.85572E+01  2.92520E+01  2.99637E+01  3.06928E+01
#           3.14396E+01  3.22045E+01  3.29881E+01  3.37907E+01  3.46128E+01
#           3.54550E+01  3.63177E+01  3.72013E+01  3.81064E+01  3.90336E+01
#           3.99833E+01  4.09561E+01  4.19526E+01  4.29734E+01  4.40189E+01
#           4.50900E+01  4.61870E+01  4.73108E+01  4.84619E+01  4.96410E+01
#           5.08488E+01  5.20860E+01  5.33533E+01  5.46514E+01  5.59812E+01
#           5.73432E+01  5.87384E+01  6.01676E+01  6.16315E+01  6.31311E+01
#           6.46671E+01  6.62405E+01  6.78522E+01  6.95031E+01  7.11941E+01
#           7.29263E+01  7.47007E+01  7.65182E+01  7.83800E+01  8.02870E+01
#           8.22405E+01  8.42414E+01  8.62911E+01  8.83906E+01  9.05412E+01
#           9.27442E+01  9.50007E+01  9.73122E+01  9.96799E+01  1.02105E+02
#           1.04589E+02  1.07134E+02  1.09741E+02  1.12411E+02  1.15146E+02
#           1.17948E+02  1.20817E+02  1.23757E+02  1.26768E+02  1.29852E+02
#           1.33012E+02  1.36248E+02  1.39563E+02  1.42959E+02  1.46437E+02
#           1.50000E+02
     unit =    2            # unit is [1/cm^2/(MeV/n)/source]
     axis =  eng            # axis of output
     file = detector-15.out  # file name of output for the above axis
   output = f-curr          # surface crossing forward current spectrum
     part =  neutron  
# kf/name :  2112     
#    used :        main (  %)        temp (  %)       total (  %)
#  memory :         414 (  0)           0 (  0)         414 (  0)

#------------------------------------------------------------------------------
#newpage:
#   no. =    1   reg = 114 - 214

x: Energy [MeV/n]
y:  F-Curr [1/cm^2/(MeV/n)/source]         
p: xlog ylog afac(0.8) form(0.9)
h: n            x            y(neutron ),hh0l   n 
#  e-lower      e-upper      neutron     r.err 
   1.0000E-02   1.0243E-02   1.0568E-03  0.0275
   1.0243E-02   1.0493E-02   1.0307E-03  0.0275
   1.0493E-02   1.0748E-02   1.0178E-03  0.0274
   1.0748E-02   1.1009E-02   9.7316E-04  0.0277
   1.1009E-02   1.1277E-02   9.9418E-04  0.0270
   1.1277E-02   1.1552E-02   9.4427E-04  0.0274
   1.1552E-02   1.1833E-02   9.2697E-04  0.0273
   1.1833E-02   1.2121E-02   8.9672E-04  0.0275
   1.2121E-02   1.2415E-02   9.0664E-04  0.0270
   1.2415E-02   1.2718E-02   8.8052E-04  0.0271
   1.2718E-02   1.3027E-02   8.5011E-04  0.0273
   1.3027E-02   1.3344E-02   8.4459E-04  0.0270
   1.3344E-02   1.3669E-02   8.1940E-04  0.0271
   1.3669E-02   1.4001E-02   8.3541E-04  0.0265
   1.4001E-02   1.4342E-02   7.9472E-04  0.0268
   1.4342E-02   1.4691E-02   7.4484E-04  0.0274
   1.4691E-02   1.5048E-02   7.1388E-04  0.0277
   1.5048E-02   1.5414E-02   7.1531E-04  0.0273
   1.5414E-02   1.5789E-02   7.2997E-04  0.0267
   1.5789E-02   1.6174E-02   7.1417E-04  0.0267
   1.6174E-02   1.6567E-02   6.7744E-04  0.0271
   1.6567E-02   1.6970E-02   6.8899E-04  0.0265
   1.6970E-02   1.7383E-02   6.5078E-04  0.0269
   1.7383E-02   1.7806E-02   6.2057E-04  0.0273
   1.7806E-02   1.8239E-02   6.4332E-04  0.0265
   1.8239E-02   1.8683E-02   6.1779E-04  0.0267
   1.8683E-02   1.9138E-02   5.8348E-04  0.0272
   1.9138E-02   1.9603E-02   5.6096E-04  0.0273
   1.9603E-02   2.0080E-02   5.7860E-04  0.0266
   2.0080E-02   2.0569E-02   5.8939E-04  0.0260
   2.0569E-02   2.1069E-02   5.4127E-04  0.0268
   2.1069E-02   2.1582E-02   5.3250E-04  0.0267
   2.1582E-02   2.2107E-02   5.1329E-04  0.0269
   2.2107E-02   2.2645E-02   5.1855E-04  0.0264
   2.2645E-02   2.3196E-02   5.0427E-04  0.0265
   2.3196E-02   2.3760E-02   4.8228E-04  0.0268
   2.3760E-02   2.4338E-02   4.7619E-04  0.0266
   2.4338E-02   2.4930E-02   4.7423E-04  0.0264
   2.4930E-02   2.5537E-02   4.5796E-04  0.0265
   2.5537E-02   2.6158E-02   4.6417E-04  0.0260
   2.6158E-02   2.6795E-02   4.5722E-04  0.0259
   2.6795E-02   2.7447E-02   4.1177E-04  0.0269
   2.7447E-02   2.8114E-02   4.3435E-04  0.0260
   2.8114E-02   2.8799E-02   4.0651E-04  0.0265
   2.8799E-02   2.9499E-02   4.2122E-04  0.0257
   2.9499E-02   3.0217E-02   3.9618E-04  0.0262
   3.0217E-02   3.0952E-02   4.0465E-04  0.0256
   3.0952E-02   3.1705E-02   3.9370E-04  0.0256
   3.1705E-02   3.2477E-02   3.6627E-04  0.0262
   3.2477E-02   3.3267E-02   3.6194E-04  0.0261
   3.3267E-02   3.4076E-02   3.6766E-04  0.0256
   3.4076E-02   3.4905E-02   3.6601E-04  0.0254
   3.4905E-02   3.5755E-02   3.3703E-04  0.0261
   3.5755E-02   3.6625E-02   3.4466E-04  0.0255
   3.6625E-02   3.7516E-02   3.3031E-04  0.0258
   3.7516E-02   3.8428E-02   3.1188E-04  0.0262
   3.8428E-02   3.9363E-02   3.1586E-04  0.0257
   3.9363E-02   4.0321E-02   3.2256E-04  0.0251
   4.0321E-02   4.1302E-02   2.8781E-04  0.0263
   4.1302E-02   4.2307E-02   2.9876E-04  0.0255
   4.2307E-02   4.3337E-02   2.9198E-04  0.0255
   4.3337E-02   4.4391E-02   2.8705E-04  0.0254
   4.4391E-02   4.5471E-02   2.7039E-04  0.0258
   4.5471E-02   4.6577E-02   2.7122E-04  0.0255
   4.6577E-02   4.7711E-02   2.6643E-04  0.0254
   4.7711E-02   4.8871E-02   2.6180E-04  0.0253
   4.8871E-02   5.0061E-02   2.7499E-04  0.0244
   5.0061E-02   5.1279E-02   2.5157E-04  0.0252
   5.1279E-02   5.2526E-02   2.4850E-04  0.0251
   5.2526E-02   5.3804E-02   2.4900E-04  0.0248
   5.3804E-02   5.5113E-02   2.4078E-04  0.0248
   5.5113E-02   5.6454E-02   2.3148E-04  0.0250
   5.6454E-02   5.7828E-02   2.2715E-04  0.0250
   5.7828E-02   5.9235E-02   2.1877E-04  0.0252
   5.9235E-02   6.0676E-02   2.2340E-04  0.0246
   6.0676E-02   6.2152E-02   2.1623E-04  0.0247
   6.2152E-02   6.3665E-02   2.0800E-04  0.0249
   6.3665E-02   6.5214E-02   2.0652E-04  0.0247
   6.5214E-02   6.6800E-02   1.9950E-04  0.0248
   6.6800E-02   6.8426E-02   2.0485E-04  0.0242
   6.8426E-02   7.0090E-02   1.9341E-04  0.0246
   7.0090E-02   7.1796E-02   1.8518E-04  0.0248
   7.1796E-02   7.3543E-02   1.7666E-04  0.0252
   7.3543E-02   7.5332E-02   1.7986E-04  0.0246
   7.5332E-02   7.7165E-02   1.7863E-04  0.0244
   7.7165E-02   7.9042E-02   1.6963E-04  0.0247
   7.9042E-02   8.0965E-02   1.7525E-04  0.0240
   8.0965E-02   8.2935E-02   1.6438E-04  0.0245
   8.2935E-02   8.4953E-02   1.5849E-04  0.0246
   8.4953E-02   8.7020E-02   1.6383E-04  0.0240
   8.7020E-02   8.9138E-02   1.5529E-04  0.0244
   8.9138E-02   9.1306E-02   1.4894E-04  0.0245
   9.1306E-02   9.3528E-02   1.5063E-04  0.0241
   9.3528E-02   9.5804E-02   1.4751E-04  0.0241
   9.5804E-02   9.8134E-02   1.4272E-04  0.0242
   9.8134E-02   1.0052E-01   1.4502E-04  0.0237
   1.0052E-01   1.0297E-01   1.4281E-04  0.0236
   1.0297E-01   1.0547E-01   1.3484E-04  0.0240
   1.0547E-01   1.0804E-01   1.3939E-04  0.0234
   1.0804E-01   1.1067E-01   1.3243E-04  0.0237
   1.1067E-01   1.1336E-01   1.2769E-04  0.0238
   1.1336E-01   1.1612E-01   1.2895E-04  0.0234
   1.1612E-01   1.1894E-01   1.2390E-04  0.0236
   1.1894E-01   1.2184E-01   1.2172E-04  0.0235
   1.2184E-01   1.2480E-01   1.1695E-04  0.0237
   1.2480E-01   1.2784E-01   1.1303E-04  0.0239
   1.2784E-01   1.3095E-01   1.1246E-04  0.0236
   1.3095E-01   1.3414E-01   1.1202E-04  0.0234
   1.3414E-01   1.3740E-01   1.0841E-04  0.0235
   1.3740E-01   1.4074E-01   1.0580E-04  0.0235
   1.4074E-01   1.4417E-01   1.0386E-04  0.0234
   1.4417E-01   1.4767E-01   1.0485E-04  0.0230
   1.4767E-01   1.5127E-01   1.0206E-04  0.0231
   1.5127E-01   1.5495E-01   9.9596E-05  0.0230
   1.5495E-01   1.5872E-01   9.4293E-05  0.0234
   1.5872E-01   1.6258E-01   9.9730E-05  0.0225
   1.6258E-01   1.6654E-01   9.9433E-05  0.0222
   1.6654E-01   1.7059E-01   9.1452E-05  0.0229
   1.7059E-01   1.7474E-01   9.1032E-05  0.0227
   1.7474E-01   1.7899E-01   9.3580E-05  0.0222
   1.7899E-01   1.8334E-01   8.7975E-05  0.0226
   1.8334E-01   1.8781E-01   8.6534E-05  0.0225
   1.8781E-01   1.9237E-01   8.9508E-05  0.0218
   1.9237E-01   1.9706E-01   8.4807E-05  0.0222
   1.9706E-01   2.0185E-01   8.3800E-05  0.0220
   2.0185E-01   2.0676E-01   8.6590E-05  0.0214
   2.0676E-01   2.1179E-01   8.9142E-05  0.0208
   2.1179E-01   2.1694E-01   9.4995E-05  0.0199
   2.1694E-01   2.2222E-01   1.0290E-04  0.0190
   2.2222E-01   2.2763E-01   1.0504E-04  0.0185
   2.2763E-01   2.3317E-01   1.1035E-04  0.0178
   2.3317E-01   2.3884E-01   1.1139E-04  0.0176
   2.3884E-01   2.4465E-01   1.1569E-04  0.0170
   2.4465E-01   2.5061E-01   1.2088E-04  0.0165
   2.5061E-01   2.5670E-01   1.2830E-04  0.0158
   2.5670E-01   2.6295E-01   1.3540E-04  0.0152
   2.6295E-01   2.6935E-01   1.3839E-04  0.0148
   2.6935E-01   2.7590E-01   1.4524E-04  0.0143
   2.7590E-01   2.8261E-01   1.5125E-04  0.0139
   2.8261E-01   2.8949E-01   1.6178E-04  0.0132
   2.8949E-01   2.9653E-01   1.6366E-04  0.0130
   2.9653E-01   3.0375E-01   1.7053E-04  0.0126
   3.0375E-01   3.1114E-01   1.7820E-04  0.0122
   3.1114E-01   3.1871E-01   1.8571E-04  0.0118
   3.1871E-01   3.2646E-01   1.9193E-04  0.0115
   3.2646E-01   3.3441E-01   2.0239E-04  0.0110
   3.3441E-01   3.4254E-01   2.1007E-04  0.0107
   3.4254E-01   3.5088E-01   2.1478E-04  0.0104
   3.5088E-01   3.5941E-01   2.2378E-04  0.0101
   3.5941E-01   3.6816E-01   2.3097E-04  0.0098
   3.6816E-01   3.7712E-01   2.4491E-04  0.0094
   3.7712E-01   3.8629E-01   2.5417E-04  0.0091
   3.8629E-01   3.9569E-01   2.6407E-04  0.0089
   3.9569E-01   4.0532E-01   2.7426E-04  0.0086
   4.0532E-01   4.1518E-01   2.8371E-04  0.0084
   4.1518E-01   4.2528E-01   2.8886E-04  0.0082
   4.2528E-01   4.3563E-01   3.0581E-04  0.0079
   4.3563E-01   4.4623E-01   3.1850E-04  0.0076
   4.4623E-01   4.5708E-01   3.3143E-04  0.0074
   4.5708E-01   4.6821E-01   3.4479E-04  0.0071
   4.6821E-01   4.7960E-01   3.6207E-04  0.0069
   4.7960E-01   4.9127E-01   3.7280E-04  0.0067
   4.9127E-01   5.0322E-01   3.8205E-04  0.0065
   5.0322E-01   5.1546E-01   3.9624E-04  0.0063
   5.1546E-01   5.2800E-01   4.1226E-04  0.0061
   5.2800E-01   5.4085E-01   4.2874E-04  0.0060
   5.4085E-01   5.5401E-01   4.4839E-04  0.0058
   5.5401E-01   5.6749E-01   4.5887E-04  0.0056
   5.6749E-01   5.8130E-01   4.7739E-04  0.0054
   5.8130E-01   5.9544E-01   4.9356E-04  0.0053
   5.9544E-01   6.0993E-01   5.1037E-04  0.0051
   6.0993E-01   6.2477E-01   5.2407E-04  0.0050
   6.2477E-01   6.3997E-01   5.4336E-04  0.0049
   6.3997E-01   6.5554E-01   5.6066E-04  0.0047
   6.5554E-01   6.7149E-01   5.7297E-04  0.0046
   6.7149E-01   6.8783E-01   5.9471E-04  0.0045
   6.8783E-01   7.0456E-01   6.1315E-04  0.0044
   7.0456E-01   7.2171E-01   6.3034E-04  0.0043
   7.2171E-01   7.3927E-01   6.4385E-04  0.0042
   7.3927E-01   7.5725E-01   6.7013E-04  0.0040
   7.5725E-01   7.7568E-01   6.8525E-04  0.0039
   7.7568E-01   7.9455E-01   7.0524E-04  0.0038
   7.9455E-01   8.1388E-01   7.3365E-04  0.0037
   8.1388E-01   8.3368E-01   7.4819E-04  0.0036
   8.3368E-01   8.5397E-01   7.7320E-04  0.0035
   8.5397E-01   8.7475E-01   7.9326E-04  0.0034
   8.7475E-01   8.9603E-01   8.1207E-04  0.0034
   8.9603E-01   9.1783E-01   8.3510E-04  0.0033
   9.1783E-01   9.4016E-01   8.5159E-04  0.0032
   9.4016E-01   9.6304E-01   8.6733E-04  0.0031
   9.6304E-01   9.8647E-01   8.8839E-04  0.0031
   9.8647E-01   1.0105E+00   9.0149E-04  0.0030
   1.0105E+00   1.0351E+00   9.0530E-04  0.0030
   1.0351E+00   1.0602E+00   9.0936E-04  0.0029
   1.0602E+00   1.0860E+00   9.1964E-04  0.0029
   1.0860E+00   1.1125E+00   9.2767E-04  0.0028
   1.1125E+00   1.1395E+00   9.4172E-04  0.0028
   1.1395E+00   1.1673E+00   9.5571E-04  0.0027
   1.1673E+00   1.1957E+00   9.7807E-04  0.0027
   1.1957E+00   1.2247E+00   9.9247E-04  0.0026
   1.2247E+00   1.2545E+00   9.8225E-04  0.0026
   1.2545E+00   1.2851E+00   9.8696E-04  0.0025
   1.2851E+00   1.3163E+00   9.9473E-04  0.0025
   1.3163E+00   1.3484E+00   1.0068E-03  0.0025
   1.3484E+00   1.3812E+00   1.0212E-03  0.0024
   1.3812E+00   1.4148E+00   1.0416E-03  0.0024
   1.4148E+00   1.4492E+00   1.0500E-03  0.0023
   1.4492E+00   1.4845E+00   1.0601E-03  0.0023
   1.4845E+00   1.5206E+00   1.0655E-03  0.0023
   1.5206E+00   1.5576E+00   1.0578E-03  0.0022
   1.5576E+00   1.5955E+00   1.0449E-03  0.0022
   1.5955E+00   1.6343E+00   1.0332E-03  0.0022
   1.6343E+00   1.6741E+00   1.0269E-03  0.0022
   1.6741E+00   1.7148E+00   1.0168E-03  0.0022
   1.7148E+00   1.7565E+00   1.0099E-03  0.0021
   1.7565E+00   1.7992E+00   1.0156E-03  0.0021
   1.7992E+00   1.8430E+00   1.0199E-03  0.0021
   1.8430E+00   1.8879E+00   1.0134E-03  0.0021
   1.8879E+00   1.9338E+00   1.0056E-03  0.0021
   1.9338E+00   1.9808E+00   1.0030E-03  0.0020
   1.9808E+00   2.0290E+00   1.0054E-03  0.0020
   2.0290E+00   2.0784E+00   9.9493E-04  0.0020
   2.0784E+00   2.1290E+00   9.7292E-04  0.0020
   2.1290E+00   2.1808E+00   9.5680E-04  0.0020
   2.1808E+00   2.2338E+00   9.3757E-04  0.0020
   2.2338E+00   2.2882E+00   9.2535E-04  0.0020
   2.2882E+00   2.3439E+00   9.1264E-04  0.0020
   2.3439E+00   2.4009E+00   9.0975E-04  0.0019
   2.4009E+00   2.4593E+00   9.0525E-04  0.0019
   2.4593E+00   2.5191E+00   9.0207E-04  0.0019
   2.5191E+00   2.5804E+00   8.8832E-04  0.0019
   2.5804E+00   2.6432E+00   8.7245E-04  0.0019
   2.6432E+00   2.7075E+00   8.5789E-04  0.0019
   2.7075E+00   2.7734E+00   8.3837E-04  0.0019
   2.7734E+00   2.8409E+00   8.2206E-04  0.0019
   2.8409E+00   2.9100E+00   8.1029E-04  0.0019
   2.9100E+00   2.9808E+00   7.9719E-04  0.0019
   2.9808E+00   3.0533E+00   7.9160E-04  0.0018
   3.0533E+00   3.1276E+00   7.7564E-04  0.0018
   3.1276E+00   3.2037E+00   7.5619E-04  0.0018
   3.2037E+00   3.2817E+00   7.3815E-04  0.0018
   3.2817E+00   3.3615E+00   7.2371E-04  0.0018
   3.3615E+00   3.4433E+00   7.1155E-04  0.0018
   3.4433E+00   3.5271E+00   7.0263E-04  0.0018
   3.5271E+00   3.6129E+00   6.8654E-04  0.0018
   3.6129E+00   3.7008E+00   6.7090E-04  0.0018
   3.7008E+00   3.7908E+00   6.5282E-04  0.0018
   3.7908E+00   3.8831E+00   6.4009E-04  0.0018
   3.8831E+00   3.9776E+00   6.3002E-04  0.0018
   3.9776E+00   4.0743E+00   6.2154E-04  0.0018
   4.0743E+00   4.1735E+00   6.0654E-04  0.0018
   4.1735E+00   4.2750E+00   5.9361E-04  0.0018
   4.2750E+00   4.3790E+00   5.8242E-04  0.0018
   4.3790E+00   4.4856E+00   5.7312E-04  0.0018
   4.4856E+00   4.5947E+00   5.6466E-04  0.0018
   4.5947E+00   4.7065E+00   5.5333E-04  0.0018
   4.7065E+00   4.8210E+00   5.4291E-04  0.0018
   4.8210E+00   4.9383E+00   5.3344E-04  0.0018
   4.9383E+00   5.0585E+00   5.2660E-04  0.0018
   5.0585E+00   5.1815E+00   5.2166E-04  0.0017
   5.1815E+00   5.3076E+00   5.1272E-04  0.0017
   5.3076E+00   5.4368E+00   4.9921E-04  0.0017
   5.4368E+00   5.5690E+00   4.8429E-04  0.0018
   5.5690E+00   5.7045E+00   4.7150E-04  0.0018
   5.7045E+00   5.8433E+00   4.5721E-04  0.0018
   5.8433E+00   5.9855E+00   4.4615E-04  0.0018
   5.9855E+00   6.1311E+00   4.3521E-04  0.0018
   6.1311E+00   6.2803E+00   4.2266E-04  0.0018
   6.2803E+00   6.4331E+00   4.1118E-04  0.0018
   6.4331E+00   6.5896E+00   3.9849E-04  0.0018
   6.5896E+00   6.7500E+00   3.8613E-04  0.0018
   6.7500E+00   6.9142E+00   3.7583E-04  0.0018
   6.9142E+00   7.0824E+00   3.6440E-04  0.0018
   7.0824E+00   7.2548E+00   3.5359E-04  0.0018
   7.2548E+00   7.4313E+00   3.4343E-04  0.0018
   7.4313E+00   7.6121E+00   3.3331E-04  0.0018
   7.6121E+00   7.7973E+00   3.2468E-04  0.0018
   7.7973E+00   7.9870E+00   3.1541E-04  0.0018
   7.9870E+00   8.1813E+00   3.0731E-04  0.0018
   8.1813E+00   8.3804E+00   2.9801E-04  0.0018
   8.3804E+00   8.5843E+00   2.8928E-04  0.0018
   8.5843E+00   8.7931E+00   2.8084E-04  0.0018
   8.7931E+00   9.0071E+00   2.7354E-04  0.0018
   9.0071E+00   9.2262E+00   2.6436E-04  0.0019
   9.2262E+00   9.4507E+00   2.5747E-04  0.0019
   9.4507E+00   9.6807E+00   2.4989E-04  0.0019
   9.6807E+00   9.9162E+00   2.4242E-04  0.0019
   9.9162E+00   1.0157E+01   2.3575E-04  0.0019
   1.0157E+01   1.0405E+01   2.2743E-04  0.0019
   1.0405E+01   1.0658E+01   2.2069E-04  0.0019
   1.0658E+01   1.0917E+01   2.1427E-04  0.0019
   1.0917E+01   1.1183E+01   2.0673E-04  0.0019
   1.1183E+01   1.1455E+01   2.0102E-04  0.0019
   1.1455E+01   1.1733E+01   1.9538E-04  0.0019
   1.1733E+01   1.2019E+01   1.8814E-04  0.0019
   1.2019E+01   1.2311E+01   1.8215E-04  0.0019
   1.2311E+01   1.2611E+01   1.7626E-04  0.0019
   1.2611E+01   1.2918E+01   1.7052E-04  0.0020
   1.2918E+01   1.3232E+01   1.6466E-04  0.0020
   1.3232E+01   1.3554E+01   1.5937E-04  0.0020
   1.3554E+01   1.3884E+01   1.5378E-04  0.0020
   1.3884E+01   1.4222E+01   1.4856E-04  0.0020
   1.4222E+01   1.4568E+01   1.4319E-04  0.0020
   1.4568E+01   1.4922E+01   1.3847E-04  0.0020
   1.4922E+01   1.5285E+01   1.3317E-04  0.0020
   1.5285E+01   1.5657E+01   1.2821E-04  0.0020
   1.5657E+01   1.6038E+01   1.2350E-04  0.0021
   1.6038E+01   1.6428E+01   1.1912E-04  0.0021
   1.6428E+01   1.6828E+01   1.1438E-04  0.0021
   1.6828E+01   1.7237E+01   1.1047E-04  0.0021
   1.7237E+01   1.7657E+01   1.0603E-04  0.0021
   1.7657E+01   1.8086E+01   1.0230E-04  0.0021
   1.8086E+01   1.8526E+01   9.7774E-05  0.0022
   1.8526E+01   1.8977E+01   9.4407E-05  0.0022
   1.8977E+01   1.9439E+01   9.3298E-05  0.0022
   1.9439E+01   1.9912E+01   9.4403E-05  0.0021
   1.9912E+01   2.0396E+01   9.3563E-05  0.0021
   2.0396E+01   2.0893E+01   9.0275E-05  0.0021
   2.0893E+01   2.1401E+01   8.6621E-05  0.0021
   2.1401E+01   2.1922E+01   8.2709E-05  0.0022
   2.1922E+01   2.2455E+01   7.8995E-05  0.0022
   2.2455E+01   2.3001E+01   7.5233E-05  0.0022
   2.3001E+01   2.3561E+01   7.2123E-05  0.0022
   2.3561E+01   2.4134E+01   6.8423E-05  0.0023
   2.4134E+01   2.4721E+01   6.5186E-05  0.0023
   2.4721E+01   2.5323E+01   6.1841E-05  0.0023
   2.5323E+01   2.5939E+01   5.8473E-05  0.0024
   2.5939E+01   2.6570E+01   5.5460E-05  0.0024
   2.6570E+01   2.7217E+01   5.2494E-05  0.0024
   2.7217E+01   2.7879E+01   4.9691E-05  0.0025
   2.7879E+01   2.8557E+01   4.6847E-05  0.0025
   2.8557E+01   2.9252E+01   4.3978E-05  0.0026
   2.9252E+01   2.9964E+01   4.1467E-05  0.0026
   2.9964E+01   3.0693E+01   3.8906E-05  0.0027
   3.0693E+01   3.1440E+01   3.6363E-05  0.0027
   3.1440E+01   3.2205E+01   3.3989E-05  0.0028
   3.2205E+01   3.2988E+01   3.1648E-05  0.0028
   3.2988E+01   3.3791E+01   2.9632E-05  0.0029
   3.3791E+01   3.4613E+01   2.7554E-05  0.0030
   3.4613E+01   3.5455E+01   2.5643E-05  0.0030
   3.5455E+01   3.6318E+01   2.3715E-05  0.0031
   3.6318E+01   3.7201E+01   2.2102E-05  0.0032
   3.7201E+01   3.8106E+01   2.0299E-05  0.0033
   3.8106E+01   3.9034E+01   1.8720E-05  0.0034
   3.9034E+01   3.9983E+01   1.7272E-05  0.0035
   3.9983E+01   4.0956E+01   1.5933E-05  0.0036
   4.0956E+01   4.1953E+01   1.4520E-05  0.0037
   4.1953E+01   4.2973E+01   1.3375E-05  0.0038
   4.2973E+01   4.4019E+01   1.2288E-05  0.0039
   4.4019E+01   4.5090E+01   1.1177E-05  0.0041
   4.5090E+01   4.6187E+01   1.0086E-05  0.0043
   4.6187E+01   4.7311E+01   9.2163E-06  0.0044
   4.7311E+01   4.8462E+01   8.4402E-06  0.0045
   4.8462E+01   4.9641E+01   7.5166E-06  0.0048
   4.9641E+01   5.0849E+01   6.7410E-06  0.0050
   5.0849E+01   5.2086E+01   6.0490E-06  0.0052
   5.2086E+01   5.3353E+01   5.4398E-06  0.0054
   5.3353E+01   5.4651E+01   4.9051E-06  0.0056
   5.4651E+01   5.5981E+01   4.3558E-06  0.0059
   5.5981E+01   5.7343E+01   3.8616E-06  0.0062
   5.7343E+01   5.8738E+01   3.4537E-06  0.0064
   5.8738E+01   6.0168E+01   3.0321E-06  0.0068
   6.0168E+01   6.1632E+01   2.6657E-06  0.0072
   6.1632E+01   6.3131E+01   2.3416E-06  0.0075
   6.3131E+01   6.4667E+01   2.0399E-06  0.0080
   6.4667E+01   6.6240E+01   1.7884E-06  0.0084
   6.6240E+01   6.7852E+01   1.5236E-06  0.0090
   6.7852E+01   6.9503E+01   1.3281E-06  0.0096
   6.9503E+01   7.1194E+01   1.1129E-06  0.0103
   7.1194E+01   7.2926E+01   9.2933E-07  0.0111
   7.2926E+01   7.4701E+01   7.8823E-07  0.0120
   7.4701E+01   7.6518E+01   6.4857E-07  0.0130
   7.6518E+01   7.8380E+01   5.2424E-07  0.0143
   7.8380E+01   8.0287E+01   4.2432E-07  0.0157
   8.0287E+01   8.2240E+01   3.4063E-07  0.0173
   8.2240E+01   8.4241E+01   2.6547E-07  0.0194
   8.4241E+01   8.6291E+01   2.1086E-07  0.0215
   8.6291E+01   8.8391E+01   1.5775E-07  0.0246
   8.8391E+01   9.0541E+01   1.1755E-07  0.0281
   9.0541E+01   9.2744E+01   8.4069E-08  0.0329
   9.2744E+01   9.5001E+01   5.8674E-08  0.0389
   9.5001E+01   9.7312E+01   4.1706E-08  0.0455
   9.7312E+01   9.9680E+01   2.7960E-08  0.0550
   9.9680E+01   1.0211E+02   1.9214E-08  0.0655
   1.0211E+02   1.0459E+02   1.2237E-08  0.0811
   1.0459E+02   1.0713E+02   7.5450E-09  0.1021
   1.0713E+02   1.0974E+02   3.9898E-09  0.1387
   1.0974E+02   1.1241E+02   2.6965E-09  0.1667
   1.1241E+02   1.1515E+02   1.0237E-09  0.2673
   1.1515E+02   1.1795E+02   7.1388E-10  0.3162
   1.1795E+02   1.2082E+02   2.0908E-10  0.5774
   1.2082E+02   1.2376E+02   1.3607E-10  0.7071
   1.2376E+02   1.2677E+02   6.6421E-11  1.0000
   1.2677E+02   1.2985E+02   0.0000E+00  0.0000
   1.2985E+02   1.3301E+02   0.0000E+00  0.0000
   1.3301E+02   1.3625E+02   0.0000E+00  0.0000
   1.3625E+02   1.3956E+02   0.0000E+00  0.0000
   1.3956E+02   1.4296E+02   0.0000E+00  0.0000
   1.4296E+02   1.4644E+02   0.0000E+00  0.0000
   1.4644E+02   1.5000E+02   0.0000E+00  0.0000

#   sum over                 5.2577E-05
'no. =    1   reg = 114 - 214'
msuc: {\huge [t-cross] in region mesh}
msdr: {\it plotted by \ANGEL \version}
msdl: {\it calculated by \PHITS  3.28}
wt: s(0.7)
\vspace{-3}
  region surface crossing
  area  &=&   1.0000E+00 [cm^2]
e:
 
# Information for Restart Calculation
# This calculation was newly started
# istdev =  2 # 1:Batch variance, 2:History variance
# resc2  = 5.00000000000000000E+09 # Total source weight or Total source weight / maxcas
# resc3  = 5.00000000000000000E+09 # Total history number or Total batch number
# maxcas =   500000000 # History / Batch, only used for istdev=1
# bitrseed = 0110100000100010111000001110001111001110100100011111101000111001 # bit data of rseed
