[ T-Cross ]
    title = [t-cross] in region mesh
     mesh =  reg            # mesh type is region-wise
      reg =    1            # number of crossing regions
      non     r-from    r-to       area
      1       119       219        1.000000    
   e-type =    3            # e-mesh is log given by emin, emax and ne
     emin =  1.0000000E-02  # minimum value of e-mesh points
     emax =   150.0000      # maximum value of e-mesh points
#    edel =  2.4039514E-02  # mesh width of e-mesh points
       ne =    400          # number of e-mesh points
#    data = ( e(i), i = 1, ne + 1 )
#           1.00000E-02  1.02433E-02  1.04925E-02  1.07478E-02  1.10093E-02
#           1.12772E-02  1.15516E-02  1.18326E-02  1.21205E-02  1.24154E-02
#           1.27175E-02  1.30269E-02  1.33439E-02  1.36686E-02  1.40011E-02
#           1.43418E-02  1.46907E-02  1.50482E-02  1.54143E-02  1.57894E-02
#           1.61735E-02  1.65670E-02  1.69701E-02  1.73830E-02  1.78060E-02
#           1.82392E-02  1.86830E-02  1.91375E-02  1.96032E-02  2.00801E-02
#           2.05687E-02  2.10692E-02  2.15818E-02  2.21069E-02  2.26448E-02
#           2.31957E-02  2.37601E-02  2.43382E-02  2.49304E-02  2.55369E-02
#           2.61583E-02  2.67947E-02  2.74467E-02  2.81145E-02  2.87985E-02
#           2.94992E-02  3.02169E-02  3.09521E-02  3.17052E-02  3.24766E-02
#           3.32668E-02  3.40762E-02  3.49053E-02  3.57546E-02  3.66246E-02
#           3.75157E-02  3.84284E-02  3.93634E-02  4.03212E-02  4.13022E-02
#           4.23071E-02  4.33365E-02  4.43909E-02  4.54710E-02  4.65773E-02
#           4.77106E-02  4.88714E-02  5.00605E-02  5.12785E-02  5.25262E-02
#           5.38042E-02  5.51133E-02  5.64542E-02  5.78278E-02  5.92348E-02
#           6.06760E-02  6.21523E-02  6.36645E-02  6.52135E-02  6.68002E-02
#           6.84255E-02  7.00904E-02  7.17957E-02  7.35426E-02  7.53319E-02
#           7.71648E-02  7.90423E-02  8.09655E-02  8.29354E-02  8.49533E-02
#           8.70203E-02  8.91376E-02  9.13064E-02  9.35279E-02  9.58035E-02
#           9.81345E-02  1.00522E-01  1.02968E-01  1.05473E-01  1.08040E-01
#           1.10668E-01  1.13361E-01  1.16119E-01  1.18944E-01  1.21838E-01
#           1.24803E-01  1.27839E-01  1.30950E-01  1.34136E-01  1.37399E-01
#           1.40742E-01  1.44167E-01  1.47675E-01  1.51268E-01  1.54948E-01
#           1.58718E-01  1.62580E-01  1.66535E-01  1.70587E-01  1.74738E-01
#           1.78989E-01  1.83344E-01  1.87805E-01  1.92375E-01  1.97055E-01
#           2.01850E-01  2.06761E-01  2.11792E-01  2.16945E-01  2.22223E-01
#           2.27630E-01  2.33169E-01  2.38842E-01  2.44653E-01  2.50605E-01
#           2.56703E-01  2.62949E-01  2.69346E-01  2.75900E-01  2.82613E-01
#           2.89489E-01  2.96532E-01  3.03747E-01  3.11138E-01  3.18708E-01
#           3.26462E-01  3.34405E-01  3.42542E-01  3.50876E-01  3.59413E-01
#           3.68158E-01  3.77116E-01  3.86291E-01  3.95690E-01  4.05317E-01
#           4.15179E-01  4.25281E-01  4.35628E-01  4.46227E-01  4.57084E-01
#           4.68205E-01  4.79597E-01  4.91266E-01  5.03219E-01  5.15463E-01
#           5.28005E-01  5.40851E-01  5.54011E-01  5.67490E-01  5.81298E-01
#           5.95441E-01  6.09929E-01  6.24769E-01  6.39970E-01  6.55541E-01
#           6.71491E-01  6.87828E-01  7.04564E-01  7.21706E-01  7.39266E-01
#           7.57253E-01  7.75678E-01  7.94551E-01  8.13883E-01  8.33685E-01
#           8.53969E-01  8.74747E-01  8.96030E-01  9.17831E-01  9.40163E-01
#           9.63038E-01  9.86469E-01  1.01047E+00  1.03506E+00  1.06024E+00
#           1.08604E+00  1.11246E+00  1.13953E+00  1.16725E+00  1.19565E+00
#           1.22474E+00  1.25454E+00  1.28507E+00  1.31633E+00  1.34836E+00
#           1.38117E+00  1.41477E+00  1.44920E+00  1.48446E+00  1.52057E+00
#           1.55757E+00  1.59547E+00  1.63429E+00  1.67405E+00  1.71478E+00
#           1.75650E+00  1.79924E+00  1.84302E+00  1.88786E+00  1.93379E+00
#           1.98084E+00  2.02904E+00  2.07841E+00  2.12898E+00  2.18078E+00
#           2.23384E+00  2.28819E+00  2.34386E+00  2.40089E+00  2.45930E+00
#           2.51914E+00  2.58043E+00  2.64322E+00  2.70753E+00  2.77341E+00
#           2.84088E+00  2.91001E+00  2.98081E+00  3.05333E+00  3.12762E+00
#           3.20372E+00  3.28167E+00  3.36152E+00  3.44330E+00  3.52708E+00
#           3.61290E+00  3.70080E+00  3.79085E+00  3.88308E+00  3.97756E+00
#           4.07434E+00  4.17347E+00  4.27501E+00  4.37903E+00  4.48557E+00
#           4.59471E+00  4.70650E+00  4.82102E+00  4.93832E+00  5.05847E+00
#           5.18155E+00  5.30762E+00  5.43676E+00  5.56904E+00  5.70453E+00
#           5.84333E+00  5.98550E+00  6.13114E+00  6.28031E+00  6.43312E+00
#           6.58964E+00  6.74997E+00  6.91420E+00  7.08243E+00  7.25475E+00
#           7.43126E+00  7.61207E+00  7.79728E+00  7.98700E+00  8.18133E+00
#           8.38038E+00  8.58428E+00  8.79315E+00  9.00709E+00  9.22624E+00
#           9.45072E+00  9.68067E+00  9.91620E+00  1.01575E+01  1.04046E+01
#           1.06578E+01  1.09171E+01  1.11827E+01  1.14548E+01  1.17335E+01
#           1.20190E+01  1.23114E+01  1.26109E+01  1.29178E+01  1.32321E+01
#           1.35540E+01  1.38838E+01  1.42216E+01  1.45676E+01  1.49221E+01
#           1.52851E+01  1.56570E+01  1.60380E+01  1.64282E+01  1.68279E+01
#           1.72374E+01  1.76568E+01  1.80864E+01  1.85264E+01  1.89772E+01
#           1.94389E+01  1.99119E+01  2.03963E+01  2.08926E+01  2.14009E+01
#           2.19216E+01  2.24550E+01  2.30014E+01  2.35610E+01  2.41343E+01
#           2.47215E+01  2.53230E+01  2.59391E+01  2.65702E+01  2.72167E+01
#           2.78789E+01  2.85572E+01  2.92520E+01  2.99637E+01  3.06928E+01
#           3.14396E+01  3.22045E+01  3.29881E+01  3.37907E+01  3.46128E+01
#           3.54550E+01  3.63177E+01  3.72013E+01  3.81064E+01  3.90336E+01
#           3.99833E+01  4.09561E+01  4.19526E+01  4.29734E+01  4.40189E+01
#           4.50900E+01  4.61870E+01  4.73108E+01  4.84619E+01  4.96410E+01
#           5.08488E+01  5.20860E+01  5.33533E+01  5.46514E+01  5.59812E+01
#           5.73432E+01  5.87384E+01  6.01676E+01  6.16315E+01  6.31311E+01
#           6.46671E+01  6.62405E+01  6.78522E+01  6.95031E+01  7.11941E+01
#           7.29263E+01  7.47007E+01  7.65182E+01  7.83800E+01  8.02870E+01
#           8.22405E+01  8.42414E+01  8.62911E+01  8.83906E+01  9.05412E+01
#           9.27442E+01  9.50007E+01  9.73122E+01  9.96799E+01  1.02105E+02
#           1.04589E+02  1.07134E+02  1.09741E+02  1.12411E+02  1.15146E+02
#           1.17948E+02  1.20817E+02  1.23757E+02  1.26768E+02  1.29852E+02
#           1.33012E+02  1.36248E+02  1.39563E+02  1.42959E+02  1.46437E+02
#           1.50000E+02
     unit =    2            # unit is [1/cm^2/(MeV/n)/source]
     axis =  eng            # axis of output
     file = detector-20.out  # file name of output for the above axis
   output = f-curr          # surface crossing forward current spectrum
     part =  neutron  
# kf/name :  2112     
#    used :        main (  %)        temp (  %)       total (  %)
#  memory :         414 (  0)           0 (  0)         414 (  0)

#------------------------------------------------------------------------------
#newpage:
#   no. =    1   reg = 119 - 219

x: Energy [MeV/n]
y:  F-Curr [1/cm^2/(MeV/n)/source]         
p: xlog ylog afac(0.8) form(0.9)
h: n            x            y(neutron ),hh0l   n 
#  e-lower      e-upper      neutron     r.err 
   1.0000E-02   1.0243E-02   2.4559E-03  0.0578
   1.0243E-02   1.0493E-02   2.1627E-03  0.0608
   1.0493E-02   1.0748E-02   2.5577E-03  0.0553
   1.0748E-02   1.1009E-02   2.3273E-03  0.0573
   1.1009E-02   1.1277E-02   2.5599E-03  0.0540
   1.1277E-02   1.1552E-02   2.5717E-03  0.0532
   1.1552E-02   1.1833E-02   2.2472E-03  0.0562
   1.1833E-02   1.2121E-02   2.1110E-03  0.0573
   1.2121E-02   1.2415E-02   2.1095E-03  0.0566
   1.2415E-02   1.2718E-02   2.2643E-03  0.0540
   1.2718E-02   1.3027E-02   2.1146E-03  0.0552
   1.3027E-02   1.3344E-02   2.2032E-03  0.0535
   1.3344E-02   1.3669E-02   1.9659E-03  0.0560
   1.3669E-02   1.4001E-02   2.1759E-03  0.0525
   1.4001E-02   1.4342E-02   1.8267E-03  0.0566
   1.4342E-02   1.4691E-02   2.0229E-03  0.0531
   1.4691E-02   1.5048E-02   1.9706E-03  0.0532
   1.5048E-02   1.5414E-02   1.7797E-03  0.0553
   1.5414E-02   1.5789E-02   1.9063E-03  0.0528
   1.5789E-02   1.6174E-02   1.7536E-03  0.0544
   1.6174E-02   1.6567E-02   1.8026E-03  0.0531
   1.6567E-02   1.6970E-02   1.7416E-03  0.0533
   1.6970E-02   1.7383E-02   1.9107E-03  0.0503
   1.7383E-02   1.7806E-02   1.8035E-03  0.0511
   1.7806E-02   1.8239E-02   1.7072E-03  0.0519
   1.8239E-02   1.8683E-02   1.7281E-03  0.0510
   1.8683E-02   1.9138E-02   1.6993E-03  0.0508
   1.9138E-02   1.9603E-02   1.6657E-03  0.0507
   1.9603E-02   2.0080E-02   1.5949E-03  0.0512
   2.0080E-02   2.0569E-02   1.7213E-03  0.0487
   2.0569E-02   2.1069E-02   1.6652E-03  0.0489
   2.1069E-02   2.1582E-02   1.5451E-03  0.0502
   2.1582E-02   2.2107E-02   1.6189E-03  0.0485
   2.2107E-02   2.2645E-02   1.5988E-03  0.0482
   2.2645E-02   2.3196E-02   1.4898E-03  0.0493
   2.3196E-02   2.3760E-02   1.5815E-03  0.0473
   2.3760E-02   2.4338E-02   1.4282E-03  0.0492
   2.4338E-02   2.4930E-02   1.5851E-03  0.0461
   2.4930E-02   2.5537E-02   1.3999E-03  0.0485
   2.5537E-02   2.6158E-02   1.4911E-03  0.0464
   2.6158E-02   2.6795E-02   1.4366E-03  0.0467
   2.6795E-02   2.7447E-02   1.3286E-03  0.0480
   2.7447E-02   2.8114E-02   1.4245E-03  0.0458
   2.8114E-02   2.8799E-02   1.3218E-03  0.0470
   2.8799E-02   2.9499E-02   1.3208E-03  0.0464
   2.9499E-02   3.0217E-02   1.2454E-03  0.0472
   3.0217E-02   3.0952E-02   1.2623E-03  0.0464
   3.0952E-02   3.1705E-02   1.3865E-03  0.0437
   3.1705E-02   3.2477E-02   1.1887E-03  0.0466
   3.2477E-02   3.3267E-02   1.1411E-03  0.0471
   3.3267E-02   3.4076E-02   1.2628E-03  0.0442
   3.4076E-02   3.4905E-02   1.2579E-03  0.0437
   3.4905E-02   3.5755E-02   1.1259E-03  0.0456
   3.5755E-02   3.6625E-02   1.1697E-03  0.0443
   3.6625E-02   3.7516E-02   1.2157E-03  0.0430
   3.7516E-02   3.8428E-02   1.2466E-03  0.0419
   3.8428E-02   3.9363E-02   1.1065E-03  0.0439
   3.9363E-02   4.0321E-02   1.0951E-03  0.0436
   4.0321E-02   4.1302E-02   1.1119E-03  0.0428
   4.1302E-02   4.2307E-02   1.0963E-03  0.0425
   4.2307E-02   4.3337E-02   1.0158E-03  0.0437
   4.3337E-02   4.4391E-02   1.0009E-03  0.0435
   4.4391E-02   4.5471E-02   1.0395E-03  0.0422
   4.5471E-02   4.6577E-02   1.1154E-03  0.0402
   4.6577E-02   4.7711E-02   9.6674E-04  0.0427
   4.7711E-02   4.8871E-02   1.0643E-03  0.0402
   4.8871E-02   5.0061E-02   9.9381E-04  0.0411
   5.0061E-02   5.1279E-02   9.6548E-04  0.0412
   5.1279E-02   5.2526E-02   9.2461E-04  0.0416
   5.2526E-02   5.3804E-02   9.8794E-04  0.0398
   5.3804E-02   5.5113E-02   8.3516E-04  0.0428
   5.5113E-02   5.6454E-02   8.6222E-04  0.0415
   5.6454E-02   5.7828E-02   8.9504E-04  0.0403
   5.7828E-02   5.9235E-02   8.8557E-04  0.0400
   5.9235E-02   6.0676E-02   7.9615E-04  0.0417
   6.0676E-02   6.2152E-02   8.3966E-04  0.0401
   6.2152E-02   6.3665E-02   8.2338E-04  0.0400
   6.3665E-02   6.5214E-02   8.2945E-04  0.0394
   6.5214E-02   6.6800E-02   7.9438E-04  0.0398
   6.6800E-02   6.8426E-02   7.9381E-04  0.0393
   6.8426E-02   7.0090E-02   7.6628E-04  0.0395
   7.0090E-02   7.1796E-02   8.1664E-04  0.0378
   7.1796E-02   7.3543E-02   8.3421E-04  0.0370
   7.3543E-02   7.5332E-02   7.1308E-04  0.0395
   7.5332E-02   7.7165E-02   7.3887E-04  0.0384
   7.7165E-02   7.9042E-02   7.1539E-04  0.0385
   7.9042E-02   8.0965E-02   7.0976E-04  0.0382
   8.0965E-02   8.2935E-02   7.1917E-04  0.0375
   8.2935E-02   8.4953E-02   6.6039E-04  0.0387
   8.4953E-02   8.7020E-02   6.8575E-04  0.0375
   8.7020E-02   8.9138E-02   6.5814E-04  0.0378
   8.9138E-02   9.1306E-02   6.8141E-04  0.0368
   9.1306E-02   9.3528E-02   6.4920E-04  0.0372
   9.3528E-02   9.5804E-02   6.4194E-04  0.0370
   9.5804E-02   9.8134E-02   6.3152E-04  0.0368
   9.8134E-02   1.0052E-01   5.5748E-04  0.0387
   1.0052E-01   1.0297E-01   6.1405E-04  0.0364
   1.0297E-01   1.0547E-01   6.2227E-04  0.0358
   1.0547E-01   1.0804E-01   6.0782E-04  0.0358
   1.0804E-01   1.1067E-01   5.8212E-04  0.0361
   1.1067E-01   1.1336E-01   5.5974E-04  0.0364
   1.1336E-01   1.1612E-01   5.4383E-04  0.0365
   1.1612E-01   1.1894E-01   5.1800E-04  0.0369
   1.1894E-01   1.2184E-01   5.4723E-04  0.0355
   1.2184E-01   1.2480E-01   5.0761E-04  0.0364
   1.2480E-01   1.2784E-01   5.1436E-04  0.0358
   1.2784E-01   1.3095E-01   5.0687E-04  0.0356
   1.3095E-01   1.3414E-01   5.1144E-04  0.0350
   1.3414E-01   1.3740E-01   4.7043E-04  0.0361
   1.3740E-01   1.4074E-01   4.5635E-04  0.0362
   1.4074E-01   1.4417E-01   4.5327E-04  0.0358
   1.4417E-01   1.4767E-01   4.5127E-04  0.0355
   1.4767E-01   1.5127E-01   4.4279E-04  0.0354
   1.5127E-01   1.5495E-01   4.3468E-04  0.0353
   1.5495E-01   1.5872E-01   4.4195E-04  0.0346
   1.5872E-01   1.6258E-01   3.9468E-04  0.0362
   1.6258E-01   1.6654E-01   3.8716E-04  0.0361
   1.6654E-01   1.7059E-01   3.7346E-04  0.0363
   1.7059E-01   1.7474E-01   3.9199E-04  0.0350
   1.7474E-01   1.7899E-01   3.4430E-04  0.0369
   1.7899E-01   1.8334E-01   3.3815E-04  0.0368
   1.8334E-01   1.8781E-01   3.4151E-04  0.0362
   1.8781E-01   1.9237E-01   3.3374E-04  0.0362
   1.9237E-01   1.9706E-01   3.1362E-04  0.0369
   1.9706E-01   2.0185E-01   3.1110E-04  0.0366
   2.0185E-01   2.0676E-01   3.3259E-04  0.0349
   2.0676E-01   2.1179E-01   3.4319E-04  0.0340
   2.1179E-01   2.1694E-01   3.4296E-04  0.0336
   2.1694E-01   2.2222E-01   3.2143E-04  0.0343
   2.2222E-01   2.2763E-01   3.4297E-04  0.0328
   2.2763E-01   2.3317E-01   3.4539E-04  0.0323
   2.3317E-01   2.3884E-01   3.7681E-04  0.0305
   2.3884E-01   2.4465E-01   3.6180E-04  0.0308
   2.4465E-01   2.5061E-01   3.7806E-04  0.0298
   2.5061E-01   2.5670E-01   3.7857E-04  0.0294
   2.5670E-01   2.6295E-01   3.9040E-04  0.0286
   2.6295E-01   2.6935E-01   3.7826E-04  0.0287
   2.6935E-01   2.7590E-01   3.6275E-04  0.0289
   2.7590E-01   2.8261E-01   3.7951E-04  0.0280
   2.8261E-01   2.8949E-01   3.8110E-04  0.0276
   2.8949E-01   2.9653E-01   3.9436E-04  0.0268
   2.9653E-01   3.0375E-01   4.0539E-04  0.0261
   3.0375E-01   3.1114E-01   4.1617E-04  0.0254
   3.1114E-01   3.1871E-01   4.0572E-04  0.0255
   3.1871E-01   3.2646E-01   4.2780E-04  0.0245
   3.2646E-01   3.3441E-01   4.2241E-04  0.0244
   3.3441E-01   3.4254E-01   4.0770E-04  0.0245
   3.4254E-01   3.5088E-01   4.2242E-04  0.0238
   3.5088E-01   3.5941E-01   4.2171E-04  0.0235
   3.5941E-01   3.6816E-01   4.3040E-04  0.0230
   3.6816E-01   3.7712E-01   4.3356E-04  0.0227
   3.7712E-01   3.8629E-01   4.3194E-04  0.0224
   3.8629E-01   3.9569E-01   4.5060E-04  0.0217
   3.9569E-01   4.0532E-01   4.4378E-04  0.0216
   4.0532E-01   4.1518E-01   4.6191E-04  0.0209
   4.1518E-01   4.2528E-01   4.5936E-04  0.0207
   4.2528E-01   4.3563E-01   4.4863E-04  0.0207
   4.3563E-01   4.4623E-01   4.5871E-04  0.0202
   4.4623E-01   4.5708E-01   4.5753E-04  0.0200
   4.5708E-01   4.6821E-01   4.5343E-04  0.0199
   4.6821E-01   4.7960E-01   4.5754E-04  0.0195
   4.7960E-01   4.9127E-01   4.6932E-04  0.0191
   4.9127E-01   5.0322E-01   4.5890E-04  0.0190
   5.0322E-01   5.1546E-01   4.5193E-04  0.0190
   5.1546E-01   5.2800E-01   4.6552E-04  0.0185
   5.2800E-01   5.4085E-01   4.5601E-04  0.0184
   5.4085E-01   5.5401E-01   4.5781E-04  0.0182
   5.5401E-01   5.6749E-01   4.6839E-04  0.0178
   5.6749E-01   5.8130E-01   4.6614E-04  0.0176
   5.8130E-01   5.9544E-01   4.6657E-04  0.0174
   5.9544E-01   6.0993E-01   4.6589E-04  0.0172
   6.0993E-01   6.2477E-01   4.5886E-04  0.0171
   6.2477E-01   6.3997E-01   4.6522E-04  0.0168
   6.3997E-01   6.5554E-01   4.6441E-04  0.0166
   6.5554E-01   6.7149E-01   4.6612E-04  0.0164
   6.7149E-01   6.8783E-01   4.6341E-04  0.0162
   6.8783E-01   7.0456E-01   4.6742E-04  0.0160
   7.0456E-01   7.2171E-01   4.6146E-04  0.0159
   7.2171E-01   7.3927E-01   4.6177E-04  0.0157
   7.3927E-01   7.5725E-01   4.5565E-04  0.0156
   7.5725E-01   7.7568E-01   4.4064E-04  0.0157
   7.7568E-01   7.9455E-01   4.5410E-04  0.0152
   7.9455E-01   8.1388E-01   4.4588E-04  0.0152
   8.1388E-01   8.3368E-01   4.3444E-04  0.0152
   8.3368E-01   8.5397E-01   4.3035E-04  0.0151
   8.5397E-01   8.7475E-01   4.2195E-04  0.0151
   8.7475E-01   8.9603E-01   4.1440E-04  0.0150
   8.9603E-01   9.1783E-01   4.0316E-04  0.0150
   9.1783E-01   9.4016E-01   3.9580E-04  0.0150
   9.4016E-01   9.6304E-01   4.0064E-04  0.0147
   9.6304E-01   9.8647E-01   3.7494E-04  0.0151
   9.8647E-01   1.0105E+00   3.5896E-04  0.0152
   1.0105E+00   1.0351E+00   3.5974E-04  0.0150
   1.0351E+00   1.0602E+00   3.4784E-04  0.0151
   1.0602E+00   1.0860E+00   3.3805E-04  0.0151
   1.0860E+00   1.1125E+00   3.3642E-04  0.0150
   1.1125E+00   1.1395E+00   3.1500E-04  0.0153
   1.1395E+00   1.1673E+00   3.2000E-04  0.0150
   1.1673E+00   1.1957E+00   3.2136E-04  0.0148
   1.1957E+00   1.2247E+00   3.1087E-04  0.0148
   1.2247E+00   1.2545E+00   3.0400E-04  0.0148
   1.2545E+00   1.2851E+00   2.9621E-04  0.0148
   1.2851E+00   1.3163E+00   2.8662E-04  0.0149
   1.3163E+00   1.3484E+00   2.8733E-04  0.0147
   1.3484E+00   1.3812E+00   2.7610E-04  0.0148
   1.3812E+00   1.4148E+00   2.6986E-04  0.0148
   1.4148E+00   1.4492E+00   2.6612E-04  0.0147
   1.4492E+00   1.4845E+00   2.7004E-04  0.0144
   1.4845E+00   1.5206E+00   2.4984E-04  0.0148
   1.5206E+00   1.5576E+00   2.4755E-04  0.0147
   1.5576E+00   1.5955E+00   2.3645E-04  0.0149
   1.5955E+00   1.6343E+00   2.3129E-04  0.0149
   1.6343E+00   1.6741E+00   2.2573E-04  0.0149
   1.6741E+00   1.7148E+00   2.2120E-04  0.0148
   1.7148E+00   1.7565E+00   2.1866E-04  0.0148
   1.7565E+00   1.7992E+00   2.0569E-04  0.0150
   1.7992E+00   1.8430E+00   2.0489E-04  0.0149
   1.8430E+00   1.8879E+00   2.0286E-04  0.0148
   1.8879E+00   1.9338E+00   1.9555E-04  0.0148
   1.9338E+00   1.9808E+00   1.8770E-04  0.0150
   1.9808E+00   2.0290E+00   1.8448E-04  0.0149
   2.0290E+00   2.0784E+00   1.7770E-04  0.0150
   2.0784E+00   2.1290E+00   1.7762E-04  0.0149
   2.1290E+00   2.1808E+00   1.7036E-04  0.0150
   2.1808E+00   2.2338E+00   1.6830E-04  0.0149
   2.2338E+00   2.2882E+00   1.6348E-04  0.0149
   2.2882E+00   2.3439E+00   1.5538E-04  0.0151
   2.3439E+00   2.4009E+00   1.5211E-04  0.0151
   2.4009E+00   2.4593E+00   1.5255E-04  0.0149
   2.4593E+00   2.5191E+00   1.4677E-04  0.0150
   2.5191E+00   2.5804E+00   1.4777E-04  0.0148
   2.5804E+00   2.6432E+00   1.3842E-04  0.0151
   2.6432E+00   2.7075E+00   1.3737E-04  0.0150
   2.7075E+00   2.7734E+00   1.3167E-04  0.0151
   2.7734E+00   2.8409E+00   1.3038E-04  0.0150
   2.8409E+00   2.9100E+00   1.2651E-04  0.0150
   2.9100E+00   2.9808E+00   1.2151E-04  0.0152
   2.9808E+00   3.0533E+00   1.1852E-04  0.0152
   3.0533E+00   3.1276E+00   1.1368E-04  0.0153
   3.1276E+00   3.2037E+00   1.0862E-04  0.0155
   3.2037E+00   3.2817E+00   1.0365E-04  0.0157
   3.2817E+00   3.3615E+00   1.0066E-04  0.0157
   3.3615E+00   3.4433E+00   9.6229E-05  0.0159
   3.4433E+00   3.5271E+00   9.2949E-05  0.0160
   3.5271E+00   3.6129E+00   9.3476E-05  0.0157
   3.6129E+00   3.7008E+00   8.9293E-05  0.0159
   3.7008E+00   3.7908E+00   8.3953E-05  0.0162
   3.7908E+00   3.8831E+00   8.0709E-05  0.0163
   3.8831E+00   3.9776E+00   7.9670E-05  0.0162
   3.9776E+00   4.0743E+00   7.4478E-05  0.0166
   4.0743E+00   4.1735E+00   7.4644E-05  0.0164
   4.1735E+00   4.2750E+00   7.2362E-05  0.0164
   4.2750E+00   4.3790E+00   6.9188E-05  0.0166
   4.3790E+00   4.4856E+00   6.4430E-05  0.0170
   4.4856E+00   4.5947E+00   6.3983E-05  0.0169
   4.5947E+00   4.7065E+00   5.9685E-05  0.0173
   4.7065E+00   4.8210E+00   5.9776E-05  0.0170
   4.8210E+00   4.9383E+00   5.6746E-05  0.0173
   4.9383E+00   5.0585E+00   5.4332E-05  0.0174
   5.0585E+00   5.1815E+00   5.0896E-05  0.0178
   5.1815E+00   5.3076E+00   4.9897E-05  0.0178
   5.3076E+00   5.4368E+00   4.5986E-05  0.0183
   5.4368E+00   5.5690E+00   4.4070E-05  0.0185
   5.5690E+00   5.7045E+00   4.2056E-05  0.0187
   5.7045E+00   5.8433E+00   4.0265E-05  0.0189
   5.8433E+00   5.9855E+00   3.7110E-05  0.0194
   5.9855E+00   6.1311E+00   3.6435E-05  0.0194
   6.1311E+00   6.2803E+00   3.4569E-05  0.0196
   6.2803E+00   6.4331E+00   3.1941E-05  0.0202
   6.4331E+00   6.5896E+00   2.9884E-05  0.0206
   6.5896E+00   6.7500E+00   2.8949E-05  0.0207
   6.7500E+00   6.9142E+00   2.7618E-05  0.0210
   6.9142E+00   7.0824E+00   2.6142E-05  0.0213
   7.0824E+00   7.2548E+00   2.4203E-05  0.0218
   7.2548E+00   7.4313E+00   2.3570E-05  0.0219
   7.4313E+00   7.6121E+00   2.1696E-05  0.0225
   7.6121E+00   7.7973E+00   2.0554E-05  0.0229
   7.7973E+00   7.9870E+00   1.8659E-05  0.0237
   7.9870E+00   8.1813E+00   1.8107E-05  0.0238
   8.1813E+00   8.3804E+00   1.7410E-05  0.0240
   8.3804E+00   8.5843E+00   1.5793E-05  0.0249
   8.5843E+00   8.7931E+00   1.6281E-05  0.0242
   8.7931E+00   9.0071E+00   1.4575E-05  0.0253
   9.0071E+00   9.2262E+00   1.3650E-05  0.0258
   9.2262E+00   9.4507E+00   1.2831E-05  0.0263
   9.4507E+00   9.6807E+00   1.2485E-05  0.0264
   9.6807E+00   9.9162E+00   1.1736E-05  0.0269
   9.9162E+00   1.0157E+01   1.0916E-05  0.0275
   1.0157E+01   1.0405E+01   1.1097E-05  0.0270
   1.0405E+01   1.0658E+01   1.1577E-05  0.0261
   1.0658E+01   1.0917E+01   1.1205E-05  0.0262
   1.0917E+01   1.1183E+01   1.0446E-05  0.0268
   1.1183E+01   1.1455E+01   1.0854E-05  0.0260
   1.1455E+01   1.1733E+01   1.0316E-05  0.0264
   1.1733E+01   1.2019E+01   9.1591E-06  0.0276
   1.2019E+01   1.2311E+01   8.5522E-06  0.0282
   1.2311E+01   1.2611E+01   8.3239E-06  0.0283
   1.2611E+01   1.2918E+01   7.7254E-06  0.0290
   1.2918E+01   1.3232E+01   7.6321E-06  0.0289
   1.3232E+01   1.3554E+01   6.4394E-06  0.0310
   1.3554E+01   1.3884E+01   6.8005E-06  0.0299
   1.3884E+01   1.4222E+01   6.5210E-06  0.0301
   1.4222E+01   1.4568E+01   5.8310E-06  0.0315
   1.4568E+01   1.4922E+01   5.8459E-06  0.0311
   1.4922E+01   1.5285E+01   5.1401E-06  0.0327
   1.5285E+01   1.5657E+01   4.7154E-06  0.0338
   1.5657E+01   1.6038E+01   4.2335E-06  0.0352
   1.6038E+01   1.6428E+01   4.0413E-06  0.0356
   1.6428E+01   1.6828E+01   3.9979E-06  0.0354
   1.6828E+01   1.7237E+01   3.6573E-06  0.0365
   1.7237E+01   1.7657E+01   3.6576E-06  0.0361
   1.7657E+01   1.8086E+01   3.2006E-06  0.0381
   1.8086E+01   1.8526E+01   2.9542E-06  0.0392
   1.8526E+01   1.8977E+01   2.9528E-06  0.0388
   1.8977E+01   1.9439E+01   2.3867E-06  0.0426
   1.9439E+01   1.9912E+01   2.4019E-06  0.0420
   1.9912E+01   2.0396E+01   2.0517E-06  0.0449
   2.0396E+01   2.0893E+01   1.9425E-06  0.0455
   2.0893E+01   2.1401E+01   1.6564E-06  0.0487
   2.1401E+01   2.1922E+01   1.5402E-06  0.0499
   2.1922E+01   2.2455E+01   1.2337E-06  0.0551
   2.2455E+01   2.3001E+01   1.2886E-06  0.0533
   2.3001E+01   2.3561E+01   9.3989E-07  0.0617
   2.3561E+01   2.4134E+01   7.7452E-07  0.0671
   2.4134E+01   2.4721E+01   6.0626E-07  0.0750
   2.4721E+01   2.5323E+01   4.4888E-07  0.0861
   2.5323E+01   2.5939E+01   3.1162E-07  0.1021
   2.5939E+01   2.6570E+01   3.0105E-07  0.1026
   2.6570E+01   2.7217E+01   2.1965E-07  0.1187
   2.7217E+01   2.7879E+01   1.2383E-07  0.1562
   2.7879E+01   2.8557E+01   7.9609E-08  0.1925
   2.8557E+01   2.9252E+01   3.7420E-08  0.2774
   2.9252E+01   2.9964E+01   4.2151E-08  0.2582
   2.9964E+01   3.0693E+01   2.1947E-08  0.3536
   3.0693E+01   3.1440E+01   1.0713E-08  0.5000
   3.1440E+01   3.2205E+01   7.8437E-09  0.5774
   3.2205E+01   3.2988E+01   1.2762E-08  0.4472
   3.2988E+01   3.3791E+01   7.4755E-09  0.5774
   3.3791E+01   3.4613E+01   2.4326E-09  1.0000
   3.4613E+01   3.5455E+01   0.0000E+00  0.0000
   3.5455E+01   3.6318E+01   0.0000E+00  0.0000
   3.6318E+01   3.7201E+01   0.0000E+00  0.0000
   3.7201E+01   3.8106E+01   0.0000E+00  0.0000
   3.8106E+01   3.9034E+01   0.0000E+00  0.0000
   3.9034E+01   3.9983E+01   0.0000E+00  0.0000
   3.9983E+01   4.0956E+01   0.0000E+00  0.0000
   4.0956E+01   4.1953E+01   0.0000E+00  0.0000
   4.1953E+01   4.2973E+01   0.0000E+00  0.0000
   4.2973E+01   4.4019E+01   0.0000E+00  0.0000
   4.4019E+01   4.5090E+01   0.0000E+00  0.0000
   4.5090E+01   4.6187E+01   0.0000E+00  0.0000
   4.6187E+01   4.7311E+01   0.0000E+00  0.0000
   4.7311E+01   4.8462E+01   0.0000E+00  0.0000
   4.8462E+01   4.9641E+01   0.0000E+00  0.0000
   4.9641E+01   5.0849E+01   0.0000E+00  0.0000
   5.0849E+01   5.2086E+01   0.0000E+00  0.0000
   5.2086E+01   5.3353E+01   0.0000E+00  0.0000
   5.3353E+01   5.4651E+01   0.0000E+00  0.0000
   5.4651E+01   5.5981E+01   0.0000E+00  0.0000
   5.5981E+01   5.7343E+01   0.0000E+00  0.0000
   5.7343E+01   5.8738E+01   0.0000E+00  0.0000
   5.8738E+01   6.0168E+01   0.0000E+00  0.0000
   6.0168E+01   6.1632E+01   0.0000E+00  0.0000
   6.1632E+01   6.3131E+01   0.0000E+00  0.0000
   6.3131E+01   6.4667E+01   0.0000E+00  0.0000
   6.4667E+01   6.6240E+01   0.0000E+00  0.0000
   6.6240E+01   6.7852E+01   0.0000E+00  0.0000
   6.7852E+01   6.9503E+01   0.0000E+00  0.0000
   6.9503E+01   7.1194E+01   0.0000E+00  0.0000
   7.1194E+01   7.2926E+01   0.0000E+00  0.0000
   7.2926E+01   7.4701E+01   0.0000E+00  0.0000
   7.4701E+01   7.6518E+01   0.0000E+00  0.0000
   7.6518E+01   7.8380E+01   0.0000E+00  0.0000
   7.8380E+01   8.0287E+01   0.0000E+00  0.0000
   8.0287E+01   8.2240E+01   0.0000E+00  0.0000
   8.2240E+01   8.4241E+01   0.0000E+00  0.0000
   8.4241E+01   8.6291E+01   0.0000E+00  0.0000
   8.6291E+01   8.8391E+01   0.0000E+00  0.0000
   8.8391E+01   9.0541E+01   0.0000E+00  0.0000
   9.0541E+01   9.2744E+01   0.0000E+00  0.0000
   9.2744E+01   9.5001E+01   0.0000E+00  0.0000
   9.5001E+01   9.7312E+01   0.0000E+00  0.0000
   9.7312E+01   9.9680E+01   0.0000E+00  0.0000
   9.9680E+01   1.0211E+02   0.0000E+00  0.0000
   1.0211E+02   1.0459E+02   0.0000E+00  0.0000
   1.0459E+02   1.0713E+02   0.0000E+00  0.0000
   1.0713E+02   1.0974E+02   0.0000E+00  0.0000
   1.0974E+02   1.1241E+02   0.0000E+00  0.0000
   1.1241E+02   1.1515E+02   0.0000E+00  0.0000
   1.1515E+02   1.1795E+02   0.0000E+00  0.0000
   1.1795E+02   1.2082E+02   0.0000E+00  0.0000
   1.2082E+02   1.2376E+02   0.0000E+00  0.0000
   1.2376E+02   1.2677E+02   0.0000E+00  0.0000
   1.2677E+02   1.2985E+02   0.0000E+00  0.0000
   1.2985E+02   1.3301E+02   0.0000E+00  0.0000
   1.3301E+02   1.3625E+02   0.0000E+00  0.0000
   1.3625E+02   1.3956E+02   0.0000E+00  0.0000
   1.3956E+02   1.4296E+02   0.0000E+00  0.0000
   1.4296E+02   1.4644E+02   0.0000E+00  0.0000
   1.4644E+02   1.5000E+02   0.0000E+00  0.0000

#   sum over                 8.2952E-06
'no. =    1   reg = 119 - 219'
msuc: {\huge [t-cross] in region mesh}
msdr: {\it plotted by \ANGEL \version}
msdl: {\it calculated by \PHITS  3.26}
wt: s(0.7)
\vspace{-3}
  region surface crossing
  area  &=&   1.0000E+00 [cm^2]
e:
 
# Information for Restart Calculation
# This calculation was newly started
# istdev =  2 # 1:Batch variance, 2:History variance
# resc2  = 5.00000000000000000E+08 # Total source weight or Total source weight / maxcas
# resc3  = 5.00000000000000000E+08 # Total history number or Total batch number
# maxcas =   500000000 # History / Batch, only used for istdev=1
# bitrseed = 1101101111010011011000101101110001100110110010110001010100010001 # bit data of rseed
