[ T-Cross ]
    title = [t-cross] in region mesh
     mesh =  reg            # mesh type is region-wise
      reg =    1            # number of crossing regions
      non     r-from    r-to       area
      1       100       200        1.000000    
   e-type =    3            # e-mesh is log given by emin, emax and ne
     emin =  1.0000000E-02  # minimum value of e-mesh points
     emax =   150.0000      # maximum value of e-mesh points
#    edel =  2.4039514E-02  # mesh width of e-mesh points
       ne =    400          # number of e-mesh points
#    data = ( e(i), i = 1, ne + 1 )
#           1.00000E-02  1.02433E-02  1.04925E-02  1.07478E-02  1.10093E-02
#           1.12772E-02  1.15516E-02  1.18326E-02  1.21205E-02  1.24154E-02
#           1.27175E-02  1.30269E-02  1.33439E-02  1.36686E-02  1.40011E-02
#           1.43418E-02  1.46907E-02  1.50482E-02  1.54143E-02  1.57894E-02
#           1.61735E-02  1.65670E-02  1.69701E-02  1.73830E-02  1.78060E-02
#           1.82392E-02  1.86830E-02  1.91375E-02  1.96032E-02  2.00801E-02
#           2.05687E-02  2.10692E-02  2.15818E-02  2.21069E-02  2.26448E-02
#           2.31957E-02  2.37601E-02  2.43382E-02  2.49304E-02  2.55369E-02
#           2.61583E-02  2.67947E-02  2.74467E-02  2.81145E-02  2.87985E-02
#           2.94992E-02  3.02169E-02  3.09521E-02  3.17052E-02  3.24766E-02
#           3.32668E-02  3.40762E-02  3.49053E-02  3.57546E-02  3.66246E-02
#           3.75157E-02  3.84284E-02  3.93634E-02  4.03212E-02  4.13022E-02
#           4.23071E-02  4.33365E-02  4.43909E-02  4.54710E-02  4.65773E-02
#           4.77106E-02  4.88714E-02  5.00605E-02  5.12785E-02  5.25262E-02
#           5.38042E-02  5.51133E-02  5.64542E-02  5.78278E-02  5.92348E-02
#           6.06760E-02  6.21523E-02  6.36645E-02  6.52135E-02  6.68002E-02
#           6.84255E-02  7.00904E-02  7.17957E-02  7.35426E-02  7.53319E-02
#           7.71648E-02  7.90423E-02  8.09655E-02  8.29354E-02  8.49533E-02
#           8.70203E-02  8.91376E-02  9.13064E-02  9.35279E-02  9.58035E-02
#           9.81345E-02  1.00522E-01  1.02968E-01  1.05473E-01  1.08040E-01
#           1.10668E-01  1.13361E-01  1.16119E-01  1.18944E-01  1.21838E-01
#           1.24803E-01  1.27839E-01  1.30950E-01  1.34136E-01  1.37399E-01
#           1.40742E-01  1.44167E-01  1.47675E-01  1.51268E-01  1.54948E-01
#           1.58718E-01  1.62580E-01  1.66535E-01  1.70587E-01  1.74738E-01
#           1.78989E-01  1.83344E-01  1.87805E-01  1.92375E-01  1.97055E-01
#           2.01850E-01  2.06761E-01  2.11792E-01  2.16945E-01  2.22223E-01
#           2.27630E-01  2.33169E-01  2.38842E-01  2.44653E-01  2.50605E-01
#           2.56703E-01  2.62949E-01  2.69346E-01  2.75900E-01  2.82613E-01
#           2.89489E-01  2.96532E-01  3.03747E-01  3.11138E-01  3.18708E-01
#           3.26462E-01  3.34405E-01  3.42542E-01  3.50876E-01  3.59413E-01
#           3.68158E-01  3.77116E-01  3.86291E-01  3.95690E-01  4.05317E-01
#           4.15179E-01  4.25281E-01  4.35628E-01  4.46227E-01  4.57084E-01
#           4.68205E-01  4.79597E-01  4.91266E-01  5.03219E-01  5.15463E-01
#           5.28005E-01  5.40851E-01  5.54011E-01  5.67490E-01  5.81298E-01
#           5.95441E-01  6.09929E-01  6.24769E-01  6.39970E-01  6.55541E-01
#           6.71491E-01  6.87828E-01  7.04564E-01  7.21706E-01  7.39266E-01
#           7.57253E-01  7.75678E-01  7.94551E-01  8.13883E-01  8.33685E-01
#           8.53969E-01  8.74747E-01  8.96030E-01  9.17831E-01  9.40163E-01
#           9.63038E-01  9.86469E-01  1.01047E+00  1.03506E+00  1.06024E+00
#           1.08604E+00  1.11246E+00  1.13953E+00  1.16725E+00  1.19565E+00
#           1.22474E+00  1.25454E+00  1.28507E+00  1.31633E+00  1.34836E+00
#           1.38117E+00  1.41477E+00  1.44920E+00  1.48446E+00  1.52057E+00
#           1.55757E+00  1.59547E+00  1.63429E+00  1.67405E+00  1.71478E+00
#           1.75650E+00  1.79924E+00  1.84302E+00  1.88786E+00  1.93379E+00
#           1.98084E+00  2.02904E+00  2.07841E+00  2.12898E+00  2.18078E+00
#           2.23384E+00  2.28819E+00  2.34386E+00  2.40089E+00  2.45930E+00
#           2.51914E+00  2.58043E+00  2.64322E+00  2.70753E+00  2.77341E+00
#           2.84088E+00  2.91001E+00  2.98081E+00  3.05333E+00  3.12762E+00
#           3.20372E+00  3.28167E+00  3.36152E+00  3.44330E+00  3.52708E+00
#           3.61290E+00  3.70080E+00  3.79085E+00  3.88308E+00  3.97756E+00
#           4.07434E+00  4.17347E+00  4.27501E+00  4.37903E+00  4.48557E+00
#           4.59471E+00  4.70650E+00  4.82102E+00  4.93832E+00  5.05847E+00
#           5.18155E+00  5.30762E+00  5.43676E+00  5.56904E+00  5.70453E+00
#           5.84333E+00  5.98550E+00  6.13114E+00  6.28031E+00  6.43312E+00
#           6.58964E+00  6.74997E+00  6.91420E+00  7.08243E+00  7.25475E+00
#           7.43126E+00  7.61207E+00  7.79728E+00  7.98700E+00  8.18133E+00
#           8.38038E+00  8.58428E+00  8.79315E+00  9.00709E+00  9.22624E+00
#           9.45072E+00  9.68067E+00  9.91620E+00  1.01575E+01  1.04046E+01
#           1.06578E+01  1.09171E+01  1.11827E+01  1.14548E+01  1.17335E+01
#           1.20190E+01  1.23114E+01  1.26109E+01  1.29178E+01  1.32321E+01
#           1.35540E+01  1.38838E+01  1.42216E+01  1.45676E+01  1.49221E+01
#           1.52851E+01  1.56570E+01  1.60380E+01  1.64282E+01  1.68279E+01
#           1.72374E+01  1.76568E+01  1.80864E+01  1.85264E+01  1.89772E+01
#           1.94389E+01  1.99119E+01  2.03963E+01  2.08926E+01  2.14009E+01
#           2.19216E+01  2.24550E+01  2.30014E+01  2.35610E+01  2.41343E+01
#           2.47215E+01  2.53230E+01  2.59391E+01  2.65702E+01  2.72167E+01
#           2.78789E+01  2.85572E+01  2.92520E+01  2.99637E+01  3.06928E+01
#           3.14396E+01  3.22045E+01  3.29881E+01  3.37907E+01  3.46128E+01
#           3.54550E+01  3.63177E+01  3.72013E+01  3.81064E+01  3.90336E+01
#           3.99833E+01  4.09561E+01  4.19526E+01  4.29734E+01  4.40189E+01
#           4.50900E+01  4.61870E+01  4.73108E+01  4.84619E+01  4.96410E+01
#           5.08488E+01  5.20860E+01  5.33533E+01  5.46514E+01  5.59812E+01
#           5.73432E+01  5.87384E+01  6.01676E+01  6.16315E+01  6.31311E+01
#           6.46671E+01  6.62405E+01  6.78522E+01  6.95031E+01  7.11941E+01
#           7.29263E+01  7.47007E+01  7.65182E+01  7.83800E+01  8.02870E+01
#           8.22405E+01  8.42414E+01  8.62911E+01  8.83906E+01  9.05412E+01
#           9.27442E+01  9.50007E+01  9.73122E+01  9.96799E+01  1.02105E+02
#           1.04589E+02  1.07134E+02  1.09741E+02  1.12411E+02  1.15146E+02
#           1.17948E+02  1.20817E+02  1.23757E+02  1.26768E+02  1.29852E+02
#           1.33012E+02  1.36248E+02  1.39563E+02  1.42959E+02  1.46437E+02
#           1.50000E+02
     unit =    2            # unit is [1/cm^2/(MeV/n)/source]
     axis =  eng            # axis of output
     file = detector-01.out  # file name of output for the above axis
   output = f-curr          # surface crossing forward current spectrum
     part =  neutron  
# kf/name :  2112     
#    used :        main (  %)        temp (  %)       total (  %)
#  memory :         414 (  0)           0 (  0)         414 (  0)

#------------------------------------------------------------------------------
#newpage:
#   no. =    1   reg = 100 - 200

x: Energy [MeV/n]
y:  F-Curr [1/cm^2/(MeV/n)/source]         
p: xlog ylog afac(0.8) form(0.9)
h: n            x            y(neutron ),hh0l   n 
#  e-lower      e-upper      neutron     r.err 
   1.0000E-02   1.0243E-02   1.8084E-04  0.2132
   1.0243E-02   1.0493E-02   1.1412E-04  0.2636
   1.0493E-02   1.0748E-02   1.9585E-04  0.2000
   1.0748E-02   1.1009E-02   1.3767E-04  0.2357
   1.1009E-02   1.1277E-02   1.7350E-04  0.2066
   1.1277E-02   1.1552E-02   9.4758E-05  0.2774
   1.1552E-02   1.1833E-02   1.5655E-04  0.2132
   1.1833E-02   1.2121E-02   1.1810E-04  0.2425
   1.2121E-02   1.2415E-02   1.8989E-04  0.1890
   1.2415E-02   1.2718E-02   5.9587E-05  0.3333
   1.2718E-02   1.3027E-02   7.2840E-05  0.2953
   1.3027E-02   1.3344E-02   9.5564E-05  0.2559
   1.3344E-02   1.3669E-02   8.0082E-05  0.2774
   1.3669E-02   1.4001E-02   9.0207E-05  0.2582
   1.4001E-02   1.4342E-02   8.8065E-05  0.2582
   1.4342E-02   1.4691E-02   9.1704E-05  0.2500
   1.4691E-02   1.5048E-02   8.9526E-05  0.2500
   1.5048E-02   1.5414E-02   7.2379E-05  0.2728
   1.5414E-02   1.5789E-02   1.1732E-04  0.2132
   1.5789E-02   1.6174E-02   8.3297E-05  0.2500
   1.6174E-02   1.6567E-02   7.1154E-05  0.2673
   1.6567E-02   1.6970E-02   1.4962E-04  0.1817
   1.6970E-02   1.7383E-02   1.0172E-04  0.2182
   1.7383E-02   1.7806E-02   7.0932E-05  0.2582
   1.7806E-02   1.8239E-02   6.9247E-05  0.2582
   1.8239E-02   1.8683E-02   8.1871E-05  0.2337
   1.8683E-02   1.9138E-02   7.6996E-05  0.2373
   1.9138E-02   1.9603E-02   1.0738E-04  0.2000
   1.9603E-02   2.0080E-02   9.2251E-05  0.2132
   2.0080E-02   2.0569E-02   7.3685E-05  0.2357
   2.0569E-02   2.1069E-02   3.9964E-05  0.3162
   2.1069E-02   2.1582E-02   6.2423E-05  0.2500
   2.1582E-02   2.2107E-02   5.7132E-05  0.2582
   2.2107E-02   2.2645E-02   8.2362E-05  0.2119
   2.2645E-02   2.3196E-02   5.8080E-05  0.2500
   2.3196E-02   2.3760E-02   9.2770E-05  0.1949
   2.3760E-02   2.4338E-02   6.6563E-05  0.2269
   2.4338E-02   2.4930E-02   7.7681E-05  0.2085
   2.4930E-02   2.5537E-02   1.0551E-04  0.1768
   2.5537E-02   2.6158E-02   6.1159E-05  0.2294
   2.6158E-02   2.6795E-02   7.9413E-05  0.1981
   2.6795E-02   2.7447E-02   8.6725E-05  0.1874
   2.7447E-02   2.8114E-02   4.2603E-05  0.2635
   2.8114E-02   2.8799E-02   8.0410E-05  0.1894
   2.8799E-02   2.9499E-02   5.1378E-05  0.2357
   2.9499E-02   3.0217E-02   6.1304E-05  0.2132
   3.0217E-02   3.0952E-02   5.7127E-05  0.2182
   3.0952E-02   3.1705E-02   9.8824E-05  0.1636
   3.1705E-02   3.2477E-02   5.4446E-05  0.2182
   3.2477E-02   3.3267E-02   7.5932E-05  0.1826
   3.3267E-02   3.4076E-02   3.9971E-05  0.2475
   3.4076E-02   3.4905E-02   5.7339E-05  0.2032
   3.4905E-02   3.5755E-02   6.2466E-05  0.1927
   3.5755E-02   3.6625E-02   3.7891E-05  0.2436
   3.6625E-02   3.7516E-02   2.7322E-05  0.2849
   3.7516E-02   3.8428E-02   4.8204E-05  0.2132
   3.8428E-02   3.9363E-02   5.3882E-05  0.1986
   3.9363E-02   4.0321E-02   5.4861E-05  0.1944
   4.0321E-02   4.1302E-02   5.0966E-05  0.2000
   4.1302E-02   4.2307E-02   4.8302E-05  0.2022
   4.2307E-02   4.3337E-02   4.4688E-05  0.2085
   4.3337E-02   4.4391E-02   4.9317E-05  0.1961
   4.4391E-02   4.5471E-02   5.2350E-05  0.1874
   4.5471E-02   4.6577E-02   5.0617E-05  0.1890
   4.6577E-02   4.7711E-02   3.4414E-05  0.2250
   4.7711E-02   4.8871E-02   4.5657E-05  0.1933
   4.8871E-02   5.0061E-02   4.2503E-05  0.1982
   5.0061E-02   5.1279E-02   4.7619E-05  0.1857
   5.1279E-02   5.2526E-02   4.1895E-05  0.1952
   5.2526E-02   5.3804E-02   3.1973E-05  0.2194
   5.3804E-02   5.5113E-02   4.5833E-05  0.1826
   5.5113E-02   5.6454E-02   3.4304E-05  0.2085
   5.6454E-02   5.7828E-02   3.0945E-05  0.2160
   5.7828E-02   5.9235E-02   4.5871E-05  0.1755
   5.9235E-02   6.0676E-02   4.7876E-05  0.1696
   6.0676E-02   6.2152E-02   3.2862E-05  0.2022
   6.2152E-02   6.3665E-02   3.8980E-05  0.1831
   6.3665E-02   6.5214E-02   3.5066E-05  0.1914
   6.5214E-02   6.6800E-02   3.9075E-05  0.1796
   6.6800E-02   6.8426E-02   3.4455E-05  0.1890
   6.8426E-02   7.0090E-02   3.2435E-05  0.1925
   7.0090E-02   7.1796E-02   3.6356E-05  0.1796
   7.1796E-02   7.3543E-02   3.0913E-05  0.1925
   7.3543E-02   7.5332E-02   3.3695E-05  0.1818
   7.5332E-02   7.7165E-02   3.8191E-05  0.1690
   7.7165E-02   7.9042E-02   3.2423E-05  0.1802
   7.9042E-02   8.0965E-02   3.4536E-05  0.1731
   8.0965E-02   8.2935E-02   3.1965E-05  0.1772
   8.2935E-02   8.4953E-02   3.1716E-05  0.1768
   8.4953E-02   8.7020E-02   2.1287E-05  0.2132
   8.7020E-02   8.9138E-02   3.1172E-05  0.1741
   8.9138E-02   9.1306E-02   2.8126E-05  0.1803
   9.1306E-02   9.3528E-02   2.4307E-05  0.1925
   9.3528E-02   9.5804E-02   2.8124E-05  0.1768
   9.5804E-02   9.8134E-02   2.8314E-05  0.1741
   9.8134E-02   1.0052E-01   2.5967E-05  0.1796
   1.0052E-01   1.0297E-01   1.1448E-05  0.2673
   1.0297E-01   1.0547E-01   2.7397E-05  0.1700
   1.0547E-01   1.0804E-01   1.8315E-05  0.2052
   1.0804E-01   1.1067E-01   2.5248E-05  0.1732
   1.1067E-01   1.1336E-01   3.0015E-05  0.1567
   1.1336E-01   1.1612E-01   1.9578E-05  0.1925
   1.1612E-01   1.1894E-01   1.8759E-05  0.1933
   1.1894E-01   1.2184E-01   1.6012E-05  0.2071
   1.2184E-01   1.2480E-01   1.6284E-05  0.2030
   1.2480E-01   1.2784E-01   2.3224E-05  0.1679
   1.2784E-01   1.3095E-01   2.2635E-05  0.1682
   1.3095E-01   1.3414E-01   1.8832E-05  0.1826
   1.3414E-01   1.3740E-01   1.9721E-05  0.1759
   1.3740E-01   1.4074E-01   2.0423E-05  0.1709
   1.4074E-01   1.4417E-01   1.6184E-05  0.1885
   1.4417E-01   1.4767E-01   1.7105E-05  0.1826
   1.4767E-01   1.5127E-01   1.7812E-05  0.1768
   1.5127E-01   1.5495E-01   1.3585E-05  0.2000
   1.5495E-01   1.5872E-01   1.2202E-05  0.2085
   1.5872E-01   1.6258E-01   1.7169E-05  0.1733
   1.6258E-01   1.6654E-01   1.4662E-05  0.1857
   1.6654E-01   1.7059E-01   1.5915E-05  0.1756
   1.7059E-01   1.7474E-01   1.0601E-05  0.2132
   1.7474E-01   1.7899E-01   2.2580E-05  0.1443
   1.7899E-01   1.8334E-01   1.6074E-05  0.1690
   1.8334E-01   1.8781E-01   1.0312E-05  0.2085
   1.8781E-01   1.9237E-01   1.5437E-05  0.1679
   1.9237E-01   1.9706E-01   9.5428E-06  0.2103
   1.9706E-01   2.0185E-01   1.3461E-05  0.1755
   2.0185E-01   2.0676E-01   9.0560E-06  0.2112
   2.0676E-01   2.1179E-01   1.5107E-05  0.1622
   2.1179E-01   2.1694E-01   1.5573E-05  0.1577
   2.1694E-01   2.2222E-01   1.5914E-05  0.1543
   2.2222E-01   2.2763E-01   1.5166E-05  0.1562
   2.2763E-01   2.3317E-01   1.8115E-05  0.1410
   2.3317E-01   2.3884E-01   1.3799E-05  0.1596
   2.3884E-01   2.4465E-01   1.4942E-05  0.1512
   2.4465E-01   2.5061E-01   1.5791E-05  0.1459
   2.5061E-01   2.5670E-01   1.4490E-05  0.1502
   2.5670E-01   2.6295E-01   1.8325E-05  0.1320
   2.6295E-01   2.6935E-01   1.9154E-05  0.1275
   2.6935E-01   2.7590E-01   1.4038E-05  0.1474
   2.7590E-01   2.8261E-01   1.6436E-05  0.1345
   2.8261E-01   2.8949E-01   2.0148E-05  0.1200
   2.8949E-01   2.9653E-01   2.3505E-05  0.1095
   2.9653E-01   3.0375E-01   2.1628E-05  0.1128
   3.0375E-01   3.1114E-01   2.4627E-05  0.1048
   3.1114E-01   3.1871E-01   2.1664E-05  0.1104
   3.1871E-01   3.2646E-01   2.3781E-05  0.1041
   3.2646E-01   3.3441E-01   2.0868E-05  0.1095
   3.3441E-01   3.4254E-01   2.3352E-05  0.1026
   3.4254E-01   3.5088E-01   2.7237E-05  0.0938
   3.5088E-01   3.5941E-01   2.1228E-05  0.1048
   3.5941E-01   3.6816E-01   2.4021E-05  0.0972
   3.6816E-01   3.7712E-01   2.4683E-05  0.0946
   3.7712E-01   3.8629E-01   2.7601E-05  0.0887
   3.8629E-01   3.9569E-01   2.2160E-05  0.0979
   3.9569E-01   4.0532E-01   2.2686E-05  0.0956
   4.0532E-01   4.1518E-01   2.6251E-05  0.0878
   4.1518E-01   4.2528E-01   2.5493E-05  0.0879
   4.2528E-01   4.3563E-01   2.1285E-05  0.0950
   4.3563E-01   4.4623E-01   2.6180E-05  0.0847
   4.4623E-01   4.5708E-01   2.5192E-05  0.0851
   4.5708E-01   4.6821E-01   2.5124E-05  0.0844
   4.6821E-01   4.7960E-01   2.5551E-05  0.0828
   4.7960E-01   4.9127E-01   2.7039E-05  0.0795
   4.9127E-01   5.0322E-01   2.4869E-05  0.0819
   5.0322E-01   5.1546E-01   2.3219E-05  0.0838
   5.1546E-01   5.2800E-01   2.2112E-05  0.0848
   5.2800E-01   5.4085E-01   2.6613E-05  0.0764
   5.4085E-01   5.5401E-01   2.8021E-05  0.0736
   5.5401E-01   5.6749E-01   2.4309E-05  0.0779
   5.6749E-01   5.8130E-01   2.4916E-05  0.0761
   5.8130E-01   5.9544E-01   2.8907E-05  0.0698
   5.9544E-01   6.0993E-01   2.7725E-05  0.0704
   6.0993E-01   6.2477E-01   2.4391E-05  0.0740
   6.2477E-01   6.3997E-01   2.5793E-05  0.0713
   6.3997E-01   6.5554E-01   2.5340E-05  0.0710
   6.5554E-01   6.7149E-01   2.3381E-05  0.0730
   6.7149E-01   6.8783E-01   2.5174E-05  0.0695
   6.8783E-01   7.0456E-01   2.5933E-05  0.0678
   7.0456E-01   7.2171E-01   2.9160E-05  0.0631
   7.2171E-01   7.3927E-01   2.6290E-05  0.0656
   7.3927E-01   7.5725E-01   2.5749E-05  0.0656
   7.5725E-01   7.7568E-01   2.7579E-05  0.0626
   7.7568E-01   7.9455E-01   2.2795E-05  0.0681
   7.9455E-01   8.1388E-01   2.6978E-05  0.0619
   8.1388E-01   8.3368E-01   2.6175E-05  0.0620
   8.3368E-01   8.5397E-01   2.3199E-05  0.0651
   8.5397E-01   8.7475E-01   2.3754E-05  0.0636
   8.7475E-01   8.9603E-01   2.5154E-05  0.0610
   8.9603E-01   9.1783E-01   2.2345E-05  0.0638
   9.1783E-01   9.4016E-01   2.5141E-05  0.0596
   9.4016E-01   9.6304E-01   2.5212E-05  0.0588
   9.6304E-01   9.8647E-01   2.4005E-05  0.0595
   9.8647E-01   1.0105E+00   2.3927E-05  0.0589
   1.0105E+00   1.0351E+00   2.3048E-05  0.0593
   1.0351E+00   1.0602E+00   2.4430E-05  0.0569
   1.0602E+00   1.0860E+00   2.2357E-05  0.0588
   1.0860E+00   1.1125E+00   2.1288E-05  0.0595
   1.1125E+00   1.1395E+00   2.5679E-05  0.0535
   1.1395E+00   1.1673E+00   2.3409E-05  0.0554
   1.1673E+00   1.1957E+00   2.5172E-05  0.0528
   1.1957E+00   1.2247E+00   2.6119E-05  0.0512
   1.2247E+00   1.2545E+00   2.1455E-05  0.0558
   1.2545E+00   1.2851E+00   2.0939E-05  0.0558
   1.2851E+00   1.3163E+00   2.3208E-05  0.0524
   1.3163E+00   1.3484E+00   2.1425E-05  0.0539
   1.3484E+00   1.3812E+00   2.2997E-05  0.0514
   1.3812E+00   1.4148E+00   2.2130E-05  0.0517
   1.4148E+00   1.4492E+00   2.0934E-05  0.0526
   1.4492E+00   1.4845E+00   2.1625E-05  0.0511
   1.4845E+00   1.5206E+00   2.4527E-05  0.0473
   1.5206E+00   1.5576E+00   2.2372E-05  0.0490
   1.5576E+00   1.5955E+00   2.1265E-05  0.0497
   1.5955E+00   1.6343E+00   2.2905E-05  0.0473
   1.6343E+00   1.6741E+00   2.4294E-05  0.0454
   1.6741E+00   1.7148E+00   2.3396E-05  0.0456
   1.7148E+00   1.7565E+00   2.1030E-05  0.0477
   1.7565E+00   1.7992E+00   2.0923E-05  0.0472
   1.7992E+00   1.8430E+00   2.2189E-05  0.0453
   1.8430E+00   1.8879E+00   2.2430E-05  0.0445
   1.8879E+00   1.9338E+00   2.2682E-05  0.0437
   1.9338E+00   1.9808E+00   2.0389E-05  0.0455
   1.9808E+00   2.0290E+00   2.0582E-05  0.0448
   2.0290E+00   2.0784E+00   2.2111E-05  0.0427
   2.0784E+00   2.1290E+00   1.8811E-05  0.0457
   2.1290E+00   2.1808E+00   2.1964E-05  0.0418
   2.1808E+00   2.2338E+00   2.1363E-05  0.0419
   2.2338E+00   2.2882E+00   2.1630E-05  0.0411
   2.2882E+00   2.3439E+00   2.1393E-05  0.0409
   2.3439E+00   2.4009E+00   1.8749E-05  0.0431
   2.4009E+00   2.4593E+00   1.9989E-05  0.0413
   2.4593E+00   2.5191E+00   2.0919E-05  0.0399
   2.5191E+00   2.5804E+00   1.9110E-05  0.0412
   2.5804E+00   2.6432E+00   2.0242E-05  0.0396
   2.6432E+00   2.7075E+00   1.9132E-05  0.0402
   2.7075E+00   2.7734E+00   2.0078E-05  0.0388
   2.7734E+00   2.8409E+00   1.9208E-05  0.0392
   2.8409E+00   2.9100E+00   1.8341E-05  0.0396
   2.9100E+00   2.9808E+00   1.7694E-05  0.0399
   2.9808E+00   3.0533E+00   1.9356E-05  0.0377
   3.0533E+00   3.1276E+00   1.6595E-05  0.0402
   3.1276E+00   3.2037E+00   1.8769E-05  0.0373
   3.2037E+00   3.2817E+00   1.8101E-05  0.0376
   3.2817E+00   3.3615E+00   1.8032E-05  0.0372
   3.3615E+00   3.4433E+00   1.6982E-05  0.0379
   3.4433E+00   3.5271E+00   1.7190E-05  0.0372
   3.5271E+00   3.6129E+00   1.6458E-05  0.0376
   3.6129E+00   3.7008E+00   1.7340E-05  0.0361
   3.7008E+00   3.7908E+00   1.7004E-05  0.0361
   3.7908E+00   3.8831E+00   1.6661E-05  0.0360
   3.8831E+00   3.9776E+00   1.6472E-05  0.0358
   3.9776E+00   4.0743E+00   1.5457E-05  0.0365
   4.0743E+00   4.1735E+00   1.6333E-05  0.0351
   4.1735E+00   4.2750E+00   1.5722E-05  0.0353
   4.2750E+00   4.3790E+00   1.5981E-05  0.0346
   4.3790E+00   4.4856E+00   1.6654E-05  0.0335
   4.4856E+00   4.5947E+00   1.5236E-05  0.0346
   4.5947E+00   4.7065E+00   1.5037E-05  0.0344
   4.7065E+00   4.8210E+00   1.5358E-05  0.0337
   4.8210E+00   4.9383E+00   1.4678E-05  0.0341
   4.9383E+00   5.0585E+00   1.4544E-05  0.0338
   5.0585E+00   5.1815E+00   1.4255E-05  0.0337
   5.1815E+00   5.3076E+00   1.4791E-05  0.0327
   5.3076E+00   5.4368E+00   1.4421E-05  0.0327
   5.4368E+00   5.5690E+00   1.4806E-05  0.0319
   5.5690E+00   5.7045E+00   1.4628E-05  0.0317
   5.7045E+00   5.8433E+00   1.4203E-05  0.0318
   5.8433E+00   5.9855E+00   1.4111E-05  0.0315
   5.9855E+00   6.1311E+00   1.3661E-05  0.0317
   6.1311E+00   6.2803E+00   1.3271E-05  0.0317
   6.2803E+00   6.4331E+00   1.3063E-05  0.0316
   6.4331E+00   6.5896E+00   1.3086E-05  0.0312
   6.5896E+00   6.7500E+00   1.2093E-05  0.0321
   6.7500E+00   6.9142E+00   1.2492E-05  0.0312
   6.9142E+00   7.0824E+00   1.3130E-05  0.0301
   7.0824E+00   7.2548E+00   1.2836E-05  0.0300
   7.2548E+00   7.4313E+00   1.3092E-05  0.0294
   7.4313E+00   7.6121E+00   1.2537E-05  0.0297
   7.6121E+00   7.7973E+00   1.2191E-05  0.0297
   7.7973E+00   7.9870E+00   1.2315E-05  0.0292
   7.9870E+00   8.1813E+00   1.2047E-05  0.0292
   8.1813E+00   8.3804E+00   1.2374E-05  0.0285
   8.3804E+00   8.5843E+00   1.2231E-05  0.0283
   8.5843E+00   8.7931E+00   1.2167E-05  0.0280
   8.7931E+00   9.0071E+00   1.2115E-05  0.0278
   9.0071E+00   9.2262E+00   1.2402E-05  0.0271
   9.2262E+00   9.4507E+00   1.2248E-05  0.0270
   9.4507E+00   9.6807E+00   1.2581E-05  0.0263
   9.6807E+00   9.9162E+00   1.2852E-05  0.0257
   9.9162E+00   1.0157E+01   1.2590E-05  0.0257
   1.0157E+01   1.0405E+01   1.2403E-05  0.0255
   1.0405E+01   1.0658E+01   1.3476E-05  0.0242
   1.0658E+01   1.0917E+01   1.3475E-05  0.0239
   1.0917E+01   1.1183E+01   1.3887E-05  0.0233
   1.1183E+01   1.1455E+01   1.4165E-05  0.0228
   1.1455E+01   1.1733E+01   1.3947E-05  0.0227
   1.1733E+01   1.2019E+01   1.4462E-05  0.0220
   1.2019E+01   1.2311E+01   1.4371E-05  0.0218
   1.2311E+01   1.2611E+01   1.5403E-05  0.0208
   1.2611E+01   1.2918E+01   1.5654E-05  0.0204
   1.2918E+01   1.3232E+01   1.6534E-05  0.0196
   1.3232E+01   1.3554E+01   1.7091E-05  0.0191
   1.3554E+01   1.3884E+01   1.7718E-05  0.0185
   1.3884E+01   1.4222E+01   1.8557E-05  0.0179
   1.4222E+01   1.4568E+01   1.9520E-05  0.0172
   1.4568E+01   1.4922E+01   1.9879E-05  0.0168
   1.4922E+01   1.5285E+01   2.2040E-05  0.0158
   1.5285E+01   1.5657E+01   2.2329E-05  0.0155
   1.5657E+01   1.6038E+01   2.3242E-05  0.0150
   1.6038E+01   1.6428E+01   2.4722E-05  0.0144
   1.6428E+01   1.6828E+01   2.6390E-05  0.0138
   1.6828E+01   1.7237E+01   2.8122E-05  0.0132
   1.7237E+01   1.7657E+01   2.9981E-05  0.0126
   1.7657E+01   1.8086E+01   3.2053E-05  0.0121
   1.8086E+01   1.8526E+01   3.4382E-05  0.0115
   1.8526E+01   1.8977E+01   3.6702E-05  0.0110
   1.8977E+01   1.9439E+01   3.9248E-05  0.0105
   1.9439E+01   1.9912E+01   4.3065E-05  0.0099
   1.9912E+01   2.0396E+01   4.5163E-05  0.0096
   2.0396E+01   2.0893E+01   4.9442E-05  0.0090
   2.0893E+01   2.1401E+01   5.1954E-05  0.0087
   2.1401E+01   2.1922E+01   5.5683E-05  0.0083
   2.1922E+01   2.2455E+01   6.1173E-05  0.0078
   2.2455E+01   2.3001E+01   6.4380E-05  0.0075
   2.3001E+01   2.3561E+01   7.0538E-05  0.0071
   2.3561E+01   2.4134E+01   7.4131E-05  0.0069
   2.4134E+01   2.4721E+01   7.8943E-05  0.0066
   2.4721E+01   2.5323E+01   8.3898E-05  0.0063
   2.5323E+01   2.5939E+01   8.8800E-05  0.0060
   2.5939E+01   2.6570E+01   9.3086E-05  0.0058
   2.6570E+01   2.7217E+01   9.7213E-05  0.0056
   2.7217E+01   2.7879E+01   1.0078E-04  0.0055
   2.7879E+01   2.8557E+01   1.0464E-04  0.0053
   2.8557E+01   2.9252E+01   1.0861E-04  0.0051
   2.9252E+01   2.9964E+01   1.0988E-04  0.0051
   2.9964E+01   3.0693E+01   1.1055E-04  0.0050
   3.0693E+01   3.1440E+01   1.1053E-04  0.0049
   3.1440E+01   3.2205E+01   1.1055E-04  0.0049
   3.2205E+01   3.2988E+01   1.0783E-04  0.0049
   3.2988E+01   3.3791E+01   1.0433E-04  0.0049
   3.3791E+01   3.4613E+01   1.0155E-04  0.0049
   3.4613E+01   3.5455E+01   9.5768E-05  0.0050
   3.5455E+01   3.6318E+01   9.0665E-05  0.0051
   3.6318E+01   3.7201E+01   8.3593E-05  0.0052
   3.7201E+01   3.8106E+01   7.6757E-05  0.0054
   3.8106E+01   3.9034E+01   7.0197E-05  0.0055
   3.9034E+01   3.9983E+01   6.3170E-05  0.0058
   3.9983E+01   4.0956E+01   5.7237E-05  0.0060
   4.0956E+01   4.1953E+01   5.0240E-05  0.0063
   4.1953E+01   4.2973E+01   4.4362E-05  0.0066
   4.2973E+01   4.4019E+01   3.8281E-05  0.0071
   4.4019E+01   4.5090E+01   3.2868E-05  0.0075
   4.5090E+01   4.6187E+01   2.8279E-05  0.0080
   4.6187E+01   4.7311E+01   2.4318E-05  0.0086
   4.7311E+01   4.8462E+01   2.0563E-05  0.0092
   4.8462E+01   4.9641E+01   1.7444E-05  0.0099
   4.9641E+01   5.0849E+01   1.4622E-05  0.0106
   5.0849E+01   5.2086E+01   1.2048E-05  0.0116
   5.2086E+01   5.3353E+01   9.8304E-06  0.0127
   5.3353E+01   5.4651E+01   9.0037E-06  0.0131
   5.4651E+01   5.5981E+01   8.5417E-06  0.0133
   5.5981E+01   5.7343E+01   7.9893E-06  0.0136
   5.7343E+01   5.8738E+01   7.9271E-06  0.0134
   5.8738E+01   6.0168E+01   7.5149E-06  0.0136
   6.0168E+01   6.1632E+01   7.1206E-06  0.0139
   6.1632E+01   6.3131E+01   6.3366E-06  0.0145
   6.3131E+01   6.4667E+01   5.5429E-06  0.0153
   6.4667E+01   6.6240E+01   5.0388E-06  0.0159
   6.6240E+01   6.7852E+01   3.9313E-06  0.0178
   6.7852E+01   6.9503E+01   2.6531E-06  0.0214
   6.9503E+01   7.1194E+01   1.3956E-06  0.0291
   7.1194E+01   7.2926E+01   3.7178E-07  0.0557
   7.2926E+01   7.4701E+01   1.0145E-08  0.3333
   7.4701E+01   7.6518E+01   0.0000E+00  0.0000
   7.6518E+01   7.8380E+01   0.0000E+00  0.0000
   7.8380E+01   8.0287E+01   0.0000E+00  0.0000
   8.0287E+01   8.2240E+01   0.0000E+00  0.0000
   8.2240E+01   8.4241E+01   0.0000E+00  0.0000
   8.4241E+01   8.6291E+01   0.0000E+00  0.0000
   8.6291E+01   8.8391E+01   0.0000E+00  0.0000
   8.8391E+01   9.0541E+01   0.0000E+00  0.0000
   9.0541E+01   9.2744E+01   0.0000E+00  0.0000
   9.2744E+01   9.5001E+01   0.0000E+00  0.0000
   9.5001E+01   9.7312E+01   0.0000E+00  0.0000
   9.7312E+01   9.9680E+01   0.0000E+00  0.0000
   9.9680E+01   1.0211E+02   0.0000E+00  0.0000
   1.0211E+02   1.0459E+02   0.0000E+00  0.0000
   1.0459E+02   1.0713E+02   0.0000E+00  0.0000
   1.0713E+02   1.0974E+02   0.0000E+00  0.0000
   1.0974E+02   1.1241E+02   0.0000E+00  0.0000
   1.1241E+02   1.1515E+02   0.0000E+00  0.0000
   1.1515E+02   1.1795E+02   0.0000E+00  0.0000
   1.1795E+02   1.2082E+02   0.0000E+00  0.0000
   1.2082E+02   1.2376E+02   0.0000E+00  0.0000
   1.2376E+02   1.2677E+02   0.0000E+00  0.0000
   1.2677E+02   1.2985E+02   0.0000E+00  0.0000
   1.2985E+02   1.3301E+02   0.0000E+00  0.0000
   1.3301E+02   1.3625E+02   0.0000E+00  0.0000
   1.3625E+02   1.3956E+02   0.0000E+00  0.0000
   1.3956E+02   1.4296E+02   0.0000E+00  0.0000
   1.4296E+02   1.4644E+02   0.0000E+00  0.0000
   1.4644E+02   1.5000E+02   0.0000E+00  0.0000

#   sum over                 1.7461E-05
'no. =    1   reg = 100 - 200'
msuc: {\huge [t-cross] in region mesh}
msdr: {\it plotted by \ANGEL \version}
msdl: {\it calculated by \PHITS  3.26}
wt: s(0.7)
\vspace{-3}
  region surface crossing
  area  &=&   1.0000E+00 [cm^2]
e:
 
# Information for Restart Calculation
# This calculation was newly started
# istdev =  2 # 1:Batch variance, 2:History variance
# resc2  = 5.00000000000000000E+08 # Total source weight or Total source weight / maxcas
# resc3  = 5.00000000000000000E+08 # Total history number or Total batch number
# maxcas =   500000000 # History / Batch, only used for istdev=1
# bitrseed = 1101101111010011011000101101110001100110110010110001010100010001 # bit data of rseed
