[ T-Cross ]
    title = [t-cross] in region mesh
     mesh =  reg            # mesh type is region-wise
      reg =    1            # number of crossing regions
      non     r-from    r-to       area
      1       119       219        1.000000    
   e-type =    3            # e-mesh is log given by emin, emax and ne
     emin =  1.0000000E-02  # minimum value of e-mesh points
     emax =   150.0000      # maximum value of e-mesh points
#    edel =  2.4039514E-02  # mesh width of e-mesh points
       ne =    400          # number of e-mesh points
#    data = ( e(i), i = 1, ne + 1 )
#           1.00000E-02  1.02433E-02  1.04925E-02  1.07478E-02  1.10093E-02
#           1.12772E-02  1.15516E-02  1.18326E-02  1.21205E-02  1.24154E-02
#           1.27175E-02  1.30269E-02  1.33439E-02  1.36686E-02  1.40011E-02
#           1.43418E-02  1.46907E-02  1.50482E-02  1.54143E-02  1.57894E-02
#           1.61735E-02  1.65670E-02  1.69701E-02  1.73830E-02  1.78060E-02
#           1.82392E-02  1.86830E-02  1.91375E-02  1.96032E-02  2.00801E-02
#           2.05687E-02  2.10692E-02  2.15818E-02  2.21069E-02  2.26448E-02
#           2.31957E-02  2.37601E-02  2.43382E-02  2.49304E-02  2.55369E-02
#           2.61583E-02  2.67947E-02  2.74467E-02  2.81145E-02  2.87985E-02
#           2.94992E-02  3.02169E-02  3.09521E-02  3.17052E-02  3.24766E-02
#           3.32668E-02  3.40762E-02  3.49053E-02  3.57546E-02  3.66246E-02
#           3.75157E-02  3.84284E-02  3.93634E-02  4.03212E-02  4.13022E-02
#           4.23071E-02  4.33365E-02  4.43909E-02  4.54710E-02  4.65773E-02
#           4.77106E-02  4.88714E-02  5.00605E-02  5.12785E-02  5.25262E-02
#           5.38042E-02  5.51133E-02  5.64542E-02  5.78278E-02  5.92348E-02
#           6.06760E-02  6.21523E-02  6.36645E-02  6.52135E-02  6.68002E-02
#           6.84255E-02  7.00904E-02  7.17957E-02  7.35426E-02  7.53319E-02
#           7.71648E-02  7.90423E-02  8.09655E-02  8.29354E-02  8.49533E-02
#           8.70203E-02  8.91376E-02  9.13064E-02  9.35279E-02  9.58035E-02
#           9.81345E-02  1.00522E-01  1.02968E-01  1.05473E-01  1.08040E-01
#           1.10668E-01  1.13361E-01  1.16119E-01  1.18944E-01  1.21838E-01
#           1.24803E-01  1.27839E-01  1.30950E-01  1.34136E-01  1.37399E-01
#           1.40742E-01  1.44167E-01  1.47675E-01  1.51268E-01  1.54948E-01
#           1.58718E-01  1.62580E-01  1.66535E-01  1.70587E-01  1.74738E-01
#           1.78989E-01  1.83344E-01  1.87805E-01  1.92375E-01  1.97055E-01
#           2.01850E-01  2.06761E-01  2.11792E-01  2.16945E-01  2.22223E-01
#           2.27630E-01  2.33169E-01  2.38842E-01  2.44653E-01  2.50605E-01
#           2.56703E-01  2.62949E-01  2.69346E-01  2.75900E-01  2.82613E-01
#           2.89489E-01  2.96532E-01  3.03747E-01  3.11138E-01  3.18708E-01
#           3.26462E-01  3.34405E-01  3.42542E-01  3.50876E-01  3.59413E-01
#           3.68158E-01  3.77116E-01  3.86291E-01  3.95690E-01  4.05317E-01
#           4.15179E-01  4.25281E-01  4.35628E-01  4.46227E-01  4.57084E-01
#           4.68205E-01  4.79597E-01  4.91266E-01  5.03219E-01  5.15463E-01
#           5.28005E-01  5.40851E-01  5.54011E-01  5.67490E-01  5.81298E-01
#           5.95441E-01  6.09929E-01  6.24769E-01  6.39970E-01  6.55541E-01
#           6.71491E-01  6.87828E-01  7.04564E-01  7.21706E-01  7.39266E-01
#           7.57253E-01  7.75678E-01  7.94551E-01  8.13883E-01  8.33685E-01
#           8.53969E-01  8.74747E-01  8.96030E-01  9.17831E-01  9.40163E-01
#           9.63038E-01  9.86469E-01  1.01047E+00  1.03506E+00  1.06024E+00
#           1.08604E+00  1.11246E+00  1.13953E+00  1.16725E+00  1.19565E+00
#           1.22474E+00  1.25454E+00  1.28507E+00  1.31633E+00  1.34836E+00
#           1.38117E+00  1.41477E+00  1.44920E+00  1.48446E+00  1.52057E+00
#           1.55757E+00  1.59547E+00  1.63429E+00  1.67405E+00  1.71478E+00
#           1.75650E+00  1.79924E+00  1.84302E+00  1.88786E+00  1.93379E+00
#           1.98084E+00  2.02904E+00  2.07841E+00  2.12898E+00  2.18078E+00
#           2.23384E+00  2.28819E+00  2.34386E+00  2.40089E+00  2.45930E+00
#           2.51914E+00  2.58043E+00  2.64322E+00  2.70753E+00  2.77341E+00
#           2.84088E+00  2.91001E+00  2.98081E+00  3.05333E+00  3.12762E+00
#           3.20372E+00  3.28167E+00  3.36152E+00  3.44330E+00  3.52708E+00
#           3.61290E+00  3.70080E+00  3.79085E+00  3.88308E+00  3.97756E+00
#           4.07434E+00  4.17347E+00  4.27501E+00  4.37903E+00  4.48557E+00
#           4.59471E+00  4.70650E+00  4.82102E+00  4.93832E+00  5.05847E+00
#           5.18155E+00  5.30762E+00  5.43676E+00  5.56904E+00  5.70453E+00
#           5.84333E+00  5.98550E+00  6.13114E+00  6.28031E+00  6.43312E+00
#           6.58964E+00  6.74997E+00  6.91420E+00  7.08243E+00  7.25475E+00
#           7.43126E+00  7.61207E+00  7.79728E+00  7.98700E+00  8.18133E+00
#           8.38038E+00  8.58428E+00  8.79315E+00  9.00709E+00  9.22624E+00
#           9.45072E+00  9.68067E+00  9.91620E+00  1.01575E+01  1.04046E+01
#           1.06578E+01  1.09171E+01  1.11827E+01  1.14548E+01  1.17335E+01
#           1.20190E+01  1.23114E+01  1.26109E+01  1.29178E+01  1.32321E+01
#           1.35540E+01  1.38838E+01  1.42216E+01  1.45676E+01  1.49221E+01
#           1.52851E+01  1.56570E+01  1.60380E+01  1.64282E+01  1.68279E+01
#           1.72374E+01  1.76568E+01  1.80864E+01  1.85264E+01  1.89772E+01
#           1.94389E+01  1.99119E+01  2.03963E+01  2.08926E+01  2.14009E+01
#           2.19216E+01  2.24550E+01  2.30014E+01  2.35610E+01  2.41343E+01
#           2.47215E+01  2.53230E+01  2.59391E+01  2.65702E+01  2.72167E+01
#           2.78789E+01  2.85572E+01  2.92520E+01  2.99637E+01  3.06928E+01
#           3.14396E+01  3.22045E+01  3.29881E+01  3.37907E+01  3.46128E+01
#           3.54550E+01  3.63177E+01  3.72013E+01  3.81064E+01  3.90336E+01
#           3.99833E+01  4.09561E+01  4.19526E+01  4.29734E+01  4.40189E+01
#           4.50900E+01  4.61870E+01  4.73108E+01  4.84619E+01  4.96410E+01
#           5.08488E+01  5.20860E+01  5.33533E+01  5.46514E+01  5.59812E+01
#           5.73432E+01  5.87384E+01  6.01676E+01  6.16315E+01  6.31311E+01
#           6.46671E+01  6.62405E+01  6.78522E+01  6.95031E+01  7.11941E+01
#           7.29263E+01  7.47007E+01  7.65182E+01  7.83800E+01  8.02870E+01
#           8.22405E+01  8.42414E+01  8.62911E+01  8.83906E+01  9.05412E+01
#           9.27442E+01  9.50007E+01  9.73122E+01  9.96799E+01  1.02105E+02
#           1.04589E+02  1.07134E+02  1.09741E+02  1.12411E+02  1.15146E+02
#           1.17948E+02  1.20817E+02  1.23757E+02  1.26768E+02  1.29852E+02
#           1.33012E+02  1.36248E+02  1.39563E+02  1.42959E+02  1.46437E+02
#           1.50000E+02
     unit =    2            # unit is [1/cm^2/(MeV/n)/source]
     axis =  eng            # axis of output
     file = detector-20.out  # file name of output for the above axis
   output = f-curr          # surface crossing forward current spectrum
     part =  neutron  
# kf/name :  2112     
#    used :        main (  %)        temp (  %)       total (  %)
#  memory :         414 (  0)           0 (  0)         414 (  0)

#------------------------------------------------------------------------------
#newpage:
#   no. =    1   reg = 119 - 219

x: Energy [MeV/n]
y:  F-Curr [1/cm^2/(MeV/n)/source]         
p: xlog ylog afac(0.8) form(0.9)
h: n            x            y(neutron ),hh0l   n 
#  e-lower      e-upper      neutron     r.err 
   1.0000E-02   1.0243E-02   3.8997E-02  0.0046
   1.0243E-02   1.0493E-02   3.8096E-02  0.0046
   1.0493E-02   1.0748E-02   3.8048E-02  0.0045
   1.0748E-02   1.1009E-02   3.7574E-02  0.0045
   1.1009E-02   1.1277E-02   3.7385E-02  0.0045
   1.1277E-02   1.1552E-02   3.7090E-02  0.0044
   1.1552E-02   1.1833E-02   3.6579E-02  0.0044
   1.1833E-02   1.2121E-02   3.6094E-02  0.0044
   1.2121E-02   1.2415E-02   3.6115E-02  0.0043
   1.2415E-02   1.2718E-02   3.5481E-02  0.0043
   1.2718E-02   1.3027E-02   3.5066E-02  0.0043
   1.3027E-02   1.3344E-02   3.4988E-02  0.0042
   1.3344E-02   1.3669E-02   3.4643E-02  0.0042
   1.3669E-02   1.4001E-02   3.4625E-02  0.0042
   1.4001E-02   1.4342E-02   3.4130E-02  0.0041
   1.4342E-02   1.4691E-02   3.3998E-02  0.0041
   1.4691E-02   1.5048E-02   3.3253E-02  0.0041
   1.5048E-02   1.5414E-02   3.2848E-02  0.0041
   1.5414E-02   1.5789E-02   3.2940E-02  0.0040
   1.5789E-02   1.6174E-02   3.2434E-02  0.0040
   1.6174E-02   1.6567E-02   3.2010E-02  0.0040
   1.6567E-02   1.6970E-02   3.1821E-02  0.0039
   1.6970E-02   1.7383E-02   3.1467E-02  0.0039
   1.7383E-02   1.7806E-02   3.1377E-02  0.0039
   1.7806E-02   1.8239E-02   3.0930E-02  0.0039
   1.8239E-02   1.8683E-02   3.0643E-02  0.0038
   1.8683E-02   1.9138E-02   3.0479E-02  0.0038
   1.9138E-02   1.9603E-02   3.0173E-02  0.0038
   1.9603E-02   2.0080E-02   2.9644E-02  0.0038
   2.0080E-02   2.0569E-02   2.9661E-02  0.0037
   2.0569E-02   2.1069E-02   2.9075E-02  0.0037
   2.1069E-02   2.1582E-02   2.9011E-02  0.0037
   2.1582E-02   2.2107E-02   2.8677E-02  0.0036
   2.2107E-02   2.2645E-02   2.8560E-02  0.0036
   2.2645E-02   2.3196E-02   2.8201E-02  0.0036
   2.3196E-02   2.3760E-02   2.8030E-02  0.0036
   2.3760E-02   2.4338E-02   2.7682E-02  0.0035
   2.4338E-02   2.4930E-02   2.7565E-02  0.0035
   2.4930E-02   2.5537E-02   2.7252E-02  0.0035
   2.5537E-02   2.6158E-02   2.6900E-02  0.0035
   2.6158E-02   2.6795E-02   2.6543E-02  0.0034
   2.6795E-02   2.7447E-02   2.6414E-02  0.0034
   2.7447E-02   2.8114E-02   2.6137E-02  0.0034
   2.8114E-02   2.8799E-02   2.5989E-02  0.0034
   2.8799E-02   2.9499E-02   2.5630E-02  0.0033
   2.9499E-02   3.0217E-02   2.5508E-02  0.0033
   3.0217E-02   3.0952E-02   2.5117E-02  0.0033
   3.0952E-02   3.1705E-02   2.4797E-02  0.0033
   3.1705E-02   3.2477E-02   2.4557E-02  0.0032
   3.2477E-02   3.3267E-02   2.4515E-02  0.0032
   3.3267E-02   3.4076E-02   2.4229E-02  0.0032
   3.4076E-02   3.4905E-02   2.4063E-02  0.0032
   3.4905E-02   3.5755E-02   2.3782E-02  0.0031
   3.5755E-02   3.6625E-02   2.3500E-02  0.0031
   3.6625E-02   3.7516E-02   2.3161E-02  0.0031
   3.7516E-02   3.8428E-02   2.3063E-02  0.0031
   3.8428E-02   3.9363E-02   2.2861E-02  0.0031
   3.9363E-02   4.0321E-02   2.2588E-02  0.0030
   4.0321E-02   4.1302E-02   2.2342E-02  0.0030
   4.1302E-02   4.2307E-02   2.2126E-02  0.0030
   4.2307E-02   4.3337E-02   2.1952E-02  0.0030
   4.3337E-02   4.4391E-02   2.1725E-02  0.0030
   4.4391E-02   4.5471E-02   2.1562E-02  0.0029
   4.5471E-02   4.6577E-02   2.1378E-02  0.0029
   4.6577E-02   4.7711E-02   2.1026E-02  0.0029
   4.7711E-02   4.8871E-02   2.0817E-02  0.0029
   4.8871E-02   5.0061E-02   2.0623E-02  0.0029
   5.0061E-02   5.1279E-02   2.0439E-02  0.0028
   5.1279E-02   5.2526E-02   2.0284E-02  0.0028
   5.2526E-02   5.3804E-02   2.0108E-02  0.0028
   5.3804E-02   5.5113E-02   1.9858E-02  0.0028
   5.5113E-02   5.6454E-02   1.9665E-02  0.0028
   5.6454E-02   5.7828E-02   1.9451E-02  0.0027
   5.7828E-02   5.9235E-02   1.9240E-02  0.0027
   5.9235E-02   6.0676E-02   1.9148E-02  0.0027
   6.0676E-02   6.2152E-02   1.8911E-02  0.0027
   6.2152E-02   6.3665E-02   1.8774E-02  0.0027
   6.3665E-02   6.5214E-02   1.8482E-02  0.0026
   6.5214E-02   6.6800E-02   1.8387E-02  0.0026
   6.6800E-02   6.8426E-02   1.8130E-02  0.0026
   6.8426E-02   7.0090E-02   1.7841E-02  0.0026
   7.0090E-02   7.1796E-02   1.7836E-02  0.0026
   7.1796E-02   7.3543E-02   1.7544E-02  0.0026
   7.3543E-02   7.5332E-02   1.7400E-02  0.0025
   7.5332E-02   7.7165E-02   1.7238E-02  0.0025
   7.7165E-02   7.9042E-02   1.7099E-02  0.0025
   7.9042E-02   8.0965E-02   1.6818E-02  0.0025
   8.0965E-02   8.2935E-02   1.6708E-02  0.0025
   8.2935E-02   8.4953E-02   1.6577E-02  0.0024
   8.4953E-02   8.7020E-02   1.6347E-02  0.0024
   8.7020E-02   8.9138E-02   1.6172E-02  0.0024
   8.9138E-02   9.1306E-02   1.5972E-02  0.0024
   9.1306E-02   9.3528E-02   1.5866E-02  0.0024
   9.3528E-02   9.5804E-02   1.5696E-02  0.0024
   9.5804E-02   9.8134E-02   1.5534E-02  0.0024
   9.8134E-02   1.0052E-01   1.5345E-02  0.0023
   1.0052E-01   1.0297E-01   1.5169E-02  0.0023
   1.0297E-01   1.0547E-01   1.5067E-02  0.0023
   1.0547E-01   1.0804E-01   1.4835E-02  0.0023
   1.0804E-01   1.1067E-01   1.4636E-02  0.0023
   1.1067E-01   1.1336E-01   1.4541E-02  0.0023
   1.1336E-01   1.1612E-01   1.4342E-02  0.0022
   1.1612E-01   1.1894E-01   1.4221E-02  0.0022
   1.1894E-01   1.2184E-01   1.4061E-02  0.0022
   1.2184E-01   1.2480E-01   1.3856E-02  0.0022
   1.2480E-01   1.2784E-01   1.3756E-02  0.0022
   1.2784E-01   1.3095E-01   1.3584E-02  0.0022
   1.3095E-01   1.3414E-01   1.3433E-02  0.0022
   1.3414E-01   1.3740E-01   1.3259E-02  0.0022
   1.3740E-01   1.4074E-01   1.3074E-02  0.0021
   1.4074E-01   1.4417E-01   1.2981E-02  0.0021
   1.4417E-01   1.4767E-01   1.2801E-02  0.0021
   1.4767E-01   1.5127E-01   1.2663E-02  0.0021
   1.5127E-01   1.5495E-01   1.2495E-02  0.0021
   1.5495E-01   1.5872E-01   1.2347E-02  0.0021
   1.5872E-01   1.6258E-01   1.2194E-02  0.0021
   1.6258E-01   1.6654E-01   1.2037E-02  0.0021
   1.6654E-01   1.7059E-01   1.1931E-02  0.0020
   1.7059E-01   1.7474E-01   1.1772E-02  0.0020
   1.7474E-01   1.7899E-01   1.1627E-02  0.0020
   1.7899E-01   1.8334E-01   1.1468E-02  0.0020
   1.8334E-01   1.8781E-01   1.1305E-02  0.0020
   1.8781E-01   1.9237E-01   1.1206E-02  0.0020
   1.9237E-01   1.9706E-01   1.1059E-02  0.0020
   1.9706E-01   2.0185E-01   1.0941E-02  0.0020
   2.0185E-01   2.0676E-01   1.0761E-02  0.0019
   2.0676E-01   2.1179E-01   1.0609E-02  0.0019
   2.1179E-01   2.1694E-01   1.0473E-02  0.0019
   2.1694E-01   2.2222E-01   1.0326E-02  0.0019
   2.2222E-01   2.2763E-01   1.0190E-02  0.0019
   2.2763E-01   2.3317E-01   1.0074E-02  0.0019
   2.3317E-01   2.3884E-01   9.9096E-03  0.0019
   2.3884E-01   2.4465E-01   9.7783E-03  0.0019
   2.4465E-01   2.5061E-01   9.6598E-03  0.0019
   2.5061E-01   2.5670E-01   9.4967E-03  0.0019
   2.5670E-01   2.6295E-01   9.3835E-03  0.0018
   2.6295E-01   2.6935E-01   9.2283E-03  0.0018
   2.6935E-01   2.7590E-01   9.0920E-03  0.0018
   2.7590E-01   2.8261E-01   8.9533E-03  0.0018
   2.8261E-01   2.8949E-01   8.8443E-03  0.0018
   2.8949E-01   2.9653E-01   8.6890E-03  0.0018
   2.9653E-01   3.0375E-01   8.5648E-03  0.0018
   3.0375E-01   3.1114E-01   8.4193E-03  0.0018
   3.1114E-01   3.1871E-01   8.2913E-03  0.0018
   3.1871E-01   3.2646E-01   8.1418E-03  0.0018
   3.2646E-01   3.3441E-01   8.0490E-03  0.0018
   3.3441E-01   3.4254E-01   7.9067E-03  0.0018
   3.4254E-01   3.5088E-01   7.7654E-03  0.0018
   3.5088E-01   3.5941E-01   7.6530E-03  0.0018
   3.5941E-01   3.6816E-01   7.4932E-03  0.0017
   3.6816E-01   3.7712E-01   7.3767E-03  0.0017
   3.7712E-01   3.8629E-01   7.2508E-03  0.0017
   3.8629E-01   3.9569E-01   7.0947E-03  0.0017
   3.9569E-01   4.0532E-01   6.9721E-03  0.0017
   4.0532E-01   4.1518E-01   6.8697E-03  0.0017
   4.1518E-01   4.2528E-01   6.7351E-03  0.0017
   4.2528E-01   4.3563E-01   6.6065E-03  0.0017
   4.3563E-01   4.4623E-01   6.4760E-03  0.0017
   4.4623E-01   4.5708E-01   6.3412E-03  0.0017
   4.5708E-01   4.6821E-01   6.2202E-03  0.0017
   4.6821E-01   4.7960E-01   6.1052E-03  0.0017
   4.7960E-01   4.9127E-01   5.9578E-03  0.0017
   4.9127E-01   5.0322E-01   5.8558E-03  0.0017
   5.0322E-01   5.1546E-01   5.7213E-03  0.0017
   5.1546E-01   5.2800E-01   5.5771E-03  0.0017
   5.2800E-01   5.4085E-01   5.4861E-03  0.0017
   5.4085E-01   5.5401E-01   5.3382E-03  0.0017
   5.5401E-01   5.6749E-01   5.2088E-03  0.0017
   5.6749E-01   5.8130E-01   5.1022E-03  0.0017
   5.8130E-01   5.9544E-01   4.9639E-03  0.0017
   5.9544E-01   6.0993E-01   4.8524E-03  0.0017
   6.0993E-01   6.2477E-01   4.7343E-03  0.0017
   6.2477E-01   6.3997E-01   4.6066E-03  0.0017
   6.3997E-01   6.5554E-01   4.4909E-03  0.0017
   6.5554E-01   6.7149E-01   4.3496E-03  0.0017
   6.7149E-01   6.8783E-01   4.2487E-03  0.0017
   6.8783E-01   7.0456E-01   4.1323E-03  0.0017
   7.0456E-01   7.2171E-01   3.9959E-03  0.0017
   7.2171E-01   7.3927E-01   3.8810E-03  0.0017
   7.3927E-01   7.5725E-01   3.7497E-03  0.0017
   7.5725E-01   7.7568E-01   3.6295E-03  0.0017
   7.7568E-01   7.9455E-01   3.5152E-03  0.0017
   7.9455E-01   8.1388E-01   3.4066E-03  0.0017
   8.1388E-01   8.3368E-01   3.2759E-03  0.0018
   8.3368E-01   8.5397E-01   3.1623E-03  0.0018
   8.5397E-01   8.7475E-01   3.0375E-03  0.0018
   8.7475E-01   8.9603E-01   2.9260E-03  0.0018
   8.9603E-01   9.1783E-01   2.8040E-03  0.0018
   9.1783E-01   9.4016E-01   2.6816E-03  0.0018
   9.4016E-01   9.6304E-01   2.5664E-03  0.0018
   9.6304E-01   9.8647E-01   2.4566E-03  0.0019
   9.8647E-01   1.0105E+00   2.3489E-03  0.0019
   1.0105E+00   1.0351E+00   2.3433E-03  0.0019
   1.0351E+00   1.0602E+00   2.3556E-03  0.0018
   1.0602E+00   1.0860E+00   2.3814E-03  0.0018
   1.0860E+00   1.1125E+00   2.4056E-03  0.0018
   1.1125E+00   1.1395E+00   2.4537E-03  0.0017
   1.1395E+00   1.1673E+00   2.4964E-03  0.0017
   1.1673E+00   1.1957E+00   2.5689E-03  0.0017
   1.1957E+00   1.2247E+00   2.6084E-03  0.0016
   1.2247E+00   1.2545E+00   2.6059E-03  0.0016
   1.2545E+00   1.2851E+00   2.6085E-03  0.0016
   1.2851E+00   1.3163E+00   2.6237E-03  0.0016
   1.3163E+00   1.3484E+00   2.6484E-03  0.0015
   1.3484E+00   1.3812E+00   2.6850E-03  0.0015
   1.3812E+00   1.4148E+00   2.7218E-03  0.0015
   1.4148E+00   1.4492E+00   2.6988E-03  0.0015
   1.4492E+00   1.4845E+00   2.6699E-03  0.0015
   1.4845E+00   1.5206E+00   2.6463E-03  0.0014
   1.5206E+00   1.5576E+00   2.6279E-03  0.0014
   1.5576E+00   1.5955E+00   2.6268E-03  0.0014
   1.5955E+00   1.6343E+00   2.6319E-03  0.0014
   1.6343E+00   1.6741E+00   2.6420E-03  0.0014
   1.6741E+00   1.7148E+00   2.6639E-03  0.0014
   1.7148E+00   1.7565E+00   2.6219E-03  0.0014
   1.7565E+00   1.7992E+00   2.5790E-03  0.0013
   1.7992E+00   1.8430E+00   2.5401E-03  0.0013
   1.8430E+00   1.8879E+00   2.5064E-03  0.0013
   1.8879E+00   1.9338E+00   2.4803E-03  0.0013
   1.9338E+00   1.9808E+00   2.4694E-03  0.0013
   1.9808E+00   2.0290E+00   2.4513E-03  0.0013
   2.0290E+00   2.0784E+00   2.3873E-03  0.0013
   2.0784E+00   2.1290E+00   2.3191E-03  0.0013
   2.1290E+00   2.1808E+00   2.2580E-03  0.0013
   2.1808E+00   2.2338E+00   2.1989E-03  0.0013
   2.2338E+00   2.2882E+00   2.1483E-03  0.0013
   2.2882E+00   2.3439E+00   2.1049E-03  0.0013
   2.3439E+00   2.4009E+00   2.0810E-03  0.0013
   2.4009E+00   2.4593E+00   2.0303E-03  0.0013
   2.4593E+00   2.5191E+00   1.9548E-03  0.0013
   2.5191E+00   2.5804E+00   1.8907E-03  0.0013
   2.5804E+00   2.6432E+00   1.8103E-03  0.0013
   2.6432E+00   2.7075E+00   1.7449E-03  0.0013
   2.7075E+00   2.7734E+00   1.6803E-03  0.0013
   2.7734E+00   2.8409E+00   1.6267E-03  0.0014
   2.8409E+00   2.9100E+00   1.5867E-03  0.0014
   2.9100E+00   2.9808E+00   1.5357E-03  0.0014
   2.9808E+00   3.0533E+00   1.4778E-03  0.0014
   3.0533E+00   3.1276E+00   1.4103E-03  0.0014
   3.1276E+00   3.2037E+00   1.3442E-03  0.0014
   3.2037E+00   3.2817E+00   1.2773E-03  0.0014
   3.2817E+00   3.3615E+00   1.2186E-03  0.0014
   3.3615E+00   3.4433E+00   1.1575E-03  0.0015
   3.4433E+00   3.5271E+00   1.1012E-03  0.0015
   3.5271E+00   3.6129E+00   1.0539E-03  0.0015
   3.6129E+00   3.7008E+00   1.0049E-03  0.0015
   3.7008E+00   3.7908E+00   9.4775E-04  0.0015
   3.7908E+00   3.8831E+00   8.9929E-04  0.0016
   3.8831E+00   3.9776E+00   8.4899E-04  0.0016
   3.9776E+00   4.0743E+00   8.0474E-04  0.0016
   4.0743E+00   4.1735E+00   7.5608E-04  0.0016
   4.1735E+00   4.2750E+00   7.1026E-04  0.0017
   4.2750E+00   4.3790E+00   6.6372E-04  0.0017
   4.3790E+00   4.4856E+00   6.2504E-04  0.0017
   4.4856E+00   4.5947E+00   5.8289E-04  0.0018
   4.5947E+00   4.7065E+00   5.4540E-04  0.0018
   4.7065E+00   4.8210E+00   5.0862E-04  0.0019
   4.8210E+00   4.9383E+00   4.7549E-04  0.0019
   4.9383E+00   5.0585E+00   4.4409E-04  0.0019
   5.0585E+00   5.1815E+00   4.1357E-04  0.0020
   5.1815E+00   5.3076E+00   3.8369E-04  0.0020
   5.3076E+00   5.4368E+00   3.5593E-04  0.0021
   5.4368E+00   5.5690E+00   3.2966E-04  0.0021
   5.5690E+00   5.7045E+00   3.0367E-04  0.0022
   5.7045E+00   5.8433E+00   2.7906E-04  0.0023
   5.8433E+00   5.9855E+00   2.5637E-04  0.0023
   5.9855E+00   6.1311E+00   2.3727E-04  0.0024
   6.1311E+00   6.2803E+00   2.1973E-04  0.0025
   6.2803E+00   6.4331E+00   2.0062E-04  0.0026
   6.4331E+00   6.5896E+00   1.8400E-04  0.0026
   6.5896E+00   6.7500E+00   1.6833E-04  0.0027
   6.7500E+00   6.9142E+00   1.5412E-04  0.0028
   6.9142E+00   7.0824E+00   1.4094E-04  0.0029
   7.0824E+00   7.2548E+00   1.2921E-04  0.0030
   7.2548E+00   7.4313E+00   1.1820E-04  0.0031
   7.4313E+00   7.6121E+00   1.0789E-04  0.0032
   7.6121E+00   7.7973E+00   9.8873E-05  0.0033
   7.7973E+00   7.9870E+00   8.9724E-05  0.0034
   7.9870E+00   8.1813E+00   8.2166E-05  0.0035
   8.1813E+00   8.3804E+00   7.3984E-05  0.0037
   8.3804E+00   8.5843E+00   6.7756E-05  0.0038
   8.5843E+00   8.7931E+00   6.1589E-05  0.0039
   8.7931E+00   9.0071E+00   5.5944E-05  0.0041
   9.0071E+00   9.2262E+00   5.1133E-05  0.0042
   9.2262E+00   9.4507E+00   4.6395E-05  0.0044
   9.4507E+00   9.6807E+00   4.2250E-05  0.0045
   9.6807E+00   9.9162E+00   3.8700E-05  0.0047
   9.9162E+00   1.0157E+01   3.5113E-05  0.0049
   1.0157E+01   1.0405E+01   3.2226E-05  0.0050
   1.0405E+01   1.0658E+01   2.9351E-05  0.0052
   1.0658E+01   1.0917E+01   2.7024E-05  0.0053
   1.0917E+01   1.1183E+01   2.4451E-05  0.0055
   1.1183E+01   1.1455E+01   2.2656E-05  0.0057
   1.1455E+01   1.1733E+01   2.0779E-05  0.0059
   1.1733E+01   1.2019E+01   1.9338E-05  0.0060
   1.2019E+01   1.2311E+01   1.7616E-05  0.0062
   1.2311E+01   1.2611E+01   1.6563E-05  0.0063
   1.2611E+01   1.2918E+01   1.5330E-05  0.0065
   1.2918E+01   1.3232E+01   1.4346E-05  0.0066
   1.3232E+01   1.3554E+01   1.3072E-05  0.0069
   1.3554E+01   1.3884E+01   1.2330E-05  0.0070
   1.3884E+01   1.4222E+01   1.1400E-05  0.0072
   1.4222E+01   1.4568E+01   1.0787E-05  0.0073
   1.4568E+01   1.4922E+01   1.0186E-05  0.0074
   1.4922E+01   1.5285E+01   9.5173E-06  0.0076
   1.5285E+01   1.5657E+01   8.9882E-06  0.0077
   1.5657E+01   1.6038E+01   8.4521E-06  0.0079
   1.6038E+01   1.6428E+01   8.0553E-06  0.0080
   1.6428E+01   1.6828E+01   7.6865E-06  0.0081
   1.6828E+01   1.7237E+01   7.3215E-06  0.0082
   1.7237E+01   1.7657E+01   6.9447E-06  0.0083
   1.7657E+01   1.8086E+01   6.5007E-06  0.0085
   1.8086E+01   1.8526E+01   6.2972E-06  0.0085
   1.8526E+01   1.8977E+01   6.1243E-06  0.0085
   1.8977E+01   1.9439E+01   5.8166E-06  0.0086
   1.9439E+01   1.9912E+01   5.4710E-06  0.0088
   1.9912E+01   2.0396E+01   4.7757E-06  0.0093
   2.0396E+01   2.0893E+01   4.6705E-06  0.0093
   2.0893E+01   2.1401E+01   4.4734E-06  0.0094
   2.1401E+01   2.1922E+01   4.2147E-06  0.0095
   2.1922E+01   2.2455E+01   4.1018E-06  0.0096
   2.2455E+01   2.3001E+01   3.9524E-06  0.0096
   2.3001E+01   2.3561E+01   3.8482E-06  0.0096
   2.3561E+01   2.4134E+01   3.6472E-06  0.0098
   2.4134E+01   2.4721E+01   3.4809E-06  0.0099
   2.4721E+01   2.5323E+01   3.4222E-06  0.0099
   2.5323E+01   2.5939E+01   3.2448E-06  0.0100
   2.5939E+01   2.6570E+01   3.0875E-06  0.0101
   2.6570E+01   2.7217E+01   2.9189E-06  0.0103
   2.7217E+01   2.7879E+01   2.7463E-06  0.0105
   2.7879E+01   2.8557E+01   2.5796E-06  0.0107
   2.8557E+01   2.9252E+01   2.4262E-06  0.0109
   2.9252E+01   2.9964E+01   2.3166E-06  0.0110
   2.9964E+01   3.0693E+01   2.1878E-06  0.0112
   3.0693E+01   3.1440E+01   2.0775E-06  0.0114
   3.1440E+01   3.2205E+01   1.9426E-06  0.0116
   3.2205E+01   3.2988E+01   1.7979E-06  0.0119
   3.2988E+01   3.3791E+01   1.6476E-06  0.0123
   3.3791E+01   3.4613E+01   1.5369E-06  0.0126
   3.4613E+01   3.5455E+01   1.4280E-06  0.0129
   3.5455E+01   3.6318E+01   1.3547E-06  0.0131
   3.6318E+01   3.7201E+01   1.2111E-06  0.0137
   3.7201E+01   3.8106E+01   1.1536E-06  0.0138
   3.8106E+01   3.9034E+01   1.0190E-06  0.0146
   3.9034E+01   3.9983E+01   9.3017E-07  0.0150
   3.9983E+01   4.0956E+01   8.2749E-07  0.0158
   4.0956E+01   4.1953E+01   7.7010E-07  0.0161
   4.1953E+01   4.2973E+01   6.8930E-07  0.0169
   4.2973E+01   4.4019E+01   6.1038E-07  0.0177
   4.4019E+01   4.5090E+01   5.4882E-07  0.0184
   4.5090E+01   4.6187E+01   4.8256E-07  0.0194
   4.6187E+01   4.7311E+01   4.2269E-07  0.0205
   4.7311E+01   4.8462E+01   3.7512E-07  0.0215
   4.8462E+01   4.9641E+01   3.2669E-07  0.0228
   4.9641E+01   5.0849E+01   2.7322E-07  0.0246
   5.0849E+01   5.2086E+01   2.4750E-07  0.0256
   5.2086E+01   5.3353E+01   2.0926E-07  0.0275
   5.3353E+01   5.4651E+01   1.8565E-07  0.0288
   5.4651E+01   5.5981E+01   1.4830E-07  0.0318
   5.5981E+01   5.7343E+01   1.3010E-07  0.0336
   5.7343E+01   5.8738E+01   1.0866E-07  0.0363
   5.8738E+01   6.0168E+01   9.3482E-08  0.0387
   6.0168E+01   6.1632E+01   8.1835E-08  0.0409
   6.1632E+01   6.3131E+01   6.3886E-08  0.0457
   6.3131E+01   6.4667E+01   5.5207E-08  0.0486
   6.4667E+01   6.6240E+01   4.6523E-08  0.0523
   6.6240E+01   6.7852E+01   3.5491E-08  0.0591
   6.7852E+01   6.9503E+01   2.6773E-08  0.0673
   6.9503E+01   7.1194E+01   1.9160E-08  0.0786
   7.1194E+01   7.2926E+01   1.6742E-08  0.0830
   7.2926E+01   7.4701E+01   1.0370E-08  0.1043
   7.4701E+01   7.6518E+01   9.6835E-09  0.1066
   7.6518E+01   7.8380E+01   8.2718E-09  0.1140
   7.8380E+01   8.0287E+01   5.1388E-09  0.1429
   8.0287E+01   8.2240E+01   3.1739E-09  0.1796
   8.2240E+01   8.4241E+01   1.9990E-09  0.2236
   8.4241E+01   8.6291E+01   1.6588E-09  0.2425
   8.6291E+01   8.8391E+01   9.5259E-10  0.3162
   8.8391E+01   9.0541E+01   1.0230E-09  0.3015
   9.0541E+01   9.2744E+01   6.3551E-10  0.3780
   9.2744E+01   9.5001E+01   1.7726E-10  0.7071
   9.5001E+01   9.7312E+01   8.6526E-11  1.0000
   9.7312E+01   9.9680E+01   0.0000E+00  0.0000
   9.9680E+01   1.0211E+02   0.0000E+00  0.0000
   1.0211E+02   1.0459E+02   0.0000E+00  0.0000
   1.0459E+02   1.0713E+02   0.0000E+00  0.0000
   1.0713E+02   1.0974E+02   0.0000E+00  0.0000
   1.0974E+02   1.1241E+02   0.0000E+00  0.0000
   1.1241E+02   1.1515E+02   0.0000E+00  0.0000
   1.1515E+02   1.1795E+02   0.0000E+00  0.0000
   1.1795E+02   1.2082E+02   0.0000E+00  0.0000
   1.2082E+02   1.2376E+02   0.0000E+00  0.0000
   1.2376E+02   1.2677E+02   0.0000E+00  0.0000
   1.2677E+02   1.2985E+02   0.0000E+00  0.0000
   1.2985E+02   1.3301E+02   0.0000E+00  0.0000
   1.3301E+02   1.3625E+02   0.0000E+00  0.0000
   1.3625E+02   1.3956E+02   0.0000E+00  0.0000
   1.3956E+02   1.4296E+02   0.0000E+00  0.0000
   1.4296E+02   1.4644E+02   0.0000E+00  0.0000
   1.4644E+02   1.5000E+02   0.0000E+00  0.0000

#   sum over                 9.7862E-05
'no. =    1   reg = 119 - 219'
msuc: {\huge [t-cross] in region mesh}
msdr: {\it plotted by \ANGEL \version}
msdl: {\it calculated by \PHITS  3.26}
wt: s(0.7)
\vspace{-3}
  region surface crossing
  area  &=&   1.0000E+00 [cm^2]
e:
 
# Information for Restart Calculation
# This calculation was newly started
# istdev =  2 # 1:Batch variance, 2:History variance
# resc2  = 5.00000000000000000E+09 # Total source weight or Total source weight / maxcas
# resc3  = 5.00000000000000000E+09 # Total history number or Total batch number
# maxcas =   500000000 # History / Batch, only used for istdev=1
# bitrseed = 0110100000100010111000001110001111001110100100011111101000111001 # bit data of rseed
