[ T-Cross ]
    title = [t-cross] in region mesh
     mesh =  reg            # mesh type is region-wise
      reg =    1            # number of crossing regions
      non     r-from    r-to       area
      1       104       204        1.000000    
   e-type =    3            # e-mesh is log given by emin, emax and ne
     emin =  1.0000000E-02  # minimum value of e-mesh points
     emax =   150.0000      # maximum value of e-mesh points
#    edel =  2.4039514E-02  # mesh width of e-mesh points
       ne =    400          # number of e-mesh points
#    data = ( e(i), i = 1, ne + 1 )
#           1.00000E-02  1.02433E-02  1.04925E-02  1.07478E-02  1.10093E-02
#           1.12772E-02  1.15516E-02  1.18326E-02  1.21205E-02  1.24154E-02
#           1.27175E-02  1.30269E-02  1.33439E-02  1.36686E-02  1.40011E-02
#           1.43418E-02  1.46907E-02  1.50482E-02  1.54143E-02  1.57894E-02
#           1.61735E-02  1.65670E-02  1.69701E-02  1.73830E-02  1.78060E-02
#           1.82392E-02  1.86830E-02  1.91375E-02  1.96032E-02  2.00801E-02
#           2.05687E-02  2.10692E-02  2.15818E-02  2.21069E-02  2.26448E-02
#           2.31957E-02  2.37601E-02  2.43382E-02  2.49304E-02  2.55369E-02
#           2.61583E-02  2.67947E-02  2.74467E-02  2.81145E-02  2.87985E-02
#           2.94992E-02  3.02169E-02  3.09521E-02  3.17052E-02  3.24766E-02
#           3.32668E-02  3.40762E-02  3.49053E-02  3.57546E-02  3.66246E-02
#           3.75157E-02  3.84284E-02  3.93634E-02  4.03212E-02  4.13022E-02
#           4.23071E-02  4.33365E-02  4.43909E-02  4.54710E-02  4.65773E-02
#           4.77106E-02  4.88714E-02  5.00605E-02  5.12785E-02  5.25262E-02
#           5.38042E-02  5.51133E-02  5.64542E-02  5.78278E-02  5.92348E-02
#           6.06760E-02  6.21523E-02  6.36645E-02  6.52135E-02  6.68002E-02
#           6.84255E-02  7.00904E-02  7.17957E-02  7.35426E-02  7.53319E-02
#           7.71648E-02  7.90423E-02  8.09655E-02  8.29354E-02  8.49533E-02
#           8.70203E-02  8.91376E-02  9.13064E-02  9.35279E-02  9.58035E-02
#           9.81345E-02  1.00522E-01  1.02968E-01  1.05473E-01  1.08040E-01
#           1.10668E-01  1.13361E-01  1.16119E-01  1.18944E-01  1.21838E-01
#           1.24803E-01  1.27839E-01  1.30950E-01  1.34136E-01  1.37399E-01
#           1.40742E-01  1.44167E-01  1.47675E-01  1.51268E-01  1.54948E-01
#           1.58718E-01  1.62580E-01  1.66535E-01  1.70587E-01  1.74738E-01
#           1.78989E-01  1.83344E-01  1.87805E-01  1.92375E-01  1.97055E-01
#           2.01850E-01  2.06761E-01  2.11792E-01  2.16945E-01  2.22223E-01
#           2.27630E-01  2.33169E-01  2.38842E-01  2.44653E-01  2.50605E-01
#           2.56703E-01  2.62949E-01  2.69346E-01  2.75900E-01  2.82613E-01
#           2.89489E-01  2.96532E-01  3.03747E-01  3.11138E-01  3.18708E-01
#           3.26462E-01  3.34405E-01  3.42542E-01  3.50876E-01  3.59413E-01
#           3.68158E-01  3.77116E-01  3.86291E-01  3.95690E-01  4.05317E-01
#           4.15179E-01  4.25281E-01  4.35628E-01  4.46227E-01  4.57084E-01
#           4.68205E-01  4.79597E-01  4.91266E-01  5.03219E-01  5.15463E-01
#           5.28005E-01  5.40851E-01  5.54011E-01  5.67490E-01  5.81298E-01
#           5.95441E-01  6.09929E-01  6.24769E-01  6.39970E-01  6.55541E-01
#           6.71491E-01  6.87828E-01  7.04564E-01  7.21706E-01  7.39266E-01
#           7.57253E-01  7.75678E-01  7.94551E-01  8.13883E-01  8.33685E-01
#           8.53969E-01  8.74747E-01  8.96030E-01  9.17831E-01  9.40163E-01
#           9.63038E-01  9.86469E-01  1.01047E+00  1.03506E+00  1.06024E+00
#           1.08604E+00  1.11246E+00  1.13953E+00  1.16725E+00  1.19565E+00
#           1.22474E+00  1.25454E+00  1.28507E+00  1.31633E+00  1.34836E+00
#           1.38117E+00  1.41477E+00  1.44920E+00  1.48446E+00  1.52057E+00
#           1.55757E+00  1.59547E+00  1.63429E+00  1.67405E+00  1.71478E+00
#           1.75650E+00  1.79924E+00  1.84302E+00  1.88786E+00  1.93379E+00
#           1.98084E+00  2.02904E+00  2.07841E+00  2.12898E+00  2.18078E+00
#           2.23384E+00  2.28819E+00  2.34386E+00  2.40089E+00  2.45930E+00
#           2.51914E+00  2.58043E+00  2.64322E+00  2.70753E+00  2.77341E+00
#           2.84088E+00  2.91001E+00  2.98081E+00  3.05333E+00  3.12762E+00
#           3.20372E+00  3.28167E+00  3.36152E+00  3.44330E+00  3.52708E+00
#           3.61290E+00  3.70080E+00  3.79085E+00  3.88308E+00  3.97756E+00
#           4.07434E+00  4.17347E+00  4.27501E+00  4.37903E+00  4.48557E+00
#           4.59471E+00  4.70650E+00  4.82102E+00  4.93832E+00  5.05847E+00
#           5.18155E+00  5.30762E+00  5.43676E+00  5.56904E+00  5.70453E+00
#           5.84333E+00  5.98550E+00  6.13114E+00  6.28031E+00  6.43312E+00
#           6.58964E+00  6.74997E+00  6.91420E+00  7.08243E+00  7.25475E+00
#           7.43126E+00  7.61207E+00  7.79728E+00  7.98700E+00  8.18133E+00
#           8.38038E+00  8.58428E+00  8.79315E+00  9.00709E+00  9.22624E+00
#           9.45072E+00  9.68067E+00  9.91620E+00  1.01575E+01  1.04046E+01
#           1.06578E+01  1.09171E+01  1.11827E+01  1.14548E+01  1.17335E+01
#           1.20190E+01  1.23114E+01  1.26109E+01  1.29178E+01  1.32321E+01
#           1.35540E+01  1.38838E+01  1.42216E+01  1.45676E+01  1.49221E+01
#           1.52851E+01  1.56570E+01  1.60380E+01  1.64282E+01  1.68279E+01
#           1.72374E+01  1.76568E+01  1.80864E+01  1.85264E+01  1.89772E+01
#           1.94389E+01  1.99119E+01  2.03963E+01  2.08926E+01  2.14009E+01
#           2.19216E+01  2.24550E+01  2.30014E+01  2.35610E+01  2.41343E+01
#           2.47215E+01  2.53230E+01  2.59391E+01  2.65702E+01  2.72167E+01
#           2.78789E+01  2.85572E+01  2.92520E+01  2.99637E+01  3.06928E+01
#           3.14396E+01  3.22045E+01  3.29881E+01  3.37907E+01  3.46128E+01
#           3.54550E+01  3.63177E+01  3.72013E+01  3.81064E+01  3.90336E+01
#           3.99833E+01  4.09561E+01  4.19526E+01  4.29734E+01  4.40189E+01
#           4.50900E+01  4.61870E+01  4.73108E+01  4.84619E+01  4.96410E+01
#           5.08488E+01  5.20860E+01  5.33533E+01  5.46514E+01  5.59812E+01
#           5.73432E+01  5.87384E+01  6.01676E+01  6.16315E+01  6.31311E+01
#           6.46671E+01  6.62405E+01  6.78522E+01  6.95031E+01  7.11941E+01
#           7.29263E+01  7.47007E+01  7.65182E+01  7.83800E+01  8.02870E+01
#           8.22405E+01  8.42414E+01  8.62911E+01  8.83906E+01  9.05412E+01
#           9.27442E+01  9.50007E+01  9.73122E+01  9.96799E+01  1.02105E+02
#           1.04589E+02  1.07134E+02  1.09741E+02  1.12411E+02  1.15146E+02
#           1.17948E+02  1.20817E+02  1.23757E+02  1.26768E+02  1.29852E+02
#           1.33012E+02  1.36248E+02  1.39563E+02  1.42959E+02  1.46437E+02
#           1.50000E+02
     unit =    2            # unit is [1/cm^2/(MeV/n)/source]
     axis =  eng            # axis of output
     file = detector-05.out  # file name of output for the above axis
   output = f-curr          # surface crossing forward current spectrum
     part =  neutron  
# kf/name :  2112     
#    used :        main (  %)        temp (  %)       total (  %)
#  memory :         414 (  0)           0 (  0)         414 (  0)

#------------------------------------------------------------------------------
#newpage:
#   no. =    1   reg = 104 - 204

x: Energy [MeV/n]
y:  F-Curr [1/cm^2/(MeV/n)/source]         
p: xlog ylog afac(0.8) form(0.9)
h: n            x            y(neutron ),hh0l   n 
#  e-lower      e-upper      neutron     r.err 
   1.0000E-02   1.0243E-02   9.7818E-04  0.0915
   1.0243E-02   1.0493E-02   9.7565E-04  0.0905
   1.0493E-02   1.0748E-02   9.4432E-04  0.0905
   1.0748E-02   1.1009E-02   9.7241E-04  0.0885
   1.1009E-02   1.1277E-02   9.2186E-04  0.0899
   1.1277E-02   1.1552E-02   9.0875E-04  0.0894
   1.1552E-02   1.1833E-02   8.1225E-04  0.0935
   1.1833E-02   1.2121E-02   9.4008E-04  0.0857
   1.2121E-02   1.2415E-02   9.5625E-04  0.0842
   1.2415E-02   1.2718E-02   9.0726E-04  0.0852
   1.2718E-02   1.3027E-02   8.8551E-04  0.0853
   1.3027E-02   1.3344E-02   8.6352E-04  0.0852
   1.3344E-02   1.3669E-02   8.1511E-04  0.0867
   1.3669E-02   1.4001E-02   7.3181E-04  0.0905
   1.4001E-02   1.4342E-02   9.6079E-04  0.0780
   1.4342E-02   1.4691E-02   8.8052E-04  0.0806
   1.4691E-02   1.5048E-02   7.4978E-04  0.0864
   1.5048E-02   1.5414E-02   7.3448E-04  0.0861
   1.5414E-02   1.5789E-02   8.2741E-04  0.0802
   1.5789E-02   1.6174E-02   7.8275E-04  0.0812
   1.6174E-02   1.6567E-02   7.5198E-04  0.0820
   1.6567E-02   1.6970E-02   6.7892E-04  0.0853
   1.6970E-02   1.7383E-02   7.1637E-04  0.0821
   1.7383E-02   1.7806E-02   7.1433E-04  0.0812
   1.7806E-02   1.8239E-02   7.3858E-04  0.0788
   1.8239E-02   1.8683E-02   6.8193E-04  0.0812
   1.8683E-02   1.9138E-02   6.7771E-04  0.0804
   1.9138E-02   1.9603E-02   6.3570E-04  0.0822
   1.9603E-02   2.0080E-02   6.6951E-04  0.0790
   2.0080E-02   2.0569E-02   5.2923E-04  0.0879
   2.0569E-02   2.1069E-02   6.1876E-04  0.0802
   2.1069E-02   2.1582E-02   6.0985E-04  0.0798
   2.1582E-02   2.2107E-02   5.9925E-04  0.0797
   2.2107E-02   2.2645E-02   5.1817E-04  0.0846
   2.2645E-02   2.3196E-02   5.6938E-04  0.0796
   2.3196E-02   2.3760E-02   5.7835E-04  0.0781
   2.3760E-02   2.4338E-02   5.0510E-04  0.0828
   2.4338E-02   2.4930E-02   5.2633E-04  0.0800
   2.4930E-02   2.5537E-02   5.4945E-04  0.0774
   2.5537E-02   2.6158E-02   5.1011E-04  0.0792
   2.6158E-02   2.6795E-02   5.0218E-04  0.0790
   2.6795E-02   2.7447E-02   4.6873E-04  0.0808
   2.7447E-02   2.8114E-02   5.3542E-04  0.0747
   2.8114E-02   2.8799E-02   4.7450E-04  0.0783
   2.8799E-02   2.9499E-02   4.2998E-04  0.0812
   2.9499E-02   3.0217E-02   4.7321E-04  0.0766
   3.0217E-02   3.0952E-02   4.9596E-04  0.0740
   3.0952E-02   3.1705E-02   4.1900E-04  0.0794
   3.1705E-02   3.2477E-02   4.6108E-04  0.0748
   3.2477E-02   3.3267E-02   4.4879E-04  0.0750
   3.3267E-02   3.4076E-02   4.4518E-04  0.0744
   3.4076E-02   3.4905E-02   4.2889E-04  0.0749
   3.4905E-02   3.5755E-02   3.4688E-04  0.0820
   3.5755E-02   3.6625E-02   3.8664E-04  0.0770
   3.6625E-02   3.7516E-02   3.8296E-04  0.0763
   3.7516E-02   3.8428E-02   3.8394E-04  0.0753
   3.8428E-02   3.9363E-02   3.8540E-04  0.0745
   3.9363E-02   4.0321E-02   3.7127E-04  0.0748
   4.0321E-02   4.1302E-02   3.7273E-04  0.0739
   4.1302E-02   4.2307E-02   3.9080E-04  0.0712
   4.2307E-02   4.3337E-02   3.7875E-04  0.0715
   4.3337E-02   4.4391E-02   3.3298E-04  0.0754
   4.4391E-02   4.5471E-02   3.4034E-04  0.0737
   4.5471E-02   4.6577E-02   3.1997E-04  0.0750
   4.6577E-02   4.7711E-02   3.2712E-04  0.0734
   4.7711E-02   4.8871E-02   3.5316E-04  0.0697
   4.8871E-02   5.0061E-02   3.7396E-04  0.0669
   5.0061E-02   5.1279E-02   3.0244E-04  0.0735
   5.1279E-02   5.2526E-02   2.8445E-04  0.0749
   5.2526E-02   5.3804E-02   2.8775E-04  0.0736
   5.3804E-02   5.5113E-02   3.0151E-04  0.0711
   5.5113E-02   5.6454E-02   2.6593E-04  0.0748
   5.6454E-02   5.7828E-02   2.6729E-04  0.0736
   5.7828E-02   5.9235E-02   2.5329E-04  0.0749
   5.9235E-02   6.0676E-02   2.9449E-04  0.0685
   6.0676E-02   6.2152E-02   3.0793E-04  0.0662
   6.2152E-02   6.3665E-02   2.6870E-04  0.0700
   6.3665E-02   6.5214E-02   2.6273E-04  0.0699
   6.5214E-02   6.6800E-02   2.5593E-04  0.0699
   6.6800E-02   6.8426E-02   2.4219E-04  0.0712
   6.8426E-02   7.0090E-02   2.3323E-04  0.0717
   7.0090E-02   7.1796E-02   2.5839E-04  0.0671
   7.1796E-02   7.3543E-02   2.3848E-04  0.0692
   7.3543E-02   7.5332E-02   2.3239E-04  0.0691
   7.5332E-02   7.7165E-02   2.3696E-04  0.0678
   7.7165E-02   7.9042E-02   2.5213E-04  0.0649
   7.9042E-02   8.0965E-02   2.4994E-04  0.0644
   8.0965E-02   8.2935E-02   2.1388E-04  0.0688
   8.2935E-02   8.4953E-02   2.1145E-04  0.0684
   8.4953E-02   8.7020E-02   1.8884E-04  0.0715
   8.7020E-02   8.9138E-02   2.4095E-04  0.0625
   8.9138E-02   9.1306E-02   2.1917E-04  0.0647
   9.1306E-02   9.3528E-02   1.8366E-04  0.0700
   9.3528E-02   9.5804E-02   1.7797E-04  0.0701
   9.5804E-02   9.8134E-02   2.1476E-04  0.0631
   9.8134E-02   1.0052E-01   1.6324E-04  0.0715
   1.0052E-01   1.0297E-01   1.8040E-04  0.0672
   1.0297E-01   1.0547E-01   1.7170E-04  0.0681
   1.0547E-01   1.0804E-01   1.7403E-04  0.0668
   1.0804E-01   1.1067E-01   1.6693E-04  0.0674
   1.1067E-01   1.1336E-01   1.5871E-04  0.0682
   1.1336E-01   1.1612E-01   1.4720E-04  0.0700
   1.1612E-01   1.1894E-01   1.6832E-04  0.0648
   1.1894E-01   1.2184E-01   1.6537E-04  0.0646
   1.2184E-01   1.2480E-01   1.7369E-04  0.0622
   1.2480E-01   1.2784E-01   1.5370E-04  0.0654
   1.2784E-01   1.3095E-01   1.4607E-04  0.0663
   1.3095E-01   1.3414E-01   1.3712E-04  0.0675
   1.3414E-01   1.3740E-01   1.5052E-04  0.0637
   1.3740E-01   1.4074E-01   1.4221E-04  0.0646
   1.4074E-01   1.4417E-01   1.4666E-04  0.0629
   1.4417E-01   1.4767E-01   1.4074E-04  0.0635
   1.4767E-01   1.5127E-01   1.2060E-04  0.0676
   1.5127E-01   1.5495E-01   1.3119E-04  0.0642
   1.5495E-01   1.5872E-01   1.3254E-04  0.0632
   1.5872E-01   1.6258E-01   1.2077E-04  0.0652
   1.6258E-01   1.6654E-01   1.2885E-04  0.0625
   1.6654E-01   1.7059E-01   1.2209E-04  0.0634
   1.7059E-01   1.7474E-01   1.2313E-04  0.0625
   1.7474E-01   1.7899E-01   1.1799E-04  0.0630
   1.7899E-01   1.8334E-01   1.0360E-04  0.0664
   1.8334E-01   1.8781E-01   1.1551E-04  0.0623
   1.8781E-01   1.9237E-01   1.0429E-04  0.0647
   1.9237E-01   1.9706E-01   9.9217E-05  0.0655
   1.9706E-01   2.0185E-01   1.0094E-04  0.0641
   2.0185E-01   2.0676E-01   1.0440E-04  0.0623
   2.0676E-01   2.1179E-01   1.0566E-04  0.0612
   2.1179E-01   2.1694E-01   1.1314E-04  0.0585
   2.1694E-01   2.2222E-01   1.1542E-04  0.0572
   2.2222E-01   2.2763E-01   1.1303E-04  0.0571
   2.2763E-01   2.3317E-01   1.1515E-04  0.0559
   2.3317E-01   2.3884E-01   1.0760E-04  0.0571
   2.3884E-01   2.4465E-01   1.2745E-04  0.0519
   2.4465E-01   2.5061E-01   1.1812E-04  0.0532
   2.5061E-01   2.5670E-01   1.1760E-04  0.0527
   2.5670E-01   2.6295E-01   1.2794E-04  0.0499
   2.6295E-01   2.6935E-01   1.3339E-04  0.0483
   2.6935E-01   2.7590E-01   1.4312E-04  0.0461
   2.7590E-01   2.8261E-01   1.4237E-04  0.0456
   2.8261E-01   2.8949E-01   1.4065E-04  0.0454
   2.8949E-01   2.9653E-01   1.4196E-04  0.0446
   2.9653E-01   3.0375E-01   1.4229E-04  0.0440
   3.0375E-01   3.1114E-01   1.4966E-04  0.0425
   3.1114E-01   3.1871E-01   1.5364E-04  0.0414
   3.1871E-01   3.2646E-01   1.4218E-04  0.0425
   3.2646E-01   3.3441E-01   1.5122E-04  0.0407
   3.3441E-01   3.4254E-01   1.5106E-04  0.0402
   3.4254E-01   3.5088E-01   1.6357E-04  0.0382
   3.5088E-01   3.5941E-01   1.4961E-04  0.0395
   3.5941E-01   3.6816E-01   1.6334E-04  0.0373
   3.6816E-01   3.7712E-01   1.6963E-04  0.0362
   3.7712E-01   3.8629E-01   1.5709E-04  0.0372
   3.8629E-01   3.9569E-01   1.5694E-04  0.0368
   3.9569E-01   4.0532E-01   1.7352E-04  0.0345
   4.0532E-01   4.1518E-01   1.6195E-04  0.0353
   4.1518E-01   4.2528E-01   1.7449E-04  0.0336
   4.2528E-01   4.3563E-01   1.6909E-04  0.0338
   4.3563E-01   4.4623E-01   1.7707E-04  0.0326
   4.4623E-01   4.5708E-01   1.6605E-04  0.0332
   4.5708E-01   4.6821E-01   1.8580E-04  0.0310
   4.6821E-01   4.7960E-01   1.8291E-04  0.0309
   4.7960E-01   4.9127E-01   1.7526E-04  0.0312
   4.9127E-01   5.0322E-01   1.8664E-04  0.0299
   5.0322E-01   5.1546E-01   1.8464E-04  0.0297
   5.1546E-01   5.2800E-01   1.7917E-04  0.0298
   5.2800E-01   5.4085E-01   1.8715E-04  0.0288
   5.4085E-01   5.5401E-01   1.8902E-04  0.0283
   5.5401E-01   5.6749E-01   1.8754E-04  0.0280
   5.6749E-01   5.8130E-01   1.7523E-04  0.0287
   5.8130E-01   5.9544E-01   1.8463E-04  0.0276
   5.9544E-01   6.0993E-01   1.9344E-04  0.0266
   6.0993E-01   6.2477E-01   1.8513E-04  0.0269
   6.2477E-01   6.3997E-01   1.8906E-04  0.0263
   6.3997E-01   6.5554E-01   1.8686E-04  0.0261
   6.5554E-01   6.7149E-01   1.8135E-04  0.0262
   6.7149E-01   6.8783E-01   1.9402E-04  0.0251
   6.8783E-01   7.0456E-01   1.8385E-04  0.0254
   7.0456E-01   7.2171E-01   1.8641E-04  0.0250
   7.2171E-01   7.3927E-01   1.8956E-04  0.0245
   7.3927E-01   7.5725E-01   1.8720E-04  0.0243
   7.5725E-01   7.7568E-01   1.9169E-04  0.0237
   7.7568E-01   7.9455E-01   1.8366E-04  0.0240
   7.9455E-01   8.1388E-01   1.7751E-04  0.0241
   8.1388E-01   8.3368E-01   1.7552E-04  0.0239
   8.3368E-01   8.5397E-01   1.8143E-04  0.0232
   8.5397E-01   8.7475E-01   1.8124E-04  0.0230
   8.7475E-01   8.9603E-01   1.7697E-04  0.0230
   8.9603E-01   9.1783E-01   1.7517E-04  0.0228
   9.1783E-01   9.4016E-01   1.7370E-04  0.0226
   9.4016E-01   9.6304E-01   1.6345E-04  0.0231
   9.6304E-01   9.8647E-01   1.6227E-04  0.0229
   9.8647E-01   1.0105E+00   1.5964E-04  0.0228
   1.0105E+00   1.0351E+00   1.5063E-04  0.0232
   1.0351E+00   1.0602E+00   1.5911E-04  0.0223
   1.0602E+00   1.0860E+00   1.5450E-04  0.0223
   1.0860E+00   1.1125E+00   1.6191E-04  0.0216
   1.1125E+00   1.1395E+00   1.5653E-04  0.0217
   1.1395E+00   1.1673E+00   1.6147E-04  0.0211
   1.1673E+00   1.1957E+00   1.5590E-04  0.0212
   1.1957E+00   1.2247E+00   1.5422E-04  0.0211
   1.2247E+00   1.2545E+00   1.5514E-04  0.0207
   1.2545E+00   1.2851E+00   1.5756E-04  0.0204
   1.2851E+00   1.3163E+00   1.6334E-04  0.0197
   1.3163E+00   1.3484E+00   1.6043E-04  0.0197
   1.3484E+00   1.3812E+00   1.4938E-04  0.0202
   1.3812E+00   1.4148E+00   1.5584E-04  0.0195
   1.4148E+00   1.4492E+00   1.5537E-04  0.0193
   1.4492E+00   1.4845E+00   1.5031E-04  0.0194
   1.4845E+00   1.5206E+00   1.5243E-04  0.0190
   1.5206E+00   1.5576E+00   1.5081E-04  0.0189
   1.5576E+00   1.5955E+00   1.5448E-04  0.0184
   1.5955E+00   1.6343E+00   1.5106E-04  0.0184
   1.6343E+00   1.6741E+00   1.4919E-04  0.0183
   1.6741E+00   1.7148E+00   1.4726E-04  0.0182
   1.7148E+00   1.7565E+00   1.5460E-04  0.0176
   1.7565E+00   1.7992E+00   1.5242E-04  0.0175
   1.7992E+00   1.8430E+00   1.4748E-04  0.0175
   1.8430E+00   1.8879E+00   1.4475E-04  0.0175
   1.8879E+00   1.9338E+00   1.4350E-04  0.0174
   1.9338E+00   1.9808E+00   1.3971E-04  0.0174
   1.9808E+00   2.0290E+00   1.4409E-04  0.0169
   2.0290E+00   2.0784E+00   1.4894E-04  0.0164
   2.0784E+00   2.1290E+00   1.4191E-04  0.0166
   2.1290E+00   2.1808E+00   1.3997E-04  0.0166
   2.1808E+00   2.2338E+00   1.4226E-04  0.0162
   2.2338E+00   2.2882E+00   1.3797E-04  0.0163
   2.2882E+00   2.3439E+00   1.3832E-04  0.0161
   2.3439E+00   2.4009E+00   1.4033E-04  0.0158
   2.4009E+00   2.4593E+00   1.3857E-04  0.0157
   2.4593E+00   2.5191E+00   1.3594E-04  0.0156
   2.5191E+00   2.5804E+00   1.3434E-04  0.0155
   2.5804E+00   2.6432E+00   1.3535E-04  0.0153
   2.6432E+00   2.7075E+00   1.3377E-04  0.0152
   2.7075E+00   2.7734E+00   1.2724E-04  0.0154
   2.7734E+00   2.8409E+00   1.2831E-04  0.0152
   2.8409E+00   2.9100E+00   1.3160E-04  0.0148
   2.9100E+00   2.9808E+00   1.3058E-04  0.0147
   2.9808E+00   3.0533E+00   1.2567E-04  0.0148
   3.0533E+00   3.1276E+00   1.3073E-04  0.0143
   3.1276E+00   3.2037E+00   1.2342E-04  0.0146
   3.2037E+00   3.2817E+00   1.2711E-04  0.0142
   3.2817E+00   3.3615E+00   1.2627E-04  0.0140
   3.3615E+00   3.4433E+00   1.2501E-04  0.0140
   3.4433E+00   3.5271E+00   1.2121E-04  0.0140
   3.5271E+00   3.6129E+00   1.2262E-04  0.0138
   3.6129E+00   3.7008E+00   1.2140E-04  0.0137
   3.7008E+00   3.7908E+00   1.2054E-04  0.0135
   3.7908E+00   3.8831E+00   1.1663E-04  0.0136
   3.8831E+00   3.9776E+00   1.2024E-04  0.0132
   3.9776E+00   4.0743E+00   1.1745E-04  0.0132
   4.0743E+00   4.1735E+00   1.1863E-04  0.0130
   4.1735E+00   4.2750E+00   1.1883E-04  0.0128
   4.2750E+00   4.3790E+00   1.1201E-04  0.0131
   4.3790E+00   4.4856E+00   1.1365E-04  0.0128
   4.4856E+00   4.5947E+00   1.1485E-04  0.0126
   4.5947E+00   4.7065E+00   1.1426E-04  0.0125
   4.7065E+00   4.8210E+00   1.1365E-04  0.0124
   4.8210E+00   4.9383E+00   1.1658E-04  0.0121
   4.9383E+00   5.0585E+00   1.1463E-04  0.0120
   5.0585E+00   5.1815E+00   1.1477E-04  0.0119
   5.1815E+00   5.3076E+00   1.1307E-04  0.0118
   5.3076E+00   5.4368E+00   1.1328E-04  0.0117
   5.4368E+00   5.5690E+00   1.1075E-04  0.0117
   5.5690E+00   5.7045E+00   1.1002E-04  0.0116
   5.7045E+00   5.8433E+00   1.0923E-04  0.0115
   5.8433E+00   5.9855E+00   1.1043E-04  0.0113
   5.9855E+00   6.1311E+00   1.1067E-04  0.0111
   6.1311E+00   6.2803E+00   1.0841E-04  0.0111
   6.2803E+00   6.4331E+00   1.0922E-04  0.0109
   6.4331E+00   6.5896E+00   1.1046E-04  0.0107
   6.5896E+00   6.7500E+00   1.0870E-04  0.0107
   6.7500E+00   6.9142E+00   1.0755E-04  0.0106
   6.9142E+00   7.0824E+00   1.0765E-04  0.0105
   7.0824E+00   7.2548E+00   1.0714E-04  0.0104
   7.2548E+00   7.4313E+00   1.0803E-04  0.0102
   7.4313E+00   7.6121E+00   1.0789E-04  0.0101
   7.6121E+00   7.7973E+00   1.0909E-04  0.0099
   7.7973E+00   7.9870E+00   1.0641E-04  0.0099
   7.9870E+00   8.1813E+00   1.0844E-04  0.0097
   8.1813E+00   8.3804E+00   1.0793E-04  0.0096
   8.3804E+00   8.5843E+00   1.0975E-04  0.0094
   8.5843E+00   8.7931E+00   1.0970E-04  0.0093
   8.7931E+00   9.0071E+00   1.1020E-04  0.0092
   9.0071E+00   9.2262E+00   1.1054E-04  0.0091
   9.2262E+00   9.4507E+00   1.0985E-04  0.0090
   9.4507E+00   9.6807E+00   1.1051E-04  0.0089
   9.6807E+00   9.9162E+00   1.1325E-04  0.0087
   9.9162E+00   1.0157E+01   1.1074E-04  0.0086
   1.0157E+01   1.0405E+01   1.1564E-04  0.0084
   1.0405E+01   1.0658E+01   1.1649E-04  0.0082
   1.0658E+01   1.0917E+01   1.1611E-04  0.0081
   1.0917E+01   1.1183E+01   1.1926E-04  0.0079
   1.1183E+01   1.1455E+01   1.2116E-04  0.0078
   1.1455E+01   1.1733E+01   1.2470E-04  0.0076
   1.1733E+01   1.2019E+01   1.2476E-04  0.0075
   1.2019E+01   1.2311E+01   1.2690E-04  0.0073
   1.2311E+01   1.2611E+01   1.2851E-04  0.0072
   1.2611E+01   1.2918E+01   1.3051E-04  0.0071
   1.2918E+01   1.3232E+01   1.3331E-04  0.0069
   1.3232E+01   1.3554E+01   1.3714E-04  0.0067
   1.3554E+01   1.3884E+01   1.3777E-04  0.0066
   1.3884E+01   1.4222E+01   1.4461E-04  0.0064
   1.4222E+01   1.4568E+01   1.4692E-04  0.0063
   1.4568E+01   1.4922E+01   1.5164E-04  0.0061
   1.4922E+01   1.5285E+01   1.5483E-04  0.0060
   1.5285E+01   1.5657E+01   1.5692E-04  0.0059
   1.5657E+01   1.6038E+01   1.6150E-04  0.0057
   1.6038E+01   1.6428E+01   1.6585E-04  0.0056
   1.6428E+01   1.6828E+01   1.7326E-04  0.0054
   1.6828E+01   1.7237E+01   1.7776E-04  0.0052
   1.7237E+01   1.7657E+01   1.8382E-04  0.0051
   1.7657E+01   1.8086E+01   1.8792E-04  0.0050
   1.8086E+01   1.8526E+01   1.9669E-04  0.0048
   1.8526E+01   1.8977E+01   2.0020E-04  0.0047
   1.8977E+01   1.9439E+01   2.0778E-04  0.0046
   1.9439E+01   1.9912E+01   2.1430E-04  0.0044
   1.9912E+01   2.0396E+01   2.2661E-04  0.0043
   2.0396E+01   2.0893E+01   2.3142E-04  0.0042
   2.0893E+01   2.1401E+01   2.4064E-04  0.0040
   2.1401E+01   2.1922E+01   2.4753E-04  0.0039
   2.1922E+01   2.2455E+01   2.5644E-04  0.0038
   2.2455E+01   2.3001E+01   2.6351E-04  0.0037
   2.3001E+01   2.3561E+01   2.6968E-04  0.0036
   2.3561E+01   2.4134E+01   2.7911E-04  0.0035
   2.4134E+01   2.4721E+01   2.8385E-04  0.0035
   2.4721E+01   2.5323E+01   2.9070E-04  0.0034
   2.5323E+01   2.5939E+01   2.9676E-04  0.0033
   2.5939E+01   2.6570E+01   3.0197E-04  0.0032
   2.6570E+01   2.7217E+01   3.0635E-04  0.0032
   2.7217E+01   2.7879E+01   3.1065E-04  0.0031
   2.7879E+01   2.8557E+01   3.1434E-04  0.0031
   2.8557E+01   2.9252E+01   3.1630E-04  0.0030
   2.9252E+01   2.9964E+01   3.2028E-04  0.0030
   2.9964E+01   3.0693E+01   3.2158E-04  0.0029
   3.0693E+01   3.1440E+01   3.2140E-04  0.0029
   3.1440E+01   3.2205E+01   3.2245E-04  0.0028
   3.2205E+01   3.2988E+01   3.1885E-04  0.0028
   3.2988E+01   3.3791E+01   3.1718E-04  0.0028
   3.3791E+01   3.4613E+01   3.1188E-04  0.0028
   3.4613E+01   3.5455E+01   3.0696E-04  0.0028
   3.5455E+01   3.6318E+01   3.0150E-04  0.0028
   3.6318E+01   3.7201E+01   2.9328E-04  0.0028
   3.7201E+01   3.8106E+01   2.8666E-04  0.0028
   3.8106E+01   3.9034E+01   2.7666E-04  0.0028
   3.9034E+01   3.9983E+01   2.6613E-04  0.0028
   3.9983E+01   4.0956E+01   2.5391E-04  0.0028
   4.0956E+01   4.1953E+01   2.4259E-04  0.0029
   4.1953E+01   4.2973E+01   2.2851E-04  0.0029
   4.2973E+01   4.4019E+01   2.1440E-04  0.0030
   4.4019E+01   4.5090E+01   1.9990E-04  0.0031
   4.5090E+01   4.6187E+01   1.8570E-04  0.0031
   4.6187E+01   4.7311E+01   1.7097E-04  0.0032
   4.7311E+01   4.8462E+01   1.5697E-04  0.0033
   4.8462E+01   4.9641E+01   1.4393E-04  0.0034
   4.9641E+01   5.0849E+01   1.2961E-04  0.0036
   5.0849E+01   5.2086E+01   1.1820E-04  0.0037
   5.2086E+01   5.3353E+01   1.0724E-04  0.0038
   5.3353E+01   5.4651E+01   9.6086E-05  0.0040
   5.4651E+01   5.5981E+01   8.6377E-05  0.0042
   5.5981E+01   5.7343E+01   7.6992E-05  0.0044
   5.7343E+01   5.8738E+01   6.9273E-05  0.0045
   5.8738E+01   6.0168E+01   6.1578E-05  0.0048
   6.0168E+01   6.1632E+01   5.5004E-05  0.0050
   6.1632E+01   6.3131E+01   4.8560E-05  0.0052
   6.3131E+01   6.4667E+01   4.3827E-05  0.0055
   6.4667E+01   6.6240E+01   3.7759E-05  0.0058
   6.6240E+01   6.7852E+01   3.3355E-05  0.0061
   6.7852E+01   6.9503E+01   2.9597E-05  0.0064
   6.9503E+01   7.1194E+01   2.5785E-05  0.0068
   7.1194E+01   7.2926E+01   2.2981E-05  0.0071
   7.2926E+01   7.4701E+01   2.0073E-05  0.0075
   7.4701E+01   7.6518E+01   1.7574E-05  0.0079
   7.6518E+01   7.8380E+01   1.5492E-05  0.0083
   7.8380E+01   8.0287E+01   1.3604E-05  0.0088
   8.0287E+01   8.2240E+01   1.2138E-05  0.0092
   8.2240E+01   8.4241E+01   1.0711E-05  0.0097
   8.4241E+01   8.6291E+01   9.1235E-06  0.0103
   8.6291E+01   8.8391E+01   7.6027E-06  0.0112
   8.8391E+01   9.0541E+01   6.2838E-06  0.0122
   9.0541E+01   9.2744E+01   5.1586E-06  0.0133
   9.2744E+01   9.5001E+01   4.1479E-06  0.0146
   9.5001E+01   9.7312E+01   2.8156E-06  0.0175
   9.7312E+01   9.9680E+01   1.3338E-06  0.0252
   9.9680E+01   1.0211E+02   3.6119E-07  0.0478
   1.0211E+02   1.0459E+02   3.9448E-08  0.1429
   1.0459E+02   1.0713E+02   0.0000E+00  0.0000
   1.0713E+02   1.0974E+02   0.0000E+00  0.0000
   1.0974E+02   1.1241E+02   0.0000E+00  0.0000
   1.1241E+02   1.1515E+02   0.0000E+00  0.0000
   1.1515E+02   1.1795E+02   0.0000E+00  0.0000
   1.1795E+02   1.2082E+02   0.0000E+00  0.0000
   1.2082E+02   1.2376E+02   0.0000E+00  0.0000
   1.2376E+02   1.2677E+02   0.0000E+00  0.0000
   1.2677E+02   1.2985E+02   0.0000E+00  0.0000
   1.2985E+02   1.3301E+02   0.0000E+00  0.0000
   1.3301E+02   1.3625E+02   0.0000E+00  0.0000
   1.3625E+02   1.3956E+02   0.0000E+00  0.0000
   1.3956E+02   1.4296E+02   0.0000E+00  0.0000
   1.4296E+02   1.4644E+02   0.0000E+00  0.0000
   1.4644E+02   1.5000E+02   0.0000E+00  0.0000

#   sum over                 8.1852E-05
'no. =    1   reg = 104 - 204'
msuc: {\huge [t-cross] in region mesh}
msdr: {\it plotted by \ANGEL \version}
msdl: {\it calculated by \PHITS  3.26}
wt: s(0.7)
\vspace{-3}
  region surface crossing
  area  &=&   1.0000E+00 [cm^2]
e:
 
# Information for Restart Calculation
# This calculation was newly started
# istdev =  2 # 1:Batch variance, 2:History variance
# resc2  = 5.00000000000000000E+08 # Total source weight or Total source weight / maxcas
# resc3  = 5.00000000000000000E+08 # Total history number or Total batch number
# maxcas =   500000000 # History / Batch, only used for istdev=1
# bitrseed = 1101101111010011011000101101110001100110110010110001010100010001 # bit data of rseed
