[ T-Cross ]
    title = [t-cross] in region mesh
     mesh =  reg            # mesh type is region-wise
      reg =    1            # number of crossing regions
      non     r-from    r-to       area
      1       104       204        1.000000    
   e-type =    3            # e-mesh is log given by emin, emax and ne
     emin =  1.0000000E-02  # minimum value of e-mesh points
     emax =   150.0000      # maximum value of e-mesh points
#    edel =  2.4039514E-02  # mesh width of e-mesh points
       ne =    400          # number of e-mesh points
#    data = ( e(i), i = 1, ne + 1 )
#           1.00000E-02  1.02433E-02  1.04925E-02  1.07478E-02  1.10093E-02
#           1.12772E-02  1.15516E-02  1.18326E-02  1.21205E-02  1.24154E-02
#           1.27175E-02  1.30269E-02  1.33439E-02  1.36686E-02  1.40011E-02
#           1.43418E-02  1.46907E-02  1.50482E-02  1.54143E-02  1.57894E-02
#           1.61735E-02  1.65670E-02  1.69701E-02  1.73830E-02  1.78060E-02
#           1.82392E-02  1.86830E-02  1.91375E-02  1.96032E-02  2.00801E-02
#           2.05687E-02  2.10692E-02  2.15818E-02  2.21069E-02  2.26448E-02
#           2.31957E-02  2.37601E-02  2.43382E-02  2.49304E-02  2.55369E-02
#           2.61583E-02  2.67947E-02  2.74467E-02  2.81145E-02  2.87985E-02
#           2.94992E-02  3.02169E-02  3.09521E-02  3.17052E-02  3.24766E-02
#           3.32668E-02  3.40762E-02  3.49053E-02  3.57546E-02  3.66246E-02
#           3.75157E-02  3.84284E-02  3.93634E-02  4.03212E-02  4.13022E-02
#           4.23071E-02  4.33365E-02  4.43909E-02  4.54710E-02  4.65773E-02
#           4.77106E-02  4.88714E-02  5.00605E-02  5.12785E-02  5.25262E-02
#           5.38042E-02  5.51133E-02  5.64542E-02  5.78278E-02  5.92348E-02
#           6.06760E-02  6.21523E-02  6.36645E-02  6.52135E-02  6.68002E-02
#           6.84255E-02  7.00904E-02  7.17957E-02  7.35426E-02  7.53319E-02
#           7.71648E-02  7.90423E-02  8.09655E-02  8.29354E-02  8.49533E-02
#           8.70203E-02  8.91376E-02  9.13064E-02  9.35279E-02  9.58035E-02
#           9.81345E-02  1.00522E-01  1.02968E-01  1.05473E-01  1.08040E-01
#           1.10668E-01  1.13361E-01  1.16119E-01  1.18944E-01  1.21838E-01
#           1.24803E-01  1.27839E-01  1.30950E-01  1.34136E-01  1.37399E-01
#           1.40742E-01  1.44167E-01  1.47675E-01  1.51268E-01  1.54948E-01
#           1.58718E-01  1.62580E-01  1.66535E-01  1.70587E-01  1.74738E-01
#           1.78989E-01  1.83344E-01  1.87805E-01  1.92375E-01  1.97055E-01
#           2.01850E-01  2.06761E-01  2.11792E-01  2.16945E-01  2.22223E-01
#           2.27630E-01  2.33169E-01  2.38842E-01  2.44653E-01  2.50605E-01
#           2.56703E-01  2.62949E-01  2.69346E-01  2.75900E-01  2.82613E-01
#           2.89489E-01  2.96532E-01  3.03747E-01  3.11138E-01  3.18708E-01
#           3.26462E-01  3.34405E-01  3.42542E-01  3.50876E-01  3.59413E-01
#           3.68158E-01  3.77116E-01  3.86291E-01  3.95690E-01  4.05317E-01
#           4.15179E-01  4.25281E-01  4.35628E-01  4.46227E-01  4.57084E-01
#           4.68205E-01  4.79597E-01  4.91266E-01  5.03219E-01  5.15463E-01
#           5.28005E-01  5.40851E-01  5.54011E-01  5.67490E-01  5.81298E-01
#           5.95441E-01  6.09929E-01  6.24769E-01  6.39970E-01  6.55541E-01
#           6.71491E-01  6.87828E-01  7.04564E-01  7.21706E-01  7.39266E-01
#           7.57253E-01  7.75678E-01  7.94551E-01  8.13883E-01  8.33685E-01
#           8.53969E-01  8.74747E-01  8.96030E-01  9.17831E-01  9.40163E-01
#           9.63038E-01  9.86469E-01  1.01047E+00  1.03506E+00  1.06024E+00
#           1.08604E+00  1.11246E+00  1.13953E+00  1.16725E+00  1.19565E+00
#           1.22474E+00  1.25454E+00  1.28507E+00  1.31633E+00  1.34836E+00
#           1.38117E+00  1.41477E+00  1.44920E+00  1.48446E+00  1.52057E+00
#           1.55757E+00  1.59547E+00  1.63429E+00  1.67405E+00  1.71478E+00
#           1.75650E+00  1.79924E+00  1.84302E+00  1.88786E+00  1.93379E+00
#           1.98084E+00  2.02904E+00  2.07841E+00  2.12898E+00  2.18078E+00
#           2.23384E+00  2.28819E+00  2.34386E+00  2.40089E+00  2.45930E+00
#           2.51914E+00  2.58043E+00  2.64322E+00  2.70753E+00  2.77341E+00
#           2.84088E+00  2.91001E+00  2.98081E+00  3.05333E+00  3.12762E+00
#           3.20372E+00  3.28167E+00  3.36152E+00  3.44330E+00  3.52708E+00
#           3.61290E+00  3.70080E+00  3.79085E+00  3.88308E+00  3.97756E+00
#           4.07434E+00  4.17347E+00  4.27501E+00  4.37903E+00  4.48557E+00
#           4.59471E+00  4.70650E+00  4.82102E+00  4.93832E+00  5.05847E+00
#           5.18155E+00  5.30762E+00  5.43676E+00  5.56904E+00  5.70453E+00
#           5.84333E+00  5.98550E+00  6.13114E+00  6.28031E+00  6.43312E+00
#           6.58964E+00  6.74997E+00  6.91420E+00  7.08243E+00  7.25475E+00
#           7.43126E+00  7.61207E+00  7.79728E+00  7.98700E+00  8.18133E+00
#           8.38038E+00  8.58428E+00  8.79315E+00  9.00709E+00  9.22624E+00
#           9.45072E+00  9.68067E+00  9.91620E+00  1.01575E+01  1.04046E+01
#           1.06578E+01  1.09171E+01  1.11827E+01  1.14548E+01  1.17335E+01
#           1.20190E+01  1.23114E+01  1.26109E+01  1.29178E+01  1.32321E+01
#           1.35540E+01  1.38838E+01  1.42216E+01  1.45676E+01  1.49221E+01
#           1.52851E+01  1.56570E+01  1.60380E+01  1.64282E+01  1.68279E+01
#           1.72374E+01  1.76568E+01  1.80864E+01  1.85264E+01  1.89772E+01
#           1.94389E+01  1.99119E+01  2.03963E+01  2.08926E+01  2.14009E+01
#           2.19216E+01  2.24550E+01  2.30014E+01  2.35610E+01  2.41343E+01
#           2.47215E+01  2.53230E+01  2.59391E+01  2.65702E+01  2.72167E+01
#           2.78789E+01  2.85572E+01  2.92520E+01  2.99637E+01  3.06928E+01
#           3.14396E+01  3.22045E+01  3.29881E+01  3.37907E+01  3.46128E+01
#           3.54550E+01  3.63177E+01  3.72013E+01  3.81064E+01  3.90336E+01
#           3.99833E+01  4.09561E+01  4.19526E+01  4.29734E+01  4.40189E+01
#           4.50900E+01  4.61870E+01  4.73108E+01  4.84619E+01  4.96410E+01
#           5.08488E+01  5.20860E+01  5.33533E+01  5.46514E+01  5.59812E+01
#           5.73432E+01  5.87384E+01  6.01676E+01  6.16315E+01  6.31311E+01
#           6.46671E+01  6.62405E+01  6.78522E+01  6.95031E+01  7.11941E+01
#           7.29263E+01  7.47007E+01  7.65182E+01  7.83800E+01  8.02870E+01
#           8.22405E+01  8.42414E+01  8.62911E+01  8.83906E+01  9.05412E+01
#           9.27442E+01  9.50007E+01  9.73122E+01  9.96799E+01  1.02105E+02
#           1.04589E+02  1.07134E+02  1.09741E+02  1.12411E+02  1.15146E+02
#           1.17948E+02  1.20817E+02  1.23757E+02  1.26768E+02  1.29852E+02
#           1.33012E+02  1.36248E+02  1.39563E+02  1.42959E+02  1.46437E+02
#           1.50000E+02
     unit =    2            # unit is [1/cm^2/(MeV/n)/source]
     axis =  eng            # axis of output
     file = detector-05.out  # file name of output for the above axis
   output = f-curr          # surface crossing forward current spectrum
     part =  neutron  
# kf/name :  2112     
#    used :        main (  %)        temp (  %)       total (  %)
#  memory :         414 (  0)           0 (  0)         414 (  0)

#------------------------------------------------------------------------------
#newpage:
#   no. =    1   reg = 104 - 204

x: Energy [MeV/n]
y:  F-Curr [1/cm^2/(MeV/n)/source]         
p: xlog ylog afac(0.8) form(0.9)
h: n            x            y(neutron ),hh0l   n 
#  e-lower      e-upper      neutron     r.err 
   1.0000E-02   1.0243E-02   9.6585E-05  0.1459
   1.0243E-02   1.0493E-02   1.0833E-04  0.1361
   1.0493E-02   1.0748E-02   9.4010E-05  0.1443
   1.0748E-02   1.1009E-02   1.1855E-04  0.1270
   1.1009E-02   1.1277E-02   1.0640E-04  0.1325
   1.1277E-02   1.1552E-02   1.0569E-04  0.1313
   1.1552E-02   1.1833E-02   1.0496E-04  0.1302
   1.1833E-02   1.2121E-02   8.8573E-05  0.1400
   1.2121E-02   1.2415E-02   1.0851E-04  0.1250
   1.2415E-02   1.2718E-02   9.7657E-05  0.1302
   1.2718E-02   1.3027E-02   1.0019E-04  0.1270
   1.3027E-02   1.3344E-02   1.0569E-04  0.1222
   1.3344E-02   1.3669E-02   1.1242E-04  0.1170
   1.3669E-02   1.4001E-02   1.0524E-04  0.1195
   1.4001E-02   1.4342E-02   1.0861E-04  0.1162
   1.4342E-02   1.4691E-02   1.0747E-04  0.1155
   1.4691E-02   1.5048E-02   1.0631E-04  0.1147
   1.5048E-02   1.5414E-02   8.4668E-05  0.1270
   1.5414E-02   1.5789E-02   1.0665E-04  0.1118
   1.5789E-02   1.6174E-02   1.0282E-04  0.1125
   1.6174E-02   1.6567E-02   1.1181E-04  0.1066
   1.6567E-02   1.6970E-02   1.2156E-04  0.1010
   1.6970E-02   1.7383E-02   1.0778E-04  0.1060
   1.7383E-02   1.7806E-02   1.3004E-04  0.0953
   1.7806E-02   1.8239E-02   8.5404E-05  0.1162
   1.8239E-02   1.8683E-02   9.5769E-05  0.1085
   1.8683E-02   1.9138E-02   1.0779E-04  0.1010
   1.9138E-02   1.9603E-02   1.1597E-04  0.0962
   1.9603E-02   2.0080E-02   9.0154E-05  0.1078
   2.0080E-02   2.0569E-02   8.9036E-05  0.1072
   2.0569E-02   2.1069E-02   1.1190E-04  0.0945
   2.1069E-02   2.1582E-02   1.1217E-04  0.0933
   2.1582E-02   2.2107E-02   9.0459E-05  0.1026
   2.2107E-02   2.2645E-02   1.0876E-04  0.0925
   2.2645E-02   2.3196E-02   9.4380E-05  0.0981
   2.3196E-02   2.3760E-02   1.2226E-04  0.0851
   2.3760E-02   2.4338E-02   1.0379E-04  0.0913
   2.4338E-02   2.4930E-02   1.0808E-04  0.0884
   2.4930E-02   2.5537E-02   1.0881E-04  0.0870
   2.5537E-02   2.6158E-02   9.5762E-05  0.0917
   2.6158E-02   2.6795E-02   1.1470E-04  0.0828
   2.6795E-02   2.7447E-02   1.1121E-04  0.0830
   2.7447E-02   2.8114E-02   1.1680E-04  0.0801
   2.8114E-02   2.8799E-02   1.1403E-04  0.0801
   2.8799E-02   2.9499E-02   1.1132E-04  0.0801
   2.9499E-02   3.0217E-02   1.0310E-04  0.0822
   3.0217E-02   3.0952E-02   1.1969E-04  0.0754
   3.0952E-02   3.1705E-02   9.8926E-05  0.0819
   3.1705E-02   3.2477E-02   1.1019E-04  0.0767
   3.2477E-02   3.3267E-02   1.0504E-04  0.0776
   3.3267E-02   3.4076E-02   1.0193E-04  0.0778
   3.4076E-02   3.4905E-02   9.7093E-05  0.0788
   3.4905E-02   3.5755E-02   1.0951E-04  0.0733
   3.5755E-02   3.6625E-02   9.9432E-05  0.0760
   3.6625E-02   3.7516E-02   1.2008E-04  0.0684
   3.7516E-02   3.8428E-02   1.1284E-04  0.0697
   3.8428E-02   3.9363E-02   1.0321E-04  0.0720
   3.9363E-02   4.0321E-02   9.1361E-05  0.0756
   4.0321E-02   4.1302E-02   1.0040E-04  0.0712
   4.1302E-02   4.2307E-02   1.0847E-04  0.0677
   4.2307E-02   4.3337E-02   1.0638E-04  0.0676
   4.3337E-02   4.4391E-02   1.0053E-04  0.0687
   4.4391E-02   4.5471E-02   1.0972E-04  0.0650
   4.5471E-02   4.6577E-02   9.6715E-05  0.0684
   4.6577E-02   4.7711E-02   1.0898E-04  0.0636
   4.7711E-02   4.8871E-02   1.1586E-04  0.0610
   4.8871E-02   5.0061E-02   1.0554E-04  0.0631
   5.0061E-02   5.1279E-02   1.0837E-04  0.0615
   5.1279E-02   5.2526E-02   1.0981E-04  0.0604
   5.2526E-02   5.3804E-02   1.0329E-04  0.0615
   5.3804E-02   5.5113E-02   1.1993E-04  0.0564
   5.5113E-02   5.6454E-02   1.1037E-04  0.0581
   5.6454E-02   5.7828E-02   1.1248E-04  0.0569
   5.7828E-02   5.9235E-02   1.1336E-04  0.0560
   5.9235E-02   6.0676E-02   1.0998E-04  0.0562
   6.0676E-02   6.2152E-02   1.1448E-04  0.0544
   6.2152E-02   6.3665E-02   9.5886E-05  0.0587
   6.3665E-02   6.5214E-02   1.1491E-04  0.0530
   6.5214E-02   6.6800E-02   1.0714E-04  0.0542
   6.6800E-02   6.8426E-02   1.0890E-04  0.0531
   6.8426E-02   7.0090E-02   1.2133E-04  0.0498
   7.0090E-02   7.1796E-02   1.1698E-04  0.0501
   7.1796E-02   7.3543E-02   1.0676E-04  0.0518
   7.3543E-02   7.5332E-02   1.0926E-04  0.0506
   7.5332E-02   7.7165E-02   1.1130E-04  0.0495
   7.7165E-02   7.9042E-02   1.0732E-04  0.0498
   7.9042E-02   8.0965E-02   1.0192E-04  0.0505
   8.0965E-02   8.2935E-02   1.2082E-04  0.0458
   8.2935E-02   8.4953E-02   1.1918E-04  0.0456
   8.4953E-02   8.7020E-02   1.1393E-04  0.0461
   8.7020E-02   8.9138E-02   1.0627E-04  0.0471
   8.9138E-02   9.1306E-02   1.1850E-04  0.0441
   9.1306E-02   9.3528E-02   1.1501E-04  0.0442
   9.3528E-02   9.5804E-02   1.1909E-04  0.0430
   9.5804E-02   9.8134E-02   1.0704E-04  0.0448
   9.8134E-02   1.0052E-01   1.1517E-04  0.0426
   1.0052E-01   1.0297E-01   1.1366E-04  0.0424
   1.0297E-01   1.0547E-01   1.1556E-04  0.0416
   1.0547E-01   1.0804E-01   1.1106E-04  0.0419
   1.0804E-01   1.1067E-01   1.1603E-04  0.0405
   1.1067E-01   1.1336E-01   1.2051E-04  0.0393
   1.1336E-01   1.1612E-01   1.1004E-04  0.0406
   1.1612E-01   1.1894E-01   1.0937E-04  0.0402
   1.1894E-01   1.2184E-01   1.1368E-04  0.0390
   1.2184E-01   1.2480E-01   1.0980E-04  0.0392
   1.2480E-01   1.2784E-01   1.0637E-04  0.0393
   1.2784E-01   1.3095E-01   1.1783E-04  0.0369
   1.3095E-01   1.3414E-01   1.1205E-04  0.0374
   1.3414E-01   1.3740E-01   1.0801E-04  0.0377
   1.3740E-01   1.4074E-01   1.1860E-04  0.0355
   1.4074E-01   1.4417E-01   1.0907E-04  0.0366
   1.4417E-01   1.4767E-01   1.1589E-04  0.0351
   1.4767E-01   1.5127E-01   1.1355E-04  0.0350
   1.5127E-01   1.5495E-01   1.1140E-04  0.0349
   1.5495E-01   1.5872E-01   1.0584E-04  0.0354
   1.5872E-01   1.6258E-01   1.1303E-04  0.0338
   1.6258E-01   1.6654E-01   1.0441E-04  0.0348
   1.6654E-01   1.7059E-01   1.1106E-04  0.0333
   1.7059E-01   1.7474E-01   1.1107E-04  0.0329
   1.7474E-01   1.7899E-01   1.1384E-04  0.0321
   1.7899E-01   1.8334E-01   1.1183E-04  0.0320
   1.8334E-01   1.8781E-01   1.1007E-04  0.0319
   1.8781E-01   1.9237E-01   1.1150E-04  0.0313
   1.9237E-01   1.9706E-01   1.0907E-04  0.0313
   1.9706E-01   2.0185E-01   1.1586E-04  0.0300
   2.0185E-01   2.0676E-01   1.0944E-04  0.0305
   2.0676E-01   2.1179E-01   1.0535E-04  0.0307
   2.1179E-01   2.1694E-01   1.0644E-04  0.0302
   2.1694E-01   2.2222E-01   1.0415E-04  0.0302
   2.2222E-01   2.2763E-01   1.0454E-04  0.0297
   2.2763E-01   2.3317E-01   1.0517E-04  0.0293
   2.3317E-01   2.3884E-01   1.0752E-04  0.0286
   2.3884E-01   2.4465E-01   1.0316E-04  0.0289
   2.4465E-01   2.5061E-01   1.0987E-04  0.0277
   2.5061E-01   2.5670E-01   1.0509E-04  0.0279
   2.5670E-01   2.6295E-01   1.0767E-04  0.0273
   2.6295E-01   2.6935E-01   1.0347E-04  0.0275
   2.6935E-01   2.7590E-01   1.0311E-04  0.0272
   2.7590E-01   2.8261E-01   1.0093E-04  0.0272
   2.8261E-01   2.8949E-01   1.0180E-04  0.0267
   2.8949E-01   2.9653E-01   9.5194E-05  0.0273
   2.9653E-01   3.0375E-01   9.8858E-05  0.0265
   3.0375E-01   3.1114E-01   9.7153E-05  0.0264
   3.1114E-01   3.1871E-01   1.0135E-04  0.0255
   3.1871E-01   3.2646E-01   9.8589E-05  0.0256
   3.2646E-01   3.3441E-01   9.7254E-05  0.0254
   3.3441E-01   3.4254E-01   9.6235E-05  0.0253
   3.4254E-01   3.5088E-01   9.0829E-05  0.0257
   3.5088E-01   3.5941E-01   9.2127E-05  0.0252
   3.5941E-01   3.6816E-01   9.3827E-05  0.0247
   3.6816E-01   3.7712E-01   9.4557E-05  0.0243
   3.7712E-01   3.8629E-01   9.1766E-05  0.0244
   3.8629E-01   3.9569E-01   8.7884E-05  0.0246
   3.9569E-01   4.0532E-01   8.3511E-05  0.0249
   4.0532E-01   4.1518E-01   8.4316E-05  0.0245
   4.1518E-01   4.2528E-01   8.2289E-05  0.0245
   4.2528E-01   4.3563E-01   8.5529E-05  0.0238
   4.3563E-01   4.4623E-01   8.2176E-05  0.0240
   4.4623E-01   4.5708E-01   8.3218E-05  0.0235
   4.5708E-01   4.6821E-01   8.2365E-05  0.0234
   4.6821E-01   4.7960E-01   7.7578E-05  0.0238
   4.7960E-01   4.9127E-01   7.7342E-05  0.0235
   4.9127E-01   5.0322E-01   7.6258E-05  0.0234
   5.0322E-01   5.1546E-01   7.6468E-05  0.0231
   5.1546E-01   5.2800E-01   7.3196E-05  0.0233
   5.2800E-01   5.4085E-01   6.9901E-05  0.0236
   5.4085E-01   5.5401E-01   6.9950E-05  0.0233
   5.5401E-01   5.6749E-01   6.8196E-05  0.0233
   5.6749E-01   5.8130E-01   6.6993E-05  0.0232
   5.8130E-01   5.9544E-01   6.6144E-05  0.0231
   5.9544E-01   6.0993E-01   6.2191E-05  0.0236
   6.0993E-01   6.2477E-01   5.9552E-05  0.0238
   6.2477E-01   6.3997E-01   6.1180E-05  0.0232
   6.3997E-01   6.5554E-01   5.8892E-05  0.0234
   6.5554E-01   6.7149E-01   5.3888E-05  0.0241
   6.7149E-01   6.8783E-01   5.4995E-05  0.0236
   6.8783E-01   7.0456E-01   5.3001E-05  0.0237
   7.0456E-01   7.2171E-01   5.1086E-05  0.0239
   7.2171E-01   7.3927E-01   4.9346E-05  0.0240
   7.3927E-01   7.5725E-01   4.9147E-05  0.0238
   7.5725E-01   7.7568E-01   4.5808E-05  0.0243
   7.7568E-01   7.9455E-01   4.2707E-05  0.0249
   7.9455E-01   8.1388E-01   4.2003E-05  0.0248
   8.1388E-01   8.3368E-01   3.9339E-05  0.0253
   8.3368E-01   8.5397E-01   3.8700E-05  0.0252
   8.5397E-01   8.7475E-01   3.8118E-05  0.0251
   8.7475E-01   8.9603E-01   3.4710E-05  0.0260
   8.9603E-01   9.1783E-01   3.3691E-05  0.0261
   9.1783E-01   9.4016E-01   3.2644E-05  0.0262
   9.4016E-01   9.6304E-01   3.0623E-05  0.0267
   9.6304E-01   9.8647E-01   3.0301E-05  0.0265
   9.8647E-01   1.0105E+00   2.9102E-05  0.0268
   1.0105E+00   1.0351E+00   2.9916E-05  0.0261
   1.0351E+00   1.0602E+00   3.0476E-05  0.0255
   1.0602E+00   1.0860E+00   3.1341E-05  0.0249
   1.0860E+00   1.1125E+00   3.2622E-05  0.0241
   1.1125E+00   1.1395E+00   3.3472E-05  0.0235
   1.1395E+00   1.1673E+00   3.4941E-05  0.0227
   1.1673E+00   1.1957E+00   3.5898E-05  0.0222
   1.1957E+00   1.2247E+00   3.9849E-05  0.0208
   1.2247E+00   1.2545E+00   3.8709E-05  0.0208
   1.2545E+00   1.2851E+00   4.0018E-05  0.0202
   1.2851E+00   1.3163E+00   4.0163E-05  0.0200
   1.3163E+00   1.3484E+00   4.0153E-05  0.0197
   1.3484E+00   1.3812E+00   4.1341E-05  0.0192
   1.3812E+00   1.4148E+00   4.2382E-05  0.0187
   1.4148E+00   1.4492E+00   4.3569E-05  0.0183
   1.4492E+00   1.4845E+00   4.5561E-05  0.0176
   1.4845E+00   1.5206E+00   4.3787E-05  0.0178
   1.5206E+00   1.5576E+00   4.3977E-05  0.0175
   1.5576E+00   1.5955E+00   4.4832E-05  0.0172
   1.5955E+00   1.6343E+00   4.7322E-05  0.0165
   1.6343E+00   1.6741E+00   4.8185E-05  0.0162
   1.6741E+00   1.7148E+00   4.9655E-05  0.0157
   1.7148E+00   1.7565E+00   5.0201E-05  0.0155
   1.7565E+00   1.7992E+00   4.9161E-05  0.0154
   1.7992E+00   1.8430E+00   4.9472E-05  0.0152
   1.8430E+00   1.8879E+00   4.7394E-05  0.0153
   1.8879E+00   1.9338E+00   4.8641E-05  0.0150
   1.9338E+00   1.9808E+00   4.9935E-05  0.0146
   1.9808E+00   2.0290E+00   5.0357E-05  0.0144
   2.0290E+00   2.0784E+00   5.0427E-05  0.0142
   2.0784E+00   2.1290E+00   5.0203E-05  0.0140
   2.1290E+00   2.1808E+00   4.8996E-05  0.0140
   2.1808E+00   2.2338E+00   4.9680E-05  0.0138
   2.2338E+00   2.2882E+00   4.8030E-05  0.0138
   2.2882E+00   2.3439E+00   4.9593E-05  0.0135
   2.3439E+00   2.4009E+00   4.8748E-05  0.0134
   2.4009E+00   2.4593E+00   4.8592E-05  0.0133
   2.4593E+00   2.5191E+00   4.8039E-05  0.0132
   2.5191E+00   2.5804E+00   4.7265E-05  0.0131
   2.5804E+00   2.6432E+00   4.5442E-05  0.0132
   2.6432E+00   2.7075E+00   4.6080E-05  0.0130
   2.7075E+00   2.7734E+00   4.5297E-05  0.0129
   2.7734E+00   2.8409E+00   4.5173E-05  0.0128
   2.8409E+00   2.9100E+00   4.4632E-05  0.0127
   2.9100E+00   2.9808E+00   4.3844E-05  0.0127
   2.9808E+00   3.0533E+00   4.3064E-05  0.0127
   3.0533E+00   3.1276E+00   4.2236E-05  0.0126
   3.1276E+00   3.2037E+00   4.0727E-05  0.0127
   3.2037E+00   3.2817E+00   4.0353E-05  0.0126
   3.2817E+00   3.3615E+00   3.9864E-05  0.0125
   3.3615E+00   3.4433E+00   3.9394E-05  0.0125
   3.4433E+00   3.5271E+00   3.8399E-05  0.0125
   3.5271E+00   3.6129E+00   3.7612E-05  0.0124
   3.6129E+00   3.7008E+00   3.7356E-05  0.0123
   3.7008E+00   3.7908E+00   3.6538E-05  0.0123
   3.7908E+00   3.8831E+00   3.6543E-05  0.0122
   3.8831E+00   3.9776E+00   3.6016E-05  0.0121
   3.9776E+00   4.0743E+00   3.5419E-05  0.0121
   4.0743E+00   4.1735E+00   3.5455E-05  0.0119
   4.1735E+00   4.2750E+00   3.5027E-05  0.0119
   4.2750E+00   4.3790E+00   3.4094E-05  0.0119
   4.3790E+00   4.4856E+00   3.4220E-05  0.0117
   4.4856E+00   4.5947E+00   3.3488E-05  0.0117
   4.5947E+00   4.7065E+00   3.3307E-05  0.0116
   4.7065E+00   4.8210E+00   3.3645E-05  0.0114
   4.8210E+00   4.9383E+00   3.3370E-05  0.0113
   4.9383E+00   5.0585E+00   3.2902E-05  0.0112
   5.0585E+00   5.1815E+00   3.3343E-05  0.0110
   5.1815E+00   5.3076E+00   3.3989E-05  0.0108
   5.3076E+00   5.4368E+00   3.2885E-05  0.0108
   5.4368E+00   5.5690E+00   3.3860E-05  0.0106
   5.5690E+00   5.7045E+00   3.4402E-05  0.0104
   5.7045E+00   5.8433E+00   3.4684E-05  0.0102
   5.8433E+00   5.9855E+00   3.4393E-05  0.0101
   5.9855E+00   6.1311E+00   3.4836E-05  0.0099
   6.1311E+00   6.2803E+00   3.5941E-05  0.0097
   6.2803E+00   6.4331E+00   3.5902E-05  0.0095
   6.4331E+00   6.5896E+00   3.6509E-05  0.0094
   6.5896E+00   6.7500E+00   3.6552E-05  0.0092
   6.7500E+00   6.9142E+00   3.8217E-05  0.0089
   6.9142E+00   7.0824E+00   3.8299E-05  0.0088
   7.0824E+00   7.2548E+00   3.9209E-05  0.0086
   7.2548E+00   7.4313E+00   4.0266E-05  0.0084
   7.4313E+00   7.6121E+00   4.0606E-05  0.0083
   7.6121E+00   7.7973E+00   4.1764E-05  0.0080
   7.7973E+00   7.9870E+00   4.2272E-05  0.0079
   7.9870E+00   8.1813E+00   4.2971E-05  0.0077
   8.1813E+00   8.3804E+00   4.4496E-05  0.0075
   8.3804E+00   8.5843E+00   4.4642E-05  0.0074
   8.5843E+00   8.7931E+00   4.5574E-05  0.0072
   8.7931E+00   9.0071E+00   4.6784E-05  0.0071
   9.0071E+00   9.2262E+00   4.7914E-05  0.0069
   9.2262E+00   9.4507E+00   4.9406E-05  0.0067
   9.4507E+00   9.6807E+00   4.9389E-05  0.0066
   9.6807E+00   9.9162E+00   5.0476E-05  0.0065
   9.9162E+00   1.0157E+01   5.2038E-05  0.0063
   1.0157E+01   1.0405E+01   5.3101E-05  0.0062
   1.0405E+01   1.0658E+01   5.3803E-05  0.0061
   1.0658E+01   1.0917E+01   5.4538E-05  0.0059
   1.0917E+01   1.1183E+01   5.5397E-05  0.0058
   1.1183E+01   1.1455E+01   5.5652E-05  0.0057
   1.1455E+01   1.1733E+01   5.6455E-05  0.0056
   1.1733E+01   1.2019E+01   5.6673E-05  0.0056
   1.2019E+01   1.2311E+01   5.7526E-05  0.0055
   1.2311E+01   1.2611E+01   5.8108E-05  0.0054
   1.2611E+01   1.2918E+01   5.7775E-05  0.0053
   1.2918E+01   1.3232E+01   5.8285E-05  0.0052
   1.3232E+01   1.3554E+01   5.9021E-05  0.0051
   1.3554E+01   1.3884E+01   5.8072E-05  0.0051
   1.3884E+01   1.4222E+01   5.8759E-05  0.0050
   1.4222E+01   1.4568E+01   5.8562E-05  0.0050
   1.4568E+01   1.4922E+01   5.7729E-05  0.0049
   1.4922E+01   1.5285E+01   5.7576E-05  0.0049
   1.5285E+01   1.5657E+01   5.6410E-05  0.0049
   1.5657E+01   1.6038E+01   5.5603E-05  0.0049
   1.6038E+01   1.6428E+01   5.4811E-05  0.0048
   1.6428E+01   1.6828E+01   5.3968E-05  0.0048
   1.6828E+01   1.7237E+01   5.2667E-05  0.0048
   1.7237E+01   1.7657E+01   5.0587E-05  0.0049
   1.7657E+01   1.8086E+01   4.8950E-05  0.0049
   1.8086E+01   1.8526E+01   4.6709E-05  0.0049
   1.8526E+01   1.8977E+01   4.5490E-05  0.0049
   1.8977E+01   1.9439E+01   4.3190E-05  0.0050
   1.9439E+01   1.9912E+01   4.1054E-05  0.0051
   1.9912E+01   2.0396E+01   4.0881E-05  0.0050
   2.0396E+01   2.0893E+01   3.9115E-05  0.0051
   2.0893E+01   2.1401E+01   3.6567E-05  0.0052
   2.1401E+01   2.1922E+01   3.4195E-05  0.0053
   2.1922E+01   2.2455E+01   3.2008E-05  0.0054
   2.2455E+01   2.3001E+01   2.9817E-05  0.0055
   2.3001E+01   2.3561E+01   2.7487E-05  0.0057
   2.3561E+01   2.4134E+01   2.5468E-05  0.0059
   2.4134E+01   2.4721E+01   2.3419E-05  0.0060
   2.4721E+01   2.5323E+01   2.1802E-05  0.0062
   2.5323E+01   2.5939E+01   1.9896E-05  0.0064
   2.5939E+01   2.6570E+01   1.8276E-05  0.0066
   2.6570E+01   2.7217E+01   1.6848E-05  0.0068
   2.7217E+01   2.7879E+01   1.5649E-05  0.0069
   2.7879E+01   2.8557E+01   1.4309E-05  0.0072
   2.8557E+01   2.9252E+01   1.2926E-05  0.0075
   2.9252E+01   2.9964E+01   1.2027E-05  0.0076
   2.9964E+01   3.0693E+01   1.0972E-05  0.0079
   3.0693E+01   3.1440E+01   9.9454E-06  0.0082
   3.1440E+01   3.2205E+01   8.8222E-06  0.0086
   3.2205E+01   3.2988E+01   7.8960E-06  0.0090
   3.2988E+01   3.3791E+01   6.8519E-06  0.0095
   3.3791E+01   3.4613E+01   6.0548E-06  0.0100
   3.4613E+01   3.5455E+01   5.2829E-06  0.0106
   3.5455E+01   3.6318E+01   4.6317E-06  0.0112
   3.6318E+01   3.7201E+01   3.9156E-06  0.0120
   3.7201E+01   3.8106E+01   3.4724E-06  0.0126
   3.8106E+01   3.9034E+01   3.0140E-06  0.0134
   3.9034E+01   3.9983E+01   2.5513E-06  0.0144
   3.9983E+01   4.0956E+01   1.9942E-06  0.0161
   4.0956E+01   4.1953E+01   1.5710E-06  0.0179
   4.1953E+01   4.2973E+01   1.2089E-06  0.0201
   4.2973E+01   4.4019E+01   7.9526E-07  0.0245
   4.4019E+01   4.5090E+01   4.5984E-07  0.0319
   4.5090E+01   4.6187E+01   1.1348E-07  0.0634
   4.6187E+01   4.7311E+01   0.0000E+00  0.0000
   4.7311E+01   4.8462E+01   0.0000E+00  0.0000
   4.8462E+01   4.9641E+01   0.0000E+00  0.0000
   4.9641E+01   5.0849E+01   0.0000E+00  0.0000
   5.0849E+01   5.2086E+01   0.0000E+00  0.0000
   5.2086E+01   5.3353E+01   0.0000E+00  0.0000
   5.3353E+01   5.4651E+01   0.0000E+00  0.0000
   5.4651E+01   5.5981E+01   0.0000E+00  0.0000
   5.5981E+01   5.7343E+01   0.0000E+00  0.0000
   5.7343E+01   5.8738E+01   0.0000E+00  0.0000
   5.8738E+01   6.0168E+01   0.0000E+00  0.0000
   6.0168E+01   6.1632E+01   0.0000E+00  0.0000
   6.1632E+01   6.3131E+01   0.0000E+00  0.0000
   6.3131E+01   6.4667E+01   0.0000E+00  0.0000
   6.4667E+01   6.6240E+01   0.0000E+00  0.0000
   6.6240E+01   6.7852E+01   0.0000E+00  0.0000
   6.7852E+01   6.9503E+01   0.0000E+00  0.0000
   6.9503E+01   7.1194E+01   0.0000E+00  0.0000
   7.1194E+01   7.2926E+01   0.0000E+00  0.0000
   7.2926E+01   7.4701E+01   0.0000E+00  0.0000
   7.4701E+01   7.6518E+01   0.0000E+00  0.0000
   7.6518E+01   7.8380E+01   0.0000E+00  0.0000
   7.8380E+01   8.0287E+01   0.0000E+00  0.0000
   8.0287E+01   8.2240E+01   0.0000E+00  0.0000
   8.2240E+01   8.4241E+01   0.0000E+00  0.0000
   8.4241E+01   8.6291E+01   0.0000E+00  0.0000
   8.6291E+01   8.8391E+01   0.0000E+00  0.0000
   8.8391E+01   9.0541E+01   0.0000E+00  0.0000
   9.0541E+01   9.2744E+01   0.0000E+00  0.0000
   9.2744E+01   9.5001E+01   0.0000E+00  0.0000
   9.5001E+01   9.7312E+01   0.0000E+00  0.0000
   9.7312E+01   9.9680E+01   0.0000E+00  0.0000
   9.9680E+01   1.0211E+02   0.0000E+00  0.0000
   1.0211E+02   1.0459E+02   0.0000E+00  0.0000
   1.0459E+02   1.0713E+02   0.0000E+00  0.0000
   1.0713E+02   1.0974E+02   0.0000E+00  0.0000
   1.0974E+02   1.1241E+02   0.0000E+00  0.0000
   1.1241E+02   1.1515E+02   0.0000E+00  0.0000
   1.1515E+02   1.1795E+02   0.0000E+00  0.0000
   1.1795E+02   1.2082E+02   0.0000E+00  0.0000
   1.2082E+02   1.2376E+02   0.0000E+00  0.0000
   1.2376E+02   1.2677E+02   0.0000E+00  0.0000
   1.2677E+02   1.2985E+02   0.0000E+00  0.0000
   1.2985E+02   1.3301E+02   0.0000E+00  0.0000
   1.3301E+02   1.3625E+02   0.0000E+00  0.0000
   1.3625E+02   1.3956E+02   0.0000E+00  0.0000
   1.3956E+02   1.4296E+02   0.0000E+00  0.0000
   1.4296E+02   1.4644E+02   0.0000E+00  0.0000
   1.4644E+02   1.5000E+02   0.0000E+00  0.0000

#   sum over                 8.5048E-06
'no. =    1   reg = 104 - 204'
msuc: {\huge [t-cross] in region mesh}
msdr: {\it plotted by \ANGEL \version}
msdl: {\it calculated by \PHITS  3.26}
wt: s(0.7)
\vspace{-3}
  region surface crossing
  area  &=&   1.0000E+00 [cm^2]
e:
 
# Information for Restart Calculation
# This calculation was newly started
# istdev =  2 # 1:Batch variance, 2:History variance
# resc2  = 2.00000000000000000E+09 # Total source weight or Total source weight / maxcas
# resc3  = 2.00000000000000000E+09 # Total history number or Total batch number
# maxcas =   500000000 # History / Batch, only used for istdev=1
# bitrseed = 0011011010010000100111110110001101100001010011100000011100000110 # bit data of rseed
