[ T-Cross ]
    title = [t-cross] in region mesh
     mesh =  reg            # mesh type is region-wise
      reg =    1            # number of crossing regions
      non     r-from    r-to       area
      1       119       219        1.000000    
   e-type =    3            # e-mesh is log given by emin, emax and ne
     emin =  1.0000000E-02  # minimum value of e-mesh points
     emax =   150.0000      # maximum value of e-mesh points
#    edel =  2.4039514E-02  # mesh width of e-mesh points
       ne =    400          # number of e-mesh points
#    data = ( e(i), i = 1, ne + 1 )
#           1.00000E-02  1.02433E-02  1.04925E-02  1.07478E-02  1.10093E-02
#           1.12772E-02  1.15516E-02  1.18326E-02  1.21205E-02  1.24154E-02
#           1.27175E-02  1.30269E-02  1.33439E-02  1.36686E-02  1.40011E-02
#           1.43418E-02  1.46907E-02  1.50482E-02  1.54143E-02  1.57894E-02
#           1.61735E-02  1.65670E-02  1.69701E-02  1.73830E-02  1.78060E-02
#           1.82392E-02  1.86830E-02  1.91375E-02  1.96032E-02  2.00801E-02
#           2.05687E-02  2.10692E-02  2.15818E-02  2.21069E-02  2.26448E-02
#           2.31957E-02  2.37601E-02  2.43382E-02  2.49304E-02  2.55369E-02
#           2.61583E-02  2.67947E-02  2.74467E-02  2.81145E-02  2.87985E-02
#           2.94992E-02  3.02169E-02  3.09521E-02  3.17052E-02  3.24766E-02
#           3.32668E-02  3.40762E-02  3.49053E-02  3.57546E-02  3.66246E-02
#           3.75157E-02  3.84284E-02  3.93634E-02  4.03212E-02  4.13022E-02
#           4.23071E-02  4.33365E-02  4.43909E-02  4.54710E-02  4.65773E-02
#           4.77106E-02  4.88714E-02  5.00605E-02  5.12785E-02  5.25262E-02
#           5.38042E-02  5.51133E-02  5.64542E-02  5.78278E-02  5.92348E-02
#           6.06760E-02  6.21523E-02  6.36645E-02  6.52135E-02  6.68002E-02
#           6.84255E-02  7.00904E-02  7.17957E-02  7.35426E-02  7.53319E-02
#           7.71648E-02  7.90423E-02  8.09655E-02  8.29354E-02  8.49533E-02
#           8.70203E-02  8.91376E-02  9.13064E-02  9.35279E-02  9.58035E-02
#           9.81345E-02  1.00522E-01  1.02968E-01  1.05473E-01  1.08040E-01
#           1.10668E-01  1.13361E-01  1.16119E-01  1.18944E-01  1.21838E-01
#           1.24803E-01  1.27839E-01  1.30950E-01  1.34136E-01  1.37399E-01
#           1.40742E-01  1.44167E-01  1.47675E-01  1.51268E-01  1.54948E-01
#           1.58718E-01  1.62580E-01  1.66535E-01  1.70587E-01  1.74738E-01
#           1.78989E-01  1.83344E-01  1.87805E-01  1.92375E-01  1.97055E-01
#           2.01850E-01  2.06761E-01  2.11792E-01  2.16945E-01  2.22223E-01
#           2.27630E-01  2.33169E-01  2.38842E-01  2.44653E-01  2.50605E-01
#           2.56703E-01  2.62949E-01  2.69346E-01  2.75900E-01  2.82613E-01
#           2.89489E-01  2.96532E-01  3.03747E-01  3.11138E-01  3.18708E-01
#           3.26462E-01  3.34405E-01  3.42542E-01  3.50876E-01  3.59413E-01
#           3.68158E-01  3.77116E-01  3.86291E-01  3.95690E-01  4.05317E-01
#           4.15179E-01  4.25281E-01  4.35628E-01  4.46227E-01  4.57084E-01
#           4.68205E-01  4.79597E-01  4.91266E-01  5.03219E-01  5.15463E-01
#           5.28005E-01  5.40851E-01  5.54011E-01  5.67490E-01  5.81298E-01
#           5.95441E-01  6.09929E-01  6.24769E-01  6.39970E-01  6.55541E-01
#           6.71491E-01  6.87828E-01  7.04564E-01  7.21706E-01  7.39266E-01
#           7.57253E-01  7.75678E-01  7.94551E-01  8.13883E-01  8.33685E-01
#           8.53969E-01  8.74747E-01  8.96030E-01  9.17831E-01  9.40163E-01
#           9.63038E-01  9.86469E-01  1.01047E+00  1.03506E+00  1.06024E+00
#           1.08604E+00  1.11246E+00  1.13953E+00  1.16725E+00  1.19565E+00
#           1.22474E+00  1.25454E+00  1.28507E+00  1.31633E+00  1.34836E+00
#           1.38117E+00  1.41477E+00  1.44920E+00  1.48446E+00  1.52057E+00
#           1.55757E+00  1.59547E+00  1.63429E+00  1.67405E+00  1.71478E+00
#           1.75650E+00  1.79924E+00  1.84302E+00  1.88786E+00  1.93379E+00
#           1.98084E+00  2.02904E+00  2.07841E+00  2.12898E+00  2.18078E+00
#           2.23384E+00  2.28819E+00  2.34386E+00  2.40089E+00  2.45930E+00
#           2.51914E+00  2.58043E+00  2.64322E+00  2.70753E+00  2.77341E+00
#           2.84088E+00  2.91001E+00  2.98081E+00  3.05333E+00  3.12762E+00
#           3.20372E+00  3.28167E+00  3.36152E+00  3.44330E+00  3.52708E+00
#           3.61290E+00  3.70080E+00  3.79085E+00  3.88308E+00  3.97756E+00
#           4.07434E+00  4.17347E+00  4.27501E+00  4.37903E+00  4.48557E+00
#           4.59471E+00  4.70650E+00  4.82102E+00  4.93832E+00  5.05847E+00
#           5.18155E+00  5.30762E+00  5.43676E+00  5.56904E+00  5.70453E+00
#           5.84333E+00  5.98550E+00  6.13114E+00  6.28031E+00  6.43312E+00
#           6.58964E+00  6.74997E+00  6.91420E+00  7.08243E+00  7.25475E+00
#           7.43126E+00  7.61207E+00  7.79728E+00  7.98700E+00  8.18133E+00
#           8.38038E+00  8.58428E+00  8.79315E+00  9.00709E+00  9.22624E+00
#           9.45072E+00  9.68067E+00  9.91620E+00  1.01575E+01  1.04046E+01
#           1.06578E+01  1.09171E+01  1.11827E+01  1.14548E+01  1.17335E+01
#           1.20190E+01  1.23114E+01  1.26109E+01  1.29178E+01  1.32321E+01
#           1.35540E+01  1.38838E+01  1.42216E+01  1.45676E+01  1.49221E+01
#           1.52851E+01  1.56570E+01  1.60380E+01  1.64282E+01  1.68279E+01
#           1.72374E+01  1.76568E+01  1.80864E+01  1.85264E+01  1.89772E+01
#           1.94389E+01  1.99119E+01  2.03963E+01  2.08926E+01  2.14009E+01
#           2.19216E+01  2.24550E+01  2.30014E+01  2.35610E+01  2.41343E+01
#           2.47215E+01  2.53230E+01  2.59391E+01  2.65702E+01  2.72167E+01
#           2.78789E+01  2.85572E+01  2.92520E+01  2.99637E+01  3.06928E+01
#           3.14396E+01  3.22045E+01  3.29881E+01  3.37907E+01  3.46128E+01
#           3.54550E+01  3.63177E+01  3.72013E+01  3.81064E+01  3.90336E+01
#           3.99833E+01  4.09561E+01  4.19526E+01  4.29734E+01  4.40189E+01
#           4.50900E+01  4.61870E+01  4.73108E+01  4.84619E+01  4.96410E+01
#           5.08488E+01  5.20860E+01  5.33533E+01  5.46514E+01  5.59812E+01
#           5.73432E+01  5.87384E+01  6.01676E+01  6.16315E+01  6.31311E+01
#           6.46671E+01  6.62405E+01  6.78522E+01  6.95031E+01  7.11941E+01
#           7.29263E+01  7.47007E+01  7.65182E+01  7.83800E+01  8.02870E+01
#           8.22405E+01  8.42414E+01  8.62911E+01  8.83906E+01  9.05412E+01
#           9.27442E+01  9.50007E+01  9.73122E+01  9.96799E+01  1.02105E+02
#           1.04589E+02  1.07134E+02  1.09741E+02  1.12411E+02  1.15146E+02
#           1.17948E+02  1.20817E+02  1.23757E+02  1.26768E+02  1.29852E+02
#           1.33012E+02  1.36248E+02  1.39563E+02  1.42959E+02  1.46437E+02
#           1.50000E+02
     unit =    2            # unit is [1/cm^2/(MeV/n)/source]
     axis =  eng            # axis of output
     file = detector-20.out  # file name of output for the above axis
   output = f-curr          # surface crossing forward current spectrum
     part =  neutron  
# kf/name :  2112     
#    used :        main (  %)        temp (  %)       total (  %)
#  memory :         414 (  0)           0 (  0)         414 (  0)

#------------------------------------------------------------------------------
#newpage:
#   no. =    1   reg = 119 - 219

x: Energy [MeV/n]
y:  F-Curr [1/cm^2/(MeV/n)/source]         
p: xlog ylog afac(0.8) form(0.9)
h: n            x            y(neutron ),hh0l   n 
#  e-lower      e-upper      neutron     r.err 
   1.0000E-02   1.0243E-02   4.2744E-04  0.0981
   1.0243E-02   1.0493E-02   4.8149E-04  0.0913
   1.0493E-02   1.0748E-02   5.3664E-04  0.0854
   1.0748E-02   1.1009E-02   4.6271E-04  0.0909
   1.1009E-02   1.1277E-02   4.8158E-04  0.0880
   1.1277E-02   1.1552E-02   5.2846E-04  0.0830
   1.1552E-02   1.1833E-02   5.1591E-04  0.0830
   1.1833E-02   1.2121E-02   5.0712E-04  0.0828
   1.2121E-02   1.2415E-02   4.4422E-04  0.0874
   1.2415E-02   1.2718E-02   4.6677E-04  0.0842
   1.2718E-02   1.3027E-02   4.6214E-04  0.0836
   1.3027E-02   1.3344E-02   4.9534E-04  0.0798
   1.3344E-02   1.3669E-02   4.3737E-04  0.0839
   1.3669E-02   1.4001E-02   5.2020E-04  0.0760
   1.4001E-02   1.4342E-02   4.6674E-04  0.0793
   1.4342E-02   1.4691E-02   4.1840E-04  0.0828
   1.4691E-02   1.5048E-02   4.6162E-04  0.0778
   1.5048E-02   1.5414E-02   5.0528E-04  0.0735
   1.5414E-02   1.5789E-02   5.0661E-04  0.0725
   1.5789E-02   1.6174E-02   4.4772E-04  0.0762
   1.6174E-02   1.6567E-02   5.0062E-04  0.0712
   1.6567E-02   1.6970E-02   4.5399E-04  0.0739
   1.6970E-02   1.7383E-02   4.5774E-04  0.0727
   1.7383E-02   1.7806E-02   5.2962E-04  0.0668
   1.7806E-02   1.8239E-02   4.3856E-04  0.0725
   1.8239E-02   1.8683E-02   4.7997E-04  0.0685
   1.8683E-02   1.9138E-02   4.7737E-04  0.0679
   1.9138E-02   1.9603E-02   4.4241E-04  0.0697
   1.9603E-02   2.0080E-02   4.7383E-04  0.0665
   2.0080E-02   2.0569E-02   4.6667E-04  0.0662
   2.0569E-02   2.1069E-02   4.2162E-04  0.0688
   2.1069E-02   2.1582E-02   5.2084E-04  0.0612
   2.1582E-02   2.2107E-02   4.5325E-04  0.0648
   2.2107E-02   2.2645E-02   4.3504E-04  0.0654
   2.2645E-02   2.3196E-02   4.8097E-04  0.0614
   2.3196E-02   2.3760E-02   4.6423E-04  0.0618
   2.3760E-02   2.4338E-02   4.5148E-04  0.0619
   2.4338E-02   2.4930E-02   4.5595E-04  0.0609
   2.4930E-02   2.5537E-02   4.4182E-04  0.0611
   2.5537E-02   2.6158E-02   4.5869E-04  0.0592
   2.6158E-02   2.6795E-02   4.5251E-04  0.0589
   2.6795E-02   2.7447E-02   4.6630E-04  0.0574
   2.7447E-02   2.8114E-02   4.7919E-04  0.0559
   2.8114E-02   2.8799E-02   5.2482E-04  0.0528
   2.8799E-02   2.9499E-02   4.4385E-04  0.0567
   2.9499E-02   3.0217E-02   4.7232E-04  0.0543
   3.0217E-02   3.0952E-02   5.2639E-04  0.0508
   3.0952E-02   3.1705E-02   5.0060E-04  0.0515
   3.1705E-02   3.2477E-02   4.9131E-04  0.0514
   3.2477E-02   3.3267E-02   4.8723E-04  0.0510
   3.3267E-02   3.4076E-02   4.5959E-04  0.0518
   3.4076E-02   3.4905E-02   4.7039E-04  0.0506
   3.4905E-02   3.5755E-02   4.8394E-04  0.0493
   3.5755E-02   3.6625E-02   4.7934E-04  0.0490
   3.6625E-02   3.7516E-02   4.8367E-04  0.0482
   3.7516E-02   3.8428E-02   5.2039E-04  0.0459
   3.8428E-02   3.9363E-02   4.6738E-04  0.0478
   3.9363E-02   4.0321E-02   4.7403E-04  0.0469
   4.0321E-02   4.1302E-02   4.7398E-04  0.0464
   4.1302E-02   4.2307E-02   4.9954E-04  0.0446
   4.2307E-02   4.3337E-02   5.1099E-04  0.0436
   4.3337E-02   4.4391E-02   4.9886E-04  0.0436
   4.4391E-02   4.5471E-02   4.8423E-04  0.0437
   4.5471E-02   4.6577E-02   4.8357E-04  0.0432
   4.6577E-02   4.7711E-02   4.9768E-04  0.0421
   4.7711E-02   4.8871E-02   5.0136E-04  0.0415
   4.8871E-02   5.0061E-02   5.0585E-04  0.0408
   5.0061E-02   5.1279E-02   5.1477E-04  0.0399
   5.1279E-02   5.2526E-02   4.8571E-04  0.0406
   5.2526E-02   5.3804E-02   5.5164E-04  0.0377
   5.3804E-02   5.5113E-02   4.8125E-04  0.0398
   5.5113E-02   5.6454E-02   4.9592E-04  0.0388
   5.6454E-02   5.7828E-02   4.9506E-04  0.0383
   5.7828E-02   5.9235E-02   4.8046E-04  0.0385
   5.9235E-02   6.0676E-02   4.9610E-04  0.0374
   6.0676E-02   6.2152E-02   4.8635E-04  0.0373
   6.2152E-02   6.3665E-02   5.2109E-04  0.0356
   6.3665E-02   6.5214E-02   4.8547E-04  0.0365
   6.5214E-02   6.6800E-02   5.3886E-04  0.0342
   6.6800E-02   6.8426E-02   4.7253E-04  0.0361
   6.8426E-02   7.0090E-02   4.9074E-04  0.0350
   7.0090E-02   7.1796E-02   4.9315E-04  0.0345
   7.1796E-02   7.3543E-02   4.9174E-04  0.0341
   7.3543E-02   7.5332E-02   5.1415E-04  0.0330
   7.5332E-02   7.7165E-02   4.9703E-04  0.0331
   7.7165E-02   7.9042E-02   5.2144E-04  0.0320
   7.9042E-02   8.0965E-02   5.2466E-04  0.0315
   8.0965E-02   8.2935E-02   5.2793E-04  0.0310
   8.2935E-02   8.4953E-02   5.0152E-04  0.0314
   8.4953E-02   8.7020E-02   5.2637E-04  0.0303
   8.7020E-02   8.9138E-02   5.1859E-04  0.0302
   8.9138E-02   9.1306E-02   5.1365E-04  0.0300
   9.1306E-02   9.3528E-02   5.0325E-04  0.0299
   9.3528E-02   9.5804E-02   5.1503E-04  0.0292
   9.5804E-02   9.8134E-02   5.5041E-04  0.0279
   9.8134E-02   1.0052E-01   5.4278E-04  0.0278
   1.0052E-01   1.0297E-01   5.2090E-04  0.0280
   1.0297E-01   1.0547E-01   5.4405E-04  0.0271
   1.0547E-01   1.0804E-01   5.3541E-04  0.0270
   1.0804E-01   1.1067E-01   5.4172E-04  0.0265
   1.1067E-01   1.1336E-01   5.5299E-04  0.0259
   1.1336E-01   1.1612E-01   5.1157E-04  0.0266
   1.1612E-01   1.1894E-01   5.4756E-04  0.0254
   1.1894E-01   1.2184E-01   5.6081E-04  0.0248
   1.2184E-01   1.2480E-01   5.4918E-04  0.0248
   1.2480E-01   1.2784E-01   5.4239E-04  0.0246
   1.2784E-01   1.3095E-01   5.5812E-04  0.0240
   1.3095E-01   1.3414E-01   5.5051E-04  0.0239
   1.3414E-01   1.3740E-01   5.4449E-04  0.0237
   1.3740E-01   1.4074E-01   5.6266E-04  0.0231
   1.4074E-01   1.4417E-01   5.8522E-04  0.0223
   1.4417E-01   1.4767E-01   5.3539E-04  0.0231
   1.4767E-01   1.5127E-01   5.7778E-04  0.0219
   1.5127E-01   1.5495E-01   5.7860E-04  0.0217
   1.5495E-01   1.5872E-01   5.5623E-04  0.0218
   1.5872E-01   1.6258E-01   5.4198E-04  0.0219
   1.6258E-01   1.6654E-01   5.5717E-04  0.0213
   1.6654E-01   1.7059E-01   5.8713E-04  0.0205
   1.7059E-01   1.7474E-01   5.7246E-04  0.0205
   1.7474E-01   1.7899E-01   5.7674E-04  0.0202
   1.7899E-01   1.8334E-01   5.8830E-04  0.0198
   1.8334E-01   1.8781E-01   5.8306E-04  0.0196
   1.8781E-01   1.9237E-01   5.8782E-04  0.0193
   1.9237E-01   1.9706E-01   6.0633E-04  0.0188
   1.9706E-01   2.0185E-01   5.9255E-04  0.0188
   2.0185E-01   2.0676E-01   6.1574E-04  0.0182
   2.0676E-01   2.1179E-01   6.0946E-04  0.0181
   2.1179E-01   2.1694E-01   5.9809E-04  0.0180
   2.1694E-01   2.2222E-01   6.0794E-04  0.0177
   2.2222E-01   2.2763E-01   5.9572E-04  0.0176
   2.2763E-01   2.3317E-01   6.1570E-04  0.0171
   2.3317E-01   2.3884E-01   6.2981E-04  0.0167
   2.3884E-01   2.4465E-01   6.2827E-04  0.0165
   2.4465E-01   2.5061E-01   6.1671E-04  0.0165
   2.5061E-01   2.5670E-01   6.1797E-04  0.0163
   2.5670E-01   2.6295E-01   5.9640E-04  0.0164
   2.6295E-01   2.6935E-01   6.2366E-04  0.0158
   2.6935E-01   2.7590E-01   6.1052E-04  0.0158
   2.7590E-01   2.8261E-01   6.1285E-04  0.0156
   2.8261E-01   2.8949E-01   6.1473E-04  0.0154
   2.8949E-01   2.9653E-01   6.1220E-04  0.0152
   2.9653E-01   3.0375E-01   6.3328E-04  0.0148
   3.0375E-01   3.1114E-01   6.3434E-04  0.0146
   3.1114E-01   3.1871E-01   6.3578E-04  0.0144
   3.1871E-01   3.2646E-01   6.4505E-04  0.0141
   3.2646E-01   3.3441E-01   6.4245E-04  0.0140
   3.3441E-01   3.4254E-01   6.2460E-04  0.0140
   3.4254E-01   3.5088E-01   6.4960E-04  0.0136
   3.5088E-01   3.5941E-01   6.5702E-04  0.0134
   3.5941E-01   3.6816E-01   6.3501E-04  0.0134
   3.6816E-01   3.7712E-01   6.3879E-04  0.0132
   3.7712E-01   3.8629E-01   6.4977E-04  0.0130
   3.8629E-01   3.9569E-01   6.4902E-04  0.0128
   3.9569E-01   4.0532E-01   6.4929E-04  0.0126
   4.0532E-01   4.1518E-01   6.6104E-04  0.0124
   4.1518E-01   4.2528E-01   6.6138E-04  0.0122
   4.2528E-01   4.3563E-01   6.4272E-04  0.0123
   4.3563E-01   4.4623E-01   6.4722E-04  0.0121
   4.4623E-01   4.5708E-01   6.5345E-04  0.0119
   4.5708E-01   4.6821E-01   6.6009E-04  0.0117
   4.6821E-01   4.7960E-01   6.5301E-04  0.0116
   4.7960E-01   4.9127E-01   6.6034E-04  0.0114
   4.9127E-01   5.0322E-01   6.5570E-04  0.0113
   5.0322E-01   5.1546E-01   6.4956E-04  0.0112
   5.1546E-01   5.2800E-01   6.5430E-04  0.0110
   5.2800E-01   5.4085E-01   6.5304E-04  0.0109
   5.4085E-01   5.5401E-01   6.5816E-04  0.0107
   5.5401E-01   5.6749E-01   6.5944E-04  0.0106
   5.6749E-01   5.8130E-01   6.5783E-04  0.0105
   5.8130E-01   5.9544E-01   6.4659E-04  0.0105
   5.9544E-01   6.0993E-01   6.5208E-04  0.0103
   6.0993E-01   6.2477E-01   6.3713E-04  0.0103
   6.2477E-01   6.3997E-01   6.3535E-04  0.0102
   6.3997E-01   6.5554E-01   6.4344E-04  0.0100
   6.5554E-01   6.7149E-01   6.2358E-04  0.0100
   6.7149E-01   6.8783E-01   6.1783E-04  0.0100
   6.8783E-01   7.0456E-01   6.2472E-04  0.0098
   7.0456E-01   7.2171E-01   6.2036E-04  0.0097
   7.2171E-01   7.3927E-01   6.0787E-04  0.0097
   7.3927E-01   7.5725E-01   6.0650E-04  0.0096
   7.5725E-01   7.7568E-01   5.9271E-04  0.0096
   7.7568E-01   7.9455E-01   5.8155E-04  0.0095
   7.9455E-01   8.1388E-01   5.9037E-04  0.0094
   8.1388E-01   8.3368E-01   5.7609E-04  0.0094
   8.3368E-01   8.5397E-01   5.6911E-04  0.0093
   8.5397E-01   8.7475E-01   5.5908E-04  0.0093
   8.7475E-01   8.9603E-01   5.4456E-04  0.0093
   8.9603E-01   9.1783E-01   5.1759E-04  0.0094
   9.1783E-01   9.4016E-01   5.1685E-04  0.0093
   9.4016E-01   9.6304E-01   5.0396E-04  0.0093
   9.6304E-01   9.8647E-01   4.7304E-04  0.0095
   9.8647E-01   1.0105E+00   4.6680E-04  0.0094
   1.0105E+00   1.0351E+00   4.5376E-04  0.0095
   1.0351E+00   1.0602E+00   4.4104E-04  0.0095
   1.0602E+00   1.0860E+00   4.3269E-04  0.0095
   1.0860E+00   1.1125E+00   4.3646E-04  0.0093
   1.1125E+00   1.1395E+00   4.3056E-04  0.0093
   1.1395E+00   1.1673E+00   4.2203E-04  0.0092
   1.1673E+00   1.1957E+00   4.2176E-04  0.0091
   1.1957E+00   1.2247E+00   4.1882E-04  0.0091
   1.2247E+00   1.2545E+00   4.1018E-04  0.0090
   1.2545E+00   1.2851E+00   4.0127E-04  0.0090
   1.2851E+00   1.3163E+00   3.9301E-04  0.0090
   1.3163E+00   1.3484E+00   3.8632E-04  0.0090
   1.3484E+00   1.3812E+00   3.7709E-04  0.0090
   1.3812E+00   1.4148E+00   3.7947E-04  0.0089
   1.4148E+00   1.4492E+00   3.6177E-04  0.0090
   1.4492E+00   1.4845E+00   3.6082E-04  0.0089
   1.4845E+00   1.5206E+00   3.4696E-04  0.0089
   1.5206E+00   1.5576E+00   3.3573E-04  0.0090
   1.5576E+00   1.5955E+00   3.3108E-04  0.0089
   1.5955E+00   1.6343E+00   3.1181E-04  0.0091
   1.6343E+00   1.6741E+00   3.0304E-04  0.0091
   1.6741E+00   1.7148E+00   2.9604E-04  0.0091
   1.7148E+00   1.7565E+00   2.9313E-04  0.0090
   1.7565E+00   1.7992E+00   2.7788E-04  0.0092
   1.7992E+00   1.8430E+00   2.6918E-04  0.0092
   1.8430E+00   1.8879E+00   2.6318E-04  0.0092
   1.8879E+00   1.9338E+00   2.5139E-04  0.0093
   1.9338E+00   1.9808E+00   2.4474E-04  0.0093
   1.9808E+00   2.0290E+00   2.3556E-04  0.0094
   2.0290E+00   2.0784E+00   2.2747E-04  0.0094
   2.0784E+00   2.1290E+00   2.1562E-04  0.0096
   2.1290E+00   2.1808E+00   2.1054E-04  0.0096
   2.1808E+00   2.2338E+00   1.9879E-04  0.0097
   2.2338E+00   2.2882E+00   1.8990E-04  0.0098
   2.2882E+00   2.3439E+00   1.8397E-04  0.0099
   2.3439E+00   2.4009E+00   1.7420E-04  0.0100
   2.4009E+00   2.4593E+00   1.6627E-04  0.0101
   2.4593E+00   2.5191E+00   1.5847E-04  0.0103
   2.5191E+00   2.5804E+00   1.4941E-04  0.0105
   2.5804E+00   2.6432E+00   1.4230E-04  0.0106
   2.6432E+00   2.7075E+00   1.3417E-04  0.0108
   2.7075E+00   2.7734E+00   1.2739E-04  0.0109
   2.7734E+00   2.8409E+00   1.1967E-04  0.0111
   2.8409E+00   2.9100E+00   1.1583E-04  0.0112
   2.9100E+00   2.9808E+00   1.0918E-04  0.0114
   2.9808E+00   3.0533E+00   1.0479E-04  0.0115
   3.0533E+00   3.1276E+00   9.7584E-05  0.0117
   3.1276E+00   3.2037E+00   9.1317E-05  0.0120
   3.2037E+00   3.2817E+00   8.6954E-05  0.0121
   3.2817E+00   3.3615E+00   8.0937E-05  0.0124
   3.3615E+00   3.4433E+00   7.5292E-05  0.0127
   3.4433E+00   3.5271E+00   7.1928E-05  0.0129
   3.5271E+00   3.6129E+00   6.7376E-05  0.0132
   3.6129E+00   3.7008E+00   6.2875E-05  0.0135
   3.7008E+00   3.7908E+00   6.0032E-05  0.0136
   3.7908E+00   3.8831E+00   5.6004E-05  0.0139
   3.8831E+00   3.9776E+00   5.2329E-05  0.0142
   3.9776E+00   4.0743E+00   4.9485E-05  0.0145
   4.0743E+00   4.1735E+00   4.6201E-05  0.0148
   4.1735E+00   4.2750E+00   4.3124E-05  0.0151
   4.2750E+00   4.3790E+00   4.0235E-05  0.0155
   4.3790E+00   4.4856E+00   3.5891E-05  0.0162
   4.4856E+00   4.5947E+00   3.4869E-05  0.0162
   4.5947E+00   4.7065E+00   3.2023E-05  0.0167
   4.7065E+00   4.8210E+00   2.9857E-05  0.0171
   4.8210E+00   4.9383E+00   2.7903E-05  0.0175
   4.9383E+00   5.0585E+00   2.5721E-05  0.0180
   5.0585E+00   5.1815E+00   2.4318E-05  0.0183
   5.1815E+00   5.3076E+00   2.2848E-05  0.0186
   5.3076E+00   5.4368E+00   2.0939E-05  0.0192
   5.4368E+00   5.5690E+00   1.9383E-05  0.0197
   5.5690E+00   5.7045E+00   1.7044E-05  0.0208
   5.7045E+00   5.8433E+00   1.6402E-05  0.0210
   5.8433E+00   5.9855E+00   1.5052E-05  0.0216
   5.9855E+00   6.1311E+00   1.4053E-05  0.0221
   6.1311E+00   6.2803E+00   1.2499E-05  0.0232
   6.2803E+00   6.4331E+00   1.2051E-05  0.0233
   6.4331E+00   6.5896E+00   1.0915E-05  0.0242
   6.5896E+00   6.7500E+00   1.0332E-05  0.0246
   6.7500E+00   6.9142E+00   9.2856E-06  0.0256
   6.9142E+00   7.0824E+00   8.6817E-06  0.0262
   7.0824E+00   7.2548E+00   8.1940E-06  0.0266
   7.2548E+00   7.4313E+00   7.3365E-06  0.0278
   7.4313E+00   7.6121E+00   7.0987E-06  0.0279
   7.6121E+00   7.7973E+00   6.0500E-06  0.0299
   7.7973E+00   7.9870E+00   5.6005E-06  0.0307
   7.9870E+00   8.1813E+00   5.3389E-06  0.0310
   8.1813E+00   8.3804E+00   5.0287E-06  0.0316
   8.3804E+00   8.5843E+00   4.4335E-06  0.0332
   8.5843E+00   8.7931E+00   4.2684E-06  0.0335
   8.7931E+00   9.0071E+00   3.8748E-06  0.0347
   9.0071E+00   9.2262E+00   3.3425E-06  0.0369
   9.2262E+00   9.4507E+00   3.1138E-06  0.0378
   9.4507E+00   9.6807E+00   2.7311E-06  0.0399
   9.6807E+00   9.9162E+00   2.7681E-06  0.0391
   9.9162E+00   1.0157E+01   2.4413E-06  0.0412
   1.0157E+01   1.0405E+01   2.2052E-06  0.0428
   1.0405E+01   1.0658E+01   2.1509E-06  0.0428
   1.0658E+01   1.0917E+01   1.9340E-06  0.0446
   1.0917E+01   1.1183E+01   1.9727E-06  0.0437
   1.1183E+01   1.1455E+01   1.6080E-06  0.0478
   1.1455E+01   1.1733E+01   1.4801E-06  0.0492
   1.1733E+01   1.2019E+01   1.4169E-06  0.0497
   1.2019E+01   1.2311E+01   1.2721E-06  0.0518
   1.2311E+01   1.2611E+01   1.1517E-06  0.0538
   1.2611E+01   1.2918E+01   1.2156E-06  0.0517
   1.2918E+01   1.3232E+01   1.0675E-06  0.0546
   1.3232E+01   1.3554E+01   9.4736E-07  0.0573
   1.3554E+01   1.3884E+01   8.5208E-07  0.0597
   1.3884E+01   1.4222E+01   7.4599E-07  0.0630
   1.4222E+01   1.4568E+01   7.2250E-07  0.0632
   1.4568E+01   1.4922E+01   6.2351E-07  0.0673
   1.4922E+01   1.5285E+01   6.4176E-07  0.0655
   1.5285E+01   1.5657E+01   5.4585E-07  0.0702
   1.5657E+01   1.6038E+01   4.9876E-07  0.0725
   1.6038E+01   1.6428E+01   4.4078E-07  0.0762
   1.6428E+01   1.6828E+01   4.3031E-07  0.0762
   1.6828E+01   1.7237E+01   4.0299E-07  0.0778
   1.7237E+01   1.7657E+01   3.2666E-07  0.0854
   1.7657E+01   1.8086E+01   4.0270E-07  0.0760
   1.8086E+01   1.8526E+01   2.7269E-07  0.0913
   1.8526E+01   1.8977E+01   2.7509E-07  0.0898
   1.8977E+01   1.9439E+01   2.4257E-07  0.0945
   1.9439E+01   1.9912E+01   2.3680E-07  0.0945
   1.9912E+01   2.0396E+01   1.8577E-07  0.1054
   2.0396E+01   2.0893E+01   1.7128E-07  0.1085
   2.0893E+01   2.1401E+01   1.4754E-07  0.1155
   2.1401E+01   2.1922E+01   1.3635E-07  0.1187
   2.1922E+01   2.2455E+01   1.0687E-07  0.1325
   2.2455E+01   2.3001E+01   1.1897E-07  0.1240
   2.3001E+01   2.3561E+01   8.7556E-08  0.1429
   2.3561E+01   2.4134E+01   6.6288E-08  0.1622
   2.4134E+01   2.4721E+01   6.1307E-08  0.1667
   2.4721E+01   2.5323E+01   6.4839E-08  0.1601
   2.5323E+01   2.5939E+01   4.0576E-08  0.2000
   2.5939E+01   2.6570E+01   4.7535E-08  0.1826
   2.6570E+01   2.7217E+01   2.9390E-08  0.2294
   2.7217E+01   2.7879E+01   1.6611E-08  0.3015
   2.7879E+01   2.8557E+01   2.0639E-08  0.2673
   2.8557E+01   2.9252E+01   1.2953E-08  0.3333
   2.9252E+01   2.9964E+01   1.4050E-08  0.3162
   2.9964E+01   3.0693E+01   6.8583E-09  0.4472
   3.0693E+01   3.1440E+01   5.3563E-09  0.5000
   3.1440E+01   3.2205E+01   0.0000E+00  0.0000
   3.2205E+01   3.2988E+01   0.0000E+00  0.0000
   3.2988E+01   3.3791E+01   1.2459E-09  1.0000
   3.3791E+01   3.4613E+01   0.0000E+00  0.0000
   3.4613E+01   3.5455E+01   0.0000E+00  0.0000
   3.5455E+01   3.6318E+01   0.0000E+00  0.0000
   3.6318E+01   3.7201E+01   0.0000E+00  0.0000
   3.7201E+01   3.8106E+01   0.0000E+00  0.0000
   3.8106E+01   3.9034E+01   0.0000E+00  0.0000
   3.9034E+01   3.9983E+01   0.0000E+00  0.0000
   3.9983E+01   4.0956E+01   0.0000E+00  0.0000
   4.0956E+01   4.1953E+01   0.0000E+00  0.0000
   4.1953E+01   4.2973E+01   0.0000E+00  0.0000
   4.2973E+01   4.4019E+01   0.0000E+00  0.0000
   4.4019E+01   4.5090E+01   0.0000E+00  0.0000
   4.5090E+01   4.6187E+01   0.0000E+00  0.0000
   4.6187E+01   4.7311E+01   0.0000E+00  0.0000
   4.7311E+01   4.8462E+01   0.0000E+00  0.0000
   4.8462E+01   4.9641E+01   0.0000E+00  0.0000
   4.9641E+01   5.0849E+01   0.0000E+00  0.0000
   5.0849E+01   5.2086E+01   0.0000E+00  0.0000
   5.2086E+01   5.3353E+01   0.0000E+00  0.0000
   5.3353E+01   5.4651E+01   0.0000E+00  0.0000
   5.4651E+01   5.5981E+01   0.0000E+00  0.0000
   5.5981E+01   5.7343E+01   0.0000E+00  0.0000
   5.7343E+01   5.8738E+01   0.0000E+00  0.0000
   5.8738E+01   6.0168E+01   0.0000E+00  0.0000
   6.0168E+01   6.1632E+01   0.0000E+00  0.0000
   6.1632E+01   6.3131E+01   0.0000E+00  0.0000
   6.3131E+01   6.4667E+01   0.0000E+00  0.0000
   6.4667E+01   6.6240E+01   0.0000E+00  0.0000
   6.6240E+01   6.7852E+01   0.0000E+00  0.0000
   6.7852E+01   6.9503E+01   0.0000E+00  0.0000
   6.9503E+01   7.1194E+01   0.0000E+00  0.0000
   7.1194E+01   7.2926E+01   0.0000E+00  0.0000
   7.2926E+01   7.4701E+01   0.0000E+00  0.0000
   7.4701E+01   7.6518E+01   0.0000E+00  0.0000
   7.6518E+01   7.8380E+01   0.0000E+00  0.0000
   7.8380E+01   8.0287E+01   0.0000E+00  0.0000
   8.0287E+01   8.2240E+01   0.0000E+00  0.0000
   8.2240E+01   8.4241E+01   0.0000E+00  0.0000
   8.4241E+01   8.6291E+01   0.0000E+00  0.0000
   8.6291E+01   8.8391E+01   0.0000E+00  0.0000
   8.8391E+01   9.0541E+01   0.0000E+00  0.0000
   9.0541E+01   9.2744E+01   0.0000E+00  0.0000
   9.2744E+01   9.5001E+01   0.0000E+00  0.0000
   9.5001E+01   9.7312E+01   0.0000E+00  0.0000
   9.7312E+01   9.9680E+01   0.0000E+00  0.0000
   9.9680E+01   1.0211E+02   0.0000E+00  0.0000
   1.0211E+02   1.0459E+02   0.0000E+00  0.0000
   1.0459E+02   1.0713E+02   0.0000E+00  0.0000
   1.0713E+02   1.0974E+02   0.0000E+00  0.0000
   1.0974E+02   1.1241E+02   0.0000E+00  0.0000
   1.1241E+02   1.1515E+02   0.0000E+00  0.0000
   1.1515E+02   1.1795E+02   0.0000E+00  0.0000
   1.1795E+02   1.2082E+02   0.0000E+00  0.0000
   1.2082E+02   1.2376E+02   0.0000E+00  0.0000
   1.2376E+02   1.2677E+02   0.0000E+00  0.0000
   1.2677E+02   1.2985E+02   0.0000E+00  0.0000
   1.2985E+02   1.3301E+02   0.0000E+00  0.0000
   1.3301E+02   1.3625E+02   0.0000E+00  0.0000
   1.3625E+02   1.3956E+02   0.0000E+00  0.0000
   1.3956E+02   1.4296E+02   0.0000E+00  0.0000
   1.4296E+02   1.4644E+02   0.0000E+00  0.0000
   1.4644E+02   1.5000E+02   0.0000E+00  0.0000

#   sum over                 8.3849E-06
'no. =    1   reg = 119 - 219'
msuc: {\huge [t-cross] in region mesh}
msdr: {\it plotted by \ANGEL \version}
msdl: {\it calculated by \PHITS  3.26}
wt: s(0.7)
\vspace{-3}
  region surface crossing
  area  &=&   1.0000E+00 [cm^2]
e:
 
# Information for Restart Calculation
# This calculation was newly started
# istdev =  2 # 1:Batch variance, 2:History variance
# resc2  = 1.00000000000000000E+09 # Total source weight or Total source weight / maxcas
# resc3  = 1.00000000000000000E+09 # Total history number or Total batch number
# maxcas =   500000000 # History / Batch, only used for istdev=1
# bitrseed = 0001001110011001001001110000100100110111001111011100001000101100 # bit data of rseed
