[ T-Cross ]
    title = [t-cross] in region mesh
     mesh =  reg            # mesh type is region-wise
      reg =    1            # number of crossing regions
      non     r-from    r-to       area
      1       126       226        1.000000    
   e-type =    3            # e-mesh is log given by emin, emax and ne
     emin =  1.0000000E-02  # minimum value of e-mesh points
     emax =   150.0000      # maximum value of e-mesh points
#    edel =  2.4039514E-02  # mesh width of e-mesh points
       ne =    400          # number of e-mesh points
#    data = ( e(i), i = 1, ne + 1 )
#           1.00000E-02  1.02433E-02  1.04925E-02  1.07478E-02  1.10093E-02
#           1.12772E-02  1.15516E-02  1.18326E-02  1.21205E-02  1.24154E-02
#           1.27175E-02  1.30269E-02  1.33439E-02  1.36686E-02  1.40011E-02
#           1.43418E-02  1.46907E-02  1.50482E-02  1.54143E-02  1.57894E-02
#           1.61735E-02  1.65670E-02  1.69701E-02  1.73830E-02  1.78060E-02
#           1.82392E-02  1.86830E-02  1.91375E-02  1.96032E-02  2.00801E-02
#           2.05687E-02  2.10692E-02  2.15818E-02  2.21069E-02  2.26448E-02
#           2.31957E-02  2.37601E-02  2.43382E-02  2.49304E-02  2.55369E-02
#           2.61583E-02  2.67947E-02  2.74467E-02  2.81145E-02  2.87985E-02
#           2.94992E-02  3.02169E-02  3.09521E-02  3.17052E-02  3.24766E-02
#           3.32668E-02  3.40762E-02  3.49053E-02  3.57546E-02  3.66246E-02
#           3.75157E-02  3.84284E-02  3.93634E-02  4.03212E-02  4.13022E-02
#           4.23071E-02  4.33365E-02  4.43909E-02  4.54710E-02  4.65773E-02
#           4.77106E-02  4.88714E-02  5.00605E-02  5.12785E-02  5.25262E-02
#           5.38042E-02  5.51133E-02  5.64542E-02  5.78278E-02  5.92348E-02
#           6.06760E-02  6.21523E-02  6.36645E-02  6.52135E-02  6.68002E-02
#           6.84255E-02  7.00904E-02  7.17957E-02  7.35426E-02  7.53319E-02
#           7.71648E-02  7.90423E-02  8.09655E-02  8.29354E-02  8.49533E-02
#           8.70203E-02  8.91376E-02  9.13064E-02  9.35279E-02  9.58035E-02
#           9.81345E-02  1.00522E-01  1.02968E-01  1.05473E-01  1.08040E-01
#           1.10668E-01  1.13361E-01  1.16119E-01  1.18944E-01  1.21838E-01
#           1.24803E-01  1.27839E-01  1.30950E-01  1.34136E-01  1.37399E-01
#           1.40742E-01  1.44167E-01  1.47675E-01  1.51268E-01  1.54948E-01
#           1.58718E-01  1.62580E-01  1.66535E-01  1.70587E-01  1.74738E-01
#           1.78989E-01  1.83344E-01  1.87805E-01  1.92375E-01  1.97055E-01
#           2.01850E-01  2.06761E-01  2.11792E-01  2.16945E-01  2.22223E-01
#           2.27630E-01  2.33169E-01  2.38842E-01  2.44653E-01  2.50605E-01
#           2.56703E-01  2.62949E-01  2.69346E-01  2.75900E-01  2.82613E-01
#           2.89489E-01  2.96532E-01  3.03747E-01  3.11138E-01  3.18708E-01
#           3.26462E-01  3.34405E-01  3.42542E-01  3.50876E-01  3.59413E-01
#           3.68158E-01  3.77116E-01  3.86291E-01  3.95690E-01  4.05317E-01
#           4.15179E-01  4.25281E-01  4.35628E-01  4.46227E-01  4.57084E-01
#           4.68205E-01  4.79597E-01  4.91266E-01  5.03219E-01  5.15463E-01
#           5.28005E-01  5.40851E-01  5.54011E-01  5.67490E-01  5.81298E-01
#           5.95441E-01  6.09929E-01  6.24769E-01  6.39970E-01  6.55541E-01
#           6.71491E-01  6.87828E-01  7.04564E-01  7.21706E-01  7.39266E-01
#           7.57253E-01  7.75678E-01  7.94551E-01  8.13883E-01  8.33685E-01
#           8.53969E-01  8.74747E-01  8.96030E-01  9.17831E-01  9.40163E-01
#           9.63038E-01  9.86469E-01  1.01047E+00  1.03506E+00  1.06024E+00
#           1.08604E+00  1.11246E+00  1.13953E+00  1.16725E+00  1.19565E+00
#           1.22474E+00  1.25454E+00  1.28507E+00  1.31633E+00  1.34836E+00
#           1.38117E+00  1.41477E+00  1.44920E+00  1.48446E+00  1.52057E+00
#           1.55757E+00  1.59547E+00  1.63429E+00  1.67405E+00  1.71478E+00
#           1.75650E+00  1.79924E+00  1.84302E+00  1.88786E+00  1.93379E+00
#           1.98084E+00  2.02904E+00  2.07841E+00  2.12898E+00  2.18078E+00
#           2.23384E+00  2.28819E+00  2.34386E+00  2.40089E+00  2.45930E+00
#           2.51914E+00  2.58043E+00  2.64322E+00  2.70753E+00  2.77341E+00
#           2.84088E+00  2.91001E+00  2.98081E+00  3.05333E+00  3.12762E+00
#           3.20372E+00  3.28167E+00  3.36152E+00  3.44330E+00  3.52708E+00
#           3.61290E+00  3.70080E+00  3.79085E+00  3.88308E+00  3.97756E+00
#           4.07434E+00  4.17347E+00  4.27501E+00  4.37903E+00  4.48557E+00
#           4.59471E+00  4.70650E+00  4.82102E+00  4.93832E+00  5.05847E+00
#           5.18155E+00  5.30762E+00  5.43676E+00  5.56904E+00  5.70453E+00
#           5.84333E+00  5.98550E+00  6.13114E+00  6.28031E+00  6.43312E+00
#           6.58964E+00  6.74997E+00  6.91420E+00  7.08243E+00  7.25475E+00
#           7.43126E+00  7.61207E+00  7.79728E+00  7.98700E+00  8.18133E+00
#           8.38038E+00  8.58428E+00  8.79315E+00  9.00709E+00  9.22624E+00
#           9.45072E+00  9.68067E+00  9.91620E+00  1.01575E+01  1.04046E+01
#           1.06578E+01  1.09171E+01  1.11827E+01  1.14548E+01  1.17335E+01
#           1.20190E+01  1.23114E+01  1.26109E+01  1.29178E+01  1.32321E+01
#           1.35540E+01  1.38838E+01  1.42216E+01  1.45676E+01  1.49221E+01
#           1.52851E+01  1.56570E+01  1.60380E+01  1.64282E+01  1.68279E+01
#           1.72374E+01  1.76568E+01  1.80864E+01  1.85264E+01  1.89772E+01
#           1.94389E+01  1.99119E+01  2.03963E+01  2.08926E+01  2.14009E+01
#           2.19216E+01  2.24550E+01  2.30014E+01  2.35610E+01  2.41343E+01
#           2.47215E+01  2.53230E+01  2.59391E+01  2.65702E+01  2.72167E+01
#           2.78789E+01  2.85572E+01  2.92520E+01  2.99637E+01  3.06928E+01
#           3.14396E+01  3.22045E+01  3.29881E+01  3.37907E+01  3.46128E+01
#           3.54550E+01  3.63177E+01  3.72013E+01  3.81064E+01  3.90336E+01
#           3.99833E+01  4.09561E+01  4.19526E+01  4.29734E+01  4.40189E+01
#           4.50900E+01  4.61870E+01  4.73108E+01  4.84619E+01  4.96410E+01
#           5.08488E+01  5.20860E+01  5.33533E+01  5.46514E+01  5.59812E+01
#           5.73432E+01  5.87384E+01  6.01676E+01  6.16315E+01  6.31311E+01
#           6.46671E+01  6.62405E+01  6.78522E+01  6.95031E+01  7.11941E+01
#           7.29263E+01  7.47007E+01  7.65182E+01  7.83800E+01  8.02870E+01
#           8.22405E+01  8.42414E+01  8.62911E+01  8.83906E+01  9.05412E+01
#           9.27442E+01  9.50007E+01  9.73122E+01  9.96799E+01  1.02105E+02
#           1.04589E+02  1.07134E+02  1.09741E+02  1.12411E+02  1.15146E+02
#           1.17948E+02  1.20817E+02  1.23757E+02  1.26768E+02  1.29852E+02
#           1.33012E+02  1.36248E+02  1.39563E+02  1.42959E+02  1.46437E+02
#           1.50000E+02
     unit =    2            # unit is [1/cm^2/(MeV/n)/source]
     axis =  eng            # axis of output
     file = detector-27.out  # file name of output for the above axis
   output = f-curr          # surface crossing forward current spectrum
     part =  neutron  
# kf/name :  2112     
#    used :        main (  %)        temp (  %)       total (  %)
#  memory :         414 (  0)           0 (  0)         414 (  0)

#------------------------------------------------------------------------------
#newpage:
#   no. =    1   reg = 126 - 226

x: Energy [MeV/n]
y:  F-Curr [1/cm^2/(MeV/n)/source]         
p: xlog ylog afac(0.8) form(0.9)
h: n            x            y(neutron ),hh0l   n 
#  e-lower      e-upper      neutron     r.err 
   1.0000E-02   1.0243E-02   4.4214E-04  0.0430
   1.0243E-02   1.0493E-02   4.2606E-04  0.0433
   1.0493E-02   1.0748E-02   4.0304E-04  0.0440
   1.0748E-02   1.1009E-02   4.0479E-04  0.0433
   1.1009E-02   1.1277E-02   3.6620E-04  0.0450
   1.1277E-02   1.1552E-02   3.7735E-04  0.0438
   1.1552E-02   1.1833E-02   3.7715E-04  0.0433
   1.1833E-02   1.2121E-02   3.6447E-04  0.0436
   1.2121E-02   1.2415E-02   3.7427E-04  0.0424
   1.2415E-02   1.2718E-02   3.4936E-04  0.0434
   1.2718E-02   1.3027E-02   3.6126E-04  0.0422
   1.3027E-02   1.3344E-02   3.1150E-04  0.0449
   1.3344E-02   1.3669E-02   3.3275E-04  0.0429
   1.3669E-02   1.4001E-02   3.4923E-04  0.0415
   1.4001E-02   1.4342E-02   3.1421E-04  0.0431
   1.4342E-02   1.4691E-02   3.0891E-04  0.0430
   1.4691E-02   1.5048E-02   2.9344E-04  0.0435
   1.5048E-02   1.5414E-02   2.9379E-04  0.0430
   1.5414E-02   1.5789E-02   2.9862E-04  0.0422
   1.5789E-02   1.6174E-02   2.7425E-04  0.0434
   1.6174E-02   1.6567E-02   2.9586E-04  0.0413
   1.6567E-02   1.6970E-02   2.6926E-04  0.0428
   1.6970E-02   1.7383E-02   2.6560E-04  0.0426
   1.7383E-02   1.7806E-02   2.4517E-04  0.0438
   1.7806E-02   1.8239E-02   2.6821E-04  0.0414
   1.8239E-02   1.8683E-02   2.5162E-04  0.0422
   1.8683E-02   1.9138E-02   2.4538E-04  0.0423
   1.9138E-02   1.9603E-02   2.3861E-04  0.0423
   1.9603E-02   2.0080E-02   2.3286E-04  0.0423
   2.0080E-02   2.0569E-02   2.3998E-04  0.0412
   2.0569E-02   2.1069E-02   2.3218E-04  0.0414
   2.1069E-02   2.1582E-02   2.4238E-04  0.0400
   2.1582E-02   2.2107E-02   2.2493E-04  0.0411
   2.2107E-02   2.2645E-02   2.2666E-04  0.0404
   2.2645E-02   2.3196E-02   1.8972E-04  0.0436
   2.3196E-02   2.3760E-02   1.9822E-04  0.0422
   2.3760E-02   2.4338E-02   2.0733E-04  0.0408
   2.4338E-02   2.4930E-02   2.0696E-04  0.0403
   2.4930E-02   2.5537E-02   1.9535E-04  0.0410
   2.5537E-02   2.6158E-02   1.9658E-04  0.0403
   2.6158E-02   2.6795E-02   1.8921E-04  0.0407
   2.6795E-02   2.7447E-02   1.8770E-04  0.0403
   2.7447E-02   2.8114E-02   1.8312E-04  0.0404
   2.8114E-02   2.8799E-02   1.7688E-04  0.0406
   2.8799E-02   2.9499E-02   1.8111E-04  0.0396
   2.9499E-02   3.0217E-02   1.6207E-04  0.0414
   3.0217E-02   3.0952E-02   1.6764E-04  0.0402
   3.0952E-02   3.1705E-02   1.5048E-04  0.0419
   3.1705E-02   3.2477E-02   1.6125E-04  0.0400
   3.2477E-02   3.3267E-02   1.4858E-04  0.0412
   3.3267E-02   3.4076E-02   1.7176E-04  0.0378
   3.4076E-02   3.4905E-02   1.3514E-04  0.0422
   3.4905E-02   3.5755E-02   1.4379E-04  0.0403
   3.5755E-02   3.6625E-02   1.4865E-04  0.0392
   3.6625E-02   3.7516E-02   1.3881E-04  0.0400
   3.7516E-02   3.8428E-02   1.4855E-04  0.0383
   3.8428E-02   3.9363E-02   1.3896E-04  0.0391
   3.9363E-02   4.0321E-02   1.3333E-04  0.0395
   4.0321E-02   4.1302E-02   1.2681E-04  0.0400
   4.1302E-02   4.2307E-02   1.2744E-04  0.0394
   4.2307E-02   4.3337E-02   1.1466E-04  0.0411
   4.3337E-02   4.4391E-02   1.2578E-04  0.0388
   4.4391E-02   4.5471E-02   1.1062E-04  0.0408
   4.5471E-02   4.6577E-02   1.2029E-04  0.0386
   4.6577E-02   4.7711E-02   1.1246E-04  0.0395
   4.7711E-02   4.8871E-02   1.1014E-04  0.0395
   4.8871E-02   5.0061E-02   1.0881E-04  0.0392
   5.0061E-02   5.1279E-02   1.0106E-04  0.0402
   5.1279E-02   5.2526E-02   1.1048E-04  0.0380
   5.2526E-02   5.3804E-02   1.0712E-04  0.0381
   5.3804E-02   5.5113E-02   1.0780E-04  0.0376
   5.5113E-02   5.6454E-02   1.0452E-04  0.0377
   5.6454E-02   5.7828E-02   9.3489E-05  0.0394
   5.7828E-02   5.9235E-02   9.7074E-05  0.0382
   5.9235E-02   6.0676E-02   8.7291E-05  0.0398
   6.0676E-02   6.2152E-02   9.6145E-05  0.0375
   6.2152E-02   6.3665E-02   8.9091E-05  0.0384
   6.3665E-02   6.5214E-02   8.7105E-05  0.0384
   6.5214E-02   6.6800E-02   8.6173E-05  0.0381
   6.6800E-02   6.8426E-02   8.5607E-05  0.0378
   6.8426E-02   7.0090E-02   7.9152E-05  0.0389
   7.0090E-02   7.1796E-02   8.2987E-05  0.0375
   7.1796E-02   7.3543E-02   7.8601E-05  0.0381
   7.3543E-02   7.5332E-02   7.5365E-05  0.0384
   7.5332E-02   7.7165E-02   7.4451E-05  0.0382
   7.7165E-02   7.9042E-02   7.3570E-05  0.0379
   7.9042E-02   8.0965E-02   7.1602E-05  0.0380
   8.0965E-02   8.2935E-02   7.1784E-05  0.0375
   8.2935E-02   8.4953E-02   7.0582E-05  0.0374
   8.4953E-02   8.7020E-02   6.4547E-05  0.0386
   8.7020E-02   8.9138E-02   6.7701E-05  0.0373
   8.9138E-02   9.1306E-02   6.5573E-05  0.0374
   9.1306E-02   9.3528E-02   6.3806E-05  0.0375
   9.3528E-02   9.5804E-02   6.3682E-05  0.0370
   9.5804E-02   9.8134E-02   6.0524E-05  0.0375
   9.8134E-02   1.0052E-01   6.4060E-05  0.0361
   1.0052E-01   1.0297E-01   5.8007E-05  0.0375
   1.0297E-01   1.0547E-01   5.2021E-05  0.0390
   1.0547E-01   1.0804E-01   5.3213E-05  0.0382
   1.0804E-01   1.1067E-01   5.3223E-05  0.0377
   1.1067E-01   1.1336E-01   4.9260E-05  0.0387
   1.1336E-01   1.1612E-01   5.4838E-05  0.0362
   1.1612E-01   1.1894E-01   5.1782E-05  0.0369
   1.1894E-01   1.2184E-01   4.8379E-05  0.0377
   1.2184E-01   1.2480E-01   4.8332E-05  0.0372
   1.2480E-01   1.2784E-01   5.2008E-05  0.0355
   1.2784E-01   1.3095E-01   4.8144E-05  0.0365
   1.3095E-01   1.3414E-01   4.4259E-05  0.0376
   1.3414E-01   1.3740E-01   4.5507E-05  0.0366
   1.3740E-01   1.4074E-01   4.2382E-05  0.0375
   1.4074E-01   1.4417E-01   4.3896E-05  0.0364
   1.4417E-01   1.4767E-01   4.2123E-05  0.0367
   1.4767E-01   1.5127E-01   4.0051E-05  0.0372
   1.5127E-01   1.5495E-01   4.1495E-05  0.0361
   1.5495E-01   1.5872E-01   3.6857E-05  0.0378
   1.5872E-01   1.6258E-01   3.6238E-05  0.0377
   1.6258E-01   1.6654E-01   3.8639E-05  0.0361
   1.6654E-01   1.7059E-01   3.5792E-05  0.0370
   1.7059E-01   1.7474E-01   3.4039E-05  0.0375
   1.7474E-01   1.7899E-01   3.3333E-05  0.0375
   1.7899E-01   1.8334E-01   3.5766E-05  0.0357
   1.8334E-01   1.8781E-01   3.4782E-05  0.0358
   1.8781E-01   1.9237E-01   3.0448E-05  0.0378
   1.9237E-01   1.9706E-01   3.3035E-05  0.0358
   1.9706E-01   2.0185E-01   3.2559E-05  0.0357
   2.0185E-01   2.0676E-01   3.1458E-05  0.0359
   2.0676E-01   2.1179E-01   3.3567E-05  0.0343
   2.1179E-01   2.1694E-01   3.4742E-05  0.0333
   2.1694E-01   2.2222E-01   3.6757E-05  0.0320
   2.2222E-01   2.2763E-01   3.5045E-05  0.0324
   2.2763E-01   2.3317E-01   3.7039E-05  0.0311
   2.3317E-01   2.3884E-01   3.7503E-05  0.0306
   2.3884E-01   2.4465E-01   3.9500E-05  0.0294
   2.4465E-01   2.5061E-01   3.8511E-05  0.0295
   2.5061E-01   2.5670E-01   4.0535E-05  0.0284
   2.5670E-01   2.6295E-01   4.0256E-05  0.0281
   2.6295E-01   2.6935E-01   4.2512E-05  0.0270
   2.6935E-01   2.7590E-01   4.2504E-05  0.0267
   2.7590E-01   2.8261E-01   4.3425E-05  0.0261
   2.8261E-01   2.8949E-01   4.5821E-05  0.0251
   2.8949E-01   2.9653E-01   4.7622E-05  0.0244
   2.9653E-01   3.0375E-01   4.5184E-05  0.0247
   3.0375E-01   3.1114E-01   4.6979E-05  0.0239
   3.1114E-01   3.1871E-01   4.9302E-05  0.0231
   3.1871E-01   3.2646E-01   4.8629E-05  0.0229
   3.2646E-01   3.3441E-01   5.0424E-05  0.0223
   3.3441E-01   3.4254E-01   5.0676E-05  0.0220
   3.4254E-01   3.5088E-01   5.2692E-05  0.0213
   3.5088E-01   3.5941E-01   5.3160E-05  0.0209
   3.5941E-01   3.6816E-01   5.2626E-05  0.0208
   3.6816E-01   3.7712E-01   5.3884E-05  0.0203
   3.7712E-01   3.8629E-01   5.2854E-05  0.0202
   3.8629E-01   3.9569E-01   5.3222E-05  0.0199
   3.9569E-01   4.0532E-01   5.4677E-05  0.0194
   4.0532E-01   4.1518E-01   5.5190E-05  0.0191
   4.1518E-01   4.2528E-01   5.5525E-05  0.0188
   4.2528E-01   4.3563E-01   5.5601E-05  0.0186
   4.3563E-01   4.4623E-01   5.6010E-05  0.0183
   4.4623E-01   4.5708E-01   5.6636E-05  0.0180
   4.5708E-01   4.6821E-01   5.8336E-05  0.0175
   4.6821E-01   4.7960E-01   5.7810E-05  0.0174
   4.7960E-01   4.9127E-01   5.8383E-05  0.0171
   4.9127E-01   5.0322E-01   6.0566E-05  0.0166
   5.0322E-01   5.1546E-01   5.7498E-05  0.0168
   5.1546E-01   5.2800E-01   6.0428E-05  0.0162
   5.2800E-01   5.4085E-01   5.9314E-05  0.0161
   5.4085E-01   5.5401E-01   5.9081E-05  0.0160
   5.5401E-01   5.6749E-01   5.8633E-05  0.0158
   5.6749E-01   5.8130E-01   5.8890E-05  0.0156
   5.8130E-01   5.9544E-01   5.9531E-05  0.0154
   5.9544E-01   6.0993E-01   5.8611E-05  0.0153
   6.0993E-01   6.2477E-01   5.8857E-05  0.0151
   6.2477E-01   6.3997E-01   5.9031E-05  0.0149
   6.3997E-01   6.5554E-01   5.8903E-05  0.0147
   6.5554E-01   6.7149E-01   5.8182E-05  0.0146
   6.7149E-01   6.8783E-01   5.7130E-05  0.0146
   6.8783E-01   7.0456E-01   5.7102E-05  0.0144
   7.0456E-01   7.2171E-01   5.6950E-05  0.0143
   7.2171E-01   7.3927E-01   5.5011E-05  0.0143
   7.3927E-01   7.5725E-01   5.3749E-05  0.0143
   7.5725E-01   7.7568E-01   5.3926E-05  0.0141
   7.7568E-01   7.9455E-01   5.2820E-05  0.0141
   7.9455E-01   8.1388E-01   5.2802E-05  0.0139
   8.1388E-01   8.3368E-01   5.0456E-05  0.0141
   8.3368E-01   8.5397E-01   5.0352E-05  0.0139
   8.5397E-01   8.7475E-01   4.6422E-05  0.0143
   8.7475E-01   8.9603E-01   4.6947E-05  0.0141
   8.9603E-01   9.1783E-01   4.5912E-05  0.0141
   9.1783E-01   9.4016E-01   4.4381E-05  0.0141
   9.4016E-01   9.6304E-01   4.1310E-05  0.0145
   9.6304E-01   9.8647E-01   4.1015E-05  0.0143
   9.8647E-01   1.0105E+00   3.9533E-05  0.0144
   1.0105E+00   1.0351E+00   3.8860E-05  0.0144
   1.0351E+00   1.0602E+00   3.8699E-05  0.0142
   1.0602E+00   1.0860E+00   3.8744E-05  0.0141
   1.0860E+00   1.1125E+00   3.9112E-05  0.0138
   1.1125E+00   1.1395E+00   3.8049E-05  0.0139
   1.1395E+00   1.1673E+00   3.7978E-05  0.0137
   1.1673E+00   1.1957E+00   3.9534E-05  0.0133
   1.1957E+00   1.2247E+00   3.8703E-05  0.0133
   1.2247E+00   1.2545E+00   3.8117E-05  0.0132
   1.2545E+00   1.2851E+00   3.7613E-05  0.0131
   1.2851E+00   1.3163E+00   3.7916E-05  0.0129
   1.3163E+00   1.3484E+00   3.7217E-05  0.0129
   1.3484E+00   1.3812E+00   3.6794E-05  0.0128
   1.3812E+00   1.4148E+00   3.6432E-05  0.0127
   1.4148E+00   1.4492E+00   3.6376E-05  0.0126
   1.4492E+00   1.4845E+00   3.5728E-05  0.0125
   1.4845E+00   1.5206E+00   3.4805E-05  0.0125
   1.5206E+00   1.5576E+00   3.3917E-05  0.0125
   1.5576E+00   1.5955E+00   3.2656E-05  0.0126
   1.5955E+00   1.6343E+00   3.2480E-05  0.0125
   1.6343E+00   1.6741E+00   3.2836E-05  0.0123
   1.6741E+00   1.7148E+00   3.2613E-05  0.0122
   1.7148E+00   1.7565E+00   3.1427E-05  0.0123
   1.7565E+00   1.7992E+00   3.0614E-05  0.0123
   1.7992E+00   1.8430E+00   3.0147E-05  0.0122
   1.8430E+00   1.8879E+00   2.9233E-05  0.0123
   1.8879E+00   1.9338E+00   2.9553E-05  0.0121
   1.9338E+00   1.9808E+00   2.8536E-05  0.0121
   1.9808E+00   2.0290E+00   2.7348E-05  0.0122
   2.0290E+00   2.0784E+00   2.7603E-05  0.0120
   2.0784E+00   2.1290E+00   2.6516E-05  0.0121
   2.1290E+00   2.1808E+00   2.5950E-05  0.0121
   2.1808E+00   2.2338E+00   2.5206E-05  0.0121
   2.2338E+00   2.2882E+00   2.4484E-05  0.0122
   2.2882E+00   2.3439E+00   2.4082E-05  0.0121
   2.3439E+00   2.4009E+00   2.3734E-05  0.0121
   2.4009E+00   2.4593E+00   2.3312E-05  0.0120
   2.4593E+00   2.5191E+00   2.2738E-05  0.0120
   2.5191E+00   2.5804E+00   2.2316E-05  0.0120
   2.5804E+00   2.6432E+00   2.1660E-05  0.0120
   2.6432E+00   2.7075E+00   2.0984E-05  0.0121
   2.7075E+00   2.7734E+00   2.0487E-05  0.0121
   2.7734E+00   2.8409E+00   1.9941E-05  0.0121
   2.8409E+00   2.9100E+00   1.9488E-05  0.0121
   2.9100E+00   2.9808E+00   1.9373E-05  0.0120
   2.9808E+00   3.0533E+00   1.8645E-05  0.0121
   3.0533E+00   3.1276E+00   1.7961E-05  0.0121
   3.1276E+00   3.2037E+00   1.8215E-05  0.0119
   3.2037E+00   3.2817E+00   1.7588E-05  0.0120
   3.2817E+00   3.3615E+00   1.6877E-05  0.0121
   3.3615E+00   3.4433E+00   1.6736E-05  0.0120
   3.4433E+00   3.5271E+00   1.6320E-05  0.0120
   3.5271E+00   3.6129E+00   1.6128E-05  0.0119
   3.6129E+00   3.7008E+00   1.5529E-05  0.0120
   3.7008E+00   3.7908E+00   1.5206E-05  0.0120
   3.7908E+00   3.8831E+00   1.4789E-05  0.0120
   3.8831E+00   3.9776E+00   1.4484E-05  0.0120
   3.9776E+00   4.0743E+00   1.4337E-05  0.0119
   4.0743E+00   4.1735E+00   1.3921E-05  0.0120
   4.1735E+00   4.2750E+00   1.3214E-05  0.0121
   4.2750E+00   4.3790E+00   1.3166E-05  0.0120
   4.3790E+00   4.4856E+00   1.2494E-05  0.0122
   4.4856E+00   4.5947E+00   1.2061E-05  0.0122
   4.5947E+00   4.7065E+00   1.1750E-05  0.0123
   4.7065E+00   4.8210E+00   1.1390E-05  0.0123
   4.8210E+00   4.9383E+00   1.0942E-05  0.0124
   4.9383E+00   5.0585E+00   1.0650E-05  0.0124
   5.0585E+00   5.1815E+00   1.0642E-05  0.0123
   5.1815E+00   5.3076E+00   9.8751E-06  0.0126
   5.3076E+00   5.4368E+00   9.5519E-06  0.0127
   5.4368E+00   5.5690E+00   9.3007E-06  0.0127
   5.5690E+00   5.7045E+00   8.7810E-06  0.0129
   5.7045E+00   5.8433E+00   8.5844E-06  0.0129
   5.8433E+00   5.9855E+00   8.2505E-06  0.0130
   5.9855E+00   6.1311E+00   7.9323E-06  0.0131
   6.1311E+00   6.2803E+00   7.5761E-06  0.0132
   6.2803E+00   6.4331E+00   7.4948E-06  0.0131
   6.4331E+00   6.5896E+00   7.1687E-06  0.0133
   6.5896E+00   6.7500E+00   6.9026E-06  0.0134
   6.7500E+00   6.9142E+00   6.5161E-06  0.0136
   6.9142E+00   7.0824E+00   6.2722E-06  0.0137
   7.0824E+00   7.2548E+00   5.8700E-06  0.0140
   7.2548E+00   7.4313E+00   5.6693E-06  0.0141
   7.4313E+00   7.6121E+00   5.4767E-06  0.0142
   7.6121E+00   7.7973E+00   5.1768E-06  0.0144
   7.7973E+00   7.9870E+00   4.8455E-06  0.0147
   7.9870E+00   8.1813E+00   4.6565E-06  0.0148
   8.1813E+00   8.3804E+00   4.5095E-06  0.0149
   8.3804E+00   8.5843E+00   4.3362E-06  0.0150
   8.5843E+00   8.7931E+00   4.1990E-06  0.0151
   8.7931E+00   9.0071E+00   3.9963E-06  0.0153
   9.0071E+00   9.2262E+00   3.7180E-06  0.0156
   9.2262E+00   9.4507E+00   3.5803E-06  0.0157
   9.4507E+00   9.6807E+00   3.3539E-06  0.0161
   9.6807E+00   9.9162E+00   3.1376E-06  0.0164
   9.9162E+00   1.0157E+01   3.0798E-06  0.0164
   1.0157E+01   1.0405E+01   2.9407E-06  0.0166
   1.0405E+01   1.0658E+01   2.9550E-06  0.0163
   1.0658E+01   1.0917E+01   2.8784E-06  0.0163
   1.0917E+01   1.1183E+01   2.8335E-06  0.0163
   1.1183E+01   1.1455E+01   2.7004E-06  0.0165
   1.1455E+01   1.1733E+01   2.5015E-06  0.0169
   1.1733E+01   1.2019E+01   2.3858E-06  0.0171
   1.2019E+01   1.2311E+01   2.2291E-06  0.0175
   1.2311E+01   1.2611E+01   2.0548E-06  0.0180
   1.2611E+01   1.2918E+01   1.9450E-06  0.0183
   1.2918E+01   1.3232E+01   1.8546E-06  0.0185
   1.3232E+01   1.3554E+01   1.6988E-06  0.0191
   1.3554E+01   1.3884E+01   1.6178E-06  0.0193
   1.3884E+01   1.4222E+01   1.5155E-06  0.0197
   1.4222E+01   1.4568E+01   1.3838E-06  0.0204
   1.4568E+01   1.4922E+01   1.3137E-06  0.0207
   1.4922E+01   1.5285E+01   1.2023E-06  0.0214
   1.5285E+01   1.5657E+01   1.1027E-06  0.0221
   1.5657E+01   1.6038E+01   9.5840E-07  0.0234
   1.6038E+01   1.6428E+01   9.1060E-07  0.0237
   1.6428E+01   1.6828E+01   8.4629E-07  0.0243
   1.6828E+01   1.7237E+01   7.6756E-07  0.0252
   1.7237E+01   1.7657E+01   7.0630E-07  0.0260
   1.7657E+01   1.8086E+01   6.3169E-07  0.0271
   1.8086E+01   1.8526E+01   6.1622E-07  0.0271
   1.8526E+01   1.8977E+01   5.7747E-07  0.0277
   1.8977E+01   1.9439E+01   4.9452E-07  0.0296
   1.9439E+01   1.9912E+01   4.9250E-07  0.0293
   1.9912E+01   2.0396E+01   4.2314E-07  0.0312
   2.0396E+01   2.0893E+01   4.1269E-07  0.0312
   2.0893E+01   2.1401E+01   3.5921E-07  0.0331
   2.1401E+01   2.1922E+01   3.0305E-07  0.0356
   2.1922E+01   2.2455E+01   2.9135E-07  0.0359
   2.2455E+01   2.3001E+01   2.5368E-07  0.0380
   2.3001E+01   2.3561E+01   2.2371E-07  0.0400
   2.3561E+01   2.4134E+01   2.1387E-07  0.0404
   2.4134E+01   2.4721E+01   2.0129E-07  0.0411
   2.4721E+01   2.5323E+01   1.8221E-07  0.0427
   2.5323E+01   2.5939E+01   1.6717E-07  0.0441
   2.5939E+01   2.6570E+01   1.4197E-07  0.0472
   2.6570E+01   2.7217E+01   1.2468E-07  0.0498
   2.7217E+01   2.7879E+01   1.0631E-07  0.0533
   2.7879E+01   2.8557E+01   1.0320E-07  0.0535
   2.8557E+01   2.9252E+01   8.4338E-08  0.0584
   2.9252E+01   2.9964E+01   7.1095E-08  0.0629
   2.9964E+01   3.0693E+01   7.6813E-08  0.0598
   3.0693E+01   3.1440E+01   6.4812E-08  0.0643
   3.1440E+01   3.2205E+01   5.7520E-08  0.0674
   3.2205E+01   3.2988E+01   4.0073E-08  0.0798
   3.2988E+01   3.3791E+01   4.5351E-08  0.0741
   3.3791E+01   3.4613E+01   3.9652E-08  0.0783
   3.4613E+01   3.5455E+01   3.1586E-08  0.0867
   3.5455E+01   3.6318E+01   2.8749E-08  0.0898
   3.6318E+01   3.7201E+01   2.3765E-08  0.0976
   3.7201E+01   3.8106E+01   1.7898E-08  0.1111
   3.8106E+01   3.9034E+01   2.2003E-08  0.0990
   3.9034E+01   3.9983E+01   1.4109E-08  0.1222
   3.9983E+01   4.0956E+01   1.3158E-08  0.1250
   4.0956E+01   4.1953E+01   1.2042E-08  0.1291
   4.1953E+01   4.2973E+01   1.3911E-08  0.1187
   4.2973E+01   4.4019E+01   1.0712E-08  0.1336
   4.4019E+01   4.5090E+01   8.2165E-09  0.1508
   4.5090E+01   4.6187E+01   7.1098E-09  0.1601
   4.6187E+01   4.7311E+01   4.6273E-09  0.1961
   4.7311E+01   4.8462E+01   4.8649E-09  0.1890
   4.8462E+01   4.9641E+01   3.2228E-09  0.2294
   4.9641E+01   5.0849E+01   2.1527E-09  0.2774
   5.0849E+01   5.2086E+01   1.2933E-09  0.3536
   5.2086E+01   5.3353E+01   2.2094E-09  0.2673
   5.3353E+01   5.4651E+01   1.5407E-09  0.3162
   5.4651E+01   5.5981E+01   1.3537E-09  0.3333
   5.5981E+01   5.7343E+01   1.0279E-09  0.3780
   5.7343E+01   5.8738E+01   5.7339E-10  0.5000
   5.8738E+01   6.0168E+01   4.1983E-10  0.5774
   6.0168E+01   6.1632E+01   9.5633E-10  0.3780
   6.1632E+01   6.3131E+01   1.3337E-10  1.0000
   6.3131E+01   6.4667E+01   3.9062E-10  0.5774
   6.4667E+01   6.6240E+01   2.5423E-10  0.7071
   6.6240E+01   6.7852E+01   0.0000E+00  0.0000
   6.7852E+01   6.9503E+01   2.4229E-10  0.7071
   6.9503E+01   7.1194E+01   0.0000E+00  0.0000
   7.1194E+01   7.2926E+01   1.1546E-10  1.0000
   7.2926E+01   7.4701E+01   0.0000E+00  0.0000
   7.4701E+01   7.6518E+01   1.1004E-10  1.0000
   7.6518E+01   7.8380E+01   1.0743E-10  1.0000
   7.8380E+01   8.0287E+01   0.0000E+00  0.0000
   8.0287E+01   8.2240E+01   0.0000E+00  0.0000
   8.2240E+01   8.4241E+01   0.0000E+00  0.0000
   8.4241E+01   8.6291E+01   0.0000E+00  0.0000
   8.6291E+01   8.8391E+01   0.0000E+00  0.0000
   8.8391E+01   9.0541E+01   0.0000E+00  0.0000
   9.0541E+01   9.2744E+01   0.0000E+00  0.0000
   9.2744E+01   9.5001E+01   0.0000E+00  0.0000
   9.5001E+01   9.7312E+01   0.0000E+00  0.0000
   9.7312E+01   9.9680E+01   0.0000E+00  0.0000
   9.9680E+01   1.0211E+02   0.0000E+00  0.0000
   1.0211E+02   1.0459E+02   0.0000E+00  0.0000
   1.0459E+02   1.0713E+02   0.0000E+00  0.0000
   1.0713E+02   1.0974E+02   0.0000E+00  0.0000
   1.0974E+02   1.1241E+02   0.0000E+00  0.0000
   1.1241E+02   1.1515E+02   0.0000E+00  0.0000
   1.1515E+02   1.1795E+02   0.0000E+00  0.0000
   1.1795E+02   1.2082E+02   0.0000E+00  0.0000
   1.2082E+02   1.2376E+02   0.0000E+00  0.0000
   1.2376E+02   1.2677E+02   0.0000E+00  0.0000
   1.2677E+02   1.2985E+02   0.0000E+00  0.0000
   1.2985E+02   1.3301E+02   0.0000E+00  0.0000
   1.3301E+02   1.3625E+02   0.0000E+00  0.0000
   1.3625E+02   1.3956E+02   0.0000E+00  0.0000
   1.3956E+02   1.4296E+02   0.0000E+00  0.0000
   1.4296E+02   1.4644E+02   0.0000E+00  0.0000
   1.4644E+02   1.5000E+02   0.0000E+00  0.0000

#   sum over                 1.2635E-06
'no. =    1   reg = 126 - 226'
msuc: {\huge [t-cross] in region mesh}
msdr: {\it plotted by \ANGEL \version}
msdl: {\it calculated by \PHITS  3.28}
wt: s(0.7)
\vspace{-3}
  region surface crossing
  area  &=&   1.0000E+00 [cm^2]
e:
 
# Information for Restart Calculation
# This calculation was newly started
# istdev =  2 # 1:Batch variance, 2:History variance
# resc2  = 5.00000000000000000E+09 # Total source weight or Total source weight / maxcas
# resc3  = 5.00000000000000000E+09 # Total history number or Total batch number
# maxcas =   500000000 # History / Batch, only used for istdev=1
# bitrseed = 0110100000100010111000001110001111001110100100011111101000111001 # bit data of rseed
