[ T-Cross ]
    title = [t-cross] in region mesh
     mesh =  reg            # mesh type is region-wise
      reg =    1            # number of crossing regions
      non     r-from    r-to       area
      1       125       225        1.000000    
   e-type =    3            # e-mesh is log given by emin, emax and ne
     emin =  1.0000000E-02  # minimum value of e-mesh points
     emax =   150.0000      # maximum value of e-mesh points
#    edel =  2.4039514E-02  # mesh width of e-mesh points
       ne =    400          # number of e-mesh points
#    data = ( e(i), i = 1, ne + 1 )
#           1.00000E-02  1.02433E-02  1.04925E-02  1.07478E-02  1.10093E-02
#           1.12772E-02  1.15516E-02  1.18326E-02  1.21205E-02  1.24154E-02
#           1.27175E-02  1.30269E-02  1.33439E-02  1.36686E-02  1.40011E-02
#           1.43418E-02  1.46907E-02  1.50482E-02  1.54143E-02  1.57894E-02
#           1.61735E-02  1.65670E-02  1.69701E-02  1.73830E-02  1.78060E-02
#           1.82392E-02  1.86830E-02  1.91375E-02  1.96032E-02  2.00801E-02
#           2.05687E-02  2.10692E-02  2.15818E-02  2.21069E-02  2.26448E-02
#           2.31957E-02  2.37601E-02  2.43382E-02  2.49304E-02  2.55369E-02
#           2.61583E-02  2.67947E-02  2.74467E-02  2.81145E-02  2.87985E-02
#           2.94992E-02  3.02169E-02  3.09521E-02  3.17052E-02  3.24766E-02
#           3.32668E-02  3.40762E-02  3.49053E-02  3.57546E-02  3.66246E-02
#           3.75157E-02  3.84284E-02  3.93634E-02  4.03212E-02  4.13022E-02
#           4.23071E-02  4.33365E-02  4.43909E-02  4.54710E-02  4.65773E-02
#           4.77106E-02  4.88714E-02  5.00605E-02  5.12785E-02  5.25262E-02
#           5.38042E-02  5.51133E-02  5.64542E-02  5.78278E-02  5.92348E-02
#           6.06760E-02  6.21523E-02  6.36645E-02  6.52135E-02  6.68002E-02
#           6.84255E-02  7.00904E-02  7.17957E-02  7.35426E-02  7.53319E-02
#           7.71648E-02  7.90423E-02  8.09655E-02  8.29354E-02  8.49533E-02
#           8.70203E-02  8.91376E-02  9.13064E-02  9.35279E-02  9.58035E-02
#           9.81345E-02  1.00522E-01  1.02968E-01  1.05473E-01  1.08040E-01
#           1.10668E-01  1.13361E-01  1.16119E-01  1.18944E-01  1.21838E-01
#           1.24803E-01  1.27839E-01  1.30950E-01  1.34136E-01  1.37399E-01
#           1.40742E-01  1.44167E-01  1.47675E-01  1.51268E-01  1.54948E-01
#           1.58718E-01  1.62580E-01  1.66535E-01  1.70587E-01  1.74738E-01
#           1.78989E-01  1.83344E-01  1.87805E-01  1.92375E-01  1.97055E-01
#           2.01850E-01  2.06761E-01  2.11792E-01  2.16945E-01  2.22223E-01
#           2.27630E-01  2.33169E-01  2.38842E-01  2.44653E-01  2.50605E-01
#           2.56703E-01  2.62949E-01  2.69346E-01  2.75900E-01  2.82613E-01
#           2.89489E-01  2.96532E-01  3.03747E-01  3.11138E-01  3.18708E-01
#           3.26462E-01  3.34405E-01  3.42542E-01  3.50876E-01  3.59413E-01
#           3.68158E-01  3.77116E-01  3.86291E-01  3.95690E-01  4.05317E-01
#           4.15179E-01  4.25281E-01  4.35628E-01  4.46227E-01  4.57084E-01
#           4.68205E-01  4.79597E-01  4.91266E-01  5.03219E-01  5.15463E-01
#           5.28005E-01  5.40851E-01  5.54011E-01  5.67490E-01  5.81298E-01
#           5.95441E-01  6.09929E-01  6.24769E-01  6.39970E-01  6.55541E-01
#           6.71491E-01  6.87828E-01  7.04564E-01  7.21706E-01  7.39266E-01
#           7.57253E-01  7.75678E-01  7.94551E-01  8.13883E-01  8.33685E-01
#           8.53969E-01  8.74747E-01  8.96030E-01  9.17831E-01  9.40163E-01
#           9.63038E-01  9.86469E-01  1.01047E+00  1.03506E+00  1.06024E+00
#           1.08604E+00  1.11246E+00  1.13953E+00  1.16725E+00  1.19565E+00
#           1.22474E+00  1.25454E+00  1.28507E+00  1.31633E+00  1.34836E+00
#           1.38117E+00  1.41477E+00  1.44920E+00  1.48446E+00  1.52057E+00
#           1.55757E+00  1.59547E+00  1.63429E+00  1.67405E+00  1.71478E+00
#           1.75650E+00  1.79924E+00  1.84302E+00  1.88786E+00  1.93379E+00
#           1.98084E+00  2.02904E+00  2.07841E+00  2.12898E+00  2.18078E+00
#           2.23384E+00  2.28819E+00  2.34386E+00  2.40089E+00  2.45930E+00
#           2.51914E+00  2.58043E+00  2.64322E+00  2.70753E+00  2.77341E+00
#           2.84088E+00  2.91001E+00  2.98081E+00  3.05333E+00  3.12762E+00
#           3.20372E+00  3.28167E+00  3.36152E+00  3.44330E+00  3.52708E+00
#           3.61290E+00  3.70080E+00  3.79085E+00  3.88308E+00  3.97756E+00
#           4.07434E+00  4.17347E+00  4.27501E+00  4.37903E+00  4.48557E+00
#           4.59471E+00  4.70650E+00  4.82102E+00  4.93832E+00  5.05847E+00
#           5.18155E+00  5.30762E+00  5.43676E+00  5.56904E+00  5.70453E+00
#           5.84333E+00  5.98550E+00  6.13114E+00  6.28031E+00  6.43312E+00
#           6.58964E+00  6.74997E+00  6.91420E+00  7.08243E+00  7.25475E+00
#           7.43126E+00  7.61207E+00  7.79728E+00  7.98700E+00  8.18133E+00
#           8.38038E+00  8.58428E+00  8.79315E+00  9.00709E+00  9.22624E+00
#           9.45072E+00  9.68067E+00  9.91620E+00  1.01575E+01  1.04046E+01
#           1.06578E+01  1.09171E+01  1.11827E+01  1.14548E+01  1.17335E+01
#           1.20190E+01  1.23114E+01  1.26109E+01  1.29178E+01  1.32321E+01
#           1.35540E+01  1.38838E+01  1.42216E+01  1.45676E+01  1.49221E+01
#           1.52851E+01  1.56570E+01  1.60380E+01  1.64282E+01  1.68279E+01
#           1.72374E+01  1.76568E+01  1.80864E+01  1.85264E+01  1.89772E+01
#           1.94389E+01  1.99119E+01  2.03963E+01  2.08926E+01  2.14009E+01
#           2.19216E+01  2.24550E+01  2.30014E+01  2.35610E+01  2.41343E+01
#           2.47215E+01  2.53230E+01  2.59391E+01  2.65702E+01  2.72167E+01
#           2.78789E+01  2.85572E+01  2.92520E+01  2.99637E+01  3.06928E+01
#           3.14396E+01  3.22045E+01  3.29881E+01  3.37907E+01  3.46128E+01
#           3.54550E+01  3.63177E+01  3.72013E+01  3.81064E+01  3.90336E+01
#           3.99833E+01  4.09561E+01  4.19526E+01  4.29734E+01  4.40189E+01
#           4.50900E+01  4.61870E+01  4.73108E+01  4.84619E+01  4.96410E+01
#           5.08488E+01  5.20860E+01  5.33533E+01  5.46514E+01  5.59812E+01
#           5.73432E+01  5.87384E+01  6.01676E+01  6.16315E+01  6.31311E+01
#           6.46671E+01  6.62405E+01  6.78522E+01  6.95031E+01  7.11941E+01
#           7.29263E+01  7.47007E+01  7.65182E+01  7.83800E+01  8.02870E+01
#           8.22405E+01  8.42414E+01  8.62911E+01  8.83906E+01  9.05412E+01
#           9.27442E+01  9.50007E+01  9.73122E+01  9.96799E+01  1.02105E+02
#           1.04589E+02  1.07134E+02  1.09741E+02  1.12411E+02  1.15146E+02
#           1.17948E+02  1.20817E+02  1.23757E+02  1.26768E+02  1.29852E+02
#           1.33012E+02  1.36248E+02  1.39563E+02  1.42959E+02  1.46437E+02
#           1.50000E+02
     unit =    2            # unit is [1/cm^2/(MeV/n)/source]
     axis =  eng            # axis of output
     file = detector-26.out  # file name of output for the above axis
   output = f-curr          # surface crossing forward current spectrum
     part =  neutron  
# kf/name :  2112     
#    used :        main (  %)        temp (  %)       total (  %)
#  memory :         414 (  0)           0 (  0)         414 (  0)

#------------------------------------------------------------------------------
#newpage:
#   no. =    1   reg = 125 - 225

x: Energy [MeV/n]
y:  F-Curr [1/cm^2/(MeV/n)/source]         
p: xlog ylog afac(0.8) form(0.9)
h: n            x            y(neutron ),hh0l   n 
#  e-lower      e-upper      neutron     r.err 
   1.0000E-02   1.0243E-02   5.0415E-04  0.0403
   1.0243E-02   1.0493E-02   5.2239E-04  0.0391
   1.0493E-02   1.0748E-02   5.4594E-04  0.0378
   1.0748E-02   1.1009E-02   4.7556E-04  0.0400
   1.1009E-02   1.1277E-02   4.8145E-04  0.0393
   1.1277E-02   1.1552E-02   4.8653E-04  0.0387
   1.1552E-02   1.1833E-02   4.8224E-04  0.0384
   1.1833E-02   1.2121E-02   4.4160E-04  0.0396
   1.2121E-02   1.2415E-02   4.5853E-04  0.0384
   1.2415E-02   1.2718E-02   4.8262E-04  0.0370
   1.2718E-02   1.3027E-02   4.1076E-04  0.0396
   1.3027E-02   1.3344E-02   4.2847E-04  0.0383
   1.3344E-02   1.3669E-02   4.1726E-04  0.0384
   1.3669E-02   1.4001E-02   3.9766E-04  0.0388
   1.4001E-02   1.4342E-02   3.9392E-04  0.0385
   1.4342E-02   1.4691E-02   4.0799E-04  0.0374
   1.4691E-02   1.5048E-02   3.8120E-04  0.0382
   1.5048E-02   1.5414E-02   3.9190E-04  0.0373
   1.5414E-02   1.5789E-02   3.9451E-04  0.0367
   1.5789E-02   1.6174E-02   3.7846E-04  0.0370
   1.6174E-02   1.6567E-02   3.5453E-04  0.0378
   1.6567E-02   1.6970E-02   3.5691E-04  0.0372
   1.6970E-02   1.7383E-02   3.6885E-04  0.0362
   1.7383E-02   1.7806E-02   3.3036E-04  0.0378
   1.7806E-02   1.8239E-02   3.2227E-04  0.0378
   1.8239E-02   1.8683E-02   3.1434E-04  0.0378
   1.8683E-02   1.9138E-02   2.8539E-04  0.0392
   1.9138E-02   1.9603E-02   2.9293E-04  0.0382
   1.9603E-02   2.0080E-02   3.0082E-04  0.0373
   2.0080E-02   2.0569E-02   2.8204E-04  0.0381
   2.0569E-02   2.1069E-02   2.9459E-04  0.0368
   2.1069E-02   2.1582E-02   2.8056E-04  0.0372
   2.1582E-02   2.2107E-02   2.7486E-04  0.0372
   2.2107E-02   2.2645E-02   2.8147E-04  0.0363
   2.2645E-02   2.3196E-02   2.7779E-04  0.0361
   2.3196E-02   2.3760E-02   2.6801E-04  0.0363
   2.3760E-02   2.4338E-02   2.6234E-04  0.0363
   2.4338E-02   2.4930E-02   2.6560E-04  0.0356
   2.4930E-02   2.5537E-02   2.4133E-04  0.0369
   2.5537E-02   2.6158E-02   2.5489E-04  0.0355
   2.6158E-02   2.6795E-02   2.3231E-04  0.0367
   2.6795E-02   2.7447E-02   2.3034E-04  0.0364
   2.7447E-02   2.8114E-02   2.2766E-04  0.0362
   2.8114E-02   2.8799E-02   2.2476E-04  0.0360
   2.8799E-02   2.9499E-02   2.1672E-04  0.0362
   2.9499E-02   3.0217E-02   2.2497E-04  0.0351
   3.0217E-02   3.0952E-02   2.2196E-04  0.0349
   3.0952E-02   3.1705E-02   2.0412E-04  0.0360
   3.1705E-02   3.2477E-02   2.0067E-04  0.0359
   3.2477E-02   3.3267E-02   2.1144E-04  0.0345
   3.3267E-02   3.4076E-02   1.9421E-04  0.0356
   3.4076E-02   3.4905E-02   2.0256E-04  0.0344
   3.4905E-02   3.5755E-02   1.8717E-04  0.0354
   3.5755E-02   3.6625E-02   1.8815E-04  0.0349
   3.6625E-02   3.7516E-02   1.7628E-04  0.0356
   3.7516E-02   3.8428E-02   1.8650E-04  0.0342
   3.8428E-02   3.9363E-02   1.8048E-04  0.0344
   3.9363E-02   4.0321E-02   1.7844E-04  0.0342
   4.0321E-02   4.1302E-02   1.6834E-04  0.0347
   4.1302E-02   4.2307E-02   1.7490E-04  0.0337
   4.2307E-02   4.3337E-02   1.6993E-04  0.0338
   4.3337E-02   4.4391E-02   1.5046E-04  0.0354
   4.4391E-02   4.5471E-02   1.5387E-04  0.0346
   4.5471E-02   4.6577E-02   1.5283E-04  0.0343
   4.6577E-02   4.7711E-02   1.5304E-04  0.0339
   4.7711E-02   4.8871E-02   1.4102E-04  0.0349
   4.8871E-02   5.0061E-02   1.5018E-04  0.0334
   5.0061E-02   5.1279E-02   1.3037E-04  0.0354
   5.1279E-02   5.2526E-02   1.3691E-04  0.0342
   5.2526E-02   5.3804E-02   1.4039E-04  0.0334
   5.3804E-02   5.5113E-02   1.3086E-04  0.0341
   5.5113E-02   5.6454E-02   1.2955E-04  0.0338
   5.6454E-02   5.7828E-02   1.2406E-04  0.0342
   5.7828E-02   5.9235E-02   1.1978E-04  0.0344
   5.9235E-02   6.0676E-02   1.2232E-04  0.0336
   6.0676E-02   6.2152E-02   1.1963E-04  0.0336
   6.2152E-02   6.3665E-02   1.1370E-04  0.0340
   6.3665E-02   6.5214E-02   1.1331E-04  0.0337
   6.5214E-02   6.6800E-02   1.0828E-04  0.0340
   6.6800E-02   6.8426E-02   1.1232E-04  0.0331
   6.8426E-02   7.0090E-02   1.0872E-04  0.0332
   7.0090E-02   7.1796E-02   1.0465E-04  0.0334
   7.1796E-02   7.3543E-02   9.7728E-05  0.0342
   7.3543E-02   7.5332E-02   1.0176E-04  0.0331
   7.5332E-02   7.7165E-02   9.9702E-05  0.0330
   7.7165E-02   7.9042E-02   9.8537E-05  0.0328
   7.9042E-02   8.0965E-02   9.4077E-05  0.0332
   8.0965E-02   8.2935E-02   9.2381E-05  0.0331
   8.2935E-02   8.4953E-02   9.6748E-05  0.0319
   8.4953E-02   8.7020E-02   9.1081E-05  0.0326
   8.7020E-02   8.9138E-02   8.5652E-05  0.0331
   8.9138E-02   9.1306E-02   8.8299E-05  0.0323
   9.1306E-02   9.3528E-02   8.3264E-05  0.0328
   9.3528E-02   9.5804E-02   8.3341E-05  0.0324
   9.5804E-02   9.8134E-02   7.9634E-05  0.0328
   9.8134E-02   1.0052E-01   7.8960E-05  0.0325
   1.0052E-01   1.0297E-01   7.6483E-05  0.0326
   1.0297E-01   1.0547E-01   7.4271E-05  0.0327
   1.0547E-01   1.0804E-01   6.9573E-05  0.0334
   1.0804E-01   1.1067E-01   6.7482E-05  0.0335
   1.1067E-01   1.1336E-01   6.9826E-05  0.0326
   1.1336E-01   1.1612E-01   6.4936E-05  0.0333
   1.1612E-01   1.1894E-01   6.1009E-05  0.0340
   1.1894E-01   1.2184E-01   6.3146E-05  0.0330
   1.2184E-01   1.2480E-01   6.0567E-05  0.0333
   1.2480E-01   1.2784E-01   6.3591E-05  0.0321
   1.2784E-01   1.3095E-01   6.1900E-05  0.0322
   1.3095E-01   1.3414E-01   5.6645E-05  0.0332
   1.3414E-01   1.3740E-01   5.7966E-05  0.0324
   1.3740E-01   1.4074E-01   5.5693E-05  0.0327
   1.4074E-01   1.4417E-01   5.2524E-05  0.0333
   1.4417E-01   1.4767E-01   5.0990E-05  0.0334
   1.4767E-01   1.5127E-01   5.1307E-05  0.0329
   1.5127E-01   1.5495E-01   4.8488E-05  0.0334
   1.5495E-01   1.5872E-01   5.0775E-05  0.0323
   1.5872E-01   1.6258E-01   4.7709E-05  0.0329
   1.6258E-01   1.6654E-01   4.7436E-05  0.0326
   1.6654E-01   1.7059E-01   4.5502E-05  0.0328
   1.7059E-01   1.7474E-01   4.4174E-05  0.0329
   1.7474E-01   1.7899E-01   4.2911E-05  0.0331
   1.7899E-01   1.8334E-01   4.3244E-05  0.0325
   1.8334E-01   1.8781E-01   4.3043E-05  0.0322
   1.8781E-01   1.9237E-01   3.9734E-05  0.0331
   1.9237E-01   1.9706E-01   3.8092E-05  0.0335
   1.9706E-01   2.0185E-01   3.7712E-05  0.0332
   2.0185E-01   2.0676E-01   3.9310E-05  0.0321
   2.0676E-01   2.1179E-01   4.0500E-05  0.0313
   2.1179E-01   2.1694E-01   4.1821E-05  0.0304
   2.1694E-01   2.2222E-01   4.4650E-05  0.0290
   2.2222E-01   2.2763E-01   4.4056E-05  0.0289
   2.2763E-01   2.3317E-01   4.4749E-05  0.0283
   2.3317E-01   2.3884E-01   4.4214E-05  0.0282
   2.3884E-01   2.4465E-01   4.4612E-05  0.0277
   2.4465E-01   2.5061E-01   4.6830E-05  0.0267
   2.5061E-01   2.5670E-01   4.9285E-05  0.0257
   2.5670E-01   2.6295E-01   5.0614E-05  0.0251
   2.6295E-01   2.6935E-01   5.1814E-05  0.0245
   2.6935E-01   2.7590E-01   5.4301E-05  0.0237
   2.7590E-01   2.8261E-01   5.3408E-05  0.0236
   2.8261E-01   2.8949E-01   5.5079E-05  0.0229
   2.8949E-01   2.9653E-01   5.4556E-05  0.0228
   2.9653E-01   3.0375E-01   5.3205E-05  0.0227
   3.0375E-01   3.1114E-01   5.6514E-05  0.0218
   3.1114E-01   3.1871E-01   5.8250E-05  0.0212
   3.1871E-01   3.2646E-01   6.0097E-05  0.0207
   3.2646E-01   3.3441E-01   5.9157E-05  0.0206
   3.3441E-01   3.4254E-01   6.2800E-05  0.0197
   3.4254E-01   3.5088E-01   6.1154E-05  0.0197
   3.5088E-01   3.5941E-01   6.3057E-05  0.0192
   3.5941E-01   3.6816E-01   6.2131E-05  0.0191
   3.6816E-01   3.7712E-01   6.3987E-05  0.0186
   3.7712E-01   3.8629E-01   6.3515E-05  0.0185
   3.8629E-01   3.9569E-01   6.4258E-05  0.0181
   3.9569E-01   4.0532E-01   6.5655E-05  0.0177
   4.0532E-01   4.1518E-01   6.9604E-05  0.0170
   4.1518E-01   4.2528E-01   6.6764E-05  0.0172
   4.2528E-01   4.3563E-01   6.9806E-05  0.0166
   4.3563E-01   4.4623E-01   6.9422E-05  0.0164
   4.4623E-01   4.5708E-01   6.6875E-05  0.0165
   4.5708E-01   4.6821E-01   7.1425E-05  0.0158
   4.6821E-01   4.7960E-01   7.0814E-05  0.0157
   4.7960E-01   4.9127E-01   7.0605E-05  0.0155
   4.9127E-01   5.0322E-01   6.9034E-05  0.0155
   5.0322E-01   5.1546E-01   7.0105E-05  0.0152
   5.1546E-01   5.2800E-01   7.0436E-05  0.0150
   5.2800E-01   5.4085E-01   7.3725E-05  0.0145
   5.4085E-01   5.5401E-01   7.1005E-05  0.0146
   5.5401E-01   5.6749E-01   7.2220E-05  0.0143
   5.6749E-01   5.8130E-01   7.3150E-05  0.0140
   5.8130E-01   5.9544E-01   7.3489E-05  0.0138
   5.9544E-01   6.0993E-01   7.2983E-05  0.0137
   6.0993E-01   6.2477E-01   7.2781E-05  0.0136
   6.2477E-01   6.3997E-01   7.3801E-05  0.0133
   6.3997E-01   6.5554E-01   7.3713E-05  0.0131
   6.5554E-01   6.7149E-01   7.2987E-05  0.0130
   6.7149E-01   6.8783E-01   7.3258E-05  0.0129
   6.8783E-01   7.0456E-01   7.3775E-05  0.0127
   7.0456E-01   7.2171E-01   7.2884E-05  0.0126
   7.2171E-01   7.3927E-01   7.2737E-05  0.0125
   7.3927E-01   7.5725E-01   7.3439E-05  0.0122
   7.5725E-01   7.7568E-01   7.0899E-05  0.0123
   7.7568E-01   7.9455E-01   7.1879E-05  0.0121
   7.9455E-01   8.1388E-01   7.1886E-05  0.0119
   8.1388E-01   8.3368E-01   7.1123E-05  0.0118
   8.3368E-01   8.5397E-01   7.1788E-05  0.0117
   8.5397E-01   8.7475E-01   7.1624E-05  0.0115
   8.7475E-01   8.9603E-01   7.1734E-05  0.0114
   8.9603E-01   9.1783E-01   6.9399E-05  0.0114
   9.1783E-01   9.4016E-01   7.0065E-05  0.0112
   9.4016E-01   9.6304E-01   6.8890E-05  0.0112
   9.6304E-01   9.8647E-01   6.9621E-05  0.0110
   9.8647E-01   1.0105E+00   6.8839E-05  0.0109
   1.0105E+00   1.0351E+00   6.9755E-05  0.0107
   1.0351E+00   1.0602E+00   6.7128E-05  0.0108
   1.0602E+00   1.0860E+00   6.4960E-05  0.0109
   1.0860E+00   1.1125E+00   6.5063E-05  0.0107
   1.1125E+00   1.1395E+00   6.3927E-05  0.0107
   1.1395E+00   1.1673E+00   6.3684E-05  0.0106
   1.1673E+00   1.1957E+00   6.3633E-05  0.0104
   1.1957E+00   1.2247E+00   6.3071E-05  0.0104
   1.2247E+00   1.2545E+00   6.2109E-05  0.0103
   1.2545E+00   1.2851E+00   6.0114E-05  0.0104
   1.2851E+00   1.3163E+00   5.9707E-05  0.0103
   1.3163E+00   1.3484E+00   5.9054E-05  0.0102
   1.3484E+00   1.3812E+00   5.7084E-05  0.0102
   1.3812E+00   1.4148E+00   5.6967E-05  0.0101
   1.4148E+00   1.4492E+00   5.6577E-05  0.0100
   1.4492E+00   1.4845E+00   5.5367E-05  0.0100
   1.4845E+00   1.5206E+00   5.4724E-05  0.0100
   1.5206E+00   1.5576E+00   5.3725E-05  0.0099
   1.5576E+00   1.5955E+00   5.3241E-05  0.0099
   1.5955E+00   1.6343E+00   5.1735E-05  0.0099
   1.6343E+00   1.6741E+00   4.9565E-05  0.0100
   1.6741E+00   1.7148E+00   4.8817E-05  0.0099
   1.7148E+00   1.7565E+00   4.7260E-05  0.0100
   1.7565E+00   1.7992E+00   4.8095E-05  0.0098
   1.7992E+00   1.8430E+00   4.7481E-05  0.0097
   1.8430E+00   1.8879E+00   4.6314E-05  0.0097
   1.8879E+00   1.9338E+00   4.4455E-05  0.0098
   1.9338E+00   1.9808E+00   4.4307E-05  0.0097
   1.9808E+00   2.0290E+00   4.2775E-05  0.0097
   2.0290E+00   2.0784E+00   4.2755E-05  0.0096
   2.0784E+00   2.1290E+00   4.1741E-05  0.0096
   2.1290E+00   2.1808E+00   4.0957E-05  0.0096
   2.1808E+00   2.2338E+00   4.0179E-05  0.0096
   2.2338E+00   2.2882E+00   3.9250E-05  0.0096
   2.2882E+00   2.3439E+00   3.8514E-05  0.0095
   2.3439E+00   2.4009E+00   3.8813E-05  0.0094
   2.4009E+00   2.4593E+00   3.8471E-05  0.0093
   2.4593E+00   2.5191E+00   3.7462E-05  0.0093
   2.5191E+00   2.5804E+00   3.6522E-05  0.0093
   2.5804E+00   2.6432E+00   3.6056E-05  0.0093
   2.6432E+00   2.7075E+00   3.5942E-05  0.0092
   2.7075E+00   2.7734E+00   3.5485E-05  0.0091
   2.7734E+00   2.8409E+00   3.5293E-05  0.0091
   2.8409E+00   2.9100E+00   3.4455E-05  0.0090
   2.9100E+00   2.9808E+00   3.4137E-05  0.0090
   2.9808E+00   3.0533E+00   3.3600E-05  0.0089
   3.0533E+00   3.1276E+00   3.3655E-05  0.0088
   3.1276E+00   3.2037E+00   3.2812E-05  0.0088
   3.2037E+00   3.2817E+00   3.3146E-05  0.0087
   3.2817E+00   3.3615E+00   3.1586E-05  0.0088
   3.3615E+00   3.4433E+00   3.1720E-05  0.0087
   3.4433E+00   3.5271E+00   3.1557E-05  0.0086
   3.5271E+00   3.6129E+00   3.1713E-05  0.0085
   3.6129E+00   3.7008E+00   3.0524E-05  0.0085
   3.7008E+00   3.7908E+00   3.0681E-05  0.0084
   3.7908E+00   3.8831E+00   3.0010E-05  0.0084
   3.8831E+00   3.9776E+00   2.9112E-05  0.0084
   3.9776E+00   4.0743E+00   2.9061E-05  0.0083
   4.0743E+00   4.1735E+00   2.8423E-05  0.0083
   4.1735E+00   4.2750E+00   2.8119E-05  0.0083
   4.2750E+00   4.3790E+00   2.7978E-05  0.0082
   4.3790E+00   4.4856E+00   2.7071E-05  0.0083
   4.4856E+00   4.5947E+00   2.7049E-05  0.0082
   4.5947E+00   4.7065E+00   2.6446E-05  0.0082
   4.7065E+00   4.8210E+00   2.5797E-05  0.0082
   4.8210E+00   4.9383E+00   2.5199E-05  0.0082
   4.9383E+00   5.0585E+00   2.4205E-05  0.0082
   5.0585E+00   5.1815E+00   2.3428E-05  0.0083
   5.1815E+00   5.3076E+00   2.2987E-05  0.0082
   5.3076E+00   5.4368E+00   2.2519E-05  0.0082
   5.4368E+00   5.5690E+00   2.2462E-05  0.0081
   5.5690E+00   5.7045E+00   2.2196E-05  0.0081
   5.7045E+00   5.8433E+00   2.1924E-05  0.0081
   5.8433E+00   5.9855E+00   2.0970E-05  0.0081
   5.9855E+00   6.1311E+00   2.0945E-05  0.0080
   6.1311E+00   6.2803E+00   2.0550E-05  0.0080
   6.2803E+00   6.4331E+00   1.9903E-05  0.0081
   6.4331E+00   6.5896E+00   1.9814E-05  0.0080
   6.5896E+00   6.7500E+00   1.9560E-05  0.0079
   6.7500E+00   6.9142E+00   1.8958E-05  0.0080
   6.9142E+00   7.0824E+00   1.8767E-05  0.0079
   7.0824E+00   7.2548E+00   1.8247E-05  0.0079
   7.2548E+00   7.4313E+00   1.7754E-05  0.0080
   7.4313E+00   7.6121E+00   1.7306E-05  0.0080
   7.6121E+00   7.7973E+00   1.7070E-05  0.0079
   7.7973E+00   7.9870E+00   1.6497E-05  0.0080
   7.9870E+00   8.1813E+00   1.6150E-05  0.0080
   8.1813E+00   8.3804E+00   1.6011E-05  0.0079
   8.3804E+00   8.5843E+00   1.5393E-05  0.0080
   8.5843E+00   8.7931E+00   1.5084E-05  0.0079
   8.7931E+00   9.0071E+00   1.4598E-05  0.0080
   9.0071E+00   9.2262E+00   1.4282E-05  0.0080
   9.2262E+00   9.4507E+00   1.3530E-05  0.0081
   9.4507E+00   9.6807E+00   1.3623E-05  0.0080
   9.6807E+00   9.9162E+00   1.2842E-05  0.0081
   9.9162E+00   1.0157E+01   1.2600E-05  0.0081
   1.0157E+01   1.0405E+01   1.2976E-05  0.0079
   1.0405E+01   1.0658E+01   1.3689E-05  0.0076
   1.0658E+01   1.0917E+01   1.3556E-05  0.0075
   1.0917E+01   1.1183E+01   1.3013E-05  0.0076
   1.1183E+01   1.1455E+01   1.2435E-05  0.0077
   1.1455E+01   1.1733E+01   1.1826E-05  0.0078
   1.1733E+01   1.2019E+01   1.1100E-05  0.0079
   1.2019E+01   1.2311E+01   1.0644E-05  0.0080
   1.2311E+01   1.2611E+01   1.0136E-05  0.0081
   1.2611E+01   1.2918E+01   9.6129E-06  0.0082
   1.2918E+01   1.3232E+01   9.4442E-06  0.0082
   1.3232E+01   1.3554E+01   9.0671E-06  0.0083
   1.3554E+01   1.3884E+01   8.3963E-06  0.0085
   1.3884E+01   1.4222E+01   8.1084E-06  0.0085
   1.4222E+01   1.4568E+01   7.4736E-06  0.0088
   1.4568E+01   1.4922E+01   7.0643E-06  0.0089
   1.4922E+01   1.5285E+01   6.5738E-06  0.0091
   1.5285E+01   1.5657E+01   6.2753E-06  0.0093
   1.5657E+01   1.6038E+01   5.7434E-06  0.0096
   1.6038E+01   1.6428E+01   5.3860E-06  0.0098
   1.6428E+01   1.6828E+01   4.9985E-06  0.0100
   1.6828E+01   1.7237E+01   4.6074E-06  0.0103
   1.7237E+01   1.7657E+01   4.3149E-06  0.0105
   1.7657E+01   1.8086E+01   3.9405E-06  0.0109
   1.8086E+01   1.8526E+01   3.6906E-06  0.0111
   1.8526E+01   1.8977E+01   3.3944E-06  0.0114
   1.8977E+01   1.9439E+01   3.1587E-06  0.0117
   1.9439E+01   1.9912E+01   2.8568E-06  0.0122
   1.9912E+01   2.0396E+01   2.6247E-06  0.0125
   2.0396E+01   2.0893E+01   2.4229E-06  0.0129
   2.0893E+01   2.1401E+01   2.1986E-06  0.0134
   2.1401E+01   2.1922E+01   1.9712E-06  0.0140
   2.1922E+01   2.2455E+01   1.7185E-06  0.0148
   2.2455E+01   2.3001E+01   1.5397E-06  0.0154
   2.3001E+01   2.3561E+01   1.4098E-06  0.0159
   2.3561E+01   2.4134E+01   1.2403E-06  0.0168
   2.4134E+01   2.4721E+01   1.0902E-06  0.0177
   2.4721E+01   2.5323E+01   9.8887E-07  0.0183
   2.5323E+01   2.5939E+01   8.8910E-07  0.0191
   2.5939E+01   2.6570E+01   7.5136E-07  0.0205
   2.6570E+01   2.7217E+01   6.5710E-07  0.0217
   2.7217E+01   2.7879E+01   6.0344E-07  0.0224
   2.7879E+01   2.8557E+01   5.2719E-07  0.0236
   2.8557E+01   2.9252E+01   4.4990E-07  0.0253
   2.9252E+01   2.9964E+01   3.6390E-07  0.0278
   2.9964E+01   3.0693E+01   3.2591E-07  0.0290
   3.0693E+01   3.1440E+01   2.6835E-07  0.0316
   3.1440E+01   3.2205E+01   2.2642E-07  0.0340
   3.2205E+01   3.2988E+01   1.9092E-07  0.0366
   3.2988E+01   3.3791E+01   1.5076E-07  0.0407
   3.3791E+01   3.4613E+01   1.3720E-07  0.0421
   3.4613E+01   3.5455E+01   1.0829E-07  0.0468
   3.5455E+01   3.6318E+01   8.9724E-08  0.0508
   3.6318E+01   3.7201E+01   7.4239E-08  0.0552
   3.7201E+01   3.8106E+01   6.4300E-08  0.0586
   3.8106E+01   3.9034E+01   4.6594E-08  0.0680
   3.9034E+01   3.9983E+01   3.9170E-08  0.0733
   3.9983E+01   4.0956E+01   3.2894E-08  0.0791
   4.0956E+01   4.1953E+01   2.2278E-08  0.0949
   4.1953E+01   4.2973E+01   2.2533E-08  0.0933
   4.2973E+01   4.4019E+01   1.3390E-08  0.1195
   4.4019E+01   4.5090E+01   9.5237E-09  0.1400
   4.5090E+01   4.6187E+01   9.1152E-09  0.1414
   4.6187E+01   4.7311E+01   6.7630E-09  0.1622
   4.7311E+01   4.8462E+01   5.0386E-09  0.1857
   4.8462E+01   4.9641E+01   3.2228E-09  0.2294
   4.9641E+01   5.0849E+01   2.3183E-09  0.2673
   5.0849E+01   5.2086E+01   2.9098E-09  0.2357
   5.2086E+01   5.3353E+01   2.6829E-09  0.2425
   5.3353E+01   5.4651E+01   1.8488E-09  0.2887
   5.4651E+01   5.5981E+01   6.0163E-10  0.5000
   5.5981E+01   5.7343E+01   1.4684E-10  1.0000
   5.7343E+01   5.8738E+01   8.6009E-10  0.4082
   5.8738E+01   6.0168E+01   0.0000E+00  0.0000
   6.0168E+01   6.1632E+01   2.7324E-10  0.7071
   6.1632E+01   6.3131E+01   0.0000E+00  0.0000
   6.3131E+01   6.4667E+01   0.0000E+00  0.0000
   6.4667E+01   6.6240E+01   0.0000E+00  0.0000
   6.6240E+01   6.7852E+01   1.2409E-10  1.0000
   6.7852E+01   6.9503E+01   1.2115E-10  1.0000
   6.9503E+01   7.1194E+01   2.3654E-10  0.7071
   7.1194E+01   7.2926E+01   0.0000E+00  0.0000
   7.2926E+01   7.4701E+01   0.0000E+00  0.0000
   7.4701E+01   7.6518E+01   0.0000E+00  0.0000
   7.6518E+01   7.8380E+01   0.0000E+00  0.0000
   7.8380E+01   8.0287E+01   0.0000E+00  0.0000
   8.0287E+01   8.2240E+01   0.0000E+00  0.0000
   8.2240E+01   8.4241E+01   0.0000E+00  0.0000
   8.4241E+01   8.6291E+01   0.0000E+00  0.0000
   8.6291E+01   8.8391E+01   0.0000E+00  0.0000
   8.8391E+01   9.0541E+01   0.0000E+00  0.0000
   9.0541E+01   9.2744E+01   0.0000E+00  0.0000
   9.2744E+01   9.5001E+01   0.0000E+00  0.0000
   9.5001E+01   9.7312E+01   0.0000E+00  0.0000
   9.7312E+01   9.9680E+01   0.0000E+00  0.0000
   9.9680E+01   1.0211E+02   0.0000E+00  0.0000
   1.0211E+02   1.0459E+02   0.0000E+00  0.0000
   1.0459E+02   1.0713E+02   0.0000E+00  0.0000
   1.0713E+02   1.0974E+02   0.0000E+00  0.0000
   1.0974E+02   1.1241E+02   0.0000E+00  0.0000
   1.1241E+02   1.1515E+02   0.0000E+00  0.0000
   1.1515E+02   1.1795E+02   0.0000E+00  0.0000
   1.1795E+02   1.2082E+02   0.0000E+00  0.0000
   1.2082E+02   1.2376E+02   0.0000E+00  0.0000
   1.2376E+02   1.2677E+02   0.0000E+00  0.0000
   1.2677E+02   1.2985E+02   0.0000E+00  0.0000
   1.2985E+02   1.3301E+02   0.0000E+00  0.0000
   1.3301E+02   1.3625E+02   0.0000E+00  0.0000
   1.3625E+02   1.3956E+02   0.0000E+00  0.0000
   1.3956E+02   1.4296E+02   0.0000E+00  0.0000
   1.4296E+02   1.4644E+02   0.0000E+00  0.0000
   1.4644E+02   1.5000E+02   0.0000E+00  0.0000

#   sum over                 2.6705E-06
'no. =    1   reg = 125 - 225'
msuc: {\huge [t-cross] in region mesh}
msdr: {\it plotted by \ANGEL \version}
msdl: {\it calculated by \PHITS  3.28}
wt: s(0.7)
\vspace{-3}
  region surface crossing
  area  &=&   1.0000E+00 [cm^2]
e:
 
# Information for Restart Calculation
# This calculation was newly started
# istdev =  2 # 1:Batch variance, 2:History variance
# resc2  = 5.00000000000000000E+09 # Total source weight or Total source weight / maxcas
# resc3  = 5.00000000000000000E+09 # Total history number or Total batch number
# maxcas =   500000000 # History / Batch, only used for istdev=1
# bitrseed = 0001101011110000011001100100101010101011111110100001111101011101 # bit data of rseed
