[ T-Cross ]
    title = [t-cross] in region mesh
     mesh =  reg            # mesh type is region-wise
      reg =    1            # number of crossing regions
      non     r-from    r-to       area
      1       110       210        1.000000    
   e-type =    3            # e-mesh is log given by emin, emax and ne
     emin =  1.0000000E-02  # minimum value of e-mesh points
     emax =   150.0000      # maximum value of e-mesh points
#    edel =  2.4039514E-02  # mesh width of e-mesh points
       ne =    400          # number of e-mesh points
#    data = ( e(i), i = 1, ne + 1 )
#           1.00000E-02  1.02433E-02  1.04925E-02  1.07478E-02  1.10093E-02
#           1.12772E-02  1.15516E-02  1.18326E-02  1.21205E-02  1.24154E-02
#           1.27175E-02  1.30269E-02  1.33439E-02  1.36686E-02  1.40011E-02
#           1.43418E-02  1.46907E-02  1.50482E-02  1.54143E-02  1.57894E-02
#           1.61735E-02  1.65670E-02  1.69701E-02  1.73830E-02  1.78060E-02
#           1.82392E-02  1.86830E-02  1.91375E-02  1.96032E-02  2.00801E-02
#           2.05687E-02  2.10692E-02  2.15818E-02  2.21069E-02  2.26448E-02
#           2.31957E-02  2.37601E-02  2.43382E-02  2.49304E-02  2.55369E-02
#           2.61583E-02  2.67947E-02  2.74467E-02  2.81145E-02  2.87985E-02
#           2.94992E-02  3.02169E-02  3.09521E-02  3.17052E-02  3.24766E-02
#           3.32668E-02  3.40762E-02  3.49053E-02  3.57546E-02  3.66246E-02
#           3.75157E-02  3.84284E-02  3.93634E-02  4.03212E-02  4.13022E-02
#           4.23071E-02  4.33365E-02  4.43909E-02  4.54710E-02  4.65773E-02
#           4.77106E-02  4.88714E-02  5.00605E-02  5.12785E-02  5.25262E-02
#           5.38042E-02  5.51133E-02  5.64542E-02  5.78278E-02  5.92348E-02
#           6.06760E-02  6.21523E-02  6.36645E-02  6.52135E-02  6.68002E-02
#           6.84255E-02  7.00904E-02  7.17957E-02  7.35426E-02  7.53319E-02
#           7.71648E-02  7.90423E-02  8.09655E-02  8.29354E-02  8.49533E-02
#           8.70203E-02  8.91376E-02  9.13064E-02  9.35279E-02  9.58035E-02
#           9.81345E-02  1.00522E-01  1.02968E-01  1.05473E-01  1.08040E-01
#           1.10668E-01  1.13361E-01  1.16119E-01  1.18944E-01  1.21838E-01
#           1.24803E-01  1.27839E-01  1.30950E-01  1.34136E-01  1.37399E-01
#           1.40742E-01  1.44167E-01  1.47675E-01  1.51268E-01  1.54948E-01
#           1.58718E-01  1.62580E-01  1.66535E-01  1.70587E-01  1.74738E-01
#           1.78989E-01  1.83344E-01  1.87805E-01  1.92375E-01  1.97055E-01
#           2.01850E-01  2.06761E-01  2.11792E-01  2.16945E-01  2.22223E-01
#           2.27630E-01  2.33169E-01  2.38842E-01  2.44653E-01  2.50605E-01
#           2.56703E-01  2.62949E-01  2.69346E-01  2.75900E-01  2.82613E-01
#           2.89489E-01  2.96532E-01  3.03747E-01  3.11138E-01  3.18708E-01
#           3.26462E-01  3.34405E-01  3.42542E-01  3.50876E-01  3.59413E-01
#           3.68158E-01  3.77116E-01  3.86291E-01  3.95690E-01  4.05317E-01
#           4.15179E-01  4.25281E-01  4.35628E-01  4.46227E-01  4.57084E-01
#           4.68205E-01  4.79597E-01  4.91266E-01  5.03219E-01  5.15463E-01
#           5.28005E-01  5.40851E-01  5.54011E-01  5.67490E-01  5.81298E-01
#           5.95441E-01  6.09929E-01  6.24769E-01  6.39970E-01  6.55541E-01
#           6.71491E-01  6.87828E-01  7.04564E-01  7.21706E-01  7.39266E-01
#           7.57253E-01  7.75678E-01  7.94551E-01  8.13883E-01  8.33685E-01
#           8.53969E-01  8.74747E-01  8.96030E-01  9.17831E-01  9.40163E-01
#           9.63038E-01  9.86469E-01  1.01047E+00  1.03506E+00  1.06024E+00
#           1.08604E+00  1.11246E+00  1.13953E+00  1.16725E+00  1.19565E+00
#           1.22474E+00  1.25454E+00  1.28507E+00  1.31633E+00  1.34836E+00
#           1.38117E+00  1.41477E+00  1.44920E+00  1.48446E+00  1.52057E+00
#           1.55757E+00  1.59547E+00  1.63429E+00  1.67405E+00  1.71478E+00
#           1.75650E+00  1.79924E+00  1.84302E+00  1.88786E+00  1.93379E+00
#           1.98084E+00  2.02904E+00  2.07841E+00  2.12898E+00  2.18078E+00
#           2.23384E+00  2.28819E+00  2.34386E+00  2.40089E+00  2.45930E+00
#           2.51914E+00  2.58043E+00  2.64322E+00  2.70753E+00  2.77341E+00
#           2.84088E+00  2.91001E+00  2.98081E+00  3.05333E+00  3.12762E+00
#           3.20372E+00  3.28167E+00  3.36152E+00  3.44330E+00  3.52708E+00
#           3.61290E+00  3.70080E+00  3.79085E+00  3.88308E+00  3.97756E+00
#           4.07434E+00  4.17347E+00  4.27501E+00  4.37903E+00  4.48557E+00
#           4.59471E+00  4.70650E+00  4.82102E+00  4.93832E+00  5.05847E+00
#           5.18155E+00  5.30762E+00  5.43676E+00  5.56904E+00  5.70453E+00
#           5.84333E+00  5.98550E+00  6.13114E+00  6.28031E+00  6.43312E+00
#           6.58964E+00  6.74997E+00  6.91420E+00  7.08243E+00  7.25475E+00
#           7.43126E+00  7.61207E+00  7.79728E+00  7.98700E+00  8.18133E+00
#           8.38038E+00  8.58428E+00  8.79315E+00  9.00709E+00  9.22624E+00
#           9.45072E+00  9.68067E+00  9.91620E+00  1.01575E+01  1.04046E+01
#           1.06578E+01  1.09171E+01  1.11827E+01  1.14548E+01  1.17335E+01
#           1.20190E+01  1.23114E+01  1.26109E+01  1.29178E+01  1.32321E+01
#           1.35540E+01  1.38838E+01  1.42216E+01  1.45676E+01  1.49221E+01
#           1.52851E+01  1.56570E+01  1.60380E+01  1.64282E+01  1.68279E+01
#           1.72374E+01  1.76568E+01  1.80864E+01  1.85264E+01  1.89772E+01
#           1.94389E+01  1.99119E+01  2.03963E+01  2.08926E+01  2.14009E+01
#           2.19216E+01  2.24550E+01  2.30014E+01  2.35610E+01  2.41343E+01
#           2.47215E+01  2.53230E+01  2.59391E+01  2.65702E+01  2.72167E+01
#           2.78789E+01  2.85572E+01  2.92520E+01  2.99637E+01  3.06928E+01
#           3.14396E+01  3.22045E+01  3.29881E+01  3.37907E+01  3.46128E+01
#           3.54550E+01  3.63177E+01  3.72013E+01  3.81064E+01  3.90336E+01
#           3.99833E+01  4.09561E+01  4.19526E+01  4.29734E+01  4.40189E+01
#           4.50900E+01  4.61870E+01  4.73108E+01  4.84619E+01  4.96410E+01
#           5.08488E+01  5.20860E+01  5.33533E+01  5.46514E+01  5.59812E+01
#           5.73432E+01  5.87384E+01  6.01676E+01  6.16315E+01  6.31311E+01
#           6.46671E+01  6.62405E+01  6.78522E+01  6.95031E+01  7.11941E+01
#           7.29263E+01  7.47007E+01  7.65182E+01  7.83800E+01  8.02870E+01
#           8.22405E+01  8.42414E+01  8.62911E+01  8.83906E+01  9.05412E+01
#           9.27442E+01  9.50007E+01  9.73122E+01  9.96799E+01  1.02105E+02
#           1.04589E+02  1.07134E+02  1.09741E+02  1.12411E+02  1.15146E+02
#           1.17948E+02  1.20817E+02  1.23757E+02  1.26768E+02  1.29852E+02
#           1.33012E+02  1.36248E+02  1.39563E+02  1.42959E+02  1.46437E+02
#           1.50000E+02
     unit =    2            # unit is [1/cm^2/(MeV/n)/source]
     axis =  eng            # axis of output
     file = detector-11.out  # file name of output for the above axis
   output = f-curr          # surface crossing forward current spectrum
     part =  neutron  
# kf/name :  2112     
#    used :        main (  %)        temp (  %)       total (  %)
#  memory :         414 (  0)           0 (  0)         414 (  0)

#------------------------------------------------------------------------------
#newpage:
#   no. =    1   reg = 110 - 210

x: Energy [MeV/n]
y:  F-Curr [1/cm^2/(MeV/n)/source]         
p: xlog ylog afac(0.8) form(0.9)
h: n            x            y(neutron ),hh0l   n 
#  e-lower      e-upper      neutron     r.err 
   1.0000E-02   1.0243E-02   1.9125E-04  0.0741
   1.0243E-02   1.0493E-02   1.8537E-04  0.0743
   1.0493E-02   1.0748E-02   1.8837E-04  0.0729
   1.0748E-02   1.1009E-02   1.8788E-04  0.0722
   1.1009E-02   1.1277E-02   1.9559E-04  0.0698
   1.1277E-02   1.1552E-02   1.8874E-04  0.0703
   1.1552E-02   1.1833E-02   1.9298E-04  0.0686
   1.1833E-02   1.2121E-02   1.6786E-04  0.0728
   1.2121E-02   1.2415E-02   1.6465E-04  0.0726
   1.2415E-02   1.2718E-02   1.7034E-04  0.0703
   1.2718E-02   1.3027E-02   1.6051E-04  0.0718
   1.3027E-02   1.3344E-02   1.7867E-04  0.0673
   1.3344E-02   1.3669E-02   1.5332E-04  0.0716
   1.3669E-02   1.4001E-02   1.5450E-04  0.0706
   1.4001E-02   1.4342E-02   1.6549E-04  0.0674
   1.4342E-02   1.4691E-02   1.5073E-04  0.0696
   1.4691E-02   1.5048E-02   1.3815E-04  0.0720
   1.5048E-02   1.5414E-02   1.3993E-04  0.0707
   1.5414E-02   1.5789E-02   1.4547E-04  0.0685
   1.5789E-02   1.6174E-02   1.3723E-04  0.0696
   1.6174E-02   1.6567E-02   1.3390E-04  0.0697
   1.6567E-02   1.6970E-02   1.2640E-04  0.0709
   1.6970E-02   1.7383E-02   1.3277E-04  0.0684
   1.7383E-02   1.7806E-02   1.2959E-04  0.0684
   1.7806E-02   1.8239E-02   1.1629E-04  0.0713
   1.8239E-02   1.8683E-02   1.1306E-04  0.0713
   1.8683E-02   1.9138E-02   1.2257E-04  0.0677
   1.9138E-02   1.9603E-02   1.0450E-04  0.0725
   1.9603E-02   2.0080E-02   1.0603E-04  0.0711
   2.0080E-02   2.0569E-02   1.0848E-04  0.0695
   2.0569E-02   2.1069E-02   1.0399E-04  0.0701
   2.1069E-02   2.1582E-02   1.0593E-04  0.0687
   2.1582E-02   2.2107E-02   1.0464E-04  0.0682
   2.2107E-02   2.2645E-02   1.0451E-04  0.0674
   2.2645E-02   2.3196E-02   8.4057E-05  0.0743
   2.3196E-02   2.3760E-02   9.5604E-05  0.0687
   2.3760E-02   2.4338E-02   8.5918E-05  0.0717
   2.4338E-02   2.4930E-02   8.4276E-05  0.0715
   2.4930E-02   2.5537E-02   8.8246E-05  0.0692
   2.5537E-02   2.6158E-02   9.8160E-05  0.0648
   2.6158E-02   2.6795E-02   9.1883E-05  0.0661
   2.6795E-02   2.7447E-02   7.3435E-05  0.0731
   2.7447E-02   2.8114E-02   8.0757E-05  0.0689
   2.8114E-02   2.8799E-02   8.3175E-05  0.0670
   2.8799E-02   2.9499E-02   7.8595E-05  0.0681
   2.9499E-02   3.0217E-02   6.5678E-05  0.0736
   3.0217E-02   3.0952E-02   7.7696E-05  0.0670
   3.0952E-02   3.1705E-02   6.8280E-05  0.0705
   3.1705E-02   3.2477E-02   6.7200E-05  0.0702
   3.2477E-02   3.3267E-02   7.7502E-05  0.0647
   3.3267E-02   3.4076E-02   6.4871E-05  0.0698
   3.4076E-02   3.4905E-02   6.8915E-05  0.0670
   3.4905E-02   3.5755E-02   7.3993E-05  0.0638
   3.5755E-02   3.6625E-02   5.7836E-05  0.0713
   3.6625E-02   3.7516E-02   6.3313E-05  0.0673
   3.7516E-02   3.8428E-02   6.5886E-05  0.0652
   3.8428E-02   3.9363E-02   6.0925E-05  0.0670
   3.9363E-02   4.0321E-02   5.7209E-05  0.0684
   4.0321E-02   4.1302E-02   5.8385E-05  0.0668
   4.1302E-02   4.2307E-02   5.4126E-05  0.0686
   4.2307E-02   4.3337E-02   6.0657E-05  0.0640
   4.3337E-02   4.4391E-02   5.4619E-05  0.0667
   4.4391E-02   4.5471E-02   5.7884E-05  0.0640
   4.5471E-02   4.6577E-02   5.0056E-05  0.0679
   4.6577E-02   4.7711E-02   4.7054E-05  0.0692
   4.7711E-02   4.8871E-02   5.1426E-05  0.0655
   4.8871E-02   5.0061E-02   4.8125E-05  0.0668
   5.0061E-02   5.1279E-02   5.0420E-05  0.0645
   5.1279E-02   5.2526E-02   5.1828E-05  0.0629
   5.2526E-02   5.3804E-02   4.7179E-05  0.0651
   5.3804E-02   5.5113E-02   4.6519E-05  0.0648
   5.5113E-02   5.6454E-02   4.4648E-05  0.0654
   5.6454E-02   5.7828E-02   4.2907E-05  0.0659
   5.7828E-02   5.9235E-02   4.6700E-05  0.0624
   5.9235E-02   6.0676E-02   3.8149E-05  0.0682
   6.0676E-02   6.2152E-02   3.9860E-05  0.0659
   6.2152E-02   6.3665E-02   4.2907E-05  0.0628
   6.3665E-02   6.5214E-02   3.8563E-05  0.0654
   6.5214E-02   6.6800E-02   3.8908E-05  0.0644
   6.6800E-02   6.8426E-02   3.7649E-05  0.0646
   6.8426E-02   7.0090E-02   3.4353E-05  0.0668
   7.0090E-02   7.1796E-02   3.3733E-05  0.0667
   7.1796E-02   7.3543E-02   3.5518E-05  0.0642
   7.3543E-02   7.5332E-02   3.2747E-05  0.0661
   7.5332E-02   7.7165E-02   3.4623E-05  0.0635
   7.7165E-02   7.9042E-02   3.0267E-05  0.0671
   7.9042E-02   8.0965E-02   3.4528E-05  0.0620
   8.0965E-02   8.2935E-02   3.5404E-05  0.0605
   8.2935E-02   8.4953E-02   2.8896E-05  0.0662
   8.4953E-02   8.7020E-02   3.1425E-05  0.0628
   8.7020E-02   8.9138E-02   2.9063E-05  0.0645
   8.9138E-02   9.1306E-02   3.3604E-05  0.0592
   9.1306E-02   9.3528E-02   2.8867E-05  0.0631
   9.3528E-02   9.5804E-02   2.7891E-05  0.0635
   9.5804E-02   9.8134E-02   2.6375E-05  0.0645
   9.8134E-02   1.0052E-01   2.6969E-05  0.0630
   1.0052E-01   1.0297E-01   2.8912E-05  0.0602
   1.0297E-01   1.0547E-01   3.0423E-05  0.0579
   1.0547E-01   1.0804E-01   3.1125E-05  0.0566
   1.0804E-01   1.1067E-01   3.3691E-05  0.0537
   1.1067E-01   1.1336E-01   3.5912E-05  0.0514
   1.1336E-01   1.1612E-01   3.3091E-05  0.0529
   1.1612E-01   1.1894E-01   3.6723E-05  0.0497
   1.1894E-01   1.2184E-01   3.8687E-05  0.0478
   1.2184E-01   1.2480E-01   3.9100E-05  0.0470
   1.2480E-01   1.2784E-01   3.8514E-05  0.0467
   1.2784E-01   1.3095E-01   4.1459E-05  0.0445
   1.3095E-01   1.3414E-01   4.2802E-05  0.0433
   1.3414E-01   1.3740E-01   4.3275E-05  0.0426
   1.3740E-01   1.4074E-01   4.5335E-05  0.0411
   1.4074E-01   1.4417E-01   4.9871E-05  0.0387
   1.4417E-01   1.4767E-01   4.9749E-05  0.0383
   1.4767E-01   1.5127E-01   4.9970E-05  0.0377
   1.5127E-01   1.5495E-01   5.2089E-05  0.0365
   1.5495E-01   1.5872E-01   5.5818E-05  0.0349
   1.5872E-01   1.6258E-01   5.7743E-05  0.0338
   1.6258E-01   1.6654E-01   5.6232E-05  0.0339
   1.6654E-01   1.7059E-01   6.0100E-05  0.0324
   1.7059E-01   1.7474E-01   6.3607E-05  0.0311
   1.7474E-01   1.7899E-01   6.4715E-05  0.0305
   1.7899E-01   1.8334E-01   6.4242E-05  0.0302
   1.8334E-01   1.8781E-01   7.1311E-05  0.0283
   1.8781E-01   1.9237E-01   7.4506E-05  0.0274
   1.9237E-01   1.9706E-01   7.4226E-05  0.0271
   1.9706E-01   2.0185E-01   7.3514E-05  0.0269
   2.0185E-01   2.0676E-01   7.8830E-05  0.0257
   2.0676E-01   2.1179E-01   8.3964E-05  0.0246
   2.1179E-01   2.1694E-01   8.5425E-05  0.0241
   2.1694E-01   2.2222E-01   8.9522E-05  0.0233
   2.2222E-01   2.2763E-01   9.1313E-05  0.0228
   2.2763E-01   2.3317E-01   9.5093E-05  0.0220
   2.3317E-01   2.3884E-01   9.9357E-05  0.0213
   2.3884E-01   2.4465E-01   9.8034E-05  0.0212
   2.4465E-01   2.5061E-01   1.0409E-04  0.0203
   2.5061E-01   2.5670E-01   1.0571E-04  0.0199
   2.5670E-01   2.6295E-01   1.0672E-04  0.0196
   2.6295E-01   2.6935E-01   1.1490E-04  0.0186
   2.6935E-01   2.7590E-01   1.1457E-04  0.0184
   2.7590E-01   2.8261E-01   1.1925E-04  0.0179
   2.8261E-01   2.8949E-01   1.2265E-04  0.0174
   2.8949E-01   2.9653E-01   1.2296E-04  0.0172
   2.9653E-01   3.0375E-01   1.3000E-04  0.0165
   3.0375E-01   3.1114E-01   1.3024E-04  0.0163
   3.1114E-01   3.1871E-01   1.3592E-04  0.0158
   3.1871E-01   3.2646E-01   1.3825E-04  0.0154
   3.2646E-01   3.3441E-01   1.4065E-04  0.0151
   3.3441E-01   3.4254E-01   1.4356E-04  0.0148
   3.4254E-01   3.5088E-01   1.4735E-04  0.0144
   3.5088E-01   3.5941E-01   1.4938E-04  0.0142
   3.5941E-01   3.6816E-01   1.5545E-04  0.0137
   3.6816E-01   3.7712E-01   1.5893E-04  0.0134
   3.7712E-01   3.8629E-01   1.6391E-04  0.0130
   3.8629E-01   3.9569E-01   1.6434E-04  0.0129
   3.9569E-01   4.0532E-01   1.7098E-04  0.0125
   4.0532E-01   4.1518E-01   1.7353E-04  0.0122
   4.1518E-01   4.2528E-01   1.7836E-04  0.0119
   4.2528E-01   4.3563E-01   1.7913E-04  0.0117
   4.3563E-01   4.4623E-01   1.8099E-04  0.0115
   4.4623E-01   4.5708E-01   1.8859E-04  0.0112
   4.5708E-01   4.6821E-01   1.9041E-04  0.0110
   4.6821E-01   4.7960E-01   1.8974E-04  0.0109
   4.7960E-01   4.9127E-01   1.9900E-04  0.0105
   4.9127E-01   5.0322E-01   2.0130E-04  0.0103
   5.0322E-01   5.1546E-01   2.0228E-04  0.0102
   5.1546E-01   5.2800E-01   2.0351E-04  0.0100
   5.2800E-01   5.4085E-01   2.1050E-04  0.0097
   5.4085E-01   5.5401E-01   2.1191E-04  0.0096
   5.5401E-01   5.6749E-01   2.1731E-04  0.0093
   5.6749E-01   5.8130E-01   2.2118E-04  0.0091
   5.8130E-01   5.9544E-01   2.2281E-04  0.0090
   5.9544E-01   6.0993E-01   2.2183E-04  0.0089
   6.0993E-01   6.2477E-01   2.2650E-04  0.0087
   6.2477E-01   6.3997E-01   2.2726E-04  0.0086
   6.3997E-01   6.5554E-01   2.3354E-04  0.0084
   6.5554E-01   6.7149E-01   2.3954E-04  0.0082
   6.7149E-01   6.8783E-01   2.3925E-04  0.0081
   6.8783E-01   7.0456E-01   2.4084E-04  0.0080
   7.0456E-01   7.2171E-01   2.4246E-04  0.0078
   7.2171E-01   7.3927E-01   2.4859E-04  0.0076
   7.3927E-01   7.5725E-01   2.5118E-04  0.0075
   7.5725E-01   7.7568E-01   2.4969E-04  0.0074
   7.7568E-01   7.9455E-01   2.5499E-04  0.0073
   7.9455E-01   8.1388E-01   2.5189E-04  0.0072
   8.1388E-01   8.3368E-01   2.5835E-04  0.0071
   8.3368E-01   8.5397E-01   2.5714E-04  0.0070
   8.5397E-01   8.7475E-01   2.5617E-04  0.0069
   8.7475E-01   8.9603E-01   2.5689E-04  0.0068
   8.9603E-01   9.1783E-01   2.5850E-04  0.0067
   9.1783E-01   9.4016E-01   2.5828E-04  0.0066
   9.4016E-01   9.6304E-01   2.5681E-04  0.0066
   9.6304E-01   9.8647E-01   2.5913E-04  0.0065
   9.8647E-01   1.0105E+00   2.5652E-04  0.0064
   1.0105E+00   1.0351E+00   2.5220E-04  0.0064
   1.0351E+00   1.0602E+00   2.5310E-04  0.0063
   1.0602E+00   1.0860E+00   2.5155E-04  0.0063
   1.0860E+00   1.1125E+00   2.5540E-04  0.0061
   1.1125E+00   1.1395E+00   2.5534E-04  0.0061
   1.1395E+00   1.1673E+00   2.5289E-04  0.0060
   1.1673E+00   1.1957E+00   2.5602E-04  0.0059
   1.1957E+00   1.2247E+00   2.6185E-04  0.0058
   1.2247E+00   1.2545E+00   2.5939E-04  0.0057
   1.2545E+00   1.2851E+00   2.5874E-04  0.0057
   1.2851E+00   1.3163E+00   2.6013E-04  0.0056
   1.3163E+00   1.3484E+00   2.5898E-04  0.0055
   1.3484E+00   1.3812E+00   2.5816E-04  0.0055
   1.3812E+00   1.4148E+00   2.6271E-04  0.0054
   1.4148E+00   1.4492E+00   2.6075E-04  0.0053
   1.4492E+00   1.4845E+00   2.5934E-04  0.0053
   1.4845E+00   1.5206E+00   2.5885E-04  0.0052
   1.5206E+00   1.5576E+00   2.5613E-04  0.0052
   1.5576E+00   1.5955E+00   2.5547E-04  0.0051
   1.5955E+00   1.6343E+00   2.5385E-04  0.0051
   1.6343E+00   1.6741E+00   2.5367E-04  0.0050
   1.6741E+00   1.7148E+00   2.5041E-04  0.0050
   1.7148E+00   1.7565E+00   2.4847E-04  0.0049
   1.7565E+00   1.7992E+00   2.4013E-04  0.0049
   1.7992E+00   1.8430E+00   2.2870E-04  0.0050
   1.8430E+00   1.8879E+00   2.1951E-04  0.0050
   1.8879E+00   1.9338E+00   2.1342E-04  0.0050
   1.9338E+00   1.9808E+00   2.0954E-04  0.0050
   1.9808E+00   2.0290E+00   2.0917E-04  0.0050
   2.0290E+00   2.0784E+00   2.0521E-04  0.0049
   2.0784E+00   2.1290E+00   2.0666E-04  0.0049
   2.1290E+00   2.1808E+00   2.1025E-04  0.0048
   2.1808E+00   2.2338E+00   2.1175E-04  0.0047
   2.2338E+00   2.2882E+00   2.0767E-04  0.0047
   2.2882E+00   2.3439E+00   2.0151E-04  0.0047
   2.3439E+00   2.4009E+00   1.9838E-04  0.0047
   2.4009E+00   2.4593E+00   1.9610E-04  0.0047
   2.4593E+00   2.5191E+00   1.9451E-04  0.0046
   2.5191E+00   2.5804E+00   1.9298E-04  0.0046
   2.5804E+00   2.6432E+00   1.9116E-04  0.0045
   2.6432E+00   2.7075E+00   1.8807E-04  0.0045
   2.7075E+00   2.7734E+00   1.8512E-04  0.0045
   2.7734E+00   2.8409E+00   1.8506E-04  0.0045
   2.8409E+00   2.9100E+00   1.8283E-04  0.0044
   2.9100E+00   2.9808E+00   1.8063E-04  0.0044
   2.9808E+00   3.0533E+00   1.7902E-04  0.0044
   3.0533E+00   3.1276E+00   1.7608E-04  0.0044
   3.1276E+00   3.2037E+00   1.7437E-04  0.0043
   3.2037E+00   3.2817E+00   1.7079E-04  0.0043
   3.2817E+00   3.3615E+00   1.6981E-04  0.0043
   3.3615E+00   3.4433E+00   1.6738E-04  0.0043
   3.4433E+00   3.5271E+00   1.6453E-04  0.0043
   3.5271E+00   3.6129E+00   1.6385E-04  0.0042
   3.6129E+00   3.7008E+00   1.6059E-04  0.0042
   3.7008E+00   3.7908E+00   1.5749E-04  0.0042
   3.7908E+00   3.8831E+00   1.5433E-04  0.0042
   3.8831E+00   3.9776E+00   1.5263E-04  0.0042
   3.9776E+00   4.0743E+00   1.5034E-04  0.0042
   4.0743E+00   4.1735E+00   1.4592E-04  0.0042
   4.1735E+00   4.2750E+00   1.4363E-04  0.0041
   4.2750E+00   4.3790E+00   1.3914E-04  0.0042
   4.3790E+00   4.4856E+00   1.3699E-04  0.0041
   4.4856E+00   4.5947E+00   1.3290E-04  0.0042
   4.5947E+00   4.7065E+00   1.3054E-04  0.0041
   4.7065E+00   4.8210E+00   1.2865E-04  0.0041
   4.8210E+00   4.9383E+00   1.2750E-04  0.0041
   4.9383E+00   5.0585E+00   1.2502E-04  0.0041
   5.0585E+00   5.1815E+00   1.2269E-04  0.0041
   5.1815E+00   5.3076E+00   1.2144E-04  0.0040
   5.3076E+00   5.4368E+00   1.1682E-04  0.0041
   5.4368E+00   5.5690E+00   1.1647E-04  0.0040
   5.5690E+00   5.7045E+00   1.1336E-04  0.0040
   5.7045E+00   5.8433E+00   1.1263E-04  0.0040
   5.8433E+00   5.9855E+00   1.1117E-04  0.0040
   5.9855E+00   6.1311E+00   1.0891E-04  0.0040
   6.1311E+00   6.2803E+00   1.0793E-04  0.0039
   6.2803E+00   6.4331E+00   1.0565E-04  0.0039
   6.4331E+00   6.5896E+00   1.0482E-04  0.0039
   6.5896E+00   6.7500E+00   1.0351E-04  0.0039
   6.7500E+00   6.9142E+00   1.0217E-04  0.0039
   6.9142E+00   7.0824E+00   1.0027E-04  0.0039
   7.0824E+00   7.2548E+00   9.8125E-05  0.0039
   7.2548E+00   7.4313E+00   9.6337E-05  0.0038
   7.4313E+00   7.6121E+00   9.5128E-05  0.0038
   7.6121E+00   7.7973E+00   9.3438E-05  0.0038
   7.7973E+00   7.9870E+00   9.1553E-05  0.0038
   7.9870E+00   8.1813E+00   8.9919E-05  0.0038
   8.1813E+00   8.3804E+00   8.7821E-05  0.0038
   8.3804E+00   8.5843E+00   8.5594E-05  0.0038
   8.5843E+00   8.7931E+00   8.3804E-05  0.0038
   8.7931E+00   9.0071E+00   8.1747E-05  0.0038
   9.0071E+00   9.2262E+00   7.9467E-05  0.0038
   9.2262E+00   9.4507E+00   7.7356E-05  0.0038
   9.4507E+00   9.6807E+00   7.4418E-05  0.0039
   9.6807E+00   9.9162E+00   7.2806E-05  0.0039
   9.9162E+00   1.0157E+01   7.3701E-05  0.0038
   1.0157E+01   1.0405E+01   7.0888E-05  0.0038
   1.0405E+01   1.0658E+01   6.9221E-05  0.0038
   1.0658E+01   1.0917E+01   6.6219E-05  0.0039
   1.0917E+01   1.1183E+01   6.3208E-05  0.0039
   1.1183E+01   1.1455E+01   6.1137E-05  0.0039
   1.1455E+01   1.1733E+01   5.9035E-05  0.0039
   1.1733E+01   1.2019E+01   5.6849E-05  0.0040
   1.2019E+01   1.2311E+01   5.4951E-05  0.0040
   1.2311E+01   1.2611E+01   5.2369E-05  0.0040
   1.2611E+01   1.2918E+01   4.9887E-05  0.0041
   1.2918E+01   1.3232E+01   4.8135E-05  0.0041
   1.3232E+01   1.3554E+01   4.5821E-05  0.0042
   1.3554E+01   1.3884E+01   4.3488E-05  0.0042
   1.3884E+01   1.4222E+01   4.1850E-05  0.0043
   1.4222E+01   1.4568E+01   3.9226E-05  0.0043
   1.4568E+01   1.4922E+01   3.7578E-05  0.0044
   1.4922E+01   1.5285E+01   3.5345E-05  0.0045
   1.5285E+01   1.5657E+01   3.3328E-05  0.0045
   1.5657E+01   1.6038E+01   3.1297E-05  0.0046
   1.6038E+01   1.6428E+01   2.9594E-05  0.0047
   1.6428E+01   1.6828E+01   2.7548E-05  0.0048
   1.6828E+01   1.7237E+01   2.5859E-05  0.0049
   1.7237E+01   1.7657E+01   2.4227E-05  0.0050
   1.7657E+01   1.8086E+01   2.2590E-05  0.0051
   1.8086E+01   1.8526E+01   2.0839E-05  0.0053
   1.8526E+01   1.8977E+01   1.9289E-05  0.0054
   1.8977E+01   1.9439E+01   1.7840E-05  0.0056
   1.9439E+01   1.9912E+01   1.6294E-05  0.0058
   1.9912E+01   2.0396E+01   1.5125E-05  0.0059
   2.0396E+01   2.0893E+01   1.3702E-05  0.0061
   2.0893E+01   2.1401E+01   1.2448E-05  0.0064
   2.1401E+01   2.1922E+01   1.1261E-05  0.0066
   2.1922E+01   2.2455E+01   1.0064E-05  0.0069
   2.2455E+01   2.3001E+01   8.9752E-06  0.0072
   2.3001E+01   2.3561E+01   8.2315E-06  0.0075
   2.3561E+01   2.4134E+01   9.4552E-06  0.0069
   2.4134E+01   2.4721E+01   1.4510E-05  0.0055
   2.4721E+01   2.5323E+01   1.7660E-05  0.0049
   2.5323E+01   2.5939E+01   1.7022E-05  0.0049
   2.5939E+01   2.6570E+01   1.6226E-05  0.0050
   2.6570E+01   2.7217E+01   1.5260E-05  0.0051
   2.7217E+01   2.7879E+01   1.4576E-05  0.0052
   2.7879E+01   2.8557E+01   1.3703E-05  0.0053
   2.8557E+01   2.9252E+01   1.2904E-05  0.0053
   2.9252E+01   2.9964E+01   1.2045E-05  0.0055
   2.9964E+01   3.0693E+01   1.1360E-05  0.0056
   3.0693E+01   3.1440E+01   1.0606E-05  0.0057
   3.1440E+01   3.2205E+01   9.8307E-06  0.0058
   3.2205E+01   3.2988E+01   9.2487E-06  0.0059
   3.2988E+01   3.3791E+01   8.6038E-06  0.0061
   3.3791E+01   3.4613E+01   8.2354E-06  0.0062
   3.4613E+01   3.5455E+01   7.6939E-06  0.0063
   3.5455E+01   3.6318E+01   4.8577E-06  0.0078
   3.6318E+01   3.7201E+01   9.2334E-07  0.0177
   3.7201E+01   3.8106E+01   1.2011E-07  0.0486
   3.8106E+01   3.9034E+01   1.2722E-08  0.1474
   3.9034E+01   3.9983E+01   5.3997E-10  0.7071
   3.9983E+01   4.0956E+01   1.0543E-09  0.5000
   4.0956E+01   4.1953E+01   5.1462E-10  0.7071
   4.1953E+01   4.2973E+01   0.0000E+00  0.0000
   4.2973E+01   4.4019E+01   0.0000E+00  0.0000
   4.4019E+01   4.5090E+01   2.3941E-10  1.0000
   4.5090E+01   4.6187E+01   0.0000E+00  0.0000
   4.6187E+01   4.7311E+01   0.0000E+00  0.0000
   4.7311E+01   4.8462E+01   0.0000E+00  0.0000
   4.8462E+01   4.9641E+01   0.0000E+00  0.0000
   4.9641E+01   5.0849E+01   0.0000E+00  0.0000
   5.0849E+01   5.2086E+01   0.0000E+00  0.0000
   5.2086E+01   5.3353E+01   0.0000E+00  0.0000
   5.3353E+01   5.4651E+01   0.0000E+00  0.0000
   5.4651E+01   5.5981E+01   0.0000E+00  0.0000
   5.5981E+01   5.7343E+01   0.0000E+00  0.0000
   5.7343E+01   5.8738E+01   0.0000E+00  0.0000
   5.8738E+01   6.0168E+01   0.0000E+00  0.0000
   6.0168E+01   6.1632E+01   0.0000E+00  0.0000
   6.1632E+01   6.3131E+01   0.0000E+00  0.0000
   6.3131E+01   6.4667E+01   0.0000E+00  0.0000
   6.4667E+01   6.6240E+01   0.0000E+00  0.0000
   6.6240E+01   6.7852E+01   0.0000E+00  0.0000
   6.7852E+01   6.9503E+01   0.0000E+00  0.0000
   6.9503E+01   7.1194E+01   0.0000E+00  0.0000
   7.1194E+01   7.2926E+01   0.0000E+00  0.0000
   7.2926E+01   7.4701E+01   0.0000E+00  0.0000
   7.4701E+01   7.6518E+01   0.0000E+00  0.0000
   7.6518E+01   7.8380E+01   0.0000E+00  0.0000
   7.8380E+01   8.0287E+01   0.0000E+00  0.0000
   8.0287E+01   8.2240E+01   0.0000E+00  0.0000
   8.2240E+01   8.4241E+01   0.0000E+00  0.0000
   8.4241E+01   8.6291E+01   0.0000E+00  0.0000
   8.6291E+01   8.8391E+01   0.0000E+00  0.0000
   8.8391E+01   9.0541E+01   0.0000E+00  0.0000
   9.0541E+01   9.2744E+01   0.0000E+00  0.0000
   9.2744E+01   9.5001E+01   0.0000E+00  0.0000
   9.5001E+01   9.7312E+01   0.0000E+00  0.0000
   9.7312E+01   9.9680E+01   0.0000E+00  0.0000
   9.9680E+01   1.0211E+02   0.0000E+00  0.0000
   1.0211E+02   1.0459E+02   0.0000E+00  0.0000
   1.0459E+02   1.0713E+02   0.0000E+00  0.0000
   1.0713E+02   1.0974E+02   0.0000E+00  0.0000
   1.0974E+02   1.1241E+02   0.0000E+00  0.0000
   1.1241E+02   1.1515E+02   0.0000E+00  0.0000
   1.1515E+02   1.1795E+02   0.0000E+00  0.0000
   1.1795E+02   1.2082E+02   0.0000E+00  0.0000
   1.2082E+02   1.2376E+02   0.0000E+00  0.0000
   1.2376E+02   1.2677E+02   0.0000E+00  0.0000
   1.2677E+02   1.2985E+02   0.0000E+00  0.0000
   1.2985E+02   1.3301E+02   0.0000E+00  0.0000
   1.3301E+02   1.3625E+02   0.0000E+00  0.0000
   1.3625E+02   1.3956E+02   0.0000E+00  0.0000
   1.3956E+02   1.4296E+02   0.0000E+00  0.0000
   1.4296E+02   1.4644E+02   0.0000E+00  0.0000
   1.4644E+02   1.5000E+02   0.0000E+00  0.0000

#   sum over                 1.3148E-05
'no. =    1   reg = 110 - 210'
msuc: {\huge [t-cross] in region mesh}
msdr: {\it plotted by \ANGEL \version}
msdl: {\it calculated by \PHITS  3.26}
wt: s(0.7)
\vspace{-3}
  region surface crossing
  area  &=&   1.0000E+00 [cm^2]
e:
 
# Information for Restart Calculation
# This calculation was newly started
# istdev =  2 # 1:Batch variance, 2:History variance
# resc2  = 3.90000000000000000E+09 # Total source weight or Total source weight / maxcas
# resc3  = 3.90000000000000000E+09 # Total history number or Total batch number
# maxcas =   100000000 # History / Batch, only used for istdev=1
# bitrseed = 1001000100011001100110111101101111001101001011101000111110000101 # bit data of rseed
