[ T-Cross ]
    title = [t-cross] in region mesh
     mesh =  reg            # mesh type is region-wise
      reg =    1            # number of crossing regions
      non     r-from    r-to       area
      1       107       207        1.000000    
   e-type =    3            # e-mesh is log given by emin, emax and ne
     emin =  1.0000000E-02  # minimum value of e-mesh points
     emax =   150.0000      # maximum value of e-mesh points
#    edel =  2.4039514E-02  # mesh width of e-mesh points
       ne =    400          # number of e-mesh points
#    data = ( e(i), i = 1, ne + 1 )
#           1.00000E-02  1.02433E-02  1.04925E-02  1.07478E-02  1.10093E-02
#           1.12772E-02  1.15516E-02  1.18326E-02  1.21205E-02  1.24154E-02
#           1.27175E-02  1.30269E-02  1.33439E-02  1.36686E-02  1.40011E-02
#           1.43418E-02  1.46907E-02  1.50482E-02  1.54143E-02  1.57894E-02
#           1.61735E-02  1.65670E-02  1.69701E-02  1.73830E-02  1.78060E-02
#           1.82392E-02  1.86830E-02  1.91375E-02  1.96032E-02  2.00801E-02
#           2.05687E-02  2.10692E-02  2.15818E-02  2.21069E-02  2.26448E-02
#           2.31957E-02  2.37601E-02  2.43382E-02  2.49304E-02  2.55369E-02
#           2.61583E-02  2.67947E-02  2.74467E-02  2.81145E-02  2.87985E-02
#           2.94992E-02  3.02169E-02  3.09521E-02  3.17052E-02  3.24766E-02
#           3.32668E-02  3.40762E-02  3.49053E-02  3.57546E-02  3.66246E-02
#           3.75157E-02  3.84284E-02  3.93634E-02  4.03212E-02  4.13022E-02
#           4.23071E-02  4.33365E-02  4.43909E-02  4.54710E-02  4.65773E-02
#           4.77106E-02  4.88714E-02  5.00605E-02  5.12785E-02  5.25262E-02
#           5.38042E-02  5.51133E-02  5.64542E-02  5.78278E-02  5.92348E-02
#           6.06760E-02  6.21523E-02  6.36645E-02  6.52135E-02  6.68002E-02
#           6.84255E-02  7.00904E-02  7.17957E-02  7.35426E-02  7.53319E-02
#           7.71648E-02  7.90423E-02  8.09655E-02  8.29354E-02  8.49533E-02
#           8.70203E-02  8.91376E-02  9.13064E-02  9.35279E-02  9.58035E-02
#           9.81345E-02  1.00522E-01  1.02968E-01  1.05473E-01  1.08040E-01
#           1.10668E-01  1.13361E-01  1.16119E-01  1.18944E-01  1.21838E-01
#           1.24803E-01  1.27839E-01  1.30950E-01  1.34136E-01  1.37399E-01
#           1.40742E-01  1.44167E-01  1.47675E-01  1.51268E-01  1.54948E-01
#           1.58718E-01  1.62580E-01  1.66535E-01  1.70587E-01  1.74738E-01
#           1.78989E-01  1.83344E-01  1.87805E-01  1.92375E-01  1.97055E-01
#           2.01850E-01  2.06761E-01  2.11792E-01  2.16945E-01  2.22223E-01
#           2.27630E-01  2.33169E-01  2.38842E-01  2.44653E-01  2.50605E-01
#           2.56703E-01  2.62949E-01  2.69346E-01  2.75900E-01  2.82613E-01
#           2.89489E-01  2.96532E-01  3.03747E-01  3.11138E-01  3.18708E-01
#           3.26462E-01  3.34405E-01  3.42542E-01  3.50876E-01  3.59413E-01
#           3.68158E-01  3.77116E-01  3.86291E-01  3.95690E-01  4.05317E-01
#           4.15179E-01  4.25281E-01  4.35628E-01  4.46227E-01  4.57084E-01
#           4.68205E-01  4.79597E-01  4.91266E-01  5.03219E-01  5.15463E-01
#           5.28005E-01  5.40851E-01  5.54011E-01  5.67490E-01  5.81298E-01
#           5.95441E-01  6.09929E-01  6.24769E-01  6.39970E-01  6.55541E-01
#           6.71491E-01  6.87828E-01  7.04564E-01  7.21706E-01  7.39266E-01
#           7.57253E-01  7.75678E-01  7.94551E-01  8.13883E-01  8.33685E-01
#           8.53969E-01  8.74747E-01  8.96030E-01  9.17831E-01  9.40163E-01
#           9.63038E-01  9.86469E-01  1.01047E+00  1.03506E+00  1.06024E+00
#           1.08604E+00  1.11246E+00  1.13953E+00  1.16725E+00  1.19565E+00
#           1.22474E+00  1.25454E+00  1.28507E+00  1.31633E+00  1.34836E+00
#           1.38117E+00  1.41477E+00  1.44920E+00  1.48446E+00  1.52057E+00
#           1.55757E+00  1.59547E+00  1.63429E+00  1.67405E+00  1.71478E+00
#           1.75650E+00  1.79924E+00  1.84302E+00  1.88786E+00  1.93379E+00
#           1.98084E+00  2.02904E+00  2.07841E+00  2.12898E+00  2.18078E+00
#           2.23384E+00  2.28819E+00  2.34386E+00  2.40089E+00  2.45930E+00
#           2.51914E+00  2.58043E+00  2.64322E+00  2.70753E+00  2.77341E+00
#           2.84088E+00  2.91001E+00  2.98081E+00  3.05333E+00  3.12762E+00
#           3.20372E+00  3.28167E+00  3.36152E+00  3.44330E+00  3.52708E+00
#           3.61290E+00  3.70080E+00  3.79085E+00  3.88308E+00  3.97756E+00
#           4.07434E+00  4.17347E+00  4.27501E+00  4.37903E+00  4.48557E+00
#           4.59471E+00  4.70650E+00  4.82102E+00  4.93832E+00  5.05847E+00
#           5.18155E+00  5.30762E+00  5.43676E+00  5.56904E+00  5.70453E+00
#           5.84333E+00  5.98550E+00  6.13114E+00  6.28031E+00  6.43312E+00
#           6.58964E+00  6.74997E+00  6.91420E+00  7.08243E+00  7.25475E+00
#           7.43126E+00  7.61207E+00  7.79728E+00  7.98700E+00  8.18133E+00
#           8.38038E+00  8.58428E+00  8.79315E+00  9.00709E+00  9.22624E+00
#           9.45072E+00  9.68067E+00  9.91620E+00  1.01575E+01  1.04046E+01
#           1.06578E+01  1.09171E+01  1.11827E+01  1.14548E+01  1.17335E+01
#           1.20190E+01  1.23114E+01  1.26109E+01  1.29178E+01  1.32321E+01
#           1.35540E+01  1.38838E+01  1.42216E+01  1.45676E+01  1.49221E+01
#           1.52851E+01  1.56570E+01  1.60380E+01  1.64282E+01  1.68279E+01
#           1.72374E+01  1.76568E+01  1.80864E+01  1.85264E+01  1.89772E+01
#           1.94389E+01  1.99119E+01  2.03963E+01  2.08926E+01  2.14009E+01
#           2.19216E+01  2.24550E+01  2.30014E+01  2.35610E+01  2.41343E+01
#           2.47215E+01  2.53230E+01  2.59391E+01  2.65702E+01  2.72167E+01
#           2.78789E+01  2.85572E+01  2.92520E+01  2.99637E+01  3.06928E+01
#           3.14396E+01  3.22045E+01  3.29881E+01  3.37907E+01  3.46128E+01
#           3.54550E+01  3.63177E+01  3.72013E+01  3.81064E+01  3.90336E+01
#           3.99833E+01  4.09561E+01  4.19526E+01  4.29734E+01  4.40189E+01
#           4.50900E+01  4.61870E+01  4.73108E+01  4.84619E+01  4.96410E+01
#           5.08488E+01  5.20860E+01  5.33533E+01  5.46514E+01  5.59812E+01
#           5.73432E+01  5.87384E+01  6.01676E+01  6.16315E+01  6.31311E+01
#           6.46671E+01  6.62405E+01  6.78522E+01  6.95031E+01  7.11941E+01
#           7.29263E+01  7.47007E+01  7.65182E+01  7.83800E+01  8.02870E+01
#           8.22405E+01  8.42414E+01  8.62911E+01  8.83906E+01  9.05412E+01
#           9.27442E+01  9.50007E+01  9.73122E+01  9.96799E+01  1.02105E+02
#           1.04589E+02  1.07134E+02  1.09741E+02  1.12411E+02  1.15146E+02
#           1.17948E+02  1.20817E+02  1.23757E+02  1.26768E+02  1.29852E+02
#           1.33012E+02  1.36248E+02  1.39563E+02  1.42959E+02  1.46437E+02
#           1.50000E+02
     unit =    2            # unit is [1/cm^2/(MeV/n)/source]
     axis =  eng            # axis of output
     file = detector-08.out  # file name of output for the above axis
   output = f-curr          # surface crossing forward current spectrum
     part =  neutron  
# kf/name :  2112     
#    used :        main (  %)        temp (  %)       total (  %)
#  memory :         414 (  0)           0 (  0)         414 (  0)

#------------------------------------------------------------------------------
#newpage:
#   no. =    1   reg = 107 - 207

x: Energy [MeV/n]
y:  F-Curr [1/cm^2/(MeV/n)/source]         
p: xlog ylog afac(0.8) form(0.9)
h: n            x            y(neutron ),hh0l   n 
#  e-lower      e-upper      neutron     r.err 
   1.0000E-02   1.0243E-02   2.4296E-04  0.0658
   1.0243E-02   1.0493E-02   2.5713E-04  0.0632
   1.0493E-02   1.0748E-02   2.2854E-04  0.0662
   1.0748E-02   1.1009E-02   2.2522E-04  0.0658
   1.1009E-02   1.1277E-02   2.1700E-04  0.0664
   1.1277E-02   1.1552E-02   2.0781E-04  0.0670
   1.1552E-02   1.1833E-02   2.2689E-04  0.0634
   1.1833E-02   1.2121E-02   2.0477E-04  0.0659
   1.2121E-02   1.2415E-02   2.3188E-04  0.0611
   1.2415E-02   1.2718E-02   2.0527E-04  0.0643
   1.2718E-02   1.3027E-02   2.2517E-04  0.0606
   1.3027E-02   1.3344E-02   1.9064E-04  0.0651
   1.3344E-02   1.3669E-02   2.0836E-04  0.0615
   1.3669E-02   1.4001E-02   1.7494E-04  0.0664
   1.4001E-02   1.4342E-02   1.7063E-04  0.0664
   1.4342E-02   1.4691E-02   1.8658E-04  0.0627
   1.4691E-02   1.5048E-02   1.8648E-04  0.0619
   1.5048E-02   1.5414E-02   1.8947E-04  0.0608
   1.5414E-02   1.5789E-02   1.8296E-04  0.0611
   1.5789E-02   1.6174E-02   1.5923E-04  0.0647
   1.6174E-02   1.6567E-02   1.6348E-04  0.0631
   1.6567E-02   1.6970E-02   1.3599E-04  0.0684
   1.6970E-02   1.7383E-02   1.2788E-04  0.0697
   1.7383E-02   1.7806E-02   1.4769E-04  0.0640
   1.7806E-02   1.8239E-02   1.6427E-04  0.0600
   1.8239E-02   1.8683E-02   1.6225E-04  0.0597
   1.8683E-02   1.9138E-02   1.2970E-04  0.0659
   1.9138E-02   1.9603E-02   1.4508E-04  0.0616
   1.9603E-02   2.0080E-02   1.4101E-04  0.0617
   2.0080E-02   2.0569E-02   1.2497E-04  0.0648
   2.0569E-02   2.1069E-02   1.2481E-04  0.0640
   2.1069E-02   2.1582E-02   1.1739E-04  0.0652
   2.1582E-02   2.2107E-02   1.3130E-04  0.0609
   2.2107E-02   2.2645E-02   1.2270E-04  0.0623
   2.2645E-02   2.3196E-02   1.3378E-04  0.0589
   2.3196E-02   2.3760E-02   1.1686E-04  0.0623
   2.3760E-02   2.4338E-02   1.1392E-04  0.0623
   2.4338E-02   2.4930E-02   1.1108E-04  0.0624
   2.4930E-02   2.5537E-02   1.0532E-04  0.0633
   2.5537E-02   2.6158E-02   1.0559E-04  0.0625
   2.6158E-02   2.6795E-02   8.9070E-05  0.0672
   2.6795E-02   2.7447E-02   1.1128E-04  0.0594
   2.7447E-02   2.8114E-02   9.7353E-05  0.0628
   2.8114E-02   2.8799E-02   9.6545E-05  0.0623
   2.8799E-02   2.9499E-02   1.1440E-04  0.0565
   2.9499E-02   3.0217E-02   8.3783E-05  0.0651
   3.0217E-02   3.0952E-02   8.4754E-05  0.0640
   3.0952E-02   3.1705E-02   8.3009E-05  0.0640
   3.1705E-02   3.2477E-02   8.0647E-05  0.0642
   3.2477E-02   3.3267E-02   8.1119E-05  0.0632
   3.3267E-02   3.4076E-02   8.4895E-05  0.0610
   3.4076E-02   3.4905E-02   8.5489E-05  0.0601
   3.4905E-02   3.5755E-02   8.3895E-05  0.0600
   3.5755E-02   3.6625E-02   7.8072E-05  0.0614
   3.6625E-02   3.7516E-02   7.2668E-05  0.0629
   3.7516E-02   3.8428E-02   7.4011E-05  0.0616
   3.8428E-02   3.9363E-02   7.4813E-05  0.0605
   3.9363E-02   4.0321E-02   6.9752E-05  0.0619
   4.0321E-02   4.1302E-02   7.5691E-05  0.0587
   4.1302E-02   4.2307E-02   6.4149E-05  0.0630
   4.2307E-02   4.3337E-02   6.6592E-05  0.0610
   4.3337E-02   4.4391E-02   7.0664E-05  0.0586
   4.4391E-02   4.5471E-02   6.8473E-05  0.0588
   4.5471E-02   4.6577E-02   6.1673E-05  0.0613
   4.6577E-02   4.7711E-02   6.0580E-05  0.0610
   4.7711E-02   4.8871E-02   5.7866E-05  0.0617
   4.8871E-02   5.0061E-02   5.8515E-05  0.0607
   5.0061E-02   5.1279E-02   5.2268E-05  0.0633
   5.1279E-02   5.2526E-02   5.9226E-05  0.0588
   5.2526E-02   5.3804E-02   4.6506E-05  0.0657
   5.3804E-02   5.5113E-02   4.9689E-05  0.0627
   5.5113E-02   5.6454E-02   5.5799E-05  0.0585
   5.6454E-02   5.7828E-02   5.3479E-05  0.0590
   5.7828E-02   5.9235E-02   4.6773E-05  0.0624
   5.9235E-02   6.0676E-02   4.9732E-05  0.0597
   6.0676E-02   6.2152E-02   4.9107E-05  0.0594
   6.2152E-02   6.3665E-02   4.7332E-05  0.0598
   6.3665E-02   6.5214E-02   4.3626E-05  0.0615
   6.5214E-02   6.6800E-02   4.4588E-05  0.0601
   6.6800E-02   6.8426E-02   4.5057E-05  0.0591
   6.8426E-02   7.0090E-02   4.0296E-05  0.0618
   7.0090E-02   7.1796E-02   4.0110E-05  0.0612
   7.1796E-02   7.3543E-02   4.2294E-05  0.0589
   7.3543E-02   7.5332E-02   3.9388E-05  0.0603
   7.5332E-02   7.7165E-02   3.9283E-05  0.0597
   7.7165E-02   7.9042E-02   4.1249E-05  0.0575
   7.9042E-02   8.0965E-02   3.9427E-05  0.0581
   8.0965E-02   8.2935E-02   3.9182E-05  0.0576
   8.2935E-02   8.4953E-02   3.7435E-05  0.0582
   8.4953E-02   8.7020E-02   3.7912E-05  0.0572
   8.7020E-02   8.9138E-02   2.9582E-05  0.0639
   8.9138E-02   9.1306E-02   3.3729E-05  0.0591
   9.1306E-02   9.3528E-02   3.3592E-05  0.0585
   9.3528E-02   9.5804E-02   3.4743E-05  0.0569
   9.5804E-02   9.8134E-02   3.3972E-05  0.0569
   9.8134E-02   1.0052E-01   3.2898E-05  0.0571
   1.0052E-01   1.0297E-01   3.2479E-05  0.0568
   1.0297E-01   1.0547E-01   3.2953E-05  0.0557
   1.0547E-01   1.0804E-01   3.4391E-05  0.0538
   1.0804E-01   1.1067E-01   3.3028E-05  0.0543
   1.1067E-01   1.1336E-01   3.6466E-05  0.0510
   1.1336E-01   1.1612E-01   3.8908E-05  0.0489
   1.1612E-01   1.1894E-01   4.2986E-05  0.0459
   1.1894E-01   1.2184E-01   4.2301E-05  0.0457
   1.2184E-01   1.2480E-01   3.9808E-05  0.0465
   1.2480E-01   1.2784E-01   4.6641E-05  0.0425
   1.2784E-01   1.3095E-01   4.4681E-05  0.0429
   1.3095E-01   1.3414E-01   4.3997E-05  0.0427
   1.3414E-01   1.3740E-01   4.6039E-05  0.0413
   1.3740E-01   1.4074E-01   4.8156E-05  0.0399
   1.4074E-01   1.4417E-01   4.8404E-05  0.0393
   1.4417E-01   1.4767E-01   5.2701E-05  0.0372
   1.4767E-01   1.5127E-01   5.6695E-05  0.0355
   1.5127E-01   1.5495E-01   5.5593E-05  0.0354
   1.5495E-01   1.5872E-01   5.5170E-05  0.0351
   1.5872E-01   1.6258E-01   6.1017E-05  0.0330
   1.6258E-01   1.6654E-01   6.3636E-05  0.0319
   1.6654E-01   1.7059E-01   6.3599E-05  0.0315
   1.7059E-01   1.7474E-01   6.4158E-05  0.0310
   1.7474E-01   1.7899E-01   6.3433E-05  0.0308
   1.7899E-01   1.8334E-01   6.6183E-05  0.0298
   1.8334E-01   1.8781E-01   6.9586E-05  0.0287
   1.8781E-01   1.9237E-01   6.9921E-05  0.0283
   1.9237E-01   1.9706E-01   7.5459E-05  0.0269
   1.9706E-01   2.0185E-01   7.3066E-05  0.0270
   2.0185E-01   2.0676E-01   7.3688E-05  0.0266
   2.0676E-01   2.1179E-01   7.9638E-05  0.0253
   2.1179E-01   2.1694E-01   7.9616E-05  0.0250
   2.1694E-01   2.2222E-01   8.3294E-05  0.0241
   2.2222E-01   2.2763E-01   8.5035E-05  0.0236
   2.2763E-01   2.3317E-01   8.5121E-05  0.0233
   2.3317E-01   2.3884E-01   9.1234E-05  0.0222
   2.3884E-01   2.4465E-01   8.5000E-05  0.0228
   2.4465E-01   2.5061E-01   9.0518E-05  0.0218
   2.5061E-01   2.5670E-01   9.5957E-05  0.0209
   2.5670E-01   2.6295E-01   9.4889E-05  0.0208
   2.6295E-01   2.6935E-01   9.5809E-05  0.0204
   2.6935E-01   2.7590E-01   9.8714E-05  0.0199
   2.7590E-01   2.8261E-01   1.0051E-04  0.0195
   2.8261E-01   2.8949E-01   1.0373E-04  0.0189
   2.8949E-01   2.9653E-01   1.0952E-04  0.0182
   2.9653E-01   3.0375E-01   1.0840E-04  0.0181
   3.0375E-01   3.1114E-01   1.1049E-04  0.0177
   3.1114E-01   3.1871E-01   1.1066E-04  0.0175
   3.1871E-01   3.2646E-01   1.1677E-04  0.0168
   3.2646E-01   3.3441E-01   1.1577E-04  0.0167
   3.3441E-01   3.4254E-01   1.2387E-04  0.0159
   3.4254E-01   3.5088E-01   1.2118E-04  0.0159
   3.5088E-01   3.5941E-01   1.2641E-04  0.0154
   3.5941E-01   3.6816E-01   1.2752E-04  0.0151
   3.6816E-01   3.7712E-01   1.3231E-04  0.0147
   3.7712E-01   3.8629E-01   1.3022E-04  0.0146
   3.8629E-01   3.9569E-01   1.3697E-04  0.0141
   3.9569E-01   4.0532E-01   1.3853E-04  0.0138
   4.0532E-01   4.1518E-01   1.3865E-04  0.0137
   4.1518E-01   4.2528E-01   1.4106E-04  0.0134
   4.2528E-01   4.3563E-01   1.4303E-04  0.0131
   4.3563E-01   4.4623E-01   1.4647E-04  0.0128
   4.4623E-01   4.5708E-01   1.4905E-04  0.0126
   4.5708E-01   4.6821E-01   1.4646E-04  0.0125
   4.6821E-01   4.7960E-01   1.5007E-04  0.0122
   4.7960E-01   4.9127E-01   1.5234E-04  0.0120
   4.9127E-01   5.0322E-01   1.5540E-04  0.0117
   5.0322E-01   5.1546E-01   1.5600E-04  0.0116
   5.1546E-01   5.2800E-01   1.5860E-04  0.0113
   5.2800E-01   5.4085E-01   1.6268E-04  0.0111
   5.4085E-01   5.5401E-01   1.6290E-04  0.0109
   5.5401E-01   5.6749E-01   1.6833E-04  0.0106
   5.6749E-01   5.8130E-01   1.6765E-04  0.0105
   5.8130E-01   5.9544E-01   1.6650E-04  0.0104
   5.9544E-01   6.0993E-01   1.7297E-04  0.0101
   6.0993E-01   6.2477E-01   1.7050E-04  0.0100
   6.2477E-01   6.3997E-01   1.7840E-04  0.0097
   6.3997E-01   6.5554E-01   1.7900E-04  0.0096
   6.5554E-01   6.7149E-01   1.7917E-04  0.0095
   6.7149E-01   6.8783E-01   1.8070E-04  0.0093
   6.8783E-01   7.0456E-01   1.8515E-04  0.0091
   7.0456E-01   7.2171E-01   1.8422E-04  0.0090
   7.2171E-01   7.3927E-01   1.8646E-04  0.0088
   7.3927E-01   7.5725E-01   1.9080E-04  0.0086
   7.5725E-01   7.7568E-01   1.8900E-04  0.0086
   7.7568E-01   7.9455E-01   1.9108E-04  0.0084
   7.9455E-01   8.1388E-01   1.9549E-04  0.0082
   8.1388E-01   8.3368E-01   1.9793E-04  0.0081
   8.3368E-01   8.5397E-01   1.9759E-04  0.0080
   8.5397E-01   8.7475E-01   1.9901E-04  0.0079
   8.7475E-01   8.9603E-01   1.9924E-04  0.0078
   8.9603E-01   9.1783E-01   2.0096E-04  0.0076
   9.1783E-01   9.4016E-01   2.0543E-04  0.0075
   9.4016E-01   9.6304E-01   2.0225E-04  0.0074
   9.6304E-01   9.8647E-01   2.0365E-04  0.0073
   9.8647E-01   1.0105E+00   2.0247E-04  0.0072
   1.0105E+00   1.0351E+00   2.0368E-04  0.0071
   1.0351E+00   1.0602E+00   2.0272E-04  0.0071
   1.0602E+00   1.0860E+00   2.0511E-04  0.0069
   1.0860E+00   1.1125E+00   2.0463E-04  0.0069
   1.1125E+00   1.1395E+00   2.0597E-04  0.0068
   1.1395E+00   1.1673E+00   2.0824E-04  0.0066
   1.1673E+00   1.1957E+00   2.1074E-04  0.0065
   1.1957E+00   1.2247E+00   2.1235E-04  0.0064
   1.2247E+00   1.2545E+00   2.1489E-04  0.0063
   1.2545E+00   1.2851E+00   2.1315E-04  0.0063
   1.2851E+00   1.3163E+00   2.1315E-04  0.0062
   1.3163E+00   1.3484E+00   2.1875E-04  0.0060
   1.3484E+00   1.3812E+00   2.1795E-04  0.0060
   1.3812E+00   1.4148E+00   2.1916E-04  0.0059
   1.4148E+00   1.4492E+00   2.1646E-04  0.0058
   1.4492E+00   1.4845E+00   2.1728E-04  0.0058
   1.4845E+00   1.5206E+00   2.2063E-04  0.0056
   1.5206E+00   1.5576E+00   2.2012E-04  0.0056
   1.5576E+00   1.5955E+00   2.2162E-04  0.0055
   1.5955E+00   1.6343E+00   2.2078E-04  0.0054
   1.6343E+00   1.6741E+00   2.1954E-04  0.0054
   1.6741E+00   1.7148E+00   2.2100E-04  0.0053
   1.7148E+00   1.7565E+00   2.1774E-04  0.0053
   1.7565E+00   1.7992E+00   2.1579E-04  0.0052
   1.7992E+00   1.8430E+00   2.0642E-04  0.0053
   1.8430E+00   1.8879E+00   2.0324E-04  0.0053
   1.8879E+00   1.9338E+00   2.0162E-04  0.0052
   1.9338E+00   1.9808E+00   2.0036E-04  0.0052
   1.9808E+00   2.0290E+00   1.9677E-04  0.0051
   2.0290E+00   2.0784E+00   1.9528E-04  0.0051
   2.0784E+00   2.1290E+00   1.9646E-04  0.0050
   2.1290E+00   2.1808E+00   1.9968E-04  0.0049
   2.1808E+00   2.2338E+00   2.0438E-04  0.0048
   2.2338E+00   2.2882E+00   2.0151E-04  0.0048
   2.2882E+00   2.3439E+00   1.9749E-04  0.0048
   2.3439E+00   2.4009E+00   1.9519E-04  0.0047
   2.4009E+00   2.4593E+00   1.9434E-04  0.0047
   2.4593E+00   2.5191E+00   1.9357E-04  0.0047
   2.5191E+00   2.5804E+00   1.9348E-04  0.0046
   2.5804E+00   2.6432E+00   1.9241E-04  0.0046
   2.6432E+00   2.7075E+00   1.9146E-04  0.0045
   2.7075E+00   2.7734E+00   1.8994E-04  0.0045
   2.7734E+00   2.8409E+00   1.9040E-04  0.0044
   2.8409E+00   2.9100E+00   1.8701E-04  0.0044
   2.9100E+00   2.9808E+00   1.8484E-04  0.0044
   2.9808E+00   3.0533E+00   1.8728E-04  0.0043
   3.0533E+00   3.1276E+00   1.8570E-04  0.0043
   3.1276E+00   3.2037E+00   1.8397E-04  0.0042
   3.2037E+00   3.2817E+00   1.8282E-04  0.0042
   3.2817E+00   3.3615E+00   1.8275E-04  0.0042
   3.3615E+00   3.4433E+00   1.8236E-04  0.0041
   3.4433E+00   3.5271E+00   1.7967E-04  0.0041
   3.5271E+00   3.6129E+00   1.7856E-04  0.0041
   3.6129E+00   3.7008E+00   1.7958E-04  0.0040
   3.7008E+00   3.7908E+00   1.7809E-04  0.0040
   3.7908E+00   3.8831E+00   1.7693E-04  0.0039
   3.8831E+00   3.9776E+00   1.7545E-04  0.0039
   3.9776E+00   4.0743E+00   1.7482E-04  0.0039
   4.0743E+00   4.1735E+00   1.7238E-04  0.0038
   4.1735E+00   4.2750E+00   1.7104E-04  0.0038
   4.2750E+00   4.3790E+00   1.7005E-04  0.0038
   4.3790E+00   4.4856E+00   1.6733E-04  0.0038
   4.4856E+00   4.5947E+00   1.6510E-04  0.0037
   4.5947E+00   4.7065E+00   1.6382E-04  0.0037
   4.7065E+00   4.8210E+00   1.6265E-04  0.0037
   4.8210E+00   4.9383E+00   1.6154E-04  0.0037
   4.9383E+00   5.0585E+00   1.6026E-04  0.0036
   5.0585E+00   5.1815E+00   1.5866E-04  0.0036
   5.1815E+00   5.3076E+00   1.5697E-04  0.0036
   5.3076E+00   5.4368E+00   1.5785E-04  0.0035
   5.4368E+00   5.5690E+00   1.5482E-04  0.0035
   5.5690E+00   5.7045E+00   1.5389E-04  0.0035
   5.7045E+00   5.8433E+00   1.5362E-04  0.0034
   5.8433E+00   5.9855E+00   1.5285E-04  0.0034
   5.9855E+00   6.1311E+00   1.5009E-04  0.0034
   6.1311E+00   6.2803E+00   1.5001E-04  0.0034
   6.2803E+00   6.4331E+00   1.5010E-04  0.0033
   6.4331E+00   6.5896E+00   1.4832E-04  0.0033
   6.5896E+00   6.7500E+00   1.4746E-04  0.0033
   6.7500E+00   6.9142E+00   1.4650E-04  0.0032
   6.9142E+00   7.0824E+00   1.4522E-04  0.0032
   7.0824E+00   7.2548E+00   1.4490E-04  0.0032
   7.2548E+00   7.4313E+00   1.4386E-04  0.0032
   7.4313E+00   7.6121E+00   1.4298E-04  0.0031
   7.6121E+00   7.7973E+00   1.4174E-04  0.0031
   7.7973E+00   7.9870E+00   1.4040E-04  0.0031
   7.9870E+00   8.1813E+00   1.3890E-04  0.0031
   8.1813E+00   8.3804E+00   1.3831E-04  0.0030
   8.3804E+00   8.5843E+00   1.3782E-04  0.0030
   8.5843E+00   8.7931E+00   1.3610E-04  0.0030
   8.7931E+00   9.0071E+00   1.3450E-04  0.0030
   9.0071E+00   9.2262E+00   1.3291E-04  0.0030
   9.2262E+00   9.4507E+00   1.3134E-04  0.0029
   9.4507E+00   9.6807E+00   1.2981E-04  0.0029
   9.6807E+00   9.9162E+00   1.2979E-04  0.0029
   9.9162E+00   1.0157E+01   1.3103E-04  0.0028
   1.0157E+01   1.0405E+01   1.2969E-04  0.0028
   1.0405E+01   1.0658E+01   1.2791E-04  0.0028
   1.0658E+01   1.0917E+01   1.2426E-04  0.0028
   1.0917E+01   1.1183E+01   1.2228E-04  0.0028
   1.1183E+01   1.1455E+01   1.1975E-04  0.0028
   1.1455E+01   1.1733E+01   1.1777E-04  0.0028
   1.1733E+01   1.2019E+01   1.1655E-04  0.0028
   1.2019E+01   1.2311E+01   1.1441E-04  0.0028
   1.2311E+01   1.2611E+01   1.1200E-04  0.0028
   1.2611E+01   1.2918E+01   1.1010E-04  0.0028
   1.2918E+01   1.3232E+01   1.0794E-04  0.0027
   1.3232E+01   1.3554E+01   1.0575E-04  0.0027
   1.3554E+01   1.3884E+01   1.0365E-04  0.0027
   1.3884E+01   1.4222E+01   1.0122E-04  0.0027
   1.4222E+01   1.4568E+01   9.9046E-05  0.0027
   1.4568E+01   1.4922E+01   9.6481E-05  0.0027
   1.4922E+01   1.5285E+01   9.3546E-05  0.0027
   1.5285E+01   1.5657E+01   9.0783E-05  0.0028
   1.5657E+01   1.6038E+01   8.8449E-05  0.0028
   1.6038E+01   1.6428E+01   8.5514E-05  0.0028
   1.6428E+01   1.6828E+01   8.3453E-05  0.0028
   1.6828E+01   1.7237E+01   8.0539E-05  0.0028
   1.7237E+01   1.7657E+01   7.7429E-05  0.0028
   1.7657E+01   1.8086E+01   7.5274E-05  0.0028
   1.8086E+01   1.8526E+01   7.2344E-05  0.0028
   1.8526E+01   1.8977E+01   6.9346E-05  0.0029
   1.8977E+01   1.9439E+01   6.6610E-05  0.0029
   1.9439E+01   1.9912E+01   6.4040E-05  0.0029
   1.9912E+01   2.0396E+01   6.1335E-05  0.0029
   2.0396E+01   2.0893E+01   5.8670E-05  0.0030
   2.0893E+01   2.1401E+01   5.5645E-05  0.0030
   2.1401E+01   2.1922E+01   5.2459E-05  0.0031
   2.1922E+01   2.2455E+01   4.9556E-05  0.0031
   2.2455E+01   2.3001E+01   4.6091E-05  0.0032
   2.3001E+01   2.3561E+01   4.3247E-05  0.0033
   2.3561E+01   2.4134E+01   4.0127E-05  0.0033
   2.4134E+01   2.4721E+01   3.7042E-05  0.0034
   2.4721E+01   2.5323E+01   3.4046E-05  0.0035
   2.5323E+01   2.5939E+01   3.1097E-05  0.0037
   2.5939E+01   2.6570E+01   2.8120E-05  0.0038
   2.6570E+01   2.7217E+01   2.7526E-05  0.0038
   2.7217E+01   2.7879E+01   3.0528E-05  0.0036
   2.7879E+01   2.8557E+01   2.9067E-05  0.0036
   2.8557E+01   2.9252E+01   2.6499E-05  0.0037
   2.9252E+01   2.9964E+01   2.3753E-05  0.0039
   2.9964E+01   3.0693E+01   2.1455E-05  0.0040
   3.0693E+01   3.1440E+01   1.9249E-05  0.0042
   3.1440E+01   3.2205E+01   1.7049E-05  0.0044
   3.2205E+01   3.2988E+01   1.5444E-05  0.0046
   3.2988E+01   3.3791E+01   1.3796E-05  0.0048
   3.3791E+01   3.4613E+01   1.2608E-05  0.0050
   3.4613E+01   3.5455E+01   1.1584E-05  0.0051
   3.5455E+01   3.6318E+01   1.0757E-05  0.0053
   3.6318E+01   3.7201E+01   9.9646E-06  0.0054
   3.7201E+01   3.8106E+01   9.4724E-06  0.0055
   3.8106E+01   3.9034E+01   8.9017E-06  0.0056
   3.9034E+01   3.9983E+01   6.6133E-06  0.0064
   3.9983E+01   4.0956E+01   7.4064E-07  0.0189
   4.0956E+01   4.1953E+01   2.0585E-09  0.3536
   4.1953E+01   4.2973E+01   1.0048E-09  0.5000
   4.2973E+01   4.4019E+01   0.0000E+00  0.0000
   4.4019E+01   4.5090E+01   4.7882E-10  0.7071
   4.5090E+01   4.6187E+01   2.3372E-10  1.0000
   4.6187E+01   4.7311E+01   0.0000E+00  0.0000
   4.7311E+01   4.8462E+01   0.0000E+00  0.0000
   4.8462E+01   4.9641E+01   0.0000E+00  0.0000
   4.9641E+01   5.0849E+01   0.0000E+00  0.0000
   5.0849E+01   5.2086E+01   0.0000E+00  0.0000
   5.2086E+01   5.3353E+01   0.0000E+00  0.0000
   5.3353E+01   5.4651E+01   0.0000E+00  0.0000
   5.4651E+01   5.5981E+01   0.0000E+00  0.0000
   5.5981E+01   5.7343E+01   0.0000E+00  0.0000
   5.7343E+01   5.8738E+01   0.0000E+00  0.0000
   5.8738E+01   6.0168E+01   0.0000E+00  0.0000
   6.0168E+01   6.1632E+01   0.0000E+00  0.0000
   6.1632E+01   6.3131E+01   0.0000E+00  0.0000
   6.3131E+01   6.4667E+01   0.0000E+00  0.0000
   6.4667E+01   6.6240E+01   0.0000E+00  0.0000
   6.6240E+01   6.7852E+01   0.0000E+00  0.0000
   6.7852E+01   6.9503E+01   0.0000E+00  0.0000
   6.9503E+01   7.1194E+01   0.0000E+00  0.0000
   7.1194E+01   7.2926E+01   0.0000E+00  0.0000
   7.2926E+01   7.4701E+01   0.0000E+00  0.0000
   7.4701E+01   7.6518E+01   0.0000E+00  0.0000
   7.6518E+01   7.8380E+01   0.0000E+00  0.0000
   7.8380E+01   8.0287E+01   0.0000E+00  0.0000
   8.0287E+01   8.2240E+01   0.0000E+00  0.0000
   8.2240E+01   8.4241E+01   0.0000E+00  0.0000
   8.4241E+01   8.6291E+01   0.0000E+00  0.0000
   8.6291E+01   8.8391E+01   0.0000E+00  0.0000
   8.8391E+01   9.0541E+01   0.0000E+00  0.0000
   9.0541E+01   9.2744E+01   0.0000E+00  0.0000
   9.2744E+01   9.5001E+01   0.0000E+00  0.0000
   9.5001E+01   9.7312E+01   0.0000E+00  0.0000
   9.7312E+01   9.9680E+01   0.0000E+00  0.0000
   9.9680E+01   1.0211E+02   0.0000E+00  0.0000
   1.0211E+02   1.0459E+02   0.0000E+00  0.0000
   1.0459E+02   1.0713E+02   0.0000E+00  0.0000
   1.0713E+02   1.0974E+02   0.0000E+00  0.0000
   1.0974E+02   1.1241E+02   0.0000E+00  0.0000
   1.1241E+02   1.1515E+02   0.0000E+00  0.0000
   1.1515E+02   1.1795E+02   0.0000E+00  0.0000
   1.1795E+02   1.2082E+02   0.0000E+00  0.0000
   1.2082E+02   1.2376E+02   0.0000E+00  0.0000
   1.2376E+02   1.2677E+02   0.0000E+00  0.0000
   1.2677E+02   1.2985E+02   0.0000E+00  0.0000
   1.2985E+02   1.3301E+02   0.0000E+00  0.0000
   1.3301E+02   1.3625E+02   0.0000E+00  0.0000
   1.3625E+02   1.3956E+02   0.0000E+00  0.0000
   1.3956E+02   1.4296E+02   0.0000E+00  0.0000
   1.4296E+02   1.4644E+02   0.0000E+00  0.0000
   1.4644E+02   1.5000E+02   0.0000E+00  0.0000

#   sum over                 2.0450E-05
'no. =    1   reg = 107 - 207'
msuc: {\huge [t-cross] in region mesh}
msdr: {\it plotted by \ANGEL \version}
msdl: {\it calculated by \PHITS  3.26}
wt: s(0.7)
\vspace{-3}
  region surface crossing
  area  &=&   1.0000E+00 [cm^2]
e:
 
# Information for Restart Calculation
# This calculation was newly started
# istdev =  2 # 1:Batch variance, 2:History variance
# resc2  = 3.90000000000000000E+09 # Total source weight or Total source weight / maxcas
# resc3  = 3.90000000000000000E+09 # Total history number or Total batch number
# maxcas =   100000000 # History / Batch, only used for istdev=1
# bitrseed = 1001000100011001100110111101101111001101001011101000111110000101 # bit data of rseed
