[ T-Cross ]
    title = [t-cross] in region mesh
     mesh =  reg            # mesh type is region-wise
      reg =    1            # number of crossing regions
      non     r-from    r-to       area
      1       104       204        1.000000    
   e-type =    3            # e-mesh is log given by emin, emax and ne
     emin =  1.0000000E-02  # minimum value of e-mesh points
     emax =   150.0000      # maximum value of e-mesh points
#    edel =  2.4039514E-02  # mesh width of e-mesh points
       ne =    400          # number of e-mesh points
#    data = ( e(i), i = 1, ne + 1 )
#           1.00000E-02  1.02433E-02  1.04925E-02  1.07478E-02  1.10093E-02
#           1.12772E-02  1.15516E-02  1.18326E-02  1.21205E-02  1.24154E-02
#           1.27175E-02  1.30269E-02  1.33439E-02  1.36686E-02  1.40011E-02
#           1.43418E-02  1.46907E-02  1.50482E-02  1.54143E-02  1.57894E-02
#           1.61735E-02  1.65670E-02  1.69701E-02  1.73830E-02  1.78060E-02
#           1.82392E-02  1.86830E-02  1.91375E-02  1.96032E-02  2.00801E-02
#           2.05687E-02  2.10692E-02  2.15818E-02  2.21069E-02  2.26448E-02
#           2.31957E-02  2.37601E-02  2.43382E-02  2.49304E-02  2.55369E-02
#           2.61583E-02  2.67947E-02  2.74467E-02  2.81145E-02  2.87985E-02
#           2.94992E-02  3.02169E-02  3.09521E-02  3.17052E-02  3.24766E-02
#           3.32668E-02  3.40762E-02  3.49053E-02  3.57546E-02  3.66246E-02
#           3.75157E-02  3.84284E-02  3.93634E-02  4.03212E-02  4.13022E-02
#           4.23071E-02  4.33365E-02  4.43909E-02  4.54710E-02  4.65773E-02
#           4.77106E-02  4.88714E-02  5.00605E-02  5.12785E-02  5.25262E-02
#           5.38042E-02  5.51133E-02  5.64542E-02  5.78278E-02  5.92348E-02
#           6.06760E-02  6.21523E-02  6.36645E-02  6.52135E-02  6.68002E-02
#           6.84255E-02  7.00904E-02  7.17957E-02  7.35426E-02  7.53319E-02
#           7.71648E-02  7.90423E-02  8.09655E-02  8.29354E-02  8.49533E-02
#           8.70203E-02  8.91376E-02  9.13064E-02  9.35279E-02  9.58035E-02
#           9.81345E-02  1.00522E-01  1.02968E-01  1.05473E-01  1.08040E-01
#           1.10668E-01  1.13361E-01  1.16119E-01  1.18944E-01  1.21838E-01
#           1.24803E-01  1.27839E-01  1.30950E-01  1.34136E-01  1.37399E-01
#           1.40742E-01  1.44167E-01  1.47675E-01  1.51268E-01  1.54948E-01
#           1.58718E-01  1.62580E-01  1.66535E-01  1.70587E-01  1.74738E-01
#           1.78989E-01  1.83344E-01  1.87805E-01  1.92375E-01  1.97055E-01
#           2.01850E-01  2.06761E-01  2.11792E-01  2.16945E-01  2.22223E-01
#           2.27630E-01  2.33169E-01  2.38842E-01  2.44653E-01  2.50605E-01
#           2.56703E-01  2.62949E-01  2.69346E-01  2.75900E-01  2.82613E-01
#           2.89489E-01  2.96532E-01  3.03747E-01  3.11138E-01  3.18708E-01
#           3.26462E-01  3.34405E-01  3.42542E-01  3.50876E-01  3.59413E-01
#           3.68158E-01  3.77116E-01  3.86291E-01  3.95690E-01  4.05317E-01
#           4.15179E-01  4.25281E-01  4.35628E-01  4.46227E-01  4.57084E-01
#           4.68205E-01  4.79597E-01  4.91266E-01  5.03219E-01  5.15463E-01
#           5.28005E-01  5.40851E-01  5.54011E-01  5.67490E-01  5.81298E-01
#           5.95441E-01  6.09929E-01  6.24769E-01  6.39970E-01  6.55541E-01
#           6.71491E-01  6.87828E-01  7.04564E-01  7.21706E-01  7.39266E-01
#           7.57253E-01  7.75678E-01  7.94551E-01  8.13883E-01  8.33685E-01
#           8.53969E-01  8.74747E-01  8.96030E-01  9.17831E-01  9.40163E-01
#           9.63038E-01  9.86469E-01  1.01047E+00  1.03506E+00  1.06024E+00
#           1.08604E+00  1.11246E+00  1.13953E+00  1.16725E+00  1.19565E+00
#           1.22474E+00  1.25454E+00  1.28507E+00  1.31633E+00  1.34836E+00
#           1.38117E+00  1.41477E+00  1.44920E+00  1.48446E+00  1.52057E+00
#           1.55757E+00  1.59547E+00  1.63429E+00  1.67405E+00  1.71478E+00
#           1.75650E+00  1.79924E+00  1.84302E+00  1.88786E+00  1.93379E+00
#           1.98084E+00  2.02904E+00  2.07841E+00  2.12898E+00  2.18078E+00
#           2.23384E+00  2.28819E+00  2.34386E+00  2.40089E+00  2.45930E+00
#           2.51914E+00  2.58043E+00  2.64322E+00  2.70753E+00  2.77341E+00
#           2.84088E+00  2.91001E+00  2.98081E+00  3.05333E+00  3.12762E+00
#           3.20372E+00  3.28167E+00  3.36152E+00  3.44330E+00  3.52708E+00
#           3.61290E+00  3.70080E+00  3.79085E+00  3.88308E+00  3.97756E+00
#           4.07434E+00  4.17347E+00  4.27501E+00  4.37903E+00  4.48557E+00
#           4.59471E+00  4.70650E+00  4.82102E+00  4.93832E+00  5.05847E+00
#           5.18155E+00  5.30762E+00  5.43676E+00  5.56904E+00  5.70453E+00
#           5.84333E+00  5.98550E+00  6.13114E+00  6.28031E+00  6.43312E+00
#           6.58964E+00  6.74997E+00  6.91420E+00  7.08243E+00  7.25475E+00
#           7.43126E+00  7.61207E+00  7.79728E+00  7.98700E+00  8.18133E+00
#           8.38038E+00  8.58428E+00  8.79315E+00  9.00709E+00  9.22624E+00
#           9.45072E+00  9.68067E+00  9.91620E+00  1.01575E+01  1.04046E+01
#           1.06578E+01  1.09171E+01  1.11827E+01  1.14548E+01  1.17335E+01
#           1.20190E+01  1.23114E+01  1.26109E+01  1.29178E+01  1.32321E+01
#           1.35540E+01  1.38838E+01  1.42216E+01  1.45676E+01  1.49221E+01
#           1.52851E+01  1.56570E+01  1.60380E+01  1.64282E+01  1.68279E+01
#           1.72374E+01  1.76568E+01  1.80864E+01  1.85264E+01  1.89772E+01
#           1.94389E+01  1.99119E+01  2.03963E+01  2.08926E+01  2.14009E+01
#           2.19216E+01  2.24550E+01  2.30014E+01  2.35610E+01  2.41343E+01
#           2.47215E+01  2.53230E+01  2.59391E+01  2.65702E+01  2.72167E+01
#           2.78789E+01  2.85572E+01  2.92520E+01  2.99637E+01  3.06928E+01
#           3.14396E+01  3.22045E+01  3.29881E+01  3.37907E+01  3.46128E+01
#           3.54550E+01  3.63177E+01  3.72013E+01  3.81064E+01  3.90336E+01
#           3.99833E+01  4.09561E+01  4.19526E+01  4.29734E+01  4.40189E+01
#           4.50900E+01  4.61870E+01  4.73108E+01  4.84619E+01  4.96410E+01
#           5.08488E+01  5.20860E+01  5.33533E+01  5.46514E+01  5.59812E+01
#           5.73432E+01  5.87384E+01  6.01676E+01  6.16315E+01  6.31311E+01
#           6.46671E+01  6.62405E+01  6.78522E+01  6.95031E+01  7.11941E+01
#           7.29263E+01  7.47007E+01  7.65182E+01  7.83800E+01  8.02870E+01
#           8.22405E+01  8.42414E+01  8.62911E+01  8.83906E+01  9.05412E+01
#           9.27442E+01  9.50007E+01  9.73122E+01  9.96799E+01  1.02105E+02
#           1.04589E+02  1.07134E+02  1.09741E+02  1.12411E+02  1.15146E+02
#           1.17948E+02  1.20817E+02  1.23757E+02  1.26768E+02  1.29852E+02
#           1.33012E+02  1.36248E+02  1.39563E+02  1.42959E+02  1.46437E+02
#           1.50000E+02
     unit =    2            # unit is [1/cm^2/(MeV/n)/source]
     axis =  eng            # axis of output
     file = detector-05.out  # file name of output for the above axis
   output = f-curr          # surface crossing forward current spectrum
     part =  neutron  
# kf/name :  2112     
#    used :        main (  %)        temp (  %)       total (  %)
#  memory :         414 (  0)           0 (  0)         414 (  0)

#------------------------------------------------------------------------------
#newpage:
#   no. =    1   reg = 104 - 204

x: Energy [MeV/n]
y:  F-Curr [1/cm^2/(MeV/n)/source]         
p: xlog ylog afac(0.8) form(0.9)
h: n            x            y(neutron ),hh0l   n 
#  e-lower      e-upper      neutron     r.err 
   1.0000E-02   1.0243E-02   3.7932E-05  0.1667
   1.0243E-02   1.0493E-02   4.6090E-05  0.1491
   1.0493E-02   1.0748E-02   4.2159E-05  0.1543
   1.0748E-02   1.1009E-02   3.1175E-05  0.1769
   1.1009E-02   1.1277E-02   3.6363E-05  0.1622
   1.1277E-02   1.1552E-02   2.8961E-05  0.1796
   1.1552E-02   1.1833E-02   3.1005E-05  0.1715
   1.1833E-02   1.2121E-02   3.5611E-05  0.1581
   1.2121E-02   1.2415E-02   3.4772E-05  0.1581
   1.2415E-02   1.2718E-02   2.5439E-05  0.1826
   1.2718E-02   1.3027E-02   3.6443E-05  0.1508
   1.3027E-02   1.3344E-02   3.3093E-05  0.1562
   1.3344E-02   1.3669E-02   3.6311E-05  0.1474
   1.3669E-02   1.4001E-02   2.8519E-05  0.1644
   1.4001E-02   1.4342E-02   2.6330E-05  0.1690
   1.4342E-02   1.4691E-02   3.1592E-05  0.1525
   1.4691E-02   1.5048E-02   2.7247E-05  0.1622
   1.5048E-02   1.5414E-02   2.3806E-05  0.1715
   1.5414E-02   1.5789E-02   3.6218E-05  0.1374
   1.5789E-02   1.6174E-02   2.5858E-05  0.1602
   1.6174E-02   1.6567E-02   1.7587E-05  0.1925
   1.6567E-02   1.6970E-02   2.0353E-05  0.1768
   1.6970E-02   1.7383E-02   2.1606E-05  0.1691
   1.7383E-02   1.7806E-02   2.7882E-05  0.1474
   1.7806E-02   1.8239E-02   2.9328E-05  0.1417
   1.8239E-02   1.8683E-02   2.4827E-05  0.1525
   1.8683E-02   1.9138E-02   2.5836E-05  0.1475
   1.9138E-02   1.9603E-02   2.4774E-05  0.1491
   1.9603E-02   2.0080E-02   2.7408E-05  0.1400
   2.0080E-02   2.0569E-02   2.9187E-05  0.1338
   2.0569E-02   2.1069E-02   1.7409E-05  0.1715
   2.1069E-02   2.1582E-02   2.2004E-05  0.1508
   2.1582E-02   2.2107E-02   2.0989E-05  0.1525
   2.2107E-02   2.2645E-02   2.1441E-05  0.1491
   2.2645E-02   2.3196E-02   2.1870E-05  0.1459
   2.3196E-02   2.3760E-02   1.8621E-05  0.1562
   2.3760E-02   2.4338E-02   2.0753E-05  0.1459
   2.4338E-02   2.4930E-02   2.2146E-05  0.1396
   2.4930E-02   2.5537E-02   2.1633E-05  0.1395
   2.5537E-02   2.6158E-02   1.8564E-05  0.1491
   2.6158E-02   2.6795E-02   2.0137E-05  0.1414
   2.6795E-02   2.7447E-02   2.1155E-05  0.1361
   2.7447E-02   2.8114E-02   1.4586E-05  0.1622
   2.8114E-02   2.8799E-02   1.5359E-05  0.1562
   2.8799E-02   2.9499E-02   1.4557E-05  0.1582
   2.9499E-02   3.0217E-02   1.3927E-05  0.1601
   3.0217E-02   3.0952E-02   1.6035E-05  0.1474
   3.0952E-02   3.1705E-02   1.2591E-05  0.1644
   3.1705E-02   3.2477E-02   1.1297E-05  0.1715
   3.2477E-02   3.3267E-02   1.5730E-05  0.1432
   3.3267E-02   3.4076E-02   1.4569E-05  0.1474
   3.4076E-02   3.4905E-02   1.5410E-05  0.1415
   3.4905E-02   3.5755E-02   1.2978E-05  0.1525
   3.5755E-02   3.6625E-02   8.5429E-06  0.1857
   3.6625E-02   3.7516E-02   1.4958E-05  0.1387
   3.7516E-02   3.8428E-02   1.2077E-05  0.1525
   3.8428E-02   3.9363E-02   1.1789E-05  0.1525
   3.9363E-02   4.0321E-02   1.2311E-05  0.1474
   4.0321E-02   4.1302E-02   1.1233E-05  0.1525
   4.1302E-02   4.2307E-02   1.0457E-05  0.1562
   4.2307E-02   4.3337E-02   1.0211E-05  0.1562
   4.3337E-02   4.4391E-02   1.2882E-05  0.1374
   4.4391E-02   4.5471E-02   1.0442E-05  0.1508
   4.5471E-02   4.6577E-02   1.2029E-05  0.1387
   4.6577E-02   4.7711E-02   9.0068E-06  0.1582
   4.7711E-02   4.8871E-02   1.1703E-05  0.1374
   4.8871E-02   5.0061E-02   1.1566E-05  0.1362
   5.0061E-02   5.1279E-02   1.0522E-05  0.1414
   5.1279E-02   5.2526E-02   9.8148E-06  0.1444
   5.2526E-02   5.3804E-02   6.2171E-06  0.1796
   5.3804E-02   5.5113E-02   9.7607E-06  0.1415
   5.5113E-02   5.6454E-02   7.7977E-06  0.1563
   5.6454E-02   5.7828E-02   7.8377E-06  0.1543
   5.7828E-02   5.9235E-02   7.1051E-06  0.1601
   5.9235E-02   6.0676E-02   8.5354E-06  0.1443
   6.0676E-02   6.2152E-02   7.8131E-06  0.1491
   6.2152E-02   6.3665E-02   7.5765E-06  0.1492
   6.3665E-02   6.5214E-02   7.7762E-06  0.1459
   6.5214E-02   6.6800E-02   5.9743E-06  0.1644
   6.6800E-02   6.8426E-02   7.7850E-06  0.1420
   6.8426E-02   7.0090E-02   6.4654E-06  0.1543
   7.0090E-02   7.1796E-02   5.6798E-06  0.1623
   7.1796E-02   7.3543E-02   6.2793E-06  0.1526
   7.3543E-02   7.5332E-02   6.1041E-06  0.1527
   7.5332E-02   7.7165E-02   4.6149E-06  0.1741
   7.7165E-02   7.9042E-02   5.8694E-06  0.1525
   7.9042E-02   8.0965E-02   5.8608E-06  0.1508
   8.0965E-02   8.2935E-02   7.1550E-06  0.1348
   8.2935E-02   8.4953E-02   5.9703E-06  0.1459
   8.4953E-02   8.7020E-02   7.0250E-06  0.1325
   8.7020E-02   8.9138E-02   6.4068E-06  0.1374
   8.9138E-02   9.1306E-02   7.1855E-06  0.1281
   9.1306E-02   9.3528E-02   5.6520E-06  0.1429
   9.3528E-02   9.5804E-02   5.8576E-06  0.1387
   9.5804E-02   9.8134E-02   5.8277E-06  0.1374
   9.8134E-02   1.0052E-01   3.6124E-06  0.1705
   1.0052E-01   1.0297E-01   4.2958E-06  0.1562
   1.0297E-01   1.0547E-01   5.5238E-06  0.1361
   1.0547E-01   1.0804E-01   7.0892E-06  0.1187
   1.0804E-01   1.1067E-01   5.0041E-06  0.1385
   1.1067E-01   1.1336E-01   6.1561E-06  0.1241
   1.1336E-01   1.1612E-01   5.9350E-06  0.1250
   1.1612E-01   1.1894E-01   6.8029E-06  0.1155
   1.1894E-01   1.2184E-01   6.1984E-06  0.1195
   1.2184E-01   1.2480E-01   5.9661E-06  0.1204
   1.2480E-01   1.2784E-01   6.3898E-06  0.1148
   1.2784E-01   1.3095E-01   6.7558E-06  0.1104
   1.3095E-01   1.3414E-01   6.7493E-06  0.1091
   1.3414E-01   1.3740E-01   7.7732E-06  0.1005
   1.3740E-01   1.4074E-01   7.3588E-06  0.1021
   1.4074E-01   1.4417E-01   8.0925E-06  0.0961
   1.4417E-01   1.4767E-01   8.8332E-06  0.0909
   1.4767E-01   1.5127E-01   8.8510E-06  0.0896
   1.5127E-01   1.5495E-01   7.6469E-06  0.0954
   1.5495E-01   1.5872E-01   9.0932E-06  0.0864
   1.5872E-01   1.6258E-01   9.6687E-06  0.0828
   1.6258E-01   1.6654E-01   8.6693E-06  0.0864
   1.6654E-01   1.7059E-01   8.4153E-06  0.0866
   1.7059E-01   1.7474E-01   1.1050E-05  0.0747
   1.7474E-01   1.7899E-01   1.0184E-05  0.0768
   1.7899E-01   1.8334E-01   1.1074E-05  0.0729
   1.8334E-01   1.8781E-01   1.0282E-05  0.0747
   1.8781E-01   1.9237E-01   1.0035E-05  0.0747
   1.9237E-01   1.9706E-01   1.1384E-05  0.0693
   1.9706E-01   2.0185E-01   1.1348E-05  0.0686
   2.0185E-01   2.0676E-01   1.1873E-05  0.0662
   2.0676E-01   2.1179E-01   1.0014E-05  0.0713
   2.1179E-01   2.1694E-01   1.1130E-05  0.0668
   2.1694E-01   2.2222E-01   1.2671E-05  0.0618
   2.2222E-01   2.2763E-01   1.3181E-05  0.0599
   2.2763E-01   2.3317E-01   1.3134E-05  0.0593
   2.3317E-01   2.3884E-01   1.3544E-05  0.0577
   2.3884E-01   2.4465E-01   1.3395E-05  0.0574
   2.4465E-01   2.5061E-01   1.3475E-05  0.0565
   2.5061E-01   2.5670E-01   1.3551E-05  0.0556
   2.5670E-01   2.6295E-01   1.5976E-05  0.0506
   2.6295E-01   2.6935E-01   1.3538E-05  0.0544
   2.6935E-01   2.7590E-01   1.4790E-05  0.0514
   2.7590E-01   2.8261E-01   1.5062E-05  0.0503
   2.8261E-01   2.8949E-01   1.4344E-05  0.0509
   2.8949E-01   2.9653E-01   1.5557E-05  0.0483
   2.9653E-01   3.0375E-01   1.7064E-05  0.0456
   3.0375E-01   3.1114E-01   1.5726E-05  0.0469
   3.1114E-01   3.1871E-01   1.5730E-05  0.0464
   3.1871E-01   3.2646E-01   1.7162E-05  0.0439
   3.2646E-01   3.3441E-01   1.6412E-05  0.0443
   3.3441E-01   3.4254E-01   1.7059E-05  0.0429
   3.4254E-01   3.5088E-01   1.7606E-05  0.0417
   3.5088E-01   3.5941E-01   1.8122E-05  0.0407
   3.5941E-01   3.6816E-01   1.8439E-05  0.0398
   3.6816E-01   3.7712E-01   1.8226E-05  0.0396
   3.7712E-01   3.8629E-01   1.8687E-05  0.0386
   3.8629E-01   3.9569E-01   1.9079E-05  0.0377
   3.9569E-01   4.0532E-01   1.9043E-05  0.0373
   4.0532E-01   4.1518E-01   1.9530E-05  0.0364
   4.1518E-01   4.2528E-01   2.1432E-05  0.0344
   4.2528E-01   4.3563E-01   2.0781E-05  0.0345
   4.3563E-01   4.4623E-01   2.1471E-05  0.0335
   4.4623E-01   4.5708E-01   2.1609E-05  0.0330
   4.5708E-01   4.6821E-01   2.1644E-05  0.0326
   4.6821E-01   4.7960E-01   2.2208E-05  0.0318
   4.7960E-01   4.9127E-01   2.2968E-05  0.0309
   4.9127E-01   5.0322E-01   2.2184E-05  0.0310
   5.0322E-01   5.1546E-01   2.2479E-05  0.0305
   5.1546E-01   5.2800E-01   2.2890E-05  0.0298
   5.2800E-01   5.4085E-01   2.2426E-05  0.0298
   5.4085E-01   5.5401E-01   2.3297E-05  0.0289
   5.5401E-01   5.6749E-01   2.3984E-05  0.0281
   5.6749E-01   5.8130E-01   2.3744E-05  0.0279
   5.8130E-01   5.9544E-01   2.4409E-05  0.0272
   5.9544E-01   6.0993E-01   2.4388E-05  0.0269
   6.0993E-01   6.2477E-01   2.4391E-05  0.0266
   6.2477E-01   6.3997E-01   2.5002E-05  0.0259
   6.3997E-01   6.5554E-01   2.4613E-05  0.0258
   6.5554E-01   6.7149E-01   2.4869E-05  0.0254
   6.7149E-01   6.8783E-01   2.4755E-05  0.0251
   6.8783E-01   7.0456E-01   2.6806E-05  0.0239
   7.0456E-01   7.2171E-01   2.5422E-05  0.0242
   7.2171E-01   7.3927E-01   2.5561E-05  0.0239
   7.3927E-01   7.5725E-01   2.6031E-05  0.0234
   7.5725E-01   7.7568E-01   2.6519E-05  0.0229
   7.7568E-01   7.9455E-01   2.6976E-05  0.0224
   7.9455E-01   8.1388E-01   2.5276E-05  0.0229
   8.1388E-01   8.3368E-01   2.7366E-05  0.0217
   8.3368E-01   8.5397E-01   2.6922E-05  0.0216
   8.5397E-01   8.7475E-01   2.7342E-05  0.0212
   8.7475E-01   8.9603E-01   2.6687E-05  0.0212
   8.9603E-01   9.1783E-01   2.7712E-05  0.0206
   9.1783E-01   9.4016E-01   2.6408E-05  0.0208
   9.4016E-01   9.6304E-01   2.7163E-05  0.0203
   9.6304E-01   9.8647E-01   2.7290E-05  0.0200
   9.8647E-01   1.0105E+00   2.6728E-05  0.0199
   1.0105E+00   1.0351E+00   2.7611E-05  0.0194
   1.0351E+00   1.0602E+00   2.6995E-05  0.0194
   1.0602E+00   1.0860E+00   2.6865E-05  0.0192
   1.0860E+00   1.1125E+00   2.7862E-05  0.0186
   1.1125E+00   1.1395E+00   2.7998E-05  0.0183
   1.1395E+00   1.1673E+00   2.7851E-05  0.0182
   1.1673E+00   1.1957E+00   2.8339E-05  0.0178
   1.1957E+00   1.2247E+00   2.8736E-05  0.0175
   1.2247E+00   1.2545E+00   2.8583E-05  0.0173
   1.2545E+00   1.2851E+00   2.8214E-05  0.0172
   1.2851E+00   1.3163E+00   2.8598E-05  0.0169
   1.3163E+00   1.3484E+00   2.8472E-05  0.0167
   1.3484E+00   1.3812E+00   2.9244E-05  0.0163
   1.3812E+00   1.4148E+00   2.9002E-05  0.0162
   1.4148E+00   1.4492E+00   2.9720E-05  0.0158
   1.4492E+00   1.4845E+00   2.9329E-05  0.0157
   1.4845E+00   1.5206E+00   2.9461E-05  0.0155
   1.5206E+00   1.5576E+00   2.9112E-05  0.0154
   1.5576E+00   1.5955E+00   3.0057E-05  0.0149
   1.5955E+00   1.6343E+00   2.9879E-05  0.0148
   1.6343E+00   1.6741E+00   3.0201E-05  0.0145
   1.6741E+00   1.7148E+00   2.9475E-05  0.0145
   1.7148E+00   1.7565E+00   2.9404E-05  0.0144
   1.7565E+00   1.7992E+00   2.9674E-05  0.0141
   1.7992E+00   1.8430E+00   2.8591E-05  0.0142
   1.8430E+00   1.8879E+00   2.7510E-05  0.0143
   1.8879E+00   1.9338E+00   2.8036E-05  0.0140
   1.9338E+00   1.9808E+00   2.7306E-05  0.0140
   1.9808E+00   2.0290E+00   2.7047E-05  0.0139
   2.0290E+00   2.0784E+00   2.8425E-05  0.0134
   2.0784E+00   2.1290E+00   2.7626E-05  0.0134
   2.1290E+00   2.1808E+00   2.7908E-05  0.0131
   2.1808E+00   2.2338E+00   2.7755E-05  0.0130
   2.2338E+00   2.2882E+00   2.7897E-05  0.0128
   2.2882E+00   2.3439E+00   2.7666E-05  0.0128
   2.3439E+00   2.4009E+00   2.7804E-05  0.0126
   2.4009E+00   2.4593E+00   2.7323E-05  0.0125
   2.4593E+00   2.5191E+00   2.7230E-05  0.0124
   2.5191E+00   2.5804E+00   2.6730E-05  0.0124
   2.5804E+00   2.6432E+00   2.6888E-05  0.0122
   2.6432E+00   2.7075E+00   2.6943E-05  0.0120
   2.7075E+00   2.7734E+00   2.6866E-05  0.0119
   2.7734E+00   2.8409E+00   2.6778E-05  0.0118
   2.8409E+00   2.9100E+00   2.6785E-05  0.0116
   2.9100E+00   2.9808E+00   2.6606E-05  0.0115
   2.9808E+00   3.0533E+00   2.6782E-05  0.0114
   3.0533E+00   3.1276E+00   2.6007E-05  0.0114
   3.1276E+00   3.2037E+00   2.6205E-05  0.0112
   3.2037E+00   3.2817E+00   2.5460E-05  0.0113
   3.2817E+00   3.3615E+00   2.5796E-05  0.0111
   3.3615E+00   3.4433E+00   2.5152E-05  0.0111
   3.4433E+00   3.5271E+00   2.4817E-05  0.0110
   3.5271E+00   3.6129E+00   2.5451E-05  0.0108
   3.6129E+00   3.7008E+00   2.5071E-05  0.0107
   3.7008E+00   3.7908E+00   2.5405E-05  0.0105
   3.7908E+00   3.8831E+00   2.4769E-05  0.0105
   3.8831E+00   3.9776E+00   2.4352E-05  0.0105
   3.9776E+00   4.0743E+00   2.4501E-05  0.0103
   4.0743E+00   4.1735E+00   2.4105E-05  0.0103
   4.1735E+00   4.2750E+00   2.3959E-05  0.0102
   4.2750E+00   4.3790E+00   2.4230E-05  0.0100
   4.3790E+00   4.4856E+00   2.3830E-05  0.0100
   4.4856E+00   4.5947E+00   2.3240E-05  0.0100
   4.5947E+00   4.7065E+00   2.3263E-05  0.0099
   4.7065E+00   4.8210E+00   2.3262E-05  0.0097
   4.8210E+00   4.9383E+00   2.2766E-05  0.0097
   4.9383E+00   5.0585E+00   2.2518E-05  0.0097
   5.0585E+00   5.1815E+00   2.2454E-05  0.0096
   5.1815E+00   5.3076E+00   2.2432E-05  0.0095
   5.3076E+00   5.4368E+00   2.2128E-05  0.0094
   5.4368E+00   5.5690E+00   2.2231E-05  0.0093
   5.5690E+00   5.7045E+00   2.1530E-05  0.0093
   5.7045E+00   5.8433E+00   2.1546E-05  0.0092
   5.8433E+00   5.9855E+00   2.1559E-05  0.0091
   5.9855E+00   6.1311E+00   2.1324E-05  0.0090
   6.1311E+00   6.2803E+00   2.1246E-05  0.0089
   6.2803E+00   6.4331E+00   2.1262E-05  0.0088
   6.4331E+00   6.5896E+00   2.0731E-05  0.0088
   6.5896E+00   6.7500E+00   2.0840E-05  0.0087
   6.7500E+00   6.9142E+00   2.0549E-05  0.0087
   6.9142E+00   7.0824E+00   2.0709E-05  0.0085
   7.0824E+00   7.2548E+00   2.0086E-05  0.0086
   7.2548E+00   7.4313E+00   2.0133E-05  0.0084
   7.4313E+00   7.6121E+00   2.0208E-05  0.0083
   7.6121E+00   7.7973E+00   1.9852E-05  0.0083
   7.7973E+00   7.9870E+00   1.9853E-05  0.0082
   7.9870E+00   8.1813E+00   1.9816E-05  0.0081
   8.1813E+00   8.3804E+00   1.9622E-05  0.0081
   8.3804E+00   8.5843E+00   1.9251E-05  0.0080
   8.5843E+00   8.7931E+00   1.9557E-05  0.0079
   8.7931E+00   9.0071E+00   1.9062E-05  0.0079
   9.0071E+00   9.2262E+00   1.8958E-05  0.0078
   9.2262E+00   9.4507E+00   1.8656E-05  0.0078
   9.4507E+00   9.6807E+00   1.8727E-05  0.0077
   9.6807E+00   9.9162E+00   1.8512E-05  0.0077
   9.9162E+00   1.0157E+01   1.8658E-05  0.0075
   1.0157E+01   1.0405E+01   1.8712E-05  0.0074
   1.0405E+01   1.0658E+01   1.8681E-05  0.0074
   1.0658E+01   1.0917E+01   1.8367E-05  0.0073
   1.0917E+01   1.1183E+01   1.7923E-05  0.0073
   1.1183E+01   1.1455E+01   1.7658E-05  0.0073
   1.1455E+01   1.1733E+01   1.7445E-05  0.0073
   1.1733E+01   1.2019E+01   1.7483E-05  0.0072
   1.2019E+01   1.2311E+01   1.7215E-05  0.0071
   1.2311E+01   1.2611E+01   1.7091E-05  0.0071
   1.2611E+01   1.2918E+01   1.6883E-05  0.0070
   1.2918E+01   1.3232E+01   1.6922E-05  0.0069
   1.3232E+01   1.3554E+01   1.6519E-05  0.0069
   1.3554E+01   1.3884E+01   1.6395E-05  0.0069
   1.3884E+01   1.4222E+01   1.6078E-05  0.0069
   1.4222E+01   1.4568E+01   1.5934E-05  0.0068
   1.4568E+01   1.4922E+01   1.5187E-05  0.0069
   1.4922E+01   1.5285E+01   1.4800E-05  0.0069
   1.5285E+01   1.5657E+01   1.4523E-05  0.0069
   1.5657E+01   1.6038E+01   1.4238E-05  0.0069
   1.6038E+01   1.6428E+01   1.3902E-05  0.0069
   1.6428E+01   1.6828E+01   1.3428E-05  0.0069
   1.6828E+01   1.7237E+01   1.3169E-05  0.0069
   1.7237E+01   1.7657E+01   1.2674E-05  0.0069
   1.7657E+01   1.8086E+01   1.2444E-05  0.0069
   1.8086E+01   1.8526E+01   1.2080E-05  0.0069
   1.8526E+01   1.8977E+01   1.1578E-05  0.0070
   1.8977E+01   1.9439E+01   1.1191E-05  0.0070
   1.9439E+01   1.9912E+01   1.0976E-05  0.0070
   1.9912E+01   2.0396E+01   1.0613E-05  0.0071
   2.0396E+01   2.0893E+01   1.0421E-05  0.0070
   2.0893E+01   2.1401E+01   9.7554E-06  0.0072
   2.1401E+01   2.1922E+01   9.4759E-06  0.0072
   2.1922E+01   2.2455E+01   9.1066E-06  0.0073
   2.2455E+01   2.3001E+01   8.8180E-06  0.0073
   2.3001E+01   2.3561E+01   8.3822E-06  0.0074
   2.3561E+01   2.4134E+01   7.9773E-06  0.0075
   2.4134E+01   2.4721E+01   7.6901E-06  0.0075
   2.4721E+01   2.5323E+01   7.3522E-06  0.0076
   2.5323E+01   2.5939E+01   6.9062E-06  0.0078
   2.5939E+01   2.6570E+01   6.6016E-06  0.0078
   2.6570E+01   2.7217E+01   6.2719E-06  0.0080
   2.7217E+01   2.7879E+01   6.2120E-06  0.0079
   2.7879E+01   2.8557E+01   1.1558E-05  0.0057
   2.8557E+01   2.9252E+01   1.5255E-05  0.0049
   2.9252E+01   2.9964E+01   1.5280E-05  0.0049
   2.9964E+01   3.0693E+01   1.5033E-05  0.0048
   3.0693E+01   3.1440E+01   1.4926E-05  0.0048
   3.1440E+01   3.2205E+01   1.4820E-05  0.0048
   3.2205E+01   3.2988E+01   1.4665E-05  0.0047
   3.2988E+01   3.3791E+01   1.4435E-05  0.0047
   3.3791E+01   3.4613E+01   1.4377E-05  0.0047
   3.4613E+01   3.5455E+01   1.4350E-05  0.0046
   3.5455E+01   3.6318E+01   1.4096E-05  0.0046
   3.6318E+01   3.7201E+01   1.3993E-05  0.0046
   3.7201E+01   3.8106E+01   1.3989E-05  0.0045
   3.8106E+01   3.9034E+01   1.3738E-05  0.0045
   3.9034E+01   3.9983E+01   1.3390E-05  0.0045
   3.9983E+01   4.0956E+01   1.2424E-05  0.0046
   4.0956E+01   4.1953E+01   2.5376E-06  0.0101
   4.1953E+01   4.2973E+01   2.5120E-10  1.0000
   4.2973E+01   4.4019E+01   0.0000E+00  0.0000
   4.4019E+01   4.5090E+01   4.7882E-10  0.7071
   4.5090E+01   4.6187E+01   0.0000E+00  0.0000
   4.6187E+01   4.7311E+01   2.2817E-10  1.0000
   4.7311E+01   4.8462E+01   0.0000E+00  0.0000
   4.8462E+01   4.9641E+01   0.0000E+00  0.0000
   4.9641E+01   5.0849E+01   0.0000E+00  0.0000
   5.0849E+01   5.2086E+01   0.0000E+00  0.0000
   5.2086E+01   5.3353E+01   0.0000E+00  0.0000
   5.3353E+01   5.4651E+01   0.0000E+00  0.0000
   5.4651E+01   5.5981E+01   0.0000E+00  0.0000
   5.5981E+01   5.7343E+01   0.0000E+00  0.0000
   5.7343E+01   5.8738E+01   0.0000E+00  0.0000
   5.8738E+01   6.0168E+01   0.0000E+00  0.0000
   6.0168E+01   6.1632E+01   0.0000E+00  0.0000
   6.1632E+01   6.3131E+01   0.0000E+00  0.0000
   6.3131E+01   6.4667E+01   0.0000E+00  0.0000
   6.4667E+01   6.6240E+01   0.0000E+00  0.0000
   6.6240E+01   6.7852E+01   0.0000E+00  0.0000
   6.7852E+01   6.9503E+01   0.0000E+00  0.0000
   6.9503E+01   7.1194E+01   0.0000E+00  0.0000
   7.1194E+01   7.2926E+01   0.0000E+00  0.0000
   7.2926E+01   7.4701E+01   0.0000E+00  0.0000
   7.4701E+01   7.6518E+01   0.0000E+00  0.0000
   7.6518E+01   7.8380E+01   0.0000E+00  0.0000
   7.8380E+01   8.0287E+01   0.0000E+00  0.0000
   8.0287E+01   8.2240E+01   0.0000E+00  0.0000
   8.2240E+01   8.4241E+01   0.0000E+00  0.0000
   8.4241E+01   8.6291E+01   0.0000E+00  0.0000
   8.6291E+01   8.8391E+01   0.0000E+00  0.0000
   8.8391E+01   9.0541E+01   0.0000E+00  0.0000
   9.0541E+01   9.2744E+01   0.0000E+00  0.0000
   9.2744E+01   9.5001E+01   0.0000E+00  0.0000
   9.5001E+01   9.7312E+01   0.0000E+00  0.0000
   9.7312E+01   9.9680E+01   0.0000E+00  0.0000
   9.9680E+01   1.0211E+02   0.0000E+00  0.0000
   1.0211E+02   1.0459E+02   0.0000E+00  0.0000
   1.0459E+02   1.0713E+02   0.0000E+00  0.0000
   1.0713E+02   1.0974E+02   0.0000E+00  0.0000
   1.0974E+02   1.1241E+02   0.0000E+00  0.0000
   1.1241E+02   1.1515E+02   0.0000E+00  0.0000
   1.1515E+02   1.1795E+02   0.0000E+00  0.0000
   1.1795E+02   1.2082E+02   0.0000E+00  0.0000
   1.2082E+02   1.2376E+02   0.0000E+00  0.0000
   1.2376E+02   1.2677E+02   0.0000E+00  0.0000
   1.2677E+02   1.2985E+02   0.0000E+00  0.0000
   1.2985E+02   1.3301E+02   0.0000E+00  0.0000
   1.3301E+02   1.3625E+02   0.0000E+00  0.0000
   1.3625E+02   1.3956E+02   0.0000E+00  0.0000
   1.3956E+02   1.4296E+02   0.0000E+00  0.0000
   1.4296E+02   1.4644E+02   0.0000E+00  0.0000
   1.4644E+02   1.5000E+02   0.0000E+00  0.0000

#   sum over                 4.1722E-06
'no. =    1   reg = 104 - 204'
msuc: {\huge [t-cross] in region mesh}
msdr: {\it plotted by \ANGEL \version}
msdl: {\it calculated by \PHITS  3.26}
wt: s(0.7)
\vspace{-3}
  region surface crossing
  area  &=&   1.0000E+00 [cm^2]
e:
 
# Information for Restart Calculation
# This calculation was newly started
# istdev =  2 # 1:Batch variance, 2:History variance
# resc2  = 3.90000000000000000E+09 # Total source weight or Total source weight / maxcas
# resc3  = 3.90000000000000000E+09 # Total history number or Total batch number
# maxcas =   100000000 # History / Batch, only used for istdev=1
# bitrseed = 1001000100011001100110111101101111001101001011101000111110000101 # bit data of rseed
