[ T-Cross ]
    title = [t-cross] in region mesh
     mesh =  reg            # mesh type is region-wise
      reg =    1            # number of crossing regions
      non     r-from    r-to       area
      1       111       211        1.000000    
   e-type =    3            # e-mesh is log given by emin, emax and ne
     emin =  1.0000000E-02  # minimum value of e-mesh points
     emax =   150.0000      # maximum value of e-mesh points
#    edel =  2.4039514E-02  # mesh width of e-mesh points
       ne =    400          # number of e-mesh points
#    data = ( e(i), i = 1, ne + 1 )
#           1.00000E-02  1.02433E-02  1.04925E-02  1.07478E-02  1.10093E-02
#           1.12772E-02  1.15516E-02  1.18326E-02  1.21205E-02  1.24154E-02
#           1.27175E-02  1.30269E-02  1.33439E-02  1.36686E-02  1.40011E-02
#           1.43418E-02  1.46907E-02  1.50482E-02  1.54143E-02  1.57894E-02
#           1.61735E-02  1.65670E-02  1.69701E-02  1.73830E-02  1.78060E-02
#           1.82392E-02  1.86830E-02  1.91375E-02  1.96032E-02  2.00801E-02
#           2.05687E-02  2.10692E-02  2.15818E-02  2.21069E-02  2.26448E-02
#           2.31957E-02  2.37601E-02  2.43382E-02  2.49304E-02  2.55369E-02
#           2.61583E-02  2.67947E-02  2.74467E-02  2.81145E-02  2.87985E-02
#           2.94992E-02  3.02169E-02  3.09521E-02  3.17052E-02  3.24766E-02
#           3.32668E-02  3.40762E-02  3.49053E-02  3.57546E-02  3.66246E-02
#           3.75157E-02  3.84284E-02  3.93634E-02  4.03212E-02  4.13022E-02
#           4.23071E-02  4.33365E-02  4.43909E-02  4.54710E-02  4.65773E-02
#           4.77106E-02  4.88714E-02  5.00605E-02  5.12785E-02  5.25262E-02
#           5.38042E-02  5.51133E-02  5.64542E-02  5.78278E-02  5.92348E-02
#           6.06760E-02  6.21523E-02  6.36645E-02  6.52135E-02  6.68002E-02
#           6.84255E-02  7.00904E-02  7.17957E-02  7.35426E-02  7.53319E-02
#           7.71648E-02  7.90423E-02  8.09655E-02  8.29354E-02  8.49533E-02
#           8.70203E-02  8.91376E-02  9.13064E-02  9.35279E-02  9.58035E-02
#           9.81345E-02  1.00522E-01  1.02968E-01  1.05473E-01  1.08040E-01
#           1.10668E-01  1.13361E-01  1.16119E-01  1.18944E-01  1.21838E-01
#           1.24803E-01  1.27839E-01  1.30950E-01  1.34136E-01  1.37399E-01
#           1.40742E-01  1.44167E-01  1.47675E-01  1.51268E-01  1.54948E-01
#           1.58718E-01  1.62580E-01  1.66535E-01  1.70587E-01  1.74738E-01
#           1.78989E-01  1.83344E-01  1.87805E-01  1.92375E-01  1.97055E-01
#           2.01850E-01  2.06761E-01  2.11792E-01  2.16945E-01  2.22223E-01
#           2.27630E-01  2.33169E-01  2.38842E-01  2.44653E-01  2.50605E-01
#           2.56703E-01  2.62949E-01  2.69346E-01  2.75900E-01  2.82613E-01
#           2.89489E-01  2.96532E-01  3.03747E-01  3.11138E-01  3.18708E-01
#           3.26462E-01  3.34405E-01  3.42542E-01  3.50876E-01  3.59413E-01
#           3.68158E-01  3.77116E-01  3.86291E-01  3.95690E-01  4.05317E-01
#           4.15179E-01  4.25281E-01  4.35628E-01  4.46227E-01  4.57084E-01
#           4.68205E-01  4.79597E-01  4.91266E-01  5.03219E-01  5.15463E-01
#           5.28005E-01  5.40851E-01  5.54011E-01  5.67490E-01  5.81298E-01
#           5.95441E-01  6.09929E-01  6.24769E-01  6.39970E-01  6.55541E-01
#           6.71491E-01  6.87828E-01  7.04564E-01  7.21706E-01  7.39266E-01
#           7.57253E-01  7.75678E-01  7.94551E-01  8.13883E-01  8.33685E-01
#           8.53969E-01  8.74747E-01  8.96030E-01  9.17831E-01  9.40163E-01
#           9.63038E-01  9.86469E-01  1.01047E+00  1.03506E+00  1.06024E+00
#           1.08604E+00  1.11246E+00  1.13953E+00  1.16725E+00  1.19565E+00
#           1.22474E+00  1.25454E+00  1.28507E+00  1.31633E+00  1.34836E+00
#           1.38117E+00  1.41477E+00  1.44920E+00  1.48446E+00  1.52057E+00
#           1.55757E+00  1.59547E+00  1.63429E+00  1.67405E+00  1.71478E+00
#           1.75650E+00  1.79924E+00  1.84302E+00  1.88786E+00  1.93379E+00
#           1.98084E+00  2.02904E+00  2.07841E+00  2.12898E+00  2.18078E+00
#           2.23384E+00  2.28819E+00  2.34386E+00  2.40089E+00  2.45930E+00
#           2.51914E+00  2.58043E+00  2.64322E+00  2.70753E+00  2.77341E+00
#           2.84088E+00  2.91001E+00  2.98081E+00  3.05333E+00  3.12762E+00
#           3.20372E+00  3.28167E+00  3.36152E+00  3.44330E+00  3.52708E+00
#           3.61290E+00  3.70080E+00  3.79085E+00  3.88308E+00  3.97756E+00
#           4.07434E+00  4.17347E+00  4.27501E+00  4.37903E+00  4.48557E+00
#           4.59471E+00  4.70650E+00  4.82102E+00  4.93832E+00  5.05847E+00
#           5.18155E+00  5.30762E+00  5.43676E+00  5.56904E+00  5.70453E+00
#           5.84333E+00  5.98550E+00  6.13114E+00  6.28031E+00  6.43312E+00
#           6.58964E+00  6.74997E+00  6.91420E+00  7.08243E+00  7.25475E+00
#           7.43126E+00  7.61207E+00  7.79728E+00  7.98700E+00  8.18133E+00
#           8.38038E+00  8.58428E+00  8.79315E+00  9.00709E+00  9.22624E+00
#           9.45072E+00  9.68067E+00  9.91620E+00  1.01575E+01  1.04046E+01
#           1.06578E+01  1.09171E+01  1.11827E+01  1.14548E+01  1.17335E+01
#           1.20190E+01  1.23114E+01  1.26109E+01  1.29178E+01  1.32321E+01
#           1.35540E+01  1.38838E+01  1.42216E+01  1.45676E+01  1.49221E+01
#           1.52851E+01  1.56570E+01  1.60380E+01  1.64282E+01  1.68279E+01
#           1.72374E+01  1.76568E+01  1.80864E+01  1.85264E+01  1.89772E+01
#           1.94389E+01  1.99119E+01  2.03963E+01  2.08926E+01  2.14009E+01
#           2.19216E+01  2.24550E+01  2.30014E+01  2.35610E+01  2.41343E+01
#           2.47215E+01  2.53230E+01  2.59391E+01  2.65702E+01  2.72167E+01
#           2.78789E+01  2.85572E+01  2.92520E+01  2.99637E+01  3.06928E+01
#           3.14396E+01  3.22045E+01  3.29881E+01  3.37907E+01  3.46128E+01
#           3.54550E+01  3.63177E+01  3.72013E+01  3.81064E+01  3.90336E+01
#           3.99833E+01  4.09561E+01  4.19526E+01  4.29734E+01  4.40189E+01
#           4.50900E+01  4.61870E+01  4.73108E+01  4.84619E+01  4.96410E+01
#           5.08488E+01  5.20860E+01  5.33533E+01  5.46514E+01  5.59812E+01
#           5.73432E+01  5.87384E+01  6.01676E+01  6.16315E+01  6.31311E+01
#           6.46671E+01  6.62405E+01  6.78522E+01  6.95031E+01  7.11941E+01
#           7.29263E+01  7.47007E+01  7.65182E+01  7.83800E+01  8.02870E+01
#           8.22405E+01  8.42414E+01  8.62911E+01  8.83906E+01  9.05412E+01
#           9.27442E+01  9.50007E+01  9.73122E+01  9.96799E+01  1.02105E+02
#           1.04589E+02  1.07134E+02  1.09741E+02  1.12411E+02  1.15146E+02
#           1.17948E+02  1.20817E+02  1.23757E+02  1.26768E+02  1.29852E+02
#           1.33012E+02  1.36248E+02  1.39563E+02  1.42959E+02  1.46437E+02
#           1.50000E+02
     unit =    2            # unit is [1/cm^2/(MeV/n)/source]
     axis =  eng            # axis of output
     file = detector-12.out  # file name of output for the above axis
   output = f-curr          # surface crossing forward current spectrum
     part =  neutron  
# kf/name :  2112     
#    used :        main (  %)        temp (  %)       total (  %)
#  memory :         414 (  0)           0 (  0)         414 (  0)

#------------------------------------------------------------------------------
#newpage:
#   no. =    1   reg = 111 - 211

x: Energy [MeV/n]
y:  F-Curr [1/cm^2/(MeV/n)/source]         
p: xlog ylog afac(0.8) form(0.9)
h: n            x            y(neutron ),hh0l   n 
#  e-lower      e-upper      neutron     r.err 
   1.0000E-02   1.0243E-02   1.1799E-04  0.0941
   1.0243E-02   1.0493E-02   1.2793E-04  0.0892
   1.0493E-02   1.0748E-02   1.0762E-04  0.0963
   1.0748E-02   1.1009E-02   9.7940E-05  0.0993
   1.1009E-02   1.1277E-02   1.1893E-04  0.0895
   1.1277E-02   1.1552E-02   9.2683E-05  0.1000
   1.1552E-02   1.1833E-02   1.0347E-04  0.0937
   1.1833E-02   1.2121E-02   9.0335E-05  0.0989
   1.2121E-02   1.2415E-02   9.0535E-05  0.0976
   1.2415E-02   1.2718E-02   9.4175E-05  0.0946
   1.2718E-02   1.3027E-02   9.4532E-05  0.0931
   1.3027E-02   1.3344E-02   8.9394E-05  0.0949
   1.3344E-02   1.3669E-02   9.2561E-05  0.0914
   1.3669E-02   1.4001E-02   9.1794E-05  0.0913
   1.4001E-02   1.4342E-02   8.2741E-05  0.0950
   1.4342E-02   1.4691E-02   9.8493E-05  0.0857
   1.4691E-02   1.5048E-02   7.5037E-05  0.0974
   1.5048E-02   1.5414E-02   7.4324E-05  0.0967
   1.5414E-02   1.5789E-02   8.0806E-05  0.0912
   1.5789E-02   1.6174E-02   7.6874E-05  0.0929
   1.6174E-02   1.6567E-02   8.1990E-05  0.0886
   1.6567E-02   1.6970E-02   8.3758E-05  0.0865
   1.6970E-02   1.7383E-02   7.9058E-05  0.0883
   1.7383E-02   1.7806E-02   6.9078E-05  0.0932
   1.7806E-02   1.8239E-02   7.1416E-05  0.0906
   1.8239E-02   1.8683E-02   6.6912E-05  0.0925
   1.8683E-02   1.9138E-02   7.0247E-05  0.0890
   1.9138E-02   1.9603E-02   6.1592E-05  0.0942
   1.9603E-02   2.0080E-02   5.4934E-05  0.0984
   2.0080E-02   2.0569E-02   6.1299E-05  0.0921
   2.0569E-02   2.1069E-02   6.2848E-05  0.0898
   2.1069E-02   2.1582E-02   5.3787E-05  0.0962
   2.1582E-02   2.2107E-02   5.4923E-05  0.0941
   2.2107E-02   2.2645E-02   6.9637E-05  0.0824
   2.2645E-02   2.3196E-02   5.0681E-05  0.0953
   2.3196E-02   2.3760E-02   5.5086E-05  0.0904
   2.3760E-02   2.4338E-02   5.2846E-05  0.0910
   2.4338E-02   2.4930E-02   5.5051E-05  0.0883
   2.4930E-02   2.5537E-02   5.7014E-05  0.0858
   2.5537E-02   2.6158E-02   5.0902E-05  0.0898
   2.6158E-02   2.6795E-02   4.6816E-05  0.0924
   2.6795E-02   2.7447E-02   4.6232E-05  0.0919
   2.7447E-02   2.8114E-02   4.5298E-05  0.0917
   2.8114E-02   2.8799E-02   4.4406E-05  0.0911
   2.8799E-02   2.9499E-02   4.4392E-05  0.0906
   2.9499E-02   3.0217E-02   3.9663E-05  0.0946
   3.0217E-02   3.0952E-02   4.1041E-05  0.0918
   3.0952E-02   3.1705E-02   4.3076E-05  0.0882
   3.1705E-02   3.2477E-02   4.1835E-05  0.0885
   3.2477E-02   3.3267E-02   3.9237E-05  0.0905
   3.3267E-02   3.4076E-02   3.8604E-05  0.0903
   3.4076E-02   3.4905E-02   3.7725E-05  0.0902
   3.4905E-02   3.5755E-02   4.4526E-05  0.0820
   3.5755E-02   3.6625E-02   3.9184E-05  0.0863
   3.6625E-02   3.7516E-02   3.7387E-05  0.0872
   3.7516E-02   3.8428E-02   3.4944E-05  0.0891
   3.8428E-02   3.9363E-02   3.1472E-05  0.0930
   3.9363E-02   4.0321E-02   3.5709E-05  0.0863
   4.0321E-02   4.1302E-02   3.1154E-05  0.0912
   4.1302E-02   4.2307E-02   2.5493E-05  0.0996
   4.2307E-02   4.3337E-02   3.1848E-05  0.0882
   4.3337E-02   4.4391E-02   3.5393E-05  0.0827
   4.4391E-02   4.5471E-02   3.3584E-05  0.0836
   4.5471E-02   4.6577E-02   3.7151E-05  0.0787
   4.6577E-02   4.7711E-02   3.0726E-05  0.0855
   4.7711E-02   4.8871E-02   2.8161E-05  0.0883
   4.8871E-02   5.0061E-02   2.8626E-05  0.0864
   5.0061E-02   5.1279E-02   2.7026E-05  0.0880
   5.1279E-02   5.2526E-02   2.7589E-05  0.0857
   5.2526E-02   5.3804E-02   2.5652E-05  0.0880
   5.3804E-02   5.5113E-02   2.7912E-05  0.0834
   5.5113E-02   5.6454E-02   2.8672E-05  0.0813
   5.6454E-02   5.7828E-02   2.3909E-05  0.0878
   5.7828E-02   5.9235E-02   2.2108E-05  0.0901
   5.9235E-02   6.0676E-02   2.7598E-05  0.0798
   6.0676E-02   6.2152E-02   2.0405E-05  0.0920
   6.2152E-02   6.3665E-02   2.7873E-05  0.0775
   6.3665E-02   6.5214E-02   2.2999E-05  0.0843
   6.5214E-02   6.6800E-02   2.2391E-05  0.0845
   6.6800E-02   6.8426E-02   2.1657E-05  0.0848
   6.8426E-02   7.0090E-02   2.2239E-05  0.0828
   7.0090E-02   7.1796E-02   2.1393E-05  0.0835
   7.1796E-02   7.3543E-02   2.0376E-05  0.0846
   7.3543E-02   7.5332E-02   2.3969E-05  0.0770
   7.5332E-02   7.7165E-02   2.6112E-05  0.0730
   7.7165E-02   7.9042E-02   1.9899E-05  0.0824
   7.9042E-02   8.0965E-02   1.8931E-05  0.0836
   8.0965E-02   8.2935E-02   1.8638E-05  0.0834
   8.2935E-02   8.4953E-02   1.8364E-05  0.0830
   8.4953E-02   8.7020E-02   2.1247E-05  0.0761
   8.7020E-02   8.9138E-02   2.0152E-05  0.0772
   8.9138E-02   9.1306E-02   1.8534E-05  0.0793
   9.1306E-02   9.3528E-02   1.8192E-05  0.0792
   9.3528E-02   9.5804E-02   1.9545E-05  0.0757
   9.5804E-02   9.8134E-02   2.1018E-05  0.0720
   9.8134E-02   1.0052E-01   1.5710E-05  0.0823
   1.0052E-01   1.0297E-01   1.8945E-05  0.0743
   1.0297E-01   1.0547E-01   1.9713E-05  0.0717
   1.0547E-01   1.0804E-01   2.0964E-05  0.0689
   1.0804E-01   1.1067E-01   2.1042E-05  0.0677
   1.1067E-01   1.1336E-01   2.2957E-05  0.0642
   1.1336E-01   1.1612E-01   2.4198E-05  0.0618
   1.1612E-01   1.1894E-01   2.2308E-05  0.0635
   1.1894E-01   1.2184E-01   2.4870E-05  0.0594
   1.2184E-01   1.2480E-01   2.7550E-05  0.0558
   1.2480E-01   1.2784E-01   2.9742E-05  0.0531
   1.2784E-01   1.3095E-01   2.9072E-05  0.0530
   1.3095E-01   1.3414E-01   3.0169E-05  0.0514
   1.3414E-01   1.3740E-01   3.3250E-05  0.0484
   1.3740E-01   1.4074E-01   3.2951E-05  0.0481
   1.4074E-01   1.4417E-01   3.6239E-05  0.0453
   1.4417E-01   1.4767E-01   3.7345E-05  0.0440
   1.4767E-01   1.5127E-01   4.1123E-05  0.0415
   1.5127E-01   1.5495E-01   3.9158E-05  0.0420
   1.5495E-01   1.5872E-01   4.4640E-05  0.0389
   1.5872E-01   1.6258E-01   4.5923E-05  0.0379
   1.6258E-01   1.6654E-01   4.7611E-05  0.0368
   1.6654E-01   1.7059E-01   4.7102E-05  0.0365
   1.7059E-01   1.7474E-01   4.9977E-05  0.0350
   1.7474E-01   1.7899E-01   5.3059E-05  0.0336
   1.7899E-01   1.8334E-01   5.6488E-05  0.0322
   1.8334E-01   1.8781E-01   5.7687E-05  0.0314
   1.8781E-01   1.9237E-01   5.9870E-05  0.0305
   1.9237E-01   1.9706E-01   6.2866E-05  0.0294
   1.9706E-01   2.0185E-01   6.7805E-05  0.0280
   2.0185E-01   2.0676E-01   6.5288E-05  0.0282
   2.0676E-01   2.1179E-01   7.0638E-05  0.0268
   2.1179E-01   2.1694E-01   7.4521E-05  0.0258
   2.1694E-01   2.2222E-01   7.7809E-05  0.0249
   2.2222E-01   2.2763E-01   8.3344E-05  0.0238
   2.2763E-01   2.3317E-01   8.4609E-05  0.0233
   2.3317E-01   2.3884E-01   8.9102E-05  0.0224
   2.3884E-01   2.4465E-01   9.2268E-05  0.0218
   2.4465E-01   2.5061E-01   9.7317E-05  0.0210
   2.5061E-01   2.5670E-01   9.7924E-05  0.0207
   2.5670E-01   2.6295E-01   1.0377E-04  0.0198
   2.6295E-01   2.6935E-01   1.0905E-04  0.0191
   2.6935E-01   2.7590E-01   1.1414E-04  0.0185
   2.7590E-01   2.8261E-01   1.2009E-04  0.0178
   2.8261E-01   2.8949E-01   1.1987E-04  0.0176
   2.8949E-01   2.9653E-01   1.2733E-04  0.0169
   2.9653E-01   3.0375E-01   1.3389E-04  0.0162
   3.0375E-01   3.1114E-01   1.3781E-04  0.0158
   3.1114E-01   3.1871E-01   1.4166E-04  0.0154
   3.1871E-01   3.2646E-01   1.4916E-04  0.0148
   3.2646E-01   3.3441E-01   1.5491E-04  0.0144
   3.3441E-01   3.4254E-01   1.5989E-04  0.0140
   3.4254E-01   3.5088E-01   1.6484E-04  0.0136
   3.5088E-01   3.5941E-01   1.7160E-04  0.0132
   3.5941E-01   3.6816E-01   1.7837E-04  0.0128
   3.6816E-01   3.7712E-01   1.8696E-04  0.0123
   3.7712E-01   3.8629E-01   1.8450E-04  0.0123
   3.8629E-01   3.9569E-01   1.9450E-04  0.0118
   3.9569E-01   4.0532E-01   2.0441E-04  0.0114
   4.0532E-01   4.1518E-01   2.0704E-04  0.0112
   4.1518E-01   4.2528E-01   2.1122E-04  0.0109
   4.2528E-01   4.3563E-01   2.1606E-04  0.0107
   4.3563E-01   4.4623E-01   2.2156E-04  0.0104
   4.4623E-01   4.5708E-01   2.2467E-04  0.0102
   4.5708E-01   4.6821E-01   2.3035E-04  0.0100
   4.6821E-01   4.7960E-01   2.3122E-04  0.0098
   4.7960E-01   4.9127E-01   2.4058E-04  0.0095
   4.9127E-01   5.0322E-01   2.4407E-04  0.0093
   5.0322E-01   5.1546E-01   2.5117E-04  0.0091
   5.1546E-01   5.2800E-01   2.5222E-04  0.0090
   5.2800E-01   5.4085E-01   2.5945E-04  0.0087
   5.4085E-01   5.5401E-01   2.6230E-04  0.0086
   5.5401E-01   5.6749E-01   2.7011E-04  0.0084
   5.6749E-01   5.8130E-01   2.7224E-04  0.0082
   5.8130E-01   5.9544E-01   2.7355E-04  0.0081
   5.9544E-01   6.0993E-01   2.8058E-04  0.0079
   6.0993E-01   6.2477E-01   2.8108E-04  0.0078
   6.2477E-01   6.3997E-01   2.7883E-04  0.0077
   6.3997E-01   6.5554E-01   2.8897E-04  0.0075
   6.5554E-01   6.7149E-01   2.8825E-04  0.0074
   6.7149E-01   6.8783E-01   2.9323E-04  0.0073
   6.8783E-01   7.0456E-01   2.9184E-04  0.0072
   7.0456E-01   7.2171E-01   2.9513E-04  0.0071
   7.2171E-01   7.3927E-01   2.9456E-04  0.0070
   7.3927E-01   7.5725E-01   2.9631E-04  0.0069
   7.5725E-01   7.7568E-01   3.0104E-04  0.0068
   7.7568E-01   7.9455E-01   2.9964E-04  0.0067
   7.9455E-01   8.1388E-01   3.0056E-04  0.0066
   8.1388E-01   8.3368E-01   2.9895E-04  0.0066
   8.3368E-01   8.5397E-01   3.0257E-04  0.0064
   8.5397E-01   8.7475E-01   3.0317E-04  0.0064
   8.7475E-01   8.9603E-01   2.9717E-04  0.0063
   8.9603E-01   9.1783E-01   2.9898E-04  0.0062
   9.1783E-01   9.4016E-01   3.0157E-04  0.0061
   9.4016E-01   9.6304E-01   2.9583E-04  0.0061
   9.6304E-01   9.8647E-01   2.9386E-04  0.0061
   9.8647E-01   1.0105E+00   2.8974E-04  0.0060
   1.0105E+00   1.0351E+00   2.8527E-04  0.0060
   1.0351E+00   1.0602E+00   2.8285E-04  0.0060
   1.0602E+00   1.0860E+00   2.8613E-04  0.0059
   1.0860E+00   1.1125E+00   2.8619E-04  0.0058
   1.1125E+00   1.1395E+00   2.8579E-04  0.0057
   1.1395E+00   1.1673E+00   2.8509E-04  0.0057
   1.1673E+00   1.1957E+00   2.8859E-04  0.0056
   1.1957E+00   1.2247E+00   2.8771E-04  0.0055
   1.2247E+00   1.2545E+00   2.8980E-04  0.0054
   1.2545E+00   1.2851E+00   2.9254E-04  0.0053
   1.2851E+00   1.3163E+00   2.8719E-04  0.0053
   1.3163E+00   1.3484E+00   2.8883E-04  0.0052
   1.3484E+00   1.3812E+00   2.8568E-04  0.0052
   1.3812E+00   1.4148E+00   2.8673E-04  0.0051
   1.4148E+00   1.4492E+00   2.8722E-04  0.0050
   1.4492E+00   1.4845E+00   2.8627E-04  0.0050
   1.4845E+00   1.5206E+00   2.8523E-04  0.0049
   1.5206E+00   1.5576E+00   2.8145E-04  0.0049
   1.5576E+00   1.5955E+00   2.8046E-04  0.0048
   1.5955E+00   1.6343E+00   2.7830E-04  0.0048
   1.6343E+00   1.6741E+00   2.7700E-04  0.0048
   1.6741E+00   1.7148E+00   2.7184E-04  0.0047
   1.7148E+00   1.7565E+00   2.6973E-04  0.0047
   1.7565E+00   1.7992E+00   2.5576E-04  0.0048
   1.7992E+00   1.8430E+00   2.4208E-04  0.0048
   1.8430E+00   1.8879E+00   2.2840E-04  0.0049
   1.8879E+00   1.9338E+00   2.2438E-04  0.0049
   1.9338E+00   1.9808E+00   2.1925E-04  0.0049
   1.9808E+00   2.0290E+00   2.1549E-04  0.0048
   2.0290E+00   2.0784E+00   2.1299E-04  0.0048
   2.0784E+00   2.1290E+00   2.1345E-04  0.0047
   2.1290E+00   2.1808E+00   2.1629E-04  0.0046
   2.1808E+00   2.2338E+00   2.1811E-04  0.0045
   2.2338E+00   2.2882E+00   2.1513E-04  0.0045
   2.2882E+00   2.3439E+00   2.0670E-04  0.0046
   2.3439E+00   2.4009E+00   2.0110E-04  0.0046
   2.4009E+00   2.4593E+00   1.9835E-04  0.0046
   2.4593E+00   2.5191E+00   1.9550E-04  0.0046
   2.5191E+00   2.5804E+00   1.9512E-04  0.0045
   2.5804E+00   2.6432E+00   1.9030E-04  0.0045
   2.6432E+00   2.7075E+00   1.8816E-04  0.0045
   2.7075E+00   2.7734E+00   1.8426E-04  0.0045
   2.7734E+00   2.8409E+00   1.8250E-04  0.0044
   2.8409E+00   2.9100E+00   1.7935E-04  0.0044
   2.9100E+00   2.9808E+00   1.7502E-04  0.0044
   2.9808E+00   3.0533E+00   1.7437E-04  0.0044
   3.0533E+00   3.1276E+00   1.7126E-04  0.0044
   3.1276E+00   3.2037E+00   1.6775E-04  0.0044
   3.2037E+00   3.2817E+00   1.6580E-04  0.0043
   3.2817E+00   3.3615E+00   1.6264E-04  0.0043
   3.3615E+00   3.4433E+00   1.6047E-04  0.0043
   3.4433E+00   3.5271E+00   1.5802E-04  0.0043
   3.5271E+00   3.6129E+00   1.5746E-04  0.0043
   3.6129E+00   3.7008E+00   1.5256E-04  0.0043
   3.7008E+00   3.7908E+00   1.4983E-04  0.0043
   3.7908E+00   3.8831E+00   1.4678E-04  0.0043
   3.8831E+00   3.9776E+00   1.4475E-04  0.0042
   3.9776E+00   4.0743E+00   1.4199E-04  0.0042
   4.0743E+00   4.1735E+00   1.3822E-04  0.0042
   4.1735E+00   4.2750E+00   1.3579E-04  0.0042
   4.2750E+00   4.3790E+00   1.3097E-04  0.0042
   4.3790E+00   4.4856E+00   1.2836E-04  0.0042
   4.4856E+00   4.5947E+00   1.2461E-04  0.0042
   4.5947E+00   4.7065E+00   1.2213E-04  0.0042
   4.7065E+00   4.8210E+00   1.2008E-04  0.0042
   4.8210E+00   4.9383E+00   1.1724E-04  0.0042
   4.9383E+00   5.0585E+00   1.1520E-04  0.0042
   5.0585E+00   5.1815E+00   1.1390E-04  0.0042
   5.1815E+00   5.3076E+00   1.1165E-04  0.0042
   5.3076E+00   5.4368E+00   1.0833E-04  0.0042
   5.4368E+00   5.5690E+00   1.0786E-04  0.0041
   5.5690E+00   5.7045E+00   1.0561E-04  0.0041
   5.7045E+00   5.8433E+00   1.0394E-04  0.0041
   5.8433E+00   5.9855E+00   1.0295E-04  0.0041
   5.9855E+00   6.1311E+00   1.0048E-04  0.0041
   6.1311E+00   6.2803E+00   9.8783E-05  0.0041
   6.2803E+00   6.4331E+00   9.7502E-05  0.0041
   6.4331E+00   6.5896E+00   9.5519E-05  0.0041
   6.5896E+00   6.7500E+00   9.3474E-05  0.0041
   6.7500E+00   6.9142E+00   9.2518E-05  0.0040
   6.9142E+00   7.0824E+00   9.0359E-05  0.0040
   7.0824E+00   7.2548E+00   8.8210E-05  0.0040
   7.2548E+00   7.4313E+00   8.6755E-05  0.0040
   7.4313E+00   7.6121E+00   8.4954E-05  0.0040
   7.6121E+00   7.7973E+00   8.3270E-05  0.0040
   7.7973E+00   7.9870E+00   8.1296E-05  0.0040
   7.9870E+00   8.1813E+00   7.9726E-05  0.0040
   8.1813E+00   8.3804E+00   7.6943E-05  0.0040
   8.3804E+00   8.5843E+00   7.4834E-05  0.0040
   8.5843E+00   8.7931E+00   7.2680E-05  0.0041
   8.7931E+00   9.0071E+00   7.0068E-05  0.0041
   9.0071E+00   9.2262E+00   6.7466E-05  0.0041
   9.2262E+00   9.4507E+00   6.4787E-05  0.0042
   9.4507E+00   9.6807E+00   6.2766E-05  0.0042
   9.6807E+00   9.9162E+00   6.0454E-05  0.0042
   9.9162E+00   1.0157E+01   6.1876E-05  0.0041
   1.0157E+01   1.0405E+01   5.9653E-05  0.0042
   1.0405E+01   1.0658E+01   5.7996E-05  0.0042
   1.0658E+01   1.0917E+01   5.5760E-05  0.0042
   1.0917E+01   1.1183E+01   5.2616E-05  0.0043
   1.1183E+01   1.1455E+01   5.0557E-05  0.0043
   1.1455E+01   1.1733E+01   4.8643E-05  0.0043
   1.1733E+01   1.2019E+01   4.6551E-05  0.0044
   1.2019E+01   1.2311E+01   4.4796E-05  0.0044
   1.2311E+01   1.2611E+01   4.2677E-05  0.0045
   1.2611E+01   1.2918E+01   4.0689E-05  0.0045
   1.2918E+01   1.3232E+01   3.8811E-05  0.0046
   1.3232E+01   1.3554E+01   3.7098E-05  0.0046
   1.3554E+01   1.3884E+01   3.4861E-05  0.0047
   1.3884E+01   1.4222E+01   3.3335E-05  0.0048
   1.4222E+01   1.4568E+01   3.1649E-05  0.0048
   1.4568E+01   1.4922E+01   2.9864E-05  0.0049
   1.4922E+01   1.5285E+01   2.8277E-05  0.0050
   1.5285E+01   1.5657E+01   2.6252E-05  0.0051
   1.5657E+01   1.6038E+01   2.4725E-05  0.0052
   1.6038E+01   1.6428E+01   2.3163E-05  0.0053
   1.6428E+01   1.6828E+01   2.1360E-05  0.0055
   1.6828E+01   1.7237E+01   2.0066E-05  0.0056
   1.7237E+01   1.7657E+01   1.8784E-05  0.0057
   1.7657E+01   1.8086E+01   1.7141E-05  0.0059
   1.8086E+01   1.8526E+01   1.5929E-05  0.0060
   1.8526E+01   1.8977E+01   1.4691E-05  0.0062
   1.8977E+01   1.9439E+01   1.3334E-05  0.0065
   1.9439E+01   1.9912E+01   1.2406E-05  0.0066
   1.9912E+01   2.0396E+01   1.1390E-05  0.0068
   2.0396E+01   2.0893E+01   1.0245E-05  0.0071
   2.0893E+01   2.1401E+01   9.2656E-06  0.0074
   2.1401E+01   2.1922E+01   8.2591E-06  0.0077
   2.1922E+01   2.2455E+01   7.4317E-06  0.0080
   2.2455E+01   2.3001E+01   6.8290E-06  0.0083
   2.3001E+01   2.3561E+01   7.6899E-06  0.0077
   2.3561E+01   2.4134E+01   1.1107E-05  0.0063
   2.4134E+01   2.4721E+01   1.3313E-05  0.0057
   2.4721E+01   2.5323E+01   1.2904E-05  0.0057
   2.5323E+01   2.5939E+01   1.2185E-05  0.0058
   2.5939E+01   2.6570E+01   1.1499E-05  0.0059
   2.6570E+01   2.7217E+01   1.0600E-05  0.0061
   2.7217E+01   2.7879E+01   1.0064E-05  0.0062
   2.7879E+01   2.8557E+01   9.2870E-06  0.0064
   2.8557E+01   2.9252E+01   8.4981E-06  0.0066
   2.9252E+01   2.9964E+01   7.7868E-06  0.0068
   2.9964E+01   3.0693E+01   7.0641E-06  0.0071
   3.0693E+01   3.1440E+01   6.3782E-06  0.0073
   3.1440E+01   3.2205E+01   5.7302E-06  0.0076
   3.2205E+01   3.2988E+01   5.1897E-06  0.0079
   3.2988E+01   3.3791E+01   4.9233E-06  0.0081
   3.3791E+01   3.4613E+01   4.4857E-06  0.0083
   3.4613E+01   3.5455E+01   2.9762E-06  0.0101
   3.5455E+01   3.6318E+01   6.6105E-07  0.0212
   3.6318E+01   3.7201E+01   1.6221E-07  0.0423
   3.7201E+01   3.8106E+01   3.0311E-08  0.0967
   3.8106E+01   3.9034E+01   2.4890E-09  0.3333
   3.9034E+01   3.9983E+01   5.3997E-10  0.7071
   3.9983E+01   4.0956E+01   5.2715E-10  0.7071
   4.0956E+01   4.1953E+01   0.0000E+00  0.0000
   4.1953E+01   4.2973E+01   0.0000E+00  0.0000
   4.2973E+01   4.4019E+01   2.4523E-10  1.0000
   4.4019E+01   4.5090E+01   0.0000E+00  0.0000
   4.5090E+01   4.6187E+01   0.0000E+00  0.0000
   4.6187E+01   4.7311E+01   0.0000E+00  0.0000
   4.7311E+01   4.8462E+01   0.0000E+00  0.0000
   4.8462E+01   4.9641E+01   0.0000E+00  0.0000
   4.9641E+01   5.0849E+01   0.0000E+00  0.0000
   5.0849E+01   5.2086E+01   0.0000E+00  0.0000
   5.2086E+01   5.3353E+01   0.0000E+00  0.0000
   5.3353E+01   5.4651E+01   0.0000E+00  0.0000
   5.4651E+01   5.5981E+01   0.0000E+00  0.0000
   5.5981E+01   5.7343E+01   0.0000E+00  0.0000
   5.7343E+01   5.8738E+01   0.0000E+00  0.0000
   5.8738E+01   6.0168E+01   0.0000E+00  0.0000
   6.0168E+01   6.1632E+01   0.0000E+00  0.0000
   6.1632E+01   6.3131E+01   0.0000E+00  0.0000
   6.3131E+01   6.4667E+01   0.0000E+00  0.0000
   6.4667E+01   6.6240E+01   0.0000E+00  0.0000
   6.6240E+01   6.7852E+01   0.0000E+00  0.0000
   6.7852E+01   6.9503E+01   0.0000E+00  0.0000
   6.9503E+01   7.1194E+01   0.0000E+00  0.0000
   7.1194E+01   7.2926E+01   0.0000E+00  0.0000
   7.2926E+01   7.4701E+01   0.0000E+00  0.0000
   7.4701E+01   7.6518E+01   0.0000E+00  0.0000
   7.6518E+01   7.8380E+01   0.0000E+00  0.0000
   7.8380E+01   8.0287E+01   0.0000E+00  0.0000
   8.0287E+01   8.2240E+01   0.0000E+00  0.0000
   8.2240E+01   8.4241E+01   0.0000E+00  0.0000
   8.4241E+01   8.6291E+01   0.0000E+00  0.0000
   8.6291E+01   8.8391E+01   0.0000E+00  0.0000
   8.8391E+01   9.0541E+01   0.0000E+00  0.0000
   9.0541E+01   9.2744E+01   0.0000E+00  0.0000
   9.2744E+01   9.5001E+01   0.0000E+00  0.0000
   9.5001E+01   9.7312E+01   0.0000E+00  0.0000
   9.7312E+01   9.9680E+01   0.0000E+00  0.0000
   9.9680E+01   1.0211E+02   0.0000E+00  0.0000
   1.0211E+02   1.0459E+02   0.0000E+00  0.0000
   1.0459E+02   1.0713E+02   0.0000E+00  0.0000
   1.0713E+02   1.0974E+02   0.0000E+00  0.0000
   1.0974E+02   1.1241E+02   0.0000E+00  0.0000
   1.1241E+02   1.1515E+02   0.0000E+00  0.0000
   1.1515E+02   1.1795E+02   0.0000E+00  0.0000
   1.1795E+02   1.2082E+02   0.0000E+00  0.0000
   1.2082E+02   1.2376E+02   0.0000E+00  0.0000
   1.2376E+02   1.2677E+02   0.0000E+00  0.0000
   1.2677E+02   1.2985E+02   0.0000E+00  0.0000
   1.2985E+02   1.3301E+02   0.0000E+00  0.0000
   1.3301E+02   1.3625E+02   0.0000E+00  0.0000
   1.3625E+02   1.3956E+02   0.0000E+00  0.0000
   1.3956E+02   1.4296E+02   0.0000E+00  0.0000
   1.4296E+02   1.4644E+02   0.0000E+00  0.0000
   1.4644E+02   1.5000E+02   0.0000E+00  0.0000

#   sum over                 1.2140E-05
'no. =    1   reg = 111 - 211'
msuc: {\huge [t-cross] in region mesh}
msdr: {\it plotted by \ANGEL \version}
msdl: {\it calculated by \PHITS  3.26}
wt: s(0.7)
\vspace{-3}
  region surface crossing
  area  &=&   1.0000E+00 [cm^2]
e:
 
# Information for Restart Calculation
# This calculation was newly started
# istdev =  2 # 1:Batch variance, 2:History variance
# resc2  = 3.90000000000000000E+09 # Total source weight or Total source weight / maxcas
# resc3  = 3.90000000000000000E+09 # Total history number or Total batch number
# maxcas =   100000000 # History / Batch, only used for istdev=1
# bitrseed = 1001000100011001100110111101101111001101001011101000111110000101 # bit data of rseed
