[ T-Cross ]
    title = [t-cross] in region mesh
     mesh =  reg            # mesh type is region-wise
      reg =    1            # number of crossing regions
      non     r-from    r-to       area
      1       114       214        1.000000    
   e-type =    3            # e-mesh is log given by emin, emax and ne
     emin =  1.0000000E-02  # minimum value of e-mesh points
     emax =   150.0000      # maximum value of e-mesh points
#    edel =  2.4039514E-02  # mesh width of e-mesh points
       ne =    400          # number of e-mesh points
#    data = ( e(i), i = 1, ne + 1 )
#           1.00000E-02  1.02433E-02  1.04925E-02  1.07478E-02  1.10093E-02
#           1.12772E-02  1.15516E-02  1.18326E-02  1.21205E-02  1.24154E-02
#           1.27175E-02  1.30269E-02  1.33439E-02  1.36686E-02  1.40011E-02
#           1.43418E-02  1.46907E-02  1.50482E-02  1.54143E-02  1.57894E-02
#           1.61735E-02  1.65670E-02  1.69701E-02  1.73830E-02  1.78060E-02
#           1.82392E-02  1.86830E-02  1.91375E-02  1.96032E-02  2.00801E-02
#           2.05687E-02  2.10692E-02  2.15818E-02  2.21069E-02  2.26448E-02
#           2.31957E-02  2.37601E-02  2.43382E-02  2.49304E-02  2.55369E-02
#           2.61583E-02  2.67947E-02  2.74467E-02  2.81145E-02  2.87985E-02
#           2.94992E-02  3.02169E-02  3.09521E-02  3.17052E-02  3.24766E-02
#           3.32668E-02  3.40762E-02  3.49053E-02  3.57546E-02  3.66246E-02
#           3.75157E-02  3.84284E-02  3.93634E-02  4.03212E-02  4.13022E-02
#           4.23071E-02  4.33365E-02  4.43909E-02  4.54710E-02  4.65773E-02
#           4.77106E-02  4.88714E-02  5.00605E-02  5.12785E-02  5.25262E-02
#           5.38042E-02  5.51133E-02  5.64542E-02  5.78278E-02  5.92348E-02
#           6.06760E-02  6.21523E-02  6.36645E-02  6.52135E-02  6.68002E-02
#           6.84255E-02  7.00904E-02  7.17957E-02  7.35426E-02  7.53319E-02
#           7.71648E-02  7.90423E-02  8.09655E-02  8.29354E-02  8.49533E-02
#           8.70203E-02  8.91376E-02  9.13064E-02  9.35279E-02  9.58035E-02
#           9.81345E-02  1.00522E-01  1.02968E-01  1.05473E-01  1.08040E-01
#           1.10668E-01  1.13361E-01  1.16119E-01  1.18944E-01  1.21838E-01
#           1.24803E-01  1.27839E-01  1.30950E-01  1.34136E-01  1.37399E-01
#           1.40742E-01  1.44167E-01  1.47675E-01  1.51268E-01  1.54948E-01
#           1.58718E-01  1.62580E-01  1.66535E-01  1.70587E-01  1.74738E-01
#           1.78989E-01  1.83344E-01  1.87805E-01  1.92375E-01  1.97055E-01
#           2.01850E-01  2.06761E-01  2.11792E-01  2.16945E-01  2.22223E-01
#           2.27630E-01  2.33169E-01  2.38842E-01  2.44653E-01  2.50605E-01
#           2.56703E-01  2.62949E-01  2.69346E-01  2.75900E-01  2.82613E-01
#           2.89489E-01  2.96532E-01  3.03747E-01  3.11138E-01  3.18708E-01
#           3.26462E-01  3.34405E-01  3.42542E-01  3.50876E-01  3.59413E-01
#           3.68158E-01  3.77116E-01  3.86291E-01  3.95690E-01  4.05317E-01
#           4.15179E-01  4.25281E-01  4.35628E-01  4.46227E-01  4.57084E-01
#           4.68205E-01  4.79597E-01  4.91266E-01  5.03219E-01  5.15463E-01
#           5.28005E-01  5.40851E-01  5.54011E-01  5.67490E-01  5.81298E-01
#           5.95441E-01  6.09929E-01  6.24769E-01  6.39970E-01  6.55541E-01
#           6.71491E-01  6.87828E-01  7.04564E-01  7.21706E-01  7.39266E-01
#           7.57253E-01  7.75678E-01  7.94551E-01  8.13883E-01  8.33685E-01
#           8.53969E-01  8.74747E-01  8.96030E-01  9.17831E-01  9.40163E-01
#           9.63038E-01  9.86469E-01  1.01047E+00  1.03506E+00  1.06024E+00
#           1.08604E+00  1.11246E+00  1.13953E+00  1.16725E+00  1.19565E+00
#           1.22474E+00  1.25454E+00  1.28507E+00  1.31633E+00  1.34836E+00
#           1.38117E+00  1.41477E+00  1.44920E+00  1.48446E+00  1.52057E+00
#           1.55757E+00  1.59547E+00  1.63429E+00  1.67405E+00  1.71478E+00
#           1.75650E+00  1.79924E+00  1.84302E+00  1.88786E+00  1.93379E+00
#           1.98084E+00  2.02904E+00  2.07841E+00  2.12898E+00  2.18078E+00
#           2.23384E+00  2.28819E+00  2.34386E+00  2.40089E+00  2.45930E+00
#           2.51914E+00  2.58043E+00  2.64322E+00  2.70753E+00  2.77341E+00
#           2.84088E+00  2.91001E+00  2.98081E+00  3.05333E+00  3.12762E+00
#           3.20372E+00  3.28167E+00  3.36152E+00  3.44330E+00  3.52708E+00
#           3.61290E+00  3.70080E+00  3.79085E+00  3.88308E+00  3.97756E+00
#           4.07434E+00  4.17347E+00  4.27501E+00  4.37903E+00  4.48557E+00
#           4.59471E+00  4.70650E+00  4.82102E+00  4.93832E+00  5.05847E+00
#           5.18155E+00  5.30762E+00  5.43676E+00  5.56904E+00  5.70453E+00
#           5.84333E+00  5.98550E+00  6.13114E+00  6.28031E+00  6.43312E+00
#           6.58964E+00  6.74997E+00  6.91420E+00  7.08243E+00  7.25475E+00
#           7.43126E+00  7.61207E+00  7.79728E+00  7.98700E+00  8.18133E+00
#           8.38038E+00  8.58428E+00  8.79315E+00  9.00709E+00  9.22624E+00
#           9.45072E+00  9.68067E+00  9.91620E+00  1.01575E+01  1.04046E+01
#           1.06578E+01  1.09171E+01  1.11827E+01  1.14548E+01  1.17335E+01
#           1.20190E+01  1.23114E+01  1.26109E+01  1.29178E+01  1.32321E+01
#           1.35540E+01  1.38838E+01  1.42216E+01  1.45676E+01  1.49221E+01
#           1.52851E+01  1.56570E+01  1.60380E+01  1.64282E+01  1.68279E+01
#           1.72374E+01  1.76568E+01  1.80864E+01  1.85264E+01  1.89772E+01
#           1.94389E+01  1.99119E+01  2.03963E+01  2.08926E+01  2.14009E+01
#           2.19216E+01  2.24550E+01  2.30014E+01  2.35610E+01  2.41343E+01
#           2.47215E+01  2.53230E+01  2.59391E+01  2.65702E+01  2.72167E+01
#           2.78789E+01  2.85572E+01  2.92520E+01  2.99637E+01  3.06928E+01
#           3.14396E+01  3.22045E+01  3.29881E+01  3.37907E+01  3.46128E+01
#           3.54550E+01  3.63177E+01  3.72013E+01  3.81064E+01  3.90336E+01
#           3.99833E+01  4.09561E+01  4.19526E+01  4.29734E+01  4.40189E+01
#           4.50900E+01  4.61870E+01  4.73108E+01  4.84619E+01  4.96410E+01
#           5.08488E+01  5.20860E+01  5.33533E+01  5.46514E+01  5.59812E+01
#           5.73432E+01  5.87384E+01  6.01676E+01  6.16315E+01  6.31311E+01
#           6.46671E+01  6.62405E+01  6.78522E+01  6.95031E+01  7.11941E+01
#           7.29263E+01  7.47007E+01  7.65182E+01  7.83800E+01  8.02870E+01
#           8.22405E+01  8.42414E+01  8.62911E+01  8.83906E+01  9.05412E+01
#           9.27442E+01  9.50007E+01  9.73122E+01  9.96799E+01  1.02105E+02
#           1.04589E+02  1.07134E+02  1.09741E+02  1.12411E+02  1.15146E+02
#           1.17948E+02  1.20817E+02  1.23757E+02  1.26768E+02  1.29852E+02
#           1.33012E+02  1.36248E+02  1.39563E+02  1.42959E+02  1.46437E+02
#           1.50000E+02
     unit =    2            # unit is [1/cm^2/(MeV/n)/source]
     axis =  eng            # axis of output
     file = detector-15.out  # file name of output for the above axis
   output = f-curr          # surface crossing forward current spectrum
     part =  neutron  
# kf/name :  2112     
#    used :        main (  %)        temp (  %)       total (  %)
#  memory :         414 (  0)           0 (  0)         414 (  0)

#------------------------------------------------------------------------------
#newpage:
#   no. =    1   reg = 114 - 214

x: Energy [MeV/n]
y:  F-Curr [1/cm^2/(MeV/n)/source]         
p: xlog ylog afac(0.8) form(0.9)
h: n            x            y(neutron ),hh0l   n 
#  e-lower      e-upper      neutron     r.err 
   1.0000E-02   1.0243E-02   1.6219E-04  0.0802
   1.0243E-02   1.0493E-02   1.4282E-04  0.0846
   1.0493E-02   1.0748E-02   1.3339E-04  0.0864
   1.0748E-02   1.1009E-02   1.3023E-04  0.0864
   1.1009E-02   1.1277E-02   1.5887E-04  0.0774
   1.1277E-02   1.1552E-02   1.2615E-04  0.0858
   1.1552E-02   1.1833E-02   1.3711E-04  0.0812
   1.1833E-02   1.2121E-02   1.2943E-04  0.0828
   1.2121E-02   1.2415E-02   1.3336E-04  0.0804
   1.2415E-02   1.2718E-02   1.3638E-04  0.0786
   1.2718E-02   1.3027E-02   1.2460E-04  0.0812
   1.3027E-02   1.3344E-02   1.2054E-04  0.0816
   1.3344E-02   1.3669E-02   1.1405E-04  0.0831
   1.3669E-02   1.4001E-02   1.1563E-04  0.0812
   1.4001E-02   1.4342E-02   1.1981E-04  0.0789
   1.4342E-02   1.4691E-02   1.0793E-04  0.0822
   1.4691E-02   1.5048E-02   1.0133E-04  0.0837
   1.5048E-02   1.5414E-02   9.7687E-05  0.0843
   1.5414E-02   1.5789E-02   1.0019E-04  0.0825
   1.5789E-02   1.6174E-02   8.8718E-05  0.0863
   1.6174E-02   1.6567E-02   1.0333E-04  0.0791
   1.6567E-02   1.6970E-02   9.3167E-05  0.0823
   1.6970E-02   1.7383E-02   7.5775E-05  0.0904
   1.7383E-02   1.7806E-02   9.3044E-05  0.0805
   1.7806E-02   1.8239E-02   8.0208E-05  0.0855
   1.8239E-02   1.8683E-02   6.9176E-05  0.0910
   1.8683E-02   1.9138E-02   9.4986E-05  0.0769
   1.9138E-02   1.9603E-02   7.6313E-05  0.0846
   1.9603E-02   2.0080E-02   8.7026E-05  0.0783
   2.0080E-02   2.0569E-02   7.6075E-05  0.0828
   2.0569E-02   2.1069E-02   8.1886E-05  0.0786
   2.1069E-02   2.1582E-02   8.2208E-05  0.0777
   2.1582E-02   2.2107E-02   7.6009E-05  0.0799
   2.2107E-02   2.2645E-02   5.9895E-05  0.0889
   2.2645E-02   2.3196E-02   7.4483E-05  0.0786
   2.3196E-02   2.3760E-02   7.5898E-05  0.0770
   2.3760E-02   2.4338E-02   7.0332E-05  0.0790
   2.4338E-02   2.4930E-02   7.0099E-05  0.0784
   2.4930E-02   2.5537E-02   6.7728E-05  0.0788
   2.5537E-02   2.6158E-02   6.2502E-05  0.0809
   2.6158E-02   2.6795E-02   6.2142E-05  0.0803
   2.6795E-02   2.7447E-02   6.5757E-05  0.0771
   2.7447E-02   2.8114E-02   5.5704E-05  0.0828
   2.8114E-02   2.8799E-02   5.6423E-05  0.0812
   2.8799E-02   2.9499E-02   5.6954E-05  0.0799
   2.9499E-02   3.0217E-02   6.0441E-05  0.0766
   3.0217E-02   3.0952E-02   5.4717E-05  0.0796
   3.0952E-02   3.1705E-02   5.1843E-05  0.0807
   3.1705E-02   3.2477E-02   5.6520E-05  0.0764
   3.2477E-02   3.3267E-02   6.0542E-05  0.0729
   3.3267E-02   3.4076E-02   4.5703E-05  0.0831
   3.4076E-02   3.4905E-02   5.2844E-05  0.0761
   3.4905E-02   3.5755E-02   5.7377E-05  0.0723
   3.5755E-02   3.6625E-02   4.8955E-05  0.0773
   3.6625E-02   3.7516E-02   4.6498E-05  0.0782
   3.7516E-02   3.8428E-02   5.2687E-05  0.0728
   3.8428E-02   3.9363E-02   4.6895E-05  0.0763
   3.9363E-02   4.0321E-02   4.3056E-05  0.0785
   4.0321E-02   4.1302E-02   4.7157E-05  0.0742
   4.1302E-02   4.2307E-02   4.1798E-05  0.0779
   4.2307E-02   4.3337E-02   3.7200E-05  0.0814
   4.3337E-02   4.4391E-02   3.8503E-05  0.0791
   4.4391E-02   4.5471E-02   3.6062E-05  0.0807
   4.5471E-02   4.6577E-02   3.7908E-05  0.0777
   4.6577E-02   4.7711E-02   3.7779E-05  0.0771
   4.7711E-02   4.8871E-02   3.2147E-05  0.0826
   4.8871E-02   5.0061E-02   3.7044E-05  0.0759
   5.0061E-02   5.1279E-02   3.4848E-05  0.0774
   5.1279E-02   5.2526E-02   4.0111E-05  0.0713
   5.2526E-02   5.3804E-02   3.6499E-05  0.0739
   5.3804E-02   5.5113E-02   3.6885E-05  0.0725
   5.5113E-02   5.6454E-02   3.0227E-05  0.0794
   5.6454E-02   5.7828E-02   3.3576E-05  0.0743
   5.7828E-02   5.9235E-02   3.2007E-05  0.0751
   5.9235E-02   6.0676E-02   3.3582E-05  0.0726
   6.0676E-02   6.2152E-02   2.9342E-05  0.0767
   6.2152E-02   6.3665E-02   2.5597E-05  0.0811
   6.3665E-02   6.5214E-02   3.0605E-05  0.0733
   6.5214E-02   6.6800E-02   2.8948E-05  0.0745
   6.6800E-02   6.8426E-02   2.7888E-05  0.0749
   6.8426E-02   7.0090E-02   2.3764E-05  0.0802
   7.0090E-02   7.1796E-02   2.6470E-05  0.0750
   7.1796E-02   7.3543E-02   2.7322E-05  0.0731
   7.3543E-02   7.5332E-02   2.8090E-05  0.0712
   7.5332E-02   7.7165E-02   2.5734E-05  0.0735
   7.7165E-02   7.9042E-02   2.4457E-05  0.0744
   7.9042E-02   8.0965E-02   2.3323E-05  0.0754
   8.0965E-02   8.2935E-02   2.5395E-05  0.0712
   8.2935E-02   8.4953E-02   2.2868E-05  0.0743
   8.4953E-02   8.7020E-02   2.3676E-05  0.0721
   8.7020E-02   8.9138E-02   2.2948E-05  0.0722
   8.9138E-02   9.1306E-02   2.2748E-05  0.0718
   9.1306E-02   9.3528E-02   2.3774E-05  0.0694
   9.3528E-02   9.5804E-02   2.3400E-05  0.0691
   9.5804E-02   9.8134E-02   2.4969E-05  0.0662
   9.8134E-02   1.0052E-01   2.5578E-05  0.0646
   1.0052E-01   1.0297E-01   2.4299E-05  0.0654
   1.0297E-01   1.0547E-01   2.6736E-05  0.0617
   1.0547E-01   1.0804E-01   2.5524E-05  0.0623
   1.0804E-01   1.1067E-01   2.7756E-05  0.0591
   1.1067E-01   1.1336E-01   2.7609E-05  0.0585
   1.1336E-01   1.1612E-01   3.2777E-05  0.0531
   1.1612E-01   1.1894E-01   3.0253E-05  0.0546
   1.1894E-01   1.2184E-01   3.5234E-05  0.0500
   1.2184E-01   1.2480E-01   3.5437E-05  0.0493
   1.2480E-01   1.2784E-01   3.5290E-05  0.0487
   1.2784E-01   1.3095E-01   3.5757E-05  0.0478
   1.3095E-01   1.3414E-01   3.9586E-05  0.0449
   1.3414E-01   1.3740E-01   4.0938E-05  0.0436
   1.3740E-01   1.4074E-01   4.3170E-05  0.0420
   1.4074E-01   1.4417E-01   4.3475E-05  0.0414
   1.4417E-01   1.4767E-01   4.7469E-05  0.0391
   1.4767E-01   1.5127E-01   4.9343E-05  0.0379
   1.5127E-01   1.5495E-01   4.7862E-05  0.0380
   1.5495E-01   1.5872E-01   4.9350E-05  0.0370
   1.5872E-01   1.6258E-01   5.5987E-05  0.0343
   1.6258E-01   1.6654E-01   5.7113E-05  0.0336
   1.6654E-01   1.7059E-01   5.9481E-05  0.0325
   1.7059E-01   1.7474E-01   6.3364E-05  0.0312
   1.7474E-01   1.7899E-01   6.4764E-05  0.0304
   1.7899E-01   1.8334E-01   6.8366E-05  0.0292
   1.8334E-01   1.8781E-01   7.0684E-05  0.0284
   1.8781E-01   1.9237E-01   7.5629E-05  0.0272
   1.9237E-01   1.9706E-01   7.4907E-05  0.0270
   1.9706E-01   2.0185E-01   7.8345E-05  0.0261
   2.0185E-01   2.0676E-01   8.3827E-05  0.0249
   2.0676E-01   2.1179E-01   8.9242E-05  0.0238
   2.1179E-01   2.1694E-01   9.0401E-05  0.0234
   2.1694E-01   2.2222E-01   9.6155E-05  0.0224
   2.2222E-01   2.2763E-01   9.9892E-05  0.0217
   2.2763E-01   2.3317E-01   9.9622E-05  0.0215
   2.3317E-01   2.3884E-01   1.0677E-04  0.0205
   2.3884E-01   2.4465E-01   1.1243E-04  0.0198
   2.4465E-01   2.5061E-01   1.1867E-04  0.0190
   2.5061E-01   2.5670E-01   1.1474E-04  0.0191
   2.5670E-01   2.6295E-01   1.2652E-04  0.0180
   2.6295E-01   2.6935E-01   1.2648E-04  0.0178
   2.6935E-01   2.7590E-01   1.3893E-04  0.0167
   2.7590E-01   2.8261E-01   1.3845E-04  0.0166
   2.8261E-01   2.8949E-01   1.4515E-04  0.0160
   2.8949E-01   2.9653E-01   1.4854E-04  0.0156
   2.9653E-01   3.0375E-01   1.5066E-04  0.0153
   3.0375E-01   3.1114E-01   1.5624E-04  0.0149
   3.1114E-01   3.1871E-01   1.5814E-04  0.0146
   3.1871E-01   3.2646E-01   1.6234E-04  0.0142
   3.2646E-01   3.3441E-01   1.6996E-04  0.0137
   3.3441E-01   3.4254E-01   1.7328E-04  0.0134
   3.4254E-01   3.5088E-01   1.7550E-04  0.0132
   3.5088E-01   3.5941E-01   1.8690E-04  0.0126
   3.5941E-01   3.6816E-01   1.8984E-04  0.0124
   3.6816E-01   3.7712E-01   1.9261E-04  0.0122
   3.7712E-01   3.8629E-01   2.0041E-04  0.0118
   3.8629E-01   3.9569E-01   2.0755E-04  0.0114
   3.9569E-01   4.0532E-01   2.0623E-04  0.0113
   4.0532E-01   4.1518E-01   2.0887E-04  0.0111
   4.1518E-01   4.2528E-01   2.1045E-04  0.0109
   4.2528E-01   4.3563E-01   2.1431E-04  0.0107
   4.3563E-01   4.4623E-01   2.1696E-04  0.0105
   4.4623E-01   4.5708E-01   2.1846E-04  0.0104
   4.5708E-01   4.6821E-01   2.2629E-04  0.0101
   4.6821E-01   4.7960E-01   2.2771E-04  0.0099
   4.7960E-01   4.9127E-01   2.3011E-04  0.0097
   4.9127E-01   5.0322E-01   2.2684E-04  0.0097
   5.0322E-01   5.1546E-01   2.3286E-04  0.0095
   5.1546E-01   5.2800E-01   2.3395E-04  0.0093
   5.2800E-01   5.4085E-01   2.3438E-04  0.0092
   5.4085E-01   5.5401E-01   2.3843E-04  0.0090
   5.5401E-01   5.6749E-01   2.4034E-04  0.0089
   5.6749E-01   5.8130E-01   2.4414E-04  0.0087
   5.8130E-01   5.9544E-01   2.4056E-04  0.0086
   5.9544E-01   6.0993E-01   2.4258E-04  0.0085
   6.0993E-01   6.2477E-01   2.4392E-04  0.0084
   6.2477E-01   6.3997E-01   2.4585E-04  0.0083
   6.3997E-01   6.5554E-01   2.4639E-04  0.0081
   6.5554E-01   6.7149E-01   2.4627E-04  0.0080
   6.7149E-01   6.8783E-01   2.4851E-04  0.0079
   6.8783E-01   7.0456E-01   2.4840E-04  0.0078
   7.0456E-01   7.2171E-01   2.4476E-04  0.0078
   7.2171E-01   7.3927E-01   2.4984E-04  0.0076
   7.3927E-01   7.5725E-01   2.4857E-04  0.0075
   7.5725E-01   7.7568E-01   2.4860E-04  0.0074
   7.7568E-01   7.9455E-01   2.4699E-04  0.0074
   7.9455E-01   8.1388E-01   2.4179E-04  0.0074
   8.1388E-01   8.3368E-01   2.4181E-04  0.0073
   8.3368E-01   8.5397E-01   2.4209E-04  0.0072
   8.5397E-01   8.7475E-01   2.4141E-04  0.0071
   8.7475E-01   8.9603E-01   2.3891E-04  0.0071
   8.9603E-01   9.1783E-01   2.3871E-04  0.0070
   9.1783E-01   9.4016E-01   2.3306E-04  0.0070
   9.4016E-01   9.6304E-01   2.3171E-04  0.0069
   9.6304E-01   9.8647E-01   2.2573E-04  0.0069
   9.8647E-01   1.0105E+00   2.2677E-04  0.0068
   1.0105E+00   1.0351E+00   2.2374E-04  0.0068
   1.0351E+00   1.0602E+00   2.1930E-04  0.0068
   1.0602E+00   1.0860E+00   2.2199E-04  0.0066
   1.0860E+00   1.1125E+00   2.1996E-04  0.0066
   1.1125E+00   1.1395E+00   2.1866E-04  0.0065
   1.1395E+00   1.1673E+00   2.1971E-04  0.0064
   1.1673E+00   1.1957E+00   2.2112E-04  0.0063
   1.1957E+00   1.2247E+00   2.2031E-04  0.0063
   1.2247E+00   1.2545E+00   2.2209E-04  0.0062
   1.2545E+00   1.2851E+00   2.1780E-04  0.0061
   1.2851E+00   1.3163E+00   2.1755E-04  0.0061
   1.3163E+00   1.3484E+00   2.1986E-04  0.0060
   1.3484E+00   1.3812E+00   2.1730E-04  0.0059
   1.3812E+00   1.4148E+00   2.1605E-04  0.0059
   1.4148E+00   1.4492E+00   2.1491E-04  0.0058
   1.4492E+00   1.4845E+00   2.1329E-04  0.0057
   1.4845E+00   1.5206E+00   2.1447E-04  0.0057
   1.5206E+00   1.5576E+00   2.1063E-04  0.0056
   1.5576E+00   1.5955E+00   2.0785E-04  0.0056
   1.5955E+00   1.6343E+00   2.0318E-04  0.0056
   1.6343E+00   1.6741E+00   2.0192E-04  0.0055
   1.6741E+00   1.7148E+00   1.9873E-04  0.0055
   1.7148E+00   1.7565E+00   1.9265E-04  0.0055
   1.7565E+00   1.7992E+00   1.8566E-04  0.0056
   1.7992E+00   1.8430E+00   1.7448E-04  0.0056
   1.8430E+00   1.8879E+00   1.6331E-04  0.0057
   1.8879E+00   1.9338E+00   1.6052E-04  0.0057
   1.9338E+00   1.9808E+00   1.5336E-04  0.0058
   1.9808E+00   2.0290E+00   1.5192E-04  0.0057
   2.0290E+00   2.0784E+00   1.4988E-04  0.0057
   2.0784E+00   2.1290E+00   1.4792E-04  0.0057
   2.1290E+00   2.1808E+00   1.4757E-04  0.0056
   2.1808E+00   2.2338E+00   1.4792E-04  0.0055
   2.2338E+00   2.2882E+00   1.4583E-04  0.0055
   2.2882E+00   2.3439E+00   1.3912E-04  0.0056
   2.3439E+00   2.4009E+00   1.3412E-04  0.0056
   2.4009E+00   2.4593E+00   1.3264E-04  0.0056
   2.4593E+00   2.5191E+00   1.2828E-04  0.0056
   2.5191E+00   2.5804E+00   1.2524E-04  0.0056
   2.5804E+00   2.6432E+00   1.2265E-04  0.0056
   2.6432E+00   2.7075E+00   1.1938E-04  0.0056
   2.7075E+00   2.7734E+00   1.1642E-04  0.0056
   2.7734E+00   2.8409E+00   1.1360E-04  0.0056
   2.8409E+00   2.9100E+00   1.1104E-04  0.0056
   2.9100E+00   2.9808E+00   1.0954E-04  0.0056
   2.9808E+00   3.0533E+00   1.0680E-04  0.0056
   3.0533E+00   3.1276E+00   1.0147E-04  0.0057
   3.1276E+00   3.2037E+00   1.0101E-04  0.0056
   3.2037E+00   3.2817E+00   1.0060E-04  0.0056
   3.2817E+00   3.3615E+00   9.7316E-05  0.0056
   3.3615E+00   3.4433E+00   9.4925E-05  0.0056
   3.4433E+00   3.5271E+00   9.3707E-05  0.0056
   3.5271E+00   3.6129E+00   9.2359E-05  0.0055
   3.6129E+00   3.7008E+00   9.0528E-05  0.0055
   3.7008E+00   3.7908E+00   8.8506E-05  0.0055
   3.7908E+00   3.8831E+00   8.7549E-05  0.0055
   3.8831E+00   3.9776E+00   8.4670E-05  0.0055
   3.9776E+00   4.0743E+00   8.2786E-05  0.0055
   4.0743E+00   4.1735E+00   8.1062E-05  0.0055
   4.1735E+00   4.2750E+00   7.9205E-05  0.0055
   4.2750E+00   4.3790E+00   7.6992E-05  0.0055
   4.3790E+00   4.4856E+00   7.3892E-05  0.0056
   4.4856E+00   4.5947E+00   7.3570E-05  0.0055
   4.5947E+00   4.7065E+00   7.1124E-05  0.0055
   4.7065E+00   4.8210E+00   6.9960E-05  0.0055
   4.8210E+00   4.9383E+00   6.8391E-05  0.0055
   4.9383E+00   5.0585E+00   6.8010E-05  0.0055
   5.0585E+00   5.1815E+00   6.7104E-05  0.0054
   5.1815E+00   5.3076E+00   6.5379E-05  0.0054
   5.3076E+00   5.4368E+00   6.4672E-05  0.0054
   5.4368E+00   5.5690E+00   6.4006E-05  0.0054
   5.5690E+00   5.7045E+00   6.1985E-05  0.0054
   5.7045E+00   5.8433E+00   6.1079E-05  0.0054
   5.8433E+00   5.9855E+00   6.0152E-05  0.0054
   5.9855E+00   6.1311E+00   5.8807E-05  0.0054
   6.1311E+00   6.2803E+00   5.8178E-05  0.0053
   6.2803E+00   6.4331E+00   5.6174E-05  0.0054
   6.4331E+00   6.5896E+00   5.5527E-05  0.0053
   6.5896E+00   6.7500E+00   5.3695E-05  0.0054
   6.7500E+00   6.9142E+00   5.1796E-05  0.0054
   6.9142E+00   7.0824E+00   5.0895E-05  0.0054
   7.0824E+00   7.2548E+00   4.9290E-05  0.0054
   7.2548E+00   7.4313E+00   4.7996E-05  0.0054
   7.4313E+00   7.6121E+00   4.6130E-05  0.0055
   7.6121E+00   7.7973E+00   4.4845E-05  0.0055
   7.7973E+00   7.9870E+00   4.3755E-05  0.0055
   7.9870E+00   8.1813E+00   4.2153E-05  0.0055
   8.1813E+00   8.3804E+00   4.0448E-05  0.0056
   8.3804E+00   8.5843E+00   3.8597E-05  0.0056
   8.5843E+00   8.7931E+00   3.7292E-05  0.0057
   8.7931E+00   9.0071E+00   3.5887E-05  0.0057
   9.0071E+00   9.2262E+00   3.4402E-05  0.0058
   9.2262E+00   9.4507E+00   3.3098E-05  0.0058
   9.4507E+00   9.6807E+00   3.1389E-05  0.0059
   9.6807E+00   9.9162E+00   3.0375E-05  0.0060
   9.9162E+00   1.0157E+01   3.0747E-05  0.0059
   1.0157E+01   1.0405E+01   2.8906E-05  0.0060
   1.0405E+01   1.0658E+01   2.7475E-05  0.0061
   1.0658E+01   1.0917E+01   2.5910E-05  0.0062
   1.0917E+01   1.1183E+01   2.4317E-05  0.0063
   1.1183E+01   1.1455E+01   2.3286E-05  0.0063
   1.1455E+01   1.1733E+01   2.1804E-05  0.0065
   1.1733E+01   1.2019E+01   2.0813E-05  0.0066
   1.2019E+01   1.2311E+01   1.9863E-05  0.0066
   1.2311E+01   1.2611E+01   1.8355E-05  0.0068
   1.2611E+01   1.2918E+01   1.7400E-05  0.0069
   1.2918E+01   1.3232E+01   1.6556E-05  0.0070
   1.3232E+01   1.3554E+01   1.5395E-05  0.0072
   1.3554E+01   1.3884E+01   1.4532E-05  0.0073
   1.3884E+01   1.4222E+01   1.3321E-05  0.0075
   1.4222E+01   1.4568E+01   1.2539E-05  0.0077
   1.4568E+01   1.4922E+01   1.1595E-05  0.0079
   1.4922E+01   1.5285E+01   1.0760E-05  0.0081
   1.5285E+01   1.5657E+01   9.8455E-06  0.0084
   1.5657E+01   1.6038E+01   9.0527E-06  0.0086
   1.6038E+01   1.6428E+01   8.2842E-06  0.0089
   1.6428E+01   1.6828E+01   7.7120E-06  0.0091
   1.6828E+01   1.7237E+01   6.8798E-06  0.0095
   1.7237E+01   1.7657E+01   6.3066E-06  0.0098
   1.7657E+01   1.8086E+01   5.7423E-06  0.0102
   1.8086E+01   1.8526E+01   5.0273E-06  0.0108
   1.8526E+01   1.8977E+01   4.4883E-06  0.0113
   1.8977E+01   1.9439E+01   4.0550E-06  0.0117
   1.9439E+01   1.9912E+01   3.6502E-06  0.0122
   1.9912E+01   2.0396E+01   3.4243E-06  0.0124
   2.0396E+01   2.0893E+01   3.2401E-06  0.0126
   2.0893E+01   2.1401E+01   3.0280E-06  0.0129
   2.1401E+01   2.1922E+01   2.6493E-06  0.0136
   2.1922E+01   2.2455E+01   2.4758E-06  0.0139
   2.2455E+01   2.3001E+01   2.2044E-06  0.0146
   2.3001E+01   2.3561E+01   2.0283E-06  0.0150
   2.3561E+01   2.4134E+01   1.7923E-06  0.0158
   2.4134E+01   2.4721E+01   1.6379E-06  0.0163
   2.4721E+01   2.5323E+01   1.5513E-06  0.0166
   2.5323E+01   2.5939E+01   1.4037E-06  0.0172
   2.5939E+01   2.6570E+01   1.2266E-06  0.0182
   2.6570E+01   2.7217E+01   1.1708E-06  0.0184
   2.7217E+01   2.7879E+01   1.0753E-06  0.0190
   2.7879E+01   2.8557E+01   9.8547E-07  0.0196
   2.8557E+01   2.9252E+01   8.8346E-07  0.0204
   2.9252E+01   2.9964E+01   7.1729E-07  0.0224
   2.9964E+01   3.0693E+01   3.7000E-07  0.0308
   3.0693E+01   3.1440E+01   9.3736E-08  0.0605
   3.1440E+01   3.2205E+01   5.6313E-08  0.0772
   3.2205E+01   3.2988E+01   3.5342E-08  0.0962
   3.2988E+01   3.3791E+01   2.2362E-08  0.1195
   3.3791E+01   3.4613E+01   7.4850E-09  0.2041
   3.4613E+01   3.5455E+01   9.1340E-10  0.5774
   3.5455E+01   3.6318E+01   0.0000E+00  0.0000
   3.6318E+01   3.7201E+01   0.0000E+00  0.0000
   3.7201E+01   3.8106E+01   0.0000E+00  0.0000
   3.8106E+01   3.9034E+01   0.0000E+00  0.0000
   3.9034E+01   3.9983E+01   0.0000E+00  0.0000
   3.9983E+01   4.0956E+01   0.0000E+00  0.0000
   4.0956E+01   4.1953E+01   0.0000E+00  0.0000
   4.1953E+01   4.2973E+01   0.0000E+00  0.0000
   4.2973E+01   4.4019E+01   0.0000E+00  0.0000
   4.4019E+01   4.5090E+01   0.0000E+00  0.0000
   4.5090E+01   4.6187E+01   0.0000E+00  0.0000
   4.6187E+01   4.7311E+01   0.0000E+00  0.0000
   4.7311E+01   4.8462E+01   0.0000E+00  0.0000
   4.8462E+01   4.9641E+01   0.0000E+00  0.0000
   4.9641E+01   5.0849E+01   0.0000E+00  0.0000
   5.0849E+01   5.2086E+01   0.0000E+00  0.0000
   5.2086E+01   5.3353E+01   0.0000E+00  0.0000
   5.3353E+01   5.4651E+01   0.0000E+00  0.0000
   5.4651E+01   5.5981E+01   0.0000E+00  0.0000
   5.5981E+01   5.7343E+01   0.0000E+00  0.0000
   5.7343E+01   5.8738E+01   0.0000E+00  0.0000
   5.8738E+01   6.0168E+01   0.0000E+00  0.0000
   6.0168E+01   6.1632E+01   0.0000E+00  0.0000
   6.1632E+01   6.3131E+01   0.0000E+00  0.0000
   6.3131E+01   6.4667E+01   0.0000E+00  0.0000
   6.4667E+01   6.6240E+01   0.0000E+00  0.0000
   6.6240E+01   6.7852E+01   0.0000E+00  0.0000
   6.7852E+01   6.9503E+01   0.0000E+00  0.0000
   6.9503E+01   7.1194E+01   0.0000E+00  0.0000
   7.1194E+01   7.2926E+01   0.0000E+00  0.0000
   7.2926E+01   7.4701E+01   0.0000E+00  0.0000
   7.4701E+01   7.6518E+01   0.0000E+00  0.0000
   7.6518E+01   7.8380E+01   0.0000E+00  0.0000
   7.8380E+01   8.0287E+01   0.0000E+00  0.0000
   8.0287E+01   8.2240E+01   0.0000E+00  0.0000
   8.2240E+01   8.4241E+01   0.0000E+00  0.0000
   8.4241E+01   8.6291E+01   0.0000E+00  0.0000
   8.6291E+01   8.8391E+01   0.0000E+00  0.0000
   8.8391E+01   9.0541E+01   0.0000E+00  0.0000
   9.0541E+01   9.2744E+01   0.0000E+00  0.0000
   9.2744E+01   9.5001E+01   0.0000E+00  0.0000
   9.5001E+01   9.7312E+01   0.0000E+00  0.0000
   9.7312E+01   9.9680E+01   0.0000E+00  0.0000
   9.9680E+01   1.0211E+02   0.0000E+00  0.0000
   1.0211E+02   1.0459E+02   0.0000E+00  0.0000
   1.0459E+02   1.0713E+02   0.0000E+00  0.0000
   1.0713E+02   1.0974E+02   0.0000E+00  0.0000
   1.0974E+02   1.1241E+02   0.0000E+00  0.0000
   1.1241E+02   1.1515E+02   0.0000E+00  0.0000
   1.1515E+02   1.1795E+02   0.0000E+00  0.0000
   1.1795E+02   1.2082E+02   0.0000E+00  0.0000
   1.2082E+02   1.2376E+02   0.0000E+00  0.0000
   1.2376E+02   1.2677E+02   0.0000E+00  0.0000
   1.2677E+02   1.2985E+02   0.0000E+00  0.0000
   1.2985E+02   1.3301E+02   0.0000E+00  0.0000
   1.3301E+02   1.3625E+02   0.0000E+00  0.0000
   1.3625E+02   1.3956E+02   0.0000E+00  0.0000
   1.3956E+02   1.4296E+02   0.0000E+00  0.0000
   1.4296E+02   1.4644E+02   0.0000E+00  0.0000
   1.4644E+02   1.5000E+02   0.0000E+00  0.0000

#   sum over                 7.0886E-06
'no. =    1   reg = 114 - 214'
msuc: {\huge [t-cross] in region mesh}
msdr: {\it plotted by \ANGEL \version}
msdl: {\it calculated by \PHITS  3.26}
wt: s(0.7)
\vspace{-3}
  region surface crossing
  area  &=&   1.0000E+00 [cm^2]
e:
 
# Information for Restart Calculation
# This calculation was newly started
# istdev =  2 # 1:Batch variance, 2:History variance
# resc2  = 3.90000000000000000E+09 # Total source weight or Total source weight / maxcas
# resc3  = 3.90000000000000000E+09 # Total history number or Total batch number
# maxcas =   100000000 # History / Batch, only used for istdev=1
# bitrseed = 1001000100011001100110111101101111001101001011101000111110000101 # bit data of rseed
