[ T-Cross ]
    title = [t-cross] in region mesh
     mesh =  reg            # mesh type is region-wise
      reg =    1            # number of crossing regions
      non     r-from    r-to       area
      1       100       200        1.000000    
   e-type =    3            # e-mesh is log given by emin, emax and ne
     emin =  1.0000000E-02  # minimum value of e-mesh points
     emax =   150.0000      # maximum value of e-mesh points
#    edel =  2.4039514E-02  # mesh width of e-mesh points
       ne =    400          # number of e-mesh points
#    data = ( e(i), i = 1, ne + 1 )
#           1.00000E-02  1.02433E-02  1.04925E-02  1.07478E-02  1.10093E-02
#           1.12772E-02  1.15516E-02  1.18326E-02  1.21205E-02  1.24154E-02
#           1.27175E-02  1.30269E-02  1.33439E-02  1.36686E-02  1.40011E-02
#           1.43418E-02  1.46907E-02  1.50482E-02  1.54143E-02  1.57894E-02
#           1.61735E-02  1.65670E-02  1.69701E-02  1.73830E-02  1.78060E-02
#           1.82392E-02  1.86830E-02  1.91375E-02  1.96032E-02  2.00801E-02
#           2.05687E-02  2.10692E-02  2.15818E-02  2.21069E-02  2.26448E-02
#           2.31957E-02  2.37601E-02  2.43382E-02  2.49304E-02  2.55369E-02
#           2.61583E-02  2.67947E-02  2.74467E-02  2.81145E-02  2.87985E-02
#           2.94992E-02  3.02169E-02  3.09521E-02  3.17052E-02  3.24766E-02
#           3.32668E-02  3.40762E-02  3.49053E-02  3.57546E-02  3.66246E-02
#           3.75157E-02  3.84284E-02  3.93634E-02  4.03212E-02  4.13022E-02
#           4.23071E-02  4.33365E-02  4.43909E-02  4.54710E-02  4.65773E-02
#           4.77106E-02  4.88714E-02  5.00605E-02  5.12785E-02  5.25262E-02
#           5.38042E-02  5.51133E-02  5.64542E-02  5.78278E-02  5.92348E-02
#           6.06760E-02  6.21523E-02  6.36645E-02  6.52135E-02  6.68002E-02
#           6.84255E-02  7.00904E-02  7.17957E-02  7.35426E-02  7.53319E-02
#           7.71648E-02  7.90423E-02  8.09655E-02  8.29354E-02  8.49533E-02
#           8.70203E-02  8.91376E-02  9.13064E-02  9.35279E-02  9.58035E-02
#           9.81345E-02  1.00522E-01  1.02968E-01  1.05473E-01  1.08040E-01
#           1.10668E-01  1.13361E-01  1.16119E-01  1.18944E-01  1.21838E-01
#           1.24803E-01  1.27839E-01  1.30950E-01  1.34136E-01  1.37399E-01
#           1.40742E-01  1.44167E-01  1.47675E-01  1.51268E-01  1.54948E-01
#           1.58718E-01  1.62580E-01  1.66535E-01  1.70587E-01  1.74738E-01
#           1.78989E-01  1.83344E-01  1.87805E-01  1.92375E-01  1.97055E-01
#           2.01850E-01  2.06761E-01  2.11792E-01  2.16945E-01  2.22223E-01
#           2.27630E-01  2.33169E-01  2.38842E-01  2.44653E-01  2.50605E-01
#           2.56703E-01  2.62949E-01  2.69346E-01  2.75900E-01  2.82613E-01
#           2.89489E-01  2.96532E-01  3.03747E-01  3.11138E-01  3.18708E-01
#           3.26462E-01  3.34405E-01  3.42542E-01  3.50876E-01  3.59413E-01
#           3.68158E-01  3.77116E-01  3.86291E-01  3.95690E-01  4.05317E-01
#           4.15179E-01  4.25281E-01  4.35628E-01  4.46227E-01  4.57084E-01
#           4.68205E-01  4.79597E-01  4.91266E-01  5.03219E-01  5.15463E-01
#           5.28005E-01  5.40851E-01  5.54011E-01  5.67490E-01  5.81298E-01
#           5.95441E-01  6.09929E-01  6.24769E-01  6.39970E-01  6.55541E-01
#           6.71491E-01  6.87828E-01  7.04564E-01  7.21706E-01  7.39266E-01
#           7.57253E-01  7.75678E-01  7.94551E-01  8.13883E-01  8.33685E-01
#           8.53969E-01  8.74747E-01  8.96030E-01  9.17831E-01  9.40163E-01
#           9.63038E-01  9.86469E-01  1.01047E+00  1.03506E+00  1.06024E+00
#           1.08604E+00  1.11246E+00  1.13953E+00  1.16725E+00  1.19565E+00
#           1.22474E+00  1.25454E+00  1.28507E+00  1.31633E+00  1.34836E+00
#           1.38117E+00  1.41477E+00  1.44920E+00  1.48446E+00  1.52057E+00
#           1.55757E+00  1.59547E+00  1.63429E+00  1.67405E+00  1.71478E+00
#           1.75650E+00  1.79924E+00  1.84302E+00  1.88786E+00  1.93379E+00
#           1.98084E+00  2.02904E+00  2.07841E+00  2.12898E+00  2.18078E+00
#           2.23384E+00  2.28819E+00  2.34386E+00  2.40089E+00  2.45930E+00
#           2.51914E+00  2.58043E+00  2.64322E+00  2.70753E+00  2.77341E+00
#           2.84088E+00  2.91001E+00  2.98081E+00  3.05333E+00  3.12762E+00
#           3.20372E+00  3.28167E+00  3.36152E+00  3.44330E+00  3.52708E+00
#           3.61290E+00  3.70080E+00  3.79085E+00  3.88308E+00  3.97756E+00
#           4.07434E+00  4.17347E+00  4.27501E+00  4.37903E+00  4.48557E+00
#           4.59471E+00  4.70650E+00  4.82102E+00  4.93832E+00  5.05847E+00
#           5.18155E+00  5.30762E+00  5.43676E+00  5.56904E+00  5.70453E+00
#           5.84333E+00  5.98550E+00  6.13114E+00  6.28031E+00  6.43312E+00
#           6.58964E+00  6.74997E+00  6.91420E+00  7.08243E+00  7.25475E+00
#           7.43126E+00  7.61207E+00  7.79728E+00  7.98700E+00  8.18133E+00
#           8.38038E+00  8.58428E+00  8.79315E+00  9.00709E+00  9.22624E+00
#           9.45072E+00  9.68067E+00  9.91620E+00  1.01575E+01  1.04046E+01
#           1.06578E+01  1.09171E+01  1.11827E+01  1.14548E+01  1.17335E+01
#           1.20190E+01  1.23114E+01  1.26109E+01  1.29178E+01  1.32321E+01
#           1.35540E+01  1.38838E+01  1.42216E+01  1.45676E+01  1.49221E+01
#           1.52851E+01  1.56570E+01  1.60380E+01  1.64282E+01  1.68279E+01
#           1.72374E+01  1.76568E+01  1.80864E+01  1.85264E+01  1.89772E+01
#           1.94389E+01  1.99119E+01  2.03963E+01  2.08926E+01  2.14009E+01
#           2.19216E+01  2.24550E+01  2.30014E+01  2.35610E+01  2.41343E+01
#           2.47215E+01  2.53230E+01  2.59391E+01  2.65702E+01  2.72167E+01
#           2.78789E+01  2.85572E+01  2.92520E+01  2.99637E+01  3.06928E+01
#           3.14396E+01  3.22045E+01  3.29881E+01  3.37907E+01  3.46128E+01
#           3.54550E+01  3.63177E+01  3.72013E+01  3.81064E+01  3.90336E+01
#           3.99833E+01  4.09561E+01  4.19526E+01  4.29734E+01  4.40189E+01
#           4.50900E+01  4.61870E+01  4.73108E+01  4.84619E+01  4.96410E+01
#           5.08488E+01  5.20860E+01  5.33533E+01  5.46514E+01  5.59812E+01
#           5.73432E+01  5.87384E+01  6.01676E+01  6.16315E+01  6.31311E+01
#           6.46671E+01  6.62405E+01  6.78522E+01  6.95031E+01  7.11941E+01
#           7.29263E+01  7.47007E+01  7.65182E+01  7.83800E+01  8.02870E+01
#           8.22405E+01  8.42414E+01  8.62911E+01  8.83906E+01  9.05412E+01
#           9.27442E+01  9.50007E+01  9.73122E+01  9.96799E+01  1.02105E+02
#           1.04589E+02  1.07134E+02  1.09741E+02  1.12411E+02  1.15146E+02
#           1.17948E+02  1.20817E+02  1.23757E+02  1.26768E+02  1.29852E+02
#           1.33012E+02  1.36248E+02  1.39563E+02  1.42959E+02  1.46437E+02
#           1.50000E+02
     unit =    2            # unit is [1/cm^2/(MeV/n)/source]
     axis =  eng            # axis of output
     file = detector-01.out  # file name of output for the above axis
   output = f-curr          # surface crossing forward current spectrum
     part =  neutron  
# kf/name :  2112     
#    used :        main (  %)        temp (  %)       total (  %)
#  memory :         414 (  0)           0 (  0)         414 (  0)

#------------------------------------------------------------------------------
#newpage:
#   no. =    1   reg = 100 - 200

x: Energy [MeV/n]
y:  F-Curr [1/cm^2/(MeV/n)/source]         
p: xlog ylog afac(0.8) form(0.9)
h: n            x            y(neutron ),hh0l   n 
#  e-lower      e-upper      neutron     r.err 
   1.0000E-02   1.0243E-02   1.5618E-05  0.2294
   1.0243E-02   1.0493E-02   2.0864E-05  0.1961
   1.0493E-02   1.0748E-02   2.2719E-05  0.1857
   1.0748E-02   1.1009E-02   1.3002E-05  0.2425
   1.1009E-02   1.1277E-02   1.9413E-05  0.1961
   1.1277E-02   1.1552E-02   1.4578E-05  0.2236
   1.1552E-02   1.1833E-02   1.9925E-05  0.1890
   1.1833E-02   1.2121E-02   2.0146E-05  0.1857
   1.2121E-02   1.2415E-02   1.6277E-05  0.2041
   1.2415E-02   1.2718E-02   1.3904E-05  0.2182
   1.2718E-02   1.3027E-02   1.3573E-05  0.2182
   1.3027E-02   1.3344E-02   1.1358E-05  0.2357
   1.3344E-02   1.3669E-02   1.7248E-05  0.1890
   1.3669E-02   1.4001E-02   1.8643E-05  0.1796
   1.4001E-02   1.4342E-02   1.2329E-05  0.2182
   1.4342E-02   1.4691E-02   1.4329E-05  0.2000
   1.4691E-02   1.5048E-02   1.9584E-05  0.1690
   1.5048E-02   1.5414E-02   1.8572E-05  0.1715
   1.5414E-02   1.5789E-02   1.4398E-05  0.1925
   1.5789E-02   1.6174E-02   2.2386E-05  0.1525
   1.6174E-02   1.6567E-02   1.6264E-05  0.1768
   1.6567E-02   1.6970E-02   1.4885E-05  0.1826
   1.6970E-02   1.7383E-02   1.5985E-05  0.1741
   1.7383E-02   1.7806E-02   1.3713E-05  0.1857
   1.7806E-02   1.8239E-02   1.4773E-05  0.1768
   1.8239E-02   1.8683E-02   1.4872E-05  0.1741
   1.8683E-02   1.9138E-02   1.9579E-05  0.1495
   1.9138E-02   1.9603E-02   1.4604E-05  0.1715
   1.9603E-02   2.0080E-02   1.8031E-05  0.1525
   2.0080E-02   2.0569E-02   1.8012E-05  0.1508
   2.0569E-02   2.1069E-02   1.5639E-05  0.1596
   2.1069E-02   2.1582E-02   1.7166E-05  0.1508
   2.1582E-02   2.2107E-02   1.6378E-05  0.1525
   2.2107E-02   2.2645E-02   1.2456E-05  0.1721
   2.2645E-02   2.3196E-02   1.8150E-05  0.1414
   2.3196E-02   2.3760E-02   1.6301E-05  0.1474
   2.3760E-02   2.4338E-02   1.8336E-05  0.1374
   2.4338E-02   2.4930E-02   1.5874E-05  0.1459
   2.4930E-02   2.5537E-02   1.7805E-05  0.1361
   2.5537E-02   2.6158E-02   1.8348E-05  0.1325
   2.6158E-02   2.6795E-02   1.4455E-05  0.1474
   2.6795E-02   2.7447E-02   1.7486E-05  0.1325
   2.7447E-02   2.8114E-02   1.7969E-05  0.1291
   2.8114E-02   2.8799E-02   1.9297E-05  0.1231
   2.8799E-02   2.9499E-02   1.7697E-05  0.1270
   2.9499E-02   3.0217E-02   1.1425E-05  0.1562
   3.0217E-02   3.0952E-02   1.9314E-05  0.1187
   3.0952E-02   3.1705E-02   1.4075E-05  0.1374
   3.1705E-02   3.2477E-02   1.4000E-05  0.1361
   3.2477E-02   3.3267E-02   1.3921E-05  0.1348
   3.3267E-02   3.4076E-02   1.4331E-05  0.1313
   3.4076E-02   3.4905E-02   1.8212E-05  0.1149
   3.4905E-02   3.5755E-02   1.7898E-05  0.1147
   3.5755E-02   3.6625E-02   1.6553E-05  0.1179
   3.6625E-02   3.7516E-02   1.7506E-05  0.1132
   3.7516E-02   3.8428E-02   2.0158E-05  0.1043
   3.8428E-02   3.9363E-02   1.8396E-05  0.1078
   3.9363E-02   4.0321E-02   1.8168E-05  0.1072
   4.0321E-02   4.1302E-02   1.4882E-05  0.1170
   4.1302E-02   4.2307E-02   1.7514E-05  0.1066
   4.2307E-02   4.3337E-02   1.7875E-05  0.1043
   4.3337E-02   4.4391E-02   1.9158E-05  0.0995
   4.4391E-02   4.5471E-02   1.6692E-05  0.1053
   4.5471E-02   4.6577E-02   1.6089E-05  0.1060
   4.6577E-02   4.7711E-02   1.6413E-05  0.1037
   4.7711E-02   4.8871E-02   1.4674E-05  0.1083
   4.8871E-02   5.0061E-02   1.5677E-05  0.1035
   5.0061E-02   5.1279E-02   1.3979E-05  0.1083
   5.1279E-02   5.2526E-02   1.6992E-05  0.0971
   5.2526E-02   5.3804E-02   1.3796E-05  0.1064
   5.3804E-02   5.5113E-02   1.4361E-05  0.1031
   5.5113E-02   5.6454E-02   1.6705E-05  0.0945
   5.6454E-02   5.7828E-02   1.4706E-05  0.0995
   5.7828E-02   5.9235E-02   1.5494E-05  0.0958
   5.9235E-02   6.0676E-02   1.4571E-05  0.0976
   6.0676E-02   6.2152E-02   1.6934E-05  0.0894
   6.2152E-02   6.3665E-02   1.3887E-05  0.0976
   6.3665E-02   6.5214E-02   1.7818E-05  0.0851
   6.5214E-02   6.6800E-02   1.4496E-05  0.0933
   6.6800E-02   6.8426E-02   1.6858E-05  0.0854
   6.8426E-02   7.0090E-02   1.7059E-05  0.0839
   7.0090E-02   7.1796E-02   1.6419E-05  0.0845
   7.1796E-02   7.3543E-02   1.6159E-05  0.0841
   7.3543E-02   7.5332E-02   1.5536E-05  0.0848
   7.5332E-02   7.7165E-02   1.6368E-05  0.0816
   7.7165E-02   7.9042E-02   1.6511E-05  0.0803
   7.9042E-02   8.0965E-02   1.5807E-05  0.0811
   8.0965E-02   8.2935E-02   1.4518E-05  0.0836
   8.2935E-02   8.4953E-02   1.2092E-05  0.0905
   8.4953E-02   8.7020E-02   1.4804E-05  0.0808
   8.7020E-02   8.9138E-02   1.3413E-05  0.0839
   8.9138E-02   9.1306E-02   1.6691E-05  0.0743
   9.1306E-02   9.3528E-02   1.6025E-05  0.0750
   9.3528E-02   9.5804E-02   1.2656E-05  0.0833
   9.5804E-02   9.8134E-02   1.5444E-05  0.0745
   9.8134E-02   1.0052E-01   1.5496E-05  0.0735
   1.0052E-01   1.0297E-01   1.4065E-05  0.0762
   1.0297E-01   1.0547E-01   1.3891E-05  0.0758
   1.0547E-01   1.0804E-01   1.3029E-05  0.0773
   1.0804E-01   1.1067E-01   1.4317E-05  0.0729
   1.1067E-01   1.1336E-01   1.2553E-05  0.0769
   1.1336E-01   1.1612E-01   1.3451E-05  0.0734
   1.1612E-01   1.1894E-01   1.1751E-05  0.0776
   1.1894E-01   1.2184E-01   1.3891E-05  0.0705
   1.2184E-01   1.2480E-01   1.4775E-05  0.0676
   1.2480E-01   1.2784E-01   1.3634E-05  0.0695
   1.2784E-01   1.3095E-01   1.3953E-05  0.0679
   1.3095E-01   1.3414E-01   1.1990E-05  0.0724
   1.3414E-01   1.3740E-01   1.1950E-05  0.0716
   1.3740E-01   1.4074E-01   1.2044E-05  0.0704
   1.4074E-01   1.4417E-01   1.3470E-05  0.0658
   1.4417E-01   1.4767E-01   1.2088E-05  0.0687
   1.4767E-01   1.5127E-01   1.1921E-05  0.0682
   1.5127E-01   1.5495E-01   1.0633E-05  0.0714
   1.5495E-01   1.5872E-01   1.1512E-05  0.0679
   1.5872E-01   1.6258E-01   1.1350E-05  0.0675
   1.6258E-01   1.6654E-01   1.2134E-05  0.0645
   1.6654E-01   1.7059E-01   1.0323E-05  0.0691
   1.7059E-01   1.7474E-01   1.0890E-05  0.0665
   1.7474E-01   1.7899E-01   1.0608E-05  0.0666
   1.7899E-01   1.8334E-01   9.2768E-06  0.0704
   1.8334E-01   1.8781E-01   8.4736E-06  0.0727
   1.8781E-01   1.9237E-01   1.0074E-05  0.0659
   1.9237E-01   1.9706E-01   8.3108E-06  0.0717
   1.9706E-01   2.0185E-01   8.9402E-06  0.0682
   2.0185E-01   2.0676E-01   8.8777E-06  0.0677
   2.0676E-01   2.1179E-01   9.0644E-06  0.0662
   2.1179E-01   2.1694E-01   9.5981E-06  0.0636
   2.1694E-01   2.2222E-01   9.5210E-06  0.0631
   2.2222E-01   2.2763E-01   9.3585E-06  0.0629
   2.2763E-01   2.3317E-01   8.8519E-06  0.0638
   2.3317E-01   2.3884E-01   1.0893E-05  0.0569
   2.3884E-01   2.4465E-01   9.5052E-06  0.0602
   2.4465E-01   2.5061E-01   1.1088E-05  0.0550
   2.5061E-01   2.5670E-01   1.0346E-05  0.0563
   2.5670E-01   2.6295E-01   1.0587E-05  0.0550
   2.6295E-01   2.6935E-01   1.0191E-05  0.0554
   2.6935E-01   2.7590E-01   1.0468E-05  0.0540
   2.7590E-01   2.8261E-01   1.0641E-05  0.0529
   2.8261E-01   2.8949E-01   9.9220E-06  0.0541
   2.8949E-01   2.9653E-01   1.0772E-05  0.0513
   2.9653E-01   3.0375E-01   9.7438E-06  0.0533
   3.0375E-01   3.1114E-01   1.0960E-05  0.0497
   3.1114E-01   3.1871E-01   9.7744E-06  0.0519
   3.1871E-01   3.2646E-01   1.0820E-05  0.0488
   3.2646E-01   3.3441E-01   1.1141E-05  0.0475
   3.3441E-01   3.4254E-01   1.0033E-05  0.0495
   3.4254E-01   3.5088E-01   1.0727E-05  0.0473
   3.5088E-01   3.5941E-01   1.0425E-05  0.0474
   3.5941E-01   3.6816E-01   1.0993E-05  0.0456
   3.6816E-01   3.7712E-01   1.1313E-05  0.0444
   3.7712E-01   3.8629E-01   1.1222E-05  0.0440
   3.8629E-01   3.9569E-01   1.0827E-05  0.0443
   3.9569E-01   4.0532E-01   1.1093E-05  0.0433
   4.0532E-01   4.1518E-01   1.1819E-05  0.0414
   4.1518E-01   4.2528E-01   1.1034E-05  0.0423
   4.2528E-01   4.3563E-01   1.1343E-05  0.0413
   4.3563E-01   4.4623E-01   1.1107E-05  0.0412
   4.4623E-01   4.5708E-01   1.2347E-05  0.0386
   4.5708E-01   4.6821E-01   1.1370E-05  0.0397
   4.6821E-01   4.7960E-01   1.1687E-05  0.0387
   4.7960E-01   4.9127E-01   1.1741E-05  0.0382
   4.9127E-01   5.0322E-01   1.2332E-05  0.0368
   5.0322E-01   5.1546E-01   1.2386E-05  0.0363
   5.1546E-01   5.2800E-01   1.2345E-05  0.0359
   5.2800E-01   5.4085E-01   1.2392E-05  0.0354
   5.4085E-01   5.5401E-01   1.2465E-05  0.0349
   5.5401E-01   5.6749E-01   1.1961E-05  0.0352
   5.6749E-01   5.8130E-01   1.1984E-05  0.0348
   5.8130E-01   5.9544E-01   1.2444E-05  0.0337
   5.9544E-01   6.0993E-01   1.1720E-05  0.0343
   6.0993E-01   6.2477E-01   1.2223E-05  0.0332
   6.2477E-01   6.3997E-01   1.2354E-05  0.0326
   6.3997E-01   6.5554E-01   1.2742E-05  0.0318
   6.5554E-01   6.7149E-01   1.2984E-05  0.0311
   6.7149E-01   6.8783E-01   1.2901E-05  0.0308
   6.8783E-01   7.0456E-01   1.2440E-05  0.0310
   7.0456E-01   7.2171E-01   1.2972E-05  0.0300
   7.2171E-01   7.3927E-01   1.2671E-05  0.0300
   7.3927E-01   7.5725E-01   1.2488E-05  0.0298
   7.5725E-01   7.7568E-01   1.3165E-05  0.0287
   7.7568E-01   7.9455E-01   1.3039E-05  0.0285
   7.9455E-01   8.1388E-01   1.2825E-05  0.0284
   8.1388E-01   8.3368E-01   1.3427E-05  0.0274
   8.3368E-01   8.5397E-01   1.2977E-05  0.0276
   8.5397E-01   8.7475E-01   1.3389E-05  0.0268
   8.7475E-01   8.9603E-01   1.3601E-05  0.0263
   8.9603E-01   9.1783E-01   1.2613E-05  0.0270
   9.1783E-01   9.4016E-01   1.3422E-05  0.0258
   9.4016E-01   9.6304E-01   1.3659E-05  0.0253
   9.6304E-01   9.8647E-01   1.3598E-05  0.0250
   9.8647E-01   1.0105E+00   1.2808E-05  0.0255
   1.0105E+00   1.0351E+00   1.2563E-05  0.0254
   1.0351E+00   1.0602E+00   1.3537E-05  0.0242
   1.0602E+00   1.0860E+00   1.3286E-05  0.0241
   1.0860E+00   1.1125E+00   1.3705E-05  0.0235
   1.1125E+00   1.1395E+00   1.2644E-05  0.0242
   1.1395E+00   1.1673E+00   1.3460E-05  0.0231
   1.1673E+00   1.1957E+00   1.3289E-05  0.0230
   1.1957E+00   1.2247E+00   1.3873E-05  0.0222
   1.2247E+00   1.2545E+00   1.3563E-05  0.0222
   1.2545E+00   1.2851E+00   1.3802E-05  0.0218
   1.2851E+00   1.3163E+00   1.3991E-05  0.0214
   1.3163E+00   1.3484E+00   1.4143E-05  0.0210
   1.3484E+00   1.3812E+00   1.3813E-05  0.0210
   1.3812E+00   1.4148E+00   1.4314E-05  0.0204
   1.4148E+00   1.4492E+00   1.4574E-05  0.0200
   1.4492E+00   1.4845E+00   1.4572E-05  0.0197
   1.4845E+00   1.5206E+00   1.4614E-05  0.0195
   1.5206E+00   1.5576E+00   1.4886E-05  0.0191
   1.5576E+00   1.5955E+00   1.5365E-05  0.0185
   1.5955E+00   1.6343E+00   1.5323E-05  0.0183
   1.6343E+00   1.6741E+00   1.5070E-05  0.0183
   1.6741E+00   1.7148E+00   1.5588E-05  0.0177
   1.7148E+00   1.7565E+00   1.5388E-05  0.0176
   1.7565E+00   1.7992E+00   1.5721E-05  0.0172
   1.7992E+00   1.8430E+00   1.6021E-05  0.0169
   1.8430E+00   1.8879E+00   1.6282E-05  0.0165
   1.8879E+00   1.9338E+00   1.6464E-05  0.0163
   1.9338E+00   1.9808E+00   1.6198E-05  0.0162
   1.9808E+00   2.0290E+00   1.6434E-05  0.0159
   2.0290E+00   2.0784E+00   1.7323E-05  0.0153
   2.0784E+00   2.1290E+00   1.6949E-05  0.0153
   2.1290E+00   2.1808E+00   1.7189E-05  0.0150
   2.1808E+00   2.2338E+00   1.7825E-05  0.0145
   2.2338E+00   2.2882E+00   1.7415E-05  0.0145
   2.2882E+00   2.3439E+00   1.7756E-05  0.0142
   2.3439E+00   2.4009E+00   1.8016E-05  0.0139
   2.4009E+00   2.4593E+00   1.8202E-05  0.0137
   2.4593E+00   2.5191E+00   1.8443E-05  0.0135
   2.5191E+00   2.5804E+00   1.8793E-05  0.0132
   2.5804E+00   2.6432E+00   1.8852E-05  0.0130
   2.6432E+00   2.7075E+00   1.8813E-05  0.0129
   2.7075E+00   2.7734E+00   1.9548E-05  0.0125
   2.7734E+00   2.8409E+00   1.9026E-05  0.0125
   2.8409E+00   2.9100E+00   1.9737E-05  0.0121
   2.9100E+00   2.9808E+00   2.0098E-05  0.0119
   2.9808E+00   3.0533E+00   2.0300E-05  0.0117
   3.0533E+00   3.1276E+00   2.0564E-05  0.0114
   3.1276E+00   3.2037E+00   2.0756E-05  0.0112
   3.2037E+00   3.2817E+00   2.0812E-05  0.0111
   3.2817E+00   3.3615E+00   2.0633E-05  0.0110
   3.3615E+00   3.4433E+00   2.1001E-05  0.0108
   3.4433E+00   3.5271E+00   2.1764E-05  0.0105
   3.5271E+00   3.6129E+00   2.1750E-05  0.0103
   3.6129E+00   3.7008E+00   2.2128E-05  0.0101
   3.7008E+00   3.7908E+00   2.2546E-05  0.0099
   3.7908E+00   3.8831E+00   2.2534E-05  0.0098
   3.8831E+00   3.9776E+00   2.2568E-05  0.0097
   3.9776E+00   4.0743E+00   2.2833E-05  0.0095
   4.0743E+00   4.1735E+00   2.2894E-05  0.0094
   4.1735E+00   4.2750E+00   2.3211E-05  0.0092
   4.2750E+00   4.3790E+00   2.3580E-05  0.0090
   4.3790E+00   4.4856E+00   2.3668E-05  0.0089
   4.4856E+00   4.5947E+00   2.4114E-05  0.0087
   4.5947E+00   4.7065E+00   2.4449E-05  0.0086
   4.7065E+00   4.8210E+00   2.4517E-05  0.0084
   4.8210E+00   4.9383E+00   2.4576E-05  0.0083
   4.9383E+00   5.0585E+00   2.4739E-05  0.0082
   5.0585E+00   5.1815E+00   2.5048E-05  0.0081
   5.1815E+00   5.3076E+00   2.5438E-05  0.0079
   5.3076E+00   5.4368E+00   2.5260E-05  0.0078
   5.4368E+00   5.5690E+00   2.5835E-05  0.0076
   5.5690E+00   5.7045E+00   2.5633E-05  0.0076
   5.7045E+00   5.8433E+00   2.5691E-05  0.0075
   5.8433E+00   5.9855E+00   2.5752E-05  0.0074
   5.9855E+00   6.1311E+00   2.6405E-05  0.0072
   6.1311E+00   6.2803E+00   2.6530E-05  0.0071
   6.2803E+00   6.4331E+00   2.6261E-05  0.0071
   6.4331E+00   6.5896E+00   2.6727E-05  0.0069
   6.5896E+00   6.7500E+00   2.6745E-05  0.0068
   6.7500E+00   6.9142E+00   2.7206E-05  0.0067
   6.9142E+00   7.0824E+00   2.7051E-05  0.0066
   7.0824E+00   7.2548E+00   2.6901E-05  0.0066
   7.2548E+00   7.4313E+00   2.6980E-05  0.0065
   7.4313E+00   7.6121E+00   2.7000E-05  0.0064
   7.6121E+00   7.7973E+00   2.6774E-05  0.0064
   7.7973E+00   7.9870E+00   2.6645E-05  0.0063
   7.9870E+00   8.1813E+00   2.6333E-05  0.0063
   8.1813E+00   8.3804E+00   2.6537E-05  0.0062
   8.3804E+00   8.5843E+00   2.6347E-05  0.0061
   8.5843E+00   8.7931E+00   2.6187E-05  0.0060
   8.7931E+00   9.0071E+00   2.6058E-05  0.0060
   9.0071E+00   9.2262E+00   2.5460E-05  0.0060
   9.2262E+00   9.4507E+00   2.5163E-05  0.0060
   9.4507E+00   9.6807E+00   2.5027E-05  0.0059
   9.6807E+00   9.9162E+00   2.4463E-05  0.0059
   9.9162E+00   1.0157E+01   2.4075E-05  0.0059
   1.0157E+01   1.0405E+01   2.3620E-05  0.0059
   1.0405E+01   1.0658E+01   2.3004E-05  0.0059
   1.0658E+01   1.0917E+01   2.2359E-05  0.0059
   1.0917E+01   1.1183E+01   2.2081E-05  0.0058
   1.1183E+01   1.1455E+01   2.1364E-05  0.0059
   1.1455E+01   1.1733E+01   2.0667E-05  0.0059
   1.1733E+01   1.2019E+01   2.0018E-05  0.0059
   1.2019E+01   1.2311E+01   1.9049E-05  0.0060
   1.2311E+01   1.2611E+01   1.8515E-05  0.0060
   1.2611E+01   1.2918E+01   1.8004E-05  0.0060
   1.2918E+01   1.3232E+01   1.6868E-05  0.0061
   1.3232E+01   1.3554E+01   1.6050E-05  0.0062
   1.3554E+01   1.3884E+01   1.5349E-05  0.0063
   1.3884E+01   1.4222E+01   1.4564E-05  0.0064
   1.4222E+01   1.4568E+01   1.3673E-05  0.0065
   1.4568E+01   1.4922E+01   1.2904E-05  0.0066
   1.4922E+01   1.5285E+01   1.2087E-05  0.0068
   1.5285E+01   1.5657E+01   1.1386E-05  0.0069
   1.5657E+01   1.6038E+01   1.0554E-05  0.0071
   1.6038E+01   1.6428E+01   1.0038E-05  0.0071
   1.6428E+01   1.6828E+01   9.1720E-06  0.0074
   1.6828E+01   1.7237E+01   8.6304E-06  0.0075
   1.7237E+01   1.7657E+01   7.8512E-06  0.0078
   1.7657E+01   1.8086E+01   7.4189E-06  0.0079
   1.8086E+01   1.8526E+01   6.8988E-06  0.0081
   1.8526E+01   1.8977E+01   6.3049E-06  0.0084
   1.8977E+01   1.9439E+01   5.8389E-06  0.0086
   1.9439E+01   1.9912E+01   5.4833E-06  0.0088
   1.9912E+01   2.0396E+01   5.0963E-06  0.0090
   2.0396E+01   2.0893E+01   4.6077E-06  0.0094
   2.0893E+01   2.1401E+01   4.2712E-06  0.0096
   2.1401E+01   2.1922E+01   3.8874E-06  0.0099
   2.1922E+01   2.2455E+01   3.5311E-06  0.0103
   2.2455E+01   2.3001E+01   3.1657E-06  0.0108
   2.3001E+01   2.3561E+01   2.8858E-06  0.0111
   2.3561E+01   2.4134E+01   2.5727E-06  0.0116
   2.4134E+01   2.4721E+01   2.3671E-06  0.0120
   2.4721E+01   2.5323E+01   2.0871E-06  0.0126
   2.5323E+01   2.5939E+01   1.9360E-06  0.0129
   2.5939E+01   2.6570E+01   1.7401E-06  0.0135
   2.6570E+01   2.7217E+01   1.5880E-06  0.0140
   2.7217E+01   2.7879E+01   1.4724E-06  0.0143
   2.7879E+01   2.8557E+01   1.3534E-06  0.0148
   2.8557E+01   2.9252E+01   1.2251E-06  0.0153
   2.9252E+01   2.9964E+01   1.1302E-06  0.0158
   2.9964E+01   3.0693E+01   1.0002E-06  0.0166
   3.0693E+01   3.1440E+01   8.5889E-07  0.0177
   3.1440E+01   3.2205E+01   7.2162E-07  0.0190
   3.2205E+01   3.2988E+01   6.0340E-07  0.0206
   3.2988E+01   3.3791E+01   4.9313E-07  0.0225
   3.3791E+01   3.4613E+01   3.6708E-07  0.0257
   3.4613E+01   3.5455E+01   2.7667E-07  0.0293
   3.5455E+01   3.6318E+01   1.7458E-07  0.0364
   3.6318E+01   3.7201E+01   1.1226E-07  0.0449
   3.7201E+01   3.8106E+01   9.1036E-08  0.0493
   3.8106E+01   3.9034E+01   6.9675E-08  0.0556
   3.9034E+01   3.9983E+01   5.3279E-08  0.0629
   3.9983E+01   4.0956E+01   4.3996E-08  0.0684
   4.0956E+01   4.1953E+01   8.0281E-10  0.5000
   4.1953E+01   4.2973E+01   0.0000E+00  0.0000
   4.2973E+01   4.4019E+01   0.0000E+00  0.0000
   4.4019E+01   4.5090E+01   0.0000E+00  0.0000
   4.5090E+01   4.6187E+01   0.0000E+00  0.0000
   4.6187E+01   4.7311E+01   0.0000E+00  0.0000
   4.7311E+01   4.8462E+01   0.0000E+00  0.0000
   4.8462E+01   4.9641E+01   0.0000E+00  0.0000
   4.9641E+01   5.0849E+01   0.0000E+00  0.0000
   5.0849E+01   5.2086E+01   0.0000E+00  0.0000
   5.2086E+01   5.3353E+01   0.0000E+00  0.0000
   5.3353E+01   5.4651E+01   0.0000E+00  0.0000
   5.4651E+01   5.5981E+01   0.0000E+00  0.0000
   5.5981E+01   5.7343E+01   0.0000E+00  0.0000
   5.7343E+01   5.8738E+01   0.0000E+00  0.0000
   5.8738E+01   6.0168E+01   0.0000E+00  0.0000
   6.0168E+01   6.1632E+01   0.0000E+00  0.0000
   6.1632E+01   6.3131E+01   0.0000E+00  0.0000
   6.3131E+01   6.4667E+01   0.0000E+00  0.0000
   6.4667E+01   6.6240E+01   0.0000E+00  0.0000
   6.6240E+01   6.7852E+01   0.0000E+00  0.0000
   6.7852E+01   6.9503E+01   0.0000E+00  0.0000
   6.9503E+01   7.1194E+01   0.0000E+00  0.0000
   7.1194E+01   7.2926E+01   0.0000E+00  0.0000
   7.2926E+01   7.4701E+01   0.0000E+00  0.0000
   7.4701E+01   7.6518E+01   0.0000E+00  0.0000
   7.6518E+01   7.8380E+01   0.0000E+00  0.0000
   7.8380E+01   8.0287E+01   0.0000E+00  0.0000
   8.0287E+01   8.2240E+01   0.0000E+00  0.0000
   8.2240E+01   8.4241E+01   0.0000E+00  0.0000
   8.4241E+01   8.6291E+01   0.0000E+00  0.0000
   8.6291E+01   8.8391E+01   0.0000E+00  0.0000
   8.8391E+01   9.0541E+01   0.0000E+00  0.0000
   9.0541E+01   9.2744E+01   0.0000E+00  0.0000
   9.2744E+01   9.5001E+01   0.0000E+00  0.0000
   9.5001E+01   9.7312E+01   0.0000E+00  0.0000
   9.7312E+01   9.9680E+01   0.0000E+00  0.0000
   9.9680E+01   1.0211E+02   0.0000E+00  0.0000
   1.0211E+02   1.0459E+02   0.0000E+00  0.0000
   1.0459E+02   1.0713E+02   0.0000E+00  0.0000
   1.0713E+02   1.0974E+02   0.0000E+00  0.0000
   1.0974E+02   1.1241E+02   0.0000E+00  0.0000
   1.1241E+02   1.1515E+02   0.0000E+00  0.0000
   1.1515E+02   1.1795E+02   0.0000E+00  0.0000
   1.1795E+02   1.2082E+02   0.0000E+00  0.0000
   1.2082E+02   1.2376E+02   0.0000E+00  0.0000
   1.2376E+02   1.2677E+02   0.0000E+00  0.0000
   1.2677E+02   1.2985E+02   0.0000E+00  0.0000
   1.2985E+02   1.3301E+02   0.0000E+00  0.0000
   1.3301E+02   1.3625E+02   0.0000E+00  0.0000
   1.3625E+02   1.3956E+02   0.0000E+00  0.0000
   1.3956E+02   1.4296E+02   0.0000E+00  0.0000
   1.4296E+02   1.4644E+02   0.0000E+00  0.0000
   1.4644E+02   1.5000E+02   0.0000E+00  0.0000

#   sum over                 2.5491E-06
'no. =    1   reg = 100 - 200'
msuc: {\huge [t-cross] in region mesh}
msdr: {\it plotted by \ANGEL \version}
msdl: {\it calculated by \PHITS  3.26}
wt: s(0.7)
\vspace{-3}
  region surface crossing
  area  &=&   1.0000E+00 [cm^2]
e:
 
# Information for Restart Calculation
# This calculation was newly started
# istdev =  2 # 1:Batch variance, 2:History variance
# resc2  = 5.00000000000000000E+09 # Total source weight or Total source weight / maxcas
# resc3  = 5.00000000000000000E+09 # Total history number or Total batch number
# maxcas =   500000000 # History / Batch, only used for istdev=1
# bitrseed = 0110100000100010111000001110001111001110100100011111101000111001 # bit data of rseed
