[ T-Cross ]
    title = [t-cross] in region mesh
     mesh =  reg            # mesh type is region-wise
      reg =    1            # number of crossing regions
      non     r-from    r-to       area
      1       104       204        1.000000    
   e-type =    3            # e-mesh is log given by emin, emax and ne
     emin =  1.0000000E-02  # minimum value of e-mesh points
     emax =   150.0000      # maximum value of e-mesh points
#    edel =  2.4039514E-02  # mesh width of e-mesh points
       ne =    400          # number of e-mesh points
#    data = ( e(i), i = 1, ne + 1 )
#           1.00000E-02  1.02433E-02  1.04925E-02  1.07478E-02  1.10093E-02
#           1.12772E-02  1.15516E-02  1.18326E-02  1.21205E-02  1.24154E-02
#           1.27175E-02  1.30269E-02  1.33439E-02  1.36686E-02  1.40011E-02
#           1.43418E-02  1.46907E-02  1.50482E-02  1.54143E-02  1.57894E-02
#           1.61735E-02  1.65670E-02  1.69701E-02  1.73830E-02  1.78060E-02
#           1.82392E-02  1.86830E-02  1.91375E-02  1.96032E-02  2.00801E-02
#           2.05687E-02  2.10692E-02  2.15818E-02  2.21069E-02  2.26448E-02
#           2.31957E-02  2.37601E-02  2.43382E-02  2.49304E-02  2.55369E-02
#           2.61583E-02  2.67947E-02  2.74467E-02  2.81145E-02  2.87985E-02
#           2.94992E-02  3.02169E-02  3.09521E-02  3.17052E-02  3.24766E-02
#           3.32668E-02  3.40762E-02  3.49053E-02  3.57546E-02  3.66246E-02
#           3.75157E-02  3.84284E-02  3.93634E-02  4.03212E-02  4.13022E-02
#           4.23071E-02  4.33365E-02  4.43909E-02  4.54710E-02  4.65773E-02
#           4.77106E-02  4.88714E-02  5.00605E-02  5.12785E-02  5.25262E-02
#           5.38042E-02  5.51133E-02  5.64542E-02  5.78278E-02  5.92348E-02
#           6.06760E-02  6.21523E-02  6.36645E-02  6.52135E-02  6.68002E-02
#           6.84255E-02  7.00904E-02  7.17957E-02  7.35426E-02  7.53319E-02
#           7.71648E-02  7.90423E-02  8.09655E-02  8.29354E-02  8.49533E-02
#           8.70203E-02  8.91376E-02  9.13064E-02  9.35279E-02  9.58035E-02
#           9.81345E-02  1.00522E-01  1.02968E-01  1.05473E-01  1.08040E-01
#           1.10668E-01  1.13361E-01  1.16119E-01  1.18944E-01  1.21838E-01
#           1.24803E-01  1.27839E-01  1.30950E-01  1.34136E-01  1.37399E-01
#           1.40742E-01  1.44167E-01  1.47675E-01  1.51268E-01  1.54948E-01
#           1.58718E-01  1.62580E-01  1.66535E-01  1.70587E-01  1.74738E-01
#           1.78989E-01  1.83344E-01  1.87805E-01  1.92375E-01  1.97055E-01
#           2.01850E-01  2.06761E-01  2.11792E-01  2.16945E-01  2.22223E-01
#           2.27630E-01  2.33169E-01  2.38842E-01  2.44653E-01  2.50605E-01
#           2.56703E-01  2.62949E-01  2.69346E-01  2.75900E-01  2.82613E-01
#           2.89489E-01  2.96532E-01  3.03747E-01  3.11138E-01  3.18708E-01
#           3.26462E-01  3.34405E-01  3.42542E-01  3.50876E-01  3.59413E-01
#           3.68158E-01  3.77116E-01  3.86291E-01  3.95690E-01  4.05317E-01
#           4.15179E-01  4.25281E-01  4.35628E-01  4.46227E-01  4.57084E-01
#           4.68205E-01  4.79597E-01  4.91266E-01  5.03219E-01  5.15463E-01
#           5.28005E-01  5.40851E-01  5.54011E-01  5.67490E-01  5.81298E-01
#           5.95441E-01  6.09929E-01  6.24769E-01  6.39970E-01  6.55541E-01
#           6.71491E-01  6.87828E-01  7.04564E-01  7.21706E-01  7.39266E-01
#           7.57253E-01  7.75678E-01  7.94551E-01  8.13883E-01  8.33685E-01
#           8.53969E-01  8.74747E-01  8.96030E-01  9.17831E-01  9.40163E-01
#           9.63038E-01  9.86469E-01  1.01047E+00  1.03506E+00  1.06024E+00
#           1.08604E+00  1.11246E+00  1.13953E+00  1.16725E+00  1.19565E+00
#           1.22474E+00  1.25454E+00  1.28507E+00  1.31633E+00  1.34836E+00
#           1.38117E+00  1.41477E+00  1.44920E+00  1.48446E+00  1.52057E+00
#           1.55757E+00  1.59547E+00  1.63429E+00  1.67405E+00  1.71478E+00
#           1.75650E+00  1.79924E+00  1.84302E+00  1.88786E+00  1.93379E+00
#           1.98084E+00  2.02904E+00  2.07841E+00  2.12898E+00  2.18078E+00
#           2.23384E+00  2.28819E+00  2.34386E+00  2.40089E+00  2.45930E+00
#           2.51914E+00  2.58043E+00  2.64322E+00  2.70753E+00  2.77341E+00
#           2.84088E+00  2.91001E+00  2.98081E+00  3.05333E+00  3.12762E+00
#           3.20372E+00  3.28167E+00  3.36152E+00  3.44330E+00  3.52708E+00
#           3.61290E+00  3.70080E+00  3.79085E+00  3.88308E+00  3.97756E+00
#           4.07434E+00  4.17347E+00  4.27501E+00  4.37903E+00  4.48557E+00
#           4.59471E+00  4.70650E+00  4.82102E+00  4.93832E+00  5.05847E+00
#           5.18155E+00  5.30762E+00  5.43676E+00  5.56904E+00  5.70453E+00
#           5.84333E+00  5.98550E+00  6.13114E+00  6.28031E+00  6.43312E+00
#           6.58964E+00  6.74997E+00  6.91420E+00  7.08243E+00  7.25475E+00
#           7.43126E+00  7.61207E+00  7.79728E+00  7.98700E+00  8.18133E+00
#           8.38038E+00  8.58428E+00  8.79315E+00  9.00709E+00  9.22624E+00
#           9.45072E+00  9.68067E+00  9.91620E+00  1.01575E+01  1.04046E+01
#           1.06578E+01  1.09171E+01  1.11827E+01  1.14548E+01  1.17335E+01
#           1.20190E+01  1.23114E+01  1.26109E+01  1.29178E+01  1.32321E+01
#           1.35540E+01  1.38838E+01  1.42216E+01  1.45676E+01  1.49221E+01
#           1.52851E+01  1.56570E+01  1.60380E+01  1.64282E+01  1.68279E+01
#           1.72374E+01  1.76568E+01  1.80864E+01  1.85264E+01  1.89772E+01
#           1.94389E+01  1.99119E+01  2.03963E+01  2.08926E+01  2.14009E+01
#           2.19216E+01  2.24550E+01  2.30014E+01  2.35610E+01  2.41343E+01
#           2.47215E+01  2.53230E+01  2.59391E+01  2.65702E+01  2.72167E+01
#           2.78789E+01  2.85572E+01  2.92520E+01  2.99637E+01  3.06928E+01
#           3.14396E+01  3.22045E+01  3.29881E+01  3.37907E+01  3.46128E+01
#           3.54550E+01  3.63177E+01  3.72013E+01  3.81064E+01  3.90336E+01
#           3.99833E+01  4.09561E+01  4.19526E+01  4.29734E+01  4.40189E+01
#           4.50900E+01  4.61870E+01  4.73108E+01  4.84619E+01  4.96410E+01
#           5.08488E+01  5.20860E+01  5.33533E+01  5.46514E+01  5.59812E+01
#           5.73432E+01  5.87384E+01  6.01676E+01  6.16315E+01  6.31311E+01
#           6.46671E+01  6.62405E+01  6.78522E+01  6.95031E+01  7.11941E+01
#           7.29263E+01  7.47007E+01  7.65182E+01  7.83800E+01  8.02870E+01
#           8.22405E+01  8.42414E+01  8.62911E+01  8.83906E+01  9.05412E+01
#           9.27442E+01  9.50007E+01  9.73122E+01  9.96799E+01  1.02105E+02
#           1.04589E+02  1.07134E+02  1.09741E+02  1.12411E+02  1.15146E+02
#           1.17948E+02  1.20817E+02  1.23757E+02  1.26768E+02  1.29852E+02
#           1.33012E+02  1.36248E+02  1.39563E+02  1.42959E+02  1.46437E+02
#           1.50000E+02
     unit =    2            # unit is [1/cm^2/(MeV/n)/source]
     axis =  eng            # axis of output
     file = detector-05.out  # file name of output for the above axis
   output = f-curr          # surface crossing forward current spectrum
     part =  neutron  
# kf/name :  2112     
#    used :        main (  %)        temp (  %)       total (  %)
#  memory :         414 (  0)           0 (  0)         414 (  0)

#------------------------------------------------------------------------------
#newpage:
#   no. =    1   reg = 104 - 204

x: Energy [MeV/n]
y:  F-Curr [1/cm^2/(MeV/n)/source]         
p: xlog ylog afac(0.8) form(0.9)
h: n            x            y(neutron ),hh0l   n 
#  e-lower      e-upper      neutron     r.err 
   1.0000E-02   1.0243E-02   4.8087E-05  0.1305
   1.0243E-02   1.0493E-02   5.0556E-05  0.1260
   1.0493E-02   1.0748E-02   5.4056E-05  0.1204
   1.0748E-02   1.1009E-02   5.3537E-05  0.1195
   1.1009E-02   1.1277E-02   4.7038E-05  0.1260
   1.1277E-02   1.1552E-02   4.5921E-05  0.1260
   1.1552E-02   1.1833E-02   5.6216E-05  0.1125
   1.1833E-02   1.2121E-02   5.2797E-05  0.1147
   1.2121E-02   1.2415E-02   4.7473E-05  0.1195
   1.2415E-02   1.2718E-02   4.5022E-05  0.1213
   1.2718E-02   1.3027E-02   4.8477E-05  0.1155
   1.3027E-02   1.3344E-02   6.0576E-05  0.1021
   1.3344E-02   1.3669E-02   3.1417E-05  0.1400
   1.3669E-02   1.4001E-02   4.9915E-05  0.1098
   1.4001E-02   1.4342E-02   5.1371E-05  0.1068
   1.4342E-02   1.4691E-02   5.3303E-05  0.1037
   1.4691E-02   1.5048E-02   4.5323E-05  0.1111
   1.5048E-02   1.5414E-02   5.1894E-05  0.1026
   1.5414E-02   1.5789E-02   4.7995E-05  0.1054
   1.5789E-02   1.6174E-02   4.6855E-05  0.1054
   1.6174E-02   1.6567E-02   5.0824E-05  0.1000
   1.6567E-02   1.6970E-02   4.3663E-05  0.1066
   1.6970E-02   1.7383E-02   5.4735E-05  0.0941
   1.7383E-02   1.7806E-02   4.3578E-05  0.1041
   1.7806E-02   1.8239E-02   4.5241E-05  0.1010
   1.8239E-02   1.8683E-02   4.5969E-05  0.0990
   1.8683E-02   1.9138E-02   5.1546E-05  0.0923
   1.9138E-02   1.9603E-02   4.9825E-05  0.0928
   1.9603E-02   2.0080E-02   6.2898E-05  0.0816
   2.0080E-02   2.0569E-02   4.4211E-05  0.0962
   2.0569E-02   2.1069E-02   4.3561E-05  0.0958
   2.1069E-02   2.1582E-02   5.8132E-05  0.0819
   2.1582E-02   2.2107E-02   5.2942E-05  0.0848
   2.2107E-02   2.2645E-02   4.8152E-05  0.0878
   2.2645E-02   2.3196E-02   4.5738E-05  0.0891
   2.3196E-02   2.3760E-02   5.6754E-05  0.0790
   2.3760E-02   2.4338E-02   5.1548E-05  0.0819
   2.4338E-02   2.4930E-02   5.0035E-05  0.0821
   2.4930E-02   2.5537E-02   4.8846E-05  0.0821
   2.5537E-02   2.6158E-02   4.6674E-05  0.0830
   2.6158E-02   2.6795E-02   5.6878E-05  0.0743
   2.6795E-02   2.7447E-02   4.8164E-05  0.0798
   2.7447E-02   2.8114E-02   4.9416E-05  0.0778
   2.8114E-02   2.8799E-02   5.1312E-05  0.0754
   2.8799E-02   2.9499E-02   4.7667E-05  0.0774
   2.9499E-02   3.0217E-02   4.2675E-05  0.0808
   3.0217E-02   3.0952E-02   5.2503E-05  0.0720
   3.0952E-02   3.1705E-02   4.7803E-05  0.0745
   3.1705E-02   3.2477E-02   5.4964E-05  0.0687
   3.2477E-02   3.3267E-02   4.3787E-05  0.0760
   3.3267E-02   3.4076E-02   5.3990E-05  0.0676
   3.4076E-02   3.4905E-02   5.1381E-05  0.0685
   3.4905E-02   3.5755E-02   5.3928E-05  0.0661
   3.5755E-02   3.6625E-02   5.2418E-05  0.0662
   3.6625E-02   3.7516E-02   4.9826E-05  0.0671
   3.7516E-02   3.8428E-02   5.0833E-05  0.0657
   3.8428E-02   3.9363E-02   5.3476E-05  0.0632
   3.9363E-02   4.0321E-02   4.9002E-05  0.0652
   4.0321E-02   4.1302E-02   4.7093E-05  0.0658
   4.1302E-02   4.2307E-02   4.7792E-05  0.0645
   4.2307E-02   4.3337E-02   4.7363E-05  0.0640
   4.3337E-02   4.4391E-02   4.8179E-05  0.0627
   4.4391E-02   4.5471E-02   4.5923E-05  0.0635
   4.5471E-02   4.6577E-02   5.3510E-05  0.0581
   4.6577E-02   4.7711E-02   5.0121E-05  0.0593
   4.7711E-02   4.8871E-02   4.2125E-05  0.0639
   4.8871E-02   5.0061E-02   4.2386E-05  0.0630
   5.0061E-02   5.1279E-02   4.9917E-05  0.0574
   5.1279E-02   5.2526E-02   4.5878E-05  0.0591
   5.2526E-02   5.3804E-02   5.0235E-05  0.0558
   5.3804E-02   5.5113E-02   5.2097E-05  0.0542
   5.5113E-02   5.6454E-02   4.7355E-05  0.0561
   5.6454E-02   5.7828E-02   4.7904E-05  0.0551
   5.7828E-02   5.9235E-02   4.6766E-05  0.0551
   5.9235E-02   6.0676E-02   4.6511E-05  0.0546
   6.0676E-02   6.2152E-02   4.7416E-05  0.0535
   6.2152E-02   6.3665E-02   4.4967E-05  0.0542
   6.3665E-02   6.5214E-02   5.1495E-05  0.0500
   6.5214E-02   6.6800E-02   5.1576E-05  0.0494
   6.6800E-02   6.8426E-02   5.0348E-05  0.0494
   6.8426E-02   7.0090E-02   4.7231E-05  0.0504
   7.0090E-02   7.1796E-02   4.6342E-05  0.0503
   7.1796E-02   7.3543E-02   4.5127E-05  0.0504
   7.3543E-02   7.5332E-02   4.4784E-05  0.0499
   7.5332E-02   7.7165E-02   4.4534E-05  0.0495
   7.7165E-02   7.9042E-02   4.4968E-05  0.0487
   7.9042E-02   8.0965E-02   4.1286E-05  0.0502
   8.0965E-02   8.2935E-02   4.1016E-05  0.0498
   8.2935E-02   8.4953E-02   4.3858E-05  0.0475
   8.4953E-02   8.7020E-02   4.0128E-05  0.0491
   8.7020E-02   8.9138E-02   4.0553E-05  0.0482
   8.9138E-02   9.1306E-02   4.0457E-05  0.0477
   9.1306E-02   9.3528E-02   4.4201E-05  0.0451
   9.3528E-02   9.5804E-02   4.5278E-05  0.0440
   9.5804E-02   9.8134E-02   4.3158E-05  0.0446
   9.8134E-02   1.0052E-01   3.9787E-05  0.0459
   1.0052E-01   1.0297E-01   3.8761E-05  0.0459
   1.0297E-01   1.0547E-01   4.2350E-05  0.0434
   1.0547E-01   1.0804E-01   4.1319E-05  0.0434
   1.0804E-01   1.1067E-01   4.1580E-05  0.0428
   1.1067E-01   1.1336E-01   4.0530E-05  0.0428
   1.1336E-01   1.1612E-01   3.9882E-05  0.0426
   1.1612E-01   1.1894E-01   3.9158E-05  0.0425
   1.1894E-01   1.2184E-01   3.6812E-05  0.0433
   1.2184E-01   1.2480E-01   4.2921E-05  0.0396
   1.2480E-01   1.2784E-01   3.7883E-05  0.0417
   1.2784E-01   1.3095E-01   3.7270E-05  0.0415
   1.3095E-01   1.3414E-01   3.8709E-05  0.0403
   1.3414E-01   1.3740E-01   3.5370E-05  0.0416
   1.3740E-01   1.4074E-01   3.6805E-05  0.0403
   1.4074E-01   1.4417E-01   3.5598E-05  0.0405
   1.4417E-01   1.4767E-01   3.8222E-05  0.0386
   1.4767E-01   1.5127E-01   3.4686E-05  0.0401
   1.5127E-01   1.5495E-01   3.4017E-05  0.0400
   1.5495E-01   1.5872E-01   3.7761E-05  0.0375
   1.5872E-01   1.6258E-01   3.3379E-05  0.0394
   1.6258E-01   1.6654E-01   3.2342E-05  0.0395
   1.6654E-01   1.7059E-01   3.3177E-05  0.0386
   1.7059E-01   1.7474E-01   3.1810E-05  0.0389
   1.7474E-01   1.7899E-01   3.0914E-05  0.0390
   1.7899E-01   1.8334E-01   3.2225E-05  0.0377
   1.8334E-01   1.8781E-01   2.8508E-05  0.0396
   1.8781E-01   1.9237E-01   2.8151E-05  0.0394
   1.9237E-01   1.9706E-01   2.6840E-05  0.0399
   1.9706E-01   2.0185E-01   2.6246E-05  0.0399
   2.0185E-01   2.0676E-01   2.6273E-05  0.0394
   2.0676E-01   2.1179E-01   2.9194E-05  0.0369
   2.1179E-01   2.1694E-01   2.8022E-05  0.0372
   2.1694E-01   2.2222E-01   2.7167E-05  0.0373
   2.2222E-01   2.2763E-01   2.8543E-05  0.0360
   2.2763E-01   2.3317E-01   2.9255E-05  0.0351
   2.3317E-01   2.3884E-01   2.9067E-05  0.0348
   2.3884E-01   2.4465E-01   2.7882E-05  0.0351
   2.4465E-01   2.5061E-01   2.8985E-05  0.0340
   2.5061E-01   2.5670E-01   3.0574E-05  0.0328
   2.5670E-01   2.6295E-01   2.9299E-05  0.0330
   2.6295E-01   2.6935E-01   2.9723E-05  0.0324
   2.6935E-01   2.7590E-01   2.9923E-05  0.0319
   2.7590E-01   2.8261E-01   3.0253E-05  0.0314
   2.8261E-01   2.8949E-01   3.1378E-05  0.0304
   2.8949E-01   2.9653E-01   3.2362E-05  0.0296
   2.9653E-01   3.0375E-01   3.0835E-05  0.0300
   3.0375E-01   3.1114E-01   3.1455E-05  0.0293
   3.1114E-01   3.1871E-01   3.2062E-05  0.0287
   3.1871E-01   3.2646E-01   3.2699E-05  0.0281
   3.2646E-01   3.3441E-01   3.2334E-05  0.0279
   3.3441E-01   3.4254E-01   3.2161E-05  0.0276
   3.4254E-01   3.5088E-01   3.2120E-05  0.0273
   3.5088E-01   3.5941E-01   3.2826E-05  0.0267
   3.5941E-01   3.6816E-01   3.3389E-05  0.0262
   3.6816E-01   3.7712E-01   3.3120E-05  0.0260
   3.7712E-01   3.8629E-01   3.3920E-05  0.0253
   3.8629E-01   3.9569E-01   3.2863E-05  0.0254
   3.9569E-01   4.0532E-01   3.3408E-05  0.0249
   4.0532E-01   4.1518E-01   3.4577E-05  0.0242
   4.1518E-01   4.2528E-01   3.3064E-05  0.0245
   4.2528E-01   4.3563E-01   3.3623E-05  0.0240
   4.3563E-01   4.4623E-01   3.4232E-05  0.0235
   4.4623E-01   4.5708E-01   3.4705E-05  0.0230
   4.5708E-01   4.6821E-01   3.4473E-05  0.0228
   4.6821E-01   4.7960E-01   3.4898E-05  0.0224
   4.7960E-01   4.9127E-01   3.4295E-05  0.0223
   4.9127E-01   5.0322E-01   3.5116E-05  0.0218
   5.0322E-01   5.1546E-01   3.6231E-05  0.0212
   5.1546E-01   5.2800E-01   3.6512E-05  0.0209
   5.2800E-01   5.4085E-01   3.6071E-05  0.0208
   5.4085E-01   5.5401E-01   3.6463E-05  0.0204
   5.5401E-01   5.6749E-01   3.6145E-05  0.0203
   5.6749E-01   5.8130E-01   3.6771E-05  0.0198
   5.8130E-01   5.9544E-01   3.6928E-05  0.0196
   5.9544E-01   6.0993E-01   3.6672E-05  0.0194
   6.0993E-01   6.2477E-01   3.6773E-05  0.0191
   6.2477E-01   6.3997E-01   3.5355E-05  0.0193
   6.3997E-01   6.5554E-01   3.6952E-05  0.0186
   6.5554E-01   6.7149E-01   3.6831E-05  0.0184
   6.7149E-01   6.8783E-01   3.7280E-05  0.0181
   6.8783E-01   7.0456E-01   3.6902E-05  0.0180
   7.0456E-01   7.2171E-01   3.8230E-05  0.0175
   7.2171E-01   7.3927E-01   3.7127E-05  0.0175
   7.3927E-01   7.5725E-01   3.8463E-05  0.0170
   7.5725E-01   7.7568E-01   3.8137E-05  0.0169
   7.7568E-01   7.9455E-01   3.8545E-05  0.0166
   7.9455E-01   8.1388E-01   3.9527E-05  0.0162
   8.1388E-01   8.3368E-01   3.8966E-05  0.0161
   8.3368E-01   8.5397E-01   3.9258E-05  0.0158
   8.5397E-01   8.7475E-01   3.8622E-05  0.0158
   8.7475E-01   8.9603E-01   3.9970E-05  0.0153
   8.9603E-01   9.1783E-01   4.0252E-05  0.0151
   9.1783E-01   9.4016E-01   4.0361E-05  0.0149
   9.4016E-01   9.6304E-01   4.1177E-05  0.0146
   9.6304E-01   9.8647E-01   3.8060E-05  0.0150
   9.8647E-01   1.0105E+00   3.8636E-05  0.0147
   1.0105E+00   1.0351E+00   3.9715E-05  0.0143
   1.0351E+00   1.0602E+00   3.8650E-05  0.0143
   1.0602E+00   1.0860E+00   3.9762E-05  0.0140
   1.0860E+00   1.1125E+00   3.7631E-05  0.0142
   1.1125E+00   1.1395E+00   3.9876E-05  0.0136
   1.1395E+00   1.1673E+00   3.9097E-05  0.0136
   1.1673E+00   1.1957E+00   3.9476E-05  0.0133
   1.1957E+00   1.2247E+00   3.9990E-05  0.0131
   1.2247E+00   1.2545E+00   4.0932E-05  0.0128
   1.2545E+00   1.2851E+00   4.0942E-05  0.0126
   1.2851E+00   1.3163E+00   4.0937E-05  0.0125
   1.3163E+00   1.3484E+00   4.1814E-05  0.0122
   1.3484E+00   1.3812E+00   4.1545E-05  0.0121
   1.3812E+00   1.4148E+00   4.2441E-05  0.0118
   1.4148E+00   1.4492E+00   4.2263E-05  0.0117
   1.4492E+00   1.4845E+00   4.2451E-05  0.0116
   1.4845E+00   1.5206E+00   4.3967E-05  0.0112
   1.5206E+00   1.5576E+00   4.3176E-05  0.0112
   1.5576E+00   1.5955E+00   4.3705E-05  0.0110
   1.5955E+00   1.6343E+00   4.4841E-05  0.0107
   1.6343E+00   1.6741E+00   4.4860E-05  0.0106
   1.6741E+00   1.7148E+00   4.5469E-05  0.0104
   1.7148E+00   1.7565E+00   4.5960E-05  0.0102
   1.7565E+00   1.7992E+00   4.5405E-05  0.0101
   1.7992E+00   1.8430E+00   4.6837E-05  0.0099
   1.8430E+00   1.8879E+00   4.7652E-05  0.0097
   1.8879E+00   1.9338E+00   4.8041E-05  0.0095
   1.9338E+00   1.9808E+00   4.7812E-05  0.0094
   1.9808E+00   2.0290E+00   4.8609E-05  0.0092
   2.0290E+00   2.0784E+00   4.9031E-05  0.0091
   2.0784E+00   2.1290E+00   4.9429E-05  0.0089
   2.1290E+00   2.1808E+00   5.0351E-05  0.0088
   2.1808E+00   2.2338E+00   5.0369E-05  0.0086
   2.2338E+00   2.2882E+00   5.0494E-05  0.0085
   2.2882E+00   2.3439E+00   5.2026E-05  0.0083
   2.3439E+00   2.4009E+00   5.1548E-05  0.0082
   2.4009E+00   2.4593E+00   5.2713E-05  0.0081
   2.4593E+00   2.5191E+00   5.3247E-05  0.0079
   2.5191E+00   2.5804E+00   5.3134E-05  0.0078
   2.5804E+00   2.6432E+00   5.3822E-05  0.0077
   2.6432E+00   2.7075E+00   5.4704E-05  0.0075
   2.7075E+00   2.7734E+00   5.5596E-05  0.0074
   2.7734E+00   2.8409E+00   5.4912E-05  0.0073
   2.8409E+00   2.9100E+00   5.6075E-05  0.0072
   2.9100E+00   2.9808E+00   5.7078E-05  0.0070
   2.9808E+00   3.0533E+00   5.6580E-05  0.0070
   3.0533E+00   3.1276E+00   5.7508E-05  0.0068
   3.1276E+00   3.2037E+00   5.8118E-05  0.0067
   3.2037E+00   3.2817E+00   5.8455E-05  0.0066
   3.2817E+00   3.3615E+00   5.9201E-05  0.0065
   3.3615E+00   3.4433E+00   5.9487E-05  0.0064
   3.4433E+00   3.5271E+00   6.0416E-05  0.0063
   3.5271E+00   3.6129E+00   6.0036E-05  0.0062
   3.6129E+00   3.7008E+00   6.1254E-05  0.0061
   3.7008E+00   3.7908E+00   6.1800E-05  0.0060
   3.7908E+00   3.8831E+00   6.1925E-05  0.0059
   3.8831E+00   3.9776E+00   6.2292E-05  0.0058
   3.9776E+00   4.0743E+00   6.3135E-05  0.0057
   4.0743E+00   4.1735E+00   6.3002E-05  0.0057
   4.1735E+00   4.2750E+00   6.3332E-05  0.0056
   4.2750E+00   4.3790E+00   6.4307E-05  0.0055
   4.3790E+00   4.4856E+00   6.4583E-05  0.0054
   4.4856E+00   4.5947E+00   6.4480E-05  0.0053
   4.5947E+00   4.7065E+00   6.5543E-05  0.0052
   4.7065E+00   4.8210E+00   6.6248E-05  0.0051
   4.8210E+00   4.9383E+00   6.6136E-05  0.0051
   4.9383E+00   5.0585E+00   6.6730E-05  0.0050
   5.0585E+00   5.1815E+00   6.6842E-05  0.0049
   5.1815E+00   5.3076E+00   6.7800E-05  0.0048
   5.3076E+00   5.4368E+00   6.7936E-05  0.0048
   5.4368E+00   5.5690E+00   6.8285E-05  0.0047
   5.5690E+00   5.7045E+00   6.8099E-05  0.0047
   5.7045E+00   5.8433E+00   6.8628E-05  0.0046
   5.8433E+00   5.9855E+00   6.9364E-05  0.0045
   5.9855E+00   6.1311E+00   6.9251E-05  0.0045
   6.1311E+00   6.2803E+00   6.9309E-05  0.0044
   6.2803E+00   6.4331E+00   6.9765E-05  0.0043
   6.4331E+00   6.5896E+00   6.9753E-05  0.0043
   6.5896E+00   6.7500E+00   7.0027E-05  0.0042
   6.7500E+00   6.9142E+00   6.9200E-05  0.0042
   6.9142E+00   7.0824E+00   6.9360E-05  0.0041
   7.0824E+00   7.2548E+00   6.9182E-05  0.0041
   7.2548E+00   7.4313E+00   6.8754E-05  0.0041
   7.4313E+00   7.6121E+00   6.8569E-05  0.0040
   7.6121E+00   7.7973E+00   6.8510E-05  0.0040
   7.7973E+00   7.9870E+00   6.7547E-05  0.0040
   7.9870E+00   8.1813E+00   6.7491E-05  0.0039
   8.1813E+00   8.3804E+00   6.6284E-05  0.0039
   8.3804E+00   8.5843E+00   6.5348E-05  0.0039
   8.5843E+00   8.7931E+00   6.4782E-05  0.0038
   8.7931E+00   9.0071E+00   6.4205E-05  0.0038
   9.0071E+00   9.2262E+00   6.3154E-05  0.0038
   9.2262E+00   9.4507E+00   6.2216E-05  0.0038
   9.4507E+00   9.6807E+00   6.1337E-05  0.0038
   9.6807E+00   9.9162E+00   5.9893E-05  0.0038
   9.9162E+00   1.0157E+01   5.8581E-05  0.0038
   1.0157E+01   1.0405E+01   5.7178E-05  0.0038
   1.0405E+01   1.0658E+01   5.6202E-05  0.0037
   1.0658E+01   1.0917E+01   5.4590E-05  0.0038
   1.0917E+01   1.1183E+01   5.3064E-05  0.0038
   1.1183E+01   1.1455E+01   5.1273E-05  0.0038
   1.1455E+01   1.1733E+01   4.9447E-05  0.0038
   1.1733E+01   1.2019E+01   4.7763E-05  0.0038
   1.2019E+01   1.2311E+01   4.6041E-05  0.0039
   1.2311E+01   1.2611E+01   4.4514E-05  0.0039
   1.2611E+01   1.2918E+01   4.2777E-05  0.0039
   1.2918E+01   1.3232E+01   4.0548E-05  0.0040
   1.3232E+01   1.3554E+01   3.8711E-05  0.0040
   1.3554E+01   1.3884E+01   3.6855E-05  0.0041
   1.3884E+01   1.4222E+01   3.4811E-05  0.0041
   1.4222E+01   1.4568E+01   3.3024E-05  0.0042
   1.4568E+01   1.4922E+01   3.1370E-05  0.0042
   1.4922E+01   1.5285E+01   2.9444E-05  0.0043
   1.5285E+01   1.5657E+01   2.7656E-05  0.0044
   1.5657E+01   1.6038E+01   2.6035E-05  0.0045
   1.6038E+01   1.6428E+01   2.4285E-05  0.0046
   1.6428E+01   1.6828E+01   2.2654E-05  0.0047
   1.6828E+01   1.7237E+01   2.1311E-05  0.0048
   1.7237E+01   1.7657E+01   1.9944E-05  0.0049
   1.7657E+01   1.8086E+01   1.8679E-05  0.0050
   1.8086E+01   1.8526E+01   1.7086E-05  0.0052
   1.8526E+01   1.8977E+01   1.5990E-05  0.0053
   1.8977E+01   1.9439E+01   1.4971E-05  0.0054
   1.9439E+01   1.9912E+01   1.3860E-05  0.0055
   1.9912E+01   2.0396E+01   1.2829E-05  0.0057
   2.0396E+01   2.0893E+01   1.1941E-05  0.0058
   2.0893E+01   2.1401E+01   1.0857E-05  0.0060
   2.1401E+01   2.1922E+01   9.9712E-06  0.0062
   2.1922E+01   2.2455E+01   9.1925E-06  0.0064
   2.2455E+01   2.3001E+01   8.2105E-06  0.0067
   2.3001E+01   2.3561E+01   7.3901E-06  0.0070
   2.3561E+01   2.4134E+01   6.7408E-06  0.0072
   2.4134E+01   2.4721E+01   6.1570E-06  0.0074
   2.4721E+01   2.5323E+01   5.5994E-06  0.0077
   2.5323E+01   2.5939E+01   5.1243E-06  0.0080
   2.5939E+01   2.6570E+01   4.6213E-06  0.0083
   2.6570E+01   2.7217E+01   4.2436E-06  0.0085
   2.7217E+01   2.7879E+01   3.8556E-06  0.0089
   2.7879E+01   2.8557E+01   3.5998E-06  0.0091
   2.8557E+01   2.9252E+01   3.3160E-06  0.0093
   2.9252E+01   2.9964E+01   3.0709E-06  0.0096
   2.9964E+01   3.0693E+01   2.6761E-06  0.0101
   3.0693E+01   3.1440E+01   2.3182E-06  0.0107
   3.1440E+01   3.2205E+01   1.9552E-06  0.0116
   3.2205E+01   3.2988E+01   1.6463E-06  0.0125
   3.2988E+01   3.3791E+01   1.3336E-06  0.0137
   3.3791E+01   3.4613E+01   1.0672E-06  0.0151
   3.4613E+01   3.5455E+01   7.6494E-07  0.0176
   3.5455E+01   3.6318E+01   5.3672E-07  0.0208
   3.6318E+01   3.7201E+01   3.7187E-07  0.0247
   3.7201E+01   3.8106E+01   2.7510E-07  0.0283
   3.8106E+01   3.9034E+01   1.7408E-07  0.0352
   3.9034E+01   3.9983E+01   1.3688E-07  0.0392
   3.9983E+01   4.0956E+01   1.0978E-07  0.0433
   4.0956E+01   4.1953E+01   3.0106E-09  0.2582
   4.1953E+01   4.2973E+01   0.0000E+00  0.0000
   4.2973E+01   4.4019E+01   0.0000E+00  0.0000
   4.4019E+01   4.5090E+01   0.0000E+00  0.0000
   4.5090E+01   4.6187E+01   0.0000E+00  0.0000
   4.6187E+01   4.7311E+01   0.0000E+00  0.0000
   4.7311E+01   4.8462E+01   0.0000E+00  0.0000
   4.8462E+01   4.9641E+01   0.0000E+00  0.0000
   4.9641E+01   5.0849E+01   0.0000E+00  0.0000
   5.0849E+01   5.2086E+01   0.0000E+00  0.0000
   5.2086E+01   5.3353E+01   0.0000E+00  0.0000
   5.3353E+01   5.4651E+01   0.0000E+00  0.0000
   5.4651E+01   5.5981E+01   0.0000E+00  0.0000
   5.5981E+01   5.7343E+01   0.0000E+00  0.0000
   5.7343E+01   5.8738E+01   0.0000E+00  0.0000
   5.8738E+01   6.0168E+01   0.0000E+00  0.0000
   6.0168E+01   6.1632E+01   0.0000E+00  0.0000
   6.1632E+01   6.3131E+01   0.0000E+00  0.0000
   6.3131E+01   6.4667E+01   0.0000E+00  0.0000
   6.4667E+01   6.6240E+01   0.0000E+00  0.0000
   6.6240E+01   6.7852E+01   0.0000E+00  0.0000
   6.7852E+01   6.9503E+01   0.0000E+00  0.0000
   6.9503E+01   7.1194E+01   0.0000E+00  0.0000
   7.1194E+01   7.2926E+01   0.0000E+00  0.0000
   7.2926E+01   7.4701E+01   0.0000E+00  0.0000
   7.4701E+01   7.6518E+01   0.0000E+00  0.0000
   7.6518E+01   7.8380E+01   0.0000E+00  0.0000
   7.8380E+01   8.0287E+01   0.0000E+00  0.0000
   8.0287E+01   8.2240E+01   0.0000E+00  0.0000
   8.2240E+01   8.4241E+01   0.0000E+00  0.0000
   8.4241E+01   8.6291E+01   0.0000E+00  0.0000
   8.6291E+01   8.8391E+01   0.0000E+00  0.0000
   8.8391E+01   9.0541E+01   0.0000E+00  0.0000
   9.0541E+01   9.2744E+01   0.0000E+00  0.0000
   9.2744E+01   9.5001E+01   0.0000E+00  0.0000
   9.5001E+01   9.7312E+01   0.0000E+00  0.0000
   9.7312E+01   9.9680E+01   0.0000E+00  0.0000
   9.9680E+01   1.0211E+02   0.0000E+00  0.0000
   1.0211E+02   1.0459E+02   0.0000E+00  0.0000
   1.0459E+02   1.0713E+02   0.0000E+00  0.0000
   1.0713E+02   1.0974E+02   0.0000E+00  0.0000
   1.0974E+02   1.1241E+02   0.0000E+00  0.0000
   1.1241E+02   1.1515E+02   0.0000E+00  0.0000
   1.1515E+02   1.1795E+02   0.0000E+00  0.0000
   1.1795E+02   1.2082E+02   0.0000E+00  0.0000
   1.2082E+02   1.2376E+02   0.0000E+00  0.0000
   1.2376E+02   1.2677E+02   0.0000E+00  0.0000
   1.2677E+02   1.2985E+02   0.0000E+00  0.0000
   1.2985E+02   1.3301E+02   0.0000E+00  0.0000
   1.3301E+02   1.3625E+02   0.0000E+00  0.0000
   1.3625E+02   1.3956E+02   0.0000E+00  0.0000
   1.3956E+02   1.4296E+02   0.0000E+00  0.0000
   1.4296E+02   1.4644E+02   0.0000E+00  0.0000
   1.4644E+02   1.5000E+02   0.0000E+00  0.0000

#   sum over                 6.5883E-06
'no. =    1   reg = 104 - 204'
msuc: {\huge [t-cross] in region mesh}
msdr: {\it plotted by \ANGEL \version}
msdl: {\it calculated by \PHITS  3.26}
wt: s(0.7)
\vspace{-3}
  region surface crossing
  area  &=&   1.0000E+00 [cm^2]
e:
 
# Information for Restart Calculation
# This calculation was newly started
# istdev =  2 # 1:Batch variance, 2:History variance
# resc2  = 5.00000000000000000E+09 # Total source weight or Total source weight / maxcas
# resc3  = 5.00000000000000000E+09 # Total history number or Total batch number
# maxcas =   500000000 # History / Batch, only used for istdev=1
# bitrseed = 0110100000100010111000001110001111001110100100011111101000111001 # bit data of rseed
