[ T-Cross ]
    title = [t-cross] in region mesh
     mesh =  reg            # mesh type is region-wise
      reg =    1            # number of crossing regions
      non     r-from    r-to       area
      1       125       225        1.000000    
   e-type =    3            # e-mesh is log given by emin, emax and ne
     emin =  1.0000000E-02  # minimum value of e-mesh points
     emax =   150.0000      # maximum value of e-mesh points
#    edel =  2.4039514E-02  # mesh width of e-mesh points
       ne =    400          # number of e-mesh points
#    data = ( e(i), i = 1, ne + 1 )
#           1.00000E-02  1.02433E-02  1.04925E-02  1.07478E-02  1.10093E-02
#           1.12772E-02  1.15516E-02  1.18326E-02  1.21205E-02  1.24154E-02
#           1.27175E-02  1.30269E-02  1.33439E-02  1.36686E-02  1.40011E-02
#           1.43418E-02  1.46907E-02  1.50482E-02  1.54143E-02  1.57894E-02
#           1.61735E-02  1.65670E-02  1.69701E-02  1.73830E-02  1.78060E-02
#           1.82392E-02  1.86830E-02  1.91375E-02  1.96032E-02  2.00801E-02
#           2.05687E-02  2.10692E-02  2.15818E-02  2.21069E-02  2.26448E-02
#           2.31957E-02  2.37601E-02  2.43382E-02  2.49304E-02  2.55369E-02
#           2.61583E-02  2.67947E-02  2.74467E-02  2.81145E-02  2.87985E-02
#           2.94992E-02  3.02169E-02  3.09521E-02  3.17052E-02  3.24766E-02
#           3.32668E-02  3.40762E-02  3.49053E-02  3.57546E-02  3.66246E-02
#           3.75157E-02  3.84284E-02  3.93634E-02  4.03212E-02  4.13022E-02
#           4.23071E-02  4.33365E-02  4.43909E-02  4.54710E-02  4.65773E-02
#           4.77106E-02  4.88714E-02  5.00605E-02  5.12785E-02  5.25262E-02
#           5.38042E-02  5.51133E-02  5.64542E-02  5.78278E-02  5.92348E-02
#           6.06760E-02  6.21523E-02  6.36645E-02  6.52135E-02  6.68002E-02
#           6.84255E-02  7.00904E-02  7.17957E-02  7.35426E-02  7.53319E-02
#           7.71648E-02  7.90423E-02  8.09655E-02  8.29354E-02  8.49533E-02
#           8.70203E-02  8.91376E-02  9.13064E-02  9.35279E-02  9.58035E-02
#           9.81345E-02  1.00522E-01  1.02968E-01  1.05473E-01  1.08040E-01
#           1.10668E-01  1.13361E-01  1.16119E-01  1.18944E-01  1.21838E-01
#           1.24803E-01  1.27839E-01  1.30950E-01  1.34136E-01  1.37399E-01
#           1.40742E-01  1.44167E-01  1.47675E-01  1.51268E-01  1.54948E-01
#           1.58718E-01  1.62580E-01  1.66535E-01  1.70587E-01  1.74738E-01
#           1.78989E-01  1.83344E-01  1.87805E-01  1.92375E-01  1.97055E-01
#           2.01850E-01  2.06761E-01  2.11792E-01  2.16945E-01  2.22223E-01
#           2.27630E-01  2.33169E-01  2.38842E-01  2.44653E-01  2.50605E-01
#           2.56703E-01  2.62949E-01  2.69346E-01  2.75900E-01  2.82613E-01
#           2.89489E-01  2.96532E-01  3.03747E-01  3.11138E-01  3.18708E-01
#           3.26462E-01  3.34405E-01  3.42542E-01  3.50876E-01  3.59413E-01
#           3.68158E-01  3.77116E-01  3.86291E-01  3.95690E-01  4.05317E-01
#           4.15179E-01  4.25281E-01  4.35628E-01  4.46227E-01  4.57084E-01
#           4.68205E-01  4.79597E-01  4.91266E-01  5.03219E-01  5.15463E-01
#           5.28005E-01  5.40851E-01  5.54011E-01  5.67490E-01  5.81298E-01
#           5.95441E-01  6.09929E-01  6.24769E-01  6.39970E-01  6.55541E-01
#           6.71491E-01  6.87828E-01  7.04564E-01  7.21706E-01  7.39266E-01
#           7.57253E-01  7.75678E-01  7.94551E-01  8.13883E-01  8.33685E-01
#           8.53969E-01  8.74747E-01  8.96030E-01  9.17831E-01  9.40163E-01
#           9.63038E-01  9.86469E-01  1.01047E+00  1.03506E+00  1.06024E+00
#           1.08604E+00  1.11246E+00  1.13953E+00  1.16725E+00  1.19565E+00
#           1.22474E+00  1.25454E+00  1.28507E+00  1.31633E+00  1.34836E+00
#           1.38117E+00  1.41477E+00  1.44920E+00  1.48446E+00  1.52057E+00
#           1.55757E+00  1.59547E+00  1.63429E+00  1.67405E+00  1.71478E+00
#           1.75650E+00  1.79924E+00  1.84302E+00  1.88786E+00  1.93379E+00
#           1.98084E+00  2.02904E+00  2.07841E+00  2.12898E+00  2.18078E+00
#           2.23384E+00  2.28819E+00  2.34386E+00  2.40089E+00  2.45930E+00
#           2.51914E+00  2.58043E+00  2.64322E+00  2.70753E+00  2.77341E+00
#           2.84088E+00  2.91001E+00  2.98081E+00  3.05333E+00  3.12762E+00
#           3.20372E+00  3.28167E+00  3.36152E+00  3.44330E+00  3.52708E+00
#           3.61290E+00  3.70080E+00  3.79085E+00  3.88308E+00  3.97756E+00
#           4.07434E+00  4.17347E+00  4.27501E+00  4.37903E+00  4.48557E+00
#           4.59471E+00  4.70650E+00  4.82102E+00  4.93832E+00  5.05847E+00
#           5.18155E+00  5.30762E+00  5.43676E+00  5.56904E+00  5.70453E+00
#           5.84333E+00  5.98550E+00  6.13114E+00  6.28031E+00  6.43312E+00
#           6.58964E+00  6.74997E+00  6.91420E+00  7.08243E+00  7.25475E+00
#           7.43126E+00  7.61207E+00  7.79728E+00  7.98700E+00  8.18133E+00
#           8.38038E+00  8.58428E+00  8.79315E+00  9.00709E+00  9.22624E+00
#           9.45072E+00  9.68067E+00  9.91620E+00  1.01575E+01  1.04046E+01
#           1.06578E+01  1.09171E+01  1.11827E+01  1.14548E+01  1.17335E+01
#           1.20190E+01  1.23114E+01  1.26109E+01  1.29178E+01  1.32321E+01
#           1.35540E+01  1.38838E+01  1.42216E+01  1.45676E+01  1.49221E+01
#           1.52851E+01  1.56570E+01  1.60380E+01  1.64282E+01  1.68279E+01
#           1.72374E+01  1.76568E+01  1.80864E+01  1.85264E+01  1.89772E+01
#           1.94389E+01  1.99119E+01  2.03963E+01  2.08926E+01  2.14009E+01
#           2.19216E+01  2.24550E+01  2.30014E+01  2.35610E+01  2.41343E+01
#           2.47215E+01  2.53230E+01  2.59391E+01  2.65702E+01  2.72167E+01
#           2.78789E+01  2.85572E+01  2.92520E+01  2.99637E+01  3.06928E+01
#           3.14396E+01  3.22045E+01  3.29881E+01  3.37907E+01  3.46128E+01
#           3.54550E+01  3.63177E+01  3.72013E+01  3.81064E+01  3.90336E+01
#           3.99833E+01  4.09561E+01  4.19526E+01  4.29734E+01  4.40189E+01
#           4.50900E+01  4.61870E+01  4.73108E+01  4.84619E+01  4.96410E+01
#           5.08488E+01  5.20860E+01  5.33533E+01  5.46514E+01  5.59812E+01
#           5.73432E+01  5.87384E+01  6.01676E+01  6.16315E+01  6.31311E+01
#           6.46671E+01  6.62405E+01  6.78522E+01  6.95031E+01  7.11941E+01
#           7.29263E+01  7.47007E+01  7.65182E+01  7.83800E+01  8.02870E+01
#           8.22405E+01  8.42414E+01  8.62911E+01  8.83906E+01  9.05412E+01
#           9.27442E+01  9.50007E+01  9.73122E+01  9.96799E+01  1.02105E+02
#           1.04589E+02  1.07134E+02  1.09741E+02  1.12411E+02  1.15146E+02
#           1.17948E+02  1.20817E+02  1.23757E+02  1.26768E+02  1.29852E+02
#           1.33012E+02  1.36248E+02  1.39563E+02  1.42959E+02  1.46437E+02
#           1.50000E+02
     unit =    2            # unit is [1/cm^2/(MeV/n)/source]
     axis =  eng            # axis of output
     file = detector-26.out  # file name of output for the above axis
   output = f-curr          # surface crossing forward current spectrum
     part =  neutron  
# kf/name :  2112     
#    used :        main (  %)        temp (  %)       total (  %)
#  memory :         414 (  0)           0 (  0)         414 (  0)

#------------------------------------------------------------------------------
#newpage:
#   no. =    1   reg = 125 - 225

x: Energy [MeV/n]
y:  F-Curr [1/cm^2/(MeV/n)/source]         
p: xlog ylog afac(0.8) form(0.9)
h: n            x            y(neutron ),hh0l   n 
#  e-lower      e-upper      neutron     r.err 
   1.0000E-02   1.0243E-02   3.6543E-04  0.0473
   1.0243E-02   1.0493E-02   3.7633E-04  0.0461
   1.0493E-02   1.0748E-02   3.6144E-04  0.0464
   1.0748E-02   1.1009E-02   3.5115E-04  0.0465
   1.1009E-02   1.1277E-02   3.5567E-04  0.0457
   1.1277E-02   1.1552E-02   3.4401E-04  0.0459
   1.1552E-02   1.1833E-02   3.3360E-04  0.0461
   1.1833E-02   1.2121E-02   3.0355E-04  0.0477
   1.2121E-02   1.2415E-02   2.7305E-04  0.0497
   1.2415E-02   1.2718E-02   3.0908E-04  0.0461
   1.2718E-02   1.3027E-02   2.9270E-04  0.0469
   1.3027E-02   1.3344E-02   2.7656E-04  0.0475
   1.3344E-02   1.3669E-02   2.7622E-04  0.0471
   1.3669E-02   1.4001E-02   2.6742E-04  0.0472
   1.4001E-02   1.4342E-02   2.7817E-04  0.0458
   1.4342E-02   1.4691E-02   2.6192E-04  0.0467
   1.4691E-02   1.5048E-02   2.5767E-04  0.0464
   1.5048E-02   1.5414E-02   2.6746E-04  0.0451
   1.5414E-02   1.5789E-02   2.3734E-04  0.0472
   1.5789E-02   1.6174E-02   2.4865E-04  0.0456
   1.6174E-02   1.6567E-02   2.5607E-04  0.0445
   1.6567E-02   1.6970E-02   2.3825E-04  0.0455
   1.6970E-02   1.7383E-02   2.4200E-04  0.0447
   1.7383E-02   1.7806E-02   2.2423E-04  0.0459
   1.7806E-02   1.8239E-02   2.4232E-04  0.0435
   1.8239E-02   1.8683E-02   2.2029E-04  0.0451
   1.8683E-02   1.9138E-02   2.2794E-04  0.0438
   1.9138E-02   1.9603E-02   2.1025E-04  0.0451
   1.9603E-02   2.0080E-02   1.8477E-04  0.0475
   2.0080E-02   2.0569E-02   2.0042E-04  0.0450
   2.0569E-02   2.1069E-02   2.0655E-04  0.0439
   2.1069E-02   2.1582E-02   1.9305E-04  0.0448
   2.1582E-02   2.2107E-02   1.9239E-04  0.0444
   2.2107E-02   2.2645E-02   1.9032E-04  0.0440
   2.2645E-02   2.3196E-02   1.7097E-04  0.0460
   2.3196E-02   2.3760E-02   1.8042E-04  0.0441
   2.3760E-02   2.4338E-02   1.8188E-04  0.0435
   2.4338E-02   2.4930E-02   1.5821E-04  0.0461
   2.4930E-02   2.5537E-02   1.6138E-04  0.0451
   2.5537E-02   2.6158E-02   1.7106E-04  0.0433
   2.6158E-02   2.6795E-02   1.6179E-04  0.0439
   2.6795E-02   2.7447E-02   1.5863E-04  0.0439
   2.7447E-02   2.8114E-02   1.5280E-04  0.0442
   2.8114E-02   2.8799E-02   1.5218E-04  0.0437
   2.8799E-02   2.9499E-02   1.5765E-04  0.0424
   2.9499E-02   3.0217E-02   1.5541E-04  0.0422
   3.0217E-02   3.0952E-02   1.4165E-04  0.0437
   3.0952E-02   3.1705E-02   1.3712E-04  0.0439
   3.1705E-02   3.2477E-02   1.4106E-04  0.0428
   3.2477E-02   3.3267E-02   1.3481E-04  0.0432
   3.3267E-02   3.4076E-02   1.3720E-04  0.0423
   3.4076E-02   3.4905E-02   1.2836E-04  0.0432
   3.4905E-02   3.5755E-02   1.3073E-04  0.0424
   3.5755E-02   3.6625E-02   1.3539E-04  0.0411
   3.6625E-02   3.7516E-02   1.1779E-04  0.0436
   3.7516E-02   3.8428E-02   1.2525E-04  0.0417
   3.8428E-02   3.9363E-02   1.1703E-04  0.0426
   3.9363E-02   4.0321E-02   1.2375E-04  0.0410
   4.0321E-02   4.1302E-02   1.0276E-04  0.0444
   4.1302E-02   4.2307E-02   1.1125E-04  0.0422
   4.2307E-02   4.3337E-02   1.0599E-04  0.0427
   4.3337E-02   4.4391E-02   1.0729E-04  0.0419
   4.4391E-02   4.5471E-02   9.9238E-05  0.0431
   4.5471E-02   4.6577E-02   9.9492E-05  0.0425
   4.6577E-02   4.7711E-02   1.0041E-04  0.0418
   4.7711E-02   4.8871E-02   9.7871E-05  0.0418
   4.8871E-02   5.0061E-02   9.8708E-05  0.0411
   5.0061E-02   5.1279E-02   9.5234E-05  0.0414
   5.1279E-02   5.2526E-02   8.7880E-05  0.0426
   5.2526E-02   5.3804E-02   8.8283E-05  0.0420
   5.3804E-02   5.5113E-02   9.3059E-05  0.0404
   5.5113E-02   5.6454E-02   8.5814E-05  0.0415
   5.6454E-02   5.7828E-02   7.7443E-05  0.0432
   5.7828E-02   5.9235E-02   7.9975E-05  0.0420
   5.9235E-02   6.0676E-02   7.9353E-05  0.0417
   6.0676E-02   6.2152E-02   7.4668E-05  0.0424
   6.2152E-02   6.3665E-02   7.2583E-05  0.0425
   6.3665E-02   6.5214E-02   7.7242E-05  0.0408
   6.5214E-02   6.6800E-02   7.3600E-05  0.0412
   6.6800E-02   6.8426E-02   7.7000E-05  0.0399
   6.8426E-02   7.0090E-02   6.7360E-05  0.0421
   7.0090E-02   7.1796E-02   6.8843E-05  0.0412
   7.1796E-02   7.3543E-02   7.1743E-05  0.0399
   7.3543E-02   7.5332E-02   6.8248E-05  0.0404
   7.5332E-02   7.7165E-02   6.7251E-05  0.0402
   7.7165E-02   7.9042E-02   6.3394E-05  0.0409
   7.9042E-02   8.0965E-02   6.2318E-05  0.0407
   8.0965E-02   8.2935E-02   6.1221E-05  0.0406
   8.2935E-02   8.4953E-02   6.0183E-05  0.0404
   8.4953E-02   8.7020E-02   5.4460E-05  0.0420
   8.7020E-02   8.9138E-02   5.4107E-05  0.0417
   8.9138E-02   9.1306E-02   5.6607E-05  0.0402
   9.1306E-02   9.3528E-02   5.3506E-05  0.0409
   9.3528E-02   9.5804E-02   5.1377E-05  0.0413
   9.5804E-02   9.8134E-02   5.6103E-05  0.0390
   9.8134E-02   1.0052E-01   5.0408E-05  0.0406
   1.0052E-01   1.0297E-01   4.7148E-05  0.0415
   1.0297E-01   1.0547E-01   4.7862E-05  0.0407
   1.0547E-01   1.0804E-01   4.5073E-05  0.0415
   1.0804E-01   1.1067E-01   4.2207E-05  0.0423
   1.1067E-01   1.1336E-01   4.0910E-05  0.0425
   1.1336E-01   1.1612E-01   4.4697E-05  0.0402
   1.1612E-01   1.1894E-01   4.2571E-05  0.0407
   1.1894E-01   1.2184E-01   4.1280E-05  0.0408
   1.2184E-01   1.2480E-01   4.0065E-05  0.0409
   1.2480E-01   1.2784E-01   3.4962E-05  0.0433
   1.2784E-01   1.3095E-01   3.7888E-05  0.0411
   1.3095E-01   1.3414E-01   3.6549E-05  0.0413
   1.3414E-01   1.3740E-01   3.7976E-05  0.0400
   1.3740E-01   1.4074E-01   3.4637E-05  0.0414
   1.4074E-01   1.4417E-01   3.5384E-05  0.0405
   1.4417E-01   1.4767E-01   3.3589E-05  0.0411
   1.4767E-01   1.5127E-01   3.3055E-05  0.0410
   1.5127E-01   1.5495E-01   3.1941E-05  0.0411
   1.5495E-01   1.5872E-01   3.1891E-05  0.0407
   1.5872E-01   1.6258E-01   2.9551E-05  0.0417
   1.6258E-01   1.6654E-01   2.8595E-05  0.0419
   1.6654E-01   1.7059E-01   2.8869E-05  0.0412
   1.7059E-01   1.7474E-01   2.7247E-05  0.0419
   1.7474E-01   1.7899E-01   2.9139E-05  0.0400
   1.7899E-01   1.8334E-01   2.4921E-05  0.0427
   1.8334E-01   1.8781E-01   2.6886E-05  0.0407
   1.8781E-01   1.9237E-01   2.6225E-05  0.0407
   1.9237E-01   1.9706E-01   2.5110E-05  0.0411
   1.9706E-01   2.0185E-01   2.4526E-05  0.0411
   2.0185E-01   2.0676E-01   2.5707E-05  0.0397
   2.0676E-01   2.1179E-01   2.6942E-05  0.0383
   2.1179E-01   2.1694E-01   2.7013E-05  0.0378
   2.1694E-01   2.2222E-01   2.5848E-05  0.0382
   2.2222E-01   2.2763E-01   2.7248E-05  0.0367
   2.2763E-01   2.3317E-01   2.7918E-05  0.0358
   2.3317E-01   2.3884E-01   2.8985E-05  0.0348
   2.3884E-01   2.4465E-01   2.9103E-05  0.0343
   2.4465E-01   2.5061E-01   3.0100E-05  0.0333
   2.5061E-01   2.5670E-01   3.2490E-05  0.0316
   2.5670E-01   2.6295E-01   3.1092E-05  0.0319
   2.6295E-01   2.6935E-01   3.3170E-05  0.0306
   2.6935E-01   2.7590E-01   3.1222E-05  0.0311
   2.7590E-01   2.8261E-01   3.4607E-05  0.0292
   2.8261E-01   2.8949E-01   3.5876E-05  0.0284
   2.8949E-01   2.9653E-01   3.5689E-05  0.0281
   2.9653E-01   3.0375E-01   3.6646E-05  0.0274
   3.0375E-01   3.1114E-01   3.4518E-05  0.0279
   3.1114E-01   3.1871E-01   3.6292E-05  0.0269
   3.1871E-01   3.2646E-01   3.6348E-05  0.0265
   3.2646E-01   3.3441E-01   3.7053E-05  0.0259
   3.3441E-01   3.4254E-01   3.8183E-05  0.0253
   3.4254E-01   3.5088E-01   3.8169E-05  0.0250
   3.5088E-01   3.5941E-01   3.8193E-05  0.0247
   3.5941E-01   3.6816E-01   3.9220E-05  0.0240
   3.6816E-01   3.7712E-01   4.0900E-05  0.0233
   3.7712E-01   3.8629E-01   4.1454E-05  0.0228
   3.8629E-01   3.9569E-01   4.0400E-05  0.0228
   3.9569E-01   4.0532E-01   4.2414E-05  0.0220
   4.0532E-01   4.1518E-01   4.2732E-05  0.0217
   4.1518E-01   4.2528E-01   4.3576E-05  0.0212
   4.2528E-01   4.3563E-01   4.4820E-05  0.0207
   4.3563E-01   4.4623E-01   4.2837E-05  0.0209
   4.4623E-01   4.5708E-01   4.4786E-05  0.0202
   4.5708E-01   4.6821E-01   4.3469E-05  0.0203
   4.6821E-01   4.7960E-01   4.5337E-05  0.0196
   4.7960E-01   4.9127E-01   4.4879E-05  0.0194
   4.9127E-01   5.0322E-01   4.6098E-05  0.0189
   5.0322E-01   5.1546E-01   4.3199E-05  0.0194
   5.1546E-01   5.2800E-01   4.4396E-05  0.0189
   5.2800E-01   5.4085E-01   4.3794E-05  0.0188
   5.4085E-01   5.5401E-01   4.5359E-05  0.0182
   5.5401E-01   5.6749E-01   4.5592E-05  0.0179
   5.6749E-01   5.8130E-01   4.4899E-05  0.0179
   5.8130E-01   5.9544E-01   4.4362E-05  0.0178
   5.9544E-01   6.0993E-01   4.5549E-05  0.0173
   6.0993E-01   6.2477E-01   4.5235E-05  0.0171
   6.2477E-01   6.3997E-01   4.6135E-05  0.0168
   6.3997E-01   6.5554E-01   4.5791E-05  0.0166
   6.5554E-01   6.7149E-01   4.5092E-05  0.0166
   6.7149E-01   6.8783E-01   4.5833E-05  0.0162
   6.8783E-01   7.0456E-01   4.5546E-05  0.0161
   7.0456E-01   7.2171E-01   4.4569E-05  0.0161
   7.2171E-01   7.3927E-01   4.4326E-05  0.0159
   7.3927E-01   7.5725E-01   4.4120E-05  0.0158
   7.5725E-01   7.7568E-01   4.3666E-05  0.0157
   7.7568E-01   7.9455E-01   4.3447E-05  0.0155
   7.9455E-01   8.1388E-01   4.3820E-05  0.0153
   8.1388E-01   8.3368E-01   4.3238E-05  0.0152
   8.3368E-01   8.5397E-01   4.3236E-05  0.0150
   8.5397E-01   8.7475E-01   4.3089E-05  0.0148
   8.7475E-01   8.9603E-01   4.2505E-05  0.0148
   8.9603E-01   9.1783E-01   4.1253E-05  0.0148
   9.1783E-01   9.4016E-01   4.1514E-05  0.0146
   9.4016E-01   9.6304E-01   4.0037E-05  0.0147
   9.6304E-01   9.8647E-01   4.1292E-05  0.0143
   9.8647E-01   1.0105E+00   4.0713E-05  0.0142
   1.0105E+00   1.0351E+00   3.9809E-05  0.0142
   1.0351E+00   1.0602E+00   3.9313E-05  0.0141
   1.0602E+00   1.0860E+00   3.8577E-05  0.0141
   1.0860E+00   1.1125E+00   3.8658E-05  0.0139
   1.1125E+00   1.1395E+00   3.7986E-05  0.0138
   1.1395E+00   1.1673E+00   3.7365E-05  0.0138
   1.1673E+00   1.1957E+00   3.6834E-05  0.0137
   1.1957E+00   1.2247E+00   3.7796E-05  0.0134
   1.2247E+00   1.2545E+00   3.6129E-05  0.0135
   1.2545E+00   1.2851E+00   3.5621E-05  0.0134
   1.2851E+00   1.3163E+00   3.6015E-05  0.0132
   1.3163E+00   1.3484E+00   3.5713E-05  0.0131
   1.3484E+00   1.3812E+00   3.5068E-05  0.0131
   1.3812E+00   1.4148E+00   3.4556E-05  0.0130
   1.4148E+00   1.4492E+00   3.3628E-05  0.0130
   1.4492E+00   1.4845E+00   3.3485E-05  0.0129
   1.4845E+00   1.5206E+00   3.2911E-05  0.0129
   1.5206E+00   1.5576E+00   3.2882E-05  0.0127
   1.5576E+00   1.5955E+00   3.2142E-05  0.0127
   1.5955E+00   1.6343E+00   3.1660E-05  0.0126
   1.6343E+00   1.6741E+00   3.1759E-05  0.0125
   1.6741E+00   1.7148E+00   3.1246E-05  0.0124
   1.7148E+00   1.7565E+00   3.0769E-05  0.0124
   1.7565E+00   1.7992E+00   3.0827E-05  0.0122
   1.7992E+00   1.8430E+00   2.9836E-05  0.0123
   1.8430E+00   1.8879E+00   2.9924E-05  0.0121
   1.8879E+00   1.9338E+00   3.0152E-05  0.0119
   1.9338E+00   1.9808E+00   2.9695E-05  0.0119
   1.9808E+00   2.0290E+00   2.9316E-05  0.0118
   2.0290E+00   2.0784E+00   2.9035E-05  0.0117
   2.0784E+00   2.1290E+00   2.8959E-05  0.0116
   2.1290E+00   2.1808E+00   2.8612E-05  0.0115
   2.1808E+00   2.2338E+00   2.8063E-05  0.0115
   2.2338E+00   2.2882E+00   2.7411E-05  0.0115
   2.2882E+00   2.3439E+00   2.7902E-05  0.0113
   2.3439E+00   2.4009E+00   2.7287E-05  0.0112
   2.4009E+00   2.4593E+00   2.6828E-05  0.0112
   2.4593E+00   2.5191E+00   2.6675E-05  0.0111
   2.5191E+00   2.5804E+00   2.6662E-05  0.0110
   2.5804E+00   2.6432E+00   2.5657E-05  0.0111
   2.6432E+00   2.7075E+00   2.5834E-05  0.0109
   2.7075E+00   2.7734E+00   2.5444E-05  0.0108
   2.7734E+00   2.8409E+00   2.4814E-05  0.0109
   2.8409E+00   2.9100E+00   2.3236E-05  0.0111
   2.9100E+00   2.9808E+00   2.1741E-05  0.0113
   2.9808E+00   3.0533E+00   2.0858E-05  0.0114
   3.0533E+00   3.1276E+00   1.9909E-05  0.0115
   3.1276E+00   3.2037E+00   1.9129E-05  0.0116
   3.2037E+00   3.2817E+00   1.8891E-05  0.0116
   3.2817E+00   3.3615E+00   1.8172E-05  0.0116
   3.3615E+00   3.4433E+00   1.7913E-05  0.0116
   3.4433E+00   3.5271E+00   1.7172E-05  0.0117
   3.5271E+00   3.6129E+00   1.6529E-05  0.0118
   3.6129E+00   3.7008E+00   1.6552E-05  0.0116
   3.7008E+00   3.7908E+00   1.6528E-05  0.0115
   3.7908E+00   3.8831E+00   1.6146E-05  0.0115
   3.8831E+00   3.9776E+00   1.5900E-05  0.0115
   3.9776E+00   4.0743E+00   1.5541E-05  0.0115
   4.0743E+00   4.1735E+00   1.5311E-05  0.0114
   4.1735E+00   4.2750E+00   1.4947E-05  0.0114
   4.2750E+00   4.3790E+00   1.4166E-05  0.0116
   4.3790E+00   4.4856E+00   1.4272E-05  0.0114
   4.4856E+00   4.5947E+00   1.3938E-05  0.0114
   4.5947E+00   4.7065E+00   1.3616E-05  0.0114
   4.7065E+00   4.8210E+00   1.3284E-05  0.0114
   4.8210E+00   4.9383E+00   1.2797E-05  0.0115
   4.9383E+00   5.0585E+00   1.2065E-05  0.0117
   5.0585E+00   5.1815E+00   1.1997E-05  0.0116
   5.1815E+00   5.3076E+00   1.1384E-05  0.0117
   5.3076E+00   5.4368E+00   1.1229E-05  0.0117
   5.4368E+00   5.5690E+00   1.0874E-05  0.0117
   5.5690E+00   5.7045E+00   1.0846E-05  0.0116
   5.7045E+00   5.8433E+00   1.0382E-05  0.0117
   5.8433E+00   5.9855E+00   1.0349E-05  0.0116
   5.9855E+00   6.1311E+00   9.9940E-06  0.0117
   6.1311E+00   6.2803E+00   9.6650E-06  0.0117
   6.2803E+00   6.4331E+00   9.5047E-06  0.0117
   6.4331E+00   6.5896E+00   9.1492E-06  0.0118
   6.5896E+00   6.7500E+00   8.8696E-06  0.0118
   6.7500E+00   6.9142E+00   8.7542E-06  0.0118
   6.9142E+00   7.0824E+00   8.4457E-06  0.0118
   7.0824E+00   7.2548E+00   8.0950E-06  0.0119
   7.2548E+00   7.4313E+00   8.0568E-06  0.0118
   7.4313E+00   7.6121E+00   7.8882E-06  0.0118
   7.6121E+00   7.7973E+00   7.6492E-06  0.0119
   7.7973E+00   7.9870E+00   7.2681E-06  0.0120
   7.9870E+00   8.1813E+00   7.1065E-06  0.0120
   8.1813E+00   8.3804E+00   6.7233E-06  0.0122
   8.3804E+00   8.5843E+00   6.5008E-06  0.0123
   8.5843E+00   8.7931E+00   6.4827E-06  0.0121
   8.7931E+00   9.0071E+00   6.1093E-06  0.0124
   9.0071E+00   9.2262E+00   5.8946E-06  0.0124
   9.2262E+00   9.4507E+00   5.7654E-06  0.0124
   9.4507E+00   9.6807E+00   5.4305E-06  0.0126
   9.6807E+00   9.9162E+00   5.3504E-06  0.0126
   9.9162E+00   1.0157E+01   5.1753E-06  0.0126
   1.0157E+01   1.0405E+01   5.1916E-06  0.0125
   1.0405E+01   1.0658E+01   5.4919E-06  0.0120
   1.0658E+01   1.0917E+01   5.5235E-06  0.0118
   1.0917E+01   1.1183E+01   5.1645E-06  0.0121
   1.1183E+01   1.1455E+01   4.9927E-06  0.0121
   1.1455E+01   1.1733E+01   4.6893E-06  0.0124
   1.1733E+01   1.2019E+01   4.3901E-06  0.0126
   1.2019E+01   1.2311E+01   4.1781E-06  0.0128
   1.2311E+01   1.2611E+01   3.8091E-06  0.0132
   1.2611E+01   1.2918E+01   3.8023E-06  0.0131
   1.2918E+01   1.3232E+01   3.7418E-06  0.0130
   1.3232E+01   1.3554E+01   3.5050E-06  0.0133
   1.3554E+01   1.3884E+01   3.1999E-06  0.0138
   1.3884E+01   1.4222E+01   3.0629E-06  0.0139
   1.4222E+01   1.4568E+01   2.8201E-06  0.0143
   1.4568E+01   1.4922E+01   2.6691E-06  0.0145
   1.4922E+01   1.5285E+01   2.5807E-06  0.0146
   1.5285E+01   1.5657E+01   2.3148E-06  0.0152
   1.5657E+01   1.6038E+01   2.2113E-06  0.0154
   1.6038E+01   1.6428E+01   2.0685E-06  0.0157
   1.6428E+01   1.6828E+01   1.9011E-06  0.0162
   1.6828E+01   1.7237E+01   1.7523E-06  0.0167
   1.7237E+01   1.7657E+01   1.7156E-06  0.0167
   1.7657E+01   1.8086E+01   1.6050E-06  0.0170
   1.8086E+01   1.8526E+01   1.4367E-06  0.0178
   1.8526E+01   1.8977E+01   1.3640E-06  0.0180
   1.8977E+01   1.9439E+01   1.2841E-06  0.0184
   1.9439E+01   1.9912E+01   1.1736E-06  0.0190
   1.9912E+01   2.0396E+01   1.1076E-06  0.0193
   2.0396E+01   2.0893E+01   9.7006E-07  0.0204
   2.0893E+01   2.1401E+01   9.2066E-07  0.0207
   2.1401E+01   2.1922E+01   8.0046E-07  0.0219
   2.1922E+01   2.2455E+01   7.4132E-07  0.0225
   2.2455E+01   2.3001E+01   6.3110E-07  0.0241
   2.3001E+01   2.3561E+01   5.6965E-07  0.0250
   2.3561E+01   2.4134E+01   4.9227E-07  0.0266
   2.4134E+01   2.4721E+01   4.4141E-07  0.0278
   2.4721E+01   2.5323E+01   3.6077E-07  0.0304
   2.5323E+01   2.5939E+01   3.0221E-07  0.0328
   2.5939E+01   2.6570E+01   2.3577E-07  0.0367
   2.6570E+01   2.7217E+01   1.4509E-07  0.0462
   2.7217E+01   2.7879E+01   1.1749E-07  0.0507
   2.7879E+01   2.8557E+01   8.9929E-08  0.0573
   2.8557E+01   2.9252E+01   7.6567E-08  0.0613
   2.9252E+01   2.9964E+01   5.5921E-08  0.0709
   2.9964E+01   3.0693E+01   4.6637E-08  0.0767
   3.0693E+01   3.1440E+01   2.7049E-08  0.0995
   3.1440E+01   3.2205E+01   1.4380E-08  0.1348
   3.2205E+01   3.2988E+01   9.9546E-09  0.1601
   3.2988E+01   3.3791E+01   2.7410E-09  0.3015
   3.3791E+01   3.4613E+01   0.0000E+00  0.0000
   3.4613E+01   3.5455E+01   0.0000E+00  0.0000
   3.5455E+01   3.6318E+01   0.0000E+00  0.0000
   3.6318E+01   3.7201E+01   0.0000E+00  0.0000
   3.7201E+01   3.8106E+01   0.0000E+00  0.0000
   3.8106E+01   3.9034E+01   0.0000E+00  0.0000
   3.9034E+01   3.9983E+01   0.0000E+00  0.0000
   3.9983E+01   4.0956E+01   0.0000E+00  0.0000
   4.0956E+01   4.1953E+01   0.0000E+00  0.0000
   4.1953E+01   4.2973E+01   0.0000E+00  0.0000
   4.2973E+01   4.4019E+01   0.0000E+00  0.0000
   4.4019E+01   4.5090E+01   0.0000E+00  0.0000
   4.5090E+01   4.6187E+01   0.0000E+00  0.0000
   4.6187E+01   4.7311E+01   0.0000E+00  0.0000
   4.7311E+01   4.8462E+01   0.0000E+00  0.0000
   4.8462E+01   4.9641E+01   0.0000E+00  0.0000
   4.9641E+01   5.0849E+01   0.0000E+00  0.0000
   5.0849E+01   5.2086E+01   0.0000E+00  0.0000
   5.2086E+01   5.3353E+01   0.0000E+00  0.0000
   5.3353E+01   5.4651E+01   0.0000E+00  0.0000
   5.4651E+01   5.5981E+01   0.0000E+00  0.0000
   5.5981E+01   5.7343E+01   0.0000E+00  0.0000
   5.7343E+01   5.8738E+01   0.0000E+00  0.0000
   5.8738E+01   6.0168E+01   0.0000E+00  0.0000
   6.0168E+01   6.1632E+01   0.0000E+00  0.0000
   6.1632E+01   6.3131E+01   0.0000E+00  0.0000
   6.3131E+01   6.4667E+01   0.0000E+00  0.0000
   6.4667E+01   6.6240E+01   0.0000E+00  0.0000
   6.6240E+01   6.7852E+01   0.0000E+00  0.0000
   6.7852E+01   6.9503E+01   0.0000E+00  0.0000
   6.9503E+01   7.1194E+01   0.0000E+00  0.0000
   7.1194E+01   7.2926E+01   0.0000E+00  0.0000
   7.2926E+01   7.4701E+01   0.0000E+00  0.0000
   7.4701E+01   7.6518E+01   0.0000E+00  0.0000
   7.6518E+01   7.8380E+01   0.0000E+00  0.0000
   7.8380E+01   8.0287E+01   0.0000E+00  0.0000
   8.0287E+01   8.2240E+01   0.0000E+00  0.0000
   8.2240E+01   8.4241E+01   0.0000E+00  0.0000
   8.4241E+01   8.6291E+01   0.0000E+00  0.0000
   8.6291E+01   8.8391E+01   0.0000E+00  0.0000
   8.8391E+01   9.0541E+01   0.0000E+00  0.0000
   9.0541E+01   9.2744E+01   0.0000E+00  0.0000
   9.2744E+01   9.5001E+01   0.0000E+00  0.0000
   9.5001E+01   9.7312E+01   0.0000E+00  0.0000
   9.7312E+01   9.9680E+01   0.0000E+00  0.0000
   9.9680E+01   1.0211E+02   0.0000E+00  0.0000
   1.0211E+02   1.0459E+02   0.0000E+00  0.0000
   1.0459E+02   1.0713E+02   0.0000E+00  0.0000
   1.0713E+02   1.0974E+02   0.0000E+00  0.0000
   1.0974E+02   1.1241E+02   0.0000E+00  0.0000
   1.1241E+02   1.1515E+02   0.0000E+00  0.0000
   1.1515E+02   1.1795E+02   0.0000E+00  0.0000
   1.1795E+02   1.2082E+02   0.0000E+00  0.0000
   1.2082E+02   1.2376E+02   0.0000E+00  0.0000
   1.2376E+02   1.2677E+02   0.0000E+00  0.0000
   1.2677E+02   1.2985E+02   0.0000E+00  0.0000
   1.2985E+02   1.3301E+02   0.0000E+00  0.0000
   1.3301E+02   1.3625E+02   0.0000E+00  0.0000
   1.3625E+02   1.3956E+02   0.0000E+00  0.0000
   1.3956E+02   1.4296E+02   0.0000E+00  0.0000
   1.4296E+02   1.4644E+02   0.0000E+00  0.0000
   1.4644E+02   1.5000E+02   0.0000E+00  0.0000

#   sum over                 1.4114E-06
'no. =    1   reg = 125 - 225'
msuc: {\huge [t-cross] in region mesh}
msdr: {\it plotted by \ANGEL \version}
msdl: {\it calculated by \PHITS  3.28}
wt: s(0.7)
\vspace{-3}
  region surface crossing
  area  &=&   1.0000E+00 [cm^2]
e:
 
# Information for Restart Calculation
# This calculation was newly started
# istdev =  2 # 1:Batch variance, 2:History variance
# resc2  = 5.00000000000000000E+09 # Total source weight or Total source weight / maxcas
# resc3  = 5.00000000000000000E+09 # Total history number or Total batch number
# maxcas =   500000000 # History / Batch, only used for istdev=1
# bitrseed = 0001101011110000011001100100101010101011111110100001111101011101 # bit data of rseed
