[ T-Cross ]
    title = [t-cross] in region mesh
     mesh =  reg            # mesh type is region-wise
      reg =    1            # number of crossing regions
      non     r-from    r-to       area
      1       100       200        1.000000    
   e-type =    3            # e-mesh is log given by emin, emax and ne
     emin =  1.0000000E-02  # minimum value of e-mesh points
     emax =   150.0000      # maximum value of e-mesh points
#    edel =  2.4039514E-02  # mesh width of e-mesh points
       ne =    400          # number of e-mesh points
#    data = ( e(i), i = 1, ne + 1 )
#           1.00000E-02  1.02433E-02  1.04925E-02  1.07478E-02  1.10093E-02
#           1.12772E-02  1.15516E-02  1.18326E-02  1.21205E-02  1.24154E-02
#           1.27175E-02  1.30269E-02  1.33439E-02  1.36686E-02  1.40011E-02
#           1.43418E-02  1.46907E-02  1.50482E-02  1.54143E-02  1.57894E-02
#           1.61735E-02  1.65670E-02  1.69701E-02  1.73830E-02  1.78060E-02
#           1.82392E-02  1.86830E-02  1.91375E-02  1.96032E-02  2.00801E-02
#           2.05687E-02  2.10692E-02  2.15818E-02  2.21069E-02  2.26448E-02
#           2.31957E-02  2.37601E-02  2.43382E-02  2.49304E-02  2.55369E-02
#           2.61583E-02  2.67947E-02  2.74467E-02  2.81145E-02  2.87985E-02
#           2.94992E-02  3.02169E-02  3.09521E-02  3.17052E-02  3.24766E-02
#           3.32668E-02  3.40762E-02  3.49053E-02  3.57546E-02  3.66246E-02
#           3.75157E-02  3.84284E-02  3.93634E-02  4.03212E-02  4.13022E-02
#           4.23071E-02  4.33365E-02  4.43909E-02  4.54710E-02  4.65773E-02
#           4.77106E-02  4.88714E-02  5.00605E-02  5.12785E-02  5.25262E-02
#           5.38042E-02  5.51133E-02  5.64542E-02  5.78278E-02  5.92348E-02
#           6.06760E-02  6.21523E-02  6.36645E-02  6.52135E-02  6.68002E-02
#           6.84255E-02  7.00904E-02  7.17957E-02  7.35426E-02  7.53319E-02
#           7.71648E-02  7.90423E-02  8.09655E-02  8.29354E-02  8.49533E-02
#           8.70203E-02  8.91376E-02  9.13064E-02  9.35279E-02  9.58035E-02
#           9.81345E-02  1.00522E-01  1.02968E-01  1.05473E-01  1.08040E-01
#           1.10668E-01  1.13361E-01  1.16119E-01  1.18944E-01  1.21838E-01
#           1.24803E-01  1.27839E-01  1.30950E-01  1.34136E-01  1.37399E-01
#           1.40742E-01  1.44167E-01  1.47675E-01  1.51268E-01  1.54948E-01
#           1.58718E-01  1.62580E-01  1.66535E-01  1.70587E-01  1.74738E-01
#           1.78989E-01  1.83344E-01  1.87805E-01  1.92375E-01  1.97055E-01
#           2.01850E-01  2.06761E-01  2.11792E-01  2.16945E-01  2.22223E-01
#           2.27630E-01  2.33169E-01  2.38842E-01  2.44653E-01  2.50605E-01
#           2.56703E-01  2.62949E-01  2.69346E-01  2.75900E-01  2.82613E-01
#           2.89489E-01  2.96532E-01  3.03747E-01  3.11138E-01  3.18708E-01
#           3.26462E-01  3.34405E-01  3.42542E-01  3.50876E-01  3.59413E-01
#           3.68158E-01  3.77116E-01  3.86291E-01  3.95690E-01  4.05317E-01
#           4.15179E-01  4.25281E-01  4.35628E-01  4.46227E-01  4.57084E-01
#           4.68205E-01  4.79597E-01  4.91266E-01  5.03219E-01  5.15463E-01
#           5.28005E-01  5.40851E-01  5.54011E-01  5.67490E-01  5.81298E-01
#           5.95441E-01  6.09929E-01  6.24769E-01  6.39970E-01  6.55541E-01
#           6.71491E-01  6.87828E-01  7.04564E-01  7.21706E-01  7.39266E-01
#           7.57253E-01  7.75678E-01  7.94551E-01  8.13883E-01  8.33685E-01
#           8.53969E-01  8.74747E-01  8.96030E-01  9.17831E-01  9.40163E-01
#           9.63038E-01  9.86469E-01  1.01047E+00  1.03506E+00  1.06024E+00
#           1.08604E+00  1.11246E+00  1.13953E+00  1.16725E+00  1.19565E+00
#           1.22474E+00  1.25454E+00  1.28507E+00  1.31633E+00  1.34836E+00
#           1.38117E+00  1.41477E+00  1.44920E+00  1.48446E+00  1.52057E+00
#           1.55757E+00  1.59547E+00  1.63429E+00  1.67405E+00  1.71478E+00
#           1.75650E+00  1.79924E+00  1.84302E+00  1.88786E+00  1.93379E+00
#           1.98084E+00  2.02904E+00  2.07841E+00  2.12898E+00  2.18078E+00
#           2.23384E+00  2.28819E+00  2.34386E+00  2.40089E+00  2.45930E+00
#           2.51914E+00  2.58043E+00  2.64322E+00  2.70753E+00  2.77341E+00
#           2.84088E+00  2.91001E+00  2.98081E+00  3.05333E+00  3.12762E+00
#           3.20372E+00  3.28167E+00  3.36152E+00  3.44330E+00  3.52708E+00
#           3.61290E+00  3.70080E+00  3.79085E+00  3.88308E+00  3.97756E+00
#           4.07434E+00  4.17347E+00  4.27501E+00  4.37903E+00  4.48557E+00
#           4.59471E+00  4.70650E+00  4.82102E+00  4.93832E+00  5.05847E+00
#           5.18155E+00  5.30762E+00  5.43676E+00  5.56904E+00  5.70453E+00
#           5.84333E+00  5.98550E+00  6.13114E+00  6.28031E+00  6.43312E+00
#           6.58964E+00  6.74997E+00  6.91420E+00  7.08243E+00  7.25475E+00
#           7.43126E+00  7.61207E+00  7.79728E+00  7.98700E+00  8.18133E+00
#           8.38038E+00  8.58428E+00  8.79315E+00  9.00709E+00  9.22624E+00
#           9.45072E+00  9.68067E+00  9.91620E+00  1.01575E+01  1.04046E+01
#           1.06578E+01  1.09171E+01  1.11827E+01  1.14548E+01  1.17335E+01
#           1.20190E+01  1.23114E+01  1.26109E+01  1.29178E+01  1.32321E+01
#           1.35540E+01  1.38838E+01  1.42216E+01  1.45676E+01  1.49221E+01
#           1.52851E+01  1.56570E+01  1.60380E+01  1.64282E+01  1.68279E+01
#           1.72374E+01  1.76568E+01  1.80864E+01  1.85264E+01  1.89772E+01
#           1.94389E+01  1.99119E+01  2.03963E+01  2.08926E+01  2.14009E+01
#           2.19216E+01  2.24550E+01  2.30014E+01  2.35610E+01  2.41343E+01
#           2.47215E+01  2.53230E+01  2.59391E+01  2.65702E+01  2.72167E+01
#           2.78789E+01  2.85572E+01  2.92520E+01  2.99637E+01  3.06928E+01
#           3.14396E+01  3.22045E+01  3.29881E+01  3.37907E+01  3.46128E+01
#           3.54550E+01  3.63177E+01  3.72013E+01  3.81064E+01  3.90336E+01
#           3.99833E+01  4.09561E+01  4.19526E+01  4.29734E+01  4.40189E+01
#           4.50900E+01  4.61870E+01  4.73108E+01  4.84619E+01  4.96410E+01
#           5.08488E+01  5.20860E+01  5.33533E+01  5.46514E+01  5.59812E+01
#           5.73432E+01  5.87384E+01  6.01676E+01  6.16315E+01  6.31311E+01
#           6.46671E+01  6.62405E+01  6.78522E+01  6.95031E+01  7.11941E+01
#           7.29263E+01  7.47007E+01  7.65182E+01  7.83800E+01  8.02870E+01
#           8.22405E+01  8.42414E+01  8.62911E+01  8.83906E+01  9.05412E+01
#           9.27442E+01  9.50007E+01  9.73122E+01  9.96799E+01  1.02105E+02
#           1.04589E+02  1.07134E+02  1.09741E+02  1.12411E+02  1.15146E+02
#           1.17948E+02  1.20817E+02  1.23757E+02  1.26768E+02  1.29852E+02
#           1.33012E+02  1.36248E+02  1.39563E+02  1.42959E+02  1.46437E+02
#           1.50000E+02
     unit =    2            # unit is [1/cm^2/(MeV/n)/source]
     axis =  eng            # axis of output
     file = detector-01.out  # file name of output for the above axis
   output = f-curr          # surface crossing forward current spectrum
     part =  neutron  
# kf/name :  2112     
#    used :        main (  %)        temp (  %)       total (  %)
#  memory :         414 (  0)           0 (  0)         414 (  0)

#------------------------------------------------------------------------------
#newpage:
#   no. =    1   reg = 100 - 200

x: Energy [MeV/n]
y:  F-Curr [1/cm^2/(MeV/n)/source]         
p: xlog ylog afac(0.8) form(0.9)
h: n            x            y(neutron ),hh0l   n 
#  e-lower      e-upper      neutron     r.err 
   1.0000E-02   1.0243E-02   3.3784E-04  0.0493
   1.0243E-02   1.0493E-02   3.5068E-04  0.0478
   1.0493E-02   1.0748E-02   3.1572E-04  0.0498
   1.0748E-02   1.1009E-02   3.4646E-04  0.0470
   1.1009E-02   1.1277E-02   3.5503E-04  0.0458
   1.1277E-02   1.1552E-02   3.3676E-04  0.0465
   1.1552E-02   1.1833E-02   2.9247E-04  0.0493
   1.1833E-02   1.2121E-02   3.3137E-04  0.0458
   1.2121E-02   1.2415E-02   3.3774E-04  0.0448
   1.2415E-02   1.2718E-02   3.1581E-04  0.0458
   1.2718E-02   1.3027E-02   3.3675E-04  0.0438
   1.3027E-02   1.3344E-02   3.2623E-04  0.0440
   1.3344E-02   1.3669E-02   3.0185E-04  0.0452
   1.3669E-02   1.4001E-02   3.0310E-04  0.0445
   1.4001E-02   1.4342E-02   3.1468E-04  0.0432
   1.4342E-02   1.4691E-02   3.3300E-04  0.0415
   1.4691E-02   1.5048E-02   3.1390E-04  0.0422
   1.5048E-02   1.5414E-02   3.1682E-04  0.0415
   1.5414E-02   1.5789E-02   3.1996E-04  0.0408
   1.5789E-02   1.6174E-02   2.9987E-04  0.0417
   1.6174E-02   1.6567E-02   2.6276E-04  0.0440
   1.6567E-02   1.6970E-02   3.0564E-04  0.0403
   1.6970E-02   1.7383E-02   3.1630E-04  0.0391
   1.7383E-02   1.7806E-02   2.8136E-04  0.0410
   1.7806E-02   1.8239E-02   3.0099E-04  0.0392
   1.8239E-02   1.8683E-02   2.8528E-04  0.0397
   1.8683E-02   1.9138E-02   2.8774E-04  0.0391
   1.9138E-02   1.9603E-02   2.7447E-04  0.0396
   1.9603E-02   2.0080E-02   2.8388E-04  0.0384
   2.0080E-02   2.0569E-02   2.8328E-04  0.0380
   2.0569E-02   2.1069E-02   2.9713E-04  0.0367
   2.1069E-02   2.1582E-02   3.0275E-04  0.0359
   2.1582E-02   2.2107E-02   2.7842E-04  0.0370
   2.2107E-02   2.2645E-02   2.7701E-04  0.0366
   2.2645E-02   2.3196E-02   2.6535E-04  0.0370
   2.3196E-02   2.3760E-02   2.5728E-04  0.0371
   2.3760E-02   2.4338E-02   2.7729E-04  0.0353
   2.4338E-02   2.4930E-02   2.3777E-04  0.0377
   2.4930E-02   2.5537E-02   2.6740E-04  0.0351
   2.5537E-02   2.6158E-02   2.5510E-04  0.0355
   2.6158E-02   2.6795E-02   2.4794E-04  0.0356
   2.6795E-02   2.7447E-02   2.6322E-04  0.0341
   2.7447E-02   2.8114E-02   2.6745E-04  0.0335
   2.8114E-02   2.8799E-02   2.7191E-04  0.0328
   2.8799E-02   2.9499E-02   2.6859E-04  0.0326
   2.9499E-02   3.0217E-02   2.6082E-04  0.0327
   3.0217E-02   3.0952E-02   2.4429E-04  0.0334
   3.0952E-02   3.1705E-02   2.4326E-04  0.0330
   3.1705E-02   3.2477E-02   2.6160E-04  0.0315
   3.2477E-02   3.3267E-02   2.3956E-04  0.0325
   3.3267E-02   3.4076E-02   2.4215E-04  0.0319
   3.4076E-02   3.4905E-02   2.3206E-04  0.0322
   3.4905E-02   3.5755E-02   2.2466E-04  0.0324
   3.5755E-02   3.6625E-02   2.2484E-04  0.0320
   3.6625E-02   3.7516E-02   2.4352E-04  0.0304
   3.7516E-02   3.8428E-02   2.2141E-04  0.0315
   3.8428E-02   3.9363E-02   2.4813E-04  0.0294
   3.9363E-02   4.0321E-02   2.2918E-04  0.0302
   4.0321E-02   4.1302E-02   2.2843E-04  0.0299
   4.1302E-02   4.2307E-02   2.1474E-04  0.0304
   4.2307E-02   4.3337E-02   2.1198E-04  0.0303
   4.3337E-02   4.4391E-02   2.1567E-04  0.0297
   4.4391E-02   4.5471E-02   2.1925E-04  0.0291
   4.5471E-02   4.6577E-02   2.0518E-04  0.0297
   4.6577E-02   4.7711E-02   2.1134E-04  0.0289
   4.7711E-02   4.8871E-02   2.1347E-04  0.0284
   4.8871E-02   5.0061E-02   2.0941E-04  0.0283
   5.0061E-02   5.1279E-02   2.1182E-04  0.0278
   5.1279E-02   5.2526E-02   2.0006E-04  0.0283
   5.2526E-02   5.3804E-02   2.0681E-04  0.0275
   5.3804E-02   5.5113E-02   2.0228E-04  0.0275
   5.5113E-02   5.6454E-02   2.0128E-04  0.0272
   5.6454E-02   5.7828E-02   1.9278E-04  0.0275
   5.7828E-02   5.9235E-02   1.9943E-04  0.0267
   5.9235E-02   6.0676E-02   1.8179E-04  0.0276
   6.0676E-02   6.2152E-02   1.8973E-04  0.0267
   6.2152E-02   6.3665E-02   1.8807E-04  0.0265
   6.3665E-02   6.5214E-02   1.8986E-04  0.0261
   6.5214E-02   6.6800E-02   1.7937E-04  0.0265
   6.6800E-02   6.8426E-02   1.8286E-04  0.0259
   6.8426E-02   7.0090E-02   1.8392E-04  0.0256
   7.0090E-02   7.1796E-02   1.8284E-04  0.0253
   7.1796E-02   7.3543E-02   1.8204E-04  0.0251
   7.3543E-02   7.5332E-02   1.7861E-04  0.0250
   7.5332E-02   7.7165E-02   1.8163E-04  0.0245
   7.7165E-02   7.9042E-02   1.6831E-04  0.0252
   7.9042E-02   8.0965E-02   1.7066E-04  0.0247
   8.0965E-02   8.2935E-02   1.6904E-04  0.0245
   8.2935E-02   8.4953E-02   1.7340E-04  0.0239
   8.4953E-02   8.7020E-02   1.6662E-04  0.0241
   8.7020E-02   8.9138E-02   1.6625E-04  0.0238
   8.9138E-02   9.1306E-02   1.6156E-04  0.0239
   9.1306E-02   9.3528E-02   1.5327E-04  0.0242
   9.3528E-02   9.5804E-02   1.5943E-04  0.0235
   9.5804E-02   9.8134E-02   1.6032E-04  0.0231
   9.8134E-02   1.0052E-01   1.5438E-04  0.0233
   1.0052E-01   1.0297E-01   1.5234E-04  0.0232
   1.0297E-01   1.0547E-01   1.5052E-04  0.0230
   1.0547E-01   1.0804E-01   1.4889E-04  0.0229
   1.0804E-01   1.1067E-01   1.4517E-04  0.0229
   1.1067E-01   1.1336E-01   1.4751E-04  0.0224
   1.1336E-01   1.1612E-01   1.4205E-04  0.0226
   1.1612E-01   1.1894E-01   1.4579E-04  0.0220
   1.1894E-01   1.2184E-01   1.3421E-04  0.0227
   1.2184E-01   1.2480E-01   1.3143E-04  0.0227
   1.2480E-01   1.2784E-01   1.2909E-04  0.0226
   1.2784E-01   1.3095E-01   1.3368E-04  0.0219
   1.3095E-01   1.3414E-01   1.3606E-04  0.0215
   1.3414E-01   1.3740E-01   1.3108E-04  0.0216
   1.3740E-01   1.4074E-01   1.2557E-04  0.0218
   1.4074E-01   1.4417E-01   1.2402E-04  0.0217
   1.4417E-01   1.4767E-01   1.2042E-04  0.0218
   1.4767E-01   1.5127E-01   1.2251E-04  0.0213
   1.5127E-01   1.5495E-01   1.2151E-04  0.0212
   1.5495E-01   1.5872E-01   1.1568E-04  0.0214
   1.5872E-01   1.6258E-01   1.2295E-04  0.0205
   1.6258E-01   1.6654E-01   1.1239E-04  0.0212
   1.6654E-01   1.7059E-01   1.1370E-04  0.0208
   1.7059E-01   1.7474E-01   1.1521E-04  0.0205
   1.7474E-01   1.7899E-01   1.1304E-04  0.0204
   1.7899E-01   1.8334E-01   1.0836E-04  0.0206
   1.8334E-01   1.8781E-01   1.0785E-04  0.0204
   1.8781E-01   1.9237E-01   1.0480E-04  0.0204
   1.9237E-01   1.9706E-01   1.0140E-04  0.0205
   1.9706E-01   2.0185E-01   1.0001E-04  0.0204
   2.0185E-01   2.0676E-01   9.9345E-05  0.0202
   2.0676E-01   2.1179E-01   9.8556E-05  0.0201
   2.1179E-01   2.1694E-01   9.2411E-05  0.0205
   2.1694E-01   2.2222E-01   9.5748E-05  0.0199
   2.2222E-01   2.2763E-01   9.4398E-05  0.0198
   2.2763E-01   2.3317E-01   8.9502E-05  0.0201
   2.3317E-01   2.3884E-01   9.0831E-05  0.0197
   2.3884E-01   2.4465E-01   8.8088E-05  0.0198
   2.4465E-01   2.5061E-01   8.5072E-05  0.0199
   2.5061E-01   2.5670E-01   8.3215E-05  0.0199
   2.5670E-01   2.6295E-01   7.9718E-05  0.0200
   2.6295E-01   2.6935E-01   8.0685E-05  0.0197
   2.6935E-01   2.7590E-01   7.6113E-05  0.0200
   2.7590E-01   2.8261E-01   7.8685E-05  0.0195
   2.8261E-01   2.8949E-01   7.7019E-05  0.0194
   2.8949E-01   2.9653E-01   7.4225E-05  0.0196
   2.9653E-01   3.0375E-01   7.2392E-05  0.0196
   3.0375E-01   3.1114E-01   7.1728E-05  0.0194
   3.1114E-01   3.1871E-01   6.8056E-05  0.0197
   3.1871E-01   3.2646E-01   6.8709E-05  0.0194
   3.2646E-01   3.3441E-01   6.5000E-05  0.0197
   3.3441E-01   3.4254E-01   6.1797E-05  0.0199
   3.4254E-01   3.5088E-01   6.0089E-05  0.0200
   3.5088E-01   3.5941E-01   6.0138E-05  0.0197
   3.5941E-01   3.6816E-01   5.8686E-05  0.0197
   3.6816E-01   3.7712E-01   5.5696E-05  0.0200
   3.7712E-01   3.8629E-01   5.6465E-05  0.0196
   3.8629E-01   3.9569E-01   5.5241E-05  0.0196
   3.9569E-01   4.0532E-01   5.3618E-05  0.0197
   4.0532E-01   4.1518E-01   4.9971E-05  0.0201
   4.1518E-01   4.2528E-01   5.0724E-05  0.0198
   4.2528E-01   4.3563E-01   4.9027E-05  0.0199
   4.3563E-01   4.4623E-01   4.5409E-05  0.0204
   4.4623E-01   4.5708E-01   4.2792E-05  0.0207
   4.5708E-01   4.6821E-01   4.3898E-05  0.0202
   4.6821E-01   4.7960E-01   4.1372E-05  0.0206
   4.7960E-01   4.9127E-01   4.1375E-05  0.0204
   4.9127E-01   5.0322E-01   4.1404E-05  0.0201
   5.0322E-01   5.1546E-01   3.8820E-05  0.0205
   5.1546E-01   5.2800E-01   3.7284E-05  0.0207
   5.2800E-01   5.4085E-01   3.6383E-05  0.0207
   5.4085E-01   5.5401E-01   3.4417E-05  0.0210
   5.5401E-01   5.6749E-01   3.3688E-05  0.0210
   5.6749E-01   5.8130E-01   3.1910E-05  0.0213
   5.8130E-01   5.9544E-01   3.1251E-05  0.0213
   5.9544E-01   6.0993E-01   3.0019E-05  0.0214
   6.0993E-01   6.2477E-01   2.8780E-05  0.0216
   6.2477E-01   6.3997E-01   2.8195E-05  0.0216
   6.3997E-01   6.5554E-01   2.7937E-05  0.0214
   6.5554E-01   6.7149E-01   2.6239E-05  0.0219
   6.7149E-01   6.8783E-01   2.5505E-05  0.0219
   6.8783E-01   7.0456E-01   2.4863E-05  0.0219
   7.0456E-01   7.2171E-01   2.3520E-05  0.0223
   7.2171E-01   7.3927E-01   2.2056E-05  0.0227
   7.3927E-01   7.5725E-01   2.1716E-05  0.0226
   7.5725E-01   7.7568E-01   2.1634E-05  0.0224
   7.7568E-01   7.9455E-01   2.1014E-05  0.0225
   7.9455E-01   8.1388E-01   2.0293E-05  0.0226
   8.1388E-01   8.3368E-01   1.8498E-05  0.0234
   8.3368E-01   8.5397E-01   1.8882E-05  0.0228
   8.5397E-01   8.7475E-01   1.7307E-05  0.0236
   8.7475E-01   8.9603E-01   1.7046E-05  0.0235
   8.9603E-01   9.1783E-01   1.6678E-05  0.0235
   9.1783E-01   9.4016E-01   1.5503E-05  0.0240
   9.4016E-01   9.6304E-01   1.5795E-05  0.0235
   9.6304E-01   9.8647E-01   1.5347E-05  0.0236
   9.8647E-01   1.0105E+00   1.5211E-05  0.0234
   1.0105E+00   1.0351E+00   1.5497E-05  0.0229
   1.0351E+00   1.0602E+00   1.5161E-05  0.0229
   1.0602E+00   1.0860E+00   1.5529E-05  0.0223
   1.0860E+00   1.1125E+00   1.6156E-05  0.0216
   1.1125E+00   1.1395E+00   1.7091E-05  0.0208
   1.1395E+00   1.1673E+00   1.8431E-05  0.0198
   1.1673E+00   1.1957E+00   1.8806E-05  0.0193
   1.1957E+00   1.2247E+00   2.0384E-05  0.0184
   1.2247E+00   1.2545E+00   2.0185E-05  0.0182
   1.2545E+00   1.2851E+00   2.0754E-05  0.0178
   1.2851E+00   1.3163E+00   2.1265E-05  0.0173
   1.3163E+00   1.3484E+00   2.2303E-05  0.0167
   1.3484E+00   1.3812E+00   2.3099E-05  0.0162
   1.3812E+00   1.4148E+00   2.3892E-05  0.0158
   1.4148E+00   1.4492E+00   2.3787E-05  0.0156
   1.4492E+00   1.4845E+00   2.4620E-05  0.0152
   1.4845E+00   1.5206E+00   2.4827E-05  0.0149
   1.5206E+00   1.5576E+00   2.5581E-05  0.0145
   1.5576E+00   1.5955E+00   2.5699E-05  0.0143
   1.5955E+00   1.6343E+00   2.6886E-05  0.0138
   1.6343E+00   1.6741E+00   2.7115E-05  0.0136
   1.6741E+00   1.7148E+00   2.8877E-05  0.0130
   1.7148E+00   1.7565E+00   2.8196E-05  0.0130
   1.7565E+00   1.7992E+00   2.8523E-05  0.0128
   1.7992E+00   1.8430E+00   2.8842E-05  0.0126
   1.8430E+00   1.8879E+00   2.9138E-05  0.0124
   1.8879E+00   1.9338E+00   2.9116E-05  0.0122
   1.9338E+00   1.9808E+00   2.9611E-05  0.0120
   1.9808E+00   2.0290E+00   3.0270E-05  0.0117
   2.0290E+00   2.0784E+00   3.0009E-05  0.0116
   2.0784E+00   2.1290E+00   3.0131E-05  0.0115
   2.1290E+00   2.1808E+00   2.9444E-05  0.0115
   2.1808E+00   2.2338E+00   2.9957E-05  0.0112
   2.2338E+00   2.2882E+00   2.9918E-05  0.0111
   2.2882E+00   2.3439E+00   2.9761E-05  0.0110
   2.3439E+00   2.4009E+00   3.0338E-05  0.0108
   2.4009E+00   2.4593E+00   3.0845E-05  0.0105
   2.4593E+00   2.5191E+00   3.0759E-05  0.0104
   2.5191E+00   2.5804E+00   2.9920E-05  0.0104
   2.5804E+00   2.6432E+00   2.9092E-05  0.0105
   2.6432E+00   2.7075E+00   2.8298E-05  0.0105
   2.7075E+00   2.7734E+00   2.8828E-05  0.0103
   2.7734E+00   2.8409E+00   2.8425E-05  0.0102
   2.8409E+00   2.9100E+00   2.8478E-05  0.0101
   2.9100E+00   2.9808E+00   2.8164E-05  0.0100
   2.9808E+00   3.0533E+00   2.7728E-05  0.0100
   3.0533E+00   3.1276E+00   2.7850E-05  0.0098
   3.1276E+00   3.2037E+00   2.7042E-05  0.0099
   3.2037E+00   3.2817E+00   2.6040E-05  0.0099
   3.2817E+00   3.3615E+00   2.5475E-05  0.0099
   3.3615E+00   3.4433E+00   2.5115E-05  0.0099
   3.4433E+00   3.5271E+00   2.4757E-05  0.0098
   3.5271E+00   3.6129E+00   2.4200E-05  0.0098
   3.6129E+00   3.7008E+00   2.3583E-05  0.0098
   3.7008E+00   3.7908E+00   2.3604E-05  0.0097
   3.7908E+00   3.8831E+00   2.2976E-05  0.0097
   3.8831E+00   3.9776E+00   2.2555E-05  0.0097
   3.9776E+00   4.0743E+00   2.1961E-05  0.0097
   4.0743E+00   4.1735E+00   2.1676E-05  0.0096
   4.1735E+00   4.2750E+00   2.1343E-05  0.0096
   4.2750E+00   4.3790E+00   2.0672E-05  0.0096
   4.3790E+00   4.4856E+00   2.0060E-05  0.0097
   4.4856E+00   4.5947E+00   2.0194E-05  0.0095
   4.5947E+00   4.7065E+00   1.9397E-05  0.0096
   4.7065E+00   4.8210E+00   1.9448E-05  0.0095
   4.8210E+00   4.9383E+00   1.8851E-05  0.0095
   4.9383E+00   5.0585E+00   1.8881E-05  0.0094
   5.0585E+00   5.1815E+00   1.8822E-05  0.0093
   5.1815E+00   5.3076E+00   1.8315E-05  0.0093
   5.3076E+00   5.4368E+00   1.7845E-05  0.0093
   5.4368E+00   5.5690E+00   1.7789E-05  0.0092
   5.5690E+00   5.7045E+00   1.7663E-05  0.0091
   5.7045E+00   5.8433E+00   1.7827E-05  0.0090
   5.8433E+00   5.9855E+00   1.7665E-05  0.0089
   5.9855E+00   6.1311E+00   1.7733E-05  0.0088
   6.1311E+00   6.2803E+00   1.7915E-05  0.0086
   6.2803E+00   6.4331E+00   1.7862E-05  0.0086
   6.4331E+00   6.5896E+00   1.7835E-05  0.0085
   6.5896E+00   6.7500E+00   1.8174E-05  0.0083
   6.7500E+00   6.9142E+00   1.8480E-05  0.0081
   6.9142E+00   7.0824E+00   1.8588E-05  0.0080
   7.0824E+00   7.2548E+00   1.8521E-05  0.0079
   7.2548E+00   7.4313E+00   1.8921E-05  0.0077
   7.4313E+00   7.6121E+00   1.9455E-05  0.0075
   7.6121E+00   7.7973E+00   1.9474E-05  0.0074
   7.7973E+00   7.9870E+00   1.9883E-05  0.0073
   7.9870E+00   8.1813E+00   2.0312E-05  0.0071
   8.1813E+00   8.3804E+00   2.0624E-05  0.0070
   8.3804E+00   8.5843E+00   2.0931E-05  0.0068
   8.5843E+00   8.7931E+00   2.1716E-05  0.0066
   8.7931E+00   9.0071E+00   2.2105E-05  0.0065
   9.0071E+00   9.2262E+00   2.2881E-05  0.0063
   9.2262E+00   9.4507E+00   2.3298E-05  0.0062
   9.4507E+00   9.6807E+00   2.3857E-05  0.0060
   9.6807E+00   9.9162E+00   2.4587E-05  0.0059
   9.9162E+00   1.0157E+01   2.4839E-05  0.0058
   1.0157E+01   1.0405E+01   2.5645E-05  0.0056
   1.0405E+01   1.0658E+01   2.6572E-05  0.0055
   1.0658E+01   1.0917E+01   2.7040E-05  0.0053
   1.0917E+01   1.1183E+01   2.8037E-05  0.0052
   1.1183E+01   1.1455E+01   2.8878E-05  0.0050
   1.1455E+01   1.1733E+01   2.9608E-05  0.0049
   1.1733E+01   1.2019E+01   3.0314E-05  0.0048
   1.2019E+01   1.2311E+01   3.1732E-05  0.0046
   1.2311E+01   1.2611E+01   3.2073E-05  0.0046
   1.2611E+01   1.2918E+01   3.3152E-05  0.0044
   1.2918E+01   1.3232E+01   3.4475E-05  0.0043
   1.3232E+01   1.3554E+01   3.5209E-05  0.0042
   1.3554E+01   1.3884E+01   3.6403E-05  0.0041
   1.3884E+01   1.4222E+01   3.7315E-05  0.0040
   1.4222E+01   1.4568E+01   3.8004E-05  0.0039
   1.4568E+01   1.4922E+01   3.9401E-05  0.0038
   1.4922E+01   1.5285E+01   4.0618E-05  0.0037
   1.5285E+01   1.5657E+01   4.1660E-05  0.0036
   1.5657E+01   1.6038E+01   4.2696E-05  0.0035
   1.6038E+01   1.6428E+01   4.3357E-05  0.0034
   1.6428E+01   1.6828E+01   4.4454E-05  0.0034
   1.6828E+01   1.7237E+01   4.5455E-05  0.0033
   1.7237E+01   1.7657E+01   4.6461E-05  0.0032
   1.7657E+01   1.8086E+01   4.7526E-05  0.0031
   1.8086E+01   1.8526E+01   4.8234E-05  0.0031
   1.8526E+01   1.8977E+01   4.9241E-05  0.0030
   1.8977E+01   1.9439E+01   4.9896E-05  0.0029
   1.9439E+01   1.9912E+01   5.0521E-05  0.0029
   1.9912E+01   2.0396E+01   5.6542E-05  0.0027
   2.0396E+01   2.0893E+01   5.8913E-05  0.0026
   2.0893E+01   2.1401E+01   5.8860E-05  0.0026
   2.1401E+01   2.1922E+01   5.8763E-05  0.0026
   2.1922E+01   2.2455E+01   5.8005E-05  0.0025
   2.2455E+01   2.3001E+01   5.7565E-05  0.0025
   2.3001E+01   2.3561E+01   5.7068E-05  0.0025
   2.3561E+01   2.4134E+01   5.5938E-05  0.0025
   2.4134E+01   2.4721E+01   5.4684E-05  0.0025
   2.4721E+01   2.5323E+01   5.3300E-05  0.0025
   2.5323E+01   2.5939E+01   5.1660E-05  0.0025
   2.5939E+01   2.6570E+01   4.9565E-05  0.0025
   2.6570E+01   2.7217E+01   4.7784E-05  0.0025
   2.7217E+01   2.7879E+01   4.5425E-05  0.0026
   2.7879E+01   2.8557E+01   4.3114E-05  0.0026
   2.8557E+01   2.9252E+01   4.0429E-05  0.0027
   2.9252E+01   2.9964E+01   3.7848E-05  0.0027
   2.9964E+01   3.0693E+01   3.4993E-05  0.0028
   3.0693E+01   3.1440E+01   3.2185E-05  0.0029
   3.1440E+01   3.2205E+01   2.9669E-05  0.0030
   3.2205E+01   3.2988E+01   2.7233E-05  0.0031
   3.2988E+01   3.3791E+01   2.4668E-05  0.0032
   3.3791E+01   3.4613E+01   2.2295E-05  0.0033
   3.4613E+01   3.5455E+01   2.0051E-05  0.0034
   3.5455E+01   3.6318E+01   1.7997E-05  0.0036
   3.6318E+01   3.7201E+01   1.6203E-05  0.0037
   3.7201E+01   3.8106E+01   1.4429E-05  0.0039
   3.8106E+01   3.9034E+01   1.3018E-05  0.0041
   3.9034E+01   3.9983E+01   1.1486E-05  0.0043
   3.9983E+01   4.0956E+01   1.0218E-05  0.0045
   4.0956E+01   4.1953E+01   9.1814E-06  0.0047
   4.1953E+01   4.2973E+01   8.0792E-06  0.0049
   4.2973E+01   4.4019E+01   7.2475E-06  0.0051
   4.4019E+01   4.5090E+01   6.3792E-06  0.0054
   4.5090E+01   4.6187E+01   5.6946E-06  0.0057
   4.6187E+01   4.7311E+01   5.1002E-06  0.0059
   4.7311E+01   4.8462E+01   4.5028E-06  0.0062
   4.8462E+01   4.9641E+01   4.0055E-06  0.0065
   4.9641E+01   5.0849E+01   3.5420E-06  0.0068
   5.0849E+01   5.2086E+01   3.0545E-06  0.0073
   5.2086E+01   5.3353E+01   2.5603E-06  0.0079
   5.3353E+01   5.4651E+01   2.2029E-06  0.0084
   5.4651E+01   5.5981E+01   1.8311E-06  0.0091
   5.5981E+01   5.7343E+01   1.5227E-06  0.0098
   5.7343E+01   5.8738E+01   1.2334E-06  0.0108
   5.8738E+01   6.0168E+01   1.0109E-06  0.0118
   6.0168E+01   6.1632E+01   7.3474E-07  0.0136
   6.1632E+01   6.3131E+01   4.8321E-07  0.0166
   6.3131E+01   6.4667E+01   2.7565E-07  0.0217
   6.4667E+01   6.6240E+01   7.4997E-08  0.0412
   6.6240E+01   6.7852E+01   0.0000E+00  0.0000
   6.7852E+01   6.9503E+01   0.0000E+00  0.0000
   6.9503E+01   7.1194E+01   0.0000E+00  0.0000
   7.1194E+01   7.2926E+01   0.0000E+00  0.0000
   7.2926E+01   7.4701E+01   0.0000E+00  0.0000
   7.4701E+01   7.6518E+01   0.0000E+00  0.0000
   7.6518E+01   7.8380E+01   0.0000E+00  0.0000
   7.8380E+01   8.0287E+01   0.0000E+00  0.0000
   8.0287E+01   8.2240E+01   0.0000E+00  0.0000
   8.2240E+01   8.4241E+01   0.0000E+00  0.0000
   8.4241E+01   8.6291E+01   0.0000E+00  0.0000
   8.6291E+01   8.8391E+01   0.0000E+00  0.0000
   8.8391E+01   9.0541E+01   0.0000E+00  0.0000
   9.0541E+01   9.2744E+01   0.0000E+00  0.0000
   9.2744E+01   9.5001E+01   0.0000E+00  0.0000
   9.5001E+01   9.7312E+01   0.0000E+00  0.0000
   9.7312E+01   9.9680E+01   0.0000E+00  0.0000
   9.9680E+01   1.0211E+02   0.0000E+00  0.0000
   1.0211E+02   1.0459E+02   0.0000E+00  0.0000
   1.0459E+02   1.0713E+02   0.0000E+00  0.0000
   1.0713E+02   1.0974E+02   0.0000E+00  0.0000
   1.0974E+02   1.1241E+02   0.0000E+00  0.0000
   1.1241E+02   1.1515E+02   0.0000E+00  0.0000
   1.1515E+02   1.1795E+02   0.0000E+00  0.0000
   1.1795E+02   1.2082E+02   0.0000E+00  0.0000
   1.2082E+02   1.2376E+02   0.0000E+00  0.0000
   1.2376E+02   1.2677E+02   0.0000E+00  0.0000
   1.2677E+02   1.2985E+02   0.0000E+00  0.0000
   1.2985E+02   1.3301E+02   0.0000E+00  0.0000
   1.3301E+02   1.3625E+02   0.0000E+00  0.0000
   1.3625E+02   1.3956E+02   0.0000E+00  0.0000
   1.3956E+02   1.4296E+02   0.0000E+00  0.0000
   1.4296E+02   1.4644E+02   0.0000E+00  0.0000
   1.4644E+02   1.5000E+02   0.0000E+00  0.0000

#   sum over                 9.7940E-06
'no. =    1   reg = 100 - 200'
msuc: {\huge [t-cross] in region mesh}
msdr: {\it plotted by \ANGEL \version}
msdl: {\it calculated by \PHITS  3.26}
wt: s(0.7)
\vspace{-3}
  region surface crossing
  area  &=&   1.0000E+00 [cm^2]
e:
 
# Information for Restart Calculation
# This calculation was newly started
# istdev =  2 # 1:Batch variance, 2:History variance
# resc2  = 5.00000000000000000E+09 # Total source weight or Total source weight / maxcas
# resc3  = 5.00000000000000000E+09 # Total history number or Total batch number
# maxcas =   500000000 # History / Batch, only used for istdev=1
# bitrseed = 0110100000100010111000001110001111001110100100011111101000111001 # bit data of rseed
