6 <--- number of remaining batches 

-------------------------------------------------------------------------------
bat[       4] ncas =     2000000000.
 bitrseed = 0000010101110101110110100110011001100101000001100111100100101101
          cpu time =   8 h. 41 m. 23.83 s.

 date = 2022-05-31
 time = 02h 47m 56s

