[ T-Cross ]
    title = [t-cross] in region mesh
     mesh =  reg            # mesh type is region-wise
      reg =    1            # number of crossing regions
      non     r-from    r-to       area
      1       114       214        1.000000    
   e-type =    3            # e-mesh is log given by emin, emax and ne
     emin =  1.0000000E-02  # minimum value of e-mesh points
     emax =   150.0000      # maximum value of e-mesh points
#    edel =  2.4039514E-02  # mesh width of e-mesh points
       ne =    400          # number of e-mesh points
#    data = ( e(i), i = 1, ne + 1 )
#           1.00000E-02  1.02433E-02  1.04925E-02  1.07478E-02  1.10093E-02
#           1.12772E-02  1.15516E-02  1.18326E-02  1.21205E-02  1.24154E-02
#           1.27175E-02  1.30269E-02  1.33439E-02  1.36686E-02  1.40011E-02
#           1.43418E-02  1.46907E-02  1.50482E-02  1.54143E-02  1.57894E-02
#           1.61735E-02  1.65670E-02  1.69701E-02  1.73830E-02  1.78060E-02
#           1.82392E-02  1.86830E-02  1.91375E-02  1.96032E-02  2.00801E-02
#           2.05687E-02  2.10692E-02  2.15818E-02  2.21069E-02  2.26448E-02
#           2.31957E-02  2.37601E-02  2.43382E-02  2.49304E-02  2.55369E-02
#           2.61583E-02  2.67947E-02  2.74467E-02  2.81145E-02  2.87985E-02
#           2.94992E-02  3.02169E-02  3.09521E-02  3.17052E-02  3.24766E-02
#           3.32668E-02  3.40762E-02  3.49053E-02  3.57546E-02  3.66246E-02
#           3.75157E-02  3.84284E-02  3.93634E-02  4.03212E-02  4.13022E-02
#           4.23071E-02  4.33365E-02  4.43909E-02  4.54710E-02  4.65773E-02
#           4.77106E-02  4.88714E-02  5.00605E-02  5.12785E-02  5.25262E-02
#           5.38042E-02  5.51133E-02  5.64542E-02  5.78278E-02  5.92348E-02
#           6.06760E-02  6.21523E-02  6.36645E-02  6.52135E-02  6.68002E-02
#           6.84255E-02  7.00904E-02  7.17957E-02  7.35426E-02  7.53319E-02
#           7.71648E-02  7.90423E-02  8.09655E-02  8.29354E-02  8.49533E-02
#           8.70203E-02  8.91376E-02  9.13064E-02  9.35279E-02  9.58035E-02
#           9.81345E-02  1.00522E-01  1.02968E-01  1.05473E-01  1.08040E-01
#           1.10668E-01  1.13361E-01  1.16119E-01  1.18944E-01  1.21838E-01
#           1.24803E-01  1.27839E-01  1.30950E-01  1.34136E-01  1.37399E-01
#           1.40742E-01  1.44167E-01  1.47675E-01  1.51268E-01  1.54948E-01
#           1.58718E-01  1.62580E-01  1.66535E-01  1.70587E-01  1.74738E-01
#           1.78989E-01  1.83344E-01  1.87805E-01  1.92375E-01  1.97055E-01
#           2.01850E-01  2.06761E-01  2.11792E-01  2.16945E-01  2.22223E-01
#           2.27630E-01  2.33169E-01  2.38842E-01  2.44653E-01  2.50605E-01
#           2.56703E-01  2.62949E-01  2.69346E-01  2.75900E-01  2.82613E-01
#           2.89489E-01  2.96532E-01  3.03747E-01  3.11138E-01  3.18708E-01
#           3.26462E-01  3.34405E-01  3.42542E-01  3.50876E-01  3.59413E-01
#           3.68158E-01  3.77116E-01  3.86291E-01  3.95690E-01  4.05317E-01
#           4.15179E-01  4.25281E-01  4.35628E-01  4.46227E-01  4.57084E-01
#           4.68205E-01  4.79597E-01  4.91266E-01  5.03219E-01  5.15463E-01
#           5.28005E-01  5.40851E-01  5.54011E-01  5.67490E-01  5.81298E-01
#           5.95441E-01  6.09929E-01  6.24769E-01  6.39970E-01  6.55541E-01
#           6.71491E-01  6.87828E-01  7.04564E-01  7.21706E-01  7.39266E-01
#           7.57253E-01  7.75678E-01  7.94551E-01  8.13883E-01  8.33685E-01
#           8.53969E-01  8.74747E-01  8.96030E-01  9.17831E-01  9.40163E-01
#           9.63038E-01  9.86469E-01  1.01047E+00  1.03506E+00  1.06024E+00
#           1.08604E+00  1.11246E+00  1.13953E+00  1.16725E+00  1.19565E+00
#           1.22474E+00  1.25454E+00  1.28507E+00  1.31633E+00  1.34836E+00
#           1.38117E+00  1.41477E+00  1.44920E+00  1.48446E+00  1.52057E+00
#           1.55757E+00  1.59547E+00  1.63429E+00  1.67405E+00  1.71478E+00
#           1.75650E+00  1.79924E+00  1.84302E+00  1.88786E+00  1.93379E+00
#           1.98084E+00  2.02904E+00  2.07841E+00  2.12898E+00  2.18078E+00
#           2.23384E+00  2.28819E+00  2.34386E+00  2.40089E+00  2.45930E+00
#           2.51914E+00  2.58043E+00  2.64322E+00  2.70753E+00  2.77341E+00
#           2.84088E+00  2.91001E+00  2.98081E+00  3.05333E+00  3.12762E+00
#           3.20372E+00  3.28167E+00  3.36152E+00  3.44330E+00  3.52708E+00
#           3.61290E+00  3.70080E+00  3.79085E+00  3.88308E+00  3.97756E+00
#           4.07434E+00  4.17347E+00  4.27501E+00  4.37903E+00  4.48557E+00
#           4.59471E+00  4.70650E+00  4.82102E+00  4.93832E+00  5.05847E+00
#           5.18155E+00  5.30762E+00  5.43676E+00  5.56904E+00  5.70453E+00
#           5.84333E+00  5.98550E+00  6.13114E+00  6.28031E+00  6.43312E+00
#           6.58964E+00  6.74997E+00  6.91420E+00  7.08243E+00  7.25475E+00
#           7.43126E+00  7.61207E+00  7.79728E+00  7.98700E+00  8.18133E+00
#           8.38038E+00  8.58428E+00  8.79315E+00  9.00709E+00  9.22624E+00
#           9.45072E+00  9.68067E+00  9.91620E+00  1.01575E+01  1.04046E+01
#           1.06578E+01  1.09171E+01  1.11827E+01  1.14548E+01  1.17335E+01
#           1.20190E+01  1.23114E+01  1.26109E+01  1.29178E+01  1.32321E+01
#           1.35540E+01  1.38838E+01  1.42216E+01  1.45676E+01  1.49221E+01
#           1.52851E+01  1.56570E+01  1.60380E+01  1.64282E+01  1.68279E+01
#           1.72374E+01  1.76568E+01  1.80864E+01  1.85264E+01  1.89772E+01
#           1.94389E+01  1.99119E+01  2.03963E+01  2.08926E+01  2.14009E+01
#           2.19216E+01  2.24550E+01  2.30014E+01  2.35610E+01  2.41343E+01
#           2.47215E+01  2.53230E+01  2.59391E+01  2.65702E+01  2.72167E+01
#           2.78789E+01  2.85572E+01  2.92520E+01  2.99637E+01  3.06928E+01
#           3.14396E+01  3.22045E+01  3.29881E+01  3.37907E+01  3.46128E+01
#           3.54550E+01  3.63177E+01  3.72013E+01  3.81064E+01  3.90336E+01
#           3.99833E+01  4.09561E+01  4.19526E+01  4.29734E+01  4.40189E+01
#           4.50900E+01  4.61870E+01  4.73108E+01  4.84619E+01  4.96410E+01
#           5.08488E+01  5.20860E+01  5.33533E+01  5.46514E+01  5.59812E+01
#           5.73432E+01  5.87384E+01  6.01676E+01  6.16315E+01  6.31311E+01
#           6.46671E+01  6.62405E+01  6.78522E+01  6.95031E+01  7.11941E+01
#           7.29263E+01  7.47007E+01  7.65182E+01  7.83800E+01  8.02870E+01
#           8.22405E+01  8.42414E+01  8.62911E+01  8.83906E+01  9.05412E+01
#           9.27442E+01  9.50007E+01  9.73122E+01  9.96799E+01  1.02105E+02
#           1.04589E+02  1.07134E+02  1.09741E+02  1.12411E+02  1.15146E+02
#           1.17948E+02  1.20817E+02  1.23757E+02  1.26768E+02  1.29852E+02
#           1.33012E+02  1.36248E+02  1.39563E+02  1.42959E+02  1.46437E+02
#           1.50000E+02
     unit =    2            # unit is [1/cm^2/(MeV/n)/source]
     axis =  eng            # axis of output
     file = detector-15.out  # file name of output for the above axis
   output = f-curr          # surface crossing forward current spectrum
     part =  neutron  
# kf/name :  2112     
#    used :        main (  %)        temp (  %)       total (  %)
#  memory :         414 (  0)           0 (  0)         414 (  0)

#------------------------------------------------------------------------------
#newpage:
#   no. =    1   reg = 114 - 214

x: Energy [MeV/n]
y:  F-Curr [1/cm^2/(MeV/n)/source]         
p: xlog ylog afac(0.8) form(0.9)
h: n            x            y(neutron ),hh0l   n 
#  e-lower      e-upper      neutron     r.err 
   1.0000E-02   1.0243E-02   5.1375E-04  0.0888
   1.0243E-02   1.0493E-02   5.4335E-04  0.0853
   1.0493E-02   1.0748E-02   4.8611E-04  0.0893
   1.0748E-02   1.1009E-02   4.7074E-04  0.0897
   1.1009E-02   1.1277E-02   6.2794E-04  0.0769
   1.1277E-02   1.1552E-02   4.0978E-04  0.0939
   1.1552E-02   1.1833E-02   4.2913E-04  0.0907
   1.1833E-02   1.2121E-02   4.4440E-04  0.0878
   1.2121E-02   1.2415E-02   4.3117E-04  0.0883
   1.2415E-02   1.2718E-02   4.5947E-04  0.0846
   1.2718E-02   1.3027E-02   4.5814E-04  0.0837
   1.3027E-02   1.3344E-02   4.1104E-04  0.0869
   1.3344E-02   1.3669E-02   4.2467E-04  0.0848
   1.3669E-02   1.4001E-02   4.1487E-04  0.0848
   1.4001E-02   1.4342E-02   3.3406E-04  0.0935
   1.4342E-02   1.4691E-02   4.0342E-04  0.0838
   1.4691E-02   1.5048E-02   3.4637E-04  0.0895
   1.5048E-02   1.5414E-02   3.8733E-04  0.0835
   1.5414E-02   1.5789E-02   3.6059E-04  0.0853
   1.5789E-02   1.6174E-02   3.1032E-04  0.0913
   1.6174E-02   1.6567E-02   3.4740E-04  0.0853
   1.6567E-02   1.6970E-02   3.1049E-04  0.0889
   1.6970E-02   1.7383E-02   3.0600E-04  0.0887
   1.7383E-02   1.7806E-02   2.8737E-04  0.0903
   1.7806E-02   1.8239E-02   3.4305E-04  0.0817
   1.8239E-02   1.8683E-02   2.8120E-04  0.0888
   1.8683E-02   1.9138E-02   2.8142E-04  0.0880
   1.9138E-02   1.9603E-02   2.4895E-04  0.0924
   1.9603E-02   2.0080E-02   2.6465E-04  0.0885
   2.0080E-02   2.0569E-02   2.6244E-04  0.0877
   2.0569E-02   2.1069E-02   2.7880E-04  0.0842
   2.1069E-02   2.1582E-02   2.2374E-04  0.0929
   2.1582E-02   2.2107E-02   2.4388E-04  0.0879
   2.2107E-02   2.2645E-02   2.2643E-04  0.0902
   2.2645E-02   2.3196E-02   2.3107E-04  0.0881
   2.3196E-02   2.3760E-02   2.1171E-04  0.0911
   2.3760E-02   2.4338E-02   2.1093E-04  0.0900
   2.4338E-02   2.4930E-02   2.1531E-04  0.0882
   2.4930E-02   2.5537E-02   2.0180E-04  0.0899
   2.5537E-02   2.6158E-02   2.0296E-04  0.0884
   2.6158E-02   2.6795E-02   1.7637E-04  0.0936
   2.6795E-02   2.7447E-02   1.6174E-04  0.0967
   2.7447E-02   2.8114E-02   1.9129E-04  0.0876
   2.8114E-02   2.8799E-02   2.1044E-04  0.0828
   2.8799E-02   2.9499E-02   1.9167E-04  0.0859
   2.9499E-02   3.0217E-02   1.6892E-04  0.0905
   3.0217E-02   3.0952E-02   1.5485E-04  0.0929
   3.0952E-02   3.1705E-02   1.9479E-04  0.0820
   3.1705E-02   3.2477E-02   1.5094E-04  0.0921
   3.2477E-02   3.3267E-02   1.7856E-04  0.0840
   3.3267E-02   3.4076E-02   1.8130E-04  0.0822
   3.4076E-02   3.4905E-02   1.3443E-04  0.0943
   3.4905E-02   3.5755E-02   1.9706E-04  0.0767
   3.5755E-02   3.6625E-02   1.4692E-04  0.0882
   3.6625E-02   3.7516E-02   1.3843E-04  0.0893
   3.7516E-02   3.8428E-02   1.5887E-04  0.0825
   3.8428E-02   3.9363E-02   1.2576E-04  0.0914
   3.9363E-02   4.0321E-02   1.4269E-04  0.0850
   4.0321E-02   4.1302E-02   1.2574E-04  0.0893
   4.1302E-02   4.2307E-02   1.2746E-04  0.0879
   4.2307E-02   4.3337E-02   1.2020E-04  0.0895
   4.3337E-02   4.4391E-02   1.3186E-04  0.0841
   4.4391E-02   4.5471E-02   1.1765E-04  0.0882
   4.5471E-02   4.6577E-02   1.0332E-04  0.0930
   4.6577E-02   4.7711E-02   1.3392E-04  0.0806
   4.7711E-02   4.8871E-02   9.3588E-05  0.0953
   4.8871E-02   5.0061E-02   1.1323E-04  0.0857
   5.0061E-02   5.1279E-02   1.0001E-04  0.0902
   5.1279E-02   5.2526E-02   1.0698E-04  0.0862
   5.2526E-02   5.3804E-02   8.7084E-05  0.0947
   5.3804E-02   5.5113E-02   9.0814E-05  0.0910
   5.5113E-02   5.6454E-02   9.1553E-05  0.0898
   5.6454E-02   5.7828E-02   8.9301E-05  0.0897
   5.7828E-02   5.9235E-02   9.0594E-05  0.0881
   5.9235E-02   6.0676E-02   9.5044E-05  0.0852
   6.0676E-02   6.2152E-02   8.9533E-05  0.0863
   6.2152E-02   6.3665E-02   8.6417E-05  0.0871
   6.3665E-02   6.5214E-02   8.5322E-05  0.0862
   6.5214E-02   6.6800E-02   7.6938E-05  0.0896
   6.6800E-02   6.8426E-02   8.8844E-05  0.0828
   6.8426E-02   7.0090E-02   8.1545E-05  0.0851
   7.0090E-02   7.1796E-02   7.2717E-05  0.0893
   7.1796E-02   7.3543E-02   6.5805E-05  0.0924
   7.3543E-02   7.5332E-02   7.4612E-05  0.0860
   7.5332E-02   7.7165E-02   6.5131E-05  0.0908
   7.7165E-02   7.9042E-02   6.6362E-05  0.0888
   7.9042E-02   8.0965E-02   7.2262E-05  0.0844
   8.0965E-02   8.2935E-02   7.3160E-05  0.0831
   8.2935E-02   8.4953E-02   5.7596E-05  0.0924
   8.4953E-02   8.7020E-02   5.9532E-05  0.0895
   8.7020E-02   8.9138E-02   5.9056E-05  0.0888
   8.9138E-02   9.1306E-02   5.7144E-05  0.0894
   9.1306E-02   9.3528E-02   6.0967E-05  0.0856
   9.3528E-02   9.5804E-02   6.0130E-05  0.0850
   9.5804E-02   9.8134E-02   5.9319E-05  0.0843
   9.8134E-02   1.0052E-01   4.7784E-05  0.0931
   1.0052E-01   1.0297E-01   5.8667E-05  0.0830
   1.0297E-01   1.0547E-01   5.3474E-05  0.0858
   1.0547E-01   1.0804E-01   4.3421E-05  0.0942
   1.0804E-01   1.1067E-01   5.6629E-05  0.0815
   1.1067E-01   1.1336E-01   4.9392E-05  0.0862
   1.1336E-01   1.1612E-01   6.0641E-05  0.0769
   1.1612E-01   1.1894E-01   4.8994E-05  0.0841
   1.1894E-01   1.2184E-01   4.1320E-05  0.0907
   1.2184E-01   1.2480E-01   4.8158E-05  0.0832
   1.2480E-01   1.2784E-01   4.9271E-05  0.0813
   1.2784E-01   1.3095E-01   3.8145E-05  0.0914
   1.3095E-01   1.3414E-01   4.5246E-05  0.0831
   1.3414E-01   1.3740E-01   4.4192E-05  0.0825
   1.3740E-01   1.4074E-01   4.2777E-05  0.0830
   1.4074E-01   1.4417E-01   3.4143E-05  0.0918
   1.4417E-01   1.4767E-01   4.3692E-05  0.0801
   1.4767E-01   1.5127E-01   3.5931E-05  0.0878
   1.5127E-01   1.5495E-01   4.4473E-05  0.0778
   1.5495E-01   1.5872E-01   3.6430E-05  0.0847
   1.5872E-01   1.6258E-01   3.5574E-05  0.0849
   1.6258E-01   1.6654E-01   3.4192E-05  0.0857
   1.6654E-01   1.7059E-01   3.6592E-05  0.0816
   1.7059E-01   1.7474E-01   3.7208E-05  0.0801
   1.7474E-01   1.7899E-01   3.7259E-05  0.0789
   1.7899E-01   1.8334E-01   3.6037E-05  0.0793
   1.8334E-01   1.8781E-01   3.1799E-05  0.0832
   1.8781E-01   1.9237E-01   3.0568E-05  0.0837
   1.9237E-01   1.9706E-01   3.4504E-05  0.0782
   1.9706E-01   2.0185E-01   3.5202E-05  0.0766
   2.0185E-01   2.0676E-01   3.3261E-05  0.0775
   2.0676E-01   2.1179E-01   3.7076E-05  0.0726
   2.1179E-01   2.1694E-01   3.4852E-05  0.0743
   2.1694E-01   2.2222E-01   3.7367E-05  0.0706
   2.2222E-01   2.2763E-01   4.2095E-05  0.0657
   2.2763E-01   2.3317E-01   3.8493E-05  0.0680
   2.3317E-01   2.3884E-01   3.9091E-05  0.0664
   2.3884E-01   2.4465E-01   4.6572E-05  0.0603
   2.4465E-01   2.5061E-01   5.5019E-05  0.0548
   2.5061E-01   2.5670E-01   4.8722E-05  0.0577
   2.5670E-01   2.6295E-01   5.4670E-05  0.0538
   2.6295E-01   2.6935E-01   5.4796E-05  0.0532
   2.6935E-01   2.7590E-01   5.2064E-05  0.0536
   2.7590E-01   2.8261E-01   5.9382E-05  0.0498
   2.8261E-01   2.8949E-01   5.8017E-05  0.0498
   2.8949E-01   2.9653E-01   6.3910E-05  0.0468
   2.9653E-01   3.0375E-01   6.3452E-05  0.0464
   3.0375E-01   3.1114E-01   6.1938E-05  0.0466
   3.1114E-01   3.1871E-01   7.3766E-05  0.0421
   3.1871E-01   3.2646E-01   7.4882E-05  0.0413
   3.2646E-01   3.3441E-01   7.1006E-05  0.0418
   3.3441E-01   3.4254E-01   8.2300E-05  0.0384
   3.4254E-01   3.5088E-01   7.7736E-05  0.0391
   3.5088E-01   3.5941E-01   8.0669E-05  0.0379
   3.5941E-01   3.6816E-01   8.3332E-05  0.0369
   3.6816E-01   3.7712E-01   9.0106E-05  0.0350
   3.7712E-01   3.8629E-01   9.1441E-05  0.0343
   3.8629E-01   3.9569E-01   9.6672E-05  0.0330
   3.9569E-01   4.0532E-01   9.5211E-05  0.0328
   4.0532E-01   4.1518E-01   1.0219E-04  0.0313
   4.1518E-01   4.2528E-01   1.0335E-04  0.0308
   4.2528E-01   4.3563E-01   1.1102E-04  0.0294
   4.3563E-01   4.4623E-01   1.0684E-04  0.0296
   4.4623E-01   4.5708E-01   1.1338E-04  0.0283
   4.5708E-01   4.6821E-01   1.1579E-04  0.0277
   4.6821E-01   4.7960E-01   1.1533E-04  0.0274
   4.7960E-01   4.9127E-01   1.1937E-04  0.0266
   4.9127E-01   5.0322E-01   1.2305E-04  0.0259
   5.0322E-01   5.1546E-01   1.2227E-04  0.0257
   5.1546E-01   5.2800E-01   1.2876E-04  0.0247
   5.2800E-01   5.4085E-01   1.2940E-04  0.0244
   5.4085E-01   5.5401E-01   1.2743E-04  0.0242
   5.5401E-01   5.6749E-01   1.3244E-04  0.0235
   5.6749E-01   5.8130E-01   1.3816E-04  0.0228
   5.8130E-01   5.9544E-01   1.4170E-04  0.0222
   5.9544E-01   6.0993E-01   1.3774E-04  0.0222
   6.0993E-01   6.2477E-01   1.3619E-04  0.0221
   6.2477E-01   6.3997E-01   1.4400E-04  0.0212
   6.3997E-01   6.5554E-01   1.4592E-04  0.0208
   6.5554E-01   6.7149E-01   1.4548E-04  0.0206
   6.7149E-01   6.8783E-01   1.4566E-04  0.0204
   6.8783E-01   7.0456E-01   1.4739E-04  0.0200
   7.0456E-01   7.2171E-01   1.4519E-04  0.0199
   7.2171E-01   7.3927E-01   1.4720E-04  0.0195
   7.3927E-01   7.5725E-01   1.4741E-04  0.0193
   7.5725E-01   7.7568E-01   1.5156E-04  0.0188
   7.7568E-01   7.9455E-01   1.4875E-04  0.0187
   7.9455E-01   8.1388E-01   1.4363E-04  0.0188
   8.1388E-01   8.3368E-01   1.5005E-04  0.0182
   8.3368E-01   8.5397E-01   1.4974E-04  0.0180
   8.5397E-01   8.7475E-01   1.4828E-04  0.0179
   8.7475E-01   8.9603E-01   1.5078E-04  0.0175
   8.9603E-01   9.1783E-01   1.4602E-04  0.0176
   9.1783E-01   9.4016E-01   1.5465E-04  0.0169
   9.4016E-01   9.6304E-01   1.4791E-04  0.0171
   9.6304E-01   9.8647E-01   1.5376E-04  0.0165
   9.8647E-01   1.0105E+00   1.5019E-04  0.0165
   1.0105E+00   1.0351E+00   1.4768E-04  0.0165
   1.0351E+00   1.0602E+00   1.4659E-04  0.0163
   1.0602E+00   1.0860E+00   1.4744E-04  0.0161
   1.0860E+00   1.1125E+00   1.4594E-04  0.0160
   1.1125E+00   1.1395E+00   1.4459E-04  0.0158
   1.1395E+00   1.1673E+00   1.4633E-04  0.0156
   1.1673E+00   1.1957E+00   1.4820E-04  0.0153
   1.1957E+00   1.2247E+00   1.4660E-04  0.0152
   1.2247E+00   1.2545E+00   1.4397E-04  0.0151
   1.2545E+00   1.2851E+00   1.4115E-04  0.0151
   1.2851E+00   1.3163E+00   1.4440E-04  0.0148
   1.3163E+00   1.3484E+00   1.4277E-04  0.0147
   1.3484E+00   1.3812E+00   1.4439E-04  0.0144
   1.3812E+00   1.4148E+00   1.4289E-04  0.0143
   1.4148E+00   1.4492E+00   1.4027E-04  0.0143
   1.4492E+00   1.4845E+00   1.3909E-04  0.0142
   1.4845E+00   1.5206E+00   1.4057E-04  0.0139
   1.5206E+00   1.5576E+00   1.4158E-04  0.0137
   1.5576E+00   1.5955E+00   1.3966E-04  0.0136
   1.5955E+00   1.6343E+00   1.3675E-04  0.0136
   1.6343E+00   1.6741E+00   1.3549E-04  0.0135
   1.6741E+00   1.7148E+00   1.3565E-04  0.0133
   1.7148E+00   1.7565E+00   1.3795E-04  0.0131
   1.7565E+00   1.7992E+00   1.3407E-04  0.0131
   1.7992E+00   1.8430E+00   1.2989E-04  0.0131
   1.8430E+00   1.8879E+00   1.3198E-04  0.0129
   1.8879E+00   1.9338E+00   1.2991E-04  0.0128
   1.9338E+00   1.9808E+00   1.2950E-04  0.0127
   1.9808E+00   2.0290E+00   1.2667E-04  0.0127
   2.0290E+00   2.0784E+00   1.2685E-04  0.0125
   2.0784E+00   2.1290E+00   1.2739E-04  0.0124
   2.1290E+00   2.1808E+00   1.2319E-04  0.0124
   2.1808E+00   2.2338E+00   1.2438E-04  0.0122
   2.2338E+00   2.2882E+00   1.2404E-04  0.0121
   2.2882E+00   2.3439E+00   1.2593E-04  0.0119
   2.3439E+00   2.4009E+00   1.2329E-04  0.0118
   2.4009E+00   2.4593E+00   1.2293E-04  0.0117
   2.4593E+00   2.5191E+00   1.2159E-04  0.0116
   2.5191E+00   2.5804E+00   1.2226E-04  0.0115
   2.5804E+00   2.6432E+00   1.2025E-04  0.0114
   2.6432E+00   2.7075E+00   1.1931E-04  0.0113
   2.7075E+00   2.7734E+00   1.2048E-04  0.0111
   2.7734E+00   2.8409E+00   1.1872E-04  0.0111
   2.8409E+00   2.9100E+00   1.1898E-04  0.0110
   2.9100E+00   2.9808E+00   1.1994E-04  0.0108
   2.9808E+00   3.0533E+00   1.1843E-04  0.0107
   3.0533E+00   3.1276E+00   1.1789E-04  0.0106
   3.1276E+00   3.2037E+00   1.1582E-04  0.0106
   3.2037E+00   3.2817E+00   1.1587E-04  0.0105
   3.2817E+00   3.3615E+00   1.1382E-04  0.0104
   3.3615E+00   3.4433E+00   1.1326E-04  0.0103
   3.4433E+00   3.5271E+00   1.1300E-04  0.0102
   3.5271E+00   3.6129E+00   1.1155E-04  0.0102
   3.6129E+00   3.7008E+00   1.1022E-04  0.0101
   3.7008E+00   3.7908E+00   1.0741E-04  0.0101
   3.7908E+00   3.8831E+00   1.0846E-04  0.0099
   3.8831E+00   3.9776E+00   1.0538E-04  0.0100
   3.9776E+00   4.0743E+00   1.0201E-04  0.0100
   4.0743E+00   4.1735E+00   1.0167E-04  0.0099
   4.1735E+00   4.2750E+00   9.8085E-05  0.0100
   4.2750E+00   4.3790E+00   9.2687E-05  0.0101
   4.3790E+00   4.4856E+00   8.9718E-05  0.0102
   4.4856E+00   4.5947E+00   8.4664E-05  0.0104
   4.5947E+00   4.7065E+00   8.0157E-05  0.0105
   4.7065E+00   4.8210E+00   7.3335E-05  0.0109
   4.8210E+00   4.9383E+00   6.5761E-05  0.0113
   4.9383E+00   5.0585E+00   5.9344E-05  0.0118
   5.0585E+00   5.1815E+00   5.2050E-05  0.0124
   5.1815E+00   5.3076E+00   4.8901E-05  0.0127
   5.3076E+00   5.4368E+00   4.4986E-05  0.0131
   5.4368E+00   5.5690E+00   4.2196E-05  0.0133
   5.5690E+00   5.7045E+00   4.1039E-05  0.0134
   5.7045E+00   5.8433E+00   3.8951E-05  0.0135
   5.8433E+00   5.9855E+00   3.7065E-05  0.0137
   5.9855E+00   6.1311E+00   3.5863E-05  0.0138
   6.1311E+00   6.2803E+00   3.4264E-05  0.0139
   6.2803E+00   6.4331E+00   3.2872E-05  0.0140
   6.4331E+00   6.5896E+00   3.1801E-05  0.0141
   6.5896E+00   6.7500E+00   3.0598E-05  0.0142
   6.7500E+00   6.9142E+00   2.9362E-05  0.0144
   6.9142E+00   7.0824E+00   2.7677E-05  0.0146
   7.0824E+00   7.2548E+00   2.7541E-05  0.0145
   7.2548E+00   7.4313E+00   2.6561E-05  0.0146
   7.4313E+00   7.6121E+00   2.5792E-05  0.0146
   7.6121E+00   7.7973E+00   2.4611E-05  0.0148
   7.7973E+00   7.9870E+00   2.4218E-05  0.0147
   7.9870E+00   8.1813E+00   2.2843E-05  0.0150
   8.1813E+00   8.3804E+00   2.2813E-05  0.0148
   8.3804E+00   8.5843E+00   2.1441E-05  0.0151
   8.5843E+00   8.7931E+00   2.0503E-05  0.0152
   8.7931E+00   9.0071E+00   2.0293E-05  0.0151
   9.0071E+00   9.2262E+00   1.9634E-05  0.0152
   9.2262E+00   9.4507E+00   1.9250E-05  0.0152
   9.4507E+00   9.6807E+00   1.8405E-05  0.0153
   9.6807E+00   9.9162E+00   1.7849E-05  0.0154
   9.9162E+00   1.0157E+01   1.7869E-05  0.0152
   1.0157E+01   1.0405E+01   1.8226E-05  0.0149
   1.0405E+01   1.0658E+01   1.7940E-05  0.0148
   1.0658E+01   1.0917E+01   1.7549E-05  0.0148
   1.0917E+01   1.1183E+01   1.7916E-05  0.0145
   1.1183E+01   1.1455E+01   1.8279E-05  0.0142
   1.1455E+01   1.1733E+01   1.7610E-05  0.0143
   1.1733E+01   1.2019E+01   1.6743E-05  0.0144
   1.2019E+01   1.2311E+01   1.6774E-05  0.0143
   1.2311E+01   1.2611E+01   1.5539E-05  0.0146
   1.2611E+01   1.2918E+01   1.4758E-05  0.0148
   1.2918E+01   1.3232E+01   1.4588E-05  0.0148
   1.3232E+01   1.3554E+01   1.4468E-05  0.0146
   1.3554E+01   1.3884E+01   1.3828E-05  0.0148
   1.3884E+01   1.4222E+01   1.2833E-05  0.0152
   1.4222E+01   1.4568E+01   1.1798E-05  0.0156
   1.4568E+01   1.4922E+01   1.1592E-05  0.0156
   1.4922E+01   1.5285E+01   1.0334E-05  0.0163
   1.5285E+01   1.5657E+01   9.9216E-06  0.0165
   1.5657E+01   1.6038E+01   9.0596E-06  0.0170
   1.6038E+01   1.6428E+01   8.5554E-06  0.0173
   1.6428E+01   1.6828E+01   8.2308E-06  0.0174
   1.6828E+01   1.7237E+01   8.0269E-06  0.0174
   1.7237E+01   1.7657E+01   7.3251E-06  0.0180
   1.7657E+01   1.8086E+01   7.3884E-06  0.0177
   1.8086E+01   1.8526E+01   6.8893E-06  0.0182
   1.8526E+01   1.8977E+01   6.7353E-06  0.0181
   1.8977E+01   1.9439E+01   6.5103E-06  0.0182
   1.9439E+01   1.9912E+01   6.2545E-06  0.0184
   1.9912E+01   2.0396E+01   6.3722E-06  0.0180
   2.0396E+01   2.0893E+01   6.2689E-06  0.0179
   2.0893E+01   2.1401E+01   5.7718E-06  0.0185
   2.1401E+01   2.1922E+01   5.2833E-06  0.0191
   2.1922E+01   2.2455E+01   4.5484E-06  0.0203
   2.2455E+01   2.3001E+01   4.0139E-06  0.0214
   2.3001E+01   2.3561E+01   3.1985E-06  0.0236
   2.3561E+01   2.4134E+01   2.4003E-06  0.0270
   2.4134E+01   2.4721E+01   1.6911E-06  0.0317
   2.4721E+01   2.5323E+01   1.2552E-06  0.0364
   2.5323E+01   2.5939E+01   4.4796E-07  0.0602
   2.5939E+01   2.6570E+01   7.7640E-08  0.1429
   2.6570E+01   2.7217E+01   2.7843E-08  0.2357
   2.7217E+01   2.7879E+01   7.5506E-09  0.4472
   2.7879E+01   2.8557E+01   0.0000E+00  0.0000
   2.8557E+01   2.9252E+01   0.0000E+00  0.0000
   2.9252E+01   2.9964E+01   0.0000E+00  0.0000
   2.9964E+01   3.0693E+01   0.0000E+00  0.0000
   3.0693E+01   3.1440E+01   0.0000E+00  0.0000
   3.1440E+01   3.2205E+01   0.0000E+00  0.0000
   3.2205E+01   3.2988E+01   0.0000E+00  0.0000
   3.2988E+01   3.3791E+01   0.0000E+00  0.0000
   3.3791E+01   3.4613E+01   0.0000E+00  0.0000
   3.4613E+01   3.5455E+01   0.0000E+00  0.0000
   3.5455E+01   3.6318E+01   0.0000E+00  0.0000
   3.6318E+01   3.7201E+01   0.0000E+00  0.0000
   3.7201E+01   3.8106E+01   0.0000E+00  0.0000
   3.8106E+01   3.9034E+01   0.0000E+00  0.0000
   3.9034E+01   3.9983E+01   0.0000E+00  0.0000
   3.9983E+01   4.0956E+01   0.0000E+00  0.0000
   4.0956E+01   4.1953E+01   0.0000E+00  0.0000
   4.1953E+01   4.2973E+01   0.0000E+00  0.0000
   4.2973E+01   4.4019E+01   0.0000E+00  0.0000
   4.4019E+01   4.5090E+01   0.0000E+00  0.0000
   4.5090E+01   4.6187E+01   0.0000E+00  0.0000
   4.6187E+01   4.7311E+01   0.0000E+00  0.0000
   4.7311E+01   4.8462E+01   0.0000E+00  0.0000
   4.8462E+01   4.9641E+01   0.0000E+00  0.0000
   4.9641E+01   5.0849E+01   0.0000E+00  0.0000
   5.0849E+01   5.2086E+01   0.0000E+00  0.0000
   5.2086E+01   5.3353E+01   0.0000E+00  0.0000
   5.3353E+01   5.4651E+01   0.0000E+00  0.0000
   5.4651E+01   5.5981E+01   0.0000E+00  0.0000
   5.5981E+01   5.7343E+01   0.0000E+00  0.0000
   5.7343E+01   5.8738E+01   0.0000E+00  0.0000
   5.8738E+01   6.0168E+01   0.0000E+00  0.0000
   6.0168E+01   6.1632E+01   0.0000E+00  0.0000
   6.1632E+01   6.3131E+01   0.0000E+00  0.0000
   6.3131E+01   6.4667E+01   0.0000E+00  0.0000
   6.4667E+01   6.6240E+01   0.0000E+00  0.0000
   6.6240E+01   6.7852E+01   0.0000E+00  0.0000
   6.7852E+01   6.9503E+01   0.0000E+00  0.0000
   6.9503E+01   7.1194E+01   0.0000E+00  0.0000
   7.1194E+01   7.2926E+01   0.0000E+00  0.0000
   7.2926E+01   7.4701E+01   0.0000E+00  0.0000
   7.4701E+01   7.6518E+01   0.0000E+00  0.0000
   7.6518E+01   7.8380E+01   0.0000E+00  0.0000
   7.8380E+01   8.0287E+01   0.0000E+00  0.0000
   8.0287E+01   8.2240E+01   0.0000E+00  0.0000
   8.2240E+01   8.4241E+01   0.0000E+00  0.0000
   8.4241E+01   8.6291E+01   0.0000E+00  0.0000
   8.6291E+01   8.8391E+01   0.0000E+00  0.0000
   8.8391E+01   9.0541E+01   0.0000E+00  0.0000
   9.0541E+01   9.2744E+01   0.0000E+00  0.0000
   9.2744E+01   9.5001E+01   0.0000E+00  0.0000
   9.5001E+01   9.7312E+01   0.0000E+00  0.0000
   9.7312E+01   9.9680E+01   0.0000E+00  0.0000
   9.9680E+01   1.0211E+02   0.0000E+00  0.0000
   1.0211E+02   1.0459E+02   0.0000E+00  0.0000
   1.0459E+02   1.0713E+02   0.0000E+00  0.0000
   1.0713E+02   1.0974E+02   0.0000E+00  0.0000
   1.0974E+02   1.1241E+02   0.0000E+00  0.0000
   1.1241E+02   1.1515E+02   0.0000E+00  0.0000
   1.1515E+02   1.1795E+02   0.0000E+00  0.0000
   1.1795E+02   1.2082E+02   0.0000E+00  0.0000
   1.2082E+02   1.2376E+02   0.0000E+00  0.0000
   1.2376E+02   1.2677E+02   0.0000E+00  0.0000
   1.2677E+02   1.2985E+02   0.0000E+00  0.0000
   1.2985E+02   1.3301E+02   0.0000E+00  0.0000
   1.3301E+02   1.3625E+02   0.0000E+00  0.0000
   1.3625E+02   1.3956E+02   0.0000E+00  0.0000
   1.3956E+02   1.4296E+02   0.0000E+00  0.0000
   1.4296E+02   1.4644E+02   0.0000E+00  0.0000
   1.4644E+02   1.5000E+02   0.0000E+00  0.0000

#   sum over                 5.6695E-06
'no. =    1   reg = 114 - 214'
msuc: {\huge [t-cross] in region mesh}
msdr: {\it plotted by \ANGEL \version}
msdl: {\it calculated by \PHITS  3.26}
wt: s(0.7)
\vspace{-3}
  region surface crossing
  area  &=&   1.0000E+00 [cm^2]
e:
 
# Information for Restart Calculation
# This calculation was newly started
# istdev =  2 # 1:Batch variance, 2:History variance
# resc2  = 1.00000000000000000E+09 # Total source weight or Total source weight / maxcas
# resc3  = 1.00000000000000000E+09 # Total history number or Total batch number
# maxcas =   500000000 # History / Batch, only used for istdev=1
# bitrseed = 1111100110111101100011010100110001111110100101101011111100101100 # bit data of rseed
