[ T-Cross ]
    title = [t-cross] in region mesh
     mesh =  reg            # mesh type is region-wise
      reg =    1            # number of crossing regions
      non     r-from    r-to       area
      1       126       226        1.000000    
   e-type =    3            # e-mesh is log given by emin, emax and ne
     emin =  1.0000000E-02  # minimum value of e-mesh points
     emax =   150.0000      # maximum value of e-mesh points
#    edel =  2.4039514E-02  # mesh width of e-mesh points
       ne =    400          # number of e-mesh points
#    data = ( e(i), i = 1, ne + 1 )
#           1.00000E-02  1.02433E-02  1.04925E-02  1.07478E-02  1.10093E-02
#           1.12772E-02  1.15516E-02  1.18326E-02  1.21205E-02  1.24154E-02
#           1.27175E-02  1.30269E-02  1.33439E-02  1.36686E-02  1.40011E-02
#           1.43418E-02  1.46907E-02  1.50482E-02  1.54143E-02  1.57894E-02
#           1.61735E-02  1.65670E-02  1.69701E-02  1.73830E-02  1.78060E-02
#           1.82392E-02  1.86830E-02  1.91375E-02  1.96032E-02  2.00801E-02
#           2.05687E-02  2.10692E-02  2.15818E-02  2.21069E-02  2.26448E-02
#           2.31957E-02  2.37601E-02  2.43382E-02  2.49304E-02  2.55369E-02
#           2.61583E-02  2.67947E-02  2.74467E-02  2.81145E-02  2.87985E-02
#           2.94992E-02  3.02169E-02  3.09521E-02  3.17052E-02  3.24766E-02
#           3.32668E-02  3.40762E-02  3.49053E-02  3.57546E-02  3.66246E-02
#           3.75157E-02  3.84284E-02  3.93634E-02  4.03212E-02  4.13022E-02
#           4.23071E-02  4.33365E-02  4.43909E-02  4.54710E-02  4.65773E-02
#           4.77106E-02  4.88714E-02  5.00605E-02  5.12785E-02  5.25262E-02
#           5.38042E-02  5.51133E-02  5.64542E-02  5.78278E-02  5.92348E-02
#           6.06760E-02  6.21523E-02  6.36645E-02  6.52135E-02  6.68002E-02
#           6.84255E-02  7.00904E-02  7.17957E-02  7.35426E-02  7.53319E-02
#           7.71648E-02  7.90423E-02  8.09655E-02  8.29354E-02  8.49533E-02
#           8.70203E-02  8.91376E-02  9.13064E-02  9.35279E-02  9.58035E-02
#           9.81345E-02  1.00522E-01  1.02968E-01  1.05473E-01  1.08040E-01
#           1.10668E-01  1.13361E-01  1.16119E-01  1.18944E-01  1.21838E-01
#           1.24803E-01  1.27839E-01  1.30950E-01  1.34136E-01  1.37399E-01
#           1.40742E-01  1.44167E-01  1.47675E-01  1.51268E-01  1.54948E-01
#           1.58718E-01  1.62580E-01  1.66535E-01  1.70587E-01  1.74738E-01
#           1.78989E-01  1.83344E-01  1.87805E-01  1.92375E-01  1.97055E-01
#           2.01850E-01  2.06761E-01  2.11792E-01  2.16945E-01  2.22223E-01
#           2.27630E-01  2.33169E-01  2.38842E-01  2.44653E-01  2.50605E-01
#           2.56703E-01  2.62949E-01  2.69346E-01  2.75900E-01  2.82613E-01
#           2.89489E-01  2.96532E-01  3.03747E-01  3.11138E-01  3.18708E-01
#           3.26462E-01  3.34405E-01  3.42542E-01  3.50876E-01  3.59413E-01
#           3.68158E-01  3.77116E-01  3.86291E-01  3.95690E-01  4.05317E-01
#           4.15179E-01  4.25281E-01  4.35628E-01  4.46227E-01  4.57084E-01
#           4.68205E-01  4.79597E-01  4.91266E-01  5.03219E-01  5.15463E-01
#           5.28005E-01  5.40851E-01  5.54011E-01  5.67490E-01  5.81298E-01
#           5.95441E-01  6.09929E-01  6.24769E-01  6.39970E-01  6.55541E-01
#           6.71491E-01  6.87828E-01  7.04564E-01  7.21706E-01  7.39266E-01
#           7.57253E-01  7.75678E-01  7.94551E-01  8.13883E-01  8.33685E-01
#           8.53969E-01  8.74747E-01  8.96030E-01  9.17831E-01  9.40163E-01
#           9.63038E-01  9.86469E-01  1.01047E+00  1.03506E+00  1.06024E+00
#           1.08604E+00  1.11246E+00  1.13953E+00  1.16725E+00  1.19565E+00
#           1.22474E+00  1.25454E+00  1.28507E+00  1.31633E+00  1.34836E+00
#           1.38117E+00  1.41477E+00  1.44920E+00  1.48446E+00  1.52057E+00
#           1.55757E+00  1.59547E+00  1.63429E+00  1.67405E+00  1.71478E+00
#           1.75650E+00  1.79924E+00  1.84302E+00  1.88786E+00  1.93379E+00
#           1.98084E+00  2.02904E+00  2.07841E+00  2.12898E+00  2.18078E+00
#           2.23384E+00  2.28819E+00  2.34386E+00  2.40089E+00  2.45930E+00
#           2.51914E+00  2.58043E+00  2.64322E+00  2.70753E+00  2.77341E+00
#           2.84088E+00  2.91001E+00  2.98081E+00  3.05333E+00  3.12762E+00
#           3.20372E+00  3.28167E+00  3.36152E+00  3.44330E+00  3.52708E+00
#           3.61290E+00  3.70080E+00  3.79085E+00  3.88308E+00  3.97756E+00
#           4.07434E+00  4.17347E+00  4.27501E+00  4.37903E+00  4.48557E+00
#           4.59471E+00  4.70650E+00  4.82102E+00  4.93832E+00  5.05847E+00
#           5.18155E+00  5.30762E+00  5.43676E+00  5.56904E+00  5.70453E+00
#           5.84333E+00  5.98550E+00  6.13114E+00  6.28031E+00  6.43312E+00
#           6.58964E+00  6.74997E+00  6.91420E+00  7.08243E+00  7.25475E+00
#           7.43126E+00  7.61207E+00  7.79728E+00  7.98700E+00  8.18133E+00
#           8.38038E+00  8.58428E+00  8.79315E+00  9.00709E+00  9.22624E+00
#           9.45072E+00  9.68067E+00  9.91620E+00  1.01575E+01  1.04046E+01
#           1.06578E+01  1.09171E+01  1.11827E+01  1.14548E+01  1.17335E+01
#           1.20190E+01  1.23114E+01  1.26109E+01  1.29178E+01  1.32321E+01
#           1.35540E+01  1.38838E+01  1.42216E+01  1.45676E+01  1.49221E+01
#           1.52851E+01  1.56570E+01  1.60380E+01  1.64282E+01  1.68279E+01
#           1.72374E+01  1.76568E+01  1.80864E+01  1.85264E+01  1.89772E+01
#           1.94389E+01  1.99119E+01  2.03963E+01  2.08926E+01  2.14009E+01
#           2.19216E+01  2.24550E+01  2.30014E+01  2.35610E+01  2.41343E+01
#           2.47215E+01  2.53230E+01  2.59391E+01  2.65702E+01  2.72167E+01
#           2.78789E+01  2.85572E+01  2.92520E+01  2.99637E+01  3.06928E+01
#           3.14396E+01  3.22045E+01  3.29881E+01  3.37907E+01  3.46128E+01
#           3.54550E+01  3.63177E+01  3.72013E+01  3.81064E+01  3.90336E+01
#           3.99833E+01  4.09561E+01  4.19526E+01  4.29734E+01  4.40189E+01
#           4.50900E+01  4.61870E+01  4.73108E+01  4.84619E+01  4.96410E+01
#           5.08488E+01  5.20860E+01  5.33533E+01  5.46514E+01  5.59812E+01
#           5.73432E+01  5.87384E+01  6.01676E+01  6.16315E+01  6.31311E+01
#           6.46671E+01  6.62405E+01  6.78522E+01  6.95031E+01  7.11941E+01
#           7.29263E+01  7.47007E+01  7.65182E+01  7.83800E+01  8.02870E+01
#           8.22405E+01  8.42414E+01  8.62911E+01  8.83906E+01  9.05412E+01
#           9.27442E+01  9.50007E+01  9.73122E+01  9.96799E+01  1.02105E+02
#           1.04589E+02  1.07134E+02  1.09741E+02  1.12411E+02  1.15146E+02
#           1.17948E+02  1.20817E+02  1.23757E+02  1.26768E+02  1.29852E+02
#           1.33012E+02  1.36248E+02  1.39563E+02  1.42959E+02  1.46437E+02
#           1.50000E+02
     unit =    2            # unit is [1/cm^2/(MeV/n)/source]
     axis =  eng            # axis of output
     file = detector-27.out  # file name of output for the above axis
   output = f-curr          # surface crossing forward current spectrum
     part =  neutron  
# kf/name :  2112     
#    used :        main (  %)        temp (  %)       total (  %)
#  memory :         414 (  0)           0 (  0)         414 (  0)

#------------------------------------------------------------------------------
#newpage:
#   no. =    1   reg = 126 - 226

x: Energy [MeV/n]
y:  F-Curr [1/cm^2/(MeV/n)/source]         
p: xlog ylog afac(0.8) form(0.9)
h: n            x            y(neutron ),hh0l   n 
#  e-lower      e-upper      neutron     r.err 
   1.0000E-02   1.0243E-02   6.1650E-05  0.2582
   1.0243E-02   1.0493E-02   8.2254E-05  0.2168
   1.0493E-02   1.0748E-02   7.8913E-05  0.2221
   1.0748E-02   1.1009E-02   6.9335E-05  0.2341
   1.1009E-02   1.1277E-02   4.8532E-05  0.2774
   1.1277E-02   1.1552E-02   6.5602E-05  0.2357
   1.1552E-02   1.1833E-02   8.1833E-05  0.2085
   1.1833E-02   1.2121E-02   8.6836E-05  0.2000
   1.2121E-02   1.2415E-02   5.0864E-05  0.2582
   1.2415E-02   1.2718E-02   7.9450E-05  0.2041
   1.2718E-02   1.3027E-02   7.7563E-05  0.2041
   1.3027E-02   1.3344E-02   4.4170E-05  0.2673
   1.3344E-02   1.3669E-02   5.8521E-05  0.2294
   1.3669E-02   1.4001E-02   6.9159E-05  0.2085
   1.4001E-02   1.4342E-02   3.2290E-05  0.3015
   1.4342E-02   1.4691E-02   7.4510E-05  0.1961
   1.4691E-02   1.5048E-02   5.0358E-05  0.2357
   1.5048E-02   1.5414E-02   5.4625E-05  0.2236
   1.5414E-02   1.5789E-02   2.9330E-05  0.3015
   1.5789E-02   1.6174E-02   4.9458E-05  0.2294
   1.6174E-02   1.6567E-02   4.4471E-05  0.2373
   1.6567E-02   1.6970E-02   3.7213E-05  0.2582
   1.6970E-02   1.7383E-02   4.6016E-05  0.2294
   1.7383E-02   1.7806E-02   3.3101E-05  0.2673
   1.7806E-02   1.8239E-02   6.9247E-05  0.1826
   1.8239E-02   1.8683E-02   4.5068E-05  0.2236
   1.8683E-02   1.9138E-02   4.3997E-05  0.2236
   1.9138E-02   1.9603E-02   4.7248E-05  0.2132
   1.9603E-02   2.0080E-02   4.6125E-05  0.2132
   2.0080E-02   2.0569E-02   2.6609E-05  0.2774
   2.0569E-02   2.1069E-02   3.3969E-05  0.2425
   2.1069E-02   2.1582E-02   3.9015E-05  0.2236
   2.1582E-02   2.2107E-02   3.9992E-05  0.2182
   2.2107E-02   2.2645E-02   3.5324E-05  0.2294
   2.2645E-02   2.3196E-02   3.0855E-05  0.2425
   2.3196E-02   2.3760E-02   3.5438E-05  0.2236
   2.3760E-02   2.4338E-02   3.1136E-05  0.2357
   2.4338E-02   2.4930E-02   4.0529E-05  0.2041
   2.4930E-02   2.5537E-02   3.9566E-05  0.2041
   2.5537E-02   2.6158E-02   2.3337E-05  0.2603
   2.6158E-02   2.6795E-02   2.9853E-05  0.2294
   2.6795E-02   2.7447E-02   2.9144E-05  0.2294
   2.7447E-02   2.8114E-02   3.8934E-05  0.1961
   2.8114E-02   2.8799E-02   3.6547E-05  0.2000
   2.8799E-02   2.9499E-02   3.7820E-05  0.1933
   2.9499E-02   3.0217E-02   3.0652E-05  0.2132
   3.0217E-02   3.0952E-02   3.1515E-05  0.2071
   3.0952E-02   3.1705E-02   3.8508E-05  0.1857
   3.1705E-02   3.2477E-02   4.1482E-05  0.1768
   3.2477E-02   3.3267E-02   3.4169E-05  0.1925
   3.3267E-02   3.4076E-02   2.0385E-05  0.2443
   3.4076E-02   3.4905E-02   3.6184E-05  0.1826
   3.4905E-02   3.5755E-02   3.4147E-05  0.1857
   3.5755E-02   3.6625E-02   1.8569E-05  0.2478
   3.6625E-02   3.7516E-02   2.2444E-05  0.2236
   3.7516E-02   3.8428E-02   3.1771E-05  0.1857
   3.8428E-02   3.9363E-02   2.9947E-05  0.1890
   3.9363E-02   4.0321E-02   3.2368E-05  0.1796
   4.0321E-02   4.1302E-02   2.5483E-05  0.2000
   4.1302E-02   4.2307E-02   2.7365E-05  0.1898
   4.2307E-02   4.3337E-02   3.6579E-05  0.1621
   4.3337E-02   4.4391E-02   3.2245E-05  0.1715
   4.4391E-02   4.5471E-02   3.5183E-05  0.1622
   4.5471E-02   4.6577E-02   2.8472E-05  0.1775
   4.6577E-02   4.7711E-02   2.9119E-05  0.1741
   4.7711E-02   4.8871E-02   2.4121E-05  0.1890
   4.8871E-02   5.0061E-02   2.4389E-05  0.1857
   5.0061E-02   5.1279E-02   2.5041E-05  0.1803
   5.1279E-02   5.2526E-02   2.5648E-05  0.1768
   5.2526E-02   5.3804E-02   3.3646E-05  0.1525
   5.3804E-02   5.5113E-02   2.6974E-05  0.1677
   5.5113E-02   5.6454E-02   1.7898E-05  0.2041
   5.6454E-02   5.7828E-02   2.4516E-05  0.1713
   5.7828E-02   5.9235E-02   2.1322E-05  0.1826
   5.9235E-02   6.0676E-02   2.1509E-05  0.1796
   6.0676E-02   6.2152E-02   2.4385E-05  0.1667
   6.2152E-02   6.3665E-02   2.6121E-05  0.1586
   6.3665E-02   6.5214E-02   2.1950E-05  0.1715
   6.5214E-02   6.6800E-02   2.7829E-05  0.1503
   6.6800E-02   6.8426E-02   2.3380E-05  0.1622
   6.8426E-02   7.0090E-02   1.9822E-05  0.1741
   7.0090E-02   7.1796E-02   1.9644E-05  0.1721
   7.1796E-02   7.3543E-02   2.5761E-05  0.1491
   7.3543E-02   7.5332E-02   2.0957E-05  0.1628
   7.5332E-02   7.7165E-02   2.3460E-05  0.1525
   7.7165E-02   7.9042E-02   2.7697E-05  0.1387
   7.9042E-02   8.0965E-02   1.9499E-05  0.1628
   8.0965E-02   8.2935E-02   1.9290E-05  0.1622
   8.2935E-02   8.4953E-02   1.8088E-05  0.1650
   8.4953E-02   8.7020E-02   2.1771E-05  0.1491
   8.7020E-02   8.9138E-02   1.6590E-05  0.1685
   8.9138E-02   9.1306E-02   1.4294E-05  0.1796
   9.1306E-02   9.3528E-02   1.5755E-05  0.1690
   9.3528E-02   9.5804E-02   1.5036E-05  0.1705
   9.5804E-02   9.8134E-02   1.8089E-05  0.1538
   9.8134E-02   1.0052E-01   1.9056E-05  0.1478
   1.0052E-01   1.0297E-01   1.7990E-05  0.1508
   1.0297E-01   1.0547E-01   9.1806E-06  0.2085
   1.0547E-01   1.0804E-01   1.7146E-05  0.1508
   1.0804E-01   1.1067E-01   1.9459E-05  0.1396
   1.1067E-01   1.1336E-01   1.2441E-05  0.1721
   1.1336E-01   1.1612E-01   1.6367E-05  0.1486
   1.1612E-01   1.1894E-01   1.7697E-05  0.1414
   1.1894E-01   1.2184E-01   1.5377E-05  0.1495
   1.2184E-01   1.2480E-01   1.4168E-05  0.1543
   1.2480E-01   1.2784E-01   9.2210E-06  0.1890
   1.2784E-01   1.3095E-01   1.4146E-05  0.1508
   1.3095E-01   1.3414E-01   1.3496E-05  0.1516
   1.3414E-01   1.3740E-01   1.4185E-05  0.1466
   1.3740E-01   1.4074E-01   1.5892E-05  0.1370
   1.4074E-01   1.4417E-01   1.1973E-05  0.1562
   1.4417E-01   1.4767E-01   1.0589E-05  0.1638
   1.4767E-01   1.5127E-01   1.1550E-05  0.1548
   1.5127E-01   1.5495E-01   1.0359E-05  0.1617
   1.5495E-01   1.5872E-01   1.0610E-05  0.1581
   1.5872E-01   1.6258E-01   1.1965E-05  0.1469
   1.6258E-01   1.6654E-01   1.0112E-05  0.1581
   1.6654E-01   1.7059E-01   1.1388E-05  0.1470
   1.7059E-01   1.7474E-01   9.1555E-06  0.1622
   1.7474E-01   1.7899E-01   8.4676E-06  0.1667
   1.7899E-01   1.8334E-01   1.0103E-05  0.1508
   1.8334E-01   1.8781E-01   8.2943E-06  0.1644
   1.8781E-01   1.9237E-01   1.1599E-05  0.1374
   1.9237E-01   1.9706E-01   1.0362E-05  0.1432
   1.9706E-01   2.0185E-01   7.7172E-06  0.1644
   2.0185E-01   2.0676E-01   8.3789E-06  0.1556
   2.0676E-01   2.1179E-01   8.5750E-06  0.1520
   2.1179E-01   2.1694E-01   7.0185E-06  0.1660
   2.1694E-01   2.2222E-01   7.6975E-06  0.1562
   2.2222E-01   2.2763E-01   6.1033E-06  0.1741
   2.2763E-01   2.3317E-01   9.4190E-06  0.1383
   2.3317E-01   2.3884E-01   8.1368E-06  0.1470
   2.3884E-01   2.4465E-01   7.2274E-06  0.1543
   2.4465E-01   2.5061E-01   7.2237E-06  0.1525
   2.5061E-01   2.5670E-01   7.4503E-06  0.1478
   2.5670E-01   2.6295E-01   7.2849E-06  0.1478
   2.6295E-01   2.6935E-01   8.3881E-06  0.1360
   2.6935E-01   2.7590E-01   8.1637E-06  0.1364
   2.7590E-01   2.8261E-01   7.9698E-06  0.1364
   2.8261E-01   2.8949E-01   7.8778E-06  0.1357
   2.8949E-01   2.9653E-01   7.1697E-06  0.1404
   2.9653E-01   3.0375E-01   7.0883E-06  0.1397
   3.0375E-01   3.1114E-01   8.5246E-06  0.1260
   3.1114E-01   3.1871E-01   8.3221E-06  0.1260
   3.1871E-01   3.2646E-01   7.2862E-06  0.1327
   3.2646E-01   3.3441E-01   7.6143E-06  0.1282
   3.3441E-01   3.4254E-01   7.0671E-06  0.1316
   3.4254E-01   3.5088E-01   7.0444E-06  0.1300
   3.5088E-01   3.5941E-01   6.1496E-06  0.1377
   3.5941E-01   3.6816E-01   6.7088E-06  0.1301
   3.6816E-01   3.7712E-01   6.9773E-06  0.1262
   3.7712E-01   3.8629E-01   7.0841E-06  0.1240
   3.8629E-01   3.9569E-01   6.5040E-06  0.1278
   3.9569E-01   4.0532E-01   5.6090E-06  0.1361
   4.0532E-01   4.1518E-01   5.0377E-06  0.1413
   4.1518E-01   4.2528E-01   4.8507E-06  0.1429
   4.2528E-01   4.3563E-01   6.2481E-06  0.1240
   4.3563E-01   4.4623E-01   7.9529E-06  0.1088
   4.4623E-01   4.5708E-01   7.1084E-06  0.1134
   4.5708E-01   4.6821E-01   5.5151E-06  0.1269
   4.6821E-01   4.7960E-01   5.9612E-06  0.1204
   4.7960E-01   4.9127E-01   5.9391E-06  0.1199
   4.9127E-01   5.0322E-01   5.3653E-06  0.1248
   5.0322E-01   5.1546E-01   6.1528E-06  0.1150
   5.1546E-01   5.2800E-01   6.4314E-06  0.1107
   5.2800E-01   5.4085E-01   5.9669E-06  0.1139
   5.4085E-01   5.5401E-01   6.6493E-06  0.1068
   5.5401E-01   5.6749E-01   5.3521E-06  0.1171
   5.6749E-01   5.8130E-01   4.8646E-06  0.1214
   5.8130E-01   5.9544E-01   4.7349E-06  0.1216
   5.9544E-01   6.0993E-01   5.8863E-06  0.1078
   6.0993E-01   6.2477E-01   5.3871E-06  0.1114
   6.2477E-01   6.3997E-01   5.2382E-06  0.1118
   6.3997E-01   6.5554E-01   5.1168E-06  0.1118
   6.5554E-01   6.7149E-01   4.2738E-06  0.1206
   6.7149E-01   6.8783E-01   4.9861E-06  0.1102
   6.8783E-01   7.0456E-01   4.5569E-06  0.1140
   7.0456E-01   7.2171E-01   4.4334E-06  0.1143
   7.2171E-01   7.3927E-01   4.7213E-06  0.1093
   7.3927E-01   7.5725E-01   5.3174E-06  0.1021
   7.5725E-01   7.7568E-01   4.4903E-06  0.1092
   7.7568E-01   7.9455E-01   4.2199E-06  0.1114
   7.9455E-01   8.1388E-01   4.4625E-06  0.1072
   8.1388E-01   8.3368E-01   3.5315E-06  0.1186
   8.3368E-01   8.5397E-01   3.7277E-06  0.1137
   8.5397E-01   8.7475E-01   3.7905E-06  0.1120
   8.7475E-01   8.9603E-01   5.0698E-06  0.0955
   8.9603E-01   9.1783E-01   4.1172E-06  0.1049
   9.1783E-01   9.4016E-01   4.3786E-06  0.1004
   9.4016E-01   9.6304E-01   4.3473E-06  0.0992
   9.6304E-01   9.8647E-01   3.3174E-06  0.1122
   9.8647E-01   1.0105E+00   4.8383E-06  0.0924
   1.0105E+00   1.0351E+00   4.3364E-06  0.0966
   1.0351E+00   1.0602E+00   5.4523E-06  0.0848
   1.0602E+00   1.0860E+00   3.8886E-06  0.0994
   1.0860E+00   1.1125E+00   4.1433E-06  0.0947
   1.1125E+00   1.1395E+00   3.6996E-06  0.0994
   1.1395E+00   1.1673E+00   4.7797E-06  0.0863
   1.1673E+00   1.1957E+00   3.9219E-06  0.0941
   1.1957E+00   1.2247E+00   3.9393E-06  0.0930
   1.2247E+00   1.2545E+00   3.9859E-06  0.0916
   1.2545E+00   1.2851E+00   3.9571E-06  0.0900
   1.2851E+00   1.3163E+00   4.7794E-06  0.0814
   1.3163E+00   1.3484E+00   4.5505E-06  0.0820
   1.3484E+00   1.3812E+00   4.0311E-06  0.0864
   1.3812E+00   1.4148E+00   3.7810E-06  0.0883
   1.4148E+00   1.4492E+00   3.9858E-06  0.0850
   1.4492E+00   1.4845E+00   3.8818E-06  0.0851
   1.4845E+00   1.5206E+00   4.0324E-06  0.0823
   1.5206E+00   1.5576E+00   3.7829E-06  0.0840
   1.5576E+00   1.5955E+00   3.5689E-06  0.0857
   1.5955E+00   1.6343E+00   3.9154E-06  0.0806
   1.6343E+00   1.6741E+00   4.1821E-06  0.0771
   1.6741E+00   1.7148E+00   3.8410E-06  0.0794
   1.7148E+00   1.7565E+00   3.6777E-06  0.0805
   1.7565E+00   1.7992E+00   3.6111E-06  0.0802
   1.7992E+00   1.8430E+00   4.1060E-06  0.0741
   1.8430E+00   1.8879E+00   3.6925E-06  0.0773
   1.8879E+00   1.9338E+00   3.6982E-06  0.0762
   1.9338E+00   1.9808E+00   4.0562E-06  0.0719
   1.9808E+00   2.0290E+00   3.4373E-06  0.0772
   2.0290E+00   2.0784E+00   3.7113E-06  0.0734
   2.0784E+00   2.1290E+00   4.1569E-06  0.0686
   2.1290E+00   2.1808E+00   3.7507E-06  0.0712
   2.1808E+00   2.2338E+00   3.7371E-06  0.0707
   2.2338E+00   2.2882E+00   3.4341E-06  0.0728
   2.2882E+00   2.3439E+00   3.7415E-06  0.0691
   2.3439E+00   2.4009E+00   3.5298E-06  0.0702
   2.4009E+00   2.4593E+00   3.1723E-06  0.0731
   2.4593E+00   2.5191E+00   3.3597E-06  0.0703
   2.5191E+00   2.5804E+00   3.0185E-06  0.0733
   2.5804E+00   2.6432E+00   3.5211E-06  0.0671
   2.6432E+00   2.7075E+00   3.4801E-06  0.0667
   2.7075E+00   2.7734E+00   3.0429E-06  0.0704
   2.7734E+00   2.8409E+00   2.7379E-06  0.0733
   2.8409E+00   2.9100E+00   2.2324E-06  0.0802
   2.9100E+00   2.9808E+00   2.0037E-06  0.0835
   2.9808E+00   3.0533E+00   1.8395E-06  0.0862
   3.0533E+00   3.1276E+00   1.7698E-06  0.0871
   3.1276E+00   3.2037E+00   1.4997E-06  0.0929
   3.2037E+00   3.2817E+00   1.6813E-06  0.0871
   3.2817E+00   3.3615E+00   1.5224E-06  0.0900
   3.3615E+00   3.4433E+00   1.5023E-06  0.0900
   3.4433E+00   3.5271E+00   1.4732E-06  0.0896
   3.5271E+00   3.6129E+00   1.3918E-06  0.0910
   3.6129E+00   3.7008E+00   1.4579E-06  0.0881
   3.7008E+00   3.7908E+00   1.4510E-06  0.0873
   3.7908E+00   3.8831E+00   1.3718E-06  0.0887
   3.8831E+00   3.9776E+00   1.2392E-06  0.0921
   3.9776E+00   4.0743E+00   1.4755E-06  0.0835
   4.0743E+00   4.1735E+00   9.8585E-07  0.1005
   4.1735E+00   4.2750E+00   9.5744E-07  0.1009
   4.2750E+00   4.3790E+00   1.0751E-06  0.0943
   4.3790E+00   4.4856E+00   1.0603E-06  0.0937
   4.4856E+00   4.5947E+00   8.8652E-07  0.1013
   4.5947E+00   4.7065E+00   9.2260E-07  0.0984
   4.7065E+00   4.8210E+00   9.1952E-07  0.0971
   4.8210E+00   4.9383E+00   8.6517E-07  0.0991
   4.9383E+00   5.0585E+00   8.8138E-07  0.0968
   5.0585E+00   5.1815E+00   8.0299E-07  0.1002
   5.1815E+00   5.3076E+00   7.8818E-07  0.1002
   5.3076E+00   5.4368E+00   6.8534E-07  0.1060
   5.4368E+00   5.5690E+00   5.8569E-07  0.1133
   5.5690E+00   5.7045E+00   6.4576E-07  0.1066
   5.7045E+00   5.8433E+00   7.0231E-07  0.1011
   5.8433E+00   5.9855E+00   5.7780E-07  0.1102
   5.9855E+00   6.1311E+00   6.0537E-07  0.1064
   6.1311E+00   6.2803E+00   5.7081E-07  0.1083
   6.2803E+00   6.4331E+00   6.3608E-07  0.1013
   6.4331E+00   6.5896E+00   6.1649E-07  0.1016
   6.5896E+00   6.7500E+00   5.9470E-07  0.1023
   6.7500E+00   6.9142E+00   6.8196E-07  0.0945
   6.9142E+00   7.0824E+00   5.0249E-07  0.1085
   7.0824E+00   7.2548E+00   5.6290E-07  0.1015
   7.2548E+00   7.4313E+00   5.2458E-07  0.1037
   7.4313E+00   7.6121E+00   5.6640E-07  0.0987
   7.6121E+00   7.7973E+00   5.1384E-07  0.1024
   7.7973E+00   7.9870E+00   4.1115E-07  0.1132
   7.9870E+00   8.1813E+00   4.5903E-07  0.1058
   8.1813E+00   8.3804E+00   4.3706E-07  0.1072
   8.3804E+00   8.5843E+00   4.9043E-07  0.1000
   8.5843E+00   8.7931E+00   4.5963E-07  0.1021
   8.7931E+00   9.0071E+00   4.7751E-07  0.0989
   9.0071E+00   9.2262E+00   3.8786E-07  0.1085
   9.2262E+00   9.4507E+00   4.5438E-07  0.0990
   9.4507E+00   9.6807E+00   3.6966E-07  0.1085
   9.6807E+00   9.9162E+00   3.5238E-07  0.1098
   9.9162E+00   1.0157E+01   3.7717E-07  0.1048
   1.0157E+01   1.0405E+01   3.4394E-07  0.1085
   1.0405E+01   1.0658E+01   5.4781E-07  0.0848
   1.0658E+01   1.0917E+01   4.9747E-07  0.0880
   1.0917E+01   1.1183E+01   4.7812E-07  0.0887
   1.1183E+01   1.1455E+01   3.9742E-07  0.0961
   1.1455E+01   1.1733E+01   3.4445E-07  0.1021
   1.1733E+01   1.2019E+01   3.5785E-07  0.0989
   1.2019E+01   1.2311E+01   3.0776E-07  0.1054
   1.2311E+01   1.2611E+01   2.4203E-07  0.1172
   1.2611E+01   1.2918E+01   2.8191E-07  0.1074
   1.2918E+01   1.3232E+01   3.1180E-07  0.1010
   1.3232E+01   1.3554E+01   3.1153E-07  0.0997
   1.3554E+01   1.3884E+01   2.6007E-07  0.1077
   1.3884E+01   1.4222E+01   2.4472E-07  0.1097
   1.4222E+01   1.4568E+01   2.2253E-07  0.1140
   1.4568E+01   1.4922E+01   1.8057E-07  0.1250
   1.4922E+01   1.5285E+01   2.0657E-07  0.1155
   1.5285E+01   1.5657E+01   1.4654E-07  0.1351
   1.5657E+01   1.6038E+01   1.7063E-07  0.1240
   1.6038E+01   1.6428E+01   1.3838E-07  0.1361
   1.6428E+01   1.6828E+01   1.1008E-07  0.1508
   1.6828E+01   1.7237E+01   1.1479E-07  0.1459
   1.7237E+01   1.7657E+01   7.8684E-08  0.1741
   1.7657E+01   1.8086E+01   6.5176E-08  0.1890
   1.8086E+01   1.8526E+01   1.8180E-08  0.3536
   1.8526E+01   1.8977E+01   1.1092E-08  0.4472
   1.8977E+01   1.9439E+01   1.2995E-08  0.4082
   1.9439E+01   1.9912E+01   0.0000E+00  0.0000
   1.9912E+01   2.0396E+01   0.0000E+00  0.0000
   2.0396E+01   2.0893E+01   0.0000E+00  0.0000
   2.0893E+01   2.1401E+01   0.0000E+00  0.0000
   2.1401E+01   2.1922E+01   0.0000E+00  0.0000
   2.1922E+01   2.2455E+01   0.0000E+00  0.0000
   2.2455E+01   2.3001E+01   0.0000E+00  0.0000
   2.3001E+01   2.3561E+01   0.0000E+00  0.0000
   2.3561E+01   2.4134E+01   0.0000E+00  0.0000
   2.4134E+01   2.4721E+01   0.0000E+00  0.0000
   2.4721E+01   2.5323E+01   0.0000E+00  0.0000
   2.5323E+01   2.5939E+01   0.0000E+00  0.0000
   2.5939E+01   2.6570E+01   0.0000E+00  0.0000
   2.6570E+01   2.7217E+01   0.0000E+00  0.0000
   2.7217E+01   2.7879E+01   0.0000E+00  0.0000
   2.7879E+01   2.8557E+01   0.0000E+00  0.0000
   2.8557E+01   2.9252E+01   0.0000E+00  0.0000
   2.9252E+01   2.9964E+01   0.0000E+00  0.0000
   2.9964E+01   3.0693E+01   0.0000E+00  0.0000
   3.0693E+01   3.1440E+01   0.0000E+00  0.0000
   3.1440E+01   3.2205E+01   0.0000E+00  0.0000
   3.2205E+01   3.2988E+01   0.0000E+00  0.0000
   3.2988E+01   3.3791E+01   0.0000E+00  0.0000
   3.3791E+01   3.4613E+01   0.0000E+00  0.0000
   3.4613E+01   3.5455E+01   0.0000E+00  0.0000
   3.5455E+01   3.6318E+01   0.0000E+00  0.0000
   3.6318E+01   3.7201E+01   0.0000E+00  0.0000
   3.7201E+01   3.8106E+01   0.0000E+00  0.0000
   3.8106E+01   3.9034E+01   0.0000E+00  0.0000
   3.9034E+01   3.9983E+01   0.0000E+00  0.0000
   3.9983E+01   4.0956E+01   0.0000E+00  0.0000
   4.0956E+01   4.1953E+01   0.0000E+00  0.0000
   4.1953E+01   4.2973E+01   0.0000E+00  0.0000
   4.2973E+01   4.4019E+01   0.0000E+00  0.0000
   4.4019E+01   4.5090E+01   0.0000E+00  0.0000
   4.5090E+01   4.6187E+01   0.0000E+00  0.0000
   4.6187E+01   4.7311E+01   0.0000E+00  0.0000
   4.7311E+01   4.8462E+01   0.0000E+00  0.0000
   4.8462E+01   4.9641E+01   0.0000E+00  0.0000
   4.9641E+01   5.0849E+01   0.0000E+00  0.0000
   5.0849E+01   5.2086E+01   0.0000E+00  0.0000
   5.2086E+01   5.3353E+01   0.0000E+00  0.0000
   5.3353E+01   5.4651E+01   0.0000E+00  0.0000
   5.4651E+01   5.5981E+01   0.0000E+00  0.0000
   5.5981E+01   5.7343E+01   0.0000E+00  0.0000
   5.7343E+01   5.8738E+01   0.0000E+00  0.0000
   5.8738E+01   6.0168E+01   0.0000E+00  0.0000
   6.0168E+01   6.1632E+01   0.0000E+00  0.0000
   6.1632E+01   6.3131E+01   0.0000E+00  0.0000
   6.3131E+01   6.4667E+01   0.0000E+00  0.0000
   6.4667E+01   6.6240E+01   0.0000E+00  0.0000
   6.6240E+01   6.7852E+01   0.0000E+00  0.0000
   6.7852E+01   6.9503E+01   0.0000E+00  0.0000
   6.9503E+01   7.1194E+01   0.0000E+00  0.0000
   7.1194E+01   7.2926E+01   0.0000E+00  0.0000
   7.2926E+01   7.4701E+01   0.0000E+00  0.0000
   7.4701E+01   7.6518E+01   0.0000E+00  0.0000
   7.6518E+01   7.8380E+01   0.0000E+00  0.0000
   7.8380E+01   8.0287E+01   0.0000E+00  0.0000
   8.0287E+01   8.2240E+01   0.0000E+00  0.0000
   8.2240E+01   8.4241E+01   0.0000E+00  0.0000
   8.4241E+01   8.6291E+01   0.0000E+00  0.0000
   8.6291E+01   8.8391E+01   0.0000E+00  0.0000
   8.8391E+01   9.0541E+01   0.0000E+00  0.0000
   9.0541E+01   9.2744E+01   0.0000E+00  0.0000
   9.2744E+01   9.5001E+01   0.0000E+00  0.0000
   9.5001E+01   9.7312E+01   0.0000E+00  0.0000
   9.7312E+01   9.9680E+01   0.0000E+00  0.0000
   9.9680E+01   1.0211E+02   0.0000E+00  0.0000
   1.0211E+02   1.0459E+02   0.0000E+00  0.0000
   1.0459E+02   1.0713E+02   0.0000E+00  0.0000
   1.0713E+02   1.0974E+02   0.0000E+00  0.0000
   1.0974E+02   1.1241E+02   0.0000E+00  0.0000
   1.1241E+02   1.1515E+02   0.0000E+00  0.0000
   1.1515E+02   1.1795E+02   0.0000E+00  0.0000
   1.1795E+02   1.2082E+02   0.0000E+00  0.0000
   1.2082E+02   1.2376E+02   0.0000E+00  0.0000
   1.2376E+02   1.2677E+02   0.0000E+00  0.0000
   1.2677E+02   1.2985E+02   0.0000E+00  0.0000
   1.2985E+02   1.3301E+02   0.0000E+00  0.0000
   1.3301E+02   1.3625E+02   0.0000E+00  0.0000
   1.3625E+02   1.3956E+02   0.0000E+00  0.0000
   1.3956E+02   1.4296E+02   0.0000E+00  0.0000
   1.4296E+02   1.4644E+02   0.0000E+00  0.0000
   1.4644E+02   1.5000E+02   0.0000E+00  0.0000

#   sum over                 1.5076E-07
'no. =    1   reg = 126 - 226'
msuc: {\huge [t-cross] in region mesh}
msdr: {\it plotted by \ANGEL \version}
msdl: {\it calculated by \PHITS  3.26}
wt: s(0.7)
\vspace{-3}
  region surface crossing
  area  &=&   1.0000E+00 [cm^2]
e:
 
# Information for Restart Calculation
# This calculation was newly started
# istdev =  2 # 1:Batch variance, 2:History variance
# resc2  = 1.00000000000000000E+09 # Total source weight or Total source weight / maxcas
# resc3  = 1.00000000000000000E+09 # Total history number or Total batch number
# maxcas =   500000000 # History / Batch, only used for istdev=1
# bitrseed = 1111100110111101100011010100110001111110100101101011111100101100 # bit data of rseed
