[ T-Cross ]
    title = [t-cross] in region mesh
     mesh =  reg            # mesh type is region-wise
      reg =    1            # number of crossing regions
      non     r-from    r-to       area
      1       109       209        1.000000    
   e-type =    3            # e-mesh is log given by emin, emax and ne
     emin =  1.0000000E-02  # minimum value of e-mesh points
     emax =   150.0000      # maximum value of e-mesh points
#    edel =  2.4039514E-02  # mesh width of e-mesh points
       ne =    400          # number of e-mesh points
#    data = ( e(i), i = 1, ne + 1 )
#           1.00000E-02  1.02433E-02  1.04925E-02  1.07478E-02  1.10093E-02
#           1.12772E-02  1.15516E-02  1.18326E-02  1.21205E-02  1.24154E-02
#           1.27175E-02  1.30269E-02  1.33439E-02  1.36686E-02  1.40011E-02
#           1.43418E-02  1.46907E-02  1.50482E-02  1.54143E-02  1.57894E-02
#           1.61735E-02  1.65670E-02  1.69701E-02  1.73830E-02  1.78060E-02
#           1.82392E-02  1.86830E-02  1.91375E-02  1.96032E-02  2.00801E-02
#           2.05687E-02  2.10692E-02  2.15818E-02  2.21069E-02  2.26448E-02
#           2.31957E-02  2.37601E-02  2.43382E-02  2.49304E-02  2.55369E-02
#           2.61583E-02  2.67947E-02  2.74467E-02  2.81145E-02  2.87985E-02
#           2.94992E-02  3.02169E-02  3.09521E-02  3.17052E-02  3.24766E-02
#           3.32668E-02  3.40762E-02  3.49053E-02  3.57546E-02  3.66246E-02
#           3.75157E-02  3.84284E-02  3.93634E-02  4.03212E-02  4.13022E-02
#           4.23071E-02  4.33365E-02  4.43909E-02  4.54710E-02  4.65773E-02
#           4.77106E-02  4.88714E-02  5.00605E-02  5.12785E-02  5.25262E-02
#           5.38042E-02  5.51133E-02  5.64542E-02  5.78278E-02  5.92348E-02
#           6.06760E-02  6.21523E-02  6.36645E-02  6.52135E-02  6.68002E-02
#           6.84255E-02  7.00904E-02  7.17957E-02  7.35426E-02  7.53319E-02
#           7.71648E-02  7.90423E-02  8.09655E-02  8.29354E-02  8.49533E-02
#           8.70203E-02  8.91376E-02  9.13064E-02  9.35279E-02  9.58035E-02
#           9.81345E-02  1.00522E-01  1.02968E-01  1.05473E-01  1.08040E-01
#           1.10668E-01  1.13361E-01  1.16119E-01  1.18944E-01  1.21838E-01
#           1.24803E-01  1.27839E-01  1.30950E-01  1.34136E-01  1.37399E-01
#           1.40742E-01  1.44167E-01  1.47675E-01  1.51268E-01  1.54948E-01
#           1.58718E-01  1.62580E-01  1.66535E-01  1.70587E-01  1.74738E-01
#           1.78989E-01  1.83344E-01  1.87805E-01  1.92375E-01  1.97055E-01
#           2.01850E-01  2.06761E-01  2.11792E-01  2.16945E-01  2.22223E-01
#           2.27630E-01  2.33169E-01  2.38842E-01  2.44653E-01  2.50605E-01
#           2.56703E-01  2.62949E-01  2.69346E-01  2.75900E-01  2.82613E-01
#           2.89489E-01  2.96532E-01  3.03747E-01  3.11138E-01  3.18708E-01
#           3.26462E-01  3.34405E-01  3.42542E-01  3.50876E-01  3.59413E-01
#           3.68158E-01  3.77116E-01  3.86291E-01  3.95690E-01  4.05317E-01
#           4.15179E-01  4.25281E-01  4.35628E-01  4.46227E-01  4.57084E-01
#           4.68205E-01  4.79597E-01  4.91266E-01  5.03219E-01  5.15463E-01
#           5.28005E-01  5.40851E-01  5.54011E-01  5.67490E-01  5.81298E-01
#           5.95441E-01  6.09929E-01  6.24769E-01  6.39970E-01  6.55541E-01
#           6.71491E-01  6.87828E-01  7.04564E-01  7.21706E-01  7.39266E-01
#           7.57253E-01  7.75678E-01  7.94551E-01  8.13883E-01  8.33685E-01
#           8.53969E-01  8.74747E-01  8.96030E-01  9.17831E-01  9.40163E-01
#           9.63038E-01  9.86469E-01  1.01047E+00  1.03506E+00  1.06024E+00
#           1.08604E+00  1.11246E+00  1.13953E+00  1.16725E+00  1.19565E+00
#           1.22474E+00  1.25454E+00  1.28507E+00  1.31633E+00  1.34836E+00
#           1.38117E+00  1.41477E+00  1.44920E+00  1.48446E+00  1.52057E+00
#           1.55757E+00  1.59547E+00  1.63429E+00  1.67405E+00  1.71478E+00
#           1.75650E+00  1.79924E+00  1.84302E+00  1.88786E+00  1.93379E+00
#           1.98084E+00  2.02904E+00  2.07841E+00  2.12898E+00  2.18078E+00
#           2.23384E+00  2.28819E+00  2.34386E+00  2.40089E+00  2.45930E+00
#           2.51914E+00  2.58043E+00  2.64322E+00  2.70753E+00  2.77341E+00
#           2.84088E+00  2.91001E+00  2.98081E+00  3.05333E+00  3.12762E+00
#           3.20372E+00  3.28167E+00  3.36152E+00  3.44330E+00  3.52708E+00
#           3.61290E+00  3.70080E+00  3.79085E+00  3.88308E+00  3.97756E+00
#           4.07434E+00  4.17347E+00  4.27501E+00  4.37903E+00  4.48557E+00
#           4.59471E+00  4.70650E+00  4.82102E+00  4.93832E+00  5.05847E+00
#           5.18155E+00  5.30762E+00  5.43676E+00  5.56904E+00  5.70453E+00
#           5.84333E+00  5.98550E+00  6.13114E+00  6.28031E+00  6.43312E+00
#           6.58964E+00  6.74997E+00  6.91420E+00  7.08243E+00  7.25475E+00
#           7.43126E+00  7.61207E+00  7.79728E+00  7.98700E+00  8.18133E+00
#           8.38038E+00  8.58428E+00  8.79315E+00  9.00709E+00  9.22624E+00
#           9.45072E+00  9.68067E+00  9.91620E+00  1.01575E+01  1.04046E+01
#           1.06578E+01  1.09171E+01  1.11827E+01  1.14548E+01  1.17335E+01
#           1.20190E+01  1.23114E+01  1.26109E+01  1.29178E+01  1.32321E+01
#           1.35540E+01  1.38838E+01  1.42216E+01  1.45676E+01  1.49221E+01
#           1.52851E+01  1.56570E+01  1.60380E+01  1.64282E+01  1.68279E+01
#           1.72374E+01  1.76568E+01  1.80864E+01  1.85264E+01  1.89772E+01
#           1.94389E+01  1.99119E+01  2.03963E+01  2.08926E+01  2.14009E+01
#           2.19216E+01  2.24550E+01  2.30014E+01  2.35610E+01  2.41343E+01
#           2.47215E+01  2.53230E+01  2.59391E+01  2.65702E+01  2.72167E+01
#           2.78789E+01  2.85572E+01  2.92520E+01  2.99637E+01  3.06928E+01
#           3.14396E+01  3.22045E+01  3.29881E+01  3.37907E+01  3.46128E+01
#           3.54550E+01  3.63177E+01  3.72013E+01  3.81064E+01  3.90336E+01
#           3.99833E+01  4.09561E+01  4.19526E+01  4.29734E+01  4.40189E+01
#           4.50900E+01  4.61870E+01  4.73108E+01  4.84619E+01  4.96410E+01
#           5.08488E+01  5.20860E+01  5.33533E+01  5.46514E+01  5.59812E+01
#           5.73432E+01  5.87384E+01  6.01676E+01  6.16315E+01  6.31311E+01
#           6.46671E+01  6.62405E+01  6.78522E+01  6.95031E+01  7.11941E+01
#           7.29263E+01  7.47007E+01  7.65182E+01  7.83800E+01  8.02870E+01
#           8.22405E+01  8.42414E+01  8.62911E+01  8.83906E+01  9.05412E+01
#           9.27442E+01  9.50007E+01  9.73122E+01  9.96799E+01  1.02105E+02
#           1.04589E+02  1.07134E+02  1.09741E+02  1.12411E+02  1.15146E+02
#           1.17948E+02  1.20817E+02  1.23757E+02  1.26768E+02  1.29852E+02
#           1.33012E+02  1.36248E+02  1.39563E+02  1.42959E+02  1.46437E+02
#           1.50000E+02
     unit =    2            # unit is [1/cm^2/(MeV/n)/source]
     axis =  eng            # axis of output
     file = detector-10.out  # file name of output for the above axis
   output = f-curr          # surface crossing forward current spectrum
     part =  neutron  
# kf/name :  2112     
#    used :        main (  %)        temp (  %)       total (  %)
#  memory :         414 (  0)           0 (  0)         414 (  0)

#------------------------------------------------------------------------------
#newpage:
#   no. =    1   reg = 109 - 209

x: Energy [MeV/n]
y:  F-Curr [1/cm^2/(MeV/n)/source]         
p: xlog ylog afac(0.8) form(0.9)
h: n            x            y(neutron ),hh0l   n 
#  e-lower      e-upper      neutron     r.err 
   1.0000E-02   1.0243E-02   2.0809E-04  0.1400
   1.0243E-02   1.0493E-02   1.5128E-04  0.1620
   1.0493E-02   1.0748E-02   1.7132E-04  0.1501
   1.0748E-02   1.1009E-02   1.5545E-04  0.1561
   1.1009E-02   1.1277E-02   1.3183E-04  0.1677
   1.1277E-02   1.1552E-02   1.7724E-04  0.1429
   1.1552E-02   1.1833E-02   1.5328E-04  0.1510
   1.1833E-02   1.2121E-02   1.4643E-04  0.1538
   1.2121E-02   1.2415E-02   1.8232E-04  0.1349
   1.2415E-02   1.2718E-02   1.4662E-04  0.1487
   1.2718E-02   1.3027E-02   1.6159E-04  0.1407
   1.3027E-02   1.3344E-02   9.5709E-05  0.1807
   1.3344E-02   1.3669E-02   1.4722E-04  0.1439
   1.3669E-02   1.4001E-02   1.6323E-04  0.1354
   1.4001E-02   1.4342E-02   1.2233E-04  0.1542
   1.4342E-02   1.4691E-02   1.1313E-04  0.1584
   1.4691E-02   1.5048E-02   1.1278E-04  0.1570
   1.5048E-02   1.5414E-02   1.2973E-04  0.1447
   1.5414E-02   1.5789E-02   1.2285E-04  0.1445
   1.5789E-02   1.6174E-02   1.1492E-04  0.1503
   1.6174E-02   1.6567E-02   1.1008E-04  0.1515
   1.6567E-02   1.6970E-02   1.2941E-04  0.1367
   1.6970E-02   1.7383E-02   1.2868E-04  0.1370
   1.7383E-02   1.7806E-02   1.2649E-04  0.1364
   1.7806E-02   1.8239E-02   9.2716E-05  0.1575
   1.8239E-02   1.8683E-02   1.3667E-04  0.1280
   1.8683E-02   1.9138E-02   1.0045E-04  0.1474
   1.9138E-02   1.9603E-02   6.6161E-05  0.1782
   1.9603E-02   2.0080E-02   1.0335E-04  0.1413
   2.0080E-02   2.0569E-02   8.3181E-05  0.1562
   2.0569E-02   2.1069E-02   8.6573E-05  0.1503
   2.1069E-02   2.1582E-02   1.2542E-04  0.1245
   2.1582E-02   2.2107E-02   9.1937E-05  0.1428
   2.2107E-02   2.2645E-02   9.4394E-05  0.1390
   2.2645E-02   2.3196E-02   8.7647E-05  0.1428
   2.3196E-02   2.3760E-02   5.9224E-05  0.1694
   2.3760E-02   2.4338E-02   8.3295E-05  0.1432
   2.4338E-02   2.4930E-02   7.1157E-05  0.1529
   2.4930E-02   2.5537E-02   8.5103E-05  0.1385
   2.5537E-02   2.6158E-02   6.5642E-05  0.1556
   2.6158E-02   2.6795E-02   8.0101E-05  0.1385
   2.6795E-02   2.7447E-02   7.6910E-05  0.1403
   2.7447E-02   2.8114E-02   7.6320E-05  0.1392
   2.8114E-02   2.8799E-02   7.8173E-05  0.1356
   2.8799E-02   2.9499E-02   6.2535E-05  0.1493
   2.9499E-02   3.0217E-02   6.2193E-05  0.1482
   3.0217E-02   3.0952E-02   6.1596E-05  0.1474
   3.0952E-02   3.1705E-02   5.1974E-05  0.1582
   3.1705E-02   3.2477E-02   6.2084E-05  0.1428
   3.2477E-02   3.3267E-02   6.0679E-05  0.1427
   3.3267E-02   3.4076E-02   5.1222E-05  0.1536
   3.4076E-02   3.4905E-02   4.9818E-05  0.1542
   3.4905E-02   3.5755E-02   4.7757E-05  0.1561
   3.5755E-02   3.6625E-02   5.3220E-05  0.1466
   3.6625E-02   3.7516E-02   5.3066E-05  0.1435
   3.7516E-02   3.8428E-02   3.6701E-05  0.1708
   3.8428E-02   3.9363E-02   5.4696E-05  0.1381
   3.9363E-02   4.0321E-02   4.5248E-05  0.1502
   4.0321E-02   4.1302E-02   4.5055E-05  0.1501
   4.1302E-02   4.2307E-02   4.4547E-05  0.1487
   4.2307E-02   4.3337E-02   4.7050E-05  0.1431
   4.3337E-02   4.4391E-02   3.0349E-05  0.1768
   4.4391E-02   4.5471E-02   4.2402E-05  0.1453
   4.5471E-02   4.6577E-02   5.3419E-05  0.1287
   4.6577E-02   4.7711E-02   3.7763E-05  0.1520
   4.7711E-02   4.8871E-02   3.5462E-05  0.1556
   4.8871E-02   5.0061E-02   3.7964E-05  0.1478
   5.0061E-02   5.1279E-02   3.2181E-05  0.1584
   5.1279E-02   5.2526E-02   2.7757E-05  0.1674
   5.2526E-02   5.3804E-02   3.6705E-05  0.1443
   5.3804E-02   5.5113E-02   3.3531E-05  0.1488
   5.5113E-02   5.6454E-02   3.0796E-05  0.1551
   5.6454E-02   5.7828E-02   3.9148E-05  0.1358
   5.7828E-02   5.9235E-02   2.5306E-05  0.1652
   5.9235E-02   6.0676E-02   3.2611E-05  0.1451
   6.0676E-02   6.2152E-02   2.8993E-05  0.1519
   6.2152E-02   6.3665E-02   3.1302E-05  0.1434
   6.3665E-02   6.5214E-02   2.8912E-05  0.1486
   6.5214E-02   6.6800E-02   2.9746E-05  0.1453
   6.6800E-02   6.8426E-02   3.4652E-05  0.1329
   6.8426E-02   7.0090E-02   2.3426E-05  0.1591
   7.0090E-02   7.1796E-02   2.9404E-05  0.1410
   7.1796E-02   7.3543E-02   2.5170E-05  0.1488
   7.3543E-02   7.5332E-02   2.9483E-05  0.1368
   7.5332E-02   7.7165E-02   2.2915E-05  0.1543
   7.7165E-02   7.9042E-02   2.5471E-05  0.1438
   7.9042E-02   8.0965E-02   2.4280E-05  0.1457
   8.0965E-02   8.2935E-02   2.3082E-05  0.1466
   8.2935E-02   8.4953E-02   2.8065E-05  0.1317
   8.4953E-02   8.7020E-02   2.3131E-05  0.1438
   8.7020E-02   8.9138E-02   2.0935E-05  0.1480
   8.9138E-02   9.1306E-02   2.0603E-05  0.1489
   9.1306E-02   9.3528E-02   2.0931E-05  0.1463
   9.3528E-02   9.5804E-02   2.0695E-05  0.1438
   9.5804E-02   9.8134E-02   2.2475E-05  0.1371
   9.8134E-02   1.0052E-01   2.3691E-05  0.1324
   1.0052E-01   1.0297E-01   1.8461E-05  0.1470
   1.0297E-01   1.0547E-01   2.0542E-05  0.1382
   1.0547E-01   1.0804E-01   2.4524E-05  0.1254
   1.0804E-01   1.1067E-01   2.4785E-05  0.1233
   1.1067E-01   1.1336E-01   1.5538E-05  0.1536
   1.1336E-01   1.1612E-01   1.7273E-05  0.1435
   1.1612E-01   1.1894E-01   1.4386E-05  0.1561
   1.1894E-01   1.2184E-01   2.0036E-05  0.1300
   1.2184E-01   1.2480E-01   2.0776E-05  0.1269
   1.2480E-01   1.2784E-01   1.6631E-05  0.1404
   1.2784E-01   1.3095E-01   2.0712E-05  0.1236
   1.3095E-01   1.3414E-01   1.7447E-05  0.1329
   1.3414E-01   1.3740E-01   1.6368E-05  0.1351
   1.3740E-01   1.4074E-01   1.5540E-05  0.1379
   1.4074E-01   1.4417E-01   1.3750E-05  0.1446
   1.4417E-01   1.4767E-01   1.3666E-05  0.1432
   1.4767E-01   1.5127E-01   1.2866E-05  0.1449
   1.5127E-01   1.5495E-01   1.3420E-05  0.1401
   1.5495E-01   1.5872E-01   1.4378E-05  0.1350
   1.5872E-01   1.6258E-01   1.3113E-05  0.1400
   1.6258E-01   1.6654E-01   1.3939E-05  0.1345
   1.6654E-01   1.7059E-01   1.4842E-05  0.1281
   1.7059E-01   1.7474E-01   1.4407E-05  0.1288
   1.7474E-01   1.7899E-01   1.2061E-05  0.1377
   1.7899E-01   1.8334E-01   1.1172E-05  0.1426
   1.8334E-01   1.8781E-01   1.2448E-05  0.1331
   1.8781E-01   1.9237E-01   1.1551E-05  0.1361
   1.9237E-01   1.9706E-01   1.4231E-05  0.1216
   1.9706E-01   2.0185E-01   1.3003E-05  0.1264
   2.0185E-01   2.0676E-01   1.4797E-05  0.1163
   2.0676E-01   2.1179E-01   1.4500E-05  0.1166
   2.1179E-01   2.1694E-01   1.5028E-05  0.1125
   2.1694E-01   2.2222E-01   1.4857E-05  0.1123
   2.2222E-01   2.2763E-01   1.3910E-05  0.1143
   2.2763E-01   2.3317E-01   1.5485E-05  0.1077
   2.3317E-01   2.3884E-01   2.0606E-05  0.0922
   2.3884E-01   2.4465E-01   1.7199E-05  0.0992
   2.4465E-01   2.5061E-01   1.9098E-05  0.0929
   2.5061E-01   2.5670E-01   1.7191E-05  0.0970
   2.5670E-01   2.6295E-01   1.9732E-05  0.0898
   2.6295E-01   2.6935E-01   2.0990E-05  0.0856
   2.6935E-01   2.7590E-01   2.0483E-05  0.0859
   2.7590E-01   2.8261E-01   2.6472E-05  0.0745
   2.8261E-01   2.8949E-01   2.2217E-05  0.0801
   2.8949E-01   2.9653E-01   2.6587E-05  0.0727
   2.9653E-01   3.0375E-01   2.5216E-05  0.0736
   3.0375E-01   3.1114E-01   2.6362E-05  0.0712
   3.1114E-01   3.1871E-01   2.7702E-05  0.0686
   3.1871E-01   3.2646E-01   3.4168E-05  0.0611
   3.2646E-01   3.3441E-01   2.9725E-05  0.0647
   3.3441E-01   3.4254E-01   3.0669E-05  0.0630
   3.4254E-01   3.5088E-01   3.3977E-05  0.0590
   3.5088E-01   3.5941E-01   3.4827E-05  0.0576
   3.5941E-01   3.6816E-01   3.4129E-05  0.0575
   3.6816E-01   3.7712E-01   3.7730E-05  0.0541
   3.7712E-01   3.8629E-01   4.2112E-05  0.0506
   3.8629E-01   3.9569E-01   4.0309E-05  0.0511
   3.9569E-01   4.0532E-01   3.9725E-05  0.0509
   4.0532E-01   4.1518E-01   4.9043E-05  0.0452
   4.1518E-01   4.2528E-01   4.7817E-05  0.0453
   4.2528E-01   4.3563E-01   5.1918E-05  0.0429
   4.3563E-01   4.4623E-01   5.0817E-05  0.0429
   4.4623E-01   4.5708E-01   5.2307E-05  0.0416
   4.5708E-01   4.6821E-01   5.5390E-05  0.0401
   4.6821E-01   4.7960E-01   5.4640E-05  0.0398
   4.7960E-01   4.9127E-01   5.8125E-05  0.0382
   4.9127E-01   5.0322E-01   5.8287E-05  0.0377
   5.0322E-01   5.1546E-01   6.0151E-05  0.0366
   5.1546E-01   5.2800E-01   6.4848E-05  0.0349
   5.2800E-01   5.4085E-01   6.5643E-05  0.0342
   5.4085E-01   5.5401E-01   7.4223E-05  0.0318
   5.5401E-01   5.6749E-01   7.1034E-05  0.0322
   5.6749E-01   5.8130E-01   7.7967E-05  0.0304
   5.8130E-01   5.9544E-01   8.0510E-05  0.0295
   5.9544E-01   6.0993E-01   8.5155E-05  0.0283
   6.0993E-01   6.2477E-01   7.8594E-05  0.0291
   6.2477E-01   6.3997E-01   9.2562E-05  0.0266
   6.3997E-01   6.5554E-01   9.3136E-05  0.0262
   6.5554E-01   6.7149E-01   9.8125E-05  0.0252
   6.7149E-01   6.8783E-01   9.6793E-05  0.0250
   6.8783E-01   7.0456E-01   1.0306E-04  0.0240
   7.0456E-01   7.2171E-01   1.0920E-04  0.0230
   7.2171E-01   7.3927E-01   1.0936E-04  0.0227
   7.3927E-01   7.5725E-01   1.1323E-04  0.0220
   7.5725E-01   7.7568E-01   1.1770E-04  0.0214
   7.7568E-01   7.9455E-01   1.1954E-04  0.0210
   7.9455E-01   8.1388E-01   1.1916E-04  0.0207
   8.1388E-01   8.3368E-01   1.2953E-04  0.0197
   8.3368E-01   8.5397E-01   1.2711E-04  0.0196
   8.5397E-01   8.7475E-01   1.3093E-04  0.0191
   8.7475E-01   8.9603E-01   1.3797E-04  0.0184
   8.9603E-01   9.1783E-01   1.4131E-04  0.0179
   9.1783E-01   9.4016E-01   1.4391E-04  0.0176
   9.4016E-01   9.6304E-01   1.4642E-04  0.0172
   9.6304E-01   9.8647E-01   1.4751E-04  0.0169
   9.8647E-01   1.0105E+00   1.5527E-04  0.0163
   1.0105E+00   1.0351E+00   1.5527E-04  0.0161
   1.0351E+00   1.0602E+00   1.5780E-04  0.0158
   1.0602E+00   1.0860E+00   1.6039E-04  0.0155
   1.0860E+00   1.1125E+00   1.6073E-04  0.0153
   1.1125E+00   1.1395E+00   1.6647E-04  0.0148
   1.1395E+00   1.1673E+00   1.6447E-04  0.0147
   1.1673E+00   1.1957E+00   1.7303E-04  0.0142
   1.1957E+00   1.2247E+00   1.8020E-04  0.0138
   1.2247E+00   1.2545E+00   1.7892E-04  0.0136
   1.2545E+00   1.2851E+00   1.7771E-04  0.0135
   1.2851E+00   1.3163E+00   1.8188E-04  0.0132
   1.3163E+00   1.3484E+00   1.8042E-04  0.0131
   1.3484E+00   1.3812E+00   1.8601E-04  0.0127
   1.3812E+00   1.4148E+00   1.9043E-04  0.0124
   1.4148E+00   1.4492E+00   1.8954E-04  0.0123
   1.4492E+00   1.4845E+00   1.8989E-04  0.0122
   1.4845E+00   1.5206E+00   1.9160E-04  0.0120
   1.5206E+00   1.5576E+00   1.8946E-04  0.0119
   1.5576E+00   1.5955E+00   1.9204E-04  0.0117
   1.5955E+00   1.6343E+00   1.9315E-04  0.0115
   1.6343E+00   1.6741E+00   1.8580E-04  0.0116
   1.6741E+00   1.7148E+00   1.9500E-04  0.0112
   1.7148E+00   1.7565E+00   1.9596E-04  0.0110
   1.7565E+00   1.7992E+00   1.9406E-04  0.0109
   1.7992E+00   1.8430E+00   1.9332E-04  0.0108
   1.8430E+00   1.8879E+00   1.9254E-04  0.0107
   1.8879E+00   1.9338E+00   1.9042E-04  0.0106
   1.9338E+00   1.9808E+00   1.9385E-04  0.0104
   1.9808E+00   2.0290E+00   1.9238E-04  0.0103
   2.0290E+00   2.0784E+00   1.8975E-04  0.0103
   2.0784E+00   2.1290E+00   1.9147E-04  0.0101
   2.1290E+00   2.1808E+00   1.8952E-04  0.0100
   2.1808E+00   2.2338E+00   1.8186E-04  0.0101
   2.2338E+00   2.2882E+00   1.8040E-04  0.0100
   2.2882E+00   2.3439E+00   1.8099E-04  0.0099
   2.3439E+00   2.4009E+00   1.7926E-04  0.0098
   2.4009E+00   2.4593E+00   1.8209E-04  0.0096
   2.4593E+00   2.5191E+00   1.8019E-04  0.0096
   2.5191E+00   2.5804E+00   1.7498E-04  0.0096
   2.5804E+00   2.6432E+00   1.7252E-04  0.0096
   2.6432E+00   2.7075E+00   1.7132E-04  0.0095
   2.7075E+00   2.7734E+00   1.6808E-04  0.0095
   2.7734E+00   2.8409E+00   1.6921E-04  0.0093
   2.8409E+00   2.9100E+00   1.6567E-04  0.0093
   2.9100E+00   2.9808E+00   1.6249E-04  0.0093
   2.9808E+00   3.0533E+00   1.6334E-04  0.0091
   3.0533E+00   3.1276E+00   1.5869E-04  0.0092
   3.1276E+00   3.2037E+00   1.5733E-04  0.0091
   3.2037E+00   3.2817E+00   1.5463E-04  0.0091
   3.2817E+00   3.3615E+00   1.5166E-04  0.0090
   3.3615E+00   3.4433E+00   1.4886E-04  0.0090
   3.4433E+00   3.5271E+00   1.4809E-04  0.0089
   3.5271E+00   3.6129E+00   1.4916E-04  0.0088
   3.6129E+00   3.7008E+00   1.4589E-04  0.0088
   3.7008E+00   3.7908E+00   1.4426E-04  0.0087
   3.7908E+00   3.8831E+00   1.4466E-04  0.0086
   3.8831E+00   3.9776E+00   1.4169E-04  0.0086
   3.9776E+00   4.0743E+00   1.4047E-04  0.0085
   4.0743E+00   4.1735E+00   1.4121E-04  0.0084
   4.1735E+00   4.2750E+00   1.3834E-04  0.0084
   4.2750E+00   4.3790E+00   1.3710E-04  0.0083
   4.3790E+00   4.4856E+00   1.3354E-04  0.0083
   4.4856E+00   4.5947E+00   1.3045E-04  0.0083
   4.5947E+00   4.7065E+00   1.3215E-04  0.0082
   4.7065E+00   4.8210E+00   1.3076E-04  0.0081
   4.8210E+00   4.9383E+00   1.2651E-04  0.0082
   4.9383E+00   5.0585E+00   1.2652E-04  0.0081
   5.0585E+00   5.1815E+00   1.2111E-04  0.0082
   5.1815E+00   5.3076E+00   1.1944E-04  0.0081
   5.3076E+00   5.4368E+00   1.1568E-04  0.0082
   5.4368E+00   5.5690E+00   1.1119E-04  0.0082
   5.5690E+00   5.7045E+00   1.1035E-04  0.0081
   5.7045E+00   5.8433E+00   1.0782E-04  0.0081
   5.8433E+00   5.9855E+00   1.0310E-04  0.0082
   5.9855E+00   6.1311E+00   1.0015E-04  0.0083
   6.1311E+00   6.2803E+00   9.8113E-05  0.0082
   6.2803E+00   6.4331E+00   9.3733E-05  0.0083
   6.4331E+00   6.5896E+00   8.7850E-05  0.0085
   6.5896E+00   6.7500E+00   8.5071E-05  0.0085
   6.7500E+00   6.9142E+00   8.0550E-05  0.0087
   6.9142E+00   7.0824E+00   7.4396E-05  0.0089
   7.0824E+00   7.2548E+00   7.0688E-05  0.0090
   7.2548E+00   7.4313E+00   6.4347E-05  0.0094
   7.4313E+00   7.6121E+00   6.1242E-05  0.0095
   7.6121E+00   7.7973E+00   5.6773E-05  0.0097
   7.7973E+00   7.9870E+00   5.1840E-05  0.0101
   7.9870E+00   8.1813E+00   4.9005E-05  0.0102
   8.1813E+00   8.3804E+00   4.6238E-05  0.0104
   8.3804E+00   8.5843E+00   4.3495E-05  0.0106
   8.5843E+00   8.7931E+00   4.1545E-05  0.0107
   8.7931E+00   9.0071E+00   4.0042E-05  0.0108
   9.0071E+00   9.2262E+00   3.7609E-05  0.0110
   9.2262E+00   9.4507E+00   3.5595E-05  0.0112
   9.4507E+00   9.6807E+00   3.3740E-05  0.0113
   9.6807E+00   9.9162E+00   3.2816E-05  0.0114
   9.9162E+00   1.0157E+01   3.1499E-05  0.0115
   1.0157E+01   1.0405E+01   2.9464E-05  0.0117
   1.0405E+01   1.0658E+01   2.8182E-05  0.0118
   1.0658E+01   1.0917E+01   2.7334E-05  0.0119
   1.0917E+01   1.1183E+01   2.4890E-05  0.0123
   1.1183E+01   1.1455E+01   2.4668E-05  0.0122
   1.1455E+01   1.1733E+01   2.3507E-05  0.0123
   1.1733E+01   1.2019E+01   2.2805E-05  0.0124
   1.2019E+01   1.2311E+01   2.1933E-05  0.0125
   1.2311E+01   1.2611E+01   2.1001E-05  0.0126
   1.2611E+01   1.2918E+01   2.0372E-05  0.0126
   1.2918E+01   1.3232E+01   1.8813E-05  0.0130
   1.3232E+01   1.3554E+01   1.8120E-05  0.0131
   1.3554E+01   1.3884E+01   1.7397E-05  0.0132
   1.3884E+01   1.4222E+01   1.7078E-05  0.0132
   1.4222E+01   1.4568E+01   1.6107E-05  0.0134
   1.4568E+01   1.4922E+01   1.5408E-05  0.0135
   1.4922E+01   1.5285E+01   1.4776E-05  0.0137
   1.5285E+01   1.5657E+01   1.4391E-05  0.0137
   1.5657E+01   1.6038E+01   1.3669E-05  0.0139
   1.6038E+01   1.6428E+01   1.3022E-05  0.0140
   1.6428E+01   1.6828E+01   1.2560E-05  0.0141
   1.6828E+01   1.7237E+01   1.1665E-05  0.0145
   1.7237E+01   1.7657E+01   1.1103E-05  0.0147
   1.7657E+01   1.8086E+01   1.0355E-05  0.0150
   1.8086E+01   1.8526E+01   9.3139E-06  0.0156
   1.8526E+01   1.8977E+01   8.9315E-06  0.0158
   1.8977E+01   1.9439E+01   7.8913E-06  0.0166
   1.9439E+01   1.9912E+01   7.4744E-06  0.0168
   1.9912E+01   2.0396E+01   7.0014E-06  0.0172
   2.0396E+01   2.0893E+01   6.5450E-06  0.0175
   2.0893E+01   2.1401E+01   6.1849E-06  0.0178
   2.1401E+01   2.1922E+01   5.7269E-06  0.0183
   2.1922E+01   2.2455E+01   5.0940E-06  0.0192
   2.2455E+01   2.3001E+01   4.7259E-06  0.0197
   2.3001E+01   2.3561E+01   4.7941E-06  0.0193
   2.3561E+01   2.4134E+01   5.1042E-06  0.0185
   2.4134E+01   2.4721E+01   5.2111E-06  0.0181
   2.4721E+01   2.5323E+01   5.1638E-06  0.0179
   2.5323E+01   2.5939E+01   5.0249E-06  0.0180
   2.5939E+01   2.6570E+01   4.9610E-06  0.0179
   2.6570E+01   2.7217E+01   4.6437E-06  0.0183
   2.7217E+01   2.7879E+01   3.9973E-06  0.0194
   2.7879E+01   2.8557E+01   3.1195E-06  0.0217
   2.8557E+01   2.9252E+01   2.3517E-06  0.0247
   2.9252E+01   2.9964E+01   1.8898E-06  0.0273
   2.9964E+01   3.0693E+01   1.6337E-06  0.0290
   3.0693E+01   3.1440E+01   4.4056E-07  0.0551
   3.1440E+01   3.2205E+01   1.4380E-08  0.3015
   3.2205E+01   3.2988E+01   0.0000E+00  0.0000
   3.2988E+01   3.3791E+01   0.0000E+00  0.0000
   3.3791E+01   3.4613E+01   0.0000E+00  0.0000
   3.4613E+01   3.5455E+01   0.0000E+00  0.0000
   3.5455E+01   3.6318E+01   0.0000E+00  0.0000
   3.6318E+01   3.7201E+01   0.0000E+00  0.0000
   3.7201E+01   3.8106E+01   0.0000E+00  0.0000
   3.8106E+01   3.9034E+01   0.0000E+00  0.0000
   3.9034E+01   3.9983E+01   0.0000E+00  0.0000
   3.9983E+01   4.0956E+01   0.0000E+00  0.0000
   4.0956E+01   4.1953E+01   0.0000E+00  0.0000
   4.1953E+01   4.2973E+01   0.0000E+00  0.0000
   4.2973E+01   4.4019E+01   0.0000E+00  0.0000
   4.4019E+01   4.5090E+01   0.0000E+00  0.0000
   4.5090E+01   4.6187E+01   0.0000E+00  0.0000
   4.6187E+01   4.7311E+01   0.0000E+00  0.0000
   4.7311E+01   4.8462E+01   0.0000E+00  0.0000
   4.8462E+01   4.9641E+01   0.0000E+00  0.0000
   4.9641E+01   5.0849E+01   0.0000E+00  0.0000
   5.0849E+01   5.2086E+01   0.0000E+00  0.0000
   5.2086E+01   5.3353E+01   0.0000E+00  0.0000
   5.3353E+01   5.4651E+01   0.0000E+00  0.0000
   5.4651E+01   5.5981E+01   0.0000E+00  0.0000
   5.5981E+01   5.7343E+01   0.0000E+00  0.0000
   5.7343E+01   5.8738E+01   0.0000E+00  0.0000
   5.8738E+01   6.0168E+01   0.0000E+00  0.0000
   6.0168E+01   6.1632E+01   0.0000E+00  0.0000
   6.1632E+01   6.3131E+01   0.0000E+00  0.0000
   6.3131E+01   6.4667E+01   0.0000E+00  0.0000
   6.4667E+01   6.6240E+01   0.0000E+00  0.0000
   6.6240E+01   6.7852E+01   0.0000E+00  0.0000
   6.7852E+01   6.9503E+01   0.0000E+00  0.0000
   6.9503E+01   7.1194E+01   0.0000E+00  0.0000
   7.1194E+01   7.2926E+01   0.0000E+00  0.0000
   7.2926E+01   7.4701E+01   0.0000E+00  0.0000
   7.4701E+01   7.6518E+01   0.0000E+00  0.0000
   7.6518E+01   7.8380E+01   0.0000E+00  0.0000
   7.8380E+01   8.0287E+01   0.0000E+00  0.0000
   8.0287E+01   8.2240E+01   0.0000E+00  0.0000
   8.2240E+01   8.4241E+01   0.0000E+00  0.0000
   8.4241E+01   8.6291E+01   0.0000E+00  0.0000
   8.6291E+01   8.8391E+01   0.0000E+00  0.0000
   8.8391E+01   9.0541E+01   0.0000E+00  0.0000
   9.0541E+01   9.2744E+01   0.0000E+00  0.0000
   9.2744E+01   9.5001E+01   0.0000E+00  0.0000
   9.5001E+01   9.7312E+01   0.0000E+00  0.0000
   9.7312E+01   9.9680E+01   0.0000E+00  0.0000
   9.9680E+01   1.0211E+02   0.0000E+00  0.0000
   1.0211E+02   1.0459E+02   0.0000E+00  0.0000
   1.0459E+02   1.0713E+02   0.0000E+00  0.0000
   1.0713E+02   1.0974E+02   0.0000E+00  0.0000
   1.0974E+02   1.1241E+02   0.0000E+00  0.0000
   1.1241E+02   1.1515E+02   0.0000E+00  0.0000
   1.1515E+02   1.1795E+02   0.0000E+00  0.0000
   1.1795E+02   1.2082E+02   0.0000E+00  0.0000
   1.2082E+02   1.2376E+02   0.0000E+00  0.0000
   1.2376E+02   1.2677E+02   0.0000E+00  0.0000
   1.2677E+02   1.2985E+02   0.0000E+00  0.0000
   1.2985E+02   1.3301E+02   0.0000E+00  0.0000
   1.3301E+02   1.3625E+02   0.0000E+00  0.0000
   1.3625E+02   1.3956E+02   0.0000E+00  0.0000
   1.3956E+02   1.4296E+02   0.0000E+00  0.0000
   1.4296E+02   1.4644E+02   0.0000E+00  0.0000
   1.4644E+02   1.5000E+02   0.0000E+00  0.0000

#   sum over                 8.4552E-06
'no. =    1   reg = 109 - 209'
msuc: {\huge [t-cross] in region mesh}
msdr: {\it plotted by \ANGEL \version}
msdl: {\it calculated by \PHITS  3.26}
wt: s(0.7)
\vspace{-3}
  region surface crossing
  area  &=&   1.0000E+00 [cm^2]
e:
 
# Information for Restart Calculation
# This calculation was newly started
# istdev =  2 # 1:Batch variance, 2:History variance
# resc2  = 1.00000000000000000E+09 # Total source weight or Total source weight / maxcas
# resc3  = 1.00000000000000000E+09 # Total history number or Total batch number
# maxcas =   500000000 # History / Batch, only used for istdev=1
# bitrseed = 1111100110111101100011010100110001111110100101101011111100101100 # bit data of rseed
