[ T-Cross ]
    title = [t-cross] in region mesh
     mesh =  reg            # mesh type is region-wise
      reg =    1            # number of crossing regions
      non     r-from    r-to       area
      1       113       213        1.000000    
   e-type =    3            # e-mesh is log given by emin, emax and ne
     emin =  1.0000000E-02  # minimum value of e-mesh points
     emax =   150.0000      # maximum value of e-mesh points
#    edel =  2.4039514E-02  # mesh width of e-mesh points
       ne =    400          # number of e-mesh points
#    data = ( e(i), i = 1, ne + 1 )
#           1.00000E-02  1.02433E-02  1.04925E-02  1.07478E-02  1.10093E-02
#           1.12772E-02  1.15516E-02  1.18326E-02  1.21205E-02  1.24154E-02
#           1.27175E-02  1.30269E-02  1.33439E-02  1.36686E-02  1.40011E-02
#           1.43418E-02  1.46907E-02  1.50482E-02  1.54143E-02  1.57894E-02
#           1.61735E-02  1.65670E-02  1.69701E-02  1.73830E-02  1.78060E-02
#           1.82392E-02  1.86830E-02  1.91375E-02  1.96032E-02  2.00801E-02
#           2.05687E-02  2.10692E-02  2.15818E-02  2.21069E-02  2.26448E-02
#           2.31957E-02  2.37601E-02  2.43382E-02  2.49304E-02  2.55369E-02
#           2.61583E-02  2.67947E-02  2.74467E-02  2.81145E-02  2.87985E-02
#           2.94992E-02  3.02169E-02  3.09521E-02  3.17052E-02  3.24766E-02
#           3.32668E-02  3.40762E-02  3.49053E-02  3.57546E-02  3.66246E-02
#           3.75157E-02  3.84284E-02  3.93634E-02  4.03212E-02  4.13022E-02
#           4.23071E-02  4.33365E-02  4.43909E-02  4.54710E-02  4.65773E-02
#           4.77106E-02  4.88714E-02  5.00605E-02  5.12785E-02  5.25262E-02
#           5.38042E-02  5.51133E-02  5.64542E-02  5.78278E-02  5.92348E-02
#           6.06760E-02  6.21523E-02  6.36645E-02  6.52135E-02  6.68002E-02
#           6.84255E-02  7.00904E-02  7.17957E-02  7.35426E-02  7.53319E-02
#           7.71648E-02  7.90423E-02  8.09655E-02  8.29354E-02  8.49533E-02
#           8.70203E-02  8.91376E-02  9.13064E-02  9.35279E-02  9.58035E-02
#           9.81345E-02  1.00522E-01  1.02968E-01  1.05473E-01  1.08040E-01
#           1.10668E-01  1.13361E-01  1.16119E-01  1.18944E-01  1.21838E-01
#           1.24803E-01  1.27839E-01  1.30950E-01  1.34136E-01  1.37399E-01
#           1.40742E-01  1.44167E-01  1.47675E-01  1.51268E-01  1.54948E-01
#           1.58718E-01  1.62580E-01  1.66535E-01  1.70587E-01  1.74738E-01
#           1.78989E-01  1.83344E-01  1.87805E-01  1.92375E-01  1.97055E-01
#           2.01850E-01  2.06761E-01  2.11792E-01  2.16945E-01  2.22223E-01
#           2.27630E-01  2.33169E-01  2.38842E-01  2.44653E-01  2.50605E-01
#           2.56703E-01  2.62949E-01  2.69346E-01  2.75900E-01  2.82613E-01
#           2.89489E-01  2.96532E-01  3.03747E-01  3.11138E-01  3.18708E-01
#           3.26462E-01  3.34405E-01  3.42542E-01  3.50876E-01  3.59413E-01
#           3.68158E-01  3.77116E-01  3.86291E-01  3.95690E-01  4.05317E-01
#           4.15179E-01  4.25281E-01  4.35628E-01  4.46227E-01  4.57084E-01
#           4.68205E-01  4.79597E-01  4.91266E-01  5.03219E-01  5.15463E-01
#           5.28005E-01  5.40851E-01  5.54011E-01  5.67490E-01  5.81298E-01
#           5.95441E-01  6.09929E-01  6.24769E-01  6.39970E-01  6.55541E-01
#           6.71491E-01  6.87828E-01  7.04564E-01  7.21706E-01  7.39266E-01
#           7.57253E-01  7.75678E-01  7.94551E-01  8.13883E-01  8.33685E-01
#           8.53969E-01  8.74747E-01  8.96030E-01  9.17831E-01  9.40163E-01
#           9.63038E-01  9.86469E-01  1.01047E+00  1.03506E+00  1.06024E+00
#           1.08604E+00  1.11246E+00  1.13953E+00  1.16725E+00  1.19565E+00
#           1.22474E+00  1.25454E+00  1.28507E+00  1.31633E+00  1.34836E+00
#           1.38117E+00  1.41477E+00  1.44920E+00  1.48446E+00  1.52057E+00
#           1.55757E+00  1.59547E+00  1.63429E+00  1.67405E+00  1.71478E+00
#           1.75650E+00  1.79924E+00  1.84302E+00  1.88786E+00  1.93379E+00
#           1.98084E+00  2.02904E+00  2.07841E+00  2.12898E+00  2.18078E+00
#           2.23384E+00  2.28819E+00  2.34386E+00  2.40089E+00  2.45930E+00
#           2.51914E+00  2.58043E+00  2.64322E+00  2.70753E+00  2.77341E+00
#           2.84088E+00  2.91001E+00  2.98081E+00  3.05333E+00  3.12762E+00
#           3.20372E+00  3.28167E+00  3.36152E+00  3.44330E+00  3.52708E+00
#           3.61290E+00  3.70080E+00  3.79085E+00  3.88308E+00  3.97756E+00
#           4.07434E+00  4.17347E+00  4.27501E+00  4.37903E+00  4.48557E+00
#           4.59471E+00  4.70650E+00  4.82102E+00  4.93832E+00  5.05847E+00
#           5.18155E+00  5.30762E+00  5.43676E+00  5.56904E+00  5.70453E+00
#           5.84333E+00  5.98550E+00  6.13114E+00  6.28031E+00  6.43312E+00
#           6.58964E+00  6.74997E+00  6.91420E+00  7.08243E+00  7.25475E+00
#           7.43126E+00  7.61207E+00  7.79728E+00  7.98700E+00  8.18133E+00
#           8.38038E+00  8.58428E+00  8.79315E+00  9.00709E+00  9.22624E+00
#           9.45072E+00  9.68067E+00  9.91620E+00  1.01575E+01  1.04046E+01
#           1.06578E+01  1.09171E+01  1.11827E+01  1.14548E+01  1.17335E+01
#           1.20190E+01  1.23114E+01  1.26109E+01  1.29178E+01  1.32321E+01
#           1.35540E+01  1.38838E+01  1.42216E+01  1.45676E+01  1.49221E+01
#           1.52851E+01  1.56570E+01  1.60380E+01  1.64282E+01  1.68279E+01
#           1.72374E+01  1.76568E+01  1.80864E+01  1.85264E+01  1.89772E+01
#           1.94389E+01  1.99119E+01  2.03963E+01  2.08926E+01  2.14009E+01
#           2.19216E+01  2.24550E+01  2.30014E+01  2.35610E+01  2.41343E+01
#           2.47215E+01  2.53230E+01  2.59391E+01  2.65702E+01  2.72167E+01
#           2.78789E+01  2.85572E+01  2.92520E+01  2.99637E+01  3.06928E+01
#           3.14396E+01  3.22045E+01  3.29881E+01  3.37907E+01  3.46128E+01
#           3.54550E+01  3.63177E+01  3.72013E+01  3.81064E+01  3.90336E+01
#           3.99833E+01  4.09561E+01  4.19526E+01  4.29734E+01  4.40189E+01
#           4.50900E+01  4.61870E+01  4.73108E+01  4.84619E+01  4.96410E+01
#           5.08488E+01  5.20860E+01  5.33533E+01  5.46514E+01  5.59812E+01
#           5.73432E+01  5.87384E+01  6.01676E+01  6.16315E+01  6.31311E+01
#           6.46671E+01  6.62405E+01  6.78522E+01  6.95031E+01  7.11941E+01
#           7.29263E+01  7.47007E+01  7.65182E+01  7.83800E+01  8.02870E+01
#           8.22405E+01  8.42414E+01  8.62911E+01  8.83906E+01  9.05412E+01
#           9.27442E+01  9.50007E+01  9.73122E+01  9.96799E+01  1.02105E+02
#           1.04589E+02  1.07134E+02  1.09741E+02  1.12411E+02  1.15146E+02
#           1.17948E+02  1.20817E+02  1.23757E+02  1.26768E+02  1.29852E+02
#           1.33012E+02  1.36248E+02  1.39563E+02  1.42959E+02  1.46437E+02
#           1.50000E+02
     unit =    2            # unit is [1/cm^2/(MeV/n)/source]
     axis =  eng            # axis of output
     file = detector-14.out  # file name of output for the above axis
   output = f-curr          # surface crossing forward current spectrum
     part =  neutron  
# kf/name :  2112     
#    used :        main (  %)        temp (  %)       total (  %)
#  memory :         414 (  0)           0 (  0)         414 (  0)

#------------------------------------------------------------------------------
#newpage:
#   no. =    1   reg = 113 - 213

x: Energy [MeV/n]
y:  F-Curr [1/cm^2/(MeV/n)/source]         
p: xlog ylog afac(0.8) form(0.9)
h: n            x            y(neutron ),hh0l   n 
#  e-lower      e-upper      neutron     r.err 
   1.0000E-02   1.0243E-02   2.3181E-03  0.0421
   1.0243E-02   1.0493E-02   2.3232E-03  0.0416
   1.0493E-02   1.0748E-02   2.1897E-03  0.0423
   1.0748E-02   1.1009E-02   2.3671E-03  0.0402
   1.1009E-02   1.1277E-02   2.3557E-03  0.0398
   1.1277E-02   1.1552E-02   2.3434E-03  0.0394
   1.1552E-02   1.1833E-02   2.2949E-03  0.0394
   1.1833E-02   1.2121E-02   2.2994E-03  0.0389
   1.2121E-02   1.2415E-02   2.3092E-03  0.0383
   1.2415E-02   1.2718E-02   2.2064E-03  0.0387
   1.2718E-02   1.3027E-02   2.2105E-03  0.0382
   1.3027E-02   1.3344E-02   2.1643E-03  0.0382
   1.3344E-02   1.3669E-02   2.0698E-03  0.0386
   1.3669E-02   1.4001E-02   2.0868E-03  0.0380
   1.4001E-02   1.4342E-02   2.0490E-03  0.0379
   1.4342E-02   1.4691E-02   2.0261E-03  0.0376
   1.4691E-02   1.5048E-02   2.0004E-03  0.0374
   1.5048E-02   1.5414E-02   1.8436E-03  0.0385
   1.5414E-02   1.5789E-02   2.0718E-03  0.0359
   1.5789E-02   1.6174E-02   2.0876E-03  0.0353
   1.6174E-02   1.6567E-02   2.1499E-03  0.0344
   1.6567E-02   1.6970E-02   1.9003E-03  0.0361
   1.6970E-02   1.7383E-02   1.9763E-03  0.0350
   1.7383E-02   1.7806E-02   1.9270E-03  0.0350
   1.7806E-02   1.8239E-02   1.8881E-03  0.0350
   1.8239E-02   1.8683E-02   1.9537E-03  0.0340
   1.8683E-02   1.9138E-02   1.7940E-03  0.0350
   1.9138E-02   1.9603E-02   1.8319E-03  0.0342
   1.9603E-02   2.0080E-02   1.7905E-03  0.0342
   2.0080E-02   2.0569E-02   1.6037E-03  0.0357
   2.0569E-02   2.1069E-02   1.8703E-03  0.0327
   2.1069E-02   2.1582E-02   1.6269E-03  0.0346
   2.1582E-02   2.2107E-02   1.7625E-03  0.0329
   2.2107E-02   2.2645E-02   1.6547E-03  0.0335
   2.2645E-02   2.3196E-02   1.7342E-03  0.0323
   2.3196E-02   2.3760E-02   1.5841E-03  0.0334
   2.3760E-02   2.4338E-02   1.5585E-03  0.0333
   2.4338E-02   2.4930E-02   1.4911E-03  0.0337
   2.4930E-02   2.5537E-02   1.6387E-03  0.0317
   2.5537E-02   2.6158E-02   1.6143E-03  0.0316
   2.6158E-02   2.6795E-02   1.6073E-03  0.0313
   2.6795E-02   2.7447E-02   1.5914E-03  0.0310
   2.7447E-02   2.8114E-02   1.5199E-03  0.0314
   2.8114E-02   2.8799E-02   1.5101E-03  0.0311
   2.8799E-02   2.9499E-02   1.3665E-03  0.0323
   2.9499E-02   3.0217E-02   1.4281E-03  0.0312
   3.0217E-02   3.0952E-02   1.4703E-03  0.0304
   3.0952E-02   3.1705E-02   1.3889E-03  0.0309
   3.1705E-02   3.2477E-02   1.3929E-03  0.0305
   3.2477E-02   3.3267E-02   1.3668E-03  0.0304
   3.3267E-02   3.4076E-02   1.3257E-03  0.0305
   3.4076E-02   3.4905E-02   1.3183E-03  0.0302
   3.4905E-02   3.5755E-02   1.3082E-03  0.0300
   3.5755E-02   3.6625E-02   1.3012E-03  0.0297
   3.6625E-02   3.7516E-02   1.3085E-03  0.0293
   3.7516E-02   3.8428E-02   1.2248E-03  0.0299
   3.8428E-02   3.9363E-02   1.2348E-03  0.0294
   3.9363E-02   4.0321E-02   1.2174E-03  0.0293
   4.0321E-02   4.1302E-02   1.2110E-03  0.0290
   4.1302E-02   4.2307E-02   1.1633E-03  0.0292
   4.2307E-02   4.3337E-02   1.1288E-03  0.0293
   4.3337E-02   4.4391E-02   1.1177E-03  0.0291
   4.4391E-02   4.5471E-02   1.1777E-03  0.0280
   4.5471E-02   4.6577E-02   1.0612E-03  0.0292
   4.6577E-02   4.7711E-02   1.0607E-03  0.0288
   4.7711E-02   4.8871E-02   1.0656E-03  0.0284
   4.8871E-02   5.0061E-02   1.0193E-03  0.0287
   5.0061E-02   5.1279E-02   1.0993E-03  0.0273
   5.1279E-02   5.2526E-02   1.0223E-03  0.0280
   5.2526E-02   5.3804E-02   9.7496E-04  0.0283
   5.3804E-02   5.5113E-02   9.3881E-04  0.0285
   5.5113E-02   5.6454E-02   9.9482E-04  0.0274
   5.6454E-02   5.7828E-02   9.3224E-04  0.0279
   5.7828E-02   5.9235E-02   9.4741E-04  0.0274
   5.9235E-02   6.0676E-02   9.0686E-04  0.0277
   6.0676E-02   6.2152E-02   9.3206E-04  0.0270
   6.2152E-02   6.3665E-02   8.8413E-04  0.0273
   6.3665E-02   6.5214E-02   8.8379E-04  0.0270
   6.5214E-02   6.6800E-02   8.7162E-04  0.0269
   6.6800E-02   6.8426E-02   8.5738E-04  0.0268
   6.8426E-02   7.0090E-02   8.6254E-04  0.0264
   7.0090E-02   7.1796E-02   8.2241E-04  0.0267
   7.1796E-02   7.3543E-02   8.2835E-04  0.0263
   7.3543E-02   7.5332E-02   7.8129E-04  0.0267
   7.5332E-02   7.7165E-02   7.3354E-04  0.0273
   7.7165E-02   7.9042E-02   7.5713E-04  0.0265
   7.9042E-02   8.0965E-02   7.3967E-04  0.0265
   8.0965E-02   8.2935E-02   7.0002E-04  0.0269
   8.2935E-02   8.4953E-02   7.2303E-04  0.0262
   8.4953E-02   8.7020E-02   6.9207E-04  0.0264
   8.7020E-02   8.9138E-02   6.7445E-04  0.0265
   8.9138E-02   9.1306E-02   6.6835E-04  0.0263
   9.1306E-02   9.3528E-02   6.4324E-04  0.0265
   9.3528E-02   9.5804E-02   6.6290E-04  0.0257
   9.5804E-02   9.8134E-02   6.2935E-04  0.0261
   9.8134E-02   1.0052E-01   6.2885E-04  0.0258
   1.0052E-01   1.0297E-01   6.1371E-04  0.0258
   1.0297E-01   1.0547E-01   5.9694E-04  0.0259
   1.0547E-01   1.0804E-01   5.7126E-04  0.0261
   1.0804E-01   1.1067E-01   5.5294E-04  0.0262
   1.1067E-01   1.1336E-01   5.4333E-04  0.0261
   1.1336E-01   1.1612E-01   5.6106E-04  0.0254
   1.1612E-01   1.1894E-01   5.1588E-04  0.0262
   1.1894E-01   1.2184E-01   5.3697E-04  0.0254
   1.2184E-01   1.2480E-01   5.1308E-04  0.0256
   1.2480E-01   1.2784E-01   4.9909E-04  0.0257
   1.2784E-01   1.3095E-01   5.0186E-04  0.0253
   1.3095E-01   1.3414E-01   4.7644E-04  0.0257
   1.3414E-01   1.3740E-01   4.7125E-04  0.0255
   1.3740E-01   1.4074E-01   4.5393E-04  0.0257
   1.4074E-01   1.4417E-01   4.5512E-04  0.0253
   1.4417E-01   1.4767E-01   4.4659E-04  0.0253
   1.4767E-01   1.5127E-01   4.5282E-04  0.0248
   1.5127E-01   1.5495E-01   4.2780E-04  0.0252
   1.5495E-01   1.5872E-01   4.1167E-04  0.0254
   1.5872E-01   1.6258E-01   4.1730E-04  0.0249
   1.6258E-01   1.6654E-01   4.0056E-04  0.0251
   1.6654E-01   1.7059E-01   3.9315E-04  0.0251
   1.7059E-01   1.7474E-01   3.7574E-04  0.0253
   1.7474E-01   1.7899E-01   3.6928E-04  0.0252
   1.7899E-01   1.8334E-01   3.5328E-04  0.0255
   1.8334E-01   1.8781E-01   3.4813E-04  0.0254
   1.8781E-01   1.9237E-01   3.4763E-04  0.0251
   1.9237E-01   1.9706E-01   3.3810E-04  0.0251
   1.9706E-01   2.0185E-01   3.4018E-04  0.0248
   2.0185E-01   2.0676E-01   3.3067E-04  0.0248
   2.0676E-01   2.1179E-01   3.2024E-04  0.0249
   2.1179E-01   2.1694E-01   3.1855E-04  0.0247
   2.1694E-01   2.2222E-01   3.0738E-04  0.0248
   2.2222E-01   2.2763E-01   2.8418E-04  0.0255
   2.2763E-01   2.3317E-01   3.0352E-04  0.0244
   2.3317E-01   2.3884E-01   2.8397E-04  0.0249
   2.3884E-01   2.4465E-01   2.6836E-04  0.0253
   2.4465E-01   2.5061E-01   2.7887E-04  0.0245
   2.5061E-01   2.5670E-01   2.8356E-04  0.0241
   2.5670E-01   2.6295E-01   2.6194E-04  0.0247
   2.6295E-01   2.6935E-01   2.5751E-04  0.0246
   2.6935E-01   2.7590E-01   2.5391E-04  0.0245
   2.7590E-01   2.8261E-01   2.3589E-04  0.0251
   2.8261E-01   2.8949E-01   2.4505E-04  0.0244
   2.8949E-01   2.9653E-01   2.4008E-04  0.0243
   2.9653E-01   3.0375E-01   2.3320E-04  0.0244
   3.0375E-01   3.1114E-01   2.2705E-04  0.0244
   3.1114E-01   3.1871E-01   2.2258E-04  0.0244
   3.1871E-01   3.2646E-01   2.1704E-04  0.0244
   3.2646E-01   3.3441E-01   2.1472E-04  0.0242
   3.3441E-01   3.4254E-01   2.0267E-04  0.0246
   3.4254E-01   3.5088E-01   2.0662E-04  0.0241
   3.5088E-01   3.5941E-01   1.9919E-04  0.0242
   3.5941E-01   3.6816E-01   1.9652E-04  0.0241
   3.6816E-01   3.7712E-01   1.9849E-04  0.0237
   3.7712E-01   3.8629E-01   1.8135E-04  0.0245
   3.8629E-01   3.9569E-01   1.8061E-04  0.0243
   3.9569E-01   4.0532E-01   1.7616E-04  0.0243
   4.0532E-01   4.1518E-01   1.6818E-04  0.0245
   4.1518E-01   4.2528E-01   1.6794E-04  0.0243
   4.2528E-01   4.3563E-01   1.6753E-04  0.0240
   4.3563E-01   4.4623E-01   1.6261E-04  0.0241
   4.4623E-01   4.5708E-01   1.5497E-04  0.0244
   4.5708E-01   4.6821E-01   1.6163E-04  0.0236
   4.6821E-01   4.7960E-01   1.5283E-04  0.0240
   4.7960E-01   4.9127E-01   1.5173E-04  0.0238
   4.9127E-01   5.0322E-01   1.4683E-04  0.0239
   5.0322E-01   5.1546E-01   1.4538E-04  0.0237
   5.1546E-01   5.2800E-01   1.3603E-04  0.0242
   5.2800E-01   5.4085E-01   1.4035E-04  0.0235
   5.4085E-01   5.5401E-01   1.3785E-04  0.0235
   5.5401E-01   5.6749E-01   1.3391E-04  0.0235
   5.6749E-01   5.8130E-01   1.3511E-04  0.0232
   5.8130E-01   5.9544E-01   1.2320E-04  0.0240
   5.9544E-01   6.0993E-01   1.2828E-04  0.0232
   6.0993E-01   6.2477E-01   1.2530E-04  0.0232
   6.2477E-01   6.3997E-01   1.2348E-04  0.0231
   6.3997E-01   6.5554E-01   1.1730E-04  0.0234
   6.5554E-01   6.7149E-01   1.1712E-04  0.0231
   6.7149E-01   6.8783E-01   1.1085E-04  0.0235
   6.8783E-01   7.0456E-01   1.1275E-04  0.0230
   7.0456E-01   7.2171E-01   1.0911E-04  0.0231
   7.2171E-01   7.3927E-01   1.0006E-04  0.0239
   7.3927E-01   7.5725E-01   9.9100E-05  0.0237
   7.5725E-01   7.7568E-01   1.0130E-04  0.0231
   7.7568E-01   7.9455E-01   1.0157E-04  0.0228
   7.9455E-01   8.1388E-01   9.6601E-05  0.0231
   8.1388E-01   8.3368E-01   8.9711E-05  0.0237
   8.3368E-01   8.5397E-01   9.1697E-05  0.0232
   8.5397E-01   8.7475E-01   8.8003E-05  0.0234
   8.7475E-01   8.9603E-01   8.5959E-05  0.0234
   8.9603E-01   9.1783E-01   8.3734E-05  0.0234
   9.1783E-01   9.4016E-01   7.8185E-05  0.0239
   9.4016E-01   9.6304E-01   7.8405E-05  0.0236
   9.6304E-01   9.8647E-01   7.7204E-05  0.0235
   9.8647E-01   1.0105E+00   7.4953E-05  0.0236
   1.0105E+00   1.0351E+00   7.9376E-05  0.0226
   1.0351E+00   1.0602E+00   8.1501E-05  0.0221
   1.0602E+00   1.0860E+00   8.3325E-05  0.0216
   1.0860E+00   1.1125E+00   8.3465E-05  0.0213
   1.1125E+00   1.1395E+00   8.6969E-05  0.0206
   1.1395E+00   1.1673E+00   9.1305E-05  0.0199
   1.1673E+00   1.1957E+00   9.8573E-05  0.0189
   1.1957E+00   1.2247E+00   1.0079E-04  0.0185
   1.2247E+00   1.2545E+00   1.0735E-04  0.0177
   1.2545E+00   1.2851E+00   1.0700E-04  0.0175
   1.2851E+00   1.3163E+00   1.1416E-04  0.0167
   1.3163E+00   1.3484E+00   1.2026E-04  0.0161
   1.3484E+00   1.3812E+00   1.2472E-04  0.0156
   1.3812E+00   1.4148E+00   1.3334E-04  0.0149
   1.4148E+00   1.4492E+00   1.3238E-04  0.0148
   1.4492E+00   1.4845E+00   1.4047E-04  0.0142
   1.4845E+00   1.5206E+00   1.4194E-04  0.0140
   1.5206E+00   1.5576E+00   1.4605E-04  0.0136
   1.5576E+00   1.5955E+00   1.5434E-04  0.0131
   1.5955E+00   1.6343E+00   1.5947E-04  0.0127
   1.6343E+00   1.6741E+00   1.6719E-04  0.0123
   1.6741E+00   1.7148E+00   1.7679E-04  0.0118
   1.7148E+00   1.7565E+00   1.8230E-04  0.0115
   1.7565E+00   1.7992E+00   1.9193E-04  0.0110
   1.7992E+00   1.8430E+00   1.9357E-04  0.0109
   1.8430E+00   1.8879E+00   1.9933E-04  0.0106
   1.8879E+00   1.9338E+00   2.1181E-04  0.0101
   1.9338E+00   1.9808E+00   2.1762E-04  0.0099
   1.9808E+00   2.0290E+00   2.2717E-04  0.0096
   2.0290E+00   2.0784E+00   2.3346E-04  0.0093
   2.0784E+00   2.1290E+00   2.4079E-04  0.0091
   2.1290E+00   2.1808E+00   2.4499E-04  0.0089
   2.1808E+00   2.2338E+00   2.5406E-04  0.0086
   2.2338E+00   2.2882E+00   2.6584E-04  0.0083
   2.2882E+00   2.3439E+00   2.7387E-04  0.0081
   2.3439E+00   2.4009E+00   2.8902E-04  0.0078
   2.4009E+00   2.4593E+00   2.9338E-04  0.0076
   2.4593E+00   2.5191E+00   2.9854E-04  0.0075
   2.5191E+00   2.5804E+00   3.0123E-04  0.0074
   2.5804E+00   2.6432E+00   3.0445E-04  0.0072
   2.6432E+00   2.7075E+00   3.1346E-04  0.0070
   2.7075E+00   2.7734E+00   3.1858E-04  0.0069
   2.7734E+00   2.8409E+00   3.3404E-04  0.0067
   2.8409E+00   2.9100E+00   3.4739E-04  0.0065
   2.9100E+00   2.9808E+00   3.5900E-04  0.0063
   2.9808E+00   3.0533E+00   3.5859E-04  0.0062
   3.0533E+00   3.1276E+00   3.5785E-04  0.0061
   3.1276E+00   3.2037E+00   3.6470E-04  0.0060
   3.2037E+00   3.2817E+00   3.6265E-04  0.0059
   3.2817E+00   3.3615E+00   3.6342E-04  0.0059
   3.3615E+00   3.4433E+00   3.6986E-04  0.0058
   3.4433E+00   3.5271E+00   3.7661E-04  0.0056
   3.5271E+00   3.6129E+00   3.8392E-04  0.0055
   3.6129E+00   3.7008E+00   3.8842E-04  0.0054
   3.7008E+00   3.7908E+00   3.8841E-04  0.0053
   3.7908E+00   3.8831E+00   3.8770E-04  0.0053
   3.8831E+00   3.9776E+00   3.8562E-04  0.0052
   3.9776E+00   4.0743E+00   3.9137E-04  0.0051
   4.0743E+00   4.1735E+00   3.8759E-04  0.0051
   4.1735E+00   4.2750E+00   3.8447E-04  0.0051
   4.2750E+00   4.3790E+00   3.7659E-04  0.0051
   4.3790E+00   4.4856E+00   3.7266E-04  0.0050
   4.4856E+00   4.5947E+00   3.6847E-04  0.0050
   4.5947E+00   4.7065E+00   3.6818E-04  0.0049
   4.7065E+00   4.8210E+00   3.6521E-04  0.0049
   4.8210E+00   4.9383E+00   3.6293E-04  0.0048
   4.9383E+00   5.0585E+00   3.5762E-04  0.0048
   5.0585E+00   5.1815E+00   3.5189E-04  0.0048
   5.1815E+00   5.3076E+00   3.4323E-04  0.0048
   5.3076E+00   5.4368E+00   3.3633E-04  0.0048
   5.4368E+00   5.5690E+00   3.2569E-04  0.0048
   5.5690E+00   5.7045E+00   3.1925E-04  0.0048
   5.7045E+00   5.8433E+00   3.1329E-04  0.0048
   5.8433E+00   5.9855E+00   3.0711E-04  0.0048
   5.9855E+00   6.1311E+00   3.0159E-04  0.0048
   6.1311E+00   6.2803E+00   2.9463E-04  0.0048
   6.2803E+00   6.4331E+00   2.8637E-04  0.0048
   6.4331E+00   6.5896E+00   2.7851E-04  0.0048
   6.5896E+00   6.7500E+00   2.7069E-04  0.0048
   6.7500E+00   6.9142E+00   2.6238E-04  0.0048
   6.9142E+00   7.0824E+00   2.5312E-04  0.0048
   7.0824E+00   7.2548E+00   2.4628E-04  0.0049
   7.2548E+00   7.4313E+00   2.3997E-04  0.0049
   7.4313E+00   7.6121E+00   2.3243E-04  0.0049
   7.6121E+00   7.7973E+00   2.2163E-04  0.0049
   7.7973E+00   7.9870E+00   2.1539E-04  0.0049
   7.9870E+00   8.1813E+00   2.0723E-04  0.0050
   8.1813E+00   8.3804E+00   2.0157E-04  0.0050
   8.3804E+00   8.5843E+00   1.9396E-04  0.0050
   8.5843E+00   8.7931E+00   1.8833E-04  0.0050
   8.7931E+00   9.0071E+00   1.8258E-04  0.0051
   9.0071E+00   9.2262E+00   1.7619E-04  0.0051
   9.2262E+00   9.4507E+00   1.6971E-04  0.0051
   9.4507E+00   9.6807E+00   1.6402E-04  0.0051
   9.6807E+00   9.9162E+00   1.5836E-04  0.0052
   9.9162E+00   1.0157E+01   1.5267E-04  0.0052
   1.0157E+01   1.0405E+01   1.4684E-04  0.0052
   1.0405E+01   1.0658E+01   1.4321E-04  0.0052
   1.0658E+01   1.0917E+01   1.3850E-04  0.0053
   1.0917E+01   1.1183E+01   1.3353E-04  0.0053
   1.1183E+01   1.1455E+01   1.2968E-04  0.0053
   1.1455E+01   1.1733E+01   1.2520E-04  0.0054
   1.1733E+01   1.2019E+01   1.2083E-04  0.0054
   1.2019E+01   1.2311E+01   1.1728E-04  0.0054
   1.2311E+01   1.2611E+01   1.1344E-04  0.0054
   1.2611E+01   1.2918E+01   1.0861E-04  0.0055
   1.2918E+01   1.3232E+01   1.0494E-04  0.0055
   1.3232E+01   1.3554E+01   1.0228E-04  0.0055
   1.3554E+01   1.3884E+01   9.9299E-05  0.0055
   1.3884E+01   1.4222E+01   9.6374E-05  0.0055
   1.4222E+01   1.4568E+01   9.2961E-05  0.0056
   1.4568E+01   1.4922E+01   9.0635E-05  0.0056
   1.4922E+01   1.5285E+01   8.8529E-05  0.0056
   1.5285E+01   1.5657E+01   8.5653E-05  0.0056
   1.5657E+01   1.6038E+01   8.3165E-05  0.0056
   1.6038E+01   1.6428E+01   8.0658E-05  0.0056
   1.6428E+01   1.6828E+01   7.8530E-05  0.0056
   1.6828E+01   1.7237E+01   7.6986E-05  0.0056
   1.7237E+01   1.7657E+01   7.4311E-05  0.0057
   1.7657E+01   1.8086E+01   7.1152E-05  0.0057
   1.8086E+01   1.8526E+01   7.0109E-05  0.0057
   1.8526E+01   1.8977E+01   6.8535E-05  0.0057
   1.8977E+01   1.9439E+01   6.6290E-05  0.0057
   1.9439E+01   1.9912E+01   6.4539E-05  0.0057
   1.9912E+01   2.0396E+01   6.4695E-05  0.0056
   2.0396E+01   2.0893E+01   6.5369E-05  0.0056
   2.0893E+01   2.1401E+01   6.3921E-05  0.0055
   2.1401E+01   2.1922E+01   6.1004E-05  0.0056
   2.1922E+01   2.2455E+01   5.9362E-05  0.0056
   2.2455E+01   2.3001E+01   5.8058E-05  0.0056
   2.3001E+01   2.3561E+01   5.6122E-05  0.0056
   2.3561E+01   2.4134E+01   5.4023E-05  0.0057
   2.4134E+01   2.4721E+01   5.1619E-05  0.0057
   2.4721E+01   2.5323E+01   5.0180E-05  0.0058
   2.5323E+01   2.5939E+01   4.8988E-05  0.0058
   2.5939E+01   2.6570E+01   4.6671E-05  0.0058
   2.6570E+01   2.7217E+01   4.4919E-05  0.0059
   2.7217E+01   2.7879E+01   4.3201E-05  0.0059
   2.7879E+01   2.8557E+01   4.1801E-05  0.0059
   2.8557E+01   2.9252E+01   3.9872E-05  0.0060
   2.9252E+01   2.9964E+01   3.8074E-05  0.0061
   2.9964E+01   3.0693E+01   3.6290E-05  0.0061
   3.0693E+01   3.1440E+01   3.4481E-05  0.0062
   3.1440E+01   3.2205E+01   3.3014E-05  0.0063
   3.2205E+01   3.2988E+01   3.1336E-05  0.0064
   3.2988E+01   3.3791E+01   3.0172E-05  0.0064
   3.3791E+01   3.4613E+01   2.8665E-05  0.0065
   3.4613E+01   3.5455E+01   2.7010E-05  0.0066
   3.5455E+01   3.6318E+01   2.5299E-05  0.0068
   3.6318E+01   3.7201E+01   2.3742E-05  0.0069
   3.7201E+01   3.8106E+01   2.2541E-05  0.0070
   3.8106E+01   3.9034E+01   2.1127E-05  0.0071
   3.9034E+01   3.9983E+01   1.9796E-05  0.0073
   3.9983E+01   4.0956E+01   1.8574E-05  0.0074
   4.0956E+01   4.1953E+01   1.7305E-05  0.0076
   4.1953E+01   4.2973E+01   1.5960E-05  0.0078
   4.2973E+01   4.4019E+01   1.4640E-05  0.0081
   4.4019E+01   4.5090E+01   1.3822E-05  0.0082
   4.5090E+01   4.6187E+01   1.2603E-05  0.0085
   4.6187E+01   4.7311E+01   1.1595E-05  0.0088
   4.7311E+01   4.8462E+01   1.0988E-05  0.0089
   4.8462E+01   4.9641E+01   9.9456E-06  0.0092
   4.9641E+01   5.0849E+01   8.8698E-06  0.0097
   5.0849E+01   5.2086E+01   8.1168E-06  0.0100
   5.2086E+01   5.3353E+01   7.5129E-06  0.0102
   5.3353E+01   5.4651E+01   6.6804E-06  0.0107
   5.4651E+01   5.5981E+01   5.9923E-06  0.0112
   5.5981E+01   5.7343E+01   5.3661E-06  0.0117
   5.7343E+01   5.8738E+01   4.9319E-06  0.0121
   5.8738E+01   6.0168E+01   4.2018E-06  0.0129
   6.0168E+01   6.1632E+01   3.9551E-06  0.0131
   6.1632E+01   6.3131E+01   3.4531E-06  0.0139
   6.3131E+01   6.4667E+01   3.0214E-06  0.0147
   6.4667E+01   6.6240E+01   2.6382E-06  0.0155
   6.6240E+01   6.7852E+01   2.2802E-06  0.0165
   6.7852E+01   6.9503E+01   2.0340E-06  0.0173
   6.9503E+01   7.1194E+01   1.7208E-06  0.0185
   7.1194E+01   7.2926E+01   1.5143E-06  0.0195
   7.2926E+01   7.4701E+01   1.2776E-06  0.0210
   7.4701E+01   7.6518E+01   1.1092E-06  0.0223
   7.6518E+01   7.8380E+01   9.5287E-07  0.0237
   7.8380E+01   8.0287E+01   7.9023E-07  0.0258
   8.0287E+01   8.2240E+01   6.9365E-07  0.0272
   8.2240E+01   8.4241E+01   5.9421E-07  0.0290
   8.4241E+01   8.6291E+01   4.9228E-07  0.0315
   8.6291E+01   8.8391E+01   4.4200E-07  0.0328
   8.8391E+01   9.0541E+01   3.7757E-07  0.0351
   9.0541E+01   9.2744E+01   3.2139E-07  0.0376
   9.2744E+01   9.5001E+01   2.5659E-07  0.0416
   9.5001E+01   9.7312E+01   2.1632E-07  0.0447
   9.7312E+01   9.9680E+01   1.8457E-07  0.0478
   9.9680E+01   1.0211E+02   1.4679E-07  0.0530
   1.0211E+02   1.0459E+02   1.3404E-07  0.0548
   1.0459E+02   1.0713E+02   1.0767E-07  0.0604
   1.0713E+02   1.0974E+02   8.5166E-08  0.0671
   1.0974E+02   1.1241E+02   7.0784E-08  0.0727
   1.1241E+02   1.1515E+02   5.4844E-08  0.0816
   1.1515E+02   1.1795E+02   5.2827E-08  0.0822
   1.1795E+02   1.2082E+02   4.4255E-08  0.0887
   1.2082E+02   1.2376E+02   2.5514E-08  0.1155
   1.2376E+02   1.2677E+02   1.6273E-08  0.1429
   1.2677E+02   1.2985E+02   1.1023E-08  0.1715
   1.2985E+02   1.3301E+02   4.7477E-09  0.2582
   1.3301E+02   1.3625E+02   0.0000E+00  0.0000
   1.3625E+02   1.3956E+02   3.0166E-10  1.0000
   1.3956E+02   1.4296E+02   0.0000E+00  0.0000
   1.4296E+02   1.4644E+02   0.0000E+00  0.0000
   1.4644E+02   1.5000E+02   0.0000E+00  0.0000

#   sum over                 3.0899E-05
'no. =    1   reg = 113 - 213'
msuc: {\huge [t-cross] in region mesh}
msdr: {\it plotted by \ANGEL \version}
msdl: {\it calculated by \PHITS  3.26}
wt: s(0.7)
\vspace{-3}
  region surface crossing
  area  &=&   1.0000E+00 [cm^2]
e:
 
# Information for Restart Calculation
# This calculation was newly started
# istdev =  2 # 1:Batch variance, 2:History variance
# resc2  = 1.00000000000000000E+09 # Total source weight or Total source weight / maxcas
# resc3  = 1.00000000000000000E+09 # Total history number or Total batch number
# maxcas =   500000000 # History / Batch, only used for istdev=1
# bitrseed = 0001001110011001001001110000100100110111001111011100001000101100 # bit data of rseed
