[ T-Cross ]
    title = [t-cross] in region mesh
     mesh =  reg            # mesh type is region-wise
      reg =    1            # number of crossing regions
      non     r-from    r-to       area
      1       125       225        1.000000    
   e-type =    3            # e-mesh is log given by emin, emax and ne
     emin =  1.0000000E-02  # minimum value of e-mesh points
     emax =   150.0000      # maximum value of e-mesh points
#    edel =  2.4039514E-02  # mesh width of e-mesh points
       ne =    400          # number of e-mesh points
#    data = ( e(i), i = 1, ne + 1 )
#           1.00000E-02  1.02433E-02  1.04925E-02  1.07478E-02  1.10093E-02
#           1.12772E-02  1.15516E-02  1.18326E-02  1.21205E-02  1.24154E-02
#           1.27175E-02  1.30269E-02  1.33439E-02  1.36686E-02  1.40011E-02
#           1.43418E-02  1.46907E-02  1.50482E-02  1.54143E-02  1.57894E-02
#           1.61735E-02  1.65670E-02  1.69701E-02  1.73830E-02  1.78060E-02
#           1.82392E-02  1.86830E-02  1.91375E-02  1.96032E-02  2.00801E-02
#           2.05687E-02  2.10692E-02  2.15818E-02  2.21069E-02  2.26448E-02
#           2.31957E-02  2.37601E-02  2.43382E-02  2.49304E-02  2.55369E-02
#           2.61583E-02  2.67947E-02  2.74467E-02  2.81145E-02  2.87985E-02
#           2.94992E-02  3.02169E-02  3.09521E-02  3.17052E-02  3.24766E-02
#           3.32668E-02  3.40762E-02  3.49053E-02  3.57546E-02  3.66246E-02
#           3.75157E-02  3.84284E-02  3.93634E-02  4.03212E-02  4.13022E-02
#           4.23071E-02  4.33365E-02  4.43909E-02  4.54710E-02  4.65773E-02
#           4.77106E-02  4.88714E-02  5.00605E-02  5.12785E-02  5.25262E-02
#           5.38042E-02  5.51133E-02  5.64542E-02  5.78278E-02  5.92348E-02
#           6.06760E-02  6.21523E-02  6.36645E-02  6.52135E-02  6.68002E-02
#           6.84255E-02  7.00904E-02  7.17957E-02  7.35426E-02  7.53319E-02
#           7.71648E-02  7.90423E-02  8.09655E-02  8.29354E-02  8.49533E-02
#           8.70203E-02  8.91376E-02  9.13064E-02  9.35279E-02  9.58035E-02
#           9.81345E-02  1.00522E-01  1.02968E-01  1.05473E-01  1.08040E-01
#           1.10668E-01  1.13361E-01  1.16119E-01  1.18944E-01  1.21838E-01
#           1.24803E-01  1.27839E-01  1.30950E-01  1.34136E-01  1.37399E-01
#           1.40742E-01  1.44167E-01  1.47675E-01  1.51268E-01  1.54948E-01
#           1.58718E-01  1.62580E-01  1.66535E-01  1.70587E-01  1.74738E-01
#           1.78989E-01  1.83344E-01  1.87805E-01  1.92375E-01  1.97055E-01
#           2.01850E-01  2.06761E-01  2.11792E-01  2.16945E-01  2.22223E-01
#           2.27630E-01  2.33169E-01  2.38842E-01  2.44653E-01  2.50605E-01
#           2.56703E-01  2.62949E-01  2.69346E-01  2.75900E-01  2.82613E-01
#           2.89489E-01  2.96532E-01  3.03747E-01  3.11138E-01  3.18708E-01
#           3.26462E-01  3.34405E-01  3.42542E-01  3.50876E-01  3.59413E-01
#           3.68158E-01  3.77116E-01  3.86291E-01  3.95690E-01  4.05317E-01
#           4.15179E-01  4.25281E-01  4.35628E-01  4.46227E-01  4.57084E-01
#           4.68205E-01  4.79597E-01  4.91266E-01  5.03219E-01  5.15463E-01
#           5.28005E-01  5.40851E-01  5.54011E-01  5.67490E-01  5.81298E-01
#           5.95441E-01  6.09929E-01  6.24769E-01  6.39970E-01  6.55541E-01
#           6.71491E-01  6.87828E-01  7.04564E-01  7.21706E-01  7.39266E-01
#           7.57253E-01  7.75678E-01  7.94551E-01  8.13883E-01  8.33685E-01
#           8.53969E-01  8.74747E-01  8.96030E-01  9.17831E-01  9.40163E-01
#           9.63038E-01  9.86469E-01  1.01047E+00  1.03506E+00  1.06024E+00
#           1.08604E+00  1.11246E+00  1.13953E+00  1.16725E+00  1.19565E+00
#           1.22474E+00  1.25454E+00  1.28507E+00  1.31633E+00  1.34836E+00
#           1.38117E+00  1.41477E+00  1.44920E+00  1.48446E+00  1.52057E+00
#           1.55757E+00  1.59547E+00  1.63429E+00  1.67405E+00  1.71478E+00
#           1.75650E+00  1.79924E+00  1.84302E+00  1.88786E+00  1.93379E+00
#           1.98084E+00  2.02904E+00  2.07841E+00  2.12898E+00  2.18078E+00
#           2.23384E+00  2.28819E+00  2.34386E+00  2.40089E+00  2.45930E+00
#           2.51914E+00  2.58043E+00  2.64322E+00  2.70753E+00  2.77341E+00
#           2.84088E+00  2.91001E+00  2.98081E+00  3.05333E+00  3.12762E+00
#           3.20372E+00  3.28167E+00  3.36152E+00  3.44330E+00  3.52708E+00
#           3.61290E+00  3.70080E+00  3.79085E+00  3.88308E+00  3.97756E+00
#           4.07434E+00  4.17347E+00  4.27501E+00  4.37903E+00  4.48557E+00
#           4.59471E+00  4.70650E+00  4.82102E+00  4.93832E+00  5.05847E+00
#           5.18155E+00  5.30762E+00  5.43676E+00  5.56904E+00  5.70453E+00
#           5.84333E+00  5.98550E+00  6.13114E+00  6.28031E+00  6.43312E+00
#           6.58964E+00  6.74997E+00  6.91420E+00  7.08243E+00  7.25475E+00
#           7.43126E+00  7.61207E+00  7.79728E+00  7.98700E+00  8.18133E+00
#           8.38038E+00  8.58428E+00  8.79315E+00  9.00709E+00  9.22624E+00
#           9.45072E+00  9.68067E+00  9.91620E+00  1.01575E+01  1.04046E+01
#           1.06578E+01  1.09171E+01  1.11827E+01  1.14548E+01  1.17335E+01
#           1.20190E+01  1.23114E+01  1.26109E+01  1.29178E+01  1.32321E+01
#           1.35540E+01  1.38838E+01  1.42216E+01  1.45676E+01  1.49221E+01
#           1.52851E+01  1.56570E+01  1.60380E+01  1.64282E+01  1.68279E+01
#           1.72374E+01  1.76568E+01  1.80864E+01  1.85264E+01  1.89772E+01
#           1.94389E+01  1.99119E+01  2.03963E+01  2.08926E+01  2.14009E+01
#           2.19216E+01  2.24550E+01  2.30014E+01  2.35610E+01  2.41343E+01
#           2.47215E+01  2.53230E+01  2.59391E+01  2.65702E+01  2.72167E+01
#           2.78789E+01  2.85572E+01  2.92520E+01  2.99637E+01  3.06928E+01
#           3.14396E+01  3.22045E+01  3.29881E+01  3.37907E+01  3.46128E+01
#           3.54550E+01  3.63177E+01  3.72013E+01  3.81064E+01  3.90336E+01
#           3.99833E+01  4.09561E+01  4.19526E+01  4.29734E+01  4.40189E+01
#           4.50900E+01  4.61870E+01  4.73108E+01  4.84619E+01  4.96410E+01
#           5.08488E+01  5.20860E+01  5.33533E+01  5.46514E+01  5.59812E+01
#           5.73432E+01  5.87384E+01  6.01676E+01  6.16315E+01  6.31311E+01
#           6.46671E+01  6.62405E+01  6.78522E+01  6.95031E+01  7.11941E+01
#           7.29263E+01  7.47007E+01  7.65182E+01  7.83800E+01  8.02870E+01
#           8.22405E+01  8.42414E+01  8.62911E+01  8.83906E+01  9.05412E+01
#           9.27442E+01  9.50007E+01  9.73122E+01  9.96799E+01  1.02105E+02
#           1.04589E+02  1.07134E+02  1.09741E+02  1.12411E+02  1.15146E+02
#           1.17948E+02  1.20817E+02  1.23757E+02  1.26768E+02  1.29852E+02
#           1.33012E+02  1.36248E+02  1.39563E+02  1.42959E+02  1.46437E+02
#           1.50000E+02
     unit =    2            # unit is [1/cm^2/(MeV/n)/source]
     axis =  eng            # axis of output
     file = detector-26.out  # file name of output for the above axis
   output = f-curr          # surface crossing forward current spectrum
     part =  neutron  
# kf/name :  2112     
#    used :        main (  %)        temp (  %)       total (  %)
#  memory :         414 (  0)           0 (  0)         414 (  0)

#------------------------------------------------------------------------------
#newpage:
#   no. =    1   reg = 125 - 225

x: Energy [MeV/n]
y:  F-Curr [1/cm^2/(MeV/n)/source]         
p: xlog ylog afac(0.8) form(0.9)
h: n            x            y(neutron ),hh0l   n 
#  e-lower      e-upper      neutron     r.err 
   1.0000E-02   1.0243E-02   2.7537E-03  0.0386
   1.0243E-02   1.0493E-02   2.6723E-03  0.0387
   1.0493E-02   1.0748E-02   2.6597E-03  0.0384
   1.0748E-02   1.1009E-02   2.6577E-03  0.0379
   1.1009E-02   1.1277E-02   2.7775E-03  0.0367
   1.1277E-02   1.1552E-02   2.4929E-03  0.0382
   1.1552E-02   1.1833E-02   2.5795E-03  0.0371
   1.1833E-02   1.2121E-02   2.5443E-03  0.0369
   1.2121E-02   1.2415E-02   2.5534E-03  0.0364
   1.2415E-02   1.2718E-02   2.4034E-03  0.0371
   1.2718E-02   1.3027E-02   2.3883E-03  0.0368
   1.3027E-02   1.3344E-02   2.4104E-03  0.0362
   1.3344E-02   1.3669E-02   2.6242E-03  0.0343
   1.3669E-02   1.4001E-02   2.6551E-03  0.0337
   1.4001E-02   1.4342E-02   2.4511E-03  0.0346
   1.4342E-02   1.4691E-02   2.5735E-03  0.0334
   1.4691E-02   1.5048E-02   2.4760E-03  0.0336
   1.5048E-02   1.5414E-02   2.4854E-03  0.0331
   1.5414E-02   1.5789E-02   2.3811E-03  0.0335
   1.5789E-02   1.6174E-02   2.4260E-03  0.0328
   1.6174E-02   1.6567E-02   2.3633E-03  0.0328
   1.6567E-02   1.6970E-02   2.3568E-03  0.0324
   1.6970E-02   1.7383E-02   2.5030E-03  0.0311
   1.7383E-02   1.7806E-02   2.4613E-03  0.0310
   1.7806E-02   1.8239E-02   2.3936E-03  0.0311
   1.8239E-02   1.8683E-02   2.2895E-03  0.0314
   1.8683E-02   1.9138E-02   2.5123E-03  0.0296
   1.9138E-02   1.9603E-02   2.2486E-03  0.0309
   1.9603E-02   2.0080E-02   2.2864E-03  0.0303
   2.0080E-02   2.0569E-02   2.2720E-03  0.0300
   2.0569E-02   2.1069E-02   2.2859E-03  0.0296
   2.1069E-02   2.1582E-02   2.2794E-03  0.0293
   2.1582E-02   2.2107E-02   2.1691E-03  0.0296
   2.2107E-02   2.2645E-02   2.2784E-03  0.0286
   2.2645E-02   2.3196E-02   2.1753E-03  0.0289
   2.3196E-02   2.3760E-02   2.2857E-03  0.0278
   2.3760E-02   2.4338E-02   2.2539E-03  0.0277
   2.4338E-02   2.4930E-02   2.1143E-03  0.0283
   2.4930E-02   2.5537E-02   2.1827E-03  0.0275
   2.5537E-02   2.6158E-02   2.1084E-03  0.0276
   2.6158E-02   2.6795E-02   2.1353E-03  0.0271
   2.6795E-02   2.7447E-02   2.1352E-03  0.0268
   2.7447E-02   2.8114E-02   2.2462E-03  0.0258
   2.8114E-02   2.8799E-02   2.1431E-03  0.0261
   2.8799E-02   2.9499E-02   2.1921E-03  0.0255
   2.9499E-02   3.0217E-02   2.1540E-03  0.0254
   3.0217E-02   3.0952E-02   2.0144E-03  0.0260
   3.0952E-02   3.1705E-02   2.0164E-03  0.0257
   3.1705E-02   3.2477E-02   2.0508E-03  0.0251
   3.2477E-02   3.3267E-02   2.0590E-03  0.0248
   3.3267E-02   3.4076E-02   2.0645E-03  0.0245
   3.4076E-02   3.4905E-02   2.0323E-03  0.0244
   3.4905E-02   3.5755E-02   2.0606E-03  0.0239
   3.5755E-02   3.6625E-02   2.0461E-03  0.0237
   3.6625E-02   3.7516E-02   1.8988E-03  0.0243
   3.7516E-02   3.8428E-02   1.9818E-03  0.0235
   3.8428E-02   3.9363E-02   1.9588E-03  0.0234
   3.9363E-02   4.0321E-02   1.9577E-03  0.0231
   4.0321E-02   4.1302E-02   2.0101E-03  0.0225
   4.1302E-02   4.2307E-02   1.9091E-03  0.0228
   4.2307E-02   4.3337E-02   1.8866E-03  0.0227
   4.3337E-02   4.4391E-02   1.7816E-03  0.0231
   4.4391E-02   4.5471E-02   1.9036E-03  0.0221
   4.5471E-02   4.6577E-02   1.8882E-03  0.0219
   4.6577E-02   4.7711E-02   1.7864E-03  0.0222
   4.7711E-02   4.8871E-02   1.8099E-03  0.0218
   4.8871E-02   5.0061E-02   1.8746E-03  0.0212
   5.0061E-02   5.1279E-02   1.7923E-03  0.0214
   5.1279E-02   5.2526E-02   1.8387E-03  0.0209
   5.2526E-02   5.3804E-02   1.7782E-03  0.0210
   5.3804E-02   5.5113E-02   1.7672E-03  0.0208
   5.5113E-02   5.6454E-02   1.7197E-03  0.0208
   5.6454E-02   5.7828E-02   1.7706E-03  0.0203
   5.7828E-02   5.9235E-02   1.7065E-03  0.0204
   5.9235E-02   6.0676E-02   1.7055E-03  0.0202
   6.0676E-02   6.2152E-02   1.7239E-03  0.0198
   6.2152E-02   6.3665E-02   1.6648E-03  0.0199
   6.3665E-02   6.5214E-02   1.6856E-03  0.0196
   6.5214E-02   6.6800E-02   1.6689E-03  0.0194
   6.6800E-02   6.8426E-02   1.6640E-03  0.0192
   6.8426E-02   7.0090E-02   1.6530E-03  0.0191
   7.0090E-02   7.1796E-02   1.5750E-03  0.0193
   7.1796E-02   7.3543E-02   1.5954E-03  0.0189
   7.3543E-02   7.5332E-02   1.6341E-03  0.0185
   7.5332E-02   7.7165E-02   1.6043E-03  0.0184
   7.7165E-02   7.9042E-02   1.5478E-03  0.0186
   7.9042E-02   8.0965E-02   1.5194E-03  0.0185
   8.0965E-02   8.2935E-02   1.5665E-03  0.0180
   8.2935E-02   8.4953E-02   1.5511E-03  0.0179
   8.4953E-02   8.7020E-02   1.5290E-03  0.0178
   8.7020E-02   8.9138E-02   1.5402E-03  0.0175
   8.9138E-02   9.1306E-02   1.5018E-03  0.0175
   9.1306E-02   9.3528E-02   1.5064E-03  0.0173
   9.3528E-02   9.5804E-02   1.5055E-03  0.0171
   9.5804E-02   9.8134E-02   1.4792E-03  0.0170
   9.8134E-02   1.0052E-01   1.4857E-03  0.0168
   1.0052E-01   1.0297E-01   1.4470E-03  0.0168
   1.0297E-01   1.0547E-01   1.4551E-03  0.0166
   1.0547E-01   1.0804E-01   1.4024E-03  0.0167
   1.0804E-01   1.1067E-01   1.3771E-03  0.0166
   1.1067E-01   1.1336E-01   1.3823E-03  0.0164
   1.1336E-01   1.1612E-01   1.3723E-03  0.0163
   1.1612E-01   1.1894E-01   1.3862E-03  0.0160
   1.1894E-01   1.2184E-01   1.3661E-03  0.0159
   1.2184E-01   1.2480E-01   1.3223E-03  0.0160
   1.2480E-01   1.2784E-01   1.3334E-03  0.0157
   1.2784E-01   1.3095E-01   1.3090E-03  0.0157
   1.3095E-01   1.3414E-01   1.3025E-03  0.0155
   1.3414E-01   1.3740E-01   1.2762E-03  0.0155
   1.3740E-01   1.4074E-01   1.2892E-03  0.0152
   1.4074E-01   1.4417E-01   1.2623E-03  0.0152
   1.4417E-01   1.4767E-01   1.2243E-03  0.0153
   1.4767E-01   1.5127E-01   1.2153E-03  0.0151
   1.5127E-01   1.5495E-01   1.2551E-03  0.0147
   1.5495E-01   1.5872E-01   1.1971E-03  0.0149
   1.5872E-01   1.6258E-01   1.2101E-03  0.0146
   1.6258E-01   1.6654E-01   1.1572E-03  0.0148
   1.6654E-01   1.7059E-01   1.1863E-03  0.0144
   1.7059E-01   1.7474E-01   1.1337E-03  0.0146
   1.7474E-01   1.7899E-01   1.1283E-03  0.0144
   1.7899E-01   1.8334E-01   1.1571E-03  0.0141
   1.8334E-01   1.8781E-01   1.1072E-03  0.0142
   1.8781E-01   1.9237E-01   1.1098E-03  0.0140
   1.9237E-01   1.9706E-01   1.1234E-03  0.0138
   1.9706E-01   2.0185E-01   1.0927E-03  0.0138
   2.0185E-01   2.0676E-01   1.0942E-03  0.0136
   2.0676E-01   2.1179E-01   1.0536E-03  0.0137
   2.1179E-01   2.1694E-01   1.0275E-03  0.0137
   2.1694E-01   2.2222E-01   1.0599E-03  0.0134
   2.2222E-01   2.2763E-01   1.0383E-03  0.0133
   2.2763E-01   2.3317E-01   1.0210E-03  0.0133
   2.3317E-01   2.3884E-01   9.9503E-04  0.0133
   2.3884E-01   2.4465E-01   9.9291E-04  0.0132
   2.4465E-01   2.5061E-01   9.8075E-04  0.0131
   2.5061E-01   2.5670E-01   9.8164E-04  0.0129
   2.5670E-01   2.6295E-01   9.5264E-04  0.0130
   2.6295E-01   2.6935E-01   9.5893E-04  0.0128
   2.6935E-01   2.7590E-01   9.1662E-04  0.0129
   2.7590E-01   2.8261E-01   9.1705E-04  0.0127
   2.8261E-01   2.8949E-01   9.0188E-04  0.0127
   2.8949E-01   2.9653E-01   8.8024E-04  0.0127
   2.9653E-01   3.0375E-01   8.7652E-04  0.0126
   3.0375E-01   3.1114E-01   8.6030E-04  0.0125
   3.1114E-01   3.1871E-01   8.6668E-04  0.0123
   3.1871E-01   3.2646E-01   8.5313E-04  0.0123
   3.2646E-01   3.3441E-01   8.4369E-04  0.0122
   3.3441E-01   3.4254E-01   8.0841E-04  0.0123
   3.4254E-01   3.5088E-01   7.9911E-04  0.0123
   3.5088E-01   3.5941E-01   7.9465E-04  0.0121
   3.5941E-01   3.6816E-01   7.7675E-04  0.0121
   3.6816E-01   3.7712E-01   7.7030E-04  0.0120
   3.7712E-01   3.8629E-01   7.6868E-04  0.0119
   3.8629E-01   3.9569E-01   7.4483E-04  0.0120
   3.9569E-01   4.0532E-01   7.4397E-04  0.0118
   4.0532E-01   4.1518E-01   7.1925E-04  0.0119
   4.1518E-01   4.2528E-01   7.1578E-04  0.0118
   4.2528E-01   4.3563E-01   6.9230E-04  0.0118
   4.3563E-01   4.4623E-01   6.7807E-04  0.0118
   4.4623E-01   4.5708E-01   6.6938E-04  0.0117
   4.5708E-01   4.6821E-01   6.7349E-04  0.0116
   4.6821E-01   4.7960E-01   6.4731E-04  0.0116
   4.7960E-01   4.9127E-01   6.2336E-04  0.0117
   4.9127E-01   5.0322E-01   6.2249E-04  0.0116
   5.0322E-01   5.1546E-01   6.1534E-04  0.0115
   5.1546E-01   5.2800E-01   6.0499E-04  0.0115
   5.2800E-01   5.4085E-01   5.8653E-04  0.0115
   5.4085E-01   5.5401E-01   5.7374E-04  0.0115
   5.5401E-01   5.6749E-01   5.4861E-04  0.0116
   5.6749E-01   5.8130E-01   5.4764E-04  0.0115
   5.8130E-01   5.9544E-01   5.4057E-04  0.0114
   5.9544E-01   6.0993E-01   5.2787E-04  0.0114
   6.0993E-01   6.2477E-01   5.1509E-04  0.0114
   6.2477E-01   6.3997E-01   5.1121E-04  0.0113
   6.3997E-01   6.5554E-01   4.8099E-04  0.0116
   6.5554E-01   6.7149E-01   4.7847E-04  0.0114
   6.7149E-01   6.8783E-01   4.6129E-04  0.0115
   6.8783E-01   7.0456E-01   4.4833E-04  0.0115
   7.0456E-01   7.2171E-01   4.4048E-04  0.0115
   7.2171E-01   7.3927E-01   4.3309E-04  0.0115
   7.3927E-01   7.5725E-01   4.2425E-04  0.0114
   7.5725E-01   7.7568E-01   4.0381E-04  0.0116
   7.7568E-01   7.9455E-01   3.8987E-04  0.0117
   7.9455E-01   8.1388E-01   3.8454E-04  0.0116
   8.1388E-01   8.3368E-01   3.6698E-04  0.0117
   8.3368E-01   8.5397E-01   3.6422E-04  0.0116
   8.5397E-01   8.7475E-01   3.4296E-04  0.0118
   8.7475E-01   8.9603E-01   3.3261E-04  0.0119
   8.9603E-01   9.1783E-01   3.2668E-04  0.0118
   9.1783E-01   9.4016E-01   3.0164E-04  0.0122
   9.4016E-01   9.6304E-01   2.9198E-04  0.0122
   9.6304E-01   9.8647E-01   2.8566E-04  0.0122
   9.8647E-01   1.0105E+00   2.8004E-04  0.0122
   1.0105E+00   1.0351E+00   2.7947E-04  0.0121
   1.0351E+00   1.0602E+00   2.8135E-04  0.0119
   1.0602E+00   1.0860E+00   2.8455E-04  0.0117
   1.0860E+00   1.1125E+00   2.9390E-04  0.0113
   1.1125E+00   1.1395E+00   2.9205E-04  0.0112
   1.1395E+00   1.1673E+00   3.0652E-04  0.0108
   1.1673E+00   1.1957E+00   3.1630E-04  0.0106
   1.1957E+00   1.2247E+00   3.1826E-04  0.0104
   1.2247E+00   1.2545E+00   3.1857E-04  0.0103
   1.2545E+00   1.2851E+00   3.1890E-04  0.0101
   1.2851E+00   1.3163E+00   3.2332E-04  0.0099
   1.3163E+00   1.3484E+00   3.2841E-04  0.0098
   1.3484E+00   1.3812E+00   3.2978E-04  0.0096
   1.3812E+00   1.4148E+00   3.3849E-04  0.0094
   1.4148E+00   1.4492E+00   3.3862E-04  0.0093
   1.4492E+00   1.4845E+00   3.3417E-04  0.0092
   1.4845E+00   1.5206E+00   3.3094E-04  0.0091
   1.5206E+00   1.5576E+00   3.3177E-04  0.0090
   1.5576E+00   1.5955E+00   3.3315E-04  0.0089
   1.5955E+00   1.6343E+00   3.3357E-04  0.0088
   1.6343E+00   1.6741E+00   3.3616E-04  0.0087
   1.6741E+00   1.7148E+00   3.3384E-04  0.0086
   1.7148E+00   1.7565E+00   3.3473E-04  0.0085
   1.7565E+00   1.7992E+00   3.2983E-04  0.0084
   1.7992E+00   1.8430E+00   3.2201E-04  0.0084
   1.8430E+00   1.8879E+00   3.1589E-04  0.0084
   1.8879E+00   1.9338E+00   3.2001E-04  0.0082
   1.9338E+00   1.9808E+00   3.2134E-04  0.0081
   1.9808E+00   2.0290E+00   3.1432E-04  0.0081
   2.0290E+00   2.0784E+00   3.1063E-04  0.0081
   2.0784E+00   2.1290E+00   3.0080E-04  0.0081
   2.1290E+00   2.1808E+00   2.9500E-04  0.0081
   2.1808E+00   2.2338E+00   2.9044E-04  0.0081
   2.2338E+00   2.2882E+00   2.7727E-04  0.0081
   2.2882E+00   2.3439E+00   2.7545E-04  0.0081
   2.3439E+00   2.4009E+00   2.7065E-04  0.0080
   2.4009E+00   2.4593E+00   2.6507E-04  0.0080
   2.4593E+00   2.5191E+00   2.5431E-04  0.0081
   2.5191E+00   2.5804E+00   2.4722E-04  0.0081
   2.5804E+00   2.6432E+00   2.3686E-04  0.0082
   2.6432E+00   2.7075E+00   2.2805E-04  0.0083
   2.7075E+00   2.7734E+00   2.1676E-04  0.0084
   2.7734E+00   2.8409E+00   2.1399E-04  0.0083
   2.8409E+00   2.9100E+00   2.0516E-04  0.0084
   2.9100E+00   2.9808E+00   1.9882E-04  0.0084
   2.9808E+00   3.0533E+00   1.9108E-04  0.0085
   3.0533E+00   3.1276E+00   1.7988E-04  0.0087
   3.1276E+00   3.2037E+00   1.7217E-04  0.0087
   3.2037E+00   3.2817E+00   1.6364E-04  0.0089
   3.2817E+00   3.3615E+00   1.5479E-04  0.0090
   3.3615E+00   3.4433E+00   1.4862E-04  0.0091
   3.4433E+00   3.5271E+00   1.3799E-04  0.0093
   3.5271E+00   3.6129E+00   1.3044E-04  0.0095
   3.6129E+00   3.7008E+00   1.2218E-04  0.0096
   3.7008E+00   3.7908E+00   1.1840E-04  0.0097
   3.7908E+00   3.8831E+00   1.0891E-04  0.0100
   3.8831E+00   3.9776E+00   1.0262E-04  0.0102
   3.9776E+00   4.0743E+00   9.7451E-05  0.0103
   4.0743E+00   4.1735E+00   9.2548E-05  0.0104
   4.1735E+00   4.2750E+00   8.6578E-05  0.0107
   4.2750E+00   4.3790E+00   7.9306E-05  0.0110
   4.3790E+00   4.4856E+00   7.5475E-05  0.0112
   4.4856E+00   4.5947E+00   7.0723E-05  0.0114
   4.5947E+00   4.7065E+00   6.6180E-05  0.0116
   4.7065E+00   4.8210E+00   6.0561E-05  0.0120
   4.8210E+00   4.9383E+00   5.5840E-05  0.0124
   4.9383E+00   5.0585E+00   5.2433E-05  0.0126
   5.0585E+00   5.1815E+00   4.9810E-05  0.0128
   5.1815E+00   5.3076E+00   4.7077E-05  0.0130
   5.3076E+00   5.4368E+00   4.2489E-05  0.0135
   5.4368E+00   5.5690E+00   3.9307E-05  0.0139
   5.5690E+00   5.7045E+00   3.6653E-05  0.0142
   5.7045E+00   5.8433E+00   3.3506E-05  0.0147
   5.8433E+00   5.9855E+00   3.1585E-05  0.0149
   5.9855E+00   6.1311E+00   2.8428E-05  0.0155
   6.1311E+00   6.2803E+00   2.7833E-05  0.0155
   6.2803E+00   6.4331E+00   2.5755E-05  0.0159
   6.4331E+00   6.5896E+00   2.2808E-05  0.0167
   6.5896E+00   6.7500E+00   2.1406E-05  0.0171
   6.7500E+00   6.9142E+00   1.9813E-05  0.0175
   6.9142E+00   7.0824E+00   1.8306E-05  0.0180
   7.0824E+00   7.2548E+00   1.6347E-05  0.0188
   7.2548E+00   7.4313E+00   1.5271E-05  0.0192
   7.4313E+00   7.6121E+00   1.4283E-05  0.0197
   7.6121E+00   7.7973E+00   1.3363E-05  0.0201
   7.7973E+00   7.9870E+00   1.2566E-05  0.0205
   7.9870E+00   8.1813E+00   1.1550E-05  0.0211
   8.1813E+00   8.3804E+00   1.0600E-05  0.0217
   8.3804E+00   8.5843E+00   9.7474E-06  0.0224
   8.5843E+00   8.7931E+00   8.8001E-06  0.0233
   8.7931E+00   9.0071E+00   7.8432E-06  0.0244
   9.0071E+00   9.2262E+00   7.5245E-06  0.0246
   9.2262E+00   9.4507E+00   7.0451E-06  0.0251
   9.4507E+00   9.6807E+00   6.2820E-06  0.0263
   9.6807E+00   9.9162E+00   5.9120E-06  0.0268
   9.9162E+00   1.0157E+01   5.3509E-06  0.0278
   1.0157E+01   1.0405E+01   5.1267E-06  0.0281
   1.0405E+01   1.0658E+01   4.3689E-06  0.0300
   1.0658E+01   1.0917E+01   4.3095E-06  0.0299
   1.0917E+01   1.1183E+01   3.8890E-06  0.0311
   1.1183E+01   1.1455E+01   3.6606E-06  0.0317
   1.1455E+01   1.1733E+01   3.3082E-06  0.0329
   1.1733E+01   1.2019E+01   3.0404E-06  0.0339
   1.2019E+01   1.2311E+01   2.6639E-06  0.0358
   1.2311E+01   1.2611E+01   2.2734E-06  0.0383
   1.2611E+01   1.2918E+01   2.4280E-06  0.0366
   1.2918E+01   1.3232E+01   2.0570E-06  0.0393
   1.3232E+01   1.3554E+01   1.8714E-06  0.0407
   1.3554E+01   1.3884E+01   1.6814E-06  0.0425
   1.3884E+01   1.4222E+01   1.6726E-06  0.0421
   1.4222E+01   1.4568E+01   1.5013E-06  0.0439
   1.4568E+01   1.4922E+01   1.5588E-06  0.0425
   1.4922E+01   1.5285E+01   1.3730E-06  0.0448
   1.5285E+01   1.5657E+01   1.2517E-06  0.0463
   1.5657E+01   1.6038E+01   1.0710E-06  0.0495
   1.6038E+01   1.6428E+01   1.0174E-06  0.0502
   1.6428E+01   1.6828E+01   9.7320E-07  0.0507
   1.6828E+01   1.7237E+01   8.2064E-07  0.0546
   1.7237E+01   1.7657E+01   8.7029E-07  0.0523
   1.7657E+01   1.8086E+01   8.0772E-07  0.0537
   1.8086E+01   1.8526E+01   7.7490E-07  0.0542
   1.8526E+01   1.8977E+01   6.8329E-07  0.0570
   1.8977E+01   1.9439E+01   6.0208E-07  0.0600
   1.9439E+01   1.9912E+01   5.9413E-07  0.0597
   1.9912E+01   2.0396E+01   5.6969E-07  0.0602
   2.0396E+01   2.0893E+01   4.9772E-07  0.0636
   2.0893E+01   2.1401E+01   5.0754E-07  0.0623
   2.1401E+01   2.1922E+01   5.2045E-07  0.0607
   2.1922E+01   2.2455E+01   5.2121E-07  0.0600
   2.2455E+01   2.3001E+01   4.3013E-07  0.0652
   2.3001E+01   2.3561E+01   3.9311E-07  0.0674
   2.3561E+01   2.4134E+01   3.9947E-07  0.0661
   2.4134E+01   2.4721E+01   3.8658E-07  0.0664
   2.4721E+01   2.5323E+01   3.3583E-07  0.0704
   2.5323E+01   2.5939E+01   3.4084E-07  0.0690
   2.5939E+01   2.6570E+01   2.9947E-07  0.0727
   2.6570E+01   2.7217E+01   3.1710E-07  0.0698
   2.7217E+01   2.7879E+01   2.7182E-07  0.0745
   2.7879E+01   2.8557E+01   2.4325E-07  0.0778
   2.8557E+01   2.9252E+01   2.3315E-07  0.0786
   2.9252E+01   2.9964E+01   2.1216E-07  0.0814
   2.9964E+01   3.0693E+01   2.1124E-07  0.0806
   3.0693E+01   3.1440E+01   1.9149E-07  0.0836
   3.1440E+01   3.2205E+01   1.7256E-07  0.0870
   3.2205E+01   3.2988E+01   1.7101E-07  0.0864
   3.2988E+01   3.3791E+01   1.6571E-07  0.0867
   3.3791E+01   3.4613E+01   1.4717E-07  0.0909
   3.4613E+01   3.5455E+01   1.4605E-07  0.0902
   3.5455E+01   3.6318E+01   1.1708E-07  0.0995
   3.6318E+01   3.7201E+01   9.5062E-08  0.1091
   3.7201E+01   3.8106E+01   8.1756E-08  0.1162
   3.8106E+01   3.9034E+01   9.9228E-08  0.1043
   3.9034E+01   3.9983E+01   8.9500E-08  0.1085
   3.9983E+01   4.0956E+01   8.4291E-08  0.1104
   4.0956E+01   4.1953E+01   7.0246E-08  0.1195
   4.1953E+01   4.2973E+01   5.1923E-08  0.1374
   4.2973E+01   4.4019E+01   6.5036E-08  0.1213
   4.4019E+01   4.5090E+01   4.3884E-08  0.1459
   4.5090E+01   4.6187E+01   3.5549E-08  0.1601
   4.6187E+01   4.7311E+01   3.2035E-08  0.1667
   4.7311E+01   4.8462E+01   2.9537E-08  0.1715
   4.8462E+01   4.9641E+01   2.4595E-08  0.1857
   4.9641E+01   5.0849E+01   2.1527E-08  0.1961
   5.0849E+01   5.2086E+01   2.5865E-08  0.1768
   5.2086E+01   5.3353E+01   2.0516E-08  0.1961
   5.3353E+01   5.4651E+01   9.2441E-09  0.2887
   5.4651E+01   5.5981E+01   1.5041E-08  0.2236
   5.5981E+01   5.7343E+01   9.5443E-09  0.2774
   5.7343E+01   5.8738E+01   1.2185E-08  0.2425
   5.8738E+01   6.0168E+01   4.8980E-09  0.3780
   6.0168E+01   6.1632E+01   2.0493E-09  0.5774
   6.1632E+01   6.3131E+01   4.6681E-09  0.3780
   6.3131E+01   6.4667E+01   3.9062E-09  0.4082
   6.4667E+01   6.6240E+01   2.5423E-09  0.5000
   6.6240E+01   6.7852E+01   2.4819E-09  0.5000
   6.7852E+01   6.9503E+01   1.8172E-09  0.5774
   6.9503E+01   7.1194E+01   1.1827E-09  0.7071
   7.1194E+01   7.2926E+01   5.7730E-10  1.0000
   7.2926E+01   7.4701E+01   1.1272E-09  0.7071
   7.4701E+01   7.6518E+01   1.6506E-09  0.5774
   7.6518E+01   7.8380E+01   5.3713E-10  1.0000
   7.8380E+01   8.0287E+01   0.0000E+00  0.0000
   8.0287E+01   8.2240E+01   0.0000E+00  0.0000
   8.2240E+01   8.4241E+01   0.0000E+00  0.0000
   8.4241E+01   8.6291E+01   4.8789E-10  1.0000
   8.6291E+01   8.8391E+01   0.0000E+00  0.0000
   8.8391E+01   9.0541E+01   0.0000E+00  0.0000
   9.0541E+01   9.2744E+01   0.0000E+00  0.0000
   9.2744E+01   9.5001E+01   0.0000E+00  0.0000
   9.5001E+01   9.7312E+01   0.0000E+00  0.0000
   9.7312E+01   9.9680E+01   0.0000E+00  0.0000
   9.9680E+01   1.0211E+02   0.0000E+00  0.0000
   1.0211E+02   1.0459E+02   0.0000E+00  0.0000
   1.0459E+02   1.0713E+02   0.0000E+00  0.0000
   1.0713E+02   1.0974E+02   0.0000E+00  0.0000
   1.0974E+02   1.1241E+02   0.0000E+00  0.0000
   1.1241E+02   1.1515E+02   0.0000E+00  0.0000
   1.1515E+02   1.1795E+02   0.0000E+00  0.0000
   1.1795E+02   1.2082E+02   0.0000E+00  0.0000
   1.2082E+02   1.2376E+02   0.0000E+00  0.0000
   1.2376E+02   1.2677E+02   0.0000E+00  0.0000
   1.2677E+02   1.2985E+02   0.0000E+00  0.0000
   1.2985E+02   1.3301E+02   0.0000E+00  0.0000
   1.3301E+02   1.3625E+02   0.0000E+00  0.0000
   1.3625E+02   1.3956E+02   0.0000E+00  0.0000
   1.3956E+02   1.4296E+02   0.0000E+00  0.0000
   1.4296E+02   1.4644E+02   0.0000E+00  0.0000
   1.4644E+02   1.5000E+02   0.0000E+00  0.0000

#   sum over                 1.1032E-05
'no. =    1   reg = 125 - 225'
msuc: {\huge [t-cross] in region mesh}
msdr: {\it plotted by \ANGEL \version}
msdl: {\it calculated by \PHITS  3.26}
wt: s(0.7)
\vspace{-3}
  region surface crossing
  area  &=&   1.0000E+00 [cm^2]
e:
 
# Information for Restart Calculation
# This calculation was newly started
# istdev =  2 # 1:Batch variance, 2:History variance
# resc2  = 1.00000000000000000E+09 # Total source weight or Total source weight / maxcas
# resc3  = 1.00000000000000000E+09 # Total history number or Total batch number
# maxcas =   500000000 # History / Batch, only used for istdev=1
# bitrseed = 0001001110011001001001110000100100110111001111011100001000101100 # bit data of rseed
