[ T-Cross ]
    title = [t-cross] in region mesh
     mesh =  reg            # mesh type is region-wise
      reg =    1            # number of crossing regions
      non     r-from    r-to       area
      1       119       219        1.000000    
   e-type =    3            # e-mesh is log given by emin, emax and ne
     emin =  1.0000000E-02  # minimum value of e-mesh points
     emax =   150.0000      # maximum value of e-mesh points
#    edel =  2.4039514E-02  # mesh width of e-mesh points
       ne =    400          # number of e-mesh points
#    data = ( e(i), i = 1, ne + 1 )
#           1.00000E-02  1.02433E-02  1.04925E-02  1.07478E-02  1.10093E-02
#           1.12772E-02  1.15516E-02  1.18326E-02  1.21205E-02  1.24154E-02
#           1.27175E-02  1.30269E-02  1.33439E-02  1.36686E-02  1.40011E-02
#           1.43418E-02  1.46907E-02  1.50482E-02  1.54143E-02  1.57894E-02
#           1.61735E-02  1.65670E-02  1.69701E-02  1.73830E-02  1.78060E-02
#           1.82392E-02  1.86830E-02  1.91375E-02  1.96032E-02  2.00801E-02
#           2.05687E-02  2.10692E-02  2.15818E-02  2.21069E-02  2.26448E-02
#           2.31957E-02  2.37601E-02  2.43382E-02  2.49304E-02  2.55369E-02
#           2.61583E-02  2.67947E-02  2.74467E-02  2.81145E-02  2.87985E-02
#           2.94992E-02  3.02169E-02  3.09521E-02  3.17052E-02  3.24766E-02
#           3.32668E-02  3.40762E-02  3.49053E-02  3.57546E-02  3.66246E-02
#           3.75157E-02  3.84284E-02  3.93634E-02  4.03212E-02  4.13022E-02
#           4.23071E-02  4.33365E-02  4.43909E-02  4.54710E-02  4.65773E-02
#           4.77106E-02  4.88714E-02  5.00605E-02  5.12785E-02  5.25262E-02
#           5.38042E-02  5.51133E-02  5.64542E-02  5.78278E-02  5.92348E-02
#           6.06760E-02  6.21523E-02  6.36645E-02  6.52135E-02  6.68002E-02
#           6.84255E-02  7.00904E-02  7.17957E-02  7.35426E-02  7.53319E-02
#           7.71648E-02  7.90423E-02  8.09655E-02  8.29354E-02  8.49533E-02
#           8.70203E-02  8.91376E-02  9.13064E-02  9.35279E-02  9.58035E-02
#           9.81345E-02  1.00522E-01  1.02968E-01  1.05473E-01  1.08040E-01
#           1.10668E-01  1.13361E-01  1.16119E-01  1.18944E-01  1.21838E-01
#           1.24803E-01  1.27839E-01  1.30950E-01  1.34136E-01  1.37399E-01
#           1.40742E-01  1.44167E-01  1.47675E-01  1.51268E-01  1.54948E-01
#           1.58718E-01  1.62580E-01  1.66535E-01  1.70587E-01  1.74738E-01
#           1.78989E-01  1.83344E-01  1.87805E-01  1.92375E-01  1.97055E-01
#           2.01850E-01  2.06761E-01  2.11792E-01  2.16945E-01  2.22223E-01
#           2.27630E-01  2.33169E-01  2.38842E-01  2.44653E-01  2.50605E-01
#           2.56703E-01  2.62949E-01  2.69346E-01  2.75900E-01  2.82613E-01
#           2.89489E-01  2.96532E-01  3.03747E-01  3.11138E-01  3.18708E-01
#           3.26462E-01  3.34405E-01  3.42542E-01  3.50876E-01  3.59413E-01
#           3.68158E-01  3.77116E-01  3.86291E-01  3.95690E-01  4.05317E-01
#           4.15179E-01  4.25281E-01  4.35628E-01  4.46227E-01  4.57084E-01
#           4.68205E-01  4.79597E-01  4.91266E-01  5.03219E-01  5.15463E-01
#           5.28005E-01  5.40851E-01  5.54011E-01  5.67490E-01  5.81298E-01
#           5.95441E-01  6.09929E-01  6.24769E-01  6.39970E-01  6.55541E-01
#           6.71491E-01  6.87828E-01  7.04564E-01  7.21706E-01  7.39266E-01
#           7.57253E-01  7.75678E-01  7.94551E-01  8.13883E-01  8.33685E-01
#           8.53969E-01  8.74747E-01  8.96030E-01  9.17831E-01  9.40163E-01
#           9.63038E-01  9.86469E-01  1.01047E+00  1.03506E+00  1.06024E+00
#           1.08604E+00  1.11246E+00  1.13953E+00  1.16725E+00  1.19565E+00
#           1.22474E+00  1.25454E+00  1.28507E+00  1.31633E+00  1.34836E+00
#           1.38117E+00  1.41477E+00  1.44920E+00  1.48446E+00  1.52057E+00
#           1.55757E+00  1.59547E+00  1.63429E+00  1.67405E+00  1.71478E+00
#           1.75650E+00  1.79924E+00  1.84302E+00  1.88786E+00  1.93379E+00
#           1.98084E+00  2.02904E+00  2.07841E+00  2.12898E+00  2.18078E+00
#           2.23384E+00  2.28819E+00  2.34386E+00  2.40089E+00  2.45930E+00
#           2.51914E+00  2.58043E+00  2.64322E+00  2.70753E+00  2.77341E+00
#           2.84088E+00  2.91001E+00  2.98081E+00  3.05333E+00  3.12762E+00
#           3.20372E+00  3.28167E+00  3.36152E+00  3.44330E+00  3.52708E+00
#           3.61290E+00  3.70080E+00  3.79085E+00  3.88308E+00  3.97756E+00
#           4.07434E+00  4.17347E+00  4.27501E+00  4.37903E+00  4.48557E+00
#           4.59471E+00  4.70650E+00  4.82102E+00  4.93832E+00  5.05847E+00
#           5.18155E+00  5.30762E+00  5.43676E+00  5.56904E+00  5.70453E+00
#           5.84333E+00  5.98550E+00  6.13114E+00  6.28031E+00  6.43312E+00
#           6.58964E+00  6.74997E+00  6.91420E+00  7.08243E+00  7.25475E+00
#           7.43126E+00  7.61207E+00  7.79728E+00  7.98700E+00  8.18133E+00
#           8.38038E+00  8.58428E+00  8.79315E+00  9.00709E+00  9.22624E+00
#           9.45072E+00  9.68067E+00  9.91620E+00  1.01575E+01  1.04046E+01
#           1.06578E+01  1.09171E+01  1.11827E+01  1.14548E+01  1.17335E+01
#           1.20190E+01  1.23114E+01  1.26109E+01  1.29178E+01  1.32321E+01
#           1.35540E+01  1.38838E+01  1.42216E+01  1.45676E+01  1.49221E+01
#           1.52851E+01  1.56570E+01  1.60380E+01  1.64282E+01  1.68279E+01
#           1.72374E+01  1.76568E+01  1.80864E+01  1.85264E+01  1.89772E+01
#           1.94389E+01  1.99119E+01  2.03963E+01  2.08926E+01  2.14009E+01
#           2.19216E+01  2.24550E+01  2.30014E+01  2.35610E+01  2.41343E+01
#           2.47215E+01  2.53230E+01  2.59391E+01  2.65702E+01  2.72167E+01
#           2.78789E+01  2.85572E+01  2.92520E+01  2.99637E+01  3.06928E+01
#           3.14396E+01  3.22045E+01  3.29881E+01  3.37907E+01  3.46128E+01
#           3.54550E+01  3.63177E+01  3.72013E+01  3.81064E+01  3.90336E+01
#           3.99833E+01  4.09561E+01  4.19526E+01  4.29734E+01  4.40189E+01
#           4.50900E+01  4.61870E+01  4.73108E+01  4.84619E+01  4.96410E+01
#           5.08488E+01  5.20860E+01  5.33533E+01  5.46514E+01  5.59812E+01
#           5.73432E+01  5.87384E+01  6.01676E+01  6.16315E+01  6.31311E+01
#           6.46671E+01  6.62405E+01  6.78522E+01  6.95031E+01  7.11941E+01
#           7.29263E+01  7.47007E+01  7.65182E+01  7.83800E+01  8.02870E+01
#           8.22405E+01  8.42414E+01  8.62911E+01  8.83906E+01  9.05412E+01
#           9.27442E+01  9.50007E+01  9.73122E+01  9.96799E+01  1.02105E+02
#           1.04589E+02  1.07134E+02  1.09741E+02  1.12411E+02  1.15146E+02
#           1.17948E+02  1.20817E+02  1.23757E+02  1.26768E+02  1.29852E+02
#           1.33012E+02  1.36248E+02  1.39563E+02  1.42959E+02  1.46437E+02
#           1.50000E+02
     unit =    2            # unit is [1/cm^2/(MeV/n)/source]
     axis =  eng            # axis of output
     file = detector-20.out  # file name of output for the above axis
   output = f-curr          # surface crossing forward current spectrum
     part =  neutron  
# kf/name :  2112     
#    used :        main (  %)        temp (  %)       total (  %)
#  memory :         414 (  0)           0 (  0)         414 (  0)

#------------------------------------------------------------------------------
#newpage:
#   no. =    1   reg = 119 - 219

x: Energy [MeV/n]
y:  F-Curr [1/cm^2/(MeV/n)/source]         
p: xlog ylog afac(0.8) form(0.9)
h: n            x            y(neutron ),hh0l   n 
#  e-lower      e-upper      neutron     r.err 
   1.0000E-02   1.0243E-02   3.7355E-02  0.0086
   1.0243E-02   1.0493E-02   3.7470E-02  0.0085
   1.0493E-02   1.0748E-02   3.6784E-02  0.0084
   1.0748E-02   1.1009E-02   3.5951E-02  0.0084
   1.1009E-02   1.1277E-02   3.5840E-02  0.0083
   1.1277E-02   1.1552E-02   3.5804E-02  0.0082
   1.1552E-02   1.1833E-02   3.5486E-02  0.0082
   1.1833E-02   1.2121E-02   3.5170E-02  0.0081
   1.2121E-02   1.2415E-02   3.4712E-02  0.0081
   1.2415E-02   1.2718E-02   3.4166E-02  0.0080
   1.2718E-02   1.3027E-02   3.3979E-02  0.0080
   1.3027E-02   1.3344E-02   3.3911E-02  0.0079
   1.3344E-02   1.3669E-02   3.3218E-02  0.0079
   1.3669E-02   1.4001E-02   3.3420E-02  0.0077
   1.4001E-02   1.4342E-02   3.2774E-02  0.0077
   1.4342E-02   1.4691E-02   3.2525E-02  0.0077
   1.4691E-02   1.5048E-02   3.2340E-02  0.0076
   1.5048E-02   1.5414E-02   3.1812E-02  0.0076
   1.5414E-02   1.5789E-02   3.1668E-02  0.0075
   1.5789E-02   1.6174E-02   3.1079E-02  0.0075
   1.6174E-02   1.6567E-02   3.1330E-02  0.0074
   1.6567E-02   1.6970E-02   3.1237E-02  0.0073
   1.6970E-02   1.7383E-02   3.0633E-02  0.0073
   1.7383E-02   1.7806E-02   3.0508E-02  0.0072
   1.7806E-02   1.8239E-02   3.0211E-02  0.0071
   1.8239E-02   1.8683E-02   2.9623E-02  0.0071
   1.8683E-02   1.9138E-02   2.9010E-02  0.0071
   1.9138E-02   1.9603E-02   2.9075E-02  0.0070
   1.9603E-02   2.0080E-02   2.9065E-02  0.0069
   2.0080E-02   2.0569E-02   2.8621E-02  0.0069
   2.0569E-02   2.1069E-02   2.8131E-02  0.0069
   2.1069E-02   2.1582E-02   2.8033E-02  0.0068
   2.1582E-02   2.2107E-02   2.7868E-02  0.0068
   2.2107E-02   2.2645E-02   2.7328E-02  0.0067
   2.2645E-02   2.3196E-02   2.7031E-02  0.0067
   2.3196E-02   2.3760E-02   2.7085E-02  0.0066
   2.3760E-02   2.4338E-02   2.6608E-02  0.0066
   2.4338E-02   2.4930E-02   2.6444E-02  0.0065
   2.4930E-02   2.5537E-02   2.5998E-02  0.0065
   2.5537E-02   2.6158E-02   2.5877E-02  0.0064
   2.6158E-02   2.6795E-02   2.5620E-02  0.0064
   2.6795E-02   2.7447E-02   2.5535E-02  0.0063
   2.7447E-02   2.8114E-02   2.5487E-02  0.0063
   2.8114E-02   2.8799E-02   2.4740E-02  0.0063
   2.8799E-02   2.9499E-02   2.4923E-02  0.0062
   2.9499E-02   3.0217E-02   2.4459E-02  0.0062
   3.0217E-02   3.0952E-02   2.4455E-02  0.0061
   3.0952E-02   3.1705E-02   2.3966E-02  0.0061
   3.1705E-02   3.2477E-02   2.3944E-02  0.0060
   3.2477E-02   3.3267E-02   2.3357E-02  0.0060
   3.3267E-02   3.4076E-02   2.3140E-02  0.0060
   3.4076E-02   3.4905E-02   2.2821E-02  0.0059
   3.4905E-02   3.5755E-02   2.2920E-02  0.0059
   3.5755E-02   3.6625E-02   2.2421E-02  0.0058
   3.6625E-02   3.7516E-02   2.2456E-02  0.0058
   3.7516E-02   3.8428E-02   2.2355E-02  0.0057
   3.8428E-02   3.9363E-02   2.2027E-02  0.0057
   3.9363E-02   4.0321E-02   2.1899E-02  0.0056
   4.0321E-02   4.1302E-02   2.1637E-02  0.0056
   4.1302E-02   4.2307E-02   2.1667E-02  0.0055
   4.2307E-02   4.3337E-02   2.1271E-02  0.0055
   4.3337E-02   4.4391E-02   2.1202E-02  0.0055
   4.4391E-02   4.5471E-02   2.0826E-02  0.0054
   4.5471E-02   4.6577E-02   2.0514E-02  0.0054
   4.6577E-02   4.7711E-02   2.0400E-02  0.0054
   4.7711E-02   4.8871E-02   2.0312E-02  0.0053
   4.8871E-02   5.0061E-02   1.9909E-02  0.0053
   5.0061E-02   5.1279E-02   1.9836E-02  0.0053
   5.1279E-02   5.2526E-02   1.9508E-02  0.0052
   5.2526E-02   5.3804E-02   1.9403E-02  0.0052
   5.3804E-02   5.5113E-02   1.9280E-02  0.0051
   5.5113E-02   5.6454E-02   1.8984E-02  0.0051
   5.6454E-02   5.7828E-02   1.8950E-02  0.0051
   5.7828E-02   5.9235E-02   1.8503E-02  0.0051
   5.9235E-02   6.0676E-02   1.8674E-02  0.0050
   6.0676E-02   6.2152E-02   1.8123E-02  0.0050
   6.2152E-02   6.3665E-02   1.8114E-02  0.0049
   6.3665E-02   6.5214E-02   1.7840E-02  0.0049
   6.5214E-02   6.6800E-02   1.7782E-02  0.0049
   6.6800E-02   6.8426E-02   1.7657E-02  0.0048
   6.8426E-02   7.0090E-02   1.7128E-02  0.0048
   7.0090E-02   7.1796E-02   1.7222E-02  0.0048
   7.1796E-02   7.3543E-02   1.7013E-02  0.0047
   7.3543E-02   7.5332E-02   1.6641E-02  0.0047
   7.5332E-02   7.7165E-02   1.6648E-02  0.0047
   7.7165E-02   7.9042E-02   1.6411E-02  0.0047
   7.9042E-02   8.0965E-02   1.6373E-02  0.0046
   8.0965E-02   8.2935E-02   1.6110E-02  0.0046
   8.2935E-02   8.4953E-02   1.5922E-02  0.0046
   8.4953E-02   8.7020E-02   1.5621E-02  0.0045
   8.7020E-02   8.9138E-02   1.5643E-02  0.0045
   8.9138E-02   9.1306E-02   1.5462E-02  0.0045
   9.1306E-02   9.3528E-02   1.5335E-02  0.0044
   9.3528E-02   9.5804E-02   1.5022E-02  0.0044
   9.5804E-02   9.8134E-02   1.4960E-02  0.0044
   9.8134E-02   1.0052E-01   1.4823E-02  0.0043
   1.0052E-01   1.0297E-01   1.4561E-02  0.0043
   1.0297E-01   1.0547E-01   1.4471E-02  0.0043
   1.0547E-01   1.0804E-01   1.4303E-02  0.0043
   1.0804E-01   1.1067E-01   1.4100E-02  0.0042
   1.1067E-01   1.1336E-01   1.4070E-02  0.0042
   1.1336E-01   1.1612E-01   1.3920E-02  0.0042
   1.1612E-01   1.1894E-01   1.3698E-02  0.0042
   1.1894E-01   1.2184E-01   1.3548E-02  0.0041
   1.2184E-01   1.2480E-01   1.3392E-02  0.0041
   1.2480E-01   1.2784E-01   1.3174E-02  0.0041
   1.2784E-01   1.3095E-01   1.3051E-02  0.0041
   1.3095E-01   1.3414E-01   1.2913E-02  0.0040
   1.3414E-01   1.3740E-01   1.2869E-02  0.0040
   1.3740E-01   1.4074E-01   1.2674E-02  0.0040
   1.4074E-01   1.4417E-01   1.2567E-02  0.0039
   1.4417E-01   1.4767E-01   1.2378E-02  0.0039
   1.4767E-01   1.5127E-01   1.2206E-02  0.0039
   1.5127E-01   1.5495E-01   1.2114E-02  0.0039
   1.5495E-01   1.5872E-01   1.2004E-02  0.0038
   1.5872E-01   1.6258E-01   1.1769E-02  0.0038
   1.6258E-01   1.6654E-01   1.1687E-02  0.0038
   1.6654E-01   1.7059E-01   1.1476E-02  0.0038
   1.7059E-01   1.7474E-01   1.1353E-02  0.0038
   1.7474E-01   1.7899E-01   1.1239E-02  0.0037
   1.7899E-01   1.8334E-01   1.1052E-02  0.0037
   1.8334E-01   1.8781E-01   1.0870E-02  0.0037
   1.8781E-01   1.9237E-01   1.0797E-02  0.0037
   1.9237E-01   1.9706E-01   1.0655E-02  0.0037
   1.9706E-01   2.0185E-01   1.0505E-02  0.0036
   2.0185E-01   2.0676E-01   1.0352E-02  0.0036
   2.0676E-01   2.1179E-01   1.0217E-02  0.0036
   2.1179E-01   2.1694E-01   1.0130E-02  0.0036
   2.1694E-01   2.2222E-01   9.9245E-03  0.0036
   2.2222E-01   2.2763E-01   9.8446E-03  0.0035
   2.2763E-01   2.3317E-01   9.6515E-03  0.0035
   2.3317E-01   2.3884E-01   9.5898E-03  0.0035
   2.3884E-01   2.4465E-01   9.4465E-03  0.0035
   2.4465E-01   2.5061E-01   9.3006E-03  0.0035
   2.5061E-01   2.5670E-01   9.1578E-03  0.0035
   2.5670E-01   2.6295E-01   9.0088E-03  0.0034
   2.6295E-01   2.6935E-01   8.9299E-03  0.0034
   2.6935E-01   2.7590E-01   8.7535E-03  0.0034
   2.7590E-01   2.8261E-01   8.6809E-03  0.0034
   2.8261E-01   2.8949E-01   8.5003E-03  0.0034
   2.8949E-01   2.9653E-01   8.4769E-03  0.0033
   2.9653E-01   3.0375E-01   8.2609E-03  0.0033
   3.0375E-01   3.1114E-01   8.1347E-03  0.0033
   3.1114E-01   3.1871E-01   8.0276E-03  0.0033
   3.1871E-01   3.2646E-01   7.8623E-03  0.0033
   3.2646E-01   3.3441E-01   7.7550E-03  0.0033
   3.3441E-01   3.4254E-01   7.6502E-03  0.0033
   3.4254E-01   3.5088E-01   7.5206E-03  0.0033
   3.5088E-01   3.5941E-01   7.3453E-03  0.0033
   3.5941E-01   3.6816E-01   7.2178E-03  0.0033
   3.6816E-01   3.7712E-01   7.0702E-03  0.0032
   3.7712E-01   3.8629E-01   7.0297E-03  0.0032
   3.8629E-01   3.9569E-01   6.8423E-03  0.0032
   3.9569E-01   4.0532E-01   6.7133E-03  0.0032
   4.0532E-01   4.1518E-01   6.5929E-03  0.0032
   4.1518E-01   4.2528E-01   6.4623E-03  0.0032
   4.2528E-01   4.3563E-01   6.3638E-03  0.0032
   4.3563E-01   4.4623E-01   6.2226E-03  0.0032
   4.4623E-01   4.5708E-01   6.1303E-03  0.0032
   4.5708E-01   4.6821E-01   6.0304E-03  0.0032
   4.6821E-01   4.7960E-01   5.8933E-03  0.0032
   4.7960E-01   4.9127E-01   5.7672E-03  0.0032
   4.9127E-01   5.0322E-01   5.6595E-03  0.0031
   5.0322E-01   5.1546E-01   5.5230E-03  0.0031
   5.1546E-01   5.2800E-01   5.3903E-03  0.0031
   5.2800E-01   5.4085E-01   5.2263E-03  0.0032
   5.4085E-01   5.5401E-01   5.1595E-03  0.0031
   5.5401E-01   5.6749E-01   5.0219E-03  0.0031
   5.6749E-01   5.8130E-01   4.9253E-03  0.0031
   5.8130E-01   5.9544E-01   4.7917E-03  0.0031
   5.9544E-01   6.0993E-01   4.6846E-03  0.0031
   6.0993E-01   6.2477E-01   4.5746E-03  0.0031
   6.2477E-01   6.3997E-01   4.4397E-03  0.0031
   6.3997E-01   6.5554E-01   4.3187E-03  0.0032
   6.5554E-01   6.7149E-01   4.1609E-03  0.0032
   6.7149E-01   6.8783E-01   4.0968E-03  0.0032
   6.8783E-01   7.0456E-01   3.9680E-03  0.0032
   7.0456E-01   7.2171E-01   3.8493E-03  0.0032
   7.2171E-01   7.3927E-01   3.7614E-03  0.0032
   7.3927E-01   7.5725E-01   3.6024E-03  0.0032
   7.5725E-01   7.7568E-01   3.4671E-03  0.0032
   7.7568E-01   7.9455E-01   3.3721E-03  0.0032
   7.9455E-01   8.1388E-01   3.2754E-03  0.0033
   8.1388E-01   8.3368E-01   3.1626E-03  0.0033
   8.3368E-01   8.5397E-01   3.0310E-03  0.0033
   8.5397E-01   8.7475E-01   2.9305E-03  0.0033
   8.7475E-01   8.9603E-01   2.8077E-03  0.0033
   8.9603E-01   9.1783E-01   2.6922E-03  0.0034
   9.1783E-01   9.4016E-01   2.5807E-03  0.0034
   9.4016E-01   9.6304E-01   2.4634E-03  0.0034
   9.6304E-01   9.8647E-01   2.3529E-03  0.0035
   9.8647E-01   1.0105E+00   2.2499E-03  0.0035
   1.0105E+00   1.0351E+00   2.2434E-03  0.0035
   1.0351E+00   1.0602E+00   2.2460E-03  0.0034
   1.0602E+00   1.0860E+00   2.2673E-03  0.0034
   1.0860E+00   1.1125E+00   2.2974E-03  0.0033
   1.1125E+00   1.1395E+00   2.3298E-03  0.0033
   1.1395E+00   1.1673E+00   2.3836E-03  0.0032
   1.1673E+00   1.1957E+00   2.4334E-03  0.0031
   1.1957E+00   1.2247E+00   2.4901E-03  0.0030
   1.2247E+00   1.2545E+00   2.4899E-03  0.0030
   1.2545E+00   1.2851E+00   2.4924E-03  0.0030
   1.2851E+00   1.3163E+00   2.4904E-03  0.0029
   1.3163E+00   1.3484E+00   2.5096E-03  0.0029
   1.3484E+00   1.3812E+00   2.5329E-03  0.0028
   1.3812E+00   1.4148E+00   2.5725E-03  0.0028
   1.4148E+00   1.4492E+00   2.5525E-03  0.0028
   1.4492E+00   1.4845E+00   2.5235E-03  0.0027
   1.4845E+00   1.5206E+00   2.5025E-03  0.0027
   1.5206E+00   1.5576E+00   2.4779E-03  0.0027
   1.5576E+00   1.5955E+00   2.4633E-03  0.0027
   1.5955E+00   1.6343E+00   2.4666E-03  0.0026
   1.6343E+00   1.6741E+00   2.5004E-03  0.0026
   1.6741E+00   1.7148E+00   2.5057E-03  0.0026
   1.7148E+00   1.7565E+00   2.4671E-03  0.0025
   1.7565E+00   1.7992E+00   2.4188E-03  0.0025
   1.7992E+00   1.8430E+00   2.3734E-03  0.0025
   1.8430E+00   1.8879E+00   2.3402E-03  0.0025
   1.8879E+00   1.9338E+00   2.3134E-03  0.0025
   1.9338E+00   1.9808E+00   2.2924E-03  0.0025
   1.9808E+00   2.0290E+00   2.2771E-03  0.0025
   2.0290E+00   2.0784E+00   2.2184E-03  0.0025
   2.0784E+00   2.1290E+00   2.1511E-03  0.0025
   2.1290E+00   2.1808E+00   2.0928E-03  0.0025
   2.1808E+00   2.2338E+00   2.0322E-03  0.0025
   2.2338E+00   2.2882E+00   1.9933E-03  0.0025
   2.2882E+00   2.3439E+00   1.9508E-03  0.0025
   2.3439E+00   2.4009E+00   1.9166E-03  0.0025
   2.4009E+00   2.4593E+00   1.8684E-03  0.0025
   2.4593E+00   2.5191E+00   1.7952E-03  0.0025
   2.5191E+00   2.5804E+00   1.7259E-03  0.0025
   2.5804E+00   2.6432E+00   1.6594E-03  0.0025
   2.6432E+00   2.7075E+00   1.6004E-03  0.0025
   2.7075E+00   2.7734E+00   1.5343E-03  0.0026
   2.7734E+00   2.8409E+00   1.4862E-03  0.0026
   2.8409E+00   2.9100E+00   1.4442E-03  0.0026
   2.9100E+00   2.9808E+00   1.3918E-03  0.0026
   2.9808E+00   3.0533E+00   1.3394E-03  0.0026
   3.0533E+00   3.1276E+00   1.2783E-03  0.0027
   3.1276E+00   3.2037E+00   1.2088E-03  0.0027
   3.2037E+00   3.2817E+00   1.1578E-03  0.0027
   3.2817E+00   3.3615E+00   1.0954E-03  0.0028
   3.3615E+00   3.4433E+00   1.0393E-03  0.0028
   3.4433E+00   3.5271E+00   9.8712E-04  0.0028
   3.5271E+00   3.6129E+00   9.3977E-04  0.0029
   3.6129E+00   3.7008E+00   8.9435E-04  0.0029
   3.7008E+00   3.7908E+00   8.5163E-04  0.0030
   3.7908E+00   3.8831E+00   7.9698E-04  0.0030
   3.8831E+00   3.9776E+00   7.5287E-04  0.0031
   3.9776E+00   4.0743E+00   7.1461E-04  0.0031
   4.0743E+00   4.1735E+00   6.7179E-04  0.0032
   4.1735E+00   4.2750E+00   6.3214E-04  0.0032
   4.2750E+00   4.3790E+00   5.8978E-04  0.0033
   4.3790E+00   4.4856E+00   5.4975E-04  0.0034
   4.4856E+00   4.5947E+00   5.1028E-04  0.0035
   4.5947E+00   4.7065E+00   4.7636E-04  0.0035
   4.7065E+00   4.8210E+00   4.4609E-04  0.0036
   4.8210E+00   4.9383E+00   4.1525E-04  0.0037
   4.9383E+00   5.0585E+00   3.8633E-04  0.0038
   5.0585E+00   5.1815E+00   3.5960E-04  0.0039
   5.1815E+00   5.3076E+00   3.3688E-04  0.0040
   5.3076E+00   5.4368E+00   3.0797E-04  0.0041
   5.4368E+00   5.5690E+00   2.8468E-04  0.0042
   5.5690E+00   5.7045E+00   2.6182E-04  0.0043
   5.7045E+00   5.8433E+00   2.3955E-04  0.0045
   5.8433E+00   5.9855E+00   2.2039E-04  0.0046
   5.9855E+00   6.1311E+00   2.0590E-04  0.0047
   6.1311E+00   6.2803E+00   1.8631E-04  0.0049
   6.2803E+00   6.4331E+00   1.7220E-04  0.0050
   6.4331E+00   6.5896E+00   1.5762E-04  0.0052
   6.5896E+00   6.7500E+00   1.4463E-04  0.0054
   6.7500E+00   6.9142E+00   1.3092E-04  0.0056
   6.9142E+00   7.0824E+00   1.2138E-04  0.0057
   7.0824E+00   7.2548E+00   1.1092E-04  0.0059
   7.2548E+00   7.4313E+00   1.0070E-04  0.0061
   7.4313E+00   7.6121E+00   9.1992E-05  0.0063
   7.6121E+00   7.7973E+00   8.3911E-05  0.0065
   7.7973E+00   7.9870E+00   7.7021E-05  0.0068
   7.9870E+00   8.1813E+00   6.9607E-05  0.0070
   8.1813E+00   8.3804E+00   6.3718E-05  0.0072
   8.3804E+00   8.5843E+00   5.7389E-05  0.0075
   8.5843E+00   8.7931E+00   5.2515E-05  0.0078
   8.7931E+00   9.0071E+00   4.7841E-05  0.0081
   9.0071E+00   9.2262E+00   4.3690E-05  0.0083
   9.2262E+00   9.4507E+00   4.0471E-05  0.0086
   9.4507E+00   9.6807E+00   3.6402E-05  0.0089
   9.6807E+00   9.9162E+00   3.3530E-05  0.0092
   9.9162E+00   1.0157E+01   3.0040E-05  0.0096
   1.0157E+01   1.0405E+01   2.8119E-05  0.0098
   1.0405E+01   1.0658E+01   2.5629E-05  0.0101
   1.0658E+01   1.0917E+01   2.3606E-05  0.0104
   1.0917E+01   1.1183E+01   2.1478E-05  0.0108
   1.1183E+01   1.1455E+01   1.9321E-05  0.0112
   1.1455E+01   1.1733E+01   1.8093E-05  0.0115
   1.1733E+01   1.2019E+01   1.6777E-05  0.0118
   1.2019E+01   1.2311E+01   1.5229E-05  0.0122
   1.2311E+01   1.2611E+01   1.4187E-05  0.0125
   1.2611E+01   1.2918E+01   1.3334E-05  0.0127
   1.2918E+01   1.3232E+01   1.2138E-05  0.0132
   1.3232E+01   1.3554E+01   1.1550E-05  0.0134
   1.3554E+01   1.3884E+01   1.0850E-05  0.0136
   1.3884E+01   1.4222E+01   9.9979E-06  0.0140
   1.4222E+01   1.4568E+01   9.3549E-06  0.0143
   1.4568E+01   1.4922E+01   8.5778E-06  0.0148
   1.4922E+01   1.5285E+01   8.5907E-06  0.0146
   1.5285E+01   1.5657E+01   7.7978E-06  0.0151
   1.5657E+01   1.6038E+01   7.4271E-06  0.0153
   1.6038E+01   1.6428E+01   6.8065E-06  0.0158
   1.6428E+01   1.6828E+01   6.8775E-06  0.0156
   1.6828E+01   1.7237E+01   6.4406E-06  0.0159
   1.7237E+01   1.7657E+01   5.8528E-06  0.0165
   1.7657E+01   1.8086E+01   5.7728E-06  0.0164
   1.8086E+01   1.8526E+01   5.2872E-06  0.0169
   1.8526E+01   1.8977E+01   5.1668E-06  0.0169
   1.8977E+01   1.9439E+01   4.8123E-06  0.0173
   1.9439E+01   1.9912E+01   4.8615E-06  0.0170
   1.9912E+01   2.0396E+01   4.2197E-06  0.0181
   2.0396E+01   2.0893E+01   3.8622E-06  0.0187
   2.0893E+01   2.1401E+01   3.7193E-06  0.0188
   2.1401E+01   2.1922E+01   3.4607E-06  0.0192
   2.1922E+01   2.2455E+01   3.3498E-06  0.0193
   2.2455E+01   2.3001E+01   3.3312E-06  0.0191
   2.3001E+01   2.3561E+01   3.1592E-06  0.0194
   2.3561E+01   2.4134E+01   2.9318E-06  0.0199
   2.4134E+01   2.4721E+01   2.9098E-06  0.0198
   2.4721E+01   2.5323E+01   2.7144E-06  0.0202
   2.5323E+01   2.5939E+01   2.6823E-06  0.0201
   2.5939E+01   2.6570E+01   2.4443E-06  0.0208
   2.6570E+01   2.7217E+01   2.2986E-06  0.0212
   2.7217E+01   2.7879E+01   2.2249E-06  0.0213
   2.7879E+01   2.8557E+01   2.1730E-06  0.0213
   2.8557E+01   2.9252E+01   1.9487E-06  0.0222
   2.9252E+01   2.9964E+01   1.8621E-06  0.0224
   2.9964E+01   3.0693E+01   1.7228E-06  0.0230
   3.0693E+01   3.1440E+01   1.6355E-06  0.0234
   3.1440E+01   3.2205E+01   1.5208E-06  0.0239
   3.2205E+01   3.2988E+01   1.3698E-06  0.0249
   3.2988E+01   3.3791E+01   1.2758E-06  0.0255
   3.3791E+01   3.4613E+01   1.1960E-06  0.0260
   3.4613E+01   3.5455E+01   1.0853E-06  0.0270
   3.5455E+01   3.6318E+01   9.6370E-07  0.0283
   3.6318E+01   3.7201E+01   8.9026E-07  0.0291
   3.7201E+01   3.8106E+01   7.8883E-07  0.0306
   3.8106E+01   3.9034E+01   7.1473E-07  0.0317
   3.9034E+01   3.9983E+01   6.7037E-07  0.0324
   3.9983E+01   4.0956E+01   6.0922E-07  0.0335
   4.0956E+01   4.1953E+01   5.2986E-07  0.0355
   4.1953E+01   4.2973E+01   4.6763E-07  0.0374
   4.2973E+01   4.4019E+01   4.2273E-07  0.0388
   4.4019E+01   4.5090E+01   3.6725E-07  0.0412
   4.5090E+01   4.6187E+01   3.4455E-07  0.0420
   4.6187E+01   4.7311E+01   3.1145E-07  0.0436
   4.7311E+01   4.8462E+01   2.5598E-07  0.0476
   4.8462E+01   4.9641E+01   2.2446E-07  0.0502
   4.9641E+01   5.0849E+01   1.8932E-07  0.0540
   5.0849E+01   5.2086E+01   1.4711E-07  0.0605
   5.2086E+01   5.3353E+01   1.3362E-07  0.0627
   5.3353E+01   5.4651E+01   1.1812E-07  0.0659
   5.4651E+01   5.5981E+01   9.8768E-08  0.0712
   5.5981E+01   5.7343E+01   9.3975E-08  0.0722
   5.7343E+01   5.8738E+01   6.0206E-08  0.0891
   5.8738E+01   6.0168E+01   4.9447E-08  0.0971
   6.0168E+01   6.1632E+01   4.1441E-08  0.1048
   6.1632E+01   6.3131E+01   3.1121E-08  0.1195
   6.3131E+01   6.4667E+01   2.2569E-08  0.1387
   6.4667E+01   6.6240E+01   1.7372E-08  0.1562
   6.6240E+01   6.7852E+01   1.6132E-08  0.1601
   6.7852E+01   6.9503E+01   1.1711E-08  0.1857
   6.9503E+01   7.1194E+01   8.6730E-09  0.2132
   7.1194E+01   7.2926E+01   5.7730E-09  0.2582
   7.2926E+01   7.4701E+01   3.0058E-09  0.3536
   7.4701E+01   7.6518E+01   2.5676E-09  0.3780
   7.6518E+01   7.8380E+01   2.8647E-09  0.3536
   7.8380E+01   8.0287E+01   1.3983E-09  0.5000
   8.0287E+01   8.2240E+01   1.3651E-09  0.5000
   8.2240E+01   8.4241E+01   1.6659E-09  0.4472
   8.4241E+01   8.6291E+01   0.0000E+00  0.0000
   8.6291E+01   8.8391E+01   6.3506E-10  0.7071
   8.8391E+01   9.0541E+01   0.0000E+00  0.0000
   9.0541E+01   9.2744E+01   0.0000E+00  0.0000
   9.2744E+01   9.5001E+01   0.0000E+00  0.0000
   9.5001E+01   9.7312E+01   0.0000E+00  0.0000
   9.7312E+01   9.9680E+01   0.0000E+00  0.0000
   9.9680E+01   1.0211E+02   0.0000E+00  0.0000
   1.0211E+02   1.0459E+02   0.0000E+00  0.0000
   1.0459E+02   1.0713E+02   0.0000E+00  0.0000
   1.0713E+02   1.0974E+02   0.0000E+00  0.0000
   1.0974E+02   1.1241E+02   0.0000E+00  0.0000
   1.1241E+02   1.1515E+02   0.0000E+00  0.0000
   1.1515E+02   1.1795E+02   0.0000E+00  0.0000
   1.1795E+02   1.2082E+02   0.0000E+00  0.0000
   1.2082E+02   1.2376E+02   0.0000E+00  0.0000
   1.2376E+02   1.2677E+02   0.0000E+00  0.0000
   1.2677E+02   1.2985E+02   0.0000E+00  0.0000
   1.2985E+02   1.3301E+02   0.0000E+00  0.0000
   1.3301E+02   1.3625E+02   0.0000E+00  0.0000
   1.3625E+02   1.3956E+02   0.0000E+00  0.0000
   1.3956E+02   1.4296E+02   0.0000E+00  0.0000
   1.4296E+02   1.4644E+02   0.0000E+00  0.0000
   1.4644E+02   1.5000E+02   0.0000E+00  0.0000

#   sum over                 9.1942E-05
'no. =    1   reg = 119 - 219'
msuc: {\huge [t-cross] in region mesh}
msdr: {\it plotted by \ANGEL \version}
msdl: {\it calculated by \PHITS  3.26}
wt: s(0.7)
\vspace{-3}
  region surface crossing
  area  &=&   1.0000E+00 [cm^2]
e:
 
# Information for Restart Calculation
# This calculation was newly started
# istdev =  2 # 1:Batch variance, 2:History variance
# resc2  = 1.50000000000000000E+09 # Total source weight or Total source weight / maxcas
# resc3  = 1.50000000000000000E+09 # Total history number or Total batch number
# maxcas =   500000000 # History / Batch, only used for istdev=1
# bitrseed = 0000010101110101110110100110011001100101000001100111100100101101 # bit data of rseed
