[ T-Cross ]
    title = [t-cross] in region mesh
     mesh =  reg            # mesh type is region-wise
      reg =    1            # number of crossing regions
      non     r-from    r-to       area
      1       111       211        1.000000    
   e-type =    3            # e-mesh is log given by emin, emax and ne
     emin =  1.0000000E-02  # minimum value of e-mesh points
     emax =   150.0000      # maximum value of e-mesh points
#    edel =  2.4039514E-02  # mesh width of e-mesh points
       ne =    400          # number of e-mesh points
#    data = ( e(i), i = 1, ne + 1 )
#           1.00000E-02  1.02433E-02  1.04925E-02  1.07478E-02  1.10093E-02
#           1.12772E-02  1.15516E-02  1.18326E-02  1.21205E-02  1.24154E-02
#           1.27175E-02  1.30269E-02  1.33439E-02  1.36686E-02  1.40011E-02
#           1.43418E-02  1.46907E-02  1.50482E-02  1.54143E-02  1.57894E-02
#           1.61735E-02  1.65670E-02  1.69701E-02  1.73830E-02  1.78060E-02
#           1.82392E-02  1.86830E-02  1.91375E-02  1.96032E-02  2.00801E-02
#           2.05687E-02  2.10692E-02  2.15818E-02  2.21069E-02  2.26448E-02
#           2.31957E-02  2.37601E-02  2.43382E-02  2.49304E-02  2.55369E-02
#           2.61583E-02  2.67947E-02  2.74467E-02  2.81145E-02  2.87985E-02
#           2.94992E-02  3.02169E-02  3.09521E-02  3.17052E-02  3.24766E-02
#           3.32668E-02  3.40762E-02  3.49053E-02  3.57546E-02  3.66246E-02
#           3.75157E-02  3.84284E-02  3.93634E-02  4.03212E-02  4.13022E-02
#           4.23071E-02  4.33365E-02  4.43909E-02  4.54710E-02  4.65773E-02
#           4.77106E-02  4.88714E-02  5.00605E-02  5.12785E-02  5.25262E-02
#           5.38042E-02  5.51133E-02  5.64542E-02  5.78278E-02  5.92348E-02
#           6.06760E-02  6.21523E-02  6.36645E-02  6.52135E-02  6.68002E-02
#           6.84255E-02  7.00904E-02  7.17957E-02  7.35426E-02  7.53319E-02
#           7.71648E-02  7.90423E-02  8.09655E-02  8.29354E-02  8.49533E-02
#           8.70203E-02  8.91376E-02  9.13064E-02  9.35279E-02  9.58035E-02
#           9.81345E-02  1.00522E-01  1.02968E-01  1.05473E-01  1.08040E-01
#           1.10668E-01  1.13361E-01  1.16119E-01  1.18944E-01  1.21838E-01
#           1.24803E-01  1.27839E-01  1.30950E-01  1.34136E-01  1.37399E-01
#           1.40742E-01  1.44167E-01  1.47675E-01  1.51268E-01  1.54948E-01
#           1.58718E-01  1.62580E-01  1.66535E-01  1.70587E-01  1.74738E-01
#           1.78989E-01  1.83344E-01  1.87805E-01  1.92375E-01  1.97055E-01
#           2.01850E-01  2.06761E-01  2.11792E-01  2.16945E-01  2.22223E-01
#           2.27630E-01  2.33169E-01  2.38842E-01  2.44653E-01  2.50605E-01
#           2.56703E-01  2.62949E-01  2.69346E-01  2.75900E-01  2.82613E-01
#           2.89489E-01  2.96532E-01  3.03747E-01  3.11138E-01  3.18708E-01
#           3.26462E-01  3.34405E-01  3.42542E-01  3.50876E-01  3.59413E-01
#           3.68158E-01  3.77116E-01  3.86291E-01  3.95690E-01  4.05317E-01
#           4.15179E-01  4.25281E-01  4.35628E-01  4.46227E-01  4.57084E-01
#           4.68205E-01  4.79597E-01  4.91266E-01  5.03219E-01  5.15463E-01
#           5.28005E-01  5.40851E-01  5.54011E-01  5.67490E-01  5.81298E-01
#           5.95441E-01  6.09929E-01  6.24769E-01  6.39970E-01  6.55541E-01
#           6.71491E-01  6.87828E-01  7.04564E-01  7.21706E-01  7.39266E-01
#           7.57253E-01  7.75678E-01  7.94551E-01  8.13883E-01  8.33685E-01
#           8.53969E-01  8.74747E-01  8.96030E-01  9.17831E-01  9.40163E-01
#           9.63038E-01  9.86469E-01  1.01047E+00  1.03506E+00  1.06024E+00
#           1.08604E+00  1.11246E+00  1.13953E+00  1.16725E+00  1.19565E+00
#           1.22474E+00  1.25454E+00  1.28507E+00  1.31633E+00  1.34836E+00
#           1.38117E+00  1.41477E+00  1.44920E+00  1.48446E+00  1.52057E+00
#           1.55757E+00  1.59547E+00  1.63429E+00  1.67405E+00  1.71478E+00
#           1.75650E+00  1.79924E+00  1.84302E+00  1.88786E+00  1.93379E+00
#           1.98084E+00  2.02904E+00  2.07841E+00  2.12898E+00  2.18078E+00
#           2.23384E+00  2.28819E+00  2.34386E+00  2.40089E+00  2.45930E+00
#           2.51914E+00  2.58043E+00  2.64322E+00  2.70753E+00  2.77341E+00
#           2.84088E+00  2.91001E+00  2.98081E+00  3.05333E+00  3.12762E+00
#           3.20372E+00  3.28167E+00  3.36152E+00  3.44330E+00  3.52708E+00
#           3.61290E+00  3.70080E+00  3.79085E+00  3.88308E+00  3.97756E+00
#           4.07434E+00  4.17347E+00  4.27501E+00  4.37903E+00  4.48557E+00
#           4.59471E+00  4.70650E+00  4.82102E+00  4.93832E+00  5.05847E+00
#           5.18155E+00  5.30762E+00  5.43676E+00  5.56904E+00  5.70453E+00
#           5.84333E+00  5.98550E+00  6.13114E+00  6.28031E+00  6.43312E+00
#           6.58964E+00  6.74997E+00  6.91420E+00  7.08243E+00  7.25475E+00
#           7.43126E+00  7.61207E+00  7.79728E+00  7.98700E+00  8.18133E+00
#           8.38038E+00  8.58428E+00  8.79315E+00  9.00709E+00  9.22624E+00
#           9.45072E+00  9.68067E+00  9.91620E+00  1.01575E+01  1.04046E+01
#           1.06578E+01  1.09171E+01  1.11827E+01  1.14548E+01  1.17335E+01
#           1.20190E+01  1.23114E+01  1.26109E+01  1.29178E+01  1.32321E+01
#           1.35540E+01  1.38838E+01  1.42216E+01  1.45676E+01  1.49221E+01
#           1.52851E+01  1.56570E+01  1.60380E+01  1.64282E+01  1.68279E+01
#           1.72374E+01  1.76568E+01  1.80864E+01  1.85264E+01  1.89772E+01
#           1.94389E+01  1.99119E+01  2.03963E+01  2.08926E+01  2.14009E+01
#           2.19216E+01  2.24550E+01  2.30014E+01  2.35610E+01  2.41343E+01
#           2.47215E+01  2.53230E+01  2.59391E+01  2.65702E+01  2.72167E+01
#           2.78789E+01  2.85572E+01  2.92520E+01  2.99637E+01  3.06928E+01
#           3.14396E+01  3.22045E+01  3.29881E+01  3.37907E+01  3.46128E+01
#           3.54550E+01  3.63177E+01  3.72013E+01  3.81064E+01  3.90336E+01
#           3.99833E+01  4.09561E+01  4.19526E+01  4.29734E+01  4.40189E+01
#           4.50900E+01  4.61870E+01  4.73108E+01  4.84619E+01  4.96410E+01
#           5.08488E+01  5.20860E+01  5.33533E+01  5.46514E+01  5.59812E+01
#           5.73432E+01  5.87384E+01  6.01676E+01  6.16315E+01  6.31311E+01
#           6.46671E+01  6.62405E+01  6.78522E+01  6.95031E+01  7.11941E+01
#           7.29263E+01  7.47007E+01  7.65182E+01  7.83800E+01  8.02870E+01
#           8.22405E+01  8.42414E+01  8.62911E+01  8.83906E+01  9.05412E+01
#           9.27442E+01  9.50007E+01  9.73122E+01  9.96799E+01  1.02105E+02
#           1.04589E+02  1.07134E+02  1.09741E+02  1.12411E+02  1.15146E+02
#           1.17948E+02  1.20817E+02  1.23757E+02  1.26768E+02  1.29852E+02
#           1.33012E+02  1.36248E+02  1.39563E+02  1.42959E+02  1.46437E+02
#           1.50000E+02
     unit =    2            # unit is [1/cm^2/(MeV/n)/source]
     axis =  eng            # axis of output
     file = detector-12.out  # file name of output for the above axis
   output = f-curr          # surface crossing forward current spectrum
     part =  neutron  
# kf/name :  2112     
#    used :        main (  %)        temp (  %)       total (  %)
#  memory :         414 (  0)           0 (  0)         414 (  0)

#------------------------------------------------------------------------------
#newpage:
#   no. =    1   reg = 111 - 211

x: Energy [MeV/n]
y:  F-Curr [1/cm^2/(MeV/n)/source]         
p: xlog ylog afac(0.8) form(0.9)
h: n            x            y(neutron ),hh0l   n 
#  e-lower      e-upper      neutron     r.err 
   1.0000E-02   1.0243E-02   1.6977E-02  0.0127
   1.0243E-02   1.0493E-02   1.6242E-02  0.0128
   1.0493E-02   1.0748E-02   1.6197E-02  0.0127
   1.0748E-02   1.1009E-02   1.6173E-02  0.0126
   1.1009E-02   1.1277E-02   1.6369E-02  0.0123
   1.1277E-02   1.1552E-02   1.5727E-02  0.0124
   1.1552E-02   1.1833E-02   1.5997E-02  0.0122
   1.1833E-02   1.2121E-02   1.5741E-02  0.0121
   1.2121E-02   1.2415E-02   1.5477E-02  0.0121
   1.2415E-02   1.2718E-02   1.5172E-02  0.0121
   1.2718E-02   1.3027E-02   1.5232E-02  0.0119
   1.3027E-02   1.3344E-02   1.4804E-02  0.0119
   1.3344E-02   1.3669E-02   1.5053E-02  0.0117
   1.3669E-02   1.4001E-02   1.4818E-02  0.0116
   1.4001E-02   1.4342E-02   1.4773E-02  0.0115
   1.4342E-02   1.4691E-02   1.4596E-02  0.0114
   1.4691E-02   1.5048E-02   1.4138E-02  0.0115
   1.5048E-02   1.5414E-02   1.4161E-02  0.0113
   1.5414E-02   1.5789E-02   1.4188E-02  0.0112
   1.5789E-02   1.6174E-02   1.4075E-02  0.0111
   1.6174E-02   1.6567E-02   1.3910E-02  0.0110
   1.6567E-02   1.6970E-02   1.3612E-02  0.0110
   1.6970E-02   1.7383E-02   1.3500E-02  0.0109
   1.7383E-02   1.7806E-02   1.3121E-02  0.0110
   1.7806E-02   1.8239E-02   1.3519E-02  0.0107
   1.8239E-02   1.8683E-02   1.3169E-02  0.0107
   1.8683E-02   1.9138E-02   1.2998E-02  0.0106
   1.9138E-02   1.9603E-02   1.3000E-02  0.0105
   1.9603E-02   2.0080E-02   1.3056E-02  0.0103
   2.0080E-02   2.0569E-02   1.2625E-02  0.0104
   2.0569E-02   2.1069E-02   1.2803E-02  0.0102
   2.1069E-02   2.1582E-02   1.2707E-02  0.0101
   2.1582E-02   2.2107E-02   1.2415E-02  0.0101
   2.2107E-02   2.2645E-02   1.2179E-02  0.0101
   2.2645E-02   2.3196E-02   1.2128E-02  0.0100
   2.3196E-02   2.3760E-02   1.1841E-02  0.0100
   2.3760E-02   2.4338E-02   1.1804E-02  0.0099
   2.4338E-02   2.4930E-02   1.1838E-02  0.0098
   2.4930E-02   2.5537E-02   1.1791E-02  0.0097
   2.5537E-02   2.6158E-02   1.1480E-02  0.0097
   2.6158E-02   2.6795E-02   1.1380E-02  0.0096
   2.6795E-02   2.7447E-02   1.1453E-02  0.0095
   2.7447E-02   2.8114E-02   1.1172E-02  0.0095
   2.8114E-02   2.8799E-02   1.1226E-02  0.0093
   2.8799E-02   2.9499E-02   1.0982E-02  0.0093
   2.9499E-02   3.0217E-02   1.0940E-02  0.0092
   3.0217E-02   3.0952E-02   1.0835E-02  0.0091
   3.0952E-02   3.1705E-02   1.0746E-02  0.0091
   3.1705E-02   3.2477E-02   1.0472E-02  0.0091
   3.2477E-02   3.3267E-02   1.0517E-02  0.0090
   3.3267E-02   3.4076E-02   1.0466E-02  0.0089
   3.4076E-02   3.4905E-02   1.0326E-02  0.0088
   3.4905E-02   3.5755E-02   1.0150E-02  0.0088
   3.5755E-02   3.6625E-02   1.0085E-02  0.0087
   3.6625E-02   3.7516E-02   9.9356E-03  0.0087
   3.7516E-02   3.8428E-02   9.9264E-03  0.0086
   3.8428E-02   3.9363E-02   9.6321E-03  0.0086
   3.9363E-02   4.0321E-02   9.5513E-03  0.0085
   4.0321E-02   4.1302E-02   9.6183E-03  0.0084
   4.1302E-02   4.2307E-02   9.6841E-03  0.0083
   4.2307E-02   4.3337E-02   9.4861E-03  0.0083
   4.3337E-02   4.4391E-02   9.5491E-03  0.0081
   4.4391E-02   4.5471E-02   9.2612E-03  0.0082
   4.5471E-02   4.6577E-02   9.0478E-03  0.0082
   4.6577E-02   4.7711E-02   8.9594E-03  0.0081
   4.7711E-02   4.8871E-02   8.9932E-03  0.0080
   4.8871E-02   5.0061E-02   8.8376E-03  0.0080
   5.0061E-02   5.1279E-02   8.8198E-03  0.0079
   5.1279E-02   5.2526E-02   8.5847E-03  0.0079
   5.2526E-02   5.3804E-02   8.5600E-03  0.0078
   5.3804E-02   5.5113E-02   8.4959E-03  0.0077
   5.5113E-02   5.6454E-02   8.3732E-03  0.0077
   5.6454E-02   5.7828E-02   8.3505E-03  0.0076
   5.7828E-02   5.9235E-02   8.2158E-03  0.0076
   5.9235E-02   6.0676E-02   8.1666E-03  0.0075
   6.0676E-02   6.2152E-02   8.0298E-03  0.0075
   6.2152E-02   6.3665E-02   8.0767E-03  0.0074
   6.3665E-02   6.5214E-02   7.8928E-03  0.0074
   6.5214E-02   6.6800E-02   7.9083E-03  0.0073
   6.6800E-02   6.8426E-02   7.7413E-03  0.0073
   6.8426E-02   7.0090E-02   7.7152E-03  0.0072
   7.0090E-02   7.1796E-02   7.5415E-03  0.0072
   7.1796E-02   7.3543E-02   7.5006E-03  0.0071
   7.3543E-02   7.5332E-02   7.5376E-03  0.0070
   7.5332E-02   7.7165E-02   7.3338E-03  0.0070
   7.7165E-02   7.9042E-02   7.2679E-03  0.0070
   7.9042E-02   8.0965E-02   7.2700E-03  0.0069
   8.0965E-02   8.2935E-02   7.1497E-03  0.0069
   8.2935E-02   8.4953E-02   6.9069E-03  0.0069
   8.4953E-02   8.7020E-02   6.9610E-03  0.0068
   8.7020E-02   8.9138E-02   6.9015E-03  0.0068
   8.9138E-02   9.1306E-02   6.8370E-03  0.0067
   9.1306E-02   9.3528E-02   6.7577E-03  0.0067
   9.3528E-02   9.5804E-02   6.6880E-03  0.0066
   9.5804E-02   9.8134E-02   6.5662E-03  0.0066
   9.8134E-02   1.0052E-01   6.5096E-03  0.0066
   1.0052E-01   1.0297E-01   6.4606E-03  0.0065
   1.0297E-01   1.0547E-01   6.3601E-03  0.0065
   1.0547E-01   1.0804E-01   6.3455E-03  0.0064
   1.0804E-01   1.1067E-01   6.2117E-03  0.0064
   1.1067E-01   1.1336E-01   6.1687E-03  0.0063
   1.1336E-01   1.1612E-01   6.1043E-03  0.0063
   1.1612E-01   1.1894E-01   6.1160E-03  0.0062
   1.1894E-01   1.2184E-01   5.9422E-03  0.0062
   1.2184E-01   1.2480E-01   5.9476E-03  0.0061
   1.2480E-01   1.2784E-01   5.8008E-03  0.0062
   1.2784E-01   1.3095E-01   5.8221E-03  0.0061
   1.3095E-01   1.3414E-01   5.7152E-03  0.0061
   1.3414E-01   1.3740E-01   5.6937E-03  0.0060
   1.3740E-01   1.4074E-01   5.6460E-03  0.0059
   1.4074E-01   1.4417E-01   5.4882E-03  0.0060
   1.4417E-01   1.4767E-01   5.4582E-03  0.0059
   1.4767E-01   1.5127E-01   5.3524E-03  0.0059
   1.5127E-01   1.5495E-01   5.3286E-03  0.0058
   1.5495E-01   1.5872E-01   5.2652E-03  0.0058
   1.5872E-01   1.6258E-01   5.1733E-03  0.0058
   1.6258E-01   1.6654E-01   5.1409E-03  0.0057
   1.6654E-01   1.7059E-01   5.0728E-03  0.0057
   1.7059E-01   1.7474E-01   4.9339E-03  0.0057
   1.7474E-01   1.7899E-01   4.9525E-03  0.0056
   1.7899E-01   1.8334E-01   4.8746E-03  0.0056
   1.8334E-01   1.8781E-01   4.8286E-03  0.0056
   1.8781E-01   1.9237E-01   4.7516E-03  0.0055
   1.9237E-01   1.9706E-01   4.6846E-03  0.0055
   1.9706E-01   2.0185E-01   4.6338E-03  0.0055
   2.0185E-01   2.0676E-01   4.5181E-03  0.0055
   2.0676E-01   2.1179E-01   4.5162E-03  0.0054
   2.1179E-01   2.1694E-01   4.4531E-03  0.0054
   2.1694E-01   2.2222E-01   4.3397E-03  0.0054
   2.2222E-01   2.2763E-01   4.3294E-03  0.0053
   2.2763E-01   2.3317E-01   4.2593E-03  0.0053
   2.3317E-01   2.3884E-01   4.1967E-03  0.0053
   2.3884E-01   2.4465E-01   4.1554E-03  0.0053
   2.4465E-01   2.5061E-01   4.0849E-03  0.0052
   2.5061E-01   2.5670E-01   3.9951E-03  0.0052
   2.5670E-01   2.6295E-01   3.9945E-03  0.0052
   2.6295E-01   2.6935E-01   3.8905E-03  0.0052
   2.6935E-01   2.7590E-01   3.8457E-03  0.0051
   2.7590E-01   2.8261E-01   3.8081E-03  0.0051
   2.8261E-01   2.8949E-01   3.7348E-03  0.0051
   2.8949E-01   2.9653E-01   3.6920E-03  0.0051
   2.9653E-01   3.0375E-01   3.6078E-03  0.0051
   3.0375E-01   3.1114E-01   3.5541E-03  0.0050
   3.1114E-01   3.1871E-01   3.4925E-03  0.0050
   3.1871E-01   3.2646E-01   3.4198E-03  0.0050
   3.2646E-01   3.3441E-01   3.3790E-03  0.0050
   3.3441E-01   3.4254E-01   3.3133E-03  0.0050
   3.4254E-01   3.5088E-01   3.2532E-03  0.0050
   3.5088E-01   3.5941E-01   3.1975E-03  0.0049
   3.5941E-01   3.6816E-01   3.1703E-03  0.0049
   3.6816E-01   3.7712E-01   3.0678E-03  0.0049
   3.7712E-01   3.8629E-01   3.0428E-03  0.0049
   3.8629E-01   3.9569E-01   2.9559E-03  0.0049
   3.9569E-01   4.0532E-01   2.9413E-03  0.0049
   4.0532E-01   4.1518E-01   2.9030E-03  0.0048
   4.1518E-01   4.2528E-01   2.8027E-03  0.0049
   4.2528E-01   4.3563E-01   2.7428E-03  0.0048
   4.3563E-01   4.4623E-01   2.6991E-03  0.0048
   4.4623E-01   4.5708E-01   2.6477E-03  0.0048
   4.5708E-01   4.6821E-01   2.5831E-03  0.0048
   4.6821E-01   4.7960E-01   2.5430E-03  0.0048
   4.7960E-01   4.9127E-01   2.4835E-03  0.0048
   4.9127E-01   5.0322E-01   2.4265E-03  0.0048
   5.0322E-01   5.1546E-01   2.3703E-03  0.0048
   5.1546E-01   5.2800E-01   2.3252E-03  0.0048
   5.2800E-01   5.4085E-01   2.2694E-03  0.0048
   5.4085E-01   5.5401E-01   2.2098E-03  0.0048
   5.5401E-01   5.6749E-01   2.1680E-03  0.0048
   5.6749E-01   5.8130E-01   2.1179E-03  0.0048
   5.8130E-01   5.9544E-01   2.0458E-03  0.0048
   5.9544E-01   6.0993E-01   1.9994E-03  0.0048
   6.0993E-01   6.2477E-01   1.9340E-03  0.0048
   6.2477E-01   6.3997E-01   1.8852E-03  0.0048
   6.3997E-01   6.5554E-01   1.8634E-03  0.0048
   6.5554E-01   6.7149E-01   1.8067E-03  0.0048
   6.7149E-01   6.8783E-01   1.7548E-03  0.0048
   6.8783E-01   7.0456E-01   1.6906E-03  0.0049
   7.0456E-01   7.2171E-01   1.6515E-03  0.0049
   7.2171E-01   7.3927E-01   1.6098E-03  0.0049
   7.3927E-01   7.5725E-01   1.5493E-03  0.0049
   7.5725E-01   7.7568E-01   1.5065E-03  0.0049
   7.7568E-01   7.9455E-01   1.4406E-03  0.0050
   7.9455E-01   8.1388E-01   1.4000E-03  0.0050
   8.1388E-01   8.3368E-01   1.3535E-03  0.0050
   8.3368E-01   8.5397E-01   1.2998E-03  0.0050
   8.5397E-01   8.7475E-01   1.2510E-03  0.0051
   8.7475E-01   8.9603E-01   1.2068E-03  0.0051
   8.9603E-01   9.1783E-01   1.1616E-03  0.0051
   9.1783E-01   9.4016E-01   1.1056E-03  0.0052
   9.4016E-01   9.6304E-01   1.0667E-03  0.0052
   9.6304E-01   9.8647E-01   1.0143E-03  0.0053
   9.8647E-01   1.0105E+00   9.7045E-04  0.0054
   1.0105E+00   1.0351E+00   9.7374E-04  0.0053
   1.0351E+00   1.0602E+00   9.7975E-04  0.0052
   1.0602E+00   1.0860E+00   9.8848E-04  0.0051
   1.0860E+00   1.1125E+00   1.0034E-03  0.0050
   1.1125E+00   1.1395E+00   1.0197E-03  0.0049
   1.1395E+00   1.1673E+00   1.0447E-03  0.0048
   1.1673E+00   1.1957E+00   1.0641E-03  0.0047
   1.1957E+00   1.2247E+00   1.0913E-03  0.0046
   1.2247E+00   1.2545E+00   1.0788E-03  0.0046
   1.2545E+00   1.2851E+00   1.0784E-03  0.0045
   1.2851E+00   1.3163E+00   1.0958E-03  0.0044
   1.3163E+00   1.3484E+00   1.1024E-03  0.0043
   1.3484E+00   1.3812E+00   1.1275E-03  0.0042
   1.3812E+00   1.4148E+00   1.1404E-03  0.0042
   1.4148E+00   1.4492E+00   1.1331E-03  0.0041
   1.4492E+00   1.4845E+00   1.1192E-03  0.0041
   1.4845E+00   1.5206E+00   1.1185E-03  0.0041
   1.5206E+00   1.5576E+00   1.1143E-03  0.0040
   1.5576E+00   1.5955E+00   1.1075E-03  0.0040
   1.5955E+00   1.6343E+00   1.1188E-03  0.0039
   1.6343E+00   1.6741E+00   1.1135E-03  0.0039
   1.6741E+00   1.7148E+00   1.1254E-03  0.0038
   1.7148E+00   1.7565E+00   1.1171E-03  0.0038
   1.7565E+00   1.7992E+00   1.0978E-03  0.0038
   1.7992E+00   1.8430E+00   1.0831E-03  0.0038
   1.8430E+00   1.8879E+00   1.0811E-03  0.0037
   1.8879E+00   1.9338E+00   1.0702E-03  0.0037
   1.9338E+00   1.9808E+00   1.0704E-03  0.0036
   1.9808E+00   2.0290E+00   1.0674E-03  0.0036
   2.0290E+00   2.0784E+00   1.0387E-03  0.0036
   2.0784E+00   2.1290E+00   1.0148E-03  0.0036
   2.1290E+00   2.1808E+00   9.8975E-04  0.0036
   2.1808E+00   2.2338E+00   9.6387E-04  0.0036
   2.2338E+00   2.2882E+00   9.4963E-04  0.0036
   2.2882E+00   2.3439E+00   9.4110E-04  0.0036
   2.3439E+00   2.4009E+00   9.3103E-04  0.0035
   2.4009E+00   2.4593E+00   9.1263E-04  0.0035
   2.4593E+00   2.5191E+00   8.8913E-04  0.0035
   2.5191E+00   2.5804E+00   8.6216E-04  0.0036
   2.5804E+00   2.6432E+00   8.3574E-04  0.0036
   2.6432E+00   2.7075E+00   8.0746E-04  0.0036
   2.7075E+00   2.7734E+00   7.8461E-04  0.0036
   2.7734E+00   2.8409E+00   7.6428E-04  0.0036
   2.8409E+00   2.9100E+00   7.5245E-04  0.0036
   2.9100E+00   2.9808E+00   7.4023E-04  0.0036
   2.9808E+00   3.0533E+00   7.2049E-04  0.0036
   3.0533E+00   3.1276E+00   6.9104E-04  0.0036
   3.1276E+00   3.2037E+00   6.6268E-04  0.0036
   3.2037E+00   3.2817E+00   6.4121E-04  0.0037
   3.2817E+00   3.3615E+00   6.1479E-04  0.0037
   3.3615E+00   3.4433E+00   5.9061E-04  0.0037
   3.4433E+00   3.5271E+00   5.7256E-04  0.0037
   3.5271E+00   3.6129E+00   5.5897E-04  0.0037
   3.6129E+00   3.7008E+00   5.3954E-04  0.0038
   3.7008E+00   3.7908E+00   5.1991E-04  0.0038
   3.7908E+00   3.8831E+00   5.0147E-04  0.0038
   3.8831E+00   3.9776E+00   4.8128E-04  0.0038
   3.9776E+00   4.0743E+00   4.6764E-04  0.0038
   4.0743E+00   4.1735E+00   4.4810E-04  0.0039
   4.1735E+00   4.2750E+00   4.2879E-04  0.0039
   4.2750E+00   4.3790E+00   4.1440E-04  0.0039
   4.3790E+00   4.4856E+00   3.9288E-04  0.0040
   4.4856E+00   4.5947E+00   3.7577E-04  0.0040
   4.5947E+00   4.7065E+00   3.6427E-04  0.0040
   4.7065E+00   4.8210E+00   3.5242E-04  0.0041
   4.8210E+00   4.9383E+00   3.3824E-04  0.0041
   4.9383E+00   5.0585E+00   3.2695E-04  0.0041
   5.0585E+00   5.1815E+00   3.1497E-04  0.0041
   5.1815E+00   5.3076E+00   3.0178E-04  0.0042
   5.3076E+00   5.4368E+00   2.8962E-04  0.0042
   5.4368E+00   5.5690E+00   2.7844E-04  0.0043
   5.5690E+00   5.7045E+00   2.6685E-04  0.0043
   5.7045E+00   5.8433E+00   2.5682E-04  0.0043
   5.8433E+00   5.9855E+00   2.4757E-04  0.0044
   5.9855E+00   6.1311E+00   2.4244E-04  0.0043
   6.1311E+00   6.2803E+00   2.3362E-04  0.0044
   6.2803E+00   6.4331E+00   2.2517E-04  0.0044
   6.4331E+00   6.5896E+00   2.1711E-04  0.0044
   6.5896E+00   6.7500E+00   2.1161E-04  0.0044
   6.7500E+00   6.9142E+00   2.0349E-04  0.0045
   6.9142E+00   7.0824E+00   1.9837E-04  0.0045
   7.0824E+00   7.2548E+00   1.9351E-04  0.0045
   7.2548E+00   7.4313E+00   1.8858E-04  0.0045
   7.4313E+00   7.6121E+00   1.8203E-04  0.0045
   7.6121E+00   7.7973E+00   1.7845E-04  0.0045
   7.7973E+00   7.9870E+00   1.7441E-04  0.0045
   7.9870E+00   8.1813E+00   1.7155E-04  0.0045
   8.1813E+00   8.3804E+00   1.6708E-04  0.0045
   8.3804E+00   8.5843E+00   1.6350E-04  0.0045
   8.5843E+00   8.7931E+00   1.6009E-04  0.0045
   8.7931E+00   9.0071E+00   1.5817E-04  0.0044
   9.0071E+00   9.2262E+00   1.5490E-04  0.0044
   9.2262E+00   9.4507E+00   1.5258E-04  0.0044
   9.4507E+00   9.6807E+00   1.5069E-04  0.0044
   9.6807E+00   9.9162E+00   1.4864E-04  0.0044
   9.9162E+00   1.0157E+01   1.4603E-04  0.0043
   1.0157E+01   1.0405E+01   1.4511E-04  0.0043
   1.0405E+01   1.0658E+01   1.4366E-04  0.0043
   1.0658E+01   1.0917E+01   1.4107E-04  0.0043
   1.0917E+01   1.1183E+01   1.3922E-04  0.0042
   1.1183E+01   1.1455E+01   1.3822E-04  0.0042
   1.1455E+01   1.1733E+01   1.3559E-04  0.0042
   1.1733E+01   1.2019E+01   1.3441E-04  0.0042
   1.2019E+01   1.2311E+01   1.3310E-04  0.0041
   1.2311E+01   1.2611E+01   1.3118E-04  0.0041
   1.2611E+01   1.2918E+01   1.2949E-04  0.0041
   1.2918E+01   1.3232E+01   1.2869E-04  0.0041
   1.3232E+01   1.3554E+01   1.2704E-04  0.0040
   1.3554E+01   1.3884E+01   1.2463E-04  0.0040
   1.3884E+01   1.4222E+01   1.2273E-04  0.0040
   1.4222E+01   1.4568E+01   1.2058E-04  0.0040
   1.4568E+01   1.4922E+01   1.1919E-04  0.0040
   1.4922E+01   1.5285E+01   1.1759E-04  0.0040
   1.5285E+01   1.5657E+01   1.1538E-04  0.0039
   1.5657E+01   1.6038E+01   1.1208E-04  0.0040
   1.6038E+01   1.6428E+01   1.1018E-04  0.0039
   1.6428E+01   1.6828E+01   1.0881E-04  0.0039
   1.6828E+01   1.7237E+01   1.0603E-04  0.0039
   1.7237E+01   1.7657E+01   1.0372E-04  0.0039
   1.7657E+01   1.8086E+01   1.0127E-04  0.0039
   1.8086E+01   1.8526E+01   9.7361E-05  0.0039
   1.8526E+01   1.8977E+01   9.5565E-05  0.0039
   1.8977E+01   1.9439E+01   9.3243E-05  0.0039
   1.9439E+01   1.9912E+01   9.0070E-05  0.0040
   1.9912E+01   2.0396E+01   7.8384E-05  0.0042
   2.0396E+01   2.0893E+01   7.7243E-05  0.0042
   2.0893E+01   2.1401E+01   7.4469E-05  0.0042
   2.1401E+01   2.1922E+01   7.2775E-05  0.0042
   2.1922E+01   2.2455E+01   7.0010E-05  0.0042
   2.2455E+01   2.3001E+01   6.7400E-05  0.0043
   2.3001E+01   2.3561E+01   6.5185E-05  0.0043
   2.3561E+01   2.4134E+01   6.3072E-05  0.0043
   2.4134E+01   2.4721E+01   6.0838E-05  0.0043
   2.4721E+01   2.5323E+01   5.8257E-05  0.0044
   2.5323E+01   2.5939E+01   5.6297E-05  0.0044
   2.5939E+01   2.6570E+01   5.3953E-05  0.0044
   2.6570E+01   2.7217E+01   5.1681E-05  0.0045
   2.7217E+01   2.7879E+01   4.9472E-05  0.0045
   2.7879E+01   2.8557E+01   4.7297E-05  0.0046
   2.8557E+01   2.9252E+01   4.4915E-05  0.0046
   2.9252E+01   2.9964E+01   4.3078E-05  0.0047
   2.9964E+01   3.0693E+01   4.1290E-05  0.0047
   3.0693E+01   3.1440E+01   3.9228E-05  0.0048
   3.1440E+01   3.2205E+01   3.7168E-05  0.0048
   3.2205E+01   3.2988E+01   3.5203E-05  0.0049
   3.2988E+01   3.3791E+01   3.3015E-05  0.0050
   3.3791E+01   3.4613E+01   3.1304E-05  0.0051
   3.4613E+01   3.5455E+01   2.9695E-05  0.0052
   3.5455E+01   3.6318E+01   2.7476E-05  0.0053
   3.6318E+01   3.7201E+01   2.5799E-05  0.0054
   3.7201E+01   3.8106E+01   2.4413E-05  0.0055
   3.8106E+01   3.9034E+01   2.2667E-05  0.0056
   3.9034E+01   3.9983E+01   2.1130E-05  0.0058
   3.9983E+01   4.0956E+01   1.9671E-05  0.0059
   4.0956E+01   4.1953E+01   1.8445E-05  0.0060
   4.1953E+01   4.2973E+01   1.6866E-05  0.0062
   4.2973E+01   4.4019E+01   1.5565E-05  0.0064
   4.4019E+01   4.5090E+01   1.4297E-05  0.0066
   4.5090E+01   4.6187E+01   1.2935E-05  0.0069
   4.6187E+01   4.7311E+01   1.1822E-05  0.0071
   4.7311E+01   4.8462E+01   1.0710E-05  0.0074
   4.8462E+01   4.9641E+01   9.6066E-06  0.0077
   4.9641E+01   5.0849E+01   8.6962E-06  0.0080
   5.0849E+01   5.2086E+01   7.8468E-06  0.0083
   5.2086E+01   5.3353E+01   7.0528E-06  0.0086
   5.3353E+01   5.4651E+01   6.3168E-06  0.0090
   5.4651E+01   5.5981E+01   5.4493E-06  0.0096
   5.5981E+01   5.7343E+01   4.8451E-06  0.0101
   5.7343E+01   5.8738E+01   4.1800E-06  0.0107
   5.8738E+01   6.0168E+01   3.6189E-06  0.0114
   6.0168E+01   6.1632E+01   3.1222E-06  0.0121
   6.1632E+01   6.3131E+01   2.6466E-06  0.0130
   6.3131E+01   6.4667E+01   2.2257E-06  0.0140
   6.4667E+01   6.6240E+01   1.9397E-06  0.0148
   6.6240E+01   6.7852E+01   1.6095E-06  0.0160
   6.7852E+01   6.9503E+01   1.3156E-06  0.0175
   6.9503E+01   7.1194E+01   1.0751E-06  0.0191
   7.1194E+01   7.2926E+01   8.7942E-07  0.0209
   7.2926E+01   7.4701E+01   6.8344E-07  0.0234
   7.4701E+01   7.6518E+01   5.7954E-07  0.0252
   7.6518E+01   7.8380E+01   4.6122E-07  0.0279
   7.8380E+01   8.0287E+01   3.3665E-07  0.0322
   8.0287E+01   8.2240E+01   2.6381E-07  0.0360
   8.2240E+01   8.4241E+01   2.0323E-07  0.0405
   8.4241E+01   8.6291E+01   1.3628E-07  0.0489
   8.6291E+01   8.8391E+01   1.0574E-07  0.0548
   8.8391E+01   9.0541E+01   6.8508E-08  0.0673
   9.0541E+01   9.2744E+01   4.5697E-08  0.0814
   9.2744E+01   9.5001E+01   2.5703E-08  0.1072
   9.5001E+01   9.7312E+01   1.6728E-08  0.1313
   9.7312E+01   9.9680E+01   7.6024E-09  0.1925
   9.9680E+01   1.0211E+02   2.1990E-09  0.3536
   1.0211E+02   1.0459E+02   1.3418E-09  0.4472
   1.0459E+02   1.0713E+02   0.0000E+00  0.0000
   1.0713E+02   1.0974E+02   0.0000E+00  0.0000
   1.0974E+02   1.1241E+02   0.0000E+00  0.0000
   1.1241E+02   1.1515E+02   0.0000E+00  0.0000
   1.1515E+02   1.1795E+02   0.0000E+00  0.0000
   1.1795E+02   1.2082E+02   0.0000E+00  0.0000
   1.2082E+02   1.2376E+02   0.0000E+00  0.0000
   1.2376E+02   1.2677E+02   0.0000E+00  0.0000
   1.2677E+02   1.2985E+02   0.0000E+00  0.0000
   1.2985E+02   1.3301E+02   0.0000E+00  0.0000
   1.3301E+02   1.3625E+02   0.0000E+00  0.0000
   1.3625E+02   1.3956E+02   0.0000E+00  0.0000
   1.3956E+02   1.4296E+02   0.0000E+00  0.0000
   1.4296E+02   1.4644E+02   0.0000E+00  0.0000
   1.4644E+02   1.5000E+02   0.0000E+00  0.0000

#   sum over                 6.2639E-05
'no. =    1   reg = 111 - 211'
msuc: {\huge [t-cross] in region mesh}
msdr: {\it plotted by \ANGEL \version}
msdl: {\it calculated by \PHITS  3.26}
wt: s(0.7)
\vspace{-3}
  region surface crossing
  area  &=&   1.0000E+00 [cm^2]
e:
 
# Information for Restart Calculation
# This calculation was newly started
# istdev =  2 # 1:Batch variance, 2:History variance
# resc2  = 1.50000000000000000E+09 # Total source weight or Total source weight / maxcas
# resc3  = 1.50000000000000000E+09 # Total history number or Total batch number
# maxcas =   500000000 # History / Batch, only used for istdev=1
# bitrseed = 0000010101110101110110100110011001100101000001100111100100101101 # bit data of rseed
