0 <--- number of remaining batches 

-------------------------------------------------------------------------------
bat[      10] ncas =     5000000000.
 bitrseed = 0001011101011011011000011100010110101100100111100111010011101011
          cpu time =  16 h.  2 m. 17.97 s.

 date = 2022-08-23
 time = 05h 47m 14s

-------------------------------------------------------------------------------
next initial random seed:
 bitrseed = 0110100000100010111000001110001111001110100100011111101000111001
