[ T-Cross ]
    title = [t-cross] in region mesh
     mesh =  reg            # mesh type is region-wise
      reg =    1            # number of crossing regions
      non     r-from    r-to       area
      1       111       211        1.000000    
   e-type =    3            # e-mesh is log given by emin, emax and ne
     emin =  1.0000000E-02  # minimum value of e-mesh points
     emax =   150.0000      # maximum value of e-mesh points
#    edel =  2.4039514E-02  # mesh width of e-mesh points
       ne =    400          # number of e-mesh points
#    data = ( e(i), i = 1, ne + 1 )
#           1.00000E-02  1.02433E-02  1.04925E-02  1.07478E-02  1.10093E-02
#           1.12772E-02  1.15516E-02  1.18326E-02  1.21205E-02  1.24154E-02
#           1.27175E-02  1.30269E-02  1.33439E-02  1.36686E-02  1.40011E-02
#           1.43418E-02  1.46907E-02  1.50482E-02  1.54143E-02  1.57894E-02
#           1.61735E-02  1.65670E-02  1.69701E-02  1.73830E-02  1.78060E-02
#           1.82392E-02  1.86830E-02  1.91375E-02  1.96032E-02  2.00801E-02
#           2.05687E-02  2.10692E-02  2.15818E-02  2.21069E-02  2.26448E-02
#           2.31957E-02  2.37601E-02  2.43382E-02  2.49304E-02  2.55369E-02
#           2.61583E-02  2.67947E-02  2.74467E-02  2.81145E-02  2.87985E-02
#           2.94992E-02  3.02169E-02  3.09521E-02  3.17052E-02  3.24766E-02
#           3.32668E-02  3.40762E-02  3.49053E-02  3.57546E-02  3.66246E-02
#           3.75157E-02  3.84284E-02  3.93634E-02  4.03212E-02  4.13022E-02
#           4.23071E-02  4.33365E-02  4.43909E-02  4.54710E-02  4.65773E-02
#           4.77106E-02  4.88714E-02  5.00605E-02  5.12785E-02  5.25262E-02
#           5.38042E-02  5.51133E-02  5.64542E-02  5.78278E-02  5.92348E-02
#           6.06760E-02  6.21523E-02  6.36645E-02  6.52135E-02  6.68002E-02
#           6.84255E-02  7.00904E-02  7.17957E-02  7.35426E-02  7.53319E-02
#           7.71648E-02  7.90423E-02  8.09655E-02  8.29354E-02  8.49533E-02
#           8.70203E-02  8.91376E-02  9.13064E-02  9.35279E-02  9.58035E-02
#           9.81345E-02  1.00522E-01  1.02968E-01  1.05473E-01  1.08040E-01
#           1.10668E-01  1.13361E-01  1.16119E-01  1.18944E-01  1.21838E-01
#           1.24803E-01  1.27839E-01  1.30950E-01  1.34136E-01  1.37399E-01
#           1.40742E-01  1.44167E-01  1.47675E-01  1.51268E-01  1.54948E-01
#           1.58718E-01  1.62580E-01  1.66535E-01  1.70587E-01  1.74738E-01
#           1.78989E-01  1.83344E-01  1.87805E-01  1.92375E-01  1.97055E-01
#           2.01850E-01  2.06761E-01  2.11792E-01  2.16945E-01  2.22223E-01
#           2.27630E-01  2.33169E-01  2.38842E-01  2.44653E-01  2.50605E-01
#           2.56703E-01  2.62949E-01  2.69346E-01  2.75900E-01  2.82613E-01
#           2.89489E-01  2.96532E-01  3.03747E-01  3.11138E-01  3.18708E-01
#           3.26462E-01  3.34405E-01  3.42542E-01  3.50876E-01  3.59413E-01
#           3.68158E-01  3.77116E-01  3.86291E-01  3.95690E-01  4.05317E-01
#           4.15179E-01  4.25281E-01  4.35628E-01  4.46227E-01  4.57084E-01
#           4.68205E-01  4.79597E-01  4.91266E-01  5.03219E-01  5.15463E-01
#           5.28005E-01  5.40851E-01  5.54011E-01  5.67490E-01  5.81298E-01
#           5.95441E-01  6.09929E-01  6.24769E-01  6.39970E-01  6.55541E-01
#           6.71491E-01  6.87828E-01  7.04564E-01  7.21706E-01  7.39266E-01
#           7.57253E-01  7.75678E-01  7.94551E-01  8.13883E-01  8.33685E-01
#           8.53969E-01  8.74747E-01  8.96030E-01  9.17831E-01  9.40163E-01
#           9.63038E-01  9.86469E-01  1.01047E+00  1.03506E+00  1.06024E+00
#           1.08604E+00  1.11246E+00  1.13953E+00  1.16725E+00  1.19565E+00
#           1.22474E+00  1.25454E+00  1.28507E+00  1.31633E+00  1.34836E+00
#           1.38117E+00  1.41477E+00  1.44920E+00  1.48446E+00  1.52057E+00
#           1.55757E+00  1.59547E+00  1.63429E+00  1.67405E+00  1.71478E+00
#           1.75650E+00  1.79924E+00  1.84302E+00  1.88786E+00  1.93379E+00
#           1.98084E+00  2.02904E+00  2.07841E+00  2.12898E+00  2.18078E+00
#           2.23384E+00  2.28819E+00  2.34386E+00  2.40089E+00  2.45930E+00
#           2.51914E+00  2.58043E+00  2.64322E+00  2.70753E+00  2.77341E+00
#           2.84088E+00  2.91001E+00  2.98081E+00  3.05333E+00  3.12762E+00
#           3.20372E+00  3.28167E+00  3.36152E+00  3.44330E+00  3.52708E+00
#           3.61290E+00  3.70080E+00  3.79085E+00  3.88308E+00  3.97756E+00
#           4.07434E+00  4.17347E+00  4.27501E+00  4.37903E+00  4.48557E+00
#           4.59471E+00  4.70650E+00  4.82102E+00  4.93832E+00  5.05847E+00
#           5.18155E+00  5.30762E+00  5.43676E+00  5.56904E+00  5.70453E+00
#           5.84333E+00  5.98550E+00  6.13114E+00  6.28031E+00  6.43312E+00
#           6.58964E+00  6.74997E+00  6.91420E+00  7.08243E+00  7.25475E+00
#           7.43126E+00  7.61207E+00  7.79728E+00  7.98700E+00  8.18133E+00
#           8.38038E+00  8.58428E+00  8.79315E+00  9.00709E+00  9.22624E+00
#           9.45072E+00  9.68067E+00  9.91620E+00  1.01575E+01  1.04046E+01
#           1.06578E+01  1.09171E+01  1.11827E+01  1.14548E+01  1.17335E+01
#           1.20190E+01  1.23114E+01  1.26109E+01  1.29178E+01  1.32321E+01
#           1.35540E+01  1.38838E+01  1.42216E+01  1.45676E+01  1.49221E+01
#           1.52851E+01  1.56570E+01  1.60380E+01  1.64282E+01  1.68279E+01
#           1.72374E+01  1.76568E+01  1.80864E+01  1.85264E+01  1.89772E+01
#           1.94389E+01  1.99119E+01  2.03963E+01  2.08926E+01  2.14009E+01
#           2.19216E+01  2.24550E+01  2.30014E+01  2.35610E+01  2.41343E+01
#           2.47215E+01  2.53230E+01  2.59391E+01  2.65702E+01  2.72167E+01
#           2.78789E+01  2.85572E+01  2.92520E+01  2.99637E+01  3.06928E+01
#           3.14396E+01  3.22045E+01  3.29881E+01  3.37907E+01  3.46128E+01
#           3.54550E+01  3.63177E+01  3.72013E+01  3.81064E+01  3.90336E+01
#           3.99833E+01  4.09561E+01  4.19526E+01  4.29734E+01  4.40189E+01
#           4.50900E+01  4.61870E+01  4.73108E+01  4.84619E+01  4.96410E+01
#           5.08488E+01  5.20860E+01  5.33533E+01  5.46514E+01  5.59812E+01
#           5.73432E+01  5.87384E+01  6.01676E+01  6.16315E+01  6.31311E+01
#           6.46671E+01  6.62405E+01  6.78522E+01  6.95031E+01  7.11941E+01
#           7.29263E+01  7.47007E+01  7.65182E+01  7.83800E+01  8.02870E+01
#           8.22405E+01  8.42414E+01  8.62911E+01  8.83906E+01  9.05412E+01
#           9.27442E+01  9.50007E+01  9.73122E+01  9.96799E+01  1.02105E+02
#           1.04589E+02  1.07134E+02  1.09741E+02  1.12411E+02  1.15146E+02
#           1.17948E+02  1.20817E+02  1.23757E+02  1.26768E+02  1.29852E+02
#           1.33012E+02  1.36248E+02  1.39563E+02  1.42959E+02  1.46437E+02
#           1.50000E+02
     unit =    2            # unit is [1/cm^2/(MeV/n)/source]
     axis =  eng            # axis of output
     file = detector-12.out  # file name of output for the above axis
   output = f-curr          # surface crossing forward current spectrum
     part =  neutron  
# kf/name :  2112     
#    used :        main (  %)        temp (  %)       total (  %)
#  memory :         414 (  0)           0 (  0)         414 (  0)

#------------------------------------------------------------------------------
#newpage:
#   no. =    1   reg = 111 - 211

x: Energy [MeV/n]
y:  F-Curr [1/cm^2/(MeV/n)/source]         
p: xlog ylog afac(0.8) form(0.9)
h: n            x            y(neutron ),hh0l   n 
#  e-lower      e-upper      neutron     r.err 
   1.0000E-02   1.0243E-02   6.8778E-05  0.1091
   1.0243E-02   1.0493E-02   8.3068E-05  0.0979
   1.0493E-02   1.0748E-02   5.9107E-05  0.1148
   1.0748E-02   1.1009E-02   7.6670E-05  0.0994
   1.1009E-02   1.1277E-02   7.7009E-05  0.0980
   1.1277E-02   1.1552E-02   7.2318E-05  0.0999
   1.1552E-02   1.1833E-02   9.5834E-05  0.0858
   1.1833E-02   1.2121E-02   6.7608E-05  0.1011
   1.2121E-02   1.2415E-02   6.5557E-05  0.1016
   1.2415E-02   1.2718E-02   6.2491E-05  0.1022
   1.2718E-02   1.3027E-02   5.9489E-05  0.1038
   1.3027E-02   1.3344E-02   6.6386E-05  0.0970
   1.3344E-02   1.3669E-02   5.9053E-05  0.1014
   1.3669E-02   1.4001E-02   5.5547E-05  0.1036
   1.4001E-02   1.4342E-02   5.9537E-05  0.0988
   1.4342E-02   1.4691E-02   6.0496E-05  0.0972
   1.4691E-02   1.5048E-02   6.1016E-05  0.0955
   1.5048E-02   1.5414E-02   5.3391E-05  0.1010
   1.5414E-02   1.5789E-02   5.7218E-05  0.0962
   1.5789E-02   1.6174E-02   5.0945E-05  0.1004
   1.6174E-02   1.6567E-02   5.2119E-05  0.0982
   1.6567E-02   1.6970E-02   5.2373E-05  0.0970
   1.6970E-02   1.7383E-02   5.6503E-05  0.0921
   1.7383E-02   1.7806E-02   5.2500E-05  0.0944
   1.7806E-02   1.8239E-02   5.5248E-05  0.0909
   1.8239E-02   1.8683E-02   5.0222E-05  0.0943
   1.8683E-02   1.9138E-02   5.4998E-05  0.0890
   1.9138E-02   1.9603E-02   4.0432E-05  0.1027
   1.9603E-02   2.0080E-02   5.3786E-05  0.0881
   2.0080E-02   2.0569E-02   4.3572E-05  0.0966
   2.0569E-02   2.1069E-02   3.9141E-05  0.1006
   2.1069E-02   2.1582E-02   3.9978E-05  0.0981
   2.1582E-02   2.2107E-02   3.9740E-05  0.0975
   2.2107E-02   2.2645E-02   4.5678E-05  0.0898
   2.2645E-02   2.3196E-02   3.8930E-05  0.0963
   2.3196E-02   2.3760E-02   4.1338E-05  0.0921
   2.3760E-02   2.4338E-02   3.5400E-05  0.0986
   2.4338E-02   2.4930E-02   3.3852E-05  0.0996
   2.4930E-02   2.5537E-02   3.3415E-05  0.0991
   2.5537E-02   2.6158E-02   3.8045E-05  0.0916
   2.6158E-02   2.6795E-02   3.4545E-05  0.0944
   2.6795E-02   2.7447E-02   3.0581E-05  0.0995
   2.7447E-02   2.8114E-02   3.7411E-05  0.0892
   2.8114E-02   2.8799E-02   2.7768E-05  0.1018
   2.8799E-02   2.9499E-02   3.1030E-05  0.0953
   2.9499E-02   3.0217E-02   2.3813E-05  0.1077
   3.0217E-02   3.0952E-02   3.1967E-05  0.0921
   3.0952E-02   3.1705E-02   2.8965E-05  0.0951
   3.1705E-02   3.2477E-02   3.0480E-05  0.0918
   3.2477E-02   3.3267E-02   2.6380E-05  0.0975
   3.3267E-02   3.4076E-02   3.0370E-05  0.0896
   3.4076E-02   3.4905E-02   2.6659E-05  0.0948
   3.4905E-02   3.5755E-02   2.2868E-05  0.1011
   3.5755E-02   3.6625E-02   2.7790E-05  0.0902
   3.6625E-02   3.7516E-02   2.9264E-05  0.0871
   3.7516E-02   3.8428E-02   2.7009E-05  0.0898
   3.8428E-02   3.9363E-02   2.4230E-05  0.0937
   3.9363E-02   4.0321E-02   2.3107E-05  0.0948
   4.0321E-02   4.1302E-02   2.0880E-05  0.0984
   4.1302E-02   4.2307E-02   2.1944E-05  0.0950
   4.2307E-02   4.3337E-02   2.0328E-05  0.0974
   4.3337E-02   4.4391E-02   1.9932E-05  0.0972
   4.4391E-02   4.5471E-02   2.1214E-05  0.0931
   4.5471E-02   4.6577E-02   2.0510E-05  0.0933
   4.6577E-02   4.7711E-02   1.9666E-05  0.0943
   4.7711E-02   4.8871E-02   2.2325E-05  0.0874
   4.8871E-02   5.0061E-02   2.1591E-05  0.0879
   5.0061E-02   5.1279E-02   2.0395E-05  0.0894
   5.1279E-02   5.2526E-02   2.0412E-05  0.0882
   5.2526E-02   5.3804E-02   1.9293E-05  0.0897
   5.3804E-02   5.5113E-02   1.8071E-05  0.0914
   5.5113E-02   5.6454E-02   1.5701E-05  0.0971
   5.6454E-02   5.7828E-02   1.8222E-05  0.0887
   5.7828E-02   5.9235E-02   1.9815E-05  0.0842
   5.9235E-02   6.0676E-02   1.6847E-05  0.0903
   6.0676E-02   6.2152E-02   1.5993E-05  0.0917
   6.2152E-02   6.3665E-02   1.4810E-05  0.0940
   6.3665E-02   6.5214E-02   1.4803E-05  0.0929
   6.5214E-02   6.6800E-02   1.5869E-05  0.0886
   6.6800E-02   6.8426E-02   1.6178E-05  0.0870
   6.8426E-02   7.0090E-02   1.4511E-05  0.0905
   7.0090E-02   7.1796E-02   1.1621E-05  0.1000
   7.1796E-02   7.3543E-02   1.4648E-05  0.0881
   7.3543E-02   7.5332E-02   1.5654E-05  0.0841
   7.5332E-02   7.7165E-02   1.2763E-05  0.0921
   7.7165E-02   7.9042E-02   1.3963E-05  0.0871
   7.9042E-02   8.0965E-02   1.7894E-05  0.0755
   8.0965E-02   8.2935E-02   1.4460E-05  0.0834
   8.2935E-02   8.4953E-02   1.3366E-05  0.0858
   8.4953E-02   8.7020E-02   1.4029E-05  0.0824
   8.7020E-02   8.9138E-02   1.1941E-05  0.0885
   8.9138E-02   9.1306E-02   1.4929E-05  0.0781
   9.1306E-02   9.3528E-02   1.1909E-05  0.0867
   9.3528E-02   9.5804E-02   1.4226E-05  0.0783
   9.5804E-02   9.8134E-02   1.1564E-05  0.0857
   9.8134E-02   1.0052E-01   1.2582E-05  0.0812
   1.0052E-01   1.0297E-01   1.2923E-05  0.0792
   1.0297E-01   1.0547E-01   1.4456E-05  0.0741
   1.0547E-01   1.0804E-01   1.3797E-05  0.0750
   1.0804E-01   1.1067E-01   1.6331E-05  0.0681
   1.1067E-01   1.1336E-01   1.4372E-05  0.0715
   1.1336E-01   1.1612E-01   1.8227E-05  0.0629
   1.1612E-01   1.1894E-01   1.8642E-05  0.0613
   1.1894E-01   1.2184E-01   1.8992E-05  0.0601
   1.2184E-01   1.2480E-01   1.9908E-05  0.0580
   1.2480E-01   1.2784E-01   1.7222E-05  0.0616
   1.2784E-01   1.3095E-01   2.0227E-05  0.0562
   1.3095E-01   1.3414E-01   2.2908E-05  0.0521
   1.3414E-01   1.3740E-01   2.0507E-05  0.0545
   1.3740E-01   1.4074E-01   2.3935E-05  0.0498
   1.4074E-01   1.4417E-01   2.4714E-05  0.0485
   1.4417E-01   1.4767E-01   2.5945E-05  0.0467
   1.4767E-01   1.5127E-01   2.9181E-05  0.0435
   1.5127E-01   1.5495E-01   2.5402E-05  0.0461
   1.5495E-01   1.5872E-01   2.8812E-05  0.0428
   1.5872E-01   1.6258E-01   2.9916E-05  0.0415
   1.6258E-01   1.6654E-01   3.1997E-05  0.0396
   1.6654E-01   1.7059E-01   3.4490E-05  0.0377
   1.7059E-01   1.7474E-01   3.4333E-05  0.0373
   1.7474E-01   1.7899E-01   3.4072E-05  0.0370
   1.7899E-01   1.8334E-01   4.0512E-05  0.0336
   1.8334E-01   1.8781E-01   4.1793E-05  0.0326
   1.8781E-01   1.9237E-01   4.1509E-05  0.0324
   1.9237E-01   1.9706E-01   4.3089E-05  0.0314
   1.9706E-01   2.0185E-01   4.7010E-05  0.0297
   2.0185E-01   2.0676E-01   4.7356E-05  0.0292
   2.0676E-01   2.1179E-01   4.8747E-05  0.0285
   2.1179E-01   2.1694E-01   5.5708E-05  0.0263
   2.1694E-01   2.2222E-01   5.5750E-05  0.0260
   2.2222E-01   2.2763E-01   5.8329E-05  0.0251
   2.2763E-01   2.3317E-01   5.9217E-05  0.0246
   2.3317E-01   2.3884E-01   6.2938E-05  0.0236
   2.3884E-01   2.4465E-01   6.6383E-05  0.0227
   2.4465E-01   2.5061E-01   6.9835E-05  0.0219
   2.5061E-01   2.5670E-01   7.2165E-05  0.0213
   2.5670E-01   2.6295E-01   7.3554E-05  0.0208
   2.6295E-01   2.6935E-01   7.7746E-05  0.0200
   2.6935E-01   2.7590E-01   8.1178E-05  0.0193
   2.7590E-01   2.8261E-01   8.7413E-05  0.0184
   2.8261E-01   2.8949E-01   8.6604E-05  0.0183
   2.8949E-01   2.9653E-01   8.8864E-05  0.0178
   2.9653E-01   3.0375E-01   9.4617E-05  0.0171
   3.0375E-01   3.1114E-01   1.0114E-04  0.0163
   3.1114E-01   3.1871E-01   1.0241E-04  0.0160
   3.1871E-01   3.2646E-01   1.0514E-04  0.0156
   3.2646E-01   3.3441E-01   1.0945E-04  0.0151
   3.3441E-01   3.4254E-01   1.1248E-04  0.0147
   3.4254E-01   3.5088E-01   1.1607E-04  0.0143
   3.5088E-01   3.5941E-01   1.2515E-04  0.0136
   3.5941E-01   3.6816E-01   1.2712E-04  0.0134
   3.6816E-01   3.7712E-01   1.3066E-04  0.0130
   3.7712E-01   3.8629E-01   1.3601E-04  0.0126
   3.8629E-01   3.9569E-01   1.3710E-04  0.0124
   3.9569E-01   4.0532E-01   1.4450E-04  0.0120
   4.0532E-01   4.1518E-01   1.4884E-04  0.0116
   4.1518E-01   4.2528E-01   1.5115E-04  0.0114
   4.2528E-01   4.3563E-01   1.5678E-04  0.0111
   4.3563E-01   4.4623E-01   1.6146E-04  0.0108
   4.4623E-01   4.5708E-01   1.6265E-04  0.0106
   4.5708E-01   4.6821E-01   1.6674E-04  0.0104
   4.6821E-01   4.7960E-01   1.7084E-04  0.0101
   4.7960E-01   4.9127E-01   1.7170E-04  0.0100
   4.9127E-01   5.0322E-01   1.7746E-04  0.0097
   5.0322E-01   5.1546E-01   1.8423E-04  0.0094
   5.1546E-01   5.2800E-01   1.8614E-04  0.0092
   5.2800E-01   5.4085E-01   1.9138E-04  0.0090
   5.4085E-01   5.5401E-01   1.9401E-04  0.0088
   5.5401E-01   5.6749E-01   1.9654E-04  0.0087
   5.6749E-01   5.8130E-01   1.9907E-04  0.0085
   5.8130E-01   5.9544E-01   2.0101E-04  0.0084
   5.9544E-01   6.0993E-01   2.0267E-04  0.0082
   6.0993E-01   6.2477E-01   2.0554E-04  0.0081
   6.2477E-01   6.3997E-01   2.0708E-04  0.0079
   6.3997E-01   6.5554E-01   2.1163E-04  0.0078
   6.5554E-01   6.7149E-01   2.1086E-04  0.0077
   6.7149E-01   6.8783E-01   2.1290E-04  0.0076
   6.8783E-01   7.0456E-01   2.1354E-04  0.0075
   7.0456E-01   7.2171E-01   2.1628E-04  0.0073
   7.2171E-01   7.3927E-01   2.1945E-04  0.0072
   7.3927E-01   7.5725E-01   2.1976E-04  0.0071
   7.5725E-01   7.7568E-01   2.2108E-04  0.0070
   7.7568E-01   7.9455E-01   2.2093E-04  0.0069
   7.9455E-01   8.1388E-01   2.2269E-04  0.0068
   8.1388E-01   8.3368E-01   2.2005E-04  0.0067
   8.3368E-01   8.5397E-01   2.2289E-04  0.0066
   8.5397E-01   8.7475E-01   2.2242E-04  0.0065
   8.7475E-01   8.9603E-01   2.2142E-04  0.0065
   8.9603E-01   9.1783E-01   2.2376E-04  0.0064
   9.1783E-01   9.4016E-01   2.2306E-04  0.0063
   9.4016E-01   9.6304E-01   2.1843E-04  0.0063
   9.6304E-01   9.8647E-01   2.1783E-04  0.0062
   9.8647E-01   1.0105E+00   2.1575E-04  0.0062
   1.0105E+00   1.0351E+00   2.1434E-04  0.0061
   1.0351E+00   1.0602E+00   2.1192E-04  0.0061
   1.0602E+00   1.0860E+00   2.1099E-04  0.0060
   1.0860E+00   1.1125E+00   2.1285E-04  0.0059
   1.1125E+00   1.1395E+00   2.1116E-04  0.0059
   1.1395E+00   1.1673E+00   2.1474E-04  0.0058
   1.1673E+00   1.1957E+00   2.1344E-04  0.0057
   1.1957E+00   1.2247E+00   2.1592E-04  0.0056
   1.2247E+00   1.2545E+00   2.1587E-04  0.0055
   1.2545E+00   1.2851E+00   2.1464E-04  0.0055
   1.2851E+00   1.3163E+00   2.1474E-04  0.0054
   1.3163E+00   1.3484E+00   2.1782E-04  0.0053
   1.3484E+00   1.3812E+00   2.1518E-04  0.0053
   1.3812E+00   1.4148E+00   2.1661E-04  0.0052
   1.4148E+00   1.4492E+00   2.1722E-04  0.0051
   1.4492E+00   1.4845E+00   2.1730E-04  0.0051
   1.4845E+00   1.5206E+00   2.1366E-04  0.0050
   1.5206E+00   1.5576E+00   2.1334E-04  0.0050
   1.5576E+00   1.5955E+00   2.1043E-04  0.0049
   1.5955E+00   1.6343E+00   2.0923E-04  0.0049
   1.6343E+00   1.6741E+00   2.0809E-04  0.0048
   1.6741E+00   1.7148E+00   2.0507E-04  0.0048
   1.7148E+00   1.7565E+00   2.0247E-04  0.0048
   1.7565E+00   1.7992E+00   1.9425E-04  0.0048
   1.7992E+00   1.8430E+00   1.8039E-04  0.0049
   1.8430E+00   1.8879E+00   1.7186E-04  0.0050
   1.8879E+00   1.9338E+00   1.6819E-04  0.0050
   1.9338E+00   1.9808E+00   1.6369E-04  0.0050
   1.9808E+00   2.0290E+00   1.6245E-04  0.0049
   2.0290E+00   2.0784E+00   1.6117E-04  0.0049
   2.0784E+00   2.1290E+00   1.6151E-04  0.0048
   2.1290E+00   2.1808E+00   1.6472E-04  0.0047
   2.1808E+00   2.2338E+00   1.6529E-04  0.0046
   2.2338E+00   2.2882E+00   1.6235E-04  0.0046
   2.2882E+00   2.3439E+00   1.5597E-04  0.0047
   2.3439E+00   2.4009E+00   1.5330E-04  0.0047
   2.4009E+00   2.4593E+00   1.5165E-04  0.0046
   2.4593E+00   2.5191E+00   1.5012E-04  0.0046
   2.5191E+00   2.5804E+00   1.4684E-04  0.0046
   2.5804E+00   2.6432E+00   1.4521E-04  0.0046
   2.6432E+00   2.7075E+00   1.4271E-04  0.0045
   2.7075E+00   2.7734E+00   1.4112E-04  0.0045
   2.7734E+00   2.8409E+00   1.3714E-04  0.0045
   2.8409E+00   2.9100E+00   1.3557E-04  0.0045
   2.9100E+00   2.9808E+00   1.3382E-04  0.0045
   2.9808E+00   3.0533E+00   1.3143E-04  0.0045
   3.0533E+00   3.1276E+00   1.2912E-04  0.0045
   3.1276E+00   3.2037E+00   1.2686E-04  0.0044
   3.2037E+00   3.2817E+00   1.2441E-04  0.0044
   3.2817E+00   3.3615E+00   1.2330E-04  0.0044
   3.3615E+00   3.4433E+00   1.2143E-04  0.0044
   3.4433E+00   3.5271E+00   1.1954E-04  0.0044
   3.5271E+00   3.6129E+00   1.1811E-04  0.0043
   3.6129E+00   3.7008E+00   1.1532E-04  0.0043
   3.7008E+00   3.7908E+00   1.1315E-04  0.0043
   3.7908E+00   3.8831E+00   1.1025E-04  0.0043
   3.8831E+00   3.9776E+00   1.0834E-04  0.0043
   3.9776E+00   4.0743E+00   1.0616E-04  0.0043
   4.0743E+00   4.1735E+00   1.0303E-04  0.0043
   4.1735E+00   4.2750E+00   1.0109E-04  0.0043
   4.2750E+00   4.3790E+00   9.7981E-05  0.0043
   4.3790E+00   4.4856E+00   9.5623E-05  0.0043
   4.4856E+00   4.5947E+00   9.3237E-05  0.0043
   4.5947E+00   4.7065E+00   9.0867E-05  0.0043
   4.7065E+00   4.8210E+00   8.8639E-05  0.0043
   4.8210E+00   4.9383E+00   8.6856E-05  0.0043
   4.9383E+00   5.0585E+00   8.5475E-05  0.0043
   5.0585E+00   5.1815E+00   8.3423E-05  0.0043
   5.1815E+00   5.3076E+00   8.1372E-05  0.0043
   5.3076E+00   5.4368E+00   8.0206E-05  0.0043
   5.4368E+00   5.5690E+00   7.8166E-05  0.0043
   5.5690E+00   5.7045E+00   7.6477E-05  0.0043
   5.7045E+00   5.8433E+00   7.5303E-05  0.0043
   5.8433E+00   5.9855E+00   7.4311E-05  0.0043
   5.9855E+00   6.1311E+00   7.2666E-05  0.0043
   6.1311E+00   6.2803E+00   7.1736E-05  0.0042
   6.2803E+00   6.4331E+00   7.0541E-05  0.0042
   6.4331E+00   6.5896E+00   6.9413E-05  0.0042
   6.5896E+00   6.7500E+00   6.7839E-05  0.0042
   6.7500E+00   6.9142E+00   6.6564E-05  0.0042
   6.9142E+00   7.0824E+00   6.4657E-05  0.0042
   7.0824E+00   7.2548E+00   6.3404E-05  0.0042
   7.2548E+00   7.4313E+00   6.2254E-05  0.0042
   7.4313E+00   7.6121E+00   6.0706E-05  0.0042
   7.6121E+00   7.7973E+00   5.8558E-05  0.0042
   7.7973E+00   7.9870E+00   5.7100E-05  0.0042
   7.9870E+00   8.1813E+00   5.5512E-05  0.0042
   8.1813E+00   8.3804E+00   5.3461E-05  0.0043
   8.3804E+00   8.5843E+00   5.2008E-05  0.0043
   8.5843E+00   8.7931E+00   4.9811E-05  0.0043
   8.7931E+00   9.0071E+00   4.8455E-05  0.0043
   9.0071E+00   9.2262E+00   4.6543E-05  0.0044
   9.2262E+00   9.4507E+00   4.4360E-05  0.0044
   9.4507E+00   9.6807E+00   4.2241E-05  0.0045
   9.6807E+00   9.9162E+00   4.0491E-05  0.0046
   9.9162E+00   1.0157E+01   4.1127E-05  0.0045
   1.0157E+01   1.0405E+01   3.9768E-05  0.0045
   1.0405E+01   1.0658E+01   3.7857E-05  0.0046
   1.0658E+01   1.0917E+01   3.5922E-05  0.0046
   1.0917E+01   1.1183E+01   3.4003E-05  0.0047
   1.1183E+01   1.1455E+01   3.2543E-05  0.0047
   1.1455E+01   1.1733E+01   3.1014E-05  0.0048
   1.1733E+01   1.2019E+01   2.9412E-05  0.0049
   1.2019E+01   1.2311E+01   2.7993E-05  0.0049
   1.2311E+01   1.2611E+01   2.6401E-05  0.0050
   1.2611E+01   1.2918E+01   2.4766E-05  0.0051
   1.2918E+01   1.3232E+01   2.3728E-05  0.0052
   1.3232E+01   1.3554E+01   2.1857E-05  0.0053
   1.3554E+01   1.3884E+01   2.0793E-05  0.0054
   1.3884E+01   1.4222E+01   1.9241E-05  0.0055
   1.4222E+01   1.4568E+01   1.8022E-05  0.0057
   1.4568E+01   1.4922E+01   1.6686E-05  0.0058
   1.4922E+01   1.5285E+01   1.5518E-05  0.0060
   1.5285E+01   1.5657E+01   1.4146E-05  0.0062
   1.5657E+01   1.6038E+01   1.3095E-05  0.0063
   1.6038E+01   1.6428E+01   1.2176E-05  0.0065
   1.6428E+01   1.6828E+01   1.1066E-05  0.0067
   1.6828E+01   1.7237E+01   9.9785E-06  0.0070
   1.7237E+01   1.7657E+01   9.0733E-06  0.0072
   1.7657E+01   1.8086E+01   8.1366E-06  0.0076
   1.8086E+01   1.8526E+01   7.2831E-06  0.0079
   1.8526E+01   1.8977E+01   6.4434E-06  0.0083
   1.8977E+01   1.9439E+01   5.7965E-06  0.0086
   1.9439E+01   1.9912E+01   5.1403E-06  0.0091
   1.9912E+01   2.0396E+01   4.5291E-06  0.0095
   2.0396E+01   2.0893E+01   3.9592E-06  0.0101
   2.0893E+01   2.1401E+01   3.5469E-06  0.0105
   2.1401E+01   2.1922E+01   2.9068E-06  0.0115
   2.1922E+01   2.2455E+01   2.5562E-06  0.0121
   2.2455E+01   2.3001E+01   2.3509E-06  0.0125
   2.3001E+01   2.3561E+01   3.7070E-06  0.0098
   2.3561E+01   2.4134E+01   7.7693E-06  0.0067
   2.4134E+01   2.4721E+01   1.0366E-05  0.0057
   2.4721E+01   2.5323E+01   1.0354E-05  0.0057
   2.5323E+01   2.5939E+01   1.0148E-05  0.0057
   2.5939E+01   2.6570E+01   9.6229E-06  0.0057
   2.6570E+01   2.7217E+01   9.2406E-06  0.0058
   2.7217E+01   2.7879E+01   8.6082E-06  0.0059
   2.7879E+01   2.8557E+01   8.1086E-06  0.0060
   2.8557E+01   2.9252E+01   7.2407E-06  0.0063
   2.9252E+01   2.9964E+01   4.9053E-06  0.0076
   2.9964E+01   3.0693E+01   1.3012E-06  0.0145
   3.0693E+01   3.1440E+01   2.4077E-07  0.0334
   3.1440E+01   3.2205E+01   6.4841E-08  0.0635
   3.2205E+01   3.2988E+01   7.1469E-09  0.1890
   3.2988E+01   3.3791E+01   1.4951E-09  0.4082
   3.3791E+01   3.4613E+01   7.2979E-10  0.5774
   3.4613E+01   3.5455E+01   2.3749E-10  1.0000
   3.5455E+01   3.6318E+01   0.0000E+00  0.0000
   3.6318E+01   3.7201E+01   2.2634E-10  1.0000
   3.7201E+01   3.8106E+01   2.2096E-10  1.0000
   3.8106E+01   3.9034E+01   0.0000E+00  0.0000
   3.9034E+01   3.9983E+01   0.0000E+00  0.0000
   3.9983E+01   4.0956E+01   0.0000E+00  0.0000
   4.0956E+01   4.1953E+01   0.0000E+00  0.0000
   4.1953E+01   4.2973E+01   0.0000E+00  0.0000
   4.2973E+01   4.4019E+01   0.0000E+00  0.0000
   4.4019E+01   4.5090E+01   0.0000E+00  0.0000
   4.5090E+01   4.6187E+01   0.0000E+00  0.0000
   4.6187E+01   4.7311E+01   0.0000E+00  0.0000
   4.7311E+01   4.8462E+01   0.0000E+00  0.0000
   4.8462E+01   4.9641E+01   0.0000E+00  0.0000
   4.9641E+01   5.0849E+01   0.0000E+00  0.0000
   5.0849E+01   5.2086E+01   0.0000E+00  0.0000
   5.2086E+01   5.3353E+01   0.0000E+00  0.0000
   5.3353E+01   5.4651E+01   0.0000E+00  0.0000
   5.4651E+01   5.5981E+01   0.0000E+00  0.0000
   5.5981E+01   5.7343E+01   0.0000E+00  0.0000
   5.7343E+01   5.8738E+01   0.0000E+00  0.0000
   5.8738E+01   6.0168E+01   0.0000E+00  0.0000
   6.0168E+01   6.1632E+01   0.0000E+00  0.0000
   6.1632E+01   6.3131E+01   0.0000E+00  0.0000
   6.3131E+01   6.4667E+01   0.0000E+00  0.0000
   6.4667E+01   6.6240E+01   0.0000E+00  0.0000
   6.6240E+01   6.7852E+01   0.0000E+00  0.0000
   6.7852E+01   6.9503E+01   0.0000E+00  0.0000
   6.9503E+01   7.1194E+01   0.0000E+00  0.0000
   7.1194E+01   7.2926E+01   0.0000E+00  0.0000
   7.2926E+01   7.4701E+01   0.0000E+00  0.0000
   7.4701E+01   7.6518E+01   0.0000E+00  0.0000
   7.6518E+01   7.8380E+01   0.0000E+00  0.0000
   7.8380E+01   8.0287E+01   0.0000E+00  0.0000
   8.0287E+01   8.2240E+01   0.0000E+00  0.0000
   8.2240E+01   8.4241E+01   0.0000E+00  0.0000
   8.4241E+01   8.6291E+01   0.0000E+00  0.0000
   8.6291E+01   8.8391E+01   0.0000E+00  0.0000
   8.8391E+01   9.0541E+01   0.0000E+00  0.0000
   9.0541E+01   9.2744E+01   0.0000E+00  0.0000
   9.2744E+01   9.5001E+01   0.0000E+00  0.0000
   9.5001E+01   9.7312E+01   0.0000E+00  0.0000
   9.7312E+01   9.9680E+01   0.0000E+00  0.0000
   9.9680E+01   1.0211E+02   0.0000E+00  0.0000
   1.0211E+02   1.0459E+02   0.0000E+00  0.0000
   1.0459E+02   1.0713E+02   0.0000E+00  0.0000
   1.0713E+02   1.0974E+02   0.0000E+00  0.0000
   1.0974E+02   1.1241E+02   0.0000E+00  0.0000
   1.1241E+02   1.1515E+02   0.0000E+00  0.0000
   1.1515E+02   1.1795E+02   0.0000E+00  0.0000
   1.1795E+02   1.2082E+02   0.0000E+00  0.0000
   1.2082E+02   1.2376E+02   0.0000E+00  0.0000
   1.2376E+02   1.2677E+02   0.0000E+00  0.0000
   1.2677E+02   1.2985E+02   0.0000E+00  0.0000
   1.2985E+02   1.3301E+02   0.0000E+00  0.0000
   1.3301E+02   1.3625E+02   0.0000E+00  0.0000
   1.3625E+02   1.3956E+02   0.0000E+00  0.0000
   1.3956E+02   1.4296E+02   0.0000E+00  0.0000
   1.4296E+02   1.4644E+02   0.0000E+00  0.0000
   1.4644E+02   1.5000E+02   0.0000E+00  0.0000

#   sum over                 8.4415E-06
'no. =    1   reg = 111 - 211'
msuc: {\huge [t-cross] in region mesh}
msdr: {\it plotted by \ANGEL \version}
msdl: {\it calculated by \PHITS  3.26}
wt: s(0.7)
\vspace{-3}
  region surface crossing
  area  &=&   1.0000E+00 [cm^2]
e:
 
# Information for Restart Calculation
# This calculation was newly started
# istdev =  2 # 1:Batch variance, 2:History variance
# resc2  = 5.00000000000000000E+09 # Total source weight or Total source weight / maxcas
# resc3  = 5.00000000000000000E+09 # Total history number or Total batch number
# maxcas =   100000000 # History / Batch, only used for istdev=1
# bitrseed = 0110100000100010111000001110001111001110100100011111101000111001 # bit data of rseed
