[ T-Cross ]
    title = [t-cross] in region mesh
     mesh =  reg            # mesh type is region-wise
      reg =    1            # number of crossing regions
      non     r-from    r-to       area
      1       115       215        1.000000    
   e-type =    3            # e-mesh is log given by emin, emax and ne
     emin =  1.0000000E-02  # minimum value of e-mesh points
     emax =   150.0000      # maximum value of e-mesh points
#    edel =  2.4039514E-02  # mesh width of e-mesh points
       ne =    400          # number of e-mesh points
#    data = ( e(i), i = 1, ne + 1 )
#           1.00000E-02  1.02433E-02  1.04925E-02  1.07478E-02  1.10093E-02
#           1.12772E-02  1.15516E-02  1.18326E-02  1.21205E-02  1.24154E-02
#           1.27175E-02  1.30269E-02  1.33439E-02  1.36686E-02  1.40011E-02
#           1.43418E-02  1.46907E-02  1.50482E-02  1.54143E-02  1.57894E-02
#           1.61735E-02  1.65670E-02  1.69701E-02  1.73830E-02  1.78060E-02
#           1.82392E-02  1.86830E-02  1.91375E-02  1.96032E-02  2.00801E-02
#           2.05687E-02  2.10692E-02  2.15818E-02  2.21069E-02  2.26448E-02
#           2.31957E-02  2.37601E-02  2.43382E-02  2.49304E-02  2.55369E-02
#           2.61583E-02  2.67947E-02  2.74467E-02  2.81145E-02  2.87985E-02
#           2.94992E-02  3.02169E-02  3.09521E-02  3.17052E-02  3.24766E-02
#           3.32668E-02  3.40762E-02  3.49053E-02  3.57546E-02  3.66246E-02
#           3.75157E-02  3.84284E-02  3.93634E-02  4.03212E-02  4.13022E-02
#           4.23071E-02  4.33365E-02  4.43909E-02  4.54710E-02  4.65773E-02
#           4.77106E-02  4.88714E-02  5.00605E-02  5.12785E-02  5.25262E-02
#           5.38042E-02  5.51133E-02  5.64542E-02  5.78278E-02  5.92348E-02
#           6.06760E-02  6.21523E-02  6.36645E-02  6.52135E-02  6.68002E-02
#           6.84255E-02  7.00904E-02  7.17957E-02  7.35426E-02  7.53319E-02
#           7.71648E-02  7.90423E-02  8.09655E-02  8.29354E-02  8.49533E-02
#           8.70203E-02  8.91376E-02  9.13064E-02  9.35279E-02  9.58035E-02
#           9.81345E-02  1.00522E-01  1.02968E-01  1.05473E-01  1.08040E-01
#           1.10668E-01  1.13361E-01  1.16119E-01  1.18944E-01  1.21838E-01
#           1.24803E-01  1.27839E-01  1.30950E-01  1.34136E-01  1.37399E-01
#           1.40742E-01  1.44167E-01  1.47675E-01  1.51268E-01  1.54948E-01
#           1.58718E-01  1.62580E-01  1.66535E-01  1.70587E-01  1.74738E-01
#           1.78989E-01  1.83344E-01  1.87805E-01  1.92375E-01  1.97055E-01
#           2.01850E-01  2.06761E-01  2.11792E-01  2.16945E-01  2.22223E-01
#           2.27630E-01  2.33169E-01  2.38842E-01  2.44653E-01  2.50605E-01
#           2.56703E-01  2.62949E-01  2.69346E-01  2.75900E-01  2.82613E-01
#           2.89489E-01  2.96532E-01  3.03747E-01  3.11138E-01  3.18708E-01
#           3.26462E-01  3.34405E-01  3.42542E-01  3.50876E-01  3.59413E-01
#           3.68158E-01  3.77116E-01  3.86291E-01  3.95690E-01  4.05317E-01
#           4.15179E-01  4.25281E-01  4.35628E-01  4.46227E-01  4.57084E-01
#           4.68205E-01  4.79597E-01  4.91266E-01  5.03219E-01  5.15463E-01
#           5.28005E-01  5.40851E-01  5.54011E-01  5.67490E-01  5.81298E-01
#           5.95441E-01  6.09929E-01  6.24769E-01  6.39970E-01  6.55541E-01
#           6.71491E-01  6.87828E-01  7.04564E-01  7.21706E-01  7.39266E-01
#           7.57253E-01  7.75678E-01  7.94551E-01  8.13883E-01  8.33685E-01
#           8.53969E-01  8.74747E-01  8.96030E-01  9.17831E-01  9.40163E-01
#           9.63038E-01  9.86469E-01  1.01047E+00  1.03506E+00  1.06024E+00
#           1.08604E+00  1.11246E+00  1.13953E+00  1.16725E+00  1.19565E+00
#           1.22474E+00  1.25454E+00  1.28507E+00  1.31633E+00  1.34836E+00
#           1.38117E+00  1.41477E+00  1.44920E+00  1.48446E+00  1.52057E+00
#           1.55757E+00  1.59547E+00  1.63429E+00  1.67405E+00  1.71478E+00
#           1.75650E+00  1.79924E+00  1.84302E+00  1.88786E+00  1.93379E+00
#           1.98084E+00  2.02904E+00  2.07841E+00  2.12898E+00  2.18078E+00
#           2.23384E+00  2.28819E+00  2.34386E+00  2.40089E+00  2.45930E+00
#           2.51914E+00  2.58043E+00  2.64322E+00  2.70753E+00  2.77341E+00
#           2.84088E+00  2.91001E+00  2.98081E+00  3.05333E+00  3.12762E+00
#           3.20372E+00  3.28167E+00  3.36152E+00  3.44330E+00  3.52708E+00
#           3.61290E+00  3.70080E+00  3.79085E+00  3.88308E+00  3.97756E+00
#           4.07434E+00  4.17347E+00  4.27501E+00  4.37903E+00  4.48557E+00
#           4.59471E+00  4.70650E+00  4.82102E+00  4.93832E+00  5.05847E+00
#           5.18155E+00  5.30762E+00  5.43676E+00  5.56904E+00  5.70453E+00
#           5.84333E+00  5.98550E+00  6.13114E+00  6.28031E+00  6.43312E+00
#           6.58964E+00  6.74997E+00  6.91420E+00  7.08243E+00  7.25475E+00
#           7.43126E+00  7.61207E+00  7.79728E+00  7.98700E+00  8.18133E+00
#           8.38038E+00  8.58428E+00  8.79315E+00  9.00709E+00  9.22624E+00
#           9.45072E+00  9.68067E+00  9.91620E+00  1.01575E+01  1.04046E+01
#           1.06578E+01  1.09171E+01  1.11827E+01  1.14548E+01  1.17335E+01
#           1.20190E+01  1.23114E+01  1.26109E+01  1.29178E+01  1.32321E+01
#           1.35540E+01  1.38838E+01  1.42216E+01  1.45676E+01  1.49221E+01
#           1.52851E+01  1.56570E+01  1.60380E+01  1.64282E+01  1.68279E+01
#           1.72374E+01  1.76568E+01  1.80864E+01  1.85264E+01  1.89772E+01
#           1.94389E+01  1.99119E+01  2.03963E+01  2.08926E+01  2.14009E+01
#           2.19216E+01  2.24550E+01  2.30014E+01  2.35610E+01  2.41343E+01
#           2.47215E+01  2.53230E+01  2.59391E+01  2.65702E+01  2.72167E+01
#           2.78789E+01  2.85572E+01  2.92520E+01  2.99637E+01  3.06928E+01
#           3.14396E+01  3.22045E+01  3.29881E+01  3.37907E+01  3.46128E+01
#           3.54550E+01  3.63177E+01  3.72013E+01  3.81064E+01  3.90336E+01
#           3.99833E+01  4.09561E+01  4.19526E+01  4.29734E+01  4.40189E+01
#           4.50900E+01  4.61870E+01  4.73108E+01  4.84619E+01  4.96410E+01
#           5.08488E+01  5.20860E+01  5.33533E+01  5.46514E+01  5.59812E+01
#           5.73432E+01  5.87384E+01  6.01676E+01  6.16315E+01  6.31311E+01
#           6.46671E+01  6.62405E+01  6.78522E+01  6.95031E+01  7.11941E+01
#           7.29263E+01  7.47007E+01  7.65182E+01  7.83800E+01  8.02870E+01
#           8.22405E+01  8.42414E+01  8.62911E+01  8.83906E+01  9.05412E+01
#           9.27442E+01  9.50007E+01  9.73122E+01  9.96799E+01  1.02105E+02
#           1.04589E+02  1.07134E+02  1.09741E+02  1.12411E+02  1.15146E+02
#           1.17948E+02  1.20817E+02  1.23757E+02  1.26768E+02  1.29852E+02
#           1.33012E+02  1.36248E+02  1.39563E+02  1.42959E+02  1.46437E+02
#           1.50000E+02
     unit =    2            # unit is [1/cm^2/(MeV/n)/source]
     axis =  eng            # axis of output
     file = detector-16.out  # file name of output for the above axis
   output = f-curr          # surface crossing forward current spectrum
     part =  neutron  
# kf/name :  2112     
#    used :        main (  %)        temp (  %)       total (  %)
#  memory :         414 (  0)           0 (  0)         414 (  0)

#------------------------------------------------------------------------------
#newpage:
#   no. =    1   reg = 115 - 215

x: Energy [MeV/n]
y:  F-Curr [1/cm^2/(MeV/n)/source]         
p: xlog ylog afac(0.8) form(0.9)
h: n            x            y(neutron ),hh0l   n 
#  e-lower      e-upper      neutron     r.err 
   1.0000E-02   1.0243E-02   1.4448E-03  0.0237
   1.0243E-02   1.0493E-02   1.4566E-03  0.0233
   1.0493E-02   1.0748E-02   1.3735E-03  0.0237
   1.0748E-02   1.1009E-02   1.3744E-03  0.0234
   1.1009E-02   1.1277E-02   1.3614E-03  0.0233
   1.1277E-02   1.1552E-02   1.3672E-03  0.0229
   1.1552E-02   1.1833E-02   1.3301E-03  0.0230
   1.1833E-02   1.2121E-02   1.2291E-03  0.0236
   1.2121E-02   1.2415E-02   1.2675E-03  0.0230
   1.2415E-02   1.2718E-02   1.2317E-03  0.0230
   1.2718E-02   1.3027E-02   1.1714E-03  0.0233
   1.3027E-02   1.3344E-02   1.1377E-03  0.0234
   1.3344E-02   1.3669E-02   1.1581E-03  0.0229
   1.3669E-02   1.4001E-02   1.2037E-03  0.0222
   1.4001E-02   1.4342E-02   1.1039E-03  0.0229
   1.4342E-02   1.4691E-02   1.0513E-03  0.0232
   1.4691E-02   1.5048E-02   1.0467E-03  0.0230
   1.5048E-02   1.5414E-02   1.0334E-03  0.0228
   1.5414E-02   1.5789E-02   1.0094E-03  0.0228
   1.5789E-02   1.6174E-02   9.7407E-04  0.0230
   1.6174E-02   1.6567E-02   9.6904E-04  0.0228
   1.6567E-02   1.6970E-02   9.4695E-04  0.0227
   1.6970E-02   1.7383E-02   9.0086E-04  0.0231
   1.7383E-02   1.7806E-02   9.4314E-04  0.0223
   1.7806E-02   1.8239E-02   8.7475E-04  0.0228
   1.8239E-02   1.8683E-02   8.9345E-04  0.0223
   1.8683E-02   1.9138E-02   8.4123E-04  0.0227
   1.9138E-02   1.9603E-02   7.9398E-04  0.0231
   1.9603E-02   2.0080E-02   8.2793E-04  0.0224
   2.0080E-02   2.0569E-02   7.9074E-04  0.0226
   2.0569E-02   2.1069E-02   8.0841E-04  0.0221
   2.1069E-02   2.1582E-02   7.7248E-04  0.0223
   2.1582E-02   2.2107E-02   7.4452E-04  0.0225
   2.2107E-02   2.2645E-02   7.3923E-04  0.0223
   2.2645E-02   2.3196E-02   7.1790E-04  0.0224
   2.3196E-02   2.3760E-02   7.1715E-04  0.0221
   2.3760E-02   2.4338E-02   6.9812E-04  0.0221
   2.4338E-02   2.4930E-02   6.6341E-04  0.0224
   2.4930E-02   2.5537E-02   6.7421E-04  0.0220
   2.5537E-02   2.6158E-02   6.5241E-04  0.0221
   2.6158E-02   2.6795E-02   6.4512E-04  0.0219
   2.6795E-02   2.7447E-02   6.3233E-04  0.0219
   2.7447E-02   2.8114E-02   6.2065E-04  0.0218
   2.8114E-02   2.8799E-02   6.1126E-04  0.0217
   2.8799E-02   2.9499E-02   5.8975E-04  0.0219
   2.9499E-02   3.0217E-02   5.6794E-04  0.0220
   3.0217E-02   3.0952E-02   6.1135E-04  0.0210
   3.0952E-02   3.1705E-02   5.4471E-04  0.0219
   3.1705E-02   3.2477E-02   5.2005E-04  0.0222
   3.2477E-02   3.3267E-02   5.3194E-04  0.0217
   3.3267E-02   3.4076E-02   5.1041E-04  0.0219
   3.4076E-02   3.4905E-02   5.0005E-04  0.0218
   3.4905E-02   3.5755E-02   4.9226E-04  0.0218
   3.5755E-02   3.6625E-02   4.8897E-04  0.0215
   3.6625E-02   3.7516E-02   4.8505E-04  0.0214
   3.7516E-02   3.8428E-02   4.6295E-04  0.0216
   3.8428E-02   3.9363E-02   4.5620E-04  0.0215
   3.9363E-02   4.0321E-02   4.4485E-04  0.0215
   4.0321E-02   4.1302E-02   4.3130E-04  0.0216
   4.1302E-02   4.2307E-02   4.1331E-04  0.0218
   4.2307E-02   4.3337E-02   4.1578E-04  0.0215
   4.3337E-02   4.4391E-02   4.1243E-04  0.0213
   4.4391E-02   4.5471E-02   4.1538E-04  0.0210
   4.5471E-02   4.6577E-02   3.8929E-04  0.0214
   4.6577E-02   4.7711E-02   3.7956E-04  0.0214
   4.7711E-02   4.8871E-02   3.7037E-04  0.0214
   4.8871E-02   5.0061E-02   3.6795E-04  0.0212
   5.0061E-02   5.1279E-02   3.6276E-04  0.0211
   5.1279E-02   5.2526E-02   3.5220E-04  0.0212
   5.2526E-02   5.3804E-02   3.5656E-04  0.0208
   5.3804E-02   5.5113E-02   3.4484E-04  0.0209
   5.5113E-02   5.6454E-02   3.3520E-04  0.0210
   5.6454E-02   5.7828E-02   3.2902E-04  0.0209
   5.7828E-02   5.9235E-02   3.3012E-04  0.0206
   5.9235E-02   6.0676E-02   3.1625E-04  0.0208
   6.0676E-02   6.2152E-02   3.0586E-04  0.0209
   6.2152E-02   6.3665E-02   2.9435E-04  0.0211
   6.3665E-02   6.5214E-02   2.8504E-04  0.0212
   6.5214E-02   6.6800E-02   2.9071E-04  0.0207
   6.6800E-02   6.8426E-02   2.7655E-04  0.0210
   6.8426E-02   7.0090E-02   2.7718E-04  0.0207
   7.0090E-02   7.1796E-02   2.7041E-04  0.0207
   7.1796E-02   7.3543E-02   2.5712E-04  0.0210
   7.3543E-02   7.5332E-02   2.6139E-04  0.0205
   7.5332E-02   7.7165E-02   2.5928E-04  0.0204
   7.7165E-02   7.9042E-02   2.4277E-04  0.0208
   7.9042E-02   8.0965E-02   2.4289E-04  0.0205
   8.0965E-02   8.2935E-02   2.3548E-04  0.0206
   8.2935E-02   8.4953E-02   2.3289E-04  0.0205
   8.4953E-02   8.7020E-02   2.1638E-04  0.0210
   8.7020E-02   8.9138E-02   2.3351E-04  0.0200
   8.9138E-02   9.1306E-02   2.1451E-04  0.0206
   9.1306E-02   9.3528E-02   2.0933E-04  0.0206
   9.3528E-02   9.5804E-02   2.1333E-04  0.0202
   9.5804E-02   9.8134E-02   2.0114E-04  0.0205
   9.8134E-02   1.0052E-01   2.0248E-04  0.0202
   1.0052E-01   1.0297E-01   1.9425E-04  0.0204
   1.0297E-01   1.0547E-01   1.9465E-04  0.0201
   1.0547E-01   1.0804E-01   1.8924E-04  0.0202
   1.0804E-01   1.1067E-01   1.8728E-04  0.0200
   1.1067E-01   1.1336E-01   1.8304E-04  0.0200
   1.1336E-01   1.1612E-01   1.7637E-04  0.0202
   1.1612E-01   1.1894E-01   1.7156E-04  0.0202
   1.1894E-01   1.2184E-01   1.7639E-04  0.0197
   1.2184E-01   1.2480E-01   1.6353E-04  0.0202
   1.2480E-01   1.2784E-01   1.5775E-04  0.0203
   1.2784E-01   1.3095E-01   1.6581E-04  0.0196
   1.3095E-01   1.3414E-01   1.5791E-04  0.0198
   1.3414E-01   1.3740E-01   1.5718E-04  0.0196
   1.3740E-01   1.4074E-01   1.5004E-04  0.0198
   1.4074E-01   1.4417E-01   1.4823E-04  0.0197
   1.4417E-01   1.4767E-01   1.4176E-04  0.0199
   1.4767E-01   1.5127E-01   1.4347E-04  0.0196
   1.5127E-01   1.5495E-01   1.4293E-04  0.0194
   1.5495E-01   1.5872E-01   1.3247E-04  0.0199
   1.5872E-01   1.6258E-01   1.3485E-04  0.0195
   1.6258E-01   1.6654E-01   1.3207E-04  0.0195
   1.6654E-01   1.7059E-01   1.2613E-04  0.0197
   1.7059E-01   1.7474E-01   1.2885E-04  0.0192
   1.7474E-01   1.7899E-01   1.2436E-04  0.0193
   1.7899E-01   1.8334E-01   1.1792E-04  0.0196
   1.8334E-01   1.8781E-01   1.1923E-04  0.0193
   1.8781E-01   1.9237E-01   1.1900E-04  0.0191
   1.9237E-01   1.9706E-01   1.1653E-04  0.0190
   1.9706E-01   2.0185E-01   1.1616E-04  0.0188
   2.0185E-01   2.0676E-01   1.1579E-04  0.0186
   2.0676E-01   2.1179E-01   1.2335E-04  0.0178
   2.1179E-01   2.1694E-01   1.2633E-04  0.0174
   2.1694E-01   2.2222E-01   1.2608E-04  0.0172
   2.2222E-01   2.2763E-01   1.3696E-04  0.0163
   2.2763E-01   2.3317E-01   1.3956E-04  0.0160
   2.3317E-01   2.3884E-01   1.4940E-04  0.0153
   2.3884E-01   2.4465E-01   1.5819E-04  0.0146
   2.4465E-01   2.5061E-01   1.6113E-04  0.0143
   2.5061E-01   2.5670E-01   1.6245E-04  0.0141
   2.5670E-01   2.6295E-01   1.6378E-04  0.0139
   2.6295E-01   2.6935E-01   1.7062E-04  0.0134
   2.6935E-01   2.7590E-01   1.7978E-04  0.0129
   2.7590E-01   2.8261E-01   1.9230E-04  0.0124
   2.8261E-01   2.8949E-01   1.9107E-04  0.0122
   2.8949E-01   2.9653E-01   1.9814E-04  0.0119
   2.9653E-01   3.0375E-01   2.0881E-04  0.0114
   3.0375E-01   3.1114E-01   2.1485E-04  0.0111
   3.1114E-01   3.1871E-01   2.1768E-04  0.0109
   3.1871E-01   3.2646E-01   2.2852E-04  0.0105
   3.2646E-01   3.3441E-01   2.3784E-04  0.0102
   3.3441E-01   3.4254E-01   2.4700E-04  0.0099
   3.4254E-01   3.5088E-01   2.5267E-04  0.0097
   3.5088E-01   3.5941E-01   2.5907E-04  0.0094
   3.5941E-01   3.6816E-01   2.6561E-04  0.0092
   3.6816E-01   3.7712E-01   2.7607E-04  0.0089
   3.7712E-01   3.8629E-01   2.8630E-04  0.0087
   3.8629E-01   3.9569E-01   2.9487E-04  0.0084
   3.9569E-01   4.0532E-01   3.0514E-04  0.0082
   4.0532E-01   4.1518E-01   3.1489E-04  0.0080
   4.1518E-01   4.2528E-01   3.2415E-04  0.0078
   4.2528E-01   4.3563E-01   3.3564E-04  0.0075
   4.3563E-01   4.4623E-01   3.4666E-04  0.0073
   4.4623E-01   4.5708E-01   3.5376E-04  0.0072
   4.5708E-01   4.6821E-01   3.6500E-04  0.0070
   4.6821E-01   4.7960E-01   3.7618E-04  0.0068
   4.7960E-01   4.9127E-01   3.8885E-04  0.0066
   4.9127E-01   5.0322E-01   4.0350E-04  0.0064
   5.0322E-01   5.1546E-01   4.1199E-04  0.0062
   5.1546E-01   5.2800E-01   4.1845E-04  0.0061
   5.2800E-01   5.4085E-01   4.3023E-04  0.0060
   5.4085E-01   5.5401E-01   4.4263E-04  0.0058
   5.5401E-01   5.6749E-01   4.5255E-04  0.0057
   5.6749E-01   5.8130E-01   4.6821E-04  0.0055
   5.8130E-01   5.9544E-01   4.7799E-04  0.0054
   5.9544E-01   6.0993E-01   4.9506E-04  0.0052
   6.0993E-01   6.2477E-01   5.0123E-04  0.0051
   6.2477E-01   6.3997E-01   5.1483E-04  0.0050
   6.3997E-01   6.5554E-01   5.2521E-04  0.0049
   6.5554E-01   6.7149E-01   5.3698E-04  0.0048
   6.7149E-01   6.8783E-01   5.4786E-04  0.0047
   6.8783E-01   7.0456E-01   5.6263E-04  0.0046
   7.0456E-01   7.2171E-01   5.7264E-04  0.0045
   7.2171E-01   7.3927E-01   5.8313E-04  0.0044
   7.3927E-01   7.5725E-01   6.0209E-04  0.0043
   7.5725E-01   7.7568E-01   6.0978E-04  0.0042
   7.7568E-01   7.9455E-01   6.1893E-04  0.0041
   7.9455E-01   8.1388E-01   6.3932E-04  0.0040
   8.1388E-01   8.3368E-01   6.4583E-04  0.0039
   8.3368E-01   8.5397E-01   6.6442E-04  0.0038
   8.5397E-01   8.7475E-01   6.6956E-04  0.0038
   8.7475E-01   8.9603E-01   6.8633E-04  0.0037
   8.9603E-01   9.1783E-01   6.9918E-04  0.0036
   9.1783E-01   9.4016E-01   7.1314E-04  0.0035
   9.4016E-01   9.6304E-01   7.2051E-04  0.0035
   9.6304E-01   9.8647E-01   7.2983E-04  0.0034
   9.8647E-01   1.0105E+00   7.4285E-04  0.0033
   1.0105E+00   1.0351E+00   7.4359E-04  0.0033
   1.0351E+00   1.0602E+00   7.4047E-04  0.0032
   1.0602E+00   1.0860E+00   7.4782E-04  0.0032
   1.0860E+00   1.1125E+00   7.5151E-04  0.0031
   1.1125E+00   1.1395E+00   7.5886E-04  0.0031
   1.1395E+00   1.1673E+00   7.6632E-04  0.0030
   1.1673E+00   1.1957E+00   7.7534E-04  0.0030
   1.1957E+00   1.2247E+00   7.8273E-04  0.0029
   1.2247E+00   1.2545E+00   7.7858E-04  0.0029
   1.2545E+00   1.2851E+00   7.7668E-04  0.0029
   1.2851E+00   1.3163E+00   7.8072E-04  0.0028
   1.3163E+00   1.3484E+00   7.7886E-04  0.0028
   1.3484E+00   1.3812E+00   7.8806E-04  0.0028
   1.3812E+00   1.4148E+00   7.9676E-04  0.0027
   1.4148E+00   1.4492E+00   8.0379E-04  0.0027
   1.4492E+00   1.4845E+00   8.0488E-04  0.0026
   1.4845E+00   1.5206E+00   8.0936E-04  0.0026
   1.5206E+00   1.5576E+00   7.9845E-04  0.0026
   1.5576E+00   1.5955E+00   7.9068E-04  0.0026
   1.5955E+00   1.6343E+00   7.7775E-04  0.0025
   1.6343E+00   1.6741E+00   7.6868E-04  0.0025
   1.6741E+00   1.7148E+00   7.6095E-04  0.0025
   1.7148E+00   1.7565E+00   7.5489E-04  0.0025
   1.7565E+00   1.7992E+00   7.5299E-04  0.0025
   1.7992E+00   1.8430E+00   7.4998E-04  0.0024
   1.8430E+00   1.8879E+00   7.4484E-04  0.0024
   1.8879E+00   1.9338E+00   7.3388E-04  0.0024
   1.9338E+00   1.9808E+00   7.3006E-04  0.0024
   1.9808E+00   2.0290E+00   7.2783E-04  0.0024
   2.0290E+00   2.0784E+00   7.1348E-04  0.0024
   2.0784E+00   2.1290E+00   6.9798E-04  0.0024
   2.1290E+00   2.1808E+00   6.8726E-04  0.0023
   2.1808E+00   2.2338E+00   6.7204E-04  0.0023
   2.2338E+00   2.2882E+00   6.5920E-04  0.0023
   2.2882E+00   2.3439E+00   6.4931E-04  0.0023
   2.3439E+00   2.4009E+00   6.3972E-04  0.0023
   2.4009E+00   2.4593E+00   6.3464E-04  0.0023
   2.4593E+00   2.5191E+00   6.2725E-04  0.0023
   2.5191E+00   2.5804E+00   6.1688E-04  0.0023
   2.5804E+00   2.6432E+00   6.0733E-04  0.0023
   2.6432E+00   2.7075E+00   5.8677E-04  0.0023
   2.7075E+00   2.7734E+00   5.7637E-04  0.0023
   2.7734E+00   2.8409E+00   5.6241E-04  0.0023
   2.8409E+00   2.9100E+00   5.5022E-04  0.0023
   2.9100E+00   2.9808E+00   5.3918E-04  0.0023
   2.9808E+00   3.0533E+00   5.3402E-04  0.0022
   3.0533E+00   3.1276E+00   5.1984E-04  0.0023
   3.1276E+00   3.2037E+00   5.0566E-04  0.0023
   3.2037E+00   3.2817E+00   4.9305E-04  0.0023
   3.2817E+00   3.3615E+00   4.7985E-04  0.0023
   3.3615E+00   3.4433E+00   4.6854E-04  0.0023
   3.4433E+00   3.5271E+00   4.5812E-04  0.0023
   3.5271E+00   3.6129E+00   4.4963E-04  0.0023
   3.6129E+00   3.7008E+00   4.3611E-04  0.0023
   3.7008E+00   3.7908E+00   4.2362E-04  0.0023
   3.7908E+00   3.8831E+00   4.1251E-04  0.0023
   3.8831E+00   3.9776E+00   4.0357E-04  0.0023
   3.9776E+00   4.0743E+00   3.9779E-04  0.0023
   4.0743E+00   4.1735E+00   3.8636E-04  0.0023
   4.1735E+00   4.2750E+00   3.7584E-04  0.0023
   4.2750E+00   4.3790E+00   3.6871E-04  0.0023
   4.3790E+00   4.4856E+00   3.6099E-04  0.0023
   4.4856E+00   4.5947E+00   3.5640E-04  0.0022
   4.5947E+00   4.7065E+00   3.4455E-04  0.0023
   4.7065E+00   4.8210E+00   3.3773E-04  0.0023
   4.8210E+00   4.9383E+00   3.3293E-04  0.0022
   4.9383E+00   5.0585E+00   3.2594E-04  0.0022
   5.0585E+00   5.1815E+00   3.2301E-04  0.0022
   5.1815E+00   5.3076E+00   3.1370E-04  0.0022
   5.3076E+00   5.4368E+00   3.0664E-04  0.0022
   5.4368E+00   5.5690E+00   2.9730E-04  0.0022
   5.5690E+00   5.7045E+00   2.8812E-04  0.0022
   5.7045E+00   5.8433E+00   2.8026E-04  0.0022
   5.8433E+00   5.9855E+00   2.7293E-04  0.0023
   5.9855E+00   6.1311E+00   2.6533E-04  0.0023
   6.1311E+00   6.2803E+00   2.5737E-04  0.0023
   6.2803E+00   6.4331E+00   2.4964E-04  0.0023
   6.4331E+00   6.5896E+00   2.4127E-04  0.0023
   6.5896E+00   6.7500E+00   2.3387E-04  0.0023
   6.7500E+00   6.9142E+00   2.2726E-04  0.0023
   6.9142E+00   7.0824E+00   2.2026E-04  0.0023
   7.0824E+00   7.2548E+00   2.1307E-04  0.0023
   7.2548E+00   7.4313E+00   2.0717E-04  0.0023
   7.4313E+00   7.6121E+00   2.0058E-04  0.0023
   7.6121E+00   7.7973E+00   1.9422E-04  0.0023
   7.7973E+00   7.9870E+00   1.8738E-04  0.0024
   7.9870E+00   8.1813E+00   1.8177E-04  0.0024
   8.1813E+00   8.3804E+00   1.7598E-04  0.0024
   8.3804E+00   8.5843E+00   1.7045E-04  0.0024
   8.5843E+00   8.7931E+00   1.6421E-04  0.0024
   8.7931E+00   9.0071E+00   1.5974E-04  0.0024
   9.0071E+00   9.2262E+00   1.5370E-04  0.0024
   9.2262E+00   9.4507E+00   1.4879E-04  0.0024
   9.4507E+00   9.6807E+00   1.4338E-04  0.0025
   9.6807E+00   9.9162E+00   1.3881E-04  0.0025
   9.9162E+00   1.0157E+01   1.3350E-04  0.0025
   1.0157E+01   1.0405E+01   1.2833E-04  0.0025
   1.0405E+01   1.0658E+01   1.2367E-04  0.0025
   1.0658E+01   1.0917E+01   1.1987E-04  0.0025
   1.0917E+01   1.1183E+01   1.1518E-04  0.0026
   1.1183E+01   1.1455E+01   1.1005E-04  0.0026
   1.1455E+01   1.1733E+01   1.0554E-04  0.0026
   1.1733E+01   1.2019E+01   1.0155E-04  0.0026
   1.2019E+01   1.2311E+01   9.7821E-05  0.0026
   1.2311E+01   1.2611E+01   9.3780E-05  0.0027
   1.2611E+01   1.2918E+01   8.9330E-05  0.0027
   1.2918E+01   1.3232E+01   8.6000E-05  0.0027
   1.3232E+01   1.3554E+01   8.2002E-05  0.0028
   1.3554E+01   1.3884E+01   7.8793E-05  0.0028
   1.3884E+01   1.4222E+01   7.5299E-05  0.0028
   1.4222E+01   1.4568E+01   7.2099E-05  0.0028
   1.4568E+01   1.4922E+01   6.8621E-05  0.0029
   1.4922E+01   1.5285E+01   6.5168E-05  0.0029
   1.5285E+01   1.5657E+01   6.2151E-05  0.0029
   1.5657E+01   1.6038E+01   5.9483E-05  0.0030
   1.6038E+01   1.6428E+01   5.6448E-05  0.0030
   1.6428E+01   1.6828E+01   5.3845E-05  0.0030
   1.6828E+01   1.7237E+01   5.1068E-05  0.0031
   1.7237E+01   1.7657E+01   4.8268E-05  0.0031
   1.7657E+01   1.8086E+01   4.5983E-05  0.0032
   1.8086E+01   1.8526E+01   4.3325E-05  0.0032
   1.8526E+01   1.8977E+01   4.1157E-05  0.0033
   1.8977E+01   1.9439E+01   4.0251E-05  0.0033
   1.9439E+01   1.9912E+01   3.9702E-05  0.0033
   1.9912E+01   2.0396E+01   3.8663E-05  0.0033
   2.0396E+01   2.0893E+01   3.6461E-05  0.0033
   2.0893E+01   2.1401E+01   3.4381E-05  0.0034
   2.1401E+01   2.1922E+01   3.2462E-05  0.0034
   2.1922E+01   2.2455E+01   3.0731E-05  0.0035
   2.2455E+01   2.3001E+01   2.8629E-05  0.0036
   2.3001E+01   2.3561E+01   2.6690E-05  0.0037
   2.3561E+01   2.4134E+01   2.4949E-05  0.0037
   2.4134E+01   2.4721E+01   2.3274E-05  0.0038
   2.4721E+01   2.5323E+01   2.1671E-05  0.0039
   2.5323E+01   2.5939E+01   2.0175E-05  0.0040
   2.5939E+01   2.6570E+01   1.8641E-05  0.0041
   2.6570E+01   2.7217E+01   1.7094E-05  0.0043
   2.7217E+01   2.7879E+01   1.5878E-05  0.0044
   2.7879E+01   2.8557E+01   1.4554E-05  0.0045
   2.8557E+01   2.9252E+01   1.3395E-05  0.0046
   2.9252E+01   2.9964E+01   1.2179E-05  0.0048
   2.9964E+01   3.0693E+01   1.1128E-05  0.0050
   3.0693E+01   3.1440E+01   1.0165E-05  0.0051
   3.1440E+01   3.2205E+01   9.1766E-06  0.0053
   3.2205E+01   3.2988E+01   8.4991E-06  0.0055
   3.2988E+01   3.3791E+01   7.5806E-06  0.0057
   3.3791E+01   3.4613E+01   6.8982E-06  0.0059
   3.4613E+01   3.5455E+01   6.1798E-06  0.0062
   3.5455E+01   3.6318E+01   5.5844E-06  0.0064
   3.6318E+01   3.7201E+01   4.9968E-06  0.0067
   3.7201E+01   3.8106E+01   4.4800E-06  0.0070
   3.8106E+01   3.9034E+01   3.9549E-06  0.0074
   3.9034E+01   3.9983E+01   3.5427E-06  0.0077
   3.9983E+01   4.0956E+01   3.1681E-06  0.0081
   4.0956E+01   4.1953E+01   2.8259E-06  0.0084
   4.1953E+01   4.2973E+01   2.4776E-06  0.0089
   4.2973E+01   4.4019E+01   2.1890E-06  0.0093
   4.4019E+01   4.5090E+01   1.9413E-06  0.0098
   4.5090E+01   4.6187E+01   1.6661E-06  0.0105
   4.6187E+01   4.7311E+01   1.4147E-06  0.0112
   4.7311E+01   4.8462E+01   1.2225E-06  0.0119
   4.8462E+01   4.9641E+01   1.0433E-06  0.0128
   4.9641E+01   5.0849E+01   8.8922E-07  0.0136
   5.0849E+01   5.2086E+01   7.2907E-07  0.0149
   5.2086E+01   5.3353E+01   6.0207E-07  0.0162
   5.3353E+01   5.4651E+01   4.7083E-07  0.0181
   5.4651E+01   5.5981E+01   3.8474E-07  0.0198
   5.5981E+01   5.7343E+01   2.9896E-07  0.0222
   5.7343E+01   5.8738E+01   2.4656E-07  0.0241
   5.8738E+01   6.0168E+01   1.7927E-07  0.0279
   6.0168E+01   6.1632E+01   1.3703E-07  0.0316
   6.1632E+01   6.3131E+01   1.0163E-07  0.0362
   6.3131E+01   6.4667E+01   7.4738E-08  0.0417
   6.4667E+01   6.6240E+01   4.9193E-08  0.0508
   6.6240E+01   6.7852E+01   3.6980E-08  0.0579
   6.7852E+01   6.9503E+01   2.2533E-08  0.0733
   6.9503E+01   7.1194E+01   1.5730E-08  0.0867
   7.1194E+01   7.2926E+01   9.6986E-09  0.1091
   7.2926E+01   7.4701E+01   5.8613E-09  0.1387
   7.4701E+01   7.6518E+01   3.7413E-09  0.1715
   7.6518E+01   7.8380E+01   2.6856E-09  0.2000
   7.8380E+01   8.0287E+01   2.5170E-09  0.2041
   8.0287E+01   8.2240E+01   1.4334E-09  0.2673
   8.2240E+01   8.4241E+01   3.9980E-10  0.5000
   8.4241E+01   8.6291E+01   1.9515E-10  0.7071
   8.6291E+01   8.8391E+01   0.0000E+00  0.0000
   8.8391E+01   9.0541E+01   0.0000E+00  0.0000
   9.0541E+01   9.2744E+01   0.0000E+00  0.0000
   9.2744E+01   9.5001E+01   0.0000E+00  0.0000
   9.5001E+01   9.7312E+01   0.0000E+00  0.0000
   9.7312E+01   9.9680E+01   0.0000E+00  0.0000
   9.9680E+01   1.0211E+02   0.0000E+00  0.0000
   1.0211E+02   1.0459E+02   0.0000E+00  0.0000
   1.0459E+02   1.0713E+02   0.0000E+00  0.0000
   1.0713E+02   1.0974E+02   0.0000E+00  0.0000
   1.0974E+02   1.1241E+02   0.0000E+00  0.0000
   1.1241E+02   1.1515E+02   0.0000E+00  0.0000
   1.1515E+02   1.1795E+02   0.0000E+00  0.0000
   1.1795E+02   1.2082E+02   0.0000E+00  0.0000
   1.2082E+02   1.2376E+02   0.0000E+00  0.0000
   1.2376E+02   1.2677E+02   0.0000E+00  0.0000
   1.2677E+02   1.2985E+02   0.0000E+00  0.0000
   1.2985E+02   1.3301E+02   0.0000E+00  0.0000
   1.3301E+02   1.3625E+02   0.0000E+00  0.0000
   1.3625E+02   1.3956E+02   0.0000E+00  0.0000
   1.3956E+02   1.4296E+02   0.0000E+00  0.0000
   1.4296E+02   1.4644E+02   0.0000E+00  0.0000
   1.4644E+02   1.5000E+02   0.0000E+00  0.0000

#   sum over                 3.1579E-05
'no. =    1   reg = 115 - 215'
msuc: {\huge [t-cross] in region mesh}
msdr: {\it plotted by \ANGEL \version}
msdl: {\it calculated by \PHITS  3.28}
wt: s(0.7)
\vspace{-3}
  region surface crossing
  area  &=&   1.0000E+00 [cm^2]
e:
 
# Information for Restart Calculation
# This calculation was newly started
# istdev =  2 # 1:Batch variance, 2:History variance
# resc2  = 5.00000000000000000E+09 # Total source weight or Total source weight / maxcas
# resc3  = 5.00000000000000000E+09 # Total history number or Total batch number
# maxcas =   500000000 # History / Batch, only used for istdev=1
# bitrseed = 0001101011110000011001100100101010101011111110100001111101011101 # bit data of rseed
