[ T-Cross ]
    title = [t-cross] in region mesh
     mesh =  reg            # mesh type is region-wise
      reg =    1            # number of crossing regions
      non     r-from    r-to       area
      1       109       209        1.000000    
   e-type =    3            # e-mesh is log given by emin, emax and ne
     emin =  1.0000000E-02  # minimum value of e-mesh points
     emax =   150.0000      # maximum value of e-mesh points
#    edel =  2.4039514E-02  # mesh width of e-mesh points
       ne =    400          # number of e-mesh points
#    data = ( e(i), i = 1, ne + 1 )
#           1.00000E-02  1.02433E-02  1.04925E-02  1.07478E-02  1.10093E-02
#           1.12772E-02  1.15516E-02  1.18326E-02  1.21205E-02  1.24154E-02
#           1.27175E-02  1.30269E-02  1.33439E-02  1.36686E-02  1.40011E-02
#           1.43418E-02  1.46907E-02  1.50482E-02  1.54143E-02  1.57894E-02
#           1.61735E-02  1.65670E-02  1.69701E-02  1.73830E-02  1.78060E-02
#           1.82392E-02  1.86830E-02  1.91375E-02  1.96032E-02  2.00801E-02
#           2.05687E-02  2.10692E-02  2.15818E-02  2.21069E-02  2.26448E-02
#           2.31957E-02  2.37601E-02  2.43382E-02  2.49304E-02  2.55369E-02
#           2.61583E-02  2.67947E-02  2.74467E-02  2.81145E-02  2.87985E-02
#           2.94992E-02  3.02169E-02  3.09521E-02  3.17052E-02  3.24766E-02
#           3.32668E-02  3.40762E-02  3.49053E-02  3.57546E-02  3.66246E-02
#           3.75157E-02  3.84284E-02  3.93634E-02  4.03212E-02  4.13022E-02
#           4.23071E-02  4.33365E-02  4.43909E-02  4.54710E-02  4.65773E-02
#           4.77106E-02  4.88714E-02  5.00605E-02  5.12785E-02  5.25262E-02
#           5.38042E-02  5.51133E-02  5.64542E-02  5.78278E-02  5.92348E-02
#           6.06760E-02  6.21523E-02  6.36645E-02  6.52135E-02  6.68002E-02
#           6.84255E-02  7.00904E-02  7.17957E-02  7.35426E-02  7.53319E-02
#           7.71648E-02  7.90423E-02  8.09655E-02  8.29354E-02  8.49533E-02
#           8.70203E-02  8.91376E-02  9.13064E-02  9.35279E-02  9.58035E-02
#           9.81345E-02  1.00522E-01  1.02968E-01  1.05473E-01  1.08040E-01
#           1.10668E-01  1.13361E-01  1.16119E-01  1.18944E-01  1.21838E-01
#           1.24803E-01  1.27839E-01  1.30950E-01  1.34136E-01  1.37399E-01
#           1.40742E-01  1.44167E-01  1.47675E-01  1.51268E-01  1.54948E-01
#           1.58718E-01  1.62580E-01  1.66535E-01  1.70587E-01  1.74738E-01
#           1.78989E-01  1.83344E-01  1.87805E-01  1.92375E-01  1.97055E-01
#           2.01850E-01  2.06761E-01  2.11792E-01  2.16945E-01  2.22223E-01
#           2.27630E-01  2.33169E-01  2.38842E-01  2.44653E-01  2.50605E-01
#           2.56703E-01  2.62949E-01  2.69346E-01  2.75900E-01  2.82613E-01
#           2.89489E-01  2.96532E-01  3.03747E-01  3.11138E-01  3.18708E-01
#           3.26462E-01  3.34405E-01  3.42542E-01  3.50876E-01  3.59413E-01
#           3.68158E-01  3.77116E-01  3.86291E-01  3.95690E-01  4.05317E-01
#           4.15179E-01  4.25281E-01  4.35628E-01  4.46227E-01  4.57084E-01
#           4.68205E-01  4.79597E-01  4.91266E-01  5.03219E-01  5.15463E-01
#           5.28005E-01  5.40851E-01  5.54011E-01  5.67490E-01  5.81298E-01
#           5.95441E-01  6.09929E-01  6.24769E-01  6.39970E-01  6.55541E-01
#           6.71491E-01  6.87828E-01  7.04564E-01  7.21706E-01  7.39266E-01
#           7.57253E-01  7.75678E-01  7.94551E-01  8.13883E-01  8.33685E-01
#           8.53969E-01  8.74747E-01  8.96030E-01  9.17831E-01  9.40163E-01
#           9.63038E-01  9.86469E-01  1.01047E+00  1.03506E+00  1.06024E+00
#           1.08604E+00  1.11246E+00  1.13953E+00  1.16725E+00  1.19565E+00
#           1.22474E+00  1.25454E+00  1.28507E+00  1.31633E+00  1.34836E+00
#           1.38117E+00  1.41477E+00  1.44920E+00  1.48446E+00  1.52057E+00
#           1.55757E+00  1.59547E+00  1.63429E+00  1.67405E+00  1.71478E+00
#           1.75650E+00  1.79924E+00  1.84302E+00  1.88786E+00  1.93379E+00
#           1.98084E+00  2.02904E+00  2.07841E+00  2.12898E+00  2.18078E+00
#           2.23384E+00  2.28819E+00  2.34386E+00  2.40089E+00  2.45930E+00
#           2.51914E+00  2.58043E+00  2.64322E+00  2.70753E+00  2.77341E+00
#           2.84088E+00  2.91001E+00  2.98081E+00  3.05333E+00  3.12762E+00
#           3.20372E+00  3.28167E+00  3.36152E+00  3.44330E+00  3.52708E+00
#           3.61290E+00  3.70080E+00  3.79085E+00  3.88308E+00  3.97756E+00
#           4.07434E+00  4.17347E+00  4.27501E+00  4.37903E+00  4.48557E+00
#           4.59471E+00  4.70650E+00  4.82102E+00  4.93832E+00  5.05847E+00
#           5.18155E+00  5.30762E+00  5.43676E+00  5.56904E+00  5.70453E+00
#           5.84333E+00  5.98550E+00  6.13114E+00  6.28031E+00  6.43312E+00
#           6.58964E+00  6.74997E+00  6.91420E+00  7.08243E+00  7.25475E+00
#           7.43126E+00  7.61207E+00  7.79728E+00  7.98700E+00  8.18133E+00
#           8.38038E+00  8.58428E+00  8.79315E+00  9.00709E+00  9.22624E+00
#           9.45072E+00  9.68067E+00  9.91620E+00  1.01575E+01  1.04046E+01
#           1.06578E+01  1.09171E+01  1.11827E+01  1.14548E+01  1.17335E+01
#           1.20190E+01  1.23114E+01  1.26109E+01  1.29178E+01  1.32321E+01
#           1.35540E+01  1.38838E+01  1.42216E+01  1.45676E+01  1.49221E+01
#           1.52851E+01  1.56570E+01  1.60380E+01  1.64282E+01  1.68279E+01
#           1.72374E+01  1.76568E+01  1.80864E+01  1.85264E+01  1.89772E+01
#           1.94389E+01  1.99119E+01  2.03963E+01  2.08926E+01  2.14009E+01
#           2.19216E+01  2.24550E+01  2.30014E+01  2.35610E+01  2.41343E+01
#           2.47215E+01  2.53230E+01  2.59391E+01  2.65702E+01  2.72167E+01
#           2.78789E+01  2.85572E+01  2.92520E+01  2.99637E+01  3.06928E+01
#           3.14396E+01  3.22045E+01  3.29881E+01  3.37907E+01  3.46128E+01
#           3.54550E+01  3.63177E+01  3.72013E+01  3.81064E+01  3.90336E+01
#           3.99833E+01  4.09561E+01  4.19526E+01  4.29734E+01  4.40189E+01
#           4.50900E+01  4.61870E+01  4.73108E+01  4.84619E+01  4.96410E+01
#           5.08488E+01  5.20860E+01  5.33533E+01  5.46514E+01  5.59812E+01
#           5.73432E+01  5.87384E+01  6.01676E+01  6.16315E+01  6.31311E+01
#           6.46671E+01  6.62405E+01  6.78522E+01  6.95031E+01  7.11941E+01
#           7.29263E+01  7.47007E+01  7.65182E+01  7.83800E+01  8.02870E+01
#           8.22405E+01  8.42414E+01  8.62911E+01  8.83906E+01  9.05412E+01
#           9.27442E+01  9.50007E+01  9.73122E+01  9.96799E+01  1.02105E+02
#           1.04589E+02  1.07134E+02  1.09741E+02  1.12411E+02  1.15146E+02
#           1.17948E+02  1.20817E+02  1.23757E+02  1.26768E+02  1.29852E+02
#           1.33012E+02  1.36248E+02  1.39563E+02  1.42959E+02  1.46437E+02
#           1.50000E+02
     unit =    2            # unit is [1/cm^2/(MeV/n)/source]
     axis =  eng            # axis of output
     file = detector-10.out  # file name of output for the above axis
   output = f-curr          # surface crossing forward current spectrum
     part =  neutron  
# kf/name :  2112     
#    used :        main (  %)        temp (  %)       total (  %)
#  memory :         414 (  0)           0 (  0)         414 (  0)

#------------------------------------------------------------------------------
#newpage:
#   no. =    1   reg = 109 - 209

x: Energy [MeV/n]
y:  F-Curr [1/cm^2/(MeV/n)/source]         
p: xlog ylog afac(0.8) form(0.9)
h: n            x            y(neutron ),hh0l   n 
#  e-lower      e-upper      neutron     r.err 
   1.0000E-02   1.0243E-02   1.1707E-03  0.0586
   1.0243E-02   1.0493E-02   1.0300E-03  0.0617
   1.0493E-02   1.0748E-02   9.1391E-04  0.0648
   1.0748E-02   1.1009E-02   8.8700E-04  0.0649
   1.1009E-02   1.1277E-02   9.9431E-04  0.0607
   1.1277E-02   1.1552E-02   1.0033E-03  0.0596
   1.1552E-02   1.1833E-02   9.0230E-04  0.0620
   1.1833E-02   1.2121E-02   9.7813E-04  0.0590
   1.2121E-02   1.2415E-02   8.5893E-04  0.0621
   1.2415E-02   1.2718E-02   8.1423E-04  0.0632
   1.2718E-02   1.3027E-02   8.7641E-04  0.0599
   1.3027E-02   1.3344E-02   8.4717E-04  0.0606
   1.3344E-02   1.3669E-02   7.2098E-04  0.0645
   1.3669E-02   1.4001E-02   8.2222E-04  0.0598
   1.4001E-02   1.4342E-02   7.2218E-04  0.0629
   1.4342E-02   1.4691E-02   7.5166E-04  0.0611
   1.4691E-02   1.5048E-02   7.0494E-04  0.0624
   1.5048E-02   1.5414E-02   7.1503E-04  0.0610
   1.5414E-02   1.5789E-02   6.9787E-04  0.0612
   1.5789E-02   1.6174E-02   6.0933E-04  0.0647
   1.6174E-02   1.6567E-02   6.2048E-04  0.0635
   1.6567E-02   1.6970E-02   6.2483E-04  0.0624
   1.6970E-02   1.7383E-02   6.3532E-04  0.0612
   1.7383E-02   1.7806E-02   6.8879E-04  0.0580
   1.7806E-02   1.8239E-02   6.5523E-04  0.0589
   1.8239E-02   1.8683E-02   5.6193E-04  0.0627
   1.8683E-02   1.9138E-02   6.0133E-04  0.0597
   1.9138E-02   1.9603E-02   5.6381E-04  0.0612
   1.9603E-02   2.0080E-02   5.7272E-04  0.0597
   2.0080E-02   2.0569E-02   5.1219E-04  0.0624
   2.0569E-02   2.1069E-02   5.7340E-04  0.0585
   2.1069E-02   2.1582E-02   5.6896E-04  0.0581
   2.1582E-02   2.2107E-02   5.1148E-04  0.0605
   2.2107E-02   2.2645E-02   4.5172E-04  0.0634
   2.2645E-02   2.3196E-02   5.4680E-04  0.0571
   2.3196E-02   2.3760E-02   4.6883E-04  0.0609
   2.3760E-02   2.4338E-02   4.4383E-04  0.0615
   2.4338E-02   2.4930E-02   4.3848E-04  0.0616
   2.4930E-02   2.5537E-02   4.2559E-04  0.0616
   2.5537E-02   2.6158E-02   4.4192E-04  0.0598
   2.6158E-02   2.6795E-02   4.3793E-04  0.0592
   2.6795E-02   2.7447E-02   3.9278E-04  0.0619
   2.7447E-02   2.8114E-02   3.7850E-04  0.0623
   2.8114E-02   2.8799E-02   3.9937E-04  0.0600
   2.8799E-02   2.9499E-02   3.3623E-04  0.0645
   2.9499E-02   3.0217E-02   3.9657E-04  0.0585
   3.0217E-02   3.0952E-02   3.9537E-04  0.0579
   3.0952E-02   3.1705E-02   4.0215E-04  0.0568
   3.1705E-02   3.2477E-02   3.7687E-04  0.0578
   3.2477E-02   3.3267E-02   3.5762E-04  0.0588
   3.3267E-02   3.4076E-02   3.5539E-04  0.0583
   3.4076E-02   3.4905E-02   3.0687E-04  0.0620
   3.4905E-02   3.5755E-02   3.0800E-04  0.0611
   3.5755E-02   3.6625E-02   3.0442E-04  0.0607
   3.6625E-02   3.7516E-02   3.2167E-04  0.0585
   3.7516E-02   3.8428E-02   3.4181E-04  0.0561
   3.8428E-02   3.9363E-02   3.1652E-04  0.0575
   3.9363E-02   4.0321E-02   3.0910E-04  0.0576
   4.0321E-02   4.1302E-02   3.0460E-04  0.0573
   4.1302E-02   4.2307E-02   2.9125E-04  0.0579
   4.2307E-02   4.3337E-02   2.6669E-04  0.0594
   4.3337E-02   4.4391E-02   2.7869E-04  0.0577
   4.4391E-02   4.5471E-02   2.5533E-04  0.0594
   4.5471E-02   4.6577E-02   2.8784E-04  0.0556
   4.6577E-02   4.7711E-02   2.6593E-04  0.0570
   4.7711E-02   4.8871E-02   2.1108E-04  0.0632
   4.8871E-02   5.0061E-02   2.3147E-04  0.0596
   5.0061E-02   5.1279E-02   2.5554E-04  0.0559
   5.1279E-02   5.2526E-02   2.4407E-04  0.0567
   5.2526E-02   5.3804E-02   2.1712E-04  0.0593
   5.3804E-02   5.5113E-02   2.2536E-04  0.0577
   5.5113E-02   5.6454E-02   2.2873E-04  0.0565
   5.6454E-02   5.7828E-02   2.0895E-04  0.0583
   5.7828E-02   5.9235E-02   2.0483E-04  0.0582
   5.9235E-02   6.0676E-02   2.2684E-04  0.0548
   6.0676E-02   6.2152E-02   1.9467E-04  0.0582
   6.2152E-02   6.3665E-02   2.1031E-04  0.0554
   6.3665E-02   6.5214E-02   1.8796E-04  0.0581
   6.5214E-02   6.6800E-02   1.8301E-04  0.0580
   6.6800E-02   6.8426E-02   1.9952E-04  0.0550
   6.8426E-02   7.0090E-02   1.8608E-04  0.0561
   7.0090E-02   7.1796E-02   1.7267E-04  0.0576
   7.1796E-02   7.3543E-02   1.8301E-04  0.0554
   7.3543E-02   7.5332E-02   1.6682E-04  0.0573
   7.5332E-02   7.7165E-02   1.6707E-04  0.0564
   7.7165E-02   7.9042E-02   1.7997E-04  0.0537
   7.9042E-02   8.0965E-02   1.4926E-04  0.0584
   8.0965E-02   8.2935E-02   1.6443E-04  0.0549
   8.2935E-02   8.4953E-02   1.5227E-04  0.0563
   8.4953E-02   8.7020E-02   1.3215E-04  0.0600
   8.7020E-02   8.9138E-02   1.4781E-04  0.0560
   8.9138E-02   9.1306E-02   1.3436E-04  0.0580
   9.1306E-02   9.3528E-02   1.3725E-04  0.0567
   9.3528E-02   9.5804E-02   1.3929E-04  0.0556
   9.5804E-02   9.8134E-02   1.4624E-04  0.0536
   9.8134E-02   1.0052E-01   1.3950E-04  0.0543
   1.0052E-01   1.0297E-01   1.3667E-04  0.0539
   1.0297E-01   1.0547E-01   1.3932E-04  0.0531
   1.0547E-01   1.0804E-01   1.3620E-04  0.0530
   1.0804E-01   1.1067E-01   1.1189E-04  0.0576
   1.1067E-01   1.1336E-01   1.2024E-04  0.0550
   1.1336E-01   1.1612E-01   1.1453E-04  0.0556
   1.1612E-01   1.1894E-01   1.1431E-04  0.0549
   1.1894E-01   1.2184E-01   1.1990E-04  0.0530
   1.2184E-01   1.2480E-01   1.1077E-04  0.0547
   1.2480E-01   1.2784E-01   1.1479E-04  0.0529
   1.2784E-01   1.3095E-01   9.4721E-05  0.0576
   1.3095E-01   1.3414E-01   1.0978E-04  0.0527
   1.3414E-01   1.3740E-01   1.0566E-04  0.0533
   1.3740E-01   1.4074E-01   1.0678E-04  0.0524
   1.4074E-01   1.4417E-01   1.0612E-04  0.0518
   1.4417E-01   1.4767E-01   9.1530E-05  0.0550
   1.4767E-01   1.5127E-01   1.0374E-04  0.0513
   1.5127E-01   1.5495E-01   9.5988E-05  0.0526
   1.5495E-01   1.5872E-01   1.0039E-04  0.0509
   1.5872E-01   1.6258E-01   9.1450E-05  0.0527
   1.6258E-01   1.6654E-01   9.1520E-05  0.0518
   1.6654E-01   1.7059E-01   9.0919E-05  0.0516
   1.7059E-01   1.7474E-01   9.1892E-05  0.0506
   1.7474E-01   1.7899E-01   9.3141E-05  0.0498
   1.7899E-01   1.8334E-01   8.6934E-05  0.0508
   1.8334E-01   1.8781E-01   8.5552E-05  0.0507
   1.8781E-01   1.9237E-01   7.8401E-05  0.0521
   1.9237E-01   1.9706E-01   8.7522E-05  0.0490
   1.9706E-01   2.0185E-01   9.3511E-05  0.0468
   2.0185E-01   2.0676E-01   8.7518E-05  0.0477
   2.0676E-01   2.1179E-01   9.5910E-05  0.0451
   2.1179E-01   2.1694E-01   9.1884E-05  0.0454
   2.1694E-01   2.2222E-01   9.2271E-05  0.0449
   2.2222E-01   2.2763E-01   9.8017E-05  0.0429
   2.2763E-01   2.3317E-01   1.0688E-04  0.0407
   2.3317E-01   2.3884E-01   1.0470E-04  0.0405
   2.3884E-01   2.4465E-01   1.2383E-04  0.0369
   2.4465E-01   2.5061E-01   1.1838E-04  0.0373
   2.5061E-01   2.5670E-01   1.1392E-04  0.0375
   2.5670E-01   2.6295E-01   1.3320E-04  0.0344
   2.6295E-01   2.6935E-01   1.4711E-04  0.0323
   2.6935E-01   2.7590E-01   1.4660E-04  0.0319
   2.7590E-01   2.8261E-01   1.4743E-04  0.0315
   2.8261E-01   2.8949E-01   1.6138E-04  0.0298
   2.8949E-01   2.9653E-01   1.5776E-04  0.0297
   2.9653E-01   3.0375E-01   1.6098E-04  0.0291
   3.0375E-01   3.1114E-01   1.8499E-04  0.0268
   3.1114E-01   3.1871E-01   1.8085E-04  0.0268
   3.1871E-01   3.2646E-01   2.0026E-04  0.0251
   3.2646E-01   3.3441E-01   1.9965E-04  0.0248
   3.3441E-01   3.4254E-01   2.1438E-04  0.0237
   3.4254E-01   3.5088E-01   2.1891E-04  0.0232
   3.5088E-01   3.5941E-01   2.2153E-04  0.0228
   3.5941E-01   3.6816E-01   2.3397E-04  0.0219
   3.6816E-01   3.7712E-01   2.4723E-04  0.0211
   3.7712E-01   3.8629E-01   2.4496E-04  0.0209
   3.8629E-01   3.9569E-01   2.5574E-04  0.0202
   3.9569E-01   4.0532E-01   2.7213E-04  0.0194
   4.0532E-01   4.1518E-01   2.7237E-04  0.0191
   4.1518E-01   4.2528E-01   2.9846E-04  0.0180
   4.2528E-01   4.3563E-01   3.0250E-04  0.0177
   4.3563E-01   4.4623E-01   3.2482E-04  0.0169
   4.4623E-01   4.5708E-01   3.3701E-04  0.0164
   4.5708E-01   4.6821E-01   3.3891E-04  0.0161
   4.6821E-01   4.7960E-01   3.4806E-04  0.0157
   4.7960E-01   4.9127E-01   3.7039E-04  0.0151
   4.9127E-01   5.0322E-01   3.6291E-04  0.0151
   5.0322E-01   5.1546E-01   3.8145E-04  0.0145
   5.1546E-01   5.2800E-01   3.9423E-04  0.0141
   5.2800E-01   5.4085E-01   4.2020E-04  0.0135
   5.4085E-01   5.5401E-01   4.2307E-04  0.0133
   5.5401E-01   5.6749E-01   4.4293E-04  0.0128
   5.6749E-01   5.8130E-01   4.5453E-04  0.0125
   5.8130E-01   5.9544E-01   4.5902E-04  0.0123
   5.9544E-01   6.0993E-01   4.8361E-04  0.0118
   6.0993E-01   6.2477E-01   4.8790E-04  0.0116
   6.2477E-01   6.3997E-01   5.0772E-04  0.0113
   6.3997E-01   6.5554E-01   5.1859E-04  0.0110
   6.5554E-01   6.7149E-01   5.3295E-04  0.0108
   6.7149E-01   6.8783E-01   5.3985E-04  0.0106
   6.8783E-01   7.0456E-01   5.4787E-04  0.0104
   7.0456E-01   7.2171E-01   5.6723E-04  0.0101
   7.2171E-01   7.3927E-01   5.7051E-04  0.0099
   7.3927E-01   7.5725E-01   5.9312E-04  0.0096
   7.5725E-01   7.7568E-01   6.0059E-04  0.0094
   7.7568E-01   7.9455E-01   6.2248E-04  0.0092
   7.9455E-01   8.1388E-01   6.2732E-04  0.0090
   8.1388E-01   8.3368E-01   6.3130E-04  0.0089
   8.3368E-01   8.5397E-01   6.4639E-04  0.0087
   8.5397E-01   8.7475E-01   6.6828E-04  0.0084
   8.7475E-01   8.9603E-01   6.7771E-04  0.0083
   8.9603E-01   9.1783E-01   6.8278E-04  0.0081
   9.1783E-01   9.4016E-01   6.9835E-04  0.0079
   9.4016E-01   9.6304E-01   7.1860E-04  0.0077
   9.6304E-01   9.8647E-01   7.2590E-04  0.0076
   9.8647E-01   1.0105E+00   7.3471E-04  0.0075
   1.0105E+00   1.0351E+00   7.2077E-04  0.0075
   1.0351E+00   1.0602E+00   7.2032E-04  0.0074
   1.0602E+00   1.0860E+00   7.3414E-04  0.0072
   1.0860E+00   1.1125E+00   7.3612E-04  0.0071
   1.1125E+00   1.1395E+00   7.4029E-04  0.0070
   1.1395E+00   1.1673E+00   7.4067E-04  0.0069
   1.1673E+00   1.1957E+00   7.7080E-04  0.0067
   1.1957E+00   1.2247E+00   7.6206E-04  0.0067
   1.2247E+00   1.2545E+00   7.7617E-04  0.0065
   1.2545E+00   1.2851E+00   7.6666E-04  0.0065
   1.2851E+00   1.3163E+00   7.6443E-04  0.0064
   1.3163E+00   1.3484E+00   7.7299E-04  0.0063
   1.3484E+00   1.3812E+00   7.8481E-04  0.0062
   1.3812E+00   1.4148E+00   7.8547E-04  0.0061
   1.4148E+00   1.4492E+00   8.0653E-04  0.0060
   1.4492E+00   1.4845E+00   8.1650E-04  0.0058
   1.4845E+00   1.5206E+00   8.1823E-04  0.0058
   1.5206E+00   1.5576E+00   8.1852E-04  0.0057
   1.5576E+00   1.5955E+00   8.1001E-04  0.0057
   1.5955E+00   1.6343E+00   7.9582E-04  0.0056
   1.6343E+00   1.6741E+00   7.9219E-04  0.0056
   1.6741E+00   1.7148E+00   7.8634E-04  0.0055
   1.7148E+00   1.7565E+00   7.8227E-04  0.0055
   1.7565E+00   1.7992E+00   8.0186E-04  0.0054
   1.7992E+00   1.8430E+00   7.9630E-04  0.0053
   1.8430E+00   1.8879E+00   7.9269E-04  0.0053
   1.8879E+00   1.9338E+00   7.8878E-04  0.0052
   1.9338E+00   1.9808E+00   7.8355E-04  0.0052
   1.9808E+00   2.0290E+00   7.9483E-04  0.0051
   2.0290E+00   2.0784E+00   7.7915E-04  0.0051
   2.0784E+00   2.1290E+00   7.7387E-04  0.0050
   2.1290E+00   2.1808E+00   7.6685E-04  0.0050
   2.1808E+00   2.2338E+00   7.4708E-04  0.0050
   2.2338E+00   2.2882E+00   7.3489E-04  0.0050
   2.2882E+00   2.3439E+00   7.3012E-04  0.0049
   2.3439E+00   2.4009E+00   7.3235E-04  0.0049
   2.4009E+00   2.4593E+00   7.3130E-04  0.0048
   2.4593E+00   2.5191E+00   7.3394E-04  0.0047
   2.5191E+00   2.5804E+00   7.2400E-04  0.0047
   2.5804E+00   2.6432E+00   7.0716E-04  0.0047
   2.6432E+00   2.7075E+00   6.8666E-04  0.0047
   2.7075E+00   2.7734E+00   6.8042E-04  0.0047
   2.7734E+00   2.8409E+00   6.6642E-04  0.0047
   2.8409E+00   2.9100E+00   6.5877E-04  0.0047
   2.9100E+00   2.9808E+00   6.5299E-04  0.0046
   2.9808E+00   3.0533E+00   6.5130E-04  0.0046
   3.0533E+00   3.1276E+00   6.3828E-04  0.0046
   3.1276E+00   3.2037E+00   6.2507E-04  0.0046
   3.2037E+00   3.2817E+00   6.0936E-04  0.0046
   3.2817E+00   3.3615E+00   6.0161E-04  0.0045
   3.3615E+00   3.4433E+00   5.8221E-04  0.0046
   3.4433E+00   3.5271E+00   5.8045E-04  0.0045
   3.5271E+00   3.6129E+00   5.7236E-04  0.0045
   3.6129E+00   3.7008E+00   5.6195E-04  0.0045
   3.7008E+00   3.7908E+00   5.4935E-04  0.0045
   3.7908E+00   3.8831E+00   5.3753E-04  0.0045
   3.8831E+00   3.9776E+00   5.3119E-04  0.0044
   3.9776E+00   4.0743E+00   5.2079E-04  0.0044
   4.0743E+00   4.1735E+00   5.0998E-04  0.0044
   4.1735E+00   4.2750E+00   4.9679E-04  0.0044
   4.2750E+00   4.3790E+00   4.8797E-04  0.0044
   4.3790E+00   4.4856E+00   4.8040E-04  0.0044
   4.4856E+00   4.5947E+00   4.6892E-04  0.0044
   4.5947E+00   4.7065E+00   4.5765E-04  0.0044
   4.7065E+00   4.8210E+00   4.4745E-04  0.0044
   4.8210E+00   4.9383E+00   4.3726E-04  0.0044
   4.9383E+00   5.0585E+00   4.3659E-04  0.0043
   5.0585E+00   5.1815E+00   4.2822E-04  0.0043
   5.1815E+00   5.3076E+00   4.1922E-04  0.0043
   5.3076E+00   5.4368E+00   4.0940E-04  0.0043
   5.4368E+00   5.5690E+00   3.9749E-04  0.0043
   5.5690E+00   5.7045E+00   3.8228E-04  0.0044
   5.7045E+00   5.8433E+00   3.7342E-04  0.0044
   5.8433E+00   5.9855E+00   3.6497E-04  0.0044
   5.9855E+00   6.1311E+00   3.5364E-04  0.0044
   6.1311E+00   6.2803E+00   3.4187E-04  0.0044
   6.2803E+00   6.4331E+00   3.3118E-04  0.0044
   6.4331E+00   6.5896E+00   3.2280E-04  0.0044
   6.5896E+00   6.7500E+00   3.1011E-04  0.0045
   6.7500E+00   6.9142E+00   3.0084E-04  0.0045
   6.9142E+00   7.0824E+00   2.9168E-04  0.0045
   7.0824E+00   7.2548E+00   2.8129E-04  0.0045
   7.2548E+00   7.4313E+00   2.7088E-04  0.0046
   7.4313E+00   7.6121E+00   2.6336E-04  0.0046
   7.6121E+00   7.7973E+00   2.5563E-04  0.0046
   7.7973E+00   7.9870E+00   2.4655E-04  0.0046
   7.9870E+00   8.1813E+00   2.3919E-04  0.0046
   8.1813E+00   8.3804E+00   2.3039E-04  0.0047
   8.3804E+00   8.5843E+00   2.2075E-04  0.0047
   8.5843E+00   8.7931E+00   2.1409E-04  0.0047
   8.7931E+00   9.0071E+00   2.0761E-04  0.0047
   9.0071E+00   9.2262E+00   1.9920E-04  0.0048
   9.2262E+00   9.4507E+00   1.9308E-04  0.0048
   9.4507E+00   9.6807E+00   1.8456E-04  0.0048
   9.6807E+00   9.9162E+00   1.7762E-04  0.0049
   9.9162E+00   1.0157E+01   1.7039E-04  0.0049
   1.0157E+01   1.0405E+01   1.6327E-04  0.0050
   1.0405E+01   1.0658E+01   1.5604E-04  0.0050
   1.0658E+01   1.0917E+01   1.4938E-04  0.0051
   1.0917E+01   1.1183E+01   1.4206E-04  0.0051
   1.1183E+01   1.1455E+01   1.3709E-04  0.0052
   1.1455E+01   1.1733E+01   1.2993E-04  0.0052
   1.1733E+01   1.2019E+01   1.2285E-04  0.0053
   1.2019E+01   1.2311E+01   1.1614E-04  0.0054
   1.2311E+01   1.2611E+01   1.1091E-04  0.0055
   1.2611E+01   1.2918E+01   1.0394E-04  0.0056
   1.2918E+01   1.3232E+01   9.9455E-05  0.0057
   1.3232E+01   1.3554E+01   9.4423E-05  0.0057
   1.3554E+01   1.3884E+01   8.8740E-05  0.0058
   1.3884E+01   1.4222E+01   8.3290E-05  0.0060
   1.4222E+01   1.4568E+01   7.7900E-05  0.0061
   1.4568E+01   1.4922E+01   7.4517E-05  0.0061
   1.4922E+01   1.5285E+01   6.9052E-05  0.0063
   1.5285E+01   1.5657E+01   6.5323E-05  0.0064
   1.5657E+01   1.6038E+01   6.1108E-05  0.0066
   1.6038E+01   1.6428E+01   5.7613E-05  0.0067
   1.6428E+01   1.6828E+01   5.3556E-05  0.0068
   1.6828E+01   1.7237E+01   4.9681E-05  0.0070
   1.7237E+01   1.7657E+01   4.6484E-05  0.0072
   1.7657E+01   1.8086E+01   4.3217E-05  0.0073
   1.8086E+01   1.8526E+01   4.1258E-05  0.0074
   1.8526E+01   1.8977E+01   3.8056E-05  0.0076
   1.8977E+01   1.9439E+01   3.7816E-05  0.0076
   1.9439E+01   1.9912E+01   3.6986E-05  0.0076
   1.9912E+01   2.0396E+01   3.5366E-05  0.0076
   2.0396E+01   2.0893E+01   3.2773E-05  0.0078
   2.0893E+01   2.1401E+01   3.0724E-05  0.0080
   2.1401E+01   2.1922E+01   2.7753E-05  0.0083
   2.1922E+01   2.2455E+01   2.5909E-05  0.0085
   2.2455E+01   2.3001E+01   2.4354E-05  0.0087
   2.3001E+01   2.3561E+01   2.2504E-05  0.0089
   2.3561E+01   2.4134E+01   2.1207E-05  0.0091
   2.4134E+01   2.4721E+01   1.9627E-05  0.0093
   2.4721E+01   2.5323E+01   1.8020E-05  0.0096
   2.5323E+01   2.5939E+01   1.5909E-05  0.0101
   2.5939E+01   2.6570E+01   1.3647E-05  0.0108
   2.6570E+01   2.7217E+01   1.1309E-05  0.0117
   2.7217E+01   2.7879E+01   1.0080E-05  0.0122
   2.7879E+01   2.8557E+01   9.0754E-06  0.0127
   2.8557E+01   2.9252E+01   8.1532E-06  0.0133
   2.9252E+01   2.9964E+01   7.2107E-06  0.0140
   2.9964E+01   3.0693E+01   6.3659E-06  0.0147
   3.0693E+01   3.1440E+01   5.6067E-06  0.0155
   3.1440E+01   3.2205E+01   5.1951E-06  0.0159
   3.2205E+01   3.2988E+01   4.3864E-06  0.0171
   3.2988E+01   3.3791E+01   3.9832E-06  0.0177
   3.3791E+01   3.4613E+01   3.5869E-06  0.0184
   3.4613E+01   3.5455E+01   2.9353E-06  0.0201
   3.5455E+01   3.6318E+01   2.2593E-06  0.0227
   3.6318E+01   3.7201E+01   1.8107E-06  0.0250
   3.7201E+01   3.8106E+01   1.2893E-06  0.0293
   3.8106E+01   3.9034E+01   8.6393E-07  0.0353
   3.9034E+01   3.9983E+01   5.8860E-07  0.0423
   3.9983E+01   4.0956E+01   2.8371E-07  0.0602
   4.0956E+01   4.1953E+01   1.1540E-07  0.0933
   4.1953E+01   4.2973E+01   1.9594E-08  0.2236
   4.2973E+01   4.4019E+01   4.7821E-09  0.4472
   4.4019E+01   4.5090E+01   0.0000E+00  0.0000
   4.5090E+01   4.6187E+01   0.0000E+00  0.0000
   4.6187E+01   4.7311E+01   0.0000E+00  0.0000
   4.7311E+01   4.8462E+01   0.0000E+00  0.0000
   4.8462E+01   4.9641E+01   0.0000E+00  0.0000
   4.9641E+01   5.0849E+01   0.0000E+00  0.0000
   5.0849E+01   5.2086E+01   0.0000E+00  0.0000
   5.2086E+01   5.3353E+01   0.0000E+00  0.0000
   5.3353E+01   5.4651E+01   0.0000E+00  0.0000
   5.4651E+01   5.5981E+01   0.0000E+00  0.0000
   5.5981E+01   5.7343E+01   0.0000E+00  0.0000
   5.7343E+01   5.8738E+01   0.0000E+00  0.0000
   5.8738E+01   6.0168E+01   0.0000E+00  0.0000
   6.0168E+01   6.1632E+01   0.0000E+00  0.0000
   6.1632E+01   6.3131E+01   0.0000E+00  0.0000
   6.3131E+01   6.4667E+01   0.0000E+00  0.0000
   6.4667E+01   6.6240E+01   0.0000E+00  0.0000
   6.6240E+01   6.7852E+01   0.0000E+00  0.0000
   6.7852E+01   6.9503E+01   0.0000E+00  0.0000
   6.9503E+01   7.1194E+01   0.0000E+00  0.0000
   7.1194E+01   7.2926E+01   0.0000E+00  0.0000
   7.2926E+01   7.4701E+01   0.0000E+00  0.0000
   7.4701E+01   7.6518E+01   0.0000E+00  0.0000
   7.6518E+01   7.8380E+01   0.0000E+00  0.0000
   7.8380E+01   8.0287E+01   0.0000E+00  0.0000
   8.0287E+01   8.2240E+01   0.0000E+00  0.0000
   8.2240E+01   8.4241E+01   0.0000E+00  0.0000
   8.4241E+01   8.6291E+01   0.0000E+00  0.0000
   8.6291E+01   8.8391E+01   0.0000E+00  0.0000
   8.8391E+01   9.0541E+01   0.0000E+00  0.0000
   9.0541E+01   9.2744E+01   0.0000E+00  0.0000
   9.2744E+01   9.5001E+01   0.0000E+00  0.0000
   9.5001E+01   9.7312E+01   0.0000E+00  0.0000
   9.7312E+01   9.9680E+01   0.0000E+00  0.0000
   9.9680E+01   1.0211E+02   0.0000E+00  0.0000
   1.0211E+02   1.0459E+02   0.0000E+00  0.0000
   1.0459E+02   1.0713E+02   0.0000E+00  0.0000
   1.0713E+02   1.0974E+02   0.0000E+00  0.0000
   1.0974E+02   1.1241E+02   0.0000E+00  0.0000
   1.1241E+02   1.1515E+02   0.0000E+00  0.0000
   1.1515E+02   1.1795E+02   0.0000E+00  0.0000
   1.1795E+02   1.2082E+02   0.0000E+00  0.0000
   1.2082E+02   1.2376E+02   0.0000E+00  0.0000
   1.2376E+02   1.2677E+02   0.0000E+00  0.0000
   1.2677E+02   1.2985E+02   0.0000E+00  0.0000
   1.2985E+02   1.3301E+02   0.0000E+00  0.0000
   1.3301E+02   1.3625E+02   0.0000E+00  0.0000
   1.3625E+02   1.3956E+02   0.0000E+00  0.0000
   1.3956E+02   1.4296E+02   0.0000E+00  0.0000
   1.4296E+02   1.4644E+02   0.0000E+00  0.0000
   1.4644E+02   1.5000E+02   0.0000E+00  0.0000

#   sum over                 3.5779E-05
'no. =    1   reg = 109 - 209'
msuc: {\huge [t-cross] in region mesh}
msdr: {\it plotted by \ANGEL \version}
msdl: {\it calculated by \PHITS  3.26}
wt: s(0.7)
\vspace{-3}
  region surface crossing
  area  &=&   1.0000E+00 [cm^2]
e:
 
# Information for Restart Calculation
# This calculation was newly started
# istdev =  2 # 1:Batch variance, 2:History variance
# resc2  = 1.00000000000000000E+09 # Total source weight or Total source weight / maxcas
# resc3  = 1.00000000000000000E+09 # Total history number or Total batch number
# maxcas =   500000000 # History / Batch, only used for istdev=1
# bitrseed = 0001001110011001001001110000100100110111001111011100001000101100 # bit data of rseed
