[ T-Cross ]
    title = [t-cross] in region mesh
     mesh =  reg            # mesh type is region-wise
      reg =    1            # number of crossing regions
      non     r-from    r-to       area
      1       113       213        1.000000    
   e-type =    3            # e-mesh is log given by emin, emax and ne
     emin =  1.0000000E-02  # minimum value of e-mesh points
     emax =   150.0000      # maximum value of e-mesh points
#    edel =  2.4039514E-02  # mesh width of e-mesh points
       ne =    400          # number of e-mesh points
#    data = ( e(i), i = 1, ne + 1 )
#           1.00000E-02  1.02433E-02  1.04925E-02  1.07478E-02  1.10093E-02
#           1.12772E-02  1.15516E-02  1.18326E-02  1.21205E-02  1.24154E-02
#           1.27175E-02  1.30269E-02  1.33439E-02  1.36686E-02  1.40011E-02
#           1.43418E-02  1.46907E-02  1.50482E-02  1.54143E-02  1.57894E-02
#           1.61735E-02  1.65670E-02  1.69701E-02  1.73830E-02  1.78060E-02
#           1.82392E-02  1.86830E-02  1.91375E-02  1.96032E-02  2.00801E-02
#           2.05687E-02  2.10692E-02  2.15818E-02  2.21069E-02  2.26448E-02
#           2.31957E-02  2.37601E-02  2.43382E-02  2.49304E-02  2.55369E-02
#           2.61583E-02  2.67947E-02  2.74467E-02  2.81145E-02  2.87985E-02
#           2.94992E-02  3.02169E-02  3.09521E-02  3.17052E-02  3.24766E-02
#           3.32668E-02  3.40762E-02  3.49053E-02  3.57546E-02  3.66246E-02
#           3.75157E-02  3.84284E-02  3.93634E-02  4.03212E-02  4.13022E-02
#           4.23071E-02  4.33365E-02  4.43909E-02  4.54710E-02  4.65773E-02
#           4.77106E-02  4.88714E-02  5.00605E-02  5.12785E-02  5.25262E-02
#           5.38042E-02  5.51133E-02  5.64542E-02  5.78278E-02  5.92348E-02
#           6.06760E-02  6.21523E-02  6.36645E-02  6.52135E-02  6.68002E-02
#           6.84255E-02  7.00904E-02  7.17957E-02  7.35426E-02  7.53319E-02
#           7.71648E-02  7.90423E-02  8.09655E-02  8.29354E-02  8.49533E-02
#           8.70203E-02  8.91376E-02  9.13064E-02  9.35279E-02  9.58035E-02
#           9.81345E-02  1.00522E-01  1.02968E-01  1.05473E-01  1.08040E-01
#           1.10668E-01  1.13361E-01  1.16119E-01  1.18944E-01  1.21838E-01
#           1.24803E-01  1.27839E-01  1.30950E-01  1.34136E-01  1.37399E-01
#           1.40742E-01  1.44167E-01  1.47675E-01  1.51268E-01  1.54948E-01
#           1.58718E-01  1.62580E-01  1.66535E-01  1.70587E-01  1.74738E-01
#           1.78989E-01  1.83344E-01  1.87805E-01  1.92375E-01  1.97055E-01
#           2.01850E-01  2.06761E-01  2.11792E-01  2.16945E-01  2.22223E-01
#           2.27630E-01  2.33169E-01  2.38842E-01  2.44653E-01  2.50605E-01
#           2.56703E-01  2.62949E-01  2.69346E-01  2.75900E-01  2.82613E-01
#           2.89489E-01  2.96532E-01  3.03747E-01  3.11138E-01  3.18708E-01
#           3.26462E-01  3.34405E-01  3.42542E-01  3.50876E-01  3.59413E-01
#           3.68158E-01  3.77116E-01  3.86291E-01  3.95690E-01  4.05317E-01
#           4.15179E-01  4.25281E-01  4.35628E-01  4.46227E-01  4.57084E-01
#           4.68205E-01  4.79597E-01  4.91266E-01  5.03219E-01  5.15463E-01
#           5.28005E-01  5.40851E-01  5.54011E-01  5.67490E-01  5.81298E-01
#           5.95441E-01  6.09929E-01  6.24769E-01  6.39970E-01  6.55541E-01
#           6.71491E-01  6.87828E-01  7.04564E-01  7.21706E-01  7.39266E-01
#           7.57253E-01  7.75678E-01  7.94551E-01  8.13883E-01  8.33685E-01
#           8.53969E-01  8.74747E-01  8.96030E-01  9.17831E-01  9.40163E-01
#           9.63038E-01  9.86469E-01  1.01047E+00  1.03506E+00  1.06024E+00
#           1.08604E+00  1.11246E+00  1.13953E+00  1.16725E+00  1.19565E+00
#           1.22474E+00  1.25454E+00  1.28507E+00  1.31633E+00  1.34836E+00
#           1.38117E+00  1.41477E+00  1.44920E+00  1.48446E+00  1.52057E+00
#           1.55757E+00  1.59547E+00  1.63429E+00  1.67405E+00  1.71478E+00
#           1.75650E+00  1.79924E+00  1.84302E+00  1.88786E+00  1.93379E+00
#           1.98084E+00  2.02904E+00  2.07841E+00  2.12898E+00  2.18078E+00
#           2.23384E+00  2.28819E+00  2.34386E+00  2.40089E+00  2.45930E+00
#           2.51914E+00  2.58043E+00  2.64322E+00  2.70753E+00  2.77341E+00
#           2.84088E+00  2.91001E+00  2.98081E+00  3.05333E+00  3.12762E+00
#           3.20372E+00  3.28167E+00  3.36152E+00  3.44330E+00  3.52708E+00
#           3.61290E+00  3.70080E+00  3.79085E+00  3.88308E+00  3.97756E+00
#           4.07434E+00  4.17347E+00  4.27501E+00  4.37903E+00  4.48557E+00
#           4.59471E+00  4.70650E+00  4.82102E+00  4.93832E+00  5.05847E+00
#           5.18155E+00  5.30762E+00  5.43676E+00  5.56904E+00  5.70453E+00
#           5.84333E+00  5.98550E+00  6.13114E+00  6.28031E+00  6.43312E+00
#           6.58964E+00  6.74997E+00  6.91420E+00  7.08243E+00  7.25475E+00
#           7.43126E+00  7.61207E+00  7.79728E+00  7.98700E+00  8.18133E+00
#           8.38038E+00  8.58428E+00  8.79315E+00  9.00709E+00  9.22624E+00
#           9.45072E+00  9.68067E+00  9.91620E+00  1.01575E+01  1.04046E+01
#           1.06578E+01  1.09171E+01  1.11827E+01  1.14548E+01  1.17335E+01
#           1.20190E+01  1.23114E+01  1.26109E+01  1.29178E+01  1.32321E+01
#           1.35540E+01  1.38838E+01  1.42216E+01  1.45676E+01  1.49221E+01
#           1.52851E+01  1.56570E+01  1.60380E+01  1.64282E+01  1.68279E+01
#           1.72374E+01  1.76568E+01  1.80864E+01  1.85264E+01  1.89772E+01
#           1.94389E+01  1.99119E+01  2.03963E+01  2.08926E+01  2.14009E+01
#           2.19216E+01  2.24550E+01  2.30014E+01  2.35610E+01  2.41343E+01
#           2.47215E+01  2.53230E+01  2.59391E+01  2.65702E+01  2.72167E+01
#           2.78789E+01  2.85572E+01  2.92520E+01  2.99637E+01  3.06928E+01
#           3.14396E+01  3.22045E+01  3.29881E+01  3.37907E+01  3.46128E+01
#           3.54550E+01  3.63177E+01  3.72013E+01  3.81064E+01  3.90336E+01
#           3.99833E+01  4.09561E+01  4.19526E+01  4.29734E+01  4.40189E+01
#           4.50900E+01  4.61870E+01  4.73108E+01  4.84619E+01  4.96410E+01
#           5.08488E+01  5.20860E+01  5.33533E+01  5.46514E+01  5.59812E+01
#           5.73432E+01  5.87384E+01  6.01676E+01  6.16315E+01  6.31311E+01
#           6.46671E+01  6.62405E+01  6.78522E+01  6.95031E+01  7.11941E+01
#           7.29263E+01  7.47007E+01  7.65182E+01  7.83800E+01  8.02870E+01
#           8.22405E+01  8.42414E+01  8.62911E+01  8.83906E+01  9.05412E+01
#           9.27442E+01  9.50007E+01  9.73122E+01  9.96799E+01  1.02105E+02
#           1.04589E+02  1.07134E+02  1.09741E+02  1.12411E+02  1.15146E+02
#           1.17948E+02  1.20817E+02  1.23757E+02  1.26768E+02  1.29852E+02
#           1.33012E+02  1.36248E+02  1.39563E+02  1.42959E+02  1.46437E+02
#           1.50000E+02
     unit =    2            # unit is [1/cm^2/(MeV/n)/source]
     axis =  eng            # axis of output
     file = detector-14.out  # file name of output for the above axis
   output = f-curr          # surface crossing forward current spectrum
     part =  neutron  
# kf/name :  2112     
#    used :        main (  %)        temp (  %)       total (  %)
#  memory :         414 (  0)           0 (  0)         414 (  0)

#------------------------------------------------------------------------------
#newpage:
#   no. =    1   reg = 113 - 213

x: Energy [MeV/n]
y:  F-Curr [1/cm^2/(MeV/n)/source]         
p: xlog ylog afac(0.8) form(0.9)
h: n            x            y(neutron ),hh0l   n 
#  e-lower      e-upper      neutron     r.err 
   1.0000E-02   1.0243E-02   2.1138E-04  0.1370
   1.0243E-02   1.0493E-02   3.2505E-04  0.1096
   1.0493E-02   1.0748E-02   2.5677E-04  0.1225
   1.0748E-02   1.1009E-02   2.6787E-04  0.1188
   1.1009E-02   1.1277E-02   3.2353E-04  0.1071
   1.1277E-02   1.1552E-02   2.9361E-04  0.1093
   1.1552E-02   1.1833E-02   2.3691E-04  0.1209
   1.1833E-02   1.2121E-02   1.9086E-04  0.1332
   1.2121E-02   1.2415E-02   2.5684E-04  0.1141
   1.2415E-02   1.2718E-02   2.8438E-04  0.1074
   1.2718E-02   1.3027E-02   2.2799E-04  0.1182
   1.3027E-02   1.3344E-02   2.6847E-04  0.1070
   1.3344E-02   1.3669E-02   2.1039E-04  0.1197
   1.3669E-02   1.4001E-02   2.1770E-04  0.1157
   1.4001E-02   1.4342E-02   2.2069E-04  0.1146
   1.4342E-02   1.4691E-02   2.0071E-04  0.1182
   1.4691E-02   1.5048E-02   2.0114E-04  0.1164
   1.5048E-02   1.5414E-02   1.9508E-04  0.1174
   1.5414E-02   1.5789E-02   2.1168E-04  0.1100
   1.5789E-02   1.6174E-02   1.7999E-04  0.1196
   1.6174E-02   1.6567E-02   1.8819E-04  0.1151
   1.6567E-02   1.6970E-02   1.7263E-04  0.1185
   1.6970E-02   1.7383E-02   2.0859E-04  0.1064
   1.7383E-02   1.7806E-02   1.5863E-04  0.1213
   1.7806E-02   1.8239E-02   1.6862E-04  0.1158
   1.8239E-02   1.8683E-02   1.9154E-04  0.1080
   1.8683E-02   1.9138E-02   1.9279E-04  0.1061
   1.9138E-02   1.9603E-02   1.7878E-04  0.1090
   1.9603E-02   2.0080E-02   2.0530E-04  0.0999
   2.0080E-02   2.0569E-02   1.4061E-04  0.1184
   2.0569E-02   2.1069E-02   1.6687E-04  0.1083
   2.1069E-02   2.1582E-02   1.5429E-04  0.1114
   2.1582E-02   2.2107E-02   1.4668E-04  0.1129
   2.2107E-02   2.2645E-02   1.3465E-04  0.1161
   2.2645E-02   2.3196E-02   1.5368E-04  0.1079
   2.3196E-02   2.3760E-02   1.2439E-04  0.1182
   2.3760E-02   2.4338E-02   1.4527E-04  0.1086
   2.4338E-02   2.4930E-02   1.2160E-04  0.1162
   2.4930E-02   2.5537E-02   1.2784E-04  0.1125
   2.5537E-02   2.6158E-02   1.4607E-04  0.1039
   2.6158E-02   2.6795E-02   1.1721E-04  0.1145
   2.6795E-02   2.7447E-02   1.3251E-04  0.1068
   2.7447E-02   2.8114E-02   1.1537E-04  0.1128
   2.8114E-02   2.8799E-02   1.1416E-04  0.1111
   2.8799E-02   2.9499E-02   1.0088E-04  0.1180
   2.9499E-02   3.0217E-02   1.1788E-04  0.1079
   3.0217E-02   3.0952E-02   1.2087E-04  0.1052
   3.0952E-02   3.1705E-02   1.1331E-04  0.1073
   3.1705E-02   3.2477E-02   1.0256E-04  0.1113
   3.2477E-02   3.3267E-02   1.1544E-04  0.1042
   3.3267E-02   3.4076E-02   1.0371E-04  0.1084
   3.4076E-02   3.4905E-02   1.0847E-04  0.1044
   3.4905E-02   3.5755E-02   8.0448E-05  0.1193
   3.5755E-02   3.6625E-02   9.7743E-05  0.1079
   3.6625E-02   3.7516E-02   8.6172E-05  0.1126
   3.7516E-02   3.8428E-02   7.9507E-05  0.1170
   3.8428E-02   3.9363E-02   9.3189E-05  0.1062
   3.9363E-02   4.0321E-02   7.7130E-05  0.1148
   4.0321E-02   4.1302E-02   8.6814E-05  0.1079
   4.1302E-02   4.2307E-02   8.8720E-05  0.1055
   4.2307E-02   4.3337E-02   7.5132E-05  0.1129
   4.3337E-02   4.4391E-02   6.2149E-05  0.1225
   4.4391E-02   4.5471E-02   7.9494E-05  0.1072
   4.5471E-02   4.6577E-02   9.1886E-05  0.0982
   4.6577E-02   4.7711E-02   8.2162E-05  0.1028
   4.7711E-02   4.8871E-02   7.9941E-05  0.1031
   4.8871E-02   5.0061E-02   6.8922E-05  0.1101
   5.0061E-02   5.1279E-02   6.4551E-05  0.1115
   5.1279E-02   5.2526E-02   7.6639E-05  0.1016
   5.2526E-02   5.3804E-02   5.4444E-05  0.1191
   5.3804E-02   5.5113E-02   6.1592E-05  0.1100
   5.5113E-02   5.6454E-02   7.0376E-05  0.1020
   5.6454E-02   5.7828E-02   5.1891E-05  0.1176
   5.7828E-02   5.9235E-02   6.3638E-05  0.1051
   5.9235E-02   6.0676E-02   6.1234E-05  0.1056
   6.0676E-02   6.2152E-02   5.3258E-05  0.1107
   6.2152E-02   6.3665E-02   5.9574E-05  0.1042
   6.3665E-02   6.5214E-02   5.0731E-05  0.1116
   6.5214E-02   6.6800E-02   5.7335E-05  0.1038
   6.6800E-02   6.8426E-02   5.5265E-05  0.1048
   6.8426E-02   7.0090E-02   5.0620E-05  0.1074
   7.0090E-02   7.1796E-02   5.0605E-05  0.1067
   7.1796E-02   7.3543E-02   5.5909E-05  0.1003
   7.3543E-02   7.5332E-02   4.7730E-05  0.1067
   7.5332E-02   7.7165E-02   4.9572E-05  0.1041
   7.7165E-02   7.9042E-02   5.2181E-05  0.1001
   7.9042E-02   8.0965E-02   3.9293E-05  0.1137
   8.0965E-02   8.2935E-02   4.5620E-05  0.1046
   8.2935E-02   8.4953E-02   3.4746E-05  0.1186
   8.4953E-02   8.7020E-02   4.6927E-05  0.1008
   8.7020E-02   8.9138E-02   3.6058E-05  0.1132
   8.9138E-02   9.1306E-02   4.7195E-05  0.0979
   9.1306E-02   9.3528E-02   4.8676E-05  0.0951
   9.3528E-02   9.5804E-02   3.8094E-05  0.1065
   9.5804E-02   9.8134E-02   4.3387E-05  0.0986
   9.8134E-02   1.0052E-01   4.0892E-05  0.1001
   1.0052E-01   1.0297E-01   4.6618E-05  0.0925
   1.0297E-01   1.0547E-01   2.7472E-05  0.1193
   1.0547E-01   1.0804E-01   3.1432E-05  0.1102
   1.0804E-01   1.1067E-01   3.8425E-05  0.0989
   1.1067E-01   1.1336E-01   3.4755E-05  0.1027
   1.1336E-01   1.1612E-01   3.1143E-05  0.1058
   1.1612E-01   1.1894E-01   3.9369E-05  0.0941
   1.1894E-01   1.2184E-01   3.2870E-05  0.1014
   1.2184E-01   1.2480E-01   3.7157E-05  0.0945
   1.2480E-01   1.2784E-01   3.8336E-05  0.0920
   1.2784E-01   1.3095E-01   3.7479E-05  0.0916
   1.3095E-01   1.3414E-01   3.0381E-05  0.1002
   1.3414E-01   1.3740E-01   3.2447E-05  0.0966
   1.3740E-01   1.4074E-01   3.3201E-05  0.0940
   1.4074E-01   1.4417E-01   2.4354E-05  0.1085
   1.4417E-01   1.4767E-01   2.8636E-05  0.0990
   1.4767E-01   1.5127E-01   2.5325E-05  0.1036
   1.5127E-01   1.5495E-01   2.4685E-05  0.1038
   1.5495E-01   1.5872E-01   3.2517E-05  0.0897
   1.5872E-01   1.6258E-01   3.1804E-05  0.0898
   1.6258E-01   1.6654E-01   2.9244E-05  0.0926
   1.6654E-01   1.7059E-01   2.6693E-05  0.0954
   1.7059E-01   1.7474E-01   2.6422E-05  0.0947
   1.7474E-01   1.7899E-01   2.8913E-05  0.0894
   1.7899E-01   1.8334E-01   2.7481E-05  0.0898
   1.8334E-01   1.8781E-01   2.5231E-05  0.0931
   1.8781E-01   1.9237E-01   2.4520E-05  0.0935
   1.9237E-01   1.9706E-01   2.4292E-05  0.0930
   1.9706E-01   2.0185E-01   2.7531E-05  0.0866
   2.0185E-01   2.0676E-01   2.3826E-05  0.0916
   2.0676E-01   2.1179E-01   2.3547E-05  0.0906
   2.1179E-01   2.1694E-01   3.1822E-05  0.0772
   2.1694E-01   2.2222E-01   2.8781E-05  0.0806
   2.2222E-01   2.2763E-01   3.1586E-05  0.0759
   2.2763E-01   2.3317E-01   3.2822E-05  0.0735
   2.3317E-01   2.3884E-01   3.6855E-05  0.0684
   2.3884E-01   2.4465E-01   3.4417E-05  0.0700
   2.4465E-01   2.5061E-01   3.4022E-05  0.0694
   2.5061E-01   2.5670E-01   4.0739E-05  0.0630
   2.5670E-01   2.6295E-01   4.0633E-05  0.0623
   2.6295E-01   2.6935E-01   4.5508E-05  0.0579
   2.6935E-01   2.7590E-01   4.1293E-05  0.0600
   2.7590E-01   2.8261E-01   5.2066E-05  0.0531
   2.8261E-01   2.8949E-01   4.7264E-05  0.0550
   2.8949E-01   2.9653E-01   5.0809E-05  0.0524
   2.9653E-01   3.0375E-01   5.5673E-05  0.0495
   3.0375E-01   3.1114E-01   5.3064E-05  0.0501
   3.1114E-01   3.1871E-01   5.9826E-05  0.0465
   3.1871E-01   3.2646E-01   6.0135E-05  0.0460
   3.2646E-01   3.3441E-01   6.3700E-05  0.0442
   3.3441E-01   3.4254E-01   6.5956E-05  0.0428
   3.4254E-01   3.5088E-01   6.7724E-05  0.0417
   3.5088E-01   3.5941E-01   7.6609E-05  0.0388
   3.5941E-01   3.6816E-01   7.4373E-05  0.0389
   3.6816E-01   3.7712E-01   7.7792E-05  0.0375
   3.7712E-01   3.8629E-01   8.0380E-05  0.0365
   3.8629E-01   3.9569E-01   8.9712E-05  0.0342
   3.9569E-01   4.0532E-01   9.1126E-05  0.0335
   4.0532E-01   4.1518E-01   9.2480E-05  0.0329
   4.1518E-01   4.2528E-01   9.9933E-05  0.0312
   4.2528E-01   4.3563E-01   1.0545E-04  0.0300
   4.3563E-01   4.4623E-01   1.1196E-04  0.0288
   4.4623E-01   4.5708E-01   1.1495E-04  0.0281
   4.5708E-01   4.6821E-01   1.2328E-04  0.0268
   4.6821E-01   4.7960E-01   1.2720E-04  0.0261
   4.7960E-01   4.9127E-01   1.3514E-04  0.0250
   4.9127E-01   5.0322E-01   1.3092E-04  0.0251
   5.0322E-01   5.1546E-01   1.4465E-04  0.0236
   5.1546E-01   5.2800E-01   1.4840E-04  0.0230
   5.2800E-01   5.4085E-01   1.5818E-04  0.0220
   5.4085E-01   5.5401E-01   1.6380E-04  0.0214
   5.5401E-01   5.6749E-01   1.6887E-04  0.0208
   5.6749E-01   5.8130E-01   1.8148E-04  0.0198
   5.8130E-01   5.9544E-01   1.8575E-04  0.0193
   5.9544E-01   6.0993E-01   1.9530E-04  0.0186
   6.0993E-01   6.2477E-01   2.0454E-04  0.0180
   6.2477E-01   6.3997E-01   2.0626E-04  0.0177
   6.3997E-01   6.5554E-01   2.2081E-04  0.0169
   6.5554E-01   6.7149E-01   2.2602E-04  0.0165
   6.7149E-01   6.8783E-01   2.3630E-04  0.0160
   6.8783E-01   7.0456E-01   2.4069E-04  0.0156
   7.0456E-01   7.2171E-01   2.6065E-04  0.0149
   7.2171E-01   7.3927E-01   2.6821E-04  0.0145
   7.3927E-01   7.5725E-01   2.7466E-04  0.0141
   7.5725E-01   7.7568E-01   2.9081E-04  0.0136
   7.7568E-01   7.9455E-01   3.0069E-04  0.0132
   7.9455E-01   8.1388E-01   3.1182E-04  0.0128
   8.1388E-01   8.3368E-01   3.2548E-04  0.0124
   8.3368E-01   8.5397E-01   3.3687E-04  0.0120
   8.5397E-01   8.7475E-01   3.4353E-04  0.0118
   8.7475E-01   8.9603E-01   3.5837E-04  0.0114
   8.9603E-01   9.1783E-01   3.6389E-04  0.0111
   9.1783E-01   9.4016E-01   3.7363E-04  0.0109
   9.4016E-01   9.6304E-01   3.9405E-04  0.0105
   9.6304E-01   9.8647E-01   4.0720E-04  0.0102
   9.8647E-01   1.0105E+00   4.1061E-04  0.0100
   1.0105E+00   1.0351E+00   4.1673E-04  0.0098
   1.0351E+00   1.0602E+00   4.2324E-04  0.0096
   1.0602E+00   1.0860E+00   4.2567E-04  0.0095
   1.0860E+00   1.1125E+00   4.3236E-04  0.0093
   1.1125E+00   1.1395E+00   4.5092E-04  0.0090
   1.1395E+00   1.1673E+00   4.5020E-04  0.0089
   1.1673E+00   1.1957E+00   4.7156E-04  0.0086
   1.1957E+00   1.2247E+00   4.7703E-04  0.0084
   1.2247E+00   1.2545E+00   4.8010E-04  0.0083
   1.2545E+00   1.2851E+00   4.8082E-04  0.0082
   1.2851E+00   1.3163E+00   4.8378E-04  0.0081
   1.3163E+00   1.3484E+00   4.9740E-04  0.0079
   1.3484E+00   1.3812E+00   4.9942E-04  0.0077
   1.3812E+00   1.4148E+00   5.2848E-04  0.0074
   1.4148E+00   1.4492E+00   5.3145E-04  0.0073
   1.4492E+00   1.4845E+00   5.3761E-04  0.0072
   1.4845E+00   1.5206E+00   5.4331E-04  0.0071
   1.5206E+00   1.5576E+00   5.3178E-04  0.0071
   1.5576E+00   1.5955E+00   5.2660E-04  0.0070
   1.5955E+00   1.6343E+00   5.2396E-04  0.0070
   1.6343E+00   1.6741E+00   5.2299E-04  0.0069
   1.6741E+00   1.7148E+00   5.1830E-04  0.0068
   1.7148E+00   1.7565E+00   5.1952E-04  0.0067
   1.7565E+00   1.7992E+00   5.2367E-04  0.0066
   1.7992E+00   1.8430E+00   5.3230E-04  0.0065
   1.8430E+00   1.8879E+00   5.1720E-04  0.0065
   1.8879E+00   1.9338E+00   5.1954E-04  0.0064
   1.9338E+00   1.9808E+00   5.1762E-04  0.0064
   1.9808E+00   2.0290E+00   5.2201E-04  0.0063
   2.0290E+00   2.0784E+00   5.0855E-04  0.0063
   2.0784E+00   2.1290E+00   5.0779E-04  0.0062
   2.1290E+00   2.1808E+00   4.8756E-04  0.0062
   2.1808E+00   2.2338E+00   4.8547E-04  0.0062
   2.2338E+00   2.2882E+00   4.8076E-04  0.0061
   2.2882E+00   2.3439E+00   4.6869E-04  0.0061
   2.3439E+00   2.4009E+00   4.7146E-04  0.0060
   2.4009E+00   2.4593E+00   4.6290E-04  0.0060
   2.4593E+00   2.5191E+00   4.6685E-04  0.0059
   2.5191E+00   2.5804E+00   4.5394E-04  0.0059
   2.5804E+00   2.6432E+00   4.4603E-04  0.0059
   2.6432E+00   2.7075E+00   4.3882E-04  0.0059
   2.7075E+00   2.7734E+00   4.2366E-04  0.0059
   2.7734E+00   2.8409E+00   4.1456E-04  0.0059
   2.8409E+00   2.9100E+00   4.0913E-04  0.0059
   2.9100E+00   2.9808E+00   4.0391E-04  0.0059
   2.9808E+00   3.0533E+00   3.9791E-04  0.0058
   3.0533E+00   3.1276E+00   3.8950E-04  0.0058
   3.1276E+00   3.2037E+00   3.7553E-04  0.0059
   3.2037E+00   3.2817E+00   3.6843E-04  0.0059
   3.2817E+00   3.3615E+00   3.6214E-04  0.0058
   3.3615E+00   3.4433E+00   3.5436E-04  0.0058
   3.4433E+00   3.5271E+00   3.5219E-04  0.0058
   3.5271E+00   3.6129E+00   3.4221E-04  0.0058
   3.6129E+00   3.7008E+00   3.3412E-04  0.0058
   3.7008E+00   3.7908E+00   3.2585E-04  0.0058
   3.7908E+00   3.8831E+00   3.1389E-04  0.0058
   3.8831E+00   3.9776E+00   3.1336E-04  0.0058
   3.9776E+00   4.0743E+00   3.0828E-04  0.0057
   4.0743E+00   4.1735E+00   2.9771E-04  0.0058
   4.1735E+00   4.2750E+00   2.9256E-04  0.0058
   4.2750E+00   4.3790E+00   2.8742E-04  0.0057
   4.3790E+00   4.4856E+00   2.8119E-04  0.0057
   4.4856E+00   4.5947E+00   2.7674E-04  0.0057
   4.5947E+00   4.7065E+00   2.7084E-04  0.0057
   4.7065E+00   4.8210E+00   2.7038E-04  0.0056
   4.8210E+00   4.9383E+00   2.6362E-04  0.0056
   4.9383E+00   5.0585E+00   2.6086E-04  0.0056
   5.0585E+00   5.1815E+00   2.5495E-04  0.0056
   5.1815E+00   5.3076E+00   2.4790E-04  0.0056
   5.3076E+00   5.4368E+00   2.3999E-04  0.0056
   5.4368E+00   5.5690E+00   2.3456E-04  0.0056
   5.5690E+00   5.7045E+00   2.2682E-04  0.0057
   5.7045E+00   5.8433E+00   2.1919E-04  0.0057
   5.8433E+00   5.9855E+00   2.1172E-04  0.0057
   5.9855E+00   6.1311E+00   2.0522E-04  0.0057
   6.1311E+00   6.2803E+00   1.9747E-04  0.0058
   6.2803E+00   6.4331E+00   1.8871E-04  0.0059
   6.4331E+00   6.5896E+00   1.8411E-04  0.0059
   6.5896E+00   6.7500E+00   1.7644E-04  0.0059
   6.7500E+00   6.9142E+00   1.6881E-04  0.0060
   6.9142E+00   7.0824E+00   1.6266E-04  0.0060
   7.0824E+00   7.2548E+00   1.5675E-04  0.0061
   7.2548E+00   7.4313E+00   1.5082E-04  0.0061
   7.4313E+00   7.6121E+00   1.4504E-04  0.0061
   7.6121E+00   7.7973E+00   1.3927E-04  0.0062
   7.7973E+00   7.9870E+00   1.3415E-04  0.0062
   7.9870E+00   8.1813E+00   1.2640E-04  0.0064
   8.1813E+00   8.3804E+00   1.2111E-04  0.0064
   8.3804E+00   8.5843E+00   1.1644E-04  0.0065
   8.5843E+00   8.7931E+00   1.1020E-04  0.0066
   8.7931E+00   9.0071E+00   1.0421E-04  0.0067
   9.0071E+00   9.2262E+00   9.9810E-05  0.0067
   9.2262E+00   9.4507E+00   9.4661E-05  0.0068
   9.4507E+00   9.6807E+00   8.8368E-05  0.0070
   9.6807E+00   9.9162E+00   8.3865E-05  0.0071
   9.9162E+00   1.0157E+01   7.9486E-05  0.0072
   1.0157E+01   1.0405E+01   7.3730E-05  0.0074
   1.0405E+01   1.0658E+01   7.0994E-05  0.0074
   1.0658E+01   1.0917E+01   6.5661E-05  0.0077
   1.0917E+01   1.1183E+01   6.1521E-05  0.0078
   1.1183E+01   1.1455E+01   5.7288E-05  0.0080
   1.1455E+01   1.1733E+01   5.4898E-05  0.0081
   1.1733E+01   1.2019E+01   5.0486E-05  0.0083
   1.2019E+01   1.2311E+01   4.6923E-05  0.0085
   1.2311E+01   1.2611E+01   4.4301E-05  0.0087
   1.2611E+01   1.2918E+01   4.1349E-05  0.0089
   1.2918E+01   1.3232E+01   3.8218E-05  0.0091
   1.3232E+01   1.3554E+01   3.5035E-05  0.0094
   1.3554E+01   1.3884E+01   3.2537E-05  0.0096
   1.3884E+01   1.4222E+01   2.9608E-05  0.0100
   1.4222E+01   1.4568E+01   2.7365E-05  0.0103
   1.4568E+01   1.4922E+01   2.5405E-05  0.0105
   1.4922E+01   1.5285E+01   2.3156E-05  0.0109
   1.5285E+01   1.5657E+01   2.1076E-05  0.0113
   1.5657E+01   1.6038E+01   1.9375E-05  0.0116
   1.6038E+01   1.6428E+01   1.7158E-05  0.0122
   1.6428E+01   1.6828E+01   1.5544E-05  0.0127
   1.6828E+01   1.7237E+01   1.3740E-05  0.0133
   1.7237E+01   1.7657E+01   1.2261E-05  0.0139
   1.7657E+01   1.8086E+01   1.0628E-05  0.0148
   1.8086E+01   1.8526E+01   9.1966E-06  0.0157
   1.8526E+01   1.8977E+01   8.2134E-06  0.0164
   1.8977E+01   1.9439E+01   7.4784E-06  0.0170
   1.9439E+01   1.9912E+01   6.8441E-06  0.0176
   1.9912E+01   2.0396E+01   6.2419E-06  0.0182
   2.0396E+01   2.0893E+01   5.4548E-06  0.0192
   2.0893E+01   2.1401E+01   4.7548E-06  0.0203
   2.1401E+01   2.1922E+01   3.9082E-06  0.0222
   2.1922E+01   2.2455E+01   3.1854E-06  0.0243
   2.2455E+01   2.3001E+01   2.4856E-06  0.0271
   2.3001E+01   2.3561E+01   2.0692E-06  0.0294
   2.3561E+01   2.4134E+01   1.7270E-06  0.0318
   2.4134E+01   2.4721E+01   1.4458E-06  0.0343
   2.4721E+01   2.5323E+01   1.1821E-06  0.0375
   2.5323E+01   2.5939E+01   9.3649E-07  0.0416
   2.5939E+01   2.6570E+01   7.9858E-07  0.0445
   2.6570E+01   2.7217E+01   6.3885E-07  0.0492
   2.7217E+01   2.7879E+01   5.1797E-07  0.0540
   2.7879E+01   2.8557E+01   3.7446E-07  0.0627
   2.8557E+01   2.9252E+01   3.7276E-07  0.0621
   2.9252E+01   2.9964E+01   2.4729E-07  0.0754
   2.9964E+01   3.0693E+01   2.0438E-07  0.0819
   3.0693E+01   3.1440E+01   1.8212E-07  0.0857
   3.1440E+01   3.2205E+01   1.2288E-07  0.1031
   3.2205E+01   3.2988E+01   7.4021E-08  0.1313
   3.2988E+01   3.3791E+01   4.9836E-08  0.1581
   3.3791E+01   3.4613E+01   3.7706E-08  0.1796
   3.4613E+01   3.5455E+01   2.0186E-08  0.2425
   3.5455E+01   3.6318E+01   1.1592E-08  0.3162
   3.6318E+01   3.7201E+01   1.1317E-08  0.3162
   3.7201E+01   3.8106E+01   2.2096E-09  0.7071
   3.8106E+01   3.9034E+01   0.0000E+00  0.0000
   3.9034E+01   3.9983E+01   1.0529E-09  1.0000
   3.9983E+01   4.0956E+01   0.0000E+00  0.0000
   4.0956E+01   4.1953E+01   0.0000E+00  0.0000
   4.1953E+01   4.2973E+01   0.0000E+00  0.0000
   4.2973E+01   4.4019E+01   0.0000E+00  0.0000
   4.4019E+01   4.5090E+01   0.0000E+00  0.0000
   4.5090E+01   4.6187E+01   0.0000E+00  0.0000
   4.6187E+01   4.7311E+01   0.0000E+00  0.0000
   4.7311E+01   4.8462E+01   0.0000E+00  0.0000
   4.8462E+01   4.9641E+01   0.0000E+00  0.0000
   4.9641E+01   5.0849E+01   0.0000E+00  0.0000
   5.0849E+01   5.2086E+01   0.0000E+00  0.0000
   5.2086E+01   5.3353E+01   0.0000E+00  0.0000
   5.3353E+01   5.4651E+01   0.0000E+00  0.0000
   5.4651E+01   5.5981E+01   0.0000E+00  0.0000
   5.5981E+01   5.7343E+01   0.0000E+00  0.0000
   5.7343E+01   5.8738E+01   0.0000E+00  0.0000
   5.8738E+01   6.0168E+01   0.0000E+00  0.0000
   6.0168E+01   6.1632E+01   0.0000E+00  0.0000
   6.1632E+01   6.3131E+01   0.0000E+00  0.0000
   6.3131E+01   6.4667E+01   0.0000E+00  0.0000
   6.4667E+01   6.6240E+01   0.0000E+00  0.0000
   6.6240E+01   6.7852E+01   0.0000E+00  0.0000
   6.7852E+01   6.9503E+01   0.0000E+00  0.0000
   6.9503E+01   7.1194E+01   0.0000E+00  0.0000
   7.1194E+01   7.2926E+01   0.0000E+00  0.0000
   7.2926E+01   7.4701E+01   0.0000E+00  0.0000
   7.4701E+01   7.6518E+01   0.0000E+00  0.0000
   7.6518E+01   7.8380E+01   0.0000E+00  0.0000
   7.8380E+01   8.0287E+01   0.0000E+00  0.0000
   8.0287E+01   8.2240E+01   0.0000E+00  0.0000
   8.2240E+01   8.4241E+01   0.0000E+00  0.0000
   8.4241E+01   8.6291E+01   0.0000E+00  0.0000
   8.6291E+01   8.8391E+01   0.0000E+00  0.0000
   8.8391E+01   9.0541E+01   0.0000E+00  0.0000
   9.0541E+01   9.2744E+01   0.0000E+00  0.0000
   9.2744E+01   9.5001E+01   0.0000E+00  0.0000
   9.5001E+01   9.7312E+01   0.0000E+00  0.0000
   9.7312E+01   9.9680E+01   0.0000E+00  0.0000
   9.9680E+01   1.0211E+02   0.0000E+00  0.0000
   1.0211E+02   1.0459E+02   0.0000E+00  0.0000
   1.0459E+02   1.0713E+02   0.0000E+00  0.0000
   1.0713E+02   1.0974E+02   0.0000E+00  0.0000
   1.0974E+02   1.1241E+02   0.0000E+00  0.0000
   1.1241E+02   1.1515E+02   0.0000E+00  0.0000
   1.1515E+02   1.1795E+02   0.0000E+00  0.0000
   1.1795E+02   1.2082E+02   0.0000E+00  0.0000
   1.2082E+02   1.2376E+02   0.0000E+00  0.0000
   1.2376E+02   1.2677E+02   0.0000E+00  0.0000
   1.2677E+02   1.2985E+02   0.0000E+00  0.0000
   1.2985E+02   1.3301E+02   0.0000E+00  0.0000
   1.3301E+02   1.3625E+02   0.0000E+00  0.0000
   1.3625E+02   1.3956E+02   0.0000E+00  0.0000
   1.3956E+02   1.4296E+02   0.0000E+00  0.0000
   1.4296E+02   1.4644E+02   0.0000E+00  0.0000
   1.4644E+02   1.5000E+02   0.0000E+00  0.0000

#   sum over                 1.8962E-05
'no. =    1   reg = 113 - 213'
msuc: {\huge [t-cross] in region mesh}
msdr: {\it plotted by \ANGEL \version}
msdl: {\it calculated by \PHITS  3.26}
wt: s(0.7)
\vspace{-3}
  region surface crossing
  area  &=&   1.0000E+00 [cm^2]
e:
 
# Information for Restart Calculation
# This calculation was newly started
# istdev =  2 # 1:Batch variance, 2:History variance
# resc2  = 1.00000000000000000E+09 # Total source weight or Total source weight / maxcas
# resc3  = 1.00000000000000000E+09 # Total history number or Total batch number
# maxcas =   500000000 # History / Batch, only used for istdev=1
# bitrseed = 0001001110011001001001110000100100110111001111011100001000101100 # bit data of rseed
