[ T-Cross ]
    title = [t-cross] in region mesh
     mesh =  reg            # mesh type is region-wise
      reg =    1            # number of crossing regions
      non     r-from    r-to       area
      1       113       213        1.000000    
   e-type =    3            # e-mesh is log given by emin, emax and ne
     emin =  1.0000000E-02  # minimum value of e-mesh points
     emax =   150.0000      # maximum value of e-mesh points
#    edel =  2.4039514E-02  # mesh width of e-mesh points
       ne =    400          # number of e-mesh points
#    data = ( e(i), i = 1, ne + 1 )
#           1.00000E-02  1.02433E-02  1.04925E-02  1.07478E-02  1.10093E-02
#           1.12772E-02  1.15516E-02  1.18326E-02  1.21205E-02  1.24154E-02
#           1.27175E-02  1.30269E-02  1.33439E-02  1.36686E-02  1.40011E-02
#           1.43418E-02  1.46907E-02  1.50482E-02  1.54143E-02  1.57894E-02
#           1.61735E-02  1.65670E-02  1.69701E-02  1.73830E-02  1.78060E-02
#           1.82392E-02  1.86830E-02  1.91375E-02  1.96032E-02  2.00801E-02
#           2.05687E-02  2.10692E-02  2.15818E-02  2.21069E-02  2.26448E-02
#           2.31957E-02  2.37601E-02  2.43382E-02  2.49304E-02  2.55369E-02
#           2.61583E-02  2.67947E-02  2.74467E-02  2.81145E-02  2.87985E-02
#           2.94992E-02  3.02169E-02  3.09521E-02  3.17052E-02  3.24766E-02
#           3.32668E-02  3.40762E-02  3.49053E-02  3.57546E-02  3.66246E-02
#           3.75157E-02  3.84284E-02  3.93634E-02  4.03212E-02  4.13022E-02
#           4.23071E-02  4.33365E-02  4.43909E-02  4.54710E-02  4.65773E-02
#           4.77106E-02  4.88714E-02  5.00605E-02  5.12785E-02  5.25262E-02
#           5.38042E-02  5.51133E-02  5.64542E-02  5.78278E-02  5.92348E-02
#           6.06760E-02  6.21523E-02  6.36645E-02  6.52135E-02  6.68002E-02
#           6.84255E-02  7.00904E-02  7.17957E-02  7.35426E-02  7.53319E-02
#           7.71648E-02  7.90423E-02  8.09655E-02  8.29354E-02  8.49533E-02
#           8.70203E-02  8.91376E-02  9.13064E-02  9.35279E-02  9.58035E-02
#           9.81345E-02  1.00522E-01  1.02968E-01  1.05473E-01  1.08040E-01
#           1.10668E-01  1.13361E-01  1.16119E-01  1.18944E-01  1.21838E-01
#           1.24803E-01  1.27839E-01  1.30950E-01  1.34136E-01  1.37399E-01
#           1.40742E-01  1.44167E-01  1.47675E-01  1.51268E-01  1.54948E-01
#           1.58718E-01  1.62580E-01  1.66535E-01  1.70587E-01  1.74738E-01
#           1.78989E-01  1.83344E-01  1.87805E-01  1.92375E-01  1.97055E-01
#           2.01850E-01  2.06761E-01  2.11792E-01  2.16945E-01  2.22223E-01
#           2.27630E-01  2.33169E-01  2.38842E-01  2.44653E-01  2.50605E-01
#           2.56703E-01  2.62949E-01  2.69346E-01  2.75900E-01  2.82613E-01
#           2.89489E-01  2.96532E-01  3.03747E-01  3.11138E-01  3.18708E-01
#           3.26462E-01  3.34405E-01  3.42542E-01  3.50876E-01  3.59413E-01
#           3.68158E-01  3.77116E-01  3.86291E-01  3.95690E-01  4.05317E-01
#           4.15179E-01  4.25281E-01  4.35628E-01  4.46227E-01  4.57084E-01
#           4.68205E-01  4.79597E-01  4.91266E-01  5.03219E-01  5.15463E-01
#           5.28005E-01  5.40851E-01  5.54011E-01  5.67490E-01  5.81298E-01
#           5.95441E-01  6.09929E-01  6.24769E-01  6.39970E-01  6.55541E-01
#           6.71491E-01  6.87828E-01  7.04564E-01  7.21706E-01  7.39266E-01
#           7.57253E-01  7.75678E-01  7.94551E-01  8.13883E-01  8.33685E-01
#           8.53969E-01  8.74747E-01  8.96030E-01  9.17831E-01  9.40163E-01
#           9.63038E-01  9.86469E-01  1.01047E+00  1.03506E+00  1.06024E+00
#           1.08604E+00  1.11246E+00  1.13953E+00  1.16725E+00  1.19565E+00
#           1.22474E+00  1.25454E+00  1.28507E+00  1.31633E+00  1.34836E+00
#           1.38117E+00  1.41477E+00  1.44920E+00  1.48446E+00  1.52057E+00
#           1.55757E+00  1.59547E+00  1.63429E+00  1.67405E+00  1.71478E+00
#           1.75650E+00  1.79924E+00  1.84302E+00  1.88786E+00  1.93379E+00
#           1.98084E+00  2.02904E+00  2.07841E+00  2.12898E+00  2.18078E+00
#           2.23384E+00  2.28819E+00  2.34386E+00  2.40089E+00  2.45930E+00
#           2.51914E+00  2.58043E+00  2.64322E+00  2.70753E+00  2.77341E+00
#           2.84088E+00  2.91001E+00  2.98081E+00  3.05333E+00  3.12762E+00
#           3.20372E+00  3.28167E+00  3.36152E+00  3.44330E+00  3.52708E+00
#           3.61290E+00  3.70080E+00  3.79085E+00  3.88308E+00  3.97756E+00
#           4.07434E+00  4.17347E+00  4.27501E+00  4.37903E+00  4.48557E+00
#           4.59471E+00  4.70650E+00  4.82102E+00  4.93832E+00  5.05847E+00
#           5.18155E+00  5.30762E+00  5.43676E+00  5.56904E+00  5.70453E+00
#           5.84333E+00  5.98550E+00  6.13114E+00  6.28031E+00  6.43312E+00
#           6.58964E+00  6.74997E+00  6.91420E+00  7.08243E+00  7.25475E+00
#           7.43126E+00  7.61207E+00  7.79728E+00  7.98700E+00  8.18133E+00
#           8.38038E+00  8.58428E+00  8.79315E+00  9.00709E+00  9.22624E+00
#           9.45072E+00  9.68067E+00  9.91620E+00  1.01575E+01  1.04046E+01
#           1.06578E+01  1.09171E+01  1.11827E+01  1.14548E+01  1.17335E+01
#           1.20190E+01  1.23114E+01  1.26109E+01  1.29178E+01  1.32321E+01
#           1.35540E+01  1.38838E+01  1.42216E+01  1.45676E+01  1.49221E+01
#           1.52851E+01  1.56570E+01  1.60380E+01  1.64282E+01  1.68279E+01
#           1.72374E+01  1.76568E+01  1.80864E+01  1.85264E+01  1.89772E+01
#           1.94389E+01  1.99119E+01  2.03963E+01  2.08926E+01  2.14009E+01
#           2.19216E+01  2.24550E+01  2.30014E+01  2.35610E+01  2.41343E+01
#           2.47215E+01  2.53230E+01  2.59391E+01  2.65702E+01  2.72167E+01
#           2.78789E+01  2.85572E+01  2.92520E+01  2.99637E+01  3.06928E+01
#           3.14396E+01  3.22045E+01  3.29881E+01  3.37907E+01  3.46128E+01
#           3.54550E+01  3.63177E+01  3.72013E+01  3.81064E+01  3.90336E+01
#           3.99833E+01  4.09561E+01  4.19526E+01  4.29734E+01  4.40189E+01
#           4.50900E+01  4.61870E+01  4.73108E+01  4.84619E+01  4.96410E+01
#           5.08488E+01  5.20860E+01  5.33533E+01  5.46514E+01  5.59812E+01
#           5.73432E+01  5.87384E+01  6.01676E+01  6.16315E+01  6.31311E+01
#           6.46671E+01  6.62405E+01  6.78522E+01  6.95031E+01  7.11941E+01
#           7.29263E+01  7.47007E+01  7.65182E+01  7.83800E+01  8.02870E+01
#           8.22405E+01  8.42414E+01  8.62911E+01  8.83906E+01  9.05412E+01
#           9.27442E+01  9.50007E+01  9.73122E+01  9.96799E+01  1.02105E+02
#           1.04589E+02  1.07134E+02  1.09741E+02  1.12411E+02  1.15146E+02
#           1.17948E+02  1.20817E+02  1.23757E+02  1.26768E+02  1.29852E+02
#           1.33012E+02  1.36248E+02  1.39563E+02  1.42959E+02  1.46437E+02
#           1.50000E+02
     unit =    2            # unit is [1/cm^2/(MeV/n)/source]
     axis =  eng            # axis of output
     file = detector-14.out  # file name of output for the above axis
   output = f-curr          # surface crossing forward current spectrum
     part =  neutron  
# kf/name :  2112     
#    used :        main (  %)        temp (  %)       total (  %)
#  memory :         414 (  0)           0 (  0)         414 (  0)

#------------------------------------------------------------------------------
#newpage:
#   no. =    1   reg = 113 - 213

x: Energy [MeV/n]
y:  F-Curr [1/cm^2/(MeV/n)/source]         
p: xlog ylog afac(0.8) form(0.9)
h: n            x            y(neutron ),hh0l   n 
#  e-lower      e-upper      neutron     r.err 
   1.0000E-02   1.0243E-02   4.6580E-05  0.2425
   1.0243E-02   1.0493E-02   5.3499E-05  0.2236
   1.0493E-02   1.0748E-02   3.6559E-05  0.2673
   1.0748E-02   1.1009E-02   7.9030E-05  0.1796
   1.1009E-02   1.1277E-02   7.4664E-05  0.1826
   1.1277E-02   1.1552E-02   7.7750E-05  0.1768
   1.1552E-02   1.1833E-02   7.5903E-05  0.1768
   1.1833E-02   1.2121E-02   7.4100E-05  0.1768
   1.2121E-02   1.2415E-02   4.7473E-05  0.2182
   1.2415E-02   1.2718E-02   7.9450E-05  0.1667
   1.2718E-02   1.3027E-02   5.3863E-05  0.2000
   1.3027E-02   1.3344E-02   6.3100E-05  0.1826
   1.3344E-02   1.3669E-02   6.1601E-05  0.1826
   1.3669E-02   1.4001E-02   7.0161E-05  0.1690
   1.4001E-02   1.4342E-02   6.8495E-05  0.1690
   1.4342E-02   1.4691E-02   6.3047E-05  0.1741
   1.4691E-02   1.5048E-02   9.3256E-05  0.1414
   1.5048E-02   1.5414E-02   9.2862E-05  0.1400
   1.5414E-02   1.5789E-02   7.8213E-05  0.1508
   1.5789E-02   1.6174E-02   8.3297E-05  0.1443
   1.6174E-02   1.6567E-02   6.9460E-05  0.1562
   1.6567E-02   1.6970E-02   7.1117E-05  0.1525
   1.6970E-02   1.7383E-02   9.5262E-05  0.1302
   1.7383E-02   1.7806E-02   8.1965E-05  0.1387
   1.7806E-02   1.8239E-02   6.9247E-05  0.1491
   1.8239E-02   1.8683E-02   8.1122E-05  0.1361
   1.8683E-02   1.9138E-02   9.8261E-05  0.1222
   1.9138E-02   1.9603E-02   8.8768E-05  0.1270
   1.9603E-02   2.0080E-02   7.9671E-05  0.1325
   2.0080E-02   2.0569E-02   7.0956E-05  0.1387
   2.0569E-02   2.1069E-02   7.5931E-05  0.1325
   2.1069E-02   2.1582E-02   7.5428E-05  0.1313
   2.1582E-02   2.2107E-02   8.1254E-05  0.1250
   2.2107E-02   2.2645E-02   7.9324E-05  0.1250
   2.2645E-02   2.3196E-02   7.1390E-05  0.1302
   2.3196E-02   2.3760E-02   8.9776E-05  0.1147
   2.3760E-02   2.4338E-02   9.3409E-05  0.1111
   2.4338E-02   2.4930E-02   7.5429E-05  0.1222
   2.4930E-02   2.5537E-02   7.9133E-05  0.1179
   2.5537E-02   2.6158E-02   7.7253E-05  0.1179
   2.6158E-02   2.6795E-02   7.3323E-05  0.1195
   2.6795E-02   2.7447E-02   8.2830E-05  0.1111
   2.7447E-02   2.8114E-02   8.0863E-05  0.1111
   2.8114E-02   2.8799E-02   7.6993E-05  0.1125
   2.8799E-02   2.9499E-02   8.5630E-05  0.1054
   2.9499E-02   3.0217E-02   7.8023E-05  0.1091
   3.0217E-02   3.0952E-02   8.0703E-05  0.1060
   3.0952E-02   3.1705E-02   9.7377E-05  0.0953
   3.1705E-02   3.2477E-02   9.4199E-05  0.0958
   3.2477E-02   3.3267E-02   8.6900E-05  0.0985
   3.3267E-02   3.4076E-02   8.5659E-05  0.0981
   3.4076E-02   3.4905E-02   8.5233E-05  0.0971
   3.4905E-02   3.5755E-02   9.6553E-05  0.0902
   3.5755E-02   3.6625E-02   8.8895E-05  0.0928
   3.6625E-02   3.7516E-02   9.5761E-05  0.0884
   3.7516E-02   3.8428E-02   1.0371E-04  0.0839
   3.8428E-02   3.9363E-02   1.0196E-04  0.0836
   3.9363E-02   4.0321E-02   1.0511E-04  0.0814
   4.0321E-02   4.1302E-02   9.0380E-05  0.0867
   4.1302E-02   4.2307E-02   8.7570E-05  0.0870
   4.2307E-02   4.3337E-02   9.7795E-05  0.0814
   4.3337E-02   4.4391E-02   8.4091E-05  0.0867
   4.4391E-02   4.5471E-02   1.0308E-04  0.0774
   4.5471E-02   4.6577E-02   1.0123E-04  0.0772
   4.6577E-02   4.7711E-02   1.0059E-04  0.0765
   4.7711E-02   4.8871E-02   1.0739E-04  0.0731
   4.8871E-02   5.0061E-02   1.0596E-04  0.0727
   5.0061E-02   5.1279E-02   9.3048E-05  0.0767
   5.1279E-02   5.2526E-02   1.0954E-04  0.0698
   5.2526E-02   5.3804E-02   1.1007E-04  0.0688
   5.3804E-02   5.5113E-02   1.0694E-04  0.0690
   5.5113E-02   5.6454E-02   9.6946E-05  0.0716
   5.6454E-02   5.7828E-02   1.0532E-04  0.0679
   5.7828E-02   5.9235E-02   9.6186E-05  0.0702
   5.9235E-02   6.0676E-02   9.6677E-05  0.0692
   6.0676E-02   6.2152E-02   1.0206E-04  0.0665
   6.2152E-02   6.3665E-02   1.0625E-04  0.0644
   6.3665E-02   6.5214E-02   9.7267E-05  0.0665
   6.5214E-02   6.6800E-02   1.0840E-04  0.0623
   6.6800E-02   6.8426E-02   1.0583E-04  0.0623
   6.8426E-02   7.0090E-02   1.0652E-04  0.0613
   7.0090E-02   7.1796E-02   1.0633E-04  0.0606
   7.1796E-02   7.3543E-02   1.1373E-04  0.0579
   7.3543E-02   7.5332E-02   1.0991E-04  0.0582
   7.5332E-02   7.7165E-02   1.1239E-04  0.0569
   7.7165E-02   7.9042E-02   1.1185E-04  0.0563
   7.9042E-02   8.0965E-02   1.0642E-04  0.0571
   8.0965E-02   8.2935E-02   1.1303E-04  0.0547
   8.2935E-02   8.4953E-02   1.1431E-04  0.0538
   8.4953E-02   8.7020E-02   1.0837E-04  0.0546
   8.7020E-02   8.9138E-02   1.2060E-04  0.0511
   8.9138E-02   9.1306E-02   1.1128E-04  0.0526
   9.1306E-02   9.3528E-02   1.1884E-04  0.0503
   9.3528E-02   9.5804E-02   1.1455E-04  0.0506
   9.5804E-02   9.8134E-02   1.0840E-04  0.0514
   9.8134E-02   1.0052E-01   1.0415E-04  0.0518
   1.0052E-01   1.0297E-01   1.1039E-04  0.0497
   1.0297E-01   1.0547E-01   1.1522E-04  0.0481
   1.0547E-01   1.0804E-01   1.1197E-04  0.0482
   1.0804E-01   1.1067E-01   1.2402E-04  0.0452
   1.1067E-01   1.1336E-01   1.2478E-04  0.0445
   1.1336E-01   1.1612E-01   1.2182E-04  0.0445
   1.1612E-01   1.1894E-01   1.2199E-04  0.0440
   1.1894E-01   1.2184E-01   1.1173E-04  0.0454
   1.2184E-01   1.2480E-01   1.1694E-04  0.0439
   1.2480E-01   1.2784E-01   1.1504E-04  0.0437
   1.2784E-01   1.3095E-01   1.2453E-04  0.0415
   1.3095E-01   1.3414E-01   1.2115E-04  0.0416
   1.3414E-01   1.3740E-01   1.2318E-04  0.0407
   1.3740E-01   1.4074E-01   1.2145E-04  0.0405
   1.4074E-01   1.4417E-01   1.2323E-04  0.0397
   1.4417E-01   1.4767E-01   1.1898E-04  0.0400
   1.4767E-01   1.5127E-01   1.1708E-04  0.0398
   1.5127E-01   1.5495E-01   1.1339E-04  0.0400
   1.5495E-01   1.5872E-01   1.2396E-04  0.0378
   1.5872E-01   1.6258E-01   1.1825E-04  0.0382
   1.6258E-01   1.6654E-01   1.2741E-04  0.0364
   1.6654E-01   1.7059E-01   1.1715E-04  0.0375
   1.7059E-01   1.7474E-01   1.1934E-04  0.0367
   1.7474E-01   1.7899E-01   1.2231E-04  0.0358
   1.7899E-01   1.8334E-01   1.2522E-04  0.0350
   1.8334E-01   1.8781E-01   1.2404E-04  0.0347
   1.8781E-01   1.9237E-01   1.2664E-04  0.0339
   1.9237E-01   1.9706E-01   1.2719E-04  0.0335
   1.9706E-01   2.0185E-01   1.1652E-04  0.0345
   2.0185E-01   2.0676E-01   1.1891E-04  0.0338
   2.0676E-01   2.1179E-01   1.1516E-04  0.0339
   2.1179E-01   2.1694E-01   1.1786E-04  0.0331
   2.1694E-01   2.2222E-01   1.1796E-04  0.0327
   2.2222E-01   2.2763E-01   1.2540E-04  0.0314
   2.2763E-01   2.3317E-01   1.2133E-04  0.0315
   2.3317E-01   2.3884E-01   1.2362E-04  0.0308
   2.3884E-01   2.4465E-01   1.1656E-04  0.0314
   2.4465E-01   2.5061E-01   1.1692E-04  0.0309
   2.5061E-01   2.5670E-01   1.1732E-04  0.0305
   2.5670E-01   2.6295E-01   1.1581E-04  0.0304
   2.6295E-01   2.6935E-01   1.1525E-04  0.0301
   2.6935E-01   2.7590E-01   1.1750E-04  0.0294
   2.7590E-01   2.8261E-01   1.1441E-04  0.0295
   2.8261E-01   2.8949E-01   1.1780E-04  0.0287
   2.8949E-01   2.9653E-01   1.1292E-04  0.0290
   2.9653E-01   3.0375E-01   1.1624E-04  0.0282
   3.0375E-01   3.1114E-01   1.1628E-04  0.0279
   3.1114E-01   3.1871E-01   1.1453E-04  0.0277
   3.1871E-01   3.2646E-01   1.1357E-04  0.0275
   3.2646E-01   3.3441E-01   1.0810E-04  0.0279
   3.3441E-01   3.4254E-01   1.0930E-04  0.0274
   3.4254E-01   3.5088E-01   1.0599E-04  0.0275
   3.5088E-01   3.5941E-01   1.0480E-04  0.0273
   3.5941E-01   3.6816E-01   1.0551E-04  0.0269
   3.6816E-01   3.7712E-01   1.0710E-04  0.0264
   3.7712E-01   3.8629E-01   1.0971E-04  0.0257
   3.8629E-01   3.9569E-01   1.0654E-04  0.0258
   3.9569E-01   4.0532E-01   1.0532E-04  0.0256
   4.0532E-01   4.1518E-01   1.0120E-04  0.0258
   4.1518E-01   4.2528E-01   1.0342E-04  0.0253
   4.2528E-01   4.3563E-01   1.0263E-04  0.0251
   4.3563E-01   4.4623E-01   9.8624E-05  0.0253
   4.4623E-01   4.5708E-01   9.7080E-05  0.0251
   4.5708E-01   4.6821E-01   1.0041E-04  0.0244
   4.6821E-01   4.7960E-01   9.5800E-05  0.0247
   4.7960E-01   4.9127E-01   9.0039E-05  0.0252
   4.9127E-01   5.0322E-01   9.6546E-05  0.0240
   5.0322E-01   5.1546E-01   8.8399E-05  0.0248
   5.1546E-01   5.2800E-01   9.1163E-05  0.0241
   5.2800E-01   5.4085E-01   8.5780E-05  0.0246
   5.4085E-01   5.5401E-01   8.2172E-05  0.0248
   5.5401E-01   5.6749E-01   8.8876E-05  0.0236
   5.6749E-01   5.8130E-01   8.8696E-05  0.0233
   5.8130E-01   5.9544E-01   8.4091E-05  0.0237
   5.9544E-01   6.0993E-01   7.9425E-05  0.0241
   6.0993E-01   6.2477E-01   7.7313E-05  0.0241
   6.2477E-01   6.3997E-01   7.5872E-05  0.0240
   6.3997E-01   6.5554E-01   7.4455E-05  0.0240
   6.5554E-01   6.7149E-01   7.1223E-05  0.0242
   6.7149E-01   6.8783E-01   7.2714E-05  0.0237
   6.8783E-01   7.0456E-01   7.1107E-05  0.0237
   7.0456E-01   7.2171E-01   6.7668E-05  0.0240
   7.2171E-01   7.3927E-01   6.8300E-05  0.0236
   7.3927E-01   7.5725E-01   6.5937E-05  0.0237
   7.5725E-01   7.7568E-01   5.9341E-05  0.0247
   7.7568E-01   7.9455E-01   5.8249E-05  0.0246
   7.9455E-01   8.1388E-01   5.8694E-05  0.0242
   8.1388E-01   8.3368E-01   5.5414E-05  0.0246
   8.3368E-01   8.5397E-01   5.5248E-05  0.0244
   8.5397E-01   8.7475E-01   4.9412E-05  0.0255
   8.7475E-01   8.9603E-01   5.0024E-05  0.0250
   8.9603E-01   9.1783E-01   4.8040E-05  0.0252
   9.1783E-01   9.4016E-01   4.5018E-05  0.0258
   9.4016E-01   9.6304E-01   4.4823E-05  0.0255
   9.6304E-01   9.8647E-01   3.8894E-05  0.0271
   9.8647E-01   1.0105E+00   4.0386E-05  0.0262
   1.0105E+00   1.0351E+00   3.7339E-05  0.0269
   1.0351E+00   1.0602E+00   3.9655E-05  0.0258
   1.0602E+00   1.0860E+00   3.9489E-05  0.0256
   1.0860E+00   1.1125E+00   3.9913E-05  0.0251
   1.1125E+00   1.1395E+00   3.7216E-05  0.0257
   1.1395E+00   1.1673E+00   4.0059E-05  0.0245
   1.1673E+00   1.1957E+00   4.1361E-05  0.0238
   1.1957E+00   1.2247E+00   4.2281E-05  0.0233
   1.2247E+00   1.2545E+00   4.0605E-05  0.0235
   1.2545E+00   1.2851E+00   4.0536E-05  0.0232
   1.2851E+00   1.3163E+00   4.1983E-05  0.0225
   1.3163E+00   1.3484E+00   3.9133E-05  0.0231
   1.3484E+00   1.3812E+00   4.1109E-05  0.0222
   1.3812E+00   1.4148E+00   4.1244E-05  0.0219
   1.4148E+00   1.4492E+00   4.0206E-05  0.0219
   1.4492E+00   1.4845E+00   3.9894E-05  0.0218
   1.4845E+00   1.5206E+00   3.8651E-05  0.0219
   1.5206E+00   1.5576E+00   3.7859E-05  0.0218
   1.5576E+00   1.5955E+00   3.7646E-05  0.0216
   1.5955E+00   1.6343E+00   3.7473E-05  0.0214
   1.6343E+00   1.6741E+00   3.6784E-05  0.0213
   1.6741E+00   1.7148E+00   3.6762E-05  0.0211
   1.7148E+00   1.7565E+00   3.6591E-05  0.0209
   1.7565E+00   1.7992E+00   3.6580E-05  0.0207
   1.7992E+00   1.8430E+00   3.3884E-05  0.0212
   1.8430E+00   1.8879E+00   3.4625E-05  0.0207
   1.8879E+00   1.9338E+00   3.2917E-05  0.0210
   1.9338E+00   1.9808E+00   3.3057E-05  0.0207
   1.9808E+00   2.0290E+00   3.2949E-05  0.0205
   2.0290E+00   2.0784E+00   3.2234E-05  0.0205
   2.0784E+00   2.1290E+00   3.0361E-05  0.0208
   2.1290E+00   2.1808E+00   2.8996E-05  0.0211
   2.1808E+00   2.2338E+00   2.9099E-05  0.0208
   2.2338E+00   2.2882E+00   2.7402E-05  0.0212
   2.2882E+00   2.3439E+00   2.7278E-05  0.0210
   2.3439E+00   2.4009E+00   2.6139E-05  0.0211
   2.4009E+00   2.4593E+00   2.7789E-05  0.0203
   2.4593E+00   2.5191E+00   2.5347E-05  0.0210
   2.5191E+00   2.5804E+00   2.5865E-05  0.0205
   2.5804E+00   2.6432E+00   2.4178E-05  0.0210
   2.6432E+00   2.7075E+00   2.2847E-05  0.0213
   2.7075E+00   2.7734E+00   2.2203E-05  0.0213
   2.7734E+00   2.8409E+00   2.1557E-05  0.0214
   2.8409E+00   2.9100E+00   2.1971E-05  0.0210
   2.9100E+00   2.9808E+00   1.9905E-05  0.0217
   2.9808E+00   3.0533E+00   2.0388E-05  0.0212
   3.0533E+00   3.1276E+00   1.8953E-05  0.0218
   3.1276E+00   3.2037E+00   1.7837E-05  0.0222
   3.2037E+00   3.2817E+00   1.8131E-05  0.0217
   3.2817E+00   3.3615E+00   1.7041E-05  0.0221
   3.3615E+00   3.4433E+00   1.6530E-05  0.0222
   3.4433E+00   3.5271E+00   1.5772E-05  0.0225
   3.5271E+00   3.6129E+00   1.4737E-05  0.0230
   3.6129E+00   3.7008E+00   1.4781E-05  0.0227
   3.7008E+00   3.7908E+00   1.4556E-05  0.0226
   3.7908E+00   3.8831E+00   1.4095E-05  0.0226
   3.8831E+00   3.9776E+00   1.2659E-05  0.0236
   3.9776E+00   4.0743E+00   1.2847E-05  0.0232
   4.0743E+00   4.1735E+00   1.2226E-05  0.0235
   4.1735E+00   4.2750E+00   1.1562E-05  0.0238
   4.2750E+00   4.3790E+00   1.1063E-05  0.0241
   4.3790E+00   4.4856E+00   1.0243E-05  0.0247
   4.4856E+00   4.5947E+00   1.0684E-05  0.0239
   4.5947E+00   4.7065E+00   1.0185E-05  0.0242
   4.7065E+00   4.8210E+00   9.9261E-06  0.0242
   4.8210E+00   4.9383E+00   9.4232E-06  0.0246
   4.9383E+00   5.0585E+00   8.8831E-06  0.0250
   5.0585E+00   5.1815E+00   8.4554E-06  0.0253
   5.1815E+00   5.3076E+00   8.8363E-06  0.0245
   5.3076E+00   5.4368E+00   7.9656E-06  0.0255
   5.4368E+00   5.5690E+00   7.3984E-06  0.0261
   5.5690E+00   5.7045E+00   7.0406E-06  0.0264
   5.7045E+00   5.8433E+00   6.8398E-06  0.0265
   5.8433E+00   5.9855E+00   7.1415E-06  0.0256
   5.9855E+00   6.1311E+00   6.8437E-06  0.0259
   6.1311E+00   6.2803E+00   6.2253E-06  0.0268
   6.2803E+00   6.4331E+00   6.1822E-06  0.0266
   6.4331E+00   6.5896E+00   6.1163E-06  0.0264
   6.5896E+00   6.7500E+00   5.9876E-06  0.0263
   6.7500E+00   6.9142E+00   5.8515E-06  0.0263
   6.9142E+00   7.0824E+00   5.4628E-06  0.0269
   7.0824E+00   7.2548E+00   5.5478E-06  0.0264
   7.2548E+00   7.4313E+00   5.4613E-06  0.0263
   7.4313E+00   7.6121E+00   5.3390E-06  0.0263
   7.6121E+00   7.7973E+00   5.1258E-06  0.0265
   7.7973E+00   7.9870E+00   4.9179E-06  0.0267
   7.9870E+00   8.1813E+00   4.8629E-06  0.0266
   8.1813E+00   8.3804E+00   5.0421E-06  0.0258
   8.3804E+00   8.5843E+00   4.5905E-06  0.0267
   8.5843E+00   8.7931E+00   4.7655E-06  0.0259
   8.7931E+00   9.0071E+00   4.7364E-06  0.0256
   9.0071E+00   9.2262E+00   4.6270E-06  0.0256
   9.2262E+00   9.4507E+00   4.5245E-06  0.0256
   9.4507E+00   9.6807E+00   4.1865E-06  0.0263
   9.6807E+00   9.9162E+00   4.6716E-06  0.0246
   9.9162E+00   1.0157E+01   4.6394E-06  0.0244
   1.0157E+01   1.0405E+01   4.6452E-06  0.0241
   1.0405E+01   1.0658E+01   4.4216E-06  0.0244
   1.0658E+01   1.0917E+01   4.4348E-06  0.0241
   1.0917E+01   1.1183E+01   4.4838E-06  0.0236
   1.1183E+01   1.1455E+01   4.4949E-06  0.0234
   1.1455E+01   1.1733E+01   4.2793E-06  0.0236
   1.1733E+01   1.2019E+01   4.2909E-06  0.0233
   1.2019E+01   1.2311E+01   4.4170E-06  0.0227
   1.2311E+01   1.2611E+01   4.4601E-06  0.0223
   1.2611E+01   1.2918E+01   4.2575E-06  0.0226
   1.2918E+01   1.3232E+01   4.3419E-06  0.0221
   1.3232E+01   1.3554E+01   4.3848E-06  0.0217
   1.3554E+01   1.3884E+01   4.2897E-06  0.0217
   1.3884E+01   1.4222E+01   4.3299E-06  0.0213
   1.4222E+01   1.4568E+01   4.3831E-06  0.0209
   1.4568E+01   1.4922E+01   4.4530E-06  0.0205
   1.4922E+01   1.5285E+01   4.2215E-06  0.0208
   1.5285E+01   1.5657E+01   4.2359E-06  0.0206
   1.5657E+01   1.6038E+01   4.2263E-06  0.0203
   1.6038E+01   1.6428E+01   4.2387E-06  0.0201
   1.6428E+01   1.6828E+01   4.1964E-06  0.0199
   1.6828E+01   1.7237E+01   4.1577E-06  0.0198
   1.7237E+01   1.7657E+01   4.1917E-06  0.0195
   1.7657E+01   1.8086E+01   3.9998E-06  0.0197
   1.8086E+01   1.8526E+01   3.8972E-06  0.0197
   1.8526E+01   1.8977E+01   3.9259E-06  0.0194
   1.8977E+01   1.9439E+01   3.7258E-06  0.0197
   1.9439E+01   1.9912E+01   3.8001E-06  0.0193
   1.9912E+01   2.0396E+01   8.9961E-06  0.0124
   2.0396E+01   2.0893E+01   1.0079E-05  0.0115
   2.0893E+01   2.1401E+01   9.3154E-06  0.0119
   2.1401E+01   2.1922E+01   8.9687E-06  0.0119
   2.1922E+01   2.2455E+01   8.5406E-06  0.0121
   2.2455E+01   2.3001E+01   8.0486E-06  0.0123
   2.3001E+01   2.3561E+01   7.9337E-06  0.0123
   2.3561E+01   2.4134E+01   7.0916E-06  0.0128
   2.4134E+01   2.4721E+01   6.6257E-06  0.0131
   2.4721E+01   2.5323E+01   6.3265E-06  0.0132
   2.5323E+01   2.5939E+01   5.8548E-06  0.0136
   2.5939E+01   2.6570E+01   5.6397E-06  0.0137
   2.6570E+01   2.7217E+01   5.0747E-06  0.0143
   2.7217E+01   2.7879E+01   4.6803E-06  0.0147
   2.7879E+01   2.8557E+01   4.3411E-06  0.0150
   2.8557E+01   2.9252E+01   4.0634E-06  0.0154
   2.9252E+01   2.9964E+01   3.6550E-06  0.0160
   2.9964E+01   3.0693E+01   3.3395E-06  0.0165
   3.0693E+01   3.1440E+01   3.0335E-06  0.0172
   3.1440E+01   3.2205E+01   2.7584E-06  0.0178
   3.2205E+01   3.2988E+01   2.4716E-06  0.0186
   3.2988E+01   3.3791E+01   2.2244E-06  0.0193
   3.3791E+01   3.4613E+01   1.9429E-06  0.0204
   3.4613E+01   3.5455E+01   1.7811E-06  0.0211
   3.5455E+01   3.6318E+01   1.5302E-06  0.0225
   3.6318E+01   3.7201E+01   1.3580E-06  0.0236
   3.7201E+01   3.8106E+01   1.1917E-06  0.0249
   3.8106E+01   3.9034E+01   1.0376E-06  0.0263
   3.9034E+01   3.9983E+01   9.0062E-07  0.0279
   3.9983E+01   4.0956E+01   7.6615E-07  0.0299
   4.0956E+01   4.1953E+01   6.3757E-07  0.0324
   4.1953E+01   4.2973E+01   5.3621E-07  0.0349
   4.2973E+01   4.4019E+01   4.5270E-07  0.0375
   4.4019E+01   4.5090E+01   4.0585E-07  0.0392
   4.5090E+01   4.6187E+01   3.1660E-07  0.0438
   4.6187E+01   4.7311E+01   2.4204E-07  0.0495
   4.7311E+01   4.8462E+01   1.9749E-07  0.0542
   4.8462E+01   4.9641E+01   1.7866E-07  0.0563
   4.9641E+01   5.0849E+01   1.0598E-07  0.0722
   5.0849E+01   5.2086E+01   9.6994E-08  0.0745
   5.2086E+01   5.3353E+01   6.9439E-08  0.0870
   5.3353E+01   5.4651E+01   4.5193E-08  0.1066
   5.4651E+01   5.5981E+01   3.9106E-08  0.1132
   5.5981E+01   5.7343E+01   2.5452E-08  0.1387
   5.7343E+01   5.8738E+01   1.9113E-08  0.1581
   5.8738E+01   6.0168E+01   9.7960E-09  0.2182
   6.0168E+01   6.1632E+01   6.3756E-09  0.2673
   6.1632E+01   6.3131E+01   3.5566E-09  0.3536
   6.3131E+01   6.4667E+01   1.3021E-09  0.5774
   6.4667E+01   6.6240E+01   0.0000E+00  0.0000
   6.6240E+01   6.7852E+01   0.0000E+00  0.0000
   6.7852E+01   6.9503E+01   0.0000E+00  0.0000
   6.9503E+01   7.1194E+01   0.0000E+00  0.0000
   7.1194E+01   7.2926E+01   0.0000E+00  0.0000
   7.2926E+01   7.4701E+01   0.0000E+00  0.0000
   7.4701E+01   7.6518E+01   0.0000E+00  0.0000
   7.6518E+01   7.8380E+01   0.0000E+00  0.0000
   7.8380E+01   8.0287E+01   0.0000E+00  0.0000
   8.0287E+01   8.2240E+01   0.0000E+00  0.0000
   8.2240E+01   8.4241E+01   0.0000E+00  0.0000
   8.4241E+01   8.6291E+01   0.0000E+00  0.0000
   8.6291E+01   8.8391E+01   0.0000E+00  0.0000
   8.8391E+01   9.0541E+01   0.0000E+00  0.0000
   9.0541E+01   9.2744E+01   0.0000E+00  0.0000
   9.2744E+01   9.5001E+01   0.0000E+00  0.0000
   9.5001E+01   9.7312E+01   0.0000E+00  0.0000
   9.7312E+01   9.9680E+01   0.0000E+00  0.0000
   9.9680E+01   1.0211E+02   0.0000E+00  0.0000
   1.0211E+02   1.0459E+02   0.0000E+00  0.0000
   1.0459E+02   1.0713E+02   0.0000E+00  0.0000
   1.0713E+02   1.0974E+02   0.0000E+00  0.0000
   1.0974E+02   1.1241E+02   0.0000E+00  0.0000
   1.1241E+02   1.1515E+02   0.0000E+00  0.0000
   1.1515E+02   1.1795E+02   0.0000E+00  0.0000
   1.1795E+02   1.2082E+02   0.0000E+00  0.0000
   1.2082E+02   1.2376E+02   0.0000E+00  0.0000
   1.2376E+02   1.2677E+02   0.0000E+00  0.0000
   1.2677E+02   1.2985E+02   0.0000E+00  0.0000
   1.2985E+02   1.3301E+02   0.0000E+00  0.0000
   1.3301E+02   1.3625E+02   0.0000E+00  0.0000
   1.3625E+02   1.3956E+02   0.0000E+00  0.0000
   1.3956E+02   1.4296E+02   0.0000E+00  0.0000
   1.4296E+02   1.4644E+02   0.0000E+00  0.0000
   1.4644E+02   1.5000E+02   0.0000E+00  0.0000

#   sum over                 2.2361E-06
'no. =    1   reg = 113 - 213'
msuc: {\huge [t-cross] in region mesh}
msdr: {\it plotted by \ANGEL \version}
msdl: {\it calculated by \PHITS  3.26}
wt: s(0.7)
\vspace{-3}
  region surface crossing
  area  &=&   1.0000E+00 [cm^2]
e:
 
# Information for Restart Calculation
# This calculation was newly started
# istdev =  2 # 1:Batch variance, 2:History variance
# resc2  = 1.50000000000000000E+09 # Total source weight or Total source weight / maxcas
# resc3  = 1.50000000000000000E+09 # Total history number or Total batch number
# maxcas =   500000000 # History / Batch, only used for istdev=1
# bitrseed = 0000010101110101110110100110011001100101000001100111100100101101 # bit data of rseed
