[ T-Cross ]
    title = [t-cross] in region mesh
     mesh =  reg            # mesh type is region-wise
      reg =    1            # number of crossing regions
      non     r-from    r-to       area
      1       125       225        1.000000    
   e-type =    3            # e-mesh is log given by emin, emax and ne
     emin =  1.0000000E-02  # minimum value of e-mesh points
     emax =   150.0000      # maximum value of e-mesh points
#    edel =  2.4039514E-02  # mesh width of e-mesh points
       ne =    400          # number of e-mesh points
#    data = ( e(i), i = 1, ne + 1 )
#           1.00000E-02  1.02433E-02  1.04925E-02  1.07478E-02  1.10093E-02
#           1.12772E-02  1.15516E-02  1.18326E-02  1.21205E-02  1.24154E-02
#           1.27175E-02  1.30269E-02  1.33439E-02  1.36686E-02  1.40011E-02
#           1.43418E-02  1.46907E-02  1.50482E-02  1.54143E-02  1.57894E-02
#           1.61735E-02  1.65670E-02  1.69701E-02  1.73830E-02  1.78060E-02
#           1.82392E-02  1.86830E-02  1.91375E-02  1.96032E-02  2.00801E-02
#           2.05687E-02  2.10692E-02  2.15818E-02  2.21069E-02  2.26448E-02
#           2.31957E-02  2.37601E-02  2.43382E-02  2.49304E-02  2.55369E-02
#           2.61583E-02  2.67947E-02  2.74467E-02  2.81145E-02  2.87985E-02
#           2.94992E-02  3.02169E-02  3.09521E-02  3.17052E-02  3.24766E-02
#           3.32668E-02  3.40762E-02  3.49053E-02  3.57546E-02  3.66246E-02
#           3.75157E-02  3.84284E-02  3.93634E-02  4.03212E-02  4.13022E-02
#           4.23071E-02  4.33365E-02  4.43909E-02  4.54710E-02  4.65773E-02
#           4.77106E-02  4.88714E-02  5.00605E-02  5.12785E-02  5.25262E-02
#           5.38042E-02  5.51133E-02  5.64542E-02  5.78278E-02  5.92348E-02
#           6.06760E-02  6.21523E-02  6.36645E-02  6.52135E-02  6.68002E-02
#           6.84255E-02  7.00904E-02  7.17957E-02  7.35426E-02  7.53319E-02
#           7.71648E-02  7.90423E-02  8.09655E-02  8.29354E-02  8.49533E-02
#           8.70203E-02  8.91376E-02  9.13064E-02  9.35279E-02  9.58035E-02
#           9.81345E-02  1.00522E-01  1.02968E-01  1.05473E-01  1.08040E-01
#           1.10668E-01  1.13361E-01  1.16119E-01  1.18944E-01  1.21838E-01
#           1.24803E-01  1.27839E-01  1.30950E-01  1.34136E-01  1.37399E-01
#           1.40742E-01  1.44167E-01  1.47675E-01  1.51268E-01  1.54948E-01
#           1.58718E-01  1.62580E-01  1.66535E-01  1.70587E-01  1.74738E-01
#           1.78989E-01  1.83344E-01  1.87805E-01  1.92375E-01  1.97055E-01
#           2.01850E-01  2.06761E-01  2.11792E-01  2.16945E-01  2.22223E-01
#           2.27630E-01  2.33169E-01  2.38842E-01  2.44653E-01  2.50605E-01
#           2.56703E-01  2.62949E-01  2.69346E-01  2.75900E-01  2.82613E-01
#           2.89489E-01  2.96532E-01  3.03747E-01  3.11138E-01  3.18708E-01
#           3.26462E-01  3.34405E-01  3.42542E-01  3.50876E-01  3.59413E-01
#           3.68158E-01  3.77116E-01  3.86291E-01  3.95690E-01  4.05317E-01
#           4.15179E-01  4.25281E-01  4.35628E-01  4.46227E-01  4.57084E-01
#           4.68205E-01  4.79597E-01  4.91266E-01  5.03219E-01  5.15463E-01
#           5.28005E-01  5.40851E-01  5.54011E-01  5.67490E-01  5.81298E-01
#           5.95441E-01  6.09929E-01  6.24769E-01  6.39970E-01  6.55541E-01
#           6.71491E-01  6.87828E-01  7.04564E-01  7.21706E-01  7.39266E-01
#           7.57253E-01  7.75678E-01  7.94551E-01  8.13883E-01  8.33685E-01
#           8.53969E-01  8.74747E-01  8.96030E-01  9.17831E-01  9.40163E-01
#           9.63038E-01  9.86469E-01  1.01047E+00  1.03506E+00  1.06024E+00
#           1.08604E+00  1.11246E+00  1.13953E+00  1.16725E+00  1.19565E+00
#           1.22474E+00  1.25454E+00  1.28507E+00  1.31633E+00  1.34836E+00
#           1.38117E+00  1.41477E+00  1.44920E+00  1.48446E+00  1.52057E+00
#           1.55757E+00  1.59547E+00  1.63429E+00  1.67405E+00  1.71478E+00
#           1.75650E+00  1.79924E+00  1.84302E+00  1.88786E+00  1.93379E+00
#           1.98084E+00  2.02904E+00  2.07841E+00  2.12898E+00  2.18078E+00
#           2.23384E+00  2.28819E+00  2.34386E+00  2.40089E+00  2.45930E+00
#           2.51914E+00  2.58043E+00  2.64322E+00  2.70753E+00  2.77341E+00
#           2.84088E+00  2.91001E+00  2.98081E+00  3.05333E+00  3.12762E+00
#           3.20372E+00  3.28167E+00  3.36152E+00  3.44330E+00  3.52708E+00
#           3.61290E+00  3.70080E+00  3.79085E+00  3.88308E+00  3.97756E+00
#           4.07434E+00  4.17347E+00  4.27501E+00  4.37903E+00  4.48557E+00
#           4.59471E+00  4.70650E+00  4.82102E+00  4.93832E+00  5.05847E+00
#           5.18155E+00  5.30762E+00  5.43676E+00  5.56904E+00  5.70453E+00
#           5.84333E+00  5.98550E+00  6.13114E+00  6.28031E+00  6.43312E+00
#           6.58964E+00  6.74997E+00  6.91420E+00  7.08243E+00  7.25475E+00
#           7.43126E+00  7.61207E+00  7.79728E+00  7.98700E+00  8.18133E+00
#           8.38038E+00  8.58428E+00  8.79315E+00  9.00709E+00  9.22624E+00
#           9.45072E+00  9.68067E+00  9.91620E+00  1.01575E+01  1.04046E+01
#           1.06578E+01  1.09171E+01  1.11827E+01  1.14548E+01  1.17335E+01
#           1.20190E+01  1.23114E+01  1.26109E+01  1.29178E+01  1.32321E+01
#           1.35540E+01  1.38838E+01  1.42216E+01  1.45676E+01  1.49221E+01
#           1.52851E+01  1.56570E+01  1.60380E+01  1.64282E+01  1.68279E+01
#           1.72374E+01  1.76568E+01  1.80864E+01  1.85264E+01  1.89772E+01
#           1.94389E+01  1.99119E+01  2.03963E+01  2.08926E+01  2.14009E+01
#           2.19216E+01  2.24550E+01  2.30014E+01  2.35610E+01  2.41343E+01
#           2.47215E+01  2.53230E+01  2.59391E+01  2.65702E+01  2.72167E+01
#           2.78789E+01  2.85572E+01  2.92520E+01  2.99637E+01  3.06928E+01
#           3.14396E+01  3.22045E+01  3.29881E+01  3.37907E+01  3.46128E+01
#           3.54550E+01  3.63177E+01  3.72013E+01  3.81064E+01  3.90336E+01
#           3.99833E+01  4.09561E+01  4.19526E+01  4.29734E+01  4.40189E+01
#           4.50900E+01  4.61870E+01  4.73108E+01  4.84619E+01  4.96410E+01
#           5.08488E+01  5.20860E+01  5.33533E+01  5.46514E+01  5.59812E+01
#           5.73432E+01  5.87384E+01  6.01676E+01  6.16315E+01  6.31311E+01
#           6.46671E+01  6.62405E+01  6.78522E+01  6.95031E+01  7.11941E+01
#           7.29263E+01  7.47007E+01  7.65182E+01  7.83800E+01  8.02870E+01
#           8.22405E+01  8.42414E+01  8.62911E+01  8.83906E+01  9.05412E+01
#           9.27442E+01  9.50007E+01  9.73122E+01  9.96799E+01  1.02105E+02
#           1.04589E+02  1.07134E+02  1.09741E+02  1.12411E+02  1.15146E+02
#           1.17948E+02  1.20817E+02  1.23757E+02  1.26768E+02  1.29852E+02
#           1.33012E+02  1.36248E+02  1.39563E+02  1.42959E+02  1.46437E+02
#           1.50000E+02
     unit =    2            # unit is [1/cm^2/(MeV/n)/source]
     axis =  eng            # axis of output
     file = detector-26.out  # file name of output for the above axis
   output = f-curr          # surface crossing forward current spectrum
     part =  neutron  
# kf/name :  2112     
#    used :        main (  %)        temp (  %)       total (  %)
#  memory :         414 (  0)           0 (  0)         414 (  0)

#------------------------------------------------------------------------------
#newpage:
#   no. =    1   reg = 125 - 225

x: Energy [MeV/n]
y:  F-Curr [1/cm^2/(MeV/n)/source]         
p: xlog ylog afac(0.8) form(0.9)
h: n            x            y(neutron ),hh0l   n 
#  e-lower      e-upper      neutron     r.err 
   1.0000E-02   1.0243E-02   2.0550E-05  0.2000
   1.0243E-02   1.0493E-02   2.7405E-05  0.1708
   1.0493E-02   1.0748E-02   2.3503E-05  0.1826
   1.0748E-02   1.1009E-02   2.5239E-05  0.1741
   1.1009E-02   1.1277E-02   3.5092E-05  0.1459
   1.1277E-02   1.1552E-02   2.3325E-05  0.1768
   1.1552E-02   1.1833E-02   3.3445E-05  0.1459
   1.1833E-02   1.2121E-02   3.3345E-05  0.1443
   1.2121E-02   1.2415E-02   2.0346E-05  0.1826
   1.2415E-02   1.2718E-02   3.6415E-05  0.1348
   1.2718E-02   1.3027E-02   3.0379E-05  0.1459
   1.3027E-02   1.3344E-02   2.4715E-05  0.1595
   1.3344E-02   1.3669E-02   2.9877E-05  0.1432
   1.3669E-02   1.4001E-02   2.7664E-05  0.1474
   1.4001E-02   1.4342E-02   2.4071E-05  0.1562
   1.4342E-02   1.4691E-02   3.6109E-05  0.1260
   1.4691E-02   1.5048E-02   2.5179E-05  0.1491
   1.5048E-02   1.5414E-02   2.9853E-05  0.1348
   1.5414E-02   1.5789E-02   2.6664E-05  0.1414
   1.5789E-02   1.6174E-02   3.0195E-05  0.1313
   1.6174E-02   1.6567E-02   3.0494E-05  0.1291
   1.6567E-02   1.6970E-02   2.3894E-05  0.1439
   1.6970E-02   1.7383E-02   2.9547E-05  0.1280
   1.7383E-02   1.7806E-02   2.7900E-05  0.1302
   1.7806E-02   1.8239E-02   3.0699E-05  0.1224
   1.8239E-02   1.8683E-02   3.1250E-05  0.1198
   1.8683E-02   1.9138E-02   2.6838E-05  0.1280
   1.9138E-02   1.9603E-02   2.6263E-05  0.1278
   1.9603E-02   2.0080E-02   3.5223E-05  0.1091
   2.0080E-02   2.0569E-02   2.6199E-05  0.1250
   2.0569E-02   2.1069E-02   2.5177E-05  0.1260
   2.1069E-02   2.1582E-02   2.9066E-05  0.1157
   2.1582E-02   2.2107E-02   3.2756E-05  0.1078
   2.2107E-02   2.2645E-02   2.3797E-05  0.1250
   2.2645E-02   2.3196E-02   3.7389E-05  0.0985
   2.3196E-02   2.3760E-02   1.8073E-05  0.1400
   2.3760E-02   2.4338E-02   2.8369E-05  0.1104
   2.4338E-02   2.4930E-02   3.6187E-05  0.0966
   2.4930E-02   2.5537E-02   2.5773E-05  0.1130
   2.5537E-02   2.6158E-02   2.5479E-05  0.1123
   2.6158E-02   2.6795E-02   3.0841E-05  0.1009
   2.6795E-02   2.7447E-02   3.0371E-05  0.1005
   2.7447E-02   2.8114E-02   3.0398E-05  0.0991
   2.8114E-02   2.8799E-02   3.0407E-05  0.0981
   2.8799E-02   2.9499E-02   3.2254E-05  0.0941
   2.9499E-02   3.0217E-02   3.2602E-05  0.0923
   3.0217E-02   3.0952E-02   3.2410E-05  0.0916
   3.0952E-02   3.1705E-02   3.0846E-05  0.0927
   3.1705E-02   3.2477E-02   3.0897E-05  0.0915
   3.2477E-02   3.3267E-02   2.9775E-05  0.0921
   3.3267E-02   3.4076E-02   3.1174E-05  0.0890
   3.4076E-02   3.4905E-02   3.3771E-05  0.0845
   3.4905E-02   3.5755E-02   3.4382E-05  0.0828
   3.5755E-02   3.6625E-02   3.2186E-05  0.0845
   3.6625E-02   3.7516E-02   3.2768E-05  0.0828
   3.7516E-02   3.8428E-02   3.1552E-05  0.0833
   3.8428E-02   3.9363E-02   2.8663E-05  0.0864
   3.9363E-02   4.0321E-02   3.1324E-05  0.0816
   4.0321E-02   4.1302E-02   2.5279E-05  0.0898
   4.1302E-02   4.2307E-02   2.5773E-05  0.0878
   4.2307E-02   4.3337E-02   3.2836E-05  0.0769
   4.3337E-02   4.4391E-02   3.1676E-05  0.0774
   4.4391E-02   4.5471E-02   3.2618E-05  0.0753
   4.5471E-02   4.6577E-02   3.1120E-05  0.0762
   4.6577E-02   4.7711E-02   3.1061E-05  0.0754
   4.7711E-02   4.8871E-02   3.2412E-05  0.0729
   4.8871E-02   5.0061E-02   3.5769E-05  0.0685
   5.0061E-02   5.1279E-02   3.3497E-05  0.0700
   5.1279E-02   5.2526E-02   3.1444E-05  0.0714
   5.2526E-02   5.3804E-02   3.5080E-05  0.0668
   5.3804E-02   5.5113E-02   2.9944E-05  0.0714
   5.5113E-02   5.6454E-02   3.5348E-05  0.0650
   5.6454E-02   5.7828E-02   3.2324E-05  0.0671
   5.7828E-02   5.9235E-02   2.9587E-05  0.0693
   5.9235E-02   6.0676E-02   3.2334E-05  0.0655
   6.0676E-02   6.2152E-02   3.4817E-05  0.0624
   6.2152E-02   6.3665E-02   3.5881E-05  0.0607
   6.3665E-02   6.5214E-02   3.3312E-05  0.0622
   6.5214E-02   6.6800E-02   3.0921E-05  0.0638
   6.6800E-02   6.8426E-02   3.0166E-05  0.0639
   6.8426E-02   7.0090E-02   3.2093E-05  0.0612
   7.0090E-02   7.1796E-02   3.2838E-05  0.0598
   7.1796E-02   7.3543E-02   3.2323E-05  0.0595
   7.3543E-02   7.5332E-02   3.1967E-05  0.0591
   7.5332E-02   7.7165E-02   3.0349E-05  0.0599
   7.7165E-02   7.9042E-02   3.0648E-05  0.0589
   7.9042E-02   8.0965E-02   3.1924E-05  0.0570
   8.0965E-02   8.2935E-02   3.2977E-05  0.0554
   8.2935E-02   8.4953E-02   3.0573E-05  0.0569
   8.4953E-02   8.7020E-02   3.1478E-05  0.0554
   8.7020E-02   8.9138E-02   3.0228E-05  0.0559
   8.9138E-02   9.1306E-02   2.7045E-05  0.0584
   9.1306E-02   9.3528E-02   2.8508E-05  0.0562
   9.3528E-02   9.5804E-02   3.0185E-05  0.0539
   9.5804E-02   9.8134E-02   3.0820E-05  0.0528
   9.8134E-02   1.0052E-01   3.2664E-05  0.0506
   1.0052E-01   1.0297E-01   2.8795E-05  0.0532
   1.0297E-01   1.0547E-01   2.7674E-05  0.0537
   1.0547E-01   1.0804E-01   2.9318E-05  0.0515
   1.0804E-01   1.1067E-01   2.8253E-05  0.0519
   1.1067E-01   1.1336E-01   3.1874E-05  0.0482
   1.1336E-01   1.1612E-01   3.1082E-05  0.0483
   1.1612E-01   1.1894E-01   2.6463E-05  0.0517
   1.1894E-01   1.2184E-01   2.5901E-05  0.0516
   1.2184E-01   1.2480E-01   2.7131E-05  0.0498
   1.2480E-01   1.2784E-01   2.8443E-05  0.0481
   1.2784E-01   1.3095E-01   2.6877E-05  0.0489
   1.3095E-01   1.3414E-01   2.9038E-05  0.0465
   1.3414E-01   1.3740E-01   2.6544E-05  0.0480
   1.3740E-01   1.4074E-01   2.6153E-05  0.0478
   1.4074E-01   1.4417E-01   2.5409E-05  0.0479
   1.4417E-01   1.4767E-01   2.6351E-05  0.0465
   1.4767E-01   1.5127E-01   2.5744E-05  0.0465
   1.5127E-01   1.5495E-01   2.3951E-05  0.0476
   1.5495E-01   1.5872E-01   2.8682E-05  0.0430
   1.5872E-01   1.6258E-01   2.4881E-05  0.0456
   1.6258E-01   1.6654E-01   2.2658E-05  0.0472
   1.6654E-01   1.7059E-01   2.3028E-05  0.0463
   1.7059E-01   1.7474E-01   2.4872E-05  0.0440
   1.7474E-01   1.7899E-01   2.1466E-05  0.0468
   1.7899E-01   1.8334E-01   2.2503E-05  0.0451
   1.8334E-01   1.8781E-01   1.9502E-05  0.0479
   1.8781E-01   1.9237E-01   1.9417E-05  0.0475
   1.9237E-01   1.9706E-01   2.0468E-05  0.0456
   1.9706E-01   2.0185E-01   1.9727E-05  0.0460
   2.0185E-01   2.0676E-01   1.8110E-05  0.0474
   2.0676E-01   2.1179E-01   1.9957E-05  0.0446
   2.1179E-01   2.1694E-01   2.0272E-05  0.0437
   2.1694E-01   2.2222E-01   1.9607E-05  0.0439
   2.2222E-01   2.2763E-01   1.9820E-05  0.0432
   2.2763E-01   2.3317E-01   1.9819E-05  0.0427
   2.3317E-01   2.3884E-01   2.0346E-05  0.0416
   2.3884E-01   2.4465E-01   2.0768E-05  0.0407
   2.4465E-01   2.5061E-01   1.9336E-05  0.0417
   2.5061E-01   2.5670E-01   1.9401E-05  0.0411
   2.5670E-01   2.6295E-01   1.8513E-05  0.0416
   2.6295E-01   2.6935E-01   1.9084E-05  0.0404
   2.6935E-01   2.7590E-01   1.8784E-05  0.0403
   2.7590E-01   2.8261E-01   1.8634E-05  0.0400
   2.8261E-01   2.8949E-01   1.9074E-05  0.0390
   2.8949E-01   2.9653E-01   1.7786E-05  0.0399
   2.9653E-01   3.0375E-01   1.8691E-05  0.0385
   3.0375E-01   3.1114E-01   1.9517E-05  0.0372
   3.1114E-01   3.1871E-01   1.9611E-05  0.0367
   3.1871E-01   3.2646E-01   1.8668E-05  0.0371
   3.2646E-01   3.3441E-01   1.8700E-05  0.0367
   3.3441E-01   3.4254E-01   1.8432E-05  0.0365
   3.4254E-01   3.5088E-01   1.8994E-05  0.0355
   3.5088E-01   3.5941E-01   1.9153E-05  0.0349
   3.5941E-01   3.6816E-01   1.8699E-05  0.0350
   3.6816E-01   3.7712E-01   1.7538E-05  0.0356
   3.7712E-01   3.8629E-01   1.8761E-05  0.0340
   3.8629E-01   3.9569E-01   1.8548E-05  0.0339
   3.9569E-01   4.0532E-01   1.7128E-05  0.0348
   4.0532E-01   4.1518E-01   1.7961E-05  0.0336
   4.1518E-01   4.2528E-01   1.8115E-05  0.0330
   4.2528E-01   4.3563E-01   1.7120E-05  0.0336
   4.3563E-01   4.4623E-01   1.7723E-05  0.0326
   4.4623E-01   4.5708E-01   1.6992E-05  0.0329
   4.5708E-01   4.6821E-01   1.6696E-05  0.0328
   4.6821E-01   4.7960E-01   1.6233E-05  0.0328
   4.7960E-01   4.9127E-01   1.6755E-05  0.0320
   4.9127E-01   5.0322E-01   1.6800E-05  0.0315
   5.0322E-01   5.1546E-01   1.7727E-05  0.0303
   5.1546E-01   5.2800E-01   1.7921E-05  0.0298
   5.2800E-01   5.4085E-01   1.7217E-05  0.0300
   5.4085E-01   5.5401E-01   1.6774E-05  0.0301
   5.5401E-01   5.6749E-01   1.7075E-05  0.0294
   5.6749E-01   5.8130E-01   1.7289E-05  0.0289
   5.8130E-01   5.9544E-01   1.6206E-05  0.0295
   5.9544E-01   6.0993E-01   1.6353E-05  0.0290
   6.0993E-01   6.2477E-01   1.7185E-05  0.0280
   6.2477E-01   6.3997E-01   1.6062E-05  0.0286
   6.3997E-01   6.5554E-01   1.6780E-05  0.0276
   6.5554E-01   6.7149E-01   1.6907E-05  0.0272
   6.7149E-01   6.8783E-01   1.6032E-05  0.0276
   6.8783E-01   7.0456E-01   1.6481E-05  0.0269
   7.0456E-01   7.2171E-01   1.6457E-05  0.0266
   7.2171E-01   7.3927E-01   1.6385E-05  0.0263
   7.3927E-01   7.5725E-01   1.6327E-05  0.0261
   7.5725E-01   7.7568E-01   1.5656E-05  0.0263
   7.7568E-01   7.9455E-01   1.7440E-05  0.0246
   7.9455E-01   8.1388E-01   1.6178E-05  0.0253
   8.1388E-01   8.3368E-01   1.6117E-05  0.0250
   8.3368E-01   8.5397E-01   1.6822E-05  0.0242
   8.5397E-01   8.7475E-01   1.6293E-05  0.0243
   8.7475E-01   8.9603E-01   1.5593E-05  0.0245
   8.9603E-01   9.1783E-01   1.5598E-05  0.0242
   9.1783E-01   9.4016E-01   1.5755E-05  0.0238
   9.4016E-01   9.6304E-01   1.5523E-05  0.0237
   9.6304E-01   9.8647E-01   1.6090E-05  0.0230
   9.8647E-01   1.0105E+00   1.4814E-05  0.0237
   1.0105E+00   1.0351E+00   1.4559E-05  0.0236
   1.0351E+00   1.0602E+00   1.3884E-05  0.0239
   1.0602E+00   1.0860E+00   1.3812E-05  0.0237
   1.0860E+00   1.1125E+00   1.3464E-05  0.0237
   1.1125E+00   1.1395E+00   1.2669E-05  0.0241
   1.1395E+00   1.1673E+00   1.2754E-05  0.0237
   1.1673E+00   1.1957E+00   1.2501E-05  0.0237
   1.1957E+00   1.2247E+00   1.2137E-05  0.0237
   1.2247E+00   1.2545E+00   1.2365E-05  0.0233
   1.2545E+00   1.2851E+00   1.1569E-05  0.0238
   1.2851E+00   1.3163E+00   1.1404E-05  0.0236
   1.3163E+00   1.3484E+00   1.1212E-05  0.0236
   1.3484E+00   1.3812E+00   1.1199E-05  0.0233
   1.3812E+00   1.4148E+00   1.1136E-05  0.0231
   1.4148E+00   1.4492E+00   1.0720E-05  0.0232
   1.4492E+00   1.4845E+00   1.0626E-05  0.0230
   1.4845E+00   1.5206E+00   1.0567E-05  0.0228
   1.5206E+00   1.5576E+00   1.0704E-05  0.0224
   1.5576E+00   1.5955E+00   1.0365E-05  0.0225
   1.5955E+00   1.6343E+00   1.0120E-05  0.0225
   1.6343E+00   1.6741E+00   9.9640E-06  0.0224
   1.6741E+00   1.7148E+00   9.8711E-06  0.0223
   1.7148E+00   1.7565E+00   9.6633E-06  0.0222
   1.7565E+00   1.7992E+00   9.6034E-06  0.0220
   1.7992E+00   1.8430E+00   9.0984E-06  0.0223
   1.8430E+00   1.8879E+00   9.1329E-06  0.0221
   1.8879E+00   1.9338E+00   9.0064E-06  0.0219
   1.9338E+00   1.9808E+00   8.5534E-06  0.0222
   1.9808E+00   2.0290E+00   8.8465E-06  0.0216
   2.0290E+00   2.0784E+00   8.3220E-06  0.0220
   2.0784E+00   2.1290E+00   8.4645E-06  0.0216
   2.1290E+00   2.1808E+00   8.0932E-06  0.0218
   2.1808E+00   2.2338E+00   7.8733E-06  0.0218
   2.2338E+00   2.2882E+00   8.0356E-06  0.0213
   2.2882E+00   2.3439E+00   8.0611E-06  0.0211
   2.3439E+00   2.4009E+00   7.8429E-06  0.0211
   2.4009E+00   2.4593E+00   7.4817E-06  0.0213
   2.4593E+00   2.5191E+00   7.4695E-06  0.0211
   2.5191E+00   2.5804E+00   7.2659E-06  0.0211
   2.5804E+00   2.6432E+00   7.4769E-06  0.0206
   2.6432E+00   2.7075E+00   7.0950E-06  0.0209
   2.7075E+00   2.7734E+00   7.0553E-06  0.0207
   2.7734E+00   2.8409E+00   6.7725E-06  0.0209
   2.8409E+00   2.9100E+00   6.5696E-06  0.0209
   2.9100E+00   2.9808E+00   6.5488E-06  0.0207
   2.9808E+00   3.0533E+00   6.2944E-06  0.0209
   3.0533E+00   3.1276E+00   6.2614E-06  0.0207
   3.1276E+00   3.2037E+00   6.0406E-06  0.0208
   3.2037E+00   3.2817E+00   6.0804E-06  0.0205
   3.2817E+00   3.3615E+00   5.8638E-06  0.0206
   3.3615E+00   3.4433E+00   5.7449E-06  0.0206
   3.4433E+00   3.5271E+00   5.6656E-06  0.0205
   3.5271E+00   3.6129E+00   5.5402E-06  0.0205
   3.6129E+00   3.7008E+00   5.2362E-06  0.0208
   3.7008E+00   3.7908E+00   5.1516E-06  0.0207
   3.7908E+00   3.8831E+00   4.9454E-06  0.0209
   3.8831E+00   3.9776E+00   4.9661E-06  0.0206
   3.9776E+00   4.0743E+00   4.9198E-06  0.0204
   4.0743E+00   4.1735E+00   4.5826E-06  0.0209
   4.1735E+00   4.2750E+00   4.3755E-06  0.0212
   4.2750E+00   4.3790E+00   4.1850E-06  0.0214
   4.3790E+00   4.4856E+00   4.3383E-06  0.0208
   4.4856E+00   4.5947E+00   3.8938E-06  0.0216
   4.5947E+00   4.7065E+00   3.8261E-06  0.0216
   4.7065E+00   4.8210E+00   3.8041E-06  0.0214
   4.8210E+00   4.9383E+00   3.6047E-06  0.0217
   4.9383E+00   5.0585E+00   3.4310E-06  0.0220
   5.0585E+00   5.1815E+00   3.2944E-06  0.0222
   5.1815E+00   5.3076E+00   3.2686E-06  0.0220
   5.3076E+00   5.4368E+00   3.0094E-06  0.0226
   5.4368E+00   5.5690E+00   2.9939E-06  0.0224
   5.5690E+00   5.7045E+00   2.7409E-06  0.0232
   5.7045E+00   5.8433E+00   2.6353E-06  0.0234
   5.8433E+00   5.9855E+00   2.6033E-06  0.0232
   5.9855E+00   6.1311E+00   2.2347E-06  0.0248
   6.1311E+00   6.2803E+00   2.2753E-06  0.0242
   6.2803E+00   6.4331E+00   2.1192E-06  0.0248
   6.4331E+00   6.5896E+00   2.0925E-06  0.0247
   6.5896E+00   6.7500E+00   1.9489E-06  0.0253
   6.7500E+00   6.9142E+00   1.7609E-06  0.0263
   6.9142E+00   7.0824E+00   1.6857E-06  0.0265
   7.0824E+00   7.2548E+00   1.5973E-06  0.0269
   7.2548E+00   7.4313E+00   1.4072E-06  0.0283
   7.4313E+00   7.6121E+00   1.3377E-06  0.0287
   7.6121E+00   7.7973E+00   1.2392E-06  0.0295
   7.7973E+00   7.9870E+00   1.1987E-06  0.0296
   7.9870E+00   8.1813E+00   1.1227E-06  0.0302
   8.1813E+00   8.3804E+00   1.0650E-06  0.0307
   8.3804E+00   8.5843E+00   9.9191E-07  0.0314
   8.5843E+00   8.7931E+00   9.4182E-07  0.0319
   8.7931E+00   9.0071E+00   8.7953E-07  0.0326
   9.0071E+00   9.2262E+00   8.3870E-07  0.0330
   9.2262E+00   9.4507E+00   7.8991E-07  0.0336
   9.4507E+00   9.6807E+00   7.2849E-07  0.0345
   9.6807E+00   9.9162E+00   6.7293E-07  0.0355
   9.9162E+00   1.0157E+01   6.1799E-07  0.0366
   1.0157E+01   1.0405E+01   6.1839E-07  0.0361
   1.0405E+01   1.0658E+01   5.6225E-07  0.0375
   1.0658E+01   1.0917E+01   5.2856E-07  0.0382
   1.0917E+01   1.1183E+01   5.3121E-07  0.0376
   1.1183E+01   1.1455E+01   4.8405E-07  0.0390
   1.1455E+01   1.1733E+01   4.2698E-07  0.0410
   1.1733E+01   1.2019E+01   4.2406E-07  0.0406
   1.2019E+01   1.2311E+01   4.0684E-07  0.0410
   1.2311E+01   1.2611E+01   3.2338E-07  0.0454
   1.2611E+01   1.2918E+01   3.4425E-07  0.0435
   1.2918E+01   1.3232E+01   3.1646E-07  0.0448
   1.3232E+01   1.3554E+01   2.7582E-07  0.0475
   1.3554E+01   1.3884E+01   2.6129E-07  0.0481
   1.3884E+01   1.4222E+01   2.5340E-07  0.0483
   1.4222E+01   1.4568E+01   2.5093E-07  0.0480
   1.4568E+01   1.4922E+01   2.1454E-07  0.0513
   1.4922E+01   1.5285E+01   1.9225E-07  0.0535
   1.5285E+01   1.5657E+01   1.8804E-07  0.0534
   1.5657E+01   1.6038E+01   1.6080E-07  0.0571
   1.6038E+01   1.6428E+01   1.4768E-07  0.0589
   1.6428E+01   1.6828E+01   1.2559E-07  0.0631
   1.6828E+01   1.7237E+01   1.1186E-07  0.0661
   1.7237E+01   1.7657E+01   9.6328E-08  0.0704
   1.7657E+01   1.8086E+01   7.2160E-08  0.0803
   1.8086E+01   1.8526E+01   8.7716E-08  0.0720
   1.8526E+01   1.8977E+01   7.7709E-08  0.0755
   1.8977E+01   1.9439E+01   7.5369E-08  0.0758
   1.9439E+01   1.9912E+01   7.9499E-08  0.0729
   1.9912E+01   2.0396E+01   6.1510E-08  0.0819
   2.0396E+01   2.0893E+01   4.7556E-08  0.0921
   2.0893E+01   2.1401E+01   4.7213E-08  0.0913
   2.1401E+01   2.1922E+01   4.8012E-08  0.0894
   2.1922E+01   2.2455E+01   4.1997E-08  0.0945
   2.2455E+01   2.3001E+01   4.4660E-08  0.0905
   2.3001E+01   2.3561E+01   4.0740E-08  0.0937
   2.3561E+01   2.4134E+01   3.5237E-08  0.0995
   2.4134E+01   2.4721E+01   3.7125E-08  0.0958
   2.4721E+01   2.5323E+01   3.2918E-08  0.1005
   2.5323E+01   2.5939E+01   2.4995E-08  0.1140
   2.5939E+01   2.6570E+01   2.3134E-08  0.1170
   2.6570E+01   2.7217E+01   1.8872E-08  0.1280
   2.7217E+01   2.7879E+01   1.4195E-08  0.1459
   2.7879E+01   2.8557E+01   1.6217E-08  0.1348
   2.8557E+01   2.9252E+01   1.4392E-08  0.1414
   2.9252E+01   2.9964E+01   9.8353E-09  0.1690
   2.9964E+01   3.0693E+01   1.2345E-08  0.1491
   3.0693E+01   3.1440E+01   1.0177E-08  0.1622
   3.1440E+01   3.2205E+01   4.9676E-09  0.2294
   3.2205E+01   3.2988E+01   6.8916E-09  0.1925
   3.2988E+01   3.3791E+01   3.7377E-09  0.2582
   3.3791E+01   3.4613E+01   2.6759E-09  0.3015
   3.4613E+01   3.5455E+01   1.6624E-09  0.3780
   3.5455E+01   3.6318E+01   2.3184E-10  1.0000
   3.6318E+01   3.7201E+01   6.7901E-10  0.5774
   3.7201E+01   3.8106E+01   0.0000E+00  0.0000
   3.8106E+01   3.9034E+01   2.1571E-10  1.0000
   3.9034E+01   3.9983E+01   4.2118E-10  0.7071
   3.9983E+01   4.0956E+01   0.0000E+00  0.0000
   4.0956E+01   4.1953E+01   2.0070E-10  1.0000
   4.1953E+01   4.2973E+01   0.0000E+00  0.0000
   4.2973E+01   4.4019E+01   1.9128E-10  1.0000
   4.4019E+01   4.5090E+01   0.0000E+00  0.0000
   4.5090E+01   4.6187E+01   0.0000E+00  0.0000
   4.6187E+01   4.7311E+01   0.0000E+00  0.0000
   4.7311E+01   4.8462E+01   1.7375E-10  1.0000
   4.8462E+01   4.9641E+01   0.0000E+00  0.0000
   4.9641E+01   5.0849E+01   0.0000E+00  0.0000
   5.0849E+01   5.2086E+01   0.0000E+00  0.0000
   5.2086E+01   5.3353E+01   0.0000E+00  0.0000
   5.3353E+01   5.4651E+01   0.0000E+00  0.0000
   5.4651E+01   5.5981E+01   0.0000E+00  0.0000
   5.5981E+01   5.7343E+01   0.0000E+00  0.0000
   5.7343E+01   5.8738E+01   0.0000E+00  0.0000
   5.8738E+01   6.0168E+01   0.0000E+00  0.0000
   6.0168E+01   6.1632E+01   0.0000E+00  0.0000
   6.1632E+01   6.3131E+01   0.0000E+00  0.0000
   6.3131E+01   6.4667E+01   0.0000E+00  0.0000
   6.4667E+01   6.6240E+01   0.0000E+00  0.0000
   6.6240E+01   6.7852E+01   0.0000E+00  0.0000
   6.7852E+01   6.9503E+01   0.0000E+00  0.0000
   6.9503E+01   7.1194E+01   0.0000E+00  0.0000
   7.1194E+01   7.2926E+01   0.0000E+00  0.0000
   7.2926E+01   7.4701E+01   0.0000E+00  0.0000
   7.4701E+01   7.6518E+01   0.0000E+00  0.0000
   7.6518E+01   7.8380E+01   0.0000E+00  0.0000
   7.8380E+01   8.0287E+01   0.0000E+00  0.0000
   8.0287E+01   8.2240E+01   0.0000E+00  0.0000
   8.2240E+01   8.4241E+01   0.0000E+00  0.0000
   8.4241E+01   8.6291E+01   0.0000E+00  0.0000
   8.6291E+01   8.8391E+01   0.0000E+00  0.0000
   8.8391E+01   9.0541E+01   0.0000E+00  0.0000
   9.0541E+01   9.2744E+01   0.0000E+00  0.0000
   9.2744E+01   9.5001E+01   0.0000E+00  0.0000
   9.5001E+01   9.7312E+01   0.0000E+00  0.0000
   9.7312E+01   9.9680E+01   0.0000E+00  0.0000
   9.9680E+01   1.0211E+02   0.0000E+00  0.0000
   1.0211E+02   1.0459E+02   0.0000E+00  0.0000
   1.0459E+02   1.0713E+02   0.0000E+00  0.0000
   1.0713E+02   1.0974E+02   0.0000E+00  0.0000
   1.0974E+02   1.1241E+02   0.0000E+00  0.0000
   1.1241E+02   1.1515E+02   0.0000E+00  0.0000
   1.1515E+02   1.1795E+02   0.0000E+00  0.0000
   1.1795E+02   1.2082E+02   0.0000E+00  0.0000
   1.2082E+02   1.2376E+02   0.0000E+00  0.0000
   1.2376E+02   1.2677E+02   0.0000E+00  0.0000
   1.2677E+02   1.2985E+02   0.0000E+00  0.0000
   1.2985E+02   1.3301E+02   0.0000E+00  0.0000
   1.3301E+02   1.3625E+02   0.0000E+00  0.0000
   1.3625E+02   1.3956E+02   0.0000E+00  0.0000
   1.3956E+02   1.4296E+02   0.0000E+00  0.0000
   1.4296E+02   1.4644E+02   0.0000E+00  0.0000
   1.4644E+02   1.5000E+02   0.0000E+00  0.0000

#   sum over                 3.8611E-07
'no. =    1   reg = 125 - 225'
msuc: {\huge [t-cross] in region mesh}
msdr: {\it plotted by \ANGEL \version}
msdl: {\it calculated by \PHITS  3.26}
wt: s(0.7)
\vspace{-3}
  region surface crossing
  area  &=&   1.0000E+00 [cm^2]
e:
 
# Information for Restart Calculation
# This calculation was newly started
# istdev =  2 # 1:Batch variance, 2:History variance
# resc2  = 5.00000000000000000E+09 # Total source weight or Total source weight / maxcas
# resc3  = 5.00000000000000000E+09 # Total history number or Total batch number
# maxcas =   500000000 # History / Batch, only used for istdev=1
# bitrseed = 0110100000100010111000001110001111001110100100011111101000111001 # bit data of rseed
