[ T-Cross ]
    title = [t-cross] in region mesh
     mesh =  reg            # mesh type is region-wise
      reg =    1            # number of crossing regions
      non     r-from    r-to       area
      1       125       225        1.000000    
   e-type =    3            # e-mesh is log given by emin, emax and ne
     emin =  1.0000000E-02  # minimum value of e-mesh points
     emax =   150.0000      # maximum value of e-mesh points
#    edel =  2.4039514E-02  # mesh width of e-mesh points
       ne =    400          # number of e-mesh points
#    data = ( e(i), i = 1, ne + 1 )
#           1.00000E-02  1.02433E-02  1.04925E-02  1.07478E-02  1.10093E-02
#           1.12772E-02  1.15516E-02  1.18326E-02  1.21205E-02  1.24154E-02
#           1.27175E-02  1.30269E-02  1.33439E-02  1.36686E-02  1.40011E-02
#           1.43418E-02  1.46907E-02  1.50482E-02  1.54143E-02  1.57894E-02
#           1.61735E-02  1.65670E-02  1.69701E-02  1.73830E-02  1.78060E-02
#           1.82392E-02  1.86830E-02  1.91375E-02  1.96032E-02  2.00801E-02
#           2.05687E-02  2.10692E-02  2.15818E-02  2.21069E-02  2.26448E-02
#           2.31957E-02  2.37601E-02  2.43382E-02  2.49304E-02  2.55369E-02
#           2.61583E-02  2.67947E-02  2.74467E-02  2.81145E-02  2.87985E-02
#           2.94992E-02  3.02169E-02  3.09521E-02  3.17052E-02  3.24766E-02
#           3.32668E-02  3.40762E-02  3.49053E-02  3.57546E-02  3.66246E-02
#           3.75157E-02  3.84284E-02  3.93634E-02  4.03212E-02  4.13022E-02
#           4.23071E-02  4.33365E-02  4.43909E-02  4.54710E-02  4.65773E-02
#           4.77106E-02  4.88714E-02  5.00605E-02  5.12785E-02  5.25262E-02
#           5.38042E-02  5.51133E-02  5.64542E-02  5.78278E-02  5.92348E-02
#           6.06760E-02  6.21523E-02  6.36645E-02  6.52135E-02  6.68002E-02
#           6.84255E-02  7.00904E-02  7.17957E-02  7.35426E-02  7.53319E-02
#           7.71648E-02  7.90423E-02  8.09655E-02  8.29354E-02  8.49533E-02
#           8.70203E-02  8.91376E-02  9.13064E-02  9.35279E-02  9.58035E-02
#           9.81345E-02  1.00522E-01  1.02968E-01  1.05473E-01  1.08040E-01
#           1.10668E-01  1.13361E-01  1.16119E-01  1.18944E-01  1.21838E-01
#           1.24803E-01  1.27839E-01  1.30950E-01  1.34136E-01  1.37399E-01
#           1.40742E-01  1.44167E-01  1.47675E-01  1.51268E-01  1.54948E-01
#           1.58718E-01  1.62580E-01  1.66535E-01  1.70587E-01  1.74738E-01
#           1.78989E-01  1.83344E-01  1.87805E-01  1.92375E-01  1.97055E-01
#           2.01850E-01  2.06761E-01  2.11792E-01  2.16945E-01  2.22223E-01
#           2.27630E-01  2.33169E-01  2.38842E-01  2.44653E-01  2.50605E-01
#           2.56703E-01  2.62949E-01  2.69346E-01  2.75900E-01  2.82613E-01
#           2.89489E-01  2.96532E-01  3.03747E-01  3.11138E-01  3.18708E-01
#           3.26462E-01  3.34405E-01  3.42542E-01  3.50876E-01  3.59413E-01
#           3.68158E-01  3.77116E-01  3.86291E-01  3.95690E-01  4.05317E-01
#           4.15179E-01  4.25281E-01  4.35628E-01  4.46227E-01  4.57084E-01
#           4.68205E-01  4.79597E-01  4.91266E-01  5.03219E-01  5.15463E-01
#           5.28005E-01  5.40851E-01  5.54011E-01  5.67490E-01  5.81298E-01
#           5.95441E-01  6.09929E-01  6.24769E-01  6.39970E-01  6.55541E-01
#           6.71491E-01  6.87828E-01  7.04564E-01  7.21706E-01  7.39266E-01
#           7.57253E-01  7.75678E-01  7.94551E-01  8.13883E-01  8.33685E-01
#           8.53969E-01  8.74747E-01  8.96030E-01  9.17831E-01  9.40163E-01
#           9.63038E-01  9.86469E-01  1.01047E+00  1.03506E+00  1.06024E+00
#           1.08604E+00  1.11246E+00  1.13953E+00  1.16725E+00  1.19565E+00
#           1.22474E+00  1.25454E+00  1.28507E+00  1.31633E+00  1.34836E+00
#           1.38117E+00  1.41477E+00  1.44920E+00  1.48446E+00  1.52057E+00
#           1.55757E+00  1.59547E+00  1.63429E+00  1.67405E+00  1.71478E+00
#           1.75650E+00  1.79924E+00  1.84302E+00  1.88786E+00  1.93379E+00
#           1.98084E+00  2.02904E+00  2.07841E+00  2.12898E+00  2.18078E+00
#           2.23384E+00  2.28819E+00  2.34386E+00  2.40089E+00  2.45930E+00
#           2.51914E+00  2.58043E+00  2.64322E+00  2.70753E+00  2.77341E+00
#           2.84088E+00  2.91001E+00  2.98081E+00  3.05333E+00  3.12762E+00
#           3.20372E+00  3.28167E+00  3.36152E+00  3.44330E+00  3.52708E+00
#           3.61290E+00  3.70080E+00  3.79085E+00  3.88308E+00  3.97756E+00
#           4.07434E+00  4.17347E+00  4.27501E+00  4.37903E+00  4.48557E+00
#           4.59471E+00  4.70650E+00  4.82102E+00  4.93832E+00  5.05847E+00
#           5.18155E+00  5.30762E+00  5.43676E+00  5.56904E+00  5.70453E+00
#           5.84333E+00  5.98550E+00  6.13114E+00  6.28031E+00  6.43312E+00
#           6.58964E+00  6.74997E+00  6.91420E+00  7.08243E+00  7.25475E+00
#           7.43126E+00  7.61207E+00  7.79728E+00  7.98700E+00  8.18133E+00
#           8.38038E+00  8.58428E+00  8.79315E+00  9.00709E+00  9.22624E+00
#           9.45072E+00  9.68067E+00  9.91620E+00  1.01575E+01  1.04046E+01
#           1.06578E+01  1.09171E+01  1.11827E+01  1.14548E+01  1.17335E+01
#           1.20190E+01  1.23114E+01  1.26109E+01  1.29178E+01  1.32321E+01
#           1.35540E+01  1.38838E+01  1.42216E+01  1.45676E+01  1.49221E+01
#           1.52851E+01  1.56570E+01  1.60380E+01  1.64282E+01  1.68279E+01
#           1.72374E+01  1.76568E+01  1.80864E+01  1.85264E+01  1.89772E+01
#           1.94389E+01  1.99119E+01  2.03963E+01  2.08926E+01  2.14009E+01
#           2.19216E+01  2.24550E+01  2.30014E+01  2.35610E+01  2.41343E+01
#           2.47215E+01  2.53230E+01  2.59391E+01  2.65702E+01  2.72167E+01
#           2.78789E+01  2.85572E+01  2.92520E+01  2.99637E+01  3.06928E+01
#           3.14396E+01  3.22045E+01  3.29881E+01  3.37907E+01  3.46128E+01
#           3.54550E+01  3.63177E+01  3.72013E+01  3.81064E+01  3.90336E+01
#           3.99833E+01  4.09561E+01  4.19526E+01  4.29734E+01  4.40189E+01
#           4.50900E+01  4.61870E+01  4.73108E+01  4.84619E+01  4.96410E+01
#           5.08488E+01  5.20860E+01  5.33533E+01  5.46514E+01  5.59812E+01
#           5.73432E+01  5.87384E+01  6.01676E+01  6.16315E+01  6.31311E+01
#           6.46671E+01  6.62405E+01  6.78522E+01  6.95031E+01  7.11941E+01
#           7.29263E+01  7.47007E+01  7.65182E+01  7.83800E+01  8.02870E+01
#           8.22405E+01  8.42414E+01  8.62911E+01  8.83906E+01  9.05412E+01
#           9.27442E+01  9.50007E+01  9.73122E+01  9.96799E+01  1.02105E+02
#           1.04589E+02  1.07134E+02  1.09741E+02  1.12411E+02  1.15146E+02
#           1.17948E+02  1.20817E+02  1.23757E+02  1.26768E+02  1.29852E+02
#           1.33012E+02  1.36248E+02  1.39563E+02  1.42959E+02  1.46437E+02
#           1.50000E+02
     unit =    2            # unit is [1/cm^2/(MeV/n)/source]
     axis =  eng            # axis of output
     file = detector-26.out  # file name of output for the above axis
   output = f-curr          # surface crossing forward current spectrum
     part =  neutron  
# kf/name :  2112     
#    used :        main (  %)        temp (  %)       total (  %)
#  memory :         414 (  0)           0 (  0)         414 (  0)

#------------------------------------------------------------------------------
#newpage:
#   no. =    1   reg = 125 - 225

x: Energy [MeV/n]
y:  F-Curr [1/cm^2/(MeV/n)/source]         
p: xlog ylog afac(0.8) form(0.9)
h: n            x            y(neutron ),hh0l   n 
#  e-lower      e-upper      neutron     r.err 
   1.0000E-02   1.0243E-02   3.4250E-03  0.0200
   1.0243E-02   1.0493E-02   3.4774E-03  0.0196
   1.0493E-02   1.0748E-02   3.4627E-03  0.0194
   1.0748E-02   1.1009E-02   3.2708E-03  0.0197
   1.1009E-02   1.1277E-02   3.3014E-03  0.0194
   1.1277E-02   1.1552E-02   3.2169E-03  0.0194
   1.1552E-02   1.1833E-02   3.1856E-03  0.0193
   1.1833E-02   1.2121E-02   3.2500E-03  0.0189
   1.2121E-02   1.2415E-02   3.0293E-03  0.0193
   1.2415E-02   1.2718E-02   3.0632E-03  0.0190
   1.2718E-02   1.3027E-02   2.9700E-03  0.0190
   1.3027E-02   1.3344E-02   3.0614E-03  0.0185
   1.3344E-02   1.3669E-02   2.9404E-03  0.0187
   1.3669E-02   1.4001E-02   3.0099E-03  0.0182
   1.4001E-02   1.4342E-02   2.8836E-03  0.0184
   1.4342E-02   1.4691E-02   2.8553E-03  0.0183
   1.4691E-02   1.5048E-02   2.8061E-03  0.0182
   1.5048E-02   1.5414E-02   2.8696E-03  0.0178
   1.5414E-02   1.5789E-02   2.7717E-03  0.0179
   1.5789E-02   1.6174E-02   2.6525E-03  0.0181
   1.6174E-02   1.6567E-02   2.6581E-03  0.0179
   1.6567E-02   1.6970E-02   2.6942E-03  0.0175
   1.6970E-02   1.7383E-02   2.6770E-03  0.0174
   1.7383E-02   1.7806E-02   2.5394E-03  0.0176
   1.7806E-02   1.8239E-02   2.5521E-03  0.0174
   1.8239E-02   1.8683E-02   2.4979E-03  0.0173
   1.8683E-02   1.9138E-02   2.5651E-03  0.0169
   1.9138E-02   1.9603E-02   2.4325E-03  0.0172
   1.9603E-02   2.0080E-02   2.4244E-03  0.0170
   2.0080E-02   2.0569E-02   2.3907E-03  0.0169
   2.0569E-02   2.1069E-02   2.3898E-03  0.0167
   2.1069E-02   2.1582E-02   2.3532E-03  0.0166
   2.1582E-02   2.2107E-02   2.3278E-03  0.0165
   2.2107E-02   2.2645E-02   2.2899E-03  0.0165
   2.2645E-02   2.3196E-02   2.2076E-03  0.0166
   2.3196E-02   2.3760E-02   2.2078E-03  0.0164
   2.3760E-02   2.4338E-02   2.2199E-03  0.0161
   2.4338E-02   2.4930E-02   2.2536E-03  0.0158
   2.4930E-02   2.5537E-02   2.1665E-03  0.0159
   2.5537E-02   2.6158E-02   2.2167E-03  0.0156
   2.6158E-02   2.6795E-02   2.1059E-03  0.0158
   2.6795E-02   2.7447E-02   2.1111E-03  0.0156
   2.7447E-02   2.8114E-02   2.0994E-03  0.0154
   2.8114E-02   2.8799E-02   2.0159E-03  0.0155
   2.8799E-02   2.9499E-02   1.9933E-03  0.0154
   2.9499E-02   3.0217E-02   1.9919E-03  0.0153
   3.0217E-02   3.0952E-02   1.9781E-03  0.0151
   3.0952E-02   3.1705E-02   1.9134E-03  0.0152
   3.1705E-02   3.2477E-02   1.9285E-03  0.0150
   3.2477E-02   3.3267E-02   1.9531E-03  0.0147
   3.3267E-02   3.4076E-02   1.9323E-03  0.0146
   3.4076E-02   3.4905E-02   1.8844E-03  0.0146
   3.4905E-02   3.5755E-02   1.8416E-03  0.0146
   3.5755E-02   3.6625E-02   1.8331E-03  0.0145
   3.6625E-02   3.7516E-02   1.8303E-03  0.0143
   3.7516E-02   3.8428E-02   1.7569E-03  0.0144
   3.8428E-02   3.9363E-02   1.7925E-03  0.0141
   3.9363E-02   4.0321E-02   1.7764E-03  0.0140
   4.0321E-02   4.1302E-02   1.7648E-03  0.0139
   4.1302E-02   4.2307E-02   1.7328E-03  0.0138
   4.2307E-02   4.3337E-02   1.6860E-03  0.0139
   4.3337E-02   4.4391E-02   1.6720E-03  0.0138
   4.4391E-02   4.5471E-02   1.6832E-03  0.0135
   4.5471E-02   4.6577E-02   1.6170E-03  0.0137
   4.6577E-02   4.7711E-02   1.6304E-03  0.0134
   4.7711E-02   4.8871E-02   1.6235E-03  0.0133
   4.8871E-02   5.0061E-02   1.6139E-03  0.0132
   5.0061E-02   5.1279E-02   1.5774E-03  0.0132
   5.1279E-02   5.2526E-02   1.5378E-03  0.0132
   5.2526E-02   5.3804E-02   1.5592E-03  0.0129
   5.3804E-02   5.5113E-02   1.5514E-03  0.0128
   5.5113E-02   5.6454E-02   1.5422E-03  0.0127
   5.6454E-02   5.7828E-02   1.4611E-03  0.0129
   5.7828E-02   5.9235E-02   1.4736E-03  0.0127
   5.9235E-02   6.0676E-02   1.4610E-03  0.0126
   6.0676E-02   6.2152E-02   1.4315E-03  0.0126
   6.2152E-02   6.3665E-02   1.4480E-03  0.0123
   6.3665E-02   6.5214E-02   1.4364E-03  0.0122
   6.5214E-02   6.6800E-02   1.4035E-03  0.0122
   6.6800E-02   6.8426E-02   1.4418E-03  0.0119
   6.8426E-02   7.0090E-02   1.3706E-03  0.0121
   7.0090E-02   7.1796E-02   1.3837E-03  0.0119
   7.1796E-02   7.3543E-02   1.3535E-03  0.0119
   7.3543E-02   7.5332E-02   1.3470E-03  0.0118
   7.5332E-02   7.7165E-02   1.3372E-03  0.0117
   7.7165E-02   7.9042E-02   1.3298E-03  0.0116
   7.9042E-02   8.0965E-02   1.2939E-03  0.0116
   8.0965E-02   8.2935E-02   1.2796E-03  0.0115
   8.2935E-02   8.4953E-02   1.3076E-03  0.0112
   8.4953E-02   8.7020E-02   1.2890E-03  0.0112
   8.7020E-02   8.9138E-02   1.2522E-03  0.0112
   8.9138E-02   9.1306E-02   1.2566E-03  0.0111
   9.1306E-02   9.3528E-02   1.2439E-03  0.0110
   9.3528E-02   9.5804E-02   1.2115E-03  0.0110
   9.5804E-02   9.8134E-02   1.2460E-03  0.0107
   9.8134E-02   1.0052E-01   1.1989E-03  0.0108
   1.0052E-01   1.0297E-01   1.1968E-03  0.0107
   1.0297E-01   1.0547E-01   1.2064E-03  0.0105
   1.0547E-01   1.0804E-01   1.1588E-03  0.0106
   1.0804E-01   1.1067E-01   1.1913E-03  0.0103
   1.1067E-01   1.1336E-01   1.1588E-03  0.0103
   1.1336E-01   1.1612E-01   1.1443E-03  0.0103
   1.1612E-01   1.1894E-01   1.1586E-03  0.0101
   1.1894E-01   1.2184E-01   1.1295E-03  0.0101
   1.2184E-01   1.2480E-01   1.1049E-03  0.0101
   1.2480E-01   1.2784E-01   1.1139E-03  0.0099
   1.2784E-01   1.3095E-01   1.1003E-03  0.0099
   1.3095E-01   1.3414E-01   1.0807E-03  0.0098
   1.3414E-01   1.3740E-01   1.0841E-03  0.0097
   1.3740E-01   1.4074E-01   1.0743E-03  0.0096
   1.4074E-01   1.4417E-01   1.0574E-03  0.0096
   1.4417E-01   1.4767E-01   1.0483E-03  0.0095
   1.4767E-01   1.5127E-01   1.0475E-03  0.0094
   1.5127E-01   1.5495E-01   1.0489E-03  0.0093
   1.5495E-01   1.5872E-01   1.0360E-03  0.0092
   1.5872E-01   1.6258E-01   1.0034E-03  0.0093
   1.6258E-01   1.6654E-01   1.0153E-03  0.0091
   1.6654E-01   1.7059E-01   1.0065E-03  0.0090
   1.7059E-01   1.7474E-01   9.8586E-04  0.0090
   1.7474E-01   1.7899E-01   9.8475E-04  0.0089
   1.7899E-01   1.8334E-01   9.7391E-04  0.0089
   1.8334E-01   1.8781E-01   9.7245E-04  0.0088
   1.8781E-01   1.9237E-01   9.4694E-04  0.0088
   1.9237E-01   1.9706E-01   9.5486E-04  0.0086
   1.9706E-01   2.0185E-01   9.4997E-04  0.0086
   2.0185E-01   2.0676E-01   9.3712E-04  0.0085
   2.0676E-01   2.1179E-01   9.1105E-04  0.0085
   2.1179E-01   2.1694E-01   9.0891E-04  0.0084
   2.1694E-01   2.2222E-01   9.0475E-04  0.0084
   2.2222E-01   2.2763E-01   8.8998E-04  0.0083
   2.2763E-01   2.3317E-01   8.8717E-04  0.0082
   2.3317E-01   2.3884E-01   8.7752E-04  0.0082
   2.3884E-01   2.4465E-01   8.7239E-04  0.0081
   2.4465E-01   2.5061E-01   8.5134E-04  0.0081
   2.5061E-01   2.5670E-01   8.4560E-04  0.0080
   2.5670E-01   2.6295E-01   8.3806E-04  0.0080
   2.6295E-01   2.6935E-01   8.3185E-04  0.0079
   2.6935E-01   2.7590E-01   8.2049E-04  0.0079
   2.7590E-01   2.8261E-01   8.1495E-04  0.0078
   2.8261E-01   2.8949E-01   8.0548E-04  0.0078
   2.8949E-01   2.9653E-01   7.8744E-04  0.0078
   2.9653E-01   3.0375E-01   7.8823E-04  0.0077
   3.0375E-01   3.1114E-01   7.8171E-04  0.0076
   3.1114E-01   3.1871E-01   7.7320E-04  0.0075
   3.1871E-01   3.2646E-01   7.5550E-04  0.0075
   3.2646E-01   3.3441E-01   7.4304E-04  0.0075
   3.3441E-01   3.4254E-01   7.5101E-04  0.0074
   3.4254E-01   3.5088E-01   7.2595E-04  0.0074
   3.5088E-01   3.5941E-01   7.2413E-04  0.0073
   3.5941E-01   3.6816E-01   7.0892E-04  0.0073
   3.6816E-01   3.7712E-01   7.0157E-04  0.0073
   3.7712E-01   3.8629E-01   6.9566E-04  0.0072
   3.8629E-01   3.9569E-01   6.8445E-04  0.0072
   3.9569E-01   4.0532E-01   6.8066E-04  0.0071
   4.0532E-01   4.1518E-01   6.6493E-04  0.0071
   4.1518E-01   4.2528E-01   6.5508E-04  0.0071
   4.2528E-01   4.3563E-01   6.4483E-04  0.0071
   4.3563E-01   4.4623E-01   6.2734E-04  0.0071
   4.4623E-01   4.5708E-01   6.2070E-04  0.0070
   4.5708E-01   4.6821E-01   6.1978E-04  0.0070
   4.6821E-01   4.7960E-01   6.0672E-04  0.0069
   4.7960E-01   4.9127E-01   5.9245E-04  0.0069
   4.9127E-01   5.0322E-01   5.7958E-04  0.0069
   5.0322E-01   5.1546E-01   5.7139E-04  0.0069
   5.1546E-01   5.2800E-01   5.6744E-04  0.0068
   5.2800E-01   5.4085E-01   5.5433E-04  0.0068
   5.4085E-01   5.5401E-01   5.3762E-04  0.0069
   5.5401E-01   5.6749E-01   5.3464E-04  0.0068
   5.6749E-01   5.8130E-01   5.1529E-04  0.0068
   5.8130E-01   5.9544E-01   5.0346E-04  0.0068
   5.9544E-01   6.0993E-01   5.0121E-04  0.0068
   6.0993E-01   6.2477E-01   4.7899E-04  0.0068
   6.2477E-01   6.3997E-01   4.7244E-04  0.0068
   6.3997E-01   6.5554E-01   4.5812E-04  0.0068
   6.5554E-01   6.7149E-01   4.4730E-04  0.0068
   6.7149E-01   6.8783E-01   4.3503E-04  0.0068
   6.8783E-01   7.0456E-01   4.2764E-04  0.0068
   7.0456E-01   7.2171E-01   4.1266E-04  0.0069
   7.2171E-01   7.3927E-01   3.9982E-04  0.0069
   7.3927E-01   7.5725E-01   3.8606E-04  0.0069
   7.5725E-01   7.7568E-01   3.8096E-04  0.0069
   7.7568E-01   7.9455E-01   3.6119E-04  0.0070
   7.9455E-01   8.1388E-01   3.5275E-04  0.0070
   8.1388E-01   8.3368E-01   3.4040E-04  0.0070
   8.3368E-01   8.5397E-01   3.2934E-04  0.0071
   8.5397E-01   8.7475E-01   3.1083E-04  0.0072
   8.7475E-01   8.9603E-01   2.9876E-04  0.0072
   8.9603E-01   9.1783E-01   2.8743E-04  0.0073
   9.1783E-01   9.4016E-01   2.7948E-04  0.0073
   9.4016E-01   9.6304E-01   2.6002E-04  0.0075
   9.6304E-01   9.8647E-01   2.5165E-04  0.0075
   9.8647E-01   1.0105E+00   2.3665E-04  0.0077
   1.0105E+00   1.0351E+00   2.3546E-04  0.0076
   1.0351E+00   1.0602E+00   2.3622E-04  0.0075
   1.0602E+00   1.0860E+00   2.3175E-04  0.0075
   1.0860E+00   1.1125E+00   2.3340E-04  0.0074
   1.1125E+00   1.1395E+00   2.3421E-04  0.0073
   1.1395E+00   1.1673E+00   2.3784E-04  0.0071
   1.1673E+00   1.1957E+00   2.4211E-04  0.0070
   1.1957E+00   1.2247E+00   2.4419E-04  0.0069
   1.2247E+00   1.2545E+00   2.4108E-04  0.0068
   1.2545E+00   1.2851E+00   2.3854E-04  0.0068
   1.2851E+00   1.3163E+00   2.3522E-04  0.0067
   1.3163E+00   1.3484E+00   2.3458E-04  0.0067
   1.3484E+00   1.3812E+00   2.3582E-04  0.0066
   1.3812E+00   1.4148E+00   2.3817E-04  0.0065
   1.4148E+00   1.4492E+00   2.2974E-04  0.0065
   1.4492E+00   1.4845E+00   2.2900E-04  0.0064
   1.4845E+00   1.5206E+00   2.1933E-04  0.0065
   1.5206E+00   1.5576E+00   2.2021E-04  0.0064
   1.5576E+00   1.5955E+00   2.1631E-04  0.0064
   1.5955E+00   1.6343E+00   2.1251E-04  0.0064
   1.6343E+00   1.6741E+00   2.1143E-04  0.0063
   1.6741E+00   1.7148E+00   2.0967E-04  0.0062
   1.7148E+00   1.7565E+00   2.0369E-04  0.0063
   1.7565E+00   1.7992E+00   1.9618E-04  0.0063
   1.7992E+00   1.8430E+00   1.9251E-04  0.0063
   1.8430E+00   1.8879E+00   1.8667E-04  0.0063
   1.8879E+00   1.9338E+00   1.8065E-04  0.0063
   1.9338E+00   1.9808E+00   1.7965E-04  0.0063
   1.9808E+00   2.0290E+00   1.7285E-04  0.0063
   2.0290E+00   2.0784E+00   1.6717E-04  0.0064
   2.0784E+00   2.1290E+00   1.6046E-04  0.0064
   2.1290E+00   2.1808E+00   1.5601E-04  0.0064
   2.1808E+00   2.2338E+00   1.4879E-04  0.0065
   2.2338E+00   2.2882E+00   1.4373E-04  0.0065
   2.2882E+00   2.3439E+00   1.3616E-04  0.0066
   2.3439E+00   2.4009E+00   1.3371E-04  0.0066
   2.4009E+00   2.4593E+00   1.2848E-04  0.0067
   2.4593E+00   2.5191E+00   1.1981E-04  0.0068
   2.5191E+00   2.5804E+00   1.1636E-04  0.0068
   2.5804E+00   2.6432E+00   1.0963E-04  0.0070
   2.6432E+00   2.7075E+00   1.0297E-04  0.0071
   2.7075E+00   2.7734E+00   9.6620E-05  0.0072
   2.7734E+00   2.8409E+00   9.3224E-05  0.0073
   2.8409E+00   2.9100E+00   8.8499E-05  0.0074
   2.9100E+00   2.9808E+00   8.4133E-05  0.0075
   2.9808E+00   3.0533E+00   7.9931E-05  0.0076
   3.0533E+00   3.1276E+00   7.4671E-05  0.0078
   3.1276E+00   3.2037E+00   6.8749E-05  0.0080
   3.2037E+00   3.2817E+00   6.6597E-05  0.0080
   3.2817E+00   3.3615E+00   6.1049E-05  0.0083
   3.3615E+00   3.4433E+00   5.6984E-05  0.0085
   3.4433E+00   3.5271E+00   5.2969E-05  0.0087
   3.5271E+00   3.6129E+00   4.9505E-05  0.0089
   3.6129E+00   3.7008E+00   4.5599E-05  0.0091
   3.7008E+00   3.7908E+00   4.2998E-05  0.0093
   3.7908E+00   3.8831E+00   3.9723E-05  0.0095
   3.8831E+00   3.9776E+00   3.6671E-05  0.0098
   3.9776E+00   4.0743E+00   3.4719E-05  0.0100
   4.0743E+00   4.1735E+00   3.1904E-05  0.0103
   4.1735E+00   4.2750E+00   2.9833E-05  0.0105
   4.2750E+00   4.3790E+00   2.6961E-05  0.0109
   4.3790E+00   4.4856E+00   2.4899E-05  0.0112
   4.4856E+00   4.5947E+00   2.2183E-05  0.0117
   4.5947E+00   4.7065E+00   2.0793E-05  0.0120
   4.7065E+00   4.8210E+00   1.9253E-05  0.0123
   4.8210E+00   4.9383E+00   1.7366E-05  0.0128
   4.9383E+00   5.0585E+00   1.6318E-05  0.0130
   5.0585E+00   5.1815E+00   1.4720E-05  0.0136
   5.1815E+00   5.3076E+00   1.3498E-05  0.0140
   5.3076E+00   5.4368E+00   1.2294E-05  0.0145
   5.4368E+00   5.5690E+00   1.1552E-05  0.0148
   5.5690E+00   5.7045E+00   1.0158E-05  0.0156
   5.7045E+00   5.8433E+00   9.2354E-06  0.0161
   5.8433E+00   5.9855E+00   8.2552E-06  0.0169
   5.9855E+00   6.1311E+00   7.5533E-06  0.0174
   6.1311E+00   6.2803E+00   6.8655E-06  0.0180
   6.2803E+00   6.4331E+00   6.1571E-06  0.0188
   6.4331E+00   6.5896E+00   5.5136E-06  0.0197
   6.5896E+00   6.7500E+00   5.4096E-06  0.0196
   6.7500E+00   6.9142E+00   4.6966E-06  0.0208
   6.9142E+00   7.0824E+00   4.1462E-06  0.0219
   7.0824E+00   7.2548E+00   3.6927E-06  0.0229
   7.2548E+00   7.4313E+00   3.4709E-06  0.0233
   7.4313E+00   7.6121E+00   3.0511E-06  0.0246
   7.6121E+00   7.7973E+00   2.7654E-06  0.0255
   7.7973E+00   7.9870E+00   2.4783E-06  0.0266
   7.9870E+00   8.1813E+00   2.1707E-06  0.0281
   8.1813E+00   8.3804E+00   2.0245E-06  0.0287
   8.3804E+00   8.5843E+00   1.7852E-06  0.0302
   8.5843E+00   8.7931E+00   1.6542E-06  0.0310
   8.7931E+00   9.0071E+00   1.4762E-06  0.0324
   9.0071E+00   9.2262E+00   1.3317E-06  0.0337
   9.2262E+00   9.4507E+00   1.1582E-06  0.0357
   9.4507E+00   9.6807E+00   1.0843E-06  0.0364
   9.6807E+00   9.9162E+00   9.2412E-07  0.0390
   9.9162E+00   1.0157E+01   8.3379E-07  0.0406
   1.0157E+01   1.0405E+01   8.0386E-07  0.0408
   1.0405E+01   1.0658E+01   6.4915E-07  0.0449
   1.0658E+01   1.0917E+01   6.1573E-07  0.0455
   1.0917E+01   1.1183E+01   5.3209E-07  0.0483
   1.1183E+01   1.1455E+01   4.9433E-07  0.0496
   1.1455E+01   1.1733E+01   4.2279E-07  0.0528
   1.1733E+01   1.2019E+01   3.6371E-07  0.0562
   1.2019E+01   1.2311E+01   3.8129E-07  0.0544
   1.2311E+01   1.2611E+01   3.1436E-07  0.0592
   1.2611E+01   1.2918E+01   2.8789E-07  0.0611
   1.2918E+01   1.3232E+01   2.5029E-07  0.0647
   1.3232E+01   1.3554E+01   2.3813E-07  0.0657
   1.3554E+01   1.3884E+01   1.9761E-07  0.0710
   1.3884E+01   1.4222E+01   1.8847E-07  0.0719
   1.4222E+01   1.4568E+01   1.9652E-07  0.0697
   1.4568E+01   1.4922E+01   1.6552E-07  0.0749
   1.4922E+01   1.5285E+01   1.3680E-07  0.0816
   1.5285E+01   1.5657E+01   1.2952E-07  0.0828
   1.5657E+01   1.6038E+01   1.4306E-07  0.0778
   1.6038E+01   1.6428E+01   1.2173E-07  0.0834
   1.6428E+01   1.6828E+01   1.2301E-07  0.0821
   1.6828E+01   1.7237E+01   1.0339E-07  0.0884
   1.7237E+01   1.7657E+01   1.1286E-07  0.0836
   1.7657E+01   1.8086E+01   8.9230E-08  0.0933
   1.8086E+01   1.8526E+01   9.8472E-08  0.0874
   1.8526E+01   1.8977E+01   8.6520E-08  0.0925
   1.8977E+01   1.9439E+01   7.2553E-08  0.0994
   1.9439E+01   1.9912E+01   7.8582E-08  0.0946
   1.9912E+01   2.0396E+01   6.3987E-08  0.1037
   2.0396E+01   2.0893E+01   5.9109E-08  0.1066
   2.0893E+01   2.1401E+01   6.4918E-08  0.1005
   2.1401E+01   2.1922E+01   4.7372E-08  0.1162
   2.1922E+01   2.2455E+01   5.9371E-08  0.1026
   2.2455E+01   2.3001E+01   4.5758E-08  0.1155
   2.3001E+01   2.3561E+01   4.8245E-08  0.1111
   2.3561E+01   2.4134E+01   4.0703E-08  0.1195
   2.4134E+01   2.4721E+01   3.7466E-08  0.1231
   2.4721E+01   2.5323E+01   3.4359E-08  0.1270
   2.5323E+01   2.5939E+01   3.0297E-08  0.1336
   2.5939E+01   2.6570E+01   3.2218E-08  0.1280
   2.6570E+01   2.7217E+01   2.6296E-08  0.1400
   2.7217E+01   2.7879E+01   2.0638E-08  0.1562
   2.7879E+01   2.8557E+01   2.4571E-08  0.1414
   2.8557E+01   2.9252E+01   1.6791E-08  0.1690
   2.9252E+01   2.9964E+01   1.6860E-08  0.1667
   2.9964E+01   3.0693E+01   1.5088E-08  0.1741
   3.0693E+01   3.1440E+01   1.3391E-08  0.1826
   3.1440E+01   3.2205E+01   1.2201E-08  0.1890
   3.2205E+01   3.2988E+01   8.5082E-09  0.2236
   3.2988E+01   3.3791E+01   7.0602E-09  0.2425
   3.3791E+01   3.4613E+01   8.9197E-09  0.2132
   3.4613E+01   3.5455E+01   7.9162E-09  0.2236
   3.5455E+01   3.6318E+01   4.2505E-09  0.3015
   3.6318E+01   3.7201E+01   5.2812E-09  0.2673
   3.7201E+01   3.8106E+01   4.0510E-09  0.3015
   3.8106E+01   3.9034E+01   1.7976E-09  0.4472
   3.9034E+01   3.9983E+01   7.0196E-10  0.7071
   3.9983E+01   4.0956E+01   1.7132E-09  0.4472
   4.0956E+01   4.1953E+01   1.0035E-09  0.5774
   4.1953E+01   4.2973E+01   9.7968E-10  0.5774
   4.2973E+01   4.4019E+01   1.5940E-09  0.4472
   4.4019E+01   4.5090E+01   9.3369E-10  0.5774
   4.5090E+01   4.6187E+01   1.2154E-09  0.5000
   4.6187E+01   4.7311E+01   5.9324E-10  0.7071
   4.7311E+01   4.8462E+01   0.0000E+00  0.0000
   4.8462E+01   4.9641E+01   2.8270E-10  1.0000
   4.9641E+01   5.0849E+01   0.0000E+00  0.0000
   5.0849E+01   5.2086E+01   0.0000E+00  0.0000
   5.2086E+01   5.3353E+01   2.6303E-10  1.0000
   5.3353E+01   5.4651E+01   0.0000E+00  0.0000
   5.4651E+01   5.5981E+01   0.0000E+00  0.0000
   5.5981E+01   5.7343E+01   0.0000E+00  0.0000
   5.7343E+01   5.8738E+01   0.0000E+00  0.0000
   5.8738E+01   6.0168E+01   0.0000E+00  0.0000
   6.0168E+01   6.1632E+01   0.0000E+00  0.0000
   6.1632E+01   6.3131E+01   0.0000E+00  0.0000
   6.3131E+01   6.4667E+01   0.0000E+00  0.0000
   6.4667E+01   6.6240E+01   0.0000E+00  0.0000
   6.6240E+01   6.7852E+01   0.0000E+00  0.0000
   6.7852E+01   6.9503E+01   0.0000E+00  0.0000
   6.9503E+01   7.1194E+01   0.0000E+00  0.0000
   7.1194E+01   7.2926E+01   0.0000E+00  0.0000
   7.2926E+01   7.4701E+01   0.0000E+00  0.0000
   7.4701E+01   7.6518E+01   0.0000E+00  0.0000
   7.6518E+01   7.8380E+01   0.0000E+00  0.0000
   7.8380E+01   8.0287E+01   0.0000E+00  0.0000
   8.0287E+01   8.2240E+01   0.0000E+00  0.0000
   8.2240E+01   8.4241E+01   0.0000E+00  0.0000
   8.4241E+01   8.6291E+01   0.0000E+00  0.0000
   8.6291E+01   8.8391E+01   0.0000E+00  0.0000
   8.8391E+01   9.0541E+01   0.0000E+00  0.0000
   9.0541E+01   9.2744E+01   0.0000E+00  0.0000
   9.2744E+01   9.5001E+01   0.0000E+00  0.0000
   9.5001E+01   9.7312E+01   0.0000E+00  0.0000
   9.7312E+01   9.9680E+01   0.0000E+00  0.0000
   9.9680E+01   1.0211E+02   0.0000E+00  0.0000
   1.0211E+02   1.0459E+02   0.0000E+00  0.0000
   1.0459E+02   1.0713E+02   0.0000E+00  0.0000
   1.0713E+02   1.0974E+02   0.0000E+00  0.0000
   1.0974E+02   1.1241E+02   0.0000E+00  0.0000
   1.1241E+02   1.1515E+02   0.0000E+00  0.0000
   1.1515E+02   1.1795E+02   0.0000E+00  0.0000
   1.1795E+02   1.2082E+02   0.0000E+00  0.0000
   1.2082E+02   1.2376E+02   0.0000E+00  0.0000
   1.2376E+02   1.2677E+02   0.0000E+00  0.0000
   1.2677E+02   1.2985E+02   0.0000E+00  0.0000
   1.2985E+02   1.3301E+02   0.0000E+00  0.0000
   1.3301E+02   1.3625E+02   0.0000E+00  0.0000
   1.3625E+02   1.3956E+02   0.0000E+00  0.0000
   1.3956E+02   1.4296E+02   0.0000E+00  0.0000
   1.4296E+02   1.4644E+02   0.0000E+00  0.0000
   1.4644E+02   1.5000E+02   0.0000E+00  0.0000

#   sum over                 7.4794E-06
'no. =    1   reg = 125 - 225'
msuc: {\huge [t-cross] in region mesh}
msdr: {\it plotted by \ANGEL \version}
msdl: {\it calculated by \PHITS  3.26}
wt: s(0.7)
\vspace{-3}
  region surface crossing
  area  &=&   1.0000E+00 [cm^2]
e:
 
# Information for Restart Calculation
# This calculation was newly started
# istdev =  2 # 1:Batch variance, 2:History variance
# resc2  = 3.00000000000000000E+09 # Total source weight or Total source weight / maxcas
# resc3  = 3.00000000000000000E+09 # Total history number or Total batch number
# maxcas =   500000000 # History / Batch, only used for istdev=1
# bitrseed = 0110110011111001100110101011100000010010001000001101100100111101 # bit data of rseed
