[ T-Cross ]
    title = [t-cross] in region mesh
     mesh =  reg            # mesh type is region-wise
      reg =    1            # number of crossing regions
      non     r-from    r-to       area
      1       111       211        1.000000    
   e-type =    3            # e-mesh is log given by emin, emax and ne
     emin =  1.0000000E-02  # minimum value of e-mesh points
     emax =   150.0000      # maximum value of e-mesh points
#    edel =  2.4039514E-02  # mesh width of e-mesh points
       ne =    400          # number of e-mesh points
#    data = ( e(i), i = 1, ne + 1 )
#           1.00000E-02  1.02433E-02  1.04925E-02  1.07478E-02  1.10093E-02
#           1.12772E-02  1.15516E-02  1.18326E-02  1.21205E-02  1.24154E-02
#           1.27175E-02  1.30269E-02  1.33439E-02  1.36686E-02  1.40011E-02
#           1.43418E-02  1.46907E-02  1.50482E-02  1.54143E-02  1.57894E-02
#           1.61735E-02  1.65670E-02  1.69701E-02  1.73830E-02  1.78060E-02
#           1.82392E-02  1.86830E-02  1.91375E-02  1.96032E-02  2.00801E-02
#           2.05687E-02  2.10692E-02  2.15818E-02  2.21069E-02  2.26448E-02
#           2.31957E-02  2.37601E-02  2.43382E-02  2.49304E-02  2.55369E-02
#           2.61583E-02  2.67947E-02  2.74467E-02  2.81145E-02  2.87985E-02
#           2.94992E-02  3.02169E-02  3.09521E-02  3.17052E-02  3.24766E-02
#           3.32668E-02  3.40762E-02  3.49053E-02  3.57546E-02  3.66246E-02
#           3.75157E-02  3.84284E-02  3.93634E-02  4.03212E-02  4.13022E-02
#           4.23071E-02  4.33365E-02  4.43909E-02  4.54710E-02  4.65773E-02
#           4.77106E-02  4.88714E-02  5.00605E-02  5.12785E-02  5.25262E-02
#           5.38042E-02  5.51133E-02  5.64542E-02  5.78278E-02  5.92348E-02
#           6.06760E-02  6.21523E-02  6.36645E-02  6.52135E-02  6.68002E-02
#           6.84255E-02  7.00904E-02  7.17957E-02  7.35426E-02  7.53319E-02
#           7.71648E-02  7.90423E-02  8.09655E-02  8.29354E-02  8.49533E-02
#           8.70203E-02  8.91376E-02  9.13064E-02  9.35279E-02  9.58035E-02
#           9.81345E-02  1.00522E-01  1.02968E-01  1.05473E-01  1.08040E-01
#           1.10668E-01  1.13361E-01  1.16119E-01  1.18944E-01  1.21838E-01
#           1.24803E-01  1.27839E-01  1.30950E-01  1.34136E-01  1.37399E-01
#           1.40742E-01  1.44167E-01  1.47675E-01  1.51268E-01  1.54948E-01
#           1.58718E-01  1.62580E-01  1.66535E-01  1.70587E-01  1.74738E-01
#           1.78989E-01  1.83344E-01  1.87805E-01  1.92375E-01  1.97055E-01
#           2.01850E-01  2.06761E-01  2.11792E-01  2.16945E-01  2.22223E-01
#           2.27630E-01  2.33169E-01  2.38842E-01  2.44653E-01  2.50605E-01
#           2.56703E-01  2.62949E-01  2.69346E-01  2.75900E-01  2.82613E-01
#           2.89489E-01  2.96532E-01  3.03747E-01  3.11138E-01  3.18708E-01
#           3.26462E-01  3.34405E-01  3.42542E-01  3.50876E-01  3.59413E-01
#           3.68158E-01  3.77116E-01  3.86291E-01  3.95690E-01  4.05317E-01
#           4.15179E-01  4.25281E-01  4.35628E-01  4.46227E-01  4.57084E-01
#           4.68205E-01  4.79597E-01  4.91266E-01  5.03219E-01  5.15463E-01
#           5.28005E-01  5.40851E-01  5.54011E-01  5.67490E-01  5.81298E-01
#           5.95441E-01  6.09929E-01  6.24769E-01  6.39970E-01  6.55541E-01
#           6.71491E-01  6.87828E-01  7.04564E-01  7.21706E-01  7.39266E-01
#           7.57253E-01  7.75678E-01  7.94551E-01  8.13883E-01  8.33685E-01
#           8.53969E-01  8.74747E-01  8.96030E-01  9.17831E-01  9.40163E-01
#           9.63038E-01  9.86469E-01  1.01047E+00  1.03506E+00  1.06024E+00
#           1.08604E+00  1.11246E+00  1.13953E+00  1.16725E+00  1.19565E+00
#           1.22474E+00  1.25454E+00  1.28507E+00  1.31633E+00  1.34836E+00
#           1.38117E+00  1.41477E+00  1.44920E+00  1.48446E+00  1.52057E+00
#           1.55757E+00  1.59547E+00  1.63429E+00  1.67405E+00  1.71478E+00
#           1.75650E+00  1.79924E+00  1.84302E+00  1.88786E+00  1.93379E+00
#           1.98084E+00  2.02904E+00  2.07841E+00  2.12898E+00  2.18078E+00
#           2.23384E+00  2.28819E+00  2.34386E+00  2.40089E+00  2.45930E+00
#           2.51914E+00  2.58043E+00  2.64322E+00  2.70753E+00  2.77341E+00
#           2.84088E+00  2.91001E+00  2.98081E+00  3.05333E+00  3.12762E+00
#           3.20372E+00  3.28167E+00  3.36152E+00  3.44330E+00  3.52708E+00
#           3.61290E+00  3.70080E+00  3.79085E+00  3.88308E+00  3.97756E+00
#           4.07434E+00  4.17347E+00  4.27501E+00  4.37903E+00  4.48557E+00
#           4.59471E+00  4.70650E+00  4.82102E+00  4.93832E+00  5.05847E+00
#           5.18155E+00  5.30762E+00  5.43676E+00  5.56904E+00  5.70453E+00
#           5.84333E+00  5.98550E+00  6.13114E+00  6.28031E+00  6.43312E+00
#           6.58964E+00  6.74997E+00  6.91420E+00  7.08243E+00  7.25475E+00
#           7.43126E+00  7.61207E+00  7.79728E+00  7.98700E+00  8.18133E+00
#           8.38038E+00  8.58428E+00  8.79315E+00  9.00709E+00  9.22624E+00
#           9.45072E+00  9.68067E+00  9.91620E+00  1.01575E+01  1.04046E+01
#           1.06578E+01  1.09171E+01  1.11827E+01  1.14548E+01  1.17335E+01
#           1.20190E+01  1.23114E+01  1.26109E+01  1.29178E+01  1.32321E+01
#           1.35540E+01  1.38838E+01  1.42216E+01  1.45676E+01  1.49221E+01
#           1.52851E+01  1.56570E+01  1.60380E+01  1.64282E+01  1.68279E+01
#           1.72374E+01  1.76568E+01  1.80864E+01  1.85264E+01  1.89772E+01
#           1.94389E+01  1.99119E+01  2.03963E+01  2.08926E+01  2.14009E+01
#           2.19216E+01  2.24550E+01  2.30014E+01  2.35610E+01  2.41343E+01
#           2.47215E+01  2.53230E+01  2.59391E+01  2.65702E+01  2.72167E+01
#           2.78789E+01  2.85572E+01  2.92520E+01  2.99637E+01  3.06928E+01
#           3.14396E+01  3.22045E+01  3.29881E+01  3.37907E+01  3.46128E+01
#           3.54550E+01  3.63177E+01  3.72013E+01  3.81064E+01  3.90336E+01
#           3.99833E+01  4.09561E+01  4.19526E+01  4.29734E+01  4.40189E+01
#           4.50900E+01  4.61870E+01  4.73108E+01  4.84619E+01  4.96410E+01
#           5.08488E+01  5.20860E+01  5.33533E+01  5.46514E+01  5.59812E+01
#           5.73432E+01  5.87384E+01  6.01676E+01  6.16315E+01  6.31311E+01
#           6.46671E+01  6.62405E+01  6.78522E+01  6.95031E+01  7.11941E+01
#           7.29263E+01  7.47007E+01  7.65182E+01  7.83800E+01  8.02870E+01
#           8.22405E+01  8.42414E+01  8.62911E+01  8.83906E+01  9.05412E+01
#           9.27442E+01  9.50007E+01  9.73122E+01  9.96799E+01  1.02105E+02
#           1.04589E+02  1.07134E+02  1.09741E+02  1.12411E+02  1.15146E+02
#           1.17948E+02  1.20817E+02  1.23757E+02  1.26768E+02  1.29852E+02
#           1.33012E+02  1.36248E+02  1.39563E+02  1.42959E+02  1.46437E+02
#           1.50000E+02
     unit =    2            # unit is [1/cm^2/(MeV/n)/source]
     axis =  eng            # axis of output
     file = detector-12.out  # file name of output for the above axis
   output = f-curr          # surface crossing forward current spectrum
     part =  neutron  
# kf/name :  2112     
#    used :        main (  %)        temp (  %)       total (  %)
#  memory :         414 (  0)           0 (  0)         414 (  0)

#------------------------------------------------------------------------------
#newpage:
#   no. =    1   reg = 111 - 211

x: Energy [MeV/n]
y:  F-Curr [1/cm^2/(MeV/n)/source]         
p: xlog ylog afac(0.8) form(0.9)
h: n            x            y(neutron ),hh0l   n 
#  e-lower      e-upper      neutron     r.err 
   1.0000E-02   1.0243E-02   2.3239E-04  0.0672
   1.0243E-02   1.0493E-02   2.2775E-04  0.0671
   1.0493E-02   1.0748E-02   2.3302E-04  0.0654
   1.0748E-02   1.1009E-02   2.2147E-04  0.0663
   1.1009E-02   1.1277E-02   2.1561E-04  0.0664
   1.1277E-02   1.1552E-02   1.9884E-04  0.0684
   1.1552E-02   1.1833E-02   2.0901E-04  0.0659
   1.1833E-02   1.2121E-02   2.0797E-04  0.0651
   1.2121E-02   1.2415E-02   2.1264E-04  0.0637
   1.2415E-02   1.2718E-02   2.0888E-04  0.0634
   1.2718E-02   1.3027E-02   1.8122E-04  0.0673
   1.3027E-02   1.3344E-02   2.1686E-04  0.0609
   1.3344E-02   1.3669E-02   1.7713E-04  0.0665
   1.3669E-02   1.4001E-02   1.8009E-04  0.0651
   1.4001E-02   1.4342E-02   1.6549E-04  0.0671
   1.4342E-02   1.4691E-02   1.6506E-04  0.0665
   1.4691E-02   1.5048E-02   1.5406E-04  0.0680
   1.5048E-02   1.5414E-02   1.6300E-04  0.0653
   1.5414E-02   1.5789E-02   1.7761E-04  0.0618
   1.5789E-02   1.6174E-02   1.6701E-04  0.0631
   1.6174E-02   1.6567E-02   1.4755E-04  0.0662
   1.6567E-02   1.6970E-02   1.6215E-04  0.0625
   1.6970E-02   1.7383E-02   1.4219E-04  0.0659
   1.7383E-02   1.7806E-02   1.3020E-04  0.0680
   1.7806E-02   1.8239E-02   1.5041E-04  0.0625
   1.8239E-02   1.8683E-02   1.3079E-04  0.0661
   1.8683E-02   1.9138E-02   1.4812E-04  0.0615
   1.9138E-02   1.9603E-02   1.2128E-04  0.0672
   1.9603E-02   2.0080E-02   1.3188E-04  0.0635
   2.0080E-02   2.0569E-02   1.1676E-04  0.0669
   2.0569E-02   2.1069E-02   1.1281E-04  0.0672
   2.1069E-02   2.1582E-02   1.0704E-04  0.0681
   2.1582E-02   2.2107E-02   1.1616E-04  0.0644
   2.2107E-02   2.2645E-02   1.1612E-04  0.0639
   2.2645E-02   2.3196E-02   1.2053E-04  0.0619
   2.3196E-02   2.3760E-02   1.0772E-04  0.0647
   2.3760E-02   2.4338E-02   1.0148E-04  0.0659
   2.4338E-02   2.4930E-02   1.0730E-04  0.0633
   2.4930E-02   2.5537E-02   1.1813E-04  0.0597
   2.5537E-02   2.6158E-02   1.0316E-04  0.0630
   2.6158E-02   2.6795E-02   9.7521E-05  0.0641
   2.6795E-02   2.7447E-02   9.3455E-05  0.0646
   2.7447E-02   2.8114E-02   9.3371E-05  0.0639
   2.8114E-02   2.8799E-02   8.9470E-05  0.0645
   2.8799E-02   2.9499E-02   8.7166E-05  0.0645
   2.9499E-02   3.0217E-02   8.7101E-05  0.0637
   3.0217E-02   3.0952E-02   8.9526E-05  0.0622
   3.0952E-02   3.1705E-02   8.5687E-05  0.0628
   3.1705E-02   3.2477E-02   8.7211E-05  0.0615
   3.2477E-02   3.3267E-02   8.2259E-05  0.0626
   3.3267E-02   3.4076E-02   9.2321E-05  0.0584
   3.4076E-02   3.4905E-02   7.6359E-05  0.0635
   3.4905E-02   3.5755E-02   7.2547E-05  0.0643
   3.5755E-02   3.6625E-02   7.3410E-05  0.0631
   3.6625E-02   3.7516E-02   7.7232E-05  0.0608
   3.7516E-02   3.8428E-02   6.9710E-05  0.0633
   3.8428E-02   3.9363E-02   7.3660E-05  0.0608
   3.9363E-02   4.0321E-02   6.6931E-05  0.0629
   4.0321E-02   4.1302E-02   6.1508E-05  0.0649
   4.1302E-02   4.2307E-02   6.6360E-05  0.0617
   4.2307E-02   4.3337E-02   6.9922E-05  0.0595
   4.3337E-02   4.4391E-02   6.0766E-05  0.0630
   4.4391E-02   4.5471E-02   6.4706E-05  0.0604
   4.5471E-02   4.6577E-02   6.6040E-05  0.0590
   4.6577E-02   4.7711E-02   6.1111E-05  0.0606
   4.7711E-02   4.8871E-02   5.2788E-05  0.0644
   4.8871E-02   5.0061E-02   5.9770E-05  0.0599
   5.0061E-02   5.1279E-02   5.6224E-05  0.0610
   5.1279E-02   5.2526E-02   5.6206E-05  0.0603
   5.2526E-02   5.3804E-02   5.3383E-05  0.0611
   5.3804E-02   5.5113E-02   5.7223E-05  0.0582
   5.5113E-02   5.6454E-02   5.2217E-05  0.0603
   5.6454E-02   5.7828E-02   4.8296E-05  0.0620
   5.7828E-02   5.9235E-02   4.7578E-05  0.0617
   5.9235E-02   6.0676E-02   4.9463E-05  0.0598
   6.0676E-02   6.2152E-02   4.7089E-05  0.0605
   6.2152E-02   6.3665E-02   4.5998E-05  0.0605
   6.3665E-02   6.5214E-02   4.6399E-05  0.0595
   6.5214E-02   6.6800E-02   4.5721E-05  0.0593
   6.6800E-02   6.8426E-02   3.7693E-05  0.0645
   6.8426E-02   7.0090E-02   3.9796E-05  0.0620
   7.0090E-02   7.1796E-02   4.3321E-05  0.0587
   7.1796E-02   7.3543E-02   4.3014E-05  0.0582
   7.3543E-02   7.5332E-02   4.5551E-05  0.0558
   7.5332E-02   7.7165E-02   4.2215E-05  0.0573
   7.7165E-02   7.9042E-02   3.9218E-05  0.0588
   7.9042E-02   8.0965E-02   3.6496E-05  0.0603
   8.0965E-02   8.2935E-02   3.8609E-05  0.0578
   8.2935E-02   8.4953E-02   3.4899E-05  0.0601
   8.4953E-02   8.7020E-02   3.7625E-05  0.0572
   8.7020E-02   8.9138E-02   3.6136E-05  0.0577
   8.9138E-02   9.1306E-02   3.7764E-05  0.0557
   9.1306E-02   9.3528E-02   3.4365E-05  0.0578
   9.3528E-02   9.5804E-02   3.5968E-05  0.0558
   9.5804E-02   9.8134E-02   3.6818E-05  0.0545
   9.8134E-02   1.0052E-01   3.9537E-05  0.0520
   1.0052E-01   1.0297E-01   3.5443E-05  0.0542
   1.0297E-01   1.0547E-01   3.8903E-05  0.0511
   1.0547E-01   1.0804E-01   4.2478E-05  0.0484
   1.0804E-01   1.1067E-01   4.0896E-05  0.0487
   1.1067E-01   1.1336E-01   4.1093E-05  0.0480
   1.1336E-01   1.1612E-01   4.3008E-05  0.0464
   1.1612E-01   1.1894E-01   4.7744E-05  0.0435
   1.1894E-01   1.2184E-01   5.1876E-05  0.0412
   1.2184E-01   1.2480E-01   4.9213E-05  0.0418
   1.2480E-01   1.2784E-01   5.3545E-05  0.0396
   1.2784E-01   1.3095E-01   5.7849E-05  0.0376
   1.3095E-01   1.3414E-01   6.1058E-05  0.0362
   1.3414E-01   1.3740E-01   6.6000E-05  0.0344
   1.3740E-01   1.4074E-01   6.6370E-05  0.0339
   1.4074E-01   1.4417E-01   7.1639E-05  0.0323
   1.4417E-01   1.4767E-01   7.0794E-05  0.0320
   1.4767E-01   1.5127E-01   7.9198E-05  0.0299
   1.5127E-01   1.5495E-01   7.8913E-05  0.0296
   1.5495E-01   1.5872E-01   8.3477E-05  0.0285
   1.5872E-01   1.6258E-01   8.9300E-05  0.0272
   1.6258E-01   1.6654E-01   9.0679E-05  0.0266
   1.6654E-01   1.7059E-01   9.6315E-05  0.0256
   1.7059E-01   1.7474E-01   9.7002E-05  0.0252
   1.7474E-01   1.7899E-01   1.0257E-04  0.0242
   1.7899E-01   1.8334E-01   1.0765E-04  0.0233
   1.8334E-01   1.8781E-01   1.0912E-04  0.0229
   1.8781E-01   1.9237E-01   1.1730E-04  0.0218
   1.9237E-01   1.9706E-01   1.2482E-04  0.0209
   1.9706E-01   2.0185E-01   1.2559E-04  0.0206
   2.0185E-01   2.0676E-01   1.3416E-04  0.0197
   2.0676E-01   2.1179E-01   1.3882E-04  0.0191
   2.1179E-01   2.1694E-01   1.4636E-04  0.0184
   2.1694E-01   2.2222E-01   1.5113E-04  0.0179
   2.2222E-01   2.2763E-01   1.5772E-04  0.0173
   2.2763E-01   2.3317E-01   1.6677E-04  0.0166
   2.3317E-01   2.3884E-01   1.7179E-04  0.0162
   2.3884E-01   2.4465E-01   1.7576E-04  0.0158
   2.4465E-01   2.5061E-01   1.8692E-04  0.0151
   2.5061E-01   2.5670E-01   1.9337E-04  0.0147
   2.5670E-01   2.6295E-01   2.0011E-04  0.0143
   2.6295E-01   2.6935E-01   2.0834E-04  0.0138
   2.6935E-01   2.7590E-01   2.1324E-04  0.0135
   2.7590E-01   2.8261E-01   2.2006E-04  0.0131
   2.8261E-01   2.8949E-01   2.3316E-04  0.0126
   2.8949E-01   2.9653E-01   2.3795E-04  0.0123
   2.9653E-01   3.0375E-01   2.4787E-04  0.0119
   3.0375E-01   3.1114E-01   2.5987E-04  0.0115
   3.1114E-01   3.1871E-01   2.6409E-04  0.0113
   3.1871E-01   3.2646E-01   2.7197E-04  0.0110
   3.2646E-01   3.3441E-01   2.8397E-04  0.0106
   3.3441E-01   3.4254E-01   2.9778E-04  0.0103
   3.4254E-01   3.5088E-01   3.0275E-04  0.0101
   3.5088E-01   3.5941E-01   3.0856E-04  0.0098
   3.5941E-01   3.6816E-01   3.2328E-04  0.0095
   3.6816E-01   3.7712E-01   3.2716E-04  0.0093
   3.7712E-01   3.8629E-01   3.4290E-04  0.0090
   3.8629E-01   3.9569E-01   3.4879E-04  0.0088
   3.9569E-01   4.0532E-01   3.5891E-04  0.0086
   4.0532E-01   4.1518E-01   3.6898E-04  0.0084
   4.1518E-01   4.2528E-01   3.7253E-04  0.0082
   4.2528E-01   4.3563E-01   3.8251E-04  0.0080
   4.3563E-01   4.4623E-01   3.9014E-04  0.0079
   4.4623E-01   4.5708E-01   4.0013E-04  0.0077
   4.5708E-01   4.6821E-01   4.0763E-04  0.0075
   4.6821E-01   4.7960E-01   4.1013E-04  0.0074
   4.7960E-01   4.9127E-01   4.2067E-04  0.0072
   4.9127E-01   5.0322E-01   4.2916E-04  0.0070
   5.0322E-01   5.1546E-01   4.3326E-04  0.0069
   5.1546E-01   5.2800E-01   4.4270E-04  0.0068
   5.2800E-01   5.4085E-01   4.5230E-04  0.0066
   5.4085E-01   5.5401E-01   4.6004E-04  0.0065
   5.5401E-01   5.6749E-01   4.6181E-04  0.0064
   5.6749E-01   5.8130E-01   4.6786E-04  0.0063
   5.8130E-01   5.9544E-01   4.7719E-04  0.0061
   5.9544E-01   6.0993E-01   4.8337E-04  0.0060
   6.0993E-01   6.2477E-01   4.8796E-04  0.0059
   6.2477E-01   6.3997E-01   4.8947E-04  0.0059
   6.3997E-01   6.5554E-01   4.9817E-04  0.0057
   6.5554E-01   6.7149E-01   4.9737E-04  0.0057
   6.7149E-01   6.8783E-01   4.9990E-04  0.0056
   6.8783E-01   7.0456E-01   5.0603E-04  0.0055
   7.0456E-01   7.2171E-01   5.0926E-04  0.0054
   7.2171E-01   7.3927E-01   5.1105E-04  0.0053
   7.3927E-01   7.5725E-01   5.0724E-04  0.0053
   7.5725E-01   7.7568E-01   5.0796E-04  0.0052
   7.7568E-01   7.9455E-01   5.1520E-04  0.0051
   7.9455E-01   8.1388E-01   5.1397E-04  0.0051
   8.1388E-01   8.3368E-01   5.1100E-04  0.0050
   8.3368E-01   8.5397E-01   5.1082E-04  0.0050
   8.5397E-01   8.7475E-01   5.1508E-04  0.0049
   8.7475E-01   8.9603E-01   5.1079E-04  0.0048
   8.9603E-01   9.1783E-01   5.1141E-04  0.0048
   9.1783E-01   9.4016E-01   5.0871E-04  0.0047
   9.4016E-01   9.6304E-01   5.0600E-04  0.0047
   9.6304E-01   9.8647E-01   4.9822E-04  0.0047
   9.8647E-01   1.0105E+00   4.8918E-04  0.0047
   1.0105E+00   1.0351E+00   4.8180E-04  0.0046
   1.0351E+00   1.0602E+00   4.7783E-04  0.0046
   1.0602E+00   1.0860E+00   4.7904E-04  0.0045
   1.0860E+00   1.1125E+00   4.8022E-04  0.0045
   1.1125E+00   1.1395E+00   4.8475E-04  0.0044
   1.1395E+00   1.1673E+00   4.7930E-04  0.0044
   1.1673E+00   1.1957E+00   4.8140E-04  0.0043
   1.1957E+00   1.2247E+00   4.8315E-04  0.0042
   1.2247E+00   1.2545E+00   4.8745E-04  0.0042
   1.2545E+00   1.2851E+00   4.8019E-04  0.0041
   1.2851E+00   1.3163E+00   4.8281E-04  0.0041
   1.3163E+00   1.3484E+00   4.8288E-04  0.0040
   1.3484E+00   1.3812E+00   4.8053E-04  0.0040
   1.3812E+00   1.4148E+00   4.7681E-04  0.0040
   1.4148E+00   1.4492E+00   4.7220E-04  0.0039
   1.4492E+00   1.4845E+00   4.7073E-04  0.0039
   1.4845E+00   1.5206E+00   4.6775E-04  0.0039
   1.5206E+00   1.5576E+00   4.7068E-04  0.0038
   1.5576E+00   1.5955E+00   4.6220E-04  0.0038
   1.5955E+00   1.6343E+00   4.5670E-04  0.0038
   1.6343E+00   1.6741E+00   4.5080E-04  0.0037
   1.6741E+00   1.7148E+00   4.4537E-04  0.0037
   1.7148E+00   1.7565E+00   4.3526E-04  0.0037
   1.7565E+00   1.7992E+00   4.1816E-04  0.0037
   1.7992E+00   1.8430E+00   3.9750E-04  0.0038
   1.8430E+00   1.8879E+00   3.7421E-04  0.0038
   1.8879E+00   1.9338E+00   3.6296E-04  0.0038
   1.9338E+00   1.9808E+00   3.5763E-04  0.0038
   1.9808E+00   2.0290E+00   3.4855E-04  0.0038
   2.0290E+00   2.0784E+00   3.4571E-04  0.0038
   2.0784E+00   2.1290E+00   3.4762E-04  0.0037
   2.1290E+00   2.1808E+00   3.5241E-04  0.0036
   2.1808E+00   2.2338E+00   3.5374E-04  0.0036
   2.2338E+00   2.2882E+00   3.4745E-04  0.0036
   2.2882E+00   2.3439E+00   3.3451E-04  0.0036
   2.3439E+00   2.4009E+00   3.2573E-04  0.0036
   2.4009E+00   2.4593E+00   3.2052E-04  0.0036
   2.4593E+00   2.5191E+00   3.1831E-04  0.0036
   2.5191E+00   2.5804E+00   3.1451E-04  0.0036
   2.5804E+00   2.6432E+00   3.0789E-04  0.0035
   2.6432E+00   2.7075E+00   3.0168E-04  0.0035
   2.7075E+00   2.7734E+00   2.9748E-04  0.0035
   2.7734E+00   2.8409E+00   2.9210E-04  0.0035
   2.8409E+00   2.9100E+00   2.8668E-04  0.0035
   2.9100E+00   2.9808E+00   2.8200E-04  0.0035
   2.9808E+00   3.0533E+00   2.7899E-04  0.0035
   3.0533E+00   3.1276E+00   2.7171E-04  0.0035
   3.1276E+00   3.2037E+00   2.6765E-04  0.0035
   3.2037E+00   3.2817E+00   2.6530E-04  0.0034
   3.2817E+00   3.3615E+00   2.5926E-04  0.0034
   3.3615E+00   3.4433E+00   2.5709E-04  0.0034
   3.4433E+00   3.5271E+00   2.5280E-04  0.0034
   3.5271E+00   3.6129E+00   2.4838E-04  0.0034
   3.6129E+00   3.7008E+00   2.4455E-04  0.0034
   3.7008E+00   3.7908E+00   2.3952E-04  0.0034
   3.7908E+00   3.8831E+00   2.3579E-04  0.0034
   3.8831E+00   3.9776E+00   2.3061E-04  0.0034
   3.9776E+00   4.0743E+00   2.2722E-04  0.0033
   4.0743E+00   4.1735E+00   2.2251E-04  0.0033
   4.1735E+00   4.2750E+00   2.1666E-04  0.0033
   4.2750E+00   4.3790E+00   2.1216E-04  0.0033
   4.3790E+00   4.4856E+00   2.0603E-04  0.0033
   4.4856E+00   4.5947E+00   2.0269E-04  0.0033
   4.5947E+00   4.7065E+00   1.9758E-04  0.0033
   4.7065E+00   4.8210E+00   1.9537E-04  0.0033
   4.8210E+00   4.9383E+00   1.9075E-04  0.0033
   4.9383E+00   5.0585E+00   1.8856E-04  0.0033
   5.0585E+00   5.1815E+00   1.8434E-04  0.0033
   5.1815E+00   5.3076E+00   1.8270E-04  0.0033
   5.3076E+00   5.4368E+00   1.7852E-04  0.0033
   5.4368E+00   5.5690E+00   1.7624E-04  0.0033
   5.5690E+00   5.7045E+00   1.7250E-04  0.0032
   5.7045E+00   5.8433E+00   1.7065E-04  0.0032
   5.8433E+00   5.9855E+00   1.6760E-04  0.0032
   5.9855E+00   6.1311E+00   1.6539E-04  0.0032
   6.1311E+00   6.2803E+00   1.6412E-04  0.0032
   6.2803E+00   6.4331E+00   1.6100E-04  0.0032
   6.4331E+00   6.5896E+00   1.5848E-04  0.0032
   6.5896E+00   6.7500E+00   1.5643E-04  0.0031
   6.7500E+00   6.9142E+00   1.5413E-04  0.0031
   6.9142E+00   7.0824E+00   1.5162E-04  0.0031
   7.0824E+00   7.2548E+00   1.4878E-04  0.0031
   7.2548E+00   7.4313E+00   1.4624E-04  0.0031
   7.4313E+00   7.6121E+00   1.4436E-04  0.0031
   7.6121E+00   7.7973E+00   1.4171E-04  0.0031
   7.7973E+00   7.9870E+00   1.3937E-04  0.0031
   7.9870E+00   8.1813E+00   1.3586E-04  0.0031
   8.1813E+00   8.3804E+00   1.3425E-04  0.0031
   8.3804E+00   8.5843E+00   1.3117E-04  0.0031
   8.5843E+00   8.7931E+00   1.2856E-04  0.0031
   8.7931E+00   9.0071E+00   1.2569E-04  0.0031
   9.0071E+00   9.2262E+00   1.2138E-04  0.0031
   9.2262E+00   9.4507E+00   1.1701E-04  0.0031
   9.4507E+00   9.6807E+00   1.1335E-04  0.0031
   9.6807E+00   9.9162E+00   1.1133E-04  0.0031
   9.9162E+00   1.0157E+01   1.1454E-04  0.0030
   1.0157E+01   1.0405E+01   1.1172E-04  0.0030
   1.0405E+01   1.0658E+01   1.0847E-04  0.0030
   1.0658E+01   1.0917E+01   1.0528E-04  0.0031
   1.0917E+01   1.1183E+01   1.0141E-04  0.0031
   1.1183E+01   1.1455E+01   9.7742E-05  0.0031
   1.1455E+01   1.1733E+01   9.5523E-05  0.0031
   1.1733E+01   1.2019E+01   9.2526E-05  0.0031
   1.2019E+01   1.2311E+01   8.9609E-05  0.0031
   1.2311E+01   1.2611E+01   8.7199E-05  0.0031
   1.2611E+01   1.2918E+01   8.4183E-05  0.0031
   1.2918E+01   1.3232E+01   8.1630E-05  0.0032
   1.3232E+01   1.3554E+01   7.8689E-05  0.0032
   1.3554E+01   1.3884E+01   7.5782E-05  0.0032
   1.3884E+01   1.4222E+01   7.3984E-05  0.0032
   1.4222E+01   1.4568E+01   7.1161E-05  0.0032
   1.4568E+01   1.4922E+01   6.7683E-05  0.0033
   1.4922E+01   1.5285E+01   6.5324E-05  0.0033
   1.5285E+01   1.5657E+01   6.2654E-05  0.0033
   1.5657E+01   1.6038E+01   6.0286E-05  0.0033
   1.6038E+01   1.6428E+01   5.7561E-05  0.0034
   1.6428E+01   1.6828E+01   5.5217E-05  0.0034
   1.6828E+01   1.7237E+01   5.2706E-05  0.0034
   1.7237E+01   1.7657E+01   5.0271E-05  0.0035
   1.7657E+01   1.8086E+01   4.7880E-05  0.0035
   1.8086E+01   1.8526E+01   4.5429E-05  0.0036
   1.8526E+01   1.8977E+01   4.3023E-05  0.0036
   1.8977E+01   1.9439E+01   4.0799E-05  0.0037
   1.9439E+01   1.9912E+01   3.9365E-05  0.0037
   1.9912E+01   2.0396E+01   3.7413E-05  0.0038
   2.0396E+01   2.0893E+01   3.5232E-05  0.0038
   2.0893E+01   2.1401E+01   3.3065E-05  0.0039
   2.1401E+01   2.1922E+01   3.1211E-05  0.0040
   2.1922E+01   2.2455E+01   2.9431E-05  0.0040
   2.2455E+01   2.3001E+01   2.8900E-05  0.0040
   2.3001E+01   2.3561E+01   2.9262E-05  0.0040
   2.3561E+01   2.4134E+01   2.8856E-05  0.0039
   2.4134E+01   2.4721E+01   2.7575E-05  0.0040
   2.4721E+01   2.5323E+01   2.5842E-05  0.0041
   2.5323E+01   2.5939E+01   2.4036E-05  0.0042
   2.5939E+01   2.6570E+01   2.2195E-05  0.0043
   2.6570E+01   2.7217E+01   2.0617E-05  0.0044
   2.7217E+01   2.7879E+01   1.8775E-05  0.0045
   2.7879E+01   2.8557E+01   1.7057E-05  0.0047
   2.8557E+01   2.9252E+01   1.5528E-05  0.0049
   2.9252E+01   2.9964E+01   1.3978E-05  0.0051
   2.9964E+01   3.0693E+01   1.2270E-05  0.0054
   3.0693E+01   3.1440E+01   1.0794E-05  0.0056
   3.1440E+01   3.2205E+01   9.4647E-06  0.0060
   3.2205E+01   3.2988E+01   8.3616E-06  0.0063
   3.2988E+01   3.3791E+01   7.4474E-06  0.0065
   3.3791E+01   3.4613E+01   6.6960E-06  0.0068
   3.4613E+01   3.5455E+01   5.8257E-06  0.0072
   3.5455E+01   3.6318E+01   4.9888E-06  0.0077
   3.6318E+01   3.7201E+01   4.3448E-06  0.0082
   3.7201E+01   3.8106E+01   3.6934E-06  0.0088
   3.8106E+01   3.9034E+01   3.0844E-06  0.0095
   3.9034E+01   3.9983E+01   2.4161E-06  0.0106
   3.9983E+01   4.0956E+01   1.7831E-06  0.0122
   4.0956E+01   4.1953E+01   1.2287E-06  0.0145
   4.1953E+01   4.2973E+01   9.9299E-07  0.0159
   4.2973E+01   4.4019E+01   8.6028E-07  0.0169
   4.4019E+01   4.5090E+01   7.7353E-07  0.0176
   4.5090E+01   4.6187E+01   7.4581E-07  0.0177
   4.6187E+01   4.7311E+01   7.8148E-07  0.0171
   4.7311E+01   4.8462E+01   7.7139E-07  0.0170
   4.8462E+01   4.9641E+01   4.5232E-07  0.0219
   4.9641E+01   5.0849E+01   7.0906E-08  0.0547
   5.0849E+01   5.2086E+01   2.0932E-08  0.0995
   5.2086E+01   5.3353E+01   2.0233E-09  0.3162
   5.3353E+01   5.4651E+01   1.9752E-10  1.0000
   5.4651E+01   5.5981E+01   1.9283E-10  1.0000
   5.5981E+01   5.7343E+01   0.0000E+00  0.0000
   5.7343E+01   5.8738E+01   0.0000E+00  0.0000
   5.8738E+01   6.0168E+01   1.7941E-10  1.0000
   6.0168E+01   6.1632E+01   0.0000E+00  0.0000
   6.1632E+01   6.3131E+01   0.0000E+00  0.0000
   6.3131E+01   6.4667E+01   0.0000E+00  0.0000
   6.4667E+01   6.6240E+01   0.0000E+00  0.0000
   6.6240E+01   6.7852E+01   0.0000E+00  0.0000
   6.7852E+01   6.9503E+01   0.0000E+00  0.0000
   6.9503E+01   7.1194E+01   0.0000E+00  0.0000
   7.1194E+01   7.2926E+01   0.0000E+00  0.0000
   7.2926E+01   7.4701E+01   0.0000E+00  0.0000
   7.4701E+01   7.6518E+01   0.0000E+00  0.0000
   7.6518E+01   7.8380E+01   0.0000E+00  0.0000
   7.8380E+01   8.0287E+01   0.0000E+00  0.0000
   8.0287E+01   8.2240E+01   0.0000E+00  0.0000
   8.2240E+01   8.4241E+01   0.0000E+00  0.0000
   8.4241E+01   8.6291E+01   0.0000E+00  0.0000
   8.6291E+01   8.8391E+01   0.0000E+00  0.0000
   8.8391E+01   9.0541E+01   0.0000E+00  0.0000
   9.0541E+01   9.2744E+01   0.0000E+00  0.0000
   9.2744E+01   9.5001E+01   0.0000E+00  0.0000
   9.5001E+01   9.7312E+01   0.0000E+00  0.0000
   9.7312E+01   9.9680E+01   0.0000E+00  0.0000
   9.9680E+01   1.0211E+02   0.0000E+00  0.0000
   1.0211E+02   1.0459E+02   0.0000E+00  0.0000
   1.0459E+02   1.0713E+02   0.0000E+00  0.0000
   1.0713E+02   1.0974E+02   0.0000E+00  0.0000
   1.0974E+02   1.1241E+02   0.0000E+00  0.0000
   1.1241E+02   1.1515E+02   0.0000E+00  0.0000
   1.1515E+02   1.1795E+02   0.0000E+00  0.0000
   1.1795E+02   1.2082E+02   0.0000E+00  0.0000
   1.2082E+02   1.2376E+02   0.0000E+00  0.0000
   1.2376E+02   1.2677E+02   0.0000E+00  0.0000
   1.2677E+02   1.2985E+02   0.0000E+00  0.0000
   1.2985E+02   1.3301E+02   0.0000E+00  0.0000
   1.3301E+02   1.3625E+02   0.0000E+00  0.0000
   1.3625E+02   1.3956E+02   0.0000E+00  0.0000
   1.3956E+02   1.4296E+02   0.0000E+00  0.0000
   1.4296E+02   1.4644E+02   0.0000E+00  0.0000
   1.4644E+02   1.5000E+02   0.0000E+00  0.0000

#   sum over                 2.2104E-05
'no. =    1   reg = 111 - 211'
msuc: {\huge [t-cross] in region mesh}
msdr: {\it plotted by \ANGEL \version}
msdl: {\it calculated by \PHITS  3.26}
wt: s(0.7)
\vspace{-3}
  region surface crossing
  area  &=&   1.0000E+00 [cm^2]
e:
 
# Information for Restart Calculation
# This calculation was newly started
# istdev =  2 # 1:Batch variance, 2:History variance
# resc2  = 3.90000000000000000E+09 # Total source weight or Total source weight / maxcas
# resc3  = 3.90000000000000000E+09 # Total history number or Total batch number
# maxcas =   100000000 # History / Batch, only used for istdev=1
# bitrseed = 1001000100011001100110111101101111001101001011101000111110000101 # bit data of rseed
