[ T-Cross ]
    title = [t-cross] in region mesh
     mesh =  reg            # mesh type is region-wise
      reg =    1            # number of crossing regions
      non     r-from    r-to       area
      1       100       200        1.000000    
   e-type =    3            # e-mesh is log given by emin, emax and ne
     emin =  1.0000000E-02  # minimum value of e-mesh points
     emax =   150.0000      # maximum value of e-mesh points
#    edel =  2.4039514E-02  # mesh width of e-mesh points
       ne =    400          # number of e-mesh points
#    data = ( e(i), i = 1, ne + 1 )
#           1.00000E-02  1.02433E-02  1.04925E-02  1.07478E-02  1.10093E-02
#           1.12772E-02  1.15516E-02  1.18326E-02  1.21205E-02  1.24154E-02
#           1.27175E-02  1.30269E-02  1.33439E-02  1.36686E-02  1.40011E-02
#           1.43418E-02  1.46907E-02  1.50482E-02  1.54143E-02  1.57894E-02
#           1.61735E-02  1.65670E-02  1.69701E-02  1.73830E-02  1.78060E-02
#           1.82392E-02  1.86830E-02  1.91375E-02  1.96032E-02  2.00801E-02
#           2.05687E-02  2.10692E-02  2.15818E-02  2.21069E-02  2.26448E-02
#           2.31957E-02  2.37601E-02  2.43382E-02  2.49304E-02  2.55369E-02
#           2.61583E-02  2.67947E-02  2.74467E-02  2.81145E-02  2.87985E-02
#           2.94992E-02  3.02169E-02  3.09521E-02  3.17052E-02  3.24766E-02
#           3.32668E-02  3.40762E-02  3.49053E-02  3.57546E-02  3.66246E-02
#           3.75157E-02  3.84284E-02  3.93634E-02  4.03212E-02  4.13022E-02
#           4.23071E-02  4.33365E-02  4.43909E-02  4.54710E-02  4.65773E-02
#           4.77106E-02  4.88714E-02  5.00605E-02  5.12785E-02  5.25262E-02
#           5.38042E-02  5.51133E-02  5.64542E-02  5.78278E-02  5.92348E-02
#           6.06760E-02  6.21523E-02  6.36645E-02  6.52135E-02  6.68002E-02
#           6.84255E-02  7.00904E-02  7.17957E-02  7.35426E-02  7.53319E-02
#           7.71648E-02  7.90423E-02  8.09655E-02  8.29354E-02  8.49533E-02
#           8.70203E-02  8.91376E-02  9.13064E-02  9.35279E-02  9.58035E-02
#           9.81345E-02  1.00522E-01  1.02968E-01  1.05473E-01  1.08040E-01
#           1.10668E-01  1.13361E-01  1.16119E-01  1.18944E-01  1.21838E-01
#           1.24803E-01  1.27839E-01  1.30950E-01  1.34136E-01  1.37399E-01
#           1.40742E-01  1.44167E-01  1.47675E-01  1.51268E-01  1.54948E-01
#           1.58718E-01  1.62580E-01  1.66535E-01  1.70587E-01  1.74738E-01
#           1.78989E-01  1.83344E-01  1.87805E-01  1.92375E-01  1.97055E-01
#           2.01850E-01  2.06761E-01  2.11792E-01  2.16945E-01  2.22223E-01
#           2.27630E-01  2.33169E-01  2.38842E-01  2.44653E-01  2.50605E-01
#           2.56703E-01  2.62949E-01  2.69346E-01  2.75900E-01  2.82613E-01
#           2.89489E-01  2.96532E-01  3.03747E-01  3.11138E-01  3.18708E-01
#           3.26462E-01  3.34405E-01  3.42542E-01  3.50876E-01  3.59413E-01
#           3.68158E-01  3.77116E-01  3.86291E-01  3.95690E-01  4.05317E-01
#           4.15179E-01  4.25281E-01  4.35628E-01  4.46227E-01  4.57084E-01
#           4.68205E-01  4.79597E-01  4.91266E-01  5.03219E-01  5.15463E-01
#           5.28005E-01  5.40851E-01  5.54011E-01  5.67490E-01  5.81298E-01
#           5.95441E-01  6.09929E-01  6.24769E-01  6.39970E-01  6.55541E-01
#           6.71491E-01  6.87828E-01  7.04564E-01  7.21706E-01  7.39266E-01
#           7.57253E-01  7.75678E-01  7.94551E-01  8.13883E-01  8.33685E-01
#           8.53969E-01  8.74747E-01  8.96030E-01  9.17831E-01  9.40163E-01
#           9.63038E-01  9.86469E-01  1.01047E+00  1.03506E+00  1.06024E+00
#           1.08604E+00  1.11246E+00  1.13953E+00  1.16725E+00  1.19565E+00
#           1.22474E+00  1.25454E+00  1.28507E+00  1.31633E+00  1.34836E+00
#           1.38117E+00  1.41477E+00  1.44920E+00  1.48446E+00  1.52057E+00
#           1.55757E+00  1.59547E+00  1.63429E+00  1.67405E+00  1.71478E+00
#           1.75650E+00  1.79924E+00  1.84302E+00  1.88786E+00  1.93379E+00
#           1.98084E+00  2.02904E+00  2.07841E+00  2.12898E+00  2.18078E+00
#           2.23384E+00  2.28819E+00  2.34386E+00  2.40089E+00  2.45930E+00
#           2.51914E+00  2.58043E+00  2.64322E+00  2.70753E+00  2.77341E+00
#           2.84088E+00  2.91001E+00  2.98081E+00  3.05333E+00  3.12762E+00
#           3.20372E+00  3.28167E+00  3.36152E+00  3.44330E+00  3.52708E+00
#           3.61290E+00  3.70080E+00  3.79085E+00  3.88308E+00  3.97756E+00
#           4.07434E+00  4.17347E+00  4.27501E+00  4.37903E+00  4.48557E+00
#           4.59471E+00  4.70650E+00  4.82102E+00  4.93832E+00  5.05847E+00
#           5.18155E+00  5.30762E+00  5.43676E+00  5.56904E+00  5.70453E+00
#           5.84333E+00  5.98550E+00  6.13114E+00  6.28031E+00  6.43312E+00
#           6.58964E+00  6.74997E+00  6.91420E+00  7.08243E+00  7.25475E+00
#           7.43126E+00  7.61207E+00  7.79728E+00  7.98700E+00  8.18133E+00
#           8.38038E+00  8.58428E+00  8.79315E+00  9.00709E+00  9.22624E+00
#           9.45072E+00  9.68067E+00  9.91620E+00  1.01575E+01  1.04046E+01
#           1.06578E+01  1.09171E+01  1.11827E+01  1.14548E+01  1.17335E+01
#           1.20190E+01  1.23114E+01  1.26109E+01  1.29178E+01  1.32321E+01
#           1.35540E+01  1.38838E+01  1.42216E+01  1.45676E+01  1.49221E+01
#           1.52851E+01  1.56570E+01  1.60380E+01  1.64282E+01  1.68279E+01
#           1.72374E+01  1.76568E+01  1.80864E+01  1.85264E+01  1.89772E+01
#           1.94389E+01  1.99119E+01  2.03963E+01  2.08926E+01  2.14009E+01
#           2.19216E+01  2.24550E+01  2.30014E+01  2.35610E+01  2.41343E+01
#           2.47215E+01  2.53230E+01  2.59391E+01  2.65702E+01  2.72167E+01
#           2.78789E+01  2.85572E+01  2.92520E+01  2.99637E+01  3.06928E+01
#           3.14396E+01  3.22045E+01  3.29881E+01  3.37907E+01  3.46128E+01
#           3.54550E+01  3.63177E+01  3.72013E+01  3.81064E+01  3.90336E+01
#           3.99833E+01  4.09561E+01  4.19526E+01  4.29734E+01  4.40189E+01
#           4.50900E+01  4.61870E+01  4.73108E+01  4.84619E+01  4.96410E+01
#           5.08488E+01  5.20860E+01  5.33533E+01  5.46514E+01  5.59812E+01
#           5.73432E+01  5.87384E+01  6.01676E+01  6.16315E+01  6.31311E+01
#           6.46671E+01  6.62405E+01  6.78522E+01  6.95031E+01  7.11941E+01
#           7.29263E+01  7.47007E+01  7.65182E+01  7.83800E+01  8.02870E+01
#           8.22405E+01  8.42414E+01  8.62911E+01  8.83906E+01  9.05412E+01
#           9.27442E+01  9.50007E+01  9.73122E+01  9.96799E+01  1.02105E+02
#           1.04589E+02  1.07134E+02  1.09741E+02  1.12411E+02  1.15146E+02
#           1.17948E+02  1.20817E+02  1.23757E+02  1.26768E+02  1.29852E+02
#           1.33012E+02  1.36248E+02  1.39563E+02  1.42959E+02  1.46437E+02
#           1.50000E+02
     unit =    2            # unit is [1/cm^2/(MeV/n)/source]
     axis =  eng            # axis of output
     file = detector-01.out  # file name of output for the above axis
   output = f-curr          # surface crossing forward current spectrum
     part =  neutron  
# kf/name :  2112     
#    used :        main (  %)        temp (  %)       total (  %)
#  memory :         414 (  0)           0 (  0)         414 (  0)

#------------------------------------------------------------------------------
#newpage:
#   no. =    1   reg = 100 - 200

x: Energy [MeV/n]
y:  F-Curr [1/cm^2/(MeV/n)/source]         
p: xlog ylog afac(0.8) form(0.9)
h: n            x            y(neutron ),hh0l   n 
#  e-lower      e-upper      neutron     r.err 
   1.0000E-02   1.0243E-02   2.1063E-06  0.7071
   1.0243E-02   1.0493E-02   0.0000E+00  0.0000
   1.0493E-02   1.0748E-02   1.0037E-06  1.0000
   1.0748E-02   1.1009E-02   6.8586E-06  0.3780
   1.1009E-02   1.1277E-02   5.7391E-06  0.4082
   1.1277E-02   1.1552E-02   6.5324E-06  0.3780
   1.1552E-02   1.1833E-02   3.6460E-06  0.5000
   1.1833E-02   1.2121E-02   5.3349E-06  0.4082
   1.2121E-02   1.2415E-02   8.6718E-07  1.0000
   1.2415E-02   1.2718E-02   2.5463E-06  0.5774
   1.2718E-02   1.3027E-02   4.9687E-06  0.4082
   1.3027E-02   1.3344E-02   7.2635E-06  0.3333
   1.3344E-02   1.3669E-02   5.5207E-06  0.3780
   1.3669E-02   1.4001E-02   2.3123E-06  0.5774
   1.4001E-02   1.4342E-02   4.5134E-06  0.4082
   1.4342E-02   1.4691E-02   3.6702E-06  0.4472
   1.4691E-02   1.5048E-02   2.8684E-06  0.5000
   1.5048E-02   1.5414E-02   4.1444E-06  0.4084
   1.5414E-02   1.5789E-02   4.7826E-06  0.3780
   1.5789E-02   1.6174E-02   1.3335E-06  0.7071
   1.6174E-02   1.6567E-02   1.9539E-06  0.5774
   1.6567E-02   1.6970E-02   3.8145E-06  0.4082
   1.6970E-02   1.7383E-02   4.9624E-06  0.3536
   1.7383E-02   1.7806E-02   2.4217E-06  0.5000
   1.7806E-02   1.8239E-02   1.1823E-06  0.7071
   1.8239E-02   1.8683E-02   3.4602E-06  0.4082
   1.8683E-02   1.9138E-02   2.8183E-06  0.4472
   1.9138E-02   1.9603E-02   2.2008E-06  0.5000
   1.9603E-02   2.0080E-02   1.0729E-06  0.7071
   2.0080E-02   2.0569E-02   2.0954E-06  0.5000
   2.0569E-02   2.1069E-02   3.4684E-06  0.3791
   2.1069E-02   2.1582E-02   1.1920E-06  0.6144
   2.1582E-02   2.2107E-02   3.3392E-06  0.3786
   2.2107E-02   2.2645E-02   2.8066E-06  0.4086
   2.2645E-02   2.3196E-02   9.2991E-07  0.7071
   2.3196E-02   2.3760E-02   9.0807E-07  0.7071
   2.3760E-02   2.4338E-02   2.6174E-06  0.4084
   2.4338E-02   2.4930E-02   4.3300E-07  1.0000
   2.4930E-02   2.5537E-02   2.5334E-06  0.4082
   2.5537E-02   2.6158E-02   2.0613E-06  0.4472
   2.6158E-02   2.6795E-02   8.0523E-07  0.7071
   2.6795E-02   2.7447E-02   2.3591E-06  0.4082
   2.7447E-02   2.8114E-02   3.0679E-06  0.3536
   2.8114E-02   2.8799E-02   7.4819E-07  0.7071
   2.8799E-02   2.9499E-02   1.0966E-06  0.5774
   2.9499E-02   3.0217E-02   2.3630E-07  1.0000
   3.0217E-02   3.0952E-02   3.4871E-07  1.0000
   3.0952E-02   3.1705E-02   2.7203E-06  0.3536
   3.1705E-02   3.2477E-02   3.3217E-07  1.0000
   3.2477E-02   3.3267E-02   9.7095E-07  0.5774
   3.3267E-02   3.4076E-02   1.2664E-06  0.5000
   3.4076E-02   3.4905E-02   1.2354E-06  0.5000
   3.4905E-02   3.5755E-02   1.2065E-06  0.5000
   3.5755E-02   3.6625E-02   2.9421E-07  1.0000
   3.6625E-02   3.7516E-02   1.1496E-06  0.5000
   3.7516E-02   3.8428E-02   2.8089E-07  1.0000
   3.8428E-02   3.9363E-02   1.3700E-06  0.4472
   3.9363E-02   4.0321E-02   1.6017E-06  0.4083
   4.0321E-02   4.1302E-02   5.2200E-07  0.7071
   4.1302E-02   4.2307E-02   1.2753E-06  0.4472
   4.2307E-02   4.3337E-02   9.9365E-07  0.5000
   4.3337E-02   4.4391E-02   1.2140E-06  0.4472
   4.4391E-02   4.5471E-02   1.1862E-06  0.4472
   4.5471E-02   4.6577E-02   4.6332E-07  0.7071
   4.6577E-02   4.7711E-02   4.5214E-07  0.7071
   4.7711E-02   4.8871E-02   8.4655E-07  0.5013
   4.8871E-02   5.0061E-02   1.0763E-06  0.4472
   5.0061E-02   5.1279E-02   1.2608E-06  0.4082
   5.1279E-02   5.2526E-02   6.1609E-07  0.5774
   5.2526E-02   5.3804E-02   6.0061E-07  0.5774
   5.3804E-02   5.5113E-02   1.1730E-06  0.4082
   5.5113E-02   5.6454E-02   7.6159E-07  0.5000
   5.6454E-02   5.7828E-02   1.6302E-06  0.3339
   5.7828E-02   5.9235E-02   5.4558E-07  0.5774
   5.9235E-02   6.0676E-02   5.3066E-07  0.5774
   6.0676E-02   6.2152E-02   5.2000E-07  0.5774
   6.2152E-02   6.3665E-02   3.6826E-07  0.6559
   6.3665E-02   6.5214E-02   6.6052E-07  0.5000
   6.5214E-02   6.6800E-02   6.4338E-07  0.5000
   6.6800E-02   6.8426E-02   6.0512E-07  0.5014
   6.8426E-02   7.0090E-02   5.6321E-07  0.5061
   7.0090E-02   7.1796E-02   5.9964E-07  0.5000
   7.1796E-02   7.3543E-02   1.4678E-07  1.0000
   7.3543E-02   7.5332E-02   1.0007E-06  0.3780
   7.5332E-02   7.7165E-02   6.9777E-07  0.4472
   7.7165E-02   7.9042E-02   1.3653E-07  1.0000
   7.9042E-02   8.0965E-02   2.6657E-07  0.7071
   8.0965E-02   8.2935E-02   7.7944E-07  0.4082
   8.2935E-02   8.4953E-02   3.8106E-07  0.5774
   8.4953E-02   8.7020E-02   2.4765E-07  0.7071
   8.7020E-02   8.9138E-02   4.8364E-07  0.5000
   8.9138E-02   9.1306E-02   4.7205E-07  0.5000
   9.1306E-02   9.3528E-02   4.6095E-07  0.5000
   9.3528E-02   9.5804E-02   3.3671E-07  0.5774
   9.5804E-02   9.8134E-02   9.8807E-07  0.3333
   9.8134E-02   1.0052E-01   5.3548E-07  0.4472
   1.0052E-01   1.0297E-01   7.3270E-07  0.3780
   1.0297E-01   1.0547E-01   5.1040E-07  0.4472
   1.0547E-01   1.0804E-01   2.9802E-07  0.5774
   1.0804E-01   1.1067E-01   6.0001E-07  0.3983
   1.1067E-01   1.1336E-01   3.5763E-07  0.5029
   1.1336E-01   1.1612E-01   3.7069E-07  0.5000
   1.1612E-01   1.1894E-01   1.4484E-06  0.2500
   1.1894E-01   1.2184E-01   1.0605E-06  0.2887
   1.2184E-01   1.2480E-01   6.0460E-07  0.3780
   1.2480E-01   1.2784E-01   9.2550E-07  0.3015
   1.2784E-01   1.3095E-01   9.8798E-07  0.2887
   1.3095E-01   1.3414E-01   1.0444E-06  0.2774
   1.3414E-01   1.3740E-01   1.1761E-06  0.2582
   1.3740E-01   1.4074E-01   1.0719E-06  0.2673
   1.4074E-01   1.4417E-01   9.7150E-07  0.2774
   1.4417E-01   1.4767E-01   5.9721E-07  0.3466
   1.4767E-01   1.5127E-01   1.2819E-06  0.2357
   1.5127E-01   1.5495E-01   1.3211E-06  0.2294
   1.5495E-01   1.5872E-01   1.2225E-06  0.2357
   1.5872E-01   1.6258E-01   1.0552E-06  0.2501
   1.6258E-01   1.6654E-01   1.5508E-06  0.2041
   1.6654E-01   1.7059E-01   1.6132E-06  0.1967
   1.7059E-01   1.7474E-01   1.2828E-06  0.2184
   1.7474E-01   1.7899E-01   2.1667E-06  0.1667
   1.7899E-01   1.8334E-01   1.9568E-06  0.1728
   1.8334E-01   1.8781E-01   2.0313E-06  0.1671
   1.8781E-01   1.9237E-01   1.6246E-06  0.1857
   1.9237E-01   1.9706E-01   2.1688E-06  0.1582
   1.9706E-01   2.0185E-01   1.8144E-06  0.1715
   2.0185E-01   2.0676E-01   2.2405E-06  0.1525
   2.0676E-01   2.1179E-01   1.8813E-06  0.1644
   2.1179E-01   2.1694E-01   2.8060E-06  0.1326
   2.1694E-01   2.2222E-01   2.4847E-06  0.1394
   2.2222E-01   2.2763E-01   2.0348E-06  0.1525
   2.2763E-01   2.3317E-01   2.7189E-06  0.1297
   2.3317E-01   2.3884E-01   3.0684E-06  0.1209
   2.3884E-01   2.4465E-01   2.8262E-06  0.1247
   2.4465E-01   2.5061E-01   3.1953E-06  0.1156
   2.5061E-01   2.5670E-01   2.7994E-06  0.1222
   2.5670E-01   2.6295E-01   3.2005E-06  0.1129
   2.6295E-01   2.6935E-01   3.2357E-06  0.1111
   2.6935E-01   2.7590E-01   2.9660E-06  0.1142
   2.7590E-01   2.8261E-01   3.4947E-06  0.1043
   2.8261E-01   2.8949E-01   3.7952E-06  0.0990
   2.8949E-01   2.9653E-01   4.1279E-06  0.0937
   2.9653E-01   3.0375E-01   3.4958E-06  0.1004
   3.0375E-01   3.1114E-01   4.0847E-06  0.0921
   3.1114E-01   3.1871E-01   4.3483E-06  0.0881
   3.1871E-01   3.2646E-01   4.3847E-06  0.0866
   3.2646E-01   3.3441E-01   5.3460E-06  0.0775
   3.3441E-01   3.4254E-01   5.2474E-06  0.0773
   3.4254E-01   3.5088E-01   5.2346E-06  0.0764
   3.5088E-01   3.5941E-01   6.3503E-06  0.0686
   3.5941E-01   3.6816E-01   5.5168E-06  0.0727
   3.6816E-01   3.7712E-01   4.7675E-06  0.0772
   3.7712E-01   3.8629E-01   5.9855E-06  0.0681
   3.8629E-01   3.9569E-01   6.0691E-06  0.0669
   3.9569E-01   4.0532E-01   6.5596E-06  0.0636
   4.0532E-01   4.1518E-01   7.2221E-06  0.0599
   4.1518E-01   4.2528E-01   6.8701E-06  0.0606
   4.2528E-01   4.3563E-01   7.6960E-06  0.0566
   4.3563E-01   4.4623E-01   7.8252E-06  0.0555
   4.4623E-01   4.5708E-01   7.7182E-06  0.0551
   4.5708E-01   4.6821E-01   8.0102E-06  0.0535
   4.6821E-01   4.7960E-01   7.6575E-06  0.0540
   4.7960E-01   4.9127E-01   8.6815E-06  0.0502
   4.9127E-01   5.0322E-01   8.0018E-06  0.0516
   5.0322E-01   5.1546E-01   9.0760E-06  0.0478
   5.1546E-01   5.2800E-01   8.6289E-06  0.0485
   5.2800E-01   5.4085E-01   9.5609E-06  0.0456
   5.4085E-01   5.5401E-01   9.3837E-06  0.0454
   5.5401E-01   5.6749E-01   9.9790E-06  0.0435
   5.6749E-01   5.8130E-01   1.0407E-05  0.0421
   5.8130E-01   5.9544E-01   1.0844E-05  0.0408
   5.9544E-01   6.0993E-01   1.0764E-05  0.0404
   6.0993E-01   6.2477E-01   1.0701E-05  0.0400
   6.2477E-01   6.3997E-01   1.1020E-05  0.0390
   6.3997E-01   6.5554E-01   1.1458E-05  0.0378
   6.5554E-01   6.7149E-01   1.1635E-05  0.0370
   6.7149E-01   6.8783E-01   1.1821E-05  0.0363
   6.8783E-01   7.0456E-01   1.2857E-05  0.0344
   7.0456E-01   7.2171E-01   1.3336E-05  0.0334
   7.2171E-01   7.3927E-01   1.2296E-05  0.0343
   7.3927E-01   7.5725E-01   1.2708E-05  0.0334
   7.5725E-01   7.7568E-01   1.2761E-05  0.0329
   7.7568E-01   7.9455E-01   1.4068E-05  0.0310
   7.9455E-01   8.1388E-01   1.3491E-05  0.0312
   8.1388E-01   8.3368E-01   1.3375E-05  0.0310
   8.3368E-01   8.5397E-01   1.4107E-05  0.0298
   8.5397E-01   8.7475E-01   1.3906E-05  0.0296
   8.7475E-01   8.9603E-01   1.4348E-05  0.0288
   8.9603E-01   9.1783E-01   1.4059E-05  0.0288
   9.1783E-01   9.4016E-01   1.4822E-05  0.0277
   9.4016E-01   9.6304E-01   1.5212E-05  0.0270
   9.6304E-01   9.8647E-01   1.3972E-05  0.0278
   9.8647E-01   1.0105E+00   1.3927E-05  0.0276
   1.0105E+00   1.0351E+00   1.4834E-05  0.0264
   1.0351E+00   1.0602E+00   1.3960E-05  0.0269
   1.0602E+00   1.0860E+00   1.4334E-05  0.0262
   1.0860E+00   1.1125E+00   1.4409E-05  0.0258
   1.1125E+00   1.1395E+00   1.4172E-05  0.0257
   1.1395E+00   1.1673E+00   1.4934E-05  0.0247
   1.1673E+00   1.1957E+00   1.5395E-05  0.0241
   1.1957E+00   1.2247E+00   1.5039E-05  0.0240
   1.2247E+00   1.2545E+00   1.5238E-05  0.0236
   1.2545E+00   1.2851E+00   1.5369E-05  0.0232
   1.2851E+00   1.3163E+00   1.5056E-05  0.0232
   1.3163E+00   1.3484E+00   1.5673E-05  0.0224
   1.3484E+00   1.3812E+00   1.5647E-05  0.0222
   1.3812E+00   1.4148E+00   1.5282E-05  0.0222
   1.4148E+00   1.4492E+00   1.5458E-05  0.0218
   1.4492E+00   1.4845E+00   1.6417E-05  0.0209
   1.4845E+00   1.5206E+00   1.5787E-05  0.0210
   1.5206E+00   1.5576E+00   1.5860E-05  0.0207
   1.5576E+00   1.5955E+00   1.5674E-05  0.0206
   1.5955E+00   1.6343E+00   1.5826E-05  0.0202
   1.6343E+00   1.6741E+00   1.5647E-05  0.0201
   1.6741E+00   1.7148E+00   1.6154E-05  0.0195
   1.7148E+00   1.7565E+00   1.6035E-05  0.0194
   1.7565E+00   1.7992E+00   1.4790E-05  0.0199
   1.7992E+00   1.8430E+00   1.4124E-05  0.0201
   1.8430E+00   1.8879E+00   1.3100E-05  0.0205
   1.8879E+00   1.9338E+00   1.2898E-05  0.0204
   1.9338E+00   1.9808E+00   1.2562E-05  0.0204
   1.9808E+00   2.0290E+00   1.2796E-05  0.0199
   2.0290E+00   2.0784E+00   1.2670E-05  0.0198
   2.0784E+00   2.1290E+00   1.3156E-05  0.0191
   2.1290E+00   2.1808E+00   1.3504E-05  0.0186
   2.1808E+00   2.2338E+00   1.3853E-05  0.0181
   2.2338E+00   2.2882E+00   1.3608E-05  0.0181
   2.2882E+00   2.3439E+00   1.3422E-05  0.0181
   2.3439E+00   2.4009E+00   1.2973E-05  0.0182
   2.4009E+00   2.4593E+00   1.3198E-05  0.0178
   2.4593E+00   2.5191E+00   1.2755E-05  0.0179
   2.5191E+00   2.5804E+00   1.2949E-05  0.0175
   2.5804E+00   2.6432E+00   1.2748E-05  0.0175
   2.6432E+00   2.7075E+00   1.2584E-05  0.0174
   2.7075E+00   2.7734E+00   1.2584E-05  0.0172
   2.7734E+00   2.8409E+00   1.2383E-05  0.0171
   2.8409E+00   2.9100E+00   1.2796E-05  0.0167
   2.9100E+00   2.9808E+00   1.2588E-05  0.0166
   2.9808E+00   3.0533E+00   1.2623E-05  0.0164
   3.0533E+00   3.1276E+00   1.2571E-05  0.0162
   3.1276E+00   3.2037E+00   1.2501E-05  0.0161
   3.2037E+00   3.2817E+00   1.2271E-05  0.0161
   3.2817E+00   3.3615E+00   1.2410E-05  0.0158
   3.3615E+00   3.4433E+00   1.2321E-05  0.0157
   3.4433E+00   3.5271E+00   1.2047E-05  0.0157
   3.5271E+00   3.6129E+00   1.2377E-05  0.0153
   3.6129E+00   3.7008E+00   1.1577E-05  0.0156
   3.7008E+00   3.7908E+00   1.1921E-05  0.0152
   3.7908E+00   3.8831E+00   1.1568E-05  0.0153
   3.8831E+00   3.9776E+00   1.1593E-05  0.0151
   3.9776E+00   4.0743E+00   1.1928E-05  0.0147
   4.0743E+00   4.1735E+00   1.1441E-05  0.0148
   4.1735E+00   4.2750E+00   1.1158E-05  0.0148
   4.2750E+00   4.3790E+00   1.1292E-05  0.0146
   4.3790E+00   4.4856E+00   1.0876E-05  0.0147
   4.4856E+00   4.5947E+00   1.0801E-05  0.0145
   4.5947E+00   4.7065E+00   1.0863E-05  0.0143
   4.7065E+00   4.8210E+00   1.0752E-05  0.0142
   4.8210E+00   4.9383E+00   1.0379E-05  0.0143
   4.9383E+00   5.0585E+00   1.0261E-05  0.0142
   5.0585E+00   5.1815E+00   1.0337E-05  0.0140
   5.1815E+00   5.3076E+00   1.0250E-05  0.0139
   5.3076E+00   5.4368E+00   1.0287E-05  0.0137
   5.4368E+00   5.5690E+00   1.0103E-05  0.0136
   5.5690E+00   5.7045E+00   1.0060E-05  0.0135
   5.7045E+00   5.8433E+00   1.0031E-05  0.0134
   5.8433E+00   5.9855E+00   9.6309E-06  0.0135
   5.9855E+00   6.1311E+00   9.7841E-06  0.0132
   6.1311E+00   6.2803E+00   9.7699E-06  0.0131
   6.2803E+00   6.4331E+00   9.6035E-06  0.0131
   6.4331E+00   6.5896E+00   9.6734E-06  0.0129
   6.5896E+00   6.7500E+00   9.4926E-06  0.0128
   6.7500E+00   6.9142E+00   9.7267E-06  0.0125
   6.9142E+00   7.0824E+00   9.4473E-06  0.0126
   7.0824E+00   7.2548E+00   9.4247E-06  0.0124
   7.2548E+00   7.4313E+00   9.5357E-06  0.0122
   7.4313E+00   7.6121E+00   9.2892E-06  0.0122
   7.6121E+00   7.7973E+00   9.4885E-06  0.0119
   7.7973E+00   7.9870E+00   9.0149E-06  0.0121
   7.9870E+00   8.1813E+00   9.1834E-06  0.0119
   8.1813E+00   8.3804E+00   9.0652E-06  0.0118
   8.3804E+00   8.5843E+00   8.9967E-06  0.0117
   8.5843E+00   8.7931E+00   8.9269E-06  0.0116
   8.7931E+00   9.0071E+00   8.6867E-06  0.0116
   9.0071E+00   9.2262E+00   8.6461E-06  0.0115
   9.2262E+00   9.4507E+00   8.5286E-06  0.0115
   9.4507E+00   9.6807E+00   8.2696E-06  0.0115
   9.6807E+00   9.9162E+00   8.2578E-06  0.0114
   9.9162E+00   1.0157E+01   8.7301E-06  0.0110
   1.0157E+01   1.0405E+01   8.5987E-06  0.0110
   1.0405E+01   1.0658E+01   8.3368E-06  0.0110
   1.0658E+01   1.0917E+01   8.4366E-06  0.0108
   1.0917E+01   1.1183E+01   8.2169E-06  0.0108
   1.1183E+01   1.1455E+01   8.0581E-06  0.0108
   1.1455E+01   1.1733E+01   7.9043E-06  0.0108
   1.1733E+01   1.2019E+01   7.7297E-06  0.0108
   1.2019E+01   1.2311E+01   7.7353E-06  0.0106
   1.2311E+01   1.2611E+01   7.4674E-06  0.0107
   1.2611E+01   1.2918E+01   7.3035E-06  0.0107
   1.2918E+01   1.3232E+01   7.2857E-06  0.0106
   1.3232E+01   1.3554E+01   7.4235E-06  0.0103
   1.3554E+01   1.3884E+01   7.1182E-06  0.0104
   1.3884E+01   1.4222E+01   7.1036E-06  0.0103
   1.4222E+01   1.4568E+01   6.9571E-06  0.0103
   1.4568E+01   1.4922E+01   6.7595E-06  0.0103
   1.4922E+01   1.5285E+01   6.5848E-06  0.0104
   1.5285E+01   1.5657E+01   6.5521E-06  0.0103
   1.5657E+01   1.6038E+01   6.4335E-06  0.0102
   1.6038E+01   1.6428E+01   6.2421E-06  0.0103
   1.6428E+01   1.6828E+01   6.2508E-06  0.0101
   1.6828E+01   1.7237E+01   6.0546E-06  0.0102
   1.7237E+01   1.7657E+01   5.8786E-06  0.0102
   1.7657E+01   1.8086E+01   5.8087E-06  0.0101
   1.8086E+01   1.8526E+01   5.6198E-06  0.0102
   1.8526E+01   1.8977E+01   5.5177E-06  0.0102
   1.8977E+01   1.9439E+01   5.2993E-06  0.0102
   1.9439E+01   1.9912E+01   5.3243E-06  0.0101
   1.9912E+01   2.0396E+01   5.2248E-06  0.0101
   2.0396E+01   2.0893E+01   5.0790E-06  0.0101
   2.0893E+01   2.1401E+01   4.8928E-06  0.0102
   2.1401E+01   2.1922E+01   4.7288E-06  0.0102
   2.1922E+01   2.2455E+01   4.6391E-06  0.0102
   2.2455E+01   2.3001E+01   4.4289E-06  0.0103
   2.3001E+01   2.3561E+01   4.3508E-06  0.0103
   2.3561E+01   2.4134E+01   4.2430E-06  0.0103
   2.4134E+01   2.4721E+01   4.0837E-06  0.0103
   2.4721E+01   2.5323E+01   3.8745E-06  0.0105
   2.5323E+01   2.5939E+01   3.8050E-06  0.0105
   2.5939E+01   2.6570E+01   3.6699E-06  0.0105
   2.6570E+01   2.7217E+01   3.6323E-06  0.0104
   2.7217E+01   2.7879E+01   3.5886E-06  0.0104
   2.7879E+01   2.8557E+01   5.6172E-06  0.0082
   2.8557E+01   2.9252E+01   7.3906E-06  0.0071
   2.9252E+01   2.9964E+01   7.4813E-06  0.0069
   2.9964E+01   3.0693E+01   7.3229E-06  0.0069
   3.0693E+01   3.1440E+01   7.4168E-06  0.0068
   3.1440E+01   3.2205E+01   7.4062E-06  0.0067
   3.2205E+01   3.2988E+01   7.4175E-06  0.0066
   3.2988E+01   3.3791E+01   7.3892E-06  0.0066
   3.3791E+01   3.4613E+01   7.3543E-06  0.0065
   3.4613E+01   3.5455E+01   7.4321E-06  0.0064
   3.5455E+01   3.6318E+01   7.4208E-06  0.0063
   3.6318E+01   3.7201E+01   7.2962E-06  0.0063
   3.7201E+01   3.8106E+01   7.5101E-06  0.0061
   3.8106E+01   3.9034E+01   7.4816E-06  0.0061
   3.9034E+01   3.9983E+01   7.3987E-06  0.0060
   3.9983E+01   4.0956E+01   7.3561E-06  0.0060
   4.0956E+01   4.1953E+01   7.2246E-06  0.0060
   4.1953E+01   4.2973E+01   7.2275E-06  0.0059
   4.2973E+01   4.4019E+01   7.1186E-06  0.0059
   4.4019E+01   4.5090E+01   7.0690E-06  0.0058
   4.5090E+01   4.6187E+01   7.1084E-06  0.0057
   4.6187E+01   4.7311E+01   6.9145E-06  0.0057
   4.7311E+01   4.8462E+01   6.0508E-06  0.0061
   4.8462E+01   4.9641E+01   3.3141E-06  0.0081
   4.9641E+01   5.0849E+01   3.2054E-06  0.0081
   5.0849E+01   5.2086E+01   3.1146E-06  0.0082
   5.2086E+01   5.3353E+01   2.9518E-06  0.0083
   5.3353E+01   5.4651E+01   2.8783E-06  0.0083
   5.4651E+01   5.5981E+01   2.7226E-06  0.0084
   5.5981E+01   5.7343E+01   2.3424E-06  0.0090
   5.7343E+01   5.8738E+01   2.7567E-09  0.2582
   5.8738E+01   6.0168E+01   3.5883E-10  0.7071
   6.0168E+01   6.1632E+01   0.0000E+00  0.0000
   6.1632E+01   6.3131E+01   0.0000E+00  0.0000
   6.3131E+01   6.4667E+01   0.0000E+00  0.0000
   6.4667E+01   6.6240E+01   0.0000E+00  0.0000
   6.6240E+01   6.7852E+01   0.0000E+00  0.0000
   6.7852E+01   6.9503E+01   0.0000E+00  0.0000
   6.9503E+01   7.1194E+01   0.0000E+00  0.0000
   7.1194E+01   7.2926E+01   0.0000E+00  0.0000
   7.2926E+01   7.4701E+01   0.0000E+00  0.0000
   7.4701E+01   7.6518E+01   0.0000E+00  0.0000
   7.6518E+01   7.8380E+01   0.0000E+00  0.0000
   7.8380E+01   8.0287E+01   0.0000E+00  0.0000
   8.0287E+01   8.2240E+01   0.0000E+00  0.0000
   8.2240E+01   8.4241E+01   0.0000E+00  0.0000
   8.4241E+01   8.6291E+01   0.0000E+00  0.0000
   8.6291E+01   8.8391E+01   0.0000E+00  0.0000
   8.8391E+01   9.0541E+01   0.0000E+00  0.0000
   9.0541E+01   9.2744E+01   0.0000E+00  0.0000
   9.2744E+01   9.5001E+01   0.0000E+00  0.0000
   9.5001E+01   9.7312E+01   0.0000E+00  0.0000
   9.7312E+01   9.9680E+01   0.0000E+00  0.0000
   9.9680E+01   1.0211E+02   0.0000E+00  0.0000
   1.0211E+02   1.0459E+02   0.0000E+00  0.0000
   1.0459E+02   1.0713E+02   0.0000E+00  0.0000
   1.0713E+02   1.0974E+02   0.0000E+00  0.0000
   1.0974E+02   1.1241E+02   0.0000E+00  0.0000
   1.1241E+02   1.1515E+02   0.0000E+00  0.0000
   1.1515E+02   1.1795E+02   0.0000E+00  0.0000
   1.1795E+02   1.2082E+02   0.0000E+00  0.0000
   1.2082E+02   1.2376E+02   0.0000E+00  0.0000
   1.2376E+02   1.2677E+02   0.0000E+00  0.0000
   1.2677E+02   1.2985E+02   0.0000E+00  0.0000
   1.2985E+02   1.3301E+02   0.0000E+00  0.0000
   1.3301E+02   1.3625E+02   0.0000E+00  0.0000
   1.3625E+02   1.3956E+02   0.0000E+00  0.0000
   1.3956E+02   1.4296E+02   0.0000E+00  0.0000
   1.4296E+02   1.4644E+02   0.0000E+00  0.0000
   1.4644E+02   1.5000E+02   0.0000E+00  0.0000

#   sum over                 2.5347E-06
'no. =    1   reg = 100 - 200'
msuc: {\huge [t-cross] in region mesh}
msdr: {\it plotted by \ANGEL \version}
msdl: {\it calculated by \PHITS  3.26}
wt: s(0.7)
\vspace{-3}
  region surface crossing
  area  &=&   1.0000E+00 [cm^2]
e:
 
# Information for Restart Calculation
# This calculation was newly started
# istdev =  2 # 1:Batch variance, 2:History variance
# resc2  = 3.90000000000000000E+09 # Total source weight or Total source weight / maxcas
# resc3  = 3.90000000000000000E+09 # Total history number or Total batch number
# maxcas =   100000000 # History / Batch, only used for istdev=1
# bitrseed = 1001000100011001100110111101101111001101001011101000111110000101 # bit data of rseed
