[ T-Cross ]
    title = [t-cross] in region mesh
     mesh =  reg            # mesh type is region-wise
      reg =    1            # number of crossing regions
      non     r-from    r-to       area
      1       112       212        1.000000    
   e-type =    3            # e-mesh is log given by emin, emax and ne
     emin =  1.0000000E-02  # minimum value of e-mesh points
     emax =   150.0000      # maximum value of e-mesh points
#    edel =  2.4039514E-02  # mesh width of e-mesh points
       ne =    400          # number of e-mesh points
#    data = ( e(i), i = 1, ne + 1 )
#           1.00000E-02  1.02433E-02  1.04925E-02  1.07478E-02  1.10093E-02
#           1.12772E-02  1.15516E-02  1.18326E-02  1.21205E-02  1.24154E-02
#           1.27175E-02  1.30269E-02  1.33439E-02  1.36686E-02  1.40011E-02
#           1.43418E-02  1.46907E-02  1.50482E-02  1.54143E-02  1.57894E-02
#           1.61735E-02  1.65670E-02  1.69701E-02  1.73830E-02  1.78060E-02
#           1.82392E-02  1.86830E-02  1.91375E-02  1.96032E-02  2.00801E-02
#           2.05687E-02  2.10692E-02  2.15818E-02  2.21069E-02  2.26448E-02
#           2.31957E-02  2.37601E-02  2.43382E-02  2.49304E-02  2.55369E-02
#           2.61583E-02  2.67947E-02  2.74467E-02  2.81145E-02  2.87985E-02
#           2.94992E-02  3.02169E-02  3.09521E-02  3.17052E-02  3.24766E-02
#           3.32668E-02  3.40762E-02  3.49053E-02  3.57546E-02  3.66246E-02
#           3.75157E-02  3.84284E-02  3.93634E-02  4.03212E-02  4.13022E-02
#           4.23071E-02  4.33365E-02  4.43909E-02  4.54710E-02  4.65773E-02
#           4.77106E-02  4.88714E-02  5.00605E-02  5.12785E-02  5.25262E-02
#           5.38042E-02  5.51133E-02  5.64542E-02  5.78278E-02  5.92348E-02
#           6.06760E-02  6.21523E-02  6.36645E-02  6.52135E-02  6.68002E-02
#           6.84255E-02  7.00904E-02  7.17957E-02  7.35426E-02  7.53319E-02
#           7.71648E-02  7.90423E-02  8.09655E-02  8.29354E-02  8.49533E-02
#           8.70203E-02  8.91376E-02  9.13064E-02  9.35279E-02  9.58035E-02
#           9.81345E-02  1.00522E-01  1.02968E-01  1.05473E-01  1.08040E-01
#           1.10668E-01  1.13361E-01  1.16119E-01  1.18944E-01  1.21838E-01
#           1.24803E-01  1.27839E-01  1.30950E-01  1.34136E-01  1.37399E-01
#           1.40742E-01  1.44167E-01  1.47675E-01  1.51268E-01  1.54948E-01
#           1.58718E-01  1.62580E-01  1.66535E-01  1.70587E-01  1.74738E-01
#           1.78989E-01  1.83344E-01  1.87805E-01  1.92375E-01  1.97055E-01
#           2.01850E-01  2.06761E-01  2.11792E-01  2.16945E-01  2.22223E-01
#           2.27630E-01  2.33169E-01  2.38842E-01  2.44653E-01  2.50605E-01
#           2.56703E-01  2.62949E-01  2.69346E-01  2.75900E-01  2.82613E-01
#           2.89489E-01  2.96532E-01  3.03747E-01  3.11138E-01  3.18708E-01
#           3.26462E-01  3.34405E-01  3.42542E-01  3.50876E-01  3.59413E-01
#           3.68158E-01  3.77116E-01  3.86291E-01  3.95690E-01  4.05317E-01
#           4.15179E-01  4.25281E-01  4.35628E-01  4.46227E-01  4.57084E-01
#           4.68205E-01  4.79597E-01  4.91266E-01  5.03219E-01  5.15463E-01
#           5.28005E-01  5.40851E-01  5.54011E-01  5.67490E-01  5.81298E-01
#           5.95441E-01  6.09929E-01  6.24769E-01  6.39970E-01  6.55541E-01
#           6.71491E-01  6.87828E-01  7.04564E-01  7.21706E-01  7.39266E-01
#           7.57253E-01  7.75678E-01  7.94551E-01  8.13883E-01  8.33685E-01
#           8.53969E-01  8.74747E-01  8.96030E-01  9.17831E-01  9.40163E-01
#           9.63038E-01  9.86469E-01  1.01047E+00  1.03506E+00  1.06024E+00
#           1.08604E+00  1.11246E+00  1.13953E+00  1.16725E+00  1.19565E+00
#           1.22474E+00  1.25454E+00  1.28507E+00  1.31633E+00  1.34836E+00
#           1.38117E+00  1.41477E+00  1.44920E+00  1.48446E+00  1.52057E+00
#           1.55757E+00  1.59547E+00  1.63429E+00  1.67405E+00  1.71478E+00
#           1.75650E+00  1.79924E+00  1.84302E+00  1.88786E+00  1.93379E+00
#           1.98084E+00  2.02904E+00  2.07841E+00  2.12898E+00  2.18078E+00
#           2.23384E+00  2.28819E+00  2.34386E+00  2.40089E+00  2.45930E+00
#           2.51914E+00  2.58043E+00  2.64322E+00  2.70753E+00  2.77341E+00
#           2.84088E+00  2.91001E+00  2.98081E+00  3.05333E+00  3.12762E+00
#           3.20372E+00  3.28167E+00  3.36152E+00  3.44330E+00  3.52708E+00
#           3.61290E+00  3.70080E+00  3.79085E+00  3.88308E+00  3.97756E+00
#           4.07434E+00  4.17347E+00  4.27501E+00  4.37903E+00  4.48557E+00
#           4.59471E+00  4.70650E+00  4.82102E+00  4.93832E+00  5.05847E+00
#           5.18155E+00  5.30762E+00  5.43676E+00  5.56904E+00  5.70453E+00
#           5.84333E+00  5.98550E+00  6.13114E+00  6.28031E+00  6.43312E+00
#           6.58964E+00  6.74997E+00  6.91420E+00  7.08243E+00  7.25475E+00
#           7.43126E+00  7.61207E+00  7.79728E+00  7.98700E+00  8.18133E+00
#           8.38038E+00  8.58428E+00  8.79315E+00  9.00709E+00  9.22624E+00
#           9.45072E+00  9.68067E+00  9.91620E+00  1.01575E+01  1.04046E+01
#           1.06578E+01  1.09171E+01  1.11827E+01  1.14548E+01  1.17335E+01
#           1.20190E+01  1.23114E+01  1.26109E+01  1.29178E+01  1.32321E+01
#           1.35540E+01  1.38838E+01  1.42216E+01  1.45676E+01  1.49221E+01
#           1.52851E+01  1.56570E+01  1.60380E+01  1.64282E+01  1.68279E+01
#           1.72374E+01  1.76568E+01  1.80864E+01  1.85264E+01  1.89772E+01
#           1.94389E+01  1.99119E+01  2.03963E+01  2.08926E+01  2.14009E+01
#           2.19216E+01  2.24550E+01  2.30014E+01  2.35610E+01  2.41343E+01
#           2.47215E+01  2.53230E+01  2.59391E+01  2.65702E+01  2.72167E+01
#           2.78789E+01  2.85572E+01  2.92520E+01  2.99637E+01  3.06928E+01
#           3.14396E+01  3.22045E+01  3.29881E+01  3.37907E+01  3.46128E+01
#           3.54550E+01  3.63177E+01  3.72013E+01  3.81064E+01  3.90336E+01
#           3.99833E+01  4.09561E+01  4.19526E+01  4.29734E+01  4.40189E+01
#           4.50900E+01  4.61870E+01  4.73108E+01  4.84619E+01  4.96410E+01
#           5.08488E+01  5.20860E+01  5.33533E+01  5.46514E+01  5.59812E+01
#           5.73432E+01  5.87384E+01  6.01676E+01  6.16315E+01  6.31311E+01
#           6.46671E+01  6.62405E+01  6.78522E+01  6.95031E+01  7.11941E+01
#           7.29263E+01  7.47007E+01  7.65182E+01  7.83800E+01  8.02870E+01
#           8.22405E+01  8.42414E+01  8.62911E+01  8.83906E+01  9.05412E+01
#           9.27442E+01  9.50007E+01  9.73122E+01  9.96799E+01  1.02105E+02
#           1.04589E+02  1.07134E+02  1.09741E+02  1.12411E+02  1.15146E+02
#           1.17948E+02  1.20817E+02  1.23757E+02  1.26768E+02  1.29852E+02
#           1.33012E+02  1.36248E+02  1.39563E+02  1.42959E+02  1.46437E+02
#           1.50000E+02
     unit =    2            # unit is [1/cm^2/(MeV/n)/source]
     axis =  eng            # axis of output
     file = detector-13.out  # file name of output for the above axis
   output = f-curr          # surface crossing forward current spectrum
     part =  neutron  
# kf/name :  2112     
#    used :        main (  %)        temp (  %)       total (  %)
#  memory :         414 (  0)           0 (  0)         414 (  0)

#------------------------------------------------------------------------------
#newpage:
#   no. =    1   reg = 112 - 212

x: Energy [MeV/n]
y:  F-Curr [1/cm^2/(MeV/n)/source]         
p: xlog ylog afac(0.8) form(0.9)
h: n            x            y(neutron ),hh0l   n 
#  e-lower      e-upper      neutron     r.err 
   1.0000E-02   1.0243E-02   9.8640E-05  0.0913
   1.0243E-02   1.0493E-02   1.0432E-04  0.0877
   1.0493E-02   1.0748E-02   9.7927E-05  0.0894
   1.0748E-02   1.1009E-02   1.1778E-04  0.0806
   1.1009E-02   1.1277E-02   1.0453E-04  0.0845
   1.1277E-02   1.1552E-02   1.0642E-04  0.0828
   1.1552E-02   1.1833E-02   9.6065E-05  0.0861
   1.1833E-02   1.2121E-02   8.9615E-05  0.0880
   1.2121E-02   1.2415E-02   9.9694E-05  0.0825
   1.2415E-02   1.2718E-02   1.0527E-04  0.0793
   1.2718E-02   1.3027E-02   1.1505E-04  0.0750
   1.3027E-02   1.3344E-02   1.0475E-04  0.0776
   1.3344E-02   1.3669E-02   1.0226E-04  0.0776
   1.3669E-02   1.4001E-02   1.2388E-04  0.0697
   1.4001E-02   1.4342E-02   1.0979E-04  0.0731
   1.4342E-02   1.4691E-02   1.1348E-04  0.0711
   1.4691E-02   1.5048E-02   1.1191E-04  0.0707
   1.5048E-02   1.5414E-02   1.1143E-04  0.0700
   1.5414E-02   1.5789E-02   1.0239E-04  0.0722
   1.5789E-02   1.6174E-02   1.0777E-04  0.0695
   1.6174E-02   1.6567E-02   1.1690E-04  0.0659
   1.6567E-02   1.6970E-02   1.0618E-04  0.0684
   1.6970E-02   1.7383E-02   1.1189E-04  0.0658
   1.7383E-02   1.7806E-02   1.0876E-04  0.0659
   1.7806E-02   1.8239E-02   1.2095E-04  0.0618
   1.8239E-02   1.8683E-02   1.0861E-04  0.0644
   1.8683E-02   1.9138E-02   1.1791E-04  0.0611
   1.9138E-02   1.9603E-02   1.2113E-04  0.0595
   1.9603E-02   2.0080E-02   1.0106E-04  0.0644
   2.0080E-02   2.0569E-02   1.0930E-04  0.0612
   2.0569E-02   2.1069E-02   1.0870E-04  0.0606
   2.1069E-02   2.1582E-02   1.0456E-04  0.0611
   2.1582E-02   2.2107E-02   1.2836E-04  0.0545
   2.2107E-02   2.2645E-02   1.1861E-04  0.0560
   2.2645E-02   2.3196E-02   1.1689E-04  0.0557
   2.3196E-02   2.3760E-02   1.1411E-04  0.0557
   2.3760E-02   2.4338E-02   1.2489E-04  0.0526
   2.4338E-02   2.4930E-02   1.2665E-04  0.0516
   2.4930E-02   2.5537E-02   1.1145E-04  0.0544
   2.5537E-02   2.6158E-02   1.1878E-04  0.0521
   2.6158E-02   2.6795E-02   1.0998E-04  0.0535
   2.6795E-02   2.7447E-02   1.1320E-04  0.0521
   2.7447E-02   2.8114E-02   1.1021E-04  0.0521
   2.8114E-02   2.8799E-02   1.1812E-04  0.0498
   2.8799E-02   2.9499E-02   1.1617E-04  0.0496
   2.9499E-02   3.0217E-02   1.1341E-04  0.0496
   3.0217E-02   3.0952E-02   1.1589E-04  0.0485
   3.0952E-02   3.1705E-02   1.1552E-04  0.0479
   3.1705E-02   3.2477E-02   1.1148E-04  0.0482
   3.2477E-02   3.3267E-02   1.2630E-04  0.0448
   3.3267E-02   3.4076E-02   1.2256E-04  0.0449
   3.4076E-02   3.4905E-02   1.1482E-04  0.0458
   3.4905E-02   3.5755E-02   1.2411E-04  0.0436
   3.5755E-02   3.6625E-02   1.2346E-04  0.0432
   3.6625E-02   3.7516E-02   1.2299E-04  0.0427
   3.7516E-02   3.8428E-02   1.1613E-04  0.0434
   3.8428E-02   3.9363E-02   1.2385E-04  0.0416
   3.9363E-02   4.0321E-02   1.2843E-04  0.0403
   4.0321E-02   4.1302E-02   1.1539E-04  0.0420
   4.1302E-02   4.2307E-02   1.1623E-04  0.0414
   4.2307E-02   4.3337E-02   1.2415E-04  0.0396
   4.3337E-02   4.4391E-02   1.2936E-04  0.0383
   4.4391E-02   4.5471E-02   1.1444E-04  0.0402
   4.5471E-02   4.6577E-02   1.2455E-04  0.0381
   4.6577E-02   4.7711E-02   1.3218E-04  0.0365
   4.7711E-02   4.8871E-02   1.1785E-04  0.0382
   4.8871E-02   5.0061E-02   1.2413E-04  0.0368
   5.0061E-02   5.1279E-02   1.2249E-04  0.0366
   5.1279E-02   5.2526E-02   1.2039E-04  0.0365
   5.2526E-02   5.3804E-02   1.2332E-04  0.0356
   5.3804E-02   5.5113E-02   1.3353E-04  0.0338
   5.5113E-02   5.6454E-02   1.2364E-04  0.0347
   5.6454E-02   5.7828E-02   1.2697E-04  0.0339
   5.7828E-02   5.9235E-02   1.2722E-04  0.0334
   5.9235E-02   6.0676E-02   1.2697E-04  0.0331
   6.0676E-02   6.2152E-02   1.2613E-04  0.0328
   6.2152E-02   6.3665E-02   1.2392E-04  0.0327
   6.3665E-02   6.5214E-02   1.2834E-04  0.0317
   6.5214E-02   6.6800E-02   1.3071E-04  0.0311
   6.6800E-02   6.8426E-02   1.2084E-04  0.0319
   6.8426E-02   7.0090E-02   1.2878E-04  0.0305
   7.0090E-02   7.1796E-02   1.3417E-04  0.0296
   7.1796E-02   7.3543E-02   1.2548E-04  0.0302
   7.3543E-02   7.5332E-02   1.2798E-04  0.0296
   7.5332E-02   7.7165E-02   1.3018E-04  0.0290
   7.7165E-02   7.9042E-02   1.3220E-04  0.0284
   7.9042E-02   8.0965E-02   1.2677E-04  0.0286
   8.0965E-02   8.2935E-02   1.2650E-04  0.0283
   8.2935E-02   8.4953E-02   1.2964E-04  0.0277
   8.4953E-02   8.7020E-02   1.3624E-04  0.0267
   8.7020E-02   8.9138E-02   1.2866E-04  0.0271
   8.9138E-02   9.1306E-02   1.3455E-04  0.0262
   9.1306E-02   9.3528E-02   1.3522E-04  0.0258
   9.3528E-02   9.5804E-02   1.3271E-04  0.0257
   9.5804E-02   9.8134E-02   1.4097E-04  0.0247
   9.8134E-02   1.0052E-01   1.3829E-04  0.0246
   1.0052E-01   1.0297E-01   1.3501E-04  0.0246
   1.0297E-01   1.0547E-01   1.3452E-04  0.0244
   1.0547E-01   1.0804E-01   1.3514E-04  0.0240
   1.0804E-01   1.1067E-01   1.3596E-04  0.0237
   1.1067E-01   1.1336E-01   1.3437E-04  0.0235
   1.1336E-01   1.1612E-01   1.3814E-04  0.0229
   1.1612E-01   1.1894E-01   1.4059E-04  0.0224
   1.1894E-01   1.2184E-01   1.4423E-04  0.0219
   1.2184E-01   1.2480E-01   1.4222E-04  0.0218
   1.2480E-01   1.2784E-01   1.3463E-04  0.0221
   1.2784E-01   1.3095E-01   1.4204E-04  0.0213
   1.3095E-01   1.3414E-01   1.4005E-04  0.0212
   1.3414E-01   1.3740E-01   1.4518E-04  0.0205
   1.3740E-01   1.4074E-01   1.3856E-04  0.0208
   1.4074E-01   1.4417E-01   1.3655E-04  0.0207
   1.4417E-01   1.4767E-01   1.4334E-04  0.0199
   1.4767E-01   1.5127E-01   1.4912E-04  0.0193
   1.5127E-01   1.5495E-01   1.4835E-04  0.0191
   1.5495E-01   1.5872E-01   1.4859E-04  0.0189
   1.5872E-01   1.6258E-01   1.4563E-04  0.0189
   1.6258E-01   1.6654E-01   1.4394E-04  0.0187
   1.6654E-01   1.7059E-01   1.4314E-04  0.0186
   1.7059E-01   1.7474E-01   1.5005E-04  0.0179
   1.7474E-01   1.7899E-01   1.4343E-04  0.0181
   1.7899E-01   1.8334E-01   1.4737E-04  0.0177
   1.8334E-01   1.8781E-01   1.4903E-04  0.0173
   1.8781E-01   1.9237E-01   1.5529E-04  0.0168
   1.9237E-01   1.9706E-01   1.5556E-04  0.0166
   1.9706E-01   2.0185E-01   1.5167E-04  0.0166
   2.0185E-01   2.0676E-01   1.5581E-04  0.0162
   2.0676E-01   2.1179E-01   1.5475E-04  0.0160
   2.1179E-01   2.1694E-01   1.5994E-04  0.0156
   2.1694E-01   2.2222E-01   1.5834E-04  0.0155
   2.2222E-01   2.2763E-01   1.5841E-04  0.0153
   2.2763E-01   2.3317E-01   1.5979E-04  0.0150
   2.3317E-01   2.3884E-01   1.5631E-04  0.0150
   2.3884E-01   2.4465E-01   1.6203E-04  0.0146
   2.4465E-01   2.5061E-01   1.6080E-04  0.0145
   2.5061E-01   2.5670E-01   1.6184E-04  0.0142
   2.5670E-01   2.6295E-01   1.6222E-04  0.0140
   2.6295E-01   2.6935E-01   1.6178E-04  0.0139
   2.6935E-01   2.7590E-01   1.6407E-04  0.0136
   2.7590E-01   2.8261E-01   1.6738E-04  0.0133
   2.8261E-01   2.8949E-01   1.6913E-04  0.0131
   2.8949E-01   2.9653E-01   1.6830E-04  0.0130
   2.9653E-01   3.0375E-01   1.7364E-04  0.0126
   3.0375E-01   3.1114E-01   1.7059E-04  0.0126
   3.1114E-01   3.1871E-01   1.7101E-04  0.0124
   3.1871E-01   3.2646E-01   1.6899E-04  0.0124
   3.2646E-01   3.3441E-01   1.7278E-04  0.0121
   3.3441E-01   3.4254E-01   1.7021E-04  0.0120
   3.4254E-01   3.5088E-01   1.7376E-04  0.0118
   3.5088E-01   3.5941E-01   1.7493E-04  0.0116
   3.5941E-01   3.6816E-01   1.7562E-04  0.0114
   3.6816E-01   3.7712E-01   1.7902E-04  0.0112
   3.7712E-01   3.8629E-01   1.7426E-04  0.0112
   3.8629E-01   3.9569E-01   1.7581E-04  0.0110
   3.9569E-01   4.0532E-01   1.8127E-04  0.0107
   4.0532E-01   4.1518E-01   1.7628E-04  0.0107
   4.1518E-01   4.2528E-01   1.8072E-04  0.0105
   4.2528E-01   4.3563E-01   1.8107E-04  0.0103
   4.3563E-01   4.4623E-01   1.7909E-04  0.0103
   4.4623E-01   4.5708E-01   1.8338E-04  0.0100
   4.5708E-01   4.6821E-01   1.8313E-04  0.0099
   4.6821E-01   4.7960E-01   1.8630E-04  0.0097
   4.7960E-01   4.9127E-01   1.8690E-04  0.0096
   4.9127E-01   5.0322E-01   1.8469E-04  0.0095
   5.0322E-01   5.1546E-01   1.8354E-04  0.0094
   5.1546E-01   5.2800E-01   1.8530E-04  0.0093
   5.2800E-01   5.4085E-01   1.8546E-04  0.0092
   5.4085E-01   5.5401E-01   1.8943E-04  0.0090
   5.5401E-01   5.6749E-01   1.8735E-04  0.0089
   5.6749E-01   5.8130E-01   1.8703E-04  0.0088
   5.8130E-01   5.9544E-01   1.8906E-04  0.0086
   5.9544E-01   6.0993E-01   1.9076E-04  0.0085
   6.0993E-01   6.2477E-01   1.8978E-04  0.0084
   6.2477E-01   6.3997E-01   1.9181E-04  0.0083
   6.3997E-01   6.5554E-01   1.8839E-04  0.0083
   6.5554E-01   6.7149E-01   1.9021E-04  0.0081
   6.7149E-01   6.8783E-01   1.8949E-04  0.0080
   6.8783E-01   7.0456E-01   1.8667E-04  0.0080
   7.0456E-01   7.2171E-01   1.8561E-04  0.0079
   7.2171E-01   7.3927E-01   1.8774E-04  0.0078
   7.3927E-01   7.5725E-01   1.8721E-04  0.0077
   7.5725E-01   7.7568E-01   1.8777E-04  0.0076
   7.7568E-01   7.9455E-01   1.8421E-04  0.0076
   7.9455E-01   8.1388E-01   1.8708E-04  0.0074
   8.1388E-01   8.3368E-01   1.8311E-04  0.0074
   8.3368E-01   8.5397E-01   1.8051E-04  0.0074
   8.5397E-01   8.7475E-01   1.7807E-04  0.0074
   8.7475E-01   8.9603E-01   1.7361E-04  0.0074
   8.9603E-01   9.1783E-01   1.7284E-04  0.0073
   9.1783E-01   9.4016E-01   1.6828E-04  0.0073
   9.4016E-01   9.6304E-01   1.6396E-04  0.0073
   9.6304E-01   9.8647E-01   1.5686E-04  0.0074
   9.8647E-01   1.0105E+00   1.5449E-04  0.0073
   1.0105E+00   1.0351E+00   1.5317E-04  0.0073
   1.0351E+00   1.0602E+00   1.5381E-04  0.0072
   1.0602E+00   1.0860E+00   1.5443E-04  0.0071
   1.0860E+00   1.1125E+00   1.5572E-04  0.0070
   1.1125E+00   1.1395E+00   1.5869E-04  0.0068
   1.1395E+00   1.1673E+00   1.5929E-04  0.0067
   1.1673E+00   1.1957E+00   1.6301E-04  0.0066
   1.1957E+00   1.2247E+00   1.6707E-04  0.0064
   1.2247E+00   1.2545E+00   1.6746E-04  0.0063
   1.2545E+00   1.2851E+00   1.6765E-04  0.0063
   1.2851E+00   1.3163E+00   1.6923E-04  0.0061
   1.3163E+00   1.3484E+00   1.7237E-04  0.0060
   1.3484E+00   1.3812E+00   1.7324E-04  0.0059
   1.3812E+00   1.4148E+00   1.7730E-04  0.0058
   1.4148E+00   1.4492E+00   1.7874E-04  0.0057
   1.4492E+00   1.4845E+00   1.7955E-04  0.0056
   1.4845E+00   1.5206E+00   1.7875E-04  0.0056
   1.5206E+00   1.5576E+00   1.7951E-04  0.0055
   1.5576E+00   1.5955E+00   1.7865E-04  0.0054
   1.5955E+00   1.6343E+00   1.8148E-04  0.0053
   1.6343E+00   1.6741E+00   1.8378E-04  0.0052
   1.6741E+00   1.7148E+00   1.8911E-04  0.0051
   1.7148E+00   1.7565E+00   1.9081E-04  0.0050
   1.7565E+00   1.7992E+00   1.8955E-04  0.0050
   1.7992E+00   1.8430E+00   1.8870E-04  0.0049
   1.8430E+00   1.8879E+00   1.8947E-04  0.0049
   1.8879E+00   1.9338E+00   1.9242E-04  0.0048
   1.9338E+00   1.9808E+00   1.9204E-04  0.0047
   1.9808E+00   2.0290E+00   1.9606E-04  0.0046
   2.0290E+00   2.0784E+00   1.9565E-04  0.0046
   2.0784E+00   2.1290E+00   1.9398E-04  0.0045
   2.1290E+00   2.1808E+00   1.9286E-04  0.0045
   2.1808E+00   2.2338E+00   1.9261E-04  0.0044
   2.2338E+00   2.2882E+00   1.9376E-04  0.0044
   2.2882E+00   2.3439E+00   1.9441E-04  0.0043
   2.3439E+00   2.4009E+00   1.9411E-04  0.0043
   2.4009E+00   2.4593E+00   1.9769E-04  0.0042
   2.4593E+00   2.5191E+00   1.9684E-04  0.0041
   2.5191E+00   2.5804E+00   1.9463E-04  0.0041
   2.5804E+00   2.6432E+00   1.9200E-04  0.0041
   2.6432E+00   2.7075E+00   1.9299E-04  0.0040
   2.7075E+00   2.7734E+00   1.9198E-04  0.0040
   2.7734E+00   2.8409E+00   1.9007E-04  0.0039
   2.8409E+00   2.9100E+00   1.9304E-04  0.0039
   2.9100E+00   2.9808E+00   1.9049E-04  0.0039
   2.9808E+00   3.0533E+00   1.8996E-04  0.0038
   3.0533E+00   3.1276E+00   1.8839E-04  0.0038
   3.1276E+00   3.2037E+00   1.8488E-04  0.0038
   3.2037E+00   3.2817E+00   1.8345E-04  0.0037
   3.2817E+00   3.3615E+00   1.8039E-04  0.0037
   3.3615E+00   3.4433E+00   1.7929E-04  0.0037
   3.4433E+00   3.5271E+00   1.7627E-04  0.0037
   3.5271E+00   3.6129E+00   1.7580E-04  0.0036
   3.6129E+00   3.7008E+00   1.7437E-04  0.0036
   3.7008E+00   3.7908E+00   1.7120E-04  0.0036
   3.7908E+00   3.8831E+00   1.6973E-04  0.0036
   3.8831E+00   3.9776E+00   1.6603E-04  0.0036
   3.9776E+00   4.0743E+00   1.6322E-04  0.0036
   4.0743E+00   4.1735E+00   1.6005E-04  0.0036
   4.1735E+00   4.2750E+00   1.5697E-04  0.0035
   4.2750E+00   4.3790E+00   1.5371E-04  0.0035
   4.3790E+00   4.4856E+00   1.5018E-04  0.0035
   4.4856E+00   4.5947E+00   1.4703E-04  0.0035
   4.5947E+00   4.7065E+00   1.4401E-04  0.0035
   4.7065E+00   4.8210E+00   1.4148E-04  0.0035
   4.8210E+00   4.9383E+00   1.3875E-04  0.0035
   4.9383E+00   5.0585E+00   1.3514E-04  0.0035
   5.0585E+00   5.1815E+00   1.3022E-04  0.0035
   5.1815E+00   5.3076E+00   1.2694E-04  0.0035
   5.3076E+00   5.4368E+00   1.2342E-04  0.0035
   5.4368E+00   5.5690E+00   1.2008E-04  0.0035
   5.5690E+00   5.7045E+00   1.1644E-04  0.0036
   5.7045E+00   5.8433E+00   1.1268E-04  0.0036
   5.8433E+00   5.9855E+00   1.1073E-04  0.0036
   5.9855E+00   6.1311E+00   1.0635E-04  0.0036
   6.1311E+00   6.2803E+00   1.0370E-04  0.0036
   6.2803E+00   6.4331E+00   9.9781E-05  0.0036
   6.4331E+00   6.5896E+00   9.7209E-05  0.0036
   6.5896E+00   6.7500E+00   9.3435E-05  0.0037
   6.7500E+00   6.9142E+00   9.0652E-05  0.0037
   6.9142E+00   7.0824E+00   8.7704E-05  0.0037
   7.0824E+00   7.2548E+00   8.4655E-05  0.0037
   7.2548E+00   7.4313E+00   8.2152E-05  0.0037
   7.4313E+00   7.6121E+00   7.8282E-05  0.0038
   7.6121E+00   7.7973E+00   7.5742E-05  0.0038
   7.7973E+00   7.9870E+00   7.3176E-05  0.0038
   7.9870E+00   8.1813E+00   7.0781E-05  0.0038
   8.1813E+00   8.3804E+00   6.8038E-05  0.0038
   8.3804E+00   8.5843E+00   6.5948E-05  0.0039
   8.5843E+00   8.7931E+00   6.3232E-05  0.0039
   8.7931E+00   9.0071E+00   6.1453E-05  0.0039
   9.0071E+00   9.2262E+00   5.9531E-05  0.0039
   9.2262E+00   9.4507E+00   5.7496E-05  0.0039
   9.4507E+00   9.6807E+00   5.5220E-05  0.0040
   9.6807E+00   9.9162E+00   5.3829E-05  0.0040
   9.9162E+00   1.0157E+01   5.1747E-05  0.0040
   1.0157E+01   1.0405E+01   5.0153E-05  0.0040
   1.0405E+01   1.0658E+01   4.7926E-05  0.0041
   1.0658E+01   1.0917E+01   4.6467E-05  0.0041
   1.0917E+01   1.1183E+01   4.5004E-05  0.0041
   1.1183E+01   1.1455E+01   4.3370E-05  0.0041
   1.1455E+01   1.1733E+01   4.2135E-05  0.0041
   1.1733E+01   1.2019E+01   4.0802E-05  0.0041
   1.2019E+01   1.2311E+01   3.9545E-05  0.0042
   1.2311E+01   1.2611E+01   3.8343E-05  0.0042
   1.2611E+01   1.2918E+01   3.7142E-05  0.0042
   1.2918E+01   1.3232E+01   3.5795E-05  0.0042
   1.3232E+01   1.3554E+01   3.5044E-05  0.0042
   1.3554E+01   1.3884E+01   3.3742E-05  0.0042
   1.3884E+01   1.4222E+01   3.2559E-05  0.0043
   1.4222E+01   1.4568E+01   3.1500E-05  0.0043
   1.4568E+01   1.4922E+01   3.0576E-05  0.0043
   1.4922E+01   1.5285E+01   2.9472E-05  0.0043
   1.5285E+01   1.5657E+01   2.8836E-05  0.0043
   1.5657E+01   1.6038E+01   2.7854E-05  0.0043
   1.6038E+01   1.6428E+01   2.6900E-05  0.0044
   1.6428E+01   1.6828E+01   2.5995E-05  0.0044
   1.6828E+01   1.7237E+01   2.5239E-05  0.0044
   1.7237E+01   1.7657E+01   2.4274E-05  0.0044
   1.7657E+01   1.8086E+01   2.3342E-05  0.0045
   1.8086E+01   1.8526E+01   2.2622E-05  0.0045
   1.8526E+01   1.8977E+01   2.1955E-05  0.0045
   1.8977E+01   1.9439E+01   2.1225E-05  0.0045
   1.9439E+01   1.9912E+01   2.0471E-05  0.0045
   1.9912E+01   2.0396E+01   1.9464E-05  0.0046
   2.0396E+01   2.0893E+01   1.8955E-05  0.0046
   2.0893E+01   2.1401E+01   1.8044E-05  0.0047
   2.1401E+01   2.1922E+01   1.7547E-05  0.0047
   2.1922E+01   2.2455E+01   1.6968E-05  0.0047
   2.2455E+01   2.3001E+01   1.6264E-05  0.0047
   2.3001E+01   2.3561E+01   1.5490E-05  0.0048
   2.3561E+01   2.4134E+01   1.4861E-05  0.0048
   2.4134E+01   2.4721E+01   1.4332E-05  0.0049
   2.4721E+01   2.5323E+01   1.3581E-05  0.0049
   2.5323E+01   2.5939E+01   1.2808E-05  0.0050
   2.5939E+01   2.6570E+01   1.2284E-05  0.0051
   2.6570E+01   2.7217E+01   1.1718E-05  0.0051
   2.7217E+01   2.7879E+01   1.1072E-05  0.0052
   2.7879E+01   2.8557E+01   1.0529E-05  0.0053
   2.8557E+01   2.9252E+01   9.9721E-06  0.0054
   2.9252E+01   2.9964E+01   9.3455E-06  0.0055
   2.9964E+01   3.0693E+01   8.8217E-06  0.0056
   3.0693E+01   3.1440E+01   8.2110E-06  0.0057
   3.1440E+01   3.2205E+01   7.7315E-06  0.0058
   3.2205E+01   3.2988E+01   7.2890E-06  0.0059
   3.2988E+01   3.3791E+01   6.6878E-06  0.0061
   3.3791E+01   3.4613E+01   6.2458E-06  0.0062
   3.4613E+01   3.5455E+01   5.7376E-06  0.0064
   3.5455E+01   3.6318E+01   5.1894E-06  0.0067
   3.6318E+01   3.7201E+01   4.8088E-06  0.0069
   3.7201E+01   3.8106E+01   4.3410E-06  0.0071
   3.8106E+01   3.9034E+01   3.9855E-06  0.0074
   3.9034E+01   3.9983E+01   3.5878E-06  0.0077
   3.9983E+01   4.0956E+01   3.2345E-06  0.0080
   4.0956E+01   4.1953E+01   2.9279E-06  0.0083
   4.1953E+01   4.2973E+01   2.6316E-06  0.0086
   4.2973E+01   4.4019E+01   2.3685E-06  0.0090
   4.4019E+01   4.5090E+01   2.0582E-06  0.0095
   4.5090E+01   4.6187E+01   1.8631E-06  0.0099
   4.6187E+01   4.7311E+01   1.6028E-06  0.0105
   4.7311E+01   4.8462E+01   1.4369E-06  0.0110
   4.8462E+01   4.9641E+01   1.2523E-06  0.0116
   4.9641E+01   5.0849E+01   1.0881E-06  0.0123
   5.0849E+01   5.2086E+01   9.4617E-07  0.0131
   5.2086E+01   5.3353E+01   8.2096E-07  0.0139
   5.3353E+01   5.4651E+01   7.0702E-07  0.0148
   5.4651E+01   5.5981E+01   6.1983E-07  0.0156
   5.5981E+01   5.7343E+01   5.3933E-07  0.0165
   5.7343E+01   5.8738E+01   4.5198E-07  0.0178
   5.8738E+01   6.0168E+01   3.9310E-07  0.0189
   6.0168E+01   6.1632E+01   3.4578E-07  0.0199
   6.1632E+01   6.3131E+01   3.0449E-07  0.0209
   6.3131E+01   6.4667E+01   2.5455E-07  0.0226
   6.4667E+01   6.6240E+01   2.1025E-07  0.0246
   6.6240E+01   6.7852E+01   1.7125E-07  0.0269
   6.7852E+01   6.9503E+01   1.3314E-07  0.0302
   6.9503E+01   7.1194E+01   9.8754E-08  0.0346
   7.1194E+01   7.2926E+01   7.3894E-08  0.0395
   7.2926E+01   7.4701E+01   5.3766E-08  0.0458
   7.4701E+01   7.6518E+01   3.4883E-08  0.0562
   7.6518E+01   7.8380E+01   1.6436E-08  0.0808
   7.8380E+01   8.0287E+01   3.0414E-09  0.1857
   8.0287E+01   8.2240E+01   1.1262E-09  0.3015
   8.2240E+01   8.4241E+01   0.0000E+00  0.0000
   8.4241E+01   8.6291E+01   0.0000E+00  0.0000
   8.6291E+01   8.8391E+01   0.0000E+00  0.0000
   8.8391E+01   9.0541E+01   0.0000E+00  0.0000
   9.0541E+01   9.2744E+01   0.0000E+00  0.0000
   9.2744E+01   9.5001E+01   0.0000E+00  0.0000
   9.5001E+01   9.7312E+01   0.0000E+00  0.0000
   9.7312E+01   9.9680E+01   0.0000E+00  0.0000
   9.9680E+01   1.0211E+02   0.0000E+00  0.0000
   1.0211E+02   1.0459E+02   0.0000E+00  0.0000
   1.0459E+02   1.0713E+02   0.0000E+00  0.0000
   1.0713E+02   1.0974E+02   0.0000E+00  0.0000
   1.0974E+02   1.1241E+02   0.0000E+00  0.0000
   1.1241E+02   1.1515E+02   0.0000E+00  0.0000
   1.1515E+02   1.1795E+02   0.0000E+00  0.0000
   1.1795E+02   1.2082E+02   0.0000E+00  0.0000
   1.2082E+02   1.2376E+02   0.0000E+00  0.0000
   1.2376E+02   1.2677E+02   0.0000E+00  0.0000
   1.2677E+02   1.2985E+02   0.0000E+00  0.0000
   1.2985E+02   1.3301E+02   0.0000E+00  0.0000
   1.3301E+02   1.3625E+02   0.0000E+00  0.0000
   1.3625E+02   1.3956E+02   0.0000E+00  0.0000
   1.3956E+02   1.4296E+02   0.0000E+00  0.0000
   1.4296E+02   1.4644E+02   0.0000E+00  0.0000
   1.4644E+02   1.5000E+02   0.0000E+00  0.0000

#   sum over                 1.2191E-05
'no. =    1   reg = 112 - 212'
msuc: {\huge [t-cross] in region mesh}
msdr: {\it plotted by \ANGEL \version}
msdl: {\it calculated by \PHITS  3.26}
wt: s(0.7)
\vspace{-3}
  region surface crossing
  area  &=&   1.0000E+00 [cm^2]
e:
 
# Information for Restart Calculation
# This calculation was newly started
# istdev =  2 # 1:Batch variance, 2:History variance
# resc2  = 5.00000000000000000E+09 # Total source weight or Total source weight / maxcas
# resc3  = 5.00000000000000000E+09 # Total history number or Total batch number
# maxcas =   500000000 # History / Batch, only used for istdev=1
# bitrseed = 0110100000100010111000001110001111001110100100011111101000111001 # bit data of rseed
