[ T-Cross ]
    title = [t-cross] in region mesh
     mesh =  reg            # mesh type is region-wise
      reg =    1            # number of crossing regions
      non     r-from    r-to       area
      1       107       207        1.000000    
   e-type =    3            # e-mesh is log given by emin, emax and ne
     emin =  1.0000000E-02  # minimum value of e-mesh points
     emax =   150.0000      # maximum value of e-mesh points
#    edel =  2.4039514E-02  # mesh width of e-mesh points
       ne =    400          # number of e-mesh points
#    data = ( e(i), i = 1, ne + 1 )
#           1.00000E-02  1.02433E-02  1.04925E-02  1.07478E-02  1.10093E-02
#           1.12772E-02  1.15516E-02  1.18326E-02  1.21205E-02  1.24154E-02
#           1.27175E-02  1.30269E-02  1.33439E-02  1.36686E-02  1.40011E-02
#           1.43418E-02  1.46907E-02  1.50482E-02  1.54143E-02  1.57894E-02
#           1.61735E-02  1.65670E-02  1.69701E-02  1.73830E-02  1.78060E-02
#           1.82392E-02  1.86830E-02  1.91375E-02  1.96032E-02  2.00801E-02
#           2.05687E-02  2.10692E-02  2.15818E-02  2.21069E-02  2.26448E-02
#           2.31957E-02  2.37601E-02  2.43382E-02  2.49304E-02  2.55369E-02
#           2.61583E-02  2.67947E-02  2.74467E-02  2.81145E-02  2.87985E-02
#           2.94992E-02  3.02169E-02  3.09521E-02  3.17052E-02  3.24766E-02
#           3.32668E-02  3.40762E-02  3.49053E-02  3.57546E-02  3.66246E-02
#           3.75157E-02  3.84284E-02  3.93634E-02  4.03212E-02  4.13022E-02
#           4.23071E-02  4.33365E-02  4.43909E-02  4.54710E-02  4.65773E-02
#           4.77106E-02  4.88714E-02  5.00605E-02  5.12785E-02  5.25262E-02
#           5.38042E-02  5.51133E-02  5.64542E-02  5.78278E-02  5.92348E-02
#           6.06760E-02  6.21523E-02  6.36645E-02  6.52135E-02  6.68002E-02
#           6.84255E-02  7.00904E-02  7.17957E-02  7.35426E-02  7.53319E-02
#           7.71648E-02  7.90423E-02  8.09655E-02  8.29354E-02  8.49533E-02
#           8.70203E-02  8.91376E-02  9.13064E-02  9.35279E-02  9.58035E-02
#           9.81345E-02  1.00522E-01  1.02968E-01  1.05473E-01  1.08040E-01
#           1.10668E-01  1.13361E-01  1.16119E-01  1.18944E-01  1.21838E-01
#           1.24803E-01  1.27839E-01  1.30950E-01  1.34136E-01  1.37399E-01
#           1.40742E-01  1.44167E-01  1.47675E-01  1.51268E-01  1.54948E-01
#           1.58718E-01  1.62580E-01  1.66535E-01  1.70587E-01  1.74738E-01
#           1.78989E-01  1.83344E-01  1.87805E-01  1.92375E-01  1.97055E-01
#           2.01850E-01  2.06761E-01  2.11792E-01  2.16945E-01  2.22223E-01
#           2.27630E-01  2.33169E-01  2.38842E-01  2.44653E-01  2.50605E-01
#           2.56703E-01  2.62949E-01  2.69346E-01  2.75900E-01  2.82613E-01
#           2.89489E-01  2.96532E-01  3.03747E-01  3.11138E-01  3.18708E-01
#           3.26462E-01  3.34405E-01  3.42542E-01  3.50876E-01  3.59413E-01
#           3.68158E-01  3.77116E-01  3.86291E-01  3.95690E-01  4.05317E-01
#           4.15179E-01  4.25281E-01  4.35628E-01  4.46227E-01  4.57084E-01
#           4.68205E-01  4.79597E-01  4.91266E-01  5.03219E-01  5.15463E-01
#           5.28005E-01  5.40851E-01  5.54011E-01  5.67490E-01  5.81298E-01
#           5.95441E-01  6.09929E-01  6.24769E-01  6.39970E-01  6.55541E-01
#           6.71491E-01  6.87828E-01  7.04564E-01  7.21706E-01  7.39266E-01
#           7.57253E-01  7.75678E-01  7.94551E-01  8.13883E-01  8.33685E-01
#           8.53969E-01  8.74747E-01  8.96030E-01  9.17831E-01  9.40163E-01
#           9.63038E-01  9.86469E-01  1.01047E+00  1.03506E+00  1.06024E+00
#           1.08604E+00  1.11246E+00  1.13953E+00  1.16725E+00  1.19565E+00
#           1.22474E+00  1.25454E+00  1.28507E+00  1.31633E+00  1.34836E+00
#           1.38117E+00  1.41477E+00  1.44920E+00  1.48446E+00  1.52057E+00
#           1.55757E+00  1.59547E+00  1.63429E+00  1.67405E+00  1.71478E+00
#           1.75650E+00  1.79924E+00  1.84302E+00  1.88786E+00  1.93379E+00
#           1.98084E+00  2.02904E+00  2.07841E+00  2.12898E+00  2.18078E+00
#           2.23384E+00  2.28819E+00  2.34386E+00  2.40089E+00  2.45930E+00
#           2.51914E+00  2.58043E+00  2.64322E+00  2.70753E+00  2.77341E+00
#           2.84088E+00  2.91001E+00  2.98081E+00  3.05333E+00  3.12762E+00
#           3.20372E+00  3.28167E+00  3.36152E+00  3.44330E+00  3.52708E+00
#           3.61290E+00  3.70080E+00  3.79085E+00  3.88308E+00  3.97756E+00
#           4.07434E+00  4.17347E+00  4.27501E+00  4.37903E+00  4.48557E+00
#           4.59471E+00  4.70650E+00  4.82102E+00  4.93832E+00  5.05847E+00
#           5.18155E+00  5.30762E+00  5.43676E+00  5.56904E+00  5.70453E+00
#           5.84333E+00  5.98550E+00  6.13114E+00  6.28031E+00  6.43312E+00
#           6.58964E+00  6.74997E+00  6.91420E+00  7.08243E+00  7.25475E+00
#           7.43126E+00  7.61207E+00  7.79728E+00  7.98700E+00  8.18133E+00
#           8.38038E+00  8.58428E+00  8.79315E+00  9.00709E+00  9.22624E+00
#           9.45072E+00  9.68067E+00  9.91620E+00  1.01575E+01  1.04046E+01
#           1.06578E+01  1.09171E+01  1.11827E+01  1.14548E+01  1.17335E+01
#           1.20190E+01  1.23114E+01  1.26109E+01  1.29178E+01  1.32321E+01
#           1.35540E+01  1.38838E+01  1.42216E+01  1.45676E+01  1.49221E+01
#           1.52851E+01  1.56570E+01  1.60380E+01  1.64282E+01  1.68279E+01
#           1.72374E+01  1.76568E+01  1.80864E+01  1.85264E+01  1.89772E+01
#           1.94389E+01  1.99119E+01  2.03963E+01  2.08926E+01  2.14009E+01
#           2.19216E+01  2.24550E+01  2.30014E+01  2.35610E+01  2.41343E+01
#           2.47215E+01  2.53230E+01  2.59391E+01  2.65702E+01  2.72167E+01
#           2.78789E+01  2.85572E+01  2.92520E+01  2.99637E+01  3.06928E+01
#           3.14396E+01  3.22045E+01  3.29881E+01  3.37907E+01  3.46128E+01
#           3.54550E+01  3.63177E+01  3.72013E+01  3.81064E+01  3.90336E+01
#           3.99833E+01  4.09561E+01  4.19526E+01  4.29734E+01  4.40189E+01
#           4.50900E+01  4.61870E+01  4.73108E+01  4.84619E+01  4.96410E+01
#           5.08488E+01  5.20860E+01  5.33533E+01  5.46514E+01  5.59812E+01
#           5.73432E+01  5.87384E+01  6.01676E+01  6.16315E+01  6.31311E+01
#           6.46671E+01  6.62405E+01  6.78522E+01  6.95031E+01  7.11941E+01
#           7.29263E+01  7.47007E+01  7.65182E+01  7.83800E+01  8.02870E+01
#           8.22405E+01  8.42414E+01  8.62911E+01  8.83906E+01  9.05412E+01
#           9.27442E+01  9.50007E+01  9.73122E+01  9.96799E+01  1.02105E+02
#           1.04589E+02  1.07134E+02  1.09741E+02  1.12411E+02  1.15146E+02
#           1.17948E+02  1.20817E+02  1.23757E+02  1.26768E+02  1.29852E+02
#           1.33012E+02  1.36248E+02  1.39563E+02  1.42959E+02  1.46437E+02
#           1.50000E+02
     unit =    2            # unit is [1/cm^2/(MeV/n)/source]
     axis =  eng            # axis of output
     file = detector-08.out  # file name of output for the above axis
   output = f-curr          # surface crossing forward current spectrum
     part =  neutron  
# kf/name :  2112     
#    used :        main (  %)        temp (  %)       total (  %)
#  memory :         414 (  0)           0 (  0)         414 (  0)

#------------------------------------------------------------------------------
#newpage:
#   no. =    1   reg = 107 - 207

x: Energy [MeV/n]
y:  F-Curr [1/cm^2/(MeV/n)/source]         
p: xlog ylog afac(0.8) form(0.9)
h: n            x            y(neutron ),hh0l   n 
#  e-lower      e-upper      neutron     r.err 
   1.0000E-02   1.0243E-02   5.3019E-04  0.0394
   1.0243E-02   1.0493E-02   5.1760E-04  0.0394
   1.0493E-02   1.0748E-02   5.0374E-04  0.0394
   1.0748E-02   1.1009E-02   5.2466E-04  0.0382
   1.1009E-02   1.1277E-02   5.3833E-04  0.0372
   1.1277E-02   1.1552E-02   5.1898E-04  0.0375
   1.1552E-02   1.1833E-02   5.2160E-04  0.0369
   1.1833E-02   1.2121E-02   5.2032E-04  0.0365
   1.2121E-02   1.2415E-02   5.0186E-04  0.0368
   1.2415E-02   1.2718E-02   5.3562E-04  0.0352
   1.2718E-02   1.3027E-02   5.2419E-04  0.0351
   1.3027E-02   1.3344E-02   5.2121E-04  0.0348
   1.3344E-02   1.3669E-02   5.1252E-04  0.0347
   1.3669E-02   1.4001E-02   5.1839E-04  0.0341
   1.4001E-02   1.4342E-02   5.2839E-04  0.0333
   1.4342E-02   1.4691E-02   5.3991E-04  0.0326
   1.4691E-02   1.5048E-02   5.6290E-04  0.0315
   1.5048E-02   1.5414E-02   5.3751E-04  0.0319
   1.5414E-02   1.5789E-02   5.4287E-04  0.0313
   1.5789E-02   1.6174E-02   5.3727E-04  0.0311
   1.6174E-02   1.6567E-02   5.3975E-04  0.0307
   1.6567E-02   1.6970E-02   5.2395E-04  0.0308
   1.6970E-02   1.7383E-02   5.5413E-04  0.0296
   1.7383E-02   1.7806E-02   5.4948E-04  0.0293
   1.7806E-02   1.8239E-02   5.2674E-04  0.0296
   1.8239E-02   1.8683E-02   5.3496E-04  0.0290
   1.8683E-02   1.9138E-02   5.2225E-04  0.0290
   1.9138E-02   1.9603E-02   5.6010E-04  0.0277
   1.9603E-02   2.0080E-02   5.6357E-04  0.0273
   2.0080E-02   2.0569E-02   5.4732E-04  0.0273
   2.0569E-02   2.1069E-02   5.7148E-04  0.0264
   2.1069E-02   2.1582E-02   5.4308E-04  0.0268
   2.1582E-02   2.2107E-02   5.3590E-04  0.0267
   2.2107E-02   2.2645E-02   5.5812E-04  0.0258
   2.2645E-02   2.3196E-02   5.3434E-04  0.0261
   2.3196E-02   2.3760E-02   5.4610E-04  0.0255
   2.3760E-02   2.4338E-02   5.4212E-04  0.0253
   2.4338E-02   2.4930E-02   5.5390E-04  0.0247
   2.4930E-02   2.5537E-02   5.4997E-04  0.0245
   2.5537E-02   2.6158E-02   5.7586E-04  0.0236
   2.6158E-02   2.6795E-02   5.4772E-04  0.0240
   2.6795E-02   2.7447E-02   5.6232E-04  0.0234
   2.7447E-02   2.8114E-02   5.3070E-04  0.0238
   2.8114E-02   2.8799E-02   5.6195E-04  0.0228
   2.8799E-02   2.9499E-02   5.4974E-04  0.0228
   2.9499E-02   3.0217E-02   5.9130E-04  0.0217
   3.0217E-02   3.0952E-02   5.5522E-04  0.0221
   3.0952E-02   3.1705E-02   5.7643E-04  0.0215
   3.1705E-02   3.2477E-02   5.5975E-04  0.0215
   3.2477E-02   3.3267E-02   5.4722E-04  0.0215
   3.3267E-02   3.4076E-02   5.8018E-04  0.0206
   3.4076E-02   3.4905E-02   5.7412E-04  0.0205
   3.4905E-02   3.5755E-02   5.7084E-04  0.0203
   3.5755E-02   3.6625E-02   5.6027E-04  0.0203
   3.6625E-02   3.7516E-02   5.7614E-04  0.0197
   3.7516E-02   3.8428E-02   5.8853E-04  0.0193
   3.8428E-02   3.9363E-02   6.0107E-04  0.0189
   3.9363E-02   4.0321E-02   5.7552E-04  0.0190
   4.0321E-02   4.1302E-02   5.5991E-04  0.0191
   4.1302E-02   4.2307E-02   5.7537E-04  0.0186
   4.2307E-02   4.3337E-02   5.7667E-04  0.0184
   4.3337E-02   4.4391E-02   5.8952E-04  0.0179
   4.4391E-02   4.5471E-02   5.7330E-04  0.0180
   4.5471E-02   4.6577E-02   5.8788E-04  0.0175
   4.6577E-02   4.7711E-02   5.9704E-04  0.0172
   4.7711E-02   4.8871E-02   5.8148E-04  0.0172
   4.8871E-02   5.0061E-02   5.7793E-04  0.0171
   5.0061E-02   5.1279E-02   5.7963E-04  0.0168
   5.1279E-02   5.2526E-02   5.8975E-04  0.0165
   5.2526E-02   5.3804E-02   5.8983E-04  0.0163
   5.3804E-02   5.5113E-02   5.8743E-04  0.0161
   5.5113E-02   5.6454E-02   5.9421E-04  0.0158
   5.6454E-02   5.7828E-02   5.9611E-04  0.0156
   5.7828E-02   5.9235E-02   5.9531E-04  0.0155
   5.9235E-02   6.0676E-02   6.0226E-04  0.0152
   6.0676E-02   6.2152E-02   5.8647E-04  0.0152
   6.2152E-02   6.3665E-02   6.2055E-04  0.0146
   6.3665E-02   6.5214E-02   6.0374E-04  0.0146
   6.5214E-02   6.6800E-02   5.9986E-04  0.0145
   6.6800E-02   6.8426E-02   6.0567E-04  0.0143
   6.8426E-02   7.0090E-02   6.0042E-04  0.0141
   7.0090E-02   7.1796E-02   6.1348E-04  0.0138
   7.1796E-02   7.3543E-02   6.0612E-04  0.0137
   7.3543E-02   7.5332E-02   6.0860E-04  0.0136
   7.5332E-02   7.7165E-02   6.0800E-04  0.0134
   7.7165E-02   7.9042E-02   6.0858E-04  0.0132
   7.9042E-02   8.0965E-02   5.9683E-04  0.0132
   8.0965E-02   8.2935E-02   6.0875E-04  0.0129
   8.2935E-02   8.4953E-02   5.9528E-04  0.0129
   8.4953E-02   8.7020E-02   6.0131E-04  0.0127
   8.7020E-02   8.9138E-02   6.1050E-04  0.0124
   8.9138E-02   9.1306E-02   6.2819E-04  0.0121
   9.1306E-02   9.3528E-02   6.2983E-04  0.0120
   9.3528E-02   9.5804E-02   5.9922E-04  0.0121
   9.5804E-02   9.8134E-02   6.1322E-04  0.0118
   9.8134E-02   1.0052E-01   6.1532E-04  0.0117
   1.0052E-01   1.0297E-01   6.1526E-04  0.0115
   1.0297E-01   1.0547E-01   6.1119E-04  0.0114
   1.0547E-01   1.0804E-01   6.4031E-04  0.0110
   1.0804E-01   1.1067E-01   6.3035E-04  0.0110
   1.1067E-01   1.1336E-01   6.4130E-04  0.0108
   1.1336E-01   1.1612E-01   6.3368E-04  0.0107
   1.1612E-01   1.1894E-01   6.4288E-04  0.0105
   1.1894E-01   1.2184E-01   6.5197E-04  0.0103
   1.2184E-01   1.2480E-01   6.4181E-04  0.0103
   1.2480E-01   1.2784E-01   6.3750E-04  0.0102
   1.2784E-01   1.3095E-01   6.4551E-04  0.0100
   1.3095E-01   1.3414E-01   6.5528E-04  0.0098
   1.3414E-01   1.3740E-01   6.6307E-04  0.0096
   1.3740E-01   1.4074E-01   6.6233E-04  0.0095
   1.4074E-01   1.4417E-01   6.5343E-04  0.0095
   1.4417E-01   1.4767E-01   6.6300E-04  0.0093
   1.4767E-01   1.5127E-01   6.6999E-04  0.0091
   1.5127E-01   1.5495E-01   6.6579E-04  0.0090
   1.5495E-01   1.5872E-01   6.7910E-04  0.0088
   1.5872E-01   1.6258E-01   6.7617E-04  0.0088
   1.6258E-01   1.6654E-01   6.8264E-04  0.0086
   1.6654E-01   1.7059E-01   6.7457E-04  0.0086
   1.7059E-01   1.7474E-01   6.9080E-04  0.0084
   1.7474E-01   1.7899E-01   6.9396E-04  0.0082
   1.7899E-01   1.8334E-01   6.9571E-04  0.0081
   1.8334E-01   1.8781E-01   6.8555E-04  0.0081
   1.8781E-01   1.9237E-01   7.1365E-04  0.0078
   1.9237E-01   1.9706E-01   6.9636E-04  0.0078
   1.9706E-01   2.0185E-01   7.0034E-04  0.0077
   2.0185E-01   2.0676E-01   7.1451E-04  0.0075
   2.0676E-01   2.1179E-01   7.1585E-04  0.0075
   2.1179E-01   2.1694E-01   7.1034E-04  0.0074
   2.1694E-01   2.2222E-01   7.2351E-04  0.0072
   2.2222E-01   2.2763E-01   7.1738E-04  0.0072
   2.2763E-01   2.3317E-01   7.3346E-04  0.0070
   2.3317E-01   2.3884E-01   7.3719E-04  0.0069
   2.3884E-01   2.4465E-01   7.4188E-04  0.0068
   2.4465E-01   2.5061E-01   7.3969E-04  0.0067
   2.5061E-01   2.5670E-01   7.4631E-04  0.0066
   2.5670E-01   2.6295E-01   7.4604E-04  0.0066
   2.6295E-01   2.6935E-01   7.6108E-04  0.0064
   2.6935E-01   2.7590E-01   7.6232E-04  0.0063
   2.7590E-01   2.8261E-01   7.4958E-04  0.0063
   2.8261E-01   2.8949E-01   7.6423E-04  0.0062
   2.8949E-01   2.9653E-01   7.7489E-04  0.0061
   2.9653E-01   3.0375E-01   7.6780E-04  0.0060
   3.0375E-01   3.1114E-01   7.7587E-04  0.0059
   3.1114E-01   3.1871E-01   7.7852E-04  0.0058
   3.1871E-01   3.2646E-01   7.8353E-04  0.0057
   3.2646E-01   3.3441E-01   7.8451E-04  0.0057
   3.3441E-01   3.4254E-01   7.9617E-04  0.0056
   3.4254E-01   3.5088E-01   7.9865E-04  0.0055
   3.5088E-01   3.5941E-01   7.9586E-04  0.0054
   3.5941E-01   3.6816E-01   8.0713E-04  0.0053
   3.6816E-01   3.7712E-01   8.0888E-04  0.0053
   3.7712E-01   3.8629E-01   8.1406E-04  0.0052
   3.8629E-01   3.9569E-01   8.2491E-04  0.0051
   3.9569E-01   4.0532E-01   8.1851E-04  0.0050
   4.0532E-01   4.1518E-01   8.1854E-04  0.0050
   4.1518E-01   4.2528E-01   8.2005E-04  0.0049
   4.2528E-01   4.3563E-01   8.2477E-04  0.0048
   4.3563E-01   4.4623E-01   8.3736E-04  0.0047
   4.4623E-01   4.5708E-01   8.3279E-04  0.0047
   4.5708E-01   4.6821E-01   8.4825E-04  0.0046
   4.6821E-01   4.7960E-01   8.4547E-04  0.0046
   4.7960E-01   4.9127E-01   8.5092E-04  0.0045
   4.9127E-01   5.0322E-01   8.5352E-04  0.0044
   5.0322E-01   5.1546E-01   8.5665E-04  0.0044
   5.1546E-01   5.2800E-01   8.5402E-04  0.0043
   5.2800E-01   5.4085E-01   8.5635E-04  0.0043
   5.4085E-01   5.5401E-01   8.6190E-04  0.0042
   5.5401E-01   5.6749E-01   8.5852E-04  0.0042
   5.6749E-01   5.8130E-01   8.6696E-04  0.0041
   5.8130E-01   5.9544E-01   8.6756E-04  0.0040
   5.9544E-01   6.0993E-01   8.6665E-04  0.0040
   6.0993E-01   6.2477E-01   8.7108E-04  0.0039
   6.2477E-01   6.3997E-01   8.6980E-04  0.0039
   6.3997E-01   6.5554E-01   8.7137E-04  0.0038
   6.5554E-01   6.7149E-01   8.6499E-04  0.0038
   6.7149E-01   6.8783E-01   8.7085E-04  0.0038
   6.8783E-01   7.0456E-01   8.7048E-04  0.0037
   7.0456E-01   7.2171E-01   8.6928E-04  0.0037
   7.2171E-01   7.3927E-01   8.5918E-04  0.0036
   7.3927E-01   7.5725E-01   8.5942E-04  0.0036
   7.5725E-01   7.7568E-01   8.5377E-04  0.0036
   7.7568E-01   7.9455E-01   8.4248E-04  0.0035
   7.9455E-01   8.1388E-01   8.4136E-04  0.0035
   8.1388E-01   8.3368E-01   8.3843E-04  0.0035
   8.3368E-01   8.5397E-01   8.3066E-04  0.0034
   8.5397E-01   8.7475E-01   8.1259E-04  0.0034
   8.7475E-01   8.9603E-01   8.0356E-04  0.0034
   8.9603E-01   9.1783E-01   7.8761E-04  0.0034
   9.1783E-01   9.4016E-01   7.7138E-04  0.0034
   9.4016E-01   9.6304E-01   7.4425E-04  0.0034
   9.6304E-01   9.8647E-01   7.2021E-04  0.0034
   9.8647E-01   1.0105E+00   6.9253E-04  0.0035
   1.0105E+00   1.0351E+00   6.8268E-04  0.0035
   1.0351E+00   1.0602E+00   6.8470E-04  0.0034
   1.0602E+00   1.0860E+00   6.7752E-04  0.0034
   1.0860E+00   1.1125E+00   6.7601E-04  0.0033
   1.1125E+00   1.1395E+00   6.7743E-04  0.0033
   1.1395E+00   1.1673E+00   6.8100E-04  0.0033
   1.1673E+00   1.1957E+00   6.8526E-04  0.0032
   1.1957E+00   1.2247E+00   6.8743E-04  0.0032
   1.2247E+00   1.2545E+00   6.8260E-04  0.0031
   1.2545E+00   1.2851E+00   6.7963E-04  0.0031
   1.2851E+00   1.3163E+00   6.7150E-04  0.0031
   1.3163E+00   1.3484E+00   6.7476E-04  0.0030
   1.3484E+00   1.3812E+00   6.7349E-04  0.0030
   1.3812E+00   1.4148E+00   6.6811E-04  0.0030
   1.4148E+00   1.4492E+00   6.6735E-04  0.0030
   1.4492E+00   1.4845E+00   6.5970E-04  0.0029
   1.4845E+00   1.5206E+00   6.4922E-04  0.0029
   1.5206E+00   1.5576E+00   6.3954E-04  0.0029
   1.5576E+00   1.5955E+00   6.3048E-04  0.0029
   1.5955E+00   1.6343E+00   6.2140E-04  0.0029
   1.6343E+00   1.6741E+00   6.1991E-04  0.0028
   1.6741E+00   1.7148E+00   6.1507E-04  0.0028
   1.7148E+00   1.7565E+00   6.0839E-04  0.0028
   1.7565E+00   1.7992E+00   5.9866E-04  0.0028
   1.7992E+00   1.8430E+00   5.8523E-04  0.0028
   1.8430E+00   1.8879E+00   5.7839E-04  0.0028
   1.8879E+00   1.9338E+00   5.6583E-04  0.0028
   1.9338E+00   1.9808E+00   5.5692E-04  0.0028
   1.9808E+00   2.0290E+00   5.5017E-04  0.0027
   2.0290E+00   2.0784E+00   5.3954E-04  0.0027
   2.0784E+00   2.1290E+00   5.2639E-04  0.0027
   2.1290E+00   2.1808E+00   5.1622E-04  0.0027
   2.1808E+00   2.2338E+00   5.0417E-04  0.0027
   2.2338E+00   2.2882E+00   4.9305E-04  0.0027
   2.2882E+00   2.3439E+00   4.8316E-04  0.0027
   2.3439E+00   2.4009E+00   4.7139E-04  0.0027
   2.4009E+00   2.4593E+00   4.6066E-04  0.0027
   2.4593E+00   2.5191E+00   4.5138E-04  0.0027
   2.5191E+00   2.5804E+00   4.3769E-04  0.0027
   2.5804E+00   2.6432E+00   4.2785E-04  0.0027
   2.6432E+00   2.7075E+00   4.1590E-04  0.0027
   2.7075E+00   2.7734E+00   4.0401E-04  0.0027
   2.7734E+00   2.8409E+00   3.9399E-04  0.0027
   2.8409E+00   2.9100E+00   3.8048E-04  0.0028
   2.9100E+00   2.9808E+00   3.7314E-04  0.0028
   2.9808E+00   3.0533E+00   3.6110E-04  0.0028
   3.0533E+00   3.1276E+00   3.5173E-04  0.0028
   3.1276E+00   3.2037E+00   3.4183E-04  0.0028
   3.2037E+00   3.2817E+00   3.3190E-04  0.0028
   3.2817E+00   3.3615E+00   3.2071E-04  0.0028
   3.3615E+00   3.4433E+00   3.1241E-04  0.0028
   3.4433E+00   3.5271E+00   3.0131E-04  0.0028
   3.5271E+00   3.6129E+00   2.9193E-04  0.0028
   3.6129E+00   3.7008E+00   2.8384E-04  0.0028
   3.7008E+00   3.7908E+00   2.7638E-04  0.0028
   3.7908E+00   3.8831E+00   2.6716E-04  0.0028
   3.8831E+00   3.9776E+00   2.5795E-04  0.0029
   3.9776E+00   4.0743E+00   2.5063E-04  0.0029
   4.0743E+00   4.1735E+00   2.4357E-04  0.0029
   4.1735E+00   4.2750E+00   2.3546E-04  0.0029
   4.2750E+00   4.3790E+00   2.2734E-04  0.0029
   4.3790E+00   4.4856E+00   2.2029E-04  0.0029
   4.4856E+00   4.5947E+00   2.1550E-04  0.0029
   4.5947E+00   4.7065E+00   2.0831E-04  0.0029
   4.7065E+00   4.8210E+00   2.0181E-04  0.0029
   4.8210E+00   4.9383E+00   1.9628E-04  0.0029
   4.9383E+00   5.0585E+00   1.9069E-04  0.0030
   5.0585E+00   5.1815E+00   1.8477E-04  0.0030
   5.1815E+00   5.3076E+00   1.7927E-04  0.0030
   5.3076E+00   5.4368E+00   1.7436E-04  0.0030
   5.4368E+00   5.5690E+00   1.6934E-04  0.0030
   5.5690E+00   5.7045E+00   1.6498E-04  0.0030
   5.7045E+00   5.8433E+00   1.6024E-04  0.0030
   5.8433E+00   5.9855E+00   1.5639E-04  0.0030
   5.9855E+00   6.1311E+00   1.5192E-04  0.0030
   6.1311E+00   6.2803E+00   1.4893E-04  0.0030
   6.2803E+00   6.4331E+00   1.4509E-04  0.0030
   6.4331E+00   6.5896E+00   1.4083E-04  0.0030
   6.5896E+00   6.7500E+00   1.3797E-04  0.0030
   6.7500E+00   6.9142E+00   1.3430E-04  0.0030
   6.9142E+00   7.0824E+00   1.3159E-04  0.0030
   7.0824E+00   7.2548E+00   1.2934E-04  0.0030
   7.2548E+00   7.4313E+00   1.2628E-04  0.0030
   7.4313E+00   7.6121E+00   1.2426E-04  0.0030
   7.6121E+00   7.7973E+00   1.2252E-04  0.0030
   7.7973E+00   7.9870E+00   1.1972E-04  0.0030
   7.9870E+00   8.1813E+00   1.1842E-04  0.0029
   8.1813E+00   8.3804E+00   1.1612E-04  0.0029
   8.3804E+00   8.5843E+00   1.1417E-04  0.0029
   8.5843E+00   8.7931E+00   1.1302E-04  0.0029
   8.7931E+00   9.0071E+00   1.1171E-04  0.0029
   9.0071E+00   9.2262E+00   1.0956E-04  0.0029
   9.2262E+00   9.4507E+00   1.0955E-04  0.0029
   9.4507E+00   9.6807E+00   1.0737E-04  0.0028
   9.6807E+00   9.9162E+00   1.0654E-04  0.0028
   9.9162E+00   1.0157E+01   1.0623E-04  0.0028
   1.0157E+01   1.0405E+01   1.0530E-04  0.0028
   1.0405E+01   1.0658E+01   1.0459E-04  0.0027
   1.0658E+01   1.0917E+01   1.0329E-04  0.0027
   1.0917E+01   1.1183E+01   1.0238E-04  0.0027
   1.1183E+01   1.1455E+01   1.0210E-04  0.0027
   1.1455E+01   1.1733E+01   1.0171E-04  0.0027
   1.1733E+01   1.2019E+01   1.0106E-04  0.0026
   1.2019E+01   1.2311E+01   1.0031E-04  0.0026
   1.2311E+01   1.2611E+01   1.0030E-04  0.0026
   1.2611E+01   1.2918E+01   9.9616E-05  0.0026
   1.2918E+01   1.3232E+01   9.9214E-05  0.0025
   1.3232E+01   1.3554E+01   9.8918E-05  0.0025
   1.3554E+01   1.3884E+01   9.8655E-05  0.0025
   1.3884E+01   1.4222E+01   9.7831E-05  0.0025
   1.4222E+01   1.4568E+01   9.7770E-05  0.0024
   1.4568E+01   1.4922E+01   9.7451E-05  0.0024
   1.4922E+01   1.5285E+01   9.6735E-05  0.0024
   1.5285E+01   1.5657E+01   9.6030E-05  0.0024
   1.5657E+01   1.6038E+01   9.5816E-05  0.0023
   1.6038E+01   1.6428E+01   9.5760E-05  0.0023
   1.6428E+01   1.6828E+01   9.5105E-05  0.0023
   1.6828E+01   1.7237E+01   9.4229E-05  0.0023
   1.7237E+01   1.7657E+01   9.3556E-05  0.0023
   1.7657E+01   1.8086E+01   9.3021E-05  0.0022
   1.8086E+01   1.8526E+01   9.2001E-05  0.0022
   1.8526E+01   1.8977E+01   9.1029E-05  0.0022
   1.8977E+01   1.9439E+01   9.0308E-05  0.0022
   1.9439E+01   1.9912E+01   8.9017E-05  0.0022
   1.9912E+01   2.0396E+01   8.7956E-05  0.0022
   2.0396E+01   2.0893E+01   8.7165E-05  0.0022
   2.0893E+01   2.1401E+01   8.5536E-05  0.0021
   2.1401E+01   2.1922E+01   8.4341E-05  0.0021
   2.1922E+01   2.2455E+01   8.3069E-05  0.0021
   2.2455E+01   2.3001E+01   8.1055E-05  0.0021
   2.3001E+01   2.3561E+01   7.9492E-05  0.0021
   2.3561E+01   2.4134E+01   7.7432E-05  0.0021
   2.4134E+01   2.4721E+01   7.5317E-05  0.0021
   2.4721E+01   2.5323E+01   7.2858E-05  0.0021
   2.5323E+01   2.5939E+01   7.0862E-05  0.0021
   2.5939E+01   2.6570E+01   6.8630E-05  0.0021
   2.6570E+01   2.7217E+01   6.6440E-05  0.0022
   2.7217E+01   2.7879E+01   6.3853E-05  0.0022
   2.7879E+01   2.8557E+01   6.1391E-05  0.0022
   2.8557E+01   2.9252E+01   5.8593E-05  0.0022
   2.9252E+01   2.9964E+01   5.6162E-05  0.0022
   2.9964E+01   3.0693E+01   5.3351E-05  0.0023
   3.0693E+01   3.1440E+01   5.0957E-05  0.0023
   3.1440E+01   3.2205E+01   4.8316E-05  0.0023
   3.2205E+01   3.2988E+01   4.5885E-05  0.0024
   3.2988E+01   3.3791E+01   4.3360E-05  0.0024
   3.3791E+01   3.4613E+01   4.0790E-05  0.0024
   3.4613E+01   3.5455E+01   3.8536E-05  0.0025
   3.5455E+01   3.6318E+01   3.6236E-05  0.0025
   3.6318E+01   3.7201E+01   3.3970E-05  0.0026
   3.7201E+01   3.8106E+01   3.1984E-05  0.0026
   3.8106E+01   3.9034E+01   2.9942E-05  0.0027
   3.9034E+01   3.9983E+01   2.8062E-05  0.0027
   3.9983E+01   4.0956E+01   2.6355E-05  0.0028
   4.0956E+01   4.1953E+01   2.4597E-05  0.0029
   4.1953E+01   4.2973E+01   2.2907E-05  0.0029
   4.2973E+01   4.4019E+01   2.1401E-05  0.0030
   4.4019E+01   4.5090E+01   1.9962E-05  0.0031
   4.5090E+01   4.6187E+01   1.8637E-05  0.0031
   4.6187E+01   4.7311E+01   1.7233E-05  0.0032
   4.7311E+01   4.8462E+01   1.6158E-05  0.0033
   4.8462E+01   4.9641E+01   1.5090E-05  0.0034
   4.9641E+01   5.0849E+01   1.3925E-05  0.0034
   5.0849E+01   5.2086E+01   1.2900E-05  0.0035
   5.2086E+01   5.3353E+01   1.1907E-05  0.0036
   5.3353E+01   5.4651E+01   1.1090E-05  0.0037
   5.4651E+01   5.5981E+01   1.0351E-05  0.0038
   5.5981E+01   5.7343E+01   9.6354E-06  0.0039
   5.7343E+01   5.8738E+01   8.9888E-06  0.0040
   5.8738E+01   6.0168E+01   8.4449E-06  0.0041
   6.0168E+01   6.1632E+01   7.7952E-06  0.0042
   6.1632E+01   6.3131E+01   7.2143E-06  0.0043
   6.3131E+01   6.4667E+01   6.9371E-06  0.0043
   6.4667E+01   6.6240E+01   6.4974E-06  0.0044
   6.6240E+01   6.7852E+01   6.1405E-06  0.0045
   6.7852E+01   6.9503E+01   5.7603E-06  0.0046
   6.9503E+01   7.1194E+01   5.0277E-06  0.0049
   7.1194E+01   7.2926E+01   4.2459E-06  0.0052
   7.2926E+01   7.4701E+01   3.4792E-06  0.0057
   7.4701E+01   7.6518E+01   2.8115E-06  0.0063
   7.6518E+01   7.8380E+01   2.2499E-06  0.0069
   7.8380E+01   8.0287E+01   1.6773E-06  0.0079
   8.0287E+01   8.2240E+01   1.0325E-06  0.0100
   8.2240E+01   8.4241E+01   4.6217E-07  0.0147
   8.4241E+01   8.6291E+01   5.4058E-08  0.0425
   8.6291E+01   8.8391E+01   0.0000E+00  0.0000
   8.8391E+01   9.0541E+01   0.0000E+00  0.0000
   9.0541E+01   9.2744E+01   0.0000E+00  0.0000
   9.2744E+01   9.5001E+01   0.0000E+00  0.0000
   9.5001E+01   9.7312E+01   0.0000E+00  0.0000
   9.7312E+01   9.9680E+01   0.0000E+00  0.0000
   9.9680E+01   1.0211E+02   0.0000E+00  0.0000
   1.0211E+02   1.0459E+02   0.0000E+00  0.0000
   1.0459E+02   1.0713E+02   0.0000E+00  0.0000
   1.0713E+02   1.0974E+02   0.0000E+00  0.0000
   1.0974E+02   1.1241E+02   0.0000E+00  0.0000
   1.1241E+02   1.1515E+02   0.0000E+00  0.0000
   1.1515E+02   1.1795E+02   0.0000E+00  0.0000
   1.1795E+02   1.2082E+02   0.0000E+00  0.0000
   1.2082E+02   1.2376E+02   0.0000E+00  0.0000
   1.2376E+02   1.2677E+02   0.0000E+00  0.0000
   1.2677E+02   1.2985E+02   0.0000E+00  0.0000
   1.2985E+02   1.3301E+02   0.0000E+00  0.0000
   1.3301E+02   1.3625E+02   0.0000E+00  0.0000
   1.3625E+02   1.3956E+02   0.0000E+00  0.0000
   1.3956E+02   1.4296E+02   0.0000E+00  0.0000
   1.4296E+02   1.4644E+02   0.0000E+00  0.0000
   1.4644E+02   1.5000E+02   0.0000E+00  0.0000

#   sum over                 3.6929E-05
'no. =    1   reg = 107 - 207'
msuc: {\huge [t-cross] in region mesh}
msdr: {\it plotted by \ANGEL \version}
msdl: {\it calculated by \PHITS  3.26}
wt: s(0.7)
\vspace{-3}
  region surface crossing
  area  &=&   1.0000E+00 [cm^2]
e:
 
# Information for Restart Calculation
# This calculation was newly started
# istdev =  2 # 1:Batch variance, 2:History variance
# resc2  = 5.00000000000000000E+09 # Total source weight or Total source weight / maxcas
# resc3  = 5.00000000000000000E+09 # Total history number or Total batch number
# maxcas =   500000000 # History / Batch, only used for istdev=1
# bitrseed = 0110100000100010111000001110001111001110100100011111101000111001 # bit data of rseed
