[ T-Cross ]
    title = [t-cross] in region mesh
     mesh =  reg            # mesh type is region-wise
      reg =    1            # number of crossing regions
      non     r-from    r-to       area
      1       114       214        1.000000    
   e-type =    3            # e-mesh is log given by emin, emax and ne
     emin =  1.0000000E-02  # minimum value of e-mesh points
     emax =   150.0000      # maximum value of e-mesh points
#    edel =  2.4039514E-02  # mesh width of e-mesh points
       ne =    400          # number of e-mesh points
#    data = ( e(i), i = 1, ne + 1 )
#           1.00000E-02  1.02433E-02  1.04925E-02  1.07478E-02  1.10093E-02
#           1.12772E-02  1.15516E-02  1.18326E-02  1.21205E-02  1.24154E-02
#           1.27175E-02  1.30269E-02  1.33439E-02  1.36686E-02  1.40011E-02
#           1.43418E-02  1.46907E-02  1.50482E-02  1.54143E-02  1.57894E-02
#           1.61735E-02  1.65670E-02  1.69701E-02  1.73830E-02  1.78060E-02
#           1.82392E-02  1.86830E-02  1.91375E-02  1.96032E-02  2.00801E-02
#           2.05687E-02  2.10692E-02  2.15818E-02  2.21069E-02  2.26448E-02
#           2.31957E-02  2.37601E-02  2.43382E-02  2.49304E-02  2.55369E-02
#           2.61583E-02  2.67947E-02  2.74467E-02  2.81145E-02  2.87985E-02
#           2.94992E-02  3.02169E-02  3.09521E-02  3.17052E-02  3.24766E-02
#           3.32668E-02  3.40762E-02  3.49053E-02  3.57546E-02  3.66246E-02
#           3.75157E-02  3.84284E-02  3.93634E-02  4.03212E-02  4.13022E-02
#           4.23071E-02  4.33365E-02  4.43909E-02  4.54710E-02  4.65773E-02
#           4.77106E-02  4.88714E-02  5.00605E-02  5.12785E-02  5.25262E-02
#           5.38042E-02  5.51133E-02  5.64542E-02  5.78278E-02  5.92348E-02
#           6.06760E-02  6.21523E-02  6.36645E-02  6.52135E-02  6.68002E-02
#           6.84255E-02  7.00904E-02  7.17957E-02  7.35426E-02  7.53319E-02
#           7.71648E-02  7.90423E-02  8.09655E-02  8.29354E-02  8.49533E-02
#           8.70203E-02  8.91376E-02  9.13064E-02  9.35279E-02  9.58035E-02
#           9.81345E-02  1.00522E-01  1.02968E-01  1.05473E-01  1.08040E-01
#           1.10668E-01  1.13361E-01  1.16119E-01  1.18944E-01  1.21838E-01
#           1.24803E-01  1.27839E-01  1.30950E-01  1.34136E-01  1.37399E-01
#           1.40742E-01  1.44167E-01  1.47675E-01  1.51268E-01  1.54948E-01
#           1.58718E-01  1.62580E-01  1.66535E-01  1.70587E-01  1.74738E-01
#           1.78989E-01  1.83344E-01  1.87805E-01  1.92375E-01  1.97055E-01
#           2.01850E-01  2.06761E-01  2.11792E-01  2.16945E-01  2.22223E-01
#           2.27630E-01  2.33169E-01  2.38842E-01  2.44653E-01  2.50605E-01
#           2.56703E-01  2.62949E-01  2.69346E-01  2.75900E-01  2.82613E-01
#           2.89489E-01  2.96532E-01  3.03747E-01  3.11138E-01  3.18708E-01
#           3.26462E-01  3.34405E-01  3.42542E-01  3.50876E-01  3.59413E-01
#           3.68158E-01  3.77116E-01  3.86291E-01  3.95690E-01  4.05317E-01
#           4.15179E-01  4.25281E-01  4.35628E-01  4.46227E-01  4.57084E-01
#           4.68205E-01  4.79597E-01  4.91266E-01  5.03219E-01  5.15463E-01
#           5.28005E-01  5.40851E-01  5.54011E-01  5.67490E-01  5.81298E-01
#           5.95441E-01  6.09929E-01  6.24769E-01  6.39970E-01  6.55541E-01
#           6.71491E-01  6.87828E-01  7.04564E-01  7.21706E-01  7.39266E-01
#           7.57253E-01  7.75678E-01  7.94551E-01  8.13883E-01  8.33685E-01
#           8.53969E-01  8.74747E-01  8.96030E-01  9.17831E-01  9.40163E-01
#           9.63038E-01  9.86469E-01  1.01047E+00  1.03506E+00  1.06024E+00
#           1.08604E+00  1.11246E+00  1.13953E+00  1.16725E+00  1.19565E+00
#           1.22474E+00  1.25454E+00  1.28507E+00  1.31633E+00  1.34836E+00
#           1.38117E+00  1.41477E+00  1.44920E+00  1.48446E+00  1.52057E+00
#           1.55757E+00  1.59547E+00  1.63429E+00  1.67405E+00  1.71478E+00
#           1.75650E+00  1.79924E+00  1.84302E+00  1.88786E+00  1.93379E+00
#           1.98084E+00  2.02904E+00  2.07841E+00  2.12898E+00  2.18078E+00
#           2.23384E+00  2.28819E+00  2.34386E+00  2.40089E+00  2.45930E+00
#           2.51914E+00  2.58043E+00  2.64322E+00  2.70753E+00  2.77341E+00
#           2.84088E+00  2.91001E+00  2.98081E+00  3.05333E+00  3.12762E+00
#           3.20372E+00  3.28167E+00  3.36152E+00  3.44330E+00  3.52708E+00
#           3.61290E+00  3.70080E+00  3.79085E+00  3.88308E+00  3.97756E+00
#           4.07434E+00  4.17347E+00  4.27501E+00  4.37903E+00  4.48557E+00
#           4.59471E+00  4.70650E+00  4.82102E+00  4.93832E+00  5.05847E+00
#           5.18155E+00  5.30762E+00  5.43676E+00  5.56904E+00  5.70453E+00
#           5.84333E+00  5.98550E+00  6.13114E+00  6.28031E+00  6.43312E+00
#           6.58964E+00  6.74997E+00  6.91420E+00  7.08243E+00  7.25475E+00
#           7.43126E+00  7.61207E+00  7.79728E+00  7.98700E+00  8.18133E+00
#           8.38038E+00  8.58428E+00  8.79315E+00  9.00709E+00  9.22624E+00
#           9.45072E+00  9.68067E+00  9.91620E+00  1.01575E+01  1.04046E+01
#           1.06578E+01  1.09171E+01  1.11827E+01  1.14548E+01  1.17335E+01
#           1.20190E+01  1.23114E+01  1.26109E+01  1.29178E+01  1.32321E+01
#           1.35540E+01  1.38838E+01  1.42216E+01  1.45676E+01  1.49221E+01
#           1.52851E+01  1.56570E+01  1.60380E+01  1.64282E+01  1.68279E+01
#           1.72374E+01  1.76568E+01  1.80864E+01  1.85264E+01  1.89772E+01
#           1.94389E+01  1.99119E+01  2.03963E+01  2.08926E+01  2.14009E+01
#           2.19216E+01  2.24550E+01  2.30014E+01  2.35610E+01  2.41343E+01
#           2.47215E+01  2.53230E+01  2.59391E+01  2.65702E+01  2.72167E+01
#           2.78789E+01  2.85572E+01  2.92520E+01  2.99637E+01  3.06928E+01
#           3.14396E+01  3.22045E+01  3.29881E+01  3.37907E+01  3.46128E+01
#           3.54550E+01  3.63177E+01  3.72013E+01  3.81064E+01  3.90336E+01
#           3.99833E+01  4.09561E+01  4.19526E+01  4.29734E+01  4.40189E+01
#           4.50900E+01  4.61870E+01  4.73108E+01  4.84619E+01  4.96410E+01
#           5.08488E+01  5.20860E+01  5.33533E+01  5.46514E+01  5.59812E+01
#           5.73432E+01  5.87384E+01  6.01676E+01  6.16315E+01  6.31311E+01
#           6.46671E+01  6.62405E+01  6.78522E+01  6.95031E+01  7.11941E+01
#           7.29263E+01  7.47007E+01  7.65182E+01  7.83800E+01  8.02870E+01
#           8.22405E+01  8.42414E+01  8.62911E+01  8.83906E+01  9.05412E+01
#           9.27442E+01  9.50007E+01  9.73122E+01  9.96799E+01  1.02105E+02
#           1.04589E+02  1.07134E+02  1.09741E+02  1.12411E+02  1.15146E+02
#           1.17948E+02  1.20817E+02  1.23757E+02  1.26768E+02  1.29852E+02
#           1.33012E+02  1.36248E+02  1.39563E+02  1.42959E+02  1.46437E+02
#           1.50000E+02
     unit =    2            # unit is [1/cm^2/(MeV/n)/source]
     axis =  eng            # axis of output
     file = detector-15.out  # file name of output for the above axis
   output = f-curr          # surface crossing forward current spectrum
     part =  neutron  
# kf/name :  2112     
#    used :        main (  %)        temp (  %)       total (  %)
#  memory :         414 (  0)           0 (  0)         414 (  0)

#------------------------------------------------------------------------------
#newpage:
#   no. =    1   reg = 114 - 214

x: Energy [MeV/n]
y:  F-Curr [1/cm^2/(MeV/n)/source]         
p: xlog ylog afac(0.8) form(0.9)
h: n            x            y(neutron ),hh0l   n 
#  e-lower      e-upper      neutron     r.err 
   1.0000E-02   1.0243E-02   4.8671E-04  0.0410
   1.0243E-02   1.0493E-02   4.8385E-04  0.0405
   1.0493E-02   1.0748E-02   4.8129E-04  0.0402
   1.0748E-02   1.1009E-02   4.5529E-04  0.0408
   1.1009E-02   1.1277E-02   4.4429E-04  0.0408
   1.1277E-02   1.1552E-02   4.5169E-04  0.0400
   1.1552E-02   1.1833E-02   4.2830E-04  0.0406
   1.1833E-02   1.2121E-02   4.1314E-04  0.0409
   1.2121E-02   1.2415E-02   3.9392E-04  0.0413
   1.2415E-02   1.2718E-02   4.2115E-04  0.0395
   1.2718E-02   1.3027E-02   3.7603E-04  0.0413
   1.3027E-02   1.3344E-02   3.9483E-04  0.0398
   1.3344E-02   1.3669E-02   4.0724E-04  0.0388
   1.3669E-02   1.4001E-02   3.9701E-04  0.0388
   1.4001E-02   1.4342E-02   3.7880E-04  0.0392
   1.4342E-02   1.4691E-02   3.7920E-04  0.0387
   1.4691E-02   1.5048E-02   3.4626E-04  0.0400
   1.5048E-02   1.5414E-02   3.6182E-04  0.0387
   1.5414E-02   1.5789E-02   3.4200E-04  0.0393
   1.5789E-02   1.6174E-02   3.2184E-04  0.0400
   1.6174E-02   1.6567E-02   3.2662E-04  0.0392
   1.6567E-02   1.6970E-02   3.0897E-04  0.0399
   1.6970E-02   1.7383E-02   2.9225E-04  0.0406
   1.7383E-02   1.7806E-02   2.9731E-04  0.0397
   1.7806E-02   1.8239E-02   2.9974E-04  0.0391
   1.8239E-02   1.8683E-02   2.7754E-04  0.0401
   1.8683E-02   1.9138E-02   3.0122E-04  0.0381
   1.9138E-02   1.9603E-02   2.7403E-04  0.0395
   1.9603E-02   2.0080E-02   2.7497E-04  0.0389
   2.0080E-02   2.0569E-02   2.7594E-04  0.0384
   2.0569E-02   2.1069E-02   2.6571E-04  0.0386
   2.1069E-02   2.1582E-02   2.7834E-04  0.0373
   2.1582E-02   2.2107E-02   2.4880E-04  0.0390
   2.2107E-02   2.2645E-02   2.4050E-04  0.0391
   2.2645E-02   2.3196E-02   2.3096E-04  0.0395
   2.3196E-02   2.3760E-02   2.3379E-04  0.0388
   2.3760E-02   2.4338E-02   2.4484E-04  0.0375
   2.4338E-02   2.4930E-02   2.3477E-04  0.0378
   2.4930E-02   2.5537E-02   2.2069E-04  0.0385
   2.5537E-02   2.6158E-02   2.2833E-04  0.0374
   2.6158E-02   2.6795E-02   2.1289E-04  0.0383
   2.6795E-02   2.7447E-02   1.9880E-04  0.0391
   2.7447E-02   2.8114E-02   2.1215E-04  0.0374
   2.8114E-02   2.8799E-02   1.9849E-04  0.0383
   2.8799E-02   2.9499E-02   2.0378E-04  0.0373
   2.9499E-02   3.0217E-02   1.9895E-04  0.0373
   3.0217E-02   3.0952E-02   1.8919E-04  0.0377
   3.0952E-02   3.1705E-02   1.9214E-04  0.0371
   3.1705E-02   3.2477E-02   1.7838E-04  0.0380
   3.2477E-02   3.3267E-02   1.7968E-04  0.0374
   3.3267E-02   3.4076E-02   1.7524E-04  0.0374
   3.4076E-02   3.4905E-02   1.6955E-04  0.0376
   3.4905E-02   3.5755E-02   1.6986E-04  0.0371
   3.5755E-02   3.6625E-02   1.7311E-04  0.0363
   3.6625E-02   3.7516E-02   1.5789E-04  0.0376
   3.7516E-02   3.8428E-02   1.6947E-04  0.0358
   3.8428E-02   3.9363E-02   1.5330E-04  0.0372
   3.9363E-02   4.0321E-02   1.5719E-04  0.0364
   4.0321E-02   4.1302E-02   1.4964E-04  0.0368
   4.1302E-02   4.2307E-02   1.5009E-04  0.0363
   4.2307E-02   4.3337E-02   1.4120E-04  0.0369
   4.3337E-02   4.4391E-02   1.3662E-04  0.0371
   4.4391E-02   4.5471E-02   1.3996E-04  0.0363
   4.5471E-02   4.6577E-02   1.3604E-04  0.0363
   4.6577E-02   4.7711E-02   1.2989E-04  0.0367
   4.7711E-02   4.8871E-02   1.2697E-04  0.0367
   4.8871E-02   5.0061E-02   1.2441E-04  0.0366
   5.0061E-02   5.1279E-02   1.2593E-04  0.0360
   5.1279E-02   5.2526E-02   1.2033E-04  0.0364
   5.2526E-02   5.3804E-02   1.2094E-04  0.0359
   5.3804E-02   5.5113E-02   1.1751E-04  0.0360
   5.5113E-02   5.6454E-02   1.1007E-04  0.0366
   5.6454E-02   5.7828E-02   1.0702E-04  0.0368
   5.7828E-02   5.9235E-02   1.1216E-04  0.0355
   5.9235E-02   6.0676E-02   1.0468E-04  0.0363
   6.0676E-02   6.2152E-02   1.0703E-04  0.0354
   6.2152E-02   6.3665E-02   1.0277E-04  0.0357
   6.3665E-02   6.5214E-02   9.8993E-05  0.0360
   6.5214E-02   6.6800E-02   9.5094E-05  0.0363
   6.6800E-02   6.8426E-02   1.0041E-04  0.0349
   6.8426E-02   7.0090E-02   9.7522E-05  0.0350
   7.0090E-02   7.1796E-02   9.3806E-05  0.0353
   7.1796E-02   7.3543E-02   9.3672E-05  0.0349
   7.3543E-02   7.5332E-02   9.2095E-05  0.0347
   7.5332E-02   7.7165E-02   8.3349E-05  0.0361
   7.7165E-02   7.9042E-02   8.6299E-05  0.0350
   7.9042E-02   8.0965E-02   8.4150E-05  0.0351
   8.0965E-02   8.2935E-02   8.2910E-05  0.0349
   8.2935E-02   8.4953E-02   8.0186E-05  0.0350
   8.4953E-02   8.7020E-02   7.3920E-05  0.0361
   8.7020E-02   8.9138E-02   7.5264E-05  0.0353
   8.9138E-02   9.1306E-02   7.4815E-05  0.0350
   9.1306E-02   9.3528E-02   7.5207E-05  0.0345
   9.3528E-02   9.5804E-02   7.1897E-05  0.0349
   9.5804E-02   9.8134E-02   7.2262E-05  0.0343
   9.8134E-02   1.0052E-01   6.4045E-05  0.0360
   1.0052E-01   1.0297E-01   7.0321E-05  0.0339
   1.0297E-01   1.0547E-01   6.4964E-05  0.0349
   1.0547E-01   1.0804E-01   6.1956E-05  0.0353
   1.0804E-01   1.1067E-01   6.3795E-05  0.0344
   1.1067E-01   1.1336E-01   6.0610E-05  0.0349
   1.1336E-01   1.1612E-01   6.0565E-05  0.0344
   1.1612E-01   1.1894E-01   5.7122E-05  0.0351
   1.1894E-01   1.2184E-01   5.8517E-05  0.0342
   1.2184E-01   1.2480E-01   5.3799E-05  0.0352
   1.2480E-01   1.2784E-01   5.2773E-05  0.0352
   1.2784E-01   1.3095E-01   5.3132E-05  0.0347
   1.3095E-01   1.3414E-01   5.1100E-05  0.0349
   1.3414E-01   1.3740E-01   5.3961E-05  0.0335
   1.3740E-01   1.4074E-01   5.0078E-05  0.0344
   1.4074E-01   1.4417E-01   5.2282E-05  0.0333
   1.4417E-01   1.4767E-01   5.0008E-05  0.0337
   1.4767E-01   1.5127E-01   5.0996E-05  0.0329
   1.5127E-01   1.5495E-01   4.6565E-05  0.0340
   1.5495E-01   1.5872E-01   4.6707E-05  0.0336
   1.5872E-01   1.6258E-01   4.5347E-05  0.0336
   1.6258E-01   1.6654E-01   4.6212E-05  0.0330
   1.6654E-01   1.7059E-01   4.2662E-05  0.0339
   1.7059E-01   1.7474E-01   4.1843E-05  0.0337
   1.7474E-01   1.7899E-01   4.1677E-05  0.0335
   1.7899E-01   1.8334E-01   4.2474E-05  0.0328
   1.8334E-01   1.8781E-01   4.0591E-05  0.0331
   1.8781E-01   1.9237E-01   3.8046E-05  0.0338
   1.9237E-01   1.9706E-01   4.0518E-05  0.0324
   1.9706E-01   2.0185E-01   3.6693E-05  0.0336
   2.0185E-01   2.0676E-01   3.8946E-05  0.0322
   2.0676E-01   2.1179E-01   3.8442E-05  0.0320
   2.1179E-01   2.1694E-01   4.0990E-05  0.0307
   2.1694E-01   2.2222E-01   4.3694E-05  0.0293
   2.2222E-01   2.2763E-01   4.6791E-05  0.0280
   2.2763E-01   2.3317E-01   4.6361E-05  0.0278
   2.3317E-01   2.3884E-01   4.7497E-05  0.0272
   2.3884E-01   2.4465E-01   5.0397E-05  0.0260
   2.4465E-01   2.5061E-01   4.9671E-05  0.0259
   2.5061E-01   2.5670E-01   5.2257E-05  0.0250
   2.5670E-01   2.6295E-01   5.4096E-05  0.0242
   2.6295E-01   2.6935E-01   5.3299E-05  0.0241
   2.6935E-01   2.7590E-01   5.7119E-05  0.0230
   2.7590E-01   2.8261E-01   5.7745E-05  0.0226
   2.8261E-01   2.8949E-01   6.1375E-05  0.0217
   2.8949E-01   2.9653E-01   6.1476E-05  0.0214
   2.9653E-01   3.0375E-01   6.4330E-05  0.0207
   3.0375E-01   3.1114E-01   6.6531E-05  0.0201
   3.1114E-01   3.1871E-01   6.5484E-05  0.0200
   3.1871E-01   3.2646E-01   6.8379E-05  0.0193
   3.2646E-01   3.3441E-01   7.3932E-05  0.0184
   3.3441E-01   3.4254E-01   7.3553E-05  0.0182
   3.4254E-01   3.5088E-01   7.5481E-05  0.0178
   3.5088E-01   3.5941E-01   7.9003E-05  0.0171
   3.5941E-01   3.6816E-01   8.1357E-05  0.0167
   3.6816E-01   3.7712E-01   8.5307E-05  0.0161
   3.7712E-01   3.8629E-01   8.6194E-05  0.0158
   3.8629E-01   3.9569E-01   8.8634E-05  0.0154
   3.9569E-01   4.0532E-01   9.1122E-05  0.0150
   4.0532E-01   4.1518E-01   9.2839E-05  0.0147
   4.1518E-01   4.2528E-01   9.5532E-05  0.0143
   4.2528E-01   4.3563E-01   9.7999E-05  0.0140
   4.3563E-01   4.4623E-01   9.9329E-05  0.0137
   4.4623E-01   4.5708E-01   1.0317E-04  0.0133
   4.5708E-01   4.6821E-01   1.0561E-04  0.0130
   4.6821E-01   4.7960E-01   1.0937E-04  0.0126
   4.7960E-01   4.9127E-01   1.0934E-04  0.0125
   4.9127E-01   5.0322E-01   1.1608E-04  0.0119
   5.0322E-01   5.1546E-01   1.1892E-04  0.0117
   5.1546E-01   5.2800E-01   1.2229E-04  0.0114
   5.2800E-01   5.4085E-01   1.2458E-04  0.0111
   5.4085E-01   5.5401E-01   1.2658E-04  0.0109
   5.5401E-01   5.6749E-01   1.2954E-04  0.0106
   5.6749E-01   5.8130E-01   1.3588E-04  0.0103
   5.8130E-01   5.9544E-01   1.3875E-04  0.0100
   5.9544E-01   6.0993E-01   1.4220E-04  0.0098
   6.0993E-01   6.2477E-01   1.4802E-04  0.0095
   6.2477E-01   6.3997E-01   1.4956E-04  0.0093
   6.3997E-01   6.5554E-01   1.5424E-04  0.0091
   6.5554E-01   6.7149E-01   1.5986E-04  0.0088
   6.7149E-01   6.8783E-01   1.6052E-04  0.0087
   6.8783E-01   7.0456E-01   1.6766E-04  0.0084
   7.0456E-01   7.2171E-01   1.6923E-04  0.0083
   7.2171E-01   7.3927E-01   1.7305E-04  0.0081
   7.3927E-01   7.5725E-01   1.8298E-04  0.0078
   7.5725E-01   7.7568E-01   1.8542E-04  0.0076
   7.7568E-01   7.9455E-01   1.9095E-04  0.0074
   7.9455E-01   8.1388E-01   1.9513E-04  0.0072
   8.1388E-01   8.3368E-01   2.0122E-04  0.0070
   8.3368E-01   8.5397E-01   2.0730E-04  0.0069
   8.5397E-01   8.7475E-01   2.0980E-04  0.0067
   8.7475E-01   8.9603E-01   2.1689E-04  0.0065
   8.9603E-01   9.1783E-01   2.2378E-04  0.0064
   9.1783E-01   9.4016E-01   2.3208E-04  0.0062
   9.4016E-01   9.6304E-01   2.3622E-04  0.0061
   9.6304E-01   9.8647E-01   2.4084E-04  0.0059
   9.8647E-01   1.0105E+00   2.4699E-04  0.0058
   1.0105E+00   1.0351E+00   2.5218E-04  0.0056
   1.0351E+00   1.0602E+00   2.5368E-04  0.0056
   1.0602E+00   1.0860E+00   2.5904E-04  0.0054
   1.0860E+00   1.1125E+00   2.6122E-04  0.0054
   1.1125E+00   1.1395E+00   2.6520E-04  0.0052
   1.1395E+00   1.1673E+00   2.7178E-04  0.0051
   1.1673E+00   1.1957E+00   2.8041E-04  0.0050
   1.1957E+00   1.2247E+00   2.8894E-04  0.0048
   1.2247E+00   1.2545E+00   2.8704E-04  0.0048
   1.2545E+00   1.2851E+00   2.9186E-04  0.0047
   1.2851E+00   1.3163E+00   2.9501E-04  0.0046
   1.3163E+00   1.3484E+00   3.0203E-04  0.0045
   1.3484E+00   1.3812E+00   3.0655E-04  0.0044
   1.3812E+00   1.4148E+00   3.1363E-04  0.0043
   1.4148E+00   1.4492E+00   3.1679E-04  0.0043
   1.4492E+00   1.4845E+00   3.2538E-04  0.0041
   1.4845E+00   1.5206E+00   3.2977E-04  0.0041
   1.5206E+00   1.5576E+00   3.3121E-04  0.0040
   1.5576E+00   1.5955E+00   3.3013E-04  0.0040
   1.5955E+00   1.6343E+00   3.2867E-04  0.0039
   1.6343E+00   1.6741E+00   3.3034E-04  0.0039
   1.6741E+00   1.7148E+00   3.3199E-04  0.0038
   1.7148E+00   1.7565E+00   3.3374E-04  0.0038
   1.7565E+00   1.7992E+00   3.3485E-04  0.0037
   1.7992E+00   1.8430E+00   3.4099E-04  0.0036
   1.8430E+00   1.8879E+00   3.3975E-04  0.0036
   1.8879E+00   1.9338E+00   3.4059E-04  0.0036
   1.9338E+00   1.9808E+00   3.4183E-04  0.0035
   1.9808E+00   2.0290E+00   3.4225E-04  0.0035
   2.0290E+00   2.0784E+00   3.4216E-04  0.0034
   2.0784E+00   2.1290E+00   3.3695E-04  0.0034
   2.1290E+00   2.1808E+00   3.3263E-04  0.0034
   2.1808E+00   2.2338E+00   3.2785E-04  0.0034
   2.2338E+00   2.2882E+00   3.2607E-04  0.0033
   2.2882E+00   2.3439E+00   3.2411E-04  0.0033
   2.3439E+00   2.4009E+00   3.2278E-04  0.0033
   2.4009E+00   2.4593E+00   3.2236E-04  0.0032
   2.4593E+00   2.5191E+00   3.2176E-04  0.0032
   2.5191E+00   2.5804E+00   3.1810E-04  0.0032
   2.5804E+00   2.6432E+00   3.1567E-04  0.0032
   2.6432E+00   2.7075E+00   3.1066E-04  0.0031
   2.7075E+00   2.7734E+00   3.0484E-04  0.0031
   2.7734E+00   2.8409E+00   3.0001E-04  0.0031
   2.8409E+00   2.9100E+00   2.9549E-04  0.0031
   2.9100E+00   2.9808E+00   2.9022E-04  0.0031
   2.9808E+00   3.0533E+00   2.8916E-04  0.0031
   3.0533E+00   3.1276E+00   2.8327E-04  0.0031
   3.1276E+00   3.2037E+00   2.7603E-04  0.0031
   3.2037E+00   3.2817E+00   2.7023E-04  0.0031
   3.2817E+00   3.3615E+00   2.6444E-04  0.0031
   3.3615E+00   3.4433E+00   2.5785E-04  0.0031
   3.4433E+00   3.5271E+00   2.5459E-04  0.0030
   3.5271E+00   3.6129E+00   2.5081E-04  0.0030
   3.6129E+00   3.7008E+00   2.4342E-04  0.0030
   3.7008E+00   3.7908E+00   2.3714E-04  0.0030
   3.7908E+00   3.8831E+00   2.3279E-04  0.0030
   3.8831E+00   3.9776E+00   2.2716E-04  0.0030
   3.9776E+00   4.0743E+00   2.2237E-04  0.0030
   4.0743E+00   4.1735E+00   2.1672E-04  0.0030
   4.1735E+00   4.2750E+00   2.1148E-04  0.0030
   4.2750E+00   4.3790E+00   2.0795E-04  0.0030
   4.3790E+00   4.4856E+00   2.0358E-04  0.0030
   4.4856E+00   4.5947E+00   1.9936E-04  0.0030
   4.5947E+00   4.7065E+00   1.9476E-04  0.0030
   4.7065E+00   4.8210E+00   1.9236E-04  0.0030
   4.8210E+00   4.9383E+00   1.8995E-04  0.0030
   4.9383E+00   5.0585E+00   1.8985E-04  0.0029
   5.0585E+00   5.1815E+00   1.8883E-04  0.0029
   5.1815E+00   5.3076E+00   1.8527E-04  0.0029
   5.3076E+00   5.4368E+00   1.8066E-04  0.0029
   5.4368E+00   5.5690E+00   1.7684E-04  0.0029
   5.5690E+00   5.7045E+00   1.7226E-04  0.0029
   5.7045E+00   5.8433E+00   1.6783E-04  0.0029
   5.8433E+00   5.9855E+00   1.6406E-04  0.0029
   5.9855E+00   6.1311E+00   1.6086E-04  0.0029
   6.1311E+00   6.2803E+00   1.5563E-04  0.0029
   6.2803E+00   6.4331E+00   1.5221E-04  0.0029
   6.4331E+00   6.5896E+00   1.4820E-04  0.0029
   6.5896E+00   6.7500E+00   1.4409E-04  0.0029
   6.7500E+00   6.9142E+00   1.3980E-04  0.0029
   6.9142E+00   7.0824E+00   1.3654E-04  0.0029
   7.0824E+00   7.2548E+00   1.3252E-04  0.0029
   7.2548E+00   7.4313E+00   1.2875E-04  0.0030
   7.4313E+00   7.6121E+00   1.2541E-04  0.0030
   7.6121E+00   7.7973E+00   1.2155E-04  0.0030
   7.7973E+00   7.9870E+00   1.1877E-04  0.0030
   7.9870E+00   8.1813E+00   1.1470E-04  0.0030
   8.1813E+00   8.3804E+00   1.1210E-04  0.0030
   8.3804E+00   8.5843E+00   1.0859E-04  0.0030
   8.5843E+00   8.7931E+00   1.0538E-04  0.0030
   8.7931E+00   9.0071E+00   1.0241E-04  0.0030
   9.0071E+00   9.2262E+00   9.9291E-05  0.0030
   9.2262E+00   9.4507E+00   9.5528E-05  0.0030
   9.4507E+00   9.6807E+00   9.2361E-05  0.0031
   9.6807E+00   9.9162E+00   8.8868E-05  0.0031
   9.9162E+00   1.0157E+01   8.5923E-05  0.0031
   1.0157E+01   1.0405E+01   8.3190E-05  0.0031
   1.0405E+01   1.0658E+01   8.0331E-05  0.0031
   1.0658E+01   1.0917E+01   7.7162E-05  0.0032
   1.0917E+01   1.1183E+01   7.4351E-05  0.0032
   1.1183E+01   1.1455E+01   7.1627E-05  0.0032
   1.1455E+01   1.1733E+01   6.9678E-05  0.0032
   1.1733E+01   1.2019E+01   6.6497E-05  0.0032
   1.2019E+01   1.2311E+01   6.4031E-05  0.0033
   1.2311E+01   1.2611E+01   6.1175E-05  0.0033
   1.2611E+01   1.2918E+01   5.9026E-05  0.0033
   1.2918E+01   1.3232E+01   5.6578E-05  0.0034
   1.3232E+01   1.3554E+01   5.3912E-05  0.0034
   1.3554E+01   1.3884E+01   5.2157E-05  0.0034
   1.3884E+01   1.4222E+01   4.9646E-05  0.0035
   1.4222E+01   1.4568E+01   4.7467E-05  0.0035
   1.4568E+01   1.4922E+01   4.5178E-05  0.0035
   1.4922E+01   1.5285E+01   4.3317E-05  0.0036
   1.5285E+01   1.5657E+01   4.1004E-05  0.0036
   1.5657E+01   1.6038E+01   3.9335E-05  0.0037
   1.6038E+01   1.6428E+01   3.7391E-05  0.0037
   1.6428E+01   1.6828E+01   3.5493E-05  0.0038
   1.6828E+01   1.7237E+01   3.3592E-05  0.0038
   1.7237E+01   1.7657E+01   3.1744E-05  0.0039
   1.7657E+01   1.8086E+01   3.0203E-05  0.0039
   1.8086E+01   1.8526E+01   2.8665E-05  0.0040
   1.8526E+01   1.8977E+01   2.7047E-05  0.0041
   1.8977E+01   1.9439E+01   2.6121E-05  0.0041
   1.9439E+01   1.9912E+01   2.5472E-05  0.0041
   1.9912E+01   2.0396E+01   2.4337E-05  0.0041
   2.0396E+01   2.0893E+01   2.3113E-05  0.0042
   2.0893E+01   2.1401E+01   2.1777E-05  0.0043
   2.1401E+01   2.1922E+01   2.0389E-05  0.0043
   2.1922E+01   2.2455E+01   1.9033E-05  0.0044
   2.2455E+01   2.3001E+01   1.7687E-05  0.0045
   2.3001E+01   2.3561E+01   1.6498E-05  0.0047
   2.3561E+01   2.4134E+01   1.5443E-05  0.0048
   2.4134E+01   2.4721E+01   1.4277E-05  0.0049
   2.4721E+01   2.5323E+01   1.3152E-05  0.0050
   2.5323E+01   2.5939E+01   1.2308E-05  0.0051
   2.5939E+01   2.6570E+01   1.1119E-05  0.0053
   2.6570E+01   2.7217E+01   1.0340E-05  0.0055
   2.7217E+01   2.7879E+01   9.3754E-06  0.0057
   2.7879E+01   2.8557E+01   8.5553E-06  0.0059
   2.8557E+01   2.9252E+01   7.7099E-06  0.0061
   2.9252E+01   2.9964E+01   7.0114E-06  0.0063
   2.9964E+01   3.0693E+01   6.2965E-06  0.0066
   3.0693E+01   3.1440E+01   5.6250E-06  0.0069
   3.1440E+01   3.2205E+01   5.1096E-06  0.0072
   3.2205E+01   3.2988E+01   4.5403E-06  0.0075
   3.2988E+01   3.3791E+01   4.0019E-06  0.0079
   3.3791E+01   3.4613E+01   3.5463E-06  0.0083
   3.4613E+01   3.5455E+01   3.1044E-06  0.0087
   3.5455E+01   3.6318E+01   2.7334E-06  0.0092
   3.6318E+01   3.7201E+01   2.3765E-06  0.0098
   3.7201E+01   3.8106E+01   2.1111E-06  0.0102
   3.8106E+01   3.9034E+01   1.8154E-06  0.0109
   3.9034E+01   3.9983E+01   1.5325E-06  0.0117
   3.9983E+01   4.0956E+01   1.2664E-06  0.0127
   4.0956E+01   4.1953E+01   1.0870E-06  0.0136
   4.1953E+01   4.2973E+01   8.9386E-07  0.0148
   4.2973E+01   4.4019E+01   7.2687E-07  0.0162
   4.4019E+01   4.5090E+01   5.8431E-07  0.0179
   4.5090E+01   4.6187E+01   4.5229E-07  0.0201
   4.6187E+01   4.7311E+01   3.7001E-07  0.0219
   4.7311E+01   4.8462E+01   2.8025E-07  0.0249
   4.8462E+01   4.9641E+01   2.0846E-07  0.0285
   4.9641E+01   5.0849E+01   1.5714E-07  0.0325
   5.0849E+01   5.2086E+01   1.1348E-07  0.0377
   5.2086E+01   5.3353E+01   8.6483E-08  0.0427
   5.3353E+01   5.4651E+01   6.5941E-08  0.0483
   5.4651E+01   5.5981E+01   4.6627E-08  0.0568
   5.5981E+01   5.7343E+01   3.4213E-08  0.0655
   5.7343E+01   5.8738E+01   2.6376E-08  0.0737
   5.8738E+01   6.0168E+01   2.0012E-08  0.0836
   6.0168E+01   6.1632E+01   1.3389E-08  0.1010
   6.1632E+01   6.3131E+01   8.1358E-09  0.1280
   6.3131E+01   6.4667E+01   3.6458E-09  0.1890
   6.4667E+01   6.6240E+01   2.0338E-09  0.2500
   6.6240E+01   6.7852E+01   6.2047E-10  0.4472
   6.7852E+01   6.9503E+01   2.4229E-10  0.7071
   6.9503E+01   7.1194E+01   1.1827E-10  1.0000
   7.1194E+01   7.2926E+01   0.0000E+00  0.0000
   7.2926E+01   7.4701E+01   0.0000E+00  0.0000
   7.4701E+01   7.6518E+01   0.0000E+00  0.0000
   7.6518E+01   7.8380E+01   0.0000E+00  0.0000
   7.8380E+01   8.0287E+01   0.0000E+00  0.0000
   8.0287E+01   8.2240E+01   0.0000E+00  0.0000
   8.2240E+01   8.4241E+01   0.0000E+00  0.0000
   8.4241E+01   8.6291E+01   0.0000E+00  0.0000
   8.6291E+01   8.8391E+01   0.0000E+00  0.0000
   8.8391E+01   9.0541E+01   0.0000E+00  0.0000
   9.0541E+01   9.2744E+01   0.0000E+00  0.0000
   9.2744E+01   9.5001E+01   0.0000E+00  0.0000
   9.5001E+01   9.7312E+01   0.0000E+00  0.0000
   9.7312E+01   9.9680E+01   0.0000E+00  0.0000
   9.9680E+01   1.0211E+02   0.0000E+00  0.0000
   1.0211E+02   1.0459E+02   0.0000E+00  0.0000
   1.0459E+02   1.0713E+02   0.0000E+00  0.0000
   1.0713E+02   1.0974E+02   0.0000E+00  0.0000
   1.0974E+02   1.1241E+02   0.0000E+00  0.0000
   1.1241E+02   1.1515E+02   0.0000E+00  0.0000
   1.1515E+02   1.1795E+02   0.0000E+00  0.0000
   1.1795E+02   1.2082E+02   0.0000E+00  0.0000
   1.2082E+02   1.2376E+02   0.0000E+00  0.0000
   1.2376E+02   1.2677E+02   0.0000E+00  0.0000
   1.2677E+02   1.2985E+02   0.0000E+00  0.0000
   1.2985E+02   1.3301E+02   0.0000E+00  0.0000
   1.3301E+02   1.3625E+02   0.0000E+00  0.0000
   1.3625E+02   1.3956E+02   0.0000E+00  0.0000
   1.3956E+02   1.4296E+02   0.0000E+00  0.0000
   1.4296E+02   1.4644E+02   0.0000E+00  0.0000
   1.4644E+02   1.5000E+02   0.0000E+00  0.0000

#   sum over                 1.6851E-05
'no. =    1   reg = 114 - 214'
msuc: {\huge [t-cross] in region mesh}
msdr: {\it plotted by \ANGEL \version}
msdl: {\it calculated by \PHITS  3.28}
wt: s(0.7)
\vspace{-3}
  region surface crossing
  area  &=&   1.0000E+00 [cm^2]
e:
 
# Information for Restart Calculation
# This calculation was newly started
# istdev =  2 # 1:Batch variance, 2:History variance
# resc2  = 5.00000000000000000E+09 # Total source weight or Total source weight / maxcas
# resc3  = 5.00000000000000000E+09 # Total history number or Total batch number
# maxcas =   500000000 # History / Batch, only used for istdev=1
# bitrseed = 0001101011110000011001100100101010101011111110100001111101011101 # bit data of rseed
