[ T-Cross ]
    title = [t-cross] in region mesh
     mesh =  reg            # mesh type is region-wise
      reg =    1            # number of crossing regions
      non     r-from    r-to       area
      1       109       209        1.000000    
   e-type =    3            # e-mesh is log given by emin, emax and ne
     emin =  1.0000000E-02  # minimum value of e-mesh points
     emax =   150.0000      # maximum value of e-mesh points
#    edel =  2.4039514E-02  # mesh width of e-mesh points
       ne =    400          # number of e-mesh points
#    data = ( e(i), i = 1, ne + 1 )
#           1.00000E-02  1.02433E-02  1.04925E-02  1.07478E-02  1.10093E-02
#           1.12772E-02  1.15516E-02  1.18326E-02  1.21205E-02  1.24154E-02
#           1.27175E-02  1.30269E-02  1.33439E-02  1.36686E-02  1.40011E-02
#           1.43418E-02  1.46907E-02  1.50482E-02  1.54143E-02  1.57894E-02
#           1.61735E-02  1.65670E-02  1.69701E-02  1.73830E-02  1.78060E-02
#           1.82392E-02  1.86830E-02  1.91375E-02  1.96032E-02  2.00801E-02
#           2.05687E-02  2.10692E-02  2.15818E-02  2.21069E-02  2.26448E-02
#           2.31957E-02  2.37601E-02  2.43382E-02  2.49304E-02  2.55369E-02
#           2.61583E-02  2.67947E-02  2.74467E-02  2.81145E-02  2.87985E-02
#           2.94992E-02  3.02169E-02  3.09521E-02  3.17052E-02  3.24766E-02
#           3.32668E-02  3.40762E-02  3.49053E-02  3.57546E-02  3.66246E-02
#           3.75157E-02  3.84284E-02  3.93634E-02  4.03212E-02  4.13022E-02
#           4.23071E-02  4.33365E-02  4.43909E-02  4.54710E-02  4.65773E-02
#           4.77106E-02  4.88714E-02  5.00605E-02  5.12785E-02  5.25262E-02
#           5.38042E-02  5.51133E-02  5.64542E-02  5.78278E-02  5.92348E-02
#           6.06760E-02  6.21523E-02  6.36645E-02  6.52135E-02  6.68002E-02
#           6.84255E-02  7.00904E-02  7.17957E-02  7.35426E-02  7.53319E-02
#           7.71648E-02  7.90423E-02  8.09655E-02  8.29354E-02  8.49533E-02
#           8.70203E-02  8.91376E-02  9.13064E-02  9.35279E-02  9.58035E-02
#           9.81345E-02  1.00522E-01  1.02968E-01  1.05473E-01  1.08040E-01
#           1.10668E-01  1.13361E-01  1.16119E-01  1.18944E-01  1.21838E-01
#           1.24803E-01  1.27839E-01  1.30950E-01  1.34136E-01  1.37399E-01
#           1.40742E-01  1.44167E-01  1.47675E-01  1.51268E-01  1.54948E-01
#           1.58718E-01  1.62580E-01  1.66535E-01  1.70587E-01  1.74738E-01
#           1.78989E-01  1.83344E-01  1.87805E-01  1.92375E-01  1.97055E-01
#           2.01850E-01  2.06761E-01  2.11792E-01  2.16945E-01  2.22223E-01
#           2.27630E-01  2.33169E-01  2.38842E-01  2.44653E-01  2.50605E-01
#           2.56703E-01  2.62949E-01  2.69346E-01  2.75900E-01  2.82613E-01
#           2.89489E-01  2.96532E-01  3.03747E-01  3.11138E-01  3.18708E-01
#           3.26462E-01  3.34405E-01  3.42542E-01  3.50876E-01  3.59413E-01
#           3.68158E-01  3.77116E-01  3.86291E-01  3.95690E-01  4.05317E-01
#           4.15179E-01  4.25281E-01  4.35628E-01  4.46227E-01  4.57084E-01
#           4.68205E-01  4.79597E-01  4.91266E-01  5.03219E-01  5.15463E-01
#           5.28005E-01  5.40851E-01  5.54011E-01  5.67490E-01  5.81298E-01
#           5.95441E-01  6.09929E-01  6.24769E-01  6.39970E-01  6.55541E-01
#           6.71491E-01  6.87828E-01  7.04564E-01  7.21706E-01  7.39266E-01
#           7.57253E-01  7.75678E-01  7.94551E-01  8.13883E-01  8.33685E-01
#           8.53969E-01  8.74747E-01  8.96030E-01  9.17831E-01  9.40163E-01
#           9.63038E-01  9.86469E-01  1.01047E+00  1.03506E+00  1.06024E+00
#           1.08604E+00  1.11246E+00  1.13953E+00  1.16725E+00  1.19565E+00
#           1.22474E+00  1.25454E+00  1.28507E+00  1.31633E+00  1.34836E+00
#           1.38117E+00  1.41477E+00  1.44920E+00  1.48446E+00  1.52057E+00
#           1.55757E+00  1.59547E+00  1.63429E+00  1.67405E+00  1.71478E+00
#           1.75650E+00  1.79924E+00  1.84302E+00  1.88786E+00  1.93379E+00
#           1.98084E+00  2.02904E+00  2.07841E+00  2.12898E+00  2.18078E+00
#           2.23384E+00  2.28819E+00  2.34386E+00  2.40089E+00  2.45930E+00
#           2.51914E+00  2.58043E+00  2.64322E+00  2.70753E+00  2.77341E+00
#           2.84088E+00  2.91001E+00  2.98081E+00  3.05333E+00  3.12762E+00
#           3.20372E+00  3.28167E+00  3.36152E+00  3.44330E+00  3.52708E+00
#           3.61290E+00  3.70080E+00  3.79085E+00  3.88308E+00  3.97756E+00
#           4.07434E+00  4.17347E+00  4.27501E+00  4.37903E+00  4.48557E+00
#           4.59471E+00  4.70650E+00  4.82102E+00  4.93832E+00  5.05847E+00
#           5.18155E+00  5.30762E+00  5.43676E+00  5.56904E+00  5.70453E+00
#           5.84333E+00  5.98550E+00  6.13114E+00  6.28031E+00  6.43312E+00
#           6.58964E+00  6.74997E+00  6.91420E+00  7.08243E+00  7.25475E+00
#           7.43126E+00  7.61207E+00  7.79728E+00  7.98700E+00  8.18133E+00
#           8.38038E+00  8.58428E+00  8.79315E+00  9.00709E+00  9.22624E+00
#           9.45072E+00  9.68067E+00  9.91620E+00  1.01575E+01  1.04046E+01
#           1.06578E+01  1.09171E+01  1.11827E+01  1.14548E+01  1.17335E+01
#           1.20190E+01  1.23114E+01  1.26109E+01  1.29178E+01  1.32321E+01
#           1.35540E+01  1.38838E+01  1.42216E+01  1.45676E+01  1.49221E+01
#           1.52851E+01  1.56570E+01  1.60380E+01  1.64282E+01  1.68279E+01
#           1.72374E+01  1.76568E+01  1.80864E+01  1.85264E+01  1.89772E+01
#           1.94389E+01  1.99119E+01  2.03963E+01  2.08926E+01  2.14009E+01
#           2.19216E+01  2.24550E+01  2.30014E+01  2.35610E+01  2.41343E+01
#           2.47215E+01  2.53230E+01  2.59391E+01  2.65702E+01  2.72167E+01
#           2.78789E+01  2.85572E+01  2.92520E+01  2.99637E+01  3.06928E+01
#           3.14396E+01  3.22045E+01  3.29881E+01  3.37907E+01  3.46128E+01
#           3.54550E+01  3.63177E+01  3.72013E+01  3.81064E+01  3.90336E+01
#           3.99833E+01  4.09561E+01  4.19526E+01  4.29734E+01  4.40189E+01
#           4.50900E+01  4.61870E+01  4.73108E+01  4.84619E+01  4.96410E+01
#           5.08488E+01  5.20860E+01  5.33533E+01  5.46514E+01  5.59812E+01
#           5.73432E+01  5.87384E+01  6.01676E+01  6.16315E+01  6.31311E+01
#           6.46671E+01  6.62405E+01  6.78522E+01  6.95031E+01  7.11941E+01
#           7.29263E+01  7.47007E+01  7.65182E+01  7.83800E+01  8.02870E+01
#           8.22405E+01  8.42414E+01  8.62911E+01  8.83906E+01  9.05412E+01
#           9.27442E+01  9.50007E+01  9.73122E+01  9.96799E+01  1.02105E+02
#           1.04589E+02  1.07134E+02  1.09741E+02  1.12411E+02  1.15146E+02
#           1.17948E+02  1.20817E+02  1.23757E+02  1.26768E+02  1.29852E+02
#           1.33012E+02  1.36248E+02  1.39563E+02  1.42959E+02  1.46437E+02
#           1.50000E+02
     unit =    2            # unit is [1/cm^2/(MeV/n)/source]
     axis =  eng            # axis of output
     file = detector-10.out  # file name of output for the above axis
   output = f-curr          # surface crossing forward current spectrum
     part =  neutron  
# kf/name :  2112     
#    used :        main (  %)        temp (  %)       total (  %)
#  memory :         414 (  0)           0 (  0)         414 (  0)

#------------------------------------------------------------------------------
#newpage:
#   no. =    1   reg = 109 - 209

x: Energy [MeV/n]
y:  F-Curr [1/cm^2/(MeV/n)/source]         
p: xlog ylog afac(0.8) form(0.9)
h: n            x            y(neutron ),hh0l   n 
#  e-lower      e-upper      neutron     r.err 
   1.0000E-02   1.0243E-02   3.5741E-04  0.0589
   1.0243E-02   1.0493E-02   3.3998E-04  0.0597
   1.0493E-02   1.0748E-02   3.1618E-04  0.0611
   1.0748E-02   1.1009E-02   3.4138E-04  0.0581
   1.1009E-02   1.1277E-02   2.8912E-04  0.0625
   1.1277E-02   1.1552E-02   2.8270E-04  0.0623
   1.1552E-02   1.1833E-02   2.9222E-04  0.0606
   1.1833E-02   1.2121E-02   2.4652E-04  0.0652
   1.2121E-02   1.2415E-02   2.9615E-04  0.0588
   1.2415E-02   1.2718E-02   2.8186E-04  0.0595
   1.2718E-02   1.3027E-02   2.8859E-04  0.0581
   1.3027E-02   1.3344E-02   2.8773E-04  0.0576
   1.3344E-02   1.3669E-02   2.9082E-04  0.0565
   1.3669E-02   1.4001E-02   2.7287E-04  0.0577
   1.4001E-02   1.4342E-02   2.3814E-04  0.0609
   1.4342E-02   1.4691E-02   2.5076E-04  0.0587
   1.4691E-02   1.5048E-02   2.4209E-04  0.0590
   1.5048E-02   1.5414E-02   2.3163E-04  0.0597
   1.5414E-02   1.5789E-02   2.6428E-04  0.0552
   1.5789E-02   1.6174E-02   2.1946E-04  0.0597
   1.6174E-02   1.6567E-02   2.1137E-04  0.0603
   1.6567E-02   1.6970E-02   2.2536E-04  0.0576
   1.6970E-02   1.7383E-02   2.2299E-04  0.0573
   1.7383E-02   1.7806E-02   2.2185E-04  0.0567
   1.7806E-02   1.8239E-02   2.0828E-04  0.0578
   1.8239E-02   1.8683E-02   2.1272E-04  0.0565
   1.8683E-02   1.9138E-02   1.8364E-04  0.0601
   1.9138E-02   1.9603E-02   1.9686E-04  0.0574
   1.9603E-02   2.0080E-02   1.9284E-04  0.0573
   2.0080E-02   2.0569E-02   1.7908E-04  0.0588
   2.0569E-02   2.1069E-02   1.9839E-04  0.0551
   2.1069E-02   2.1582E-02   1.8757E-04  0.0560
   2.1582E-02   2.2107E-02   1.7950E-04  0.0566
   2.2107E-02   2.2645E-02   1.6211E-04  0.0588
   2.2645E-02   2.3196E-02   1.6029E-04  0.0585
   2.3196E-02   2.3760E-02   1.6320E-04  0.0572
   2.3760E-02   2.4338E-02   1.5807E-04  0.0575
   2.4338E-02   2.4930E-02   1.6055E-04  0.0564
   2.4930E-02   2.5537E-02   1.6912E-04  0.0542
   2.5537E-02   2.6158E-02   1.3927E-04  0.0591
   2.6158E-02   2.6795E-02   1.5265E-04  0.0558
   2.6795E-02   2.7447E-02   1.4091E-04  0.0573
   2.7447E-02   2.8114E-02   1.4504E-04  0.0558
   2.8114E-02   2.8799E-02   1.4080E-04  0.0560
   2.8799E-02   2.9499E-02   1.5137E-04  0.0533
   2.9499E-02   3.0217E-02   1.3337E-04  0.0562
   3.0217E-02   3.0952E-02   1.3593E-04  0.0549
   3.0952E-02   3.1705E-02   1.2926E-04  0.0556
   3.1705E-02   3.2477E-02   1.2991E-04  0.0549
   3.2477E-02   3.3267E-02   1.3002E-04  0.0541
   3.3267E-02   3.4076E-02   1.1293E-04  0.0575
   3.4076E-02   3.4905E-02   1.1967E-04  0.0552
   3.4905E-02   3.5755E-02   1.2934E-04  0.0524
   3.5755E-02   3.6625E-02   1.1919E-04  0.0539
   3.6625E-02   3.7516E-02   1.1319E-04  0.0547
   3.7516E-02   3.8428E-02   1.0371E-04  0.0565
   3.8428E-02   3.9363E-02   1.1258E-04  0.0535
   3.9363E-02   4.0321E-02   1.0692E-04  0.0543
   4.0321E-02   4.1302E-02   8.8968E-05  0.0588
   4.1302E-02   4.2307E-02   1.1385E-04  0.0513
   4.2307E-02   4.3337E-02   9.7596E-05  0.0548
   4.3337E-02   4.4391E-02   9.3574E-05  0.0553
   4.4391E-02   4.5471E-02   9.4456E-05  0.0544
   4.5471E-02   4.6577E-02   9.0807E-05  0.0548
   4.6577E-02   4.7711E-02   1.0002E-04  0.0516
   4.7711E-02   4.8871E-02   8.9230E-05  0.0540
   4.8871E-02   5.0061E-02   9.5934E-05  0.0514
   5.0061E-02   5.1279E-02   8.8608E-05  0.0529
   5.1279E-02   5.2526E-02   9.2674E-05  0.0511
   5.2526E-02   5.3804E-02   8.5899E-05  0.0524
   5.3804E-02   5.5113E-02   8.4927E-05  0.0521
   5.5113E-02   5.6454E-02   7.8116E-05  0.0536
   5.6454E-02   5.7828E-02   7.2585E-05  0.0550
   5.7828E-02   5.9235E-02   7.1123E-05  0.0549
   5.9235E-02   6.0676E-02   8.5944E-05  0.0493
   6.0676E-02   6.2152E-02   6.9859E-05  0.0541
   6.2152E-02   6.3665E-02   6.6627E-05  0.0547
   6.3665E-02   6.5214E-02   7.6998E-05  0.0503
   6.5214E-02   6.6800E-02   6.3031E-05  0.0548
   6.6800E-02   6.8426E-02   6.7001E-05  0.0526
   6.8426E-02   7.0090E-02   6.1789E-05  0.0541
   7.0090E-02   7.1796E-02   7.1320E-05  0.0498
   7.1796E-02   7.3543E-02   6.9584E-05  0.0498
   7.3543E-02   7.5332E-02   6.7949E-05  0.0498
   7.5332E-02   7.7165E-02   6.0448E-05  0.0522
   7.7165E-02   7.9042E-02   6.3329E-05  0.0503
   7.9042E-02   8.0965E-02   5.6850E-05  0.0525
   8.0965E-02   8.2935E-02   5.9621E-05  0.0507
   8.2935E-02   8.4953E-02   5.4467E-05  0.0524
   8.4953E-02   8.7020E-02   6.0421E-05  0.0492
   8.7020E-02   8.9138E-02   5.8682E-05  0.0493
   8.9138E-02   9.1306E-02   5.6685E-05  0.0495
   9.1306E-02   9.3528E-02   5.4413E-05  0.0500
   9.3528E-02   9.5804E-02   5.6897E-05  0.0483
   9.5804E-02   9.8134E-02   5.3422E-05  0.0492
   9.8134E-02   1.0052E-01   5.2500E-05  0.0491
   1.0052E-01   1.0297E-01   5.5590E-05  0.0471
   1.0297E-01   1.0547E-01   5.9548E-05  0.0450
   1.0547E-01   1.0804E-01   5.9561E-05  0.0444
   1.0804E-01   1.1067E-01   6.3681E-05  0.0425
   1.1067E-01   1.1336E-01   6.9683E-05  0.0401
   1.1336E-01   1.1612E-01   6.2913E-05  0.0416
   1.1612E-01   1.1894E-01   6.3608E-05  0.0410
   1.1894E-01   1.2184E-01   7.9045E-05  0.0363
   1.2184E-01   1.2480E-01   8.2426E-05  0.0352
   1.2480E-01   1.2784E-01   8.3392E-05  0.0345
   1.2784E-01   1.3095E-01   8.0389E-05  0.0347
   1.3095E-01   1.3414E-01   8.8454E-05  0.0327
   1.3414E-01   1.3740E-01   8.8513E-05  0.0323
   1.3740E-01   1.4074E-01   8.8348E-05  0.0320
   1.4074E-01   1.4417E-01   9.6585E-05  0.0302
   1.4417E-01   1.4767E-01   9.9101E-05  0.0295
   1.4767E-01   1.5127E-01   1.0291E-04  0.0286
   1.5127E-01   1.5495E-01   1.0439E-04  0.0280
   1.5495E-01   1.5872E-01   1.1552E-04  0.0263
   1.5872E-01   1.6258E-01   1.1729E-04  0.0258
   1.6258E-01   1.6654E-01   1.1953E-04  0.0253
   1.6654E-01   1.7059E-01   1.2662E-04  0.0242
   1.7059E-01   1.7474E-01   1.3061E-04  0.0236
   1.7474E-01   1.7899E-01   1.3588E-04  0.0229
   1.7899E-01   1.8334E-01   1.3642E-04  0.0225
   1.8334E-01   1.8781E-01   1.4423E-04  0.0216
   1.8781E-01   1.9237E-01   1.5102E-04  0.0209
   1.9237E-01   1.9706E-01   1.5305E-04  0.0205
   1.9706E-01   2.0185E-01   1.6488E-04  0.0195
   2.0185E-01   2.0676E-01   1.6747E-04  0.0192
   2.0676E-01   2.1179E-01   1.7663E-04  0.0184
   2.1179E-01   2.1694E-01   1.7956E-04  0.0181
   2.1694E-01   2.2222E-01   1.8782E-04  0.0175
   2.2222E-01   2.2763E-01   1.9613E-04  0.0169
   2.2763E-01   2.3317E-01   1.9768E-04  0.0166
   2.3317E-01   2.3884E-01   2.0482E-04  0.0161
   2.3884E-01   2.4465E-01   2.1583E-04  0.0155
   2.4465E-01   2.5061E-01   2.2319E-04  0.0151
   2.5061E-01   2.5670E-01   2.2406E-04  0.0149
   2.5670E-01   2.6295E-01   2.4078E-04  0.0142
   2.6295E-01   2.6935E-01   2.4312E-04  0.0139
   2.6935E-01   2.7590E-01   2.4923E-04  0.0136
   2.7590E-01   2.8261E-01   2.5517E-04  0.0133
   2.8261E-01   2.8949E-01   2.6215E-04  0.0129
   2.8949E-01   2.9653E-01   2.7841E-04  0.0124
   2.9653E-01   3.0375E-01   2.8764E-04  0.0121
   3.0375E-01   3.1114E-01   2.9337E-04  0.0118
   3.1114E-01   3.1871E-01   3.0034E-04  0.0115
   3.1871E-01   3.2646E-01   3.1432E-04  0.0111
   3.2646E-01   3.3441E-01   3.2241E-04  0.0109
   3.3441E-01   3.4254E-01   3.2847E-04  0.0106
   3.4254E-01   3.5088E-01   3.4005E-04  0.0103
   3.5088E-01   3.5941E-01   3.5143E-04  0.0100
   3.5941E-01   3.6816E-01   3.5304E-04  0.0099
   3.6816E-01   3.7712E-01   3.7195E-04  0.0095
   3.7712E-01   3.8629E-01   3.7831E-04  0.0093
   3.8629E-01   3.9569E-01   3.9372E-04  0.0090
   3.9569E-01   4.0532E-01   4.0426E-04  0.0088
   4.0532E-01   4.1518E-01   4.0515E-04  0.0087
   4.1518E-01   4.2528E-01   4.2107E-04  0.0084
   4.2528E-01   4.3563E-01   4.2959E-04  0.0082
   4.3563E-01   4.4623E-01   4.3561E-04  0.0081
   4.4623E-01   4.5708E-01   4.4367E-04  0.0079
   4.5708E-01   4.6821E-01   4.5683E-04  0.0077
   4.6821E-01   4.7960E-01   4.6292E-04  0.0076
   4.7960E-01   4.9127E-01   4.7676E-04  0.0074
   4.9127E-01   5.0322E-01   4.8842E-04  0.0072
   5.0322E-01   5.1546E-01   4.9636E-04  0.0070
   5.1546E-01   5.2800E-01   5.0296E-04  0.0069
   5.2800E-01   5.4085E-01   5.1700E-04  0.0067
   5.4085E-01   5.5401E-01   5.2635E-04  0.0066
   5.5401E-01   5.6749E-01   5.4279E-04  0.0064
   5.6749E-01   5.8130E-01   5.4292E-04  0.0063
   5.8130E-01   5.9544E-01   5.5695E-04  0.0062
   5.9544E-01   6.0993E-01   5.7550E-04  0.0060
   6.0993E-01   6.2477E-01   5.7512E-04  0.0059
   6.2477E-01   6.3997E-01   5.8904E-04  0.0058
   6.3997E-01   6.5554E-01   5.9081E-04  0.0057
   6.5554E-01   6.7149E-01   5.9986E-04  0.0056
   6.7149E-01   6.8783E-01   6.1088E-04  0.0055
   6.8783E-01   7.0456E-01   6.1232E-04  0.0054
   7.0456E-01   7.2171E-01   6.2040E-04  0.0053
   7.2171E-01   7.3927E-01   6.2217E-04  0.0052
   7.3927E-01   7.5725E-01   6.2768E-04  0.0052
   7.5725E-01   7.7568E-01   6.3095E-04  0.0051
   7.7568E-01   7.9455E-01   6.3934E-04  0.0050
   7.9455E-01   8.1388E-01   6.4222E-04  0.0049
   8.1388E-01   8.3368E-01   6.4451E-04  0.0049
   8.3368E-01   8.5397E-01   6.5176E-04  0.0048
   8.5397E-01   8.7475E-01   6.4891E-04  0.0047
   8.7475E-01   8.9603E-01   6.5057E-04  0.0047
   8.9603E-01   9.1783E-01   6.5352E-04  0.0046
   9.1783E-01   9.4016E-01   6.4612E-04  0.0046
   9.4016E-01   9.6304E-01   6.3782E-04  0.0045
   9.6304E-01   9.8647E-01   6.3111E-04  0.0045
   9.8647E-01   1.0105E+00   6.2753E-04  0.0045
   1.0105E+00   1.0351E+00   6.1946E-04  0.0044
   1.0351E+00   1.0602E+00   6.1240E-04  0.0044
   1.0602E+00   1.0860E+00   6.1073E-04  0.0044
   1.0860E+00   1.1125E+00   6.1020E-04  0.0043
   1.1125E+00   1.1395E+00   6.1721E-04  0.0042
   1.1395E+00   1.1673E+00   6.1941E-04  0.0042
   1.1673E+00   1.1957E+00   6.2276E-04  0.0041
   1.1957E+00   1.2247E+00   6.2442E-04  0.0041
   1.2247E+00   1.2545E+00   6.2472E-04  0.0040
   1.2545E+00   1.2851E+00   6.2308E-04  0.0040
   1.2851E+00   1.3163E+00   6.2428E-04  0.0039
   1.3163E+00   1.3484E+00   6.2237E-04  0.0039
   1.3484E+00   1.3812E+00   6.2324E-04  0.0038
   1.3812E+00   1.4148E+00   6.1819E-04  0.0038
   1.4148E+00   1.4492E+00   6.1678E-04  0.0037
   1.4492E+00   1.4845E+00   6.1626E-04  0.0037
   1.4845E+00   1.5206E+00   6.0719E-04  0.0037
   1.5206E+00   1.5576E+00   6.0700E-04  0.0036
   1.5576E+00   1.5955E+00   5.9909E-04  0.0036
   1.5955E+00   1.6343E+00   5.9717E-04  0.0036
   1.6343E+00   1.6741E+00   5.9024E-04  0.0036
   1.6741E+00   1.7148E+00   5.8309E-04  0.0035
   1.7148E+00   1.7565E+00   5.6435E-04  0.0035
   1.7565E+00   1.7992E+00   5.4785E-04  0.0035
   1.7992E+00   1.8430E+00   5.1239E-04  0.0036
   1.8430E+00   1.8879E+00   4.8466E-04  0.0037
   1.8879E+00   1.9338E+00   4.7456E-04  0.0037
   1.9338E+00   1.9808E+00   4.5886E-04  0.0037
   1.9808E+00   2.0290E+00   4.5507E-04  0.0036
   2.0290E+00   2.0784E+00   4.4902E-04  0.0036
   2.0784E+00   2.1290E+00   4.5418E-04  0.0035
   2.1290E+00   2.1808E+00   4.6233E-04  0.0035
   2.1808E+00   2.2338E+00   4.6750E-04  0.0034
   2.2338E+00   2.2882E+00   4.5847E-04  0.0034
   2.2882E+00   2.3439E+00   4.4262E-04  0.0034
   2.3439E+00   2.4009E+00   4.3121E-04  0.0034
   2.4009E+00   2.4593E+00   4.2638E-04  0.0034
   2.4593E+00   2.5191E+00   4.2177E-04  0.0034
   2.5191E+00   2.5804E+00   4.1886E-04  0.0034
   2.5804E+00   2.6432E+00   4.1272E-04  0.0033
   2.6432E+00   2.7075E+00   4.0638E-04  0.0033
   2.7075E+00   2.7734E+00   3.9929E-04  0.0033
   2.7734E+00   2.8409E+00   3.9597E-04  0.0033
   2.8409E+00   2.9100E+00   3.9120E-04  0.0033
   2.9100E+00   2.9808E+00   3.8485E-04  0.0033
   2.9808E+00   3.0533E+00   3.8155E-04  0.0032
   3.0533E+00   3.1276E+00   3.7620E-04  0.0032
   3.1276E+00   3.2037E+00   3.7110E-04  0.0032
   3.2037E+00   3.2817E+00   3.6809E-04  0.0032
   3.2817E+00   3.3615E+00   3.6493E-04  0.0032
   3.3615E+00   3.4433E+00   3.6068E-04  0.0032
   3.4433E+00   3.5271E+00   3.5803E-04  0.0031
   3.5271E+00   3.6129E+00   3.5340E-04  0.0031
   3.6129E+00   3.7008E+00   3.4905E-04  0.0031
   3.7008E+00   3.7908E+00   3.4466E-04  0.0031
   3.7908E+00   3.8831E+00   3.4197E-04  0.0031
   3.8831E+00   3.9776E+00   3.3817E-04  0.0030
   3.9776E+00   4.0743E+00   3.3162E-04  0.0030
   4.0743E+00   4.1735E+00   3.2680E-04  0.0030
   4.1735E+00   4.2750E+00   3.2323E-04  0.0030
   4.2750E+00   4.3790E+00   3.1738E-04  0.0030
   4.3790E+00   4.4856E+00   3.1215E-04  0.0030
   4.4856E+00   4.5947E+00   3.0625E-04  0.0030
   4.5947E+00   4.7065E+00   3.0280E-04  0.0029
   4.7065E+00   4.8210E+00   2.9775E-04  0.0029
   4.8210E+00   4.9383E+00   2.9619E-04  0.0029
   4.9383E+00   5.0585E+00   2.9494E-04  0.0029
   5.0585E+00   5.1815E+00   2.9111E-04  0.0029
   5.1815E+00   5.3076E+00   2.8996E-04  0.0028
   5.3076E+00   5.4368E+00   2.8568E-04  0.0028
   5.4368E+00   5.5690E+00   2.8316E-04  0.0028
   5.5690E+00   5.7045E+00   2.8145E-04  0.0028
   5.7045E+00   5.8433E+00   2.7817E-04  0.0028
   5.8433E+00   5.9855E+00   2.7763E-04  0.0027
   5.9855E+00   6.1311E+00   2.7466E-04  0.0027
   6.1311E+00   6.2803E+00   2.7349E-04  0.0027
   6.2803E+00   6.4331E+00   2.7172E-04  0.0027
   6.4331E+00   6.5896E+00   2.6983E-04  0.0026
   6.5896E+00   6.7500E+00   2.6859E-04  0.0026
   6.7500E+00   6.9142E+00   2.6671E-04  0.0026
   6.9142E+00   7.0824E+00   2.6506E-04  0.0026
   7.0824E+00   7.2548E+00   2.6345E-04  0.0026
   7.2548E+00   7.4313E+00   2.6057E-04  0.0025
   7.4313E+00   7.6121E+00   2.6063E-04  0.0025
   7.6121E+00   7.7973E+00   2.5915E-04  0.0025
   7.7973E+00   7.9870E+00   2.5612E-04  0.0025
   7.9870E+00   8.1813E+00   2.5438E-04  0.0025
   8.1813E+00   8.3804E+00   2.5364E-04  0.0024
   8.3804E+00   8.5843E+00   2.5128E-04  0.0024
   8.5843E+00   8.7931E+00   2.4943E-04  0.0024
   8.7931E+00   9.0071E+00   2.4774E-04  0.0024
   9.0071E+00   9.2262E+00   2.4481E-04  0.0024
   9.2262E+00   9.4507E+00   2.4133E-04  0.0023
   9.4507E+00   9.6807E+00   2.3895E-04  0.0023
   9.6807E+00   9.9162E+00   2.3848E-04  0.0023
   9.9162E+00   1.0157E+01   2.4858E-04  0.0022
   1.0157E+01   1.0405E+01   2.4417E-04  0.0022
   1.0405E+01   1.0658E+01   2.4127E-04  0.0022
   1.0658E+01   1.0917E+01   2.3734E-04  0.0022
   1.0917E+01   1.1183E+01   2.3254E-04  0.0022
   1.1183E+01   1.1455E+01   2.2980E-04  0.0022
   1.1455E+01   1.1733E+01   2.2936E-04  0.0022
   1.1733E+01   1.2019E+01   2.2678E-04  0.0022
   1.2019E+01   1.2311E+01   2.2531E-04  0.0021
   1.2311E+01   1.2611E+01   2.2351E-04  0.0021
   1.2611E+01   1.2918E+01   2.2123E-04  0.0021
   1.2918E+01   1.3232E+01   2.2049E-04  0.0021
   1.3232E+01   1.3554E+01   2.1794E-04  0.0021
   1.3554E+01   1.3884E+01   2.1595E-04  0.0021
   1.3884E+01   1.4222E+01   2.1416E-04  0.0020
   1.4222E+01   1.4568E+01   2.1268E-04  0.0020
   1.4568E+01   1.4922E+01   2.1011E-04  0.0020
   1.4922E+01   1.5285E+01   2.0930E-04  0.0020
   1.5285E+01   1.5657E+01   2.0689E-04  0.0020
   1.5657E+01   1.6038E+01   2.0449E-04  0.0020
   1.6038E+01   1.6428E+01   2.0326E-04  0.0020
   1.6428E+01   1.6828E+01   2.0054E-04  0.0019
   1.6828E+01   1.7237E+01   1.9898E-04  0.0019
   1.7237E+01   1.7657E+01   1.9648E-04  0.0019
   1.7657E+01   1.8086E+01   1.9483E-04  0.0019
   1.8086E+01   1.8526E+01   1.9205E-04  0.0019
   1.8526E+01   1.8977E+01   1.8961E-04  0.0019
   1.8977E+01   1.9439E+01   1.8766E-04  0.0019
   1.9439E+01   1.9912E+01   1.8640E-04  0.0019
   1.9912E+01   2.0396E+01   1.8563E-04  0.0018
   2.0396E+01   2.0893E+01   1.8302E-04  0.0018
   2.0893E+01   2.1401E+01   1.8006E-04  0.0018
   2.1401E+01   2.1922E+01   1.7843E-04  0.0018
   2.1922E+01   2.2455E+01   1.7504E-04  0.0018
   2.2455E+01   2.3001E+01   1.7240E-04  0.0018
   2.3001E+01   2.3561E+01   1.6945E-04  0.0018
   2.3561E+01   2.4134E+01   1.6700E-04  0.0018
   2.4134E+01   2.4721E+01   1.6356E-04  0.0018
   2.4721E+01   2.5323E+01   1.6009E-04  0.0018
   2.5323E+01   2.5939E+01   1.5681E-04  0.0018
   2.5939E+01   2.6570E+01   1.5372E-04  0.0018
   2.6570E+01   2.7217E+01   1.5020E-04  0.0018
   2.7217E+01   2.7879E+01   1.4719E-04  0.0018
   2.7879E+01   2.8557E+01   1.4440E-04  0.0018
   2.8557E+01   2.9252E+01   1.4101E-04  0.0018
   2.9252E+01   2.9964E+01   1.3683E-04  0.0018
   2.9964E+01   3.0693E+01   1.3316E-04  0.0018
   3.0693E+01   3.1440E+01   1.2965E-04  0.0018
   3.1440E+01   3.2205E+01   1.2565E-04  0.0018
   3.2205E+01   3.2988E+01   1.2227E-04  0.0018
   3.2988E+01   3.3791E+01   1.1795E-04  0.0018
   3.3791E+01   3.4613E+01   1.1448E-04  0.0018
   3.4613E+01   3.5455E+01   1.0994E-04  0.0018
   3.5455E+01   3.6318E+01   1.0563E-04  0.0018
   3.6318E+01   3.7201E+01   1.0189E-04  0.0018
   3.7201E+01   3.8106E+01   9.7343E-05  0.0019
   3.8106E+01   3.9034E+01   9.3460E-05  0.0019
   3.9034E+01   3.9983E+01   8.9149E-05  0.0019
   3.9983E+01   4.0956E+01   8.4966E-05  0.0019
   4.0956E+01   4.1953E+01   8.1184E-05  0.0019
   4.1953E+01   4.2973E+01   7.7379E-05  0.0020
   4.2973E+01   4.4019E+01   7.2885E-05  0.0020
   4.4019E+01   4.5090E+01   6.8811E-05  0.0020
   4.5090E+01   4.6187E+01   6.4544E-05  0.0021
   4.6187E+01   4.7311E+01   6.0007E-05  0.0021
   4.7311E+01   4.8462E+01   5.6001E-05  0.0022
   4.8462E+01   4.9641E+01   5.2039E-05  0.0022
   4.9641E+01   5.0849E+01   4.7918E-05  0.0023
   5.0849E+01   5.2086E+01   4.4089E-05  0.0024
   5.2086E+01   5.3353E+01   4.0194E-05  0.0024
   5.3353E+01   5.4651E+01   3.6531E-05  0.0025
   5.4651E+01   5.5981E+01   3.2963E-05  0.0026
   5.5981E+01   5.7343E+01   2.9633E-05  0.0027
   5.7343E+01   5.8738E+01   2.6225E-05  0.0029
   5.8738E+01   6.0168E+01   2.3143E-05  0.0030
   6.0168E+01   6.1632E+01   2.0425E-05  0.0032
   6.1632E+01   6.3131E+01   1.7776E-05  0.0034
   6.3131E+01   6.4667E+01   1.5282E-05  0.0036
   6.4667E+01   6.6240E+01   1.2964E-05  0.0039
   6.6240E+01   6.7852E+01   1.1082E-05  0.0041
   6.7852E+01   6.9503E+01   9.4041E-06  0.0044
   6.9503E+01   7.1194E+01   7.7672E-06  0.0048
   7.1194E+01   7.2926E+01   6.4925E-06  0.0052
   7.2926E+01   7.4701E+01   5.5252E-06  0.0056
   7.4701E+01   7.6518E+01   4.7447E-06  0.0059
   7.6518E+01   7.8380E+01   4.2956E-06  0.0062
   7.8380E+01   8.0287E+01   4.0518E-06  0.0063
   8.0287E+01   8.2240E+01   4.0437E-06  0.0062
   8.2240E+01   8.4241E+01   3.5969E-06  0.0065
   8.4241E+01   8.6291E+01   1.0095E-06  0.0121
   8.6291E+01   8.8391E+01   2.6701E-08  0.0735
   8.8391E+01   9.0541E+01   0.0000E+00  0.0000
   9.0541E+01   9.2744E+01   0.0000E+00  0.0000
   9.2744E+01   9.5001E+01   0.0000E+00  0.0000
   9.5001E+01   9.7312E+01   0.0000E+00  0.0000
   9.7312E+01   9.9680E+01   0.0000E+00  0.0000
   9.9680E+01   1.0211E+02   0.0000E+00  0.0000
   1.0211E+02   1.0459E+02   0.0000E+00  0.0000
   1.0459E+02   1.0713E+02   0.0000E+00  0.0000
   1.0713E+02   1.0974E+02   0.0000E+00  0.0000
   1.0974E+02   1.1241E+02   0.0000E+00  0.0000
   1.1241E+02   1.1515E+02   0.0000E+00  0.0000
   1.1515E+02   1.1795E+02   0.0000E+00  0.0000
   1.1795E+02   1.2082E+02   0.0000E+00  0.0000
   1.2082E+02   1.2376E+02   0.0000E+00  0.0000
   1.2376E+02   1.2677E+02   0.0000E+00  0.0000
   1.2677E+02   1.2985E+02   0.0000E+00  0.0000
   1.2985E+02   1.3301E+02   0.0000E+00  0.0000
   1.3301E+02   1.3625E+02   0.0000E+00  0.0000
   1.3625E+02   1.3956E+02   0.0000E+00  0.0000
   1.3956E+02   1.4296E+02   0.0000E+00  0.0000
   1.4296E+02   1.4644E+02   0.0000E+00  0.0000
   1.4644E+02   1.5000E+02   0.0000E+00  0.0000

#   sum over                 6.3001E-05
'no. =    1   reg = 109 - 209'
msuc: {\huge [t-cross] in region mesh}
msdr: {\it plotted by \ANGEL \version}
msdl: {\it calculated by \PHITS  3.26}
wt: s(0.7)
\vspace{-3}
  region surface crossing
  area  &=&   1.0000E+00 [cm^2]
e:
 
# Information for Restart Calculation
# This calculation was newly started
# istdev =  2 # 1:Batch variance, 2:History variance
# resc2  = 3.30000000000000000E+09 # Total source weight or Total source weight / maxcas
# resc3  = 3.30000000000000000E+09 # Total history number or Total batch number
# maxcas =   100000000 # History / Batch, only used for istdev=1
# bitrseed = 0101100101101000001001100111101000001111100111100110100001101010 # bit data of rseed
