[ T-Cross ]
    title = [t-cross] in region mesh
     mesh =  reg            # mesh type is region-wise
      reg =    1            # number of crossing regions
      non     r-from    r-to       area
      1       106       206        1.000000    
   e-type =    3            # e-mesh is log given by emin, emax and ne
     emin =  1.0000000E-02  # minimum value of e-mesh points
     emax =   150.0000      # maximum value of e-mesh points
#    edel =  2.4039514E-02  # mesh width of e-mesh points
       ne =    400          # number of e-mesh points
#    data = ( e(i), i = 1, ne + 1 )
#           1.00000E-02  1.02433E-02  1.04925E-02  1.07478E-02  1.10093E-02
#           1.12772E-02  1.15516E-02  1.18326E-02  1.21205E-02  1.24154E-02
#           1.27175E-02  1.30269E-02  1.33439E-02  1.36686E-02  1.40011E-02
#           1.43418E-02  1.46907E-02  1.50482E-02  1.54143E-02  1.57894E-02
#           1.61735E-02  1.65670E-02  1.69701E-02  1.73830E-02  1.78060E-02
#           1.82392E-02  1.86830E-02  1.91375E-02  1.96032E-02  2.00801E-02
#           2.05687E-02  2.10692E-02  2.15818E-02  2.21069E-02  2.26448E-02
#           2.31957E-02  2.37601E-02  2.43382E-02  2.49304E-02  2.55369E-02
#           2.61583E-02  2.67947E-02  2.74467E-02  2.81145E-02  2.87985E-02
#           2.94992E-02  3.02169E-02  3.09521E-02  3.17052E-02  3.24766E-02
#           3.32668E-02  3.40762E-02  3.49053E-02  3.57546E-02  3.66246E-02
#           3.75157E-02  3.84284E-02  3.93634E-02  4.03212E-02  4.13022E-02
#           4.23071E-02  4.33365E-02  4.43909E-02  4.54710E-02  4.65773E-02
#           4.77106E-02  4.88714E-02  5.00605E-02  5.12785E-02  5.25262E-02
#           5.38042E-02  5.51133E-02  5.64542E-02  5.78278E-02  5.92348E-02
#           6.06760E-02  6.21523E-02  6.36645E-02  6.52135E-02  6.68002E-02
#           6.84255E-02  7.00904E-02  7.17957E-02  7.35426E-02  7.53319E-02
#           7.71648E-02  7.90423E-02  8.09655E-02  8.29354E-02  8.49533E-02
#           8.70203E-02  8.91376E-02  9.13064E-02  9.35279E-02  9.58035E-02
#           9.81345E-02  1.00522E-01  1.02968E-01  1.05473E-01  1.08040E-01
#           1.10668E-01  1.13361E-01  1.16119E-01  1.18944E-01  1.21838E-01
#           1.24803E-01  1.27839E-01  1.30950E-01  1.34136E-01  1.37399E-01
#           1.40742E-01  1.44167E-01  1.47675E-01  1.51268E-01  1.54948E-01
#           1.58718E-01  1.62580E-01  1.66535E-01  1.70587E-01  1.74738E-01
#           1.78989E-01  1.83344E-01  1.87805E-01  1.92375E-01  1.97055E-01
#           2.01850E-01  2.06761E-01  2.11792E-01  2.16945E-01  2.22223E-01
#           2.27630E-01  2.33169E-01  2.38842E-01  2.44653E-01  2.50605E-01
#           2.56703E-01  2.62949E-01  2.69346E-01  2.75900E-01  2.82613E-01
#           2.89489E-01  2.96532E-01  3.03747E-01  3.11138E-01  3.18708E-01
#           3.26462E-01  3.34405E-01  3.42542E-01  3.50876E-01  3.59413E-01
#           3.68158E-01  3.77116E-01  3.86291E-01  3.95690E-01  4.05317E-01
#           4.15179E-01  4.25281E-01  4.35628E-01  4.46227E-01  4.57084E-01
#           4.68205E-01  4.79597E-01  4.91266E-01  5.03219E-01  5.15463E-01
#           5.28005E-01  5.40851E-01  5.54011E-01  5.67490E-01  5.81298E-01
#           5.95441E-01  6.09929E-01  6.24769E-01  6.39970E-01  6.55541E-01
#           6.71491E-01  6.87828E-01  7.04564E-01  7.21706E-01  7.39266E-01
#           7.57253E-01  7.75678E-01  7.94551E-01  8.13883E-01  8.33685E-01
#           8.53969E-01  8.74747E-01  8.96030E-01  9.17831E-01  9.40163E-01
#           9.63038E-01  9.86469E-01  1.01047E+00  1.03506E+00  1.06024E+00
#           1.08604E+00  1.11246E+00  1.13953E+00  1.16725E+00  1.19565E+00
#           1.22474E+00  1.25454E+00  1.28507E+00  1.31633E+00  1.34836E+00
#           1.38117E+00  1.41477E+00  1.44920E+00  1.48446E+00  1.52057E+00
#           1.55757E+00  1.59547E+00  1.63429E+00  1.67405E+00  1.71478E+00
#           1.75650E+00  1.79924E+00  1.84302E+00  1.88786E+00  1.93379E+00
#           1.98084E+00  2.02904E+00  2.07841E+00  2.12898E+00  2.18078E+00
#           2.23384E+00  2.28819E+00  2.34386E+00  2.40089E+00  2.45930E+00
#           2.51914E+00  2.58043E+00  2.64322E+00  2.70753E+00  2.77341E+00
#           2.84088E+00  2.91001E+00  2.98081E+00  3.05333E+00  3.12762E+00
#           3.20372E+00  3.28167E+00  3.36152E+00  3.44330E+00  3.52708E+00
#           3.61290E+00  3.70080E+00  3.79085E+00  3.88308E+00  3.97756E+00
#           4.07434E+00  4.17347E+00  4.27501E+00  4.37903E+00  4.48557E+00
#           4.59471E+00  4.70650E+00  4.82102E+00  4.93832E+00  5.05847E+00
#           5.18155E+00  5.30762E+00  5.43676E+00  5.56904E+00  5.70453E+00
#           5.84333E+00  5.98550E+00  6.13114E+00  6.28031E+00  6.43312E+00
#           6.58964E+00  6.74997E+00  6.91420E+00  7.08243E+00  7.25475E+00
#           7.43126E+00  7.61207E+00  7.79728E+00  7.98700E+00  8.18133E+00
#           8.38038E+00  8.58428E+00  8.79315E+00  9.00709E+00  9.22624E+00
#           9.45072E+00  9.68067E+00  9.91620E+00  1.01575E+01  1.04046E+01
#           1.06578E+01  1.09171E+01  1.11827E+01  1.14548E+01  1.17335E+01
#           1.20190E+01  1.23114E+01  1.26109E+01  1.29178E+01  1.32321E+01
#           1.35540E+01  1.38838E+01  1.42216E+01  1.45676E+01  1.49221E+01
#           1.52851E+01  1.56570E+01  1.60380E+01  1.64282E+01  1.68279E+01
#           1.72374E+01  1.76568E+01  1.80864E+01  1.85264E+01  1.89772E+01
#           1.94389E+01  1.99119E+01  2.03963E+01  2.08926E+01  2.14009E+01
#           2.19216E+01  2.24550E+01  2.30014E+01  2.35610E+01  2.41343E+01
#           2.47215E+01  2.53230E+01  2.59391E+01  2.65702E+01  2.72167E+01
#           2.78789E+01  2.85572E+01  2.92520E+01  2.99637E+01  3.06928E+01
#           3.14396E+01  3.22045E+01  3.29881E+01  3.37907E+01  3.46128E+01
#           3.54550E+01  3.63177E+01  3.72013E+01  3.81064E+01  3.90336E+01
#           3.99833E+01  4.09561E+01  4.19526E+01  4.29734E+01  4.40189E+01
#           4.50900E+01  4.61870E+01  4.73108E+01  4.84619E+01  4.96410E+01
#           5.08488E+01  5.20860E+01  5.33533E+01  5.46514E+01  5.59812E+01
#           5.73432E+01  5.87384E+01  6.01676E+01  6.16315E+01  6.31311E+01
#           6.46671E+01  6.62405E+01  6.78522E+01  6.95031E+01  7.11941E+01
#           7.29263E+01  7.47007E+01  7.65182E+01  7.83800E+01  8.02870E+01
#           8.22405E+01  8.42414E+01  8.62911E+01  8.83906E+01  9.05412E+01
#           9.27442E+01  9.50007E+01  9.73122E+01  9.96799E+01  1.02105E+02
#           1.04589E+02  1.07134E+02  1.09741E+02  1.12411E+02  1.15146E+02
#           1.17948E+02  1.20817E+02  1.23757E+02  1.26768E+02  1.29852E+02
#           1.33012E+02  1.36248E+02  1.39563E+02  1.42959E+02  1.46437E+02
#           1.50000E+02
     unit =    2            # unit is [1/cm^2/(MeV/n)/source]
     axis =  eng            # axis of output
     file = detector-07.out  # file name of output for the above axis
   output = f-curr          # surface crossing forward current spectrum
     part =  neutron  
# kf/name :  2112     
#    used :        main (  %)        temp (  %)       total (  %)
#  memory :         414 (  0)           0 (  0)         414 (  0)

#------------------------------------------------------------------------------
#newpage:
#   no. =    1   reg = 106 - 206

x: Energy [MeV/n]
y:  F-Curr [1/cm^2/(MeV/n)/source]         
p: xlog ylog afac(0.8) form(0.9)
h: n            x            y(neutron ),hh0l   n 
#  e-lower      e-upper      neutron     r.err 
   1.0000E-02   1.0243E-02   2.1603E-04  0.0758
   1.0243E-02   1.0493E-02   2.2836E-04  0.0729
   1.0493E-02   1.0748E-02   2.1509E-04  0.0742
   1.0748E-02   1.1009E-02   1.9633E-04  0.0767
   1.1009E-02   1.1277E-02   2.1957E-04  0.0717
   1.1277E-02   1.1552E-02   2.0281E-04  0.0737
   1.1552E-02   1.1833E-02   1.9595E-04  0.0740
   1.1833E-02   1.2121E-02   1.8514E-04  0.0754
   1.2121E-02   1.2415E-02   1.9955E-04  0.0716
   1.2415E-02   1.2718E-02   1.6081E-04  0.0789
   1.2718E-02   1.3027E-02   1.6688E-04  0.0765
   1.3027E-02   1.3344E-02   1.8757E-04  0.0712
   1.3344E-02   1.3669E-02   1.7167E-04  0.0736
   1.3669E-02   1.4001E-02   1.8773E-04  0.0695
   1.4001E-02   1.4342E-02   1.6221E-04  0.0739
   1.4342E-02   1.4691E-02   1.7409E-04  0.0706
   1.4691E-02   1.5048E-02   1.5473E-04  0.0739
   1.5048E-02   1.5414E-02   1.4534E-04  0.0753
   1.5414E-02   1.5789E-02   1.5316E-04  0.0726
   1.5789E-02   1.6174E-02   1.5638E-04  0.0709
   1.6174E-02   1.6567E-02   1.4067E-04  0.0738
   1.6567E-02   1.6970E-02   1.4105E-04  0.0728
   1.6970E-02   1.7383E-02   1.3341E-04  0.0741
   1.7383E-02   1.7806E-02   1.3804E-04  0.0719
   1.7806E-02   1.8239E-02   1.2787E-04  0.0739
   1.8239E-02   1.8683E-02   1.3107E-04  0.0720
   1.8683E-02   1.9138E-02   1.2638E-04  0.0725
   1.9138E-02   1.9603E-02   1.1877E-04  0.0739
   1.9603E-02   2.0080E-02   1.2341E-04  0.0716
   2.0080E-02   2.0569E-02   1.2320E-04  0.0709
   2.0569E-02   2.1069E-02   1.2910E-04  0.0684
   2.1069E-02   2.1582E-02   1.1203E-04  0.0725
   2.1582E-02   2.2107E-02   1.1113E-04  0.0719
   2.2107E-02   2.2645E-02   1.0484E-04  0.0732
   2.2645E-02   2.3196E-02   1.1687E-04  0.0685
   2.3196E-02   2.3760E-02   1.0491E-04  0.0714
   2.3760E-02   2.4338E-02   9.7980E-05  0.0730
   2.4338E-02   2.4930E-02   1.0208E-04  0.0707
   2.4930E-02   2.5537E-02   1.0181E-04  0.0700
   2.5537E-02   2.6158E-02   1.0039E-04  0.0695
   2.6158E-02   2.6795E-02   1.1035E-04  0.0656
   2.6795E-02   2.7447E-02   9.9645E-05  0.0682
   2.7447E-02   2.8114E-02   8.6773E-05  0.0722
   2.8114E-02   2.8799E-02   8.9931E-05  0.0701
   2.8799E-02   2.9499E-02   7.9536E-05  0.0736
   2.9499E-02   3.0217E-02   9.1157E-05  0.0679
   3.0217E-02   3.0952E-02   8.9270E-05  0.0679
   3.0952E-02   3.1705E-02   8.2198E-05  0.0699
   3.1705E-02   3.2477E-02   8.0546E-05  0.0697
   3.2477E-02   3.3267E-02   7.8885E-05  0.0697
   3.3267E-02   3.4076E-02   8.0944E-05  0.0678
   3.4076E-02   3.4905E-02   7.4221E-05  0.0701
   3.4905E-02   3.5755E-02   6.7847E-05  0.0725
   3.5755E-02   3.6625E-02   7.2929E-05  0.0690
   3.6625E-02   3.7516E-02   7.1812E-05  0.0687
   3.7516E-02   3.8428E-02   7.1901E-05  0.0679
   3.8428E-02   3.9363E-02   6.7857E-05  0.0690
   3.9363E-02   4.0321E-02   6.5203E-05  0.0696
   4.0321E-02   4.1302E-02   7.6212E-05  0.0636
   4.1302E-02   4.2307E-02   6.5378E-05  0.0678
   4.2307E-02   4.3337E-02   6.2558E-05  0.0685
   4.3337E-02   4.4391E-02   5.8794E-05  0.0698
   4.4391E-02   4.5471E-02   5.6055E-05  0.0707
   4.5471E-02   4.6577E-02   5.0635E-05  0.0735
   4.6577E-02   4.7711E-02   5.8836E-05  0.0673
   4.7711E-02   4.8871E-02   5.7755E-05  0.0671
   4.8871E-02   5.0061E-02   5.7735E-05  0.0663
   5.0061E-02   5.1279E-02   5.7956E-05  0.0654
   5.1279E-02   5.2526E-02   5.5034E-05  0.0664
   5.2526E-02   5.3804E-02   5.0673E-05  0.0683
   5.3804E-02   5.5113E-02   4.6913E-05  0.0701
   5.5113E-02   5.6454E-02   5.2240E-05  0.0657
   5.6454E-02   5.7828E-02   5.0831E-05  0.0658
   5.7828E-02   5.9235E-02   5.1531E-05  0.0645
   5.9235E-02   6.0676E-02   4.7091E-05  0.0667
   6.0676E-02   6.2152E-02   4.5392E-05  0.0671
   6.2152E-02   6.3665E-02   4.6558E-05  0.0655
   6.3665E-02   6.5214E-02   3.7892E-05  0.0718
   6.5214E-02   6.6800E-02   4.2940E-05  0.0666
   6.6800E-02   6.8426E-02   4.5270E-05  0.0642
   6.8426E-02   7.0090E-02   3.6790E-05  0.0702
   7.0090E-02   7.1796E-02   4.0603E-05  0.0661
   7.1796E-02   7.3543E-02   4.0874E-05  0.0651
   7.3543E-02   7.5332E-02   3.8464E-05  0.0662
   7.5332E-02   7.7165E-02   3.7968E-05  0.0658
   7.7165E-02   7.9042E-02   3.8499E-05  0.0647
   7.9042E-02   8.0965E-02   3.8514E-05  0.0639
   8.0965E-02   8.2935E-02   3.2362E-05  0.0689
   8.2935E-02   8.4953E-02   3.4315E-05  0.0661
   8.4953E-02   8.7020E-02   3.0776E-05  0.0689
   8.7020E-02   8.9138E-02   3.5843E-05  0.0631
   8.9138E-02   9.1306E-02   3.4099E-05  0.0639
   9.1306E-02   9.3528E-02   3.5184E-05  0.0621
   9.3528E-02   9.5804E-02   2.8967E-05  0.0677
   9.5804E-02   9.8134E-02   3.3659E-05  0.0621
   9.8134E-02   1.0052E-01   3.3353E-05  0.0617
   1.0052E-01   1.0297E-01   3.2255E-05  0.0619
   1.0297E-01   1.0547E-01   3.3003E-05  0.0605
   1.0547E-01   1.0804E-01   3.3025E-05  0.0597
   1.0804E-01   1.1067E-01   3.3398E-05  0.0586
   1.1067E-01   1.1336E-01   3.5000E-05  0.0566
   1.1336E-01   1.1612E-01   3.6908E-05  0.0545
   1.1612E-01   1.1894E-01   3.7154E-05  0.0537
   1.1894E-01   1.2184E-01   3.8084E-05  0.0524
   1.2184E-01   1.2480E-01   4.2039E-05  0.0492
   1.2480E-01   1.2784E-01   4.0062E-05  0.0499
   1.2784E-01   1.3095E-01   4.7857E-05  0.0451
   1.3095E-01   1.3414E-01   4.6817E-05  0.0450
   1.3414E-01   1.3740E-01   4.6120E-05  0.0448
   1.3740E-01   1.4074E-01   4.8182E-05  0.0433
   1.4074E-01   1.4417E-01   4.8339E-05  0.0427
   1.4417E-01   1.4767E-01   4.7849E-05  0.0425
   1.4767E-01   1.5127E-01   5.3405E-05  0.0397
   1.5127E-01   1.5495E-01   5.3335E-05  0.0392
   1.5495E-01   1.5872E-01   5.6414E-05  0.0377
   1.5872E-01   1.6258E-01   5.9068E-05  0.0364
   1.6258E-01   1.6654E-01   5.9312E-05  0.0359
   1.6654E-01   1.7059E-01   6.3031E-05  0.0344
   1.7059E-01   1.7474E-01   6.5668E-05  0.0333
   1.7474E-01   1.7899E-01   6.8940E-05  0.0321
   1.7899E-01   1.8334E-01   6.6596E-05  0.0323
   1.8334E-01   1.8781E-01   7.0947E-05  0.0309
   1.8781E-01   1.9237E-01   7.1081E-05  0.0305
   1.9237E-01   1.9706E-01   7.2349E-05  0.0299
   1.9706E-01   2.0185E-01   7.7105E-05  0.0286
   2.0185E-01   2.0676E-01   8.1504E-05  0.0275
   2.0676E-01   2.1179E-01   7.9827E-05  0.0274
   2.1179E-01   2.1694E-01   8.2744E-05  0.0266
   2.1694E-01   2.2222E-01   8.4461E-05  0.0260
   2.2222E-01   2.2763E-01   8.6320E-05  0.0254
   2.2763E-01   2.3317E-01   9.2288E-05  0.0243
   2.3317E-01   2.3884E-01   9.1304E-05  0.0242
   2.3884E-01   2.4465E-01   9.9004E-05  0.0229
   2.4465E-01   2.5061E-01   9.4192E-05  0.0232
   2.5061E-01   2.5670E-01   1.0110E-04  0.0221
   2.5670E-01   2.6295E-01   9.9572E-05  0.0220
   2.6295E-01   2.6935E-01   1.0195E-04  0.0215
   2.6935E-01   2.7590E-01   1.0527E-04  0.0209
   2.7590E-01   2.8261E-01   1.1277E-04  0.0200
   2.8261E-01   2.8949E-01   1.1264E-04  0.0198
   2.8949E-01   2.9653E-01   1.1197E-04  0.0196
   2.9653E-01   3.0375E-01   1.2015E-04  0.0187
   3.0375E-01   3.1114E-01   1.2274E-04  0.0182
   3.1114E-01   3.1871E-01   1.2472E-04  0.0179
   3.1871E-01   3.2646E-01   1.2365E-04  0.0177
   3.2646E-01   3.3441E-01   1.3177E-04  0.0170
   3.3441E-01   3.4254E-01   1.3650E-04  0.0165
   3.4254E-01   3.5088E-01   1.3561E-04  0.0163
   3.5088E-01   3.5941E-01   1.4073E-04  0.0158
   3.5941E-01   3.6816E-01   1.4260E-04  0.0156
   3.6816E-01   3.7712E-01   1.4756E-04  0.0151
   3.7712E-01   3.8629E-01   1.5066E-04  0.0148
   3.8629E-01   3.9569E-01   1.5340E-04  0.0145
   3.9569E-01   4.0532E-01   1.6217E-04  0.0139
   4.0532E-01   4.1518E-01   1.5867E-04  0.0139
   4.1518E-01   4.2528E-01   1.6560E-04  0.0134
   4.2528E-01   4.3563E-01   1.6704E-04  0.0132
   4.3563E-01   4.4623E-01   1.6903E-04  0.0130
   4.4623E-01   4.5708E-01   1.7651E-04  0.0125
   4.5708E-01   4.6821E-01   1.8088E-04  0.0122
   4.6821E-01   4.7960E-01   1.8144E-04  0.0121
   4.7960E-01   4.9127E-01   1.9299E-04  0.0116
   4.9127E-01   5.0322E-01   1.8630E-04  0.0116
   5.0322E-01   5.1546E-01   1.9423E-04  0.0113
   5.1546E-01   5.2800E-01   1.9657E-04  0.0111
   5.2800E-01   5.4085E-01   2.0192E-04  0.0108
   5.4085E-01   5.5401E-01   2.0652E-04  0.0105
   5.5401E-01   5.6749E-01   2.1364E-04  0.0102
   5.6749E-01   5.8130E-01   2.1365E-04  0.0101
   5.8130E-01   5.9544E-01   2.1789E-04  0.0099
   5.9544E-01   6.0993E-01   2.2348E-04  0.0096
   6.0993E-01   6.2477E-01   2.2646E-04  0.0095
   6.2477E-01   6.3997E-01   2.3065E-04  0.0093
   6.3997E-01   6.5554E-01   2.3301E-04  0.0091
   6.5554E-01   6.7149E-01   2.4079E-04  0.0089
   6.7149E-01   6.8783E-01   2.4307E-04  0.0087
   6.8783E-01   7.0456E-01   2.4227E-04  0.0086
   7.0456E-01   7.2171E-01   2.4926E-04  0.0084
   7.2171E-01   7.3927E-01   2.5242E-04  0.0082
   7.3927E-01   7.5725E-01   2.5308E-04  0.0081
   7.5725E-01   7.7568E-01   2.5836E-04  0.0079
   7.7568E-01   7.9455E-01   2.5691E-04  0.0079
   7.9455E-01   8.1388E-01   2.6530E-04  0.0077
   8.1388E-01   8.3368E-01   2.6452E-04  0.0076
   8.3368E-01   8.5397E-01   2.6865E-04  0.0074
   8.5397E-01   8.7475E-01   2.7090E-04  0.0073
   8.7475E-01   8.9603E-01   2.6986E-04  0.0072
   8.9603E-01   9.1783E-01   2.7537E-04  0.0071
   9.1783E-01   9.4016E-01   2.7090E-04  0.0070
   9.4016E-01   9.6304E-01   2.7136E-04  0.0070
   9.6304E-01   9.8647E-01   2.7149E-04  0.0069
   9.8647E-01   1.0105E+00   2.6620E-04  0.0069
   1.0105E+00   1.0351E+00   2.6326E-04  0.0068
   1.0351E+00   1.0602E+00   2.6170E-04  0.0067
   1.0602E+00   1.0860E+00   2.6397E-04  0.0066
   1.0860E+00   1.1125E+00   2.6479E-04  0.0065
   1.1125E+00   1.1395E+00   2.6673E-04  0.0064
   1.1395E+00   1.1673E+00   2.6755E-04  0.0064
   1.1673E+00   1.1957E+00   2.7120E-04  0.0062
   1.1957E+00   1.2247E+00   2.7481E-04  0.0061
   1.2247E+00   1.2545E+00   2.7552E-04  0.0060
   1.2545E+00   1.2851E+00   2.7510E-04  0.0060
   1.2851E+00   1.3163E+00   2.7521E-04  0.0059
   1.3163E+00   1.3484E+00   2.7745E-04  0.0058
   1.3484E+00   1.3812E+00   2.7772E-04  0.0057
   1.3812E+00   1.4148E+00   2.7810E-04  0.0056
   1.4148E+00   1.4492E+00   2.7763E-04  0.0056
   1.4492E+00   1.4845E+00   2.7583E-04  0.0055
   1.4845E+00   1.5206E+00   2.7561E-04  0.0055
   1.5206E+00   1.5576E+00   2.7628E-04  0.0054
   1.5576E+00   1.5955E+00   2.7316E-04  0.0054
   1.5955E+00   1.6343E+00   2.7311E-04  0.0053
   1.6343E+00   1.6741E+00   2.6669E-04  0.0053
   1.6741E+00   1.7148E+00   2.6525E-04  0.0052
   1.7148E+00   1.7565E+00   2.6005E-04  0.0052
   1.7565E+00   1.7992E+00   2.4684E-04  0.0053
   1.7992E+00   1.8430E+00   2.3153E-04  0.0054
   1.8430E+00   1.8879E+00   2.1439E-04  0.0055
   1.8879E+00   1.9338E+00   2.0988E-04  0.0055
   1.9338E+00   1.9808E+00   2.0620E-04  0.0055
   1.9808E+00   2.0290E+00   2.0236E-04  0.0054
   2.0290E+00   2.0784E+00   2.0216E-04  0.0054
   2.0784E+00   2.1290E+00   2.0573E-04  0.0053
   2.1290E+00   2.1808E+00   2.1171E-04  0.0051
   2.1808E+00   2.2338E+00   2.1355E-04  0.0050
   2.2338E+00   2.2882E+00   2.0903E-04  0.0050
   2.2882E+00   2.3439E+00   2.0039E-04  0.0051
   2.3439E+00   2.4009E+00   1.9468E-04  0.0051
   2.4009E+00   2.4593E+00   1.9315E-04  0.0051
   2.4593E+00   2.5191E+00   1.9214E-04  0.0050
   2.5191E+00   2.5804E+00   1.8906E-04  0.0050
   2.5804E+00   2.6432E+00   1.8870E-04  0.0049
   2.6432E+00   2.7075E+00   1.8522E-04  0.0049
   2.7075E+00   2.7734E+00   1.8436E-04  0.0049
   2.7734E+00   2.8409E+00   1.8195E-04  0.0049
   2.8409E+00   2.9100E+00   1.7946E-04  0.0048
   2.9100E+00   2.9808E+00   1.7794E-04  0.0048
   2.9808E+00   3.0533E+00   1.7644E-04  0.0048
   3.0533E+00   3.1276E+00   1.7115E-04  0.0048
   3.1276E+00   3.2037E+00   1.7268E-04  0.0047
   3.2037E+00   3.2817E+00   1.6966E-04  0.0047
   3.2817E+00   3.3615E+00   1.6854E-04  0.0047
   3.3615E+00   3.4433E+00   1.6569E-04  0.0046
   3.4433E+00   3.5271E+00   1.6507E-04  0.0046
   3.5271E+00   3.6129E+00   1.6418E-04  0.0046
   3.6129E+00   3.7008E+00   1.6229E-04  0.0045
   3.7008E+00   3.7908E+00   1.5973E-04  0.0045
   3.7908E+00   3.8831E+00   1.5773E-04  0.0045
   3.8831E+00   3.9776E+00   1.5637E-04  0.0045
   3.9776E+00   4.0743E+00   1.5418E-04  0.0044
   4.0743E+00   4.1735E+00   1.5048E-04  0.0044
   4.1735E+00   4.2750E+00   1.4692E-04  0.0044
   4.2750E+00   4.3790E+00   1.4510E-04  0.0044
   4.3790E+00   4.4856E+00   1.4320E-04  0.0044
   4.4856E+00   4.5947E+00   1.3895E-04  0.0044
   4.5947E+00   4.7065E+00   1.3659E-04  0.0044
   4.7065E+00   4.8210E+00   1.3495E-04  0.0044
   4.8210E+00   4.9383E+00   1.3470E-04  0.0043
   4.9383E+00   5.0585E+00   1.3258E-04  0.0043
   5.0585E+00   5.1815E+00   1.3130E-04  0.0043
   5.1815E+00   5.3076E+00   1.3062E-04  0.0042
   5.3076E+00   5.4368E+00   1.2901E-04  0.0042
   5.4368E+00   5.5690E+00   1.2730E-04  0.0042
   5.5690E+00   5.7045E+00   1.2573E-04  0.0042
   5.7045E+00   5.8433E+00   1.2525E-04  0.0041
   5.8433E+00   5.9855E+00   1.2350E-04  0.0041
   5.9855E+00   6.1311E+00   1.2325E-04  0.0040
   6.1311E+00   6.2803E+00   1.2149E-04  0.0040
   6.2803E+00   6.4331E+00   1.2095E-04  0.0040
   6.4331E+00   6.5896E+00   1.2009E-04  0.0040
   6.5896E+00   6.7500E+00   1.1859E-04  0.0039
   6.7500E+00   6.9142E+00   1.1906E-04  0.0039
   6.9142E+00   7.0824E+00   1.1801E-04  0.0039
   7.0824E+00   7.2548E+00   1.1684E-04  0.0038
   7.2548E+00   7.4313E+00   1.1512E-04  0.0038
   7.4313E+00   7.6121E+00   1.1439E-04  0.0038
   7.6121E+00   7.7973E+00   1.1464E-04  0.0037
   7.7973E+00   7.9870E+00   1.1348E-04  0.0037
   7.9870E+00   8.1813E+00   1.1227E-04  0.0037
   8.1813E+00   8.3804E+00   1.1153E-04  0.0037
   8.3804E+00   8.5843E+00   1.1099E-04  0.0036
   8.5843E+00   8.7931E+00   1.0901E-04  0.0036
   8.7931E+00   9.0071E+00   1.0795E-04  0.0036
   9.0071E+00   9.2262E+00   1.0696E-04  0.0036
   9.2262E+00   9.4507E+00   1.0543E-04  0.0035
   9.4507E+00   9.6807E+00   1.0397E-04  0.0035
   9.6807E+00   9.9162E+00   1.0438E-04  0.0035
   9.9162E+00   1.0157E+01   1.1020E-04  0.0034
   1.0157E+01   1.0405E+01   1.0792E-04  0.0034
   1.0405E+01   1.0658E+01   1.0681E-04  0.0033
   1.0658E+01   1.0917E+01   1.0492E-04  0.0033
   1.0917E+01   1.1183E+01   1.0206E-04  0.0033
   1.1183E+01   1.1455E+01   1.0131E-04  0.0033
   1.1455E+01   1.1733E+01   1.0082E-04  0.0033
   1.1733E+01   1.2019E+01   1.0049E-04  0.0032
   1.2019E+01   1.2311E+01   1.0066E-04  0.0032
   1.2311E+01   1.2611E+01   9.9215E-05  0.0032
   1.2611E+01   1.2918E+01   9.9552E-05  0.0031
   1.2918E+01   1.3232E+01   9.8606E-05  0.0031
   1.3232E+01   1.3554E+01   9.8525E-05  0.0031
   1.3554E+01   1.3884E+01   9.8552E-05  0.0030
   1.3884E+01   1.4222E+01   9.8066E-05  0.0030
   1.4222E+01   1.4568E+01   9.7893E-05  0.0030
   1.4568E+01   1.4922E+01   9.7566E-05  0.0030
   1.4922E+01   1.5285E+01   9.7133E-05  0.0029
   1.5285E+01   1.5657E+01   9.6764E-05  0.0029
   1.5657E+01   1.6038E+01   9.6335E-05  0.0029
   1.6038E+01   1.6428E+01   9.6746E-05  0.0028
   1.6428E+01   1.6828E+01   9.6057E-05  0.0028
   1.6828E+01   1.7237E+01   9.6279E-05  0.0028
   1.7237E+01   1.7657E+01   9.6390E-05  0.0027
   1.7657E+01   1.8086E+01   9.6473E-05  0.0027
   1.8086E+01   1.8526E+01   9.6039E-05  0.0027
   1.8526E+01   1.8977E+01   9.5876E-05  0.0026
   1.8977E+01   1.9439E+01   9.5562E-05  0.0026
   1.9439E+01   1.9912E+01   9.6714E-05  0.0026
   1.9912E+01   2.0396E+01   9.7905E-05  0.0025
   2.0396E+01   2.0893E+01   9.7782E-05  0.0025
   2.0893E+01   2.1401E+01   9.8336E-05  0.0025
   2.1401E+01   2.1922E+01   9.7458E-05  0.0024
   2.1922E+01   2.2455E+01   9.8338E-05  0.0024
   2.2455E+01   2.3001E+01   9.8488E-05  0.0024
   2.3001E+01   2.3561E+01   9.8511E-05  0.0023
   2.3561E+01   2.4134E+01   9.9261E-05  0.0023
   2.4134E+01   2.4721E+01   9.9672E-05  0.0023
   2.4721E+01   2.5323E+01   9.9822E-05  0.0022
   2.5323E+01   2.5939E+01   9.9985E-05  0.0022
   2.5939E+01   2.6570E+01   1.0059E-04  0.0022
   2.6570E+01   2.7217E+01   1.0147E-04  0.0021
   2.7217E+01   2.7879E+01   1.0174E-04  0.0021
   2.7879E+01   2.8557E+01   1.0256E-04  0.0021
   2.8557E+01   2.9252E+01   1.0346E-04  0.0021
   2.9252E+01   2.9964E+01   1.0390E-04  0.0020
   2.9964E+01   3.0693E+01   1.0471E-04  0.0020
   3.0693E+01   3.1440E+01   1.0569E-04  0.0020
   3.1440E+01   3.2205E+01   1.0659E-04  0.0019
   3.2205E+01   3.2988E+01   1.0719E-04  0.0019
   3.2988E+01   3.3791E+01   1.0802E-04  0.0019
   3.3791E+01   3.4613E+01   1.0859E-04  0.0018
   3.4613E+01   3.5455E+01   1.0946E-04  0.0018
   3.5455E+01   3.6318E+01   1.1005E-04  0.0018
   3.6318E+01   3.7201E+01   1.1022E-04  0.0018
   3.7201E+01   3.8106E+01   1.1011E-04  0.0017
   3.8106E+01   3.9034E+01   1.1016E-04  0.0017
   3.9034E+01   3.9983E+01   1.0956E-04  0.0017
   3.9983E+01   4.0956E+01   1.0862E-04  0.0017
   4.0956E+01   4.1953E+01   1.0717E-04  0.0017
   4.1953E+01   4.2973E+01   1.0614E-04  0.0017
   4.2973E+01   4.4019E+01   1.0372E-04  0.0017
   4.4019E+01   4.5090E+01   1.0170E-04  0.0017
   4.5090E+01   4.6187E+01   9.9902E-05  0.0017
   4.6187E+01   4.7311E+01   9.9313E-05  0.0016
   4.7311E+01   4.8462E+01   9.8333E-05  0.0016
   4.8462E+01   4.9641E+01   9.5835E-05  0.0016
   4.9641E+01   5.0849E+01   9.2661E-05  0.0016
   5.0849E+01   5.2086E+01   8.9700E-05  0.0017
   5.2086E+01   5.3353E+01   8.6852E-05  0.0017
   5.3353E+01   5.4651E+01   8.4035E-05  0.0017
   5.4651E+01   5.5981E+01   8.1200E-05  0.0017
   5.5981E+01   5.7343E+01   7.7856E-05  0.0017
   5.7343E+01   5.8738E+01   7.4402E-05  0.0017
   5.8738E+01   6.0168E+01   7.1415E-05  0.0017
   6.0168E+01   6.1632E+01   6.7711E-05  0.0017
   6.1632E+01   6.3131E+01   6.4450E-05  0.0018
   6.3131E+01   6.4667E+01   6.0899E-05  0.0018
   6.4667E+01   6.6240E+01   5.7108E-05  0.0018
   6.6240E+01   6.7852E+01   5.3096E-05  0.0019
   6.7852E+01   6.9503E+01   4.9351E-05  0.0019
   6.9503E+01   7.1194E+01   4.5048E-05  0.0020
   7.1194E+01   7.2926E+01   4.0797E-05  0.0021
   7.2926E+01   7.4701E+01   3.6202E-05  0.0022
   7.4701E+01   7.6518E+01   3.1598E-05  0.0023
   7.6518E+01   7.8380E+01   2.6691E-05  0.0025
   7.8380E+01   8.0287E+01   2.2075E-05  0.0027
   8.0287E+01   8.2240E+01   1.7574E-05  0.0030
   8.2240E+01   8.4241E+01   1.3892E-05  0.0033
   8.4241E+01   8.6291E+01   1.0965E-05  0.0037
   8.6291E+01   8.8391E+01   9.0632E-06  0.0040
   8.8391E+01   9.0541E+01   6.1103E-06  0.0048
   9.0541E+01   9.2744E+01   4.5669E-08  0.0549
   9.2744E+01   9.5001E+01   0.0000E+00  0.0000
   9.5001E+01   9.7312E+01   0.0000E+00  0.0000
   9.7312E+01   9.9680E+01   0.0000E+00  0.0000
   9.9680E+01   1.0211E+02   0.0000E+00  0.0000
   1.0211E+02   1.0459E+02   0.0000E+00  0.0000
   1.0459E+02   1.0713E+02   0.0000E+00  0.0000
   1.0713E+02   1.0974E+02   0.0000E+00  0.0000
   1.0974E+02   1.1241E+02   0.0000E+00  0.0000
   1.1241E+02   1.1515E+02   0.0000E+00  0.0000
   1.1515E+02   1.1795E+02   0.0000E+00  0.0000
   1.1795E+02   1.2082E+02   0.0000E+00  0.0000
   1.2082E+02   1.2376E+02   0.0000E+00  0.0000
   1.2376E+02   1.2677E+02   0.0000E+00  0.0000
   1.2677E+02   1.2985E+02   0.0000E+00  0.0000
   1.2985E+02   1.3301E+02   0.0000E+00  0.0000
   1.3301E+02   1.3625E+02   0.0000E+00  0.0000
   1.3625E+02   1.3956E+02   0.0000E+00  0.0000
   1.3956E+02   1.4296E+02   0.0000E+00  0.0000
   1.4296E+02   1.4644E+02   0.0000E+00  0.0000
   1.4644E+02   1.5000E+02   0.0000E+00  0.0000

#   sum over                 4.9704E-05
'no. =    1   reg = 106 - 206'
msuc: {\huge [t-cross] in region mesh}
msdr: {\it plotted by \ANGEL \version}
msdl: {\it calculated by \PHITS  3.26}
wt: s(0.7)
\vspace{-3}
  region surface crossing
  area  &=&   1.0000E+00 [cm^2]
e:
 
# Information for Restart Calculation
# This calculation was newly started
# istdev =  2 # 1:Batch variance, 2:History variance
# resc2  = 3.30000000000000000E+09 # Total source weight or Total source weight / maxcas
# resc3  = 3.30000000000000000E+09 # Total history number or Total batch number
# maxcas =   100000000 # History / Batch, only used for istdev=1
# bitrseed = 0101100101101000001001100111101000001111100111100110100001101010 # bit data of rseed
