[ T-Cross ]
    title = [t-cross] in region mesh
     mesh =  reg            # mesh type is region-wise
      reg =    1            # number of crossing regions
      non     r-from    r-to       area
      1       107       207        1.000000    
   e-type =    3            # e-mesh is log given by emin, emax and ne
     emin =  1.0000000E-02  # minimum value of e-mesh points
     emax =   150.0000      # maximum value of e-mesh points
#    edel =  2.4039514E-02  # mesh width of e-mesh points
       ne =    400          # number of e-mesh points
#    data = ( e(i), i = 1, ne + 1 )
#           1.00000E-02  1.02433E-02  1.04925E-02  1.07478E-02  1.10093E-02
#           1.12772E-02  1.15516E-02  1.18326E-02  1.21205E-02  1.24154E-02
#           1.27175E-02  1.30269E-02  1.33439E-02  1.36686E-02  1.40011E-02
#           1.43418E-02  1.46907E-02  1.50482E-02  1.54143E-02  1.57894E-02
#           1.61735E-02  1.65670E-02  1.69701E-02  1.73830E-02  1.78060E-02
#           1.82392E-02  1.86830E-02  1.91375E-02  1.96032E-02  2.00801E-02
#           2.05687E-02  2.10692E-02  2.15818E-02  2.21069E-02  2.26448E-02
#           2.31957E-02  2.37601E-02  2.43382E-02  2.49304E-02  2.55369E-02
#           2.61583E-02  2.67947E-02  2.74467E-02  2.81145E-02  2.87985E-02
#           2.94992E-02  3.02169E-02  3.09521E-02  3.17052E-02  3.24766E-02
#           3.32668E-02  3.40762E-02  3.49053E-02  3.57546E-02  3.66246E-02
#           3.75157E-02  3.84284E-02  3.93634E-02  4.03212E-02  4.13022E-02
#           4.23071E-02  4.33365E-02  4.43909E-02  4.54710E-02  4.65773E-02
#           4.77106E-02  4.88714E-02  5.00605E-02  5.12785E-02  5.25262E-02
#           5.38042E-02  5.51133E-02  5.64542E-02  5.78278E-02  5.92348E-02
#           6.06760E-02  6.21523E-02  6.36645E-02  6.52135E-02  6.68002E-02
#           6.84255E-02  7.00904E-02  7.17957E-02  7.35426E-02  7.53319E-02
#           7.71648E-02  7.90423E-02  8.09655E-02  8.29354E-02  8.49533E-02
#           8.70203E-02  8.91376E-02  9.13064E-02  9.35279E-02  9.58035E-02
#           9.81345E-02  1.00522E-01  1.02968E-01  1.05473E-01  1.08040E-01
#           1.10668E-01  1.13361E-01  1.16119E-01  1.18944E-01  1.21838E-01
#           1.24803E-01  1.27839E-01  1.30950E-01  1.34136E-01  1.37399E-01
#           1.40742E-01  1.44167E-01  1.47675E-01  1.51268E-01  1.54948E-01
#           1.58718E-01  1.62580E-01  1.66535E-01  1.70587E-01  1.74738E-01
#           1.78989E-01  1.83344E-01  1.87805E-01  1.92375E-01  1.97055E-01
#           2.01850E-01  2.06761E-01  2.11792E-01  2.16945E-01  2.22223E-01
#           2.27630E-01  2.33169E-01  2.38842E-01  2.44653E-01  2.50605E-01
#           2.56703E-01  2.62949E-01  2.69346E-01  2.75900E-01  2.82613E-01
#           2.89489E-01  2.96532E-01  3.03747E-01  3.11138E-01  3.18708E-01
#           3.26462E-01  3.34405E-01  3.42542E-01  3.50876E-01  3.59413E-01
#           3.68158E-01  3.77116E-01  3.86291E-01  3.95690E-01  4.05317E-01
#           4.15179E-01  4.25281E-01  4.35628E-01  4.46227E-01  4.57084E-01
#           4.68205E-01  4.79597E-01  4.91266E-01  5.03219E-01  5.15463E-01
#           5.28005E-01  5.40851E-01  5.54011E-01  5.67490E-01  5.81298E-01
#           5.95441E-01  6.09929E-01  6.24769E-01  6.39970E-01  6.55541E-01
#           6.71491E-01  6.87828E-01  7.04564E-01  7.21706E-01  7.39266E-01
#           7.57253E-01  7.75678E-01  7.94551E-01  8.13883E-01  8.33685E-01
#           8.53969E-01  8.74747E-01  8.96030E-01  9.17831E-01  9.40163E-01
#           9.63038E-01  9.86469E-01  1.01047E+00  1.03506E+00  1.06024E+00
#           1.08604E+00  1.11246E+00  1.13953E+00  1.16725E+00  1.19565E+00
#           1.22474E+00  1.25454E+00  1.28507E+00  1.31633E+00  1.34836E+00
#           1.38117E+00  1.41477E+00  1.44920E+00  1.48446E+00  1.52057E+00
#           1.55757E+00  1.59547E+00  1.63429E+00  1.67405E+00  1.71478E+00
#           1.75650E+00  1.79924E+00  1.84302E+00  1.88786E+00  1.93379E+00
#           1.98084E+00  2.02904E+00  2.07841E+00  2.12898E+00  2.18078E+00
#           2.23384E+00  2.28819E+00  2.34386E+00  2.40089E+00  2.45930E+00
#           2.51914E+00  2.58043E+00  2.64322E+00  2.70753E+00  2.77341E+00
#           2.84088E+00  2.91001E+00  2.98081E+00  3.05333E+00  3.12762E+00
#           3.20372E+00  3.28167E+00  3.36152E+00  3.44330E+00  3.52708E+00
#           3.61290E+00  3.70080E+00  3.79085E+00  3.88308E+00  3.97756E+00
#           4.07434E+00  4.17347E+00  4.27501E+00  4.37903E+00  4.48557E+00
#           4.59471E+00  4.70650E+00  4.82102E+00  4.93832E+00  5.05847E+00
#           5.18155E+00  5.30762E+00  5.43676E+00  5.56904E+00  5.70453E+00
#           5.84333E+00  5.98550E+00  6.13114E+00  6.28031E+00  6.43312E+00
#           6.58964E+00  6.74997E+00  6.91420E+00  7.08243E+00  7.25475E+00
#           7.43126E+00  7.61207E+00  7.79728E+00  7.98700E+00  8.18133E+00
#           8.38038E+00  8.58428E+00  8.79315E+00  9.00709E+00  9.22624E+00
#           9.45072E+00  9.68067E+00  9.91620E+00  1.01575E+01  1.04046E+01
#           1.06578E+01  1.09171E+01  1.11827E+01  1.14548E+01  1.17335E+01
#           1.20190E+01  1.23114E+01  1.26109E+01  1.29178E+01  1.32321E+01
#           1.35540E+01  1.38838E+01  1.42216E+01  1.45676E+01  1.49221E+01
#           1.52851E+01  1.56570E+01  1.60380E+01  1.64282E+01  1.68279E+01
#           1.72374E+01  1.76568E+01  1.80864E+01  1.85264E+01  1.89772E+01
#           1.94389E+01  1.99119E+01  2.03963E+01  2.08926E+01  2.14009E+01
#           2.19216E+01  2.24550E+01  2.30014E+01  2.35610E+01  2.41343E+01
#           2.47215E+01  2.53230E+01  2.59391E+01  2.65702E+01  2.72167E+01
#           2.78789E+01  2.85572E+01  2.92520E+01  2.99637E+01  3.06928E+01
#           3.14396E+01  3.22045E+01  3.29881E+01  3.37907E+01  3.46128E+01
#           3.54550E+01  3.63177E+01  3.72013E+01  3.81064E+01  3.90336E+01
#           3.99833E+01  4.09561E+01  4.19526E+01  4.29734E+01  4.40189E+01
#           4.50900E+01  4.61870E+01  4.73108E+01  4.84619E+01  4.96410E+01
#           5.08488E+01  5.20860E+01  5.33533E+01  5.46514E+01  5.59812E+01
#           5.73432E+01  5.87384E+01  6.01676E+01  6.16315E+01  6.31311E+01
#           6.46671E+01  6.62405E+01  6.78522E+01  6.95031E+01  7.11941E+01
#           7.29263E+01  7.47007E+01  7.65182E+01  7.83800E+01  8.02870E+01
#           8.22405E+01  8.42414E+01  8.62911E+01  8.83906E+01  9.05412E+01
#           9.27442E+01  9.50007E+01  9.73122E+01  9.96799E+01  1.02105E+02
#           1.04589E+02  1.07134E+02  1.09741E+02  1.12411E+02  1.15146E+02
#           1.17948E+02  1.20817E+02  1.23757E+02  1.26768E+02  1.29852E+02
#           1.33012E+02  1.36248E+02  1.39563E+02  1.42959E+02  1.46437E+02
#           1.50000E+02
     unit =    2            # unit is [1/cm^2/(MeV/n)/source]
     axis =  eng            # axis of output
     file = detector-08.out  # file name of output for the above axis
   output = f-curr          # surface crossing forward current spectrum
     part =  neutron  
# kf/name :  2112     
#    used :        main (  %)        temp (  %)       total (  %)
#  memory :         414 (  0)           0 (  0)         414 (  0)

#------------------------------------------------------------------------------
#newpage:
#   no. =    1   reg = 107 - 207

x: Energy [MeV/n]
y:  F-Curr [1/cm^2/(MeV/n)/source]         
p: xlog ylog afac(0.8) form(0.9)
h: n            x            y(neutron ),hh0l   n 
#  e-lower      e-upper      neutron     r.err 
   1.0000E-02   1.0243E-02   7.3819E-06  0.3333
   1.0243E-02   1.0493E-02   1.1210E-05  0.2673
   1.0493E-02   1.0748E-02   1.0741E-05  0.2650
   1.0748E-02   1.1009E-02   8.9001E-06  0.2899
   1.1009E-02   1.1277E-02   5.3558E-06  0.3693
   1.1277E-02   1.1552E-02   1.3705E-05  0.2296
   1.1552E-02   1.1833E-02   5.6777E-06  0.3536
   1.1833E-02   1.2121E-02   5.7511E-06  0.3423
   1.2121E-02   1.2415E-02   8.9389E-06  0.2692
   1.2415E-02   1.2718E-02   6.6607E-06  0.3115
   1.2718E-02   1.3027E-02   5.0238E-06  0.3544
   1.3027E-02   1.3344E-02   5.5261E-06  0.3340
   1.3344E-02   1.3669E-02   7.1538E-06  0.2902
   1.3669E-02   1.4001E-02   5.3986E-06  0.3333
   1.4001E-02   1.4342E-02   8.1451E-06  0.2648
   1.4342E-02   1.4691E-02   7.3728E-06  0.2748
   1.4691E-02   1.5048E-02   6.2367E-06  0.2971
   1.5048E-02   1.5414E-02   6.8785E-06  0.2781
   1.5414E-02   1.5789E-02   5.8548E-06  0.3015
   1.5789E-02   1.6174E-02   6.1278E-06  0.2890
   1.6174E-02   1.6567E-02   9.0846E-06  0.2358
   1.6567E-02   1.6970E-02   4.0105E-06  0.3438
   1.6970E-02   1.7383E-02   5.1372E-06  0.3023
   1.7383E-02   1.7806E-02   4.2479E-06  0.3333
   1.7806E-02   1.8239E-02   7.3634E-06  0.2500
   1.8239E-02   1.8683E-02   3.9293E-06  0.3345
   1.8683E-02   1.9138E-02   4.2253E-06  0.3170
   1.9138E-02   1.9603E-02   4.5967E-06  0.3023
   1.9603E-02   2.0080E-02   4.5971E-06  0.3015
   2.0080E-02   2.0569E-02   6.2207E-06  0.2548
   2.0569E-02   2.1069E-02   6.3091E-06  0.2503
   2.1069E-02   2.1582E-02   3.4759E-06  0.3334
   2.1582E-02   2.2107E-02   4.8119E-06  0.2785
   2.2107E-02   2.2645E-02   4.0779E-06  0.3015
   2.2645E-02   2.3196E-02   3.4304E-06  0.3184
   2.3196E-02   2.3760E-02   3.0634E-06  0.3342
   2.3760E-02   2.4338E-02   4.0615E-06  0.2892
   2.4338E-02   2.4930E-02   2.6896E-06  0.3536
   2.4930E-02   2.5537E-02   3.2887E-06  0.3162
   2.5537E-02   2.6158E-02   3.6883E-06  0.2897
   2.6158E-02   2.6795E-02   3.7123E-06  0.2890
   2.6795E-02   2.7447E-02   3.9808E-06  0.2774
   2.7447E-02   2.8114E-02   4.3281E-06  0.2593
   2.8114E-02   2.8799E-02   4.6139E-06  0.2503
   2.8799E-02   2.9499E-02   3.0875E-06  0.3019
   2.9499E-02   3.0217E-02   3.0610E-06  0.3015
   3.0217E-02   3.0952E-02   2.4423E-06  0.3333
   3.0952E-02   3.1705E-02   2.4396E-06  0.3268
   3.1705E-02   3.2477E-02   2.5868E-06  0.3112
   3.2477E-02   3.3267E-02   1.8070E-06  0.3664
   3.3267E-02   3.4076E-02   2.4264E-06  0.3166
   3.4076E-02   3.4905E-02   2.6307E-06  0.3016
   3.4905E-02   3.5755E-02   2.7839E-06  0.2889
   3.5755E-02   3.6625E-02   2.0409E-06  0.3335
   3.6625E-02   3.7516E-02   3.8996E-06  0.2368
   3.7516E-02   3.8428E-02   2.2048E-06  0.3108
   3.8428E-02   3.9363E-02   8.3521E-07  0.5004
   3.9363E-02   4.0321E-02   2.4080E-06  0.2898
   4.0321E-02   4.1302E-02   2.4257E-06  0.2887
   4.1302E-02   4.2307E-02   2.7395E-06  0.2676
   4.2307E-02   4.3337E-02   1.5469E-06  0.3536
   4.3337E-02   4.4391E-02   2.6302E-06  0.2674
   4.4391E-02   4.5471E-02   2.9494E-06  0.2500
   4.5471E-02   4.6577E-02   2.3266E-06  0.2774
   4.6577E-02   4.7711E-02   1.2048E-06  0.3785
   4.7711E-02   4.8871E-02   1.4674E-06  0.3356
   4.8871E-02   5.0061E-02   2.4412E-06  0.2593
   5.0061E-02   5.1279E-02   1.8024E-06  0.3015
   5.1279E-02   5.2526E-02   2.4004E-06  0.2542
   5.2526E-02   5.3804E-02   2.0280E-06  0.2774
   5.3804E-02   5.5113E-02   3.1739E-06  0.2183
   5.5113E-02   5.6454E-02   2.1355E-06  0.2595
   5.6454E-02   5.7828E-02   2.5811E-06  0.2360
   5.7828E-02   5.9235E-02   1.6903E-06  0.2887
   5.9235E-02   6.0676E-02   1.5227E-06  0.3015
   6.0676E-02   6.2152E-02   1.6946E-06  0.2783
   6.2152E-02   6.3665E-02   8.8251E-07  0.3790
   6.3665E-02   6.5214E-02   1.6745E-06  0.2774
   6.5214E-02   6.6800E-02   2.0124E-06  0.2500
   6.6800E-02   6.8426E-02   1.8465E-06  0.2550
   6.8426E-02   7.0090E-02   1.5566E-06  0.2774
   7.0090E-02   7.1796E-02   9.1877E-07  0.3540
   7.1796E-02   7.3543E-02   1.1001E-06  0.3172
   7.3543E-02   7.5332E-02   1.8963E-06  0.2425
   7.5332E-02   7.7165E-02   7.4470E-07  0.3786
   7.7165E-02   7.9042E-02   1.9677E-06  0.2299
   7.9042E-02   8.0965E-02   1.9282E-06  0.2298
   8.0965E-02   8.2935E-02   1.6868E-06  0.2429
   8.2935E-02   8.4953E-02   1.0533E-06  0.3023
   8.4953E-02   8.7020E-02   1.7483E-06  0.2318
   8.7020E-02   8.9138E-02   1.4357E-06  0.2533
   8.9138E-02   9.1306E-02   2.1130E-06  0.2085
   9.1306E-02   9.3528E-02   1.0498E-06  0.2858
   9.3528E-02   9.5804E-02   1.2812E-06  0.2585
   9.5804E-02   9.8134E-02   1.6055E-06  0.2298
   9.8134E-02   1.0052E-01   2.1393E-06  0.1966
   1.0052E-01   1.0297E-01   1.9576E-06  0.2041
   1.0297E-01   1.0547E-01   1.6438E-06  0.2185
   1.0547E-01   1.0804E-01   1.6869E-06  0.2136
   1.0804E-01   1.1067E-01   1.1983E-06  0.2503
   1.1067E-01   1.1336E-01   2.3917E-06  0.1746
   1.1336E-01   1.1612E-01   2.2892E-06  0.1771
   1.1612E-01   1.1894E-01   2.0998E-06  0.1827
   1.1894E-01   1.2184E-01   2.3215E-06  0.1716
   1.2184E-01   1.2480E-01   2.3293E-06  0.1693
   1.2480E-01   1.2784E-01   2.7988E-06  0.1528
   1.2784E-01   1.3095E-01   1.9719E-06  0.1783
   1.3095E-01   1.3414E-01   1.4396E-06  0.2039
   1.3414E-01   1.3740E-01   2.4340E-06  0.1573
   1.3740E-01   1.4074E-01   2.9306E-06  0.1417
   1.4074E-01   1.4417E-01   2.3411E-06  0.1560
   1.4417E-01   1.4767E-01   2.0376E-06  0.1659
   1.4767E-01   1.5127E-01   2.9946E-06  0.1348
   1.5127E-01   1.5495E-01   3.1419E-06  0.1301
   1.5495E-01   1.5872E-01   3.2602E-06  0.1266
   1.5872E-01   1.6258E-01   4.6731E-06  0.1047
   1.6258E-01   1.6654E-01   3.0230E-06  0.1291
   1.6654E-01   1.7059E-01   3.4493E-06  0.1189
   1.7059E-01   1.7474E-01   3.7688E-06  0.1124
   1.7474E-01   1.7899E-01   3.5181E-06  0.1152
   1.7899E-01   1.8334E-01   4.6217E-06  0.0988
   1.8334E-01   1.8781E-01   4.4629E-06  0.0995
   1.8781E-01   1.9237E-01   4.8223E-06  0.0948
   1.9237E-01   1.9706E-01   5.2153E-06  0.0902
   1.9706E-01   2.0185E-01   5.1239E-06  0.0895
   2.0185E-01   2.0676E-01   5.4732E-06  0.0858
   2.0676E-01   2.1179E-01   5.1525E-06  0.0872
   2.1179E-01   2.1694E-01   5.9015E-06  0.0804
   2.1694E-01   2.2222E-01   5.3380E-06  0.0837
   2.2222E-01   2.2763E-01   6.1158E-06  0.0773
   2.2763E-01   2.3317E-01   6.7817E-06  0.0725
   2.3317E-01   2.3884E-01   6.8732E-06  0.0711
   2.3884E-01   2.4465E-01   7.5663E-06  0.0671
   2.4465E-01   2.5061E-01   7.9295E-06  0.0648
   2.5061E-01   2.5670E-01   8.9837E-06  0.0601
   2.5670E-01   2.6295E-01   7.6363E-06  0.0643
   2.6295E-01   2.6935E-01   8.4655E-06  0.0604
   2.6935E-01   2.7590E-01   9.6147E-06  0.0560
   2.7590E-01   2.8261E-01   9.2983E-06  0.0563
   2.8261E-01   2.8949E-01   9.8328E-06  0.0541
   2.8949E-01   2.9653E-01   1.0869E-05  0.0509
   2.9653E-01   3.0375E-01   1.0261E-05  0.0517
   3.0375E-01   3.1114E-01   1.1563E-05  0.0480
   3.1114E-01   3.1871E-01   1.2961E-05  0.0449
   3.1871E-01   3.2646E-01   1.3273E-05  0.0438
   3.2646E-01   3.3441E-01   1.3132E-05  0.0435
   3.3441E-01   3.4254E-01   1.4544E-05  0.0408
   3.4254E-01   3.5088E-01   1.5723E-05  0.0388
   3.5088E-01   3.5941E-01   1.5249E-05  0.0389
   3.5941E-01   3.6816E-01   1.6740E-05  0.0367
   3.6816E-01   3.7712E-01   1.8480E-05  0.0346
   3.7712E-01   3.8629E-01   1.8104E-05  0.0345
   3.8629E-01   3.9569E-01   1.8538E-05  0.0337
   3.9569E-01   4.0532E-01   1.9390E-05  0.0325
   4.0532E-01   4.1518E-01   2.0758E-05  0.0310
   4.1518E-01   4.2528E-01   2.1693E-05  0.0300
   4.2528E-01   4.3563E-01   2.2320E-05  0.0292
   4.3563E-01   4.4623E-01   2.3831E-05  0.0280
   4.4623E-01   4.5708E-01   2.4035E-05  0.0275
   4.5708E-01   4.6821E-01   2.7159E-05  0.0256
   4.6821E-01   4.7960E-01   2.6989E-05  0.0253
   4.7960E-01   4.9127E-01   2.8034E-05  0.0246
   4.9127E-01   5.0322E-01   2.9234E-05  0.0238
   5.0322E-01   5.1546E-01   2.9507E-05  0.0234
   5.1546E-01   5.2800E-01   3.1122E-05  0.0225
   5.2800E-01   5.4085E-01   3.3221E-05  0.0215
   5.4085E-01   5.5401E-01   3.5818E-05  0.0205
   5.5401E-01   5.6749E-01   3.6045E-05  0.0202
   5.6749E-01   5.8130E-01   3.7984E-05  0.0194
   5.8130E-01   5.9544E-01   4.0065E-05  0.0187
   5.9544E-01   6.0993E-01   4.2536E-05  0.0179
   6.0993E-01   6.2477E-01   4.3142E-05  0.0176
   6.2477E-01   6.3997E-01   4.6873E-05  0.0167
   6.3997E-01   6.5554E-01   4.7393E-05  0.0164
   6.5554E-01   6.7149E-01   4.8846E-05  0.0159
   6.7149E-01   6.8783E-01   5.0486E-05  0.0155
   6.8783E-01   7.0456E-01   5.3056E-05  0.0149
   7.0456E-01   7.2171E-01   5.4970E-05  0.0145
   7.2171E-01   7.3927E-01   5.5801E-05  0.0142
   7.3927E-01   7.5725E-01   5.9145E-05  0.0136
   7.5725E-01   7.7568E-01   6.0067E-05  0.0134
   7.7568E-01   7.9455E-01   6.1627E-05  0.0130
   7.9455E-01   8.1388E-01   6.3499E-05  0.0127
   8.1388E-01   8.3368E-01   6.7011E-05  0.0122
   8.3368E-01   8.5397E-01   6.7278E-05  0.0120
   8.5397E-01   8.7475E-01   6.8913E-05  0.0117
   8.7475E-01   8.9603E-01   7.1253E-05  0.0114
   8.9603E-01   9.1783E-01   7.2979E-05  0.0111
   9.1783E-01   9.4016E-01   7.3128E-05  0.0110
   9.4016E-01   9.6304E-01   7.3770E-05  0.0108
   9.6304E-01   9.8647E-01   7.4123E-05  0.0107
   9.8647E-01   1.0105E+00   7.3134E-05  0.0106
   1.0105E+00   1.0351E+00   7.3771E-05  0.0104
   1.0351E+00   1.0602E+00   7.3138E-05  0.0103
   1.0602E+00   1.0860E+00   7.6175E-05  0.0100
   1.0860E+00   1.1125E+00   7.8101E-05  0.0098
   1.1125E+00   1.1395E+00   8.0840E-05  0.0095
   1.1395E+00   1.1673E+00   8.3063E-05  0.0092
   1.1673E+00   1.1957E+00   8.6955E-05  0.0089
   1.1957E+00   1.2247E+00   8.7969E-05  0.0088
   1.2247E+00   1.2545E+00   9.0080E-05  0.0086
   1.2545E+00   1.2851E+00   9.1984E-05  0.0084
   1.2851E+00   1.3163E+00   9.4444E-05  0.0081
   1.3163E+00   1.3484E+00   9.5080E-05  0.0080
   1.3484E+00   1.3812E+00   9.7082E-05  0.0078
   1.3812E+00   1.4148E+00   9.8477E-05  0.0077
   1.4148E+00   1.4492E+00   9.8933E-05  0.0076
   1.4492E+00   1.4845E+00   1.0024E-04  0.0074
   1.4845E+00   1.5206E+00   1.0106E-04  0.0073
   1.5206E+00   1.5576E+00   1.0130E-04  0.0072
   1.5576E+00   1.5955E+00   1.0592E-04  0.0070
   1.5955E+00   1.6343E+00   1.0473E-04  0.0069
   1.6343E+00   1.6741E+00   1.0340E-04  0.0069
   1.6741E+00   1.7148E+00   1.0212E-04  0.0068
   1.7148E+00   1.7565E+00   1.0121E-04  0.0068
   1.7565E+00   1.7992E+00   9.5156E-05  0.0069
   1.7992E+00   1.8430E+00   8.7246E-05  0.0071
   1.8430E+00   1.8879E+00   7.9632E-05  0.0073
   1.8879E+00   1.9338E+00   7.7793E-05  0.0073
   1.9338E+00   1.9808E+00   7.7213E-05  0.0072
   1.9808E+00   2.0290E+00   7.6509E-05  0.0071
   2.0290E+00   2.0784E+00   7.7548E-05  0.0070
   2.0784E+00   2.1290E+00   8.1149E-05  0.0067
   2.1290E+00   2.1808E+00   8.6190E-05  0.0064
   2.1808E+00   2.2338E+00   9.0613E-05  0.0062
   2.2338E+00   2.2882E+00   8.8750E-05  0.0062
   2.2882E+00   2.3439E+00   8.4106E-05  0.0063
   2.3439E+00   2.4009E+00   8.1714E-05  0.0063
   2.4009E+00   2.4593E+00   8.2531E-05  0.0062
   2.4593E+00   2.5191E+00   8.3238E-05  0.0061
   2.5191E+00   2.5804E+00   8.3374E-05  0.0060
   2.5804E+00   2.6432E+00   8.4134E-05  0.0059
   2.6432E+00   2.7075E+00   8.3445E-05  0.0059
   2.7075E+00   2.7734E+00   8.2981E-05  0.0058
   2.7734E+00   2.8409E+00   8.2816E-05  0.0058
   2.8409E+00   2.9100E+00   8.3777E-05  0.0057
   2.9100E+00   2.9808E+00   8.3384E-05  0.0056
   2.9808E+00   3.0533E+00   8.4522E-05  0.0055
   3.0533E+00   3.1276E+00   8.1402E-05  0.0056
   3.1276E+00   3.2037E+00   8.2322E-05  0.0055
   3.2037E+00   3.2817E+00   8.2662E-05  0.0054
   3.2817E+00   3.3615E+00   8.2302E-05  0.0054
   3.3615E+00   3.4433E+00   8.3092E-05  0.0053
   3.4433E+00   3.5271E+00   8.2274E-05  0.0053
   3.5271E+00   3.6129E+00   8.3220E-05  0.0052
   3.6129E+00   3.7008E+00   8.2380E-05  0.0051
   3.7008E+00   3.7908E+00   8.3053E-05  0.0051
   3.7908E+00   3.8831E+00   8.1931E-05  0.0050
   3.8831E+00   3.9776E+00   8.1450E-05  0.0050
   3.9776E+00   4.0743E+00   8.1080E-05  0.0050
   4.0743E+00   4.1735E+00   7.9402E-05  0.0049
   4.1735E+00   4.2750E+00   7.8876E-05  0.0049
   4.2750E+00   4.3790E+00   7.7387E-05  0.0049
   4.3790E+00   4.4856E+00   7.5824E-05  0.0049
   4.4856E+00   4.5947E+00   7.4830E-05  0.0048
   4.5947E+00   4.7065E+00   7.3175E-05  0.0048
   4.7065E+00   4.8210E+00   7.3059E-05  0.0048
   4.8210E+00   4.9383E+00   7.2567E-05  0.0047
   4.9383E+00   5.0585E+00   7.2514E-05  0.0047
   5.0585E+00   5.1815E+00   7.2168E-05  0.0046
   5.1815E+00   5.3076E+00   7.1974E-05  0.0046
   5.3076E+00   5.4368E+00   7.2330E-05  0.0045
   5.4368E+00   5.5690E+00   7.1016E-05  0.0045
   5.5690E+00   5.7045E+00   7.0205E-05  0.0045
   5.7045E+00   5.8433E+00   7.0518E-05  0.0044
   5.8433E+00   5.9855E+00   6.9893E-05  0.0044
   5.9855E+00   6.1311E+00   7.0815E-05  0.0043
   6.1311E+00   6.2803E+00   7.0239E-05  0.0043
   6.2803E+00   6.4331E+00   6.9965E-05  0.0043
   6.4331E+00   6.5896E+00   6.9499E-05  0.0042
   6.5896E+00   6.7500E+00   6.9509E-05  0.0042
   6.7500E+00   6.9142E+00   6.9026E-05  0.0041
   6.9142E+00   7.0824E+00   6.8591E-05  0.0041
   7.0824E+00   7.2548E+00   6.8949E-05  0.0040
   7.2548E+00   7.4313E+00   6.7655E-05  0.0040
   7.4313E+00   7.6121E+00   6.7395E-05  0.0040
   7.6121E+00   7.7973E+00   6.6917E-05  0.0040
   7.7973E+00   7.9870E+00   6.6358E-05  0.0039
   7.9870E+00   8.1813E+00   6.6105E-05  0.0039
   8.1813E+00   8.3804E+00   6.5498E-05  0.0039
   8.3804E+00   8.5843E+00   6.5451E-05  0.0038
   8.5843E+00   8.7931E+00   6.4373E-05  0.0038
   8.7931E+00   9.0071E+00   6.3835E-05  0.0038
   9.0071E+00   9.2262E+00   6.2947E-05  0.0038
   9.2262E+00   9.4507E+00   6.1522E-05  0.0038
   9.4507E+00   9.6807E+00   5.9881E-05  0.0038
   9.6807E+00   9.9162E+00   5.9634E-05  0.0038
   9.9162E+00   1.0157E+01   6.4333E-05  0.0036
   1.0157E+01   1.0405E+01   6.2677E-05  0.0036
   1.0405E+01   1.0658E+01   6.0219E-05  0.0036
   1.0658E+01   1.0917E+01   5.7459E-05  0.0037
   1.0917E+01   1.1183E+01   5.4812E-05  0.0037
   1.1183E+01   1.1455E+01   5.3874E-05  0.0037
   1.1455E+01   1.1733E+01   5.2784E-05  0.0037
   1.1733E+01   1.2019E+01   5.1409E-05  0.0037
   1.2019E+01   1.2311E+01   5.0212E-05  0.0037
   1.2311E+01   1.2611E+01   4.9142E-05  0.0037
   1.2611E+01   1.2918E+01   4.8143E-05  0.0037
   1.2918E+01   1.3232E+01   4.6452E-05  0.0037
   1.3232E+01   1.3554E+01   4.5045E-05  0.0037
   1.3554E+01   1.3884E+01   4.3644E-05  0.0037
   1.3884E+01   1.4222E+01   4.2459E-05  0.0037
   1.4222E+01   1.4568E+01   4.1129E-05  0.0037
   1.4568E+01   1.4922E+01   3.9751E-05  0.0038
   1.4922E+01   1.5285E+01   3.8427E-05  0.0038
   1.5285E+01   1.5657E+01   3.6710E-05  0.0038
   1.5657E+01   1.6038E+01   3.4997E-05  0.0039
   1.6038E+01   1.6428E+01   3.3574E-05  0.0039
   1.6428E+01   1.6828E+01   3.1783E-05  0.0040
   1.6828E+01   1.7237E+01   3.0033E-05  0.0040
   1.7237E+01   1.7657E+01   2.8482E-05  0.0041
   1.7657E+01   1.8086E+01   2.6701E-05  0.0042
   1.8086E+01   1.8526E+01   2.4988E-05  0.0043
   1.8526E+01   1.8977E+01   2.3181E-05  0.0044
   1.8977E+01   1.9439E+01   2.1259E-05  0.0045
   1.9439E+01   1.9912E+01   1.9684E-05  0.0046
   1.9912E+01   2.0396E+01   1.8161E-05  0.0048
   2.0396E+01   2.0893E+01   1.6412E-05  0.0050
   2.0893E+01   2.1401E+01   1.4353E-05  0.0052
   2.1401E+01   2.1922E+01   1.2611E-05  0.0055
   2.1922E+01   2.2455E+01   1.1009E-05  0.0058
   2.2455E+01   2.3001E+01   9.3969E-06  0.0062
   2.3001E+01   2.3561E+01   7.8129E-06  0.0068
   2.3561E+01   2.4134E+01   6.3957E-06  0.0074
   2.4134E+01   2.4721E+01   5.2333E-06  0.0081
   2.4721E+01   2.5323E+01   4.1723E-06  0.0089
   2.5323E+01   2.5939E+01   3.3201E-06  0.0099
   2.5939E+01   2.6570E+01   2.6974E-06  0.0108
   2.6570E+01   2.7217E+01   3.0436E-06  0.0101
   2.7217E+01   2.7879E+01   9.2123E-06  0.0057
   2.7879E+01   2.8557E+01   1.3364E-05  0.0047
   2.8557E+01   2.9252E+01   1.3005E-05  0.0047
   2.9252E+01   2.9964E+01   1.2333E-05  0.0048
   2.9964E+01   3.0693E+01   7.0048E-06  0.0063
   3.0693E+01   3.1440E+01   1.1222E-07  0.0489
   3.1440E+01   3.2205E+01   1.0458E-09  0.5000
   3.2205E+01   3.2988E+01   1.0210E-09  0.5000
   3.2988E+01   3.3791E+01   7.4755E-10  0.5774
   3.3791E+01   3.4613E+01   2.4326E-10  1.0000
   3.4613E+01   3.5455E+01   0.0000E+00  0.0000
   3.5455E+01   3.6318E+01   2.3184E-10  1.0000
   3.6318E+01   3.7201E+01   2.2634E-10  1.0000
   3.7201E+01   3.8106E+01   0.0000E+00  0.0000
   3.8106E+01   3.9034E+01   0.0000E+00  0.0000
   3.9034E+01   3.9983E+01   0.0000E+00  0.0000
   3.9983E+01   4.0956E+01   0.0000E+00  0.0000
   4.0956E+01   4.1953E+01   0.0000E+00  0.0000
   4.1953E+01   4.2973E+01   0.0000E+00  0.0000
   4.2973E+01   4.4019E+01   0.0000E+00  0.0000
   4.4019E+01   4.5090E+01   0.0000E+00  0.0000
   4.5090E+01   4.6187E+01   0.0000E+00  0.0000
   4.6187E+01   4.7311E+01   0.0000E+00  0.0000
   4.7311E+01   4.8462E+01   0.0000E+00  0.0000
   4.8462E+01   4.9641E+01   0.0000E+00  0.0000
   4.9641E+01   5.0849E+01   0.0000E+00  0.0000
   5.0849E+01   5.2086E+01   0.0000E+00  0.0000
   5.2086E+01   5.3353E+01   0.0000E+00  0.0000
   5.3353E+01   5.4651E+01   0.0000E+00  0.0000
   5.4651E+01   5.5981E+01   0.0000E+00  0.0000
   5.5981E+01   5.7343E+01   0.0000E+00  0.0000
   5.7343E+01   5.8738E+01   0.0000E+00  0.0000
   5.8738E+01   6.0168E+01   0.0000E+00  0.0000
   6.0168E+01   6.1632E+01   0.0000E+00  0.0000
   6.1632E+01   6.3131E+01   0.0000E+00  0.0000
   6.3131E+01   6.4667E+01   0.0000E+00  0.0000
   6.4667E+01   6.6240E+01   0.0000E+00  0.0000
   6.6240E+01   6.7852E+01   0.0000E+00  0.0000
   6.7852E+01   6.9503E+01   0.0000E+00  0.0000
   6.9503E+01   7.1194E+01   0.0000E+00  0.0000
   7.1194E+01   7.2926E+01   0.0000E+00  0.0000
   7.2926E+01   7.4701E+01   0.0000E+00  0.0000
   7.4701E+01   7.6518E+01   0.0000E+00  0.0000
   7.6518E+01   7.8380E+01   0.0000E+00  0.0000
   7.8380E+01   8.0287E+01   0.0000E+00  0.0000
   8.0287E+01   8.2240E+01   0.0000E+00  0.0000
   8.2240E+01   8.4241E+01   0.0000E+00  0.0000
   8.4241E+01   8.6291E+01   0.0000E+00  0.0000
   8.6291E+01   8.8391E+01   0.0000E+00  0.0000
   8.8391E+01   9.0541E+01   0.0000E+00  0.0000
   9.0541E+01   9.2744E+01   0.0000E+00  0.0000
   9.2744E+01   9.5001E+01   0.0000E+00  0.0000
   9.5001E+01   9.7312E+01   0.0000E+00  0.0000
   9.7312E+01   9.9680E+01   0.0000E+00  0.0000
   9.9680E+01   1.0211E+02   0.0000E+00  0.0000
   1.0211E+02   1.0459E+02   0.0000E+00  0.0000
   1.0459E+02   1.0713E+02   0.0000E+00  0.0000
   1.0713E+02   1.0974E+02   0.0000E+00  0.0000
   1.0974E+02   1.1241E+02   0.0000E+00  0.0000
   1.1241E+02   1.1515E+02   0.0000E+00  0.0000
   1.1515E+02   1.1795E+02   0.0000E+00  0.0000
   1.1795E+02   1.2082E+02   0.0000E+00  0.0000
   1.2082E+02   1.2376E+02   0.0000E+00  0.0000
   1.2376E+02   1.2677E+02   0.0000E+00  0.0000
   1.2677E+02   1.2985E+02   0.0000E+00  0.0000
   1.2985E+02   1.3301E+02   0.0000E+00  0.0000
   1.3301E+02   1.3625E+02   0.0000E+00  0.0000
   1.3625E+02   1.3956E+02   0.0000E+00  0.0000
   1.3956E+02   1.4296E+02   0.0000E+00  0.0000
   1.4296E+02   1.4644E+02   0.0000E+00  0.0000
   1.4644E+02   1.5000E+02   0.0000E+00  0.0000

#   sum over                 7.9210E-06
'no. =    1   reg = 107 - 207'
msuc: {\huge [t-cross] in region mesh}
msdr: {\it plotted by \ANGEL \version}
msdl: {\it calculated by \PHITS  3.26}
wt: s(0.7)
\vspace{-3}
  region surface crossing
  area  &=&   1.0000E+00 [cm^2]
e:
 
# Information for Restart Calculation
# This calculation was newly started
# istdev =  2 # 1:Batch variance, 2:History variance
# resc2  = 5.00000000000000000E+09 # Total source weight or Total source weight / maxcas
# resc3  = 5.00000000000000000E+09 # Total history number or Total batch number
# maxcas =   100000000 # History / Batch, only used for istdev=1
# bitrseed = 0110100000100010111000001110001111001110100100011111101000111001 # bit data of rseed
