[ T-Cross ]
    title = [t-cross] in region mesh
     mesh =  reg            # mesh type is region-wise
      reg =    1            # number of crossing regions
      non     r-from    r-to       area
      1       111       211        1.000000    
   e-type =    3            # e-mesh is log given by emin, emax and ne
     emin =  1.0000000E-02  # minimum value of e-mesh points
     emax =   150.0000      # maximum value of e-mesh points
#    edel =  2.4039514E-02  # mesh width of e-mesh points
       ne =    400          # number of e-mesh points
#    data = ( e(i), i = 1, ne + 1 )
#           1.00000E-02  1.02433E-02  1.04925E-02  1.07478E-02  1.10093E-02
#           1.12772E-02  1.15516E-02  1.18326E-02  1.21205E-02  1.24154E-02
#           1.27175E-02  1.30269E-02  1.33439E-02  1.36686E-02  1.40011E-02
#           1.43418E-02  1.46907E-02  1.50482E-02  1.54143E-02  1.57894E-02
#           1.61735E-02  1.65670E-02  1.69701E-02  1.73830E-02  1.78060E-02
#           1.82392E-02  1.86830E-02  1.91375E-02  1.96032E-02  2.00801E-02
#           2.05687E-02  2.10692E-02  2.15818E-02  2.21069E-02  2.26448E-02
#           2.31957E-02  2.37601E-02  2.43382E-02  2.49304E-02  2.55369E-02
#           2.61583E-02  2.67947E-02  2.74467E-02  2.81145E-02  2.87985E-02
#           2.94992E-02  3.02169E-02  3.09521E-02  3.17052E-02  3.24766E-02
#           3.32668E-02  3.40762E-02  3.49053E-02  3.57546E-02  3.66246E-02
#           3.75157E-02  3.84284E-02  3.93634E-02  4.03212E-02  4.13022E-02
#           4.23071E-02  4.33365E-02  4.43909E-02  4.54710E-02  4.65773E-02
#           4.77106E-02  4.88714E-02  5.00605E-02  5.12785E-02  5.25262E-02
#           5.38042E-02  5.51133E-02  5.64542E-02  5.78278E-02  5.92348E-02
#           6.06760E-02  6.21523E-02  6.36645E-02  6.52135E-02  6.68002E-02
#           6.84255E-02  7.00904E-02  7.17957E-02  7.35426E-02  7.53319E-02
#           7.71648E-02  7.90423E-02  8.09655E-02  8.29354E-02  8.49533E-02
#           8.70203E-02  8.91376E-02  9.13064E-02  9.35279E-02  9.58035E-02
#           9.81345E-02  1.00522E-01  1.02968E-01  1.05473E-01  1.08040E-01
#           1.10668E-01  1.13361E-01  1.16119E-01  1.18944E-01  1.21838E-01
#           1.24803E-01  1.27839E-01  1.30950E-01  1.34136E-01  1.37399E-01
#           1.40742E-01  1.44167E-01  1.47675E-01  1.51268E-01  1.54948E-01
#           1.58718E-01  1.62580E-01  1.66535E-01  1.70587E-01  1.74738E-01
#           1.78989E-01  1.83344E-01  1.87805E-01  1.92375E-01  1.97055E-01
#           2.01850E-01  2.06761E-01  2.11792E-01  2.16945E-01  2.22223E-01
#           2.27630E-01  2.33169E-01  2.38842E-01  2.44653E-01  2.50605E-01
#           2.56703E-01  2.62949E-01  2.69346E-01  2.75900E-01  2.82613E-01
#           2.89489E-01  2.96532E-01  3.03747E-01  3.11138E-01  3.18708E-01
#           3.26462E-01  3.34405E-01  3.42542E-01  3.50876E-01  3.59413E-01
#           3.68158E-01  3.77116E-01  3.86291E-01  3.95690E-01  4.05317E-01
#           4.15179E-01  4.25281E-01  4.35628E-01  4.46227E-01  4.57084E-01
#           4.68205E-01  4.79597E-01  4.91266E-01  5.03219E-01  5.15463E-01
#           5.28005E-01  5.40851E-01  5.54011E-01  5.67490E-01  5.81298E-01
#           5.95441E-01  6.09929E-01  6.24769E-01  6.39970E-01  6.55541E-01
#           6.71491E-01  6.87828E-01  7.04564E-01  7.21706E-01  7.39266E-01
#           7.57253E-01  7.75678E-01  7.94551E-01  8.13883E-01  8.33685E-01
#           8.53969E-01  8.74747E-01  8.96030E-01  9.17831E-01  9.40163E-01
#           9.63038E-01  9.86469E-01  1.01047E+00  1.03506E+00  1.06024E+00
#           1.08604E+00  1.11246E+00  1.13953E+00  1.16725E+00  1.19565E+00
#           1.22474E+00  1.25454E+00  1.28507E+00  1.31633E+00  1.34836E+00
#           1.38117E+00  1.41477E+00  1.44920E+00  1.48446E+00  1.52057E+00
#           1.55757E+00  1.59547E+00  1.63429E+00  1.67405E+00  1.71478E+00
#           1.75650E+00  1.79924E+00  1.84302E+00  1.88786E+00  1.93379E+00
#           1.98084E+00  2.02904E+00  2.07841E+00  2.12898E+00  2.18078E+00
#           2.23384E+00  2.28819E+00  2.34386E+00  2.40089E+00  2.45930E+00
#           2.51914E+00  2.58043E+00  2.64322E+00  2.70753E+00  2.77341E+00
#           2.84088E+00  2.91001E+00  2.98081E+00  3.05333E+00  3.12762E+00
#           3.20372E+00  3.28167E+00  3.36152E+00  3.44330E+00  3.52708E+00
#           3.61290E+00  3.70080E+00  3.79085E+00  3.88308E+00  3.97756E+00
#           4.07434E+00  4.17347E+00  4.27501E+00  4.37903E+00  4.48557E+00
#           4.59471E+00  4.70650E+00  4.82102E+00  4.93832E+00  5.05847E+00
#           5.18155E+00  5.30762E+00  5.43676E+00  5.56904E+00  5.70453E+00
#           5.84333E+00  5.98550E+00  6.13114E+00  6.28031E+00  6.43312E+00
#           6.58964E+00  6.74997E+00  6.91420E+00  7.08243E+00  7.25475E+00
#           7.43126E+00  7.61207E+00  7.79728E+00  7.98700E+00  8.18133E+00
#           8.38038E+00  8.58428E+00  8.79315E+00  9.00709E+00  9.22624E+00
#           9.45072E+00  9.68067E+00  9.91620E+00  1.01575E+01  1.04046E+01
#           1.06578E+01  1.09171E+01  1.11827E+01  1.14548E+01  1.17335E+01
#           1.20190E+01  1.23114E+01  1.26109E+01  1.29178E+01  1.32321E+01
#           1.35540E+01  1.38838E+01  1.42216E+01  1.45676E+01  1.49221E+01
#           1.52851E+01  1.56570E+01  1.60380E+01  1.64282E+01  1.68279E+01
#           1.72374E+01  1.76568E+01  1.80864E+01  1.85264E+01  1.89772E+01
#           1.94389E+01  1.99119E+01  2.03963E+01  2.08926E+01  2.14009E+01
#           2.19216E+01  2.24550E+01  2.30014E+01  2.35610E+01  2.41343E+01
#           2.47215E+01  2.53230E+01  2.59391E+01  2.65702E+01  2.72167E+01
#           2.78789E+01  2.85572E+01  2.92520E+01  2.99637E+01  3.06928E+01
#           3.14396E+01  3.22045E+01  3.29881E+01  3.37907E+01  3.46128E+01
#           3.54550E+01  3.63177E+01  3.72013E+01  3.81064E+01  3.90336E+01
#           3.99833E+01  4.09561E+01  4.19526E+01  4.29734E+01  4.40189E+01
#           4.50900E+01  4.61870E+01  4.73108E+01  4.84619E+01  4.96410E+01
#           5.08488E+01  5.20860E+01  5.33533E+01  5.46514E+01  5.59812E+01
#           5.73432E+01  5.87384E+01  6.01676E+01  6.16315E+01  6.31311E+01
#           6.46671E+01  6.62405E+01  6.78522E+01  6.95031E+01  7.11941E+01
#           7.29263E+01  7.47007E+01  7.65182E+01  7.83800E+01  8.02870E+01
#           8.22405E+01  8.42414E+01  8.62911E+01  8.83906E+01  9.05412E+01
#           9.27442E+01  9.50007E+01  9.73122E+01  9.96799E+01  1.02105E+02
#           1.04589E+02  1.07134E+02  1.09741E+02  1.12411E+02  1.15146E+02
#           1.17948E+02  1.20817E+02  1.23757E+02  1.26768E+02  1.29852E+02
#           1.33012E+02  1.36248E+02  1.39563E+02  1.42959E+02  1.46437E+02
#           1.50000E+02
     unit =    2            # unit is [1/cm^2/(MeV/n)/source]
     axis =  eng            # axis of output
     file = detector-12.out  # file name of output for the above axis
   output = f-curr          # surface crossing forward current spectrum
     part =  neutron  
# kf/name :  2112     
#    used :        main (  %)        temp (  %)       total (  %)
#  memory :         414 (  0)           0 (  0)         414 (  0)

#------------------------------------------------------------------------------
#newpage:
#   no. =    1   reg = 111 - 211

x: Energy [MeV/n]
y:  F-Curr [1/cm^2/(MeV/n)/source]         
p: xlog ylog afac(0.8) form(0.9)
h: n            x            y(neutron ),hh0l   n 
#  e-lower      e-upper      neutron     r.err 
   1.0000E-02   1.0243E-02   6.6518E-04  0.0774
   1.0243E-02   1.0493E-02   6.0035E-04  0.0802
   1.0493E-02   1.0748E-02   6.3099E-04  0.0776
   1.0748E-02   1.1009E-02   6.0157E-04  0.0782
   1.1009E-02   1.1277E-02   5.5059E-04  0.0808
   1.1277E-02   1.1552E-02   6.0158E-04  0.0766
   1.1552E-02   1.1833E-02   5.8960E-04  0.0765
   1.1833E-02   1.2121E-02   5.8270E-04  0.0758
   1.2121E-02   1.2415E-02   6.0799E-04  0.0738
   1.2415E-02   1.2718E-02   5.5631E-04  0.0759
   1.2718E-02   1.3027E-02   5.8117E-04  0.0735
   1.3027E-02   1.3344E-02   5.4151E-04  0.0751
   1.3344E-02   1.3669E-02   5.9607E-04  0.0709
   1.3669E-02   1.4001E-02   5.0980E-04  0.0757
   1.4001E-02   1.4342E-02   4.4084E-04  0.0801
   1.4342E-02   1.4691E-02   4.9743E-04  0.0747
   1.4691E-02   1.5048E-02   4.2359E-04  0.0798
   1.5048E-02   1.5414E-02   4.9057E-04  0.0737
   1.5414E-02   1.5789E-02   4.6483E-04  0.0745
   1.5789E-02   1.6174E-02   4.9255E-04  0.0717
   1.6174E-02   1.6567E-02   4.1834E-04  0.0762
   1.6567E-02   1.6970E-02   4.1074E-04  0.0766
   1.6970E-02   1.7383E-02   3.9449E-04  0.0770
   1.7383E-02   1.7806E-02   4.3583E-04  0.0728
   1.7806E-02   1.8239E-02   4.1579E-04  0.0731
   1.8239E-02   1.8683E-02   4.0748E-04  0.0735
   1.8683E-02   1.9138E-02   3.4513E-04  0.0782
   1.9138E-02   1.9603E-02   3.2083E-04  0.0804
   1.9603E-02   2.0080E-02   3.9775E-04  0.0718
   2.0080E-02   2.0569E-02   3.2872E-04  0.0776
   2.0569E-02   2.1069E-02   3.8155E-04  0.0709
   2.1069E-02   2.1582E-02   3.3254E-04  0.0753
   2.1582E-02   2.2107E-02   3.1555E-04  0.0768
   2.2107E-02   2.2645E-02   3.1080E-04  0.0762
   2.2645E-02   2.3196E-02   3.3772E-04  0.0724
   2.3196E-02   2.3760E-02   3.1058E-04  0.0747
   2.3760E-02   2.4338E-02   3.2519E-04  0.0717
   2.4338E-02   2.4930E-02   2.8879E-04  0.0751
   2.4930E-02   2.5537E-02   3.1594E-04  0.0711
   2.5537E-02   2.6158E-02   2.8411E-04  0.0742
   2.6158E-02   2.6795E-02   2.9190E-04  0.0720
   2.6795E-02   2.7447E-02   2.6765E-04  0.0743
   2.7447E-02   2.8114E-02   2.7728E-04  0.0726
   2.8114E-02   2.8799E-02   2.6350E-04  0.0733
   2.8799E-02   2.9499E-02   2.3312E-04  0.0764
   2.9499E-02   3.0217E-02   2.5603E-04  0.0724
   3.0217E-02   3.0952E-02   2.3693E-04  0.0749
   3.0952E-02   3.1705E-02   2.3473E-04  0.0744
   3.1705E-02   3.2477E-02   2.3554E-04  0.0730
   3.2477E-02   3.3267E-02   2.3535E-04  0.0721
   3.3267E-02   3.4076E-02   2.1051E-04  0.0753
   3.4076E-02   3.4905E-02   2.2439E-04  0.0721
   3.4905E-02   3.5755E-02   2.3324E-04  0.0699
   3.5755E-02   3.6625E-02   2.3238E-04  0.0694
   3.6625E-02   3.7516E-02   2.2340E-04  0.0700
   3.7516E-02   3.8428E-02   2.2469E-04  0.0687
   3.8428E-02   3.9363E-02   2.1367E-04  0.0695
   3.9363E-02   4.0321E-02   1.9308E-04  0.0723
   4.0321E-02   4.1302E-02   1.8158E-04  0.0736
   4.1302E-02   4.2307E-02   1.8243E-04  0.0730
   4.2307E-02   4.3337E-02   1.6094E-04  0.0759
   4.3337E-02   4.4391E-02   1.3974E-04  0.0807
   4.4391E-02   4.5471E-02   1.7843E-04  0.0710
   4.5471E-02   4.6577E-02   1.4367E-04  0.0777
   4.6577E-02   4.7711E-02   1.5935E-04  0.0729
   4.7711E-02   4.8871E-02   1.5512E-04  0.0729
   4.8871E-02   5.0061E-02   1.7563E-04  0.0684
   5.0061E-02   5.1279E-02   1.3346E-04  0.0776
   5.1279E-02   5.2526E-02   1.5822E-04  0.0703
   5.2526E-02   5.3804E-02   1.4163E-04  0.0730
   5.3804E-02   5.5113E-02   1.5115E-04  0.0698
   5.5113E-02   5.6454E-02   1.5730E-04  0.0676
   5.6454E-02   5.7828E-02   1.3736E-04  0.0718
   5.7828E-02   5.9235E-02   1.3339E-04  0.0717
   5.9235E-02   6.0676E-02   1.4062E-04  0.0692
   6.0676E-02   6.2152E-02   1.3401E-04  0.0698
   6.2152E-02   6.3665E-02   1.3405E-04  0.0690
   6.3665E-02   6.5214E-02   1.2165E-04  0.0719
   6.5214E-02   6.6800E-02   1.3072E-04  0.0683
   6.6800E-02   6.8426E-02   1.2344E-04  0.0695
   6.8426E-02   7.0090E-02   1.3043E-04  0.0669
   7.0090E-02   7.1796E-02   1.1860E-04  0.0697
   7.1796E-02   7.3543E-02   1.1706E-04  0.0687
   7.3543E-02   7.5332E-02   1.0998E-04  0.0703
   7.5332E-02   7.7165E-02   1.0803E-04  0.0701
   7.7165E-02   7.9042E-02   1.1255E-04  0.0678
   7.9042E-02   8.0965E-02   1.1391E-04  0.0665
   8.0965E-02   8.2935E-02   9.7945E-05  0.0705
   8.2935E-02   8.4953E-02   1.0241E-04  0.0681
   8.4953E-02   8.7020E-02   1.0491E-04  0.0670
   8.7020E-02   8.9138E-02   1.1057E-04  0.0642
   8.9138E-02   9.1306E-02   9.0104E-05  0.0704
   9.1306E-02   9.3528E-02   9.5381E-05  0.0672
   9.3528E-02   9.5804E-02   8.6529E-05  0.0697
   9.5804E-02   9.8134E-02   9.2470E-05  0.0669
   9.8134E-02   1.0052E-01   9.2151E-05  0.0664
   1.0052E-01   1.0297E-01   8.9417E-05  0.0669
   1.0297E-01   1.0547E-01   8.3285E-05  0.0681
   1.0547E-01   1.0804E-01   8.6999E-05  0.0659
   1.0804E-01   1.1067E-01   8.7231E-05  0.0647
   1.1067E-01   1.1336E-01   8.3619E-05  0.0656
   1.1336E-01   1.1612E-01   8.4707E-05  0.0646
   1.1612E-01   1.1894E-01   7.7611E-05  0.0666
   1.1894E-01   1.2184E-01   9.2430E-05  0.0602
   1.2184E-01   1.2480E-01   7.6679E-05  0.0654
   1.2480E-01   1.2784E-01   7.4825E-05  0.0652
   1.2784E-01   1.3095E-01   7.3417E-05  0.0652
   1.3095E-01   1.3414E-01   7.2808E-05  0.0649
   1.3414E-01   1.3740E-01   7.7237E-05  0.0620
   1.3740E-01   1.4074E-01   7.5616E-05  0.0620
   1.4074E-01   1.4417E-01   6.8255E-05  0.0644
   1.4417E-01   1.4767E-01   6.4959E-05  0.0653
   1.4767E-01   1.5127E-01   6.3063E-05  0.0650
   1.5127E-01   1.5495E-01   6.2003E-05  0.0654
   1.5495E-01   1.5872E-01   6.6918E-05  0.0621
   1.5872E-01   1.6258E-01   5.9251E-05  0.0651
   1.6258E-01   1.6654E-01   5.9208E-05  0.0639
   1.6654E-01   1.7059E-01   6.3081E-05  0.0618
   1.7059E-01   1.7474E-01   6.2359E-05  0.0614
   1.7474E-01   1.7899E-01   6.0668E-05  0.0614
   1.7899E-01   1.8334E-01   5.8790E-05  0.0613
   1.8334E-01   1.8781E-01   5.5311E-05  0.0627
   1.8781E-01   1.9237E-01   6.0935E-05  0.0590
   1.9237E-01   1.9706E-01   5.6849E-05  0.0603
   1.9706E-01   2.0185E-01   5.5596E-05  0.0602
   2.0185E-01   2.0676E-01   5.1927E-05  0.0617
   2.0676E-01   2.1179E-01   5.4900E-05  0.0592
   2.1179E-01   2.1694E-01   6.9024E-05  0.0524
   2.1694E-01   2.2222E-01   6.2745E-05  0.0540
   2.2222E-01   2.2763E-01   6.9844E-05  0.0507
   2.2763E-01   2.3317E-01   6.8935E-05  0.0505
   2.3317E-01   2.3884E-01   7.4098E-05  0.0481
   2.3884E-01   2.4465E-01   7.8028E-05  0.0461
   2.4465E-01   2.5061E-01   8.2808E-05  0.0445
   2.5061E-01   2.5670E-01   8.2443E-05  0.0439
   2.5670E-01   2.6295E-01   9.3278E-05  0.0408
   2.6295E-01   2.6935E-01   9.5605E-05  0.0397
   2.6935E-01   2.7590E-01   9.5134E-05  0.0394
   2.7590E-01   2.8261E-01   1.0213E-04  0.0376
   2.8261E-01   2.8949E-01   1.1122E-04  0.0357
   2.8949E-01   2.9653E-01   1.1364E-04  0.0348
   2.9653E-01   3.0375E-01   1.1825E-04  0.0337
   3.0375E-01   3.1114E-01   1.2010E-04  0.0331
   3.1114E-01   3.1871E-01   1.2401E-04  0.0322
   3.1871E-01   3.2646E-01   1.3414E-04  0.0305
   3.2646E-01   3.3441E-01   1.3473E-04  0.0302
   3.3441E-01   3.4254E-01   1.4211E-04  0.0289
   3.4254E-01   3.5088E-01   1.5597E-04  0.0273
   3.5088E-01   3.5941E-01   1.5912E-04  0.0268
   3.5941E-01   3.6816E-01   1.6345E-04  0.0261
   3.6816E-01   3.7712E-01   1.8010E-04  0.0246
   3.7712E-01   3.8629E-01   1.7218E-04  0.0248
   3.8629E-01   3.9569E-01   1.8068E-04  0.0239
   3.9569E-01   4.0532E-01   1.9584E-04  0.0227
   4.0532E-01   4.1518E-01   2.0020E-04  0.0221
   4.1518E-01   4.2528E-01   2.1017E-04  0.0214
   4.2528E-01   4.3563E-01   2.2575E-04  0.0204
   4.3563E-01   4.4623E-01   2.3536E-04  0.0198
   4.4623E-01   4.5708E-01   2.4118E-04  0.0193
   4.5708E-01   4.6821E-01   2.4748E-04  0.0188
   4.6821E-01   4.7960E-01   2.6371E-04  0.0180
   4.7960E-01   4.9127E-01   2.6617E-04  0.0177
   4.9127E-01   5.0322E-01   2.8485E-04  0.0169
   5.0322E-01   5.1546E-01   2.8442E-04  0.0167
   5.1546E-01   5.2800E-01   3.0832E-04  0.0159
   5.2800E-01   5.4085E-01   3.2354E-04  0.0153
   5.4085E-01   5.5401E-01   3.3191E-04  0.0149
   5.5401E-01   5.6749E-01   3.5059E-04  0.0144
   5.6749E-01   5.8130E-01   3.5797E-04  0.0140
   5.8130E-01   5.9544E-01   3.6290E-04  0.0138
   5.9544E-01   6.0993E-01   3.7948E-04  0.0133
   6.0993E-01   6.2477E-01   3.9018E-04  0.0130
   6.2477E-01   6.3997E-01   4.1037E-04  0.0125
   6.3997E-01   6.5554E-01   4.3391E-04  0.0120
   6.5554E-01   6.7149E-01   4.3165E-04  0.0119
   6.7149E-01   6.8783E-01   4.5416E-04  0.0115
   6.8783E-01   7.0456E-01   4.6884E-04  0.0111
   7.0456E-01   7.2171E-01   4.8918E-04  0.0108
   7.2171E-01   7.3927E-01   4.9807E-04  0.0106
   7.3927E-01   7.5725E-01   5.2179E-04  0.0102
   7.5725E-01   7.7568E-01   5.3672E-04  0.0099
   7.7568E-01   7.9455E-01   5.5325E-04  0.0097
   7.9455E-01   8.1388E-01   5.6558E-04  0.0095
   8.1388E-01   8.3368E-01   5.8984E-04  0.0091
   8.3368E-01   8.5397E-01   6.0393E-04  0.0089
   8.5397E-01   8.7475E-01   6.2440E-04  0.0087
   8.7475E-01   8.9603E-01   6.4094E-04  0.0085
   8.9603E-01   9.1783E-01   6.6293E-04  0.0082
   9.1783E-01   9.4016E-01   6.7750E-04  0.0080
   9.4016E-01   9.6304E-01   7.0374E-04  0.0078
   9.6304E-01   9.8647E-01   7.2043E-04  0.0076
   9.8647E-01   1.0105E+00   7.2092E-04  0.0075
   1.0105E+00   1.0351E+00   7.3576E-04  0.0073
   1.0351E+00   1.0602E+00   7.2962E-04  0.0073
   1.0602E+00   1.0860E+00   7.5444E-04  0.0071
   1.0860E+00   1.1125E+00   7.5800E-04  0.0070
   1.1125E+00   1.1395E+00   7.7676E-04  0.0068
   1.1395E+00   1.1673E+00   7.9477E-04  0.0067
   1.1673E+00   1.1957E+00   8.1098E-04  0.0065
   1.1957E+00   1.2247E+00   8.2202E-04  0.0064
   1.2247E+00   1.2545E+00   8.2429E-04  0.0063
   1.2545E+00   1.2851E+00   8.3241E-04  0.0062
   1.2851E+00   1.3163E+00   8.3469E-04  0.0061
   1.3163E+00   1.3484E+00   8.5158E-04  0.0060
   1.3484E+00   1.3812E+00   8.7275E-04  0.0058
   1.3812E+00   1.4148E+00   9.0061E-04  0.0057
   1.4148E+00   1.4492E+00   9.0419E-04  0.0056
   1.4492E+00   1.4845E+00   9.3035E-04  0.0055
   1.4845E+00   1.5206E+00   9.2392E-04  0.0054
   1.5206E+00   1.5576E+00   9.2947E-04  0.0053
   1.5576E+00   1.5955E+00   9.1468E-04  0.0053
   1.5955E+00   1.6343E+00   9.0651E-04  0.0053
   1.6343E+00   1.6741E+00   9.0028E-04  0.0052
   1.6741E+00   1.7148E+00   9.0150E-04  0.0052
   1.7148E+00   1.7565E+00   8.9528E-04  0.0051
   1.7565E+00   1.7992E+00   9.1274E-04  0.0050
   1.7992E+00   1.8430E+00   9.1254E-04  0.0049
   1.8430E+00   1.8879E+00   9.0019E-04  0.0049
   1.8879E+00   1.9338E+00   9.0911E-04  0.0048
   1.9338E+00   1.9808E+00   9.1248E-04  0.0048
   1.9808E+00   2.0290E+00   9.2153E-04  0.0047
   2.0290E+00   2.0784E+00   9.0555E-04  0.0047
   2.0784E+00   2.1290E+00   8.8223E-04  0.0047
   2.1290E+00   2.1808E+00   8.6310E-04  0.0047
   2.1808E+00   2.2338E+00   8.4967E-04  0.0047
   2.2338E+00   2.2882E+00   8.3289E-04  0.0046
   2.2882E+00   2.3439E+00   8.3863E-04  0.0046
   2.3439E+00   2.4009E+00   8.2341E-04  0.0046
   2.4009E+00   2.4593E+00   8.2712E-04  0.0045
   2.4593E+00   2.5191E+00   8.2350E-04  0.0045
   2.5191E+00   2.5804E+00   8.1063E-04  0.0044
   2.5804E+00   2.6432E+00   7.9383E-04  0.0044
   2.6432E+00   2.7075E+00   7.7322E-04  0.0044
   2.7075E+00   2.7734E+00   7.5927E-04  0.0044
   2.7734E+00   2.8409E+00   7.4929E-04  0.0044
   2.8409E+00   2.9100E+00   7.2987E-04  0.0044
   2.9100E+00   2.9808E+00   7.2369E-04  0.0044
   2.9808E+00   3.0533E+00   7.1026E-04  0.0044
   3.0533E+00   3.1276E+00   6.9749E-04  0.0043
   3.1276E+00   3.2037E+00   6.7630E-04  0.0044
   3.2037E+00   3.2817E+00   6.5929E-04  0.0044
   3.2817E+00   3.3615E+00   6.4454E-04  0.0044
   3.3615E+00   3.4433E+00   6.3125E-04  0.0044
   3.4433E+00   3.5271E+00   6.2655E-04  0.0043
   3.5271E+00   3.6129E+00   6.1267E-04  0.0043
   3.6129E+00   3.7008E+00   5.9516E-04  0.0043
   3.7008E+00   3.7908E+00   5.7739E-04  0.0043
   3.7908E+00   3.8831E+00   5.6418E-04  0.0043
   3.8831E+00   3.9776E+00   5.5340E-04  0.0043
   3.9776E+00   4.0743E+00   5.4485E-04  0.0043
   4.0743E+00   4.1735E+00   5.3120E-04  0.0043
   4.1735E+00   4.2750E+00   5.1722E-04  0.0043
   4.2750E+00   4.3790E+00   5.1364E-04  0.0043
   4.3790E+00   4.4856E+00   4.9779E-04  0.0043
   4.4856E+00   4.5947E+00   4.9282E-04  0.0043
   4.5947E+00   4.7065E+00   4.7845E-04  0.0043
   4.7065E+00   4.8210E+00   4.6446E-04  0.0043
   4.8210E+00   4.9383E+00   4.5772E-04  0.0043
   4.9383E+00   5.0585E+00   4.5102E-04  0.0043
   5.0585E+00   5.1815E+00   4.4509E-04  0.0042
   5.1815E+00   5.3076E+00   4.3482E-04  0.0042
   5.3076E+00   5.4368E+00   4.2091E-04  0.0042
   5.4368E+00   5.5690E+00   4.0754E-04  0.0043
   5.5690E+00   5.7045E+00   3.9496E-04  0.0043
   5.7045E+00   5.8433E+00   3.8207E-04  0.0043
   5.8433E+00   5.9855E+00   3.6873E-04  0.0043
   5.9855E+00   6.1311E+00   3.5710E-04  0.0043
   6.1311E+00   6.2803E+00   3.4422E-04  0.0044
   6.2803E+00   6.4331E+00   3.3566E-04  0.0044
   6.4331E+00   6.5896E+00   3.2205E-04  0.0044
   6.5896E+00   6.7500E+00   3.1051E-04  0.0044
   6.7500E+00   6.9142E+00   2.9845E-04  0.0045
   6.9142E+00   7.0824E+00   2.9194E-04  0.0045
   7.0824E+00   7.2548E+00   2.7809E-04  0.0045
   7.2548E+00   7.4313E+00   2.6882E-04  0.0046
   7.4313E+00   7.6121E+00   2.5883E-04  0.0046
   7.6121E+00   7.7973E+00   2.4856E-04  0.0046
   7.7973E+00   7.9870E+00   2.3977E-04  0.0047
   7.9870E+00   8.1813E+00   2.3220E-04  0.0047
   8.1813E+00   8.3804E+00   2.2105E-04  0.0047
   8.3804E+00   8.5843E+00   2.1251E-04  0.0048
   8.5843E+00   8.7931E+00   2.0485E-04  0.0048
   8.7931E+00   9.0071E+00   1.9512E-04  0.0049
   9.0071E+00   9.2262E+00   1.8548E-04  0.0049
   9.2262E+00   9.4507E+00   1.7776E-04  0.0050
   9.4507E+00   9.6807E+00   1.6913E-04  0.0050
   9.6807E+00   9.9162E+00   1.6186E-04  0.0051
   9.9162E+00   1.0157E+01   1.5221E-04  0.0052
   1.0157E+01   1.0405E+01   1.4676E-04  0.0052
   1.0405E+01   1.0658E+01   1.3931E-04  0.0053
   1.0658E+01   1.0917E+01   1.3162E-04  0.0054
   1.0917E+01   1.1183E+01   1.2433E-04  0.0055
   1.1183E+01   1.1455E+01   1.1924E-04  0.0055
   1.1455E+01   1.1733E+01   1.1191E-04  0.0056
   1.1733E+01   1.2019E+01   1.0631E-04  0.0057
   1.2019E+01   1.2311E+01   1.0166E-04  0.0058
   1.2311E+01   1.2611E+01   9.4089E-05  0.0059
   1.2611E+01   1.2918E+01   8.9370E-05  0.0060
   1.2918E+01   1.3232E+01   8.3789E-05  0.0062
   1.3232E+01   1.3554E+01   7.8178E-05  0.0063
   1.3554E+01   1.3884E+01   7.4358E-05  0.0064
   1.3884E+01   1.4222E+01   6.8762E-05  0.0066
   1.4222E+01   1.4568E+01   6.5222E-05  0.0067
   1.4568E+01   1.4922E+01   5.9558E-05  0.0069
   1.4922E+01   1.5285E+01   5.6672E-05  0.0070
   1.5285E+01   1.5657E+01   5.2660E-05  0.0071
   1.5657E+01   1.6038E+01   4.8936E-05  0.0073
   1.6038E+01   1.6428E+01   4.5069E-05  0.0075
   1.6428E+01   1.6828E+01   4.2176E-05  0.0077
   1.6828E+01   1.7237E+01   3.9445E-05  0.0079
   1.7237E+01   1.7657E+01   3.6355E-05  0.0081
   1.7657E+01   1.8086E+01   3.3525E-05  0.0083
   1.8086E+01   1.8526E+01   3.1067E-05  0.0086
   1.8526E+01   1.8977E+01   2.8353E-05  0.0088
   1.8977E+01   1.9439E+01   2.7377E-05  0.0089
   1.9439E+01   1.9912E+01   2.6717E-05  0.0089
   1.9912E+01   2.0396E+01   2.5184E-05  0.0091
   2.0396E+01   2.0893E+01   2.2666E-05  0.0094
   2.0893E+01   2.1401E+01   2.0361E-05  0.0098
   2.1401E+01   2.1922E+01   1.8571E-05  0.0102
   2.1922E+01   2.2455E+01   1.6831E-05  0.0106
   2.2455E+01   2.3001E+01   1.4936E-05  0.0111
   2.3001E+01   2.3561E+01   1.3428E-05  0.0115
   2.3561E+01   2.4134E+01   1.1892E-05  0.0121
   2.4134E+01   2.4721E+01   9.8620E-06  0.0131
   2.4721E+01   2.5323E+01   8.3991E-06  0.0141
   2.5323E+01   2.5939E+01   7.2793E-06  0.0149
   2.5939E+01   2.6570E+01   6.2682E-06  0.0159
   2.6570E+01   2.7217E+01   5.4588E-06  0.0168
   2.7217E+01   2.7879E+01   4.7236E-06  0.0179
   2.7879E+01   2.8557E+01   4.0615E-06  0.0191
   2.8557E+01   2.9252E+01   3.3865E-06  0.0206
   2.9252E+01   2.9964E+01   3.0208E-06  0.0216
   2.9964E+01   3.0693E+01   2.5129E-06  0.0234
   3.0693E+01   3.1440E+01   2.0756E-06  0.0254
   3.1440E+01   3.2205E+01   1.7387E-06  0.0274
   3.2205E+01   3.2988E+01   1.4102E-06  0.0301
   3.2988E+01   3.3791E+01   1.2173E-06  0.0320
   3.3791E+01   3.4613E+01   1.0266E-06  0.0344
   3.4613E+01   3.5455E+01   7.7301E-07  0.0392
   3.5455E+01   3.6318E+01   6.4453E-07  0.0424
   3.6318E+01   3.7201E+01   4.9342E-07  0.0479
   3.7201E+01   3.8106E+01   4.3529E-07  0.0504
   3.8106E+01   3.9034E+01   2.8798E-07  0.0612
   3.9034E+01   3.9983E+01   2.0111E-07  0.0724
   3.9983E+01   4.0956E+01   1.2541E-07  0.0905
   4.0956E+01   4.1953E+01   6.8239E-08  0.1213
   4.1953E+01   4.2973E+01   3.5269E-08  0.1667
   4.2973E+01   4.4019E+01   1.5303E-08  0.2500
   4.4019E+01   4.5090E+01   3.7348E-09  0.5000
   4.5090E+01   4.6187E+01   0.0000E+00  0.0000
   4.6187E+01   4.7311E+01   0.0000E+00  0.0000
   4.7311E+01   4.8462E+01   0.0000E+00  0.0000
   4.8462E+01   4.9641E+01   0.0000E+00  0.0000
   4.9641E+01   5.0849E+01   0.0000E+00  0.0000
   5.0849E+01   5.2086E+01   0.0000E+00  0.0000
   5.2086E+01   5.3353E+01   0.0000E+00  0.0000
   5.3353E+01   5.4651E+01   0.0000E+00  0.0000
   5.4651E+01   5.5981E+01   0.0000E+00  0.0000
   5.5981E+01   5.7343E+01   0.0000E+00  0.0000
   5.7343E+01   5.8738E+01   0.0000E+00  0.0000
   5.8738E+01   6.0168E+01   0.0000E+00  0.0000
   6.0168E+01   6.1632E+01   0.0000E+00  0.0000
   6.1632E+01   6.3131E+01   0.0000E+00  0.0000
   6.3131E+01   6.4667E+01   0.0000E+00  0.0000
   6.4667E+01   6.6240E+01   0.0000E+00  0.0000
   6.6240E+01   6.7852E+01   0.0000E+00  0.0000
   6.7852E+01   6.9503E+01   0.0000E+00  0.0000
   6.9503E+01   7.1194E+01   0.0000E+00  0.0000
   7.1194E+01   7.2926E+01   0.0000E+00  0.0000
   7.2926E+01   7.4701E+01   0.0000E+00  0.0000
   7.4701E+01   7.6518E+01   0.0000E+00  0.0000
   7.6518E+01   7.8380E+01   0.0000E+00  0.0000
   7.8380E+01   8.0287E+01   0.0000E+00  0.0000
   8.0287E+01   8.2240E+01   0.0000E+00  0.0000
   8.2240E+01   8.4241E+01   0.0000E+00  0.0000
   8.4241E+01   8.6291E+01   0.0000E+00  0.0000
   8.6291E+01   8.8391E+01   0.0000E+00  0.0000
   8.8391E+01   9.0541E+01   0.0000E+00  0.0000
   9.0541E+01   9.2744E+01   0.0000E+00  0.0000
   9.2744E+01   9.5001E+01   0.0000E+00  0.0000
   9.5001E+01   9.7312E+01   0.0000E+00  0.0000
   9.7312E+01   9.9680E+01   0.0000E+00  0.0000
   9.9680E+01   1.0211E+02   0.0000E+00  0.0000
   1.0211E+02   1.0459E+02   0.0000E+00  0.0000
   1.0459E+02   1.0713E+02   0.0000E+00  0.0000
   1.0713E+02   1.0974E+02   0.0000E+00  0.0000
   1.0974E+02   1.1241E+02   0.0000E+00  0.0000
   1.1241E+02   1.1515E+02   0.0000E+00  0.0000
   1.1515E+02   1.1795E+02   0.0000E+00  0.0000
   1.1795E+02   1.2082E+02   0.0000E+00  0.0000
   1.2082E+02   1.2376E+02   0.0000E+00  0.0000
   1.2376E+02   1.2677E+02   0.0000E+00  0.0000
   1.2677E+02   1.2985E+02   0.0000E+00  0.0000
   1.2985E+02   1.3301E+02   0.0000E+00  0.0000
   1.3301E+02   1.3625E+02   0.0000E+00  0.0000
   1.3625E+02   1.3956E+02   0.0000E+00  0.0000
   1.3956E+02   1.4296E+02   0.0000E+00  0.0000
   1.4296E+02   1.4644E+02   0.0000E+00  0.0000
   1.4644E+02   1.5000E+02   0.0000E+00  0.0000

#   sum over                 3.5298E-05
'no. =    1   reg = 111 - 211'
msuc: {\huge [t-cross] in region mesh}
msdr: {\it plotted by \ANGEL \version}
msdl: {\it calculated by \PHITS  3.26}
wt: s(0.7)
\vspace{-3}
  region surface crossing
  area  &=&   1.0000E+00 [cm^2]
e:
 
# Information for Restart Calculation
# This calculation was newly started
# istdev =  2 # 1:Batch variance, 2:History variance
# resc2  = 1.00000000000000000E+09 # Total source weight or Total source weight / maxcas
# resc3  = 1.00000000000000000E+09 # Total history number or Total batch number
# maxcas =   500000000 # History / Batch, only used for istdev=1
# bitrseed = 0001001110011001001001110000100100110111001111011100001000101100 # bit data of rseed
