[ T-Cross ]
    title = [t-cross] in region mesh
     mesh =  reg            # mesh type is region-wise
      reg =    1            # number of crossing regions
      non     r-from    r-to       area
      1       110       210        1.000000    
   e-type =    3            # e-mesh is log given by emin, emax and ne
     emin =  1.0000000E-02  # minimum value of e-mesh points
     emax =   150.0000      # maximum value of e-mesh points
#    edel =  2.4039514E-02  # mesh width of e-mesh points
       ne =    400          # number of e-mesh points
#    data = ( e(i), i = 1, ne + 1 )
#           1.00000E-02  1.02433E-02  1.04925E-02  1.07478E-02  1.10093E-02
#           1.12772E-02  1.15516E-02  1.18326E-02  1.21205E-02  1.24154E-02
#           1.27175E-02  1.30269E-02  1.33439E-02  1.36686E-02  1.40011E-02
#           1.43418E-02  1.46907E-02  1.50482E-02  1.54143E-02  1.57894E-02
#           1.61735E-02  1.65670E-02  1.69701E-02  1.73830E-02  1.78060E-02
#           1.82392E-02  1.86830E-02  1.91375E-02  1.96032E-02  2.00801E-02
#           2.05687E-02  2.10692E-02  2.15818E-02  2.21069E-02  2.26448E-02
#           2.31957E-02  2.37601E-02  2.43382E-02  2.49304E-02  2.55369E-02
#           2.61583E-02  2.67947E-02  2.74467E-02  2.81145E-02  2.87985E-02
#           2.94992E-02  3.02169E-02  3.09521E-02  3.17052E-02  3.24766E-02
#           3.32668E-02  3.40762E-02  3.49053E-02  3.57546E-02  3.66246E-02
#           3.75157E-02  3.84284E-02  3.93634E-02  4.03212E-02  4.13022E-02
#           4.23071E-02  4.33365E-02  4.43909E-02  4.54710E-02  4.65773E-02
#           4.77106E-02  4.88714E-02  5.00605E-02  5.12785E-02  5.25262E-02
#           5.38042E-02  5.51133E-02  5.64542E-02  5.78278E-02  5.92348E-02
#           6.06760E-02  6.21523E-02  6.36645E-02  6.52135E-02  6.68002E-02
#           6.84255E-02  7.00904E-02  7.17957E-02  7.35426E-02  7.53319E-02
#           7.71648E-02  7.90423E-02  8.09655E-02  8.29354E-02  8.49533E-02
#           8.70203E-02  8.91376E-02  9.13064E-02  9.35279E-02  9.58035E-02
#           9.81345E-02  1.00522E-01  1.02968E-01  1.05473E-01  1.08040E-01
#           1.10668E-01  1.13361E-01  1.16119E-01  1.18944E-01  1.21838E-01
#           1.24803E-01  1.27839E-01  1.30950E-01  1.34136E-01  1.37399E-01
#           1.40742E-01  1.44167E-01  1.47675E-01  1.51268E-01  1.54948E-01
#           1.58718E-01  1.62580E-01  1.66535E-01  1.70587E-01  1.74738E-01
#           1.78989E-01  1.83344E-01  1.87805E-01  1.92375E-01  1.97055E-01
#           2.01850E-01  2.06761E-01  2.11792E-01  2.16945E-01  2.22223E-01
#           2.27630E-01  2.33169E-01  2.38842E-01  2.44653E-01  2.50605E-01
#           2.56703E-01  2.62949E-01  2.69346E-01  2.75900E-01  2.82613E-01
#           2.89489E-01  2.96532E-01  3.03747E-01  3.11138E-01  3.18708E-01
#           3.26462E-01  3.34405E-01  3.42542E-01  3.50876E-01  3.59413E-01
#           3.68158E-01  3.77116E-01  3.86291E-01  3.95690E-01  4.05317E-01
#           4.15179E-01  4.25281E-01  4.35628E-01  4.46227E-01  4.57084E-01
#           4.68205E-01  4.79597E-01  4.91266E-01  5.03219E-01  5.15463E-01
#           5.28005E-01  5.40851E-01  5.54011E-01  5.67490E-01  5.81298E-01
#           5.95441E-01  6.09929E-01  6.24769E-01  6.39970E-01  6.55541E-01
#           6.71491E-01  6.87828E-01  7.04564E-01  7.21706E-01  7.39266E-01
#           7.57253E-01  7.75678E-01  7.94551E-01  8.13883E-01  8.33685E-01
#           8.53969E-01  8.74747E-01  8.96030E-01  9.17831E-01  9.40163E-01
#           9.63038E-01  9.86469E-01  1.01047E+00  1.03506E+00  1.06024E+00
#           1.08604E+00  1.11246E+00  1.13953E+00  1.16725E+00  1.19565E+00
#           1.22474E+00  1.25454E+00  1.28507E+00  1.31633E+00  1.34836E+00
#           1.38117E+00  1.41477E+00  1.44920E+00  1.48446E+00  1.52057E+00
#           1.55757E+00  1.59547E+00  1.63429E+00  1.67405E+00  1.71478E+00
#           1.75650E+00  1.79924E+00  1.84302E+00  1.88786E+00  1.93379E+00
#           1.98084E+00  2.02904E+00  2.07841E+00  2.12898E+00  2.18078E+00
#           2.23384E+00  2.28819E+00  2.34386E+00  2.40089E+00  2.45930E+00
#           2.51914E+00  2.58043E+00  2.64322E+00  2.70753E+00  2.77341E+00
#           2.84088E+00  2.91001E+00  2.98081E+00  3.05333E+00  3.12762E+00
#           3.20372E+00  3.28167E+00  3.36152E+00  3.44330E+00  3.52708E+00
#           3.61290E+00  3.70080E+00  3.79085E+00  3.88308E+00  3.97756E+00
#           4.07434E+00  4.17347E+00  4.27501E+00  4.37903E+00  4.48557E+00
#           4.59471E+00  4.70650E+00  4.82102E+00  4.93832E+00  5.05847E+00
#           5.18155E+00  5.30762E+00  5.43676E+00  5.56904E+00  5.70453E+00
#           5.84333E+00  5.98550E+00  6.13114E+00  6.28031E+00  6.43312E+00
#           6.58964E+00  6.74997E+00  6.91420E+00  7.08243E+00  7.25475E+00
#           7.43126E+00  7.61207E+00  7.79728E+00  7.98700E+00  8.18133E+00
#           8.38038E+00  8.58428E+00  8.79315E+00  9.00709E+00  9.22624E+00
#           9.45072E+00  9.68067E+00  9.91620E+00  1.01575E+01  1.04046E+01
#           1.06578E+01  1.09171E+01  1.11827E+01  1.14548E+01  1.17335E+01
#           1.20190E+01  1.23114E+01  1.26109E+01  1.29178E+01  1.32321E+01
#           1.35540E+01  1.38838E+01  1.42216E+01  1.45676E+01  1.49221E+01
#           1.52851E+01  1.56570E+01  1.60380E+01  1.64282E+01  1.68279E+01
#           1.72374E+01  1.76568E+01  1.80864E+01  1.85264E+01  1.89772E+01
#           1.94389E+01  1.99119E+01  2.03963E+01  2.08926E+01  2.14009E+01
#           2.19216E+01  2.24550E+01  2.30014E+01  2.35610E+01  2.41343E+01
#           2.47215E+01  2.53230E+01  2.59391E+01  2.65702E+01  2.72167E+01
#           2.78789E+01  2.85572E+01  2.92520E+01  2.99637E+01  3.06928E+01
#           3.14396E+01  3.22045E+01  3.29881E+01  3.37907E+01  3.46128E+01
#           3.54550E+01  3.63177E+01  3.72013E+01  3.81064E+01  3.90336E+01
#           3.99833E+01  4.09561E+01  4.19526E+01  4.29734E+01  4.40189E+01
#           4.50900E+01  4.61870E+01  4.73108E+01  4.84619E+01  4.96410E+01
#           5.08488E+01  5.20860E+01  5.33533E+01  5.46514E+01  5.59812E+01
#           5.73432E+01  5.87384E+01  6.01676E+01  6.16315E+01  6.31311E+01
#           6.46671E+01  6.62405E+01  6.78522E+01  6.95031E+01  7.11941E+01
#           7.29263E+01  7.47007E+01  7.65182E+01  7.83800E+01  8.02870E+01
#           8.22405E+01  8.42414E+01  8.62911E+01  8.83906E+01  9.05412E+01
#           9.27442E+01  9.50007E+01  9.73122E+01  9.96799E+01  1.02105E+02
#           1.04589E+02  1.07134E+02  1.09741E+02  1.12411E+02  1.15146E+02
#           1.17948E+02  1.20817E+02  1.23757E+02  1.26768E+02  1.29852E+02
#           1.33012E+02  1.36248E+02  1.39563E+02  1.42959E+02  1.46437E+02
#           1.50000E+02
     unit =    2            # unit is [1/cm^2/(MeV/n)/source]
     axis =  eng            # axis of output
     file = detector-11.out  # file name of output for the above axis
   output = f-curr          # surface crossing forward current spectrum
     part =  neutron  
# kf/name :  2112     
#    used :        main (  %)        temp (  %)       total (  %)
#  memory :         414 (  0)           0 (  0)         414 (  0)

#------------------------------------------------------------------------------
#newpage:
#   no. =    1   reg = 110 - 210

x: Energy [MeV/n]
y:  F-Curr [1/cm^2/(MeV/n)/source]         
p: xlog ylog afac(0.8) form(0.9)
h: n            x            y(neutron ),hh0l   n 
#  e-lower      e-upper      neutron     r.err 
   1.0000E-02   1.0243E-02   6.1838E-02  0.0067
   1.0243E-02   1.0493E-02   6.0710E-02  0.0066
   1.0493E-02   1.0748E-02   5.8925E-02  0.0067
   1.0748E-02   1.1009E-02   5.8278E-02  0.0066
   1.1009E-02   1.1277E-02   5.5840E-02  0.0067
   1.1277E-02   1.1552E-02   5.5013E-02  0.0066
   1.1552E-02   1.1833E-02   5.4682E-02  0.0066
   1.1833E-02   1.2121E-02   5.2910E-02  0.0066
   1.2121E-02   1.2415E-02   5.1558E-02  0.0066
   1.2415E-02   1.2718E-02   5.0640E-02  0.0066
   1.2718E-02   1.3027E-02   5.0095E-02  0.0066
   1.3027E-02   1.3344E-02   4.8663E-02  0.0066
   1.3344E-02   1.3669E-02   4.7691E-02  0.0066
   1.3669E-02   1.4001E-02   4.6705E-02  0.0066
   1.4001E-02   1.4342E-02   4.5406E-02  0.0066
   1.4342E-02   1.4691E-02   4.4989E-02  0.0065
   1.4691E-02   1.5048E-02   4.3724E-02  0.0065
   1.5048E-02   1.5414E-02   4.2388E-02  0.0066
   1.5414E-02   1.5789E-02   4.1818E-02  0.0065
   1.5789E-02   1.6174E-02   4.1034E-02  0.0065
   1.6174E-02   1.6567E-02   4.0067E-02  0.0065
   1.6567E-02   1.6970E-02   3.8562E-02  0.0065
   1.6970E-02   1.7383E-02   3.8358E-02  0.0065
   1.7383E-02   1.7806E-02   3.7272E-02  0.0065
   1.7806E-02   1.8239E-02   3.6141E-02  0.0065
   1.8239E-02   1.8683E-02   3.5615E-02  0.0065
   1.8683E-02   1.9138E-02   3.4883E-02  0.0065
   1.9138E-02   1.9603E-02   3.4234E-02  0.0065
   1.9603E-02   2.0080E-02   3.3349E-02  0.0065
   2.0080E-02   2.0569E-02   3.2486E-02  0.0065
   2.0569E-02   2.1069E-02   3.1973E-02  0.0065
   2.1069E-02   2.1582E-02   3.1039E-02  0.0065
   2.1582E-02   2.2107E-02   3.0616E-02  0.0064
   2.2107E-02   2.2645E-02   2.9794E-02  0.0065
   2.2645E-02   2.3196E-02   2.9170E-02  0.0064
   2.3196E-02   2.3760E-02   2.8756E-02  0.0064
   2.3760E-02   2.4338E-02   2.7984E-02  0.0064
   2.4338E-02   2.4930E-02   2.7010E-02  0.0065
   2.4930E-02   2.5537E-02   2.6990E-02  0.0064
   2.5537E-02   2.6158E-02   2.5930E-02  0.0064
   2.6158E-02   2.6795E-02   2.5161E-02  0.0065
   2.6795E-02   2.7447E-02   2.4751E-02  0.0064
   2.7447E-02   2.8114E-02   2.4568E-02  0.0064
   2.8114E-02   2.8799E-02   2.3809E-02  0.0064
   2.8799E-02   2.9499E-02   2.3415E-02  0.0064
   2.9499E-02   3.0217E-02   2.2561E-02  0.0064
   3.0217E-02   3.0952E-02   2.2470E-02  0.0064
   3.0952E-02   3.1705E-02   2.1710E-02  0.0064
   3.1705E-02   3.2477E-02   2.1173E-02  0.0064
   3.2477E-02   3.3267E-02   2.0893E-02  0.0064
   3.3267E-02   3.4076E-02   2.0534E-02  0.0063
   3.4076E-02   3.4905E-02   2.0191E-02  0.0063
   3.4905E-02   3.5755E-02   1.9461E-02  0.0064
   3.5755E-02   3.6625E-02   1.8812E-02  0.0064
   3.6625E-02   3.7516E-02   1.8644E-02  0.0063
   3.7516E-02   3.8428E-02   1.8101E-02  0.0064
   3.8428E-02   3.9363E-02   1.7567E-02  0.0064
   3.9363E-02   4.0321E-02   1.7350E-02  0.0063
   4.0321E-02   4.1302E-02   1.7081E-02  0.0063
   4.1302E-02   4.2307E-02   1.6446E-02  0.0064
   4.2307E-02   4.3337E-02   1.6223E-02  0.0063
   4.3337E-02   4.4391E-02   1.5864E-02  0.0063
   4.4391E-02   4.5471E-02   1.5369E-02  0.0063
   4.5471E-02   4.6577E-02   1.5206E-02  0.0063
   4.6577E-02   4.7711E-02   1.4739E-02  0.0063
   4.7711E-02   4.8871E-02   1.4388E-02  0.0063
   4.8871E-02   5.0061E-02   1.4086E-02  0.0063
   5.0061E-02   5.1279E-02   1.3749E-02  0.0063
   5.1279E-02   5.2526E-02   1.3462E-02  0.0063
   5.2526E-02   5.3804E-02   1.2936E-02  0.0064
   5.3804E-02   5.5113E-02   1.2802E-02  0.0063
   5.5113E-02   5.6454E-02   1.2430E-02  0.0063
   5.6454E-02   5.7828E-02   1.2259E-02  0.0063
   5.7828E-02   5.9235E-02   1.1866E-02  0.0063
   5.9235E-02   6.0676E-02   1.1510E-02  0.0063
   6.0676E-02   6.2152E-02   1.1276E-02  0.0063
   6.2152E-02   6.3665E-02   1.1079E-02  0.0063
   6.3665E-02   6.5214E-02   1.0960E-02  0.0063
   6.5214E-02   6.6800E-02   1.0515E-02  0.0063
   6.6800E-02   6.8426E-02   1.0286E-02  0.0063
   6.8426E-02   7.0090E-02   1.0169E-02  0.0063
   7.0090E-02   7.1796E-02   9.7587E-03  0.0063
   7.1796E-02   7.3543E-02   9.5612E-03  0.0063
   7.3543E-02   7.5332E-02   9.3470E-03  0.0063
   7.5332E-02   7.7165E-02   9.1611E-03  0.0063
   7.7165E-02   7.9042E-02   8.9771E-03  0.0063
   7.9042E-02   8.0965E-02   8.7046E-03  0.0063
   8.0965E-02   8.2935E-02   8.5220E-03  0.0063
   8.2935E-02   8.4953E-02   8.3044E-03  0.0063
   8.4953E-02   8.7020E-02   8.1307E-03  0.0063
   8.7020E-02   8.9138E-02   7.8874E-03  0.0063
   8.9138E-02   9.1306E-02   7.6766E-03  0.0063
   9.1306E-02   9.3528E-02   7.4545E-03  0.0063
   9.3528E-02   9.5804E-02   7.3161E-03  0.0063
   9.5804E-02   9.8134E-02   7.1571E-03  0.0063
   9.8134E-02   1.0052E-01   6.9876E-03  0.0063
   1.0052E-01   1.0297E-01   6.7892E-03  0.0063
   1.0297E-01   1.0547E-01   6.6123E-03  0.0063
   1.0547E-01   1.0804E-01   6.3813E-03  0.0064
   1.0804E-01   1.1067E-01   6.1895E-03  0.0064
   1.1067E-01   1.1336E-01   6.0636E-03  0.0064
   1.1336E-01   1.1612E-01   5.9240E-03  0.0064
   1.1612E-01   1.1894E-01   5.7995E-03  0.0064
   1.1894E-01   1.2184E-01   5.7702E-03  0.0063
   1.2184E-01   1.2480E-01   5.4683E-03  0.0064
   1.2480E-01   1.2784E-01   5.3743E-03  0.0064
   1.2784E-01   1.3095E-01   5.1679E-03  0.0064
   1.3095E-01   1.3414E-01   5.0959E-03  0.0064
   1.3414E-01   1.3740E-01   4.9502E-03  0.0064
   1.3740E-01   1.4074E-01   4.8374E-03  0.0064
   1.4074E-01   1.4417E-01   4.6691E-03  0.0065
   1.4417E-01   1.4767E-01   4.5522E-03  0.0065
   1.4767E-01   1.5127E-01   4.4749E-03  0.0064
   1.5127E-01   1.5495E-01   4.3186E-03  0.0065
   1.5495E-01   1.5872E-01   4.2425E-03  0.0065
   1.5872E-01   1.6258E-01   4.0973E-03  0.0065
   1.6258E-01   1.6654E-01   3.9948E-03  0.0065
   1.6654E-01   1.7059E-01   3.9084E-03  0.0065
   1.7059E-01   1.7474E-01   3.7678E-03  0.0065
   1.7474E-01   1.7899E-01   3.6291E-03  0.0066
   1.7899E-01   1.8334E-01   3.5747E-03  0.0065
   1.8334E-01   1.8781E-01   3.4361E-03  0.0066
   1.8781E-01   1.9237E-01   3.3841E-03  0.0066
   1.9237E-01   1.9706E-01   3.2909E-03  0.0066
   1.9706E-01   2.0185E-01   3.1962E-03  0.0066
   2.0185E-01   2.0676E-01   3.1207E-03  0.0066
   2.0676E-01   2.1179E-01   2.9984E-03  0.0066
   2.1179E-01   2.1694E-01   2.9195E-03  0.0067
   2.1694E-01   2.2222E-01   2.8455E-03  0.0067
   2.2222E-01   2.2763E-01   2.7388E-03  0.0067
   2.2763E-01   2.3317E-01   2.6564E-03  0.0067
   2.3317E-01   2.3884E-01   2.5783E-03  0.0068
   2.3884E-01   2.4465E-01   2.5056E-03  0.0068
   2.4465E-01   2.5061E-01   2.4171E-03  0.0068
   2.5061E-01   2.5670E-01   2.3667E-03  0.0068
   2.5670E-01   2.6295E-01   2.2704E-03  0.0069
   2.6295E-01   2.6935E-01   2.2053E-03  0.0069
   2.6935E-01   2.7590E-01   2.1462E-03  0.0069
   2.7590E-01   2.8261E-01   2.0771E-03  0.0069
   2.8261E-01   2.8949E-01   1.9930E-03  0.0070
   2.8949E-01   2.9653E-01   1.9512E-03  0.0070
   2.9653E-01   3.0375E-01   1.8833E-03  0.0070
   3.0375E-01   3.1114E-01   1.8361E-03  0.0070
   3.1114E-01   3.1871E-01   1.7497E-03  0.0071
   3.1871E-01   3.2646E-01   1.7000E-03  0.0071
   3.2646E-01   3.3441E-01   1.6577E-03  0.0071
   3.3441E-01   3.4254E-01   1.6018E-03  0.0072
   3.4254E-01   3.5088E-01   1.5242E-03  0.0072
   3.5088E-01   3.5941E-01   1.4652E-03  0.0073
   3.5941E-01   3.6816E-01   1.4403E-03  0.0073
   3.6816E-01   3.7712E-01   1.3864E-03  0.0073
   3.7712E-01   3.8629E-01   1.3369E-03  0.0074
   3.8629E-01   3.9569E-01   1.2841E-03  0.0074
   3.9569E-01   4.0532E-01   1.2375E-03  0.0075
   4.0532E-01   4.1518E-01   1.2034E-03  0.0075
   4.1518E-01   4.2528E-01   1.1608E-03  0.0075
   4.2528E-01   4.3563E-01   1.1257E-03  0.0076
   4.3563E-01   4.4623E-01   1.0827E-03  0.0076
   4.4623E-01   4.5708E-01   1.0391E-03  0.0077
   4.5708E-01   4.6821E-01   1.0150E-03  0.0077
   4.6821E-01   4.7960E-01   9.5481E-04  0.0078
   4.7960E-01   4.9127E-01   9.3681E-04  0.0078
   4.9127E-01   5.0322E-01   8.9585E-04  0.0079
   5.0322E-01   5.1546E-01   8.5587E-04  0.0080
   5.1546E-01   5.2800E-01   8.3788E-04  0.0080
   5.2800E-01   5.4085E-01   7.9685E-04  0.0081
   5.4085E-01   5.5401E-01   7.8099E-04  0.0081
   5.5401E-01   5.6749E-01   7.4209E-04  0.0082
   5.6749E-01   5.8130E-01   7.0624E-04  0.0083
   5.8130E-01   5.9544E-01   6.8602E-04  0.0083
   5.9544E-01   6.0993E-01   6.6121E-04  0.0083
   6.0993E-01   6.2477E-01   6.5029E-04  0.0083
   6.2477E-01   6.3997E-01   6.0945E-04  0.0085
   6.3997E-01   6.5554E-01   5.9029E-04  0.0085
   6.5554E-01   6.7149E-01   5.7110E-04  0.0086
   6.7149E-01   6.8783E-01   5.4605E-04  0.0086
   6.8783E-01   7.0456E-01   5.1942E-04  0.0088
   7.0456E-01   7.2171E-01   5.1161E-04  0.0087
   7.2171E-01   7.3927E-01   4.7450E-04  0.0089
   7.3927E-01   7.5725E-01   4.6378E-04  0.0089
   7.5725E-01   7.7568E-01   4.4886E-04  0.0090
   7.7568E-01   7.9455E-01   4.3014E-04  0.0091
   7.9455E-01   8.1388E-01   4.1922E-04  0.0091
   8.1388E-01   8.3368E-01   3.9583E-04  0.0092
   8.3368E-01   8.5397E-01   3.8049E-04  0.0093
   8.5397E-01   8.7475E-01   3.7075E-04  0.0093
   8.7475E-01   8.9603E-01   3.6097E-04  0.0093
   8.9603E-01   9.1783E-01   3.4584E-04  0.0094
   9.1783E-01   9.4016E-01   3.3459E-04  0.0094
   9.4016E-01   9.6304E-01   3.2520E-04  0.0095
   9.6304E-01   9.8647E-01   3.1375E-04  0.0095
   9.8647E-01   1.0105E+00   3.0983E-04  0.0095
   1.0105E+00   1.0351E+00   3.2260E-04  0.0092
   1.0351E+00   1.0602E+00   3.3269E-04  0.0089
   1.0602E+00   1.0860E+00   3.4666E-04  0.0086
   1.0860E+00   1.1125E+00   3.6097E-04  0.0084
   1.1125E+00   1.1395E+00   3.7623E-04  0.0081
   1.1395E+00   1.1673E+00   4.0335E-04  0.0077
   1.1673E+00   1.1957E+00   4.3061E-04  0.0074
   1.1957E+00   1.2247E+00   4.4427E-04  0.0072
   1.2247E+00   1.2545E+00   4.5776E-04  0.0070
   1.2545E+00   1.2851E+00   4.7660E-04  0.0068
   1.2851E+00   1.3163E+00   4.8385E-04  0.0066
   1.3163E+00   1.3484E+00   5.1175E-04  0.0064
   1.3484E+00   1.3812E+00   5.3847E-04  0.0061
   1.3812E+00   1.4148E+00   5.5878E-04  0.0060
   1.4148E+00   1.4492E+00   5.6370E-04  0.0059
   1.4492E+00   1.4845E+00   5.7532E-04  0.0057
   1.4845E+00   1.5206E+00   5.8887E-04  0.0056
   1.5206E+00   1.5576E+00   6.0800E-04  0.0054
   1.5576E+00   1.5955E+00   6.2778E-04  0.0053
   1.5955E+00   1.6343E+00   6.4857E-04  0.0051
   1.6343E+00   1.6741E+00   6.7388E-04  0.0050
   1.6741E+00   1.7148E+00   7.0315E-04  0.0048
   1.7148E+00   1.7565E+00   7.0629E-04  0.0048
   1.7565E+00   1.7992E+00   7.1294E-04  0.0047
   1.7992E+00   1.8430E+00   7.1709E-04  0.0046
   1.8430E+00   1.8879E+00   7.4020E-04  0.0045
   1.8879E+00   1.9338E+00   7.5189E-04  0.0044
   1.9338E+00   1.9808E+00   7.6663E-04  0.0043
   1.9808E+00   2.0290E+00   7.7787E-04  0.0042
   2.0290E+00   2.0784E+00   7.6957E-04  0.0042
   2.0784E+00   2.1290E+00   7.7196E-04  0.0041
   2.1290E+00   2.1808E+00   7.6914E-04  0.0041
   2.1808E+00   2.2338E+00   7.7434E-04  0.0040
   2.2338E+00   2.2882E+00   7.8174E-04  0.0040
   2.2882E+00   2.3439E+00   7.8626E-04  0.0039
   2.3439E+00   2.4009E+00   7.9826E-04  0.0038
   2.4009E+00   2.4593E+00   7.9771E-04  0.0038
   2.4593E+00   2.5191E+00   7.7705E-04  0.0038
   2.5191E+00   2.5804E+00   7.6324E-04  0.0038
   2.5804E+00   2.6432E+00   7.4494E-04  0.0038
   2.6432E+00   2.7075E+00   7.3893E-04  0.0037
   2.7075E+00   2.7734E+00   7.3383E-04  0.0037
   2.7734E+00   2.8409E+00   7.3207E-04  0.0037
   2.8409E+00   2.9100E+00   7.2987E-04  0.0036
   2.9100E+00   2.9808E+00   7.2266E-04  0.0036
   2.9808E+00   3.0533E+00   7.0545E-04  0.0036
   3.0533E+00   3.1276E+00   6.8014E-04  0.0036
   3.1276E+00   3.2037E+00   6.5531E-04  0.0037
   3.2037E+00   3.2817E+00   6.3447E-04  0.0037
   3.2817E+00   3.3615E+00   6.1317E-04  0.0037
   3.3615E+00   3.4433E+00   5.9661E-04  0.0037
   3.4433E+00   3.5271E+00   5.8603E-04  0.0037
   3.5271E+00   3.6129E+00   5.8082E-04  0.0037
   3.6129E+00   3.7008E+00   5.5674E-04  0.0037
   3.7008E+00   3.7908E+00   5.3850E-04  0.0037
   3.7908E+00   3.8831E+00   5.1702E-04  0.0037
   3.8831E+00   3.9776E+00   5.0284E-04  0.0037
   3.9776E+00   4.0743E+00   4.8646E-04  0.0038
   4.0743E+00   4.1735E+00   4.6387E-04  0.0038
   4.1735E+00   4.2750E+00   4.4183E-04  0.0039
   4.2750E+00   4.3790E+00   4.2131E-04  0.0039
   4.3790E+00   4.4856E+00   4.0105E-04  0.0040
   4.4856E+00   4.5947E+00   3.8189E-04  0.0040
   4.5947E+00   4.7065E+00   3.6792E-04  0.0040
   4.7065E+00   4.8210E+00   3.5650E-04  0.0040
   4.8210E+00   4.9383E+00   3.4288E-04  0.0041
   4.9383E+00   5.0585E+00   3.2935E-04  0.0041
   5.0585E+00   5.1815E+00   3.1171E-04  0.0042
   5.1815E+00   5.3076E+00   2.9531E-04  0.0042
   5.3076E+00   5.4368E+00   2.8275E-04  0.0043
   5.4368E+00   5.5690E+00   2.6805E-04  0.0043
   5.5690E+00   5.7045E+00   2.5316E-04  0.0044
   5.7045E+00   5.8433E+00   2.4294E-04  0.0044
   5.8433E+00   5.9855E+00   2.3306E-04  0.0045
   5.9855E+00   6.1311E+00   2.2726E-04  0.0045
   6.1311E+00   6.2803E+00   2.1624E-04  0.0045
   6.2803E+00   6.4331E+00   2.0469E-04  0.0046
   6.4331E+00   6.5896E+00   1.9808E-04  0.0046
   6.5896E+00   6.7500E+00   1.8856E-04  0.0047
   6.7500E+00   6.9142E+00   1.8115E-04  0.0047
   6.9142E+00   7.0824E+00   1.7711E-04  0.0047
   7.0824E+00   7.2548E+00   1.7122E-04  0.0048
   7.2548E+00   7.4313E+00   1.6389E-04  0.0048
   7.4313E+00   7.6121E+00   1.5978E-04  0.0048
   7.6121E+00   7.7973E+00   1.5500E-04  0.0048
   7.7973E+00   7.9870E+00   1.5232E-04  0.0048
   7.9870E+00   8.1813E+00   1.4804E-04  0.0048
   8.1813E+00   8.3804E+00   1.4411E-04  0.0048
   8.3804E+00   8.5843E+00   1.3982E-04  0.0048
   8.5843E+00   8.7931E+00   1.3805E-04  0.0048
   8.7931E+00   9.0071E+00   1.3540E-04  0.0048
   9.0071E+00   9.2262E+00   1.3416E-04  0.0048
   9.2262E+00   9.4507E+00   1.3154E-04  0.0047
   9.4507E+00   9.6807E+00   1.2882E-04  0.0047
   9.6807E+00   9.9162E+00   1.2797E-04  0.0047
   9.9162E+00   1.0157E+01   1.2774E-04  0.0046
   1.0157E+01   1.0405E+01   1.2511E-04  0.0046
   1.0405E+01   1.0658E+01   1.2371E-04  0.0046
   1.0658E+01   1.0917E+01   1.2242E-04  0.0046
   1.0917E+01   1.1183E+01   1.2264E-04  0.0045
   1.1183E+01   1.1455E+01   1.2044E-04  0.0045
   1.1455E+01   1.1733E+01   1.1957E-04  0.0045
   1.1733E+01   1.2019E+01   1.1996E-04  0.0044
   1.2019E+01   1.2311E+01   1.1892E-04  0.0044
   1.2311E+01   1.2611E+01   1.1826E-04  0.0043
   1.2611E+01   1.2918E+01   1.1718E-04  0.0043
   1.2918E+01   1.3232E+01   1.1621E-04  0.0043
   1.3232E+01   1.3554E+01   1.1500E-04  0.0042
   1.3554E+01   1.3884E+01   1.1447E-04  0.0042
   1.3884E+01   1.4222E+01   1.1472E-04  0.0041
   1.4222E+01   1.4568E+01   1.1261E-04  0.0041
   1.4568E+01   1.4922E+01   1.1242E-04  0.0041
   1.4922E+01   1.5285E+01   1.1086E-04  0.0041
   1.5285E+01   1.5657E+01   1.1018E-04  0.0040
   1.5657E+01   1.6038E+01   1.0816E-04  0.0040
   1.6038E+01   1.6428E+01   1.0720E-04  0.0040
   1.6428E+01   1.6828E+01   1.0619E-04  0.0040
   1.6828E+01   1.7237E+01   1.0457E-04  0.0039
   1.7237E+01   1.7657E+01   1.0370E-04  0.0039
   1.7657E+01   1.8086E+01   1.0207E-04  0.0039
   1.8086E+01   1.8526E+01   1.0115E-04  0.0039
   1.8526E+01   1.8977E+01   9.9048E-05  0.0039
   1.8977E+01   1.9439E+01   9.6722E-05  0.0039
   1.9439E+01   1.9912E+01   9.4145E-05  0.0039
   1.9912E+01   2.0396E+01   8.8884E-05  0.0039
   2.0396E+01   2.0893E+01   9.0171E-05  0.0039
   2.0893E+01   2.1401E+01   8.7626E-05  0.0039
   2.1401E+01   2.1922E+01   8.5656E-05  0.0039
   2.1922E+01   2.2455E+01   8.3143E-05  0.0039
   2.2455E+01   2.3001E+01   8.0263E-05  0.0039
   2.3001E+01   2.3561E+01   7.8136E-05  0.0039
   2.3561E+01   2.4134E+01   7.4659E-05  0.0039
   2.4134E+01   2.4721E+01   7.2088E-05  0.0040
   2.4721E+01   2.5323E+01   6.9467E-05  0.0040
   2.5323E+01   2.5939E+01   6.6783E-05  0.0040
   2.5939E+01   2.6570E+01   6.4334E-05  0.0041
   2.6570E+01   2.7217E+01   6.2266E-05  0.0041
   2.7217E+01   2.7879E+01   5.9445E-05  0.0041
   2.7879E+01   2.8557E+01   5.6858E-05  0.0042
   2.8557E+01   2.9252E+01   5.4523E-05  0.0042
   2.9252E+01   2.9964E+01   5.1215E-05  0.0043
   2.9964E+01   3.0693E+01   4.8922E-05  0.0043
   3.0693E+01   3.1440E+01   4.6980E-05  0.0044
   3.1440E+01   3.2205E+01   4.4401E-05  0.0044
   3.2205E+01   3.2988E+01   4.1968E-05  0.0045
   3.2988E+01   3.3791E+01   3.9970E-05  0.0046
   3.3791E+01   3.4613E+01   3.7833E-05  0.0046
   3.4613E+01   3.5455E+01   3.5736E-05  0.0047
   3.5455E+01   3.6318E+01   3.3551E-05  0.0048
   3.6318E+01   3.7201E+01   3.1714E-05  0.0049
   3.7201E+01   3.8106E+01   2.9531E-05  0.0050
   3.8106E+01   3.9034E+01   2.7765E-05  0.0051
   3.9034E+01   3.9983E+01   2.5928E-05  0.0052
   3.9983E+01   4.0956E+01   2.4073E-05  0.0053
   4.0956E+01   4.1953E+01   2.2764E-05  0.0054
   4.1953E+01   4.2973E+01   2.0765E-05  0.0056
   4.2973E+01   4.4019E+01   1.9282E-05  0.0058
   4.4019E+01   4.5090E+01   1.7855E-05  0.0059
   4.5090E+01   4.6187E+01   1.6461E-05  0.0061
   4.6187E+01   4.7311E+01   1.4999E-05  0.0063
   4.7311E+01   4.8462E+01   1.3864E-05  0.0065
   4.8462E+01   4.9641E+01   1.2587E-05  0.0067
   4.9641E+01   5.0849E+01   1.1532E-05  0.0069
   5.0849E+01   5.2086E+01   1.0172E-05  0.0073
   5.2086E+01   5.3353E+01   9.3370E-06  0.0075
   5.3353E+01   5.4651E+01   8.3007E-06  0.0079
   5.4651E+01   5.5981E+01   7.4933E-06  0.0082
   5.5981E+01   5.7343E+01   6.6409E-06  0.0086
   5.7343E+01   5.8738E+01   5.9499E-06  0.0090
   5.8738E+01   6.0168E+01   5.0837E-06  0.0096
   6.0168E+01   6.1632E+01   4.4164E-06  0.0102
   6.1632E+01   6.3131E+01   3.7727E-06  0.0109
   6.3131E+01   6.4667E+01   3.2339E-06  0.0116
   6.4667E+01   6.6240E+01   2.7325E-06  0.0125
   6.6240E+01   6.7852E+01   2.2296E-06  0.0136
   6.7852E+01   6.9503E+01   1.8136E-06  0.0149
   6.9503E+01   7.1194E+01   1.4673E-06  0.0164
   7.1194E+01   7.2926E+01   1.0807E-06  0.0189
   7.2926E+01   7.4701E+01   8.6003E-07  0.0209
   7.4701E+01   7.6518E+01   5.9385E-07  0.0249
   7.6518E+01   7.8380E+01   3.8100E-07  0.0307
   7.8380E+01   8.0287E+01   2.5484E-07  0.0370
   8.0287E+01   8.2240E+01   1.4982E-07  0.0477
   8.2240E+01   8.4241E+01   6.5301E-08  0.0714
   8.4241E+01   8.6291E+01   2.6021E-08  0.1118
   8.6291E+01   8.8391E+01   2.2227E-09  0.3780
   8.8391E+01   9.0541E+01   0.0000E+00  0.0000
   9.0541E+01   9.2744E+01   0.0000E+00  0.0000
   9.2744E+01   9.5001E+01   0.0000E+00  0.0000
   9.5001E+01   9.7312E+01   0.0000E+00  0.0000
   9.7312E+01   9.9680E+01   0.0000E+00  0.0000
   9.9680E+01   1.0211E+02   0.0000E+00  0.0000
   1.0211E+02   1.0459E+02   0.0000E+00  0.0000
   1.0459E+02   1.0713E+02   0.0000E+00  0.0000
   1.0713E+02   1.0974E+02   0.0000E+00  0.0000
   1.0974E+02   1.1241E+02   0.0000E+00  0.0000
   1.1241E+02   1.1515E+02   0.0000E+00  0.0000
   1.1515E+02   1.1795E+02   0.0000E+00  0.0000
   1.1795E+02   1.2082E+02   0.0000E+00  0.0000
   1.2082E+02   1.2376E+02   0.0000E+00  0.0000
   1.2376E+02   1.2677E+02   0.0000E+00  0.0000
   1.2677E+02   1.2985E+02   0.0000E+00  0.0000
   1.2985E+02   1.3301E+02   0.0000E+00  0.0000
   1.3301E+02   1.3625E+02   0.0000E+00  0.0000
   1.3625E+02   1.3956E+02   0.0000E+00  0.0000
   1.3956E+02   1.4296E+02   0.0000E+00  0.0000
   1.4296E+02   1.4644E+02   0.0000E+00  0.0000
   1.4644E+02   1.5000E+02   0.0000E+00  0.0000

#   sum over                 5.6426E-05
'no. =    1   reg = 110 - 210'
msuc: {\huge [t-cross] in region mesh}
msdr: {\it plotted by \ANGEL \version}
msdl: {\it calculated by \PHITS  3.26}
wt: s(0.7)
\vspace{-3}
  region surface crossing
  area  &=&   1.0000E+00 [cm^2]
e:
 
# Information for Restart Calculation
# This calculation was newly started
# istdev =  2 # 1:Batch variance, 2:History variance
# resc2  = 1.50000000000000000E+09 # Total source weight or Total source weight / maxcas
# resc3  = 1.50000000000000000E+09 # Total history number or Total batch number
# maxcas =   100000000 # History / Batch, only used for istdev=1
# bitrseed = 0000010101110101110110100110011001100101000001100111100100101101 # bit data of rseed
