[ T-Cross ]
    title = [t-cross] in region mesh
     mesh =  reg            # mesh type is region-wise
      reg =    1            # number of crossing regions
      non     r-from    r-to       area
      1       126       226        1.000000    
   e-type =    3            # e-mesh is log given by emin, emax and ne
     emin =  1.0000000E-02  # minimum value of e-mesh points
     emax =   150.0000      # maximum value of e-mesh points
#    edel =  2.4039514E-02  # mesh width of e-mesh points
       ne =    400          # number of e-mesh points
#    data = ( e(i), i = 1, ne + 1 )
#           1.00000E-02  1.02433E-02  1.04925E-02  1.07478E-02  1.10093E-02
#           1.12772E-02  1.15516E-02  1.18326E-02  1.21205E-02  1.24154E-02
#           1.27175E-02  1.30269E-02  1.33439E-02  1.36686E-02  1.40011E-02
#           1.43418E-02  1.46907E-02  1.50482E-02  1.54143E-02  1.57894E-02
#           1.61735E-02  1.65670E-02  1.69701E-02  1.73830E-02  1.78060E-02
#           1.82392E-02  1.86830E-02  1.91375E-02  1.96032E-02  2.00801E-02
#           2.05687E-02  2.10692E-02  2.15818E-02  2.21069E-02  2.26448E-02
#           2.31957E-02  2.37601E-02  2.43382E-02  2.49304E-02  2.55369E-02
#           2.61583E-02  2.67947E-02  2.74467E-02  2.81145E-02  2.87985E-02
#           2.94992E-02  3.02169E-02  3.09521E-02  3.17052E-02  3.24766E-02
#           3.32668E-02  3.40762E-02  3.49053E-02  3.57546E-02  3.66246E-02
#           3.75157E-02  3.84284E-02  3.93634E-02  4.03212E-02  4.13022E-02
#           4.23071E-02  4.33365E-02  4.43909E-02  4.54710E-02  4.65773E-02
#           4.77106E-02  4.88714E-02  5.00605E-02  5.12785E-02  5.25262E-02
#           5.38042E-02  5.51133E-02  5.64542E-02  5.78278E-02  5.92348E-02
#           6.06760E-02  6.21523E-02  6.36645E-02  6.52135E-02  6.68002E-02
#           6.84255E-02  7.00904E-02  7.17957E-02  7.35426E-02  7.53319E-02
#           7.71648E-02  7.90423E-02  8.09655E-02  8.29354E-02  8.49533E-02
#           8.70203E-02  8.91376E-02  9.13064E-02  9.35279E-02  9.58035E-02
#           9.81345E-02  1.00522E-01  1.02968E-01  1.05473E-01  1.08040E-01
#           1.10668E-01  1.13361E-01  1.16119E-01  1.18944E-01  1.21838E-01
#           1.24803E-01  1.27839E-01  1.30950E-01  1.34136E-01  1.37399E-01
#           1.40742E-01  1.44167E-01  1.47675E-01  1.51268E-01  1.54948E-01
#           1.58718E-01  1.62580E-01  1.66535E-01  1.70587E-01  1.74738E-01
#           1.78989E-01  1.83344E-01  1.87805E-01  1.92375E-01  1.97055E-01
#           2.01850E-01  2.06761E-01  2.11792E-01  2.16945E-01  2.22223E-01
#           2.27630E-01  2.33169E-01  2.38842E-01  2.44653E-01  2.50605E-01
#           2.56703E-01  2.62949E-01  2.69346E-01  2.75900E-01  2.82613E-01
#           2.89489E-01  2.96532E-01  3.03747E-01  3.11138E-01  3.18708E-01
#           3.26462E-01  3.34405E-01  3.42542E-01  3.50876E-01  3.59413E-01
#           3.68158E-01  3.77116E-01  3.86291E-01  3.95690E-01  4.05317E-01
#           4.15179E-01  4.25281E-01  4.35628E-01  4.46227E-01  4.57084E-01
#           4.68205E-01  4.79597E-01  4.91266E-01  5.03219E-01  5.15463E-01
#           5.28005E-01  5.40851E-01  5.54011E-01  5.67490E-01  5.81298E-01
#           5.95441E-01  6.09929E-01  6.24769E-01  6.39970E-01  6.55541E-01
#           6.71491E-01  6.87828E-01  7.04564E-01  7.21706E-01  7.39266E-01
#           7.57253E-01  7.75678E-01  7.94551E-01  8.13883E-01  8.33685E-01
#           8.53969E-01  8.74747E-01  8.96030E-01  9.17831E-01  9.40163E-01
#           9.63038E-01  9.86469E-01  1.01047E+00  1.03506E+00  1.06024E+00
#           1.08604E+00  1.11246E+00  1.13953E+00  1.16725E+00  1.19565E+00
#           1.22474E+00  1.25454E+00  1.28507E+00  1.31633E+00  1.34836E+00
#           1.38117E+00  1.41477E+00  1.44920E+00  1.48446E+00  1.52057E+00
#           1.55757E+00  1.59547E+00  1.63429E+00  1.67405E+00  1.71478E+00
#           1.75650E+00  1.79924E+00  1.84302E+00  1.88786E+00  1.93379E+00
#           1.98084E+00  2.02904E+00  2.07841E+00  2.12898E+00  2.18078E+00
#           2.23384E+00  2.28819E+00  2.34386E+00  2.40089E+00  2.45930E+00
#           2.51914E+00  2.58043E+00  2.64322E+00  2.70753E+00  2.77341E+00
#           2.84088E+00  2.91001E+00  2.98081E+00  3.05333E+00  3.12762E+00
#           3.20372E+00  3.28167E+00  3.36152E+00  3.44330E+00  3.52708E+00
#           3.61290E+00  3.70080E+00  3.79085E+00  3.88308E+00  3.97756E+00
#           4.07434E+00  4.17347E+00  4.27501E+00  4.37903E+00  4.48557E+00
#           4.59471E+00  4.70650E+00  4.82102E+00  4.93832E+00  5.05847E+00
#           5.18155E+00  5.30762E+00  5.43676E+00  5.56904E+00  5.70453E+00
#           5.84333E+00  5.98550E+00  6.13114E+00  6.28031E+00  6.43312E+00
#           6.58964E+00  6.74997E+00  6.91420E+00  7.08243E+00  7.25475E+00
#           7.43126E+00  7.61207E+00  7.79728E+00  7.98700E+00  8.18133E+00
#           8.38038E+00  8.58428E+00  8.79315E+00  9.00709E+00  9.22624E+00
#           9.45072E+00  9.68067E+00  9.91620E+00  1.01575E+01  1.04046E+01
#           1.06578E+01  1.09171E+01  1.11827E+01  1.14548E+01  1.17335E+01
#           1.20190E+01  1.23114E+01  1.26109E+01  1.29178E+01  1.32321E+01
#           1.35540E+01  1.38838E+01  1.42216E+01  1.45676E+01  1.49221E+01
#           1.52851E+01  1.56570E+01  1.60380E+01  1.64282E+01  1.68279E+01
#           1.72374E+01  1.76568E+01  1.80864E+01  1.85264E+01  1.89772E+01
#           1.94389E+01  1.99119E+01  2.03963E+01  2.08926E+01  2.14009E+01
#           2.19216E+01  2.24550E+01  2.30014E+01  2.35610E+01  2.41343E+01
#           2.47215E+01  2.53230E+01  2.59391E+01  2.65702E+01  2.72167E+01
#           2.78789E+01  2.85572E+01  2.92520E+01  2.99637E+01  3.06928E+01
#           3.14396E+01  3.22045E+01  3.29881E+01  3.37907E+01  3.46128E+01
#           3.54550E+01  3.63177E+01  3.72013E+01  3.81064E+01  3.90336E+01
#           3.99833E+01  4.09561E+01  4.19526E+01  4.29734E+01  4.40189E+01
#           4.50900E+01  4.61870E+01  4.73108E+01  4.84619E+01  4.96410E+01
#           5.08488E+01  5.20860E+01  5.33533E+01  5.46514E+01  5.59812E+01
#           5.73432E+01  5.87384E+01  6.01676E+01  6.16315E+01  6.31311E+01
#           6.46671E+01  6.62405E+01  6.78522E+01  6.95031E+01  7.11941E+01
#           7.29263E+01  7.47007E+01  7.65182E+01  7.83800E+01  8.02870E+01
#           8.22405E+01  8.42414E+01  8.62911E+01  8.83906E+01  9.05412E+01
#           9.27442E+01  9.50007E+01  9.73122E+01  9.96799E+01  1.02105E+02
#           1.04589E+02  1.07134E+02  1.09741E+02  1.12411E+02  1.15146E+02
#           1.17948E+02  1.20817E+02  1.23757E+02  1.26768E+02  1.29852E+02
#           1.33012E+02  1.36248E+02  1.39563E+02  1.42959E+02  1.46437E+02
#           1.50000E+02
     unit =    2            # unit is [1/cm^2/(MeV/n)/source]
     axis =  eng            # axis of output
     file = detector-27.out  # file name of output for the above axis
   output = f-curr          # surface crossing forward current spectrum
     part =  neutron  
# kf/name :  2112     
#    used :        main (  %)        temp (  %)       total (  %)
#  memory :         414 (  0)           0 (  0)         414 (  0)

#------------------------------------------------------------------------------
#newpage:
#   no. =    1   reg = 126 - 226

x: Energy [MeV/n]
y:  F-Curr [1/cm^2/(MeV/n)/source]         
p: xlog ylog afac(0.8) form(0.9)
h: n            x            y(neutron ),hh0l   n 
#  e-lower      e-upper      neutron     r.err 
   1.0000E-02   1.0243E-02   1.1456E-04  0.0845
   1.0243E-02   1.0493E-02   1.1846E-04  0.0822
   1.0493E-02   1.0748E-02   1.1686E-04  0.0817
   1.0748E-02   1.1009E-02   1.1077E-04  0.0828
   1.1009E-02   1.1277E-02   1.1028E-04  0.0820
   1.1277E-02   1.1552E-02   1.2802E-04  0.0754
   1.1552E-02   1.1833E-02   1.1526E-04  0.0781
   1.1833E-02   1.2121E-02   1.1969E-04  0.0761
   1.2121E-02   1.2415E-02   1.2069E-04  0.0748
   1.2415E-02   1.2718E-02   1.1587E-04  0.0754
   1.2718E-02   1.3027E-02   8.2953E-05  0.0882
   1.3027E-02   1.3344E-02   1.0538E-04  0.0773
   1.3344E-02   1.3669E-02   9.0253E-05  0.0822
   1.3669E-02   1.4001E-02   9.5917E-05  0.0790
   1.4001E-02   1.4342E-02   1.0431E-04  0.0747
   1.4342E-02   1.4691E-02   9.4874E-05  0.0775
   1.4691E-02   1.5048E-02   9.6635E-05  0.0759
   1.5048E-02   1.5414E-02   1.0284E-04  0.0727
   1.5414E-02   1.5789E-02   9.5694E-05  0.0745
   1.5789E-02   1.6174E-02   8.1382E-05  0.0797
   1.6174E-02   1.6567E-02   9.0940E-05  0.0746
   1.6567E-02   1.6970E-02   8.5593E-05  0.0759
   1.6970E-02   1.7383E-02   8.0461E-05  0.0774
   1.7383E-02   1.7806E-02   8.0004E-05  0.0765
   1.7806E-02   1.8239E-02   8.2224E-05  0.0745
   1.8239E-02   1.8683E-02   8.8487E-05  0.0711
   1.8683E-02   1.9138E-02   8.1686E-05  0.0733
   1.9138E-02   1.9603E-02   8.1293E-05  0.0725
   1.9603E-02   2.0080E-02   7.5439E-05  0.0744
   2.0080E-02   2.0569E-02   7.7219E-05  0.0727
   2.0569E-02   2.1069E-02   7.4125E-05  0.0733
   2.1069E-02   2.1582E-02   6.7799E-05  0.0756
   2.1582E-02   2.2107E-02   6.2035E-05  0.0782
   2.2107E-02   2.2645E-02   6.6517E-05  0.0746
   2.2645E-02   2.3196E-02   6.0833E-05  0.0771
   2.3196E-02   2.3760E-02   6.1917E-05  0.0755
   2.3760E-02   2.4338E-02   7.0895E-05  0.0698
   2.4338E-02   2.4930E-02   6.1853E-05  0.0737
   2.4930E-02   2.5537E-02   6.0439E-05  0.0737
   2.5537E-02   2.6158E-02   6.0264E-05  0.0728
   2.6158E-02   2.6795E-02   6.1945E-05  0.0711
   2.6795E-02   2.7447E-02   5.6574E-05  0.0736
   2.7447E-02   2.8114E-02   5.7516E-05  0.0720
   2.8114E-02   2.8799E-02   5.6213E-05  0.0720
   2.8799E-02   2.9499E-02   5.4110E-05  0.0723
   2.9499E-02   3.0217E-02   5.6688E-05  0.0699
   3.0217E-02   3.0952E-02   5.1774E-05  0.0723
   3.0952E-02   3.1705E-02   5.2259E-05  0.0712
   3.1705E-02   3.2477E-02   4.8134E-05  0.0732
   3.2477E-02   3.3267E-02   4.7800E-05  0.0724
   3.3267E-02   3.4076E-02   4.3695E-05  0.0748
   3.4076E-02   3.4905E-02   4.9124E-05  0.0700
   3.4905E-02   3.5755E-02   4.8234E-05  0.0697
   3.5755E-02   3.6625E-02   4.7403E-05  0.0696
   3.6625E-02   3.7516E-02   4.3948E-05  0.0713
   3.7516E-02   3.8428E-02   4.5237E-05  0.0694
   3.8428E-02   3.9363E-02   4.4311E-05  0.0694
   3.9363E-02   4.0321E-02   4.0718E-05  0.0714
   4.0321E-02   4.1302E-02   3.8221E-05  0.0729
   4.1302E-02   4.2307E-02   3.8228E-05  0.0720
   4.2307E-02   4.3337E-02   3.8934E-05  0.0704
   4.3337E-02   4.4391E-02   3.7267E-05  0.0712
   4.4391E-02   4.5471E-02   3.7499E-05  0.0701
   4.5471E-02   4.6577E-02   3.8036E-05  0.0688
   4.6577E-02   4.7711E-02   3.9528E-05  0.0666
   4.7711E-02   4.8871E-02   3.7418E-05  0.0676
   4.8871E-02   5.0061E-02   3.2440E-05  0.0717
   5.0061E-02   5.1279E-02   3.4455E-05  0.0689
   5.1279E-02   5.2526E-02   3.1837E-05  0.0706
   5.2526E-02   5.3804E-02   3.0455E-05  0.0714
   5.3804E-02   5.5113E-02   2.6013E-05  0.0765
   5.5113E-02   5.6454E-02   3.0086E-05  0.0702
   5.6454E-02   5.7828E-02   2.7023E-05  0.0731
   5.7828E-02   5.9235E-02   2.7711E-05  0.0714
   5.9235E-02   6.0676E-02   3.1474E-05  0.0663
   6.0676E-02   6.2152E-02   3.1203E-05  0.0658
   6.2152E-02   6.3665E-02   2.9912E-05  0.0664
   6.3665E-02   6.5214E-02   2.5712E-05  0.0707
   6.5214E-02   6.6800E-02   2.3926E-05  0.0725
   6.6800E-02   6.8426E-02   2.5878E-05  0.0688
   6.8426E-02   7.0090E-02   2.4650E-05  0.0694
   7.0090E-02   7.1796E-02   2.5052E-05  0.0682
   7.1796E-02   7.3543E-02   2.5415E-05  0.0669
   7.3543E-02   7.5332E-02   2.3038E-05  0.0694
   7.5332E-02   7.7165E-02   2.1131E-05  0.0716
   7.7165E-02   7.9042E-02   2.1179E-05  0.0705
   7.9042E-02   8.0965E-02   2.0347E-05  0.0713
   8.0965E-02   8.2935E-02   2.1739E-05  0.0682
   8.2935E-02   8.4953E-02   2.0861E-05  0.0688
   8.4953E-02   8.7020E-02   2.2189E-05  0.0659
   8.7020E-02   8.9138E-02   2.0255E-05  0.0681
   8.9138E-02   9.1306E-02   2.1257E-05  0.0658
   9.1306E-02   9.3528E-02   1.8859E-05  0.0689
   9.3528E-02   9.5804E-02   1.7503E-05  0.0706
   9.5804E-02   9.8134E-02   1.5705E-05  0.0738
   9.8134E-02   1.0052E-01   1.8579E-05  0.0670
   1.0052E-01   1.0297E-01   1.5932E-05  0.0714
   1.0297E-01   1.0547E-01   1.7704E-05  0.0670
   1.0547E-01   1.0804E-01   1.6803E-05  0.0679
   1.0804E-01   1.1067E-01   1.6862E-05  0.0670
   1.1067E-01   1.1336E-01   1.5842E-05  0.0684
   1.1336E-01   1.1612E-01   1.6687E-05  0.0658
   1.1612E-01   1.1894E-01   1.5466E-05  0.0674
   1.1894E-01   1.2184E-01   1.5968E-05  0.0656
   1.2184E-01   1.2480E-01   1.2805E-05  0.0723
   1.2480E-01   1.2784E-01   1.2551E-05  0.0722
   1.2784E-01   1.3095E-01   1.5006E-05  0.0653
   1.3095E-01   1.3414E-01   1.2971E-05  0.0695
   1.3414E-01   1.3740E-01   1.3586E-05  0.0669
   1.3740E-01   1.4074E-01   1.3034E-05  0.0675
   1.4074E-01   1.4417E-01   1.2312E-05  0.0686
   1.4417E-01   1.4767E-01   1.3065E-05  0.0659
   1.4767E-01   1.5127E-01   1.2118E-05  0.0676
   1.5127E-01   1.5495E-01   1.0511E-05  0.0716
   1.5495E-01   1.5872E-01   1.2310E-05  0.0655
   1.5872E-01   1.6258E-01   1.0812E-05  0.0690
   1.6258E-01   1.6654E-01   1.0719E-05  0.0685
   1.6654E-01   1.7059E-01   1.0785E-05  0.0676
   1.7059E-01   1.7474E-01   1.2048E-05  0.0632
   1.7474E-01   1.7899E-01   9.6633E-06  0.0695
   1.7899E-01   1.8334E-01   1.0161E-05  0.0671
   1.8334E-01   1.8781E-01   9.4000E-06  0.0688
   1.8781E-01   1.9237E-01   8.5684E-06  0.0711
   1.9237E-01   1.9706E-01   8.0191E-06  0.0726
   1.9706E-01   2.0185E-01   9.2882E-06  0.0668
   2.0185E-01   2.0676E-01   8.2641E-06  0.0701
   2.0676E-01   2.1179E-01   9.8214E-06  0.0635
   2.1179E-01   2.1694E-01   9.4065E-06  0.0640
   2.1694E-01   2.2222E-01   9.6046E-06  0.0626
   2.2222E-01   2.2763E-01   1.0177E-05  0.0601
   2.2763E-01   2.3317E-01   9.2206E-06  0.0624
   2.3317E-01   2.3884E-01   1.0843E-05  0.0568
   2.3884E-01   2.4465E-01   1.1113E-05  0.0555
   2.4465E-01   2.5061E-01   1.1260E-05  0.0545
   2.5061E-01   2.5670E-01   1.0873E-05  0.0547
   2.5670E-01   2.6295E-01   1.1158E-05  0.0534
   2.6295E-01   2.6935E-01   1.1113E-05  0.0529
   2.6935E-01   2.7590E-01   1.2102E-05  0.0501
   2.7590E-01   2.8261E-01   1.1223E-05  0.0513
   2.8261E-01   2.8949E-01   1.2581E-05  0.0479
   2.8949E-01   2.9653E-01   1.3151E-05  0.0463
   2.9653E-01   3.0375E-01   1.2099E-05  0.0477
   3.0375E-01   3.1114E-01   1.2359E-05  0.0467
   3.1114E-01   3.1871E-01   1.2157E-05  0.0464
   3.1871E-01   3.2646E-01   1.3676E-05  0.0433
   3.2646E-01   3.3441E-01   1.3408E-05  0.0432
   3.3441E-01   3.4254E-01   1.3552E-05  0.0425
   3.4254E-01   3.5088E-01   1.4018E-05  0.0412
   3.5088E-01   3.5941E-01   1.4104E-05  0.0406
   3.5941E-01   3.6816E-01   1.4148E-05  0.0400
   3.6816E-01   3.7712E-01   1.5444E-05  0.0379
   3.7712E-01   3.8629E-01   1.3919E-05  0.0394
   3.8629E-01   3.9569E-01   1.5002E-05  0.0375
   3.9569E-01   4.0532E-01   1.5795E-05  0.0361
   4.0532E-01   4.1518E-01   1.5678E-05  0.0358
   4.1518E-01   4.2528E-01   1.5807E-05  0.0353
   4.2528E-01   4.3563E-01   1.6776E-05  0.0338
   4.3563E-01   4.4623E-01   1.5414E-05  0.0348
   4.4623E-01   4.5708E-01   1.4902E-05  0.0349
   4.5708E-01   4.6821E-01   1.5938E-05  0.0334
   4.6821E-01   4.7960E-01   1.5332E-05  0.0337
   4.7960E-01   4.9127E-01   1.6487E-05  0.0321
   4.9127E-01   5.0322E-01   1.6365E-05  0.0318
   5.0322E-01   5.1546E-01   1.5700E-05  0.0321
   5.1546E-01   5.2800E-01   1.6075E-05  0.0313
   5.2800E-01   5.4085E-01   1.7347E-05  0.0298
   5.4085E-01   5.5401E-01   1.6189E-05  0.0305
   5.5401E-01   5.6749E-01   1.6785E-05  0.0296
   5.6749E-01   5.8130E-01   1.6164E-05  0.0298
   5.8130E-01   5.9544E-01   1.5955E-05  0.0296
   5.9544E-01   6.0993E-01   1.6023E-05  0.0292
   6.0993E-01   6.2477E-01   1.7172E-05  0.0279
   6.2477E-01   6.3997E-01   1.7120E-05  0.0275
   6.3997E-01   6.5554E-01   1.6599E-05  0.0277
   6.5554E-01   6.7149E-01   1.6848E-05  0.0271
   6.7149E-01   6.8783E-01   1.6077E-05  0.0274
   6.8783E-01   7.0456E-01   1.6477E-05  0.0267
   7.0456E-01   7.2171E-01   1.6548E-05  0.0264
   7.2171E-01   7.3927E-01   1.6414E-05  0.0262
   7.3927E-01   7.5725E-01   1.6434E-05  0.0258
   7.5725E-01   7.7568E-01   1.5599E-05  0.0262
   7.7568E-01   7.9455E-01   1.5120E-05  0.0263
   7.9455E-01   8.1388E-01   1.6068E-05  0.0252
   8.1388E-01   8.3368E-01   1.6640E-05  0.0245
   8.3368E-01   8.5397E-01   1.4999E-05  0.0254
   8.5397E-01   8.7475E-01   1.5307E-05  0.0249
   8.7475E-01   8.9603E-01   1.5543E-05  0.0244
   8.9603E-01   9.1783E-01   1.4810E-05  0.0247
   9.1783E-01   9.4016E-01   1.4857E-05  0.0244
   9.4016E-01   9.6304E-01   1.4477E-05  0.0243
   9.6304E-01   9.8647E-01   1.4153E-05  0.0244
   9.8647E-01   1.0105E+00   1.5002E-05  0.0234
   1.0105E+00   1.0351E+00   1.4136E-05  0.0238
   1.0351E+00   1.0602E+00   1.4017E-05  0.0236
   1.0602E+00   1.0860E+00   1.3873E-05  0.0234
   1.0860E+00   1.1125E+00   1.3601E-05  0.0234
   1.1125E+00   1.1395E+00   1.3265E-05  0.0234
   1.1395E+00   1.1673E+00   1.3673E-05  0.0228
   1.1673E+00   1.1957E+00   1.3626E-05  0.0226
   1.1957E+00   1.2247E+00   1.3214E-05  0.0226
   1.2247E+00   1.2545E+00   1.3236E-05  0.0223
   1.2545E+00   1.2851E+00   1.3092E-05  0.0222
   1.2851E+00   1.3163E+00   1.2693E-05  0.0223
   1.3163E+00   1.3484E+00   1.2824E-05  0.0219
   1.3484E+00   1.3812E+00   1.2102E-05  0.0222
   1.3812E+00   1.4148E+00   1.2166E-05  0.0219
   1.4148E+00   1.4492E+00   1.2082E-05  0.0217
   1.4492E+00   1.4845E+00   1.2118E-05  0.0214
   1.4845E+00   1.5206E+00   1.1888E-05  0.0214
   1.5206E+00   1.5576E+00   1.1848E-05  0.0211
   1.5576E+00   1.5955E+00   1.1667E-05  0.0211
   1.5955E+00   1.6343E+00   1.1519E-05  0.0209
   1.6343E+00   1.6741E+00   1.1201E-05  0.0210
   1.6741E+00   1.7148E+00   1.1421E-05  0.0205
   1.7148E+00   1.7565E+00   1.1207E-05  0.0205
   1.7565E+00   1.7992E+00   1.1123E-05  0.0203
   1.7992E+00   1.8430E+00   1.0928E-05  0.0202
   1.8430E+00   1.8879E+00   1.0646E-05  0.0203
   1.8879E+00   1.9338E+00   1.0833E-05  0.0198
   1.9338E+00   1.9808E+00   1.0839E-05  0.0196
   1.9808E+00   2.0290E+00   1.0471E-05  0.0197
   2.0290E+00   2.0784E+00   1.0532E-05  0.0194
   2.0784E+00   2.1290E+00   1.0348E-05  0.0194
   2.1290E+00   2.1808E+00   1.0531E-05  0.0190
   2.1808E+00   2.2338E+00   1.0096E-05  0.0191
   2.2338E+00   2.2882E+00   1.0175E-05  0.0188
   2.2882E+00   2.3439E+00   9.8446E-06  0.0189
   2.3439E+00   2.4009E+00   9.8794E-06  0.0187
   2.4009E+00   2.4593E+00   9.8289E-06  0.0185
   2.4593E+00   2.5191E+00   9.3793E-06  0.0187
   2.5191E+00   2.5804E+00   9.2784E-06  0.0186
   2.5804E+00   2.6432E+00   9.1821E-06  0.0185
   2.6432E+00   2.7075E+00   9.0210E-06  0.0184
   2.7075E+00   2.7734E+00   9.0736E-06  0.0182
   2.7734E+00   2.8409E+00   8.9854E-06  0.0180
   2.8409E+00   2.9100E+00   8.2700E-06  0.0186
   2.9100E+00   2.9808E+00   7.7672E-06  0.0189
   2.9808E+00   3.0533E+00   7.3492E-06  0.0192
   3.0533E+00   3.1276E+00   7.1876E-06  0.0192
   3.1276E+00   3.2037E+00   6.7342E-06  0.0196
   3.2037E+00   3.2817E+00   6.6696E-06  0.0195
   3.2817E+00   3.3615E+00   6.7624E-06  0.0191
   3.3615E+00   3.4433E+00   6.2764E-06  0.0196
   3.4433E+00   3.5271E+00   6.2622E-06  0.0194
   3.5271E+00   3.6129E+00   6.2025E-06  0.0192
   3.6129E+00   3.7008E+00   6.0292E-06  0.0193
   3.7008E+00   3.7908E+00   5.7649E-06  0.0195
   3.7908E+00   3.8831E+00   5.6610E-06  0.0194
   3.8831E+00   3.9776E+00   5.8681E-06  0.0189
   3.9776E+00   4.0743E+00   5.5421E-06  0.0192
   4.0743E+00   4.1735E+00   5.3761E-06  0.0192
   4.1735E+00   4.2750E+00   5.3020E-06  0.0191
   4.2750E+00   4.3790E+00   5.1857E-06  0.0191
   4.3790E+00   4.4856E+00   5.0963E-06  0.0191
   4.4856E+00   4.5947E+00   5.1303E-06  0.0188
   4.5947E+00   4.7065E+00   4.7388E-06  0.0193
   4.7065E+00   4.8210E+00   4.5655E-06  0.0195
   4.8210E+00   4.9383E+00   4.5254E-06  0.0193
   4.9383E+00   5.0585E+00   4.3823E-06  0.0194
   5.0585E+00   5.1815E+00   4.2325E-06  0.0195
   5.1815E+00   5.3076E+00   4.1276E-06  0.0195
   5.3076E+00   5.4368E+00   4.0594E-06  0.0194
   5.4368E+00   5.5690E+00   3.7929E-06  0.0199
   5.5690E+00   5.7045E+00   3.8108E-06  0.0196
   5.7045E+00   5.8433E+00   3.7451E-06  0.0195
   5.8433E+00   5.9855E+00   3.6007E-06  0.0197
   5.9855E+00   6.1311E+00   3.5304E-06  0.0197
   6.1311E+00   6.2803E+00   3.2928E-06  0.0201
   6.2803E+00   6.4331E+00   3.4642E-06  0.0194
   6.4331E+00   6.5896E+00   3.3992E-06  0.0193
   6.5896E+00   6.7500E+00   3.2670E-06  0.0195
   6.7500E+00   6.9142E+00   3.1202E-06  0.0197
   6.9142E+00   7.0824E+00   3.0362E-06  0.0197
   7.0824E+00   7.2548E+00   2.8714E-06  0.0201
   7.2548E+00   7.4313E+00   2.7906E-06  0.0201
   7.4313E+00   7.6121E+00   2.6862E-06  0.0202
   7.6121E+00   7.7973E+00   2.6957E-06  0.0200
   7.7973E+00   7.9870E+00   2.5572E-06  0.0203
   7.9870E+00   8.1813E+00   2.5089E-06  0.0202
   8.1813E+00   8.3804E+00   2.4151E-06  0.0204
   8.3804E+00   8.5843E+00   2.3582E-06  0.0204
   8.5843E+00   8.7931E+00   2.3174E-06  0.0203
   8.7931E+00   9.0071E+00   2.2068E-06  0.0206
   9.0071E+00   9.2262E+00   2.1260E-06  0.0207
   9.2262E+00   9.4507E+00   2.1018E-06  0.0206
   9.4507E+00   9.6807E+00   1.9042E-06  0.0213
   9.6807E+00   9.9162E+00   1.9083E-06  0.0211
   9.9162E+00   1.0157E+01   1.8405E-06  0.0212
   1.0157E+01   1.0405E+01   1.9155E-06  0.0205
   1.0405E+01   1.0658E+01   2.0654E-06  0.0195
   1.0658E+01   1.0917E+01   2.0465E-06  0.0194
   1.0917E+01   1.1183E+01   1.9144E-06  0.0198
   1.1183E+01   1.1455E+01   1.8233E-06  0.0200
   1.1455E+01   1.1733E+01   1.7018E-06  0.0205
   1.1733E+01   1.2019E+01   1.6387E-06  0.0207
   1.2019E+01   1.2311E+01   1.4712E-06  0.0215
   1.2311E+01   1.2611E+01   1.3712E-06  0.0220
   1.2611E+01   1.2918E+01   1.2922E-06  0.0224
   1.2918E+01   1.3232E+01   1.3011E-06  0.0221
   1.3232E+01   1.3554E+01   1.2442E-06  0.0223
   1.3554E+01   1.3884E+01   1.2184E-06  0.0223
   1.3884E+01   1.4222E+01   1.1079E-06  0.0231
   1.4222E+01   1.4568E+01   9.6463E-07  0.0245
   1.4568E+01   1.4922E+01   9.6361E-07  0.0242
   1.4922E+01   1.5285E+01   8.4709E-07  0.0255
   1.5285E+01   1.5657E+01   8.4414E-07  0.0252
   1.5657E+01   1.6038E+01   7.6361E-07  0.0262
   1.6038E+01   1.6428E+01   7.1580E-07  0.0267
   1.6428E+01   1.6828E+01   6.4123E-07  0.0279
   1.6828E+01   1.7237E+01   6.3906E-07  0.0276
   1.7237E+01   1.7657E+01   6.1430E-07  0.0279
   1.7657E+01   1.8086E+01   5.6246E-07  0.0288
   1.8086E+01   1.8526E+01   5.2736E-07  0.0294
   1.8526E+01   1.8977E+01   4.7904E-07  0.0304
   1.8977E+01   1.9439E+01   4.7468E-07  0.0302
   1.9439E+01   1.9912E+01   4.3851E-07  0.0311
   1.9912E+01   2.0396E+01   3.9837E-07  0.0322
   2.0396E+01   2.0893E+01   3.6836E-07  0.0331
   2.0893E+01   2.1401E+01   3.2892E-07  0.0346
   2.1401E+01   2.1922E+01   2.8846E-07  0.0365
   2.1922E+01   2.2455E+01   2.5611E-07  0.0383
   2.2455E+01   2.3001E+01   2.4819E-07  0.0384
   2.3001E+01   2.3561E+01   1.9906E-07  0.0424
   2.3561E+01   2.4134E+01   1.7235E-07  0.0450
   2.4134E+01   2.4721E+01   1.4271E-07  0.0489
   2.4721E+01   2.5323E+01   1.2436E-07  0.0517
   2.5323E+01   2.5939E+01   1.0355E-07  0.0560
   2.5939E+01   2.6570E+01   7.1619E-08  0.0665
   2.6570E+01   2.7217E+01   5.8162E-08  0.0729
   2.7217E+01   2.7879E+01   4.1981E-08  0.0848
   2.7879E+01   2.8557E+01   3.3318E-08  0.0941
   2.8557E+01   2.9252E+01   2.0149E-08  0.1195
   2.9252E+01   2.9964E+01   1.8265E-08  0.1240
   2.9964E+01   3.0693E+01   1.3168E-08  0.1443
   3.0693E+01   3.1440E+01   8.0345E-09  0.1826
   3.1440E+01   3.2205E+01   4.9676E-09  0.2294
   3.2205E+01   3.2988E+01   1.2762E-09  0.4472
   3.2988E+01   3.3791E+01   2.4918E-10  1.0000
   3.3791E+01   3.4613E+01   0.0000E+00  0.0000
   3.4613E+01   3.5455E+01   0.0000E+00  0.0000
   3.5455E+01   3.6318E+01   0.0000E+00  0.0000
   3.6318E+01   3.7201E+01   0.0000E+00  0.0000
   3.7201E+01   3.8106E+01   0.0000E+00  0.0000
   3.8106E+01   3.9034E+01   0.0000E+00  0.0000
   3.9034E+01   3.9983E+01   0.0000E+00  0.0000
   3.9983E+01   4.0956E+01   0.0000E+00  0.0000
   4.0956E+01   4.1953E+01   0.0000E+00  0.0000
   4.1953E+01   4.2973E+01   0.0000E+00  0.0000
   4.2973E+01   4.4019E+01   0.0000E+00  0.0000
   4.4019E+01   4.5090E+01   0.0000E+00  0.0000
   4.5090E+01   4.6187E+01   0.0000E+00  0.0000
   4.6187E+01   4.7311E+01   0.0000E+00  0.0000
   4.7311E+01   4.8462E+01   0.0000E+00  0.0000
   4.8462E+01   4.9641E+01   0.0000E+00  0.0000
   4.9641E+01   5.0849E+01   0.0000E+00  0.0000
   5.0849E+01   5.2086E+01   0.0000E+00  0.0000
   5.2086E+01   5.3353E+01   0.0000E+00  0.0000
   5.3353E+01   5.4651E+01   0.0000E+00  0.0000
   5.4651E+01   5.5981E+01   0.0000E+00  0.0000
   5.5981E+01   5.7343E+01   0.0000E+00  0.0000
   5.7343E+01   5.8738E+01   0.0000E+00  0.0000
   5.8738E+01   6.0168E+01   0.0000E+00  0.0000
   6.0168E+01   6.1632E+01   0.0000E+00  0.0000
   6.1632E+01   6.3131E+01   0.0000E+00  0.0000
   6.3131E+01   6.4667E+01   0.0000E+00  0.0000
   6.4667E+01   6.6240E+01   0.0000E+00  0.0000
   6.6240E+01   6.7852E+01   0.0000E+00  0.0000
   6.7852E+01   6.9503E+01   0.0000E+00  0.0000
   6.9503E+01   7.1194E+01   0.0000E+00  0.0000
   7.1194E+01   7.2926E+01   0.0000E+00  0.0000
   7.2926E+01   7.4701E+01   0.0000E+00  0.0000
   7.4701E+01   7.6518E+01   0.0000E+00  0.0000
   7.6518E+01   7.8380E+01   0.0000E+00  0.0000
   7.8380E+01   8.0287E+01   0.0000E+00  0.0000
   8.0287E+01   8.2240E+01   0.0000E+00  0.0000
   8.2240E+01   8.4241E+01   0.0000E+00  0.0000
   8.4241E+01   8.6291E+01   0.0000E+00  0.0000
   8.6291E+01   8.8391E+01   0.0000E+00  0.0000
   8.8391E+01   9.0541E+01   0.0000E+00  0.0000
   9.0541E+01   9.2744E+01   0.0000E+00  0.0000
   9.2744E+01   9.5001E+01   0.0000E+00  0.0000
   9.5001E+01   9.7312E+01   0.0000E+00  0.0000
   9.7312E+01   9.9680E+01   0.0000E+00  0.0000
   9.9680E+01   1.0211E+02   0.0000E+00  0.0000
   1.0211E+02   1.0459E+02   0.0000E+00  0.0000
   1.0459E+02   1.0713E+02   0.0000E+00  0.0000
   1.0713E+02   1.0974E+02   0.0000E+00  0.0000
   1.0974E+02   1.1241E+02   0.0000E+00  0.0000
   1.1241E+02   1.1515E+02   0.0000E+00  0.0000
   1.1515E+02   1.1795E+02   0.0000E+00  0.0000
   1.1795E+02   1.2082E+02   0.0000E+00  0.0000
   1.2082E+02   1.2376E+02   0.0000E+00  0.0000
   1.2376E+02   1.2677E+02   0.0000E+00  0.0000
   1.2677E+02   1.2985E+02   0.0000E+00  0.0000
   1.2985E+02   1.3301E+02   0.0000E+00  0.0000
   1.3301E+02   1.3625E+02   0.0000E+00  0.0000
   1.3625E+02   1.3956E+02   0.0000E+00  0.0000
   1.3956E+02   1.4296E+02   0.0000E+00  0.0000
   1.4296E+02   1.4644E+02   0.0000E+00  0.0000
   1.4644E+02   1.5000E+02   0.0000E+00  0.0000

#   sum over                 5.0619E-07
'no. =    1   reg = 126 - 226'
msuc: {\huge [t-cross] in region mesh}
msdr: {\it plotted by \ANGEL \version}
msdl: {\it calculated by \PHITS  3.28}
wt: s(0.7)
\vspace{-3}
  region surface crossing
  area  &=&   1.0000E+00 [cm^2]
e:
 
# Information for Restart Calculation
# This calculation was newly started
# istdev =  2 # 1:Batch variance, 2:History variance
# resc2  = 5.00000000000000000E+09 # Total source weight or Total source weight / maxcas
# resc3  = 5.00000000000000000E+09 # Total history number or Total batch number
# maxcas =   500000000 # History / Batch, only used for istdev=1
# bitrseed = 0001101011110000011001100100101010101011111110100001111101011101 # bit data of rseed
