[ T-Cross ]
    title = [t-cross] in region mesh
     mesh =  reg            # mesh type is region-wise
      reg =    1            # number of crossing regions
      non     r-from    r-to       area
      1       125       225        1.000000    
   e-type =    3            # e-mesh is log given by emin, emax and ne
     emin =  1.0000000E-02  # minimum value of e-mesh points
     emax =   150.0000      # maximum value of e-mesh points
#    edel =  2.4039514E-02  # mesh width of e-mesh points
       ne =    400          # number of e-mesh points
#    data = ( e(i), i = 1, ne + 1 )
#           1.00000E-02  1.02433E-02  1.04925E-02  1.07478E-02  1.10093E-02
#           1.12772E-02  1.15516E-02  1.18326E-02  1.21205E-02  1.24154E-02
#           1.27175E-02  1.30269E-02  1.33439E-02  1.36686E-02  1.40011E-02
#           1.43418E-02  1.46907E-02  1.50482E-02  1.54143E-02  1.57894E-02
#           1.61735E-02  1.65670E-02  1.69701E-02  1.73830E-02  1.78060E-02
#           1.82392E-02  1.86830E-02  1.91375E-02  1.96032E-02  2.00801E-02
#           2.05687E-02  2.10692E-02  2.15818E-02  2.21069E-02  2.26448E-02
#           2.31957E-02  2.37601E-02  2.43382E-02  2.49304E-02  2.55369E-02
#           2.61583E-02  2.67947E-02  2.74467E-02  2.81145E-02  2.87985E-02
#           2.94992E-02  3.02169E-02  3.09521E-02  3.17052E-02  3.24766E-02
#           3.32668E-02  3.40762E-02  3.49053E-02  3.57546E-02  3.66246E-02
#           3.75157E-02  3.84284E-02  3.93634E-02  4.03212E-02  4.13022E-02
#           4.23071E-02  4.33365E-02  4.43909E-02  4.54710E-02  4.65773E-02
#           4.77106E-02  4.88714E-02  5.00605E-02  5.12785E-02  5.25262E-02
#           5.38042E-02  5.51133E-02  5.64542E-02  5.78278E-02  5.92348E-02
#           6.06760E-02  6.21523E-02  6.36645E-02  6.52135E-02  6.68002E-02
#           6.84255E-02  7.00904E-02  7.17957E-02  7.35426E-02  7.53319E-02
#           7.71648E-02  7.90423E-02  8.09655E-02  8.29354E-02  8.49533E-02
#           8.70203E-02  8.91376E-02  9.13064E-02  9.35279E-02  9.58035E-02
#           9.81345E-02  1.00522E-01  1.02968E-01  1.05473E-01  1.08040E-01
#           1.10668E-01  1.13361E-01  1.16119E-01  1.18944E-01  1.21838E-01
#           1.24803E-01  1.27839E-01  1.30950E-01  1.34136E-01  1.37399E-01
#           1.40742E-01  1.44167E-01  1.47675E-01  1.51268E-01  1.54948E-01
#           1.58718E-01  1.62580E-01  1.66535E-01  1.70587E-01  1.74738E-01
#           1.78989E-01  1.83344E-01  1.87805E-01  1.92375E-01  1.97055E-01
#           2.01850E-01  2.06761E-01  2.11792E-01  2.16945E-01  2.22223E-01
#           2.27630E-01  2.33169E-01  2.38842E-01  2.44653E-01  2.50605E-01
#           2.56703E-01  2.62949E-01  2.69346E-01  2.75900E-01  2.82613E-01
#           2.89489E-01  2.96532E-01  3.03747E-01  3.11138E-01  3.18708E-01
#           3.26462E-01  3.34405E-01  3.42542E-01  3.50876E-01  3.59413E-01
#           3.68158E-01  3.77116E-01  3.86291E-01  3.95690E-01  4.05317E-01
#           4.15179E-01  4.25281E-01  4.35628E-01  4.46227E-01  4.57084E-01
#           4.68205E-01  4.79597E-01  4.91266E-01  5.03219E-01  5.15463E-01
#           5.28005E-01  5.40851E-01  5.54011E-01  5.67490E-01  5.81298E-01
#           5.95441E-01  6.09929E-01  6.24769E-01  6.39970E-01  6.55541E-01
#           6.71491E-01  6.87828E-01  7.04564E-01  7.21706E-01  7.39266E-01
#           7.57253E-01  7.75678E-01  7.94551E-01  8.13883E-01  8.33685E-01
#           8.53969E-01  8.74747E-01  8.96030E-01  9.17831E-01  9.40163E-01
#           9.63038E-01  9.86469E-01  1.01047E+00  1.03506E+00  1.06024E+00
#           1.08604E+00  1.11246E+00  1.13953E+00  1.16725E+00  1.19565E+00
#           1.22474E+00  1.25454E+00  1.28507E+00  1.31633E+00  1.34836E+00
#           1.38117E+00  1.41477E+00  1.44920E+00  1.48446E+00  1.52057E+00
#           1.55757E+00  1.59547E+00  1.63429E+00  1.67405E+00  1.71478E+00
#           1.75650E+00  1.79924E+00  1.84302E+00  1.88786E+00  1.93379E+00
#           1.98084E+00  2.02904E+00  2.07841E+00  2.12898E+00  2.18078E+00
#           2.23384E+00  2.28819E+00  2.34386E+00  2.40089E+00  2.45930E+00
#           2.51914E+00  2.58043E+00  2.64322E+00  2.70753E+00  2.77341E+00
#           2.84088E+00  2.91001E+00  2.98081E+00  3.05333E+00  3.12762E+00
#           3.20372E+00  3.28167E+00  3.36152E+00  3.44330E+00  3.52708E+00
#           3.61290E+00  3.70080E+00  3.79085E+00  3.88308E+00  3.97756E+00
#           4.07434E+00  4.17347E+00  4.27501E+00  4.37903E+00  4.48557E+00
#           4.59471E+00  4.70650E+00  4.82102E+00  4.93832E+00  5.05847E+00
#           5.18155E+00  5.30762E+00  5.43676E+00  5.56904E+00  5.70453E+00
#           5.84333E+00  5.98550E+00  6.13114E+00  6.28031E+00  6.43312E+00
#           6.58964E+00  6.74997E+00  6.91420E+00  7.08243E+00  7.25475E+00
#           7.43126E+00  7.61207E+00  7.79728E+00  7.98700E+00  8.18133E+00
#           8.38038E+00  8.58428E+00  8.79315E+00  9.00709E+00  9.22624E+00
#           9.45072E+00  9.68067E+00  9.91620E+00  1.01575E+01  1.04046E+01
#           1.06578E+01  1.09171E+01  1.11827E+01  1.14548E+01  1.17335E+01
#           1.20190E+01  1.23114E+01  1.26109E+01  1.29178E+01  1.32321E+01
#           1.35540E+01  1.38838E+01  1.42216E+01  1.45676E+01  1.49221E+01
#           1.52851E+01  1.56570E+01  1.60380E+01  1.64282E+01  1.68279E+01
#           1.72374E+01  1.76568E+01  1.80864E+01  1.85264E+01  1.89772E+01
#           1.94389E+01  1.99119E+01  2.03963E+01  2.08926E+01  2.14009E+01
#           2.19216E+01  2.24550E+01  2.30014E+01  2.35610E+01  2.41343E+01
#           2.47215E+01  2.53230E+01  2.59391E+01  2.65702E+01  2.72167E+01
#           2.78789E+01  2.85572E+01  2.92520E+01  2.99637E+01  3.06928E+01
#           3.14396E+01  3.22045E+01  3.29881E+01  3.37907E+01  3.46128E+01
#           3.54550E+01  3.63177E+01  3.72013E+01  3.81064E+01  3.90336E+01
#           3.99833E+01  4.09561E+01  4.19526E+01  4.29734E+01  4.40189E+01
#           4.50900E+01  4.61870E+01  4.73108E+01  4.84619E+01  4.96410E+01
#           5.08488E+01  5.20860E+01  5.33533E+01  5.46514E+01  5.59812E+01
#           5.73432E+01  5.87384E+01  6.01676E+01  6.16315E+01  6.31311E+01
#           6.46671E+01  6.62405E+01  6.78522E+01  6.95031E+01  7.11941E+01
#           7.29263E+01  7.47007E+01  7.65182E+01  7.83800E+01  8.02870E+01
#           8.22405E+01  8.42414E+01  8.62911E+01  8.83906E+01  9.05412E+01
#           9.27442E+01  9.50007E+01  9.73122E+01  9.96799E+01  1.02105E+02
#           1.04589E+02  1.07134E+02  1.09741E+02  1.12411E+02  1.15146E+02
#           1.17948E+02  1.20817E+02  1.23757E+02  1.26768E+02  1.29852E+02
#           1.33012E+02  1.36248E+02  1.39563E+02  1.42959E+02  1.46437E+02
#           1.50000E+02
     unit =    2            # unit is [1/cm^2/(MeV/n)/source]
     axis =  eng            # axis of output
     file = detector-26.out  # file name of output for the above axis
   output = f-curr          # surface crossing forward current spectrum
     part =  neutron  
# kf/name :  2112     
#    used :        main (  %)        temp (  %)       total (  %)
#  memory :         414 (  0)           0 (  0)         414 (  0)

#------------------------------------------------------------------------------
#newpage:
#   no. =    1   reg = 125 - 225

x: Energy [MeV/n]
y:  F-Curr [1/cm^2/(MeV/n)/source]         
p: xlog ylog afac(0.8) form(0.9)
h: n            x            y(neutron ),hh0l   n 
#  e-lower      e-upper      neutron     r.err 
   1.0000E-02   1.0243E-02   6.0253E-04  0.0369
   1.0243E-02   1.0493E-02   6.1229E-04  0.0362
   1.0493E-02   1.0748E-02   6.2464E-04  0.0354
   1.0748E-02   1.1009E-02   5.8661E-04  0.0361
   1.1009E-02   1.1277E-02   5.9228E-04  0.0355
   1.1277E-02   1.1552E-02   6.1023E-04  0.0345
   1.1552E-02   1.1833E-02   5.9574E-04  0.0346
   1.1833E-02   1.2121E-02   6.4304E-04  0.0329
   1.2121E-02   1.2415E-02   6.0783E-04  0.0334
   1.2415E-02   1.2718E-02   5.8872E-04  0.0335
   1.2718E-02   1.3027E-02   5.8948E-04  0.0331
   1.3027E-02   1.3344E-02   6.2163E-04  0.0319
   1.3344E-02   1.3669E-02   5.9199E-04  0.0323
   1.3669E-02   1.4001E-02   5.7492E-04  0.0323
   1.4001E-02   1.4342E-02   5.9884E-04  0.0313
   1.4342E-02   1.4691E-02   5.6766E-04  0.0318
   1.4691E-02   1.5048E-02   6.1687E-04  0.0301
   1.5048E-02   1.5414E-02   5.6810E-04  0.0310
   1.5414E-02   1.5789E-02   5.6580E-04  0.0307
   1.5789E-02   1.6174E-02   5.9938E-04  0.0295
   1.6174E-02   1.6567E-02   5.9393E-04  0.0292
   1.6567E-02   1.6970E-02   5.9349E-04  0.0289
   1.6970E-02   1.7383E-02   5.7545E-04  0.0290
   1.7383E-02   1.7806E-02   5.8756E-04  0.0284
   1.7806E-02   1.8239E-02   5.6664E-04  0.0285
   1.8239E-02   1.8683E-02   5.8775E-04  0.0277
   1.8683E-02   1.9138E-02   6.1332E-04  0.0268
   1.9138E-02   1.9603E-02   5.9470E-04  0.0269
   1.9603E-02   2.0080E-02   6.1347E-04  0.0261
   2.0080E-02   2.0569E-02   6.0639E-04  0.0260
   2.0569E-02   2.1069E-02   5.9346E-04  0.0259
   2.1069E-02   2.1582E-02   5.9614E-04  0.0256
   2.1582E-02   2.2107E-02   6.1639E-04  0.0249
   2.2107E-02   2.2645E-02   5.9010E-04  0.0251
   2.2645E-02   2.3196E-02   6.1681E-04  0.0243
   2.3196E-02   2.3760E-02   5.9470E-04  0.0244
   2.3760E-02   2.4338E-02   5.9955E-04  0.0240
   2.4338E-02   2.4930E-02   6.0629E-04  0.0236
   2.4930E-02   2.5537E-02   5.9086E-04  0.0236
   2.5537E-02   2.6158E-02   5.7843E-04  0.0236
   2.6158E-02   2.6795E-02   5.9714E-04  0.0229
   2.6795E-02   2.7447E-02   5.8340E-04  0.0229
   2.7447E-02   2.8114E-02   5.8978E-04  0.0225
   2.8114E-02   2.8799E-02   6.1757E-04  0.0218
   2.8799E-02   2.9499E-02   5.7697E-04  0.0222
   2.9499E-02   3.0217E-02   5.8322E-04  0.0219
   3.0217E-02   3.0952E-02   5.8678E-04  0.0215
   3.0952E-02   3.1705E-02   5.9137E-04  0.0212
   3.1705E-02   3.2477E-02   5.7962E-04  0.0211
   3.2477E-02   3.3267E-02   5.8999E-04  0.0207
   3.3267E-02   3.4076E-02   5.7972E-04  0.0206
   3.4076E-02   3.4905E-02   5.9197E-04  0.0202
   3.4905E-02   3.5755E-02   5.8709E-04  0.0200
   3.5755E-02   3.6625E-02   5.9620E-04  0.0196
   3.6625E-02   3.7516E-02   5.8644E-04  0.0196
   3.7516E-02   3.8428E-02   5.9488E-04  0.0192
   3.8428E-02   3.9363E-02   5.7758E-04  0.0192
   3.9363E-02   4.0321E-02   5.7689E-04  0.0190
   4.0321E-02   4.1302E-02   5.8631E-04  0.0186
   4.1302E-02   4.2307E-02   5.8610E-04  0.0184
   4.2307E-02   4.3337E-02   5.7634E-04  0.0184
   4.3337E-02   4.4391E-02   5.9373E-04  0.0179
   4.4391E-02   4.5471E-02   5.8589E-04  0.0178
   4.5471E-02   4.6577E-02   5.7808E-04  0.0177
   4.6577E-02   4.7711E-02   5.9227E-04  0.0173
   4.7711E-02   4.8871E-02   5.8385E-04  0.0172
   4.8871E-02   5.0061E-02   5.7725E-04  0.0171
   5.0061E-02   5.1279E-02   5.6300E-04  0.0171
   5.1279E-02   5.2526E-02   5.7422E-04  0.0167
   5.2526E-02   5.3804E-02   5.7855E-04  0.0164
   5.3804E-02   5.5113E-02   6.0477E-04  0.0159
   5.5113E-02   5.6454E-02   5.6660E-04  0.0162
   5.6454E-02   5.7828E-02   5.6835E-04  0.0160
   5.7828E-02   5.9235E-02   5.9245E-04  0.0155
   5.9235E-02   6.0676E-02   5.7536E-04  0.0155
   6.0676E-02   6.2152E-02   5.8163E-04  0.0153
   6.2152E-02   6.3665E-02   5.8512E-04  0.0150
   6.3665E-02   6.5214E-02   5.6738E-04  0.0151
   6.5214E-02   6.6800E-02   5.6457E-04  0.0149
   6.6800E-02   6.8426E-02   5.6627E-04  0.0147
   6.8426E-02   7.0090E-02   5.7773E-04  0.0144
   7.0090E-02   7.1796E-02   5.7380E-04  0.0143
   7.1796E-02   7.3543E-02   5.6289E-04  0.0143
   7.3543E-02   7.5332E-02   5.8158E-04  0.0139
   7.5332E-02   7.7165E-02   5.7681E-04  0.0138
   7.7165E-02   7.9042E-02   5.6151E-04  0.0138
   7.9042E-02   8.0965E-02   5.6521E-04  0.0136
   8.0965E-02   8.2935E-02   5.7445E-04  0.0133
   8.2935E-02   8.4953E-02   5.7029E-04  0.0132
   8.4953E-02   8.7020E-02   5.7037E-04  0.0130
   8.7020E-02   8.9138E-02   5.5093E-04  0.0131
   8.9138E-02   9.1306E-02   5.6353E-04  0.0128
   9.1306E-02   9.3528E-02   5.5232E-04  0.0128
   9.3528E-02   9.5804E-02   5.6099E-04  0.0125
   9.5804E-02   9.8134E-02   5.5553E-04  0.0124
   9.8134E-02   1.0052E-01   5.4423E-04  0.0124
   1.0052E-01   1.0297E-01   5.4751E-04  0.0122
   1.0297E-01   1.0547E-01   5.4912E-04  0.0121
   1.0547E-01   1.0804E-01   5.4794E-04  0.0119
   1.0804E-01   1.1067E-01   5.5465E-04  0.0117
   1.1067E-01   1.1336E-01   5.4332E-04  0.0117
   1.1336E-01   1.1612E-01   5.4390E-04  0.0115
   1.1612E-01   1.1894E-01   5.4449E-04  0.0114
   1.1894E-01   1.2184E-01   5.3131E-04  0.0114
   1.2184E-01   1.2480E-01   5.3792E-04  0.0112
   1.2480E-01   1.2784E-01   5.4008E-04  0.0110
   1.2784E-01   1.3095E-01   5.2667E-04  0.0110
   1.3095E-01   1.3414E-01   5.2459E-04  0.0109
   1.3414E-01   1.3740E-01   5.3013E-04  0.0108
   1.3740E-01   1.4074E-01   5.1876E-04  0.0107
   1.4074E-01   1.4417E-01   5.2757E-04  0.0105
   1.4417E-01   1.4767E-01   5.2309E-04  0.0104
   1.4767E-01   1.5127E-01   5.2863E-04  0.0103
   1.5127E-01   1.5495E-01   5.2307E-04  0.0102
   1.5495E-01   1.5872E-01   5.1314E-04  0.0102
   1.5872E-01   1.6258E-01   5.1923E-04  0.0100
   1.6258E-01   1.6654E-01   5.0992E-04  0.0100
   1.6654E-01   1.7059E-01   5.1441E-04  0.0098
   1.7059E-01   1.7474E-01   5.0150E-04  0.0098
   1.7474E-01   1.7899E-01   5.0888E-04  0.0096
   1.7899E-01   1.8334E-01   5.0797E-04  0.0095
   1.8334E-01   1.8781E-01   4.9353E-04  0.0095
   1.8781E-01   1.9237E-01   4.9804E-04  0.0094
   1.9237E-01   1.9706E-01   4.8340E-04  0.0094
   1.9706E-01   2.0185E-01   4.9355E-04  0.0092
   2.0185E-01   2.0676E-01   4.8340E-04  0.0092
   2.0676E-01   2.1179E-01   4.8091E-04  0.0091
   2.1179E-01   2.1694E-01   4.7820E-04  0.0090
   2.1694E-01   2.2222E-01   4.7746E-04  0.0089
   2.2222E-01   2.2763E-01   4.7466E-04  0.0088
   2.2763E-01   2.3317E-01   4.7458E-04  0.0087
   2.3317E-01   2.3884E-01   4.6857E-04  0.0087
   2.3884E-01   2.4465E-01   4.5670E-04  0.0087
   2.4465E-01   2.5061E-01   4.6052E-04  0.0085
   2.5061E-01   2.5670E-01   4.6216E-04  0.0084
   2.5670E-01   2.6295E-01   4.5252E-04  0.0084
   2.6295E-01   2.6935E-01   4.5012E-04  0.0083
   2.6935E-01   2.7590E-01   4.4577E-04  0.0083
   2.7590E-01   2.8261E-01   4.4494E-04  0.0082
   2.8261E-01   2.8949E-01   4.3695E-04  0.0082
   2.8949E-01   2.9653E-01   4.3309E-04  0.0081
   2.9653E-01   3.0375E-01   4.2918E-04  0.0080
   3.0375E-01   3.1114E-01   4.2879E-04  0.0079
   3.1114E-01   3.1871E-01   4.2209E-04  0.0079
   3.1871E-01   3.2646E-01   4.1757E-04  0.0079
   3.2646E-01   3.3441E-01   4.1236E-04  0.0078
   3.3441E-01   3.4254E-01   4.0759E-04  0.0078
   3.4254E-01   3.5088E-01   4.0741E-04  0.0077
   3.5088E-01   3.5941E-01   4.0413E-04  0.0076
   3.5941E-01   3.6816E-01   3.9571E-04  0.0076
   3.6816E-01   3.7712E-01   3.8789E-04  0.0076
   3.7712E-01   3.8629E-01   3.9004E-04  0.0075
   3.8629E-01   3.9569E-01   3.8400E-04  0.0074
   3.9569E-01   4.0532E-01   3.8071E-04  0.0074
   4.0532E-01   4.1518E-01   3.7334E-04  0.0074
   4.1518E-01   4.2528E-01   3.6488E-04  0.0074
   4.2528E-01   4.3563E-01   3.6243E-04  0.0073
   4.3563E-01   4.4623E-01   3.5949E-04  0.0072
   4.4623E-01   4.5708E-01   3.4875E-04  0.0073
   4.5708E-01   4.6821E-01   3.4856E-04  0.0072
   4.6821E-01   4.7960E-01   3.4177E-04  0.0072
   4.7960E-01   4.9127E-01   3.3568E-04  0.0071
   4.9127E-01   5.0322E-01   3.3350E-04  0.0071
   5.0322E-01   5.1546E-01   3.2127E-04  0.0071
   5.1546E-01   5.2800E-01   3.2069E-04  0.0071
   5.2800E-01   5.4085E-01   3.1457E-04  0.0070
   5.4085E-01   5.5401E-01   3.0891E-04  0.0070
   5.5401E-01   5.6749E-01   3.0046E-04  0.0070
   5.6749E-01   5.8130E-01   2.9433E-04  0.0070
   5.8130E-01   5.9544E-01   2.9081E-04  0.0070
   5.9544E-01   6.0993E-01   2.8350E-04  0.0070
   6.0993E-01   6.2477E-01   2.8053E-04  0.0069
   6.2477E-01   6.3997E-01   2.7203E-04  0.0070
   6.3997E-01   6.5554E-01   2.6917E-04  0.0069
   6.5554E-01   6.7149E-01   2.6151E-04  0.0069
   6.7149E-01   6.8783E-01   2.5599E-04  0.0069
   6.8783E-01   7.0456E-01   2.4921E-04  0.0069
   7.0456E-01   7.2171E-01   2.4084E-04  0.0070
   7.2171E-01   7.3927E-01   2.3423E-04  0.0070
   7.3927E-01   7.5725E-01   2.2583E-04  0.0070
   7.5725E-01   7.7568E-01   2.2258E-04  0.0070
   7.7568E-01   7.9455E-01   2.1516E-04  0.0070
   7.9455E-01   8.1388E-01   2.1001E-04  0.0070
   8.1388E-01   8.3368E-01   2.0585E-04  0.0070
   8.3368E-01   8.5397E-01   1.9514E-04  0.0071
   8.5397E-01   8.7475E-01   1.8946E-04  0.0071
   8.7475E-01   8.9603E-01   1.8334E-04  0.0072
   8.9603E-01   9.1783E-01   1.7724E-04  0.0072
   9.1783E-01   9.4016E-01   1.6889E-04  0.0073
   9.4016E-01   9.6304E-01   1.6174E-04  0.0074
   9.6304E-01   9.8647E-01   1.5854E-04  0.0073
   9.8647E-01   1.0105E+00   1.5254E-04  0.0074
   1.0105E+00   1.0351E+00   1.5044E-04  0.0074
   1.0351E+00   1.0602E+00   1.5021E-04  0.0073
   1.0602E+00   1.0860E+00   1.5383E-04  0.0071
   1.0860E+00   1.1125E+00   1.5648E-04  0.0070
   1.1125E+00   1.1395E+00   1.5842E-04  0.0068
   1.1395E+00   1.1673E+00   1.6132E-04  0.0067
   1.1673E+00   1.1957E+00   1.6516E-04  0.0065
   1.1957E+00   1.2247E+00   1.6653E-04  0.0064
   1.2247E+00   1.2545E+00   1.6940E-04  0.0063
   1.2545E+00   1.2851E+00   1.6684E-04  0.0063
   1.2851E+00   1.3163E+00   1.6862E-04  0.0062
   1.3163E+00   1.3484E+00   1.7144E-04  0.0060
   1.3484E+00   1.3812E+00   1.7164E-04  0.0060
   1.3812E+00   1.4148E+00   1.7384E-04  0.0058
   1.4148E+00   1.4492E+00   1.7175E-04  0.0058
   1.4492E+00   1.4845E+00   1.7052E-04  0.0058
   1.4845E+00   1.5206E+00   1.6891E-04  0.0057
   1.5206E+00   1.5576E+00   1.6917E-04  0.0057
   1.5576E+00   1.5955E+00   1.6578E-04  0.0056
   1.5955E+00   1.6343E+00   1.6681E-04  0.0056
   1.6343E+00   1.6741E+00   1.6922E-04  0.0054
   1.6741E+00   1.7148E+00   1.6894E-04  0.0054
   1.7148E+00   1.7565E+00   1.6521E-04  0.0054
   1.7565E+00   1.7992E+00   1.6322E-04  0.0054
   1.7992E+00   1.8430E+00   1.5925E-04  0.0054
   1.8430E+00   1.8879E+00   1.5731E-04  0.0053
   1.8879E+00   1.9338E+00   1.5515E-04  0.0053
   1.9338E+00   1.9808E+00   1.5415E-04  0.0052
   1.9808E+00   2.0290E+00   1.5205E-04  0.0052
   2.0290E+00   2.0784E+00   1.4790E-04  0.0052
   2.0784E+00   2.1290E+00   1.4428E-04  0.0052
   2.1290E+00   2.1808E+00   1.3935E-04  0.0053
   2.1808E+00   2.2338E+00   1.3545E-04  0.0053
   2.2338E+00   2.2882E+00   1.3391E-04  0.0052
   2.2882E+00   2.3439E+00   1.2924E-04  0.0053
   2.3439E+00   2.4009E+00   1.2616E-04  0.0053
   2.4009E+00   2.4593E+00   1.2234E-04  0.0053
   2.4593E+00   2.5191E+00   1.1810E-04  0.0053
   2.5191E+00   2.5804E+00   1.1272E-04  0.0054
   2.5804E+00   2.6432E+00   1.0976E-04  0.0054
   2.6432E+00   2.7075E+00   1.0341E-04  0.0055
   2.7075E+00   2.7734E+00   1.0007E-04  0.0055
   2.7734E+00   2.8409E+00   9.6159E-05  0.0055
   2.8409E+00   2.9100E+00   9.3923E-05  0.0055
   2.9100E+00   2.9808E+00   8.9523E-05  0.0056
   2.9808E+00   3.0533E+00   8.5964E-05  0.0056
   3.0533E+00   3.1276E+00   8.0775E-05  0.0058
   3.1276E+00   3.2037E+00   7.6319E-05  0.0058
   3.2037E+00   3.2817E+00   7.2118E-05  0.0059
   3.2817E+00   3.3615E+00   6.9486E-05  0.0060
   3.3615E+00   3.4433E+00   6.5141E-05  0.0061
   3.4433E+00   3.5271E+00   6.2406E-05  0.0062
   3.5271E+00   3.6129E+00   5.8424E-05  0.0063
   3.6129E+00   3.7008E+00   5.5386E-05  0.0064
   3.7008E+00   3.7908E+00   5.2684E-05  0.0065
   3.7908E+00   3.8831E+00   4.9460E-05  0.0066
   3.8831E+00   3.9776E+00   4.6949E-05  0.0067
   3.9776E+00   4.0743E+00   4.3712E-05  0.0068
   4.0743E+00   4.1735E+00   4.1002E-05  0.0070
   4.1735E+00   4.2750E+00   3.8402E-05  0.0071
   4.2750E+00   4.3790E+00   3.6206E-05  0.0072
   4.3790E+00   4.4856E+00   3.3238E-05  0.0075
   4.4856E+00   4.5947E+00   3.1250E-05  0.0076
   4.5947E+00   4.7065E+00   2.9467E-05  0.0077
   4.7065E+00   4.8210E+00   2.7565E-05  0.0079
   4.8210E+00   4.9383E+00   2.5757E-05  0.0081
   4.9383E+00   5.0585E+00   2.4451E-05  0.0082
   5.0585E+00   5.1815E+00   2.2641E-05  0.0084
   5.1815E+00   5.3076E+00   2.0968E-05  0.0086
   5.3076E+00   5.4368E+00   1.9462E-05  0.0089
   5.4368E+00   5.5690E+00   1.8063E-05  0.0091
   5.5690E+00   5.7045E+00   1.6554E-05  0.0094
   5.7045E+00   5.8433E+00   1.5652E-05  0.0095
   5.8433E+00   5.9855E+00   1.4339E-05  0.0098
   5.9855E+00   6.1311E+00   1.3503E-05  0.0100
   6.1311E+00   6.2803E+00   1.2591E-05  0.0103
   6.2803E+00   6.4331E+00   1.1217E-05  0.0107
   6.4331E+00   6.5896E+00   1.0544E-05  0.0109
   6.5896E+00   6.7500E+00   9.6173E-06  0.0113
   6.7500E+00   6.9142E+00   9.0235E-06  0.0115
   6.9142E+00   7.0824E+00   8.2104E-06  0.0120
   7.0824E+00   7.2548E+00   7.4339E-06  0.0124
   7.2548E+00   7.4313E+00   6.8468E-06  0.0128
   7.4313E+00   7.6121E+00   6.2362E-06  0.0132
   7.6121E+00   7.7973E+00   5.8375E-06  0.0135
   7.7973E+00   7.9870E+00   5.3131E-06  0.0140
   7.9870E+00   8.1813E+00   4.9208E-06  0.0144
   8.1813E+00   8.3804E+00   4.5841E-06  0.0147
   8.3804E+00   8.5843E+00   4.0444E-06  0.0155
   8.5843E+00   8.7931E+00   3.5614E-06  0.0163
   8.7931E+00   9.0071E+00   3.4455E-06  0.0164
   9.0071E+00   9.2262E+00   3.0548E-06  0.0172
   9.2262E+00   9.4507E+00   2.7440E-06  0.0179
   9.4507E+00   9.6807E+00   2.4918E-06  0.0186
   9.6807E+00   9.9162E+00   2.3443E-06  0.0189
   9.9162E+00   1.0157E+01   2.1074E-06  0.0197
   1.0157E+01   1.0405E+01   1.9172E-06  0.0204
   1.0405E+01   1.0658E+01   1.7462E-06  0.0211
   1.0658E+01   1.0917E+01   1.6184E-06  0.0217
   1.0917E+01   1.1183E+01   1.3916E-06  0.0231
   1.1183E+01   1.1455E+01   1.3044E-06  0.0236
   1.1455E+01   1.1733E+01   1.1937E-06  0.0244
   1.1733E+01   1.2019E+01   1.1282E-06  0.0248
   1.2019E+01   1.2311E+01   9.9082E-07  0.0261
   1.2311E+01   1.2611E+01   8.9534E-07  0.0272
   1.2611E+01   1.2918E+01   8.2695E-07  0.0279
   1.2918E+01   1.3232E+01   7.3693E-07  0.0293
   1.3232E+01   1.3554E+01   6.5646E-07  0.0306
   1.3554E+01   1.3884E+01   6.0731E-07  0.0315
   1.3884E+01   1.4222E+01   5.5684E-07  0.0325
   1.4222E+01   1.4568E+01   4.9312E-07  0.0341
   1.4568E+01   1.4922E+01   4.6089E-07  0.0349
   1.4922E+01   1.5285E+01   4.3509E-07  0.0355
   1.5285E+01   1.5657E+01   3.7905E-07  0.0375
   1.5657E+01   1.6038E+01   3.2927E-07  0.0399
   1.6038E+01   1.6428E+01   3.3192E-07  0.0392
   1.6428E+01   1.6828E+01   2.8256E-07  0.0420
   1.6828E+01   1.7237E+01   2.8018E-07  0.0417
   1.7237E+01   1.7657E+01   2.6391E-07  0.0425
   1.7657E+01   1.8086E+01   2.2876E-07  0.0451
   1.8086E+01   1.8526E+01   2.3359E-07  0.0441
   1.8526E+01   1.8977E+01   2.1672E-07  0.0452
   1.8977E+01   1.9439E+01   1.8473E-07  0.0484
   1.9439E+01   1.9912E+01   1.5435E-07  0.0523
   1.9912E+01   2.0396E+01   1.5935E-07  0.0509
   2.0396E+01   2.0893E+01   1.4307E-07  0.0531
   2.0893E+01   2.1401E+01   1.3220E-07  0.0546
   2.1401E+01   2.1922E+01   1.4480E-07  0.0515
   2.1922E+01   2.2455E+01   1.1774E-07  0.0564
   2.2455E+01   2.3001E+01   1.1165E-07  0.0573
   2.3001E+01   2.3561E+01   1.1186E-07  0.0565
   2.3561E+01   2.4134E+01   9.4198E-08  0.0609
   2.4134E+01   2.4721E+01   1.0286E-07  0.0575
   2.4721E+01   2.5323E+01   9.7424E-08  0.0584
   2.5323E+01   2.5939E+01   8.3100E-08  0.0625
   2.5939E+01   2.6570E+01   8.3344E-08  0.0617
   2.6570E+01   2.7217E+01   7.3630E-08  0.0648
   2.7217E+01   2.7879E+01   6.9465E-08  0.0659
   2.7879E+01   2.8557E+01   7.6661E-08  0.0620
   2.8557E+01   2.9252E+01   6.2174E-08  0.0680
   2.9252E+01   2.9964E+01   5.1143E-08  0.0741
   2.9964E+01   3.0693E+01   5.6787E-08  0.0695
   3.0693E+01   3.1440E+01   5.1689E-08  0.0720
   3.1440E+01   3.2205E+01   4.3663E-08  0.0774
   3.2205E+01   3.2988E+01   4.1605E-08  0.0783
   3.2988E+01   3.3791E+01   3.9371E-08  0.0796
   3.3791E+01   3.4613E+01   3.2354E-08  0.0867
   3.4613E+01   3.5455E+01   3.1111E-08  0.0874
   3.5455E+01   3.6318E+01   2.6430E-08  0.0937
   3.6318E+01   3.7201E+01   2.5350E-08  0.0945
   3.7201E+01   3.8106E+01   2.3643E-08  0.0967
   3.8106E+01   3.9034E+01   1.9414E-08  0.1054
   3.9034E+01   3.9983E+01   1.8742E-08  0.1060
   3.9983E+01   4.0956E+01   1.6241E-08  0.1125
   4.0956E+01   4.1953E+01   1.3849E-08  0.1204
   4.1953E+01   4.2973E+01   1.2540E-08  0.1250
   4.2973E+01   4.4019E+01   8.4164E-09  0.1508
   4.4019E+01   4.5090E+01   1.0457E-08  0.1336
   4.5090E+01   4.6187E+01   7.4744E-09  0.1562
   4.6187E+01   4.7311E+01   6.5850E-09  0.1644
   4.7311E+01   4.8462E+01   3.4749E-09  0.2236
   4.8462E+01   4.9641E+01   2.7139E-09  0.2500
   4.9641E+01   5.0849E+01   4.1397E-09  0.2000
   5.0849E+01   5.2086E+01   2.7482E-09  0.2425
   5.2086E+01   5.3353E+01   1.5782E-09  0.3162
   5.3353E+01   5.4651E+01   2.3110E-09  0.2582
   5.4651E+01   5.5981E+01   1.2033E-09  0.3536
   5.5981E+01   5.7343E+01   4.4051E-10  0.5774
   5.7343E+01   5.8738E+01   1.0034E-09  0.3780
   5.8738E+01   6.0168E+01   4.1983E-10  0.5774
   6.0168E+01   6.1632E+01   2.7324E-10  0.7071
   6.1632E+01   6.3131E+01   0.0000E+00  0.0000
   6.3131E+01   6.4667E+01   1.3021E-10  1.0000
   6.4667E+01   6.6240E+01   1.2711E-10  1.0000
   6.6240E+01   6.7852E+01   0.0000E+00  0.0000
   6.7852E+01   6.9503E+01   0.0000E+00  0.0000
   6.9503E+01   7.1194E+01   0.0000E+00  0.0000
   7.1194E+01   7.2926E+01   0.0000E+00  0.0000
   7.2926E+01   7.4701E+01   0.0000E+00  0.0000
   7.4701E+01   7.6518E+01   0.0000E+00  0.0000
   7.6518E+01   7.8380E+01   0.0000E+00  0.0000
   7.8380E+01   8.0287E+01   0.0000E+00  0.0000
   8.0287E+01   8.2240E+01   0.0000E+00  0.0000
   8.2240E+01   8.4241E+01   0.0000E+00  0.0000
   8.4241E+01   8.6291E+01   0.0000E+00  0.0000
   8.6291E+01   8.8391E+01   0.0000E+00  0.0000
   8.8391E+01   9.0541E+01   0.0000E+00  0.0000
   9.0541E+01   9.2744E+01   0.0000E+00  0.0000
   9.2744E+01   9.5001E+01   0.0000E+00  0.0000
   9.5001E+01   9.7312E+01   0.0000E+00  0.0000
   9.7312E+01   9.9680E+01   0.0000E+00  0.0000
   9.9680E+01   1.0211E+02   0.0000E+00  0.0000
   1.0211E+02   1.0459E+02   0.0000E+00  0.0000
   1.0459E+02   1.0713E+02   0.0000E+00  0.0000
   1.0713E+02   1.0974E+02   0.0000E+00  0.0000
   1.0974E+02   1.1241E+02   0.0000E+00  0.0000
   1.1241E+02   1.1515E+02   0.0000E+00  0.0000
   1.1515E+02   1.1795E+02   0.0000E+00  0.0000
   1.1795E+02   1.2082E+02   0.0000E+00  0.0000
   1.2082E+02   1.2376E+02   0.0000E+00  0.0000
   1.2376E+02   1.2677E+02   0.0000E+00  0.0000
   1.2677E+02   1.2985E+02   0.0000E+00  0.0000
   1.2985E+02   1.3301E+02   0.0000E+00  0.0000
   1.3301E+02   1.3625E+02   0.0000E+00  0.0000
   1.3625E+02   1.3956E+02   0.0000E+00  0.0000
   1.3956E+02   1.4296E+02   0.0000E+00  0.0000
   1.4296E+02   1.4644E+02   0.0000E+00  0.0000
   1.4644E+02   1.5000E+02   0.0000E+00  0.0000

#   sum over                 5.1237E-06
'no. =    1   reg = 125 - 225'
msuc: {\huge [t-cross] in region mesh}
msdr: {\it plotted by \ANGEL \version}
msdl: {\it calculated by \PHITS  3.26}
wt: s(0.7)
\vspace{-3}
  region surface crossing
  area  &=&   1.0000E+00 [cm^2]
e:
 
# Information for Restart Calculation
# This calculation was newly started
# istdev =  2 # 1:Batch variance, 2:History variance
# resc2  = 5.00000000000000000E+09 # Total source weight or Total source weight / maxcas
# resc3  = 5.00000000000000000E+09 # Total history number or Total batch number
# maxcas =   100000000 # History / Batch, only used for istdev=1
# bitrseed = 0110100000100010111000001110001111001110100100011111101000111001 # bit data of rseed
