[ T-Cross ]
    title = [t-cross] in region mesh
     mesh =  reg            # mesh type is region-wise
      reg =    1            # number of crossing regions
      non     r-from    r-to       area
      1       100       200        1.000000    
   e-type =    3            # e-mesh is log given by emin, emax and ne
     emin =  1.0000000E-02  # minimum value of e-mesh points
     emax =   150.0000      # maximum value of e-mesh points
#    edel =  2.4039514E-02  # mesh width of e-mesh points
       ne =    400          # number of e-mesh points
#    data = ( e(i), i = 1, ne + 1 )
#           1.00000E-02  1.02433E-02  1.04925E-02  1.07478E-02  1.10093E-02
#           1.12772E-02  1.15516E-02  1.18326E-02  1.21205E-02  1.24154E-02
#           1.27175E-02  1.30269E-02  1.33439E-02  1.36686E-02  1.40011E-02
#           1.43418E-02  1.46907E-02  1.50482E-02  1.54143E-02  1.57894E-02
#           1.61735E-02  1.65670E-02  1.69701E-02  1.73830E-02  1.78060E-02
#           1.82392E-02  1.86830E-02  1.91375E-02  1.96032E-02  2.00801E-02
#           2.05687E-02  2.10692E-02  2.15818E-02  2.21069E-02  2.26448E-02
#           2.31957E-02  2.37601E-02  2.43382E-02  2.49304E-02  2.55369E-02
#           2.61583E-02  2.67947E-02  2.74467E-02  2.81145E-02  2.87985E-02
#           2.94992E-02  3.02169E-02  3.09521E-02  3.17052E-02  3.24766E-02
#           3.32668E-02  3.40762E-02  3.49053E-02  3.57546E-02  3.66246E-02
#           3.75157E-02  3.84284E-02  3.93634E-02  4.03212E-02  4.13022E-02
#           4.23071E-02  4.33365E-02  4.43909E-02  4.54710E-02  4.65773E-02
#           4.77106E-02  4.88714E-02  5.00605E-02  5.12785E-02  5.25262E-02
#           5.38042E-02  5.51133E-02  5.64542E-02  5.78278E-02  5.92348E-02
#           6.06760E-02  6.21523E-02  6.36645E-02  6.52135E-02  6.68002E-02
#           6.84255E-02  7.00904E-02  7.17957E-02  7.35426E-02  7.53319E-02
#           7.71648E-02  7.90423E-02  8.09655E-02  8.29354E-02  8.49533E-02
#           8.70203E-02  8.91376E-02  9.13064E-02  9.35279E-02  9.58035E-02
#           9.81345E-02  1.00522E-01  1.02968E-01  1.05473E-01  1.08040E-01
#           1.10668E-01  1.13361E-01  1.16119E-01  1.18944E-01  1.21838E-01
#           1.24803E-01  1.27839E-01  1.30950E-01  1.34136E-01  1.37399E-01
#           1.40742E-01  1.44167E-01  1.47675E-01  1.51268E-01  1.54948E-01
#           1.58718E-01  1.62580E-01  1.66535E-01  1.70587E-01  1.74738E-01
#           1.78989E-01  1.83344E-01  1.87805E-01  1.92375E-01  1.97055E-01
#           2.01850E-01  2.06761E-01  2.11792E-01  2.16945E-01  2.22223E-01
#           2.27630E-01  2.33169E-01  2.38842E-01  2.44653E-01  2.50605E-01
#           2.56703E-01  2.62949E-01  2.69346E-01  2.75900E-01  2.82613E-01
#           2.89489E-01  2.96532E-01  3.03747E-01  3.11138E-01  3.18708E-01
#           3.26462E-01  3.34405E-01  3.42542E-01  3.50876E-01  3.59413E-01
#           3.68158E-01  3.77116E-01  3.86291E-01  3.95690E-01  4.05317E-01
#           4.15179E-01  4.25281E-01  4.35628E-01  4.46227E-01  4.57084E-01
#           4.68205E-01  4.79597E-01  4.91266E-01  5.03219E-01  5.15463E-01
#           5.28005E-01  5.40851E-01  5.54011E-01  5.67490E-01  5.81298E-01
#           5.95441E-01  6.09929E-01  6.24769E-01  6.39970E-01  6.55541E-01
#           6.71491E-01  6.87828E-01  7.04564E-01  7.21706E-01  7.39266E-01
#           7.57253E-01  7.75678E-01  7.94551E-01  8.13883E-01  8.33685E-01
#           8.53969E-01  8.74747E-01  8.96030E-01  9.17831E-01  9.40163E-01
#           9.63038E-01  9.86469E-01  1.01047E+00  1.03506E+00  1.06024E+00
#           1.08604E+00  1.11246E+00  1.13953E+00  1.16725E+00  1.19565E+00
#           1.22474E+00  1.25454E+00  1.28507E+00  1.31633E+00  1.34836E+00
#           1.38117E+00  1.41477E+00  1.44920E+00  1.48446E+00  1.52057E+00
#           1.55757E+00  1.59547E+00  1.63429E+00  1.67405E+00  1.71478E+00
#           1.75650E+00  1.79924E+00  1.84302E+00  1.88786E+00  1.93379E+00
#           1.98084E+00  2.02904E+00  2.07841E+00  2.12898E+00  2.18078E+00
#           2.23384E+00  2.28819E+00  2.34386E+00  2.40089E+00  2.45930E+00
#           2.51914E+00  2.58043E+00  2.64322E+00  2.70753E+00  2.77341E+00
#           2.84088E+00  2.91001E+00  2.98081E+00  3.05333E+00  3.12762E+00
#           3.20372E+00  3.28167E+00  3.36152E+00  3.44330E+00  3.52708E+00
#           3.61290E+00  3.70080E+00  3.79085E+00  3.88308E+00  3.97756E+00
#           4.07434E+00  4.17347E+00  4.27501E+00  4.37903E+00  4.48557E+00
#           4.59471E+00  4.70650E+00  4.82102E+00  4.93832E+00  5.05847E+00
#           5.18155E+00  5.30762E+00  5.43676E+00  5.56904E+00  5.70453E+00
#           5.84333E+00  5.98550E+00  6.13114E+00  6.28031E+00  6.43312E+00
#           6.58964E+00  6.74997E+00  6.91420E+00  7.08243E+00  7.25475E+00
#           7.43126E+00  7.61207E+00  7.79728E+00  7.98700E+00  8.18133E+00
#           8.38038E+00  8.58428E+00  8.79315E+00  9.00709E+00  9.22624E+00
#           9.45072E+00  9.68067E+00  9.91620E+00  1.01575E+01  1.04046E+01
#           1.06578E+01  1.09171E+01  1.11827E+01  1.14548E+01  1.17335E+01
#           1.20190E+01  1.23114E+01  1.26109E+01  1.29178E+01  1.32321E+01
#           1.35540E+01  1.38838E+01  1.42216E+01  1.45676E+01  1.49221E+01
#           1.52851E+01  1.56570E+01  1.60380E+01  1.64282E+01  1.68279E+01
#           1.72374E+01  1.76568E+01  1.80864E+01  1.85264E+01  1.89772E+01
#           1.94389E+01  1.99119E+01  2.03963E+01  2.08926E+01  2.14009E+01
#           2.19216E+01  2.24550E+01  2.30014E+01  2.35610E+01  2.41343E+01
#           2.47215E+01  2.53230E+01  2.59391E+01  2.65702E+01  2.72167E+01
#           2.78789E+01  2.85572E+01  2.92520E+01  2.99637E+01  3.06928E+01
#           3.14396E+01  3.22045E+01  3.29881E+01  3.37907E+01  3.46128E+01
#           3.54550E+01  3.63177E+01  3.72013E+01  3.81064E+01  3.90336E+01
#           3.99833E+01  4.09561E+01  4.19526E+01  4.29734E+01  4.40189E+01
#           4.50900E+01  4.61870E+01  4.73108E+01  4.84619E+01  4.96410E+01
#           5.08488E+01  5.20860E+01  5.33533E+01  5.46514E+01  5.59812E+01
#           5.73432E+01  5.87384E+01  6.01676E+01  6.16315E+01  6.31311E+01
#           6.46671E+01  6.62405E+01  6.78522E+01  6.95031E+01  7.11941E+01
#           7.29263E+01  7.47007E+01  7.65182E+01  7.83800E+01  8.02870E+01
#           8.22405E+01  8.42414E+01  8.62911E+01  8.83906E+01  9.05412E+01
#           9.27442E+01  9.50007E+01  9.73122E+01  9.96799E+01  1.02105E+02
#           1.04589E+02  1.07134E+02  1.09741E+02  1.12411E+02  1.15146E+02
#           1.17948E+02  1.20817E+02  1.23757E+02  1.26768E+02  1.29852E+02
#           1.33012E+02  1.36248E+02  1.39563E+02  1.42959E+02  1.46437E+02
#           1.50000E+02
     unit =    2            # unit is [1/cm^2/(MeV/n)/source]
     axis =  eng            # axis of output
     file = detector-01.out  # file name of output for the above axis
   output = f-curr          # surface crossing forward current spectrum
     part =  neutron  
# kf/name :  2112     
#    used :        main (  %)        temp (  %)       total (  %)
#  memory :         414 (  0)           0 (  0)         414 (  0)

#------------------------------------------------------------------------------
#newpage:
#   no. =    1   reg = 100 - 200

x: Energy [MeV/n]
y:  F-Curr [1/cm^2/(MeV/n)/source]         
p: xlog ylog afac(0.8) form(0.9)
h: n            x            y(neutron ),hh0l   n 
#  e-lower      e-upper      neutron     r.err 
   1.0000E-02   1.0243E-02   2.0547E-05  0.2000
   1.0243E-02   1.0493E-02   8.8255E-06  0.3015
   1.0493E-02   1.0748E-02   1.3310E-05  0.2425
   1.0748E-02   1.1009E-02   1.5287E-05  0.2236
   1.1009E-02   1.1277E-02   1.5673E-05  0.2182
   1.1277E-02   1.1552E-02   8.7409E-06  0.2887
   1.1552E-02   1.1833E-02   1.4937E-05  0.2182
   1.1833E-02   1.2121E-02   1.3196E-05  0.2294
   1.2121E-02   1.2415E-02   7.4546E-06  0.3015
   1.2415E-02   1.2718E-02   1.1105E-05  0.2427
   1.2718E-02   1.3027E-02   1.0983E-05  0.2425
   1.3027E-02   1.3344E-02   1.3124E-05  0.2184
   1.3344E-02   1.3669E-02   9.9606E-06  0.2475
   1.3669E-02   1.4001E-02   1.2022E-05  0.2236
   1.4001E-02   1.4342E-02   9.3893E-06  0.2500
   1.4342E-02   1.4691E-02   9.1649E-06  0.2500
   1.4691E-02   1.5048E-02   8.9505E-06  0.2500
   1.5048E-02   1.5414E-02   8.7365E-06  0.2500
   1.5414E-02   1.5789E-02   6.3928E-06  0.2887
   1.5789E-02   1.6174E-02   6.7633E-06  0.2774
   1.6174E-02   1.6567E-02   7.6197E-06  0.2582
   1.6567E-02   1.6970E-02   7.8458E-06  0.2502
   1.6970E-02   1.7383E-02   7.7082E-06  0.2500
   1.7383E-02   1.7806E-02   7.0908E-06  0.2582
   1.7806E-02   1.8239E-02   9.6200E-06  0.2183
   1.8239E-02   1.8683E-02   4.5039E-06  0.3162
   1.8683E-02   1.9138E-02   6.1516E-06  0.2673
   1.9138E-02   1.9603E-02   1.0302E-05  0.2041
   1.9603E-02   2.0080E-02   7.9659E-06  0.2294
   2.0080E-02   2.0569E-02   4.0933E-06  0.3162
   2.0569E-02   2.1069E-02   7.1926E-06  0.2357
   2.1069E-02   2.1582E-02   4.9937E-06  0.2777
   2.1582E-02   2.2107E-02   8.7568E-06  0.2085
   2.2107E-02   2.2645E-02   9.8773E-06  0.1931
   2.2645E-02   2.3196E-02   7.9825E-06  0.2132
   2.3196E-02   2.3760E-02   6.7305E-06  0.2294
   2.3760E-02   2.4338E-02   7.6045E-06  0.2132
   2.4338E-02   2.4930E-02   6.7506E-06  0.2236
   2.4930E-02   2.5537E-02   9.1543E-06  0.1892
   2.5537E-02   2.6158E-02   5.7933E-06  0.2357
   2.6158E-02   2.6795E-02   6.2813E-06  0.2236
   2.6795E-02   2.7447E-02   7.6644E-06  0.2000
   2.7447E-02   2.8114E-02   7.1850E-06  0.2041
   2.8114E-02   2.8799E-02   4.3849E-06  0.2582
   2.8799E-02   2.9499E-02   7.0750E-06  0.2001
   2.9499E-02   3.0217E-02   4.4579E-06  0.2500
   3.0217E-02   3.0952E-02   4.3509E-06  0.2500
   3.0952E-02   3.1705E-02   4.5124E-06  0.2425
   3.1705E-02   3.2477E-02   5.1829E-06  0.2236
   3.2477E-02   3.3267E-02   6.3265E-06  0.2000
   3.3267E-02   3.4076E-02   4.9392E-06  0.2236
   3.4076E-02   3.4905E-02   5.0634E-06  0.2182
   3.4905E-02   3.5755E-02   4.4501E-06  0.2295
   3.5755E-02   3.6625E-02   4.5950E-06  0.2236
   3.6625E-02   3.7516E-02   4.2180E-06  0.2296
   3.7516E-02   3.8428E-02   4.1594E-06  0.2294
   3.8428E-02   3.9363E-02   4.8620E-06  0.2088
   3.9363E-02   4.0321E-02   4.1754E-06  0.2236
   4.0321E-02   4.1302E-02   4.8900E-06  0.2041
   4.1302E-02   4.2307E-02   3.2136E-06  0.2469
   4.2307E-02   4.3337E-02   4.0780E-06  0.2182
   4.3337E-02   4.4391E-02   3.4115E-06  0.2357
   4.4391E-02   4.5471E-02   3.1459E-06  0.2425
   4.5471E-02   4.6577E-02   4.1548E-06  0.2085
   4.6577E-02   4.7711E-02   3.9321E-06  0.2107
   4.7711E-02   4.8871E-02   2.7560E-06  0.2500
   4.8871E-02   5.0061E-02   2.8017E-06  0.2433
   5.0061E-02   5.1279E-02   5.0882E-06  0.1796
   5.1279E-02   5.2526E-02   4.6474E-06  0.1857
   5.2526E-02   5.3804E-02   4.3542E-06  0.1891
   5.3804E-02   5.5113E-02   2.9002E-06  0.2294
   5.5113E-02   5.6454E-02   3.1600E-06  0.2162
   5.6454E-02   5.7828E-02   2.9103E-06  0.2236
   5.7828E-02   5.9235E-02   3.5501E-06  0.2000
   5.9235E-02   6.0676E-02   3.7429E-06  0.1925
   6.0676E-02   6.2152E-02   2.9790E-06  0.2132
   6.2152E-02   6.3665E-02   2.2478E-06  0.2425
   6.3665E-02   6.5214E-02   2.9582E-06  0.2085
   6.5214E-02   6.6800E-02   2.0158E-06  0.2500
   6.6800E-02   6.8426E-02   3.2830E-06  0.1928
   6.8426E-02   7.0090E-02   2.2816E-06  0.2294
   7.0090E-02   7.1796E-02   3.3991E-06  0.1857
   7.1796E-02   7.3543E-02   4.0060E-06  0.1690
   7.3543E-02   7.5332E-02   1.5643E-06  0.2673
   7.5332E-02   7.7165E-02   2.7107E-06  0.2001
   7.7165E-02   7.9042E-02   2.6533E-06  0.2000
   7.9042E-02   8.0965E-02   2.6997E-06  0.1961
   8.0965E-02   8.2935E-02   2.0513E-06  0.2215
   8.2935E-02   8.4953E-02   1.8827E-06  0.2294
   8.4953E-02   8.7020E-02   2.5145E-06  0.1961
   8.7020E-02   8.9138E-02   2.8145E-06  0.1827
   8.9138E-02   9.1306E-02   2.4879E-06  0.1925
   9.1306E-02   9.3528E-02   1.5294E-06  0.2425
   9.3528E-02   9.5804E-02   1.6693E-06  0.2294
   9.5804E-02   9.8134E-02   2.1443E-06  0.2000
   9.8134E-02   1.0052E-01   1.6141E-06  0.2266
   1.0052E-01   1.0297E-01   1.7167E-06  0.2182
   1.0297E-01   1.0547E-01   1.4356E-06  0.2357
   1.0547E-01   1.0804E-01   1.5583E-06  0.2236
   1.0804E-01   1.1067E-01   2.8573E-06  0.1626
   1.1067E-01   1.1336E-01   2.3012E-06  0.1796
   1.1336E-01   1.1612E-01   2.1617E-06  0.1827
   1.1612E-01   1.1894E-01   2.2642E-06  0.1768
   1.1894E-01   1.2184E-01   2.7627E-06  0.1581
   1.2184E-01   1.2480E-01   2.1575E-06  0.1768
   1.2480E-01   1.2784E-01   2.5671E-06  0.1601
   1.2784E-01   1.3095E-01   1.6060E-06  0.2000
   1.3095E-01   1.3414E-01   2.5713E-06  0.1562
   1.3414E-01   1.3740E-01   3.1230E-06  0.1400
   1.3740E-01   1.4074E-01   3.4682E-06  0.1313
   1.4074E-01   1.4417E-01   2.7124E-06  0.1461
   1.4417E-01   1.4767E-01   3.4190E-06  0.1291
   1.4767E-01   1.5127E-01   2.6869E-06  0.1436
   1.5127E-01   1.5495E-01   3.3673E-06  0.1270
   1.5495E-01   1.5872E-01   2.9689E-06  0.1336
   1.5872E-01   1.6258E-01   3.8299E-06  0.1162
   1.6258E-01   1.6654E-01   2.8706E-06  0.1325
   1.6654E-01   1.7059E-01   3.6914E-06  0.1155
   1.7059E-01   1.7474E-01   3.9955E-06  0.1098
   1.7474E-01   1.7899E-01   3.6663E-06  0.1132
   1.7899E-01   1.8334E-01   3.8542E-06  0.1091
   1.8334E-01   1.8781E-01   4.2165E-06  0.1029
   1.8781E-01   1.9237E-01   4.6246E-06  0.0971
   1.9237E-01   1.9706E-01   4.1824E-06  0.1010
   1.9706E-01   2.0185E-01   4.0839E-06  0.1010
   2.0185E-01   2.0676E-01   4.7667E-06  0.0921
   2.0676E-01   2.1179E-01   5.1634E-06  0.0877
   2.1179E-01   2.1694E-01   4.6387E-06  0.0913
   2.1694E-01   2.2222E-01   4.6755E-06  0.0899
   2.2222E-01   2.2763E-01   5.2002E-06  0.0841
   2.2763E-01   2.3317E-01   4.8292E-06  0.0864
   2.3317E-01   2.3884E-01   5.4801E-06  0.0801
   2.3884E-01   2.4465E-01   5.3974E-06  0.0798
   2.4465E-01   2.5061E-01   5.5440E-06  0.0778
   2.5061E-01   2.5670E-01   5.0444E-06  0.0806
   2.5670E-01   2.6295E-01   6.5549E-06  0.0698
   2.6295E-01   2.6935E-01   6.5212E-06  0.0692
   2.6935E-01   2.7590E-01   5.8083E-06  0.0723
   2.7590E-01   2.8261E-01   5.5178E-06  0.0734
   2.8261E-01   2.8949E-01   6.2758E-06  0.0680
   2.8949E-01   2.9653E-01   5.8927E-06  0.0693
   2.9653E-01   3.0375E-01   6.6109E-06  0.0647
   3.0375E-01   3.1114E-01   5.5189E-06  0.0699
   3.1114E-01   3.1871E-01   7.7280E-06  0.0584
   3.1871E-01   3.2646E-01   7.0597E-06  0.0603
   3.2646E-01   3.3441E-01   7.0422E-06  0.0596
   3.3441E-01   3.4254E-01   7.5788E-06  0.0568
   3.4254E-01   3.5088E-01   7.9056E-06  0.0550
   3.5088E-01   3.5941E-01   7.6726E-06  0.0551
   3.5941E-01   3.6816E-01   7.5981E-06  0.0548
   3.6816E-01   3.7712E-01   7.7079E-06  0.0537
   3.7712E-01   3.8629E-01   7.9043E-06  0.0524
   3.8629E-01   3.9569E-01   8.4988E-06  0.0499
   3.9569E-01   4.0532E-01   8.6181E-06  0.0490
   4.0532E-01   4.1518E-01   8.0523E-06  0.0501
   4.1518E-01   4.2528E-01   9.7810E-06  0.0449
   4.2528E-01   4.3563E-01   9.0462E-06  0.0461
   4.3563E-01   4.4623E-01   9.0138E-06  0.0457
   4.4623E-01   4.5708E-01   9.3729E-06  0.0442
   4.5708E-01   4.6821E-01   1.0183E-05  0.0420
   4.6821E-01   4.7960E-01   8.8525E-06  0.0444
   4.7960E-01   4.9127E-01   9.7468E-06  0.0418
   4.9127E-01   5.0322E-01   1.0100E-05  0.0406
   5.0322E-01   5.1546E-01   9.7557E-06  0.0408
   5.1546E-01   5.2800E-01   1.0940E-05  0.0381
   5.2800E-01   5.4085E-01   1.0658E-05  0.0381
   5.4085E-01   5.5401E-01   1.1012E-05  0.0371
   5.5401E-01   5.6749E-01   1.0903E-05  0.0368
   5.6749E-01   5.8130E-01   1.1164E-05  0.0359
   5.8130E-01   5.9544E-01   1.1209E-05  0.0354
   5.9544E-01   6.0993E-01   1.2218E-05  0.0335
   6.0993E-01   6.2477E-01   1.1695E-05  0.0339
   6.2477E-01   6.3997E-01   1.1464E-05  0.0338
   6.3997E-01   6.5554E-01   1.2431E-05  0.0321
   6.5554E-01   6.7149E-01   1.1574E-05  0.0328
   6.7149E-01   6.8783E-01   1.2251E-05  0.0315
   6.8783E-01   7.0456E-01   1.1912E-05  0.0316
   7.0456E-01   7.2171E-01   1.2626E-05  0.0303
   7.2171E-01   7.3927E-01   1.2192E-05  0.0305
   7.3927E-01   7.5725E-01   1.2178E-05  0.0301
   7.5725E-01   7.7568E-01   1.3151E-05  0.0286
   7.7568E-01   7.9455E-01   1.2711E-05  0.0288
   7.9455E-01   8.1388E-01   1.3617E-05  0.0275
   8.1388E-01   8.3368E-01   1.3471E-05  0.0273
   8.3368E-01   8.5397E-01   1.3034E-05  0.0274
   8.5397E-01   8.7475E-01   1.3415E-05  0.0267
   8.7475E-01   8.9603E-01   1.3774E-05  0.0260
   8.9603E-01   9.1783E-01   1.2996E-05  0.0265
   9.1783E-01   9.4016E-01   1.3172E-05  0.0260
   9.4016E-01   9.6304E-01   1.2860E-05  0.0260
   9.6304E-01   9.8647E-01   1.3037E-05  0.0255
   9.8647E-01   1.0105E+00   1.2588E-05  0.0256
   1.0105E+00   1.0351E+00   1.2840E-05  0.0251
   1.0351E+00   1.0602E+00   1.2634E-05  0.0250
   1.0602E+00   1.0860E+00   1.1834E-05  0.0255
   1.0860E+00   1.1125E+00   1.2606E-05  0.0244
   1.1125E+00   1.1395E+00   1.1952E-05  0.0248
   1.1395E+00   1.1673E+00   1.2706E-05  0.0237
   1.1673E+00   1.1957E+00   1.2731E-05  0.0234
   1.1957E+00   1.2247E+00   1.3155E-05  0.0228
   1.2247E+00   1.2545E+00   1.2655E-05  0.0229
   1.2545E+00   1.2851E+00   1.2586E-05  0.0227
   1.2851E+00   1.3163E+00   1.2587E-05  0.0224
   1.3163E+00   1.3484E+00   1.2516E-05  0.0222
   1.3484E+00   1.3812E+00   1.3257E-05  0.0213
   1.3812E+00   1.4148E+00   1.2419E-05  0.0217
   1.4148E+00   1.4492E+00   1.2804E-05  0.0212
   1.4492E+00   1.4845E+00   1.2454E-05  0.0212
   1.4845E+00   1.5206E+00   1.2659E-05  0.0208
   1.5206E+00   1.5576E+00   1.3126E-05  0.0201
   1.5576E+00   1.5955E+00   1.2217E-05  0.0206
   1.5955E+00   1.6343E+00   1.2316E-05  0.0203
   1.6343E+00   1.6741E+00   1.2302E-05  0.0201
   1.6741E+00   1.7148E+00   1.2265E-05  0.0198
   1.7148E+00   1.7565E+00   1.1679E-05  0.0201
   1.7565E+00   1.7992E+00   1.1336E-05  0.0201
   1.7992E+00   1.8430E+00   1.0722E-05  0.0204
   1.8430E+00   1.8879E+00   9.9354E-06  0.0208
   1.8879E+00   1.9338E+00   9.6954E-06  0.0209
   1.9338E+00   1.9808E+00   9.6361E-06  0.0206
   1.9808E+00   2.0290E+00   9.8382E-06  0.0202
   2.0290E+00   2.0784E+00   9.4043E-06  0.0204
   2.0784E+00   2.1290E+00   9.5317E-06  0.0199
   2.1290E+00   2.1808E+00   9.6351E-06  0.0195
   2.1808E+00   2.2338E+00   9.9421E-06  0.0190
   2.2338E+00   2.2882E+00   9.7089E-06  0.0190
   2.2882E+00   2.3439E+00   9.5997E-06  0.0190
   2.3439E+00   2.4009E+00   9.0778E-06  0.0193
   2.4009E+00   2.4593E+00   9.0489E-06  0.0191
   2.4593E+00   2.5191E+00   8.6943E-06  0.0192
   2.5191E+00   2.5804E+00   9.1234E-06  0.0185
   2.5804E+00   2.6432E+00   8.5543E-06  0.0189
   2.6432E+00   2.7075E+00   8.6670E-06  0.0186
   2.7075E+00   2.7734E+00   8.2762E-06  0.0188
   2.7734E+00   2.8409E+00   8.4052E-06  0.0184
   2.8409E+00   2.9100E+00   8.4092E-06  0.0182
   2.9100E+00   2.9808E+00   8.2559E-06  0.0182
   2.9808E+00   3.0533E+00   8.3575E-06  0.0178
   3.0533E+00   3.1276E+00   8.0875E-06  0.0179
   3.1276E+00   3.2037E+00   8.1002E-06  0.0177
   3.2037E+00   3.2817E+00   7.6423E-06  0.0180
   3.2817E+00   3.3615E+00   7.9277E-06  0.0175
   3.3615E+00   3.4433E+00   7.5638E-06  0.0177
   3.4433E+00   3.5271E+00   7.7515E-06  0.0173
   3.5271E+00   3.6129E+00   7.3768E-06  0.0175
   3.6129E+00   3.7008E+00   7.4533E-06  0.0172
   3.7008E+00   3.7908E+00   7.2675E-06  0.0172
   3.7908E+00   3.8831E+00   7.2553E-06  0.0171
   3.8831E+00   3.9776E+00   7.1296E-06  0.0170
   3.9776E+00   4.0743E+00   7.0808E-06  0.0168
   4.0743E+00   4.1735E+00   6.8788E-06  0.0169
   4.1735E+00   4.2750E+00   6.7067E-06  0.0169
   4.2750E+00   4.3790E+00   6.5139E-06  0.0169
   4.3790E+00   4.4856E+00   6.6508E-06  0.0166
   4.4856E+00   4.5947E+00   6.3964E-06  0.0167
   4.5947E+00   4.7065E+00   6.2637E-06  0.0167
   4.7065E+00   4.8210E+00   6.2407E-06  0.0165
   4.8210E+00   4.9383E+00   5.9697E-06  0.0166
   4.9383E+00   5.0585E+00   6.0143E-06  0.0164
   5.0585E+00   5.1815E+00   6.0325E-06  0.0162
   5.1815E+00   5.3076E+00   5.9124E-06  0.0161
   5.3076E+00   5.4368E+00   5.8785E-06  0.0160
   5.4368E+00   5.5690E+00   5.9183E-06  0.0158
   5.5690E+00   5.7045E+00   5.7606E-06  0.0158
   5.7045E+00   5.8433E+00   5.6537E-06  0.0157
   5.8433E+00   5.9855E+00   5.4363E-06  0.0159
   5.9855E+00   6.1311E+00   5.3699E-06  0.0158
   6.1311E+00   6.2803E+00   5.4385E-06  0.0155
   6.2803E+00   6.4331E+00   5.4593E-06  0.0153
   6.4331E+00   6.5896E+00   5.2426E-06  0.0154
   6.5896E+00   6.7500E+00   5.3343E-06  0.0151
   6.7500E+00   6.9142E+00   5.1556E-06  0.0152
   6.9142E+00   7.0824E+00   5.1923E-06  0.0150
   7.0824E+00   7.2548E+00   5.0814E-06  0.0149
   7.2548E+00   7.4313E+00   4.9616E-06  0.0149
   7.4313E+00   7.6121E+00   5.0202E-06  0.0147
   7.6121E+00   7.7973E+00   4.8922E-06  0.0147
   7.7973E+00   7.9870E+00   5.0129E-06  0.0143
   7.9870E+00   8.1813E+00   4.8999E-06  0.0143
   8.1813E+00   8.3804E+00   4.9277E-06  0.0141
   8.3804E+00   8.5843E+00   5.0332E-06  0.0138
   8.5843E+00   8.7931E+00   4.6875E-06  0.0141
   8.7931E+00   9.0071E+00   4.7516E-06  0.0139
   9.0071E+00   9.2262E+00   4.7915E-06  0.0137
   9.2262E+00   9.4507E+00   4.6745E-06  0.0137
   9.4507E+00   9.6807E+00   4.5519E-06  0.0137
   9.6807E+00   9.9162E+00   4.6126E-06  0.0135
   9.9162E+00   1.0157E+01   4.8136E-06  0.0131
   1.0157E+01   1.0405E+01   4.6972E-06  0.0131
   1.0405E+01   1.0658E+01   4.7696E-06  0.0128
   1.0658E+01   1.0917E+01   4.5964E-06  0.0129
   1.0917E+01   1.1183E+01   4.6677E-06  0.0127
   1.1183E+01   1.1455E+01   4.5345E-06  0.0127
   1.1455E+01   1.1733E+01   4.5713E-06  0.0125
   1.1733E+01   1.2019E+01   4.4516E-06  0.0125
   1.2019E+01   1.2311E+01   4.5873E-06  0.0122
   1.2311E+01   1.2611E+01   4.4959E-06  0.0122
   1.2611E+01   1.2918E+01   4.5920E-06  0.0119
   1.2918E+01   1.3232E+01   4.5325E-06  0.0118
   1.3232E+01   1.3554E+01   4.5081E-06  0.0117
   1.3554E+01   1.3884E+01   4.5593E-06  0.0115
   1.3884E+01   1.4222E+01   4.5144E-06  0.0114
   1.4222E+01   1.4568E+01   4.5125E-06  0.0113
   1.4568E+01   1.4922E+01   4.4113E-06  0.0113
   1.4922E+01   1.5285E+01   4.3466E-06  0.0113
   1.5285E+01   1.5657E+01   4.3818E-06  0.0111
   1.5657E+01   1.6038E+01   4.3301E-06  0.0110
   1.6038E+01   1.6428E+01   4.2794E-06  0.0109
   1.6428E+01   1.6828E+01   4.2823E-06  0.0108
   1.6828E+01   1.7237E+01   4.2889E-06  0.0107
   1.7237E+01   1.7657E+01   4.1913E-06  0.0107
   1.7657E+01   1.8086E+01   4.1567E-06  0.0106
   1.8086E+01   1.8526E+01   4.1398E-06  0.0105
   1.8526E+01   1.8977E+01   4.1290E-06  0.0104
   1.8977E+01   1.9439E+01   4.0123E-06  0.0104
   1.9439E+01   1.9912E+01   4.0671E-06  0.0102
   1.9912E+01   2.0396E+01   4.0308E-06  0.0101
   2.0396E+01   2.0893E+01   4.0056E-06  0.0100
   2.0893E+01   2.1401E+01   3.9226E-06  0.0100
   2.1401E+01   2.1922E+01   3.9393E-06  0.0099
   2.1922E+01   2.2455E+01   3.8791E-06  0.0098
   2.2455E+01   2.3001E+01   3.9184E-06  0.0097
   2.3001E+01   2.3561E+01   3.8339E-06  0.0097
   2.3561E+01   2.4134E+01   3.7376E-06  0.0097
   2.4134E+01   2.4721E+01   3.6873E-06  0.0096
   2.4721E+01   2.5323E+01   3.7011E-06  0.0095
   2.5323E+01   2.5939E+01   3.6690E-06  0.0094
   2.5939E+01   2.6570E+01   3.6472E-06  0.0093
   2.6570E+01   2.7217E+01   3.6459E-06  0.0092
   2.7217E+01   2.7879E+01   3.6324E-06  0.0091
   2.7879E+01   2.8557E+01   3.6187E-06  0.0090
   2.8557E+01   2.9252E+01   3.5560E-06  0.0090
   2.9252E+01   2.9964E+01   3.5446E-06  0.0089
   2.9964E+01   3.0693E+01   3.5216E-06  0.0088
   3.0693E+01   3.1440E+01   3.5196E-06  0.0087
   3.1440E+01   3.2205E+01   3.5349E-06  0.0086
   3.2205E+01   3.2988E+01   3.5234E-06  0.0085
   3.2988E+01   3.3791E+01   3.4881E-06  0.0085
   3.3791E+01   3.4613E+01   3.5633E-06  0.0083
   3.4613E+01   3.5455E+01   3.5511E-06  0.0082
   3.5455E+01   3.6318E+01   3.5920E-06  0.0080
   3.6318E+01   3.7201E+01   4.0471E-06  0.0075
   3.7201E+01   3.8106E+01   6.5024E-06  0.0058
   3.8106E+01   3.9034E+01   9.7946E-06  0.0047
   3.9034E+01   3.9983E+01   1.0557E-05  0.0045
   3.9983E+01   4.0956E+01   1.0518E-05  0.0044
   4.0956E+01   4.1953E+01   1.0388E-05  0.0044
   4.1953E+01   4.2973E+01   1.0291E-05  0.0044
   4.2973E+01   4.4019E+01   1.0276E-05  0.0043
   4.4019E+01   4.5090E+01   1.0077E-05  0.0043
   4.5090E+01   4.6187E+01   1.0082E-05  0.0043
   4.6187E+01   4.7311E+01   9.8832E-06  0.0042
   4.7311E+01   4.8462E+01   8.6937E-06  0.0045
   4.8462E+01   4.9641E+01   5.2551E-06  0.0057
   4.9641E+01   5.0849E+01   5.1561E-06  0.0057
   5.0849E+01   5.2086E+01   5.0107E-06  0.0057
   5.2086E+01   5.3353E+01   4.8724E-06  0.0057
   5.3353E+01   5.4651E+01   4.7713E-06  0.0057
   5.4651E+01   5.5981E+01   4.6109E-06  0.0057
   5.5981E+01   5.7343E+01   4.4168E-06  0.0058
   5.7343E+01   5.8738E+01   4.3152E-06  0.0058
   5.8738E+01   6.0168E+01   4.1180E-06  0.0058
   6.0168E+01   6.1632E+01   3.9935E-06  0.0058
   6.1632E+01   6.3131E+01   3.7944E-06  0.0059
   6.3131E+01   6.4667E+01   3.5969E-06  0.0060
   6.4667E+01   6.6240E+01   3.4282E-06  0.0061
   6.6240E+01   6.7852E+01   3.2454E-06  0.0062
   6.7852E+01   6.9503E+01   6.3493E-07  0.0138
   6.9503E+01   7.1194E+01   1.1827E-10  1.0000
   7.1194E+01   7.2926E+01   0.0000E+00  0.0000
   7.2926E+01   7.4701E+01   0.0000E+00  0.0000
   7.4701E+01   7.6518E+01   0.0000E+00  0.0000
   7.6518E+01   7.8380E+01   0.0000E+00  0.0000
   7.8380E+01   8.0287E+01   0.0000E+00  0.0000
   8.0287E+01   8.2240E+01   0.0000E+00  0.0000
   8.2240E+01   8.4241E+01   0.0000E+00  0.0000
   8.4241E+01   8.6291E+01   0.0000E+00  0.0000
   8.6291E+01   8.8391E+01   0.0000E+00  0.0000
   8.8391E+01   9.0541E+01   0.0000E+00  0.0000
   9.0541E+01   9.2744E+01   0.0000E+00  0.0000
   9.2744E+01   9.5001E+01   0.0000E+00  0.0000
   9.5001E+01   9.7312E+01   0.0000E+00  0.0000
   9.7312E+01   9.9680E+01   0.0000E+00  0.0000
   9.9680E+01   1.0211E+02   0.0000E+00  0.0000
   1.0211E+02   1.0459E+02   0.0000E+00  0.0000
   1.0459E+02   1.0713E+02   0.0000E+00  0.0000
   1.0713E+02   1.0974E+02   0.0000E+00  0.0000
   1.0974E+02   1.1241E+02   0.0000E+00  0.0000
   1.1241E+02   1.1515E+02   0.0000E+00  0.0000
   1.1515E+02   1.1795E+02   0.0000E+00  0.0000
   1.1795E+02   1.2082E+02   0.0000E+00  0.0000
   1.2082E+02   1.2376E+02   0.0000E+00  0.0000
   1.2376E+02   1.2677E+02   0.0000E+00  0.0000
   1.2677E+02   1.2985E+02   0.0000E+00  0.0000
   1.2985E+02   1.3301E+02   0.0000E+00  0.0000
   1.3301E+02   1.3625E+02   0.0000E+00  0.0000
   1.3625E+02   1.3956E+02   0.0000E+00  0.0000
   1.3956E+02   1.4296E+02   0.0000E+00  0.0000
   1.4296E+02   1.4644E+02   0.0000E+00  0.0000
   1.4644E+02   1.5000E+02   0.0000E+00  0.0000

#   sum over                 2.4702E-06
'no. =    1   reg = 100 - 200'
msuc: {\huge [t-cross] in region mesh}
msdr: {\it plotted by \ANGEL \version}
msdl: {\it calculated by \PHITS  3.26}
wt: s(0.7)
\vspace{-3}
  region surface crossing
  area  &=&   1.0000E+00 [cm^2]
e:
 
# Information for Restart Calculation
# This calculation was newly started
# istdev =  2 # 1:Batch variance, 2:History variance
# resc2  = 5.00000000000000000E+09 # Total source weight or Total source weight / maxcas
# resc3  = 5.00000000000000000E+09 # Total history number or Total batch number
# maxcas =   100000000 # History / Batch, only used for istdev=1
# bitrseed = 0110100000100010111000001110001111001110100100011111101000111001 # bit data of rseed
