[ T-Cross ]
    title = [t-cross] in region mesh
     mesh =  reg            # mesh type is region-wise
      reg =    1            # number of crossing regions
      non     r-from    r-to       area
      1       105       205        1.000000    
   e-type =    3            # e-mesh is log given by emin, emax and ne
     emin =  1.0000000E-02  # minimum value of e-mesh points
     emax =   150.0000      # maximum value of e-mesh points
#    edel =  2.4039514E-02  # mesh width of e-mesh points
       ne =    400          # number of e-mesh points
#    data = ( e(i), i = 1, ne + 1 )
#           1.00000E-02  1.02433E-02  1.04925E-02  1.07478E-02  1.10093E-02
#           1.12772E-02  1.15516E-02  1.18326E-02  1.21205E-02  1.24154E-02
#           1.27175E-02  1.30269E-02  1.33439E-02  1.36686E-02  1.40011E-02
#           1.43418E-02  1.46907E-02  1.50482E-02  1.54143E-02  1.57894E-02
#           1.61735E-02  1.65670E-02  1.69701E-02  1.73830E-02  1.78060E-02
#           1.82392E-02  1.86830E-02  1.91375E-02  1.96032E-02  2.00801E-02
#           2.05687E-02  2.10692E-02  2.15818E-02  2.21069E-02  2.26448E-02
#           2.31957E-02  2.37601E-02  2.43382E-02  2.49304E-02  2.55369E-02
#           2.61583E-02  2.67947E-02  2.74467E-02  2.81145E-02  2.87985E-02
#           2.94992E-02  3.02169E-02  3.09521E-02  3.17052E-02  3.24766E-02
#           3.32668E-02  3.40762E-02  3.49053E-02  3.57546E-02  3.66246E-02
#           3.75157E-02  3.84284E-02  3.93634E-02  4.03212E-02  4.13022E-02
#           4.23071E-02  4.33365E-02  4.43909E-02  4.54710E-02  4.65773E-02
#           4.77106E-02  4.88714E-02  5.00605E-02  5.12785E-02  5.25262E-02
#           5.38042E-02  5.51133E-02  5.64542E-02  5.78278E-02  5.92348E-02
#           6.06760E-02  6.21523E-02  6.36645E-02  6.52135E-02  6.68002E-02
#           6.84255E-02  7.00904E-02  7.17957E-02  7.35426E-02  7.53319E-02
#           7.71648E-02  7.90423E-02  8.09655E-02  8.29354E-02  8.49533E-02
#           8.70203E-02  8.91376E-02  9.13064E-02  9.35279E-02  9.58035E-02
#           9.81345E-02  1.00522E-01  1.02968E-01  1.05473E-01  1.08040E-01
#           1.10668E-01  1.13361E-01  1.16119E-01  1.18944E-01  1.21838E-01
#           1.24803E-01  1.27839E-01  1.30950E-01  1.34136E-01  1.37399E-01
#           1.40742E-01  1.44167E-01  1.47675E-01  1.51268E-01  1.54948E-01
#           1.58718E-01  1.62580E-01  1.66535E-01  1.70587E-01  1.74738E-01
#           1.78989E-01  1.83344E-01  1.87805E-01  1.92375E-01  1.97055E-01
#           2.01850E-01  2.06761E-01  2.11792E-01  2.16945E-01  2.22223E-01
#           2.27630E-01  2.33169E-01  2.38842E-01  2.44653E-01  2.50605E-01
#           2.56703E-01  2.62949E-01  2.69346E-01  2.75900E-01  2.82613E-01
#           2.89489E-01  2.96532E-01  3.03747E-01  3.11138E-01  3.18708E-01
#           3.26462E-01  3.34405E-01  3.42542E-01  3.50876E-01  3.59413E-01
#           3.68158E-01  3.77116E-01  3.86291E-01  3.95690E-01  4.05317E-01
#           4.15179E-01  4.25281E-01  4.35628E-01  4.46227E-01  4.57084E-01
#           4.68205E-01  4.79597E-01  4.91266E-01  5.03219E-01  5.15463E-01
#           5.28005E-01  5.40851E-01  5.54011E-01  5.67490E-01  5.81298E-01
#           5.95441E-01  6.09929E-01  6.24769E-01  6.39970E-01  6.55541E-01
#           6.71491E-01  6.87828E-01  7.04564E-01  7.21706E-01  7.39266E-01
#           7.57253E-01  7.75678E-01  7.94551E-01  8.13883E-01  8.33685E-01
#           8.53969E-01  8.74747E-01  8.96030E-01  9.17831E-01  9.40163E-01
#           9.63038E-01  9.86469E-01  1.01047E+00  1.03506E+00  1.06024E+00
#           1.08604E+00  1.11246E+00  1.13953E+00  1.16725E+00  1.19565E+00
#           1.22474E+00  1.25454E+00  1.28507E+00  1.31633E+00  1.34836E+00
#           1.38117E+00  1.41477E+00  1.44920E+00  1.48446E+00  1.52057E+00
#           1.55757E+00  1.59547E+00  1.63429E+00  1.67405E+00  1.71478E+00
#           1.75650E+00  1.79924E+00  1.84302E+00  1.88786E+00  1.93379E+00
#           1.98084E+00  2.02904E+00  2.07841E+00  2.12898E+00  2.18078E+00
#           2.23384E+00  2.28819E+00  2.34386E+00  2.40089E+00  2.45930E+00
#           2.51914E+00  2.58043E+00  2.64322E+00  2.70753E+00  2.77341E+00
#           2.84088E+00  2.91001E+00  2.98081E+00  3.05333E+00  3.12762E+00
#           3.20372E+00  3.28167E+00  3.36152E+00  3.44330E+00  3.52708E+00
#           3.61290E+00  3.70080E+00  3.79085E+00  3.88308E+00  3.97756E+00
#           4.07434E+00  4.17347E+00  4.27501E+00  4.37903E+00  4.48557E+00
#           4.59471E+00  4.70650E+00  4.82102E+00  4.93832E+00  5.05847E+00
#           5.18155E+00  5.30762E+00  5.43676E+00  5.56904E+00  5.70453E+00
#           5.84333E+00  5.98550E+00  6.13114E+00  6.28031E+00  6.43312E+00
#           6.58964E+00  6.74997E+00  6.91420E+00  7.08243E+00  7.25475E+00
#           7.43126E+00  7.61207E+00  7.79728E+00  7.98700E+00  8.18133E+00
#           8.38038E+00  8.58428E+00  8.79315E+00  9.00709E+00  9.22624E+00
#           9.45072E+00  9.68067E+00  9.91620E+00  1.01575E+01  1.04046E+01
#           1.06578E+01  1.09171E+01  1.11827E+01  1.14548E+01  1.17335E+01
#           1.20190E+01  1.23114E+01  1.26109E+01  1.29178E+01  1.32321E+01
#           1.35540E+01  1.38838E+01  1.42216E+01  1.45676E+01  1.49221E+01
#           1.52851E+01  1.56570E+01  1.60380E+01  1.64282E+01  1.68279E+01
#           1.72374E+01  1.76568E+01  1.80864E+01  1.85264E+01  1.89772E+01
#           1.94389E+01  1.99119E+01  2.03963E+01  2.08926E+01  2.14009E+01
#           2.19216E+01  2.24550E+01  2.30014E+01  2.35610E+01  2.41343E+01
#           2.47215E+01  2.53230E+01  2.59391E+01  2.65702E+01  2.72167E+01
#           2.78789E+01  2.85572E+01  2.92520E+01  2.99637E+01  3.06928E+01
#           3.14396E+01  3.22045E+01  3.29881E+01  3.37907E+01  3.46128E+01
#           3.54550E+01  3.63177E+01  3.72013E+01  3.81064E+01  3.90336E+01
#           3.99833E+01  4.09561E+01  4.19526E+01  4.29734E+01  4.40189E+01
#           4.50900E+01  4.61870E+01  4.73108E+01  4.84619E+01  4.96410E+01
#           5.08488E+01  5.20860E+01  5.33533E+01  5.46514E+01  5.59812E+01
#           5.73432E+01  5.87384E+01  6.01676E+01  6.16315E+01  6.31311E+01
#           6.46671E+01  6.62405E+01  6.78522E+01  6.95031E+01  7.11941E+01
#           7.29263E+01  7.47007E+01  7.65182E+01  7.83800E+01  8.02870E+01
#           8.22405E+01  8.42414E+01  8.62911E+01  8.83906E+01  9.05412E+01
#           9.27442E+01  9.50007E+01  9.73122E+01  9.96799E+01  1.02105E+02
#           1.04589E+02  1.07134E+02  1.09741E+02  1.12411E+02  1.15146E+02
#           1.17948E+02  1.20817E+02  1.23757E+02  1.26768E+02  1.29852E+02
#           1.33012E+02  1.36248E+02  1.39563E+02  1.42959E+02  1.46437E+02
#           1.50000E+02
     unit =    2            # unit is [1/cm^2/(MeV/n)/source]
     axis =  eng            # axis of output
     file = detector-06.out  # file name of output for the above axis
   output = f-curr          # surface crossing forward current spectrum
     part =  neutron  
# kf/name :  2112     
#    used :        main (  %)        temp (  %)       total (  %)
#  memory :         414 (  0)           0 (  0)         414 (  0)

#------------------------------------------------------------------------------
#newpage:
#   no. =    1   reg = 105 - 205

x: Energy [MeV/n]
y:  F-Curr [1/cm^2/(MeV/n)/source]         
p: xlog ylog afac(0.8) form(0.9)
h: n            x            y(neutron ),hh0l   n 
#  e-lower      e-upper      neutron     r.err 
   1.0000E-02   1.0243E-02   1.0390E-03  0.0883
   1.0243E-02   1.0493E-02   9.9084E-04  0.0894
   1.0493E-02   1.0748E-02   9.7838E-04  0.0888
   1.0748E-02   1.1009E-02   8.5768E-04  0.0938
   1.1009E-02   1.1277E-02   9.0009E-04  0.0909
   1.1277E-02   1.1552E-02   8.9842E-04  0.0898
   1.1552E-02   1.1833E-02   8.9729E-04  0.0885
   1.1833E-02   1.2121E-02   1.0152E-03  0.0820
   1.2121E-02   1.2415E-02   9.3326E-04  0.0847
   1.2415E-02   1.2718E-02   7.5567E-04  0.0924
   1.2718E-02   1.3027E-02   8.3311E-04  0.0876
   1.3027E-02   1.3344E-02   8.5195E-04  0.0852
   1.3344E-02   1.3669E-02   8.5640E-04  0.0842
   1.3669E-02   1.4001E-02   7.1356E-04  0.0909
   1.4001E-02   1.4342E-02   6.2907E-04  0.0959
   1.4342E-02   1.4691E-02   8.1284E-04  0.0833
   1.4691E-02   1.5048E-02   6.9349E-04  0.0891
   1.5048E-02   1.5414E-02   6.8952E-04  0.0883
   1.5414E-02   1.5789E-02   7.1399E-04  0.0858
   1.5789E-02   1.6174E-02   6.9626E-04  0.0861
   1.6174E-02   1.6567E-02   7.1721E-04  0.0837
   1.6567E-02   1.6970E-02   6.8877E-04  0.0842
   1.6970E-02   1.7383E-02   6.4999E-04  0.0856
   1.7383E-02   1.7806E-02   7.3011E-04  0.0798
   1.7806E-02   1.8239E-02   5.8211E-04  0.0887
   1.8239E-02   1.8683E-02   6.2065E-04  0.0848
   1.8683E-02   1.9138E-02   5.7423E-04  0.0869
   1.9138E-02   1.9603E-02   5.9664E-04  0.0842
   1.9603E-02   2.0080E-02   6.3696E-04  0.0804
   2.0080E-02   2.0569E-02   5.4400E-04  0.0857
   2.0569E-02   2.1069E-02   5.7337E-04  0.0830
   2.1069E-02   2.1582E-02   5.8149E-04  0.0815
   2.1582E-02   2.2107E-02   4.9731E-04  0.0868
   2.2107E-02   2.2645E-02   5.4159E-04  0.0823
   2.2645E-02   2.3196E-02   4.4731E-04  0.0891
   2.3196E-02   2.3760E-02   5.4245E-04  0.0802
   2.3760E-02   2.4338E-02   4.8649E-04  0.0838
   2.4338E-02   2.4930E-02   4.4525E-04  0.0866
   2.4930E-02   2.5537E-02   5.3274E-04  0.0782
   2.5537E-02   2.6158E-02   5.2969E-04  0.0774
   2.6158E-02   2.6795E-02   4.4766E-04  0.0830
   2.6795E-02   2.7447E-02   4.8853E-04  0.0785
   2.7447E-02   2.8114E-02   3.9172E-04  0.0867
   2.8114E-02   2.8799E-02   4.3432E-04  0.0813
   2.8799E-02   2.9499E-02   3.6380E-04  0.0880
   2.9499E-02   3.0217E-02   4.6132E-04  0.0773
   3.0217E-02   3.0952E-02   3.5935E-04  0.0867
   3.0952E-02   3.1705E-02   4.0405E-04  0.0805
   3.1705E-02   3.2477E-02   3.9240E-04  0.0807
   3.2477E-02   3.3267E-02   3.9051E-04  0.0799
   3.3267E-02   3.4076E-02   3.3060E-04  0.0856
   3.4076E-02   3.4905E-02   4.0382E-04  0.0769
   3.4905E-02   3.5755E-02   3.8717E-04  0.0772
   3.5755E-02   3.6625E-02   3.4248E-04  0.0813
   3.6625E-02   3.7516E-02   3.6252E-04  0.0780
   3.7516E-02   3.8428E-02   3.4125E-04  0.0798
   3.8428E-02   3.9363E-02   3.3657E-04  0.0792
   3.9363E-02   4.0321E-02   3.2853E-04  0.0788
   4.0321E-02   4.1302E-02   3.4306E-04  0.0767
   4.1302E-02   4.2307E-02   2.9266E-04  0.0823
   4.2307E-02   4.3337E-02   3.1272E-04  0.0783
   4.3337E-02   4.4391E-02   3.0978E-04  0.0779
   4.4391E-02   4.5471E-02   2.7246E-04  0.0821
   4.5471E-02   4.6577E-02   2.6252E-04  0.0821
   4.6577E-02   4.7711E-02   3.0747E-04  0.0753
   4.7711E-02   4.8871E-02   2.8008E-04  0.0776
   4.8871E-02   5.0061E-02   2.4998E-04  0.0815
   5.0061E-02   5.1279E-02   2.6009E-04  0.0787
   5.1279E-02   5.2526E-02   2.4847E-04  0.0796
   5.2526E-02   5.3804E-02   2.4910E-04  0.0789
   5.3804E-02   5.5113E-02   2.5712E-04  0.0765
   5.5113E-02   5.6454E-02   2.6663E-04  0.0745
   5.6454E-02   5.7828E-02   2.4441E-04  0.0769
   5.7828E-02   5.9235E-02   2.3691E-04  0.0772
   5.9235E-02   6.0676E-02   2.3880E-04  0.0755
   6.0676E-02   6.2152E-02   2.1103E-04  0.0796
   6.2152E-02   6.3665E-02   2.2057E-04  0.0769
   6.3665E-02   6.5214E-02   2.2314E-04  0.0756
   6.5214E-02   6.6800E-02   2.2405E-04  0.0744
   6.6800E-02   6.8426E-02   2.2368E-04  0.0734
   6.8426E-02   7.0090E-02   1.9779E-04  0.0774
   7.0090E-02   7.1796E-02   1.8837E-04  0.0779
   7.1796E-02   7.3543E-02   1.9784E-04  0.0753
   7.3543E-02   7.5332E-02   1.8778E-04  0.0767
   7.5332E-02   7.7165E-02   2.0221E-04  0.0728
   7.7165E-02   7.9042E-02   1.8060E-04  0.0762
   7.9042E-02   8.0965E-02   1.7475E-04  0.0765
   8.0965E-02   8.2935E-02   1.6097E-04  0.0788
   8.2935E-02   8.4953E-02   1.8041E-04  0.0737
   8.4953E-02   8.7020E-02   1.7993E-04  0.0727
   8.7020E-02   8.9138E-02   1.6455E-04  0.0752
   8.9138E-02   9.1306E-02   1.6814E-04  0.0735
   9.1306E-02   9.3528E-02   1.5916E-04  0.0748
   9.3528E-02   9.5804E-02   1.5210E-04  0.0755
   9.5804E-02   9.8134E-02   1.5473E-04  0.0738
   9.8134E-02   1.0052E-01   1.6364E-04  0.0710
   1.0052E-01   1.0297E-01   1.2553E-04  0.0802
   1.0297E-01   1.0547E-01   1.3941E-04  0.0750
   1.0547E-01   1.0804E-01   1.2793E-04  0.0777
   1.0804E-01   1.1067E-01   1.2236E-04  0.0782
   1.1067E-01   1.1336E-01   1.4292E-04  0.0718
   1.1336E-01   1.1612E-01   1.3088E-04  0.0739
   1.1612E-01   1.1894E-01   1.3262E-04  0.0726
   1.1894E-01   1.2184E-01   1.1966E-04  0.0756
   1.2184E-01   1.2480E-01   1.1809E-04  0.0751
   1.2480E-01   1.2784E-01   1.1746E-04  0.0743
   1.2784E-01   1.3095E-01   1.2561E-04  0.0708
   1.3095E-01   1.3414E-01   1.0675E-04  0.0762
   1.3414E-01   1.3740E-01   1.1577E-04  0.0721
   1.3740E-01   1.4074E-01   1.1349E-04  0.0722
   1.4074E-01   1.4417E-01   1.1145E-04  0.0718
   1.4417E-01   1.4767E-01   1.2485E-04  0.0672
   1.4767E-01   1.5127E-01   9.6669E-05  0.0753
   1.5127E-01   1.5495E-01   1.1465E-04  0.0684
   1.5495E-01   1.5872E-01   9.2004E-05  0.0756
   1.5872E-01   1.6258E-01   1.1123E-04  0.0680
   1.6258E-01   1.6654E-01   8.8347E-05  0.0751
   1.6654E-01   1.7059E-01   1.0071E-04  0.0695
   1.7059E-01   1.7474E-01   1.0344E-04  0.0676
   1.7474E-01   1.7899E-01   7.8611E-05  0.0767
   1.7899E-01   1.8334E-01   7.9463E-05  0.0756
   1.8334E-01   1.8781E-01   8.8262E-05  0.0706
   1.8781E-01   1.9237E-01   9.1522E-05  0.0686
   1.9237E-01   1.9706E-01   9.2172E-05  0.0677
   1.9706E-01   2.0185E-01   9.5490E-05  0.0656
   2.0185E-01   2.0676E-01   8.5072E-05  0.0685
   2.0676E-01   2.1179E-01   8.3162E-05  0.0686
   2.1179E-01   2.1694E-01   1.0100E-04  0.0617
   2.1694E-01   2.2222E-01   9.1503E-05  0.0640
   2.2222E-01   2.2763E-01   9.5733E-05  0.0616
   2.2763E-01   2.3317E-01   9.9491E-05  0.0599
   2.3317E-01   2.3884E-01   1.1072E-04  0.0558
   2.3884E-01   2.4465E-01   1.1355E-04  0.0546
   2.4465E-01   2.5061E-01   1.0537E-04  0.0560
   2.5061E-01   2.5670E-01   1.1819E-04  0.0523
   2.5670E-01   2.6295E-01   1.0591E-04  0.0546
   2.6295E-01   2.6935E-01   1.2585E-04  0.0494
   2.6935E-01   2.7590E-01   1.2599E-04  0.0488
   2.7590E-01   2.8261E-01   1.1935E-04  0.0496
   2.8261E-01   2.8949E-01   1.3987E-04  0.0453
   2.8949E-01   2.9653E-01   1.5137E-04  0.0430
   2.9653E-01   3.0375E-01   1.3929E-04  0.0442
   3.0375E-01   3.1114E-01   1.5175E-04  0.0419
   3.1114E-01   3.1871E-01   1.5619E-04  0.0408
   3.1871E-01   3.2646E-01   1.4748E-04  0.0415
   3.2646E-01   3.3441E-01   1.6217E-04  0.0391
   3.3441E-01   3.4254E-01   1.6597E-04  0.0382
   3.4254E-01   3.5088E-01   1.5851E-04  0.0387
   3.5088E-01   3.5941E-01   1.6977E-04  0.0368
   3.5941E-01   3.6816E-01   1.6411E-04  0.0370
   3.6816E-01   3.7712E-01   1.7970E-04  0.0350
   3.7712E-01   3.8629E-01   1.8241E-04  0.0343
   3.8629E-01   3.9569E-01   1.9411E-04  0.0328
   3.9569E-01   4.0532E-01   1.7844E-04  0.0338
   4.0532E-01   4.1518E-01   1.9625E-04  0.0319
   4.1518E-01   4.2528E-01   2.0783E-04  0.0306
   4.2528E-01   4.3563E-01   2.0993E-04  0.0301
   4.3563E-01   4.4623E-01   2.3110E-04  0.0283
   4.4623E-01   4.5708E-01   2.1950E-04  0.0288
   4.5708E-01   4.6821E-01   2.2604E-04  0.0280
   4.6821E-01   4.7960E-01   2.2960E-04  0.0274
   4.7960E-01   4.9127E-01   2.3218E-04  0.0270
   4.9127E-01   5.0322E-01   2.2937E-04  0.0268
   5.0322E-01   5.1546E-01   2.4875E-04  0.0254
   5.1546E-01   5.2800E-01   2.4621E-04  0.0253
   5.2800E-01   5.4085E-01   2.6183E-04  0.0242
   5.4085E-01   5.5401E-01   2.6660E-04  0.0237
   5.5401E-01   5.6749E-01   2.6753E-04  0.0234
   5.6749E-01   5.8130E-01   2.7711E-04  0.0226
   5.8130E-01   5.9544E-01   2.7204E-04  0.0226
   5.9544E-01   6.0993E-01   2.7880E-04  0.0221
   6.0993E-01   6.2477E-01   2.7345E-04  0.0220
   6.2477E-01   6.3997E-01   2.8279E-04  0.0214
   6.3997E-01   6.5554E-01   2.9360E-04  0.0207
   6.5554E-01   6.7149E-01   2.9917E-04  0.0203
   6.7149E-01   6.8783E-01   2.8885E-04  0.0204
   6.8783E-01   7.0456E-01   2.9946E-04  0.0198
   7.0456E-01   7.2171E-01   2.9637E-04  0.0197
   7.2171E-01   7.3927E-01   2.9682E-04  0.0194
   7.3927E-01   7.5725E-01   3.0376E-04  0.0190
   7.5725E-01   7.7568E-01   3.0420E-04  0.0187
   7.7568E-01   7.9455E-01   3.0968E-04  0.0184
   7.9455E-01   8.1388E-01   3.1303E-04  0.0180
   8.1388E-01   8.3368E-01   3.1748E-04  0.0177
   8.3368E-01   8.5397E-01   3.1112E-04  0.0176
   8.5397E-01   8.7475E-01   3.2761E-04  0.0170
   8.7475E-01   8.9603E-01   3.3035E-04  0.0167
   8.9603E-01   9.1783E-01   3.2984E-04  0.0165
   9.1783E-01   9.4016E-01   3.3840E-04  0.0161
   9.4016E-01   9.6304E-01   3.3429E-04  0.0160
   9.6304E-01   9.8647E-01   3.4096E-04  0.0157
   9.8647E-01   1.0105E+00   3.3997E-04  0.0155
   1.0105E+00   1.0351E+00   3.3122E-04  0.0155
   1.0351E+00   1.0602E+00   3.2448E-04  0.0155
   1.0602E+00   1.0860E+00   3.3126E-04  0.0152
   1.0860E+00   1.1125E+00   3.4341E-04  0.0147
   1.1125E+00   1.1395E+00   3.2605E-04  0.0149
   1.1395E+00   1.1673E+00   3.3550E-04  0.0145
   1.1673E+00   1.1957E+00   3.4057E-04  0.0142
   1.1957E+00   1.2247E+00   3.4587E-04  0.0140
   1.2247E+00   1.2545E+00   3.4106E-04  0.0139
   1.2545E+00   1.2851E+00   3.4625E-04  0.0136
   1.2851E+00   1.3163E+00   3.3974E-04  0.0136
   1.3163E+00   1.3484E+00   3.3978E-04  0.0134
   1.3484E+00   1.3812E+00   3.4583E-04  0.0132
   1.3812E+00   1.4148E+00   3.4654E-04  0.0130
   1.4148E+00   1.4492E+00   3.4445E-04  0.0129
   1.4492E+00   1.4845E+00   3.4692E-04  0.0127
   1.4845E+00   1.5206E+00   3.5090E-04  0.0124
   1.5206E+00   1.5576E+00   3.4035E-04  0.0125
   1.5576E+00   1.5955E+00   3.4499E-04  0.0123
   1.5955E+00   1.6343E+00   3.4855E-04  0.0120
   1.6343E+00   1.6741E+00   3.4071E-04  0.0120
   1.6741E+00   1.7148E+00   3.3451E-04  0.0120
   1.7148E+00   1.7565E+00   3.3540E-04  0.0118
   1.7565E+00   1.7992E+00   3.3080E-04  0.0118
   1.7992E+00   1.8430E+00   3.3307E-04  0.0116
   1.8430E+00   1.8879E+00   3.3215E-04  0.0115
   1.8879E+00   1.9338E+00   3.3160E-04  0.0113
   1.9338E+00   1.9808E+00   3.3121E-04  0.0112
   1.9808E+00   2.0290E+00   3.2724E-04  0.0111
   2.0290E+00   2.0784E+00   3.2762E-04  0.0110
   2.0784E+00   2.1290E+00   3.2674E-04  0.0109
   2.1290E+00   2.1808E+00   3.1769E-04  0.0109
   2.1808E+00   2.2338E+00   3.1220E-04  0.0109
   2.2338E+00   2.2882E+00   3.0813E-04  0.0108
   2.2882E+00   2.3439E+00   3.1576E-04  0.0106
   2.3439E+00   2.4009E+00   3.0680E-04  0.0106
   2.4009E+00   2.4593E+00   3.1237E-04  0.0104
   2.4593E+00   2.5191E+00   3.0613E-04  0.0104
   2.5191E+00   2.5804E+00   3.0384E-04  0.0103
   2.5804E+00   2.6432E+00   2.9867E-04  0.0102
   2.6432E+00   2.7075E+00   2.9657E-04  0.0101
   2.7075E+00   2.7734E+00   2.9359E-04  0.0101
   2.7734E+00   2.8409E+00   2.8483E-04  0.0101
   2.8409E+00   2.9100E+00   2.8556E-04  0.0100
   2.9100E+00   2.9808E+00   2.8490E-04  0.0099
   2.9808E+00   3.0533E+00   2.8479E-04  0.0098
   3.0533E+00   3.1276E+00   2.8195E-04  0.0097
   3.1276E+00   3.2037E+00   2.7244E-04  0.0097
   3.2037E+00   3.2817E+00   2.6760E-04  0.0097
   3.2817E+00   3.3615E+00   2.6363E-04  0.0097
   3.3615E+00   3.4433E+00   2.6170E-04  0.0096
   3.4433E+00   3.5271E+00   2.6021E-04  0.0095
   3.5271E+00   3.6129E+00   2.5637E-04  0.0095
   3.6129E+00   3.7008E+00   2.5040E-04  0.0095
   3.7008E+00   3.7908E+00   2.4797E-04  0.0094
   3.7908E+00   3.8831E+00   2.4048E-04  0.0094
   3.8831E+00   3.9776E+00   2.3866E-04  0.0093
   3.9776E+00   4.0743E+00   2.3747E-04  0.0093
   4.0743E+00   4.1735E+00   2.3155E-04  0.0093
   4.1735E+00   4.2750E+00   2.2844E-04  0.0092
   4.2750E+00   4.3790E+00   2.2313E-04  0.0092
   4.3790E+00   4.4856E+00   2.2381E-04  0.0091
   4.4856E+00   4.5947E+00   2.1995E-04  0.0091
   4.5947E+00   4.7065E+00   2.1762E-04  0.0090
   4.7065E+00   4.8210E+00   2.1000E-04  0.0091
   4.8210E+00   4.9383E+00   2.0947E-04  0.0090
   4.9383E+00   5.0585E+00   2.0394E-04  0.0090
   5.0585E+00   5.1815E+00   2.0996E-04  0.0087
   5.1815E+00   5.3076E+00   2.0478E-04  0.0087
   5.3076E+00   5.4368E+00   2.0013E-04  0.0087
   5.4368E+00   5.5690E+00   1.9454E-04  0.0088
   5.5690E+00   5.7045E+00   1.9000E-04  0.0088
   5.7045E+00   5.8433E+00   1.9100E-04  0.0086
   5.8433E+00   5.9855E+00   1.8663E-04  0.0086
   5.9855E+00   6.1311E+00   1.8152E-04  0.0086
   6.1311E+00   6.2803E+00   1.7788E-04  0.0086
   6.2803E+00   6.4331E+00   1.7364E-04  0.0086
   6.4331E+00   6.5896E+00   1.7059E-04  0.0086
   6.5896E+00   6.7500E+00   1.6807E-04  0.0086
   6.7500E+00   6.9142E+00   1.6081E-04  0.0087
   6.9142E+00   7.0824E+00   1.6010E-04  0.0086
   7.0824E+00   7.2548E+00   1.5568E-04  0.0086
   7.2548E+00   7.4313E+00   1.5065E-04  0.0086
   7.4313E+00   7.6121E+00   1.5092E-04  0.0085
   7.6121E+00   7.7973E+00   1.4713E-04  0.0085
   7.7973E+00   7.9870E+00   1.4275E-04  0.0086
   7.9870E+00   8.1813E+00   1.3872E-04  0.0086
   8.1813E+00   8.3804E+00   1.3579E-04  0.0086
   8.3804E+00   8.5843E+00   1.3692E-04  0.0084
   8.5843E+00   8.7931E+00   1.3145E-04  0.0085
   8.7931E+00   9.0071E+00   1.2956E-04  0.0085
   9.0071E+00   9.2262E+00   1.2796E-04  0.0084
   9.2262E+00   9.4507E+00   1.2708E-04  0.0083
   9.4507E+00   9.6807E+00   1.2224E-04  0.0084
   9.6807E+00   9.9162E+00   1.2142E-04  0.0083
   9.9162E+00   1.0157E+01   1.1933E-04  0.0083
   1.0157E+01   1.0405E+01   1.1689E-04  0.0083
   1.0405E+01   1.0658E+01   1.1567E-04  0.0082
   1.0658E+01   1.0917E+01   1.1202E-04  0.0083
   1.0917E+01   1.1183E+01   1.1162E-04  0.0082
   1.1183E+01   1.1455E+01   1.1028E-04  0.0082
   1.1455E+01   1.1733E+01   1.0801E-04  0.0081
   1.1733E+01   1.2019E+01   1.0725E-04  0.0081
   1.2019E+01   1.2311E+01   1.0555E-04  0.0080
   1.2311E+01   1.2611E+01   1.0550E-04  0.0079
   1.2611E+01   1.2918E+01   1.0230E-04  0.0080
   1.2918E+01   1.3232E+01   1.0309E-04  0.0079
   1.3232E+01   1.3554E+01   1.0132E-04  0.0078
   1.3554E+01   1.3884E+01   9.8447E-05  0.0078
   1.3884E+01   1.4222E+01   1.0007E-04  0.0077
   1.4222E+01   1.4568E+01   9.6592E-05  0.0077
   1.4568E+01   1.4922E+01   9.6224E-05  0.0077
   1.4922E+01   1.5285E+01   9.6450E-05  0.0076
   1.5285E+01   1.5657E+01   9.5005E-05  0.0075
   1.5657E+01   1.6038E+01   9.3463E-05  0.0075
   1.6038E+01   1.6428E+01   9.4637E-05  0.0074
   1.6428E+01   1.6828E+01   9.1776E-05  0.0074
   1.6828E+01   1.7237E+01   9.2100E-05  0.0073
   1.7237E+01   1.7657E+01   9.2271E-05  0.0072
   1.7657E+01   1.8086E+01   9.1849E-05  0.0071
   1.8086E+01   1.8526E+01   9.1499E-05  0.0070
   1.8526E+01   1.8977E+01   9.2474E-05  0.0069
   1.8977E+01   1.9439E+01   9.2327E-05  0.0068
   1.9439E+01   1.9912E+01   9.4396E-05  0.0067
   1.9912E+01   2.0396E+01   9.5700E-05  0.0066
   2.0396E+01   2.0893E+01   9.8658E-05  0.0064
   2.0893E+01   2.1401E+01   9.7696E-05  0.0063
   2.1401E+01   2.1922E+01   9.6888E-05  0.0063
   2.1922E+01   2.2455E+01   9.9087E-05  0.0062
   2.2455E+01   2.3001E+01   9.8904E-05  0.0061
   2.3001E+01   2.3561E+01   9.9399E-05  0.0060
   2.3561E+01   2.4134E+01   1.0024E-04  0.0059
   2.4134E+01   2.4721E+01   1.0124E-04  0.0058
   2.4721E+01   2.5323E+01   1.0167E-04  0.0057
   2.5323E+01   2.5939E+01   1.0389E-04  0.0056
   2.5939E+01   2.6570E+01   1.0435E-04  0.0055
   2.6570E+01   2.7217E+01   1.0575E-04  0.0054
   2.7217E+01   2.7879E+01   1.0723E-04  0.0053
   2.7879E+01   2.8557E+01   1.0888E-04  0.0052
   2.8557E+01   2.9252E+01   1.1102E-04  0.0051
   2.9252E+01   2.9964E+01   1.1264E-04  0.0050
   2.9964E+01   3.0693E+01   1.1592E-04  0.0049
   3.0693E+01   3.1440E+01   1.1794E-04  0.0048
   3.1440E+01   3.2205E+01   1.2126E-04  0.0046
   3.2205E+01   3.2988E+01   1.2538E-04  0.0045
   3.2988E+01   3.3791E+01   1.2757E-04  0.0044
   3.3791E+01   3.4613E+01   1.3328E-04  0.0043
   3.4613E+01   3.5455E+01   1.3569E-04  0.0042
   3.5455E+01   3.6318E+01   1.4059E-04  0.0041
   3.6318E+01   3.7201E+01   1.4722E-04  0.0039
   3.7201E+01   3.8106E+01   1.5153E-04  0.0038
   3.8106E+01   3.9034E+01   1.5753E-04  0.0037
   3.9034E+01   3.9983E+01   1.6438E-04  0.0036
   3.9983E+01   4.0956E+01   1.7002E-04  0.0035
   4.0956E+01   4.1953E+01   1.7829E-04  0.0034
   4.1953E+01   4.2973E+01   1.8577E-04  0.0032
   4.2973E+01   4.4019E+01   1.9294E-04  0.0031
   4.4019E+01   4.5090E+01   2.0066E-04  0.0031
   4.5090E+01   4.6187E+01   2.0838E-04  0.0030
   4.6187E+01   4.7311E+01   2.1605E-04  0.0029
   4.7311E+01   4.8462E+01   2.2364E-04  0.0028
   4.8462E+01   4.9641E+01   2.3203E-04  0.0027
   4.9641E+01   5.0849E+01   2.3874E-04  0.0026
   5.0849E+01   5.2086E+01   2.4674E-04  0.0026
   5.2086E+01   5.3353E+01   2.5232E-04  0.0025
   5.3353E+01   5.4651E+01   2.5899E-04  0.0024
   5.4651E+01   5.5981E+01   2.6418E-04  0.0024
   5.5981E+01   5.7343E+01   2.6699E-04  0.0023
   5.7343E+01   5.8738E+01   2.6836E-04  0.0023
   5.8738E+01   6.0168E+01   2.7035E-04  0.0023
   6.0168E+01   6.1632E+01   2.7004E-04  0.0022
   6.1632E+01   6.3131E+01   2.6872E-04  0.0022
   6.3131E+01   6.4667E+01   2.6469E-04  0.0022
   6.4667E+01   6.6240E+01   2.6050E-04  0.0022
   6.6240E+01   6.7852E+01   2.5312E-04  0.0022
   6.7852E+01   6.9503E+01   2.4576E-04  0.0022
   6.9503E+01   7.1194E+01   2.3587E-04  0.0022
   7.1194E+01   7.2926E+01   2.2633E-04  0.0023
   7.2926E+01   7.4701E+01   2.1412E-04  0.0023
   7.4701E+01   7.6518E+01   2.0192E-04  0.0023
   7.6518E+01   7.8380E+01   1.8858E-04  0.0024
   7.8380E+01   8.0287E+01   1.7616E-04  0.0024
   8.0287E+01   8.2240E+01   1.6238E-04  0.0025
   8.2240E+01   8.4241E+01   1.4887E-04  0.0026
   8.4241E+01   8.6291E+01   1.3603E-04  0.0027
   8.6291E+01   8.8391E+01   1.2336E-04  0.0028
   8.8391E+01   9.0541E+01   1.1227E-04  0.0029
   9.0541E+01   9.2744E+01   1.0055E-04  0.0030
   9.2744E+01   9.5001E+01   8.9943E-05  0.0031
   9.5001E+01   9.7312E+01   7.9288E-05  0.0033
   9.7312E+01   9.9680E+01   7.0074E-05  0.0035
   9.9680E+01   1.0211E+02   6.2506E-05  0.0036
   1.0211E+02   1.0459E+02   5.6562E-05  0.0038
   1.0459E+02   1.0713E+02   5.0096E-05  0.0040
   1.0713E+02   1.0974E+02   4.3406E-05  0.0042
   1.0974E+02   1.1241E+02   3.6698E-05  0.0045
   1.1241E+02   1.1515E+02   3.1458E-05  0.0048
   1.1515E+02   1.1795E+02   2.6274E-05  0.0052
   1.1795E+02   1.2082E+02   2.1975E-05  0.0056
   1.2082E+02   1.2376E+02   1.8154E-05  0.0061
   1.2376E+02   1.2677E+02   1.4564E-05  0.0068
   1.2677E+02   1.2985E+02   1.1949E-05  0.0074
   1.2985E+02   1.3301E+02   9.5284E-06  0.0082
   1.3301E+02   1.3625E+02   7.7558E-06  0.0089
   1.3625E+02   1.3956E+02   6.1061E-06  0.0099
   1.3956E+02   1.4296E+02   4.9793E-06  0.0109
   1.4296E+02   1.4644E+02   3.5040E-06  0.0128
   1.4644E+02   1.5000E+02   1.0716E-06  0.0229

#   sum over                 1.2089E-04
'no. =    1   reg = 105 - 205'
msuc: {\huge [t-cross] in region mesh}
msdr: {\it plotted by \ANGEL \version}
msdl: {\it calculated by \PHITS  3.26}
wt: s(0.7)
\vspace{-3}
  region surface crossing
  area  &=&   1.0000E+00 [cm^2]
e:
 
# Information for Restart Calculation
# This calculation was newly started
# istdev =  2 # 1:Batch variance, 2:History variance
# resc2  = 5.00000000000000000E+08 # Total source weight or Total source weight / maxcas
# resc3  = 5.00000000000000000E+08 # Total history number or Total batch number
# maxcas =   500000000 # History / Batch, only used for istdev=1
# bitrseed = 1101101111010011011000101101110001100110110010110001010100010001 # bit data of rseed
