[ T-Cross ]
    title = [t-cross] in region mesh
     mesh =  reg            # mesh type is region-wise
      reg =    1            # number of crossing regions
      non     r-from    r-to       area
      1       114       214        1.000000    
   e-type =    3            # e-mesh is log given by emin, emax and ne
     emin =  1.0000000E-02  # minimum value of e-mesh points
     emax =   150.0000      # maximum value of e-mesh points
#    edel =  2.4039514E-02  # mesh width of e-mesh points
       ne =    400          # number of e-mesh points
#    data = ( e(i), i = 1, ne + 1 )
#           1.00000E-02  1.02433E-02  1.04925E-02  1.07478E-02  1.10093E-02
#           1.12772E-02  1.15516E-02  1.18326E-02  1.21205E-02  1.24154E-02
#           1.27175E-02  1.30269E-02  1.33439E-02  1.36686E-02  1.40011E-02
#           1.43418E-02  1.46907E-02  1.50482E-02  1.54143E-02  1.57894E-02
#           1.61735E-02  1.65670E-02  1.69701E-02  1.73830E-02  1.78060E-02
#           1.82392E-02  1.86830E-02  1.91375E-02  1.96032E-02  2.00801E-02
#           2.05687E-02  2.10692E-02  2.15818E-02  2.21069E-02  2.26448E-02
#           2.31957E-02  2.37601E-02  2.43382E-02  2.49304E-02  2.55369E-02
#           2.61583E-02  2.67947E-02  2.74467E-02  2.81145E-02  2.87985E-02
#           2.94992E-02  3.02169E-02  3.09521E-02  3.17052E-02  3.24766E-02
#           3.32668E-02  3.40762E-02  3.49053E-02  3.57546E-02  3.66246E-02
#           3.75157E-02  3.84284E-02  3.93634E-02  4.03212E-02  4.13022E-02
#           4.23071E-02  4.33365E-02  4.43909E-02  4.54710E-02  4.65773E-02
#           4.77106E-02  4.88714E-02  5.00605E-02  5.12785E-02  5.25262E-02
#           5.38042E-02  5.51133E-02  5.64542E-02  5.78278E-02  5.92348E-02
#           6.06760E-02  6.21523E-02  6.36645E-02  6.52135E-02  6.68002E-02
#           6.84255E-02  7.00904E-02  7.17957E-02  7.35426E-02  7.53319E-02
#           7.71648E-02  7.90423E-02  8.09655E-02  8.29354E-02  8.49533E-02
#           8.70203E-02  8.91376E-02  9.13064E-02  9.35279E-02  9.58035E-02
#           9.81345E-02  1.00522E-01  1.02968E-01  1.05473E-01  1.08040E-01
#           1.10668E-01  1.13361E-01  1.16119E-01  1.18944E-01  1.21838E-01
#           1.24803E-01  1.27839E-01  1.30950E-01  1.34136E-01  1.37399E-01
#           1.40742E-01  1.44167E-01  1.47675E-01  1.51268E-01  1.54948E-01
#           1.58718E-01  1.62580E-01  1.66535E-01  1.70587E-01  1.74738E-01
#           1.78989E-01  1.83344E-01  1.87805E-01  1.92375E-01  1.97055E-01
#           2.01850E-01  2.06761E-01  2.11792E-01  2.16945E-01  2.22223E-01
#           2.27630E-01  2.33169E-01  2.38842E-01  2.44653E-01  2.50605E-01
#           2.56703E-01  2.62949E-01  2.69346E-01  2.75900E-01  2.82613E-01
#           2.89489E-01  2.96532E-01  3.03747E-01  3.11138E-01  3.18708E-01
#           3.26462E-01  3.34405E-01  3.42542E-01  3.50876E-01  3.59413E-01
#           3.68158E-01  3.77116E-01  3.86291E-01  3.95690E-01  4.05317E-01
#           4.15179E-01  4.25281E-01  4.35628E-01  4.46227E-01  4.57084E-01
#           4.68205E-01  4.79597E-01  4.91266E-01  5.03219E-01  5.15463E-01
#           5.28005E-01  5.40851E-01  5.54011E-01  5.67490E-01  5.81298E-01
#           5.95441E-01  6.09929E-01  6.24769E-01  6.39970E-01  6.55541E-01
#           6.71491E-01  6.87828E-01  7.04564E-01  7.21706E-01  7.39266E-01
#           7.57253E-01  7.75678E-01  7.94551E-01  8.13883E-01  8.33685E-01
#           8.53969E-01  8.74747E-01  8.96030E-01  9.17831E-01  9.40163E-01
#           9.63038E-01  9.86469E-01  1.01047E+00  1.03506E+00  1.06024E+00
#           1.08604E+00  1.11246E+00  1.13953E+00  1.16725E+00  1.19565E+00
#           1.22474E+00  1.25454E+00  1.28507E+00  1.31633E+00  1.34836E+00
#           1.38117E+00  1.41477E+00  1.44920E+00  1.48446E+00  1.52057E+00
#           1.55757E+00  1.59547E+00  1.63429E+00  1.67405E+00  1.71478E+00
#           1.75650E+00  1.79924E+00  1.84302E+00  1.88786E+00  1.93379E+00
#           1.98084E+00  2.02904E+00  2.07841E+00  2.12898E+00  2.18078E+00
#           2.23384E+00  2.28819E+00  2.34386E+00  2.40089E+00  2.45930E+00
#           2.51914E+00  2.58043E+00  2.64322E+00  2.70753E+00  2.77341E+00
#           2.84088E+00  2.91001E+00  2.98081E+00  3.05333E+00  3.12762E+00
#           3.20372E+00  3.28167E+00  3.36152E+00  3.44330E+00  3.52708E+00
#           3.61290E+00  3.70080E+00  3.79085E+00  3.88308E+00  3.97756E+00
#           4.07434E+00  4.17347E+00  4.27501E+00  4.37903E+00  4.48557E+00
#           4.59471E+00  4.70650E+00  4.82102E+00  4.93832E+00  5.05847E+00
#           5.18155E+00  5.30762E+00  5.43676E+00  5.56904E+00  5.70453E+00
#           5.84333E+00  5.98550E+00  6.13114E+00  6.28031E+00  6.43312E+00
#           6.58964E+00  6.74997E+00  6.91420E+00  7.08243E+00  7.25475E+00
#           7.43126E+00  7.61207E+00  7.79728E+00  7.98700E+00  8.18133E+00
#           8.38038E+00  8.58428E+00  8.79315E+00  9.00709E+00  9.22624E+00
#           9.45072E+00  9.68067E+00  9.91620E+00  1.01575E+01  1.04046E+01
#           1.06578E+01  1.09171E+01  1.11827E+01  1.14548E+01  1.17335E+01
#           1.20190E+01  1.23114E+01  1.26109E+01  1.29178E+01  1.32321E+01
#           1.35540E+01  1.38838E+01  1.42216E+01  1.45676E+01  1.49221E+01
#           1.52851E+01  1.56570E+01  1.60380E+01  1.64282E+01  1.68279E+01
#           1.72374E+01  1.76568E+01  1.80864E+01  1.85264E+01  1.89772E+01
#           1.94389E+01  1.99119E+01  2.03963E+01  2.08926E+01  2.14009E+01
#           2.19216E+01  2.24550E+01  2.30014E+01  2.35610E+01  2.41343E+01
#           2.47215E+01  2.53230E+01  2.59391E+01  2.65702E+01  2.72167E+01
#           2.78789E+01  2.85572E+01  2.92520E+01  2.99637E+01  3.06928E+01
#           3.14396E+01  3.22045E+01  3.29881E+01  3.37907E+01  3.46128E+01
#           3.54550E+01  3.63177E+01  3.72013E+01  3.81064E+01  3.90336E+01
#           3.99833E+01  4.09561E+01  4.19526E+01  4.29734E+01  4.40189E+01
#           4.50900E+01  4.61870E+01  4.73108E+01  4.84619E+01  4.96410E+01
#           5.08488E+01  5.20860E+01  5.33533E+01  5.46514E+01  5.59812E+01
#           5.73432E+01  5.87384E+01  6.01676E+01  6.16315E+01  6.31311E+01
#           6.46671E+01  6.62405E+01  6.78522E+01  6.95031E+01  7.11941E+01
#           7.29263E+01  7.47007E+01  7.65182E+01  7.83800E+01  8.02870E+01
#           8.22405E+01  8.42414E+01  8.62911E+01  8.83906E+01  9.05412E+01
#           9.27442E+01  9.50007E+01  9.73122E+01  9.96799E+01  1.02105E+02
#           1.04589E+02  1.07134E+02  1.09741E+02  1.12411E+02  1.15146E+02
#           1.17948E+02  1.20817E+02  1.23757E+02  1.26768E+02  1.29852E+02
#           1.33012E+02  1.36248E+02  1.39563E+02  1.42959E+02  1.46437E+02
#           1.50000E+02
     unit =    2            # unit is [1/cm^2/(MeV/n)/source]
     axis =  eng            # axis of output
     file = detector-15.out  # file name of output for the above axis
   output = f-curr          # surface crossing forward current spectrum
     part =  neutron  
# kf/name :  2112     
#    used :        main (  %)        temp (  %)       total (  %)
#  memory :         414 (  0)           0 (  0)         414 (  0)

#------------------------------------------------------------------------------
#newpage:
#   no. =    1   reg = 114 - 214

x: Energy [MeV/n]
y:  F-Curr [1/cm^2/(MeV/n)/source]         
p: xlog ylog afac(0.8) form(0.9)
h: n            x            y(neutron ),hh0l   n 
#  e-lower      e-upper      neutron     r.err 
   1.0000E-02   1.0243E-02   1.1916E-03  0.0827
   1.0243E-02   1.0493E-02   1.2908E-03  0.0786
   1.0493E-02   1.0748E-02   1.2069E-03  0.0802
   1.0748E-02   1.1009E-02   1.2072E-03  0.0793
   1.1009E-02   1.1277E-02   1.0810E-03  0.0829
   1.1277E-02   1.1552E-02   1.0194E-03  0.0844
   1.1552E-02   1.1833E-02   1.1171E-03  0.0795
   1.1833E-02   1.2121E-02   1.1345E-03  0.0780
   1.2121E-02   1.2415E-02   1.0851E-03  0.0786
   1.2415E-02   1.2718E-02   1.0544E-03  0.0789
   1.2718E-02   1.3027E-02   1.2388E-03  0.0722
   1.3027E-02   1.3344E-02   1.1787E-03  0.0729
   1.3344E-02   1.3669E-02   1.0131E-03  0.0778
   1.3669E-02   1.4001E-02   1.1012E-03  0.0737
   1.4001E-02   1.4342E-02   9.5245E-04  0.0783
   1.4342E-02   1.4691E-02   1.0011E-03  0.0754
   1.4691E-02   1.5048E-02   9.1917E-04  0.0778
   1.5048E-02   1.5414E-02   9.4610E-04  0.0757
   1.5414E-02   1.5789E-02   8.2401E-04  0.0803
   1.5789E-02   1.6174E-02   8.7547E-04  0.0770
   1.6174E-02   1.6567E-02   7.6643E-04  0.0812
   1.6567E-02   1.6970E-02   8.3792E-04  0.0767
   1.6970E-02   1.7383E-02   7.7880E-04  0.0787
   1.7383E-02   1.7806E-02   8.1518E-04  0.0758
   1.7806E-02   1.8239E-02   8.4567E-04  0.0736
   1.8239E-02   1.8683E-02   8.2548E-04  0.0739
   1.8683E-02   1.9138E-02   8.4402E-04  0.0720
   1.9138E-02   1.9603E-02   7.9967E-04  0.0729
   1.9603E-02   2.0080E-02   7.0795E-04  0.0768
   2.0080E-02   2.0569E-02   7.6367E-04  0.0731
   2.0569E-02   2.1069E-02   7.4243E-04  0.0732
   2.1069E-02   2.1582E-02   6.5851E-04  0.0766
   2.1582E-02   2.2107E-02   6.8248E-04  0.0744
   2.2107E-02   2.2645E-02   6.8820E-04  0.0734
   2.2645E-02   2.3196E-02   7.3338E-04  0.0701
   2.3196E-02   2.3760E-02   6.9572E-04  0.0712
   2.3760E-02   2.4338E-02   5.8603E-04  0.0766
   2.4338E-02   2.4930E-02   5.8661E-04  0.0756
   2.4930E-02   2.5537E-02   6.6790E-04  0.0700
   2.5537E-02   2.6158E-02   5.7507E-04  0.0746
   2.6158E-02   2.6795E-02   5.5954E-04  0.0747
   2.6795E-02   2.7447E-02   6.2672E-04  0.0696
   2.7447E-02   2.8114E-02   5.6551E-04  0.0727
   2.8114E-02   2.8799E-02   6.5300E-04  0.0667
   2.8799E-02   2.9499E-02   5.6497E-04  0.0708
   2.9499E-02   3.0217E-02   5.0282E-04  0.0743
   3.0217E-02   3.0952E-02   4.9606E-04  0.0738
   3.0952E-02   3.1705E-02   5.2987E-04  0.0706
   3.1705E-02   3.2477E-02   5.4434E-04  0.0688
   3.2477E-02   3.3267E-02   4.7021E-04  0.0730
   3.3267E-02   3.4076E-02   4.4043E-04  0.0745
   3.4076E-02   3.4905E-02   4.8867E-04  0.0698
   3.4905E-02   3.5755E-02   4.8608E-04  0.0694
   3.5755E-02   3.6625E-02   4.3681E-04  0.0725
   3.6625E-02   3.7516E-02   4.7950E-04  0.0682
   3.7516E-02   3.8428E-02   4.6287E-04  0.0685
   3.8428E-02   3.9363E-02   4.3579E-04  0.0698
   3.9363E-02   4.0321E-02   4.6249E-04  0.0670
   4.0321E-02   4.1302E-02   4.1646E-04  0.0697
   4.1302E-02   4.2307E-02   4.2892E-04  0.0679
   4.2307E-02   4.3337E-02   3.9110E-04  0.0702
   4.3337E-02   4.4391E-02   4.1880E-04  0.0670
   4.4391E-02   4.5471E-02   3.8570E-04  0.0691
   4.5471E-02   4.6577E-02   3.7173E-04  0.0696
   4.6577E-02   4.7711E-02   3.6058E-04  0.0699
   4.7711E-02   4.8871E-02   4.1098E-04  0.0646
   4.8871E-02   5.0061E-02   3.7994E-04  0.0664
   5.0061E-02   5.1279E-02   3.9847E-04  0.0640
   5.1279E-02   5.2526E-02   3.1420E-04  0.0710
   5.2526E-02   5.3804E-02   2.7557E-04  0.0752
   5.3804E-02   5.5113E-02   3.2401E-04  0.0685
   5.5113E-02   5.6454E-02   3.2211E-04  0.0679
   5.6454E-02   5.7828E-02   3.2458E-04  0.0668
   5.7828E-02   5.9235E-02   3.1969E-04  0.0664
   5.9235E-02   6.0676E-02   2.7055E-04  0.0713
   6.0676E-02   6.2152E-02   3.3281E-04  0.0637
   6.2152E-02   6.3665E-02   3.1896E-04  0.0641
   6.3665E-02   6.5214E-02   2.8745E-04  0.0668
   6.5214E-02   6.6800E-02   3.2331E-04  0.0623
   6.6800E-02   6.8426E-02   2.5773E-04  0.0686
   6.8426E-02   7.0090E-02   2.6514E-04  0.0670
   7.0090E-02   7.1796E-02   2.7525E-04  0.0650
   7.1796E-02   7.3543E-02   2.6021E-04  0.0662
   7.3543E-02   7.5332E-02   2.7387E-04  0.0637
   7.5332E-02   7.7165E-02   2.3402E-04  0.0681
   7.7165E-02   7.9042E-02   2.6045E-04  0.0638
   7.9042E-02   8.0965E-02   2.4912E-04  0.0644
   8.0965E-02   8.2935E-02   2.4723E-04  0.0639
   8.2935E-02   8.4953E-02   2.4431E-04  0.0634
   8.4953E-02   8.7020E-02   2.3284E-04  0.0642
   8.7020E-02   8.9138E-02   2.3276E-04  0.0635
   8.9138E-02   9.1306E-02   2.2144E-04  0.0644
   9.1306E-02   9.3528E-02   2.3501E-04  0.0617
   9.3528E-02   9.5804E-02   2.0473E-04  0.0653
   9.5804E-02   9.8134E-02   2.1651E-04  0.0629
   9.8134E-02   1.0052E-01   2.0322E-04  0.0640
   1.0052E-01   1.0297E-01   1.9457E-04  0.0646
   1.0297E-01   1.0547E-01   2.0137E-04  0.0629
   1.0547E-01   1.0804E-01   1.9045E-04  0.0637
   1.0804E-01   1.1067E-01   2.0590E-04  0.0604
   1.1067E-01   1.1336E-01   1.7484E-04  0.0649
   1.1336E-01   1.1612E-01   1.8660E-04  0.0621
   1.1612E-01   1.1894E-01   1.7256E-04  0.0638
   1.1894E-01   1.2184E-01   1.7128E-04  0.0633
   1.2184E-01   1.2480E-01   1.6206E-04  0.0644
   1.2480E-01   1.2784E-01   1.6901E-04  0.0621
   1.2784E-01   1.3095E-01   1.6173E-04  0.0629
   1.3095E-01   1.3414E-01   1.5748E-04  0.0629
   1.3414E-01   1.3740E-01   1.5636E-04  0.0623
   1.3740E-01   1.4074E-01   1.6861E-04  0.0594
   1.4074E-01   1.4417E-01   1.4717E-04  0.0629
   1.4417E-01   1.4767E-01   1.5135E-04  0.0612
   1.4767E-01   1.5127E-01   1.2396E-04  0.0667
   1.5127E-01   1.5495E-01   1.4415E-04  0.0612
   1.5495E-01   1.5872E-01   1.3237E-04  0.0631
   1.5872E-01   1.6258E-01   1.2954E-04  0.0631
   1.6258E-01   1.6654E-01   1.3872E-04  0.0601
   1.6654E-01   1.7059E-01   1.4706E-04  0.0578
   1.7059E-01   1.7474E-01   1.3744E-04  0.0591
   1.7474E-01   1.7899E-01   1.1444E-04  0.0639
   1.7899E-01   1.8334E-01   1.1937E-04  0.0619
   1.8334E-01   1.8781E-01   1.1685E-04  0.0618
   1.8781E-01   1.9237E-01   1.2886E-04  0.0581
   1.9237E-01   1.9706E-01   1.1621E-04  0.0603
   1.9706E-01   2.0185E-01   1.1189E-04  0.0607
   2.0185E-01   2.0676E-01   1.2352E-04  0.0573
   2.0676E-01   2.1179E-01   1.2540E-04  0.0561
   2.1179E-01   2.1694E-01   1.3550E-04  0.0534
   2.1694E-01   2.2222E-01   1.3950E-04  0.0519
   2.2222E-01   2.2763E-01   1.3773E-04  0.0516
   2.2763E-01   2.3317E-01   1.4767E-04  0.0493
   2.3317E-01   2.3884E-01   1.4150E-04  0.0497
   2.3884E-01   2.4465E-01   1.4313E-04  0.0489
   2.4465E-01   2.5061E-01   1.6124E-04  0.0455
   2.5061E-01   2.5670E-01   1.5211E-04  0.0462
   2.5670E-01   2.6295E-01   1.6266E-04  0.0442
   2.6295E-01   2.6935E-01   1.7000E-04  0.0427
   2.6935E-01   2.7590E-01   1.6851E-04  0.0425
   2.7590E-01   2.8261E-01   1.7715E-04  0.0409
   2.8261E-01   2.8949E-01   1.7871E-04  0.0402
   2.8949E-01   2.9653E-01   1.9382E-04  0.0381
   2.9653E-01   3.0375E-01   1.9528E-04  0.0376
   3.0375E-01   3.1114E-01   1.9540E-04  0.0371
   3.1114E-01   3.1871E-01   1.8588E-04  0.0376
   3.1871E-01   3.2646E-01   1.8837E-04  0.0369
   3.2646E-01   3.3441E-01   2.1166E-04  0.0344
   3.3441E-01   3.4254E-01   2.0611E-04  0.0344
   3.4254E-01   3.5088E-01   2.2672E-04  0.0324
   3.5088E-01   3.5941E-01   2.2413E-04  0.0322
   3.5941E-01   3.6816E-01   2.3032E-04  0.0314
   3.6816E-01   3.7712E-01   2.3638E-04  0.0306
   3.7712E-01   3.8629E-01   2.3408E-04  0.0304
   3.8629E-01   3.9569E-01   2.3314E-04  0.0301
   3.9569E-01   4.0532E-01   2.4618E-04  0.0290
   4.0532E-01   4.1518E-01   2.4858E-04  0.0284
   4.1518E-01   4.2528E-01   2.5225E-04  0.0279
   4.2528E-01   4.3563E-01   2.5451E-04  0.0274
   4.3563E-01   4.4623E-01   2.5714E-04  0.0270
   4.4623E-01   4.5708E-01   2.6738E-04  0.0262
   4.5708E-01   4.6821E-01   2.5266E-04  0.0266
   4.6821E-01   4.7960E-01   2.5709E-04  0.0260
   4.7960E-01   4.9127E-01   2.8118E-04  0.0246
   4.9127E-01   5.0322E-01   2.7893E-04  0.0244
   5.0322E-01   5.1546E-01   2.8348E-04  0.0239
   5.1546E-01   5.2800E-01   2.9093E-04  0.0233
   5.2800E-01   5.4085E-01   2.9395E-04  0.0229
   5.4085E-01   5.5401E-01   2.8355E-04  0.0230
   5.5401E-01   5.6749E-01   2.8297E-04  0.0228
   5.6749E-01   5.8130E-01   3.0141E-04  0.0218
   5.8130E-01   5.9544E-01   2.9685E-04  0.0217
   5.9544E-01   6.0993E-01   2.8533E-04  0.0219
   6.0993E-01   6.2477E-01   3.0062E-04  0.0211
   6.2477E-01   6.3997E-01   2.8763E-04  0.0213
   6.3997E-01   6.5554E-01   3.0528E-04  0.0204
   6.5554E-01   6.7149E-01   2.8924E-04  0.0207
   6.7149E-01   6.8783E-01   2.8891E-04  0.0205
   6.8783E-01   7.0456E-01   2.8560E-04  0.0204
   7.0456E-01   7.2171E-01   2.9344E-04  0.0198
   7.2171E-01   7.3927E-01   2.9250E-04  0.0196
   7.3927E-01   7.5725E-01   2.8728E-04  0.0196
   7.5725E-01   7.7568E-01   2.8955E-04  0.0193
   7.7568E-01   7.9455E-01   2.8591E-04  0.0192
   7.9455E-01   8.1388E-01   2.8025E-04  0.0191
   8.1388E-01   8.3368E-01   2.7466E-04  0.0191
   8.3368E-01   8.5397E-01   2.6861E-04  0.0191
   8.5397E-01   8.7475E-01   2.6978E-04  0.0188
   8.7475E-01   8.9603E-01   2.6550E-04  0.0187
   8.9603E-01   9.1783E-01   2.6365E-04  0.0186
   9.1783E-01   9.4016E-01   2.6104E-04  0.0184
   9.4016E-01   9.6304E-01   2.5409E-04  0.0185
   9.6304E-01   9.8647E-01   2.4976E-04  0.0184
   9.8647E-01   1.0105E+00   2.3836E-04  0.0186
   1.0105E+00   1.0351E+00   2.4793E-04  0.0180
   1.0351E+00   1.0602E+00   2.5969E-04  0.0174
   1.0602E+00   1.0860E+00   2.6053E-04  0.0172
   1.0860E+00   1.1125E+00   2.7127E-04  0.0166
   1.1125E+00   1.1395E+00   2.7401E-04  0.0163
   1.1395E+00   1.1673E+00   2.8629E-04  0.0158
   1.1673E+00   1.1957E+00   2.9256E-04  0.0154
   1.1957E+00   1.2247E+00   3.0233E-04  0.0150
   1.2247E+00   1.2545E+00   3.1037E-04  0.0146
   1.2545E+00   1.2851E+00   3.1843E-04  0.0143
   1.2851E+00   1.3163E+00   3.2458E-04  0.0140
   1.3163E+00   1.3484E+00   3.3042E-04  0.0137
   1.3484E+00   1.3812E+00   3.3655E-04  0.0134
   1.3812E+00   1.4148E+00   3.4578E-04  0.0130
   1.4148E+00   1.4492E+00   3.5470E-04  0.0127
   1.4492E+00   1.4845E+00   3.6795E-04  0.0124
   1.4845E+00   1.5206E+00   3.6498E-04  0.0122
   1.5206E+00   1.5576E+00   3.7199E-04  0.0120
   1.5576E+00   1.5955E+00   3.7402E-04  0.0118
   1.5955E+00   1.6343E+00   3.7529E-04  0.0117
   1.6343E+00   1.6741E+00   3.8947E-04  0.0113
   1.6741E+00   1.7148E+00   4.0333E-04  0.0110
   1.7148E+00   1.7565E+00   3.9873E-04  0.0109
   1.7565E+00   1.7992E+00   4.0089E-04  0.0107
   1.7992E+00   1.8430E+00   4.0978E-04  0.0105
   1.8430E+00   1.8879E+00   4.0497E-04  0.0104
   1.8879E+00   1.9338E+00   4.1479E-04  0.0102
   1.9338E+00   1.9808E+00   4.2134E-04  0.0100
   1.9808E+00   2.0290E+00   4.3041E-04  0.0098
   2.0290E+00   2.0784E+00   4.3173E-04  0.0096
   2.0784E+00   2.1290E+00   4.3017E-04  0.0095
   2.1290E+00   2.1808E+00   4.1562E-04  0.0096
   2.1808E+00   2.2338E+00   4.2550E-04  0.0094
   2.2338E+00   2.2882E+00   4.2305E-04  0.0093
   2.2882E+00   2.3439E+00   4.1939E-04  0.0092
   2.3439E+00   2.4009E+00   4.3102E-04  0.0090
   2.4009E+00   2.4593E+00   4.3320E-04  0.0088
   2.4593E+00   2.5191E+00   4.2769E-04  0.0088
   2.5191E+00   2.5804E+00   4.2230E-04  0.0087
   2.5804E+00   2.6432E+00   4.1762E-04  0.0087
   2.6432E+00   2.7075E+00   4.1768E-04  0.0086
   2.7075E+00   2.7734E+00   4.0957E-04  0.0086
   2.7734E+00   2.8409E+00   4.1098E-04  0.0084
   2.8409E+00   2.9100E+00   4.1084E-04  0.0083
   2.9100E+00   2.9808E+00   4.0859E-04  0.0083
   2.9808E+00   3.0533E+00   4.0513E-04  0.0082
   3.0533E+00   3.1276E+00   3.9346E-04  0.0082
   3.1276E+00   3.2037E+00   3.8673E-04  0.0082
   3.2037E+00   3.2817E+00   3.8461E-04  0.0081
   3.2817E+00   3.3615E+00   3.7731E-04  0.0081
   3.3615E+00   3.4433E+00   3.6952E-04  0.0081
   3.4433E+00   3.5271E+00   3.6439E-04  0.0080
   3.5271E+00   3.6129E+00   3.5377E-04  0.0081
   3.6129E+00   3.7008E+00   3.5360E-04  0.0080
   3.7008E+00   3.7908E+00   3.4595E-04  0.0080
   3.7908E+00   3.8831E+00   3.3826E-04  0.0080
   3.8831E+00   3.9776E+00   3.3063E-04  0.0080
   3.9776E+00   4.0743E+00   3.2106E-04  0.0080
   4.0743E+00   4.1735E+00   3.1736E-04  0.0079
   4.1735E+00   4.2750E+00   3.0248E-04  0.0080
   4.2750E+00   4.3790E+00   2.9614E-04  0.0080
   4.3790E+00   4.4856E+00   2.8733E-04  0.0080
   4.4856E+00   4.5947E+00   2.8144E-04  0.0080
   4.5947E+00   4.7065E+00   2.7353E-04  0.0080
   4.7065E+00   4.8210E+00   2.6516E-04  0.0081
   4.8210E+00   4.9383E+00   2.5710E-04  0.0081
   4.9383E+00   5.0585E+00   2.4858E-04  0.0081
   5.0585E+00   5.1815E+00   2.3826E-04  0.0082
   5.1815E+00   5.3076E+00   2.3250E-04  0.0082
   5.3076E+00   5.4368E+00   2.2186E-04  0.0083
   5.4368E+00   5.5690E+00   2.1528E-04  0.0083
   5.5690E+00   5.7045E+00   2.0355E-04  0.0085
   5.7045E+00   5.8433E+00   1.9720E-04  0.0085
   5.8433E+00   5.9855E+00   1.8993E-04  0.0086
   5.9855E+00   6.1311E+00   1.8626E-04  0.0085
   6.1311E+00   6.2803E+00   1.7540E-04  0.0087
   6.2803E+00   6.4331E+00   1.7020E-04  0.0087
   6.4331E+00   6.5896E+00   1.6110E-04  0.0089
   6.5896E+00   6.7500E+00   1.5591E-04  0.0089
   6.7500E+00   6.9142E+00   1.5180E-04  0.0089
   6.9142E+00   7.0824E+00   1.4144E-04  0.0091
   7.0824E+00   7.2548E+00   1.3837E-04  0.0091
   7.2548E+00   7.4313E+00   1.2900E-04  0.0093
   7.4313E+00   7.6121E+00   1.2441E-04  0.0094
   7.6121E+00   7.7973E+00   1.1824E-04  0.0095
   7.7973E+00   7.9870E+00   1.1244E-04  0.0096
   7.9870E+00   8.1813E+00   1.0820E-04  0.0097
   8.1813E+00   8.3804E+00   1.0169E-04  0.0099
   8.3804E+00   8.5843E+00   9.6077E-05  0.0101
   8.5843E+00   8.7931E+00   9.2626E-05  0.0101
   8.7931E+00   9.0071E+00   8.9033E-05  0.0102
   9.0071E+00   9.2262E+00   8.4158E-05  0.0104
   9.2262E+00   9.4507E+00   8.0285E-05  0.0105
   9.4507E+00   9.6807E+00   7.8407E-05  0.0105
   9.6807E+00   9.9162E+00   7.2583E-05  0.0108
   9.9162E+00   1.0157E+01   7.1174E-05  0.0108
   1.0157E+01   1.0405E+01   6.7891E-05  0.0109
   1.0405E+01   1.0658E+01   6.9922E-05  0.0106
   1.0658E+01   1.0917E+01   6.5715E-05  0.0108
   1.0917E+01   1.1183E+01   6.4427E-05  0.0108
   1.1183E+01   1.1455E+01   6.2991E-05  0.0108
   1.1455E+01   1.1733E+01   5.9026E-05  0.0110
   1.1733E+01   1.2019E+01   5.6401E-05  0.0111
   1.2019E+01   1.2311E+01   5.4019E-05  0.0112
   1.2311E+01   1.2611E+01   5.1366E-05  0.0114
   1.2611E+01   1.2918E+01   4.8234E-05  0.0116
   1.2918E+01   1.3232E+01   4.6821E-05  0.0116
   1.3232E+01   1.3554E+01   4.4923E-05  0.0117
   1.3554E+01   1.3884E+01   4.1201E-05  0.0121
   1.3884E+01   1.4222E+01   4.1416E-05  0.0119
   1.4222E+01   1.4568E+01   3.7973E-05  0.0123
   1.4568E+01   1.4922E+01   3.6011E-05  0.0125
   1.4922E+01   1.5285E+01   3.3357E-05  0.0128
   1.5285E+01   1.5657E+01   3.1828E-05  0.0130
   1.5657E+01   1.6038E+01   2.9687E-05  0.0133
   1.6038E+01   1.6428E+01   2.7939E-05  0.0135
   1.6428E+01   1.6828E+01   2.6125E-05  0.0138
   1.6828E+01   1.7237E+01   2.5709E-05  0.0138
   1.7237E+01   1.7657E+01   2.3161E-05  0.0143
   1.7657E+01   1.8086E+01   2.2374E-05  0.0144
   1.8086E+01   1.8526E+01   2.0198E-05  0.0150
   1.8526E+01   1.8977E+01   1.9714E-05  0.0150
   1.8977E+01   1.9439E+01   1.8596E-05  0.0153
   1.9439E+01   1.9912E+01   1.7310E-05  0.0156
   1.9912E+01   2.0396E+01   1.6258E-05  0.0159
   2.0396E+01   2.0893E+01   1.5355E-05  0.0162
   2.0893E+01   2.1401E+01   1.4609E-05  0.0164
   2.1401E+01   2.1922E+01   1.3539E-05  0.0168
   2.1922E+01   2.2455E+01   1.2603E-05  0.0172
   2.2455E+01   2.3001E+01   1.1246E-05  0.0180
   2.3001E+01   2.3561E+01   1.0878E-05  0.0181
   2.3561E+01   2.4134E+01   1.0072E-05  0.0186
   2.4134E+01   2.4721E+01   8.8623E-06  0.0196
   2.4721E+01   2.5323E+01   8.5886E-06  0.0197
   2.5323E+01   2.5939E+01   7.5764E-06  0.0207
   2.5939E+01   2.6570E+01   6.9242E-06  0.0214
   2.6570E+01   2.7217E+01   6.5122E-06  0.0218
   2.7217E+01   2.7879E+01   5.8773E-06  0.0227
   2.7879E+01   2.8557E+01   5.1422E-06  0.0239
   2.8557E+01   2.9252E+01   4.6947E-06  0.0248
   2.9252E+01   2.9964E+01   4.1505E-06  0.0260
   2.9964E+01   3.0693E+01   3.5115E-06  0.0280
   3.0693E+01   3.1440E+01   3.1629E-06  0.0291
   3.1440E+01   3.2205E+01   2.7714E-06  0.0307
   3.2205E+01   3.2988E+01   2.5601E-06  0.0316
   3.2988E+01   3.3791E+01   2.0857E-06  0.0346
   3.3791E+01   3.4613E+01   1.6882E-06  0.0380
   3.4613E+01   3.5455E+01   1.4130E-06  0.0410
   3.5455E+01   3.6318E+01   1.1847E-06  0.0442
   3.6318E+01   3.7201E+01   8.1029E-07  0.0529
   3.7201E+01   3.8106E+01   6.4742E-07  0.0584
   3.8106E+01   3.9034E+01   5.4791E-07  0.0627
   3.9034E+01   3.9983E+01   4.4434E-07  0.0688
   3.9983E+01   4.0956E+01   3.2894E-07  0.0791
   4.0956E+01   4.1953E+01   2.0672E-07  0.0985
   4.1953E+01   4.2973E+01   1.5479E-07  0.1125
   4.2973E+01   4.4019E+01   1.1286E-07  0.1302
   4.4019E+01   4.5090E+01   6.1624E-08  0.1741
   4.5090E+01   4.6187E+01   4.7399E-08  0.1961
   4.6187E+01   4.7311E+01   3.5595E-08  0.2236
   4.7311E+01   4.8462E+01   1.5637E-08  0.3333
   4.8462E+01   4.9641E+01   2.3747E-08  0.2673
   4.9641E+01   5.0849E+01   1.6559E-09  1.0000
   5.0849E+01   5.2086E+01   1.6166E-09  1.0000
   5.2086E+01   5.3353E+01   0.0000E+00  0.0000
   5.3353E+01   5.4651E+01   1.5407E-09  1.0000
   5.4651E+01   5.5981E+01   1.5041E-09  1.0000
   5.5981E+01   5.7343E+01   0.0000E+00  0.0000
   5.7343E+01   5.8738E+01   0.0000E+00  0.0000
   5.8738E+01   6.0168E+01   0.0000E+00  0.0000
   6.0168E+01   6.1632E+01   0.0000E+00  0.0000
   6.1632E+01   6.3131E+01   0.0000E+00  0.0000
   6.3131E+01   6.4667E+01   0.0000E+00  0.0000
   6.4667E+01   6.6240E+01   0.0000E+00  0.0000
   6.6240E+01   6.7852E+01   0.0000E+00  0.0000
   6.7852E+01   6.9503E+01   0.0000E+00  0.0000
   6.9503E+01   7.1194E+01   0.0000E+00  0.0000
   7.1194E+01   7.2926E+01   0.0000E+00  0.0000
   7.2926E+01   7.4701E+01   0.0000E+00  0.0000
   7.4701E+01   7.6518E+01   0.0000E+00  0.0000
   7.6518E+01   7.8380E+01   0.0000E+00  0.0000
   7.8380E+01   8.0287E+01   0.0000E+00  0.0000
   8.0287E+01   8.2240E+01   0.0000E+00  0.0000
   8.2240E+01   8.4241E+01   0.0000E+00  0.0000
   8.4241E+01   8.6291E+01   0.0000E+00  0.0000
   8.6291E+01   8.8391E+01   0.0000E+00  0.0000
   8.8391E+01   9.0541E+01   0.0000E+00  0.0000
   9.0541E+01   9.2744E+01   0.0000E+00  0.0000
   9.2744E+01   9.5001E+01   0.0000E+00  0.0000
   9.5001E+01   9.7312E+01   0.0000E+00  0.0000
   9.7312E+01   9.9680E+01   0.0000E+00  0.0000
   9.9680E+01   1.0211E+02   0.0000E+00  0.0000
   1.0211E+02   1.0459E+02   0.0000E+00  0.0000
   1.0459E+02   1.0713E+02   0.0000E+00  0.0000
   1.0713E+02   1.0974E+02   0.0000E+00  0.0000
   1.0974E+02   1.1241E+02   0.0000E+00  0.0000
   1.1241E+02   1.1515E+02   0.0000E+00  0.0000
   1.1515E+02   1.1795E+02   0.0000E+00  0.0000
   1.1795E+02   1.2082E+02   0.0000E+00  0.0000
   1.2082E+02   1.2376E+02   0.0000E+00  0.0000
   1.2376E+02   1.2677E+02   0.0000E+00  0.0000
   1.2677E+02   1.2985E+02   0.0000E+00  0.0000
   1.2985E+02   1.3301E+02   0.0000E+00  0.0000
   1.3301E+02   1.3625E+02   0.0000E+00  0.0000
   1.3625E+02   1.3956E+02   0.0000E+00  0.0000
   1.3956E+02   1.4296E+02   0.0000E+00  0.0000
   1.4296E+02   1.4644E+02   0.0000E+00  0.0000
   1.4644E+02   1.5000E+02   0.0000E+00  0.0000

#   sum over                 1.8975E-05
'no. =    1   reg = 114 - 214'
msuc: {\huge [t-cross] in region mesh}
msdr: {\it plotted by \ANGEL \version}
msdl: {\it calculated by \PHITS  3.26}
wt: s(0.7)
\vspace{-3}
  region surface crossing
  area  &=&   1.0000E+00 [cm^2]
e:
 
# Information for Restart Calculation
# This calculation was newly started
# istdev =  2 # 1:Batch variance, 2:History variance
# resc2  = 5.00000000000000000E+08 # Total source weight or Total source weight / maxcas
# resc3  = 5.00000000000000000E+08 # Total history number or Total batch number
# maxcas =   500000000 # History / Batch, only used for istdev=1
# bitrseed = 1101101111010011011000101101110001100110110010110001010100010001 # bit data of rseed
