[ T-Cross ]
    title = [t-cross] in region mesh
     mesh =  reg            # mesh type is region-wise
      reg =    1            # number of crossing regions
      non     r-from    r-to       area
      1       108       208        1.000000    
   e-type =    3            # e-mesh is log given by emin, emax and ne
     emin =  1.0000000E-02  # minimum value of e-mesh points
     emax =   150.0000      # maximum value of e-mesh points
#    edel =  2.4039514E-02  # mesh width of e-mesh points
       ne =    400          # number of e-mesh points
#    data = ( e(i), i = 1, ne + 1 )
#           1.00000E-02  1.02433E-02  1.04925E-02  1.07478E-02  1.10093E-02
#           1.12772E-02  1.15516E-02  1.18326E-02  1.21205E-02  1.24154E-02
#           1.27175E-02  1.30269E-02  1.33439E-02  1.36686E-02  1.40011E-02
#           1.43418E-02  1.46907E-02  1.50482E-02  1.54143E-02  1.57894E-02
#           1.61735E-02  1.65670E-02  1.69701E-02  1.73830E-02  1.78060E-02
#           1.82392E-02  1.86830E-02  1.91375E-02  1.96032E-02  2.00801E-02
#           2.05687E-02  2.10692E-02  2.15818E-02  2.21069E-02  2.26448E-02
#           2.31957E-02  2.37601E-02  2.43382E-02  2.49304E-02  2.55369E-02
#           2.61583E-02  2.67947E-02  2.74467E-02  2.81145E-02  2.87985E-02
#           2.94992E-02  3.02169E-02  3.09521E-02  3.17052E-02  3.24766E-02
#           3.32668E-02  3.40762E-02  3.49053E-02  3.57546E-02  3.66246E-02
#           3.75157E-02  3.84284E-02  3.93634E-02  4.03212E-02  4.13022E-02
#           4.23071E-02  4.33365E-02  4.43909E-02  4.54710E-02  4.65773E-02
#           4.77106E-02  4.88714E-02  5.00605E-02  5.12785E-02  5.25262E-02
#           5.38042E-02  5.51133E-02  5.64542E-02  5.78278E-02  5.92348E-02
#           6.06760E-02  6.21523E-02  6.36645E-02  6.52135E-02  6.68002E-02
#           6.84255E-02  7.00904E-02  7.17957E-02  7.35426E-02  7.53319E-02
#           7.71648E-02  7.90423E-02  8.09655E-02  8.29354E-02  8.49533E-02
#           8.70203E-02  8.91376E-02  9.13064E-02  9.35279E-02  9.58035E-02
#           9.81345E-02  1.00522E-01  1.02968E-01  1.05473E-01  1.08040E-01
#           1.10668E-01  1.13361E-01  1.16119E-01  1.18944E-01  1.21838E-01
#           1.24803E-01  1.27839E-01  1.30950E-01  1.34136E-01  1.37399E-01
#           1.40742E-01  1.44167E-01  1.47675E-01  1.51268E-01  1.54948E-01
#           1.58718E-01  1.62580E-01  1.66535E-01  1.70587E-01  1.74738E-01
#           1.78989E-01  1.83344E-01  1.87805E-01  1.92375E-01  1.97055E-01
#           2.01850E-01  2.06761E-01  2.11792E-01  2.16945E-01  2.22223E-01
#           2.27630E-01  2.33169E-01  2.38842E-01  2.44653E-01  2.50605E-01
#           2.56703E-01  2.62949E-01  2.69346E-01  2.75900E-01  2.82613E-01
#           2.89489E-01  2.96532E-01  3.03747E-01  3.11138E-01  3.18708E-01
#           3.26462E-01  3.34405E-01  3.42542E-01  3.50876E-01  3.59413E-01
#           3.68158E-01  3.77116E-01  3.86291E-01  3.95690E-01  4.05317E-01
#           4.15179E-01  4.25281E-01  4.35628E-01  4.46227E-01  4.57084E-01
#           4.68205E-01  4.79597E-01  4.91266E-01  5.03219E-01  5.15463E-01
#           5.28005E-01  5.40851E-01  5.54011E-01  5.67490E-01  5.81298E-01
#           5.95441E-01  6.09929E-01  6.24769E-01  6.39970E-01  6.55541E-01
#           6.71491E-01  6.87828E-01  7.04564E-01  7.21706E-01  7.39266E-01
#           7.57253E-01  7.75678E-01  7.94551E-01  8.13883E-01  8.33685E-01
#           8.53969E-01  8.74747E-01  8.96030E-01  9.17831E-01  9.40163E-01
#           9.63038E-01  9.86469E-01  1.01047E+00  1.03506E+00  1.06024E+00
#           1.08604E+00  1.11246E+00  1.13953E+00  1.16725E+00  1.19565E+00
#           1.22474E+00  1.25454E+00  1.28507E+00  1.31633E+00  1.34836E+00
#           1.38117E+00  1.41477E+00  1.44920E+00  1.48446E+00  1.52057E+00
#           1.55757E+00  1.59547E+00  1.63429E+00  1.67405E+00  1.71478E+00
#           1.75650E+00  1.79924E+00  1.84302E+00  1.88786E+00  1.93379E+00
#           1.98084E+00  2.02904E+00  2.07841E+00  2.12898E+00  2.18078E+00
#           2.23384E+00  2.28819E+00  2.34386E+00  2.40089E+00  2.45930E+00
#           2.51914E+00  2.58043E+00  2.64322E+00  2.70753E+00  2.77341E+00
#           2.84088E+00  2.91001E+00  2.98081E+00  3.05333E+00  3.12762E+00
#           3.20372E+00  3.28167E+00  3.36152E+00  3.44330E+00  3.52708E+00
#           3.61290E+00  3.70080E+00  3.79085E+00  3.88308E+00  3.97756E+00
#           4.07434E+00  4.17347E+00  4.27501E+00  4.37903E+00  4.48557E+00
#           4.59471E+00  4.70650E+00  4.82102E+00  4.93832E+00  5.05847E+00
#           5.18155E+00  5.30762E+00  5.43676E+00  5.56904E+00  5.70453E+00
#           5.84333E+00  5.98550E+00  6.13114E+00  6.28031E+00  6.43312E+00
#           6.58964E+00  6.74997E+00  6.91420E+00  7.08243E+00  7.25475E+00
#           7.43126E+00  7.61207E+00  7.79728E+00  7.98700E+00  8.18133E+00
#           8.38038E+00  8.58428E+00  8.79315E+00  9.00709E+00  9.22624E+00
#           9.45072E+00  9.68067E+00  9.91620E+00  1.01575E+01  1.04046E+01
#           1.06578E+01  1.09171E+01  1.11827E+01  1.14548E+01  1.17335E+01
#           1.20190E+01  1.23114E+01  1.26109E+01  1.29178E+01  1.32321E+01
#           1.35540E+01  1.38838E+01  1.42216E+01  1.45676E+01  1.49221E+01
#           1.52851E+01  1.56570E+01  1.60380E+01  1.64282E+01  1.68279E+01
#           1.72374E+01  1.76568E+01  1.80864E+01  1.85264E+01  1.89772E+01
#           1.94389E+01  1.99119E+01  2.03963E+01  2.08926E+01  2.14009E+01
#           2.19216E+01  2.24550E+01  2.30014E+01  2.35610E+01  2.41343E+01
#           2.47215E+01  2.53230E+01  2.59391E+01  2.65702E+01  2.72167E+01
#           2.78789E+01  2.85572E+01  2.92520E+01  2.99637E+01  3.06928E+01
#           3.14396E+01  3.22045E+01  3.29881E+01  3.37907E+01  3.46128E+01
#           3.54550E+01  3.63177E+01  3.72013E+01  3.81064E+01  3.90336E+01
#           3.99833E+01  4.09561E+01  4.19526E+01  4.29734E+01  4.40189E+01
#           4.50900E+01  4.61870E+01  4.73108E+01  4.84619E+01  4.96410E+01
#           5.08488E+01  5.20860E+01  5.33533E+01  5.46514E+01  5.59812E+01
#           5.73432E+01  5.87384E+01  6.01676E+01  6.16315E+01  6.31311E+01
#           6.46671E+01  6.62405E+01  6.78522E+01  6.95031E+01  7.11941E+01
#           7.29263E+01  7.47007E+01  7.65182E+01  7.83800E+01  8.02870E+01
#           8.22405E+01  8.42414E+01  8.62911E+01  8.83906E+01  9.05412E+01
#           9.27442E+01  9.50007E+01  9.73122E+01  9.96799E+01  1.02105E+02
#           1.04589E+02  1.07134E+02  1.09741E+02  1.12411E+02  1.15146E+02
#           1.17948E+02  1.20817E+02  1.23757E+02  1.26768E+02  1.29852E+02
#           1.33012E+02  1.36248E+02  1.39563E+02  1.42959E+02  1.46437E+02
#           1.50000E+02
     unit =    2            # unit is [1/cm^2/(MeV/n)/source]
     axis =  eng            # axis of output
     file = detector-09.out  # file name of output for the above axis
   output = f-curr          # surface crossing forward current spectrum
     part =  neutron  
# kf/name :  2112     
#    used :        main (  %)        temp (  %)       total (  %)
#  memory :         414 (  0)           0 (  0)         414 (  0)

#------------------------------------------------------------------------------
#newpage:
#   no. =    1   reg = 108 - 208

x: Energy [MeV/n]
y:  F-Curr [1/cm^2/(MeV/n)/source]         
p: xlog ylog afac(0.8) form(0.9)
h: n            x            y(neutron ),hh0l   n 
#  e-lower      e-upper      neutron     r.err 
   1.0000E-02   1.0243E-02   3.0826E-03  0.0514
   1.0243E-02   1.0493E-02   3.1922E-03  0.0499
   1.0493E-02   1.0748E-02   3.3226E-03  0.0484
   1.0748E-02   1.1009E-02   3.1589E-03  0.0491
   1.1009E-02   1.1277E-02   3.2928E-03  0.0475
   1.1277E-02   1.1552E-02   2.9268E-03  0.0498
   1.1552E-02   1.1833E-02   2.7507E-03  0.0508
   1.1833E-02   1.2121E-02   2.7773E-03  0.0498
   1.2121E-02   1.2415E-02   2.6074E-03  0.0509
   1.2415E-02   1.2718E-02   2.5610E-03  0.0507
   1.2718E-02   1.3027E-02   2.5975E-03  0.0497
   1.3027E-02   1.3344E-02   2.4630E-03  0.0504
   1.3344E-02   1.3669E-02   2.3579E-03  0.0510
   1.3669E-02   1.4001E-02   2.2669E-03  0.0513
   1.4001E-02   1.4342E-02   2.5046E-03  0.0482
   1.4342E-02   1.4691E-02   2.4374E-03  0.0483
   1.4691E-02   1.5048E-02   2.1725E-03  0.0506
   1.5048E-02   1.5414E-02   2.4187E-03  0.0474
   1.5414E-02   1.5789E-02   2.2133E-03  0.0490
   1.5789E-02   1.6174E-02   2.2354E-03  0.0481
   1.6174E-02   1.6567E-02   1.9588E-03  0.0508
   1.6567E-02   1.6970E-02   2.0530E-03  0.0490
   1.6970E-02   1.7383E-02   1.9173E-03  0.0501
   1.7383E-02   1.7806E-02   1.8943E-03  0.0498
   1.7806E-02   1.8239E-02   1.8277E-03  0.0501
   1.8239E-02   1.8683E-02   1.8572E-03  0.0491
   1.8683E-02   1.9138E-02   1.7643E-03  0.0498
   1.9138E-02   1.9603E-02   1.6702E-03  0.0505
   1.9603E-02   2.0080E-02   1.8112E-03  0.0479
   2.0080E-02   2.0569E-02   1.6080E-03  0.0502
   2.0569E-02   2.1069E-02   1.6619E-03  0.0489
   2.1069E-02   2.1582E-02   1.5574E-03  0.0499
   2.1582E-02   2.2107E-02   1.6201E-03  0.0484
   2.2107E-02   2.2645E-02   1.5208E-03  0.0492
   2.2645E-02   2.3196E-02   1.4530E-03  0.0498
   2.3196E-02   2.3760E-02   1.5219E-03  0.0480
   2.3760E-02   2.4338E-02   1.2549E-03  0.0522
   2.4338E-02   2.4930E-02   1.3351E-03  0.0501
   2.4930E-02   2.5537E-02   1.3198E-03  0.0499
   2.5537E-02   2.6158E-02   1.3034E-03  0.0495
   2.6158E-02   2.6795E-02   1.3009E-03  0.0490
   2.6795E-02   2.7447E-02   1.2174E-03  0.0499
   2.7447E-02   2.8114E-02   1.2149E-03  0.0495
   2.8114E-02   2.8799E-02   1.1682E-03  0.0498
   2.8799E-02   2.9499E-02   1.2178E-03  0.0483
   2.9499E-02   3.0217E-02   1.2073E-03  0.0478
   3.0217E-02   3.0952E-02   1.1793E-03  0.0478
   3.0952E-02   3.1705E-02   1.1398E-03  0.0480
   3.1705E-02   3.2477E-02   1.0855E-03  0.0487
   3.2477E-02   3.3267E-02   1.0227E-03  0.0495
   3.3267E-02   3.4076E-02   1.0842E-03  0.0475
   3.4076E-02   3.4905E-02   1.0590E-03  0.0476
   3.4905E-02   3.5755E-02   9.8927E-04  0.0486
   3.5755E-02   3.6625E-02   1.0396E-03  0.0469
   3.6625E-02   3.7516E-02   9.3294E-04  0.0489
   3.7516E-02   3.8428E-02   8.5525E-04  0.0504
   3.8428E-02   3.9363E-02   9.0822E-04  0.0484
   3.9363E-02   4.0321E-02   9.1885E-04  0.0475
   4.0321E-02   4.1302E-02   8.5925E-04  0.0485
   4.1302E-02   4.2307E-02   8.8275E-04  0.0473
   4.2307E-02   4.3337E-02   7.5762E-04  0.0504
   4.3337E-02   4.4391E-02   7.5640E-04  0.0498
   4.4391E-02   4.5471E-02   7.2772E-04  0.0502
   4.5471E-02   4.6577E-02   7.6158E-04  0.0485
   4.6577E-02   4.7711E-02   7.0556E-04  0.0498
   4.7711E-02   4.8871E-02   7.4643E-04  0.0479
   4.8871E-02   5.0061E-02   6.8342E-04  0.0494
   5.0061E-02   5.1279E-02   6.7315E-04  0.0491
   5.1279E-02   5.2526E-02   6.9589E-04  0.0478
   5.2526E-02   5.3804E-02   6.5172E-04  0.0489
   5.3804E-02   5.5113E-02   6.4447E-04  0.0484
   5.5113E-02   5.6454E-02   6.8476E-04  0.0464
   5.6454E-02   5.7828E-02   5.8075E-04  0.0498
   5.7828E-02   5.9235E-02   5.8395E-04  0.0491
   5.9235E-02   6.0676E-02   5.3265E-04  0.0507
   6.0676E-02   6.2152E-02   5.6003E-04  0.0490
   6.2152E-02   6.3665E-02   5.2835E-04  0.0498
   6.3665E-02   6.5214E-02   5.8122E-04  0.0470
   6.5214E-02   6.6800E-02   5.1592E-04  0.0492
   6.6800E-02   6.8426E-02   5.0116E-04  0.0494
   6.8426E-02   7.0090E-02   5.0950E-04  0.0483
   7.0090E-02   7.1796E-02   4.9148E-04  0.0487
   7.1796E-02   7.3543E-02   5.1190E-04  0.0470
   7.3543E-02   7.5332E-02   4.5700E-04  0.0493
   7.5332E-02   7.7165E-02   4.7855E-04  0.0476
   7.7165E-02   7.9042E-02   4.3608E-04  0.0492
   7.9042E-02   8.0965E-02   4.3932E-04  0.0485
   8.0965E-02   8.2935E-02   4.7873E-04  0.0458
   8.2935E-02   8.4953E-02   4.0070E-04  0.0495
   8.4953E-02   8.7020E-02   4.2384E-04  0.0476
   8.7020E-02   8.9138E-02   3.8114E-04  0.0496
   8.9138E-02   9.1306E-02   3.8084E-04  0.0489
   9.1306E-02   9.3528E-02   3.7231E-04  0.0489
   9.3528E-02   9.5804E-02   4.0356E-04  0.0465
   9.5804E-02   9.8134E-02   3.8130E-04  0.0472
   9.8134E-02   1.0052E-01   3.7111E-04  0.0474
   1.0052E-01   1.0297E-01   3.5196E-04  0.0480
   1.0297E-01   1.0547E-01   3.6279E-04  0.0468
   1.0547E-01   1.0804E-01   3.4104E-04  0.0476
   1.0804E-01   1.1067E-01   3.4049E-04  0.0471
   1.1067E-01   1.1336E-01   3.3746E-04  0.0467
   1.1336E-01   1.1612E-01   3.3739E-04  0.0461
   1.1612E-01   1.1894E-01   3.6171E-04  0.0441
   1.1894E-01   1.2184E-01   3.1111E-04  0.0469
   1.2184E-01   1.2480E-01   3.0476E-04  0.0468
   1.2480E-01   1.2784E-01   2.9223E-04  0.0473
   1.2784E-01   1.3095E-01   2.8134E-04  0.0476
   1.3095E-01   1.3414E-01   2.5836E-04  0.0490
   1.3414E-01   1.3740E-01   3.0076E-04  0.0449
   1.3740E-01   1.4074E-01   2.6834E-04  0.0469
   1.4074E-01   1.4417E-01   2.7864E-04  0.0456
   1.4417E-01   1.4767E-01   2.4493E-04  0.0481
   1.4767E-01   1.5127E-01   2.5297E-04  0.0466
   1.5127E-01   1.5495E-01   2.6709E-04  0.0449
   1.5495E-01   1.5872E-01   2.5666E-04  0.0453
   1.5872E-01   1.6258E-01   2.4446E-04  0.0458
   1.6258E-01   1.6654E-01   2.3731E-04  0.0459
   1.6654E-01   1.7059E-01   2.3830E-04  0.0453
   1.7059E-01   1.7474E-01   2.3789E-04  0.0448
   1.7474E-01   1.7899E-01   2.0835E-04  0.0472
   1.7899E-01   1.8334E-01   2.3468E-04  0.0441
   1.8334E-01   1.8781E-01   2.0060E-04  0.0470
   1.8781E-01   1.9237E-01   2.0983E-04  0.0454
   1.9237E-01   1.9706E-01   2.0784E-04  0.0451
   1.9706E-01   2.0185E-01   2.1259E-04  0.0441
   2.0185E-01   2.0676E-01   2.1509E-04  0.0433
   2.0676E-01   2.1179E-01   2.1974E-04  0.0423
   2.1179E-01   2.1694E-01   2.1618E-04  0.0421
   2.1694E-01   2.2222E-01   2.3353E-04  0.0401
   2.2222E-01   2.2763E-01   2.4679E-04  0.0385
   2.2763E-01   2.3317E-01   2.5050E-04  0.0378
   2.3317E-01   2.3884E-01   2.6594E-04  0.0362
   2.3884E-01   2.4465E-01   2.6766E-04  0.0357
   2.4465E-01   2.5061E-01   2.8966E-04  0.0339
   2.5061E-01   2.5670E-01   2.7711E-04  0.0342
   2.5670E-01   2.6295E-01   3.0088E-04  0.0324
   2.6295E-01   2.6935E-01   3.1116E-04  0.0316
   2.6935E-01   2.7590E-01   3.0100E-04  0.0317
   2.7590E-01   2.8261E-01   3.2385E-04  0.0302
   2.8261E-01   2.8949E-01   3.2157E-04  0.0300
   2.8949E-01   2.9653E-01   3.2652E-04  0.0293
   2.9653E-01   3.0375E-01   3.4707E-04  0.0281
   3.0375E-01   3.1114E-01   3.5532E-04  0.0274
   3.1114E-01   3.1871E-01   3.5603E-04  0.0271
   3.1871E-01   3.2646E-01   3.8734E-04  0.0257
   3.2646E-01   3.3441E-01   3.7195E-04  0.0259
   3.3441E-01   3.4254E-01   3.8531E-04  0.0251
   3.4254E-01   3.5088E-01   4.0805E-04  0.0242
   3.5088E-01   3.5941E-01   4.0756E-04  0.0239
   3.5941E-01   3.6816E-01   3.9889E-04  0.0238
   3.6816E-01   3.7712E-01   4.2860E-04  0.0227
   3.7712E-01   3.8629E-01   4.2464E-04  0.0226
   3.8629E-01   3.9569E-01   4.3449E-04  0.0221
   3.9569E-01   4.0532E-01   4.4043E-04  0.0216
   4.0532E-01   4.1518E-01   4.6140E-04  0.0209
   4.1518E-01   4.2528E-01   4.5918E-04  0.0207
   4.2528E-01   4.3563E-01   4.7648E-04  0.0200
   4.3563E-01   4.4623E-01   4.7658E-04  0.0198
   4.4623E-01   4.5708E-01   4.8159E-04  0.0195
   4.5708E-01   4.6821E-01   4.9245E-04  0.0190
   4.6821E-01   4.7960E-01   4.8436E-04  0.0190
   4.7960E-01   4.9127E-01   4.9757E-04  0.0185
   4.9127E-01   5.0322E-01   5.0242E-04  0.0182
   5.0322E-01   5.1546E-01   4.9390E-04  0.0181
   5.1546E-01   5.2800E-01   5.0889E-04  0.0176
   5.2800E-01   5.4085E-01   5.0458E-04  0.0175
   5.4085E-01   5.5401E-01   5.1815E-04  0.0170
   5.5401E-01   5.6749E-01   5.2531E-04  0.0167
   5.6749E-01   5.8130E-01   5.3062E-04  0.0165
   5.8130E-01   5.9544E-01   5.2593E-04  0.0163
   5.9544E-01   6.0993E-01   5.4558E-04  0.0158
   6.0993E-01   6.2477E-01   5.3991E-04  0.0157
   6.2477E-01   6.3997E-01   5.4493E-04  0.0155
   6.3997E-01   6.5554E-01   5.3683E-04  0.0154
   6.5554E-01   6.7149E-01   5.3898E-04  0.0152
   6.7149E-01   6.8783E-01   5.2784E-04  0.0152
   6.8783E-01   7.0456E-01   5.2870E-04  0.0150
   7.0456E-01   7.2171E-01   5.3197E-04  0.0147
   7.2171E-01   7.3927E-01   5.1220E-04  0.0148
   7.3927E-01   7.5725E-01   5.2465E-04  0.0145
   7.5725E-01   7.7568E-01   5.2440E-04  0.0143
   7.7568E-01   7.9455E-01   5.2101E-04  0.0142
   7.9455E-01   8.1388E-01   5.0073E-04  0.0143
   8.1388E-01   8.3368E-01   4.9682E-04  0.0142
   8.3368E-01   8.5397E-01   4.9156E-04  0.0141
   8.5397E-01   8.7475E-01   4.7463E-04  0.0142
   8.7475E-01   8.9603E-01   4.5660E-04  0.0143
   8.9603E-01   9.1783E-01   4.6550E-04  0.0140
   9.1783E-01   9.4016E-01   4.5262E-04  0.0140
   9.4016E-01   9.6304E-01   4.3412E-04  0.0141
   9.6304E-01   9.8647E-01   4.2638E-04  0.0141
   9.8647E-01   1.0105E+00   4.2474E-04  0.0139
   1.0105E+00   1.0351E+00   4.3098E-04  0.0137
   1.0351E+00   1.0602E+00   4.2818E-04  0.0135
   1.0602E+00   1.0860E+00   4.3711E-04  0.0132
   1.0860E+00   1.1125E+00   4.3880E-04  0.0131
   1.1125E+00   1.1395E+00   4.5263E-04  0.0127
   1.1395E+00   1.1673E+00   4.6236E-04  0.0124
   1.1673E+00   1.1957E+00   4.7825E-04  0.0121
   1.1957E+00   1.2247E+00   4.9254E-04  0.0117
   1.2247E+00   1.2545E+00   4.9858E-04  0.0115
   1.2545E+00   1.2851E+00   5.0714E-04  0.0113
   1.2851E+00   1.3163E+00   5.1027E-04  0.0111
   1.3163E+00   1.3484E+00   5.2206E-04  0.0109
   1.3484E+00   1.3812E+00   5.3297E-04  0.0106
   1.3812E+00   1.4148E+00   5.4655E-04  0.0104
   1.4148E+00   1.4492E+00   5.5037E-04  0.0102
   1.4492E+00   1.4845E+00   5.5100E-04  0.0101
   1.4845E+00   1.5206E+00   5.6102E-04  0.0099
   1.5206E+00   1.5576E+00   5.5598E-04  0.0098
   1.5576E+00   1.5955E+00   5.5894E-04  0.0097
   1.5955E+00   1.6343E+00   5.6927E-04  0.0095
   1.6343E+00   1.6741E+00   5.7681E-04  0.0093
   1.6741E+00   1.7148E+00   5.8965E-04  0.0091
   1.7148E+00   1.7565E+00   5.9205E-04  0.0089
   1.7565E+00   1.7992E+00   5.9532E-04  0.0088
   1.7992E+00   1.8430E+00   5.9620E-04  0.0087
   1.8430E+00   1.8879E+00   5.9660E-04  0.0086
   1.8879E+00   1.9338E+00   6.0470E-04  0.0084
   1.9338E+00   1.9808E+00   6.1261E-04  0.0083
   1.9808E+00   2.0290E+00   6.2103E-04  0.0081
   2.0290E+00   2.0784E+00   6.1960E-04  0.0080
   2.0784E+00   2.1290E+00   6.1964E-04  0.0079
   2.1290E+00   2.1808E+00   6.1618E-04  0.0079
   2.1808E+00   2.2338E+00   6.1175E-04  0.0078
   2.2338E+00   2.2882E+00   6.1429E-04  0.0077
   2.2882E+00   2.3439E+00   6.1655E-04  0.0076
   2.3439E+00   2.4009E+00   6.1109E-04  0.0075
   2.4009E+00   2.4593E+00   6.2514E-04  0.0074
   2.4593E+00   2.5191E+00   6.2604E-04  0.0073
   2.5191E+00   2.5804E+00   6.2312E-04  0.0072
   2.5804E+00   2.6432E+00   6.2156E-04  0.0071
   2.6432E+00   2.7075E+00   6.1151E-04  0.0071
   2.7075E+00   2.7734E+00   6.0680E-04  0.0070
   2.7734E+00   2.8409E+00   6.0923E-04  0.0069
   2.8409E+00   2.9100E+00   6.0772E-04  0.0069
   2.9100E+00   2.9808E+00   6.0615E-04  0.0068
   2.9808E+00   3.0533E+00   6.0778E-04  0.0067
   3.0533E+00   3.1276E+00   6.0349E-04  0.0066
   3.1276E+00   3.2037E+00   5.9531E-04  0.0066
   3.2037E+00   3.2817E+00   5.9181E-04  0.0066
   3.2817E+00   3.3615E+00   5.8721E-04  0.0065
   3.3615E+00   3.4433E+00   5.7652E-04  0.0065
   3.4433E+00   3.5271E+00   5.6938E-04  0.0064
   3.5271E+00   3.6129E+00   5.7103E-04  0.0064
   3.6129E+00   3.7008E+00   5.6738E-04  0.0063
   3.7008E+00   3.7908E+00   5.5683E-04  0.0063
   3.7908E+00   3.8831E+00   5.5778E-04  0.0062
   3.8831E+00   3.9776E+00   5.4083E-04  0.0062
   3.9776E+00   4.0743E+00   5.4169E-04  0.0062
   4.0743E+00   4.1735E+00   5.3118E-04  0.0061
   4.1735E+00   4.2750E+00   5.2770E-04  0.0061
   4.2750E+00   4.3790E+00   5.1726E-04  0.0061
   4.3790E+00   4.4856E+00   5.0301E-04  0.0061
   4.4856E+00   4.5947E+00   5.0324E-04  0.0060
   4.5947E+00   4.7065E+00   4.9306E-04  0.0060
   4.7065E+00   4.8210E+00   4.8492E-04  0.0060
   4.8210E+00   4.9383E+00   4.7611E-04  0.0060
   4.9383E+00   5.0585E+00   4.6948E-04  0.0059
   5.0585E+00   5.1815E+00   4.5550E-04  0.0060
   5.1815E+00   5.3076E+00   4.4767E-04  0.0059
   5.3076E+00   5.4368E+00   4.4232E-04  0.0059
   5.4368E+00   5.5690E+00   4.3313E-04  0.0059
   5.5690E+00   5.7045E+00   4.1826E-04  0.0059
   5.7045E+00   5.8433E+00   4.1598E-04  0.0059
   5.8433E+00   5.9855E+00   4.0612E-04  0.0059
   5.9855E+00   6.1311E+00   3.9855E-04  0.0059
   6.1311E+00   6.2803E+00   3.8955E-04  0.0058
   6.2803E+00   6.4331E+00   3.7806E-04  0.0059
   6.4331E+00   6.5896E+00   3.7144E-04  0.0058
   6.5896E+00   6.7500E+00   3.6053E-04  0.0059
   6.7500E+00   6.9142E+00   3.5499E-04  0.0058
   6.9142E+00   7.0824E+00   3.4125E-04  0.0059
   7.0824E+00   7.2548E+00   3.3444E-04  0.0059
   7.2548E+00   7.4313E+00   3.2693E-04  0.0059
   7.4313E+00   7.6121E+00   3.1936E-04  0.0059
   7.6121E+00   7.7973E+00   3.0767E-04  0.0059
   7.7973E+00   7.9870E+00   2.9882E-04  0.0059
   7.9870E+00   8.1813E+00   2.8921E-04  0.0059
   8.1813E+00   8.3804E+00   2.8552E-04  0.0059
   8.3804E+00   8.5843E+00   2.7613E-04  0.0059
   8.5843E+00   8.7931E+00   2.6676E-04  0.0060
   8.7931E+00   9.0071E+00   2.5868E-04  0.0060
   9.0071E+00   9.2262E+00   2.5045E-04  0.0060
   9.2262E+00   9.4507E+00   2.4280E-04  0.0060
   9.4507E+00   9.6807E+00   2.3341E-04  0.0061
   9.6807E+00   9.9162E+00   2.2734E-04  0.0061
   9.9162E+00   1.0157E+01   2.2074E-04  0.0061
   1.0157E+01   1.0405E+01   2.1209E-04  0.0062
   1.0405E+01   1.0658E+01   2.1074E-04  0.0061
   1.0658E+01   1.0917E+01   2.0277E-04  0.0062
   1.0917E+01   1.1183E+01   1.9720E-04  0.0062
   1.1183E+01   1.1455E+01   1.9065E-04  0.0062
   1.1455E+01   1.1733E+01   1.8474E-04  0.0062
   1.1733E+01   1.2019E+01   1.8012E-04  0.0062
   1.2019E+01   1.2311E+01   1.7169E-04  0.0063
   1.2311E+01   1.2611E+01   1.6672E-04  0.0063
   1.2611E+01   1.2918E+01   1.6217E-04  0.0063
   1.2918E+01   1.3232E+01   1.5693E-04  0.0064
   1.3232E+01   1.3554E+01   1.5085E-04  0.0064
   1.3554E+01   1.3884E+01   1.4609E-04  0.0064
   1.3884E+01   1.4222E+01   1.4010E-04  0.0065
   1.4222E+01   1.4568E+01   1.3396E-04  0.0066
   1.4568E+01   1.4922E+01   1.2995E-04  0.0066
   1.4922E+01   1.5285E+01   1.2467E-04  0.0066
   1.5285E+01   1.5657E+01   1.2029E-04  0.0067
   1.5657E+01   1.6038E+01   1.1446E-04  0.0068
   1.6038E+01   1.6428E+01   1.0841E-04  0.0069
   1.6428E+01   1.6828E+01   1.0463E-04  0.0069
   1.6828E+01   1.7237E+01   1.0012E-04  0.0070
   1.7237E+01   1.7657E+01   9.4933E-05  0.0071
   1.7657E+01   1.8086E+01   9.1241E-05  0.0071
   1.8086E+01   1.8526E+01   8.6410E-05  0.0073
   1.8526E+01   1.8977E+01   8.3223E-05  0.0073
   1.8977E+01   1.9439E+01   8.1025E-05  0.0073
   1.9439E+01   1.9912E+01   7.9511E-05  0.0073
   1.9912E+01   2.0396E+01   7.8011E-05  0.0073
   2.0396E+01   2.0893E+01   7.4260E-05  0.0074
   2.0893E+01   2.1401E+01   6.9620E-05  0.0075
   2.1401E+01   2.1922E+01   6.6975E-05  0.0076
   2.1922E+01   2.2455E+01   6.3408E-05  0.0077
   2.2455E+01   2.3001E+01   5.9160E-05  0.0079
   2.3001E+01   2.3561E+01   5.6443E-05  0.0080
   2.3561E+01   2.4134E+01   5.2332E-05  0.0082
   2.4134E+01   2.4721E+01   4.9117E-05  0.0083
   2.4721E+01   2.5323E+01   4.6202E-05  0.0085
   2.5323E+01   2.5939E+01   4.3462E-05  0.0086
   2.5939E+01   2.6570E+01   4.1121E-05  0.0088
   2.6570E+01   2.7217E+01   3.8189E-05  0.0090
   2.7217E+01   2.7879E+01   3.6022E-05  0.0092
   2.7879E+01   2.8557E+01   3.3229E-05  0.0094
   2.8557E+01   2.9252E+01   3.1496E-05  0.0096
   2.9252E+01   2.9964E+01   2.9188E-05  0.0098
   2.9964E+01   3.0693E+01   2.7299E-05  0.0100
   3.0693E+01   3.1440E+01   2.5365E-05  0.0103
   3.1440E+01   3.2205E+01   2.3358E-05  0.0106
   3.2205E+01   3.2988E+01   2.1673E-05  0.0109
   3.2988E+01   3.3791E+01   1.9905E-05  0.0112
   3.3791E+01   3.4613E+01   1.8697E-05  0.0114
   3.4613E+01   3.5455E+01   1.7538E-05  0.0116
   3.5455E+01   3.6318E+01   1.6524E-05  0.0118
   3.6318E+01   3.7201E+01   1.4750E-05  0.0124
   3.7201E+01   3.8106E+01   1.3859E-05  0.0126
   3.8106E+01   3.9034E+01   1.2777E-05  0.0130
   3.9034E+01   3.9983E+01   1.1890E-05  0.0133
   3.9983E+01   4.0956E+01   1.1044E-05  0.0136
   4.0956E+01   4.1953E+01   1.0073E-05  0.0141
   4.1953E+01   4.2973E+01   9.2110E-06  0.0146
   4.2973E+01   4.4019E+01   8.2404E-06  0.0152
   4.4019E+01   4.5090E+01   7.8468E-06  0.0154
   4.5090E+01   4.6187E+01   7.0241E-06  0.0161
   4.6187E+01   4.7311E+01   6.2326E-06  0.0169
   4.7311E+01   4.8462E+01   5.6433E-06  0.0175
   4.8462E+01   4.9641E+01   4.8901E-06  0.0186
   4.9641E+01   5.0849E+01   4.4063E-06  0.0194
   5.0849E+01   5.2086E+01   4.0867E-06  0.0199
   5.2086E+01   5.3353E+01   3.4799E-06  0.0213
   5.3353E+01   5.4651E+01   3.0351E-06  0.0225
   5.4651E+01   5.5981E+01   2.2982E-06  0.0256
   5.5981E+01   5.7343E+01   1.6020E-06  0.0303
   5.7343E+01   5.8738E+01   9.5470E-07  0.0387
   5.8738E+01   6.0168E+01   4.2823E-07  0.0572
   6.0168E+01   6.1632E+01   1.0110E-07  0.1162
   6.1632E+01   6.3131E+01   8.0024E-09  0.4082
   6.3131E+01   6.4667E+01   0.0000E+00  0.0000
   6.4667E+01   6.6240E+01   0.0000E+00  0.0000
   6.6240E+01   6.7852E+01   0.0000E+00  0.0000
   6.7852E+01   6.9503E+01   0.0000E+00  0.0000
   6.9503E+01   7.1194E+01   0.0000E+00  0.0000
   7.1194E+01   7.2926E+01   0.0000E+00  0.0000
   7.2926E+01   7.4701E+01   0.0000E+00  0.0000
   7.4701E+01   7.6518E+01   0.0000E+00  0.0000
   7.6518E+01   7.8380E+01   0.0000E+00  0.0000
   7.8380E+01   8.0287E+01   0.0000E+00  0.0000
   8.0287E+01   8.2240E+01   0.0000E+00  0.0000
   8.2240E+01   8.4241E+01   0.0000E+00  0.0000
   8.4241E+01   8.6291E+01   0.0000E+00  0.0000
   8.6291E+01   8.8391E+01   0.0000E+00  0.0000
   8.8391E+01   9.0541E+01   0.0000E+00  0.0000
   9.0541E+01   9.2744E+01   0.0000E+00  0.0000
   9.2744E+01   9.5001E+01   0.0000E+00  0.0000
   9.5001E+01   9.7312E+01   0.0000E+00  0.0000
   9.7312E+01   9.9680E+01   0.0000E+00  0.0000
   9.9680E+01   1.0211E+02   0.0000E+00  0.0000
   1.0211E+02   1.0459E+02   0.0000E+00  0.0000
   1.0459E+02   1.0713E+02   0.0000E+00  0.0000
   1.0713E+02   1.0974E+02   0.0000E+00  0.0000
   1.0974E+02   1.1241E+02   0.0000E+00  0.0000
   1.1241E+02   1.1515E+02   0.0000E+00  0.0000
   1.1515E+02   1.1795E+02   0.0000E+00  0.0000
   1.1795E+02   1.2082E+02   0.0000E+00  0.0000
   1.2082E+02   1.2376E+02   0.0000E+00  0.0000
   1.2376E+02   1.2677E+02   0.0000E+00  0.0000
   1.2677E+02   1.2985E+02   0.0000E+00  0.0000
   1.2985E+02   1.3301E+02   0.0000E+00  0.0000
   1.3301E+02   1.3625E+02   0.0000E+00  0.0000
   1.3625E+02   1.3956E+02   0.0000E+00  0.0000
   1.3956E+02   1.4296E+02   0.0000E+00  0.0000
   1.4296E+02   1.4644E+02   0.0000E+00  0.0000
   1.4644E+02   1.5000E+02   0.0000E+00  0.0000

#   sum over                 4.2961E-05
'no. =    1   reg = 108 - 208'
msuc: {\huge [t-cross] in region mesh}
msdr: {\it plotted by \ANGEL \version}
msdl: {\it calculated by \PHITS  3.26}
wt: s(0.7)
\vspace{-3}
  region surface crossing
  area  &=&   1.0000E+00 [cm^2]
e:
 
# Information for Restart Calculation
# This calculation was newly started
# istdev =  2 # 1:Batch variance, 2:History variance
# resc2  = 5.00000000000000000E+08 # Total source weight or Total source weight / maxcas
# resc3  = 5.00000000000000000E+08 # Total history number or Total batch number
# maxcas =   500000000 # History / Batch, only used for istdev=1
# bitrseed = 1101101111010011011000101101110001100110110010110001010100010001 # bit data of rseed
