[ T-Cross ]
    title = [t-cross] in region mesh
     mesh =  reg            # mesh type is region-wise
      reg =    1            # number of crossing regions
      non     r-from    r-to       area
      1       107       207        1.000000    
   e-type =    3            # e-mesh is log given by emin, emax and ne
     emin =  1.0000000E-02  # minimum value of e-mesh points
     emax =   150.0000      # maximum value of e-mesh points
#    edel =  2.4039514E-02  # mesh width of e-mesh points
       ne =    400          # number of e-mesh points
#    data = ( e(i), i = 1, ne + 1 )
#           1.00000E-02  1.02433E-02  1.04925E-02  1.07478E-02  1.10093E-02
#           1.12772E-02  1.15516E-02  1.18326E-02  1.21205E-02  1.24154E-02
#           1.27175E-02  1.30269E-02  1.33439E-02  1.36686E-02  1.40011E-02
#           1.43418E-02  1.46907E-02  1.50482E-02  1.54143E-02  1.57894E-02
#           1.61735E-02  1.65670E-02  1.69701E-02  1.73830E-02  1.78060E-02
#           1.82392E-02  1.86830E-02  1.91375E-02  1.96032E-02  2.00801E-02
#           2.05687E-02  2.10692E-02  2.15818E-02  2.21069E-02  2.26448E-02
#           2.31957E-02  2.37601E-02  2.43382E-02  2.49304E-02  2.55369E-02
#           2.61583E-02  2.67947E-02  2.74467E-02  2.81145E-02  2.87985E-02
#           2.94992E-02  3.02169E-02  3.09521E-02  3.17052E-02  3.24766E-02
#           3.32668E-02  3.40762E-02  3.49053E-02  3.57546E-02  3.66246E-02
#           3.75157E-02  3.84284E-02  3.93634E-02  4.03212E-02  4.13022E-02
#           4.23071E-02  4.33365E-02  4.43909E-02  4.54710E-02  4.65773E-02
#           4.77106E-02  4.88714E-02  5.00605E-02  5.12785E-02  5.25262E-02
#           5.38042E-02  5.51133E-02  5.64542E-02  5.78278E-02  5.92348E-02
#           6.06760E-02  6.21523E-02  6.36645E-02  6.52135E-02  6.68002E-02
#           6.84255E-02  7.00904E-02  7.17957E-02  7.35426E-02  7.53319E-02
#           7.71648E-02  7.90423E-02  8.09655E-02  8.29354E-02  8.49533E-02
#           8.70203E-02  8.91376E-02  9.13064E-02  9.35279E-02  9.58035E-02
#           9.81345E-02  1.00522E-01  1.02968E-01  1.05473E-01  1.08040E-01
#           1.10668E-01  1.13361E-01  1.16119E-01  1.18944E-01  1.21838E-01
#           1.24803E-01  1.27839E-01  1.30950E-01  1.34136E-01  1.37399E-01
#           1.40742E-01  1.44167E-01  1.47675E-01  1.51268E-01  1.54948E-01
#           1.58718E-01  1.62580E-01  1.66535E-01  1.70587E-01  1.74738E-01
#           1.78989E-01  1.83344E-01  1.87805E-01  1.92375E-01  1.97055E-01
#           2.01850E-01  2.06761E-01  2.11792E-01  2.16945E-01  2.22223E-01
#           2.27630E-01  2.33169E-01  2.38842E-01  2.44653E-01  2.50605E-01
#           2.56703E-01  2.62949E-01  2.69346E-01  2.75900E-01  2.82613E-01
#           2.89489E-01  2.96532E-01  3.03747E-01  3.11138E-01  3.18708E-01
#           3.26462E-01  3.34405E-01  3.42542E-01  3.50876E-01  3.59413E-01
#           3.68158E-01  3.77116E-01  3.86291E-01  3.95690E-01  4.05317E-01
#           4.15179E-01  4.25281E-01  4.35628E-01  4.46227E-01  4.57084E-01
#           4.68205E-01  4.79597E-01  4.91266E-01  5.03219E-01  5.15463E-01
#           5.28005E-01  5.40851E-01  5.54011E-01  5.67490E-01  5.81298E-01
#           5.95441E-01  6.09929E-01  6.24769E-01  6.39970E-01  6.55541E-01
#           6.71491E-01  6.87828E-01  7.04564E-01  7.21706E-01  7.39266E-01
#           7.57253E-01  7.75678E-01  7.94551E-01  8.13883E-01  8.33685E-01
#           8.53969E-01  8.74747E-01  8.96030E-01  9.17831E-01  9.40163E-01
#           9.63038E-01  9.86469E-01  1.01047E+00  1.03506E+00  1.06024E+00
#           1.08604E+00  1.11246E+00  1.13953E+00  1.16725E+00  1.19565E+00
#           1.22474E+00  1.25454E+00  1.28507E+00  1.31633E+00  1.34836E+00
#           1.38117E+00  1.41477E+00  1.44920E+00  1.48446E+00  1.52057E+00
#           1.55757E+00  1.59547E+00  1.63429E+00  1.67405E+00  1.71478E+00
#           1.75650E+00  1.79924E+00  1.84302E+00  1.88786E+00  1.93379E+00
#           1.98084E+00  2.02904E+00  2.07841E+00  2.12898E+00  2.18078E+00
#           2.23384E+00  2.28819E+00  2.34386E+00  2.40089E+00  2.45930E+00
#           2.51914E+00  2.58043E+00  2.64322E+00  2.70753E+00  2.77341E+00
#           2.84088E+00  2.91001E+00  2.98081E+00  3.05333E+00  3.12762E+00
#           3.20372E+00  3.28167E+00  3.36152E+00  3.44330E+00  3.52708E+00
#           3.61290E+00  3.70080E+00  3.79085E+00  3.88308E+00  3.97756E+00
#           4.07434E+00  4.17347E+00  4.27501E+00  4.37903E+00  4.48557E+00
#           4.59471E+00  4.70650E+00  4.82102E+00  4.93832E+00  5.05847E+00
#           5.18155E+00  5.30762E+00  5.43676E+00  5.56904E+00  5.70453E+00
#           5.84333E+00  5.98550E+00  6.13114E+00  6.28031E+00  6.43312E+00
#           6.58964E+00  6.74997E+00  6.91420E+00  7.08243E+00  7.25475E+00
#           7.43126E+00  7.61207E+00  7.79728E+00  7.98700E+00  8.18133E+00
#           8.38038E+00  8.58428E+00  8.79315E+00  9.00709E+00  9.22624E+00
#           9.45072E+00  9.68067E+00  9.91620E+00  1.01575E+01  1.04046E+01
#           1.06578E+01  1.09171E+01  1.11827E+01  1.14548E+01  1.17335E+01
#           1.20190E+01  1.23114E+01  1.26109E+01  1.29178E+01  1.32321E+01
#           1.35540E+01  1.38838E+01  1.42216E+01  1.45676E+01  1.49221E+01
#           1.52851E+01  1.56570E+01  1.60380E+01  1.64282E+01  1.68279E+01
#           1.72374E+01  1.76568E+01  1.80864E+01  1.85264E+01  1.89772E+01
#           1.94389E+01  1.99119E+01  2.03963E+01  2.08926E+01  2.14009E+01
#           2.19216E+01  2.24550E+01  2.30014E+01  2.35610E+01  2.41343E+01
#           2.47215E+01  2.53230E+01  2.59391E+01  2.65702E+01  2.72167E+01
#           2.78789E+01  2.85572E+01  2.92520E+01  2.99637E+01  3.06928E+01
#           3.14396E+01  3.22045E+01  3.29881E+01  3.37907E+01  3.46128E+01
#           3.54550E+01  3.63177E+01  3.72013E+01  3.81064E+01  3.90336E+01
#           3.99833E+01  4.09561E+01  4.19526E+01  4.29734E+01  4.40189E+01
#           4.50900E+01  4.61870E+01  4.73108E+01  4.84619E+01  4.96410E+01
#           5.08488E+01  5.20860E+01  5.33533E+01  5.46514E+01  5.59812E+01
#           5.73432E+01  5.87384E+01  6.01676E+01  6.16315E+01  6.31311E+01
#           6.46671E+01  6.62405E+01  6.78522E+01  6.95031E+01  7.11941E+01
#           7.29263E+01  7.47007E+01  7.65182E+01  7.83800E+01  8.02870E+01
#           8.22405E+01  8.42414E+01  8.62911E+01  8.83906E+01  9.05412E+01
#           9.27442E+01  9.50007E+01  9.73122E+01  9.96799E+01  1.02105E+02
#           1.04589E+02  1.07134E+02  1.09741E+02  1.12411E+02  1.15146E+02
#           1.17948E+02  1.20817E+02  1.23757E+02  1.26768E+02  1.29852E+02
#           1.33012E+02  1.36248E+02  1.39563E+02  1.42959E+02  1.46437E+02
#           1.50000E+02
     unit =    2            # unit is [1/cm^2/(MeV/n)/source]
     axis =  eng            # axis of output
     file = detector-08.out  # file name of output for the above axis
   output = f-curr          # surface crossing forward current spectrum
     part =  neutron  
# kf/name :  2112     
#    used :        main (  %)        temp (  %)       total (  %)
#  memory :         414 (  0)           0 (  0)         414 (  0)

#------------------------------------------------------------------------------
#newpage:
#   no. =    1   reg = 107 - 207

x: Energy [MeV/n]
y:  F-Curr [1/cm^2/(MeV/n)/source]         
p: xlog ylog afac(0.8) form(0.9)
h: n            x            y(neutron ),hh0l   n 
#  e-lower      e-upper      neutron     r.err 
   1.0000E-02   1.0243E-02   3.0101E-03  0.0520
   1.0243E-02   1.0493E-02   3.0916E-03  0.0509
   1.0493E-02   1.0748E-02   2.9162E-03  0.0517
   1.0748E-02   1.1009E-02   2.7877E-03  0.0522
   1.1009E-02   1.1277E-02   2.7985E-03  0.0515
   1.1277E-02   1.1552E-02   2.8127E-03  0.0508
   1.1552E-02   1.1833E-02   2.7830E-03  0.0504
   1.1833E-02   1.2121E-02   2.8042E-03  0.0496
   1.2121E-02   1.2415E-02   2.5255E-03  0.0517
   1.2415E-02   1.2718E-02   2.5186E-03  0.0511
   1.2718E-02   1.3027E-02   2.4729E-03  0.0510
   1.3027E-02   1.3344E-02   2.3789E-03  0.0513
   1.3344E-02   1.3669E-02   2.1951E-03  0.0528
   1.3669E-02   1.4001E-02   2.1897E-03  0.0522
   1.4001E-02   1.4342E-02   2.0470E-03  0.0533
   1.4342E-02   1.4691E-02   2.0330E-03  0.0529
   1.4691E-02   1.5048E-02   1.9292E-03  0.0537
   1.5048E-02   1.5414E-02   2.0239E-03  0.0518
   1.5414E-02   1.5789E-02   2.0120E-03  0.0513
   1.5789E-02   1.6174E-02   1.9241E-03  0.0518
   1.6174E-02   1.6567E-02   1.8568E-03  0.0522
   1.6567E-02   1.6970E-02   1.8438E-03  0.0516
   1.6970E-02   1.7383E-02   1.8444E-03  0.0511
   1.7383E-02   1.7806E-02   1.9512E-03  0.0491
   1.7806E-02   1.8239E-02   1.6973E-03  0.0520
   1.8239E-02   1.8683E-02   1.6539E-03  0.0520
   1.8683E-02   1.9138E-02   1.7757E-03  0.0496
   1.9138E-02   1.9603E-02   1.7383E-03  0.0496
   1.9603E-02   2.0080E-02   1.5566E-03  0.0517
   2.0080E-02   2.0569E-02   1.5712E-03  0.0509
   2.0569E-02   2.1069E-02   1.5814E-03  0.0501
   2.1069E-02   2.1582E-02   1.3747E-03  0.0531
   2.1582E-02   2.2107E-02   1.4714E-03  0.0507
   2.2107E-02   2.2645E-02   1.3257E-03  0.0527
   2.2645E-02   2.3196E-02   1.2834E-03  0.0529
   2.3196E-02   2.3760E-02   1.5001E-03  0.0484
   2.3760E-02   2.4338E-02   1.2912E-03  0.0515
   2.4338E-02   2.4930E-02   1.3563E-03  0.0497
   2.4930E-02   2.5537E-02   1.3096E-03  0.0499
   2.5537E-02   2.6158E-02   1.1758E-03  0.0521
   2.6158E-02   2.6795E-02   1.2282E-03  0.0504
   2.6795E-02   2.7447E-02   1.2025E-03  0.0503
   2.7447E-02   2.8114E-02   1.1662E-03  0.0505
   2.8114E-02   2.8799E-02   1.1163E-03  0.0510
   2.8799E-02   2.9499E-02   1.1231E-03  0.0502
   2.9499E-02   3.0217E-02   9.7498E-04  0.0532
   3.0217E-02   3.0952E-02   1.0598E-03  0.0506
   3.0952E-02   3.1705E-02   1.0430E-03  0.0503
   3.1705E-02   3.2477E-02   1.0586E-03  0.0494
   3.2477E-02   3.3267E-02   9.5770E-04  0.0512
   3.3267E-02   3.4076E-02   1.0688E-03  0.0479
   3.4076E-02   3.4905E-02   9.4930E-04  0.0502
   3.4905E-02   3.5755E-02   8.9133E-04  0.0511
   3.5755E-02   3.6625E-02   8.4443E-04  0.0520
   3.6625E-02   3.7516E-02   8.9222E-04  0.0501
   3.7516E-02   3.8428E-02   8.0103E-04  0.0521
   3.8428E-02   3.9363E-02   9.1749E-04  0.0481
   3.9363E-02   4.0321E-02   9.0104E-04  0.0479
   4.0321E-02   4.1302E-02   7.7291E-04  0.0511
   4.1302E-02   4.2307E-02   7.3250E-04  0.0519
   4.2307E-02   4.3337E-02   7.5421E-04  0.0505
   4.3337E-02   4.4391E-02   6.5630E-04  0.0537
   4.4391E-02   4.5471E-02   7.1710E-04  0.0506
   4.5471E-02   4.6577E-02   6.2922E-04  0.0535
   4.6577E-02   4.7711E-02   6.9149E-04  0.0504
   4.7711E-02   4.8871E-02   6.7328E-04  0.0504
   4.8871E-02   5.0061E-02   6.6135E-04  0.0502
   5.0061E-02   5.1279E-02   6.6322E-04  0.0496
   5.1279E-02   5.2526E-02   6.1948E-04  0.0507
   5.2526E-02   5.3804E-02   5.9003E-04  0.0513
   5.3804E-02   5.5113E-02   5.8221E-04  0.0510
   5.5113E-02   5.6454E-02   5.9320E-04  0.0498
   5.6454E-02   5.7828E-02   5.5935E-04  0.0508
   5.7828E-02   5.9235E-02   6.0677E-04  0.0483
   5.9235E-02   6.0676E-02   5.2153E-04  0.0514
   6.0676E-02   6.2152E-02   5.0635E-04  0.0514
   6.2152E-02   6.3665E-02   5.3802E-04  0.0493
   6.3665E-02   6.5214E-02   4.9109E-04  0.0512
   6.5214E-02   6.6800E-02   4.6846E-04  0.0518
   6.6800E-02   6.8426E-02   5.0314E-04  0.0492
   6.8426E-02   7.0090E-02   4.9579E-04  0.0490
   7.0090E-02   7.1796E-02   4.7756E-04  0.0494
   7.1796E-02   7.3543E-02   4.6636E-04  0.0494
   7.3543E-02   7.5332E-02   4.3734E-04  0.0503
   7.5332E-02   7.7165E-02   4.1890E-04  0.0509
   7.7165E-02   7.9042E-02   4.2379E-04  0.0500
   7.9042E-02   8.0965E-02   3.9987E-04  0.0508
   8.0965E-02   8.2935E-02   3.9179E-04  0.0506
   8.2935E-02   8.4953E-02   3.8653E-04  0.0504
   8.4953E-02   8.7020E-02   3.9159E-04  0.0495
   8.7020E-02   8.9138E-02   3.9125E-04  0.0489
   8.9138E-02   9.1306E-02   3.8491E-04  0.0487
   9.1306E-02   9.3528E-02   3.8067E-04  0.0485
   9.3528E-02   9.5804E-02   3.5765E-04  0.0494
   9.5804E-02   9.8134E-02   3.6579E-04  0.0482
   9.8134E-02   1.0052E-01   3.3486E-04  0.0498
   1.0052E-01   1.0297E-01   3.3724E-04  0.0490
   1.0297E-01   1.0547E-01   3.2971E-04  0.0490
   1.0547E-01   1.0804E-01   3.1270E-04  0.0497
   1.0804E-01   1.1067E-01   3.1154E-04  0.0493
   1.1067E-01   1.1336E-01   3.1994E-04  0.0480
   1.1336E-01   1.1612E-01   2.5825E-04  0.0528
   1.1612E-01   1.1894E-01   3.0575E-04  0.0478
   1.1894E-01   1.2184E-01   2.7148E-04  0.0502
   1.2184E-01   1.2480E-01   2.6427E-04  0.0504
   1.2480E-01   1.2784E-01   2.6878E-04  0.0493
   1.2784E-01   1.3095E-01   2.5555E-04  0.0498
   1.3095E-01   1.3414E-01   2.5322E-04  0.0495
   1.3414E-01   1.3740E-01   2.3136E-04  0.0512
   1.3740E-01   1.4074E-01   2.5189E-04  0.0484
   1.4074E-01   1.4417E-01   2.4306E-04  0.0488
   1.4417E-01   1.4767E-01   2.5011E-04  0.0475
   1.4767E-01   1.5127E-01   2.1688E-04  0.0504
   1.5127E-01   1.5495E-01   2.2972E-04  0.0484
   1.5495E-01   1.5872E-01   2.2086E-04  0.0488
   1.5872E-01   1.6258E-01   2.2945E-04  0.0473
   1.6258E-01   1.6654E-01   2.1940E-04  0.0479
   1.6654E-01   1.7059E-01   2.1675E-04  0.0475
   1.7059E-01   1.7474E-01   1.9793E-04  0.0490
   1.7474E-01   1.7899E-01   2.0278E-04  0.0480
   1.7899E-01   1.8334E-01   1.9582E-04  0.0481
   1.8334E-01   1.8781E-01   2.0471E-04  0.0466
   1.8781E-01   1.9237E-01   1.9588E-04  0.0471
   1.9237E-01   1.9706E-01   1.9973E-04  0.0461
   1.9706E-01   2.0185E-01   1.9739E-04  0.0458
   2.0185E-01   2.0676E-01   1.9376E-04  0.0457
   2.0676E-01   2.1179E-01   2.1320E-04  0.0430
   2.1179E-01   2.1694E-01   1.8476E-04  0.0457
   2.1694E-01   2.2222E-01   2.0268E-04  0.0430
   2.2222E-01   2.2763E-01   2.2488E-04  0.0403
   2.2763E-01   2.3317E-01   2.2708E-04  0.0397
   2.3317E-01   2.3884E-01   2.3295E-04  0.0387
   2.3884E-01   2.4465E-01   2.2652E-04  0.0388
   2.4465E-01   2.5061E-01   2.3839E-04  0.0374
   2.5061E-01   2.5670E-01   2.6601E-04  0.0350
   2.5670E-01   2.6295E-01   2.7966E-04  0.0337
   2.6295E-01   2.6935E-01   2.5515E-04  0.0348
   2.6935E-01   2.7590E-01   2.8884E-04  0.0323
   2.7590E-01   2.8261E-01   2.7629E-04  0.0327
   2.8261E-01   2.8949E-01   2.8415E-04  0.0318
   2.8949E-01   2.9653E-01   2.9974E-04  0.0306
   2.9653E-01   3.0375E-01   3.1578E-04  0.0295
   3.0375E-01   3.1114E-01   3.2890E-04  0.0285
   3.1114E-01   3.1871E-01   3.2626E-04  0.0283
   3.1871E-01   3.2646E-01   3.3675E-04  0.0276
   3.2646E-01   3.3441E-01   3.4250E-04  0.0270
   3.3441E-01   3.4254E-01   3.5800E-04  0.0261
   3.4254E-01   3.5088E-01   3.7285E-04  0.0253
   3.5088E-01   3.5941E-01   3.7110E-04  0.0250
   3.5941E-01   3.6816E-01   3.8228E-04  0.0244
   3.6816E-01   3.7712E-01   3.8070E-04  0.0241
   3.7712E-01   3.8629E-01   3.8441E-04  0.0237
   3.8629E-01   3.9569E-01   3.8277E-04  0.0235
   3.9569E-01   4.0532E-01   4.1910E-04  0.0222
   4.0532E-01   4.1518E-01   4.1173E-04  0.0221
   4.1518E-01   4.2528E-01   4.1558E-04  0.0217
   4.2528E-01   4.3563E-01   4.3819E-04  0.0209
   4.3563E-01   4.4623E-01   4.3924E-04  0.0206
   4.4623E-01   4.5708E-01   4.3208E-04  0.0205
   4.5708E-01   4.6821E-01   4.4240E-04  0.0201
   4.6821E-01   4.7960E-01   4.4008E-04  0.0199
   4.7960E-01   4.9127E-01   4.5706E-04  0.0193
   4.9127E-01   5.0322E-01   4.6180E-04  0.0190
   5.0322E-01   5.1546E-01   4.6440E-04  0.0187
   5.1546E-01   5.2800E-01   4.6453E-04  0.0185
   5.2800E-01   5.4085E-01   4.7126E-04  0.0181
   5.4085E-01   5.5401E-01   4.6830E-04  0.0179
   5.5401E-01   5.6749E-01   4.8609E-04  0.0174
   5.6749E-01   5.8130E-01   4.8722E-04  0.0172
   5.8130E-01   5.9544E-01   4.7138E-04  0.0172
   5.9544E-01   6.0993E-01   4.7235E-04  0.0170
   6.0993E-01   6.2477E-01   4.8785E-04  0.0165
   6.2477E-01   6.3997E-01   4.9342E-04  0.0163
   6.3997E-01   6.5554E-01   4.9541E-04  0.0160
   6.5554E-01   6.7149E-01   4.9443E-04  0.0159
   6.7149E-01   6.8783E-01   4.8593E-04  0.0158
   6.8783E-01   7.0456E-01   4.7900E-04  0.0157
   7.0456E-01   7.2171E-01   4.8613E-04  0.0154
   7.2171E-01   7.3927E-01   4.9056E-04  0.0152
   7.3927E-01   7.5725E-01   4.8041E-04  0.0151
   7.5725E-01   7.7568E-01   4.7882E-04  0.0150
   7.7568E-01   7.9455E-01   4.6586E-04  0.0150
   7.9455E-01   8.1388E-01   4.6090E-04  0.0149
   8.1388E-01   8.3368E-01   4.6294E-04  0.0147
   8.3368E-01   8.5397E-01   4.4711E-04  0.0148
   8.5397E-01   8.7475E-01   4.5965E-04  0.0144
   8.7475E-01   8.9603E-01   4.3191E-04  0.0147
   8.9603E-01   9.1783E-01   4.1757E-04  0.0147
   9.1783E-01   9.4016E-01   4.1627E-04  0.0146
   9.4016E-01   9.6304E-01   4.1273E-04  0.0145
   9.6304E-01   9.8647E-01   4.0549E-04  0.0144
   9.8647E-01   1.0105E+00   3.8655E-04  0.0146
   1.0105E+00   1.0351E+00   4.0076E-04  0.0142
   1.0351E+00   1.0602E+00   3.9268E-04  0.0142
   1.0602E+00   1.0860E+00   3.9640E-04  0.0139
   1.0860E+00   1.1125E+00   4.1520E-04  0.0134
   1.1125E+00   1.1395E+00   4.2563E-04  0.0131
   1.1395E+00   1.1673E+00   4.3151E-04  0.0129
   1.1673E+00   1.1957E+00   4.4131E-04  0.0126
   1.1957E+00   1.2247E+00   4.6364E-04  0.0121
   1.2247E+00   1.2545E+00   4.6202E-04  0.0120
   1.2545E+00   1.2851E+00   4.6677E-04  0.0118
   1.2851E+00   1.3163E+00   4.6679E-04  0.0116
   1.3163E+00   1.3484E+00   4.7567E-04  0.0114
   1.3484E+00   1.3812E+00   4.9727E-04  0.0110
   1.3812E+00   1.4148E+00   5.0477E-04  0.0108
   1.4148E+00   1.4492E+00   5.1813E-04  0.0105
   1.4492E+00   1.4845E+00   5.1199E-04  0.0105
   1.4845E+00   1.5206E+00   5.1796E-04  0.0103
   1.5206E+00   1.5576E+00   5.1618E-04  0.0102
   1.5576E+00   1.5955E+00   5.2017E-04  0.0100
   1.5955E+00   1.6343E+00   5.2132E-04  0.0099
   1.6343E+00   1.6741E+00   5.3256E-04  0.0097
   1.6741E+00   1.7148E+00   5.5072E-04  0.0094
   1.7148E+00   1.7565E+00   5.4044E-04  0.0094
   1.7565E+00   1.7992E+00   5.5153E-04  0.0092
   1.7992E+00   1.8430E+00   5.5233E-04  0.0091
   1.8430E+00   1.8879E+00   5.4971E-04  0.0090
   1.8879E+00   1.9338E+00   5.5803E-04  0.0088
   1.9338E+00   1.9808E+00   5.6421E-04  0.0086
   1.9808E+00   2.0290E+00   5.7099E-04  0.0085
   2.0290E+00   2.0784E+00   5.7852E-04  0.0083
   2.0784E+00   2.1290E+00   5.7392E-04  0.0083
   2.1290E+00   2.1808E+00   5.7636E-04  0.0081
   2.1808E+00   2.2338E+00   5.7001E-04  0.0081
   2.2338E+00   2.2882E+00   5.7447E-04  0.0080
   2.2882E+00   2.3439E+00   5.6681E-04  0.0079
   2.3439E+00   2.4009E+00   5.7493E-04  0.0078
   2.4009E+00   2.4593E+00   5.8117E-04  0.0076
   2.4593E+00   2.5191E+00   5.8006E-04  0.0076
   2.5191E+00   2.5804E+00   5.7720E-04  0.0075
   2.5804E+00   2.6432E+00   5.7252E-04  0.0074
   2.6432E+00   2.7075E+00   5.6602E-04  0.0074
   2.7075E+00   2.7734E+00   5.6737E-04  0.0073
   2.7734E+00   2.8409E+00   5.6321E-04  0.0072
   2.8409E+00   2.9100E+00   5.6149E-04  0.0071
   2.9100E+00   2.9808E+00   5.6592E-04  0.0070
   2.9808E+00   3.0533E+00   5.6361E-04  0.0070
   3.0533E+00   3.1276E+00   5.6985E-04  0.0068
   3.1276E+00   3.2037E+00   5.5922E-04  0.0068
   3.2037E+00   3.2817E+00   5.6133E-04  0.0067
   3.2817E+00   3.3615E+00   5.5404E-04  0.0067
   3.3615E+00   3.4433E+00   5.5110E-04  0.0066
   3.4433E+00   3.5271E+00   5.4319E-04  0.0066
   3.5271E+00   3.6129E+00   5.4151E-04  0.0065
   3.6129E+00   3.7008E+00   5.3819E-04  0.0065
   3.7008E+00   3.7908E+00   5.3903E-04  0.0064
   3.7908E+00   3.8831E+00   5.2703E-04  0.0064
   3.8831E+00   3.9776E+00   5.1816E-04  0.0064
   3.9776E+00   4.0743E+00   5.2130E-04  0.0063
   4.0743E+00   4.1735E+00   5.1523E-04  0.0062
   4.1735E+00   4.2750E+00   5.0530E-04  0.0062
   4.2750E+00   4.3790E+00   4.9637E-04  0.0062
   4.3790E+00   4.4856E+00   4.9595E-04  0.0061
   4.4856E+00   4.5947E+00   4.8586E-04  0.0061
   4.5947E+00   4.7065E+00   4.8712E-04  0.0060
   4.7065E+00   4.8210E+00   4.7305E-04  0.0061
   4.8210E+00   4.9383E+00   4.7416E-04  0.0060
   4.9383E+00   5.0585E+00   4.6976E-04  0.0059
   5.0585E+00   5.1815E+00   4.5484E-04  0.0060
   5.1815E+00   5.3076E+00   4.5606E-04  0.0059
   5.3076E+00   5.4368E+00   4.4558E-04  0.0059
   5.4368E+00   5.5690E+00   4.4551E-04  0.0058
   5.5690E+00   5.7045E+00   4.3460E-04  0.0058
   5.7045E+00   5.8433E+00   4.2428E-04  0.0058
   5.8433E+00   5.9855E+00   4.1281E-04  0.0058
   5.9855E+00   6.1311E+00   4.0925E-04  0.0058
   6.1311E+00   6.2803E+00   4.0284E-04  0.0058
   6.2803E+00   6.4331E+00   3.9998E-04  0.0057
   6.4331E+00   6.5896E+00   3.9122E-04  0.0057
   6.5896E+00   6.7500E+00   3.8188E-04  0.0057
   6.7500E+00   6.9142E+00   3.7543E-04  0.0057
   6.9142E+00   7.0824E+00   3.6911E-04  0.0057
   7.0824E+00   7.2548E+00   3.6244E-04  0.0056
   7.2548E+00   7.4313E+00   3.5373E-04  0.0056
   7.4313E+00   7.6121E+00   3.4597E-04  0.0056
   7.6121E+00   7.7973E+00   3.3690E-04  0.0057
   7.7973E+00   7.9870E+00   3.3391E-04  0.0056
   7.9870E+00   8.1813E+00   3.2737E-04  0.0056
   8.1813E+00   8.3804E+00   3.2013E-04  0.0056
   8.3804E+00   8.5843E+00   3.1180E-04  0.0056
   8.5843E+00   8.7931E+00   3.0284E-04  0.0056
   8.7931E+00   9.0071E+00   2.9752E-04  0.0056
   9.0071E+00   9.2262E+00   2.9140E-04  0.0056
   9.2262E+00   9.4507E+00   2.7941E-04  0.0056
   9.4507E+00   9.6807E+00   2.7637E-04  0.0056
   9.6807E+00   9.9162E+00   2.6921E-04  0.0056
   9.9162E+00   1.0157E+01   2.6545E-04  0.0056
   1.0157E+01   1.0405E+01   2.5543E-04  0.0056
   1.0405E+01   1.0658E+01   2.4953E-04  0.0056
   1.0658E+01   1.0917E+01   2.4659E-04  0.0056
   1.0917E+01   1.1183E+01   2.4018E-04  0.0056
   1.1183E+01   1.1455E+01   2.3286E-04  0.0056
   1.1455E+01   1.1733E+01   2.2959E-04  0.0056
   1.1733E+01   1.2019E+01   2.2191E-04  0.0056
   1.2019E+01   1.2311E+01   2.1603E-04  0.0056
   1.2311E+01   1.2611E+01   2.1230E-04  0.0056
   1.2611E+01   1.2918E+01   2.0685E-04  0.0056
   1.2918E+01   1.3232E+01   2.0006E-04  0.0056
   1.3232E+01   1.3554E+01   1.9590E-04  0.0056
   1.3554E+01   1.3884E+01   1.8945E-04  0.0057
   1.3884E+01   1.4222E+01   1.8374E-04  0.0057
   1.4222E+01   1.4568E+01   1.7794E-04  0.0057
   1.4568E+01   1.4922E+01   1.7172E-04  0.0057
   1.4922E+01   1.5285E+01   1.6714E-04  0.0057
   1.5285E+01   1.5657E+01   1.6033E-04  0.0058
   1.5657E+01   1.6038E+01   1.5637E-04  0.0058
   1.6038E+01   1.6428E+01   1.5150E-04  0.0058
   1.6428E+01   1.6828E+01   1.4514E-04  0.0059
   1.6828E+01   1.7237E+01   1.3988E-04  0.0059
   1.7237E+01   1.7657E+01   1.3380E-04  0.0060
   1.7657E+01   1.8086E+01   1.2950E-04  0.0060
   1.8086E+01   1.8526E+01   1.2288E-04  0.0061
   1.8526E+01   1.8977E+01   1.1953E-04  0.0061
   1.8977E+01   1.9439E+01   1.1595E-04  0.0061
   1.9439E+01   1.9912E+01   1.1408E-04  0.0061
   1.9912E+01   2.0396E+01   1.1268E-04  0.0061
   2.0396E+01   2.0893E+01   1.0903E-04  0.0061
   2.0893E+01   2.1401E+01   1.0374E-04  0.0062
   2.1401E+01   2.1922E+01   9.8337E-05  0.0062
   2.1922E+01   2.2455E+01   9.3556E-05  0.0063
   2.2455E+01   2.3001E+01   8.7574E-05  0.0065
   2.3001E+01   2.3561E+01   8.3271E-05  0.0066
   2.3561E+01   2.4134E+01   7.8418E-05  0.0067
   2.4134E+01   2.4721E+01   7.4642E-05  0.0068
   2.4721E+01   2.5323E+01   7.0661E-05  0.0069
   2.5323E+01   2.5939E+01   6.6694E-05  0.0070
   2.5939E+01   2.6570E+01   6.2419E-05  0.0071
   2.6570E+01   2.7217E+01   5.8610E-05  0.0073
   2.7217E+01   2.7879E+01   5.4479E-05  0.0074
   2.7879E+01   2.8557E+01   5.1834E-05  0.0075
   2.8557E+01   2.9252E+01   4.8272E-05  0.0077
   2.9252E+01   2.9964E+01   4.5161E-05  0.0079
   2.9964E+01   3.0693E+01   4.2354E-05  0.0080
   3.0693E+01   3.1440E+01   3.9358E-05  0.0082
   3.1440E+01   3.2205E+01   3.6575E-05  0.0085
   3.2205E+01   3.2988E+01   3.4162E-05  0.0086
   3.2988E+01   3.3791E+01   3.1292E-05  0.0089
   3.3791E+01   3.4613E+01   2.9430E-05  0.0091
   3.4613E+01   3.5455E+01   2.7392E-05  0.0093
   3.5455E+01   3.6318E+01   2.5438E-05  0.0095
   3.6318E+01   3.7201E+01   2.3537E-05  0.0098
   3.7201E+01   3.8106E+01   2.1780E-05  0.0101
   3.8106E+01   3.9034E+01   1.9966E-05  0.0104
   3.9034E+01   3.9983E+01   1.8820E-05  0.0106
   3.9983E+01   4.0956E+01   1.7175E-05  0.0109
   4.0956E+01   4.1953E+01   1.5829E-05  0.0113
   4.1953E+01   4.2973E+01   1.4846E-05  0.0115
   4.2973E+01   4.4019E+01   1.3524E-05  0.0119
   4.4019E+01   4.5090E+01   1.2532E-05  0.0122
   4.5090E+01   4.6187E+01   1.1257E-05  0.0127
   4.6187E+01   4.7311E+01   9.9327E-06  0.0134
   4.7311E+01   4.8462E+01   9.2016E-06  0.0137
   4.8462E+01   4.9641E+01   8.1773E-06  0.0144
   4.9641E+01   5.0849E+01   7.4101E-06  0.0149
   5.0849E+01   5.2086E+01   6.7007E-06  0.0155
   5.2086E+01   5.3353E+01   6.1596E-06  0.0160
   5.3353E+01   5.4651E+01   5.1197E-06  0.0173
   5.4651E+01   5.5981E+01   4.2821E-06  0.0187
   5.5981E+01   5.7343E+01   3.5108E-06  0.0205
   5.7343E+01   5.8738E+01   2.3667E-06  0.0246
   5.8738E+01   6.0168E+01   1.3225E-06  0.0325
   6.0168E+01   6.1632E+01   7.7873E-07  0.0419
   6.1632E+01   6.3131E+01   2.1206E-07  0.0793
   6.3131E+01   6.4667E+01   3.9062E-09  0.5774
   6.4667E+01   6.6240E+01   0.0000E+00  0.0000
   6.6240E+01   6.7852E+01   0.0000E+00  0.0000
   6.7852E+01   6.9503E+01   0.0000E+00  0.0000
   6.9503E+01   7.1194E+01   0.0000E+00  0.0000
   7.1194E+01   7.2926E+01   0.0000E+00  0.0000
   7.2926E+01   7.4701E+01   0.0000E+00  0.0000
   7.4701E+01   7.6518E+01   0.0000E+00  0.0000
   7.6518E+01   7.8380E+01   0.0000E+00  0.0000
   7.8380E+01   8.0287E+01   0.0000E+00  0.0000
   8.0287E+01   8.2240E+01   0.0000E+00  0.0000
   8.2240E+01   8.4241E+01   0.0000E+00  0.0000
   8.4241E+01   8.6291E+01   0.0000E+00  0.0000
   8.6291E+01   8.8391E+01   0.0000E+00  0.0000
   8.8391E+01   9.0541E+01   0.0000E+00  0.0000
   9.0541E+01   9.2744E+01   0.0000E+00  0.0000
   9.2744E+01   9.5001E+01   0.0000E+00  0.0000
   9.5001E+01   9.7312E+01   0.0000E+00  0.0000
   9.7312E+01   9.9680E+01   0.0000E+00  0.0000
   9.9680E+01   1.0211E+02   0.0000E+00  0.0000
   1.0211E+02   1.0459E+02   0.0000E+00  0.0000
   1.0459E+02   1.0713E+02   0.0000E+00  0.0000
   1.0713E+02   1.0974E+02   0.0000E+00  0.0000
   1.0974E+02   1.1241E+02   0.0000E+00  0.0000
   1.1241E+02   1.1515E+02   0.0000E+00  0.0000
   1.1515E+02   1.1795E+02   0.0000E+00  0.0000
   1.1795E+02   1.2082E+02   0.0000E+00  0.0000
   1.2082E+02   1.2376E+02   0.0000E+00  0.0000
   1.2376E+02   1.2677E+02   0.0000E+00  0.0000
   1.2677E+02   1.2985E+02   0.0000E+00  0.0000
   1.2985E+02   1.3301E+02   0.0000E+00  0.0000
   1.3301E+02   1.3625E+02   0.0000E+00  0.0000
   1.3625E+02   1.3956E+02   0.0000E+00  0.0000
   1.3956E+02   1.4296E+02   0.0000E+00  0.0000
   1.4296E+02   1.4644E+02   0.0000E+00  0.0000
   1.4644E+02   1.5000E+02   0.0000E+00  0.0000

#   sum over                 4.8260E-05
'no. =    1   reg = 107 - 207'
msuc: {\huge [t-cross] in region mesh}
msdr: {\it plotted by \ANGEL \version}
msdl: {\it calculated by \PHITS  3.26}
wt: s(0.7)
\vspace{-3}
  region surface crossing
  area  &=&   1.0000E+00 [cm^2]
e:
 
# Information for Restart Calculation
# This calculation was newly started
# istdev =  2 # 1:Batch variance, 2:History variance
# resc2  = 5.00000000000000000E+08 # Total source weight or Total source weight / maxcas
# resc3  = 5.00000000000000000E+08 # Total history number or Total batch number
# maxcas =   500000000 # History / Batch, only used for istdev=1
# bitrseed = 1101101111010011011000101101110001100110110010110001010100010001 # bit data of rseed
