[ T-Cross ]
    title = [t-cross] in region mesh
     mesh =  reg            # mesh type is region-wise
      reg =    1            # number of crossing regions
      non     r-from    r-to       area
      1       114       214        1.000000    
   e-type =    3            # e-mesh is log given by emin, emax and ne
     emin =  1.0000000E-02  # minimum value of e-mesh points
     emax =   150.0000      # maximum value of e-mesh points
#    edel =  2.4039514E-02  # mesh width of e-mesh points
       ne =    400          # number of e-mesh points
#    data = ( e(i), i = 1, ne + 1 )
#           1.00000E-02  1.02433E-02  1.04925E-02  1.07478E-02  1.10093E-02
#           1.12772E-02  1.15516E-02  1.18326E-02  1.21205E-02  1.24154E-02
#           1.27175E-02  1.30269E-02  1.33439E-02  1.36686E-02  1.40011E-02
#           1.43418E-02  1.46907E-02  1.50482E-02  1.54143E-02  1.57894E-02
#           1.61735E-02  1.65670E-02  1.69701E-02  1.73830E-02  1.78060E-02
#           1.82392E-02  1.86830E-02  1.91375E-02  1.96032E-02  2.00801E-02
#           2.05687E-02  2.10692E-02  2.15818E-02  2.21069E-02  2.26448E-02
#           2.31957E-02  2.37601E-02  2.43382E-02  2.49304E-02  2.55369E-02
#           2.61583E-02  2.67947E-02  2.74467E-02  2.81145E-02  2.87985E-02
#           2.94992E-02  3.02169E-02  3.09521E-02  3.17052E-02  3.24766E-02
#           3.32668E-02  3.40762E-02  3.49053E-02  3.57546E-02  3.66246E-02
#           3.75157E-02  3.84284E-02  3.93634E-02  4.03212E-02  4.13022E-02
#           4.23071E-02  4.33365E-02  4.43909E-02  4.54710E-02  4.65773E-02
#           4.77106E-02  4.88714E-02  5.00605E-02  5.12785E-02  5.25262E-02
#           5.38042E-02  5.51133E-02  5.64542E-02  5.78278E-02  5.92348E-02
#           6.06760E-02  6.21523E-02  6.36645E-02  6.52135E-02  6.68002E-02
#           6.84255E-02  7.00904E-02  7.17957E-02  7.35426E-02  7.53319E-02
#           7.71648E-02  7.90423E-02  8.09655E-02  8.29354E-02  8.49533E-02
#           8.70203E-02  8.91376E-02  9.13064E-02  9.35279E-02  9.58035E-02
#           9.81345E-02  1.00522E-01  1.02968E-01  1.05473E-01  1.08040E-01
#           1.10668E-01  1.13361E-01  1.16119E-01  1.18944E-01  1.21838E-01
#           1.24803E-01  1.27839E-01  1.30950E-01  1.34136E-01  1.37399E-01
#           1.40742E-01  1.44167E-01  1.47675E-01  1.51268E-01  1.54948E-01
#           1.58718E-01  1.62580E-01  1.66535E-01  1.70587E-01  1.74738E-01
#           1.78989E-01  1.83344E-01  1.87805E-01  1.92375E-01  1.97055E-01
#           2.01850E-01  2.06761E-01  2.11792E-01  2.16945E-01  2.22223E-01
#           2.27630E-01  2.33169E-01  2.38842E-01  2.44653E-01  2.50605E-01
#           2.56703E-01  2.62949E-01  2.69346E-01  2.75900E-01  2.82613E-01
#           2.89489E-01  2.96532E-01  3.03747E-01  3.11138E-01  3.18708E-01
#           3.26462E-01  3.34405E-01  3.42542E-01  3.50876E-01  3.59413E-01
#           3.68158E-01  3.77116E-01  3.86291E-01  3.95690E-01  4.05317E-01
#           4.15179E-01  4.25281E-01  4.35628E-01  4.46227E-01  4.57084E-01
#           4.68205E-01  4.79597E-01  4.91266E-01  5.03219E-01  5.15463E-01
#           5.28005E-01  5.40851E-01  5.54011E-01  5.67490E-01  5.81298E-01
#           5.95441E-01  6.09929E-01  6.24769E-01  6.39970E-01  6.55541E-01
#           6.71491E-01  6.87828E-01  7.04564E-01  7.21706E-01  7.39266E-01
#           7.57253E-01  7.75678E-01  7.94551E-01  8.13883E-01  8.33685E-01
#           8.53969E-01  8.74747E-01  8.96030E-01  9.17831E-01  9.40163E-01
#           9.63038E-01  9.86469E-01  1.01047E+00  1.03506E+00  1.06024E+00
#           1.08604E+00  1.11246E+00  1.13953E+00  1.16725E+00  1.19565E+00
#           1.22474E+00  1.25454E+00  1.28507E+00  1.31633E+00  1.34836E+00
#           1.38117E+00  1.41477E+00  1.44920E+00  1.48446E+00  1.52057E+00
#           1.55757E+00  1.59547E+00  1.63429E+00  1.67405E+00  1.71478E+00
#           1.75650E+00  1.79924E+00  1.84302E+00  1.88786E+00  1.93379E+00
#           1.98084E+00  2.02904E+00  2.07841E+00  2.12898E+00  2.18078E+00
#           2.23384E+00  2.28819E+00  2.34386E+00  2.40089E+00  2.45930E+00
#           2.51914E+00  2.58043E+00  2.64322E+00  2.70753E+00  2.77341E+00
#           2.84088E+00  2.91001E+00  2.98081E+00  3.05333E+00  3.12762E+00
#           3.20372E+00  3.28167E+00  3.36152E+00  3.44330E+00  3.52708E+00
#           3.61290E+00  3.70080E+00  3.79085E+00  3.88308E+00  3.97756E+00
#           4.07434E+00  4.17347E+00  4.27501E+00  4.37903E+00  4.48557E+00
#           4.59471E+00  4.70650E+00  4.82102E+00  4.93832E+00  5.05847E+00
#           5.18155E+00  5.30762E+00  5.43676E+00  5.56904E+00  5.70453E+00
#           5.84333E+00  5.98550E+00  6.13114E+00  6.28031E+00  6.43312E+00
#           6.58964E+00  6.74997E+00  6.91420E+00  7.08243E+00  7.25475E+00
#           7.43126E+00  7.61207E+00  7.79728E+00  7.98700E+00  8.18133E+00
#           8.38038E+00  8.58428E+00  8.79315E+00  9.00709E+00  9.22624E+00
#           9.45072E+00  9.68067E+00  9.91620E+00  1.01575E+01  1.04046E+01
#           1.06578E+01  1.09171E+01  1.11827E+01  1.14548E+01  1.17335E+01
#           1.20190E+01  1.23114E+01  1.26109E+01  1.29178E+01  1.32321E+01
#           1.35540E+01  1.38838E+01  1.42216E+01  1.45676E+01  1.49221E+01
#           1.52851E+01  1.56570E+01  1.60380E+01  1.64282E+01  1.68279E+01
#           1.72374E+01  1.76568E+01  1.80864E+01  1.85264E+01  1.89772E+01
#           1.94389E+01  1.99119E+01  2.03963E+01  2.08926E+01  2.14009E+01
#           2.19216E+01  2.24550E+01  2.30014E+01  2.35610E+01  2.41343E+01
#           2.47215E+01  2.53230E+01  2.59391E+01  2.65702E+01  2.72167E+01
#           2.78789E+01  2.85572E+01  2.92520E+01  2.99637E+01  3.06928E+01
#           3.14396E+01  3.22045E+01  3.29881E+01  3.37907E+01  3.46128E+01
#           3.54550E+01  3.63177E+01  3.72013E+01  3.81064E+01  3.90336E+01
#           3.99833E+01  4.09561E+01  4.19526E+01  4.29734E+01  4.40189E+01
#           4.50900E+01  4.61870E+01  4.73108E+01  4.84619E+01  4.96410E+01
#           5.08488E+01  5.20860E+01  5.33533E+01  5.46514E+01  5.59812E+01
#           5.73432E+01  5.87384E+01  6.01676E+01  6.16315E+01  6.31311E+01
#           6.46671E+01  6.62405E+01  6.78522E+01  6.95031E+01  7.11941E+01
#           7.29263E+01  7.47007E+01  7.65182E+01  7.83800E+01  8.02870E+01
#           8.22405E+01  8.42414E+01  8.62911E+01  8.83906E+01  9.05412E+01
#           9.27442E+01  9.50007E+01  9.73122E+01  9.96799E+01  1.02105E+02
#           1.04589E+02  1.07134E+02  1.09741E+02  1.12411E+02  1.15146E+02
#           1.17948E+02  1.20817E+02  1.23757E+02  1.26768E+02  1.29852E+02
#           1.33012E+02  1.36248E+02  1.39563E+02  1.42959E+02  1.46437E+02
#           1.50000E+02
     unit =    2            # unit is [1/cm^2/(MeV/n)/source]
     axis =  eng            # axis of output
     file = detector-15.out  # file name of output for the above axis
   output = f-curr          # surface crossing forward current spectrum
     part =  neutron  
# kf/name :  2112     
#    used :        main (  %)        temp (  %)       total (  %)
#  memory :         414 (  0)           0 (  0)         414 (  0)

#------------------------------------------------------------------------------
#newpage:
#   no. =    1   reg = 114 - 214

x: Energy [MeV/n]
y:  F-Curr [1/cm^2/(MeV/n)/source]         
p: xlog ylog afac(0.8) form(0.9)
h: n            x            y(neutron ),hh0l   n 
#  e-lower      e-upper      neutron     r.err 
   1.0000E-02   1.0243E-02   1.4673E-04  0.0748
   1.0243E-02   1.0493E-02   1.2166E-04  0.0810
   1.0493E-02   1.0748E-02   1.3621E-04  0.0756
   1.0748E-02   1.1009E-02   1.2919E-04  0.0767
   1.1009E-02   1.1277E-02   1.2855E-04  0.0761
   1.1277E-02   1.1552E-02   1.3298E-04  0.0739
   1.1552E-02   1.1833E-02   1.1080E-04  0.0799
   1.1833E-02   1.2121E-02   1.1351E-04  0.0781
   1.2121E-02   1.2415E-02   1.0353E-04  0.0806
   1.2415E-02   1.2718E-02   1.1795E-04  0.0747
   1.2718E-02   1.3027E-02   1.2447E-04  0.0718
   1.3027E-02   1.3344E-02   1.0331E-04  0.0780
   1.3344E-02   1.3669E-02   1.0736E-04  0.0755
   1.3669E-02   1.4001E-02   1.0551E-04  0.0753
   1.4001E-02   1.4342E-02   1.0109E-04  0.0760
   1.4342E-02   1.4691E-02   1.0055E-04  0.0753
   1.4691E-02   1.5048E-02   1.0864E-04  0.0715
   1.5048E-02   1.5414E-02   1.0254E-04  0.0728
   1.5414E-02   1.5789E-02   8.7123E-05  0.0781
   1.5789E-02   1.6174E-02   9.5772E-05  0.0735
   1.6174E-02   1.6567E-02   8.8302E-05  0.0757
   1.6567E-02   1.6970E-02   8.1715E-05  0.0775
   1.6970E-02   1.7383E-02   8.1144E-05  0.0768
   1.7383E-02   1.7806E-02   8.4834E-05  0.0745
   1.7806E-02   1.8239E-02   8.0803E-05  0.0755
   1.8239E-02   1.8683E-02   7.7361E-05  0.0760
   1.8683E-02   1.9138E-02   8.3114E-05  0.0724
   1.9138E-02   1.9603E-02   8.2018E-05  0.0722
   1.9603E-02   2.0080E-02   7.7638E-05  0.0733
   2.0080E-02   2.0569E-02   7.5019E-05  0.0736
   2.0569E-02   2.1069E-02   6.3626E-05  0.0790
   2.1069E-02   2.1582E-02   7.2875E-05  0.0730
   2.1582E-02   2.2107E-02   6.6794E-05  0.0754
   2.2107E-02   2.2645E-02   7.2816E-05  0.0713
   2.2645E-02   2.3196E-02   6.5059E-05  0.0745
   2.3196E-02   2.3760E-02   6.1826E-05  0.0754
   2.3760E-02   2.4338E-02   6.1393E-05  0.0748
   2.4338E-02   2.4930E-02   6.3641E-05  0.0726
   2.4930E-02   2.5537E-02   6.7356E-05  0.0697
   2.5537E-02   2.6158E-02   5.7736E-05  0.0744
   2.6158E-02   2.6795E-02   5.3540E-05  0.0765
   2.6795E-02   2.7447E-02   6.3448E-05  0.0694
   2.7447E-02   2.8114E-02   4.8921E-05  0.0781
   2.8114E-02   2.8799E-02   5.6498E-05  0.0718
   2.8799E-02   2.9499E-02   5.2409E-05  0.0737
   2.9499E-02   3.0217E-02   5.8095E-05  0.0691
   3.0217E-02   3.0952E-02   5.5527E-05  0.0699
   3.0952E-02   3.1705E-02   5.1529E-05  0.0716
   3.1705E-02   3.2477E-02   4.2443E-05  0.0779
   3.2477E-02   3.3267E-02   5.2311E-05  0.0694
   3.3267E-02   3.4076E-02   4.7217E-05  0.0722
   3.4076E-02   3.4905E-02   4.4075E-05  0.0737
   3.4905E-02   3.5755E-02   4.5986E-05  0.0714
   3.5755E-02   3.6625E-02   4.7492E-05  0.0694
   3.6625E-02   3.7516E-02   4.5897E-05  0.0698
   3.7516E-02   3.8428E-02   4.7993E-05  0.0673
   3.8428E-02   3.9363E-02   3.8837E-05  0.0740
   3.9363E-02   4.0321E-02   4.4512E-05  0.0684
   4.0321E-02   4.1302E-02   3.6491E-05  0.0745
   4.1302E-02   4.2307E-02   3.7137E-05  0.0730
   4.2307E-02   4.3337E-02   3.6435E-05  0.0728
   4.3337E-02   4.4391E-02   4.1110E-05  0.0678
   4.4391E-02   4.5471E-02   3.9262E-05  0.0685
   4.5471E-02   4.6577E-02   3.7254E-05  0.0694
   4.6577E-02   4.7711E-02   3.8040E-05  0.0680
   4.7711E-02   4.8871E-02   3.2839E-05  0.0722
   4.8871E-02   5.0061E-02   3.4611E-05  0.0695
   5.0061E-02   5.1279E-02   3.5732E-05  0.0676
   5.1279E-02   5.2526E-02   3.3224E-05  0.0693
   5.2526E-02   5.3804E-02   3.4672E-05  0.0670
   5.3804E-02   5.5113E-02   2.9308E-05  0.0720
   5.5113E-02   5.6454E-02   3.1553E-05  0.0686
   5.6454E-02   5.7828E-02   3.1451E-05  0.0679
   5.7828E-02   5.9235E-02   3.2319E-05  0.0661
   5.9235E-02   6.0676E-02   2.5336E-05  0.0737
   6.0676E-02   6.2152E-02   2.8415E-05  0.0689
   6.2152E-02   6.3665E-02   2.9997E-05  0.0662
   6.3665E-02   6.5214E-02   2.6648E-05  0.0695
   6.5214E-02   6.6800E-02   2.8420E-05  0.0664
   6.6800E-02   6.8426E-02   2.6467E-05  0.0681
   6.8426E-02   7.0090E-02   2.7971E-05  0.0653
   7.0090E-02   7.1796E-02   2.5127E-05  0.0682
   7.1796E-02   7.3543E-02   2.4714E-05  0.0677
   7.3543E-02   7.5332E-02   2.5990E-05  0.0654
   7.5332E-02   7.7165E-02   2.2807E-05  0.0690
   7.7165E-02   7.9042E-02   2.3534E-05  0.0671
   7.9042E-02   8.0965E-02   2.8895E-05  0.0598
   8.0965E-02   8.2935E-02   2.2374E-05  0.0672
   8.2935E-02   8.4953E-02   2.3541E-05  0.0647
   8.4953E-02   8.7020E-02   2.2020E-05  0.0661
   8.7020E-02   8.9138E-02   2.0653E-05  0.0673
   8.9138E-02   9.1306E-02   2.1471E-05  0.0653
   9.1306E-02   9.3528E-02   2.0531E-05  0.0660
   9.3528E-02   9.5804E-02   2.3155E-05  0.0614
   9.5804E-02   9.8134E-02   2.0333E-05  0.0648
   9.8134E-02   1.0052E-01   2.0026E-05  0.0645
   1.0052E-01   1.0297E-01   2.3365E-05  0.0590
   1.0297E-01   1.0547E-01   2.1138E-05  0.0613
   1.0547E-01   1.0804E-01   2.3824E-05  0.0571
   1.0804E-01   1.1067E-01   2.7205E-05  0.0527
   1.1067E-01   1.1336E-01   2.6163E-05  0.0532
   1.1336E-01   1.1612E-01   2.8580E-05  0.0503
   1.1612E-01   1.1894E-01   2.9510E-05  0.0489
   1.1894E-01   1.2184E-01   3.1907E-05  0.0464
   1.2184E-01   1.2480E-01   3.4461E-05  0.0442
   1.2480E-01   1.2784E-01   3.2526E-05  0.0449
   1.2784E-01   1.3095E-01   3.4798E-05  0.0429
   1.3095E-01   1.3414E-01   3.5183E-05  0.0422
   1.3414E-01   1.3740E-01   3.8337E-05  0.0399
   1.3740E-01   1.4074E-01   3.9870E-05  0.0386
   1.4074E-01   1.4417E-01   4.2142E-05  0.0372
   1.4417E-01   1.4767E-01   4.4274E-05  0.0358
   1.4767E-01   1.5127E-01   4.6660E-05  0.0345
   1.5127E-01   1.5495E-01   4.5851E-05  0.0343
   1.5495E-01   1.5872E-01   4.9385E-05  0.0327
   1.5872E-01   1.6258E-01   5.3436E-05  0.0311
   1.6258E-01   1.6654E-01   5.5206E-05  0.0302
   1.6654E-01   1.7059E-01   5.9779E-05  0.0287
   1.7059E-01   1.7474E-01   5.9819E-05  0.0283
   1.7474E-01   1.7899E-01   6.4468E-05  0.0270
   1.7899E-01   1.8334E-01   6.4006E-05  0.0267
   1.8334E-01   1.8781E-01   6.6436E-05  0.0259
   1.8781E-01   1.9237E-01   6.9037E-05  0.0251
   1.9237E-01   1.9706E-01   7.4852E-05  0.0239
   1.9706E-01   2.0185E-01   7.8562E-05  0.0230
   2.0185E-01   2.0676E-01   7.9888E-05  0.0225
   2.0676E-01   2.1179E-01   8.6459E-05  0.0214
   2.1179E-01   2.1694E-01   8.9941E-05  0.0207
   2.1694E-01   2.2222E-01   9.4904E-05  0.0199
   2.2222E-01   2.2763E-01   9.6291E-05  0.0196
   2.2763E-01   2.3317E-01   1.0280E-04  0.0187
   2.3317E-01   2.3884E-01   1.0363E-04  0.0184
   2.3884E-01   2.4465E-01   1.0986E-04  0.0177
   2.4465E-01   2.5061E-01   1.1324E-04  0.0172
   2.5061E-01   2.5670E-01   1.1514E-04  0.0168
   2.5670E-01   2.6295E-01   1.2023E-04  0.0163
   2.6295E-01   2.6935E-01   1.2727E-04  0.0156
   2.6935E-01   2.7590E-01   1.3165E-04  0.0152
   2.7590E-01   2.8261E-01   1.3742E-04  0.0147
   2.8261E-01   2.8949E-01   1.4376E-04  0.0142
   2.8949E-01   2.9653E-01   1.4213E-04  0.0141
   2.9653E-01   3.0375E-01   1.5366E-04  0.0134
   3.0375E-01   3.1114E-01   1.5557E-04  0.0132
   3.1114E-01   3.1871E-01   1.6533E-04  0.0126
   3.1871E-01   3.2646E-01   1.6728E-04  0.0124
   3.2646E-01   3.3441E-01   1.7238E-04  0.0121
   3.3441E-01   3.4254E-01   1.7529E-04  0.0118
   3.4254E-01   3.5088E-01   1.8020E-04  0.0115
   3.5088E-01   3.5941E-01   1.9161E-04  0.0110
   3.5941E-01   3.6816E-01   1.9326E-04  0.0109
   3.6816E-01   3.7712E-01   1.9809E-04  0.0106
   3.7712E-01   3.8629E-01   2.0520E-04  0.0103
   3.8629E-01   3.9569E-01   2.1247E-04  0.0100
   3.9569E-01   4.0532E-01   2.1437E-04  0.0098
   4.0532E-01   4.1518E-01   2.1880E-04  0.0096
   4.1518E-01   4.2528E-01   2.1902E-04  0.0095
   4.2528E-01   4.3563E-01   2.2394E-04  0.0093
   4.3563E-01   4.4623E-01   2.2639E-04  0.0091
   4.4623E-01   4.5708E-01   2.3369E-04  0.0089
   4.5708E-01   4.6821E-01   2.3938E-04  0.0086
   4.6821E-01   4.7960E-01   2.3997E-04  0.0085
   4.7960E-01   4.9127E-01   2.4271E-04  0.0084
   4.9127E-01   5.0322E-01   2.4856E-04  0.0082
   5.0322E-01   5.1546E-01   2.5068E-04  0.0081
   5.1546E-01   5.2800E-01   2.5339E-04  0.0079
   5.2800E-01   5.4085E-01   2.5928E-04  0.0077
   5.4085E-01   5.5401E-01   2.5577E-04  0.0077
   5.5401E-01   5.6749E-01   2.5882E-04  0.0075
   5.6749E-01   5.8130E-01   2.6420E-04  0.0074
   5.8130E-01   5.9544E-01   2.6687E-04  0.0073
   5.9544E-01   6.0993E-01   2.6309E-04  0.0072
   6.0993E-01   6.2477E-01   2.6685E-04  0.0071
   6.2477E-01   6.3997E-01   2.6648E-04  0.0070
   6.3997E-01   6.5554E-01   2.6728E-04  0.0069
   6.5554E-01   6.7149E-01   2.6727E-04  0.0068
   6.7149E-01   6.8783E-01   2.7020E-04  0.0067
   6.8783E-01   7.0456E-01   2.7145E-04  0.0066
   7.0456E-01   7.2171E-01   2.6978E-04  0.0066
   7.2171E-01   7.3927E-01   2.6771E-04  0.0065
   7.3927E-01   7.5725E-01   2.6891E-04  0.0064
   7.5725E-01   7.7568E-01   2.6784E-04  0.0063
   7.7568E-01   7.9455E-01   2.6621E-04  0.0063
   7.9455E-01   8.1388E-01   2.6574E-04  0.0062
   8.1388E-01   8.3368E-01   2.6385E-04  0.0062
   8.3368E-01   8.5397E-01   2.6509E-04  0.0061
   8.5397E-01   8.7475E-01   2.6075E-04  0.0061
   8.7475E-01   8.9603E-01   2.5924E-04  0.0060
   8.9603E-01   9.1783E-01   2.5603E-04  0.0060
   9.1783E-01   9.4016E-01   2.5560E-04  0.0059
   9.4016E-01   9.6304E-01   2.4893E-04  0.0059
   9.6304E-01   9.8647E-01   2.4902E-04  0.0058
   9.8647E-01   1.0105E+00   2.4370E-04  0.0058
   1.0105E+00   1.0351E+00   2.3671E-04  0.0058
   1.0351E+00   1.0602E+00   2.3318E-04  0.0058
   1.0602E+00   1.0860E+00   2.3361E-04  0.0057
   1.0860E+00   1.1125E+00   2.3063E-04  0.0057
   1.1125E+00   1.1395E+00   2.3145E-04  0.0056
   1.1395E+00   1.1673E+00   2.3138E-04  0.0055
   1.1673E+00   1.1957E+00   2.2959E-04  0.0055
   1.1957E+00   1.2247E+00   2.2896E-04  0.0054
   1.2247E+00   1.2545E+00   2.2425E-04  0.0054
   1.2545E+00   1.2851E+00   2.2579E-04  0.0053
   1.2851E+00   1.3163E+00   2.2060E-04  0.0053
   1.3163E+00   1.3484E+00   2.2134E-04  0.0053
   1.3484E+00   1.3812E+00   2.1963E-04  0.0052
   1.3812E+00   1.4148E+00   2.1413E-04  0.0052
   1.4148E+00   1.4492E+00   2.1456E-04  0.0051
   1.4492E+00   1.4845E+00   2.1123E-04  0.0051
   1.4845E+00   1.5206E+00   2.0966E-04  0.0051
   1.5206E+00   1.5576E+00   2.0730E-04  0.0050
   1.5576E+00   1.5955E+00   2.0354E-04  0.0050
   1.5955E+00   1.6343E+00   2.0023E-04  0.0050
   1.6343E+00   1.6741E+00   1.9591E-04  0.0050
   1.6741E+00   1.7148E+00   1.9338E-04  0.0050
   1.7148E+00   1.7565E+00   1.8649E-04  0.0050
   1.7565E+00   1.7992E+00   1.7893E-04  0.0050
   1.7992E+00   1.8430E+00   1.6761E-04  0.0051
   1.8430E+00   1.8879E+00   1.5663E-04  0.0052
   1.8879E+00   1.9338E+00   1.5296E-04  0.0052
   1.9338E+00   1.9808E+00   1.4712E-04  0.0052
   1.9808E+00   2.0290E+00   1.4336E-04  0.0052
   2.0290E+00   2.0784E+00   1.4200E-04  0.0052
   2.0784E+00   2.1290E+00   1.4229E-04  0.0051
   2.1290E+00   2.1808E+00   1.4003E-04  0.0051
   2.1808E+00   2.2338E+00   1.3956E-04  0.0050
   2.2338E+00   2.2882E+00   1.3632E-04  0.0050
   2.2882E+00   2.3439E+00   1.3239E-04  0.0051
   2.3439E+00   2.4009E+00   1.2707E-04  0.0051
   2.4009E+00   2.4593E+00   1.2430E-04  0.0051
   2.4593E+00   2.5191E+00   1.2090E-04  0.0051
   2.5191E+00   2.5804E+00   1.2008E-04  0.0051
   2.5804E+00   2.6432E+00   1.1654E-04  0.0051
   2.6432E+00   2.7075E+00   1.1327E-04  0.0051
   2.7075E+00   2.7734E+00   1.1171E-04  0.0051
   2.7734E+00   2.8409E+00   1.0797E-04  0.0051
   2.8409E+00   2.9100E+00   1.0650E-04  0.0051
   2.9100E+00   2.9808E+00   1.0382E-04  0.0051
   2.9808E+00   3.0533E+00   1.0119E-04  0.0051
   3.0533E+00   3.1276E+00   9.9433E-05  0.0051
   3.1276E+00   3.2037E+00   9.7860E-05  0.0051
   3.2037E+00   3.2817E+00   9.5998E-05  0.0050
   3.2817E+00   3.3615E+00   9.4766E-05  0.0050
   3.3615E+00   3.4433E+00   9.2446E-05  0.0050
   3.4433E+00   3.5271E+00   9.0899E-05  0.0050
   3.5271E+00   3.6129E+00   8.8462E-05  0.0050
   3.6129E+00   3.7008E+00   8.6837E-05  0.0050
   3.7008E+00   3.7908E+00   8.4921E-05  0.0050
   3.7908E+00   3.8831E+00   8.2770E-05  0.0050
   3.8831E+00   3.9776E+00   8.2010E-05  0.0050
   3.9776E+00   4.0743E+00   7.9401E-05  0.0050
   4.0743E+00   4.1735E+00   7.8815E-05  0.0049
   4.1735E+00   4.2750E+00   7.6265E-05  0.0050
   4.2750E+00   4.3790E+00   7.5008E-05  0.0050
   4.3790E+00   4.4856E+00   7.3213E-05  0.0050
   4.4856E+00   4.5947E+00   7.2055E-05  0.0049
   4.5947E+00   4.7065E+00   7.0704E-05  0.0049
   4.7065E+00   4.8210E+00   6.9933E-05  0.0049
   4.8210E+00   4.9383E+00   6.9353E-05  0.0049
   4.9383E+00   5.0585E+00   6.7852E-05  0.0048
   5.0585E+00   5.1815E+00   6.7597E-05  0.0048
   5.1815E+00   5.3076E+00   6.6640E-05  0.0048
   5.3076E+00   5.4368E+00   6.6341E-05  0.0047
   5.4368E+00   5.5690E+00   6.5136E-05  0.0047
   5.5690E+00   5.7045E+00   6.4377E-05  0.0047
   5.7045E+00   5.8433E+00   6.3981E-05  0.0047
   5.8433E+00   5.9855E+00   6.2751E-05  0.0046
   5.9855E+00   6.1311E+00   6.2172E-05  0.0046
   6.1311E+00   6.2803E+00   6.1460E-05  0.0046
   6.2803E+00   6.4331E+00   6.0590E-05  0.0046
   6.4331E+00   6.5896E+00   5.9944E-05  0.0045
   6.5896E+00   6.7500E+00   5.8903E-05  0.0045
   6.7500E+00   6.9142E+00   5.8348E-05  0.0045
   6.9142E+00   7.0824E+00   5.7583E-05  0.0045
   7.0824E+00   7.2548E+00   5.5899E-05  0.0045
   7.2548E+00   7.4313E+00   5.5329E-05  0.0045
   7.4313E+00   7.6121E+00   5.3709E-05  0.0045
   7.6121E+00   7.7973E+00   5.3007E-05  0.0045
   7.7973E+00   7.9870E+00   5.1881E-05  0.0044
   7.9870E+00   8.1813E+00   5.1014E-05  0.0044
   8.1813E+00   8.3804E+00   4.9853E-05  0.0044
   8.3804E+00   8.5843E+00   4.8939E-05  0.0044
   8.5843E+00   8.7931E+00   4.7734E-05  0.0044
   8.7931E+00   9.0071E+00   4.6640E-05  0.0044
   9.0071E+00   9.2262E+00   4.5214E-05  0.0045
   9.2262E+00   9.4507E+00   4.3829E-05  0.0045
   9.4507E+00   9.6807E+00   4.2119E-05  0.0045
   9.6807E+00   9.9162E+00   4.1637E-05  0.0045
   9.9162E+00   1.0157E+01   4.1810E-05  0.0044
   1.0157E+01   1.0405E+01   4.0865E-05  0.0044
   1.0405E+01   1.0658E+01   3.9224E-05  0.0045
   1.0658E+01   1.0917E+01   3.7782E-05  0.0045
   1.0917E+01   1.1183E+01   3.6068E-05  0.0046
   1.1183E+01   1.1455E+01   3.5228E-05  0.0046
   1.1455E+01   1.1733E+01   3.3894E-05  0.0046
   1.1733E+01   1.2019E+01   3.2634E-05  0.0046
   1.2019E+01   1.2311E+01   3.1607E-05  0.0046
   1.2311E+01   1.2611E+01   3.0282E-05  0.0047
   1.2611E+01   1.2918E+01   2.9247E-05  0.0047
   1.2918E+01   1.3232E+01   2.8038E-05  0.0048
   1.3232E+01   1.3554E+01   2.7267E-05  0.0048
   1.3554E+01   1.3884E+01   2.6013E-05  0.0048
   1.3884E+01   1.4222E+01   2.4555E-05  0.0049
   1.4222E+01   1.4568E+01   2.3553E-05  0.0049
   1.4568E+01   1.4922E+01   2.2615E-05  0.0050
   1.4922E+01   1.5285E+01   2.1432E-05  0.0051
   1.5285E+01   1.5657E+01   2.0185E-05  0.0052
   1.5657E+01   1.6038E+01   1.9432E-05  0.0052
   1.6038E+01   1.6428E+01   1.8314E-05  0.0053
   1.6428E+01   1.6828E+01   1.7418E-05  0.0054
   1.6828E+01   1.7237E+01   1.6377E-05  0.0055
   1.7237E+01   1.7657E+01   1.5177E-05  0.0056
   1.7657E+01   1.8086E+01   1.4356E-05  0.0057
   1.8086E+01   1.8526E+01   1.3349E-05  0.0058
   1.8526E+01   1.8977E+01   1.2430E-05  0.0060
   1.8977E+01   1.9439E+01   1.1842E-05  0.0060
   1.9439E+01   1.9912E+01   1.1372E-05  0.0061
   1.9912E+01   2.0396E+01   1.0607E-05  0.0062
   2.0396E+01   2.0893E+01   9.8287E-06  0.0064
   2.0893E+01   2.1401E+01   8.9850E-06  0.0066
   2.1401E+01   2.1922E+01   8.2915E-06  0.0068
   2.1922E+01   2.2455E+01   7.4162E-06  0.0071
   2.2455E+01   2.3001E+01   6.7686E-06  0.0074
   2.3001E+01   2.3561E+01   6.0378E-06  0.0077
   2.3561E+01   2.4134E+01   5.4150E-06  0.0080
   2.4134E+01   2.4721E+01   4.9168E-06  0.0083
   2.4721E+01   2.5323E+01   4.2956E-06  0.0088
   2.5323E+01   2.5939E+01   3.7830E-06  0.0093
   2.5939E+01   2.6570E+01   3.3857E-06  0.0097
   2.6570E+01   2.7217E+01   2.8768E-06  0.0104
   2.7217E+01   2.7879E+01   2.5358E-06  0.0109
   2.7879E+01   2.8557E+01   2.0940E-06  0.0119
   2.8557E+01   2.9252E+01   1.8120E-06  0.0126
   2.9252E+01   2.9964E+01   1.5734E-06  0.0134
   2.9964E+01   3.0693E+01   1.2927E-06  0.0146
   3.0693E+01   3.1440E+01   1.0638E-06  0.0159
   3.1440E+01   3.2205E+01   8.8215E-07  0.0172
   3.2205E+01   3.2988E+01   7.1418E-07  0.0189
   3.2988E+01   3.3791E+01   5.8907E-07  0.0206
   3.3791E+01   3.4613E+01   4.5150E-07  0.0232
   3.4613E+01   3.5455E+01   3.1633E-07  0.0274
   3.5455E+01   3.6318E+01   2.4135E-07  0.0310
   3.6318E+01   3.7201E+01   2.0099E-07  0.0336
   3.7201E+01   3.8106E+01   1.7809E-07  0.0352
   3.8106E+01   3.9034E+01   1.6157E-07  0.0365
   3.9034E+01   3.9983E+01   1.1814E-07  0.0422
   3.9983E+01   4.0956E+01   4.6668E-08  0.0664
   4.0956E+01   4.1953E+01   5.6197E-09  0.1890
   4.1953E+01   4.2973E+01   4.8984E-09  0.2000
   4.2973E+01   4.4019E+01   1.5303E-09  0.3536
   4.4019E+01   4.5090E+01   1.6806E-09  0.3333
   4.5090E+01   4.6187E+01   5.4691E-10  0.5774
   4.6187E+01   4.7311E+01   1.7797E-10  1.0000
   4.7311E+01   4.8462E+01   0.0000E+00  0.0000
   4.8462E+01   4.9641E+01   0.0000E+00  0.0000
   4.9641E+01   5.0849E+01   0.0000E+00  0.0000
   5.0849E+01   5.2086E+01   0.0000E+00  0.0000
   5.2086E+01   5.3353E+01   0.0000E+00  0.0000
   5.3353E+01   5.4651E+01   0.0000E+00  0.0000
   5.4651E+01   5.5981E+01   0.0000E+00  0.0000
   5.5981E+01   5.7343E+01   0.0000E+00  0.0000
   5.7343E+01   5.8738E+01   0.0000E+00  0.0000
   5.8738E+01   6.0168E+01   0.0000E+00  0.0000
   6.0168E+01   6.1632E+01   0.0000E+00  0.0000
   6.1632E+01   6.3131E+01   0.0000E+00  0.0000
   6.3131E+01   6.4667E+01   0.0000E+00  0.0000
   6.4667E+01   6.6240E+01   0.0000E+00  0.0000
   6.6240E+01   6.7852E+01   0.0000E+00  0.0000
   6.7852E+01   6.9503E+01   0.0000E+00  0.0000
   6.9503E+01   7.1194E+01   0.0000E+00  0.0000
   7.1194E+01   7.2926E+01   0.0000E+00  0.0000
   7.2926E+01   7.4701E+01   0.0000E+00  0.0000
   7.4701E+01   7.6518E+01   0.0000E+00  0.0000
   7.6518E+01   7.8380E+01   0.0000E+00  0.0000
   7.8380E+01   8.0287E+01   0.0000E+00  0.0000
   8.0287E+01   8.2240E+01   0.0000E+00  0.0000
   8.2240E+01   8.4241E+01   0.0000E+00  0.0000
   8.4241E+01   8.6291E+01   0.0000E+00  0.0000
   8.6291E+01   8.8391E+01   0.0000E+00  0.0000
   8.8391E+01   9.0541E+01   0.0000E+00  0.0000
   9.0541E+01   9.2744E+01   0.0000E+00  0.0000
   9.2744E+01   9.5001E+01   0.0000E+00  0.0000
   9.5001E+01   9.7312E+01   0.0000E+00  0.0000
   9.7312E+01   9.9680E+01   0.0000E+00  0.0000
   9.9680E+01   1.0211E+02   0.0000E+00  0.0000
   1.0211E+02   1.0459E+02   0.0000E+00  0.0000
   1.0459E+02   1.0713E+02   0.0000E+00  0.0000
   1.0713E+02   1.0974E+02   0.0000E+00  0.0000
   1.0974E+02   1.1241E+02   0.0000E+00  0.0000
   1.1241E+02   1.1515E+02   0.0000E+00  0.0000
   1.1515E+02   1.1795E+02   0.0000E+00  0.0000
   1.1795E+02   1.2082E+02   0.0000E+00  0.0000
   1.2082E+02   1.2376E+02   0.0000E+00  0.0000
   1.2376E+02   1.2677E+02   0.0000E+00  0.0000
   1.2677E+02   1.2985E+02   0.0000E+00  0.0000
   1.2985E+02   1.3301E+02   0.0000E+00  0.0000
   1.3301E+02   1.3625E+02   0.0000E+00  0.0000
   1.3625E+02   1.3956E+02   0.0000E+00  0.0000
   1.3956E+02   1.4296E+02   0.0000E+00  0.0000
   1.4296E+02   1.4644E+02   0.0000E+00  0.0000
   1.4644E+02   1.5000E+02   0.0000E+00  0.0000

#   sum over                 8.2532E-06
'no. =    1   reg = 114 - 214'
msuc: {\huge [t-cross] in region mesh}
msdr: {\it plotted by \ANGEL \version}
msdl: {\it calculated by \PHITS  3.26}
wt: s(0.7)
\vspace{-3}
  region surface crossing
  area  &=&   1.0000E+00 [cm^2]
e:
 
# Information for Restart Calculation
# This calculation was newly started
# istdev =  2 # 1:Batch variance, 2:History variance
# resc2  = 5.00000000000000000E+09 # Total source weight or Total source weight / maxcas
# resc3  = 5.00000000000000000E+09 # Total history number or Total batch number
# maxcas =   100000000 # History / Batch, only used for istdev=1
# bitrseed = 0110100000100010111000001110001111001110100100011111101000111001 # bit data of rseed
