[ T-Cross ]
    title = [t-cross] in region mesh
     mesh =  reg            # mesh type is region-wise
      reg =    1            # number of crossing regions
      non     r-from    r-to       area
      1       126       226        1.000000    
   e-type =    3            # e-mesh is log given by emin, emax and ne
     emin =  1.0000000E-02  # minimum value of e-mesh points
     emax =   150.0000      # maximum value of e-mesh points
#    edel =  2.4039514E-02  # mesh width of e-mesh points
       ne =    400          # number of e-mesh points
#    data = ( e(i), i = 1, ne + 1 )
#           1.00000E-02  1.02433E-02  1.04925E-02  1.07478E-02  1.10093E-02
#           1.12772E-02  1.15516E-02  1.18326E-02  1.21205E-02  1.24154E-02
#           1.27175E-02  1.30269E-02  1.33439E-02  1.36686E-02  1.40011E-02
#           1.43418E-02  1.46907E-02  1.50482E-02  1.54143E-02  1.57894E-02
#           1.61735E-02  1.65670E-02  1.69701E-02  1.73830E-02  1.78060E-02
#           1.82392E-02  1.86830E-02  1.91375E-02  1.96032E-02  2.00801E-02
#           2.05687E-02  2.10692E-02  2.15818E-02  2.21069E-02  2.26448E-02
#           2.31957E-02  2.37601E-02  2.43382E-02  2.49304E-02  2.55369E-02
#           2.61583E-02  2.67947E-02  2.74467E-02  2.81145E-02  2.87985E-02
#           2.94992E-02  3.02169E-02  3.09521E-02  3.17052E-02  3.24766E-02
#           3.32668E-02  3.40762E-02  3.49053E-02  3.57546E-02  3.66246E-02
#           3.75157E-02  3.84284E-02  3.93634E-02  4.03212E-02  4.13022E-02
#           4.23071E-02  4.33365E-02  4.43909E-02  4.54710E-02  4.65773E-02
#           4.77106E-02  4.88714E-02  5.00605E-02  5.12785E-02  5.25262E-02
#           5.38042E-02  5.51133E-02  5.64542E-02  5.78278E-02  5.92348E-02
#           6.06760E-02  6.21523E-02  6.36645E-02  6.52135E-02  6.68002E-02
#           6.84255E-02  7.00904E-02  7.17957E-02  7.35426E-02  7.53319E-02
#           7.71648E-02  7.90423E-02  8.09655E-02  8.29354E-02  8.49533E-02
#           8.70203E-02  8.91376E-02  9.13064E-02  9.35279E-02  9.58035E-02
#           9.81345E-02  1.00522E-01  1.02968E-01  1.05473E-01  1.08040E-01
#           1.10668E-01  1.13361E-01  1.16119E-01  1.18944E-01  1.21838E-01
#           1.24803E-01  1.27839E-01  1.30950E-01  1.34136E-01  1.37399E-01
#           1.40742E-01  1.44167E-01  1.47675E-01  1.51268E-01  1.54948E-01
#           1.58718E-01  1.62580E-01  1.66535E-01  1.70587E-01  1.74738E-01
#           1.78989E-01  1.83344E-01  1.87805E-01  1.92375E-01  1.97055E-01
#           2.01850E-01  2.06761E-01  2.11792E-01  2.16945E-01  2.22223E-01
#           2.27630E-01  2.33169E-01  2.38842E-01  2.44653E-01  2.50605E-01
#           2.56703E-01  2.62949E-01  2.69346E-01  2.75900E-01  2.82613E-01
#           2.89489E-01  2.96532E-01  3.03747E-01  3.11138E-01  3.18708E-01
#           3.26462E-01  3.34405E-01  3.42542E-01  3.50876E-01  3.59413E-01
#           3.68158E-01  3.77116E-01  3.86291E-01  3.95690E-01  4.05317E-01
#           4.15179E-01  4.25281E-01  4.35628E-01  4.46227E-01  4.57084E-01
#           4.68205E-01  4.79597E-01  4.91266E-01  5.03219E-01  5.15463E-01
#           5.28005E-01  5.40851E-01  5.54011E-01  5.67490E-01  5.81298E-01
#           5.95441E-01  6.09929E-01  6.24769E-01  6.39970E-01  6.55541E-01
#           6.71491E-01  6.87828E-01  7.04564E-01  7.21706E-01  7.39266E-01
#           7.57253E-01  7.75678E-01  7.94551E-01  8.13883E-01  8.33685E-01
#           8.53969E-01  8.74747E-01  8.96030E-01  9.17831E-01  9.40163E-01
#           9.63038E-01  9.86469E-01  1.01047E+00  1.03506E+00  1.06024E+00
#           1.08604E+00  1.11246E+00  1.13953E+00  1.16725E+00  1.19565E+00
#           1.22474E+00  1.25454E+00  1.28507E+00  1.31633E+00  1.34836E+00
#           1.38117E+00  1.41477E+00  1.44920E+00  1.48446E+00  1.52057E+00
#           1.55757E+00  1.59547E+00  1.63429E+00  1.67405E+00  1.71478E+00
#           1.75650E+00  1.79924E+00  1.84302E+00  1.88786E+00  1.93379E+00
#           1.98084E+00  2.02904E+00  2.07841E+00  2.12898E+00  2.18078E+00
#           2.23384E+00  2.28819E+00  2.34386E+00  2.40089E+00  2.45930E+00
#           2.51914E+00  2.58043E+00  2.64322E+00  2.70753E+00  2.77341E+00
#           2.84088E+00  2.91001E+00  2.98081E+00  3.05333E+00  3.12762E+00
#           3.20372E+00  3.28167E+00  3.36152E+00  3.44330E+00  3.52708E+00
#           3.61290E+00  3.70080E+00  3.79085E+00  3.88308E+00  3.97756E+00
#           4.07434E+00  4.17347E+00  4.27501E+00  4.37903E+00  4.48557E+00
#           4.59471E+00  4.70650E+00  4.82102E+00  4.93832E+00  5.05847E+00
#           5.18155E+00  5.30762E+00  5.43676E+00  5.56904E+00  5.70453E+00
#           5.84333E+00  5.98550E+00  6.13114E+00  6.28031E+00  6.43312E+00
#           6.58964E+00  6.74997E+00  6.91420E+00  7.08243E+00  7.25475E+00
#           7.43126E+00  7.61207E+00  7.79728E+00  7.98700E+00  8.18133E+00
#           8.38038E+00  8.58428E+00  8.79315E+00  9.00709E+00  9.22624E+00
#           9.45072E+00  9.68067E+00  9.91620E+00  1.01575E+01  1.04046E+01
#           1.06578E+01  1.09171E+01  1.11827E+01  1.14548E+01  1.17335E+01
#           1.20190E+01  1.23114E+01  1.26109E+01  1.29178E+01  1.32321E+01
#           1.35540E+01  1.38838E+01  1.42216E+01  1.45676E+01  1.49221E+01
#           1.52851E+01  1.56570E+01  1.60380E+01  1.64282E+01  1.68279E+01
#           1.72374E+01  1.76568E+01  1.80864E+01  1.85264E+01  1.89772E+01
#           1.94389E+01  1.99119E+01  2.03963E+01  2.08926E+01  2.14009E+01
#           2.19216E+01  2.24550E+01  2.30014E+01  2.35610E+01  2.41343E+01
#           2.47215E+01  2.53230E+01  2.59391E+01  2.65702E+01  2.72167E+01
#           2.78789E+01  2.85572E+01  2.92520E+01  2.99637E+01  3.06928E+01
#           3.14396E+01  3.22045E+01  3.29881E+01  3.37907E+01  3.46128E+01
#           3.54550E+01  3.63177E+01  3.72013E+01  3.81064E+01  3.90336E+01
#           3.99833E+01  4.09561E+01  4.19526E+01  4.29734E+01  4.40189E+01
#           4.50900E+01  4.61870E+01  4.73108E+01  4.84619E+01  4.96410E+01
#           5.08488E+01  5.20860E+01  5.33533E+01  5.46514E+01  5.59812E+01
#           5.73432E+01  5.87384E+01  6.01676E+01  6.16315E+01  6.31311E+01
#           6.46671E+01  6.62405E+01  6.78522E+01  6.95031E+01  7.11941E+01
#           7.29263E+01  7.47007E+01  7.65182E+01  7.83800E+01  8.02870E+01
#           8.22405E+01  8.42414E+01  8.62911E+01  8.83906E+01  9.05412E+01
#           9.27442E+01  9.50007E+01  9.73122E+01  9.96799E+01  1.02105E+02
#           1.04589E+02  1.07134E+02  1.09741E+02  1.12411E+02  1.15146E+02
#           1.17948E+02  1.20817E+02  1.23757E+02  1.26768E+02  1.29852E+02
#           1.33012E+02  1.36248E+02  1.39563E+02  1.42959E+02  1.46437E+02
#           1.50000E+02
     unit =    2            # unit is [1/cm^2/(MeV/n)/source]
     axis =  eng            # axis of output
     file = detector-27.out  # file name of output for the above axis
   output = f-curr          # surface crossing forward current spectrum
     part =  neutron  
# kf/name :  2112     
#    used :        main (  %)        temp (  %)       total (  %)
#  memory :         414 (  0)           0 (  0)         414 (  0)

#------------------------------------------------------------------------------
#newpage:
#   no. =    1   reg = 126 - 226

x: Energy [MeV/n]
y:  F-Curr [1/cm^2/(MeV/n)/source]         
p: xlog ylog afac(0.8) form(0.9)
h: n            x            y(neutron ),hh0l   n 
#  e-lower      e-upper      neutron     r.err 
   1.0000E-02   1.0243E-02   1.0681E-05  0.2774
   1.0243E-02   1.0493E-02   1.0427E-05  0.2774
   1.0493E-02   1.0748E-02   4.6979E-06  0.4082
   1.0748E-02   1.1009E-02   6.8822E-06  0.3333
   1.1009E-02   1.1277E-02   1.4174E-05  0.2294
   1.1277E-02   1.1552E-02   1.1659E-05  0.2500
   1.1552E-02   1.1833E-02   9.9545E-06  0.2673
   1.1833E-02   1.2121E-02   5.5567E-06  0.3536
   1.2121E-02   1.2415E-02   6.1001E-06  0.3333
   1.2415E-02   1.2718E-02   7.2804E-06  0.3015
   1.2718E-02   1.3027E-02   1.0984E-05  0.2425
   1.3027E-02   1.3344E-02   5.0435E-06  0.3536
   1.3344E-02   1.3669E-02   1.0462E-05  0.2425
   1.3669E-02   1.4001E-02   6.0127E-06  0.3162
   1.4001E-02   1.4342E-02   8.2176E-06  0.2673
   1.4342E-02   1.4691E-02   6.2997E-06  0.3015
   1.4691E-02   1.5048E-02   3.9147E-06  0.3780
   1.5048E-02   1.5414E-02   7.0989E-06  0.2774
   1.5414E-02   1.5789E-02   6.3975E-06  0.2887
   1.5789E-02   1.6174E-02   9.8887E-06  0.2294
   1.6174E-02   1.6567E-02   7.0324E-06  0.2675
   1.6567E-02   1.6970E-02   5.4573E-06  0.3015
   1.6970E-02   1.7383E-02   6.7791E-06  0.2673
   1.7383E-02   1.7806E-02   5.6730E-06  0.2887
   1.7806E-02   1.8239E-02   5.0747E-06  0.3015
   1.8239E-02   1.8683E-02   7.2096E-06  0.2500
   1.8683E-02   1.9138E-02   3.5181E-06  0.3536
   1.9138E-02   1.9603E-02   6.4387E-06  0.2582
   1.9603E-02   2.0080E-02   6.2884E-06  0.2582
   2.0080E-02   2.0569E-02   5.7238E-06  0.2673
   2.0569E-02   2.1069E-02   5.1936E-06  0.2774
   2.1069E-02   2.1582E-02   3.1195E-06  0.3536
   2.1582E-02   2.2107E-02   6.8519E-06  0.2357
   2.2107E-02   2.2645E-02   7.0629E-06  0.2294
   2.2645E-02   2.3196E-02   5.4426E-06  0.2582
   2.3196E-02   2.3760E-02   3.1883E-06  0.3333
   2.3760E-02   2.4338E-02   5.4676E-06  0.2503
   2.4338E-02   2.4930E-02   4.7274E-06  0.2673
   2.4930E-02   2.5537E-02   5.3439E-06  0.2470
   2.5537E-02   2.6158E-02   5.7898E-06  0.2357
   2.6158E-02   2.6795E-02   5.3400E-06  0.2425
   2.6795E-02   2.7447E-02   5.8212E-06  0.2294
   2.7447E-02   2.8114E-02   2.6945E-06  0.3333
   2.8114E-02   2.8799E-02   4.3852E-06  0.2582
   2.8799E-02   2.9499E-02   5.7062E-06  0.2236
   2.9499E-02   3.0217E-02   4.1789E-06  0.2582
   3.0217E-02   3.0952E-02   4.3486E-06  0.2500
   3.0952E-02   3.1705E-02   5.5734E-06  0.2182
   3.1705E-02   3.2477E-02   4.0448E-06  0.2511
   3.2477E-02   3.3267E-02   3.0340E-06  0.2887
   3.3267E-02   3.4076E-02   4.1957E-06  0.2425
   3.4076E-02   3.4905E-02   3.8576E-06  0.2500
   3.4905E-02   3.5755E-02   3.2962E-06  0.2673
   3.5755E-02   3.6625E-02   3.4475E-06  0.2582
   3.6625E-02   3.7516E-02   2.6920E-06  0.2887
   3.7516E-02   3.8428E-02   3.7227E-06  0.2425
   3.8428E-02   3.9363E-02   2.5660E-06  0.2887
   3.9363E-02   4.0321E-02   2.7124E-06  0.2774
   4.0321E-02   4.1302E-02   1.6303E-06  0.3536
   4.1302E-02   4.2307E-02   1.9896E-06  0.3162
   4.2307E-02   4.3337E-02   4.3280E-06  0.2109
   4.3337E-02   4.4391E-02   3.3530E-06  0.2363
   4.4391E-02   4.5471E-02   3.5164E-06  0.2294
   4.5471E-02   4.6577E-02   2.5301E-06  0.2673
   4.6577E-02   4.7711E-02   2.8230E-06  0.2500
   4.7711E-02   4.8871E-02   2.7534E-06  0.2500
   4.8871E-02   5.0061E-02   1.3453E-06  0.3536
   5.0061E-02   5.1279E-02   1.9694E-06  0.2887
   5.1279E-02   5.2526E-02   3.2054E-06  0.2236
   5.2526E-02   5.3804E-02   2.8147E-06  0.2357
   5.3804E-02   5.5113E-02   1.9857E-06  0.2774
   5.5113E-02   5.6454E-02   2.9817E-06  0.2236
   5.6454E-02   5.7828E-02   2.1823E-06  0.2582
   5.7828E-02   5.9235E-02   2.8416E-06  0.2236
   5.9235E-02   6.0676E-02   1.8030E-06  0.2774
   6.0676E-02   6.2152E-02   2.0053E-06  0.2585
   6.2152E-02   6.3665E-02   2.2472E-06  0.2425
   6.3665E-02   6.5214E-02   2.3570E-06  0.2327
   6.5214E-02   6.6800E-02   1.5116E-06  0.2887
   6.6800E-02   6.8426E-02   2.4601E-06  0.2236
   6.8426E-02   7.0090E-02   1.0809E-06  0.3333
   7.0090E-02   7.1796E-02   2.1100E-06  0.2357
   7.1796E-02   7.3543E-02   2.2875E-06  0.2236
   7.3543E-02   7.5332E-02   1.2289E-06  0.3015
   7.5332E-02   7.7165E-02   2.2899E-06  0.2182
   7.7165E-02   7.9042E-02   1.7039E-06  0.2500
   7.9042E-02   8.0965E-02   2.3907E-06  0.2085
   8.0965E-02   8.2935E-02   1.6239E-06  0.2500
   8.2935E-02   8.4953E-02   1.6642E-06  0.2428
   8.4953E-02   8.7020E-02   1.4509E-06  0.2582
   8.7020E-02   8.9138E-02   1.8884E-06  0.2236
   8.9138E-02   9.1306E-02   1.5674E-06  0.2425
   9.1306E-02   9.3528E-02   1.7097E-06  0.2294
   9.3528E-02   9.5804E-02   9.6627E-07  0.3015
   9.5804E-02   9.8134E-02   1.6143E-06  0.2296
   9.8134E-02   1.0052E-01   1.4232E-06  0.2425
   1.0052E-01   1.0297E-01   1.1442E-06  0.2673
   1.0297E-01   1.0547E-01   1.2757E-06  0.2500
   1.0547E-01   1.0804E-01   1.3857E-06  0.2360
   1.0804E-01   1.1067E-01   1.9771E-06  0.1961
   1.1067E-01   1.1336E-01   1.3487E-06  0.2336
   1.1336E-01   1.1612E-01   1.3771E-06  0.2294
   1.1612E-01   1.1894E-01   1.2737E-06  0.2357
   1.1894E-01   1.2184E-01   1.7261E-06  0.2000
   1.2184E-01   1.2480E-01   1.7520E-06  0.1961
   1.2480E-01   1.2784E-01   1.1846E-06  0.2357
   1.2784E-01   1.3095E-01   1.8634E-06  0.1857
   1.3095E-01   1.3414E-01   2.0060E-06  0.1768
   1.3414E-01   1.3740E-01   1.9499E-06  0.1768
   1.3740E-01   1.4074E-01   1.7338E-06  0.1857
   1.4074E-01   1.4417E-01   2.7810E-06  0.1445
   1.4417E-01   1.4767E-01   2.3356E-06  0.1562
   1.4767E-01   1.5127E-01   2.1132E-06  0.1622
   1.5127E-01   1.5495E-01   2.4433E-06  0.1491
   1.5495E-01   1.5872E-01   2.8095E-06  0.1374
   1.5872E-01   1.6258E-01   2.7432E-06  0.1374
   1.6258E-01   1.6654E-01   2.7786E-06  0.1348
   1.6654E-01   1.7059E-01   2.0222E-06  0.1562
   1.7059E-01   1.7474E-01   3.0003E-06  0.1263
   1.7474E-01   1.7899E-01   2.9446E-06  0.1261
   1.7899E-01   1.8334E-01   2.8908E-06  0.1260
   1.8334E-01   1.8781E-01   2.5531E-06  0.1325
   1.8781E-01   1.9237E-01   2.9741E-06  0.1213
   1.9237E-01   1.9706E-01   3.4145E-06  0.1118
   1.9706E-01   2.0185E-01   3.0419E-06  0.1170
   2.0185E-01   2.0676E-01   2.0466E-06  0.1407
   2.0676E-01   2.1179E-01   2.9388E-06  0.1162
   2.1179E-01   2.1694E-01   2.9334E-06  0.1148
   2.1694E-01   2.2222E-01   2.8761E-06  0.1147
   2.2222E-01   2.2763E-01   3.0305E-06  0.1104
   2.2763E-01   2.3317E-01   2.6694E-06  0.1162
   2.3317E-01   2.3884E-01   3.4552E-06  0.1009
   2.3884E-01   2.4465E-01   3.7754E-06  0.0954
   2.4465E-01   2.5061E-01   4.1219E-06  0.0902
   2.5061E-01   2.5670E-01   3.6094E-06  0.0950
   2.5670E-01   2.6295E-01   3.7350E-06  0.0925
   2.6295E-01   2.6935E-01   3.5186E-06  0.0941
   2.6935E-01   2.7590E-01   3.8999E-06  0.0884
   2.7590E-01   2.8261E-01   3.2674E-06  0.0954
   2.8261E-01   2.8949E-01   4.1802E-06  0.0833
   2.8949E-01   2.9653E-01   4.6215E-06  0.0783
   2.9653E-01   3.0375E-01   3.8466E-06  0.0848
   3.0375E-01   3.1114E-01   4.1815E-06  0.0803
   3.1114E-01   3.1871E-01   4.1181E-06  0.0800
   3.1871E-01   3.2646E-01   4.3279E-06  0.0770
   3.2646E-01   3.3441E-01   4.2563E-06  0.0768
   3.3441E-01   3.4254E-01   4.0037E-06  0.0782
   3.4254E-01   3.5088E-01   4.0945E-06  0.0764
   3.5088E-01   3.5941E-01   4.1469E-06  0.0750
   3.5941E-01   3.6816E-01   4.8760E-06  0.0684
   3.6816E-01   3.7712E-01   4.6127E-06  0.0695
   3.7712E-01   3.8629E-01   4.3508E-06  0.0706
   3.8629E-01   3.9569E-01   5.0984E-06  0.0644
   3.9569E-01   4.0532E-01   4.6977E-06  0.0664
   4.0532E-01   4.1518E-01   4.5049E-06  0.0669
   4.1518E-01   4.2528E-01   4.5359E-06  0.0659
   4.2528E-01   4.3563E-01   4.4708E-06  0.0657
   4.3563E-01   4.4623E-01   4.8302E-06  0.0623
   4.4623E-01   4.5708E-01   4.8322E-06  0.0616
   4.5708E-01   4.6821E-01   4.4938E-06  0.0631
   4.6821E-01   4.7960E-01   4.4002E-06  0.0630
   4.7960E-01   4.9127E-01   4.6953E-06  0.0603
   4.9127E-01   5.0322E-01   4.6092E-06  0.0601
   5.0322E-01   5.1546E-01   4.9501E-06  0.0573
   5.1546E-01   5.2800E-01   4.6821E-06  0.0582
   5.2800E-01   5.4085E-01   5.0374E-06  0.0555
   5.4085E-01   5.5401E-01   4.9667E-06  0.0551
   5.5401E-01   5.6749E-01   4.6351E-06  0.0564
   5.6749E-01   5.8130E-01   4.9526E-06  0.0539
   5.8130E-01   5.9544E-01   4.8084E-06  0.0541
   5.9544E-01   6.0993E-01   4.4611E-06  0.0555
   6.0993E-01   6.2477E-01   4.9700E-06  0.0520
   6.2477E-01   6.3997E-01   4.6878E-06  0.0529
   6.3997E-01   6.5554E-01   4.4393E-06  0.0536
   6.5554E-01   6.7149E-01   4.8272E-06  0.0508
   6.7149E-01   6.8783E-01   4.3040E-06  0.0532
   6.8783E-01   7.0456E-01   4.4094E-06  0.0519
   7.0456E-01   7.2171E-01   4.4217E-06  0.0512
   7.2171E-01   7.3927E-01   3.9335E-06  0.0536
   7.3927E-01   7.5725E-01   4.6628E-06  0.0487
   7.5725E-01   7.7568E-01   4.1046E-06  0.0512
   7.7568E-01   7.9455E-01   4.2245E-06  0.0499
   7.9455E-01   8.1388E-01   3.8544E-06  0.0516
   8.1388E-01   8.3368E-01   3.9473E-06  0.0503
   8.3368E-01   8.5397E-01   4.1279E-06  0.0486
   8.5397E-01   8.7475E-01   3.9080E-06  0.0494
   8.7475E-01   8.9603E-01   3.7585E-06  0.0498
   8.9603E-01   9.1783E-01   4.0326E-06  0.0474
   9.1783E-01   9.4016E-01   3.6727E-06  0.0491
   9.4016E-01   9.6304E-01   3.7705E-06  0.0479
   9.6304E-01   9.8647E-01   3.5000E-06  0.0491
   9.8647E-01   1.0105E+00   3.4729E-06  0.0487
   1.0105E+00   1.0351E+00   3.2523E-06  0.0498
   1.0351E+00   1.0602E+00   3.1538E-06  0.0498
   1.0602E+00   1.0860E+00   2.9352E-06  0.0509
   1.0860E+00   1.1125E+00   3.0986E-06  0.0491
   1.1125E+00   1.1395E+00   3.2037E-06  0.0475
   1.1395E+00   1.1673E+00   3.1347E-06  0.0475
   1.1673E+00   1.1957E+00   3.1570E-06  0.0467
   1.1957E+00   1.2247E+00   2.9905E-06  0.0474
   1.2247E+00   1.2545E+00   2.8030E-06  0.0483
   1.2545E+00   1.2851E+00   2.9681E-06  0.0465
   1.2851E+00   1.3163E+00   3.1613E-06  0.0444
   1.3163E+00   1.3484E+00   2.8873E-06  0.0457
   1.3484E+00   1.3812E+00   2.7552E-06  0.0462
   1.3812E+00   1.4148E+00   2.8220E-06  0.0450
   1.4148E+00   1.4492E+00   2.6673E-06  0.0458
   1.4492E+00   1.4845E+00   2.7409E-06  0.0445
   1.4845E+00   1.5206E+00   2.6329E-06  0.0448
   1.5206E+00   1.5576E+00   2.5257E-06  0.0452
   1.5576E+00   1.5955E+00   2.3980E-06  0.0457
   1.5955E+00   1.6343E+00   2.4788E-06  0.0445
   1.6343E+00   1.6741E+00   2.2097E-06  0.0466
   1.6741E+00   1.7148E+00   2.2554E-06  0.0453
   1.7148E+00   1.7565E+00   2.2775E-06  0.0443
   1.7565E+00   1.7992E+00   2.1607E-06  0.0450
   1.7992E+00   1.8430E+00   2.0306E-06  0.0460
   1.8430E+00   1.8879E+00   1.7703E-06  0.0482
   1.8879E+00   1.9338E+00   1.9175E-06  0.0460
   1.9338E+00   1.9808E+00   1.7999E-06  0.0467
   1.9808E+00   2.0290E+00   1.7980E-06  0.0462
   2.0290E+00   2.0784E+00   1.7307E-06  0.0461
   2.0784E+00   2.1290E+00   1.7350E-06  0.0455
   2.1290E+00   2.1808E+00   1.7563E-06  0.0448
   2.1808E+00   2.2338E+00   1.7509E-06  0.0442
   2.2338E+00   2.2882E+00   1.7106E-06  0.0446
   2.2882E+00   2.3439E+00   1.7186E-06  0.0440
   2.3439E+00   2.4009E+00   1.6764E-06  0.0439
   2.4009E+00   2.4593E+00   1.6119E-06  0.0443
   2.4593E+00   2.5191E+00   1.6300E-06  0.0435
   2.5191E+00   2.5804E+00   1.4634E-06  0.0455
   2.5804E+00   2.6432E+00   1.6187E-06  0.0428
   2.6432E+00   2.7075E+00   1.4359E-06  0.0448
   2.7075E+00   2.7734E+00   1.4445E-06  0.0441
   2.7734E+00   2.8409E+00   1.3828E-06  0.0446
   2.8409E+00   2.9100E+00   1.4029E-06  0.0438
   2.9100E+00   2.9808E+00   1.2980E-06  0.0451
   2.9808E+00   3.0533E+00   1.3068E-06  0.0444
   3.0533E+00   3.1276E+00   1.4375E-06  0.0420
   3.1276E+00   3.2037E+00   1.3175E-06  0.0433
   3.2037E+00   3.2817E+00   1.2775E-06  0.0435
   3.2817E+00   3.3615E+00   1.4220E-06  0.0409
   3.3615E+00   3.4433E+00   1.2312E-06  0.0434
   3.4433E+00   3.5271E+00   1.1911E-06  0.0437
   3.5271E+00   3.6129E+00   1.2479E-06  0.0421
   3.6129E+00   3.7008E+00   1.2229E-06  0.0421
   3.7008E+00   3.7908E+00   1.1342E-06  0.0430
   3.7908E+00   3.8831E+00   1.2422E-06  0.0407
   3.8831E+00   3.9776E+00   1.1914E-06  0.0411
   3.9776E+00   4.0743E+00   1.1928E-06  0.0407
   4.0743E+00   4.1735E+00   1.1575E-06  0.0408
   4.1735E+00   4.2750E+00   1.1917E-06  0.0398
   4.2750E+00   4.3790E+00   1.1711E-06  0.0397
   4.3790E+00   4.4856E+00   1.1163E-06  0.0401
   4.4856E+00   4.5947E+00   1.0498E-06  0.0409
   4.5947E+00   4.7065E+00   1.0636E-06  0.0402
   4.7065E+00   4.8210E+00   1.1047E-06  0.0389
   4.8210E+00   4.9383E+00   1.0620E-06  0.0393
   4.9383E+00   5.0585E+00   9.7636E-07  0.0405
   5.0585E+00   5.1815E+00   1.0220E-06  0.0390
   5.1815E+00   5.3076E+00   1.0594E-06  0.0379
   5.3076E+00   5.4368E+00   1.0171E-06  0.0382
   5.4368E+00   5.5690E+00   9.5825E-07  0.0388
   5.5690E+00   5.7045E+00   9.6004E-07  0.0385
   5.7045E+00   5.8433E+00   9.1607E-07  0.0389
   5.8433E+00   5.9855E+00   9.1413E-07  0.0385
   5.9855E+00   6.1311E+00   9.5920E-07  0.0373
   6.1311E+00   6.2803E+00   8.6654E-07  0.0388
   6.2803E+00   6.4331E+00   9.9129E-07  0.0358
   6.4331E+00   6.5896E+00   8.5190E-07  0.0383
   6.5896E+00   6.7500E+00   8.7574E-07  0.0373
   6.7500E+00   6.9142E+00   8.7016E-07  0.0369
   6.9142E+00   7.0824E+00   8.5016E-07  0.0370
   7.0824E+00   7.2548E+00   7.7186E-07  0.0384
   7.2548E+00   7.4313E+00   7.5157E-07  0.0384
   7.4313E+00   7.6121E+00   7.7406E-07  0.0374
   7.6121E+00   7.7973E+00   6.8033E-07  0.0394
   7.7973E+00   7.9870E+00   7.0281E-07  0.0384
   7.9870E+00   8.1813E+00   6.9064E-07  0.0382
   8.1813E+00   8.3804E+00   6.8789E-07  0.0378
   8.3804E+00   8.5843E+00   6.7211E-07  0.0379
   8.5843E+00   8.7931E+00   6.5963E-07  0.0379
   8.7931E+00   9.0071E+00   6.1337E-07  0.0388
   9.0071E+00   9.2262E+00   5.6994E-07  0.0397
   9.2262E+00   9.4507E+00   5.6557E-07  0.0394
   9.4507E+00   9.6807E+00   6.0239E-07  0.0378
   9.6807E+00   9.9162E+00   5.2268E-07  0.0402
   9.9162E+00   1.0157E+01   5.3302E-07  0.0394
   1.0157E+01   1.0405E+01   5.6804E-07  0.0377
   1.0405E+01   1.0658E+01   4.9844E-07  0.0398
   1.0658E+01   1.0917E+01   4.6903E-07  0.0405
   1.0917E+01   1.1183E+01   4.5397E-07  0.0407
   1.1183E+01   1.1455E+01   4.5307E-07  0.0402
   1.1455E+01   1.1733E+01   3.9139E-07  0.0428
   1.1733E+01   1.2019E+01   3.6580E-07  0.0437
   1.2019E+01   1.2311E+01   3.8127E-07  0.0423
   1.2311E+01   1.2611E+01   3.3858E-07  0.0444
   1.2611E+01   1.2918E+01   3.1155E-07  0.0457
   1.2918E+01   1.3232E+01   3.3425E-07  0.0436
   1.3232E+01   1.3554E+01   3.0537E-07  0.0451
   1.3554E+01   1.3884E+01   2.8640E-07  0.0460
   1.3884E+01   1.4222E+01   2.6490E-07  0.0472
   1.4222E+01   1.4568E+01   2.5316E-07  0.0478
   1.4568E+01   1.4922E+01   2.3661E-07  0.0488
   1.4922E+01   1.5285E+01   2.1539E-07  0.0506
   1.5285E+01   1.5657E+01   1.9199E-07  0.0529
   1.5657E+01   1.6038E+01   1.9478E-07  0.0519
   1.6038E+01   1.6428E+01   1.6657E-07  0.0555
   1.6428E+01   1.6828E+01   1.5161E-07  0.0574
   1.6828E+01   1.7237E+01   1.5289E-07  0.0565
   1.7237E+01   1.7657E+01   1.1874E-07  0.0634
   1.7657E+01   1.8086E+01   9.8230E-08  0.0688
   1.8086E+01   1.8526E+01   9.6806E-08  0.0685
   1.8526E+01   1.8977E+01   8.2527E-08  0.0733
   1.8977E+01   1.9439E+01   6.5406E-08  0.0814
   1.9439E+01   1.9912E+01   7.0618E-08  0.0774
   1.9912E+01   2.0396E+01   6.1923E-08  0.0816
   2.0396E+01   2.0893E+01   5.3198E-08  0.0870
   2.0893E+01   2.1401E+01   4.8000E-08  0.0905
   2.1401E+01   2.1922E+01   3.5721E-08  0.1037
   2.1922E+01   2.2455E+01   3.6372E-08  0.1015
   2.2455E+01   2.3001E+01   2.4893E-08  0.1213
   2.3001E+01   2.3561E+01   2.2157E-08  0.1270
   2.3561E+01   2.4134E+01   1.7444E-08  0.1414
   2.4134E+01   2.4721E+01   1.6689E-08  0.1429
   2.4721E+01   2.5323E+01   1.1305E-08  0.1715
   2.5323E+01   2.5939E+01   1.1686E-08  0.1667
   2.5939E+01   2.6570E+01   7.6055E-09  0.2041
   2.6570E+01   2.7217E+01   4.9499E-09  0.2500
   2.7217E+01   2.7879E+01   3.3222E-09  0.3015
   2.7879E+01   2.8557E+01   1.4742E-09  0.4472
   2.8557E+01   2.9252E+01   1.4392E-09  0.4472
   2.9252E+01   2.9964E+01   2.8101E-10  1.0000
   2.9964E+01   3.0693E+01   8.2300E-10  0.5774
   3.0693E+01   3.1440E+01   0.0000E+00  0.0000
   3.1440E+01   3.2205E+01   0.0000E+00  0.0000
   3.2205E+01   3.2988E+01   0.0000E+00  0.0000
   3.2988E+01   3.3791E+01   0.0000E+00  0.0000
   3.3791E+01   3.4613E+01   0.0000E+00  0.0000
   3.4613E+01   3.5455E+01   0.0000E+00  0.0000
   3.5455E+01   3.6318E+01   0.0000E+00  0.0000
   3.6318E+01   3.7201E+01   0.0000E+00  0.0000
   3.7201E+01   3.8106E+01   0.0000E+00  0.0000
   3.8106E+01   3.9034E+01   0.0000E+00  0.0000
   3.9034E+01   3.9983E+01   0.0000E+00  0.0000
   3.9983E+01   4.0956E+01   0.0000E+00  0.0000
   4.0956E+01   4.1953E+01   0.0000E+00  0.0000
   4.1953E+01   4.2973E+01   0.0000E+00  0.0000
   4.2973E+01   4.4019E+01   0.0000E+00  0.0000
   4.4019E+01   4.5090E+01   0.0000E+00  0.0000
   4.5090E+01   4.6187E+01   0.0000E+00  0.0000
   4.6187E+01   4.7311E+01   0.0000E+00  0.0000
   4.7311E+01   4.8462E+01   0.0000E+00  0.0000
   4.8462E+01   4.9641E+01   0.0000E+00  0.0000
   4.9641E+01   5.0849E+01   0.0000E+00  0.0000
   5.0849E+01   5.2086E+01   0.0000E+00  0.0000
   5.2086E+01   5.3353E+01   0.0000E+00  0.0000
   5.3353E+01   5.4651E+01   0.0000E+00  0.0000
   5.4651E+01   5.5981E+01   0.0000E+00  0.0000
   5.5981E+01   5.7343E+01   0.0000E+00  0.0000
   5.7343E+01   5.8738E+01   0.0000E+00  0.0000
   5.8738E+01   6.0168E+01   0.0000E+00  0.0000
   6.0168E+01   6.1632E+01   0.0000E+00  0.0000
   6.1632E+01   6.3131E+01   0.0000E+00  0.0000
   6.3131E+01   6.4667E+01   0.0000E+00  0.0000
   6.4667E+01   6.6240E+01   0.0000E+00  0.0000
   6.6240E+01   6.7852E+01   0.0000E+00  0.0000
   6.7852E+01   6.9503E+01   0.0000E+00  0.0000
   6.9503E+01   7.1194E+01   0.0000E+00  0.0000
   7.1194E+01   7.2926E+01   0.0000E+00  0.0000
   7.2926E+01   7.4701E+01   0.0000E+00  0.0000
   7.4701E+01   7.6518E+01   0.0000E+00  0.0000
   7.6518E+01   7.8380E+01   0.0000E+00  0.0000
   7.8380E+01   8.0287E+01   0.0000E+00  0.0000
   8.0287E+01   8.2240E+01   0.0000E+00  0.0000
   8.2240E+01   8.4241E+01   0.0000E+00  0.0000
   8.4241E+01   8.6291E+01   0.0000E+00  0.0000
   8.6291E+01   8.8391E+01   0.0000E+00  0.0000
   8.8391E+01   9.0541E+01   0.0000E+00  0.0000
   9.0541E+01   9.2744E+01   0.0000E+00  0.0000
   9.2744E+01   9.5001E+01   0.0000E+00  0.0000
   9.5001E+01   9.7312E+01   0.0000E+00  0.0000
   9.7312E+01   9.9680E+01   0.0000E+00  0.0000
   9.9680E+01   1.0211E+02   0.0000E+00  0.0000
   1.0211E+02   1.0459E+02   0.0000E+00  0.0000
   1.0459E+02   1.0713E+02   0.0000E+00  0.0000
   1.0713E+02   1.0974E+02   0.0000E+00  0.0000
   1.0974E+02   1.1241E+02   0.0000E+00  0.0000
   1.1241E+02   1.1515E+02   0.0000E+00  0.0000
   1.1515E+02   1.1795E+02   0.0000E+00  0.0000
   1.1795E+02   1.2082E+02   0.0000E+00  0.0000
   1.2082E+02   1.2376E+02   0.0000E+00  0.0000
   1.2376E+02   1.2677E+02   0.0000E+00  0.0000
   1.2677E+02   1.2985E+02   0.0000E+00  0.0000
   1.2985E+02   1.3301E+02   0.0000E+00  0.0000
   1.3301E+02   1.3625E+02   0.0000E+00  0.0000
   1.3625E+02   1.3956E+02   0.0000E+00  0.0000
   1.3956E+02   1.4296E+02   0.0000E+00  0.0000
   1.4296E+02   1.4644E+02   0.0000E+00  0.0000
   1.4644E+02   1.5000E+02   0.0000E+00  0.0000

#   sum over                 1.1244E-07
'no. =    1   reg = 126 - 226'
msuc: {\huge [t-cross] in region mesh}
msdr: {\it plotted by \ANGEL \version}
msdl: {\it calculated by \PHITS  3.26}
wt: s(0.7)
\vspace{-3}
  region surface crossing
  area  &=&   1.0000E+00 [cm^2]
e:
 
# Information for Restart Calculation
# This calculation was newly started
# istdev =  2 # 1:Batch variance, 2:History variance
# resc2  = 5.00000000000000000E+09 # Total source weight or Total source weight / maxcas
# resc3  = 5.00000000000000000E+09 # Total history number or Total batch number
# maxcas =   100000000 # History / Batch, only used for istdev=1
# bitrseed = 0110100000100010111000001110001111001110100100011111101000111001 # bit data of rseed
