[ T-Cross ]
    title = [t-cross] in region mesh
     mesh =  reg            # mesh type is region-wise
      reg =    1            # number of crossing regions
      non     r-from    r-to       area
      1       113       213        1.000000    
   e-type =    3            # e-mesh is log given by emin, emax and ne
     emin =  1.0000000E-02  # minimum value of e-mesh points
     emax =   150.0000      # maximum value of e-mesh points
#    edel =  2.4039514E-02  # mesh width of e-mesh points
       ne =    400          # number of e-mesh points
#    data = ( e(i), i = 1, ne + 1 )
#           1.00000E-02  1.02433E-02  1.04925E-02  1.07478E-02  1.10093E-02
#           1.12772E-02  1.15516E-02  1.18326E-02  1.21205E-02  1.24154E-02
#           1.27175E-02  1.30269E-02  1.33439E-02  1.36686E-02  1.40011E-02
#           1.43418E-02  1.46907E-02  1.50482E-02  1.54143E-02  1.57894E-02
#           1.61735E-02  1.65670E-02  1.69701E-02  1.73830E-02  1.78060E-02
#           1.82392E-02  1.86830E-02  1.91375E-02  1.96032E-02  2.00801E-02
#           2.05687E-02  2.10692E-02  2.15818E-02  2.21069E-02  2.26448E-02
#           2.31957E-02  2.37601E-02  2.43382E-02  2.49304E-02  2.55369E-02
#           2.61583E-02  2.67947E-02  2.74467E-02  2.81145E-02  2.87985E-02
#           2.94992E-02  3.02169E-02  3.09521E-02  3.17052E-02  3.24766E-02
#           3.32668E-02  3.40762E-02  3.49053E-02  3.57546E-02  3.66246E-02
#           3.75157E-02  3.84284E-02  3.93634E-02  4.03212E-02  4.13022E-02
#           4.23071E-02  4.33365E-02  4.43909E-02  4.54710E-02  4.65773E-02
#           4.77106E-02  4.88714E-02  5.00605E-02  5.12785E-02  5.25262E-02
#           5.38042E-02  5.51133E-02  5.64542E-02  5.78278E-02  5.92348E-02
#           6.06760E-02  6.21523E-02  6.36645E-02  6.52135E-02  6.68002E-02
#           6.84255E-02  7.00904E-02  7.17957E-02  7.35426E-02  7.53319E-02
#           7.71648E-02  7.90423E-02  8.09655E-02  8.29354E-02  8.49533E-02
#           8.70203E-02  8.91376E-02  9.13064E-02  9.35279E-02  9.58035E-02
#           9.81345E-02  1.00522E-01  1.02968E-01  1.05473E-01  1.08040E-01
#           1.10668E-01  1.13361E-01  1.16119E-01  1.18944E-01  1.21838E-01
#           1.24803E-01  1.27839E-01  1.30950E-01  1.34136E-01  1.37399E-01
#           1.40742E-01  1.44167E-01  1.47675E-01  1.51268E-01  1.54948E-01
#           1.58718E-01  1.62580E-01  1.66535E-01  1.70587E-01  1.74738E-01
#           1.78989E-01  1.83344E-01  1.87805E-01  1.92375E-01  1.97055E-01
#           2.01850E-01  2.06761E-01  2.11792E-01  2.16945E-01  2.22223E-01
#           2.27630E-01  2.33169E-01  2.38842E-01  2.44653E-01  2.50605E-01
#           2.56703E-01  2.62949E-01  2.69346E-01  2.75900E-01  2.82613E-01
#           2.89489E-01  2.96532E-01  3.03747E-01  3.11138E-01  3.18708E-01
#           3.26462E-01  3.34405E-01  3.42542E-01  3.50876E-01  3.59413E-01
#           3.68158E-01  3.77116E-01  3.86291E-01  3.95690E-01  4.05317E-01
#           4.15179E-01  4.25281E-01  4.35628E-01  4.46227E-01  4.57084E-01
#           4.68205E-01  4.79597E-01  4.91266E-01  5.03219E-01  5.15463E-01
#           5.28005E-01  5.40851E-01  5.54011E-01  5.67490E-01  5.81298E-01
#           5.95441E-01  6.09929E-01  6.24769E-01  6.39970E-01  6.55541E-01
#           6.71491E-01  6.87828E-01  7.04564E-01  7.21706E-01  7.39266E-01
#           7.57253E-01  7.75678E-01  7.94551E-01  8.13883E-01  8.33685E-01
#           8.53969E-01  8.74747E-01  8.96030E-01  9.17831E-01  9.40163E-01
#           9.63038E-01  9.86469E-01  1.01047E+00  1.03506E+00  1.06024E+00
#           1.08604E+00  1.11246E+00  1.13953E+00  1.16725E+00  1.19565E+00
#           1.22474E+00  1.25454E+00  1.28507E+00  1.31633E+00  1.34836E+00
#           1.38117E+00  1.41477E+00  1.44920E+00  1.48446E+00  1.52057E+00
#           1.55757E+00  1.59547E+00  1.63429E+00  1.67405E+00  1.71478E+00
#           1.75650E+00  1.79924E+00  1.84302E+00  1.88786E+00  1.93379E+00
#           1.98084E+00  2.02904E+00  2.07841E+00  2.12898E+00  2.18078E+00
#           2.23384E+00  2.28819E+00  2.34386E+00  2.40089E+00  2.45930E+00
#           2.51914E+00  2.58043E+00  2.64322E+00  2.70753E+00  2.77341E+00
#           2.84088E+00  2.91001E+00  2.98081E+00  3.05333E+00  3.12762E+00
#           3.20372E+00  3.28167E+00  3.36152E+00  3.44330E+00  3.52708E+00
#           3.61290E+00  3.70080E+00  3.79085E+00  3.88308E+00  3.97756E+00
#           4.07434E+00  4.17347E+00  4.27501E+00  4.37903E+00  4.48557E+00
#           4.59471E+00  4.70650E+00  4.82102E+00  4.93832E+00  5.05847E+00
#           5.18155E+00  5.30762E+00  5.43676E+00  5.56904E+00  5.70453E+00
#           5.84333E+00  5.98550E+00  6.13114E+00  6.28031E+00  6.43312E+00
#           6.58964E+00  6.74997E+00  6.91420E+00  7.08243E+00  7.25475E+00
#           7.43126E+00  7.61207E+00  7.79728E+00  7.98700E+00  8.18133E+00
#           8.38038E+00  8.58428E+00  8.79315E+00  9.00709E+00  9.22624E+00
#           9.45072E+00  9.68067E+00  9.91620E+00  1.01575E+01  1.04046E+01
#           1.06578E+01  1.09171E+01  1.11827E+01  1.14548E+01  1.17335E+01
#           1.20190E+01  1.23114E+01  1.26109E+01  1.29178E+01  1.32321E+01
#           1.35540E+01  1.38838E+01  1.42216E+01  1.45676E+01  1.49221E+01
#           1.52851E+01  1.56570E+01  1.60380E+01  1.64282E+01  1.68279E+01
#           1.72374E+01  1.76568E+01  1.80864E+01  1.85264E+01  1.89772E+01
#           1.94389E+01  1.99119E+01  2.03963E+01  2.08926E+01  2.14009E+01
#           2.19216E+01  2.24550E+01  2.30014E+01  2.35610E+01  2.41343E+01
#           2.47215E+01  2.53230E+01  2.59391E+01  2.65702E+01  2.72167E+01
#           2.78789E+01  2.85572E+01  2.92520E+01  2.99637E+01  3.06928E+01
#           3.14396E+01  3.22045E+01  3.29881E+01  3.37907E+01  3.46128E+01
#           3.54550E+01  3.63177E+01  3.72013E+01  3.81064E+01  3.90336E+01
#           3.99833E+01  4.09561E+01  4.19526E+01  4.29734E+01  4.40189E+01
#           4.50900E+01  4.61870E+01  4.73108E+01  4.84619E+01  4.96410E+01
#           5.08488E+01  5.20860E+01  5.33533E+01  5.46514E+01  5.59812E+01
#           5.73432E+01  5.87384E+01  6.01676E+01  6.16315E+01  6.31311E+01
#           6.46671E+01  6.62405E+01  6.78522E+01  6.95031E+01  7.11941E+01
#           7.29263E+01  7.47007E+01  7.65182E+01  7.83800E+01  8.02870E+01
#           8.22405E+01  8.42414E+01  8.62911E+01  8.83906E+01  9.05412E+01
#           9.27442E+01  9.50007E+01  9.73122E+01  9.96799E+01  1.02105E+02
#           1.04589E+02  1.07134E+02  1.09741E+02  1.12411E+02  1.15146E+02
#           1.17948E+02  1.20817E+02  1.23757E+02  1.26768E+02  1.29852E+02
#           1.33012E+02  1.36248E+02  1.39563E+02  1.42959E+02  1.46437E+02
#           1.50000E+02
     unit =    2            # unit is [1/cm^2/(MeV/n)/source]
     axis =  eng            # axis of output
     file = detector-14.out  # file name of output for the above axis
   output = f-curr          # surface crossing forward current spectrum
     part =  neutron  
# kf/name :  2112     
#    used :        main (  %)        temp (  %)       total (  %)
#  memory :         414 (  0)           0 (  0)         414 (  0)

#------------------------------------------------------------------------------
#newpage:
#   no. =    1   reg = 113 - 213

x: Energy [MeV/n]
y:  F-Curr [1/cm^2/(MeV/n)/source]         
p: xlog ylog afac(0.8) form(0.9)
h: n            x            y(neutron ),hh0l   n 
#  e-lower      e-upper      neutron     r.err 
   1.0000E-02   1.0243E-02   7.3502E-05  0.1054
   1.0243E-02   1.0493E-02   7.5636E-05  0.1023
   1.0493E-02   1.0748E-02   7.3731E-05  0.1025
   1.0748E-02   1.1009E-02   7.7819E-05  0.0990
   1.1009E-02   1.1277E-02   6.2366E-05  0.1091
   1.1277E-02   1.1552E-02   6.4665E-05  0.1060
   1.1552E-02   1.1833E-02   6.4126E-05  0.1049
   1.1833E-02   1.2121E-02   7.3004E-05  0.0972
   1.2121E-02   1.2415E-02   6.7673E-05  0.0998
   1.2415E-02   1.2718E-02   5.6763E-05  0.1078
   1.2718E-02   1.3027E-02   5.9201E-05  0.1043
   1.3027E-02   1.3344E-02   6.8958E-05  0.0951
   1.3344E-02   1.3669E-02   5.9266E-05  0.1015
   1.3669E-02   1.4001E-02   5.6417E-05  0.1027
   1.4001E-02   1.4342E-02   5.0078E-05  0.1079
   1.4342E-02   1.4691E-02   6.4494E-05  0.0939
   1.4691E-02   1.5048E-02   5.2836E-05  0.1026
   1.5048E-02   1.5414E-02   4.6716E-05  0.1078
   1.5414E-02   1.5789E-02   5.5253E-05  0.0976
   1.5789E-02   1.6174E-02   4.8692E-05  0.1027
   1.6174E-02   1.6567E-02   5.3322E-05  0.0972
   1.6567E-02   1.6970E-02   5.0593E-05  0.0988
   1.6970E-02   1.7383E-02   4.5255E-05  0.1032
   1.7383E-02   1.7806E-02   4.9093E-05  0.0976
   1.7806E-02   1.8239E-02   5.1121E-05  0.0948
   1.8239E-02   1.8683E-02   5.0589E-05  0.0938
   1.8683E-02   1.9138E-02   3.6287E-05  0.1098
   1.9138E-02   1.9603E-02   3.0524E-05  0.1182
   1.9603E-02   2.0080E-02   4.0296E-05  0.1012
   2.0080E-02   2.0569E-02   3.8231E-05  0.1032
   2.0569E-02   2.1069E-02   3.8628E-05  0.1011
   2.1069E-02   2.1582E-02   4.4203E-05  0.0937
   2.1582E-02   2.2107E-02   3.5821E-05  0.1027
   2.2107E-02   2.2645E-02   3.4733E-05  0.1032
   2.2645E-02   2.3196E-02   4.0123E-05  0.0948
   2.3196E-02   2.3760E-02   4.4689E-05  0.0888
   2.3760E-02   2.4338E-02   3.7600E-05  0.0954
   2.4338E-02   2.4930E-02   3.1097E-05  0.1037
   2.4930E-02   2.5537E-02   3.4208E-05  0.0977
   2.5537E-02   2.6158E-02   3.4446E-05  0.0963
   2.6158E-02   2.6795E-02   3.5378E-05  0.0937
   2.6795E-02   2.7447E-02   3.0672E-05  0.0993
   2.7447E-02   2.8114E-02   3.1133E-05  0.0978
   2.8114E-02   2.8799E-02   2.8963E-05  0.1000
   2.8799E-02   2.9499E-02   3.5647E-05  0.0891
   2.9499E-02   3.0217E-02   3.1399E-05  0.0938
   3.0217E-02   3.0952E-02   2.5879E-05  0.1021
   3.0952E-02   3.1705E-02   3.1297E-05  0.0915
   3.1705E-02   3.2477E-02   2.7117E-05  0.0972
   3.2477E-02   3.3267E-02   3.1201E-05  0.0897
   3.3267E-02   3.4076E-02   3.0007E-05  0.0905
   3.4076E-02   3.4905E-02   2.5780E-05  0.0963
   3.4905E-02   3.5755E-02   2.6796E-05  0.0929
   3.5755E-02   3.6625E-02   2.4326E-05  0.0965
   3.6625E-02   3.7516E-02   2.3992E-05  0.0963
   3.7516E-02   3.8428E-02   2.4884E-05  0.0933
   3.8428E-02   3.9363E-02   2.2699E-05  0.0967
   3.9363E-02   4.0321E-02   2.4507E-05  0.0918
   4.0321E-02   4.1302E-02   2.9010E-05  0.0836
   4.1302E-02   4.2307E-02   2.5240E-05  0.0884
   4.2307E-02   4.3337E-02   1.9567E-05  0.0991
   4.3337E-02   4.4391E-02   2.2603E-05  0.0913
   4.4391E-02   4.5471E-02   2.0545E-05  0.0947
   4.5471E-02   4.6577E-02   1.9798E-05  0.0954
   4.6577E-02   4.7711E-02   2.0281E-05  0.0929
   4.7711E-02   4.8871E-02   1.8526E-05  0.0962
   4.8871E-02   5.0061E-02   1.6548E-05  0.1005
   5.0061E-02   5.1279E-02   1.8326E-05  0.0941
   5.1279E-02   5.2526E-02   1.8591E-05  0.0923
   5.2526E-02   5.3804E-02   1.8542E-05  0.0916
   5.3804E-02   5.5113E-02   1.8309E-05  0.0910
   5.5113E-02   5.6454E-02   1.7782E-05  0.0913
   5.6454E-02   5.7828E-02   2.1371E-05  0.0822
   5.7828E-02   5.9235E-02   1.9688E-05  0.0846
   5.9235E-02   6.0676E-02   1.5279E-05  0.0949
   6.0676E-02   6.2152E-02   1.3829E-05  0.0986
   6.2152E-02   6.3665E-02   1.5691E-05  0.0915
   6.3665E-02   6.5214E-02   1.6602E-05  0.0878
   6.5214E-02   6.6800E-02   1.5802E-05  0.0889
   6.6800E-02   6.8426E-02   1.3604E-05  0.0946
   6.8426E-02   7.0090E-02   1.4772E-05  0.0898
   7.0090E-02   7.1796E-02   1.4862E-05  0.0886
   7.1796E-02   7.3543E-02   1.4246E-05  0.0893
   7.3543E-02   7.5332E-02   1.5758E-05  0.0839
   7.5332E-02   7.7165E-02   1.0155E-05  0.1030
   7.7165E-02   7.9042E-02   1.3554E-05  0.0883
   7.9042E-02   8.0965E-02   1.2731E-05  0.0899
   8.0965E-02   8.2935E-02   1.1600E-05  0.0933
   8.2935E-02   8.4953E-02   1.1115E-05  0.0938
   8.4953E-02   8.7020E-02   1.2303E-05  0.0883
   8.7020E-02   8.9138E-02   1.2894E-05  0.0854
   8.9138E-02   9.1306E-02   1.2710E-05  0.0846
   9.1306E-02   9.3528E-02   1.3534E-05  0.0812
   9.3528E-02   9.5804E-02   1.3492E-05  0.0803
   9.5804E-02   9.8134E-02   1.2973E-05  0.0811
   9.8134E-02   1.0052E-01   1.1634E-05  0.0845
   1.0052E-01   1.0297E-01   1.4015E-05  0.0761
   1.0297E-01   1.0547E-01   1.2483E-05  0.0797
   1.0547E-01   1.0804E-01   1.1824E-05  0.0809
   1.0804E-01   1.1067E-01   1.5430E-05  0.0700
   1.1067E-01   1.1336E-01   1.5533E-05  0.0689
   1.1336E-01   1.1612E-01   1.5197E-05  0.0688
   1.1612E-01   1.1894E-01   1.5759E-05  0.0667
   1.1894E-01   1.2184E-01   1.6796E-05  0.0639
   1.2184E-01   1.2480E-01   1.6646E-05  0.0634
   1.2480E-01   1.2784E-01   1.7723E-05  0.0607
   1.2784E-01   1.3095E-01   1.5704E-05  0.0637
   1.3095E-01   1.3414E-01   2.2313E-05  0.0528
   1.3414E-01   1.3740E-01   1.8531E-05  0.0572
   1.3740E-01   1.4074E-01   2.0506E-05  0.0538
   1.4074E-01   1.4417E-01   2.1436E-05  0.0520
   1.4417E-01   1.4767E-01   2.2587E-05  0.0501
   1.4767E-01   1.5127E-01   2.3820E-05  0.0482
   1.5127E-01   1.5495E-01   2.5464E-05  0.0460
   1.5495E-01   1.5872E-01   2.6555E-05  0.0445
   1.5872E-01   1.6258E-01   2.6703E-05  0.0439
   1.6258E-01   1.6654E-01   2.8072E-05  0.0423
   1.6654E-01   1.7059E-01   3.1026E-05  0.0397
   1.7059E-01   1.7474E-01   3.0940E-05  0.0393
   1.7474E-01   1.7899E-01   3.3335E-05  0.0374
   1.7899E-01   1.8334E-01   3.4296E-05  0.0364
   1.8334E-01   1.8781E-01   3.5877E-05  0.0352
   1.8781E-01   1.9237E-01   3.6751E-05  0.0344
   1.9237E-01   1.9706E-01   3.7335E-05  0.0337
   1.9706E-01   2.0185E-01   3.9092E-05  0.0325
   2.0185E-01   2.0676E-01   3.8677E-05  0.0323
   2.0676E-01   2.1179E-01   4.2208E-05  0.0306
   2.1179E-01   2.1694E-01   4.4107E-05  0.0296
   2.1694E-01   2.2222E-01   4.4588E-05  0.0290
   2.2222E-01   2.2763E-01   4.4962E-05  0.0286
   2.2763E-01   2.3317E-01   4.8440E-05  0.0272
   2.3317E-01   2.3884E-01   4.7884E-05  0.0270
   2.3884E-01   2.4465E-01   5.2377E-05  0.0255
   2.4465E-01   2.5061E-01   5.2492E-05  0.0252
   2.5061E-01   2.5670E-01   5.7701E-05  0.0238
   2.5670E-01   2.6295E-01   5.5393E-05  0.0240
   2.6295E-01   2.6935E-01   6.1563E-05  0.0224
   2.6935E-01   2.7590E-01   6.2284E-05  0.0221
   2.7590E-01   2.8261E-01   6.7281E-05  0.0210
   2.8261E-01   2.8949E-01   6.6936E-05  0.0208
   2.8949E-01   2.9653E-01   6.8646E-05  0.0203
   2.9653E-01   3.0375E-01   7.1685E-05  0.0196
   3.0375E-01   3.1114E-01   7.2862E-05  0.0192
   3.1114E-01   3.1871E-01   7.5414E-05  0.0186
   3.1871E-01   3.2646E-01   8.0543E-05  0.0178
   3.2646E-01   3.3441E-01   7.7451E-05  0.0180
   3.3441E-01   3.4254E-01   8.1891E-05  0.0173
   3.4254E-01   3.5088E-01   8.3595E-05  0.0169
   3.5088E-01   3.5941E-01   8.6913E-05  0.0163
   3.5941E-01   3.6816E-01   8.9898E-05  0.0159
   3.6816E-01   3.7712E-01   9.2801E-05  0.0154
   3.7712E-01   3.8629E-01   9.5524E-05  0.0150
   3.8629E-01   3.9569E-01   9.4812E-05  0.0149
   3.9569E-01   4.0532E-01   9.9513E-05  0.0144
   4.0532E-01   4.1518E-01   1.0260E-04  0.0140
   4.1518E-01   4.2528E-01   1.0302E-04  0.0138
   4.2528E-01   4.3563E-01   1.0585E-04  0.0135
   4.3563E-01   4.4623E-01   1.0574E-04  0.0133
   4.4623E-01   4.5708E-01   1.1261E-04  0.0127
   4.5708E-01   4.6821E-01   1.1233E-04  0.0126
   4.6821E-01   4.7960E-01   1.1352E-04  0.0124
   4.7960E-01   4.9127E-01   1.1660E-04  0.0121
   4.9127E-01   5.0322E-01   1.1725E-04  0.0119
   5.0322E-01   5.1546E-01   1.1809E-04  0.0117
   5.1546E-01   5.2800E-01   1.2329E-04  0.0113
   5.2800E-01   5.4085E-01   1.2316E-04  0.0112
   5.4085E-01   5.5401E-01   1.2507E-04  0.0110
   5.5401E-01   5.6749E-01   1.2462E-04  0.0109
   5.6749E-01   5.8130E-01   1.2727E-04  0.0106
   5.8130E-01   5.9544E-01   1.2882E-04  0.0104
   5.9544E-01   6.0993E-01   1.2823E-04  0.0103
   6.0993E-01   6.2477E-01   1.3101E-04  0.0101
   6.2477E-01   6.3997E-01   1.2909E-04  0.0100
   6.3997E-01   6.5554E-01   1.2836E-04  0.0099
   6.5554E-01   6.7149E-01   1.2938E-04  0.0098
   6.7149E-01   6.8783E-01   1.2891E-04  0.0097
   6.8783E-01   7.0456E-01   1.2899E-04  0.0096
   7.0456E-01   7.2171E-01   1.3021E-04  0.0094
   7.2171E-01   7.3927E-01   1.2591E-04  0.0095
   7.3927E-01   7.5725E-01   1.2661E-04  0.0093
   7.5725E-01   7.7568E-01   1.2582E-04  0.0092
   7.7568E-01   7.9455E-01   1.2399E-04  0.0092
   7.9455E-01   8.1388E-01   1.2159E-04  0.0092
   8.1388E-01   8.3368E-01   1.1814E-04  0.0092
   8.3368E-01   8.5397E-01   1.1608E-04  0.0091
   8.5397E-01   8.7475E-01   1.1238E-04  0.0092
   8.7475E-01   8.9603E-01   1.1156E-04  0.0091
   8.9603E-01   9.1783E-01   1.0431E-04  0.0093
   9.1783E-01   9.4016E-01   1.0170E-04  0.0093
   9.4016E-01   9.6304E-01   9.9335E-05  0.0093
   9.6304E-01   9.8647E-01   9.7363E-05  0.0093
   9.8647E-01   1.0105E+00   9.3284E-05  0.0094
   1.0105E+00   1.0351E+00   9.4700E-05  0.0092
   1.0351E+00   1.0602E+00   9.9075E-05  0.0089
   1.0602E+00   1.0860E+00   1.0399E-04  0.0086
   1.0860E+00   1.1125E+00   1.0715E-04  0.0083
   1.1125E+00   1.1395E+00   1.1292E-04  0.0080
   1.1395E+00   1.1673E+00   1.1557E-04  0.0078
   1.1673E+00   1.1957E+00   1.2400E-04  0.0075
   1.1957E+00   1.2247E+00   1.2813E-04  0.0072
   1.2247E+00   1.2545E+00   1.3140E-04  0.0071
   1.2545E+00   1.2851E+00   1.3334E-04  0.0069
   1.2851E+00   1.3163E+00   1.3965E-04  0.0067
   1.3163E+00   1.3484E+00   1.4521E-04  0.0065
   1.3484E+00   1.3812E+00   1.5157E-04  0.0063
   1.3812E+00   1.4148E+00   1.5685E-04  0.0061
   1.4148E+00   1.4492E+00   1.5882E-04  0.0060
   1.4492E+00   1.4845E+00   1.6034E-04  0.0059
   1.4845E+00   1.5206E+00   1.6380E-04  0.0057
   1.5206E+00   1.5576E+00   1.6647E-04  0.0056
   1.5576E+00   1.5955E+00   1.6794E-04  0.0055
   1.5955E+00   1.6343E+00   1.7156E-04  0.0054
   1.6343E+00   1.6741E+00   1.7409E-04  0.0053
   1.6741E+00   1.7148E+00   1.7844E-04  0.0052
   1.7148E+00   1.7565E+00   1.7501E-04  0.0051
   1.7565E+00   1.7992E+00   1.6734E-04  0.0052
   1.7992E+00   1.8430E+00   1.6029E-04  0.0052
   1.8430E+00   1.8879E+00   1.5718E-04  0.0052
   1.8879E+00   1.9338E+00   1.5907E-04  0.0051
   1.9338E+00   1.9808E+00   1.6007E-04  0.0050
   1.9808E+00   2.0290E+00   1.6498E-04  0.0049
   2.0290E+00   2.0784E+00   1.6730E-04  0.0048
   2.0784E+00   2.1290E+00   1.7340E-04  0.0046
   2.1290E+00   2.1808E+00   1.7745E-04  0.0045
   2.1808E+00   2.2338E+00   1.8051E-04  0.0044
   2.2338E+00   2.2882E+00   1.7805E-04  0.0044
   2.2882E+00   2.3439E+00   1.7619E-04  0.0044
   2.3439E+00   2.4009E+00   1.7652E-04  0.0043
   2.4009E+00   2.4593E+00   1.7956E-04  0.0043
   2.4593E+00   2.5191E+00   1.7825E-04  0.0042
   2.5191E+00   2.5804E+00   1.7845E-04  0.0042
   2.5804E+00   2.6432E+00   1.7911E-04  0.0041
   2.6432E+00   2.7075E+00   1.7690E-04  0.0041
   2.7075E+00   2.7734E+00   1.7548E-04  0.0041
   2.7734E+00   2.8409E+00   1.7566E-04  0.0040
   2.8409E+00   2.9100E+00   1.7712E-04  0.0039
   2.9100E+00   2.9808E+00   1.7479E-04  0.0039
   2.9808E+00   3.0533E+00   1.7496E-04  0.0039
   3.0533E+00   3.1276E+00   1.7208E-04  0.0039
   3.1276E+00   3.2037E+00   1.7021E-04  0.0038
   3.2037E+00   3.2817E+00   1.6897E-04  0.0038
   3.2817E+00   3.3615E+00   1.6763E-04  0.0038
   3.3615E+00   3.4433E+00   1.6601E-04  0.0038
   3.4433E+00   3.5271E+00   1.6662E-04  0.0037
   3.5271E+00   3.6129E+00   1.6461E-04  0.0037
   3.6129E+00   3.7008E+00   1.6216E-04  0.0037
   3.7008E+00   3.7908E+00   1.5950E-04  0.0037
   3.7908E+00   3.8831E+00   1.5677E-04  0.0037
   3.8831E+00   3.9776E+00   1.5379E-04  0.0036
   3.9776E+00   4.0743E+00   1.5188E-04  0.0036
   4.0743E+00   4.1735E+00   1.4863E-04  0.0036
   4.1735E+00   4.2750E+00   1.4435E-04  0.0036
   4.2750E+00   4.3790E+00   1.4001E-04  0.0036
   4.3790E+00   4.4856E+00   1.3726E-04  0.0036
   4.4856E+00   4.5947E+00   1.3322E-04  0.0036
   4.5947E+00   4.7065E+00   1.3050E-04  0.0036
   4.7065E+00   4.8210E+00   1.2664E-04  0.0036
   4.8210E+00   4.9383E+00   1.2482E-04  0.0036
   4.9383E+00   5.0585E+00   1.2141E-04  0.0036
   5.0585E+00   5.1815E+00   1.1794E-04  0.0036
   5.1815E+00   5.3076E+00   1.1632E-04  0.0036
   5.3076E+00   5.4368E+00   1.1221E-04  0.0036
   5.4368E+00   5.5690E+00   1.0905E-04  0.0037
   5.5690E+00   5.7045E+00   1.0669E-04  0.0037
   5.7045E+00   5.8433E+00   1.0325E-04  0.0037
   5.8433E+00   5.9855E+00   1.0073E-04  0.0037
   5.9855E+00   6.1311E+00   9.8622E-05  0.0037
   6.1311E+00   6.2803E+00   9.5593E-05  0.0037
   6.2803E+00   6.4331E+00   9.2766E-05  0.0037
   6.4331E+00   6.5896E+00   8.9361E-05  0.0037
   6.5896E+00   6.7500E+00   8.6030E-05  0.0038
   6.7500E+00   6.9142E+00   8.3316E-05  0.0038
   6.9142E+00   7.0824E+00   7.9955E-05  0.0038
   7.0824E+00   7.2548E+00   7.6627E-05  0.0038
   7.2548E+00   7.4313E+00   7.3019E-05  0.0039
   7.4313E+00   7.6121E+00   7.0638E-05  0.0039
   7.6121E+00   7.7973E+00   6.6289E-05  0.0040
   7.7973E+00   7.9870E+00   6.2458E-05  0.0041
   7.9870E+00   8.1813E+00   5.9298E-05  0.0041
   8.1813E+00   8.3804E+00   5.6076E-05  0.0042
   8.3804E+00   8.5843E+00   5.3140E-05  0.0042
   8.5843E+00   8.7931E+00   5.0710E-05  0.0043
   8.7931E+00   9.0071E+00   4.7509E-05  0.0044
   9.0071E+00   9.2262E+00   4.5213E-05  0.0044
   9.2262E+00   9.4507E+00   4.2742E-05  0.0045
   9.4507E+00   9.6807E+00   4.0404E-05  0.0046
   9.6807E+00   9.9162E+00   3.9003E-05  0.0046
   9.9162E+00   1.0157E+01   3.8917E-05  0.0046
   1.0157E+01   1.0405E+01   3.6800E-05  0.0047
   1.0405E+01   1.0658E+01   3.4688E-05  0.0047
   1.0658E+01   1.0917E+01   3.2354E-05  0.0049
   1.0917E+01   1.1183E+01   3.0397E-05  0.0050
   1.1183E+01   1.1455E+01   2.8817E-05  0.0050
   1.1455E+01   1.1733E+01   2.6970E-05  0.0051
   1.1733E+01   1.2019E+01   2.5711E-05  0.0052
   1.2019E+01   1.2311E+01   2.4617E-05  0.0052
   1.2311E+01   1.2611E+01   2.3175E-05  0.0053
   1.2611E+01   1.2918E+01   2.1981E-05  0.0054
   1.2918E+01   1.3232E+01   2.1120E-05  0.0055
   1.3232E+01   1.3554E+01   2.0095E-05  0.0055
   1.3554E+01   1.3884E+01   1.9089E-05  0.0056
   1.3884E+01   1.4222E+01   1.8247E-05  0.0057
   1.4222E+01   1.4568E+01   1.7038E-05  0.0058
   1.4568E+01   1.4922E+01   1.6229E-05  0.0059
   1.4922E+01   1.5285E+01   1.5525E-05  0.0059
   1.5285E+01   1.5657E+01   1.4674E-05  0.0060
   1.5657E+01   1.6038E+01   1.3912E-05  0.0061
   1.6038E+01   1.6428E+01   1.3273E-05  0.0062
   1.6428E+01   1.6828E+01   1.2608E-05  0.0063
   1.6828E+01   1.7237E+01   1.1790E-05  0.0064
   1.7237E+01   1.7657E+01   1.1089E-05  0.0066
   1.7657E+01   1.8086E+01   1.0542E-05  0.0066
   1.8086E+01   1.8526E+01   9.9658E-06  0.0067
   1.8526E+01   1.8977E+01   9.2342E-06  0.0069
   1.8977E+01   1.9439E+01   8.7201E-06  0.0070
   1.9439E+01   1.9912E+01   8.2981E-06  0.0071
   1.9912E+01   2.0396E+01   7.7672E-06  0.0073
   2.0396E+01   2.0893E+01   7.3659E-06  0.0074
   2.0893E+01   2.1401E+01   6.8420E-06  0.0076
   2.1401E+01   2.1922E+01   6.4386E-06  0.0077
   2.1922E+01   2.2455E+01   6.0213E-06  0.0079
   2.2455E+01   2.3001E+01   5.6136E-06  0.0081
   2.3001E+01   2.3561E+01   5.2208E-06  0.0083
   2.3561E+01   2.4134E+01   4.7518E-06  0.0086
   2.4134E+01   2.4721E+01   4.3801E-06  0.0088
   2.4721E+01   2.5323E+01   4.0479E-06  0.0091
   2.5323E+01   2.5939E+01   3.6249E-06  0.0095
   2.5939E+01   2.6570E+01   3.3417E-06  0.0097
   2.6570E+01   2.7217E+01   2.9520E-06  0.0102
   2.7217E+01   2.7879E+01   2.6596E-06  0.0107
   2.7879E+01   2.8557E+01   2.4145E-06  0.0111
   2.8557E+01   2.9252E+01   2.1531E-06  0.0116
   2.9252E+01   2.9964E+01   1.8563E-06  0.0123
   2.9964E+01   3.0693E+01   1.6718E-06  0.0128
   3.0693E+01   3.1440E+01   1.4101E-06  0.0138
   3.1440E+01   3.2205E+01   1.2492E-06  0.0145
   3.2205E+01   3.2988E+01   1.0991E-06  0.0152
   3.2988E+01   3.3791E+01   9.4241E-07  0.0163
   3.3791E+01   3.4613E+01   8.1055E-07  0.0173
   3.4613E+01   3.5455E+01   6.7565E-07  0.0187
   3.5455E+01   3.6318E+01   5.5388E-07  0.0205
   3.6318E+01   3.7201E+01   4.2506E-07  0.0231
   3.7201E+01   3.8106E+01   3.4382E-07  0.0254
   3.8106E+01   3.9034E+01   2.7913E-07  0.0278
   3.9034E+01   3.9983E+01   2.1943E-07  0.0310
   3.9983E+01   4.0956E+01   1.8708E-07  0.0331
   4.0956E+01   4.1953E+01   1.4611E-07  0.0371
   4.1953E+01   4.2973E+01   1.0581E-07  0.0430
   4.2973E+01   4.4019E+01   5.4898E-08  0.0590
   4.4019E+01   4.5090E+01   3.7534E-08  0.0705
   4.5090E+01   4.6187E+01   2.0053E-08  0.0953
   4.6187E+01   4.7311E+01   1.4416E-08  0.1111
   4.7311E+01   4.8462E+01   6.6023E-09  0.1622
   4.8462E+01   4.9641E+01   2.8835E-09  0.2425
   4.9641E+01   5.0849E+01   1.3247E-09  0.3536
   5.0849E+01   5.2086E+01   3.2331E-10  0.7071
   5.2086E+01   5.3353E+01   0.0000E+00  0.0000
   5.3353E+01   5.4651E+01   0.0000E+00  0.0000
   5.4651E+01   5.5981E+01   0.0000E+00  0.0000
   5.5981E+01   5.7343E+01   0.0000E+00  0.0000
   5.7343E+01   5.8738E+01   0.0000E+00  0.0000
   5.8738E+01   6.0168E+01   0.0000E+00  0.0000
   6.0168E+01   6.1632E+01   0.0000E+00  0.0000
   6.1632E+01   6.3131E+01   0.0000E+00  0.0000
   6.3131E+01   6.4667E+01   0.0000E+00  0.0000
   6.4667E+01   6.6240E+01   0.0000E+00  0.0000
   6.6240E+01   6.7852E+01   0.0000E+00  0.0000
   6.7852E+01   6.9503E+01   0.0000E+00  0.0000
   6.9503E+01   7.1194E+01   0.0000E+00  0.0000
   7.1194E+01   7.2926E+01   0.0000E+00  0.0000
   7.2926E+01   7.4701E+01   0.0000E+00  0.0000
   7.4701E+01   7.6518E+01   0.0000E+00  0.0000
   7.6518E+01   7.8380E+01   0.0000E+00  0.0000
   7.8380E+01   8.0287E+01   0.0000E+00  0.0000
   8.0287E+01   8.2240E+01   0.0000E+00  0.0000
   8.2240E+01   8.4241E+01   0.0000E+00  0.0000
   8.4241E+01   8.6291E+01   0.0000E+00  0.0000
   8.6291E+01   8.8391E+01   0.0000E+00  0.0000
   8.8391E+01   9.0541E+01   0.0000E+00  0.0000
   9.0541E+01   9.2744E+01   0.0000E+00  0.0000
   9.2744E+01   9.5001E+01   0.0000E+00  0.0000
   9.5001E+01   9.7312E+01   0.0000E+00  0.0000
   9.7312E+01   9.9680E+01   0.0000E+00  0.0000
   9.9680E+01   1.0211E+02   0.0000E+00  0.0000
   1.0211E+02   1.0459E+02   0.0000E+00  0.0000
   1.0459E+02   1.0713E+02   0.0000E+00  0.0000
   1.0713E+02   1.0974E+02   0.0000E+00  0.0000
   1.0974E+02   1.1241E+02   0.0000E+00  0.0000
   1.1241E+02   1.1515E+02   0.0000E+00  0.0000
   1.1515E+02   1.1795E+02   0.0000E+00  0.0000
   1.1795E+02   1.2082E+02   0.0000E+00  0.0000
   1.2082E+02   1.2376E+02   0.0000E+00  0.0000
   1.2376E+02   1.2677E+02   0.0000E+00  0.0000
   1.2677E+02   1.2985E+02   0.0000E+00  0.0000
   1.2985E+02   1.3301E+02   0.0000E+00  0.0000
   1.3301E+02   1.3625E+02   0.0000E+00  0.0000
   1.3625E+02   1.3956E+02   0.0000E+00  0.0000
   1.3956E+02   1.4296E+02   0.0000E+00  0.0000
   1.4296E+02   1.4644E+02   0.0000E+00  0.0000
   1.4644E+02   1.5000E+02   0.0000E+00  0.0000

#   sum over                 8.7274E-06
'no. =    1   reg = 113 - 213'
msuc: {\huge [t-cross] in region mesh}
msdr: {\it plotted by \ANGEL \version}
msdl: {\it calculated by \PHITS  3.26}
wt: s(0.7)
\vspace{-3}
  region surface crossing
  area  &=&   1.0000E+00 [cm^2]
e:
 
# Information for Restart Calculation
# This calculation was newly started
# istdev =  2 # 1:Batch variance, 2:History variance
# resc2  = 5.00000000000000000E+09 # Total source weight or Total source weight / maxcas
# resc3  = 5.00000000000000000E+09 # Total history number or Total batch number
# maxcas =   100000000 # History / Batch, only used for istdev=1
# bitrseed = 0110100000100010111000001110001111001110100100011111101000111001 # bit data of rseed
