[ T-Cross ]
    title = [t-cross] in region mesh
     mesh =  reg            # mesh type is region-wise
      reg =    1            # number of crossing regions
      non     r-from    r-to       area
      1       109       209        1.000000    
   e-type =    3            # e-mesh is log given by emin, emax and ne
     emin =  1.0000000E-02  # minimum value of e-mesh points
     emax =   150.0000      # maximum value of e-mesh points
#    edel =  2.4039514E-02  # mesh width of e-mesh points
       ne =    400          # number of e-mesh points
#    data = ( e(i), i = 1, ne + 1 )
#           1.00000E-02  1.02433E-02  1.04925E-02  1.07478E-02  1.10093E-02
#           1.12772E-02  1.15516E-02  1.18326E-02  1.21205E-02  1.24154E-02
#           1.27175E-02  1.30269E-02  1.33439E-02  1.36686E-02  1.40011E-02
#           1.43418E-02  1.46907E-02  1.50482E-02  1.54143E-02  1.57894E-02
#           1.61735E-02  1.65670E-02  1.69701E-02  1.73830E-02  1.78060E-02
#           1.82392E-02  1.86830E-02  1.91375E-02  1.96032E-02  2.00801E-02
#           2.05687E-02  2.10692E-02  2.15818E-02  2.21069E-02  2.26448E-02
#           2.31957E-02  2.37601E-02  2.43382E-02  2.49304E-02  2.55369E-02
#           2.61583E-02  2.67947E-02  2.74467E-02  2.81145E-02  2.87985E-02
#           2.94992E-02  3.02169E-02  3.09521E-02  3.17052E-02  3.24766E-02
#           3.32668E-02  3.40762E-02  3.49053E-02  3.57546E-02  3.66246E-02
#           3.75157E-02  3.84284E-02  3.93634E-02  4.03212E-02  4.13022E-02
#           4.23071E-02  4.33365E-02  4.43909E-02  4.54710E-02  4.65773E-02
#           4.77106E-02  4.88714E-02  5.00605E-02  5.12785E-02  5.25262E-02
#           5.38042E-02  5.51133E-02  5.64542E-02  5.78278E-02  5.92348E-02
#           6.06760E-02  6.21523E-02  6.36645E-02  6.52135E-02  6.68002E-02
#           6.84255E-02  7.00904E-02  7.17957E-02  7.35426E-02  7.53319E-02
#           7.71648E-02  7.90423E-02  8.09655E-02  8.29354E-02  8.49533E-02
#           8.70203E-02  8.91376E-02  9.13064E-02  9.35279E-02  9.58035E-02
#           9.81345E-02  1.00522E-01  1.02968E-01  1.05473E-01  1.08040E-01
#           1.10668E-01  1.13361E-01  1.16119E-01  1.18944E-01  1.21838E-01
#           1.24803E-01  1.27839E-01  1.30950E-01  1.34136E-01  1.37399E-01
#           1.40742E-01  1.44167E-01  1.47675E-01  1.51268E-01  1.54948E-01
#           1.58718E-01  1.62580E-01  1.66535E-01  1.70587E-01  1.74738E-01
#           1.78989E-01  1.83344E-01  1.87805E-01  1.92375E-01  1.97055E-01
#           2.01850E-01  2.06761E-01  2.11792E-01  2.16945E-01  2.22223E-01
#           2.27630E-01  2.33169E-01  2.38842E-01  2.44653E-01  2.50605E-01
#           2.56703E-01  2.62949E-01  2.69346E-01  2.75900E-01  2.82613E-01
#           2.89489E-01  2.96532E-01  3.03747E-01  3.11138E-01  3.18708E-01
#           3.26462E-01  3.34405E-01  3.42542E-01  3.50876E-01  3.59413E-01
#           3.68158E-01  3.77116E-01  3.86291E-01  3.95690E-01  4.05317E-01
#           4.15179E-01  4.25281E-01  4.35628E-01  4.46227E-01  4.57084E-01
#           4.68205E-01  4.79597E-01  4.91266E-01  5.03219E-01  5.15463E-01
#           5.28005E-01  5.40851E-01  5.54011E-01  5.67490E-01  5.81298E-01
#           5.95441E-01  6.09929E-01  6.24769E-01  6.39970E-01  6.55541E-01
#           6.71491E-01  6.87828E-01  7.04564E-01  7.21706E-01  7.39266E-01
#           7.57253E-01  7.75678E-01  7.94551E-01  8.13883E-01  8.33685E-01
#           8.53969E-01  8.74747E-01  8.96030E-01  9.17831E-01  9.40163E-01
#           9.63038E-01  9.86469E-01  1.01047E+00  1.03506E+00  1.06024E+00
#           1.08604E+00  1.11246E+00  1.13953E+00  1.16725E+00  1.19565E+00
#           1.22474E+00  1.25454E+00  1.28507E+00  1.31633E+00  1.34836E+00
#           1.38117E+00  1.41477E+00  1.44920E+00  1.48446E+00  1.52057E+00
#           1.55757E+00  1.59547E+00  1.63429E+00  1.67405E+00  1.71478E+00
#           1.75650E+00  1.79924E+00  1.84302E+00  1.88786E+00  1.93379E+00
#           1.98084E+00  2.02904E+00  2.07841E+00  2.12898E+00  2.18078E+00
#           2.23384E+00  2.28819E+00  2.34386E+00  2.40089E+00  2.45930E+00
#           2.51914E+00  2.58043E+00  2.64322E+00  2.70753E+00  2.77341E+00
#           2.84088E+00  2.91001E+00  2.98081E+00  3.05333E+00  3.12762E+00
#           3.20372E+00  3.28167E+00  3.36152E+00  3.44330E+00  3.52708E+00
#           3.61290E+00  3.70080E+00  3.79085E+00  3.88308E+00  3.97756E+00
#           4.07434E+00  4.17347E+00  4.27501E+00  4.37903E+00  4.48557E+00
#           4.59471E+00  4.70650E+00  4.82102E+00  4.93832E+00  5.05847E+00
#           5.18155E+00  5.30762E+00  5.43676E+00  5.56904E+00  5.70453E+00
#           5.84333E+00  5.98550E+00  6.13114E+00  6.28031E+00  6.43312E+00
#           6.58964E+00  6.74997E+00  6.91420E+00  7.08243E+00  7.25475E+00
#           7.43126E+00  7.61207E+00  7.79728E+00  7.98700E+00  8.18133E+00
#           8.38038E+00  8.58428E+00  8.79315E+00  9.00709E+00  9.22624E+00
#           9.45072E+00  9.68067E+00  9.91620E+00  1.01575E+01  1.04046E+01
#           1.06578E+01  1.09171E+01  1.11827E+01  1.14548E+01  1.17335E+01
#           1.20190E+01  1.23114E+01  1.26109E+01  1.29178E+01  1.32321E+01
#           1.35540E+01  1.38838E+01  1.42216E+01  1.45676E+01  1.49221E+01
#           1.52851E+01  1.56570E+01  1.60380E+01  1.64282E+01  1.68279E+01
#           1.72374E+01  1.76568E+01  1.80864E+01  1.85264E+01  1.89772E+01
#           1.94389E+01  1.99119E+01  2.03963E+01  2.08926E+01  2.14009E+01
#           2.19216E+01  2.24550E+01  2.30014E+01  2.35610E+01  2.41343E+01
#           2.47215E+01  2.53230E+01  2.59391E+01  2.65702E+01  2.72167E+01
#           2.78789E+01  2.85572E+01  2.92520E+01  2.99637E+01  3.06928E+01
#           3.14396E+01  3.22045E+01  3.29881E+01  3.37907E+01  3.46128E+01
#           3.54550E+01  3.63177E+01  3.72013E+01  3.81064E+01  3.90336E+01
#           3.99833E+01  4.09561E+01  4.19526E+01  4.29734E+01  4.40189E+01
#           4.50900E+01  4.61870E+01  4.73108E+01  4.84619E+01  4.96410E+01
#           5.08488E+01  5.20860E+01  5.33533E+01  5.46514E+01  5.59812E+01
#           5.73432E+01  5.87384E+01  6.01676E+01  6.16315E+01  6.31311E+01
#           6.46671E+01  6.62405E+01  6.78522E+01  6.95031E+01  7.11941E+01
#           7.29263E+01  7.47007E+01  7.65182E+01  7.83800E+01  8.02870E+01
#           8.22405E+01  8.42414E+01  8.62911E+01  8.83906E+01  9.05412E+01
#           9.27442E+01  9.50007E+01  9.73122E+01  9.96799E+01  1.02105E+02
#           1.04589E+02  1.07134E+02  1.09741E+02  1.12411E+02  1.15146E+02
#           1.17948E+02  1.20817E+02  1.23757E+02  1.26768E+02  1.29852E+02
#           1.33012E+02  1.36248E+02  1.39563E+02  1.42959E+02  1.46437E+02
#           1.50000E+02
     unit =    2            # unit is [1/cm^2/(MeV/n)/source]
     axis =  eng            # axis of output
     file = detector-10.out  # file name of output for the above axis
   output = f-curr          # surface crossing forward current spectrum
     part =  neutron  
# kf/name :  2112     
#    used :        main (  %)        temp (  %)       total (  %)
#  memory :         414 (  0)           0 (  0)         414 (  0)

#------------------------------------------------------------------------------
#newpage:
#   no. =    1   reg = 109 - 209

x: Energy [MeV/n]
y:  F-Curr [1/cm^2/(MeV/n)/source]         
p: xlog ylog afac(0.8) form(0.9)
h: n            x            y(neutron ),hh0l   n 
#  e-lower      e-upper      neutron     r.err 
   1.0000E-02   1.0243E-02   0.0000E+00  0.0000
   1.0243E-02   1.0493E-02   0.0000E+00  0.0000
   1.0493E-02   1.0748E-02   0.0000E+00  0.0000
   1.0748E-02   1.1009E-02   1.0323E-06  0.7849
   1.1009E-02   1.1277E-02   0.0000E+00  0.0000
   1.1277E-02   1.1552E-02   0.0000E+00  0.0000
   1.1552E-02   1.1833E-02   0.0000E+00  0.0000
   1.1833E-02   1.2121E-02   0.0000E+00  0.0000
   1.2121E-02   1.2415E-02   1.6579E-06  0.6064
   1.2415E-02   1.2718E-02   0.0000E+00  0.0000
   1.2718E-02   1.3027E-02   0.0000E+00  0.0000
   1.3027E-02   1.3344E-02   6.3100E-07  1.0000
   1.3344E-02   1.3669E-02   6.1601E-07  1.0000
   1.3669E-02   1.4001E-02   6.0138E-07  1.0000
   1.4001E-02   1.4342E-02   4.5759E-07  0.7670
   1.4342E-02   1.4691E-02   1.9649E-07  1.0000
   1.4691E-02   1.5048E-02   1.3854E-06  0.6027
   1.5048E-02   1.5414E-02   1.7062E-07  1.0000
   1.5414E-02   1.5789E-02   8.4976E-07  0.6653
   1.5789E-02   1.6174E-02   2.0315E-07  1.0000
   1.6174E-02   1.6567E-02   1.0165E-06  0.7071
   1.6567E-02   1.6970E-02   9.9234E-07  0.7071
   1.6970E-02   1.7383E-02   4.8438E-07  1.0000
   1.7383E-02   1.7806E-02   7.5104E-07  0.6849
   1.7806E-02   1.8239E-02   2.3524E-07  0.7134
   1.8239E-02   1.8683E-02   4.5068E-07  1.0000
   1.8683E-02   1.9138E-02   1.0521E-07  1.0000
   1.9138E-02   1.9603E-02   4.2952E-07  1.0000
   1.9603E-02   2.0080E-02   8.0088E-07  0.7077
   2.0080E-02   2.0569E-02   8.7651E-07  0.6638
   2.0569E-02   2.1069E-02   6.6457E-07  0.6452
   2.1069E-02   2.1582E-02   1.1704E-06  0.5774
   2.1582E-02   2.2107E-02   7.6176E-07  0.7071
   2.2107E-02   2.2645E-02   7.4366E-07  0.7071
   2.2645E-02   2.3196E-02   9.6734E-07  0.5666
   2.3196E-02   2.3760E-02   1.0631E-06  0.5774
   2.3760E-02   2.4338E-02   1.4426E-06  0.4497
   2.4338E-02   2.4930E-02   2.2741E-06  0.3719
   2.4930E-02   2.5537E-02   1.8265E-06  0.4065
   2.5537E-02   2.6158E-02   1.0780E-06  0.5276
   2.6158E-02   2.6795E-02   2.3780E-06  0.3545
   2.6795E-02   2.7447E-02   2.3678E-06  0.3431
   2.7447E-02   2.8114E-02   1.9070E-06  0.3890
   2.8114E-02   2.8799E-02   3.0903E-06  0.3020
   2.8799E-02   2.9499E-02   6.7494E-07  0.6176
   2.9499E-02   3.0217E-02   1.4917E-06  0.3899
   3.0217E-02   3.0952E-02   3.7152E-06  0.2582
   3.0952E-02   3.1705E-02   1.0860E-06  0.4531
   3.1705E-02   3.2477E-02   3.1381E-06  0.2781
   3.2477E-02   3.3267E-02   2.4315E-06  0.3145
   3.3267E-02   3.4076E-02   4.5734E-06  0.2263
   3.4076E-02   3.4905E-02   2.9526E-06  0.2670
   3.4905E-02   3.5755E-02   4.0158E-06  0.2339
   3.5755E-02   3.6625E-02   3.1572E-06  0.2514
   3.6625E-02   3.7516E-02   2.6964E-06  0.2719
   3.7516E-02   3.8428E-02   2.3586E-06  0.2960
   3.8428E-02   3.9363E-02   3.6579E-06  0.2363
   3.9363E-02   4.0321E-02   6.5678E-06  0.1766
   4.0321E-02   4.1302E-02   3.0307E-06  0.2542
   4.1302E-02   4.2307E-02   3.7477E-06  0.2234
   4.2307E-02   4.3337E-02   2.9434E-06  0.2506
   4.3337E-02   4.4391E-02   3.3522E-06  0.2243
   4.4391E-02   4.5471E-02   6.2978E-06  0.1658
   4.5471E-02   4.6577E-02   4.6219E-06  0.1869
   4.6577E-02   4.7711E-02   6.5133E-06  0.1599
   4.7711E-02   4.8871E-02   6.5943E-06  0.1554
   4.8871E-02   5.0061E-02   5.9742E-06  0.1625
   5.0061E-02   5.1279E-02   6.8056E-06  0.1501
   5.1279E-02   5.2526E-02   7.0076E-06  0.1468
   5.2526E-02   5.3804E-02   6.1088E-06  0.1511
   5.3804E-02   5.5113E-02   7.1727E-06  0.1400
   5.5113E-02   5.6454E-02   6.9623E-06  0.1418
   5.6454E-02   5.7828E-02   7.2159E-06  0.1358
   5.7828E-02   5.9235E-02   6.2604E-06  0.1470
   5.9235E-02   6.0676E-02   8.8839E-06  0.1217
   6.0676E-02   6.2152E-02   1.0501E-05  0.1095
   6.2152E-02   6.3665E-02   9.4267E-06  0.1147
   6.3665E-02   6.5214E-02   1.1785E-05  0.1003
   6.5214E-02   6.6800E-02   9.9091E-06  0.1087
   6.6800E-02   6.8426E-02   8.8061E-06  0.1134
   6.8426E-02   7.0090E-02   1.0762E-05  0.1026
   7.0090E-02   7.1796E-02   9.9393E-06  0.1050
   7.1796E-02   7.3543E-02   1.3008E-05  0.0910
   7.3543E-02   7.5332E-02   1.1333E-05  0.0955
   7.5332E-02   7.7165E-02   1.3016E-05  0.0890
   7.7165E-02   7.9042E-02   1.3124E-05  0.0874
   7.9042E-02   8.0965E-02   1.2209E-05  0.0899
   8.0965E-02   8.2935E-02   1.5200E-05  0.0782
   8.2935E-02   8.4953E-02   1.5248E-05  0.0781
   8.4953E-02   8.7020E-02   1.6074E-05  0.0748
   8.7020E-02   8.9138E-02   1.6120E-05  0.0738
   8.9138E-02   9.1306E-02   1.8398E-05  0.0684
   9.1306E-02   9.3528E-02   1.8925E-05  0.0667
   9.3528E-02   9.5804E-02   2.0460E-05  0.0632
   9.5804E-02   9.8134E-02   2.1123E-05  0.0613
   9.8134E-02   1.0052E-01   2.4712E-05  0.0564
   1.0052E-01   1.0297E-01   2.2200E-05  0.0588
   1.0297E-01   1.0547E-01   2.4594E-05  0.0554
   1.0547E-01   1.0804E-01   2.3824E-05  0.0551
   1.0804E-01   1.1067E-01   2.8864E-05  0.0500
   1.1067E-01   1.1336E-01   2.8358E-05  0.0496
   1.1336E-01   1.1612E-01   2.8670E-05  0.0487
   1.1612E-01   1.1894E-01   3.1516E-05  0.0461
   1.1894E-01   1.2184E-01   3.2104E-05  0.0451
   1.2184E-01   1.2480E-01   3.5469E-05  0.0423
   1.2480E-01   1.2784E-01   3.7377E-05  0.0408
   1.2784E-01   1.3095E-01   3.7692E-05  0.0402
   1.3095E-01   1.3414E-01   3.7151E-05  0.0399
   1.3414E-01   1.3740E-01   4.0197E-05  0.0381
   1.3740E-01   1.4074E-01   4.2204E-05  0.0366
   1.4074E-01   1.4417E-01   4.0395E-05  0.0369
   1.4417E-01   1.4767E-01   4.7297E-05  0.0338
   1.4767E-01   1.5127E-01   4.7898E-05  0.0332
   1.5127E-01   1.5495E-01   5.2391E-05  0.0314
   1.5495E-01   1.5872E-01   4.9783E-05  0.0317
   1.5872E-01   1.6258E-01   5.4807E-05  0.0299
   1.6258E-01   1.6654E-01   5.5431E-05  0.0294
   1.6654E-01   1.7059E-01   6.0103E-05  0.0280
   1.7059E-01   1.7474E-01   6.3259E-05  0.0269
   1.7474E-01   1.7899E-01   6.3318E-05  0.0265
   1.7899E-01   1.8334E-01   6.7678E-05  0.0254
   1.8334E-01   1.8781E-01   7.1199E-05  0.0245
   1.8781E-01   1.9237E-01   7.1535E-05  0.0241
   1.9237E-01   1.9706E-01   8.0535E-05  0.0225
   1.9706E-01   2.0185E-01   8.3949E-05  0.0218
   2.0185E-01   2.0676E-01   8.3429E-05  0.0216
   2.0676E-01   2.1179E-01   8.6184E-05  0.0210
   2.1179E-01   2.1694E-01   9.0679E-05  0.0202
   2.1694E-01   2.2222E-01   9.5502E-05  0.0195
   2.2222E-01   2.2763E-01   9.8094E-05  0.0190
   2.2763E-01   2.3317E-01   1.0422E-04  0.0182
   2.3317E-01   2.3884E-01   1.0494E-04  0.0179
   2.3884E-01   2.4465E-01   1.0416E-04  0.0178
   2.4465E-01   2.5061E-01   1.1557E-04  0.0167
   2.5061E-01   2.5670E-01   1.1932E-04  0.0162
   2.5670E-01   2.6295E-01   1.2637E-04  0.0156
   2.6295E-01   2.6935E-01   1.2721E-04  0.0154
   2.6935E-01   2.7590E-01   1.3267E-04  0.0149
   2.7590E-01   2.8261E-01   1.3713E-04  0.0145
   2.8261E-01   2.8949E-01   1.4557E-04  0.0139
   2.8949E-01   2.9653E-01   1.4940E-04  0.0135
   2.9653E-01   3.0375E-01   1.5328E-04  0.0132
   3.0375E-01   3.1114E-01   1.6001E-04  0.0128
   3.1114E-01   3.1871E-01   1.6164E-04  0.0126
   3.1871E-01   3.2646E-01   1.6949E-04  0.0121
   3.2646E-01   3.3441E-01   1.7848E-04  0.0117
   3.3441E-01   3.4254E-01   1.8014E-04  0.0115
   3.4254E-01   3.5088E-01   1.8635E-04  0.0112
   3.5088E-01   3.5941E-01   1.9424E-04  0.0108
   3.5941E-01   3.6816E-01   1.9613E-04  0.0106
   3.6816E-01   3.7712E-01   1.9932E-04  0.0104
   3.7712E-01   3.8629E-01   2.0877E-04  0.0101
   3.8629E-01   3.9569E-01   2.1298E-04  0.0099
   3.9569E-01   4.0532E-01   2.1968E-04  0.0096
   4.0532E-01   4.1518E-01   2.2253E-04  0.0094
   4.1518E-01   4.2528E-01   2.3270E-04  0.0091
   4.2528E-01   4.3563E-01   2.3540E-04  0.0090
   4.3563E-01   4.4623E-01   2.4141E-04  0.0088
   4.4623E-01   4.5708E-01   2.5111E-04  0.0085
   4.5708E-01   4.6821E-01   2.5088E-04  0.0084
   4.6821E-01   4.7960E-01   2.5912E-04  0.0082
   4.7960E-01   4.9127E-01   2.6380E-04  0.0080
   4.9127E-01   5.0322E-01   2.7069E-04  0.0078
   5.0322E-01   5.1546E-01   2.7346E-04  0.0077
   5.1546E-01   5.2800E-01   2.7761E-04  0.0075
   5.2800E-01   5.4085E-01   2.8809E-04  0.0073
   5.4085E-01   5.5401E-01   2.8990E-04  0.0072
   5.5401E-01   5.6749E-01   3.0632E-04  0.0069
   5.6749E-01   5.8130E-01   3.1254E-04  0.0068
   5.8130E-01   5.9544E-01   3.1520E-04  0.0067
   5.9544E-01   6.0993E-01   3.2313E-04  0.0065
   6.0993E-01   6.2477E-01   3.2905E-04  0.0064
   6.2477E-01   6.3997E-01   3.3598E-04  0.0062
   6.3997E-01   6.5554E-01   3.4261E-04  0.0061
   6.5554E-01   6.7149E-01   3.4805E-04  0.0060
   6.7149E-01   6.8783E-01   3.5476E-04  0.0058
   6.8783E-01   7.0456E-01   3.6273E-04  0.0057
   7.0456E-01   7.2171E-01   3.6603E-04  0.0056
   7.2171E-01   7.3927E-01   3.7387E-04  0.0055
   7.3927E-01   7.5725E-01   3.7985E-04  0.0054
   7.5725E-01   7.7568E-01   3.8726E-04  0.0053
   7.7568E-01   7.9455E-01   3.9606E-04  0.0051
   7.9455E-01   8.1388E-01   3.9867E-04  0.0051
   8.1388E-01   8.3368E-01   4.0509E-04  0.0050
   8.3368E-01   8.5397E-01   4.1175E-04  0.0049
   8.5397E-01   8.7475E-01   4.2083E-04  0.0047
   8.7475E-01   8.9603E-01   4.2463E-04  0.0047
   8.9603E-01   9.1783E-01   4.2934E-04  0.0046
   9.1783E-01   9.4016E-01   4.3616E-04  0.0045
   9.4016E-01   9.6304E-01   4.4330E-04  0.0044
   9.6304E-01   9.8647E-01   4.4893E-04  0.0043
   9.8647E-01   1.0105E+00   4.5064E-04  0.0043
   1.0105E+00   1.0351E+00   4.5146E-04  0.0042
   1.0351E+00   1.0602E+00   4.4402E-04  0.0042
   1.0602E+00   1.0860E+00   4.3895E-04  0.0042
   1.0860E+00   1.1125E+00   4.4005E-04  0.0041
   1.1125E+00   1.1395E+00   4.4296E-04  0.0041
   1.1395E+00   1.1673E+00   4.4343E-04  0.0040
   1.1673E+00   1.1957E+00   4.4774E-04  0.0039
   1.1957E+00   1.2247E+00   4.4684E-04  0.0039
   1.2247E+00   1.2545E+00   4.4610E-04  0.0038
   1.2545E+00   1.2851E+00   4.4305E-04  0.0038
   1.2851E+00   1.3163E+00   4.4082E-04  0.0038
   1.3163E+00   1.3484E+00   4.3515E-04  0.0038
   1.3484E+00   1.3812E+00   4.3547E-04  0.0037
   1.3812E+00   1.4148E+00   4.3860E-04  0.0036
   1.4148E+00   1.4492E+00   4.3321E-04  0.0036
   1.4492E+00   1.4845E+00   4.3322E-04  0.0036
   1.4845E+00   1.5206E+00   4.3113E-04  0.0035
   1.5206E+00   1.5576E+00   4.2898E-04  0.0035
   1.5576E+00   1.5955E+00   4.2563E-04  0.0035
   1.5955E+00   1.6343E+00   4.2196E-04  0.0035
   1.6343E+00   1.6741E+00   4.1857E-04  0.0034
   1.6741E+00   1.7148E+00   4.1367E-04  0.0034
   1.7148E+00   1.7565E+00   4.1014E-04  0.0034
   1.7565E+00   1.7992E+00   4.1155E-04  0.0033
   1.7992E+00   1.8430E+00   4.1161E-04  0.0033
   1.8430E+00   1.8879E+00   4.0835E-04  0.0033
   1.8879E+00   1.9338E+00   4.0350E-04  0.0032
   1.9338E+00   1.9808E+00   4.0070E-04  0.0032
   1.9808E+00   2.0290E+00   3.9828E-04  0.0032
   2.0290E+00   2.0784E+00   3.9764E-04  0.0032
   2.0784E+00   2.1290E+00   3.9474E-04  0.0031
   2.1290E+00   2.1808E+00   3.9078E-04  0.0031
   2.1808E+00   2.2338E+00   3.8523E-04  0.0031
   2.2338E+00   2.2882E+00   3.8278E-04  0.0031
   2.2882E+00   2.3439E+00   3.7689E-04  0.0030
   2.3439E+00   2.4009E+00   3.7181E-04  0.0030
   2.4009E+00   2.4593E+00   3.6555E-04  0.0030
   2.4593E+00   2.5191E+00   3.6602E-04  0.0030
   2.5191E+00   2.5804E+00   3.5839E-04  0.0030
   2.5804E+00   2.6432E+00   3.5023E-04  0.0030
   2.6432E+00   2.7075E+00   3.4647E-04  0.0029
   2.7075E+00   2.7734E+00   3.4106E-04  0.0029
   2.7734E+00   2.8409E+00   3.3917E-04  0.0029
   2.8409E+00   2.9100E+00   3.3498E-04  0.0029
   2.9100E+00   2.9808E+00   3.3032E-04  0.0029
   2.9808E+00   3.0533E+00   3.2453E-04  0.0029
   3.0533E+00   3.1276E+00   3.1962E-04  0.0028
   3.1276E+00   3.2037E+00   3.1448E-04  0.0028
   3.2037E+00   3.2817E+00   3.1097E-04  0.0028
   3.2817E+00   3.3615E+00   3.0411E-04  0.0028
   3.3615E+00   3.4433E+00   3.0041E-04  0.0028
   3.4433E+00   3.5271E+00   2.9495E-04  0.0028
   3.5271E+00   3.6129E+00   2.9017E-04  0.0028
   3.6129E+00   3.7008E+00   2.8373E-04  0.0028
   3.7008E+00   3.7908E+00   2.7896E-04  0.0028
   3.7908E+00   3.8831E+00   2.7220E-04  0.0028
   3.8831E+00   3.9776E+00   2.6588E-04  0.0028
   3.9776E+00   4.0743E+00   2.6064E-04  0.0028
   4.0743E+00   4.1735E+00   2.5387E-04  0.0028
   4.1735E+00   4.2750E+00   2.4624E-04  0.0028
   4.2750E+00   4.3790E+00   2.4146E-04  0.0028
   4.3790E+00   4.4856E+00   2.3728E-04  0.0027
   4.4856E+00   4.5947E+00   2.3401E-04  0.0027
   4.5947E+00   4.7065E+00   2.2921E-04  0.0027
   4.7065E+00   4.8210E+00   2.2769E-04  0.0027
   4.8210E+00   4.9383E+00   2.2521E-04  0.0027
   4.9383E+00   5.0585E+00   2.2726E-04  0.0027
   5.0585E+00   5.1815E+00   2.3871E-04  0.0026
   5.1815E+00   5.3076E+00   2.4570E-04  0.0025
   5.3076E+00   5.4368E+00   2.4047E-04  0.0025
   5.4368E+00   5.5690E+00   2.3565E-04  0.0025
   5.5690E+00   5.7045E+00   2.3096E-04  0.0025
   5.7045E+00   5.8433E+00   2.2561E-04  0.0025
   5.8433E+00   5.9855E+00   2.2203E-04  0.0025
   5.9855E+00   6.1311E+00   2.1896E-04  0.0025
   6.1311E+00   6.2803E+00   2.1563E-04  0.0025
   6.2803E+00   6.4331E+00   2.1271E-04  0.0024
   6.4331E+00   6.5896E+00   2.1087E-04  0.0024
   6.5896E+00   6.7500E+00   2.0702E-04  0.0024
   6.7500E+00   6.9142E+00   2.0417E-04  0.0024
   6.9142E+00   7.0824E+00   2.0004E-04  0.0024
   7.0824E+00   7.2548E+00   1.9822E-04  0.0024
   7.2548E+00   7.4313E+00   1.9820E-04  0.0024
   7.4313E+00   7.6121E+00   1.9815E-04  0.0023
   7.6121E+00   7.7973E+00   1.9548E-04  0.0023
   7.7973E+00   7.9870E+00   1.9383E-04  0.0023
   7.9870E+00   8.1813E+00   1.9113E-04  0.0023
   8.1813E+00   8.3804E+00   1.8934E-04  0.0023
   8.3804E+00   8.5843E+00   1.8676E-04  0.0023
   8.5843E+00   8.7931E+00   1.8405E-04  0.0023
   8.7931E+00   9.0071E+00   1.7917E-04  0.0023
   9.0071E+00   9.2262E+00   1.7699E-04  0.0023
   9.2262E+00   9.4507E+00   1.7378E-04  0.0022
   9.4507E+00   9.6807E+00   1.7009E-04  0.0022
   9.6807E+00   9.9162E+00   1.6778E-04  0.0022
   9.9162E+00   1.0157E+01   1.6497E-04  0.0022
   1.0157E+01   1.0405E+01   1.6191E-04  0.0022
   1.0405E+01   1.0658E+01   1.5977E-04  0.0022
   1.0658E+01   1.0917E+01   1.5736E-04  0.0022
   1.0917E+01   1.1183E+01   1.5482E-04  0.0022
   1.1183E+01   1.1455E+01   1.5246E-04  0.0022
   1.1455E+01   1.1733E+01   1.4917E-04  0.0022
   1.1733E+01   1.2019E+01   1.4641E-04  0.0022
   1.2019E+01   1.2311E+01   1.4334E-04  0.0022
   1.2311E+01   1.2611E+01   1.4063E-04  0.0022
   1.2611E+01   1.2918E+01   1.3818E-04  0.0022
   1.2918E+01   1.3232E+01   1.3495E-04  0.0022
   1.3232E+01   1.3554E+01   1.3213E-04  0.0022
   1.3554E+01   1.3884E+01   1.2894E-04  0.0022
   1.3884E+01   1.4222E+01   1.2642E-04  0.0022
   1.4222E+01   1.4568E+01   1.2299E-04  0.0022
   1.4568E+01   1.4922E+01   1.2035E-04  0.0022
   1.4922E+01   1.5285E+01   1.1750E-04  0.0022
   1.5285E+01   1.5657E+01   1.1404E-04  0.0022
   1.5657E+01   1.6038E+01   1.1169E-04  0.0022
   1.6038E+01   1.6428E+01   1.0811E-04  0.0022
   1.6428E+01   1.6828E+01   1.0485E-04  0.0022
   1.6828E+01   1.7237E+01   1.0146E-04  0.0022
   1.7237E+01   1.7657E+01   9.7571E-05  0.0022
   1.7657E+01   1.8086E+01   9.4631E-05  0.0022
   1.8086E+01   1.8526E+01   9.0185E-05  0.0022
   1.8526E+01   1.8977E+01   8.7174E-05  0.0022
   1.8977E+01   1.9439E+01   8.3706E-05  0.0023
   1.9439E+01   1.9912E+01   7.9903E-05  0.0023
   1.9912E+01   2.0396E+01   8.2107E-05  0.0022
   2.0396E+01   2.0893E+01   7.9604E-05  0.0023
   2.0893E+01   2.1401E+01   7.6128E-05  0.0023
   2.1401E+01   2.1922E+01   7.2297E-05  0.0023
   2.1922E+01   2.2455E+01   6.8888E-05  0.0023
   2.2455E+01   2.3001E+01   6.5156E-05  0.0024
   2.3001E+01   2.3561E+01   6.1864E-05  0.0024
   2.3561E+01   2.4134E+01   5.8611E-05  0.0024
   2.4134E+01   2.4721E+01   5.5255E-05  0.0025
   2.4721E+01   2.5323E+01   5.1838E-05  0.0025
   2.5323E+01   2.5939E+01   4.8476E-05  0.0026
   2.5939E+01   2.6570E+01   4.5290E-05  0.0026
   2.6570E+01   2.7217E+01   4.2165E-05  0.0027
   2.7217E+01   2.7879E+01   3.9318E-05  0.0028
   2.7879E+01   2.8557E+01   3.6308E-05  0.0028
   2.8557E+01   2.9252E+01   3.3431E-05  0.0029
   2.9252E+01   2.9964E+01   3.0844E-05  0.0030
   2.9964E+01   3.0693E+01   2.8066E-05  0.0031
   3.0693E+01   3.1440E+01   2.5648E-05  0.0032
   3.1440E+01   3.2205E+01   2.3177E-05  0.0034
   3.2205E+01   3.2988E+01   2.0925E-05  0.0035
   3.2988E+01   3.3791E+01   1.8577E-05  0.0037
   3.3791E+01   3.4613E+01   1.6758E-05  0.0038
   3.4613E+01   3.5455E+01   1.4604E-05  0.0040
   3.5455E+01   3.6318E+01   1.3130E-05  0.0042
   3.6318E+01   3.7201E+01   1.1686E-05  0.0044
   3.7201E+01   3.8106E+01   1.0365E-05  0.0046
   3.8106E+01   3.9034E+01   9.0578E-06  0.0049
   3.9034E+01   3.9983E+01   8.0470E-06  0.0051
   3.9983E+01   4.0956E+01   7.0103E-06  0.0054
   4.0956E+01   4.1953E+01   5.9948E-06  0.0058
   4.1953E+01   4.2973E+01   4.3365E-06  0.0067
   4.2973E+01   4.4019E+01   3.0022E-06  0.0080
   4.4019E+01   4.5090E+01   1.3809E-06  0.0116
   4.5090E+01   4.6187E+01   8.9511E-08  0.0451
   4.6187E+01   4.7311E+01   4.4493E-09  0.2000
   4.7311E+01   4.8462E+01   0.0000E+00  0.0000
   4.8462E+01   4.9641E+01   0.0000E+00  0.0000
   4.9641E+01   5.0849E+01   0.0000E+00  0.0000
   5.0849E+01   5.2086E+01   0.0000E+00  0.0000
   5.2086E+01   5.3353E+01   0.0000E+00  0.0000
   5.3353E+01   5.4651E+01   0.0000E+00  0.0000
   5.4651E+01   5.5981E+01   0.0000E+00  0.0000
   5.5981E+01   5.7343E+01   0.0000E+00  0.0000
   5.7343E+01   5.8738E+01   0.0000E+00  0.0000
   5.8738E+01   6.0168E+01   0.0000E+00  0.0000
   6.0168E+01   6.1632E+01   0.0000E+00  0.0000
   6.1632E+01   6.3131E+01   0.0000E+00  0.0000
   6.3131E+01   6.4667E+01   0.0000E+00  0.0000
   6.4667E+01   6.6240E+01   0.0000E+00  0.0000
   6.6240E+01   6.7852E+01   0.0000E+00  0.0000
   6.7852E+01   6.9503E+01   0.0000E+00  0.0000
   6.9503E+01   7.1194E+01   0.0000E+00  0.0000
   7.1194E+01   7.2926E+01   0.0000E+00  0.0000
   7.2926E+01   7.4701E+01   0.0000E+00  0.0000
   7.4701E+01   7.6518E+01   0.0000E+00  0.0000
   7.6518E+01   7.8380E+01   0.0000E+00  0.0000
   7.8380E+01   8.0287E+01   0.0000E+00  0.0000
   8.0287E+01   8.2240E+01   0.0000E+00  0.0000
   8.2240E+01   8.4241E+01   0.0000E+00  0.0000
   8.4241E+01   8.6291E+01   0.0000E+00  0.0000
   8.6291E+01   8.8391E+01   0.0000E+00  0.0000
   8.8391E+01   9.0541E+01   0.0000E+00  0.0000
   9.0541E+01   9.2744E+01   0.0000E+00  0.0000
   9.2744E+01   9.5001E+01   0.0000E+00  0.0000
   9.5001E+01   9.7312E+01   0.0000E+00  0.0000
   9.7312E+01   9.9680E+01   0.0000E+00  0.0000
   9.9680E+01   1.0211E+02   0.0000E+00  0.0000
   1.0211E+02   1.0459E+02   0.0000E+00  0.0000
   1.0459E+02   1.0713E+02   0.0000E+00  0.0000
   1.0713E+02   1.0974E+02   0.0000E+00  0.0000
   1.0974E+02   1.1241E+02   0.0000E+00  0.0000
   1.1241E+02   1.1515E+02   0.0000E+00  0.0000
   1.1515E+02   1.1795E+02   0.0000E+00  0.0000
   1.1795E+02   1.2082E+02   0.0000E+00  0.0000
   1.2082E+02   1.2376E+02   0.0000E+00  0.0000
   1.2376E+02   1.2677E+02   0.0000E+00  0.0000
   1.2677E+02   1.2985E+02   0.0000E+00  0.0000
   1.2985E+02   1.3301E+02   0.0000E+00  0.0000
   1.3301E+02   1.3625E+02   0.0000E+00  0.0000
   1.3625E+02   1.3956E+02   0.0000E+00  0.0000
   1.3956E+02   1.4296E+02   0.0000E+00  0.0000
   1.4296E+02   1.4644E+02   0.0000E+00  0.0000
   1.4644E+02   1.5000E+02   0.0000E+00  0.0000

#   sum over                 2.9853E-05
'no. =    1   reg = 109 - 209'
msuc: {\huge [t-cross] in region mesh}
msdr: {\it plotted by \ANGEL \version}
msdl: {\it calculated by \PHITS  3.26}
wt: s(0.7)
\vspace{-3}
  region surface crossing
  area  &=&   1.0000E+00 [cm^2]
e:
 
# Information for Restart Calculation
# This calculation was newly started
# istdev =  2 # 1:Batch variance, 2:History variance
# resc2  = 5.00000000000000000E+09 # Total source weight or Total source weight / maxcas
# resc3  = 5.00000000000000000E+09 # Total history number or Total batch number
# maxcas =   100000000 # History / Batch, only used for istdev=1
# bitrseed = 0110100000100010111000001110001111001110100100011111101000111001 # bit data of rseed
