[ T-Cross ]
    title = [t-cross] in region mesh
     mesh =  reg            # mesh type is region-wise
      reg =    1            # number of crossing regions
      non     r-from    r-to       area
      1       121       221        1.000000    
   e-type =    3            # e-mesh is log given by emin, emax and ne
     emin =  1.0000000E-02  # minimum value of e-mesh points
     emax =   150.0000      # maximum value of e-mesh points
#    edel =  2.4039514E-02  # mesh width of e-mesh points
       ne =    400          # number of e-mesh points
#    data = ( e(i), i = 1, ne + 1 )
#           1.00000E-02  1.02433E-02  1.04925E-02  1.07478E-02  1.10093E-02
#           1.12772E-02  1.15516E-02  1.18326E-02  1.21205E-02  1.24154E-02
#           1.27175E-02  1.30269E-02  1.33439E-02  1.36686E-02  1.40011E-02
#           1.43418E-02  1.46907E-02  1.50482E-02  1.54143E-02  1.57894E-02
#           1.61735E-02  1.65670E-02  1.69701E-02  1.73830E-02  1.78060E-02
#           1.82392E-02  1.86830E-02  1.91375E-02  1.96032E-02  2.00801E-02
#           2.05687E-02  2.10692E-02  2.15818E-02  2.21069E-02  2.26448E-02
#           2.31957E-02  2.37601E-02  2.43382E-02  2.49304E-02  2.55369E-02
#           2.61583E-02  2.67947E-02  2.74467E-02  2.81145E-02  2.87985E-02
#           2.94992E-02  3.02169E-02  3.09521E-02  3.17052E-02  3.24766E-02
#           3.32668E-02  3.40762E-02  3.49053E-02  3.57546E-02  3.66246E-02
#           3.75157E-02  3.84284E-02  3.93634E-02  4.03212E-02  4.13022E-02
#           4.23071E-02  4.33365E-02  4.43909E-02  4.54710E-02  4.65773E-02
#           4.77106E-02  4.88714E-02  5.00605E-02  5.12785E-02  5.25262E-02
#           5.38042E-02  5.51133E-02  5.64542E-02  5.78278E-02  5.92348E-02
#           6.06760E-02  6.21523E-02  6.36645E-02  6.52135E-02  6.68002E-02
#           6.84255E-02  7.00904E-02  7.17957E-02  7.35426E-02  7.53319E-02
#           7.71648E-02  7.90423E-02  8.09655E-02  8.29354E-02  8.49533E-02
#           8.70203E-02  8.91376E-02  9.13064E-02  9.35279E-02  9.58035E-02
#           9.81345E-02  1.00522E-01  1.02968E-01  1.05473E-01  1.08040E-01
#           1.10668E-01  1.13361E-01  1.16119E-01  1.18944E-01  1.21838E-01
#           1.24803E-01  1.27839E-01  1.30950E-01  1.34136E-01  1.37399E-01
#           1.40742E-01  1.44167E-01  1.47675E-01  1.51268E-01  1.54948E-01
#           1.58718E-01  1.62580E-01  1.66535E-01  1.70587E-01  1.74738E-01
#           1.78989E-01  1.83344E-01  1.87805E-01  1.92375E-01  1.97055E-01
#           2.01850E-01  2.06761E-01  2.11792E-01  2.16945E-01  2.22223E-01
#           2.27630E-01  2.33169E-01  2.38842E-01  2.44653E-01  2.50605E-01
#           2.56703E-01  2.62949E-01  2.69346E-01  2.75900E-01  2.82613E-01
#           2.89489E-01  2.96532E-01  3.03747E-01  3.11138E-01  3.18708E-01
#           3.26462E-01  3.34405E-01  3.42542E-01  3.50876E-01  3.59413E-01
#           3.68158E-01  3.77116E-01  3.86291E-01  3.95690E-01  4.05317E-01
#           4.15179E-01  4.25281E-01  4.35628E-01  4.46227E-01  4.57084E-01
#           4.68205E-01  4.79597E-01  4.91266E-01  5.03219E-01  5.15463E-01
#           5.28005E-01  5.40851E-01  5.54011E-01  5.67490E-01  5.81298E-01
#           5.95441E-01  6.09929E-01  6.24769E-01  6.39970E-01  6.55541E-01
#           6.71491E-01  6.87828E-01  7.04564E-01  7.21706E-01  7.39266E-01
#           7.57253E-01  7.75678E-01  7.94551E-01  8.13883E-01  8.33685E-01
#           8.53969E-01  8.74747E-01  8.96030E-01  9.17831E-01  9.40163E-01
#           9.63038E-01  9.86469E-01  1.01047E+00  1.03506E+00  1.06024E+00
#           1.08604E+00  1.11246E+00  1.13953E+00  1.16725E+00  1.19565E+00
#           1.22474E+00  1.25454E+00  1.28507E+00  1.31633E+00  1.34836E+00
#           1.38117E+00  1.41477E+00  1.44920E+00  1.48446E+00  1.52057E+00
#           1.55757E+00  1.59547E+00  1.63429E+00  1.67405E+00  1.71478E+00
#           1.75650E+00  1.79924E+00  1.84302E+00  1.88786E+00  1.93379E+00
#           1.98084E+00  2.02904E+00  2.07841E+00  2.12898E+00  2.18078E+00
#           2.23384E+00  2.28819E+00  2.34386E+00  2.40089E+00  2.45930E+00
#           2.51914E+00  2.58043E+00  2.64322E+00  2.70753E+00  2.77341E+00
#           2.84088E+00  2.91001E+00  2.98081E+00  3.05333E+00  3.12762E+00
#           3.20372E+00  3.28167E+00  3.36152E+00  3.44330E+00  3.52708E+00
#           3.61290E+00  3.70080E+00  3.79085E+00  3.88308E+00  3.97756E+00
#           4.07434E+00  4.17347E+00  4.27501E+00  4.37903E+00  4.48557E+00
#           4.59471E+00  4.70650E+00  4.82102E+00  4.93832E+00  5.05847E+00
#           5.18155E+00  5.30762E+00  5.43676E+00  5.56904E+00  5.70453E+00
#           5.84333E+00  5.98550E+00  6.13114E+00  6.28031E+00  6.43312E+00
#           6.58964E+00  6.74997E+00  6.91420E+00  7.08243E+00  7.25475E+00
#           7.43126E+00  7.61207E+00  7.79728E+00  7.98700E+00  8.18133E+00
#           8.38038E+00  8.58428E+00  8.79315E+00  9.00709E+00  9.22624E+00
#           9.45072E+00  9.68067E+00  9.91620E+00  1.01575E+01  1.04046E+01
#           1.06578E+01  1.09171E+01  1.11827E+01  1.14548E+01  1.17335E+01
#           1.20190E+01  1.23114E+01  1.26109E+01  1.29178E+01  1.32321E+01
#           1.35540E+01  1.38838E+01  1.42216E+01  1.45676E+01  1.49221E+01
#           1.52851E+01  1.56570E+01  1.60380E+01  1.64282E+01  1.68279E+01
#           1.72374E+01  1.76568E+01  1.80864E+01  1.85264E+01  1.89772E+01
#           1.94389E+01  1.99119E+01  2.03963E+01  2.08926E+01  2.14009E+01
#           2.19216E+01  2.24550E+01  2.30014E+01  2.35610E+01  2.41343E+01
#           2.47215E+01  2.53230E+01  2.59391E+01  2.65702E+01  2.72167E+01
#           2.78789E+01  2.85572E+01  2.92520E+01  2.99637E+01  3.06928E+01
#           3.14396E+01  3.22045E+01  3.29881E+01  3.37907E+01  3.46128E+01
#           3.54550E+01  3.63177E+01  3.72013E+01  3.81064E+01  3.90336E+01
#           3.99833E+01  4.09561E+01  4.19526E+01  4.29734E+01  4.40189E+01
#           4.50900E+01  4.61870E+01  4.73108E+01  4.84619E+01  4.96410E+01
#           5.08488E+01  5.20860E+01  5.33533E+01  5.46514E+01  5.59812E+01
#           5.73432E+01  5.87384E+01  6.01676E+01  6.16315E+01  6.31311E+01
#           6.46671E+01  6.62405E+01  6.78522E+01  6.95031E+01  7.11941E+01
#           7.29263E+01  7.47007E+01  7.65182E+01  7.83800E+01  8.02870E+01
#           8.22405E+01  8.42414E+01  8.62911E+01  8.83906E+01  9.05412E+01
#           9.27442E+01  9.50007E+01  9.73122E+01  9.96799E+01  1.02105E+02
#           1.04589E+02  1.07134E+02  1.09741E+02  1.12411E+02  1.15146E+02
#           1.17948E+02  1.20817E+02  1.23757E+02  1.26768E+02  1.29852E+02
#           1.33012E+02  1.36248E+02  1.39563E+02  1.42959E+02  1.46437E+02
#           1.50000E+02
     unit =    2            # unit is [1/cm^2/(MeV/n)/source]
     axis =  eng            # axis of output
     file = detector-22.out  # file name of output for the above axis
   output = f-curr          # surface crossing forward current spectrum
     part =  neutron  
# kf/name :  2112     
#    used :        main (  %)        temp (  %)       total (  %)
#  memory :         414 (  0)           0 (  0)         414 (  0)

#------------------------------------------------------------------------------
#newpage:
#   no. =    1   reg = 121 - 221

x: Energy [MeV/n]
y:  F-Curr [1/cm^2/(MeV/n)/source]         
p: xlog ylog afac(0.8) form(0.9)
h: n            x            y(neutron ),hh0l   n 
#  e-lower      e-upper      neutron     r.err 
   1.0000E-02   1.0243E-02   1.3600E-03  0.0246
   1.0243E-02   1.0493E-02   1.3498E-03  0.0244
   1.0493E-02   1.0748E-02   1.4117E-03  0.0236
   1.0748E-02   1.1009E-02   1.3988E-03  0.0234
   1.1009E-02   1.1277E-02   1.4365E-03  0.0228
   1.1277E-02   1.1552E-02   1.4214E-03  0.0226
   1.1552E-02   1.1833E-02   1.3200E-03  0.0232
   1.1833E-02   1.2121E-02   1.3786E-03  0.0224
   1.2121E-02   1.2415E-02   1.4150E-03  0.0219
   1.2415E-02   1.2718E-02   1.4142E-03  0.0216
   1.2718E-02   1.3027E-02   1.4007E-03  0.0215
   1.3027E-02   1.3344E-02   1.3832E-03  0.0214
   1.3344E-02   1.3669E-02   1.4039E-03  0.0209
   1.3669E-02   1.4001E-02   1.3739E-03  0.0209
   1.4001E-02   1.4342E-02   1.4316E-03  0.0202
   1.4342E-02   1.4691E-02   1.3790E-03  0.0204
   1.4691E-02   1.5048E-02   1.3837E-03  0.0201
   1.5048E-02   1.5414E-02   1.3771E-03  0.0199
   1.5414E-02   1.5789E-02   1.4254E-03  0.0193
   1.5789E-02   1.6174E-02   1.3957E-03  0.0193
   1.6174E-02   1.6567E-02   1.4002E-03  0.0191
   1.6567E-02   1.6970E-02   1.4037E-03  0.0188
   1.6970E-02   1.7383E-02   1.4115E-03  0.0185
   1.7383E-02   1.7806E-02   1.4063E-03  0.0183
   1.7806E-02   1.8239E-02   1.3782E-03  0.0183
   1.8239E-02   1.8683E-02   1.3994E-03  0.0179
   1.8683E-02   1.9138E-02   1.3956E-03  0.0178
   1.9138E-02   1.9603E-02   1.3667E-03  0.0177
   1.9603E-02   2.0080E-02   1.4014E-03  0.0173
   2.0080E-02   2.0569E-02   1.3910E-03  0.0172
   2.0569E-02   2.1069E-02   1.3941E-03  0.0169
   2.1069E-02   2.1582E-02   1.4192E-03  0.0166
   2.1582E-02   2.2107E-02   1.4460E-03  0.0162
   2.2107E-02   2.2645E-02   1.3940E-03  0.0163
   2.2645E-02   2.3196E-02   1.4034E-03  0.0161
   2.3196E-02   2.3760E-02   1.3890E-03  0.0160
   2.3760E-02   2.4338E-02   1.3838E-03  0.0158
   2.4338E-02   2.4930E-02   1.4189E-03  0.0154
   2.4930E-02   2.5537E-02   1.4158E-03  0.0153
   2.5537E-02   2.6158E-02   1.3638E-03  0.0154
   2.6158E-02   2.6795E-02   1.3852E-03  0.0151
   2.6795E-02   2.7447E-02   1.4259E-03  0.0147
   2.7447E-02   2.8114E-02   1.4136E-03  0.0146
   2.8114E-02   2.8799E-02   1.4128E-03  0.0144
   2.8799E-02   2.9499E-02   1.3819E-03  0.0144
   2.9499E-02   3.0217E-02   1.3966E-03  0.0141
   3.0217E-02   3.0952E-02   1.4078E-03  0.0139
   3.0952E-02   3.1705E-02   1.4154E-03  0.0137
   3.1705E-02   3.2477E-02   1.3990E-03  0.0136
   3.2477E-02   3.3267E-02   1.4232E-03  0.0133
   3.3267E-02   3.4076E-02   1.3905E-03  0.0133
   3.4076E-02   3.4905E-02   1.3703E-03  0.0133
   3.4905E-02   3.5755E-02   1.3794E-03  0.0131
   3.5755E-02   3.6625E-02   1.3735E-03  0.0129
   3.6625E-02   3.7516E-02   1.3918E-03  0.0127
   3.7516E-02   3.8428E-02   1.3802E-03  0.0126
   3.8428E-02   3.9363E-02   1.4212E-03  0.0123
   3.9363E-02   4.0321E-02   1.3833E-03  0.0123
   4.0321E-02   4.1302E-02   1.4082E-03  0.0120
   4.1302E-02   4.2307E-02   1.4183E-03  0.0118
   4.2307E-02   4.3337E-02   1.4040E-03  0.0118
   4.3337E-02   4.4391E-02   1.4006E-03  0.0116
   4.4391E-02   4.5471E-02   1.4029E-03  0.0115
   4.5471E-02   4.6577E-02   1.4010E-03  0.0114
   4.6577E-02   4.7711E-02   1.3949E-03  0.0112
   4.7711E-02   4.8871E-02   1.3716E-03  0.0112
   4.8871E-02   5.0061E-02   1.4135E-03  0.0109
   5.0061E-02   5.1279E-02   1.4070E-03  0.0108
   5.1279E-02   5.2526E-02   1.3590E-03  0.0109
   5.2526E-02   5.3804E-02   1.3725E-03  0.0107
   5.3804E-02   5.5113E-02   1.3784E-03  0.0105
   5.5113E-02   5.6454E-02   1.3790E-03  0.0104
   5.6454E-02   5.7828E-02   1.3885E-03  0.0102
   5.7828E-02   5.9235E-02   1.3856E-03  0.0101
   5.9235E-02   6.0676E-02   1.3744E-03  0.0100
   6.0676E-02   6.2152E-02   1.3809E-03  0.0099
   6.2152E-02   6.3665E-02   1.4029E-03  0.0097
   6.3665E-02   6.5214E-02   1.3737E-03  0.0097
   6.5214E-02   6.6800E-02   1.3640E-03  0.0096
   6.6800E-02   6.8426E-02   1.3816E-03  0.0094
   6.8426E-02   7.0090E-02   1.3654E-03  0.0094
   7.0090E-02   7.1796E-02   1.3561E-03  0.0093
   7.1796E-02   7.3543E-02   1.3630E-03  0.0092
   7.3543E-02   7.5332E-02   1.3434E-03  0.0091
   7.5332E-02   7.7165E-02   1.3353E-03  0.0090
   7.7165E-02   7.9042E-02   1.3503E-03  0.0089
   7.9042E-02   8.0965E-02   1.3507E-03  0.0088
   8.0965E-02   8.2935E-02   1.3477E-03  0.0087
   8.2935E-02   8.4953E-02   1.3453E-03  0.0086
   8.4953E-02   8.7020E-02   1.3420E-03  0.0085
   8.7020E-02   8.9138E-02   1.3315E-03  0.0084
   8.9138E-02   9.1306E-02   1.3158E-03  0.0084
   9.1306E-02   9.3528E-02   1.3296E-03  0.0082
   9.3528E-02   9.5804E-02   1.3339E-03  0.0081
   9.5804E-02   9.8134E-02   1.3098E-03  0.0081
   9.8134E-02   1.0052E-01   1.3249E-03  0.0080
   1.0052E-01   1.0297E-01   1.3117E-03  0.0079
   1.0297E-01   1.0547E-01   1.3107E-03  0.0078
   1.0547E-01   1.0804E-01   1.3078E-03  0.0077
   1.0804E-01   1.1067E-01   1.2991E-03  0.0077
   1.1067E-01   1.1336E-01   1.3273E-03  0.0075
   1.1336E-01   1.1612E-01   1.2992E-03  0.0075
   1.1612E-01   1.1894E-01   1.3018E-03  0.0074
   1.1894E-01   1.2184E-01   1.2957E-03  0.0073
   1.2184E-01   1.2480E-01   1.2870E-03  0.0072
   1.2480E-01   1.2784E-01   1.2752E-03  0.0072
   1.2784E-01   1.3095E-01   1.2790E-03  0.0071
   1.3095E-01   1.3414E-01   1.2712E-03  0.0070
   1.3414E-01   1.3740E-01   1.2597E-03  0.0070
   1.3740E-01   1.4074E-01   1.2866E-03  0.0068
   1.4074E-01   1.4417E-01   1.2668E-03  0.0068
   1.4417E-01   1.4767E-01   1.2490E-03  0.0068
   1.4767E-01   1.5127E-01   1.2612E-03  0.0066
   1.5127E-01   1.5495E-01   1.2385E-03  0.0066
   1.5495E-01   1.5872E-01   1.2560E-03  0.0065
   1.5872E-01   1.6258E-01   1.2463E-03  0.0064
   1.6258E-01   1.6654E-01   1.2200E-03  0.0064
   1.6654E-01   1.7059E-01   1.2213E-03  0.0064
   1.7059E-01   1.7474E-01   1.2315E-03  0.0063
   1.7474E-01   1.7899E-01   1.2133E-03  0.0062
   1.7899E-01   1.8334E-01   1.2024E-03  0.0062
   1.8334E-01   1.8781E-01   1.2139E-03  0.0061
   1.8781E-01   1.9237E-01   1.2004E-03  0.0060
   1.9237E-01   1.9706E-01   1.1866E-03  0.0060
   1.9706E-01   2.0185E-01   1.1955E-03  0.0059
   2.0185E-01   2.0676E-01   1.1836E-03  0.0059
   2.0676E-01   2.1179E-01   1.1724E-03  0.0058
   2.1179E-01   2.1694E-01   1.1688E-03  0.0058
   2.1694E-01   2.2222E-01   1.1670E-03  0.0057
   2.2222E-01   2.2763E-01   1.1643E-03  0.0056
   2.2763E-01   2.3317E-01   1.1565E-03  0.0056
   2.3317E-01   2.3884E-01   1.1474E-03  0.0055
   2.3884E-01   2.4465E-01   1.1191E-03  0.0055
   2.4465E-01   2.5061E-01   1.1271E-03  0.0055
   2.5061E-01   2.5670E-01   1.1209E-03  0.0054
   2.5670E-01   2.6295E-01   1.0999E-03  0.0054
   2.6295E-01   2.6935E-01   1.1077E-03  0.0053
   2.6935E-01   2.7590E-01   1.0854E-03  0.0053
   2.7590E-01   2.8261E-01   1.0838E-03  0.0052
   2.8261E-01   2.8949E-01   1.0778E-03  0.0052
   2.8949E-01   2.9653E-01   1.0559E-03  0.0052
   2.9653E-01   3.0375E-01   1.0578E-03  0.0051
   3.0375E-01   3.1114E-01   1.0470E-03  0.0051
   3.1114E-01   3.1871E-01   1.0416E-03  0.0050
   3.1871E-01   3.2646E-01   1.0371E-03  0.0050
   3.2646E-01   3.3441E-01   1.0219E-03  0.0050
   3.3441E-01   3.4254E-01   1.0075E-03  0.0049
   3.4254E-01   3.5088E-01   1.0006E-03  0.0049
   3.5088E-01   3.5941E-01   9.9068E-04  0.0049
   3.5941E-01   3.6816E-01   9.7687E-04  0.0048
   3.6816E-01   3.7712E-01   9.7418E-04  0.0048
   3.7712E-01   3.8629E-01   9.5451E-04  0.0048
   3.8629E-01   3.9569E-01   9.4513E-04  0.0047
   3.9569E-01   4.0532E-01   9.2883E-04  0.0047
   4.0532E-01   4.1518E-01   9.1931E-04  0.0047
   4.1518E-01   4.2528E-01   9.1062E-04  0.0047
   4.2528E-01   4.3563E-01   9.0448E-04  0.0046
   4.3563E-01   4.4623E-01   8.8741E-04  0.0046
   4.4623E-01   4.5708E-01   8.8682E-04  0.0046
   4.5708E-01   4.6821E-01   8.6034E-04  0.0046
   4.6821E-01   4.7960E-01   8.5036E-04  0.0045
   4.7960E-01   4.9127E-01   8.4088E-04  0.0045
   4.9127E-01   5.0322E-01   8.3388E-04  0.0045
   5.0322E-01   5.1546E-01   8.1924E-04  0.0045
   5.1546E-01   5.2800E-01   8.0168E-04  0.0045
   5.2800E-01   5.4085E-01   7.8863E-04  0.0044
   5.4085E-01   5.5401E-01   7.6891E-04  0.0044
   5.5401E-01   5.6749E-01   7.6337E-04  0.0044
   5.6749E-01   5.8130E-01   7.4616E-04  0.0044
   5.8130E-01   5.9544E-01   7.3168E-04  0.0044
   5.9544E-01   6.0993E-01   7.2260E-04  0.0044
   6.0993E-01   6.2477E-01   6.9866E-04  0.0044
   6.2477E-01   6.3997E-01   6.8978E-04  0.0044
   6.3997E-01   6.5554E-01   6.7635E-04  0.0044
   6.5554E-01   6.7149E-01   6.6019E-04  0.0044
   6.7149E-01   6.8783E-01   6.4357E-04  0.0044
   6.8783E-01   7.0456E-01   6.3366E-04  0.0043
   7.0456E-01   7.2171E-01   6.0992E-04  0.0044
   7.2171E-01   7.3927E-01   5.9929E-04  0.0044
   7.3927E-01   7.5725E-01   5.7835E-04  0.0044
   7.5725E-01   7.7568E-01   5.6985E-04  0.0044
   7.7568E-01   7.9455E-01   5.4256E-04  0.0044
   7.9455E-01   8.1388E-01   5.3700E-04  0.0044
   8.1388E-01   8.3368E-01   5.1810E-04  0.0044
   8.3368E-01   8.5397E-01   5.0101E-04  0.0044
   8.5397E-01   8.7475E-01   4.7699E-04  0.0045
   8.7475E-01   8.9603E-01   4.6022E-04  0.0045
   8.9603E-01   9.1783E-01   4.4241E-04  0.0046
   9.1783E-01   9.4016E-01   4.2760E-04  0.0046
   9.4016E-01   9.6304E-01   4.1020E-04  0.0046
   9.6304E-01   9.8647E-01   3.9454E-04  0.0047
   9.8647E-01   1.0105E+00   3.7899E-04  0.0047
   1.0105E+00   1.0351E+00   3.7798E-04  0.0046
   1.0351E+00   1.0602E+00   3.7959E-04  0.0046
   1.0602E+00   1.0860E+00   3.8155E-04  0.0045
   1.0860E+00   1.1125E+00   3.8636E-04  0.0044
   1.1125E+00   1.1395E+00   3.8871E-04  0.0044
   1.1395E+00   1.1673E+00   3.9594E-04  0.0043
   1.1673E+00   1.1957E+00   4.0439E-04  0.0042
   1.1957E+00   1.2247E+00   4.1201E-04  0.0041
   1.2247E+00   1.2545E+00   4.0898E-04  0.0041
   1.2545E+00   1.2851E+00   4.0833E-04  0.0040
   1.2851E+00   1.3163E+00   4.0625E-04  0.0040
   1.3163E+00   1.3484E+00   4.1148E-04  0.0039
   1.3484E+00   1.3812E+00   4.1217E-04  0.0038
   1.3812E+00   1.4148E+00   4.1916E-04  0.0038
   1.4148E+00   1.4492E+00   4.1289E-04  0.0038
   1.4492E+00   1.4845E+00   4.0993E-04  0.0037
   1.4845E+00   1.5206E+00   4.0235E-04  0.0037
   1.5206E+00   1.5576E+00   3.9733E-04  0.0037
   1.5576E+00   1.5955E+00   3.9663E-04  0.0036
   1.5955E+00   1.6343E+00   3.8994E-04  0.0036
   1.6343E+00   1.6741E+00   3.9035E-04  0.0036
   1.6741E+00   1.7148E+00   3.9414E-04  0.0035
   1.7148E+00   1.7565E+00   3.8410E-04  0.0035
   1.7565E+00   1.7992E+00   3.7614E-04  0.0035
   1.7992E+00   1.8430E+00   3.6832E-04  0.0035
   1.8430E+00   1.8879E+00   3.5751E-04  0.0035
   1.8879E+00   1.9338E+00   3.5295E-04  0.0035
   1.9338E+00   1.9808E+00   3.4916E-04  0.0035
   1.9808E+00   2.0290E+00   3.4422E-04  0.0035
   2.0290E+00   2.0784E+00   3.3586E-04  0.0035
   2.0784E+00   2.1290E+00   3.2474E-04  0.0035
   2.1290E+00   2.1808E+00   3.1258E-04  0.0035
   2.1808E+00   2.2338E+00   3.0368E-04  0.0035
   2.2338E+00   2.2882E+00   2.9356E-04  0.0035
   2.2882E+00   2.3439E+00   2.8511E-04  0.0035
   2.3439E+00   2.4009E+00   2.7716E-04  0.0036
   2.4009E+00   2.4593E+00   2.6786E-04  0.0036
   2.4593E+00   2.5191E+00   2.5628E-04  0.0036
   2.5191E+00   2.5804E+00   2.4494E-04  0.0037
   2.5804E+00   2.6432E+00   2.3470E-04  0.0037
   2.6432E+00   2.7075E+00   2.2402E-04  0.0037
   2.7075E+00   2.7734E+00   2.1221E-04  0.0038
   2.7734E+00   2.8409E+00   2.0129E-04  0.0038
   2.8409E+00   2.9100E+00   1.9192E-04  0.0039
   2.9100E+00   2.9808E+00   1.8287E-04  0.0039
   2.9808E+00   3.0533E+00   1.7482E-04  0.0040
   3.0533E+00   3.1276E+00   1.6587E-04  0.0040
   3.1276E+00   3.2037E+00   1.5527E-04  0.0041
   3.2037E+00   3.2817E+00   1.4607E-04  0.0042
   3.2817E+00   3.3615E+00   1.3717E-04  0.0043
   3.3615E+00   3.4433E+00   1.2827E-04  0.0044
   3.4433E+00   3.5271E+00   1.1871E-04  0.0045
   3.5271E+00   3.6129E+00   1.1287E-04  0.0045
   3.6129E+00   3.7008E+00   1.0440E-04  0.0047
   3.7008E+00   3.7908E+00   9.8039E-05  0.0048
   3.7908E+00   3.8831E+00   9.1090E-05  0.0049
   3.8831E+00   3.9776E+00   8.5726E-05  0.0050
   3.9776E+00   4.0743E+00   7.9874E-05  0.0051
   4.0743E+00   4.1735E+00   7.3846E-05  0.0052
   4.1735E+00   4.2750E+00   6.9035E-05  0.0053
   4.2750E+00   4.3790E+00   6.3673E-05  0.0055
   4.3790E+00   4.4856E+00   5.9707E-05  0.0056
   4.4856E+00   4.5947E+00   5.5239E-05  0.0058
   4.5947E+00   4.7065E+00   5.0646E-05  0.0059
   4.7065E+00   4.8210E+00   4.6990E-05  0.0061
   4.8210E+00   4.9383E+00   4.3110E-05  0.0063
   4.9383E+00   5.0585E+00   4.0126E-05  0.0064
   5.0585E+00   5.1815E+00   3.7079E-05  0.0066
   5.1815E+00   5.3076E+00   3.4226E-05  0.0068
   5.3076E+00   5.4368E+00   3.1582E-05  0.0070
   5.4368E+00   5.5690E+00   2.8901E-05  0.0072
   5.5690E+00   5.7045E+00   2.7168E-05  0.0074
   5.7045E+00   5.8433E+00   2.4963E-05  0.0076
   5.8433E+00   5.9855E+00   2.2857E-05  0.0078
   5.9855E+00   6.1311E+00   2.0947E-05  0.0081
   6.1311E+00   6.2803E+00   1.9529E-05  0.0083
   6.2803E+00   6.4331E+00   1.7963E-05  0.0085
   6.4331E+00   6.5896E+00   1.6207E-05  0.0089
   6.5896E+00   6.7500E+00   1.4995E-05  0.0091
   6.7500E+00   6.9142E+00   1.3698E-05  0.0094
   6.9142E+00   7.0824E+00   1.2516E-05  0.0097
   7.0824E+00   7.2548E+00   1.1558E-05  0.0100
   7.2548E+00   7.4313E+00   1.0793E-05  0.0102
   7.4313E+00   7.6121E+00   9.6002E-06  0.0107
   7.6121E+00   7.7973E+00   8.8798E-06  0.0110
   7.7973E+00   7.9870E+00   8.0579E-06  0.0114
   7.9870E+00   8.1813E+00   7.5974E-06  0.0116
   8.1813E+00   8.3804E+00   6.8488E-06  0.0121
   8.3804E+00   8.5843E+00   6.1500E-06  0.0126
   8.5843E+00   8.7931E+00   5.7622E-06  0.0129
   8.7931E+00   9.0071E+00   5.2000E-06  0.0134
   9.0071E+00   9.2262E+00   4.7429E-06  0.0139
   9.2262E+00   9.4507E+00   4.3598E-06  0.0143
   9.4507E+00   9.6807E+00   3.8392E-06  0.0150
   9.6807E+00   9.9162E+00   3.6266E-06  0.0153
   9.9162E+00   1.0157E+01   3.3216E-06  0.0158
   1.0157E+01   1.0405E+01   2.9809E-06  0.0165
   1.0405E+01   1.0658E+01   2.8319E-06  0.0167
   1.0658E+01   1.0917E+01   2.4681E-06  0.0177
   1.0917E+01   1.1183E+01   2.3556E-06  0.0179
   1.1183E+01   1.1455E+01   2.1317E-06  0.0185
   1.1455E+01   1.1733E+01   1.9293E-06  0.0193
   1.1733E+01   1.2019E+01   1.8495E-06  0.0194
   1.2019E+01   1.2311E+01   1.6554E-06  0.0203
   1.2311E+01   1.2611E+01   1.5183E-06  0.0210
   1.2611E+01   1.2918E+01   1.4069E-06  0.0215
   1.2918E+01   1.3232E+01   1.2278E-06  0.0227
   1.3232E+01   1.3554E+01   1.1794E-06  0.0229
   1.3554E+01   1.3884E+01   1.0841E-06  0.0236
   1.3884E+01   1.4222E+01   9.9792E-07  0.0244
   1.4222E+01   1.4568E+01   9.1121E-07  0.0252
   1.4568E+01   1.4922E+01   8.7207E-07  0.0254
   1.4922E+01   1.5285E+01   7.6570E-07  0.0268
   1.5285E+01   1.5657E+01   7.4348E-07  0.0269
   1.5657E+01   1.6038E+01   6.6597E-07  0.0281
   1.6038E+01   1.6428E+01   6.1581E-07  0.0288
   1.6428E+01   1.6828E+01   6.1594E-07  0.0285
   1.6828E+01   1.7237E+01   5.2218E-07  0.0306
   1.7237E+01   1.7657E+01   4.6161E-07  0.0321
   1.7657E+01   1.8086E+01   4.6182E-07  0.0318
   1.8086E+01   1.8526E+01   4.3495E-07  0.0323
   1.8526E+01   1.8977E+01   3.7536E-07  0.0344
   1.8977E+01   1.9439E+01   3.6861E-07  0.0343
   1.9439E+01   1.9912E+01   3.6493E-07  0.0340
   1.9912E+01   2.0396E+01   3.2861E-07  0.0354
   2.0396E+01   2.0893E+01   3.0871E-07  0.0361
   2.0893E+01   2.1401E+01   2.8407E-07  0.0372
   2.1401E+01   2.1922E+01   2.6772E-07  0.0379
   2.1922E+01   2.2455E+01   2.6361E-07  0.0377
   2.2455E+01   2.3001E+01   2.5332E-07  0.0380
   2.3001E+01   2.3561E+01   2.2479E-07  0.0399
   2.3561E+01   2.4134E+01   1.9223E-07  0.0426
   2.4134E+01   2.4721E+01   1.7473E-07  0.0442
   2.4721E+01   2.5323E+01   1.5827E-07  0.0458
   2.5323E+01   2.5939E+01   1.4900E-07  0.0467
   2.5939E+01   2.6570E+01   1.3341E-07  0.0487
   2.6570E+01   2.7217E+01   1.3550E-07  0.0478
   2.7217E+01   2.7879E+01   1.2081E-07  0.0500
   2.7879E+01   2.8557E+01   1.0497E-07  0.0530
   2.8557E+01   2.9252E+01   9.8443E-08  0.0541
   2.9252E+01   2.9964E+01   8.0368E-08  0.0591
   2.9964E+01   3.0693E+01   7.8734E-08  0.0590
   3.0693E+01   3.1440E+01   7.8202E-08  0.0585
   3.1440E+01   3.2205E+01   6.3795E-08  0.0640
   3.2205E+01   3.2988E+01   5.2325E-08  0.0698
   3.2988E+01   3.3791E+01   5.4073E-08  0.0679
   3.3791E+01   3.4613E+01   3.9652E-08  0.0783
   3.4613E+01   3.5455E+01   4.3460E-08  0.0739
   3.5455E+01   3.6318E+01   3.7095E-08  0.0791
   3.6318E+01   3.7201E+01   3.3951E-08  0.0816
   3.7201E+01   3.8106E+01   3.1156E-08  0.0842
   3.8106E+01   3.9034E+01   2.3944E-08  0.0949
   3.9034E+01   3.9983E+01   2.7166E-08  0.0880
   3.9983E+01   4.0956E+01   2.0353E-08  0.1005
   4.0956E+01   4.1953E+01   1.6257E-08  0.1111
   4.1953E+01   4.2973E+01   1.4891E-08  0.1147
   4.2973E+01   4.4019E+01   9.9467E-09  0.1387
   4.4019E+01   4.5090E+01   1.1391E-08  0.1280
   4.5090E+01   4.6187E+01   1.0209E-08  0.1336
   4.6187E+01   4.7311E+01   9.9665E-09  0.1336
   4.7311E+01   4.8462E+01   8.1660E-09  0.1459
   4.8462E+01   4.9641E+01   4.7493E-09  0.1890
   4.9641E+01   5.0849E+01   5.2989E-09  0.1768
   5.0849E+01   5.2086E+01   3.8798E-09  0.2041
   5.2086E+01   5.3353E+01   4.2610E-09  0.1925
   5.3353E+01   5.4651E+01   4.1598E-09  0.1925
   5.4651E+01   5.5981E+01   3.7602E-09  0.2000
   5.5981E+01   5.7343E+01   2.3494E-09  0.2500
   5.7343E+01   5.8738E+01   1.5768E-09  0.3015
   5.8738E+01   6.0168E+01   1.1195E-09  0.3536
   6.0168E+01   6.1632E+01   2.0493E-09  0.2582
   6.1632E+01   6.3131E+01   1.2004E-09  0.3333
   6.3131E+01   6.4667E+01   1.3021E-09  0.3162
   6.4667E+01   6.6240E+01   1.2711E-10  1.0000
   6.6240E+01   6.7852E+01   1.2409E-10  1.0000
   6.7852E+01   6.9503E+01   0.0000E+00  0.0000
   6.9503E+01   7.1194E+01   0.0000E+00  0.0000
   7.1194E+01   7.2926E+01   0.0000E+00  0.0000
   7.2926E+01   7.4701E+01   0.0000E+00  0.0000
   7.4701E+01   7.6518E+01   0.0000E+00  0.0000
   7.6518E+01   7.8380E+01   0.0000E+00  0.0000
   7.8380E+01   8.0287E+01   0.0000E+00  0.0000
   8.0287E+01   8.2240E+01   0.0000E+00  0.0000
   8.2240E+01   8.4241E+01   0.0000E+00  0.0000
   8.4241E+01   8.6291E+01   0.0000E+00  0.0000
   8.6291E+01   8.8391E+01   0.0000E+00  0.0000
   8.8391E+01   9.0541E+01   0.0000E+00  0.0000
   9.0541E+01   9.2744E+01   0.0000E+00  0.0000
   9.2744E+01   9.5001E+01   0.0000E+00  0.0000
   9.5001E+01   9.7312E+01   0.0000E+00  0.0000
   9.7312E+01   9.9680E+01   0.0000E+00  0.0000
   9.9680E+01   1.0211E+02   0.0000E+00  0.0000
   1.0211E+02   1.0459E+02   0.0000E+00  0.0000
   1.0459E+02   1.0713E+02   0.0000E+00  0.0000
   1.0713E+02   1.0974E+02   0.0000E+00  0.0000
   1.0974E+02   1.1241E+02   0.0000E+00  0.0000
   1.1241E+02   1.1515E+02   0.0000E+00  0.0000
   1.1515E+02   1.1795E+02   0.0000E+00  0.0000
   1.1795E+02   1.2082E+02   0.0000E+00  0.0000
   1.2082E+02   1.2376E+02   0.0000E+00  0.0000
   1.2376E+02   1.2677E+02   0.0000E+00  0.0000
   1.2677E+02   1.2985E+02   0.0000E+00  0.0000
   1.2985E+02   1.3301E+02   0.0000E+00  0.0000
   1.3301E+02   1.3625E+02   0.0000E+00  0.0000
   1.3625E+02   1.3956E+02   0.0000E+00  0.0000
   1.3956E+02   1.4296E+02   0.0000E+00  0.0000
   1.4296E+02   1.4644E+02   0.0000E+00  0.0000
   1.4644E+02   1.5000E+02   0.0000E+00  0.0000

#   sum over                 1.1643E-05
'no. =    1   reg = 121 - 221'
msuc: {\huge [t-cross] in region mesh}
msdr: {\it plotted by \ANGEL \version}
msdl: {\it calculated by \PHITS  3.26}
wt: s(0.7)
\vspace{-3}
  region surface crossing
  area  &=&   1.0000E+00 [cm^2]
e:
 
# Information for Restart Calculation
# This calculation was newly started
# istdev =  2 # 1:Batch variance, 2:History variance
# resc2  = 5.00000000000000000E+09 # Total source weight or Total source weight / maxcas
# resc3  = 5.00000000000000000E+09 # Total history number or Total batch number
# maxcas =   500000000 # History / Batch, only used for istdev=1
# bitrseed = 0110100000100010111000001110001111001110100100011111101000111001 # bit data of rseed
