[ T-Cross ]
    title = [t-cross] in region mesh
     mesh =  reg            # mesh type is region-wise
      reg =    1            # number of crossing regions
      non     r-from    r-to       area
      1       100       200        1.000000    
   e-type =    3            # e-mesh is log given by emin, emax and ne
     emin =  1.0000000E-02  # minimum value of e-mesh points
     emax =   150.0000      # maximum value of e-mesh points
#    edel =  2.4039514E-02  # mesh width of e-mesh points
       ne =    400          # number of e-mesh points
#    data = ( e(i), i = 1, ne + 1 )
#           1.00000E-02  1.02433E-02  1.04925E-02  1.07478E-02  1.10093E-02
#           1.12772E-02  1.15516E-02  1.18326E-02  1.21205E-02  1.24154E-02
#           1.27175E-02  1.30269E-02  1.33439E-02  1.36686E-02  1.40011E-02
#           1.43418E-02  1.46907E-02  1.50482E-02  1.54143E-02  1.57894E-02
#           1.61735E-02  1.65670E-02  1.69701E-02  1.73830E-02  1.78060E-02
#           1.82392E-02  1.86830E-02  1.91375E-02  1.96032E-02  2.00801E-02
#           2.05687E-02  2.10692E-02  2.15818E-02  2.21069E-02  2.26448E-02
#           2.31957E-02  2.37601E-02  2.43382E-02  2.49304E-02  2.55369E-02
#           2.61583E-02  2.67947E-02  2.74467E-02  2.81145E-02  2.87985E-02
#           2.94992E-02  3.02169E-02  3.09521E-02  3.17052E-02  3.24766E-02
#           3.32668E-02  3.40762E-02  3.49053E-02  3.57546E-02  3.66246E-02
#           3.75157E-02  3.84284E-02  3.93634E-02  4.03212E-02  4.13022E-02
#           4.23071E-02  4.33365E-02  4.43909E-02  4.54710E-02  4.65773E-02
#           4.77106E-02  4.88714E-02  5.00605E-02  5.12785E-02  5.25262E-02
#           5.38042E-02  5.51133E-02  5.64542E-02  5.78278E-02  5.92348E-02
#           6.06760E-02  6.21523E-02  6.36645E-02  6.52135E-02  6.68002E-02
#           6.84255E-02  7.00904E-02  7.17957E-02  7.35426E-02  7.53319E-02
#           7.71648E-02  7.90423E-02  8.09655E-02  8.29354E-02  8.49533E-02
#           8.70203E-02  8.91376E-02  9.13064E-02  9.35279E-02  9.58035E-02
#           9.81345E-02  1.00522E-01  1.02968E-01  1.05473E-01  1.08040E-01
#           1.10668E-01  1.13361E-01  1.16119E-01  1.18944E-01  1.21838E-01
#           1.24803E-01  1.27839E-01  1.30950E-01  1.34136E-01  1.37399E-01
#           1.40742E-01  1.44167E-01  1.47675E-01  1.51268E-01  1.54948E-01
#           1.58718E-01  1.62580E-01  1.66535E-01  1.70587E-01  1.74738E-01
#           1.78989E-01  1.83344E-01  1.87805E-01  1.92375E-01  1.97055E-01
#           2.01850E-01  2.06761E-01  2.11792E-01  2.16945E-01  2.22223E-01
#           2.27630E-01  2.33169E-01  2.38842E-01  2.44653E-01  2.50605E-01
#           2.56703E-01  2.62949E-01  2.69346E-01  2.75900E-01  2.82613E-01
#           2.89489E-01  2.96532E-01  3.03747E-01  3.11138E-01  3.18708E-01
#           3.26462E-01  3.34405E-01  3.42542E-01  3.50876E-01  3.59413E-01
#           3.68158E-01  3.77116E-01  3.86291E-01  3.95690E-01  4.05317E-01
#           4.15179E-01  4.25281E-01  4.35628E-01  4.46227E-01  4.57084E-01
#           4.68205E-01  4.79597E-01  4.91266E-01  5.03219E-01  5.15463E-01
#           5.28005E-01  5.40851E-01  5.54011E-01  5.67490E-01  5.81298E-01
#           5.95441E-01  6.09929E-01  6.24769E-01  6.39970E-01  6.55541E-01
#           6.71491E-01  6.87828E-01  7.04564E-01  7.21706E-01  7.39266E-01
#           7.57253E-01  7.75678E-01  7.94551E-01  8.13883E-01  8.33685E-01
#           8.53969E-01  8.74747E-01  8.96030E-01  9.17831E-01  9.40163E-01
#           9.63038E-01  9.86469E-01  1.01047E+00  1.03506E+00  1.06024E+00
#           1.08604E+00  1.11246E+00  1.13953E+00  1.16725E+00  1.19565E+00
#           1.22474E+00  1.25454E+00  1.28507E+00  1.31633E+00  1.34836E+00
#           1.38117E+00  1.41477E+00  1.44920E+00  1.48446E+00  1.52057E+00
#           1.55757E+00  1.59547E+00  1.63429E+00  1.67405E+00  1.71478E+00
#           1.75650E+00  1.79924E+00  1.84302E+00  1.88786E+00  1.93379E+00
#           1.98084E+00  2.02904E+00  2.07841E+00  2.12898E+00  2.18078E+00
#           2.23384E+00  2.28819E+00  2.34386E+00  2.40089E+00  2.45930E+00
#           2.51914E+00  2.58043E+00  2.64322E+00  2.70753E+00  2.77341E+00
#           2.84088E+00  2.91001E+00  2.98081E+00  3.05333E+00  3.12762E+00
#           3.20372E+00  3.28167E+00  3.36152E+00  3.44330E+00  3.52708E+00
#           3.61290E+00  3.70080E+00  3.79085E+00  3.88308E+00  3.97756E+00
#           4.07434E+00  4.17347E+00  4.27501E+00  4.37903E+00  4.48557E+00
#           4.59471E+00  4.70650E+00  4.82102E+00  4.93832E+00  5.05847E+00
#           5.18155E+00  5.30762E+00  5.43676E+00  5.56904E+00  5.70453E+00
#           5.84333E+00  5.98550E+00  6.13114E+00  6.28031E+00  6.43312E+00
#           6.58964E+00  6.74997E+00  6.91420E+00  7.08243E+00  7.25475E+00
#           7.43126E+00  7.61207E+00  7.79728E+00  7.98700E+00  8.18133E+00
#           8.38038E+00  8.58428E+00  8.79315E+00  9.00709E+00  9.22624E+00
#           9.45072E+00  9.68067E+00  9.91620E+00  1.01575E+01  1.04046E+01
#           1.06578E+01  1.09171E+01  1.11827E+01  1.14548E+01  1.17335E+01
#           1.20190E+01  1.23114E+01  1.26109E+01  1.29178E+01  1.32321E+01
#           1.35540E+01  1.38838E+01  1.42216E+01  1.45676E+01  1.49221E+01
#           1.52851E+01  1.56570E+01  1.60380E+01  1.64282E+01  1.68279E+01
#           1.72374E+01  1.76568E+01  1.80864E+01  1.85264E+01  1.89772E+01
#           1.94389E+01  1.99119E+01  2.03963E+01  2.08926E+01  2.14009E+01
#           2.19216E+01  2.24550E+01  2.30014E+01  2.35610E+01  2.41343E+01
#           2.47215E+01  2.53230E+01  2.59391E+01  2.65702E+01  2.72167E+01
#           2.78789E+01  2.85572E+01  2.92520E+01  2.99637E+01  3.06928E+01
#           3.14396E+01  3.22045E+01  3.29881E+01  3.37907E+01  3.46128E+01
#           3.54550E+01  3.63177E+01  3.72013E+01  3.81064E+01  3.90336E+01
#           3.99833E+01  4.09561E+01  4.19526E+01  4.29734E+01  4.40189E+01
#           4.50900E+01  4.61870E+01  4.73108E+01  4.84619E+01  4.96410E+01
#           5.08488E+01  5.20860E+01  5.33533E+01  5.46514E+01  5.59812E+01
#           5.73432E+01  5.87384E+01  6.01676E+01  6.16315E+01  6.31311E+01
#           6.46671E+01  6.62405E+01  6.78522E+01  6.95031E+01  7.11941E+01
#           7.29263E+01  7.47007E+01  7.65182E+01  7.83800E+01  8.02870E+01
#           8.22405E+01  8.42414E+01  8.62911E+01  8.83906E+01  9.05412E+01
#           9.27442E+01  9.50007E+01  9.73122E+01  9.96799E+01  1.02105E+02
#           1.04589E+02  1.07134E+02  1.09741E+02  1.12411E+02  1.15146E+02
#           1.17948E+02  1.20817E+02  1.23757E+02  1.26768E+02  1.29852E+02
#           1.33012E+02  1.36248E+02  1.39563E+02  1.42959E+02  1.46437E+02
#           1.50000E+02
     unit =    2            # unit is [1/cm^2/(MeV/n)/source]
     axis =  eng            # axis of output
     file = detector-01.out  # file name of output for the above axis
   output = f-curr          # surface crossing forward current spectrum
     part =  neutron  
# kf/name :  2112     
#    used :        main (  %)        temp (  %)       total (  %)
#  memory :         414 (  0)           0 (  0)         414 (  0)

#------------------------------------------------------------------------------
#newpage:
#   no. =    1   reg = 100 - 200

x: Energy [MeV/n]
y:  F-Curr [1/cm^2/(MeV/n)/source]         
p: xlog ylog afac(0.8) form(0.9)
h: n            x            y(neutron ),hh0l   n 
#  e-lower      e-upper      neutron     r.err 
   1.0000E-02   1.0243E-02   2.2806E-04  0.0598
   1.0243E-02   1.0493E-02   2.1666E-04  0.0605
   1.0493E-02   1.0748E-02   2.2565E-04  0.0585
   1.0748E-02   1.1009E-02   2.3378E-04  0.0568
   1.1009E-02   1.1277E-02   1.9767E-04  0.0610
   1.1277E-02   1.1552E-02   1.9685E-04  0.0604
   1.1552E-02   1.1833E-02   2.0348E-04  0.0588
   1.1833E-02   1.2121E-02   2.2530E-04  0.0551
   1.2121E-02   1.2415E-02   1.9890E-04  0.0579
   1.2415E-02   1.2718E-02   1.9696E-04  0.0577
   1.2718E-02   1.3027E-02   1.9186E-04  0.0577
   1.3027E-02   1.3344E-02   1.9657E-04  0.0563
   1.3344E-02   1.3669E-02   1.8450E-04  0.0576
   1.3669E-02   1.4001E-02   1.7839E-04  0.0577
   1.4001E-02   1.4342E-02   1.8135E-04  0.0565
   1.4342E-02   1.4691E-02   1.7577E-04  0.0567
   1.4691E-02   1.5048E-02   1.7400E-04  0.0564
   1.5048E-02   1.5414E-02   1.7950E-04  0.0549
   1.5414E-02   1.5789E-02   1.6878E-04  0.0560
   1.5789E-02   1.6174E-02   1.5893E-04  0.0568
   1.6174E-02   1.6567E-02   1.4994E-04  0.0580
   1.6567E-02   1.6970E-02   1.4556E-04  0.0581
   1.6970E-02   1.7383E-02   1.4513E-04  0.0574
   1.7383E-02   1.7806E-02   1.5487E-04  0.0548
   1.7806E-02   1.8239E-02   1.4109E-04  0.0569
   1.8239E-02   1.8683E-02   1.2792E-04  0.0590
   1.8683E-02   1.9138E-02   1.4369E-04  0.0551
   1.9138E-02   1.9603E-02   1.4592E-04  0.0539
   1.9603E-02   2.0080E-02   1.3591E-04  0.0553
   2.0080E-02   2.0569E-02   1.5270E-04  0.0515
   2.0569E-02   2.1069E-02   1.3788E-04  0.0535
   2.1069E-02   2.1582E-02   1.2977E-04  0.0546
   2.1582E-02   2.2107E-02   1.2574E-04  0.0547
   2.2107E-02   2.2645E-02   1.1805E-04  0.0559
   2.2645E-02   2.3196E-02   1.1061E-04  0.0570
   2.3196E-02   2.3760E-02   1.2097E-04  0.0539
   2.3760E-02   2.4338E-02   1.1434E-04  0.0548
   2.4338E-02   2.4930E-02   1.1097E-04  0.0548
   2.4930E-02   2.5537E-02   1.1517E-04  0.0532
   2.5537E-02   2.6158E-02   1.0827E-04  0.0542
   2.6158E-02   2.6795E-02   9.9723E-05  0.0559
   2.6795E-02   2.7447E-02   8.9665E-05  0.0582
   2.7447E-02   2.8114E-02   9.7294E-05  0.0552
   2.8114E-02   2.8799E-02   9.2780E-05  0.0558
   2.8799E-02   2.9499E-02   9.7770E-05  0.0538
   2.9499E-02   3.0217E-02   9.6014E-05  0.0536
   3.0217E-02   3.0952E-02   9.0500E-05  0.0545
   3.0952E-02   3.1705E-02   1.0018E-04  0.0513
   3.1705E-02   3.2477E-02   9.1657E-05  0.0528
   3.2477E-02   3.3267E-02   8.6659E-05  0.0538
   3.3267E-02   3.4076E-02   7.5743E-05  0.0567
   3.4076E-02   3.4905E-02   8.4134E-05  0.0533
   3.4905E-02   3.5755E-02   8.2224E-05  0.0531
   3.5755E-02   3.6625E-02   7.4779E-05  0.0551
   3.6625E-02   3.7516E-02   7.5054E-05  0.0544
   3.7516E-02   3.8428E-02   7.5448E-05  0.0537
   3.8428E-02   3.9363E-02   7.1578E-05  0.0543
   3.9363E-02   4.0321E-02   7.3383E-05  0.0530
   4.0321E-02   4.1302E-02   7.7280E-05  0.0511
   4.1302E-02   4.2307E-02   6.6516E-05  0.0543
   4.2307E-02   4.3337E-02   7.1912E-05  0.0517
   4.3337E-02   4.4391E-02   6.8818E-05  0.0522
   4.4391E-02   4.5471E-02   6.5711E-05  0.0528
   4.5471E-02   4.6577E-02   6.5352E-05  0.0524
   4.6577E-02   4.7711E-02   6.3116E-05  0.0525
   4.7711E-02   4.8871E-02   5.7044E-05  0.0548
   4.8871E-02   5.0061E-02   6.0123E-05  0.0526
   5.0061E-02   5.1279E-02   5.8564E-05  0.0527
   5.1279E-02   5.2526E-02   5.9548E-05  0.0517
   5.2526E-02   5.3804E-02   5.6577E-05  0.0523
   5.3804E-02   5.5113E-02   5.1295E-05  0.0541
   5.5113E-02   5.6454E-02   5.0042E-05  0.0542
   5.6454E-02   5.7828E-02   5.3213E-05  0.0520
   5.7828E-02   5.9235E-02   5.2674E-05  0.0517
   5.9235E-02   6.0676E-02   5.2738E-05  0.0511
   6.0676E-02   6.2152E-02   4.7567E-05  0.0530
   6.2152E-02   6.3665E-02   5.2774E-05  0.0498
   6.3665E-02   6.5214E-02   4.9701E-05  0.0508
   6.5214E-02   6.6800E-02   4.8669E-05  0.0506
   6.6800E-02   6.8426E-02   4.7370E-05  0.0507
   6.8426E-02   7.0090E-02   4.6657E-05  0.0505
   7.0090E-02   7.1796E-02   4.5442E-05  0.0506
   7.1796E-02   7.3543E-02   4.8666E-05  0.0483
   7.3543E-02   7.5332E-02   4.4297E-05  0.0501
   7.5332E-02   7.7165E-02   4.3231E-05  0.0499
   7.7165E-02   7.9042E-02   3.8674E-05  0.0521
   7.9042E-02   8.0965E-02   4.2999E-05  0.0489
   8.0965E-02   8.2935E-02   4.0415E-05  0.0499
   8.2935E-02   8.4953E-02   3.9953E-05  0.0495
   8.4953E-02   8.7020E-02   3.9282E-05  0.0494
   8.7020E-02   8.9138E-02   3.5833E-05  0.0510
   8.9138E-02   9.1306E-02   3.4889E-05  0.0511
   9.1306E-02   9.3528E-02   3.3069E-05  0.0519
   9.3528E-02   9.5804E-02   3.4725E-05  0.0501
   9.5804E-02   9.8134E-02   3.5593E-05  0.0488
   9.8134E-02   1.0052E-01   3.2420E-05  0.0505
   1.0052E-01   1.0297E-01   3.2620E-05  0.0498
   1.0297E-01   1.0547E-01   3.2893E-05  0.0490
   1.0547E-01   1.0804E-01   3.1518E-05  0.0494
   1.0804E-01   1.1067E-01   3.0475E-05  0.0497
   1.1067E-01   1.1336E-01   2.9923E-05  0.0495
   1.1336E-01   1.1612E-01   3.0397E-05  0.0486
   1.1612E-01   1.1894E-01   2.7791E-05  0.0502
   1.1894E-01   1.2184E-01   2.6871E-05  0.0505
   1.2184E-01   1.2480E-01   2.8695E-05  0.0482
   1.2480E-01   1.2784E-01   2.7465E-05  0.0487
   1.2784E-01   1.3095E-01   2.8498E-05  0.0473
   1.3095E-01   1.3414E-01   2.6998E-05  0.0480
   1.3414E-01   1.3740E-01   2.5851E-05  0.0484
   1.3740E-01   1.4074E-01   2.2375E-05  0.0513
   1.4074E-01   1.4417E-01   2.5278E-05  0.0479
   1.4417E-01   1.4767E-01   2.2925E-05  0.0496
   1.4767E-01   1.5127E-01   2.5533E-05  0.0464
   1.5127E-01   1.5495E-01   2.1885E-05  0.0495
   1.5495E-01   1.5872E-01   2.2067E-05  0.0487
   1.5872E-01   1.6258E-01   2.0509E-05  0.0500
   1.6258E-01   1.6654E-01   2.1905E-05  0.0478
   1.6654E-01   1.7059E-01   2.0669E-05  0.0486
   1.7059E-01   1.7474E-01   2.0642E-05  0.0481
   1.7474E-01   1.7899E-01   1.8595E-05  0.0500
   1.7899E-01   1.8334E-01   2.0733E-05  0.0468
   1.8334E-01   1.8781E-01   1.9782E-05  0.0474
   1.8781E-01   1.9237E-01   1.8673E-05  0.0481
   1.9237E-01   1.9706E-01   1.9022E-05  0.0472
   1.9706E-01   2.0185E-01   1.9528E-05  0.0460
   2.0185E-01   2.0676E-01   1.9292E-05  0.0457
   2.0676E-01   2.1179E-01   1.8954E-05  0.0455
   2.1179E-01   2.1694E-01   1.9641E-05  0.0443
   2.1694E-01   2.2222E-01   1.9252E-05  0.0440
   2.2222E-01   2.2763E-01   2.1219E-05  0.0415
   2.2763E-01   2.3317E-01   2.2565E-05  0.0398
   2.3317E-01   2.3884E-01   2.2591E-05  0.0393
   2.3884E-01   2.4465E-01   2.3286E-05  0.0383
   2.4465E-01   2.5061E-01   2.2685E-05  0.0383
   2.5061E-01   2.5670E-01   2.4866E-05  0.0361
   2.5670E-01   2.6295E-01   2.7392E-05  0.0340
   2.6295E-01   2.6935E-01   2.5324E-05  0.0349
   2.6935E-01   2.7590E-01   2.8410E-05  0.0326
   2.7590E-01   2.8261E-01   2.6419E-05  0.0334
   2.8261E-01   2.8949E-01   2.8485E-05  0.0318
   2.8949E-01   2.9653E-01   2.8502E-05  0.0314
   2.9653E-01   3.0375E-01   3.1529E-05  0.0295
   3.0375E-01   3.1114E-01   3.0749E-05  0.0295
   3.1114E-01   3.1871E-01   3.4087E-05  0.0277
   3.1871E-01   3.2646E-01   3.2462E-05  0.0280
   3.2646E-01   3.3441E-01   3.3014E-05  0.0274
   3.3441E-01   3.4254E-01   3.5827E-05  0.0261
   3.4254E-01   3.5088E-01   3.5343E-05  0.0259
   3.5088E-01   3.5941E-01   3.6569E-05  0.0252
   3.5941E-01   3.6816E-01   3.7687E-05  0.0245
   3.6816E-01   3.7712E-01   3.8323E-05  0.0240
   3.7712E-01   3.8629E-01   4.0634E-05  0.0230
   3.8629E-01   3.9569E-01   3.9703E-05  0.0230
   3.9569E-01   4.0532E-01   4.0690E-05  0.0225
   4.0532E-01   4.1518E-01   4.2427E-05  0.0217
   4.1518E-01   4.2528E-01   4.2982E-05  0.0213
   4.2528E-01   4.3563E-01   4.4471E-05  0.0207
   4.3563E-01   4.4623E-01   4.4872E-05  0.0204
   4.4623E-01   4.5708E-01   4.6748E-05  0.0197
   4.5708E-01   4.6821E-01   4.6262E-05  0.0196
   4.6821E-01   4.7960E-01   4.7411E-05  0.0191
   4.7960E-01   4.9127E-01   4.8668E-05  0.0187
   4.9127E-01   5.0322E-01   4.8298E-05  0.0185
   5.0322E-01   5.1546E-01   4.9662E-05  0.0180
   5.1546E-01   5.2800E-01   4.9954E-05  0.0178
   5.2800E-01   5.4085E-01   5.0488E-05  0.0174
   5.4085E-01   5.5401E-01   5.2047E-05  0.0170
   5.5401E-01   5.6749E-01   5.2785E-05  0.0167
   5.6749E-01   5.8130E-01   5.1640E-05  0.0167
   5.8130E-01   5.9544E-01   5.4181E-05  0.0160
   5.9544E-01   6.0993E-01   5.3999E-05  0.0159
   6.0993E-01   6.2477E-01   5.5767E-05  0.0155
   6.2477E-01   6.3997E-01   5.5376E-05  0.0153
   6.3997E-01   6.5554E-01   5.6419E-05  0.0150
   6.5554E-01   6.7149E-01   5.6441E-05  0.0148
   6.7149E-01   6.8783E-01   5.6455E-05  0.0146
   6.8783E-01   7.0456E-01   5.6632E-05  0.0144
   7.0456E-01   7.2171E-01   5.7708E-05  0.0141
   7.2171E-01   7.3927E-01   5.7471E-05  0.0140
   7.3927E-01   7.5725E-01   5.7304E-05  0.0138
   7.5725E-01   7.7568E-01   5.8820E-05  0.0135
   7.7568E-01   7.9455E-01   5.8943E-05  0.0133
   7.9455E-01   8.1388E-01   6.0485E-05  0.0130
   8.1388E-01   8.3368E-01   5.9424E-05  0.0130
   8.3368E-01   8.5397E-01   5.9525E-05  0.0128
   8.5397E-01   8.7475E-01   6.0008E-05  0.0126
   8.7475E-01   8.9603E-01   5.9734E-05  0.0125
   8.9603E-01   9.1783E-01   5.9619E-05  0.0123
   9.1783E-01   9.4016E-01   6.0250E-05  0.0121
   9.4016E-01   9.6304E-01   6.0267E-05  0.0120
   9.6304E-01   9.8647E-01   6.0522E-05  0.0118
   9.8647E-01   1.0105E+00   6.0716E-05  0.0116
   1.0105E+00   1.0351E+00   6.0770E-05  0.0115
   1.0351E+00   1.0602E+00   5.9155E-05  0.0115
   1.0602E+00   1.0860E+00   5.8459E-05  0.0114
   1.0860E+00   1.1125E+00   5.8507E-05  0.0113
   1.1125E+00   1.1395E+00   5.8901E-05  0.0111
   1.1395E+00   1.1673E+00   5.8956E-05  0.0110
   1.1673E+00   1.1957E+00   5.7968E-05  0.0109
   1.1957E+00   1.2247E+00   5.8014E-05  0.0108
   1.2247E+00   1.2545E+00   5.7470E-05  0.0107
   1.2545E+00   1.2851E+00   5.7980E-05  0.0106
   1.2851E+00   1.3163E+00   5.8284E-05  0.0104
   1.3163E+00   1.3484E+00   5.7375E-05  0.0104
   1.3484E+00   1.3812E+00   5.8082E-05  0.0102
   1.3812E+00   1.4148E+00   5.7491E-05  0.0101
   1.4148E+00   1.4492E+00   5.7358E-05  0.0100
   1.4492E+00   1.4845E+00   5.6764E-05  0.0099
   1.4845E+00   1.5206E+00   5.8003E-05  0.0097
   1.5206E+00   1.5576E+00   5.7088E-05  0.0097
   1.5576E+00   1.5955E+00   5.6733E-05  0.0096
   1.5955E+00   1.6343E+00   5.6391E-05  0.0095
   1.6343E+00   1.6741E+00   5.5843E-05  0.0094
   1.6741E+00   1.7148E+00   5.4436E-05  0.0094
   1.7148E+00   1.7565E+00   5.4944E-05  0.0093
   1.7565E+00   1.7992E+00   5.5042E-05  0.0092
   1.7992E+00   1.8430E+00   5.4363E-05  0.0091
   1.8430E+00   1.8879E+00   5.3855E-05  0.0090
   1.8879E+00   1.9338E+00   5.2773E-05  0.0090
   1.9338E+00   1.9808E+00   5.3264E-05  0.0089
   1.9808E+00   2.0290E+00   5.4380E-05  0.0087
   2.0290E+00   2.0784E+00   5.3189E-05  0.0087
   2.0784E+00   2.1290E+00   5.2097E-05  0.0087
   2.1290E+00   2.1808E+00   5.2732E-05  0.0085
   2.1808E+00   2.2338E+00   5.1309E-05  0.0085
   2.2338E+00   2.2882E+00   5.0660E-05  0.0085
   2.2882E+00   2.3439E+00   5.0030E-05  0.0084
   2.3439E+00   2.4009E+00   5.0240E-05  0.0083
   2.4009E+00   2.4593E+00   5.0743E-05  0.0082
   2.4593E+00   2.5191E+00   4.9409E-05  0.0082
   2.5191E+00   2.5804E+00   4.9249E-05  0.0081
   2.5804E+00   2.6432E+00   4.8717E-05  0.0080
   2.6432E+00   2.7075E+00   4.8477E-05  0.0080
   2.7075E+00   2.7734E+00   4.7905E-05  0.0079
   2.7734E+00   2.8409E+00   4.7830E-05  0.0078
   2.8409E+00   2.9100E+00   4.5990E-05  0.0079
   2.9100E+00   2.9808E+00   4.6077E-05  0.0078
   2.9808E+00   3.0533E+00   4.5658E-05  0.0077
   3.0533E+00   3.1276E+00   4.5472E-05  0.0076
   3.1276E+00   3.2037E+00   4.4478E-05  0.0076
   3.2037E+00   3.2817E+00   4.4051E-05  0.0076
   3.2817E+00   3.3615E+00   4.3477E-05  0.0075
   3.3615E+00   3.4433E+00   4.2767E-05  0.0075
   3.4433E+00   3.5271E+00   4.2255E-05  0.0075
   3.5271E+00   3.6129E+00   4.2025E-05  0.0074
   3.6129E+00   3.7008E+00   4.1088E-05  0.0074
   3.7008E+00   3.7908E+00   4.0428E-05  0.0074
   3.7908E+00   3.8831E+00   3.9457E-05  0.0074
   3.8831E+00   3.9776E+00   3.9351E-05  0.0073
   3.9776E+00   4.0743E+00   3.8504E-05  0.0073
   4.0743E+00   4.1735E+00   3.8760E-05  0.0072
   4.1735E+00   4.2750E+00   3.7682E-05  0.0072
   4.2750E+00   4.3790E+00   3.7056E-05  0.0072
   4.3790E+00   4.4856E+00   3.6350E-05  0.0072
   4.4856E+00   4.5947E+00   3.6252E-05  0.0071
   4.5947E+00   4.7065E+00   3.5658E-05  0.0071
   4.7065E+00   4.8210E+00   3.4870E-05  0.0070
   4.8210E+00   4.9383E+00   3.4096E-05  0.0070
   4.9383E+00   5.0585E+00   3.4217E-05  0.0069
   5.0585E+00   5.1815E+00   3.3992E-05  0.0069
   5.1815E+00   5.3076E+00   3.3941E-05  0.0068
   5.3076E+00   5.4368E+00   3.2954E-05  0.0068
   5.4368E+00   5.5690E+00   3.2837E-05  0.0068
   5.5690E+00   5.7045E+00   3.1911E-05  0.0068
   5.7045E+00   5.8433E+00   3.1244E-05  0.0068
   5.8433E+00   5.9855E+00   3.0644E-05  0.0068
   5.9855E+00   6.1311E+00   3.0008E-05  0.0067
   6.1311E+00   6.2803E+00   2.9484E-05  0.0067
   6.2803E+00   6.4331E+00   2.8985E-05  0.0067
   6.4331E+00   6.5896E+00   2.8186E-05  0.0067
   6.5896E+00   6.7500E+00   2.7743E-05  0.0067
   6.7500E+00   6.9142E+00   2.7328E-05  0.0067
   6.9142E+00   7.0824E+00   2.6851E-05  0.0066
   7.0824E+00   7.2548E+00   2.6137E-05  0.0066
   7.2548E+00   7.4313E+00   2.5994E-05  0.0066
   7.4313E+00   7.6121E+00   2.5681E-05  0.0065
   7.6121E+00   7.7973E+00   2.4792E-05  0.0066
   7.7973E+00   7.9870E+00   2.4559E-05  0.0065
   7.9870E+00   8.1813E+00   2.4080E-05  0.0065
   8.1813E+00   8.3804E+00   2.3600E-05  0.0065
   8.3804E+00   8.5843E+00   2.3102E-05  0.0065
   8.5843E+00   8.7931E+00   2.3133E-05  0.0064
   8.7931E+00   9.0071E+00   2.3090E-05  0.0064
   9.0071E+00   9.2262E+00   2.2490E-05  0.0064
   9.2262E+00   9.4507E+00   2.2522E-05  0.0063
   9.4507E+00   9.6807E+00   2.2134E-05  0.0063
   9.6807E+00   9.9162E+00   2.1908E-05  0.0062
   9.9162E+00   1.0157E+01   2.1490E-05  0.0062
   1.0157E+01   1.0405E+01   2.1197E-05  0.0062
   1.0405E+01   1.0658E+01   2.1257E-05  0.0061
   1.0658E+01   1.0917E+01   2.1064E-05  0.0060
   1.0917E+01   1.1183E+01   2.0895E-05  0.0060
   1.1183E+01   1.1455E+01   2.0946E-05  0.0059
   1.1455E+01   1.1733E+01   2.0623E-05  0.0059
   1.1733E+01   1.2019E+01   2.0772E-05  0.0058
   1.2019E+01   1.2311E+01   2.0604E-05  0.0058
   1.2311E+01   1.2611E+01   2.0682E-05  0.0057
   1.2611E+01   1.2918E+01   2.0632E-05  0.0056
   1.2918E+01   1.3232E+01   2.0722E-05  0.0055
   1.3232E+01   1.3554E+01   2.0799E-05  0.0055
   1.3554E+01   1.3884E+01   2.0846E-05  0.0054
   1.3884E+01   1.4222E+01   2.0832E-05  0.0053
   1.4222E+01   1.4568E+01   2.1043E-05  0.0052
   1.4568E+01   1.4922E+01   2.1365E-05  0.0051
   1.4922E+01   1.5285E+01   2.1444E-05  0.0051
   1.5285E+01   1.5657E+01   2.2024E-05  0.0049
   1.5657E+01   1.6038E+01   2.1975E-05  0.0049
   1.6038E+01   1.6428E+01   2.2520E-05  0.0048
   1.6428E+01   1.6828E+01   2.2772E-05  0.0047
   1.6828E+01   1.7237E+01   2.3323E-05  0.0046
   1.7237E+01   1.7657E+01   2.3890E-05  0.0045
   1.7657E+01   1.8086E+01   2.4464E-05  0.0044
   1.8086E+01   1.8526E+01   2.5314E-05  0.0042
   1.8526E+01   1.8977E+01   2.6251E-05  0.0041
   1.8977E+01   1.9439E+01   2.7296E-05  0.0040
   1.9439E+01   1.9912E+01   2.8333E-05  0.0039
   1.9912E+01   2.0396E+01   2.9978E-05  0.0037
   2.0396E+01   2.0893E+01   3.1529E-05  0.0036
   2.0893E+01   2.1401E+01   3.3242E-05  0.0034
   2.1401E+01   2.1922E+01   3.4857E-05  0.0033
   2.1922E+01   2.2455E+01   3.6773E-05  0.0032
   2.2455E+01   2.3001E+01   3.8997E-05  0.0031
   2.3001E+01   2.3561E+01   4.1416E-05  0.0029
   2.3561E+01   2.4134E+01   4.4374E-05  0.0028
   2.4134E+01   2.4721E+01   4.7731E-05  0.0027
   2.4721E+01   2.5323E+01   5.1437E-05  0.0025
   2.5323E+01   2.5939E+01   5.5825E-05  0.0024
   2.5939E+01   2.6570E+01   6.0334E-05  0.0023
   2.6570E+01   2.7217E+01   6.5760E-05  0.0022
   2.7217E+01   2.7879E+01   7.1673E-05  0.0021
   2.7879E+01   2.8557E+01   7.7907E-05  0.0019
   2.8557E+01   2.9252E+01   8.5414E-05  0.0018
   2.9252E+01   2.9964E+01   9.3654E-05  0.0017
   2.9964E+01   3.0693E+01   1.0268E-04  0.0016
   3.0693E+01   3.1440E+01   1.1249E-04  0.0015
   3.1440E+01   3.2205E+01   1.2310E-04  0.0015
   3.2205E+01   3.2988E+01   1.3510E-04  0.0014
   3.2988E+01   3.3791E+01   1.4769E-04  0.0013
   3.3791E+01   3.4613E+01   1.6102E-04  0.0012
   3.4613E+01   3.5455E+01   1.7498E-04  0.0012
   3.5455E+01   3.6318E+01   1.8982E-04  0.0011
   3.6318E+01   3.7201E+01   2.0461E-04  0.0011
   3.7201E+01   3.8106E+01   2.1945E-04  0.0010
   3.8106E+01   3.9034E+01   2.3404E-04  0.0010
   3.9034E+01   3.9983E+01   2.4768E-04  0.0009
   3.9983E+01   4.0956E+01   2.6022E-04  0.0009
   4.0956E+01   4.1953E+01   2.7238E-04  0.0009
   4.1953E+01   4.2973E+01   2.8181E-04  0.0008
   4.2973E+01   4.4019E+01   2.8947E-04  0.0008
   4.4019E+01   4.5090E+01   2.9496E-04  0.0008
   4.5090E+01   4.6187E+01   2.9806E-04  0.0008
   4.6187E+01   4.7311E+01   2.9725E-04  0.0008
   4.7311E+01   4.8462E+01   2.9446E-04  0.0008
   4.8462E+01   4.9641E+01   2.8885E-04  0.0008
   4.9641E+01   5.0849E+01   2.7970E-04  0.0008
   5.0849E+01   5.2086E+01   2.6780E-04  0.0008
   5.2086E+01   5.3353E+01   2.5365E-04  0.0008
   5.3353E+01   5.4651E+01   2.3694E-04  0.0008
   5.4651E+01   5.5981E+01   2.1916E-04  0.0008
   5.5981E+01   5.7343E+01   1.9989E-04  0.0009
   5.7343E+01   5.8738E+01   1.8035E-04  0.0009
   5.8738E+01   6.0168E+01   1.6118E-04  0.0009
   6.0168E+01   6.1632E+01   1.4223E-04  0.0010
   6.1632E+01   6.3131E+01   1.2421E-04  0.0010
   6.3131E+01   6.4667E+01   1.0747E-04  0.0011
   6.4667E+01   6.6240E+01   9.2100E-05  0.0012
   6.6240E+01   6.7852E+01   7.8606E-05  0.0013
   6.7852E+01   6.9503E+01   6.6475E-05  0.0013
   6.9503E+01   7.1194E+01   5.6019E-05  0.0015
   7.1194E+01   7.2926E+01   4.6782E-05  0.0016
   7.2926E+01   7.4701E+01   3.9876E-05  0.0017
   7.4701E+01   7.6518E+01   3.4083E-05  0.0018
   7.6518E+01   7.8380E+01   2.9241E-05  0.0019
   7.8380E+01   8.0287E+01   2.4933E-05  0.0021
   8.0287E+01   8.2240E+01   2.0847E-05  0.0022
   8.2240E+01   8.4241E+01   1.7416E-05  0.0024
   8.4241E+01   8.6291E+01   1.4351E-05  0.0026
   8.6291E+01   8.8391E+01   1.1919E-05  0.0028
   8.8391E+01   9.0541E+01   9.8776E-06  0.0031
   9.0541E+01   9.2744E+01   8.1333E-06  0.0033
   9.2744E+01   9.5001E+01   6.6931E-06  0.0036
   9.5001E+01   9.7312E+01   5.5817E-06  0.0039
   9.7312E+01   9.9680E+01   4.7096E-06  0.0042
   9.9680E+01   1.0211E+02   3.9832E-06  0.0046
   1.0211E+02   1.0459E+02   3.4651E-06  0.0048
   1.0459E+02   1.0713E+02   2.7357E-06  0.0054
   1.0713E+02   1.0974E+02   1.4654E-06  0.0072
   1.0974E+02   1.1241E+02   3.4538E-07  0.0147
   1.1241E+02   1.1515E+02   1.0969E-09  0.2582
   1.1515E+02   1.1795E+02   0.0000E+00  0.0000
   1.1795E+02   1.2082E+02   0.0000E+00  0.0000
   1.2082E+02   1.2376E+02   0.0000E+00  0.0000
   1.2376E+02   1.2677E+02   0.0000E+00  0.0000
   1.2677E+02   1.2985E+02   0.0000E+00  0.0000
   1.2985E+02   1.3301E+02   0.0000E+00  0.0000
   1.3301E+02   1.3625E+02   0.0000E+00  0.0000
   1.3625E+02   1.3956E+02   0.0000E+00  0.0000
   1.3956E+02   1.4296E+02   0.0000E+00  0.0000
   1.4296E+02   1.4644E+02   0.0000E+00  0.0000
   1.4644E+02   1.5000E+02   0.0000E+00  0.0000

#   sum over                 6.4014E-05
'no. =    1   reg = 100 - 200'
msuc: {\huge [t-cross] in region mesh}
msdr: {\it plotted by \ANGEL \version}
msdl: {\it calculated by \PHITS  3.28}
wt: s(0.7)
\vspace{-3}
  region surface crossing
  area  &=&   1.0000E+00 [cm^2]
e:
 
# Information for Restart Calculation
# This calculation was newly started
# istdev =  2 # 1:Batch variance, 2:History variance
# resc2  = 5.00000000000000000E+09 # Total source weight or Total source weight / maxcas
# resc3  = 5.00000000000000000E+09 # Total history number or Total batch number
# maxcas =   500000000 # History / Batch, only used for istdev=1
# bitrseed = 0110100000100010111000001110001111001110100100011111101000111001 # bit data of rseed
