[ T-Cross ]
    title = [t-cross] in region mesh
     mesh =  reg            # mesh type is region-wise
      reg =    1            # number of crossing regions
      non     r-from    r-to       area
      1       120       220        1.000000    
   e-type =    3            # e-mesh is log given by emin, emax and ne
     emin =  1.0000000E-02  # minimum value of e-mesh points
     emax =   150.0000      # maximum value of e-mesh points
#    edel =  2.4039514E-02  # mesh width of e-mesh points
       ne =    400          # number of e-mesh points
#    data = ( e(i), i = 1, ne + 1 )
#           1.00000E-02  1.02433E-02  1.04925E-02  1.07478E-02  1.10093E-02
#           1.12772E-02  1.15516E-02  1.18326E-02  1.21205E-02  1.24154E-02
#           1.27175E-02  1.30269E-02  1.33439E-02  1.36686E-02  1.40011E-02
#           1.43418E-02  1.46907E-02  1.50482E-02  1.54143E-02  1.57894E-02
#           1.61735E-02  1.65670E-02  1.69701E-02  1.73830E-02  1.78060E-02
#           1.82392E-02  1.86830E-02  1.91375E-02  1.96032E-02  2.00801E-02
#           2.05687E-02  2.10692E-02  2.15818E-02  2.21069E-02  2.26448E-02
#           2.31957E-02  2.37601E-02  2.43382E-02  2.49304E-02  2.55369E-02
#           2.61583E-02  2.67947E-02  2.74467E-02  2.81145E-02  2.87985E-02
#           2.94992E-02  3.02169E-02  3.09521E-02  3.17052E-02  3.24766E-02
#           3.32668E-02  3.40762E-02  3.49053E-02  3.57546E-02  3.66246E-02
#           3.75157E-02  3.84284E-02  3.93634E-02  4.03212E-02  4.13022E-02
#           4.23071E-02  4.33365E-02  4.43909E-02  4.54710E-02  4.65773E-02
#           4.77106E-02  4.88714E-02  5.00605E-02  5.12785E-02  5.25262E-02
#           5.38042E-02  5.51133E-02  5.64542E-02  5.78278E-02  5.92348E-02
#           6.06760E-02  6.21523E-02  6.36645E-02  6.52135E-02  6.68002E-02
#           6.84255E-02  7.00904E-02  7.17957E-02  7.35426E-02  7.53319E-02
#           7.71648E-02  7.90423E-02  8.09655E-02  8.29354E-02  8.49533E-02
#           8.70203E-02  8.91376E-02  9.13064E-02  9.35279E-02  9.58035E-02
#           9.81345E-02  1.00522E-01  1.02968E-01  1.05473E-01  1.08040E-01
#           1.10668E-01  1.13361E-01  1.16119E-01  1.18944E-01  1.21838E-01
#           1.24803E-01  1.27839E-01  1.30950E-01  1.34136E-01  1.37399E-01
#           1.40742E-01  1.44167E-01  1.47675E-01  1.51268E-01  1.54948E-01
#           1.58718E-01  1.62580E-01  1.66535E-01  1.70587E-01  1.74738E-01
#           1.78989E-01  1.83344E-01  1.87805E-01  1.92375E-01  1.97055E-01
#           2.01850E-01  2.06761E-01  2.11792E-01  2.16945E-01  2.22223E-01
#           2.27630E-01  2.33169E-01  2.38842E-01  2.44653E-01  2.50605E-01
#           2.56703E-01  2.62949E-01  2.69346E-01  2.75900E-01  2.82613E-01
#           2.89489E-01  2.96532E-01  3.03747E-01  3.11138E-01  3.18708E-01
#           3.26462E-01  3.34405E-01  3.42542E-01  3.50876E-01  3.59413E-01
#           3.68158E-01  3.77116E-01  3.86291E-01  3.95690E-01  4.05317E-01
#           4.15179E-01  4.25281E-01  4.35628E-01  4.46227E-01  4.57084E-01
#           4.68205E-01  4.79597E-01  4.91266E-01  5.03219E-01  5.15463E-01
#           5.28005E-01  5.40851E-01  5.54011E-01  5.67490E-01  5.81298E-01
#           5.95441E-01  6.09929E-01  6.24769E-01  6.39970E-01  6.55541E-01
#           6.71491E-01  6.87828E-01  7.04564E-01  7.21706E-01  7.39266E-01
#           7.57253E-01  7.75678E-01  7.94551E-01  8.13883E-01  8.33685E-01
#           8.53969E-01  8.74747E-01  8.96030E-01  9.17831E-01  9.40163E-01
#           9.63038E-01  9.86469E-01  1.01047E+00  1.03506E+00  1.06024E+00
#           1.08604E+00  1.11246E+00  1.13953E+00  1.16725E+00  1.19565E+00
#           1.22474E+00  1.25454E+00  1.28507E+00  1.31633E+00  1.34836E+00
#           1.38117E+00  1.41477E+00  1.44920E+00  1.48446E+00  1.52057E+00
#           1.55757E+00  1.59547E+00  1.63429E+00  1.67405E+00  1.71478E+00
#           1.75650E+00  1.79924E+00  1.84302E+00  1.88786E+00  1.93379E+00
#           1.98084E+00  2.02904E+00  2.07841E+00  2.12898E+00  2.18078E+00
#           2.23384E+00  2.28819E+00  2.34386E+00  2.40089E+00  2.45930E+00
#           2.51914E+00  2.58043E+00  2.64322E+00  2.70753E+00  2.77341E+00
#           2.84088E+00  2.91001E+00  2.98081E+00  3.05333E+00  3.12762E+00
#           3.20372E+00  3.28167E+00  3.36152E+00  3.44330E+00  3.52708E+00
#           3.61290E+00  3.70080E+00  3.79085E+00  3.88308E+00  3.97756E+00
#           4.07434E+00  4.17347E+00  4.27501E+00  4.37903E+00  4.48557E+00
#           4.59471E+00  4.70650E+00  4.82102E+00  4.93832E+00  5.05847E+00
#           5.18155E+00  5.30762E+00  5.43676E+00  5.56904E+00  5.70453E+00
#           5.84333E+00  5.98550E+00  6.13114E+00  6.28031E+00  6.43312E+00
#           6.58964E+00  6.74997E+00  6.91420E+00  7.08243E+00  7.25475E+00
#           7.43126E+00  7.61207E+00  7.79728E+00  7.98700E+00  8.18133E+00
#           8.38038E+00  8.58428E+00  8.79315E+00  9.00709E+00  9.22624E+00
#           9.45072E+00  9.68067E+00  9.91620E+00  1.01575E+01  1.04046E+01
#           1.06578E+01  1.09171E+01  1.11827E+01  1.14548E+01  1.17335E+01
#           1.20190E+01  1.23114E+01  1.26109E+01  1.29178E+01  1.32321E+01
#           1.35540E+01  1.38838E+01  1.42216E+01  1.45676E+01  1.49221E+01
#           1.52851E+01  1.56570E+01  1.60380E+01  1.64282E+01  1.68279E+01
#           1.72374E+01  1.76568E+01  1.80864E+01  1.85264E+01  1.89772E+01
#           1.94389E+01  1.99119E+01  2.03963E+01  2.08926E+01  2.14009E+01
#           2.19216E+01  2.24550E+01  2.30014E+01  2.35610E+01  2.41343E+01
#           2.47215E+01  2.53230E+01  2.59391E+01  2.65702E+01  2.72167E+01
#           2.78789E+01  2.85572E+01  2.92520E+01  2.99637E+01  3.06928E+01
#           3.14396E+01  3.22045E+01  3.29881E+01  3.37907E+01  3.46128E+01
#           3.54550E+01  3.63177E+01  3.72013E+01  3.81064E+01  3.90336E+01
#           3.99833E+01  4.09561E+01  4.19526E+01  4.29734E+01  4.40189E+01
#           4.50900E+01  4.61870E+01  4.73108E+01  4.84619E+01  4.96410E+01
#           5.08488E+01  5.20860E+01  5.33533E+01  5.46514E+01  5.59812E+01
#           5.73432E+01  5.87384E+01  6.01676E+01  6.16315E+01  6.31311E+01
#           6.46671E+01  6.62405E+01  6.78522E+01  6.95031E+01  7.11941E+01
#           7.29263E+01  7.47007E+01  7.65182E+01  7.83800E+01  8.02870E+01
#           8.22405E+01  8.42414E+01  8.62911E+01  8.83906E+01  9.05412E+01
#           9.27442E+01  9.50007E+01  9.73122E+01  9.96799E+01  1.02105E+02
#           1.04589E+02  1.07134E+02  1.09741E+02  1.12411E+02  1.15146E+02
#           1.17948E+02  1.20817E+02  1.23757E+02  1.26768E+02  1.29852E+02
#           1.33012E+02  1.36248E+02  1.39563E+02  1.42959E+02  1.46437E+02
#           1.50000E+02
     unit =    2            # unit is [1/cm^2/(MeV/n)/source]
     axis =  eng            # axis of output
     file = detector-21.out  # file name of output for the above axis
   output = f-curr          # surface crossing forward current spectrum
     part =  neutron  
# kf/name :  2112     
#    used :        main (  %)        temp (  %)       total (  %)
#  memory :         414 (  0)           0 (  0)         414 (  0)

#------------------------------------------------------------------------------
#newpage:
#   no. =    1   reg = 120 - 220

x: Energy [MeV/n]
y:  F-Curr [1/cm^2/(MeV/n)/source]         
p: xlog ylog afac(0.8) form(0.9)
h: n            x            y(neutron ),hh0l   n 
#  e-lower      e-upper      neutron     r.err 
   1.0000E-02   1.0243E-02   4.5997E-04  0.1215
   1.0243E-02   1.0493E-02   5.0657E-04  0.1147
   1.0493E-02   1.0748E-02   6.5182E-04  0.1000
   1.0748E-02   1.1009E-02   4.7594E-04  0.1155
   1.1009E-02   1.1277E-02   4.6123E-04  0.1157
   1.1277E-02   1.1552E-02   4.4279E-04  0.1170
   1.1552E-02   1.1833E-02   5.3883E-04  0.1048
   1.1833E-02   1.2121E-02   3.8618E-04  0.1222
   1.2121E-02   1.2415E-02   4.1634E-04  0.1163
   1.2415E-02   1.2718E-02   4.5180E-04  0.1104
   1.2718E-02   1.3027E-02   4.0751E-04  0.1147
   1.3027E-02   1.3344E-02   4.7736E-04  0.1048
   1.3344E-02   1.3669E-02   4.6552E-04  0.1048
   1.3669E-02   1.4001E-02   4.2875E-04  0.1079
   1.4001E-02   1.4342E-02   4.3487E-04  0.1057
   1.4342E-02   1.4691E-02   4.6812E-04  0.1008
   1.4691E-02   1.5048E-02   5.2028E-04  0.0945
   1.5048E-02   1.5414E-02   4.4574E-04  0.1008
   1.5414E-02   1.5789E-02   4.1263E-04  0.1037
   1.5789E-02   1.6174E-02   4.0607E-04  0.1029
   1.6174E-02   1.6567E-02   3.2147E-04  0.1147
   1.6567E-02   1.6970E-02   3.3532E-04  0.1109
   1.6970E-02   1.7383E-02   3.6011E-04  0.1055
   1.7383E-02   1.7806E-02   2.8980E-04  0.1163
   1.7806E-02   1.8239E-02   3.7868E-04  0.1005
   1.8239E-02   1.8683E-02   3.2541E-04  0.1072
   1.8683E-02   1.9138E-02   3.6381E-04  0.1000
   1.9138E-02   1.9603E-02   3.0390E-04  0.1085
   1.9603E-02   2.0080E-02   4.0723E-04  0.0925
   2.0080E-02   2.0569E-02   3.2705E-04  0.1021
   2.0569E-02   2.1069E-02   2.8830E-04  0.1072
   2.1069E-02   2.1582E-02   2.8281E-04  0.1070
   2.1582E-02   2.2107E-02   2.8453E-04  0.1054
   2.2107E-02   2.2645E-02   2.8625E-04  0.1038
   2.2645E-02   2.3196E-02   2.8674E-04  0.1026
   2.3196E-02   2.3760E-02   2.9492E-04  0.0998
   2.3760E-02   2.4338E-02   2.9358E-04  0.0990
   2.4338E-02   2.4930E-02   2.5206E-04  0.1054
   2.4930E-02   2.5537E-02   2.9834E-04  0.0958
   2.5537E-02   2.6158E-02   2.3021E-04  0.1078
   2.6158E-02   2.6795E-02   2.2469E-04  0.1076
   2.6795E-02   2.7447E-02   2.6554E-04  0.0981
   2.7447E-02   2.8114E-02   2.1670E-04  0.1070
   2.8114E-02   2.8799E-02   2.2813E-04  0.1032
   2.8799E-02   2.9499E-02   2.7282E-04  0.0933
   2.9499E-02   3.0217E-02   1.8550E-04  0.1118
   3.0217E-02   3.0952E-02   2.2415E-04  0.1002
   3.0952E-02   3.1705E-02   1.9383E-04  0.1066
   3.1705E-02   3.2477E-02   2.1545E-04  0.1000
   3.2477E-02   3.3267E-02   2.1852E-04  0.0981
   3.3267E-02   3.4076E-02   2.0311E-04  0.1005
   3.4076E-02   3.4905E-02   2.0107E-04  0.0998
   3.4905E-02   3.5755E-02   2.2774E-04  0.0926
   3.5755E-02   3.6625E-02   1.7223E-04  0.1054
   3.6625E-02   3.7516E-02   1.8074E-04  0.1016
   3.7516E-02   3.8428E-02   1.5283E-04  0.1091
   3.8428E-02   3.9363E-02   1.7203E-04  0.1016
   3.9363E-02   4.0321E-02   1.6967E-04  0.1011
   4.0321E-02   4.1302E-02   1.7746E-04  0.0976
   4.1302E-02   4.2307E-02   1.6561E-04  0.0998
   4.2307E-02   4.3337E-02   1.4268E-04  0.1063
   4.3337E-02   4.4391E-02   1.5646E-04  0.1001
   4.4391E-02   4.5471E-02   1.3524E-04  0.1066
   4.5471E-02   4.6577E-02   1.4910E-04  0.1004
   4.6577E-02   4.7711E-02   1.2867E-04  0.1066
   4.7711E-02   4.8871E-02   1.1328E-04  0.1122
   4.8871E-02   5.0061E-02   1.3694E-04  0.1010
   5.0061E-02   5.1279E-02   1.4045E-04  0.0985
   5.1279E-02   5.2526E-02   1.4487E-04  0.0958
   5.2526E-02   5.3804E-02   1.3221E-04  0.0991
   5.3804E-02   5.5113E-02   1.2585E-04  0.1005
   5.5113E-02   5.6454E-02   1.2618E-04  0.0990
   5.6454E-02   5.7828E-02   1.1877E-04  0.1010
   5.7828E-02   5.9235E-02   1.2028E-04  0.0988
   5.9235E-02   6.0676E-02   1.1756E-04  0.0990
   6.0676E-02   6.2152E-02   9.8961E-05  0.1066
   6.2152E-02   6.3665E-02   1.1318E-04  0.0985
   6.3665E-02   6.5214E-02   9.6440E-05  0.1054
   6.5214E-02   6.6800E-02   9.9640E-05  0.1026
   6.6800E-02   6.8426E-02   1.0034E-04  0.1010
   6.8426E-02   7.0090E-02   9.8772E-05  0.1005
   7.0090E-02   7.1796E-02   8.7398E-05  0.1055
   7.1796E-02   7.3543E-02   1.0955E-04  0.0931
   7.3543E-02   7.5332E-02   9.6884E-05  0.0979
   7.5332E-02   7.7165E-02   1.0405E-04  0.0933
   7.7165E-02   7.9042E-02   8.4594E-05  0.1021
   7.9042E-02   8.0965E-02   8.3169E-05  0.1017
   8.0965E-02   8.2935E-02   9.1874E-05  0.0958
   8.2935E-02   8.4953E-02   8.5539E-05  0.0981
   8.4953E-02   8.7020E-02   9.2519E-05  0.0930
   8.7020E-02   8.9138E-02   9.0152E-05  0.0932
   8.9138E-02   9.1306E-02   9.0253E-05  0.0921
   9.1306E-02   9.3528E-02   8.2901E-05  0.0949
   9.3528E-02   9.5804E-02   8.1309E-05  0.0947
   9.5804E-02   9.8134E-02   7.2782E-05  0.0990
   9.8134E-02   1.0052E-01   6.4506E-05  0.1037
   1.0052E-01   1.0297E-01   7.7265E-05  0.0937
   1.0297E-01   1.0547E-01   7.9723E-05  0.0910
   1.0547E-01   1.0804E-01   8.0509E-05  0.0895
   1.0804E-01   1.1067E-01   8.0392E-05  0.0887
   1.1067E-01   1.1336E-01   9.3291E-05  0.0814
   1.1336E-01   1.1612E-01   9.6962E-05  0.0788
   1.1612E-01   1.1894E-01   8.5361E-05  0.0830
   1.1894E-01   1.2184E-01   9.8449E-05  0.0764
   1.2184E-01   1.2480E-01   1.0267E-04  0.0737
   1.2480E-01   1.2784E-01   1.0026E-04  0.0739
   1.2784E-01   1.3095E-01   1.0465E-04  0.0714
   1.3095E-01   1.3414E-01   1.0863E-04  0.0692
   1.3414E-01   1.3740E-01   1.1508E-04  0.0665
   1.3740E-01   1.4074E-01   1.0985E-04  0.0673
   1.4074E-01   1.4417E-01   1.0401E-04  0.0682
   1.4417E-01   1.4767E-01   1.1852E-04  0.0632
   1.4767E-01   1.5127E-01   1.2201E-04  0.0615
   1.5127E-01   1.5495E-01   1.2703E-04  0.0596
   1.5495E-01   1.5872E-01   1.2528E-04  0.0593
   1.5872E-01   1.6258E-01   1.3095E-04  0.0573
   1.6258E-01   1.6654E-01   1.2786E-04  0.0572
   1.6654E-01   1.7059E-01   1.3894E-04  0.0543
   1.7059E-01   1.7474E-01   1.4285E-04  0.0529
   1.7474E-01   1.7899E-01   1.4644E-04  0.0516
   1.7899E-01   1.8334E-01   1.5483E-04  0.0496
   1.8334E-01   1.8781E-01   1.6771E-04  0.0471
   1.8781E-01   1.9237E-01   1.7283E-04  0.0458
   1.9237E-01   1.9706E-01   1.6077E-04  0.0470
   1.9706E-01   2.0185E-01   1.7908E-04  0.0440
   2.0185E-01   2.0676E-01   1.7087E-04  0.0444
   2.0676E-01   2.1179E-01   1.7036E-04  0.0440
   2.1179E-01   2.1694E-01   1.8024E-04  0.0423
   2.1694E-01   2.2222E-01   1.7784E-04  0.0420
   2.2222E-01   2.2763E-01   1.9607E-04  0.0396
   2.2763E-01   2.3317E-01   1.9336E-04  0.0394
   2.3317E-01   2.3884E-01   1.9946E-04  0.0383
   2.3884E-01   2.4465E-01   1.9420E-04  0.0383
   2.4465E-01   2.5061E-01   2.0395E-04  0.0370
   2.5061E-01   2.5670E-01   2.1297E-04  0.0357
   2.5670E-01   2.6295E-01   2.0826E-04  0.0357
   2.6295E-01   2.6935E-01   2.1780E-04  0.0345
   2.6935E-01   2.7590E-01   2.0473E-04  0.0351
   2.7590E-01   2.8261E-01   2.1092E-04  0.0342
   2.8261E-01   2.8949E-01   2.3503E-04  0.0320
   2.8949E-01   2.9653E-01   2.3128E-04  0.0319
   2.9653E-01   3.0375E-01   2.3474E-04  0.0313
   3.0375E-01   3.1114E-01   2.3489E-04  0.0309
   3.1114E-01   3.1871E-01   2.3280E-04  0.0307
   3.1871E-01   3.2646E-01   2.3369E-04  0.0302
   3.2646E-01   3.3441E-01   2.4473E-04  0.0292
   3.3441E-01   3.4254E-01   2.5954E-04  0.0280
   3.4254E-01   3.5088E-01   2.4728E-04  0.0283
   3.5088E-01   3.5941E-01   2.4963E-04  0.0279
   3.5941E-01   3.6816E-01   2.5255E-04  0.0274
   3.6816E-01   3.7712E-01   2.5462E-04  0.0269
   3.7712E-01   3.8629E-01   2.5871E-04  0.0264
   3.8629E-01   3.9569E-01   2.7166E-04  0.0255
   3.9569E-01   4.0532E-01   2.6074E-04  0.0257
   4.0532E-01   4.1518E-01   2.7320E-04  0.0248
   4.1518E-01   4.2528E-01   2.8539E-04  0.0239
   4.2528E-01   4.3563E-01   2.7207E-04  0.0242
   4.3563E-01   4.4623E-01   2.7818E-04  0.0237
   4.4623E-01   4.5708E-01   2.6478E-04  0.0240
   4.5708E-01   4.6821E-01   2.7894E-04  0.0231
   4.6821E-01   4.7960E-01   2.7677E-04  0.0229
   4.7960E-01   4.9127E-01   3.0178E-04  0.0217
   4.9127E-01   5.0322E-01   2.8903E-04  0.0219
   5.0322E-01   5.1546E-01   2.8532E-04  0.0217
   5.1546E-01   5.2800E-01   2.9985E-04  0.0210
   5.2800E-01   5.4085E-01   3.0037E-04  0.0207
   5.4085E-01   5.5401E-01   2.9862E-04  0.0205
   5.5401E-01   5.6749E-01   2.9401E-04  0.0204
   5.6749E-01   5.8130E-01   3.0064E-04  0.0199
   5.8130E-01   5.9544E-01   2.8971E-04  0.0201
   5.9544E-01   6.0993E-01   2.9033E-04  0.0198
   6.0993E-01   6.2477E-01   2.9178E-04  0.0195
   6.2477E-01   6.3997E-01   2.8479E-04  0.0195
   6.3997E-01   6.5554E-01   2.8449E-04  0.0193
   6.5554E-01   6.7149E-01   2.8911E-04  0.0189
   6.7149E-01   6.8783E-01   2.9349E-04  0.0185
   6.8783E-01   7.0456E-01   2.8625E-04  0.0186
   7.0456E-01   7.2171E-01   2.8244E-04  0.0185
   7.2171E-01   7.3927E-01   2.8408E-04  0.0182
   7.3927E-01   7.5725E-01   2.7094E-04  0.0184
   7.5725E-01   7.7568E-01   2.7003E-04  0.0182
   7.7568E-01   7.9455E-01   2.6408E-04  0.0182
   7.9455E-01   8.1388E-01   2.6139E-04  0.0181
   8.1388E-01   8.3368E-01   2.6254E-04  0.0178
   8.3368E-01   8.5397E-01   2.5154E-04  0.0180
   8.5397E-01   8.7475E-01   2.4864E-04  0.0178
   8.7475E-01   8.9603E-01   2.4516E-04  0.0178
   8.9603E-01   9.1783E-01   2.3652E-04  0.0179
   9.1783E-01   9.4016E-01   2.2350E-04  0.0182
   9.4016E-01   9.6304E-01   2.1826E-04  0.0181
   9.6304E-01   9.8647E-01   2.1554E-04  0.0180
   9.8647E-01   1.0105E+00   2.0195E-04  0.0184
   1.0105E+00   1.0351E+00   1.9990E-04  0.0183
   1.0351E+00   1.0602E+00   1.9255E-04  0.0184
   1.0602E+00   1.0860E+00   1.8702E-04  0.0184
   1.0860E+00   1.1125E+00   1.9822E-04  0.0177
   1.1125E+00   1.1395E+00   1.9124E-04  0.0178
   1.1395E+00   1.1673E+00   1.8915E-04  0.0176
   1.1673E+00   1.1957E+00   2.0030E-04  0.0169
   1.1957E+00   1.2247E+00   1.8766E-04  0.0173
   1.2247E+00   1.2545E+00   1.8893E-04  0.0170
   1.2545E+00   1.2851E+00   1.8954E-04  0.0168
   1.2851E+00   1.3163E+00   1.8255E-04  0.0169
   1.3163E+00   1.3484E+00   1.8068E-04  0.0167
   1.3484E+00   1.3812E+00   1.7855E-04  0.0166
   1.3812E+00   1.4148E+00   1.7622E-04  0.0165
   1.4148E+00   1.4492E+00   1.7838E-04  0.0162
   1.4492E+00   1.4845E+00   1.6803E-04  0.0165
   1.4845E+00   1.5206E+00   1.7280E-04  0.0161
   1.5206E+00   1.5576E+00   1.6213E-04  0.0164
   1.5576E+00   1.5955E+00   1.5999E-04  0.0162
   1.5955E+00   1.6343E+00   1.5775E-04  0.0161
   1.6343E+00   1.6741E+00   1.5564E-04  0.0161
   1.6741E+00   1.7148E+00   1.5328E-04  0.0160
   1.7148E+00   1.7565E+00   1.4513E-04  0.0162
   1.7565E+00   1.7992E+00   1.4038E-04  0.0163
   1.7992E+00   1.8430E+00   1.2870E-04  0.0168
   1.8430E+00   1.8879E+00   1.2791E-04  0.0166
   1.8879E+00   1.9338E+00   1.2446E-04  0.0166
   1.9338E+00   1.9808E+00   1.2161E-04  0.0166
   1.9808E+00   2.0290E+00   1.2212E-04  0.0163
   2.0290E+00   2.0784E+00   1.1808E-04  0.0164
   2.0784E+00   2.1290E+00   1.1361E-04  0.0165
   2.1290E+00   2.1808E+00   1.1254E-04  0.0164
   2.1808E+00   2.2338E+00   1.1247E-04  0.0162
   2.2338E+00   2.2882E+00   1.0557E-04  0.0165
   2.2882E+00   2.3439E+00   1.0655E-04  0.0163
   2.3439E+00   2.4009E+00   1.0361E-04  0.0163
   2.4009E+00   2.4593E+00   9.9258E-05  0.0165
   2.4593E+00   2.5191E+00   9.5571E-05  0.0166
   2.5191E+00   2.5804E+00   9.6075E-05  0.0164
   2.5804E+00   2.6432E+00   9.1308E-05  0.0166
   2.6432E+00   2.7075E+00   9.3934E-05  0.0162
   2.7075E+00   2.7734E+00   8.5250E-05  0.0168
   2.7734E+00   2.8409E+00   8.3796E-05  0.0167
   2.8409E+00   2.9100E+00   8.2722E-05  0.0167
   2.9100E+00   2.9808E+00   8.0224E-05  0.0167
   2.9808E+00   3.0533E+00   7.8755E-05  0.0167
   3.0533E+00   3.1276E+00   7.8027E-05  0.0165
   3.1276E+00   3.2037E+00   7.5464E-05  0.0166
   3.2037E+00   3.2817E+00   7.5030E-05  0.0165
   3.2817E+00   3.3615E+00   7.3050E-05  0.0165
   3.3615E+00   3.4433E+00   6.9584E-05  0.0167
   3.4433E+00   3.5271E+00   6.7771E-05  0.0167
   3.5271E+00   3.6129E+00   6.7440E-05  0.0166
   3.6129E+00   3.7008E+00   6.3128E-05  0.0169
   3.7008E+00   3.7908E+00   6.0994E-05  0.0171
   3.7908E+00   3.8831E+00   5.9978E-05  0.0170
   3.8831E+00   3.9776E+00   5.9120E-05  0.0169
   3.9776E+00   4.0743E+00   5.6560E-05  0.0171
   4.0743E+00   4.1735E+00   5.3445E-05  0.0174
   4.1735E+00   4.2750E+00   5.0989E-05  0.0176
   4.2750E+00   4.3790E+00   4.9877E-05  0.0176
   4.3790E+00   4.4856E+00   4.7795E-05  0.0177
   4.4856E+00   4.5947E+00   4.7804E-05  0.0176
   4.5947E+00   4.7065E+00   4.4648E-05  0.0179
   4.7065E+00   4.8210E+00   4.3732E-05  0.0179
   4.8210E+00   4.9383E+00   4.2237E-05  0.0180
   4.9383E+00   5.0585E+00   4.0528E-05  0.0182
   5.0585E+00   5.1815E+00   3.7859E-05  0.0186
   5.1815E+00   5.3076E+00   3.7832E-05  0.0183
   5.3076E+00   5.4368E+00   3.6258E-05  0.0185
   5.4368E+00   5.5690E+00   3.4687E-05  0.0187
   5.5690E+00   5.7045E+00   3.3229E-05  0.0189
   5.7045E+00   5.8433E+00   3.0694E-05  0.0195
   5.8433E+00   5.9855E+00   2.9120E-05  0.0198
   5.9855E+00   6.1311E+00   2.7852E-05  0.0200
   6.1311E+00   6.2803E+00   2.4946E-05  0.0209
   6.2803E+00   6.4331E+00   2.3989E-05  0.0210
   6.4331E+00   6.5896E+00   2.2699E-05  0.0214
   6.5896E+00   6.7500E+00   2.1444E-05  0.0217
   6.7500E+00   6.9142E+00   1.9877E-05  0.0223
   6.9142E+00   7.0824E+00   1.8517E-05  0.0229
   7.0824E+00   7.2548E+00   1.6567E-05  0.0239
   7.2548E+00   7.4313E+00   1.5189E-05  0.0246
   7.4313E+00   7.6121E+00   1.4651E-05  0.0247
   7.6121E+00   7.7973E+00   1.3592E-05  0.0254
   7.7973E+00   7.9870E+00   1.2856E-05  0.0258
   7.9870E+00   8.1813E+00   1.2483E-05  0.0259
   8.1813E+00   8.3804E+00   1.1318E-05  0.0269
   8.3804E+00   8.5843E+00   1.0496E-05  0.0277
   8.5843E+00   8.7931E+00   1.0192E-05  0.0277
   8.7931E+00   9.0071E+00   9.0643E-06  0.0290
   9.0071E+00   9.2262E+00   8.3149E-06  0.0299
   9.2262E+00   9.4507E+00   7.2884E-06  0.0316
   9.4507E+00   9.6807E+00   6.9692E-06  0.0320
   9.6807E+00   9.9162E+00   6.7493E-06  0.0321
   9.9162E+00   1.0157E+01   6.5278E-06  0.0323
   1.0157E+01   1.0405E+01   5.6670E-06  0.0343
   1.0405E+01   1.0658E+01   5.3771E-06  0.0348
   1.0658E+01   1.0917E+01   5.0139E-06  0.0356
   1.0917E+01   1.1183E+01   4.3484E-06  0.0378
   1.1183E+01   1.1455E+01   4.3499E-06  0.0374
   1.1455E+01   1.1733E+01   3.6682E-06  0.0402
   1.1733E+01   1.2019E+01   3.4683E-06  0.0408
   1.2019E+01   1.2311E+01   3.3447E-06  0.0411
   1.2311E+01   1.2611E+01   2.8639E-06  0.0440
   1.2611E+01   1.2918E+01   2.8995E-06  0.0432
   1.2918E+01   1.3232E+01   2.6805E-06  0.0443
   1.3232E+01   1.3554E+01   2.5739E-06  0.0447
   1.3554E+01   1.3884E+01   2.2551E-06  0.0472
   1.3884E+01   1.4222E+01   1.9656E-06  0.0500
   1.4222E+01   1.4568E+01   1.9528E-06  0.0495
   1.4568E+01   1.4922E+01   1.6802E-06  0.0528
   1.4922E+01   1.5285E+01   1.4614E-06  0.0559
   1.5285E+01   1.5657E+01   1.4977E-06  0.0546
   1.5657E+01   1.6038E+01   1.3135E-06  0.0576
   1.6038E+01   1.6428E+01   1.4256E-06  0.0547
   1.6428E+01   1.6828E+01   1.1010E-06  0.0615
   1.6828E+01   1.7237E+01   1.0010E-06  0.0637
   1.7237E+01   1.7657E+01   9.2138E-07  0.0656
   1.7657E+01   1.8086E+01   8.7678E-07  0.0665
   1.8086E+01   1.8526E+01   7.6884E-07  0.0702
   1.8526E+01   1.8977E+01   6.2856E-07  0.0767
   1.8977E+01   1.9439E+01   6.1724E-07  0.0765
   1.9439E+01   1.9912E+01   4.9334E-07  0.0845
   1.9912E+01   2.0396E+01   4.6786E-07  0.0857
   2.0396E+01   2.0893E+01   4.5003E-07  0.0864
   2.0893E+01   2.1401E+01   4.0656E-07  0.0898
   2.1401E+01   2.1922E+01   3.6169E-07  0.0941
   2.1922E+01   2.2455E+01   3.0935E-07  0.1005
   2.2455E+01   2.3001E+01   2.7760E-07  0.1048
   2.3001E+01   2.3561E+01   1.6380E-07  0.1348
   2.3561E+01   2.4134E+01   1.6863E-07  0.1313
   2.4134E+01   2.4721E+01   1.3624E-07  0.1443
   2.4721E+01   2.5323E+01   1.3854E-07  0.1414
   2.5323E+01   2.5939E+01   1.6771E-07  0.1270
   2.5939E+01   2.6570E+01   8.7147E-08  0.1741
   2.6570E+01   2.7217E+01   6.1874E-08  0.2041
   2.7217E+01   2.7879E+01   5.7888E-08  0.2085
   2.7879E+01   2.8557E+01   3.9313E-08  0.2500
   2.8557E+01   2.9252E+01   4.0778E-08  0.2425
   2.9252E+01   2.9964E+01   3.0442E-08  0.2774
   2.9964E+01   3.0693E+01   2.0575E-08  0.3333
   3.0693E+01   3.1440E+01   2.0086E-08  0.3333
   3.1440E+01   3.2205E+01   1.5252E-08  0.3780
   3.2205E+01   3.2988E+01   6.3811E-09  0.5774
   3.2988E+01   3.3791E+01   6.2296E-09  0.5774
   3.3791E+01   3.4613E+01   6.0816E-09  0.5774
   3.4613E+01   3.5455E+01   1.9790E-09  1.0000
   3.5455E+01   3.6318E+01   7.7281E-09  0.5000
   3.6318E+01   3.7201E+01   5.6584E-09  0.5774
   3.7201E+01   3.8106E+01   0.0000E+00  0.0000
   3.8106E+01   3.9034E+01   1.7976E-09  1.0000
   3.9034E+01   3.9983E+01   0.0000E+00  0.0000
   3.9983E+01   4.0956E+01   1.7132E-09  1.0000
   4.0956E+01   4.1953E+01   0.0000E+00  0.0000
   4.1953E+01   4.2973E+01   1.6328E-09  1.0000
   4.2973E+01   4.4019E+01   0.0000E+00  0.0000
   4.4019E+01   4.5090E+01   0.0000E+00  0.0000
   4.5090E+01   4.6187E+01   0.0000E+00  0.0000
   4.6187E+01   4.7311E+01   0.0000E+00  0.0000
   4.7311E+01   4.8462E+01   0.0000E+00  0.0000
   4.8462E+01   4.9641E+01   0.0000E+00  0.0000
   4.9641E+01   5.0849E+01   0.0000E+00  0.0000
   5.0849E+01   5.2086E+01   0.0000E+00  0.0000
   5.2086E+01   5.3353E+01   0.0000E+00  0.0000
   5.3353E+01   5.4651E+01   0.0000E+00  0.0000
   5.4651E+01   5.5981E+01   0.0000E+00  0.0000
   5.5981E+01   5.7343E+01   0.0000E+00  0.0000
   5.7343E+01   5.8738E+01   0.0000E+00  0.0000
   5.8738E+01   6.0168E+01   0.0000E+00  0.0000
   6.0168E+01   6.1632E+01   0.0000E+00  0.0000
   6.1632E+01   6.3131E+01   0.0000E+00  0.0000
   6.3131E+01   6.4667E+01   0.0000E+00  0.0000
   6.4667E+01   6.6240E+01   0.0000E+00  0.0000
   6.6240E+01   6.7852E+01   0.0000E+00  0.0000
   6.7852E+01   6.9503E+01   0.0000E+00  0.0000
   6.9503E+01   7.1194E+01   0.0000E+00  0.0000
   7.1194E+01   7.2926E+01   0.0000E+00  0.0000
   7.2926E+01   7.4701E+01   0.0000E+00  0.0000
   7.4701E+01   7.6518E+01   0.0000E+00  0.0000
   7.6518E+01   7.8380E+01   0.0000E+00  0.0000
   7.8380E+01   8.0287E+01   0.0000E+00  0.0000
   8.0287E+01   8.2240E+01   0.0000E+00  0.0000
   8.2240E+01   8.4241E+01   0.0000E+00  0.0000
   8.4241E+01   8.6291E+01   0.0000E+00  0.0000
   8.6291E+01   8.8391E+01   0.0000E+00  0.0000
   8.8391E+01   9.0541E+01   0.0000E+00  0.0000
   9.0541E+01   9.2744E+01   0.0000E+00  0.0000
   9.2744E+01   9.5001E+01   0.0000E+00  0.0000
   9.5001E+01   9.7312E+01   0.0000E+00  0.0000
   9.7312E+01   9.9680E+01   0.0000E+00  0.0000
   9.9680E+01   1.0211E+02   0.0000E+00  0.0000
   1.0211E+02   1.0459E+02   0.0000E+00  0.0000
   1.0459E+02   1.0713E+02   0.0000E+00  0.0000
   1.0713E+02   1.0974E+02   0.0000E+00  0.0000
   1.0974E+02   1.1241E+02   0.0000E+00  0.0000
   1.1241E+02   1.1515E+02   0.0000E+00  0.0000
   1.1515E+02   1.1795E+02   0.0000E+00  0.0000
   1.1795E+02   1.2082E+02   0.0000E+00  0.0000
   1.2082E+02   1.2376E+02   0.0000E+00  0.0000
   1.2376E+02   1.2677E+02   0.0000E+00  0.0000
   1.2677E+02   1.2985E+02   0.0000E+00  0.0000
   1.2985E+02   1.3301E+02   0.0000E+00  0.0000
   1.3301E+02   1.3625E+02   0.0000E+00  0.0000
   1.3625E+02   1.3956E+02   0.0000E+00  0.0000
   1.3956E+02   1.4296E+02   0.0000E+00  0.0000
   1.4296E+02   1.4644E+02   0.0000E+00  0.0000
   1.4644E+02   1.5000E+02   0.0000E+00  0.0000

#   sum over                 4.8323E-06
'no. =    1   reg = 120 - 220'
msuc: {\huge [t-cross] in region mesh}
msdr: {\it plotted by \ANGEL \version}
msdl: {\it calculated by \PHITS  3.26}
wt: s(0.7)
\vspace{-3}
  region surface crossing
  area  &=&   1.0000E+00 [cm^2]
e:
 
# Information for Restart Calculation
# This calculation was newly started
# istdev =  2 # 1:Batch variance, 2:History variance
# resc2  = 6.00000000000000000E+08 # Total source weight or Total source weight / maxcas
# resc3  = 6.00000000000000000E+08 # Total history number or Total batch number
# maxcas =   100000000 # History / Batch, only used for istdev=1
# bitrseed = 0110000111011010110101010111000111000010001011110111101110101011 # bit data of rseed
