[ T-Cross ]
    title = [t-cross] in region mesh
     mesh =  reg            # mesh type is region-wise
      reg =    1            # number of crossing regions
      non     r-from    r-to       area
      1       116       216        1.000000    
   e-type =    3            # e-mesh is log given by emin, emax and ne
     emin =  1.0000000E-02  # minimum value of e-mesh points
     emax =   150.0000      # maximum value of e-mesh points
#    edel =  2.4039514E-02  # mesh width of e-mesh points
       ne =    400          # number of e-mesh points
#    data = ( e(i), i = 1, ne + 1 )
#           1.00000E-02  1.02433E-02  1.04925E-02  1.07478E-02  1.10093E-02
#           1.12772E-02  1.15516E-02  1.18326E-02  1.21205E-02  1.24154E-02
#           1.27175E-02  1.30269E-02  1.33439E-02  1.36686E-02  1.40011E-02
#           1.43418E-02  1.46907E-02  1.50482E-02  1.54143E-02  1.57894E-02
#           1.61735E-02  1.65670E-02  1.69701E-02  1.73830E-02  1.78060E-02
#           1.82392E-02  1.86830E-02  1.91375E-02  1.96032E-02  2.00801E-02
#           2.05687E-02  2.10692E-02  2.15818E-02  2.21069E-02  2.26448E-02
#           2.31957E-02  2.37601E-02  2.43382E-02  2.49304E-02  2.55369E-02
#           2.61583E-02  2.67947E-02  2.74467E-02  2.81145E-02  2.87985E-02
#           2.94992E-02  3.02169E-02  3.09521E-02  3.17052E-02  3.24766E-02
#           3.32668E-02  3.40762E-02  3.49053E-02  3.57546E-02  3.66246E-02
#           3.75157E-02  3.84284E-02  3.93634E-02  4.03212E-02  4.13022E-02
#           4.23071E-02  4.33365E-02  4.43909E-02  4.54710E-02  4.65773E-02
#           4.77106E-02  4.88714E-02  5.00605E-02  5.12785E-02  5.25262E-02
#           5.38042E-02  5.51133E-02  5.64542E-02  5.78278E-02  5.92348E-02
#           6.06760E-02  6.21523E-02  6.36645E-02  6.52135E-02  6.68002E-02
#           6.84255E-02  7.00904E-02  7.17957E-02  7.35426E-02  7.53319E-02
#           7.71648E-02  7.90423E-02  8.09655E-02  8.29354E-02  8.49533E-02
#           8.70203E-02  8.91376E-02  9.13064E-02  9.35279E-02  9.58035E-02
#           9.81345E-02  1.00522E-01  1.02968E-01  1.05473E-01  1.08040E-01
#           1.10668E-01  1.13361E-01  1.16119E-01  1.18944E-01  1.21838E-01
#           1.24803E-01  1.27839E-01  1.30950E-01  1.34136E-01  1.37399E-01
#           1.40742E-01  1.44167E-01  1.47675E-01  1.51268E-01  1.54948E-01
#           1.58718E-01  1.62580E-01  1.66535E-01  1.70587E-01  1.74738E-01
#           1.78989E-01  1.83344E-01  1.87805E-01  1.92375E-01  1.97055E-01
#           2.01850E-01  2.06761E-01  2.11792E-01  2.16945E-01  2.22223E-01
#           2.27630E-01  2.33169E-01  2.38842E-01  2.44653E-01  2.50605E-01
#           2.56703E-01  2.62949E-01  2.69346E-01  2.75900E-01  2.82613E-01
#           2.89489E-01  2.96532E-01  3.03747E-01  3.11138E-01  3.18708E-01
#           3.26462E-01  3.34405E-01  3.42542E-01  3.50876E-01  3.59413E-01
#           3.68158E-01  3.77116E-01  3.86291E-01  3.95690E-01  4.05317E-01
#           4.15179E-01  4.25281E-01  4.35628E-01  4.46227E-01  4.57084E-01
#           4.68205E-01  4.79597E-01  4.91266E-01  5.03219E-01  5.15463E-01
#           5.28005E-01  5.40851E-01  5.54011E-01  5.67490E-01  5.81298E-01
#           5.95441E-01  6.09929E-01  6.24769E-01  6.39970E-01  6.55541E-01
#           6.71491E-01  6.87828E-01  7.04564E-01  7.21706E-01  7.39266E-01
#           7.57253E-01  7.75678E-01  7.94551E-01  8.13883E-01  8.33685E-01
#           8.53969E-01  8.74747E-01  8.96030E-01  9.17831E-01  9.40163E-01
#           9.63038E-01  9.86469E-01  1.01047E+00  1.03506E+00  1.06024E+00
#           1.08604E+00  1.11246E+00  1.13953E+00  1.16725E+00  1.19565E+00
#           1.22474E+00  1.25454E+00  1.28507E+00  1.31633E+00  1.34836E+00
#           1.38117E+00  1.41477E+00  1.44920E+00  1.48446E+00  1.52057E+00
#           1.55757E+00  1.59547E+00  1.63429E+00  1.67405E+00  1.71478E+00
#           1.75650E+00  1.79924E+00  1.84302E+00  1.88786E+00  1.93379E+00
#           1.98084E+00  2.02904E+00  2.07841E+00  2.12898E+00  2.18078E+00
#           2.23384E+00  2.28819E+00  2.34386E+00  2.40089E+00  2.45930E+00
#           2.51914E+00  2.58043E+00  2.64322E+00  2.70753E+00  2.77341E+00
#           2.84088E+00  2.91001E+00  2.98081E+00  3.05333E+00  3.12762E+00
#           3.20372E+00  3.28167E+00  3.36152E+00  3.44330E+00  3.52708E+00
#           3.61290E+00  3.70080E+00  3.79085E+00  3.88308E+00  3.97756E+00
#           4.07434E+00  4.17347E+00  4.27501E+00  4.37903E+00  4.48557E+00
#           4.59471E+00  4.70650E+00  4.82102E+00  4.93832E+00  5.05847E+00
#           5.18155E+00  5.30762E+00  5.43676E+00  5.56904E+00  5.70453E+00
#           5.84333E+00  5.98550E+00  6.13114E+00  6.28031E+00  6.43312E+00
#           6.58964E+00  6.74997E+00  6.91420E+00  7.08243E+00  7.25475E+00
#           7.43126E+00  7.61207E+00  7.79728E+00  7.98700E+00  8.18133E+00
#           8.38038E+00  8.58428E+00  8.79315E+00  9.00709E+00  9.22624E+00
#           9.45072E+00  9.68067E+00  9.91620E+00  1.01575E+01  1.04046E+01
#           1.06578E+01  1.09171E+01  1.11827E+01  1.14548E+01  1.17335E+01
#           1.20190E+01  1.23114E+01  1.26109E+01  1.29178E+01  1.32321E+01
#           1.35540E+01  1.38838E+01  1.42216E+01  1.45676E+01  1.49221E+01
#           1.52851E+01  1.56570E+01  1.60380E+01  1.64282E+01  1.68279E+01
#           1.72374E+01  1.76568E+01  1.80864E+01  1.85264E+01  1.89772E+01
#           1.94389E+01  1.99119E+01  2.03963E+01  2.08926E+01  2.14009E+01
#           2.19216E+01  2.24550E+01  2.30014E+01  2.35610E+01  2.41343E+01
#           2.47215E+01  2.53230E+01  2.59391E+01  2.65702E+01  2.72167E+01
#           2.78789E+01  2.85572E+01  2.92520E+01  2.99637E+01  3.06928E+01
#           3.14396E+01  3.22045E+01  3.29881E+01  3.37907E+01  3.46128E+01
#           3.54550E+01  3.63177E+01  3.72013E+01  3.81064E+01  3.90336E+01
#           3.99833E+01  4.09561E+01  4.19526E+01  4.29734E+01  4.40189E+01
#           4.50900E+01  4.61870E+01  4.73108E+01  4.84619E+01  4.96410E+01
#           5.08488E+01  5.20860E+01  5.33533E+01  5.46514E+01  5.59812E+01
#           5.73432E+01  5.87384E+01  6.01676E+01  6.16315E+01  6.31311E+01
#           6.46671E+01  6.62405E+01  6.78522E+01  6.95031E+01  7.11941E+01
#           7.29263E+01  7.47007E+01  7.65182E+01  7.83800E+01  8.02870E+01
#           8.22405E+01  8.42414E+01  8.62911E+01  8.83906E+01  9.05412E+01
#           9.27442E+01  9.50007E+01  9.73122E+01  9.96799E+01  1.02105E+02
#           1.04589E+02  1.07134E+02  1.09741E+02  1.12411E+02  1.15146E+02
#           1.17948E+02  1.20817E+02  1.23757E+02  1.26768E+02  1.29852E+02
#           1.33012E+02  1.36248E+02  1.39563E+02  1.42959E+02  1.46437E+02
#           1.50000E+02
     unit =    2            # unit is [1/cm^2/(MeV/n)/source]
     axis =  eng            # axis of output
     file = detector-17.out  # file name of output for the above axis
   output = f-curr          # surface crossing forward current spectrum
     part =  neutron  
# kf/name :  2112     
#    used :        main (  %)        temp (  %)       total (  %)
#  memory :         414 (  0)           0 (  0)         414 (  0)

#------------------------------------------------------------------------------
#newpage:
#   no. =    1   reg = 116 - 216

x: Energy [MeV/n]
y:  F-Curr [1/cm^2/(MeV/n)/source]         
p: xlog ylog afac(0.8) form(0.9)
h: n            x            y(neutron ),hh0l   n 
#  e-lower      e-upper      neutron     r.err 
   1.0000E-02   1.0243E-02   5.7341E-04  0.1091
   1.0243E-02   1.0493E-02   4.8043E-04  0.1179
   1.0493E-02   1.0748E-02   6.8610E-04  0.0973
   1.0748E-02   1.1009E-02   4.6983E-04  0.1163
   1.1009E-02   1.1277E-02   5.3712E-04  0.1073
   1.1277E-02   1.1552E-02   5.1391E-04  0.1081
   1.1552E-02   1.1833E-02   5.9426E-04  0.0996
   1.1833E-02   1.2121E-02   5.5701E-04  0.1016
   1.2121E-02   1.2415E-02   5.4555E-04  0.1016
   1.2415E-02   1.2718E-02   4.1827E-04  0.1147
   1.2718E-02   1.3027E-02   4.6508E-04  0.1073
   1.3027E-02   1.3344E-02   4.8284E-04  0.1043
   1.3344E-02   1.3669E-02   4.7627E-04  0.1034
   1.3669E-02   1.4001E-02   4.7428E-04  0.1024
   1.4001E-02   1.4342E-02   4.7917E-04  0.1006
   1.4342E-02   1.4691E-02   4.0443E-04  0.1083
   1.4691E-02   1.5048E-02   5.5371E-04  0.0915
   1.5048E-02   1.5414E-02   4.4617E-04  0.1006
   1.5414E-02   1.5789E-02   4.0492E-04  0.1044
   1.5789E-02   1.6174E-02   3.9575E-04  0.1043
   1.6174E-02   1.6567E-02   3.9129E-04  0.1037
   1.6567E-02   1.6970E-02   4.0270E-04  0.1008
   1.6970E-02   1.7383E-02   3.5225E-04  0.1065
   1.7383E-02   1.7806E-02   3.5271E-04  0.1054
   1.7806E-02   1.8239E-02   3.7468E-04  0.1011
   1.8239E-02   1.8683E-02   3.4829E-04  0.1037
   1.8683E-02   1.9138E-02   3.3464E-04  0.1042
   1.9138E-02   1.9603E-02   3.2695E-04  0.1043
   1.9603E-02   2.0080E-02   2.9991E-04  0.1075
   2.0080E-02   2.0569E-02   3.1607E-04  0.1033
   2.0569E-02   2.1069E-02   2.4770E-04  0.1151
   2.1069E-02   2.1582E-02   2.9622E-04  0.1043
   2.1582E-02   2.2107E-02   3.2585E-04  0.0984
   2.2107E-02   2.2645E-02   2.9655E-04  0.1020
   2.2645E-02   2.3196E-02   2.6263E-04  0.1072
   2.3196E-02   2.3760E-02   2.8126E-04  0.1021
   2.3760E-02   2.4338E-02   2.9437E-04  0.0985
   2.4338E-02   2.4930E-02   2.4710E-04  0.1065
   2.4930E-02   2.5537E-02   2.6742E-04  0.1011
   2.5537E-02   2.6158E-02   2.5105E-04  0.1032
   2.6158E-02   2.6795E-02   2.7185E-04  0.0981
   2.6795E-02   2.7447E-02   2.6594E-04  0.0977
   2.7447E-02   2.8114E-02   2.6068E-04  0.0972
   2.8114E-02   2.8799E-02   2.4929E-04  0.0986
   2.8799E-02   2.9499E-02   2.7054E-04  0.0935
   2.9499E-02   3.0217E-02   2.0745E-04  0.1055
   3.0217E-02   3.0952E-02   2.8857E-04  0.0884
   3.0952E-02   3.1705E-02   2.1337E-04  0.1016
   3.1705E-02   3.2477E-02   2.3024E-04  0.0967
   3.2477E-02   3.3267E-02   2.3360E-04  0.0947
   3.3267E-02   3.4076E-02   2.0299E-04  0.1005
   3.4076E-02   3.4905E-02   1.7570E-04  0.1066
   3.4905E-02   3.5755E-02   2.2076E-04  0.0941
   3.5755E-02   3.6625E-02   2.1876E-04  0.0933
   3.6625E-02   3.7516E-02   1.6906E-04  0.1049
   3.7516E-02   3.8428E-02   1.7294E-04  0.1026
   3.8428E-02   3.9363E-02   2.0213E-04  0.0937
   3.9363E-02   4.0321E-02   1.7147E-04  0.1005
   4.0321E-02   4.1302E-02   1.5783E-04  0.1035
   4.1302E-02   4.2307E-02   1.6811E-04  0.0989
   4.2307E-02   4.3337E-02   2.1201E-04  0.0871
   4.3337E-02   4.4391E-02   1.6177E-04  0.0986
   4.4391E-02   4.5471E-02   1.5623E-04  0.0989
   4.5471E-02   4.6577E-02   1.6098E-04  0.0964
   4.6577E-02   4.7711E-02   1.4891E-04  0.0989
   4.7711E-02   4.8871E-02   1.4611E-04  0.0990
   4.8871E-02   5.0061E-02   1.5683E-04  0.0942
   5.0061E-02   5.1279E-02   1.4283E-04  0.0976
   5.1279E-02   5.2526E-02   1.5254E-04  0.0932
   5.2526E-02   5.3804E-02   1.5337E-04  0.0921
   5.3804E-02   5.5113E-02   1.4123E-04  0.0946
   5.5113E-02   5.6454E-02   1.3320E-04  0.0961
   5.6454E-02   5.7828E-02   1.4438E-04  0.0913
   5.7828E-02   5.9235E-02   1.1574E-04  0.1010
   5.9235E-02   6.0676E-02   1.2651E-04  0.0954
   6.0676E-02   6.2152E-02   1.2822E-04  0.0935
   6.2152E-02   6.3665E-02   1.1224E-04  0.0988
   6.3665E-02   6.5214E-02   1.2792E-04  0.0914
   6.5214E-02   6.6800E-02   1.2744E-04  0.0906
   6.6800E-02   6.8426E-02   1.1452E-04  0.0945
   6.8426E-02   7.0090E-02   1.1743E-04  0.0921
   7.0090E-02   7.1796E-02   8.3839E-05  0.1078
   7.1796E-02   7.3543E-02   1.1782E-04  0.0897
   7.3543E-02   7.5332E-02   9.0954E-05  0.1006
   7.5332E-02   7.7165E-02   9.3682E-05  0.0982
   7.7165E-02   7.9042E-02   1.0426E-04  0.0918
   7.9042E-02   8.0965E-02   9.6271E-05  0.0944
   8.0965E-02   8.2935E-02   8.7355E-05  0.0981
   8.2935E-02   8.4953E-02   9.5389E-05  0.0926
   8.4953E-02   8.7020E-02   1.0260E-04  0.0884
   8.7020E-02   8.9138E-02   9.3374E-05  0.0917
   8.9138E-02   9.1306E-02   1.0238E-04  0.0863
   9.1306E-02   9.3528E-02   8.9881E-05  0.0911
   9.3528E-02   9.5804E-02   7.2289E-05  0.1001
   9.5804E-02   9.8134E-02   8.5221E-05  0.0912
   9.8134E-02   1.0052E-01   8.2555E-05  0.0915
   1.0052E-01   1.0297E-01   8.6337E-05  0.0886
   1.0297E-01   1.0547E-01   1.0723E-04  0.0783
   1.0547E-01   1.0804E-01   9.9602E-05  0.0805
   1.0804E-01   1.1067E-01   8.8148E-05  0.0846
   1.1067E-01   1.1336E-01   9.7369E-05  0.0796
   1.1336E-01   1.1612E-01   9.2407E-05  0.0805
   1.1612E-01   1.1894E-01   1.0930E-04  0.0733
   1.1894E-01   1.2184E-01   1.1044E-04  0.0719
   1.2184E-01   1.2480E-01   1.4302E-04  0.0625
   1.2480E-01   1.2784E-01   1.1649E-04  0.0684
   1.2784E-01   1.3095E-01   1.2414E-04  0.0654
   1.3095E-01   1.3414E-01   1.2924E-04  0.0634
   1.3414E-01   1.3740E-01   1.4107E-04  0.0599
   1.3740E-01   1.4074E-01   1.3169E-04  0.0613
   1.4074E-01   1.4417E-01   1.4053E-04  0.0585
   1.4417E-01   1.4767E-01   1.4164E-04  0.0577
   1.4767E-01   1.5127E-01   1.5417E-04  0.0546
   1.5127E-01   1.5495E-01   1.6957E-04  0.0515
   1.5495E-01   1.5872E-01   1.6798E-04  0.0512
   1.5872E-01   1.6258E-01   1.8515E-04  0.0481
   1.6258E-01   1.6654E-01   1.7204E-04  0.0493
   1.6654E-01   1.7059E-01   1.7265E-04  0.0486
   1.7059E-01   1.7474E-01   1.9211E-04  0.0455
   1.7474E-01   1.7899E-01   1.9175E-04  0.0451
   1.7899E-01   1.8334E-01   1.8230E-04  0.0457
   1.8334E-01   1.8781E-01   1.9542E-04  0.0435
   1.8781E-01   1.9237E-01   2.1011E-04  0.0415
   1.9237E-01   1.9706E-01   2.2613E-04  0.0395
   1.9706E-01   2.0185E-01   2.1844E-04  0.0397
   2.0185E-01   2.0676E-01   2.2335E-04  0.0388
   2.0676E-01   2.1179E-01   2.3306E-04  0.0376
   2.1179E-01   2.1694E-01   2.3052E-04  0.0373
   2.1694E-01   2.2222E-01   2.3634E-04  0.0364
   2.2222E-01   2.2763E-01   2.5406E-04  0.0347
   2.2763E-01   2.3317E-01   2.6854E-04  0.0333
   2.3317E-01   2.3884E-01   2.6897E-04  0.0329
   2.3884E-01   2.4465E-01   2.7486E-04  0.0322
   2.4465E-01   2.5061E-01   2.9256E-04  0.0308
   2.5061E-01   2.5670E-01   2.7221E-04  0.0315
   2.5670E-01   2.6295E-01   3.0641E-04  0.0294
   2.6295E-01   2.6935E-01   2.8772E-04  0.0300
   2.6935E-01   2.7590E-01   3.0424E-04  0.0288
   2.7590E-01   2.8261E-01   3.0768E-04  0.0283
   2.8261E-01   2.8949E-01   3.1339E-04  0.0277
   2.8949E-01   2.9653E-01   3.2540E-04  0.0269
   2.9653E-01   3.0375E-01   3.2216E-04  0.0267
   3.0375E-01   3.1114E-01   3.5358E-04  0.0251
   3.1114E-01   3.1871E-01   3.3756E-04  0.0254
   3.1871E-01   3.2646E-01   3.5176E-04  0.0246
   3.2646E-01   3.3441E-01   3.5260E-04  0.0243
   3.3441E-01   3.4254E-01   3.5431E-04  0.0239
   3.4254E-01   3.5088E-01   3.7615E-04  0.0229
   3.5088E-01   3.5941E-01   3.7548E-04  0.0227
   3.5941E-01   3.6816E-01   3.9462E-04  0.0219
   3.6816E-01   3.7712E-01   3.8525E-04  0.0219
   3.7712E-01   3.8629E-01   4.0704E-04  0.0210
   3.8629E-01   3.9569E-01   4.1396E-04  0.0206
   3.9569E-01   4.0532E-01   4.2226E-04  0.0201
   4.0532E-01   4.1518E-01   4.2386E-04  0.0199
   4.1518E-01   4.2528E-01   4.1305E-04  0.0199
   4.2528E-01   4.3563E-01   4.3377E-04  0.0192
   4.3563E-01   4.4623E-01   4.2860E-04  0.0191
   4.4623E-01   4.5708E-01   4.1939E-04  0.0190
   4.5708E-01   4.6821E-01   4.3827E-04  0.0184
   4.6821E-01   4.7960E-01   4.5081E-04  0.0179
   4.7960E-01   4.9127E-01   4.5027E-04  0.0177
   4.9127E-01   5.0322E-01   4.5721E-04  0.0174
   5.0322E-01   5.1546E-01   4.6831E-04  0.0170
   5.1546E-01   5.2800E-01   4.5049E-04  0.0171
   5.2800E-01   5.4085E-01   4.5026E-04  0.0169
   5.4085E-01   5.5401E-01   4.6411E-04  0.0164
   5.5401E-01   5.6749E-01   4.7050E-04  0.0161
   5.6749E-01   5.8130E-01   4.5807E-04  0.0161
   5.8130E-01   5.9544E-01   4.5441E-04  0.0160
   5.9544E-01   6.0993E-01   4.6640E-04  0.0156
   6.0993E-01   6.2477E-01   4.5693E-04  0.0156
   6.2477E-01   6.3997E-01   4.4991E-04  0.0155
   6.3997E-01   6.5554E-01   4.5337E-04  0.0153
   6.5554E-01   6.7149E-01   4.6369E-04  0.0149
   6.7149E-01   6.8783E-01   4.5462E-04  0.0149
   6.8783E-01   7.0456E-01   4.4738E-04  0.0148
   7.0456E-01   7.2171E-01   4.5126E-04  0.0146
   7.2171E-01   7.3927E-01   4.4113E-04  0.0146
   7.3927E-01   7.5725E-01   4.4188E-04  0.0144
   7.5725E-01   7.7568E-01   4.3131E-04  0.0144
   7.7568E-01   7.9455E-01   4.2853E-04  0.0142
   7.9455E-01   8.1388E-01   4.2312E-04  0.0142
   8.1388E-01   8.3368E-01   4.1324E-04  0.0142
   8.3368E-01   8.5397E-01   4.1221E-04  0.0140
   8.5397E-01   8.7475E-01   3.9111E-04  0.0142
   8.7475E-01   8.9603E-01   3.8660E-04  0.0141
   8.9603E-01   9.1783E-01   3.7551E-04  0.0141
   9.1783E-01   9.4016E-01   3.6757E-04  0.0141
   9.4016E-01   9.6304E-01   3.5246E-04  0.0142
   9.6304E-01   9.8647E-01   3.3355E-04  0.0145
   9.8647E-01   1.0105E+00   3.1358E-04  0.0147
   1.0105E+00   1.0351E+00   3.2520E-04  0.0143
   1.0351E+00   1.0602E+00   3.2376E-04  0.0142
   1.0602E+00   1.0860E+00   3.2935E-04  0.0139
   1.0860E+00   1.1125E+00   3.2423E-04  0.0138
   1.1125E+00   1.1395E+00   3.3574E-04  0.0134
   1.1395E+00   1.1673E+00   3.4170E-04  0.0131
   1.1673E+00   1.1957E+00   3.4264E-04  0.0129
   1.1957E+00   1.2247E+00   3.4830E-04  0.0127
   1.2247E+00   1.2545E+00   3.5625E-04  0.0124
   1.2545E+00   1.2851E+00   3.5826E-04  0.0122
   1.2851E+00   1.3163E+00   3.5370E-04  0.0121
   1.3163E+00   1.3484E+00   3.6031E-04  0.0118
   1.3484E+00   1.3812E+00   3.5739E-04  0.0117
   1.3812E+00   1.4148E+00   3.6797E-04  0.0114
   1.4148E+00   1.4492E+00   3.5962E-04  0.0114
   1.4492E+00   1.4845E+00   3.6370E-04  0.0112
   1.4845E+00   1.5206E+00   3.4878E-04  0.0113
   1.5206E+00   1.5576E+00   3.5216E-04  0.0111
   1.5576E+00   1.5955E+00   3.4631E-04  0.0111
   1.5955E+00   1.6343E+00   3.4991E-04  0.0109
   1.6343E+00   1.6741E+00   3.4467E-04  0.0108
   1.6741E+00   1.7148E+00   3.4208E-04  0.0107
   1.7148E+00   1.7565E+00   3.2388E-04  0.0109
   1.7565E+00   1.7992E+00   3.1067E-04  0.0109
   1.7992E+00   1.8430E+00   2.9822E-04  0.0110
   1.8430E+00   1.8879E+00   2.9011E-04  0.0110
   1.8879E+00   1.9338E+00   2.8539E-04  0.0109
   1.9338E+00   1.9808E+00   2.7566E-04  0.0110
   1.9808E+00   2.0290E+00   2.7708E-04  0.0108
   2.0290E+00   2.0784E+00   2.7194E-04  0.0108
   2.0784E+00   2.1290E+00   2.8030E-04  0.0105
   2.1290E+00   2.1808E+00   2.7447E-04  0.0105
   2.1808E+00   2.2338E+00   2.7217E-04  0.0104
   2.2338E+00   2.2882E+00   2.6650E-04  0.0104
   2.2882E+00   2.3439E+00   2.5650E-04  0.0105
   2.3439E+00   2.4009E+00   2.5095E-04  0.0105
   2.4009E+00   2.4593E+00   2.5001E-04  0.0104
   2.4593E+00   2.5191E+00   2.4352E-04  0.0104
   2.5191E+00   2.5804E+00   2.4069E-04  0.0103
   2.5804E+00   2.6432E+00   2.2700E-04  0.0105
   2.6432E+00   2.7075E+00   2.2942E-04  0.0103
   2.7075E+00   2.7734E+00   2.1867E-04  0.0104
   2.7734E+00   2.8409E+00   2.1529E-04  0.0104
   2.8409E+00   2.9100E+00   2.1319E-04  0.0103
   2.9100E+00   2.9808E+00   2.1224E-04  0.0103
   2.9808E+00   3.0533E+00   2.0599E-04  0.0103
   3.0533E+00   3.1276E+00   1.9851E-04  0.0104
   3.1276E+00   3.2037E+00   1.9641E-04  0.0103
   3.2037E+00   3.2817E+00   1.9444E-04  0.0102
   3.2817E+00   3.3615E+00   1.9091E-04  0.0102
   3.3615E+00   3.4433E+00   1.8185E-04  0.0103
   3.4433E+00   3.5271E+00   1.8335E-04  0.0102
   3.5271E+00   3.6129E+00   1.7603E-04  0.0103
   3.6129E+00   3.7008E+00   1.7023E-04  0.0103
   3.7008E+00   3.7908E+00   1.6479E-04  0.0104
   3.7908E+00   3.8831E+00   1.6382E-04  0.0103
   3.8831E+00   3.9776E+00   1.5624E-04  0.0104
   3.9776E+00   4.0743E+00   1.5437E-04  0.0103
   4.0743E+00   4.1735E+00   1.5073E-04  0.0103
   4.1735E+00   4.2750E+00   1.4547E-04  0.0104
   4.2750E+00   4.3790E+00   1.3905E-04  0.0105
   4.3790E+00   4.4856E+00   1.3611E-04  0.0105
   4.4856E+00   4.5947E+00   1.3104E-04  0.0106
   4.5947E+00   4.7065E+00   1.2652E-04  0.0106
   4.7065E+00   4.8210E+00   1.2261E-04  0.0107
   4.8210E+00   4.9383E+00   1.2011E-04  0.0106
   4.9383E+00   5.0585E+00   1.1447E-04  0.0108
   5.0585E+00   5.1815E+00   1.0950E-04  0.0109
   5.1815E+00   5.3076E+00   1.0819E-04  0.0108
   5.3076E+00   5.4368E+00   1.0325E-04  0.0109
   5.4368E+00   5.5690E+00   1.0038E-04  0.0110
   5.5690E+00   5.7045E+00   9.5398E-05  0.0111
   5.7045E+00   5.8433E+00   9.3277E-05  0.0111
   5.8433E+00   5.9855E+00   9.0596E-05  0.0112
   5.9855E+00   6.1311E+00   8.5859E-05  0.0113
   6.1311E+00   6.2803E+00   8.2019E-05  0.0115
   6.2803E+00   6.4331E+00   7.8299E-05  0.0116
   6.4331E+00   6.5896E+00   7.4299E-05  0.0118
   6.5896E+00   6.7500E+00   7.0345E-05  0.0119
   6.7500E+00   6.9142E+00   6.6932E-05  0.0121
   6.9142E+00   7.0824E+00   6.5148E-05  0.0121
   7.0824E+00   7.2548E+00   5.9165E-05  0.0126
   7.2548E+00   7.4313E+00   5.7683E-05  0.0126
   7.4313E+00   7.6121E+00   5.1666E-05  0.0131
   7.6121E+00   7.7973E+00   4.7652E-05  0.0135
   7.7973E+00   7.9870E+00   4.5206E-05  0.0137
   7.9870E+00   8.1813E+00   4.2709E-05  0.0140
   8.1813E+00   8.3804E+00   3.9476E-05  0.0143
   8.3804E+00   8.5843E+00   3.8113E-05  0.0144
   8.5843E+00   8.7931E+00   3.5733E-05  0.0147
   8.7931E+00   9.0071E+00   3.2597E-05  0.0153
   9.0071E+00   9.2262E+00   3.1865E-05  0.0153
   9.2262E+00   9.4507E+00   2.9271E-05  0.0157
   9.4507E+00   9.6807E+00   2.6771E-05  0.0163
   9.6807E+00   9.9162E+00   2.6096E-05  0.0163
   9.9162E+00   1.0157E+01   2.4666E-05  0.0166
   1.0157E+01   1.0405E+01   2.3178E-05  0.0169
   1.0405E+01   1.0658E+01   2.1104E-05  0.0175
   1.0658E+01   1.0917E+01   2.0191E-05  0.0177
   1.0917E+01   1.1183E+01   1.8841E-05  0.0181
   1.1183E+01   1.1455E+01   1.7840E-05  0.0184
   1.1455E+01   1.1733E+01   1.6045E-05  0.0192
   1.1733E+01   1.2019E+01   1.6008E-05  0.0190
   1.2019E+01   1.2311E+01   1.4585E-05  0.0196
   1.2311E+01   1.2611E+01   1.3303E-05  0.0203
   1.2611E+01   1.2918E+01   1.2650E-05  0.0206
   1.2918E+01   1.3232E+01   1.1958E-05  0.0210
   1.3232E+01   1.3554E+01   1.1370E-05  0.0213
   1.3554E+01   1.3884E+01   9.9975E-06  0.0224
   1.3884E+01   1.4222E+01   9.7599E-06  0.0224
   1.4222E+01   1.4568E+01   8.9020E-06  0.0232
   1.4568E+01   1.4922E+01   8.6124E-06  0.0233
   1.4922E+01   1.5285E+01   7.9957E-06  0.0239
   1.5285E+01   1.5657E+01   7.7244E-06  0.0240
   1.5657E+01   1.6038E+01   6.9793E-06  0.0250
   1.6038E+01   1.6428E+01   6.3245E-06  0.0259
   1.6428E+01   1.6828E+01   5.9617E-06  0.0264
   1.6828E+01   1.7237E+01   5.5496E-06  0.0270
   1.7237E+01   1.7657E+01   5.3548E-06  0.0272
   1.7657E+01   1.8086E+01   5.0713E-06  0.0276
   1.8086E+01   1.8526E+01   4.5810E-06  0.0287
   1.8526E+01   1.8977E+01   4.1337E-06  0.0299
   1.8977E+01   1.9439E+01   3.9328E-06  0.0303
   1.9439E+01   1.9912E+01   3.6491E-06  0.0311
   1.9912E+01   2.0396E+01   3.3094E-06  0.0322
   2.0396E+01   2.0893E+01   3.1469E-06  0.0327
   2.0893E+01   2.1401E+01   2.5934E-06  0.0356
   2.1401E+01   2.1922E+01   2.5094E-06  0.0357
   2.1922E+01   2.2455E+01   2.1186E-06  0.0384
   2.2455E+01   2.3001E+01   2.0774E-06  0.0383
   2.3001E+01   2.3561E+01   1.8702E-06  0.0399
   2.3561E+01   2.4134E+01   1.4886E-06  0.0442
   2.4134E+01   2.4721E+01   1.3993E-06  0.0450
   2.4721E+01   2.5323E+01   1.2718E-06  0.0467
   2.5323E+01   2.5939E+01   1.0333E-06  0.0512
   2.5939E+01   2.6570E+01   8.9260E-07  0.0544
   2.6570E+01   2.7217E+01   8.1725E-07  0.0562
   2.7217E+01   2.7879E+01   7.0975E-07  0.0595
   2.7879E+01   2.8557E+01   5.1844E-07  0.0688
   2.8557E+01   2.9252E+01   4.1737E-07  0.0758
   2.9252E+01   2.9964E+01   3.1848E-07  0.0857
   2.9964E+01   3.0693E+01   3.2234E-07  0.0842
   3.0693E+01   3.1440E+01   2.9460E-07  0.0870
   3.1440E+01   3.2205E+01   1.7866E-07  0.1104
   3.2205E+01   3.2988E+01   1.7442E-07  0.1104
   3.2988E+01   3.3791E+01   1.4120E-07  0.1213
   3.3791E+01   3.4613E+01   1.1960E-07  0.1302
   3.4613E+01   3.5455E+01   7.3225E-08  0.1644
   3.5455E+01   3.6318E+01   7.1485E-08  0.1644
   3.6318E+01   3.7201E+01   6.0357E-08  0.1768
   3.7201E+01   3.8106E+01   4.2351E-08  0.2085
   3.8106E+01   3.9034E+01   1.6178E-08  0.3333
   3.9034E+01   3.9983E+01   1.2284E-08  0.3780
   3.9983E+01   4.0956E+01   6.8529E-09  0.5000
   4.0956E+01   4.1953E+01   8.3626E-09  0.4472
   4.1953E+01   4.2973E+01   4.8984E-09  0.5774
   4.2973E+01   4.4019E+01   4.7821E-09  0.5774
   4.4019E+01   4.5090E+01   3.1123E-09  0.7071
   4.5090E+01   4.6187E+01   1.5192E-09  1.0000
   4.6187E+01   4.7311E+01   1.4831E-09  1.0000
   4.7311E+01   4.8462E+01   1.4479E-09  1.0000
   4.8462E+01   4.9641E+01   0.0000E+00  0.0000
   4.9641E+01   5.0849E+01   0.0000E+00  0.0000
   5.0849E+01   5.2086E+01   0.0000E+00  0.0000
   5.2086E+01   5.3353E+01   0.0000E+00  0.0000
   5.3353E+01   5.4651E+01   0.0000E+00  0.0000
   5.4651E+01   5.5981E+01   0.0000E+00  0.0000
   5.5981E+01   5.7343E+01   0.0000E+00  0.0000
   5.7343E+01   5.8738E+01   0.0000E+00  0.0000
   5.8738E+01   6.0168E+01   0.0000E+00  0.0000
   6.0168E+01   6.1632E+01   0.0000E+00  0.0000
   6.1632E+01   6.3131E+01   0.0000E+00  0.0000
   6.3131E+01   6.4667E+01   0.0000E+00  0.0000
   6.4667E+01   6.6240E+01   0.0000E+00  0.0000
   6.6240E+01   6.7852E+01   0.0000E+00  0.0000
   6.7852E+01   6.9503E+01   0.0000E+00  0.0000
   6.9503E+01   7.1194E+01   0.0000E+00  0.0000
   7.1194E+01   7.2926E+01   0.0000E+00  0.0000
   7.2926E+01   7.4701E+01   0.0000E+00  0.0000
   7.4701E+01   7.6518E+01   0.0000E+00  0.0000
   7.6518E+01   7.8380E+01   0.0000E+00  0.0000
   7.8380E+01   8.0287E+01   0.0000E+00  0.0000
   8.0287E+01   8.2240E+01   0.0000E+00  0.0000
   8.2240E+01   8.4241E+01   0.0000E+00  0.0000
   8.4241E+01   8.6291E+01   0.0000E+00  0.0000
   8.6291E+01   8.8391E+01   0.0000E+00  0.0000
   8.8391E+01   9.0541E+01   0.0000E+00  0.0000
   9.0541E+01   9.2744E+01   0.0000E+00  0.0000
   9.2744E+01   9.5001E+01   0.0000E+00  0.0000
   9.5001E+01   9.7312E+01   0.0000E+00  0.0000
   9.7312E+01   9.9680E+01   0.0000E+00  0.0000
   9.9680E+01   1.0211E+02   0.0000E+00  0.0000
   1.0211E+02   1.0459E+02   0.0000E+00  0.0000
   1.0459E+02   1.0713E+02   0.0000E+00  0.0000
   1.0713E+02   1.0974E+02   0.0000E+00  0.0000
   1.0974E+02   1.1241E+02   0.0000E+00  0.0000
   1.1241E+02   1.1515E+02   0.0000E+00  0.0000
   1.1515E+02   1.1795E+02   0.0000E+00  0.0000
   1.1795E+02   1.2082E+02   0.0000E+00  0.0000
   1.2082E+02   1.2376E+02   0.0000E+00  0.0000
   1.2376E+02   1.2677E+02   0.0000E+00  0.0000
   1.2677E+02   1.2985E+02   0.0000E+00  0.0000
   1.2985E+02   1.3301E+02   0.0000E+00  0.0000
   1.3301E+02   1.3625E+02   0.0000E+00  0.0000
   1.3625E+02   1.3956E+02   0.0000E+00  0.0000
   1.3956E+02   1.4296E+02   0.0000E+00  0.0000
   1.4296E+02   1.4644E+02   0.0000E+00  0.0000
   1.4644E+02   1.5000E+02   0.0000E+00  0.0000

#   sum over                 1.0992E-05
'no. =    1   reg = 116 - 216'
msuc: {\huge [t-cross] in region mesh}
msdr: {\it plotted by \ANGEL \version}
msdl: {\it calculated by \PHITS  3.26}
wt: s(0.7)
\vspace{-3}
  region surface crossing
  area  &=&   1.0000E+00 [cm^2]
e:
 
# Information for Restart Calculation
# This calculation was newly started
# istdev =  2 # 1:Batch variance, 2:History variance
# resc2  = 6.00000000000000000E+08 # Total source weight or Total source weight / maxcas
# resc3  = 6.00000000000000000E+08 # Total history number or Total batch number
# maxcas =   100000000 # History / Batch, only used for istdev=1
# bitrseed = 0110000111011010110101010111000111000010001011110111101110101011 # bit data of rseed
