[ T-Cross ]
    title = [t-cross] in region mesh
     mesh =  reg            # mesh type is region-wise
      reg =    1            # number of crossing regions
      non     r-from    r-to       area
      1       108       208        1.000000    
   e-type =    3            # e-mesh is log given by emin, emax and ne
     emin =  1.0000000E-02  # minimum value of e-mesh points
     emax =   150.0000      # maximum value of e-mesh points
#    edel =  2.4039514E-02  # mesh width of e-mesh points
       ne =    400          # number of e-mesh points
#    data = ( e(i), i = 1, ne + 1 )
#           1.00000E-02  1.02433E-02  1.04925E-02  1.07478E-02  1.10093E-02
#           1.12772E-02  1.15516E-02  1.18326E-02  1.21205E-02  1.24154E-02
#           1.27175E-02  1.30269E-02  1.33439E-02  1.36686E-02  1.40011E-02
#           1.43418E-02  1.46907E-02  1.50482E-02  1.54143E-02  1.57894E-02
#           1.61735E-02  1.65670E-02  1.69701E-02  1.73830E-02  1.78060E-02
#           1.82392E-02  1.86830E-02  1.91375E-02  1.96032E-02  2.00801E-02
#           2.05687E-02  2.10692E-02  2.15818E-02  2.21069E-02  2.26448E-02
#           2.31957E-02  2.37601E-02  2.43382E-02  2.49304E-02  2.55369E-02
#           2.61583E-02  2.67947E-02  2.74467E-02  2.81145E-02  2.87985E-02
#           2.94992E-02  3.02169E-02  3.09521E-02  3.17052E-02  3.24766E-02
#           3.32668E-02  3.40762E-02  3.49053E-02  3.57546E-02  3.66246E-02
#           3.75157E-02  3.84284E-02  3.93634E-02  4.03212E-02  4.13022E-02
#           4.23071E-02  4.33365E-02  4.43909E-02  4.54710E-02  4.65773E-02
#           4.77106E-02  4.88714E-02  5.00605E-02  5.12785E-02  5.25262E-02
#           5.38042E-02  5.51133E-02  5.64542E-02  5.78278E-02  5.92348E-02
#           6.06760E-02  6.21523E-02  6.36645E-02  6.52135E-02  6.68002E-02
#           6.84255E-02  7.00904E-02  7.17957E-02  7.35426E-02  7.53319E-02
#           7.71648E-02  7.90423E-02  8.09655E-02  8.29354E-02  8.49533E-02
#           8.70203E-02  8.91376E-02  9.13064E-02  9.35279E-02  9.58035E-02
#           9.81345E-02  1.00522E-01  1.02968E-01  1.05473E-01  1.08040E-01
#           1.10668E-01  1.13361E-01  1.16119E-01  1.18944E-01  1.21838E-01
#           1.24803E-01  1.27839E-01  1.30950E-01  1.34136E-01  1.37399E-01
#           1.40742E-01  1.44167E-01  1.47675E-01  1.51268E-01  1.54948E-01
#           1.58718E-01  1.62580E-01  1.66535E-01  1.70587E-01  1.74738E-01
#           1.78989E-01  1.83344E-01  1.87805E-01  1.92375E-01  1.97055E-01
#           2.01850E-01  2.06761E-01  2.11792E-01  2.16945E-01  2.22223E-01
#           2.27630E-01  2.33169E-01  2.38842E-01  2.44653E-01  2.50605E-01
#           2.56703E-01  2.62949E-01  2.69346E-01  2.75900E-01  2.82613E-01
#           2.89489E-01  2.96532E-01  3.03747E-01  3.11138E-01  3.18708E-01
#           3.26462E-01  3.34405E-01  3.42542E-01  3.50876E-01  3.59413E-01
#           3.68158E-01  3.77116E-01  3.86291E-01  3.95690E-01  4.05317E-01
#           4.15179E-01  4.25281E-01  4.35628E-01  4.46227E-01  4.57084E-01
#           4.68205E-01  4.79597E-01  4.91266E-01  5.03219E-01  5.15463E-01
#           5.28005E-01  5.40851E-01  5.54011E-01  5.67490E-01  5.81298E-01
#           5.95441E-01  6.09929E-01  6.24769E-01  6.39970E-01  6.55541E-01
#           6.71491E-01  6.87828E-01  7.04564E-01  7.21706E-01  7.39266E-01
#           7.57253E-01  7.75678E-01  7.94551E-01  8.13883E-01  8.33685E-01
#           8.53969E-01  8.74747E-01  8.96030E-01  9.17831E-01  9.40163E-01
#           9.63038E-01  9.86469E-01  1.01047E+00  1.03506E+00  1.06024E+00
#           1.08604E+00  1.11246E+00  1.13953E+00  1.16725E+00  1.19565E+00
#           1.22474E+00  1.25454E+00  1.28507E+00  1.31633E+00  1.34836E+00
#           1.38117E+00  1.41477E+00  1.44920E+00  1.48446E+00  1.52057E+00
#           1.55757E+00  1.59547E+00  1.63429E+00  1.67405E+00  1.71478E+00
#           1.75650E+00  1.79924E+00  1.84302E+00  1.88786E+00  1.93379E+00
#           1.98084E+00  2.02904E+00  2.07841E+00  2.12898E+00  2.18078E+00
#           2.23384E+00  2.28819E+00  2.34386E+00  2.40089E+00  2.45930E+00
#           2.51914E+00  2.58043E+00  2.64322E+00  2.70753E+00  2.77341E+00
#           2.84088E+00  2.91001E+00  2.98081E+00  3.05333E+00  3.12762E+00
#           3.20372E+00  3.28167E+00  3.36152E+00  3.44330E+00  3.52708E+00
#           3.61290E+00  3.70080E+00  3.79085E+00  3.88308E+00  3.97756E+00
#           4.07434E+00  4.17347E+00  4.27501E+00  4.37903E+00  4.48557E+00
#           4.59471E+00  4.70650E+00  4.82102E+00  4.93832E+00  5.05847E+00
#           5.18155E+00  5.30762E+00  5.43676E+00  5.56904E+00  5.70453E+00
#           5.84333E+00  5.98550E+00  6.13114E+00  6.28031E+00  6.43312E+00
#           6.58964E+00  6.74997E+00  6.91420E+00  7.08243E+00  7.25475E+00
#           7.43126E+00  7.61207E+00  7.79728E+00  7.98700E+00  8.18133E+00
#           8.38038E+00  8.58428E+00  8.79315E+00  9.00709E+00  9.22624E+00
#           9.45072E+00  9.68067E+00  9.91620E+00  1.01575E+01  1.04046E+01
#           1.06578E+01  1.09171E+01  1.11827E+01  1.14548E+01  1.17335E+01
#           1.20190E+01  1.23114E+01  1.26109E+01  1.29178E+01  1.32321E+01
#           1.35540E+01  1.38838E+01  1.42216E+01  1.45676E+01  1.49221E+01
#           1.52851E+01  1.56570E+01  1.60380E+01  1.64282E+01  1.68279E+01
#           1.72374E+01  1.76568E+01  1.80864E+01  1.85264E+01  1.89772E+01
#           1.94389E+01  1.99119E+01  2.03963E+01  2.08926E+01  2.14009E+01
#           2.19216E+01  2.24550E+01  2.30014E+01  2.35610E+01  2.41343E+01
#           2.47215E+01  2.53230E+01  2.59391E+01  2.65702E+01  2.72167E+01
#           2.78789E+01  2.85572E+01  2.92520E+01  2.99637E+01  3.06928E+01
#           3.14396E+01  3.22045E+01  3.29881E+01  3.37907E+01  3.46128E+01
#           3.54550E+01  3.63177E+01  3.72013E+01  3.81064E+01  3.90336E+01
#           3.99833E+01  4.09561E+01  4.19526E+01  4.29734E+01  4.40189E+01
#           4.50900E+01  4.61870E+01  4.73108E+01  4.84619E+01  4.96410E+01
#           5.08488E+01  5.20860E+01  5.33533E+01  5.46514E+01  5.59812E+01
#           5.73432E+01  5.87384E+01  6.01676E+01  6.16315E+01  6.31311E+01
#           6.46671E+01  6.62405E+01  6.78522E+01  6.95031E+01  7.11941E+01
#           7.29263E+01  7.47007E+01  7.65182E+01  7.83800E+01  8.02870E+01
#           8.22405E+01  8.42414E+01  8.62911E+01  8.83906E+01  9.05412E+01
#           9.27442E+01  9.50007E+01  9.73122E+01  9.96799E+01  1.02105E+02
#           1.04589E+02  1.07134E+02  1.09741E+02  1.12411E+02  1.15146E+02
#           1.17948E+02  1.20817E+02  1.23757E+02  1.26768E+02  1.29852E+02
#           1.33012E+02  1.36248E+02  1.39563E+02  1.42959E+02  1.46437E+02
#           1.50000E+02
     unit =    2            # unit is [1/cm^2/(MeV/n)/source]
     axis =  eng            # axis of output
     file = detector-09.out  # file name of output for the above axis
   output = f-curr          # surface crossing forward current spectrum
     part =  neutron  
# kf/name :  2112     
#    used :        main (  %)        temp (  %)       total (  %)
#  memory :         414 (  0)           0 (  0)         414 (  0)

#------------------------------------------------------------------------------
#newpage:
#   no. =    1   reg = 108 - 208

x: Energy [MeV/n]
y:  F-Curr [1/cm^2/(MeV/n)/source]         
p: xlog ylog afac(0.8) form(0.9)
h: n            x            y(neutron ),hh0l   n 
#  e-lower      e-upper      neutron     r.err 
   1.0000E-02   1.0243E-02   4.8389E-03  0.0130
   1.0243E-02   1.0493E-02   4.7521E-03  0.0130
   1.0493E-02   1.0748E-02   4.7057E-03  0.0129
   1.0748E-02   1.1009E-02   4.5913E-03  0.0129
   1.1009E-02   1.1277E-02   4.4465E-03  0.0129
   1.1277E-02   1.1552E-02   4.2655E-03  0.0130
   1.1552E-02   1.1833E-02   4.2448E-03  0.0129
   1.1833E-02   1.2121E-02   4.1779E-03  0.0129
   1.2121E-02   1.2415E-02   4.1183E-03  0.0128
   1.2415E-02   1.2718E-02   3.9271E-03  0.0130
   1.2718E-02   1.3027E-02   3.9182E-03  0.0128
   1.3027E-02   1.3344E-02   3.7940E-03  0.0129
   1.3344E-02   1.3669E-02   3.7785E-03  0.0127
   1.3669E-02   1.4001E-02   3.6215E-03  0.0129
   1.4001E-02   1.4342E-02   3.6043E-03  0.0127
   1.4342E-02   1.4691E-02   3.5739E-03  0.0126
   1.4691E-02   1.5048E-02   3.5437E-03  0.0125
   1.5048E-02   1.5414E-02   3.3585E-03  0.0127
   1.5414E-02   1.5789E-02   3.3103E-03  0.0127
   1.5789E-02   1.6174E-02   3.2600E-03  0.0126
   1.6174E-02   1.6567E-02   3.1790E-03  0.0126
   1.6567E-02   1.6970E-02   3.0879E-03  0.0126
   1.6970E-02   1.7383E-02   3.1064E-03  0.0125
   1.7383E-02   1.7806E-02   2.9520E-03  0.0126
   1.7806E-02   1.8239E-02   2.8990E-03  0.0126
   1.8239E-02   1.8683E-02   2.8825E-03  0.0125
   1.8683E-02   1.9138E-02   2.7979E-03  0.0125
   1.9138E-02   1.9603E-02   2.7361E-03  0.0125
   1.9603E-02   2.0080E-02   2.7269E-03  0.0124
   2.0080E-02   2.0569E-02   2.5678E-03  0.0126
   2.0569E-02   2.1069E-02   2.5712E-03  0.0124
   2.1069E-02   2.1582E-02   2.5309E-03  0.0124
   2.1582E-02   2.2107E-02   2.4539E-03  0.0124
   2.2107E-02   2.2645E-02   2.3633E-03  0.0125
   2.2645E-02   2.3196E-02   2.3590E-03  0.0124
   2.3196E-02   2.3760E-02   2.2611E-03  0.0125
   2.3760E-02   2.4338E-02   2.2328E-03  0.0124
   2.4338E-02   2.4930E-02   2.2392E-03  0.0122
   2.4930E-02   2.5537E-02   2.2016E-03  0.0122
   2.5537E-02   2.6158E-02   2.0728E-03  0.0124
   2.6158E-02   2.6795E-02   2.0326E-03  0.0124
   2.6795E-02   2.7447E-02   2.0102E-03  0.0123
   2.7447E-02   2.8114E-02   1.9672E-03  0.0123
   2.8114E-02   2.8799E-02   1.9835E-03  0.0121
   2.8799E-02   2.9499E-02   1.8726E-03  0.0123
   2.9499E-02   3.0217E-02   1.8696E-03  0.0122
   3.0217E-02   3.0952E-02   1.8384E-03  0.0121
   3.0952E-02   3.1705E-02   1.7648E-03  0.0122
   3.1705E-02   3.2477E-02   1.7588E-03  0.0121
   3.2477E-02   3.3267E-02   1.6940E-03  0.0122
   3.3267E-02   3.4076E-02   1.6607E-03  0.0122
   3.4076E-02   3.4905E-02   1.6769E-03  0.0120
   3.4905E-02   3.5755E-02   1.5821E-03  0.0122
   3.5755E-02   3.6625E-02   1.5349E-03  0.0122
   3.6625E-02   3.7516E-02   1.5276E-03  0.0121
   3.7516E-02   3.8428E-02   1.5246E-03  0.0120
   3.8428E-02   3.9363E-02   1.4518E-03  0.0121
   3.9363E-02   4.0321E-02   1.4357E-03  0.0120
   4.0321E-02   4.1302E-02   1.3863E-03  0.0121
   4.1302E-02   4.2307E-02   1.3735E-03  0.0120
   4.2307E-02   4.3337E-02   1.3547E-03  0.0119
   4.3337E-02   4.4391E-02   1.3114E-03  0.0120
   4.4391E-02   4.5471E-02   1.2895E-03  0.0119
   4.5471E-02   4.6577E-02   1.2839E-03  0.0118
   4.6577E-02   4.7711E-02   1.2318E-03  0.0119
   4.7711E-02   4.8871E-02   1.2310E-03  0.0118
   4.8871E-02   5.0061E-02   1.1938E-03  0.0118
   5.0061E-02   5.1279E-02   1.1674E-03  0.0118
   5.1279E-02   5.2526E-02   1.1753E-03  0.0116
   5.2526E-02   5.3804E-02   1.1549E-03  0.0116
   5.3804E-02   5.5113E-02   1.1252E-03  0.0116
   5.5113E-02   5.6454E-02   1.0997E-03  0.0116
   5.6454E-02   5.7828E-02   1.0578E-03  0.0117
   5.7828E-02   5.9235E-02   1.0342E-03  0.0117
   5.9235E-02   6.0676E-02   1.0046E-03  0.0117
   6.0676E-02   6.2152E-02   1.0082E-03  0.0116
   6.2152E-02   6.3665E-02   9.8348E-04  0.0116
   6.3665E-02   6.5214E-02   9.5140E-04  0.0116
   6.5214E-02   6.6800E-02   9.4382E-04  0.0115
   6.6800E-02   6.8426E-02   9.2650E-04  0.0115
   6.8426E-02   7.0090E-02   8.9858E-04  0.0115
   7.0090E-02   7.1796E-02   8.7805E-04  0.0115
   7.1796E-02   7.3543E-02   8.8277E-04  0.0114
   7.3543E-02   7.5332E-02   8.4225E-04  0.0115
   7.5332E-02   7.7165E-02   8.4143E-04  0.0114
   7.7165E-02   7.9042E-02   8.0424E-04  0.0115
   7.9042E-02   8.0965E-02   8.0120E-04  0.0114
   8.0965E-02   8.2935E-02   7.9410E-04  0.0113
   8.2935E-02   8.4953E-02   7.8017E-04  0.0112
   8.4953E-02   8.7020E-02   7.4897E-04  0.0113
   8.7020E-02   8.9138E-02   7.3221E-04  0.0113
   8.9138E-02   9.1306E-02   7.3396E-04  0.0112
   9.1306E-02   9.3528E-02   7.0217E-04  0.0113
   9.3528E-02   9.5804E-02   6.8641E-04  0.0113
   9.5804E-02   9.8134E-02   6.8212E-04  0.0112
   9.8134E-02   1.0052E-01   6.6725E-04  0.0112
   1.0052E-01   1.0297E-01   6.5570E-04  0.0111
   1.0297E-01   1.0547E-01   6.4050E-04  0.0111
   1.0547E-01   1.0804E-01   6.3551E-04  0.0110
   1.0804E-01   1.1067E-01   6.0318E-04  0.0112
   1.1067E-01   1.1336E-01   5.9196E-04  0.0112
   1.1336E-01   1.1612E-01   5.9081E-04  0.0110
   1.1612E-01   1.1894E-01   5.7631E-04  0.0111
   1.1894E-01   1.2184E-01   5.6881E-04  0.0110
   1.2184E-01   1.2480E-01   5.5126E-04  0.0110
   1.2480E-01   1.2784E-01   5.3959E-04  0.0110
   1.2784E-01   1.3095E-01   5.2694E-04  0.0110
   1.3095E-01   1.3414E-01   5.1650E-04  0.0110
   1.3414E-01   1.3740E-01   5.0828E-04  0.0110
   1.3740E-01   1.4074E-01   5.1231E-04  0.0108
   1.4074E-01   1.4417E-01   4.9549E-04  0.0108
   1.4417E-01   1.4767E-01   4.8287E-04  0.0108
   1.4767E-01   1.5127E-01   4.7457E-04  0.0108
   1.5127E-01   1.5495E-01   4.6005E-04  0.0108
   1.5495E-01   1.5872E-01   4.4684E-04  0.0109
   1.5872E-01   1.6258E-01   4.4878E-04  0.0107
   1.6258E-01   1.6654E-01   4.4150E-04  0.0107
   1.6654E-01   1.7059E-01   4.2661E-04  0.0107
   1.7059E-01   1.7474E-01   4.1608E-04  0.0107
   1.7474E-01   1.7899E-01   4.0966E-04  0.0107
   1.7899E-01   1.8334E-01   4.0266E-04  0.0107
   1.8334E-01   1.8781E-01   3.9093E-04  0.0107
   1.8781E-01   1.9237E-01   3.9137E-04  0.0105
   1.9237E-01   1.9706E-01   3.8050E-04  0.0106
   1.9706E-01   2.0185E-01   3.7725E-04  0.0105
   2.0185E-01   2.0676E-01   3.8358E-04  0.0103
   2.0676E-01   2.1179E-01   3.9351E-04  0.0100
   2.1179E-01   2.1694E-01   4.0572E-04  0.0098
   2.1694E-01   2.2222E-01   4.1659E-04  0.0095
   2.2222E-01   2.2763E-01   4.3263E-04  0.0092
   2.2763E-01   2.3317E-01   4.4230E-04  0.0090
   2.3317E-01   2.3884E-01   4.6089E-04  0.0087
   2.3884E-01   2.4465E-01   4.7389E-04  0.0085
   2.4465E-01   2.5061E-01   4.9143E-04  0.0082
   2.5061E-01   2.5670E-01   5.0824E-04  0.0080
   2.5670E-01   2.6295E-01   5.1695E-04  0.0078
   2.6295E-01   2.6935E-01   5.3368E-04  0.0076
   2.6935E-01   2.7590E-01   5.4850E-04  0.0074
   2.7590E-01   2.8261E-01   5.6489E-04  0.0072
   2.8261E-01   2.8949E-01   5.8468E-04  0.0070
   2.8949E-01   2.9653E-01   5.9471E-04  0.0069
   2.9653E-01   3.0375E-01   6.1311E-04  0.0067
   3.0375E-01   3.1114E-01   6.3369E-04  0.0065
   3.1114E-01   3.1871E-01   6.5199E-04  0.0063
   3.1871E-01   3.2646E-01   6.6150E-04  0.0062
   3.2646E-01   3.3441E-01   6.8926E-04  0.0060
   3.3441E-01   3.4254E-01   6.9707E-04  0.0059
   3.4254E-01   3.5088E-01   7.2112E-04  0.0058
   3.5088E-01   3.5941E-01   7.3502E-04  0.0056
   3.5941E-01   3.6816E-01   7.5161E-04  0.0055
   3.6816E-01   3.7712E-01   7.6731E-04  0.0054
   3.7712E-01   3.8629E-01   7.8905E-04  0.0052
   3.8629E-01   3.9569E-01   8.0145E-04  0.0051
   3.9569E-01   4.0532E-01   8.0893E-04  0.0051
   4.0532E-01   4.1518E-01   8.4105E-04  0.0049
   4.1518E-01   4.2528E-01   8.5545E-04  0.0048
   4.2528E-01   4.3563E-01   8.6663E-04  0.0047
   4.3563E-01   4.4623E-01   8.9123E-04  0.0046
   4.4623E-01   4.5708E-01   9.1425E-04  0.0045
   4.5708E-01   4.6821E-01   9.2660E-04  0.0044
   4.6821E-01   4.7960E-01   9.4664E-04  0.0043
   4.7960E-01   4.9127E-01   9.5743E-04  0.0042
   4.9127E-01   5.0322E-01   9.6836E-04  0.0041
   5.0322E-01   5.1546E-01   9.9780E-04  0.0040
   5.1546E-01   5.2800E-01   1.0078E-03  0.0040
   5.2800E-01   5.4085E-01   1.0272E-03  0.0039
   5.4085E-01   5.5401E-01   1.0399E-03  0.0038
   5.5401E-01   5.6749E-01   1.0628E-03  0.0037
   5.6749E-01   5.8130E-01   1.0819E-03  0.0036
   5.8130E-01   5.9544E-01   1.0871E-03  0.0036
   5.9544E-01   6.0993E-01   1.1069E-03  0.0035
   6.0993E-01   6.2477E-01   1.1239E-03  0.0035
   6.2477E-01   6.3997E-01   1.1429E-03  0.0034
   6.3997E-01   6.5554E-01   1.1516E-03  0.0033
   6.5554E-01   6.7149E-01   1.1663E-03  0.0033
   6.7149E-01   6.8783E-01   1.1910E-03  0.0032
   6.8783E-01   7.0456E-01   1.1962E-03  0.0032
   7.0456E-01   7.2171E-01   1.2067E-03  0.0031
   7.2171E-01   7.3927E-01   1.2202E-03  0.0030
   7.3927E-01   7.5725E-01   1.2353E-03  0.0030
   7.5725E-01   7.7568E-01   1.2545E-03  0.0029
   7.7568E-01   7.9455E-01   1.2652E-03  0.0029
   7.9455E-01   8.1388E-01   1.2773E-03  0.0028
   8.1388E-01   8.3368E-01   1.2846E-03  0.0028
   8.3368E-01   8.5397E-01   1.2910E-03  0.0028
   8.5397E-01   8.7475E-01   1.3100E-03  0.0027
   8.7475E-01   8.9603E-01   1.3154E-03  0.0027
   8.9603E-01   9.1783E-01   1.3314E-03  0.0026
   9.1783E-01   9.4016E-01   1.3365E-03  0.0026
   9.4016E-01   9.6304E-01   1.3503E-03  0.0025
   9.6304E-01   9.8647E-01   1.3581E-03  0.0025
   9.8647E-01   1.0105E+00   1.3735E-03  0.0025
   1.0105E+00   1.0351E+00   1.3752E-03  0.0024
   1.0351E+00   1.0602E+00   1.3592E-03  0.0024
   1.0602E+00   1.0860E+00   1.3638E-03  0.0024
   1.0860E+00   1.1125E+00   1.3639E-03  0.0023
   1.1125E+00   1.1395E+00   1.3572E-03  0.0023
   1.1395E+00   1.1673E+00   1.3657E-03  0.0023
   1.1673E+00   1.1957E+00   1.3691E-03  0.0023
   1.1957E+00   1.2247E+00   1.3907E-03  0.0022
   1.2247E+00   1.2545E+00   1.3823E-03  0.0022
   1.2545E+00   1.2851E+00   1.3725E-03  0.0022
   1.2851E+00   1.3163E+00   1.3602E-03  0.0022
   1.3163E+00   1.3484E+00   1.3611E-03  0.0021
   1.3484E+00   1.3812E+00   1.3538E-03  0.0021
   1.3812E+00   1.4148E+00   1.3624E-03  0.0021
   1.4148E+00   1.4492E+00   1.3620E-03  0.0021
   1.4492E+00   1.4845E+00   1.3592E-03  0.0020
   1.4845E+00   1.5206E+00   1.3541E-03  0.0020
   1.5206E+00   1.5576E+00   1.3404E-03  0.0020
   1.5576E+00   1.5955E+00   1.3302E-03  0.0020
   1.5955E+00   1.6343E+00   1.3163E-03  0.0020
   1.6343E+00   1.6741E+00   1.3063E-03  0.0020
   1.6741E+00   1.7148E+00   1.2890E-03  0.0019
   1.7148E+00   1.7565E+00   1.2805E-03  0.0019
   1.7565E+00   1.7992E+00   1.2743E-03  0.0019
   1.7992E+00   1.8430E+00   1.2733E-03  0.0019
   1.8430E+00   1.8879E+00   1.2561E-03  0.0019
   1.8879E+00   1.9338E+00   1.2405E-03  0.0019
   1.9338E+00   1.9808E+00   1.2314E-03  0.0019
   1.9808E+00   2.0290E+00   1.2229E-03  0.0018
   2.0290E+00   2.0784E+00   1.2087E-03  0.0018
   2.0784E+00   2.1290E+00   1.1921E-03  0.0018
   2.1290E+00   2.1808E+00   1.1773E-03  0.0018
   2.1808E+00   2.2338E+00   1.1628E-03  0.0018
   2.2338E+00   2.2882E+00   1.1459E-03  0.0018
   2.2882E+00   2.3439E+00   1.1261E-03  0.0018
   2.3439E+00   2.4009E+00   1.1140E-03  0.0018
   2.4009E+00   2.4593E+00   1.1048E-03  0.0018
   2.4593E+00   2.5191E+00   1.0919E-03  0.0017
   2.5191E+00   2.5804E+00   1.0753E-03  0.0017
   2.5804E+00   2.6432E+00   1.0548E-03  0.0017
   2.6432E+00   2.7075E+00   1.0393E-03  0.0017
   2.7075E+00   2.7734E+00   1.0246E-03  0.0017
   2.7734E+00   2.8409E+00   1.0069E-03  0.0017
   2.8409E+00   2.9100E+00   9.9103E-04  0.0017
   2.9100E+00   2.9808E+00   9.7768E-04  0.0017
   2.9808E+00   3.0533E+00   9.6746E-04  0.0017
   3.0533E+00   3.1276E+00   9.4928E-04  0.0017
   3.1276E+00   3.2037E+00   9.3264E-04  0.0017
   3.2037E+00   3.2817E+00   9.1976E-04  0.0017
   3.2817E+00   3.3615E+00   9.0118E-04  0.0017
   3.3615E+00   3.4433E+00   8.8963E-04  0.0016
   3.4433E+00   3.5271E+00   8.7831E-04  0.0016
   3.5271E+00   3.6129E+00   8.6448E-04  0.0016
   3.6129E+00   3.7008E+00   8.5027E-04  0.0016
   3.7008E+00   3.7908E+00   8.3385E-04  0.0016
   3.7908E+00   3.8831E+00   8.2291E-04  0.0016
   3.8831E+00   3.9776E+00   8.0976E-04  0.0016
   3.9776E+00   4.0743E+00   7.9947E-04  0.0016
   4.0743E+00   4.1735E+00   7.8746E-04  0.0016
   4.1735E+00   4.2750E+00   7.7499E-04  0.0016
   4.2750E+00   4.3790E+00   7.6717E-04  0.0016
   4.3790E+00   4.4856E+00   7.6066E-04  0.0016
   4.4856E+00   4.5947E+00   7.6266E-04  0.0015
   4.5947E+00   4.7065E+00   7.6949E-04  0.0015
   4.7065E+00   4.8210E+00   7.7712E-04  0.0015
   4.8210E+00   4.9383E+00   7.7511E-04  0.0015
   4.9383E+00   5.0585E+00   7.6838E-04  0.0015
   5.0585E+00   5.1815E+00   7.6799E-04  0.0014
   5.1815E+00   5.3076E+00   7.5876E-04  0.0014
   5.3076E+00   5.4368E+00   7.5058E-04  0.0014
   5.4368E+00   5.5690E+00   7.3977E-04  0.0014
   5.5690E+00   5.7045E+00   7.3092E-04  0.0014
   5.7045E+00   5.8433E+00   7.2153E-04  0.0014
   5.8433E+00   5.9855E+00   7.1040E-04  0.0014
   5.9855E+00   6.1311E+00   7.0204E-04  0.0014
   6.1311E+00   6.2803E+00   6.9381E-04  0.0014
   6.2803E+00   6.4331E+00   6.8734E-04  0.0014
   6.4331E+00   6.5896E+00   6.8023E-04  0.0014
   6.5896E+00   6.7500E+00   6.7005E-04  0.0014
   6.7500E+00   6.9142E+00   6.6524E-04  0.0013
   6.9142E+00   7.0824E+00   6.6019E-04  0.0013
   7.0824E+00   7.2548E+00   6.6029E-04  0.0013
   7.2548E+00   7.4313E+00   6.6253E-04  0.0013
   7.4313E+00   7.6121E+00   6.5674E-04  0.0013
   7.6121E+00   7.7973E+00   6.4684E-04  0.0013
   7.7973E+00   7.9870E+00   6.4126E-04  0.0013
   7.9870E+00   8.1813E+00   6.3448E-04  0.0013
   8.1813E+00   8.3804E+00   6.2610E-04  0.0013
   8.3804E+00   8.5843E+00   6.2010E-04  0.0013
   8.5843E+00   8.7931E+00   6.1460E-04  0.0012
   8.7931E+00   9.0071E+00   6.0982E-04  0.0012
   9.0071E+00   9.2262E+00   6.0182E-04  0.0012
   9.2262E+00   9.4507E+00   5.9447E-04  0.0012
   9.4507E+00   9.6807E+00   5.9027E-04  0.0012
   9.6807E+00   9.9162E+00   5.8554E-04  0.0012
   9.9162E+00   1.0157E+01   5.7971E-04  0.0012
   1.0157E+01   1.0405E+01   5.7635E-04  0.0012
   1.0405E+01   1.0658E+01   5.7294E-04  0.0012
   1.0658E+01   1.0917E+01   5.7108E-04  0.0012
   1.0917E+01   1.1183E+01   5.6482E-04  0.0012
   1.1183E+01   1.1455E+01   5.6279E-04  0.0011
   1.1455E+01   1.1733E+01   5.5831E-04  0.0011
   1.1733E+01   1.2019E+01   5.5261E-04  0.0011
   1.2019E+01   1.2311E+01   5.4765E-04  0.0011
   1.2311E+01   1.2611E+01   5.4213E-04  0.0011
   1.2611E+01   1.2918E+01   5.3722E-04  0.0011
   1.2918E+01   1.3232E+01   5.3088E-04  0.0011
   1.3232E+01   1.3554E+01   5.2719E-04  0.0011
   1.3554E+01   1.3884E+01   5.2301E-04  0.0011
   1.3884E+01   1.4222E+01   5.1646E-04  0.0011
   1.4222E+01   1.4568E+01   5.1220E-04  0.0011
   1.4568E+01   1.4922E+01   5.0692E-04  0.0011
   1.4922E+01   1.5285E+01   5.0256E-04  0.0010
   1.5285E+01   1.5657E+01   4.9685E-04  0.0010
   1.5657E+01   1.6038E+01   4.9142E-04  0.0010
   1.6038E+01   1.6428E+01   4.8712E-04  0.0010
   1.6428E+01   1.6828E+01   4.8224E-04  0.0010
   1.6828E+01   1.7237E+01   4.7624E-04  0.0010
   1.7237E+01   1.7657E+01   4.7124E-04  0.0010
   1.7657E+01   1.8086E+01   4.6740E-04  0.0010
   1.8086E+01   1.8526E+01   4.6206E-04  0.0010
   1.8526E+01   1.8977E+01   4.5937E-04  0.0010
   1.8977E+01   1.9439E+01   4.5906E-04  0.0010
   1.9439E+01   1.9912E+01   4.5910E-04  0.0010
   1.9912E+01   2.0396E+01   4.6177E-04  0.0009
   2.0396E+01   2.0893E+01   4.5852E-04  0.0009
   2.0893E+01   2.1401E+01   4.5381E-04  0.0009
   2.1401E+01   2.1922E+01   4.4781E-04  0.0009
   2.1922E+01   2.2455E+01   4.4250E-04  0.0009
   2.2455E+01   2.3001E+01   4.3578E-04  0.0009
   2.3001E+01   2.3561E+01   4.2931E-04  0.0009
   2.3561E+01   2.4134E+01   4.2301E-04  0.0009
   2.4134E+01   2.4721E+01   4.1661E-04  0.0009
   2.4721E+01   2.5323E+01   4.1003E-04  0.0009
   2.5323E+01   2.5939E+01   4.0242E-04  0.0009
   2.5939E+01   2.6570E+01   3.9529E-04  0.0009
   2.6570E+01   2.7217E+01   3.8775E-04  0.0009
   2.7217E+01   2.7879E+01   3.7975E-04  0.0009
   2.7879E+01   2.8557E+01   3.7135E-04  0.0009
   2.8557E+01   2.9252E+01   3.6209E-04  0.0009
   2.9252E+01   2.9964E+01   3.5418E-04  0.0009
   2.9964E+01   3.0693E+01   3.4437E-04  0.0009
   3.0693E+01   3.1440E+01   3.3490E-04  0.0009
   3.1440E+01   3.2205E+01   3.2507E-04  0.0009
   3.2205E+01   3.2988E+01   3.1516E-04  0.0009
   3.2988E+01   3.3791E+01   3.0429E-04  0.0009
   3.3791E+01   3.4613E+01   2.9377E-04  0.0009
   3.4613E+01   3.5455E+01   2.8284E-04  0.0009
   3.5455E+01   3.6318E+01   2.7109E-04  0.0009
   3.6318E+01   3.7201E+01   2.6055E-04  0.0009
   3.7201E+01   3.8106E+01   2.4872E-04  0.0009
   3.8106E+01   3.9034E+01   2.3765E-04  0.0010
   3.9034E+01   3.9983E+01   2.2634E-04  0.0010
   3.9983E+01   4.0956E+01   2.1460E-04  0.0010
   4.0956E+01   4.1953E+01   2.0359E-04  0.0010
   4.1953E+01   4.2973E+01   1.9183E-04  0.0010
   4.2973E+01   4.4019E+01   1.8062E-04  0.0010
   4.4019E+01   4.5090E+01   1.6942E-04  0.0011
   4.5090E+01   4.6187E+01   1.5854E-04  0.0011
   4.6187E+01   4.7311E+01   1.4786E-04  0.0011
   4.7311E+01   4.8462E+01   1.3778E-04  0.0011
   4.8462E+01   4.9641E+01   1.2805E-04  0.0012
   4.9641E+01   5.0849E+01   1.1854E-04  0.0012
   5.0849E+01   5.2086E+01   1.0951E-04  0.0012
   5.2086E+01   5.3353E+01   1.0074E-04  0.0013
   5.3353E+01   5.4651E+01   9.2760E-05  0.0013
   5.4651E+01   5.5981E+01   8.4847E-05  0.0013
   5.5981E+01   5.7343E+01   7.7838E-05  0.0014
   5.7343E+01   5.8738E+01   7.1066E-05  0.0014
   5.8738E+01   6.0168E+01   6.4870E-05  0.0015
   6.0168E+01   6.1632E+01   5.9174E-05  0.0015
   6.1632E+01   6.3131E+01   5.3716E-05  0.0016
   6.3131E+01   6.4667E+01   4.8964E-05  0.0016
   6.4667E+01   6.6240E+01   4.4390E-05  0.0017
   6.6240E+01   6.7852E+01   4.0205E-05  0.0018
   6.7852E+01   6.9503E+01   3.6446E-05  0.0018
   6.9503E+01   7.1194E+01   3.2875E-05  0.0019
   7.1194E+01   7.2926E+01   2.9833E-05  0.0020
   7.2926E+01   7.4701E+01   2.6849E-05  0.0020
   7.4701E+01   7.6518E+01   2.4292E-05  0.0021
   7.6518E+01   7.8380E+01   2.1790E-05  0.0022
   7.8380E+01   8.0287E+01   1.9647E-05  0.0023
   8.0287E+01   8.2240E+01   1.7634E-05  0.0024
   8.2240E+01   8.4241E+01   1.5764E-05  0.0025
   8.4241E+01   8.6291E+01   1.4038E-05  0.0026
   8.6291E+01   8.8391E+01   1.2483E-05  0.0028
   8.8391E+01   9.0541E+01   1.0977E-05  0.0029
   9.0541E+01   9.2744E+01   9.6431E-06  0.0031
   9.2744E+01   9.5001E+01   8.4815E-06  0.0032
   9.5001E+01   9.7312E+01   7.4809E-06  0.0034
   9.7312E+01   9.9680E+01   6.6072E-06  0.0036
   9.9680E+01   1.0211E+02   5.6987E-06  0.0038
   1.0211E+02   1.0459E+02   4.8794E-06  0.0041
   1.0459E+02   1.0713E+02   4.0812E-06  0.0044
   1.0713E+02   1.0974E+02   3.4509E-06  0.0047
   1.0974E+02   1.1241E+02   2.9019E-06  0.0051
   1.1241E+02   1.1515E+02   2.3090E-06  0.0056
   1.1515E+02   1.1795E+02   1.8251E-06  0.0063
   1.1795E+02   1.2082E+02   1.4665E-06  0.0069
   1.2082E+02   1.2376E+02   1.1879E-06  0.0076
   1.2376E+02   1.2677E+02   7.4325E-07  0.0095
   1.2677E+02   1.2985E+02   2.6372E-07  0.0157
   1.2985E+02   1.3301E+02   1.5256E-08  0.0644
   1.3301E+02   1.3625E+02   1.2360E-10  0.7071
   1.3625E+02   1.3956E+02   0.0000E+00  0.0000
   1.3956E+02   1.4296E+02   0.0000E+00  0.0000
   1.4296E+02   1.4644E+02   0.0000E+00  0.0000
   1.4644E+02   1.5000E+02   0.0000E+00  0.0000

#   sum over                 1.5952E-04
'no. =    1   reg = 108 - 208'
msuc: {\huge [t-cross] in region mesh}
msdr: {\it plotted by \ANGEL \version}
msdl: {\it calculated by \PHITS  3.28}
wt: s(0.7)
\vspace{-3}
  region surface crossing
  area  &=&   1.0000E+00 [cm^2]
e:
 
# Information for Restart Calculation
# This calculation was newly started
# istdev =  2 # 1:Batch variance, 2:History variance
# resc2  = 5.00000000000000000E+09 # Total source weight or Total source weight / maxcas
# resc3  = 5.00000000000000000E+09 # Total history number or Total batch number
# maxcas =   500000000 # History / Batch, only used for istdev=1
# bitrseed = 0001101011110000011001100100101010101011111110100001111101011101 # bit data of rseed
