[ T-Cross ]
    title = [t-cross] in region mesh
     mesh =  reg            # mesh type is region-wise
      reg =    1            # number of crossing regions
      non     r-from    r-to       area
      1       113       213        1.000000    
   e-type =    3            # e-mesh is log given by emin, emax and ne
     emin =  1.0000000E-02  # minimum value of e-mesh points
     emax =   150.0000      # maximum value of e-mesh points
#    edel =  2.4039514E-02  # mesh width of e-mesh points
       ne =    400          # number of e-mesh points
#    data = ( e(i), i = 1, ne + 1 )
#           1.00000E-02  1.02433E-02  1.04925E-02  1.07478E-02  1.10093E-02
#           1.12772E-02  1.15516E-02  1.18326E-02  1.21205E-02  1.24154E-02
#           1.27175E-02  1.30269E-02  1.33439E-02  1.36686E-02  1.40011E-02
#           1.43418E-02  1.46907E-02  1.50482E-02  1.54143E-02  1.57894E-02
#           1.61735E-02  1.65670E-02  1.69701E-02  1.73830E-02  1.78060E-02
#           1.82392E-02  1.86830E-02  1.91375E-02  1.96032E-02  2.00801E-02
#           2.05687E-02  2.10692E-02  2.15818E-02  2.21069E-02  2.26448E-02
#           2.31957E-02  2.37601E-02  2.43382E-02  2.49304E-02  2.55369E-02
#           2.61583E-02  2.67947E-02  2.74467E-02  2.81145E-02  2.87985E-02
#           2.94992E-02  3.02169E-02  3.09521E-02  3.17052E-02  3.24766E-02
#           3.32668E-02  3.40762E-02  3.49053E-02  3.57546E-02  3.66246E-02
#           3.75157E-02  3.84284E-02  3.93634E-02  4.03212E-02  4.13022E-02
#           4.23071E-02  4.33365E-02  4.43909E-02  4.54710E-02  4.65773E-02
#           4.77106E-02  4.88714E-02  5.00605E-02  5.12785E-02  5.25262E-02
#           5.38042E-02  5.51133E-02  5.64542E-02  5.78278E-02  5.92348E-02
#           6.06760E-02  6.21523E-02  6.36645E-02  6.52135E-02  6.68002E-02
#           6.84255E-02  7.00904E-02  7.17957E-02  7.35426E-02  7.53319E-02
#           7.71648E-02  7.90423E-02  8.09655E-02  8.29354E-02  8.49533E-02
#           8.70203E-02  8.91376E-02  9.13064E-02  9.35279E-02  9.58035E-02
#           9.81345E-02  1.00522E-01  1.02968E-01  1.05473E-01  1.08040E-01
#           1.10668E-01  1.13361E-01  1.16119E-01  1.18944E-01  1.21838E-01
#           1.24803E-01  1.27839E-01  1.30950E-01  1.34136E-01  1.37399E-01
#           1.40742E-01  1.44167E-01  1.47675E-01  1.51268E-01  1.54948E-01
#           1.58718E-01  1.62580E-01  1.66535E-01  1.70587E-01  1.74738E-01
#           1.78989E-01  1.83344E-01  1.87805E-01  1.92375E-01  1.97055E-01
#           2.01850E-01  2.06761E-01  2.11792E-01  2.16945E-01  2.22223E-01
#           2.27630E-01  2.33169E-01  2.38842E-01  2.44653E-01  2.50605E-01
#           2.56703E-01  2.62949E-01  2.69346E-01  2.75900E-01  2.82613E-01
#           2.89489E-01  2.96532E-01  3.03747E-01  3.11138E-01  3.18708E-01
#           3.26462E-01  3.34405E-01  3.42542E-01  3.50876E-01  3.59413E-01
#           3.68158E-01  3.77116E-01  3.86291E-01  3.95690E-01  4.05317E-01
#           4.15179E-01  4.25281E-01  4.35628E-01  4.46227E-01  4.57084E-01
#           4.68205E-01  4.79597E-01  4.91266E-01  5.03219E-01  5.15463E-01
#           5.28005E-01  5.40851E-01  5.54011E-01  5.67490E-01  5.81298E-01
#           5.95441E-01  6.09929E-01  6.24769E-01  6.39970E-01  6.55541E-01
#           6.71491E-01  6.87828E-01  7.04564E-01  7.21706E-01  7.39266E-01
#           7.57253E-01  7.75678E-01  7.94551E-01  8.13883E-01  8.33685E-01
#           8.53969E-01  8.74747E-01  8.96030E-01  9.17831E-01  9.40163E-01
#           9.63038E-01  9.86469E-01  1.01047E+00  1.03506E+00  1.06024E+00
#           1.08604E+00  1.11246E+00  1.13953E+00  1.16725E+00  1.19565E+00
#           1.22474E+00  1.25454E+00  1.28507E+00  1.31633E+00  1.34836E+00
#           1.38117E+00  1.41477E+00  1.44920E+00  1.48446E+00  1.52057E+00
#           1.55757E+00  1.59547E+00  1.63429E+00  1.67405E+00  1.71478E+00
#           1.75650E+00  1.79924E+00  1.84302E+00  1.88786E+00  1.93379E+00
#           1.98084E+00  2.02904E+00  2.07841E+00  2.12898E+00  2.18078E+00
#           2.23384E+00  2.28819E+00  2.34386E+00  2.40089E+00  2.45930E+00
#           2.51914E+00  2.58043E+00  2.64322E+00  2.70753E+00  2.77341E+00
#           2.84088E+00  2.91001E+00  2.98081E+00  3.05333E+00  3.12762E+00
#           3.20372E+00  3.28167E+00  3.36152E+00  3.44330E+00  3.52708E+00
#           3.61290E+00  3.70080E+00  3.79085E+00  3.88308E+00  3.97756E+00
#           4.07434E+00  4.17347E+00  4.27501E+00  4.37903E+00  4.48557E+00
#           4.59471E+00  4.70650E+00  4.82102E+00  4.93832E+00  5.05847E+00
#           5.18155E+00  5.30762E+00  5.43676E+00  5.56904E+00  5.70453E+00
#           5.84333E+00  5.98550E+00  6.13114E+00  6.28031E+00  6.43312E+00
#           6.58964E+00  6.74997E+00  6.91420E+00  7.08243E+00  7.25475E+00
#           7.43126E+00  7.61207E+00  7.79728E+00  7.98700E+00  8.18133E+00
#           8.38038E+00  8.58428E+00  8.79315E+00  9.00709E+00  9.22624E+00
#           9.45072E+00  9.68067E+00  9.91620E+00  1.01575E+01  1.04046E+01
#           1.06578E+01  1.09171E+01  1.11827E+01  1.14548E+01  1.17335E+01
#           1.20190E+01  1.23114E+01  1.26109E+01  1.29178E+01  1.32321E+01
#           1.35540E+01  1.38838E+01  1.42216E+01  1.45676E+01  1.49221E+01
#           1.52851E+01  1.56570E+01  1.60380E+01  1.64282E+01  1.68279E+01
#           1.72374E+01  1.76568E+01  1.80864E+01  1.85264E+01  1.89772E+01
#           1.94389E+01  1.99119E+01  2.03963E+01  2.08926E+01  2.14009E+01
#           2.19216E+01  2.24550E+01  2.30014E+01  2.35610E+01  2.41343E+01
#           2.47215E+01  2.53230E+01  2.59391E+01  2.65702E+01  2.72167E+01
#           2.78789E+01  2.85572E+01  2.92520E+01  2.99637E+01  3.06928E+01
#           3.14396E+01  3.22045E+01  3.29881E+01  3.37907E+01  3.46128E+01
#           3.54550E+01  3.63177E+01  3.72013E+01  3.81064E+01  3.90336E+01
#           3.99833E+01  4.09561E+01  4.19526E+01  4.29734E+01  4.40189E+01
#           4.50900E+01  4.61870E+01  4.73108E+01  4.84619E+01  4.96410E+01
#           5.08488E+01  5.20860E+01  5.33533E+01  5.46514E+01  5.59812E+01
#           5.73432E+01  5.87384E+01  6.01676E+01  6.16315E+01  6.31311E+01
#           6.46671E+01  6.62405E+01  6.78522E+01  6.95031E+01  7.11941E+01
#           7.29263E+01  7.47007E+01  7.65182E+01  7.83800E+01  8.02870E+01
#           8.22405E+01  8.42414E+01  8.62911E+01  8.83906E+01  9.05412E+01
#           9.27442E+01  9.50007E+01  9.73122E+01  9.96799E+01  1.02105E+02
#           1.04589E+02  1.07134E+02  1.09741E+02  1.12411E+02  1.15146E+02
#           1.17948E+02  1.20817E+02  1.23757E+02  1.26768E+02  1.29852E+02
#           1.33012E+02  1.36248E+02  1.39563E+02  1.42959E+02  1.46437E+02
#           1.50000E+02
     unit =    2            # unit is [1/cm^2/(MeV/n)/source]
     axis =  eng            # axis of output
     file = detector-14.out  # file name of output for the above axis
   output = f-curr          # surface crossing forward current spectrum
     part =  neutron  
# kf/name :  2112     
#    used :        main (  %)        temp (  %)       total (  %)
#  memory :         414 (  0)           0 (  0)         414 (  0)

#------------------------------------------------------------------------------
#newpage:
#   no. =    1   reg = 113 - 213

x: Energy [MeV/n]
y:  F-Curr [1/cm^2/(MeV/n)/source]         
p: xlog ylog afac(0.8) form(0.9)
h: n            x            y(neutron ),hh0l   n 
#  e-lower      e-upper      neutron     r.err 
   1.0000E-02   1.0243E-02   5.9437E-05  0.1660
   1.0243E-02   1.0493E-02   5.4022E-05  0.1714
   1.0493E-02   1.0748E-02   5.8756E-05  0.1628
   1.0748E-02   1.1009E-02   5.5584E-05  0.1652
   1.1009E-02   1.1277E-02   6.3712E-05  0.1524
   1.1277E-02   1.1552E-02   4.4431E-05  0.1799
   1.1552E-02   1.1833E-02   5.2609E-05  0.1630
   1.1833E-02   1.2121E-02   5.4394E-05  0.1585
   1.2121E-02   1.2415E-02   3.7061E-05  0.1904
   1.2415E-02   1.2718E-02   4.4359E-05  0.1721
   1.2718E-02   1.3027E-02   5.6879E-05  0.1499
   1.3027E-02   1.3344E-02   4.6895E-05  0.1638
   1.3344E-02   1.3669E-02   4.6404E-05  0.1621
   1.3669E-02   1.4001E-02   4.8111E-05  0.1581
   1.4001E-02   1.4342E-02   3.5610E-05  0.1808
   1.4342E-02   1.4691E-02   4.3771E-05  0.1615
   1.4691E-02   1.5048E-02   5.0697E-05  0.1473
   1.5048E-02   1.5414E-02   4.2407E-05  0.1594
   1.5414E-02   1.5789E-02   3.4817E-05  0.1740
   1.5789E-02   1.6174E-02   3.4105E-05  0.1730
   1.6174E-02   1.6567E-02   4.6906E-05  0.1470
   1.6567E-02   1.6970E-02   4.9794E-05  0.1410
   1.6970E-02   1.7383E-02   3.1485E-05  0.1747
   1.7383E-02   1.7806E-02   4.2354E-05  0.1486
   1.7806E-02   1.8239E-02   3.1550E-05  0.1707
   1.8239E-02   1.8683E-02   4.1730E-05  0.1458
   1.8683E-02   1.9138E-02   2.1999E-05  0.2000
   1.9138E-02   1.9603E-02   2.2758E-05  0.1928
   1.9603E-02   2.0080E-02   3.1558E-05  0.1622
   2.0080E-02   2.0569E-02   2.5904E-05  0.1767
   2.0569E-02   2.1069E-02   2.8774E-05  0.1667
   2.1069E-02   2.1582E-02   2.5459E-05  0.1741
   2.1582E-02   2.2107E-02   2.7423E-05  0.1667
   2.2107E-02   2.2645E-02   3.4080E-05  0.1469
   2.2645E-02   2.3196E-02   2.3569E-05  0.1744
   2.3196E-02   2.3760E-02   3.1411E-05  0.1489
   2.3760E-02   2.4338E-02   2.2595E-05  0.1740
   2.4338E-02   2.4930E-02   3.2423E-05  0.1436
   2.4930E-02   2.5537E-02   2.8786E-05  0.1498
   2.5537E-02   2.6158E-02   2.4785E-05  0.1606
   2.6158E-02   2.6795E-02   1.9352E-05  0.1787
   2.6795E-02   2.7447E-02   2.1558E-05  0.1672
   2.7447E-02   2.8114E-02   2.4638E-05  0.1557
   2.8114E-02   2.8799E-02   2.2221E-05  0.1622
   2.8799E-02   2.9499E-02   1.9486E-05  0.1709
   2.9499E-02   3.0217E-02   1.5960E-05  0.1857
   3.0217E-02   3.0952E-02   1.3696E-05  0.1987
   3.0952E-02   3.1705E-02   2.2884E-05  0.1492
   3.1705E-02   3.2477E-02   1.7723E-05  0.1707
   3.2477E-02   3.3267E-02   1.6434E-05  0.1744
   3.3267E-02   3.4076E-02   2.0093E-05  0.1561
   3.4076E-02   3.4905E-02   1.9432E-05  0.1571
   3.4905E-02   3.5755E-02   1.7900E-05  0.1608
   3.5755E-02   3.6625E-02   2.1384E-05  0.1460
   3.6625E-02   3.7516E-02   1.5854E-05  0.1676
   3.7516E-02   3.8428E-02   1.6222E-05  0.1617
   3.8428E-02   3.9363E-02   1.8464E-05  0.1520
   3.9363E-02   4.0321E-02   1.5102E-05  0.1660
   4.0321E-02   4.1302E-02   1.8526E-05  0.1477
   4.1302E-02   4.2307E-02   1.4989E-05  0.1621
   4.2307E-02   4.3337E-02   1.3341E-05  0.1700
   4.3337E-02   4.4391E-02   1.4470E-05  0.1617
   4.4391E-02   4.5471E-02   1.2983E-05  0.1655
   4.5471E-02   4.6577E-02   1.5477E-05  0.1519
   4.6577E-02   4.7711E-02   1.2930E-05  0.1633
   4.7711E-02   4.8871E-02   1.7401E-05  0.1397
   4.8871E-02   5.0061E-02   1.3566E-05  0.1560
   5.0061E-02   5.1279E-02   1.4888E-05  0.1481
   5.1279E-02   5.2526E-02   9.2457E-06  0.1845
   5.2526E-02   5.3804E-02   1.3811E-05  0.1504
   5.3804E-02   5.5113E-02   1.1237E-05  0.1638
   5.5113E-02   5.6454E-02   1.0969E-05  0.1638
   5.6454E-02   5.7828E-02   1.4018E-05  0.1440
   5.7828E-02   5.9235E-02   9.5660E-06  0.1714
   5.9235E-02   6.0676E-02   1.2059E-05  0.1510
   6.0676E-02   6.2152E-02   8.5828E-06  0.1766
   6.2152E-02   6.3665E-02   7.9699E-06  0.1818
   6.3665E-02   6.5214E-02   9.3389E-06  0.1660
   6.5214E-02   6.6800E-02   9.6187E-06  0.1616
   6.6800E-02   6.8426E-02   1.0454E-05  0.1527
   6.8426E-02   7.0090E-02   1.0885E-05  0.1473
   7.0090E-02   7.1796E-02   9.9686E-06  0.1529
   7.1796E-02   7.3543E-02   7.7034E-06  0.1715
   7.3543E-02   7.5332E-02   8.5954E-06  0.1594
   7.5332E-02   7.7165E-02   7.8565E-06  0.1655
   7.7165E-02   7.9042E-02   1.0052E-05  0.1454
   7.9042E-02   8.0965E-02   7.1645E-06  0.1694
   8.0965E-02   8.2935E-02   8.5180E-06  0.1532
   8.2935E-02   8.4953E-02   8.4247E-06  0.1529
   8.4953E-02   8.7020E-02   9.3514E-06  0.1427
   8.7020E-02   8.9138E-02   6.8327E-06  0.1648
   8.9138E-02   9.1306E-02   9.9873E-06  0.1357
   9.1306E-02   9.3528E-02   6.4166E-06  0.1666
   9.3528E-02   9.5804E-02   6.2897E-06  0.1660
   9.5804E-02   9.8134E-02   6.3711E-06  0.1639
   9.8134E-02   1.0052E-01   6.7519E-06  0.1560
   1.0052E-01   1.0297E-01   5.7484E-06  0.1684
   1.0297E-01   1.0547E-01   5.2688E-06  0.1741
   1.0547E-01   1.0804E-01   5.6316E-06  0.1649
   1.0804E-01   1.1067E-01   8.0543E-06  0.1360
   1.1067E-01   1.1336E-01   5.1993E-06  0.1690
   1.1336E-01   1.1612E-01   4.8925E-06  0.1706
   1.1612E-01   1.1894E-01   6.8177E-06  0.1422
   1.1894E-01   1.2184E-01   5.9194E-06  0.1501
   1.2184E-01   1.2480E-01   5.8239E-06  0.1520
   1.2480E-01   1.2784E-01   5.5985E-06  0.1529
   1.2784E-01   1.3095E-01   4.9682E-06  0.1601
   1.3095E-01   1.3414E-01   6.1917E-06  0.1413
   1.3414E-01   1.3740E-01   5.4937E-06  0.1477
   1.3740E-01   1.4074E-01   4.8224E-06  0.1560
   1.4074E-01   1.4417E-01   5.6867E-06  0.1425
   1.4417E-01   1.4767E-01   3.9505E-06  0.1690
   1.4767E-01   1.5127E-01   4.0768E-06  0.1629
   1.5127E-01   1.5495E-01   5.5428E-06  0.1393
   1.5495E-01   1.5872E-01   4.7160E-06  0.1476
   1.5872E-01   1.6258E-01   4.8964E-06  0.1451
   1.6258E-01   1.6654E-01   4.9859E-06  0.1413
   1.6654E-01   1.7059E-01   3.8994E-06  0.1586
   1.7059E-01   1.7474E-01   5.2863E-06  0.1344
   1.7474E-01   1.7899E-01   3.9890E-06  0.1529
   1.7899E-01   1.8334E-01   4.2388E-06  0.1470
   1.8334E-01   1.8781E-01   3.6011E-06  0.1565
   1.8781E-01   1.9237E-01   4.0714E-06  0.1452
   1.9237E-01   1.9706E-01   3.6305E-06  0.1527
   1.9706E-01   2.0185E-01   3.6709E-06  0.1499
   2.0185E-01   2.0676E-01   4.6275E-06  0.1315
   2.0676E-01   2.1179E-01   3.5770E-06  0.1480
   2.1179E-01   2.1694E-01   5.0561E-06  0.1233
   2.1694E-01   2.2222E-01   4.3913E-06  0.1301
   2.2222E-01   2.2763E-01   5.2980E-06  0.1177
   2.2763E-01   2.3317E-01   4.3531E-06  0.1280
   2.3317E-01   2.3884E-01   5.4347E-06  0.1133
   2.3884E-01   2.4465E-01   5.7094E-06  0.1090
   2.4465E-01   2.5061E-01   7.4220E-06  0.0948
   2.5061E-01   2.5670E-01   5.4852E-06  0.1090
   2.5670E-01   2.6295E-01   8.0990E-06  0.0886
   2.6295E-01   2.6935E-01   6.4706E-06  0.0979
   2.6935E-01   2.7590E-01   8.0534E-06  0.0865
   2.7590E-01   2.8261E-01   6.6239E-06  0.0943
   2.8261E-01   2.8949E-01   7.5971E-06  0.0873
   2.8949E-01   2.9653E-01   9.1121E-06  0.0786
   2.9653E-01   3.0375E-01   8.9665E-06  0.0783
   3.0375E-01   3.1114E-01   8.6251E-06  0.0788
   3.1114E-01   3.1871E-01   9.4649E-06  0.0740
   3.1871E-01   3.2646E-01   9.7024E-06  0.0726
   3.2646E-01   3.3441E-01   9.7375E-06  0.0716
   3.3441E-01   3.4254E-01   1.0119E-05  0.0693
   3.4254E-01   3.5088E-01   1.0266E-05  0.0681
   3.5088E-01   3.5941E-01   1.0719E-05  0.0656
   3.5941E-01   3.6816E-01   1.0454E-05  0.0659
   3.6816E-01   3.7712E-01   1.0799E-05  0.0640
   3.7712E-01   3.8629E-01   1.2666E-05  0.0582
   3.8629E-01   3.9569E-01   1.1917E-05  0.0596
   3.9569E-01   4.0532E-01   1.4154E-05  0.0539
   4.0532E-01   4.1518E-01   1.4685E-05  0.0523
   4.1518E-01   4.2528E-01   1.4509E-05  0.0520
   4.2528E-01   4.3563E-01   1.4497E-05  0.0514
   4.3563E-01   4.4623E-01   1.5208E-05  0.0496
   4.4623E-01   4.5708E-01   1.5684E-05  0.0483
   4.5708E-01   4.6821E-01   1.7507E-05  0.0452
   4.6821E-01   4.7960E-01   1.5719E-05  0.0470
   4.7960E-01   4.9127E-01   1.6994E-05  0.0448
   4.9127E-01   5.0322E-01   1.6801E-05  0.0444
   5.0322E-01   5.1546E-01   1.7904E-05  0.0425
   5.1546E-01   5.2800E-01   1.8457E-05  0.0414
   5.2800E-01   5.4085E-01   1.8501E-05  0.0409
   5.4085E-01   5.5401E-01   1.9758E-05  0.0390
   5.5401E-01   5.6749E-01   1.8842E-05  0.0395
   5.6749E-01   5.8130E-01   1.9011E-05  0.0389
   5.8130E-01   5.9544E-01   1.9350E-05  0.0381
   5.9544E-01   6.0993E-01   2.0519E-05  0.0365
   6.0993E-01   6.2477E-01   1.9445E-05  0.0371
   6.2477E-01   6.3997E-01   1.9823E-05  0.0363
   6.3997E-01   6.5554E-01   2.0771E-05  0.0350
   6.5554E-01   6.7149E-01   2.0410E-05  0.0349
   6.7149E-01   6.8783E-01   2.1427E-05  0.0337
   6.8783E-01   7.0456E-01   2.1377E-05  0.0332
   7.0456E-01   7.2171E-01   2.1126E-05  0.0331
   7.2171E-01   7.3927E-01   2.1219E-05  0.0326
   7.3927E-01   7.5725E-01   2.1967E-05  0.0316
   7.5725E-01   7.7568E-01   2.2317E-05  0.0310
   7.7568E-01   7.9455E-01   2.1291E-05  0.0314
   7.9455E-01   8.1388E-01   2.0324E-05  0.0317
   8.1388E-01   8.3368E-01   1.9572E-05  0.0320
   8.3368E-01   8.5397E-01   1.9986E-05  0.0312
   8.5397E-01   8.7475E-01   2.0616E-05  0.0304
   8.7475E-01   8.9603E-01   2.0322E-05  0.0302
   8.9603E-01   9.1783E-01   2.0690E-05  0.0296
   9.1783E-01   9.4016E-01   2.1116E-05  0.0289
   9.4016E-01   9.6304E-01   1.9978E-05  0.0294
   9.6304E-01   9.8647E-01   2.1004E-05  0.0283
   9.8647E-01   1.0105E+00   2.0138E-05  0.0286
   1.0105E+00   1.0351E+00   1.9902E-05  0.0284
   1.0351E+00   1.0602E+00   1.9594E-05  0.0283
   1.0602E+00   1.0860E+00   2.0387E-05  0.0274
   1.0860E+00   1.1125E+00   1.8057E-05  0.0287
   1.1125E+00   1.1395E+00   1.9327E-05  0.0275
   1.1395E+00   1.1673E+00   1.7850E-05  0.0282
   1.1673E+00   1.1957E+00   1.7778E-05  0.0279
   1.1957E+00   1.2247E+00   1.8039E-05  0.0274
   1.2247E+00   1.2545E+00   1.8123E-05  0.0270
   1.2545E+00   1.2851E+00   1.8052E-05  0.0267
   1.2851E+00   1.3163E+00   1.8249E-05  0.0263
   1.3163E+00   1.3484E+00   1.7763E-05  0.0263
   1.3484E+00   1.3812E+00   1.7124E-05  0.0264
   1.3812E+00   1.4148E+00   1.7268E-05  0.0260
   1.4148E+00   1.4492E+00   1.7199E-05  0.0258
   1.4492E+00   1.4845E+00   1.6710E-05  0.0258
   1.4845E+00   1.5206E+00   1.7420E-05  0.0250
   1.5206E+00   1.5576E+00   1.6802E-05  0.0252
   1.5576E+00   1.5955E+00   1.6992E-05  0.0247
   1.5955E+00   1.6343E+00   1.7311E-05  0.0242
   1.6343E+00   1.6741E+00   1.6258E-05  0.0246
   1.6741E+00   1.7148E+00   1.6226E-05  0.0244
   1.7148E+00   1.7565E+00   1.6711E-05  0.0238
   1.7565E+00   1.7992E+00   1.6678E-05  0.0235
   1.7992E+00   1.8430E+00   1.6737E-05  0.0232
   1.8430E+00   1.8879E+00   1.5085E-05  0.0241
   1.8879E+00   1.9338E+00   1.5032E-05  0.0238
   1.9338E+00   1.9808E+00   1.4958E-05  0.0236
   1.9808E+00   2.0290E+00   1.4539E-05  0.0237
   2.0290E+00   2.0784E+00   1.4380E-05  0.0235
   2.0784E+00   2.1290E+00   1.4820E-05  0.0229
   2.1290E+00   2.1808E+00   1.4171E-05  0.0232
   2.1808E+00   2.2338E+00   1.4231E-05  0.0228
   2.2338E+00   2.2882E+00   1.4554E-05  0.0223
   2.2882E+00   2.3439E+00   1.4223E-05  0.0223
   2.3439E+00   2.4009E+00   1.3619E-05  0.0225
   2.4009E+00   2.4593E+00   1.3429E-05  0.0224
   2.4593E+00   2.5191E+00   1.3711E-05  0.0219
   2.5191E+00   2.5804E+00   1.3602E-05  0.0217
   2.5804E+00   2.6432E+00   1.3566E-05  0.0215
   2.6432E+00   2.7075E+00   1.2857E-05  0.0219
   2.7075E+00   2.7734E+00   1.2939E-05  0.0215
   2.7734E+00   2.8409E+00   1.2663E-05  0.0215
   2.8409E+00   2.9100E+00   1.2069E-05  0.0217
   2.9100E+00   2.9808E+00   1.2307E-05  0.0212
   2.9808E+00   3.0533E+00   1.2464E-05  0.0209
   3.0533E+00   3.1276E+00   1.2079E-05  0.0210
   3.1276E+00   3.2037E+00   1.2025E-05  0.0208
   3.2037E+00   3.2817E+00   1.2266E-05  0.0203
   3.2817E+00   3.3615E+00   1.1365E-05  0.0208
   3.3615E+00   3.4433E+00   1.1705E-05  0.0203
   3.4433E+00   3.5271E+00   1.1692E-05  0.0201
   3.5271E+00   3.6129E+00   1.1826E-05  0.0197
   3.6129E+00   3.7008E+00   1.1832E-05  0.0195
   3.7008E+00   3.7908E+00   1.1836E-05  0.0193
   3.7908E+00   3.8831E+00   1.2250E-05  0.0187
   3.8831E+00   3.9776E+00   1.2296E-05  0.0185
   3.9776E+00   4.0743E+00   1.2193E-05  0.0183
   4.0743E+00   4.1735E+00   1.1472E-05  0.0187
   4.1735E+00   4.2750E+00   1.0544E-05  0.0192
   4.2750E+00   4.3790E+00   9.5996E-06  0.0199
   4.3790E+00   4.4856E+00   9.1846E-06  0.0201
   4.4856E+00   4.5947E+00   8.8511E-06  0.0202
   4.5947E+00   4.7065E+00   8.4390E-06  0.0205
   4.7065E+00   4.8210E+00   7.9117E-06  0.0209
   4.8210E+00   4.9383E+00   8.0140E-06  0.0205
   4.9383E+00   5.0585E+00   7.5923E-06  0.0208
   5.0585E+00   5.1815E+00   7.4151E-06  0.0208
   5.1815E+00   5.3076E+00   7.4750E-06  0.0205
   5.3076E+00   5.4368E+00   7.2187E-06  0.0206
   5.4368E+00   5.5690E+00   6.6912E-06  0.0211
   5.5690E+00   5.7045E+00   6.7757E-06  0.0208
   5.7045E+00   5.8433E+00   6.7223E-06  0.0206
   5.8433E+00   5.9855E+00   6.4367E-06  0.0208
   5.9855E+00   6.1311E+00   6.3982E-06  0.0206
   6.1311E+00   6.2803E+00   6.0431E-06  0.0210
   6.2803E+00   6.4331E+00   5.9462E-06  0.0209
   6.4331E+00   6.5896E+00   6.1042E-06  0.0204
   6.5896E+00   6.7500E+00   5.7844E-06  0.0207
   6.7500E+00   6.9142E+00   5.7141E-06  0.0206
   6.9142E+00   7.0824E+00   5.3669E-06  0.0210
   7.0824E+00   7.2548E+00   5.2731E-06  0.0209
   7.2548E+00   7.4313E+00   5.0310E-06  0.0212
   7.4313E+00   7.6121E+00   4.9973E-06  0.0210
   7.6121E+00   7.7973E+00   4.8288E-06  0.0211
   7.7973E+00   7.9870E+00   4.6923E-06  0.0211
   7.9870E+00   8.1813E+00   4.6160E-06  0.0211
   8.1813E+00   8.3804E+00   4.1795E-06  0.0219
   8.3804E+00   8.5843E+00   4.1785E-06  0.0216
   8.5843E+00   8.7931E+00   3.8466E-06  0.0223
   8.7931E+00   9.0071E+00   4.0171E-06  0.0215
   9.0071E+00   9.2262E+00   3.9232E-06  0.0215
   9.2262E+00   9.4507E+00   3.7237E-06  0.0218
   9.4507E+00   9.6807E+00   3.5682E-06  0.0221
   9.6807E+00   9.9162E+00   3.4266E-06  0.0222
   9.9162E+00   1.0157E+01   3.2525E-06  0.0226
   1.0157E+01   1.0405E+01   3.1963E-06  0.0225
   1.0405E+01   1.0658E+01   3.2681E-06  0.0220
   1.0658E+01   1.0917E+01   3.3074E-06  0.0216
   1.0917E+01   1.1183E+01   3.2206E-06  0.0216
   1.1183E+01   1.1455E+01   3.1429E-06  0.0216
   1.1455E+01   1.1733E+01   3.0285E-06  0.0217
   1.1733E+01   1.2019E+01   2.9003E-06  0.0220
   1.2019E+01   1.2311E+01   2.8185E-06  0.0220
   1.2311E+01   1.2611E+01   2.7246E-06  0.0221
   1.2611E+01   1.2918E+01   2.3711E-06  0.0234
   1.2918E+01   1.3232E+01   2.2256E-06  0.0239
   1.3232E+01   1.3554E+01   2.0018E-06  0.0249
   1.3554E+01   1.3884E+01   1.7555E-06  0.0263
   1.3884E+01   1.4222E+01   1.7059E-06  0.0263
   1.4222E+01   1.4568E+01   1.3300E-06  0.0295
   1.4568E+01   1.4922E+01   1.1991E-06  0.0307
   1.4922E+01   1.5285E+01   1.0402E-06  0.0325
   1.5285E+01   1.5657E+01   7.2933E-07  0.0384
   1.5657E+01   1.6038E+01   6.2144E-07  0.0411
   1.6038E+01   1.6428E+01   4.7221E-07  0.0466
   1.6428E+01   1.6828E+01   2.9521E-07  0.0582
   1.6828E+01   1.7237E+01   1.7062E-07  0.0756
   1.7237E+01   1.7657E+01   7.4392E-08  0.1132
   1.7657E+01   1.8086E+01   4.0029E-08  0.1513
   1.8086E+01   1.8526E+01   3.1215E-08  0.1699
   1.8526E+01   1.8977E+01   2.8396E-08  0.1768
   1.8977E+01   1.9439E+01   2.5989E-08  0.1826
   1.9439E+01   1.9912E+01   2.1286E-08  0.1988
   1.9912E+01   2.0396E+01   3.3026E-09  0.5000
   2.0396E+01   2.0893E+01   0.0000E+00  0.0000
   2.0893E+01   2.1401E+01   0.0000E+00  0.0000
   2.1401E+01   2.1922E+01   0.0000E+00  0.0000
   2.1922E+01   2.2455E+01   0.0000E+00  0.0000
   2.2455E+01   2.3001E+01   0.0000E+00  0.0000
   2.3001E+01   2.3561E+01   0.0000E+00  0.0000
   2.3561E+01   2.4134E+01   0.0000E+00  0.0000
   2.4134E+01   2.4721E+01   0.0000E+00  0.0000
   2.4721E+01   2.5323E+01   0.0000E+00  0.0000
   2.5323E+01   2.5939E+01   0.0000E+00  0.0000
   2.5939E+01   2.6570E+01   0.0000E+00  0.0000
   2.6570E+01   2.7217E+01   0.0000E+00  0.0000
   2.7217E+01   2.7879E+01   0.0000E+00  0.0000
   2.7879E+01   2.8557E+01   0.0000E+00  0.0000
   2.8557E+01   2.9252E+01   0.0000E+00  0.0000
   2.9252E+01   2.9964E+01   0.0000E+00  0.0000
   2.9964E+01   3.0693E+01   0.0000E+00  0.0000
   3.0693E+01   3.1440E+01   0.0000E+00  0.0000
   3.1440E+01   3.2205E+01   0.0000E+00  0.0000
   3.2205E+01   3.2988E+01   0.0000E+00  0.0000
   3.2988E+01   3.3791E+01   0.0000E+00  0.0000
   3.3791E+01   3.4613E+01   0.0000E+00  0.0000
   3.4613E+01   3.5455E+01   0.0000E+00  0.0000
   3.5455E+01   3.6318E+01   0.0000E+00  0.0000
   3.6318E+01   3.7201E+01   0.0000E+00  0.0000
   3.7201E+01   3.8106E+01   0.0000E+00  0.0000
   3.8106E+01   3.9034E+01   0.0000E+00  0.0000
   3.9034E+01   3.9983E+01   0.0000E+00  0.0000
   3.9983E+01   4.0956E+01   0.0000E+00  0.0000
   4.0956E+01   4.1953E+01   0.0000E+00  0.0000
   4.1953E+01   4.2973E+01   0.0000E+00  0.0000
   4.2973E+01   4.4019E+01   0.0000E+00  0.0000
   4.4019E+01   4.5090E+01   0.0000E+00  0.0000
   4.5090E+01   4.6187E+01   0.0000E+00  0.0000
   4.6187E+01   4.7311E+01   0.0000E+00  0.0000
   4.7311E+01   4.8462E+01   0.0000E+00  0.0000
   4.8462E+01   4.9641E+01   0.0000E+00  0.0000
   4.9641E+01   5.0849E+01   0.0000E+00  0.0000
   5.0849E+01   5.2086E+01   0.0000E+00  0.0000
   5.2086E+01   5.3353E+01   0.0000E+00  0.0000
   5.3353E+01   5.4651E+01   0.0000E+00  0.0000
   5.4651E+01   5.5981E+01   0.0000E+00  0.0000
   5.5981E+01   5.7343E+01   0.0000E+00  0.0000
   5.7343E+01   5.8738E+01   0.0000E+00  0.0000
   5.8738E+01   6.0168E+01   0.0000E+00  0.0000
   6.0168E+01   6.1632E+01   0.0000E+00  0.0000
   6.1632E+01   6.3131E+01   0.0000E+00  0.0000
   6.3131E+01   6.4667E+01   0.0000E+00  0.0000
   6.4667E+01   6.6240E+01   0.0000E+00  0.0000
   6.6240E+01   6.7852E+01   0.0000E+00  0.0000
   6.7852E+01   6.9503E+01   0.0000E+00  0.0000
   6.9503E+01   7.1194E+01   0.0000E+00  0.0000
   7.1194E+01   7.2926E+01   0.0000E+00  0.0000
   7.2926E+01   7.4701E+01   0.0000E+00  0.0000
   7.4701E+01   7.6518E+01   0.0000E+00  0.0000
   7.6518E+01   7.8380E+01   0.0000E+00  0.0000
   7.8380E+01   8.0287E+01   0.0000E+00  0.0000
   8.0287E+01   8.2240E+01   0.0000E+00  0.0000
   8.2240E+01   8.4241E+01   0.0000E+00  0.0000
   8.4241E+01   8.6291E+01   0.0000E+00  0.0000
   8.6291E+01   8.8391E+01   0.0000E+00  0.0000
   8.8391E+01   9.0541E+01   0.0000E+00  0.0000
   9.0541E+01   9.2744E+01   0.0000E+00  0.0000
   9.2744E+01   9.5001E+01   0.0000E+00  0.0000
   9.5001E+01   9.7312E+01   0.0000E+00  0.0000
   9.7312E+01   9.9680E+01   0.0000E+00  0.0000
   9.9680E+01   1.0211E+02   0.0000E+00  0.0000
   1.0211E+02   1.0459E+02   0.0000E+00  0.0000
   1.0459E+02   1.0713E+02   0.0000E+00  0.0000
   1.0713E+02   1.0974E+02   0.0000E+00  0.0000
   1.0974E+02   1.1241E+02   0.0000E+00  0.0000
   1.1241E+02   1.1515E+02   0.0000E+00  0.0000
   1.1515E+02   1.1795E+02   0.0000E+00  0.0000
   1.1795E+02   1.2082E+02   0.0000E+00  0.0000
   1.2082E+02   1.2376E+02   0.0000E+00  0.0000
   1.2376E+02   1.2677E+02   0.0000E+00  0.0000
   1.2677E+02   1.2985E+02   0.0000E+00  0.0000
   1.2985E+02   1.3301E+02   0.0000E+00  0.0000
   1.3301E+02   1.3625E+02   0.0000E+00  0.0000
   1.3625E+02   1.3956E+02   0.0000E+00  0.0000
   1.3956E+02   1.4296E+02   0.0000E+00  0.0000
   1.4296E+02   1.4644E+02   0.0000E+00  0.0000
   1.4644E+02   1.5000E+02   0.0000E+00  0.0000

#   sum over                 7.0986E-07
'no. =    1   reg = 113 - 213'
msuc: {\huge [t-cross] in region mesh}
msdr: {\it plotted by \ANGEL \version}
msdl: {\it calculated by \PHITS  3.26}
wt: s(0.7)
\vspace{-3}
  region surface crossing
  area  &=&   1.0000E+00 [cm^2]
e:
 
# Information for Restart Calculation
# This calculation was newly started
# istdev =  2 # 1:Batch variance, 2:History variance
# resc2  = 2.50000000000000000E+09 # Total source weight or Total source weight / maxcas
# resc3  = 2.50000000000000000E+09 # Total history number or Total batch number
# maxcas =   500000000 # History / Batch, only used for istdev=1
# bitrseed = 1100001110001001100010001100011001110101000011000110100101010100 # bit data of rseed
