[ T-Cross ]
    title = [t-cross] in region mesh
     mesh =  reg            # mesh type is region-wise
      reg =    1            # number of crossing regions
      non     r-from    r-to       area
      1       117       217        1.000000    
   e-type =    3            # e-mesh is log given by emin, emax and ne
     emin =  1.0000000E-02  # minimum value of e-mesh points
     emax =   150.0000      # maximum value of e-mesh points
#    edel =  2.4039514E-02  # mesh width of e-mesh points
       ne =    400          # number of e-mesh points
#    data = ( e(i), i = 1, ne + 1 )
#           1.00000E-02  1.02433E-02  1.04925E-02  1.07478E-02  1.10093E-02
#           1.12772E-02  1.15516E-02  1.18326E-02  1.21205E-02  1.24154E-02
#           1.27175E-02  1.30269E-02  1.33439E-02  1.36686E-02  1.40011E-02
#           1.43418E-02  1.46907E-02  1.50482E-02  1.54143E-02  1.57894E-02
#           1.61735E-02  1.65670E-02  1.69701E-02  1.73830E-02  1.78060E-02
#           1.82392E-02  1.86830E-02  1.91375E-02  1.96032E-02  2.00801E-02
#           2.05687E-02  2.10692E-02  2.15818E-02  2.21069E-02  2.26448E-02
#           2.31957E-02  2.37601E-02  2.43382E-02  2.49304E-02  2.55369E-02
#           2.61583E-02  2.67947E-02  2.74467E-02  2.81145E-02  2.87985E-02
#           2.94992E-02  3.02169E-02  3.09521E-02  3.17052E-02  3.24766E-02
#           3.32668E-02  3.40762E-02  3.49053E-02  3.57546E-02  3.66246E-02
#           3.75157E-02  3.84284E-02  3.93634E-02  4.03212E-02  4.13022E-02
#           4.23071E-02  4.33365E-02  4.43909E-02  4.54710E-02  4.65773E-02
#           4.77106E-02  4.88714E-02  5.00605E-02  5.12785E-02  5.25262E-02
#           5.38042E-02  5.51133E-02  5.64542E-02  5.78278E-02  5.92348E-02
#           6.06760E-02  6.21523E-02  6.36645E-02  6.52135E-02  6.68002E-02
#           6.84255E-02  7.00904E-02  7.17957E-02  7.35426E-02  7.53319E-02
#           7.71648E-02  7.90423E-02  8.09655E-02  8.29354E-02  8.49533E-02
#           8.70203E-02  8.91376E-02  9.13064E-02  9.35279E-02  9.58035E-02
#           9.81345E-02  1.00522E-01  1.02968E-01  1.05473E-01  1.08040E-01
#           1.10668E-01  1.13361E-01  1.16119E-01  1.18944E-01  1.21838E-01
#           1.24803E-01  1.27839E-01  1.30950E-01  1.34136E-01  1.37399E-01
#           1.40742E-01  1.44167E-01  1.47675E-01  1.51268E-01  1.54948E-01
#           1.58718E-01  1.62580E-01  1.66535E-01  1.70587E-01  1.74738E-01
#           1.78989E-01  1.83344E-01  1.87805E-01  1.92375E-01  1.97055E-01
#           2.01850E-01  2.06761E-01  2.11792E-01  2.16945E-01  2.22223E-01
#           2.27630E-01  2.33169E-01  2.38842E-01  2.44653E-01  2.50605E-01
#           2.56703E-01  2.62949E-01  2.69346E-01  2.75900E-01  2.82613E-01
#           2.89489E-01  2.96532E-01  3.03747E-01  3.11138E-01  3.18708E-01
#           3.26462E-01  3.34405E-01  3.42542E-01  3.50876E-01  3.59413E-01
#           3.68158E-01  3.77116E-01  3.86291E-01  3.95690E-01  4.05317E-01
#           4.15179E-01  4.25281E-01  4.35628E-01  4.46227E-01  4.57084E-01
#           4.68205E-01  4.79597E-01  4.91266E-01  5.03219E-01  5.15463E-01
#           5.28005E-01  5.40851E-01  5.54011E-01  5.67490E-01  5.81298E-01
#           5.95441E-01  6.09929E-01  6.24769E-01  6.39970E-01  6.55541E-01
#           6.71491E-01  6.87828E-01  7.04564E-01  7.21706E-01  7.39266E-01
#           7.57253E-01  7.75678E-01  7.94551E-01  8.13883E-01  8.33685E-01
#           8.53969E-01  8.74747E-01  8.96030E-01  9.17831E-01  9.40163E-01
#           9.63038E-01  9.86469E-01  1.01047E+00  1.03506E+00  1.06024E+00
#           1.08604E+00  1.11246E+00  1.13953E+00  1.16725E+00  1.19565E+00
#           1.22474E+00  1.25454E+00  1.28507E+00  1.31633E+00  1.34836E+00
#           1.38117E+00  1.41477E+00  1.44920E+00  1.48446E+00  1.52057E+00
#           1.55757E+00  1.59547E+00  1.63429E+00  1.67405E+00  1.71478E+00
#           1.75650E+00  1.79924E+00  1.84302E+00  1.88786E+00  1.93379E+00
#           1.98084E+00  2.02904E+00  2.07841E+00  2.12898E+00  2.18078E+00
#           2.23384E+00  2.28819E+00  2.34386E+00  2.40089E+00  2.45930E+00
#           2.51914E+00  2.58043E+00  2.64322E+00  2.70753E+00  2.77341E+00
#           2.84088E+00  2.91001E+00  2.98081E+00  3.05333E+00  3.12762E+00
#           3.20372E+00  3.28167E+00  3.36152E+00  3.44330E+00  3.52708E+00
#           3.61290E+00  3.70080E+00  3.79085E+00  3.88308E+00  3.97756E+00
#           4.07434E+00  4.17347E+00  4.27501E+00  4.37903E+00  4.48557E+00
#           4.59471E+00  4.70650E+00  4.82102E+00  4.93832E+00  5.05847E+00
#           5.18155E+00  5.30762E+00  5.43676E+00  5.56904E+00  5.70453E+00
#           5.84333E+00  5.98550E+00  6.13114E+00  6.28031E+00  6.43312E+00
#           6.58964E+00  6.74997E+00  6.91420E+00  7.08243E+00  7.25475E+00
#           7.43126E+00  7.61207E+00  7.79728E+00  7.98700E+00  8.18133E+00
#           8.38038E+00  8.58428E+00  8.79315E+00  9.00709E+00  9.22624E+00
#           9.45072E+00  9.68067E+00  9.91620E+00  1.01575E+01  1.04046E+01
#           1.06578E+01  1.09171E+01  1.11827E+01  1.14548E+01  1.17335E+01
#           1.20190E+01  1.23114E+01  1.26109E+01  1.29178E+01  1.32321E+01
#           1.35540E+01  1.38838E+01  1.42216E+01  1.45676E+01  1.49221E+01
#           1.52851E+01  1.56570E+01  1.60380E+01  1.64282E+01  1.68279E+01
#           1.72374E+01  1.76568E+01  1.80864E+01  1.85264E+01  1.89772E+01
#           1.94389E+01  1.99119E+01  2.03963E+01  2.08926E+01  2.14009E+01
#           2.19216E+01  2.24550E+01  2.30014E+01  2.35610E+01  2.41343E+01
#           2.47215E+01  2.53230E+01  2.59391E+01  2.65702E+01  2.72167E+01
#           2.78789E+01  2.85572E+01  2.92520E+01  2.99637E+01  3.06928E+01
#           3.14396E+01  3.22045E+01  3.29881E+01  3.37907E+01  3.46128E+01
#           3.54550E+01  3.63177E+01  3.72013E+01  3.81064E+01  3.90336E+01
#           3.99833E+01  4.09561E+01  4.19526E+01  4.29734E+01  4.40189E+01
#           4.50900E+01  4.61870E+01  4.73108E+01  4.84619E+01  4.96410E+01
#           5.08488E+01  5.20860E+01  5.33533E+01  5.46514E+01  5.59812E+01
#           5.73432E+01  5.87384E+01  6.01676E+01  6.16315E+01  6.31311E+01
#           6.46671E+01  6.62405E+01  6.78522E+01  6.95031E+01  7.11941E+01
#           7.29263E+01  7.47007E+01  7.65182E+01  7.83800E+01  8.02870E+01
#           8.22405E+01  8.42414E+01  8.62911E+01  8.83906E+01  9.05412E+01
#           9.27442E+01  9.50007E+01  9.73122E+01  9.96799E+01  1.02105E+02
#           1.04589E+02  1.07134E+02  1.09741E+02  1.12411E+02  1.15146E+02
#           1.17948E+02  1.20817E+02  1.23757E+02  1.26768E+02  1.29852E+02
#           1.33012E+02  1.36248E+02  1.39563E+02  1.42959E+02  1.46437E+02
#           1.50000E+02
     unit =    2            # unit is [1/cm^2/(MeV/n)/source]
     axis =  eng            # axis of output
     file = detector-18.out  # file name of output for the above axis
   output = f-curr          # surface crossing forward current spectrum
     part =  neutron  
# kf/name :  2112     
#    used :        main (  %)        temp (  %)       total (  %)
#  memory :         414 (  0)           0 (  0)         414 (  0)

#------------------------------------------------------------------------------
#newpage:
#   no. =    1   reg = 117 - 217

x: Energy [MeV/n]
y:  F-Curr [1/cm^2/(MeV/n)/source]         
p: xlog ylog afac(0.8) form(0.9)
h: n            x            y(neutron ),hh0l   n 
#  e-lower      e-upper      neutron     r.err 
   1.0000E-02   1.0243E-02   5.2334E-04  0.0724
   1.0243E-02   1.0493E-02   6.0988E-04  0.0662
   1.0493E-02   1.0748E-02   5.1967E-04  0.0709
   1.0748E-02   1.1009E-02   5.3537E-04  0.0690
   1.1009E-02   1.1277E-02   5.4754E-04  0.0674
   1.1277E-02   1.1552E-02   5.4182E-04  0.0670
   1.1552E-02   1.1833E-02   4.9337E-04  0.0693
   1.1833E-02   1.2121E-02   5.5112E-04  0.0648
   1.2121E-02   1.2415E-02   5.2673E-04  0.0655
   1.2415E-02   1.2718E-02   5.3849E-04  0.0640
   1.2718E-02   1.3027E-02   5.6017E-04  0.0620
   1.3027E-02   1.3344E-02   5.4897E-04  0.0619
   1.3344E-02   1.3669E-02   5.8727E-04  0.0591
   1.3669E-02   1.4001E-02   5.8935E-04  0.0583
   1.4001E-02   1.4342E-02   5.2643E-04  0.0610
   1.4342E-02   1.4691E-02   5.9799E-04  0.0565
   1.4691E-02   1.5048E-02   5.7446E-04  0.0570
   1.5048E-02   1.5414E-02   6.3911E-04  0.0534
   1.5414E-02   1.5789E-02   6.2748E-04  0.0532
   1.5789E-02   1.6174E-02   6.2299E-04  0.0528
   1.6174E-02   1.6567E-02   5.9972E-04  0.0531
   1.6567E-02   1.6970E-02   5.6067E-04  0.0543
   1.6970E-02   1.7383E-02   6.5069E-04  0.0498
   1.7383E-02   1.7806E-02   6.1316E-04  0.0507
   1.7806E-02   1.8239E-02   6.9401E-04  0.0471
   1.8239E-02   1.8683E-02   6.1142E-04  0.0496
   1.8683E-02   1.9138E-02   6.2036E-04  0.0486
   1.9138E-02   1.9603E-02   6.3426E-04  0.0475
   1.9603E-02   2.0080E-02   6.1221E-04  0.0478
   2.0080E-02   2.0569E-02   6.2496E-04  0.0467
   2.0569E-02   2.1069E-02   6.7006E-04  0.0446
   2.1069E-02   2.1582E-02   6.2553E-04  0.0456
   2.1582E-02   2.2107E-02   6.3099E-04  0.0449
   2.2107E-02   2.2645E-02   5.9617E-04  0.0456
   2.2645E-02   2.3196E-02   7.2600E-04  0.0408
   2.3196E-02   2.3760E-02   6.5914E-04  0.0423
   2.3760E-02   2.4338E-02   6.5386E-04  0.0420
   2.4338E-02   2.4930E-02   6.5072E-04  0.0416
   2.4930E-02   2.5537E-02   6.5504E-04  0.0410
   2.5537E-02   2.6158E-02   6.8562E-04  0.0396
   2.6158E-02   2.6795E-02   7.0600E-04  0.0385
   2.6795E-02   2.7447E-02   6.5957E-04  0.0394
   2.7447E-02   2.8114E-02   6.8084E-04  0.0383
   2.8114E-02   2.8799E-02   6.9391E-04  0.0375
   2.8799E-02   2.9499E-02   6.5364E-04  0.0382
   2.9499E-02   3.0217E-02   6.9663E-04  0.0365
   3.0217E-02   3.0952E-02   6.5923E-04  0.0371
   3.0952E-02   3.1705E-02   6.9669E-04  0.0356
   3.1705E-02   3.2477E-02   7.1557E-04  0.0348
   3.2477E-02   3.3267E-02   7.0363E-04  0.0347
   3.3267E-02   3.4076E-02   7.3222E-04  0.0335
   3.4076E-02   3.4905E-02   7.2367E-04  0.0333
   3.4905E-02   3.5755E-02   7.2925E-04  0.0328
   3.5755E-02   3.6625E-02   7.6251E-04  0.0317
   3.6625E-02   3.7516E-02   7.5861E-04  0.0314
   3.7516E-02   3.8428E-02   7.3986E-04  0.0314
   3.8428E-02   3.9363E-02   7.7505E-04  0.0303
   3.9363E-02   4.0321E-02   7.9005E-04  0.0297
   4.0321E-02   4.1302E-02   8.1002E-04  0.0290
   4.1302E-02   4.2307E-02   8.0803E-04  0.0287
   4.2307E-02   4.3337E-02   7.7135E-04  0.0290
   4.3337E-02   4.4391E-02   7.9349E-04  0.0282
   4.4391E-02   4.5471E-02   7.7896E-04  0.0281
   4.5471E-02   4.6577E-02   8.1228E-04  0.0272
   4.6577E-02   4.7711E-02   7.8828E-04  0.0273
   4.7711E-02   4.8871E-02   8.3331E-04  0.0263
   4.8871E-02   5.0061E-02   8.1407E-04  0.0262
   5.0061E-02   5.1279E-02   8.1992E-04  0.0258
   5.1279E-02   5.2526E-02   8.6189E-04  0.0249
   5.2526E-02   5.3804E-02   8.3777E-04  0.0250
   5.3804E-02   5.5113E-02   8.5300E-04  0.0244
   5.5113E-02   5.6454E-02   8.5462E-04  0.0241
   5.6454E-02   5.7828E-02   8.7169E-04  0.0236
   5.7828E-02   5.9235E-02   8.8794E-04  0.0231
   5.9235E-02   6.0676E-02   8.6824E-04  0.0231
   6.0676E-02   6.2152E-02   8.9052E-04  0.0225
   6.2152E-02   6.3665E-02   8.8920E-04  0.0223
   6.3665E-02   6.5214E-02   9.0725E-04  0.0218
   6.5214E-02   6.6800E-02   9.0124E-04  0.0216
   6.6800E-02   6.8426E-02   9.2988E-04  0.0210
   6.8426E-02   7.0090E-02   9.0819E-04  0.0210
   7.0090E-02   7.1796E-02   9.0538E-04  0.0208
   7.1796E-02   7.3543E-02   9.2929E-04  0.0203
   7.3543E-02   7.5332E-02   9.0573E-04  0.0203
   7.5332E-02   7.7165E-02   9.3914E-04  0.0197
   7.7165E-02   7.9042E-02   9.5696E-04  0.0193
   7.9042E-02   8.0965E-02   9.5468E-04  0.0191
   8.0965E-02   8.2935E-02   9.6280E-04  0.0188
   8.2935E-02   8.4953E-02   9.7264E-04  0.0184
   8.4953E-02   8.7020E-02   9.7759E-04  0.0182
   8.7020E-02   8.9138E-02   9.6287E-04  0.0181
   8.9138E-02   9.1306E-02   9.8796E-04  0.0176
   9.1306E-02   9.3528E-02   9.8129E-04  0.0175
   9.3528E-02   9.5804E-02   1.0019E-03  0.0171
   9.5804E-02   9.8134E-02   9.9901E-04  0.0169
   9.8134E-02   1.0052E-01   9.8896E-04  0.0168
   1.0052E-01   1.0297E-01   1.0126E-03  0.0164
   1.0297E-01   1.0547E-01   1.0591E-03  0.0159
   1.0547E-01   1.0804E-01   1.0225E-03  0.0159
   1.0804E-01   1.1067E-01   1.0302E-03  0.0157
   1.1067E-01   1.1336E-01   1.0258E-03  0.0155
   1.1336E-01   1.1612E-01   1.0976E-03  0.0148
   1.1612E-01   1.1894E-01   1.0769E-03  0.0148
   1.1894E-01   1.2184E-01   1.0587E-03  0.0148
   1.2184E-01   1.2480E-01   1.0916E-03  0.0144
   1.2480E-01   1.2784E-01   1.0896E-03  0.0142
   1.2784E-01   1.3095E-01   1.0835E-03  0.0141
   1.3095E-01   1.3414E-01   1.0952E-03  0.0138
   1.3414E-01   1.3740E-01   1.0951E-03  0.0137
   1.3740E-01   1.4074E-01   1.0840E-03  0.0136
   1.4074E-01   1.4417E-01   1.1046E-03  0.0133
   1.4417E-01   1.4767E-01   1.1337E-03  0.0130
   1.4767E-01   1.5127E-01   1.1040E-03  0.0130
   1.5127E-01   1.5495E-01   1.0968E-03  0.0129
   1.5495E-01   1.5872E-01   1.1195E-03  0.0126
   1.5872E-01   1.6258E-01   1.1164E-03  0.0124
   1.6258E-01   1.6654E-01   1.1489E-03  0.0121
   1.6654E-01   1.7059E-01   1.1254E-03  0.0121
   1.7059E-01   1.7474E-01   1.1340E-03  0.0119
   1.7474E-01   1.7899E-01   1.1547E-03  0.0117
   1.7899E-01   1.8334E-01   1.1506E-03  0.0115
   1.8334E-01   1.8781E-01   1.1625E-03  0.0113
   1.8781E-01   1.9237E-01   1.1653E-03  0.0112
   1.9237E-01   1.9706E-01   1.1412E-03  0.0112
   1.9706E-01   2.0185E-01   1.1587E-03  0.0110
   2.0185E-01   2.0676E-01   1.1720E-03  0.0108
   2.0676E-01   2.1179E-01   1.2112E-03  0.0105
   2.1179E-01   2.1694E-01   1.1751E-03  0.0105
   2.1694E-01   2.2222E-01   1.1860E-03  0.0103
   2.2222E-01   2.2763E-01   1.1789E-03  0.0102
   2.2763E-01   2.3317E-01   1.1924E-03  0.0100
   2.3317E-01   2.3884E-01   1.1943E-03  0.0099
   2.3884E-01   2.4465E-01   1.1845E-03  0.0098
   2.4465E-01   2.5061E-01   1.1851E-03  0.0097
   2.5061E-01   2.5670E-01   1.1765E-03  0.0096
   2.5670E-01   2.6295E-01   1.1894E-03  0.0095
   2.6295E-01   2.6935E-01   1.1931E-03  0.0093
   2.6935E-01   2.7590E-01   1.2136E-03  0.0092
   2.7590E-01   2.8261E-01   1.1804E-03  0.0092
   2.8261E-01   2.8949E-01   1.2009E-03  0.0090
   2.8949E-01   2.9653E-01   1.2014E-03  0.0089
   2.9653E-01   3.0375E-01   1.1943E-03  0.0088
   3.0375E-01   3.1114E-01   1.1948E-03  0.0087
   3.1114E-01   3.1871E-01   1.2055E-03  0.0086
   3.1871E-01   3.2646E-01   1.2004E-03  0.0085
   3.2646E-01   3.3441E-01   1.1817E-03  0.0084
   3.3441E-01   3.4254E-01   1.2167E-03  0.0082
   3.4254E-01   3.5088E-01   1.1768E-03  0.0082
   3.5088E-01   3.5941E-01   1.1794E-03  0.0081
   3.5941E-01   3.6816E-01   1.1714E-03  0.0081
   3.6816E-01   3.7712E-01   1.1869E-03  0.0079
   3.7712E-01   3.8629E-01   1.1728E-03  0.0079
   3.8629E-01   3.9569E-01   1.1514E-03  0.0079
   3.9569E-01   4.0532E-01   1.1654E-03  0.0077
   4.0532E-01   4.1518E-01   1.1575E-03  0.0076
   4.1518E-01   4.2528E-01   1.1458E-03  0.0076
   4.2528E-01   4.3563E-01   1.1527E-03  0.0075
   4.3563E-01   4.4623E-01   1.1251E-03  0.0075
   4.4623E-01   4.5708E-01   1.1330E-03  0.0074
   4.5708E-01   4.6821E-01   1.1231E-03  0.0073
   4.6821E-01   4.7960E-01   1.1113E-03  0.0073
   4.7960E-01   4.9127E-01   1.1052E-03  0.0072
   4.9127E-01   5.0322E-01   1.0825E-03  0.0072
   5.0322E-01   5.1546E-01   1.0977E-03  0.0071
   5.1546E-01   5.2800E-01   1.0884E-03  0.0070
   5.2800E-01   5.4085E-01   1.0688E-03  0.0070
   5.4085E-01   5.5401E-01   1.0489E-03  0.0070
   5.5401E-01   5.6749E-01   1.0371E-03  0.0069
   5.6749E-01   5.8130E-01   1.0292E-03  0.0069
   5.8130E-01   5.9544E-01   1.0166E-03  0.0068
   5.9544E-01   6.0993E-01   1.0058E-03  0.0068
   6.0993E-01   6.2477E-01   9.9488E-04  0.0067
   6.2477E-01   6.3997E-01   9.8971E-04  0.0067
   6.3997E-01   6.5554E-01   9.7177E-04  0.0066
   6.5554E-01   6.7149E-01   9.4918E-04  0.0066
   6.7149E-01   6.8783E-01   9.3611E-04  0.0066
   6.8783E-01   7.0456E-01   9.1758E-04  0.0066
   7.0456E-01   7.2171E-01   9.1417E-04  0.0065
   7.2171E-01   7.3927E-01   8.7724E-04  0.0066
   7.3927E-01   7.5725E-01   8.7430E-04  0.0065
   7.5725E-01   7.7568E-01   8.5531E-04  0.0065
   7.7568E-01   7.9455E-01   8.3990E-04  0.0065
   7.9455E-01   8.1388E-01   8.0723E-04  0.0065
   8.1388E-01   8.3368E-01   7.9263E-04  0.0065
   8.3368E-01   8.5397E-01   7.7091E-04  0.0065
   8.5397E-01   8.7475E-01   7.4987E-04  0.0065
   8.7475E-01   8.9603E-01   7.1872E-04  0.0066
   8.9603E-01   9.1783E-01   6.9299E-04  0.0067
   9.1783E-01   9.4016E-01   6.8376E-04  0.0066
   9.4016E-01   9.6304E-01   6.3543E-04  0.0068
   9.6304E-01   9.8647E-01   6.1629E-04  0.0068
   9.8647E-01   1.0105E+00   5.6780E-04  0.0070
   1.0105E+00   1.0351E+00   5.6882E-04  0.0069
   1.0351E+00   1.0602E+00   5.5848E-04  0.0069
   1.0602E+00   1.0860E+00   5.5625E-04  0.0068
   1.0860E+00   1.1125E+00   5.4703E-04  0.0068
   1.1125E+00   1.1395E+00   5.3952E-04  0.0068
   1.1395E+00   1.1673E+00   5.3522E-04  0.0067
   1.1673E+00   1.1957E+00   5.3288E-04  0.0066
   1.1957E+00   1.2247E+00   5.3180E-04  0.0066
   1.2247E+00   1.2545E+00   5.2335E-04  0.0065
   1.2545E+00   1.2851E+00   5.0708E-04  0.0066
   1.2851E+00   1.3163E+00   4.9435E-04  0.0066
   1.3163E+00   1.3484E+00   4.8883E-04  0.0065
   1.3484E+00   1.3812E+00   4.8088E-04  0.0065
   1.3812E+00   1.4148E+00   4.8148E-04  0.0064
   1.4148E+00   1.4492E+00   4.6756E-04  0.0064
   1.4492E+00   1.4845E+00   4.5674E-04  0.0064
   1.4845E+00   1.5206E+00   4.3351E-04  0.0065
   1.5206E+00   1.5576E+00   4.2413E-04  0.0065
   1.5576E+00   1.5955E+00   4.1954E-04  0.0065
   1.5955E+00   1.6343E+00   4.0233E-04  0.0065
   1.6343E+00   1.6741E+00   3.8830E-04  0.0066
   1.6741E+00   1.7148E+00   3.8372E-04  0.0065
   1.7148E+00   1.7565E+00   3.7366E-04  0.0065
   1.7565E+00   1.7992E+00   3.5856E-04  0.0066
   1.7992E+00   1.8430E+00   3.4280E-04  0.0067
   1.8430E+00   1.8879E+00   3.3059E-04  0.0067
   1.8879E+00   1.9338E+00   3.2385E-04  0.0067
   1.9338E+00   1.9808E+00   3.1051E-04  0.0068
   1.9808E+00   2.0290E+00   2.9876E-04  0.0068
   2.0290E+00   2.0784E+00   2.8410E-04  0.0069
   2.0784E+00   2.1290E+00   2.7499E-04  0.0069
   2.1290E+00   2.1808E+00   2.5682E-04  0.0071
   2.1808E+00   2.2338E+00   2.4921E-04  0.0071
   2.2338E+00   2.2882E+00   2.3491E-04  0.0072
   2.2882E+00   2.3439E+00   2.2673E-04  0.0073
   2.3439E+00   2.4009E+00   2.1501E-04  0.0074
   2.4009E+00   2.4593E+00   2.0619E-04  0.0074
   2.4593E+00   2.5191E+00   1.9879E-04  0.0075
   2.5191E+00   2.5804E+00   1.8696E-04  0.0076
   2.5804E+00   2.6432E+00   1.7549E-04  0.0078
   2.6432E+00   2.7075E+00   1.6805E-04  0.0079
   2.7075E+00   2.7734E+00   1.5666E-04  0.0080
   2.7734E+00   2.8409E+00   1.4901E-04  0.0081
   2.8409E+00   2.9100E+00   1.4184E-04  0.0083
   2.9100E+00   2.9808E+00   1.3196E-04  0.0085
   2.9808E+00   3.0533E+00   1.2606E-04  0.0085
   3.0533E+00   3.1276E+00   1.1450E-04  0.0089
   3.1276E+00   3.2037E+00   1.1131E-04  0.0089
   3.2037E+00   3.2817E+00   1.0248E-04  0.0091
   3.2817E+00   3.3615E+00   9.7279E-05  0.0093
   3.3615E+00   3.4433E+00   8.8806E-05  0.0096
   3.4433E+00   3.5271E+00   8.3068E-05  0.0098
   3.5271E+00   3.6129E+00   7.9324E-05  0.0099
   3.6129E+00   3.7008E+00   7.3072E-05  0.0102
   3.7008E+00   3.7908E+00   6.9211E-05  0.0103
   3.7908E+00   3.8831E+00   6.3252E-05  0.0107
   3.8831E+00   3.9776E+00   6.0000E-05  0.0108
   3.9776E+00   4.0743E+00   5.6170E-05  0.0111
   4.0743E+00   4.1735E+00   5.1359E-05  0.0114
   4.1735E+00   4.2750E+00   4.8800E-05  0.0116
   4.2750E+00   4.3790E+00   4.3821E-05  0.0121
   4.3790E+00   4.4856E+00   4.0233E-05  0.0125
   4.4856E+00   4.5947E+00   3.8337E-05  0.0126
   4.5947E+00   4.7065E+00   3.5810E-05  0.0129
   4.7065E+00   4.8210E+00   3.2648E-05  0.0134
   4.8210E+00   4.9383E+00   2.9662E-05  0.0138
   4.9383E+00   5.0585E+00   2.7731E-05  0.0141
   5.0585E+00   5.1815E+00   2.5919E-05  0.0145
   5.1815E+00   5.3076E+00   2.3971E-05  0.0149
   5.3076E+00   5.4368E+00   2.2090E-05  0.0153
   5.4368E+00   5.5690E+00   2.0865E-05  0.0155
   5.5690E+00   5.7045E+00   1.9006E-05  0.0161
   5.7045E+00   5.8433E+00   1.7330E-05  0.0166
   5.8433E+00   5.9855E+00   1.5826E-05  0.0172
   5.9855E+00   6.1311E+00   1.4695E-05  0.0177
   6.1311E+00   6.2803E+00   1.3590E-05  0.0181
   6.2803E+00   6.4331E+00   1.2722E-05  0.0185
   6.4331E+00   6.5896E+00   1.1981E-05  0.0189
   6.5896E+00   6.7500E+00   1.0684E-05  0.0197
   6.7500E+00   6.9142E+00   1.0546E-05  0.0196
   6.9142E+00   7.0824E+00   9.3167E-06  0.0206
   7.0824E+00   7.2548E+00   8.6176E-06  0.0212
   7.2548E+00   7.4313E+00   7.8559E-06  0.0219
   7.4313E+00   7.6121E+00   7.5144E-06  0.0222
   7.6121E+00   7.7973E+00   6.6340E-06  0.0233
   7.7973E+00   7.9870E+00   6.2849E-06  0.0236
   7.9870E+00   8.1813E+00   5.8269E-06  0.0243
   8.1813E+00   8.3804E+00   5.1308E-06  0.0255
   8.3804E+00   8.5843E+00   4.7016E-06  0.0264
   8.5843E+00   8.7931E+00   4.6266E-06  0.0263
   8.7931E+00   9.0071E+00   4.3438E-06  0.0268
   9.0071E+00   9.2262E+00   3.8969E-06  0.0279
   9.2262E+00   9.4507E+00   3.5088E-06  0.0291
   9.4507E+00   9.6807E+00   3.2370E-06  0.0299
   9.6807E+00   9.9162E+00   3.0130E-06  0.0306
   9.9162E+00   1.0157E+01   2.8682E-06  0.0310
   1.0157E+01   1.0405E+01   2.6355E-06  0.0320
   1.0405E+01   1.0658E+01   2.3767E-06  0.0333
   1.0658E+01   1.0917E+01   2.2020E-06  0.0341
   1.0917E+01   1.1183E+01   1.9828E-06  0.0355
   1.1183E+01   1.1455E+01   1.8805E-06  0.0361
   1.1455E+01   1.1733E+01   1.7282E-06  0.0371
   1.1733E+01   1.2019E+01   1.6428E-06  0.0376
   1.2019E+01   1.2311E+01   1.4875E-06  0.0391
   1.2311E+01   1.2611E+01   1.3821E-06  0.0400
   1.2611E+01   1.2918E+01   1.1798E-06  0.0428
   1.2918E+01   1.3232E+01   1.0796E-06  0.0443
   1.3232E+01   1.3554E+01   9.5047E-07  0.0466
   1.3554E+01   1.3884E+01   7.6516E-07  0.0513
   1.3884E+01   1.4222E+01   7.4402E-07  0.0514
   1.4222E+01   1.4568E+01   6.6277E-07  0.0539
   1.4568E+01   1.4922E+01   6.7054E-07  0.0529
   1.4922E+01   1.5285E+01   5.9310E-07  0.0556
   1.5285E+01   1.5657E+01   5.7274E-07  0.0558
   1.5657E+01   1.6038E+01   4.6638E-07  0.0612
   1.6038E+01   1.6428E+01   4.6812E-07  0.0603
   1.6428E+01   1.6828E+01   3.4942E-07  0.0690
   1.6828E+01   1.7237E+01   4.2742E-07  0.0617
   1.7237E+01   1.7657E+01   3.2586E-07  0.0698
   1.7657E+01   1.8086E+01   2.5217E-07  0.0784
   1.8086E+01   1.8526E+01   2.5830E-07  0.0765
   1.8526E+01   1.8977E+01   2.2333E-07  0.0814
   1.8977E+01   1.9439E+01   2.0791E-07  0.0832
   1.9439E+01   1.9912E+01   1.9663E-07  0.0846
   1.9912E+01   2.0396E+01   1.5412E-07  0.0945
   2.0396E+01   2.0893E+01   1.2762E-07  0.1026
   2.0893E+01   2.1401E+01   1.1410E-07  0.1072
   2.1401E+01   2.1922E+01   1.1651E-07  0.1048
   2.1922E+01   2.2455E+01   8.7494E-08  0.1195
   2.2455E+01   2.3001E+01   6.5892E-08  0.1361
   2.3001E+01   2.3561E+01   6.5518E-08  0.1348
   2.3561E+01   2.4134E+01   4.6518E-08  0.1581
   2.4134E+01   2.4721E+01   4.3142E-08  0.1622
   2.4721E+01   2.5323E+01   4.3226E-08  0.1601
   2.5323E+01   2.5939E+01   2.4887E-08  0.2085
   2.5939E+01   2.6570E+01   2.0070E-08  0.2294
   2.6570E+01   2.7217E+01   1.7531E-08  0.2425
   2.7217E+01   2.7879E+01   1.2081E-08  0.2887
   2.7879E+01   2.8557E+01   9.8283E-09  0.3162
   2.8557E+01   2.9252E+01   8.6353E-09  0.3333
   2.9252E+01   2.9964E+01   3.7468E-09  0.5000
   2.9964E+01   3.0693E+01   2.7433E-09  0.5774
   3.0693E+01   3.1440E+01   1.7854E-09  0.7071
   3.1440E+01   3.2205E+01   0.0000E+00  0.0000
   3.2205E+01   3.2988E+01   0.0000E+00  0.0000
   3.2988E+01   3.3791E+01   0.0000E+00  0.0000
   3.3791E+01   3.4613E+01   0.0000E+00  0.0000
   3.4613E+01   3.5455E+01   0.0000E+00  0.0000
   3.5455E+01   3.6318E+01   0.0000E+00  0.0000
   3.6318E+01   3.7201E+01   0.0000E+00  0.0000
   3.7201E+01   3.8106E+01   0.0000E+00  0.0000
   3.8106E+01   3.9034E+01   0.0000E+00  0.0000
   3.9034E+01   3.9983E+01   0.0000E+00  0.0000
   3.9983E+01   4.0956E+01   0.0000E+00  0.0000
   4.0956E+01   4.1953E+01   0.0000E+00  0.0000
   4.1953E+01   4.2973E+01   0.0000E+00  0.0000
   4.2973E+01   4.4019E+01   0.0000E+00  0.0000
   4.4019E+01   4.5090E+01   0.0000E+00  0.0000
   4.5090E+01   4.6187E+01   0.0000E+00  0.0000
   4.6187E+01   4.7311E+01   0.0000E+00  0.0000
   4.7311E+01   4.8462E+01   0.0000E+00  0.0000
   4.8462E+01   4.9641E+01   0.0000E+00  0.0000
   4.9641E+01   5.0849E+01   0.0000E+00  0.0000
   5.0849E+01   5.2086E+01   0.0000E+00  0.0000
   5.2086E+01   5.3353E+01   0.0000E+00  0.0000
   5.3353E+01   5.4651E+01   0.0000E+00  0.0000
   5.4651E+01   5.5981E+01   0.0000E+00  0.0000
   5.5981E+01   5.7343E+01   0.0000E+00  0.0000
   5.7343E+01   5.8738E+01   0.0000E+00  0.0000
   5.8738E+01   6.0168E+01   0.0000E+00  0.0000
   6.0168E+01   6.1632E+01   0.0000E+00  0.0000
   6.1632E+01   6.3131E+01   0.0000E+00  0.0000
   6.3131E+01   6.4667E+01   0.0000E+00  0.0000
   6.4667E+01   6.6240E+01   0.0000E+00  0.0000
   6.6240E+01   6.7852E+01   0.0000E+00  0.0000
   6.7852E+01   6.9503E+01   0.0000E+00  0.0000
   6.9503E+01   7.1194E+01   0.0000E+00  0.0000
   7.1194E+01   7.2926E+01   0.0000E+00  0.0000
   7.2926E+01   7.4701E+01   0.0000E+00  0.0000
   7.4701E+01   7.6518E+01   0.0000E+00  0.0000
   7.6518E+01   7.8380E+01   0.0000E+00  0.0000
   7.8380E+01   8.0287E+01   0.0000E+00  0.0000
   8.0287E+01   8.2240E+01   0.0000E+00  0.0000
   8.2240E+01   8.4241E+01   0.0000E+00  0.0000
   8.4241E+01   8.6291E+01   0.0000E+00  0.0000
   8.6291E+01   8.8391E+01   0.0000E+00  0.0000
   8.8391E+01   9.0541E+01   0.0000E+00  0.0000
   9.0541E+01   9.2744E+01   0.0000E+00  0.0000
   9.2744E+01   9.5001E+01   0.0000E+00  0.0000
   9.5001E+01   9.7312E+01   0.0000E+00  0.0000
   9.7312E+01   9.9680E+01   0.0000E+00  0.0000
   9.9680E+01   1.0211E+02   0.0000E+00  0.0000
   1.0211E+02   1.0459E+02   0.0000E+00  0.0000
   1.0459E+02   1.0713E+02   0.0000E+00  0.0000
   1.0713E+02   1.0974E+02   0.0000E+00  0.0000
   1.0974E+02   1.1241E+02   0.0000E+00  0.0000
   1.1241E+02   1.1515E+02   0.0000E+00  0.0000
   1.1515E+02   1.1795E+02   0.0000E+00  0.0000
   1.1795E+02   1.2082E+02   0.0000E+00  0.0000
   1.2082E+02   1.2376E+02   0.0000E+00  0.0000
   1.2376E+02   1.2677E+02   0.0000E+00  0.0000
   1.2677E+02   1.2985E+02   0.0000E+00  0.0000
   1.2985E+02   1.3301E+02   0.0000E+00  0.0000
   1.3301E+02   1.3625E+02   0.0000E+00  0.0000
   1.3625E+02   1.3956E+02   0.0000E+00  0.0000
   1.3956E+02   1.4296E+02   0.0000E+00  0.0000
   1.4296E+02   1.4644E+02   0.0000E+00  0.0000
   1.4644E+02   1.5000E+02   0.0000E+00  0.0000

#   sum over                 1.1919E-05
'no. =    1   reg = 117 - 217'
msuc: {\huge [t-cross] in region mesh}
msdr: {\it plotted by \ANGEL \version}
msdl: {\it calculated by \PHITS  3.26}
wt: s(0.7)
\vspace{-3}
  region surface crossing
  area  &=&   1.0000E+00 [cm^2]
e:
 
# Information for Restart Calculation
# This calculation was newly started
# istdev =  2 # 1:Batch variance, 2:History variance
# resc2  = 1.50000000000000000E+09 # Total source weight or Total source weight / maxcas
# resc3  = 1.50000000000000000E+09 # Total history number or Total batch number
# maxcas =   500000000 # History / Batch, only used for istdev=1
# bitrseed = 0000010101110101110110100110011001100101000001100111100100101101 # bit data of rseed
