44 <--- number of remaining batches 

-------------------------------------------------------------------------------
bat[       6] ncas =      600000000.
 bitrseed = 1101101111010011011000101101110001100110110010110001010100010001
          cpu time =   5 h.  8 m.  8.70 s.

 date = 2022-05-02
 time = 11h 53m 18s

