[ T-Cross ]
    title = [t-cross] in region mesh
     mesh =  reg            # mesh type is region-wise
      reg =    1            # number of crossing regions
      non     r-from    r-to       area
      1       117       217        1.000000    
   e-type =    3            # e-mesh is log given by emin, emax and ne
     emin =  1.0000000E-02  # minimum value of e-mesh points
     emax =   150.0000      # maximum value of e-mesh points
#    edel =  2.4039514E-02  # mesh width of e-mesh points
       ne =    400          # number of e-mesh points
#    data = ( e(i), i = 1, ne + 1 )
#           1.00000E-02  1.02433E-02  1.04925E-02  1.07478E-02  1.10093E-02
#           1.12772E-02  1.15516E-02  1.18326E-02  1.21205E-02  1.24154E-02
#           1.27175E-02  1.30269E-02  1.33439E-02  1.36686E-02  1.40011E-02
#           1.43418E-02  1.46907E-02  1.50482E-02  1.54143E-02  1.57894E-02
#           1.61735E-02  1.65670E-02  1.69701E-02  1.73830E-02  1.78060E-02
#           1.82392E-02  1.86830E-02  1.91375E-02  1.96032E-02  2.00801E-02
#           2.05687E-02  2.10692E-02  2.15818E-02  2.21069E-02  2.26448E-02
#           2.31957E-02  2.37601E-02  2.43382E-02  2.49304E-02  2.55369E-02
#           2.61583E-02  2.67947E-02  2.74467E-02  2.81145E-02  2.87985E-02
#           2.94992E-02  3.02169E-02  3.09521E-02  3.17052E-02  3.24766E-02
#           3.32668E-02  3.40762E-02  3.49053E-02  3.57546E-02  3.66246E-02
#           3.75157E-02  3.84284E-02  3.93634E-02  4.03212E-02  4.13022E-02
#           4.23071E-02  4.33365E-02  4.43909E-02  4.54710E-02  4.65773E-02
#           4.77106E-02  4.88714E-02  5.00605E-02  5.12785E-02  5.25262E-02
#           5.38042E-02  5.51133E-02  5.64542E-02  5.78278E-02  5.92348E-02
#           6.06760E-02  6.21523E-02  6.36645E-02  6.52135E-02  6.68002E-02
#           6.84255E-02  7.00904E-02  7.17957E-02  7.35426E-02  7.53319E-02
#           7.71648E-02  7.90423E-02  8.09655E-02  8.29354E-02  8.49533E-02
#           8.70203E-02  8.91376E-02  9.13064E-02  9.35279E-02  9.58035E-02
#           9.81345E-02  1.00522E-01  1.02968E-01  1.05473E-01  1.08040E-01
#           1.10668E-01  1.13361E-01  1.16119E-01  1.18944E-01  1.21838E-01
#           1.24803E-01  1.27839E-01  1.30950E-01  1.34136E-01  1.37399E-01
#           1.40742E-01  1.44167E-01  1.47675E-01  1.51268E-01  1.54948E-01
#           1.58718E-01  1.62580E-01  1.66535E-01  1.70587E-01  1.74738E-01
#           1.78989E-01  1.83344E-01  1.87805E-01  1.92375E-01  1.97055E-01
#           2.01850E-01  2.06761E-01  2.11792E-01  2.16945E-01  2.22223E-01
#           2.27630E-01  2.33169E-01  2.38842E-01  2.44653E-01  2.50605E-01
#           2.56703E-01  2.62949E-01  2.69346E-01  2.75900E-01  2.82613E-01
#           2.89489E-01  2.96532E-01  3.03747E-01  3.11138E-01  3.18708E-01
#           3.26462E-01  3.34405E-01  3.42542E-01  3.50876E-01  3.59413E-01
#           3.68158E-01  3.77116E-01  3.86291E-01  3.95690E-01  4.05317E-01
#           4.15179E-01  4.25281E-01  4.35628E-01  4.46227E-01  4.57084E-01
#           4.68205E-01  4.79597E-01  4.91266E-01  5.03219E-01  5.15463E-01
#           5.28005E-01  5.40851E-01  5.54011E-01  5.67490E-01  5.81298E-01
#           5.95441E-01  6.09929E-01  6.24769E-01  6.39970E-01  6.55541E-01
#           6.71491E-01  6.87828E-01  7.04564E-01  7.21706E-01  7.39266E-01
#           7.57253E-01  7.75678E-01  7.94551E-01  8.13883E-01  8.33685E-01
#           8.53969E-01  8.74747E-01  8.96030E-01  9.17831E-01  9.40163E-01
#           9.63038E-01  9.86469E-01  1.01047E+00  1.03506E+00  1.06024E+00
#           1.08604E+00  1.11246E+00  1.13953E+00  1.16725E+00  1.19565E+00
#           1.22474E+00  1.25454E+00  1.28507E+00  1.31633E+00  1.34836E+00
#           1.38117E+00  1.41477E+00  1.44920E+00  1.48446E+00  1.52057E+00
#           1.55757E+00  1.59547E+00  1.63429E+00  1.67405E+00  1.71478E+00
#           1.75650E+00  1.79924E+00  1.84302E+00  1.88786E+00  1.93379E+00
#           1.98084E+00  2.02904E+00  2.07841E+00  2.12898E+00  2.18078E+00
#           2.23384E+00  2.28819E+00  2.34386E+00  2.40089E+00  2.45930E+00
#           2.51914E+00  2.58043E+00  2.64322E+00  2.70753E+00  2.77341E+00
#           2.84088E+00  2.91001E+00  2.98081E+00  3.05333E+00  3.12762E+00
#           3.20372E+00  3.28167E+00  3.36152E+00  3.44330E+00  3.52708E+00
#           3.61290E+00  3.70080E+00  3.79085E+00  3.88308E+00  3.97756E+00
#           4.07434E+00  4.17347E+00  4.27501E+00  4.37903E+00  4.48557E+00
#           4.59471E+00  4.70650E+00  4.82102E+00  4.93832E+00  5.05847E+00
#           5.18155E+00  5.30762E+00  5.43676E+00  5.56904E+00  5.70453E+00
#           5.84333E+00  5.98550E+00  6.13114E+00  6.28031E+00  6.43312E+00
#           6.58964E+00  6.74997E+00  6.91420E+00  7.08243E+00  7.25475E+00
#           7.43126E+00  7.61207E+00  7.79728E+00  7.98700E+00  8.18133E+00
#           8.38038E+00  8.58428E+00  8.79315E+00  9.00709E+00  9.22624E+00
#           9.45072E+00  9.68067E+00  9.91620E+00  1.01575E+01  1.04046E+01
#           1.06578E+01  1.09171E+01  1.11827E+01  1.14548E+01  1.17335E+01
#           1.20190E+01  1.23114E+01  1.26109E+01  1.29178E+01  1.32321E+01
#           1.35540E+01  1.38838E+01  1.42216E+01  1.45676E+01  1.49221E+01
#           1.52851E+01  1.56570E+01  1.60380E+01  1.64282E+01  1.68279E+01
#           1.72374E+01  1.76568E+01  1.80864E+01  1.85264E+01  1.89772E+01
#           1.94389E+01  1.99119E+01  2.03963E+01  2.08926E+01  2.14009E+01
#           2.19216E+01  2.24550E+01  2.30014E+01  2.35610E+01  2.41343E+01
#           2.47215E+01  2.53230E+01  2.59391E+01  2.65702E+01  2.72167E+01
#           2.78789E+01  2.85572E+01  2.92520E+01  2.99637E+01  3.06928E+01
#           3.14396E+01  3.22045E+01  3.29881E+01  3.37907E+01  3.46128E+01
#           3.54550E+01  3.63177E+01  3.72013E+01  3.81064E+01  3.90336E+01
#           3.99833E+01  4.09561E+01  4.19526E+01  4.29734E+01  4.40189E+01
#           4.50900E+01  4.61870E+01  4.73108E+01  4.84619E+01  4.96410E+01
#           5.08488E+01  5.20860E+01  5.33533E+01  5.46514E+01  5.59812E+01
#           5.73432E+01  5.87384E+01  6.01676E+01  6.16315E+01  6.31311E+01
#           6.46671E+01  6.62405E+01  6.78522E+01  6.95031E+01  7.11941E+01
#           7.29263E+01  7.47007E+01  7.65182E+01  7.83800E+01  8.02870E+01
#           8.22405E+01  8.42414E+01  8.62911E+01  8.83906E+01  9.05412E+01
#           9.27442E+01  9.50007E+01  9.73122E+01  9.96799E+01  1.02105E+02
#           1.04589E+02  1.07134E+02  1.09741E+02  1.12411E+02  1.15146E+02
#           1.17948E+02  1.20817E+02  1.23757E+02  1.26768E+02  1.29852E+02
#           1.33012E+02  1.36248E+02  1.39563E+02  1.42959E+02  1.46437E+02
#           1.50000E+02
     unit =    2            # unit is [1/cm^2/(MeV/n)/source]
     axis =  eng            # axis of output
     file = detector-18.out  # file name of output for the above axis
   output = f-curr          # surface crossing forward current spectrum
     part =  neutron  
# kf/name :  2112     
#    used :        main (  %)        temp (  %)       total (  %)
#  memory :         414 (  0)           0 (  0)         414 (  0)

#------------------------------------------------------------------------------
#newpage:
#   no. =    1   reg = 117 - 217

x: Energy [MeV/n]
y:  F-Curr [1/cm^2/(MeV/n)/source]         
p: xlog ylog afac(0.8) form(0.9)
h: n            x            y(neutron ),hh0l   n 
#  e-lower      e-upper      neutron     r.err 
   1.0000E-02   1.0243E-02   3.6519E-03  0.0335
   1.0243E-02   1.0493E-02   3.7704E-03  0.0326
   1.0493E-02   1.0748E-02   3.7073E-03  0.0325
   1.0748E-02   1.1009E-02   3.6653E-03  0.0322
   1.1009E-02   1.1277E-02   3.6304E-03  0.0320
   1.1277E-02   1.1552E-02   3.6132E-03  0.0317
   1.1552E-02   1.1833E-02   3.3092E-03  0.0327
   1.1833E-02   1.2121E-02   3.4028E-03  0.0319
   1.2121E-02   1.2415E-02   3.3172E-03  0.0319
   1.2415E-02   1.2718E-02   3.2163E-03  0.0320
   1.2718E-02   1.3027E-02   3.1069E-03  0.0322
   1.3027E-02   1.3344E-02   3.1515E-03  0.0316
   1.3344E-02   1.3669E-02   3.0581E-03  0.0317
   1.3669E-02   1.4001E-02   2.9339E-03  0.0320
   1.4001E-02   1.4342E-02   2.8618E-03  0.0320
   1.4342E-02   1.4691E-02   2.8152E-03  0.0318
   1.4691E-02   1.5048E-02   2.8522E-03  0.0313
   1.5048E-02   1.5414E-02   2.8993E-03  0.0306
   1.5414E-02   1.5789E-02   2.7733E-03  0.0310
   1.5789E-02   1.6174E-02   2.6262E-03  0.0314
   1.6174E-02   1.6567E-02   2.6800E-03  0.0307
   1.6567E-02   1.6970E-02   2.6324E-03  0.0306
   1.6970E-02   1.7383E-02   2.4000E-03  0.0317
   1.7383E-02   1.7806E-02   2.4370E-03  0.0311
   1.7806E-02   1.8239E-02   2.4593E-03  0.0306
   1.8239E-02   1.8683E-02   2.3409E-03  0.0310
   1.8683E-02   1.9138E-02   2.2605E-03  0.0311
   1.9138E-02   1.9603E-02   2.2617E-03  0.0308
   1.9603E-02   2.0080E-02   2.2292E-03  0.0306
   2.0080E-02   2.0569E-02   2.1839E-03  0.0306
   2.0569E-02   2.1069E-02   2.1120E-03  0.0307
   2.1069E-02   2.1582E-02   2.0950E-03  0.0305
   2.1582E-02   2.2107E-02   1.9800E-03  0.0309
   2.2107E-02   2.2645E-02   1.8409E-03  0.0317
   2.2645E-02   2.3196E-02   1.9265E-03  0.0306
   2.3196E-02   2.3760E-02   1.8680E-03  0.0307
   2.3760E-02   2.4338E-02   1.9157E-03  0.0300
   2.4338E-02   2.4930E-02   1.7869E-03  0.0307
   2.4930E-02   2.5537E-02   1.8620E-03  0.0297
   2.5537E-02   2.6158E-02   1.7324E-03  0.0304
   2.6158E-02   2.6795E-02   1.7729E-03  0.0297
   2.6795E-02   2.7447E-02   1.6469E-03  0.0305
   2.7447E-02   2.8114E-02   1.6479E-03  0.0301
   2.8114E-02   2.8799E-02   1.5782E-03  0.0304
   2.8799E-02   2.9499E-02   1.5802E-03  0.0300
   2.9499E-02   3.0217E-02   1.5493E-03  0.0300
   3.0217E-02   3.0952E-02   1.4854E-03  0.0302
   3.0952E-02   3.1705E-02   1.4849E-03  0.0299
   3.1705E-02   3.2477E-02   1.4803E-03  0.0295
   3.2477E-02   3.3267E-02   1.4040E-03  0.0300
   3.3267E-02   3.4076E-02   1.4748E-03  0.0289
   3.4076E-02   3.4905E-02   1.3891E-03  0.0294
   3.4905E-02   3.5755E-02   1.3355E-03  0.0296
   3.5755E-02   3.6625E-02   1.2387E-03  0.0304
   3.6625E-02   3.7516E-02   1.2334E-03  0.0301
   3.7516E-02   3.8428E-02   1.2434E-03  0.0296
   3.8428E-02   3.9363E-02   1.2356E-03  0.0294
   3.9363E-02   4.0321E-02   1.1767E-03  0.0297
   4.0321E-02   4.1302E-02   1.1962E-03  0.0291
   4.1302E-02   4.2307E-02   1.1702E-03  0.0291
   4.2307E-02   4.3337E-02   1.1123E-03  0.0295
   4.3337E-02   4.4391E-02   1.1269E-03  0.0289
   4.4391E-02   4.5471E-02   1.0583E-03  0.0295
   4.5471E-02   4.6577E-02   1.0139E-03  0.0298
   4.6577E-02   4.7711E-02   1.0270E-03  0.0292
   4.7711E-02   4.8871E-02   1.0106E-03  0.0292
   4.8871E-02   5.0061E-02   1.0103E-03  0.0288
   5.0061E-02   5.1279E-02   9.1628E-04  0.0299
   5.1279E-02   5.2526E-02   9.5215E-04  0.0290
   5.2526E-02   5.3804E-02   9.6351E-04  0.0284
   5.3804E-02   5.5113E-02   9.2513E-04  0.0287
   5.5113E-02   5.6454E-02   9.0448E-04  0.0287
   5.6454E-02   5.7828E-02   8.7402E-04  0.0288
   5.7828E-02   5.9235E-02   8.4483E-04  0.0289
   5.9235E-02   6.0676E-02   8.1064E-04  0.0292
   6.0676E-02   6.2152E-02   7.9280E-04  0.0291
   6.2152E-02   6.3665E-02   8.1144E-04  0.0285
   6.3665E-02   6.5214E-02   8.0575E-04  0.0282
   6.5214E-02   6.6800E-02   7.7966E-04  0.0284
   6.6800E-02   6.8426E-02   7.6835E-04  0.0282
   6.8426E-02   7.0090E-02   7.3794E-04  0.0285
   7.0090E-02   7.1796E-02   7.5784E-04  0.0278
   7.1796E-02   7.3543E-02   6.9940E-04  0.0286
   7.3543E-02   7.5332E-02   7.2391E-04  0.0277
   7.5332E-02   7.7165E-02   6.7928E-04  0.0283
   7.7165E-02   7.9042E-02   6.6509E-04  0.0282
   7.9042E-02   8.0965E-02   6.4414E-04  0.0283
   8.0965E-02   8.2935E-02   6.2578E-04  0.0284
   8.2935E-02   8.4953E-02   6.3933E-04  0.0278
   8.4953E-02   8.7020E-02   5.7951E-04  0.0289
   8.7020E-02   8.9138E-02   5.6765E-04  0.0288
   8.9138E-02   9.1306E-02   5.7797E-04  0.0282
   9.1306E-02   9.3528E-02   5.6775E-04  0.0281
   9.3528E-02   9.5804E-02   5.3866E-04  0.0285
   9.5804E-02   9.8134E-02   5.4360E-04  0.0280
   9.8134E-02   1.0052E-01   5.3092E-04  0.0280
   1.0052E-01   1.0297E-01   5.1378E-04  0.0282
   1.0297E-01   1.0547E-01   4.8044E-04  0.0288
   1.0547E-01   1.0804E-01   4.7505E-04  0.0286
   1.0804E-01   1.1067E-01   4.8365E-04  0.0280
   1.1067E-01   1.1336E-01   4.5182E-04  0.0286
   1.1336E-01   1.1612E-01   4.5360E-04  0.0282
   1.1612E-01   1.1894E-01   4.4888E-04  0.0280
   1.1894E-01   1.2184E-01   4.3213E-04  0.0282
   1.2184E-01   1.2480E-01   4.1028E-04  0.0286
   1.2480E-01   1.2784E-01   4.1399E-04  0.0281
   1.2784E-01   1.3095E-01   4.0784E-04  0.0280
   1.3095E-01   1.3414E-01   4.0706E-04  0.0277
   1.3414E-01   1.3740E-01   4.0370E-04  0.0275
   1.3740E-01   1.4074E-01   3.8846E-04  0.0277
   1.4074E-01   1.4417E-01   3.6841E-04  0.0281
   1.4417E-01   1.4767E-01   3.6269E-04  0.0280
   1.4767E-01   1.5127E-01   3.5019E-04  0.0281
   1.5127E-01   1.5495E-01   3.4968E-04  0.0278
   1.5495E-01   1.5872E-01   3.3702E-04  0.0280
   1.5872E-01   1.6258E-01   3.1269E-04  0.0287
   1.6258E-01   1.6654E-01   3.1008E-04  0.0285
   1.6654E-01   1.7059E-01   3.0370E-04  0.0284
   1.7059E-01   1.7474E-01   3.0027E-04  0.0283
   1.7474E-01   1.7899E-01   2.9274E-04  0.0283
   1.7899E-01   1.8334E-01   2.9147E-04  0.0280
   1.8334E-01   1.8781E-01   2.9149E-04  0.0277
   1.8781E-01   1.9237E-01   2.8493E-04  0.0276
   1.9237E-01   1.9706E-01   2.7663E-04  0.0277
   1.9706E-01   2.0185E-01   2.7209E-04  0.0276
   2.0185E-01   2.0676E-01   2.7089E-04  0.0273
   2.0676E-01   2.1179E-01   2.7735E-04  0.0267
   2.1179E-01   2.1694E-01   2.9044E-04  0.0258
   2.1694E-01   2.2222E-01   2.9163E-04  0.0254
   2.2222E-01   2.2763E-01   2.9652E-04  0.0249
   2.2763E-01   2.3317E-01   2.9890E-04  0.0245
   2.3317E-01   2.3884E-01   3.2853E-04  0.0231
   2.3884E-01   2.4465E-01   3.2340E-04  0.0230
   2.4465E-01   2.5061E-01   3.5828E-04  0.0216
   2.5061E-01   2.5670E-01   3.4574E-04  0.0217
   2.5670E-01   2.6295E-01   3.6819E-04  0.0208
   2.6295E-01   2.6935E-01   3.7942E-04  0.0202
   2.6935E-01   2.7590E-01   3.8903E-04  0.0197
   2.7590E-01   2.8261E-01   3.9343E-04  0.0194
   2.8261E-01   2.8949E-01   3.9204E-04  0.0192
   2.8949E-01   2.9653E-01   4.0548E-04  0.0187
   2.9653E-01   3.0375E-01   4.2497E-04  0.0180
   3.0375E-01   3.1114E-01   4.3735E-04  0.0175
   3.1114E-01   3.1871E-01   4.3498E-04  0.0174
   3.1871E-01   3.2646E-01   4.6374E-04  0.0166
   3.2646E-01   3.3441E-01   4.7002E-04  0.0163
   3.3441E-01   3.4254E-01   4.6659E-04  0.0162
   3.4254E-01   3.5088E-01   4.8725E-04  0.0157
   3.5088E-01   3.5941E-01   4.8492E-04  0.0155
   3.5941E-01   3.6816E-01   5.0235E-04  0.0151
   3.6816E-01   3.7712E-01   5.1715E-04  0.0147
   3.7712E-01   3.8629E-01   5.1506E-04  0.0145
   3.8629E-01   3.9569E-01   5.2828E-04  0.0142
   3.9569E-01   4.0532E-01   5.3240E-04  0.0139
   4.0532E-01   4.1518E-01   5.4308E-04  0.0136
   4.1518E-01   4.2528E-01   5.7367E-04  0.0131
   4.2528E-01   4.3563E-01   5.7350E-04  0.0129
   4.3563E-01   4.4623E-01   5.6502E-04  0.0129
   4.4623E-01   4.5708E-01   5.7883E-04  0.0126
   4.5708E-01   4.6821E-01   5.7967E-04  0.0124
   4.6821E-01   4.7960E-01   5.9940E-04  0.0121
   4.7960E-01   4.9127E-01   6.0040E-04  0.0119
   4.9127E-01   5.0322E-01   6.0785E-04  0.0117
   5.0322E-01   5.1546E-01   6.2008E-04  0.0114
   5.1546E-01   5.2800E-01   6.2866E-04  0.0112
   5.2800E-01   5.4085E-01   6.4421E-04  0.0110
   5.4085E-01   5.5401E-01   6.3612E-04  0.0109
   5.5401E-01   5.6749E-01   6.3954E-04  0.0107
   5.6749E-01   5.8130E-01   6.7195E-04  0.0103
   5.8130E-01   5.9544E-01   6.5301E-04  0.0104
   5.9544E-01   6.0993E-01   6.7010E-04  0.0101
   6.0993E-01   6.2477E-01   6.6572E-04  0.0100
   6.2477E-01   6.3997E-01   6.7288E-04  0.0099
   6.3997E-01   6.5554E-01   6.8779E-04  0.0096
   6.5554E-01   6.7149E-01   6.9914E-04  0.0094
   6.7149E-01   6.8783E-01   6.9193E-04  0.0094
   6.8783E-01   7.0456E-01   6.8971E-04  0.0093
   7.0456E-01   7.2171E-01   6.9450E-04  0.0091
   7.2171E-01   7.3927E-01   6.9439E-04  0.0090
   7.3927E-01   7.5725E-01   6.9341E-04  0.0089
   7.5725E-01   7.7568E-01   6.9909E-04  0.0088
   7.7568E-01   7.9455E-01   6.8850E-04  0.0087
   7.9455E-01   8.1388E-01   7.0662E-04  0.0085
   8.1388E-01   8.3368E-01   7.0687E-04  0.0084
   8.3368E-01   8.5397E-01   7.0619E-04  0.0083
   8.5397E-01   8.7475E-01   7.0231E-04  0.0082
   8.7475E-01   8.9603E-01   7.0674E-04  0.0081
   8.9603E-01   9.1783E-01   7.1332E-04  0.0080
   9.1783E-01   9.4016E-01   7.0577E-04  0.0079
   9.4016E-01   9.6304E-01   7.0257E-04  0.0079
   9.6304E-01   9.8647E-01   7.0915E-04  0.0077
   9.8647E-01   1.0105E+00   7.0379E-04  0.0077
   1.0105E+00   1.0351E+00   6.9305E-04  0.0076
   1.0351E+00   1.0602E+00   6.8540E-04  0.0076
   1.0602E+00   1.0860E+00   6.8098E-04  0.0075
   1.0860E+00   1.1125E+00   6.6219E-04  0.0075
   1.1125E+00   1.1395E+00   6.6405E-04  0.0074
   1.1395E+00   1.1673E+00   6.5172E-04  0.0074
   1.1673E+00   1.1957E+00   6.4038E-04  0.0074
   1.1957E+00   1.2247E+00   6.4685E-04  0.0073
   1.2247E+00   1.2545E+00   6.2799E-04  0.0073
   1.2545E+00   1.2851E+00   6.1323E-04  0.0073
   1.2851E+00   1.3163E+00   5.9820E-04  0.0073
   1.3163E+00   1.3484E+00   5.9720E-04  0.0072
   1.3484E+00   1.3812E+00   5.8190E-04  0.0072
   1.3812E+00   1.4148E+00   5.8054E-04  0.0071
   1.4148E+00   1.4492E+00   5.7521E-04  0.0071
   1.4492E+00   1.4845E+00   5.6391E-04  0.0071
   1.4845E+00   1.5206E+00   5.5906E-04  0.0070
   1.5206E+00   1.5576E+00   5.3627E-04  0.0071
   1.5576E+00   1.5955E+00   5.2242E-04  0.0071
   1.5955E+00   1.6343E+00   5.0799E-04  0.0071
   1.6343E+00   1.6741E+00   4.9430E-04  0.0071
   1.6741E+00   1.7148E+00   4.7354E-04  0.0072
   1.7148E+00   1.7565E+00   4.7372E-04  0.0071
   1.7565E+00   1.7992E+00   4.6140E-04  0.0071
   1.7992E+00   1.8430E+00   4.4956E-04  0.0071
   1.8430E+00   1.8879E+00   4.3592E-04  0.0071
   1.8879E+00   1.9338E+00   4.2324E-04  0.0071
   1.9338E+00   1.9808E+00   4.0970E-04  0.0072
   1.9808E+00   2.0290E+00   4.0583E-04  0.0071
   2.0290E+00   2.0784E+00   3.9649E-04  0.0071
   2.0784E+00   2.1290E+00   3.7746E-04  0.0072
   2.1290E+00   2.1808E+00   3.7157E-04  0.0072
   2.1808E+00   2.2338E+00   3.5478E-04  0.0073
   2.2338E+00   2.2882E+00   3.5033E-04  0.0072
   2.2882E+00   2.3439E+00   3.3848E-04  0.0072
   2.3439E+00   2.4009E+00   3.2187E-04  0.0073
   2.4009E+00   2.4593E+00   3.1696E-04  0.0073
   2.4593E+00   2.5191E+00   3.0881E-04  0.0073
   2.5191E+00   2.5804E+00   2.9616E-04  0.0074
   2.5804E+00   2.6432E+00   2.9285E-04  0.0073
   2.6432E+00   2.7075E+00   2.8374E-04  0.0074
   2.7075E+00   2.7734E+00   2.7320E-04  0.0074
   2.7734E+00   2.8409E+00   2.6406E-04  0.0075
   2.8409E+00   2.9100E+00   2.5925E-04  0.0074
   2.9100E+00   2.9808E+00   2.4713E-04  0.0075
   2.9808E+00   3.0533E+00   2.4712E-04  0.0074
   3.0533E+00   3.1276E+00   2.3654E-04  0.0075
   3.1276E+00   3.2037E+00   2.3162E-04  0.0075
   3.2037E+00   3.2817E+00   2.2612E-04  0.0075
   3.2817E+00   3.3615E+00   2.2116E-04  0.0075
   3.3615E+00   3.4433E+00   2.1685E-04  0.0075
   3.4433E+00   3.5271E+00   2.1184E-04  0.0075
   3.5271E+00   3.6129E+00   2.0879E-04  0.0074
   3.6129E+00   3.7008E+00   2.0246E-04  0.0075
   3.7008E+00   3.7908E+00   1.9892E-04  0.0074
   3.7908E+00   3.8831E+00   1.9549E-04  0.0074
   3.8831E+00   3.9776E+00   1.9241E-04  0.0074
   3.9776E+00   4.0743E+00   1.8636E-04  0.0074
   4.0743E+00   4.1735E+00   1.8621E-04  0.0073
   4.1735E+00   4.2750E+00   1.8470E-04  0.0073
   4.2750E+00   4.3790E+00   1.7950E-04  0.0073
   4.3790E+00   4.4856E+00   1.7786E-04  0.0072
   4.4856E+00   4.5947E+00   1.7807E-04  0.0071
   4.5947E+00   4.7065E+00   1.7427E-04  0.0071
   4.7065E+00   4.8210E+00   1.7438E-04  0.0071
   4.8210E+00   4.9383E+00   1.7267E-04  0.0070
   4.9383E+00   5.0585E+00   1.6984E-04  0.0070
   5.0585E+00   5.1815E+00   1.6500E-04  0.0070
   5.1815E+00   5.3076E+00   1.6156E-04  0.0070
   5.3076E+00   5.4368E+00   1.5741E-04  0.0070
   5.4368E+00   5.5690E+00   1.5260E-04  0.0070
   5.5690E+00   5.7045E+00   1.4632E-04  0.0071
   5.7045E+00   5.8433E+00   1.4207E-04  0.0071
   5.8433E+00   5.9855E+00   1.3675E-04  0.0072
   5.9855E+00   6.1311E+00   1.3234E-04  0.0072
   6.1311E+00   6.2803E+00   1.2702E-04  0.0072
   6.2803E+00   6.4331E+00   1.2468E-04  0.0072
   6.4331E+00   6.5896E+00   1.1809E-04  0.0073
   6.5896E+00   6.7500E+00   1.1373E-04  0.0074
   6.7500E+00   6.9142E+00   1.0954E-04  0.0074
   6.9142E+00   7.0824E+00   1.0571E-04  0.0075
   7.0824E+00   7.2548E+00   1.0163E-04  0.0075
   7.2548E+00   7.4313E+00   9.6398E-05  0.0077
   7.4313E+00   7.6121E+00   9.3006E-05  0.0077
   7.6121E+00   7.7973E+00   8.8361E-05  0.0078
   7.7973E+00   7.9870E+00   8.4960E-05  0.0079
   7.9870E+00   8.1813E+00   8.0268E-05  0.0080
   8.1813E+00   8.3804E+00   7.6406E-05  0.0081
   8.3804E+00   8.5843E+00   7.2566E-05  0.0082
   8.5843E+00   8.7931E+00   6.9206E-05  0.0083
   8.7931E+00   9.0071E+00   6.5220E-05  0.0085
   9.0071E+00   9.2262E+00   6.0534E-05  0.0087
   9.2262E+00   9.4507E+00   5.8497E-05  0.0087
   9.4507E+00   9.6807E+00   5.4960E-05  0.0089
   9.6807E+00   9.9162E+00   5.1316E-05  0.0091
   9.9162E+00   1.0157E+01   4.8870E-05  0.0092
   1.0157E+01   1.0405E+01   4.5639E-05  0.0094
   1.0405E+01   1.0658E+01   4.2561E-05  0.0096
   1.0658E+01   1.0917E+01   3.8994E-05  0.0099
   1.0917E+01   1.1183E+01   3.7212E-05  0.0101
   1.1183E+01   1.1455E+01   3.4353E-05  0.0103
   1.1455E+01   1.1733E+01   3.1962E-05  0.0106
   1.1733E+01   1.2019E+01   3.0018E-05  0.0108
   1.2019E+01   1.2311E+01   2.7928E-05  0.0111
   1.2311E+01   1.2611E+01   2.5610E-05  0.0114
   1.2611E+01   1.2918E+01   2.3479E-05  0.0118
   1.2918E+01   1.3232E+01   2.1316E-05  0.0122
   1.3232E+01   1.3554E+01   1.9952E-05  0.0125
   1.3554E+01   1.3884E+01   1.7593E-05  0.0131
   1.3884E+01   1.4222E+01   1.5862E-05  0.0137
   1.4222E+01   1.4568E+01   1.4810E-05  0.0140
   1.4568E+01   1.4922E+01   1.3244E-05  0.0146
   1.4922E+01   1.5285E+01   1.2163E-05  0.0150
   1.5285E+01   1.5657E+01   1.0672E-05  0.0159
   1.5657E+01   1.6038E+01   9.4983E-06  0.0166
   1.6038E+01   1.6428E+01   8.5421E-06  0.0173
   1.6428E+01   1.6828E+01   7.6762E-06  0.0181
   1.6828E+01   1.7237E+01   6.4308E-06  0.0195
   1.7237E+01   1.7657E+01   6.0634E-06  0.0198
   1.7657E+01   1.8086E+01   5.1559E-06  0.0212
   1.8086E+01   1.8526E+01   4.6290E-06  0.0222
   1.8526E+01   1.8977E+01   4.0687E-06  0.0234
   1.8977E+01   1.9439E+01   3.5605E-06  0.0247
   1.9439E+01   1.9912E+01   3.0256E-06  0.0264
   1.9912E+01   2.0396E+01   2.6359E-06  0.0280
   2.0396E+01   2.0893E+01   2.2629E-06  0.0298
   2.0893E+01   2.1401E+01   1.9377E-06  0.0319
   2.1401E+01   2.1922E+01   1.4596E-06  0.0363
   2.1922E+01   2.2455E+01   1.1380E-06  0.0406
   2.2455E+01   2.3001E+01   9.6459E-07  0.0436
   2.3001E+01   2.3561E+01   7.6656E-07  0.0483
   2.3561E+01   2.4134E+01   5.6868E-07  0.0554
   2.4134E+01   2.4721E+01   4.7854E-07  0.0597
   2.4721E+01   2.5323E+01   3.6243E-07  0.0677
   2.5323E+01   2.5939E+01   3.0513E-07  0.0729
   2.5939E+01   2.6570E+01   2.1866E-07  0.0851
   2.6570E+01   2.7217E+01   1.5159E-07  0.1010
   2.7217E+01   2.7879E+01   1.4799E-07  0.1010
   2.7879E+01   2.8557E+01   1.1352E-07  0.1140
   2.8557E+01   2.9252E+01   7.6279E-08  0.1374
   2.9252E+01   2.9964E+01   6.0417E-08  0.1525
   2.9964E+01   3.0693E+01   4.3893E-08  0.1768
   3.0693E+01   3.1440E+01   4.1512E-08  0.1796
   3.1440E+01   3.2205E+01   3.1375E-08  0.2041
   3.2205E+01   3.2988E+01   1.5315E-08  0.2887
   3.2988E+01   3.3791E+01   1.1213E-08  0.3333
   3.3791E+01   3.4613E+01   1.0947E-08  0.3333
   3.4613E+01   3.5455E+01   7.1246E-09  0.4082
   3.5455E+01   3.6318E+01   3.4777E-09  0.5774
   3.6318E+01   3.7201E+01   1.1317E-09  1.0000
   3.7201E+01   3.8106E+01   0.0000E+00  0.0000
   3.8106E+01   3.9034E+01   1.0786E-09  1.0000
   3.9034E+01   3.9983E+01   0.0000E+00  0.0000
   3.9983E+01   4.0956E+01   0.0000E+00  0.0000
   4.0956E+01   4.1953E+01   0.0000E+00  0.0000
   4.1953E+01   4.2973E+01   0.0000E+00  0.0000
   4.2973E+01   4.4019E+01   0.0000E+00  0.0000
   4.4019E+01   4.5090E+01   0.0000E+00  0.0000
   4.5090E+01   4.6187E+01   0.0000E+00  0.0000
   4.6187E+01   4.7311E+01   0.0000E+00  0.0000
   4.7311E+01   4.8462E+01   0.0000E+00  0.0000
   4.8462E+01   4.9641E+01   0.0000E+00  0.0000
   4.9641E+01   5.0849E+01   0.0000E+00  0.0000
   5.0849E+01   5.2086E+01   0.0000E+00  0.0000
   5.2086E+01   5.3353E+01   0.0000E+00  0.0000
   5.3353E+01   5.4651E+01   0.0000E+00  0.0000
   5.4651E+01   5.5981E+01   0.0000E+00  0.0000
   5.5981E+01   5.7343E+01   0.0000E+00  0.0000
   5.7343E+01   5.8738E+01   0.0000E+00  0.0000
   5.8738E+01   6.0168E+01   0.0000E+00  0.0000
   6.0168E+01   6.1632E+01   0.0000E+00  0.0000
   6.1632E+01   6.3131E+01   0.0000E+00  0.0000
   6.3131E+01   6.4667E+01   0.0000E+00  0.0000
   6.4667E+01   6.6240E+01   0.0000E+00  0.0000
   6.6240E+01   6.7852E+01   0.0000E+00  0.0000
   6.7852E+01   6.9503E+01   0.0000E+00  0.0000
   6.9503E+01   7.1194E+01   0.0000E+00  0.0000
   7.1194E+01   7.2926E+01   0.0000E+00  0.0000
   7.2926E+01   7.4701E+01   0.0000E+00  0.0000
   7.4701E+01   7.6518E+01   0.0000E+00  0.0000
   7.6518E+01   7.8380E+01   0.0000E+00  0.0000
   7.8380E+01   8.0287E+01   0.0000E+00  0.0000
   8.0287E+01   8.2240E+01   0.0000E+00  0.0000
   8.2240E+01   8.4241E+01   0.0000E+00  0.0000
   8.4241E+01   8.6291E+01   0.0000E+00  0.0000
   8.6291E+01   8.8391E+01   0.0000E+00  0.0000
   8.8391E+01   9.0541E+01   0.0000E+00  0.0000
   9.0541E+01   9.2744E+01   0.0000E+00  0.0000
   9.2744E+01   9.5001E+01   0.0000E+00  0.0000
   9.5001E+01   9.7312E+01   0.0000E+00  0.0000
   9.7312E+01   9.9680E+01   0.0000E+00  0.0000
   9.9680E+01   1.0211E+02   0.0000E+00  0.0000
   1.0211E+02   1.0459E+02   0.0000E+00  0.0000
   1.0459E+02   1.0713E+02   0.0000E+00  0.0000
   1.0713E+02   1.0974E+02   0.0000E+00  0.0000
   1.0974E+02   1.1241E+02   0.0000E+00  0.0000
   1.1241E+02   1.1515E+02   0.0000E+00  0.0000
   1.1515E+02   1.1795E+02   0.0000E+00  0.0000
   1.1795E+02   1.2082E+02   0.0000E+00  0.0000
   1.2082E+02   1.2376E+02   0.0000E+00  0.0000
   1.2376E+02   1.2677E+02   0.0000E+00  0.0000
   1.2677E+02   1.2985E+02   0.0000E+00  0.0000
   1.2985E+02   1.3301E+02   0.0000E+00  0.0000
   1.3301E+02   1.3625E+02   0.0000E+00  0.0000
   1.3625E+02   1.3956E+02   0.0000E+00  0.0000
   1.3956E+02   1.4296E+02   0.0000E+00  0.0000
   1.4296E+02   1.4644E+02   0.0000E+00  0.0000
   1.4644E+02   1.5000E+02   0.0000E+00  0.0000

#   sum over                 1.6966E-05
'no. =    1   reg = 117 - 217'
msuc: {\huge [t-cross] in region mesh}
msdr: {\it plotted by \ANGEL \version}
msdl: {\it calculated by \PHITS  3.26}
wt: s(0.7)
\vspace{-3}
  region surface crossing
  area  &=&   1.0000E+00 [cm^2]
e:
 
# Information for Restart Calculation
# This calculation was newly started
# istdev =  2 # 1:Batch variance, 2:History variance
# resc2  = 1.00000000000000000E+09 # Total source weight or Total source weight / maxcas
# resc3  = 1.00000000000000000E+09 # Total history number or Total batch number
# maxcas =   500000000 # History / Batch, only used for istdev=1
# bitrseed = 0001001110011001001001110000100100110111001111011100001000101100 # bit data of rseed
