[ T-Cross ]
    title = [t-cross] in region mesh
     mesh =  reg            # mesh type is region-wise
      reg =    1            # number of crossing regions
      non     r-from    r-to       area
      1       117       217        1.000000    
   e-type =    3            # e-mesh is log given by emin, emax and ne
     emin =  1.0000000E-02  # minimum value of e-mesh points
     emax =   150.0000      # maximum value of e-mesh points
#    edel =  2.4039514E-02  # mesh width of e-mesh points
       ne =    400          # number of e-mesh points
#    data = ( e(i), i = 1, ne + 1 )
#           1.00000E-02  1.02433E-02  1.04925E-02  1.07478E-02  1.10093E-02
#           1.12772E-02  1.15516E-02  1.18326E-02  1.21205E-02  1.24154E-02
#           1.27175E-02  1.30269E-02  1.33439E-02  1.36686E-02  1.40011E-02
#           1.43418E-02  1.46907E-02  1.50482E-02  1.54143E-02  1.57894E-02
#           1.61735E-02  1.65670E-02  1.69701E-02  1.73830E-02  1.78060E-02
#           1.82392E-02  1.86830E-02  1.91375E-02  1.96032E-02  2.00801E-02
#           2.05687E-02  2.10692E-02  2.15818E-02  2.21069E-02  2.26448E-02
#           2.31957E-02  2.37601E-02  2.43382E-02  2.49304E-02  2.55369E-02
#           2.61583E-02  2.67947E-02  2.74467E-02  2.81145E-02  2.87985E-02
#           2.94992E-02  3.02169E-02  3.09521E-02  3.17052E-02  3.24766E-02
#           3.32668E-02  3.40762E-02  3.49053E-02  3.57546E-02  3.66246E-02
#           3.75157E-02  3.84284E-02  3.93634E-02  4.03212E-02  4.13022E-02
#           4.23071E-02  4.33365E-02  4.43909E-02  4.54710E-02  4.65773E-02
#           4.77106E-02  4.88714E-02  5.00605E-02  5.12785E-02  5.25262E-02
#           5.38042E-02  5.51133E-02  5.64542E-02  5.78278E-02  5.92348E-02
#           6.06760E-02  6.21523E-02  6.36645E-02  6.52135E-02  6.68002E-02
#           6.84255E-02  7.00904E-02  7.17957E-02  7.35426E-02  7.53319E-02
#           7.71648E-02  7.90423E-02  8.09655E-02  8.29354E-02  8.49533E-02
#           8.70203E-02  8.91376E-02  9.13064E-02  9.35279E-02  9.58035E-02
#           9.81345E-02  1.00522E-01  1.02968E-01  1.05473E-01  1.08040E-01
#           1.10668E-01  1.13361E-01  1.16119E-01  1.18944E-01  1.21838E-01
#           1.24803E-01  1.27839E-01  1.30950E-01  1.34136E-01  1.37399E-01
#           1.40742E-01  1.44167E-01  1.47675E-01  1.51268E-01  1.54948E-01
#           1.58718E-01  1.62580E-01  1.66535E-01  1.70587E-01  1.74738E-01
#           1.78989E-01  1.83344E-01  1.87805E-01  1.92375E-01  1.97055E-01
#           2.01850E-01  2.06761E-01  2.11792E-01  2.16945E-01  2.22223E-01
#           2.27630E-01  2.33169E-01  2.38842E-01  2.44653E-01  2.50605E-01
#           2.56703E-01  2.62949E-01  2.69346E-01  2.75900E-01  2.82613E-01
#           2.89489E-01  2.96532E-01  3.03747E-01  3.11138E-01  3.18708E-01
#           3.26462E-01  3.34405E-01  3.42542E-01  3.50876E-01  3.59413E-01
#           3.68158E-01  3.77116E-01  3.86291E-01  3.95690E-01  4.05317E-01
#           4.15179E-01  4.25281E-01  4.35628E-01  4.46227E-01  4.57084E-01
#           4.68205E-01  4.79597E-01  4.91266E-01  5.03219E-01  5.15463E-01
#           5.28005E-01  5.40851E-01  5.54011E-01  5.67490E-01  5.81298E-01
#           5.95441E-01  6.09929E-01  6.24769E-01  6.39970E-01  6.55541E-01
#           6.71491E-01  6.87828E-01  7.04564E-01  7.21706E-01  7.39266E-01
#           7.57253E-01  7.75678E-01  7.94551E-01  8.13883E-01  8.33685E-01
#           8.53969E-01  8.74747E-01  8.96030E-01  9.17831E-01  9.40163E-01
#           9.63038E-01  9.86469E-01  1.01047E+00  1.03506E+00  1.06024E+00
#           1.08604E+00  1.11246E+00  1.13953E+00  1.16725E+00  1.19565E+00
#           1.22474E+00  1.25454E+00  1.28507E+00  1.31633E+00  1.34836E+00
#           1.38117E+00  1.41477E+00  1.44920E+00  1.48446E+00  1.52057E+00
#           1.55757E+00  1.59547E+00  1.63429E+00  1.67405E+00  1.71478E+00
#           1.75650E+00  1.79924E+00  1.84302E+00  1.88786E+00  1.93379E+00
#           1.98084E+00  2.02904E+00  2.07841E+00  2.12898E+00  2.18078E+00
#           2.23384E+00  2.28819E+00  2.34386E+00  2.40089E+00  2.45930E+00
#           2.51914E+00  2.58043E+00  2.64322E+00  2.70753E+00  2.77341E+00
#           2.84088E+00  2.91001E+00  2.98081E+00  3.05333E+00  3.12762E+00
#           3.20372E+00  3.28167E+00  3.36152E+00  3.44330E+00  3.52708E+00
#           3.61290E+00  3.70080E+00  3.79085E+00  3.88308E+00  3.97756E+00
#           4.07434E+00  4.17347E+00  4.27501E+00  4.37903E+00  4.48557E+00
#           4.59471E+00  4.70650E+00  4.82102E+00  4.93832E+00  5.05847E+00
#           5.18155E+00  5.30762E+00  5.43676E+00  5.56904E+00  5.70453E+00
#           5.84333E+00  5.98550E+00  6.13114E+00  6.28031E+00  6.43312E+00
#           6.58964E+00  6.74997E+00  6.91420E+00  7.08243E+00  7.25475E+00
#           7.43126E+00  7.61207E+00  7.79728E+00  7.98700E+00  8.18133E+00
#           8.38038E+00  8.58428E+00  8.79315E+00  9.00709E+00  9.22624E+00
#           9.45072E+00  9.68067E+00  9.91620E+00  1.01575E+01  1.04046E+01
#           1.06578E+01  1.09171E+01  1.11827E+01  1.14548E+01  1.17335E+01
#           1.20190E+01  1.23114E+01  1.26109E+01  1.29178E+01  1.32321E+01
#           1.35540E+01  1.38838E+01  1.42216E+01  1.45676E+01  1.49221E+01
#           1.52851E+01  1.56570E+01  1.60380E+01  1.64282E+01  1.68279E+01
#           1.72374E+01  1.76568E+01  1.80864E+01  1.85264E+01  1.89772E+01
#           1.94389E+01  1.99119E+01  2.03963E+01  2.08926E+01  2.14009E+01
#           2.19216E+01  2.24550E+01  2.30014E+01  2.35610E+01  2.41343E+01
#           2.47215E+01  2.53230E+01  2.59391E+01  2.65702E+01  2.72167E+01
#           2.78789E+01  2.85572E+01  2.92520E+01  2.99637E+01  3.06928E+01
#           3.14396E+01  3.22045E+01  3.29881E+01  3.37907E+01  3.46128E+01
#           3.54550E+01  3.63177E+01  3.72013E+01  3.81064E+01  3.90336E+01
#           3.99833E+01  4.09561E+01  4.19526E+01  4.29734E+01  4.40189E+01
#           4.50900E+01  4.61870E+01  4.73108E+01  4.84619E+01  4.96410E+01
#           5.08488E+01  5.20860E+01  5.33533E+01  5.46514E+01  5.59812E+01
#           5.73432E+01  5.87384E+01  6.01676E+01  6.16315E+01  6.31311E+01
#           6.46671E+01  6.62405E+01  6.78522E+01  6.95031E+01  7.11941E+01
#           7.29263E+01  7.47007E+01  7.65182E+01  7.83800E+01  8.02870E+01
#           8.22405E+01  8.42414E+01  8.62911E+01  8.83906E+01  9.05412E+01
#           9.27442E+01  9.50007E+01  9.73122E+01  9.96799E+01  1.02105E+02
#           1.04589E+02  1.07134E+02  1.09741E+02  1.12411E+02  1.15146E+02
#           1.17948E+02  1.20817E+02  1.23757E+02  1.26768E+02  1.29852E+02
#           1.33012E+02  1.36248E+02  1.39563E+02  1.42959E+02  1.46437E+02
#           1.50000E+02
     unit =    2            # unit is [1/cm^2/(MeV/n)/source]
     axis =  eng            # axis of output
     file = detector-18.out  # file name of output for the above axis
   output = f-curr          # surface crossing forward current spectrum
     part =  neutron  
# kf/name :  2112     
#    used :        main (  %)        temp (  %)       total (  %)
#  memory :         414 (  0)           0 (  0)         414 (  0)

#------------------------------------------------------------------------------
#newpage:
#   no. =    1   reg = 117 - 217

x: Energy [MeV/n]
y:  F-Curr [1/cm^2/(MeV/n)/source]         
p: xlog ylog afac(0.8) form(0.9)
h: n            x            y(neutron ),hh0l   n 
#  e-lower      e-upper      neutron     r.err 
   1.0000E-02   1.0243E-02   2.4794E-03  0.0575
   1.0243E-02   1.0493E-02   2.2956E-03  0.0590
   1.0493E-02   1.0748E-02   2.1228E-03  0.0607
   1.0748E-02   1.1009E-02   1.8612E-03  0.0641
   1.1009E-02   1.1277E-02   1.8005E-03  0.0643
   1.1277E-02   1.1552E-02   2.1867E-03  0.0577
   1.1552E-02   1.1833E-02   2.1573E-03  0.0574
   1.1833E-02   1.2121E-02   2.1766E-03  0.0564
   1.2121E-02   1.2415E-02   2.2947E-03  0.0543
   1.2415E-02   1.2718E-02   2.0070E-03  0.0574
   1.2718E-02   1.3027E-02   2.1297E-03  0.0551
   1.3027E-02   1.3344E-02   1.8677E-03  0.0581
   1.3344E-02   1.3669E-02   1.8083E-03  0.0583
   1.3669E-02   1.4001E-02   2.2790E-03  0.0513
   1.4001E-02   1.4342E-02   1.9219E-03  0.0552
   1.4342E-02   1.4691E-02   1.9711E-03  0.0538
   1.4691E-02   1.5048E-02   1.8949E-03  0.0543
   1.5048E-02   1.5414E-02   1.8801E-03  0.0538
   1.5414E-02   1.5789E-02   1.9398E-03  0.0524
   1.5789E-02   1.6174E-02   1.9722E-03  0.0513
   1.6174E-02   1.6567E-02   1.7567E-03  0.0538
   1.6567E-02   1.6970E-02   1.7546E-03  0.0531
   1.6970E-02   1.7383E-02   1.8261E-03  0.0515
   1.7383E-02   1.7806E-02   1.7458E-03  0.0520
   1.7806E-02   1.8239E-02   1.7391E-03  0.0514
   1.8239E-02   1.8683E-02   1.6585E-03  0.0521
   1.8683E-02   1.9138E-02   1.7826E-03  0.0497
   1.9138E-02   1.9603E-02   1.7403E-03  0.0496
   1.9603E-02   2.0080E-02   1.7031E-03  0.0496
   2.0080E-02   2.0569E-02   1.6159E-03  0.0502
   2.0569E-02   2.1069E-02   1.6619E-03  0.0490
   2.1069E-02   2.1582E-02   1.7535E-03  0.0471
   2.1582E-02   2.2107E-02   1.6447E-03  0.0481
   2.2107E-02   2.2645E-02   1.6009E-03  0.0481
   2.2645E-02   2.3196E-02   1.6353E-03  0.0471
   2.3196E-02   2.3760E-02   1.6938E-03  0.0457
   2.3760E-02   2.4338E-02   1.4910E-03  0.0481
   2.4338E-02   2.4930E-02   1.5817E-03  0.0461
   2.4930E-02   2.5537E-02   1.5611E-03  0.0459
   2.5537E-02   2.6158E-02   1.5326E-03  0.0458
   2.6158E-02   2.6795E-02   1.4746E-03  0.0461
   2.6795E-02   2.7447E-02   1.4408E-03  0.0461
   2.7447E-02   2.8114E-02   1.4305E-03  0.0457
   2.8114E-02   2.8799E-02   1.4798E-03  0.0444
   2.8799E-02   2.9499E-02   1.3668E-03  0.0457
   2.9499E-02   3.0217E-02   1.4270E-03  0.0441
   3.0217E-02   3.0952E-02   1.4316E-03  0.0435
   3.0952E-02   3.1705E-02   1.4165E-03  0.0432
   3.1705E-02   3.2477E-02   1.3438E-03  0.0439
   3.2477E-02   3.3267E-02   1.3173E-03  0.0437
   3.3267E-02   3.4076E-02   1.3773E-03  0.0423
   3.4076E-02   3.4905E-02   1.3129E-03  0.0428
   3.4905E-02   3.5755E-02   1.3134E-03  0.0423
   3.5755E-02   3.6625E-02   1.2913E-03  0.0422
   3.6625E-02   3.7516E-02   1.2730E-03  0.0419
   3.7516E-02   3.8428E-02   1.2514E-03  0.0418
   3.8428E-02   3.9363E-02   1.1208E-03  0.0437
   3.9363E-02   4.0321E-02   1.2748E-03  0.0404
   4.0321E-02   4.1302E-02   1.2454E-03  0.0404
   4.1302E-02   4.2307E-02   1.1160E-03  0.0422
   4.2307E-02   4.3337E-02   1.1196E-03  0.0416
   4.3337E-02   4.4391E-02   1.1910E-03  0.0399
   4.4391E-02   4.5471E-02   1.1354E-03  0.0403
   4.5471E-02   4.6577E-02   1.1774E-03  0.0391
   4.6577E-02   4.7711E-02   1.0685E-03  0.0406
   4.7711E-02   4.8871E-02   1.0518E-03  0.0404
   4.8871E-02   5.0061E-02   9.9803E-04  0.0410
   5.0061E-02   5.1279E-02   1.0177E-03  0.0401
   5.1279E-02   5.2526E-02   1.0392E-03  0.0392
   5.2526E-02   5.3804E-02   1.1204E-03  0.0374
   5.3804E-02   5.5113E-02   1.0108E-03  0.0388
   5.5113E-02   5.6454E-02   9.8773E-04  0.0388
   5.6454E-02   5.7828E-02   9.6582E-04  0.0388
   5.7828E-02   5.9235E-02   1.0047E-03  0.0376
   5.9235E-02   6.0676E-02   1.0505E-03  0.0363
   6.0676E-02   6.2152E-02   9.4851E-04  0.0377
   6.2152E-02   6.3665E-02   9.2462E-04  0.0378
   6.3665E-02   6.5214E-02   9.2694E-04  0.0373
   6.5214E-02   6.6800E-02   8.5475E-04  0.0384
   6.6800E-02   6.8426E-02   9.6064E-04  0.0357
   6.8426E-02   7.0090E-02   8.8947E-04  0.0367
   7.0090E-02   7.1796E-02   8.6598E-04  0.0368
   7.1796E-02   7.3543E-02   8.7139E-04  0.0362
   7.3543E-02   7.5332E-02   8.2105E-04  0.0369
   7.5332E-02   7.7165E-02   7.6611E-04  0.0377
   7.7165E-02   7.9042E-02   7.6854E-04  0.0372
   7.9042E-02   8.0965E-02   8.0148E-04  0.0360
   8.0965E-02   8.2935E-02   7.6486E-04  0.0364
   8.2935E-02   8.4953E-02   7.3076E-04  0.0368
   8.4953E-02   8.7020E-02   7.2478E-04  0.0365
   8.7020E-02   8.9138E-02   7.3664E-04  0.0358
   8.9138E-02   9.1306E-02   7.1666E-04  0.0358
   9.1306E-02   9.3528E-02   7.5979E-04  0.0344
   9.3528E-02   9.5804E-02   6.8088E-04  0.0359
   9.5804E-02   9.8134E-02   6.7848E-04  0.0355
   9.8134E-02   1.0052E-01   6.9048E-04  0.0348
   1.0052E-01   1.0297E-01   7.0540E-04  0.0340
   1.0297E-01   1.0547E-01   6.4690E-04  0.0351
   1.0547E-01   1.0804E-01   6.3253E-04  0.0351
   1.0804E-01   1.1067E-01   6.2003E-04  0.0350
   1.1067E-01   1.1336E-01   6.3713E-04  0.0341
   1.1336E-01   1.1612E-01   5.5210E-04  0.0362
   1.1612E-01   1.1894E-01   5.7231E-04  0.0351
   1.1894E-01   1.2184E-01   5.8307E-04  0.0344
   1.2184E-01   1.2480E-01   5.7180E-04  0.0343
   1.2480E-01   1.2784E-01   5.5325E-04  0.0344
   1.2784E-01   1.3095E-01   5.0834E-04  0.0355
   1.3095E-01   1.3414E-01   5.2352E-04  0.0346
   1.3414E-01   1.3740E-01   5.0073E-04  0.0349
   1.3740E-01   1.4074E-01   4.7411E-04  0.0355
   1.4074E-01   1.4417E-01   4.7339E-04  0.0351
   1.4417E-01   1.4767E-01   4.8693E-04  0.0342
   1.4767E-01   1.5127E-01   4.7580E-04  0.0342
   1.5127E-01   1.5495E-01   4.5983E-04  0.0343
   1.5495E-01   1.5872E-01   4.5882E-04  0.0339
   1.5872E-01   1.6258E-01   4.3139E-04  0.0346
   1.6258E-01   1.6654E-01   4.3379E-04  0.0341
   1.6654E-01   1.7059E-01   4.2696E-04  0.0340
   1.7059E-01   1.7474E-01   4.0386E-04  0.0345
   1.7474E-01   1.7899E-01   4.2788E-04  0.0331
   1.7899E-01   1.8334E-01   4.0841E-04  0.0335
   1.8334E-01   1.8781E-01   3.7378E-04  0.0346
   1.8781E-01   1.9237E-01   3.5870E-04  0.0349
   1.9237E-01   1.9706E-01   3.6798E-04  0.0340
   1.9706E-01   2.0185E-01   3.6233E-04  0.0339
   2.0185E-01   2.0676E-01   3.7206E-04  0.0331
   2.0676E-01   2.1179E-01   3.5676E-04  0.0333
   2.1179E-01   2.1694E-01   3.8801E-04  0.0316
   2.1694E-01   2.2222E-01   3.9577E-04  0.0309
   2.2222E-01   2.2763E-01   3.9669E-04  0.0305
   2.2763E-01   2.3317E-01   3.9112E-04  0.0303
   2.3317E-01   2.3884E-01   4.0495E-04  0.0295
   2.3884E-01   2.4465E-01   4.1657E-04  0.0287
   2.4465E-01   2.5061E-01   4.2026E-04  0.0282
   2.5061E-01   2.5670E-01   4.3292E-04  0.0275
   2.5670E-01   2.6295E-01   4.2786E-04  0.0273
   2.6295E-01   2.6935E-01   4.4583E-04  0.0264
   2.6935E-01   2.7590E-01   4.6065E-04  0.0257
   2.7590E-01   2.8261E-01   4.7632E-04  0.0250
   2.8261E-01   2.8949E-01   4.7914E-04  0.0246
   2.8949E-01   2.9653E-01   4.6492E-04  0.0247
   2.9653E-01   3.0375E-01   5.0140E-04  0.0235
   3.0375E-01   3.1114E-01   4.9952E-04  0.0233
   3.1114E-01   3.1871E-01   5.1685E-04  0.0226
   3.1871E-01   3.2646E-01   5.2059E-04  0.0222
   3.2646E-01   3.3441E-01   5.1771E-04  0.0220
   3.3441E-01   3.4254E-01   5.1672E-04  0.0218
   3.4254E-01   3.5088E-01   5.3842E-04  0.0211
   3.5088E-01   3.5941E-01   5.5121E-04  0.0206
   3.5941E-01   3.6816E-01   5.4935E-04  0.0204
   3.6816E-01   3.7712E-01   5.5191E-04  0.0201
   3.7712E-01   3.8629E-01   5.5233E-04  0.0198
   3.8629E-01   3.9569E-01   5.5039E-04  0.0196
   3.9569E-01   4.0532E-01   5.6021E-04  0.0192
   4.0532E-01   4.1518E-01   5.8147E-04  0.0186
   4.1518E-01   4.2528E-01   5.7352E-04  0.0185
   4.2528E-01   4.3563E-01   5.8383E-04  0.0182
   4.3563E-01   4.4623E-01   6.0550E-04  0.0176
   4.4623E-01   4.5708E-01   5.9327E-04  0.0176
   4.5708E-01   4.6821E-01   5.9507E-04  0.0174
   4.6821E-01   4.7960E-01   5.9665E-04  0.0171
   4.7960E-01   4.9127E-01   6.1531E-04  0.0167
   4.9127E-01   5.0322E-01   6.3495E-04  0.0162
   5.0322E-01   5.1546E-01   6.1169E-04  0.0163
   5.1546E-01   5.2800E-01   6.3177E-04  0.0159
   5.2800E-01   5.4085E-01   6.4944E-04  0.0155
   5.4085E-01   5.5401E-01   6.4513E-04  0.0153
   5.5401E-01   5.6749E-01   6.4979E-04  0.0151
   5.6749E-01   5.8130E-01   6.4662E-04  0.0149
   5.8130E-01   5.9544E-01   6.4583E-04  0.0148
   5.9544E-01   6.0993E-01   6.5325E-04  0.0145
   6.0993E-01   6.2477E-01   6.6063E-04  0.0143
   6.2477E-01   6.3997E-01   6.5960E-04  0.0141
   6.3997E-01   6.5554E-01   6.7409E-04  0.0138
   6.5554E-01   6.7149E-01   6.6155E-04  0.0137
   6.7149E-01   6.8783E-01   6.6599E-04  0.0135
   6.8783E-01   7.0456E-01   6.6214E-04  0.0134
   7.0456E-01   7.2171E-01   6.6275E-04  0.0132
   7.2171E-01   7.3927E-01   6.5102E-04  0.0132
   7.3927E-01   7.5725E-01   6.7481E-04  0.0128
   7.5725E-01   7.7568E-01   6.6998E-04  0.0127
   7.7568E-01   7.9455E-01   6.4874E-04  0.0128
   7.9455E-01   8.1388E-01   6.5098E-04  0.0126
   8.1388E-01   8.3368E-01   6.6172E-04  0.0123
   8.3368E-01   8.5397E-01   6.5294E-04  0.0123
   8.5397E-01   8.7475E-01   6.4472E-04  0.0122
   8.7475E-01   8.9603E-01   6.4263E-04  0.0121
   8.9603E-01   9.1783E-01   6.2640E-04  0.0121
   9.1783E-01   9.4016E-01   6.0823E-04  0.0121
   9.4016E-01   9.6304E-01   6.0541E-04  0.0120
   9.6304E-01   9.8647E-01   5.7831E-04  0.0121
   9.8647E-01   1.0105E+00   5.7145E-04  0.0121
   1.0105E+00   1.0351E+00   5.5656E-04  0.0121
   1.0351E+00   1.0602E+00   5.6021E-04  0.0119
   1.0602E+00   1.0860E+00   5.4432E-04  0.0119
   1.0860E+00   1.1125E+00   5.7242E-04  0.0115
   1.1125E+00   1.1395E+00   5.5513E-04  0.0115
   1.1395E+00   1.1673E+00   5.4776E-04  0.0114
   1.1673E+00   1.1957E+00   5.5888E-04  0.0112
   1.1957E+00   1.2247E+00   5.7412E-04  0.0109
   1.2247E+00   1.2545E+00   5.7333E-04  0.0108
   1.2545E+00   1.2851E+00   5.5773E-04  0.0108
   1.2851E+00   1.3163E+00   5.6998E-04  0.0106
   1.3163E+00   1.3484E+00   5.6804E-04  0.0105
   1.3484E+00   1.3812E+00   5.7955E-04  0.0102
   1.3812E+00   1.4148E+00   5.6933E-04  0.0102
   1.4148E+00   1.4492E+00   5.6103E-04  0.0101
   1.4492E+00   1.4845E+00   5.5531E-04  0.0101
   1.4845E+00   1.5206E+00   5.5997E-04  0.0099
   1.5206E+00   1.5576E+00   5.4017E-04  0.0100
   1.5576E+00   1.5955E+00   5.3874E-04  0.0099
   1.5955E+00   1.6343E+00   5.3814E-04  0.0098
   1.6343E+00   1.6741E+00   5.2617E-04  0.0097
   1.6741E+00   1.7148E+00   5.3233E-04  0.0096
   1.7148E+00   1.7565E+00   5.2658E-04  0.0095
   1.7565E+00   1.7992E+00   5.2211E-04  0.0094
   1.7992E+00   1.8430E+00   5.1611E-04  0.0094
   1.8430E+00   1.8879E+00   4.9751E-04  0.0094
   1.8879E+00   1.9338E+00   4.9437E-04  0.0094
   1.9338E+00   1.9808E+00   4.8584E-04  0.0093
   1.9808E+00   2.0290E+00   4.9135E-04  0.0092
   2.0290E+00   2.0784E+00   4.8284E-04  0.0091
   2.0784E+00   2.1290E+00   4.6376E-04  0.0092
   2.1290E+00   2.1808E+00   4.5099E-04  0.0092
   2.1808E+00   2.2338E+00   4.4096E-04  0.0092
   2.2338E+00   2.2882E+00   4.3274E-04  0.0092
   2.2882E+00   2.3439E+00   4.2127E-04  0.0092
   2.3439E+00   2.4009E+00   4.2065E-04  0.0091
   2.4009E+00   2.4593E+00   4.1365E-04  0.0091
   2.4593E+00   2.5191E+00   4.0302E-04  0.0091
   2.5191E+00   2.5804E+00   3.9933E-04  0.0090
   2.5804E+00   2.6432E+00   3.9144E-04  0.0090
   2.6432E+00   2.7075E+00   3.7465E-04  0.0091
   2.7075E+00   2.7734E+00   3.6081E-04  0.0091
   2.7734E+00   2.8409E+00   3.5453E-04  0.0091
   2.8409E+00   2.9100E+00   3.5311E-04  0.0090
   2.9100E+00   2.9808E+00   3.4988E-04  0.0090
   2.9808E+00   3.0533E+00   3.2835E-04  0.0091
   3.0533E+00   3.1276E+00   3.2203E-04  0.0091
   3.1276E+00   3.2037E+00   3.0915E-04  0.0092
   3.2037E+00   3.2817E+00   3.0324E-04  0.0092
   3.2817E+00   3.3615E+00   2.9615E-04  0.0092
   3.3615E+00   3.4433E+00   2.9142E-04  0.0091
   3.4433E+00   3.5271E+00   2.7781E-04  0.0092
   3.5271E+00   3.6129E+00   2.7070E-04  0.0092
   3.6129E+00   3.7008E+00   2.6011E-04  0.0093
   3.7008E+00   3.7908E+00   2.5055E-04  0.0094
   3.7908E+00   3.8831E+00   2.4068E-04  0.0095
   3.8831E+00   3.9776E+00   2.3374E-04  0.0095
   3.9776E+00   4.0743E+00   2.2429E-04  0.0096
   4.0743E+00   4.1735E+00   2.1948E-04  0.0096
   4.1735E+00   4.2750E+00   2.1603E-04  0.0095
   4.2750E+00   4.3790E+00   2.0302E-04  0.0097
   4.3790E+00   4.4856E+00   1.9741E-04  0.0097
   4.4856E+00   4.5947E+00   1.8915E-04  0.0098
   4.5947E+00   4.7065E+00   1.8051E-04  0.0099
   4.7065E+00   4.8210E+00   1.7247E-04  0.0100
   4.8210E+00   4.9383E+00   1.7158E-04  0.0099
   4.9383E+00   5.0585E+00   1.5698E-04  0.0103
   5.0585E+00   5.1815E+00   1.5209E-04  0.0103
   5.1815E+00   5.3076E+00   1.4512E-04  0.0104
   5.3076E+00   5.4368E+00   1.4116E-04  0.0104
   5.4368E+00   5.5690E+00   1.3794E-04  0.0104
   5.5690E+00   5.7045E+00   1.3188E-04  0.0106
   5.7045E+00   5.8433E+00   1.2486E-04  0.0107
   5.8433E+00   5.9855E+00   1.1607E-04  0.0110
   5.9855E+00   6.1311E+00   1.1146E-04  0.0111
   6.1311E+00   6.2803E+00   1.0735E-04  0.0111
   6.2803E+00   6.4331E+00   1.0126E-04  0.0113
   6.4331E+00   6.5896E+00   9.7047E-05  0.0114
   6.5896E+00   6.7500E+00   9.3211E-05  0.0115
   6.7500E+00   6.9142E+00   8.7615E-05  0.0118
   6.9142E+00   7.0824E+00   8.5059E-05  0.0118
   7.0824E+00   7.2548E+00   7.9269E-05  0.0121
   7.2548E+00   7.4313E+00   7.5206E-05  0.0123
   7.4313E+00   7.6121E+00   7.0140E-05  0.0125
   7.6121E+00   7.7973E+00   6.5403E-05  0.0128
   7.7973E+00   7.9870E+00   6.4393E-05  0.0128
   7.9870E+00   8.1813E+00   5.9040E-05  0.0132
   8.1813E+00   8.3804E+00   5.6281E-05  0.0133
   8.3804E+00   8.5843E+00   5.1863E-05  0.0137
   8.5843E+00   8.7931E+00   5.0993E-05  0.0137
   8.7931E+00   9.0071E+00   4.8428E-05  0.0139
   9.0071E+00   9.2262E+00   4.4964E-05  0.0142
   9.2262E+00   9.4507E+00   4.3648E-05  0.0143
   9.4507E+00   9.6807E+00   4.1665E-05  0.0144
   9.6807E+00   9.9162E+00   3.9256E-05  0.0147
   9.9162E+00   1.0157E+01   3.7979E-05  0.0148
   1.0157E+01   1.0405E+01   3.5137E-05  0.0152
   1.0405E+01   1.0658E+01   3.6128E-05  0.0148
   1.0658E+01   1.0917E+01   3.5736E-05  0.0147
   1.0917E+01   1.1183E+01   3.3046E-05  0.0151
   1.1183E+01   1.1455E+01   3.1657E-05  0.0152
   1.1455E+01   1.1733E+01   3.0778E-05  0.0153
   1.1733E+01   1.2019E+01   2.8823E-05  0.0156
   1.2019E+01   1.2311E+01   2.7171E-05  0.0159
   1.2311E+01   1.2611E+01   2.5405E-05  0.0162
   1.2611E+01   1.2918E+01   2.4319E-05  0.0164
   1.2918E+01   1.3232E+01   2.3199E-05  0.0166
   1.3232E+01   1.3554E+01   2.1583E-05  0.0170
   1.3554E+01   1.3884E+01   2.0723E-05  0.0171
   1.3884E+01   1.4222E+01   1.9339E-05  0.0175
   1.4222E+01   1.4568E+01   1.8729E-05  0.0176
   1.4568E+01   1.4922E+01   1.7233E-05  0.0181
   1.4922E+01   1.5285E+01   1.6158E-05  0.0185
   1.5285E+01   1.5657E+01   1.4866E-05  0.0190
   1.5657E+01   1.6038E+01   1.4121E-05  0.0193
   1.6038E+01   1.6428E+01   1.2946E-05  0.0199
   1.6428E+01   1.6828E+01   1.1839E-05  0.0206
   1.6828E+01   1.7237E+01   1.1077E-05  0.0210
   1.7237E+01   1.7657E+01   1.0706E-05  0.0211
   1.7657E+01   1.8086E+01   9.7951E-06  0.0218
   1.8086E+01   1.8526E+01   9.1823E-06  0.0222
   1.8526E+01   1.8977E+01   8.5374E-06  0.0228
   1.8977E+01   1.9439E+01   8.0661E-06  0.0232
   1.9439E+01   1.9912E+01   7.3452E-06  0.0240
   1.9912E+01   2.0396E+01   6.6588E-06  0.0249
   2.0396E+01   2.0893E+01   6.3314E-06  0.0252
   2.0893E+01   2.1401E+01   5.9174E-06  0.0258
   2.1401E+01   2.1922E+01   5.3735E-06  0.0267
   2.1922E+01   2.2455E+01   4.8334E-06  0.0279
   2.2455E+01   2.3001E+01   4.5466E-06  0.0284
   2.3001E+01   2.3561E+01   4.1348E-06  0.0294
   2.3561E+01   2.4134E+01   3.8866E-06  0.0300
   2.4134E+01   2.4721E+01   3.2152E-06  0.0325
   2.4721E+01   2.5323E+01   2.8330E-06  0.0343
   2.5323E+01   2.5939E+01   2.6715E-06  0.0349
   2.5939E+01   2.6570E+01   2.4053E-06  0.0363
   2.6570E+01   2.7217E+01   1.9707E-06  0.0396
   2.7217E+01   2.7879E+01   1.6249E-06  0.0431
   2.7879E+01   2.8557E+01   1.3858E-06  0.0461
   2.8557E+01   2.9252E+01   1.2550E-06  0.0479
   2.9252E+01   2.9964E+01   1.0594E-06  0.0515
   2.9964E+01   3.0693E+01   6.6937E-07  0.0640
   3.0693E+01   3.1440E+01   5.5706E-07  0.0693
   3.1440E+01   3.2205E+01   4.2094E-07  0.0788
   3.2205E+01   3.2988E+01   3.7521E-07  0.0825
   3.2988E+01   3.3791E+01   2.9403E-07  0.0921
   3.3791E+01   3.4613E+01   2.1650E-07  0.1060
   3.4613E+01   3.5455E+01   1.7574E-07  0.1162
   3.5455E+01   3.6318E+01   1.2983E-07  0.1336
   3.6318E+01   3.7201E+01   1.1317E-07  0.1414
   3.7201E+01   3.8106E+01   6.6288E-08  0.1826
   3.8106E+01   3.9034E+01   3.8828E-08  0.2357
   3.9034E+01   3.9983E+01   2.7377E-08  0.2774
   3.9983E+01   4.0956E+01   2.4670E-08  0.2887
   4.0956E+01   4.1953E+01   1.2042E-08  0.4082
   4.1953E+01   4.2973E+01   3.9187E-09  0.7071
   4.2973E+01   4.4019E+01   9.5641E-09  0.4472
   4.4019E+01   4.5090E+01   1.8674E-09  1.0000
   4.5090E+01   4.6187E+01   3.6461E-09  0.7071
   4.6187E+01   4.7311E+01   1.7797E-09  1.0000
   4.7311E+01   4.8462E+01   1.7375E-09  1.0000
   4.8462E+01   4.9641E+01   3.3924E-09  0.7071
   4.9641E+01   5.0849E+01   0.0000E+00  0.0000
   5.0849E+01   5.2086E+01   0.0000E+00  0.0000
   5.2086E+01   5.3353E+01   0.0000E+00  0.0000
   5.3353E+01   5.4651E+01   0.0000E+00  0.0000
   5.4651E+01   5.5981E+01   0.0000E+00  0.0000
   5.5981E+01   5.7343E+01   0.0000E+00  0.0000
   5.7343E+01   5.8738E+01   0.0000E+00  0.0000
   5.8738E+01   6.0168E+01   0.0000E+00  0.0000
   6.0168E+01   6.1632E+01   0.0000E+00  0.0000
   6.1632E+01   6.3131E+01   0.0000E+00  0.0000
   6.3131E+01   6.4667E+01   0.0000E+00  0.0000
   6.4667E+01   6.6240E+01   0.0000E+00  0.0000
   6.6240E+01   6.7852E+01   0.0000E+00  0.0000
   6.7852E+01   6.9503E+01   0.0000E+00  0.0000
   6.9503E+01   7.1194E+01   0.0000E+00  0.0000
   7.1194E+01   7.2926E+01   0.0000E+00  0.0000
   7.2926E+01   7.4701E+01   0.0000E+00  0.0000
   7.4701E+01   7.6518E+01   0.0000E+00  0.0000
   7.6518E+01   7.8380E+01   0.0000E+00  0.0000
   7.8380E+01   8.0287E+01   0.0000E+00  0.0000
   8.0287E+01   8.2240E+01   0.0000E+00  0.0000
   8.2240E+01   8.4241E+01   0.0000E+00  0.0000
   8.4241E+01   8.6291E+01   0.0000E+00  0.0000
   8.6291E+01   8.8391E+01   0.0000E+00  0.0000
   8.8391E+01   9.0541E+01   0.0000E+00  0.0000
   9.0541E+01   9.2744E+01   0.0000E+00  0.0000
   9.2744E+01   9.5001E+01   0.0000E+00  0.0000
   9.5001E+01   9.7312E+01   0.0000E+00  0.0000
   9.7312E+01   9.9680E+01   0.0000E+00  0.0000
   9.9680E+01   1.0211E+02   0.0000E+00  0.0000
   1.0211E+02   1.0459E+02   0.0000E+00  0.0000
   1.0459E+02   1.0713E+02   0.0000E+00  0.0000
   1.0713E+02   1.0974E+02   0.0000E+00  0.0000
   1.0974E+02   1.1241E+02   0.0000E+00  0.0000
   1.1241E+02   1.1515E+02   0.0000E+00  0.0000
   1.1515E+02   1.1795E+02   0.0000E+00  0.0000
   1.1795E+02   1.2082E+02   0.0000E+00  0.0000
   1.2082E+02   1.2376E+02   0.0000E+00  0.0000
   1.2376E+02   1.2677E+02   0.0000E+00  0.0000
   1.2677E+02   1.2985E+02   0.0000E+00  0.0000
   1.2985E+02   1.3301E+02   0.0000E+00  0.0000
   1.3301E+02   1.3625E+02   0.0000E+00  0.0000
   1.3625E+02   1.3956E+02   0.0000E+00  0.0000
   1.3956E+02   1.4296E+02   0.0000E+00  0.0000
   1.4296E+02   1.4644E+02   0.0000E+00  0.0000
   1.4644E+02   1.5000E+02   0.0000E+00  0.0000

#   sum over                 1.7759E-05
'no. =    1   reg = 117 - 217'
msuc: {\huge [t-cross] in region mesh}
msdr: {\it plotted by \ANGEL \version}
msdl: {\it calculated by \PHITS  3.26}
wt: s(0.7)
\vspace{-3}
  region surface crossing
  area  &=&   1.0000E+00 [cm^2]
e:
 
# Information for Restart Calculation
# This calculation was newly started
# istdev =  2 # 1:Batch variance, 2:History variance
# resc2  = 5.00000000000000000E+08 # Total source weight or Total source weight / maxcas
# resc3  = 5.00000000000000000E+08 # Total history number or Total batch number
# maxcas =   500000000 # History / Batch, only used for istdev=1
# bitrseed = 1101101111010011011000101101110001100110110010110001010100010001 # bit data of rseed
