[ T-Cross ]
    title = [t-cross] in region mesh
     mesh =  reg            # mesh type is region-wise
      reg =    1            # number of crossing regions
      non     r-from    r-to       area
      1       125       225        1.000000    
   e-type =    3            # e-mesh is log given by emin, emax and ne
     emin =  1.0000000E-02  # minimum value of e-mesh points
     emax =   150.0000      # maximum value of e-mesh points
#    edel =  2.4039514E-02  # mesh width of e-mesh points
       ne =    400          # number of e-mesh points
#    data = ( e(i), i = 1, ne + 1 )
#           1.00000E-02  1.02433E-02  1.04925E-02  1.07478E-02  1.10093E-02
#           1.12772E-02  1.15516E-02  1.18326E-02  1.21205E-02  1.24154E-02
#           1.27175E-02  1.30269E-02  1.33439E-02  1.36686E-02  1.40011E-02
#           1.43418E-02  1.46907E-02  1.50482E-02  1.54143E-02  1.57894E-02
#           1.61735E-02  1.65670E-02  1.69701E-02  1.73830E-02  1.78060E-02
#           1.82392E-02  1.86830E-02  1.91375E-02  1.96032E-02  2.00801E-02
#           2.05687E-02  2.10692E-02  2.15818E-02  2.21069E-02  2.26448E-02
#           2.31957E-02  2.37601E-02  2.43382E-02  2.49304E-02  2.55369E-02
#           2.61583E-02  2.67947E-02  2.74467E-02  2.81145E-02  2.87985E-02
#           2.94992E-02  3.02169E-02  3.09521E-02  3.17052E-02  3.24766E-02
#           3.32668E-02  3.40762E-02  3.49053E-02  3.57546E-02  3.66246E-02
#           3.75157E-02  3.84284E-02  3.93634E-02  4.03212E-02  4.13022E-02
#           4.23071E-02  4.33365E-02  4.43909E-02  4.54710E-02  4.65773E-02
#           4.77106E-02  4.88714E-02  5.00605E-02  5.12785E-02  5.25262E-02
#           5.38042E-02  5.51133E-02  5.64542E-02  5.78278E-02  5.92348E-02
#           6.06760E-02  6.21523E-02  6.36645E-02  6.52135E-02  6.68002E-02
#           6.84255E-02  7.00904E-02  7.17957E-02  7.35426E-02  7.53319E-02
#           7.71648E-02  7.90423E-02  8.09655E-02  8.29354E-02  8.49533E-02
#           8.70203E-02  8.91376E-02  9.13064E-02  9.35279E-02  9.58035E-02
#           9.81345E-02  1.00522E-01  1.02968E-01  1.05473E-01  1.08040E-01
#           1.10668E-01  1.13361E-01  1.16119E-01  1.18944E-01  1.21838E-01
#           1.24803E-01  1.27839E-01  1.30950E-01  1.34136E-01  1.37399E-01
#           1.40742E-01  1.44167E-01  1.47675E-01  1.51268E-01  1.54948E-01
#           1.58718E-01  1.62580E-01  1.66535E-01  1.70587E-01  1.74738E-01
#           1.78989E-01  1.83344E-01  1.87805E-01  1.92375E-01  1.97055E-01
#           2.01850E-01  2.06761E-01  2.11792E-01  2.16945E-01  2.22223E-01
#           2.27630E-01  2.33169E-01  2.38842E-01  2.44653E-01  2.50605E-01
#           2.56703E-01  2.62949E-01  2.69346E-01  2.75900E-01  2.82613E-01
#           2.89489E-01  2.96532E-01  3.03747E-01  3.11138E-01  3.18708E-01
#           3.26462E-01  3.34405E-01  3.42542E-01  3.50876E-01  3.59413E-01
#           3.68158E-01  3.77116E-01  3.86291E-01  3.95690E-01  4.05317E-01
#           4.15179E-01  4.25281E-01  4.35628E-01  4.46227E-01  4.57084E-01
#           4.68205E-01  4.79597E-01  4.91266E-01  5.03219E-01  5.15463E-01
#           5.28005E-01  5.40851E-01  5.54011E-01  5.67490E-01  5.81298E-01
#           5.95441E-01  6.09929E-01  6.24769E-01  6.39970E-01  6.55541E-01
#           6.71491E-01  6.87828E-01  7.04564E-01  7.21706E-01  7.39266E-01
#           7.57253E-01  7.75678E-01  7.94551E-01  8.13883E-01  8.33685E-01
#           8.53969E-01  8.74747E-01  8.96030E-01  9.17831E-01  9.40163E-01
#           9.63038E-01  9.86469E-01  1.01047E+00  1.03506E+00  1.06024E+00
#           1.08604E+00  1.11246E+00  1.13953E+00  1.16725E+00  1.19565E+00
#           1.22474E+00  1.25454E+00  1.28507E+00  1.31633E+00  1.34836E+00
#           1.38117E+00  1.41477E+00  1.44920E+00  1.48446E+00  1.52057E+00
#           1.55757E+00  1.59547E+00  1.63429E+00  1.67405E+00  1.71478E+00
#           1.75650E+00  1.79924E+00  1.84302E+00  1.88786E+00  1.93379E+00
#           1.98084E+00  2.02904E+00  2.07841E+00  2.12898E+00  2.18078E+00
#           2.23384E+00  2.28819E+00  2.34386E+00  2.40089E+00  2.45930E+00
#           2.51914E+00  2.58043E+00  2.64322E+00  2.70753E+00  2.77341E+00
#           2.84088E+00  2.91001E+00  2.98081E+00  3.05333E+00  3.12762E+00
#           3.20372E+00  3.28167E+00  3.36152E+00  3.44330E+00  3.52708E+00
#           3.61290E+00  3.70080E+00  3.79085E+00  3.88308E+00  3.97756E+00
#           4.07434E+00  4.17347E+00  4.27501E+00  4.37903E+00  4.48557E+00
#           4.59471E+00  4.70650E+00  4.82102E+00  4.93832E+00  5.05847E+00
#           5.18155E+00  5.30762E+00  5.43676E+00  5.56904E+00  5.70453E+00
#           5.84333E+00  5.98550E+00  6.13114E+00  6.28031E+00  6.43312E+00
#           6.58964E+00  6.74997E+00  6.91420E+00  7.08243E+00  7.25475E+00
#           7.43126E+00  7.61207E+00  7.79728E+00  7.98700E+00  8.18133E+00
#           8.38038E+00  8.58428E+00  8.79315E+00  9.00709E+00  9.22624E+00
#           9.45072E+00  9.68067E+00  9.91620E+00  1.01575E+01  1.04046E+01
#           1.06578E+01  1.09171E+01  1.11827E+01  1.14548E+01  1.17335E+01
#           1.20190E+01  1.23114E+01  1.26109E+01  1.29178E+01  1.32321E+01
#           1.35540E+01  1.38838E+01  1.42216E+01  1.45676E+01  1.49221E+01
#           1.52851E+01  1.56570E+01  1.60380E+01  1.64282E+01  1.68279E+01
#           1.72374E+01  1.76568E+01  1.80864E+01  1.85264E+01  1.89772E+01
#           1.94389E+01  1.99119E+01  2.03963E+01  2.08926E+01  2.14009E+01
#           2.19216E+01  2.24550E+01  2.30014E+01  2.35610E+01  2.41343E+01
#           2.47215E+01  2.53230E+01  2.59391E+01  2.65702E+01  2.72167E+01
#           2.78789E+01  2.85572E+01  2.92520E+01  2.99637E+01  3.06928E+01
#           3.14396E+01  3.22045E+01  3.29881E+01  3.37907E+01  3.46128E+01
#           3.54550E+01  3.63177E+01  3.72013E+01  3.81064E+01  3.90336E+01
#           3.99833E+01  4.09561E+01  4.19526E+01  4.29734E+01  4.40189E+01
#           4.50900E+01  4.61870E+01  4.73108E+01  4.84619E+01  4.96410E+01
#           5.08488E+01  5.20860E+01  5.33533E+01  5.46514E+01  5.59812E+01
#           5.73432E+01  5.87384E+01  6.01676E+01  6.16315E+01  6.31311E+01
#           6.46671E+01  6.62405E+01  6.78522E+01  6.95031E+01  7.11941E+01
#           7.29263E+01  7.47007E+01  7.65182E+01  7.83800E+01  8.02870E+01
#           8.22405E+01  8.42414E+01  8.62911E+01  8.83906E+01  9.05412E+01
#           9.27442E+01  9.50007E+01  9.73122E+01  9.96799E+01  1.02105E+02
#           1.04589E+02  1.07134E+02  1.09741E+02  1.12411E+02  1.15146E+02
#           1.17948E+02  1.20817E+02  1.23757E+02  1.26768E+02  1.29852E+02
#           1.33012E+02  1.36248E+02  1.39563E+02  1.42959E+02  1.46437E+02
#           1.50000E+02
     unit =    2            # unit is [1/cm^2/(MeV/n)/source]
     axis =  eng            # axis of output
     file = detector-26.out  # file name of output for the above axis
   output = f-curr          # surface crossing forward current spectrum
     part =  neutron  
# kf/name :  2112     
#    used :        main (  %)        temp (  %)       total (  %)
#  memory :         414 (  0)           0 (  0)         414 (  0)

#------------------------------------------------------------------------------
#newpage:
#   no. =    1   reg = 125 - 225

x: Energy [MeV/n]
y:  F-Curr [1/cm^2/(MeV/n)/source]         
p: xlog ylog afac(0.8) form(0.9)
h: n            x            y(neutron ),hh0l   n 
#  e-lower      e-upper      neutron     r.err 
   1.0000E-02   1.0243E-02   5.2053E-03  0.0199
   1.0243E-02   1.0493E-02   5.1900E-03  0.0197
   1.0493E-02   1.0748E-02   5.1471E-03  0.0195
   1.0748E-02   1.1009E-02   5.0477E-03  0.0195
   1.1009E-02   1.1277E-02   4.9521E-03  0.0194
   1.1277E-02   1.1552E-02   5.0222E-03  0.0190
   1.1552E-02   1.1833E-02   4.9331E-03  0.0190
   1.1833E-02   1.2121E-02   4.7638E-03  0.0191
   1.2121E-02   1.2415E-02   4.7694E-03  0.0189
   1.2415E-02   1.2718E-02   4.7885E-03  0.0186
   1.2718E-02   1.3027E-02   4.6408E-03  0.0187
   1.3027E-02   1.3344E-02   4.4722E-03  0.0188
   1.3344E-02   1.3669E-02   4.5932E-03  0.0183
   1.3669E-02   1.4001E-02   4.3916E-03  0.0185
   1.4001E-02   1.4342E-02   4.3093E-03  0.0185
   1.4342E-02   1.4691E-02   4.1955E-03  0.0185
   1.4691E-02   1.5048E-02   4.2973E-03  0.0180
   1.5048E-02   1.5414E-02   4.1863E-03  0.0181
   1.5414E-02   1.5789E-02   4.1009E-03  0.0180
   1.5789E-02   1.6174E-02   4.1557E-03  0.0177
   1.6174E-02   1.6567E-02   3.9376E-03  0.0180
   1.6567E-02   1.6970E-02   3.9979E-03  0.0176
   1.6970E-02   1.7383E-02   3.9562E-03  0.0175
   1.7383E-02   1.7806E-02   3.9568E-03  0.0173
   1.7806E-02   1.8239E-02   3.7763E-03  0.0175
   1.8239E-02   1.8683E-02   3.7885E-03  0.0172
   1.8683E-02   1.9138E-02   3.8157E-03  0.0170
   1.9138E-02   1.9603E-02   3.7234E-03  0.0170
   1.9603E-02   2.0080E-02   3.6366E-03  0.0170
   2.0080E-02   2.0569E-02   3.6781E-03  0.0167
   2.0569E-02   2.1069E-02   3.5328E-03  0.0168
   2.1069E-02   2.1582E-02   3.5435E-03  0.0166
   2.1582E-02   2.2107E-02   3.4669E-03  0.0166
   2.2107E-02   2.2645E-02   3.4478E-03  0.0164
   2.2645E-02   2.3196E-02   3.3804E-03  0.0164
   2.3196E-02   2.3760E-02   3.2966E-03  0.0164
   2.3760E-02   2.4338E-02   3.3636E-03  0.0160
   2.4338E-02   2.4930E-02   3.2875E-03  0.0160
   2.4930E-02   2.5537E-02   3.1929E-03  0.0161
   2.5537E-02   2.6158E-02   3.1722E-03  0.0159
   2.6158E-02   2.6795E-02   3.1452E-03  0.0158
   2.6795E-02   2.7447E-02   3.1525E-03  0.0156
   2.7447E-02   2.8114E-02   3.0795E-03  0.0156
   2.8114E-02   2.8799E-02   3.0246E-03  0.0155
   2.8799E-02   2.9499E-02   3.0641E-03  0.0153
   2.9499E-02   3.0217E-02   2.9621E-03  0.0153
   3.0217E-02   3.0952E-02   2.9254E-03  0.0152
   3.0952E-02   3.1705E-02   2.9080E-03  0.0151
   3.1705E-02   3.2477E-02   2.7203E-03  0.0154
   3.2477E-02   3.3267E-02   2.8139E-03  0.0150
   3.3267E-02   3.4076E-02   2.7804E-03  0.0149
   3.4076E-02   3.4905E-02   2.6897E-03  0.0150
   3.4905E-02   3.5755E-02   2.7579E-03  0.0146
   3.5755E-02   3.6625E-02   2.7229E-03  0.0145
   3.6625E-02   3.7516E-02   2.6776E-03  0.0145
   3.7516E-02   3.8428E-02   2.6663E-03  0.0143
   3.8428E-02   3.9363E-02   2.6145E-03  0.0143
   3.9363E-02   4.0321E-02   2.5675E-03  0.0143
   4.0321E-02   4.1302E-02   2.5325E-03  0.0142
   4.1302E-02   4.2307E-02   2.4395E-03  0.0143
   4.2307E-02   4.3337E-02   2.4583E-03  0.0141
   4.3337E-02   4.4391E-02   2.4255E-03  0.0140
   4.4391E-02   4.5471E-02   2.4508E-03  0.0137
   4.5471E-02   4.6577E-02   2.3327E-03  0.0139
   4.6577E-02   4.7711E-02   2.3507E-03  0.0137
   4.7711E-02   4.8871E-02   2.3164E-03  0.0136
   4.8871E-02   5.0061E-02   2.3417E-03  0.0134
   5.0061E-02   5.1279E-02   2.2315E-03  0.0136
   5.1279E-02   5.2526E-02   2.2504E-03  0.0133
   5.2526E-02   5.3804E-02   2.1995E-03  0.0133
   5.3804E-02   5.5113E-02   2.1962E-03  0.0132
   5.5113E-02   5.6454E-02   2.1705E-03  0.0131
   5.6454E-02   5.7828E-02   2.1535E-03  0.0130
   5.7828E-02   5.9235E-02   2.0814E-03  0.0131
   5.9235E-02   6.0676E-02   2.0849E-03  0.0129
   6.0676E-02   6.2152E-02   2.0616E-03  0.0128
   6.2152E-02   6.3665E-02   2.0701E-03  0.0126
   6.3665E-02   6.5214E-02   1.9800E-03  0.0128
   6.5214E-02   6.6800E-02   1.9660E-03  0.0127
   6.6800E-02   6.8426E-02   1.9809E-03  0.0125
   6.8426E-02   7.0090E-02   1.9464E-03  0.0124
   7.0090E-02   7.1796E-02   1.9448E-03  0.0123
   7.1796E-02   7.3543E-02   1.9358E-03  0.0122
   7.3543E-02   7.5332E-02   1.8680E-03  0.0122
   7.5332E-02   7.7165E-02   1.8976E-03  0.0120
   7.7165E-02   7.9042E-02   1.8517E-03  0.0120
   7.9042E-02   8.0965E-02   1.8360E-03  0.0119
   8.0965E-02   8.2935E-02   1.8203E-03  0.0118
   8.2935E-02   8.4953E-02   1.7774E-03  0.0118
   8.4953E-02   8.7020E-02   1.7705E-03  0.0117
   8.7020E-02   8.9138E-02   1.7603E-03  0.0116
   8.9138E-02   9.1306E-02   1.7418E-03  0.0115
   9.1306E-02   9.3528E-02   1.6984E-03  0.0115
   9.3528E-02   9.5804E-02   1.7154E-03  0.0113
   9.5804E-02   9.8134E-02   1.6684E-03  0.0113
   9.8134E-02   1.0052E-01   1.6356E-03  0.0113
   1.0052E-01   1.0297E-01   1.6481E-03  0.0111
   1.0297E-01   1.0547E-01   1.6202E-03  0.0111
   1.0547E-01   1.0804E-01   1.6095E-03  0.0110
   1.0804E-01   1.1067E-01   1.5989E-03  0.0109
   1.1067E-01   1.1336E-01   1.5674E-03  0.0109
   1.1336E-01   1.1612E-01   1.5376E-03  0.0109
   1.1612E-01   1.1894E-01   1.5378E-03  0.0107
   1.1894E-01   1.2184E-01   1.5119E-03  0.0107
   1.2184E-01   1.2480E-01   1.5402E-03  0.0105
   1.2480E-01   1.2784E-01   1.5081E-03  0.0105
   1.2784E-01   1.3095E-01   1.4966E-03  0.0104
   1.3095E-01   1.3414E-01   1.4667E-03  0.0103
   1.3414E-01   1.3740E-01   1.4374E-03  0.0103
   1.3740E-01   1.4074E-01   1.4144E-03  0.0103
   1.4074E-01   1.4417E-01   1.4391E-03  0.0101
   1.4417E-01   1.4767E-01   1.4194E-03  0.0100
   1.4767E-01   1.5127E-01   1.3773E-03  0.0101
   1.5127E-01   1.5495E-01   1.3517E-03  0.0100
   1.5495E-01   1.5872E-01   1.3468E-03  0.0099
   1.5872E-01   1.6258E-01   1.3355E-03  0.0098
   1.6258E-01   1.6654E-01   1.3329E-03  0.0097
   1.6654E-01   1.7059E-01   1.3305E-03  0.0096
   1.7059E-01   1.7474E-01   1.3018E-03  0.0096
   1.7474E-01   1.7899E-01   1.2700E-03  0.0096
   1.7899E-01   1.8334E-01   1.2676E-03  0.0095
   1.8334E-01   1.8781E-01   1.2406E-03  0.0095
   1.8781E-01   1.9237E-01   1.2423E-03  0.0094
   1.9237E-01   1.9706E-01   1.2278E-03  0.0093
   1.9706E-01   2.0185E-01   1.2214E-03  0.0092
   2.0185E-01   2.0676E-01   1.1711E-03  0.0093
   2.0676E-01   2.1179E-01   1.1951E-03  0.0091
   2.1179E-01   2.1694E-01   1.1635E-03  0.0091
   2.1694E-01   2.2222E-01   1.1432E-03  0.0091
   2.2222E-01   2.2763E-01   1.1430E-03  0.0090
   2.2763E-01   2.3317E-01   1.1654E-03  0.0088
   2.3317E-01   2.3884E-01   1.1082E-03  0.0089
   2.3884E-01   2.4465E-01   1.1070E-03  0.0088
   2.4465E-01   2.5061E-01   1.0964E-03  0.0088
   2.5061E-01   2.5670E-01   1.0850E-03  0.0087
   2.5670E-01   2.6295E-01   1.0572E-03  0.0087
   2.6295E-01   2.6935E-01   1.0461E-03  0.0086
   2.6935E-01   2.7590E-01   1.0459E-03  0.0085
   2.7590E-01   2.8261E-01   1.0179E-03  0.0086
   2.8261E-01   2.8949E-01   1.0158E-03  0.0085
   2.8949E-01   2.9653E-01   1.0067E-03  0.0084
   2.9653E-01   3.0375E-01   9.7611E-04  0.0084
   3.0375E-01   3.1114E-01   9.6152E-04  0.0084
   3.1114E-01   3.1871E-01   9.6338E-04  0.0083
   3.1871E-01   3.2646E-01   9.2841E-04  0.0083
   3.2646E-01   3.3441E-01   9.2174E-04  0.0083
   3.3441E-01   3.4254E-01   9.0679E-04  0.0082
   3.4254E-01   3.5088E-01   9.0151E-04  0.0082
   3.5088E-01   3.5941E-01   8.7501E-04  0.0082
   3.5941E-01   3.6816E-01   8.8107E-04  0.0081
   3.6816E-01   3.7712E-01   8.6005E-04  0.0081
   3.7712E-01   3.8629E-01   8.3963E-04  0.0081
   3.8629E-01   3.9569E-01   8.3019E-04  0.0080
   3.9569E-01   4.0532E-01   8.1699E-04  0.0080
   4.0532E-01   4.1518E-01   7.9796E-04  0.0080
   4.1518E-01   4.2528E-01   7.8688E-04  0.0079
   4.2528E-01   4.3563E-01   7.7169E-04  0.0079
   4.3563E-01   4.4623E-01   7.6379E-04  0.0079
   4.4623E-01   4.5708E-01   7.5158E-04  0.0078
   4.5708E-01   4.6821E-01   7.3955E-04  0.0078
   4.6821E-01   4.7960E-01   7.1404E-04  0.0078
   4.7960E-01   4.9127E-01   7.0966E-04  0.0078
   4.9127E-01   5.0322E-01   6.8883E-04  0.0078
   5.0322E-01   5.1546E-01   6.7680E-04  0.0078
   5.1546E-01   5.2800E-01   6.6275E-04  0.0078
   5.2800E-01   5.4085E-01   6.5569E-04  0.0077
   5.4085E-01   5.5401E-01   6.3214E-04  0.0078
   5.5401E-01   5.6749E-01   6.2413E-04  0.0077
   5.6749E-01   5.8130E-01   6.1309E-04  0.0077
   5.8130E-01   5.9544E-01   5.8783E-04  0.0078
   5.9544E-01   6.0993E-01   5.9153E-04  0.0076
   6.0993E-01   6.2477E-01   5.5979E-04  0.0078
   6.2477E-01   6.3997E-01   5.4039E-04  0.0078
   6.3997E-01   6.5554E-01   5.3449E-04  0.0078
   6.5554E-01   6.7149E-01   5.2198E-04  0.0078
   6.7149E-01   6.8783E-01   5.0793E-04  0.0078
   6.8783E-01   7.0456E-01   4.9673E-04  0.0078
   7.0456E-01   7.2171E-01   4.7563E-04  0.0078
   7.2171E-01   7.3927E-01   4.5546E-04  0.0079
   7.3927E-01   7.5725E-01   4.5105E-04  0.0079
   7.5725E-01   7.7568E-01   4.3971E-04  0.0079
   7.7568E-01   7.9455E-01   4.1803E-04  0.0080
   7.9455E-01   8.1388E-01   4.1118E-04  0.0079
   8.1388E-01   8.3368E-01   3.9430E-04  0.0080
   8.3368E-01   8.5397E-01   3.7556E-04  0.0081
   8.5397E-01   8.7475E-01   3.5981E-04  0.0082
   8.7475E-01   8.9603E-01   3.5098E-04  0.0082
   8.9603E-01   9.1783E-01   3.3546E-04  0.0083
   9.1783E-01   9.4016E-01   3.1735E-04  0.0084
   9.4016E-01   9.6304E-01   3.0280E-04  0.0085
   9.6304E-01   9.8647E-01   2.8724E-04  0.0086
   9.8647E-01   1.0105E+00   2.7752E-04  0.0087
   1.0105E+00   1.0351E+00   2.7234E-04  0.0086
   1.0351E+00   1.0602E+00   2.7349E-04  0.0085
   1.0602E+00   1.0860E+00   2.7269E-04  0.0084
   1.0860E+00   1.1125E+00   2.7573E-04  0.0083
   1.1125E+00   1.1395E+00   2.7881E-04  0.0081
   1.1395E+00   1.1673E+00   2.8158E-04  0.0080
   1.1673E+00   1.1957E+00   2.8458E-04  0.0079
   1.1957E+00   1.2247E+00   2.8934E-04  0.0077
   1.2247E+00   1.2545E+00   2.8857E-04  0.0076
   1.2545E+00   1.2851E+00   2.8417E-04  0.0076
   1.2851E+00   1.3163E+00   2.8508E-04  0.0075
   1.3163E+00   1.3484E+00   2.8536E-04  0.0074
   1.3484E+00   1.3812E+00   2.8890E-04  0.0073
   1.3812E+00   1.4148E+00   2.8558E-04  0.0072
   1.4148E+00   1.4492E+00   2.8457E-04  0.0071
   1.4492E+00   1.4845E+00   2.7703E-04  0.0072
   1.4845E+00   1.5206E+00   2.7247E-04  0.0071
   1.5206E+00   1.5576E+00   2.6817E-04  0.0071
   1.5576E+00   1.5955E+00   2.6701E-04  0.0070
   1.5955E+00   1.6343E+00   2.6399E-04  0.0070
   1.6343E+00   1.6741E+00   2.6294E-04  0.0069
   1.6741E+00   1.7148E+00   2.6286E-04  0.0068
   1.7148E+00   1.7565E+00   2.5563E-04  0.0068
   1.7565E+00   1.7992E+00   2.5183E-04  0.0068
   1.7992E+00   1.8430E+00   2.4367E-04  0.0068
   1.8430E+00   1.8879E+00   2.3494E-04  0.0069
   1.8879E+00   1.9338E+00   2.3378E-04  0.0068
   1.9338E+00   1.9808E+00   2.2859E-04  0.0068
   1.9808E+00   2.0290E+00   2.2733E-04  0.0068
   2.0290E+00   2.0784E+00   2.1611E-04  0.0068
   2.0784E+00   2.1290E+00   2.0646E-04  0.0069
   2.1290E+00   2.1808E+00   1.9967E-04  0.0070
   2.1808E+00   2.2338E+00   1.9270E-04  0.0070
   2.2338E+00   2.2882E+00   1.8702E-04  0.0070
   2.2882E+00   2.3439E+00   1.8188E-04  0.0070
   2.3439E+00   2.4009E+00   1.7752E-04  0.0070
   2.4009E+00   2.4593E+00   1.7061E-04  0.0071
   2.4593E+00   2.5191E+00   1.6349E-04  0.0072
   2.5191E+00   2.5804E+00   1.5291E-04  0.0073
   2.5804E+00   2.6432E+00   1.4922E-04  0.0073
   2.6432E+00   2.7075E+00   1.4085E-04  0.0074
   2.7075E+00   2.7734E+00   1.3174E-04  0.0076
   2.7734E+00   2.8409E+00   1.2536E-04  0.0077
   2.8409E+00   2.9100E+00   1.1975E-04  0.0078
   2.9100E+00   2.9808E+00   1.1547E-04  0.0078
   2.9808E+00   3.0533E+00   1.0959E-04  0.0079
   3.0533E+00   3.1276E+00   1.0347E-04  0.0081
   3.1276E+00   3.2037E+00   9.6961E-05  0.0082
   3.2037E+00   3.2817E+00   9.1136E-05  0.0084
   3.2817E+00   3.3615E+00   8.5127E-05  0.0086
   3.3615E+00   3.4433E+00   7.8569E-05  0.0088
   3.4433E+00   3.5271E+00   7.4548E-05  0.0089
   3.5271E+00   3.6129E+00   7.0884E-05  0.0091
   3.6129E+00   3.7008E+00   6.4826E-05  0.0094
   3.7008E+00   3.7908E+00   6.0809E-05  0.0096
   3.7908E+00   3.8831E+00   5.6484E-05  0.0098
   3.8831E+00   3.9776E+00   5.2578E-05  0.0100
   3.9776E+00   4.0743E+00   4.8436E-05  0.0103
   4.0743E+00   4.1735E+00   4.5712E-05  0.0105
   4.1735E+00   4.2750E+00   4.2524E-05  0.0108
   4.2750E+00   4.3790E+00   3.9302E-05  0.0111
   4.3790E+00   4.4856E+00   3.6126E-05  0.0114
   4.4856E+00   4.5947E+00   3.2615E-05  0.0119
   4.5947E+00   4.7065E+00   3.0118E-05  0.0122
   4.7065E+00   4.8210E+00   2.7977E-05  0.0125
   4.8210E+00   4.9383E+00   2.5166E-05  0.0130
   4.9383E+00   5.0585E+00   2.3220E-05  0.0134
   5.0585E+00   5.1815E+00   2.0780E-05  0.0140
   5.1815E+00   5.3076E+00   1.9719E-05  0.0142
   5.3076E+00   5.4368E+00   1.8120E-05  0.0146
   5.4368E+00   5.5690E+00   1.6482E-05  0.0151
   5.5690E+00   5.7045E+00   1.4974E-05  0.0157
   5.7045E+00   5.8433E+00   1.3423E-05  0.0164
   5.8433E+00   5.9855E+00   1.2154E-05  0.0170
   5.9855E+00   6.1311E+00   1.0787E-05  0.0178
   6.1311E+00   6.2803E+00   9.9681E-06  0.0183
   6.2803E+00   6.4331E+00   9.2471E-06  0.0188
   6.4331E+00   6.5896E+00   8.2336E-06  0.0197
   6.5896E+00   6.7500E+00   7.5375E-06  0.0203
   6.7500E+00   6.9142E+00   6.7663E-06  0.0212
   6.9142E+00   7.0824E+00   6.1464E-06  0.0220
   7.0824E+00   7.2548E+00   5.5536E-06  0.0229
   7.2548E+00   7.4313E+00   4.8240E-06  0.0242
   7.4313E+00   7.6121E+00   4.4688E-06  0.0249
   7.6121E+00   7.7973E+00   4.2763E-06  0.0251
   7.7973E+00   7.9870E+00   3.7346E-06  0.0266
   7.9870E+00   8.1813E+00   3.2097E-06  0.0283
   8.1813E+00   8.3804E+00   2.8949E-06  0.0294
   8.3804E+00   8.5843E+00   2.6336E-06  0.0305
   8.5843E+00   8.7931E+00   2.3365E-06  0.0320
   8.7931E+00   9.0071E+00   2.1326E-06  0.0331
   9.0071E+00   9.2262E+00   1.8093E-06  0.0354
   9.2262E+00   9.4507E+00   1.7707E-06  0.0354
   9.4507E+00   9.6807E+00   1.6548E-06  0.0362
   9.6807E+00   9.9162E+00   1.3512E-06  0.0396
   9.9162E+00   1.0157E+01   1.2921E-06  0.0400
   1.0157E+01   1.0405E+01   1.0976E-06  0.0427
   1.0405E+01   1.0658E+01   9.6878E-07  0.0449
   1.0658E+01   1.0917E+01   9.2071E-07  0.0456
   1.0917E+01   1.1183E+01   7.9531E-07  0.0484
   1.1183E+01   1.1455E+01   6.6707E-07  0.0522
   1.1455E+01   1.1733E+01   6.1894E-07  0.0535
   1.1733E+01   1.2019E+01   5.6133E-07  0.0556
   1.2019E+01   1.2311E+01   5.5483E-07  0.0553
   1.2311E+01   1.2611E+01   4.6988E-07  0.0592
   1.2611E+01   1.2918E+01   4.3835E-07  0.0607
   1.2918E+01   1.3232E+01   3.7385E-07  0.0647
   1.3232E+01   1.3554E+01   3.4322E-07  0.0668
   1.3554E+01   1.3884E+01   3.0399E-07  0.0702
   1.3884E+01   1.4222E+01   2.8345E-07  0.0721
   1.4222E+01   1.4568E+01   2.6443E-07  0.0736
   1.4568E+01   1.4922E+01   2.2641E-07  0.0786
   1.4922E+01   1.5285E+01   2.2930E-07  0.0773
   1.5285E+01   1.5657E+01   1.8688E-07  0.0845
   1.5657E+01   1.6038E+01   1.9425E-07  0.0818
   1.6038E+01   1.6428E+01   1.9220E-07  0.0815
   1.6428E+01   1.6828E+01   1.6637E-07  0.0862
   1.6828E+01   1.7237E+01   1.9661E-07  0.0787
   1.7237E+01   1.7657E+01   1.6333E-07  0.0853
   1.7657E+01   1.8086E+01   1.3152E-07  0.0939
   1.8086E+01   1.8526E+01   1.4884E-07  0.0872
   1.8526E+01   1.8977E+01   1.2590E-07  0.0936
   1.8977E+01   1.9439E+01   1.1749E-07  0.0959
   1.9439E+01   1.9912E+01   1.1682E-07  0.0948
   1.9912E+01   2.0396E+01   1.1507E-07  0.0946
   2.0396E+01   2.0893E+01   9.9746E-08  0.1005
   2.0893E+01   2.1401E+01   9.5410E-08  0.1015
   2.1401E+01   2.1922E+01   8.1621E-08  0.1085
   2.1922E+01   2.2455E+01   9.1869E-08  0.1010
   2.2455E+01   2.3001E+01   8.5111E-08  0.1037
   2.3001E+01   2.3561E+01   5.0032E-08  0.1336
   2.3561E+01   2.4134E+01   8.0243E-08  0.1043
   2.4134E+01   2.4721E+01   6.7268E-08  0.1125
   2.4721E+01   2.5323E+01   5.0707E-08  0.1280
   2.5323E+01   2.5939E+01   5.1937E-08  0.1250
   2.5939E+01   2.6570E+01   6.0211E-08  0.1147
   2.6570E+01   2.7217E+01   3.4031E-08  0.1508
   2.7217E+01   2.7879E+01   4.6058E-08  0.1280
   2.7879E+01   2.8557E+01   3.2433E-08  0.1508
   2.8557E+01   2.9252E+01   4.0298E-08  0.1336
   2.9252E+01   2.9964E+01   3.2316E-08  0.1474
   2.9964E+01   3.0693E+01   2.4690E-08  0.1667
   3.0693E+01   3.1440E+01   1.6069E-08  0.2041
   3.1440E+01   3.2205E+01   2.2877E-08  0.1690
   3.2205E+01   3.2988E+01   2.2972E-08  0.1667
   3.2988E+01   3.3791E+01   2.1803E-08  0.1690
   3.3791E+01   3.4613E+01   1.8853E-08  0.1796
   3.4613E+01   3.5455E+01   1.6030E-08  0.1925
   3.5455E+01   3.6318E+01   1.6809E-08  0.1857
   3.6318E+01   3.7201E+01   6.7901E-09  0.2887
   3.7201E+01   3.8106E+01   1.0496E-08  0.2294
   3.8106E+01   3.9034E+01   1.2943E-08  0.2041
   3.9034E+01   3.9983E+01   7.3706E-09  0.2673
   3.9983E+01   4.0956E+01   7.1955E-09  0.2673
   4.0956E+01   4.1953E+01   6.5229E-09  0.2774
   4.1953E+01   4.2973E+01   1.4695E-09  0.5774
   4.2973E+01   4.4019E+01   1.4346E-09  0.5774
   4.4019E+01   4.5090E+01   2.8011E-09  0.4082
   4.5090E+01   4.6187E+01   1.8230E-09  0.5000
   4.6187E+01   4.7311E+01   8.8986E-10  0.7071
   4.7311E+01   4.8462E+01   8.6873E-10  0.7071
   4.8462E+01   4.9641E+01   1.6962E-09  0.5000
   4.9641E+01   5.0849E+01   4.1397E-10  1.0000
   5.0849E+01   5.2086E+01   8.0828E-10  0.7071
   5.2086E+01   5.3353E+01   0.0000E+00  0.0000
   5.3353E+01   5.4651E+01   0.0000E+00  0.0000
   5.4651E+01   5.5981E+01   0.0000E+00  0.0000
   5.5981E+01   5.7343E+01   0.0000E+00  0.0000
   5.7343E+01   5.8738E+01   0.0000E+00  0.0000
   5.8738E+01   6.0168E+01   0.0000E+00  0.0000
   6.0168E+01   6.1632E+01   0.0000E+00  0.0000
   6.1632E+01   6.3131E+01   0.0000E+00  0.0000
   6.3131E+01   6.4667E+01   0.0000E+00  0.0000
   6.4667E+01   6.6240E+01   0.0000E+00  0.0000
   6.6240E+01   6.7852E+01   0.0000E+00  0.0000
   6.7852E+01   6.9503E+01   0.0000E+00  0.0000
   6.9503E+01   7.1194E+01   0.0000E+00  0.0000
   7.1194E+01   7.2926E+01   0.0000E+00  0.0000
   7.2926E+01   7.4701E+01   0.0000E+00  0.0000
   7.4701E+01   7.6518E+01   0.0000E+00  0.0000
   7.6518E+01   7.8380E+01   0.0000E+00  0.0000
   7.8380E+01   8.0287E+01   0.0000E+00  0.0000
   8.0287E+01   8.2240E+01   0.0000E+00  0.0000
   8.2240E+01   8.4241E+01   0.0000E+00  0.0000
   8.4241E+01   8.6291E+01   0.0000E+00  0.0000
   8.6291E+01   8.8391E+01   0.0000E+00  0.0000
   8.8391E+01   9.0541E+01   0.0000E+00  0.0000
   9.0541E+01   9.2744E+01   0.0000E+00  0.0000
   9.2744E+01   9.5001E+01   0.0000E+00  0.0000
   9.5001E+01   9.7312E+01   0.0000E+00  0.0000
   9.7312E+01   9.9680E+01   0.0000E+00  0.0000
   9.9680E+01   1.0211E+02   0.0000E+00  0.0000
   1.0211E+02   1.0459E+02   0.0000E+00  0.0000
   1.0459E+02   1.0713E+02   0.0000E+00  0.0000
   1.0713E+02   1.0974E+02   0.0000E+00  0.0000
   1.0974E+02   1.1241E+02   0.0000E+00  0.0000
   1.1241E+02   1.1515E+02   0.0000E+00  0.0000
   1.1515E+02   1.1795E+02   0.0000E+00  0.0000
   1.1795E+02   1.2082E+02   0.0000E+00  0.0000
   1.2082E+02   1.2376E+02   0.0000E+00  0.0000
   1.2376E+02   1.2677E+02   0.0000E+00  0.0000
   1.2677E+02   1.2985E+02   0.0000E+00  0.0000
   1.2985E+02   1.3301E+02   0.0000E+00  0.0000
   1.3301E+02   1.3625E+02   0.0000E+00  0.0000
   1.3625E+02   1.3956E+02   0.0000E+00  0.0000
   1.3956E+02   1.4296E+02   0.0000E+00  0.0000
   1.4296E+02   1.4644E+02   0.0000E+00  0.0000
   1.4644E+02   1.5000E+02   0.0000E+00  0.0000

#   sum over                 9.6224E-06
'no. =    1   reg = 125 - 225'
msuc: {\huge [t-cross] in region mesh}
msdr: {\it plotted by \ANGEL \version}
msdl: {\it calculated by \PHITS  3.26}
wt: s(0.7)
\vspace{-3}
  region surface crossing
  area  &=&   1.0000E+00 [cm^2]
e:
 
# Information for Restart Calculation
# This calculation was newly started
# istdev =  2 # 1:Batch variance, 2:History variance
# resc2  = 2.00000000000000000E+09 # Total source weight or Total source weight / maxcas
# resc3  = 2.00000000000000000E+09 # Total history number or Total batch number
# maxcas =   500000000 # History / Batch, only used for istdev=1
# bitrseed = 0011011010010000100111110110001101100001010011100000011100000110 # bit data of rseed
