[ T-Cross ]
    title = [t-cross] in region mesh
     mesh =  reg            # mesh type is region-wise
      reg =    1            # number of crossing regions
      non     r-from    r-to       area
      1       108       208        1.000000    
   e-type =    3            # e-mesh is log given by emin, emax and ne
     emin =  1.0000000E-02  # minimum value of e-mesh points
     emax =   150.0000      # maximum value of e-mesh points
#    edel =  2.4039514E-02  # mesh width of e-mesh points
       ne =    400          # number of e-mesh points
#    data = ( e(i), i = 1, ne + 1 )
#           1.00000E-02  1.02433E-02  1.04925E-02  1.07478E-02  1.10093E-02
#           1.12772E-02  1.15516E-02  1.18326E-02  1.21205E-02  1.24154E-02
#           1.27175E-02  1.30269E-02  1.33439E-02  1.36686E-02  1.40011E-02
#           1.43418E-02  1.46907E-02  1.50482E-02  1.54143E-02  1.57894E-02
#           1.61735E-02  1.65670E-02  1.69701E-02  1.73830E-02  1.78060E-02
#           1.82392E-02  1.86830E-02  1.91375E-02  1.96032E-02  2.00801E-02
#           2.05687E-02  2.10692E-02  2.15818E-02  2.21069E-02  2.26448E-02
#           2.31957E-02  2.37601E-02  2.43382E-02  2.49304E-02  2.55369E-02
#           2.61583E-02  2.67947E-02  2.74467E-02  2.81145E-02  2.87985E-02
#           2.94992E-02  3.02169E-02  3.09521E-02  3.17052E-02  3.24766E-02
#           3.32668E-02  3.40762E-02  3.49053E-02  3.57546E-02  3.66246E-02
#           3.75157E-02  3.84284E-02  3.93634E-02  4.03212E-02  4.13022E-02
#           4.23071E-02  4.33365E-02  4.43909E-02  4.54710E-02  4.65773E-02
#           4.77106E-02  4.88714E-02  5.00605E-02  5.12785E-02  5.25262E-02
#           5.38042E-02  5.51133E-02  5.64542E-02  5.78278E-02  5.92348E-02
#           6.06760E-02  6.21523E-02  6.36645E-02  6.52135E-02  6.68002E-02
#           6.84255E-02  7.00904E-02  7.17957E-02  7.35426E-02  7.53319E-02
#           7.71648E-02  7.90423E-02  8.09655E-02  8.29354E-02  8.49533E-02
#           8.70203E-02  8.91376E-02  9.13064E-02  9.35279E-02  9.58035E-02
#           9.81345E-02  1.00522E-01  1.02968E-01  1.05473E-01  1.08040E-01
#           1.10668E-01  1.13361E-01  1.16119E-01  1.18944E-01  1.21838E-01
#           1.24803E-01  1.27839E-01  1.30950E-01  1.34136E-01  1.37399E-01
#           1.40742E-01  1.44167E-01  1.47675E-01  1.51268E-01  1.54948E-01
#           1.58718E-01  1.62580E-01  1.66535E-01  1.70587E-01  1.74738E-01
#           1.78989E-01  1.83344E-01  1.87805E-01  1.92375E-01  1.97055E-01
#           2.01850E-01  2.06761E-01  2.11792E-01  2.16945E-01  2.22223E-01
#           2.27630E-01  2.33169E-01  2.38842E-01  2.44653E-01  2.50605E-01
#           2.56703E-01  2.62949E-01  2.69346E-01  2.75900E-01  2.82613E-01
#           2.89489E-01  2.96532E-01  3.03747E-01  3.11138E-01  3.18708E-01
#           3.26462E-01  3.34405E-01  3.42542E-01  3.50876E-01  3.59413E-01
#           3.68158E-01  3.77116E-01  3.86291E-01  3.95690E-01  4.05317E-01
#           4.15179E-01  4.25281E-01  4.35628E-01  4.46227E-01  4.57084E-01
#           4.68205E-01  4.79597E-01  4.91266E-01  5.03219E-01  5.15463E-01
#           5.28005E-01  5.40851E-01  5.54011E-01  5.67490E-01  5.81298E-01
#           5.95441E-01  6.09929E-01  6.24769E-01  6.39970E-01  6.55541E-01
#           6.71491E-01  6.87828E-01  7.04564E-01  7.21706E-01  7.39266E-01
#           7.57253E-01  7.75678E-01  7.94551E-01  8.13883E-01  8.33685E-01
#           8.53969E-01  8.74747E-01  8.96030E-01  9.17831E-01  9.40163E-01
#           9.63038E-01  9.86469E-01  1.01047E+00  1.03506E+00  1.06024E+00
#           1.08604E+00  1.11246E+00  1.13953E+00  1.16725E+00  1.19565E+00
#           1.22474E+00  1.25454E+00  1.28507E+00  1.31633E+00  1.34836E+00
#           1.38117E+00  1.41477E+00  1.44920E+00  1.48446E+00  1.52057E+00
#           1.55757E+00  1.59547E+00  1.63429E+00  1.67405E+00  1.71478E+00
#           1.75650E+00  1.79924E+00  1.84302E+00  1.88786E+00  1.93379E+00
#           1.98084E+00  2.02904E+00  2.07841E+00  2.12898E+00  2.18078E+00
#           2.23384E+00  2.28819E+00  2.34386E+00  2.40089E+00  2.45930E+00
#           2.51914E+00  2.58043E+00  2.64322E+00  2.70753E+00  2.77341E+00
#           2.84088E+00  2.91001E+00  2.98081E+00  3.05333E+00  3.12762E+00
#           3.20372E+00  3.28167E+00  3.36152E+00  3.44330E+00  3.52708E+00
#           3.61290E+00  3.70080E+00  3.79085E+00  3.88308E+00  3.97756E+00
#           4.07434E+00  4.17347E+00  4.27501E+00  4.37903E+00  4.48557E+00
#           4.59471E+00  4.70650E+00  4.82102E+00  4.93832E+00  5.05847E+00
#           5.18155E+00  5.30762E+00  5.43676E+00  5.56904E+00  5.70453E+00
#           5.84333E+00  5.98550E+00  6.13114E+00  6.28031E+00  6.43312E+00
#           6.58964E+00  6.74997E+00  6.91420E+00  7.08243E+00  7.25475E+00
#           7.43126E+00  7.61207E+00  7.79728E+00  7.98700E+00  8.18133E+00
#           8.38038E+00  8.58428E+00  8.79315E+00  9.00709E+00  9.22624E+00
#           9.45072E+00  9.68067E+00  9.91620E+00  1.01575E+01  1.04046E+01
#           1.06578E+01  1.09171E+01  1.11827E+01  1.14548E+01  1.17335E+01
#           1.20190E+01  1.23114E+01  1.26109E+01  1.29178E+01  1.32321E+01
#           1.35540E+01  1.38838E+01  1.42216E+01  1.45676E+01  1.49221E+01
#           1.52851E+01  1.56570E+01  1.60380E+01  1.64282E+01  1.68279E+01
#           1.72374E+01  1.76568E+01  1.80864E+01  1.85264E+01  1.89772E+01
#           1.94389E+01  1.99119E+01  2.03963E+01  2.08926E+01  2.14009E+01
#           2.19216E+01  2.24550E+01  2.30014E+01  2.35610E+01  2.41343E+01
#           2.47215E+01  2.53230E+01  2.59391E+01  2.65702E+01  2.72167E+01
#           2.78789E+01  2.85572E+01  2.92520E+01  2.99637E+01  3.06928E+01
#           3.14396E+01  3.22045E+01  3.29881E+01  3.37907E+01  3.46128E+01
#           3.54550E+01  3.63177E+01  3.72013E+01  3.81064E+01  3.90336E+01
#           3.99833E+01  4.09561E+01  4.19526E+01  4.29734E+01  4.40189E+01
#           4.50900E+01  4.61870E+01  4.73108E+01  4.84619E+01  4.96410E+01
#           5.08488E+01  5.20860E+01  5.33533E+01  5.46514E+01  5.59812E+01
#           5.73432E+01  5.87384E+01  6.01676E+01  6.16315E+01  6.31311E+01
#           6.46671E+01  6.62405E+01  6.78522E+01  6.95031E+01  7.11941E+01
#           7.29263E+01  7.47007E+01  7.65182E+01  7.83800E+01  8.02870E+01
#           8.22405E+01  8.42414E+01  8.62911E+01  8.83906E+01  9.05412E+01
#           9.27442E+01  9.50007E+01  9.73122E+01  9.96799E+01  1.02105E+02
#           1.04589E+02  1.07134E+02  1.09741E+02  1.12411E+02  1.15146E+02
#           1.17948E+02  1.20817E+02  1.23757E+02  1.26768E+02  1.29852E+02
#           1.33012E+02  1.36248E+02  1.39563E+02  1.42959E+02  1.46437E+02
#           1.50000E+02
     unit =    2            # unit is [1/cm^2/(MeV/n)/source]
     axis =  eng            # axis of output
     file = detector-09.out  # file name of output for the above axis
   output = f-curr          # surface crossing forward current spectrum
     part =  neutron  
# kf/name :  2112     
#    used :        main (  %)        temp (  %)       total (  %)
#  memory :         414 (  0)           0 (  0)         414 (  0)

#------------------------------------------------------------------------------
#newpage:
#   no. =    1   reg = 108 - 208

x: Energy [MeV/n]
y:  F-Curr [1/cm^2/(MeV/n)/source]         
p: xlog ylog afac(0.8) form(0.9)
h: n            x            y(neutron ),hh0l   n 
#  e-lower      e-upper      neutron     r.err 
   1.0000E-02   1.0243E-02   4.1100E-05  0.2582
   1.0243E-02   1.0493E-02   2.1399E-05  0.3536
   1.0493E-02   1.0748E-02   2.3503E-05  0.3333
   1.0748E-02   1.1009E-02   4.3339E-05  0.2425
   1.1009E-02   1.1277E-02   2.9866E-05  0.2887
   1.1277E-02   1.1552E-02   4.1305E-05  0.2425
   1.1552E-02   1.1833E-02   2.8464E-05  0.2887
   1.1833E-02   1.2121E-02   5.0944E-05  0.2132
   1.2121E-02   1.2415E-02   3.8431E-05  0.2425
   1.2415E-02   1.2718E-02   2.2069E-05  0.3162
   1.2718E-02   1.3027E-02   3.4472E-05  0.2500
   1.3027E-02   1.3344E-02   5.0480E-05  0.2041
   1.3344E-02   1.3669E-02   3.4907E-05  0.2425
   1.3669E-02   1.4001E-02   4.4101E-05  0.2132
   1.4001E-02   1.4342E-02   2.3484E-05  0.2887
   1.4342E-02   1.4691E-02   2.2926E-05  0.2887
   1.4691E-02   1.5048E-02   4.1033E-05  0.2132
   1.5048E-02   1.5414E-02   4.5521E-05  0.2000
   1.5414E-02   1.5789E-02   3.3774E-05  0.2294
   1.5789E-02   1.6174E-02   4.6855E-05  0.1925
   1.6174E-02   1.6567E-02   3.5577E-05  0.2182
   1.6567E-02   1.6970E-02   4.3001E-05  0.1961
   1.6970E-02   1.7383E-02   2.9063E-05  0.2357
   1.7383E-02   1.7806E-02   2.8373E-05  0.2357
   1.7806E-02   1.8239E-02   4.0009E-05  0.1961
   1.8239E-02   1.8683E-02   2.8543E-05  0.2294
   1.8683E-02   1.9138E-02   3.8131E-05  0.1961
   1.9138E-02   1.9603E-02   4.7248E-05  0.1741
   1.9603E-02   2.0080E-02   4.8921E-05  0.1690
   2.0080E-02   2.0569E-02   4.2301E-05  0.1796
   2.0569E-02   2.1069E-02   4.1296E-05  0.1796
   2.1069E-02   2.1582E-02   3.6414E-05  0.1890
   2.1582E-02   2.2107E-02   3.9357E-05  0.1796
   2.2107E-02   2.2645E-02   3.3465E-05  0.1925
   2.2645E-02   2.3196E-02   4.1140E-05  0.1715
   2.3196E-02   2.3760E-02   4.6069E-05  0.1601
   2.3760E-02   2.4338E-02   3.4596E-05  0.1826
   2.4338E-02   2.4930E-02   5.0661E-05  0.1491
   2.4930E-02   2.5537E-02   3.2972E-05  0.1826
   2.5537E-02   2.6158E-02   3.9700E-05  0.1644
   2.6158E-02   2.6795E-02   3.9804E-05  0.1622
   2.6795E-02   2.7447E-02   3.5791E-05  0.1690
   2.7447E-02   2.8114E-02   4.3925E-05  0.1508
   2.8114E-02   2.8799E-02   3.9958E-05  0.1562
   2.8799E-02   2.9499E-02   3.9009E-05  0.1562
   2.9499E-02   3.0217E-02   4.8300E-05  0.1387
   3.0217E-02   3.0952E-02   4.0805E-05  0.1491
   3.0952E-02   3.1705E-02   4.7803E-05  0.1361
   3.1705E-02   3.2477E-02   4.4939E-05  0.1387
   3.2477E-02   3.3267E-02   3.3747E-05  0.1581
   3.3267E-02   3.4076E-02   4.1182E-05  0.1414
   3.4076E-02   3.4905E-02   3.4576E-05  0.1525
   3.4905E-02   3.5755E-02   5.0239E-05  0.1250
   3.5755E-02   3.6625E-02   3.6018E-05  0.1459
   3.6625E-02   3.7516E-02   4.3392E-05  0.1313
   3.7516E-02   3.8428E-02   3.3597E-05  0.1474
   3.8428E-02   3.9363E-02   4.4920E-05  0.1260
   3.9363E-02   4.0321E-02   4.8030E-05  0.1204
   4.0321E-02   4.1302E-02   3.9414E-05  0.1313
   4.1302E-02   4.2307E-02   4.3121E-05  0.1240
   4.2307E-02   4.3337E-02   3.8859E-05  0.1291
   4.3337E-02   4.4391E-02   5.3742E-05  0.1085
   4.4391E-02   4.5471E-02   5.1231E-05  0.1098
   4.5471E-02   4.6577E-02   4.5796E-05  0.1147
   4.6577E-02   4.7711E-02   5.1768E-05  0.1066
   4.7711E-02   4.8871E-02   4.0201E-05  0.1195
   4.8871E-02   5.0061E-02   4.9898E-05  0.1060
   5.0061E-02   5.1279E-02   4.2145E-05  0.1140
   5.1279E-02   5.2526E-02   5.1297E-05  0.1021
   5.2526E-02   5.3804E-02   5.2165E-05  0.1000
   5.3804E-02   5.5113E-02   4.5833E-05  0.1054
   5.5113E-02   5.6454E-02   5.4190E-05  0.0958
   5.6454E-02   5.7828E-02   5.3389E-05  0.0953
   5.7828E-02   5.9235E-02   4.8804E-05  0.0985
   5.9235E-02   6.0676E-02   5.5508E-05  0.0913
   6.0676E-02   6.2152E-02   6.2318E-05  0.0851
   6.2152E-02   6.3665E-02   5.5989E-05  0.0887
   6.3665E-02   6.5214E-02   5.3798E-05  0.0894
   6.5214E-02   6.6800E-02   5.7142E-05  0.0857
   6.6800E-02   6.8426E-02   5.6195E-05  0.0854
   6.8426E-02   7.0090E-02   5.2057E-05  0.0877
   7.0090E-02   7.1796E-02   6.2939E-05  0.0788
   7.1796E-02   7.3543E-02   5.9917E-05  0.0798
   7.3543E-02   7.5332E-02   5.5886E-05  0.0816
   7.5332E-02   7.7165E-02   6.2197E-05  0.0765
   7.7165E-02   7.9042E-02   6.1430E-05  0.0760
   7.9042E-02   8.0965E-02   6.7597E-05  0.0716
   8.0965E-02   8.2935E-02   6.9037E-05  0.0700
   8.2935E-02   8.4953E-02   7.0040E-05  0.0687
   8.4953E-02   8.7020E-02   5.9991E-05  0.0733
   8.7020E-02   8.9138E-02   6.8327E-05  0.0679
   8.9138E-02   9.1306E-02   6.0249E-05  0.0714
   9.1306E-02   9.3528E-02   6.1819E-05  0.0697
   9.3528E-02   9.5804E-02   6.7381E-05  0.0659
   9.5804E-02   9.8134E-02   6.4065E-05  0.0668
   9.8134E-02   1.0052E-01   6.4777E-05  0.0657
   1.0052E-01   1.0297E-01   7.5777E-05  0.0600
   1.0297E-01   1.0547E-01   6.7590E-05  0.0627
   1.0547E-01   1.0804E-01   7.2479E-05  0.0599
   1.0804E-01   1.1067E-01   6.7968E-05  0.0611
   1.1067E-01   1.1336E-01   7.3781E-05  0.0579
   1.1336E-01   1.1612E-01   7.6621E-05  0.0562
   1.1612E-01   1.1894E-01   7.2442E-05  0.0571
   1.1894E-01   1.2184E-01   7.1412E-05  0.0568
   1.2184E-01   1.2480E-01   7.3539E-05  0.0553
   1.2480E-01   1.2784E-01   7.7061E-05  0.0535
   1.2784E-01   1.3095E-01   7.0515E-05  0.0551
   1.3095E-01   1.3414E-01   7.8466E-05  0.0516
   1.3414E-01   1.3740E-01   8.0279E-05  0.0504
   1.3740E-01   1.4074E-01   8.2560E-05  0.0491
   1.4074E-01   1.4417E-01   8.0793E-05  0.0491
   1.4417E-01   1.4767E-01   7.5453E-05  0.0502
   1.4767E-01   1.5127E-01   7.9784E-05  0.0482
   1.5127E-01   1.5495E-01   8.3685E-05  0.0465
   1.5495E-01   1.5872E-01   8.1697E-05  0.0465
   1.5872E-01   1.6258E-01   8.1138E-05  0.0461
   1.6258E-01   1.6654E-01   8.7469E-05  0.0439
   1.6654E-01   1.7059E-01   8.9998E-05  0.0428
   1.7059E-01   1.7474E-01   8.4648E-05  0.0436
   1.7474E-01   1.7899E-01   8.8282E-05  0.0421
   1.7899E-01   1.8334E-01   9.6136E-05  0.0399
   1.8334E-01   1.8781E-01   8.3839E-05  0.0422
   1.8781E-01   1.9237E-01   8.7830E-05  0.0408
   1.9237E-01   1.9706E-01   9.3435E-05  0.0390
   1.9706E-01   2.0185E-01   9.0937E-05  0.0391
   2.0185E-01   2.0676E-01   8.7284E-05  0.0394
   2.0676E-01   2.1179E-01   9.7270E-05  0.0369
   2.1179E-01   2.1694E-01   9.9876E-05  0.0360
   2.1694E-01   2.2222E-01   9.4220E-05  0.0366
   2.2222E-01   2.2763E-01   9.3708E-05  0.0363
   2.2763E-01   2.3317E-01   9.7380E-05  0.0352
   2.3317E-01   2.3884E-01   9.5067E-05  0.0352
   2.3884E-01   2.4465E-01   9.6824E-05  0.0344
   2.4465E-01   2.5061E-01   1.0505E-04  0.0327
   2.5061E-01   2.5670E-01   1.0026E-04  0.0330
   2.5670E-01   2.6295E-01   1.1037E-04  0.0311
   2.6295E-01   2.6935E-01   1.0733E-04  0.0312
   2.6935E-01   2.7590E-01   1.0712E-04  0.0308
   2.7590E-01   2.8261E-01   1.0467E-04  0.0308
   2.8261E-01   2.8949E-01   1.0578E-04  0.0303
   2.8949E-01   2.9653E-01   1.0430E-04  0.0302
   2.9653E-01   3.0375E-01   1.1042E-04  0.0289
   3.0375E-01   3.1114E-01   1.0653E-04  0.0291
   3.1114E-01   3.1871E-01   1.1034E-04  0.0283
   3.1871E-01   3.2646E-01   1.0824E-04  0.0282
   3.2646E-01   3.3441E-01   1.1633E-04  0.0269
   3.3441E-01   3.4254E-01   1.1340E-04  0.0269
   3.4254E-01   3.5088E-01   1.1431E-04  0.0265
   3.5088E-01   3.5941E-01   1.0667E-04  0.0271
   3.5941E-01   3.6816E-01   1.1001E-04  0.0263
   3.6816E-01   3.7712E-01   1.1290E-04  0.0257
   3.7712E-01   3.8629E-01   1.1073E-04  0.0256
   3.8629E-01   3.9569E-01   1.1122E-04  0.0253
   3.9569E-01   4.0532E-01   1.1045E-04  0.0250
   4.0532E-01   4.1518E-01   1.0992E-04  0.0248
   4.1518E-01   4.2528E-01   1.1556E-04  0.0239
   4.2528E-01   4.3563E-01   1.1513E-04  0.0237
   4.3563E-01   4.4623E-01   1.1284E-04  0.0236
   4.4623E-01   4.5708E-01   1.1292E-04  0.0233
   4.5708E-01   4.6821E-01   1.1468E-04  0.0229
   4.6821E-01   4.7960E-01   1.0961E-04  0.0231
   4.7960E-01   4.9127E-01   1.1649E-04  0.0221
   4.9127E-01   5.0322E-01   1.1205E-04  0.0223
   5.0322E-01   5.1546E-01   1.1571E-04  0.0217
   5.1546E-01   5.2800E-01   1.1572E-04  0.0214
   5.2800E-01   5.4085E-01   1.1686E-04  0.0211
   5.4085E-01   5.5401E-01   1.1627E-04  0.0209
   5.5401E-01   5.6749E-01   1.1583E-04  0.0207
   5.6749E-01   5.8130E-01   1.1540E-04  0.0205
   5.8130E-01   5.9544E-01   1.1327E-04  0.0204
   5.9544E-01   6.0993E-01   1.1578E-04  0.0200
   6.0993E-01   6.2477E-01   1.1280E-04  0.0200
   6.2477E-01   6.3997E-01   1.1736E-04  0.0193
   6.3997E-01   6.5554E-01   1.1080E-04  0.0197
   6.5554E-01   6.7149E-01   1.0989E-04  0.0195
   6.7149E-01   6.8783E-01   1.1079E-04  0.0192
   6.8783E-01   7.0456E-01   1.0995E-04  0.0190
   7.0456E-01   7.2171E-01   1.0982E-04  0.0189
   7.2171E-01   7.3927E-01   1.0752E-04  0.0188
   7.3927E-01   7.5725E-01   1.0819E-04  0.0185
   7.5725E-01   7.7568E-01   1.0566E-04  0.0185
   7.7568E-01   7.9455E-01   1.0827E-04  0.0181
   7.9455E-01   8.1388E-01   1.0677E-04  0.0180
   8.1388E-01   8.3368E-01   1.0776E-04  0.0177
   8.3368E-01   8.5397E-01   1.0356E-04  0.0178
   8.5397E-01   8.7475E-01   1.0168E-04  0.0178
   8.7475E-01   8.9603E-01   1.0268E-04  0.0175
   8.9603E-01   9.1783E-01   9.8741E-05  0.0176
   9.1783E-01   9.4016E-01   9.8754E-05  0.0174
   9.4016E-01   9.6304E-01   9.5447E-05  0.0175
   9.6304E-01   9.8647E-01   9.1501E-05  0.0177
   9.8647E-01   1.0105E+00   8.9994E-05  0.0176
   1.0105E+00   1.0351E+00   8.7260E-05  0.0177
   1.0351E+00   1.0602E+00   8.4049E-05  0.0178
   1.0602E+00   1.0860E+00   8.5696E-05  0.0174
   1.0860E+00   1.1125E+00   8.7016E-05  0.0170
   1.1125E+00   1.1395E+00   8.3496E-05  0.0172
   1.1395E+00   1.1673E+00   7.9998E-05  0.0174
   1.1673E+00   1.1957E+00   7.9107E-05  0.0172
   1.1957E+00   1.2247E+00   7.6724E-05  0.0173
   1.2247E+00   1.2545E+00   7.4857E-05  0.0173
   1.2545E+00   1.2851E+00   7.2315E-05  0.0174
   1.2851E+00   1.3163E+00   7.1599E-05  0.0173
   1.3163E+00   1.3484E+00   6.8691E-05  0.0174
   1.3484E+00   1.3812E+00   6.6450E-05  0.0175
   1.3812E+00   1.4148E+00   6.3046E-05  0.0178
   1.4148E+00   1.4492E+00   6.1936E-05  0.0177
   1.4492E+00   1.4845E+00   6.0975E-05  0.0176
   1.4845E+00   1.5206E+00   5.7958E-05  0.0179
   1.5206E+00   1.5576E+00   5.7699E-05  0.0177
   1.5576E+00   1.5955E+00   5.6363E-05  0.0177
   1.5955E+00   1.6343E+00   5.1384E-05  0.0183
   1.6343E+00   1.6741E+00   4.9979E-05  0.0183
   1.6741E+00   1.7148E+00   4.7400E-05  0.0186
   1.7148E+00   1.7565E+00   4.7441E-05  0.0184
   1.7565E+00   1.7992E+00   4.5909E-05  0.0185
   1.7992E+00   1.8430E+00   4.4331E-05  0.0186
   1.8430E+00   1.8879E+00   4.1345E-05  0.0190
   1.8879E+00   1.9338E+00   4.0987E-05  0.0188
   1.9338E+00   1.9808E+00   3.8101E-05  0.0193
   1.9808E+00   2.0290E+00   3.5480E-05  0.0198
   2.0290E+00   2.0784E+00   3.4597E-05  0.0198
   2.0784E+00   2.1290E+00   3.3749E-05  0.0198
   2.1290E+00   2.1808E+00   3.1442E-05  0.0203
   2.1808E+00   2.2338E+00   3.0657E-05  0.0202
   2.2338E+00   2.2882E+00   2.8862E-05  0.0207
   2.2882E+00   2.3439E+00   2.7601E-05  0.0208
   2.3439E+00   2.4009E+00   2.6455E-05  0.0210
   2.4009E+00   2.4593E+00   2.5644E-05  0.0211
   2.4593E+00   2.5191E+00   2.3531E-05  0.0218
   2.5191E+00   2.5804E+00   2.2471E-05  0.0220
   2.5804E+00   2.6432E+00   2.2596E-05  0.0217
   2.6432E+00   2.7075E+00   1.9385E-05  0.0231
   2.7075E+00   2.7734E+00   1.9339E-05  0.0229
   2.7734E+00   2.8409E+00   1.9127E-05  0.0227
   2.8409E+00   2.9100E+00   1.7641E-05  0.0234
   2.9100E+00   2.9808E+00   1.6826E-05  0.0237
   2.9808E+00   3.0533E+00   1.6426E-05  0.0237
   3.0533E+00   3.1276E+00   1.5390E-05  0.0241
   3.1276E+00   3.2037E+00   1.5068E-05  0.0241
   3.2037E+00   3.2817E+00   1.4377E-05  0.0244
   3.2817E+00   3.3615E+00   1.2875E-05  0.0255
   3.3615E+00   3.4433E+00   1.2936E-05  0.0251
   3.4433E+00   3.5271E+00   1.2334E-05  0.0254
   3.5271E+00   3.6129E+00   1.1754E-05  0.0257
   3.6129E+00   3.7008E+00   1.1148E-05  0.0261
   3.7008E+00   3.7908E+00   1.1009E-05  0.0259
   3.7908E+00   3.8831E+00   1.0372E-05  0.0264
   3.8831E+00   3.9776E+00   9.8647E-06  0.0267
   3.9776E+00   4.0743E+00   8.9484E-06  0.0277
   4.0743E+00   4.1735E+00   8.9981E-06  0.0273
   4.1735E+00   4.2750E+00   8.4102E-06  0.0279
   4.2750E+00   4.3790E+00   8.3194E-06  0.0278
   4.3790E+00   4.4856E+00   7.9215E-06  0.0281
   4.4856E+00   4.5947E+00   8.1548E-06  0.0274
   4.5947E+00   4.7065E+00   7.6749E-06  0.0279
   4.7065E+00   4.8210E+00   7.5159E-06  0.0278
   4.8210E+00   4.9383E+00   7.3089E-06  0.0279
   4.9383E+00   5.0585E+00   7.0022E-06  0.0281
   5.0585E+00   5.1815E+00   6.8575E-06  0.0281
   5.1815E+00   5.3076E+00   6.3192E-06  0.0289
   5.3076E+00   5.4368E+00   6.1329E-06  0.0290
   5.4368E+00   5.5690E+00   5.8058E-06  0.0295
   5.5690E+00   5.7045E+00   5.9779E-06  0.0287
   5.7045E+00   5.8433E+00   5.7014E-06  0.0290
   5.8433E+00   5.9855E+00   5.4300E-06  0.0294
   5.9855E+00   6.1311E+00   5.4658E-06  0.0289
   6.1311E+00   6.2803E+00   5.5371E-06  0.0284
   6.2803E+00   6.4331E+00   4.7512E-06  0.0303
   6.4331E+00   6.5896E+00   4.8129E-06  0.0297
   6.5896E+00   6.7500E+00   4.5323E-06  0.0303
   6.7500E+00   6.9142E+00   4.2501E-06  0.0309
   6.9142E+00   7.0824E+00   4.1412E-06  0.0309
   7.0824E+00   7.2548E+00   4.1860E-06  0.0304
   7.2548E+00   7.4313E+00   4.0714E-06  0.0305
   7.4313E+00   7.6121E+00   4.1075E-06  0.0300
   7.6121E+00   7.7973E+00   3.7975E-06  0.0308
   7.7973E+00   7.9870E+00   3.6581E-06  0.0310
   7.9870E+00   8.1813E+00   3.3757E-06  0.0319
   8.1813E+00   8.3804E+00   3.3424E-06  0.0317
   8.3804E+00   8.5843E+00   3.2630E-06  0.0317
   8.5843E+00   8.7931E+00   3.1376E-06  0.0319
   8.7931E+00   9.0071E+00   3.0226E-06  0.0321
   9.0071E+00   9.2262E+00   2.8109E-06  0.0329
   9.2262E+00   9.4507E+00   2.7708E-06  0.0327
   9.4507E+00   9.6807E+00   2.6238E-06  0.0332
   9.6807E+00   9.9162E+00   2.3747E-06  0.0345
   9.9162E+00   1.0157E+01   2.2851E-06  0.0348
   1.0157E+01   1.0405E+01   2.1553E-06  0.0354
   1.0405E+01   1.0658E+01   2.1331E-06  0.0351
   1.0658E+01   1.0917E+01   1.9385E-06  0.0364
   1.0917E+01   1.1183E+01   1.9476E-06  0.0359
   1.1183E+01   1.1455E+01   1.7274E-06  0.0377
   1.1455E+01   1.1733E+01   1.6290E-06  0.0383
   1.1733E+01   1.2019E+01   1.5669E-06  0.0386
   1.2019E+01   1.2311E+01   1.4226E-06  0.0400
   1.2311E+01   1.2611E+01   1.2730E-06  0.0418
   1.2611E+01   1.2918E+01   1.2102E-06  0.0424
   1.2918E+01   1.3232E+01   1.1009E-06  0.0439
   1.3232E+01   1.3554E+01   1.0685E-06  0.0440
   1.3554E+01   1.3884E+01   9.6024E-07  0.0459
   1.3884E+01   1.4222E+01   8.5849E-07  0.0479
   1.4222E+01   1.4568E+01   9.0745E-07  0.0461
   1.4568E+01   1.4922E+01   7.3731E-07  0.0505
   1.4922E+01   1.5285E+01   6.9042E-07  0.0516
   1.5285E+01   1.5657E+01   5.3957E-07  0.0576
   1.5657E+01   1.6038E+01   5.7051E-07  0.0554
   1.6038E+01   1.6428E+01   4.3053E-07  0.0630
   1.6428E+01   1.6828E+01   4.7368E-07  0.0593
   1.6828E+01   1.7237E+01   3.4845E-07  0.0684
   1.7237E+01   1.7657E+01   2.9566E-07  0.0733
   1.7657E+01   1.8086E+01   2.5139E-07  0.0786
   1.8086E+01   1.8526E+01   2.2118E-07  0.0828
   1.8526E+01   1.8977E+01   1.8635E-07  0.0891
   1.8977E+01   1.9439E+01   1.7326E-07  0.0913
   1.9439E+01   1.9912E+01   1.2122E-07  0.1078
   1.9912E+01   2.0396E+01   7.1556E-08  0.1387
   2.0396E+01   2.0893E+01   5.7766E-08  0.1525
   2.0893E+01   2.1401E+01   5.1148E-08  0.1601
   2.1401E+01   2.1922E+01   2.3046E-08  0.2357
   2.1922E+01   2.2455E+01   1.1249E-08  0.3333
   2.2455E+01   2.3001E+01   1.2202E-09  1.0000
   2.3001E+01   2.3561E+01   0.0000E+00  0.0000
   2.3561E+01   2.4134E+01   0.0000E+00  0.0000
   2.4134E+01   2.4721E+01   0.0000E+00  0.0000
   2.4721E+01   2.5323E+01   0.0000E+00  0.0000
   2.5323E+01   2.5939E+01   0.0000E+00  0.0000
   2.5939E+01   2.6570E+01   0.0000E+00  0.0000
   2.6570E+01   2.7217E+01   0.0000E+00  0.0000
   2.7217E+01   2.7879E+01   0.0000E+00  0.0000
   2.7879E+01   2.8557E+01   0.0000E+00  0.0000
   2.8557E+01   2.9252E+01   0.0000E+00  0.0000
   2.9252E+01   2.9964E+01   0.0000E+00  0.0000
   2.9964E+01   3.0693E+01   0.0000E+00  0.0000
   3.0693E+01   3.1440E+01   0.0000E+00  0.0000
   3.1440E+01   3.2205E+01   0.0000E+00  0.0000
   3.2205E+01   3.2988E+01   0.0000E+00  0.0000
   3.2988E+01   3.3791E+01   0.0000E+00  0.0000
   3.3791E+01   3.4613E+01   0.0000E+00  0.0000
   3.4613E+01   3.5455E+01   0.0000E+00  0.0000
   3.5455E+01   3.6318E+01   0.0000E+00  0.0000
   3.6318E+01   3.7201E+01   0.0000E+00  0.0000
   3.7201E+01   3.8106E+01   0.0000E+00  0.0000
   3.8106E+01   3.9034E+01   0.0000E+00  0.0000
   3.9034E+01   3.9983E+01   0.0000E+00  0.0000
   3.9983E+01   4.0956E+01   0.0000E+00  0.0000
   4.0956E+01   4.1953E+01   0.0000E+00  0.0000
   4.1953E+01   4.2973E+01   0.0000E+00  0.0000
   4.2973E+01   4.4019E+01   0.0000E+00  0.0000
   4.4019E+01   4.5090E+01   0.0000E+00  0.0000
   4.5090E+01   4.6187E+01   0.0000E+00  0.0000
   4.6187E+01   4.7311E+01   0.0000E+00  0.0000
   4.7311E+01   4.8462E+01   0.0000E+00  0.0000
   4.8462E+01   4.9641E+01   0.0000E+00  0.0000
   4.9641E+01   5.0849E+01   0.0000E+00  0.0000
   5.0849E+01   5.2086E+01   0.0000E+00  0.0000
   5.2086E+01   5.3353E+01   0.0000E+00  0.0000
   5.3353E+01   5.4651E+01   0.0000E+00  0.0000
   5.4651E+01   5.5981E+01   0.0000E+00  0.0000
   5.5981E+01   5.7343E+01   0.0000E+00  0.0000
   5.7343E+01   5.8738E+01   0.0000E+00  0.0000
   5.8738E+01   6.0168E+01   0.0000E+00  0.0000
   6.0168E+01   6.1632E+01   0.0000E+00  0.0000
   6.1632E+01   6.3131E+01   0.0000E+00  0.0000
   6.3131E+01   6.4667E+01   0.0000E+00  0.0000
   6.4667E+01   6.6240E+01   0.0000E+00  0.0000
   6.6240E+01   6.7852E+01   0.0000E+00  0.0000
   6.7852E+01   6.9503E+01   0.0000E+00  0.0000
   6.9503E+01   7.1194E+01   0.0000E+00  0.0000
   7.1194E+01   7.2926E+01   0.0000E+00  0.0000
   7.2926E+01   7.4701E+01   0.0000E+00  0.0000
   7.4701E+01   7.6518E+01   0.0000E+00  0.0000
   7.6518E+01   7.8380E+01   0.0000E+00  0.0000
   7.8380E+01   8.0287E+01   0.0000E+00  0.0000
   8.0287E+01   8.2240E+01   0.0000E+00  0.0000
   8.2240E+01   8.4241E+01   0.0000E+00  0.0000
   8.4241E+01   8.6291E+01   0.0000E+00  0.0000
   8.6291E+01   8.8391E+01   0.0000E+00  0.0000
   8.8391E+01   9.0541E+01   0.0000E+00  0.0000
   9.0541E+01   9.2744E+01   0.0000E+00  0.0000
   9.2744E+01   9.5001E+01   0.0000E+00  0.0000
   9.5001E+01   9.7312E+01   0.0000E+00  0.0000
   9.7312E+01   9.9680E+01   0.0000E+00  0.0000
   9.9680E+01   1.0211E+02   0.0000E+00  0.0000
   1.0211E+02   1.0459E+02   0.0000E+00  0.0000
   1.0459E+02   1.0713E+02   0.0000E+00  0.0000
   1.0713E+02   1.0974E+02   0.0000E+00  0.0000
   1.0974E+02   1.1241E+02   0.0000E+00  0.0000
   1.1241E+02   1.1515E+02   0.0000E+00  0.0000
   1.1515E+02   1.1795E+02   0.0000E+00  0.0000
   1.1795E+02   1.2082E+02   0.0000E+00  0.0000
   1.2082E+02   1.2376E+02   0.0000E+00  0.0000
   1.2376E+02   1.2677E+02   0.0000E+00  0.0000
   1.2677E+02   1.2985E+02   0.0000E+00  0.0000
   1.2985E+02   1.3301E+02   0.0000E+00  0.0000
   1.3301E+02   1.3625E+02   0.0000E+00  0.0000
   1.3625E+02   1.3956E+02   0.0000E+00  0.0000
   1.3956E+02   1.4296E+02   0.0000E+00  0.0000
   1.4296E+02   1.4644E+02   0.0000E+00  0.0000
   1.4644E+02   1.5000E+02   0.0000E+00  0.0000

#   sum over                 1.5578E-06
'no. =    1   reg = 108 - 208'
msuc: {\huge [t-cross] in region mesh}
msdr: {\it plotted by \ANGEL \version}
msdl: {\it calculated by \PHITS  3.26}
wt: s(0.7)
\vspace{-3}
  region surface crossing
  area  &=&   1.0000E+00 [cm^2]
e:
 
# Information for Restart Calculation
# This calculation was newly started
# istdev =  2 # 1:Batch variance, 2:History variance
# resc2  = 1.50000000000000000E+09 # Total source weight or Total source weight / maxcas
# resc3  = 1.50000000000000000E+09 # Total history number or Total batch number
# maxcas =   500000000 # History / Batch, only used for istdev=1
# bitrseed = 0000010101110101110110100110011001100101000001100111100100101101 # bit data of rseed
