[ T-Cross ]
    title = [t-cross] in region mesh
     mesh =  reg            # mesh type is region-wise
      reg =    1            # number of crossing regions
      non     r-from    r-to       area
      1       112       212        1.000000    
   e-type =    3            # e-mesh is log given by emin, emax and ne
     emin =  1.0000000E-02  # minimum value of e-mesh points
     emax =   150.0000      # maximum value of e-mesh points
#    edel =  2.4039514E-02  # mesh width of e-mesh points
       ne =    400          # number of e-mesh points
#    data = ( e(i), i = 1, ne + 1 )
#           1.00000E-02  1.02433E-02  1.04925E-02  1.07478E-02  1.10093E-02
#           1.12772E-02  1.15516E-02  1.18326E-02  1.21205E-02  1.24154E-02
#           1.27175E-02  1.30269E-02  1.33439E-02  1.36686E-02  1.40011E-02
#           1.43418E-02  1.46907E-02  1.50482E-02  1.54143E-02  1.57894E-02
#           1.61735E-02  1.65670E-02  1.69701E-02  1.73830E-02  1.78060E-02
#           1.82392E-02  1.86830E-02  1.91375E-02  1.96032E-02  2.00801E-02
#           2.05687E-02  2.10692E-02  2.15818E-02  2.21069E-02  2.26448E-02
#           2.31957E-02  2.37601E-02  2.43382E-02  2.49304E-02  2.55369E-02
#           2.61583E-02  2.67947E-02  2.74467E-02  2.81145E-02  2.87985E-02
#           2.94992E-02  3.02169E-02  3.09521E-02  3.17052E-02  3.24766E-02
#           3.32668E-02  3.40762E-02  3.49053E-02  3.57546E-02  3.66246E-02
#           3.75157E-02  3.84284E-02  3.93634E-02  4.03212E-02  4.13022E-02
#           4.23071E-02  4.33365E-02  4.43909E-02  4.54710E-02  4.65773E-02
#           4.77106E-02  4.88714E-02  5.00605E-02  5.12785E-02  5.25262E-02
#           5.38042E-02  5.51133E-02  5.64542E-02  5.78278E-02  5.92348E-02
#           6.06760E-02  6.21523E-02  6.36645E-02  6.52135E-02  6.68002E-02
#           6.84255E-02  7.00904E-02  7.17957E-02  7.35426E-02  7.53319E-02
#           7.71648E-02  7.90423E-02  8.09655E-02  8.29354E-02  8.49533E-02
#           8.70203E-02  8.91376E-02  9.13064E-02  9.35279E-02  9.58035E-02
#           9.81345E-02  1.00522E-01  1.02968E-01  1.05473E-01  1.08040E-01
#           1.10668E-01  1.13361E-01  1.16119E-01  1.18944E-01  1.21838E-01
#           1.24803E-01  1.27839E-01  1.30950E-01  1.34136E-01  1.37399E-01
#           1.40742E-01  1.44167E-01  1.47675E-01  1.51268E-01  1.54948E-01
#           1.58718E-01  1.62580E-01  1.66535E-01  1.70587E-01  1.74738E-01
#           1.78989E-01  1.83344E-01  1.87805E-01  1.92375E-01  1.97055E-01
#           2.01850E-01  2.06761E-01  2.11792E-01  2.16945E-01  2.22223E-01
#           2.27630E-01  2.33169E-01  2.38842E-01  2.44653E-01  2.50605E-01
#           2.56703E-01  2.62949E-01  2.69346E-01  2.75900E-01  2.82613E-01
#           2.89489E-01  2.96532E-01  3.03747E-01  3.11138E-01  3.18708E-01
#           3.26462E-01  3.34405E-01  3.42542E-01  3.50876E-01  3.59413E-01
#           3.68158E-01  3.77116E-01  3.86291E-01  3.95690E-01  4.05317E-01
#           4.15179E-01  4.25281E-01  4.35628E-01  4.46227E-01  4.57084E-01
#           4.68205E-01  4.79597E-01  4.91266E-01  5.03219E-01  5.15463E-01
#           5.28005E-01  5.40851E-01  5.54011E-01  5.67490E-01  5.81298E-01
#           5.95441E-01  6.09929E-01  6.24769E-01  6.39970E-01  6.55541E-01
#           6.71491E-01  6.87828E-01  7.04564E-01  7.21706E-01  7.39266E-01
#           7.57253E-01  7.75678E-01  7.94551E-01  8.13883E-01  8.33685E-01
#           8.53969E-01  8.74747E-01  8.96030E-01  9.17831E-01  9.40163E-01
#           9.63038E-01  9.86469E-01  1.01047E+00  1.03506E+00  1.06024E+00
#           1.08604E+00  1.11246E+00  1.13953E+00  1.16725E+00  1.19565E+00
#           1.22474E+00  1.25454E+00  1.28507E+00  1.31633E+00  1.34836E+00
#           1.38117E+00  1.41477E+00  1.44920E+00  1.48446E+00  1.52057E+00
#           1.55757E+00  1.59547E+00  1.63429E+00  1.67405E+00  1.71478E+00
#           1.75650E+00  1.79924E+00  1.84302E+00  1.88786E+00  1.93379E+00
#           1.98084E+00  2.02904E+00  2.07841E+00  2.12898E+00  2.18078E+00
#           2.23384E+00  2.28819E+00  2.34386E+00  2.40089E+00  2.45930E+00
#           2.51914E+00  2.58043E+00  2.64322E+00  2.70753E+00  2.77341E+00
#           2.84088E+00  2.91001E+00  2.98081E+00  3.05333E+00  3.12762E+00
#           3.20372E+00  3.28167E+00  3.36152E+00  3.44330E+00  3.52708E+00
#           3.61290E+00  3.70080E+00  3.79085E+00  3.88308E+00  3.97756E+00
#           4.07434E+00  4.17347E+00  4.27501E+00  4.37903E+00  4.48557E+00
#           4.59471E+00  4.70650E+00  4.82102E+00  4.93832E+00  5.05847E+00
#           5.18155E+00  5.30762E+00  5.43676E+00  5.56904E+00  5.70453E+00
#           5.84333E+00  5.98550E+00  6.13114E+00  6.28031E+00  6.43312E+00
#           6.58964E+00  6.74997E+00  6.91420E+00  7.08243E+00  7.25475E+00
#           7.43126E+00  7.61207E+00  7.79728E+00  7.98700E+00  8.18133E+00
#           8.38038E+00  8.58428E+00  8.79315E+00  9.00709E+00  9.22624E+00
#           9.45072E+00  9.68067E+00  9.91620E+00  1.01575E+01  1.04046E+01
#           1.06578E+01  1.09171E+01  1.11827E+01  1.14548E+01  1.17335E+01
#           1.20190E+01  1.23114E+01  1.26109E+01  1.29178E+01  1.32321E+01
#           1.35540E+01  1.38838E+01  1.42216E+01  1.45676E+01  1.49221E+01
#           1.52851E+01  1.56570E+01  1.60380E+01  1.64282E+01  1.68279E+01
#           1.72374E+01  1.76568E+01  1.80864E+01  1.85264E+01  1.89772E+01
#           1.94389E+01  1.99119E+01  2.03963E+01  2.08926E+01  2.14009E+01
#           2.19216E+01  2.24550E+01  2.30014E+01  2.35610E+01  2.41343E+01
#           2.47215E+01  2.53230E+01  2.59391E+01  2.65702E+01  2.72167E+01
#           2.78789E+01  2.85572E+01  2.92520E+01  2.99637E+01  3.06928E+01
#           3.14396E+01  3.22045E+01  3.29881E+01  3.37907E+01  3.46128E+01
#           3.54550E+01  3.63177E+01  3.72013E+01  3.81064E+01  3.90336E+01
#           3.99833E+01  4.09561E+01  4.19526E+01  4.29734E+01  4.40189E+01
#           4.50900E+01  4.61870E+01  4.73108E+01  4.84619E+01  4.96410E+01
#           5.08488E+01  5.20860E+01  5.33533E+01  5.46514E+01  5.59812E+01
#           5.73432E+01  5.87384E+01  6.01676E+01  6.16315E+01  6.31311E+01
#           6.46671E+01  6.62405E+01  6.78522E+01  6.95031E+01  7.11941E+01
#           7.29263E+01  7.47007E+01  7.65182E+01  7.83800E+01  8.02870E+01
#           8.22405E+01  8.42414E+01  8.62911E+01  8.83906E+01  9.05412E+01
#           9.27442E+01  9.50007E+01  9.73122E+01  9.96799E+01  1.02105E+02
#           1.04589E+02  1.07134E+02  1.09741E+02  1.12411E+02  1.15146E+02
#           1.17948E+02  1.20817E+02  1.23757E+02  1.26768E+02  1.29852E+02
#           1.33012E+02  1.36248E+02  1.39563E+02  1.42959E+02  1.46437E+02
#           1.50000E+02
     unit =    2            # unit is [1/cm^2/(MeV/n)/source]
     axis =  eng            # axis of output
     file = detector-13.out  # file name of output for the above axis
   output = f-curr          # surface crossing forward current spectrum
     part =  neutron  
# kf/name :  2112     
#    used :        main (  %)        temp (  %)       total (  %)
#  memory :         414 (  0)           0 (  0)         414 (  0)

#------------------------------------------------------------------------------
#newpage:
#   no. =    1   reg = 112 - 212

x: Energy [MeV/n]
y:  F-Curr [1/cm^2/(MeV/n)/source]         
p: xlog ylog afac(0.8) form(0.9)
h: n            x            y(neutron ),hh0l   n 
#  e-lower      e-upper      neutron     r.err 
   1.0000E-02   1.0243E-02   2.0276E-04  0.1162
   1.0243E-02   1.0493E-02   1.7655E-04  0.1231
   1.0493E-02   1.0748E-02   1.3660E-04  0.1373
   1.0748E-02   1.1009E-02   1.9155E-04  0.1153
   1.1009E-02   1.1277E-02   1.5928E-04  0.1250
   1.1277E-02   1.1552E-02   1.6816E-04  0.1196
   1.1552E-02   1.1833E-02   1.4744E-04  0.1267
   1.1833E-02   1.2121E-02   1.6331E-04  0.1187
   1.2121E-02   1.2415E-02   1.6538E-04  0.1168
   1.2415E-02   1.2718E-02   1.7987E-04  0.1106
   1.2718E-02   1.3027E-02   1.7883E-04  0.1098
   1.3027E-02   1.3344E-02   1.7353E-04  0.1099
   1.3344E-02   1.3669E-02   1.4784E-04  0.1179
   1.3669E-02   1.4001E-02   1.9244E-04  0.1021
   1.4001E-02   1.4342E-02   1.4873E-04  0.1147
   1.4342E-02   1.4691E-02   1.5857E-04  0.1098
   1.4691E-02   1.5048E-02   1.7686E-04  0.1024
   1.5048E-02   1.5414E-02   1.5659E-04  0.1078
   1.5414E-02   1.5789E-02   1.4043E-04  0.1125
   1.5789E-02   1.6174E-02   1.4403E-04  0.1098
   1.6174E-02   1.6567E-02   1.3553E-04  0.1118
   1.6567E-02   1.6970E-02   2.0012E-04  0.0909
   1.6970E-02   1.7383E-02   1.6826E-04  0.0979
   1.7383E-02   1.7806E-02   1.9073E-04  0.0909
   1.7806E-02   1.8239E-02   1.8337E-04  0.0916
   1.8239E-02   1.8683E-02   1.5774E-04  0.0976
   1.8683E-02   1.9138E-02   1.3493E-04  0.1043
   1.9138E-02   1.9603E-02   1.8040E-04  0.0891
   1.9603E-02   2.0080E-02   1.3838E-04  0.1005
   2.0080E-02   2.0569E-02   1.5829E-04  0.0928
   2.0569E-02   2.1069E-02   1.5852E-04  0.0917
   2.1069E-02   2.1582E-02   1.5541E-04  0.0914
   2.1582E-02   2.2107E-02   1.5045E-04  0.0918
   2.2107E-02   2.2645E-02   1.4894E-04  0.0912
   2.2645E-02   2.3196E-02   1.6335E-04  0.0861
   2.3196E-02   2.3760E-02   1.6554E-04  0.0844
   2.3760E-02   2.4338E-02   1.6470E-04  0.0835
   2.4338E-02   2.4930E-02   1.4430E-04  0.0883
   2.4930E-02   2.5537E-02   1.6508E-04  0.0814
   2.5537E-02   2.6158E-02   1.7060E-04  0.0793
   2.6158E-02   2.6795E-02   1.5625E-04  0.0818
   2.6795E-02   2.7447E-02   1.4507E-04  0.0838
   2.7447E-02   2.8114E-02   1.3627E-04  0.0855
   2.8114E-02   2.8799E-02   1.5801E-04  0.0785
   2.8799E-02   2.9499E-02   1.4224E-04  0.0817
   2.9499E-02   3.0217E-02   1.6884E-04  0.0741
   3.0217E-02   3.0952E-02   1.4327E-04  0.0796
   3.0952E-02   3.1705E-02   1.4764E-04  0.0773
   3.1705E-02   3.2477E-02   1.4605E-04  0.0769
   3.2477E-02   3.3267E-02   1.3934E-04  0.0778
   3.3267E-02   3.4076E-02   1.5979E-04  0.0718
   3.4076E-02   3.4905E-02   1.3602E-04  0.0769
   3.4905E-02   3.5755E-02   1.4142E-04  0.0745
   3.5755E-02   3.6625E-02   1.3921E-04  0.0741
   3.6625E-02   3.7516E-02   1.4752E-04  0.0712
   3.7516E-02   3.8428E-02   1.4070E-04  0.0719
   3.8428E-02   3.9363E-02   1.3904E-04  0.0716
   3.9363E-02   4.0321E-02   1.4827E-04  0.0685
   4.0321E-02   4.1302E-02   1.4736E-04  0.0678
   4.1302E-02   4.2307E-02   1.4616E-04  0.0673
   4.2307E-02   4.3337E-02   1.4054E-04  0.0679
   4.3337E-02   4.4391E-02   1.3733E-04  0.0678
   4.4391E-02   4.5471E-02   1.4145E-04  0.0660
   4.5471E-02   4.6577E-02   1.2552E-04  0.0692
   4.6577E-02   4.7711E-02   1.3189E-04  0.0667
   4.7711E-02   4.8871E-02   1.2500E-04  0.0677
   4.8871E-02   5.0061E-02   1.3764E-04  0.0638
   5.0061E-02   5.1279E-02   1.3748E-04  0.0631
   5.1279E-02   5.2526E-02   1.2397E-04  0.0657
   5.2526E-02   5.3804E-02   1.1444E-04  0.0675
   5.3804E-02   5.5113E-02   1.4070E-04  0.0601
   5.5113E-02   5.6454E-02   1.2960E-04  0.0619
   5.6454E-02   5.7828E-02   1.1591E-04  0.0646
   5.7828E-02   5.9235E-02   1.2051E-04  0.0626
   5.9235E-02   6.0676E-02   1.3137E-04  0.0593
   6.0676E-02   6.2152E-02   1.3254E-04  0.0583
   6.2152E-02   6.3665E-02   1.1426E-04  0.0621
   6.3665E-02   6.5214E-02   1.2837E-04  0.0578
   6.5214E-02   6.6800E-02   1.1688E-04  0.0599
   6.6800E-02   6.8426E-02   1.2353E-04  0.0576
   6.8426E-02   7.0090E-02   1.1580E-04  0.0588
   7.0090E-02   7.1796E-02   1.1850E-04  0.0574
   7.1796E-02   7.3543E-02   1.2111E-04  0.0561
   7.3543E-02   7.5332E-02   1.2053E-04  0.0556
   7.5332E-02   7.7165E-02   1.1694E-04  0.0557
   7.7165E-02   7.9042E-02   1.0786E-04  0.0573
   7.9042E-02   8.0965E-02   1.1059E-04  0.0559
   8.0965E-02   8.2935E-02   1.2423E-04  0.0521
   8.2935E-02   8.4953E-02   1.0946E-04  0.0549
   8.4953E-02   8.7020E-02   9.5602E-05  0.0580
   8.7020E-02   8.9138E-02   9.2511E-05  0.0583
   8.9138E-02   9.1306E-02   9.9396E-05  0.0556
   9.1306E-02   9.3528E-02   9.7083E-05  0.0556
   9.3528E-02   9.5804E-02   1.0409E-04  0.0529
   9.5804E-02   9.8134E-02   9.9178E-05  0.0537
   9.8134E-02   1.0052E-01   9.9569E-05  0.0529
   1.0052E-01   1.0297E-01   9.5745E-05  0.0533
   1.0297E-01   1.0547E-01   1.0432E-04  0.0505
   1.0547E-01   1.0804E-01   9.2834E-05  0.0529
   1.0804E-01   1.1067E-01   9.9972E-05  0.0503
   1.1067E-01   1.1336E-01   9.9032E-05  0.0500
   1.1336E-01   1.1612E-01   9.2040E-05  0.0512
   1.1612E-01   1.1894E-01   9.2263E-05  0.0505
   1.1894E-01   1.2184E-01   8.9595E-05  0.0507
   1.2184E-01   1.2480E-01   9.3809E-05  0.0489
   1.2480E-01   1.2784E-01   9.1258E-05  0.0490
   1.2784E-01   1.3095E-01   8.2820E-05  0.0508
   1.3095E-01   1.3414E-01   9.0423E-05  0.0481
   1.3414E-01   1.3740E-01   9.3863E-05  0.0466
   1.3740E-01   1.4074E-01   8.7337E-05  0.0477
   1.4074E-01   1.4417E-01   8.4715E-05  0.0479
   1.4417E-01   1.4767E-01   8.0133E-05  0.0486
   1.4767E-01   1.5127E-01   7.9810E-05  0.0482
   1.5127E-01   1.5495E-01   8.4247E-05  0.0463
   1.5495E-01   1.5872E-01   7.3952E-05  0.0488
   1.5872E-01   1.6258E-01   7.6677E-05  0.0473
   1.6258E-01   1.6654E-01   6.9352E-05  0.0493
   1.6654E-01   1.7059E-01   7.0956E-05  0.0481
   1.7059E-01   1.7474E-01   7.1375E-05  0.0474
   1.7474E-01   1.7899E-01   6.8892E-05  0.0477
   1.7899E-01   1.8334E-01   6.8836E-05  0.0471
   1.8334E-01   1.8781E-01   6.5422E-05  0.0477
   1.8781E-01   1.9237E-01   6.4922E-05  0.0474
   1.9237E-01   1.9706E-01   6.4431E-05  0.0470
   1.9706E-01   2.0185E-01   6.4659E-05  0.0463
   2.0185E-01   2.0676E-01   6.3277E-05  0.0463
   2.0676E-01   2.1179E-01   6.3884E-05  0.0455
   2.1179E-01   2.1694E-01   7.0289E-05  0.0429
   2.1694E-01   2.2222E-01   7.2051E-05  0.0418
   2.2222E-01   2.2763E-01   6.7539E-05  0.0427
   2.2763E-01   2.3317E-01   7.0355E-05  0.0413
   2.3317E-01   2.3884E-01   7.5105E-05  0.0395
   2.3884E-01   2.4465E-01   7.4369E-05  0.0392
   2.4465E-01   2.5061E-01   7.6861E-05  0.0381
   2.5061E-01   2.5670E-01   7.2403E-05  0.0388
   2.5670E-01   2.6295E-01   8.0238E-05  0.0364
   2.6295E-01   2.6935E-01   7.5209E-05  0.0372
   2.6935E-01   2.7590E-01   8.9698E-05  0.0336
   2.7590E-01   2.8261E-01   8.3044E-05  0.0346
   2.8261E-01   2.8949E-01   8.7907E-05  0.0332
   2.8949E-01   2.9653E-01   8.5190E-05  0.0333
   2.9653E-01   3.0375E-01   9.1581E-05  0.0317
   3.0375E-01   3.1114E-01   9.4240E-05  0.0309
   3.1114E-01   3.1871E-01   8.8867E-05  0.0314
   3.1871E-01   3.2646E-01   9.1989E-05  0.0305
   3.2646E-01   3.3441E-01   1.0244E-04  0.0286
   3.3441E-01   3.4254E-01   9.7805E-05  0.0289
   3.4254E-01   3.5088E-01   1.0231E-04  0.0279
   3.5088E-01   3.5941E-01   1.0231E-04  0.0276
   3.5941E-01   3.6816E-01   1.0293E-04  0.0272
   3.6816E-01   3.7712E-01   1.0172E-04  0.0270
   3.7712E-01   3.8629E-01   1.0722E-04  0.0260
   3.8629E-01   3.9569E-01   1.0767E-04  0.0256
   3.9569E-01   4.0532E-01   1.0932E-04  0.0251
   4.0532E-01   4.1518E-01   1.1253E-04  0.0245
   4.1518E-01   4.2528E-01   1.1290E-04  0.0241
   4.2528E-01   4.3563E-01   1.1401E-04  0.0237
   4.3563E-01   4.4623E-01   1.1871E-04  0.0230
   4.4623E-01   4.5708E-01   1.1686E-04  0.0229
   4.5708E-01   4.6821E-01   1.1312E-04  0.0230
   4.6821E-01   4.7960E-01   1.2114E-04  0.0219
   4.7960E-01   4.9127E-01   1.1779E-04  0.0220
   4.9127E-01   5.0322E-01   1.2886E-04  0.0208
   5.0322E-01   5.1546E-01   1.3098E-04  0.0204
   5.1546E-01   5.2800E-01   1.2723E-04  0.0204
   5.2800E-01   5.4085E-01   1.2762E-04  0.0201
   5.4085E-01   5.5401E-01   1.2837E-04  0.0198
   5.5401E-01   5.6749E-01   1.3357E-04  0.0192
   5.6749E-01   5.8130E-01   1.3502E-04  0.0189
   5.8130E-01   5.9544E-01   1.3652E-04  0.0186
   5.9544E-01   6.0993E-01   1.3587E-04  0.0184
   6.0993E-01   6.2477E-01   1.3541E-04  0.0182
   6.2477E-01   6.3997E-01   1.3975E-04  0.0177
   6.3997E-01   6.5554E-01   1.4225E-04  0.0173
   6.5554E-01   6.7149E-01   1.3982E-04  0.0173
   6.7149E-01   6.8783E-01   1.4535E-04  0.0167
   6.8783E-01   7.0456E-01   1.4612E-04  0.0165
   7.0456E-01   7.2171E-01   1.4879E-04  0.0161
   7.2171E-01   7.3927E-01   1.4727E-04  0.0160
   7.3927E-01   7.5725E-01   1.4666E-04  0.0159
   7.5725E-01   7.7568E-01   1.4449E-04  0.0158
   7.7568E-01   7.9455E-01   1.4882E-04  0.0154
   7.9455E-01   8.1388E-01   1.5518E-04  0.0149
   8.1388E-01   8.3368E-01   1.4820E-04  0.0150
   8.3368E-01   8.5397E-01   1.5205E-04  0.0147
   8.5397E-01   8.7475E-01   1.4928E-04  0.0146
   8.7475E-01   8.9603E-01   1.4978E-04  0.0144
   8.9603E-01   9.1783E-01   1.4984E-04  0.0143
   9.1783E-01   9.4016E-01   1.4740E-04  0.0142
   9.4016E-01   9.6304E-01   1.4785E-04  0.0140
   9.6304E-01   9.8647E-01   1.4277E-04  0.0141
   9.8647E-01   1.0105E+00   1.3984E-04  0.0141
   1.0105E+00   1.0351E+00   1.4646E-04  0.0136
   1.0351E+00   1.0602E+00   1.4902E-04  0.0133
   1.0602E+00   1.0860E+00   1.5099E-04  0.0131
   1.0860E+00   1.1125E+00   1.5185E-04  0.0129
   1.1125E+00   1.1395E+00   1.5632E-04  0.0125
   1.1395E+00   1.1673E+00   1.5754E-04  0.0123
   1.1673E+00   1.1957E+00   1.6498E-04  0.0119
   1.1957E+00   1.2247E+00   1.6863E-04  0.0116
   1.2247E+00   1.2545E+00   1.7248E-04  0.0114
   1.2545E+00   1.2851E+00   1.7279E-04  0.0112
   1.2851E+00   1.3163E+00   1.7698E-04  0.0110
   1.3163E+00   1.3484E+00   1.8109E-04  0.0107
   1.3484E+00   1.3812E+00   1.8591E-04  0.0104
   1.3812E+00   1.4148E+00   1.9070E-04  0.0102
   1.4148E+00   1.4492E+00   1.9118E-04  0.0100
   1.4492E+00   1.4845E+00   1.9527E-04  0.0098
   1.4845E+00   1.5206E+00   1.9894E-04  0.0096
   1.5206E+00   1.5576E+00   2.0257E-04  0.0094
   1.5576E+00   1.5955E+00   2.0528E-04  0.0092
   1.5955E+00   1.6343E+00   2.0804E-04  0.0091
   1.6343E+00   1.6741E+00   2.1164E-04  0.0089
   1.6741E+00   1.7148E+00   2.1951E-04  0.0086
   1.7148E+00   1.7565E+00   2.2383E-04  0.0084
   1.7565E+00   1.7992E+00   2.1851E-04  0.0084
   1.7992E+00   1.8430E+00   2.2533E-04  0.0082
   1.8430E+00   1.8879E+00   2.2632E-04  0.0081
   1.8879E+00   1.9338E+00   2.2952E-04  0.0079
   1.9338E+00   1.9808E+00   2.3363E-04  0.0078
   1.9808E+00   2.0290E+00   2.3971E-04  0.0076
   2.0290E+00   2.0784E+00   2.4365E-04  0.0074
   2.0784E+00   2.1290E+00   2.4333E-04  0.0073
   2.1290E+00   2.1808E+00   2.4569E-04  0.0072
   2.1808E+00   2.2338E+00   2.4701E-04  0.0071
   2.2338E+00   2.2882E+00   2.5166E-04  0.0070
   2.2882E+00   2.3439E+00   2.5331E-04  0.0069
   2.3439E+00   2.4009E+00   2.5740E-04  0.0067
   2.4009E+00   2.4593E+00   2.5829E-04  0.0066
   2.4593E+00   2.5191E+00   2.5920E-04  0.0065
   2.5191E+00   2.5804E+00   2.6079E-04  0.0064
   2.5804E+00   2.6432E+00   2.5823E-04  0.0064
   2.6432E+00   2.7075E+00   2.5831E-04  0.0063
   2.7075E+00   2.7734E+00   2.6078E-04  0.0062
   2.7734E+00   2.8409E+00   2.6083E-04  0.0061
   2.8409E+00   2.9100E+00   2.6516E-04  0.0060
   2.9100E+00   2.9808E+00   2.6880E-04  0.0059
   2.9808E+00   3.0533E+00   2.6819E-04  0.0058
   3.0533E+00   3.1276E+00   2.6444E-04  0.0058
   3.1276E+00   3.2037E+00   2.6373E-04  0.0058
   3.2037E+00   3.2817E+00   2.5989E-04  0.0057
   3.2817E+00   3.3615E+00   2.6004E-04  0.0057
   3.3615E+00   3.4433E+00   2.5832E-04  0.0056
   3.4433E+00   3.5271E+00   2.5703E-04  0.0056
   3.5271E+00   3.6129E+00   2.5503E-04  0.0055
   3.6129E+00   3.7008E+00   2.5285E-04  0.0055
   3.7008E+00   3.7908E+00   2.4924E-04  0.0054
   3.7908E+00   3.8831E+00   2.4546E-04  0.0054
   3.8831E+00   3.9776E+00   2.4202E-04  0.0054
   3.9776E+00   4.0743E+00   2.3731E-04  0.0054
   4.0743E+00   4.1735E+00   2.4023E-04  0.0053
   4.1735E+00   4.2750E+00   2.3554E-04  0.0053
   4.2750E+00   4.3790E+00   2.3030E-04  0.0053
   4.3790E+00   4.4856E+00   2.2711E-04  0.0052
   4.4856E+00   4.5947E+00   2.2285E-04  0.0052
   4.5947E+00   4.7065E+00   2.2219E-04  0.0052
   4.7065E+00   4.8210E+00   2.1777E-04  0.0052
   4.8210E+00   4.9383E+00   2.1236E-04  0.0052
   4.9383E+00   5.0585E+00   2.0955E-04  0.0051
   5.0585E+00   5.1815E+00   2.0471E-04  0.0051
   5.1815E+00   5.3076E+00   1.9935E-04  0.0051
   5.3076E+00   5.4368E+00   1.9568E-04  0.0051
   5.4368E+00   5.5690E+00   1.9132E-04  0.0051
   5.5690E+00   5.7045E+00   1.8703E-04  0.0051
   5.7045E+00   5.8433E+00   1.8283E-04  0.0051
   5.8433E+00   5.9855E+00   1.7823E-04  0.0051
   5.9855E+00   6.1311E+00   1.7372E-04  0.0051
   6.1311E+00   6.2803E+00   1.6879E-04  0.0051
   6.2803E+00   6.4331E+00   1.6545E-04  0.0051
   6.4331E+00   6.5896E+00   1.6125E-04  0.0051
   6.5896E+00   6.7500E+00   1.5553E-04  0.0052
   6.7500E+00   6.9142E+00   1.5120E-04  0.0052
   6.9142E+00   7.0824E+00   1.4672E-04  0.0052
   7.0824E+00   7.2548E+00   1.4108E-04  0.0052
   7.2548E+00   7.4313E+00   1.3619E-04  0.0053
   7.4313E+00   7.6121E+00   1.3357E-04  0.0052
   7.6121E+00   7.7973E+00   1.2701E-04  0.0053
   7.7973E+00   7.9870E+00   1.2221E-04  0.0054
   7.9870E+00   8.1813E+00   1.1744E-04  0.0054
   8.1813E+00   8.3804E+00   1.1335E-04  0.0054
   8.3804E+00   8.5843E+00   1.0919E-04  0.0055
   8.5843E+00   8.7931E+00   1.0247E-04  0.0056
   8.7931E+00   9.0071E+00   9.8439E-05  0.0056
   9.0071E+00   9.2262E+00   9.4555E-05  0.0057
   9.2262E+00   9.4507E+00   9.1328E-05  0.0057
   9.4507E+00   9.6807E+00   8.8978E-05  0.0057
   9.6807E+00   9.9162E+00   8.5119E-05  0.0058
   9.9162E+00   1.0157E+01   8.2433E-05  0.0058
   1.0157E+01   1.0405E+01   7.9407E-05  0.0058
   1.0405E+01   1.0658E+01   7.7084E-05  0.0058
   1.0658E+01   1.0917E+01   7.5276E-05  0.0058
   1.0917E+01   1.1183E+01   7.1278E-05  0.0059
   1.1183E+01   1.1455E+01   6.9118E-05  0.0060
   1.1455E+01   1.1733E+01   6.5976E-05  0.0060
   1.1733E+01   1.2019E+01   6.4352E-05  0.0060
   1.2019E+01   1.2311E+01   6.1479E-05  0.0061
   1.2311E+01   1.2611E+01   5.8567E-05  0.0062
   1.2611E+01   1.2918E+01   5.6512E-05  0.0062
   1.2918E+01   1.3232E+01   5.4487E-05  0.0062
   1.3232E+01   1.3554E+01   5.2465E-05  0.0063
   1.3554E+01   1.3884E+01   5.0298E-05  0.0063
   1.3884E+01   1.4222E+01   4.8347E-05  0.0064
   1.4222E+01   1.4568E+01   4.5984E-05  0.0065
   1.4568E+01   1.4922E+01   4.3618E-05  0.0066
   1.4922E+01   1.5285E+01   4.1761E-05  0.0066
   1.5285E+01   1.5657E+01   3.9834E-05  0.0067
   1.5657E+01   1.6038E+01   3.7897E-05  0.0068
   1.6038E+01   1.6428E+01   3.6147E-05  0.0069
   1.6428E+01   1.6828E+01   3.4351E-05  0.0070
   1.6828E+01   1.7237E+01   3.2563E-05  0.0071
   1.7237E+01   1.7657E+01   3.0595E-05  0.0072
   1.7657E+01   1.8086E+01   2.9127E-05  0.0073
   1.8086E+01   1.8526E+01   2.7547E-05  0.0074
   1.8526E+01   1.8977E+01   2.5907E-05  0.0076
   1.8977E+01   1.9439E+01   2.4398E-05  0.0077
   1.9439E+01   1.9912E+01   2.3593E-05  0.0077
   1.9912E+01   2.0396E+01   2.2357E-05  0.0078
   2.0396E+01   2.0893E+01   2.0750E-05  0.0080
   2.0893E+01   2.1401E+01   1.9574E-05  0.0082
   2.1401E+01   2.1922E+01   1.8561E-05  0.0083
   2.1922E+01   2.2455E+01   1.6943E-05  0.0086
   2.2455E+01   2.3001E+01   1.5784E-05  0.0088
   2.3001E+01   2.3561E+01   1.4638E-05  0.0090
   2.3561E+01   2.4134E+01   1.3463E-05  0.0093
   2.4134E+01   2.4721E+01   1.2554E-05  0.0095
   2.4721E+01   2.5323E+01   1.1415E-05  0.0099
   2.5323E+01   2.5939E+01   1.0472E-05  0.0102
   2.5939E+01   2.6570E+01   9.4774E-06  0.0106
   2.6570E+01   2.7217E+01   8.8202E-06  0.0108
   2.7217E+01   2.7879E+01   8.2512E-06  0.0110
   2.7879E+01   2.8557E+01   7.3742E-06  0.0115
   2.8557E+01   2.9252E+01   6.8373E-06  0.0118
   2.9252E+01   2.9964E+01   6.4388E-06  0.0121
   2.9964E+01   3.0693E+01   5.7765E-06  0.0126
   3.0693E+01   3.1440E+01   5.4260E-06  0.0128
   3.1440E+01   3.2205E+01   5.0138E-06  0.0132
   3.2205E+01   3.2988E+01   4.6548E-06  0.0135
   3.2988E+01   3.3791E+01   4.1281E-06  0.0142
   3.3791E+01   3.4613E+01   3.8541E-06  0.0145
   3.4613E+01   3.5455E+01   3.5148E-06  0.0150
   3.5455E+01   3.6318E+01   3.2141E-06  0.0155
   3.6318E+01   3.7201E+01   2.8805E-06  0.0162
   3.7201E+01   3.8106E+01   2.5631E-06  0.0170
   3.8106E+01   3.9034E+01   2.2959E-06  0.0177
   3.9034E+01   3.9983E+01   1.9430E-06  0.0190
   3.9983E+01   4.0956E+01   1.5981E-06  0.0207
   4.0956E+01   4.1953E+01   1.3180E-06  0.0225
   4.1953E+01   4.2973E+01   1.1306E-06  0.0240
   4.2973E+01   4.4019E+01   8.9903E-07  0.0266
   4.4019E+01   4.5090E+01   7.7559E-07  0.0283
   4.5090E+01   4.6187E+01   6.2530E-07  0.0312
   4.6187E+01   4.7311E+01   4.8943E-07  0.0348
   4.7311E+01   4.8462E+01   3.4517E-07  0.0410
   4.8462E+01   4.9641E+01   2.7591E-07  0.0453
   4.9641E+01   5.0849E+01   1.7442E-07  0.0563
   5.0849E+01   5.2086E+01   1.2933E-07  0.0645
   5.2086E+01   5.3353E+01   7.6804E-08  0.0828
   5.3353E+01   5.4651E+01   4.1598E-08  0.1111
   5.4651E+01   5.5981E+01   2.8578E-08  0.1325
   5.5981E+01   5.7343E+01   1.5662E-08  0.1768
   5.7343E+01   5.8738E+01   7.6452E-09  0.2500
   5.8738E+01   6.0168E+01   6.0642E-09  0.2774
   6.0168E+01   6.1632E+01   1.3662E-09  0.5774
   6.1632E+01   6.3131E+01   1.3337E-09  0.5774
   6.3131E+01   6.4667E+01   0.0000E+00  0.0000
   6.4667E+01   6.6240E+01   0.0000E+00  0.0000
   6.6240E+01   6.7852E+01   0.0000E+00  0.0000
   6.7852E+01   6.9503E+01   0.0000E+00  0.0000
   6.9503E+01   7.1194E+01   0.0000E+00  0.0000
   7.1194E+01   7.2926E+01   0.0000E+00  0.0000
   7.2926E+01   7.4701E+01   0.0000E+00  0.0000
   7.4701E+01   7.6518E+01   0.0000E+00  0.0000
   7.6518E+01   7.8380E+01   0.0000E+00  0.0000
   7.8380E+01   8.0287E+01   0.0000E+00  0.0000
   8.0287E+01   8.2240E+01   0.0000E+00  0.0000
   8.2240E+01   8.4241E+01   0.0000E+00  0.0000
   8.4241E+01   8.6291E+01   0.0000E+00  0.0000
   8.6291E+01   8.8391E+01   0.0000E+00  0.0000
   8.8391E+01   9.0541E+01   0.0000E+00  0.0000
   9.0541E+01   9.2744E+01   0.0000E+00  0.0000
   9.2744E+01   9.5001E+01   0.0000E+00  0.0000
   9.5001E+01   9.7312E+01   0.0000E+00  0.0000
   9.7312E+01   9.9680E+01   0.0000E+00  0.0000
   9.9680E+01   1.0211E+02   0.0000E+00  0.0000
   1.0211E+02   1.0459E+02   0.0000E+00  0.0000
   1.0459E+02   1.0713E+02   0.0000E+00  0.0000
   1.0713E+02   1.0974E+02   0.0000E+00  0.0000
   1.0974E+02   1.1241E+02   0.0000E+00  0.0000
   1.1241E+02   1.1515E+02   0.0000E+00  0.0000
   1.1515E+02   1.1795E+02   0.0000E+00  0.0000
   1.1795E+02   1.2082E+02   0.0000E+00  0.0000
   1.2082E+02   1.2376E+02   0.0000E+00  0.0000
   1.2376E+02   1.2677E+02   0.0000E+00  0.0000
   1.2677E+02   1.2985E+02   0.0000E+00  0.0000
   1.2985E+02   1.3301E+02   0.0000E+00  0.0000
   1.3301E+02   1.3625E+02   0.0000E+00  0.0000
   1.3625E+02   1.3956E+02   0.0000E+00  0.0000
   1.3956E+02   1.4296E+02   0.0000E+00  0.0000
   1.4296E+02   1.4644E+02   0.0000E+00  0.0000
   1.4644E+02   1.5000E+02   0.0000E+00  0.0000

#   sum over                 1.5746E-05
'no. =    1   reg = 112 - 212'
msuc: {\huge [t-cross] in region mesh}
msdr: {\it plotted by \ANGEL \version}
msdl: {\it calculated by \PHITS  3.26}
wt: s(0.7)
\vspace{-3}
  region surface crossing
  area  &=&   1.0000E+00 [cm^2]
e:
 
# Information for Restart Calculation
# This calculation was newly started
# istdev =  2 # 1:Batch variance, 2:History variance
# resc2  = 1.50000000000000000E+09 # Total source weight or Total source weight / maxcas
# resc3  = 1.50000000000000000E+09 # Total history number or Total batch number
# maxcas =   500000000 # History / Batch, only used for istdev=1
# bitrseed = 0000010101110101110110100110011001100101000001100111100100101101 # bit data of rseed
