[ T-Cross ]
    title = [t-cross] in region mesh
     mesh =  reg            # mesh type is region-wise
      reg =    1            # number of crossing regions
      non     r-from    r-to       area
      1       111       211        1.000000    
   e-type =    3            # e-mesh is log given by emin, emax and ne
     emin =  1.0000000E-02  # minimum value of e-mesh points
     emax =   150.0000      # maximum value of e-mesh points
#    edel =  2.4039514E-02  # mesh width of e-mesh points
       ne =    400          # number of e-mesh points
#    data = ( e(i), i = 1, ne + 1 )
#           1.00000E-02  1.02433E-02  1.04925E-02  1.07478E-02  1.10093E-02
#           1.12772E-02  1.15516E-02  1.18326E-02  1.21205E-02  1.24154E-02
#           1.27175E-02  1.30269E-02  1.33439E-02  1.36686E-02  1.40011E-02
#           1.43418E-02  1.46907E-02  1.50482E-02  1.54143E-02  1.57894E-02
#           1.61735E-02  1.65670E-02  1.69701E-02  1.73830E-02  1.78060E-02
#           1.82392E-02  1.86830E-02  1.91375E-02  1.96032E-02  2.00801E-02
#           2.05687E-02  2.10692E-02  2.15818E-02  2.21069E-02  2.26448E-02
#           2.31957E-02  2.37601E-02  2.43382E-02  2.49304E-02  2.55369E-02
#           2.61583E-02  2.67947E-02  2.74467E-02  2.81145E-02  2.87985E-02
#           2.94992E-02  3.02169E-02  3.09521E-02  3.17052E-02  3.24766E-02
#           3.32668E-02  3.40762E-02  3.49053E-02  3.57546E-02  3.66246E-02
#           3.75157E-02  3.84284E-02  3.93634E-02  4.03212E-02  4.13022E-02
#           4.23071E-02  4.33365E-02  4.43909E-02  4.54710E-02  4.65773E-02
#           4.77106E-02  4.88714E-02  5.00605E-02  5.12785E-02  5.25262E-02
#           5.38042E-02  5.51133E-02  5.64542E-02  5.78278E-02  5.92348E-02
#           6.06760E-02  6.21523E-02  6.36645E-02  6.52135E-02  6.68002E-02
#           6.84255E-02  7.00904E-02  7.17957E-02  7.35426E-02  7.53319E-02
#           7.71648E-02  7.90423E-02  8.09655E-02  8.29354E-02  8.49533E-02
#           8.70203E-02  8.91376E-02  9.13064E-02  9.35279E-02  9.58035E-02
#           9.81345E-02  1.00522E-01  1.02968E-01  1.05473E-01  1.08040E-01
#           1.10668E-01  1.13361E-01  1.16119E-01  1.18944E-01  1.21838E-01
#           1.24803E-01  1.27839E-01  1.30950E-01  1.34136E-01  1.37399E-01
#           1.40742E-01  1.44167E-01  1.47675E-01  1.51268E-01  1.54948E-01
#           1.58718E-01  1.62580E-01  1.66535E-01  1.70587E-01  1.74738E-01
#           1.78989E-01  1.83344E-01  1.87805E-01  1.92375E-01  1.97055E-01
#           2.01850E-01  2.06761E-01  2.11792E-01  2.16945E-01  2.22223E-01
#           2.27630E-01  2.33169E-01  2.38842E-01  2.44653E-01  2.50605E-01
#           2.56703E-01  2.62949E-01  2.69346E-01  2.75900E-01  2.82613E-01
#           2.89489E-01  2.96532E-01  3.03747E-01  3.11138E-01  3.18708E-01
#           3.26462E-01  3.34405E-01  3.42542E-01  3.50876E-01  3.59413E-01
#           3.68158E-01  3.77116E-01  3.86291E-01  3.95690E-01  4.05317E-01
#           4.15179E-01  4.25281E-01  4.35628E-01  4.46227E-01  4.57084E-01
#           4.68205E-01  4.79597E-01  4.91266E-01  5.03219E-01  5.15463E-01
#           5.28005E-01  5.40851E-01  5.54011E-01  5.67490E-01  5.81298E-01
#           5.95441E-01  6.09929E-01  6.24769E-01  6.39970E-01  6.55541E-01
#           6.71491E-01  6.87828E-01  7.04564E-01  7.21706E-01  7.39266E-01
#           7.57253E-01  7.75678E-01  7.94551E-01  8.13883E-01  8.33685E-01
#           8.53969E-01  8.74747E-01  8.96030E-01  9.17831E-01  9.40163E-01
#           9.63038E-01  9.86469E-01  1.01047E+00  1.03506E+00  1.06024E+00
#           1.08604E+00  1.11246E+00  1.13953E+00  1.16725E+00  1.19565E+00
#           1.22474E+00  1.25454E+00  1.28507E+00  1.31633E+00  1.34836E+00
#           1.38117E+00  1.41477E+00  1.44920E+00  1.48446E+00  1.52057E+00
#           1.55757E+00  1.59547E+00  1.63429E+00  1.67405E+00  1.71478E+00
#           1.75650E+00  1.79924E+00  1.84302E+00  1.88786E+00  1.93379E+00
#           1.98084E+00  2.02904E+00  2.07841E+00  2.12898E+00  2.18078E+00
#           2.23384E+00  2.28819E+00  2.34386E+00  2.40089E+00  2.45930E+00
#           2.51914E+00  2.58043E+00  2.64322E+00  2.70753E+00  2.77341E+00
#           2.84088E+00  2.91001E+00  2.98081E+00  3.05333E+00  3.12762E+00
#           3.20372E+00  3.28167E+00  3.36152E+00  3.44330E+00  3.52708E+00
#           3.61290E+00  3.70080E+00  3.79085E+00  3.88308E+00  3.97756E+00
#           4.07434E+00  4.17347E+00  4.27501E+00  4.37903E+00  4.48557E+00
#           4.59471E+00  4.70650E+00  4.82102E+00  4.93832E+00  5.05847E+00
#           5.18155E+00  5.30762E+00  5.43676E+00  5.56904E+00  5.70453E+00
#           5.84333E+00  5.98550E+00  6.13114E+00  6.28031E+00  6.43312E+00
#           6.58964E+00  6.74997E+00  6.91420E+00  7.08243E+00  7.25475E+00
#           7.43126E+00  7.61207E+00  7.79728E+00  7.98700E+00  8.18133E+00
#           8.38038E+00  8.58428E+00  8.79315E+00  9.00709E+00  9.22624E+00
#           9.45072E+00  9.68067E+00  9.91620E+00  1.01575E+01  1.04046E+01
#           1.06578E+01  1.09171E+01  1.11827E+01  1.14548E+01  1.17335E+01
#           1.20190E+01  1.23114E+01  1.26109E+01  1.29178E+01  1.32321E+01
#           1.35540E+01  1.38838E+01  1.42216E+01  1.45676E+01  1.49221E+01
#           1.52851E+01  1.56570E+01  1.60380E+01  1.64282E+01  1.68279E+01
#           1.72374E+01  1.76568E+01  1.80864E+01  1.85264E+01  1.89772E+01
#           1.94389E+01  1.99119E+01  2.03963E+01  2.08926E+01  2.14009E+01
#           2.19216E+01  2.24550E+01  2.30014E+01  2.35610E+01  2.41343E+01
#           2.47215E+01  2.53230E+01  2.59391E+01  2.65702E+01  2.72167E+01
#           2.78789E+01  2.85572E+01  2.92520E+01  2.99637E+01  3.06928E+01
#           3.14396E+01  3.22045E+01  3.29881E+01  3.37907E+01  3.46128E+01
#           3.54550E+01  3.63177E+01  3.72013E+01  3.81064E+01  3.90336E+01
#           3.99833E+01  4.09561E+01  4.19526E+01  4.29734E+01  4.40189E+01
#           4.50900E+01  4.61870E+01  4.73108E+01  4.84619E+01  4.96410E+01
#           5.08488E+01  5.20860E+01  5.33533E+01  5.46514E+01  5.59812E+01
#           5.73432E+01  5.87384E+01  6.01676E+01  6.16315E+01  6.31311E+01
#           6.46671E+01  6.62405E+01  6.78522E+01  6.95031E+01  7.11941E+01
#           7.29263E+01  7.47007E+01  7.65182E+01  7.83800E+01  8.02870E+01
#           8.22405E+01  8.42414E+01  8.62911E+01  8.83906E+01  9.05412E+01
#           9.27442E+01  9.50007E+01  9.73122E+01  9.96799E+01  1.02105E+02
#           1.04589E+02  1.07134E+02  1.09741E+02  1.12411E+02  1.15146E+02
#           1.17948E+02  1.20817E+02  1.23757E+02  1.26768E+02  1.29852E+02
#           1.33012E+02  1.36248E+02  1.39563E+02  1.42959E+02  1.46437E+02
#           1.50000E+02
     unit =    2            # unit is [1/cm^2/(MeV/n)/source]
     axis =  eng            # axis of output
     file = detector-12.out  # file name of output for the above axis
   output = f-curr          # surface crossing forward current spectrum
     part =  neutron  
# kf/name :  2112     
#    used :        main (  %)        temp (  %)       total (  %)
#  memory :         414 (  0)           0 (  0)         414 (  0)

#------------------------------------------------------------------------------
#newpage:
#   no. =    1   reg = 111 - 211

x: Energy [MeV/n]
y:  F-Curr [1/cm^2/(MeV/n)/source]         
p: xlog ylog afac(0.8) form(0.9)
h: n            x            y(neutron ),hh0l   n 
#  e-lower      e-upper      neutron     r.err 
   1.0000E-02   1.0243E-02   1.1456E-03  0.0597
   1.0243E-02   1.0493E-02   1.0238E-03  0.0623
   1.0493E-02   1.0748E-02   1.0624E-03  0.0605
   1.0748E-02   1.1009E-02   9.6155E-04  0.0627
   1.1009E-02   1.1277E-02   9.2284E-04  0.0634
   1.1277E-02   1.1552E-02   1.0544E-03  0.0587
   1.1552E-02   1.1833E-02   9.7231E-04  0.0602
   1.1833E-02   1.2121E-02   1.0383E-03  0.0575
   1.2121E-02   1.2415E-02   9.3047E-04  0.0601
   1.2415E-02   1.2718E-02   8.7827E-04  0.0612
   1.2718E-02   1.3027E-02   9.1087E-04  0.0594
   1.3027E-02   1.3344E-02   9.0378E-04  0.0589
   1.3344E-02   1.3669E-02   8.4637E-04  0.0601
   1.3669E-02   1.4001E-02   7.8204E-04  0.0617
   1.4001E-02   1.4342E-02   7.5582E-04  0.0620
   1.4342E-02   1.4691E-02   8.0703E-04  0.0594
   1.4691E-02   1.5048E-02   6.9614E-04  0.0630
   1.5048E-02   1.5414E-02   6.9489E-04  0.0625
   1.5414E-02   1.5789E-02   7.3271E-04  0.0602
   1.5789E-02   1.6174E-02   6.8450E-04  0.0614
   1.6174E-02   1.6567E-02   6.0543E-04  0.0645
   1.6567E-02   1.6970E-02   6.1799E-04  0.0631
   1.6970E-02   1.7383E-02   6.9772E-04  0.0588
   1.7383E-02   1.7806E-02   6.4652E-04  0.0602
   1.7806E-02   1.8239E-02   6.2097E-04  0.0606
   1.8239E-02   1.8683E-02   5.8690E-04  0.0616
   1.8683E-02   1.9138E-02   5.1741E-04  0.0649
   1.9138E-02   1.9603E-02   5.4577E-04  0.0624
   1.9603E-02   2.0080E-02   4.9775E-04  0.0646
   2.0080E-02   2.0569E-02   5.2083E-04  0.0624
   2.0569E-02   2.1069E-02   4.8762E-04  0.0638
   2.1069E-02   2.1582E-02   4.8492E-04  0.0631
   2.1582E-02   2.2107E-02   4.2386E-04  0.0666
   2.2107E-02   2.2645E-02   4.8003E-04  0.0619
   2.2645E-02   2.3196E-02   4.6809E-04  0.0621
   2.3196E-02   2.3760E-02   4.4996E-04  0.0624
   2.3760E-02   2.4338E-02   4.6198E-04  0.0610
   2.4338E-02   2.4930E-02   4.3301E-04  0.0622
   2.4930E-02   2.5537E-02   3.9610E-04  0.0644
   2.5537E-02   2.6158E-02   3.7310E-04  0.0653
   2.6158E-02   2.6795E-02   4.3896E-04  0.0596
   2.6795E-02   2.7447E-02   3.9619E-04  0.0617
   2.7447E-02   2.8114E-02   3.5911E-04  0.0643
   2.8114E-02   2.8799E-02   3.3407E-04  0.0657
   2.8799E-02   2.9499E-02   3.1843E-04  0.0664
   2.9499E-02   3.0217E-02   3.4114E-04  0.0636
   3.0217E-02   3.0952E-02   3.3196E-04  0.0637
   3.0952E-02   3.1705E-02   3.6041E-04  0.0603
   3.1705E-02   3.2477E-02   3.5256E-04  0.0602
   3.2477E-02   3.3267E-02   2.9608E-04  0.0650
   3.3267E-02   3.4076E-02   3.2559E-04  0.0612
   3.4076E-02   3.4905E-02   2.7546E-04  0.0658
   3.4905E-02   3.5755E-02   2.7683E-04  0.0649
   3.5755E-02   3.6625E-02   2.8325E-04  0.0635
   3.6625E-02   3.7516E-02   2.7658E-04  0.0632
   3.7516E-02   3.8428E-02   2.6253E-04  0.0644
   3.8428E-02   3.9363E-02   2.6539E-04  0.0632
   3.9363E-02   4.0321E-02   2.5091E-04  0.0641
   4.0321E-02   4.1302E-02   2.6213E-04  0.0621
   4.1302E-02   4.2307E-02   2.3037E-04  0.0653
   4.2307E-02   4.3337E-02   2.2690E-04  0.0650
   4.3337E-02   4.4391E-02   2.2292E-04  0.0648
   4.4391E-02   4.5471E-02   2.2516E-04  0.0638
   4.5471E-02   4.6577E-02   2.1269E-04  0.0649
   4.6577E-02   4.7711E-02   1.8972E-04  0.0679
   4.7711E-02   4.8871E-02   2.1662E-04  0.0627
   4.8871E-02   5.0061E-02   2.1706E-04  0.0620
   5.0061E-02   5.1279E-02   1.9168E-04  0.0651
   5.1279E-02   5.2526E-02   1.9122E-04  0.0644
   5.2526E-02   5.3804E-02   1.8932E-04  0.0641
   5.3804E-02   5.5113E-02   1.9651E-04  0.0620
   5.5113E-02   5.6454E-02   1.6631E-04  0.0665
   5.6454E-02   5.7828E-02   1.7966E-04  0.0634
   5.7828E-02   5.9235E-02   1.7669E-04  0.0630
   5.9235E-02   6.0676E-02   1.6470E-04  0.0645
   6.0676E-02   6.2152E-02   1.7973E-04  0.0611
   6.2152E-02   6.3665E-02   1.6470E-04  0.0630
   6.3665E-02   6.5214E-02   1.6023E-04  0.0631
   6.5214E-02   6.6800E-02   1.4183E-04  0.0663
   6.6800E-02   6.8426E-02   1.6993E-04  0.0600
   6.8426E-02   7.0090E-02   1.3912E-04  0.0655
   7.0090E-02   7.1796E-02   1.5008E-04  0.0622
   7.1796E-02   7.3543E-02   1.5468E-04  0.0606
   7.3543E-02   7.5332E-02   1.3706E-04  0.0637
   7.5332E-02   7.7165E-02   1.2973E-04  0.0646
   7.7165E-02   7.9042E-02   1.4246E-04  0.0610
   7.9042E-02   8.0965E-02   1.1825E-04  0.0659
   8.0965E-02   8.2935E-02   1.1684E-04  0.0655
   8.2935E-02   8.4953E-02   1.1064E-04  0.0668
   8.4953E-02   8.7020E-02   1.1205E-04  0.0654
   8.7020E-02   8.9138E-02   1.2572E-04  0.0611
   8.9138E-02   9.1306E-02   1.1269E-04  0.0636
   9.1306E-02   9.3528E-02   1.0638E-04  0.0648
   9.3528E-02   9.5804E-02   9.7218E-05  0.0668
   9.5804E-02   9.8134E-02   1.0530E-04  0.0636
   9.8134E-02   1.0052E-01   1.0485E-04  0.0629
   1.0052E-01   1.0297E-01   1.1477E-04  0.0593
   1.0297E-01   1.0547E-01   9.3419E-05  0.0647
   1.0547E-01   1.0804E-01   9.9455E-05  0.0622
   1.0804E-01   1.1067E-01   9.2695E-05  0.0638
   1.1067E-01   1.1336E-01   9.1854E-05  0.0633
   1.1336E-01   1.1612E-01   9.0809E-05  0.0627
   1.1612E-01   1.1894E-01   9.4488E-05  0.0610
   1.1894E-01   1.2184E-01   8.2444E-05  0.0644
   1.2184E-01   1.2480E-01   8.5951E-05  0.0623
   1.2480E-01   1.2784E-01   8.7412E-05  0.0612
   1.2784E-01   1.3095E-01   7.7403E-05  0.0640
   1.3095E-01   1.3414E-01   8.7821E-05  0.0595
   1.3414E-01   1.3740E-01   7.4870E-05  0.0635
   1.3740E-01   1.4074E-01   6.9737E-05  0.0651
   1.4074E-01   1.4417E-01   7.1323E-05  0.0638
   1.4417E-01   1.4767E-01   7.9687E-05  0.0595
   1.4767E-01   1.5127E-01   6.9306E-05  0.0631
   1.5127E-01   1.5495E-01   7.3711E-05  0.0604
   1.5495E-01   1.5872E-01   6.9651E-05  0.0614
   1.5872E-01   1.6258E-01   6.8547E-05  0.0611
   1.6258E-01   1.6654E-01   6.8493E-05  0.0605
   1.6654E-01   1.7059E-01   7.0649E-05  0.0588
   1.7059E-01   1.7474E-01   6.2668E-05  0.0618
   1.7474E-01   1.7899E-01   6.5796E-05  0.0594
   1.7899E-01   1.8334E-01   7.1361E-05  0.0564
   1.8334E-01   1.8781E-01   6.4545E-05  0.0586
   1.8781E-01   1.9237E-01   6.8056E-05  0.0562
   1.9237E-01   1.9706E-01   6.7988E-05  0.0557
   1.9706E-01   2.0185E-01   6.4947E-05  0.0563
   2.0185E-01   2.0676E-01   5.5208E-05  0.0605
   2.0676E-01   2.1179E-01   7.2365E-05  0.0522
   2.1179E-01   2.1694E-01   7.0022E-05  0.0525
   2.1694E-01   2.2222E-01   7.2338E-05  0.0509
   2.2222E-01   2.2763E-01   8.3935E-05  0.0466
   2.2763E-01   2.3317E-01   7.9553E-05  0.0473
   2.3317E-01   2.3884E-01   8.6796E-05  0.0449
   2.3884E-01   2.4465E-01   8.9673E-05  0.0436
   2.4465E-01   2.5061E-01   9.0330E-05  0.0429
   2.5061E-01   2.5670E-01   9.4130E-05  0.0415
   2.5670E-01   2.6295E-01   1.0115E-04  0.0396
   2.6295E-01   2.6935E-01   9.5135E-05  0.0403
   2.6935E-01   2.7590E-01   1.0859E-04  0.0374
   2.7590E-01   2.8261E-01   1.0168E-04  0.0381
   2.8261E-01   2.8949E-01   1.2364E-04  0.0341
   2.8949E-01   2.9653E-01   1.1807E-04  0.0345
   2.9653E-01   3.0375E-01   1.2849E-04  0.0327
   3.0375E-01   3.1114E-01   1.3732E-04  0.0313
   3.1114E-01   3.1871E-01   1.3959E-04  0.0306
   3.1871E-01   3.2646E-01   1.5089E-04  0.0291
   3.2646E-01   3.3441E-01   1.4999E-04  0.0288
   3.3441E-01   3.4254E-01   1.5272E-04  0.0282
   3.4254E-01   3.5088E-01   1.6020E-04  0.0272
   3.5088E-01   3.5941E-01   1.6795E-04  0.0263
   3.5941E-01   3.6816E-01   1.6720E-04  0.0260
   3.6816E-01   3.7712E-01   1.7497E-04  0.0251
   3.7712E-01   3.8629E-01   1.9270E-04  0.0237
   3.8629E-01   3.9569E-01   1.9115E-04  0.0235
   3.9569E-01   4.0532E-01   2.0536E-04  0.0224
   4.0532E-01   4.1518E-01   2.1605E-04  0.0216
   4.1518E-01   4.2528E-01   2.1806E-04  0.0212
   4.2528E-01   4.3563E-01   2.2209E-04  0.0208
   4.3563E-01   4.4623E-01   2.4041E-04  0.0197
   4.4623E-01   4.5708E-01   2.3094E-04  0.0199
   4.5708E-01   4.6821E-01   2.5168E-04  0.0188
   4.6821E-01   4.7960E-01   2.5765E-04  0.0184
   4.7960E-01   4.9127E-01   2.6285E-04  0.0180
   4.9127E-01   5.0322E-01   2.6414E-04  0.0177
   5.0322E-01   5.1546E-01   2.8579E-04  0.0168
   5.1546E-01   5.2800E-01   3.0139E-04  0.0162
   5.2800E-01   5.4085E-01   2.9359E-04  0.0162
   5.4085E-01   5.5401E-01   3.0588E-04  0.0157
   5.5401E-01   5.6749E-01   3.1045E-04  0.0154
   5.6749E-01   5.8130E-01   3.2641E-04  0.0148
   5.8130E-01   5.9544E-01   3.2961E-04  0.0146
   5.9544E-01   6.0993E-01   3.2931E-04  0.0144
   6.0993E-01   6.2477E-01   3.3672E-04  0.0141
   6.2477E-01   6.3997E-01   3.5112E-04  0.0136
   6.3997E-01   6.5554E-01   3.6607E-04  0.0132
   6.5554E-01   6.7149E-01   3.6883E-04  0.0130
   6.7149E-01   6.8783E-01   3.6907E-04  0.0128
   6.8783E-01   7.0456E-01   3.7893E-04  0.0125
   7.0456E-01   7.2171E-01   3.8740E-04  0.0122
   7.2171E-01   7.3927E-01   3.9037E-04  0.0120
   7.3927E-01   7.5725E-01   3.8928E-04  0.0119
   7.5725E-01   7.7568E-01   4.0809E-04  0.0115
   7.7568E-01   7.9455E-01   4.0319E-04  0.0114
   7.9455E-01   8.1388E-01   4.1417E-04  0.0111
   8.1388E-01   8.3368E-01   4.0753E-04  0.0111
   8.3368E-01   8.5397E-01   4.1495E-04  0.0109
   8.5397E-01   8.7475E-01   4.2453E-04  0.0106
   8.7475E-01   8.9603E-01   4.2839E-04  0.0104
   8.9603E-01   9.1783E-01   4.3188E-04  0.0103
   9.1783E-01   9.4016E-01   4.3444E-04  0.0101
   9.4016E-01   9.6304E-01   4.3666E-04  0.0100
   9.6304E-01   9.8647E-01   4.4538E-04  0.0097
   9.8647E-01   1.0105E+00   4.4892E-04  0.0096
   1.0105E+00   1.0351E+00   4.5186E-04  0.0094
   1.0351E+00   1.0602E+00   4.4352E-04  0.0094
   1.0602E+00   1.0860E+00   4.4128E-04  0.0093
   1.0860E+00   1.1125E+00   4.3553E-04  0.0093
   1.1125E+00   1.1395E+00   4.4076E-04  0.0091
   1.1395E+00   1.1673E+00   4.4432E-04  0.0090
   1.1673E+00   1.1957E+00   4.4462E-04  0.0089
   1.1957E+00   1.2247E+00   4.4930E-04  0.0087
   1.2247E+00   1.2545E+00   4.5212E-04  0.0086
   1.2545E+00   1.2851E+00   4.4815E-04  0.0085
   1.2851E+00   1.3163E+00   4.4454E-04  0.0084
   1.3163E+00   1.3484E+00   4.4018E-04  0.0084
   1.3484E+00   1.3812E+00   4.4908E-04  0.0082
   1.3812E+00   1.4148E+00   4.4571E-04  0.0081
   1.4148E+00   1.4492E+00   4.4678E-04  0.0080
   1.4492E+00   1.4845E+00   4.4457E-04  0.0079
   1.4845E+00   1.5206E+00   4.4903E-04  0.0078
   1.5206E+00   1.5576E+00   4.4119E-04  0.0078
   1.5576E+00   1.5955E+00   4.4105E-04  0.0077
   1.5955E+00   1.6343E+00   4.3645E-04  0.0076
   1.6343E+00   1.6741E+00   4.3702E-04  0.0075
   1.6741E+00   1.7148E+00   4.2741E-04  0.0075
   1.7148E+00   1.7565E+00   4.2556E-04  0.0075
   1.7565E+00   1.7992E+00   4.2578E-04  0.0074
   1.7992E+00   1.8430E+00   4.2495E-04  0.0073
   1.8430E+00   1.8879E+00   4.1751E-04  0.0073
   1.8879E+00   1.9338E+00   4.0922E-04  0.0073
   1.9338E+00   1.9808E+00   4.1451E-04  0.0071
   1.9808E+00   2.0290E+00   4.1743E-04  0.0070
   2.0290E+00   2.0784E+00   4.0581E-04  0.0070
   2.0784E+00   2.1290E+00   4.0612E-04  0.0069
   2.1290E+00   2.1808E+00   3.9547E-04  0.0069
   2.1808E+00   2.2338E+00   3.9026E-04  0.0069
   2.2338E+00   2.2882E+00   3.8746E-04  0.0069
   2.2882E+00   2.3439E+00   3.8429E-04  0.0068
   2.3439E+00   2.4009E+00   3.8005E-04  0.0068
   2.4009E+00   2.4593E+00   3.7643E-04  0.0067
   2.4593E+00   2.5191E+00   3.7320E-04  0.0067
   2.5191E+00   2.5804E+00   3.6804E-04  0.0066
   2.5804E+00   2.6432E+00   3.6071E-04  0.0066
   2.6432E+00   2.7075E+00   3.5050E-04  0.0066
   2.7075E+00   2.7734E+00   3.4932E-04  0.0066
   2.7734E+00   2.8409E+00   3.4562E-04  0.0065
   2.8409E+00   2.9100E+00   3.3808E-04  0.0065
   2.9100E+00   2.9808E+00   3.3508E-04  0.0065
   2.9808E+00   3.0533E+00   3.2978E-04  0.0064
   3.0533E+00   3.1276E+00   3.2725E-04  0.0064
   3.1276E+00   3.2037E+00   3.1963E-04  0.0064
   3.2037E+00   3.2817E+00   3.1346E-04  0.0064
   3.2817E+00   3.3615E+00   3.1087E-04  0.0063
   3.3615E+00   3.4433E+00   3.0464E-04  0.0063
   3.4433E+00   3.5271E+00   3.0422E-04  0.0062
   3.5271E+00   3.6129E+00   2.9629E-04  0.0062
   3.6129E+00   3.7008E+00   2.9441E-04  0.0062
   3.7008E+00   3.7908E+00   2.8833E-04  0.0062
   3.7908E+00   3.8831E+00   2.8131E-04  0.0062
   3.8831E+00   3.9776E+00   2.7862E-04  0.0061
   3.9776E+00   4.0743E+00   2.7921E-04  0.0061
   4.0743E+00   4.1735E+00   2.7088E-04  0.0061
   4.1735E+00   4.2750E+00   2.6519E-04  0.0061
   4.2750E+00   4.3790E+00   2.6354E-04  0.0060
   4.3790E+00   4.4856E+00   2.5772E-04  0.0060
   4.4856E+00   4.5947E+00   2.5135E-04  0.0060
   4.5947E+00   4.7065E+00   2.4578E-04  0.0060
   4.7065E+00   4.8210E+00   2.4122E-04  0.0060
   4.8210E+00   4.9383E+00   2.3547E-04  0.0060
   4.9383E+00   5.0585E+00   2.3039E-04  0.0060
   5.0585E+00   5.1815E+00   2.2003E-04  0.0060
   5.1815E+00   5.3076E+00   2.1499E-04  0.0060
   5.3076E+00   5.4368E+00   2.1071E-04  0.0060
   5.4368E+00   5.5690E+00   2.0449E-04  0.0061
   5.5690E+00   5.7045E+00   1.9555E-04  0.0061
   5.7045E+00   5.8433E+00   1.8848E-04  0.0062
   5.8433E+00   5.9855E+00   1.8561E-04  0.0061
   5.9855E+00   6.1311E+00   1.7618E-04  0.0062
   6.1311E+00   6.2803E+00   1.6806E-04  0.0063
   6.2803E+00   6.4331E+00   1.5948E-04  0.0064
   6.4331E+00   6.5896E+00   1.5135E-04  0.0065
   6.5896E+00   6.7500E+00   1.4520E-04  0.0065
   6.7500E+00   6.9142E+00   1.3715E-04  0.0066
   6.9142E+00   7.0824E+00   1.3094E-04  0.0067
   7.0824E+00   7.2548E+00   1.2148E-04  0.0069
   7.2548E+00   7.4313E+00   1.1743E-04  0.0069
   7.4313E+00   7.6121E+00   1.0896E-04  0.0071
   7.6121E+00   7.7973E+00   1.0336E-04  0.0072
   7.7973E+00   7.9870E+00   9.7983E-05  0.0073
   7.9870E+00   8.1813E+00   9.3815E-05  0.0074
   8.1813E+00   8.3804E+00   8.8566E-05  0.0075
   8.3804E+00   8.5843E+00   8.5152E-05  0.0076
   8.5843E+00   8.7931E+00   8.3394E-05  0.0076
   8.7931E+00   9.0071E+00   8.0182E-05  0.0076
   9.0071E+00   9.2262E+00   7.7210E-05  0.0077
   9.2262E+00   9.4507E+00   7.4133E-05  0.0077
   9.4507E+00   9.6807E+00   7.1275E-05  0.0078
   9.6807E+00   9.9162E+00   6.9270E-05  0.0078
   9.9162E+00   1.0157E+01   6.6605E-05  0.0079
   1.0157E+01   1.0405E+01   6.5106E-05  0.0079
   1.0405E+01   1.0658E+01   6.4199E-05  0.0078
   1.0658E+01   1.0917E+01   6.2531E-05  0.0078
   1.0917E+01   1.1183E+01   6.0155E-05  0.0079
   1.1183E+01   1.1455E+01   5.8959E-05  0.0079
   1.1455E+01   1.1733E+01   5.7015E-05  0.0079
   1.1733E+01   1.2019E+01   5.5097E-05  0.0080
   1.2019E+01   1.2311E+01   5.1920E-05  0.0081
   1.2311E+01   1.2611E+01   5.1085E-05  0.0081
   1.2611E+01   1.2918E+01   4.7948E-05  0.0082
   1.2918E+01   1.3232E+01   4.6972E-05  0.0082
   1.3232E+01   1.3554E+01   4.5096E-05  0.0083
   1.3554E+01   1.3884E+01   4.3941E-05  0.0083
   1.3884E+01   1.4222E+01   4.2071E-05  0.0084
   1.4222E+01   1.4568E+01   4.0117E-05  0.0085
   1.4568E+01   1.4922E+01   3.8825E-05  0.0085
   1.4922E+01   1.5285E+01   3.6921E-05  0.0086
   1.5285E+01   1.5657E+01   3.5039E-05  0.0088
   1.5657E+01   1.6038E+01   3.3328E-05  0.0089
   1.6038E+01   1.6428E+01   3.1407E-05  0.0090
   1.6428E+01   1.6828E+01   2.9927E-05  0.0091
   1.6828E+01   1.7237E+01   2.8298E-05  0.0093
   1.7237E+01   1.7657E+01   2.6946E-05  0.0094
   1.7657E+01   1.8086E+01   2.5620E-05  0.0095
   1.8086E+01   1.8526E+01   2.4666E-05  0.0096
   1.8526E+01   1.8977E+01   2.4107E-05  0.0096
   1.8977E+01   1.9439E+01   2.3359E-05  0.0096
   1.9439E+01   1.9912E+01   2.3288E-05  0.0095
   1.9912E+01   2.0396E+01   2.2943E-05  0.0095
   2.0396E+01   2.0893E+01   2.2198E-05  0.0095
   2.0893E+01   2.1401E+01   2.1423E-05  0.0096
   2.1401E+01   2.1922E+01   2.1152E-05  0.0095
   2.1922E+01   2.2455E+01   2.1184E-05  0.0094
   2.2455E+01   2.3001E+01   2.0500E-05  0.0094
   2.3001E+01   2.3561E+01   1.9764E-05  0.0095
   2.3561E+01   2.4134E+01   1.9058E-05  0.0096
   2.4134E+01   2.4721E+01   1.8196E-05  0.0097
   2.4721E+01   2.5323E+01   1.7736E-05  0.0097
   2.5323E+01   2.5939E+01   1.6475E-05  0.0099
   2.5939E+01   2.6570E+01   1.5785E-05  0.0100
   2.6570E+01   2.7217E+01   1.4995E-05  0.0102
   2.7217E+01   2.7879E+01   1.3991E-05  0.0104
   2.7879E+01   2.8557E+01   1.3056E-05  0.0106
   2.8557E+01   2.9252E+01   1.2210E-05  0.0109
   2.9252E+01   2.9964E+01   1.1205E-05  0.0112
   2.9964E+01   3.0693E+01   1.0374E-05  0.0115
   3.0693E+01   3.1440E+01   9.2745E-06  0.0120
   3.1440E+01   3.2205E+01   8.1012E-06  0.0127
   3.2205E+01   3.2988E+01   7.1175E-06  0.0134
   3.2988E+01   3.3791E+01   6.1075E-06  0.0143
   3.3791E+01   3.4613E+01   4.9030E-06  0.0158
   3.4613E+01   3.5455E+01   3.5267E-06  0.0183
   3.5455E+01   3.6318E+01   2.2825E-06  0.0225
   3.6318E+01   3.7201E+01   1.5855E-06  0.0267
   3.7201E+01   3.8106E+01   7.7336E-07  0.0378
   3.8106E+01   3.9034E+01   1.6394E-07  0.0811
   3.9034E+01   3.9983E+01   3.5800E-08  0.1715
   3.9983E+01   4.0956E+01   8.2235E-09  0.3536
   4.0956E+01   4.1953E+01   0.0000E+00  0.0000
   4.1953E+01   4.2973E+01   0.0000E+00  0.0000
   4.2973E+01   4.4019E+01   0.0000E+00  0.0000
   4.4019E+01   4.5090E+01   0.0000E+00  0.0000
   4.5090E+01   4.6187E+01   0.0000E+00  0.0000
   4.6187E+01   4.7311E+01   0.0000E+00  0.0000
   4.7311E+01   4.8462E+01   0.0000E+00  0.0000
   4.8462E+01   4.9641E+01   0.0000E+00  0.0000
   4.9641E+01   5.0849E+01   0.0000E+00  0.0000
   5.0849E+01   5.2086E+01   0.0000E+00  0.0000
   5.2086E+01   5.3353E+01   0.0000E+00  0.0000
   5.3353E+01   5.4651E+01   0.0000E+00  0.0000
   5.4651E+01   5.5981E+01   0.0000E+00  0.0000
   5.5981E+01   5.7343E+01   0.0000E+00  0.0000
   5.7343E+01   5.8738E+01   0.0000E+00  0.0000
   5.8738E+01   6.0168E+01   0.0000E+00  0.0000
   6.0168E+01   6.1632E+01   0.0000E+00  0.0000
   6.1632E+01   6.3131E+01   0.0000E+00  0.0000
   6.3131E+01   6.4667E+01   0.0000E+00  0.0000
   6.4667E+01   6.6240E+01   0.0000E+00  0.0000
   6.6240E+01   6.7852E+01   0.0000E+00  0.0000
   6.7852E+01   6.9503E+01   0.0000E+00  0.0000
   6.9503E+01   7.1194E+01   0.0000E+00  0.0000
   7.1194E+01   7.2926E+01   0.0000E+00  0.0000
   7.2926E+01   7.4701E+01   0.0000E+00  0.0000
   7.4701E+01   7.6518E+01   0.0000E+00  0.0000
   7.6518E+01   7.8380E+01   0.0000E+00  0.0000
   7.8380E+01   8.0287E+01   0.0000E+00  0.0000
   8.0287E+01   8.2240E+01   0.0000E+00  0.0000
   8.2240E+01   8.4241E+01   0.0000E+00  0.0000
   8.4241E+01   8.6291E+01   0.0000E+00  0.0000
   8.6291E+01   8.8391E+01   0.0000E+00  0.0000
   8.8391E+01   9.0541E+01   0.0000E+00  0.0000
   9.0541E+01   9.2744E+01   0.0000E+00  0.0000
   9.2744E+01   9.5001E+01   0.0000E+00  0.0000
   9.5001E+01   9.7312E+01   0.0000E+00  0.0000
   9.7312E+01   9.9680E+01   0.0000E+00  0.0000
   9.9680E+01   1.0211E+02   0.0000E+00  0.0000
   1.0211E+02   1.0459E+02   0.0000E+00  0.0000
   1.0459E+02   1.0713E+02   0.0000E+00  0.0000
   1.0713E+02   1.0974E+02   0.0000E+00  0.0000
   1.0974E+02   1.1241E+02   0.0000E+00  0.0000
   1.1241E+02   1.1515E+02   0.0000E+00  0.0000
   1.1515E+02   1.1795E+02   0.0000E+00  0.0000
   1.1795E+02   1.2082E+02   0.0000E+00  0.0000
   1.2082E+02   1.2376E+02   0.0000E+00  0.0000
   1.2376E+02   1.2677E+02   0.0000E+00  0.0000
   1.2677E+02   1.2985E+02   0.0000E+00  0.0000
   1.2985E+02   1.3301E+02   0.0000E+00  0.0000
   1.3301E+02   1.3625E+02   0.0000E+00  0.0000
   1.3625E+02   1.3956E+02   0.0000E+00  0.0000
   1.3956E+02   1.4296E+02   0.0000E+00  0.0000
   1.4296E+02   1.4644E+02   0.0000E+00  0.0000
   1.4644E+02   1.5000E+02   0.0000E+00  0.0000

#   sum over                 1.9149E-05
'no. =    1   reg = 111 - 211'
msuc: {\huge [t-cross] in region mesh}
msdr: {\it plotted by \ANGEL \version}
msdl: {\it calculated by \PHITS  3.26}
wt: s(0.7)
\vspace{-3}
  region surface crossing
  area  &=&   1.0000E+00 [cm^2]
e:
 
# Information for Restart Calculation
# This calculation was newly started
# istdev =  2 # 1:Batch variance, 2:History variance
# resc2  = 1.00000000000000000E+09 # Total source weight or Total source weight / maxcas
# resc3  = 1.00000000000000000E+09 # Total history number or Total batch number
# maxcas =   500000000 # History / Batch, only used for istdev=1
# bitrseed = 0001001110011001001001110000100100110111001111011100001000101100 # bit data of rseed
