[ T-Cross ]
    title = [t-cross] in region mesh
     mesh =  reg            # mesh type is region-wise
      reg =    1            # number of crossing regions
      non     r-from    r-to       area
      1       115       215        1.000000    
   e-type =    3            # e-mesh is log given by emin, emax and ne
     emin =  1.0000000E-02  # minimum value of e-mesh points
     emax =   150.0000      # maximum value of e-mesh points
#    edel =  2.4039514E-02  # mesh width of e-mesh points
       ne =    400          # number of e-mesh points
#    data = ( e(i), i = 1, ne + 1 )
#           1.00000E-02  1.02433E-02  1.04925E-02  1.07478E-02  1.10093E-02
#           1.12772E-02  1.15516E-02  1.18326E-02  1.21205E-02  1.24154E-02
#           1.27175E-02  1.30269E-02  1.33439E-02  1.36686E-02  1.40011E-02
#           1.43418E-02  1.46907E-02  1.50482E-02  1.54143E-02  1.57894E-02
#           1.61735E-02  1.65670E-02  1.69701E-02  1.73830E-02  1.78060E-02
#           1.82392E-02  1.86830E-02  1.91375E-02  1.96032E-02  2.00801E-02
#           2.05687E-02  2.10692E-02  2.15818E-02  2.21069E-02  2.26448E-02
#           2.31957E-02  2.37601E-02  2.43382E-02  2.49304E-02  2.55369E-02
#           2.61583E-02  2.67947E-02  2.74467E-02  2.81145E-02  2.87985E-02
#           2.94992E-02  3.02169E-02  3.09521E-02  3.17052E-02  3.24766E-02
#           3.32668E-02  3.40762E-02  3.49053E-02  3.57546E-02  3.66246E-02
#           3.75157E-02  3.84284E-02  3.93634E-02  4.03212E-02  4.13022E-02
#           4.23071E-02  4.33365E-02  4.43909E-02  4.54710E-02  4.65773E-02
#           4.77106E-02  4.88714E-02  5.00605E-02  5.12785E-02  5.25262E-02
#           5.38042E-02  5.51133E-02  5.64542E-02  5.78278E-02  5.92348E-02
#           6.06760E-02  6.21523E-02  6.36645E-02  6.52135E-02  6.68002E-02
#           6.84255E-02  7.00904E-02  7.17957E-02  7.35426E-02  7.53319E-02
#           7.71648E-02  7.90423E-02  8.09655E-02  8.29354E-02  8.49533E-02
#           8.70203E-02  8.91376E-02  9.13064E-02  9.35279E-02  9.58035E-02
#           9.81345E-02  1.00522E-01  1.02968E-01  1.05473E-01  1.08040E-01
#           1.10668E-01  1.13361E-01  1.16119E-01  1.18944E-01  1.21838E-01
#           1.24803E-01  1.27839E-01  1.30950E-01  1.34136E-01  1.37399E-01
#           1.40742E-01  1.44167E-01  1.47675E-01  1.51268E-01  1.54948E-01
#           1.58718E-01  1.62580E-01  1.66535E-01  1.70587E-01  1.74738E-01
#           1.78989E-01  1.83344E-01  1.87805E-01  1.92375E-01  1.97055E-01
#           2.01850E-01  2.06761E-01  2.11792E-01  2.16945E-01  2.22223E-01
#           2.27630E-01  2.33169E-01  2.38842E-01  2.44653E-01  2.50605E-01
#           2.56703E-01  2.62949E-01  2.69346E-01  2.75900E-01  2.82613E-01
#           2.89489E-01  2.96532E-01  3.03747E-01  3.11138E-01  3.18708E-01
#           3.26462E-01  3.34405E-01  3.42542E-01  3.50876E-01  3.59413E-01
#           3.68158E-01  3.77116E-01  3.86291E-01  3.95690E-01  4.05317E-01
#           4.15179E-01  4.25281E-01  4.35628E-01  4.46227E-01  4.57084E-01
#           4.68205E-01  4.79597E-01  4.91266E-01  5.03219E-01  5.15463E-01
#           5.28005E-01  5.40851E-01  5.54011E-01  5.67490E-01  5.81298E-01
#           5.95441E-01  6.09929E-01  6.24769E-01  6.39970E-01  6.55541E-01
#           6.71491E-01  6.87828E-01  7.04564E-01  7.21706E-01  7.39266E-01
#           7.57253E-01  7.75678E-01  7.94551E-01  8.13883E-01  8.33685E-01
#           8.53969E-01  8.74747E-01  8.96030E-01  9.17831E-01  9.40163E-01
#           9.63038E-01  9.86469E-01  1.01047E+00  1.03506E+00  1.06024E+00
#           1.08604E+00  1.11246E+00  1.13953E+00  1.16725E+00  1.19565E+00
#           1.22474E+00  1.25454E+00  1.28507E+00  1.31633E+00  1.34836E+00
#           1.38117E+00  1.41477E+00  1.44920E+00  1.48446E+00  1.52057E+00
#           1.55757E+00  1.59547E+00  1.63429E+00  1.67405E+00  1.71478E+00
#           1.75650E+00  1.79924E+00  1.84302E+00  1.88786E+00  1.93379E+00
#           1.98084E+00  2.02904E+00  2.07841E+00  2.12898E+00  2.18078E+00
#           2.23384E+00  2.28819E+00  2.34386E+00  2.40089E+00  2.45930E+00
#           2.51914E+00  2.58043E+00  2.64322E+00  2.70753E+00  2.77341E+00
#           2.84088E+00  2.91001E+00  2.98081E+00  3.05333E+00  3.12762E+00
#           3.20372E+00  3.28167E+00  3.36152E+00  3.44330E+00  3.52708E+00
#           3.61290E+00  3.70080E+00  3.79085E+00  3.88308E+00  3.97756E+00
#           4.07434E+00  4.17347E+00  4.27501E+00  4.37903E+00  4.48557E+00
#           4.59471E+00  4.70650E+00  4.82102E+00  4.93832E+00  5.05847E+00
#           5.18155E+00  5.30762E+00  5.43676E+00  5.56904E+00  5.70453E+00
#           5.84333E+00  5.98550E+00  6.13114E+00  6.28031E+00  6.43312E+00
#           6.58964E+00  6.74997E+00  6.91420E+00  7.08243E+00  7.25475E+00
#           7.43126E+00  7.61207E+00  7.79728E+00  7.98700E+00  8.18133E+00
#           8.38038E+00  8.58428E+00  8.79315E+00  9.00709E+00  9.22624E+00
#           9.45072E+00  9.68067E+00  9.91620E+00  1.01575E+01  1.04046E+01
#           1.06578E+01  1.09171E+01  1.11827E+01  1.14548E+01  1.17335E+01
#           1.20190E+01  1.23114E+01  1.26109E+01  1.29178E+01  1.32321E+01
#           1.35540E+01  1.38838E+01  1.42216E+01  1.45676E+01  1.49221E+01
#           1.52851E+01  1.56570E+01  1.60380E+01  1.64282E+01  1.68279E+01
#           1.72374E+01  1.76568E+01  1.80864E+01  1.85264E+01  1.89772E+01
#           1.94389E+01  1.99119E+01  2.03963E+01  2.08926E+01  2.14009E+01
#           2.19216E+01  2.24550E+01  2.30014E+01  2.35610E+01  2.41343E+01
#           2.47215E+01  2.53230E+01  2.59391E+01  2.65702E+01  2.72167E+01
#           2.78789E+01  2.85572E+01  2.92520E+01  2.99637E+01  3.06928E+01
#           3.14396E+01  3.22045E+01  3.29881E+01  3.37907E+01  3.46128E+01
#           3.54550E+01  3.63177E+01  3.72013E+01  3.81064E+01  3.90336E+01
#           3.99833E+01  4.09561E+01  4.19526E+01  4.29734E+01  4.40189E+01
#           4.50900E+01  4.61870E+01  4.73108E+01  4.84619E+01  4.96410E+01
#           5.08488E+01  5.20860E+01  5.33533E+01  5.46514E+01  5.59812E+01
#           5.73432E+01  5.87384E+01  6.01676E+01  6.16315E+01  6.31311E+01
#           6.46671E+01  6.62405E+01  6.78522E+01  6.95031E+01  7.11941E+01
#           7.29263E+01  7.47007E+01  7.65182E+01  7.83800E+01  8.02870E+01
#           8.22405E+01  8.42414E+01  8.62911E+01  8.83906E+01  9.05412E+01
#           9.27442E+01  9.50007E+01  9.73122E+01  9.96799E+01  1.02105E+02
#           1.04589E+02  1.07134E+02  1.09741E+02  1.12411E+02  1.15146E+02
#           1.17948E+02  1.20817E+02  1.23757E+02  1.26768E+02  1.29852E+02
#           1.33012E+02  1.36248E+02  1.39563E+02  1.42959E+02  1.46437E+02
#           1.50000E+02
     unit =    2            # unit is [1/cm^2/(MeV/n)/source]
     axis =  eng            # axis of output
     file = detector-16.out  # file name of output for the above axis
   output = f-curr          # surface crossing forward current spectrum
     part =  neutron  
# kf/name :  2112     
#    used :        main (  %)        temp (  %)       total (  %)
#  memory :         414 (  0)           0 (  0)         414 (  0)

#------------------------------------------------------------------------------
#newpage:
#   no. =    1   reg = 115 - 215

x: Energy [MeV/n]
y:  F-Curr [1/cm^2/(MeV/n)/source]         
p: xlog ylog afac(0.8) form(0.9)
h: n            x            y(neutron ),hh0l   n 
#  e-lower      e-upper      neutron     r.err 
   1.0000E-02   1.0243E-02   1.8524E-03  0.0469
   1.0243E-02   1.0493E-02   1.5987E-03  0.0499
   1.0493E-02   1.0748E-02   1.5849E-03  0.0495
   1.0748E-02   1.1009E-02   1.5726E-03  0.0492
   1.1009E-02   1.1277E-02   1.6557E-03  0.0473
   1.1277E-02   1.1552E-02   1.5928E-03  0.0477
   1.1552E-02   1.1833E-02   1.4471E-03  0.0494
   1.1833E-02   1.2121E-02   1.4980E-03  0.0480
   1.2121E-02   1.2415E-02   1.4762E-03  0.0478
   1.2415E-02   1.2718E-02   1.3833E-03  0.0487
   1.2718E-02   1.3027E-02   1.4501E-03  0.0471
   1.3027E-02   1.3344E-02   1.2876E-03  0.0494
   1.3344E-02   1.3669E-02   1.2905E-03  0.0487
   1.3669E-02   1.4001E-02   1.1786E-03  0.0503
   1.4001E-02   1.4342E-02   1.2370E-03  0.0486
   1.4342E-02   1.4691E-02   1.1890E-03  0.0489
   1.4691E-02   1.5048E-02   1.2557E-03  0.0471
   1.5048E-02   1.5414E-02   1.1335E-03  0.0489
   1.5414E-02   1.5789E-02   1.0679E-03  0.0499
   1.5789E-02   1.6174E-02   1.1257E-03  0.0480
   1.6174E-02   1.6567E-02   1.0770E-03  0.0485
   1.6567E-02   1.6970E-02   1.1190E-03  0.0470
   1.6970E-02   1.7383E-02   1.0270E-03  0.0484
   1.7383E-02   1.7806E-02   1.0004E-03  0.0485
   1.7806E-02   1.8239E-02   1.0182E-03  0.0474
   1.8239E-02   1.8683E-02   9.0788E-04  0.0497
   1.8683E-02   1.9138E-02   9.1211E-04  0.0490
   1.9138E-02   1.9603E-02   7.9641E-04  0.0518
   1.9603E-02   2.0080E-02   9.2293E-04  0.0475
   2.0080E-02   2.0569E-02   9.3228E-04  0.0467
   2.0569E-02   2.1069E-02   8.2276E-04  0.0491
   2.1069E-02   2.1582E-02   7.9572E-04  0.0493
   2.1582E-02   2.2107E-02   8.6816E-04  0.0467
   2.2107E-02   2.2645E-02   7.7540E-04  0.0489
   2.2645E-02   2.3196E-02   8.1335E-04  0.0471
   2.3196E-02   2.3760E-02   7.8613E-04  0.0474
   2.3760E-02   2.4338E-02   7.0994E-04  0.0492
   2.4338E-02   2.4930E-02   7.5738E-04  0.0471
   2.4930E-02   2.5537E-02   6.8411E-04  0.0489
   2.5537E-02   2.6158E-02   7.4342E-04  0.0464
   2.6158E-02   2.6795E-02   6.7663E-04  0.0481
   2.6795E-02   2.7447E-02   5.9361E-04  0.0507
   2.7447E-02   2.8114E-02   6.5504E-04  0.0477
   2.8114E-02   2.8799E-02   7.2234E-04  0.0449
   2.8799E-02   2.9499E-02   6.4408E-04  0.0469
   2.9499E-02   3.0217E-02   6.4829E-04  0.0462
   3.0217E-02   3.0952E-02   6.2661E-04  0.0465
   3.0952E-02   3.1705E-02   5.8766E-04  0.0474
   3.1705E-02   3.2477E-02   6.6310E-04  0.0440
   3.2477E-02   3.3267E-02   5.8170E-04  0.0464
   3.3267E-02   3.4076E-02   5.2884E-04  0.0482
   3.4076E-02   3.4905E-02   5.8350E-04  0.0454
   3.4905E-02   3.5755E-02   5.0709E-04  0.0480
   3.5755E-02   3.6625E-02   5.3569E-04  0.0462
   3.6625E-02   3.7516E-02   4.8056E-04  0.0481
   3.7516E-02   3.8428E-02   5.4872E-04  0.0446
   3.8428E-02   3.9363E-02   4.7728E-04  0.0472
   3.9363E-02   4.0321E-02   4.7756E-04  0.0466
   4.0321E-02   4.1302E-02   4.6914E-04  0.0464
   4.1302E-02   4.2307E-02   4.6818E-04  0.0460
   4.2307E-02   4.3337E-02   4.6107E-04  0.0458
   4.3337E-02   4.4391E-02   4.3833E-04  0.0464
   4.4391E-02   4.5471E-02   4.0795E-04  0.0474
   4.5471E-02   4.6577E-02   3.7695E-04  0.0489
   4.6577E-02   4.7711E-02   4.1496E-04  0.0459
   4.7711E-02   4.8871E-02   4.1209E-04  0.0456
   4.8871E-02   5.0061E-02   3.5940E-04  0.0481
   5.0061E-02   5.1279E-02   3.6574E-04  0.0473
   5.1279E-02   5.2526E-02   3.8315E-04  0.0456
   5.2526E-02   5.3804E-02   3.6526E-04  0.0462
   5.3804E-02   5.5113E-02   3.6836E-04  0.0454
   5.5113E-02   5.6454E-02   3.3445E-04  0.0472
   5.6454E-02   5.7828E-02   3.4381E-04  0.0459
   5.7828E-02   5.9235E-02   3.1104E-04  0.0475
   5.9235E-02   6.0676E-02   3.2767E-04  0.0459
   6.0676E-02   6.2152E-02   3.3134E-04  0.0451
   6.2152E-02   6.3665E-02   3.1831E-04  0.0454
   6.3665E-02   6.5214E-02   3.1120E-04  0.0454
   6.5214E-02   6.6800E-02   3.1559E-04  0.0446
   6.6800E-02   6.8426E-02   2.7199E-04  0.0474
   6.8426E-02   7.0090E-02   3.0420E-04  0.0443
   7.0090E-02   7.1796E-02   2.5630E-04  0.0477
   7.1796E-02   7.3543E-02   2.6771E-04  0.0461
   7.3543E-02   7.5332E-02   2.7976E-04  0.0445
   7.5332E-02   7.7165E-02   2.6795E-04  0.0450
   7.7165E-02   7.9042E-02   2.5282E-04  0.0457
   7.9042E-02   8.0965E-02   2.5059E-04  0.0453
   8.0965E-02   8.2935E-02   2.2911E-04  0.0470
   8.2935E-02   8.4953E-02   2.4489E-04  0.0448
   8.4953E-02   8.7020E-02   2.3085E-04  0.0456
   8.7020E-02   8.9138E-02   2.2930E-04  0.0453
   8.9138E-02   9.1306E-02   2.2771E-04  0.0448
   9.1306E-02   9.3528E-02   2.3676E-04  0.0435
   9.3528E-02   9.5804E-02   2.0443E-04  0.0462
   9.5804E-02   9.8134E-02   2.0964E-04  0.0451
   9.8134E-02   1.0052E-01   2.0678E-04  0.0448
   1.0052E-01   1.0297E-01   1.9780E-04  0.0453
   1.0297E-01   1.0547E-01   1.9940E-04  0.0446
   1.0547E-01   1.0804E-01   1.8684E-04  0.0455
   1.0804E-01   1.1067E-01   1.9345E-04  0.0442
   1.1067E-01   1.1336E-01   1.6590E-04  0.0471
   1.1336E-01   1.1612E-01   1.8436E-04  0.0442
   1.1612E-01   1.1894E-01   1.6650E-04  0.0460
   1.1894E-01   1.2184E-01   1.7512E-04  0.0443
   1.2184E-01   1.2480E-01   1.8011E-04  0.0431
   1.2480E-01   1.2784E-01   1.5412E-04  0.0461
   1.2784E-01   1.3095E-01   1.6296E-04  0.0443
   1.3095E-01   1.3414E-01   1.6076E-04  0.0440
   1.3414E-01   1.3740E-01   1.5653E-04  0.0441
   1.3740E-01   1.4074E-01   1.4698E-04  0.0450
   1.4074E-01   1.4417E-01   1.6484E-04  0.0420
   1.4417E-01   1.4767E-01   1.5468E-04  0.0428
   1.4767E-01   1.5127E-01   1.3258E-04  0.0457
   1.5127E-01   1.5495E-01   1.4093E-04  0.0437
   1.5495E-01   1.5872E-01   1.4375E-04  0.0428
   1.5872E-01   1.6258E-01   1.4275E-04  0.0426
   1.6258E-01   1.6654E-01   1.3506E-04  0.0431
   1.6654E-01   1.7059E-01   1.2216E-04  0.0449
   1.7059E-01   1.7474E-01   1.2873E-04  0.0431
   1.7474E-01   1.7899E-01   1.2119E-04  0.0439
   1.7899E-01   1.8334E-01   1.2407E-04  0.0429
   1.8334E-01   1.8781E-01   1.2283E-04  0.0426
   1.8781E-01   1.9237E-01   1.2567E-04  0.0416
   1.9237E-01   1.9706E-01   1.2188E-04  0.0417
   1.9706E-01   2.0185E-01   1.0956E-04  0.0434
   2.0185E-01   2.0676E-01   1.0821E-04  0.0433
   2.0676E-01   2.1179E-01   1.2543E-04  0.0397
   2.1179E-01   2.1694E-01   1.1969E-04  0.0401
   2.1694E-01   2.2222E-01   1.2834E-04  0.0383
   2.2222E-01   2.2763E-01   1.3137E-04  0.0374
   2.2763E-01   2.3317E-01   1.3852E-04  0.0360
   2.3317E-01   2.3884E-01   1.3899E-04  0.0355
   2.3884E-01   2.4465E-01   1.5155E-04  0.0336
   2.4465E-01   2.5061E-01   1.5183E-04  0.0331
   2.5061E-01   2.5670E-01   1.6245E-04  0.0317
   2.5670E-01   2.6295E-01   1.6418E-04  0.0311
   2.6295E-01   2.6935E-01   1.6777E-04  0.0304
   2.6935E-01   2.7590E-01   1.7990E-04  0.0290
   2.7590E-01   2.8261E-01   1.7234E-04  0.0293
   2.8261E-01   2.8949E-01   1.8161E-04  0.0282
   2.8949E-01   2.9653E-01   1.8200E-04  0.0278
   2.9653E-01   3.0375E-01   2.0355E-04  0.0260
   3.0375E-01   3.1114E-01   1.9393E-04  0.0263
   3.1114E-01   3.1871E-01   2.0729E-04  0.0251
   3.1871E-01   3.2646E-01   2.1160E-04  0.0246
   3.2646E-01   3.3441E-01   2.1972E-04  0.0239
   3.3441E-01   3.4254E-01   2.1700E-04  0.0237
   3.4254E-01   3.5088E-01   2.3582E-04  0.0225
   3.5088E-01   3.5941E-01   2.3118E-04  0.0224
   3.5941E-01   3.6816E-01   2.4881E-04  0.0214
   3.6816E-01   3.7712E-01   2.5480E-04  0.0208
   3.7712E-01   3.8629E-01   2.5965E-04  0.0204
   3.8629E-01   3.9569E-01   2.6010E-04  0.0201
   3.9569E-01   4.0532E-01   2.6600E-04  0.0197
   4.0532E-01   4.1518E-01   2.7137E-04  0.0193
   4.1518E-01   4.2528E-01   2.7127E-04  0.0190
   4.2528E-01   4.3563E-01   2.8354E-04  0.0184
   4.3563E-01   4.4623E-01   2.8722E-04  0.0180
   4.4623E-01   4.5708E-01   2.9136E-04  0.0177
   4.5708E-01   4.6821E-01   2.9429E-04  0.0174
   4.6821E-01   4.7960E-01   3.0263E-04  0.0170
   4.7960E-01   4.9127E-01   3.1459E-04  0.0164
   4.9127E-01   5.0322E-01   3.0823E-04  0.0164
   5.0322E-01   5.1546E-01   3.1992E-04  0.0159
   5.1546E-01   5.2800E-01   3.1735E-04  0.0158
   5.2800E-01   5.4085E-01   3.1880E-04  0.0156
   5.4085E-01   5.5401E-01   3.3022E-04  0.0151
   5.5401E-01   5.6749E-01   3.3828E-04  0.0147
   5.6749E-01   5.8130E-01   3.3027E-04  0.0147
   5.8130E-01   5.9544E-01   3.3658E-04  0.0144
   5.9544E-01   6.0993E-01   3.3961E-04  0.0142
   6.0993E-01   6.2477E-01   3.4138E-04  0.0140
   6.2477E-01   6.3997E-01   3.3712E-04  0.0139
   6.3997E-01   6.5554E-01   3.3552E-04  0.0138
   6.5554E-01   6.7149E-01   3.3804E-04  0.0135
   6.7149E-01   6.8783E-01   3.5069E-04  0.0132
   6.8783E-01   7.0456E-01   3.4264E-04  0.0131
   7.0456E-01   7.2171E-01   3.5019E-04  0.0128
   7.2171E-01   7.3927E-01   3.5178E-04  0.0127
   7.3927E-01   7.5725E-01   3.5266E-04  0.0125
   7.5725E-01   7.7568E-01   3.5967E-04  0.0122
   7.7568E-01   7.9455E-01   3.5226E-04  0.0122
   7.9455E-01   8.1388E-01   3.5868E-04  0.0119
   8.1388E-01   8.3368E-01   3.5067E-04  0.0119
   8.3368E-01   8.5397E-01   3.5435E-04  0.0117
   8.5397E-01   8.7475E-01   3.5135E-04  0.0116
   8.7475E-01   8.9603E-01   3.5424E-04  0.0115
   8.9603E-01   9.1783E-01   3.4882E-04  0.0114
   9.1783E-01   9.4016E-01   3.5502E-04  0.0112
   9.4016E-01   9.6304E-01   3.5970E-04  0.0110
   9.6304E-01   9.8647E-01   3.5369E-04  0.0109
   9.8647E-01   1.0105E+00   3.5493E-04  0.0108
   1.0105E+00   1.0351E+00   3.5089E-04  0.0107
   1.0351E+00   1.0602E+00   3.4290E-04  0.0107
   1.0602E+00   1.0860E+00   3.5036E-04  0.0105
   1.0860E+00   1.1125E+00   3.4129E-04  0.0105
   1.1125E+00   1.1395E+00   3.4010E-04  0.0104
   1.1395E+00   1.1673E+00   3.3687E-04  0.0103
   1.1673E+00   1.1957E+00   3.3919E-04  0.0101
   1.1957E+00   1.2247E+00   3.3827E-04  0.0100
   1.2247E+00   1.2545E+00   3.3351E-04  0.0100
   1.2545E+00   1.2851E+00   3.3468E-04  0.0098
   1.2851E+00   1.3163E+00   3.2905E-04  0.0098
   1.3163E+00   1.3484E+00   3.2377E-04  0.0098
   1.3484E+00   1.3812E+00   3.2729E-04  0.0096
   1.3812E+00   1.4148E+00   3.2392E-04  0.0095
   1.4148E+00   1.4492E+00   3.2281E-04  0.0094
   1.4492E+00   1.4845E+00   3.1489E-04  0.0094
   1.4845E+00   1.5206E+00   3.1076E-04  0.0094
   1.5206E+00   1.5576E+00   3.1378E-04  0.0092
   1.5576E+00   1.5955E+00   3.0556E-04  0.0092
   1.5955E+00   1.6343E+00   3.0031E-04  0.0092
   1.6343E+00   1.6741E+00   2.9553E-04  0.0092
   1.6741E+00   1.7148E+00   2.9348E-04  0.0091
   1.7148E+00   1.7565E+00   2.9648E-04  0.0089
   1.7565E+00   1.7992E+00   2.8666E-04  0.0090
   1.7992E+00   1.8430E+00   2.8902E-04  0.0088
   1.8430E+00   1.8879E+00   2.8064E-04  0.0089
   1.8879E+00   1.9338E+00   2.7860E-04  0.0088
   1.9338E+00   1.9808E+00   2.7409E-04  0.0087
   1.9808E+00   2.0290E+00   2.7255E-04  0.0087
   2.0290E+00   2.0784E+00   2.7080E-04  0.0086
   2.0784E+00   2.1290E+00   2.6490E-04  0.0086
   2.1290E+00   2.1808E+00   2.6153E-04  0.0085
   2.1808E+00   2.2338E+00   2.5807E-04  0.0085
   2.2338E+00   2.2882E+00   2.5620E-04  0.0084
   2.2882E+00   2.3439E+00   2.5135E-04  0.0084
   2.3439E+00   2.4009E+00   2.5037E-04  0.0083
   2.4009E+00   2.4593E+00   2.4797E-04  0.0083
   2.4593E+00   2.5191E+00   2.4526E-04  0.0082
   2.5191E+00   2.5804E+00   2.4445E-04  0.0081
   2.5804E+00   2.6432E+00   2.4135E-04  0.0081
   2.6432E+00   2.7075E+00   2.4043E-04  0.0080
   2.7075E+00   2.7734E+00   2.3758E-04  0.0079
   2.7734E+00   2.8409E+00   2.3554E-04  0.0079
   2.8409E+00   2.9100E+00   2.3266E-04  0.0078
   2.9100E+00   2.9808E+00   2.2921E-04  0.0078
   2.9808E+00   3.0533E+00   2.2565E-04  0.0078
   3.0533E+00   3.1276E+00   2.2496E-04  0.0077
   3.1276E+00   3.2037E+00   2.2203E-04  0.0076
   3.2037E+00   3.2817E+00   2.1791E-04  0.0076
   3.2817E+00   3.3615E+00   2.1669E-04  0.0076
   3.3615E+00   3.4433E+00   2.1566E-04  0.0075
   3.4433E+00   3.5271E+00   2.1276E-04  0.0075
   3.5271E+00   3.6129E+00   2.0808E-04  0.0074
   3.6129E+00   3.7008E+00   2.0295E-04  0.0074
   3.7008E+00   3.7908E+00   1.9999E-04  0.0074
   3.7908E+00   3.8831E+00   1.9193E-04  0.0075
   3.8831E+00   3.9776E+00   1.8520E-04  0.0075
   3.9776E+00   4.0743E+00   1.7628E-04  0.0076
   4.0743E+00   4.1735E+00   1.6783E-04  0.0077
   4.1735E+00   4.2750E+00   1.6171E-04  0.0078
   4.2750E+00   4.3790E+00   1.5396E-04  0.0079
   4.3790E+00   4.4856E+00   1.4504E-04  0.0080
   4.4856E+00   4.5947E+00   1.3289E-04  0.0083
   4.5947E+00   4.7065E+00   1.2630E-04  0.0084
   4.7065E+00   4.8210E+00   1.1838E-04  0.0085
   4.8210E+00   4.9383E+00   1.1004E-04  0.0088
   4.9383E+00   5.0585E+00   1.0439E-04  0.0089
   5.0585E+00   5.1815E+00   9.8805E-05  0.0090
   5.1815E+00   5.3076E+00   9.4961E-05  0.0091
   5.3076E+00   5.4368E+00   9.2498E-05  0.0091
   5.4368E+00   5.5690E+00   8.9090E-05  0.0092
   5.5690E+00   5.7045E+00   8.7129E-05  0.0092
   5.7045E+00   5.8433E+00   8.5680E-05  0.0091
   5.8433E+00   5.9855E+00   8.2262E-05  0.0092
   5.9855E+00   6.1311E+00   7.9294E-05  0.0093
   6.1311E+00   6.2803E+00   7.6815E-05  0.0093
   6.2803E+00   6.4331E+00   7.5015E-05  0.0093
   6.4331E+00   6.5896E+00   7.2472E-05  0.0094
   6.5896E+00   6.7500E+00   7.1311E-05  0.0093
   6.7500E+00   6.9142E+00   6.8119E-05  0.0094
   6.9142E+00   7.0824E+00   6.6172E-05  0.0095
   7.0824E+00   7.2548E+00   6.4881E-05  0.0094
   7.2548E+00   7.4313E+00   6.2436E-05  0.0095
   7.4313E+00   7.6121E+00   5.9838E-05  0.0096
   7.6121E+00   7.7973E+00   5.8752E-05  0.0096
   7.7973E+00   7.9870E+00   5.5814E-05  0.0097
   7.9870E+00   8.1813E+00   5.3709E-05  0.0098
   8.1813E+00   8.3804E+00   5.1548E-05  0.0099
   8.3804E+00   8.5843E+00   5.0348E-05  0.0098
   8.5843E+00   8.7931E+00   4.8921E-05  0.0099
   8.7931E+00   9.0071E+00   4.7482E-05  0.0099
   9.0071E+00   9.2262E+00   4.5026E-05  0.0100
   9.2262E+00   9.4507E+00   4.3155E-05  0.0101
   9.4507E+00   9.6807E+00   4.1850E-05  0.0102
   9.6807E+00   9.9162E+00   4.0652E-05  0.0102
   9.9162E+00   1.0157E+01   3.9166E-05  0.0103
   1.0157E+01   1.0405E+01   3.9554E-05  0.0101
   1.0405E+01   1.0658E+01   4.0212E-05  0.0099
   1.0658E+01   1.0917E+01   4.0239E-05  0.0098
   1.0917E+01   1.1183E+01   4.0161E-05  0.0097
   1.1183E+01   1.1455E+01   3.9165E-05  0.0097
   1.1455E+01   1.1733E+01   3.7484E-05  0.0098
   1.1733E+01   1.2019E+01   3.5997E-05  0.0099
   1.2019E+01   1.2311E+01   3.3838E-05  0.0100
   1.2311E+01   1.2611E+01   3.2982E-05  0.0101
   1.2611E+01   1.2918E+01   3.1612E-05  0.0101
   1.2918E+01   1.3232E+01   3.0955E-05  0.0101
   1.3232E+01   1.3554E+01   2.9993E-05  0.0102
   1.3554E+01   1.3884E+01   2.8718E-05  0.0103
   1.3884E+01   1.4222E+01   2.7450E-05  0.0104
   1.4222E+01   1.4568E+01   2.6017E-05  0.0105
   1.4568E+01   1.4922E+01   2.4987E-05  0.0106
   1.4922E+01   1.5285E+01   2.3677E-05  0.0108
   1.5285E+01   1.5657E+01   2.2974E-05  0.0108
   1.5657E+01   1.6038E+01   2.1624E-05  0.0110
   1.6038E+01   1.6428E+01   2.0918E-05  0.0111
   1.6428E+01   1.6828E+01   1.9512E-05  0.0113
   1.6828E+01   1.7237E+01   1.9022E-05  0.0113
   1.7237E+01   1.7657E+01   1.8407E-05  0.0114
   1.7657E+01   1.8086E+01   1.7278E-05  0.0116
   1.8086E+01   1.8526E+01   1.6750E-05  0.0116
   1.8526E+01   1.8977E+01   1.6593E-05  0.0116
   1.8977E+01   1.9439E+01   1.6040E-05  0.0116
   1.9439E+01   1.9912E+01   1.5534E-05  0.0117
   1.9912E+01   2.0396E+01   1.4139E-05  0.0121
   2.0396E+01   2.0893E+01   1.3418E-05  0.0123
   2.0893E+01   2.1401E+01   1.2877E-05  0.0124
   2.1401E+01   2.1922E+01   1.2214E-05  0.0125
   2.1922E+01   2.2455E+01   1.0989E-05  0.0131
   2.2455E+01   2.3001E+01   1.0006E-05  0.0135
   2.3001E+01   2.3561E+01   9.2184E-06  0.0139
   2.3561E+01   2.4134E+01   8.0086E-06  0.0148
   2.4134E+01   2.4721E+01   7.1644E-06  0.0154
   2.4721E+01   2.5323E+01   6.0832E-06  0.0165
   2.5323E+01   2.5939E+01   5.2311E-06  0.0176
   2.5939E+01   2.6570E+01   4.4049E-06  0.0190
   2.6570E+01   2.7217E+01   3.4510E-06  0.0212
   2.7217E+01   2.7879E+01   2.6548E-06  0.0239
   2.7879E+01   2.8557E+01   1.9018E-06  0.0278
   2.8557E+01   2.9252E+01   1.1600E-06  0.0352
   2.9252E+01   2.9964E+01   7.7699E-07  0.0425
   2.9964E+01   3.0693E+01   3.1960E-07  0.0655
   3.0693E+01   3.1440E+01   1.3391E-07  0.1000
   3.1440E+01   3.2205E+01   2.3531E-08  0.2357
   3.2205E+01   3.2988E+01   1.1486E-08  0.3333
   3.2988E+01   3.3791E+01   1.1213E-08  0.3333
   3.3791E+01   3.4613E+01   4.8653E-09  0.5000
   3.4613E+01   3.5455E+01   1.1874E-09  1.0000
   3.5455E+01   3.6318E+01   0.0000E+00  0.0000
   3.6318E+01   3.7201E+01   1.1317E-09  1.0000
   3.7201E+01   3.8106E+01   0.0000E+00  0.0000
   3.8106E+01   3.9034E+01   0.0000E+00  0.0000
   3.9034E+01   3.9983E+01   0.0000E+00  0.0000
   3.9983E+01   4.0956E+01   0.0000E+00  0.0000
   4.0956E+01   4.1953E+01   0.0000E+00  0.0000
   4.1953E+01   4.2973E+01   0.0000E+00  0.0000
   4.2973E+01   4.4019E+01   0.0000E+00  0.0000
   4.4019E+01   4.5090E+01   0.0000E+00  0.0000
   4.5090E+01   4.6187E+01   0.0000E+00  0.0000
   4.6187E+01   4.7311E+01   0.0000E+00  0.0000
   4.7311E+01   4.8462E+01   0.0000E+00  0.0000
   4.8462E+01   4.9641E+01   0.0000E+00  0.0000
   4.9641E+01   5.0849E+01   0.0000E+00  0.0000
   5.0849E+01   5.2086E+01   0.0000E+00  0.0000
   5.2086E+01   5.3353E+01   0.0000E+00  0.0000
   5.3353E+01   5.4651E+01   0.0000E+00  0.0000
   5.4651E+01   5.5981E+01   0.0000E+00  0.0000
   5.5981E+01   5.7343E+01   0.0000E+00  0.0000
   5.7343E+01   5.8738E+01   0.0000E+00  0.0000
   5.8738E+01   6.0168E+01   0.0000E+00  0.0000
   6.0168E+01   6.1632E+01   0.0000E+00  0.0000
   6.1632E+01   6.3131E+01   0.0000E+00  0.0000
   6.3131E+01   6.4667E+01   0.0000E+00  0.0000
   6.4667E+01   6.6240E+01   0.0000E+00  0.0000
   6.6240E+01   6.7852E+01   0.0000E+00  0.0000
   6.7852E+01   6.9503E+01   0.0000E+00  0.0000
   6.9503E+01   7.1194E+01   0.0000E+00  0.0000
   7.1194E+01   7.2926E+01   0.0000E+00  0.0000
   7.2926E+01   7.4701E+01   0.0000E+00  0.0000
   7.4701E+01   7.6518E+01   0.0000E+00  0.0000
   7.6518E+01   7.8380E+01   0.0000E+00  0.0000
   7.8380E+01   8.0287E+01   0.0000E+00  0.0000
   8.0287E+01   8.2240E+01   0.0000E+00  0.0000
   8.2240E+01   8.4241E+01   0.0000E+00  0.0000
   8.4241E+01   8.6291E+01   0.0000E+00  0.0000
   8.6291E+01   8.8391E+01   0.0000E+00  0.0000
   8.8391E+01   9.0541E+01   0.0000E+00  0.0000
   9.0541E+01   9.2744E+01   0.0000E+00  0.0000
   9.2744E+01   9.5001E+01   0.0000E+00  0.0000
   9.5001E+01   9.7312E+01   0.0000E+00  0.0000
   9.7312E+01   9.9680E+01   0.0000E+00  0.0000
   9.9680E+01   1.0211E+02   0.0000E+00  0.0000
   1.0211E+02   1.0459E+02   0.0000E+00  0.0000
   1.0459E+02   1.0713E+02   0.0000E+00  0.0000
   1.0713E+02   1.0974E+02   0.0000E+00  0.0000
   1.0974E+02   1.1241E+02   0.0000E+00  0.0000
   1.1241E+02   1.1515E+02   0.0000E+00  0.0000
   1.1515E+02   1.1795E+02   0.0000E+00  0.0000
   1.1795E+02   1.2082E+02   0.0000E+00  0.0000
   1.2082E+02   1.2376E+02   0.0000E+00  0.0000
   1.2376E+02   1.2677E+02   0.0000E+00  0.0000
   1.2677E+02   1.2985E+02   0.0000E+00  0.0000
   1.2985E+02   1.3301E+02   0.0000E+00  0.0000
   1.3301E+02   1.3625E+02   0.0000E+00  0.0000
   1.3625E+02   1.3956E+02   0.0000E+00  0.0000
   1.3956E+02   1.4296E+02   0.0000E+00  0.0000
   1.4296E+02   1.4644E+02   0.0000E+00  0.0000
   1.4644E+02   1.5000E+02   0.0000E+00  0.0000

#   sum over                 1.2323E-05
'no. =    1   reg = 115 - 215'
msuc: {\huge [t-cross] in region mesh}
msdr: {\it plotted by \ANGEL \version}
msdl: {\it calculated by \PHITS  3.26}
wt: s(0.7)
\vspace{-3}
  region surface crossing
  area  &=&   1.0000E+00 [cm^2]
e:
 
# Information for Restart Calculation
# This calculation was newly started
# istdev =  2 # 1:Batch variance, 2:History variance
# resc2  = 1.00000000000000000E+09 # Total source weight or Total source weight / maxcas
# resc3  = 1.00000000000000000E+09 # Total history number or Total batch number
# maxcas =   500000000 # History / Batch, only used for istdev=1
# bitrseed = 0001001110011001001001110000100100110111001111011100001000101100 # bit data of rseed
