[ T-Cross ]
    title = [t-cross] in region mesh
     mesh =  reg            # mesh type is region-wise
      reg =    1            # number of crossing regions
      non     r-from    r-to       area
      1       125       225        1.000000    
   e-type =    3            # e-mesh is log given by emin, emax and ne
     emin =  1.0000000E-02  # minimum value of e-mesh points
     emax =   150.0000      # maximum value of e-mesh points
#    edel =  2.4039514E-02  # mesh width of e-mesh points
       ne =    400          # number of e-mesh points
#    data = ( e(i), i = 1, ne + 1 )
#           1.00000E-02  1.02433E-02  1.04925E-02  1.07478E-02  1.10093E-02
#           1.12772E-02  1.15516E-02  1.18326E-02  1.21205E-02  1.24154E-02
#           1.27175E-02  1.30269E-02  1.33439E-02  1.36686E-02  1.40011E-02
#           1.43418E-02  1.46907E-02  1.50482E-02  1.54143E-02  1.57894E-02
#           1.61735E-02  1.65670E-02  1.69701E-02  1.73830E-02  1.78060E-02
#           1.82392E-02  1.86830E-02  1.91375E-02  1.96032E-02  2.00801E-02
#           2.05687E-02  2.10692E-02  2.15818E-02  2.21069E-02  2.26448E-02
#           2.31957E-02  2.37601E-02  2.43382E-02  2.49304E-02  2.55369E-02
#           2.61583E-02  2.67947E-02  2.74467E-02  2.81145E-02  2.87985E-02
#           2.94992E-02  3.02169E-02  3.09521E-02  3.17052E-02  3.24766E-02
#           3.32668E-02  3.40762E-02  3.49053E-02  3.57546E-02  3.66246E-02
#           3.75157E-02  3.84284E-02  3.93634E-02  4.03212E-02  4.13022E-02
#           4.23071E-02  4.33365E-02  4.43909E-02  4.54710E-02  4.65773E-02
#           4.77106E-02  4.88714E-02  5.00605E-02  5.12785E-02  5.25262E-02
#           5.38042E-02  5.51133E-02  5.64542E-02  5.78278E-02  5.92348E-02
#           6.06760E-02  6.21523E-02  6.36645E-02  6.52135E-02  6.68002E-02
#           6.84255E-02  7.00904E-02  7.17957E-02  7.35426E-02  7.53319E-02
#           7.71648E-02  7.90423E-02  8.09655E-02  8.29354E-02  8.49533E-02
#           8.70203E-02  8.91376E-02  9.13064E-02  9.35279E-02  9.58035E-02
#           9.81345E-02  1.00522E-01  1.02968E-01  1.05473E-01  1.08040E-01
#           1.10668E-01  1.13361E-01  1.16119E-01  1.18944E-01  1.21838E-01
#           1.24803E-01  1.27839E-01  1.30950E-01  1.34136E-01  1.37399E-01
#           1.40742E-01  1.44167E-01  1.47675E-01  1.51268E-01  1.54948E-01
#           1.58718E-01  1.62580E-01  1.66535E-01  1.70587E-01  1.74738E-01
#           1.78989E-01  1.83344E-01  1.87805E-01  1.92375E-01  1.97055E-01
#           2.01850E-01  2.06761E-01  2.11792E-01  2.16945E-01  2.22223E-01
#           2.27630E-01  2.33169E-01  2.38842E-01  2.44653E-01  2.50605E-01
#           2.56703E-01  2.62949E-01  2.69346E-01  2.75900E-01  2.82613E-01
#           2.89489E-01  2.96532E-01  3.03747E-01  3.11138E-01  3.18708E-01
#           3.26462E-01  3.34405E-01  3.42542E-01  3.50876E-01  3.59413E-01
#           3.68158E-01  3.77116E-01  3.86291E-01  3.95690E-01  4.05317E-01
#           4.15179E-01  4.25281E-01  4.35628E-01  4.46227E-01  4.57084E-01
#           4.68205E-01  4.79597E-01  4.91266E-01  5.03219E-01  5.15463E-01
#           5.28005E-01  5.40851E-01  5.54011E-01  5.67490E-01  5.81298E-01
#           5.95441E-01  6.09929E-01  6.24769E-01  6.39970E-01  6.55541E-01
#           6.71491E-01  6.87828E-01  7.04564E-01  7.21706E-01  7.39266E-01
#           7.57253E-01  7.75678E-01  7.94551E-01  8.13883E-01  8.33685E-01
#           8.53969E-01  8.74747E-01  8.96030E-01  9.17831E-01  9.40163E-01
#           9.63038E-01  9.86469E-01  1.01047E+00  1.03506E+00  1.06024E+00
#           1.08604E+00  1.11246E+00  1.13953E+00  1.16725E+00  1.19565E+00
#           1.22474E+00  1.25454E+00  1.28507E+00  1.31633E+00  1.34836E+00
#           1.38117E+00  1.41477E+00  1.44920E+00  1.48446E+00  1.52057E+00
#           1.55757E+00  1.59547E+00  1.63429E+00  1.67405E+00  1.71478E+00
#           1.75650E+00  1.79924E+00  1.84302E+00  1.88786E+00  1.93379E+00
#           1.98084E+00  2.02904E+00  2.07841E+00  2.12898E+00  2.18078E+00
#           2.23384E+00  2.28819E+00  2.34386E+00  2.40089E+00  2.45930E+00
#           2.51914E+00  2.58043E+00  2.64322E+00  2.70753E+00  2.77341E+00
#           2.84088E+00  2.91001E+00  2.98081E+00  3.05333E+00  3.12762E+00
#           3.20372E+00  3.28167E+00  3.36152E+00  3.44330E+00  3.52708E+00
#           3.61290E+00  3.70080E+00  3.79085E+00  3.88308E+00  3.97756E+00
#           4.07434E+00  4.17347E+00  4.27501E+00  4.37903E+00  4.48557E+00
#           4.59471E+00  4.70650E+00  4.82102E+00  4.93832E+00  5.05847E+00
#           5.18155E+00  5.30762E+00  5.43676E+00  5.56904E+00  5.70453E+00
#           5.84333E+00  5.98550E+00  6.13114E+00  6.28031E+00  6.43312E+00
#           6.58964E+00  6.74997E+00  6.91420E+00  7.08243E+00  7.25475E+00
#           7.43126E+00  7.61207E+00  7.79728E+00  7.98700E+00  8.18133E+00
#           8.38038E+00  8.58428E+00  8.79315E+00  9.00709E+00  9.22624E+00
#           9.45072E+00  9.68067E+00  9.91620E+00  1.01575E+01  1.04046E+01
#           1.06578E+01  1.09171E+01  1.11827E+01  1.14548E+01  1.17335E+01
#           1.20190E+01  1.23114E+01  1.26109E+01  1.29178E+01  1.32321E+01
#           1.35540E+01  1.38838E+01  1.42216E+01  1.45676E+01  1.49221E+01
#           1.52851E+01  1.56570E+01  1.60380E+01  1.64282E+01  1.68279E+01
#           1.72374E+01  1.76568E+01  1.80864E+01  1.85264E+01  1.89772E+01
#           1.94389E+01  1.99119E+01  2.03963E+01  2.08926E+01  2.14009E+01
#           2.19216E+01  2.24550E+01  2.30014E+01  2.35610E+01  2.41343E+01
#           2.47215E+01  2.53230E+01  2.59391E+01  2.65702E+01  2.72167E+01
#           2.78789E+01  2.85572E+01  2.92520E+01  2.99637E+01  3.06928E+01
#           3.14396E+01  3.22045E+01  3.29881E+01  3.37907E+01  3.46128E+01
#           3.54550E+01  3.63177E+01  3.72013E+01  3.81064E+01  3.90336E+01
#           3.99833E+01  4.09561E+01  4.19526E+01  4.29734E+01  4.40189E+01
#           4.50900E+01  4.61870E+01  4.73108E+01  4.84619E+01  4.96410E+01
#           5.08488E+01  5.20860E+01  5.33533E+01  5.46514E+01  5.59812E+01
#           5.73432E+01  5.87384E+01  6.01676E+01  6.16315E+01  6.31311E+01
#           6.46671E+01  6.62405E+01  6.78522E+01  6.95031E+01  7.11941E+01
#           7.29263E+01  7.47007E+01  7.65182E+01  7.83800E+01  8.02870E+01
#           8.22405E+01  8.42414E+01  8.62911E+01  8.83906E+01  9.05412E+01
#           9.27442E+01  9.50007E+01  9.73122E+01  9.96799E+01  1.02105E+02
#           1.04589E+02  1.07134E+02  1.09741E+02  1.12411E+02  1.15146E+02
#           1.17948E+02  1.20817E+02  1.23757E+02  1.26768E+02  1.29852E+02
#           1.33012E+02  1.36248E+02  1.39563E+02  1.42959E+02  1.46437E+02
#           1.50000E+02
     unit =    2            # unit is [1/cm^2/(MeV/n)/source]
     axis =  eng            # axis of output
     file = detector-26.out  # file name of output for the above axis
   output = f-curr          # surface crossing forward current spectrum
     part =  neutron  
# kf/name :  2112     
#    used :        main (  %)        temp (  %)       total (  %)
#  memory :         414 (  0)           0 (  0)         414 (  0)

#------------------------------------------------------------------------------
#newpage:
#   no. =    1   reg = 125 - 225

x: Energy [MeV/n]
y:  F-Curr [1/cm^2/(MeV/n)/source]         
p: xlog ylog afac(0.8) form(0.9)
h: n            x            y(neutron ),hh0l   n 
#  e-lower      e-upper      neutron     r.err 
   1.0000E-02   1.0243E-02   2.9921E-04  0.0524
   1.0243E-02   1.0493E-02   3.1457E-04  0.0505
   1.0493E-02   1.0748E-02   2.9770E-04  0.0513
   1.0748E-02   1.1009E-02   3.2887E-04  0.0482
   1.1009E-02   1.1277E-02   3.3076E-04  0.0475
   1.1277E-02   1.1552E-02   2.8719E-04  0.0504
   1.1552E-02   1.1833E-02   3.1808E-04  0.0473
   1.1833E-02   1.2121E-02   3.2095E-04  0.0465
   1.2121E-02   1.2415E-02   3.4656E-04  0.0442
   1.2415E-02   1.2718E-02   3.5090E-04  0.0434
   1.2718E-02   1.3027E-02   3.1478E-04  0.0453
   1.3027E-02   1.3344E-02   3.3885E-04  0.0432
   1.3344E-02   1.3669E-02   3.5359E-04  0.0417
   1.3669E-02   1.4001E-02   3.4579E-04  0.0417
   1.4001E-02   1.4342E-02   3.5754E-04  0.0405
   1.4342E-02   1.4691E-02   3.3415E-04  0.0414
   1.4691E-02   1.5048E-02   3.5643E-04  0.0396
   1.5048E-02   1.5414E-02   3.1956E-04  0.0413
   1.5414E-02   1.5789E-02   3.4556E-04  0.0393
   1.5789E-02   1.6174E-02   3.5870E-04  0.0381
   1.6174E-02   1.6567E-02   3.6644E-04  0.0372
   1.6567E-02   1.6970E-02   3.5327E-04  0.0375
   1.6970E-02   1.7383E-02   3.6813E-04  0.0363
   1.7383E-02   1.7806E-02   3.5087E-04  0.0367
   1.7806E-02   1.8239E-02   3.6008E-04  0.0358
   1.8239E-02   1.8683E-02   3.6640E-04  0.0351
   1.8683E-02   1.9138E-02   3.5902E-04  0.0350
   1.9138E-02   1.9603E-02   3.5908E-04  0.0346
   1.9603E-02   2.0080E-02   3.7487E-04  0.0334
   2.0080E-02   2.0569E-02   3.7579E-04  0.0330
   2.0569E-02   2.1069E-02   3.7486E-04  0.0327
   2.1069E-02   2.1582E-02   3.8898E-04  0.0317
   2.1582E-02   2.2107E-02   3.7136E-04  0.0320
   2.2107E-02   2.2645E-02   3.9600E-04  0.0306
   2.2645E-02   2.3196E-02   4.0148E-04  0.0301
   2.3196E-02   2.3760E-02   3.7918E-04  0.0306
   2.3760E-02   2.4338E-02   3.9543E-04  0.0296
   2.4338E-02   2.4930E-02   4.0968E-04  0.0287
   2.4930E-02   2.5537E-02   4.0424E-04  0.0286
   2.5537E-02   2.6158E-02   4.0880E-04  0.0281
   2.6158E-02   2.6795E-02   4.0820E-04  0.0277
   2.6795E-02   2.7447E-02   4.3624E-04  0.0265
   2.7447E-02   2.8114E-02   4.2079E-04  0.0267
   2.8114E-02   2.8799E-02   4.1927E-04  0.0264
   2.8799E-02   2.9499E-02   4.2986E-04  0.0258
   2.9499E-02   3.0217E-02   4.1101E-04  0.0260
   3.0217E-02   3.0952E-02   4.1540E-04  0.0256
   3.0952E-02   3.1705E-02   4.4112E-04  0.0245
   3.1705E-02   3.2477E-02   4.1171E-04  0.0251
   3.2477E-02   3.3267E-02   4.2952E-04  0.0243
   3.3267E-02   3.4076E-02   4.5070E-04  0.0234
   3.4076E-02   3.4905E-02   4.4048E-04  0.0234
   3.4905E-02   3.5755E-02   4.4414E-04  0.0230
   3.5755E-02   3.6625E-02   4.5520E-04  0.0225
   3.6625E-02   3.7516E-02   4.5494E-04  0.0222
   3.7516E-02   3.8428E-02   4.3647E-04  0.0224
   3.8428E-02   3.9363E-02   4.5540E-04  0.0217
   3.9363E-02   4.0321E-02   4.5377E-04  0.0215
   4.0321E-02   4.1302E-02   4.6440E-04  0.0210
   4.1302E-02   4.2307E-02   4.7905E-04  0.0204
   4.2307E-02   4.3337E-02   4.6805E-04  0.0204
   4.3337E-02   4.4391E-02   4.6889E-04  0.0201
   4.4391E-02   4.5471E-02   4.6905E-04  0.0199
   4.5471E-02   4.6577E-02   4.7580E-04  0.0195
   4.6577E-02   4.7711E-02   4.8250E-04  0.0191
   4.7711E-02   4.8871E-02   4.7638E-04  0.0190
   4.8871E-02   5.0061E-02   4.8491E-04  0.0186
   5.0061E-02   5.1279E-02   4.7536E-04  0.0186
   5.1279E-02   5.2526E-02   4.9389E-04  0.0180
   5.2526E-02   5.3804E-02   4.8591E-04  0.0179
   5.3804E-02   5.5113E-02   5.1852E-04  0.0172
   5.5113E-02   5.6454E-02   4.8935E-04  0.0175
   5.6454E-02   5.7828E-02   5.1530E-04  0.0168
   5.7828E-02   5.9235E-02   4.9709E-04  0.0169
   5.9235E-02   6.0676E-02   4.9402E-04  0.0168
   6.0676E-02   6.2152E-02   5.1873E-04  0.0162
   6.2152E-02   6.3665E-02   5.0654E-04  0.0162
   6.3665E-02   6.5214E-02   5.1594E-04  0.0158
   6.5214E-02   6.6800E-02   5.1289E-04  0.0157
   6.6800E-02   6.8426E-02   5.3135E-04  0.0152
   6.8426E-02   7.0090E-02   5.2581E-04  0.0151
   7.0090E-02   7.1796E-02   5.1942E-04  0.0150
   7.1796E-02   7.3543E-02   5.3674E-04  0.0146
   7.3543E-02   7.5332E-02   5.3103E-04  0.0145
   7.5332E-02   7.7165E-02   5.5290E-04  0.0141
   7.7165E-02   7.9042E-02   5.3923E-04  0.0141
   7.9042E-02   8.0965E-02   5.4483E-04  0.0138
   8.0965E-02   8.2935E-02   5.4032E-04  0.0137
   8.2935E-02   8.4953E-02   5.2808E-04  0.0137
   8.4953E-02   8.7020E-02   5.4621E-04  0.0133
   8.7020E-02   8.9138E-02   5.6488E-04  0.0129
   8.9138E-02   9.1306E-02   5.5884E-04  0.0128
   9.1306E-02   9.3528E-02   5.6501E-04  0.0126
   9.3528E-02   9.5804E-02   5.6556E-04  0.0125
   9.5804E-02   9.8134E-02   5.5831E-04  0.0124
   9.8134E-02   1.0052E-01   5.7101E-04  0.0121
   1.0052E-01   1.0297E-01   5.7339E-04  0.0119
   1.0297E-01   1.0547E-01   5.6576E-04  0.0119
   1.0547E-01   1.0804E-01   5.7485E-04  0.0116
   1.0804E-01   1.1067E-01   5.7945E-04  0.0115
   1.1067E-01   1.1336E-01   5.8812E-04  0.0112
   1.1336E-01   1.1612E-01   5.7292E-04  0.0113
   1.1612E-01   1.1894E-01   5.9209E-04  0.0109
   1.1894E-01   1.2184E-01   5.9343E-04  0.0108
   1.2184E-01   1.2480E-01   5.7846E-04  0.0108
   1.2480E-01   1.2784E-01   5.9265E-04  0.0105
   1.2784E-01   1.3095E-01   5.9535E-04  0.0104
   1.3095E-01   1.3414E-01   5.9515E-04  0.0103
   1.3414E-01   1.3740E-01   5.9008E-04  0.0102
   1.3740E-01   1.4074E-01   5.9796E-04  0.0100
   1.4074E-01   1.4417E-01   5.9357E-04  0.0099
   1.4417E-01   1.4767E-01   5.9811E-04  0.0098
   1.4767E-01   1.5127E-01   6.0556E-04  0.0096
   1.5127E-01   1.5495E-01   5.9927E-04  0.0095
   1.5495E-01   1.5872E-01   6.1708E-04  0.0093
   1.5872E-01   1.6258E-01   6.0191E-04  0.0093
   1.6258E-01   1.6654E-01   6.0551E-04  0.0091
   1.6654E-01   1.7059E-01   6.0166E-04  0.0091
   1.7059E-01   1.7474E-01   6.0262E-04  0.0089
   1.7474E-01   1.7899E-01   6.0896E-04  0.0088
   1.7899E-01   1.8334E-01   6.0368E-04  0.0087
   1.8334E-01   1.8781E-01   6.0210E-04  0.0086
   1.8781E-01   1.9237E-01   6.0300E-04  0.0085
   1.9237E-01   1.9706E-01   6.0368E-04  0.0084
   1.9706E-01   2.0185E-01   6.0177E-04  0.0083
   2.0185E-01   2.0676E-01   6.0051E-04  0.0082
   2.0676E-01   2.1179E-01   5.9563E-04  0.0082
   2.1179E-01   2.1694E-01   6.0616E-04  0.0080
   2.1694E-01   2.2222E-01   6.0025E-04  0.0079
   2.2222E-01   2.2763E-01   5.9887E-04  0.0079
   2.2763E-01   2.3317E-01   5.9497E-04  0.0078
   2.3317E-01   2.3884E-01   5.9501E-04  0.0077
   2.3884E-01   2.4465E-01   5.9316E-04  0.0076
   2.4465E-01   2.5061E-01   5.9792E-04  0.0075
   2.5061E-01   2.5670E-01   5.9163E-04  0.0074
   2.5670E-01   2.6295E-01   5.9125E-04  0.0074
   2.6295E-01   2.6935E-01   5.9040E-04  0.0073
   2.6935E-01   2.7590E-01   5.8849E-04  0.0072
   2.7590E-01   2.8261E-01   5.8293E-04  0.0071
   2.8261E-01   2.8949E-01   5.8422E-04  0.0071
   2.8949E-01   2.9653E-01   5.7704E-04  0.0070
   2.9653E-01   3.0375E-01   5.7002E-04  0.0070
   3.0375E-01   3.1114E-01   5.7907E-04  0.0068
   3.1114E-01   3.1871E-01   5.7562E-04  0.0068
   3.1871E-01   3.2646E-01   5.6716E-04  0.0067
   3.2646E-01   3.3441E-01   5.6089E-04  0.0067
   3.3441E-01   3.4254E-01   5.5418E-04  0.0067
   3.4254E-01   3.5088E-01   5.5261E-04  0.0066
   3.5088E-01   3.5941E-01   5.5493E-04  0.0065
   3.5941E-01   3.6816E-01   5.4262E-04  0.0065
   3.6816E-01   3.7712E-01   5.3689E-04  0.0064
   3.7712E-01   3.8629E-01   5.4135E-04  0.0063
   3.8629E-01   3.9569E-01   5.3543E-04  0.0063
   3.9569E-01   4.0532E-01   5.2708E-04  0.0063
   4.0532E-01   4.1518E-01   5.2056E-04  0.0062
   4.1518E-01   4.2528E-01   5.2007E-04  0.0062
   4.2528E-01   4.3563E-01   5.0965E-04  0.0062
   4.3563E-01   4.4623E-01   5.0187E-04  0.0061
   4.4623E-01   4.5708E-01   5.0368E-04  0.0060
   4.5708E-01   4.6821E-01   4.9178E-04  0.0060
   4.6821E-01   4.7960E-01   4.8514E-04  0.0060
   4.7960E-01   4.9127E-01   4.7672E-04  0.0060
   4.9127E-01   5.0322E-01   4.7610E-04  0.0059
   5.0322E-01   5.1546E-01   4.6545E-04  0.0059
   5.1546E-01   5.2800E-01   4.6064E-04  0.0059
   5.2800E-01   5.4085E-01   4.5412E-04  0.0059
   5.4085E-01   5.5401E-01   4.4469E-04  0.0058
   5.5401E-01   5.6749E-01   4.3773E-04  0.0058
   5.6749E-01   5.8130E-01   4.3181E-04  0.0058
   5.8130E-01   5.9544E-01   4.1691E-04  0.0058
   5.9544E-01   6.0993E-01   4.1262E-04  0.0058
   6.0993E-01   6.2477E-01   4.0658E-04  0.0058
   6.2477E-01   6.3997E-01   4.0456E-04  0.0057
   6.3997E-01   6.5554E-01   3.8963E-04  0.0057
   6.5554E-01   6.7149E-01   3.7880E-04  0.0058
   6.7149E-01   6.8783E-01   3.6962E-04  0.0058
   6.8783E-01   7.0456E-01   3.5852E-04  0.0058
   7.0456E-01   7.2171E-01   3.4859E-04  0.0058
   7.2171E-01   7.3927E-01   3.4297E-04  0.0058
   7.3927E-01   7.5725E-01   3.3298E-04  0.0058
   7.5725E-01   7.7568E-01   3.2236E-04  0.0058
   7.7568E-01   7.9455E-01   3.1457E-04  0.0058
   7.9455E-01   8.1388E-01   3.0247E-04  0.0058
   8.1388E-01   8.3368E-01   2.8971E-04  0.0059
   8.3368E-01   8.5397E-01   2.7972E-04  0.0059
   8.5397E-01   8.7475E-01   2.7104E-04  0.0060
   8.7475E-01   8.9603E-01   2.5820E-04  0.0060
   8.9603E-01   9.1783E-01   2.4810E-04  0.0061
   9.1783E-01   9.4016E-01   2.3654E-04  0.0062
   9.4016E-01   9.6304E-01   2.2208E-04  0.0063
   9.6304E-01   9.8647E-01   2.1185E-04  0.0063
   9.8647E-01   1.0105E+00   2.0280E-04  0.0064
   1.0105E+00   1.0351E+00   1.9858E-04  0.0064
   1.0351E+00   1.0602E+00   1.9833E-04  0.0063
   1.0602E+00   1.0860E+00   1.9748E-04  0.0063
   1.0860E+00   1.1125E+00   1.9808E-04  0.0062
   1.1125E+00   1.1395E+00   1.9682E-04  0.0061
   1.1395E+00   1.1673E+00   1.9668E-04  0.0061
   1.1673E+00   1.1957E+00   1.9775E-04  0.0060
   1.1957E+00   1.2247E+00   2.0079E-04  0.0059
   1.2247E+00   1.2545E+00   1.9552E-04  0.0059
   1.2545E+00   1.2851E+00   1.9272E-04  0.0058
   1.2851E+00   1.3163E+00   1.9020E-04  0.0058
   1.3163E+00   1.3484E+00   1.9037E-04  0.0057
   1.3484E+00   1.3812E+00   1.8648E-04  0.0057
   1.3812E+00   1.4148E+00   1.8728E-04  0.0056
   1.4148E+00   1.4492E+00   1.8318E-04  0.0056
   1.4492E+00   1.4845E+00   1.7962E-04  0.0056
   1.4845E+00   1.5206E+00   1.7404E-04  0.0056
   1.5206E+00   1.5576E+00   1.6966E-04  0.0056
   1.5576E+00   1.5955E+00   1.6518E-04  0.0057
   1.5955E+00   1.6343E+00   1.6090E-04  0.0057
   1.6343E+00   1.6741E+00   1.5775E-04  0.0056
   1.6741E+00   1.7148E+00   1.5755E-04  0.0056
   1.7148E+00   1.7565E+00   1.5230E-04  0.0056
   1.7565E+00   1.7992E+00   1.4591E-04  0.0057
   1.7992E+00   1.8430E+00   1.4088E-04  0.0057
   1.8430E+00   1.8879E+00   1.3687E-04  0.0057
   1.8879E+00   1.9338E+00   1.3258E-04  0.0057
   1.9338E+00   1.9808E+00   1.2788E-04  0.0058
   1.9808E+00   2.0290E+00   1.2546E-04  0.0058
   2.0290E+00   2.0784E+00   1.1810E-04  0.0059
   2.0784E+00   2.1290E+00   1.1367E-04  0.0059
   2.1290E+00   2.1808E+00   1.0846E-04  0.0060
   2.1808E+00   2.2338E+00   1.0137E-04  0.0061
   2.2338E+00   2.2882E+00   9.8313E-05  0.0061
   2.2882E+00   2.3439E+00   9.3308E-05  0.0062
   2.3439E+00   2.4009E+00   8.9831E-05  0.0063
   2.4009E+00   2.4593E+00   8.5580E-05  0.0063
   2.4593E+00   2.5191E+00   8.0539E-05  0.0064
   2.5191E+00   2.5804E+00   7.6264E-05  0.0065
   2.5804E+00   2.6432E+00   7.1251E-05  0.0067
   2.6432E+00   2.7075E+00   6.6822E-05  0.0068
   2.7075E+00   2.7734E+00   6.2350E-05  0.0070
   2.7734E+00   2.8409E+00   5.8344E-05  0.0071
   2.8409E+00   2.9100E+00   5.5665E-05  0.0072
   2.9100E+00   2.9808E+00   5.2475E-05  0.0073
   2.9808E+00   3.0533E+00   4.8639E-05  0.0075
   3.0533E+00   3.1276E+00   4.5347E-05  0.0077
   3.1276E+00   3.2037E+00   4.2446E-05  0.0079
   3.2037E+00   3.2817E+00   3.9238E-05  0.0081
   3.2817E+00   3.3615E+00   3.6175E-05  0.0083
   3.3615E+00   3.4433E+00   3.3944E-05  0.0085
   3.4433E+00   3.5271E+00   3.1540E-05  0.0087
   3.5271E+00   3.6129E+00   2.8465E-05  0.0090
   3.6129E+00   3.7008E+00   2.6278E-05  0.0093
   3.7008E+00   3.7908E+00   2.4213E-05  0.0096
   3.7908E+00   3.8831E+00   2.2653E-05  0.0098
   3.8831E+00   3.9776E+00   2.0589E-05  0.0101
   3.9776E+00   4.0743E+00   1.8963E-05  0.0104
   4.0743E+00   4.1735E+00   1.7322E-05  0.0108
   4.1735E+00   4.2750E+00   1.5627E-05  0.0112
   4.2750E+00   4.3790E+00   1.4198E-05  0.0116
   4.3790E+00   4.4856E+00   1.3202E-05  0.0119
   4.4856E+00   4.5947E+00   1.1866E-05  0.0124
   4.5947E+00   4.7065E+00   1.0589E-05  0.0130
   4.7065E+00   4.8210E+00   9.5465E-06  0.0135
   4.8210E+00   4.9383E+00   8.3666E-06  0.0143
   4.9383E+00   5.0585E+00   7.8333E-06  0.0146
   5.0585E+00   5.1815E+00   7.0168E-06  0.0152
   5.1815E+00   5.3076E+00   6.2774E-06  0.0159
   5.3076E+00   5.4368E+00   5.8279E-06  0.0163
   5.4368E+00   5.5690E+00   5.1829E-06  0.0171
   5.5690E+00   5.7045E+00   4.6067E-06  0.0179
   5.7045E+00   5.8433E+00   4.1226E-06  0.0187
   5.8433E+00   5.9855E+00   3.6842E-06  0.0195
   5.9855E+00   6.1311E+00   3.4244E-06  0.0200
   6.1311E+00   6.2803E+00   3.0756E-06  0.0209
   6.2803E+00   6.4331E+00   2.6747E-06  0.0221
   6.4331E+00   6.5896E+00   2.4290E-06  0.0229
   6.5896E+00   6.7500E+00   2.1780E-06  0.0239
   6.7500E+00   6.9142E+00   1.8961E-06  0.0253
   6.9142E+00   7.0824E+00   1.7030E-06  0.0264
   7.0824E+00   7.2548E+00   1.5918E-06  0.0270
   7.2548E+00   7.4313E+00   1.4152E-06  0.0283
   7.4313E+00   7.6121E+00   1.3893E-06  0.0282
   7.6121E+00   7.7973E+00   1.2429E-06  0.0295
   7.7973E+00   7.9870E+00   1.0479E-06  0.0317
   7.9870E+00   8.1813E+00   8.8149E-07  0.0342
   8.1813E+00   8.3804E+00   8.4548E-07  0.0345
   8.3804E+00   8.5843E+00   7.7979E-07  0.0354
   8.5843E+00   8.7931E+00   7.2344E-07  0.0364
   8.7931E+00   9.0071E+00   6.1091E-07  0.0391
   9.0071E+00   9.2262E+00   5.5670E-07  0.0404
   9.2262E+00   9.4507E+00   4.7042E-07  0.0435
   9.4507E+00   9.6807E+00   4.4794E-07  0.0440
   9.6807E+00   9.9162E+00   4.2286E-07  0.0447
   9.9162E+00   1.0157E+01   3.9499E-07  0.0457
   1.0157E+01   1.0405E+01   3.7428E-07  0.0464
   1.0405E+01   1.0658E+01   3.1799E-07  0.0497
   1.0658E+01   1.0917E+01   2.8074E-07  0.0522
   1.0917E+01   1.1183E+01   2.6052E-07  0.0536
   1.1183E+01   1.1455E+01   2.5801E-07  0.0531
   1.1455E+01   1.1733E+01   2.0308E-07  0.0593
   1.1733E+01   1.2019E+01   2.1472E-07  0.0568
   1.2019E+01   1.2311E+01   1.8671E-07  0.0602
   1.2311E+01   1.2611E+01   1.7393E-07  0.0617
   1.2611E+01   1.2918E+01   1.6654E-07  0.0623
   1.2918E+01   1.3232E+01   1.5622E-07  0.0634
   1.3232E+01   1.3554E+01   1.4319E-07  0.0656
   1.3554E+01   1.3884E+01   1.2887E-07  0.0684
   1.3884E+01   1.4222E+01   1.4446E-07  0.0639
   1.4222E+01   1.4568E+01   1.1502E-07  0.0708
   1.4568E+01   1.4922E+01   1.2640E-07  0.0667
   1.4922E+01   1.5285E+01   1.0411E-07  0.0725
   1.5285E+01   1.5657E+01   1.1078E-07  0.0696
   1.5657E+01   1.6038E+01   1.0316E-07  0.0711
   1.6038E+01   1.6428E+01   8.3031E-08  0.0783
   1.6428E+01   1.6828E+01   7.6305E-08  0.0809
   1.6828E+01   1.7237E+01   7.3516E-08  0.0814
   1.7237E+01   1.7657E+01   8.4168E-08  0.0751
   1.7657E+01   1.8086E+01   6.6340E-08  0.0837
   1.8086E+01   1.8526E+01   6.4310E-08  0.0840
   1.8526E+01   1.8977E+01   6.1895E-08  0.0846
   1.8977E+01   1.9439E+01   5.6527E-08  0.0875
   1.9439E+01   1.9912E+01   5.4127E-08  0.0884
   1.9912E+01   2.0396E+01   5.1603E-08  0.0894
   2.0396E+01   2.0893E+01   5.5213E-08  0.0854
   2.0893E+01   2.1401E+01   4.7213E-08  0.0913
   2.1401E+01   2.1922E+01   3.3416E-08  0.1072
   2.1922E+01   2.2455E+01   3.2623E-08  0.1072
   2.2455E+01   2.3001E+01   3.1116E-08  0.1085
   2.3001E+01   2.3561E+01   3.0734E-08  0.1078
   2.3561E+01   2.4134E+01   2.7562E-08  0.1125
   2.4134E+01   2.4721E+01   2.4864E-08  0.1170
   2.4721E+01   2.5323E+01   2.2278E-08  0.1222
   2.5323E+01   2.5939E+01   2.0775E-08  0.1250
   2.5939E+01   2.6570E+01   1.9014E-08  0.1291
   2.6570E+01   2.7217E+01   1.6397E-08  0.1374
   2.7217E+01   2.7879E+01   1.5403E-08  0.1400
   2.7879E+01   2.8557E+01   1.3858E-08  0.1459
   2.8557E+01   2.9252E+01   1.4104E-08  0.1429
   2.9252E+01   2.9964E+01   1.1240E-08  0.1581
   2.9964E+01   3.0693E+01   6.8583E-09  0.2000
   3.0693E+01   3.1440E+01   1.1248E-08  0.1543
   3.1440E+01   3.2205E+01   6.5364E-09  0.2000
   3.2205E+01   3.2988E+01   5.8706E-09  0.2085
   3.2988E+01   3.3791E+01   4.9836E-09  0.2236
   3.3791E+01   3.4613E+01   3.8922E-09  0.2500
   3.4613E+01   3.5455E+01   4.2747E-09  0.2357
   3.5455E+01   3.6318E+01   3.0140E-09  0.2774
   3.6318E+01   3.7201E+01   1.3580E-09  0.4082
   3.7201E+01   3.8106E+01   2.8725E-09  0.2774
   3.8106E+01   3.9034E+01   1.0786E-09  0.4472
   3.9034E+01   3.9983E+01   1.8953E-09  0.3333
   3.9983E+01   4.0956E+01   1.0279E-09  0.4472
   4.0956E+01   4.1953E+01   6.0211E-10  0.5774
   4.1953E+01   4.2973E+01   5.8781E-10  0.5774
   4.2973E+01   4.4019E+01   1.9128E-10  1.0000
   4.4019E+01   4.5090E+01   5.6022E-10  0.5774
   4.5090E+01   4.6187E+01   1.8230E-10  1.0000
   4.6187E+01   4.7311E+01   0.0000E+00  0.0000
   4.7311E+01   4.8462E+01   0.0000E+00  0.0000
   4.8462E+01   4.9641E+01   3.3924E-10  0.7071
   4.9641E+01   5.0849E+01   0.0000E+00  0.0000
   5.0849E+01   5.2086E+01   0.0000E+00  0.0000
   5.2086E+01   5.3353E+01   0.0000E+00  0.0000
   5.3353E+01   5.4651E+01   0.0000E+00  0.0000
   5.4651E+01   5.5981E+01   0.0000E+00  0.0000
   5.5981E+01   5.7343E+01   0.0000E+00  0.0000
   5.7343E+01   5.8738E+01   0.0000E+00  0.0000
   5.8738E+01   6.0168E+01   0.0000E+00  0.0000
   6.0168E+01   6.1632E+01   0.0000E+00  0.0000
   6.1632E+01   6.3131E+01   0.0000E+00  0.0000
   6.3131E+01   6.4667E+01   0.0000E+00  0.0000
   6.4667E+01   6.6240E+01   0.0000E+00  0.0000
   6.6240E+01   6.7852E+01   0.0000E+00  0.0000
   6.7852E+01   6.9503E+01   0.0000E+00  0.0000
   6.9503E+01   7.1194E+01   0.0000E+00  0.0000
   7.1194E+01   7.2926E+01   0.0000E+00  0.0000
   7.2926E+01   7.4701E+01   0.0000E+00  0.0000
   7.4701E+01   7.6518E+01   0.0000E+00  0.0000
   7.6518E+01   7.8380E+01   0.0000E+00  0.0000
   7.8380E+01   8.0287E+01   0.0000E+00  0.0000
   8.0287E+01   8.2240E+01   0.0000E+00  0.0000
   8.2240E+01   8.4241E+01   0.0000E+00  0.0000
   8.4241E+01   8.6291E+01   0.0000E+00  0.0000
   8.6291E+01   8.8391E+01   0.0000E+00  0.0000
   8.8391E+01   9.0541E+01   0.0000E+00  0.0000
   9.0541E+01   9.2744E+01   0.0000E+00  0.0000
   9.2744E+01   9.5001E+01   0.0000E+00  0.0000
   9.5001E+01   9.7312E+01   0.0000E+00  0.0000
   9.7312E+01   9.9680E+01   0.0000E+00  0.0000
   9.9680E+01   1.0211E+02   0.0000E+00  0.0000
   1.0211E+02   1.0459E+02   0.0000E+00  0.0000
   1.0459E+02   1.0713E+02   0.0000E+00  0.0000
   1.0713E+02   1.0974E+02   0.0000E+00  0.0000
   1.0974E+02   1.1241E+02   0.0000E+00  0.0000
   1.1241E+02   1.1515E+02   0.0000E+00  0.0000
   1.1515E+02   1.1795E+02   0.0000E+00  0.0000
   1.1795E+02   1.2082E+02   0.0000E+00  0.0000
   1.2082E+02   1.2376E+02   0.0000E+00  0.0000
   1.2376E+02   1.2677E+02   0.0000E+00  0.0000
   1.2677E+02   1.2985E+02   0.0000E+00  0.0000
   1.2985E+02   1.3301E+02   0.0000E+00  0.0000
   1.3301E+02   1.3625E+02   0.0000E+00  0.0000
   1.3625E+02   1.3956E+02   0.0000E+00  0.0000
   1.3956E+02   1.4296E+02   0.0000E+00  0.0000
   1.4296E+02   1.4644E+02   0.0000E+00  0.0000
   1.4644E+02   1.5000E+02   0.0000E+00  0.0000

#   sum over                 4.9515E-06
'no. =    1   reg = 125 - 225'
msuc: {\huge [t-cross] in region mesh}
msdr: {\it plotted by \ANGEL \version}
msdl: {\it calculated by \PHITS  3.26}
wt: s(0.7)
\vspace{-3}
  region surface crossing
  area  &=&   1.0000E+00 [cm^2]
e:
 
# Information for Restart Calculation
# This calculation was newly started
# istdev =  2 # 1:Batch variance, 2:History variance
# resc2  = 5.00000000000000000E+09 # Total source weight or Total source weight / maxcas
# resc3  = 5.00000000000000000E+09 # Total history number or Total batch number
# maxcas =   500000000 # History / Batch, only used for istdev=1
# bitrseed = 0110100000100010111000001110001111001110100100011111101000111001 # bit data of rseed
