[ T-Cross ]
    title = [t-cross] in region mesh
     mesh =  reg            # mesh type is region-wise
      reg =    1            # number of crossing regions
      non     r-from    r-to       area
      1       126       226        1.000000    
   e-type =    3            # e-mesh is log given by emin, emax and ne
     emin =  1.0000000E-02  # minimum value of e-mesh points
     emax =   150.0000      # maximum value of e-mesh points
#    edel =  2.4039514E-02  # mesh width of e-mesh points
       ne =    400          # number of e-mesh points
#    data = ( e(i), i = 1, ne + 1 )
#           1.00000E-02  1.02433E-02  1.04925E-02  1.07478E-02  1.10093E-02
#           1.12772E-02  1.15516E-02  1.18326E-02  1.21205E-02  1.24154E-02
#           1.27175E-02  1.30269E-02  1.33439E-02  1.36686E-02  1.40011E-02
#           1.43418E-02  1.46907E-02  1.50482E-02  1.54143E-02  1.57894E-02
#           1.61735E-02  1.65670E-02  1.69701E-02  1.73830E-02  1.78060E-02
#           1.82392E-02  1.86830E-02  1.91375E-02  1.96032E-02  2.00801E-02
#           2.05687E-02  2.10692E-02  2.15818E-02  2.21069E-02  2.26448E-02
#           2.31957E-02  2.37601E-02  2.43382E-02  2.49304E-02  2.55369E-02
#           2.61583E-02  2.67947E-02  2.74467E-02  2.81145E-02  2.87985E-02
#           2.94992E-02  3.02169E-02  3.09521E-02  3.17052E-02  3.24766E-02
#           3.32668E-02  3.40762E-02  3.49053E-02  3.57546E-02  3.66246E-02
#           3.75157E-02  3.84284E-02  3.93634E-02  4.03212E-02  4.13022E-02
#           4.23071E-02  4.33365E-02  4.43909E-02  4.54710E-02  4.65773E-02
#           4.77106E-02  4.88714E-02  5.00605E-02  5.12785E-02  5.25262E-02
#           5.38042E-02  5.51133E-02  5.64542E-02  5.78278E-02  5.92348E-02
#           6.06760E-02  6.21523E-02  6.36645E-02  6.52135E-02  6.68002E-02
#           6.84255E-02  7.00904E-02  7.17957E-02  7.35426E-02  7.53319E-02
#           7.71648E-02  7.90423E-02  8.09655E-02  8.29354E-02  8.49533E-02
#           8.70203E-02  8.91376E-02  9.13064E-02  9.35279E-02  9.58035E-02
#           9.81345E-02  1.00522E-01  1.02968E-01  1.05473E-01  1.08040E-01
#           1.10668E-01  1.13361E-01  1.16119E-01  1.18944E-01  1.21838E-01
#           1.24803E-01  1.27839E-01  1.30950E-01  1.34136E-01  1.37399E-01
#           1.40742E-01  1.44167E-01  1.47675E-01  1.51268E-01  1.54948E-01
#           1.58718E-01  1.62580E-01  1.66535E-01  1.70587E-01  1.74738E-01
#           1.78989E-01  1.83344E-01  1.87805E-01  1.92375E-01  1.97055E-01
#           2.01850E-01  2.06761E-01  2.11792E-01  2.16945E-01  2.22223E-01
#           2.27630E-01  2.33169E-01  2.38842E-01  2.44653E-01  2.50605E-01
#           2.56703E-01  2.62949E-01  2.69346E-01  2.75900E-01  2.82613E-01
#           2.89489E-01  2.96532E-01  3.03747E-01  3.11138E-01  3.18708E-01
#           3.26462E-01  3.34405E-01  3.42542E-01  3.50876E-01  3.59413E-01
#           3.68158E-01  3.77116E-01  3.86291E-01  3.95690E-01  4.05317E-01
#           4.15179E-01  4.25281E-01  4.35628E-01  4.46227E-01  4.57084E-01
#           4.68205E-01  4.79597E-01  4.91266E-01  5.03219E-01  5.15463E-01
#           5.28005E-01  5.40851E-01  5.54011E-01  5.67490E-01  5.81298E-01
#           5.95441E-01  6.09929E-01  6.24769E-01  6.39970E-01  6.55541E-01
#           6.71491E-01  6.87828E-01  7.04564E-01  7.21706E-01  7.39266E-01
#           7.57253E-01  7.75678E-01  7.94551E-01  8.13883E-01  8.33685E-01
#           8.53969E-01  8.74747E-01  8.96030E-01  9.17831E-01  9.40163E-01
#           9.63038E-01  9.86469E-01  1.01047E+00  1.03506E+00  1.06024E+00
#           1.08604E+00  1.11246E+00  1.13953E+00  1.16725E+00  1.19565E+00
#           1.22474E+00  1.25454E+00  1.28507E+00  1.31633E+00  1.34836E+00
#           1.38117E+00  1.41477E+00  1.44920E+00  1.48446E+00  1.52057E+00
#           1.55757E+00  1.59547E+00  1.63429E+00  1.67405E+00  1.71478E+00
#           1.75650E+00  1.79924E+00  1.84302E+00  1.88786E+00  1.93379E+00
#           1.98084E+00  2.02904E+00  2.07841E+00  2.12898E+00  2.18078E+00
#           2.23384E+00  2.28819E+00  2.34386E+00  2.40089E+00  2.45930E+00
#           2.51914E+00  2.58043E+00  2.64322E+00  2.70753E+00  2.77341E+00
#           2.84088E+00  2.91001E+00  2.98081E+00  3.05333E+00  3.12762E+00
#           3.20372E+00  3.28167E+00  3.36152E+00  3.44330E+00  3.52708E+00
#           3.61290E+00  3.70080E+00  3.79085E+00  3.88308E+00  3.97756E+00
#           4.07434E+00  4.17347E+00  4.27501E+00  4.37903E+00  4.48557E+00
#           4.59471E+00  4.70650E+00  4.82102E+00  4.93832E+00  5.05847E+00
#           5.18155E+00  5.30762E+00  5.43676E+00  5.56904E+00  5.70453E+00
#           5.84333E+00  5.98550E+00  6.13114E+00  6.28031E+00  6.43312E+00
#           6.58964E+00  6.74997E+00  6.91420E+00  7.08243E+00  7.25475E+00
#           7.43126E+00  7.61207E+00  7.79728E+00  7.98700E+00  8.18133E+00
#           8.38038E+00  8.58428E+00  8.79315E+00  9.00709E+00  9.22624E+00
#           9.45072E+00  9.68067E+00  9.91620E+00  1.01575E+01  1.04046E+01
#           1.06578E+01  1.09171E+01  1.11827E+01  1.14548E+01  1.17335E+01
#           1.20190E+01  1.23114E+01  1.26109E+01  1.29178E+01  1.32321E+01
#           1.35540E+01  1.38838E+01  1.42216E+01  1.45676E+01  1.49221E+01
#           1.52851E+01  1.56570E+01  1.60380E+01  1.64282E+01  1.68279E+01
#           1.72374E+01  1.76568E+01  1.80864E+01  1.85264E+01  1.89772E+01
#           1.94389E+01  1.99119E+01  2.03963E+01  2.08926E+01  2.14009E+01
#           2.19216E+01  2.24550E+01  2.30014E+01  2.35610E+01  2.41343E+01
#           2.47215E+01  2.53230E+01  2.59391E+01  2.65702E+01  2.72167E+01
#           2.78789E+01  2.85572E+01  2.92520E+01  2.99637E+01  3.06928E+01
#           3.14396E+01  3.22045E+01  3.29881E+01  3.37907E+01  3.46128E+01
#           3.54550E+01  3.63177E+01  3.72013E+01  3.81064E+01  3.90336E+01
#           3.99833E+01  4.09561E+01  4.19526E+01  4.29734E+01  4.40189E+01
#           4.50900E+01  4.61870E+01  4.73108E+01  4.84619E+01  4.96410E+01
#           5.08488E+01  5.20860E+01  5.33533E+01  5.46514E+01  5.59812E+01
#           5.73432E+01  5.87384E+01  6.01676E+01  6.16315E+01  6.31311E+01
#           6.46671E+01  6.62405E+01  6.78522E+01  6.95031E+01  7.11941E+01
#           7.29263E+01  7.47007E+01  7.65182E+01  7.83800E+01  8.02870E+01
#           8.22405E+01  8.42414E+01  8.62911E+01  8.83906E+01  9.05412E+01
#           9.27442E+01  9.50007E+01  9.73122E+01  9.96799E+01  1.02105E+02
#           1.04589E+02  1.07134E+02  1.09741E+02  1.12411E+02  1.15146E+02
#           1.17948E+02  1.20817E+02  1.23757E+02  1.26768E+02  1.29852E+02
#           1.33012E+02  1.36248E+02  1.39563E+02  1.42959E+02  1.46437E+02
#           1.50000E+02
     unit =    2            # unit is [1/cm^2/(MeV/n)/source]
     axis =  eng            # axis of output
     file = detector-27.out  # file name of output for the above axis
   output = f-curr          # surface crossing forward current spectrum
     part =  neutron  
# kf/name :  2112     
#    used :        main (  %)        temp (  %)       total (  %)
#  memory :         414 (  0)           0 (  0)         414 (  0)

#------------------------------------------------------------------------------
#newpage:
#   no. =    1   reg = 126 - 226

x: Energy [MeV/n]
y:  F-Curr [1/cm^2/(MeV/n)/source]         
p: xlog ylog afac(0.8) form(0.9)
h: n            x            y(neutron ),hh0l   n 
#  e-lower      e-upper      neutron     r.err 
   1.0000E-02   1.0243E-02   4.2585E-05  0.1387
   1.0243E-02   1.0493E-02   4.8887E-05  0.1280
   1.0493E-02   1.0748E-02   3.5356E-05  0.1483
   1.0748E-02   1.1009E-02   3.4916E-05  0.1475
   1.1009E-02   1.1277E-02   2.9804E-05  0.1581
   1.1277E-02   1.1552E-02   3.5578E-05  0.1429
   1.1552E-02   1.1833E-02   3.6067E-05  0.1401
   1.1833E-02   1.2121E-02   3.2089E-05  0.1467
   1.2121E-02   1.2415E-02   3.4545E-05  0.1400
   1.2415E-02   1.2718E-02   2.6436E-05  0.1581
   1.2718E-02   1.3027E-02   3.4217E-05  0.1374
   1.3027E-02   1.3344E-02   2.8350E-05  0.1491
   1.3344E-02   1.3669E-02   3.6866E-05  0.1291
   1.3669E-02   1.4001E-02   2.8220E-05  0.1459
   1.4001E-02   1.4342E-02   2.6972E-05  0.1474
   1.4342E-02   1.4691E-02   2.1744E-05  0.1622
   1.4691E-02   1.5048E-02   2.8425E-05  0.1397
   1.5048E-02   1.5414E-02   2.5624E-05  0.1459
   1.5414E-02   1.5789E-02   2.6162E-05  0.1425
   1.5789E-02   1.6174E-02   2.9635E-05  0.1325
   1.6174E-02   1.6567E-02   2.2288E-05  0.1508
   1.6567E-02   1.6970E-02   2.8929E-05  0.1303
   1.6970E-02   1.7383E-02   2.5142E-05  0.1387
   1.7383E-02   1.7806E-02   1.8849E-05  0.1581
   1.7806E-02   1.8239E-02   1.8328E-05  0.1582
   1.8239E-02   1.8683E-02   2.0265E-05  0.1491
   1.8683E-02   1.9138E-02   1.9334E-05  0.1508
   1.9138E-02   1.9603E-02   2.1432E-05  0.1414
   1.9603E-02   2.0080E-02   2.2523E-05  0.1361
   2.0080E-02   2.0569E-02   1.5532E-05  0.1622
   2.0569E-02   2.1069E-02   1.5961E-05  0.1581
   2.1069E-02   2.1582E-02   2.0974E-05  0.1361
   2.1582E-02   2.2107E-02   2.2020E-05  0.1313
   2.2107E-02   2.2645E-02   1.7826E-05  0.1443
   2.2645E-02   2.3196E-02   1.9169E-05  0.1374
   2.3196E-02   2.3760E-02   1.9402E-05  0.1349
   2.3760E-02   2.4338E-02   1.9559E-05  0.1326
   2.4338E-02   2.4930E-02   1.3589E-05  0.1572
   2.4930E-02   2.5537E-02   1.4406E-05  0.1508
   2.5537E-02   2.6158E-02   1.7358E-05  0.1361
   2.6158E-02   2.6795E-02   1.6999E-05  0.1357
   2.6795E-02   2.7447E-02   1.3735E-05  0.1491
   2.7447E-02   2.8114E-02   1.4354E-05  0.1443
   2.8114E-02   2.8799E-02   1.6287E-05  0.1337
   2.8799E-02   2.9499E-02   1.4222E-05  0.1415
   2.9499E-02   3.0217E-02   1.1414E-05  0.1562
   3.0217E-02   3.0952E-02   1.7615E-05  0.1241
   3.0952E-02   3.1705E-02   1.6708E-05  0.1260
   3.1705E-02   3.2477E-02   1.4487E-05  0.1336
   3.2477E-02   3.3267E-02   1.2004E-05  0.1447
   3.3267E-02   3.4076E-02   1.5491E-05  0.1260
   3.4076E-02   3.4905E-02   1.0062E-05  0.1544
   3.4905E-02   3.5755E-02   1.1994E-05  0.1400
   3.5755E-02   3.6625E-02   1.1701E-05  0.1400
   3.6625E-02   3.7516E-02   1.0757E-05  0.1443
   3.7516E-02   3.8428E-02   1.0947E-05  0.1414
   3.8428E-02   3.9363E-02   9.8211E-06  0.1474
   3.9363E-02   4.0321E-02   1.3926E-05  0.1222
   4.0321E-02   4.1302E-02   1.1580E-05  0.1325
   4.1302E-02   4.2307E-02   1.1530E-05  0.1313
   4.2307E-02   4.3337E-02   1.0058E-05  0.1384
   4.3337E-02   4.4391E-02   1.1512E-05  0.1281
   4.4391E-02   4.5471E-02   7.9509E-06  0.1525
   4.5471E-02   4.6577E-02   1.1009E-05  0.1280
   4.6577E-02   4.7711E-02   8.9218E-06  0.1401
   4.7711E-02   4.8871E-02   1.1489E-05  0.1222
   4.8871E-02   5.0061E-02   8.5695E-06  0.1400
   5.0061E-02   5.1279E-02   8.3590E-06  0.1400
   5.1279E-02   5.2526E-02   8.7962E-06  0.1348
   5.2526E-02   5.3804E-02   8.1278E-06  0.1383
   5.3804E-02   5.5113E-02   1.0976E-05  0.1179
   5.5113E-02   5.6454E-02   7.8953E-06  0.1374
   5.6454E-02   5.7828E-02   7.5581E-06  0.1387
   5.7828E-02   5.9235E-02   6.6587E-06  0.1459
   5.9235E-02   6.0676E-02   7.4824E-06  0.1361
   6.0676E-02   6.2152E-02   9.3119E-06  0.1204
   6.2152E-02   6.3665E-02   7.1035E-06  0.1361
   6.3665E-02   6.5214E-02   8.8945E-06  0.1204
   6.5214E-02   6.6800E-02   7.9320E-06  0.1260
   6.6800E-02   6.8426E-02   5.7742E-06  0.1459
   6.8426E-02   7.0090E-02   7.7316E-06  0.1241
   7.0090E-02   7.1796E-02   8.2935E-06  0.1185
   7.1796E-02   7.3543E-02   4.8003E-06  0.1543
   7.3543E-02   7.5332E-02   6.4695E-06  0.1313
   7.5332E-02   7.7165E-02   6.1001E-06  0.1336
   7.7165E-02   7.9042E-02   5.7348E-06  0.1361
   7.9042E-02   8.0965E-02   4.6739E-06  0.1491
   8.0965E-02   8.2935E-02   6.2828E-06  0.1270
   8.2935E-02   8.4953E-02   6.4319E-06  0.1240
   8.4953E-02   8.7020E-02   6.4561E-06  0.1222
   8.7020E-02   8.9138E-02   6.6843E-06  0.1187
   8.9138E-02   9.1306E-02   5.2385E-06  0.1325
   9.1306E-02   9.3528E-02   4.4021E-06  0.1429
   9.3528E-02   9.5804E-02   5.3901E-06  0.1271
   9.5804E-02   9.8134E-02   4.7129E-06  0.1348
   9.8134E-02   1.0052E-01   6.5135E-06  0.1132
   1.0052E-01   1.0297E-01   5.2407E-06  0.1247
   1.0297E-01   1.0547E-01   4.7274E-06  0.1294
   1.0547E-01   1.0804E-01   5.6754E-06  0.1170
   1.0804E-01   1.1067E-01   5.5329E-06  0.1171
   1.1067E-01   1.1336E-01   4.5247E-06  0.1280
   1.1336E-01   1.1612E-01   5.5382E-06  0.1140
   1.1612E-01   1.1894E-01   5.5053E-06  0.1132
   1.1894E-01   1.2184E-01   7.7975E-06  0.0941
   1.2184E-01   1.2480E-01   5.9286E-06  0.1066
   1.2480E-01   1.2784E-01   6.1840E-06  0.1031
   1.2784E-01   1.3095E-01   6.8562E-06  0.0967
   1.3095E-01   1.3414E-01   6.2184E-06  0.1003
   1.3414E-01   1.3740E-01   8.4439E-06  0.0851
   1.3740E-01   1.4074E-01   6.9661E-06  0.0925
   1.4074E-01   1.4417E-01   7.5211E-06  0.0879
   1.4417E-01   1.4767E-01   8.0716E-06  0.0839
   1.4767E-01   1.5127E-01   8.2135E-06  0.0822
   1.5127E-01   1.5495E-01   8.8761E-06  0.0781
   1.5495E-01   1.5872E-01   8.4557E-06  0.0790
   1.5872E-01   1.6258E-01   9.7156E-06  0.0728
   1.6258E-01   1.6654E-01   9.0379E-06  0.0747
   1.6654E-01   1.7059E-01   9.5933E-06  0.0715
   1.7059E-01   1.7474E-01   1.0141E-05  0.0688
   1.7474E-01   1.7899E-01   9.3299E-06  0.0708
   1.7899E-01   1.8334E-01   1.0010E-05  0.0675
   1.8334E-01   1.8781E-01   1.0243E-05  0.0661
   1.8781E-01   1.9237E-01   1.1282E-05  0.0622
   1.9237E-01   1.9706E-01   1.0565E-05  0.0634
   1.9706E-01   2.0185E-01   1.1873E-05  0.0591
   2.0185E-01   2.0676E-01   1.2246E-05  0.0576
   2.0676E-01   2.1179E-01   1.2750E-05  0.0557
   2.1179E-01   2.1694E-01   1.1199E-05  0.0587
   2.1694E-01   2.2222E-01   1.1181E-05  0.0580
   2.2222E-01   2.2763E-01   1.1862E-05  0.0557
   2.2763E-01   2.3317E-01   1.2361E-05  0.0539
   2.3317E-01   2.3884E-01   1.2087E-05  0.0539
   2.3884E-01   2.4465E-01   1.4166E-05  0.0491
   2.4465E-01   2.5061E-01   1.3540E-05  0.0497
   2.5061E-01   2.5670E-01   1.3558E-05  0.0491
   2.5670E-01   2.6295E-01   1.4528E-05  0.0468
   2.6295E-01   2.6935E-01   1.4061E-05  0.0470
   2.6935E-01   2.7590E-01   1.4208E-05  0.0463
   2.7590E-01   2.8261E-01   1.4896E-05  0.0446
   2.8261E-01   2.8949E-01   1.4255E-05  0.0450
   2.8949E-01   2.9653E-01   1.4958E-05  0.0435
   2.9653E-01   3.0375E-01   1.6081E-05  0.0414
   3.0375E-01   3.1114E-01   1.5081E-05  0.0422
   3.1114E-01   3.1871E-01   1.5462E-05  0.0412
   3.1871E-01   3.2646E-01   1.6014E-05  0.0400
   3.2646E-01   3.3441E-01   1.6522E-05  0.0389
   3.3441E-01   3.4254E-01   1.6503E-05  0.0385
   3.4254E-01   3.5088E-01   1.6676E-05  0.0378
   3.5088E-01   3.5941E-01   1.7514E-05  0.0365
   3.5941E-01   3.6816E-01   1.7345E-05  0.0362
   3.6816E-01   3.7712E-01   1.6417E-05  0.0368
   3.7712E-01   3.8629E-01   1.7164E-05  0.0355
   3.8629E-01   3.9569E-01   1.7641E-05  0.0346
   3.9569E-01   4.0532E-01   1.7466E-05  0.0344
   4.0532E-01   4.1518E-01   1.8556E-05  0.0330
   4.1518E-01   4.2528E-01   1.9068E-05  0.0321
   4.2528E-01   4.3563E-01   1.7784E-05  0.0329
   4.3563E-01   4.4623E-01   1.8803E-05  0.0316
   4.4623E-01   4.5708E-01   1.8445E-05  0.0315
   4.5708E-01   4.6821E-01   1.9748E-05  0.0301
   4.6821E-01   4.7960E-01   1.9246E-05  0.0301
   4.7960E-01   4.9127E-01   1.9894E-05  0.0293
   4.9127E-01   5.0322E-01   1.8552E-05  0.0299
   5.0322E-01   5.1546E-01   1.9092E-05  0.0291
   5.1546E-01   5.2800E-01   2.0024E-05  0.0281
   5.2800E-01   5.4085E-01   1.9383E-05  0.0282
   5.4085E-01   5.5401E-01   2.0190E-05  0.0273
   5.5401E-01   5.6749E-01   1.9630E-05  0.0274
   5.6749E-01   5.8130E-01   1.9756E-05  0.0270
   5.8130E-01   5.9544E-01   1.9432E-05  0.0269
   5.9544E-01   6.0993E-01   1.9497E-05  0.0265
   6.0993E-01   6.2477E-01   1.9510E-05  0.0262
   6.2477E-01   6.3997E-01   2.0383E-05  0.0253
   6.3997E-01   6.5554E-01   1.9557E-05  0.0255
   6.5554E-01   6.7149E-01   1.9526E-05  0.0252
   6.7149E-01   6.8783E-01   1.9507E-05  0.0249
   6.8783E-01   7.0456E-01   1.8945E-05  0.0250
   7.0456E-01   7.2171E-01   1.9296E-05  0.0245
   7.2171E-01   7.3927E-01   1.8389E-05  0.0248
   7.3927E-01   7.5725E-01   1.8601E-05  0.0243
   7.5725E-01   7.7568E-01   1.7865E-05  0.0245
   7.7568E-01   7.9455E-01   1.7469E-05  0.0245
   7.9455E-01   8.1388E-01   1.7061E-05  0.0245
   8.1388E-01   8.3368E-01   1.7212E-05  0.0241
   8.3368E-01   8.5397E-01   1.7093E-05  0.0239
   8.5397E-01   8.7475E-01   1.6468E-05  0.0240
   8.7475E-01   8.9603E-01   1.6121E-05  0.0240
   8.9603E-01   9.1783E-01   1.5287E-05  0.0243
   9.1783E-01   9.4016E-01   1.5556E-05  0.0238
   9.4016E-01   9.6304E-01   1.4427E-05  0.0245
   9.6304E-01   9.8647E-01   1.4375E-05  0.0242
   9.8647E-01   1.0105E+00   1.3032E-05  0.0251
   1.0105E+00   1.0351E+00   1.3682E-05  0.0242
   1.0351E+00   1.0602E+00   1.2812E-05  0.0247
   1.0602E+00   1.0860E+00   1.3463E-05  0.0238
   1.0860E+00   1.1125E+00   1.3496E-05  0.0235
   1.1125E+00   1.1395E+00   1.2998E-05  0.0236
   1.1395E+00   1.1673E+00   1.3084E-05  0.0233
   1.1673E+00   1.1957E+00   1.2742E-05  0.0233
   1.1957E+00   1.2247E+00   1.3030E-05  0.0227
   1.2247E+00   1.2545E+00   1.2260E-05  0.0231
   1.2545E+00   1.2851E+00   1.2231E-05  0.0229
   1.2851E+00   1.3163E+00   1.3302E-05  0.0217
   1.3163E+00   1.3484E+00   1.1909E-05  0.0226
   1.3484E+00   1.3812E+00   1.2152E-05  0.0221
   1.3812E+00   1.4148E+00   1.2049E-05  0.0219
   1.4148E+00   1.4492E+00   1.1799E-05  0.0219
   1.4492E+00   1.4845E+00   1.1736E-05  0.0216
   1.4845E+00   1.5206E+00   1.1637E-05  0.0215
   1.5206E+00   1.5576E+00   1.1207E-05  0.0216
   1.5576E+00   1.5955E+00   1.1080E-05  0.0215
   1.5955E+00   1.6343E+00   1.0871E-05  0.0214
   1.6343E+00   1.6741E+00   1.0493E-05  0.0215
   1.6741E+00   1.7148E+00   1.0541E-05  0.0212
   1.7148E+00   1.7565E+00   9.9437E-06  0.0215
   1.7565E+00   1.7992E+00   9.2513E-06  0.0220
   1.7992E+00   1.8430E+00   9.1222E-06  0.0219
   1.8430E+00   1.8879E+00   8.4847E-06  0.0224
   1.8879E+00   1.9338E+00   8.1575E-06  0.0225
   1.9338E+00   1.9808E+00   8.1780E-06  0.0223
   1.9808E+00   2.0290E+00   8.0403E-06  0.0221
   2.0290E+00   2.0784E+00   7.8541E-06  0.0221
   2.0784E+00   2.1290E+00   7.8278E-06  0.0218
   2.1290E+00   2.1808E+00   7.4939E-06  0.0220
   2.1808E+00   2.2338E+00   7.7985E-06  0.0214
   2.2338E+00   2.2882E+00   7.2883E-06  0.0219
   2.2882E+00   2.3439E+00   7.3068E-06  0.0216
   2.3439E+00   2.4009E+00   6.9613E-06  0.0219
   2.4009E+00   2.4593E+00   6.9353E-06  0.0216
   2.4593E+00   2.5191E+00   6.9443E-06  0.0214
   2.5191E+00   2.5804E+00   6.8473E-06  0.0213
   2.5804E+00   2.6432E+00   6.3093E-06  0.0220
   2.6432E+00   2.7075E+00   6.1127E-06  0.0220
   2.7075E+00   2.7734E+00   5.9663E-06  0.0220
   2.7734E+00   2.8409E+00   5.8331E-06  0.0220
   2.8409E+00   2.9100E+00   5.8721E-06  0.0217
   2.9100E+00   2.9808E+00   5.6972E-06  0.0218
   2.9808E+00   3.0533E+00   5.5168E-06  0.0219
   3.0533E+00   3.1276E+00   5.1586E-06  0.0224
   3.1276E+00   3.2037E+00   5.3581E-06  0.0217
   3.2037E+00   3.2817E+00   5.0304E-06  0.0222
   3.2817E+00   3.3615E+00   5.2075E-06  0.0215
   3.3615E+00   3.4433E+00   4.8726E-06  0.0220
   3.4433E+00   3.5271E+00   4.9244E-06  0.0216
   3.5271E+00   3.6129E+00   4.6455E-06  0.0220
   3.6129E+00   3.7008E+00   4.4544E-06  0.0222
   3.7008E+00   3.7908E+00   4.4373E-06  0.0220
   3.7908E+00   3.8831E+00   4.1423E-06  0.0225
   3.8831E+00   3.9776E+00   4.1030E-06  0.0223
   3.9776E+00   4.0743E+00   4.0623E-06  0.0222
   4.0743E+00   4.1735E+00   3.6554E-06  0.0231
   4.1735E+00   4.2750E+00   3.6490E-06  0.0228
   4.2750E+00   4.3790E+00   3.6896E-06  0.0224
   4.3790E+00   4.4856E+00   3.4174E-06  0.0230
   4.4856E+00   4.5947E+00   3.4178E-06  0.0228
   4.5947E+00   4.7065E+00   3.2412E-06  0.0231
   4.7065E+00   4.8210E+00   3.2464E-06  0.0228
   4.8210E+00   4.9383E+00   3.0176E-06  0.0234
   4.9383E+00   5.0585E+00   2.8819E-06  0.0236
   5.0585E+00   5.1815E+00   2.7513E-06  0.0239
   5.1815E+00   5.3076E+00   2.6282E-06  0.0242
   5.3076E+00   5.4368E+00   2.6084E-06  0.0240
   5.4368E+00   5.5690E+00   2.6223E-06  0.0237
   5.5690E+00   5.7045E+00   2.4357E-06  0.0242
   5.7045E+00   5.8433E+00   2.2436E-06  0.0250
   5.8433E+00   5.9855E+00   2.1256E-06  0.0254
   5.9855E+00   6.1311E+00   2.1516E-06  0.0249
   6.1311E+00   6.2803E+00   1.8869E-06  0.0263
   6.2803E+00   6.4331E+00   1.7860E-06  0.0268
   6.4331E+00   6.5896E+00   1.7291E-06  0.0269
   6.5896E+00   6.7500E+00   1.5624E-06  0.0279
   6.7500E+00   6.9142E+00   1.5186E-06  0.0280
   6.9142E+00   7.0824E+00   1.3960E-06  0.0289
   7.0824E+00   7.2548E+00   1.3761E-06  0.0287
   7.2548E+00   7.4313E+00   1.2282E-06  0.0301
   7.4313E+00   7.6121E+00   1.2002E-06  0.0300
   7.6121E+00   7.7973E+00   1.0694E-06  0.0315
   7.7973E+00   7.9870E+00   1.0389E-06  0.0315
   7.9870E+00   8.1813E+00   9.0819E-07  0.0333
   8.1813E+00   8.3804E+00   8.7683E-07  0.0336
   8.3804E+00   8.5843E+00   8.9950E-07  0.0327
   8.5843E+00   8.7931E+00   8.1208E-07  0.0341
   8.7931E+00   9.0071E+00   7.4645E-07  0.0351
   9.0071E+00   9.2262E+00   7.2281E-07  0.0353
   9.2262E+00   9.4507E+00   6.6074E-07  0.0365
   9.4507E+00   9.6807E+00   5.8454E-07  0.0383
   9.6807E+00   9.9162E+00   5.5506E-07  0.0389
   9.9162E+00   1.0157E+01   5.3868E-07  0.0389
   1.0157E+01   1.0405E+01   4.8464E-07  0.0407
   1.0405E+01   1.0658E+01   4.3835E-07  0.0424
   1.0658E+01   1.0917E+01   4.2837E-07  0.0423
   1.0917E+01   1.1183E+01   4.0227E-07  0.0431
   1.1183E+01   1.1455E+01   3.7001E-07  0.0445
   1.1455E+01   1.1733E+01   3.3522E-07  0.0461
   1.1733E+01   1.2019E+01   3.4490E-07  0.0450
   1.2019E+01   1.2311E+01   2.8931E-07  0.0484
   1.2311E+01   1.2611E+01   2.7782E-07  0.0490
   1.2611E+01   1.2918E+01   2.4975E-07  0.0509
   1.2918E+01   1.3232E+01   2.2882E-07  0.0526
   1.3232E+01   1.3554E+01   2.0634E-07  0.0548
   1.3554E+01   1.3884E+01   1.9457E-07  0.0557
   1.3884E+01   1.4222E+01   1.7305E-07  0.0583
   1.4222E+01   1.4568E+01   1.6057E-07  0.0599
   1.4568E+01   1.4922E+01   1.5703E-07  0.0599
   1.4922E+01   1.5285E+01   1.3216E-07  0.0645
   1.5285E+01   1.5657E+01   1.3383E-07  0.0633
   1.5657E+01   1.6038E+01   1.1259E-07  0.0682
   1.6038E+01   1.6428E+01   9.9994E-08  0.0714
   1.6428E+01   1.6828E+01   1.0708E-07  0.0682
   1.6828E+01   1.7237E+01   8.4756E-08  0.0759
   1.7237E+01   1.7657E+01   1.0370E-07  0.0678
   1.7657E+01   1.8086E+01   7.0763E-08  0.0811
   1.8086E+01   1.8526E+01   6.1810E-08  0.0857
   1.8526E+01   1.8977E+01   5.3687E-08  0.0909
   1.8977E+01   1.9439E+01   5.5444E-08  0.0884
   1.9439E+01   1.9912E+01   4.4824E-08  0.0971
   1.9912E+01   2.0396E+01   4.5410E-08  0.0953
   2.0396E+01   2.0893E+01   4.1914E-08  0.0981
   2.0893E+01   2.1401E+01   3.8557E-08  0.1010
   2.1401E+01   2.1922E+01   3.3801E-08  0.1066
   2.1922E+01   2.2455E+01   2.3248E-08  0.1270
   2.2455E+01   2.3001E+01   2.1964E-08  0.1291
   2.3001E+01   2.3561E+01   1.8226E-08  0.1400
   2.3561E+01   2.4134E+01   2.0235E-08  0.1313
   2.4134E+01   2.4721E+01   1.3964E-08  0.1562
   2.4721E+01   2.5323E+01   1.4963E-08  0.1491
   2.5323E+01   2.5939E+01   1.0387E-08  0.1768
   2.5939E+01   2.6570E+01   7.9224E-09  0.2000
   2.6570E+01   2.7217E+01   6.1874E-09  0.2236
   2.7217E+01   2.7879E+01   3.0202E-09  0.3162
   2.7879E+01   2.8557E+01   5.3073E-09  0.2357
   2.8557E+01   2.9252E+01   5.7569E-09  0.2236
   2.9252E+01   2.9964E+01   3.0911E-09  0.3015
   2.9964E+01   3.0693E+01   1.9203E-09  0.3780
   3.0693E+01   3.1440E+01   1.3391E-09  0.4472
   3.1440E+01   3.2205E+01   3.3989E-09  0.2774
   3.2205E+01   3.2988E+01   1.7867E-09  0.3780
   3.2988E+01   3.3791E+01   1.4951E-09  0.4082
   3.3791E+01   3.4613E+01   9.7305E-10  0.5000
   3.4613E+01   3.5455E+01   0.0000E+00  0.0000
   3.5455E+01   3.6318E+01   2.3184E-10  1.0000
   3.6318E+01   3.7201E+01   6.7901E-10  0.5774
   3.7201E+01   3.8106E+01   2.2096E-10  1.0000
   3.8106E+01   3.9034E+01   4.3143E-10  0.7071
   3.9034E+01   3.9983E+01   0.0000E+00  0.0000
   3.9983E+01   4.0956E+01   0.0000E+00  0.0000
   4.0956E+01   4.1953E+01   0.0000E+00  0.0000
   4.1953E+01   4.2973E+01   0.0000E+00  0.0000
   4.2973E+01   4.4019E+01   0.0000E+00  0.0000
   4.4019E+01   4.5090E+01   0.0000E+00  0.0000
   4.5090E+01   4.6187E+01   0.0000E+00  0.0000
   4.6187E+01   4.7311E+01   1.7797E-10  1.0000
   4.7311E+01   4.8462E+01   0.0000E+00  0.0000
   4.8462E+01   4.9641E+01   0.0000E+00  0.0000
   4.9641E+01   5.0849E+01   0.0000E+00  0.0000
   5.0849E+01   5.2086E+01   0.0000E+00  0.0000
   5.2086E+01   5.3353E+01   0.0000E+00  0.0000
   5.3353E+01   5.4651E+01   0.0000E+00  0.0000
   5.4651E+01   5.5981E+01   0.0000E+00  0.0000
   5.5981E+01   5.7343E+01   0.0000E+00  0.0000
   5.7343E+01   5.8738E+01   0.0000E+00  0.0000
   5.8738E+01   6.0168E+01   0.0000E+00  0.0000
   6.0168E+01   6.1632E+01   0.0000E+00  0.0000
   6.1632E+01   6.3131E+01   0.0000E+00  0.0000
   6.3131E+01   6.4667E+01   0.0000E+00  0.0000
   6.4667E+01   6.6240E+01   0.0000E+00  0.0000
   6.6240E+01   6.7852E+01   0.0000E+00  0.0000
   6.7852E+01   6.9503E+01   0.0000E+00  0.0000
   6.9503E+01   7.1194E+01   0.0000E+00  0.0000
   7.1194E+01   7.2926E+01   0.0000E+00  0.0000
   7.2926E+01   7.4701E+01   0.0000E+00  0.0000
   7.4701E+01   7.6518E+01   0.0000E+00  0.0000
   7.6518E+01   7.8380E+01   0.0000E+00  0.0000
   7.8380E+01   8.0287E+01   0.0000E+00  0.0000
   8.0287E+01   8.2240E+01   0.0000E+00  0.0000
   8.2240E+01   8.4241E+01   0.0000E+00  0.0000
   8.4241E+01   8.6291E+01   0.0000E+00  0.0000
   8.6291E+01   8.8391E+01   0.0000E+00  0.0000
   8.8391E+01   9.0541E+01   0.0000E+00  0.0000
   9.0541E+01   9.2744E+01   0.0000E+00  0.0000
   9.2744E+01   9.5001E+01   0.0000E+00  0.0000
   9.5001E+01   9.7312E+01   0.0000E+00  0.0000
   9.7312E+01   9.9680E+01   0.0000E+00  0.0000
   9.9680E+01   1.0211E+02   0.0000E+00  0.0000
   1.0211E+02   1.0459E+02   0.0000E+00  0.0000
   1.0459E+02   1.0713E+02   0.0000E+00  0.0000
   1.0713E+02   1.0974E+02   0.0000E+00  0.0000
   1.0974E+02   1.1241E+02   0.0000E+00  0.0000
   1.1241E+02   1.1515E+02   0.0000E+00  0.0000
   1.1515E+02   1.1795E+02   0.0000E+00  0.0000
   1.1795E+02   1.2082E+02   0.0000E+00  0.0000
   1.2082E+02   1.2376E+02   0.0000E+00  0.0000
   1.2376E+02   1.2677E+02   0.0000E+00  0.0000
   1.2677E+02   1.2985E+02   0.0000E+00  0.0000
   1.2985E+02   1.3301E+02   0.0000E+00  0.0000
   1.3301E+02   1.3625E+02   0.0000E+00  0.0000
   1.3625E+02   1.3956E+02   0.0000E+00  0.0000
   1.3956E+02   1.4296E+02   0.0000E+00  0.0000
   1.4296E+02   1.4644E+02   0.0000E+00  0.0000
   1.4644E+02   1.5000E+02   0.0000E+00  0.0000

#   sum over                 3.3739E-07
'no. =    1   reg = 126 - 226'
msuc: {\huge [t-cross] in region mesh}
msdr: {\it plotted by \ANGEL \version}
msdl: {\it calculated by \PHITS  3.26}
wt: s(0.7)
\vspace{-3}
  region surface crossing
  area  &=&   1.0000E+00 [cm^2]
e:
 
# Information for Restart Calculation
# This calculation was newly started
# istdev =  2 # 1:Batch variance, 2:History variance
# resc2  = 5.00000000000000000E+09 # Total source weight or Total source weight / maxcas
# resc3  = 5.00000000000000000E+09 # Total history number or Total batch number
# maxcas =   100000000 # History / Batch, only used for istdev=1
# bitrseed = 0110100000100010111000001110001111001110100100011111101000111001 # bit data of rseed
