[ T-Cross ]
    title = [t-cross] in region mesh
     mesh =  reg            # mesh type is region-wise
      reg =    1            # number of crossing regions
      non     r-from    r-to       area
      1       112       212        1.000000    
   e-type =    3            # e-mesh is log given by emin, emax and ne
     emin =  1.0000000E-02  # minimum value of e-mesh points
     emax =   150.0000      # maximum value of e-mesh points
#    edel =  2.4039514E-02  # mesh width of e-mesh points
       ne =    400          # number of e-mesh points
#    data = ( e(i), i = 1, ne + 1 )
#           1.00000E-02  1.02433E-02  1.04925E-02  1.07478E-02  1.10093E-02
#           1.12772E-02  1.15516E-02  1.18326E-02  1.21205E-02  1.24154E-02
#           1.27175E-02  1.30269E-02  1.33439E-02  1.36686E-02  1.40011E-02
#           1.43418E-02  1.46907E-02  1.50482E-02  1.54143E-02  1.57894E-02
#           1.61735E-02  1.65670E-02  1.69701E-02  1.73830E-02  1.78060E-02
#           1.82392E-02  1.86830E-02  1.91375E-02  1.96032E-02  2.00801E-02
#           2.05687E-02  2.10692E-02  2.15818E-02  2.21069E-02  2.26448E-02
#           2.31957E-02  2.37601E-02  2.43382E-02  2.49304E-02  2.55369E-02
#           2.61583E-02  2.67947E-02  2.74467E-02  2.81145E-02  2.87985E-02
#           2.94992E-02  3.02169E-02  3.09521E-02  3.17052E-02  3.24766E-02
#           3.32668E-02  3.40762E-02  3.49053E-02  3.57546E-02  3.66246E-02
#           3.75157E-02  3.84284E-02  3.93634E-02  4.03212E-02  4.13022E-02
#           4.23071E-02  4.33365E-02  4.43909E-02  4.54710E-02  4.65773E-02
#           4.77106E-02  4.88714E-02  5.00605E-02  5.12785E-02  5.25262E-02
#           5.38042E-02  5.51133E-02  5.64542E-02  5.78278E-02  5.92348E-02
#           6.06760E-02  6.21523E-02  6.36645E-02  6.52135E-02  6.68002E-02
#           6.84255E-02  7.00904E-02  7.17957E-02  7.35426E-02  7.53319E-02
#           7.71648E-02  7.90423E-02  8.09655E-02  8.29354E-02  8.49533E-02
#           8.70203E-02  8.91376E-02  9.13064E-02  9.35279E-02  9.58035E-02
#           9.81345E-02  1.00522E-01  1.02968E-01  1.05473E-01  1.08040E-01
#           1.10668E-01  1.13361E-01  1.16119E-01  1.18944E-01  1.21838E-01
#           1.24803E-01  1.27839E-01  1.30950E-01  1.34136E-01  1.37399E-01
#           1.40742E-01  1.44167E-01  1.47675E-01  1.51268E-01  1.54948E-01
#           1.58718E-01  1.62580E-01  1.66535E-01  1.70587E-01  1.74738E-01
#           1.78989E-01  1.83344E-01  1.87805E-01  1.92375E-01  1.97055E-01
#           2.01850E-01  2.06761E-01  2.11792E-01  2.16945E-01  2.22223E-01
#           2.27630E-01  2.33169E-01  2.38842E-01  2.44653E-01  2.50605E-01
#           2.56703E-01  2.62949E-01  2.69346E-01  2.75900E-01  2.82613E-01
#           2.89489E-01  2.96532E-01  3.03747E-01  3.11138E-01  3.18708E-01
#           3.26462E-01  3.34405E-01  3.42542E-01  3.50876E-01  3.59413E-01
#           3.68158E-01  3.77116E-01  3.86291E-01  3.95690E-01  4.05317E-01
#           4.15179E-01  4.25281E-01  4.35628E-01  4.46227E-01  4.57084E-01
#           4.68205E-01  4.79597E-01  4.91266E-01  5.03219E-01  5.15463E-01
#           5.28005E-01  5.40851E-01  5.54011E-01  5.67490E-01  5.81298E-01
#           5.95441E-01  6.09929E-01  6.24769E-01  6.39970E-01  6.55541E-01
#           6.71491E-01  6.87828E-01  7.04564E-01  7.21706E-01  7.39266E-01
#           7.57253E-01  7.75678E-01  7.94551E-01  8.13883E-01  8.33685E-01
#           8.53969E-01  8.74747E-01  8.96030E-01  9.17831E-01  9.40163E-01
#           9.63038E-01  9.86469E-01  1.01047E+00  1.03506E+00  1.06024E+00
#           1.08604E+00  1.11246E+00  1.13953E+00  1.16725E+00  1.19565E+00
#           1.22474E+00  1.25454E+00  1.28507E+00  1.31633E+00  1.34836E+00
#           1.38117E+00  1.41477E+00  1.44920E+00  1.48446E+00  1.52057E+00
#           1.55757E+00  1.59547E+00  1.63429E+00  1.67405E+00  1.71478E+00
#           1.75650E+00  1.79924E+00  1.84302E+00  1.88786E+00  1.93379E+00
#           1.98084E+00  2.02904E+00  2.07841E+00  2.12898E+00  2.18078E+00
#           2.23384E+00  2.28819E+00  2.34386E+00  2.40089E+00  2.45930E+00
#           2.51914E+00  2.58043E+00  2.64322E+00  2.70753E+00  2.77341E+00
#           2.84088E+00  2.91001E+00  2.98081E+00  3.05333E+00  3.12762E+00
#           3.20372E+00  3.28167E+00  3.36152E+00  3.44330E+00  3.52708E+00
#           3.61290E+00  3.70080E+00  3.79085E+00  3.88308E+00  3.97756E+00
#           4.07434E+00  4.17347E+00  4.27501E+00  4.37903E+00  4.48557E+00
#           4.59471E+00  4.70650E+00  4.82102E+00  4.93832E+00  5.05847E+00
#           5.18155E+00  5.30762E+00  5.43676E+00  5.56904E+00  5.70453E+00
#           5.84333E+00  5.98550E+00  6.13114E+00  6.28031E+00  6.43312E+00
#           6.58964E+00  6.74997E+00  6.91420E+00  7.08243E+00  7.25475E+00
#           7.43126E+00  7.61207E+00  7.79728E+00  7.98700E+00  8.18133E+00
#           8.38038E+00  8.58428E+00  8.79315E+00  9.00709E+00  9.22624E+00
#           9.45072E+00  9.68067E+00  9.91620E+00  1.01575E+01  1.04046E+01
#           1.06578E+01  1.09171E+01  1.11827E+01  1.14548E+01  1.17335E+01
#           1.20190E+01  1.23114E+01  1.26109E+01  1.29178E+01  1.32321E+01
#           1.35540E+01  1.38838E+01  1.42216E+01  1.45676E+01  1.49221E+01
#           1.52851E+01  1.56570E+01  1.60380E+01  1.64282E+01  1.68279E+01
#           1.72374E+01  1.76568E+01  1.80864E+01  1.85264E+01  1.89772E+01
#           1.94389E+01  1.99119E+01  2.03963E+01  2.08926E+01  2.14009E+01
#           2.19216E+01  2.24550E+01  2.30014E+01  2.35610E+01  2.41343E+01
#           2.47215E+01  2.53230E+01  2.59391E+01  2.65702E+01  2.72167E+01
#           2.78789E+01  2.85572E+01  2.92520E+01  2.99637E+01  3.06928E+01
#           3.14396E+01  3.22045E+01  3.29881E+01  3.37907E+01  3.46128E+01
#           3.54550E+01  3.63177E+01  3.72013E+01  3.81064E+01  3.90336E+01
#           3.99833E+01  4.09561E+01  4.19526E+01  4.29734E+01  4.40189E+01
#           4.50900E+01  4.61870E+01  4.73108E+01  4.84619E+01  4.96410E+01
#           5.08488E+01  5.20860E+01  5.33533E+01  5.46514E+01  5.59812E+01
#           5.73432E+01  5.87384E+01  6.01676E+01  6.16315E+01  6.31311E+01
#           6.46671E+01  6.62405E+01  6.78522E+01  6.95031E+01  7.11941E+01
#           7.29263E+01  7.47007E+01  7.65182E+01  7.83800E+01  8.02870E+01
#           8.22405E+01  8.42414E+01  8.62911E+01  8.83906E+01  9.05412E+01
#           9.27442E+01  9.50007E+01  9.73122E+01  9.96799E+01  1.02105E+02
#           1.04589E+02  1.07134E+02  1.09741E+02  1.12411E+02  1.15146E+02
#           1.17948E+02  1.20817E+02  1.23757E+02  1.26768E+02  1.29852E+02
#           1.33012E+02  1.36248E+02  1.39563E+02  1.42959E+02  1.46437E+02
#           1.50000E+02
     unit =    2            # unit is [1/cm^2/(MeV/n)/source]
     axis =  eng            # axis of output
     file = detector-13.out  # file name of output for the above axis
   output = f-curr          # surface crossing forward current spectrum
     part =  neutron  
# kf/name :  2112     
#    used :        main (  %)        temp (  %)       total (  %)
#  memory :         414 (  0)           0 (  0)         414 (  0)

#------------------------------------------------------------------------------
#newpage:
#   no. =    1   reg = 112 - 212

x: Energy [MeV/n]
y:  F-Curr [1/cm^2/(MeV/n)/source]         
p: xlog ylog afac(0.8) form(0.9)
h: n            x            y(neutron ),hh0l   n 
#  e-lower      e-upper      neutron     r.err 
   1.0000E-02   1.0243E-02   2.2662E-04  0.0600
   1.0243E-02   1.0493E-02   2.1366E-04  0.0611
   1.0493E-02   1.0748E-02   2.0809E-04  0.0611
   1.0748E-02   1.1009E-02   2.1641E-04  0.0592
   1.1009E-02   1.1277E-02   2.1063E-04  0.0592
   1.1277E-02   1.1552E-02   2.1268E-04  0.0583
   1.1552E-02   1.1833E-02   1.8548E-04  0.0617
   1.1833E-02   1.2121E-02   1.8196E-04  0.0616
   1.2121E-02   1.2415E-02   1.7478E-04  0.0620
   1.2415E-02   1.2718E-02   1.8855E-04  0.0591
   1.2718E-02   1.3027E-02   1.7932E-04  0.0598
   1.3027E-02   1.3344E-02   1.7374E-04  0.0600
   1.3344E-02   1.3669E-02   1.6900E-04  0.0602
   1.3669E-02   1.4001E-02   1.5827E-04  0.0615
   1.4001E-02   1.4342E-02   1.4709E-04  0.0629
   1.4342E-02   1.4691E-02   1.7188E-04  0.0575
   1.4691E-02   1.5048E-02   1.6763E-04  0.0576
   1.5048E-02   1.5414E-02   1.4712E-04  0.0606
   1.5414E-02   1.5789E-02   1.4206E-04  0.0609
   1.5789E-02   1.6174E-02   1.4201E-04  0.0604
   1.6174E-02   1.6567E-02   1.4381E-04  0.0592
   1.6567E-02   1.6970E-02   1.4279E-04  0.0588
   1.6970E-02   1.7383E-02   1.3510E-04  0.0597
   1.7383E-02   1.7806E-02   1.1698E-04  0.0633
   1.7806E-02   1.8239E-02   1.3476E-04  0.0584
   1.8239E-02   1.8683E-02   1.2246E-04  0.0603
   1.8683E-02   1.9138E-02   1.1967E-04  0.0604
   1.9138E-02   1.9603E-02   1.1899E-04  0.0599
   1.9603E-02   2.0080E-02   1.1497E-04  0.0601
   2.0080E-02   2.0569E-02   1.1114E-04  0.0604
   2.0569E-02   2.1069E-02   1.0292E-04  0.0621
   2.1069E-02   2.1582E-02   1.1648E-04  0.0576
   2.1582E-02   2.2107E-02   9.8648E-05  0.0619
   2.2107E-02   2.2645E-02   1.1582E-04  0.0564
   2.2645E-02   2.3196E-02   9.6804E-05  0.0610
   2.3196E-02   2.3760E-02   1.0448E-04  0.0580
   2.3760E-02   2.4338E-02   9.3506E-05  0.0605
   2.4338E-02   2.4930E-02   8.9416E-05  0.0612
   2.4930E-02   2.5537E-02   1.0026E-04  0.0571
   2.5537E-02   2.6158E-02   9.7707E-05  0.0572
   2.6158E-02   2.6795E-02   9.4591E-05  0.0574
   2.6795E-02   2.7447E-02   7.8655E-05  0.0622
   2.7447E-02   2.8114E-02   8.1542E-05  0.0603
   2.8114E-02   2.8799E-02   8.1309E-05  0.0597
   2.8799E-02   2.9499E-02   8.4699E-05  0.0578
   2.9499E-02   3.0217E-02   8.3561E-05  0.0576
   3.0217E-02   3.0952E-02   7.8439E-05  0.0587
   3.0952E-02   3.1705E-02   7.5485E-05  0.0591
   3.1705E-02   3.2477E-02   7.6254E-05  0.0581
   3.2477E-02   3.3267E-02   7.8757E-05  0.0564
   3.3267E-02   3.4076E-02   7.8371E-05  0.0560
   3.4076E-02   3.4905E-02   7.0627E-05  0.0582
   3.4905E-02   3.5755E-02   7.7297E-05  0.0550
   3.5755E-02   3.6625E-02   6.9652E-05  0.0572
   3.6625E-02   3.7516E-02   6.6214E-05  0.0580
   3.7516E-02   3.8428E-02   6.3029E-05  0.0586
   3.8428E-02   3.9363E-02   6.0203E-05  0.0594
   3.9363E-02   4.0321E-02   5.9260E-05  0.0590
   4.0321E-02   4.1302E-02   6.7016E-05  0.0550
   4.1302E-02   4.2307E-02   5.5433E-05  0.0597
   4.2307E-02   4.3337E-02   6.2526E-05  0.0555
   4.3337E-02   4.4391E-02   6.4116E-05  0.0542
   4.4391E-02   4.5471E-02   5.3864E-05  0.0583
   4.5471E-02   4.6577E-02   5.2162E-05  0.0586
   4.6577E-02   4.7711E-02   5.3257E-05  0.0574
   4.7711E-02   4.8871E-02   4.9353E-05  0.0589
   4.8871E-02   5.0061E-02   6.1569E-05  0.0521
   5.0061E-02   5.1279E-02   5.4544E-05  0.0546
   5.1279E-02   5.2526E-02   5.1082E-05  0.0558
   5.2526E-02   5.3804E-02   5.0445E-05  0.0554
   5.3804E-02   5.5113E-02   4.8996E-05  0.0556
   5.5113E-02   5.6454E-02   4.7760E-05  0.0556
   5.6454E-02   5.7828E-02   4.3502E-05  0.0576
   5.7828E-02   5.9235E-02   4.4109E-05  0.0565
   5.9235E-02   6.0676E-02   4.0713E-05  0.0581
   6.0676E-02   6.2152E-02   3.9137E-05  0.0585
   6.2152E-02   6.3665E-02   3.9849E-05  0.0574
   6.3665E-02   6.5214E-02   4.2170E-05  0.0551
   6.5214E-02   6.6800E-02   4.2047E-05  0.0545
   6.6800E-02   6.8426E-02   4.1632E-05  0.0541
   6.8426E-02   7.0090E-02   3.8469E-05  0.0556
   7.0090E-02   7.1796E-02   3.6627E-05  0.0563
   7.1796E-02   7.3543E-02   3.8626E-05  0.0543
   7.3543E-02   7.5332E-02   3.5329E-05  0.0559
   7.5332E-02   7.7165E-02   3.8494E-05  0.0530
   7.7165E-02   7.9042E-02   4.0083E-05  0.0514
   7.9042E-02   8.0965E-02   3.7133E-05  0.0526
   8.0965E-02   8.2935E-02   3.5750E-05  0.0531
   8.2935E-02   8.4953E-02   3.4149E-05  0.0536
   8.4953E-02   8.7020E-02   3.7215E-05  0.0508
   8.7020E-02   8.9138E-02   3.2975E-05  0.0534
   8.9138E-02   9.1306E-02   3.3645E-05  0.0521
   9.1306E-02   9.3528E-02   3.6833E-05  0.0492
   9.3528E-02   9.5804E-02   3.1940E-05  0.0522
   9.5804E-02   9.8134E-02   2.9040E-05  0.0541
   9.8134E-02   1.0052E-01   3.2133E-05  0.0508
   1.0052E-01   1.0297E-01   3.4436E-05  0.0486
   1.0297E-01   1.0547E-01   3.3936E-05  0.0483
   1.0547E-01   1.0804E-01   3.5370E-05  0.0468
   1.0804E-01   1.1067E-01   3.6871E-05  0.0452
   1.1067E-01   1.1336E-01   3.7469E-05  0.0443
   1.1336E-01   1.1612E-01   4.1186E-05  0.0418
   1.1612E-01   1.1894E-01   4.1628E-05  0.0411
   1.1894E-01   1.2184E-01   4.4493E-05  0.0392
   1.2184E-01   1.2480E-01   4.5359E-05  0.0384
   1.2480E-01   1.2784E-01   5.1294E-05  0.0357
   1.2784E-01   1.3095E-01   5.0996E-05  0.0354
   1.3095E-01   1.3414E-01   5.1923E-05  0.0347
   1.3414E-01   1.3740E-01   5.4532E-05  0.0334
   1.3740E-01   1.4074E-01   5.7486E-05  0.0321
   1.4074E-01   1.4417E-01   5.8938E-05  0.0314
   1.4417E-01   1.4767E-01   6.2890E-05  0.0300
   1.4767E-01   1.5127E-01   6.3848E-05  0.0294
   1.5127E-01   1.5495E-01   6.4960E-05  0.0288
   1.5495E-01   1.5872E-01   7.0069E-05  0.0274
   1.5872E-01   1.6258E-01   6.6838E-05  0.0277
   1.6258E-01   1.6654E-01   7.2382E-05  0.0263
   1.6654E-01   1.7059E-01   7.4818E-05  0.0256
   1.7059E-01   1.7474E-01   7.7942E-05  0.0248
   1.7474E-01   1.7899E-01   7.9592E-05  0.0242
   1.7899E-01   1.8334E-01   8.6407E-05  0.0230
   1.8334E-01   1.8781E-01   9.0004E-05  0.0222
   1.8781E-01   1.9237E-01   9.0845E-05  0.0219
   1.9237E-01   1.9706E-01   1.0239E-04  0.0203
   1.9706E-01   2.0185E-01   9.5430E-05  0.0208
   2.0185E-01   2.0676E-01   1.0152E-04  0.0200
   2.0676E-01   2.1179E-01   1.0599E-04  0.0193
   2.1179E-01   2.1694E-01   1.0876E-04  0.0188
   2.1694E-01   2.2222E-01   1.0838E-04  0.0186
   2.2222E-01   2.2763E-01   1.1740E-04  0.0177
   2.2763E-01   2.3317E-01   1.1944E-04  0.0173
   2.3317E-01   2.3884E-01   1.2308E-04  0.0169
   2.3884E-01   2.4465E-01   1.2934E-04  0.0162
   2.4465E-01   2.5061E-01   1.3045E-04  0.0160
   2.5061E-01   2.5670E-01   1.3875E-04  0.0153
   2.5670E-01   2.6295E-01   1.4246E-04  0.0149
   2.6295E-01   2.6935E-01   1.4593E-04  0.0146
   2.6935E-01   2.7590E-01   1.4817E-04  0.0143
   2.7590E-01   2.8261E-01   1.5346E-04  0.0139
   2.8261E-01   2.8949E-01   1.6124E-04  0.0134
   2.8949E-01   2.9653E-01   1.6313E-04  0.0131
   2.9653E-01   3.0375E-01   1.7225E-04  0.0126
   3.0375E-01   3.1114E-01   1.7232E-04  0.0125
   3.1114E-01   3.1871E-01   1.7135E-04  0.0124
   3.1871E-01   3.2646E-01   1.8034E-04  0.0119
   3.2646E-01   3.3441E-01   1.8738E-04  0.0115
   3.3441E-01   3.4254E-01   1.9335E-04  0.0112
   3.4254E-01   3.5088E-01   2.0295E-04  0.0108
   3.5088E-01   3.5941E-01   2.0387E-04  0.0107
   3.5941E-01   3.6816E-01   2.0787E-04  0.0104
   3.6816E-01   3.7712E-01   2.1263E-04  0.0102
   3.7712E-01   3.8629E-01   2.1170E-04  0.0101
   3.8629E-01   3.9569E-01   2.2359E-04  0.0097
   3.9569E-01   4.0532E-01   2.2975E-04  0.0095
   4.0532E-01   4.1518E-01   2.2567E-04  0.0094
   4.1518E-01   4.2528E-01   2.3302E-04  0.0092
   4.2528E-01   4.3563E-01   2.3619E-04  0.0090
   4.3563E-01   4.4623E-01   2.4066E-04  0.0088
   4.4623E-01   4.5708E-01   2.4668E-04  0.0086
   4.5708E-01   4.6821E-01   2.4419E-04  0.0085
   4.6821E-01   4.7960E-01   2.5349E-04  0.0083
   4.7960E-01   4.9127E-01   2.5503E-04  0.0082
   4.9127E-01   5.0322E-01   2.5856E-04  0.0080
   5.0322E-01   5.1546E-01   2.5935E-04  0.0079
   5.1546E-01   5.2800E-01   2.6337E-04  0.0077
   5.2800E-01   5.4085E-01   2.6810E-04  0.0076
   5.4085E-01   5.5401E-01   2.6848E-04  0.0075
   5.5401E-01   5.6749E-01   2.7284E-04  0.0073
   5.6749E-01   5.8130E-01   2.7011E-04  0.0073
   5.8130E-01   5.9544E-01   2.7408E-04  0.0071
   5.9544E-01   6.0993E-01   2.7559E-04  0.0070
   6.0993E-01   6.2477E-01   2.7467E-04  0.0070
   6.2477E-01   6.3997E-01   2.7760E-04  0.0068
   6.3997E-01   6.5554E-01   2.7611E-04  0.0068
   6.5554E-01   6.7149E-01   2.7569E-04  0.0067
   6.7149E-01   6.8783E-01   2.7489E-04  0.0066
   6.8783E-01   7.0456E-01   2.7282E-04  0.0066
   7.0456E-01   7.2171E-01   2.6991E-04  0.0065
   7.2171E-01   7.3927E-01   2.6814E-04  0.0065
   7.3927E-01   7.5725E-01   2.6359E-04  0.0065
   7.5725E-01   7.7568E-01   2.6028E-04  0.0064
   7.7568E-01   7.9455E-01   2.5643E-04  0.0064
   7.9455E-01   8.1388E-01   2.5475E-04  0.0063
   8.1388E-01   8.3368E-01   2.4685E-04  0.0063
   8.3368E-01   8.5397E-01   2.3632E-04  0.0064
   8.5397E-01   8.7475E-01   2.3145E-04  0.0064
   8.7475E-01   8.9603E-01   2.2572E-04  0.0064
   8.9603E-01   9.1783E-01   2.1618E-04  0.0065
   9.1783E-01   9.4016E-01   2.1107E-04  0.0065
   9.4016E-01   9.6304E-01   2.0193E-04  0.0065
   9.6304E-01   9.8647E-01   1.9811E-04  0.0065
   9.8647E-01   1.0105E+00   1.9161E-04  0.0065
   1.0105E+00   1.0351E+00   1.9445E-04  0.0064
   1.0351E+00   1.0602E+00   1.9834E-04  0.0063
   1.0602E+00   1.0860E+00   2.0254E-04  0.0061
   1.0860E+00   1.1125E+00   2.1163E-04  0.0059
   1.1125E+00   1.1395E+00   2.1922E-04  0.0057
   1.1395E+00   1.1673E+00   2.2734E-04  0.0056
   1.1673E+00   1.1957E+00   2.3621E-04  0.0054
   1.1957E+00   1.2247E+00   2.4468E-04  0.0052
   1.2247E+00   1.2545E+00   2.4497E-04  0.0052
   1.2545E+00   1.2851E+00   2.5255E-04  0.0050
   1.2851E+00   1.3163E+00   2.5892E-04  0.0049
   1.3163E+00   1.3484E+00   2.6440E-04  0.0048
   1.3484E+00   1.3812E+00   2.7433E-04  0.0046
   1.3812E+00   1.4148E+00   2.8343E-04  0.0045
   1.4148E+00   1.4492E+00   2.8561E-04  0.0044
   1.4492E+00   1.4845E+00   2.8517E-04  0.0044
   1.4845E+00   1.5206E+00   2.8695E-04  0.0043
   1.5206E+00   1.5576E+00   2.9111E-04  0.0042
   1.5576E+00   1.5955E+00   2.9080E-04  0.0042
   1.5955E+00   1.6343E+00   2.9424E-04  0.0041
   1.6343E+00   1.6741E+00   2.9801E-04  0.0040
   1.6741E+00   1.7148E+00   3.0180E-04  0.0040
   1.7148E+00   1.7565E+00   2.9325E-04  0.0040
   1.7565E+00   1.7992E+00   2.8439E-04  0.0040
   1.7992E+00   1.8430E+00   2.7203E-04  0.0040
   1.8430E+00   1.8879E+00   2.6208E-04  0.0040
   1.8879E+00   1.9338E+00   2.6319E-04  0.0040
   1.9338E+00   1.9808E+00   2.6542E-04  0.0039
   1.9808E+00   2.0290E+00   2.7030E-04  0.0038
   2.0290E+00   2.0784E+00   2.7401E-04  0.0037
   2.0784E+00   2.1290E+00   2.7857E-04  0.0036
   2.1290E+00   2.1808E+00   2.8565E-04  0.0035
   2.1808E+00   2.2338E+00   2.8863E-04  0.0035
   2.2338E+00   2.2882E+00   2.8347E-04  0.0035
   2.2882E+00   2.3439E+00   2.7977E-04  0.0035
   2.3439E+00   2.4009E+00   2.8081E-04  0.0034
   2.4009E+00   2.4593E+00   2.8109E-04  0.0034
   2.4593E+00   2.5191E+00   2.8142E-04  0.0034
   2.5191E+00   2.5804E+00   2.7916E-04  0.0033
   2.5804E+00   2.6432E+00   2.7637E-04  0.0033
   2.6432E+00   2.7075E+00   2.7405E-04  0.0033
   2.7075E+00   2.7734E+00   2.7479E-04  0.0032
   2.7734E+00   2.8409E+00   2.7118E-04  0.0032
   2.8409E+00   2.9100E+00   2.7115E-04  0.0032
   2.9100E+00   2.9808E+00   2.7331E-04  0.0031
   2.9808E+00   3.0533E+00   2.7170E-04  0.0031
   3.0533E+00   3.1276E+00   2.6448E-04  0.0031
   3.1276E+00   3.2037E+00   2.6258E-04  0.0031
   3.2037E+00   3.2817E+00   2.6157E-04  0.0031
   3.2817E+00   3.3615E+00   2.5826E-04  0.0030
   3.3615E+00   3.4433E+00   2.5685E-04  0.0030
   3.4433E+00   3.5271E+00   2.5592E-04  0.0030
   3.5271E+00   3.6129E+00   2.5200E-04  0.0030
   3.6129E+00   3.7008E+00   2.4998E-04  0.0030
   3.7008E+00   3.7908E+00   2.4608E-04  0.0029
   3.7908E+00   3.8831E+00   2.4125E-04  0.0029
   3.8831E+00   3.9776E+00   2.3780E-04  0.0029
   3.9776E+00   4.0743E+00   2.3355E-04  0.0029
   4.0743E+00   4.1735E+00   2.2963E-04  0.0029
   4.1735E+00   4.2750E+00   2.2355E-04  0.0029
   4.2750E+00   4.3790E+00   2.1819E-04  0.0029
   4.3790E+00   4.4856E+00   2.1153E-04  0.0029
   4.4856E+00   4.5947E+00   2.0702E-04  0.0029
   4.5947E+00   4.7065E+00   2.0131E-04  0.0029
   4.7065E+00   4.8210E+00   1.9725E-04  0.0029
   4.8210E+00   4.9383E+00   1.9423E-04  0.0029
   4.9383E+00   5.0585E+00   1.9049E-04  0.0029
   5.0585E+00   5.1815E+00   1.8726E-04  0.0029
   5.1815E+00   5.3076E+00   1.8216E-04  0.0029
   5.3076E+00   5.4368E+00   1.7755E-04  0.0029
   5.4368E+00   5.5690E+00   1.7346E-04  0.0029
   5.5690E+00   5.7045E+00   1.7004E-04  0.0029
   5.7045E+00   5.8433E+00   1.6529E-04  0.0029
   5.8433E+00   5.9855E+00   1.6160E-04  0.0029
   5.9855E+00   6.1311E+00   1.5837E-04  0.0029
   6.1311E+00   6.2803E+00   1.5390E-04  0.0029
   6.2803E+00   6.4331E+00   1.4988E-04  0.0029
   6.4331E+00   6.5896E+00   1.4573E-04  0.0029
   6.5896E+00   6.7500E+00   1.4190E-04  0.0029
   6.7500E+00   6.9142E+00   1.3668E-04  0.0029
   6.9142E+00   7.0824E+00   1.3267E-04  0.0029
   7.0824E+00   7.2548E+00   1.2852E-04  0.0030
   7.2548E+00   7.4313E+00   1.2443E-04  0.0030
   7.4313E+00   7.6121E+00   1.1877E-04  0.0030
   7.6121E+00   7.7973E+00   1.1489E-04  0.0030
   7.7973E+00   7.9870E+00   1.1009E-04  0.0030
   7.9870E+00   8.1813E+00   1.0529E-04  0.0031
   8.1813E+00   8.3804E+00   9.9830E-05  0.0031
   8.3804E+00   8.5843E+00   9.6178E-05  0.0031
   8.5843E+00   8.7931E+00   9.1877E-05  0.0032
   8.7931E+00   9.0071E+00   8.7512E-05  0.0032
   9.0071E+00   9.2262E+00   8.4036E-05  0.0033
   9.2262E+00   9.4507E+00   7.9597E-05  0.0033
   9.4507E+00   9.6807E+00   7.5472E-05  0.0034
   9.6807E+00   9.9162E+00   7.3390E-05  0.0034
   9.9162E+00   1.0157E+01   7.4267E-05  0.0033
   1.0157E+01   1.0405E+01   7.0560E-05  0.0034
   1.0405E+01   1.0658E+01   6.7665E-05  0.0034
   1.0658E+01   1.0917E+01   6.3980E-05  0.0035
   1.0917E+01   1.1183E+01   6.0789E-05  0.0035
   1.1183E+01   1.1455E+01   5.7533E-05  0.0036
   1.1455E+01   1.1733E+01   5.5405E-05  0.0036
   1.1733E+01   1.2019E+01   5.3252E-05  0.0036
   1.2019E+01   1.2311E+01   5.0585E-05  0.0037
   1.2311E+01   1.2611E+01   4.9146E-05  0.0037
   1.2611E+01   1.2918E+01   4.6810E-05  0.0037
   1.2918E+01   1.3232E+01   4.5065E-05  0.0037
   1.3232E+01   1.3554E+01   4.2908E-05  0.0038
   1.3554E+01   1.3884E+01   4.1217E-05  0.0038
   1.3884E+01   1.4222E+01   3.9742E-05  0.0039
   1.4222E+01   1.4568E+01   3.8028E-05  0.0039
   1.4568E+01   1.4922E+01   3.6239E-05  0.0039
   1.4922E+01   1.5285E+01   3.4656E-05  0.0040
   1.5285E+01   1.5657E+01   3.3145E-05  0.0040
   1.5657E+01   1.6038E+01   3.1766E-05  0.0041
   1.6038E+01   1.6428E+01   3.0614E-05  0.0041
   1.6428E+01   1.6828E+01   2.9306E-05  0.0041
   1.6828E+01   1.7237E+01   2.7879E-05  0.0042
   1.7237E+01   1.7657E+01   2.6545E-05  0.0042
   1.7657E+01   1.8086E+01   2.5503E-05  0.0043
   1.8086E+01   1.8526E+01   2.4072E-05  0.0043
   1.8526E+01   1.8977E+01   2.2917E-05  0.0044
   1.8977E+01   1.9439E+01   2.1719E-05  0.0045
   1.9439E+01   1.9912E+01   2.1160E-05  0.0045
   1.9912E+01   2.0396E+01   2.0367E-05  0.0045
   2.0396E+01   2.0893E+01   1.9166E-05  0.0046
   2.0893E+01   2.1401E+01   1.8295E-05  0.0046
   2.1401E+01   2.1922E+01   1.7387E-05  0.0047
   2.1922E+01   2.2455E+01   1.6542E-05  0.0048
   2.2455E+01   2.3001E+01   1.5857E-05  0.0048
   2.3001E+01   2.3561E+01   1.4871E-05  0.0049
   2.3561E+01   2.4134E+01   1.4231E-05  0.0050
   2.4134E+01   2.4721E+01   1.3311E-05  0.0051
   2.4721E+01   2.5323E+01   1.2554E-05  0.0051
   2.5323E+01   2.5939E+01   1.1564E-05  0.0053
   2.5939E+01   2.6570E+01   1.0796E-05  0.0054
   2.6570E+01   2.7217E+01   1.0072E-05  0.0055
   2.7217E+01   2.7879E+01   9.2775E-06  0.0057
   2.7879E+01   2.8557E+01   8.5252E-06  0.0059
   2.8557E+01   2.9252E+01   7.7732E-06  0.0061
   2.9252E+01   2.9964E+01   7.1471E-06  0.0063
   2.9964E+01   3.0693E+01   6.5187E-06  0.0065
   3.0693E+01   3.1440E+01   5.7613E-06  0.0068
   3.1440E+01   3.2205E+01   5.2770E-06  0.0070
   3.2205E+01   3.2988E+01   4.7920E-06  0.0073
   3.2988E+01   3.3791E+01   4.3560E-06  0.0076
   3.3791E+01   3.4613E+01   3.8891E-06  0.0079
   3.4613E+01   3.5455E+01   3.4799E-06  0.0083
   3.5455E+01   3.6318E+01   3.0622E-06  0.0087
   3.6318E+01   3.7201E+01   2.6862E-06  0.0092
   3.7201E+01   3.8106E+01   2.3623E-06  0.0097
   3.8106E+01   3.9034E+01   2.0154E-06  0.0103
   3.9034E+01   3.9983E+01   1.7654E-06  0.0109
   3.9983E+01   4.0956E+01   1.4475E-06  0.0119
   4.0956E+01   4.1953E+01   1.2381E-06  0.0127
   4.1953E+01   4.2973E+01   1.0257E-06  0.0138
   4.2973E+01   4.4019E+01   8.5178E-07  0.0150
   4.4019E+01   4.5090E+01   7.1950E-07  0.0161
   4.5090E+01   4.6187E+01   5.8209E-07  0.0177
   4.6187E+01   4.7311E+01   4.7821E-07  0.0193
   4.7311E+01   4.8462E+01   3.7286E-07  0.0216
   4.8462E+01   4.9641E+01   2.9768E-07  0.0239
   4.9641E+01   5.0849E+01   2.3116E-07  0.0268
   5.0849E+01   5.2086E+01   1.7879E-07  0.0301
   5.2086E+01   5.3353E+01   1.2562E-07  0.0354
   5.3353E+01   5.4651E+01   7.4415E-08  0.0455
   5.4651E+01   5.5981E+01   5.1590E-08  0.0540
   5.5981E+01   5.7343E+01   2.4081E-08  0.0781
   5.7343E+01   5.8738E+01   1.5052E-08  0.0976
   5.8738E+01   6.0168E+01   4.0583E-09  0.1857
   6.0168E+01   6.1632E+01   6.8310E-10  0.4472
   6.1632E+01   6.3131E+01   8.0024E-10  0.4082
   6.3131E+01   6.4667E+01   0.0000E+00  0.0000
   6.4667E+01   6.6240E+01   0.0000E+00  0.0000
   6.6240E+01   6.7852E+01   0.0000E+00  0.0000
   6.7852E+01   6.9503E+01   0.0000E+00  0.0000
   6.9503E+01   7.1194E+01   0.0000E+00  0.0000
   7.1194E+01   7.2926E+01   0.0000E+00  0.0000
   7.2926E+01   7.4701E+01   0.0000E+00  0.0000
   7.4701E+01   7.6518E+01   0.0000E+00  0.0000
   7.6518E+01   7.8380E+01   0.0000E+00  0.0000
   7.8380E+01   8.0287E+01   0.0000E+00  0.0000
   8.0287E+01   8.2240E+01   0.0000E+00  0.0000
   8.2240E+01   8.4241E+01   0.0000E+00  0.0000
   8.4241E+01   8.6291E+01   0.0000E+00  0.0000
   8.6291E+01   8.8391E+01   0.0000E+00  0.0000
   8.8391E+01   9.0541E+01   0.0000E+00  0.0000
   9.0541E+01   9.2744E+01   0.0000E+00  0.0000
   9.2744E+01   9.5001E+01   0.0000E+00  0.0000
   9.5001E+01   9.7312E+01   0.0000E+00  0.0000
   9.7312E+01   9.9680E+01   0.0000E+00  0.0000
   9.9680E+01   1.0211E+02   0.0000E+00  0.0000
   1.0211E+02   1.0459E+02   0.0000E+00  0.0000
   1.0459E+02   1.0713E+02   0.0000E+00  0.0000
   1.0713E+02   1.0974E+02   0.0000E+00  0.0000
   1.0974E+02   1.1241E+02   0.0000E+00  0.0000
   1.1241E+02   1.1515E+02   0.0000E+00  0.0000
   1.1515E+02   1.1795E+02   0.0000E+00  0.0000
   1.1795E+02   1.2082E+02   0.0000E+00  0.0000
   1.2082E+02   1.2376E+02   0.0000E+00  0.0000
   1.2376E+02   1.2677E+02   0.0000E+00  0.0000
   1.2677E+02   1.2985E+02   0.0000E+00  0.0000
   1.2985E+02   1.3301E+02   0.0000E+00  0.0000
   1.3301E+02   1.3625E+02   0.0000E+00  0.0000
   1.3625E+02   1.3956E+02   0.0000E+00  0.0000
   1.3956E+02   1.4296E+02   0.0000E+00  0.0000
   1.4296E+02   1.4644E+02   0.0000E+00  0.0000
   1.4644E+02   1.5000E+02   0.0000E+00  0.0000

#   sum over                 1.5831E-05
'no. =    1   reg = 112 - 212'
msuc: {\huge [t-cross] in region mesh}
msdr: {\it plotted by \ANGEL \version}
msdl: {\it calculated by \PHITS  3.26}
wt: s(0.7)
\vspace{-3}
  region surface crossing
  area  &=&   1.0000E+00 [cm^2]
e:
 
# Information for Restart Calculation
# This calculation was newly started
# istdev =  2 # 1:Batch variance, 2:History variance
# resc2  = 5.00000000000000000E+09 # Total source weight or Total source weight / maxcas
# resc3  = 5.00000000000000000E+09 # Total history number or Total batch number
# maxcas =   100000000 # History / Batch, only used for istdev=1
# bitrseed = 0110100000100010111000001110001111001110100100011111101000111001 # bit data of rseed
