7 <--- number of remaining batches 

-------------------------------------------------------------------------------
bat[       3] ncas =     1500000000.
 bitrseed = 0001001110011001001001110000100100110111001111011100001000101100
          cpu time =   2 h.  0 m.  1.99 s.

 date = 2022-06-02
 time = 00h 50m 49s

