[ T-Cross ]
    title = [t-cross] in region mesh
     mesh =  reg            # mesh type is region-wise
      reg =    1            # number of crossing regions
      non     r-from    r-to       area
      1       121       221        1.000000    
   e-type =    3            # e-mesh is log given by emin, emax and ne
     emin =  1.0000000E-02  # minimum value of e-mesh points
     emax =   150.0000      # maximum value of e-mesh points
#    edel =  2.4039514E-02  # mesh width of e-mesh points
       ne =    400          # number of e-mesh points
#    data = ( e(i), i = 1, ne + 1 )
#           1.00000E-02  1.02433E-02  1.04925E-02  1.07478E-02  1.10093E-02
#           1.12772E-02  1.15516E-02  1.18326E-02  1.21205E-02  1.24154E-02
#           1.27175E-02  1.30269E-02  1.33439E-02  1.36686E-02  1.40011E-02
#           1.43418E-02  1.46907E-02  1.50482E-02  1.54143E-02  1.57894E-02
#           1.61735E-02  1.65670E-02  1.69701E-02  1.73830E-02  1.78060E-02
#           1.82392E-02  1.86830E-02  1.91375E-02  1.96032E-02  2.00801E-02
#           2.05687E-02  2.10692E-02  2.15818E-02  2.21069E-02  2.26448E-02
#           2.31957E-02  2.37601E-02  2.43382E-02  2.49304E-02  2.55369E-02
#           2.61583E-02  2.67947E-02  2.74467E-02  2.81145E-02  2.87985E-02
#           2.94992E-02  3.02169E-02  3.09521E-02  3.17052E-02  3.24766E-02
#           3.32668E-02  3.40762E-02  3.49053E-02  3.57546E-02  3.66246E-02
#           3.75157E-02  3.84284E-02  3.93634E-02  4.03212E-02  4.13022E-02
#           4.23071E-02  4.33365E-02  4.43909E-02  4.54710E-02  4.65773E-02
#           4.77106E-02  4.88714E-02  5.00605E-02  5.12785E-02  5.25262E-02
#           5.38042E-02  5.51133E-02  5.64542E-02  5.78278E-02  5.92348E-02
#           6.06760E-02  6.21523E-02  6.36645E-02  6.52135E-02  6.68002E-02
#           6.84255E-02  7.00904E-02  7.17957E-02  7.35426E-02  7.53319E-02
#           7.71648E-02  7.90423E-02  8.09655E-02  8.29354E-02  8.49533E-02
#           8.70203E-02  8.91376E-02  9.13064E-02  9.35279E-02  9.58035E-02
#           9.81345E-02  1.00522E-01  1.02968E-01  1.05473E-01  1.08040E-01
#           1.10668E-01  1.13361E-01  1.16119E-01  1.18944E-01  1.21838E-01
#           1.24803E-01  1.27839E-01  1.30950E-01  1.34136E-01  1.37399E-01
#           1.40742E-01  1.44167E-01  1.47675E-01  1.51268E-01  1.54948E-01
#           1.58718E-01  1.62580E-01  1.66535E-01  1.70587E-01  1.74738E-01
#           1.78989E-01  1.83344E-01  1.87805E-01  1.92375E-01  1.97055E-01
#           2.01850E-01  2.06761E-01  2.11792E-01  2.16945E-01  2.22223E-01
#           2.27630E-01  2.33169E-01  2.38842E-01  2.44653E-01  2.50605E-01
#           2.56703E-01  2.62949E-01  2.69346E-01  2.75900E-01  2.82613E-01
#           2.89489E-01  2.96532E-01  3.03747E-01  3.11138E-01  3.18708E-01
#           3.26462E-01  3.34405E-01  3.42542E-01  3.50876E-01  3.59413E-01
#           3.68158E-01  3.77116E-01  3.86291E-01  3.95690E-01  4.05317E-01
#           4.15179E-01  4.25281E-01  4.35628E-01  4.46227E-01  4.57084E-01
#           4.68205E-01  4.79597E-01  4.91266E-01  5.03219E-01  5.15463E-01
#           5.28005E-01  5.40851E-01  5.54011E-01  5.67490E-01  5.81298E-01
#           5.95441E-01  6.09929E-01  6.24769E-01  6.39970E-01  6.55541E-01
#           6.71491E-01  6.87828E-01  7.04564E-01  7.21706E-01  7.39266E-01
#           7.57253E-01  7.75678E-01  7.94551E-01  8.13883E-01  8.33685E-01
#           8.53969E-01  8.74747E-01  8.96030E-01  9.17831E-01  9.40163E-01
#           9.63038E-01  9.86469E-01  1.01047E+00  1.03506E+00  1.06024E+00
#           1.08604E+00  1.11246E+00  1.13953E+00  1.16725E+00  1.19565E+00
#           1.22474E+00  1.25454E+00  1.28507E+00  1.31633E+00  1.34836E+00
#           1.38117E+00  1.41477E+00  1.44920E+00  1.48446E+00  1.52057E+00
#           1.55757E+00  1.59547E+00  1.63429E+00  1.67405E+00  1.71478E+00
#           1.75650E+00  1.79924E+00  1.84302E+00  1.88786E+00  1.93379E+00
#           1.98084E+00  2.02904E+00  2.07841E+00  2.12898E+00  2.18078E+00
#           2.23384E+00  2.28819E+00  2.34386E+00  2.40089E+00  2.45930E+00
#           2.51914E+00  2.58043E+00  2.64322E+00  2.70753E+00  2.77341E+00
#           2.84088E+00  2.91001E+00  2.98081E+00  3.05333E+00  3.12762E+00
#           3.20372E+00  3.28167E+00  3.36152E+00  3.44330E+00  3.52708E+00
#           3.61290E+00  3.70080E+00  3.79085E+00  3.88308E+00  3.97756E+00
#           4.07434E+00  4.17347E+00  4.27501E+00  4.37903E+00  4.48557E+00
#           4.59471E+00  4.70650E+00  4.82102E+00  4.93832E+00  5.05847E+00
#           5.18155E+00  5.30762E+00  5.43676E+00  5.56904E+00  5.70453E+00
#           5.84333E+00  5.98550E+00  6.13114E+00  6.28031E+00  6.43312E+00
#           6.58964E+00  6.74997E+00  6.91420E+00  7.08243E+00  7.25475E+00
#           7.43126E+00  7.61207E+00  7.79728E+00  7.98700E+00  8.18133E+00
#           8.38038E+00  8.58428E+00  8.79315E+00  9.00709E+00  9.22624E+00
#           9.45072E+00  9.68067E+00  9.91620E+00  1.01575E+01  1.04046E+01
#           1.06578E+01  1.09171E+01  1.11827E+01  1.14548E+01  1.17335E+01
#           1.20190E+01  1.23114E+01  1.26109E+01  1.29178E+01  1.32321E+01
#           1.35540E+01  1.38838E+01  1.42216E+01  1.45676E+01  1.49221E+01
#           1.52851E+01  1.56570E+01  1.60380E+01  1.64282E+01  1.68279E+01
#           1.72374E+01  1.76568E+01  1.80864E+01  1.85264E+01  1.89772E+01
#           1.94389E+01  1.99119E+01  2.03963E+01  2.08926E+01  2.14009E+01
#           2.19216E+01  2.24550E+01  2.30014E+01  2.35610E+01  2.41343E+01
#           2.47215E+01  2.53230E+01  2.59391E+01  2.65702E+01  2.72167E+01
#           2.78789E+01  2.85572E+01  2.92520E+01  2.99637E+01  3.06928E+01
#           3.14396E+01  3.22045E+01  3.29881E+01  3.37907E+01  3.46128E+01
#           3.54550E+01  3.63177E+01  3.72013E+01  3.81064E+01  3.90336E+01
#           3.99833E+01  4.09561E+01  4.19526E+01  4.29734E+01  4.40189E+01
#           4.50900E+01  4.61870E+01  4.73108E+01  4.84619E+01  4.96410E+01
#           5.08488E+01  5.20860E+01  5.33533E+01  5.46514E+01  5.59812E+01
#           5.73432E+01  5.87384E+01  6.01676E+01  6.16315E+01  6.31311E+01
#           6.46671E+01  6.62405E+01  6.78522E+01  6.95031E+01  7.11941E+01
#           7.29263E+01  7.47007E+01  7.65182E+01  7.83800E+01  8.02870E+01
#           8.22405E+01  8.42414E+01  8.62911E+01  8.83906E+01  9.05412E+01
#           9.27442E+01  9.50007E+01  9.73122E+01  9.96799E+01  1.02105E+02
#           1.04589E+02  1.07134E+02  1.09741E+02  1.12411E+02  1.15146E+02
#           1.17948E+02  1.20817E+02  1.23757E+02  1.26768E+02  1.29852E+02
#           1.33012E+02  1.36248E+02  1.39563E+02  1.42959E+02  1.46437E+02
#           1.50000E+02
     unit =    2            # unit is [1/cm^2/(MeV/n)/source]
     axis =  eng            # axis of output
     file = detector-22.out  # file name of output for the above axis
   output = f-curr          # surface crossing forward current spectrum
     part =  neutron  
# kf/name :  2112     
#    used :        main (  %)        temp (  %)       total (  %)
#  memory :         414 (  0)           0 (  0)         414 (  0)

#------------------------------------------------------------------------------
#newpage:
#   no. =    1   reg = 121 - 221

x: Energy [MeV/n]
y:  F-Curr [1/cm^2/(MeV/n)/source]         
p: xlog ylog afac(0.8) form(0.9)
h: n            x            y(neutron ),hh0l   n 
#  e-lower      e-upper      neutron     r.err 
   1.0000E-02   1.0243E-02   1.3832E-03  0.0444
   1.0243E-02   1.0493E-02   1.2776E-03  0.0456
   1.0493E-02   1.0748E-02   1.2452E-03  0.0457
   1.0748E-02   1.1009E-02   1.2040E-03  0.0459
   1.1009E-02   1.1277E-02   1.1526E-03  0.0464
   1.1277E-02   1.1552E-02   1.2853E-03  0.0434
   1.1552E-02   1.1833E-02   1.1644E-03  0.0451
   1.1833E-02   1.2121E-02   1.2372E-03  0.0432
   1.2121E-02   1.2415E-02   1.0772E-03  0.0457
   1.2415E-02   1.2718E-02   1.0232E-03  0.0464
   1.2718E-02   1.3027E-02   1.0781E-03  0.0447
   1.3027E-02   1.3344E-02   1.2059E-03  0.0417
   1.3344E-02   1.3669E-02   1.1055E-03  0.0430
   1.3669E-02   1.4001E-02   1.0978E-03  0.0426
   1.4001E-02   1.4342E-02   1.0663E-03  0.0428
   1.4342E-02   1.4691E-02   1.0155E-03  0.0433
   1.4691E-02   1.5048E-02   9.9572E-04  0.0432
   1.5048E-02   1.5414E-02   8.7382E-04  0.0456
   1.5414E-02   1.5789E-02   9.1230E-04  0.0440
   1.5789E-02   1.6174E-02   9.2721E-04  0.0432
   1.6174E-02   1.6567E-02   9.2326E-04  0.0427
   1.6567E-02   1.6970E-02   9.2513E-04  0.0422
   1.6970E-02   1.7383E-02   9.1439E-04  0.0419
   1.7383E-02   1.7806E-02   8.8693E-04  0.0421
   1.7806E-02   1.8239E-02   9.2762E-04  0.0407
   1.8239E-02   1.8683E-02   7.7810E-04  0.0439
   1.8683E-02   1.9138E-02   8.3208E-04  0.0419
   1.9138E-02   1.9603E-02   8.0175E-04  0.0422
   1.9603E-02   2.0080E-02   8.1010E-04  0.0415
   2.0080E-02   2.0569E-02   7.8902E-04  0.0415
   2.0569E-02   2.1069E-02   7.4336E-04  0.0422
   2.1069E-02   2.1582E-02   7.1243E-04  0.0427
   2.1582E-02   2.2107E-02   7.4997E-04  0.0410
   2.2107E-02   2.2645E-02   7.4506E-04  0.0407
   2.2645E-02   2.3196E-02   7.1572E-04  0.0411
   2.3196E-02   2.3760E-02   6.9208E-04  0.0413
   2.3760E-02   2.4338E-02   6.2117E-04  0.0430
   2.4338E-02   2.4930E-02   6.9100E-04  0.0403
   2.4930E-02   2.5537E-02   6.1192E-04  0.0423
   2.5537E-02   2.6158E-02   6.0391E-04  0.0420
   2.6158E-02   2.6795E-02   5.8126E-04  0.0424
   2.6795E-02   2.7447E-02   6.0264E-04  0.0411
   2.7447E-02   2.8114E-02   6.0388E-04  0.0406
   2.8114E-02   2.8799E-02   5.9971E-04  0.0402
   2.8799E-02   2.9499E-02   5.8335E-04  0.0403
   2.9499E-02   3.0217E-02   5.9064E-04  0.0396
   3.0217E-02   3.0952E-02   5.6261E-04  0.0401
   3.0952E-02   3.1705E-02   5.5961E-04  0.0397
   3.1705E-02   3.2477E-02   5.1802E-04  0.0408
   3.2477E-02   3.3267E-02   5.1962E-04  0.0402
   3.3267E-02   3.4076E-02   5.1841E-04  0.0398
   3.4076E-02   3.4905E-02   5.3407E-04  0.0387
   3.4905E-02   3.5755E-02   5.0608E-04  0.0393
   3.5755E-02   3.6625E-02   4.9032E-04  0.0395
   3.6625E-02   3.7516E-02   4.7184E-04  0.0398
   3.7516E-02   3.8428E-02   4.4780E-04  0.0403
   3.8428E-02   3.9363E-02   4.7546E-04  0.0387
   3.9363E-02   4.0321E-02   4.8434E-04  0.0378
   4.0321E-02   4.1302E-02   4.7658E-04  0.0377
   4.1302E-02   4.2307E-02   4.5759E-04  0.0380
   4.2307E-02   4.3337E-02   4.2180E-04  0.0391
   4.3337E-02   4.4391E-02   4.3015E-04  0.0383
   4.4391E-02   4.5471E-02   4.1656E-04  0.0384
   4.5471E-02   4.6577E-02   3.8484E-04  0.0395
   4.6577E-02   4.7711E-02   3.7165E-04  0.0397
   4.7711E-02   4.8871E-02   3.8101E-04  0.0388
   4.8871E-02   5.0061E-02   3.5573E-04  0.0397
   5.0061E-02   5.1279E-02   3.6348E-04  0.0387
   5.1279E-02   5.2526E-02   3.7211E-04  0.0379
   5.2526E-02   5.3804E-02   3.5643E-04  0.0382
   5.3804E-02   5.5113E-02   3.4604E-04  0.0383
   5.5113E-02   5.6454E-02   3.3082E-04  0.0387
   5.6454E-02   5.7828E-02   3.4061E-04  0.0377
   5.7828E-02   5.9235E-02   3.0334E-04  0.0395
   5.9235E-02   6.0676E-02   3.2243E-04  0.0378
   6.0676E-02   6.2152E-02   3.2077E-04  0.0375
   6.2152E-02   6.3665E-02   3.0585E-04  0.0379
   6.3665E-02   6.5214E-02   2.9424E-04  0.0382
   6.5214E-02   6.6800E-02   3.0912E-04  0.0368
   6.6800E-02   6.8426E-02   2.7130E-04  0.0388
   6.8426E-02   7.0090E-02   2.7631E-04  0.0380
   7.0090E-02   7.1796E-02   2.7248E-04  0.0378
   7.1796E-02   7.3543E-02   2.7021E-04  0.0375
   7.3543E-02   7.5332E-02   2.6462E-04  0.0375
   7.5332E-02   7.7165E-02   2.6419E-04  0.0371
   7.7165E-02   7.9042E-02   2.4550E-04  0.0380
   7.9042E-02   8.0965E-02   2.3240E-04  0.0386
   8.0965E-02   8.2935E-02   2.3596E-04  0.0378
   8.2935E-02   8.4953E-02   2.4244E-04  0.0369
   8.4953E-02   8.7020E-02   2.3052E-04  0.0374
   8.7020E-02   8.9138E-02   2.2259E-04  0.0376
   8.9138E-02   9.1306E-02   2.0896E-04  0.0383
   9.1306E-02   9.3528E-02   2.2603E-04  0.0364
   9.3528E-02   9.5804E-02   2.0917E-04  0.0374
   9.5804E-02   9.8134E-02   1.9618E-04  0.0381
   9.8134E-02   1.0052E-01   1.9203E-04  0.0381
   1.0052E-01   1.0297E-01   1.8041E-04  0.0388
   1.0297E-01   1.0547E-01   1.9176E-04  0.0372
   1.0547E-01   1.0804E-01   1.7859E-04  0.0381
   1.0804E-01   1.1067E-01   1.7791E-04  0.0377
   1.1067E-01   1.1336E-01   1.7386E-04  0.0377
   1.1336E-01   1.1612E-01   1.7005E-04  0.0377
   1.1612E-01   1.1894E-01   1.7273E-04  0.0369
   1.1894E-01   1.2184E-01   1.5564E-04  0.0384
   1.2184E-01   1.2480E-01   1.5966E-04  0.0375
   1.2480E-01   1.2784E-01   1.5029E-04  0.0382
   1.2784E-01   1.3095E-01   1.5917E-04  0.0367
   1.3095E-01   1.3414E-01   1.4621E-04  0.0378
   1.3414E-01   1.3740E-01   1.5213E-04  0.0366
   1.3740E-01   1.4074E-01   1.4702E-04  0.0368
   1.4074E-01   1.4417E-01   1.3689E-04  0.0377
   1.4417E-01   1.4767E-01   1.3437E-04  0.0375
   1.4767E-01   1.5127E-01   1.2959E-04  0.0378
   1.5127E-01   1.5495E-01   1.2062E-04  0.0386
   1.5495E-01   1.5872E-01   1.2575E-04  0.0375
   1.5872E-01   1.6258E-01   1.1748E-04  0.0383
   1.6258E-01   1.6654E-01   1.1384E-04  0.0384
   1.6654E-01   1.7059E-01   1.1253E-04  0.0382
   1.7059E-01   1.7474E-01   1.0835E-04  0.0384
   1.7474E-01   1.7899E-01   1.0171E-04  0.0392
   1.7899E-01   1.8334E-01   1.0918E-04  0.0373
   1.8334E-01   1.8781E-01   9.5138E-05  0.0396
   1.8781E-01   1.9237E-01   9.6147E-05  0.0389
   1.9237E-01   1.9706E-01   1.0272E-04  0.0371
   1.9706E-01   2.0185E-01   9.4971E-05  0.0382
   2.0185E-01   2.0676E-01   9.4113E-05  0.0379
   2.0676E-01   2.1179E-01   9.6879E-05  0.0369
   2.1179E-01   2.1694E-01   1.0014E-04  0.0359
   2.1694E-01   2.2222E-01   1.0778E-04  0.0341
   2.2222E-01   2.2763E-01   1.0861E-04  0.0336
   2.2763E-01   2.3317E-01   1.1521E-04  0.0323
   2.3317E-01   2.3884E-01   1.0557E-04  0.0333
   2.3884E-01   2.4465E-01   1.1575E-04  0.0314
   2.4465E-01   2.5061E-01   1.2086E-04  0.0304
   2.5061E-01   2.5670E-01   1.2056E-04  0.0301
   2.5670E-01   2.6295E-01   1.2213E-04  0.0295
   2.6295E-01   2.6935E-01   1.2289E-04  0.0291
   2.6935E-01   2.7590E-01   1.2555E-04  0.0284
   2.7590E-01   2.8261E-01   1.3146E-04  0.0274
   2.8261E-01   2.8949E-01   1.2966E-04  0.0273
   2.8949E-01   2.9653E-01   1.3182E-04  0.0267
   2.9653E-01   3.0375E-01   1.3931E-04  0.0257
   3.0375E-01   3.1114E-01   1.3475E-04  0.0258
   3.1114E-01   3.1871E-01   1.2875E-04  0.0261
   3.1871E-01   3.2646E-01   1.3577E-04  0.0251
   3.2646E-01   3.3441E-01   1.3949E-04  0.0245
   3.3441E-01   3.4254E-01   1.4702E-04  0.0235
   3.4254E-01   3.5088E-01   1.4180E-04  0.0237
   3.5088E-01   3.5941E-01   1.4879E-04  0.0229
   3.5941E-01   3.6816E-01   1.5121E-04  0.0224
   3.6816E-01   3.7712E-01   1.5443E-04  0.0219
   3.7712E-01   3.8629E-01   1.5021E-04  0.0219
   3.8629E-01   3.9569E-01   1.5289E-04  0.0215
   3.9569E-01   4.0532E-01   1.5220E-04  0.0213
   4.0532E-01   4.1518E-01   1.4738E-04  0.0214
   4.1518E-01   4.2528E-01   1.4756E-04  0.0211
   4.2528E-01   4.3563E-01   1.4752E-04  0.0208
   4.3563E-01   4.4623E-01   1.5070E-04  0.0204
   4.4623E-01   4.5708E-01   1.4807E-04  0.0203
   4.5708E-01   4.6821E-01   1.5217E-04  0.0198
   4.6821E-01   4.7960E-01   1.5209E-04  0.0196
   4.7960E-01   4.9127E-01   1.5197E-04  0.0193
   4.9127E-01   5.0322E-01   1.4732E-04  0.0194
   5.0322E-01   5.1546E-01   1.5336E-04  0.0188
   5.1546E-01   5.2800E-01   1.4688E-04  0.0190
   5.2800E-01   5.4085E-01   1.4101E-04  0.0191
   5.4085E-01   5.5401E-01   1.3908E-04  0.0190
   5.5401E-01   5.6749E-01   1.3807E-04  0.0188
   5.6749E-01   5.8130E-01   1.4064E-04  0.0184
   5.8130E-01   5.9544E-01   1.3848E-04  0.0184
   5.9544E-01   6.0993E-01   1.3382E-04  0.0185
   6.0993E-01   6.2477E-01   1.3494E-04  0.0182
   6.2477E-01   6.3997E-01   1.3250E-04  0.0181
   6.3997E-01   6.5554E-01   1.2733E-04  0.0183
   6.5554E-01   6.7149E-01   1.2974E-04  0.0179
   6.7149E-01   6.8783E-01   1.1915E-04  0.0184
   6.8783E-01   7.0456E-01   1.1735E-04  0.0183
   7.0456E-01   7.2171E-01   1.1620E-04  0.0182
   7.2171E-01   7.3927E-01   1.1587E-04  0.0180
   7.3927E-01   7.5725E-01   1.1181E-04  0.0181
   7.5725E-01   7.7568E-01   1.0799E-04  0.0182
   7.7568E-01   7.9455E-01   1.0562E-04  0.0182
   7.9455E-01   8.1388E-01   1.0075E-04  0.0184
   8.1388E-01   8.3368E-01   1.0003E-04  0.0182
   8.3368E-01   8.5397E-01   9.7678E-05  0.0182
   8.5397E-01   8.7475E-01   9.4375E-05  0.0183
   8.7475E-01   8.9603E-01   8.8926E-05  0.0187
   8.9603E-01   9.1783E-01   9.0157E-05  0.0183
   9.1783E-01   9.4016E-01   8.9416E-05  0.0182
   9.4016E-01   9.6304E-01   8.5837E-05  0.0183
   9.6304E-01   9.8647E-01   8.3521E-05  0.0183
   9.8647E-01   1.0105E+00   8.1051E-05  0.0184
   1.0105E+00   1.0351E+00   7.7294E-05  0.0186
   1.0351E+00   1.0602E+00   7.5357E-05  0.0186
   1.0602E+00   1.0860E+00   7.2843E-05  0.0187
   1.0860E+00   1.1125E+00   7.1461E-05  0.0186
   1.1125E+00   1.1395E+00   6.8707E-05  0.0188
   1.1395E+00   1.1673E+00   6.6283E-05  0.0189
   1.1673E+00   1.1957E+00   6.8601E-05  0.0184
   1.1957E+00   1.2247E+00   6.4892E-05  0.0187
   1.2247E+00   1.2545E+00   6.1411E-05  0.0189
   1.2545E+00   1.2851E+00   6.0209E-05  0.0189
   1.2851E+00   1.3163E+00   5.8996E-05  0.0189
   1.3163E+00   1.3484E+00   5.8191E-05  0.0188
   1.3484E+00   1.3812E+00   5.6252E-05  0.0188
   1.3812E+00   1.4148E+00   5.6356E-05  0.0186
   1.4148E+00   1.4492E+00   5.2043E-05  0.0191
   1.4492E+00   1.4845E+00   5.1466E-05  0.0190
   1.4845E+00   1.5206E+00   5.0119E-05  0.0190
   1.5206E+00   1.5576E+00   4.9921E-05  0.0189
   1.5576E+00   1.5955E+00   4.8786E-05  0.0188
   1.5955E+00   1.6343E+00   4.7014E-05  0.0190
   1.6343E+00   1.6741E+00   4.6260E-05  0.0189
   1.6741E+00   1.7148E+00   4.4260E-05  0.0191
   1.7148E+00   1.7565E+00   4.4045E-05  0.0189
   1.7565E+00   1.7992E+00   4.1903E-05  0.0191
   1.7992E+00   1.8430E+00   4.2299E-05  0.0188
   1.8430E+00   1.8879E+00   4.0690E-05  0.0190
   1.8879E+00   1.9338E+00   3.9873E-05  0.0189
   1.9338E+00   1.9808E+00   3.8868E-05  0.0189
   1.9808E+00   2.0290E+00   3.8194E-05  0.0189
   2.0290E+00   2.0784E+00   3.6669E-05  0.0190
   2.0784E+00   2.1290E+00   3.5293E-05  0.0192
   2.1290E+00   2.1808E+00   3.5702E-05  0.0188
   2.1808E+00   2.2338E+00   3.4710E-05  0.0189
   2.2338E+00   2.2882E+00   3.4463E-05  0.0187
   2.2882E+00   2.3439E+00   3.2686E-05  0.0190
   2.3439E+00   2.4009E+00   3.2907E-05  0.0187
   2.4009E+00   2.4593E+00   3.1525E-05  0.0189
   2.4593E+00   2.5191E+00   3.0365E-05  0.0190
   2.5191E+00   2.5804E+00   3.0042E-05  0.0189
   2.5804E+00   2.6432E+00   2.9396E-05  0.0189
   2.6432E+00   2.7075E+00   2.8607E-05  0.0189
   2.7075E+00   2.7734E+00   2.9845E-05  0.0183
   2.7734E+00   2.8409E+00   2.7439E-05  0.0188
   2.8409E+00   2.9100E+00   2.7155E-05  0.0187
   2.9100E+00   2.9808E+00   2.7234E-05  0.0185
   2.9808E+00   3.0533E+00   2.5990E-05  0.0187
   3.0533E+00   3.1276E+00   2.5723E-05  0.0185
   3.1276E+00   3.2037E+00   2.5255E-05  0.0185
   3.2037E+00   3.2817E+00   2.4799E-05  0.0184
   3.2817E+00   3.3615E+00   2.3535E-05  0.0187
   3.3615E+00   3.4433E+00   2.3361E-05  0.0185
   3.4433E+00   3.5271E+00   2.2817E-05  0.0185
   3.5271E+00   3.6129E+00   2.2538E-05  0.0185
   3.6129E+00   3.7008E+00   2.1552E-05  0.0186
   3.7008E+00   3.7908E+00   2.0944E-05  0.0187
   3.7908E+00   3.8831E+00   2.0882E-05  0.0185
   3.8831E+00   3.9776E+00   2.0134E-05  0.0186
   3.9776E+00   4.0743E+00   1.9790E-05  0.0185
   4.0743E+00   4.1735E+00   1.9090E-05  0.0187
   4.1735E+00   4.2750E+00   1.9296E-05  0.0184
   4.2750E+00   4.3790E+00   1.9274E-05  0.0181
   4.3790E+00   4.4856E+00   1.8709E-05  0.0182
   4.4856E+00   4.5947E+00   1.7905E-05  0.0184
   4.5947E+00   4.7065E+00   1.8186E-05  0.0180
   4.7065E+00   4.8210E+00   1.6960E-05  0.0184
   4.8210E+00   4.9383E+00   1.6279E-05  0.0186
   4.9383E+00   5.0585E+00   1.6123E-05  0.0185
   5.0585E+00   5.1815E+00   1.4840E-05  0.0190
   5.1815E+00   5.3076E+00   1.4359E-05  0.0191
   5.3076E+00   5.4368E+00   1.3748E-05  0.0193
   5.4368E+00   5.5690E+00   1.3387E-05  0.0193
   5.5690E+00   5.7045E+00   1.2343E-05  0.0199
   5.7045E+00   5.8433E+00   1.1987E-05  0.0199
   5.8433E+00   5.9855E+00   1.1333E-05  0.0203
   5.9855E+00   6.1311E+00   1.0821E-05  0.0205
   6.1311E+00   6.2803E+00   9.6093E-06  0.0215
   6.2803E+00   6.4331E+00   9.8090E-06  0.0210
   6.4331E+00   6.5896E+00   8.8662E-06  0.0219
   6.5896E+00   6.7500E+00   8.5109E-06  0.0220
   6.7500E+00   6.9142E+00   8.1351E-06  0.0223
   6.9142E+00   7.0824E+00   7.5615E-06  0.0229
   7.0824E+00   7.2548E+00   7.4230E-06  0.0228
   7.2548E+00   7.4313E+00   6.7382E-06  0.0236
   7.4313E+00   7.6121E+00   6.0926E-06  0.0246
   7.6121E+00   7.7973E+00   5.5120E-06  0.0255
   7.7973E+00   7.9870E+00   5.3257E-06  0.0257
   7.9870E+00   8.1813E+00   4.9996E-06  0.0262
   8.1813E+00   8.3804E+00   4.3018E-06  0.0279
   8.3804E+00   8.5843E+00   4.1854E-06  0.0279
   8.5843E+00   8.7931E+00   3.7997E-06  0.0290
   8.7931E+00   9.0071E+00   3.5455E-06  0.0296
   9.0071E+00   9.2262E+00   3.3821E-06  0.0300
   9.2262E+00   9.4507E+00   3.0466E-06  0.0312
   9.4507E+00   9.6807E+00   2.7101E-06  0.0327
   9.6807E+00   9.9162E+00   2.4307E-06  0.0341
   9.9162E+00   1.0157E+01   2.1975E-06  0.0355
   1.0157E+01   1.0405E+01   1.9438E-06  0.0372
   1.0405E+01   1.0658E+01   1.6974E-06  0.0394
   1.0658E+01   1.0917E+01   1.6641E-06  0.0393
   1.0917E+01   1.1183E+01   1.4671E-06  0.0413
   1.1183E+01   1.1455E+01   1.3734E-06  0.0422
   1.1455E+01   1.1733E+01   1.3288E-06  0.0424
   1.1733E+01   1.2019E+01   1.0578E-06  0.0470
   1.2019E+01   1.2311E+01   8.7770E-07  0.0510
   1.2311E+01   1.2611E+01   7.8786E-07  0.0531
   1.2611E+01   1.2918E+01   6.5399E-07  0.0576
   1.2918E+01   1.3232E+01   5.9815E-07  0.0595
   1.3232E+01   1.3554E+01   5.4046E-07  0.0619
   1.3554E+01   1.3884E+01   4.4474E-07  0.0674
   1.3884E+01   1.4222E+01   3.8879E-07  0.0712
   1.4222E+01   1.4568E+01   3.4680E-07  0.0745
   1.4568E+01   1.4922E+01   2.7461E-07  0.0828
   1.4922E+01   1.5285E+01   2.3871E-07  0.0877
   1.5285E+01   1.5657E+01   1.9539E-07  0.0958
   1.5657E+01   1.6038E+01   1.6450E-07  0.1031
   1.6038E+01   1.6428E+01   1.5718E-07  0.1043
   1.6428E+01   1.6828E+01   8.0058E-08  0.1443
   1.6828E+01   1.7237E+01   6.1874E-08  0.1622
   1.7237E+01   1.7657E+01   4.9277E-08  0.1796
   1.7657E+01   1.8086E+01   2.3277E-08  0.2582
   1.8086E+01   1.8526E+01   1.9694E-08  0.2774
   1.8526E+01   1.8977E+01   1.3311E-08  0.3333
   1.8977E+01   1.9439E+01   8.6631E-09  0.4082
   1.9439E+01   1.9912E+01   1.1276E-08  0.3536
   1.9912E+01   2.0396E+01   4.1282E-09  0.5774
   2.0396E+01   2.0893E+01   5.3735E-09  0.5000
   2.0893E+01   2.1401E+01   1.3115E-09  1.0000
   2.1401E+01   2.1922E+01   0.0000E+00  0.0000
   2.1922E+01   2.2455E+01   0.0000E+00  0.0000
   2.2455E+01   2.3001E+01   1.2202E-09  1.0000
   2.3001E+01   2.3561E+01   0.0000E+00  0.0000
   2.3561E+01   2.4134E+01   0.0000E+00  0.0000
   2.4134E+01   2.4721E+01   0.0000E+00  0.0000
   2.4721E+01   2.5323E+01   0.0000E+00  0.0000
   2.5323E+01   2.5939E+01   0.0000E+00  0.0000
   2.5939E+01   2.6570E+01   0.0000E+00  0.0000
   2.6570E+01   2.7217E+01   0.0000E+00  0.0000
   2.7217E+01   2.7879E+01   0.0000E+00  0.0000
   2.7879E+01   2.8557E+01   0.0000E+00  0.0000
   2.8557E+01   2.9252E+01   0.0000E+00  0.0000
   2.9252E+01   2.9964E+01   0.0000E+00  0.0000
   2.9964E+01   3.0693E+01   0.0000E+00  0.0000
   3.0693E+01   3.1440E+01   0.0000E+00  0.0000
   3.1440E+01   3.2205E+01   0.0000E+00  0.0000
   3.2205E+01   3.2988E+01   0.0000E+00  0.0000
   3.2988E+01   3.3791E+01   0.0000E+00  0.0000
   3.3791E+01   3.4613E+01   0.0000E+00  0.0000
   3.4613E+01   3.5455E+01   0.0000E+00  0.0000
   3.5455E+01   3.6318E+01   0.0000E+00  0.0000
   3.6318E+01   3.7201E+01   0.0000E+00  0.0000
   3.7201E+01   3.8106E+01   0.0000E+00  0.0000
   3.8106E+01   3.9034E+01   0.0000E+00  0.0000
   3.9034E+01   3.9983E+01   0.0000E+00  0.0000
   3.9983E+01   4.0956E+01   0.0000E+00  0.0000
   4.0956E+01   4.1953E+01   0.0000E+00  0.0000
   4.1953E+01   4.2973E+01   0.0000E+00  0.0000
   4.2973E+01   4.4019E+01   0.0000E+00  0.0000
   4.4019E+01   4.5090E+01   0.0000E+00  0.0000
   4.5090E+01   4.6187E+01   0.0000E+00  0.0000
   4.6187E+01   4.7311E+01   0.0000E+00  0.0000
   4.7311E+01   4.8462E+01   0.0000E+00  0.0000
   4.8462E+01   4.9641E+01   0.0000E+00  0.0000
   4.9641E+01   5.0849E+01   0.0000E+00  0.0000
   5.0849E+01   5.2086E+01   0.0000E+00  0.0000
   5.2086E+01   5.3353E+01   0.0000E+00  0.0000
   5.3353E+01   5.4651E+01   0.0000E+00  0.0000
   5.4651E+01   5.5981E+01   0.0000E+00  0.0000
   5.5981E+01   5.7343E+01   0.0000E+00  0.0000
   5.7343E+01   5.8738E+01   0.0000E+00  0.0000
   5.8738E+01   6.0168E+01   0.0000E+00  0.0000
   6.0168E+01   6.1632E+01   0.0000E+00  0.0000
   6.1632E+01   6.3131E+01   0.0000E+00  0.0000
   6.3131E+01   6.4667E+01   0.0000E+00  0.0000
   6.4667E+01   6.6240E+01   0.0000E+00  0.0000
   6.6240E+01   6.7852E+01   0.0000E+00  0.0000
   6.7852E+01   6.9503E+01   0.0000E+00  0.0000
   6.9503E+01   7.1194E+01   0.0000E+00  0.0000
   7.1194E+01   7.2926E+01   0.0000E+00  0.0000
   7.2926E+01   7.4701E+01   0.0000E+00  0.0000
   7.4701E+01   7.6518E+01   0.0000E+00  0.0000
   7.6518E+01   7.8380E+01   0.0000E+00  0.0000
   7.8380E+01   8.0287E+01   0.0000E+00  0.0000
   8.0287E+01   8.2240E+01   0.0000E+00  0.0000
   8.2240E+01   8.4241E+01   0.0000E+00  0.0000
   8.4241E+01   8.6291E+01   0.0000E+00  0.0000
   8.6291E+01   8.8391E+01   0.0000E+00  0.0000
   8.8391E+01   9.0541E+01   0.0000E+00  0.0000
   9.0541E+01   9.2744E+01   0.0000E+00  0.0000
   9.2744E+01   9.5001E+01   0.0000E+00  0.0000
   9.5001E+01   9.7312E+01   0.0000E+00  0.0000
   9.7312E+01   9.9680E+01   0.0000E+00  0.0000
   9.9680E+01   1.0211E+02   0.0000E+00  0.0000
   1.0211E+02   1.0459E+02   0.0000E+00  0.0000
   1.0459E+02   1.0713E+02   0.0000E+00  0.0000
   1.0713E+02   1.0974E+02   0.0000E+00  0.0000
   1.0974E+02   1.1241E+02   0.0000E+00  0.0000
   1.1241E+02   1.1515E+02   0.0000E+00  0.0000
   1.1515E+02   1.1795E+02   0.0000E+00  0.0000
   1.1795E+02   1.2082E+02   0.0000E+00  0.0000
   1.2082E+02   1.2376E+02   0.0000E+00  0.0000
   1.2376E+02   1.2677E+02   0.0000E+00  0.0000
   1.2677E+02   1.2985E+02   0.0000E+00  0.0000
   1.2985E+02   1.3301E+02   0.0000E+00  0.0000
   1.3301E+02   1.3625E+02   0.0000E+00  0.0000
   1.3625E+02   1.3956E+02   0.0000E+00  0.0000
   1.3956E+02   1.4296E+02   0.0000E+00  0.0000
   1.4296E+02   1.4644E+02   0.0000E+00  0.0000
   1.4644E+02   1.5000E+02   0.0000E+00  0.0000

#   sum over                 2.1088E-06
'no. =    1   reg = 121 - 221'
msuc: {\huge [t-cross] in region mesh}
msdr: {\it plotted by \ANGEL \version}
msdl: {\it calculated by \PHITS  3.26}
wt: s(0.7)
\vspace{-3}
  region surface crossing
  area  &=&   1.0000E+00 [cm^2]
e:
 
# Information for Restart Calculation
# This calculation was newly started
# istdev =  2 # 1:Batch variance, 2:History variance
# resc2  = 1.50000000000000000E+09 # Total source weight or Total source weight / maxcas
# resc3  = 1.50000000000000000E+09 # Total history number or Total batch number
# maxcas =   500000000 # History / Batch, only used for istdev=1
# bitrseed = 0000010101110101110110100110011001100101000001100111100100101101 # bit data of rseed
