[ T-Cross ]
    title = [t-cross] in region mesh
     mesh =  reg            # mesh type is region-wise
      reg =    1            # number of crossing regions
      non     r-from    r-to       area
      1       104       204        1.000000    
   e-type =    3            # e-mesh is log given by emin, emax and ne
     emin =  1.0000000E-02  # minimum value of e-mesh points
     emax =   150.0000      # maximum value of e-mesh points
#    edel =  2.4039514E-02  # mesh width of e-mesh points
       ne =    400          # number of e-mesh points
#    data = ( e(i), i = 1, ne + 1 )
#           1.00000E-02  1.02433E-02  1.04925E-02  1.07478E-02  1.10093E-02
#           1.12772E-02  1.15516E-02  1.18326E-02  1.21205E-02  1.24154E-02
#           1.27175E-02  1.30269E-02  1.33439E-02  1.36686E-02  1.40011E-02
#           1.43418E-02  1.46907E-02  1.50482E-02  1.54143E-02  1.57894E-02
#           1.61735E-02  1.65670E-02  1.69701E-02  1.73830E-02  1.78060E-02
#           1.82392E-02  1.86830E-02  1.91375E-02  1.96032E-02  2.00801E-02
#           2.05687E-02  2.10692E-02  2.15818E-02  2.21069E-02  2.26448E-02
#           2.31957E-02  2.37601E-02  2.43382E-02  2.49304E-02  2.55369E-02
#           2.61583E-02  2.67947E-02  2.74467E-02  2.81145E-02  2.87985E-02
#           2.94992E-02  3.02169E-02  3.09521E-02  3.17052E-02  3.24766E-02
#           3.32668E-02  3.40762E-02  3.49053E-02  3.57546E-02  3.66246E-02
#           3.75157E-02  3.84284E-02  3.93634E-02  4.03212E-02  4.13022E-02
#           4.23071E-02  4.33365E-02  4.43909E-02  4.54710E-02  4.65773E-02
#           4.77106E-02  4.88714E-02  5.00605E-02  5.12785E-02  5.25262E-02
#           5.38042E-02  5.51133E-02  5.64542E-02  5.78278E-02  5.92348E-02
#           6.06760E-02  6.21523E-02  6.36645E-02  6.52135E-02  6.68002E-02
#           6.84255E-02  7.00904E-02  7.17957E-02  7.35426E-02  7.53319E-02
#           7.71648E-02  7.90423E-02  8.09655E-02  8.29354E-02  8.49533E-02
#           8.70203E-02  8.91376E-02  9.13064E-02  9.35279E-02  9.58035E-02
#           9.81345E-02  1.00522E-01  1.02968E-01  1.05473E-01  1.08040E-01
#           1.10668E-01  1.13361E-01  1.16119E-01  1.18944E-01  1.21838E-01
#           1.24803E-01  1.27839E-01  1.30950E-01  1.34136E-01  1.37399E-01
#           1.40742E-01  1.44167E-01  1.47675E-01  1.51268E-01  1.54948E-01
#           1.58718E-01  1.62580E-01  1.66535E-01  1.70587E-01  1.74738E-01
#           1.78989E-01  1.83344E-01  1.87805E-01  1.92375E-01  1.97055E-01
#           2.01850E-01  2.06761E-01  2.11792E-01  2.16945E-01  2.22223E-01
#           2.27630E-01  2.33169E-01  2.38842E-01  2.44653E-01  2.50605E-01
#           2.56703E-01  2.62949E-01  2.69346E-01  2.75900E-01  2.82613E-01
#           2.89489E-01  2.96532E-01  3.03747E-01  3.11138E-01  3.18708E-01
#           3.26462E-01  3.34405E-01  3.42542E-01  3.50876E-01  3.59413E-01
#           3.68158E-01  3.77116E-01  3.86291E-01  3.95690E-01  4.05317E-01
#           4.15179E-01  4.25281E-01  4.35628E-01  4.46227E-01  4.57084E-01
#           4.68205E-01  4.79597E-01  4.91266E-01  5.03219E-01  5.15463E-01
#           5.28005E-01  5.40851E-01  5.54011E-01  5.67490E-01  5.81298E-01
#           5.95441E-01  6.09929E-01  6.24769E-01  6.39970E-01  6.55541E-01
#           6.71491E-01  6.87828E-01  7.04564E-01  7.21706E-01  7.39266E-01
#           7.57253E-01  7.75678E-01  7.94551E-01  8.13883E-01  8.33685E-01
#           8.53969E-01  8.74747E-01  8.96030E-01  9.17831E-01  9.40163E-01
#           9.63038E-01  9.86469E-01  1.01047E+00  1.03506E+00  1.06024E+00
#           1.08604E+00  1.11246E+00  1.13953E+00  1.16725E+00  1.19565E+00
#           1.22474E+00  1.25454E+00  1.28507E+00  1.31633E+00  1.34836E+00
#           1.38117E+00  1.41477E+00  1.44920E+00  1.48446E+00  1.52057E+00
#           1.55757E+00  1.59547E+00  1.63429E+00  1.67405E+00  1.71478E+00
#           1.75650E+00  1.79924E+00  1.84302E+00  1.88786E+00  1.93379E+00
#           1.98084E+00  2.02904E+00  2.07841E+00  2.12898E+00  2.18078E+00
#           2.23384E+00  2.28819E+00  2.34386E+00  2.40089E+00  2.45930E+00
#           2.51914E+00  2.58043E+00  2.64322E+00  2.70753E+00  2.77341E+00
#           2.84088E+00  2.91001E+00  2.98081E+00  3.05333E+00  3.12762E+00
#           3.20372E+00  3.28167E+00  3.36152E+00  3.44330E+00  3.52708E+00
#           3.61290E+00  3.70080E+00  3.79085E+00  3.88308E+00  3.97756E+00
#           4.07434E+00  4.17347E+00  4.27501E+00  4.37903E+00  4.48557E+00
#           4.59471E+00  4.70650E+00  4.82102E+00  4.93832E+00  5.05847E+00
#           5.18155E+00  5.30762E+00  5.43676E+00  5.56904E+00  5.70453E+00
#           5.84333E+00  5.98550E+00  6.13114E+00  6.28031E+00  6.43312E+00
#           6.58964E+00  6.74997E+00  6.91420E+00  7.08243E+00  7.25475E+00
#           7.43126E+00  7.61207E+00  7.79728E+00  7.98700E+00  8.18133E+00
#           8.38038E+00  8.58428E+00  8.79315E+00  9.00709E+00  9.22624E+00
#           9.45072E+00  9.68067E+00  9.91620E+00  1.01575E+01  1.04046E+01
#           1.06578E+01  1.09171E+01  1.11827E+01  1.14548E+01  1.17335E+01
#           1.20190E+01  1.23114E+01  1.26109E+01  1.29178E+01  1.32321E+01
#           1.35540E+01  1.38838E+01  1.42216E+01  1.45676E+01  1.49221E+01
#           1.52851E+01  1.56570E+01  1.60380E+01  1.64282E+01  1.68279E+01
#           1.72374E+01  1.76568E+01  1.80864E+01  1.85264E+01  1.89772E+01
#           1.94389E+01  1.99119E+01  2.03963E+01  2.08926E+01  2.14009E+01
#           2.19216E+01  2.24550E+01  2.30014E+01  2.35610E+01  2.41343E+01
#           2.47215E+01  2.53230E+01  2.59391E+01  2.65702E+01  2.72167E+01
#           2.78789E+01  2.85572E+01  2.92520E+01  2.99637E+01  3.06928E+01
#           3.14396E+01  3.22045E+01  3.29881E+01  3.37907E+01  3.46128E+01
#           3.54550E+01  3.63177E+01  3.72013E+01  3.81064E+01  3.90336E+01
#           3.99833E+01  4.09561E+01  4.19526E+01  4.29734E+01  4.40189E+01
#           4.50900E+01  4.61870E+01  4.73108E+01  4.84619E+01  4.96410E+01
#           5.08488E+01  5.20860E+01  5.33533E+01  5.46514E+01  5.59812E+01
#           5.73432E+01  5.87384E+01  6.01676E+01  6.16315E+01  6.31311E+01
#           6.46671E+01  6.62405E+01  6.78522E+01  6.95031E+01  7.11941E+01
#           7.29263E+01  7.47007E+01  7.65182E+01  7.83800E+01  8.02870E+01
#           8.22405E+01  8.42414E+01  8.62911E+01  8.83906E+01  9.05412E+01
#           9.27442E+01  9.50007E+01  9.73122E+01  9.96799E+01  1.02105E+02
#           1.04589E+02  1.07134E+02  1.09741E+02  1.12411E+02  1.15146E+02
#           1.17948E+02  1.20817E+02  1.23757E+02  1.26768E+02  1.29852E+02
#           1.33012E+02  1.36248E+02  1.39563E+02  1.42959E+02  1.46437E+02
#           1.50000E+02
     unit =    2            # unit is [1/cm^2/(MeV/n)/source]
     axis =  eng            # axis of output
     file = detector-05.out  # file name of output for the above axis
   output = f-curr          # surface crossing forward current spectrum
     part =  neutron  
# kf/name :  2112     
#    used :        main (  %)        temp (  %)       total (  %)
#  memory :         414 (  0)           0 (  0)         414 (  0)

#------------------------------------------------------------------------------
#newpage:
#   no. =    1   reg = 104 - 204

x: Energy [MeV/n]
y:  F-Curr [1/cm^2/(MeV/n)/source]         
p: xlog ylog afac(0.8) form(0.9)
h: n            x            y(neutron ),hh0l   n 
#  e-lower      e-upper      neutron     r.err 
   1.0000E-02   1.0243E-02   1.7603E-04  0.0762
   1.0243E-02   1.0493E-02   1.4923E-04  0.0817
   1.0493E-02   1.0748E-02   1.4032E-04  0.0833
   1.0748E-02   1.1009E-02   1.4859E-04  0.0800
   1.1009E-02   1.1277E-02   1.7715E-04  0.0725
   1.1277E-02   1.1552E-02   1.3621E-04  0.0817
   1.1552E-02   1.1833E-02   1.5062E-04  0.0768
   1.1833E-02   1.2121E-02   1.3049E-04  0.0815
   1.2121E-02   1.2415E-02   1.2475E-04  0.0823
   1.2415E-02   1.2718E-02   1.6400E-04  0.0709
   1.2718E-02   1.3027E-02   1.4745E-04  0.0738
   1.3027E-02   1.3344E-02   1.3945E-04  0.0751
   1.3344E-02   1.3669E-02   1.1803E-04  0.0807
   1.3669E-02   1.4001E-02   1.2591E-04  0.0772
   1.4001E-02   1.4342E-02   1.4836E-04  0.0703
   1.4342E-02   1.4691E-02   1.2418E-04  0.0758
   1.4691E-02   1.5048E-02   1.2881E-04  0.0737
   1.5048E-02   1.5414E-02   1.3631E-04  0.0707
   1.5414E-02   1.5789E-02   1.2366E-04  0.0732
   1.5789E-02   1.6174E-02   1.1775E-04  0.0742
   1.6174E-02   1.6567E-02   1.1275E-04  0.0749
   1.6567E-02   1.6970E-02   1.1558E-04  0.0731
   1.6970E-02   1.7383E-02   1.0811E-04  0.0746
   1.7383E-02   1.7806E-02   1.1123E-04  0.0728
   1.7806E-02   1.8239E-02   1.0433E-04  0.0743
   1.8239E-02   1.8683E-02   1.0335E-04  0.0738
   1.8683E-02   1.9138E-02   1.0469E-04  0.0723
   1.9138E-02   1.9603E-02   1.0692E-04  0.0708
   1.9603E-02   2.0080E-02   9.3919E-05  0.0746
   2.0080E-02   2.0569E-02   1.0052E-04  0.0711
   2.0569E-02   2.1069E-02   7.7831E-05  0.0800
   2.1069E-02   2.1582E-02   7.9980E-05  0.0781
   2.1582E-02   2.2107E-02   9.1505E-05  0.0720
   2.2107E-02   2.2645E-02   8.0315E-05  0.0759
   2.2645E-02   2.3196E-02   9.2186E-05  0.0700
   2.3196E-02   2.3760E-02   8.3994E-05  0.0724
   2.3760E-02   2.4338E-02   7.9494E-05  0.0737
   2.4338E-02   2.4930E-02   8.2736E-05  0.0713
   2.4930E-02   2.5537E-02   7.6440E-05  0.0733
   2.5537E-02   2.6158E-02   7.5391E-05  0.0728
   2.6158E-02   2.6795E-02   8.5368E-05  0.0677
   2.6795E-02   2.7447E-02   7.3958E-05  0.0719
   2.7447E-02   2.8114E-02   6.8425E-05  0.0738
   2.8114E-02   2.8799E-02   6.6030E-05  0.0743
   2.8799E-02   2.9499E-02   6.4285E-05  0.0744
   2.9499E-02   3.0217E-02   7.0481E-05  0.0702
   3.0217E-02   3.0952E-02   7.1905E-05  0.0686
   3.0952E-02   3.1705E-02   6.7934E-05  0.0698
   3.1705E-02   3.2477E-02   6.2107E-05  0.0721
   3.2477E-02   3.3267E-02   6.8635E-05  0.0678
   3.3267E-02   3.4076E-02   6.6561E-05  0.0681
   3.4076E-02   3.4905E-02   5.9398E-05  0.0710
   3.4905E-02   3.5755E-02   6.1278E-05  0.0691
   3.5755E-02   3.6625E-02   5.9758E-05  0.0692
   3.6625E-02   3.7516E-02   5.3291E-05  0.0723
   3.7516E-02   3.8428E-02   5.4581E-05  0.0708
   3.8428E-02   3.9363E-02   5.8605E-05  0.0674
   3.9363E-02   4.0321E-02   5.3239E-05  0.0698
   4.0321E-02   4.1302E-02   5.4808E-05  0.0681
   4.1302E-02   4.2307E-02   4.9993E-05  0.0704
   4.2307E-02   4.3337E-02   5.2814E-05  0.0678
   4.3337E-02   4.4391E-02   4.7406E-05  0.0705
   4.4391E-02   4.5471E-02   4.0848E-05  0.0751
   4.5471E-02   4.6577E-02   4.5071E-05  0.0706
   4.6577E-02   4.7711E-02   5.1214E-05  0.0656
   4.7711E-02   4.8871E-02   4.9825E-05  0.0656
   4.8871E-02   5.0061E-02   4.2680E-05  0.0701
   5.0061E-02   5.1279E-02   4.6479E-05  0.0663
   5.1279E-02   5.2526E-02   4.5520E-05  0.0662
   5.2526E-02   5.3804E-02   3.9912E-05  0.0699
   5.3804E-02   5.5113E-02   4.7763E-05  0.0631
   5.5113E-02   5.6454E-02   4.4518E-05  0.0646
   5.6454E-02   5.7828E-02   3.9122E-05  0.0680
   5.7828E-02   5.9235E-02   3.5863E-05  0.0702
   5.9235E-02   6.0676E-02   3.4199E-05  0.0711
   6.0676E-02   6.2152E-02   3.5812E-05  0.0687
   6.2152E-02   6.3665E-02   3.4766E-05  0.0689
   6.3665E-02   6.5214E-02   3.6847E-05  0.0661
   6.5214E-02   6.6800E-02   3.3026E-05  0.0689
   6.6800E-02   6.8426E-02   3.4961E-05  0.0662
   6.8426E-02   7.0090E-02   2.8030E-05  0.0730
   7.0090E-02   7.1796E-02   3.2219E-05  0.0673
   7.1796E-02   7.3543E-02   2.8838E-05  0.0703
   7.3543E-02   7.5332E-02   2.9964E-05  0.0681
   7.5332E-02   7.7165E-02   2.8050E-05  0.0696
   7.7165E-02   7.9042E-02   2.7141E-05  0.0699
   7.9042E-02   8.0965E-02   2.6536E-05  0.0698
   8.0965E-02   8.2935E-02   2.6660E-05  0.0689
   8.2935E-02   8.4953E-02   2.6615E-05  0.0680
   8.4953E-02   8.7020E-02   2.5577E-05  0.0686
   8.7020E-02   8.9138E-02   2.6034E-05  0.0673
   8.9138E-02   9.1306E-02   2.3400E-05  0.0701
   9.1306E-02   9.3528E-02   2.4718E-05  0.0673
   9.3528E-02   9.5804E-02   2.4343E-05  0.0669
   9.5804E-02   9.8134E-02   2.1513E-05  0.0704
   9.8134E-02   1.0052E-01   2.0764E-05  0.0709
   1.0052E-01   1.0297E-01   2.0722E-05  0.0700
   1.0297E-01   1.0547E-01   2.0874E-05  0.0690
   1.0547E-01   1.0804E-01   1.9545E-05  0.0704
   1.0804E-01   1.1067E-01   1.9068E-05  0.0705
   1.1067E-01   1.1336E-01   2.1305E-05  0.0659
   1.1336E-01   1.1612E-01   1.6568E-05  0.0738
   1.1612E-01   1.1894E-01   1.9583E-05  0.0670
   1.1894E-01   1.2184E-01   1.7517E-05  0.0699
   1.2184E-01   1.2480E-01   1.8215E-05  0.0679
   1.2480E-01   1.2784E-01   1.7763E-05  0.0678
   1.2784E-01   1.3095E-01   1.6239E-05  0.0701
   1.3095E-01   1.3414E-01   1.6330E-05  0.0692
   1.3414E-01   1.3740E-01   1.7722E-05  0.0654
   1.3740E-01   1.4074E-01   1.5251E-05  0.0698
   1.4074E-01   1.4417E-01   1.5095E-05  0.0695
   1.4417E-01   1.4767E-01   1.5026E-05  0.0687
   1.4767E-01   1.5127E-01   1.5985E-05  0.0658
   1.5127E-01   1.5495E-01   1.5087E-05  0.0670
   1.5495E-01   1.5872E-01   1.4470E-05  0.0675
   1.5872E-01   1.6258E-01   1.4220E-05  0.0673
   1.6258E-01   1.6654E-01   1.2427E-05  0.0711
   1.6654E-01   1.7059E-01   1.3952E-05  0.0664
   1.7059E-01   1.7474E-01   1.3916E-05  0.0656
   1.7474E-01   1.7899E-01   1.3051E-05  0.0670
   1.7899E-01   1.8334E-01   1.1204E-05  0.0716
   1.8334E-01   1.8781E-01   1.1077E-05  0.0709
   1.8781E-01   1.9237E-01   1.3275E-05  0.0641
   1.9237E-01   1.9706E-01   1.1891E-05  0.0669
   1.9706E-01   2.0185E-01   1.3312E-05  0.0624
   2.0185E-01   2.0676E-01   1.2493E-05  0.0636
   2.0676E-01   2.1179E-01   1.2305E-05  0.0633
   2.1179E-01   2.1694E-01   1.2709E-05  0.0616
   2.1694E-01   2.2222E-01   1.2614E-05  0.0611
   2.2222E-01   2.2763E-01   1.3183E-05  0.0590
   2.2763E-01   2.3317E-01   1.3427E-05  0.0578
   2.3317E-01   2.3884E-01   1.3534E-05  0.0570
   2.3884E-01   2.4465E-01   1.3198E-05  0.0569
   2.4465E-01   2.5061E-01   1.4239E-05  0.0542
   2.5061E-01   2.5670E-01   1.5189E-05  0.0518
   2.5670E-01   2.6295E-01   1.6057E-05  0.0498
   2.6295E-01   2.6935E-01   1.6617E-05  0.0484
   2.6935E-01   2.7590E-01   1.5662E-05  0.0492
   2.7590E-01   2.8261E-01   1.8245E-05  0.0451
   2.8261E-01   2.8949E-01   1.7784E-05  0.0450
   2.8949E-01   2.9653E-01   1.8641E-05  0.0435
   2.9653E-01   3.0375E-01   1.8582E-05  0.0431
   3.0375E-01   3.1114E-01   2.0228E-05  0.0408
   3.1114E-01   3.1871E-01   2.0099E-05  0.0404
   3.1871E-01   3.2646E-01   1.9632E-05  0.0404
   3.2646E-01   3.3441E-01   2.0706E-05  0.0389
   3.3441E-01   3.4254E-01   2.1222E-05  0.0379
   3.4254E-01   3.5088E-01   2.1638E-05  0.0372
   3.5088E-01   3.5941E-01   2.1982E-05  0.0364
   3.5941E-01   3.6816E-01   2.3686E-05  0.0347
   3.6816E-01   3.7712E-01   2.2679E-05  0.0350
   3.7712E-01   3.8629E-01   2.4310E-05  0.0334
   3.8629E-01   3.9569E-01   2.3834E-05  0.0333
   3.9569E-01   4.0532E-01   2.4477E-05  0.0325
   4.0532E-01   4.1518E-01   2.4937E-05  0.0318
   4.1518E-01   4.2528E-01   2.6013E-05  0.0307
   4.2528E-01   4.3563E-01   2.4579E-05  0.0313
   4.3563E-01   4.4623E-01   2.5880E-05  0.0301
   4.4623E-01   4.5708E-01   2.7031E-05  0.0291
   4.5708E-01   4.6821E-01   2.6910E-05  0.0288
   4.6821E-01   4.7960E-01   2.7862E-05  0.0280
   4.7960E-01   4.9127E-01   2.8068E-05  0.0276
   4.9127E-01   5.0322E-01   2.8223E-05  0.0272
   5.0322E-01   5.1546E-01   2.8534E-05  0.0267
   5.1546E-01   5.2800E-01   2.8217E-05  0.0265
   5.2800E-01   5.4085E-01   3.0214E-05  0.0253
   5.4085E-01   5.5401E-01   2.9730E-05  0.0252
   5.5401E-01   5.6749E-01   2.9547E-05  0.0250
   5.6749E-01   5.8130E-01   2.9407E-05  0.0247
   5.8130E-01   5.9544E-01   3.0190E-05  0.0241
   5.9544E-01   6.0993E-01   2.9055E-05  0.0243
   6.0993E-01   6.2477E-01   3.0312E-05  0.0235
   6.2477E-01   6.3997E-01   3.0569E-05  0.0231
   6.3997E-01   6.5554E-01   3.0074E-05  0.0230
   6.5554E-01   6.7149E-01   3.0106E-05  0.0228
   6.7149E-01   6.8783E-01   3.1301E-05  0.0221
   6.8783E-01   7.0456E-01   3.1765E-05  0.0216
   7.0456E-01   7.2171E-01   3.1229E-05  0.0216
   7.2171E-01   7.3927E-01   3.0590E-05  0.0215
   7.3927E-01   7.5725E-01   3.1697E-05  0.0209
   7.5725E-01   7.7568E-01   3.1490E-05  0.0207
   7.7568E-01   7.9455E-01   3.1552E-05  0.0204
   7.9455E-01   8.1388E-01   3.1541E-05  0.0202
   8.1388E-01   8.3368E-01   3.0920E-05  0.0202
   8.3368E-01   8.5397E-01   3.0369E-05  0.0201
   8.5397E-01   8.7475E-01   3.0534E-05  0.0198
   8.7475E-01   8.9603E-01   2.9612E-05  0.0199
   8.9603E-01   9.1783E-01   2.8652E-05  0.0200
   9.1783E-01   9.4016E-01   2.9880E-05  0.0193
   9.4016E-01   9.6304E-01   2.7798E-05  0.0198
   9.6304E-01   9.8647E-01   2.7905E-05  0.0195
   9.8647E-01   1.0105E+00   2.6072E-05  0.0199
   1.0105E+00   1.0351E+00   2.7501E-05  0.0192
   1.0351E+00   1.0602E+00   2.7018E-05  0.0191
   1.0602E+00   1.0860E+00   2.7615E-05  0.0187
   1.0860E+00   1.1125E+00   2.7137E-05  0.0186
   1.1125E+00   1.1395E+00   2.8326E-05  0.0180
   1.1395E+00   1.1673E+00   2.8759E-05  0.0177
   1.1673E+00   1.1957E+00   2.9412E-05  0.0173
   1.1957E+00   1.2247E+00   3.1008E-05  0.0166
   1.2247E+00   1.2545E+00   3.1350E-05  0.0163
   1.2545E+00   1.2851E+00   2.9291E-05  0.0167
   1.2851E+00   1.3163E+00   3.1065E-05  0.0160
   1.3163E+00   1.3484E+00   3.1657E-05  0.0157
   1.3484E+00   1.3812E+00   3.3031E-05  0.0152
   1.3812E+00   1.4148E+00   3.2860E-05  0.0150
   1.4148E+00   1.4492E+00   3.3854E-05  0.0146
   1.4492E+00   1.4845E+00   3.2885E-05  0.0147
   1.4845E+00   1.5206E+00   3.3875E-05  0.0143
   1.5206E+00   1.5576E+00   3.4566E-05  0.0139
   1.5576E+00   1.5955E+00   3.2698E-05  0.0142
   1.5955E+00   1.6343E+00   3.3854E-05  0.0138
   1.6343E+00   1.6741E+00   3.4997E-05  0.0134
   1.6741E+00   1.7148E+00   3.5000E-05  0.0132
   1.7148E+00   1.7565E+00   3.5378E-05  0.0130
   1.7565E+00   1.7992E+00   3.5608E-05  0.0128
   1.7992E+00   1.8430E+00   3.5943E-05  0.0126
   1.8430E+00   1.8879E+00   3.5254E-05  0.0125
   1.8879E+00   1.9338E+00   3.6556E-05  0.0122
   1.9338E+00   1.9808E+00   3.6217E-05  0.0121
   1.9808E+00   2.0290E+00   3.7049E-05  0.0118
   2.0290E+00   2.0784E+00   3.7255E-05  0.0116
   2.0784E+00   2.1290E+00   3.7600E-05  0.0114
   2.1290E+00   2.1808E+00   3.8269E-05  0.0112
   2.1808E+00   2.2338E+00   3.8024E-05  0.0111
   2.2338E+00   2.2882E+00   3.8789E-05  0.0109
   2.2882E+00   2.3439E+00   3.8556E-05  0.0108
   2.3439E+00   2.4009E+00   4.0025E-05  0.0104
   2.4009E+00   2.4593E+00   4.0302E-05  0.0103
   2.4593E+00   2.5191E+00   4.0564E-05  0.0101
   2.5191E+00   2.5804E+00   3.9403E-05  0.0102
   2.5804E+00   2.6432E+00   4.1392E-05  0.0098
   2.6432E+00   2.7075E+00   4.1575E-05  0.0097
   2.7075E+00   2.7734E+00   4.1290E-05  0.0096
   2.7734E+00   2.8409E+00   4.2115E-05  0.0094
   2.8409E+00   2.9100E+00   4.2680E-05  0.0092
   2.9100E+00   2.9808E+00   4.2688E-05  0.0091
   2.9808E+00   3.0533E+00   4.2871E-05  0.0090
   3.0533E+00   3.1276E+00   4.3905E-05  0.0087
   3.1276E+00   3.2037E+00   4.5187E-05  0.0085
   3.2037E+00   3.2817E+00   4.4770E-05  0.0085
   3.2817E+00   3.3615E+00   4.6167E-05  0.0082
   3.3615E+00   3.4433E+00   4.6552E-05  0.0081
   3.4433E+00   3.5271E+00   4.6681E-05  0.0080
   3.5271E+00   3.6129E+00   4.6554E-05  0.0079
   3.6129E+00   3.7008E+00   4.7310E-05  0.0077
   3.7008E+00   3.7908E+00   4.7461E-05  0.0076
   3.7908E+00   3.8831E+00   4.8616E-05  0.0075
   3.8831E+00   3.9776E+00   4.8618E-05  0.0074
   3.9776E+00   4.0743E+00   4.9368E-05  0.0072
   4.0743E+00   4.1735E+00   5.0526E-05  0.0071
   4.1735E+00   4.2750E+00   5.0048E-05  0.0070
   4.2750E+00   4.3790E+00   5.0751E-05  0.0069
   4.3790E+00   4.4856E+00   5.1109E-05  0.0068
   4.4856E+00   4.5947E+00   5.1757E-05  0.0066
   4.5947E+00   4.7065E+00   5.2633E-05  0.0065
   4.7065E+00   4.8210E+00   5.2706E-05  0.0064
   4.8210E+00   4.9383E+00   5.3178E-05  0.0063
   4.9383E+00   5.0585E+00   5.3797E-05  0.0062
   5.0585E+00   5.1815E+00   5.4069E-05  0.0061
   5.1815E+00   5.3076E+00   5.4744E-05  0.0060
   5.3076E+00   5.4368E+00   5.4731E-05  0.0059
   5.4368E+00   5.5690E+00   5.5548E-05  0.0058
   5.5690E+00   5.7045E+00   5.5541E-05  0.0058
   5.7045E+00   5.8433E+00   5.6076E-05  0.0057
   5.8433E+00   5.9855E+00   5.6485E-05  0.0056
   5.9855E+00   6.1311E+00   5.6853E-05  0.0055
   6.1311E+00   6.2803E+00   5.6921E-05  0.0054
   6.2803E+00   6.4331E+00   5.7037E-05  0.0054
   6.4331E+00   6.5896E+00   5.7435E-05  0.0053
   6.5896E+00   6.7500E+00   5.7803E-05  0.0052
   6.7500E+00   6.9142E+00   5.7819E-05  0.0051
   6.9142E+00   7.0824E+00   5.7930E-05  0.0051
   7.0824E+00   7.2548E+00   5.7277E-05  0.0050
   7.2548E+00   7.4313E+00   5.7363E-05  0.0050
   7.4313E+00   7.6121E+00   5.7204E-05  0.0049
   7.6121E+00   7.7973E+00   5.6970E-05  0.0049
   7.7973E+00   7.9870E+00   5.7027E-05  0.0048
   7.9870E+00   8.1813E+00   5.6497E-05  0.0048
   8.1813E+00   8.3804E+00   5.5864E-05  0.0047
   8.3804E+00   8.5843E+00   5.5186E-05  0.0047
   8.5843E+00   8.7931E+00   5.4649E-05  0.0047
   8.7931E+00   9.0071E+00   5.4638E-05  0.0046
   9.0071E+00   9.2262E+00   5.3320E-05  0.0046
   9.2262E+00   9.4507E+00   5.2620E-05  0.0046
   9.4507E+00   9.6807E+00   5.2336E-05  0.0046
   9.6807E+00   9.9162E+00   5.1128E-05  0.0046
   9.9162E+00   1.0157E+01   5.0259E-05  0.0045
   1.0157E+01   1.0405E+01   4.8892E-05  0.0045
   1.0405E+01   1.0658E+01   4.8260E-05  0.0045
   1.0658E+01   1.0917E+01   4.6810E-05  0.0045
   1.0917E+01   1.1183E+01   4.5874E-05  0.0045
   1.1183E+01   1.1455E+01   4.4229E-05  0.0046
   1.1455E+01   1.1733E+01   4.2837E-05  0.0046
   1.1733E+01   1.2019E+01   4.1699E-05  0.0046
   1.2019E+01   1.2311E+01   4.0227E-05  0.0046
   1.2311E+01   1.2611E+01   3.8722E-05  0.0046
   1.2611E+01   1.2918E+01   3.7161E-05  0.0047
   1.2918E+01   1.3232E+01   3.5374E-05  0.0047
   1.3232E+01   1.3554E+01   3.3684E-05  0.0048
   1.3554E+01   1.3884E+01   3.2112E-05  0.0049
   1.3884E+01   1.4222E+01   3.0500E-05  0.0049
   1.4222E+01   1.4568E+01   2.9057E-05  0.0050
   1.4568E+01   1.4922E+01   2.7476E-05  0.0051
   1.4922E+01   1.5285E+01   2.5833E-05  0.0052
   1.5285E+01   1.5657E+01   2.4390E-05  0.0052
   1.5657E+01   1.6038E+01   2.2909E-05  0.0054
   1.6038E+01   1.6428E+01   2.1468E-05  0.0055
   1.6428E+01   1.6828E+01   2.0002E-05  0.0056
   1.6828E+01   1.7237E+01   1.8825E-05  0.0057
   1.7237E+01   1.7657E+01   1.7579E-05  0.0058
   1.7657E+01   1.8086E+01   1.6535E-05  0.0059
   1.8086E+01   1.8526E+01   1.5157E-05  0.0061
   1.8526E+01   1.8977E+01   1.4182E-05  0.0063
   1.8977E+01   1.9439E+01   1.3252E-05  0.0064
   1.9439E+01   1.9912E+01   1.2292E-05  0.0066
   1.9912E+01   2.0396E+01   1.1595E-05  0.0067
   2.0396E+01   2.0893E+01   1.0813E-05  0.0068
   2.0893E+01   2.1401E+01   9.9172E-06  0.0070
   2.1401E+01   2.1922E+01   9.0714E-06  0.0073
   2.1922E+01   2.2455E+01   8.3197E-06  0.0075
   2.2455E+01   2.3001E+01   7.4714E-06  0.0078
   2.3001E+01   2.3561E+01   6.7490E-06  0.0081
   2.3561E+01   2.4134E+01   6.1103E-06  0.0084
   2.4134E+01   2.4721E+01   5.6416E-06  0.0087
   2.4721E+01   2.5323E+01   5.1085E-06  0.0090
   2.5323E+01   2.5939E+01   4.7113E-06  0.0093
   2.5939E+01   2.6570E+01   4.2365E-06  0.0097
   2.6570E+01   2.7217E+01   3.9356E-06  0.0099
   2.7217E+01   2.7879E+01   3.5254E-06  0.0103
   2.7879E+01   2.8557E+01   3.3318E-06  0.0105
   2.8557E+01   2.9252E+01   3.0569E-06  0.0108
   2.9252E+01   2.9964E+01   2.8066E-06  0.0112
   2.9964E+01   3.0693E+01   2.4697E-06  0.0118
   3.0693E+01   3.1440E+01   2.1231E-06  0.0126
   3.1440E+01   3.2205E+01   1.8050E-06  0.0135
   3.2205E+01   3.2988E+01   1.5197E-06  0.0145
   3.2988E+01   3.3791E+01   1.2335E-06  0.0159
   3.3791E+01   3.4613E+01   1.0150E-06  0.0173
   3.4613E+01   3.5455E+01   7.0622E-07  0.0205
   3.5455E+01   3.6318E+01   4.8658E-07  0.0244
   3.6318E+01   3.7201E+01   3.5309E-07  0.0283
   3.7201E+01   3.8106E+01   2.5604E-07  0.0328
   3.8106E+01   3.9034E+01   1.6044E-07  0.0410
   3.9034E+01   3.9983E+01   1.2820E-07  0.0453
   3.9983E+01   4.0956E+01   1.0254E-07  0.0501
   4.0956E+01   4.1953E+01   3.0106E-09  0.2887
   4.1953E+01   4.2973E+01   0.0000E+00  0.0000
   4.2973E+01   4.4019E+01   0.0000E+00  0.0000
   4.4019E+01   4.5090E+01   0.0000E+00  0.0000
   4.5090E+01   4.6187E+01   0.0000E+00  0.0000
   4.6187E+01   4.7311E+01   0.0000E+00  0.0000
   4.7311E+01   4.8462E+01   0.0000E+00  0.0000
   4.8462E+01   4.9641E+01   0.0000E+00  0.0000
   4.9641E+01   5.0849E+01   0.0000E+00  0.0000
   5.0849E+01   5.2086E+01   0.0000E+00  0.0000
   5.2086E+01   5.3353E+01   0.0000E+00  0.0000
   5.3353E+01   5.4651E+01   0.0000E+00  0.0000
   5.4651E+01   5.5981E+01   0.0000E+00  0.0000
   5.5981E+01   5.7343E+01   0.0000E+00  0.0000
   5.7343E+01   5.8738E+01   0.0000E+00  0.0000
   5.8738E+01   6.0168E+01   0.0000E+00  0.0000
   6.0168E+01   6.1632E+01   0.0000E+00  0.0000
   6.1632E+01   6.3131E+01   0.0000E+00  0.0000
   6.3131E+01   6.4667E+01   0.0000E+00  0.0000
   6.4667E+01   6.6240E+01   0.0000E+00  0.0000
   6.6240E+01   6.7852E+01   0.0000E+00  0.0000
   6.7852E+01   6.9503E+01   0.0000E+00  0.0000
   6.9503E+01   7.1194E+01   0.0000E+00  0.0000
   7.1194E+01   7.2926E+01   0.0000E+00  0.0000
   7.2926E+01   7.4701E+01   0.0000E+00  0.0000
   7.4701E+01   7.6518E+01   0.0000E+00  0.0000
   7.6518E+01   7.8380E+01   0.0000E+00  0.0000
   7.8380E+01   8.0287E+01   0.0000E+00  0.0000
   8.0287E+01   8.2240E+01   0.0000E+00  0.0000
   8.2240E+01   8.4241E+01   0.0000E+00  0.0000
   8.4241E+01   8.6291E+01   0.0000E+00  0.0000
   8.6291E+01   8.8391E+01   0.0000E+00  0.0000
   8.8391E+01   9.0541E+01   0.0000E+00  0.0000
   9.0541E+01   9.2744E+01   0.0000E+00  0.0000
   9.2744E+01   9.5001E+01   0.0000E+00  0.0000
   9.5001E+01   9.7312E+01   0.0000E+00  0.0000
   9.7312E+01   9.9680E+01   0.0000E+00  0.0000
   9.9680E+01   1.0211E+02   0.0000E+00  0.0000
   1.0211E+02   1.0459E+02   0.0000E+00  0.0000
   1.0459E+02   1.0713E+02   0.0000E+00  0.0000
   1.0713E+02   1.0974E+02   0.0000E+00  0.0000
   1.0974E+02   1.1241E+02   0.0000E+00  0.0000
   1.1241E+02   1.1515E+02   0.0000E+00  0.0000
   1.1515E+02   1.1795E+02   0.0000E+00  0.0000
   1.1795E+02   1.2082E+02   0.0000E+00  0.0000
   1.2082E+02   1.2376E+02   0.0000E+00  0.0000
   1.2376E+02   1.2677E+02   0.0000E+00  0.0000
   1.2677E+02   1.2985E+02   0.0000E+00  0.0000
   1.2985E+02   1.3301E+02   0.0000E+00  0.0000
   1.3301E+02   1.3625E+02   0.0000E+00  0.0000
   1.3625E+02   1.3956E+02   0.0000E+00  0.0000
   1.3956E+02   1.4296E+02   0.0000E+00  0.0000
   1.4296E+02   1.4644E+02   0.0000E+00  0.0000
   1.4644E+02   1.5000E+02   0.0000E+00  0.0000

#   sum over                 5.5076E-06
'no. =    1   reg = 104 - 204'
msuc: {\huge [t-cross] in region mesh}
msdr: {\it plotted by \ANGEL \version}
msdl: {\it calculated by \PHITS  3.26}
wt: s(0.7)
\vspace{-3}
  region surface crossing
  area  &=&   1.0000E+00 [cm^2]
e:
 
# Information for Restart Calculation
# This calculation was newly started
# istdev =  2 # 1:Batch variance, 2:History variance
# resc2  = 4.00000000000000000E+09 # Total source weight or Total source weight / maxcas
# resc3  = 4.00000000000000000E+09 # Total history number or Total batch number
# maxcas =   500000000 # History / Batch, only used for istdev=1
# bitrseed = 1000111101111101011101111011110101001010011101000111000001010111 # bit data of rseed
