[ T-Cross ]
    title = [t-cross] in region mesh
     mesh =  reg            # mesh type is region-wise
      reg =    1            # number of crossing regions
      non     r-from    r-to       area
      1       119       219        1.000000    
   e-type =    3            # e-mesh is log given by emin, emax and ne
     emin =  1.0000000E-02  # minimum value of e-mesh points
     emax =   150.0000      # maximum value of e-mesh points
#    edel =  2.4039514E-02  # mesh width of e-mesh points
       ne =    400          # number of e-mesh points
#    data = ( e(i), i = 1, ne + 1 )
#           1.00000E-02  1.02433E-02  1.04925E-02  1.07478E-02  1.10093E-02
#           1.12772E-02  1.15516E-02  1.18326E-02  1.21205E-02  1.24154E-02
#           1.27175E-02  1.30269E-02  1.33439E-02  1.36686E-02  1.40011E-02
#           1.43418E-02  1.46907E-02  1.50482E-02  1.54143E-02  1.57894E-02
#           1.61735E-02  1.65670E-02  1.69701E-02  1.73830E-02  1.78060E-02
#           1.82392E-02  1.86830E-02  1.91375E-02  1.96032E-02  2.00801E-02
#           2.05687E-02  2.10692E-02  2.15818E-02  2.21069E-02  2.26448E-02
#           2.31957E-02  2.37601E-02  2.43382E-02  2.49304E-02  2.55369E-02
#           2.61583E-02  2.67947E-02  2.74467E-02  2.81145E-02  2.87985E-02
#           2.94992E-02  3.02169E-02  3.09521E-02  3.17052E-02  3.24766E-02
#           3.32668E-02  3.40762E-02  3.49053E-02  3.57546E-02  3.66246E-02
#           3.75157E-02  3.84284E-02  3.93634E-02  4.03212E-02  4.13022E-02
#           4.23071E-02  4.33365E-02  4.43909E-02  4.54710E-02  4.65773E-02
#           4.77106E-02  4.88714E-02  5.00605E-02  5.12785E-02  5.25262E-02
#           5.38042E-02  5.51133E-02  5.64542E-02  5.78278E-02  5.92348E-02
#           6.06760E-02  6.21523E-02  6.36645E-02  6.52135E-02  6.68002E-02
#           6.84255E-02  7.00904E-02  7.17957E-02  7.35426E-02  7.53319E-02
#           7.71648E-02  7.90423E-02  8.09655E-02  8.29354E-02  8.49533E-02
#           8.70203E-02  8.91376E-02  9.13064E-02  9.35279E-02  9.58035E-02
#           9.81345E-02  1.00522E-01  1.02968E-01  1.05473E-01  1.08040E-01
#           1.10668E-01  1.13361E-01  1.16119E-01  1.18944E-01  1.21838E-01
#           1.24803E-01  1.27839E-01  1.30950E-01  1.34136E-01  1.37399E-01
#           1.40742E-01  1.44167E-01  1.47675E-01  1.51268E-01  1.54948E-01
#           1.58718E-01  1.62580E-01  1.66535E-01  1.70587E-01  1.74738E-01
#           1.78989E-01  1.83344E-01  1.87805E-01  1.92375E-01  1.97055E-01
#           2.01850E-01  2.06761E-01  2.11792E-01  2.16945E-01  2.22223E-01
#           2.27630E-01  2.33169E-01  2.38842E-01  2.44653E-01  2.50605E-01
#           2.56703E-01  2.62949E-01  2.69346E-01  2.75900E-01  2.82613E-01
#           2.89489E-01  2.96532E-01  3.03747E-01  3.11138E-01  3.18708E-01
#           3.26462E-01  3.34405E-01  3.42542E-01  3.50876E-01  3.59413E-01
#           3.68158E-01  3.77116E-01  3.86291E-01  3.95690E-01  4.05317E-01
#           4.15179E-01  4.25281E-01  4.35628E-01  4.46227E-01  4.57084E-01
#           4.68205E-01  4.79597E-01  4.91266E-01  5.03219E-01  5.15463E-01
#           5.28005E-01  5.40851E-01  5.54011E-01  5.67490E-01  5.81298E-01
#           5.95441E-01  6.09929E-01  6.24769E-01  6.39970E-01  6.55541E-01
#           6.71491E-01  6.87828E-01  7.04564E-01  7.21706E-01  7.39266E-01
#           7.57253E-01  7.75678E-01  7.94551E-01  8.13883E-01  8.33685E-01
#           8.53969E-01  8.74747E-01  8.96030E-01  9.17831E-01  9.40163E-01
#           9.63038E-01  9.86469E-01  1.01047E+00  1.03506E+00  1.06024E+00
#           1.08604E+00  1.11246E+00  1.13953E+00  1.16725E+00  1.19565E+00
#           1.22474E+00  1.25454E+00  1.28507E+00  1.31633E+00  1.34836E+00
#           1.38117E+00  1.41477E+00  1.44920E+00  1.48446E+00  1.52057E+00
#           1.55757E+00  1.59547E+00  1.63429E+00  1.67405E+00  1.71478E+00
#           1.75650E+00  1.79924E+00  1.84302E+00  1.88786E+00  1.93379E+00
#           1.98084E+00  2.02904E+00  2.07841E+00  2.12898E+00  2.18078E+00
#           2.23384E+00  2.28819E+00  2.34386E+00  2.40089E+00  2.45930E+00
#           2.51914E+00  2.58043E+00  2.64322E+00  2.70753E+00  2.77341E+00
#           2.84088E+00  2.91001E+00  2.98081E+00  3.05333E+00  3.12762E+00
#           3.20372E+00  3.28167E+00  3.36152E+00  3.44330E+00  3.52708E+00
#           3.61290E+00  3.70080E+00  3.79085E+00  3.88308E+00  3.97756E+00
#           4.07434E+00  4.17347E+00  4.27501E+00  4.37903E+00  4.48557E+00
#           4.59471E+00  4.70650E+00  4.82102E+00  4.93832E+00  5.05847E+00
#           5.18155E+00  5.30762E+00  5.43676E+00  5.56904E+00  5.70453E+00
#           5.84333E+00  5.98550E+00  6.13114E+00  6.28031E+00  6.43312E+00
#           6.58964E+00  6.74997E+00  6.91420E+00  7.08243E+00  7.25475E+00
#           7.43126E+00  7.61207E+00  7.79728E+00  7.98700E+00  8.18133E+00
#           8.38038E+00  8.58428E+00  8.79315E+00  9.00709E+00  9.22624E+00
#           9.45072E+00  9.68067E+00  9.91620E+00  1.01575E+01  1.04046E+01
#           1.06578E+01  1.09171E+01  1.11827E+01  1.14548E+01  1.17335E+01
#           1.20190E+01  1.23114E+01  1.26109E+01  1.29178E+01  1.32321E+01
#           1.35540E+01  1.38838E+01  1.42216E+01  1.45676E+01  1.49221E+01
#           1.52851E+01  1.56570E+01  1.60380E+01  1.64282E+01  1.68279E+01
#           1.72374E+01  1.76568E+01  1.80864E+01  1.85264E+01  1.89772E+01
#           1.94389E+01  1.99119E+01  2.03963E+01  2.08926E+01  2.14009E+01
#           2.19216E+01  2.24550E+01  2.30014E+01  2.35610E+01  2.41343E+01
#           2.47215E+01  2.53230E+01  2.59391E+01  2.65702E+01  2.72167E+01
#           2.78789E+01  2.85572E+01  2.92520E+01  2.99637E+01  3.06928E+01
#           3.14396E+01  3.22045E+01  3.29881E+01  3.37907E+01  3.46128E+01
#           3.54550E+01  3.63177E+01  3.72013E+01  3.81064E+01  3.90336E+01
#           3.99833E+01  4.09561E+01  4.19526E+01  4.29734E+01  4.40189E+01
#           4.50900E+01  4.61870E+01  4.73108E+01  4.84619E+01  4.96410E+01
#           5.08488E+01  5.20860E+01  5.33533E+01  5.46514E+01  5.59812E+01
#           5.73432E+01  5.87384E+01  6.01676E+01  6.16315E+01  6.31311E+01
#           6.46671E+01  6.62405E+01  6.78522E+01  6.95031E+01  7.11941E+01
#           7.29263E+01  7.47007E+01  7.65182E+01  7.83800E+01  8.02870E+01
#           8.22405E+01  8.42414E+01  8.62911E+01  8.83906E+01  9.05412E+01
#           9.27442E+01  9.50007E+01  9.73122E+01  9.96799E+01  1.02105E+02
#           1.04589E+02  1.07134E+02  1.09741E+02  1.12411E+02  1.15146E+02
#           1.17948E+02  1.20817E+02  1.23757E+02  1.26768E+02  1.29852E+02
#           1.33012E+02  1.36248E+02  1.39563E+02  1.42959E+02  1.46437E+02
#           1.50000E+02
     unit =    2            # unit is [1/cm^2/(MeV/n)/source]
     axis =  eng            # axis of output
     file = detector-20.out  # file name of output for the above axis
   output = f-curr          # surface crossing forward current spectrum
     part =  neutron  
# kf/name :  2112     
#    used :        main (  %)        temp (  %)       total (  %)
#  memory :         414 (  0)           0 (  0)         414 (  0)

#------------------------------------------------------------------------------
#newpage:
#   no. =    1   reg = 119 - 219

x: Energy [MeV/n]
y:  F-Curr [1/cm^2/(MeV/n)/source]         
p: xlog ylog afac(0.8) form(0.9)
h: n            x            y(neutron ),hh0l   n 
#  e-lower      e-upper      neutron     r.err 
   1.0000E-02   1.0243E-02   1.9169E-03  0.0654
   1.0243E-02   1.0493E-02   2.0220E-03  0.0629
   1.0493E-02   1.0748E-02   2.0160E-03  0.0623
   1.0748E-02   1.1009E-02   1.9501E-03  0.0625
   1.1009E-02   1.1277E-02   1.8912E-03  0.0627
   1.1277E-02   1.1552E-02   2.0941E-03  0.0589
   1.1552E-02   1.1833E-02   1.8857E-03  0.0613
   1.1833E-02   1.2121E-02   1.9620E-03  0.0594
   1.2121E-02   1.2415E-02   1.8128E-03  0.0610
   1.2415E-02   1.2718E-02   1.8514E-03  0.0597
   1.2718E-02   1.3027E-02   1.7972E-03  0.0599
   1.3027E-02   1.3344E-02   1.8769E-03  0.0579
   1.3344E-02   1.3669E-02   1.8593E-03  0.0575
   1.3669E-02   1.4001E-02   1.7817E-03  0.0580
   1.4001E-02   1.4342E-02   1.5539E-03  0.0614
   1.4342E-02   1.4691E-02   1.6815E-03  0.0583
   1.4691E-02   1.5048E-02   1.5171E-03  0.0607
   1.5048E-02   1.5414E-02   1.8370E-03  0.0545
   1.5414E-02   1.5789E-02   1.7375E-03  0.0554
   1.5789E-02   1.6174E-02   1.5884E-03  0.0572
   1.6174E-02   1.6567E-02   1.6204E-03  0.0559
   1.6567E-02   1.6970E-02   1.5123E-03  0.0572
   1.6970E-02   1.7383E-02   1.4076E-03  0.0586
   1.7383E-02   1.7806E-02   1.3855E-03  0.0584
   1.7806E-02   1.8239E-02   1.4010E-03  0.0573
   1.8239E-02   1.8683E-02   1.4751E-03  0.0553
   1.8683E-02   1.9138E-02   1.4640E-03  0.0547
   1.9138E-02   1.9603E-02   1.3402E-03  0.0565
   1.9603E-02   2.0080E-02   1.3929E-03  0.0549
   2.0080E-02   2.0569E-02   1.4498E-03  0.0531
   2.0569E-02   2.1069E-02   1.1869E-03  0.0580
   2.1069E-02   2.1582E-02   1.4123E-03  0.0526
   2.1582E-02   2.2107E-02   1.4808E-03  0.0506
   2.2107E-02   2.2645E-02   1.3193E-03  0.0531
   2.2645E-02   2.3196E-02   1.2825E-03  0.0531
   2.3196E-02   2.3760E-02   1.3139E-03  0.0519
   2.3760E-02   2.4338E-02   1.1860E-03  0.0540
   2.4338E-02   2.4930E-02   1.2358E-03  0.0522
   2.4930E-02   2.5537E-02   1.2116E-03  0.0521
   2.5537E-02   2.6158E-02   1.2864E-03  0.0500
   2.6158E-02   2.6795E-02   1.2753E-03  0.0496
   2.6795E-02   2.7447E-02   1.1390E-03  0.0518
   2.7447E-02   2.8114E-02   1.0856E-03  0.0525
   2.8114E-02   2.8799E-02   1.1754E-03  0.0498
   2.8799E-02   2.9499E-02   1.2015E-03  0.0486
   2.9499E-02   3.0217E-02   1.1614E-03  0.0490
   3.0217E-02   3.0952E-02   1.1761E-03  0.0480
   3.0952E-02   3.1705E-02   1.0504E-03  0.0502
   3.1705E-02   3.2477E-02   1.0314E-03  0.0501
   3.2477E-02   3.3267E-02   1.0423E-03  0.0492
   3.3267E-02   3.4076E-02   1.0797E-03  0.0478
   3.4076E-02   3.4905E-02   1.0847E-03  0.0470
   3.4905E-02   3.5755E-02   9.6025E-04  0.0495
   3.5755E-02   3.6625E-02   9.7308E-04  0.0486
   3.6625E-02   3.7516E-02   9.7667E-04  0.0479
   3.7516E-02   3.8428E-02   9.8598E-04  0.0471
   3.8428E-02   3.9363E-02   9.8104E-04  0.0466
   3.9363E-02   4.0321E-02   9.9324E-04  0.0458
   4.0321E-02   4.1302E-02   8.9436E-04  0.0477
   4.1302E-02   4.2307E-02   9.3526E-04  0.0461
   4.2307E-02   4.3337E-02   8.3478E-04  0.0482
   4.3337E-02   4.4391E-02   8.5232E-04  0.0471
   4.4391E-02   4.5471E-02   8.8322E-04  0.0458
   4.5471E-02   4.6577E-02   8.1676E-04  0.0470
   4.6577E-02   4.7711E-02   8.9906E-04  0.0443
   4.7711E-02   4.8871E-02   8.0828E-04  0.0461
   4.8871E-02   5.0061E-02   8.6709E-04  0.0440
   5.0061E-02   5.1279E-02   8.1269E-04  0.0449
   5.1279E-02   5.2526E-02   7.4401E-04  0.0463
   5.2526E-02   5.3804E-02   8.3995E-04  0.0431
   5.3804E-02   5.5113E-02   7.8046E-04  0.0442
   5.5113E-02   5.6454E-02   7.3279E-04  0.0450
   5.6454E-02   5.7828E-02   7.7710E-04  0.0432
   5.7828E-02   5.9235E-02   7.7870E-04  0.0427
   5.9235E-02   6.0676E-02   7.4999E-04  0.0430
   6.0676E-02   6.2152E-02   7.2875E-04  0.0431
   6.2152E-02   6.3665E-02   7.3683E-04  0.0423
   6.3665E-02   6.5214E-02   7.4693E-04  0.0415
   6.5214E-02   6.6800E-02   7.3257E-04  0.0414
   6.6800E-02   6.8426E-02   6.4344E-04  0.0438
   6.8426E-02   7.0090E-02   6.8697E-04  0.0418
   7.0090E-02   7.1796E-02   6.8974E-04  0.0412
   7.1796E-02   7.3543E-02   6.3007E-04  0.0426
   7.3543E-02   7.5332E-02   6.8021E-04  0.0405
   7.5332E-02   7.7165E-02   6.7464E-04  0.0402
   7.7165E-02   7.9042E-02   6.5136E-04  0.0404
   7.9042E-02   8.0965E-02   6.0464E-04  0.0414
   8.0965E-02   8.2935E-02   6.1536E-04  0.0406
   8.2935E-02   8.4953E-02   6.2044E-04  0.0399
   8.4953E-02   8.7020E-02   6.3270E-04  0.0391
   8.7020E-02   8.9138E-02   5.6343E-04  0.0409
   8.9138E-02   9.1306E-02   6.1864E-04  0.0386
   9.1306E-02   9.3528E-02   6.1198E-04  0.0383
   9.3528E-02   9.5804E-02   5.4592E-04  0.0401
   9.5804E-02   9.8134E-02   5.6071E-04  0.0391
   9.8134E-02   1.0052E-01   5.0699E-04  0.0406
   1.0052E-01   1.0297E-01   5.3081E-04  0.0392
   1.0297E-01   1.0547E-01   4.7737E-04  0.0409
   1.0547E-01   1.0804E-01   5.1940E-04  0.0387
   1.0804E-01   1.1067E-01   5.0808E-04  0.0387
   1.1067E-01   1.1336E-01   5.1434E-04  0.0380
   1.1336E-01   1.1612E-01   4.5750E-04  0.0398
   1.1612E-01   1.1894E-01   4.4717E-04  0.0398
   1.1894E-01   1.2184E-01   4.5552E-04  0.0389
   1.2184E-01   1.2480E-01   4.5366E-04  0.0385
   1.2480E-01   1.2784E-01   4.6555E-04  0.0376
   1.2784E-01   1.3095E-01   4.4993E-04  0.0378
   1.3095E-01   1.3414E-01   4.2140E-04  0.0385
   1.3414E-01   1.3740E-01   4.1854E-04  0.0382
   1.3740E-01   1.4074E-01   4.2724E-04  0.0374
   1.4074E-01   1.4417E-01   4.0187E-04  0.0381
   1.4417E-01   1.4767E-01   4.2201E-04  0.0368
   1.4767E-01   1.5127E-01   3.8796E-04  0.0378
   1.5127E-01   1.5495E-01   3.8981E-04  0.0373
   1.5495E-01   1.5872E-01   3.4505E-04  0.0392
   1.5872E-01   1.6258E-01   3.7045E-04  0.0374
   1.6258E-01   1.6654E-01   3.2920E-04  0.0392
   1.6654E-01   1.7059E-01   3.5070E-04  0.0374
   1.7059E-01   1.7474E-01   3.2780E-04  0.0383
   1.7474E-01   1.7899E-01   3.0881E-04  0.0390
   1.7899E-01   1.8334E-01   3.1854E-04  0.0379
   1.8334E-01   1.8781E-01   2.9843E-04  0.0387
   1.8781E-01   1.9237E-01   2.9280E-04  0.0386
   1.9237E-01   1.9706E-01   2.9979E-04  0.0377
   1.9706E-01   2.0185E-01   2.8321E-04  0.0384
   2.0185E-01   2.0676E-01   2.8013E-04  0.0381
   2.0676E-01   2.1179E-01   2.9510E-04  0.0367
   2.1179E-01   2.1694E-01   3.1014E-04  0.0353
   2.1694E-01   2.2222E-01   3.1795E-04  0.0345
   2.2222E-01   2.2763E-01   3.2461E-04  0.0337
   2.2763E-01   2.3317E-01   3.2706E-04  0.0332
   2.3317E-01   2.3884E-01   3.2149E-04  0.0331
   2.3884E-01   2.4465E-01   3.1541E-04  0.0330
   2.4465E-01   2.5061E-01   3.3050E-04  0.0318
   2.5061E-01   2.5670E-01   3.3132E-04  0.0314
   2.5670E-01   2.6295E-01   3.2508E-04  0.0313
   2.6295E-01   2.6935E-01   3.4732E-04  0.0300
   2.6935E-01   2.7590E-01   3.3492E-04  0.0301
   2.7590E-01   2.8261E-01   3.5147E-04  0.0291
   2.8261E-01   2.8949E-01   3.5261E-04  0.0287
   2.8949E-01   2.9653E-01   3.5263E-04  0.0284
   2.9653E-01   3.0375E-01   3.5384E-04  0.0279
   3.0375E-01   3.1114E-01   3.6102E-04  0.0273
   3.1114E-01   3.1871E-01   3.4347E-04  0.0277
   3.1871E-01   3.2646E-01   3.6893E-04  0.0264
   3.2646E-01   3.3441E-01   3.8881E-04  0.0254
   3.3441E-01   3.4254E-01   3.7692E-04  0.0255
   3.4254E-01   3.5088E-01   3.7631E-04  0.0252
   3.5088E-01   3.5941E-01   3.7420E-04  0.0250
   3.5941E-01   3.6816E-01   3.7357E-04  0.0247
   3.6816E-01   3.7712E-01   3.7836E-04  0.0242
   3.7712E-01   3.8629E-01   3.7800E-04  0.0240
   3.8629E-01   3.9569E-01   3.7873E-04  0.0237
   3.9569E-01   4.0532E-01   3.8255E-04  0.0233
   4.0532E-01   4.1518E-01   3.8145E-04  0.0230
   4.1518E-01   4.2528E-01   3.8922E-04  0.0225
   4.2528E-01   4.3563E-01   3.7953E-04  0.0225
   4.3563E-01   4.4623E-01   3.8626E-04  0.0221
   4.4623E-01   4.5708E-01   3.8414E-04  0.0219
   4.5708E-01   4.6821E-01   4.1270E-04  0.0208
   4.6821E-01   4.7960E-01   3.8880E-04  0.0212
   4.7960E-01   4.9127E-01   3.8613E-04  0.0210
   4.9127E-01   5.0322E-01   3.9050E-04  0.0207
   5.0322E-01   5.1546E-01   3.8677E-04  0.0205
   5.1546E-01   5.2800E-01   4.0571E-04  0.0198
   5.2800E-01   5.4085E-01   4.0759E-04  0.0195
   5.4085E-01   5.5401E-01   3.8737E-04  0.0198
   5.5401E-01   5.6749E-01   4.0770E-04  0.0190
   5.6749E-01   5.8130E-01   3.9712E-04  0.0191
   5.8130E-01   5.9544E-01   3.8553E-04  0.0191
   5.9544E-01   6.0993E-01   4.0088E-04  0.0185
   6.0993E-01   6.2477E-01   3.9767E-04  0.0184
   6.2477E-01   6.3997E-01   4.0556E-04  0.0180
   6.3997E-01   6.5554E-01   4.0335E-04  0.0178
   6.5554E-01   6.7149E-01   3.8922E-04  0.0179
   6.7149E-01   6.8783E-01   3.9501E-04  0.0176
   6.8783E-01   7.0456E-01   4.0737E-04  0.0171
   7.0456E-01   7.2171E-01   3.7795E-04  0.0175
   7.2171E-01   7.3927E-01   3.9728E-04  0.0169
   7.3927E-01   7.5725E-01   3.8644E-04  0.0169
   7.5725E-01   7.7568E-01   3.8471E-04  0.0168
   7.7568E-01   7.9455E-01   3.7626E-04  0.0167
   7.9455E-01   8.1388E-01   3.7537E-04  0.0166
   8.1388E-01   8.3368E-01   3.8043E-04  0.0163
   8.3368E-01   8.5397E-01   3.6723E-04  0.0163
   8.5397E-01   8.7475E-01   3.5819E-04  0.0164
   8.7475E-01   8.9603E-01   3.6372E-04  0.0160
   8.9603E-01   9.1783E-01   3.5744E-04  0.0160
   9.1783E-01   9.4016E-01   3.4140E-04  0.0162
   9.4016E-01   9.6304E-01   3.3366E-04  0.0161
   9.6304E-01   9.8647E-01   3.2094E-04  0.0163
   9.8647E-01   1.0105E+00   3.0964E-04  0.0164
   1.0105E+00   1.0351E+00   2.9719E-04  0.0165
   1.0351E+00   1.0602E+00   3.0295E-04  0.0161
   1.0602E+00   1.0860E+00   2.8098E-04  0.0166
   1.0860E+00   1.1125E+00   2.8833E-04  0.0162
   1.1125E+00   1.1395E+00   2.7702E-04  0.0163
   1.1395E+00   1.1673E+00   2.6736E-04  0.0164
   1.1673E+00   1.1957E+00   2.6326E-04  0.0163
   1.1957E+00   1.2247E+00   2.5450E-04  0.0164
   1.2247E+00   1.2545E+00   2.5718E-04  0.0161
   1.2545E+00   1.2851E+00   2.4660E-04  0.0162
   1.2851E+00   1.3163E+00   2.3954E-04  0.0163
   1.3163E+00   1.3484E+00   2.3475E-04  0.0163
   1.3484E+00   1.3812E+00   2.3066E-04  0.0162
   1.3812E+00   1.4148E+00   2.3008E-04  0.0160
   1.4148E+00   1.4492E+00   2.2343E-04  0.0161
   1.4492E+00   1.4845E+00   2.2022E-04  0.0160
   1.4845E+00   1.5206E+00   2.1234E-04  0.0161
   1.5206E+00   1.5576E+00   2.0800E-04  0.0161
   1.5576E+00   1.5955E+00   2.0367E-04  0.0160
   1.5955E+00   1.6343E+00   1.9679E-04  0.0161
   1.6343E+00   1.6741E+00   1.9572E-04  0.0160
   1.6741E+00   1.7148E+00   1.8610E-04  0.0162
   1.7148E+00   1.7565E+00   1.8019E-04  0.0162
   1.7565E+00   1.7992E+00   1.7453E-04  0.0163
   1.7992E+00   1.8430E+00   1.6731E-04  0.0165
   1.8430E+00   1.8879E+00   1.6364E-04  0.0164
   1.8879E+00   1.9338E+00   1.5343E-04  0.0168
   1.9338E+00   1.9808E+00   1.5649E-04  0.0164
   1.9808E+00   2.0290E+00   1.5304E-04  0.0164
   2.0290E+00   2.0784E+00   1.4900E-04  0.0164
   2.0784E+00   2.1290E+00   1.4839E-04  0.0162
   2.1290E+00   2.1808E+00   1.4183E-04  0.0164
   2.1808E+00   2.2338E+00   1.3815E-04  0.0164
   2.2338E+00   2.2882E+00   1.3516E-04  0.0164
   2.2882E+00   2.3439E+00   1.3602E-04  0.0162
   2.3439E+00   2.4009E+00   1.2650E-04  0.0166
   2.4009E+00   2.4593E+00   1.3087E-04  0.0161
   2.4593E+00   2.5191E+00   1.2358E-04  0.0164
   2.5191E+00   2.5804E+00   1.1805E-04  0.0165
   2.5804E+00   2.6432E+00   1.1523E-04  0.0166
   2.6432E+00   2.7075E+00   1.1377E-04  0.0165
   2.7075E+00   2.7734E+00   1.0974E-04  0.0166
   2.7734E+00   2.8409E+00   1.1013E-04  0.0163
   2.8409E+00   2.9100E+00   1.0508E-04  0.0165
   2.9100E+00   2.9808E+00   1.0242E-04  0.0165
   2.9808E+00   3.0533E+00   1.0246E-04  0.0163
   3.0533E+00   3.1276E+00   9.4762E-05  0.0168
   3.1276E+00   3.2037E+00   9.1647E-05  0.0169
   3.2037E+00   3.2817E+00   8.5383E-05  0.0172
   3.2817E+00   3.3615E+00   8.3566E-05  0.0172
   3.3615E+00   3.4433E+00   7.9649E-05  0.0174
   3.4433E+00   3.5271E+00   7.7796E-05  0.0174
   3.5271E+00   3.6129E+00   7.7906E-05  0.0172
   3.6129E+00   3.7008E+00   7.2265E-05  0.0177
   3.7008E+00   3.7908E+00   7.0659E-05  0.0176
   3.7908E+00   3.8831E+00   6.7246E-05  0.0179
   3.8831E+00   3.9776E+00   6.7177E-05  0.0177
   3.9776E+00   4.0743E+00   6.2735E-05  0.0181
   4.0743E+00   4.1735E+00   6.0533E-05  0.0182
   4.1735E+00   4.2750E+00   5.8755E-05  0.0182
   4.2750E+00   4.3790E+00   5.7085E-05  0.0183
   4.3790E+00   4.4856E+00   5.6223E-05  0.0182
   4.4856E+00   4.5947E+00   5.4022E-05  0.0184
   4.5947E+00   4.7065E+00   5.0118E-05  0.0188
   4.7065E+00   4.8210E+00   4.7995E-05  0.0190
   4.8210E+00   4.9383E+00   4.7575E-05  0.0189
   4.9383E+00   5.0585E+00   4.3736E-05  0.0194
   5.0585E+00   5.1815E+00   4.2407E-05  0.0195
   5.1815E+00   5.3076E+00   3.9707E-05  0.0199
   5.3076E+00   5.4368E+00   3.8839E-05  0.0199
   5.4368E+00   5.5690E+00   3.5863E-05  0.0205
   5.5690E+00   5.7045E+00   3.3392E-05  0.0210
   5.7045E+00   5.8433E+00   3.2440E-05  0.0210
   5.8433E+00   5.9855E+00   2.9284E-05  0.0219
   5.9855E+00   6.1311E+00   2.9214E-05  0.0216
   6.1311E+00   6.2803E+00   2.7873E-05  0.0219
   6.2803E+00   6.4331E+00   2.6960E-05  0.0220
   6.4331E+00   6.5896E+00   2.5510E-05  0.0223
   6.5896E+00   6.7500E+00   2.3677E-05  0.0229
   6.7500E+00   6.9142E+00   2.1075E-05  0.0240
   6.9142E+00   7.0824E+00   2.1809E-05  0.0233
   7.0824E+00   7.2548E+00   2.0054E-05  0.0240
   7.2548E+00   7.4313E+00   1.9126E-05  0.0243
   7.4313E+00   7.6121E+00   1.8082E-05  0.0247
   7.6121E+00   7.7973E+00   1.5230E-05  0.0266
   7.7973E+00   7.9870E+00   1.5417E-05  0.0261
   7.9870E+00   8.1813E+00   1.4586E-05  0.0265
   8.1813E+00   8.3804E+00   1.3815E-05  0.0269
   8.3804E+00   8.5843E+00   1.3799E-05  0.0266
   8.5843E+00   8.7931E+00   1.3274E-05  0.0268
   8.7931E+00   9.0071E+00   1.1462E-05  0.0285
   9.0071E+00   9.2262E+00   1.1332E-05  0.0283
   9.2262E+00   9.4507E+00   1.1116E-05  0.0283
   9.4507E+00   9.6807E+00   1.0677E-05  0.0285
   9.6807E+00   9.9162E+00   9.8462E-06  0.0293
   9.9162E+00   1.0157E+01   8.9671E-06  0.0304
   1.0157E+01   1.0405E+01   9.0033E-06  0.0299
   1.0405E+01   1.0658E+01   9.3346E-06  0.0291
   1.0658E+01   1.0917E+01   9.1354E-06  0.0290
   1.0917E+01   1.1183E+01   9.2096E-06  0.0286
   1.1183E+01   1.1455E+01   8.7981E-06  0.0289
   1.1455E+01   1.1733E+01   8.3270E-06  0.0293
   1.1733E+01   1.2019E+01   7.5681E-06  0.0304
   1.2019E+01   1.2311E+01   7.1984E-06  0.0308
   1.2311E+01   1.2611E+01   6.6550E-06  0.0316
   1.2611E+01   1.2918E+01   6.4580E-06  0.0318
   1.2918E+01   1.3232E+01   6.0673E-06  0.0324
   1.3232E+01   1.3554E+01   5.5586E-06  0.0334
   1.3554E+01   1.3884E+01   5.8581E-06  0.0322
   1.3884E+01   1.4222E+01   5.0727E-06  0.0341
   1.4222E+01   1.4568E+01   4.7839E-06  0.0347
   1.4568E+01   1.4922E+01   4.2188E-06  0.0366
   1.4922E+01   1.5285E+01   4.2472E-06  0.0360
   1.5285E+01   1.5657E+01   3.8675E-06  0.0373
   1.5657E+01   1.6038E+01   3.6189E-06  0.0381
   1.6038E+01   1.6428E+01   3.5706E-06  0.0379
   1.6428E+01   1.6828E+01   3.2491E-06  0.0392
   1.6828E+01   1.7237E+01   3.0783E-06  0.0398
   1.7237E+01   1.7657E+01   2.9143E-06  0.0404
   1.7657E+01   1.8086E+01   2.7421E-06  0.0412
   1.8086E+01   1.8526E+01   2.6051E-06  0.0418
   1.8526E+01   1.8977E+01   2.2651E-06  0.0442
   1.8977E+01   1.9439E+01   2.3174E-06  0.0432
   1.9439E+01   1.9912E+01   2.1482E-06  0.0444
   1.9912E+01   2.0396E+01   1.6306E-06  0.0503
   2.0396E+01   2.0893E+01   1.5879E-06  0.0504
   2.0893E+01   2.1401E+01   1.3062E-06  0.0549
   2.1401E+01   2.1922E+01   1.1523E-06  0.0577
   2.1922E+01   2.2455E+01   9.3743E-07  0.0632
   2.2455E+01   2.3001E+01   7.4312E-07  0.0702
   2.3001E+01   2.3561E+01   6.7901E-07  0.0725
   2.3561E+01   2.4134E+01   4.9193E-07  0.0842
   2.4134E+01   2.4721E+01   3.7806E-07  0.0949
   2.4721E+01   2.5323E+01   2.6933E-07  0.1111
   2.5323E+01   2.5939E+01   1.5906E-07  0.1429
   2.5939E+01   2.6570E+01   9.1900E-08  0.1857
   2.6570E+01   2.7217E+01   5.5687E-08  0.2357
   2.7217E+01   2.7879E+01   3.9263E-08  0.2774
   2.7879E+01   2.8557E+01   2.0639E-08  0.3780
   2.8557E+01   2.9252E+01   2.3028E-08  0.3536
   2.9252E+01   2.9964E+01   2.8101E-09  1.0000
   2.9964E+01   3.0693E+01   1.0973E-08  0.5000
   3.0693E+01   3.1440E+01   2.6782E-09  1.0000
   3.1440E+01   3.2205E+01   2.6146E-09  1.0000
   3.2205E+01   3.2988E+01   0.0000E+00  0.0000
   3.2988E+01   3.3791E+01   2.4918E-09  1.0000
   3.3791E+01   3.4613E+01   0.0000E+00  0.0000
   3.4613E+01   3.5455E+01   0.0000E+00  0.0000
   3.5455E+01   3.6318E+01   0.0000E+00  0.0000
   3.6318E+01   3.7201E+01   0.0000E+00  0.0000
   3.7201E+01   3.8106E+01   0.0000E+00  0.0000
   3.8106E+01   3.9034E+01   0.0000E+00  0.0000
   3.9034E+01   3.9983E+01   0.0000E+00  0.0000
   3.9983E+01   4.0956E+01   0.0000E+00  0.0000
   4.0956E+01   4.1953E+01   0.0000E+00  0.0000
   4.1953E+01   4.2973E+01   0.0000E+00  0.0000
   4.2973E+01   4.4019E+01   0.0000E+00  0.0000
   4.4019E+01   4.5090E+01   0.0000E+00  0.0000
   4.5090E+01   4.6187E+01   0.0000E+00  0.0000
   4.6187E+01   4.7311E+01   0.0000E+00  0.0000
   4.7311E+01   4.8462E+01   0.0000E+00  0.0000
   4.8462E+01   4.9641E+01   0.0000E+00  0.0000
   4.9641E+01   5.0849E+01   0.0000E+00  0.0000
   5.0849E+01   5.2086E+01   0.0000E+00  0.0000
   5.2086E+01   5.3353E+01   0.0000E+00  0.0000
   5.3353E+01   5.4651E+01   0.0000E+00  0.0000
   5.4651E+01   5.5981E+01   0.0000E+00  0.0000
   5.5981E+01   5.7343E+01   0.0000E+00  0.0000
   5.7343E+01   5.8738E+01   0.0000E+00  0.0000
   5.8738E+01   6.0168E+01   0.0000E+00  0.0000
   6.0168E+01   6.1632E+01   0.0000E+00  0.0000
   6.1632E+01   6.3131E+01   0.0000E+00  0.0000
   6.3131E+01   6.4667E+01   0.0000E+00  0.0000
   6.4667E+01   6.6240E+01   0.0000E+00  0.0000
   6.6240E+01   6.7852E+01   0.0000E+00  0.0000
   6.7852E+01   6.9503E+01   0.0000E+00  0.0000
   6.9503E+01   7.1194E+01   0.0000E+00  0.0000
   7.1194E+01   7.2926E+01   0.0000E+00  0.0000
   7.2926E+01   7.4701E+01   0.0000E+00  0.0000
   7.4701E+01   7.6518E+01   0.0000E+00  0.0000
   7.6518E+01   7.8380E+01   0.0000E+00  0.0000
   7.8380E+01   8.0287E+01   0.0000E+00  0.0000
   8.0287E+01   8.2240E+01   0.0000E+00  0.0000
   8.2240E+01   8.4241E+01   0.0000E+00  0.0000
   8.4241E+01   8.6291E+01   0.0000E+00  0.0000
   8.6291E+01   8.8391E+01   0.0000E+00  0.0000
   8.8391E+01   9.0541E+01   0.0000E+00  0.0000
   9.0541E+01   9.2744E+01   0.0000E+00  0.0000
   9.2744E+01   9.5001E+01   0.0000E+00  0.0000
   9.5001E+01   9.7312E+01   0.0000E+00  0.0000
   9.7312E+01   9.9680E+01   0.0000E+00  0.0000
   9.9680E+01   1.0211E+02   0.0000E+00  0.0000
   1.0211E+02   1.0459E+02   0.0000E+00  0.0000
   1.0459E+02   1.0713E+02   0.0000E+00  0.0000
   1.0713E+02   1.0974E+02   0.0000E+00  0.0000
   1.0974E+02   1.1241E+02   0.0000E+00  0.0000
   1.1241E+02   1.1515E+02   0.0000E+00  0.0000
   1.1515E+02   1.1795E+02   0.0000E+00  0.0000
   1.1795E+02   1.2082E+02   0.0000E+00  0.0000
   1.2082E+02   1.2376E+02   0.0000E+00  0.0000
   1.2376E+02   1.2677E+02   0.0000E+00  0.0000
   1.2677E+02   1.2985E+02   0.0000E+00  0.0000
   1.2985E+02   1.3301E+02   0.0000E+00  0.0000
   1.3301E+02   1.3625E+02   0.0000E+00  0.0000
   1.3625E+02   1.3956E+02   0.0000E+00  0.0000
   1.3956E+02   1.4296E+02   0.0000E+00  0.0000
   1.4296E+02   1.4644E+02   0.0000E+00  0.0000
   1.4644E+02   1.5000E+02   0.0000E+00  0.0000

#   sum over                 6.9949E-06
'no. =    1   reg = 119 - 219'
msuc: {\huge [t-cross] in region mesh}
msdr: {\it plotted by \ANGEL \version}
msdl: {\it calculated by \PHITS  3.26}
wt: s(0.7)
\vspace{-3}
  region surface crossing
  area  &=&   1.0000E+00 [cm^2]
e:
 
# Information for Restart Calculation
# This calculation was newly started
# istdev =  2 # 1:Batch variance, 2:History variance
# resc2  = 5.00000000000000000E+08 # Total source weight or Total source weight / maxcas
# resc3  = 5.00000000000000000E+08 # Total history number or Total batch number
# maxcas =   500000000 # History / Batch, only used for istdev=1
# bitrseed = 1101101111010011011000101101110001100110110010110001010100010001 # bit data of rseed
