[ T-Cross ]
    title = [t-cross] in region mesh
     mesh =  reg            # mesh type is region-wise
      reg =    1            # number of crossing regions
      non     r-from    r-to       area
      1       125       225        1.000000    
   e-type =    3            # e-mesh is log given by emin, emax and ne
     emin =  1.0000000E-02  # minimum value of e-mesh points
     emax =   150.0000      # maximum value of e-mesh points
#    edel =  2.4039514E-02  # mesh width of e-mesh points
       ne =    400          # number of e-mesh points
#    data = ( e(i), i = 1, ne + 1 )
#           1.00000E-02  1.02433E-02  1.04925E-02  1.07478E-02  1.10093E-02
#           1.12772E-02  1.15516E-02  1.18326E-02  1.21205E-02  1.24154E-02
#           1.27175E-02  1.30269E-02  1.33439E-02  1.36686E-02  1.40011E-02
#           1.43418E-02  1.46907E-02  1.50482E-02  1.54143E-02  1.57894E-02
#           1.61735E-02  1.65670E-02  1.69701E-02  1.73830E-02  1.78060E-02
#           1.82392E-02  1.86830E-02  1.91375E-02  1.96032E-02  2.00801E-02
#           2.05687E-02  2.10692E-02  2.15818E-02  2.21069E-02  2.26448E-02
#           2.31957E-02  2.37601E-02  2.43382E-02  2.49304E-02  2.55369E-02
#           2.61583E-02  2.67947E-02  2.74467E-02  2.81145E-02  2.87985E-02
#           2.94992E-02  3.02169E-02  3.09521E-02  3.17052E-02  3.24766E-02
#           3.32668E-02  3.40762E-02  3.49053E-02  3.57546E-02  3.66246E-02
#           3.75157E-02  3.84284E-02  3.93634E-02  4.03212E-02  4.13022E-02
#           4.23071E-02  4.33365E-02  4.43909E-02  4.54710E-02  4.65773E-02
#           4.77106E-02  4.88714E-02  5.00605E-02  5.12785E-02  5.25262E-02
#           5.38042E-02  5.51133E-02  5.64542E-02  5.78278E-02  5.92348E-02
#           6.06760E-02  6.21523E-02  6.36645E-02  6.52135E-02  6.68002E-02
#           6.84255E-02  7.00904E-02  7.17957E-02  7.35426E-02  7.53319E-02
#           7.71648E-02  7.90423E-02  8.09655E-02  8.29354E-02  8.49533E-02
#           8.70203E-02  8.91376E-02  9.13064E-02  9.35279E-02  9.58035E-02
#           9.81345E-02  1.00522E-01  1.02968E-01  1.05473E-01  1.08040E-01
#           1.10668E-01  1.13361E-01  1.16119E-01  1.18944E-01  1.21838E-01
#           1.24803E-01  1.27839E-01  1.30950E-01  1.34136E-01  1.37399E-01
#           1.40742E-01  1.44167E-01  1.47675E-01  1.51268E-01  1.54948E-01
#           1.58718E-01  1.62580E-01  1.66535E-01  1.70587E-01  1.74738E-01
#           1.78989E-01  1.83344E-01  1.87805E-01  1.92375E-01  1.97055E-01
#           2.01850E-01  2.06761E-01  2.11792E-01  2.16945E-01  2.22223E-01
#           2.27630E-01  2.33169E-01  2.38842E-01  2.44653E-01  2.50605E-01
#           2.56703E-01  2.62949E-01  2.69346E-01  2.75900E-01  2.82613E-01
#           2.89489E-01  2.96532E-01  3.03747E-01  3.11138E-01  3.18708E-01
#           3.26462E-01  3.34405E-01  3.42542E-01  3.50876E-01  3.59413E-01
#           3.68158E-01  3.77116E-01  3.86291E-01  3.95690E-01  4.05317E-01
#           4.15179E-01  4.25281E-01  4.35628E-01  4.46227E-01  4.57084E-01
#           4.68205E-01  4.79597E-01  4.91266E-01  5.03219E-01  5.15463E-01
#           5.28005E-01  5.40851E-01  5.54011E-01  5.67490E-01  5.81298E-01
#           5.95441E-01  6.09929E-01  6.24769E-01  6.39970E-01  6.55541E-01
#           6.71491E-01  6.87828E-01  7.04564E-01  7.21706E-01  7.39266E-01
#           7.57253E-01  7.75678E-01  7.94551E-01  8.13883E-01  8.33685E-01
#           8.53969E-01  8.74747E-01  8.96030E-01  9.17831E-01  9.40163E-01
#           9.63038E-01  9.86469E-01  1.01047E+00  1.03506E+00  1.06024E+00
#           1.08604E+00  1.11246E+00  1.13953E+00  1.16725E+00  1.19565E+00
#           1.22474E+00  1.25454E+00  1.28507E+00  1.31633E+00  1.34836E+00
#           1.38117E+00  1.41477E+00  1.44920E+00  1.48446E+00  1.52057E+00
#           1.55757E+00  1.59547E+00  1.63429E+00  1.67405E+00  1.71478E+00
#           1.75650E+00  1.79924E+00  1.84302E+00  1.88786E+00  1.93379E+00
#           1.98084E+00  2.02904E+00  2.07841E+00  2.12898E+00  2.18078E+00
#           2.23384E+00  2.28819E+00  2.34386E+00  2.40089E+00  2.45930E+00
#           2.51914E+00  2.58043E+00  2.64322E+00  2.70753E+00  2.77341E+00
#           2.84088E+00  2.91001E+00  2.98081E+00  3.05333E+00  3.12762E+00
#           3.20372E+00  3.28167E+00  3.36152E+00  3.44330E+00  3.52708E+00
#           3.61290E+00  3.70080E+00  3.79085E+00  3.88308E+00  3.97756E+00
#           4.07434E+00  4.17347E+00  4.27501E+00  4.37903E+00  4.48557E+00
#           4.59471E+00  4.70650E+00  4.82102E+00  4.93832E+00  5.05847E+00
#           5.18155E+00  5.30762E+00  5.43676E+00  5.56904E+00  5.70453E+00
#           5.84333E+00  5.98550E+00  6.13114E+00  6.28031E+00  6.43312E+00
#           6.58964E+00  6.74997E+00  6.91420E+00  7.08243E+00  7.25475E+00
#           7.43126E+00  7.61207E+00  7.79728E+00  7.98700E+00  8.18133E+00
#           8.38038E+00  8.58428E+00  8.79315E+00  9.00709E+00  9.22624E+00
#           9.45072E+00  9.68067E+00  9.91620E+00  1.01575E+01  1.04046E+01
#           1.06578E+01  1.09171E+01  1.11827E+01  1.14548E+01  1.17335E+01
#           1.20190E+01  1.23114E+01  1.26109E+01  1.29178E+01  1.32321E+01
#           1.35540E+01  1.38838E+01  1.42216E+01  1.45676E+01  1.49221E+01
#           1.52851E+01  1.56570E+01  1.60380E+01  1.64282E+01  1.68279E+01
#           1.72374E+01  1.76568E+01  1.80864E+01  1.85264E+01  1.89772E+01
#           1.94389E+01  1.99119E+01  2.03963E+01  2.08926E+01  2.14009E+01
#           2.19216E+01  2.24550E+01  2.30014E+01  2.35610E+01  2.41343E+01
#           2.47215E+01  2.53230E+01  2.59391E+01  2.65702E+01  2.72167E+01
#           2.78789E+01  2.85572E+01  2.92520E+01  2.99637E+01  3.06928E+01
#           3.14396E+01  3.22045E+01  3.29881E+01  3.37907E+01  3.46128E+01
#           3.54550E+01  3.63177E+01  3.72013E+01  3.81064E+01  3.90336E+01
#           3.99833E+01  4.09561E+01  4.19526E+01  4.29734E+01  4.40189E+01
#           4.50900E+01  4.61870E+01  4.73108E+01  4.84619E+01  4.96410E+01
#           5.08488E+01  5.20860E+01  5.33533E+01  5.46514E+01  5.59812E+01
#           5.73432E+01  5.87384E+01  6.01676E+01  6.16315E+01  6.31311E+01
#           6.46671E+01  6.62405E+01  6.78522E+01  6.95031E+01  7.11941E+01
#           7.29263E+01  7.47007E+01  7.65182E+01  7.83800E+01  8.02870E+01
#           8.22405E+01  8.42414E+01  8.62911E+01  8.83906E+01  9.05412E+01
#           9.27442E+01  9.50007E+01  9.73122E+01  9.96799E+01  1.02105E+02
#           1.04589E+02  1.07134E+02  1.09741E+02  1.12411E+02  1.15146E+02
#           1.17948E+02  1.20817E+02  1.23757E+02  1.26768E+02  1.29852E+02
#           1.33012E+02  1.36248E+02  1.39563E+02  1.42959E+02  1.46437E+02
#           1.50000E+02
     unit =    2            # unit is [1/cm^2/(MeV/n)/source]
     axis =  eng            # axis of output
     file = detector-26.out  # file name of output for the above axis
   output = f-curr          # surface crossing forward current spectrum
     part =  neutron  
# kf/name :  2112     
#    used :        main (  %)        temp (  %)       total (  %)
#  memory :         414 (  0)           0 (  0)         414 (  0)

#------------------------------------------------------------------------------
#newpage:
#   no. =    1   reg = 125 - 225

x: Energy [MeV/n]
y:  F-Curr [1/cm^2/(MeV/n)/source]         
p: xlog ylog afac(0.8) form(0.9)
h: n            x            y(neutron ),hh0l   n 
#  e-lower      e-upper      neutron     r.err 
   1.0000E-02   1.0243E-02   1.1183E-04  0.0856
   1.0243E-02   1.0493E-02   1.0578E-04  0.0870
   1.0493E-02   1.0748E-02   1.1353E-04  0.0829
   1.0748E-02   1.1009E-02   1.0905E-04  0.0836
   1.1009E-02   1.1277E-02   1.0734E-04  0.0833
   1.1277E-02   1.1552E-02   9.3651E-05  0.0881
   1.1552E-02   1.1833E-02   1.1003E-04  0.0803
   1.1833E-02   1.2121E-02   8.2066E-05  0.0918
   1.2121E-02   1.2415E-02   1.0264E-04  0.0812
   1.2415E-02   1.2718E-02   8.9175E-05  0.0861
   1.2718E-02   1.3027E-02   9.5953E-05  0.0819
   1.3027E-02   1.3344E-02   7.8156E-05  0.0898
   1.3344E-02   1.3669E-02   8.4852E-05  0.0851
   1.3669E-02   1.4001E-02   8.2531E-05  0.0852
   1.4001E-02   1.4342E-02   8.7659E-05  0.0817
   1.4342E-02   1.4691E-02   8.4245E-05  0.0823
   1.4691E-02   1.5048E-02   8.2544E-05  0.0822
   1.5048E-02   1.5414E-02   7.9019E-05  0.0830
   1.5414E-02   1.5789E-02   8.0842E-05  0.0811
   1.5789E-02   1.6174E-02   7.1166E-05  0.0854
   1.6174E-02   1.6567E-02   7.1995E-05  0.0839
   1.6567E-02   1.6970E-02   8.5125E-05  0.0763
   1.6970E-02   1.7383E-02   6.9163E-05  0.0836
   1.7383E-02   1.7806E-02   8.6659E-05  0.0738
   1.7806E-02   1.8239E-02   6.0877E-05  0.0869
   1.8239E-02   1.8683E-02   6.9350E-05  0.0805
   1.8683E-02   1.9138E-02   6.4809E-05  0.0823
   1.9138E-02   1.9603E-02   6.1697E-05  0.0833
   1.9603E-02   2.0080E-02   6.7786E-05  0.0785
   2.0080E-02   2.0569E-02   6.0449E-05  0.0821
   2.0569E-02   2.1069E-02   6.1436E-05  0.0806
   2.1069E-02   2.1582E-02   5.9154E-05  0.0811
   2.1582E-02   2.2107E-02   6.3841E-05  0.0772
   2.2107E-02   2.2645E-02   5.1042E-05  0.0852
   2.2645E-02   2.3196E-02   4.7843E-05  0.0868
   2.3196E-02   2.3760E-02   4.8477E-05  0.0854
   2.3760E-02   2.4338E-02   6.0477E-05  0.0756
   2.4338E-02   2.4930E-02   5.1241E-05  0.0810
   2.4930E-02   2.5537E-02   5.0984E-05  0.0803
   2.5537E-02   2.6158E-02   4.4935E-05  0.0845
   2.6158E-02   2.6795E-02   4.8927E-05  0.0800
   2.6795E-02   2.7447E-02   4.0790E-05  0.0866
   2.7447E-02   2.8114E-02   4.1193E-05  0.0851
   2.8114E-02   2.8799E-02   4.3709E-05  0.0817
   2.8799E-02   2.9499E-02   4.3035E-05  0.0814
   2.9499E-02   3.0217E-02   4.2244E-05  0.0811
   3.0217E-02   3.0952E-02   3.9275E-05  0.0831
   3.0952E-02   3.1705E-02   4.5745E-05  0.0760
   3.1705E-02   3.2477E-02   3.7273E-05  0.0833
   3.2477E-02   3.3267E-02   3.6376E-05  0.0833
   3.3267E-02   3.4076E-02   3.5182E-05  0.0836
   3.4076E-02   3.4905E-02   4.2622E-05  0.0752
   3.4905E-02   3.5755E-02   4.0447E-05  0.0763
   3.5755E-02   3.6625E-02   3.6319E-05  0.0795
   3.6625E-02   3.7516E-02   3.6625E-05  0.0781
   3.7516E-02   3.8428E-02   3.7585E-05  0.0763
   3.8428E-02   3.9363E-02   3.4498E-05  0.0786
   3.9363E-02   4.0321E-02   3.1988E-05  0.0806
   4.0321E-02   4.1302E-02   3.3269E-05  0.0781
   4.1302E-02   4.2307E-02   3.0371E-05  0.0809
   4.2307E-02   4.3337E-02   3.5430E-05  0.0739
   4.3337E-02   4.4391E-02   3.1907E-05  0.0769
   4.4391E-02   4.5471E-02   3.2170E-05  0.0758
   4.5471E-02   4.6577E-02   2.9712E-05  0.0779
   4.6577E-02   4.7711E-02   2.3931E-05  0.0856
   4.7711E-02   4.8871E-02   2.8531E-05  0.0776
   4.8871E-02   5.0061E-02   2.8465E-05  0.0768
   5.0061E-02   5.1279E-02   3.0956E-05  0.0726
   5.1279E-02   5.2526E-02   2.6240E-05  0.0780
   5.2526E-02   5.3804E-02   2.4983E-05  0.0791
   5.3804E-02   5.5113E-02   2.4998E-05  0.0780
   5.5113E-02   5.6454E-02   2.8702E-05  0.0720
   5.6454E-02   5.7828E-02   2.3228E-05  0.0790
   5.7828E-02   5.9235E-02   2.2673E-05  0.0791
   5.9235E-02   6.0676E-02   2.5033E-05  0.0743
   6.0676E-02   6.2152E-02   2.3494E-05  0.0758
   6.2152E-02   6.3665E-02   2.0091E-05  0.0810
   6.3665E-02   6.5214E-02   2.1856E-05  0.0767
   6.5214E-02   6.6800E-02   2.1887E-05  0.0758
   6.6800E-02   6.8426E-02   1.9919E-05  0.0784
   6.8426E-02   7.0090E-02   2.0004E-05  0.0774
   7.0090E-02   7.1796E-02   2.2881E-05  0.0715
   7.1796E-02   7.3543E-02   1.8326E-05  0.0789
   7.3543E-02   7.5332E-02   1.7433E-05  0.0799
   7.5332E-02   7.7165E-02   1.9719E-05  0.0743
   7.7165E-02   7.9042E-02   1.7604E-05  0.0776
   7.9042E-02   8.0965E-02   1.7729E-05  0.0765
   8.0965E-02   8.2935E-02   1.5179E-05  0.0816
   8.2935E-02   8.4953E-02   1.6707E-05  0.0769
   8.4953E-02   8.7020E-02   1.5725E-05  0.0783
   8.7020E-02   8.9138E-02   1.6075E-05  0.0765
   8.9138E-02   9.1306E-02   1.4312E-05  0.0801
   9.1306E-02   9.3528E-02   1.6508E-05  0.0737
   9.3528E-02   9.5804E-02   1.3642E-05  0.0801
   9.5804E-02   9.8134E-02   1.4992E-05  0.0756
   9.8134E-02   1.0052E-01   1.6266E-05  0.0716
   1.0052E-01   1.0297E-01   1.3931E-05  0.0764
   1.0297E-01   1.0547E-01   1.5232E-05  0.0722
   1.0547E-01   1.0804E-01   1.5555E-05  0.0706
   1.0804E-01   1.1067E-01   1.8124E-05  0.0647
   1.1067E-01   1.1336E-01   1.7555E-05  0.0650
   1.1336E-01   1.1612E-01   1.9018E-05  0.0617
   1.1612E-01   1.1894E-01   1.9123E-05  0.0608
   1.1894E-01   1.2184E-01   1.8155E-05  0.0616
   1.2184E-01   1.2480E-01   2.0219E-05  0.0577
   1.2480E-01   1.2784E-01   1.9775E-05  0.0576
   1.2784E-01   1.3095E-01   2.0208E-05  0.0563
   1.3095E-01   1.3414E-01   2.0073E-05  0.0558
   1.3414E-01   1.3740E-01   2.2058E-05  0.0526
   1.3740E-01   1.4074E-01   2.4581E-05  0.0492
   1.4074E-01   1.4417E-01   2.3269E-05  0.0500
   1.4417E-01   1.4767E-01   2.3389E-05  0.0493
   1.4767E-01   1.5127E-01   2.5023E-05  0.0471
   1.5127E-01   1.5495E-01   2.4803E-05  0.0467
   1.5495E-01   1.5872E-01   2.3905E-05  0.0470
   1.5872E-01   1.6258E-01   2.7733E-05  0.0431
   1.6258E-01   1.6654E-01   2.9733E-05  0.0411
   1.6654E-01   1.7059E-01   2.7422E-05  0.0424
   1.7059E-01   1.7474E-01   3.0543E-05  0.0396
   1.7474E-01   1.7899E-01   2.9159E-05  0.0401
   1.7899E-01   1.8334E-01   2.9115E-05  0.0396
   1.8334E-01   1.8781E-01   3.1760E-05  0.0375
   1.8781E-01   1.9237E-01   2.9877E-05  0.0382
   1.9237E-01   1.9706E-01   3.2486E-05  0.0362
   1.9706E-01   2.0185E-01   3.3727E-05  0.0351
   2.0185E-01   2.0676E-01   3.2958E-05  0.0351
   2.0676E-01   2.1179E-01   3.4545E-05  0.0338
   2.1179E-01   2.1694E-01   3.3600E-05  0.0339
   2.1694E-01   2.2222E-01   3.6817E-05  0.0320
   2.2222E-01   2.2763E-01   3.4264E-05  0.0328
   2.2763E-01   2.3317E-01   3.8383E-05  0.0306
   2.3317E-01   2.3884E-01   3.7761E-05  0.0305
   2.3884E-01   2.4465E-01   3.8602E-05  0.0298
   2.4465E-01   2.5061E-01   3.9809E-05  0.0290
   2.5061E-01   2.5670E-01   3.8394E-05  0.0292
   2.5670E-01   2.6295E-01   4.0159E-05  0.0282
   2.6295E-01   2.6935E-01   4.1674E-05  0.0273
   2.6935E-01   2.7590E-01   4.1665E-05  0.0270
   2.7590E-01   2.8261E-01   4.1490E-05  0.0267
   2.8261E-01   2.8949E-01   4.2799E-05  0.0260
   2.8949E-01   2.9653E-01   4.3790E-05  0.0254
   2.9653E-01   3.0375E-01   4.5018E-05  0.0247
   3.0375E-01   3.1114E-01   4.5889E-05  0.0242
   3.1114E-01   3.1871E-01   4.6772E-05  0.0237
   3.1871E-01   3.2646E-01   4.6725E-05  0.0234
   3.2646E-01   3.3441E-01   4.6482E-05  0.0232
   3.3441E-01   3.4254E-01   4.5688E-05  0.0231
   3.4254E-01   3.5088E-01   4.8123E-05  0.0223
   3.5088E-01   3.5941E-01   4.8665E-05  0.0219
   3.5941E-01   3.6816E-01   4.8937E-05  0.0216
   3.6816E-01   3.7712E-01   5.0885E-05  0.0209
   3.7712E-01   3.8629E-01   5.0231E-05  0.0208
   3.8629E-01   3.9569E-01   5.0326E-05  0.0205
   3.9569E-01   4.0532E-01   5.0636E-05  0.0202
   4.0532E-01   4.1518E-01   5.0293E-05  0.0200
   4.1518E-01   4.2528E-01   5.0743E-05  0.0197
   4.2528E-01   4.3563E-01   5.0700E-05  0.0195
   4.3563E-01   4.4623E-01   5.3381E-05  0.0187
   4.4623E-01   4.5708E-01   5.1812E-05  0.0188
   4.5708E-01   4.6821E-01   5.4025E-05  0.0182
   4.6821E-01   4.7960E-01   5.3104E-05  0.0181
   4.7960E-01   4.9127E-01   5.5452E-05  0.0175
   4.9127E-01   5.0322E-01   5.4167E-05  0.0175
   5.0322E-01   5.1546E-01   5.4579E-05  0.0172
   5.1546E-01   5.2800E-01   5.5177E-05  0.0169
   5.2800E-01   5.4085E-01   5.6248E-05  0.0166
   5.4085E-01   5.5401E-01   5.5261E-05  0.0165
   5.5401E-01   5.6749E-01   5.4890E-05  0.0164
   5.6749E-01   5.8130E-01   5.5386E-05  0.0161
   5.8130E-01   5.9544E-01   5.4807E-05  0.0160
   5.9544E-01   6.0993E-01   5.5635E-05  0.0157
   6.0993E-01   6.2477E-01   5.5301E-05  0.0155
   6.2477E-01   6.3997E-01   5.4921E-05  0.0154
   6.3997E-01   6.5554E-01   5.6460E-05  0.0150
   6.5554E-01   6.7149E-01   5.3966E-05  0.0152
   6.7149E-01   6.8783E-01   5.4587E-05  0.0149
   6.8783E-01   7.0456E-01   5.3279E-05  0.0149
   7.0456E-01   7.2171E-01   5.2727E-05  0.0148
   7.2171E-01   7.3927E-01   5.2124E-05  0.0147
   7.3927E-01   7.5725E-01   5.2059E-05  0.0145
   7.5725E-01   7.7568E-01   5.1883E-05  0.0144
   7.7568E-01   7.9455E-01   5.0239E-05  0.0144
   7.9455E-01   8.1388E-01   5.0346E-05  0.0143
   8.1388E-01   8.3368E-01   4.9545E-05  0.0142
   8.3368E-01   8.5397E-01   4.7778E-05  0.0143
   8.5397E-01   8.7475E-01   4.7215E-05  0.0142
   8.7475E-01   8.9603E-01   4.6417E-05  0.0141
   8.9603E-01   9.1783E-01   4.4007E-05  0.0143
   9.1783E-01   9.4016E-01   4.2365E-05  0.0144
   9.4016E-01   9.6304E-01   4.1113E-05  0.0145
   9.6304E-01   9.8647E-01   3.9189E-05  0.0147
   9.8647E-01   1.0105E+00   3.7432E-05  0.0148
   1.0105E+00   1.0351E+00   3.6734E-05  0.0148
   1.0351E+00   1.0602E+00   3.6197E-05  0.0147
   1.0602E+00   1.0860E+00   3.5699E-05  0.0146
   1.0860E+00   1.1125E+00   3.6862E-05  0.0142
   1.1125E+00   1.1395E+00   3.6193E-05  0.0142
   1.1395E+00   1.1673E+00   3.5700E-05  0.0141
   1.1673E+00   1.1957E+00   3.5355E-05  0.0140
   1.1957E+00   1.2247E+00   3.4507E-05  0.0140
   1.2247E+00   1.2545E+00   3.5161E-05  0.0137
   1.2545E+00   1.2851E+00   3.3700E-05  0.0138
   1.2851E+00   1.3163E+00   3.2859E-05  0.0138
   1.3163E+00   1.3484E+00   3.2602E-05  0.0136
   1.3484E+00   1.3812E+00   3.2970E-05  0.0134
   1.3812E+00   1.4148E+00   3.2097E-05  0.0134
   1.4148E+00   1.4492E+00   3.1688E-05  0.0133
   1.4492E+00   1.4845E+00   3.0579E-05  0.0134
   1.4845E+00   1.5206E+00   3.0494E-05  0.0133
   1.5206E+00   1.5576E+00   2.9854E-05  0.0132
   1.5576E+00   1.5955E+00   2.8526E-05  0.0133
   1.5955E+00   1.6343E+00   2.8198E-05  0.0132
   1.6343E+00   1.6741E+00   2.7904E-05  0.0131
   1.6741E+00   1.7148E+00   2.7207E-05  0.0131
   1.7148E+00   1.7565E+00   2.6041E-05  0.0133
   1.7565E+00   1.7992E+00   2.5192E-05  0.0133
   1.7992E+00   1.8430E+00   2.3826E-05  0.0135
   1.8430E+00   1.8879E+00   2.2405E-05  0.0137
   1.8879E+00   1.9338E+00   2.2025E-05  0.0137
   1.9338E+00   1.9808E+00   2.0962E-05  0.0139
   1.9808E+00   2.0290E+00   2.1696E-05  0.0135
   2.0290E+00   2.0784E+00   2.0998E-05  0.0135
   2.0784E+00   2.1290E+00   2.0046E-05  0.0137
   2.1290E+00   2.1808E+00   2.0115E-05  0.0134
   2.1808E+00   2.2338E+00   1.9593E-05  0.0135
   2.2338E+00   2.2882E+00   1.9161E-05  0.0135
   2.2882E+00   2.3439E+00   1.8786E-05  0.0135
   2.3439E+00   2.4009E+00   1.8692E-05  0.0133
   2.4009E+00   2.4593E+00   1.7594E-05  0.0136
   2.4593E+00   2.5191E+00   1.6843E-05  0.0137
   2.5191E+00   2.5804E+00   1.6966E-05  0.0135
   2.5804E+00   2.6432E+00   1.6376E-05  0.0136
   2.6432E+00   2.7075E+00   1.6162E-05  0.0135
   2.7075E+00   2.7734E+00   1.5557E-05  0.0136
   2.7734E+00   2.8409E+00   1.5346E-05  0.0136
   2.8409E+00   2.9100E+00   1.4903E-05  0.0136
   2.9100E+00   2.9808E+00   1.4377E-05  0.0137
   2.9808E+00   3.0533E+00   1.4053E-05  0.0137
   3.0533E+00   3.1276E+00   1.4034E-05  0.0136
   3.1276E+00   3.2037E+00   1.3018E-05  0.0139
   3.2037E+00   3.2817E+00   1.3107E-05  0.0137
   3.2817E+00   3.3615E+00   1.2701E-05  0.0138
   3.3615E+00   3.4433E+00   1.2393E-05  0.0138
   3.4433E+00   3.5271E+00   1.1908E-05  0.0139
   3.5271E+00   3.6129E+00   1.1609E-05  0.0139
   3.6129E+00   3.7008E+00   1.1463E-05  0.0138
   3.7008E+00   3.7908E+00   1.0933E-05  0.0140
   3.7908E+00   3.8831E+00   1.0715E-05  0.0140
   3.8831E+00   3.9776E+00   1.0053E-05  0.0142
   3.9776E+00   4.0743E+00   9.9540E-06  0.0141
   4.0743E+00   4.1735E+00   9.4180E-06  0.0144
   4.1735E+00   4.2750E+00   9.3494E-06  0.0143
   4.2750E+00   4.3790E+00   8.9147E-06  0.0144
   4.3790E+00   4.4856E+00   8.6241E-06  0.0145
   4.4856E+00   4.5947E+00   8.5073E-06  0.0144
   4.5947E+00   4.7065E+00   8.1125E-06  0.0146
   4.7065E+00   4.8210E+00   7.7601E-06  0.0148
   4.8210E+00   4.9383E+00   7.4893E-06  0.0148
   4.9383E+00   5.0585E+00   7.2224E-06  0.0149
   5.0585E+00   5.1815E+00   6.8386E-06  0.0152
   5.1815E+00   5.3076E+00   6.4410E-06  0.0154
   5.3076E+00   5.4368E+00   6.3044E-06  0.0154
   5.4368E+00   5.5690E+00   5.9679E-06  0.0156
   5.5690E+00   5.7045E+00   5.7315E-06  0.0158
   5.7045E+00   5.8433E+00   5.4326E-06  0.0160
   5.8433E+00   5.9855E+00   5.1833E-06  0.0162
   5.9855E+00   6.1311E+00   4.9299E-06  0.0165
   6.1311E+00   6.2803E+00   4.4825E-06  0.0171
   6.2803E+00   6.4331E+00   4.3563E-06  0.0171
   6.4331E+00   6.5896E+00   4.0343E-06  0.0176
   6.5896E+00   6.7500E+00   3.7388E-06  0.0180
   6.7500E+00   6.9142E+00   3.4622E-06  0.0185
   6.9142E+00   7.0824E+00   3.2731E-06  0.0188
   7.0824E+00   7.2548E+00   2.9394E-06  0.0197
   7.2548E+00   7.4313E+00   2.7338E-06  0.0201
   7.4313E+00   7.6121E+00   2.5305E-06  0.0207
   7.6121E+00   7.7973E+00   2.3576E-06  0.0212
   7.7973E+00   7.9870E+00   2.3061E-06  0.0211
   7.9870E+00   8.1813E+00   2.1343E-06  0.0217
   8.1813E+00   8.3804E+00   1.9244E-06  0.0226
   8.3804E+00   8.5843E+00   1.8716E-06  0.0227
   8.5843E+00   8.7931E+00   1.6456E-06  0.0239
   8.7931E+00   9.0071E+00   1.5573E-06  0.0243
   9.0071E+00   9.2262E+00   1.3947E-06  0.0254
   9.2262E+00   9.4507E+00   1.3163E-06  0.0258
   9.4507E+00   9.6807E+00   1.2670E-06  0.0261
   9.6807E+00   9.9162E+00   1.1208E-06  0.0274
   9.9162E+00   1.0157E+01   1.1310E-06  0.0269
   1.0157E+01   1.0405E+01   1.0056E-06  0.0282
   1.0405E+01   1.0658E+01   9.0780E-07  0.0293
   1.0658E+01   1.0917E+01   7.9959E-07  0.0309
   1.0917E+01   1.1183E+01   8.0946E-07  0.0303
   1.1183E+01   1.1455E+01   7.4704E-07  0.0312
   1.1455E+01   1.1733E+01   6.6806E-07  0.0326
   1.1733E+01   1.2019E+01   5.9787E-07  0.0341
   1.2019E+01   1.2311E+01   5.7937E-07  0.0343
   1.2311E+01   1.2611E+01   4.9185E-07  0.0367
   1.2611E+01   1.2918E+01   4.7838E-07  0.0368
   1.2918E+01   1.3232E+01   4.5412E-07  0.0373
   1.3232E+01   1.3554E+01   4.0034E-07  0.0393
   1.3554E+01   1.3884E+01   3.5371E-07  0.0413
   1.3884E+01   1.4222E+01   3.3851E-07  0.0417
   1.4222E+01   1.4568E+01   3.1696E-07  0.0426
   1.4568E+01   1.4922E+01   2.9489E-07  0.0436
   1.4922E+01   1.5285E+01   2.6424E-07  0.0455
   1.5285E+01   1.5657E+01   2.5890E-07  0.0454
   1.5657E+01   1.6038E+01   2.3385E-07  0.0473
   1.6038E+01   1.6428E+01   2.0555E-07  0.0499
   1.6428E+01   1.6828E+01   1.8865E-07  0.0514
   1.6828E+01   1.7237E+01   1.7268E-07  0.0532
   1.7237E+01   1.7657E+01   1.4686E-07  0.0569
   1.7657E+01   1.8086E+01   1.3153E-07  0.0595
   1.8086E+01   1.8526E+01   1.1612E-07  0.0625
   1.8526E+01   1.8977E+01   1.0338E-07  0.0655
   1.8977E+01   1.9439E+01   1.0136E-07  0.0654
   1.9439E+01   1.9912E+01   7.7610E-08  0.0738
   1.9912E+01   2.0396E+01   7.9674E-08  0.0720
   2.0396E+01   2.0893E+01   7.0125E-08  0.0758
   2.0893E+01   2.1401E+01   5.9803E-08  0.0811
   2.1401E+01   2.1922E+01   5.8383E-08  0.0811
   2.1922E+01   2.2455E+01   4.4997E-08  0.0913
   2.2455E+01   2.3001E+01   3.6607E-08  0.1000
   2.3001E+01   2.3561E+01   2.9662E-08  0.1098
   2.3561E+01   2.4134E+01   2.8260E-08  0.1111
   2.4134E+01   2.4721E+01   2.2139E-08  0.1240
   2.4721E+01   2.5323E+01   1.7623E-08  0.1374
   2.5323E+01   2.5939E+01   1.7529E-08  0.1361
   2.5939E+01   2.6570E+01   1.1725E-08  0.1644
   2.6570E+01   2.7217E+01   1.2684E-08  0.1562
   2.7217E+01   2.7879E+01   8.4566E-09  0.1890
   2.7879E+01   2.8557E+01   4.4227E-09  0.2582
   2.8557E+01   2.9252E+01   6.0447E-09  0.2182
   2.9252E+01   2.9964E+01   3.9341E-09  0.2673
   2.9964E+01   3.0693E+01   2.4690E-09  0.3333
   3.0693E+01   3.1440E+01   5.3563E-10  0.7071
   3.1440E+01   3.2205E+01   1.0458E-09  0.5000
   3.2205E+01   3.2988E+01   2.5524E-10  1.0000
   3.2988E+01   3.3791E+01   9.9673E-10  0.5000
   3.3791E+01   3.4613E+01   4.8653E-10  0.7071
   3.4613E+01   3.5455E+01   4.7497E-10  0.7071
   3.5455E+01   3.6318E+01   4.6369E-10  0.7071
   3.6318E+01   3.7201E+01   0.0000E+00  0.0000
   3.7201E+01   3.8106E+01   8.8384E-10  0.5000
   3.8106E+01   3.9034E+01   2.1571E-10  1.0000
   3.9034E+01   3.9983E+01   0.0000E+00  0.0000
   3.9983E+01   4.0956E+01   0.0000E+00  0.0000
   4.0956E+01   4.1953E+01   0.0000E+00  0.0000
   4.1953E+01   4.2973E+01   0.0000E+00  0.0000
   4.2973E+01   4.4019E+01   0.0000E+00  0.0000
   4.4019E+01   4.5090E+01   0.0000E+00  0.0000
   4.5090E+01   4.6187E+01   0.0000E+00  0.0000
   4.6187E+01   4.7311E+01   0.0000E+00  0.0000
   4.7311E+01   4.8462E+01   0.0000E+00  0.0000
   4.8462E+01   4.9641E+01   0.0000E+00  0.0000
   4.9641E+01   5.0849E+01   0.0000E+00  0.0000
   5.0849E+01   5.2086E+01   0.0000E+00  0.0000
   5.2086E+01   5.3353E+01   0.0000E+00  0.0000
   5.3353E+01   5.4651E+01   0.0000E+00  0.0000
   5.4651E+01   5.5981E+01   0.0000E+00  0.0000
   5.5981E+01   5.7343E+01   0.0000E+00  0.0000
   5.7343E+01   5.8738E+01   0.0000E+00  0.0000
   5.8738E+01   6.0168E+01   0.0000E+00  0.0000
   6.0168E+01   6.1632E+01   0.0000E+00  0.0000
   6.1632E+01   6.3131E+01   0.0000E+00  0.0000
   6.3131E+01   6.4667E+01   0.0000E+00  0.0000
   6.4667E+01   6.6240E+01   0.0000E+00  0.0000
   6.6240E+01   6.7852E+01   0.0000E+00  0.0000
   6.7852E+01   6.9503E+01   0.0000E+00  0.0000
   6.9503E+01   7.1194E+01   0.0000E+00  0.0000
   7.1194E+01   7.2926E+01   0.0000E+00  0.0000
   7.2926E+01   7.4701E+01   0.0000E+00  0.0000
   7.4701E+01   7.6518E+01   0.0000E+00  0.0000
   7.6518E+01   7.8380E+01   0.0000E+00  0.0000
   7.8380E+01   8.0287E+01   0.0000E+00  0.0000
   8.0287E+01   8.2240E+01   0.0000E+00  0.0000
   8.2240E+01   8.4241E+01   0.0000E+00  0.0000
   8.4241E+01   8.6291E+01   0.0000E+00  0.0000
   8.6291E+01   8.8391E+01   0.0000E+00  0.0000
   8.8391E+01   9.0541E+01   0.0000E+00  0.0000
   9.0541E+01   9.2744E+01   0.0000E+00  0.0000
   9.2744E+01   9.5001E+01   0.0000E+00  0.0000
   9.5001E+01   9.7312E+01   0.0000E+00  0.0000
   9.7312E+01   9.9680E+01   0.0000E+00  0.0000
   9.9680E+01   1.0211E+02   0.0000E+00  0.0000
   1.0211E+02   1.0459E+02   0.0000E+00  0.0000
   1.0459E+02   1.0713E+02   0.0000E+00  0.0000
   1.0713E+02   1.0974E+02   0.0000E+00  0.0000
   1.0974E+02   1.1241E+02   0.0000E+00  0.0000
   1.1241E+02   1.1515E+02   0.0000E+00  0.0000
   1.1515E+02   1.1795E+02   0.0000E+00  0.0000
   1.1795E+02   1.2082E+02   0.0000E+00  0.0000
   1.2082E+02   1.2376E+02   0.0000E+00  0.0000
   1.2376E+02   1.2677E+02   0.0000E+00  0.0000
   1.2677E+02   1.2985E+02   0.0000E+00  0.0000
   1.2985E+02   1.3301E+02   0.0000E+00  0.0000
   1.3301E+02   1.3625E+02   0.0000E+00  0.0000
   1.3625E+02   1.3956E+02   0.0000E+00  0.0000
   1.3956E+02   1.4296E+02   0.0000E+00  0.0000
   1.4296E+02   1.4644E+02   0.0000E+00  0.0000
   1.4644E+02   1.5000E+02   0.0000E+00  0.0000

#   sum over                 8.7932E-07
'no. =    1   reg = 125 - 225'
msuc: {\huge [t-cross] in region mesh}
msdr: {\it plotted by \ANGEL \version}
msdl: {\it calculated by \PHITS  3.26}
wt: s(0.7)
\vspace{-3}
  region surface crossing
  area  &=&   1.0000E+00 [cm^2]
e:
 
# Information for Restart Calculation
# This calculation was newly started
# istdev =  2 # 1:Batch variance, 2:History variance
# resc2  = 5.00000000000000000E+09 # Total source weight or Total source weight / maxcas
# resc3  = 5.00000000000000000E+09 # Total history number or Total batch number
# maxcas =   100000000 # History / Batch, only used for istdev=1
# bitrseed = 0110100000100010111000001110001111001110100100011111101000111001 # bit data of rseed
