[ T-Cross ]
    title = [t-cross] in region mesh
     mesh =  reg            # mesh type is region-wise
      reg =    1            # number of crossing regions
      non     r-from    r-to       area
      1       113       213        1.000000    
   e-type =    3            # e-mesh is log given by emin, emax and ne
     emin =  1.0000000E-02  # minimum value of e-mesh points
     emax =   150.0000      # maximum value of e-mesh points
#    edel =  2.4039514E-02  # mesh width of e-mesh points
       ne =    400          # number of e-mesh points
#    data = ( e(i), i = 1, ne + 1 )
#           1.00000E-02  1.02433E-02  1.04925E-02  1.07478E-02  1.10093E-02
#           1.12772E-02  1.15516E-02  1.18326E-02  1.21205E-02  1.24154E-02
#           1.27175E-02  1.30269E-02  1.33439E-02  1.36686E-02  1.40011E-02
#           1.43418E-02  1.46907E-02  1.50482E-02  1.54143E-02  1.57894E-02
#           1.61735E-02  1.65670E-02  1.69701E-02  1.73830E-02  1.78060E-02
#           1.82392E-02  1.86830E-02  1.91375E-02  1.96032E-02  2.00801E-02
#           2.05687E-02  2.10692E-02  2.15818E-02  2.21069E-02  2.26448E-02
#           2.31957E-02  2.37601E-02  2.43382E-02  2.49304E-02  2.55369E-02
#           2.61583E-02  2.67947E-02  2.74467E-02  2.81145E-02  2.87985E-02
#           2.94992E-02  3.02169E-02  3.09521E-02  3.17052E-02  3.24766E-02
#           3.32668E-02  3.40762E-02  3.49053E-02  3.57546E-02  3.66246E-02
#           3.75157E-02  3.84284E-02  3.93634E-02  4.03212E-02  4.13022E-02
#           4.23071E-02  4.33365E-02  4.43909E-02  4.54710E-02  4.65773E-02
#           4.77106E-02  4.88714E-02  5.00605E-02  5.12785E-02  5.25262E-02
#           5.38042E-02  5.51133E-02  5.64542E-02  5.78278E-02  5.92348E-02
#           6.06760E-02  6.21523E-02  6.36645E-02  6.52135E-02  6.68002E-02
#           6.84255E-02  7.00904E-02  7.17957E-02  7.35426E-02  7.53319E-02
#           7.71648E-02  7.90423E-02  8.09655E-02  8.29354E-02  8.49533E-02
#           8.70203E-02  8.91376E-02  9.13064E-02  9.35279E-02  9.58035E-02
#           9.81345E-02  1.00522E-01  1.02968E-01  1.05473E-01  1.08040E-01
#           1.10668E-01  1.13361E-01  1.16119E-01  1.18944E-01  1.21838E-01
#           1.24803E-01  1.27839E-01  1.30950E-01  1.34136E-01  1.37399E-01
#           1.40742E-01  1.44167E-01  1.47675E-01  1.51268E-01  1.54948E-01
#           1.58718E-01  1.62580E-01  1.66535E-01  1.70587E-01  1.74738E-01
#           1.78989E-01  1.83344E-01  1.87805E-01  1.92375E-01  1.97055E-01
#           2.01850E-01  2.06761E-01  2.11792E-01  2.16945E-01  2.22223E-01
#           2.27630E-01  2.33169E-01  2.38842E-01  2.44653E-01  2.50605E-01
#           2.56703E-01  2.62949E-01  2.69346E-01  2.75900E-01  2.82613E-01
#           2.89489E-01  2.96532E-01  3.03747E-01  3.11138E-01  3.18708E-01
#           3.26462E-01  3.34405E-01  3.42542E-01  3.50876E-01  3.59413E-01
#           3.68158E-01  3.77116E-01  3.86291E-01  3.95690E-01  4.05317E-01
#           4.15179E-01  4.25281E-01  4.35628E-01  4.46227E-01  4.57084E-01
#           4.68205E-01  4.79597E-01  4.91266E-01  5.03219E-01  5.15463E-01
#           5.28005E-01  5.40851E-01  5.54011E-01  5.67490E-01  5.81298E-01
#           5.95441E-01  6.09929E-01  6.24769E-01  6.39970E-01  6.55541E-01
#           6.71491E-01  6.87828E-01  7.04564E-01  7.21706E-01  7.39266E-01
#           7.57253E-01  7.75678E-01  7.94551E-01  8.13883E-01  8.33685E-01
#           8.53969E-01  8.74747E-01  8.96030E-01  9.17831E-01  9.40163E-01
#           9.63038E-01  9.86469E-01  1.01047E+00  1.03506E+00  1.06024E+00
#           1.08604E+00  1.11246E+00  1.13953E+00  1.16725E+00  1.19565E+00
#           1.22474E+00  1.25454E+00  1.28507E+00  1.31633E+00  1.34836E+00
#           1.38117E+00  1.41477E+00  1.44920E+00  1.48446E+00  1.52057E+00
#           1.55757E+00  1.59547E+00  1.63429E+00  1.67405E+00  1.71478E+00
#           1.75650E+00  1.79924E+00  1.84302E+00  1.88786E+00  1.93379E+00
#           1.98084E+00  2.02904E+00  2.07841E+00  2.12898E+00  2.18078E+00
#           2.23384E+00  2.28819E+00  2.34386E+00  2.40089E+00  2.45930E+00
#           2.51914E+00  2.58043E+00  2.64322E+00  2.70753E+00  2.77341E+00
#           2.84088E+00  2.91001E+00  2.98081E+00  3.05333E+00  3.12762E+00
#           3.20372E+00  3.28167E+00  3.36152E+00  3.44330E+00  3.52708E+00
#           3.61290E+00  3.70080E+00  3.79085E+00  3.88308E+00  3.97756E+00
#           4.07434E+00  4.17347E+00  4.27501E+00  4.37903E+00  4.48557E+00
#           4.59471E+00  4.70650E+00  4.82102E+00  4.93832E+00  5.05847E+00
#           5.18155E+00  5.30762E+00  5.43676E+00  5.56904E+00  5.70453E+00
#           5.84333E+00  5.98550E+00  6.13114E+00  6.28031E+00  6.43312E+00
#           6.58964E+00  6.74997E+00  6.91420E+00  7.08243E+00  7.25475E+00
#           7.43126E+00  7.61207E+00  7.79728E+00  7.98700E+00  8.18133E+00
#           8.38038E+00  8.58428E+00  8.79315E+00  9.00709E+00  9.22624E+00
#           9.45072E+00  9.68067E+00  9.91620E+00  1.01575E+01  1.04046E+01
#           1.06578E+01  1.09171E+01  1.11827E+01  1.14548E+01  1.17335E+01
#           1.20190E+01  1.23114E+01  1.26109E+01  1.29178E+01  1.32321E+01
#           1.35540E+01  1.38838E+01  1.42216E+01  1.45676E+01  1.49221E+01
#           1.52851E+01  1.56570E+01  1.60380E+01  1.64282E+01  1.68279E+01
#           1.72374E+01  1.76568E+01  1.80864E+01  1.85264E+01  1.89772E+01
#           1.94389E+01  1.99119E+01  2.03963E+01  2.08926E+01  2.14009E+01
#           2.19216E+01  2.24550E+01  2.30014E+01  2.35610E+01  2.41343E+01
#           2.47215E+01  2.53230E+01  2.59391E+01  2.65702E+01  2.72167E+01
#           2.78789E+01  2.85572E+01  2.92520E+01  2.99637E+01  3.06928E+01
#           3.14396E+01  3.22045E+01  3.29881E+01  3.37907E+01  3.46128E+01
#           3.54550E+01  3.63177E+01  3.72013E+01  3.81064E+01  3.90336E+01
#           3.99833E+01  4.09561E+01  4.19526E+01  4.29734E+01  4.40189E+01
#           4.50900E+01  4.61870E+01  4.73108E+01  4.84619E+01  4.96410E+01
#           5.08488E+01  5.20860E+01  5.33533E+01  5.46514E+01  5.59812E+01
#           5.73432E+01  5.87384E+01  6.01676E+01  6.16315E+01  6.31311E+01
#           6.46671E+01  6.62405E+01  6.78522E+01  6.95031E+01  7.11941E+01
#           7.29263E+01  7.47007E+01  7.65182E+01  7.83800E+01  8.02870E+01
#           8.22405E+01  8.42414E+01  8.62911E+01  8.83906E+01  9.05412E+01
#           9.27442E+01  9.50007E+01  9.73122E+01  9.96799E+01  1.02105E+02
#           1.04589E+02  1.07134E+02  1.09741E+02  1.12411E+02  1.15146E+02
#           1.17948E+02  1.20817E+02  1.23757E+02  1.26768E+02  1.29852E+02
#           1.33012E+02  1.36248E+02  1.39563E+02  1.42959E+02  1.46437E+02
#           1.50000E+02
     unit =    2            # unit is [1/cm^2/(MeV/n)/source]
     axis =  eng            # axis of output
     file = detector-14.out  # file name of output for the above axis
   output = f-curr          # surface crossing forward current spectrum
     part =  neutron  
# kf/name :  2112     
#    used :        main (  %)        temp (  %)       total (  %)
#  memory :         414 (  0)           0 (  0)         414 (  0)

#------------------------------------------------------------------------------
#newpage:
#   no. =    1   reg = 113 - 213

x: Energy [MeV/n]
y:  F-Curr [1/cm^2/(MeV/n)/source]         
p: xlog ylog afac(0.8) form(0.9)
h: n            x            y(neutron ),hh0l   n 
#  e-lower      e-upper      neutron     r.err 
   1.0000E-02   1.0243E-02   5.7540E-05  0.1195
   1.0243E-02   1.0493E-02   5.7778E-05  0.1179
   1.0493E-02   1.0748E-02   6.1890E-05  0.1125
   1.0748E-02   1.1009E-02   6.3479E-05  0.1098
   1.1009E-02   1.1277E-02   5.4505E-05  0.1170
   1.1277E-02   1.1552E-02   7.1433E-05  0.1010
   1.1552E-02   1.1833E-02   6.8313E-05  0.1021
   1.1833E-02   1.2121E-02   6.6690E-05  0.1021
   1.2121E-02   1.2415E-02   6.4428E-05  0.1026
   1.2415E-02   1.2718E-02   6.8857E-05  0.0981
   1.2718E-02   1.3027E-02   6.8514E-05  0.0971
   1.3027E-02   1.3344E-02   4.7325E-05  0.1155
   1.3344E-02   1.3669E-02   6.8378E-05  0.0949
   1.3669E-02   1.4001E-02   6.3145E-05  0.0976
   1.4001E-02   1.4342E-02   6.9278E-05  0.0921
   1.4342E-02   1.4691E-02   7.1644E-05  0.0894
   1.4691E-02   1.5048E-02   6.8823E-05  0.0902
   1.5048E-02   1.5414E-02   7.8113E-05  0.0836
   1.5414E-02   1.5789E-02   6.5593E-05  0.0902
   1.5789E-02   1.6174E-02   6.7158E-05  0.0880
   1.6174E-02   1.6567E-02   7.4711E-05  0.0825
   1.6567E-02   1.6970E-02   6.9464E-05  0.0845
   1.6970E-02   1.7383E-02   6.9267E-05  0.0836
   1.7383E-02   1.7806E-02   6.8094E-05  0.0833
   1.7806E-02   1.8239E-02   6.6015E-05  0.0836
   1.8239E-02   1.8683E-02   6.5433E-05  0.0829
   1.8683E-02   1.9138E-02   6.4236E-05  0.0828
   1.9138E-02   1.9603E-02   7.0442E-05  0.0781
   1.9603E-02   2.0080E-02   6.7930E-05  0.0786
   2.0080E-02   2.0569E-02   7.4913E-05  0.0739
   2.0569E-02   2.1069E-02   7.0736E-05  0.0752
   2.1069E-02   2.1582E-02   7.4908E-05  0.0722
   2.1582E-02   2.2107E-02   6.2083E-05  0.0783
   2.2107E-02   2.2645E-02   6.1352E-05  0.0778
   2.2645E-02   2.3196E-02   6.7881E-05  0.0731
   2.3196E-02   2.3760E-02   7.2752E-05  0.0697
   2.3760E-02   2.4338E-02   5.7584E-05  0.0775
   2.4338E-02   2.4930E-02   7.3290E-05  0.0679
   2.4930E-02   2.5537E-02   7.1879E-05  0.0677
   2.5537E-02   2.6158E-02   6.6999E-05  0.0693
   2.6158E-02   2.6795E-02   6.3605E-05  0.0702
   2.6795E-02   2.7447E-02   6.6878E-05  0.0677
   2.7447E-02   2.8114E-02   7.2177E-05  0.0644
   2.8114E-02   2.8799E-02   6.3488E-05  0.0678
   2.8799E-02   2.9499E-02   6.6506E-05  0.0655
   2.9499E-02   3.0217E-02   6.4090E-05  0.0659
   3.0217E-02   3.0952E-02   7.2220E-05  0.0613
   3.0952E-02   3.1705E-02   7.4626E-05  0.0597
   3.1705E-02   3.2477E-02   7.5484E-05  0.0586
   3.2477E-02   3.3267E-02   6.6820E-05  0.0615
   3.3267E-02   3.4076E-02   7.2399E-05  0.0584
   3.4076E-02   3.4905E-02   6.9990E-05  0.0587
   3.4905E-02   3.5755E-02   6.7587E-05  0.0590
   3.5755E-02   3.6625E-02   7.1040E-05  0.0569
   3.6625E-02   3.7516E-02   6.8006E-05  0.0574
   3.7516E-02   3.8428E-02   6.3363E-05  0.0588
   3.8428E-02   3.9363E-02   7.4867E-05  0.0535
   3.9363E-02   4.0321E-02   7.5803E-05  0.0525
   4.0321E-02   4.1302E-02   7.2639E-05  0.0530
   4.1302E-02   4.2307E-02   7.0136E-05  0.0533
   4.2307E-02   4.3337E-02   6.7226E-05  0.0538
   4.3337E-02   4.4391E-02   6.8854E-05  0.0525
   4.4391E-02   4.5471E-02   6.6504E-05  0.0528
   4.5471E-02   4.6577E-02   7.1226E-05  0.0504
   4.6577E-02   4.7711E-02   7.0089E-05  0.0502
   4.7711E-02   4.8871E-02   6.9088E-05  0.0499
   4.8871E-02   5.0061E-02   7.0643E-05  0.0488
   5.0061E-02   5.1279E-02   6.7815E-05  0.0492
   5.1279E-02   5.2526E-02   7.4540E-05  0.0464
   5.2526E-02   5.3804E-02   7.5274E-05  0.0456
   5.3804E-02   5.5113E-02   7.8527E-05  0.0441
   5.5113E-02   5.6454E-02   7.1591E-05  0.0456
   5.6454E-02   5.7828E-02   7.3094E-05  0.0446
   5.7828E-02   5.9235E-02   7.5338E-05  0.0434
   5.9235E-02   6.0676E-02   6.5361E-05  0.0461
   6.0676E-02   6.2152E-02   6.8414E-05  0.0445
   6.2152E-02   6.3665E-02   7.4481E-05  0.0421
   6.3665E-02   6.5214E-02   7.2452E-05  0.0422
   6.5214E-02   6.6800E-02   6.8092E-05  0.0430
   6.6800E-02   6.8426E-02   6.9033E-05  0.0422
   6.8426E-02   7.0090E-02   6.7452E-05  0.0422
   7.0090E-02   7.1796E-02   7.2767E-05  0.0401
   7.1796E-02   7.3543E-02   7.3770E-05  0.0394
   7.3543E-02   7.5332E-02   6.9650E-05  0.0401
   7.5332E-02   7.7165E-02   6.7435E-05  0.0402
   7.7165E-02   7.9042E-02   6.6187E-05  0.0401
   7.9042E-02   8.0965E-02   7.1341E-05  0.0382
   8.0965E-02   8.2935E-02   7.2591E-05  0.0374
   8.2935E-02   8.4953E-02   7.3542E-05  0.0367
   8.4953E-02   8.7020E-02   6.9887E-05  0.0372
   8.7020E-02   8.9138E-02   6.3968E-05  0.0384
   8.9138E-02   9.1306E-02   7.1583E-05  0.0359
   9.1306E-02   9.3528E-02   6.7340E-05  0.0366
   9.3528E-02   9.5804E-02   6.8757E-05  0.0357
   9.5804E-02   9.8134E-02   6.8408E-05  0.0354
   9.8134E-02   1.0052E-01   6.8434E-05  0.0350
   1.0052E-01   1.0297E-01   6.5316E-05  0.0354
   1.0297E-01   1.0547E-01   7.1380E-05  0.0334
   1.0547E-01   1.0804E-01   6.8152E-05  0.0338
   1.0804E-01   1.1067E-01   7.0553E-05  0.0328
   1.1067E-01   1.1336E-01   6.3358E-05  0.0342
   1.1336E-01   1.1612E-01   6.5902E-05  0.0332
   1.1612E-01   1.1894E-01   6.4440E-05  0.0331
   1.1894E-01   1.2184E-01   6.6393E-05  0.0323
   1.2184E-01   1.2480E-01   6.5791E-05  0.0320
   1.2480E-01   1.2784E-01   6.4152E-05  0.0320
   1.2784E-01   1.3095E-01   6.6357E-05  0.0311
   1.3095E-01   1.3414E-01   6.4284E-05  0.0312
   1.3414E-01   1.3740E-01   6.2577E-05  0.0313
   1.3740E-01   1.4074E-01   6.5161E-05  0.0303
   1.4074E-01   1.4417E-01   6.3136E-05  0.0304
   1.4417E-01   1.4767E-01   5.9823E-05  0.0309
   1.4767E-01   1.5127E-01   6.3846E-05  0.0295
   1.5127E-01   1.5495E-01   6.2028E-05  0.0296
   1.5495E-01   1.5872E-01   6.1917E-05  0.0293
   1.5872E-01   1.6258E-01   6.5487E-05  0.0281
   1.6258E-01   1.6654E-01   6.2228E-05  0.0285
   1.6654E-01   1.7059E-01   5.8456E-05  0.0291
   1.7059E-01   1.7474E-01   5.9784E-05  0.0284
   1.7474E-01   1.7899E-01   5.8259E-05  0.0284
   1.7899E-01   1.8334E-01   5.8285E-05  0.0281
   1.8334E-01   1.8781E-01   5.8128E-05  0.0278
   1.8781E-01   1.9237E-01   6.0331E-05  0.0269
   1.9237E-01   1.9706E-01   5.7566E-05  0.0272
   1.9706E-01   2.0185E-01   5.8388E-05  0.0267
   2.0185E-01   2.0676E-01   5.6020E-05  0.0270
   2.0676E-01   2.1179E-01   5.5788E-05  0.0267
   2.1179E-01   2.1694E-01   5.3795E-05  0.0269
   2.1694E-01   2.2222E-01   5.7090E-05  0.0258
   2.2222E-01   2.2763E-01   5.4342E-05  0.0261
   2.2763E-01   2.3317E-01   5.3460E-05  0.0260
   2.3317E-01   2.3884E-01   5.2157E-05  0.0260
   2.3884E-01   2.4465E-01   5.4115E-05  0.0252
   2.4465E-01   2.5061E-01   5.3571E-05  0.0250
   2.5061E-01   2.5670E-01   5.4811E-05  0.0245
   2.5670E-01   2.6295E-01   5.3849E-05  0.0244
   2.6295E-01   2.6935E-01   5.2461E-05  0.0244
   2.6935E-01   2.7590E-01   4.9839E-05  0.0247
   2.7590E-01   2.8261E-01   4.9101E-05  0.0246
   2.8261E-01   2.8949E-01   4.9411E-05  0.0243
   2.8949E-01   2.9653E-01   5.1755E-05  0.0234
   2.9653E-01   3.0375E-01   4.8951E-05  0.0238
   3.0375E-01   3.1114E-01   4.5793E-05  0.0243
   3.1114E-01   3.1871E-01   4.5519E-05  0.0241
   3.1871E-01   3.2646E-01   4.6155E-05  0.0236
   3.2646E-01   3.3441E-01   4.5569E-05  0.0235
   3.3441E-01   3.4254E-01   4.6029E-05  0.0231
   3.4254E-01   3.5088E-01   4.5153E-05  0.0231
   3.5088E-01   3.5941E-01   4.4082E-05  0.0230
   3.5941E-01   3.6816E-01   4.3862E-05  0.0228
   3.6816E-01   3.7712E-01   4.2585E-05  0.0229
   3.7712E-01   3.8629E-01   4.1307E-05  0.0230
   3.8629E-01   3.9569E-01   4.0227E-05  0.0230
   3.9569E-01   4.0532E-01   4.0938E-05  0.0225
   4.0532E-01   4.1518E-01   3.9322E-05  0.0227
   4.1518E-01   4.2528E-01   4.0425E-05  0.0221
   4.2528E-01   4.3563E-01   3.8912E-05  0.0223
   4.3563E-01   4.4623E-01   3.8754E-05  0.0221
   4.4623E-01   4.5708E-01   3.7777E-05  0.0221
   4.5708E-01   4.6821E-01   3.8411E-05  0.0216
   4.6821E-01   4.7960E-01   3.5121E-05  0.0224
   4.7960E-01   4.9127E-01   3.6922E-05  0.0215
   4.9127E-01   5.0322E-01   3.6179E-05  0.0215
   5.0322E-01   5.1546E-01   3.3976E-05  0.0219
   5.1546E-01   5.2800E-01   3.4930E-05  0.0214
   5.2800E-01   5.4085E-01   3.3798E-05  0.0215
   5.4085E-01   5.5401E-01   3.3632E-05  0.0212
   5.5401E-01   5.6749E-01   3.2377E-05  0.0214
   5.6749E-01   5.8130E-01   3.1140E-05  0.0216
   5.8130E-01   5.9544E-01   3.2085E-05  0.0210
   5.9544E-01   6.0993E-01   3.1822E-05  0.0208
   6.0993E-01   6.2477E-01   3.1145E-05  0.0208
   6.2477E-01   6.3997E-01   3.0378E-05  0.0208
   6.3997E-01   6.5554E-01   2.9588E-05  0.0208
   6.5554E-01   6.7149E-01   2.8840E-05  0.0208
   6.7149E-01   6.8783E-01   2.7852E-05  0.0210
   6.8783E-01   7.0456E-01   2.6389E-05  0.0213
   7.0456E-01   7.2171E-01   2.6829E-05  0.0208
   7.2171E-01   7.3927E-01   2.5901E-05  0.0210
   7.3927E-01   7.5725E-01   2.5292E-05  0.0210
   7.5725E-01   7.7568E-01   2.5122E-05  0.0208
   7.7568E-01   7.9455E-01   2.3696E-05  0.0211
   7.9455E-01   8.1388E-01   2.3701E-05  0.0209
   8.1388E-01   8.3368E-01   2.3275E-05  0.0208
   8.3368E-01   8.5397E-01   2.2464E-05  0.0209
   8.5397E-01   8.7475E-01   2.1654E-05  0.0211
   8.7475E-01   8.9603E-01   2.1444E-05  0.0209
   8.9603E-01   9.1783E-01   2.0065E-05  0.0214
   9.1783E-01   9.4016E-01   2.0058E-05  0.0211
   9.4016E-01   9.6304E-01   1.9820E-05  0.0210
   9.6304E-01   9.8647E-01   1.8423E-05  0.0215
   9.8647E-01   1.0105E+00   1.8687E-05  0.0211
   1.0105E+00   1.0351E+00   1.8680E-05  0.0209
   1.0351E+00   1.0602E+00   1.9472E-05  0.0202
   1.0602E+00   1.0860E+00   1.9442E-05  0.0200
   1.0860E+00   1.1125E+00   2.0325E-05  0.0193
   1.1125E+00   1.1395E+00   2.0598E-05  0.0189
   1.1395E+00   1.1673E+00   2.0989E-05  0.0185
   1.1673E+00   1.1957E+00   2.2510E-05  0.0177
   1.1957E+00   1.2247E+00   2.3779E-05  0.0170
   1.2247E+00   1.2545E+00   2.4504E-05  0.0165
   1.2545E+00   1.2851E+00   2.4480E-05  0.0163
   1.2851E+00   1.3163E+00   2.5265E-05  0.0159
   1.3163E+00   1.3484E+00   2.6343E-05  0.0154
   1.3484E+00   1.3812E+00   2.7115E-05  0.0150
   1.3812E+00   1.4148E+00   2.8386E-05  0.0145
   1.4148E+00   1.4492E+00   2.9372E-05  0.0141
   1.4492E+00   1.4845E+00   2.9806E-05  0.0138
   1.4845E+00   1.5206E+00   3.0445E-05  0.0135
   1.5206E+00   1.5576E+00   3.2312E-05  0.0129
   1.5576E+00   1.5955E+00   3.3303E-05  0.0126
   1.5955E+00   1.6343E+00   3.4418E-05  0.0122
   1.6343E+00   1.6741E+00   3.5117E-05  0.0120
   1.6741E+00   1.7148E+00   3.8001E-05  0.0114
   1.7148E+00   1.7565E+00   3.8990E-05  0.0111
   1.7565E+00   1.7992E+00   4.0601E-05  0.0107
   1.7992E+00   1.8430E+00   4.2301E-05  0.0104
   1.8430E+00   1.8879E+00   4.2868E-05  0.0102
   1.8879E+00   1.9338E+00   4.4899E-05  0.0098
   1.9338E+00   1.9808E+00   4.6718E-05  0.0095
   1.9808E+00   2.0290E+00   4.7860E-05  0.0093
   2.0290E+00   2.0784E+00   4.9771E-05  0.0090
   2.0784E+00   2.1290E+00   5.0542E-05  0.0088
   2.1290E+00   2.1808E+00   5.1710E-05  0.0086
   2.1808E+00   2.2338E+00   5.3347E-05  0.0084
   2.2338E+00   2.2882E+00   5.5000E-05  0.0082
   2.2882E+00   2.3439E+00   5.8260E-05  0.0078
   2.3439E+00   2.4009E+00   5.9927E-05  0.0076
   2.4009E+00   2.4593E+00   6.2662E-05  0.0074
   2.4593E+00   2.5191E+00   6.3099E-05  0.0073
   2.5191E+00   2.5804E+00   6.4386E-05  0.0071
   2.5804E+00   2.6432E+00   6.4860E-05  0.0070
   2.6432E+00   2.7075E+00   6.5825E-05  0.0069
   2.7075E+00   2.7734E+00   6.8396E-05  0.0066
   2.7734E+00   2.8409E+00   7.0615E-05  0.0065
   2.8409E+00   2.9100E+00   7.3847E-05  0.0062
   2.9100E+00   2.9808E+00   7.3754E-05  0.0062
   2.9808E+00   3.0533E+00   7.5020E-05  0.0060
   3.0533E+00   3.1276E+00   7.4640E-05  0.0060
   3.1276E+00   3.2037E+00   7.5380E-05  0.0059
   3.2037E+00   3.2817E+00   7.5518E-05  0.0058
   3.2817E+00   3.3615E+00   7.5636E-05  0.0057
   3.3615E+00   3.4433E+00   7.7799E-05  0.0056
   3.4433E+00   3.5271E+00   7.9400E-05  0.0055
   3.5271E+00   3.6129E+00   7.9696E-05  0.0054
   3.6129E+00   3.7008E+00   7.8431E-05  0.0054
   3.7008E+00   3.7908E+00   7.8627E-05  0.0053
   3.7908E+00   3.8831E+00   7.8493E-05  0.0052
   3.8831E+00   3.9776E+00   7.8155E-05  0.0052
   3.9776E+00   4.0743E+00   7.8225E-05  0.0051
   4.0743E+00   4.1735E+00   7.7646E-05  0.0051
   4.1735E+00   4.2750E+00   7.5941E-05  0.0051
   4.2750E+00   4.3790E+00   7.4458E-05  0.0051
   4.3790E+00   4.4856E+00   7.3666E-05  0.0050
   4.4856E+00   4.5947E+00   7.2411E-05  0.0050
   4.5947E+00   4.7065E+00   7.2037E-05  0.0050
   4.7065E+00   4.8210E+00   7.1246E-05  0.0049
   4.8210E+00   4.9383E+00   7.0080E-05  0.0049
   4.9383E+00   5.0585E+00   6.8161E-05  0.0049
   5.0585E+00   5.1815E+00   6.6164E-05  0.0049
   5.1815E+00   5.3076E+00   6.4126E-05  0.0049
   5.3076E+00   5.4368E+00   6.2117E-05  0.0050
   5.4368E+00   5.5690E+00   6.0317E-05  0.0050
   5.5690E+00   5.7045E+00   5.8060E-05  0.0050
   5.7045E+00   5.8433E+00   5.7547E-05  0.0050
   5.8433E+00   5.9855E+00   5.4950E-05  0.0050
   5.9855E+00   6.1311E+00   5.3699E-05  0.0050
   6.1311E+00   6.2803E+00   5.1519E-05  0.0051
   6.2803E+00   6.4331E+00   4.9081E-05  0.0051
   6.4331E+00   6.5896E+00   4.7149E-05  0.0052
   6.5896E+00   6.7500E+00   4.5191E-05  0.0052
   6.7500E+00   6.9142E+00   4.3059E-05  0.0053
   6.9142E+00   7.0824E+00   4.1144E-05  0.0053
   7.0824E+00   7.2548E+00   3.9926E-05  0.0054
   7.2548E+00   7.4313E+00   3.8391E-05  0.0054
   7.4313E+00   7.6121E+00   3.6357E-05  0.0055
   7.6121E+00   7.7973E+00   3.4889E-05  0.0055
   7.7973E+00   7.9870E+00   3.3185E-05  0.0056
   7.9870E+00   8.1813E+00   3.1724E-05  0.0057
   8.1813E+00   8.3804E+00   3.0115E-05  0.0057
   8.3804E+00   8.5843E+00   2.8528E-05  0.0058
   8.5843E+00   8.7931E+00   2.6936E-05  0.0059
   8.7931E+00   9.0071E+00   2.5820E-05  0.0060
   9.0071E+00   9.2262E+00   2.4569E-05  0.0061
   9.2262E+00   9.4507E+00   2.3248E-05  0.0062
   9.4507E+00   9.6807E+00   2.2350E-05  0.0062
   9.6807E+00   9.9162E+00   2.1128E-05  0.0063
   9.9162E+00   1.0157E+01   2.0237E-05  0.0064
   1.0157E+01   1.0405E+01   1.9182E-05  0.0065
   1.0405E+01   1.0658E+01   1.8446E-05  0.0065
   1.0658E+01   1.0917E+01   1.7460E-05  0.0066
   1.0917E+01   1.1183E+01   1.6982E-05  0.0066
   1.1183E+01   1.1455E+01   1.5838E-05  0.0068
   1.1455E+01   1.1733E+01   1.5268E-05  0.0068
   1.1733E+01   1.2019E+01   1.4590E-05  0.0069
   1.2019E+01   1.2311E+01   1.4045E-05  0.0070
   1.2311E+01   1.2611E+01   1.3438E-05  0.0070
   1.2611E+01   1.2918E+01   1.2938E-05  0.0071
   1.2918E+01   1.3232E+01   1.2278E-05  0.0072
   1.3232E+01   1.3554E+01   1.1879E-05  0.0072
   1.3554E+01   1.3884E+01   1.1402E-05  0.0073
   1.3884E+01   1.4222E+01   1.0979E-05  0.0073
   1.4222E+01   1.4568E+01   1.0594E-05  0.0074
   1.4568E+01   1.4922E+01   1.0099E-05  0.0075
   1.4922E+01   1.5285E+01   9.6807E-06  0.0075
   1.5285E+01   1.5657E+01   9.4406E-06  0.0075
   1.5657E+01   1.6038E+01   8.8078E-06  0.0077
   1.6038E+01   1.6428E+01   8.3963E-06  0.0078
   1.6428E+01   1.6828E+01   8.1304E-06  0.0078
   1.6828E+01   1.7237E+01   7.8209E-06  0.0079
   1.7237E+01   1.7657E+01   7.4832E-06  0.0080
   1.7657E+01   1.8086E+01   7.0990E-06  0.0081
   1.8086E+01   1.8526E+01   6.6663E-06  0.0083
   1.8526E+01   1.8977E+01   6.5379E-06  0.0082
   1.8977E+01   1.9439E+01   6.1714E-06  0.0084
   1.9439E+01   1.9912E+01   5.7298E-06  0.0086
   1.9912E+01   2.0396E+01   5.2990E-06  0.0088
   2.0396E+01   2.0893E+01   5.0715E-06  0.0089
   2.0893E+01   2.1401E+01   4.7622E-06  0.0091
   2.1401E+01   2.1922E+01   4.4943E-06  0.0092
   2.1922E+01   2.2455E+01   4.2511E-06  0.0094
   2.2455E+01   2.3001E+01   4.0253E-06  0.0095
   2.3001E+01   2.3561E+01   3.6902E-06  0.0098
   2.3561E+01   2.4134E+01   3.4627E-06  0.0100
   2.4134E+01   2.4721E+01   3.2013E-06  0.0103
   2.4721E+01   2.5323E+01   2.9759E-06  0.0106
   2.5323E+01   2.5939E+01   2.7670E-06  0.0108
   2.5939E+01   2.6570E+01   2.4762E-06  0.0113
   2.6570E+01   2.7217E+01   2.3169E-06  0.0116
   2.7217E+01   2.7879E+01   2.0743E-06  0.0121
   2.7879E+01   2.8557E+01   1.8856E-06  0.0125
   2.8557E+01   2.9252E+01   1.7173E-06  0.0129
   2.9252E+01   2.9964E+01   1.5264E-06  0.0136
   2.9964E+01   3.0693E+01   1.3286E-06  0.0144
   3.0693E+01   3.1440E+01   1.1714E-06  0.0151
   3.1440E+01   3.2205E+01   1.0994E-06  0.0154
   3.2205E+01   3.2988E+01   8.8851E-07  0.0169
   3.2988E+01   3.3791E+01   7.9041E-07  0.0178
   3.3791E+01   3.4613E+01   6.5803E-07  0.0192
   3.4613E+01   3.5455E+01   5.8445E-07  0.0202
   3.5455E+01   3.6318E+01   4.5952E-07  0.0225
   3.6318E+01   3.7201E+01   3.8590E-07  0.0242
   3.7201E+01   3.8106E+01   3.0846E-07  0.0268
   3.8106E+01   3.9034E+01   2.4850E-07  0.0295
   3.9034E+01   3.9983E+01   1.8911E-07  0.0334
   3.9983E+01   4.0956E+01   1.3754E-07  0.0387
   4.0956E+01   4.1953E+01   9.6338E-08  0.0456
   4.1953E+01   4.2973E+01   6.7402E-08  0.0539
   4.2973E+01   4.4019E+01   3.9787E-08  0.0693
   4.4019E+01   4.5090E+01   2.1662E-08  0.0928
   4.5090E+01   4.6187E+01   1.1485E-08  0.1260
   4.6187E+01   4.7311E+01   3.5595E-09  0.2236
   4.7311E+01   4.8462E+01   0.0000E+00  0.0000
   4.8462E+01   4.9641E+01   0.0000E+00  0.0000
   4.9641E+01   5.0849E+01   0.0000E+00  0.0000
   5.0849E+01   5.2086E+01   0.0000E+00  0.0000
   5.2086E+01   5.3353E+01   0.0000E+00  0.0000
   5.3353E+01   5.4651E+01   0.0000E+00  0.0000
   5.4651E+01   5.5981E+01   0.0000E+00  0.0000
   5.5981E+01   5.7343E+01   0.0000E+00  0.0000
   5.7343E+01   5.8738E+01   0.0000E+00  0.0000
   5.8738E+01   6.0168E+01   0.0000E+00  0.0000
   6.0168E+01   6.1632E+01   0.0000E+00  0.0000
   6.1632E+01   6.3131E+01   0.0000E+00  0.0000
   6.3131E+01   6.4667E+01   0.0000E+00  0.0000
   6.4667E+01   6.6240E+01   0.0000E+00  0.0000
   6.6240E+01   6.7852E+01   0.0000E+00  0.0000
   6.7852E+01   6.9503E+01   0.0000E+00  0.0000
   6.9503E+01   7.1194E+01   0.0000E+00  0.0000
   7.1194E+01   7.2926E+01   0.0000E+00  0.0000
   7.2926E+01   7.4701E+01   0.0000E+00  0.0000
   7.4701E+01   7.6518E+01   0.0000E+00  0.0000
   7.6518E+01   7.8380E+01   0.0000E+00  0.0000
   7.8380E+01   8.0287E+01   0.0000E+00  0.0000
   8.0287E+01   8.2240E+01   0.0000E+00  0.0000
   8.2240E+01   8.4241E+01   0.0000E+00  0.0000
   8.4241E+01   8.6291E+01   0.0000E+00  0.0000
   8.6291E+01   8.8391E+01   0.0000E+00  0.0000
   8.8391E+01   9.0541E+01   0.0000E+00  0.0000
   9.0541E+01   9.2744E+01   0.0000E+00  0.0000
   9.2744E+01   9.5001E+01   0.0000E+00  0.0000
   9.5001E+01   9.7312E+01   0.0000E+00  0.0000
   9.7312E+01   9.9680E+01   0.0000E+00  0.0000
   9.9680E+01   1.0211E+02   0.0000E+00  0.0000
   1.0211E+02   1.0459E+02   0.0000E+00  0.0000
   1.0459E+02   1.0713E+02   0.0000E+00  0.0000
   1.0713E+02   1.0974E+02   0.0000E+00  0.0000
   1.0974E+02   1.1241E+02   0.0000E+00  0.0000
   1.1241E+02   1.1515E+02   0.0000E+00  0.0000
   1.1515E+02   1.1795E+02   0.0000E+00  0.0000
   1.1795E+02   1.2082E+02   0.0000E+00  0.0000
   1.2082E+02   1.2376E+02   0.0000E+00  0.0000
   1.2376E+02   1.2677E+02   0.0000E+00  0.0000
   1.2677E+02   1.2985E+02   0.0000E+00  0.0000
   1.2985E+02   1.3301E+02   0.0000E+00  0.0000
   1.3301E+02   1.3625E+02   0.0000E+00  0.0000
   1.3625E+02   1.3956E+02   0.0000E+00  0.0000
   1.3956E+02   1.4296E+02   0.0000E+00  0.0000
   1.4296E+02   1.4644E+02   0.0000E+00  0.0000
   1.4644E+02   1.5000E+02   0.0000E+00  0.0000

#   sum over                 4.1676E-06
'no. =    1   reg = 113 - 213'
msuc: {\huge [t-cross] in region mesh}
msdr: {\it plotted by \ANGEL \version}
msdl: {\it calculated by \PHITS  3.26}
wt: s(0.7)
\vspace{-3}
  region surface crossing
  area  &=&   1.0000E+00 [cm^2]
e:
 
# Information for Restart Calculation
# This calculation was newly started
# istdev =  2 # 1:Batch variance, 2:History variance
# resc2  = 5.00000000000000000E+09 # Total source weight or Total source weight / maxcas
# resc3  = 5.00000000000000000E+09 # Total history number or Total batch number
# maxcas =   100000000 # History / Batch, only used for istdev=1
# bitrseed = 0110100000100010111000001110001111001110100100011111101000111001 # bit data of rseed
