[ T-Cross ]
    title = [t-cross] in region mesh
     mesh =  reg            # mesh type is region-wise
      reg =    1            # number of crossing regions
      non     r-from    r-to       area
      1       113       213        1.000000    
   e-type =    3            # e-mesh is log given by emin, emax and ne
     emin =  1.0000000E-02  # minimum value of e-mesh points
     emax =   150.0000      # maximum value of e-mesh points
#    edel =  2.4039514E-02  # mesh width of e-mesh points
       ne =    400          # number of e-mesh points
#    data = ( e(i), i = 1, ne + 1 )
#           1.00000E-02  1.02433E-02  1.04925E-02  1.07478E-02  1.10093E-02
#           1.12772E-02  1.15516E-02  1.18326E-02  1.21205E-02  1.24154E-02
#           1.27175E-02  1.30269E-02  1.33439E-02  1.36686E-02  1.40011E-02
#           1.43418E-02  1.46907E-02  1.50482E-02  1.54143E-02  1.57894E-02
#           1.61735E-02  1.65670E-02  1.69701E-02  1.73830E-02  1.78060E-02
#           1.82392E-02  1.86830E-02  1.91375E-02  1.96032E-02  2.00801E-02
#           2.05687E-02  2.10692E-02  2.15818E-02  2.21069E-02  2.26448E-02
#           2.31957E-02  2.37601E-02  2.43382E-02  2.49304E-02  2.55369E-02
#           2.61583E-02  2.67947E-02  2.74467E-02  2.81145E-02  2.87985E-02
#           2.94992E-02  3.02169E-02  3.09521E-02  3.17052E-02  3.24766E-02
#           3.32668E-02  3.40762E-02  3.49053E-02  3.57546E-02  3.66246E-02
#           3.75157E-02  3.84284E-02  3.93634E-02  4.03212E-02  4.13022E-02
#           4.23071E-02  4.33365E-02  4.43909E-02  4.54710E-02  4.65773E-02
#           4.77106E-02  4.88714E-02  5.00605E-02  5.12785E-02  5.25262E-02
#           5.38042E-02  5.51133E-02  5.64542E-02  5.78278E-02  5.92348E-02
#           6.06760E-02  6.21523E-02  6.36645E-02  6.52135E-02  6.68002E-02
#           6.84255E-02  7.00904E-02  7.17957E-02  7.35426E-02  7.53319E-02
#           7.71648E-02  7.90423E-02  8.09655E-02  8.29354E-02  8.49533E-02
#           8.70203E-02  8.91376E-02  9.13064E-02  9.35279E-02  9.58035E-02
#           9.81345E-02  1.00522E-01  1.02968E-01  1.05473E-01  1.08040E-01
#           1.10668E-01  1.13361E-01  1.16119E-01  1.18944E-01  1.21838E-01
#           1.24803E-01  1.27839E-01  1.30950E-01  1.34136E-01  1.37399E-01
#           1.40742E-01  1.44167E-01  1.47675E-01  1.51268E-01  1.54948E-01
#           1.58718E-01  1.62580E-01  1.66535E-01  1.70587E-01  1.74738E-01
#           1.78989E-01  1.83344E-01  1.87805E-01  1.92375E-01  1.97055E-01
#           2.01850E-01  2.06761E-01  2.11792E-01  2.16945E-01  2.22223E-01
#           2.27630E-01  2.33169E-01  2.38842E-01  2.44653E-01  2.50605E-01
#           2.56703E-01  2.62949E-01  2.69346E-01  2.75900E-01  2.82613E-01
#           2.89489E-01  2.96532E-01  3.03747E-01  3.11138E-01  3.18708E-01
#           3.26462E-01  3.34405E-01  3.42542E-01  3.50876E-01  3.59413E-01
#           3.68158E-01  3.77116E-01  3.86291E-01  3.95690E-01  4.05317E-01
#           4.15179E-01  4.25281E-01  4.35628E-01  4.46227E-01  4.57084E-01
#           4.68205E-01  4.79597E-01  4.91266E-01  5.03219E-01  5.15463E-01
#           5.28005E-01  5.40851E-01  5.54011E-01  5.67490E-01  5.81298E-01
#           5.95441E-01  6.09929E-01  6.24769E-01  6.39970E-01  6.55541E-01
#           6.71491E-01  6.87828E-01  7.04564E-01  7.21706E-01  7.39266E-01
#           7.57253E-01  7.75678E-01  7.94551E-01  8.13883E-01  8.33685E-01
#           8.53969E-01  8.74747E-01  8.96030E-01  9.17831E-01  9.40163E-01
#           9.63038E-01  9.86469E-01  1.01047E+00  1.03506E+00  1.06024E+00
#           1.08604E+00  1.11246E+00  1.13953E+00  1.16725E+00  1.19565E+00
#           1.22474E+00  1.25454E+00  1.28507E+00  1.31633E+00  1.34836E+00
#           1.38117E+00  1.41477E+00  1.44920E+00  1.48446E+00  1.52057E+00
#           1.55757E+00  1.59547E+00  1.63429E+00  1.67405E+00  1.71478E+00
#           1.75650E+00  1.79924E+00  1.84302E+00  1.88786E+00  1.93379E+00
#           1.98084E+00  2.02904E+00  2.07841E+00  2.12898E+00  2.18078E+00
#           2.23384E+00  2.28819E+00  2.34386E+00  2.40089E+00  2.45930E+00
#           2.51914E+00  2.58043E+00  2.64322E+00  2.70753E+00  2.77341E+00
#           2.84088E+00  2.91001E+00  2.98081E+00  3.05333E+00  3.12762E+00
#           3.20372E+00  3.28167E+00  3.36152E+00  3.44330E+00  3.52708E+00
#           3.61290E+00  3.70080E+00  3.79085E+00  3.88308E+00  3.97756E+00
#           4.07434E+00  4.17347E+00  4.27501E+00  4.37903E+00  4.48557E+00
#           4.59471E+00  4.70650E+00  4.82102E+00  4.93832E+00  5.05847E+00
#           5.18155E+00  5.30762E+00  5.43676E+00  5.56904E+00  5.70453E+00
#           5.84333E+00  5.98550E+00  6.13114E+00  6.28031E+00  6.43312E+00
#           6.58964E+00  6.74997E+00  6.91420E+00  7.08243E+00  7.25475E+00
#           7.43126E+00  7.61207E+00  7.79728E+00  7.98700E+00  8.18133E+00
#           8.38038E+00  8.58428E+00  8.79315E+00  9.00709E+00  9.22624E+00
#           9.45072E+00  9.68067E+00  9.91620E+00  1.01575E+01  1.04046E+01
#           1.06578E+01  1.09171E+01  1.11827E+01  1.14548E+01  1.17335E+01
#           1.20190E+01  1.23114E+01  1.26109E+01  1.29178E+01  1.32321E+01
#           1.35540E+01  1.38838E+01  1.42216E+01  1.45676E+01  1.49221E+01
#           1.52851E+01  1.56570E+01  1.60380E+01  1.64282E+01  1.68279E+01
#           1.72374E+01  1.76568E+01  1.80864E+01  1.85264E+01  1.89772E+01
#           1.94389E+01  1.99119E+01  2.03963E+01  2.08926E+01  2.14009E+01
#           2.19216E+01  2.24550E+01  2.30014E+01  2.35610E+01  2.41343E+01
#           2.47215E+01  2.53230E+01  2.59391E+01  2.65702E+01  2.72167E+01
#           2.78789E+01  2.85572E+01  2.92520E+01  2.99637E+01  3.06928E+01
#           3.14396E+01  3.22045E+01  3.29881E+01  3.37907E+01  3.46128E+01
#           3.54550E+01  3.63177E+01  3.72013E+01  3.81064E+01  3.90336E+01
#           3.99833E+01  4.09561E+01  4.19526E+01  4.29734E+01  4.40189E+01
#           4.50900E+01  4.61870E+01  4.73108E+01  4.84619E+01  4.96410E+01
#           5.08488E+01  5.20860E+01  5.33533E+01  5.46514E+01  5.59812E+01
#           5.73432E+01  5.87384E+01  6.01676E+01  6.16315E+01  6.31311E+01
#           6.46671E+01  6.62405E+01  6.78522E+01  6.95031E+01  7.11941E+01
#           7.29263E+01  7.47007E+01  7.65182E+01  7.83800E+01  8.02870E+01
#           8.22405E+01  8.42414E+01  8.62911E+01  8.83906E+01  9.05412E+01
#           9.27442E+01  9.50007E+01  9.73122E+01  9.96799E+01  1.02105E+02
#           1.04589E+02  1.07134E+02  1.09741E+02  1.12411E+02  1.15146E+02
#           1.17948E+02  1.20817E+02  1.23757E+02  1.26768E+02  1.29852E+02
#           1.33012E+02  1.36248E+02  1.39563E+02  1.42959E+02  1.46437E+02
#           1.50000E+02
     unit =    2            # unit is [1/cm^2/(MeV/n)/source]
     axis =  eng            # axis of output
     file = detector-14.out  # file name of output for the above axis
   output = f-curr          # surface crossing forward current spectrum
     part =  neutron  
# kf/name :  2112     
#    used :        main (  %)        temp (  %)       total (  %)
#  memory :         414 (  0)           0 (  0)         414 (  0)

#------------------------------------------------------------------------------
#newpage:
#   no. =    1   reg = 113 - 213

x: Energy [MeV/n]
y:  F-Curr [1/cm^2/(MeV/n)/source]         
p: xlog ylog afac(0.8) form(0.9)
h: n            x            y(neutron ),hh0l   n 
#  e-lower      e-upper      neutron     r.err 
   1.0000E-02   1.0243E-02   2.0550E-05  0.2000
   1.0243E-02   1.0493E-02   1.7655E-05  0.2132
   1.0493E-02   1.0748E-02   1.9585E-05  0.2000
   1.0748E-02   1.1009E-02   1.7591E-05  0.2085
   1.1009E-02   1.1277E-02   2.0159E-05  0.1925
   1.1277E-02   1.1552E-02   1.4578E-05  0.2236
   1.1552E-02   1.1833E-02   1.7790E-05  0.2000
   1.1833E-02   1.2121E-02   1.8062E-05  0.1961
   1.2121E-02   1.2415E-02   2.0346E-05  0.1826
   1.2415E-02   1.2718E-02   2.1187E-05  0.1768
   1.2718E-02   1.3027E-02   1.9391E-05  0.1826
   1.3027E-02   1.3344E-02   2.0823E-05  0.1741
   1.3344E-02   1.3669E-02   1.7864E-05  0.1857
   1.3669E-02   1.4001E-02   1.8041E-05  0.1826
   1.4001E-02   1.4342E-02   1.4090E-05  0.2041
   1.4342E-02   1.4691E-02   1.8341E-05  0.1768
   1.4691E-02   1.5048E-02   1.6227E-05  0.1857
   1.5048E-02   1.5414E-02   1.2564E-05  0.2085
   1.5414E-02   1.5789E-02   1.8131E-05  0.1715
   1.5789E-02   1.6174E-02   1.8742E-05  0.1667
   1.6174E-02   1.6567E-02   2.0330E-05  0.1581
   1.6567E-02   1.6970E-02   1.3397E-05  0.1925
   1.6970E-02   1.7383E-02   1.9375E-05  0.1581
   1.7383E-02   1.7806E-02   1.7969E-05  0.1622
   1.7806E-02   1.8239E-02   1.3388E-05  0.1857
   1.8239E-02   1.8683E-02   2.1633E-05  0.1443
   1.8683E-02   1.9138E-02   1.4959E-05  0.1715
   1.9138E-02   1.9603E-02   1.8899E-05  0.1508
   1.9603E-02   2.0080E-02   1.6354E-05  0.1601
   2.0080E-02   2.0569E-02   1.3918E-05  0.1715
   2.0569E-02   2.1069E-02   1.6785E-05  0.1543
   2.1069E-02   2.1582E-02   1.9117E-05  0.1429
   2.1582E-02   2.2107E-02   1.8663E-05  0.1429
   2.2107E-02   2.2645E-02   1.7104E-05  0.1474
   2.2645E-02   2.3196E-02   1.7061E-05  0.1459
   2.3196E-02   2.3760E-02   1.5593E-05  0.1508
   2.3760E-02   2.4338E-02   1.6606E-05  0.1443
   2.4338E-02   2.4930E-02   1.5536E-05  0.1474
   2.4930E-02   2.5537E-02   1.4508E-05  0.1508
   2.5537E-02   2.6158E-02   1.1910E-05  0.1644
   2.6158E-02   2.6795E-02   1.3512E-05  0.1525
   2.6795E-02   2.7447E-02   1.5952E-05  0.1387
   2.7447E-02   2.8114E-02   1.2279E-05  0.1562
   2.8114E-02   2.8799E-02   1.6666E-05  0.1325
   2.8799E-02   2.9499E-02   1.7126E-05  0.1291
   2.9499E-02   3.0217E-02   1.5326E-05  0.1348
   3.0217E-02   3.0952E-02   1.4418E-05  0.1374
   3.0952E-02   3.1705E-02   1.9918E-05  0.1155
   3.1705E-02   3.2477E-02   1.6074E-05  0.1270
   3.2477E-02   3.3267E-02   1.6705E-05  0.1231
   3.3267E-02   3.4076E-02   1.5567E-05  0.1260
   3.4076E-02   3.4905E-02   2.0022E-05  0.1098
   3.4905E-02   3.5755E-02   1.7427E-05  0.1162
   3.5755E-02   3.6625E-02   1.6323E-05  0.1187
   3.6625E-02   3.7516E-02   1.5085E-05  0.1218
   3.7516E-02   3.8428E-02   1.4023E-05  0.1250
   3.8428E-02   3.9363E-02   1.4973E-05  0.1195
   3.9363E-02   4.0321E-02   1.3991E-05  0.1222
   4.0321E-02   4.1302E-02   1.3863E-05  0.1213
   4.1302E-02   4.2307E-02   1.3732E-05  0.1204
   4.2307E-02   4.3337E-02   1.2046E-05  0.1270
   4.3337E-02   4.4391E-02   1.5933E-05  0.1091
   4.4391E-02   4.5471E-02   1.4258E-05  0.1140
   4.5471E-02   4.6577E-02   1.6631E-05  0.1043
   4.6577E-02   4.7711E-02   1.5001E-05  0.1085
   4.7711E-02   4.8871E-02   1.4300E-05  0.1098
   4.8871E-02   5.0061E-02   1.4496E-05  0.1076
   5.0061E-02   5.1279E-02   1.4121E-05  0.1078
   5.1279E-02   5.2526E-02   1.4748E-05  0.1043
   5.2526E-02   5.3804E-02   1.5023E-05  0.1021
   5.3804E-02   5.5113E-02   1.1153E-05  0.1170
   5.5113E-02   5.6454E-02   1.4467E-05  0.1015
   5.6454E-02   5.7828E-02   1.2668E-05  0.1072
   5.7828E-02   5.9235E-02   1.0945E-05  0.1140
   5.9235E-02   6.0676E-02   1.2073E-05  0.1072
   6.0676E-02   6.2152E-02   1.3296E-05  0.1009
   6.2152E-02   6.3665E-02   1.2432E-05  0.1031
   6.3665E-02   6.5214E-02   1.4719E-05  0.0937
   6.5214E-02   6.6800E-02   1.3235E-05  0.0976
   6.6800E-02   6.8426E-02   1.2552E-05  0.0990
   6.8426E-02   7.0090E-02   1.2253E-05  0.0990
   7.0090E-02   7.1796E-02   1.1493E-05  0.1010
   7.1796E-02   7.3543E-02   1.3625E-05  0.0917
   7.3543E-02   7.5332E-02   1.0618E-05  0.1026
   7.5332E-02   7.7165E-02   1.1785E-05  0.0962
   7.7165E-02   7.9042E-02   1.1931E-05  0.0945
   7.9042E-02   8.0965E-02   1.2583E-05  0.0909
   8.0965E-02   8.2935E-02   1.2589E-05  0.0898
   8.2935E-02   8.4953E-02   1.2008E-05  0.0908
   8.4953E-02   8.7020E-02   1.2787E-05  0.0869
   8.7020E-02   8.9138E-02   1.3508E-05  0.0836
   8.9138E-02   9.1306E-02   1.0605E-05  0.0933
   9.1306E-02   9.3528E-02   1.1523E-05  0.0884
   9.3528E-02   9.5804E-02   1.1777E-05  0.0864
   9.5804E-02   9.8134E-02   1.2784E-05  0.0819
   9.8134E-02   1.0052E-01   1.2564E-05  0.0816
   1.0052E-01   1.0297E-01   1.0467E-05  0.0884
   1.0297E-01   1.0547E-01   1.1416E-05  0.0836
   1.0547E-01   1.0804E-01   1.0989E-05  0.0842
   1.0804E-01   1.1067E-01   1.1413E-05  0.0816
   1.1067E-01   1.1336E-01   1.0696E-05  0.0833
   1.1336E-01   1.1612E-01   1.0514E-05  0.0830
   1.1612E-01   1.1894E-01   9.5667E-06  0.0860
   1.1894E-01   1.2184E-01   9.2605E-06  0.0864
   1.2184E-01   1.2480E-01   1.0930E-05  0.0786
   1.2480E-01   1.2784E-01   1.0407E-05  0.0796
   1.2784E-01   1.3095E-01   9.2592E-06  0.0833
   1.3095E-01   1.3414E-01   9.0392E-06  0.0833
   1.3414E-01   1.3740E-01   1.0234E-05  0.0774
   1.3740E-01   1.4074E-01   9.3328E-06  0.0801
   1.4074E-01   1.4417E-01   9.4616E-06  0.0786
   1.4417E-01   1.4767E-01   9.0658E-06  0.0793
   1.4767E-01   1.5127E-01   9.9637E-06  0.0747
   1.5127E-01   1.5495E-01   9.4553E-06  0.0758
   1.5495E-01   1.5872E-01   8.4350E-06  0.0793
   1.5872E-01   1.6258E-01   7.5614E-06  0.0828
   1.6258E-01   1.6654E-01   8.7608E-06  0.0759
   1.6654E-01   1.7059E-01   7.1571E-06  0.0830
   1.7059E-01   1.7474E-01   8.2881E-06  0.0762
   1.7474E-01   1.7899E-01   6.6800E-06  0.0839
   1.7899E-01   1.8334E-01   8.5879E-06  0.0731
   1.8334E-01   1.8781E-01   8.5633E-06  0.0724
   1.8781E-01   1.9237E-01   7.4845E-06  0.0765
   1.9237E-01   1.9706E-01   8.5459E-06  0.0707
   1.9706E-01   2.0185E-01   7.6337E-06  0.0739
   2.0185E-01   2.0676E-01   7.3776E-06  0.0743
   2.0676E-01   2.1179E-01   8.0308E-06  0.0704
   2.1179E-01   2.1694E-01   7.9564E-06  0.0698
   2.1694E-01   2.2222E-01   7.5464E-06  0.0708
   2.2222E-01   2.2763E-01   7.1021E-06  0.0722
   2.2763E-01   2.3317E-01   7.1862E-06  0.0709
   2.3317E-01   2.3884E-01   7.5795E-06  0.0682
   2.3884E-01   2.4465E-01   7.2962E-06  0.0687
   2.4465E-01   2.5061E-01   7.0661E-06  0.0689
   2.5061E-01   2.5670E-01   6.5601E-06  0.0707
   2.5670E-01   2.6295E-01   6.4684E-06  0.0704
   2.6295E-01   2.6935E-01   6.4710E-06  0.0695
   2.6935E-01   2.7590E-01   6.3478E-06  0.0693
   2.7590E-01   2.8261E-01   6.9469E-06  0.0655
   2.8261E-01   2.8949E-01   6.1080E-06  0.0690
   2.8949E-01   2.9653E-01   6.5308E-06  0.0659
   2.9653E-01   3.0375E-01   6.5698E-06  0.0650
   3.0375E-01   3.1114E-01   5.7500E-06  0.0685
   3.1114E-01   3.1871E-01   5.7066E-06  0.0680
   3.1871E-01   3.2646E-01   5.8547E-06  0.0664
   3.2646E-01   3.3441E-01   6.0430E-06  0.0645
   3.3441E-01   3.4254E-01   6.0224E-06  0.0639
   3.4254E-01   3.5088E-01   5.1354E-06  0.0684
   3.5088E-01   3.5941E-01   6.0022E-06  0.0625
   3.5941E-01   3.6816E-01   5.4890E-06  0.0645
   3.6816E-01   3.7712E-01   5.0460E-06  0.0665
   3.7712E-01   3.8629E-01   5.5365E-06  0.0627
   3.8629E-01   3.9569E-01   4.6029E-06  0.0679
   3.9569E-01   4.0532E-01   4.6949E-06  0.0665
   4.0532E-01   4.1518E-01   4.9318E-06  0.0641
   4.1518E-01   4.2528E-01   5.0487E-06  0.0626
   4.2528E-01   4.3563E-01   5.1414E-06  0.0613
   4.3563E-01   4.4623E-01   4.8339E-06  0.0625
   4.4623E-01   4.5708E-01   5.3053E-06  0.0589
   4.5708E-01   4.6821E-01   4.8761E-06  0.0607
   4.6821E-01   4.7960E-01   4.7255E-06  0.0609
   4.7960E-01   4.9127E-01   4.3272E-06  0.0629
   4.9127E-01   5.0322E-01   4.4030E-06  0.0616
   5.0322E-01   5.1546E-01   4.7893E-06  0.0584
   5.1546E-01   5.2800E-01   4.8638E-06  0.0573
   5.2800E-01   5.4085E-01   4.6704E-06  0.0577
   5.4085E-01   5.5401E-01   4.5443E-06  0.0578
   5.5401E-01   5.6749E-01   4.4215E-06  0.0579
   5.6749E-01   5.8130E-01   4.2296E-06  0.0585
   5.8130E-01   5.9544E-01   4.3554E-06  0.0570
   5.9544E-01   6.0993E-01   4.4314E-06  0.0558
   6.0993E-01   6.2477E-01   4.3666E-06  0.0556
   6.2477E-01   6.3997E-01   3.7760E-06  0.0590
   6.3997E-01   6.5554E-01   4.0870E-06  0.0560
   6.5554E-01   6.7149E-01   4.1147E-06  0.0552
   6.7149E-01   6.8783E-01   3.8071E-06  0.0567
   6.8783E-01   7.0456E-01   4.2066E-06  0.0533
   7.0456E-01   7.2171E-01   3.5467E-06  0.0574
   7.2171E-01   7.3927E-01   4.1198E-06  0.0525
   7.3927E-01   7.5725E-01   4.1252E-06  0.0519
   7.5725E-01   7.7568E-01   3.8644E-06  0.0530
   7.7568E-01   7.9455E-01   3.9316E-06  0.0519
   7.9455E-01   8.1388E-01   3.9003E-06  0.0515
   8.1388E-01   8.3368E-01   3.5753E-06  0.0531
   8.3368E-01   8.5397E-01   3.8374E-06  0.0507
   8.5397E-01   8.7475E-01   3.3803E-06  0.0534
   8.7475E-01   8.9603E-01   3.5803E-06  0.0512
   8.9603E-01   9.1783E-01   3.6512E-06  0.0501
   9.1783E-01   9.4016E-01   3.3062E-06  0.0520
   9.4016E-01   9.6304E-01   3.4480E-06  0.0503
   9.6304E-01   9.8647E-01   3.4764E-06  0.0495
   9.8647E-01   1.0105E+00   3.3619E-06  0.0498
   1.0105E+00   1.0351E+00   3.3841E-06  0.0490
   1.0351E+00   1.0602E+00   3.1925E-06  0.0499
   1.0602E+00   1.0860E+00   3.2950E-06  0.0485
   1.0860E+00   1.1125E+00   3.5510E-06  0.0462
   1.1125E+00   1.1395E+00   3.6650E-06  0.0449
   1.1395E+00   1.1673E+00   3.5996E-06  0.0448
   1.1673E+00   1.1957E+00   3.8322E-06  0.0429
   1.1957E+00   1.2247E+00   4.0107E-06  0.0414
   1.2247E+00   1.2545E+00   4.2018E-06  0.0399
   1.2545E+00   1.2851E+00   4.0585E-06  0.0402
   1.2851E+00   1.3163E+00   4.3188E-06  0.0385
   1.3163E+00   1.3484E+00   4.5742E-06  0.0369
   1.3484E+00   1.3812E+00   4.5844E-06  0.0365
   1.3812E+00   1.4148E+00   5.0358E-06  0.0344
   1.4148E+00   1.4492E+00   4.8077E-06  0.0348
   1.4492E+00   1.4845E+00   4.9149E-06  0.0340
   1.4845E+00   1.5206E+00   5.2970E-06  0.0323
   1.5206E+00   1.5576E+00   5.2035E-06  0.0322
   1.5576E+00   1.5955E+00   5.5985E-06  0.0307
   1.5955E+00   1.6343E+00   5.6418E-06  0.0302
   1.6343E+00   1.6741E+00   5.8237E-06  0.0294
   1.6741E+00   1.7148E+00   5.8737E-06  0.0289
   1.7148E+00   1.7565E+00   6.1127E-06  0.0280
   1.7565E+00   1.7992E+00   6.2580E-06  0.0274
   1.7992E+00   1.8430E+00   6.5792E-06  0.0263
   1.8430E+00   1.8879E+00   6.5913E-06  0.0260
   1.8879E+00   1.9338E+00   6.9966E-06  0.0249
   1.9338E+00   1.9808E+00   6.9117E-06  0.0248
   1.9808E+00   2.0290E+00   7.2385E-06  0.0239
   2.0290E+00   2.0784E+00   7.2030E-06  0.0237
   2.0784E+00   2.1290E+00   7.2841E-06  0.0233
   2.1290E+00   2.1808E+00   8.0055E-06  0.0220
   2.1808E+00   2.2338E+00   7.8371E-06  0.0219
   2.2338E+00   2.2882E+00   8.3117E-06  0.0210
   2.2882E+00   2.3439E+00   8.5033E-06  0.0205
   2.3439E+00   2.4009E+00   8.6866E-06  0.0201
   2.4009E+00   2.4593E+00   8.4742E-06  0.0201
   2.4593E+00   2.5191E+00   9.0570E-06  0.0192
   2.5191E+00   2.5804E+00   9.0907E-06  0.0189
   2.5804E+00   2.6432E+00   8.7923E-06  0.0190
   2.6432E+00   2.7075E+00   9.2234E-06  0.0183
   2.7075E+00   2.7734E+00   9.2485E-06  0.0181
   2.7734E+00   2.8409E+00   9.5293E-06  0.0176
   2.8409E+00   2.9100E+00   9.6163E-06  0.0173
   2.9100E+00   2.9808E+00   9.8121E-06  0.0169
   2.9808E+00   3.0533E+00   9.3303E-06  0.0172
   3.0533E+00   3.1276E+00   9.7852E-06  0.0166
   3.1276E+00   3.2037E+00   9.3262E-06  0.0168
   3.2037E+00   3.2817E+00   9.3580E-06  0.0165
   3.2817E+00   3.3615E+00   9.2161E-06  0.0165
   3.3615E+00   3.4433E+00   9.5267E-06  0.0160
   3.4433E+00   3.5271E+00   9.5857E-06  0.0157
   3.5271E+00   3.6129E+00   9.7463E-06  0.0154
   3.6129E+00   3.7008E+00   9.2942E-06  0.0156
   3.7008E+00   3.7908E+00   8.9205E-06  0.0157
   3.7908E+00   3.8831E+00   8.8004E-06  0.0157
   3.8831E+00   3.9776E+00   8.9811E-06  0.0153
   3.9776E+00   4.0743E+00   8.7351E-06  0.0153
   4.0743E+00   4.1735E+00   8.3285E-06  0.0155
   4.1735E+00   4.2750E+00   8.3822E-06  0.0153
   4.2750E+00   4.3790E+00   7.8843E-06  0.0156
   4.3790E+00   4.4856E+00   7.7631E-06  0.0155
   4.4856E+00   4.5947E+00   7.5372E-06  0.0155
   4.5947E+00   4.7065E+00   7.2772E-06  0.0156
   4.7065E+00   4.8210E+00   7.1281E-06  0.0156
   4.8210E+00   4.9383E+00   6.5488E-06  0.0161
   4.9383E+00   5.0585E+00   6.3990E-06  0.0161
   5.0585E+00   5.1815E+00   6.1005E-06  0.0163
   5.1815E+00   5.3076E+00   5.6122E-06  0.0168
   5.3076E+00   5.4368E+00   5.5532E-06  0.0167
   5.4368E+00   5.5690E+00   5.1984E-06  0.0170
   5.5690E+00   5.7045E+00   4.9002E-06  0.0173
   5.7045E+00   5.8433E+00   4.6915E-06  0.0175
   5.8433E+00   5.9855E+00   4.4305E-06  0.0178
   5.9855E+00   6.1311E+00   4.1713E-06  0.0181
   6.1311E+00   6.2803E+00   3.7663E-06  0.0188
   6.2803E+00   6.4331E+00   3.5172E-06  0.0192
   6.4331E+00   6.5896E+00   3.3647E-06  0.0194
   6.5896E+00   6.7500E+00   3.0850E-06  0.0200
   6.7500E+00   6.9142E+00   2.9690E-06  0.0202
   6.9142E+00   7.0824E+00   2.6283E-06  0.0212
   7.0824E+00   7.2548E+00   2.4491E-06  0.0217
   7.2548E+00   7.4313E+00   2.0927E-06  0.0232
   7.4313E+00   7.6121E+00   2.0580E-06  0.0231
   7.6121E+00   7.7973E+00   1.8240E-06  0.0243
   7.7973E+00   7.9870E+00   1.6405E-06  0.0253
   7.9870E+00   8.1813E+00   1.6210E-06  0.0251
   8.1813E+00   8.3804E+00   1.3215E-06  0.0275
   8.3804E+00   8.5843E+00   1.2446E-06  0.0280
   8.5843E+00   8.7931E+00   1.2283E-06  0.0279
   8.7931E+00   9.0071E+00   9.9222E-07  0.0306
   9.0071E+00   9.2262E+00   8.7460E-07  0.0322
   9.2262E+00   9.4507E+00   8.2097E-07  0.0329
   9.4507E+00   9.6807E+00   7.3993E-07  0.0342
   9.6807E+00   9.9162E+00   6.2814E-07  0.0367
   9.9162E+00   1.0157E+01   5.3908E-07  0.0391
   1.0157E+01   1.0405E+01   4.2571E-07  0.0435
   1.0405E+01   1.0658E+01   3.8503E-07  0.0452
   1.0658E+01   1.0917E+01   3.4078E-07  0.0475
   1.0917E+01   1.1183E+01   3.1204E-07  0.0491
   1.1183E+01   1.1455E+01   2.4199E-07  0.0551
   1.1455E+01   1.1733E+01   1.9827E-07  0.0601
   1.1733E+01   1.2019E+01   1.9913E-07  0.0593
   1.2019E+01   1.2311E+01   1.5337E-07  0.0667
   1.2311E+01   1.2611E+01   1.1150E-07  0.0774
   1.2611E+01   1.2918E+01   9.3862E-08  0.0833
   1.2918E+01   1.3232E+01   7.7824E-08  0.0903
   1.3232E+01   1.3554E+01   5.1561E-08  0.1098
   1.3554E+01   1.3884E+01   3.6994E-08  0.1280
   1.3884E+01   1.4222E+01   1.6578E-08  0.1890
   1.4222E+01   1.4568E+01   8.0919E-09  0.2673
   1.4568E+01   1.4922E+01   0.0000E+00  0.0000
   1.4922E+01   1.5285E+01   5.5086E-10  1.0000
   1.5285E+01   1.5657E+01   0.0000E+00  0.0000
   1.5657E+01   1.6038E+01   0.0000E+00  0.0000
   1.6038E+01   1.6428E+01   0.0000E+00  0.0000
   1.6428E+01   1.6828E+01   0.0000E+00  0.0000
   1.6828E+01   1.7237E+01   0.0000E+00  0.0000
   1.7237E+01   1.7657E+01   0.0000E+00  0.0000
   1.7657E+01   1.8086E+01   0.0000E+00  0.0000
   1.8086E+01   1.8526E+01   0.0000E+00  0.0000
   1.8526E+01   1.8977E+01   0.0000E+00  0.0000
   1.8977E+01   1.9439E+01   0.0000E+00  0.0000
   1.9439E+01   1.9912E+01   0.0000E+00  0.0000
   1.9912E+01   2.0396E+01   0.0000E+00  0.0000
   2.0396E+01   2.0893E+01   0.0000E+00  0.0000
   2.0893E+01   2.1401E+01   0.0000E+00  0.0000
   2.1401E+01   2.1922E+01   0.0000E+00  0.0000
   2.1922E+01   2.2455E+01   0.0000E+00  0.0000
   2.2455E+01   2.3001E+01   0.0000E+00  0.0000
   2.3001E+01   2.3561E+01   0.0000E+00  0.0000
   2.3561E+01   2.4134E+01   0.0000E+00  0.0000
   2.4134E+01   2.4721E+01   0.0000E+00  0.0000
   2.4721E+01   2.5323E+01   0.0000E+00  0.0000
   2.5323E+01   2.5939E+01   0.0000E+00  0.0000
   2.5939E+01   2.6570E+01   0.0000E+00  0.0000
   2.6570E+01   2.7217E+01   0.0000E+00  0.0000
   2.7217E+01   2.7879E+01   0.0000E+00  0.0000
   2.7879E+01   2.8557E+01   0.0000E+00  0.0000
   2.8557E+01   2.9252E+01   0.0000E+00  0.0000
   2.9252E+01   2.9964E+01   0.0000E+00  0.0000
   2.9964E+01   3.0693E+01   0.0000E+00  0.0000
   3.0693E+01   3.1440E+01   0.0000E+00  0.0000
   3.1440E+01   3.2205E+01   0.0000E+00  0.0000
   3.2205E+01   3.2988E+01   0.0000E+00  0.0000
   3.2988E+01   3.3791E+01   0.0000E+00  0.0000
   3.3791E+01   3.4613E+01   0.0000E+00  0.0000
   3.4613E+01   3.5455E+01   0.0000E+00  0.0000
   3.5455E+01   3.6318E+01   0.0000E+00  0.0000
   3.6318E+01   3.7201E+01   0.0000E+00  0.0000
   3.7201E+01   3.8106E+01   0.0000E+00  0.0000
   3.8106E+01   3.9034E+01   0.0000E+00  0.0000
   3.9034E+01   3.9983E+01   0.0000E+00  0.0000
   3.9983E+01   4.0956E+01   0.0000E+00  0.0000
   4.0956E+01   4.1953E+01   0.0000E+00  0.0000
   4.1953E+01   4.2973E+01   0.0000E+00  0.0000
   4.2973E+01   4.4019E+01   0.0000E+00  0.0000
   4.4019E+01   4.5090E+01   0.0000E+00  0.0000
   4.5090E+01   4.6187E+01   0.0000E+00  0.0000
   4.6187E+01   4.7311E+01   0.0000E+00  0.0000
   4.7311E+01   4.8462E+01   0.0000E+00  0.0000
   4.8462E+01   4.9641E+01   0.0000E+00  0.0000
   4.9641E+01   5.0849E+01   0.0000E+00  0.0000
   5.0849E+01   5.2086E+01   0.0000E+00  0.0000
   5.2086E+01   5.3353E+01   0.0000E+00  0.0000
   5.3353E+01   5.4651E+01   0.0000E+00  0.0000
   5.4651E+01   5.5981E+01   0.0000E+00  0.0000
   5.5981E+01   5.7343E+01   0.0000E+00  0.0000
   5.7343E+01   5.8738E+01   0.0000E+00  0.0000
   5.8738E+01   6.0168E+01   0.0000E+00  0.0000
   6.0168E+01   6.1632E+01   0.0000E+00  0.0000
   6.1632E+01   6.3131E+01   0.0000E+00  0.0000
   6.3131E+01   6.4667E+01   0.0000E+00  0.0000
   6.4667E+01   6.6240E+01   0.0000E+00  0.0000
   6.6240E+01   6.7852E+01   0.0000E+00  0.0000
   6.7852E+01   6.9503E+01   0.0000E+00  0.0000
   6.9503E+01   7.1194E+01   0.0000E+00  0.0000
   7.1194E+01   7.2926E+01   0.0000E+00  0.0000
   7.2926E+01   7.4701E+01   0.0000E+00  0.0000
   7.4701E+01   7.6518E+01   0.0000E+00  0.0000
   7.6518E+01   7.8380E+01   0.0000E+00  0.0000
   7.8380E+01   8.0287E+01   0.0000E+00  0.0000
   8.0287E+01   8.2240E+01   0.0000E+00  0.0000
   8.2240E+01   8.4241E+01   0.0000E+00  0.0000
   8.4241E+01   8.6291E+01   0.0000E+00  0.0000
   8.6291E+01   8.8391E+01   0.0000E+00  0.0000
   8.8391E+01   9.0541E+01   0.0000E+00  0.0000
   9.0541E+01   9.2744E+01   0.0000E+00  0.0000
   9.2744E+01   9.5001E+01   0.0000E+00  0.0000
   9.5001E+01   9.7312E+01   0.0000E+00  0.0000
   9.7312E+01   9.9680E+01   0.0000E+00  0.0000
   9.9680E+01   1.0211E+02   0.0000E+00  0.0000
   1.0211E+02   1.0459E+02   0.0000E+00  0.0000
   1.0459E+02   1.0713E+02   0.0000E+00  0.0000
   1.0713E+02   1.0974E+02   0.0000E+00  0.0000
   1.0974E+02   1.1241E+02   0.0000E+00  0.0000
   1.1241E+02   1.1515E+02   0.0000E+00  0.0000
   1.1515E+02   1.1795E+02   0.0000E+00  0.0000
   1.1795E+02   1.2082E+02   0.0000E+00  0.0000
   1.2082E+02   1.2376E+02   0.0000E+00  0.0000
   1.2376E+02   1.2677E+02   0.0000E+00  0.0000
   1.2677E+02   1.2985E+02   0.0000E+00  0.0000
   1.2985E+02   1.3301E+02   0.0000E+00  0.0000
   1.3301E+02   1.3625E+02   0.0000E+00  0.0000
   1.3625E+02   1.3956E+02   0.0000E+00  0.0000
   1.3956E+02   1.4296E+02   0.0000E+00  0.0000
   1.4296E+02   1.4644E+02   0.0000E+00  0.0000
   1.4644E+02   1.5000E+02   0.0000E+00  0.0000

#   sum over                 3.3431E-07
'no. =    1   reg = 113 - 213'
msuc: {\huge [t-cross] in region mesh}
msdr: {\it plotted by \ANGEL \version}
msdl: {\it calculated by \PHITS  3.26}
wt: s(0.7)
\vspace{-3}
  region surface crossing
  area  &=&   1.0000E+00 [cm^2]
e:
 
# Information for Restart Calculation
# This calculation was newly started
# istdev =  2 # 1:Batch variance, 2:History variance
# resc2  = 5.00000000000000000E+09 # Total source weight or Total source weight / maxcas
# resc3  = 5.00000000000000000E+09 # Total history number or Total batch number
# maxcas =   100000000 # History / Batch, only used for istdev=1
# bitrseed = 0110100000100010111000001110001111001110100100011111101000111001 # bit data of rseed
