[ T-Cross ]
    title = [t-cross] in region mesh
     mesh =  reg            # mesh type is region-wise
      reg =    1            # number of crossing regions
      non     r-from    r-to       area
      1       105       205        1.000000    
   e-type =    3            # e-mesh is log given by emin, emax and ne
     emin =  1.0000000E-02  # minimum value of e-mesh points
     emax =   150.0000      # maximum value of e-mesh points
#    edel =  2.4039514E-02  # mesh width of e-mesh points
       ne =    400          # number of e-mesh points
#    data = ( e(i), i = 1, ne + 1 )
#           1.00000E-02  1.02433E-02  1.04925E-02  1.07478E-02  1.10093E-02
#           1.12772E-02  1.15516E-02  1.18326E-02  1.21205E-02  1.24154E-02
#           1.27175E-02  1.30269E-02  1.33439E-02  1.36686E-02  1.40011E-02
#           1.43418E-02  1.46907E-02  1.50482E-02  1.54143E-02  1.57894E-02
#           1.61735E-02  1.65670E-02  1.69701E-02  1.73830E-02  1.78060E-02
#           1.82392E-02  1.86830E-02  1.91375E-02  1.96032E-02  2.00801E-02
#           2.05687E-02  2.10692E-02  2.15818E-02  2.21069E-02  2.26448E-02
#           2.31957E-02  2.37601E-02  2.43382E-02  2.49304E-02  2.55369E-02
#           2.61583E-02  2.67947E-02  2.74467E-02  2.81145E-02  2.87985E-02
#           2.94992E-02  3.02169E-02  3.09521E-02  3.17052E-02  3.24766E-02
#           3.32668E-02  3.40762E-02  3.49053E-02  3.57546E-02  3.66246E-02
#           3.75157E-02  3.84284E-02  3.93634E-02  4.03212E-02  4.13022E-02
#           4.23071E-02  4.33365E-02  4.43909E-02  4.54710E-02  4.65773E-02
#           4.77106E-02  4.88714E-02  5.00605E-02  5.12785E-02  5.25262E-02
#           5.38042E-02  5.51133E-02  5.64542E-02  5.78278E-02  5.92348E-02
#           6.06760E-02  6.21523E-02  6.36645E-02  6.52135E-02  6.68002E-02
#           6.84255E-02  7.00904E-02  7.17957E-02  7.35426E-02  7.53319E-02
#           7.71648E-02  7.90423E-02  8.09655E-02  8.29354E-02  8.49533E-02
#           8.70203E-02  8.91376E-02  9.13064E-02  9.35279E-02  9.58035E-02
#           9.81345E-02  1.00522E-01  1.02968E-01  1.05473E-01  1.08040E-01
#           1.10668E-01  1.13361E-01  1.16119E-01  1.18944E-01  1.21838E-01
#           1.24803E-01  1.27839E-01  1.30950E-01  1.34136E-01  1.37399E-01
#           1.40742E-01  1.44167E-01  1.47675E-01  1.51268E-01  1.54948E-01
#           1.58718E-01  1.62580E-01  1.66535E-01  1.70587E-01  1.74738E-01
#           1.78989E-01  1.83344E-01  1.87805E-01  1.92375E-01  1.97055E-01
#           2.01850E-01  2.06761E-01  2.11792E-01  2.16945E-01  2.22223E-01
#           2.27630E-01  2.33169E-01  2.38842E-01  2.44653E-01  2.50605E-01
#           2.56703E-01  2.62949E-01  2.69346E-01  2.75900E-01  2.82613E-01
#           2.89489E-01  2.96532E-01  3.03747E-01  3.11138E-01  3.18708E-01
#           3.26462E-01  3.34405E-01  3.42542E-01  3.50876E-01  3.59413E-01
#           3.68158E-01  3.77116E-01  3.86291E-01  3.95690E-01  4.05317E-01
#           4.15179E-01  4.25281E-01  4.35628E-01  4.46227E-01  4.57084E-01
#           4.68205E-01  4.79597E-01  4.91266E-01  5.03219E-01  5.15463E-01
#           5.28005E-01  5.40851E-01  5.54011E-01  5.67490E-01  5.81298E-01
#           5.95441E-01  6.09929E-01  6.24769E-01  6.39970E-01  6.55541E-01
#           6.71491E-01  6.87828E-01  7.04564E-01  7.21706E-01  7.39266E-01
#           7.57253E-01  7.75678E-01  7.94551E-01  8.13883E-01  8.33685E-01
#           8.53969E-01  8.74747E-01  8.96030E-01  9.17831E-01  9.40163E-01
#           9.63038E-01  9.86469E-01  1.01047E+00  1.03506E+00  1.06024E+00
#           1.08604E+00  1.11246E+00  1.13953E+00  1.16725E+00  1.19565E+00
#           1.22474E+00  1.25454E+00  1.28507E+00  1.31633E+00  1.34836E+00
#           1.38117E+00  1.41477E+00  1.44920E+00  1.48446E+00  1.52057E+00
#           1.55757E+00  1.59547E+00  1.63429E+00  1.67405E+00  1.71478E+00
#           1.75650E+00  1.79924E+00  1.84302E+00  1.88786E+00  1.93379E+00
#           1.98084E+00  2.02904E+00  2.07841E+00  2.12898E+00  2.18078E+00
#           2.23384E+00  2.28819E+00  2.34386E+00  2.40089E+00  2.45930E+00
#           2.51914E+00  2.58043E+00  2.64322E+00  2.70753E+00  2.77341E+00
#           2.84088E+00  2.91001E+00  2.98081E+00  3.05333E+00  3.12762E+00
#           3.20372E+00  3.28167E+00  3.36152E+00  3.44330E+00  3.52708E+00
#           3.61290E+00  3.70080E+00  3.79085E+00  3.88308E+00  3.97756E+00
#           4.07434E+00  4.17347E+00  4.27501E+00  4.37903E+00  4.48557E+00
#           4.59471E+00  4.70650E+00  4.82102E+00  4.93832E+00  5.05847E+00
#           5.18155E+00  5.30762E+00  5.43676E+00  5.56904E+00  5.70453E+00
#           5.84333E+00  5.98550E+00  6.13114E+00  6.28031E+00  6.43312E+00
#           6.58964E+00  6.74997E+00  6.91420E+00  7.08243E+00  7.25475E+00
#           7.43126E+00  7.61207E+00  7.79728E+00  7.98700E+00  8.18133E+00
#           8.38038E+00  8.58428E+00  8.79315E+00  9.00709E+00  9.22624E+00
#           9.45072E+00  9.68067E+00  9.91620E+00  1.01575E+01  1.04046E+01
#           1.06578E+01  1.09171E+01  1.11827E+01  1.14548E+01  1.17335E+01
#           1.20190E+01  1.23114E+01  1.26109E+01  1.29178E+01  1.32321E+01
#           1.35540E+01  1.38838E+01  1.42216E+01  1.45676E+01  1.49221E+01
#           1.52851E+01  1.56570E+01  1.60380E+01  1.64282E+01  1.68279E+01
#           1.72374E+01  1.76568E+01  1.80864E+01  1.85264E+01  1.89772E+01
#           1.94389E+01  1.99119E+01  2.03963E+01  2.08926E+01  2.14009E+01
#           2.19216E+01  2.24550E+01  2.30014E+01  2.35610E+01  2.41343E+01
#           2.47215E+01  2.53230E+01  2.59391E+01  2.65702E+01  2.72167E+01
#           2.78789E+01  2.85572E+01  2.92520E+01  2.99637E+01  3.06928E+01
#           3.14396E+01  3.22045E+01  3.29881E+01  3.37907E+01  3.46128E+01
#           3.54550E+01  3.63177E+01  3.72013E+01  3.81064E+01  3.90336E+01
#           3.99833E+01  4.09561E+01  4.19526E+01  4.29734E+01  4.40189E+01
#           4.50900E+01  4.61870E+01  4.73108E+01  4.84619E+01  4.96410E+01
#           5.08488E+01  5.20860E+01  5.33533E+01  5.46514E+01  5.59812E+01
#           5.73432E+01  5.87384E+01  6.01676E+01  6.16315E+01  6.31311E+01
#           6.46671E+01  6.62405E+01  6.78522E+01  6.95031E+01  7.11941E+01
#           7.29263E+01  7.47007E+01  7.65182E+01  7.83800E+01  8.02870E+01
#           8.22405E+01  8.42414E+01  8.62911E+01  8.83906E+01  9.05412E+01
#           9.27442E+01  9.50007E+01  9.73122E+01  9.96799E+01  1.02105E+02
#           1.04589E+02  1.07134E+02  1.09741E+02  1.12411E+02  1.15146E+02
#           1.17948E+02  1.20817E+02  1.23757E+02  1.26768E+02  1.29852E+02
#           1.33012E+02  1.36248E+02  1.39563E+02  1.42959E+02  1.46437E+02
#           1.50000E+02
     unit =    2            # unit is [1/cm^2/(MeV/n)/source]
     axis =  eng            # axis of output
     file = detector-06.out  # file name of output for the above axis
   output = f-curr          # surface crossing forward current spectrum
     part =  neutron  
# kf/name :  2112     
#    used :        main (  %)        temp (  %)       total (  %)
#  memory :         414 (  0)           0 (  0)         414 (  0)

#------------------------------------------------------------------------------
#newpage:
#   no. =    1   reg = 105 - 205

x: Energy [MeV/n]
y:  F-Curr [1/cm^2/(MeV/n)/source]         
p: xlog ylog afac(0.8) form(0.9)
h: n            x            y(neutron ),hh0l   n 
#  e-lower      e-upper      neutron     r.err 
   1.0000E-02   1.0243E-02   1.0160E-03  0.0283
   1.0243E-02   1.0493E-02   9.9129E-04  0.0283
   1.0493E-02   1.0748E-02   9.4079E-04  0.0287
   1.0748E-02   1.1009E-02   8.8274E-04  0.0292
   1.1009E-02   1.1277E-02   9.0997E-04  0.0285
   1.1277E-02   1.1552E-02   8.8801E-04  0.0285
   1.1552E-02   1.1833E-02   8.2951E-04  0.0291
   1.1833E-02   1.2121E-02   8.3974E-04  0.0286
   1.2121E-02   1.2415E-02   8.4293E-04  0.0282
   1.2415E-02   1.2718E-02   8.0967E-04  0.0284
   1.2718E-02   1.3027E-02   7.6815E-04  0.0288
   1.3027E-02   1.3344E-02   8.3721E-04  0.0273
   1.3344E-02   1.3669E-02   7.9994E-04  0.0276
   1.3669E-02   1.4001E-02   7.5770E-04  0.0280
   1.4001E-02   1.4342E-02   7.5489E-04  0.0277
   1.4342E-02   1.4691E-02   7.2260E-04  0.0280
   1.4691E-02   1.5048E-02   7.0687E-04  0.0279
   1.5048E-02   1.5414E-02   7.1796E-04  0.0274
   1.5414E-02   1.5789E-02   6.8975E-04  0.0276
   1.5789E-02   1.6174E-02   6.8554E-04  0.0274
   1.6174E-02   1.6567E-02   6.6547E-04  0.0274
   1.6567E-02   1.6970E-02   6.6812E-04  0.0271
   1.6970E-02   1.7383E-02   6.0924E-04  0.0280
   1.7383E-02   1.7806E-02   6.0683E-04  0.0278
   1.7806E-02   1.8239E-02   6.1475E-04  0.0272
   1.8239E-02   1.8683E-02   5.8282E-04  0.0276
   1.8683E-02   1.9138E-02   5.8334E-04  0.0273
   1.9138E-02   1.9603E-02   5.6958E-04  0.0273
   1.9603E-02   2.0080E-02   5.5499E-04  0.0273
   2.0080E-02   2.0569E-02   5.6245E-04  0.0268
   2.0569E-02   2.1069E-02   5.2994E-04  0.0273
   2.1069E-02   2.1582E-02   5.1164E-04  0.0274
   2.1582E-02   2.2107E-02   5.1253E-04  0.0271
   2.2107E-02   2.2645E-02   5.0739E-04  0.0269
   2.2645E-02   2.3196E-02   5.0505E-04  0.0267
   2.3196E-02   2.3760E-02   4.9606E-04  0.0266
   2.3760E-02   2.4338E-02   4.7493E-04  0.0268
   2.4338E-02   2.4930E-02   4.5521E-04  0.0271
   2.4930E-02   2.5537E-02   4.5321E-04  0.0268
   2.5537E-02   2.6158E-02   4.4699E-04  0.0267
   2.6158E-02   2.6795E-02   4.2269E-04  0.0271
   2.6795E-02   2.7447E-02   4.2916E-04  0.0266
   2.7447E-02   2.8114E-02   4.1560E-04  0.0267
   2.8114E-02   2.8799E-02   3.9220E-04  0.0271
   2.8799E-02   2.9499E-02   4.0823E-04  0.0263
   2.9499E-02   3.0217E-02   3.8457E-04  0.0267
   3.0217E-02   3.0952E-02   3.8636E-04  0.0264
   3.0952E-02   3.1705E-02   3.8325E-04  0.0262
   3.1705E-02   3.2477E-02   3.5469E-04  0.0269
   3.2477E-02   3.3267E-02   3.7343E-04  0.0259
   3.3267E-02   3.4076E-02   3.5619E-04  0.0261
   3.4076E-02   3.4905E-02   3.3579E-04  0.0266
   3.4905E-02   3.5755E-02   3.4422E-04  0.0260
   3.5755E-02   3.6625E-02   3.3347E-04  0.0261
   3.6625E-02   3.7516E-02   3.4462E-04  0.0253
   3.7516E-02   3.8428E-02   3.0863E-04  0.0265
   3.8428E-02   3.9363E-02   2.9806E-04  0.0266
   3.9363E-02   4.0321E-02   3.0364E-04  0.0260
   4.0321E-02   4.1302E-02   3.1089E-04  0.0254
   4.1302E-02   4.2307E-02   2.9945E-04  0.0256
   4.2307E-02   4.3337E-02   2.9313E-04  0.0256
   4.3337E-02   4.4391E-02   2.8417E-04  0.0256
   4.4391E-02   4.5471E-02   2.7623E-04  0.0257
   4.5471E-02   4.6577E-02   2.6189E-04  0.0261
   4.6577E-02   4.7711E-02   2.6297E-04  0.0258
   4.7711E-02   4.8871E-02   2.5800E-04  0.0257
   4.8871E-02   5.0061E-02   2.6067E-04  0.0252
   5.0061E-02   5.1279E-02   2.6100E-04  0.0249
   5.1279E-02   5.2526E-02   2.5900E-04  0.0247
   5.2526E-02   5.3804E-02   2.4286E-04  0.0252
   5.3804E-02   5.5113E-02   2.4069E-04  0.0250
   5.5113E-02   5.6454E-02   2.4001E-04  0.0248
   5.6454E-02   5.7828E-02   2.3356E-04  0.0248
   5.7828E-02   5.9235E-02   2.1599E-04  0.0255
   5.9235E-02   6.0676E-02   2.1308E-04  0.0253
   6.0676E-02   6.2152E-02   2.1621E-04  0.0248
   6.2152E-02   6.3665E-02   2.1497E-04  0.0246
   6.3665E-02   6.5214E-02   2.0823E-04  0.0247
   6.5214E-02   6.6800E-02   2.0619E-04  0.0246
   6.6800E-02   6.8426E-02   2.0241E-04  0.0245
   6.8426E-02   7.0090E-02   1.9590E-04  0.0246
   7.0090E-02   7.1796E-02   1.8874E-04  0.0248
   7.1796E-02   7.3543E-02   1.8594E-04  0.0247
   7.3543E-02   7.5332E-02   1.7471E-04  0.0251
   7.5332E-02   7.7165E-02   1.7050E-04  0.0251
   7.7165E-02   7.9042E-02   1.7280E-04  0.0246
   7.9042E-02   8.0965E-02   1.7482E-04  0.0242
   8.0965E-02   8.2935E-02   1.6519E-04  0.0246
   8.2935E-02   8.4953E-02   1.6154E-04  0.0246
   8.4953E-02   8.7020E-02   1.5875E-04  0.0245
   8.7020E-02   8.9138E-02   1.6085E-04  0.0241
   8.9138E-02   9.1306E-02   1.5230E-04  0.0245
   9.1306E-02   9.3528E-02   1.5270E-04  0.0241
   9.3528E-02   9.5804E-02   1.4581E-04  0.0244
   9.5804E-02   9.8134E-02   1.4363E-04  0.0243
   9.8134E-02   1.0052E-01   1.4507E-04  0.0239
   1.0052E-01   1.0297E-01   1.4287E-04  0.0238
   1.0297E-01   1.0547E-01   1.3577E-04  0.0241
   1.0547E-01   1.0804E-01   1.2587E-04  0.0247
   1.0804E-01   1.1067E-01   1.2599E-04  0.0244
   1.1067E-01   1.1336E-01   1.3228E-04  0.0236
   1.1336E-01   1.1612E-01   1.2456E-04  0.0240
   1.1612E-01   1.1894E-01   1.1882E-04  0.0242
   1.1894E-01   1.2184E-01   1.1815E-04  0.0240
   1.2184E-01   1.2480E-01   1.1853E-04  0.0237
   1.2480E-01   1.2784E-01   1.1678E-04  0.0236
   1.2784E-01   1.3095E-01   1.1325E-04  0.0237
   1.3095E-01   1.3414E-01   1.0771E-04  0.0240
   1.3414E-01   1.3740E-01   1.0899E-04  0.0236
   1.3740E-01   1.4074E-01   1.0574E-04  0.0236
   1.4074E-01   1.4417E-01   9.7557E-05  0.0243
   1.4417E-01   1.4767E-01   1.0166E-04  0.0235
   1.4767E-01   1.5127E-01   9.7680E-05  0.0237
   1.5127E-01   1.5495E-01   1.0002E-04  0.0231
   1.5495E-01   1.5872E-01   9.0790E-05  0.0240
   1.5872E-01   1.6258E-01   9.3120E-05  0.0234
   1.6258E-01   1.6654E-01   8.9290E-05  0.0236
   1.6654E-01   1.7059E-01   9.0248E-05  0.0232
   1.7059E-01   1.7474E-01   8.8354E-05  0.0232
   1.7474E-01   1.7899E-01   8.7764E-05  0.0230
   1.7899E-01   1.8334E-01   8.8182E-05  0.0227
   1.8334E-01   1.8781E-01   8.0679E-05  0.0234
   1.8781E-01   1.9237E-01   8.0522E-05  0.0231
   1.9237E-01   1.9706E-01   7.8925E-05  0.0231
   1.9706E-01   2.0185E-01   7.9792E-05  0.0227
   2.0185E-01   2.0676E-01   7.8221E-05  0.0227
   2.0676E-01   2.1179E-01   8.2287E-05  0.0218
   2.1179E-01   2.1694E-01   8.8009E-05  0.0209
   2.1694E-01   2.2222E-01   8.8329E-05  0.0206
   2.2222E-01   2.2763E-01   9.0721E-05  0.0201
   2.2763E-01   2.3317E-01   9.1377E-05  0.0197
   2.3317E-01   2.3884E-01   9.9631E-05  0.0187
   2.3884E-01   2.4465E-01   1.0169E-04  0.0183
   2.4465E-01   2.5061E-01   1.0344E-04  0.0179
   2.5061E-01   2.5670E-01   1.0540E-04  0.0175
   2.5670E-01   2.6295E-01   1.0748E-04  0.0172
   2.6295E-01   2.6935E-01   1.1112E-04  0.0167
   2.6935E-01   2.7590E-01   1.1910E-04  0.0159
   2.7590E-01   2.8261E-01   1.2298E-04  0.0155
   2.8261E-01   2.8949E-01   1.2141E-04  0.0154
   2.8949E-01   2.9653E-01   1.2703E-04  0.0149
   2.9653E-01   3.0375E-01   1.3083E-04  0.0145
   3.0375E-01   3.1114E-01   1.3696E-04  0.0140
   3.1114E-01   3.1871E-01   1.4181E-04  0.0136
   3.1871E-01   3.2646E-01   1.4520E-04  0.0132
   3.2646E-01   3.3441E-01   1.4601E-04  0.0130
   3.3441E-01   3.4254E-01   1.5160E-04  0.0126
   3.4254E-01   3.5088E-01   1.5271E-04  0.0125
   3.5088E-01   3.5941E-01   1.5870E-04  0.0121
   3.5941E-01   3.6816E-01   1.6395E-04  0.0117
   3.6816E-01   3.7712E-01   1.6738E-04  0.0115
   3.7712E-01   3.8629E-01   1.6958E-04  0.0113
   3.8629E-01   3.9569E-01   1.7399E-04  0.0110
   3.9569E-01   4.0532E-01   1.8011E-04  0.0107
   4.0532E-01   4.1518E-01   1.8415E-04  0.0104
   4.1518E-01   4.2528E-01   1.8783E-04  0.0102
   4.2528E-01   4.3563E-01   1.9214E-04  0.0100
   4.3563E-01   4.4623E-01   1.9561E-04  0.0098
   4.4623E-01   4.5708E-01   2.0033E-04  0.0095
   4.5708E-01   4.6821E-01   2.0340E-04  0.0093
   4.6821E-01   4.7960E-01   2.0898E-04  0.0091
   4.7960E-01   4.9127E-01   2.1579E-04  0.0088
   4.9127E-01   5.0322E-01   2.1778E-04  0.0087
   5.0322E-01   5.1546E-01   2.2015E-04  0.0086
   5.1546E-01   5.2800E-01   2.1910E-04  0.0085
   5.2800E-01   5.4085E-01   2.3080E-04  0.0082
   5.4085E-01   5.5401E-01   2.3493E-04  0.0080
   5.5401E-01   5.6749E-01   2.3355E-04  0.0079
   5.6749E-01   5.8130E-01   2.3978E-04  0.0077
   5.8130E-01   5.9544E-01   2.4337E-04  0.0076
   5.9544E-01   6.0993E-01   2.4320E-04  0.0075
   6.0993E-01   6.2477E-01   2.4490E-04  0.0074
   6.2477E-01   6.3997E-01   2.4962E-04  0.0072
   6.3997E-01   6.5554E-01   2.5268E-04  0.0071
   6.5554E-01   6.7149E-01   2.5618E-04  0.0069
   6.7149E-01   6.8783E-01   2.5885E-04  0.0068
   6.8783E-01   7.0456E-01   2.6337E-04  0.0067
   7.0456E-01   7.2171E-01   2.6066E-04  0.0066
   7.2171E-01   7.3927E-01   2.6309E-04  0.0065
   7.3927E-01   7.5725E-01   2.6687E-04  0.0064
   7.5725E-01   7.7568E-01   2.7221E-04  0.0063
   7.7568E-01   7.9455E-01   2.7236E-04  0.0062
   7.9455E-01   8.1388E-01   2.7099E-04  0.0061
   8.1388E-01   8.3368E-01   2.7360E-04  0.0060
   8.3368E-01   8.5397E-01   2.7964E-04  0.0059
   8.5397E-01   8.7475E-01   2.7803E-04  0.0058
   8.7475E-01   8.9603E-01   2.8089E-04  0.0057
   8.9603E-01   9.1783E-01   2.8347E-04  0.0056
   9.1783E-01   9.4016E-01   2.8398E-04  0.0056
   9.4016E-01   9.6304E-01   2.9114E-04  0.0054
   9.6304E-01   9.8647E-01   2.8934E-04  0.0054
   9.8647E-01   1.0105E+00   2.8717E-04  0.0053
   1.0105E+00   1.0351E+00   2.8821E-04  0.0053
   1.0351E+00   1.0602E+00   2.8508E-04  0.0052
   1.0602E+00   1.0860E+00   2.8776E-04  0.0052
   1.0860E+00   1.1125E+00   2.8783E-04  0.0051
   1.1125E+00   1.1395E+00   2.8456E-04  0.0051
   1.1395E+00   1.1673E+00   2.8166E-04  0.0050
   1.1673E+00   1.1957E+00   2.8625E-04  0.0049
   1.1957E+00   1.2247E+00   2.8551E-04  0.0049
   1.2247E+00   1.2545E+00   2.8487E-04  0.0048
   1.2545E+00   1.2851E+00   2.8266E-04  0.0048
   1.2851E+00   1.3163E+00   2.7751E-04  0.0048
   1.3163E+00   1.3484E+00   2.8023E-04  0.0047
   1.3484E+00   1.3812E+00   2.7752E-04  0.0046
   1.3812E+00   1.4148E+00   2.8363E-04  0.0045
   1.4148E+00   1.4492E+00   2.8450E-04  0.0045
   1.4492E+00   1.4845E+00   2.8155E-04  0.0045
   1.4845E+00   1.5206E+00   2.8152E-04  0.0044
   1.5206E+00   1.5576E+00   2.8002E-04  0.0044
   1.5576E+00   1.5955E+00   2.7857E-04  0.0043
   1.5955E+00   1.6343E+00   2.7540E-04  0.0043
   1.6343E+00   1.6741E+00   2.7326E-04  0.0043
   1.6741E+00   1.7148E+00   2.6602E-04  0.0043
   1.7148E+00   1.7565E+00   2.6939E-04  0.0042
   1.7565E+00   1.7992E+00   2.6634E-04  0.0042
   1.7992E+00   1.8430E+00   2.6602E-04  0.0041
   1.8430E+00   1.8879E+00   2.6371E-04  0.0041
   1.8879E+00   1.9338E+00   2.6430E-04  0.0040
   1.9338E+00   1.9808E+00   2.6312E-04  0.0040
   1.9808E+00   2.0290E+00   2.6222E-04  0.0039
   2.0290E+00   2.0784E+00   2.6073E-04  0.0039
   2.0784E+00   2.1290E+00   2.5484E-04  0.0039
   2.1290E+00   2.1808E+00   2.5283E-04  0.0039
   2.1808E+00   2.2338E+00   2.4996E-04  0.0039
   2.2338E+00   2.2882E+00   2.4620E-04  0.0038
   2.2882E+00   2.3439E+00   2.4433E-04  0.0038
   2.3439E+00   2.4009E+00   2.4407E-04  0.0038
   2.4009E+00   2.4593E+00   2.4351E-04  0.0037
   2.4593E+00   2.5191E+00   2.4156E-04  0.0037
   2.5191E+00   2.5804E+00   2.4057E-04  0.0037
   2.5804E+00   2.6432E+00   2.3658E-04  0.0036
   2.6432E+00   2.7075E+00   2.3382E-04  0.0036
   2.7075E+00   2.7734E+00   2.3221E-04  0.0036
   2.7734E+00   2.8409E+00   2.2936E-04  0.0036
   2.8409E+00   2.9100E+00   2.2506E-04  0.0036
   2.9100E+00   2.9808E+00   2.2370E-04  0.0035
   2.9808E+00   3.0533E+00   2.2197E-04  0.0035
   3.0533E+00   3.1276E+00   2.2025E-04  0.0035
   3.1276E+00   3.2037E+00   2.1595E-04  0.0035
   3.2037E+00   3.2817E+00   2.1144E-04  0.0035
   3.2817E+00   3.3615E+00   2.0938E-04  0.0034
   3.3615E+00   3.4433E+00   2.0584E-04  0.0034
   3.4433E+00   3.5271E+00   2.0431E-04  0.0034
   3.5271E+00   3.6129E+00   2.0264E-04  0.0034
   3.6129E+00   3.7008E+00   1.9721E-04  0.0034
   3.7008E+00   3.7908E+00   1.9446E-04  0.0034
   3.7908E+00   3.8831E+00   1.9235E-04  0.0033
   3.8831E+00   3.9776E+00   1.8794E-04  0.0033
   3.9776E+00   4.0743E+00   1.8725E-04  0.0033
   4.0743E+00   4.1735E+00   1.8356E-04  0.0033
   4.1735E+00   4.2750E+00   1.8118E-04  0.0033
   4.2750E+00   4.3790E+00   1.7852E-04  0.0033
   4.3790E+00   4.4856E+00   1.7431E-04  0.0033
   4.4856E+00   4.5947E+00   1.7254E-04  0.0032
   4.5947E+00   4.7065E+00   1.6934E-04  0.0032
   4.7065E+00   4.8210E+00   1.6649E-04  0.0032
   4.8210E+00   4.9383E+00   1.6459E-04  0.0032
   4.9383E+00   5.0585E+00   1.6197E-04  0.0032
   5.0585E+00   5.1815E+00   1.6196E-04  0.0032
   5.1815E+00   5.3076E+00   1.6155E-04  0.0031
   5.3076E+00   5.4368E+00   1.5928E-04  0.0031
   5.4368E+00   5.5690E+00   1.5549E-04  0.0031
   5.5690E+00   5.7045E+00   1.5095E-04  0.0031
   5.7045E+00   5.8433E+00   1.4842E-04  0.0031
   5.8433E+00   5.9855E+00   1.4592E-04  0.0031
   5.9855E+00   6.1311E+00   1.4169E-04  0.0031
   6.1311E+00   6.2803E+00   1.3856E-04  0.0031
   6.2803E+00   6.4331E+00   1.3584E-04  0.0031
   6.4331E+00   6.5896E+00   1.3247E-04  0.0031
   6.5896E+00   6.7500E+00   1.3022E-04  0.0031
   6.7500E+00   6.9142E+00   1.2670E-04  0.0031
   6.9142E+00   7.0824E+00   1.2453E-04  0.0031
   7.0824E+00   7.2548E+00   1.2131E-04  0.0031
   7.2548E+00   7.4313E+00   1.1870E-04  0.0031
   7.4313E+00   7.6121E+00   1.1738E-04  0.0031
   7.6121E+00   7.7973E+00   1.1407E-04  0.0031
   7.7973E+00   7.9870E+00   1.1226E-04  0.0031
   7.9870E+00   8.1813E+00   1.1028E-04  0.0030
   8.1813E+00   8.3804E+00   1.0751E-04  0.0030
   8.3804E+00   8.5843E+00   1.0542E-04  0.0030
   8.5843E+00   8.7931E+00   1.0373E-04  0.0030
   8.7931E+00   9.0071E+00   1.0196E-04  0.0030
   9.0071E+00   9.2262E+00   9.9832E-05  0.0030
   9.2262E+00   9.4507E+00   9.8117E-05  0.0030
   9.4507E+00   9.6807E+00   9.6266E-05  0.0030
   9.6807E+00   9.9162E+00   9.4904E-05  0.0030
   9.9162E+00   1.0157E+01   9.3360E-05  0.0030
   1.0157E+01   1.0405E+01   9.1688E-05  0.0030
   1.0405E+01   1.0658E+01   9.0445E-05  0.0030
   1.0658E+01   1.0917E+01   8.8688E-05  0.0029
   1.0917E+01   1.1183E+01   8.7979E-05  0.0029
   1.1183E+01   1.1455E+01   8.6323E-05  0.0029
   1.1455E+01   1.1733E+01   8.5400E-05  0.0029
   1.1733E+01   1.2019E+01   8.3873E-05  0.0029
   1.2019E+01   1.2311E+01   8.3089E-05  0.0029
   1.2311E+01   1.2611E+01   8.1854E-05  0.0029
   1.2611E+01   1.2918E+01   8.1201E-05  0.0028
   1.2918E+01   1.3232E+01   7.9977E-05  0.0028
   1.3232E+01   1.3554E+01   7.9059E-05  0.0028
   1.3554E+01   1.3884E+01   7.8582E-05  0.0028
   1.3884E+01   1.4222E+01   7.7943E-05  0.0028
   1.4222E+01   1.4568E+01   7.7211E-05  0.0027
   1.4568E+01   1.4922E+01   7.6224E-05  0.0027
   1.4922E+01   1.5285E+01   7.5684E-05  0.0027
   1.5285E+01   1.5657E+01   7.5724E-05  0.0027
   1.5657E+01   1.6038E+01   7.4845E-05  0.0026
   1.6038E+01   1.6428E+01   7.4229E-05  0.0026
   1.6428E+01   1.6828E+01   7.3628E-05  0.0026
   1.6828E+01   1.7237E+01   7.3376E-05  0.0026
   1.7237E+01   1.7657E+01   7.2475E-05  0.0026
   1.7657E+01   1.8086E+01   7.2662E-05  0.0025
   1.8086E+01   1.8526E+01   7.2388E-05  0.0025
   1.8526E+01   1.8977E+01   7.2194E-05  0.0025
   1.8977E+01   1.9439E+01   7.2976E-05  0.0024
   1.9439E+01   1.9912E+01   7.4824E-05  0.0024
   1.9912E+01   2.0396E+01   7.5830E-05  0.0023
   2.0396E+01   2.0893E+01   7.6114E-05  0.0023
   2.0893E+01   2.1401E+01   7.6691E-05  0.0023
   2.1401E+01   2.1922E+01   7.6746E-05  0.0022
   2.1922E+01   2.2455E+01   7.7000E-05  0.0022
   2.2455E+01   2.3001E+01   7.7400E-05  0.0022
   2.3001E+01   2.3561E+01   7.7952E-05  0.0021
   2.3561E+01   2.4134E+01   7.8492E-05  0.0021
   2.4134E+01   2.4721E+01   7.8981E-05  0.0021
   2.4721E+01   2.5323E+01   8.0130E-05  0.0020
   2.5323E+01   2.5939E+01   8.0815E-05  0.0020
   2.5939E+01   2.6570E+01   8.2069E-05  0.0020
   2.6570E+01   2.7217E+01   8.3389E-05  0.0019
   2.7217E+01   2.7879E+01   8.4679E-05  0.0019
   2.7879E+01   2.8557E+01   8.5924E-05  0.0019
   2.8557E+01   2.9252E+01   8.7746E-05  0.0018
   2.9252E+01   2.9964E+01   8.9634E-05  0.0018
   2.9964E+01   3.0693E+01   9.1594E-05  0.0017
   3.0693E+01   3.1440E+01   9.4044E-05  0.0017
   3.1440E+01   3.2205E+01   9.6600E-05  0.0016
   3.2205E+01   3.2988E+01   9.9028E-05  0.0016
   3.2988E+01   3.3791E+01   1.0235E-04  0.0016
   3.3791E+01   3.4613E+01   1.0592E-04  0.0015
   3.4613E+01   3.5455E+01   1.0944E-04  0.0015
   3.5455E+01   3.6318E+01   1.1330E-04  0.0014
   3.6318E+01   3.7201E+01   1.1755E-04  0.0014
   3.7201E+01   3.8106E+01   1.2238E-04  0.0013
   3.8106E+01   3.9034E+01   1.2730E-04  0.0013
   3.9034E+01   3.9983E+01   1.3238E-04  0.0013
   3.9983E+01   4.0956E+01   1.3820E-04  0.0012
   4.0956E+01   4.1953E+01   1.4444E-04  0.0012
   4.1953E+01   4.2973E+01   1.5049E-04  0.0011
   4.2973E+01   4.4019E+01   1.5684E-04  0.0011
   4.4019E+01   4.5090E+01   1.6371E-04  0.0011
   4.5090E+01   4.6187E+01   1.7036E-04  0.0010
   4.6187E+01   4.7311E+01   1.7706E-04  0.0010
   4.7311E+01   4.8462E+01   1.8410E-04  0.0010
   4.8462E+01   4.9641E+01   1.9082E-04  0.0009
   4.9641E+01   5.0849E+01   1.9720E-04  0.0009
   5.0849E+01   5.2086E+01   2.0308E-04  0.0009
   5.2086E+01   5.3353E+01   2.0871E-04  0.0009
   5.3353E+01   5.4651E+01   2.1311E-04  0.0009
   5.4651E+01   5.5981E+01   2.1700E-04  0.0008
   5.5981E+01   5.7343E+01   2.1994E-04  0.0008
   5.7343E+01   5.8738E+01   2.2157E-04  0.0008
   5.8738E+01   6.0168E+01   2.2202E-04  0.0008
   6.0168E+01   6.1632E+01   2.2088E-04  0.0008
   6.1632E+01   6.3131E+01   2.1889E-04  0.0008
   6.3131E+01   6.4667E+01   2.1502E-04  0.0008
   6.4667E+01   6.6240E+01   2.0969E-04  0.0008
   6.6240E+01   6.7852E+01   2.0311E-04  0.0008
   6.7852E+01   6.9503E+01   1.9561E-04  0.0008
   6.9503E+01   7.1194E+01   1.8712E-04  0.0008
   7.1194E+01   7.2926E+01   1.7753E-04  0.0008
   7.2926E+01   7.4701E+01   1.6758E-04  0.0008
   7.4701E+01   7.6518E+01   1.5678E-04  0.0008
   7.6518E+01   7.8380E+01   1.4544E-04  0.0009
   7.8380E+01   8.0287E+01   1.3486E-04  0.0009
   8.0287E+01   8.2240E+01   1.2380E-04  0.0009
   8.2240E+01   8.4241E+01   1.1304E-04  0.0009
   8.4241E+01   8.6291E+01   1.0272E-04  0.0010
   8.6291E+01   8.8391E+01   9.2643E-05  0.0010
   8.8391E+01   9.0541E+01   8.3122E-05  0.0011
   9.0541E+01   9.2744E+01   7.4122E-05  0.0011
   9.2744E+01   9.5001E+01   6.5831E-05  0.0012
   9.5001E+01   9.7312E+01   5.7720E-05  0.0012
   9.7312E+01   9.9680E+01   5.0431E-05  0.0013
   9.9680E+01   1.0211E+02   4.3596E-05  0.0014
   1.0211E+02   1.0459E+02   3.8109E-05  0.0015
   1.0459E+02   1.0713E+02   3.4540E-05  0.0015
   1.0713E+02   1.0974E+02   3.0891E-05  0.0016
   1.0974E+02   1.1241E+02   2.6724E-05  0.0017
   1.1241E+02   1.1515E+02   2.2175E-05  0.0018
   1.1515E+02   1.1795E+02   1.8437E-05  0.0020
   1.1795E+02   1.2082E+02   1.5062E-05  0.0022
   1.2082E+02   1.2376E+02   1.2259E-05  0.0024
   1.2376E+02   1.2677E+02   9.9122E-06  0.0026
   1.2677E+02   1.2985E+02   8.0003E-06  0.0028
   1.2985E+02   1.3301E+02   6.5061E-06  0.0031
   1.3301E+02   1.3625E+02   5.3661E-06  0.0034
   1.3625E+02   1.3956E+02   3.1531E-06  0.0044
   1.3956E+02   1.4296E+02   7.5425E-07  0.0088
   1.4296E+02   1.4644E+02   4.6574E-09  0.1111
   1.4644E+02   1.5000E+02   0.0000E+00  0.0000

#   sum over                 9.5361E-05
'no. =    1   reg = 105 - 205'
msuc: {\huge [t-cross] in region mesh}
msdr: {\it plotted by \ANGEL \version}
msdl: {\it calculated by \PHITS  3.28}
wt: s(0.7)
\vspace{-3}
  region surface crossing
  area  &=&   1.0000E+00 [cm^2]
e:
 
# Information for Restart Calculation
# This calculation was newly started
# istdev =  2 # 1:Batch variance, 2:History variance
# resc2  = 5.00000000000000000E+09 # Total source weight or Total source weight / maxcas
# resc3  = 5.00000000000000000E+09 # Total history number or Total batch number
# maxcas =   500000000 # History / Batch, only used for istdev=1
# bitrseed = 0110100000100010111000001110001111001110100100011111101000111001 # bit data of rseed
