0 <--- number of remaining batches 

-------------------------------------------------------------------------------
bat[      10] ncas =     5000000000.
 bitrseed = 0001011101011011011000011100010110101100100111100111010011101011
          cpu time =   2 h. 15 m. 37.89 s.

 date = 2022-05-30
 time = 09h 59m 15s

