[ T-Cross ]
    title = [t-cross] in region mesh
     mesh =  reg            # mesh type is region-wise
      reg =    1            # number of crossing regions
      non     r-from    r-to       area
      1       116       216        1.000000    
   e-type =    3            # e-mesh is log given by emin, emax and ne
     emin =  1.0000000E-02  # minimum value of e-mesh points
     emax =   150.0000      # maximum value of e-mesh points
#    edel =  2.4039514E-02  # mesh width of e-mesh points
       ne =    400          # number of e-mesh points
#    data = ( e(i), i = 1, ne + 1 )
#           1.00000E-02  1.02433E-02  1.04925E-02  1.07478E-02  1.10093E-02
#           1.12772E-02  1.15516E-02  1.18326E-02  1.21205E-02  1.24154E-02
#           1.27175E-02  1.30269E-02  1.33439E-02  1.36686E-02  1.40011E-02
#           1.43418E-02  1.46907E-02  1.50482E-02  1.54143E-02  1.57894E-02
#           1.61735E-02  1.65670E-02  1.69701E-02  1.73830E-02  1.78060E-02
#           1.82392E-02  1.86830E-02  1.91375E-02  1.96032E-02  2.00801E-02
#           2.05687E-02  2.10692E-02  2.15818E-02  2.21069E-02  2.26448E-02
#           2.31957E-02  2.37601E-02  2.43382E-02  2.49304E-02  2.55369E-02
#           2.61583E-02  2.67947E-02  2.74467E-02  2.81145E-02  2.87985E-02
#           2.94992E-02  3.02169E-02  3.09521E-02  3.17052E-02  3.24766E-02
#           3.32668E-02  3.40762E-02  3.49053E-02  3.57546E-02  3.66246E-02
#           3.75157E-02  3.84284E-02  3.93634E-02  4.03212E-02  4.13022E-02
#           4.23071E-02  4.33365E-02  4.43909E-02  4.54710E-02  4.65773E-02
#           4.77106E-02  4.88714E-02  5.00605E-02  5.12785E-02  5.25262E-02
#           5.38042E-02  5.51133E-02  5.64542E-02  5.78278E-02  5.92348E-02
#           6.06760E-02  6.21523E-02  6.36645E-02  6.52135E-02  6.68002E-02
#           6.84255E-02  7.00904E-02  7.17957E-02  7.35426E-02  7.53319E-02
#           7.71648E-02  7.90423E-02  8.09655E-02  8.29354E-02  8.49533E-02
#           8.70203E-02  8.91376E-02  9.13064E-02  9.35279E-02  9.58035E-02
#           9.81345E-02  1.00522E-01  1.02968E-01  1.05473E-01  1.08040E-01
#           1.10668E-01  1.13361E-01  1.16119E-01  1.18944E-01  1.21838E-01
#           1.24803E-01  1.27839E-01  1.30950E-01  1.34136E-01  1.37399E-01
#           1.40742E-01  1.44167E-01  1.47675E-01  1.51268E-01  1.54948E-01
#           1.58718E-01  1.62580E-01  1.66535E-01  1.70587E-01  1.74738E-01
#           1.78989E-01  1.83344E-01  1.87805E-01  1.92375E-01  1.97055E-01
#           2.01850E-01  2.06761E-01  2.11792E-01  2.16945E-01  2.22223E-01
#           2.27630E-01  2.33169E-01  2.38842E-01  2.44653E-01  2.50605E-01
#           2.56703E-01  2.62949E-01  2.69346E-01  2.75900E-01  2.82613E-01
#           2.89489E-01  2.96532E-01  3.03747E-01  3.11138E-01  3.18708E-01
#           3.26462E-01  3.34405E-01  3.42542E-01  3.50876E-01  3.59413E-01
#           3.68158E-01  3.77116E-01  3.86291E-01  3.95690E-01  4.05317E-01
#           4.15179E-01  4.25281E-01  4.35628E-01  4.46227E-01  4.57084E-01
#           4.68205E-01  4.79597E-01  4.91266E-01  5.03219E-01  5.15463E-01
#           5.28005E-01  5.40851E-01  5.54011E-01  5.67490E-01  5.81298E-01
#           5.95441E-01  6.09929E-01  6.24769E-01  6.39970E-01  6.55541E-01
#           6.71491E-01  6.87828E-01  7.04564E-01  7.21706E-01  7.39266E-01
#           7.57253E-01  7.75678E-01  7.94551E-01  8.13883E-01  8.33685E-01
#           8.53969E-01  8.74747E-01  8.96030E-01  9.17831E-01  9.40163E-01
#           9.63038E-01  9.86469E-01  1.01047E+00  1.03506E+00  1.06024E+00
#           1.08604E+00  1.11246E+00  1.13953E+00  1.16725E+00  1.19565E+00
#           1.22474E+00  1.25454E+00  1.28507E+00  1.31633E+00  1.34836E+00
#           1.38117E+00  1.41477E+00  1.44920E+00  1.48446E+00  1.52057E+00
#           1.55757E+00  1.59547E+00  1.63429E+00  1.67405E+00  1.71478E+00
#           1.75650E+00  1.79924E+00  1.84302E+00  1.88786E+00  1.93379E+00
#           1.98084E+00  2.02904E+00  2.07841E+00  2.12898E+00  2.18078E+00
#           2.23384E+00  2.28819E+00  2.34386E+00  2.40089E+00  2.45930E+00
#           2.51914E+00  2.58043E+00  2.64322E+00  2.70753E+00  2.77341E+00
#           2.84088E+00  2.91001E+00  2.98081E+00  3.05333E+00  3.12762E+00
#           3.20372E+00  3.28167E+00  3.36152E+00  3.44330E+00  3.52708E+00
#           3.61290E+00  3.70080E+00  3.79085E+00  3.88308E+00  3.97756E+00
#           4.07434E+00  4.17347E+00  4.27501E+00  4.37903E+00  4.48557E+00
#           4.59471E+00  4.70650E+00  4.82102E+00  4.93832E+00  5.05847E+00
#           5.18155E+00  5.30762E+00  5.43676E+00  5.56904E+00  5.70453E+00
#           5.84333E+00  5.98550E+00  6.13114E+00  6.28031E+00  6.43312E+00
#           6.58964E+00  6.74997E+00  6.91420E+00  7.08243E+00  7.25475E+00
#           7.43126E+00  7.61207E+00  7.79728E+00  7.98700E+00  8.18133E+00
#           8.38038E+00  8.58428E+00  8.79315E+00  9.00709E+00  9.22624E+00
#           9.45072E+00  9.68067E+00  9.91620E+00  1.01575E+01  1.04046E+01
#           1.06578E+01  1.09171E+01  1.11827E+01  1.14548E+01  1.17335E+01
#           1.20190E+01  1.23114E+01  1.26109E+01  1.29178E+01  1.32321E+01
#           1.35540E+01  1.38838E+01  1.42216E+01  1.45676E+01  1.49221E+01
#           1.52851E+01  1.56570E+01  1.60380E+01  1.64282E+01  1.68279E+01
#           1.72374E+01  1.76568E+01  1.80864E+01  1.85264E+01  1.89772E+01
#           1.94389E+01  1.99119E+01  2.03963E+01  2.08926E+01  2.14009E+01
#           2.19216E+01  2.24550E+01  2.30014E+01  2.35610E+01  2.41343E+01
#           2.47215E+01  2.53230E+01  2.59391E+01  2.65702E+01  2.72167E+01
#           2.78789E+01  2.85572E+01  2.92520E+01  2.99637E+01  3.06928E+01
#           3.14396E+01  3.22045E+01  3.29881E+01  3.37907E+01  3.46128E+01
#           3.54550E+01  3.63177E+01  3.72013E+01  3.81064E+01  3.90336E+01
#           3.99833E+01  4.09561E+01  4.19526E+01  4.29734E+01  4.40189E+01
#           4.50900E+01  4.61870E+01  4.73108E+01  4.84619E+01  4.96410E+01
#           5.08488E+01  5.20860E+01  5.33533E+01  5.46514E+01  5.59812E+01
#           5.73432E+01  5.87384E+01  6.01676E+01  6.16315E+01  6.31311E+01
#           6.46671E+01  6.62405E+01  6.78522E+01  6.95031E+01  7.11941E+01
#           7.29263E+01  7.47007E+01  7.65182E+01  7.83800E+01  8.02870E+01
#           8.22405E+01  8.42414E+01  8.62911E+01  8.83906E+01  9.05412E+01
#           9.27442E+01  9.50007E+01  9.73122E+01  9.96799E+01  1.02105E+02
#           1.04589E+02  1.07134E+02  1.09741E+02  1.12411E+02  1.15146E+02
#           1.17948E+02  1.20817E+02  1.23757E+02  1.26768E+02  1.29852E+02
#           1.33012E+02  1.36248E+02  1.39563E+02  1.42959E+02  1.46437E+02
#           1.50000E+02
     unit =    2            # unit is [1/cm^2/(MeV/n)/source]
     axis =  eng            # axis of output
     file = detector-17.out  # file name of output for the above axis
   output = f-curr          # surface crossing forward current spectrum
     part =  neutron  
# kf/name :  2112     
#    used :        main (  %)        temp (  %)       total (  %)
#  memory :         414 (  0)           0 (  0)         414 (  0)

#------------------------------------------------------------------------------
#newpage:
#   no. =    1   reg = 116 - 216

x: Energy [MeV/n]
y:  F-Curr [1/cm^2/(MeV/n)/source]         
p: xlog ylog afac(0.8) form(0.9)
h: n            x            y(neutron ),hh0l   n 
#  e-lower      e-upper      neutron     r.err 
   1.0000E-02   1.0243E-02   4.2169E-04  0.0442
   1.0243E-02   1.0493E-02   4.1328E-04  0.0441
   1.0493E-02   1.0748E-02   4.3166E-04  0.0426
   1.0748E-02   1.1009E-02   4.2676E-04  0.0423
   1.1009E-02   1.1277E-02   4.3977E-04  0.0412
   1.1277E-02   1.1552E-02   4.2933E-04  0.0412
   1.1552E-02   1.1833E-02   4.4475E-04  0.0400
   1.1833E-02   1.2121E-02   4.6128E-04  0.0388
   1.2121E-02   1.2415E-02   4.7745E-04  0.0377
   1.2415E-02   1.2718E-02   4.6081E-04  0.0379
   1.2718E-02   1.3027E-02   4.9640E-04  0.0361
   1.3027E-02   1.3344E-02   4.7641E-04  0.0364
   1.3344E-02   1.3669E-02   4.6571E-04  0.0364
   1.3669E-02   1.4001E-02   4.5044E-04  0.0365
   1.4001E-02   1.4342E-02   4.5148E-04  0.0361
   1.4342E-02   1.4691E-02   4.6253E-04  0.0352
   1.4691E-02   1.5048E-02   4.5994E-04  0.0349
   1.5048E-02   1.5414E-02   4.5284E-04  0.0347
   1.5414E-02   1.5789E-02   5.1941E-04  0.0320
   1.5789E-02   1.6174E-02   4.7583E-04  0.0331
   1.6174E-02   1.6567E-02   4.7470E-04  0.0327
   1.6567E-02   1.6970E-02   4.8674E-04  0.0319
   1.6970E-02   1.7383E-02   4.7566E-04  0.0319
   1.7383E-02   1.7806E-02   5.0503E-04  0.0306
   1.7806E-02   1.8239E-02   4.8981E-04  0.0307
   1.8239E-02   1.8683E-02   4.8899E-04  0.0304
   1.8683E-02   1.9138E-02   5.1697E-04  0.0292
   1.9138E-02   1.9603E-02   5.2660E-04  0.0286
   1.9603E-02   2.0080E-02   5.3631E-04  0.0280
   2.0080E-02   2.0569E-02   4.9819E-04  0.0287
   2.0569E-02   2.1069E-02   5.3472E-04  0.0273
   2.1069E-02   2.1582E-02   5.5674E-04  0.0265
   2.1582E-02   2.2107E-02   5.1571E-04  0.0272
   2.2107E-02   2.2645E-02   5.2912E-04  0.0265
   2.2645E-02   2.3196E-02   5.5067E-04  0.0257
   2.3196E-02   2.3760E-02   5.2625E-04  0.0259
   2.3760E-02   2.4338E-02   5.3209E-04  0.0255
   2.4338E-02   2.4930E-02   5.5120E-04  0.0248
   2.4930E-02   2.5537E-02   5.5953E-04  0.0243
   2.5537E-02   2.6158E-02   5.7006E-04  0.0238
   2.6158E-02   2.6795E-02   5.5967E-04  0.0237
   2.6795E-02   2.7447E-02   5.4975E-04  0.0236
   2.7447E-02   2.8114E-02   5.7023E-04  0.0229
   2.8114E-02   2.8799E-02   5.7978E-04  0.0225
   2.8799E-02   2.9499E-02   5.7772E-04  0.0222
   2.9499E-02   3.0217E-02   5.7709E-04  0.0220
   3.0217E-02   3.0952E-02   5.9902E-04  0.0213
   3.0952E-02   3.1705E-02   6.0338E-04  0.0210
   3.1705E-02   3.2477E-02   6.1601E-04  0.0205
   3.2477E-02   3.3267E-02   6.2846E-04  0.0201
   3.3267E-02   3.4076E-02   6.1428E-04  0.0201
   3.4076E-02   3.4905E-02   6.2718E-04  0.0196
   3.4905E-02   3.5755E-02   6.2430E-04  0.0194
   3.5755E-02   3.6625E-02   6.4671E-04  0.0189
   3.6625E-02   3.7516E-02   6.3696E-04  0.0188
   3.7516E-02   3.8428E-02   6.4747E-04  0.0184
   3.8428E-02   3.9363E-02   6.4407E-04  0.0182
   3.9363E-02   4.0321E-02   6.6218E-04  0.0178
   4.0321E-02   4.1302E-02   6.7826E-04  0.0173
   4.1302E-02   4.2307E-02   6.7846E-04  0.0171
   4.2307E-02   4.3337E-02   6.7984E-04  0.0169
   4.3337E-02   4.4391E-02   6.9574E-04  0.0165
   4.4391E-02   4.5471E-02   6.8125E-04  0.0165
   4.5471E-02   4.6577E-02   7.0900E-04  0.0160
   4.6577E-02   4.7711E-02   6.9534E-04  0.0159
   4.7711E-02   4.8871E-02   7.0036E-04  0.0157
   4.8871E-02   5.0061E-02   7.0878E-04  0.0154
   5.0061E-02   5.1279E-02   7.1559E-04  0.0151
   5.1279E-02   5.2526E-02   7.0950E-04  0.0150
   5.2526E-02   5.3804E-02   7.1815E-04  0.0148
   5.3804E-02   5.5113E-02   7.3134E-04  0.0145
   5.5113E-02   5.6454E-02   7.3321E-04  0.0143
   5.6454E-02   5.7828E-02   7.4375E-04  0.0140
   5.7828E-02   5.9235E-02   7.4684E-04  0.0138
   5.9235E-02   6.0676E-02   7.5658E-04  0.0135
   6.0676E-02   6.2152E-02   7.8711E-04  0.0131
   6.2152E-02   6.3665E-02   7.7621E-04  0.0131
   6.3665E-02   6.5214E-02   7.8683E-04  0.0128
   6.5214E-02   6.6800E-02   7.8049E-04  0.0127
   6.6800E-02   6.8426E-02   7.8779E-04  0.0125
   6.8426E-02   7.0090E-02   8.0320E-04  0.0122
   7.0090E-02   7.1796E-02   7.8142E-04  0.0123
   7.1796E-02   7.3543E-02   8.0992E-04  0.0119
   7.3543E-02   7.5332E-02   8.2443E-04  0.0116
   7.5332E-02   7.7165E-02   8.3366E-04  0.0114
   7.7165E-02   7.9042E-02   8.1993E-04  0.0114
   7.9042E-02   8.0965E-02   8.3924E-04  0.0111
   8.0965E-02   8.2935E-02   8.4459E-04  0.0110
   8.2935E-02   8.4953E-02   8.6407E-04  0.0107
   8.4953E-02   8.7020E-02   8.4800E-04  0.0107
   8.7020E-02   8.9138E-02   8.7320E-04  0.0104
   8.9138E-02   9.1306E-02   8.6887E-04  0.0103
   9.1306E-02   9.3528E-02   8.8425E-04  0.0101
   9.3528E-02   9.5804E-02   8.9242E-04  0.0099
   9.5804E-02   9.8134E-02   8.9207E-04  0.0098
   9.8134E-02   1.0052E-01   9.1126E-04  0.0096
   1.0052E-01   1.0297E-01   9.1823E-04  0.0094
   1.0297E-01   1.0547E-01   9.1518E-04  0.0093
   1.0547E-01   1.0804E-01   9.3116E-04  0.0091
   1.0804E-01   1.1067E-01   9.1483E-04  0.0091
   1.1067E-01   1.1336E-01   9.4613E-04  0.0089
   1.1336E-01   1.1612E-01   9.4686E-04  0.0088
   1.1612E-01   1.1894E-01   9.4710E-04  0.0086
   1.1894E-01   1.2184E-01   9.5646E-04  0.0085
   1.2184E-01   1.2480E-01   9.7098E-04  0.0083
   1.2480E-01   1.2784E-01   9.5977E-04  0.0083
   1.2784E-01   1.3095E-01   9.8713E-04  0.0081
   1.3095E-01   1.3414E-01   9.9130E-04  0.0080
   1.3414E-01   1.3740E-01   9.8516E-04  0.0079
   1.3740E-01   1.4074E-01   9.8904E-04  0.0078
   1.4074E-01   1.4417E-01   9.9866E-04  0.0076
   1.4417E-01   1.4767E-01   1.0045E-03  0.0075
   1.4767E-01   1.5127E-01   1.0074E-03  0.0074
   1.5127E-01   1.5495E-01   1.0258E-03  0.0073
   1.5495E-01   1.5872E-01   1.0215E-03  0.0072
   1.5872E-01   1.6258E-01   1.0298E-03  0.0071
   1.6258E-01   1.6654E-01   1.0522E-03  0.0069
   1.6654E-01   1.7059E-01   1.0442E-03  0.0069
   1.7059E-01   1.7474E-01   1.0352E-03  0.0068
   1.7474E-01   1.7899E-01   1.0487E-03  0.0067
   1.7899E-01   1.8334E-01   1.0677E-03  0.0066
   1.8334E-01   1.8781E-01   1.0547E-03  0.0065
   1.8781E-01   1.9237E-01   1.0660E-03  0.0064
   1.9237E-01   1.9706E-01   1.0703E-03  0.0063
   1.9706E-01   2.0185E-01   1.0669E-03  0.0063
   2.0185E-01   2.0676E-01   1.0688E-03  0.0062
   2.0676E-01   2.1179E-01   1.0819E-03  0.0061
   2.1179E-01   2.1694E-01   1.0874E-03  0.0060
   2.1694E-01   2.2222E-01   1.0955E-03  0.0059
   2.2222E-01   2.2763E-01   1.1008E-03  0.0058
   2.2763E-01   2.3317E-01   1.0953E-03  0.0057
   2.3317E-01   2.3884E-01   1.0907E-03  0.0057
   2.3884E-01   2.4465E-01   1.1005E-03  0.0056
   2.4465E-01   2.5061E-01   1.0964E-03  0.0055
   2.5061E-01   2.5670E-01   1.1016E-03  0.0055
   2.5670E-01   2.6295E-01   1.1111E-03  0.0054
   2.6295E-01   2.6935E-01   1.1098E-03  0.0053
   2.6935E-01   2.7590E-01   1.1069E-03  0.0053
   2.7590E-01   2.8261E-01   1.1066E-03  0.0052
   2.8261E-01   2.8949E-01   1.1076E-03  0.0051
   2.8949E-01   2.9653E-01   1.1076E-03  0.0051
   2.9653E-01   3.0375E-01   1.1127E-03  0.0050
   3.0375E-01   3.1114E-01   1.1078E-03  0.0049
   3.1114E-01   3.1871E-01   1.1082E-03  0.0049
   3.1871E-01   3.2646E-01   1.0922E-03  0.0049
   3.2646E-01   3.3441E-01   1.0945E-03  0.0048
   3.3441E-01   3.4254E-01   1.0948E-03  0.0047
   3.4254E-01   3.5088E-01   1.0954E-03  0.0047
   3.5088E-01   3.5941E-01   1.0944E-03  0.0046
   3.5941E-01   3.6816E-01   1.0912E-03  0.0046
   3.6816E-01   3.7712E-01   1.0982E-03  0.0045
   3.7712E-01   3.8629E-01   1.0928E-03  0.0045
   3.8629E-01   3.9569E-01   1.0898E-03  0.0044
   3.9569E-01   4.0532E-01   1.0634E-03  0.0044
   4.0532E-01   4.1518E-01   1.0675E-03  0.0044
   4.1518E-01   4.2528E-01   1.0611E-03  0.0043
   4.2528E-01   4.3563E-01   1.0591E-03  0.0043
   4.3563E-01   4.4623E-01   1.0455E-03  0.0043
   4.4623E-01   4.5708E-01   1.0419E-03  0.0042
   4.5708E-01   4.6821E-01   1.0370E-03  0.0042
   4.6821E-01   4.7960E-01   1.0232E-03  0.0041
   4.7960E-01   4.9127E-01   1.0253E-03  0.0041
   4.9127E-01   5.0322E-01   1.0102E-03  0.0041
   5.0322E-01   5.1546E-01   9.9793E-04  0.0040
   5.1546E-01   5.2800E-01   9.8287E-04  0.0040
   5.2800E-01   5.4085E-01   9.8062E-04  0.0040
   5.4085E-01   5.5401E-01   9.6918E-04  0.0040
   5.5401E-01   5.6749E-01   9.6417E-04  0.0039
   5.6749E-01   5.8130E-01   9.4637E-04  0.0039
   5.8130E-01   5.9544E-01   9.3421E-04  0.0039
   5.9544E-01   6.0993E-01   9.2009E-04  0.0039
   6.0993E-01   6.2477E-01   9.0737E-04  0.0039
   6.2477E-01   6.3997E-01   8.8912E-04  0.0038
   6.3997E-01   6.5554E-01   8.7658E-04  0.0038
   6.5554E-01   6.7149E-01   8.6538E-04  0.0038
   6.7149E-01   6.8783E-01   8.4390E-04  0.0038
   6.8783E-01   7.0456E-01   8.3301E-04  0.0038
   7.0456E-01   7.2171E-01   8.1099E-04  0.0038
   7.2171E-01   7.3927E-01   7.9562E-04  0.0038
   7.3927E-01   7.5725E-01   7.8018E-04  0.0038
   7.5725E-01   7.7568E-01   7.7078E-04  0.0038
   7.7568E-01   7.9455E-01   7.4348E-04  0.0038
   7.9455E-01   8.1388E-01   7.2717E-04  0.0038
   8.1388E-01   8.3368E-01   7.0657E-04  0.0038
   8.3368E-01   8.5397E-01   6.8338E-04  0.0038
   8.5397E-01   8.7475E-01   6.6614E-04  0.0038
   8.7475E-01   8.9603E-01   6.3541E-04  0.0038
   8.9603E-01   9.1783E-01   6.1963E-04  0.0039
   9.1783E-01   9.4016E-01   5.9256E-04  0.0039
   9.4016E-01   9.6304E-01   5.6894E-04  0.0039
   9.6304E-01   9.8647E-01   5.3931E-04  0.0040
   9.8647E-01   1.0105E+00   5.1110E-04  0.0040
   1.0105E+00   1.0351E+00   4.9878E-04  0.0040
   1.0351E+00   1.0602E+00   4.9542E-04  0.0040
   1.0602E+00   1.0860E+00   4.8696E-04  0.0040
   1.0860E+00   1.1125E+00   4.8704E-04  0.0039
   1.1125E+00   1.1395E+00   4.7707E-04  0.0039
   1.1395E+00   1.1673E+00   4.7744E-04  0.0039
   1.1673E+00   1.1957E+00   4.7706E-04  0.0038
   1.1957E+00   1.2247E+00   4.7575E-04  0.0038
   1.2247E+00   1.2545E+00   4.6472E-04  0.0038
   1.2545E+00   1.2851E+00   4.5702E-04  0.0038
   1.2851E+00   1.3163E+00   4.4816E-04  0.0038
   1.3163E+00   1.3484E+00   4.4582E-04  0.0037
   1.3484E+00   1.3812E+00   4.3740E-04  0.0037
   1.3812E+00   1.4148E+00   4.3591E-04  0.0037
   1.4148E+00   1.4492E+00   4.2577E-04  0.0037
   1.4492E+00   1.4845E+00   4.1451E-04  0.0037
   1.4845E+00   1.5206E+00   4.0008E-04  0.0037
   1.5206E+00   1.5576E+00   3.8788E-04  0.0037
   1.5576E+00   1.5955E+00   3.7859E-04  0.0037
   1.5955E+00   1.6343E+00   3.6698E-04  0.0038
   1.6343E+00   1.6741E+00   3.6041E-04  0.0037
   1.6741E+00   1.7148E+00   3.5461E-04  0.0037
   1.7148E+00   1.7565E+00   3.4340E-04  0.0037
   1.7565E+00   1.7992E+00   3.2895E-04  0.0038
   1.7992E+00   1.8430E+00   3.1936E-04  0.0038
   1.8430E+00   1.8879E+00   3.0870E-04  0.0038
   1.8879E+00   1.9338E+00   2.9802E-04  0.0038
   1.9338E+00   1.9808E+00   2.8784E-04  0.0038
   1.9808E+00   2.0290E+00   2.7837E-04  0.0039
   2.0290E+00   2.0784E+00   2.6869E-04  0.0039
   2.0784E+00   2.1290E+00   2.5663E-04  0.0039
   2.1290E+00   2.1808E+00   2.4506E-04  0.0040
   2.1808E+00   2.2338E+00   2.3584E-04  0.0040
   2.2338E+00   2.2882E+00   2.2365E-04  0.0041
   2.2882E+00   2.3439E+00   2.1500E-04  0.0041
   2.3439E+00   2.4009E+00   2.0568E-04  0.0041
   2.4009E+00   2.4593E+00   1.9799E-04  0.0042
   2.4593E+00   2.5191E+00   1.8801E-04  0.0042
   2.5191E+00   2.5804E+00   1.7745E-04  0.0043
   2.5804E+00   2.6432E+00   1.6759E-04  0.0044
   2.6432E+00   2.7075E+00   1.5836E-04  0.0044
   2.7075E+00   2.7734E+00   1.5059E-04  0.0045
   2.7734E+00   2.8409E+00   1.4184E-04  0.0046
   2.8409E+00   2.9100E+00   1.3471E-04  0.0046
   2.9100E+00   2.9808E+00   1.2761E-04  0.0047
   2.9808E+00   3.0533E+00   1.2112E-04  0.0048
   3.0533E+00   3.1276E+00   1.1288E-04  0.0049
   3.1276E+00   3.2037E+00   1.0584E-04  0.0050
   3.2037E+00   3.2817E+00   9.9501E-05  0.0051
   3.2817E+00   3.3615E+00   9.3785E-05  0.0052
   3.3615E+00   3.4433E+00   8.6330E-05  0.0053
   3.4433E+00   3.5271E+00   8.0854E-05  0.0054
   3.5271E+00   3.6129E+00   7.6232E-05  0.0055
   3.6129E+00   3.7008E+00   7.0442E-05  0.0057
   3.7008E+00   3.7908E+00   6.6248E-05  0.0058
   3.7908E+00   3.8831E+00   6.1877E-05  0.0059
   3.8831E+00   3.9776E+00   5.6724E-05  0.0061
   3.9776E+00   4.0743E+00   5.2767E-05  0.0063
   4.0743E+00   4.1735E+00   4.8554E-05  0.0064
   4.1735E+00   4.2750E+00   4.4731E-05  0.0066
   4.2750E+00   4.3790E+00   4.1144E-05  0.0068
   4.3790E+00   4.4856E+00   3.7717E-05  0.0071
   4.4856E+00   4.5947E+00   3.4892E-05  0.0072
   4.5947E+00   4.7065E+00   3.2315E-05  0.0074
   4.7065E+00   4.8210E+00   2.9373E-05  0.0077
   4.8210E+00   4.9383E+00   2.7427E-05  0.0079
   4.9383E+00   5.0585E+00   2.5269E-05  0.0081
   5.0585E+00   5.1815E+00   2.3491E-05  0.0083
   5.1815E+00   5.3076E+00   2.1466E-05  0.0086
   5.3076E+00   5.4368E+00   1.9534E-05  0.0089
   5.4368E+00   5.5690E+00   1.7826E-05  0.0092
   5.5690E+00   5.7045E+00   1.6486E-05  0.0095
   5.7045E+00   5.8433E+00   1.5276E-05  0.0097
   5.8433E+00   5.9855E+00   1.4112E-05  0.0100
   5.9855E+00   6.1311E+00   1.2954E-05  0.0103
   6.1311E+00   6.2803E+00   1.2023E-05  0.0106
   6.2803E+00   6.4331E+00   1.0990E-05  0.0109
   6.4331E+00   6.5896E+00   1.0198E-05  0.0112
   6.5896E+00   6.7500E+00   9.4275E-06  0.0115
   6.7500E+00   6.9142E+00   8.8079E-06  0.0118
   6.9142E+00   7.0824E+00   8.3674E-06  0.0119
   7.0824E+00   7.2548E+00   7.7069E-06  0.0123
   7.2548E+00   7.4313E+00   7.3329E-06  0.0124
   7.4313E+00   7.6121E+00   6.7670E-06  0.0128
   7.6121E+00   7.7973E+00   6.3847E-06  0.0130
   7.7973E+00   7.9870E+00   5.9444E-06  0.0133
   7.9870E+00   8.1813E+00   5.6220E-06  0.0135
   8.1813E+00   8.3804E+00   5.4255E-06  0.0136
   8.3804E+00   8.5843E+00   5.1007E-06  0.0139
   8.5843E+00   8.7931E+00   4.7541E-06  0.0142
   8.7931E+00   9.0071E+00   4.4484E-06  0.0145
   9.0071E+00   9.2262E+00   4.1866E-06  0.0148
   9.2262E+00   9.4507E+00   4.0516E-06  0.0148
   9.4507E+00   9.6807E+00   3.6826E-06  0.0154
   9.6807E+00   9.9162E+00   3.6402E-06  0.0153
   9.9162E+00   1.0157E+01   3.3046E-06  0.0158
   1.0157E+01   1.0405E+01   3.1642E-06  0.0160
   1.0405E+01   1.0658E+01   2.9867E-06  0.0163
   1.0658E+01   1.0917E+01   2.8005E-06  0.0166
   1.0917E+01   1.1183E+01   2.6014E-06  0.0170
   1.1183E+01   1.1455E+01   2.4426E-06  0.0173
   1.1455E+01   1.1733E+01   2.3329E-06  0.0175
   1.1733E+01   1.2019E+01   2.0362E-06  0.0185
   1.2019E+01   1.2311E+01   2.0159E-06  0.0184
   1.2311E+01   1.2611E+01   1.8111E-06  0.0192
   1.2611E+01   1.2918E+01   1.6918E-06  0.0196
   1.2918E+01   1.3232E+01   1.6599E-06  0.0196
   1.3232E+01   1.3554E+01   1.4853E-06  0.0204
   1.3554E+01   1.3884E+01   1.3197E-06  0.0214
   1.3884E+01   1.4222E+01   1.2306E-06  0.0219
   1.4222E+01   1.4568E+01   1.1196E-06  0.0227
   1.4568E+01   1.4922E+01   1.0196E-06  0.0235
   1.4922E+01   1.5285E+01   9.1554E-07  0.0245
   1.5285E+01   1.5657E+01   8.7416E-07  0.0248
   1.5657E+01   1.6038E+01   7.3291E-07  0.0267
   1.6038E+01   1.6428E+01   7.1037E-07  0.0268
   1.6428E+01   1.6828E+01   5.9968E-07  0.0288
   1.6828E+01   1.7237E+01   5.4099E-07  0.0300
   1.7237E+01   1.7657E+01   4.8522E-07  0.0313
   1.7657E+01   1.8086E+01   4.3342E-07  0.0327
   1.8086E+01   1.8526E+01   3.8200E-07  0.0344
   1.8526E+01   1.8977E+01   3.1946E-07  0.0372
   1.8977E+01   1.9439E+01   2.8307E-07  0.0390
   1.9439E+01   1.9912E+01   2.4399E-07  0.0416
   1.9912E+01   2.0396E+01   1.3086E-07  0.0562
   2.0396E+01   2.0893E+01   1.1849E-07  0.0583
   2.0893E+01   2.1401E+01   8.8525E-08  0.0667
   2.1401E+01   2.1922E+01   7.7204E-08  0.0705
   2.1922E+01   2.2455E+01   6.4120E-08  0.0765
   2.2455E+01   2.3001E+01   5.4178E-08  0.0822
   2.3001E+01   2.3561E+01   3.5737E-08  0.1000
   2.3561E+01   2.4134E+01   2.3026E-08  0.1231
   2.4134E+01   2.4721E+01   1.8392E-08  0.1361
   2.4721E+01   2.5323E+01   1.1970E-08  0.1667
   2.5323E+01   2.5939E+01   7.4660E-09  0.2085
   2.5939E+01   2.6570E+01   4.7535E-09  0.2582
   2.6570E+01   2.7217E+01   1.8562E-09  0.4082
   2.7217E+01   2.7879E+01   0.0000E+00  0.0000
   2.7879E+01   2.8557E+01   0.0000E+00  0.0000
   2.8557E+01   2.9252E+01   0.0000E+00  0.0000
   2.9252E+01   2.9964E+01   0.0000E+00  0.0000
   2.9964E+01   3.0693E+01   0.0000E+00  0.0000
   3.0693E+01   3.1440E+01   0.0000E+00  0.0000
   3.1440E+01   3.2205E+01   0.0000E+00  0.0000
   3.2205E+01   3.2988E+01   0.0000E+00  0.0000
   3.2988E+01   3.3791E+01   0.0000E+00  0.0000
   3.3791E+01   3.4613E+01   0.0000E+00  0.0000
   3.4613E+01   3.5455E+01   0.0000E+00  0.0000
   3.5455E+01   3.6318E+01   0.0000E+00  0.0000
   3.6318E+01   3.7201E+01   0.0000E+00  0.0000
   3.7201E+01   3.8106E+01   0.0000E+00  0.0000
   3.8106E+01   3.9034E+01   0.0000E+00  0.0000
   3.9034E+01   3.9983E+01   0.0000E+00  0.0000
   3.9983E+01   4.0956E+01   0.0000E+00  0.0000
   4.0956E+01   4.1953E+01   0.0000E+00  0.0000
   4.1953E+01   4.2973E+01   0.0000E+00  0.0000
   4.2973E+01   4.4019E+01   0.0000E+00  0.0000
   4.4019E+01   4.5090E+01   0.0000E+00  0.0000
   4.5090E+01   4.6187E+01   0.0000E+00  0.0000
   4.6187E+01   4.7311E+01   0.0000E+00  0.0000
   4.7311E+01   4.8462E+01   0.0000E+00  0.0000
   4.8462E+01   4.9641E+01   0.0000E+00  0.0000
   4.9641E+01   5.0849E+01   0.0000E+00  0.0000
   5.0849E+01   5.2086E+01   0.0000E+00  0.0000
   5.2086E+01   5.3353E+01   0.0000E+00  0.0000
   5.3353E+01   5.4651E+01   0.0000E+00  0.0000
   5.4651E+01   5.5981E+01   0.0000E+00  0.0000
   5.5981E+01   5.7343E+01   0.0000E+00  0.0000
   5.7343E+01   5.8738E+01   0.0000E+00  0.0000
   5.8738E+01   6.0168E+01   0.0000E+00  0.0000
   6.0168E+01   6.1632E+01   0.0000E+00  0.0000
   6.1632E+01   6.3131E+01   0.0000E+00  0.0000
   6.3131E+01   6.4667E+01   0.0000E+00  0.0000
   6.4667E+01   6.6240E+01   0.0000E+00  0.0000
   6.6240E+01   6.7852E+01   0.0000E+00  0.0000
   6.7852E+01   6.9503E+01   0.0000E+00  0.0000
   6.9503E+01   7.1194E+01   0.0000E+00  0.0000
   7.1194E+01   7.2926E+01   0.0000E+00  0.0000
   7.2926E+01   7.4701E+01   0.0000E+00  0.0000
   7.4701E+01   7.6518E+01   0.0000E+00  0.0000
   7.6518E+01   7.8380E+01   0.0000E+00  0.0000
   7.8380E+01   8.0287E+01   0.0000E+00  0.0000
   8.0287E+01   8.2240E+01   0.0000E+00  0.0000
   8.2240E+01   8.4241E+01   0.0000E+00  0.0000
   8.4241E+01   8.6291E+01   0.0000E+00  0.0000
   8.6291E+01   8.8391E+01   0.0000E+00  0.0000
   8.8391E+01   9.0541E+01   0.0000E+00  0.0000
   9.0541E+01   9.2744E+01   0.0000E+00  0.0000
   9.2744E+01   9.5001E+01   0.0000E+00  0.0000
   9.5001E+01   9.7312E+01   0.0000E+00  0.0000
   9.7312E+01   9.9680E+01   0.0000E+00  0.0000
   9.9680E+01   1.0211E+02   0.0000E+00  0.0000
   1.0211E+02   1.0459E+02   0.0000E+00  0.0000
   1.0459E+02   1.0713E+02   0.0000E+00  0.0000
   1.0713E+02   1.0974E+02   0.0000E+00  0.0000
   1.0974E+02   1.1241E+02   0.0000E+00  0.0000
   1.1241E+02   1.1515E+02   0.0000E+00  0.0000
   1.1515E+02   1.1795E+02   0.0000E+00  0.0000
   1.1795E+02   1.2082E+02   0.0000E+00  0.0000
   1.2082E+02   1.2376E+02   0.0000E+00  0.0000
   1.2376E+02   1.2677E+02   0.0000E+00  0.0000
   1.2677E+02   1.2985E+02   0.0000E+00  0.0000
   1.2985E+02   1.3301E+02   0.0000E+00  0.0000
   1.3301E+02   1.3625E+02   0.0000E+00  0.0000
   1.3625E+02   1.3956E+02   0.0000E+00  0.0000
   1.3956E+02   1.4296E+02   0.0000E+00  0.0000
   1.4296E+02   1.4644E+02   0.0000E+00  0.0000
   1.4644E+02   1.5000E+02   0.0000E+00  0.0000

#   sum over                 1.0940E-05
'no. =    1   reg = 116 - 216'
msuc: {\huge [t-cross] in region mesh}
msdr: {\it plotted by \ANGEL \version}
msdl: {\it calculated by \PHITS  3.26}
wt: s(0.7)
\vspace{-3}
  region surface crossing
  area  &=&   1.0000E+00 [cm^2]
e:
 
# Information for Restart Calculation
# This calculation was newly started
# istdev =  2 # 1:Batch variance, 2:History variance
# resc2  = 5.00000000000000000E+09 # Total source weight or Total source weight / maxcas
# resc3  = 5.00000000000000000E+09 # Total history number or Total batch number
# maxcas =   100000000 # History / Batch, only used for istdev=1
# bitrseed = 0110100000100010111000001110001111001110100100011111101000111001 # bit data of rseed
