[ T-Cross ]
    title = [t-cross] in region mesh
     mesh =  reg            # mesh type is region-wise
      reg =    1            # number of crossing regions
      non     r-from    r-to       area
      1       119       219        1.000000    
   e-type =    3            # e-mesh is log given by emin, emax and ne
     emin =  1.0000000E-02  # minimum value of e-mesh points
     emax =   150.0000      # maximum value of e-mesh points
#    edel =  2.4039514E-02  # mesh width of e-mesh points
       ne =    400          # number of e-mesh points
#    data = ( e(i), i = 1, ne + 1 )
#           1.00000E-02  1.02433E-02  1.04925E-02  1.07478E-02  1.10093E-02
#           1.12772E-02  1.15516E-02  1.18326E-02  1.21205E-02  1.24154E-02
#           1.27175E-02  1.30269E-02  1.33439E-02  1.36686E-02  1.40011E-02
#           1.43418E-02  1.46907E-02  1.50482E-02  1.54143E-02  1.57894E-02
#           1.61735E-02  1.65670E-02  1.69701E-02  1.73830E-02  1.78060E-02
#           1.82392E-02  1.86830E-02  1.91375E-02  1.96032E-02  2.00801E-02
#           2.05687E-02  2.10692E-02  2.15818E-02  2.21069E-02  2.26448E-02
#           2.31957E-02  2.37601E-02  2.43382E-02  2.49304E-02  2.55369E-02
#           2.61583E-02  2.67947E-02  2.74467E-02  2.81145E-02  2.87985E-02
#           2.94992E-02  3.02169E-02  3.09521E-02  3.17052E-02  3.24766E-02
#           3.32668E-02  3.40762E-02  3.49053E-02  3.57546E-02  3.66246E-02
#           3.75157E-02  3.84284E-02  3.93634E-02  4.03212E-02  4.13022E-02
#           4.23071E-02  4.33365E-02  4.43909E-02  4.54710E-02  4.65773E-02
#           4.77106E-02  4.88714E-02  5.00605E-02  5.12785E-02  5.25262E-02
#           5.38042E-02  5.51133E-02  5.64542E-02  5.78278E-02  5.92348E-02
#           6.06760E-02  6.21523E-02  6.36645E-02  6.52135E-02  6.68002E-02
#           6.84255E-02  7.00904E-02  7.17957E-02  7.35426E-02  7.53319E-02
#           7.71648E-02  7.90423E-02  8.09655E-02  8.29354E-02  8.49533E-02
#           8.70203E-02  8.91376E-02  9.13064E-02  9.35279E-02  9.58035E-02
#           9.81345E-02  1.00522E-01  1.02968E-01  1.05473E-01  1.08040E-01
#           1.10668E-01  1.13361E-01  1.16119E-01  1.18944E-01  1.21838E-01
#           1.24803E-01  1.27839E-01  1.30950E-01  1.34136E-01  1.37399E-01
#           1.40742E-01  1.44167E-01  1.47675E-01  1.51268E-01  1.54948E-01
#           1.58718E-01  1.62580E-01  1.66535E-01  1.70587E-01  1.74738E-01
#           1.78989E-01  1.83344E-01  1.87805E-01  1.92375E-01  1.97055E-01
#           2.01850E-01  2.06761E-01  2.11792E-01  2.16945E-01  2.22223E-01
#           2.27630E-01  2.33169E-01  2.38842E-01  2.44653E-01  2.50605E-01
#           2.56703E-01  2.62949E-01  2.69346E-01  2.75900E-01  2.82613E-01
#           2.89489E-01  2.96532E-01  3.03747E-01  3.11138E-01  3.18708E-01
#           3.26462E-01  3.34405E-01  3.42542E-01  3.50876E-01  3.59413E-01
#           3.68158E-01  3.77116E-01  3.86291E-01  3.95690E-01  4.05317E-01
#           4.15179E-01  4.25281E-01  4.35628E-01  4.46227E-01  4.57084E-01
#           4.68205E-01  4.79597E-01  4.91266E-01  5.03219E-01  5.15463E-01
#           5.28005E-01  5.40851E-01  5.54011E-01  5.67490E-01  5.81298E-01
#           5.95441E-01  6.09929E-01  6.24769E-01  6.39970E-01  6.55541E-01
#           6.71491E-01  6.87828E-01  7.04564E-01  7.21706E-01  7.39266E-01
#           7.57253E-01  7.75678E-01  7.94551E-01  8.13883E-01  8.33685E-01
#           8.53969E-01  8.74747E-01  8.96030E-01  9.17831E-01  9.40163E-01
#           9.63038E-01  9.86469E-01  1.01047E+00  1.03506E+00  1.06024E+00
#           1.08604E+00  1.11246E+00  1.13953E+00  1.16725E+00  1.19565E+00
#           1.22474E+00  1.25454E+00  1.28507E+00  1.31633E+00  1.34836E+00
#           1.38117E+00  1.41477E+00  1.44920E+00  1.48446E+00  1.52057E+00
#           1.55757E+00  1.59547E+00  1.63429E+00  1.67405E+00  1.71478E+00
#           1.75650E+00  1.79924E+00  1.84302E+00  1.88786E+00  1.93379E+00
#           1.98084E+00  2.02904E+00  2.07841E+00  2.12898E+00  2.18078E+00
#           2.23384E+00  2.28819E+00  2.34386E+00  2.40089E+00  2.45930E+00
#           2.51914E+00  2.58043E+00  2.64322E+00  2.70753E+00  2.77341E+00
#           2.84088E+00  2.91001E+00  2.98081E+00  3.05333E+00  3.12762E+00
#           3.20372E+00  3.28167E+00  3.36152E+00  3.44330E+00  3.52708E+00
#           3.61290E+00  3.70080E+00  3.79085E+00  3.88308E+00  3.97756E+00
#           4.07434E+00  4.17347E+00  4.27501E+00  4.37903E+00  4.48557E+00
#           4.59471E+00  4.70650E+00  4.82102E+00  4.93832E+00  5.05847E+00
#           5.18155E+00  5.30762E+00  5.43676E+00  5.56904E+00  5.70453E+00
#           5.84333E+00  5.98550E+00  6.13114E+00  6.28031E+00  6.43312E+00
#           6.58964E+00  6.74997E+00  6.91420E+00  7.08243E+00  7.25475E+00
#           7.43126E+00  7.61207E+00  7.79728E+00  7.98700E+00  8.18133E+00
#           8.38038E+00  8.58428E+00  8.79315E+00  9.00709E+00  9.22624E+00
#           9.45072E+00  9.68067E+00  9.91620E+00  1.01575E+01  1.04046E+01
#           1.06578E+01  1.09171E+01  1.11827E+01  1.14548E+01  1.17335E+01
#           1.20190E+01  1.23114E+01  1.26109E+01  1.29178E+01  1.32321E+01
#           1.35540E+01  1.38838E+01  1.42216E+01  1.45676E+01  1.49221E+01
#           1.52851E+01  1.56570E+01  1.60380E+01  1.64282E+01  1.68279E+01
#           1.72374E+01  1.76568E+01  1.80864E+01  1.85264E+01  1.89772E+01
#           1.94389E+01  1.99119E+01  2.03963E+01  2.08926E+01  2.14009E+01
#           2.19216E+01  2.24550E+01  2.30014E+01  2.35610E+01  2.41343E+01
#           2.47215E+01  2.53230E+01  2.59391E+01  2.65702E+01  2.72167E+01
#           2.78789E+01  2.85572E+01  2.92520E+01  2.99637E+01  3.06928E+01
#           3.14396E+01  3.22045E+01  3.29881E+01  3.37907E+01  3.46128E+01
#           3.54550E+01  3.63177E+01  3.72013E+01  3.81064E+01  3.90336E+01
#           3.99833E+01  4.09561E+01  4.19526E+01  4.29734E+01  4.40189E+01
#           4.50900E+01  4.61870E+01  4.73108E+01  4.84619E+01  4.96410E+01
#           5.08488E+01  5.20860E+01  5.33533E+01  5.46514E+01  5.59812E+01
#           5.73432E+01  5.87384E+01  6.01676E+01  6.16315E+01  6.31311E+01
#           6.46671E+01  6.62405E+01  6.78522E+01  6.95031E+01  7.11941E+01
#           7.29263E+01  7.47007E+01  7.65182E+01  7.83800E+01  8.02870E+01
#           8.22405E+01  8.42414E+01  8.62911E+01  8.83906E+01  9.05412E+01
#           9.27442E+01  9.50007E+01  9.73122E+01  9.96799E+01  1.02105E+02
#           1.04589E+02  1.07134E+02  1.09741E+02  1.12411E+02  1.15146E+02
#           1.17948E+02  1.20817E+02  1.23757E+02  1.26768E+02  1.29852E+02
#           1.33012E+02  1.36248E+02  1.39563E+02  1.42959E+02  1.46437E+02
#           1.50000E+02
     unit =    2            # unit is [1/cm^2/(MeV/n)/source]
     axis =  eng            # axis of output
     file = detector-20.out  # file name of output for the above axis
   output = f-curr          # surface crossing forward current spectrum
     part =  neutron  
# kf/name :  2112     
#    used :        main (  %)        temp (  %)       total (  %)
#  memory :         414 (  0)           0 (  0)         414 (  0)

#------------------------------------------------------------------------------
#newpage:
#   no. =    1   reg = 119 - 219

x: Energy [MeV/n]
y:  F-Curr [1/cm^2/(MeV/n)/source]         
p: xlog ylog afac(0.8) form(0.9)
h: n            x            y(neutron ),hh0l   n 
#  e-lower      e-upper      neutron     r.err 
   1.0000E-02   1.0243E-02   6.9986E-04  0.0647
   1.0243E-02   1.0493E-02   7.3027E-04  0.0625
   1.0493E-02   1.0748E-02   7.1707E-04  0.0624
   1.0748E-02   1.1009E-02   6.9602E-04  0.0625
   1.1009E-02   1.1277E-02   7.6521E-04  0.0589
   1.1277E-02   1.1552E-02   6.4964E-04  0.0632
   1.1552E-02   1.1833E-02   6.6807E-04  0.0616
   1.1833E-02   1.2121E-02   5.8657E-04  0.0650
   1.2121E-02   1.2415E-02   6.2931E-04  0.0619
   1.2415E-02   1.2718E-02   6.4434E-04  0.0605
   1.2718E-02   1.3027E-02   5.7323E-04  0.0633
   1.3027E-02   1.3344E-02   5.8514E-04  0.0620
   1.3344E-02   1.3669E-02   5.3523E-04  0.0640
   1.3669E-02   1.4001E-02   5.8909E-04  0.0602
   1.4001E-02   1.4342E-02   5.5395E-04  0.0614
   1.4342E-02   1.4691E-02   5.3247E-04  0.0619
   1.4691E-02   1.5048E-02   5.8453E-04  0.0583
   1.5048E-02   1.5414E-02   4.8940E-04  0.0630
   1.5414E-02   1.5789E-02   4.7990E-04  0.0629
   1.5789E-02   1.6174E-02   4.8505E-04  0.0618
   1.6174E-02   1.6567E-02   4.7056E-04  0.0620
   1.6567E-02   1.6970E-02   4.4618E-04  0.0628
   1.6970E-02   1.7383E-02   4.7677E-04  0.0601
   1.7383E-02   1.7806E-02   4.3991E-04  0.0617
   1.7806E-02   1.8239E-02   4.2374E-04  0.0622
   1.8239E-02   1.8683E-02   4.2465E-04  0.0614
   1.8683E-02   1.9138E-02   3.9788E-04  0.0628
   1.9138E-02   1.9603E-02   4.3216E-04  0.0595
   1.9603E-02   2.0080E-02   4.3387E-04  0.0587
   2.0080E-02   2.0569E-02   3.9671E-04  0.0606
   2.0569E-02   2.1069E-02   4.0634E-04  0.0592
   2.1069E-02   2.1582E-02   4.3226E-04  0.0566
   2.1582E-02   2.2107E-02   3.8355E-04  0.0595
   2.2107E-02   2.2645E-02   3.8718E-04  0.0584
   2.2645E-02   2.3196E-02   3.2448E-04  0.0630
   2.3196E-02   2.3760E-02   3.5541E-04  0.0596
   2.3760E-02   2.4338E-02   3.3981E-04  0.0602
   2.4338E-02   2.4930E-02   3.3915E-04  0.0595
   2.4930E-02   2.5537E-02   3.4730E-04  0.0581
   2.5537E-02   2.6158E-02   2.9605E-04  0.0622
   2.6158E-02   2.6795E-02   2.9738E-04  0.0613
   2.6795E-02   2.7447E-02   2.9214E-04  0.0611
   2.7447E-02   2.8114E-02   2.6666E-04  0.0633
   2.8114E-02   2.8799E-02   2.8418E-04  0.0605
   2.8799E-02   2.9499E-02   2.8479E-04  0.0598
   2.9499E-02   3.0217E-02   2.6571E-04  0.0610
   3.0217E-02   3.0952E-02   2.9318E-04  0.0574
   3.0952E-02   3.1705E-02   2.6888E-04  0.0593
   3.1705E-02   3.2477E-02   2.7371E-04  0.0580
   3.2477E-02   3.3267E-02   2.3316E-04  0.0621
   3.3267E-02   3.4076E-02   2.3801E-04  0.0607
   3.4076E-02   3.4905E-02   2.5515E-04  0.0580
   3.4905E-02   3.5755E-02   2.4563E-04  0.0584
   3.5755E-02   3.6625E-02   2.5252E-04  0.0569
   3.6625E-02   3.7516E-02   2.3132E-04  0.0587
   3.7516E-02   3.8428E-02   2.2084E-04  0.0594
   3.8428E-02   3.9363E-02   2.0298E-04  0.0612
   3.9363E-02   4.0321E-02   2.2765E-04  0.0572
   4.0321E-02   4.1302E-02   2.0699E-04  0.0592
   4.1302E-02   4.2307E-02   2.1491E-04  0.0575
   4.2307E-02   4.3337E-02   2.1805E-04  0.0563
   4.3337E-02   4.4391E-02   1.9979E-04  0.0581
   4.4391E-02   4.5471E-02   1.7977E-04  0.0605
   4.5471E-02   4.6577E-02   1.8450E-04  0.0590
   4.6577E-02   4.7711E-02   1.9128E-04  0.0573
   4.7711E-02   4.8871E-02   1.9552E-04  0.0560
   4.8871E-02   5.0061E-02   1.6993E-04  0.0594
   5.0061E-02   5.1279E-02   1.6888E-04  0.0588
   5.1279E-02   5.2526E-02   1.7198E-04  0.0576
   5.2526E-02   5.3804E-02   1.7791E-04  0.0560
   5.3804E-02   5.5113E-02   1.6595E-04  0.0572
   5.5113E-02   5.6454E-02   1.5588E-04  0.0583
   5.6454E-02   5.7828E-02   1.7078E-04  0.0551
   5.7828E-02   5.9235E-02   1.6371E-04  0.0556
   5.9235E-02   6.0676E-02   1.4075E-04  0.0592
   6.0676E-02   6.2152E-02   1.4984E-04  0.0567
   6.2152E-02   6.3665E-02   1.4993E-04  0.0559
   6.3665E-02   6.5214E-02   1.5553E-04  0.0543
   6.5214E-02   6.6800E-02   1.3692E-04  0.0572
   6.6800E-02   6.8426E-02   1.3028E-04  0.0580
   6.8426E-02   7.0090E-02   1.3418E-04  0.0564
   7.0090E-02   7.1796E-02   1.2298E-04  0.0582
   7.1796E-02   7.3543E-02   1.1331E-04  0.0600
   7.3543E-02   7.5332E-02   1.2763E-04  0.0558
   7.5332E-02   7.7165E-02   1.3859E-04  0.0529
   7.7165E-02   7.9042E-02   1.3100E-04  0.0538
   7.9042E-02   8.0965E-02   1.2562E-04  0.0543
   8.0965E-02   8.2935E-02   1.1389E-04  0.0563
   8.2935E-02   8.4953E-02   1.1250E-04  0.0560
   8.4953E-02   8.7020E-02   1.1678E-04  0.0543
   8.7020E-02   8.9138E-02   1.0732E-04  0.0560
   8.9138E-02   9.1306E-02   9.4881E-05  0.0588
   9.1306E-02   9.3528E-02   9.7104E-05  0.0574
   9.3528E-02   9.5804E-02   1.0424E-04  0.0547
   9.5804E-02   9.8134E-02   1.0284E-04  0.0545
   9.8134E-02   1.0052E-01   1.0638E-04  0.0529
   1.0052E-01   1.0297E-01   1.0813E-04  0.0519
   1.0297E-01   1.0547E-01   1.0979E-04  0.0508
   1.0547E-01   1.0804E-01   1.0846E-04  0.0505
   1.0804E-01   1.1067E-01   1.1750E-04  0.0480
   1.1067E-01   1.1336E-01   1.2104E-04  0.0467
   1.1336E-01   1.1612E-01   1.1742E-04  0.0468
   1.1612E-01   1.1894E-01   1.1479E-04  0.0468
   1.1894E-01   1.2184E-01   1.2522E-04  0.0443
   1.2184E-01   1.2480E-01   1.2559E-04  0.0437
   1.2480E-01   1.2784E-01   1.3534E-04  0.0416
   1.2784E-01   1.3095E-01   1.4368E-04  0.0399
   1.3095E-01   1.3414E-01   1.5205E-04  0.0383
   1.3414E-01   1.3740E-01   1.4865E-04  0.0383
   1.3740E-01   1.4074E-01   1.5333E-04  0.0372
   1.4074E-01   1.4417E-01   1.6671E-04  0.0353
   1.4417E-01   1.4767E-01   1.5425E-04  0.0362
   1.4767E-01   1.5127E-01   1.7532E-04  0.0336
   1.5127E-01   1.5495E-01   1.7274E-04  0.0334
   1.5495E-01   1.5872E-01   1.7362E-04  0.0329
   1.5872E-01   1.6258E-01   1.7089E-04  0.0328
   1.6258E-01   1.6654E-01   1.8890E-04  0.0308
   1.6654E-01   1.7059E-01   1.8921E-04  0.0304
   1.7059E-01   1.7474E-01   1.9720E-04  0.0295
   1.7474E-01   1.7899E-01   2.0029E-04  0.0289
   1.7899E-01   1.8334E-01   2.0538E-04  0.0282
   1.8334E-01   1.8781E-01   2.1340E-04  0.0273
   1.8781E-01   1.9237E-01   2.2330E-04  0.0264
   1.9237E-01   1.9706E-01   2.3098E-04  0.0256
   1.9706E-01   2.0185E-01   2.2847E-04  0.0255
   2.0185E-01   2.0676E-01   2.2700E-04  0.0252
   2.0676E-01   2.1179E-01   2.3477E-04  0.0245
   2.1179E-01   2.1694E-01   2.5401E-04  0.0233
   2.1694E-01   2.2222E-01   2.5237E-04  0.0231
   2.2222E-01   2.2763E-01   2.6125E-04  0.0224
   2.2763E-01   2.3317E-01   2.6083E-04  0.0222
   2.3317E-01   2.3884E-01   2.8762E-04  0.0209
   2.3884E-01   2.4465E-01   2.7177E-04  0.0212
   2.4465E-01   2.5061E-01   2.7504E-04  0.0208
   2.5061E-01   2.5670E-01   2.8584E-04  0.0202
   2.5670E-01   2.6295E-01   2.9586E-04  0.0196
   2.6295E-01   2.6935E-01   2.9756E-04  0.0193
   2.6935E-01   2.7590E-01   2.9388E-04  0.0192
   2.7590E-01   2.8261E-01   3.1331E-04  0.0184
   2.8261E-01   2.8949E-01   3.0889E-04  0.0183
   2.8949E-01   2.9653E-01   3.1709E-04  0.0178
   2.9653E-01   3.0375E-01   3.2910E-04  0.0173
   3.0375E-01   3.1114E-01   3.2544E-04  0.0172
   3.1114E-01   3.1871E-01   3.3118E-04  0.0168
   3.1871E-01   3.2646E-01   3.3794E-04  0.0164
   3.2646E-01   3.3441E-01   3.3937E-04  0.0162
   3.3441E-01   3.4254E-01   3.4800E-04  0.0158
   3.4254E-01   3.5088E-01   3.5371E-04  0.0155
   3.5088E-01   3.5941E-01   3.6063E-04  0.0152
   3.5941E-01   3.6816E-01   3.6894E-04  0.0148
   3.6816E-01   3.7712E-01   3.6200E-04  0.0148
   3.7712E-01   3.8629E-01   3.6882E-04  0.0145
   3.8629E-01   3.9569E-01   3.7895E-04  0.0141
   3.9569E-01   4.0532E-01   3.8521E-04  0.0138
   4.0532E-01   4.1518E-01   3.9406E-04  0.0135
   4.1518E-01   4.2528E-01   3.8452E-04  0.0135
   4.2528E-01   4.3563E-01   3.8748E-04  0.0133
   4.3563E-01   4.4623E-01   3.9655E-04  0.0130
   4.4623E-01   4.5708E-01   4.0180E-04  0.0127
   4.5708E-01   4.6821E-01   3.8654E-04  0.0128
   4.6821E-01   4.7960E-01   4.0217E-04  0.0124
   4.7960E-01   4.9127E-01   4.0116E-04  0.0123
   4.9127E-01   5.0322E-01   4.1272E-04  0.0120
   5.0322E-01   5.1546E-01   4.0869E-04  0.0119
   5.1546E-01   5.2800E-01   4.0681E-04  0.0118
   5.2800E-01   5.4085E-01   4.1187E-04  0.0116
   5.4085E-01   5.5401E-01   4.1075E-04  0.0114
   5.5401E-01   5.6749E-01   4.1388E-04  0.0113
   5.6749E-01   5.8130E-01   4.1458E-04  0.0111
   5.8130E-01   5.9544E-01   4.2016E-04  0.0109
   5.9544E-01   6.0993E-01   4.1544E-04  0.0108
   6.0993E-01   6.2477E-01   4.1647E-04  0.0107
   6.2477E-01   6.3997E-01   4.2181E-04  0.0105
   6.3997E-01   6.5554E-01   4.0884E-04  0.0105
   6.5554E-01   6.7149E-01   4.0522E-04  0.0105
   6.7149E-01   6.8783E-01   4.0970E-04  0.0103
   6.8783E-01   7.0456E-01   4.0608E-04  0.0102
   7.0456E-01   7.2171E-01   4.0663E-04  0.0101
   7.2171E-01   7.3927E-01   3.8800E-04  0.0102
   7.3927E-01   7.5725E-01   3.9550E-04  0.0100
   7.5725E-01   7.7568E-01   3.9158E-04  0.0099
   7.7568E-01   7.9455E-01   3.8607E-04  0.0098
   7.9455E-01   8.1388E-01   3.7304E-04  0.0099
   8.1388E-01   8.3368E-01   3.6659E-04  0.0099
   8.3368E-01   8.5397E-01   3.6024E-04  0.0098
   8.5397E-01   8.7475E-01   3.5626E-04  0.0098
   8.7475E-01   8.9603E-01   3.4178E-04  0.0098
   8.9603E-01   9.1783E-01   3.3435E-04  0.0098
   9.1783E-01   9.4016E-01   3.2606E-04  0.0098
   9.4016E-01   9.6304E-01   3.0838E-04  0.0100
   9.6304E-01   9.8647E-01   3.0743E-04  0.0099
   9.8647E-01   1.0105E+00   2.8968E-04  0.0101
   1.0105E+00   1.0351E+00   2.8479E-04  0.0100
   1.0351E+00   1.0602E+00   2.8247E-04  0.0099
   1.0602E+00   1.0860E+00   2.8079E-04  0.0098
   1.0860E+00   1.1125E+00   2.7982E-04  0.0097
   1.1125E+00   1.1395E+00   2.7725E-04  0.0097
   1.1395E+00   1.1673E+00   2.7700E-04  0.0095
   1.1673E+00   1.1957E+00   2.7893E-04  0.0094
   1.1957E+00   1.2247E+00   2.8144E-04  0.0092
   1.2247E+00   1.2545E+00   2.7779E-04  0.0092
   1.2545E+00   1.2851E+00   2.7605E-04  0.0091
   1.2851E+00   1.3163E+00   2.7631E-04  0.0090
   1.3163E+00   1.3484E+00   2.7192E-04  0.0089
   1.3484E+00   1.3812E+00   2.7028E-04  0.0088
   1.3812E+00   1.4148E+00   2.6751E-04  0.0088
   1.4148E+00   1.4492E+00   2.6029E-04  0.0088
   1.4492E+00   1.4845E+00   2.5759E-04  0.0087
   1.4845E+00   1.5206E+00   2.5273E-04  0.0087
   1.5206E+00   1.5576E+00   2.4826E-04  0.0087
   1.5576E+00   1.5955E+00   2.4262E-04  0.0086
   1.5955E+00   1.6343E+00   2.3632E-04  0.0086
   1.6343E+00   1.6741E+00   2.3438E-04  0.0086
   1.6741E+00   1.7148E+00   2.3000E-04  0.0085
   1.7148E+00   1.7565E+00   2.2067E-04  0.0086
   1.7565E+00   1.7992E+00   2.0918E-04  0.0087
   1.7992E+00   1.8430E+00   2.0367E-04  0.0087
   1.8430E+00   1.8879E+00   1.9409E-04  0.0088
   1.8879E+00   1.9338E+00   1.8980E-04  0.0088
   1.9338E+00   1.9808E+00   1.8785E-04  0.0087
   1.9808E+00   2.0290E+00   1.8346E-04  0.0087
   2.0290E+00   2.0784E+00   1.7899E-04  0.0087
   2.0784E+00   2.1290E+00   1.8141E-04  0.0086
   2.1290E+00   2.1808E+00   1.7594E-04  0.0086
   2.1808E+00   2.2338E+00   1.7351E-04  0.0085
   2.2338E+00   2.2882E+00   1.7054E-04  0.0085
   2.2882E+00   2.3439E+00   1.6355E-04  0.0086
   2.3439E+00   2.4009E+00   1.5849E-04  0.0086
   2.4009E+00   2.4593E+00   1.5618E-04  0.0086
   2.4593E+00   2.5191E+00   1.5291E-04  0.0086
   2.5191E+00   2.5804E+00   1.4734E-04  0.0086
   2.5804E+00   2.6432E+00   1.4494E-04  0.0086
   2.6432E+00   2.7075E+00   1.4022E-04  0.0087
   2.7075E+00   2.7734E+00   1.3543E-04  0.0087
   2.7734E+00   2.8409E+00   1.3157E-04  0.0087
   2.8409E+00   2.9100E+00   1.2957E-04  0.0087
   2.9100E+00   2.9808E+00   1.2643E-04  0.0087
   2.9808E+00   3.0533E+00   1.2420E-04  0.0087
   3.0533E+00   3.1276E+00   1.1854E-04  0.0088
   3.1276E+00   3.2037E+00   1.1803E-04  0.0087
   3.2037E+00   3.2817E+00   1.1344E-04  0.0088
   3.2817E+00   3.3615E+00   1.1130E-04  0.0088
   3.3615E+00   3.4433E+00   1.0886E-04  0.0088
   3.4433E+00   3.5271E+00   1.0690E-04  0.0087
   3.5271E+00   3.6129E+00   1.0367E-04  0.0088
   3.6129E+00   3.7008E+00   1.0005E-04  0.0088
   3.7008E+00   3.7908E+00   9.8838E-05  0.0088
   3.7908E+00   3.8831E+00   9.4375E-05  0.0089
   3.8831E+00   3.9776E+00   9.0002E-05  0.0090
   3.9776E+00   4.0743E+00   8.9619E-05  0.0089
   4.0743E+00   4.1735E+00   8.4887E-05  0.0090
   4.1735E+00   4.2750E+00   8.1760E-05  0.0091
   4.2750E+00   4.3790E+00   7.9152E-05  0.0091
   4.3790E+00   4.4856E+00   7.6583E-05  0.0092
   4.4856E+00   4.5947E+00   7.2935E-05  0.0093
   4.5947E+00   4.7065E+00   7.1773E-05  0.0093
   4.7065E+00   4.8210E+00   6.8902E-05  0.0093
   4.8210E+00   4.9383E+00   6.5639E-05  0.0094
   4.9383E+00   5.0585E+00   6.4323E-05  0.0094
   5.0585E+00   5.1815E+00   6.1898E-05  0.0095
   5.1815E+00   5.3076E+00   5.9242E-05  0.0096
   5.3076E+00   5.4368E+00   5.7538E-05  0.0096
   5.4368E+00   5.5690E+00   5.4121E-05  0.0098
   5.5690E+00   5.7045E+00   5.2774E-05  0.0098
   5.7045E+00   5.8433E+00   4.9543E-05  0.0100
   5.8433E+00   5.9855E+00   4.8113E-05  0.0101
   5.9855E+00   6.1311E+00   4.6362E-05  0.0101
   6.1311E+00   6.2803E+00   4.2120E-05  0.0105
   6.2803E+00   6.4331E+00   4.0376E-05  0.0106
   6.4331E+00   6.5896E+00   3.8025E-05  0.0108
   6.5896E+00   6.7500E+00   3.5940E-05  0.0110
   6.7500E+00   6.9142E+00   3.3089E-05  0.0113
   6.9142E+00   7.0824E+00   3.1075E-05  0.0115
   7.0824E+00   7.2548E+00   2.8606E-05  0.0119
   7.2548E+00   7.4313E+00   2.6172E-05  0.0123
   7.4313E+00   7.6121E+00   2.4734E-05  0.0125
   7.6121E+00   7.7973E+00   2.3005E-05  0.0128
   7.7973E+00   7.9870E+00   2.1451E-05  0.0131
   7.9870E+00   8.1813E+00   2.0715E-05  0.0132
   8.1813E+00   8.3804E+00   1.8684E-05  0.0137
   8.3804E+00   8.5843E+00   1.7780E-05  0.0139
   8.5843E+00   8.7931E+00   1.7074E-05  0.0140
   8.7931E+00   9.0071E+00   1.5366E-05  0.0146
   9.0071E+00   9.2262E+00   1.4546E-05  0.0148
   9.2262E+00   9.4507E+00   1.3466E-05  0.0152
   9.4507E+00   9.6807E+00   1.2551E-05  0.0156
   9.6807E+00   9.9162E+00   1.1270E-05  0.0163
   9.9162E+00   1.0157E+01   1.0413E-05  0.0168
   1.0157E+01   1.0405E+01   1.0061E-05  0.0168
   1.0405E+01   1.0658E+01   9.4525E-06  0.0172
   1.0658E+01   1.0917E+01   8.4835E-06  0.0179
   1.0917E+01   1.1183E+01   8.0180E-06  0.0182
   1.1183E+01   1.1455E+01   7.5366E-06  0.0186
   1.1455E+01   1.1733E+01   6.8173E-06  0.0193
   1.1733E+01   1.2019E+01   6.3651E-06  0.0197
   1.2019E+01   1.2311E+01   5.8049E-06  0.0204
   1.2311E+01   1.2611E+01   5.3678E-06  0.0210
   1.2611E+01   1.2918E+01   5.1341E-06  0.0212
   1.2918E+01   1.3232E+01   4.6967E-06  0.0219
   1.3232E+01   1.3554E+01   4.4205E-06  0.0223
   1.3554E+01   1.3884E+01   3.9706E-06  0.0233
   1.3884E+01   1.4222E+01   3.7272E-06  0.0237
   1.4222E+01   1.4568E+01   3.3511E-06  0.0247
   1.4568E+01   1.4922E+01   3.2818E-06  0.0247
   1.4922E+01   1.5285E+01   2.8866E-06  0.0260
   1.5285E+01   1.5657E+01   2.6506E-06  0.0269
   1.5657E+01   1.6038E+01   2.5174E-06  0.0272
   1.6038E+01   1.6428E+01   2.1901E-06  0.0289
   1.6428E+01   1.6828E+01   2.1163E-06  0.0290
   1.6828E+01   1.7237E+01   1.9609E-06  0.0298
   1.7237E+01   1.7657E+01   1.7780E-06  0.0309
   1.7657E+01   1.8086E+01   1.6694E-06  0.0315
   1.8086E+01   1.8526E+01   1.4365E-06  0.0336
   1.8526E+01   1.8977E+01   1.3010E-06  0.0349
   1.8977E+01   1.9439E+01   1.1355E-06  0.0369
   1.9439E+01   1.9912E+01   1.0617E-06  0.0377
   1.9912E+01   2.0396E+01   9.3917E-07  0.0396
   2.0396E+01   2.0893E+01   8.6216E-07  0.0409
   2.0893E+01   2.1401E+01   7.3489E-07  0.0437
   2.1401E+01   2.1922E+01   5.9947E-07  0.0478
   2.1922E+01   2.2455E+01   5.3969E-07  0.0498
   2.2455E+01   2.3001E+01   5.2034E-07  0.0501
   2.3001E+01   2.3561E+01   3.9694E-07  0.0567
   2.3561E+01   2.4134E+01   3.7007E-07  0.0580
   2.4134E+01   2.4721E+01   2.8707E-07  0.0651
   2.4721E+01   2.5323E+01   2.7313E-07  0.0659
   2.5323E+01   2.5939E+01   2.1447E-07  0.0735
   2.5939E+01   2.6570E+01   1.7543E-07  0.0803
   2.6570E+01   2.7217E+01   1.5579E-07  0.0842
   2.7217E+01   2.7879E+01   1.2404E-07  0.0933
   2.7879E+01   2.8557E+01   1.0636E-07  0.0995
   2.8557E+01   2.9252E+01   6.8877E-08  0.1222
   2.9252E+01   2.9964E+01   6.1220E-08  0.1280
   2.9964E+01   3.0693E+01   5.2907E-08  0.1361
   3.0693E+01   3.1440E+01   3.6347E-08  0.1622
   3.1440E+01   3.2205E+01   2.8947E-08  0.1796
   3.2205E+01   3.2988E+01   2.0967E-08  0.2085
   3.2988E+01   3.3791E+01   2.6698E-08  0.1826
   3.3791E+01   3.4613E+01   1.7376E-08  0.2236
   3.4613E+01   3.5455E+01   1.0178E-08  0.2887
   3.5455E+01   3.6318E+01   4.1401E-09  0.4472
   3.6318E+01   3.7201E+01   2.4250E-09  0.5774
   3.7201E+01   3.8106E+01   3.9457E-09  0.4472
   3.8106E+01   3.9034E+01   2.3112E-09  0.5774
   3.9034E+01   3.9983E+01   3.7605E-09  0.4472
   3.9983E+01   4.0956E+01   2.2027E-09  0.5774
   4.0956E+01   4.1953E+01   0.0000E+00  0.0000
   4.1953E+01   4.2973E+01   6.9977E-10  1.0000
   4.2973E+01   4.4019E+01   6.8315E-10  1.0000
   4.4019E+01   4.5090E+01   1.3338E-09  0.7071
   4.5090E+01   4.6187E+01   0.0000E+00  0.0000
   4.6187E+01   4.7311E+01   0.0000E+00  0.0000
   4.7311E+01   4.8462E+01   0.0000E+00  0.0000
   4.8462E+01   4.9641E+01   0.0000E+00  0.0000
   4.9641E+01   5.0849E+01   0.0000E+00  0.0000
   5.0849E+01   5.2086E+01   0.0000E+00  0.0000
   5.2086E+01   5.3353E+01   0.0000E+00  0.0000
   5.3353E+01   5.4651E+01   0.0000E+00  0.0000
   5.4651E+01   5.5981E+01   0.0000E+00  0.0000
   5.5981E+01   5.7343E+01   0.0000E+00  0.0000
   5.7343E+01   5.8738E+01   0.0000E+00  0.0000
   5.8738E+01   6.0168E+01   0.0000E+00  0.0000
   6.0168E+01   6.1632E+01   0.0000E+00  0.0000
   6.1632E+01   6.3131E+01   0.0000E+00  0.0000
   6.3131E+01   6.4667E+01   0.0000E+00  0.0000
   6.4667E+01   6.6240E+01   0.0000E+00  0.0000
   6.6240E+01   6.7852E+01   0.0000E+00  0.0000
   6.7852E+01   6.9503E+01   0.0000E+00  0.0000
   6.9503E+01   7.1194E+01   0.0000E+00  0.0000
   7.1194E+01   7.2926E+01   0.0000E+00  0.0000
   7.2926E+01   7.4701E+01   0.0000E+00  0.0000
   7.4701E+01   7.6518E+01   0.0000E+00  0.0000
   7.6518E+01   7.8380E+01   0.0000E+00  0.0000
   7.8380E+01   8.0287E+01   0.0000E+00  0.0000
   8.0287E+01   8.2240E+01   0.0000E+00  0.0000
   8.2240E+01   8.4241E+01   0.0000E+00  0.0000
   8.4241E+01   8.6291E+01   0.0000E+00  0.0000
   8.6291E+01   8.8391E+01   0.0000E+00  0.0000
   8.8391E+01   9.0541E+01   0.0000E+00  0.0000
   9.0541E+01   9.2744E+01   0.0000E+00  0.0000
   9.2744E+01   9.5001E+01   0.0000E+00  0.0000
   9.5001E+01   9.7312E+01   0.0000E+00  0.0000
   9.7312E+01   9.9680E+01   0.0000E+00  0.0000
   9.9680E+01   1.0211E+02   0.0000E+00  0.0000
   1.0211E+02   1.0459E+02   0.0000E+00  0.0000
   1.0459E+02   1.0713E+02   0.0000E+00  0.0000
   1.0713E+02   1.0974E+02   0.0000E+00  0.0000
   1.0974E+02   1.1241E+02   0.0000E+00  0.0000
   1.1241E+02   1.1515E+02   0.0000E+00  0.0000
   1.1515E+02   1.1795E+02   0.0000E+00  0.0000
   1.1795E+02   1.2082E+02   0.0000E+00  0.0000
   1.2082E+02   1.2376E+02   0.0000E+00  0.0000
   1.2376E+02   1.2677E+02   0.0000E+00  0.0000
   1.2677E+02   1.2985E+02   0.0000E+00  0.0000
   1.2985E+02   1.3301E+02   0.0000E+00  0.0000
   1.3301E+02   1.3625E+02   0.0000E+00  0.0000
   1.3625E+02   1.3956E+02   0.0000E+00  0.0000
   1.3956E+02   1.4296E+02   0.0000E+00  0.0000
   1.4296E+02   1.4644E+02   0.0000E+00  0.0000
   1.4644E+02   1.5000E+02   0.0000E+00  0.0000

#   sum over                 7.3235E-06
'no. =    1   reg = 119 - 219'
msuc: {\huge [t-cross] in region mesh}
msdr: {\it plotted by \ANGEL \version}
msdl: {\it calculated by \PHITS  3.26}
wt: s(0.7)
\vspace{-3}
  region surface crossing
  area  &=&   1.0000E+00 [cm^2]
e:
 
# Information for Restart Calculation
# This calculation was newly started
# istdev =  2 # 1:Batch variance, 2:History variance
# resc2  = 1.40000000000000000E+09 # Total source weight or Total source weight / maxcas
# resc3  = 1.40000000000000000E+09 # Total history number or Total batch number
# maxcas =   100000000 # History / Batch, only used for istdev=1
# bitrseed = 1101000110001001101011111100100010001101001010000111001101010101 # bit data of rseed
