[ T-Cross ]
    title = [t-cross] in region mesh
     mesh =  reg            # mesh type is region-wise
      reg =    1            # number of crossing regions
      non     r-from    r-to       area
      1       114       214        1.000000    
   e-type =    3            # e-mesh is log given by emin, emax and ne
     emin =  1.0000000E-02  # minimum value of e-mesh points
     emax =   150.0000      # maximum value of e-mesh points
#    edel =  2.4039514E-02  # mesh width of e-mesh points
       ne =    400          # number of e-mesh points
#    data = ( e(i), i = 1, ne + 1 )
#           1.00000E-02  1.02433E-02  1.04925E-02  1.07478E-02  1.10093E-02
#           1.12772E-02  1.15516E-02  1.18326E-02  1.21205E-02  1.24154E-02
#           1.27175E-02  1.30269E-02  1.33439E-02  1.36686E-02  1.40011E-02
#           1.43418E-02  1.46907E-02  1.50482E-02  1.54143E-02  1.57894E-02
#           1.61735E-02  1.65670E-02  1.69701E-02  1.73830E-02  1.78060E-02
#           1.82392E-02  1.86830E-02  1.91375E-02  1.96032E-02  2.00801E-02
#           2.05687E-02  2.10692E-02  2.15818E-02  2.21069E-02  2.26448E-02
#           2.31957E-02  2.37601E-02  2.43382E-02  2.49304E-02  2.55369E-02
#           2.61583E-02  2.67947E-02  2.74467E-02  2.81145E-02  2.87985E-02
#           2.94992E-02  3.02169E-02  3.09521E-02  3.17052E-02  3.24766E-02
#           3.32668E-02  3.40762E-02  3.49053E-02  3.57546E-02  3.66246E-02
#           3.75157E-02  3.84284E-02  3.93634E-02  4.03212E-02  4.13022E-02
#           4.23071E-02  4.33365E-02  4.43909E-02  4.54710E-02  4.65773E-02
#           4.77106E-02  4.88714E-02  5.00605E-02  5.12785E-02  5.25262E-02
#           5.38042E-02  5.51133E-02  5.64542E-02  5.78278E-02  5.92348E-02
#           6.06760E-02  6.21523E-02  6.36645E-02  6.52135E-02  6.68002E-02
#           6.84255E-02  7.00904E-02  7.17957E-02  7.35426E-02  7.53319E-02
#           7.71648E-02  7.90423E-02  8.09655E-02  8.29354E-02  8.49533E-02
#           8.70203E-02  8.91376E-02  9.13064E-02  9.35279E-02  9.58035E-02
#           9.81345E-02  1.00522E-01  1.02968E-01  1.05473E-01  1.08040E-01
#           1.10668E-01  1.13361E-01  1.16119E-01  1.18944E-01  1.21838E-01
#           1.24803E-01  1.27839E-01  1.30950E-01  1.34136E-01  1.37399E-01
#           1.40742E-01  1.44167E-01  1.47675E-01  1.51268E-01  1.54948E-01
#           1.58718E-01  1.62580E-01  1.66535E-01  1.70587E-01  1.74738E-01
#           1.78989E-01  1.83344E-01  1.87805E-01  1.92375E-01  1.97055E-01
#           2.01850E-01  2.06761E-01  2.11792E-01  2.16945E-01  2.22223E-01
#           2.27630E-01  2.33169E-01  2.38842E-01  2.44653E-01  2.50605E-01
#           2.56703E-01  2.62949E-01  2.69346E-01  2.75900E-01  2.82613E-01
#           2.89489E-01  2.96532E-01  3.03747E-01  3.11138E-01  3.18708E-01
#           3.26462E-01  3.34405E-01  3.42542E-01  3.50876E-01  3.59413E-01
#           3.68158E-01  3.77116E-01  3.86291E-01  3.95690E-01  4.05317E-01
#           4.15179E-01  4.25281E-01  4.35628E-01  4.46227E-01  4.57084E-01
#           4.68205E-01  4.79597E-01  4.91266E-01  5.03219E-01  5.15463E-01
#           5.28005E-01  5.40851E-01  5.54011E-01  5.67490E-01  5.81298E-01
#           5.95441E-01  6.09929E-01  6.24769E-01  6.39970E-01  6.55541E-01
#           6.71491E-01  6.87828E-01  7.04564E-01  7.21706E-01  7.39266E-01
#           7.57253E-01  7.75678E-01  7.94551E-01  8.13883E-01  8.33685E-01
#           8.53969E-01  8.74747E-01  8.96030E-01  9.17831E-01  9.40163E-01
#           9.63038E-01  9.86469E-01  1.01047E+00  1.03506E+00  1.06024E+00
#           1.08604E+00  1.11246E+00  1.13953E+00  1.16725E+00  1.19565E+00
#           1.22474E+00  1.25454E+00  1.28507E+00  1.31633E+00  1.34836E+00
#           1.38117E+00  1.41477E+00  1.44920E+00  1.48446E+00  1.52057E+00
#           1.55757E+00  1.59547E+00  1.63429E+00  1.67405E+00  1.71478E+00
#           1.75650E+00  1.79924E+00  1.84302E+00  1.88786E+00  1.93379E+00
#           1.98084E+00  2.02904E+00  2.07841E+00  2.12898E+00  2.18078E+00
#           2.23384E+00  2.28819E+00  2.34386E+00  2.40089E+00  2.45930E+00
#           2.51914E+00  2.58043E+00  2.64322E+00  2.70753E+00  2.77341E+00
#           2.84088E+00  2.91001E+00  2.98081E+00  3.05333E+00  3.12762E+00
#           3.20372E+00  3.28167E+00  3.36152E+00  3.44330E+00  3.52708E+00
#           3.61290E+00  3.70080E+00  3.79085E+00  3.88308E+00  3.97756E+00
#           4.07434E+00  4.17347E+00  4.27501E+00  4.37903E+00  4.48557E+00
#           4.59471E+00  4.70650E+00  4.82102E+00  4.93832E+00  5.05847E+00
#           5.18155E+00  5.30762E+00  5.43676E+00  5.56904E+00  5.70453E+00
#           5.84333E+00  5.98550E+00  6.13114E+00  6.28031E+00  6.43312E+00
#           6.58964E+00  6.74997E+00  6.91420E+00  7.08243E+00  7.25475E+00
#           7.43126E+00  7.61207E+00  7.79728E+00  7.98700E+00  8.18133E+00
#           8.38038E+00  8.58428E+00  8.79315E+00  9.00709E+00  9.22624E+00
#           9.45072E+00  9.68067E+00  9.91620E+00  1.01575E+01  1.04046E+01
#           1.06578E+01  1.09171E+01  1.11827E+01  1.14548E+01  1.17335E+01
#           1.20190E+01  1.23114E+01  1.26109E+01  1.29178E+01  1.32321E+01
#           1.35540E+01  1.38838E+01  1.42216E+01  1.45676E+01  1.49221E+01
#           1.52851E+01  1.56570E+01  1.60380E+01  1.64282E+01  1.68279E+01
#           1.72374E+01  1.76568E+01  1.80864E+01  1.85264E+01  1.89772E+01
#           1.94389E+01  1.99119E+01  2.03963E+01  2.08926E+01  2.14009E+01
#           2.19216E+01  2.24550E+01  2.30014E+01  2.35610E+01  2.41343E+01
#           2.47215E+01  2.53230E+01  2.59391E+01  2.65702E+01  2.72167E+01
#           2.78789E+01  2.85572E+01  2.92520E+01  2.99637E+01  3.06928E+01
#           3.14396E+01  3.22045E+01  3.29881E+01  3.37907E+01  3.46128E+01
#           3.54550E+01  3.63177E+01  3.72013E+01  3.81064E+01  3.90336E+01
#           3.99833E+01  4.09561E+01  4.19526E+01  4.29734E+01  4.40189E+01
#           4.50900E+01  4.61870E+01  4.73108E+01  4.84619E+01  4.96410E+01
#           5.08488E+01  5.20860E+01  5.33533E+01  5.46514E+01  5.59812E+01
#           5.73432E+01  5.87384E+01  6.01676E+01  6.16315E+01  6.31311E+01
#           6.46671E+01  6.62405E+01  6.78522E+01  6.95031E+01  7.11941E+01
#           7.29263E+01  7.47007E+01  7.65182E+01  7.83800E+01  8.02870E+01
#           8.22405E+01  8.42414E+01  8.62911E+01  8.83906E+01  9.05412E+01
#           9.27442E+01  9.50007E+01  9.73122E+01  9.96799E+01  1.02105E+02
#           1.04589E+02  1.07134E+02  1.09741E+02  1.12411E+02  1.15146E+02
#           1.17948E+02  1.20817E+02  1.23757E+02  1.26768E+02  1.29852E+02
#           1.33012E+02  1.36248E+02  1.39563E+02  1.42959E+02  1.46437E+02
#           1.50000E+02
     unit =    2            # unit is [1/cm^2/(MeV/n)/source]
     axis =  eng            # axis of output
     file = detector-15.out  # file name of output for the above axis
   output = f-curr          # surface crossing forward current spectrum
     part =  neutron  
# kf/name :  2112     
#    used :        main (  %)        temp (  %)       total (  %)
#  memory :         414 (  0)           0 (  0)         414 (  0)

#------------------------------------------------------------------------------
#newpage:
#   no. =    1   reg = 114 - 214

x: Energy [MeV/n]
y:  F-Curr [1/cm^2/(MeV/n)/source]         
p: xlog ylog afac(0.8) form(0.9)
h: n            x            y(neutron ),hh0l   n 
#  e-lower      e-upper      neutron     r.err 
   1.0000E-02   1.0243E-02   3.3151E-04  0.0936
   1.0243E-02   1.0493E-02   3.0140E-04  0.0967
   1.0493E-02   1.0748E-02   2.8349E-04  0.0988
   1.0748E-02   1.1009E-02   2.4339E-04  0.1051
   1.1009E-02   1.1277E-02   3.3030E-04  0.0895
   1.1277E-02   1.1552E-02   3.0661E-04  0.0917
   1.1552E-02   1.1833E-02   2.4081E-04  0.1022
   1.1833E-02   1.2121E-02   3.1717E-04  0.0878
   1.2121E-02   1.2415E-02   2.7145E-04  0.0938
   1.2415E-02   1.2718E-02   2.5542E-04  0.0957
   1.2718E-02   1.3027E-02   2.3528E-04  0.0986
   1.3027E-02   1.3344E-02   2.7022E-04  0.0908
   1.3344E-02   1.3669E-02   2.4444E-04  0.0942
   1.3669E-02   1.4001E-02   2.6463E-04  0.0893
   1.4001E-02   1.4342E-02   2.5822E-04  0.0893
   1.4342E-02   1.4691E-02   2.2693E-04  0.0944
   1.4691E-02   1.5048E-02   2.4116E-04  0.0906
   1.5048E-02   1.5414E-02   2.2160E-04  0.0933
   1.5414E-02   1.5789E-02   2.0544E-04  0.0956
   1.5789E-02   1.6174E-02   2.0426E-04  0.0949
   1.6174E-02   1.6567E-02   2.0702E-04  0.0929
   1.6567E-02   1.6970E-02   2.2431E-04  0.0885
   1.6970E-02   1.7383E-02   2.1374E-04  0.0893
   1.7383E-02   1.7806E-02   1.9873E-04  0.0917
   1.7806E-02   1.8239E-02   1.9754E-04  0.0908
   1.8239E-02   1.8683E-02   1.7800E-04  0.0946
   1.8683E-02   1.9138E-02   1.7433E-04  0.0942
   1.9138E-02   1.9603E-02   2.0580E-04  0.0856
   1.9603E-02   2.0080E-02   1.7773E-04  0.0912
   2.0080E-02   2.0569E-02   1.8698E-04  0.0878
   2.0569E-02   2.1069E-02   1.8330E-04  0.0875
   2.1069E-02   2.1582E-02   1.5396E-04  0.0946
   2.1582E-02   2.2107E-02   1.4460E-04  0.0965
   2.2107E-02   2.2645E-02   1.5167E-04  0.0932
   2.2645E-02   2.3196E-02   1.3709E-04  0.0967
   2.3196E-02   2.3760E-02   1.5400E-04  0.0900
   2.3760E-02   2.4338E-02   1.3591E-04  0.0948
   2.4338E-02   2.4930E-02   1.2193E-04  0.0991
   2.4930E-02   2.5537E-02   1.4333E-04  0.0900
   2.5537E-02   2.6158E-02   1.4647E-04  0.0882
   2.6158E-02   2.6795E-02   1.2866E-04  0.0929
   2.6795E-02   2.7447E-02   1.2195E-04  0.0941
   2.7447E-02   2.8114E-02   1.3040E-04  0.0897
   2.8114E-02   2.8799E-02   1.1343E-04  0.0954
   2.8799E-02   2.9499E-02   1.2604E-04  0.0890
   2.9499E-02   3.0217E-02   1.0621E-04  0.0962
   3.0217E-02   3.0952E-02   1.0110E-04  0.0973
   3.0952E-02   3.1705E-02   9.8329E-05  0.0974
   3.1705E-02   3.2477E-02   1.1175E-04  0.0907
   3.2477E-02   3.3267E-02   9.9541E-05  0.0949
   3.3267E-02   3.4076E-02   1.2757E-04  0.0827
   3.4076E-02   3.4905E-02   1.1024E-04  0.0881
   3.4905E-02   3.5755E-02   9.2044E-05  0.0950
   3.5755E-02   3.6625E-02   1.0627E-04  0.0876
   3.6625E-02   3.7516E-02   8.2325E-05  0.0978
   3.7516E-02   3.8428E-02   9.7817E-05  0.0888
   3.8428E-02   3.9363E-02   1.0727E-04  0.0838
   3.9363E-02   4.0321E-02   7.9568E-05  0.0963
   4.0321E-02   4.1302E-02   9.3481E-05  0.0878
   4.1302E-02   4.2307E-02   1.0554E-04  0.0816
   4.2307E-02   4.3337E-02   8.0083E-05  0.0927
   4.3337E-02   4.4391E-02   7.3841E-05  0.0952
   4.4391E-02   4.5471E-02   8.8164E-05  0.0863
   4.5471E-02   4.6577E-02   7.3714E-05  0.0929
   4.6577E-02   4.7711E-02   9.6058E-05  0.0804
   4.7711E-02   4.8871E-02   8.6395E-05  0.0838
   4.8871E-02   5.0061E-02   7.1269E-05  0.0911
   5.0061E-02   5.1279E-02   7.6875E-05  0.0871
   5.1279E-02   5.2526E-02   7.8733E-05  0.0849
   5.2526E-02   5.3804E-02   7.3404E-05  0.0867
   5.3804E-02   5.5113E-02   6.1916E-05  0.0934
   5.5113E-02   5.6454E-02   6.5444E-05  0.0896
   5.6454E-02   5.7828E-02   7.7793E-05  0.0812
   5.7828E-02   5.9235E-02   6.8026E-05  0.0859
   5.9235E-02   6.0676E-02   6.0622E-05  0.0897
   6.0676E-02   6.2152E-02   6.5096E-05  0.0856
   6.2152E-02   6.3665E-02   6.7909E-05  0.0829
   6.3665E-02   6.5214E-02   5.8316E-05  0.0883
   6.5214E-02   6.6800E-02   5.3290E-05  0.0914
   6.6800E-02   6.8426E-02   6.0138E-05  0.0851
   6.8426E-02   7.0090E-02   6.4595E-05  0.0810
   7.0090E-02   7.1796E-02   6.4625E-05  0.0800
   7.1796E-02   7.3543E-02   6.2575E-05  0.0802
   7.3543E-02   7.5332E-02   5.9446E-05  0.0814
   7.5332E-02   7.7165E-02   5.3440E-05  0.0849
   7.7165E-02   7.9042E-02   5.7190E-05  0.0810
   7.9042E-02   8.0965E-02   5.6092E-05  0.0807
   8.0965E-02   8.2935E-02   4.8458E-05  0.0860
   8.2935E-02   8.4953E-02   5.2823E-05  0.0813
   8.4953E-02   8.7020E-02   5.1489E-05  0.0814
   8.7020E-02   8.9138E-02   5.0435E-05  0.0815
   8.9138E-02   9.1306E-02   4.6486E-05  0.0837
   9.1306E-02   9.3528E-02   4.8798E-05  0.0809
   9.3528E-02   9.5804E-02   4.9465E-05  0.0790
   9.5804E-02   9.8134E-02   4.0956E-05  0.0858
   9.8134E-02   1.0052E-01   4.8095E-05  0.0784
   1.0052E-01   1.0297E-01   4.5993E-05  0.0793
   1.0297E-01   1.0547E-01   5.0014E-05  0.0751
   1.0547E-01   1.0804E-01   5.2286E-05  0.0726
   1.0804E-01   1.1067E-01   4.8938E-05  0.0740
   1.1067E-01   1.1336E-01   5.7068E-05  0.0678
   1.1336E-01   1.1612E-01   5.8410E-05  0.0662
   1.1612E-01   1.1894E-01   6.6400E-05  0.0613
   1.1894E-01   1.2184E-01   6.5654E-05  0.0609
   1.2184E-01   1.2480E-01   6.9478E-05  0.0585
   1.2480E-01   1.2784E-01   7.4519E-05  0.0558
   1.2784E-01   1.3095E-01   7.8870E-05  0.0536
   1.3095E-01   1.3414E-01   7.5036E-05  0.0543
   1.3414E-01   1.3740E-01   7.9138E-05  0.0522
   1.3740E-01   1.4074E-01   8.1485E-05  0.0508
   1.4074E-01   1.4417E-01   8.7015E-05  0.0487
   1.4417E-01   1.4767E-01   9.1120E-05  0.0470
   1.4767E-01   1.5127E-01   8.4642E-05  0.0482
   1.5127E-01   1.5495E-01   9.5138E-05  0.0449
   1.5495E-01   1.5872E-01   1.0377E-04  0.0425
   1.5872E-01   1.6258E-01   1.0555E-04  0.0416
   1.6258E-01   1.6654E-01   1.0346E-04  0.0415
   1.6654E-01   1.7059E-01   1.1109E-04  0.0396
   1.7059E-01   1.7474E-01   1.1615E-04  0.0382
   1.7474E-01   1.7899E-01   1.1669E-04  0.0377
   1.7899E-01   1.8334E-01   1.1655E-04  0.0373
   1.8334E-01   1.8781E-01   1.1976E-04  0.0363
   1.8781E-01   1.9237E-01   1.3214E-04  0.0342
   1.9237E-01   1.9706E-01   1.2982E-04  0.0341
   1.9706E-01   2.0185E-01   1.3801E-04  0.0326
   2.0185E-01   2.0676E-01   1.4220E-04  0.0318
   2.0676E-01   2.1179E-01   1.4637E-04  0.0309
   2.1179E-01   2.1694E-01   1.6054E-04  0.0292
   2.1694E-01   2.2222E-01   1.6460E-04  0.0285
   2.2222E-01   2.2763E-01   1.6729E-04  0.0279
   2.2763E-01   2.3317E-01   1.6761E-04  0.0276
   2.3317E-01   2.3884E-01   1.8078E-04  0.0262
   2.3884E-01   2.4465E-01   1.8246E-04  0.0258
   2.4465E-01   2.5061E-01   1.8411E-04  0.0254
   2.5061E-01   2.5670E-01   1.9422E-04  0.0244
   2.5670E-01   2.6295E-01   2.0619E-04  0.0234
   2.6295E-01   2.6935E-01   2.0676E-04  0.0231
   2.6935E-01   2.7590E-01   2.1773E-04  0.0222
   2.7590E-01   2.8261E-01   2.2050E-04  0.0218
   2.8261E-01   2.8949E-01   2.2612E-04  0.0213
   2.8949E-01   2.9653E-01   2.3418E-04  0.0207
   2.9653E-01   3.0375E-01   2.3767E-04  0.0203
   3.0375E-01   3.1114E-01   2.3121E-04  0.0203
   3.1114E-01   3.1871E-01   2.4696E-04  0.0194
   3.1871E-01   3.2646E-01   2.4896E-04  0.0191
   3.2646E-01   3.3441E-01   2.5535E-04  0.0186
   3.3441E-01   3.4254E-01   2.6672E-04  0.0180
   3.4254E-01   3.5088E-01   2.7690E-04  0.0175
   3.5088E-01   3.5941E-01   2.7657E-04  0.0173
   3.5941E-01   3.6816E-01   2.8715E-04  0.0168
   3.6816E-01   3.7712E-01   2.9338E-04  0.0164
   3.7712E-01   3.8629E-01   2.9212E-04  0.0162
   3.8629E-01   3.9569E-01   3.0987E-04  0.0156
   3.9569E-01   4.0532E-01   3.1046E-04  0.0153
   4.0532E-01   4.1518E-01   3.1406E-04  0.0151
   4.1518E-01   4.2528E-01   3.1766E-04  0.0148
   4.2528E-01   4.3563E-01   3.1946E-04  0.0146
   4.3563E-01   4.4623E-01   3.2512E-04  0.0143
   4.4623E-01   4.5708E-01   3.4084E-04  0.0138
   4.5708E-01   4.6821E-01   3.3611E-04  0.0137
   4.6821E-01   4.7960E-01   3.4266E-04  0.0134
   4.7960E-01   4.9127E-01   3.4476E-04  0.0132
   4.9127E-01   5.0322E-01   3.4549E-04  0.0131
   5.0322E-01   5.1546E-01   3.4853E-04  0.0128
   5.1546E-01   5.2800E-01   3.5168E-04  0.0126
   5.2800E-01   5.4085E-01   3.4680E-04  0.0126
   5.4085E-01   5.5401E-01   3.4975E-04  0.0124
   5.5401E-01   5.6749E-01   3.6213E-04  0.0120
   5.6749E-01   5.8130E-01   3.5940E-04  0.0119
   5.8130E-01   5.9544E-01   3.5707E-04  0.0118
   5.9544E-01   6.0993E-01   3.6062E-04  0.0116
   6.0993E-01   6.2477E-01   3.5065E-04  0.0116
   6.2477E-01   6.3997E-01   3.6136E-04  0.0113
   6.3997E-01   6.5554E-01   3.5406E-04  0.0113
   6.5554E-01   6.7149E-01   3.4455E-04  0.0113
   6.7149E-01   6.8783E-01   3.5054E-04  0.0111
   6.8783E-01   7.0456E-01   3.4575E-04  0.0110
   7.0456E-01   7.2171E-01   3.4932E-04  0.0108
   7.2171E-01   7.3927E-01   3.4100E-04  0.0108
   7.3927E-01   7.5725E-01   3.3509E-04  0.0108
   7.5725E-01   7.7568E-01   3.2899E-04  0.0107
   7.7568E-01   7.9455E-01   3.2544E-04  0.0107
   7.9455E-01   8.1388E-01   3.1397E-04  0.0107
   8.1388E-01   8.3368E-01   3.1185E-04  0.0106
   8.3368E-01   8.5397E-01   2.9731E-04  0.0108
   8.5397E-01   8.7475E-01   2.9214E-04  0.0107
   8.7475E-01   8.9603E-01   2.8480E-04  0.0107
   8.9603E-01   9.1783E-01   2.6872E-04  0.0109
   9.1783E-01   9.4016E-01   2.5957E-04  0.0110
   9.4016E-01   9.6304E-01   2.5554E-04  0.0109
   9.6304E-01   9.8647E-01   2.4443E-04  0.0110
   9.8647E-01   1.0105E+00   2.3944E-04  0.0110
   1.0105E+00   1.0351E+00   2.4357E-04  0.0108
   1.0351E+00   1.0602E+00   2.4460E-04  0.0106
   1.0602E+00   1.0860E+00   2.5432E-04  0.0103
   1.0860E+00   1.1125E+00   2.5877E-04  0.0101
   1.1125E+00   1.1395E+00   2.6935E-04  0.0098
   1.1395E+00   1.1673E+00   2.7411E-04  0.0095
   1.1673E+00   1.1957E+00   2.8224E-04  0.0093
   1.1957E+00   1.2247E+00   2.8797E-04  0.0091
   1.2247E+00   1.2545E+00   3.0000E-04  0.0088
   1.2545E+00   1.2851E+00   3.0134E-04  0.0087
   1.2851E+00   1.3163E+00   3.0218E-04  0.0085
   1.3163E+00   1.3484E+00   3.1265E-04  0.0083
   1.3484E+00   1.3812E+00   3.1945E-04  0.0081
   1.3812E+00   1.4148E+00   3.2737E-04  0.0079
   1.4148E+00   1.4492E+00   3.2643E-04  0.0078
   1.4492E+00   1.4845E+00   3.2613E-04  0.0077
   1.4845E+00   1.5206E+00   3.2178E-04  0.0077
   1.5206E+00   1.5576E+00   3.2414E-04  0.0076
   1.5576E+00   1.5955E+00   3.2223E-04  0.0075
   1.5955E+00   1.6343E+00   3.2252E-04  0.0074
   1.6343E+00   1.6741E+00   3.2559E-04  0.0073
   1.6741E+00   1.7148E+00   3.2225E-04  0.0072
   1.7148E+00   1.7565E+00   3.1942E-04  0.0071
   1.7565E+00   1.7992E+00   2.9615E-04  0.0073
   1.7992E+00   1.8430E+00   2.8641E-04  0.0073
   1.8430E+00   1.8879E+00   2.7224E-04  0.0074
   1.8879E+00   1.9338E+00   2.7167E-04  0.0073
   1.9338E+00   1.9808E+00   2.7378E-04  0.0072
   1.9808E+00   2.0290E+00   2.7271E-04  0.0071
   2.0290E+00   2.0784E+00   2.7171E-04  0.0070
   2.0784E+00   2.1290E+00   2.7715E-04  0.0069
   2.1290E+00   2.1808E+00   2.8330E-04  0.0067
   2.1808E+00   2.2338E+00   2.7892E-04  0.0067
   2.2338E+00   2.2882E+00   2.7287E-04  0.0067
   2.2882E+00   2.3439E+00   2.6408E-04  0.0067
   2.3439E+00   2.4009E+00   2.6463E-04  0.0066
   2.4009E+00   2.4593E+00   2.6405E-04  0.0066
   2.4593E+00   2.5191E+00   2.5941E-04  0.0066
   2.5191E+00   2.5804E+00   2.5550E-04  0.0065
   2.5804E+00   2.6432E+00   2.5144E-04  0.0065
   2.6432E+00   2.7075E+00   2.4570E-04  0.0065
   2.7075E+00   2.7734E+00   2.4346E-04  0.0065
   2.7734E+00   2.8409E+00   2.4020E-04  0.0064
   2.8409E+00   2.9100E+00   2.3607E-04  0.0064
   2.9100E+00   2.9808E+00   2.3531E-04  0.0063
   2.9808E+00   3.0533E+00   2.3053E-04  0.0063
   3.0533E+00   3.1276E+00   2.2570E-04  0.0063
   3.1276E+00   3.2037E+00   2.2214E-04  0.0063
   3.2037E+00   3.2817E+00   2.1932E-04  0.0063
   3.2817E+00   3.3615E+00   2.1210E-04  0.0063
   3.3615E+00   3.4433E+00   2.1111E-04  0.0063
   3.4433E+00   3.5271E+00   2.1025E-04  0.0062
   3.5271E+00   3.6129E+00   2.0693E-04  0.0062
   3.6129E+00   3.7008E+00   2.0181E-04  0.0062
   3.7008E+00   3.7908E+00   1.9900E-04  0.0062
   3.7908E+00   3.8831E+00   1.9281E-04  0.0062
   3.8831E+00   3.9776E+00   1.8719E-04  0.0062
   3.9776E+00   4.0743E+00   1.8262E-04  0.0062
   4.0743E+00   4.1735E+00   1.8052E-04  0.0062
   4.1735E+00   4.2750E+00   1.7353E-04  0.0062
   4.2750E+00   4.3790E+00   1.6797E-04  0.0062
   4.3790E+00   4.4856E+00   1.6263E-04  0.0063
   4.4856E+00   4.5947E+00   1.5616E-04  0.0063
   4.5947E+00   4.7065E+00   1.5364E-04  0.0063
   4.7065E+00   4.8210E+00   1.4923E-04  0.0063
   4.8210E+00   4.9383E+00   1.4545E-04  0.0063
   4.9383E+00   5.0585E+00   1.4252E-04  0.0063
   5.0585E+00   5.1815E+00   1.3853E-04  0.0063
   5.1815E+00   5.3076E+00   1.3340E-04  0.0064
   5.3076E+00   5.4368E+00   1.2987E-04  0.0064
   5.4368E+00   5.5690E+00   1.2516E-04  0.0064
   5.5690E+00   5.7045E+00   1.2404E-04  0.0064
   5.7045E+00   5.8433E+00   1.1935E-04  0.0064
   5.8433E+00   5.9855E+00   1.1445E-04  0.0065
   5.9855E+00   6.1311E+00   1.1292E-04  0.0064
   6.1311E+00   6.2803E+00   1.0954E-04  0.0065
   6.2803E+00   6.4331E+00   1.0491E-04  0.0065
   6.4331E+00   6.5896E+00   1.0137E-04  0.0066
   6.5896E+00   6.7500E+00   9.6115E-05  0.0067
   6.7500E+00   6.9142E+00   9.3338E-05  0.0067
   6.9142E+00   7.0824E+00   8.9056E-05  0.0068
   7.0824E+00   7.2548E+00   8.2817E-05  0.0069
   7.2548E+00   7.4313E+00   8.0099E-05  0.0070
   7.4313E+00   7.6121E+00   7.6037E-05  0.0071
   7.6121E+00   7.7973E+00   7.0787E-05  0.0072
   7.7973E+00   7.9870E+00   6.7460E-05  0.0073
   7.9870E+00   8.1813E+00   6.4565E-05  0.0074
   8.1813E+00   8.3804E+00   6.1324E-05  0.0075
   8.3804E+00   8.5843E+00   5.7327E-05  0.0077
   8.5843E+00   8.7931E+00   5.3172E-05  0.0079
   8.7931E+00   9.0071E+00   5.1689E-05  0.0079
   9.0071E+00   9.2262E+00   4.7831E-05  0.0081
   9.2262E+00   9.4507E+00   4.5181E-05  0.0083
   9.4507E+00   9.6807E+00   4.2606E-05  0.0084
   9.6807E+00   9.9162E+00   4.1683E-05  0.0084
   9.9162E+00   1.0157E+01   4.0734E-05  0.0084
   1.0157E+01   1.0405E+01   3.7811E-05  0.0087
   1.0405E+01   1.0658E+01   3.6097E-05  0.0088
   1.0658E+01   1.0917E+01   3.3907E-05  0.0089
   1.0917E+01   1.1183E+01   3.1220E-05  0.0092
   1.1183E+01   1.1455E+01   2.9920E-05  0.0093
   1.1455E+01   1.1733E+01   2.8218E-05  0.0095
   1.1733E+01   1.2019E+01   2.6544E-05  0.0096
   1.2019E+01   1.2311E+01   2.5031E-05  0.0098
   1.2311E+01   1.2611E+01   2.4134E-05  0.0099
   1.2611E+01   1.2918E+01   2.2992E-05  0.0100
   1.2918E+01   1.3232E+01   2.1348E-05  0.0103
   1.3232E+01   1.3554E+01   2.0512E-05  0.0103
   1.3554E+01   1.3884E+01   1.9258E-05  0.0106
   1.3884E+01   1.4222E+01   1.8290E-05  0.0107
   1.4222E+01   1.4568E+01   1.7205E-05  0.0109
   1.4568E+01   1.4922E+01   1.6372E-05  0.0111
   1.4922E+01   1.5285E+01   1.5372E-05  0.0113
   1.5285E+01   1.5657E+01   1.4369E-05  0.0115
   1.5657E+01   1.6038E+01   1.3699E-05  0.0117
   1.6038E+01   1.6428E+01   1.3024E-05  0.0118
   1.6428E+01   1.6828E+01   1.2180E-05  0.0121
   1.6828E+01   1.7237E+01   1.1651E-05  0.0122
   1.7237E+01   1.7657E+01   1.0787E-05  0.0125
   1.7657E+01   1.8086E+01   1.0174E-05  0.0128
   1.8086E+01   1.8526E+01   9.5870E-06  0.0130
   1.8526E+01   1.8977E+01   8.7757E-06  0.0134
   1.8977E+01   1.9439E+01   8.0797E-06  0.0138
   1.9439E+01   1.9912E+01   7.6835E-06  0.0140
   1.9912E+01   2.0396E+01   7.4293E-06  0.0141
   2.0396E+01   2.0893E+01   6.7217E-06  0.0146
   2.0893E+01   2.1401E+01   6.4876E-06  0.0147
   2.1401E+01   2.1922E+01   6.0358E-06  0.0151
   2.1922E+01   2.2455E+01   5.5804E-06  0.0155
   2.2455E+01   2.3001E+01   5.0674E-06  0.0161
   2.3001E+01   2.3561E+01   4.8079E-06  0.0163
   2.3561E+01   2.4134E+01   4.3012E-06  0.0170
   2.4134E+01   2.4721E+01   4.0823E-06  0.0173
   2.4721E+01   2.5323E+01   3.6611E-06  0.0180
   2.5323E+01   2.5939E+01   3.2774E-06  0.0188
   2.5939E+01   2.6570E+01   2.9732E-06  0.0195
   2.6570E+01   2.7217E+01   2.6860E-06  0.0203
   2.7217E+01   2.7879E+01   2.4377E-06  0.0210
   2.7879E+01   2.8557E+01   2.1724E-06  0.0220
   2.8557E+01   2.9252E+01   1.8216E-06  0.0238
   2.9252E+01   2.9964E+01   1.6369E-06  0.0248
   2.9964E+01   3.0693E+01   1.3550E-06  0.0269
   3.0693E+01   3.1440E+01   1.2396E-06  0.0278
   3.1440E+01   3.2205E+01   1.1093E-06  0.0290
   3.2205E+01   3.2988E+01   8.8515E-07  0.0321
   3.2988E+01   3.3791E+01   8.0717E-07  0.0332
   3.3791E+01   3.4613E+01   6.8809E-07  0.0355
   3.4613E+01   3.5455E+01   5.4113E-07  0.0396
   3.5455E+01   3.6318E+01   4.4464E-07  0.0432
   3.6318E+01   3.7201E+01   3.5486E-07  0.0477
   3.7201E+01   3.8106E+01   2.8804E-07  0.0523
   3.8106E+01   3.9034E+01   2.3960E-07  0.0567
   3.9034E+01   3.9983E+01   1.7825E-07  0.0650
   3.9983E+01   4.0956E+01   1.6667E-07  0.0664
   4.0956E+01   4.1953E+01   1.2974E-07  0.0743
   4.1953E+01   4.2973E+01   1.1196E-07  0.0791
   4.2973E+01   4.4019E+01   6.0800E-08  0.1060
   4.4019E+01   4.5090E+01   3.6681E-08  0.1348
   4.5090E+01   4.6187E+01   2.6694E-08  0.1562
   4.6187E+01   4.7311E+01   1.3984E-08  0.2132
   4.7311E+01   4.8462E+01   9.3078E-09  0.2582
   4.8462E+01   4.9641E+01   1.8173E-09  0.5774
   4.9641E+01   5.0849E+01   4.7311E-09  0.3536
   5.0849E+01   5.2086E+01   3.4641E-09  0.4082
   5.2086E+01   5.3353E+01   0.0000E+00  0.0000
   5.3353E+01   5.4651E+01   0.0000E+00  0.0000
   5.4651E+01   5.5981E+01   0.0000E+00  0.0000
   5.5981E+01   5.7343E+01   0.0000E+00  0.0000
   5.7343E+01   5.8738E+01   0.0000E+00  0.0000
   5.8738E+01   6.0168E+01   0.0000E+00  0.0000
   6.0168E+01   6.1632E+01   0.0000E+00  0.0000
   6.1632E+01   6.3131E+01   0.0000E+00  0.0000
   6.3131E+01   6.4667E+01   0.0000E+00  0.0000
   6.4667E+01   6.6240E+01   0.0000E+00  0.0000
   6.6240E+01   6.7852E+01   0.0000E+00  0.0000
   6.7852E+01   6.9503E+01   0.0000E+00  0.0000
   6.9503E+01   7.1194E+01   0.0000E+00  0.0000
   7.1194E+01   7.2926E+01   0.0000E+00  0.0000
   7.2926E+01   7.4701E+01   0.0000E+00  0.0000
   7.4701E+01   7.6518E+01   0.0000E+00  0.0000
   7.6518E+01   7.8380E+01   0.0000E+00  0.0000
   7.8380E+01   8.0287E+01   0.0000E+00  0.0000
   8.0287E+01   8.2240E+01   0.0000E+00  0.0000
   8.2240E+01   8.4241E+01   0.0000E+00  0.0000
   8.4241E+01   8.6291E+01   0.0000E+00  0.0000
   8.6291E+01   8.8391E+01   0.0000E+00  0.0000
   8.8391E+01   9.0541E+01   0.0000E+00  0.0000
   9.0541E+01   9.2744E+01   0.0000E+00  0.0000
   9.2744E+01   9.5001E+01   0.0000E+00  0.0000
   9.5001E+01   9.7312E+01   0.0000E+00  0.0000
   9.7312E+01   9.9680E+01   0.0000E+00  0.0000
   9.9680E+01   1.0211E+02   0.0000E+00  0.0000
   1.0211E+02   1.0459E+02   0.0000E+00  0.0000
   1.0459E+02   1.0713E+02   0.0000E+00  0.0000
   1.0713E+02   1.0974E+02   0.0000E+00  0.0000
   1.0974E+02   1.1241E+02   0.0000E+00  0.0000
   1.1241E+02   1.1515E+02   0.0000E+00  0.0000
   1.1515E+02   1.1795E+02   0.0000E+00  0.0000
   1.1795E+02   1.2082E+02   0.0000E+00  0.0000
   1.2082E+02   1.2376E+02   0.0000E+00  0.0000
   1.2376E+02   1.2677E+02   0.0000E+00  0.0000
   1.2677E+02   1.2985E+02   0.0000E+00  0.0000
   1.2985E+02   1.3301E+02   0.0000E+00  0.0000
   1.3301E+02   1.3625E+02   0.0000E+00  0.0000
   1.3625E+02   1.3956E+02   0.0000E+00  0.0000
   1.3956E+02   1.4296E+02   0.0000E+00  0.0000
   1.4296E+02   1.4644E+02   0.0000E+00  0.0000
   1.4644E+02   1.5000E+02   0.0000E+00  0.0000

#   sum over                 1.2085E-05
'no. =    1   reg = 114 - 214'
msuc: {\huge [t-cross] in region mesh}
msdr: {\it plotted by \ANGEL \version}
msdl: {\it calculated by \PHITS  3.26}
wt: s(0.7)
\vspace{-3}
  region surface crossing
  area  &=&   1.0000E+00 [cm^2]
e:
 
# Information for Restart Calculation
# This calculation was newly started
# istdev =  2 # 1:Batch variance, 2:History variance
# resc2  = 1.40000000000000000E+09 # Total source weight or Total source weight / maxcas
# resc3  = 1.40000000000000000E+09 # Total history number or Total batch number
# maxcas =   100000000 # History / Batch, only used for istdev=1
# bitrseed = 1101000110001001101011111100100010001101001010000111001101010101 # bit data of rseed
