[ T-Cross ]
    title = [t-cross] in region mesh
     mesh =  reg            # mesh type is region-wise
      reg =    1            # number of crossing regions
      non     r-from    r-to       area
      1       125       225        1.000000    
   e-type =    3            # e-mesh is log given by emin, emax and ne
     emin =  1.0000000E-02  # minimum value of e-mesh points
     emax =   150.0000      # maximum value of e-mesh points
#    edel =  2.4039514E-02  # mesh width of e-mesh points
       ne =    400          # number of e-mesh points
#    data = ( e(i), i = 1, ne + 1 )
#           1.00000E-02  1.02433E-02  1.04925E-02  1.07478E-02  1.10093E-02
#           1.12772E-02  1.15516E-02  1.18326E-02  1.21205E-02  1.24154E-02
#           1.27175E-02  1.30269E-02  1.33439E-02  1.36686E-02  1.40011E-02
#           1.43418E-02  1.46907E-02  1.50482E-02  1.54143E-02  1.57894E-02
#           1.61735E-02  1.65670E-02  1.69701E-02  1.73830E-02  1.78060E-02
#           1.82392E-02  1.86830E-02  1.91375E-02  1.96032E-02  2.00801E-02
#           2.05687E-02  2.10692E-02  2.15818E-02  2.21069E-02  2.26448E-02
#           2.31957E-02  2.37601E-02  2.43382E-02  2.49304E-02  2.55369E-02
#           2.61583E-02  2.67947E-02  2.74467E-02  2.81145E-02  2.87985E-02
#           2.94992E-02  3.02169E-02  3.09521E-02  3.17052E-02  3.24766E-02
#           3.32668E-02  3.40762E-02  3.49053E-02  3.57546E-02  3.66246E-02
#           3.75157E-02  3.84284E-02  3.93634E-02  4.03212E-02  4.13022E-02
#           4.23071E-02  4.33365E-02  4.43909E-02  4.54710E-02  4.65773E-02
#           4.77106E-02  4.88714E-02  5.00605E-02  5.12785E-02  5.25262E-02
#           5.38042E-02  5.51133E-02  5.64542E-02  5.78278E-02  5.92348E-02
#           6.06760E-02  6.21523E-02  6.36645E-02  6.52135E-02  6.68002E-02
#           6.84255E-02  7.00904E-02  7.17957E-02  7.35426E-02  7.53319E-02
#           7.71648E-02  7.90423E-02  8.09655E-02  8.29354E-02  8.49533E-02
#           8.70203E-02  8.91376E-02  9.13064E-02  9.35279E-02  9.58035E-02
#           9.81345E-02  1.00522E-01  1.02968E-01  1.05473E-01  1.08040E-01
#           1.10668E-01  1.13361E-01  1.16119E-01  1.18944E-01  1.21838E-01
#           1.24803E-01  1.27839E-01  1.30950E-01  1.34136E-01  1.37399E-01
#           1.40742E-01  1.44167E-01  1.47675E-01  1.51268E-01  1.54948E-01
#           1.58718E-01  1.62580E-01  1.66535E-01  1.70587E-01  1.74738E-01
#           1.78989E-01  1.83344E-01  1.87805E-01  1.92375E-01  1.97055E-01
#           2.01850E-01  2.06761E-01  2.11792E-01  2.16945E-01  2.22223E-01
#           2.27630E-01  2.33169E-01  2.38842E-01  2.44653E-01  2.50605E-01
#           2.56703E-01  2.62949E-01  2.69346E-01  2.75900E-01  2.82613E-01
#           2.89489E-01  2.96532E-01  3.03747E-01  3.11138E-01  3.18708E-01
#           3.26462E-01  3.34405E-01  3.42542E-01  3.50876E-01  3.59413E-01
#           3.68158E-01  3.77116E-01  3.86291E-01  3.95690E-01  4.05317E-01
#           4.15179E-01  4.25281E-01  4.35628E-01  4.46227E-01  4.57084E-01
#           4.68205E-01  4.79597E-01  4.91266E-01  5.03219E-01  5.15463E-01
#           5.28005E-01  5.40851E-01  5.54011E-01  5.67490E-01  5.81298E-01
#           5.95441E-01  6.09929E-01  6.24769E-01  6.39970E-01  6.55541E-01
#           6.71491E-01  6.87828E-01  7.04564E-01  7.21706E-01  7.39266E-01
#           7.57253E-01  7.75678E-01  7.94551E-01  8.13883E-01  8.33685E-01
#           8.53969E-01  8.74747E-01  8.96030E-01  9.17831E-01  9.40163E-01
#           9.63038E-01  9.86469E-01  1.01047E+00  1.03506E+00  1.06024E+00
#           1.08604E+00  1.11246E+00  1.13953E+00  1.16725E+00  1.19565E+00
#           1.22474E+00  1.25454E+00  1.28507E+00  1.31633E+00  1.34836E+00
#           1.38117E+00  1.41477E+00  1.44920E+00  1.48446E+00  1.52057E+00
#           1.55757E+00  1.59547E+00  1.63429E+00  1.67405E+00  1.71478E+00
#           1.75650E+00  1.79924E+00  1.84302E+00  1.88786E+00  1.93379E+00
#           1.98084E+00  2.02904E+00  2.07841E+00  2.12898E+00  2.18078E+00
#           2.23384E+00  2.28819E+00  2.34386E+00  2.40089E+00  2.45930E+00
#           2.51914E+00  2.58043E+00  2.64322E+00  2.70753E+00  2.77341E+00
#           2.84088E+00  2.91001E+00  2.98081E+00  3.05333E+00  3.12762E+00
#           3.20372E+00  3.28167E+00  3.36152E+00  3.44330E+00  3.52708E+00
#           3.61290E+00  3.70080E+00  3.79085E+00  3.88308E+00  3.97756E+00
#           4.07434E+00  4.17347E+00  4.27501E+00  4.37903E+00  4.48557E+00
#           4.59471E+00  4.70650E+00  4.82102E+00  4.93832E+00  5.05847E+00
#           5.18155E+00  5.30762E+00  5.43676E+00  5.56904E+00  5.70453E+00
#           5.84333E+00  5.98550E+00  6.13114E+00  6.28031E+00  6.43312E+00
#           6.58964E+00  6.74997E+00  6.91420E+00  7.08243E+00  7.25475E+00
#           7.43126E+00  7.61207E+00  7.79728E+00  7.98700E+00  8.18133E+00
#           8.38038E+00  8.58428E+00  8.79315E+00  9.00709E+00  9.22624E+00
#           9.45072E+00  9.68067E+00  9.91620E+00  1.01575E+01  1.04046E+01
#           1.06578E+01  1.09171E+01  1.11827E+01  1.14548E+01  1.17335E+01
#           1.20190E+01  1.23114E+01  1.26109E+01  1.29178E+01  1.32321E+01
#           1.35540E+01  1.38838E+01  1.42216E+01  1.45676E+01  1.49221E+01
#           1.52851E+01  1.56570E+01  1.60380E+01  1.64282E+01  1.68279E+01
#           1.72374E+01  1.76568E+01  1.80864E+01  1.85264E+01  1.89772E+01
#           1.94389E+01  1.99119E+01  2.03963E+01  2.08926E+01  2.14009E+01
#           2.19216E+01  2.24550E+01  2.30014E+01  2.35610E+01  2.41343E+01
#           2.47215E+01  2.53230E+01  2.59391E+01  2.65702E+01  2.72167E+01
#           2.78789E+01  2.85572E+01  2.92520E+01  2.99637E+01  3.06928E+01
#           3.14396E+01  3.22045E+01  3.29881E+01  3.37907E+01  3.46128E+01
#           3.54550E+01  3.63177E+01  3.72013E+01  3.81064E+01  3.90336E+01
#           3.99833E+01  4.09561E+01  4.19526E+01  4.29734E+01  4.40189E+01
#           4.50900E+01  4.61870E+01  4.73108E+01  4.84619E+01  4.96410E+01
#           5.08488E+01  5.20860E+01  5.33533E+01  5.46514E+01  5.59812E+01
#           5.73432E+01  5.87384E+01  6.01676E+01  6.16315E+01  6.31311E+01
#           6.46671E+01  6.62405E+01  6.78522E+01  6.95031E+01  7.11941E+01
#           7.29263E+01  7.47007E+01  7.65182E+01  7.83800E+01  8.02870E+01
#           8.22405E+01  8.42414E+01  8.62911E+01  8.83906E+01  9.05412E+01
#           9.27442E+01  9.50007E+01  9.73122E+01  9.96799E+01  1.02105E+02
#           1.04589E+02  1.07134E+02  1.09741E+02  1.12411E+02  1.15146E+02
#           1.17948E+02  1.20817E+02  1.23757E+02  1.26768E+02  1.29852E+02
#           1.33012E+02  1.36248E+02  1.39563E+02  1.42959E+02  1.46437E+02
#           1.50000E+02
     unit =    2            # unit is [1/cm^2/(MeV/n)/source]
     axis =  eng            # axis of output
     file = detector-26.out  # file name of output for the above axis
   output = f-curr          # surface crossing forward current spectrum
     part =  neutron  
# kf/name :  2112     
#    used :        main (  %)        temp (  %)       total (  %)
#  memory :         414 (  0)           0 (  0)         414 (  0)

#------------------------------------------------------------------------------
#newpage:
#   no. =    1   reg = 125 - 225

x: Energy [MeV/n]
y:  F-Curr [1/cm^2/(MeV/n)/source]         
p: xlog ylog afac(0.8) form(0.9)
h: n            x            y(neutron ),hh0l   n 
#  e-lower      e-upper      neutron     r.err 
   1.0000E-02   1.0243E-02   8.7044E-03  0.0184
   1.0243E-02   1.0493E-02   8.3601E-03  0.0185
   1.0493E-02   1.0748E-02   8.5057E-03  0.0181
   1.0748E-02   1.1009E-02   8.0879E-03  0.0184
   1.1009E-02   1.1277E-02   8.2331E-03  0.0180
   1.1277E-02   1.1552E-02   7.9894E-03  0.0181
   1.1552E-02   1.1833E-02   7.8885E-03  0.0180
   1.1833E-02   1.2121E-02   7.6069E-03  0.0181
   1.2121E-02   1.2415E-02   7.4431E-03  0.0180
   1.2415E-02   1.2718E-02   7.5832E-03  0.0177
   1.2718E-02   1.3027E-02   7.2138E-03  0.0179
   1.3027E-02   1.3344E-02   6.9410E-03  0.0180
   1.3344E-02   1.3669E-02   7.0600E-03  0.0177
   1.3669E-02   1.4001E-02   6.8278E-03  0.0177
   1.4001E-02   1.4342E-02   6.9152E-03  0.0174
   1.4342E-02   1.4691E-02   6.6240E-03  0.0176
   1.4691E-02   1.5048E-02   6.3468E-03  0.0177
   1.5048E-02   1.5414E-02   6.4399E-03  0.0174
   1.5414E-02   1.5789E-02   6.4297E-03  0.0172
   1.5789E-02   1.6174E-02   6.5355E-03  0.0169
   1.6174E-02   1.6567E-02   6.1933E-03  0.0171
   1.6567E-02   1.6970E-02   6.1631E-03  0.0170
   1.6970E-02   1.7383E-02   6.1188E-03  0.0168
   1.7383E-02   1.7806E-02   5.8958E-03  0.0169
   1.7806E-02   1.8239E-02   5.8266E-03  0.0168
   1.8239E-02   1.8683E-02   5.5466E-03  0.0170
   1.8683E-02   1.9138E-02   5.7071E-03  0.0166
   1.9138E-02   1.9603E-02   5.5531E-03  0.0166
   1.9603E-02   2.0080E-02   5.4093E-03  0.0166
   2.0080E-02   2.0569E-02   5.3678E-03  0.0165
   2.0569E-02   2.1069E-02   5.3437E-03  0.0163
   2.1069E-02   2.1582E-02   5.2391E-03  0.0163
   2.1582E-02   2.2107E-02   5.1453E-03  0.0163
   2.2107E-02   2.2645E-02   5.0855E-03  0.0162
   2.2645E-02   2.3196E-02   4.9692E-03  0.0162
   2.3196E-02   2.3760E-02   4.9182E-03  0.0160
   2.3760E-02   2.4338E-02   4.8607E-03  0.0159
   2.4338E-02   2.4930E-02   4.6500E-03  0.0161
   2.4930E-02   2.5537E-02   4.6903E-03  0.0158
   2.5537E-02   2.6158E-02   4.6076E-03  0.0158
   2.6158E-02   2.6795E-02   4.5677E-03  0.0157
   2.6795E-02   2.7447E-02   4.3091E-03  0.0159
   2.7447E-02   2.8114E-02   4.3298E-03  0.0157
   2.8114E-02   2.8799E-02   4.3804E-03  0.0154
   2.8799E-02   2.9499E-02   4.2591E-03  0.0155
   2.9499E-02   3.0217E-02   4.1629E-03  0.0155
   3.0217E-02   3.0952E-02   4.0786E-03  0.0154
   3.0952E-02   3.1705E-02   4.1021E-03  0.0152
   3.1705E-02   3.2477E-02   4.0177E-03  0.0152
   3.2477E-02   3.3267E-02   3.8752E-03  0.0153
   3.3267E-02   3.4076E-02   3.8829E-03  0.0151
   3.4076E-02   3.4905E-02   3.9035E-03  0.0149
   3.4905E-02   3.5755E-02   3.7847E-03  0.0149
   3.5755E-02   3.6625E-02   3.6989E-03  0.0149
   3.6625E-02   3.7516E-02   3.6961E-03  0.0147
   3.7516E-02   3.8428E-02   3.7053E-03  0.0145
   3.8428E-02   3.9363E-02   3.5103E-03  0.0148
   3.9363E-02   4.0321E-02   3.4948E-03  0.0146
   4.0321E-02   4.1302E-02   3.4970E-03  0.0144
   4.1302E-02   4.2307E-02   3.3528E-03  0.0146
   4.2307E-02   4.3337E-02   3.2947E-03  0.0145
   4.3337E-02   4.4391E-02   3.2598E-03  0.0144
   4.4391E-02   4.5471E-02   3.3159E-03  0.0141
   4.5471E-02   4.6577E-02   3.2204E-03  0.0142
   4.6577E-02   4.7711E-02   3.0878E-03  0.0143
   4.7711E-02   4.8871E-02   3.0298E-03  0.0143
   4.8871E-02   5.0061E-02   3.0017E-03  0.0141
   5.0061E-02   5.1279E-02   3.0389E-03  0.0139
   5.1279E-02   5.2526E-02   2.9249E-03  0.0140
   5.2526E-02   5.3804E-02   2.9136E-03  0.0139
   5.3804E-02   5.5113E-02   2.9333E-03  0.0136
   5.5113E-02   5.6454E-02   2.8226E-03  0.0137
   5.6454E-02   5.7828E-02   2.8211E-03  0.0136
   5.7828E-02   5.9235E-02   2.7353E-03  0.0136
   5.9235E-02   6.0676E-02   2.6188E-03  0.0138
   6.0676E-02   6.2152E-02   2.6800E-03  0.0134
   6.2152E-02   6.3665E-02   2.6631E-03  0.0133
   6.3665E-02   6.5214E-02   2.6120E-03  0.0133
   6.5214E-02   6.6800E-02   2.6434E-03  0.0131
   6.6800E-02   6.8426E-02   2.5204E-03  0.0132
   6.8426E-02   7.0090E-02   2.5159E-03  0.0131
   7.0090E-02   7.1796E-02   2.4787E-03  0.0130
   7.1796E-02   7.3543E-02   2.4080E-03  0.0130
   7.3543E-02   7.5332E-02   2.3616E-03  0.0130
   7.5332E-02   7.7165E-02   2.3593E-03  0.0129
   7.7165E-02   7.9042E-02   2.3207E-03  0.0128
   7.9042E-02   8.0965E-02   2.2890E-03  0.0127
   8.0965E-02   8.2935E-02   2.2956E-03  0.0126
   8.2935E-02   8.4953E-02   2.2361E-03  0.0126
   8.4953E-02   8.7020E-02   2.1959E-03  0.0125
   8.7020E-02   8.9138E-02   2.1507E-03  0.0125
   8.9138E-02   9.1306E-02   2.1460E-03  0.0124
   9.1306E-02   9.3528E-02   2.1420E-03  0.0123
   9.3528E-02   9.5804E-02   2.0767E-03  0.0123
   9.5804E-02   9.8134E-02   2.0660E-03  0.0122
   9.8134E-02   1.0052E-01   2.0567E-03  0.0121
   1.0052E-01   1.0297E-01   2.0154E-03  0.0120
   1.0297E-01   1.0547E-01   2.0046E-03  0.0119
   1.0547E-01   1.0804E-01   1.9306E-03  0.0120
   1.0804E-01   1.1067E-01   1.9140E-03  0.0119
   1.1067E-01   1.1336E-01   1.9116E-03  0.0118
   1.1336E-01   1.1612E-01   1.8593E-03  0.0118
   1.1612E-01   1.1894E-01   1.8290E-03  0.0118
   1.1894E-01   1.2184E-01   1.7800E-03  0.0118
   1.2184E-01   1.2480E-01   1.8177E-03  0.0115
   1.2480E-01   1.2784E-01   1.7647E-03  0.0115
   1.2784E-01   1.3095E-01   1.7237E-03  0.0115
   1.3095E-01   1.3414E-01   1.6848E-03  0.0115
   1.3414E-01   1.3740E-01   1.6458E-03  0.0115
   1.3740E-01   1.4074E-01   1.6723E-03  0.0113
   1.4074E-01   1.4417E-01   1.6495E-03  0.0112
   1.4417E-01   1.4767E-01   1.6103E-03  0.0112
   1.4767E-01   1.5127E-01   1.6287E-03  0.0110
   1.5127E-01   1.5495E-01   1.5573E-03  0.0112
   1.5495E-01   1.5872E-01   1.5087E-03  0.0112
   1.5872E-01   1.6258E-01   1.5376E-03  0.0110
   1.6258E-01   1.6654E-01   1.5056E-03  0.0110
   1.6654E-01   1.7059E-01   1.4984E-03  0.0108
   1.7059E-01   1.7474E-01   1.4750E-03  0.0108
   1.7474E-01   1.7899E-01   1.4276E-03  0.0108
   1.7899E-01   1.8334E-01   1.4429E-03  0.0107
   1.8334E-01   1.8781E-01   1.4192E-03  0.0106
   1.8781E-01   1.9237E-01   1.4051E-03  0.0105
   1.9237E-01   1.9706E-01   1.3786E-03  0.0105
   1.9706E-01   2.0185E-01   1.3182E-03  0.0106
   2.0185E-01   2.0676E-01   1.3084E-03  0.0105
   2.0676E-01   2.1179E-01   1.3105E-03  0.0104
   2.1179E-01   2.1694E-01   1.3113E-03  0.0103
   2.1694E-01   2.2222E-01   1.2711E-03  0.0103
   2.2222E-01   2.2763E-01   1.2293E-03  0.0104
   2.2763E-01   2.3317E-01   1.2471E-03  0.0102
   2.3317E-01   2.3884E-01   1.2404E-03  0.0101
   2.3884E-01   2.4465E-01   1.2074E-03  0.0101
   2.4465E-01   2.5061E-01   1.1713E-03  0.0101
   2.5061E-01   2.5670E-01   1.1733E-03  0.0100
   2.5670E-01   2.6295E-01   1.1572E-03  0.0099
   2.6295E-01   2.6935E-01   1.1373E-03  0.0099
   2.6935E-01   2.7590E-01   1.1164E-03  0.0099
   2.7590E-01   2.8261E-01   1.0915E-03  0.0099
   2.8261E-01   2.8949E-01   1.0774E-03  0.0098
   2.8949E-01   2.9653E-01   1.0664E-03  0.0098
   2.9653E-01   3.0375E-01   1.0505E-03  0.0097
   3.0375E-01   3.1114E-01   1.0331E-03  0.0097
   3.1114E-01   3.1871E-01   1.0277E-03  0.0096
   3.1871E-01   3.2646E-01   9.8138E-04  0.0097
   3.2646E-01   3.3441E-01   9.8082E-04  0.0096
   3.3441E-01   3.4254E-01   9.7315E-04  0.0095
   3.4254E-01   3.5088E-01   9.5800E-04  0.0095
   3.5088E-01   3.5941E-01   9.1692E-04  0.0096
   3.5941E-01   3.6816E-01   9.1646E-04  0.0094
   3.6816E-01   3.7712E-01   8.8273E-04  0.0095
   3.7712E-01   3.8629E-01   8.7134E-04  0.0095
   3.8629E-01   3.9569E-01   8.6056E-04  0.0094
   3.9569E-01   4.0532E-01   8.6279E-04  0.0093
   4.0532E-01   4.1518E-01   8.3628E-04  0.0093
   4.1518E-01   4.2528E-01   8.1154E-04  0.0093
   4.2528E-01   4.3563E-01   8.1173E-04  0.0092
   4.3563E-01   4.4623E-01   7.8288E-04  0.0093
   4.4623E-01   4.5708E-01   7.7053E-04  0.0092
   4.5708E-01   4.6821E-01   7.5127E-04  0.0092
   4.6821E-01   4.7960E-01   7.4496E-04  0.0092
   4.7960E-01   4.9127E-01   7.3259E-04  0.0091
   4.9127E-01   5.0322E-01   7.0640E-04  0.0092
   5.0322E-01   5.1546E-01   6.9242E-04  0.0092
   5.1546E-01   5.2800E-01   6.7575E-04  0.0092
   5.2800E-01   5.4085E-01   6.6014E-04  0.0092
   5.4085E-01   5.5401E-01   6.4240E-04  0.0092
   5.5401E-01   5.6749E-01   6.2433E-04  0.0092
   5.6749E-01   5.8130E-01   6.0366E-04  0.0093
   5.8130E-01   5.9544E-01   5.9159E-04  0.0092
   5.9544E-01   6.0993E-01   5.9223E-04  0.0091
   6.0993E-01   6.2477E-01   5.6445E-04  0.0092
   6.2477E-01   6.3997E-01   5.6152E-04  0.0092
   6.3997E-01   6.5554E-01   5.3300E-04  0.0093
   6.5554E-01   6.7149E-01   5.2759E-04  0.0092
   6.7149E-01   6.8783E-01   5.0763E-04  0.0093
   6.8783E-01   7.0456E-01   4.9738E-04  0.0093
   7.0456E-01   7.2171E-01   4.8013E-04  0.0093
   7.2171E-01   7.3927E-01   4.6926E-04  0.0093
   7.3927E-01   7.5725E-01   4.4775E-04  0.0094
   7.5725E-01   7.7568E-01   4.2893E-04  0.0095
   7.7568E-01   7.9455E-01   4.2116E-04  0.0095
   7.9455E-01   8.1388E-01   4.0421E-04  0.0096
   8.1388E-01   8.3368E-01   3.9202E-04  0.0096
   8.3368E-01   8.5397E-01   3.7858E-04  0.0096
   8.5397E-01   8.7475E-01   3.6914E-04  0.0097
   8.7475E-01   8.9603E-01   3.4766E-04  0.0098
   8.9603E-01   9.1783E-01   3.3072E-04  0.0100
   9.1783E-01   9.4016E-01   3.1101E-04  0.0101
   9.4016E-01   9.6304E-01   2.9817E-04  0.0102
   9.6304E-01   9.8647E-01   2.9204E-04  0.0102
   9.8647E-01   1.0105E+00   2.7906E-04  0.0103
   1.0105E+00   1.0351E+00   2.7606E-04  0.0103
   1.0351E+00   1.0602E+00   2.7861E-04  0.0101
   1.0602E+00   1.0860E+00   2.7844E-04  0.0100
   1.0860E+00   1.1125E+00   2.8080E-04  0.0098
   1.1125E+00   1.1395E+00   2.8134E-04  0.0097
   1.1395E+00   1.1673E+00   2.9219E-04  0.0094
   1.1673E+00   1.1957E+00   2.9869E-04  0.0092
   1.1957E+00   1.2247E+00   3.0301E-04  0.0090
   1.2247E+00   1.2545E+00   3.1223E-04  0.0088
   1.2545E+00   1.2851E+00   2.9979E-04  0.0088
   1.2851E+00   1.3163E+00   3.0052E-04  0.0087
   1.3163E+00   1.3484E+00   3.0034E-04  0.0086
   1.3484E+00   1.3812E+00   3.0255E-04  0.0085
   1.3812E+00   1.4148E+00   3.1024E-04  0.0083
   1.4148E+00   1.4492E+00   3.0999E-04  0.0082
   1.4492E+00   1.4845E+00   3.0334E-04  0.0082
   1.4845E+00   1.5206E+00   2.9797E-04  0.0082
   1.5206E+00   1.5576E+00   2.9705E-04  0.0081
   1.5576E+00   1.5955E+00   2.9413E-04  0.0080
   1.5955E+00   1.6343E+00   2.9533E-04  0.0079
   1.6343E+00   1.6741E+00   2.9875E-04  0.0078
   1.6741E+00   1.7148E+00   2.9469E-04  0.0077
   1.7148E+00   1.7565E+00   2.9123E-04  0.0077
   1.7565E+00   1.7992E+00   2.8206E-04  0.0077
   1.7992E+00   1.8430E+00   2.7586E-04  0.0077
   1.8430E+00   1.8879E+00   2.7554E-04  0.0076
   1.8879E+00   1.9338E+00   2.6800E-04  0.0076
   1.9338E+00   1.9808E+00   2.6899E-04  0.0075
   1.9808E+00   2.0290E+00   2.6162E-04  0.0075
   2.0290E+00   2.0784E+00   2.5637E-04  0.0075
   2.0784E+00   2.1290E+00   2.4681E-04  0.0076
   2.1290E+00   2.1808E+00   2.4072E-04  0.0076
   2.1808E+00   2.2338E+00   2.3210E-04  0.0076
   2.2338E+00   2.2882E+00   2.2459E-04  0.0077
   2.2882E+00   2.3439E+00   2.1997E-04  0.0076
   2.3439E+00   2.4009E+00   2.1705E-04  0.0076
   2.4009E+00   2.4593E+00   2.0874E-04  0.0077
   2.4593E+00   2.5191E+00   1.9964E-04  0.0077
   2.5191E+00   2.5804E+00   1.9336E-04  0.0078
   2.5804E+00   2.6432E+00   1.8368E-04  0.0079
   2.6432E+00   2.7075E+00   1.7737E-04  0.0079
   2.7075E+00   2.7734E+00   1.6478E-04  0.0081
   2.7734E+00   2.8409E+00   1.6150E-04  0.0081
   2.8409E+00   2.9100E+00   1.5591E-04  0.0081
   2.9100E+00   2.9808E+00   1.4907E-04  0.0082
   2.9808E+00   3.0533E+00   1.4232E-04  0.0083
   3.0533E+00   3.1276E+00   1.3450E-04  0.0085
   3.1276E+00   3.2037E+00   1.2443E-04  0.0087
   3.2037E+00   3.2817E+00   1.1637E-04  0.0089
   3.2817E+00   3.3615E+00   1.1042E-04  0.0090
   3.3615E+00   3.4433E+00   1.0318E-04  0.0092
   3.4433E+00   3.5271E+00   9.7084E-05  0.0094
   3.5271E+00   3.6129E+00   9.2664E-05  0.0095
   3.6129E+00   3.7008E+00   8.6230E-05  0.0097
   3.7008E+00   3.7908E+00   7.9938E-05  0.0100
   3.7908E+00   3.8831E+00   7.5925E-05  0.0101
   3.8831E+00   3.9776E+00   7.0485E-05  0.0104
   3.9776E+00   4.0743E+00   6.5268E-05  0.0106
   4.0743E+00   4.1735E+00   6.1095E-05  0.0109
   4.1735E+00   4.2750E+00   5.5929E-05  0.0112
   4.2750E+00   4.3790E+00   5.0893E-05  0.0116
   4.3790E+00   4.4856E+00   4.7894E-05  0.0118
   4.4856E+00   4.5947E+00   4.2018E-05  0.0125
   4.5947E+00   4.7065E+00   3.9010E-05  0.0128
   4.7065E+00   4.8210E+00   3.6428E-05  0.0131
   4.8210E+00   4.9383E+00   3.3729E-05  0.0134
   4.9383E+00   5.0585E+00   3.0729E-05  0.0139
   5.0585E+00   5.1815E+00   2.7370E-05  0.0146
   5.1815E+00   5.3076E+00   2.5198E-05  0.0150
   5.3076E+00   5.4368E+00   2.2357E-05  0.0157
   5.4368E+00   5.5690E+00   2.0741E-05  0.0161
   5.5690E+00   5.7045E+00   1.9383E-05  0.0165
   5.7045E+00   5.8433E+00   1.6684E-05  0.0176
   5.8433E+00   5.9855E+00   1.5100E-05  0.0182
   5.9855E+00   6.1311E+00   1.4150E-05  0.0186
   6.1311E+00   6.2803E+00   1.2888E-05  0.0193
   6.2803E+00   6.4331E+00   1.1448E-05  0.0202
   6.4331E+00   6.5896E+00   1.0355E-05  0.0210
   6.5896E+00   6.7500E+00   9.0241E-06  0.0222
   6.7500E+00   6.9142E+00   8.2247E-06  0.0230
   6.9142E+00   7.0824E+00   7.9367E-06  0.0231
   7.0824E+00   7.2548E+00   6.8336E-06  0.0246
   7.2548E+00   7.4313E+00   6.1949E-06  0.0255
   7.4313E+00   7.6121E+00   5.9695E-06  0.0257
   7.6121E+00   7.7973E+00   5.2809E-06  0.0270
   7.7973E+00   7.9870E+00   4.3670E-06  0.0294
   7.9870E+00   8.1813E+00   4.2767E-06  0.0293
   8.1813E+00   8.3804E+00   3.8414E-06  0.0305
   8.3804E+00   8.5843E+00   3.2676E-06  0.0327
   8.5843E+00   8.7931E+00   3.1121E-06  0.0331
   8.7931E+00   9.0071E+00   2.7177E-06  0.0350
   9.0071E+00   9.2262E+00   2.4364E-06  0.0365
   9.2262E+00   9.4507E+00   2.4055E-06  0.0363
   9.4507E+00   9.6807E+00   2.1216E-06  0.0382
   9.6807E+00   9.9162E+00   1.9287E-06  0.0396
   9.9162E+00   1.0157E+01   1.7926E-06  0.0406
   1.0157E+01   1.0405E+01   1.5824E-06  0.0427
   1.0405E+01   1.0658E+01   1.4686E-06  0.0437
   1.0658E+01   1.0917E+01   1.3373E-06  0.0453
   1.0917E+01   1.1183E+01   1.2168E-06  0.0469
   1.1183E+01   1.1455E+01   1.1761E-06  0.0471
   1.1455E+01   1.1733E+01   9.9440E-07  0.0505
   1.1733E+01   1.2019E+01   8.3692E-07  0.0544
   1.2019E+01   1.2311E+01   8.5246E-07  0.0534
   1.2311E+01   1.2611E+01   9.2044E-07  0.0506
   1.2611E+01   1.2918E+01   7.4843E-07  0.0555
   1.2918E+01   1.3232E+01   6.7497E-07  0.0577
   1.3232E+01   1.3554E+01   6.5006E-07  0.0583
   1.3554E+01   1.3884E+01   6.0646E-07  0.0595
   1.3884E+01   1.4222E+01   5.5400E-07  0.0614
   1.4222E+01   1.4568E+01   5.1607E-07  0.0627
   1.4568E+01   1.4922E+01   5.1590E-07  0.0623
   1.4922E+01   1.5285E+01   4.0626E-07  0.0692
   1.5285E+01   1.5657E+01   3.8317E-07  0.0704
   1.5657E+01   1.6038E+01   3.9094E-07  0.0689
   1.6038E+01   1.6428E+01   3.9630E-07  0.0675
   1.6428E+01   1.6828E+01   3.0558E-07  0.0759
   1.6828E+01   1.7237E+01   3.0617E-07  0.0750
   1.7237E+01   1.7657E+01   3.0741E-07  0.0742
   1.7657E+01   1.8086E+01   2.7018E-07  0.0779
   1.8086E+01   1.8526E+01   2.5321E-07  0.0795
   1.8526E+01   1.8977E+01   2.2660E-07  0.0832
   1.8977E+01   1.9439E+01   2.2586E-07  0.0822
   1.9439E+01   1.9912E+01   1.5857E-07  0.0976
   1.9912E+01   2.0396E+01   1.1500E-07  0.1132
   2.0396E+01   2.0893E+01   1.0795E-07  0.1155
   2.0893E+01   2.1401E+01   1.1382E-07  0.1111
   2.1401E+01   2.1922E+01   9.1909E-08  0.1222
   2.1922E+01   2.2455E+01   1.0446E-07  0.1132
   2.2455E+01   2.3001E+01   7.8443E-08  0.1291
   2.3001E+01   2.3561E+01   1.0338E-07  0.1111
   2.3561E+01   2.4134E+01   6.8531E-08  0.1348
   2.4134E+01   2.4721E+01   8.0283E-08  0.1231
   2.4721E+01   2.5323E+01   7.1251E-08  0.1291
   2.5323E+01   2.5939E+01   6.3762E-08  0.1348
   2.5939E+01   2.6570E+01   7.5829E-08  0.1222
   2.6570E+01   2.7217E+01   5.3035E-08  0.1443
   2.7217E+01   2.7879E+01   5.5011E-08  0.1400
   2.7879E+01   2.8557E+01   3.5803E-08  0.1715
   2.8557E+01   2.9252E+01   3.8037E-08  0.1644
   2.9252E+01   2.9964E+01   3.2115E-08  0.1768
   2.9964E+01   3.0693E+01   2.5474E-08  0.1961
   3.0693E+01   3.1440E+01   3.4434E-08  0.1667
   3.1440E+01   3.2205E+01   3.1748E-08  0.1715
   3.2205E+01   3.2988E+01   2.3701E-08  0.1961
   3.2988E+01   3.3791E+01   2.4028E-08  0.1925
   3.3791E+01   3.4613E+01   1.5638E-08  0.2357
   3.4613E+01   3.5455E+01   2.2900E-08  0.1925
   3.5455E+01   3.6318E+01   1.1592E-08  0.2673
   3.6318E+01   3.7201E+01   1.7784E-08  0.2132
   3.7201E+01   3.8106E+01   1.0259E-08  0.2774
   3.8106E+01   3.9034E+01   8.4744E-09  0.3015
   3.9034E+01   3.9983E+01   1.1282E-08  0.2582
   3.9983E+01   4.0956E+01   1.0279E-08  0.2673
   4.0956E+01   4.1953E+01   5.0176E-09  0.3780
   4.1953E+01   4.2973E+01   4.1986E-09  0.4082
   4.2973E+01   4.4019E+01   5.4652E-09  0.3536
   4.4019E+01   4.5090E+01   4.0015E-09  0.4082
   4.5090E+01   4.6187E+01   1.3022E-09  0.7071
   4.6187E+01   4.7311E+01   3.8137E-09  0.4082
   4.7311E+01   4.8462E+01   0.0000E+00  0.0000
   4.8462E+01   4.9641E+01   0.0000E+00  0.0000
   4.9641E+01   5.0849E+01   1.7742E-09  0.5774
   5.0849E+01   5.2086E+01   0.0000E+00  0.0000
   5.2086E+01   5.3353E+01   0.0000E+00  0.0000
   5.3353E+01   5.4651E+01   0.0000E+00  0.0000
   5.4651E+01   5.5981E+01   0.0000E+00  0.0000
   5.5981E+01   5.7343E+01   0.0000E+00  0.0000
   5.7343E+01   5.8738E+01   0.0000E+00  0.0000
   5.8738E+01   6.0168E+01   0.0000E+00  0.0000
   6.0168E+01   6.1632E+01   0.0000E+00  0.0000
   6.1632E+01   6.3131E+01   0.0000E+00  0.0000
   6.3131E+01   6.4667E+01   0.0000E+00  0.0000
   6.4667E+01   6.6240E+01   0.0000E+00  0.0000
   6.6240E+01   6.7852E+01   0.0000E+00  0.0000
   6.7852E+01   6.9503E+01   0.0000E+00  0.0000
   6.9503E+01   7.1194E+01   0.0000E+00  0.0000
   7.1194E+01   7.2926E+01   0.0000E+00  0.0000
   7.2926E+01   7.4701E+01   0.0000E+00  0.0000
   7.4701E+01   7.6518E+01   0.0000E+00  0.0000
   7.6518E+01   7.8380E+01   0.0000E+00  0.0000
   7.8380E+01   8.0287E+01   0.0000E+00  0.0000
   8.0287E+01   8.2240E+01   0.0000E+00  0.0000
   8.2240E+01   8.4241E+01   0.0000E+00  0.0000
   8.4241E+01   8.6291E+01   0.0000E+00  0.0000
   8.6291E+01   8.8391E+01   0.0000E+00  0.0000
   8.8391E+01   9.0541E+01   0.0000E+00  0.0000
   9.0541E+01   9.2744E+01   0.0000E+00  0.0000
   9.2744E+01   9.5001E+01   0.0000E+00  0.0000
   9.5001E+01   9.7312E+01   0.0000E+00  0.0000
   9.7312E+01   9.9680E+01   0.0000E+00  0.0000
   9.9680E+01   1.0211E+02   0.0000E+00  0.0000
   1.0211E+02   1.0459E+02   0.0000E+00  0.0000
   1.0459E+02   1.0713E+02   0.0000E+00  0.0000
   1.0713E+02   1.0974E+02   0.0000E+00  0.0000
   1.0974E+02   1.1241E+02   0.0000E+00  0.0000
   1.1241E+02   1.1515E+02   0.0000E+00  0.0000
   1.1515E+02   1.1795E+02   0.0000E+00  0.0000
   1.1795E+02   1.2082E+02   0.0000E+00  0.0000
   1.2082E+02   1.2376E+02   0.0000E+00  0.0000
   1.2376E+02   1.2677E+02   0.0000E+00  0.0000
   1.2677E+02   1.2985E+02   0.0000E+00  0.0000
   1.2985E+02   1.3301E+02   0.0000E+00  0.0000
   1.3301E+02   1.3625E+02   0.0000E+00  0.0000
   1.3625E+02   1.3956E+02   0.0000E+00  0.0000
   1.3956E+02   1.4296E+02   0.0000E+00  0.0000
   1.4296E+02   1.4644E+02   0.0000E+00  0.0000
   1.4644E+02   1.5000E+02   0.0000E+00  0.0000

#   sum over                 1.1163E-05
'no. =    1   reg = 125 - 225'
msuc: {\huge [t-cross] in region mesh}
msdr: {\it plotted by \ANGEL \version}
msdl: {\it calculated by \PHITS  3.26}
wt: s(0.7)
\vspace{-3}
  region surface crossing
  area  &=&   1.0000E+00 [cm^2]
e:
 
# Information for Restart Calculation
# This calculation was newly started
# istdev =  2 # 1:Batch variance, 2:History variance
# resc2  = 1.40000000000000000E+09 # Total source weight or Total source weight / maxcas
# resc3  = 1.40000000000000000E+09 # Total history number or Total batch number
# maxcas =   100000000 # History / Batch, only used for istdev=1
# bitrseed = 1101000110001001101011111100100010001101001010000111001101010101 # bit data of rseed
