[ T-Cross ]
    title = [t-cross] in region mesh
     mesh =  reg            # mesh type is region-wise
      reg =    1            # number of crossing regions
      non     r-from    r-to       area
      1       112       212        1.000000    
   e-type =    3            # e-mesh is log given by emin, emax and ne
     emin =  1.0000000E-02  # minimum value of e-mesh points
     emax =   150.0000      # maximum value of e-mesh points
#    edel =  2.4039514E-02  # mesh width of e-mesh points
       ne =    400          # number of e-mesh points
#    data = ( e(i), i = 1, ne + 1 )
#           1.00000E-02  1.02433E-02  1.04925E-02  1.07478E-02  1.10093E-02
#           1.12772E-02  1.15516E-02  1.18326E-02  1.21205E-02  1.24154E-02
#           1.27175E-02  1.30269E-02  1.33439E-02  1.36686E-02  1.40011E-02
#           1.43418E-02  1.46907E-02  1.50482E-02  1.54143E-02  1.57894E-02
#           1.61735E-02  1.65670E-02  1.69701E-02  1.73830E-02  1.78060E-02
#           1.82392E-02  1.86830E-02  1.91375E-02  1.96032E-02  2.00801E-02
#           2.05687E-02  2.10692E-02  2.15818E-02  2.21069E-02  2.26448E-02
#           2.31957E-02  2.37601E-02  2.43382E-02  2.49304E-02  2.55369E-02
#           2.61583E-02  2.67947E-02  2.74467E-02  2.81145E-02  2.87985E-02
#           2.94992E-02  3.02169E-02  3.09521E-02  3.17052E-02  3.24766E-02
#           3.32668E-02  3.40762E-02  3.49053E-02  3.57546E-02  3.66246E-02
#           3.75157E-02  3.84284E-02  3.93634E-02  4.03212E-02  4.13022E-02
#           4.23071E-02  4.33365E-02  4.43909E-02  4.54710E-02  4.65773E-02
#           4.77106E-02  4.88714E-02  5.00605E-02  5.12785E-02  5.25262E-02
#           5.38042E-02  5.51133E-02  5.64542E-02  5.78278E-02  5.92348E-02
#           6.06760E-02  6.21523E-02  6.36645E-02  6.52135E-02  6.68002E-02
#           6.84255E-02  7.00904E-02  7.17957E-02  7.35426E-02  7.53319E-02
#           7.71648E-02  7.90423E-02  8.09655E-02  8.29354E-02  8.49533E-02
#           8.70203E-02  8.91376E-02  9.13064E-02  9.35279E-02  9.58035E-02
#           9.81345E-02  1.00522E-01  1.02968E-01  1.05473E-01  1.08040E-01
#           1.10668E-01  1.13361E-01  1.16119E-01  1.18944E-01  1.21838E-01
#           1.24803E-01  1.27839E-01  1.30950E-01  1.34136E-01  1.37399E-01
#           1.40742E-01  1.44167E-01  1.47675E-01  1.51268E-01  1.54948E-01
#           1.58718E-01  1.62580E-01  1.66535E-01  1.70587E-01  1.74738E-01
#           1.78989E-01  1.83344E-01  1.87805E-01  1.92375E-01  1.97055E-01
#           2.01850E-01  2.06761E-01  2.11792E-01  2.16945E-01  2.22223E-01
#           2.27630E-01  2.33169E-01  2.38842E-01  2.44653E-01  2.50605E-01
#           2.56703E-01  2.62949E-01  2.69346E-01  2.75900E-01  2.82613E-01
#           2.89489E-01  2.96532E-01  3.03747E-01  3.11138E-01  3.18708E-01
#           3.26462E-01  3.34405E-01  3.42542E-01  3.50876E-01  3.59413E-01
#           3.68158E-01  3.77116E-01  3.86291E-01  3.95690E-01  4.05317E-01
#           4.15179E-01  4.25281E-01  4.35628E-01  4.46227E-01  4.57084E-01
#           4.68205E-01  4.79597E-01  4.91266E-01  5.03219E-01  5.15463E-01
#           5.28005E-01  5.40851E-01  5.54011E-01  5.67490E-01  5.81298E-01
#           5.95441E-01  6.09929E-01  6.24769E-01  6.39970E-01  6.55541E-01
#           6.71491E-01  6.87828E-01  7.04564E-01  7.21706E-01  7.39266E-01
#           7.57253E-01  7.75678E-01  7.94551E-01  8.13883E-01  8.33685E-01
#           8.53969E-01  8.74747E-01  8.96030E-01  9.17831E-01  9.40163E-01
#           9.63038E-01  9.86469E-01  1.01047E+00  1.03506E+00  1.06024E+00
#           1.08604E+00  1.11246E+00  1.13953E+00  1.16725E+00  1.19565E+00
#           1.22474E+00  1.25454E+00  1.28507E+00  1.31633E+00  1.34836E+00
#           1.38117E+00  1.41477E+00  1.44920E+00  1.48446E+00  1.52057E+00
#           1.55757E+00  1.59547E+00  1.63429E+00  1.67405E+00  1.71478E+00
#           1.75650E+00  1.79924E+00  1.84302E+00  1.88786E+00  1.93379E+00
#           1.98084E+00  2.02904E+00  2.07841E+00  2.12898E+00  2.18078E+00
#           2.23384E+00  2.28819E+00  2.34386E+00  2.40089E+00  2.45930E+00
#           2.51914E+00  2.58043E+00  2.64322E+00  2.70753E+00  2.77341E+00
#           2.84088E+00  2.91001E+00  2.98081E+00  3.05333E+00  3.12762E+00
#           3.20372E+00  3.28167E+00  3.36152E+00  3.44330E+00  3.52708E+00
#           3.61290E+00  3.70080E+00  3.79085E+00  3.88308E+00  3.97756E+00
#           4.07434E+00  4.17347E+00  4.27501E+00  4.37903E+00  4.48557E+00
#           4.59471E+00  4.70650E+00  4.82102E+00  4.93832E+00  5.05847E+00
#           5.18155E+00  5.30762E+00  5.43676E+00  5.56904E+00  5.70453E+00
#           5.84333E+00  5.98550E+00  6.13114E+00  6.28031E+00  6.43312E+00
#           6.58964E+00  6.74997E+00  6.91420E+00  7.08243E+00  7.25475E+00
#           7.43126E+00  7.61207E+00  7.79728E+00  7.98700E+00  8.18133E+00
#           8.38038E+00  8.58428E+00  8.79315E+00  9.00709E+00  9.22624E+00
#           9.45072E+00  9.68067E+00  9.91620E+00  1.01575E+01  1.04046E+01
#           1.06578E+01  1.09171E+01  1.11827E+01  1.14548E+01  1.17335E+01
#           1.20190E+01  1.23114E+01  1.26109E+01  1.29178E+01  1.32321E+01
#           1.35540E+01  1.38838E+01  1.42216E+01  1.45676E+01  1.49221E+01
#           1.52851E+01  1.56570E+01  1.60380E+01  1.64282E+01  1.68279E+01
#           1.72374E+01  1.76568E+01  1.80864E+01  1.85264E+01  1.89772E+01
#           1.94389E+01  1.99119E+01  2.03963E+01  2.08926E+01  2.14009E+01
#           2.19216E+01  2.24550E+01  2.30014E+01  2.35610E+01  2.41343E+01
#           2.47215E+01  2.53230E+01  2.59391E+01  2.65702E+01  2.72167E+01
#           2.78789E+01  2.85572E+01  2.92520E+01  2.99637E+01  3.06928E+01
#           3.14396E+01  3.22045E+01  3.29881E+01  3.37907E+01  3.46128E+01
#           3.54550E+01  3.63177E+01  3.72013E+01  3.81064E+01  3.90336E+01
#           3.99833E+01  4.09561E+01  4.19526E+01  4.29734E+01  4.40189E+01
#           4.50900E+01  4.61870E+01  4.73108E+01  4.84619E+01  4.96410E+01
#           5.08488E+01  5.20860E+01  5.33533E+01  5.46514E+01  5.59812E+01
#           5.73432E+01  5.87384E+01  6.01676E+01  6.16315E+01  6.31311E+01
#           6.46671E+01  6.62405E+01  6.78522E+01  6.95031E+01  7.11941E+01
#           7.29263E+01  7.47007E+01  7.65182E+01  7.83800E+01  8.02870E+01
#           8.22405E+01  8.42414E+01  8.62911E+01  8.83906E+01  9.05412E+01
#           9.27442E+01  9.50007E+01  9.73122E+01  9.96799E+01  1.02105E+02
#           1.04589E+02  1.07134E+02  1.09741E+02  1.12411E+02  1.15146E+02
#           1.17948E+02  1.20817E+02  1.23757E+02  1.26768E+02  1.29852E+02
#           1.33012E+02  1.36248E+02  1.39563E+02  1.42959E+02  1.46437E+02
#           1.50000E+02
     unit =    2            # unit is [1/cm^2/(MeV/n)/source]
     axis =  eng            # axis of output
     file = detector-13.out  # file name of output for the above axis
   output = f-curr          # surface crossing forward current spectrum
     part =  neutron  
# kf/name :  2112     
#    used :        main (  %)        temp (  %)       total (  %)
#  memory :         414 (  0)           0 (  0)         414 (  0)

#------------------------------------------------------------------------------
#newpage:
#   no. =    1   reg = 112 - 212

x: Energy [MeV/n]
y:  F-Curr [1/cm^2/(MeV/n)/source]         
p: xlog ylog afac(0.8) form(0.9)
h: n            x            y(neutron ),hh0l   n 
#  e-lower      e-upper      neutron     r.err 
   1.0000E-02   1.0243E-02   3.2499E-03  0.0301
   1.0243E-02   1.0493E-02   3.3160E-03  0.0294
   1.0493E-02   1.0748E-02   3.1924E-03  0.0296
   1.0748E-02   1.1009E-02   3.0128E-03  0.0301
   1.1009E-02   1.1277E-02   2.9999E-03  0.0298
   1.1277E-02   1.1552E-02   2.9885E-03  0.0295
   1.1552E-02   1.1833E-02   2.8515E-03  0.0299
   1.1833E-02   1.2121E-02   2.8284E-03  0.0296
   1.2121E-02   1.2415E-02   2.7878E-03  0.0295
   1.2415E-02   1.2718E-02   2.6933E-03  0.0296
   1.2718E-02   1.3027E-02   2.6304E-03  0.0296
   1.3027E-02   1.3344E-02   2.4654E-03  0.0302
   1.3344E-02   1.3669E-02   2.3629E-03  0.0305
   1.3669E-02   1.4001E-02   2.4431E-03  0.0296
   1.4001E-02   1.4342E-02   2.3253E-03  0.0300
   1.4342E-02   1.4691E-02   2.3602E-03  0.0294
   1.4691E-02   1.5048E-02   2.1992E-03  0.0301
   1.5048E-02   1.5414E-02   2.1733E-03  0.0300
   1.5414E-02   1.5789E-02   2.1083E-03  0.0301
   1.5789E-02   1.6174E-02   2.0583E-03  0.0301
   1.6174E-02   1.6567E-02   1.8950E-03  0.0309
   1.6567E-02   1.6970E-02   1.9829E-03  0.0299
   1.6970E-02   1.7383E-02   1.7334E-03  0.0316
   1.7383E-02   1.7806E-02   1.8645E-03  0.0301
   1.7806E-02   1.8239E-02   1.7592E-03  0.0306
   1.8239E-02   1.8683E-02   1.8253E-03  0.0297
   1.8683E-02   1.9138E-02   1.6185E-03  0.0312
   1.9138E-02   1.9603E-02   1.6337E-03  0.0306
   1.9603E-02   2.0080E-02   1.5829E-03  0.0308
   2.0080E-02   2.0569E-02   1.4708E-03  0.0315
   2.0569E-02   2.1069E-02   1.4201E-03  0.0317
   2.1069E-02   2.1582E-02   1.4951E-03  0.0305
   2.1582E-02   2.2107E-02   1.3752E-03  0.0315
   2.2107E-02   2.2645E-02   1.4037E-03  0.0308
   2.2645E-02   2.3196E-02   1.2783E-03  0.0318
   2.3196E-02   2.3760E-02   1.2542E-03  0.0318
   2.3760E-02   2.4338E-02   1.2417E-03  0.0315
   2.4338E-02   2.4930E-02   1.1990E-03  0.0317
   2.4930E-02   2.5537E-02   1.1905E-03  0.0315
   2.5537E-02   2.6158E-02   1.1209E-03  0.0320
   2.6158E-02   2.6795E-02   1.0695E-03  0.0324
   2.6795E-02   2.7447E-02   1.1406E-03  0.0310
   2.7447E-02   2.8114E-02   1.0760E-03  0.0315
   2.8114E-02   2.8799E-02   1.0254E-03  0.0319
   2.8799E-02   2.9499E-02   1.0082E-03  0.0318
   2.9499E-02   3.0217E-02   9.5837E-04  0.0322
   3.0217E-02   3.0952E-02   9.3026E-04  0.0323
   3.0952E-02   3.1705E-02   9.4942E-04  0.0316
   3.1705E-02   3.2477E-02   8.5002E-04  0.0330
   3.2477E-02   3.3267E-02   9.0485E-04  0.0316
   3.3267E-02   3.4076E-02   7.8982E-04  0.0334
   3.4076E-02   3.4905E-02   8.2060E-04  0.0324
   3.4905E-02   3.5755E-02   8.2213E-04  0.0320
   3.5755E-02   3.6625E-02   7.5457E-04  0.0330
   3.6625E-02   3.7516E-02   7.5268E-04  0.0326
   3.7516E-02   3.8428E-02   7.2150E-04  0.0329
   3.8428E-02   3.9363E-02   7.4599E-04  0.0320
   3.9363E-02   4.0321E-02   6.4363E-04  0.0340
   4.0321E-02   4.1302E-02   6.5746E-04  0.0333
   4.1302E-02   4.2307E-02   6.1981E-04  0.0339
   4.2307E-02   4.3337E-02   6.0717E-04  0.0338
   4.3337E-02   4.4391E-02   5.9343E-04  0.0338
   4.4391E-02   4.5471E-02   5.5321E-04  0.0346
   4.5471E-02   4.6577E-02   5.5782E-04  0.0340
   4.6577E-02   4.7711E-02   5.1243E-04  0.0351
   4.7711E-02   4.8871E-02   5.4087E-04  0.0337
   4.8871E-02   5.0061E-02   5.0519E-04  0.0345
   5.0061E-02   5.1279E-02   5.0023E-04  0.0342
   5.1279E-02   5.2526E-02   4.9236E-04  0.0341
   5.2526E-02   5.3804E-02   4.5886E-04  0.0349
   5.3804E-02   5.5113E-02   4.5724E-04  0.0345
   5.5113E-02   5.6454E-02   4.2667E-04  0.0353
   5.6454E-02   5.7828E-02   4.4228E-04  0.0343
   5.7828E-02   5.9235E-02   4.2390E-04  0.0346
   5.9235E-02   6.0676E-02   4.2573E-04  0.0341
   6.0676E-02   6.2152E-02   3.7255E-04  0.0360
   6.2152E-02   6.3665E-02   3.6559E-04  0.0359
   6.3665E-02   6.5214E-02   3.4538E-04  0.0365
   6.5214E-02   6.6800E-02   3.5428E-04  0.0356
   6.6800E-02   6.8426E-02   3.5774E-04  0.0350
   6.8426E-02   7.0090E-02   3.2435E-04  0.0364
   7.0090E-02   7.1796E-02   3.2796E-04  0.0357
   7.1796E-02   7.3543E-02   3.3080E-04  0.0352
   7.3543E-02   7.5332E-02   3.0358E-04  0.0363
   7.5332E-02   7.7165E-02   3.0202E-04  0.0359
   7.7165E-02   7.9042E-02   3.0017E-04  0.0356
   7.9042E-02   8.0965E-02   2.5999E-04  0.0378
   8.0965E-02   8.2935E-02   2.6233E-04  0.0372
   8.2935E-02   8.4953E-02   2.4672E-04  0.0379
   8.4953E-02   8.7020E-02   2.4190E-04  0.0378
   8.7020E-02   8.9138E-02   2.2991E-04  0.0383
   8.9138E-02   9.1306E-02   2.2593E-04  0.0382
   9.1306E-02   9.3528E-02   2.3037E-04  0.0374
   9.3528E-02   9.5804E-02   2.0622E-04  0.0390
   9.5804E-02   9.8134E-02   1.9841E-04  0.0393
   9.8134E-02   1.0052E-01   2.0178E-04  0.0385
   1.0052E-01   1.0297E-01   2.0064E-04  0.0382
   1.0297E-01   1.0547E-01   1.8076E-04  0.0397
   1.0547E-01   1.0804E-01   1.8844E-04  0.0384
   1.0804E-01   1.1067E-01   1.7961E-04  0.0389
   1.1067E-01   1.1336E-01   1.7866E-04  0.0385
   1.1336E-01   1.1612E-01   1.6497E-04  0.0396
   1.1612E-01   1.1894E-01   1.6206E-04  0.0395
   1.1894E-01   1.2184E-01   1.6277E-04  0.0389
   1.2184E-01   1.2480E-01   1.5023E-04  0.0400
   1.2480E-01   1.2784E-01   1.5525E-04  0.0389
   1.2784E-01   1.3095E-01   1.4490E-04  0.0398
   1.3095E-01   1.3414E-01   1.3956E-04  0.0401
   1.3414E-01   1.3740E-01   1.3285E-04  0.0406
   1.3740E-01   1.4074E-01   1.2777E-04  0.0409
   1.4074E-01   1.4417E-01   1.2724E-04  0.0405
   1.4417E-01   1.4767E-01   1.2442E-04  0.0405
   1.4767E-01   1.5127E-01   1.2981E-04  0.0391
   1.5127E-01   1.5495E-01   1.1897E-04  0.0404
   1.5495E-01   1.5872E-01   1.0496E-04  0.0425
   1.5872E-01   1.6258E-01   1.0321E-04  0.0423
   1.6258E-01   1.6654E-01   1.0563E-04  0.0413
   1.6654E-01   1.7059E-01   9.9952E-05  0.0420
   1.7059E-01   1.7474E-01   9.4652E-05  0.0426
   1.7474E-01   1.7899E-01   9.5008E-05  0.0420
   1.7899E-01   1.8334E-01   8.5781E-05  0.0437
   1.8334E-01   1.8781E-01   8.3423E-05  0.0438
   1.8781E-01   1.9237E-01   9.2306E-05  0.0411
   1.9237E-01   1.9706E-01   8.2101E-05  0.0431
   1.9706E-01   2.0185E-01   7.7767E-05  0.0438
   2.0185E-01   2.0676E-01   7.7520E-05  0.0433
   2.0676E-01   2.1179E-01   7.5111E-05  0.0435
   2.1179E-01   2.1694E-01   7.7347E-05  0.0423
   2.1694E-01   2.2222E-01   6.8067E-05  0.0446
   2.2222E-01   2.2763E-01   6.8431E-05  0.0439
   2.2763E-01   2.3317E-01   6.5710E-05  0.0443
   2.3317E-01   2.3884E-01   7.0255E-05  0.0423
   2.3884E-01   2.4465E-01   6.4162E-05  0.0438
   2.4465E-01   2.5061E-01   6.5578E-05  0.0428
   2.5061E-01   2.5670E-01   5.7518E-05  0.0451
   2.5670E-01   2.6295E-01   5.7410E-05  0.0446
   2.6295E-01   2.6935E-01   5.2195E-05  0.0462
   2.6935E-01   2.7590E-01   5.0137E-05  0.0466
   2.7590E-01   2.8261E-01   5.4480E-05  0.0442
   2.8261E-01   2.8949E-01   5.3186E-05  0.0442
   2.8949E-01   2.9653E-01   5.0503E-05  0.0448
   2.9653E-01   3.0375E-01   4.8956E-05  0.0450
   3.0375E-01   3.1114E-01   4.7262E-05  0.0452
   3.1114E-01   3.1871E-01   4.7932E-05  0.0444
   3.1871E-01   3.2646E-01   4.1727E-05  0.0470
   3.2646E-01   3.3441E-01   4.2175E-05  0.0462
   3.3441E-01   3.4254E-01   4.3412E-05  0.0450
   3.4254E-01   3.5088E-01   4.1738E-05  0.0453
   3.5088E-01   3.5941E-01   3.7902E-05  0.0470
   3.5941E-01   3.6816E-01   3.9983E-05  0.0452
   3.6816E-01   3.7712E-01   3.9751E-05  0.0448
   3.7712E-01   3.8629E-01   3.6043E-05  0.0465
   3.8629E-01   3.9569E-01   3.8151E-05  0.0446
   3.9569E-01   4.0532E-01   3.4537E-05  0.0463
   4.0532E-01   4.1518E-01   3.2739E-05  0.0470
   4.1518E-01   4.2528E-01   3.2951E-05  0.0463
   4.2528E-01   4.3563E-01   3.0408E-05  0.0476
   4.3563E-01   4.4623E-01   3.3864E-05  0.0446
   4.4623E-01   4.5708E-01   2.8882E-05  0.0477
   4.5708E-01   4.6821E-01   2.9994E-05  0.0463
   4.6821E-01   4.7960E-01   3.0849E-05  0.0451
   4.7960E-01   4.9127E-01   2.8280E-05  0.0465
   4.9127E-01   5.0322E-01   2.6951E-05  0.0471
   5.0322E-01   5.1546E-01   2.7828E-05  0.0458
   5.1546E-01   5.2800E-01   2.4661E-05  0.0481
   5.2800E-01   5.4085E-01   2.5298E-05  0.0469
   5.4085E-01   5.5401E-01   2.2472E-05  0.0491
   5.5401E-01   5.6749E-01   2.2627E-05  0.0484
   5.6749E-01   5.8130E-01   2.3357E-05  0.0470
   5.8130E-01   5.9544E-01   2.2247E-05  0.0476
   5.9544E-01   6.0993E-01   2.2556E-05  0.0467
   6.0993E-01   6.2477E-01   2.0360E-05  0.0486
   6.2477E-01   6.3997E-01   2.0299E-05  0.0481
   6.3997E-01   6.5554E-01   2.0941E-05  0.0468
   6.5554E-01   6.7149E-01   1.7913E-05  0.0500
   6.7149E-01   6.8783E-01   2.0067E-05  0.0467
   6.8783E-01   7.0456E-01   1.6816E-05  0.0504
   7.0456E-01   7.2171E-01   1.6979E-05  0.0495
   7.2171E-01   7.3927E-01   1.7186E-05  0.0486
   7.3927E-01   7.5725E-01   1.8148E-05  0.0468
   7.5725E-01   7.7568E-01   1.5856E-05  0.0494
   7.7568E-01   7.9455E-01   1.6501E-05  0.0479
   7.9455E-01   8.1388E-01   1.5518E-05  0.0488
   8.1388E-01   8.3368E-01   1.6592E-05  0.0466
   8.3368E-01   8.5397E-01   1.3857E-05  0.0504
   8.5397E-01   8.7475E-01   1.5023E-05  0.0478
   8.7475E-01   8.9603E-01   1.3626E-05  0.0496
   8.9603E-01   9.1783E-01   1.4056E-05  0.0483
   9.1783E-01   9.4016E-01   1.3658E-05  0.0484
   9.4016E-01   9.6304E-01   1.2022E-05  0.0510
   9.6304E-01   9.8647E-01   1.2788E-05  0.0488
   9.8647E-01   1.0105E+00   1.2946E-05  0.0479
   1.0105E+00   1.0351E+00   1.2900E-05  0.0475
   1.0351E+00   1.0602E+00   1.3699E-05  0.0455
   1.0602E+00   1.0860E+00   1.5368E-05  0.0424
   1.0860E+00   1.1125E+00   1.4651E-05  0.0430
   1.1125E+00   1.1395E+00   1.6216E-05  0.0403
   1.1395E+00   1.1673E+00   1.5625E-05  0.0406
   1.1673E+00   1.1957E+00   1.8335E-05  0.0370
   1.1957E+00   1.2247E+00   1.6733E-05  0.0383
   1.2247E+00   1.2545E+00   1.8529E-05  0.0360
   1.2545E+00   1.2851E+00   1.9949E-05  0.0342
   1.2851E+00   1.3163E+00   2.1337E-05  0.0327
   1.3163E+00   1.3484E+00   2.0574E-05  0.0329
   1.3484E+00   1.3812E+00   2.2208E-05  0.0313
   1.3812E+00   1.4148E+00   2.3147E-05  0.0303
   1.4148E+00   1.4492E+00   2.4838E-05  0.0289
   1.4492E+00   1.4845E+00   2.4694E-05  0.0286
   1.4845E+00   1.5206E+00   2.4928E-05  0.0282
   1.5206E+00   1.5576E+00   2.7985E-05  0.0263
   1.5576E+00   1.5955E+00   2.8348E-05  0.0258
   1.5955E+00   1.6343E+00   2.8778E-05  0.0253
   1.6343E+00   1.6741E+00   3.0574E-05  0.0242
   1.6741E+00   1.7148E+00   3.2732E-05  0.0231
   1.7148E+00   1.7565E+00   3.1758E-05  0.0232
   1.7565E+00   1.7992E+00   3.3694E-05  0.0223
   1.7992E+00   1.8430E+00   3.4126E-05  0.0219
   1.8430E+00   1.8879E+00   3.4598E-05  0.0215
   1.8879E+00   1.9338E+00   3.5315E-05  0.0210
   1.9338E+00   1.9808E+00   3.7733E-05  0.0201
   1.9808E+00   2.0290E+00   3.9097E-05  0.0195
   2.0290E+00   2.0784E+00   3.8465E-05  0.0194
   2.0784E+00   2.1290E+00   4.0101E-05  0.0188
   2.1290E+00   2.1808E+00   3.8576E-05  0.0189
   2.1808E+00   2.2338E+00   4.0912E-05  0.0181
   2.2338E+00   2.2882E+00   4.0714E-05  0.0180
   2.2882E+00   2.3439E+00   4.2230E-05  0.0174
   2.3439E+00   2.4009E+00   4.2667E-05  0.0171
   2.4009E+00   2.4593E+00   4.4594E-05  0.0166
   2.4593E+00   2.5191E+00   4.3171E-05  0.0166
   2.5191E+00   2.5804E+00   4.2250E-05  0.0166
   2.5804E+00   2.6432E+00   4.3630E-05  0.0161
   2.6432E+00   2.7075E+00   4.3932E-05  0.0159
   2.7075E+00   2.7734E+00   4.2905E-05  0.0159
   2.7734E+00   2.8409E+00   4.3696E-05  0.0156
   2.8409E+00   2.9100E+00   4.4994E-05  0.0152
   2.9100E+00   2.9808E+00   4.5272E-05  0.0149
   2.9808E+00   3.0533E+00   4.5600E-05  0.0147
   3.0533E+00   3.1276E+00   4.2546E-05  0.0150
   3.1276E+00   3.2037E+00   4.1713E-05  0.0150
   3.2037E+00   3.2817E+00   4.1066E-05  0.0149
   3.2817E+00   3.3615E+00   4.1544E-05  0.0147
   3.3615E+00   3.4433E+00   4.0929E-05  0.0146
   3.4433E+00   3.5271E+00   4.1410E-05  0.0143
   3.5271E+00   3.6129E+00   4.0614E-05  0.0143
   3.6129E+00   3.7008E+00   4.0271E-05  0.0142
   3.7008E+00   3.7908E+00   3.9346E-05  0.0142
   3.7908E+00   3.8831E+00   3.7862E-05  0.0143
   3.8831E+00   3.9776E+00   3.9094E-05  0.0139
   3.9776E+00   4.0743E+00   3.7125E-05  0.0141
   4.0743E+00   4.1735E+00   3.5706E-05  0.0142
   4.1735E+00   4.2750E+00   3.4686E-05  0.0142
   4.2750E+00   4.3790E+00   3.4490E-05  0.0141
   4.3790E+00   4.4856E+00   3.2575E-05  0.0143
   4.4856E+00   4.5947E+00   3.2076E-05  0.0143
   4.5947E+00   4.7065E+00   3.1915E-05  0.0141
   4.7065E+00   4.8210E+00   3.2145E-05  0.0139
   4.8210E+00   4.9383E+00   3.1625E-05  0.0139
   4.9383E+00   5.0585E+00   3.0770E-05  0.0139
   5.0585E+00   5.1815E+00   2.9755E-05  0.0140
   5.1815E+00   5.3076E+00   2.9014E-05  0.0140
   5.3076E+00   5.4368E+00   2.7921E-05  0.0141
   5.4368E+00   5.5690E+00   2.7344E-05  0.0141
   5.5690E+00   5.7045E+00   2.6908E-05  0.0140
   5.7045E+00   5.8433E+00   2.6356E-05  0.0140
   5.8433E+00   5.9855E+00   2.6376E-05  0.0138
   5.9855E+00   6.1311E+00   2.5999E-05  0.0137
   6.1311E+00   6.2803E+00   2.6176E-05  0.0135
   6.2803E+00   6.4331E+00   2.5009E-05  0.0137
   6.4331E+00   6.5896E+00   2.4702E-05  0.0136
   6.5896E+00   6.7500E+00   2.5184E-05  0.0133
   6.7500E+00   6.9142E+00   2.4448E-05  0.0133
   6.9142E+00   7.0824E+00   2.4295E-05  0.0132
   7.0824E+00   7.2548E+00   2.4004E-05  0.0131
   7.2548E+00   7.4313E+00   2.4129E-05  0.0129
   7.4313E+00   7.6121E+00   2.3894E-05  0.0129
   7.6121E+00   7.7973E+00   2.4274E-05  0.0126
   7.7973E+00   7.9870E+00   2.4598E-05  0.0124
   7.9870E+00   8.1813E+00   2.4625E-05  0.0122
   8.1813E+00   8.3804E+00   2.3790E-05  0.0123
   8.3804E+00   8.5843E+00   2.4592E-05  0.0119
   8.5843E+00   8.7931E+00   2.3800E-05  0.0120
   8.7931E+00   9.0071E+00   2.4282E-05  0.0117
   9.0071E+00   9.2262E+00   2.4069E-05  0.0116
   9.2262E+00   9.4507E+00   2.4200E-05  0.0115
   9.4507E+00   9.6807E+00   2.4205E-05  0.0113
   9.6807E+00   9.9162E+00   2.3448E-05  0.0114
   9.9162E+00   1.0157E+01   2.4389E-05  0.0110
   1.0157E+01   1.0405E+01   2.4211E-05  0.0109
   1.0405E+01   1.0658E+01   2.3765E-05  0.0109
   1.0658E+01   1.0917E+01   2.4018E-05  0.0107
   1.0917E+01   1.1183E+01   2.4323E-05  0.0105
   1.1183E+01   1.1455E+01   2.4063E-05  0.0104
   1.1455E+01   1.1733E+01   2.3693E-05  0.0104
   1.1733E+01   1.2019E+01   2.4236E-05  0.0101
   1.2019E+01   1.2311E+01   2.3725E-05  0.0101
   1.2311E+01   1.2611E+01   2.3023E-05  0.0102
   1.2611E+01   1.2918E+01   2.3697E-05  0.0099
   1.2918E+01   1.3232E+01   2.3232E-05  0.0099
   1.3232E+01   1.3554E+01   2.2973E-05  0.0098
   1.3554E+01   1.3884E+01   2.2789E-05  0.0097
   1.3884E+01   1.4222E+01   2.2331E-05  0.0097
   1.4222E+01   1.4568E+01   2.2199E-05  0.0096
   1.4568E+01   1.4922E+01   2.1651E-05  0.0096
   1.4922E+01   1.5285E+01   2.1655E-05  0.0095
   1.5285E+01   1.5657E+01   2.1223E-05  0.0095
   1.5657E+01   1.6038E+01   2.0710E-05  0.0095
   1.6038E+01   1.6428E+01   2.0053E-05  0.0095
   1.6428E+01   1.6828E+01   1.9849E-05  0.0095
   1.6828E+01   1.7237E+01   1.9336E-05  0.0095
   1.7237E+01   1.7657E+01   1.9309E-05  0.0094
   1.7657E+01   1.8086E+01   1.8444E-05  0.0095
   1.8086E+01   1.8526E+01   1.7808E-05  0.0095
   1.8526E+01   1.8977E+01   1.7405E-05  0.0095
   1.8977E+01   1.9439E+01   1.7145E-05  0.0095
   1.9439E+01   1.9912E+01   1.6061E-05  0.0097
   1.9912E+01   2.0396E+01   1.3391E-05  0.0105
   2.0396E+01   2.0893E+01   1.3809E-05  0.0102
   2.0893E+01   2.1401E+01   1.3321E-05  0.0103
   2.1401E+01   2.1922E+01   1.2655E-05  0.0104
   2.1922E+01   2.2455E+01   1.2307E-05  0.0104
   2.2455E+01   2.3001E+01   1.1667E-05  0.0106
   2.3001E+01   2.3561E+01   1.1119E-05  0.0107
   2.3561E+01   2.4134E+01   1.0788E-05  0.0107
   2.4134E+01   2.4721E+01   1.0348E-05  0.0108
   2.4721E+01   2.5323E+01   9.7745E-06  0.0110
   2.5323E+01   2.5939E+01   9.0867E-06  0.0113
   2.5939E+01   2.6570E+01   8.6355E-06  0.0114
   2.6570E+01   2.7217E+01   8.1906E-06  0.0116
   2.7217E+01   2.7879E+01   7.5840E-06  0.0119
   2.7879E+01   2.8557E+01   7.2406E-06  0.0121
   2.8557E+01   2.9252E+01   6.6770E-06  0.0124
   2.9252E+01   2.9964E+01   6.3989E-06  0.0125
   2.9964E+01   3.0693E+01   5.9285E-06  0.0129
   3.0693E+01   3.1440E+01   5.5428E-06  0.0131
   3.1440E+01   3.2205E+01   5.1114E-06  0.0135
   3.2205E+01   3.2988E+01   4.5671E-06  0.0141
   3.2988E+01   3.3791E+01   4.3473E-06  0.0143
   3.3791E+01   3.4613E+01   3.9487E-06  0.0148
   3.4613E+01   3.5455E+01   3.5131E-06  0.0155
   3.5455E+01   3.6318E+01   3.2110E-06  0.0161
   3.6318E+01   3.7201E+01   2.8963E-06  0.0167
   3.7201E+01   3.8106E+01   2.5371E-06  0.0176
   3.8106E+01   3.9034E+01   2.3212E-06  0.0182
   3.9034E+01   3.9983E+01   2.0209E-06  0.0193
   3.9983E+01   4.0956E+01   1.7225E-06  0.0206
   4.0956E+01   4.1953E+01   1.5440E-06  0.0215
   4.1953E+01   4.2973E+01   1.3037E-06  0.0232
   4.2973E+01   4.4019E+01   1.0691E-06  0.0253
   4.4019E+01   4.5090E+01   9.1035E-07  0.0271
   4.5090E+01   4.6187E+01   7.6046E-07  0.0293
   4.6187E+01   4.7311E+01   6.0320E-07  0.0325
   4.7311E+01   4.8462E+01   4.9083E-07  0.0356
   4.8462E+01   4.9641E+01   4.0466E-07  0.0387
   4.9641E+01   5.0849E+01   2.7027E-07  0.0468
   5.0849E+01   5.2086E+01   1.8417E-07  0.0560
   5.2086E+01   5.3353E+01   1.3527E-07  0.0645
   5.3353E+01   5.4651E+01   1.0014E-07  0.0741
   5.4651E+01   5.5981E+01   4.5123E-08  0.1091
   5.5981E+01   5.7343E+01   2.3599E-08  0.1491
   5.7343E+01   5.8738E+01   9.2152E-09  0.2357
   5.8738E+01   6.0168E+01   0.0000E+00  0.0000
   6.0168E+01   6.1632E+01   0.0000E+00  0.0000
   6.1632E+01   6.3131E+01   0.0000E+00  0.0000
   6.3131E+01   6.4667E+01   0.0000E+00  0.0000
   6.4667E+01   6.6240E+01   0.0000E+00  0.0000
   6.6240E+01   6.7852E+01   0.0000E+00  0.0000
   6.7852E+01   6.9503E+01   0.0000E+00  0.0000
   6.9503E+01   7.1194E+01   0.0000E+00  0.0000
   7.1194E+01   7.2926E+01   0.0000E+00  0.0000
   7.2926E+01   7.4701E+01   0.0000E+00  0.0000
   7.4701E+01   7.6518E+01   0.0000E+00  0.0000
   7.6518E+01   7.8380E+01   0.0000E+00  0.0000
   7.8380E+01   8.0287E+01   0.0000E+00  0.0000
   8.0287E+01   8.2240E+01   0.0000E+00  0.0000
   8.2240E+01   8.4241E+01   0.0000E+00  0.0000
   8.4241E+01   8.6291E+01   0.0000E+00  0.0000
   8.6291E+01   8.8391E+01   0.0000E+00  0.0000
   8.8391E+01   9.0541E+01   0.0000E+00  0.0000
   9.0541E+01   9.2744E+01   0.0000E+00  0.0000
   9.2744E+01   9.5001E+01   0.0000E+00  0.0000
   9.5001E+01   9.7312E+01   0.0000E+00  0.0000
   9.7312E+01   9.9680E+01   0.0000E+00  0.0000
   9.9680E+01   1.0211E+02   0.0000E+00  0.0000
   1.0211E+02   1.0459E+02   0.0000E+00  0.0000
   1.0459E+02   1.0713E+02   0.0000E+00  0.0000
   1.0713E+02   1.0974E+02   0.0000E+00  0.0000
   1.0974E+02   1.1241E+02   0.0000E+00  0.0000
   1.1241E+02   1.1515E+02   0.0000E+00  0.0000
   1.1515E+02   1.1795E+02   0.0000E+00  0.0000
   1.1795E+02   1.2082E+02   0.0000E+00  0.0000
   1.2082E+02   1.2376E+02   0.0000E+00  0.0000
   1.2376E+02   1.2677E+02   0.0000E+00  0.0000
   1.2677E+02   1.2985E+02   0.0000E+00  0.0000
   1.2985E+02   1.3301E+02   0.0000E+00  0.0000
   1.3301E+02   1.3625E+02   0.0000E+00  0.0000
   1.3625E+02   1.3956E+02   0.0000E+00  0.0000
   1.3956E+02   1.4296E+02   0.0000E+00  0.0000
   1.4296E+02   1.4644E+02   0.0000E+00  0.0000
   1.4644E+02   1.5000E+02   0.0000E+00  0.0000

#   sum over                 4.8212E-06
'no. =    1   reg = 112 - 212'
msuc: {\huge [t-cross] in region mesh}
msdr: {\it plotted by \ANGEL \version}
msdl: {\it calculated by \PHITS  3.26}
wt: s(0.7)
\vspace{-3}
  region surface crossing
  area  &=&   1.0000E+00 [cm^2]
e:
 
# Information for Restart Calculation
# This calculation was newly started
# istdev =  2 # 1:Batch variance, 2:History variance
# resc2  = 1.40000000000000000E+09 # Total source weight or Total source weight / maxcas
# resc3  = 1.40000000000000000E+09 # Total history number or Total batch number
# maxcas =   100000000 # History / Batch, only used for istdev=1
# bitrseed = 1101000110001001101011111100100010001101001010000111001101010101 # bit data of rseed
