[ T-Cross ]
    title = [t-cross] in region mesh
     mesh =  reg            # mesh type is region-wise
      reg =    1            # number of crossing regions
      non     r-from    r-to       area
      1       116       216        1.000000    
   e-type =    3            # e-mesh is log given by emin, emax and ne
     emin =  1.0000000E-02  # minimum value of e-mesh points
     emax =   150.0000      # maximum value of e-mesh points
#    edel =  2.4039514E-02  # mesh width of e-mesh points
       ne =    400          # number of e-mesh points
#    data = ( e(i), i = 1, ne + 1 )
#           1.00000E-02  1.02433E-02  1.04925E-02  1.07478E-02  1.10093E-02
#           1.12772E-02  1.15516E-02  1.18326E-02  1.21205E-02  1.24154E-02
#           1.27175E-02  1.30269E-02  1.33439E-02  1.36686E-02  1.40011E-02
#           1.43418E-02  1.46907E-02  1.50482E-02  1.54143E-02  1.57894E-02
#           1.61735E-02  1.65670E-02  1.69701E-02  1.73830E-02  1.78060E-02
#           1.82392E-02  1.86830E-02  1.91375E-02  1.96032E-02  2.00801E-02
#           2.05687E-02  2.10692E-02  2.15818E-02  2.21069E-02  2.26448E-02
#           2.31957E-02  2.37601E-02  2.43382E-02  2.49304E-02  2.55369E-02
#           2.61583E-02  2.67947E-02  2.74467E-02  2.81145E-02  2.87985E-02
#           2.94992E-02  3.02169E-02  3.09521E-02  3.17052E-02  3.24766E-02
#           3.32668E-02  3.40762E-02  3.49053E-02  3.57546E-02  3.66246E-02
#           3.75157E-02  3.84284E-02  3.93634E-02  4.03212E-02  4.13022E-02
#           4.23071E-02  4.33365E-02  4.43909E-02  4.54710E-02  4.65773E-02
#           4.77106E-02  4.88714E-02  5.00605E-02  5.12785E-02  5.25262E-02
#           5.38042E-02  5.51133E-02  5.64542E-02  5.78278E-02  5.92348E-02
#           6.06760E-02  6.21523E-02  6.36645E-02  6.52135E-02  6.68002E-02
#           6.84255E-02  7.00904E-02  7.17957E-02  7.35426E-02  7.53319E-02
#           7.71648E-02  7.90423E-02  8.09655E-02  8.29354E-02  8.49533E-02
#           8.70203E-02  8.91376E-02  9.13064E-02  9.35279E-02  9.58035E-02
#           9.81345E-02  1.00522E-01  1.02968E-01  1.05473E-01  1.08040E-01
#           1.10668E-01  1.13361E-01  1.16119E-01  1.18944E-01  1.21838E-01
#           1.24803E-01  1.27839E-01  1.30950E-01  1.34136E-01  1.37399E-01
#           1.40742E-01  1.44167E-01  1.47675E-01  1.51268E-01  1.54948E-01
#           1.58718E-01  1.62580E-01  1.66535E-01  1.70587E-01  1.74738E-01
#           1.78989E-01  1.83344E-01  1.87805E-01  1.92375E-01  1.97055E-01
#           2.01850E-01  2.06761E-01  2.11792E-01  2.16945E-01  2.22223E-01
#           2.27630E-01  2.33169E-01  2.38842E-01  2.44653E-01  2.50605E-01
#           2.56703E-01  2.62949E-01  2.69346E-01  2.75900E-01  2.82613E-01
#           2.89489E-01  2.96532E-01  3.03747E-01  3.11138E-01  3.18708E-01
#           3.26462E-01  3.34405E-01  3.42542E-01  3.50876E-01  3.59413E-01
#           3.68158E-01  3.77116E-01  3.86291E-01  3.95690E-01  4.05317E-01
#           4.15179E-01  4.25281E-01  4.35628E-01  4.46227E-01  4.57084E-01
#           4.68205E-01  4.79597E-01  4.91266E-01  5.03219E-01  5.15463E-01
#           5.28005E-01  5.40851E-01  5.54011E-01  5.67490E-01  5.81298E-01
#           5.95441E-01  6.09929E-01  6.24769E-01  6.39970E-01  6.55541E-01
#           6.71491E-01  6.87828E-01  7.04564E-01  7.21706E-01  7.39266E-01
#           7.57253E-01  7.75678E-01  7.94551E-01  8.13883E-01  8.33685E-01
#           8.53969E-01  8.74747E-01  8.96030E-01  9.17831E-01  9.40163E-01
#           9.63038E-01  9.86469E-01  1.01047E+00  1.03506E+00  1.06024E+00
#           1.08604E+00  1.11246E+00  1.13953E+00  1.16725E+00  1.19565E+00
#           1.22474E+00  1.25454E+00  1.28507E+00  1.31633E+00  1.34836E+00
#           1.38117E+00  1.41477E+00  1.44920E+00  1.48446E+00  1.52057E+00
#           1.55757E+00  1.59547E+00  1.63429E+00  1.67405E+00  1.71478E+00
#           1.75650E+00  1.79924E+00  1.84302E+00  1.88786E+00  1.93379E+00
#           1.98084E+00  2.02904E+00  2.07841E+00  2.12898E+00  2.18078E+00
#           2.23384E+00  2.28819E+00  2.34386E+00  2.40089E+00  2.45930E+00
#           2.51914E+00  2.58043E+00  2.64322E+00  2.70753E+00  2.77341E+00
#           2.84088E+00  2.91001E+00  2.98081E+00  3.05333E+00  3.12762E+00
#           3.20372E+00  3.28167E+00  3.36152E+00  3.44330E+00  3.52708E+00
#           3.61290E+00  3.70080E+00  3.79085E+00  3.88308E+00  3.97756E+00
#           4.07434E+00  4.17347E+00  4.27501E+00  4.37903E+00  4.48557E+00
#           4.59471E+00  4.70650E+00  4.82102E+00  4.93832E+00  5.05847E+00
#           5.18155E+00  5.30762E+00  5.43676E+00  5.56904E+00  5.70453E+00
#           5.84333E+00  5.98550E+00  6.13114E+00  6.28031E+00  6.43312E+00
#           6.58964E+00  6.74997E+00  6.91420E+00  7.08243E+00  7.25475E+00
#           7.43126E+00  7.61207E+00  7.79728E+00  7.98700E+00  8.18133E+00
#           8.38038E+00  8.58428E+00  8.79315E+00  9.00709E+00  9.22624E+00
#           9.45072E+00  9.68067E+00  9.91620E+00  1.01575E+01  1.04046E+01
#           1.06578E+01  1.09171E+01  1.11827E+01  1.14548E+01  1.17335E+01
#           1.20190E+01  1.23114E+01  1.26109E+01  1.29178E+01  1.32321E+01
#           1.35540E+01  1.38838E+01  1.42216E+01  1.45676E+01  1.49221E+01
#           1.52851E+01  1.56570E+01  1.60380E+01  1.64282E+01  1.68279E+01
#           1.72374E+01  1.76568E+01  1.80864E+01  1.85264E+01  1.89772E+01
#           1.94389E+01  1.99119E+01  2.03963E+01  2.08926E+01  2.14009E+01
#           2.19216E+01  2.24550E+01  2.30014E+01  2.35610E+01  2.41343E+01
#           2.47215E+01  2.53230E+01  2.59391E+01  2.65702E+01  2.72167E+01
#           2.78789E+01  2.85572E+01  2.92520E+01  2.99637E+01  3.06928E+01
#           3.14396E+01  3.22045E+01  3.29881E+01  3.37907E+01  3.46128E+01
#           3.54550E+01  3.63177E+01  3.72013E+01  3.81064E+01  3.90336E+01
#           3.99833E+01  4.09561E+01  4.19526E+01  4.29734E+01  4.40189E+01
#           4.50900E+01  4.61870E+01  4.73108E+01  4.84619E+01  4.96410E+01
#           5.08488E+01  5.20860E+01  5.33533E+01  5.46514E+01  5.59812E+01
#           5.73432E+01  5.87384E+01  6.01676E+01  6.16315E+01  6.31311E+01
#           6.46671E+01  6.62405E+01  6.78522E+01  6.95031E+01  7.11941E+01
#           7.29263E+01  7.47007E+01  7.65182E+01  7.83800E+01  8.02870E+01
#           8.22405E+01  8.42414E+01  8.62911E+01  8.83906E+01  9.05412E+01
#           9.27442E+01  9.50007E+01  9.73122E+01  9.96799E+01  1.02105E+02
#           1.04589E+02  1.07134E+02  1.09741E+02  1.12411E+02  1.15146E+02
#           1.17948E+02  1.20817E+02  1.23757E+02  1.26768E+02  1.29852E+02
#           1.33012E+02  1.36248E+02  1.39563E+02  1.42959E+02  1.46437E+02
#           1.50000E+02
     unit =    2            # unit is [1/cm^2/(MeV/n)/source]
     axis =  eng            # axis of output
     file = detector-17.out  # file name of output for the above axis
   output = f-curr          # surface crossing forward current spectrum
     part =  neutron  
# kf/name :  2112     
#    used :        main (  %)        temp (  %)       total (  %)
#  memory :         414 (  0)           0 (  0)         414 (  0)

#------------------------------------------------------------------------------
#newpage:
#   no. =    1   reg = 116 - 216

x: Energy [MeV/n]
y:  F-Curr [1/cm^2/(MeV/n)/source]         
p: xlog ylog afac(0.8) form(0.9)
h: n            x            y(neutron ),hh0l   n 
#  e-lower      e-upper      neutron     r.err 
   1.0000E-02   1.0243E-02   3.4407E-04  0.0488
   1.0243E-02   1.0493E-02   3.3566E-04  0.0488
   1.0493E-02   1.0748E-02   3.3123E-04  0.0486
   1.0748E-02   1.1009E-02   2.8950E-04  0.0512
   1.1009E-02   1.1277E-02   3.1096E-04  0.0489
   1.1277E-02   1.1552E-02   3.2315E-04  0.0474
   1.1552E-02   1.1833E-02   2.8991E-04  0.0494
   1.1833E-02   1.2121E-02   3.0437E-04  0.0477
   1.2121E-02   1.2415E-02   2.8382E-04  0.0487
   1.2415E-02   1.2718E-02   2.8688E-04  0.0479
   1.2718E-02   1.3027E-02   2.5028E-04  0.0507
   1.3027E-02   1.3344E-02   2.8560E-04  0.0469
   1.3344E-02   1.3669E-02   2.4485E-04  0.0500
   1.3669E-02   1.4001E-02   2.6841E-04  0.0472
   1.4001E-02   1.4342E-02   2.6123E-04  0.0473
   1.4342E-02   1.4691E-02   2.4127E-04  0.0486
   1.4691E-02   1.5048E-02   2.5053E-04  0.0472
   1.5048E-02   1.5414E-02   2.5087E-04  0.0465
   1.5414E-02   1.5789E-02   2.3122E-04  0.0479
   1.5789E-02   1.6174E-02   2.1957E-04  0.0486
   1.6174E-02   1.6567E-02   2.0687E-04  0.0494
   1.6567E-02   1.6970E-02   2.2539E-04  0.0468
   1.6970E-02   1.7383E-02   2.3460E-04  0.0453
   1.7383E-02   1.7806E-02   2.1908E-04  0.0463
   1.7806E-02   1.8239E-02   2.0143E-04  0.0478
   1.8239E-02   1.8683E-02   1.9521E-04  0.0479
   1.8683E-02   1.9138E-02   1.9561E-04  0.0473
   1.9138E-02   1.9603E-02   1.9044E-04  0.0474
   1.9603E-02   2.0080E-02   1.8389E-04  0.0476
   2.0080E-02   2.0569E-02   1.9298E-04  0.0459
   2.0569E-02   2.1069E-02   1.6772E-04  0.0487
   2.1069E-02   2.1582E-02   1.6129E-04  0.0491
   2.1582E-02   2.2107E-02   1.7492E-04  0.0465
   2.2107E-02   2.2645E-02   1.5750E-04  0.0485
   2.2645E-02   2.3196E-02   1.6322E-04  0.0470
   2.3196E-02   2.3760E-02   1.5884E-04  0.0471
   2.3760E-02   2.4338E-02   1.7696E-04  0.0441
   2.4338E-02   2.4930E-02   1.4199E-04  0.0486
   2.4930E-02   2.5537E-02   1.5004E-04  0.0468
   2.5537E-02   2.6158E-02   1.4591E-04  0.0468
   2.6158E-02   2.6795E-02   1.3461E-04  0.0482
   2.6795E-02   2.7447E-02   1.2821E-04  0.0488
   2.7447E-02   2.8114E-02   1.4676E-04  0.0451
   2.8114E-02   2.8799E-02   1.2552E-04  0.0481
   2.8799E-02   2.9499E-02   1.3187E-04  0.0464
   2.9499E-02   3.0217E-02   1.3171E-04  0.0459
   3.0217E-02   3.0952E-02   1.2245E-04  0.0470
   3.0952E-02   3.1705E-02   1.2743E-04  0.0455
   3.1705E-02   3.2477E-02   1.1989E-04  0.0463
   3.2477E-02   3.3267E-02   1.2152E-04  0.0455
   3.3267E-02   3.4076E-02   1.2364E-04  0.0446
   3.4076E-02   3.4905E-02   1.0798E-04  0.0471
   3.4905E-02   3.5755E-02   1.0266E-04  0.0477
   3.5755E-02   3.6625E-02   1.0955E-04  0.0457
   3.6625E-02   3.7516E-02   1.1778E-04  0.0435
   3.7516E-02   3.8428E-02   1.0375E-04  0.0458
   3.8428E-02   3.9363E-02   1.0291E-04  0.0454
   3.9363E-02   4.0321E-02   1.0039E-04  0.0454
   4.0321E-02   4.1302E-02   9.9461E-05  0.0451
   4.1302E-02   4.2307E-02   8.9394E-05  0.0471
   4.2307E-02   4.3337E-02   9.7089E-05  0.0446
   4.3337E-02   4.4391E-02   9.3594E-05  0.0449
   4.4391E-02   4.5471E-02   9.1040E-05  0.0449
   4.5471E-02   4.6577E-02   9.1639E-05  0.0443
   4.6577E-02   4.7711E-02   8.2163E-05  0.0463
   4.7711E-02   4.8871E-02   8.2340E-05  0.0456
   4.8871E-02   5.0061E-02   8.4009E-05  0.0446
   5.0061E-02   5.1279E-02   8.2359E-05  0.0445
   5.1279E-02   5.2526E-02   8.2739E-05  0.0439
   5.2526E-02   5.3804E-02   8.3713E-05  0.0431
   5.3804E-02   5.5113E-02   7.1666E-05  0.0460
   5.5113E-02   5.6454E-02   8.1990E-05  0.0425
   5.6454E-02   5.7828E-02   7.9138E-05  0.0427
   5.7828E-02   5.9235E-02   7.3515E-05  0.0439
   5.9235E-02   6.0676E-02   7.1518E-05  0.0439
   6.0676E-02   6.2152E-02   6.7691E-05  0.0446
   6.2152E-02   6.3665E-02   6.7689E-05  0.0441
   6.3665E-02   6.5214E-02   6.7831E-05  0.0435
   6.5214E-02   6.6800E-02   5.7184E-05  0.0468
   6.6800E-02   6.8426E-02   6.5572E-05  0.0432
   6.8426E-02   7.0090E-02   5.9970E-05  0.0446
   7.0090E-02   7.1796E-02   6.1371E-05  0.0436
   7.1796E-02   7.3543E-02   6.0374E-05  0.0434
   7.3543E-02   7.5332E-02   6.0035E-05  0.0430
   7.5332E-02   7.7165E-02   6.1109E-05  0.0422
   7.7165E-02   7.9042E-02   5.5798E-05  0.0436
   7.9042E-02   8.0965E-02   5.6518E-05  0.0428
   8.0965E-02   8.2935E-02   5.8278E-05  0.0416
   8.2935E-02   8.4953E-02   5.4944E-05  0.0423
   8.4953E-02   8.7020E-02   5.2904E-05  0.0426
   8.7020E-02   8.9138E-02   5.7071E-05  0.0406
   8.9138E-02   9.1306E-02   5.3368E-05  0.0415
   9.1306E-02   9.3528E-02   5.2885E-05  0.0412
   9.3528E-02   9.5804E-02   5.2533E-05  0.0408
   9.5804E-02   9.8134E-02   5.5293E-05  0.0393
   9.8134E-02   1.0052E-01   5.1423E-05  0.0403
   1.0052E-01   1.0297E-01   5.1387E-05  0.0398
   1.0297E-01   1.0547E-01   5.5693E-05  0.0377
   1.0547E-01   1.0804E-01   5.6675E-05  0.0370
   1.0804E-01   1.1067E-01   6.1719E-05  0.0350
   1.1067E-01   1.1336E-01   6.7025E-05  0.0332
   1.1336E-01   1.1612E-01   6.5935E-05  0.0331
   1.1612E-01   1.1894E-01   6.6531E-05  0.0325
   1.1894E-01   1.2184E-01   6.9412E-05  0.0315
   1.2184E-01   1.2480E-01   7.5965E-05  0.0297
   1.2480E-01   1.2784E-01   7.6773E-05  0.0292
   1.2784E-01   1.3095E-01   8.5815E-05  0.0273
   1.3095E-01   1.3414E-01   8.3260E-05  0.0274
   1.3414E-01   1.3740E-01   8.8819E-05  0.0262
   1.3740E-01   1.4074E-01   9.2831E-05  0.0253
   1.4074E-01   1.4417E-01   9.4461E-05  0.0248
   1.4417E-01   1.4767E-01   1.0088E-04  0.0237
   1.4767E-01   1.5127E-01   1.0503E-04  0.0230
   1.5127E-01   1.5495E-01   1.0732E-04  0.0225
   1.5495E-01   1.5872E-01   1.1495E-04  0.0214
   1.5872E-01   1.6258E-01   1.1928E-04  0.0208
   1.6258E-01   1.6654E-01   1.2442E-04  0.0201
   1.6654E-01   1.7059E-01   1.2594E-04  0.0197
   1.7059E-01   1.7474E-01   1.4061E-04  0.0185
   1.7474E-01   1.7899E-01   1.3888E-04  0.0184
   1.7899E-01   1.8334E-01   1.4606E-04  0.0177
   1.8334E-01   1.8781E-01   1.5032E-04  0.0172
   1.8781E-01   1.9237E-01   1.5409E-04  0.0168
   1.9237E-01   1.9706E-01   1.6407E-04  0.0161
   1.9706E-01   2.0185E-01   1.6827E-04  0.0157
   2.0185E-01   2.0676E-01   1.7991E-04  0.0150
   2.0676E-01   2.1179E-01   1.8583E-04  0.0146
   2.1179E-01   2.1694E-01   1.8911E-04  0.0143
   2.1694E-01   2.2222E-01   2.0080E-04  0.0137
   2.2222E-01   2.2763E-01   2.0687E-04  0.0133
   2.2763E-01   2.3317E-01   2.1125E-04  0.0130
   2.3317E-01   2.3884E-01   2.1967E-04  0.0126
   2.3884E-01   2.4465E-01   2.3439E-04  0.0121
   2.4465E-01   2.5061E-01   2.3818E-04  0.0119
   2.5061E-01   2.5670E-01   2.4118E-04  0.0116
   2.5670E-01   2.6295E-01   2.5426E-04  0.0112
   2.6295E-01   2.6935E-01   2.5304E-04  0.0111
   2.6935E-01   2.7590E-01   2.6918E-04  0.0106
   2.7590E-01   2.8261E-01   2.7739E-04  0.0103
   2.8261E-01   2.8949E-01   2.8614E-04  0.0101
   2.8949E-01   2.9653E-01   2.9448E-04  0.0098
   2.9653E-01   3.0375E-01   2.9953E-04  0.0096
   3.0375E-01   3.1114E-01   3.1335E-04  0.0093
   3.1114E-01   3.1871E-01   3.2163E-04  0.0090
   3.1871E-01   3.2646E-01   3.2655E-04  0.0089
   3.2646E-01   3.3441E-01   3.4011E-04  0.0086
   3.3441E-01   3.4254E-01   3.4892E-04  0.0084
   3.4254E-01   3.5088E-01   3.5218E-04  0.0082
   3.5088E-01   3.5941E-01   3.6448E-04  0.0080
   3.5941E-01   3.6816E-01   3.7162E-04  0.0078
   3.6816E-01   3.7712E-01   3.8550E-04  0.0076
   3.7712E-01   3.8629E-01   3.8492E-04  0.0075
   3.8629E-01   3.9569E-01   3.9768E-04  0.0073
   3.9569E-01   4.0532E-01   4.0275E-04  0.0072
   4.0532E-01   4.1518E-01   4.1004E-04  0.0070
   4.1518E-01   4.2528E-01   4.1563E-04  0.0069
   4.2528E-01   4.3563E-01   4.2434E-04  0.0067
   4.3563E-01   4.4623E-01   4.2559E-04  0.0066
   4.4623E-01   4.5708E-01   4.3355E-04  0.0065
   4.5708E-01   4.6821E-01   4.3188E-04  0.0064
   4.6821E-01   4.7960E-01   4.4084E-04  0.0063
   4.7960E-01   4.9127E-01   4.4280E-04  0.0062
   4.9127E-01   5.0322E-01   4.4830E-04  0.0061
   5.0322E-01   5.1546E-01   4.5051E-04  0.0060
   5.1546E-01   5.2800E-01   4.6072E-04  0.0059
   5.2800E-01   5.4085E-01   4.5844E-04  0.0058
   5.4085E-01   5.5401E-01   4.6930E-04  0.0057
   5.5401E-01   5.6749E-01   4.6903E-04  0.0056
   5.6749E-01   5.8130E-01   4.6722E-04  0.0055
   5.8130E-01   5.9544E-01   4.7340E-04  0.0054
   5.9544E-01   6.0993E-01   4.7555E-04  0.0054
   6.0993E-01   6.2477E-01   4.8183E-04  0.0053
   6.2477E-01   6.3997E-01   4.8198E-04  0.0052
   6.3997E-01   6.5554E-01   4.7631E-04  0.0052
   6.5554E-01   6.7149E-01   4.8009E-04  0.0051
   6.7149E-01   6.8783E-01   4.8134E-04  0.0050
   6.8783E-01   7.0456E-01   4.7611E-04  0.0050
   7.0456E-01   7.2171E-01   4.7200E-04  0.0050
   7.2171E-01   7.3927E-01   4.7224E-04  0.0049
   7.3927E-01   7.5725E-01   4.7057E-04  0.0048
   7.5725E-01   7.7568E-01   4.6464E-04  0.0048
   7.7568E-01   7.9455E-01   4.6185E-04  0.0048
   7.9455E-01   8.1388E-01   4.5443E-04  0.0047
   8.1388E-01   8.3368E-01   4.4961E-04  0.0047
   8.3368E-01   8.5397E-01   4.4813E-04  0.0047
   8.5397E-01   8.7475E-01   4.4137E-04  0.0046
   8.7475E-01   8.9603E-01   4.3560E-04  0.0046
   8.9603E-01   9.1783E-01   4.3032E-04  0.0046
   9.1783E-01   9.4016E-01   4.2505E-04  0.0046
   9.4016E-01   9.6304E-01   4.1935E-04  0.0045
   9.6304E-01   9.8647E-01   4.1130E-04  0.0045
   9.8647E-01   1.0105E+00   3.9957E-04  0.0045
   1.0105E+00   1.0351E+00   3.8621E-04  0.0046
   1.0351E+00   1.0602E+00   3.8244E-04  0.0045
   1.0602E+00   1.0860E+00   3.7720E-04  0.0045
   1.0860E+00   1.1125E+00   3.8240E-04  0.0044
   1.1125E+00   1.1395E+00   3.7863E-04  0.0044
   1.1395E+00   1.1673E+00   3.7535E-04  0.0043
   1.1673E+00   1.1957E+00   3.7319E-04  0.0043
   1.1957E+00   1.2247E+00   3.7167E-04  0.0043
   1.2247E+00   1.2545E+00   3.6855E-04  0.0042
   1.2545E+00   1.2851E+00   3.6178E-04  0.0042
   1.2851E+00   1.3163E+00   3.5887E-04  0.0042
   1.3163E+00   1.3484E+00   3.5327E-04  0.0041
   1.3484E+00   1.3812E+00   3.4655E-04  0.0041
   1.3812E+00   1.4148E+00   3.4806E-04  0.0041
   1.4148E+00   1.4492E+00   3.4338E-04  0.0040
   1.4492E+00   1.4845E+00   3.3563E-04  0.0040
   1.4845E+00   1.5206E+00   3.3003E-04  0.0040
   1.5206E+00   1.5576E+00   3.2729E-04  0.0040
   1.5576E+00   1.5955E+00   3.1992E-04  0.0040
   1.5955E+00   1.6343E+00   3.1470E-04  0.0040
   1.6343E+00   1.6741E+00   3.0654E-04  0.0040
   1.6741E+00   1.7148E+00   2.9951E-04  0.0040
   1.7148E+00   1.7565E+00   2.8941E-04  0.0040
   1.7565E+00   1.7992E+00   2.7420E-04  0.0040
   1.7992E+00   1.8430E+00   2.5671E-04  0.0041
   1.8430E+00   1.8879E+00   2.3850E-04  0.0042
   1.8879E+00   1.9338E+00   2.3073E-04  0.0042
   1.9338E+00   1.9808E+00   2.2071E-04  0.0042
   1.9808E+00   2.0290E+00   2.1480E-04  0.0042
   2.0290E+00   2.0784E+00   2.1354E-04  0.0042
   2.0784E+00   2.1290E+00   2.1154E-04  0.0042
   2.1290E+00   2.1808E+00   2.1123E-04  0.0041
   2.1808E+00   2.2338E+00   2.1187E-04  0.0040
   2.2338E+00   2.2882E+00   2.0527E-04  0.0041
   2.2882E+00   2.3439E+00   1.9334E-04  0.0042
   2.3439E+00   2.4009E+00   1.8822E-04  0.0042
   2.4009E+00   2.4593E+00   1.8415E-04  0.0042
   2.4593E+00   2.5191E+00   1.8052E-04  0.0041
   2.5191E+00   2.5804E+00   1.7624E-04  0.0041
   2.5804E+00   2.6432E+00   1.7186E-04  0.0042
   2.6432E+00   2.7075E+00   1.6892E-04  0.0041
   2.7075E+00   2.7734E+00   1.6283E-04  0.0042
   2.7734E+00   2.8409E+00   1.6047E-04  0.0042
   2.8409E+00   2.9100E+00   1.5619E-04  0.0042
   2.9100E+00   2.9808E+00   1.5162E-04  0.0042
   2.9808E+00   3.0533E+00   1.5056E-04  0.0041
   3.0533E+00   3.1276E+00   1.4705E-04  0.0041
   3.1276E+00   3.2037E+00   1.4460E-04  0.0041
   3.2037E+00   3.2817E+00   1.4326E-04  0.0041
   3.2817E+00   3.3615E+00   1.4105E-04  0.0041
   3.3615E+00   3.4433E+00   1.3922E-04  0.0041
   3.4433E+00   3.5271E+00   1.3691E-04  0.0041
   3.5271E+00   3.6129E+00   1.3420E-04  0.0040
   3.6129E+00   3.7008E+00   1.3420E-04  0.0040
   3.7008E+00   3.7908E+00   1.3231E-04  0.0040
   3.7908E+00   3.8831E+00   1.2999E-04  0.0040
   3.8831E+00   3.9776E+00   1.2931E-04  0.0039
   3.9776E+00   4.0743E+00   1.2647E-04  0.0039
   4.0743E+00   4.1735E+00   1.2345E-04  0.0039
   4.1735E+00   4.2750E+00   1.2206E-04  0.0039
   4.2750E+00   4.3790E+00   1.1936E-04  0.0039
   4.3790E+00   4.4856E+00   1.1790E-04  0.0039
   4.4856E+00   4.5947E+00   1.1498E-04  0.0039
   4.5947E+00   4.7065E+00   1.1350E-04  0.0039
   4.7065E+00   4.8210E+00   1.1198E-04  0.0039
   4.8210E+00   4.9383E+00   1.1075E-04  0.0038
   4.9383E+00   5.0585E+00   1.1054E-04  0.0038
   5.0585E+00   5.1815E+00   1.0959E-04  0.0038
   5.1815E+00   5.3076E+00   1.0733E-04  0.0038
   5.3076E+00   5.4368E+00   1.0634E-04  0.0037
   5.4368E+00   5.5690E+00   1.0551E-04  0.0037
   5.5690E+00   5.7045E+00   1.0426E-04  0.0037
   5.7045E+00   5.8433E+00   1.0343E-04  0.0037
   5.8433E+00   5.9855E+00   1.0181E-04  0.0036
   5.9855E+00   6.1311E+00   1.0037E-04  0.0036
   6.1311E+00   6.2803E+00   1.0005E-04  0.0036
   6.2803E+00   6.4331E+00   9.8251E-05  0.0036
   6.4331E+00   6.5896E+00   9.7591E-05  0.0036
   6.5896E+00   6.7500E+00   9.5810E-05  0.0035
   6.7500E+00   6.9142E+00   9.3675E-05  0.0035
   6.9142E+00   7.0824E+00   9.3337E-05  0.0035
   7.0824E+00   7.2548E+00   9.1470E-05  0.0035
   7.2548E+00   7.4313E+00   8.9896E-05  0.0035
   7.4313E+00   7.6121E+00   8.8784E-05  0.0035
   7.6121E+00   7.7973E+00   8.7134E-05  0.0035
   7.7973E+00   7.9870E+00   8.4975E-05  0.0035
   7.9870E+00   8.1813E+00   8.3525E-05  0.0035
   8.1813E+00   8.3804E+00   8.2499E-05  0.0034
   8.3804E+00   8.5843E+00   8.0836E-05  0.0034
   8.5843E+00   8.7931E+00   7.9116E-05  0.0034
   8.7931E+00   9.0071E+00   7.7444E-05  0.0034
   9.0071E+00   9.2262E+00   7.5414E-05  0.0034
   9.2262E+00   9.4507E+00   7.3072E-05  0.0035
   9.4507E+00   9.6807E+00   7.1558E-05  0.0035
   9.6807E+00   9.9162E+00   7.0648E-05  0.0034
   9.9162E+00   1.0157E+01   7.1591E-05  0.0034
   1.0157E+01   1.0405E+01   7.0126E-05  0.0034
   1.0405E+01   1.0658E+01   6.8215E-05  0.0034
   1.0658E+01   1.0917E+01   6.5538E-05  0.0034
   1.0917E+01   1.1183E+01   6.3027E-05  0.0034
   1.1183E+01   1.1455E+01   6.1426E-05  0.0035
   1.1455E+01   1.1733E+01   6.0121E-05  0.0034
   1.1733E+01   1.2019E+01   5.8221E-05  0.0035
   1.2019E+01   1.2311E+01   5.6888E-05  0.0035
   1.2311E+01   1.2611E+01   5.5110E-05  0.0035
   1.2611E+01   1.2918E+01   5.3204E-05  0.0035
   1.2918E+01   1.3232E+01   5.1822E-05  0.0035
   1.3232E+01   1.3554E+01   5.0039E-05  0.0035
   1.3554E+01   1.3884E+01   4.8418E-05  0.0035
   1.3884E+01   1.4222E+01   4.6593E-05  0.0036
   1.4222E+01   1.4568E+01   4.5351E-05  0.0036
   1.4568E+01   1.4922E+01   4.3239E-05  0.0036
   1.4922E+01   1.5285E+01   4.1954E-05  0.0036
   1.5285E+01   1.5657E+01   4.0280E-05  0.0037
   1.5657E+01   1.6038E+01   3.8548E-05  0.0037
   1.6038E+01   1.6428E+01   3.6523E-05  0.0037
   1.6428E+01   1.6828E+01   3.5111E-05  0.0038
   1.6828E+01   1.7237E+01   3.3476E-05  0.0038
   1.7237E+01   1.7657E+01   3.1540E-05  0.0039
   1.7657E+01   1.8086E+01   3.0065E-05  0.0039
   1.8086E+01   1.8526E+01   2.8055E-05  0.0040
   1.8526E+01   1.8977E+01   2.6554E-05  0.0041
   1.8977E+01   1.9439E+01   2.4923E-05  0.0042
   1.9439E+01   1.9912E+01   2.3471E-05  0.0042
   1.9912E+01   2.0396E+01   2.2020E-05  0.0043
   2.0396E+01   2.0893E+01   2.0289E-05  0.0045
   2.0893E+01   2.1401E+01   1.8954E-05  0.0046
   2.1401E+01   2.1922E+01   1.7377E-05  0.0047
   2.1922E+01   2.2455E+01   1.5906E-05  0.0049
   2.2455E+01   2.3001E+01   1.4643E-05  0.0050
   2.3001E+01   2.3561E+01   1.3322E-05  0.0052
   2.3561E+01   2.4134E+01   1.1954E-05  0.0054
   2.4134E+01   2.4721E+01   1.0798E-05  0.0056
   2.4721E+01   2.5323E+01   9.6663E-06  0.0059
   2.5323E+01   2.5939E+01   8.8118E-06  0.0061
   2.5939E+01   2.6570E+01   7.6807E-06  0.0064
   2.6570E+01   2.7217E+01   6.8340E-06  0.0067
   2.7217E+01   2.7879E+01   5.9661E-06  0.0071
   2.7879E+01   2.8557E+01   5.3565E-06  0.0074
   2.8557E+01   2.9252E+01   4.7201E-06  0.0078
   2.9252E+01   2.9964E+01   4.0735E-06  0.0083
   2.9964E+01   3.0693E+01   3.5389E-06  0.0088
   3.0693E+01   3.1440E+01   3.0269E-06  0.0094
   3.1440E+01   3.2205E+01   2.6174E-06  0.0100
   3.2205E+01   3.2988E+01   2.2579E-06  0.0106
   3.2988E+01   3.3791E+01   1.9199E-06  0.0114
   3.3791E+01   3.4613E+01   1.6401E-06  0.0122
   3.4613E+01   3.5455E+01   1.3660E-06  0.0132
   3.5455E+01   3.6318E+01   1.1087E-06  0.0145
   3.6318E+01   3.7201E+01   9.2097E-07  0.0157
   3.7201E+01   3.8106E+01   7.6165E-07  0.0170
   3.8106E+01   3.9034E+01   6.0249E-07  0.0189
   3.9034E+01   3.9983E+01   4.9973E-07  0.0205
   3.9983E+01   4.0956E+01   3.9473E-07  0.0228
   4.0956E+01   4.1953E+01   3.0246E-07  0.0258
   4.1953E+01   4.2973E+01   2.3865E-07  0.0287
   4.2973E+01   4.4019E+01   1.9702E-07  0.0312
   4.4019E+01   4.5090E+01   1.4939E-07  0.0354
   4.5090E+01   4.6187E+01   1.1667E-07  0.0395
   4.6187E+01   4.7311E+01   9.5037E-08  0.0433
   4.7311E+01   4.8462E+01   6.8629E-08  0.0503
   4.8462E+01   4.9641E+01   5.4787E-08  0.0556
   4.9641E+01   5.0849E+01   4.0735E-08  0.0638
   5.0849E+01   5.2086E+01   3.8313E-08  0.0650
   5.2086E+01   5.3353E+01   3.6613E-08  0.0657
   5.3353E+01   5.4651E+01   2.9581E-08  0.0722
   5.4651E+01   5.5981E+01   2.6622E-08  0.0752
   5.5981E+01   5.7343E+01   1.8501E-08  0.0891
   5.7343E+01   5.8738E+01   9.7477E-09  0.1213
   5.8738E+01   6.0168E+01   1.9592E-09  0.2673
   6.0168E+01   6.1632E+01   9.5633E-10  0.3780
   6.1632E+01   6.3131E+01   5.3350E-10  0.5000
   6.3131E+01   6.4667E+01   3.9062E-10  0.5774
   6.4667E+01   6.6240E+01   1.2711E-10  1.0000
   6.6240E+01   6.7852E+01   0.0000E+00  0.0000
   6.7852E+01   6.9503E+01   0.0000E+00  0.0000
   6.9503E+01   7.1194E+01   0.0000E+00  0.0000
   7.1194E+01   7.2926E+01   0.0000E+00  0.0000
   7.2926E+01   7.4701E+01   0.0000E+00  0.0000
   7.4701E+01   7.6518E+01   0.0000E+00  0.0000
   7.6518E+01   7.8380E+01   0.0000E+00  0.0000
   7.8380E+01   8.0287E+01   0.0000E+00  0.0000
   8.0287E+01   8.2240E+01   0.0000E+00  0.0000
   8.2240E+01   8.4241E+01   0.0000E+00  0.0000
   8.4241E+01   8.6291E+01   0.0000E+00  0.0000
   8.6291E+01   8.8391E+01   0.0000E+00  0.0000
   8.8391E+01   9.0541E+01   0.0000E+00  0.0000
   9.0541E+01   9.2744E+01   0.0000E+00  0.0000
   9.2744E+01   9.5001E+01   0.0000E+00  0.0000
   9.5001E+01   9.7312E+01   0.0000E+00  0.0000
   9.7312E+01   9.9680E+01   0.0000E+00  0.0000
   9.9680E+01   1.0211E+02   0.0000E+00  0.0000
   1.0211E+02   1.0459E+02   0.0000E+00  0.0000
   1.0459E+02   1.0713E+02   0.0000E+00  0.0000
   1.0713E+02   1.0974E+02   0.0000E+00  0.0000
   1.0974E+02   1.1241E+02   0.0000E+00  0.0000
   1.1241E+02   1.1515E+02   0.0000E+00  0.0000
   1.1515E+02   1.1795E+02   0.0000E+00  0.0000
   1.1795E+02   1.2082E+02   0.0000E+00  0.0000
   1.2082E+02   1.2376E+02   0.0000E+00  0.0000
   1.2376E+02   1.2677E+02   0.0000E+00  0.0000
   1.2677E+02   1.2985E+02   0.0000E+00  0.0000
   1.2985E+02   1.3301E+02   0.0000E+00  0.0000
   1.3301E+02   1.3625E+02   0.0000E+00  0.0000
   1.3625E+02   1.3956E+02   0.0000E+00  0.0000
   1.3956E+02   1.4296E+02   0.0000E+00  0.0000
   1.4296E+02   1.4644E+02   0.0000E+00  0.0000
   1.4644E+02   1.5000E+02   0.0000E+00  0.0000

#   sum over                 1.4096E-05
'no. =    1   reg = 116 - 216'
msuc: {\huge [t-cross] in region mesh}
msdr: {\it plotted by \ANGEL \version}
msdl: {\it calculated by \PHITS  3.26}
wt: s(0.7)
\vspace{-3}
  region surface crossing
  area  &=&   1.0000E+00 [cm^2]
e:
 
# Information for Restart Calculation
# This calculation was newly started
# istdev =  2 # 1:Batch variance, 2:History variance
# resc2  = 5.00000000000000000E+09 # Total source weight or Total source weight / maxcas
# resc3  = 5.00000000000000000E+09 # Total history number or Total batch number
# maxcas =   100000000 # History / Batch, only used for istdev=1
# bitrseed = 0110100000100010111000001110001111001110100100011111101000111001 # bit data of rseed
