[ T-Cross ]
    title = [t-cross] in region mesh
     mesh =  reg            # mesh type is region-wise
      reg =    1            # number of crossing regions
      non     r-from    r-to       area
      1       100       200        1.000000    
   e-type =    3            # e-mesh is log given by emin, emax and ne
     emin =  1.0000000E-02  # minimum value of e-mesh points
     emax =   150.0000      # maximum value of e-mesh points
#    edel =  2.4039514E-02  # mesh width of e-mesh points
       ne =    400          # number of e-mesh points
#    data = ( e(i), i = 1, ne + 1 )
#           1.00000E-02  1.02433E-02  1.04925E-02  1.07478E-02  1.10093E-02
#           1.12772E-02  1.15516E-02  1.18326E-02  1.21205E-02  1.24154E-02
#           1.27175E-02  1.30269E-02  1.33439E-02  1.36686E-02  1.40011E-02
#           1.43418E-02  1.46907E-02  1.50482E-02  1.54143E-02  1.57894E-02
#           1.61735E-02  1.65670E-02  1.69701E-02  1.73830E-02  1.78060E-02
#           1.82392E-02  1.86830E-02  1.91375E-02  1.96032E-02  2.00801E-02
#           2.05687E-02  2.10692E-02  2.15818E-02  2.21069E-02  2.26448E-02
#           2.31957E-02  2.37601E-02  2.43382E-02  2.49304E-02  2.55369E-02
#           2.61583E-02  2.67947E-02  2.74467E-02  2.81145E-02  2.87985E-02
#           2.94992E-02  3.02169E-02  3.09521E-02  3.17052E-02  3.24766E-02
#           3.32668E-02  3.40762E-02  3.49053E-02  3.57546E-02  3.66246E-02
#           3.75157E-02  3.84284E-02  3.93634E-02  4.03212E-02  4.13022E-02
#           4.23071E-02  4.33365E-02  4.43909E-02  4.54710E-02  4.65773E-02
#           4.77106E-02  4.88714E-02  5.00605E-02  5.12785E-02  5.25262E-02
#           5.38042E-02  5.51133E-02  5.64542E-02  5.78278E-02  5.92348E-02
#           6.06760E-02  6.21523E-02  6.36645E-02  6.52135E-02  6.68002E-02
#           6.84255E-02  7.00904E-02  7.17957E-02  7.35426E-02  7.53319E-02
#           7.71648E-02  7.90423E-02  8.09655E-02  8.29354E-02  8.49533E-02
#           8.70203E-02  8.91376E-02  9.13064E-02  9.35279E-02  9.58035E-02
#           9.81345E-02  1.00522E-01  1.02968E-01  1.05473E-01  1.08040E-01
#           1.10668E-01  1.13361E-01  1.16119E-01  1.18944E-01  1.21838E-01
#           1.24803E-01  1.27839E-01  1.30950E-01  1.34136E-01  1.37399E-01
#           1.40742E-01  1.44167E-01  1.47675E-01  1.51268E-01  1.54948E-01
#           1.58718E-01  1.62580E-01  1.66535E-01  1.70587E-01  1.74738E-01
#           1.78989E-01  1.83344E-01  1.87805E-01  1.92375E-01  1.97055E-01
#           2.01850E-01  2.06761E-01  2.11792E-01  2.16945E-01  2.22223E-01
#           2.27630E-01  2.33169E-01  2.38842E-01  2.44653E-01  2.50605E-01
#           2.56703E-01  2.62949E-01  2.69346E-01  2.75900E-01  2.82613E-01
#           2.89489E-01  2.96532E-01  3.03747E-01  3.11138E-01  3.18708E-01
#           3.26462E-01  3.34405E-01  3.42542E-01  3.50876E-01  3.59413E-01
#           3.68158E-01  3.77116E-01  3.86291E-01  3.95690E-01  4.05317E-01
#           4.15179E-01  4.25281E-01  4.35628E-01  4.46227E-01  4.57084E-01
#           4.68205E-01  4.79597E-01  4.91266E-01  5.03219E-01  5.15463E-01
#           5.28005E-01  5.40851E-01  5.54011E-01  5.67490E-01  5.81298E-01
#           5.95441E-01  6.09929E-01  6.24769E-01  6.39970E-01  6.55541E-01
#           6.71491E-01  6.87828E-01  7.04564E-01  7.21706E-01  7.39266E-01
#           7.57253E-01  7.75678E-01  7.94551E-01  8.13883E-01  8.33685E-01
#           8.53969E-01  8.74747E-01  8.96030E-01  9.17831E-01  9.40163E-01
#           9.63038E-01  9.86469E-01  1.01047E+00  1.03506E+00  1.06024E+00
#           1.08604E+00  1.11246E+00  1.13953E+00  1.16725E+00  1.19565E+00
#           1.22474E+00  1.25454E+00  1.28507E+00  1.31633E+00  1.34836E+00
#           1.38117E+00  1.41477E+00  1.44920E+00  1.48446E+00  1.52057E+00
#           1.55757E+00  1.59547E+00  1.63429E+00  1.67405E+00  1.71478E+00
#           1.75650E+00  1.79924E+00  1.84302E+00  1.88786E+00  1.93379E+00
#           1.98084E+00  2.02904E+00  2.07841E+00  2.12898E+00  2.18078E+00
#           2.23384E+00  2.28819E+00  2.34386E+00  2.40089E+00  2.45930E+00
#           2.51914E+00  2.58043E+00  2.64322E+00  2.70753E+00  2.77341E+00
#           2.84088E+00  2.91001E+00  2.98081E+00  3.05333E+00  3.12762E+00
#           3.20372E+00  3.28167E+00  3.36152E+00  3.44330E+00  3.52708E+00
#           3.61290E+00  3.70080E+00  3.79085E+00  3.88308E+00  3.97756E+00
#           4.07434E+00  4.17347E+00  4.27501E+00  4.37903E+00  4.48557E+00
#           4.59471E+00  4.70650E+00  4.82102E+00  4.93832E+00  5.05847E+00
#           5.18155E+00  5.30762E+00  5.43676E+00  5.56904E+00  5.70453E+00
#           5.84333E+00  5.98550E+00  6.13114E+00  6.28031E+00  6.43312E+00
#           6.58964E+00  6.74997E+00  6.91420E+00  7.08243E+00  7.25475E+00
#           7.43126E+00  7.61207E+00  7.79728E+00  7.98700E+00  8.18133E+00
#           8.38038E+00  8.58428E+00  8.79315E+00  9.00709E+00  9.22624E+00
#           9.45072E+00  9.68067E+00  9.91620E+00  1.01575E+01  1.04046E+01
#           1.06578E+01  1.09171E+01  1.11827E+01  1.14548E+01  1.17335E+01
#           1.20190E+01  1.23114E+01  1.26109E+01  1.29178E+01  1.32321E+01
#           1.35540E+01  1.38838E+01  1.42216E+01  1.45676E+01  1.49221E+01
#           1.52851E+01  1.56570E+01  1.60380E+01  1.64282E+01  1.68279E+01
#           1.72374E+01  1.76568E+01  1.80864E+01  1.85264E+01  1.89772E+01
#           1.94389E+01  1.99119E+01  2.03963E+01  2.08926E+01  2.14009E+01
#           2.19216E+01  2.24550E+01  2.30014E+01  2.35610E+01  2.41343E+01
#           2.47215E+01  2.53230E+01  2.59391E+01  2.65702E+01  2.72167E+01
#           2.78789E+01  2.85572E+01  2.92520E+01  2.99637E+01  3.06928E+01
#           3.14396E+01  3.22045E+01  3.29881E+01  3.37907E+01  3.46128E+01
#           3.54550E+01  3.63177E+01  3.72013E+01  3.81064E+01  3.90336E+01
#           3.99833E+01  4.09561E+01  4.19526E+01  4.29734E+01  4.40189E+01
#           4.50900E+01  4.61870E+01  4.73108E+01  4.84619E+01  4.96410E+01
#           5.08488E+01  5.20860E+01  5.33533E+01  5.46514E+01  5.59812E+01
#           5.73432E+01  5.87384E+01  6.01676E+01  6.16315E+01  6.31311E+01
#           6.46671E+01  6.62405E+01  6.78522E+01  6.95031E+01  7.11941E+01
#           7.29263E+01  7.47007E+01  7.65182E+01  7.83800E+01  8.02870E+01
#           8.22405E+01  8.42414E+01  8.62911E+01  8.83906E+01  9.05412E+01
#           9.27442E+01  9.50007E+01  9.73122E+01  9.96799E+01  1.02105E+02
#           1.04589E+02  1.07134E+02  1.09741E+02  1.12411E+02  1.15146E+02
#           1.17948E+02  1.20817E+02  1.23757E+02  1.26768E+02  1.29852E+02
#           1.33012E+02  1.36248E+02  1.39563E+02  1.42959E+02  1.46437E+02
#           1.50000E+02
     unit =    2            # unit is [1/cm^2/(MeV/n)/source]
     axis =  eng            # axis of output
     file = detector-01.out  # file name of output for the above axis
   output = f-curr          # surface crossing forward current spectrum
     part =  neutron  
# kf/name :  2112     
#    used :        main (  %)        temp (  %)       total (  %)
#  memory :         414 (  0)           0 (  0)         414 (  0)

#------------------------------------------------------------------------------
#newpage:
#   no. =    1   reg = 100 - 200

x: Energy [MeV/n]
y:  F-Curr [1/cm^2/(MeV/n)/source]         
p: xlog ylog afac(0.8) form(0.9)
h: n            x            y(neutron ),hh0l   n 
#  e-lower      e-upper      neutron     r.err 
   1.0000E-02   1.0243E-02   1.3147E-05  0.2500
   1.0243E-02   1.0493E-02   1.5243E-05  0.2294
   1.0493E-02   1.0748E-02   1.4880E-05  0.2294
   1.0748E-02   1.1009E-02   1.8345E-05  0.2041
   1.1009E-02   1.1277E-02   1.7014E-05  0.2087
   1.1277E-02   1.1552E-02   1.8939E-05  0.1961
   1.1552E-02   1.1833E-02   1.1224E-05  0.2503
   1.1833E-02   1.2121E-02   1.4759E-05  0.2159
   1.2121E-02   1.2415E-02   1.2583E-05  0.2295
   1.2415E-02   1.2718E-02   1.0772E-05  0.2464
   1.2718E-02   1.3027E-02   1.2917E-05  0.2236
   1.3027E-02   1.3344E-02   1.3878E-05  0.2132
   1.3344E-02   1.3669E-02   1.0469E-05  0.2425
   1.3669E-02   1.4001E-02   1.0219E-05  0.2425
   1.4001E-02   1.4342E-02   9.3906E-06  0.2500
   1.4342E-02   1.4691E-02   1.3750E-05  0.2041
   1.4691E-02   1.5048E-02   1.2306E-05  0.2132
   1.5048E-02   1.5414E-02   1.2011E-05  0.2132
   1.5414E-02   1.5789E-02   8.5312E-06  0.2500
   1.5789E-02   1.6174E-02   7.8072E-06  0.2582
   1.6174E-02   1.6567E-02   9.6517E-06  0.2294
   1.6567E-02   1.6970E-02   1.2146E-05  0.2006
   1.6970E-02   1.7383E-02   9.2017E-06  0.2294
   1.7383E-02   1.7806E-02   1.0399E-05  0.2132
   1.7806E-02   1.8239E-02   7.1925E-06  0.2506
   1.8239E-02   1.8683E-02   9.4590E-06  0.2182
   1.8683E-02   1.9138E-02   1.0110E-05  0.2085
   1.9138E-02   1.9603E-02   7.2979E-06  0.2425
   1.9603E-02   2.0080E-02   7.4226E-06  0.2363
   2.0080E-02   2.0569E-02   9.8202E-06  0.2041
   2.0569E-02   2.1069E-02   6.7899E-06  0.2425
   2.1069E-02   2.1582E-02   7.8997E-06  0.2210
   2.1582E-02   2.2107E-02   7.1507E-06  0.2297
   2.2107E-02   2.2645E-02   1.0709E-05  0.1858
   2.2645E-02   2.3196E-02   1.0976E-05  0.1812
   2.3196E-02   2.3760E-02   8.1164E-06  0.2085
   2.3760E-02   2.4338E-02   7.9561E-06  0.2070
   2.4338E-02   2.4930E-02   8.1010E-06  0.2041
   2.4930E-02   2.5537E-02   8.5703E-06  0.1961
   2.5537E-02   2.6158E-02   9.6549E-06  0.1826
   2.6158E-02   2.6795E-02   6.8099E-06  0.2134
   2.6795E-02   2.7447E-02   6.4125E-06  0.2183
   2.7447E-02   2.8114E-02   5.9455E-06  0.2237
   2.8114E-02   2.8799E-02   7.8913E-06  0.1925
   2.8799E-02   2.9499E-02   5.9924E-06  0.2182
   2.9499E-02   3.0217E-02   4.6905E-06  0.2427
   3.0217E-02   3.0952E-02   5.0570E-06  0.2299
   3.0952E-02   3.1705E-02   4.4103E-06  0.2436
   3.1705E-02   3.2477E-02   5.4413E-06  0.2182
   3.2477E-02   3.3267E-02   6.3241E-06  0.2000
   3.3267E-02   3.4076E-02   6.9154E-06  0.1890
   3.4076E-02   3.4905E-02   5.0415E-06  0.2183
   3.4905E-02   3.5755E-02   4.7064E-06  0.2236
   3.5755E-02   3.6625E-02   6.2056E-06  0.1925
   3.6625E-02   3.7516E-02   4.4884E-06  0.2236
   3.7516E-02   3.8428E-02   7.1650E-06  0.1743
   3.8428E-02   3.9363E-02   5.5244E-06  0.1962
   3.9363E-02   4.0321E-02   5.2632E-06  0.1985
   4.0321E-02   4.1302E-02   4.2616E-06  0.2183
   4.1302E-02   4.2307E-02   5.3726E-06  0.1925
   4.2307E-02   4.3337E-02   5.4378E-06  0.1890
   4.3337E-02   4.4391E-02   4.7223E-06  0.2000
   4.4391E-02   4.5471E-02   5.3645E-06  0.1857
   4.5471E-02   4.6577E-02   3.7941E-06  0.2182
   4.6577E-02   4.7711E-02   4.4102E-06  0.2000
   4.7711E-02   4.8871E-02   5.6508E-06  0.1742
   4.8871E-02   5.0061E-02   4.2029E-06  0.2000
   5.0061E-02   5.1279E-02   4.2685E-06  0.1961
   5.1279E-02   5.2526E-02   3.6447E-06  0.2088
   5.2526E-02   5.3804E-02   3.9113E-06  0.2000
   5.3804E-02   5.5113E-02   3.2068E-06  0.2182
   5.5113E-02   5.6454E-02   2.9794E-06  0.2236
   5.6454E-02   5.7828E-02   3.2020E-06  0.2132
   5.7828E-02   5.9235E-02   4.1580E-06  0.1842
   5.9235E-02   6.0676E-02   3.7430E-06  0.1925
   6.0676E-02   6.2152E-02   3.3861E-06  0.2000
   6.2152E-02   6.3665E-02   3.4360E-06  0.1961
   6.3665E-02   6.5214E-02   3.6134E-06  0.1890
   6.5214E-02   6.6800E-02   4.0340E-06  0.1758
   6.6800E-02   6.8426E-02   3.5559E-06  0.1857
   6.8426E-02   7.0090E-02   2.9843E-06  0.2001
   7.0090E-02   7.1796E-02   2.8129E-06  0.2041
   7.1796E-02   7.3543E-02   3.4084E-06  0.1827
   7.3543E-02   7.5332E-02   2.6806E-06  0.2041
   7.5332E-02   7.7165E-02   3.3792E-06  0.1796
   7.7165E-02   7.9042E-02   2.8036E-06  0.1934
   7.9042E-02   8.0965E-02   1.8706E-06  0.2357
   8.0965E-02   8.2935E-02   2.4186E-06  0.2042
   8.2935E-02   8.4953E-02   2.4766E-06  0.2000
   8.4953E-02   8.7020E-02   3.7714E-06  0.1601
   8.7020E-02   8.9138E-02   2.3851E-06  0.1982
   8.9138E-02   9.1306E-02   3.0403E-06  0.1741
   9.1306E-02   9.3528E-02   2.3392E-06  0.1961
   9.3528E-02   9.5804E-02   2.8093E-06  0.1768
   9.5804E-02   9.8134E-02   1.5432E-06  0.2357
   9.8134E-02   1.0052E-01   1.7573E-06  0.2182
   1.0052E-01   1.0297E-01   1.7649E-06  0.2136
   1.0297E-01   1.0547E-01   1.6753E-06  0.2182
   1.0547E-01   1.0804E-01   2.3986E-06  0.1797
   1.0804E-01   1.1067E-01   2.8896E-06  0.1622
   1.1067E-01   1.1336E-01   2.5034E-06  0.1717
   1.1336E-01   1.1612E-01   3.3999E-06  0.1459
   1.1612E-01   1.1894E-01   2.3332E-06  0.1741
   1.1894E-01   1.2184E-01   4.0088E-06  0.1307
   1.2184E-01   1.2480E-01   2.7635E-06  0.1562
   1.2480E-01   1.2784E-01   2.2500E-06  0.1707
   1.2784E-01   1.3095E-01   2.3629E-06  0.1645
   1.3095E-01   1.3414E-01   3.9389E-06  0.1260
   1.3414E-01   1.3740E-01   3.7345E-06  0.1280
   1.3740E-01   1.4074E-01   3.4546E-06  0.1314
   1.4074E-01   1.4417E-01   3.6772E-06  0.1260
   1.4417E-01   1.4767E-01   4.3749E-06  0.1140
   1.4767E-01   1.5127E-01   4.1699E-06  0.1155
   1.5127E-01   1.5495E-01   4.9884E-06  0.1043
   1.5495E-01   1.5872E-01   4.1352E-06  0.1132
   1.5872E-01   1.6258E-01   3.7770E-06  0.1170
   1.6258E-01   1.6654E-01   4.8850E-06  0.1016
   1.6654E-01   1.7059E-01   4.5892E-06  0.1035
   1.7059E-01   1.7474E-01   4.2779E-06  0.1060
   1.7474E-01   1.7899E-01   4.7925E-06  0.0990
   1.7899E-01   1.8334E-01   4.8630E-06  0.0971
   1.8334E-01   1.8781E-01   5.3301E-06  0.0917
   1.8781E-01   1.9237E-01   4.4709E-06  0.0988
   1.9237E-01   1.9706E-01   4.7295E-06  0.0949
   1.9706E-01   2.0185E-01   5.2277E-06  0.0890
   2.0185E-01   2.0676E-01   5.6886E-06  0.0845
   2.0676E-01   2.1179E-01   5.4545E-06  0.0853
   2.1179E-01   2.1694E-01   5.6621E-06  0.0827
   2.1694E-01   2.2222E-01   5.9662E-06  0.0795
   2.2222E-01   2.2763E-01   5.8860E-06  0.0791
   2.2763E-01   2.3317E-01   6.5885E-06  0.0739
   2.3317E-01   2.3884E-01   6.6898E-06  0.0725
   2.3884E-01   2.4465E-01   5.9801E-06  0.0758
   2.4465E-01   2.5061E-01   6.4739E-06  0.0719
   2.5061E-01   2.5670E-01   7.0592E-06  0.0681
   2.5670E-01   2.6295E-01   6.7626E-06  0.0687
   2.6295E-01   2.6935E-01   7.3914E-06  0.0650
   2.6935E-01   2.7590E-01   7.3824E-06  0.0642
   2.7590E-01   2.8261E-01   7.0945E-06  0.0646
   2.8261E-01   2.8949E-01   7.2312E-06  0.0634
   2.8949E-01   2.9653E-01   9.3092E-06  0.0551
   2.9653E-01   3.0375E-01   7.9713E-06  0.0589
   3.0375E-01   3.1114E-01   7.1896E-06  0.0612
   3.1114E-01   3.1871E-01   8.4623E-06  0.0558
   3.1871E-01   3.2646E-01   8.2774E-06  0.0557
   3.2646E-01   3.3441E-01   8.6065E-06  0.0540
   3.3441E-01   3.4254E-01   8.5488E-06  0.0535
   3.4254E-01   3.5088E-01   9.5160E-06  0.0501
   3.5088E-01   3.5941E-01   1.0208E-05  0.0478
   3.5941E-01   3.6816E-01   9.4527E-06  0.0491
   3.6816E-01   3.7712E-01   9.8960E-06  0.0474
   3.7712E-01   3.8629E-01   9.6333E-06  0.0475
   3.8629E-01   3.9569E-01   1.1059E-05  0.0438
   3.9569E-01   4.0532E-01   1.0302E-05  0.0448
   4.0532E-01   4.1518E-01   1.0398E-05  0.0441
   4.1518E-01   4.2528E-01   1.1175E-05  0.0420
   4.2528E-01   4.3563E-01   1.0817E-05  0.0422
   4.3563E-01   4.4623E-01   1.1230E-05  0.0409
   4.4623E-01   4.5708E-01   1.1605E-05  0.0397
   4.5708E-01   4.6821E-01   1.1796E-05  0.0389
   4.6821E-01   4.7960E-01   1.1675E-05  0.0387
   4.7960E-01   4.9127E-01   1.2683E-05  0.0367
   4.9127E-01   5.0322E-01   1.2457E-05  0.0366
   5.0322E-01   5.1546E-01   1.2469E-05  0.0361
   5.1546E-01   5.2800E-01   1.3041E-05  0.0349
   5.2800E-01   5.4085E-01   1.3147E-05  0.0343
   5.4085E-01   5.5401E-01   1.3998E-05  0.0329
   5.5401E-01   5.6749E-01   1.3758E-05  0.0327
   5.6749E-01   5.8130E-01   1.5317E-05  0.0307
   5.8130E-01   5.9544E-01   1.5229E-05  0.0304
   5.9544E-01   6.0993E-01   1.5012E-05  0.0302
   6.0993E-01   6.2477E-01   1.5241E-05  0.0296
   6.2477E-01   6.3997E-01   1.5227E-05  0.0293
   6.3997E-01   6.5554E-01   1.5320E-05  0.0289
   6.5554E-01   6.7149E-01   1.5870E-05  0.0280
   6.7149E-01   6.8783E-01   1.6428E-05  0.0272
   6.8783E-01   7.0456E-01   1.6529E-05  0.0268
   7.0456E-01   7.2171E-01   1.7039E-05  0.0261
   7.2171E-01   7.3927E-01   1.7080E-05  0.0257
   7.3927E-01   7.5725E-01   1.7354E-05  0.0252
   7.5725E-01   7.7568E-01   1.7978E-05  0.0245
   7.7568E-01   7.9455E-01   1.8538E-05  0.0238
   7.9455E-01   8.1388E-01   1.6776E-05  0.0247
   8.1388E-01   8.3368E-01   1.7865E-05  0.0237
   8.3368E-01   8.5397E-01   1.8986E-05  0.0227
   8.5397E-01   8.7475E-01   1.9082E-05  0.0224
   8.7475E-01   8.9603E-01   1.9196E-05  0.0220
   8.9603E-01   9.1783E-01   1.8115E-05  0.0224
   9.1783E-01   9.4016E-01   1.9904E-05  0.0211
   9.4016E-01   9.6304E-01   1.8766E-05  0.0215
   9.6304E-01   9.8647E-01   1.8494E-05  0.0214
   9.8647E-01   1.0105E+00   1.8203E-05  0.0213
   1.0105E+00   1.0351E+00   1.7965E-05  0.0212
   1.0351E+00   1.0602E+00   1.7655E-05  0.0211
   1.0602E+00   1.0860E+00   1.7453E-05  0.0210
   1.0860E+00   1.1125E+00   1.8095E-05  0.0203
   1.1125E+00   1.1395E+00   1.8049E-05  0.0201
   1.1395E+00   1.1673E+00   1.8287E-05  0.0197
   1.1673E+00   1.1957E+00   1.9549E-05  0.0189
   1.1957E+00   1.2247E+00   1.8975E-05  0.0189
   1.2247E+00   1.2545E+00   1.9314E-05  0.0185
   1.2545E+00   1.2851E+00   1.9094E-05  0.0184
   1.2851E+00   1.3163E+00   1.9346E-05  0.0180
   1.3163E+00   1.3484E+00   1.9437E-05  0.0178
   1.3484E+00   1.3812E+00   1.9566E-05  0.0175
   1.3812E+00   1.4148E+00   1.9384E-05  0.0174
   1.4148E+00   1.4492E+00   1.9551E-05  0.0171
   1.4492E+00   1.4845E+00   1.9451E-05  0.0169
   1.4845E+00   1.5206E+00   1.8870E-05  0.0170
   1.5206E+00   1.5576E+00   1.9181E-05  0.0166
   1.5576E+00   1.5955E+00   1.9190E-05  0.0164
   1.5955E+00   1.6343E+00   1.9079E-05  0.0163
   1.6343E+00   1.6741E+00   1.8753E-05  0.0162
   1.6741E+00   1.7148E+00   1.8860E-05  0.0160
   1.7148E+00   1.7565E+00   1.7974E-05  0.0161
   1.7565E+00   1.7992E+00   1.7194E-05  0.0163
   1.7992E+00   1.8430E+00   1.5573E-05  0.0169
   1.8430E+00   1.8879E+00   1.5043E-05  0.0169
   1.8879E+00   1.9338E+00   1.4653E-05  0.0169
   1.9338E+00   1.9808E+00   1.4393E-05  0.0168
   1.9808E+00   2.0290E+00   1.4013E-05  0.0168
   2.0290E+00   2.0784E+00   1.3985E-05  0.0166
   2.0784E+00   2.1290E+00   1.4859E-05  0.0159
   2.1290E+00   2.1808E+00   1.4467E-05  0.0158
   2.1808E+00   2.2338E+00   1.5149E-05  0.0153
   2.2338E+00   2.2882E+00   1.4789E-05  0.0153
   2.2882E+00   2.3439E+00   1.4146E-05  0.0155
   2.3439E+00   2.4009E+00   1.3424E-05  0.0158
   2.4009E+00   2.4593E+00   1.3323E-05  0.0156
   2.4593E+00   2.5191E+00   1.3479E-05  0.0154
   2.5191E+00   2.5804E+00   1.3021E-05  0.0155
   2.5804E+00   2.6432E+00   1.2562E-05  0.0155
   2.6432E+00   2.7075E+00   1.2777E-05  0.0152
   2.7075E+00   2.7734E+00   1.2678E-05  0.0151
   2.7734E+00   2.8409E+00   1.2030E-05  0.0153
   2.8409E+00   2.9100E+00   1.2642E-05  0.0148
   2.9100E+00   2.9808E+00   1.2127E-05  0.0149
   2.9808E+00   3.0533E+00   1.2454E-05  0.0145
   3.0533E+00   3.1276E+00   1.2193E-05  0.0145
   3.1276E+00   3.2037E+00   1.2030E-05  0.0145
   3.2037E+00   3.2817E+00   1.1897E-05  0.0144
   3.2817E+00   3.3615E+00   1.1184E-05  0.0147
   3.3615E+00   3.4433E+00   1.1633E-05  0.0142
   3.4433E+00   3.5271E+00   1.1551E-05  0.0141
   3.5271E+00   3.6129E+00   1.1356E-05  0.0141
   3.6129E+00   3.7008E+00   1.1200E-05  0.0140
   3.7008E+00   3.7908E+00   1.1173E-05  0.0139
   3.7908E+00   3.8831E+00   1.0739E-05  0.0140
   3.8831E+00   3.9776E+00   1.0706E-05  0.0138
   3.9776E+00   4.0743E+00   1.0696E-05  0.0137
   4.0743E+00   4.1735E+00   1.0263E-05  0.0138
   4.1735E+00   4.2750E+00   9.9960E-06  0.0138
   4.2750E+00   4.3790E+00   9.9270E-06  0.0137
   4.3790E+00   4.4856E+00   9.9185E-06  0.0135
   4.4856E+00   4.5947E+00   9.4124E-06  0.0137
   4.5947E+00   4.7065E+00   9.3902E-06  0.0136
   4.7065E+00   4.8210E+00   9.3777E-06  0.0134
   4.8210E+00   4.9383E+00   9.0528E-06  0.0135
   4.9383E+00   5.0585E+00   9.0244E-06  0.0133
   5.0585E+00   5.1815E+00   9.0124E-06  0.0132
   5.1815E+00   5.3076E+00   8.8334E-06  0.0132
   5.3076E+00   5.4368E+00   8.7435E-06  0.0131
   5.4368E+00   5.5690E+00   8.4367E-06  0.0132
   5.5690E+00   5.7045E+00   8.5494E-06  0.0129
   5.7045E+00   5.8433E+00   8.1102E-06  0.0131
   5.8433E+00   5.9855E+00   8.4721E-06  0.0127
   5.9855E+00   6.1311E+00   8.1967E-06  0.0127
   6.1311E+00   6.2803E+00   8.3761E-06  0.0125
   6.2803E+00   6.4331E+00   8.0862E-06  0.0125
   6.4331E+00   6.5896E+00   7.8395E-06  0.0126
   6.5896E+00   6.7500E+00   8.0151E-06  0.0123
   6.7500E+00   6.9142E+00   7.9681E-06  0.0122
   6.9142E+00   7.0824E+00   7.8876E-06  0.0121
   7.0824E+00   7.2548E+00   7.7209E-06  0.0121
   7.2548E+00   7.4313E+00   7.8805E-06  0.0118
   7.4313E+00   7.6121E+00   7.5908E-06  0.0119
   7.6121E+00   7.7973E+00   7.6525E-06  0.0117
   7.7973E+00   7.9870E+00   7.3914E-06  0.0118
   7.9870E+00   8.1813E+00   7.2338E-06  0.0118
   8.1813E+00   8.3804E+00   7.3867E-06  0.0115
   8.3804E+00   8.5843E+00   7.3234E-06  0.0114
   8.5843E+00   8.7931E+00   7.3538E-06  0.0113
   8.7931E+00   9.0071E+00   6.9133E-06  0.0115
   9.0071E+00   9.2262E+00   7.0065E-06  0.0113
   9.2262E+00   9.4507E+00   6.8320E-06  0.0113
   9.4507E+00   9.6807E+00   7.0315E-06  0.0110
   9.6807E+00   9.9162E+00   6.8529E-06  0.0111
   9.9162E+00   1.0157E+01   7.2176E-06  0.0107
   1.0157E+01   1.0405E+01   7.0132E-06  0.0107
   1.0405E+01   1.0658E+01   7.0067E-06  0.0106
   1.0658E+01   1.0917E+01   6.9616E-06  0.0105
   1.0917E+01   1.1183E+01   6.7797E-06  0.0105
   1.1183E+01   1.1455E+01   6.7759E-06  0.0104
   1.1455E+01   1.1733E+01   6.6881E-06  0.0103
   1.1733E+01   1.2019E+01   6.6873E-06  0.0102
   1.2019E+01   1.2311E+01   6.5061E-06  0.0102
   1.2311E+01   1.2611E+01   6.8088E-06  0.0099
   1.2611E+01   1.2918E+01   6.6404E-06  0.0099
   1.2918E+01   1.3232E+01   6.5539E-06  0.0098
   1.3232E+01   1.3554E+01   6.5822E-06  0.0097
   1.3554E+01   1.3884E+01   6.6083E-06  0.0096
   1.3884E+01   1.4222E+01   6.5928E-06  0.0095
   1.4222E+01   1.4568E+01   6.4000E-06  0.0095
   1.4568E+01   1.4922E+01   6.4173E-06  0.0094
   1.4922E+01   1.5285E+01   6.3820E-06  0.0093
   1.5285E+01   1.5657E+01   6.3841E-06  0.0092
   1.5657E+01   1.6038E+01   6.3485E-06  0.0091
   1.6038E+01   1.6428E+01   6.2280E-06  0.0091
   1.6428E+01   1.6828E+01   6.2703E-06  0.0089
   1.6828E+01   1.7237E+01   6.1339E-06  0.0089
   1.7237E+01   1.7657E+01   6.0300E-06  0.0089
   1.7657E+01   1.8086E+01   6.0180E-06  0.0088
   1.8086E+01   1.8526E+01   6.0239E-06  0.0087
   1.8526E+01   1.8977E+01   5.9178E-06  0.0087
   1.8977E+01   1.9439E+01   5.8168E-06  0.0086
   1.9439E+01   1.9912E+01   5.8664E-06  0.0085
   1.9912E+01   2.0396E+01   5.8501E-06  0.0084
   2.0396E+01   2.0893E+01   5.7728E-06  0.0084
   2.0893E+01   2.1401E+01   5.7651E-06  0.0083
   2.1401E+01   2.1922E+01   5.7000E-06  0.0082
   2.1922E+01   2.2455E+01   5.6887E-06  0.0081
   2.2455E+01   2.3001E+01   5.5902E-06  0.0081
   2.3001E+01   2.3561E+01   5.5972E-06  0.0080
   2.3561E+01   2.4134E+01   5.5434E-06  0.0079
   2.4134E+01   2.4721E+01   5.4543E-06  0.0079
   2.4721E+01   2.5323E+01   5.3404E-06  0.0079
   2.5323E+01   2.5939E+01   5.3434E-06  0.0078
   2.5939E+01   2.6570E+01   5.3131E-06  0.0077
   2.6570E+01   2.7217E+01   5.3141E-06  0.0076
   2.7217E+01   2.7879E+01   5.3192E-06  0.0075
   2.7879E+01   2.8557E+01   5.2170E-06  0.0075
   2.8557E+01   2.9252E+01   5.2339E-06  0.0074
   2.9252E+01   2.9964E+01   5.1371E-06  0.0074
   2.9964E+01   3.0693E+01   5.1413E-06  0.0073
   3.0693E+01   3.1440E+01   5.1306E-06  0.0072
   3.1440E+01   3.2205E+01   5.1002E-06  0.0072
   3.2205E+01   3.2988E+01   5.0937E-06  0.0071
   3.2988E+01   3.3791E+01   5.0925E-06  0.0070
   3.3791E+01   3.4613E+01   5.0156E-06  0.0070
   3.4613E+01   3.5455E+01   5.0748E-06  0.0068
   3.5455E+01   3.6318E+01   5.1963E-06  0.0067
   3.6318E+01   3.7201E+01   5.9506E-06  0.0062
   3.7201E+01   3.8106E+01   8.0388E-06  0.0052
   3.8106E+01   3.9034E+01   1.0922E-05  0.0044
   3.9034E+01   3.9983E+01   1.2484E-05  0.0041
   3.9983E+01   4.0956E+01   1.2596E-05  0.0040
   4.0956E+01   4.1953E+01   1.2492E-05  0.0040
   4.1953E+01   4.2973E+01   1.2323E-05  0.0040
   4.2973E+01   4.4019E+01   1.2194E-05  0.0040
   4.4019E+01   4.5090E+01   1.2064E-05  0.0039
   4.5090E+01   4.6187E+01   1.1943E-05  0.0039
   4.6187E+01   4.7311E+01   1.1785E-05  0.0039
   4.7311E+01   4.8462E+01   1.0319E-05  0.0041
   4.8462E+01   4.9641E+01   6.8087E-06  0.0050
   4.9641E+01   5.0849E+01   6.6065E-06  0.0050
   5.0849E+01   5.2086E+01   6.4436E-06  0.0050
   5.2086E+01   5.3353E+01   6.2857E-06  0.0050
   5.3353E+01   5.4651E+01   6.2151E-06  0.0050
   5.4651E+01   5.5981E+01   6.0069E-06  0.0050
   5.5981E+01   5.7343E+01   5.8881E-06  0.0050
   5.7343E+01   5.8738E+01   5.7587E-06  0.0050
   5.8738E+01   6.0168E+01   5.6138E-06  0.0050
   6.0168E+01   6.1632E+01   5.4410E-06  0.0050
   6.1632E+01   6.3131E+01   5.3017E-06  0.0050
   6.3131E+01   6.4667E+01   5.2167E-06  0.0050
   6.4667E+01   6.6240E+01   4.9822E-06  0.0051
   6.6240E+01   6.7852E+01   4.9010E-06  0.0050
   6.7852E+01   6.9503E+01   4.7260E-06  0.0051
   6.9503E+01   7.1194E+01   4.5714E-06  0.0051
   7.1194E+01   7.2926E+01   4.3884E-06  0.0051
   7.2926E+01   7.4701E+01   4.2563E-06  0.0051
   7.4701E+01   7.6518E+01   4.0412E-06  0.0052
   7.6518E+01   7.8380E+01   3.8344E-06  0.0053
   7.8380E+01   8.0287E+01   3.6107E-06  0.0054
   8.0287E+01   8.2240E+01   3.3608E-06  0.0055
   8.2240E+01   8.4241E+01   3.1633E-06  0.0056
   8.4241E+01   8.6291E+01   1.3819E-06  0.0084
   8.6291E+01   8.8391E+01   0.0000E+00  0.0000
   8.8391E+01   9.0541E+01   0.0000E+00  0.0000
   9.0541E+01   9.2744E+01   0.0000E+00  0.0000
   9.2744E+01   9.5001E+01   0.0000E+00  0.0000
   9.5001E+01   9.7312E+01   0.0000E+00  0.0000
   9.7312E+01   9.9680E+01   0.0000E+00  0.0000
   9.9680E+01   1.0211E+02   0.0000E+00  0.0000
   1.0211E+02   1.0459E+02   0.0000E+00  0.0000
   1.0459E+02   1.0713E+02   0.0000E+00  0.0000
   1.0713E+02   1.0974E+02   0.0000E+00  0.0000
   1.0974E+02   1.1241E+02   0.0000E+00  0.0000
   1.1241E+02   1.1515E+02   0.0000E+00  0.0000
   1.1515E+02   1.1795E+02   0.0000E+00  0.0000
   1.1795E+02   1.2082E+02   0.0000E+00  0.0000
   1.2082E+02   1.2376E+02   0.0000E+00  0.0000
   1.2376E+02   1.2677E+02   0.0000E+00  0.0000
   1.2677E+02   1.2985E+02   0.0000E+00  0.0000
   1.2985E+02   1.3301E+02   0.0000E+00  0.0000
   1.3301E+02   1.3625E+02   0.0000E+00  0.0000
   1.3625E+02   1.3956E+02   0.0000E+00  0.0000
   1.3956E+02   1.4296E+02   0.0000E+00  0.0000
   1.4296E+02   1.4644E+02   0.0000E+00  0.0000
   1.4644E+02   1.5000E+02   0.0000E+00  0.0000

#   sum over                 3.7927E-06
'no. =    1   reg = 100 - 200'
msuc: {\huge [t-cross] in region mesh}
msdr: {\it plotted by \ANGEL \version}
msdl: {\it calculated by \PHITS  3.26}
wt: s(0.7)
\vspace{-3}
  region surface crossing
  area  &=&   1.0000E+00 [cm^2]
e:
 
# Information for Restart Calculation
# This calculation was newly started
# istdev =  2 # 1:Batch variance, 2:History variance
# resc2  = 5.00000000000000000E+09 # Total source weight or Total source weight / maxcas
# resc3  = 5.00000000000000000E+09 # Total history number or Total batch number
# maxcas =   100000000 # History / Batch, only used for istdev=1
# bitrseed = 0110100000100010111000001110001111001110100100011111101000111001 # bit data of rseed
