[ T-Cross ]
    title = [t-cross] in region mesh
     mesh =  reg            # mesh type is region-wise
      reg =    1            # number of crossing regions
      non     r-from    r-to       area
      1       121       221        1.000000    
   e-type =    3            # e-mesh is log given by emin, emax and ne
     emin =  1.0000000E-02  # minimum value of e-mesh points
     emax =   150.0000      # maximum value of e-mesh points
#    edel =  2.4039514E-02  # mesh width of e-mesh points
       ne =    400          # number of e-mesh points
#    data = ( e(i), i = 1, ne + 1 )
#           1.00000E-02  1.02433E-02  1.04925E-02  1.07478E-02  1.10093E-02
#           1.12772E-02  1.15516E-02  1.18326E-02  1.21205E-02  1.24154E-02
#           1.27175E-02  1.30269E-02  1.33439E-02  1.36686E-02  1.40011E-02
#           1.43418E-02  1.46907E-02  1.50482E-02  1.54143E-02  1.57894E-02
#           1.61735E-02  1.65670E-02  1.69701E-02  1.73830E-02  1.78060E-02
#           1.82392E-02  1.86830E-02  1.91375E-02  1.96032E-02  2.00801E-02
#           2.05687E-02  2.10692E-02  2.15818E-02  2.21069E-02  2.26448E-02
#           2.31957E-02  2.37601E-02  2.43382E-02  2.49304E-02  2.55369E-02
#           2.61583E-02  2.67947E-02  2.74467E-02  2.81145E-02  2.87985E-02
#           2.94992E-02  3.02169E-02  3.09521E-02  3.17052E-02  3.24766E-02
#           3.32668E-02  3.40762E-02  3.49053E-02  3.57546E-02  3.66246E-02
#           3.75157E-02  3.84284E-02  3.93634E-02  4.03212E-02  4.13022E-02
#           4.23071E-02  4.33365E-02  4.43909E-02  4.54710E-02  4.65773E-02
#           4.77106E-02  4.88714E-02  5.00605E-02  5.12785E-02  5.25262E-02
#           5.38042E-02  5.51133E-02  5.64542E-02  5.78278E-02  5.92348E-02
#           6.06760E-02  6.21523E-02  6.36645E-02  6.52135E-02  6.68002E-02
#           6.84255E-02  7.00904E-02  7.17957E-02  7.35426E-02  7.53319E-02
#           7.71648E-02  7.90423E-02  8.09655E-02  8.29354E-02  8.49533E-02
#           8.70203E-02  8.91376E-02  9.13064E-02  9.35279E-02  9.58035E-02
#           9.81345E-02  1.00522E-01  1.02968E-01  1.05473E-01  1.08040E-01
#           1.10668E-01  1.13361E-01  1.16119E-01  1.18944E-01  1.21838E-01
#           1.24803E-01  1.27839E-01  1.30950E-01  1.34136E-01  1.37399E-01
#           1.40742E-01  1.44167E-01  1.47675E-01  1.51268E-01  1.54948E-01
#           1.58718E-01  1.62580E-01  1.66535E-01  1.70587E-01  1.74738E-01
#           1.78989E-01  1.83344E-01  1.87805E-01  1.92375E-01  1.97055E-01
#           2.01850E-01  2.06761E-01  2.11792E-01  2.16945E-01  2.22223E-01
#           2.27630E-01  2.33169E-01  2.38842E-01  2.44653E-01  2.50605E-01
#           2.56703E-01  2.62949E-01  2.69346E-01  2.75900E-01  2.82613E-01
#           2.89489E-01  2.96532E-01  3.03747E-01  3.11138E-01  3.18708E-01
#           3.26462E-01  3.34405E-01  3.42542E-01  3.50876E-01  3.59413E-01
#           3.68158E-01  3.77116E-01  3.86291E-01  3.95690E-01  4.05317E-01
#           4.15179E-01  4.25281E-01  4.35628E-01  4.46227E-01  4.57084E-01
#           4.68205E-01  4.79597E-01  4.91266E-01  5.03219E-01  5.15463E-01
#           5.28005E-01  5.40851E-01  5.54011E-01  5.67490E-01  5.81298E-01
#           5.95441E-01  6.09929E-01  6.24769E-01  6.39970E-01  6.55541E-01
#           6.71491E-01  6.87828E-01  7.04564E-01  7.21706E-01  7.39266E-01
#           7.57253E-01  7.75678E-01  7.94551E-01  8.13883E-01  8.33685E-01
#           8.53969E-01  8.74747E-01  8.96030E-01  9.17831E-01  9.40163E-01
#           9.63038E-01  9.86469E-01  1.01047E+00  1.03506E+00  1.06024E+00
#           1.08604E+00  1.11246E+00  1.13953E+00  1.16725E+00  1.19565E+00
#           1.22474E+00  1.25454E+00  1.28507E+00  1.31633E+00  1.34836E+00
#           1.38117E+00  1.41477E+00  1.44920E+00  1.48446E+00  1.52057E+00
#           1.55757E+00  1.59547E+00  1.63429E+00  1.67405E+00  1.71478E+00
#           1.75650E+00  1.79924E+00  1.84302E+00  1.88786E+00  1.93379E+00
#           1.98084E+00  2.02904E+00  2.07841E+00  2.12898E+00  2.18078E+00
#           2.23384E+00  2.28819E+00  2.34386E+00  2.40089E+00  2.45930E+00
#           2.51914E+00  2.58043E+00  2.64322E+00  2.70753E+00  2.77341E+00
#           2.84088E+00  2.91001E+00  2.98081E+00  3.05333E+00  3.12762E+00
#           3.20372E+00  3.28167E+00  3.36152E+00  3.44330E+00  3.52708E+00
#           3.61290E+00  3.70080E+00  3.79085E+00  3.88308E+00  3.97756E+00
#           4.07434E+00  4.17347E+00  4.27501E+00  4.37903E+00  4.48557E+00
#           4.59471E+00  4.70650E+00  4.82102E+00  4.93832E+00  5.05847E+00
#           5.18155E+00  5.30762E+00  5.43676E+00  5.56904E+00  5.70453E+00
#           5.84333E+00  5.98550E+00  6.13114E+00  6.28031E+00  6.43312E+00
#           6.58964E+00  6.74997E+00  6.91420E+00  7.08243E+00  7.25475E+00
#           7.43126E+00  7.61207E+00  7.79728E+00  7.98700E+00  8.18133E+00
#           8.38038E+00  8.58428E+00  8.79315E+00  9.00709E+00  9.22624E+00
#           9.45072E+00  9.68067E+00  9.91620E+00  1.01575E+01  1.04046E+01
#           1.06578E+01  1.09171E+01  1.11827E+01  1.14548E+01  1.17335E+01
#           1.20190E+01  1.23114E+01  1.26109E+01  1.29178E+01  1.32321E+01
#           1.35540E+01  1.38838E+01  1.42216E+01  1.45676E+01  1.49221E+01
#           1.52851E+01  1.56570E+01  1.60380E+01  1.64282E+01  1.68279E+01
#           1.72374E+01  1.76568E+01  1.80864E+01  1.85264E+01  1.89772E+01
#           1.94389E+01  1.99119E+01  2.03963E+01  2.08926E+01  2.14009E+01
#           2.19216E+01  2.24550E+01  2.30014E+01  2.35610E+01  2.41343E+01
#           2.47215E+01  2.53230E+01  2.59391E+01  2.65702E+01  2.72167E+01
#           2.78789E+01  2.85572E+01  2.92520E+01  2.99637E+01  3.06928E+01
#           3.14396E+01  3.22045E+01  3.29881E+01  3.37907E+01  3.46128E+01
#           3.54550E+01  3.63177E+01  3.72013E+01  3.81064E+01  3.90336E+01
#           3.99833E+01  4.09561E+01  4.19526E+01  4.29734E+01  4.40189E+01
#           4.50900E+01  4.61870E+01  4.73108E+01  4.84619E+01  4.96410E+01
#           5.08488E+01  5.20860E+01  5.33533E+01  5.46514E+01  5.59812E+01
#           5.73432E+01  5.87384E+01  6.01676E+01  6.16315E+01  6.31311E+01
#           6.46671E+01  6.62405E+01  6.78522E+01  6.95031E+01  7.11941E+01
#           7.29263E+01  7.47007E+01  7.65182E+01  7.83800E+01  8.02870E+01
#           8.22405E+01  8.42414E+01  8.62911E+01  8.83906E+01  9.05412E+01
#           9.27442E+01  9.50007E+01  9.73122E+01  9.96799E+01  1.02105E+02
#           1.04589E+02  1.07134E+02  1.09741E+02  1.12411E+02  1.15146E+02
#           1.17948E+02  1.20817E+02  1.23757E+02  1.26768E+02  1.29852E+02
#           1.33012E+02  1.36248E+02  1.39563E+02  1.42959E+02  1.46437E+02
#           1.50000E+02
     unit =    2            # unit is [1/cm^2/(MeV/n)/source]
     axis =  eng            # axis of output
     file = detector-22.out  # file name of output for the above axis
   output = f-curr          # surface crossing forward current spectrum
     part =  neutron  
# kf/name :  2112     
#    used :        main (  %)        temp (  %)       total (  %)
#  memory :         414 (  0)           0 (  0)         414 (  0)

#------------------------------------------------------------------------------
#newpage:
#   no. =    1   reg = 121 - 221

x: Energy [MeV/n]
y:  F-Curr [1/cm^2/(MeV/n)/source]         
p: xlog ylog afac(0.8) form(0.9)
h: n            x            y(neutron ),hh0l   n 
#  e-lower      e-upper      neutron     r.err 
   1.0000E-02   1.0243E-02   9.7275E-04  0.0649
   1.0243E-02   1.0493E-02   9.0747E-04  0.0664
   1.0493E-02   1.0748E-02   9.7098E-04  0.0634
   1.0748E-02   1.1009E-02   9.3307E-04  0.0640
   1.1009E-02   1.1277E-02   9.0593E-04  0.0640
   1.1277E-02   1.1552E-02   9.0624E-04  0.0634
   1.1552E-02   1.1833E-02   8.6872E-04  0.0639
   1.1833E-02   1.2121E-02   9.4344E-04  0.0606
   1.2121E-02   1.2415E-02   9.2261E-04  0.0605
   1.2415E-02   1.2718E-02   8.9038E-04  0.0608
   1.2718E-02   1.3027E-02   1.0377E-03  0.0557
   1.3027E-02   1.3344E-02   7.7665E-04  0.0637
   1.3344E-02   1.3669E-02   8.4078E-04  0.0604
   1.3669E-02   1.4001E-02   8.1467E-04  0.0607
   1.4001E-02   1.4342E-02   8.4499E-04  0.0589
   1.4342E-02   1.4691E-02   8.2714E-04  0.0588
   1.4691E-02   1.5048E-02   7.7729E-04  0.0599
   1.5048E-02   1.5414E-02   8.1366E-04  0.0578
   1.5414E-02   1.5789E-02   7.9506E-04  0.0578
   1.5789E-02   1.6174E-02   7.2935E-04  0.0597
   1.6174E-02   1.6567E-02   7.0555E-04  0.0600
   1.6567E-02   1.6970E-02   7.9011E-04  0.0559
   1.6970E-02   1.7383E-02   6.7728E-04  0.0597
   1.7383E-02   1.7806E-02   7.4894E-04  0.0561
   1.7806E-02   1.8239E-02   7.5364E-04  0.0553
   1.8239E-02   1.8683E-02   6.8869E-04  0.0571
   1.8683E-02   1.9138E-02   6.7187E-04  0.0571
   1.9138E-02   1.9603E-02   6.7304E-04  0.0564
   1.9603E-02   2.0080E-02   6.8413E-04  0.0553
   2.0080E-02   2.0569E-02   6.4710E-04  0.0562
   2.0569E-02   2.1069E-02   6.2372E-04  0.0565
   2.1069E-02   2.1582E-02   6.5338E-04  0.0546
   2.1582E-02   2.2107E-02   7.0812E-04  0.0518
   2.2107E-02   2.2645E-02   6.1343E-04  0.0550
   2.2645E-02   2.3196E-02   5.9158E-04  0.0553
   2.3196E-02   2.3760E-02   5.9377E-04  0.0546
   2.3760E-02   2.4338E-02   5.4591E-04  0.0561
   2.4338E-02   2.4930E-02   6.0878E-04  0.0526
   2.4930E-02   2.5537E-02   6.1422E-04  0.0517
   2.5537E-02   2.6158E-02   5.3956E-04  0.0545
   2.6158E-02   2.6795E-02   5.9989E-04  0.0511
   2.6795E-02   2.7447E-02   5.7052E-04  0.0518
   2.7447E-02   2.8114E-02   4.9589E-04  0.0549
   2.8114E-02   2.8799E-02   5.1924E-04  0.0530
   2.8799E-02   2.9499E-02   4.5183E-04  0.0561
   2.9499E-02   3.0217E-02   5.0619E-04  0.0524
   3.0217E-02   3.0952E-02   4.9718E-04  0.0522
   3.0952E-02   3.1705E-02   4.9837E-04  0.0515
   3.1705E-02   3.2477E-02   4.7405E-04  0.0522
   3.2477E-02   3.3267E-02   4.8659E-04  0.0509
   3.3267E-02   3.4076E-02   4.6704E-04  0.0514
   3.4076E-02   3.4905E-02   4.5790E-04  0.0513
   3.4905E-02   3.5755E-02   4.2368E-04  0.0526
   3.5755E-02   3.6625E-02   4.9636E-04  0.0481
   3.6625E-02   3.7516E-02   4.1838E-04  0.0517
   3.7516E-02   3.8428E-02   4.0978E-04  0.0516
   3.8428E-02   3.9363E-02   4.3808E-04  0.0493
   3.9363E-02   4.0321E-02   4.1517E-04  0.0500
   4.0321E-02   4.1302E-02   4.2066E-04  0.0492
   4.1302E-02   4.2307E-02   4.1276E-04  0.0490
   4.2307E-02   4.3337E-02   3.6476E-04  0.0515
   4.3337E-02   4.4391E-02   3.9522E-04  0.0490
   4.4391E-02   4.5471E-02   3.8636E-04  0.0488
   4.5471E-02   4.6577E-02   3.6684E-04  0.0496
   4.6577E-02   4.7711E-02   3.6476E-04  0.0491
   4.7711E-02   4.8871E-02   3.5885E-04  0.0490
   4.8871E-02   5.0061E-02   3.4790E-04  0.0491
   5.0061E-02   5.1279E-02   3.6762E-04  0.0472
   5.1279E-02   5.2526E-02   3.4916E-04  0.0478
   5.2526E-02   5.3804E-02   3.6380E-04  0.0463
   5.3804E-02   5.5113E-02   3.2046E-04  0.0488
   5.5113E-02   5.6454E-02   3.2168E-04  0.0481
   5.6454E-02   5.7828E-02   3.3369E-04  0.0466
   5.7828E-02   5.9235E-02   3.1037E-04  0.0478
   5.9235E-02   6.0676E-02   2.9681E-04  0.0482
   6.0676E-02   6.2152E-02   3.0524E-04  0.0471
   6.2152E-02   6.3665E-02   3.2911E-04  0.0448
   6.3665E-02   6.5214E-02   2.9899E-04  0.0464
   6.5214E-02   6.6800E-02   2.6573E-04  0.0486
   6.6800E-02   6.8426E-02   2.7439E-04  0.0473
   6.8426E-02   7.0090E-02   2.5245E-04  0.0488
   7.0090E-02   7.1796E-02   2.9316E-04  0.0447
   7.1796E-02   7.3543E-02   2.6553E-04  0.0464
   7.3543E-02   7.5332E-02   2.5852E-04  0.0464
   7.5332E-02   7.7165E-02   2.5249E-04  0.0464
   7.7165E-02   7.9042E-02   2.4088E-04  0.0470
   7.9042E-02   8.0965E-02   2.4637E-04  0.0459
   8.0965E-02   8.2935E-02   2.2689E-04  0.0473
   8.2935E-02   8.4953E-02   2.4264E-04  0.0451
   8.4953E-02   8.7020E-02   2.3237E-04  0.0455
   8.7020E-02   8.9138E-02   2.3973E-04  0.0443
   8.9138E-02   9.1306E-02   2.2281E-04  0.0455
   9.1306E-02   9.3528E-02   2.3425E-04  0.0438
   9.3528E-02   9.5804E-02   2.2202E-04  0.0445
   9.5804E-02   9.8134E-02   2.1221E-04  0.0449
   9.8134E-02   1.0052E-01   2.1564E-04  0.0440
   1.0052E-01   1.0297E-01   2.1089E-04  0.0440
   1.0297E-01   1.0547E-01   1.8148E-04  0.0468
   1.0547E-01   1.0804E-01   2.0470E-04  0.0436
   1.0804E-01   1.1067E-01   1.9164E-04  0.0445
   1.1067E-01   1.1336E-01   1.7062E-04  0.0466
   1.1336E-01   1.1612E-01   1.8250E-04  0.0445
   1.1612E-01   1.1894E-01   1.5942E-04  0.0470
   1.1894E-01   1.2184E-01   1.7254E-04  0.0447
   1.2184E-01   1.2480E-01   1.7675E-04  0.0436
   1.2480E-01   1.2784E-01   1.7424E-04  0.0434
   1.2784E-01   1.3095E-01   1.6369E-04  0.0443
   1.3095E-01   1.3414E-01   1.5673E-04  0.0447
   1.3414E-01   1.3740E-01   1.5326E-04  0.0446
   1.3740E-01   1.4074E-01   1.4764E-04  0.0449
   1.4074E-01   1.4417E-01   1.4019E-04  0.0456
   1.4417E-01   1.4767E-01   1.4181E-04  0.0447
   1.4767E-01   1.5127E-01   1.3618E-04  0.0451
   1.5127E-01   1.5495E-01   1.3848E-04  0.0442
   1.5495E-01   1.5872E-01   1.2970E-04  0.0451
   1.5872E-01   1.6258E-01   1.3690E-04  0.0434
   1.6258E-01   1.6654E-01   1.1744E-04  0.0463
   1.6654E-01   1.7059E-01   1.2750E-04  0.0439
   1.7059E-01   1.7474E-01   1.2394E-04  0.0440
   1.7474E-01   1.7899E-01   1.1838E-04  0.0445
   1.7899E-01   1.8334E-01   1.1369E-04  0.0449
   1.8334E-01   1.8781E-01   1.1046E-04  0.0449
   1.8781E-01   1.9237E-01   1.1773E-04  0.0430
   1.9237E-01   1.9706E-01   1.0552E-04  0.0449
   1.9706E-01   2.0185E-01   1.0338E-04  0.0449
   2.0185E-01   2.0676E-01   1.1086E-04  0.0428
   2.0676E-01   2.1179E-01   1.0593E-04  0.0433
   2.1179E-01   2.1694E-01   9.7892E-05  0.0444
   2.1694E-01   2.2222E-01   1.1559E-04  0.0404
   2.2222E-01   2.2763E-01   1.2482E-04  0.0384
   2.2763E-01   2.3317E-01   1.1412E-04  0.0397
   2.3317E-01   2.3884E-01   1.2002E-04  0.0382
   2.3884E-01   2.4465E-01   1.2717E-04  0.0367
   2.4465E-01   2.5061E-01   1.1717E-04  0.0378
   2.5061E-01   2.5670E-01   1.2521E-04  0.0361
   2.5670E-01   2.6295E-01   1.2463E-04  0.0358
   2.6295E-01   2.6935E-01   1.2671E-04  0.0350
   2.6935E-01   2.7590E-01   1.3625E-04  0.0334
   2.7590E-01   2.8261E-01   1.3108E-04  0.0337
   2.8261E-01   2.8949E-01   1.3227E-04  0.0331
   2.8949E-01   2.9653E-01   1.3651E-04  0.0322
   2.9653E-01   3.0375E-01   1.4288E-04  0.0311
   3.0375E-01   3.1114E-01   1.3594E-04  0.0315
   3.1114E-01   3.1871E-01   1.4872E-04  0.0297
   3.1871E-01   3.2646E-01   1.4755E-04  0.0295
   3.2646E-01   3.3441E-01   1.5807E-04  0.0282
   3.3441E-01   3.4254E-01   1.4683E-04  0.0289
   3.4254E-01   3.5088E-01   1.4753E-04  0.0285
   3.5088E-01   3.5941E-01   1.4932E-04  0.0279
   3.5941E-01   3.6816E-01   1.5576E-04  0.0270
   3.6816E-01   3.7712E-01   1.5781E-04  0.0265
   3.7712E-01   3.8629E-01   1.4991E-04  0.0269
   3.8629E-01   3.9569E-01   1.5783E-04  0.0259
   3.9569E-01   4.0532E-01   1.5451E-04  0.0259
   4.0532E-01   4.1518E-01   1.5760E-04  0.0253
   4.1518E-01   4.2528E-01   1.6324E-04  0.0246
   4.2528E-01   4.3563E-01   1.6193E-04  0.0244
   4.3563E-01   4.4623E-01   1.5703E-04  0.0244
   4.4623E-01   4.5708E-01   1.5931E-04  0.0240
   4.5708E-01   4.6821E-01   1.6517E-04  0.0233
   4.6821E-01   4.7960E-01   1.6502E-04  0.0230
   4.7960E-01   4.9127E-01   1.6237E-04  0.0229
   4.9127E-01   5.0322E-01   1.6654E-04  0.0224
   5.0322E-01   5.1546E-01   1.6350E-04  0.0223
   5.1546E-01   5.2800E-01   1.6769E-04  0.0217
   5.2800E-01   5.4085E-01   1.5982E-04  0.0220
   5.4085E-01   5.5401E-01   1.6242E-04  0.0216
   5.5401E-01   5.6749E-01   1.6344E-04  0.0213
   5.6749E-01   5.8130E-01   1.6370E-04  0.0210
   5.8130E-01   5.9544E-01   1.6514E-04  0.0206
   5.9544E-01   6.0993E-01   1.6593E-04  0.0203
   6.0993E-01   6.2477E-01   1.5938E-04  0.0205
   6.2477E-01   6.3997E-01   1.6604E-04  0.0199
   6.3997E-01   6.5554E-01   1.7080E-04  0.0193
   6.5554E-01   6.7149E-01   1.5846E-04  0.0198
   6.7149E-01   6.8783E-01   1.6447E-04  0.0192
   6.8783E-01   7.0456E-01   1.6650E-04  0.0189
   7.0456E-01   7.2171E-01   1.6397E-04  0.0188
   7.2171E-01   7.3927E-01   1.5950E-04  0.0188
   7.3927E-01   7.5725E-01   1.6165E-04  0.0185
   7.5725E-01   7.7568E-01   1.6092E-04  0.0183
   7.7568E-01   7.9455E-01   1.5898E-04  0.0182
   7.9455E-01   8.1388E-01   1.5530E-04  0.0182
   8.1388E-01   8.3368E-01   1.5352E-04  0.0181
   8.3368E-01   8.5397E-01   1.5389E-04  0.0178
   8.5397E-01   8.7475E-01   1.4941E-04  0.0179
   8.7475E-01   8.9603E-01   1.4693E-04  0.0178
   8.9603E-01   9.1783E-01   1.4457E-04  0.0177
   9.1783E-01   9.4016E-01   1.3813E-04  0.0179
   9.4016E-01   9.6304E-01   1.3787E-04  0.0177
   9.6304E-01   9.8647E-01   1.3190E-04  0.0179
   9.8647E-01   1.0105E+00   1.2514E-04  0.0182
   1.0105E+00   1.0351E+00   1.2602E-04  0.0179
   1.0351E+00   1.0602E+00   1.2209E-04  0.0180
   1.0602E+00   1.0860E+00   1.2073E-04  0.0179
   1.0860E+00   1.1125E+00   1.1587E-04  0.0180
   1.1125E+00   1.1395E+00   1.1682E-04  0.0177
   1.1395E+00   1.1673E+00   1.1517E-04  0.0176
   1.1673E+00   1.1957E+00   1.1065E-04  0.0178
   1.1957E+00   1.2247E+00   1.1092E-04  0.0175
   1.2247E+00   1.2545E+00   1.0702E-04  0.0176
   1.2545E+00   1.2851E+00   1.0296E-04  0.0178
   1.2851E+00   1.3163E+00   9.9024E-05  0.0179
   1.3163E+00   1.3484E+00   9.7596E-05  0.0178
   1.3484E+00   1.3812E+00   9.1936E-05  0.0181
   1.3812E+00   1.4148E+00   9.2639E-05  0.0178
   1.4148E+00   1.4492E+00   9.1977E-05  0.0177
   1.4492E+00   1.4845E+00   8.8113E-05  0.0179
   1.4845E+00   1.5206E+00   8.2281E-05  0.0183
   1.5206E+00   1.5576E+00   8.2144E-05  0.0181
   1.5576E+00   1.5955E+00   8.2459E-05  0.0178
   1.5955E+00   1.6343E+00   7.8087E-05  0.0181
   1.6343E+00   1.6741E+00   7.6683E-05  0.0180
   1.6741E+00   1.7148E+00   7.2780E-05  0.0183
   1.7148E+00   1.7565E+00   7.2530E-05  0.0181
   1.7565E+00   1.7992E+00   7.0958E-05  0.0181
   1.7992E+00   1.8430E+00   6.9553E-05  0.0180
   1.8430E+00   1.8879E+00   6.6590E-05  0.0182
   1.8879E+00   1.9338E+00   6.6507E-05  0.0180
   1.9338E+00   1.9808E+00   6.5655E-05  0.0179
   1.9808E+00   2.0290E+00   6.2711E-05  0.0181
   2.0290E+00   2.0784E+00   6.2549E-05  0.0179
   2.0784E+00   2.1290E+00   5.7698E-05  0.0184
   2.1290E+00   2.1808E+00   5.6720E-05  0.0184
   2.1808E+00   2.2338E+00   5.4331E-05  0.0185
   2.2338E+00   2.2882E+00   5.4022E-05  0.0184
   2.2882E+00   2.3439E+00   5.4608E-05  0.0181
   2.3439E+00   2.4009E+00   5.1029E-05  0.0184
   2.4009E+00   2.4593E+00   5.1300E-05  0.0182
   2.4593E+00   2.5191E+00   4.9540E-05  0.0183
   2.5191E+00   2.5804E+00   4.7604E-05  0.0184
   2.5804E+00   2.6432E+00   4.8845E-05  0.0180
   2.6432E+00   2.7075E+00   4.6313E-05  0.0182
   2.7075E+00   2.7734E+00   4.5633E-05  0.0181
   2.7734E+00   2.8409E+00   4.4788E-05  0.0181
   2.8409E+00   2.9100E+00   4.1850E-05  0.0185
   2.9100E+00   2.9808E+00   4.0862E-05  0.0185
   2.9808E+00   3.0533E+00   4.0679E-05  0.0183
   3.0533E+00   3.1276E+00   3.7915E-05  0.0187
   3.1276E+00   3.2037E+00   3.6744E-05  0.0188
   3.2037E+00   3.2817E+00   3.4775E-05  0.0191
   3.2817E+00   3.3615E+00   3.3772E-05  0.0192
   3.3615E+00   3.4433E+00   3.4324E-05  0.0188
   3.4433E+00   3.5271E+00   3.2998E-05  0.0189
   3.5271E+00   3.6129E+00   3.1362E-05  0.0192
   3.6129E+00   3.7008E+00   3.0790E-05  0.0191
   3.7008E+00   3.7908E+00   3.0433E-05  0.0190
   3.7908E+00   3.8831E+00   2.9271E-05  0.0192
   3.8831E+00   3.9776E+00   2.8197E-05  0.0193
   3.9776E+00   4.0743E+00   2.7570E-05  0.0193
   4.0743E+00   4.1735E+00   2.6393E-05  0.0194
   4.1735E+00   4.2750E+00   2.5819E-05  0.0194
   4.2750E+00   4.3790E+00   2.4711E-05  0.0196
   4.3790E+00   4.4856E+00   2.4032E-05  0.0197
   4.4856E+00   4.5947E+00   2.2603E-05  0.0201
   4.5947E+00   4.7065E+00   2.2561E-05  0.0198
   4.7065E+00   4.8210E+00   2.0939E-05  0.0203
   4.8210E+00   4.9383E+00   2.0293E-05  0.0204
   4.9383E+00   5.0585E+00   1.9474E-05  0.0206
   5.0585E+00   5.1815E+00   1.8003E-05  0.0212
   5.1815E+00   5.3076E+00   1.7295E-05  0.0213
   5.3076E+00   5.4368E+00   1.6742E-05  0.0214
   5.4368E+00   5.5690E+00   1.5899E-05  0.0217
   5.5690E+00   5.7045E+00   1.5646E-05  0.0216
   5.7045E+00   5.8433E+00   1.4766E-05  0.0220
   5.8433E+00   5.9855E+00   1.3585E-05  0.0227
   5.9855E+00   6.1311E+00   1.2331E-05  0.0235
   6.1311E+00   6.2803E+00   1.2274E-05  0.0233
   6.2803E+00   6.4331E+00   1.1336E-05  0.0240
   6.4331E+00   6.5896E+00   1.1260E-05  0.0238
   6.5896E+00   6.7500E+00   1.0536E-05  0.0243
   6.7500E+00   6.9142E+00   9.8428E-06  0.0248
   6.9142E+00   7.0824E+00   9.4723E-06  0.0250
   7.0824E+00   7.2548E+00   9.0709E-06  0.0252
   7.2548E+00   7.4313E+00   8.0166E-06  0.0265
   7.4313E+00   7.6121E+00   7.5016E-06  0.0271
   7.6121E+00   7.7973E+00   7.2194E-06  0.0273
   7.7973E+00   7.9870E+00   6.8430E-06  0.0277
   7.9870E+00   8.1813E+00   6.0933E-06  0.0290
   8.1813E+00   8.3804E+00   6.1088E-06  0.0286
   8.3804E+00   8.5843E+00   5.6968E-06  0.0293
   8.5843E+00   8.7931E+00   5.5642E-06  0.0293
   8.7931E+00   9.0071E+00   5.3020E-06  0.0296
   9.0071E+00   9.2262E+00   5.0492E-06  0.0300
   9.2262E+00   9.4507E+00   4.5093E-06  0.0314
   9.4507E+00   9.6807E+00   4.3051E-06  0.0317
   9.6807E+00   9.9162E+00   4.2630E-06  0.0315
   9.9162E+00   1.0157E+01   3.7846E-06  0.0330
   1.0157E+01   1.0405E+01   3.8580E-06  0.0323
   1.0405E+01   1.0658E+01   3.9210E-06  0.0317
   1.0658E+01   1.0917E+01   3.8767E-06  0.0315
   1.0917E+01   1.1183E+01   3.9234E-06  0.0309
   1.1183E+01   1.1455E+01   3.5737E-06  0.0320
   1.1455E+01   1.1733E+01   3.5616E-06  0.0317
   1.1733E+01   1.2019E+01   3.1902E-06  0.0331
   1.2019E+01   1.2311E+01   3.0151E-06  0.0336
   1.2311E+01   1.2611E+01   2.7277E-06  0.0349
   1.2611E+01   1.2918E+01   2.4644E-06  0.0363
   1.2918E+01   1.3232E+01   2.6298E-06  0.0348
   1.3232E+01   1.3554E+01   2.3285E-06  0.0365
   1.3554E+01   1.3884E+01   2.2135E-06  0.0370
   1.3884E+01   1.4222E+01   1.9643E-06  0.0388
   1.4222E+01   1.4568E+01   1.9777E-06  0.0382
   1.4568E+01   1.4922E+01   1.7869E-06  0.0397
   1.4922E+01   1.5285E+01   1.6686E-06  0.0406
   1.5285E+01   1.5657E+01   1.4420E-06  0.0432
   1.5657E+01   1.6038E+01   1.3665E-06  0.0438
   1.6038E+01   1.6428E+01   1.3044E-06  0.0443
   1.6428E+01   1.6828E+01   1.1600E-06  0.0464
   1.6828E+01   1.7237E+01   1.0384E-06  0.0485
   1.7237E+01   1.7657E+01   1.0316E-06  0.0481
   1.7657E+01   1.8086E+01   9.1756E-07  0.0504
   1.8086E+01   1.8526E+01   8.4080E-07  0.0520
   1.8526E+01   1.8977E+01   7.4762E-07  0.0545
   1.8977E+01   1.9439E+01   7.1470E-07  0.0550
   1.9439E+01   1.9912E+01   6.7024E-07  0.0562
   1.9912E+01   2.0396E+01   5.8621E-07  0.0593
   2.0396E+01   2.0893E+01   5.5012E-07  0.0605
   2.0893E+01   2.1401E+01   5.0557E-07  0.0624
   2.1401E+01   2.1922E+01   4.5515E-07  0.0650
   2.1922E+01   2.2455E+01   3.7497E-07  0.0707
   2.2455E+01   2.3001E+01   3.5508E-07  0.0718
   2.3001E+01   2.3561E+01   2.8232E-07  0.0796
   2.3561E+01   2.4134E+01   2.4945E-07  0.0836
   2.4134E+01   2.4721E+01   2.2820E-07  0.0864
   2.4721E+01   2.5323E+01   1.7955E-07  0.0962
   2.5323E+01   2.5939E+01   1.3958E-07  0.1078
   2.5939E+01   2.6570E+01   1.3627E-07  0.1078
   2.6570E+01   2.7217E+01   8.5077E-08  0.1348
   2.7217E+01   2.7879E+01   7.3995E-08  0.1429
   2.7879E+01   2.8557E+01   6.9289E-08  0.1459
   2.8557E+01   2.9252E+01   4.4616E-08  0.1796
   2.9252E+01   2.9964E+01   4.2151E-08  0.1826
   2.9964E+01   3.0693E+01   3.1548E-08  0.2085
   3.0693E+01   3.1440E+01   2.2764E-08  0.2425
   3.1440E+01   3.2205E+01   1.0458E-08  0.3536
   3.2205E+01   3.2988E+01   6.3811E-09  0.4472
   3.2988E+01   3.3791E+01   4.9836E-09  0.5000
   3.3791E+01   3.4613E+01   1.2163E-09  1.0000
   3.4613E+01   3.5455E+01   2.3749E-09  0.7071
   3.5455E+01   3.6318E+01   3.4777E-09  0.5774
   3.6318E+01   3.7201E+01   1.1317E-09  1.0000
   3.7201E+01   3.8106E+01   0.0000E+00  0.0000
   3.8106E+01   3.9034E+01   0.0000E+00  0.0000
   3.9034E+01   3.9983E+01   0.0000E+00  0.0000
   3.9983E+01   4.0956E+01   0.0000E+00  0.0000
   4.0956E+01   4.1953E+01   0.0000E+00  0.0000
   4.1953E+01   4.2973E+01   0.0000E+00  0.0000
   4.2973E+01   4.4019E+01   0.0000E+00  0.0000
   4.4019E+01   4.5090E+01   0.0000E+00  0.0000
   4.5090E+01   4.6187E+01   0.0000E+00  0.0000
   4.6187E+01   4.7311E+01   0.0000E+00  0.0000
   4.7311E+01   4.8462E+01   8.6873E-10  1.0000
   4.8462E+01   4.9641E+01   0.0000E+00  0.0000
   4.9641E+01   5.0849E+01   0.0000E+00  0.0000
   5.0849E+01   5.2086E+01   0.0000E+00  0.0000
   5.2086E+01   5.3353E+01   0.0000E+00  0.0000
   5.3353E+01   5.4651E+01   0.0000E+00  0.0000
   5.4651E+01   5.5981E+01   0.0000E+00  0.0000
   5.5981E+01   5.7343E+01   0.0000E+00  0.0000
   5.7343E+01   5.8738E+01   0.0000E+00  0.0000
   5.8738E+01   6.0168E+01   0.0000E+00  0.0000
   6.0168E+01   6.1632E+01   0.0000E+00  0.0000
   6.1632E+01   6.3131E+01   0.0000E+00  0.0000
   6.3131E+01   6.4667E+01   0.0000E+00  0.0000
   6.4667E+01   6.6240E+01   0.0000E+00  0.0000
   6.6240E+01   6.7852E+01   0.0000E+00  0.0000
   6.7852E+01   6.9503E+01   0.0000E+00  0.0000
   6.9503E+01   7.1194E+01   0.0000E+00  0.0000
   7.1194E+01   7.2926E+01   0.0000E+00  0.0000
   7.2926E+01   7.4701E+01   0.0000E+00  0.0000
   7.4701E+01   7.6518E+01   0.0000E+00  0.0000
   7.6518E+01   7.8380E+01   0.0000E+00  0.0000
   7.8380E+01   8.0287E+01   0.0000E+00  0.0000
   8.0287E+01   8.2240E+01   0.0000E+00  0.0000
   8.2240E+01   8.4241E+01   0.0000E+00  0.0000
   8.4241E+01   8.6291E+01   0.0000E+00  0.0000
   8.6291E+01   8.8391E+01   0.0000E+00  0.0000
   8.8391E+01   9.0541E+01   0.0000E+00  0.0000
   9.0541E+01   9.2744E+01   0.0000E+00  0.0000
   9.2744E+01   9.5001E+01   0.0000E+00  0.0000
   9.5001E+01   9.7312E+01   0.0000E+00  0.0000
   9.7312E+01   9.9680E+01   0.0000E+00  0.0000
   9.9680E+01   1.0211E+02   0.0000E+00  0.0000
   1.0211E+02   1.0459E+02   0.0000E+00  0.0000
   1.0459E+02   1.0713E+02   0.0000E+00  0.0000
   1.0713E+02   1.0974E+02   0.0000E+00  0.0000
   1.0974E+02   1.1241E+02   0.0000E+00  0.0000
   1.1241E+02   1.1515E+02   0.0000E+00  0.0000
   1.1515E+02   1.1795E+02   0.0000E+00  0.0000
   1.1795E+02   1.2082E+02   0.0000E+00  0.0000
   1.2082E+02   1.2376E+02   0.0000E+00  0.0000
   1.2376E+02   1.2677E+02   0.0000E+00  0.0000
   1.2677E+02   1.2985E+02   0.0000E+00  0.0000
   1.2985E+02   1.3301E+02   0.0000E+00  0.0000
   1.3301E+02   1.3625E+02   0.0000E+00  0.0000
   1.3625E+02   1.3956E+02   0.0000E+00  0.0000
   1.3956E+02   1.4296E+02   0.0000E+00  0.0000
   1.4296E+02   1.4644E+02   0.0000E+00  0.0000
   1.4644E+02   1.5000E+02   0.0000E+00  0.0000

#   sum over                 2.8902E-06
'no. =    1   reg = 121 - 221'
msuc: {\huge [t-cross] in region mesh}
msdr: {\it plotted by \ANGEL \version}
msdl: {\it calculated by \PHITS  3.26}
wt: s(0.7)
\vspace{-3}
  region surface crossing
  area  &=&   1.0000E+00 [cm^2]
e:
 
# Information for Restart Calculation
# This calculation was newly started
# istdev =  2 # 1:Batch variance, 2:History variance
# resc2  = 1.00000000000000000E+09 # Total source weight or Total source weight / maxcas
# resc3  = 1.00000000000000000E+09 # Total history number or Total batch number
# maxcas =   500000000 # History / Batch, only used for istdev=1
# bitrseed = 0001001110011001001001110000100100110111001111011100001000101100 # bit data of rseed
