[ T-Cross ]
    title = [t-cross] in region mesh
     mesh =  reg            # mesh type is region-wise
      reg =    1            # number of crossing regions
      non     r-from    r-to       area
      1       120       220        1.000000    
   e-type =    3            # e-mesh is log given by emin, emax and ne
     emin =  1.0000000E-02  # minimum value of e-mesh points
     emax =   150.0000      # maximum value of e-mesh points
#    edel =  2.4039514E-02  # mesh width of e-mesh points
       ne =    400          # number of e-mesh points
#    data = ( e(i), i = 1, ne + 1 )
#           1.00000E-02  1.02433E-02  1.04925E-02  1.07478E-02  1.10093E-02
#           1.12772E-02  1.15516E-02  1.18326E-02  1.21205E-02  1.24154E-02
#           1.27175E-02  1.30269E-02  1.33439E-02  1.36686E-02  1.40011E-02
#           1.43418E-02  1.46907E-02  1.50482E-02  1.54143E-02  1.57894E-02
#           1.61735E-02  1.65670E-02  1.69701E-02  1.73830E-02  1.78060E-02
#           1.82392E-02  1.86830E-02  1.91375E-02  1.96032E-02  2.00801E-02
#           2.05687E-02  2.10692E-02  2.15818E-02  2.21069E-02  2.26448E-02
#           2.31957E-02  2.37601E-02  2.43382E-02  2.49304E-02  2.55369E-02
#           2.61583E-02  2.67947E-02  2.74467E-02  2.81145E-02  2.87985E-02
#           2.94992E-02  3.02169E-02  3.09521E-02  3.17052E-02  3.24766E-02
#           3.32668E-02  3.40762E-02  3.49053E-02  3.57546E-02  3.66246E-02
#           3.75157E-02  3.84284E-02  3.93634E-02  4.03212E-02  4.13022E-02
#           4.23071E-02  4.33365E-02  4.43909E-02  4.54710E-02  4.65773E-02
#           4.77106E-02  4.88714E-02  5.00605E-02  5.12785E-02  5.25262E-02
#           5.38042E-02  5.51133E-02  5.64542E-02  5.78278E-02  5.92348E-02
#           6.06760E-02  6.21523E-02  6.36645E-02  6.52135E-02  6.68002E-02
#           6.84255E-02  7.00904E-02  7.17957E-02  7.35426E-02  7.53319E-02
#           7.71648E-02  7.90423E-02  8.09655E-02  8.29354E-02  8.49533E-02
#           8.70203E-02  8.91376E-02  9.13064E-02  9.35279E-02  9.58035E-02
#           9.81345E-02  1.00522E-01  1.02968E-01  1.05473E-01  1.08040E-01
#           1.10668E-01  1.13361E-01  1.16119E-01  1.18944E-01  1.21838E-01
#           1.24803E-01  1.27839E-01  1.30950E-01  1.34136E-01  1.37399E-01
#           1.40742E-01  1.44167E-01  1.47675E-01  1.51268E-01  1.54948E-01
#           1.58718E-01  1.62580E-01  1.66535E-01  1.70587E-01  1.74738E-01
#           1.78989E-01  1.83344E-01  1.87805E-01  1.92375E-01  1.97055E-01
#           2.01850E-01  2.06761E-01  2.11792E-01  2.16945E-01  2.22223E-01
#           2.27630E-01  2.33169E-01  2.38842E-01  2.44653E-01  2.50605E-01
#           2.56703E-01  2.62949E-01  2.69346E-01  2.75900E-01  2.82613E-01
#           2.89489E-01  2.96532E-01  3.03747E-01  3.11138E-01  3.18708E-01
#           3.26462E-01  3.34405E-01  3.42542E-01  3.50876E-01  3.59413E-01
#           3.68158E-01  3.77116E-01  3.86291E-01  3.95690E-01  4.05317E-01
#           4.15179E-01  4.25281E-01  4.35628E-01  4.46227E-01  4.57084E-01
#           4.68205E-01  4.79597E-01  4.91266E-01  5.03219E-01  5.15463E-01
#           5.28005E-01  5.40851E-01  5.54011E-01  5.67490E-01  5.81298E-01
#           5.95441E-01  6.09929E-01  6.24769E-01  6.39970E-01  6.55541E-01
#           6.71491E-01  6.87828E-01  7.04564E-01  7.21706E-01  7.39266E-01
#           7.57253E-01  7.75678E-01  7.94551E-01  8.13883E-01  8.33685E-01
#           8.53969E-01  8.74747E-01  8.96030E-01  9.17831E-01  9.40163E-01
#           9.63038E-01  9.86469E-01  1.01047E+00  1.03506E+00  1.06024E+00
#           1.08604E+00  1.11246E+00  1.13953E+00  1.16725E+00  1.19565E+00
#           1.22474E+00  1.25454E+00  1.28507E+00  1.31633E+00  1.34836E+00
#           1.38117E+00  1.41477E+00  1.44920E+00  1.48446E+00  1.52057E+00
#           1.55757E+00  1.59547E+00  1.63429E+00  1.67405E+00  1.71478E+00
#           1.75650E+00  1.79924E+00  1.84302E+00  1.88786E+00  1.93379E+00
#           1.98084E+00  2.02904E+00  2.07841E+00  2.12898E+00  2.18078E+00
#           2.23384E+00  2.28819E+00  2.34386E+00  2.40089E+00  2.45930E+00
#           2.51914E+00  2.58043E+00  2.64322E+00  2.70753E+00  2.77341E+00
#           2.84088E+00  2.91001E+00  2.98081E+00  3.05333E+00  3.12762E+00
#           3.20372E+00  3.28167E+00  3.36152E+00  3.44330E+00  3.52708E+00
#           3.61290E+00  3.70080E+00  3.79085E+00  3.88308E+00  3.97756E+00
#           4.07434E+00  4.17347E+00  4.27501E+00  4.37903E+00  4.48557E+00
#           4.59471E+00  4.70650E+00  4.82102E+00  4.93832E+00  5.05847E+00
#           5.18155E+00  5.30762E+00  5.43676E+00  5.56904E+00  5.70453E+00
#           5.84333E+00  5.98550E+00  6.13114E+00  6.28031E+00  6.43312E+00
#           6.58964E+00  6.74997E+00  6.91420E+00  7.08243E+00  7.25475E+00
#           7.43126E+00  7.61207E+00  7.79728E+00  7.98700E+00  8.18133E+00
#           8.38038E+00  8.58428E+00  8.79315E+00  9.00709E+00  9.22624E+00
#           9.45072E+00  9.68067E+00  9.91620E+00  1.01575E+01  1.04046E+01
#           1.06578E+01  1.09171E+01  1.11827E+01  1.14548E+01  1.17335E+01
#           1.20190E+01  1.23114E+01  1.26109E+01  1.29178E+01  1.32321E+01
#           1.35540E+01  1.38838E+01  1.42216E+01  1.45676E+01  1.49221E+01
#           1.52851E+01  1.56570E+01  1.60380E+01  1.64282E+01  1.68279E+01
#           1.72374E+01  1.76568E+01  1.80864E+01  1.85264E+01  1.89772E+01
#           1.94389E+01  1.99119E+01  2.03963E+01  2.08926E+01  2.14009E+01
#           2.19216E+01  2.24550E+01  2.30014E+01  2.35610E+01  2.41343E+01
#           2.47215E+01  2.53230E+01  2.59391E+01  2.65702E+01  2.72167E+01
#           2.78789E+01  2.85572E+01  2.92520E+01  2.99637E+01  3.06928E+01
#           3.14396E+01  3.22045E+01  3.29881E+01  3.37907E+01  3.46128E+01
#           3.54550E+01  3.63177E+01  3.72013E+01  3.81064E+01  3.90336E+01
#           3.99833E+01  4.09561E+01  4.19526E+01  4.29734E+01  4.40189E+01
#           4.50900E+01  4.61870E+01  4.73108E+01  4.84619E+01  4.96410E+01
#           5.08488E+01  5.20860E+01  5.33533E+01  5.46514E+01  5.59812E+01
#           5.73432E+01  5.87384E+01  6.01676E+01  6.16315E+01  6.31311E+01
#           6.46671E+01  6.62405E+01  6.78522E+01  6.95031E+01  7.11941E+01
#           7.29263E+01  7.47007E+01  7.65182E+01  7.83800E+01  8.02870E+01
#           8.22405E+01  8.42414E+01  8.62911E+01  8.83906E+01  9.05412E+01
#           9.27442E+01  9.50007E+01  9.73122E+01  9.96799E+01  1.02105E+02
#           1.04589E+02  1.07134E+02  1.09741E+02  1.12411E+02  1.15146E+02
#           1.17948E+02  1.20817E+02  1.23757E+02  1.26768E+02  1.29852E+02
#           1.33012E+02  1.36248E+02  1.39563E+02  1.42959E+02  1.46437E+02
#           1.50000E+02
     unit =    2            # unit is [1/cm^2/(MeV/n)/source]
     axis =  eng            # axis of output
     file = detector-21.out  # file name of output for the above axis
   output = f-curr          # surface crossing forward current spectrum
     part =  neutron  
# kf/name :  2112     
#    used :        main (  %)        temp (  %)       total (  %)
#  memory :         414 (  0)           0 (  0)         414 (  0)

#------------------------------------------------------------------------------
#newpage:
#   no. =    1   reg = 120 - 220

x: Energy [MeV/n]
y:  F-Curr [1/cm^2/(MeV/n)/source]         
p: xlog ylog afac(0.8) form(0.9)
h: n            x            y(neutron ),hh0l   n 
#  e-lower      e-upper      neutron     r.err 
   1.0000E-02   1.0243E-02   6.6282E-02  0.0079
   1.0243E-02   1.0493E-02   6.6365E-02  0.0078
   1.0493E-02   1.0748E-02   6.4973E-02  0.0078
   1.0748E-02   1.1009E-02   6.3862E-02  0.0077
   1.1009E-02   1.1277E-02   6.3920E-02  0.0076
   1.1277E-02   1.1552E-02   6.1795E-02  0.0077
   1.1552E-02   1.1833E-02   6.2111E-02  0.0076
   1.1833E-02   1.2121E-02   5.9823E-02  0.0076
   1.2121E-02   1.2415E-02   5.9988E-02  0.0075
   1.2415E-02   1.2718E-02   5.8876E-02  0.0075
   1.2718E-02   1.3027E-02   5.8631E-02  0.0074
   1.3027E-02   1.3344E-02   5.8111E-02  0.0074
   1.3344E-02   1.3669E-02   5.5671E-02  0.0074
   1.3669E-02   1.4001E-02   5.5987E-02  0.0073
   1.4001E-02   1.4342E-02   5.3954E-02  0.0074
   1.4342E-02   1.4691E-02   5.3469E-02  0.0073
   1.4691E-02   1.5048E-02   5.3815E-02  0.0072
   1.5048E-02   1.5414E-02   5.1967E-02  0.0073
   1.5414E-02   1.5789E-02   5.1256E-02  0.0072
   1.5789E-02   1.6174E-02   5.0395E-02  0.0072
   1.6174E-02   1.6567E-02   5.0542E-02  0.0071
   1.6567E-02   1.6970E-02   4.9270E-02  0.0071
   1.6970E-02   1.7383E-02   4.8541E-02  0.0071
   1.7383E-02   1.7806E-02   4.8277E-02  0.0070
   1.7806E-02   1.8239E-02   4.6866E-02  0.0070
   1.8239E-02   1.8683E-02   4.6746E-02  0.0069
   1.8683E-02   1.9138E-02   4.5981E-02  0.0069
   1.9138E-02   1.9603E-02   4.5074E-02  0.0069
   1.9603E-02   2.0080E-02   4.5312E-02  0.0068
   2.0080E-02   2.0569E-02   4.3858E-02  0.0068
   2.0569E-02   2.1069E-02   4.3521E-02  0.0068
   2.1069E-02   2.1582E-02   4.2345E-02  0.0068
   2.1582E-02   2.2107E-02   4.1674E-02  0.0068
   2.2107E-02   2.2645E-02   4.1309E-02  0.0067
   2.2645E-02   2.3196E-02   4.1190E-02  0.0066
   2.3196E-02   2.3760E-02   4.0388E-02  0.0066
   2.3760E-02   2.4338E-02   3.9522E-02  0.0066
   2.4338E-02   2.4930E-02   3.9145E-02  0.0066
   2.4930E-02   2.5537E-02   3.8515E-02  0.0065
   2.5537E-02   2.6158E-02   3.7959E-02  0.0065
   2.6158E-02   2.6795E-02   3.7557E-02  0.0065
   2.6795E-02   2.7447E-02   3.7032E-02  0.0064
   2.7447E-02   2.8114E-02   3.6729E-02  0.0064
   2.8114E-02   2.8799E-02   3.5973E-02  0.0064
   2.8799E-02   2.9499E-02   3.5633E-02  0.0063
   2.9499E-02   3.0217E-02   3.5043E-02  0.0063
   3.0217E-02   3.0952E-02   3.4317E-02  0.0063
   3.0952E-02   3.1705E-02   3.3706E-02  0.0063
   3.1705E-02   3.2477E-02   3.2975E-02  0.0063
   3.2477E-02   3.3267E-02   3.2969E-02  0.0062
   3.3267E-02   3.4076E-02   3.2424E-02  0.0062
   3.4076E-02   3.4905E-02   3.1995E-02  0.0061
   3.4905E-02   3.5755E-02   3.1476E-02  0.0061
   3.5755E-02   3.6625E-02   3.1340E-02  0.0061
   3.6625E-02   3.7516E-02   3.0248E-02  0.0061
   3.7516E-02   3.8428E-02   2.9663E-02  0.0061
   3.8428E-02   3.9363E-02   2.9576E-02  0.0060
   3.9363E-02   4.0321E-02   2.9269E-02  0.0060
   4.0321E-02   4.1302E-02   2.8850E-02  0.0059
   4.1302E-02   4.2307E-02   2.8287E-02  0.0059
   4.2307E-02   4.3337E-02   2.7838E-02  0.0059
   4.3337E-02   4.4391E-02   2.7356E-02  0.0059
   4.4391E-02   4.5471E-02   2.7138E-02  0.0058
   4.5471E-02   4.6577E-02   2.6581E-02  0.0058
   4.6577E-02   4.7711E-02   2.6155E-02  0.0058
   4.7711E-02   4.8871E-02   2.5750E-02  0.0058
   4.8871E-02   5.0061E-02   2.5389E-02  0.0058
   5.0061E-02   5.1279E-02   2.5275E-02  0.0057
   5.1279E-02   5.2526E-02   2.4824E-02  0.0057
   5.2526E-02   5.3804E-02   2.4437E-02  0.0057
   5.3804E-02   5.5113E-02   2.4106E-02  0.0056
   5.5113E-02   5.6454E-02   2.3620E-02  0.0056
   5.6454E-02   5.7828E-02   2.3260E-02  0.0056
   5.7828E-02   5.9235E-02   2.3036E-02  0.0056
   5.9235E-02   6.0676E-02   2.2666E-02  0.0055
   6.0676E-02   6.2152E-02   2.2539E-02  0.0055
   6.2152E-02   6.3665E-02   2.2035E-02  0.0055
   6.3665E-02   6.5214E-02   2.1663E-02  0.0055
   6.5214E-02   6.6800E-02   2.1458E-02  0.0054
   6.6800E-02   6.8426E-02   2.1050E-02  0.0054
   6.8426E-02   7.0090E-02   2.0701E-02  0.0054
   7.0090E-02   7.1796E-02   2.0486E-02  0.0054
   7.1796E-02   7.3543E-02   2.0257E-02  0.0053
   7.3543E-02   7.5332E-02   1.9839E-02  0.0053
   7.5332E-02   7.7165E-02   1.9451E-02  0.0053
   7.7165E-02   7.9042E-02   1.9311E-02  0.0053
   7.9042E-02   8.0965E-02   1.8927E-02  0.0052
   8.0965E-02   8.2935E-02   1.8599E-02  0.0052
   8.2935E-02   8.4953E-02   1.8428E-02  0.0052
   8.4953E-02   8.7020E-02   1.8094E-02  0.0052
   8.7020E-02   8.9138E-02   1.7935E-02  0.0051
   8.9138E-02   9.1306E-02   1.7524E-02  0.0051
   9.1306E-02   9.3528E-02   1.7365E-02  0.0051
   9.3528E-02   9.5804E-02   1.7136E-02  0.0051
   9.5804E-02   9.8134E-02   1.7056E-02  0.0050
   9.8134E-02   1.0052E-01   1.6786E-02  0.0050
   1.0052E-01   1.0297E-01   1.6360E-02  0.0050
   1.0297E-01   1.0547E-01   1.6283E-02  0.0050
   1.0547E-01   1.0804E-01   1.5846E-02  0.0050
   1.0804E-01   1.1067E-01   1.5640E-02  0.0049
   1.1067E-01   1.1336E-01   1.5361E-02  0.0049
   1.1336E-01   1.1612E-01   1.5292E-02  0.0049
   1.1612E-01   1.1894E-01   1.5032E-02  0.0049
   1.1894E-01   1.2184E-01   1.4756E-02  0.0048
   1.2184E-01   1.2480E-01   1.4444E-02  0.0048
   1.2480E-01   1.2784E-01   1.4250E-02  0.0048
   1.2784E-01   1.3095E-01   1.4119E-02  0.0048
   1.3095E-01   1.3414E-01   1.3939E-02  0.0047
   1.3414E-01   1.3740E-01   1.3662E-02  0.0047
   1.3740E-01   1.4074E-01   1.3443E-02  0.0047
   1.4074E-01   1.4417E-01   1.3374E-02  0.0047
   1.4417E-01   1.4767E-01   1.3224E-02  0.0046
   1.4767E-01   1.5127E-01   1.2821E-02  0.0047
   1.5127E-01   1.5495E-01   1.2714E-02  0.0046
   1.5495E-01   1.5872E-01   1.2540E-02  0.0046
   1.5872E-01   1.6258E-01   1.2350E-02  0.0046
   1.6258E-01   1.6654E-01   1.2108E-02  0.0046
   1.6654E-01   1.7059E-01   1.1909E-02  0.0046
   1.7059E-01   1.7474E-01   1.1797E-02  0.0045
   1.7474E-01   1.7899E-01   1.1575E-02  0.0045
   1.7899E-01   1.8334E-01   1.1442E-02  0.0045
   1.8334E-01   1.8781E-01   1.1222E-02  0.0045
   1.8781E-01   1.9237E-01   1.1065E-02  0.0045
   1.9237E-01   1.9706E-01   1.0867E-02  0.0044
   1.9706E-01   2.0185E-01   1.0621E-02  0.0044
   2.0185E-01   2.0676E-01   1.0546E-02  0.0044
   2.0676E-01   2.1179E-01   1.0335E-02  0.0044
   2.1179E-01   2.1694E-01   1.0129E-02  0.0044
   2.1694E-01   2.2222E-01   1.0095E-02  0.0043
   2.2222E-01   2.2763E-01   9.8912E-03  0.0043
   2.2763E-01   2.3317E-01   9.6869E-03  0.0043
   2.3317E-01   2.3884E-01   9.5072E-03  0.0043
   2.3884E-01   2.4465E-01   9.4228E-03  0.0043
   2.4465E-01   2.5061E-01   9.1946E-03  0.0043
   2.5061E-01   2.5670E-01   9.0749E-03  0.0043
   2.5670E-01   2.6295E-01   8.9432E-03  0.0042
   2.6295E-01   2.6935E-01   8.7861E-03  0.0042
   2.6935E-01   2.7590E-01   8.6041E-03  0.0042
   2.7590E-01   2.8261E-01   8.4189E-03  0.0042
   2.8261E-01   2.8949E-01   8.3263E-03  0.0042
   2.8949E-01   2.9653E-01   8.1770E-03  0.0042
   2.9653E-01   3.0375E-01   8.0518E-03  0.0042
   3.0375E-01   3.1114E-01   7.8929E-03  0.0041
   3.1114E-01   3.1871E-01   7.7749E-03  0.0041
   3.1871E-01   3.2646E-01   7.5807E-03  0.0041
   3.2646E-01   3.3441E-01   7.5171E-03  0.0041
   3.3441E-01   3.4254E-01   7.3155E-03  0.0041
   3.4254E-01   3.5088E-01   7.1986E-03  0.0041
   3.5088E-01   3.5941E-01   7.0187E-03  0.0041
   3.5941E-01   3.6816E-01   6.9624E-03  0.0041
   3.6816E-01   3.7712E-01   6.7908E-03  0.0041
   3.7712E-01   3.8629E-01   6.7078E-03  0.0040
   3.8629E-01   3.9569E-01   6.5937E-03  0.0040
   3.9569E-01   4.0532E-01   6.4242E-03  0.0040
   4.0532E-01   4.1518E-01   6.3592E-03  0.0040
   4.1518E-01   4.2528E-01   6.1843E-03  0.0040
   4.2528E-01   4.3563E-01   6.0992E-03  0.0040
   4.3563E-01   4.4623E-01   5.9383E-03  0.0040
   4.4623E-01   4.5708E-01   5.8339E-03  0.0040
   4.5708E-01   4.6821E-01   5.6740E-03  0.0040
   4.6821E-01   4.7960E-01   5.5568E-03  0.0040
   4.7960E-01   4.9127E-01   5.4741E-03  0.0040
   4.9127E-01   5.0322E-01   5.3357E-03  0.0040
   5.0322E-01   5.1546E-01   5.2265E-03  0.0040
   5.1546E-01   5.2800E-01   5.1036E-03  0.0040
   5.2800E-01   5.4085E-01   5.0135E-03  0.0039
   5.4085E-01   5.5401E-01   4.8491E-03  0.0040
   5.5401E-01   5.6749E-01   4.7638E-03  0.0040
   5.6749E-01   5.8130E-01   4.6214E-03  0.0040
   5.8130E-01   5.9544E-01   4.5398E-03  0.0040
   5.9544E-01   6.0993E-01   4.4357E-03  0.0039
   6.0993E-01   6.2477E-01   4.3160E-03  0.0040
   6.2477E-01   6.3997E-01   4.2014E-03  0.0040
   6.3997E-01   6.5554E-01   4.1099E-03  0.0040
   6.5554E-01   6.7149E-01   4.0034E-03  0.0040
   6.7149E-01   6.8783E-01   3.8661E-03  0.0040
   6.8783E-01   7.0456E-01   3.7853E-03  0.0040
   7.0456E-01   7.2171E-01   3.6499E-03  0.0040
   7.2171E-01   7.3927E-01   3.5820E-03  0.0040
   7.3927E-01   7.5725E-01   3.4250E-03  0.0040
   7.5725E-01   7.7568E-01   3.3613E-03  0.0040
   7.7568E-01   7.9455E-01   3.2313E-03  0.0041
   7.9455E-01   8.1388E-01   3.1060E-03  0.0041
   8.1388E-01   8.3368E-01   3.0212E-03  0.0041
   8.3368E-01   8.5397E-01   2.9093E-03  0.0041
   8.5397E-01   8.7475E-01   2.8178E-03  0.0041
   8.7475E-01   8.9603E-01   2.7110E-03  0.0042
   8.9603E-01   9.1783E-01   2.5970E-03  0.0042
   9.1783E-01   9.4016E-01   2.4795E-03  0.0043
   9.4016E-01   9.6304E-01   2.3936E-03  0.0043
   9.6304E-01   9.8647E-01   2.2882E-03  0.0043
   9.8647E-01   1.0105E+00   2.1842E-03  0.0044
   1.0105E+00   1.0351E+00   2.1997E-03  0.0043
   1.0351E+00   1.0602E+00   2.2082E-03  0.0042
   1.0602E+00   1.0860E+00   2.2596E-03  0.0041
   1.0860E+00   1.1125E+00   2.2958E-03  0.0041
   1.1125E+00   1.1395E+00   2.3503E-03  0.0040
   1.1395E+00   1.1673E+00   2.3992E-03  0.0039
   1.1673E+00   1.1957E+00   2.4773E-03  0.0038
   1.1957E+00   1.2247E+00   2.5231E-03  0.0037
   1.2247E+00   1.2545E+00   2.5308E-03  0.0036
   1.2545E+00   1.2851E+00   2.5600E-03  0.0036
   1.2851E+00   1.3163E+00   2.5744E-03  0.0035
   1.3163E+00   1.3484E+00   2.6168E-03  0.0035
   1.3484E+00   1.3812E+00   2.6617E-03  0.0034
   1.3812E+00   1.4148E+00   2.7314E-03  0.0033
   1.4148E+00   1.4492E+00   2.7152E-03  0.0033
   1.4492E+00   1.4845E+00   2.7196E-03  0.0032
   1.4845E+00   1.5206E+00   2.7148E-03  0.0032
   1.5206E+00   1.5576E+00   2.6926E-03  0.0032
   1.5576E+00   1.5955E+00   2.7162E-03  0.0031
   1.5955E+00   1.6343E+00   2.7422E-03  0.0031
   1.6343E+00   1.6741E+00   2.7595E-03  0.0030
   1.6741E+00   1.7148E+00   2.8113E-03  0.0030
   1.7148E+00   1.7565E+00   2.7957E-03  0.0029
   1.7565E+00   1.7992E+00   2.7571E-03  0.0029
   1.7992E+00   1.8430E+00   2.7294E-03  0.0029
   1.8430E+00   1.8879E+00   2.7076E-03  0.0029
   1.8879E+00   1.9338E+00   2.6911E-03  0.0028
   1.9338E+00   1.9808E+00   2.6949E-03  0.0028
   1.9808E+00   2.0290E+00   2.7014E-03  0.0028
   2.0290E+00   2.0784E+00   2.6502E-03  0.0028
   2.0784E+00   2.1290E+00   2.5776E-03  0.0028
   2.1290E+00   2.1808E+00   2.5440E-03  0.0028
   2.1808E+00   2.2338E+00   2.5012E-03  0.0028
   2.2338E+00   2.2882E+00   2.4581E-03  0.0027
   2.2882E+00   2.3439E+00   2.4221E-03  0.0027
   2.3439E+00   2.4009E+00   2.4106E-03  0.0027
   2.4009E+00   2.4593E+00   2.3703E-03  0.0027
   2.4593E+00   2.5191E+00   2.2881E-03  0.0027
   2.5191E+00   2.5804E+00   2.2121E-03  0.0027
   2.5804E+00   2.6432E+00   2.1599E-03  0.0027
   2.6432E+00   2.7075E+00   2.0890E-03  0.0027
   2.7075E+00   2.7734E+00   2.0405E-03  0.0027
   2.7734E+00   2.8409E+00   1.9800E-03  0.0027
   2.8409E+00   2.9100E+00   1.9403E-03  0.0027
   2.9100E+00   2.9808E+00   1.8930E-03  0.0027
   2.9808E+00   3.0533E+00   1.8309E-03  0.0027
   3.0533E+00   3.1276E+00   1.7567E-03  0.0028
   3.1276E+00   3.2037E+00   1.6813E-03  0.0028
   3.2037E+00   3.2817E+00   1.6175E-03  0.0028
   3.2817E+00   3.3615E+00   1.5444E-03  0.0029
   3.3615E+00   3.4433E+00   1.4728E-03  0.0029
   3.4433E+00   3.5271E+00   1.4151E-03  0.0029
   3.5271E+00   3.6129E+00   1.3683E-03  0.0029
   3.6129E+00   3.7008E+00   1.3113E-03  0.0029
   3.7008E+00   3.7908E+00   1.2422E-03  0.0030
   3.7908E+00   3.8831E+00   1.1793E-03  0.0030
   3.8831E+00   3.9776E+00   1.1208E-03  0.0031
   3.9776E+00   4.0743E+00   1.0699E-03  0.0031
   4.0743E+00   4.1735E+00   1.0088E-03  0.0032
   4.1735E+00   4.2750E+00   9.5896E-04  0.0032
   4.2750E+00   4.3790E+00   9.0451E-04  0.0033
   4.3790E+00   4.4856E+00   8.4969E-04  0.0033
   4.4856E+00   4.5947E+00   7.9742E-04  0.0034
   4.5947E+00   4.7065E+00   7.4715E-04  0.0035
   4.7065E+00   4.8210E+00   6.9985E-04  0.0035
   4.8210E+00   4.9383E+00   6.6343E-04  0.0036
   4.9383E+00   5.0585E+00   6.1780E-04  0.0037
   5.0585E+00   5.1815E+00   5.7288E-04  0.0038
   5.1815E+00   5.3076E+00   5.3806E-04  0.0038
   5.3076E+00   5.4368E+00   5.0015E-04  0.0039
   5.4368E+00   5.5690E+00   4.6327E-04  0.0040
   5.5690E+00   5.7045E+00   4.2341E-04  0.0042
   5.7045E+00   5.8433E+00   3.9241E-04  0.0043
   5.8433E+00   5.9855E+00   3.6354E-04  0.0044
   5.9855E+00   6.1311E+00   3.3680E-04  0.0045
   6.1311E+00   6.2803E+00   3.1109E-04  0.0046
   6.2803E+00   6.4331E+00   2.8537E-04  0.0048
   6.4331E+00   6.5896E+00   2.6095E-04  0.0050
   6.5896E+00   6.7500E+00   2.4061E-04  0.0051
   6.7500E+00   6.9142E+00   2.1682E-04  0.0053
   6.9142E+00   7.0824E+00   1.9938E-04  0.0055
   7.0824E+00   7.2548E+00   1.8289E-04  0.0056
   7.2548E+00   7.4313E+00   1.6855E-04  0.0058
   7.4313E+00   7.6121E+00   1.5212E-04  0.0060
   7.6121E+00   7.7973E+00   1.3634E-04  0.0063
   7.7973E+00   7.9870E+00   1.2407E-04  0.0065
   7.9870E+00   8.1813E+00   1.1488E-04  0.0067
   8.1813E+00   8.3804E+00   1.0223E-04  0.0070
   8.3804E+00   8.5843E+00   9.2005E-05  0.0073
   8.5843E+00   8.7931E+00   8.4292E-05  0.0075
   8.7931E+00   9.0071E+00   7.4858E-05  0.0079
   9.0071E+00   9.2262E+00   6.9745E-05  0.0081
   9.2262E+00   9.4507E+00   6.2827E-05  0.0084
   9.4507E+00   9.6807E+00   5.6994E-05  0.0087
   9.6807E+00   9.9162E+00   5.0472E-05  0.0092
   9.9162E+00   1.0157E+01   4.6937E-05  0.0094
   1.0157E+01   1.0405E+01   4.1034E-05  0.0099
   1.0405E+01   1.0658E+01   3.8021E-05  0.0102
   1.0658E+01   1.0917E+01   3.3998E-05  0.0106
   1.0917E+01   1.1183E+01   3.0818E-05  0.0110
   1.1183E+01   1.1455E+01   2.7401E-05  0.0116
   1.1455E+01   1.1733E+01   2.4923E-05  0.0120
   1.1733E+01   1.2019E+01   2.3329E-05  0.0122
   1.2019E+01   1.2311E+01   2.0719E-05  0.0128
   1.2311E+01   1.2611E+01   1.9049E-05  0.0132
   1.2611E+01   1.2918E+01   1.7257E-05  0.0137
   1.2918E+01   1.3232E+01   1.6247E-05  0.0140
   1.3232E+01   1.3554E+01   1.4481E-05  0.0146
   1.3554E+01   1.3884E+01   1.3256E-05  0.0151
   1.3884E+01   1.4222E+01   1.2672E-05  0.0153
   1.4222E+01   1.4568E+01   1.1710E-05  0.0157
   1.4568E+01   1.4922E+01   1.0851E-05  0.0161
   1.4922E+01   1.5285E+01   9.9252E-06  0.0166
   1.5285E+01   1.5657E+01   9.5200E-06  0.0168
   1.5657E+01   1.6038E+01   8.7335E-06  0.0173
   1.6038E+01   1.6428E+01   8.4581E-06  0.0174
   1.6428E+01   1.6828E+01   7.6880E-06  0.0180
   1.6828E+01   1.7237E+01   7.8547E-06  0.0176
   1.7237E+01   1.7657E+01   7.1960E-06  0.0182
   1.7657E+01   1.8086E+01   6.8656E-06  0.0184
   1.8086E+01   1.8526E+01   6.4605E-06  0.0187
   1.8526E+01   1.8977E+01   6.2439E-06  0.0188
   1.8977E+01   1.9439E+01   5.8259E-06  0.0193
   1.9439E+01   1.9912E+01   5.5374E-06  0.0195
   1.9912E+01   2.0396E+01   4.9766E-06  0.0204
   2.0396E+01   2.0893E+01   4.9007E-06  0.0203
   2.0893E+01   2.1401E+01   4.5639E-06  0.0208
   2.1401E+01   2.1922E+01   4.5919E-06  0.0205
   2.1922E+01   2.2455E+01   4.4566E-06  0.0205
   2.2455E+01   2.3001E+01   4.1274E-06  0.0211
   2.3001E+01   2.3561E+01   4.0723E-06  0.0209
   2.3561E+01   2.4134E+01   3.8395E-06  0.0213
   2.4134E+01   2.4721E+01   3.7789E-06  0.0212
   2.4721E+01   2.5323E+01   3.6692E-06  0.0213
   2.5323E+01   2.5939E+01   3.4506E-06  0.0217
   2.5939E+01   2.6570E+01   3.1817E-06  0.0223
   2.6570E+01   2.7217E+01   3.2128E-06  0.0219
   2.7217E+01   2.7879E+01   2.9779E-06  0.0225
   2.7879E+01   2.8557E+01   2.9087E-06  0.0225
   2.8557E+01   2.9252E+01   2.7374E-06  0.0229
   2.9252E+01   2.9964E+01   2.7426E-06  0.0226
   2.9964E+01   3.0693E+01   2.5636E-06  0.0231
   3.0693E+01   3.1440E+01   2.4211E-06  0.0235
   3.1440E+01   3.2205E+01   2.2760E-06  0.0240
   3.2205E+01   3.2988E+01   2.2130E-06  0.0240
   3.2988E+01   3.3791E+01   2.0919E-06  0.0244
   3.3791E+01   3.4613E+01   1.9218E-06  0.0252
   3.4613E+01   3.5455E+01   1.9129E-06  0.0249
   3.5455E+01   3.6318E+01   1.7469E-06  0.0258
   3.6318E+01   3.7201E+01   1.6398E-06  0.0263
   3.7201E+01   3.8106E+01   1.4130E-06  0.0280
   3.8106E+01   3.9034E+01   1.3978E-06  0.0278
   3.9034E+01   3.9983E+01   1.2541E-06  0.0290
   3.9983E+01   4.0956E+01   1.1091E-06  0.0304
   4.0956E+01   4.1953E+01   1.0868E-06  0.0304
   4.1953E+01   4.2973E+01   9.7086E-07  0.0318
   4.2973E+01   4.4019E+01   8.8277E-07  0.0329
   4.4019E+01   4.5090E+01   8.5153E-07  0.0331
   4.5090E+01   4.6187E+01   7.4471E-07  0.0350
   4.6187E+01   4.7311E+01   6.9943E-07  0.0357
   4.7311E+01   4.8462E+01   6.6892E-07  0.0360
   4.8462E+01   4.9641E+01   5.9282E-07  0.0378
   4.9641E+01   5.0849E+01   4.5040E-07  0.0429
   5.0849E+01   5.2086E+01   4.5749E-07  0.0420
   5.2086E+01   5.3353E+01   3.7481E-07  0.0459
   5.3353E+01   5.4651E+01   3.3433E-07  0.0480
   5.4651E+01   5.5981E+01   3.2263E-07  0.0483
   5.5981E+01   5.7343E+01   2.6577E-07  0.0526
   5.7343E+01   5.8738E+01   2.4799E-07  0.0538
   5.8738E+01   6.0168E+01   2.1131E-07  0.0575
   6.0168E+01   6.1632E+01   1.5643E-07  0.0661
   6.1632E+01   6.3131E+01   1.5005E-07  0.0667
   6.3131E+01   6.4667E+01   1.3151E-07  0.0704
   6.4667E+01   6.6240E+01   9.8513E-08  0.0803
   6.6240E+01   6.7852E+01   1.0672E-07  0.0762
   6.7852E+01   6.9503E+01   6.7842E-08  0.0945
   6.9503E+01   7.1194E+01   5.9726E-08  0.0995
   7.1194E+01   7.2926E+01   5.1957E-08  0.1054
   7.2926E+01   7.4701E+01   4.6778E-08  0.1098
   7.4701E+01   7.6518E+01   4.2365E-08  0.1140
   7.6518E+01   7.8380E+01   2.9542E-08  0.1348
   7.8380E+01   8.0287E+01   1.9402E-08  0.1644
   8.0287E+01   8.2240E+01   1.4846E-08  0.1857
   8.2240E+01   8.4241E+01   1.5492E-08  0.1796
   8.4241E+01   8.6291E+01   1.1709E-08  0.2041
   8.6291E+01   8.8391E+01   7.6208E-09  0.2500
   8.8391E+01   9.0541E+01   7.4397E-09  0.2500
   9.0541E+01   9.2744E+01   4.9933E-09  0.3015
   9.2744E+01   9.5001E+01   3.5453E-09  0.3536
   9.5001E+01   9.7312E+01   2.1632E-09  0.4472
   9.7312E+01   9.9680E+01   1.2671E-09  0.5774
   9.9680E+01   1.0211E+02   8.2464E-10  0.7071
   1.0211E+02   1.0459E+02   1.6101E-09  0.5000
   1.0459E+02   1.0713E+02   1.9648E-09  0.4472
   1.0713E+02   1.0974E+02   0.0000E+00  0.0000
   1.0974E+02   1.1241E+02   7.4904E-10  0.7071
   1.1241E+02   1.1515E+02   3.6562E-10  1.0000
   1.1515E+02   1.1795E+02   3.5694E-10  1.0000
   1.1795E+02   1.2082E+02   3.4846E-10  1.0000
   1.2082E+02   1.2376E+02   0.0000E+00  0.0000
   1.2376E+02   1.2677E+02   0.0000E+00  0.0000
   1.2677E+02   1.2985E+02   0.0000E+00  0.0000
   1.2985E+02   1.3301E+02   0.0000E+00  0.0000
   1.3301E+02   1.3625E+02   0.0000E+00  0.0000
   1.3625E+02   1.3956E+02   0.0000E+00  0.0000
   1.3956E+02   1.4296E+02   0.0000E+00  0.0000
   1.4296E+02   1.4644E+02   0.0000E+00  0.0000
   1.4644E+02   1.5000E+02   0.0000E+00  0.0000

#   sum over                 1.0817E-04
'no. =    1   reg = 120 - 220'
msuc: {\huge [t-cross] in region mesh}
msdr: {\it plotted by \ANGEL \version}
msdl: {\it calculated by \PHITS  3.26}
wt: s(0.7)
\vspace{-3}
  region surface crossing
  area  &=&   1.0000E+00 [cm^2]
e:
 
# Information for Restart Calculation
# This calculation was newly started
# istdev =  2 # 1:Batch variance, 2:History variance
# resc2  = 1.00000000000000000E+09 # Total source weight or Total source weight / maxcas
# resc3  = 1.00000000000000000E+09 # Total history number or Total batch number
# maxcas =   500000000 # History / Batch, only used for istdev=1
# bitrseed = 0001001110011001001001110000100100110111001111011100001000101100 # bit data of rseed
