[ T-Cross ]
    title = [t-cross] in region mesh
     mesh =  reg            # mesh type is region-wise
      reg =    1            # number of crossing regions
      non     r-from    r-to       area
      1       119       219        1.000000    
   e-type =    3            # e-mesh is log given by emin, emax and ne
     emin =  1.0000000E-02  # minimum value of e-mesh points
     emax =   150.0000      # maximum value of e-mesh points
#    edel =  2.4039514E-02  # mesh width of e-mesh points
       ne =    400          # number of e-mesh points
#    data = ( e(i), i = 1, ne + 1 )
#           1.00000E-02  1.02433E-02  1.04925E-02  1.07478E-02  1.10093E-02
#           1.12772E-02  1.15516E-02  1.18326E-02  1.21205E-02  1.24154E-02
#           1.27175E-02  1.30269E-02  1.33439E-02  1.36686E-02  1.40011E-02
#           1.43418E-02  1.46907E-02  1.50482E-02  1.54143E-02  1.57894E-02
#           1.61735E-02  1.65670E-02  1.69701E-02  1.73830E-02  1.78060E-02
#           1.82392E-02  1.86830E-02  1.91375E-02  1.96032E-02  2.00801E-02
#           2.05687E-02  2.10692E-02  2.15818E-02  2.21069E-02  2.26448E-02
#           2.31957E-02  2.37601E-02  2.43382E-02  2.49304E-02  2.55369E-02
#           2.61583E-02  2.67947E-02  2.74467E-02  2.81145E-02  2.87985E-02
#           2.94992E-02  3.02169E-02  3.09521E-02  3.17052E-02  3.24766E-02
#           3.32668E-02  3.40762E-02  3.49053E-02  3.57546E-02  3.66246E-02
#           3.75157E-02  3.84284E-02  3.93634E-02  4.03212E-02  4.13022E-02
#           4.23071E-02  4.33365E-02  4.43909E-02  4.54710E-02  4.65773E-02
#           4.77106E-02  4.88714E-02  5.00605E-02  5.12785E-02  5.25262E-02
#           5.38042E-02  5.51133E-02  5.64542E-02  5.78278E-02  5.92348E-02
#           6.06760E-02  6.21523E-02  6.36645E-02  6.52135E-02  6.68002E-02
#           6.84255E-02  7.00904E-02  7.17957E-02  7.35426E-02  7.53319E-02
#           7.71648E-02  7.90423E-02  8.09655E-02  8.29354E-02  8.49533E-02
#           8.70203E-02  8.91376E-02  9.13064E-02  9.35279E-02  9.58035E-02
#           9.81345E-02  1.00522E-01  1.02968E-01  1.05473E-01  1.08040E-01
#           1.10668E-01  1.13361E-01  1.16119E-01  1.18944E-01  1.21838E-01
#           1.24803E-01  1.27839E-01  1.30950E-01  1.34136E-01  1.37399E-01
#           1.40742E-01  1.44167E-01  1.47675E-01  1.51268E-01  1.54948E-01
#           1.58718E-01  1.62580E-01  1.66535E-01  1.70587E-01  1.74738E-01
#           1.78989E-01  1.83344E-01  1.87805E-01  1.92375E-01  1.97055E-01
#           2.01850E-01  2.06761E-01  2.11792E-01  2.16945E-01  2.22223E-01
#           2.27630E-01  2.33169E-01  2.38842E-01  2.44653E-01  2.50605E-01
#           2.56703E-01  2.62949E-01  2.69346E-01  2.75900E-01  2.82613E-01
#           2.89489E-01  2.96532E-01  3.03747E-01  3.11138E-01  3.18708E-01
#           3.26462E-01  3.34405E-01  3.42542E-01  3.50876E-01  3.59413E-01
#           3.68158E-01  3.77116E-01  3.86291E-01  3.95690E-01  4.05317E-01
#           4.15179E-01  4.25281E-01  4.35628E-01  4.46227E-01  4.57084E-01
#           4.68205E-01  4.79597E-01  4.91266E-01  5.03219E-01  5.15463E-01
#           5.28005E-01  5.40851E-01  5.54011E-01  5.67490E-01  5.81298E-01
#           5.95441E-01  6.09929E-01  6.24769E-01  6.39970E-01  6.55541E-01
#           6.71491E-01  6.87828E-01  7.04564E-01  7.21706E-01  7.39266E-01
#           7.57253E-01  7.75678E-01  7.94551E-01  8.13883E-01  8.33685E-01
#           8.53969E-01  8.74747E-01  8.96030E-01  9.17831E-01  9.40163E-01
#           9.63038E-01  9.86469E-01  1.01047E+00  1.03506E+00  1.06024E+00
#           1.08604E+00  1.11246E+00  1.13953E+00  1.16725E+00  1.19565E+00
#           1.22474E+00  1.25454E+00  1.28507E+00  1.31633E+00  1.34836E+00
#           1.38117E+00  1.41477E+00  1.44920E+00  1.48446E+00  1.52057E+00
#           1.55757E+00  1.59547E+00  1.63429E+00  1.67405E+00  1.71478E+00
#           1.75650E+00  1.79924E+00  1.84302E+00  1.88786E+00  1.93379E+00
#           1.98084E+00  2.02904E+00  2.07841E+00  2.12898E+00  2.18078E+00
#           2.23384E+00  2.28819E+00  2.34386E+00  2.40089E+00  2.45930E+00
#           2.51914E+00  2.58043E+00  2.64322E+00  2.70753E+00  2.77341E+00
#           2.84088E+00  2.91001E+00  2.98081E+00  3.05333E+00  3.12762E+00
#           3.20372E+00  3.28167E+00  3.36152E+00  3.44330E+00  3.52708E+00
#           3.61290E+00  3.70080E+00  3.79085E+00  3.88308E+00  3.97756E+00
#           4.07434E+00  4.17347E+00  4.27501E+00  4.37903E+00  4.48557E+00
#           4.59471E+00  4.70650E+00  4.82102E+00  4.93832E+00  5.05847E+00
#           5.18155E+00  5.30762E+00  5.43676E+00  5.56904E+00  5.70453E+00
#           5.84333E+00  5.98550E+00  6.13114E+00  6.28031E+00  6.43312E+00
#           6.58964E+00  6.74997E+00  6.91420E+00  7.08243E+00  7.25475E+00
#           7.43126E+00  7.61207E+00  7.79728E+00  7.98700E+00  8.18133E+00
#           8.38038E+00  8.58428E+00  8.79315E+00  9.00709E+00  9.22624E+00
#           9.45072E+00  9.68067E+00  9.91620E+00  1.01575E+01  1.04046E+01
#           1.06578E+01  1.09171E+01  1.11827E+01  1.14548E+01  1.17335E+01
#           1.20190E+01  1.23114E+01  1.26109E+01  1.29178E+01  1.32321E+01
#           1.35540E+01  1.38838E+01  1.42216E+01  1.45676E+01  1.49221E+01
#           1.52851E+01  1.56570E+01  1.60380E+01  1.64282E+01  1.68279E+01
#           1.72374E+01  1.76568E+01  1.80864E+01  1.85264E+01  1.89772E+01
#           1.94389E+01  1.99119E+01  2.03963E+01  2.08926E+01  2.14009E+01
#           2.19216E+01  2.24550E+01  2.30014E+01  2.35610E+01  2.41343E+01
#           2.47215E+01  2.53230E+01  2.59391E+01  2.65702E+01  2.72167E+01
#           2.78789E+01  2.85572E+01  2.92520E+01  2.99637E+01  3.06928E+01
#           3.14396E+01  3.22045E+01  3.29881E+01  3.37907E+01  3.46128E+01
#           3.54550E+01  3.63177E+01  3.72013E+01  3.81064E+01  3.90336E+01
#           3.99833E+01  4.09561E+01  4.19526E+01  4.29734E+01  4.40189E+01
#           4.50900E+01  4.61870E+01  4.73108E+01  4.84619E+01  4.96410E+01
#           5.08488E+01  5.20860E+01  5.33533E+01  5.46514E+01  5.59812E+01
#           5.73432E+01  5.87384E+01  6.01676E+01  6.16315E+01  6.31311E+01
#           6.46671E+01  6.62405E+01  6.78522E+01  6.95031E+01  7.11941E+01
#           7.29263E+01  7.47007E+01  7.65182E+01  7.83800E+01  8.02870E+01
#           8.22405E+01  8.42414E+01  8.62911E+01  8.83906E+01  9.05412E+01
#           9.27442E+01  9.50007E+01  9.73122E+01  9.96799E+01  1.02105E+02
#           1.04589E+02  1.07134E+02  1.09741E+02  1.12411E+02  1.15146E+02
#           1.17948E+02  1.20817E+02  1.23757E+02  1.26768E+02  1.29852E+02
#           1.33012E+02  1.36248E+02  1.39563E+02  1.42959E+02  1.46437E+02
#           1.50000E+02
     unit =    2            # unit is [1/cm^2/(MeV/n)/source]
     axis =  eng            # axis of output
     file = detector-20.out  # file name of output for the above axis
   output = f-curr          # surface crossing forward current spectrum
     part =  neutron  
# kf/name :  2112     
#    used :        main (  %)        temp (  %)       total (  %)
#  memory :         414 (  0)           0 (  0)         414 (  0)

#------------------------------------------------------------------------------
#newpage:
#   no. =    1   reg = 119 - 219

x: Energy [MeV/n]
y:  F-Curr [1/cm^2/(MeV/n)/source]         
p: xlog ylog afac(0.8) form(0.9)
h: n            x            y(neutron ),hh0l   n 
#  e-lower      e-upper      neutron     r.err 
   1.0000E-02   1.0243E-02   6.3989E-04  0.0506
   1.0243E-02   1.0493E-02   6.1942E-04  0.0508
   1.0493E-02   1.0748E-02   5.9242E-04  0.0513
   1.0748E-02   1.1009E-02   6.4118E-04  0.0488
   1.1009E-02   1.1277E-02   5.6281E-04  0.0514
   1.1277E-02   1.1552E-02   5.4259E-04  0.0518
   1.1552E-02   1.1833E-02   5.5202E-04  0.0507
   1.1833E-02   1.2121E-02   5.3282E-04  0.0510
   1.2121E-02   1.2415E-02   5.6911E-04  0.0488
   1.2415E-02   1.2718E-02   4.9719E-04  0.0515
   1.2718E-02   1.3027E-02   5.1630E-04  0.0500
   1.3027E-02   1.3344E-02   5.0135E-04  0.0501
   1.3344E-02   1.3669E-02   5.1428E-04  0.0489
   1.3669E-02   1.4001E-02   5.0773E-04  0.0486
   1.4001E-02   1.4342E-02   4.9272E-04  0.0488
   1.4342E-02   1.4691E-02   5.0036E-04  0.0478
   1.4691E-02   1.5048E-02   4.7587E-04  0.0484
   1.5048E-02   1.5414E-02   4.6284E-04  0.0485
   1.5414E-02   1.5789E-02   4.1576E-04  0.0506
   1.5789E-02   1.6174E-02   4.5110E-04  0.0480
   1.6174E-02   1.6567E-02   4.3199E-04  0.0484
   1.6567E-02   1.6970E-02   3.9708E-04  0.0499
   1.6970E-02   1.7383E-02   4.3638E-04  0.0471
   1.7383E-02   1.7806E-02   4.1579E-04  0.0476
   1.7806E-02   1.8239E-02   3.7046E-04  0.0499
   1.8239E-02   1.8683E-02   3.1696E-04  0.0531
   1.8683E-02   1.9138E-02   3.8915E-04  0.0475
   1.9138E-02   1.9603E-02   3.9147E-04  0.0468
   1.9603E-02   2.0080E-02   3.6368E-04  0.0480
   2.0080E-02   2.0569E-02   3.4951E-04  0.0483
   2.0569E-02   2.1069E-02   3.3942E-04  0.0485
   2.1069E-02   2.1582E-02   3.5133E-04  0.0471
   2.1582E-02   2.2107E-02   3.1961E-04  0.0488
   2.2107E-02   2.2645E-02   3.1179E-04  0.0488
   2.2645E-02   2.3196E-02   3.2268E-04  0.0474
   2.3196E-02   2.3760E-02   3.0257E-04  0.0483
   2.3760E-02   2.4338E-02   3.1871E-04  0.0465
   2.4338E-02   2.4930E-02   2.9522E-04  0.0477
   2.4930E-02   2.5537E-02   2.7551E-04  0.0488
   2.5537E-02   2.6158E-02   2.6228E-04  0.0495
   2.6158E-02   2.6795E-02   2.8028E-04  0.0473
   2.6795E-02   2.7447E-02   2.7970E-04  0.0468
   2.7447E-02   2.8114E-02   2.8282E-04  0.0460
   2.8114E-02   2.8799E-02   2.7248E-04  0.0463
   2.8799E-02   2.9499E-02   2.6095E-04  0.0467
   2.9499E-02   3.0217E-02   2.2376E-04  0.0498
   3.0217E-02   3.0952E-02   2.4552E-04  0.0470
   3.0952E-02   3.1705E-02   2.5790E-04  0.0453
   3.1705E-02   3.2477E-02   2.2687E-04  0.0477
   3.2477E-02   3.3267E-02   2.2160E-04  0.0477
   3.3267E-02   3.4076E-02   2.1686E-04  0.0476
   3.4076E-02   3.4905E-02   2.3179E-04  0.0455
   3.4905E-02   3.5755E-02   2.1291E-04  0.0470
   3.5755E-02   3.6625E-02   2.3028E-04  0.0446
   3.6625E-02   3.7516E-02   1.7737E-04  0.0503
   3.7516E-02   3.8428E-02   2.1572E-04  0.0450
   3.8428E-02   3.9363E-02   1.9548E-04  0.0467
   3.9363E-02   4.0321E-02   1.8954E-04  0.0469
   4.0321E-02   4.1302E-02   2.0353E-04  0.0447
   4.1302E-02   4.2307E-02   1.8834E-04  0.0459
   4.2307E-02   4.3337E-02   1.7253E-04  0.0474
   4.3337E-02   4.4391E-02   1.7190E-04  0.0469
   4.4391E-02   4.5471E-02   1.7197E-04  0.0463
   4.5471E-02   4.6577E-02   1.8570E-04  0.0441
   4.6577E-02   4.7711E-02   1.6627E-04  0.0460
   4.7711E-02   4.8871E-02   1.5837E-04  0.0466
   4.8871E-02   5.0061E-02   1.5689E-04  0.0462
   5.0061E-02   5.1279E-02   1.4933E-04  0.0468
   5.1279E-02   5.2526E-02   1.4770E-04  0.0465
   5.2526E-02   5.3804E-02   1.6083E-04  0.0441
   5.3804E-02   5.5113E-02   1.4007E-04  0.0466
   5.5113E-02   5.6454E-02   1.4652E-04  0.0450
   5.6454E-02   5.7828E-02   1.2316E-04  0.0486
   5.7828E-02   5.9235E-02   1.3519E-04  0.0458
   5.9235E-02   6.0676E-02   1.3217E-04  0.0458
   6.0676E-02   6.2152E-02   1.2381E-04  0.0467
   6.2152E-02   6.3665E-02   1.2257E-04  0.0464
   6.3665E-02   6.5214E-02   1.2587E-04  0.0452
   6.5214E-02   6.6800E-02   1.2424E-04  0.0450
   6.6800E-02   6.8426E-02   1.2281E-04  0.0447
   6.8426E-02   7.0090E-02   1.1287E-04  0.0461
   7.0090E-02   7.1796E-02   1.1752E-04  0.0446
   7.1796E-02   7.3543E-02   1.1846E-04  0.0439
   7.3543E-02   7.5332E-02   1.0427E-04  0.0462
   7.5332E-02   7.7165E-02   1.0052E-04  0.0465
   7.7165E-02   7.9042E-02   1.0020E-04  0.0460
   7.9042E-02   8.0965E-02   1.0099E-04  0.0453
   8.0965E-02   8.2935E-02   9.9184E-05  0.0452
   8.2935E-02   8.4953E-02   1.0317E-04  0.0438
   8.4953E-02   8.7020E-02   9.2815E-05  0.0456
   8.7020E-02   8.9138E-02   8.9297E-05  0.0459
   8.9138E-02   9.1306E-02   9.1717E-05  0.0448
   9.1306E-02   9.3528E-02   8.5911E-05  0.0457
   9.3528E-02   9.5804E-02   8.6504E-05  0.0450
   9.5804E-02   9.8134E-02   8.5068E-05  0.0448
   9.8134E-02   1.0052E-01   8.5987E-05  0.0441
   1.0052E-01   1.0297E-01   8.4590E-05  0.0439
   1.0297E-01   1.0547E-01   9.3897E-05  0.0412
   1.0547E-01   1.0804E-01   9.4826E-05  0.0405
   1.0804E-01   1.1067E-01   1.0204E-04  0.0386
   1.1067E-01   1.1336E-01   9.9155E-05  0.0386
   1.1336E-01   1.1612E-01   9.9537E-05  0.0381
   1.1612E-01   1.1894E-01   1.0243E-04  0.0371
   1.1894E-01   1.2184E-01   1.0908E-04  0.0355
   1.2184E-01   1.2480E-01   1.0817E-04  0.0352
   1.2480E-01   1.2784E-01   1.1847E-04  0.0333
   1.2784E-01   1.3095E-01   1.1884E-04  0.0328
   1.3095E-01   1.3414E-01   1.2607E-04  0.0315
   1.3414E-01   1.3740E-01   1.2937E-04  0.0307
   1.3740E-01   1.4074E-01   1.3244E-04  0.0300
   1.4074E-01   1.4417E-01   1.3325E-04  0.0296
   1.4417E-01   1.4767E-01   1.3379E-04  0.0291
   1.4767E-01   1.5127E-01   1.3701E-04  0.0285
   1.5127E-01   1.5495E-01   1.3784E-04  0.0280
   1.5495E-01   1.5872E-01   1.4762E-04  0.0268
   1.5872E-01   1.6258E-01   1.5824E-04  0.0255
   1.6258E-01   1.6654E-01   1.5203E-04  0.0257
   1.6654E-01   1.7059E-01   1.6360E-04  0.0245
   1.7059E-01   1.7474E-01   1.6462E-04  0.0242
   1.7474E-01   1.7899E-01   1.7440E-04  0.0232
   1.7899E-01   1.8334E-01   1.7211E-04  0.0230
   1.8334E-01   1.8781E-01   1.7922E-04  0.0223
   1.8781E-01   1.9237E-01   1.8072E-04  0.0220
   1.9237E-01   1.9706E-01   1.8180E-04  0.0216
   1.9706E-01   2.0185E-01   1.9166E-04  0.0208
   2.0185E-01   2.0676E-01   1.8705E-04  0.0208
   2.0676E-01   2.1179E-01   1.9290E-04  0.0203
   2.1179E-01   2.1694E-01   2.0580E-04  0.0194
   2.1694E-01   2.2222E-01   2.0642E-04  0.0191
   2.2222E-01   2.2763E-01   2.1060E-04  0.0187
   2.2763E-01   2.3317E-01   2.1616E-04  0.0182
   2.3317E-01   2.3884E-01   2.1697E-04  0.0180
   2.3884E-01   2.4465E-01   2.1905E-04  0.0177
   2.4465E-01   2.5061E-01   2.2219E-04  0.0174
   2.5061E-01   2.5670E-01   2.2281E-04  0.0171
   2.5670E-01   2.6295E-01   2.2506E-04  0.0168
   2.6295E-01   2.6935E-01   2.3199E-04  0.0164
   2.6935E-01   2.7590E-01   2.3979E-04  0.0159
   2.7590E-01   2.8261E-01   2.4111E-04  0.0157
   2.8261E-01   2.8949E-01   2.4233E-04  0.0155
   2.8949E-01   2.9653E-01   2.5166E-04  0.0150
   2.9653E-01   3.0375E-01   2.5117E-04  0.0148
   3.0375E-01   3.1114E-01   2.4958E-04  0.0147
   3.1114E-01   3.1871E-01   2.5973E-04  0.0142
   3.1871E-01   3.2646E-01   2.6603E-04  0.0139
   3.2646E-01   3.3441E-01   2.6170E-04  0.0138
   3.3441E-01   3.4254E-01   2.7163E-04  0.0134
   3.4254E-01   3.5088E-01   2.7872E-04  0.0131
   3.5088E-01   3.5941E-01   2.7546E-04  0.0130
   3.5941E-01   3.6816E-01   2.7806E-04  0.0128
   3.6816E-01   3.7712E-01   2.7956E-04  0.0126
   3.7712E-01   3.8629E-01   2.9130E-04  0.0122
   3.8629E-01   3.9569E-01   2.8472E-04  0.0122
   3.9569E-01   4.0532E-01   2.9446E-04  0.0118
   4.0532E-01   4.1518E-01   3.0250E-04  0.0115
   4.1518E-01   4.2528E-01   3.0000E-04  0.0115
   4.2528E-01   4.3563E-01   2.9907E-04  0.0113
   4.3563E-01   4.4623E-01   3.0046E-04  0.0112
   4.4623E-01   4.5708E-01   3.0161E-04  0.0110
   4.5708E-01   4.6821E-01   3.0828E-04  0.0108
   4.6821E-01   4.7960E-01   3.1134E-04  0.0106
   4.7960E-01   4.9127E-01   3.0840E-04  0.0105
   4.9127E-01   5.0322E-01   3.1065E-04  0.0103
   5.0322E-01   5.1546E-01   3.1534E-04  0.0101
   5.1546E-01   5.2800E-01   3.1859E-04  0.0100
   5.2800E-01   5.4085E-01   3.2438E-04  0.0098
   5.4085E-01   5.5401E-01   3.1954E-04  0.0097
   5.5401E-01   5.6749E-01   3.1979E-04  0.0096
   5.6749E-01   5.8130E-01   3.1317E-04  0.0096
   5.8130E-01   5.9544E-01   3.2032E-04  0.0094
   5.9544E-01   6.0993E-01   3.2032E-04  0.0092
   6.0993E-01   6.2477E-01   3.2192E-04  0.0091
   6.2477E-01   6.3997E-01   3.1930E-04  0.0090
   6.3997E-01   6.5554E-01   3.2046E-04  0.0089
   6.5554E-01   6.7149E-01   3.1958E-04  0.0088
   6.7149E-01   6.8783E-01   3.1672E-04  0.0088
   6.8783E-01   7.0456E-01   3.1370E-04  0.0087
   7.0456E-01   7.2171E-01   3.1073E-04  0.0086
   7.2171E-01   7.3927E-01   3.1090E-04  0.0085
   7.3927E-01   7.5725E-01   3.0807E-04  0.0085
   7.5725E-01   7.7568E-01   3.0853E-04  0.0084
   7.7568E-01   7.9455E-01   3.0112E-04  0.0084
   7.9455E-01   8.1388E-01   2.9807E-04  0.0083
   8.1388E-01   8.3368E-01   2.9433E-04  0.0082
   8.3368E-01   8.5397E-01   2.8956E-04  0.0082
   8.5397E-01   8.7475E-01   2.8355E-04  0.0082
   8.7475E-01   8.9603E-01   2.7583E-04  0.0082
   8.9603E-01   9.1783E-01   2.6476E-04  0.0083
   9.1783E-01   9.4016E-01   2.5946E-04  0.0083
   9.4016E-01   9.6304E-01   2.5198E-04  0.0083
   9.6304E-01   9.8647E-01   2.4046E-04  0.0084
   9.8647E-01   1.0105E+00   2.3221E-04  0.0084
   1.0105E+00   1.0351E+00   2.2726E-04  0.0084
   1.0351E+00   1.0602E+00   2.2603E-04  0.0083
   1.0602E+00   1.0860E+00   2.2620E-04  0.0082
   1.0860E+00   1.1125E+00   2.2201E-04  0.0082
   1.1125E+00   1.1395E+00   2.2047E-04  0.0081
   1.1395E+00   1.1673E+00   2.1846E-04  0.0081
   1.1673E+00   1.1957E+00   2.2059E-04  0.0079
   1.1957E+00   1.2247E+00   2.1897E-04  0.0078
   1.2247E+00   1.2545E+00   2.1576E-04  0.0078
   1.2545E+00   1.2851E+00   2.1297E-04  0.0078
   1.2851E+00   1.3163E+00   2.0928E-04  0.0077
   1.3163E+00   1.3484E+00   2.0536E-04  0.0077
   1.3484E+00   1.3812E+00   2.0396E-04  0.0076
   1.3812E+00   1.4148E+00   2.0379E-04  0.0075
   1.4148E+00   1.4492E+00   2.0061E-04  0.0075
   1.4492E+00   1.4845E+00   1.9841E-04  0.0075
   1.4845E+00   1.5206E+00   1.9346E-04  0.0075
   1.5206E+00   1.5576E+00   1.8646E-04  0.0075
   1.5576E+00   1.5955E+00   1.8181E-04  0.0075
   1.5955E+00   1.6343E+00   1.7849E-04  0.0075
   1.6343E+00   1.6741E+00   1.7734E-04  0.0074
   1.6741E+00   1.7148E+00   1.7229E-04  0.0074
   1.7148E+00   1.7565E+00   1.6871E-04  0.0074
   1.7565E+00   1.7992E+00   1.6051E-04  0.0075
   1.7992E+00   1.8430E+00   1.5482E-04  0.0075
   1.8430E+00   1.8879E+00   1.4620E-04  0.0076
   1.8879E+00   1.9338E+00   1.4352E-04  0.0076
   1.9338E+00   1.9808E+00   1.3869E-04  0.0076
   1.9808E+00   2.0290E+00   1.3594E-04  0.0076
   2.0290E+00   2.0784E+00   1.3595E-04  0.0075
   2.0784E+00   2.1290E+00   1.3427E-04  0.0075
   2.1290E+00   2.1808E+00   1.3054E-04  0.0075
   2.1808E+00   2.2338E+00   1.2960E-04  0.0074
   2.2338E+00   2.2882E+00   1.2475E-04  0.0075
   2.2882E+00   2.3439E+00   1.2097E-04  0.0075
   2.3439E+00   2.4009E+00   1.1731E-04  0.0075
   2.4009E+00   2.4593E+00   1.1396E-04  0.0076
   2.4593E+00   2.5191E+00   1.1426E-04  0.0075
   2.5191E+00   2.5804E+00   1.0982E-04  0.0075
   2.5804E+00   2.6432E+00   1.0678E-04  0.0076
   2.6432E+00   2.7075E+00   1.0359E-04  0.0076
   2.7075E+00   2.7734E+00   9.9399E-05  0.0076
   2.7734E+00   2.8409E+00   9.8457E-05  0.0076
   2.8409E+00   2.9100E+00   9.6086E-05  0.0076
   2.9100E+00   2.9808E+00   9.2554E-05  0.0077
   2.9808E+00   3.0533E+00   9.0564E-05  0.0076
   3.0533E+00   3.1276E+00   8.7053E-05  0.0077
   3.1276E+00   3.2037E+00   8.6197E-05  0.0077
   3.2037E+00   3.2817E+00   8.2895E-05  0.0077
   3.2817E+00   3.3615E+00   8.0229E-05  0.0078
   3.3615E+00   3.4433E+00   8.0041E-05  0.0077
   3.4433E+00   3.5271E+00   7.5593E-05  0.0078
   3.5271E+00   3.6129E+00   7.5231E-05  0.0077
   3.6129E+00   3.7008E+00   7.2241E-05  0.0078
   3.7008E+00   3.7908E+00   7.0742E-05  0.0078
   3.7908E+00   3.8831E+00   6.9021E-05  0.0078
   3.8831E+00   3.9776E+00   6.6614E-05  0.0078
   3.9776E+00   4.0743E+00   6.3605E-05  0.0079
   4.0743E+00   4.1735E+00   6.2198E-05  0.0079
   4.1735E+00   4.2750E+00   6.0068E-05  0.0080
   4.2750E+00   4.3790E+00   5.7792E-05  0.0080
   4.3790E+00   4.4856E+00   5.6098E-05  0.0080
   4.4856E+00   4.5947E+00   5.2862E-05  0.0082
   4.5947E+00   4.7065E+00   5.1070E-05  0.0082
   4.7065E+00   4.8210E+00   4.9797E-05  0.0082
   4.8210E+00   4.9383E+00   4.7891E-05  0.0083
   4.9383E+00   5.0585E+00   4.5301E-05  0.0084
   5.0585E+00   5.1815E+00   4.4159E-05  0.0084
   5.1815E+00   5.3076E+00   4.2801E-05  0.0085
   5.3076E+00   5.4368E+00   4.0950E-05  0.0086
   5.4368E+00   5.5690E+00   3.9011E-05  0.0087
   5.5690E+00   5.7045E+00   3.7514E-05  0.0087
   5.7045E+00   5.8433E+00   3.5058E-05  0.0089
   5.8433E+00   5.9855E+00   3.3547E-05  0.0090
   5.9855E+00   6.1311E+00   3.1370E-05  0.0092
   6.1311E+00   6.2803E+00   3.0092E-05  0.0093
   6.2803E+00   6.4331E+00   2.8507E-05  0.0095
   6.4331E+00   6.5896E+00   2.6334E-05  0.0097
   6.5896E+00   6.7500E+00   2.4799E-05  0.0099
   6.7500E+00   6.9142E+00   2.2917E-05  0.0102
   6.9142E+00   7.0824E+00   2.0835E-05  0.0106
   7.0824E+00   7.2548E+00   1.8581E-05  0.0111
   7.2548E+00   7.4313E+00   1.7416E-05  0.0113
   7.4313E+00   7.6121E+00   1.5785E-05  0.0117
   7.6121E+00   7.7973E+00   1.4753E-05  0.0120
   7.7973E+00   7.9870E+00   1.3956E-05  0.0122
   7.9870E+00   8.1813E+00   1.3318E-05  0.0123
   8.1813E+00   8.3804E+00   1.1914E-05  0.0129
   8.3804E+00   8.5843E+00   1.1164E-05  0.0131
   8.5843E+00   8.7931E+00   1.0492E-05  0.0134
   8.7931E+00   9.0071E+00   9.3904E-06  0.0140
   9.0071E+00   9.2262E+00   8.8491E-06  0.0142
   9.2262E+00   9.4507E+00   8.0513E-06  0.0148
   9.4507E+00   9.6807E+00   7.4449E-06  0.0152
   9.6807E+00   9.9162E+00   6.9955E-06  0.0155
   9.9162E+00   1.0157E+01   6.4228E-06  0.0160
   1.0157E+01   1.0405E+01   5.8708E-06  0.0165
   1.0405E+01   1.0658E+01   5.6686E-06  0.0166
   1.0658E+01   1.0917E+01   5.0552E-06  0.0174
   1.0917E+01   1.1183E+01   4.6095E-06  0.0180
   1.1183E+01   1.1455E+01   4.3736E-06  0.0182
   1.1455E+01   1.1733E+01   4.1402E-06  0.0185
   1.1733E+01   1.2019E+01   3.6683E-06  0.0194
   1.2019E+01   1.2311E+01   3.4282E-06  0.0199
   1.2311E+01   1.2611E+01   3.1888E-06  0.0204
   1.2611E+01   1.2918E+01   2.9840E-06  0.0208
   1.2918E+01   1.3232E+01   2.7393E-06  0.0215
   1.3232E+01   1.3554E+01   2.3849E-06  0.0228
   1.3554E+01   1.3884E+01   2.2960E-06  0.0229
   1.3884E+01   1.4222E+01   2.1342E-06  0.0235
   1.4222E+01   1.4568E+01   1.9861E-06  0.0241
   1.4568E+01   1.4922E+01   1.8015E-06  0.0249
   1.4922E+01   1.5285E+01   1.6706E-06  0.0256
   1.5285E+01   1.5657E+01   1.4251E-06  0.0274
   1.5657E+01   1.6038E+01   1.4025E-06  0.0273
   1.6038E+01   1.6428E+01   1.2263E-06  0.0288
   1.6428E+01   1.6828E+01   1.1778E-06  0.0291
   1.6828E+01   1.7237E+01   1.0082E-06  0.0311
   1.7237E+01   1.7657E+01   9.3188E-07  0.0320
   1.7657E+01   1.8086E+01   8.2082E-07  0.0337
   1.8086E+01   1.8526E+01   7.7542E-07  0.0342
   1.8526E+01   1.8977E+01   6.4690E-07  0.0370
   1.8977E+01   1.9439E+01   5.5318E-07  0.0396
   1.9439E+01   1.9912E+01   5.2058E-07  0.0403
   1.9912E+01   2.0396E+01   4.3264E-07  0.0437
   2.0396E+01   2.0893E+01   3.9576E-07  0.0451
   2.0893E+01   2.1401E+01   3.3443E-07  0.0485
   2.1401E+01   2.1922E+01   2.4429E-07  0.0561
   2.1922E+01   2.2455E+01   2.3623E-07  0.0563
   2.2455E+01   2.3001E+01   1.9987E-07  0.0605
   2.3001E+01   2.3561E+01   2.0227E-07  0.0594
   2.3561E+01   2.4134E+01   1.4793E-07  0.0687
   2.4134E+01   2.4721E+01   1.3964E-07  0.0698
   2.4721E+01   2.5323E+01   1.0241E-07  0.0806
   2.5323E+01   2.5939E+01   7.0765E-08  0.0958
   2.5939E+01   2.6570E+01   7.5422E-08  0.0917
   2.6570E+01   2.7217E+01   5.4449E-08  0.1066
   2.7217E+01   2.7879E+01   3.5639E-08  0.1302
   2.7879E+01   2.8557E+01   3.7151E-08  0.1260
   2.8557E+01   2.9252E+01   2.3603E-08  0.1562
   2.9252E+01   2.9964E+01   9.5543E-09  0.2425
   2.9964E+01   3.0693E+01   1.2619E-08  0.2085
   3.0693E+01   3.1440E+01   8.5701E-09  0.2500
   3.1440E+01   3.2205E+01   5.2291E-09  0.3162
   3.2205E+01   3.2988E+01   2.5524E-09  0.4472
   3.2988E+01   3.3791E+01   1.9935E-09  0.5000
   3.3791E+01   3.4613E+01   1.9461E-09  0.5000
   3.4613E+01   3.5455E+01   4.7497E-10  1.0000
   3.5455E+01   3.6318E+01   2.3184E-09  0.4472
   3.6318E+01   3.7201E+01   1.3580E-09  0.5774
   3.7201E+01   3.8106E+01   8.8384E-10  0.7071
   3.8106E+01   3.9034E+01   4.3143E-10  1.0000
   3.9034E+01   3.9983E+01   4.2118E-10  1.0000
   3.9983E+01   4.0956E+01   0.0000E+00  0.0000
   4.0956E+01   4.1953E+01   0.0000E+00  0.0000
   4.1953E+01   4.2973E+01   0.0000E+00  0.0000
   4.2973E+01   4.4019E+01   0.0000E+00  0.0000
   4.4019E+01   4.5090E+01   0.0000E+00  0.0000
   4.5090E+01   4.6187E+01   0.0000E+00  0.0000
   4.6187E+01   4.7311E+01   0.0000E+00  0.0000
   4.7311E+01   4.8462E+01   0.0000E+00  0.0000
   4.8462E+01   4.9641E+01   0.0000E+00  0.0000
   4.9641E+01   5.0849E+01   0.0000E+00  0.0000
   5.0849E+01   5.2086E+01   0.0000E+00  0.0000
   5.2086E+01   5.3353E+01   0.0000E+00  0.0000
   5.3353E+01   5.4651E+01   0.0000E+00  0.0000
   5.4651E+01   5.5981E+01   0.0000E+00  0.0000
   5.5981E+01   5.7343E+01   0.0000E+00  0.0000
   5.7343E+01   5.8738E+01   0.0000E+00  0.0000
   5.8738E+01   6.0168E+01   0.0000E+00  0.0000
   6.0168E+01   6.1632E+01   0.0000E+00  0.0000
   6.1632E+01   6.3131E+01   0.0000E+00  0.0000
   6.3131E+01   6.4667E+01   0.0000E+00  0.0000
   6.4667E+01   6.6240E+01   0.0000E+00  0.0000
   6.6240E+01   6.7852E+01   0.0000E+00  0.0000
   6.7852E+01   6.9503E+01   0.0000E+00  0.0000
   6.9503E+01   7.1194E+01   0.0000E+00  0.0000
   7.1194E+01   7.2926E+01   0.0000E+00  0.0000
   7.2926E+01   7.4701E+01   0.0000E+00  0.0000
   7.4701E+01   7.6518E+01   0.0000E+00  0.0000
   7.6518E+01   7.8380E+01   0.0000E+00  0.0000
   7.8380E+01   8.0287E+01   0.0000E+00  0.0000
   8.0287E+01   8.2240E+01   0.0000E+00  0.0000
   8.2240E+01   8.4241E+01   0.0000E+00  0.0000
   8.4241E+01   8.6291E+01   0.0000E+00  0.0000
   8.6291E+01   8.8391E+01   0.0000E+00  0.0000
   8.8391E+01   9.0541E+01   0.0000E+00  0.0000
   9.0541E+01   9.2744E+01   0.0000E+00  0.0000
   9.2744E+01   9.5001E+01   0.0000E+00  0.0000
   9.5001E+01   9.7312E+01   0.0000E+00  0.0000
   9.7312E+01   9.9680E+01   0.0000E+00  0.0000
   9.9680E+01   1.0211E+02   0.0000E+00  0.0000
   1.0211E+02   1.0459E+02   0.0000E+00  0.0000
   1.0459E+02   1.0713E+02   0.0000E+00  0.0000
   1.0713E+02   1.0974E+02   0.0000E+00  0.0000
   1.0974E+02   1.1241E+02   0.0000E+00  0.0000
   1.1241E+02   1.1515E+02   0.0000E+00  0.0000
   1.1515E+02   1.1795E+02   0.0000E+00  0.0000
   1.1795E+02   1.2082E+02   0.0000E+00  0.0000
   1.2082E+02   1.2376E+02   0.0000E+00  0.0000
   1.2376E+02   1.2677E+02   0.0000E+00  0.0000
   1.2677E+02   1.2985E+02   0.0000E+00  0.0000
   1.2985E+02   1.3301E+02   0.0000E+00  0.0000
   1.3301E+02   1.3625E+02   0.0000E+00  0.0000
   1.3625E+02   1.3956E+02   0.0000E+00  0.0000
   1.3956E+02   1.4296E+02   0.0000E+00  0.0000
   1.4296E+02   1.4644E+02   0.0000E+00  0.0000
   1.4644E+02   1.5000E+02   0.0000E+00  0.0000

#   sum over                 5.4454E-06
'no. =    1   reg = 119 - 219'
msuc: {\huge [t-cross] in region mesh}
msdr: {\it plotted by \ANGEL \version}
msdl: {\it calculated by \PHITS  3.26}
wt: s(0.7)
\vspace{-3}
  region surface crossing
  area  &=&   1.0000E+00 [cm^2]
e:
 
# Information for Restart Calculation
# This calculation was newly started
# istdev =  2 # 1:Batch variance, 2:History variance
# resc2  = 2.50000000000000000E+09 # Total source weight or Total source weight / maxcas
# resc3  = 2.50000000000000000E+09 # Total history number or Total batch number
# maxcas =   100000000 # History / Batch, only used for istdev=1
# bitrseed = 1100001110001001100010001100011001110101000011000110100101010100 # bit data of rseed
