[ T-Cross ]
    title = [t-cross] in region mesh
     mesh =  reg            # mesh type is region-wise
      reg =    1            # number of crossing regions
      non     r-from    r-to       area
      1       105       205        1.000000    
   e-type =    3            # e-mesh is log given by emin, emax and ne
     emin =  1.0000000E-02  # minimum value of e-mesh points
     emax =   150.0000      # maximum value of e-mesh points
#    edel =  2.4039514E-02  # mesh width of e-mesh points
       ne =    400          # number of e-mesh points
#    data = ( e(i), i = 1, ne + 1 )
#           1.00000E-02  1.02433E-02  1.04925E-02  1.07478E-02  1.10093E-02
#           1.12772E-02  1.15516E-02  1.18326E-02  1.21205E-02  1.24154E-02
#           1.27175E-02  1.30269E-02  1.33439E-02  1.36686E-02  1.40011E-02
#           1.43418E-02  1.46907E-02  1.50482E-02  1.54143E-02  1.57894E-02
#           1.61735E-02  1.65670E-02  1.69701E-02  1.73830E-02  1.78060E-02
#           1.82392E-02  1.86830E-02  1.91375E-02  1.96032E-02  2.00801E-02
#           2.05687E-02  2.10692E-02  2.15818E-02  2.21069E-02  2.26448E-02
#           2.31957E-02  2.37601E-02  2.43382E-02  2.49304E-02  2.55369E-02
#           2.61583E-02  2.67947E-02  2.74467E-02  2.81145E-02  2.87985E-02
#           2.94992E-02  3.02169E-02  3.09521E-02  3.17052E-02  3.24766E-02
#           3.32668E-02  3.40762E-02  3.49053E-02  3.57546E-02  3.66246E-02
#           3.75157E-02  3.84284E-02  3.93634E-02  4.03212E-02  4.13022E-02
#           4.23071E-02  4.33365E-02  4.43909E-02  4.54710E-02  4.65773E-02
#           4.77106E-02  4.88714E-02  5.00605E-02  5.12785E-02  5.25262E-02
#           5.38042E-02  5.51133E-02  5.64542E-02  5.78278E-02  5.92348E-02
#           6.06760E-02  6.21523E-02  6.36645E-02  6.52135E-02  6.68002E-02
#           6.84255E-02  7.00904E-02  7.17957E-02  7.35426E-02  7.53319E-02
#           7.71648E-02  7.90423E-02  8.09655E-02  8.29354E-02  8.49533E-02
#           8.70203E-02  8.91376E-02  9.13064E-02  9.35279E-02  9.58035E-02
#           9.81345E-02  1.00522E-01  1.02968E-01  1.05473E-01  1.08040E-01
#           1.10668E-01  1.13361E-01  1.16119E-01  1.18944E-01  1.21838E-01
#           1.24803E-01  1.27839E-01  1.30950E-01  1.34136E-01  1.37399E-01
#           1.40742E-01  1.44167E-01  1.47675E-01  1.51268E-01  1.54948E-01
#           1.58718E-01  1.62580E-01  1.66535E-01  1.70587E-01  1.74738E-01
#           1.78989E-01  1.83344E-01  1.87805E-01  1.92375E-01  1.97055E-01
#           2.01850E-01  2.06761E-01  2.11792E-01  2.16945E-01  2.22223E-01
#           2.27630E-01  2.33169E-01  2.38842E-01  2.44653E-01  2.50605E-01
#           2.56703E-01  2.62949E-01  2.69346E-01  2.75900E-01  2.82613E-01
#           2.89489E-01  2.96532E-01  3.03747E-01  3.11138E-01  3.18708E-01
#           3.26462E-01  3.34405E-01  3.42542E-01  3.50876E-01  3.59413E-01
#           3.68158E-01  3.77116E-01  3.86291E-01  3.95690E-01  4.05317E-01
#           4.15179E-01  4.25281E-01  4.35628E-01  4.46227E-01  4.57084E-01
#           4.68205E-01  4.79597E-01  4.91266E-01  5.03219E-01  5.15463E-01
#           5.28005E-01  5.40851E-01  5.54011E-01  5.67490E-01  5.81298E-01
#           5.95441E-01  6.09929E-01  6.24769E-01  6.39970E-01  6.55541E-01
#           6.71491E-01  6.87828E-01  7.04564E-01  7.21706E-01  7.39266E-01
#           7.57253E-01  7.75678E-01  7.94551E-01  8.13883E-01  8.33685E-01
#           8.53969E-01  8.74747E-01  8.96030E-01  9.17831E-01  9.40163E-01
#           9.63038E-01  9.86469E-01  1.01047E+00  1.03506E+00  1.06024E+00
#           1.08604E+00  1.11246E+00  1.13953E+00  1.16725E+00  1.19565E+00
#           1.22474E+00  1.25454E+00  1.28507E+00  1.31633E+00  1.34836E+00
#           1.38117E+00  1.41477E+00  1.44920E+00  1.48446E+00  1.52057E+00
#           1.55757E+00  1.59547E+00  1.63429E+00  1.67405E+00  1.71478E+00
#           1.75650E+00  1.79924E+00  1.84302E+00  1.88786E+00  1.93379E+00
#           1.98084E+00  2.02904E+00  2.07841E+00  2.12898E+00  2.18078E+00
#           2.23384E+00  2.28819E+00  2.34386E+00  2.40089E+00  2.45930E+00
#           2.51914E+00  2.58043E+00  2.64322E+00  2.70753E+00  2.77341E+00
#           2.84088E+00  2.91001E+00  2.98081E+00  3.05333E+00  3.12762E+00
#           3.20372E+00  3.28167E+00  3.36152E+00  3.44330E+00  3.52708E+00
#           3.61290E+00  3.70080E+00  3.79085E+00  3.88308E+00  3.97756E+00
#           4.07434E+00  4.17347E+00  4.27501E+00  4.37903E+00  4.48557E+00
#           4.59471E+00  4.70650E+00  4.82102E+00  4.93832E+00  5.05847E+00
#           5.18155E+00  5.30762E+00  5.43676E+00  5.56904E+00  5.70453E+00
#           5.84333E+00  5.98550E+00  6.13114E+00  6.28031E+00  6.43312E+00
#           6.58964E+00  6.74997E+00  6.91420E+00  7.08243E+00  7.25475E+00
#           7.43126E+00  7.61207E+00  7.79728E+00  7.98700E+00  8.18133E+00
#           8.38038E+00  8.58428E+00  8.79315E+00  9.00709E+00  9.22624E+00
#           9.45072E+00  9.68067E+00  9.91620E+00  1.01575E+01  1.04046E+01
#           1.06578E+01  1.09171E+01  1.11827E+01  1.14548E+01  1.17335E+01
#           1.20190E+01  1.23114E+01  1.26109E+01  1.29178E+01  1.32321E+01
#           1.35540E+01  1.38838E+01  1.42216E+01  1.45676E+01  1.49221E+01
#           1.52851E+01  1.56570E+01  1.60380E+01  1.64282E+01  1.68279E+01
#           1.72374E+01  1.76568E+01  1.80864E+01  1.85264E+01  1.89772E+01
#           1.94389E+01  1.99119E+01  2.03963E+01  2.08926E+01  2.14009E+01
#           2.19216E+01  2.24550E+01  2.30014E+01  2.35610E+01  2.41343E+01
#           2.47215E+01  2.53230E+01  2.59391E+01  2.65702E+01  2.72167E+01
#           2.78789E+01  2.85572E+01  2.92520E+01  2.99637E+01  3.06928E+01
#           3.14396E+01  3.22045E+01  3.29881E+01  3.37907E+01  3.46128E+01
#           3.54550E+01  3.63177E+01  3.72013E+01  3.81064E+01  3.90336E+01
#           3.99833E+01  4.09561E+01  4.19526E+01  4.29734E+01  4.40189E+01
#           4.50900E+01  4.61870E+01  4.73108E+01  4.84619E+01  4.96410E+01
#           5.08488E+01  5.20860E+01  5.33533E+01  5.46514E+01  5.59812E+01
#           5.73432E+01  5.87384E+01  6.01676E+01  6.16315E+01  6.31311E+01
#           6.46671E+01  6.62405E+01  6.78522E+01  6.95031E+01  7.11941E+01
#           7.29263E+01  7.47007E+01  7.65182E+01  7.83800E+01  8.02870E+01
#           8.22405E+01  8.42414E+01  8.62911E+01  8.83906E+01  9.05412E+01
#           9.27442E+01  9.50007E+01  9.73122E+01  9.96799E+01  1.02105E+02
#           1.04589E+02  1.07134E+02  1.09741E+02  1.12411E+02  1.15146E+02
#           1.17948E+02  1.20817E+02  1.23757E+02  1.26768E+02  1.29852E+02
#           1.33012E+02  1.36248E+02  1.39563E+02  1.42959E+02  1.46437E+02
#           1.50000E+02
     unit =    2            # unit is [1/cm^2/(MeV/n)/source]
     axis =  eng            # axis of output
     file = detector-06.out  # file name of output for the above axis
   output = f-curr          # surface crossing forward current spectrum
     part =  neutron  
# kf/name :  2112     
#    used :        main (  %)        temp (  %)       total (  %)
#  memory :         414 (  0)           0 (  0)         414 (  0)

#------------------------------------------------------------------------------
#newpage:
#   no. =    1   reg = 105 - 205

x: Energy [MeV/n]
y:  F-Curr [1/cm^2/(MeV/n)/source]         
p: xlog ylog afac(0.8) form(0.9)
h: n            x            y(neutron ),hh0l   n 
#  e-lower      e-upper      neutron     r.err 
   1.0000E-02   1.0243E-02   5.2710E-04  0.0720
   1.0243E-02   1.0493E-02   4.8950E-04  0.0738
   1.0493E-02   1.0748E-02   5.6344E-04  0.0680
   1.0748E-02   1.1009E-02   5.8988E-04  0.0657
   1.1009E-02   1.1277E-02   5.3582E-04  0.0680
   1.1277E-02   1.1552E-02   5.3135E-04  0.0676
   1.1552E-02   1.1833E-02   5.2212E-04  0.0673
   1.1833E-02   1.2121E-02   5.2017E-04  0.0667
   1.2121E-02   1.2415E-02   5.4629E-04  0.0642
   1.2415E-02   1.2718E-02   5.5575E-04  0.0630
   1.2718E-02   1.3027E-02   5.6321E-04  0.0618
   1.3027E-02   1.3344E-02   4.8201E-04  0.0660
   1.3344E-02   1.3669E-02   4.9414E-04  0.0644
   1.3669E-02   1.4001E-02   5.0355E-04  0.0631
   1.4001E-02   1.4342E-02   5.1601E-04  0.0615
   1.4342E-02   1.4691E-02   4.6712E-04  0.0639
   1.4691E-02   1.5048E-02   4.7593E-04  0.0626
   1.5048E-02   1.5414E-02   4.4181E-04  0.0641
   1.5414E-02   1.5789E-02   4.4558E-04  0.0631
   1.5789E-02   1.6174E-02   4.7289E-04  0.0605
   1.6174E-02   1.6567E-02   4.8680E-04  0.0589
   1.6567E-02   1.6970E-02   4.3199E-04  0.0619
   1.6970E-02   1.7383E-02   4.8593E-04  0.0576
   1.7383E-02   1.7806E-02   4.3764E-04  0.0600
   1.7806E-02   1.8239E-02   4.4033E-04  0.0591
   1.8239E-02   1.8683E-02   4.5616E-04  0.0574
   1.8683E-02   1.9138E-02   4.0350E-04  0.0602
   1.9138E-02   1.9603E-02   5.0469E-04  0.0532
   1.9603E-02   2.0080E-02   4.2491E-04  0.0574
   2.0080E-02   2.0569E-02   4.0199E-04  0.0582
   2.0569E-02   2.1069E-02   4.3450E-04  0.0553
   2.1069E-02   2.1582E-02   4.1463E-04  0.0560
   2.1582E-02   2.2107E-02   3.7517E-04  0.0581
   2.2107E-02   2.2645E-02   4.1539E-04  0.0546
   2.2645E-02   2.3196E-02   3.8350E-04  0.0561
   2.3196E-02   2.3760E-02   4.3173E-04  0.0523
   2.3760E-02   2.4338E-02   3.7632E-04  0.0553
   2.4338E-02   2.4930E-02   3.6720E-04  0.0554
   2.4930E-02   2.5537E-02   3.7858E-04  0.0539
   2.5537E-02   2.6158E-02   3.6754E-04  0.0540
   2.6158E-02   2.6795E-02   3.7033E-04  0.0531
   2.6795E-02   2.7447E-02   3.7958E-04  0.0518
   2.7447E-02   2.8114E-02   3.6185E-04  0.0525
   2.8114E-02   2.8799E-02   3.5849E-04  0.0521
   2.8799E-02   2.9499E-02   3.3385E-04  0.0533
   2.9499E-02   3.0217E-02   3.4522E-04  0.0518
   3.0217E-02   3.0952E-02   3.3859E-04  0.0517
   3.0952E-02   3.1705E-02   3.2295E-04  0.0523
   3.1705E-02   3.2477E-02   3.2898E-04  0.0512
   3.2477E-02   3.3267E-02   3.4608E-04  0.0493
   3.3267E-02   3.4076E-02   3.3181E-04  0.0498
   3.4076E-02   3.4905E-02   3.7184E-04  0.0465
   3.4905E-02   3.5755E-02   3.1190E-04  0.0501
   3.5755E-02   3.6625E-02   3.3606E-04  0.0477
   3.6625E-02   3.7516E-02   3.0325E-04  0.0496
   3.7516E-02   3.8428E-02   3.2207E-04  0.0475
   3.8428E-02   3.9363E-02   3.2526E-04  0.0468
   3.9363E-02   4.0321E-02   3.2296E-04  0.0464
   4.0321E-02   4.1302E-02   3.0250E-04  0.0474
   4.1302E-02   4.2307E-02   3.1636E-04  0.0457
   4.2307E-02   4.3337E-02   2.7305E-04  0.0486
   4.3337E-02   4.4391E-02   2.9356E-04  0.0464
   4.4391E-02   4.5471E-02   2.8804E-04  0.0463
   4.5471E-02   4.6577E-02   2.7412E-04  0.0468
   4.6577E-02   4.7711E-02   2.8400E-04  0.0455
   4.7711E-02   4.8871E-02   2.7937E-04  0.0453
   4.8871E-02   5.0061E-02   3.0835E-04  0.0426
   5.0061E-02   5.1279E-02   2.8314E-04  0.0439
   5.1279E-02   5.2526E-02   2.8026E-04  0.0436
   5.2526E-02   5.3804E-02   2.6453E-04  0.0443
   5.3804E-02   5.5113E-02   2.7682E-04  0.0428
   5.5113E-02   5.6454E-02   2.9265E-04  0.0412
   5.6454E-02   5.7828E-02   2.5025E-04  0.0440
   5.7828E-02   5.9235E-02   2.5755E-04  0.0428
   5.9235E-02   6.0676E-02   2.3815E-04  0.0440
   6.0676E-02   6.2152E-02   2.4161E-04  0.0432
   6.2152E-02   6.3665E-02   2.4167E-04  0.0427
   6.3665E-02   6.5214E-02   2.4522E-04  0.0418
   6.5214E-02   6.6800E-02   2.5661E-04  0.0404
   6.6800E-02   6.8426E-02   2.4568E-04  0.0408
   6.8426E-02   7.0090E-02   2.1628E-04  0.0430
   7.0090E-02   7.1796E-02   2.1403E-04  0.0427
   7.1796E-02   7.3543E-02   2.2944E-04  0.0407
   7.3543E-02   7.5332E-02   2.2068E-04  0.0410
   7.5332E-02   7.7165E-02   2.0651E-04  0.0419
   7.7165E-02   7.9042E-02   2.1065E-04  0.0410
   7.9042E-02   8.0965E-02   2.1135E-04  0.0405
   8.0965E-02   8.2935E-02   2.0002E-04  0.0411
   8.2935E-02   8.4953E-02   2.1432E-04  0.0392
   8.4953E-02   8.7020E-02   1.9514E-04  0.0406
   8.7020E-02   8.9138E-02   2.0308E-04  0.0393
   8.9138E-02   9.1306E-02   2.0023E-04  0.0391
   9.1306E-02   9.3528E-02   2.0336E-04  0.0384
   9.3528E-02   9.5804E-02   1.9126E-04  0.0391
   9.5804E-02   9.8134E-02   1.9772E-04  0.0380
   9.8134E-02   1.0052E-01   1.7892E-04  0.0395
   1.0052E-01   1.0297E-01   1.8703E-04  0.0381
   1.0297E-01   1.0547E-01   1.8120E-04  0.0383
   1.0547E-01   1.0804E-01   1.7256E-04  0.0388
   1.0804E-01   1.1067E-01   1.7761E-04  0.0377
   1.1067E-01   1.1336E-01   1.6579E-04  0.0386
   1.1336E-01   1.1612E-01   1.6970E-04  0.0377
   1.1612E-01   1.1894E-01   1.6380E-04  0.0379
   1.1894E-01   1.2184E-01   1.5977E-04  0.0379
   1.2184E-01   1.2480E-01   1.4805E-04  0.0389
   1.2480E-01   1.2784E-01   1.4435E-04  0.0390
   1.2784E-01   1.3095E-01   1.4994E-04  0.0378
   1.3095E-01   1.3414E-01   1.3848E-04  0.0388
   1.3414E-01   1.3740E-01   1.4551E-04  0.0374
   1.3740E-01   1.4074E-01   1.4126E-04  0.0375
   1.4074E-01   1.4417E-01   1.3403E-04  0.0381
   1.4417E-01   1.4767E-01   1.3820E-04  0.0371
   1.4767E-01   1.5127E-01   1.3703E-04  0.0367
   1.5127E-01   1.5495E-01   1.2983E-04  0.0373
   1.5495E-01   1.5872E-01   1.2310E-04  0.0378
   1.5872E-01   1.6258E-01   1.2411E-04  0.0372
   1.6258E-01   1.6654E-01   1.2778E-04  0.0363
   1.6654E-01   1.7059E-01   1.2561E-04  0.0361
   1.7059E-01   1.7474E-01   1.1683E-04  0.0370
   1.7474E-01   1.7899E-01   1.1328E-04  0.0372
   1.7899E-01   1.8334E-01   1.1000E-04  0.0373
   1.8334E-01   1.8781E-01   1.0911E-04  0.0370
   1.8781E-01   1.9237E-01   1.0055E-04  0.0380
   1.9237E-01   1.9706E-01   1.0616E-04  0.0366
   1.9706E-01   2.0185E-01   1.0251E-04  0.0368
   2.0185E-01   2.0676E-01   9.8435E-05  0.0371
   2.0676E-01   2.1179E-01   1.0007E-04  0.0364
   2.1179E-01   2.1694E-01   1.0396E-04  0.0353
   2.1694E-01   2.2222E-01   1.1093E-04  0.0337
   2.2222E-01   2.2763E-01   1.1958E-04  0.0321
   2.2763E-01   2.3317E-01   1.0498E-04  0.0338
   2.3317E-01   2.3884E-01   1.1464E-04  0.0320
   2.3884E-01   2.4465E-01   1.2383E-04  0.0304
   2.4465E-01   2.5061E-01   1.2175E-04  0.0303
   2.5061E-01   2.5670E-01   1.1947E-04  0.0302
   2.5670E-01   2.6295E-01   1.2171E-04  0.0296
   2.6295E-01   2.6935E-01   1.2339E-04  0.0290
   2.6935E-01   2.7590E-01   1.2303E-04  0.0287
   2.7590E-01   2.8261E-01   1.2254E-04  0.0284
   2.8261E-01   2.8949E-01   1.2373E-04  0.0280
   2.8949E-01   2.9653E-01   1.3453E-04  0.0265
   2.9653E-01   3.0375E-01   1.2400E-04  0.0272
   3.0375E-01   3.1114E-01   1.2596E-04  0.0267
   3.1114E-01   3.1871E-01   1.3900E-04  0.0252
   3.1871E-01   3.2646E-01   1.3986E-04  0.0248
   3.2646E-01   3.3441E-01   1.3384E-04  0.0250
   3.3441E-01   3.4254E-01   1.3541E-04  0.0246
   3.4254E-01   3.5088E-01   1.3685E-04  0.0242
   3.5088E-01   3.5941E-01   1.3951E-04  0.0236
   3.5941E-01   3.6816E-01   1.4491E-04  0.0229
   3.6816E-01   3.7712E-01   1.4468E-04  0.0227
   3.7712E-01   3.8629E-01   1.4622E-04  0.0223
   3.8629E-01   3.9569E-01   1.4769E-04  0.0219
   3.9569E-01   4.0532E-01   1.4271E-04  0.0220
   4.0532E-01   4.1518E-01   1.4434E-04  0.0216
   4.1518E-01   4.2528E-01   1.4760E-04  0.0211
   4.2528E-01   4.3563E-01   1.4005E-04  0.0214
   4.3563E-01   4.4623E-01   1.5024E-04  0.0204
   4.4623E-01   4.5708E-01   1.4696E-04  0.0204
   4.5708E-01   4.6821E-01   1.5663E-04  0.0195
   4.6821E-01   4.7960E-01   1.5190E-04  0.0196
   4.7960E-01   4.9127E-01   1.5369E-04  0.0193
   4.9127E-01   5.0322E-01   1.5350E-04  0.0190
   5.0322E-01   5.1546E-01   1.5276E-04  0.0189
   5.1546E-01   5.2800E-01   1.5778E-04  0.0183
   5.2800E-01   5.4085E-01   1.5565E-04  0.0182
   5.4085E-01   5.5401E-01   1.5405E-04  0.0181
   5.5401E-01   5.6749E-01   1.5666E-04  0.0177
   5.6749E-01   5.8130E-01   1.5495E-04  0.0176
   5.8130E-01   5.9544E-01   1.5755E-04  0.0173
   5.9544E-01   6.0993E-01   1.5696E-04  0.0171
   6.0993E-01   6.2477E-01   1.5852E-04  0.0168
   6.2477E-01   6.3997E-01   1.5672E-04  0.0167
   6.3997E-01   6.5554E-01   1.5786E-04  0.0164
   6.5554E-01   6.7149E-01   1.5751E-04  0.0163
   6.7149E-01   6.8783E-01   1.5849E-04  0.0160
   6.8783E-01   7.0456E-01   1.5596E-04  0.0160
   7.0456E-01   7.2171E-01   1.5893E-04  0.0156
   7.2171E-01   7.3927E-01   1.5530E-04  0.0156
   7.3927E-01   7.5725E-01   1.5821E-04  0.0153
   7.5725E-01   7.7568E-01   1.5281E-04  0.0154
   7.7568E-01   7.9455E-01   1.5793E-04  0.0149
   7.9455E-01   8.1388E-01   1.5830E-04  0.0147
   8.1388E-01   8.3368E-01   1.5641E-04  0.0146
   8.3368E-01   8.5397E-01   1.5505E-04  0.0145
   8.5397E-01   8.7475E-01   1.5291E-04  0.0145
   8.7475E-01   8.9603E-01   1.5365E-04  0.0143
   8.9603E-01   9.1783E-01   1.5363E-04  0.0141
   9.1783E-01   9.4016E-01   1.5428E-04  0.0139
   9.4016E-01   9.6304E-01   1.4884E-04  0.0140
   9.6304E-01   9.8647E-01   1.4437E-04  0.0140
   9.8647E-01   1.0105E+00   1.4356E-04  0.0139
   1.0105E+00   1.0351E+00   1.4039E-04  0.0139
   1.0351E+00   1.0602E+00   1.3955E-04  0.0138
   1.0602E+00   1.0860E+00   1.3882E-04  0.0136
   1.0860E+00   1.1125E+00   1.3455E-04  0.0137
   1.1125E+00   1.1395E+00   1.3553E-04  0.0135
   1.1395E+00   1.1673E+00   1.3759E-04  0.0132
   1.1673E+00   1.1957E+00   1.3789E-04  0.0130
   1.1957E+00   1.2247E+00   1.3708E-04  0.0129
   1.2247E+00   1.2545E+00   1.3472E-04  0.0129
   1.2545E+00   1.2851E+00   1.3539E-04  0.0127
   1.2851E+00   1.3163E+00   1.3443E-04  0.0126
   1.3163E+00   1.3484E+00   1.2876E-04  0.0127
   1.3484E+00   1.3812E+00   1.3060E-04  0.0125
   1.3812E+00   1.4148E+00   1.3068E-04  0.0123
   1.4148E+00   1.4492E+00   1.2735E-04  0.0123
   1.4492E+00   1.4845E+00   1.2832E-04  0.0121
   1.4845E+00   1.5206E+00   1.2709E-04  0.0120
   1.5206E+00   1.5576E+00   1.2918E-04  0.0118
   1.5576E+00   1.5955E+00   1.2587E-04  0.0118
   1.5955E+00   1.6343E+00   1.2567E-04  0.0117
   1.6343E+00   1.6741E+00   1.2443E-04  0.0116
   1.6741E+00   1.7148E+00   1.2258E-04  0.0115
   1.7148E+00   1.7565E+00   1.2144E-04  0.0114
   1.7565E+00   1.7992E+00   1.2197E-04  0.0113
   1.7992E+00   1.8430E+00   1.1957E-04  0.0113
   1.8430E+00   1.8879E+00   1.1921E-04  0.0111
   1.8879E+00   1.9338E+00   1.1469E-04  0.0112
   1.9338E+00   1.9808E+00   1.1745E-04  0.0110
   1.9808E+00   2.0290E+00   1.1614E-04  0.0109
   2.0290E+00   2.0784E+00   1.1440E-04  0.0108
   2.0784E+00   2.1290E+00   1.1380E-04  0.0107
   2.1290E+00   2.1808E+00   1.0998E-04  0.0108
   2.1808E+00   2.2338E+00   1.1171E-04  0.0106
   2.2338E+00   2.2882E+00   1.1041E-04  0.0105
   2.2882E+00   2.3439E+00   1.0979E-04  0.0104
   2.3439E+00   2.4009E+00   1.0996E-04  0.0103
   2.4009E+00   2.4593E+00   1.0740E-04  0.0103
   2.4593E+00   2.5191E+00   1.0576E-04  0.0102
   2.5191E+00   2.5804E+00   1.0608E-04  0.0101
   2.5804E+00   2.6432E+00   1.0534E-04  0.0100
   2.6432E+00   2.7075E+00   1.0393E-04  0.0100
   2.7075E+00   2.7734E+00   1.0370E-04  0.0099
   2.7734E+00   2.8409E+00   1.0112E-04  0.0099
   2.8409E+00   2.9100E+00   1.0174E-04  0.0097
   2.9100E+00   2.9808E+00   1.0065E-04  0.0097
   2.9808E+00   3.0533E+00   9.9043E-05  0.0096
   3.0533E+00   3.1276E+00   9.9090E-05  0.0095
   3.1276E+00   3.2037E+00   9.6512E-05  0.0095
   3.2037E+00   3.2817E+00   9.5828E-05  0.0094
   3.2817E+00   3.3615E+00   9.5583E-05  0.0093
   3.3615E+00   3.4433E+00   9.5075E-05  0.0092
   3.4433E+00   3.5271E+00   9.3633E-05  0.0092
   3.5271E+00   3.6129E+00   9.3253E-05  0.0091
   3.6129E+00   3.7008E+00   9.0517E-05  0.0091
   3.7008E+00   3.7908E+00   9.1669E-05  0.0090
   3.7908E+00   3.8831E+00   9.0709E-05  0.0089
   3.8831E+00   3.9776E+00   8.9777E-05  0.0089
   3.9776E+00   4.0743E+00   8.7931E-05  0.0088
   4.0743E+00   4.1735E+00   8.6944E-05  0.0088
   4.1735E+00   4.2750E+00   8.6060E-05  0.0087
   4.2750E+00   4.3790E+00   8.5798E-05  0.0086
   4.3790E+00   4.4856E+00   8.5111E-05  0.0086
   4.4856E+00   4.5947E+00   8.3393E-05  0.0085
   4.5947E+00   4.7065E+00   8.3020E-05  0.0085
   4.7065E+00   4.8210E+00   8.4452E-05  0.0083
   4.8210E+00   4.9383E+00   8.2885E-05  0.0083
   4.9383E+00   5.0585E+00   8.1097E-05  0.0083
   5.0585E+00   5.1815E+00   8.1375E-05  0.0081
   5.1815E+00   5.3076E+00   7.9697E-05  0.0081
   5.3076E+00   5.4368E+00   7.8129E-05  0.0081
   5.4368E+00   5.5690E+00   7.8733E-05  0.0080
   5.5690E+00   5.7045E+00   7.6890E-05  0.0080
   5.7045E+00   5.8433E+00   7.7377E-05  0.0079
   5.8433E+00   5.9855E+00   7.5997E-05  0.0078
   5.9855E+00   6.1311E+00   7.6379E-05  0.0077
   6.1311E+00   6.2803E+00   7.2192E-05  0.0079
   6.2803E+00   6.4331E+00   7.2700E-05  0.0077
   6.4331E+00   6.5896E+00   7.2297E-05  0.0077
   6.5896E+00   6.7500E+00   7.1668E-05  0.0076
   6.7500E+00   6.9142E+00   7.1217E-05  0.0075
   6.9142E+00   7.0824E+00   7.1187E-05  0.0075
   7.0824E+00   7.2548E+00   6.9814E-05  0.0074
   7.2548E+00   7.4313E+00   6.8619E-05  0.0074
   7.4313E+00   7.6121E+00   6.9919E-05  0.0073
   7.6121E+00   7.7973E+00   6.7894E-05  0.0073
   7.7973E+00   7.9870E+00   6.8041E-05  0.0072
   7.9870E+00   8.1813E+00   6.6869E-05  0.0072
   8.1813E+00   8.3804E+00   6.5926E-05  0.0071
   8.3804E+00   8.5843E+00   6.5829E-05  0.0070
   8.5843E+00   8.7931E+00   6.5496E-05  0.0070
   8.7931E+00   9.0071E+00   6.4542E-05  0.0069
   9.0071E+00   9.2262E+00   6.3913E-05  0.0069
   9.2262E+00   9.4507E+00   6.4435E-05  0.0068
   9.4507E+00   9.6807E+00   6.3428E-05  0.0068
   9.6807E+00   9.9162E+00   6.2479E-05  0.0067
   9.9162E+00   1.0157E+01   6.2608E-05  0.0066
   1.0157E+01   1.0405E+01   6.2842E-05  0.0065
   1.0405E+01   1.0658E+01   6.2382E-05  0.0065
   1.0658E+01   1.0917E+01   6.3019E-05  0.0064
   1.0917E+01   1.1183E+01   6.2553E-05  0.0063
   1.1183E+01   1.1455E+01   6.2350E-05  0.0063
   1.1455E+01   1.1733E+01   6.2926E-05  0.0062
   1.1733E+01   1.2019E+01   6.2345E-05  0.0061
   1.2019E+01   1.2311E+01   6.2956E-05  0.0060
   1.2311E+01   1.2611E+01   6.3210E-05  0.0059
   1.2611E+01   1.2918E+01   6.3157E-05  0.0059
   1.2918E+01   1.3232E+01   6.3969E-05  0.0058
   1.3232E+01   1.3554E+01   6.4849E-05  0.0057
   1.3554E+01   1.3884E+01   6.4410E-05  0.0056
   1.3884E+01   1.4222E+01   6.5266E-05  0.0055
   1.4222E+01   1.4568E+01   6.6075E-05  0.0054
   1.4568E+01   1.4922E+01   6.6299E-05  0.0053
   1.4922E+01   1.5285E+01   6.7766E-05  0.0052
   1.5285E+01   1.5657E+01   6.7993E-05  0.0051
   1.5657E+01   1.6038E+01   6.9270E-05  0.0050
   1.6038E+01   1.6428E+01   7.0585E-05  0.0049
   1.6428E+01   1.6828E+01   7.0946E-05  0.0048
   1.6828E+01   1.7237E+01   7.2394E-05  0.0047
   1.7237E+01   1.7657E+01   7.3818E-05  0.0046
   1.7657E+01   1.8086E+01   7.5091E-05  0.0045
   1.8086E+01   1.8526E+01   7.7156E-05  0.0044
   1.8526E+01   1.8977E+01   7.7659E-05  0.0044
   1.8977E+01   1.9439E+01   7.9261E-05  0.0043
   1.9439E+01   1.9912E+01   8.1279E-05  0.0042
   1.9912E+01   2.0396E+01   8.3569E-05  0.0041
   2.0396E+01   2.0893E+01   8.6335E-05  0.0039
   2.0893E+01   2.1401E+01   8.8534E-05  0.0038
   2.1401E+01   2.1922E+01   9.0272E-05  0.0038
   2.1922E+01   2.2455E+01   9.2142E-05  0.0037
   2.2455E+01   2.3001E+01   9.5009E-05  0.0036
   2.3001E+01   2.3561E+01   9.7909E-05  0.0035
   2.3561E+01   2.4134E+01   1.0034E-04  0.0034
   2.4134E+01   2.4721E+01   1.0307E-04  0.0033
   2.4721E+01   2.5323E+01   1.0621E-04  0.0032
   2.5323E+01   2.5939E+01   1.0848E-04  0.0032
   2.5939E+01   2.6570E+01   1.1129E-04  0.0031
   2.6570E+01   2.7217E+01   1.1456E-04  0.0030
   2.7217E+01   2.7879E+01   1.1757E-04  0.0029
   2.7879E+01   2.8557E+01   1.2006E-04  0.0029
   2.8557E+01   2.9252E+01   1.2372E-04  0.0028
   2.9252E+01   2.9964E+01   1.2600E-04  0.0027
   2.9964E+01   3.0693E+01   1.2850E-04  0.0027
   3.0693E+01   3.1440E+01   1.3074E-04  0.0026
   3.1440E+01   3.2205E+01   1.3298E-04  0.0026
   3.2205E+01   3.2988E+01   1.3516E-04  0.0025
   3.2988E+01   3.3791E+01   1.3614E-04  0.0025
   3.3791E+01   3.4613E+01   1.3765E-04  0.0024
   3.4613E+01   3.5455E+01   1.3722E-04  0.0024
   3.5455E+01   3.6318E+01   1.3722E-04  0.0024
   3.6318E+01   3.7201E+01   1.3597E-04  0.0024
   3.7201E+01   3.8106E+01   1.3384E-04  0.0023
   3.8106E+01   3.9034E+01   1.3318E-04  0.0023
   3.9034E+01   3.9983E+01   1.2932E-04  0.0023
   3.9983E+01   4.0956E+01   1.2655E-04  0.0023
   4.0956E+01   4.1953E+01   1.2220E-04  0.0023
   4.1953E+01   4.2973E+01   1.1853E-04  0.0023
   4.2973E+01   4.4019E+01   1.1287E-04  0.0024
   4.4019E+01   4.5090E+01   1.0798E-04  0.0024
   4.5090E+01   4.6187E+01   1.0235E-04  0.0024
   4.6187E+01   4.7311E+01   9.6414E-05  0.0025
   4.7311E+01   4.8462E+01   9.0457E-05  0.0025
   4.8462E+01   4.9641E+01   8.4492E-05  0.0026
   4.9641E+01   5.0849E+01   7.8037E-05  0.0027
   5.0849E+01   5.2086E+01   7.2389E-05  0.0027
   5.2086E+01   5.3353E+01   6.6508E-05  0.0028
   5.3353E+01   5.4651E+01   6.0916E-05  0.0029
   5.4651E+01   5.5981E+01   5.5242E-05  0.0030
   5.5981E+01   5.7343E+01   5.0304E-05  0.0031
   5.7343E+01   5.8738E+01   4.5620E-05  0.0032
   5.8738E+01   6.0168E+01   4.0931E-05  0.0034
   6.0168E+01   6.1632E+01   3.6882E-05  0.0035
   6.1632E+01   6.3131E+01   3.3188E-05  0.0037
   6.3131E+01   6.4667E+01   3.0051E-05  0.0038
   6.4667E+01   6.6240E+01   2.7110E-05  0.0040
   6.6240E+01   6.7852E+01   2.4860E-05  0.0041
   6.7852E+01   6.9503E+01   2.2388E-05  0.0042
   6.9503E+01   7.1194E+01   2.0329E-05  0.0044
   7.1194E+01   7.2926E+01   1.8382E-05  0.0046
   7.2926E+01   7.4701E+01   1.6899E-05  0.0047
   7.4701E+01   7.6518E+01   1.6036E-05  0.0048
   7.6518E+01   7.8380E+01   1.5155E-05  0.0049
   7.8380E+01   8.0287E+01   1.4400E-05  0.0049
   8.0287E+01   8.2240E+01   1.3121E-05  0.0051
   8.2240E+01   8.4241E+01   1.1697E-05  0.0053
   8.4241E+01   8.6291E+01   1.0105E-05  0.0057
   8.6291E+01   8.8391E+01   8.3962E-06  0.0061
   8.8391E+01   9.0541E+01   6.9927E-06  0.0067
   9.0541E+01   9.2744E+01   5.8389E-06  0.0072
   9.2744E+01   9.5001E+01   4.5237E-06  0.0081
   9.5001E+01   9.7312E+01   2.9569E-06  0.0099
   9.7312E+01   9.9680E+01   1.2631E-06  0.0149
   9.9680E+01   1.0211E+02   2.9082E-07  0.0307
   1.0211E+02   1.0459E+02   1.6369E-08  0.1280
   1.0459E+02   1.0713E+02   0.0000E+00  0.0000
   1.0713E+02   1.0974E+02   0.0000E+00  0.0000
   1.0974E+02   1.1241E+02   0.0000E+00  0.0000
   1.1241E+02   1.1515E+02   0.0000E+00  0.0000
   1.1515E+02   1.1795E+02   0.0000E+00  0.0000
   1.1795E+02   1.2082E+02   0.0000E+00  0.0000
   1.2082E+02   1.2376E+02   0.0000E+00  0.0000
   1.2376E+02   1.2677E+02   0.0000E+00  0.0000
   1.2677E+02   1.2985E+02   0.0000E+00  0.0000
   1.2985E+02   1.3301E+02   0.0000E+00  0.0000
   1.3301E+02   1.3625E+02   0.0000E+00  0.0000
   1.3625E+02   1.3956E+02   0.0000E+00  0.0000
   1.3956E+02   1.4296E+02   0.0000E+00  0.0000
   1.4296E+02   1.4644E+02   0.0000E+00  0.0000
   1.4644E+02   1.5000E+02   0.0000E+00  0.0000

#   sum over                 4.1515E-05
'no. =    1   reg = 105 - 205'
msuc: {\huge [t-cross] in region mesh}
msdr: {\it plotted by \ANGEL \version}
msdl: {\it calculated by \PHITS  3.26}
wt: s(0.7)
\vspace{-3}
  region surface crossing
  area  &=&   1.0000E+00 [cm^2]
e:
 
# Information for Restart Calculation
# This calculation was newly started
# istdev =  2 # 1:Batch variance, 2:History variance
# resc2  = 1.50000000000000000E+09 # Total source weight or Total source weight / maxcas
# resc3  = 1.50000000000000000E+09 # Total history number or Total batch number
# maxcas =   500000000 # History / Batch, only used for istdev=1
# bitrseed = 0000010101110101110110100110011001100101000001100111100100101101 # bit data of rseed
