[ T-Cross ]
    title = [t-cross] in region mesh
     mesh =  reg            # mesh type is region-wise
      reg =    1            # number of crossing regions
      non     r-from    r-to       area
      1       106       206        1.000000    
   e-type =    3            # e-mesh is log given by emin, emax and ne
     emin =  1.0000000E-02  # minimum value of e-mesh points
     emax =   150.0000      # maximum value of e-mesh points
#    edel =  2.4039514E-02  # mesh width of e-mesh points
       ne =    400          # number of e-mesh points
#    data = ( e(i), i = 1, ne + 1 )
#           1.00000E-02  1.02433E-02  1.04925E-02  1.07478E-02  1.10093E-02
#           1.12772E-02  1.15516E-02  1.18326E-02  1.21205E-02  1.24154E-02
#           1.27175E-02  1.30269E-02  1.33439E-02  1.36686E-02  1.40011E-02
#           1.43418E-02  1.46907E-02  1.50482E-02  1.54143E-02  1.57894E-02
#           1.61735E-02  1.65670E-02  1.69701E-02  1.73830E-02  1.78060E-02
#           1.82392E-02  1.86830E-02  1.91375E-02  1.96032E-02  2.00801E-02
#           2.05687E-02  2.10692E-02  2.15818E-02  2.21069E-02  2.26448E-02
#           2.31957E-02  2.37601E-02  2.43382E-02  2.49304E-02  2.55369E-02
#           2.61583E-02  2.67947E-02  2.74467E-02  2.81145E-02  2.87985E-02
#           2.94992E-02  3.02169E-02  3.09521E-02  3.17052E-02  3.24766E-02
#           3.32668E-02  3.40762E-02  3.49053E-02  3.57546E-02  3.66246E-02
#           3.75157E-02  3.84284E-02  3.93634E-02  4.03212E-02  4.13022E-02
#           4.23071E-02  4.33365E-02  4.43909E-02  4.54710E-02  4.65773E-02
#           4.77106E-02  4.88714E-02  5.00605E-02  5.12785E-02  5.25262E-02
#           5.38042E-02  5.51133E-02  5.64542E-02  5.78278E-02  5.92348E-02
#           6.06760E-02  6.21523E-02  6.36645E-02  6.52135E-02  6.68002E-02
#           6.84255E-02  7.00904E-02  7.17957E-02  7.35426E-02  7.53319E-02
#           7.71648E-02  7.90423E-02  8.09655E-02  8.29354E-02  8.49533E-02
#           8.70203E-02  8.91376E-02  9.13064E-02  9.35279E-02  9.58035E-02
#           9.81345E-02  1.00522E-01  1.02968E-01  1.05473E-01  1.08040E-01
#           1.10668E-01  1.13361E-01  1.16119E-01  1.18944E-01  1.21838E-01
#           1.24803E-01  1.27839E-01  1.30950E-01  1.34136E-01  1.37399E-01
#           1.40742E-01  1.44167E-01  1.47675E-01  1.51268E-01  1.54948E-01
#           1.58718E-01  1.62580E-01  1.66535E-01  1.70587E-01  1.74738E-01
#           1.78989E-01  1.83344E-01  1.87805E-01  1.92375E-01  1.97055E-01
#           2.01850E-01  2.06761E-01  2.11792E-01  2.16945E-01  2.22223E-01
#           2.27630E-01  2.33169E-01  2.38842E-01  2.44653E-01  2.50605E-01
#           2.56703E-01  2.62949E-01  2.69346E-01  2.75900E-01  2.82613E-01
#           2.89489E-01  2.96532E-01  3.03747E-01  3.11138E-01  3.18708E-01
#           3.26462E-01  3.34405E-01  3.42542E-01  3.50876E-01  3.59413E-01
#           3.68158E-01  3.77116E-01  3.86291E-01  3.95690E-01  4.05317E-01
#           4.15179E-01  4.25281E-01  4.35628E-01  4.46227E-01  4.57084E-01
#           4.68205E-01  4.79597E-01  4.91266E-01  5.03219E-01  5.15463E-01
#           5.28005E-01  5.40851E-01  5.54011E-01  5.67490E-01  5.81298E-01
#           5.95441E-01  6.09929E-01  6.24769E-01  6.39970E-01  6.55541E-01
#           6.71491E-01  6.87828E-01  7.04564E-01  7.21706E-01  7.39266E-01
#           7.57253E-01  7.75678E-01  7.94551E-01  8.13883E-01  8.33685E-01
#           8.53969E-01  8.74747E-01  8.96030E-01  9.17831E-01  9.40163E-01
#           9.63038E-01  9.86469E-01  1.01047E+00  1.03506E+00  1.06024E+00
#           1.08604E+00  1.11246E+00  1.13953E+00  1.16725E+00  1.19565E+00
#           1.22474E+00  1.25454E+00  1.28507E+00  1.31633E+00  1.34836E+00
#           1.38117E+00  1.41477E+00  1.44920E+00  1.48446E+00  1.52057E+00
#           1.55757E+00  1.59547E+00  1.63429E+00  1.67405E+00  1.71478E+00
#           1.75650E+00  1.79924E+00  1.84302E+00  1.88786E+00  1.93379E+00
#           1.98084E+00  2.02904E+00  2.07841E+00  2.12898E+00  2.18078E+00
#           2.23384E+00  2.28819E+00  2.34386E+00  2.40089E+00  2.45930E+00
#           2.51914E+00  2.58043E+00  2.64322E+00  2.70753E+00  2.77341E+00
#           2.84088E+00  2.91001E+00  2.98081E+00  3.05333E+00  3.12762E+00
#           3.20372E+00  3.28167E+00  3.36152E+00  3.44330E+00  3.52708E+00
#           3.61290E+00  3.70080E+00  3.79085E+00  3.88308E+00  3.97756E+00
#           4.07434E+00  4.17347E+00  4.27501E+00  4.37903E+00  4.48557E+00
#           4.59471E+00  4.70650E+00  4.82102E+00  4.93832E+00  5.05847E+00
#           5.18155E+00  5.30762E+00  5.43676E+00  5.56904E+00  5.70453E+00
#           5.84333E+00  5.98550E+00  6.13114E+00  6.28031E+00  6.43312E+00
#           6.58964E+00  6.74997E+00  6.91420E+00  7.08243E+00  7.25475E+00
#           7.43126E+00  7.61207E+00  7.79728E+00  7.98700E+00  8.18133E+00
#           8.38038E+00  8.58428E+00  8.79315E+00  9.00709E+00  9.22624E+00
#           9.45072E+00  9.68067E+00  9.91620E+00  1.01575E+01  1.04046E+01
#           1.06578E+01  1.09171E+01  1.11827E+01  1.14548E+01  1.17335E+01
#           1.20190E+01  1.23114E+01  1.26109E+01  1.29178E+01  1.32321E+01
#           1.35540E+01  1.38838E+01  1.42216E+01  1.45676E+01  1.49221E+01
#           1.52851E+01  1.56570E+01  1.60380E+01  1.64282E+01  1.68279E+01
#           1.72374E+01  1.76568E+01  1.80864E+01  1.85264E+01  1.89772E+01
#           1.94389E+01  1.99119E+01  2.03963E+01  2.08926E+01  2.14009E+01
#           2.19216E+01  2.24550E+01  2.30014E+01  2.35610E+01  2.41343E+01
#           2.47215E+01  2.53230E+01  2.59391E+01  2.65702E+01  2.72167E+01
#           2.78789E+01  2.85572E+01  2.92520E+01  2.99637E+01  3.06928E+01
#           3.14396E+01  3.22045E+01  3.29881E+01  3.37907E+01  3.46128E+01
#           3.54550E+01  3.63177E+01  3.72013E+01  3.81064E+01  3.90336E+01
#           3.99833E+01  4.09561E+01  4.19526E+01  4.29734E+01  4.40189E+01
#           4.50900E+01  4.61870E+01  4.73108E+01  4.84619E+01  4.96410E+01
#           5.08488E+01  5.20860E+01  5.33533E+01  5.46514E+01  5.59812E+01
#           5.73432E+01  5.87384E+01  6.01676E+01  6.16315E+01  6.31311E+01
#           6.46671E+01  6.62405E+01  6.78522E+01  6.95031E+01  7.11941E+01
#           7.29263E+01  7.47007E+01  7.65182E+01  7.83800E+01  8.02870E+01
#           8.22405E+01  8.42414E+01  8.62911E+01  8.83906E+01  9.05412E+01
#           9.27442E+01  9.50007E+01  9.73122E+01  9.96799E+01  1.02105E+02
#           1.04589E+02  1.07134E+02  1.09741E+02  1.12411E+02  1.15146E+02
#           1.17948E+02  1.20817E+02  1.23757E+02  1.26768E+02  1.29852E+02
#           1.33012E+02  1.36248E+02  1.39563E+02  1.42959E+02  1.46437E+02
#           1.50000E+02
     unit =    2            # unit is [1/cm^2/(MeV/n)/source]
     axis =  eng            # axis of output
     file = detector-07.out  # file name of output for the above axis
   output = f-curr          # surface crossing forward current spectrum
     part =  neutron  
# kf/name :  2112     
#    used :        main (  %)        temp (  %)       total (  %)
#  memory :         414 (  0)           0 (  0)         414 (  0)

#------------------------------------------------------------------------------
#newpage:
#   no. =    1   reg = 106 - 206

x: Energy [MeV/n]
y:  F-Curr [1/cm^2/(MeV/n)/source]         
p: xlog ylog afac(0.8) form(0.9)
h: n            x            y(neutron ),hh0l   n 
#  e-lower      e-upper      neutron     r.err 
   1.0000E-02   1.0243E-02   1.6315E-03  0.0409
   1.0243E-02   1.0493E-02   1.5835E-03  0.0411
   1.0493E-02   1.0748E-02   1.6029E-03  0.0403
   1.0748E-02   1.1009E-02   1.5970E-03  0.0399
   1.1009E-02   1.1277E-02   1.7077E-03  0.0381
   1.1277E-02   1.1552E-02   1.6774E-03  0.0380
   1.1552E-02   1.1833E-02   1.4509E-03  0.0404
   1.1833E-02   1.2121E-02   1.5618E-03  0.0385
   1.2121E-02   1.2415E-02   1.4701E-03  0.0392
   1.2415E-02   1.2718E-02   1.5175E-03  0.0381
   1.2718E-02   1.3027E-02   1.4634E-03  0.0384
   1.3027E-02   1.3344E-02   1.5001E-03  0.0374
   1.3344E-02   1.3669E-02   1.5388E-03  0.0365
   1.3669E-02   1.4001E-02   1.4736E-03  0.0368
   1.4001E-02   1.4342E-02   1.4968E-03  0.0361
   1.4342E-02   1.4691E-02   1.5137E-03  0.0355
   1.4691E-02   1.5048E-02   1.3932E-03  0.0365
   1.5048E-02   1.5414E-02   1.5100E-03  0.0347
   1.5414E-02   1.5789E-02   1.4021E-03  0.0356
   1.5789E-02   1.6174E-02   1.4045E-03  0.0351
   1.6174E-02   1.6567E-02   1.4474E-03  0.0342
   1.6567E-02   1.6970E-02   1.4252E-03  0.0340
   1.6970E-02   1.7383E-02   1.3517E-03  0.0345
   1.7383E-02   1.7806E-02   1.3368E-03  0.0343
   1.7806E-02   1.8239E-02   1.2923E-03  0.0345
   1.8239E-02   1.8683E-02   1.2834E-03  0.0342
   1.8683E-02   1.9138E-02   1.3316E-03  0.0332
   1.9138E-02   1.9603E-02   1.2938E-03  0.0332
   1.9603E-02   2.0080E-02   1.4202E-03  0.0314
   2.0080E-02   2.0569E-02   1.2711E-03  0.0327
   2.0569E-02   2.1069E-02   1.2059E-03  0.0332
   2.1069E-02   2.1582E-02   1.2961E-03  0.0317
   2.1582E-02   2.2107E-02   1.1691E-03  0.0329
   2.2107E-02   2.2645E-02   1.2003E-03  0.0321
   2.2645E-02   2.3196E-02   1.2454E-03  0.0311
   2.3196E-02   2.3760E-02   1.2126E-03  0.0312
   2.3760E-02   2.4338E-02   1.1885E-03  0.0311
   2.4338E-02   2.4930E-02   1.1070E-03  0.0319
   2.4930E-02   2.5537E-02   1.1454E-03  0.0309
   2.5537E-02   2.6158E-02   1.1745E-03  0.0302
   2.6158E-02   2.6795E-02   1.1301E-03  0.0304
   2.6795E-02   2.7447E-02   1.0713E-03  0.0309
   2.7447E-02   2.8114E-02   1.1039E-03  0.0300
   2.8114E-02   2.8799E-02   1.0933E-03  0.0298
   2.8799E-02   2.9499E-02   1.0528E-03  0.0300
   2.9499E-02   3.0217E-02   1.0606E-03  0.0296
   3.0217E-02   3.0952E-02   1.0433E-03  0.0295
   3.0952E-02   3.1705E-02   1.0277E-03  0.0293
   3.1705E-02   3.2477E-02   1.0204E-03  0.0291
   3.2477E-02   3.3267E-02   1.0329E-03  0.0285
   3.3267E-02   3.4076E-02   1.0237E-03  0.0283
   3.4076E-02   3.4905E-02   9.7312E-04  0.0287
   3.4905E-02   3.5755E-02   9.9509E-04  0.0281
   3.5755E-02   3.6625E-02   9.5271E-04  0.0283
   3.6625E-02   3.7516E-02   9.4248E-04  0.0282
   3.7516E-02   3.8428E-02   9.3167E-04  0.0280
   3.8428E-02   3.9363E-02   9.2524E-04  0.0277
   3.9363E-02   4.0321E-02   9.2774E-04  0.0274
   4.0321E-02   4.1302E-02   9.1257E-04  0.0272
   4.1302E-02   4.2307E-02   9.3873E-04  0.0265
   4.2307E-02   4.3337E-02   9.2282E-04  0.0265
   4.3337E-02   4.4391E-02   8.9855E-04  0.0265
   4.4391E-02   4.5471E-02   8.6080E-04  0.0267
   4.5471E-02   4.6577E-02   8.5891E-04  0.0265
   4.6577E-02   4.7711E-02   8.4113E-04  0.0264
   4.7711E-02   4.8871E-02   8.3363E-04  0.0262
   4.8871E-02   5.0061E-02   8.3439E-04  0.0259
   5.0061E-02   5.1279E-02   8.2493E-04  0.0257
   5.1279E-02   5.2526E-02   7.9881E-04  0.0258
   5.2526E-02   5.3804E-02   8.1723E-04  0.0252
   5.3804E-02   5.5113E-02   7.6667E-04  0.0258
   5.5113E-02   5.6454E-02   7.6769E-04  0.0254
   5.6454E-02   5.7828E-02   7.6002E-04  0.0252
   5.7828E-02   5.9235E-02   7.5280E-04  0.0251
   5.9235E-02   6.0676E-02   7.2860E-04  0.0252
   6.0676E-02   6.2152E-02   7.4112E-04  0.0247
   6.2152E-02   6.3665E-02   7.3015E-04  0.0245
   6.3665E-02   6.5214E-02   7.0476E-04  0.0247
   6.5214E-02   6.6800E-02   6.8826E-04  0.0247
   6.6800E-02   6.8426E-02   6.9131E-04  0.0243
   6.8426E-02   7.0090E-02   6.7766E-04  0.0243
   7.0090E-02   7.1796E-02   6.8276E-04  0.0239
   7.1796E-02   7.3543E-02   6.6309E-04  0.0240
   7.3543E-02   7.5332E-02   6.6153E-04  0.0237
   7.5332E-02   7.7165E-02   6.6487E-04  0.0234
   7.7165E-02   7.9042E-02   6.3498E-04  0.0236
   7.9042E-02   8.0965E-02   6.3650E-04  0.0233
   8.0965E-02   8.2935E-02   6.2248E-04  0.0233
   8.2935E-02   8.4953E-02   5.8834E-04  0.0237
   8.4953E-02   8.7020E-02   6.2948E-04  0.0226
   8.7020E-02   8.9138E-02   6.1070E-04  0.0227
   8.9138E-02   9.1306E-02   5.9449E-04  0.0227
   9.1306E-02   9.3528E-02   5.6214E-04  0.0231
   9.3528E-02   9.5804E-02   5.4503E-04  0.0232
   9.5804E-02   9.8134E-02   5.6786E-04  0.0224
   9.8134E-02   1.0052E-01   5.4927E-04  0.0225
   1.0052E-01   1.0297E-01   5.3529E-04  0.0225
   1.0297E-01   1.0547E-01   5.1895E-04  0.0226
   1.0547E-01   1.0804E-01   5.2369E-04  0.0222
   1.0804E-01   1.1067E-01   5.1146E-04  0.0222
   1.1067E-01   1.1336E-01   5.1019E-04  0.0220
   1.1336E-01   1.1612E-01   5.0409E-04  0.0219
   1.1612E-01   1.1894E-01   4.8097E-04  0.0221
   1.1894E-01   1.2184E-01   4.6953E-04  0.0221
   1.2184E-01   1.2480E-01   4.6763E-04  0.0219
   1.2480E-01   1.2784E-01   4.4514E-04  0.0222
   1.2784E-01   1.3095E-01   4.3579E-04  0.0222
   1.3095E-01   1.3414E-01   4.2372E-04  0.0222
   1.3414E-01   1.3740E-01   4.1465E-04  0.0222
   1.3740E-01   1.4074E-01   4.2579E-04  0.0216
   1.4074E-01   1.4417E-01   4.0880E-04  0.0218
   1.4417E-01   1.4767E-01   4.0292E-04  0.0217
   1.4767E-01   1.5127E-01   3.9984E-04  0.0215
   1.5127E-01   1.5495E-01   3.7825E-04  0.0219
   1.5495E-01   1.5872E-01   3.7004E-04  0.0218
   1.5872E-01   1.6258E-01   3.7274E-04  0.0215
   1.6258E-01   1.6654E-01   3.7168E-04  0.0213
   1.6654E-01   1.7059E-01   3.5911E-04  0.0214
   1.7059E-01   1.7474E-01   3.4469E-04  0.0216
   1.7474E-01   1.7899E-01   3.4646E-04  0.0212
   1.7899E-01   1.8334E-01   3.2698E-04  0.0216
   1.8334E-01   1.8781E-01   3.2364E-04  0.0215
   1.8781E-01   1.9237E-01   3.1999E-04  0.0213
   1.9237E-01   1.9706E-01   3.1848E-04  0.0211
   1.9706E-01   2.0185E-01   3.0400E-04  0.0214
   2.0185E-01   2.0676E-01   2.9984E-04  0.0213
   2.0676E-01   2.1179E-01   3.1539E-04  0.0205
   2.1179E-01   2.1694E-01   3.0986E-04  0.0204
   2.1694E-01   2.2222E-01   3.3000E-04  0.0195
   2.2222E-01   2.2763E-01   3.3356E-04  0.0192
   2.2763E-01   2.3317E-01   3.3880E-04  0.0188
   2.3317E-01   2.3884E-01   3.3074E-04  0.0188
   2.3884E-01   2.4465E-01   3.5097E-04  0.0181
   2.4465E-01   2.5061E-01   3.5073E-04  0.0178
   2.5061E-01   2.5670E-01   3.6337E-04  0.0173
   2.5670E-01   2.6295E-01   3.6665E-04  0.0170
   2.6295E-01   2.6935E-01   3.6026E-04  0.0170
   2.6935E-01   2.7590E-01   3.8764E-04  0.0162
   2.7590E-01   2.8261E-01   3.8182E-04  0.0161
   2.8261E-01   2.8949E-01   3.8801E-04  0.0158
   2.8949E-01   2.9653E-01   3.9672E-04  0.0154
   2.9653E-01   3.0375E-01   3.8692E-04  0.0154
   3.0375E-01   3.1114E-01   3.9191E-04  0.0152
   3.1114E-01   3.1871E-01   4.1262E-04  0.0146
   3.1871E-01   3.2646E-01   4.1058E-04  0.0144
   3.2646E-01   3.3441E-01   4.2127E-04  0.0141
   3.3441E-01   3.4254E-01   4.0853E-04  0.0141
   3.4254E-01   3.5088E-01   4.1745E-04  0.0138
   3.5088E-01   3.5941E-01   4.1170E-04  0.0138
   3.5941E-01   3.6816E-01   4.2571E-04  0.0134
   3.6816E-01   3.7712E-01   4.3061E-04  0.0131
   3.7712E-01   3.8629E-01   4.4121E-04  0.0128
   3.8629E-01   3.9569E-01   4.3655E-04  0.0127
   3.9569E-01   4.0532E-01   4.4526E-04  0.0125
   4.0532E-01   4.1518E-01   4.4298E-04  0.0123
   4.1518E-01   4.2528E-01   4.5748E-04  0.0120
   4.2528E-01   4.3563E-01   4.4649E-04  0.0120
   4.3563E-01   4.4623E-01   4.5038E-04  0.0118
   4.4623E-01   4.5708E-01   4.5649E-04  0.0116
   4.5708E-01   4.6821E-01   4.5592E-04  0.0114
   4.6821E-01   4.7960E-01   4.6730E-04  0.0112
   4.7960E-01   4.9127E-01   4.6285E-04  0.0111
   4.9127E-01   5.0322E-01   4.6246E-04  0.0110
   5.0322E-01   5.1546E-01   4.6745E-04  0.0108
   5.1546E-01   5.2800E-01   4.7441E-04  0.0106
   5.2800E-01   5.4085E-01   4.7838E-04  0.0104
   5.4085E-01   5.5401E-01   4.6645E-04  0.0104
   5.5401E-01   5.6749E-01   4.7724E-04  0.0102
   5.6749E-01   5.8130E-01   4.8479E-04  0.0100
   5.8130E-01   5.9544E-01   4.9420E-04  0.0098
   5.9544E-01   6.0993E-01   4.8122E-04  0.0098
   6.0993E-01   6.2477E-01   4.8404E-04  0.0096
   6.2477E-01   6.3997E-01   4.8282E-04  0.0095
   6.3997E-01   6.5554E-01   4.8553E-04  0.0094
   6.5554E-01   6.7149E-01   4.8323E-04  0.0093
   6.7149E-01   6.8783E-01   4.8048E-04  0.0092
   6.8783E-01   7.0456E-01   4.9053E-04  0.0090
   7.0456E-01   7.2171E-01   4.8150E-04  0.0090
   7.2171E-01   7.3927E-01   4.8329E-04  0.0089
   7.3927E-01   7.5725E-01   4.9078E-04  0.0087
   7.5725E-01   7.7568E-01   4.8560E-04  0.0086
   7.7568E-01   7.9455E-01   4.9051E-04  0.0085
   7.9455E-01   8.1388E-01   4.9469E-04  0.0083
   8.1388E-01   8.3368E-01   4.7201E-04  0.0084
   8.3368E-01   8.5397E-01   4.7918E-04  0.0083
   8.5397E-01   8.7475E-01   4.7134E-04  0.0082
   8.7475E-01   8.9603E-01   4.7394E-04  0.0081
   8.9603E-01   9.1783E-01   4.7166E-04  0.0080
   9.1783E-01   9.4016E-01   4.6164E-04  0.0080
   9.4016E-01   9.6304E-01   4.5444E-04  0.0080
   9.6304E-01   9.8647E-01   4.4328E-04  0.0080
   9.8647E-01   1.0105E+00   4.3616E-04  0.0080
   1.0105E+00   1.0351E+00   4.4049E-04  0.0078
   1.0351E+00   1.0602E+00   4.3187E-04  0.0078
   1.0602E+00   1.0860E+00   4.2161E-04  0.0078
   1.0860E+00   1.1125E+00   4.2179E-04  0.0077
   1.1125E+00   1.1395E+00   4.2048E-04  0.0076
   1.1395E+00   1.1673E+00   4.2054E-04  0.0075
   1.1673E+00   1.1957E+00   4.2170E-04  0.0074
   1.1957E+00   1.2247E+00   4.1855E-04  0.0074
   1.2247E+00   1.2545E+00   4.1556E-04  0.0073
   1.2545E+00   1.2851E+00   4.1101E-04  0.0073
   1.2851E+00   1.3163E+00   4.1032E-04  0.0072
   1.3163E+00   1.3484E+00   4.1220E-04  0.0071
   1.3484E+00   1.3812E+00   4.0455E-04  0.0071
   1.3812E+00   1.4148E+00   4.0174E-04  0.0070
   1.4148E+00   1.4492E+00   4.0307E-04  0.0069
   1.4492E+00   1.4845E+00   3.9832E-04  0.0069
   1.4845E+00   1.5206E+00   3.9365E-04  0.0068
   1.5206E+00   1.5576E+00   3.9035E-04  0.0068
   1.5576E+00   1.5955E+00   3.8534E-04  0.0067
   1.5955E+00   1.6343E+00   3.8118E-04  0.0067
   1.6343E+00   1.6741E+00   3.7616E-04  0.0067
   1.6741E+00   1.7148E+00   3.7459E-04  0.0066
   1.7148E+00   1.7565E+00   3.7511E-04  0.0065
   1.7565E+00   1.7992E+00   3.7525E-04  0.0064
   1.7992E+00   1.8430E+00   3.6733E-04  0.0064
   1.8430E+00   1.8879E+00   3.6587E-04  0.0064
   1.8879E+00   1.9338E+00   3.6317E-04  0.0063
   1.9338E+00   1.9808E+00   3.5339E-04  0.0063
   1.9808E+00   2.0290E+00   3.5913E-04  0.0062
   2.0290E+00   2.0784E+00   3.5966E-04  0.0061
   2.0784E+00   2.1290E+00   3.4912E-04  0.0061
   2.1290E+00   2.1808E+00   3.4648E-04  0.0061
   2.1808E+00   2.2338E+00   3.4432E-04  0.0060
   2.2338E+00   2.2882E+00   3.3796E-04  0.0060
   2.2882E+00   2.3439E+00   3.3732E-04  0.0059
   2.3439E+00   2.4009E+00   3.3360E-04  0.0059
   2.4009E+00   2.4593E+00   3.3367E-04  0.0058
   2.4593E+00   2.5191E+00   3.2899E-04  0.0058
   2.5191E+00   2.5804E+00   3.2294E-04  0.0058
   2.5804E+00   2.6432E+00   3.2237E-04  0.0057
   2.6432E+00   2.7075E+00   3.2016E-04  0.0057
   2.7075E+00   2.7734E+00   3.1728E-04  0.0056
   2.7734E+00   2.8409E+00   3.1456E-04  0.0056
   2.8409E+00   2.9100E+00   3.1190E-04  0.0056
   2.9100E+00   2.9808E+00   3.0996E-04  0.0055
   2.9808E+00   3.0533E+00   3.0603E-04  0.0055
   3.0533E+00   3.1276E+00   3.0273E-04  0.0054
   3.1276E+00   3.2037E+00   3.0171E-04  0.0054
   3.2037E+00   3.2817E+00   2.9613E-04  0.0054
   3.2817E+00   3.3615E+00   2.9281E-04  0.0053
   3.3615E+00   3.4433E+00   2.9245E-04  0.0053
   3.4433E+00   3.5271E+00   2.8434E-04  0.0053
   3.5271E+00   3.6129E+00   2.8239E-04  0.0052
   3.6129E+00   3.7008E+00   2.8026E-04  0.0052
   3.7008E+00   3.7908E+00   2.7623E-04  0.0052
   3.7908E+00   3.8831E+00   2.7081E-04  0.0052
   3.8831E+00   3.9776E+00   2.7025E-04  0.0051
   3.9776E+00   4.0743E+00   2.7100E-04  0.0050
   4.0743E+00   4.1735E+00   2.6309E-04  0.0050
   4.1735E+00   4.2750E+00   2.5959E-04  0.0050
   4.2750E+00   4.3790E+00   2.5848E-04  0.0050
   4.3790E+00   4.4856E+00   2.5580E-04  0.0049
   4.4856E+00   4.5947E+00   2.5537E-04  0.0049
   4.5947E+00   4.7065E+00   2.5346E-04  0.0048
   4.7065E+00   4.8210E+00   2.5312E-04  0.0048
   4.8210E+00   4.9383E+00   2.5216E-04  0.0047
   4.9383E+00   5.0585E+00   2.5090E-04  0.0047
   5.0585E+00   5.1815E+00   2.4726E-04  0.0047
   5.1815E+00   5.3076E+00   2.4408E-04  0.0046
   5.3076E+00   5.4368E+00   2.4201E-04  0.0046
   5.4368E+00   5.5690E+00   2.3800E-04  0.0046
   5.5690E+00   5.7045E+00   2.3212E-04  0.0046
   5.7045E+00   5.8433E+00   2.3177E-04  0.0045
   5.8433E+00   5.9855E+00   2.2875E-04  0.0045
   5.9855E+00   6.1311E+00   2.2461E-04  0.0045
   6.1311E+00   6.2803E+00   2.2348E-04  0.0045
   6.2803E+00   6.4331E+00   2.2078E-04  0.0044
   6.4331E+00   6.5896E+00   2.1786E-04  0.0044
   6.5896E+00   6.7500E+00   2.1454E-04  0.0044
   6.7500E+00   6.9142E+00   2.1106E-04  0.0044
   6.9142E+00   7.0824E+00   2.0915E-04  0.0043
   7.0824E+00   7.2548E+00   2.0911E-04  0.0043
   7.2548E+00   7.4313E+00   2.0596E-04  0.0043
   7.4313E+00   7.6121E+00   2.0190E-04  0.0043
   7.6121E+00   7.7973E+00   1.9874E-04  0.0043
   7.7973E+00   7.9870E+00   1.9714E-04  0.0042
   7.9870E+00   8.1813E+00   1.9354E-04  0.0042
   8.1813E+00   8.3804E+00   1.9165E-04  0.0042
   8.3804E+00   8.5843E+00   1.9041E-04  0.0041
   8.5843E+00   8.7931E+00   1.8790E-04  0.0041
   8.7931E+00   9.0071E+00   1.8635E-04  0.0041
   9.0071E+00   9.2262E+00   1.8302E-04  0.0041
   9.2262E+00   9.4507E+00   1.8167E-04  0.0040
   9.4507E+00   9.6807E+00   1.7934E-04  0.0040
   9.6807E+00   9.9162E+00   1.7677E-04  0.0040
   9.9162E+00   1.0157E+01   1.7557E-04  0.0040
   1.0157E+01   1.0405E+01   1.7402E-04  0.0039
   1.0405E+01   1.0658E+01   1.7464E-04  0.0039
   1.0658E+01   1.0917E+01   1.7334E-04  0.0039
   1.0917E+01   1.1183E+01   1.6936E-04  0.0038
   1.1183E+01   1.1455E+01   1.7036E-04  0.0038
   1.1455E+01   1.1733E+01   1.6953E-04  0.0038
   1.1733E+01   1.2019E+01   1.6792E-04  0.0037
   1.2019E+01   1.2311E+01   1.6804E-04  0.0037
   1.2311E+01   1.2611E+01   1.6581E-04  0.0037
   1.2611E+01   1.2918E+01   1.6540E-04  0.0036
   1.2918E+01   1.3232E+01   1.6588E-04  0.0036
   1.3232E+01   1.3554E+01   1.6580E-04  0.0035
   1.3554E+01   1.3884E+01   1.6511E-04  0.0035
   1.3884E+01   1.4222E+01   1.6482E-04  0.0035
   1.4222E+01   1.4568E+01   1.6383E-04  0.0034
   1.4568E+01   1.4922E+01   1.6395E-04  0.0034
   1.4922E+01   1.5285E+01   1.6351E-04  0.0034
   1.5285E+01   1.5657E+01   1.6378E-04  0.0033
   1.5657E+01   1.6038E+01   1.6349E-04  0.0033
   1.6038E+01   1.6428E+01   1.6392E-04  0.0032
   1.6428E+01   1.6828E+01   1.6351E-04  0.0032
   1.6828E+01   1.7237E+01   1.6544E-04  0.0031
   1.7237E+01   1.7657E+01   1.6501E-04  0.0031
   1.7657E+01   1.8086E+01   1.6512E-04  0.0031
   1.8086E+01   1.8526E+01   1.6561E-04  0.0030
   1.8526E+01   1.8977E+01   1.6611E-04  0.0030
   1.8977E+01   1.9439E+01   1.6684E-04  0.0029
   1.9439E+01   1.9912E+01   1.6797E-04  0.0029
   1.9912E+01   2.0396E+01   1.7029E-04  0.0028
   2.0396E+01   2.0893E+01   1.7001E-04  0.0028
   2.0893E+01   2.1401E+01   1.7175E-04  0.0028
   2.1401E+01   2.1922E+01   1.7214E-04  0.0027
   2.1922E+01   2.2455E+01   1.7305E-04  0.0027
   2.2455E+01   2.3001E+01   1.7394E-04  0.0026
   2.3001E+01   2.3561E+01   1.7456E-04  0.0026
   2.3561E+01   2.4134E+01   1.7513E-04  0.0026
   2.4134E+01   2.4721E+01   1.7583E-04  0.0025
   2.4721E+01   2.5323E+01   1.7631E-04  0.0025
   2.5323E+01   2.5939E+01   1.7622E-04  0.0025
   2.5939E+01   2.6570E+01   1.7610E-04  0.0025
   2.6570E+01   2.7217E+01   1.7711E-04  0.0024
   2.7217E+01   2.7879E+01   1.7614E-04  0.0024
   2.7879E+01   2.8557E+01   1.7609E-04  0.0024
   2.8557E+01   2.9252E+01   1.7437E-04  0.0023
   2.9252E+01   2.9964E+01   1.7422E-04  0.0023
   2.9964E+01   3.0693E+01   1.7200E-04  0.0023
   3.0693E+01   3.1440E+01   1.7111E-04  0.0023
   3.1440E+01   3.2205E+01   1.6882E-04  0.0023
   3.2205E+01   3.2988E+01   1.6724E-04  0.0023
   3.2988E+01   3.3791E+01   1.6513E-04  0.0022
   3.3791E+01   3.4613E+01   1.6138E-04  0.0022
   3.4613E+01   3.5455E+01   1.5849E-04  0.0022
   3.5455E+01   3.6318E+01   1.5464E-04  0.0022
   3.6318E+01   3.7201E+01   1.5085E-04  0.0022
   3.7201E+01   3.8106E+01   1.4647E-04  0.0022
   3.8106E+01   3.9034E+01   1.4202E-04  0.0023
   3.9034E+01   3.9983E+01   1.3669E-04  0.0023
   3.9983E+01   4.0956E+01   1.3174E-04  0.0023
   4.0956E+01   4.1953E+01   1.2626E-04  0.0023
   4.1953E+01   4.2973E+01   1.2086E-04  0.0023
   4.2973E+01   4.4019E+01   1.1473E-04  0.0024
   4.4019E+01   4.5090E+01   1.0904E-04  0.0024
   4.5090E+01   4.6187E+01   1.0329E-04  0.0024
   4.6187E+01   4.7311E+01   9.7757E-05  0.0025
   4.7311E+01   4.8462E+01   9.2025E-05  0.0025
   4.8462E+01   4.9641E+01   8.6098E-05  0.0026
   4.9641E+01   5.0849E+01   8.0259E-05  0.0026
   5.0849E+01   5.2086E+01   7.4639E-05  0.0027
   5.2086E+01   5.3353E+01   6.9372E-05  0.0028
   5.3353E+01   5.4651E+01   6.3795E-05  0.0028
   5.4651E+01   5.5981E+01   5.9130E-05  0.0029
   5.5981E+01   5.7343E+01   5.4393E-05  0.0030
   5.7343E+01   5.8738E+01   4.9991E-05  0.0031
   5.8738E+01   6.0168E+01   4.5793E-05  0.0032
   6.0168E+01   6.1632E+01   4.1646E-05  0.0033
   6.1632E+01   6.3131E+01   3.8235E-05  0.0034
   6.3131E+01   6.4667E+01   3.5382E-05  0.0035
   6.4667E+01   6.6240E+01   3.2581E-05  0.0036
   6.6240E+01   6.7852E+01   2.9901E-05  0.0037
   6.7852E+01   6.9503E+01   2.7757E-05  0.0038
   6.9503E+01   7.1194E+01   2.5426E-05  0.0039
   7.1194E+01   7.2926E+01   2.3488E-05  0.0040
   7.2926E+01   7.4701E+01   2.2035E-05  0.0041
   7.4701E+01   7.6518E+01   2.1412E-05  0.0041
   7.6518E+01   7.8380E+01   2.0810E-05  0.0041
   7.8380E+01   8.0287E+01   1.9455E-05  0.0042
   8.0287E+01   8.2240E+01   1.7436E-05  0.0044
   8.2240E+01   8.4241E+01   1.5499E-05  0.0046
   8.4241E+01   8.6291E+01   1.3185E-05  0.0050
   8.6291E+01   8.8391E+01   1.0910E-05  0.0054
   8.8391E+01   9.0541E+01   9.0669E-06  0.0058
   9.0541E+01   9.2744E+01   7.4328E-06  0.0064
   9.2744E+01   9.5001E+01   5.5241E-06  0.0073
   9.5001E+01   9.7312E+01   3.1092E-06  0.0096
   9.7312E+01   9.9680E+01   9.7873E-07  0.0170
   9.9680E+01   1.0211E+02   1.5861E-07  0.0416
   1.0211E+02   1.0459E+02   1.8785E-09  0.3780
   1.0459E+02   1.0713E+02   0.0000E+00  0.0000
   1.0713E+02   1.0974E+02   0.0000E+00  0.0000
   1.0974E+02   1.1241E+02   0.0000E+00  0.0000
   1.1241E+02   1.1515E+02   0.0000E+00  0.0000
   1.1515E+02   1.1795E+02   0.0000E+00  0.0000
   1.1795E+02   1.2082E+02   0.0000E+00  0.0000
   1.2082E+02   1.2376E+02   0.0000E+00  0.0000
   1.2376E+02   1.2677E+02   0.0000E+00  0.0000
   1.2677E+02   1.2985E+02   0.0000E+00  0.0000
   1.2985E+02   1.3301E+02   0.0000E+00  0.0000
   1.3301E+02   1.3625E+02   0.0000E+00  0.0000
   1.3625E+02   1.3956E+02   0.0000E+00  0.0000
   1.3956E+02   1.4296E+02   0.0000E+00  0.0000
   1.4296E+02   1.4644E+02   0.0000E+00  0.0000
   1.4644E+02   1.5000E+02   0.0000E+00  0.0000

#   sum over                 6.7819E-05
'no. =    1   reg = 106 - 206'
msuc: {\huge [t-cross] in region mesh}
msdr: {\it plotted by \ANGEL \version}
msdl: {\it calculated by \PHITS  3.26}
wt: s(0.7)
\vspace{-3}
  region surface crossing
  area  &=&   1.0000E+00 [cm^2]
e:
 
# Information for Restart Calculation
# This calculation was newly started
# istdev =  2 # 1:Batch variance, 2:History variance
# resc2  = 1.50000000000000000E+09 # Total source weight or Total source weight / maxcas
# resc3  = 1.50000000000000000E+09 # Total history number or Total batch number
# maxcas =   500000000 # History / Batch, only used for istdev=1
# bitrseed = 0000010101110101110110100110011001100101000001100111100100101101 # bit data of rseed
